%!PS-Adobe-3.0 EPSF-3.0
%%BoundingBox: 0 0 425 311
%%Title: Graphics produced by IDL
%%For: jlgan@aida119, /home/jlgan/work/subhalo_model
%%Creator: IDL Version 7.0 (linux x86_64 m64)
%%CreationDate: Wed Jun  3 14:30:06 2009
%%DocumentData: Clean7bit
%%Requirements: color
%%LanguageLevel: 1
%%PageOrder: Ascend
%%Pages: (atend)
%%DocumentNeededResources: (atend)
%%EndComments
%%BeginProlog
%+ prolog.ps -- Prolog for IDL generated PostScript files
%+ Copyright (c) 1988-2007 ITT Visual Information Solutions. All Rights Reserved.
%v 5
/$IDL_DICT 40 dict def $IDL_DICT begin /bdef { bind def } bind def /C
{currentpoint newpath moveto} bdef /CP {currentpoint} bdef /D {currentpoint
stroke moveto} bdef /F {closepath fill} bdef /K { setgray } bdef /M {moveto}
bdef /N {rmoveto} bdef /P {lineto} bdef /R {rlineto} bdef /S {gsave show
grestore} bdef /X {currentpoint pop} bdef /Z {gsave currentpoint lineto 20
setlinewidth 1 setlinecap stroke grestore} bdef /L0 {[] 0 setdash} bdef /L1
{[40 100] 0 setdash} bdef /L2 {[200 200] 0 setdash} bdef /L3 {[200 100 50
100] 0 setdash} bdef /L4 {[300 100 50 100 50 100 50 100] 0 setdash} bdef /L5
{[400 200] 0 setdash} bdef /STDFONT { findfont exch scalefont setfont } bdef
/ISOFONT { findfont dup length dict begin { 1 index /FID ne {def} {pop pop}
ifelse } forall /Encoding ISOLatin1Encoding def currentdict end /idltmpfont
exch definefont exch scalefont setfont } bdef /ISOBULLET { gsave /Helvetica
findfont exch scalefont setfont (\267) show currentpoint grestore moveto}
bdef /MITERLIMIT { 2.5 setmiterlimit } bdef end
%%EndProlog
%%Page: 0 1
%%PageRequirements: color
%%PageResources: (atend)
%%PageOrientation: Portrait
%%PageBoundingBox: 0 0 425 311
%%BeginPageSetup
$IDL_DICT begin 0.0283465 dup scale MITERLIMIT
%%IncludeResource: font Helvetica
423.333 /Helvetica STDFONT
%%EndPageSetup
20 setlinewidth L0 0.000 0.000 0.000 setrgbcolor 2886 1830 M 11248 0 R D
2886 1830 M 0 331 R D 30 setlinewidth 2628 1463 M -46 -15 R -30 -46 R
-15 -76 R 0 -45 R 15 -76 R 30 -46 R 46 -15 R 30 0 R 46 15 R 30 46 R 15 76 R
0 45 R -15 76 R -30 46 R -46 15 R -30 0 R D 2871 1174 M -15 -15 R 15 -15 R
15 15 R -15 15 R D 3084 1463 M -46 -15 R -30 -46 R -16 -76 R 0 -45 R
16 -76 R 30 -46 R 46 -15 R 30 0 R 45 15 R 31 46 R 15 76 R 0 45 R -15 76 R
-31 46 R -45 15 R -30 0 R D 20 setlinewidth 5136 1830 M 0 331 R D
30 setlinewidth 4877 1463 M -45 -15 R -30 -46 R -16 -76 R 0 -45 R 16 -76 R
30 -46 R 45 -15 R 31 0 R 45 15 R 31 46 R 15 76 R 0 45 R -15 76 R -31 46 R
-45 15 R -31 0 R D 5121 1174 M -16 -15 R 16 -15 R 15 15 R -15 15 R D
5257 1387 M 0 15 R 15 31 R 16 15 R 30 15 R 61 0 R 30 -15 R 15 -15 R 16 -31 R
0 -30 R -16 -30 R -30 -46 R -152 -152 R 213 0 R D 20 setlinewidth
7385 1830 M 0 331 R D 30 setlinewidth 7127 1463 M -45 -15 R -31 -46 R
-15 -76 R 0 -45 R 15 -76 R 31 -46 R 45 -15 R 31 0 R 45 15 R 30 46 R 16 76 R
0 45 R -16 76 R -30 46 R -45 15 R -31 0 R D 7370 1174 M -15 -15 R 15 -15 R
15 15 R -15 15 R D 7644 1463 M -152 -213 R 228 0 R D 7644 1463 M 0 -319 R D
20 setlinewidth 9635 1830 M 0 331 R D 30 setlinewidth 9377 1463 M -46 -15 R
-30 -46 R -15 -76 R 0 -45 R 15 -76 R 30 -46 R 46 -15 R 30 0 R 46 15 R
30 46 R 15 76 R 0 45 R -15 76 R -30 46 R -46 15 R -30 0 R D 9620 1174 M
-15 -15 R 15 -15 R 15 15 R -15 15 R D 9939 1417 M -15 31 R -46 15 R -30 0 R
-46 -15 R -30 -46 R -15 -76 R 0 -76 R 15 -60 R 30 -31 R 46 -15 R 15 0 R
45 15 R 31 31 R 15 45 R 0 15 R -15 46 R -31 30 R -45 16 R -15 0 R -46 -16 R
-30 -30 R -15 -46 R D 20 setlinewidth 11885 1830 M 0 331 R D 30 setlinewidth
11626 1463 M -45 -15 R -31 -46 R -15 -76 R 0 -45 R 15 -76 R 31 -46 R
45 -15 R 31 0 R 45 15 R 31 46 R 15 76 R 0 45 R -15 76 R -31 46 R -45 15 R
-31 0 R D 11869 1174 M -15 -15 R 15 -15 R 16 15 R -16 15 R D 12067 1463 M
-46 -15 R -15 -31 R 0 -30 R 15 -30 R 31 -15 R 60 -16 R 46 -15 R 30 -30 R
16 -31 R 0 -45 R -16 -31 R -15 -15 R -45 -15 R -61 0 R -46 15 R -15 15 R
-15 31 R 0 45 R 15 31 R 31 30 R 45 15 R 61 16 R 30 15 R 15 30 R 0 30 R
-15 31 R -45 15 R -61 0 R D 20 setlinewidth 14134 1830 M 0 331 R D
30 setlinewidth 13830 1402 M 31 15 R 45 46 R 0 -319 R D 14119 1174 M
-15 -15 R 15 -15 R 15 15 R -15 15 R D 14332 1463 M -46 -15 R -30 -46 R
-15 -76 R 0 -45 R 15 -76 R 30 -46 R 46 -15 R 30 0 R 46 15 R 30 46 R 15 76 R
0 45 R -15 76 R -30 46 R -46 15 R -30 0 R D 20 setlinewidth 3448 1830 M
0 166 R D 4011 1830 M 0 166 R D 4573 1830 M 0 166 R D 5698 1830 M 0 166 R D
6261 1830 M 0 166 R D 6823 1830 M 0 166 R D 7948 1830 M 0 166 R D
8510 1830 M 0 166 R D 9073 1830 M 0 166 R D 10197 1830 M 0 166 R D
10760 1830 M 0 166 R D 11322 1830 M 0 166 R D 12447 1830 M 0 166 R D
13009 1830 M 0 166 R D 13572 1830 M 0 166 R D 30 setlinewidth 5882 762 M
0 -213 R D 5882 671 M 16 45 R 30 31 R 30 15 R 46 0 R D 6080 762 M 0 -152 R
15 -46 R 30 -15 R 46 0 R 30 15 R 46 46 R D 6247 762 M 0 -213 R D 6368 762 M
0 -213 R D 6368 701 M 46 46 R 30 15 R 46 0 R 30 -15 R 16 -46 R 0 -152 R D
6657 762 M 0 -213 R D 6657 701 M 46 46 R 30 15 R 46 0 R 30 -15 R 15 -46 R
0 -152 R D 6930 868 M 16 -15 R 15 15 R -15 15 R -16 -15 R D 6946 762 M
0 -213 R D 7067 762 M 0 -213 R D 7067 701 M 46 46 R 30 15 R 46 0 R 30 -15 R
15 -46 R 0 -152 R D 7523 762 M 0 -258 R -15 -46 R -16 -15 R -30 -15 R
-45 0 R -31 15 R D 7523 716 M -31 31 R -30 15 R -45 0 R -31 -15 R -30 -31 R
-15 -45 R 0 -31 R 15 -45 R 30 -31 R 31 -15 R 45 0 R 30 15 R 31 31 R D
7903 868 M 0 -258 R 15 -46 R 30 -15 R 31 0 R D 7857 762 M 106 0 R D
8054 868 M 16 -15 R 15 15 R -15 15 R -16 -15 R D 8070 762 M 0 -213 R D
8191 762 M 0 -213 R D 8191 701 M 46 46 R 30 15 R 46 0 R 30 -15 R 15 -46 R
0 -152 R D 8358 701 M 46 46 R 30 15 R 46 0 R 30 -15 R 15 -46 R 0 -152 R D
8632 671 M 182 0 R 0 30 R -15 30 R -15 16 R -31 15 R -45 0 R -31 -15 R
-30 -31 R -15 -45 R 0 -31 R 15 -45 R 30 -31 R 31 -15 R 45 0 R 31 15 R
30 31 R D 9163 929 M -273 -501 R D 9254 868 M 0 -319 R D 9361 868 M 15 -15 R
15 15 R -15 15 R -15 -15 R D 9376 762 M 0 -213 R D 9589 868 M -31 0 R
-30 -15 R -15 -46 R 0 -258 R D 9467 762 M 106 0 R D 9665 671 M 182 0 R
0 30 R -15 30 R -16 16 R -30 15 R -45 0 R -31 -15 R -30 -31 R -15 -45 R
0 -31 R 15 -45 R 30 -31 R 31 -15 R 45 0 R 30 15 R 31 31 R D 10211 868 M
0 -258 R 16 -46 R 30 -15 R 30 0 R D 10166 762 M 106 0 R D 10363 868 M
15 -15 R 16 15 R -16 15 R -15 -15 R D 10378 762 M 0 -213 R D 10500 762 M
0 -213 R D 10500 701 M 46 46 R 30 15 R 46 0 R 30 -15 R 15 -46 R 0 -152 R D
10667 701 M 46 46 R 30 15 R 46 0 R 30 -15 R 15 -46 R 0 -152 R D 10940 671 M
183 0 R 0 30 R -15 30 R -16 16 R -30 15 R -46 0 R -30 -15 R -30 -31 R
-16 -45 R 0 -31 R 16 -45 R 30 -31 R 30 -15 R 46 0 R 30 15 R 31 31 R D
20 setlinewidth 2886 10085 M 11248 0 R D 2886 10085 M 0 -330 R D
5136 10085 M 0 -330 R D 7385 10085 M 0 -330 R D 9635 10085 M 0 -330 R D
11885 10085 M 0 -330 R D 14134 10085 M 0 -330 R D 3448 10085 M 0 -165 R D
4011 10085 M 0 -165 R D 4573 10085 M 0 -165 R D 5698 10085 M 0 -165 R D
6261 10085 M 0 -165 R D 6823 10085 M 0 -165 R D 7948 10085 M 0 -165 R D
8510 10085 M 0 -165 R D 9073 10085 M 0 -165 R D 10197 10085 M 0 -165 R D
10760 10085 M 0 -165 R D 11322 10085 M 0 -165 R D 12447 10085 M 0 -165 R D
13009 10085 M 0 -165 R D 13572 10085 M 0 -165 R D 2886 1830 M 0 8255 R D
2886 1830 M 450 0 R D 30 setlinewidth 2104 2149 M -46 -15 R -30 -45 R
-15 -76 R 0 -46 R 15 -76 R 30 -45 R 46 -16 R 30 0 R 46 16 R 30 45 R 15 76 R
0 46 R -15 76 R -30 45 R -46 15 R -30 0 R D 2347 1861 M -15 -15 R 15 -16 R
15 16 R -15 15 R D 2560 2149 M -46 -15 R -30 -45 R -16 -76 R 0 -46 R
16 -76 R 30 -45 R 46 -16 R 30 0 R 45 16 R 31 45 R 15 76 R 0 46 R -15 76 R
-31 45 R -45 15 R -30 0 R D 20 setlinewidth 2886 4061 M 450 0 R D
30 setlinewidth 2104 4197 M -46 -15 R -30 -45 R -15 -76 R 0 -46 R 15 -76 R
30 -45 R 46 -16 R 30 0 R 46 16 R 30 45 R 15 76 R 0 46 R -15 76 R -30 45 R
-46 15 R -30 0 R D 2347 3909 M -15 -15 R 15 -16 R 15 16 R -15 15 R D
2514 4137 M 30 15 R 46 45 R 0 -319 R D 20 setlinewidth 2886 6292 M 450 0 R D
30 setlinewidth 2104 6428 M -46 -15 R -30 -46 R -15 -75 R 0 -46 R 15 -76 R
30 -46 R 46 -15 R 30 0 R 46 15 R 30 46 R 15 76 R 0 46 R -15 75 R -30 46 R
-46 15 R -30 0 R D 2347 6140 M -15 -16 R 15 -15 R 15 15 R -15 16 R D
2484 6352 M 0 15 R 15 31 R 15 15 R 30 15 R 61 0 R 30 -15 R 16 -15 R 15 -31 R
0 -30 R -15 -30 R -31 -46 R -152 -152 R 213 0 R D 20 setlinewidth
2886 8523 M 450 0 R D 30 setlinewidth 2104 8659 M -46 -15 R -30 -46 R
-15 -76 R 0 -45 R 15 -76 R 30 -46 R 46 -15 R 30 0 R 46 15 R 30 46 R 15 76 R
0 45 R -15 76 R -30 46 R -46 15 R -30 0 R D 2347 8371 M -15 -16 R 15 -15 R
15 15 R -15 16 R D 2499 8659 M 167 0 R -91 -121 R 45 0 R 31 -16 R 15 -15 R
15 -45 R 0 -31 R -15 -45 R -31 -31 R -45 -15 R -46 0 R -45 15 R -15 16 R
-16 30 R D 20 setlinewidth 2886 2054 M 225 0 R D 2886 2277 M 225 0 R D
2886 2500 M 225 0 R D 2886 2723 M 225 0 R D 2886 2946 M 225 0 R D
2886 3169 M 225 0 R D 2886 3392 M 225 0 R D 2886 3615 M 225 0 R D
2886 3838 M 225 0 R D 2886 4284 M 225 0 R D 2886 4508 M 225 0 R D
2886 4731 M 225 0 R D 2886 4954 M 225 0 R D 2886 5177 M 225 0 R D
2886 5400 M 225 0 R D 2886 5623 M 225 0 R D 2886 5846 M 225 0 R D
2886 6069 M 225 0 R D 2886 6515 M 225 0 R D 2886 6738 M 225 0 R D
2886 6962 M 225 0 R D 2886 7185 M 225 0 R D 2886 7408 M 225 0 R D
2886 7631 M 225 0 R D 2886 7854 M 225 0 R D 2886 8077 M 225 0 R D
2886 8300 M 225 0 R D 2886 8746 M 225 0 R D 2886 8969 M 225 0 R D
2886 9192 M 225 0 R D 2886 9416 M 225 0 R D 2886 9639 M 225 0 R D
2886 9862 M 225 0 R D 2886 10085 M 225 0 R D 30 setlinewidth 1337 4074 M
212 0 R D 1398 4074 M -46 46 R -15 30 R 0 46 R 15 30 R 46 15 R 151 0 R D
1337 4363 M 152 0 R 45 15 R 15 30 R 0 46 R -15 30 R -45 46 R D 1337 4530 M
212 0 R D 1337 4651 M 212 0 R D 1398 4651 M -46 46 R -15 30 R 0 46 R 15 30 R
46 15 R 151 0 R D 1398 4818 M -46 46 R -15 30 R 0 46 R 15 30 R 46 16 R
151 0 R D 1230 5107 M 319 0 R D 1382 5107 M -30 30 R -15 31 R 0 45 R 15 31 R
30 30 R 46 15 R 30 0 R 46 -15 R 30 -30 R 15 -31 R 0 -45 R -15 -31 R
-30 -30 R D 1428 5380 M 0 183 R -30 0 R -31 -15 R -15 -16 R -15 -30 R
0 -46 R 15 -30 R 30 -30 R 46 -16 R 30 0 R 46 16 R 30 30 R 15 30 R 0 46 R
-15 30 R -30 31 R D 1337 5669 M 212 0 R D 1428 5669 M -46 15 R -30 31 R
-15 30 R 0 46 R D 1230 6201 M 0 -31 R 16 -30 R 45 -15 R 258 0 R D
1337 6079 M 0 106 R D 1337 6292 M 212 0 R D 1428 6292 M -46 15 R -30 30 R
-15 31 R 0 45 R D 1337 6656 M 212 0 R D 1382 6656 M -30 -30 R -15 -30 R
0 -46 R 15 -30 R 30 -31 R 46 -15 R 30 0 R 46 15 R 30 31 R 15 30 R 0 46 R
-15 30 R -30 30 R D 1382 6945 M -30 -30 R -15 -31 R 0 -45 R 15 -31 R
30 -30 R 46 -15 R 30 0 R 46 15 R 30 30 R 15 31 R 0 45 R -15 31 R -30 30 R D
1230 7066 M 259 0 R 45 16 R 15 30 R 0 30 R D 1337 7021 M 0 106 R D
1230 7218 M 16 16 R -16 15 R -15 -15 R 15 -16 R D 1337 7234 M 212 0 R D
1337 7416 M 15 -31 R 30 -30 R 46 -15 R 30 0 R 46 15 R 30 30 R 15 31 R 0 45 R
-15 31 R -30 30 R -46 15 R -30 0 R -46 -15 R -30 -30 R -15 -31 R 0 -45 R D
1337 7644 M 212 0 R D 1398 7644 M -46 45 R -15 31 R 0 45 R 15 31 R 46 15 R
151 0 R D 20 setlinewidth 14134 1830 M 0 8255 R D 14134 1830 M -450 0 R D
14134 4061 M -450 0 R D 14134 6292 M -450 0 R D 14134 8523 M -450 0 R D
14134 2054 M -225 0 R D 14134 2277 M -225 0 R D 14134 2500 M -225 0 R D
14134 2723 M -225 0 R D 14134 2946 M -225 0 R D 14134 3169 M -225 0 R D
14134 3392 M -225 0 R D 14134 3615 M -225 0 R D 14134 3838 M -225 0 R D
14134 4284 M -225 0 R D 14134 4508 M -225 0 R D 14134 4731 M -225 0 R D
14134 4954 M -225 0 R D 14134 5177 M -225 0 R D 14134 5400 M -225 0 R D
14134 5623 M -225 0 R D 14134 5846 M -225 0 R D 14134 6069 M -225 0 R D
14134 6515 M -225 0 R D 14134 6738 M -225 0 R D 14134 6962 M -225 0 R D
14134 7185 M -225 0 R D 14134 7408 M -225 0 R D 14134 7631 M -225 0 R D
14134 7854 M -225 0 R D 14134 8077 M -225 0 R D 14134 8300 M -225 0 R D
14134 8746 M -225 0 R D 14134 8969 M -225 0 R D 14134 9192 M -225 0 R D
14134 9416 M -225 0 R D 14134 9639 M -225 0 R D 14134 9862 M -225 0 R D
14134 10085 M -225 0 R D 30 setlinewidth 1.000 0.000 0.706 setrgbcolor
2886 7645 M 1250 -2567 R 1250 -857 R 1249 -199 R 1250 -175 R 1250 -368 R
1250 -227 R 1250 -158 R 1249 -66 R 1250 -80 R D
0.506 0.000 0.000 setrgbcolor 2886 8482 M 1250 -3044 R 1250 -1088 R
1249 -153 R 1250 -409 R 1250 -530 R 1250 -250 R 1250 -119 R 1249 -195 R
1250 -185 R D 1.000 0.349 0.000 setrgbcolor 2886 7837 M 1250 -2599 R
1250 -991 R 1249 -149 R 1250 -194 R 1250 -504 R 1250 -213 R 1250 -168 R
1249 -100 R 1250 -156 R D 0.000 0.514 1.000 setrgbcolor 2886 7654 M
1250 -2518 R 1250 -948 R 1249 -138 R 1250 -162 R 1250 -462 R 1250 -183 R
1250 -152 R 1249 -60 R 1250 -125 R D 0.588 0.000 0.588 setrgbcolor
2886 7637 M 1250 -2510 R 1250 -940 R 1249 -139 R 1250 -157 R 1250 -461 R
1250 -187 R 1250 -143 R 1249 -59 R 1250 -131 R D
1.000 0.000 0.706 setrgbcolor 9635 9259 M 146 0 R 146 0 R 147 0 R 146 0 R
146 0 R 146 0 R 147 0 R 146 0 R 146 0 R D 0.506 0.000 0.000 setrgbcolor
9635 8847 M 146 0 R 146 0 R 147 0 R 146 0 R 146 0 R 146 0 R 147 0 R 146 0 R
146 0 R D 1.000 0.349 0.000 setrgbcolor 9635 8434 M 146 0 R 146 0 R 147 0 R
146 0 R 146 0 R 146 0 R 147 0 R 146 0 R 146 0 R D
0.000 0.514 1.000 setrgbcolor 9635 8021 M 146 0 R 146 0 R 147 0 R 146 0 R
146 0 R 146 0 R 147 0 R 146 0 R 146 0 R D 0.588 0.000 0.588 setrgbcolor
9635 7609 M 146 0 R 146 0 R 147 0 R 146 0 R 146 0 R 146 0 R 147 0 R 146 0 R
146 0 R D 1.000 0.000 0.706 setrgbcolor 11143 9413 M 0 -319 R D 11143 9261 M
30 31 R 31 15 R 45 0 R 31 -15 R 30 -31 R 15 -45 R 0 -31 R -15 -45 R
-30 -30 R -31 -16 R -45 0 R -31 16 R -30 30 R D 11583 9261 M -15 31 R
-45 15 R -46 0 R -46 -15 R -15 -31 R 15 -30 R 31 -15 R 76 -15 R 30 -16 R
15 -30 R 0 -15 R -15 -30 R -45 -16 R -46 0 R -46 16 R -15 30 R D
11766 9413 M -46 -15 R -30 -45 R -16 -76 R 0 -46 R 16 -76 R 30 -45 R
46 -16 R 30 0 R 46 16 R 30 45 R 15 76 R 0 46 R -15 76 R -30 45 R -46 15 R
-30 0 R D 12069 9413 M -45 -15 R -31 -45 R -15 -76 R 0 -46 R 15 -76 R
31 -45 R 45 -16 R 31 0 R 45 16 R 31 45 R 15 76 R 0 46 R -15 76 R -31 45 R
-45 15 R -31 0 R D 0.506 0.000 0.000 setrgbcolor 11143 9001 M 0 -319 R D
11143 8849 M 30 30 R 31 15 R 45 0 R 31 -15 R 30 -30 R 15 -46 R 0 -30 R
-15 -46 R -30 -30 R -31 -15 R -45 0 R -31 15 R -30 30 R D 11583 8849 M
-15 30 R -45 15 R -46 0 R -46 -15 R -15 -30 R 15 -31 R 31 -15 R 76 -15 R
30 -15 R 15 -31 R 0 -15 R -15 -30 R -45 -15 R -46 0 R -46 15 R -15 30 R D
11766 9001 M -46 -16 R -30 -45 R -16 -76 R 0 -46 R 16 -76 R 30 -45 R
46 -15 R 30 0 R 46 15 R 30 45 R 15 76 R 0 46 R -15 76 R -30 45 R -46 16 R
-30 0 R D 11993 8894 M 0 -212 R D 11993 8803 M 16 46 R 30 30 R 30 15 R
46 0 R D 12343 8849 M -15 30 R -46 15 R -46 0 R -45 -15 R -15 -30 R 15 -31 R
30 -15 R 76 -15 R 31 -15 R 15 -31 R 0 -15 R -15 -30 R -46 -15 R -46 0 R
-45 15 R -15 30 R D 1.000 0.349 0.000 setrgbcolor 11143 8588 M 0 -319 R D
11143 8436 M 30 30 R 31 16 R 45 0 R 31 -16 R 30 -30 R 15 -46 R 0 -30 R
-15 -46 R -30 -30 R -31 -15 R -45 0 R -31 15 R -30 30 R D 11583 8436 M
-15 30 R -45 16 R -46 0 R -46 -16 R -15 -30 R 15 -30 R 31 -16 R 76 -15 R
30 -15 R 15 -30 R 0 -16 R -15 -30 R -45 -15 R -46 0 R -46 15 R -15 30 R D
11766 8588 M -46 -15 R -30 -46 R -16 -76 R 0 -45 R 16 -76 R 30 -46 R
46 -15 R 30 0 R 46 15 R 30 46 R 15 76 R 0 45 R -15 76 R -30 46 R -46 15 R
-30 0 R D 11993 8482 M 0 -213 R D 11993 8390 M 16 46 R 30 30 R 30 16 R
46 0 R D 12343 8436 M -15 30 R -46 16 R -46 0 R -45 -16 R -15 -30 R 15 -30 R
30 -16 R 76 -15 R 31 -15 R 15 -30 R 0 -16 R -15 -30 R -46 -15 R -46 0 R
-45 15 R -15 30 R D 12449 8588 M 0 -319 R D 12449 8421 M 46 45 R 30 16 R
46 0 R 30 -16 R 15 -45 R 0 -152 R D 0.000 0.514 1.000 setrgbcolor
11143 8175 M 0 -319 R D 11143 8023 M 30 31 R 31 15 R 45 0 R 31 -15 R
30 -31 R 15 -45 R 0 -31 R -15 -45 R -30 -31 R -31 -15 R -45 0 R -31 15 R
-30 31 R D 11583 8023 M -15 31 R -45 15 R -46 0 R -46 -15 R -15 -31 R
15 -30 R 31 -15 R 76 -16 R 30 -15 R 15 -30 R 0 -15 R -15 -31 R -45 -15 R
-46 0 R -46 15 R -15 31 R D 11720 8114 M 30 16 R 46 45 R 0 -319 R D
11993 8069 M 0 -213 R D 11993 7978 M 16 45 R 30 31 R 30 15 R 46 0 R D
12343 8023 M -15 31 R -46 15 R -46 0 R -45 -15 R -15 -31 R 15 -30 R 30 -15 R
76 -16 R 31 -15 R 15 -30 R 0 -15 R -15 -31 R -46 -15 R -46 0 R -45 15 R
-15 31 R D 0.588 0.000 0.588 setrgbcolor 11143 7762 M 0 -319 R D
11143 7611 M 30 30 R 31 15 R 45 0 R 31 -15 R 30 -30 R 15 -46 R 0 -30 R
-15 -46 R -30 -30 R -31 -16 R -45 0 R -31 16 R -30 30 R D 11583 7611 M
-15 30 R -45 15 R -46 0 R -46 -15 R -15 -30 R 15 -31 R 31 -15 R 76 -15 R
30 -15 R 15 -31 R 0 -15 R -15 -30 R -45 -16 R -46 0 R -46 16 R -15 30 R D
11720 7702 M 30 15 R 46 45 R 0 -319 R D 11993 7656 M 0 -213 R D 11993 7565 M
16 46 R 30 30 R 30 15 R 46 0 R D 12343 7611 M -15 30 R -46 15 R -46 0 R
-45 -15 R -15 -30 R 15 -31 R 30 -15 R 76 -15 R 31 -15 R 15 -31 R 0 -15 R
-15 -30 R -46 -16 R -46 0 R -45 16 R -15 30 R D 12449 7762 M 0 -319 R D
12449 7595 M 46 46 R 30 15 R 46 0 R 30 -15 R 15 -46 R 0 -152 R D
%%PageTrailer
end
%%PageResources: font Helvetica
%%Trailer
%%Pages: 1
%%DocumentNeededResources: font Helvetica
%%EOF
