%!PS-Adobe-3.0 EPSF-3.0
%%BoundingBox: 0 0 481 396
%%Title: Graphics produced by IDL
%%For: jlgan@aida119, /home/jlgan/work/subhalo_model
%%Creator: IDL Version 7.0 (linux x86_64 m64)
%%CreationDate: Thu Jan 15 13:37:12 2009
%%DocumentData: Clean7bit
%%Requirements: color
%%LanguageLevel: 1
%%PageOrder: Ascend
%%Pages: (atend)
%%DocumentNeededResources: (atend)
%%EndComments
%%BeginProlog
%+ prolog.ps -- Prolog for IDL generated PostScript files
%+ Copyright (c) 1988-2007 ITT Visual Information Solutions. All Rights Reserved.
%v 5
/$IDL_DICT 40 dict def $IDL_DICT begin /bdef { bind def } bind def /C
{currentpoint newpath moveto} bdef /CP {currentpoint} bdef /D {currentpoint
stroke moveto} bdef /F {closepath fill} bdef /K { setgray } bdef /M {moveto}
bdef /N {rmoveto} bdef /P {lineto} bdef /R {rlineto} bdef /S {gsave show
grestore} bdef /X {currentpoint pop} bdef /Z {gsave currentpoint lineto 20
setlinewidth 1 setlinecap stroke grestore} bdef /L0 {[] 0 setdash} bdef /L1
{[40 100] 0 setdash} bdef /L2 {[200 200] 0 setdash} bdef /L3 {[200 100 50
100] 0 setdash} bdef /L4 {[300 100 50 100 50 100 50 100] 0 setdash} bdef /L5
{[400 200] 0 setdash} bdef /STDFONT { findfont exch scalefont setfont } bdef
/ISOFONT { findfont dup length dict begin { 1 index /FID ne {def} {pop pop}
ifelse } forall /Encoding ISOLatin1Encoding def currentdict end /idltmpfont
exch definefont exch scalefont setfont } bdef /ISOBULLET { gsave /Helvetica
findfont exch scalefont setfont (\267) show currentpoint grestore moveto}
bdef /MITERLIMIT { 2.5 setmiterlimit } bdef end
%%EndProlog
%%Page: 0 1
%%PageRequirements: color
%%PageResources: (atend)
%%PageOrientation: Portrait
%%PageBoundingBox: 0 0 481 396
%%BeginPageSetup
$IDL_DICT begin 0.0283465 dup scale MITERLIMIT
%%IncludeResource: font Helvetica
423.333 /Helvetica STDFONT
%%EndPageSetup
20 setlinewidth L0 0.000 0.000 0.000 setrgbcolor 1766 8204 M 6790 0 R D
2611 8204 M 0 214 R D 2296 7921 M -35 -11 R -24 -35 R -11 -59 R 0 -35 R
11 -58 R 24 -35 R 35 -12 R 23 0 R 35 12 R 23 35 R 12 58 R 0 35 R -12 59 R
-23 35 R -35 11 R -23 0 R D 2483 7699 M -12 -11 R 12 -12 R 11 12 R -11 11 R
D 2599 7921 M 129 0 R -70 -93 R 35 0 R 23 -12 R 12 -11 R 12 -36 R 0 -23 R
-12 -35 R -23 -23 R -35 -12 R -35 0 R -36 12 R -11 11 R -12 24 R D
2880 7921 M -35 -11 R -24 -35 R -11 -59 R 0 -35 R 11 -58 R 24 -35 R 35 -12 R
23 0 R 35 12 R 24 35 R 11 58 R 0 35 R -11 59 R -24 35 R -35 11 R -23 0 R D
4313 8204 M 0 214 R D 3998 7921 M -35 -11 R -24 -35 R -11 -59 R 0 -35 R
11 -58 R 24 -35 R 35 -12 R 23 0 R 35 12 R 24 35 R 11 58 R 0 35 R -11 59 R
-24 35 R -35 11 R -23 0 R D 4185 7699 M -12 -11 R 12 -12 R 11 12 R -11 11 R
D 4302 7921 M 128 0 R -70 -93 R 35 0 R 23 -12 R 12 -11 R 12 -36 R 0 -23 R
-12 -35 R -23 -23 R -35 -12 R -35 0 R -35 12 R -12 11 R -12 24 R D
4652 7921 M -117 0 R -11 -105 R 11 12 R 35 12 R 35 0 R 35 -12 R 24 -23 R
11 -36 R 0 -23 R -11 -35 R -24 -23 R -35 -12 R -35 0 R -35 12 R -11 11 R
-12 24 R D 6015 8204 M 0 214 R D 5700 7921 M -35 -11 R -24 -35 R -11 -59 R
0 -35 R 11 -58 R 24 -35 R 35 -12 R 23 0 R 35 12 R 24 35 R 11 58 R 0 35 R
-11 59 R -24 35 R -35 11 R -23 0 R D 5887 7699 M -12 -11 R 12 -12 R 11 12 R
-11 11 R D 6097 7921 M -117 -163 R 176 0 R D 6097 7921 M 0 -245 R D
6284 7921 M -35 -11 R -23 -35 R -12 -59 R 0 -35 R 12 -58 R 23 -35 R 35 -12 R
23 0 R 35 12 R 24 35 R 12 58 R 0 35 R -12 59 R -24 35 R -35 11 R -23 0 R D
7717 8204 M 0 214 R D 7402 7921 M -35 -11 R -23 -35 R -12 -59 R 0 -35 R
12 -58 R 23 -35 R 35 -12 R 23 0 R 35 12 R 24 35 R 11 58 R 0 35 R -11 59 R
-24 35 R -35 11 R -23 0 R D 7589 7699 M -12 -11 R 12 -12 R 12 12 R -12 11 R
D 7799 7921 M -117 -163 R 176 0 R D 7799 7921 M 0 -245 R D 8056 7921 M
-117 0 R -11 -105 R 11 12 R 35 12 R 36 0 R 35 -12 R 23 -23 R 12 -36 R
0 -23 R -12 -35 R -23 -23 R -35 -12 R -36 0 R -35 12 R -11 11 R -12 24 R D
1930 8204 M 0 107 R D 2271 8204 M 0 107 R D 2952 8204 M 0 107 R D
3292 8204 M 0 107 R D 3632 8204 M 0 107 R D 3973 8204 M 0 107 R D
4654 8204 M 0 107 R D 4994 8204 M 0 107 R D 5335 8204 M 0 107 R D
5675 8204 M 0 107 R D 6356 8204 M 0 107 R D 6696 8204 M 0 107 R D
7037 8204 M 0 107 R D 7377 8204 M 0 107 R D 8058 8204 M 0 107 R D
8398 8204 M 0 107 R D 1766 13548 M 6790 0 R D 2611 13548 M 0 -214 R D
4313 13548 M 0 -214 R D 6015 13548 M 0 -214 R D 7717 13548 M 0 -214 R D
1930 13548 M 0 -107 R D 2271 13548 M 0 -107 R D 2952 13548 M 0 -107 R D
3292 13548 M 0 -107 R D 3632 13548 M 0 -107 R D 3973 13548 M 0 -107 R D
4654 13548 M 0 -107 R D 4994 13548 M 0 -107 R D 5335 13548 M 0 -107 R D
5675 13548 M 0 -107 R D 6356 13548 M 0 -107 R D 6696 13548 M 0 -107 R D
7037 13548 M 0 -107 R D 7377 13548 M 0 -107 R D 8058 13548 M 0 -107 R D
8398 13548 M 0 -107 R D 1766 8204 M 0 5344 R D 1766 8309 M 272 0 R D
1106 8391 M 0 12 R 12 23 R 11 12 R 24 11 R 46 0 R 24 -11 R 11 -12 R 12 -23 R
0 -24 R -12 -23 R -23 -35 R -117 -117 R 164 0 R D 1351 8227 M -11 -11 R
11 -12 R 12 12 R -12 11 R D 1597 8368 M -12 -35 R -23 -24 R -36 -12 R
-11 0 R -35 12 R -24 24 R -11 35 R 0 11 R 11 35 R 24 24 R 35 11 R 11 0 R
36 -11 R 23 -24 R 12 -46 R 0 -59 R -12 -58 R -23 -35 R -36 -12 R -23 0 R
-35 12 R -12 23 R D 1766 9369 M 272 0 R D 1118 9473 M 128 0 R -70 -93 R
35 0 R 23 -12 R 12 -11 R 12 -36 R 0 -23 R -12 -35 R -23 -23 R -35 -12 R
-35 0 R -35 12 R -12 11 R -12 24 R D 1351 9251 M -11 -11 R 11 -12 R 12 12 R
-12 11 R D 1515 9473 M -35 -11 R -24 -35 R -11 -59 R 0 -35 R 11 -58 R
24 -35 R 35 -12 R 23 0 R 35 12 R 24 35 R 11 58 R 0 35 R -11 59 R -24 35 R
-35 11 R -23 0 R D 1766 10428 M 272 0 R D 1118 10533 M 128 0 R -70 -94 R
35 0 R 23 -11 R 12 -12 R 12 -35 R 0 -24 R -12 -35 R -23 -23 R -35 -12 R
-35 0 R -35 12 R -12 12 R -12 23 R D 1351 10311 M -11 -12 R 11 -12 R 12 12 R
-12 12 R D 1480 10486 M 23 12 R 35 35 R 0 -246 R D 1766 11488 M 272 0 R D
1118 11592 M 128 0 R -70 -93 R 35 0 R 23 -12 R 12 -12 R 12 -35 R 0 -23 R
-12 -35 R -23 -24 R -35 -11 R -35 0 R -35 11 R -12 12 R -12 23 R D
1351 11370 M -11 -12 R 11 -11 R 12 11 R -12 12 R D 1456 11534 M 0 11 R
12 24 R 12 11 R 23 12 R 47 0 R 23 -12 R 12 -11 R 12 -24 R 0 -23 R -12 -23 R
-23 -35 R -117 -117 R 163 0 R D 1766 12547 M 272 0 R D 1118 12651 M 128 0 R
-70 -93 R 35 0 R 23 -12 R 12 -11 R 12 -35 R 0 -24 R -12 -35 R -23 -23 R
-35 -12 R -35 0 R -35 12 R -12 11 R -12 24 R D 1351 12429 M -11 -11 R
11 -12 R 12 12 R -12 11 R D 1468 12651 M 129 0 R -71 -93 R 36 0 R 23 -12 R
12 -11 R 11 -35 R 0 -24 R -11 -35 R -24 -23 R -35 -12 R -35 0 R -35 12 R
-12 11 R -11 24 R D 1766 8203 M 136 0 R D 1766 8415 M 136 0 R D 1766 8521 M
136 0 R D 1766 8627 M 136 0 R D 1766 8733 M 136 0 R D 1766 8839 M 136 0 R D
1766 8945 M 136 0 R D 1766 9051 M 136 0 R D 1766 9157 M 136 0 R D
1766 9263 M 136 0 R D 1766 9475 M 136 0 R D 1766 9581 M 136 0 R D
1766 9687 M 136 0 R D 1766 9793 M 136 0 R D 1766 9898 M 136 0 R D
1766 10004 M 136 0 R D 1766 10110 M 136 0 R D 1766 10216 M 136 0 R D
1766 10322 M 136 0 R D 1766 10534 M 136 0 R D 1766 10640 M 136 0 R D
1766 10746 M 136 0 R D 1766 10852 M 136 0 R D 1766 10958 M 136 0 R D
1766 11064 M 136 0 R D 1766 11170 M 136 0 R D 1766 11276 M 136 0 R D
1766 11382 M 136 0 R D 1766 11593 M 136 0 R D 1766 11699 M 136 0 R D
1766 11805 M 136 0 R D 1766 11911 M 136 0 R D 1766 12017 M 136 0 R D
1766 12123 M 136 0 R D 1766 12229 M 136 0 R D 1766 12335 M 136 0 R D
1766 12441 M 136 0 R D 1766 12653 M 136 0 R D 1766 12759 M 136 0 R D
1766 12865 M 136 0 R D 1766 12971 M 136 0 R D 1766 13077 M 136 0 R D
1766 13183 M 136 0 R D 1766 13288 M 136 0 R D 1766 13394 M 136 0 R D
1766 13500 M 136 0 R D 8556 8204 M 0 5344 R D 8556 8309 M -272 0 R D
8556 9369 M -272 0 R D 8556 10428 M -272 0 R D 8556 11488 M -272 0 R D
8556 12547 M -272 0 R D 8556 8203 M -136 0 R D 8556 8415 M -136 0 R D
8556 8521 M -136 0 R D 8556 8627 M -136 0 R D 8556 8733 M -136 0 R D
8556 8839 M -136 0 R D 8556 8945 M -136 0 R D 8556 9051 M -136 0 R D
8556 9157 M -136 0 R D 8556 9263 M -136 0 R D 8556 9475 M -136 0 R D
8556 9581 M -136 0 R D 8556 9687 M -136 0 R D 8556 9793 M -136 0 R D
8556 9898 M -136 0 R D 8556 10004 M -136 0 R D 8556 10110 M -136 0 R D
8556 10216 M -136 0 R D 8556 10322 M -136 0 R D 8556 10534 M -136 0 R D
8556 10640 M -136 0 R D 8556 10746 M -136 0 R D 8556 10852 M -136 0 R D
8556 10958 M -136 0 R D 8556 11064 M -136 0 R D 8556 11170 M -136 0 R D
8556 11276 M -136 0 R D 8556 11382 M -136 0 R D 8556 11593 M -136 0 R D
8556 11699 M -136 0 R D 8556 11805 M -136 0 R D 8556 11911 M -136 0 R D
8556 12017 M -136 0 R D 8556 12123 M -136 0 R D 8556 12229 M -136 0 R D
8556 12335 M -136 0 R D 8556 12441 M -136 0 R D 8556 12653 M -136 0 R D
8556 12759 M -136 0 R D 8556 12865 M -136 0 R D 8556 12971 M -136 0 R D
8556 13077 M -136 0 R D 8556 13183 M -136 0 R D 8556 13288 M -136 0 R D
8556 13394 M -136 0 R D 8556 13500 M -136 0 R D 10 setlinewidth 8239 12239 M
-494 252 R -1417 10 R D 40 setlinewidth 4945 8942 M -449 279 R -773 1425 R D
70 setlinewidth 2994 9650 M -534 -821 R -404 794 R D 20 setlinewidth
0.373 0.000 0.000 setrgbcolor 8239 12350 M 111 0 R 0 -222 R -222 0 R 0 222 R
222 0 R D 4945 9053 M 111 0 R 0 -222 R -222 0 R 0 222 R 222 0 R D
8239 12239 M -3294 -3297 R D 2994 9761 M 111 0 R 0 -222 R -222 0 R 0 222 R
222 0 R D 4945 8942 M -1951 708 R D 0.380 0.639 0.000 setrgbcolor
7745 12602 M 111 0 R 0 -222 R -222 0 R 0 222 R 222 0 R D 4496 9332 M 111 0 R
0 -222 R -222 0 R 0 222 R 222 0 R D 7745 12491 M -3249 -3270 R D 2460 8940 M
111 0 R 0 -222 R -222 0 R 0 222 R 222 0 R D 4496 9221 M -2036 -392 R D
0.000 0.098 0.890 setrgbcolor 6328 12612 M 111 0 R 0 -222 R -222 0 R 0 222 R
222 0 R D 3723 10757 M 111 0 R 0 -222 R -222 0 R 0 222 R 222 0 R D
6328 12501 M -2605 -1855 R D 2056 9734 M 111 0 R 0 -222 R -222 0 R 0 222 R
222 0 R D 3723 10646 M -1667 -1023 R D 0.000 0.000 0.000 setrgbcolor
6960 9197 M 0 -368 R D 6960 9022 M 35 35 R 35 17 R 52 0 R 36 -17 R 35 -35 R
17 -53 R 0 -35 R -17 -53 R -35 -35 R -36 -17 R -52 0 R -35 17 R -35 35 R D
7468 9022 M -17 35 R -53 17 R -53 0 R -52 -17 R -18 -35 R 18 -35 R 35 -18 R
87 -17 R 36 -18 R 17 -35 R 0 -18 R -17 -35 R -53 -17 R -53 0 R -52 17 R
-18 35 R D 7678 9197 M -52 -18 R -35 -52 R -18 -88 R 0 -52 R 18 -88 R
35 -53 R 52 -17 R 35 0 R 53 17 R 35 53 R 18 88 R 0 52 R -18 88 R -35 52 R
-53 18 R -35 0 R D 8029 9197 M -53 -18 R -35 -52 R -17 -88 R 0 -52 R
17 -88 R 35 -53 R 53 -17 R 35 0 R 53 17 R 35 53 R 17 88 R 0 52 R -17 88 R
-35 52 R -53 18 R -35 0 R D 9666 8204 M 6790 0 R D 10448 8204 M 0 214 R D
10133 7921 M -35 -11 R -24 -35 R -11 -59 R 0 -35 R 11 -58 R 24 -35 R
35 -12 R 23 0 R 35 12 R 24 35 R 11 58 R 0 35 R -11 59 R -24 35 R -35 11 R
-23 0 R D 10320 7699 M -12 -11 R 12 -12 R 12 12 R -12 11 R D 10425 7863 M
0 12 R 12 23 R 11 12 R 24 11 R 46 0 R 24 -11 R 12 -12 R 11 -23 R 0 -24 R
-11 -23 R -24 -35 R -117 -117 R 164 0 R D 10787 7921 M -117 0 R -11 -105 R
11 12 R 35 12 R 35 0 R 36 -12 R 23 -23 R 12 -36 R 0 -23 R -12 -35 R
-23 -23 R -36 -12 R -35 0 R -35 12 R -11 11 R -12 24 R D 12136 8204 M
0 214 R D 11821 7921 M -35 -11 R -24 -35 R -11 -59 R 0 -35 R 11 -58 R
24 -35 R 35 -12 R 23 0 R 35 12 R 23 35 R 12 58 R 0 35 R -12 59 R -23 35 R
-35 11 R -23 0 R D 12008 7699 M -12 -11 R 12 -12 R 11 12 R -11 11 R D
12124 7921 M 129 0 R -70 -93 R 35 0 R 23 -12 R 12 -11 R 12 -36 R 0 -23 R
-12 -35 R -23 -23 R -35 -12 R -36 0 R -35 12 R -11 11 R -12 24 R D
12405 7921 M -35 -11 R -24 -35 R -11 -59 R 0 -35 R 11 -58 R 24 -35 R
35 -12 R 23 0 R 35 12 R 24 35 R 11 58 R 0 35 R -11 59 R -24 35 R -35 11 R
-23 0 R D 13824 8204 M 0 214 R D 13508 7921 M -35 -11 R -23 -35 R -12 -59 R
0 -35 R 12 -58 R 23 -35 R 35 -12 R 24 0 R 35 12 R 23 35 R 12 58 R 0 35 R
-12 59 R -23 35 R -35 11 R -24 0 R D 13695 7699 M -11 -11 R 11 -12 R 12 12 R
-12 11 R D 13812 7921 M 129 0 R -70 -93 R 35 0 R 23 -12 R 12 -11 R 11 -36 R
0 -23 R -11 -35 R -24 -23 R -35 -12 R -35 0 R -35 12 R -12 11 R -11 24 R D
14163 7921 M -117 0 R -12 -105 R 12 12 R 35 12 R 35 0 R 35 -12 R 23 -23 R
12 -36 R 0 -23 R -12 -35 R -23 -23 R -35 -12 R -35 0 R -35 12 R -12 11 R
-12 24 R D 15512 8204 M 0 214 R D 15196 7921 M -35 -11 R -23 -35 R -12 -59 R
0 -35 R 12 -58 R 23 -35 R 35 -12 R 23 0 R 36 12 R 23 35 R 12 58 R 0 35 R
-12 59 R -23 35 R -36 11 R -23 0 R D 15383 7699 M -12 -11 R 12 -12 R 12 12 R
-12 11 R D 15593 7921 M -116 -163 R 175 0 R D 15593 7921 M 0 -245 R D
15780 7921 M -35 -11 R -23 -35 R -12 -59 R 0 -35 R 12 -58 R 23 -35 R
35 -12 R 24 0 R 35 12 R 23 35 R 12 58 R 0 35 R -12 59 R -23 35 R -35 11 R
-24 0 R D 9773 8204 M 0 107 R D 10111 8204 M 0 107 R D 10786 8204 M 0 107 R
D 11123 8204 M 0 107 R D 11461 8204 M 0 107 R D 11799 8204 M 0 107 R D
12474 8204 M 0 107 R D 12811 8204 M 0 107 R D 13149 8204 M 0 107 R D
13486 8204 M 0 107 R D 14161 8204 M 0 107 R D 14499 8204 M 0 107 R D
14837 8204 M 0 107 R D 15174 8204 M 0 107 R D 15849 8204 M 0 107 R D
16187 8204 M 0 107 R D 9666 13548 M 6790 0 R D 10448 13548 M 0 -214 R D
12136 13548 M 0 -214 R D 13824 13548 M 0 -214 R D 15512 13548 M 0 -214 R D
9773 13548 M 0 -107 R D 10111 13548 M 0 -107 R D 10786 13548 M 0 -107 R D
11123 13548 M 0 -107 R D 11461 13548 M 0 -107 R D 11799 13548 M 0 -107 R D
12474 13548 M 0 -107 R D 12811 13548 M 0 -107 R D 13149 13548 M 0 -107 R D
13486 13548 M 0 -107 R D 14161 13548 M 0 -107 R D 14499 13548 M 0 -107 R D
14837 13548 M 0 -107 R D 15174 13548 M 0 -107 R D 15849 13548 M 0 -107 R D
16187 13548 M 0 -107 R D 9666 8204 M 0 5344 R D 9666 8962 M 272 0 R D
9018 9066 M 128 0 R -70 -93 R 35 0 R 23 -12 R 12 -11 R 12 -35 R 0 -24 R
-12 -35 R -23 -23 R -35 -12 R -35 0 R -35 12 R -12 11 R -12 24 R D
9251 8844 M -11 -11 R 11 -12 R 12 12 R -12 11 R D 9462 9066 M -117 -163 R
175 0 R D 9462 9066 M 0 -245 R D 9666 9937 M 272 0 R D 9018 10042 M 128 0 R
-70 -94 R 35 0 R 23 -11 R 12 -12 R 12 -35 R 0 -23 R -12 -35 R -23 -24 R
-35 -12 R -35 0 R -35 12 R -12 12 R -12 23 R D 9251 9820 M -11 -12 R
11 -12 R 12 12 R -12 12 R D 9485 10042 M -117 0 R -12 -105 R 12 11 R 35 12 R
35 0 R 35 -12 R 24 -23 R 11 -35 R 0 -23 R -11 -35 R -24 -24 R -35 -12 R
-35 0 R -35 12 R -12 12 R -11 23 R D 9666 10913 M 272 0 R D 9018 11017 M
128 0 R -70 -93 R 35 0 R 23 -12 R 12 -12 R 12 -35 R 0 -23 R -12 -35 R
-23 -23 R -35 -12 R -35 0 R -35 12 R -12 11 R -12 24 R D 9251 10795 M
-11 -11 R 11 -12 R 12 12 R -12 11 R D 9497 10982 M -12 24 R -35 11 R -24 0 R
-35 -11 R -23 -35 R -12 -59 R 0 -58 R 12 -47 R 23 -23 R 35 -12 R 12 0 R
35 12 R 24 23 R 11 35 R 0 12 R -11 35 R -24 23 R -35 12 R -12 0 R -35 -12 R
-23 -23 R -12 -35 R D 9666 11888 M 272 0 R D 9018 11993 M 128 0 R -70 -94 R
35 0 R 23 -11 R 12 -12 R 12 -35 R 0 -24 R -12 -35 R -23 -23 R -35 -12 R
-35 0 R -35 12 R -12 12 R -12 23 R D 9251 11771 M -11 -12 R 11 -12 R 12 12 R
-12 12 R D 9508 11993 M -117 -246 R D 9345 11993 M 163 0 R D 9666 12864 M
272 0 R D 9018 12968 M 128 0 R -70 -93 R 35 0 R 23 -12 R 12 -12 R 12 -35 R
0 -23 R -12 -35 R -23 -24 R -35 -11 R -35 0 R -35 11 R -12 12 R -12 23 R D
9251 12746 M -11 -12 R 11 -11 R 12 11 R -12 12 R D 9403 12968 M -35 -12 R
-12 -23 R 0 -23 R 12 -24 R 23 -11 R 47 -12 R 35 -12 R 24 -23 R 11 -23 R
0 -36 R -11 -23 R -12 -12 R -35 -11 R -47 0 R -35 11 R -12 12 R -11 23 R
0 36 R 11 23 R 24 23 R 35 12 R 47 12 R 23 11 R 12 24 R 0 23 R -12 23 R
-35 12 R -47 0 R D 9666 8279 M 136 0 R D 9666 8377 M 136 0 R D 9666 8474 M
136 0 R D 9666 8572 M 136 0 R D 9666 8669 M 136 0 R D 9666 8767 M 136 0 R D
9666 8864 M 136 0 R D 9666 9059 M 136 0 R D 9666 9157 M 136 0 R D
9666 9255 M 136 0 R D 9666 9352 M 136 0 R D 9666 9450 M 136 0 R D
9666 9547 M 136 0 R D 9666 9645 M 136 0 R D 9666 9742 M 136 0 R D
9666 9840 M 136 0 R D 9666 10035 M 136 0 R D 9666 10132 M 136 0 R D
9666 10230 M 136 0 R D 9666 10327 M 136 0 R D 9666 10425 M 136 0 R D
9666 10523 M 136 0 R D 9666 10620 M 136 0 R D 9666 10718 M 136 0 R D
9666 10815 M 136 0 R D 9666 11010 M 136 0 R D 9666 11108 M 136 0 R D
9666 11205 M 136 0 R D 9666 11303 M 136 0 R D 9666 11400 M 136 0 R D
9666 11498 M 136 0 R D 9666 11596 M 136 0 R D 9666 11693 M 136 0 R D
9666 11791 M 136 0 R D 9666 11986 M 136 0 R D 9666 12083 M 136 0 R D
9666 12181 M 136 0 R D 9666 12278 M 136 0 R D 9666 12376 M 136 0 R D
9666 12473 M 136 0 R D 9666 12571 M 136 0 R D 9666 12668 M 136 0 R D
9666 12766 M 136 0 R D 9666 12961 M 136 0 R D 9666 13059 M 136 0 R D
9666 13156 M 136 0 R D 9666 13254 M 136 0 R D 9666 13351 M 136 0 R D
9666 13449 M 136 0 R D 9666 13546 M 136 0 R D 16456 8204 M 0 5344 R D
16456 8962 M -272 0 R D 16456 9937 M -272 0 R D 16456 10913 M -272 0 R D
16456 11888 M -272 0 R D 16456 12864 M -272 0 R D 16456 8279 M -136 0 R D
16456 8377 M -136 0 R D 16456 8474 M -136 0 R D 16456 8572 M -136 0 R D
16456 8669 M -136 0 R D 16456 8767 M -136 0 R D 16456 8864 M -136 0 R D
16456 9059 M -136 0 R D 16456 9157 M -136 0 R D 16456 9255 M -136 0 R D
16456 9352 M -136 0 R D 16456 9450 M -136 0 R D 16456 9547 M -136 0 R D
16456 9645 M -136 0 R D 16456 9742 M -136 0 R D 16456 9840 M -136 0 R D
16456 10035 M -136 0 R D 16456 10132 M -136 0 R D 16456 10230 M -136 0 R D
16456 10327 M -136 0 R D 16456 10425 M -136 0 R D 16456 10523 M -136 0 R D
16456 10620 M -136 0 R D 16456 10718 M -136 0 R D 16456 10815 M -136 0 R D
16456 11010 M -136 0 R D 16456 11108 M -136 0 R D 16456 11205 M -136 0 R D
16456 11303 M -136 0 R D 16456 11400 M -136 0 R D 16456 11498 M -136 0 R D
16456 11596 M -136 0 R D 16456 11693 M -136 0 R D 16456 11791 M -136 0 R D
16456 11986 M -136 0 R D 16456 12083 M -136 0 R D 16456 12181 M -136 0 R D
16456 12278 M -136 0 R D 16456 12376 M -136 0 R D 16456 12473 M -136 0 R D
16456 12571 M -136 0 R D 16456 12668 M -136 0 R D 16456 12766 M -136 0 R D
16456 12961 M -136 0 R D 16456 13059 M -136 0 R D 16456 13156 M -136 0 R D
16456 13254 M -136 0 R D 16456 13351 M -136 0 R D 16456 13449 M -136 0 R D
16456 13546 M -136 0 R D 10 setlinewidth 16173 10821 M -604 133 R -495 481 R
D 40 setlinewidth 12481 9343 M -559 739 R -79 1555 R D 70 setlinewidth
10378 10158 M -475 -1293 R 104 3583 R D 20 setlinewidth
0.373 0.000 0.000 setrgbcolor 16173 10932 M 111 0 R 0 -222 R -222 0 R
0 222 R 222 0 R D 12481 9454 M 111 0 R 0 -222 R -222 0 R 0 222 R 222 0 R D
16173 10821 M -3692 -1478 R D 10378 10269 M 111 0 R 0 -222 R -222 0 R
0 222 R 222 0 R D 12481 9343 M -2103 815 R D 0.380 0.639 0.000 setrgbcolor
15569 11065 M 111 0 R 0 -222 R -222 0 R 0 222 R 222 0 R D 11922 10193 M
111 0 R 0 -222 R -222 0 R 0 222 R 222 0 R D 15569 10954 M -3647 -872 R D
9903 8976 M 111 0 R 0 -222 R -222 0 R 0 222 R 222 0 R D 11922 10082 M
-2019 -1217 R D 0.000 0.098 0.890 setrgbcolor 15074 11546 M 111 0 R 0 -222 R
-222 0 R 0 222 R 222 0 R D 11843 11748 M 111 0 R 0 -222 R -222 0 R 0 222 R
222 0 R D 15074 11435 M -3231 202 R D 10007 12559 M 111 0 R 0 -222 R
-222 0 R 0 222 R 222 0 R D 11843 11637 M -1836 811 R D
0.000 0.000 0.000 setrgbcolor 14718 9233 M 0 -368 R D 14718 9058 M 35 35 R
35 18 R 53 0 R 35 -18 R 35 -35 R 17 -52 R 0 -35 R -17 -53 R -35 -35 R
-35 -18 R -53 0 R -35 18 R -35 35 R D 15226 9058 M -17 35 R -53 18 R -52 0 R
-53 -18 R -17 -35 R 17 -35 R 35 -17 R 88 -18 R 35 -17 R 17 -36 R 0 -17 R
-17 -35 R -53 -18 R -52 0 R -53 18 R -17 35 R D 15437 9233 M -53 -17 R
-35 -53 R -18 -87 R 0 -53 R 18 -88 R 35 -52 R 53 -18 R 35 0 R 52 18 R
35 52 R 18 88 R 0 53 R -18 87 R -35 53 R -52 17 R -35 0 R D 15700 9111 M
0 -246 R D 15700 9006 M 17 52 R 35 35 R 35 18 R 53 0 R D 16103 9058 M
-18 35 R -52 18 R -53 0 R -53 -18 R -17 -35 R 17 -35 R 35 -17 R 88 -18 R
35 -17 R 18 -36 R 0 -17 R -18 -35 R -52 -18 R -53 0 R -53 18 R -17 35 R D
1766 1804 M 6790 0 R D 2050 1804 M 0 214 R D 1734 1521 M -35 -11 R -23 -35 R
-12 -59 R 0 -35 R 12 -58 R 23 -35 R 35 -12 R 24 0 R 35 12 R 23 35 R 12 58 R
0 35 R -12 59 R -23 35 R -35 11 R -24 0 R D 1921 1299 M -11 -11 R 11 -12 R
12 12 R -12 11 R D 2132 1521 M -117 -163 R 175 0 R D 2132 1521 M 0 -245 R D
2319 1521 M -36 -11 R -23 -35 R -12 -59 R 0 -35 R 12 -58 R 23 -35 R 36 -12 R
23 0 R 35 12 R 23 35 R 12 58 R 0 35 R -12 59 R -23 35 R -35 11 R -23 0 R D
2922 1804 M 0 214 R D 2606 1521 M -35 -11 R -23 -35 R -12 -59 R 0 -35 R
12 -58 R 23 -35 R 35 -12 R 24 0 R 35 12 R 23 35 R 12 58 R 0 35 R -12 59 R
-23 35 R -35 11 R -24 0 R D 2793 1299 M -12 -11 R 12 -12 R 12 12 R -12 11 R
D 3003 1521 M -116 -163 R 175 0 R D 3003 1521 M 0 -245 R D 3132 1463 M
0 12 R 12 23 R 11 12 R 24 11 R 46 0 R 24 -11 R 11 -12 R 12 -23 R 0 -24 R
-12 -23 R -23 -35 R -117 -117 R 164 0 R D 3793 1804 M 0 214 R D 3478 1521 M
-35 -11 R -23 -35 R -12 -59 R 0 -35 R 12 -58 R 23 -35 R 35 -12 R 23 0 R
35 12 R 24 35 R 11 58 R 0 35 R -11 59 R -24 35 R -35 11 R -23 0 R D
3665 1299 M -12 -11 R 12 -12 R 12 12 R -12 11 R D 3875 1521 M -117 -163 R
176 0 R D 3875 1521 M 0 -245 R D 4109 1521 M -117 -163 R 175 0 R D
4109 1521 M 0 -245 R D 4665 1804 M 0 214 R D 4350 1521 M -35 -11 R -24 -35 R
-11 -59 R 0 -35 R 11 -58 R 24 -35 R 35 -12 R 23 0 R 35 12 R 24 35 R 11 58 R
0 35 R -11 59 R -24 35 R -35 11 R -23 0 R D 4537 1299 M -12 -11 R 12 -12 R
11 12 R -11 11 R D 4747 1521 M -117 -163 R 176 0 R D 4747 1521 M 0 -245 R D
5016 1486 M -12 24 R -35 11 R -23 0 R -35 -11 R -24 -35 R -11 -59 R 0 -58 R
11 -47 R 24 -23 R 35 -12 R 11 0 R 35 12 R 24 23 R 12 35 R 0 12 R -12 35 R
-24 23 R -35 12 R -11 0 R -35 -12 R -24 -23 R -11 -35 R D 5537 1804 M
0 214 R D 5222 1521 M -35 -11 R -24 -35 R -11 -59 R 0 -35 R 11 -58 R
24 -35 R 35 -12 R 23 0 R 35 12 R 23 35 R 12 58 R 0 35 R -12 59 R -23 35 R
-35 11 R -23 0 R D 5409 1299 M -12 -11 R 12 -12 R 11 12 R -11 11 R D
5619 1521 M -117 -163 R 175 0 R D 5619 1521 M 0 -245 R D 5794 1521 M
-35 -11 R -12 -24 R 0 -23 R 12 -23 R 23 -12 R 47 -12 R 35 -11 R 24 -24 R
11 -23 R 0 -35 R -11 -24 R -12 -11 R -35 -12 R -47 0 R -35 12 R -12 11 R
-11 24 R 0 35 R 11 23 R 24 24 R 35 11 R 47 12 R 23 12 R 12 23 R 0 23 R
-12 24 R -35 11 R -47 0 R D 6409 1804 M 0 214 R D 6093 1521 M -35 -11 R
-23 -35 R -12 -59 R 0 -35 R 12 -58 R 23 -35 R 35 -12 R 24 0 R 35 12 R
23 35 R 12 58 R 0 35 R -12 59 R -23 35 R -35 11 R -24 0 R D 6280 1299 M
-11 -11 R 11 -12 R 12 12 R -12 11 R D 6514 1521 M -117 0 R -11 -105 R
11 12 R 35 12 R 35 0 R 35 -12 R 24 -23 R 11 -36 R 0 -23 R -11 -35 R
-24 -23 R -35 -12 R -35 0 R -35 12 R -11 11 R -12 24 R D 6678 1521 M
-35 -11 R -24 -35 R -11 -59 R 0 -35 R 11 -58 R 24 -35 R 35 -12 R 23 0 R
35 12 R 23 35 R 12 58 R 0 35 R -12 59 R -23 35 R -35 11 R -23 0 R D
7281 1804 M 0 214 R D 6965 1521 M -35 -11 R -23 -35 R -12 -59 R 0 -35 R
12 -58 R 23 -35 R 35 -12 R 24 0 R 35 12 R 23 35 R 12 58 R 0 35 R -12 59 R
-23 35 R -35 11 R -24 0 R D 7152 1299 M -11 -11 R 11 -12 R 12 12 R -12 11 R
D 7386 1521 M -117 0 R -12 -105 R 12 12 R 35 12 R 35 0 R 35 -12 R 24 -23 R
11 -36 R 0 -23 R -11 -35 R -24 -23 R -35 -12 R -35 0 R -35 12 R -12 11 R
-11 24 R D 7491 1463 M 0 12 R 12 23 R 11 12 R 24 11 R 47 0 R 23 -11 R
12 -12 R 11 -23 R 0 -24 R -11 -23 R -24 -35 R -117 -117 R 164 0 R D
8153 1804 M 0 214 R D 7837 1521 M -35 -11 R -23 -35 R -12 -59 R 0 -35 R
12 -58 R 23 -35 R 35 -12 R 24 0 R 35 12 R 23 35 R 12 58 R 0 35 R -12 59 R
-23 35 R -35 11 R -24 0 R D 8024 1299 M -12 -11 R 12 -12 R 12 12 R -12 11 R
D 8258 1521 M -117 0 R -12 -105 R 12 12 R 35 12 R 35 0 R 35 -12 R 23 -23 R
12 -36 R 0 -23 R -12 -35 R -23 -23 R -35 -12 R -35 0 R -35 12 R -12 11 R
-11 24 R D 8468 1521 M -117 -163 R 176 0 R D 8468 1521 M 0 -245 R D
1832 1804 M 0 107 R D 2268 1804 M 0 107 R D 2486 1804 M 0 107 R D
2704 1804 M 0 107 R D 3140 1804 M 0 107 R D 3358 1804 M 0 107 R D
3576 1804 M 0 107 R D 4011 1804 M 0 107 R D 4229 1804 M 0 107 R D
4447 1804 M 0 107 R D 4883 1804 M 0 107 R D 5101 1804 M 0 107 R D
5319 1804 M 0 107 R D 5755 1804 M 0 107 R D 5973 1804 M 0 107 R D
6191 1804 M 0 107 R D 6627 1804 M 0 107 R D 6845 1804 M 0 107 R D
7063 1804 M 0 107 R D 7499 1804 M 0 107 R D 7717 1804 M 0 107 R D
7935 1804 M 0 107 R D 8371 1804 M 0 107 R D 1766 7148 M 6790 0 R D
2050 7148 M 0 -214 R D 2922 7148 M 0 -214 R D 3793 7148 M 0 -214 R D
4665 7148 M 0 -214 R D 5537 7148 M 0 -214 R D 6409 7148 M 0 -214 R D
7281 7148 M 0 -214 R D 8153 7148 M 0 -214 R D 1832 7148 M 0 -107 R D
2268 7148 M 0 -107 R D 2486 7148 M 0 -107 R D 2704 7148 M 0 -107 R D
3140 7148 M 0 -107 R D 3358 7148 M 0 -107 R D 3576 7148 M 0 -107 R D
4011 7148 M 0 -107 R D 4229 7148 M 0 -107 R D 4447 7148 M 0 -107 R D
4883 7148 M 0 -107 R D 5101 7148 M 0 -107 R D 5319 7148 M 0 -107 R D
5755 7148 M 0 -107 R D 5973 7148 M 0 -107 R D 6191 7148 M 0 -107 R D
6627 7148 M 0 -107 R D 6845 7148 M 0 -107 R D 7063 7148 M 0 -107 R D
7499 7148 M 0 -107 R D 7717 7148 M 0 -107 R D 7935 7148 M 0 -107 R D
8371 7148 M 0 -107 R D 1766 1804 M 0 5344 R D 1766 2178 M 272 0 R D
1106 2224 M 0 11 R 12 24 R 11 11 R 24 12 R 46 0 R 24 -12 R 11 -11 R 12 -24 R
0 -23 R -12 -23 R -23 -35 R -117 -117 R 164 0 R D 1351 2060 M -11 -12 R
11 -11 R 12 11 R -12 12 R D 1562 2282 M -117 -164 R 175 0 R D 1562 2282 M
0 -245 R D 1766 3536 M 272 0 R D 1106 3583 M 0 11 R 12 24 R 11 11 R 24 12 R
46 0 R 24 -12 R 11 -11 R 12 -24 R 0 -23 R -12 -23 R -23 -36 R -117 -116 R
164 0 R D 1351 3419 M -11 -12 R 11 -11 R 12 11 R -12 12 R D 1597 3606 M
-12 23 R -35 12 R -24 0 R -35 -12 R -23 -35 R -12 -58 R 0 -59 R 12 -46 R
23 -24 R 35 -11 R 12 0 R 35 11 R 24 24 R 11 35 R 0 11 R -11 35 R -24 24 R
-35 12 R -12 0 R -35 -12 R -23 -24 R -12 -35 R D 1766 4895 M 272 0 R D
1106 4942 M 0 11 R 12 24 R 11 11 R 24 12 R 46 0 R 24 -12 R 11 -11 R 12 -24 R
0 -23 R -12 -23 R -23 -36 R -117 -116 R 164 0 R D 1351 4778 M -11 -12 R
11 -11 R 12 11 R -12 12 R D 1503 5000 M -35 -12 R -12 -23 R 0 -23 R 12 -24 R
23 -11 R 47 -12 R 35 -12 R 24 -23 R 11 -24 R 0 -35 R -11 -23 R -12 -12 R
-35 -11 R -47 0 R -35 11 R -12 12 R -11 23 R 0 35 R 11 24 R 24 23 R 35 12 R
47 12 R 23 11 R 12 24 R 0 23 R -12 23 R -35 12 R -47 0 R D 1766 6254 M
272 0 R D 1118 6359 M 128 0 R -70 -94 R 35 0 R 23 -11 R 12 -12 R 12 -35 R
0 -23 R -12 -35 R -23 -24 R -35 -11 R -35 0 R -35 11 R -12 12 R -12 23 R D
1351 6137 M -11 -12 R 11 -11 R 12 11 R -12 12 R D 1515 6359 M -35 -12 R
-24 -35 R -11 -58 R 0 -35 R 11 -59 R 24 -35 R 35 -11 R 23 0 R 35 11 R
24 35 R 11 59 R 0 35 R -11 58 R -24 35 R -35 12 R -23 0 R D 1766 1838 M
136 0 R D 1766 2517 M 136 0 R D 1766 2857 M 136 0 R D 1766 3197 M 136 0 R D
1766 3876 M 136 0 R D 1766 4216 M 136 0 R D 1766 4556 M 136 0 R D
1766 5235 M 136 0 R D 1766 5575 M 136 0 R D 1766 5915 M 136 0 R D
1766 6594 M 136 0 R D 1766 6934 M 136 0 R D 8556 1804 M 0 5344 R D
8556 2178 M -272 0 R D 8556 3536 M -272 0 R D 8556 4895 M -272 0 R D
8556 6254 M -272 0 R D 8556 1838 M -136 0 R D 8556 2517 M -136 0 R D
8556 2857 M -136 0 R D 8556 3197 M -136 0 R D 8556 3876 M -136 0 R D
8556 4216 M -136 0 R D 8556 4556 M -136 0 R D 8556 5235 M -136 0 R D
8556 5575 M -136 0 R D 8556 5915 M -136 0 R D 8556 6594 M -136 0 R D
8556 6934 M -136 0 R D 10 setlinewidth 8087 5937 M -1394 591 R -2134 -190 R
D 40 setlinewidth 6240 3089 M -1585 294 R -1227 419 R D 70 setlinewidth
4770 2374 M -1489 -245 R -985 607 R D 20 setlinewidth
0.373 0.000 0.000 setrgbcolor 8087 6048 M 111 0 R 0 -222 R -222 0 R 0 222 R
222 0 R D 6240 3200 M 111 0 R 0 -222 R -222 0 R 0 222 R 222 0 R D
8087 5937 M -1847 -2848 R D 4770 2485 M 111 0 R 0 -222 R -222 0 R 0 222 R
222 0 R D 6240 3089 M -1470 -715 R D 0.380 0.639 0.000 setrgbcolor
6693 6639 M 111 0 R 0 -222 R -222 0 R 0 222 R 222 0 R D 4655 3494 M 111 0 R
0 -222 R -222 0 R 0 222 R 222 0 R D 6693 6528 M -2038 -3145 R D 3281 2240 M
111 0 R 0 -222 R -222 0 R 0 222 R 222 0 R D 4655 3383 M -1374 -1254 R D
0.000 0.098 0.890 setrgbcolor 4559 6449 M 111 0 R 0 -222 R -222 0 R 0 222 R
222 0 R D 3428 3913 M 111 0 R 0 -222 R -222 0 R 0 222 R 222 0 R D
4559 6338 M -1131 -2536 R D 2296 2847 M 111 0 R 0 -222 R -222 0 R 0 222 R
222 0 R D 3428 3802 M -1132 -1066 R D 0.000 0.000 0.000 setrgbcolor
6632 2497 M 0 -368 R D 6632 2322 M 35 35 R 35 18 R 53 0 R 35 -18 R 35 -35 R
17 -53 R 0 -35 R -17 -52 R -35 -35 R -35 -18 R -53 0 R -35 18 R -35 35 R D
7140 2322 M -17 35 R -53 18 R -53 0 R -52 -18 R -18 -35 R 18 -35 R 35 -18 R
88 -17 R 35 -18 R 17 -35 R 0 -17 R -17 -35 R -53 -18 R -53 0 R -52 18 R
-18 35 R D 7298 2427 M 35 18 R 52 52 R 0 -368 R D 7613 2375 M 0 -246 R D
7613 2269 M 18 53 R 35 35 R 35 18 R 53 0 R D 8016 2322 M -17 35 R -53 18 R
-52 0 R -53 -18 R -17 -35 R 17 -35 R 35 -18 R 88 -17 R 35 -18 R 17 -35 R
0 -17 R -17 -35 R -53 -18 R -52 0 R -53 18 R -17 35 R D 9666 1804 M 6790 0 R
D 10719 1804 M 0 214 R D 10404 1521 M -35 -11 R -23 -35 R -12 -59 R 0 -35 R
12 -58 R 23 -35 R 35 -12 R 23 0 R 35 12 R 24 35 R 11 58 R 0 35 R -11 59 R
-24 35 R -35 11 R -23 0 R D 10591 1299 M -12 -11 R 12 -12 R 12 12 R -12 11 R
D 10708 1521 M 128 0 R -70 -93 R 35 0 R 24 -12 R 11 -11 R 12 -36 R 0 -23 R
-12 -35 R -23 -23 R -35 -12 R -35 0 R -35 12 R -12 11 R -12 24 R D
11058 1521 M -117 0 R -11 -105 R 11 12 R 35 12 R 36 0 R 35 -12 R 23 -23 R
12 -36 R 0 -23 R -12 -35 R -23 -23 R -35 -12 R -36 0 R -35 12 R -11 11 R
-12 24 R D 12637 1804 M 0 214 R D 12321 1521 M -35 -11 R -23 -35 R -12 -59 R
0 -35 R 12 -58 R 23 -35 R 35 -12 R 24 0 R 35 12 R 23 35 R 12 58 R 0 35 R
-12 59 R -23 35 R -35 11 R -24 0 R D 12508 1299 M -12 -11 R 12 -12 R 12 12 R
-12 11 R D 12718 1521 M -116 -163 R 175 0 R D 12718 1521 M 0 -245 R D
12905 1521 M -35 -11 R -23 -35 R -12 -59 R 0 -35 R 12 -58 R 23 -35 R
35 -12 R 24 0 R 35 12 R 23 35 R 12 58 R 0 35 R -12 59 R -23 35 R -35 11 R
-24 0 R D 14554 1804 M 0 214 R D 14238 1521 M -35 -11 R -23 -35 R -12 -59 R
0 -35 R 12 -58 R 23 -35 R 35 -12 R 24 0 R 35 12 R 23 35 R 12 58 R 0 35 R
-12 59 R -23 35 R -35 11 R -24 0 R D 14425 1299 M -11 -11 R 11 -12 R 12 12 R
-12 11 R D 14636 1521 M -117 -163 R 175 0 R D 14636 1521 M 0 -245 R D
14893 1521 M -117 0 R -12 -105 R 12 12 R 35 12 R 35 0 R 35 -12 R 23 -23 R
12 -36 R 0 -23 R -12 -35 R -23 -23 R -35 -12 R -35 0 R -35 12 R -12 11 R
-12 24 R D 9953 1804 M 0 107 R D 10336 1804 M 0 107 R D 11103 1804 M 0 107 R
D 11486 1804 M 0 107 R D 11870 1804 M 0 107 R D 12253 1804 M 0 107 R D
13020 1804 M 0 107 R D 13404 1804 M 0 107 R D 13787 1804 M 0 107 R D
14170 1804 M 0 107 R D 14937 1804 M 0 107 R D 15321 1804 M 0 107 R D
15704 1804 M 0 107 R D 16088 1804 M 0 107 R D 9666 7148 M 6790 0 R D
10719 7148 M 0 -214 R D 12637 7148 M 0 -214 R D 14554 7148 M 0 -214 R D
9953 7148 M 0 -107 R D 10336 7148 M 0 -107 R D 11103 7148 M 0 -107 R D
11486 7148 M 0 -107 R D 11870 7148 M 0 -107 R D 12253 7148 M 0 -107 R D
13020 7148 M 0 -107 R D 13404 7148 M 0 -107 R D 13787 7148 M 0 -107 R D
14170 7148 M 0 -107 R D 14937 7148 M 0 -107 R D 15321 7148 M 0 -107 R D
15704 7148 M 0 -107 R D 16088 7148 M 0 -107 R D 9666 1804 M 0 5344 R D
9666 2494 M 272 0 R D 9006 2541 M 0 11 R 12 24 R 11 11 R 24 12 R 46 0 R
24 -12 R 11 -11 R 12 -24 R 0 -23 R -12 -23 R -23 -36 R -117 -116 R 164 0 R D
9251 2377 M -11 -12 R 11 -11 R 12 11 R -12 12 R D 9508 2599 M -117 -245 R D
9345 2599 M 163 0 R D 9666 3267 M 272 0 R D 9006 3313 M 0 12 R 12 23 R
11 12 R 24 12 R 46 0 R 24 -12 R 11 -12 R 12 -23 R 0 -24 R -12 -23 R
-23 -35 R -117 -117 R 164 0 R D 9251 3150 M -11 -12 R 11 -12 R 12 12 R
-12 12 R D 9403 3372 M -35 -12 R -12 -23 R 0 -24 R 12 -23 R 23 -12 R
47 -12 R 35 -11 R 24 -24 R 11 -23 R 0 -35 R -11 -23 R -12 -12 R -35 -12 R
-47 0 R -35 12 R -12 12 R -11 23 R 0 35 R 11 23 R 24 24 R 35 11 R 47 12 R
23 12 R 12 23 R 0 24 R -12 23 R -35 12 R -47 0 R D 9666 4040 M 272 0 R D
9006 4086 M 0 11 R 12 24 R 11 11 R 24 12 R 46 0 R 24 -12 R 11 -11 R 12 -24 R
0 -23 R -12 -23 R -23 -35 R -117 -117 R 164 0 R D 9251 3922 M -11 -12 R
11 -11 R 12 11 R -12 12 R D 9497 4062 M -12 -35 R -23 -23 R -36 -12 R
-11 0 R -35 12 R -24 23 R -11 35 R 0 12 R 11 35 R 24 23 R 35 12 R 11 0 R
36 -12 R 23 -23 R 12 -47 R 0 -58 R -12 -59 R -23 -35 R -36 -11 R -23 0 R
-35 11 R -12 24 R D 9666 4812 M 272 0 R D 9018 4917 M 128 0 R -70 -94 R
35 0 R 23 -11 R 12 -12 R 12 -35 R 0 -24 R -12 -35 R -23 -23 R -35 -12 R
-35 0 R -35 12 R -12 12 R -12 23 R D 9251 4695 M -11 -12 R 11 -12 R 12 12 R
-12 12 R D 9415 4917 M -35 -12 R -24 -35 R -11 -58 R 0 -36 R 11 -58 R
24 -35 R 35 -12 R 23 0 R 35 12 R 24 35 R 11 58 R 0 36 R -11 58 R -24 35 R
-35 12 R -23 0 R D 9666 5585 M 272 0 R D 9018 5689 M 128 0 R -70 -93 R
35 0 R 23 -12 R 12 -12 R 12 -35 R 0 -23 R -12 -35 R -23 -23 R -35 -12 R
-35 0 R -35 12 R -12 11 R -12 24 R D 9251 5467 M -11 -11 R 11 -12 R 12 12 R
-12 11 R D 9380 5642 M 23 12 R 35 35 R 0 -245 R D 9666 6357 M 272 0 R D
9018 6462 M 128 0 R -70 -94 R 35 0 R 23 -11 R 12 -12 R 12 -35 R 0 -23 R
-12 -36 R -23 -23 R -35 -12 R -35 0 R -35 12 R -12 12 R -12 23 R D
9251 6240 M -11 -12 R 11 -12 R 12 12 R -12 12 R D 9356 6403 M 0 12 R 12 23 R
12 12 R 23 12 R 47 0 R 23 -12 R 12 -12 R 12 -23 R 0 -23 R -12 -24 R
-23 -35 R -117 -117 R 163 0 R D 9666 7130 M 272 0 R D 9018 7147 M 128 0 R
-70 -94 R 35 0 R 23 -11 R 12 -12 R 12 -35 R 0 -23 R -12 -35 R -23 -24 R
-35 -11 R -35 0 R -35 11 R -12 12 R -12 23 R D 9251 6925 M -11 -12 R
11 -11 R 12 11 R -12 12 R D 9368 7147 M 129 0 R -71 -94 R 36 0 R 23 -11 R
12 -12 R 11 -35 R 0 -23 R -11 -35 R -24 -24 R -35 -11 R -35 0 R -35 11 R
-12 12 R -11 23 R D 9666 1876 M 136 0 R D 9666 1954 M 136 0 R D 9666 2031 M
136 0 R D 9666 2108 M 136 0 R D 9666 2185 M 136 0 R D 9666 2263 M 136 0 R D
9666 2340 M 136 0 R D 9666 2417 M 136 0 R D 9666 2572 M 136 0 R D
9666 2649 M 136 0 R D 9666 2726 M 136 0 R D 9666 2803 M 136 0 R D
9666 2881 M 136 0 R D 9666 2958 M 136 0 R D 9666 3035 M 136 0 R D
9666 3112 M 136 0 R D 9666 3190 M 136 0 R D 9666 3344 M 136 0 R D
9666 3422 M 136 0 R D 9666 3499 M 136 0 R D 9666 3576 M 136 0 R D
9666 3653 M 136 0 R D 9666 3731 M 136 0 R D 9666 3808 M 136 0 R D
9666 3885 M 136 0 R D 9666 3962 M 136 0 R D 9666 4117 M 136 0 R D
9666 4194 M 136 0 R D 9666 4271 M 136 0 R D 9666 4349 M 136 0 R D
9666 4426 M 136 0 R D 9666 4503 M 136 0 R D 9666 4580 M 136 0 R D
9666 4658 M 136 0 R D 9666 4735 M 136 0 R D 9666 4889 M 136 0 R D
9666 4967 M 136 0 R D 9666 5044 M 136 0 R D 9666 5121 M 136 0 R D
9666 5198 M 136 0 R D 9666 5276 M 136 0 R D 9666 5353 M 136 0 R D
9666 5430 M 136 0 R D 9666 5507 M 136 0 R D 9666 5662 M 136 0 R D
9666 5739 M 136 0 R D 9666 5816 M 136 0 R D 9666 5894 M 136 0 R D
9666 5971 M 136 0 R D 9666 6048 M 136 0 R D 9666 6125 M 136 0 R D
9666 6203 M 136 0 R D 9666 6280 M 136 0 R D 9666 6434 M 136 0 R D
9666 6512 M 136 0 R D 9666 6589 M 136 0 R D 9666 6666 M 136 0 R D
9666 6743 M 136 0 R D 9666 6821 M 136 0 R D 9666 6898 M 136 0 R D
9666 6975 M 136 0 R D 9666 7053 M 136 0 R D 16456 1804 M 0 5344 R D
16456 2494 M -272 0 R D 16456 3267 M -272 0 R D 16456 4040 M -272 0 R D
16456 4812 M -272 0 R D 16456 5585 M -272 0 R D 16456 6357 M -272 0 R D
16456 7130 M -272 0 R D 16456 1876 M -136 0 R D 16456 1954 M -136 0 R D
16456 2031 M -136 0 R D 16456 2108 M -136 0 R D 16456 2185 M -136 0 R D
16456 2263 M -136 0 R D 16456 2340 M -136 0 R D 16456 2417 M -136 0 R D
16456 2572 M -136 0 R D 16456 2649 M -136 0 R D 16456 2726 M -136 0 R D
16456 2803 M -136 0 R D 16456 2881 M -136 0 R D 16456 2958 M -136 0 R D
16456 3035 M -136 0 R D 16456 3112 M -136 0 R D 16456 3190 M -136 0 R D
16456 3344 M -136 0 R D 16456 3422 M -136 0 R D 16456 3499 M -136 0 R D
16456 3576 M -136 0 R D 16456 3653 M -136 0 R D 16456 3731 M -136 0 R D
16456 3808 M -136 0 R D 16456 3885 M -136 0 R D 16456 3962 M -136 0 R D
16456 4117 M -136 0 R D 16456 4194 M -136 0 R D 16456 4271 M -136 0 R D
16456 4349 M -136 0 R D 16456 4426 M -136 0 R D 16456 4503 M -136 0 R D
16456 4580 M -136 0 R D 16456 4658 M -136 0 R D 16456 4735 M -136 0 R D
16456 4889 M -136 0 R D 16456 4967 M -136 0 R D 16456 5044 M -136 0 R D
16456 5121 M -136 0 R D 16456 5198 M -136 0 R D 16456 5276 M -136 0 R D
16456 5353 M -136 0 R D 16456 5430 M -136 0 R D 16456 5507 M -136 0 R D
16456 5662 M -136 0 R D 16456 5739 M -136 0 R D 16456 5816 M -136 0 R D
16456 5894 M -136 0 R D 16456 5971 M -136 0 R D 16456 6048 M -136 0 R D
16456 6125 M -136 0 R D 16456 6203 M -136 0 R D 16456 6280 M -136 0 R D
16456 6434 M -136 0 R D 16456 6512 M -136 0 R D 16456 6589 M -136 0 R D
16456 6666 M -136 0 R D 16456 6743 M -136 0 R D 16456 6821 M -136 0 R D
16456 6898 M -136 0 R D 16456 6975 M -136 0 R D 16456 7053 M -136 0 R D
10 setlinewidth 16080 5752 M -916 653 R -1619 -196 R D 40 setlinewidth
13416 2744 M -1012 354 R -866 761 R D 70 setlinewidth 11578 2216 M
-1063 67 R -467 583 R D 20 setlinewidth 0.373 0.000 0.000 setrgbcolor
16080 5863 M 111 0 R 0 -222 R -222 0 R 0 222 R 222 0 R D 13416 2855 M
111 0 R 0 -222 R -222 0 R 0 222 R 222 0 R D 16080 5752 M -2664 -3008 R D
11578 2327 M 111 0 R 0 -222 R -222 0 R 0 222 R 222 0 R D 13416 2744 M
-1838 -528 R D 0.380 0.639 0.000 setrgbcolor 15164 6516 M 111 0 R 0 -222 R
-222 0 R 0 222 R 222 0 R D 12404 3209 M 111 0 R 0 -222 R -222 0 R 0 222 R
222 0 R D 15164 6405 M -2760 -3307 R D 10515 2394 M 111 0 R 0 -222 R
-222 0 R 0 222 R 222 0 R D 12404 3098 M -1889 -815 R D
0.000 0.098 0.890 setrgbcolor 13545 6320 M 111 0 R 0 -222 R -222 0 R 0 222 R
222 0 R D 11538 3970 M 111 0 R 0 -222 R -222 0 R 0 222 R 222 0 R D
13545 6209 M -2007 -2350 R D 10048 2977 M 111 0 R 0 -222 R -222 0 R 0 222 R
222 0 R D 11538 3859 M -1490 -993 R D 0.000 0.000 0.000 setrgbcolor
14293 2584 M 0 -368 R D 14293 2408 M 35 35 R 35 18 R 52 0 R 35 -18 R
35 -35 R 18 -52 R 0 -35 R -18 -53 R -35 -35 R -35 -17 R -52 0 R -35 17 R
-35 35 R D 14801 2408 M -18 35 R -52 18 R -53 0 R -52 -18 R -18 -35 R
18 -35 R 35 -17 R 87 -18 R 35 -17 R 18 -35 R 0 -18 R -18 -35 R -52 -17 R
-53 0 R -52 17 R -18 35 R D 14959 2514 M 35 17 R 52 53 R 0 -368 R D
15274 2461 M 0 -245 R D 15274 2356 M 18 52 R 35 35 R 35 18 R 52 0 R D
15677 2408 M -17 35 R -53 18 R -52 0 R -53 -18 R -18 -35 R 18 -35 R 35 -17 R
88 -18 R 35 -17 R 17 -35 R 0 -18 R -17 -35 R -53 -17 R -52 0 R -53 17 R
-18 35 R D 15800 2584 M 0 -368 R D 15800 2391 M 53 52 R 35 18 R 52 0 R
35 -18 R 18 -52 R 0 -175 R D 4813 525 M 0 -245 R D 4813 455 M 52 53 R
35 17 R 53 0 R 35 -17 R 17 -53 R 0 -175 R D 5146 525 M 0 -175 R 17 -52 R
35 -18 R 53 0 R 35 18 R 52 52 R D 5338 525 M 0 -245 R D 5479 525 M 0 -245 R
D 5479 455 M 52 53 R 35 17 R 53 0 R 35 -17 R 17 -53 R 0 -175 R D 5671 455 M
53 53 R 35 17 R 53 0 R 35 -17 R 17 -53 R 0 -175 R D 6004 648 M 0 -368 R D
6004 473 M 35 35 R 35 17 R 53 0 R 35 -17 R 35 -35 R 18 -53 R 0 -35 R
-18 -52 R -35 -35 R -35 -18 R -53 0 R -35 18 R -35 35 R D 6320 420 M 210 0 R
0 35 R -17 35 R -18 18 R -35 17 R -53 0 R -35 -17 R -35 -35 R -17 -53 R
0 -35 R 17 -52 R 35 -35 R 35 -18 R 53 0 R 35 18 R 35 35 R D 6653 525 M
0 -245 R D 6653 420 M 17 53 R 35 35 R 35 17 R 53 0 R D 7266 648 M -35 0 R
-35 -17 R -17 -53 R 0 -298 R D 7126 525 M 123 0 R D 7371 525 M 0 -245 R D
7371 420 M 18 53 R 35 35 R 35 17 R 53 0 R D 7792 525 M 0 -245 R D 7792 473 M
-35 35 R -35 17 R -53 0 R -35 -17 R -35 -35 R -17 -53 R 0 -35 R 17 -52 R
35 -35 R 35 -18 R 53 0 R 35 18 R 35 35 R D 8125 473 M -35 35 R -35 17 R
-53 0 R -35 -17 R -35 -35 R -17 -53 R 0 -35 R 17 -52 R 35 -35 R 35 -18 R
53 0 R 35 18 R 35 35 R D 8265 648 M 0 -298 R 18 -52 R 35 -18 R 35 0 R D
8213 525 M 122 0 R D 8441 648 M 17 -17 R 18 17 R -18 18 R -17 -18 R D
8458 525 M 0 -245 R D 8668 525 M -35 -17 R -35 -35 R -17 -53 R 0 -35 R
17 -52 R 35 -35 R 35 -18 R 53 0 R 35 18 R 35 35 R 18 52 R 0 35 R -18 53 R
-35 35 R -35 17 R -53 0 R D 8931 525 M 0 -245 R D 8931 455 M 53 53 R 35 17 R
52 0 R 36 -17 R 17 -53 R 0 -175 R D 9615 525 M -35 -17 R -35 -35 R -18 -53 R
0 -35 R 18 -52 R 35 -35 R 35 -18 R 52 0 R 35 18 R 35 35 R 18 52 R 0 35 R
-18 53 R -35 35 R -35 17 R -52 0 R D 9983 648 M -35 0 R -35 -17 R -18 -53 R
0 -298 R D 9843 525 M 122 0 R D 10544 473 M -18 35 R -52 17 R -53 0 R
-53 -17 R -17 -35 R 17 -35 R 35 -18 R 88 -17 R 35 -18 R 18 -35 R 0 -17 R
-18 -35 R -52 -18 R -53 0 R -53 18 R -17 35 R D 10666 525 M 0 -175 R
18 -52 R 35 -18 R 53 0 R 35 18 R 52 52 R D 10859 525 M 0 -245 R D
10999 648 M 0 -368 R D 10999 473 M 35 35 R 35 17 R 53 0 R 35 -17 R 35 -35 R
18 -53 R 0 -35 R -18 -52 R -35 -35 R -35 -18 R -53 0 R -35 18 R -35 35 R D
11332 648 M 0 -368 R D 11332 455 M 53 53 R 35 17 R 53 0 R 35 -17 R 17 -53 R
0 -175 R D 11858 525 M 0 -245 R D 11858 473 M -35 35 R -35 17 R -53 0 R
-35 -17 R -35 -35 R -17 -53 R 0 -35 R 17 -52 R 35 -35 R 35 -18 R 53 0 R
35 18 R 35 35 R D 11998 648 M 0 -368 R D 12209 525 M -35 -17 R -35 -35 R
-18 -53 R 0 -35 R 18 -52 R 35 -35 R 35 -18 R 52 0 R 35 18 R 35 35 R 18 52 R
0 35 R -18 53 R -35 35 R -35 17 R -52 0 R D 12647 473 M -18 35 R -52 17 R
-53 0 R -52 -17 R -18 -35 R 18 -35 R 35 -18 R 87 -17 R 35 -18 R 18 -35 R
0 -17 R -18 -35 R -52 -18 R -53 0 R -52 18 R -18 35 R D 13243 525 M 0 -245 R
D 13243 473 M -35 35 R -35 17 R -53 0 R -35 -17 R -35 -35 R -18 -53 R
0 -35 R 18 -52 R 35 -35 R 35 -18 R 53 0 R 35 18 R 35 35 R D 13383 648 M
0 -368 R D 13506 648 M 17 -17 R 18 17 R -18 18 R -17 -18 R D 13523 525 M
0 -245 R D 13628 525 M 105 -245 R 106 245 R D 13926 420 M 211 0 R 0 35 R
-18 35 R -17 18 R -36 17 R -52 0 R -35 -17 R -35 -35 R -18 -53 R 0 -35 R
18 -52 R 35 -35 R 35 -18 R 52 0 R 36 18 R 35 35 R D 435 2485 M 245 0 R D
487 2485 M -35 -35 R -17 -35 R 0 -52 R 17 -35 R 35 -35 R 53 -18 R 35 0 R
52 18 R 35 35 R 18 35 R 0 52 R -18 35 R -35 35 R D 435 2591 M 245 105 R
-245 105 R D 540 2888 M 0 211 R -35 0 R -35 -18 R -18 -17 R -17 -35 R
0 -53 R 17 -35 R 35 -35 R 53 -18 R 35 0 R 52 18 R 35 35 R 18 35 R 0 53 R
-18 35 R -35 35 R D 435 3221 M 245 0 R D 540 3221 M -53 18 R -35 35 R
-17 35 R 0 53 R D 435 3642 M 245 0 R D 487 3642 M -35 -35 R -17 -35 R
0 -53 R 17 -35 R 35 -35 R 53 -17 R 35 0 R 52 17 R 35 35 R 18 35 R 0 53 R
-18 35 R -35 35 R D 435 3975 M 298 0 R 52 -17 R 18 -18 R 17 -35 R 0 -53 R
-17 -35 R D 487 3975 M -35 -35 R -17 -35 R 0 -53 R 17 -35 R 35 -35 R
53 -17 R 35 0 R 52 17 R 35 35 R 18 35 R 0 53 R -18 35 R -35 35 R D
540 4098 M 0 210 R -35 0 R -35 -17 R -18 -18 R -17 -35 R 0 -53 R 17 -35 R
35 -35 R 53 -17 R 35 0 R 52 17 R 35 35 R 18 35 R 0 53 R -18 35 R -35 35 R D
435 4711 M 245 0 R D 505 4711 M -53 53 R -17 35 R 0 52 R 17 35 R 53 18 R
175 0 R D 505 4904 M -53 53 R -17 35 R 0 52 R 17 35 R 53 18 R 175 0 R D
435 5430 M 245 0 R D 487 5430 M -35 -35 R -17 -35 R 0 -53 R 17 -35 R
35 -35 R 53 -18 R 35 0 R 52 18 R 35 35 R 18 35 R 0 53 R -18 35 R -35 35 R D
487 5745 M -35 -17 R -17 -53 R 0 -52 R 17 -53 R 35 -18 R 35 18 R 18 35 R
17 88 R 18 35 R 35 17 R 17 0 R 35 -17 R 18 -53 R 0 -52 R -18 -53 R -35 -18 R
D 487 6043 M -35 -17 R -17 -53 R 0 -52 R 17 -53 R 35 -18 R 35 18 R 18 35 R
17 88 R 18 35 R 35 17 R 17 0 R 35 -17 R 18 -53 R 0 -52 R -18 -53 R -35 -18 R
D 435 6516 M 17 -35 R 35 -35 R 53 -17 R 35 0 R 52 17 R 35 35 R 18 35 R
0 53 R -18 35 R -35 35 R -52 18 R -35 0 R -53 -18 R -35 -35 R -17 -35 R
0 -53 R D 312 6884 M 0 -35 R 17 -35 R 53 -17 R 298 0 R D 435 6744 M 0 123 R
D 487 7445 M -35 -17 R -17 -53 R 0 -52 R 17 -53 R 35 -17 R 35 17 R 18 35 R
17 88 R 18 35 R 35 17 R 17 0 R 35 -17 R 18 -53 R 0 -52 R -18 -53 R -35 -17 R
D 435 7568 M 175 0 R 52 18 R 18 35 R 0 52 R -18 35 R -52 53 R D 435 7761 M
245 0 R D 312 7901 M 368 0 R D 487 7901 M -35 35 R -17 35 R 0 53 R 17 35 R
35 35 R 53 17 R 35 0 R 52 -17 R 35 -35 R 18 -35 R 0 -53 R -18 -35 R
-35 -35 R D 312 8234 M 368 0 R D 505 8234 M -53 53 R -17 35 R 0 52 R 17 35 R
53 18 R 175 0 R D 435 8760 M 245 0 R D 487 8760 M -35 -35 R -17 -35 R
0 -53 R 17 -35 R 35 -35 R 53 -18 R 35 0 R 52 18 R 35 35 R 18 35 R 0 53 R
-18 35 R -35 35 R D 312 8900 M 368 0 R D 435 9110 M 17 -35 R 35 -35 R
53 -17 R 35 0 R 52 17 R 35 35 R 18 35 R 0 53 R -18 35 R -35 35 R -52 18 R
-35 0 R -53 -18 R -35 -35 R -17 -35 R 0 -53 R D 487 9548 M -35 -17 R
-17 -53 R 0 -52 R 17 -53 R 35 -17 R 35 17 R 18 35 R 17 88 R 18 35 R 35 17 R
17 0 R 35 -17 R 18 -53 R 0 -52 R -18 -53 R -35 -17 R D 435 10144 M 245 0 R D
487 10144 M -35 -35 R -17 -35 R 0 -52 R 17 -35 R 35 -35 R 53 -18 R 35 0 R
52 18 R 35 35 R 18 35 R 0 52 R -18 35 R -35 35 R D 312 10285 M 368 0 R D
312 10407 M 17 18 R -17 17 R -18 -17 R 18 -18 R D 435 10425 M 245 0 R D
435 10530 M 245 105 R -245 105 R D 540 10828 M 0 210 R -35 0 R -35 -17 R
-18 -18 R -17 -35 R 0 -52 R 17 -36 R 35 -35 R 53 -17 R 35 0 R 52 17 R
35 35 R 18 36 R 0 52 R -18 35 R -35 35 R D 242 11284 M 35 -35 R 52 -36 R
71 -35 R 87 -17 R 70 0 R 88 17 R 88 35 R 52 36 R 35 35 R D 382 11441 M
-17 35 R -53 53 R 368 0 R D 540 11739 M 0 211 R -35 0 R -35 -18 R -18 -17 R
-17 -36 R 0 -52 R 17 -35 R 35 -35 R 53 -18 R 35 0 R 52 18 R 35 35 R 18 35 R
0 52 R -18 36 R -35 35 R D 435 12283 M 52 -18 R 35 -35 R 18 -53 R 0 -17 R
-18 -53 R -35 -35 R -52 -17 R -18 0 R -52 17 R -36 35 R -17 53 R 0 17 R
17 53 R 36 35 R 70 18 R 87 0 R 88 -18 R 52 -35 R 18 -53 R 0 -35 R -18 -52 R
-35 -18 R D 312 12423 M 368 0 R D 312 12423 M 368 140 R -368 140 R 368 0 R D
700 12932 M -22 -11 R -10 -33 R 0 -32 R 10 -33 R 22 -10 R 22 10 R 11 22 R
11 54 R 10 22 R 22 11 R 11 0 R 22 -11 R 11 -33 R 0 -32 R -11 -33 R -22 -10 R
D 668 13008 M 108 0 R 33 11 R 11 21 R 0 33 R -11 22 R -33 32 R D 668 13127 M
152 0 R D 668 13214 M 152 0 R D 711 13214 M -33 32 R -10 22 R 0 33 R 10 21 R
33 11 R 109 0 R D 242 13423 M 35 35 R 52 35 R 71 35 R 87 17 R 70 0 R
88 -17 R 88 -35 R 52 -35 R 35 -35 R D
%%PageTrailer
end
%%PageResources: font Helvetica
%%Trailer
%%Pages: 1
%%DocumentNeededResources: font Helvetica
%%EOF
