%!PS-Adobe-3.0 EPSF-3.0
%%BoundingBox: 0 0 481 396
%%Title: Graphics produced by IDL
%%For: jlgan@aida119, /home/jlgan/work/subhalo_model
%%Creator: IDL Version 7.0 (linux x86_64 m64)
%%CreationDate: Tue Jan 27 16:06:44 2009
%%DocumentData: Clean7bit
%%Requirements: color
%%LanguageLevel: 1
%%PageOrder: Ascend
%%Pages: (atend)
%%DocumentNeededResources: (atend)
%%EndComments
%%BeginProlog
%+ prolog.ps -- Prolog for IDL generated PostScript files
%+ Copyright (c) 1988-2007 ITT Visual Information Solutions. All Rights Reserved.
%v 5
/$IDL_DICT 40 dict def $IDL_DICT begin /bdef { bind def } bind def /C
{currentpoint newpath moveto} bdef /CP {currentpoint} bdef /D {currentpoint
stroke moveto} bdef /F {closepath fill} bdef /K { setgray } bdef /M {moveto}
bdef /N {rmoveto} bdef /P {lineto} bdef /R {rlineto} bdef /S {gsave show
grestore} bdef /X {currentpoint pop} bdef /Z {gsave currentpoint lineto 20
setlinewidth 1 setlinecap stroke grestore} bdef /L0 {[] 0 setdash} bdef /L1
{[40 100] 0 setdash} bdef /L2 {[200 200] 0 setdash} bdef /L3 {[200 100 50
100] 0 setdash} bdef /L4 {[300 100 50 100 50 100 50 100] 0 setdash} bdef /L5
{[400 200] 0 setdash} bdef /STDFONT { findfont exch scalefont setfont } bdef
/ISOFONT { findfont dup length dict begin { 1 index /FID ne {def} {pop pop}
ifelse } forall /Encoding ISOLatin1Encoding def currentdict end /idltmpfont
exch definefont exch scalefont setfont } bdef /ISOBULLET { gsave /Helvetica
findfont exch scalefont setfont (\267) show currentpoint grestore moveto}
bdef /MITERLIMIT { 2.5 setmiterlimit } bdef end
%%EndProlog
%%Page: 0 1
%%PageRequirements: color
%%PageResources: (atend)
%%PageOrientation: Portrait
%%PageBoundingBox: 0 0 481 396
%%BeginPageSetup
$IDL_DICT begin 0.0283465 dup scale MITERLIMIT
%%IncludeResource: font Helvetica
423.333 /Helvetica STDFONT
%%EndPageSetup
20 setlinewidth L0 0.000 0.000 0.000 setrgbcolor 2366 8404 M 6390 0 R D
2545 8404 M 0 198 R D 1996 8121 M -35 -11 R -24 -35 R -12 -59 R 0 -35 R
12 -58 R 24 -35 R 35 -12 R 23 0 R 35 12 R 23 35 R 12 58 R 0 35 R -12 59 R
-23 35 R -35 11 R -23 0 R D 2183 7899 M -12 -11 R 12 -12 R 11 12 R -11 11 R
D 2346 8121 M -35 -11 R -23 -35 R -12 -59 R 0 -35 R 12 -58 R 23 -35 R
35 -12 R 23 0 R 36 12 R 23 35 R 12 58 R 0 35 R -12 59 R -23 35 R -36 11 R
-23 0 R D 2580 8121 M -35 -11 R -24 -35 R -11 -59 R 0 -35 R 11 -58 R
24 -35 R 35 -12 R 23 0 R 35 12 R 24 35 R 11 58 R 0 35 R -11 59 R -24 35 R
-35 11 R -23 0 R D 2778 8075 M 24 11 R 35 35 R 0 -245 R D 3129 8086 M
-12 24 R -35 11 R -23 0 R -35 -11 R -24 -35 R -11 -59 R 0 -58 R 11 -47 R
24 -23 R 35 -12 R 12 0 R 35 12 R 23 23 R 12 35 R 0 12 R -12 35 R -23 23 R
-35 12 R -12 0 R -35 -12 R -24 -23 R -11 -35 R D 3546 8404 M 0 198 R D
2996 8121 M -35 -11 R -23 -35 R -12 -59 R 0 -35 R 12 -58 R 23 -35 R 35 -12 R
24 0 R 35 12 R 23 35 R 12 58 R 0 35 R -12 59 R -23 35 R -35 11 R -24 0 R D
3183 7899 M -11 -11 R 11 -12 R 12 12 R -12 11 R D 3347 8121 M -35 -11 R
-24 -35 R -11 -59 R 0 -35 R 11 -58 R 24 -35 R 35 -12 R 23 0 R 35 12 R
24 35 R 11 58 R 0 35 R -11 59 R -24 35 R -35 11 R -23 0 R D 3581 8121 M
-35 -11 R -24 -35 R -12 -59 R 0 -35 R 12 -58 R 24 -35 R 35 -12 R 23 0 R
35 12 R 23 35 R 12 58 R 0 35 R -12 59 R -23 35 R -35 11 R -23 0 R D
3779 8075 M 24 11 R 35 35 R 0 -245 R D 4036 8121 M -35 -11 R -11 -24 R
0 -23 R 11 -23 R 24 -12 R 46 -12 R 35 -11 R 24 -24 R 11 -23 R 0 -35 R
-11 -24 R -12 -11 R -35 -12 R -47 0 R -35 12 R -11 11 R -12 24 R 0 35 R
12 23 R 23 24 R 35 11 R 47 12 R 23 12 R 12 23 R 0 23 R -12 24 R -35 11 R
-47 0 R D 4546 8404 M 0 198 R D 3997 8121 M -35 -11 R -23 -35 R -12 -59 R
0 -35 R 12 -58 R 23 -35 R 35 -12 R 24 0 R 35 12 R 23 35 R 12 58 R 0 35 R
-12 59 R -23 35 R -35 11 R -24 0 R D 4184 7899 M -12 -11 R 12 -12 R 12 12 R
-12 11 R D 4348 8121 M -35 -11 R -24 -35 R -11 -59 R 0 -35 R 11 -58 R
24 -35 R 35 -12 R 23 0 R 35 12 R 24 35 R 11 58 R 0 35 R -11 59 R -24 35 R
-35 11 R -23 0 R D 4581 8121 M -35 -11 R -23 -35 R -12 -59 R 0 -35 R
12 -58 R 23 -35 R 35 -12 R 24 0 R 35 12 R 23 35 R 12 58 R 0 35 R -12 59 R
-23 35 R -35 11 R -24 0 R D 4757 8063 M 0 12 R 11 23 R 12 12 R 23 11 R
47 0 R 24 -11 R 11 -12 R 12 -23 R 0 -24 R -12 -23 R -23 -35 R -117 -117 R
164 0 R D 5049 8121 M -35 -11 R -24 -35 R -11 -59 R 0 -35 R 11 -58 R
24 -35 R 35 -12 R 23 0 R 35 12 R 24 35 R 11 58 R 0 35 R -11 59 R -24 35 R
-35 11 R -23 0 R D 5547 8404 M 0 198 R D 4998 8121 M -35 -11 R -23 -35 R
-12 -59 R 0 -35 R 12 -58 R 23 -35 R 35 -12 R 23 0 R 35 12 R 24 35 R 12 58 R
0 35 R -12 59 R -24 35 R -35 11 R -23 0 R D 5185 7899 M -12 -11 R 12 -12 R
12 12 R -12 11 R D 5349 8121 M -35 -11 R -24 -35 R -12 -59 R 0 -35 R
12 -58 R 24 -35 R 35 -12 R 23 0 R 35 12 R 23 35 R 12 58 R 0 35 R -12 59 R
-23 35 R -35 11 R -23 0 R D 5582 8121 M -35 -11 R -23 -35 R -12 -59 R
0 -35 R 12 -58 R 23 -35 R 35 -12 R 24 0 R 35 12 R 23 35 R 12 58 R 0 35 R
-12 59 R -23 35 R -35 11 R -24 0 R D 5758 8063 M 0 12 R 11 23 R 12 12 R
23 11 R 47 0 R 23 -11 R 12 -12 R 12 -23 R 0 -24 R -12 -23 R -23 -35 R
-117 -117 R 163 0 R D 5991 8063 M 0 12 R 12 23 R 12 12 R 23 11 R 47 0 R
23 -11 R 12 -12 R 11 -23 R 0 -24 R -11 -23 R -24 -35 R -116 -117 R 163 0 R D
6548 8404 M 0 198 R D 5999 8121 M -35 -11 R -24 -35 R -11 -59 R 0 -35 R
11 -58 R 24 -35 R 35 -12 R 23 0 R 35 12 R 24 35 R 11 58 R 0 35 R -11 59 R
-24 35 R -35 11 R -23 0 R D 6186 7899 M -12 -11 R 12 -12 R 12 12 R -12 11 R
D 6349 8121 M -35 -11 R -23 -35 R -12 -59 R 0 -35 R 12 -58 R 23 -35 R
35 -12 R 24 0 R 35 12 R 23 35 R 12 58 R 0 35 R -12 59 R -23 35 R -35 11 R
-24 0 R D 6583 8121 M -35 -11 R -23 -35 R -12 -59 R 0 -35 R 12 -58 R
23 -35 R 35 -12 R 23 0 R 36 12 R 23 35 R 12 58 R 0 35 R -12 59 R -23 35 R
-36 11 R -23 0 R D 6758 8063 M 0 12 R 12 23 R 12 12 R 23 11 R 47 0 R
23 -11 R 12 -12 R 12 -23 R 0 -24 R -12 -23 R -23 -35 R -117 -117 R 163 0 R D
7097 8121 M -117 -163 R 176 0 R D 7097 8121 M 0 -245 R D 7549 8404 M 0 198 R
D 7000 8121 M -35 -11 R -24 -35 R -11 -59 R 0 -35 R 11 -58 R 24 -35 R
35 -12 R 23 0 R 35 12 R 24 35 R 11 58 R 0 35 R -11 59 R -24 35 R -35 11 R
-23 0 R D 7187 7899 M -12 -11 R 12 -12 R 11 12 R -11 11 R D 7350 8121 M
-35 -11 R -23 -35 R -12 -59 R 0 -35 R 12 -58 R 23 -35 R 35 -12 R 24 0 R
35 12 R 23 35 R 12 58 R 0 35 R -12 59 R -23 35 R -35 11 R -24 0 R D
7584 8121 M -35 -11 R -23 -35 R -12 -59 R 0 -35 R 12 -58 R 23 -35 R 35 -12 R
23 0 R 35 12 R 24 35 R 11 58 R 0 35 R -11 59 R -24 35 R -35 11 R -23 0 R D
7759 8063 M 0 12 R 12 23 R 12 12 R 23 11 R 47 0 R 23 -11 R 12 -12 R 11 -23 R
0 -24 R -11 -23 R -24 -35 R -116 -117 R 163 0 R D 8133 8086 M -12 24 R
-35 11 R -23 0 R -35 -11 R -23 -35 R -12 -59 R 0 -58 R 12 -47 R 23 -23 R
35 -12 R 12 0 R 35 12 R 23 23 R 12 35 R 0 12 R -12 35 R -23 23 R -35 12 R
-12 0 R -35 -12 R -23 -23 R -12 -35 R D 8550 8404 M 0 198 R D 8001 8121 M
-36 -11 R -23 -35 R -12 -59 R 0 -35 R 12 -58 R 23 -35 R 36 -12 R 23 0 R
35 12 R 23 35 R 12 58 R 0 35 R -12 59 R -23 35 R -35 11 R -23 0 R D
8187 7899 M -11 -11 R 11 -12 R 12 12 R -12 11 R D 8351 8121 M -35 -11 R
-23 -35 R -12 -59 R 0 -35 R 12 -58 R 23 -35 R 35 -12 R 23 0 R 35 12 R
24 35 R 12 58 R 0 35 R -12 59 R -24 35 R -35 11 R -23 0 R D 8585 8121 M
-35 -11 R -24 -35 R -11 -59 R 0 -35 R 11 -58 R 24 -35 R 35 -12 R 23 0 R
35 12 R 24 35 R 11 58 R 0 35 R -11 59 R -24 35 R -35 11 R -23 0 R D
8760 8063 M 0 12 R 12 23 R 11 12 R 24 11 R 46 0 R 24 -11 R 12 -12 R 11 -23 R
0 -24 R -11 -23 R -24 -35 R -117 -117 R 164 0 R D 9040 8121 M -35 -11 R
-11 -24 R 0 -23 R 11 -23 R 24 -12 R 46 -12 R 36 -11 R 23 -24 R 12 -23 R
0 -35 R -12 -24 R -12 -11 R -35 -12 R -47 0 R -35 12 R -11 11 R -12 24 R
0 35 R 12 23 R 23 24 R 35 11 R 47 12 R 23 12 R 12 23 R 0 23 R -12 24 R
-35 11 R -47 0 R D 2795 8404 M 0 99 R D 3045 8404 M 0 99 R D 3295 8404 M
0 99 R D 3796 8404 M 0 99 R D 4046 8404 M 0 99 R D 4296 8404 M 0 99 R D
4797 8404 M 0 99 R D 5047 8404 M 0 99 R D 5297 8404 M 0 99 R D 5797 8404 M
0 99 R D 6048 8404 M 0 99 R D 6298 8404 M 0 99 R D 6798 8404 M 0 99 R D
7048 8404 M 0 99 R D 7299 8404 M 0 99 R D 7799 8404 M 0 99 R D 8049 8404 M
0 99 R D 8299 8404 M 0 99 R D 2366 13348 M 6390 0 R D 2545 13348 M 0 -198 R
D 3546 13348 M 0 -198 R D 4546 13348 M 0 -198 R D 5547 13348 M 0 -198 R D
6548 13348 M 0 -198 R D 7549 13348 M 0 -198 R D 8550 13348 M 0 -198 R D
2795 13348 M 0 -99 R D 3045 13348 M 0 -99 R D 3295 13348 M 0 -99 R D
3796 13348 M 0 -99 R D 4046 13348 M 0 -99 R D 4296 13348 M 0 -99 R D
4797 13348 M 0 -99 R D 5047 13348 M 0 -99 R D 5297 13348 M 0 -99 R D
5797 13348 M 0 -99 R D 6048 13348 M 0 -99 R D 6298 13348 M 0 -99 R D
6798 13348 M 0 -99 R D 7048 13348 M 0 -99 R D 7299 13348 M 0 -99 R D
7799 13348 M 0 -99 R D 8049 13348 M 0 -99 R D 8299 13348 M 0 -99 R D
2366 8404 M 0 4944 R D 2366 8675 M 256 0 R D 1601 8780 M 128 0 R -70 -94 R
35 0 R 24 -12 R 11 -11 R 12 -35 R 0 -24 R -12 -35 R -23 -23 R -35 -12 R
-35 0 R -35 12 R -12 12 R -12 23 R D 1963 8745 M -12 23 R -35 12 R -23 0 R
-35 -12 R -24 -35 R -11 -59 R 0 -58 R 11 -47 R 24 -23 R 35 -12 R 11 0 R
36 12 R 23 23 R 12 35 R 0 12 R -12 35 R -23 23 R -36 12 R -11 0 R -35 -12 R
-24 -23 R -11 -35 R D 2115 8780 M -35 -12 R -24 -35 R -11 -59 R 0 -35 R
11 -58 R 24 -35 R 35 -12 R 23 0 R 35 12 R 24 35 R 11 58 R 0 35 R -11 59 R
-24 35 R -35 12 R -23 0 R D 2366 9473 M 256 0 R D 1601 9578 M 128 0 R
-70 -94 R 35 0 R 24 -11 R 11 -12 R 12 -35 R 0 -23 R -12 -35 R -23 -24 R
-35 -12 R -35 0 R -35 12 R -12 12 R -12 23 R D 1963 9543 M -12 23 R -35 12 R
-23 0 R -35 -12 R -24 -35 R -11 -58 R 0 -59 R 11 -46 R 24 -24 R 35 -12 R
11 0 R 36 12 R 23 24 R 12 35 R 0 11 R -12 35 R -23 24 R -36 11 R -11 0 R
-35 -11 R -24 -24 R -11 -35 R D 2185 9578 M -117 0 R -12 -105 R 12 11 R
35 12 R 35 0 R 35 -12 R 24 -23 R 11 -35 R 0 -23 R -11 -35 R -24 -24 R
-35 -12 R -35 0 R -35 12 R -12 12 R -11 23 R D 2366 10271 M 256 0 R D
1601 10376 M 128 0 R -70 -93 R 35 0 R 24 -12 R 11 -12 R 12 -35 R 0 -23 R
-12 -35 R -23 -24 R -35 -11 R -35 0 R -35 11 R -12 12 R -12 23 R D
1975 10376 M -117 -245 R D 1811 10376 M 164 0 R D 2115 10376 M -35 -12 R
-24 -35 R -11 -58 R 0 -35 R 11 -59 R 24 -35 R 35 -11 R 23 0 R 35 11 R
24 35 R 11 59 R 0 35 R -11 58 R -24 35 R -35 12 R -23 0 R D 2366 11070 M
256 0 R D 1601 11174 M 128 0 R -70 -93 R 35 0 R 24 -12 R 11 -12 R 12 -35 R
0 -23 R -12 -35 R -23 -23 R -35 -12 R -35 0 R -35 12 R -12 11 R -12 24 R D
1975 11174 M -117 -245 R D 1811 11174 M 164 0 R D 2185 11174 M -117 0 R
-12 -105 R 12 12 R 35 11 R 35 0 R 35 -11 R 24 -24 R 11 -35 R 0 -23 R
-11 -35 R -24 -23 R -35 -12 R -35 0 R -35 12 R -12 11 R -11 24 R D
2366 11868 M 256 0 R D 1601 11972 M 128 0 R -70 -93 R 35 0 R 24 -12 R
11 -11 R 12 -35 R 0 -24 R -12 -35 R -23 -23 R -35 -12 R -35 0 R -35 12 R
-12 11 R -12 24 R D 1869 11972 M -35 -11 R -11 -24 R 0 -23 R 11 -23 R
24 -12 R 46 -12 R 36 -11 R 23 -24 R 12 -23 R 0 -35 R -12 -24 R -12 -11 R
-35 -12 R -47 0 R -35 12 R -11 11 R -12 24 R 0 35 R 12 23 R 23 24 R 35 11 R
47 12 R 23 12 R 12 23 R 0 23 R -12 24 R -35 11 R -47 0 R D 2115 11972 M
-35 -11 R -24 -35 R -11 -59 R 0 -35 R 11 -58 R 24 -35 R 35 -12 R 23 0 R
35 12 R 24 35 R 11 58 R 0 35 R -11 59 R -24 35 R -35 11 R -23 0 R D
2366 12666 M 256 0 R D 1601 12771 M 128 0 R -70 -94 R 35 0 R 24 -12 R
11 -11 R 12 -35 R 0 -24 R -12 -35 R -23 -23 R -35 -12 R -35 0 R -35 12 R
-12 12 R -12 23 R D 1869 12771 M -35 -12 R -11 -23 R 0 -24 R 11 -23 R
24 -12 R 46 -12 R 36 -11 R 23 -24 R 12 -23 R 0 -35 R -12 -23 R -12 -12 R
-35 -12 R -47 0 R -35 12 R -11 12 R -12 23 R 0 35 R 12 23 R 23 24 R 35 11 R
47 12 R 23 12 R 12 23 R 0 24 R -12 23 R -35 12 R -47 0 R D 2185 12771 M
-117 0 R -12 -106 R 12 12 R 35 12 R 35 0 R 35 -12 R 24 -23 R 11 -35 R
0 -24 R -11 -35 R -24 -23 R -35 -12 R -35 0 R -35 12 R -12 12 R -11 23 R D
2366 8515 M 128 0 R D 2366 8835 M 128 0 R D 2366 8994 M 128 0 R D
2366 9154 M 128 0 R D 2366 9314 M 128 0 R D 2366 9633 M 128 0 R D
2366 9793 M 128 0 R D 2366 9952 M 128 0 R D 2366 10112 M 128 0 R D
2366 10431 M 128 0 R D 2366 10591 M 128 0 R D 2366 10750 M 128 0 R D
2366 10910 M 128 0 R D 2366 11229 M 128 0 R D 2366 11389 M 128 0 R D
2366 11549 M 128 0 R D 2366 11708 M 128 0 R D 2366 12028 M 128 0 R D
2366 12187 M 128 0 R D 2366 12347 M 128 0 R D 2366 12506 M 128 0 R D
2366 12826 M 128 0 R D 2366 12985 M 128 0 R D 2366 13145 M 128 0 R D
2366 13305 M 128 0 R D 8756 8404 M 0 4944 R D 8756 8675 M -256 0 R D
8756 9473 M -256 0 R D 8756 10271 M -256 0 R D 8756 11070 M -256 0 R D
8756 11868 M -256 0 R D 8756 12666 M -256 0 R D 8756 8515 M -128 0 R D
8756 8835 M -128 0 R D 8756 8994 M -128 0 R D 8756 9154 M -128 0 R D
8756 9314 M -128 0 R D 8756 9633 M -128 0 R D 8756 9793 M -128 0 R D
8756 9952 M -128 0 R D 8756 10112 M -128 0 R D 8756 10431 M -128 0 R D
8756 10591 M -128 0 R D 8756 10750 M -128 0 R D 8756 10910 M -128 0 R D
8756 11229 M -128 0 R D 8756 11389 M -128 0 R D 8756 11549 M -128 0 R D
8756 11708 M -128 0 R D 8756 12028 M -128 0 R D 8756 12187 M -128 0 R D
8756 12347 M -128 0 R D 8756 12506 M -128 0 R D 8756 12826 M -128 0 R D
8756 12985 M -128 0 R D 8756 13145 M -128 0 R D 8756 13305 M -128 0 R D
10 setlinewidth 3342 10690 M 1467 -827 R 3668 1402 R D 40 setlinewidth
3342 11538 M 733 -1331 R 2935 -636 R D 70 setlinewidth 2608 11103 M 0 192 R
1467 -732 R D 20 setlinewidth 0.373 0.000 0.000 setrgbcolor 3342 10801 M
111 0 R 0 -222 R -222 0 R 0 222 R 222 0 R D 3342 11649 M 111 0 R 0 -222 R
-222 0 R 0 222 R 222 0 R D 3342 10690 M 0 848 R D 2608 11214 M 111 0 R
0 -222 R -222 0 R 0 222 R 222 0 R D 3342 11538 M -734 -435 R D
0.380 0.639 0.000 setrgbcolor 4809 9974 M 111 0 R 0 -222 R -222 0 R 0 222 R
222 0 R D 4075 10318 M 111 0 R 0 -222 R -222 0 R 0 222 R 222 0 R D
4809 9863 M -734 344 R D 2608 11406 M 111 0 R 0 -222 R -222 0 R 0 222 R
222 0 R D 4075 10207 M -1467 1088 R D 0.000 0.098 0.890 setrgbcolor
8477 11376 M 111 0 R 0 -222 R -222 0 R 0 222 R 222 0 R D 7010 9682 M 111 0 R
0 -222 R -222 0 R 0 222 R 222 0 R D 8477 11265 M -1467 -1694 R D
4075 10674 M 111 0 R 0 -222 R -222 0 R 0 222 R 222 0 R D 7010 9571 M
-2935 992 R D 0.000 0.000 0.000 setrgbcolor 7198 9939 M 0 -368 R D
7198 9764 M 35 35 R 35 18 R 52 0 R 36 -18 R 35 -35 R 17 -52 R 0 -35 R
-17 -53 R -35 -35 R -36 -18 R -52 0 R -35 18 R -35 35 R D 7706 9764 M
-17 35 R -53 18 R -53 0 R -52 -18 R -18 -35 R 18 -35 R 35 -17 R 87 -18 R
36 -17 R 17 -36 R 0 -17 R -17 -35 R -53 -18 R -53 0 R -52 18 R -18 35 R D
7916 9939 M -52 -17 R -35 -53 R -18 -87 R 0 -53 R 18 -88 R 35 -52 R 52 -18 R
35 0 R 53 18 R 35 52 R 18 88 R 0 53 R -18 87 R -35 53 R -53 17 R -35 0 R D
8267 9939 M -53 -17 R -35 -53 R -17 -87 R 0 -53 R 17 -88 R 35 -52 R 53 -18 R
35 0 R 53 18 R 35 52 R 17 88 R 0 53 R -17 87 R -35 53 R -53 17 R -35 0 R D
9866 8404 M 6390 0 R D 10099 8404 M 0 198 R D 9550 8121 M -35 -11 R
-23 -35 R -12 -59 R 0 -35 R 12 -58 R 23 -35 R 35 -12 R 24 0 R 35 12 R
23 35 R 12 58 R 0 35 R -12 59 R -23 35 R -35 11 R -24 0 R D 9737 7899 M
-12 -11 R 12 -12 R 12 12 R -12 11 R D 9901 8121 M -35 -11 R -24 -35 R
-11 -59 R 0 -35 R 11 -58 R 24 -35 R 35 -12 R 23 0 R 35 12 R 24 35 R 11 58 R
0 35 R -11 59 R -24 35 R -35 11 R -23 0 R D 10134 8121 M -35 -11 R -23 -35 R
-12 -59 R 0 -35 R 12 -58 R 23 -35 R 35 -12 R 24 0 R 35 12 R 23 35 R 12 58 R
0 35 R -12 59 R -23 35 R -35 11 R -24 0 R D 10333 8075 M 23 11 R 35 35 R
0 -245 R D 10684 8086 M -12 24 R -35 11 R -24 0 R -35 -11 R -23 -35 R
-12 -59 R 0 -58 R 12 -47 R 23 -23 R 35 -12 R 12 0 R 35 12 R 24 23 R 11 35 R
0 12 R -11 35 R -24 23 R -35 12 R -12 0 R -35 -12 R -23 -23 R -12 -35 R D
11406 8404 M 0 198 R D 10857 8121 M -35 -11 R -23 -35 R -12 -59 R 0 -35 R
12 -58 R 23 -35 R 35 -12 R 24 0 R 35 12 R 23 35 R 12 58 R 0 35 R -12 59 R
-23 35 R -35 11 R -24 0 R D 11044 7899 M -12 -11 R 12 -12 R 12 12 R -12 11 R
D 11208 8121 M -35 -11 R -24 -35 R -11 -59 R 0 -35 R 11 -58 R 24 -35 R
35 -12 R 23 0 R 35 12 R 23 35 R 12 58 R 0 35 R -12 59 R -23 35 R -35 11 R
-23 0 R D 11441 8121 M -35 -11 R -23 -35 R -12 -59 R 0 -35 R 12 -58 R
23 -35 R 35 -12 R 24 0 R 35 12 R 23 35 R 12 58 R 0 35 R -12 59 R -23 35 R
-35 11 R -24 0 R D 11640 8075 M 23 11 R 35 35 R 0 -245 R D 11897 8121 M
-35 -11 R -12 -24 R 0 -23 R 12 -23 R 23 -12 R 47 -12 R 35 -11 R 24 -24 R
11 -23 R 0 -35 R -11 -24 R -12 -11 R -35 -12 R -47 0 R -35 12 R -12 11 R
-11 24 R 0 35 R 11 23 R 24 24 R 35 11 R 46 12 R 24 12 R 12 23 R 0 23 R
-12 24 R -35 11 R -47 0 R D 12713 8404 M 0 198 R D 12164 8121 M -35 -11 R
-23 -35 R -12 -59 R 0 -35 R 12 -58 R 23 -35 R 35 -12 R 23 0 R 36 12 R
23 35 R 12 58 R 0 35 R -12 59 R -23 35 R -36 11 R -23 0 R D 12351 7899 M
-12 -11 R 12 -12 R 12 12 R -12 11 R D 12515 8121 M -35 -11 R -24 -35 R
-11 -59 R 0 -35 R 11 -58 R 24 -35 R 35 -12 R 23 0 R 35 12 R 23 35 R 12 58 R
0 35 R -12 59 R -23 35 R -35 11 R -23 0 R D 12748 8121 M -35 -11 R -23 -35 R
-12 -59 R 0 -35 R 12 -58 R 23 -35 R 35 -12 R 24 0 R 35 12 R 23 35 R 12 58 R
0 35 R -12 59 R -23 35 R -35 11 R -24 0 R D 12924 8063 M 0 12 R 11 23 R
12 12 R 23 11 R 47 0 R 23 -11 R 12 -12 R 12 -23 R 0 -24 R -12 -23 R
-23 -35 R -117 -117 R 163 0 R D 13216 8121 M -35 -11 R -24 -35 R -11 -59 R
0 -35 R 11 -58 R 24 -35 R 35 -12 R 23 0 R 35 12 R 23 35 R 12 58 R 0 35 R
-12 59 R -23 35 R -35 11 R -23 0 R D 14020 8404 M 0 198 R D 13471 8121 M
-35 -11 R -23 -35 R -12 -59 R 0 -35 R 12 -58 R 23 -35 R 35 -12 R 23 0 R
35 12 R 24 35 R 11 58 R 0 35 R -11 59 R -24 35 R -35 11 R -23 0 R D
13658 7899 M -12 -11 R 12 -12 R 12 12 R -12 11 R D 13822 8121 M -36 -11 R
-23 -35 R -12 -59 R 0 -35 R 12 -58 R 23 -35 R 36 -12 R 23 0 R 35 12 R
23 35 R 12 58 R 0 35 R -12 59 R -23 35 R -35 11 R -23 0 R D 14055 8121 M
-35 -11 R -23 -35 R -12 -59 R 0 -35 R 12 -58 R 23 -35 R 35 -12 R 24 0 R
35 12 R 23 35 R 12 58 R 0 35 R -12 59 R -23 35 R -35 11 R -24 0 R D
14230 8063 M 0 12 R 12 23 R 12 12 R 23 11 R 47 0 R 23 -11 R 12 -12 R
12 -23 R 0 -24 R -12 -23 R -23 -35 R -117 -117 R 163 0 R D 14464 8063 M
0 12 R 12 23 R 12 12 R 23 11 R 47 0 R 23 -11 R 12 -12 R 11 -23 R 0 -24 R
-11 -23 R -24 -35 R -117 -117 R 164 0 R D 15327 8404 M 0 198 R D
14778 8121 M -35 -11 R -23 -35 R -12 -59 R 0 -35 R 12 -58 R 23 -35 R
35 -12 R 23 0 R 35 12 R 24 35 R 11 58 R 0 35 R -11 59 R -24 35 R -35 11 R
-23 0 R D 14965 7899 M -12 -11 R 12 -12 R 12 12 R -12 11 R D 15128 8121 M
-35 -11 R -23 -35 R -12 -59 R 0 -35 R 12 -58 R 23 -35 R 35 -12 R 24 0 R
35 12 R 23 35 R 12 58 R 0 35 R -12 59 R -23 35 R -35 11 R -24 0 R D
15362 8121 M -35 -11 R -23 -35 R -12 -59 R 0 -35 R 12 -58 R 23 -35 R
35 -12 R 24 0 R 35 12 R 23 35 R 12 58 R 0 35 R -12 59 R -23 35 R -35 11 R
-24 0 R D 15537 8063 M 0 12 R 12 23 R 12 12 R 23 11 R 47 0 R 23 -11 R
12 -12 R 12 -23 R 0 -24 R -12 -23 R -23 -35 R -117 -117 R 163 0 R D
15876 8121 M -117 -163 R 176 0 R D 15876 8121 M 0 -245 R D 10426 8404 M
0 99 R D 10753 8404 M 0 99 R D 11080 8404 M 0 99 R D 11733 8404 M 0 99 R D
12060 8404 M 0 99 R D 12387 8404 M 0 99 R D 13040 8404 M 0 99 R D
13367 8404 M 0 99 R D 13693 8404 M 0 99 R D 14347 8404 M 0 99 R D
14674 8404 M 0 99 R D 15000 8404 M 0 99 R D 15654 8404 M 0 99 R D
15981 8404 M 0 99 R D 9866 13348 M 6390 0 R D 10099 13348 M 0 -198 R D
11406 13348 M 0 -198 R D 12713 13348 M 0 -198 R D 14020 13348 M 0 -198 R D
15327 13348 M 0 -198 R D 10426 13348 M 0 -99 R D 10753 13348 M 0 -99 R D
11080 13348 M 0 -99 R D 11733 13348 M 0 -99 R D 12060 13348 M 0 -99 R D
12387 13348 M 0 -99 R D 13040 13348 M 0 -99 R D 13367 13348 M 0 -99 R D
13693 13348 M 0 -99 R D 14347 13348 M 0 -99 R D 14674 13348 M 0 -99 R D
15000 13348 M 0 -99 R D 15654 13348 M 0 -99 R D 15981 13348 M 0 -99 R D
9866 8404 M 0 4944 R D 9866 9134 M 256 0 R D 9101 9239 M 128 0 R -70 -94 R
35 0 R 24 -11 R 11 -12 R 12 -35 R 0 -23 R -12 -35 R -23 -24 R -35 -12 R
-35 0 R -35 12 R -12 12 R -12 23 R D 9463 9204 M -12 23 R -35 12 R -23 0 R
-35 -12 R -24 -35 R -11 -58 R 0 -59 R 11 -46 R 24 -24 R 35 -12 R 11 0 R
36 12 R 23 24 R 12 35 R 0 11 R -12 35 R -23 24 R -36 11 R -11 0 R -35 -11 R
-24 -24 R -11 -35 R D 9615 9239 M -35 -12 R -24 -35 R -11 -58 R 0 -35 R
11 -59 R 24 -35 R 35 -12 R 23 0 R 35 12 R 24 35 R 11 59 R 0 35 R -11 58 R
-24 35 R -35 12 R -23 0 R D 9866 10342 M 256 0 R D 9101 10447 M 128 0 R
-70 -94 R 35 0 R 24 -11 R 11 -12 R 12 -35 R 0 -24 R -12 -35 R -23 -23 R
-35 -12 R -35 0 R -35 12 R -12 12 R -12 23 R D 9475 10447 M -117 -246 R D
9311 10447 M 164 0 R D 9615 10447 M -35 -12 R -24 -35 R -11 -58 R 0 -35 R
11 -59 R 24 -35 R 35 -12 R 23 0 R 35 12 R 24 35 R 11 59 R 0 35 R -11 58 R
-24 35 R -35 12 R -23 0 R D 9866 11550 M 256 0 R D 9101 11655 M 128 0 R
-70 -94 R 35 0 R 24 -11 R 11 -12 R 12 -35 R 0 -24 R -12 -35 R -23 -23 R
-35 -12 R -35 0 R -35 12 R -12 12 R -12 23 R D 9369 11655 M -35 -12 R
-11 -23 R 0 -24 R 11 -23 R 24 -12 R 46 -11 R 36 -12 R 23 -24 R 12 -23 R
0 -35 R -12 -23 R -12 -12 R -35 -12 R -47 0 R -35 12 R -11 12 R -12 23 R
0 35 R 12 23 R 23 24 R 35 12 R 47 11 R 23 12 R 12 23 R 0 24 R -12 23 R
-35 12 R -47 0 R D 9615 11655 M -35 -12 R -24 -35 R -11 -58 R 0 -36 R
11 -58 R 24 -35 R 35 -12 R 23 0 R 35 12 R 24 35 R 11 58 R 0 36 R -11 58 R
-24 35 R -35 12 R -23 0 R D 9866 12758 M 256 0 R D 9101 12863 M 128 0 R
-70 -94 R 35 0 R 24 -12 R 11 -11 R 12 -35 R 0 -24 R -12 -35 R -23 -23 R
-35 -12 R -35 0 R -35 12 R -12 12 R -12 23 R D 9463 12781 M -12 -35 R
-23 -24 R -35 -11 R -12 0 R -35 11 R -23 24 R -12 35 R 0 12 R 12 35 R
23 23 R 35 12 R 12 0 R 35 -12 R 23 -23 R 12 -47 R 0 -59 R -12 -58 R
-23 -35 R -35 -12 R -24 0 R -35 12 R -11 23 R D 9615 12863 M -35 -12 R
-24 -35 R -11 -59 R 0 -35 R 11 -58 R 24 -35 R 35 -12 R 23 0 R 35 12 R
24 35 R 11 58 R 0 35 R -11 59 R -24 35 R -35 12 R -23 0 R D 9866 8409 M
128 0 R D 9866 8530 M 128 0 R D 9866 8651 M 128 0 R D 9866 8772 M 128 0 R D
9866 8893 M 128 0 R D 9866 9013 M 128 0 R D 9866 9255 M 128 0 R D
9866 9376 M 128 0 R D 9866 9497 M 128 0 R D 9866 9617 M 128 0 R D
9866 9738 M 128 0 R D 9866 9859 M 128 0 R D 9866 9980 M 128 0 R D
9866 10101 M 128 0 R D 9866 10221 M 128 0 R D 9866 10463 M 128 0 R D
9866 10584 M 128 0 R D 9866 10705 M 128 0 R D 9866 10825 M 128 0 R D
9866 10946 M 128 0 R D 9866 11067 M 128 0 R D 9866 11188 M 128 0 R D
9866 11309 M 128 0 R D 9866 11429 M 128 0 R D 9866 11671 M 128 0 R D
9866 11792 M 128 0 R D 9866 11913 M 128 0 R D 9866 12033 M 128 0 R D
9866 12154 M 128 0 R D 9866 12275 M 128 0 R D 9866 12396 M 128 0 R D
9866 12516 M 128 0 R D 9866 12637 M 128 0 R D 9866 12879 M 128 0 R D
9866 13000 M 128 0 R D 9866 13120 M 128 0 R D 9866 13241 M 128 0 R D
16256 8404 M 0 4944 R D 16256 9134 M -256 0 R D 16256 10342 M -256 0 R D
16256 11550 M -256 0 R D 16256 12758 M -256 0 R D 16256 8409 M -128 0 R D
16256 8530 M -128 0 R D 16256 8651 M -128 0 R D 16256 8772 M -128 0 R D
16256 8893 M -128 0 R D 16256 9013 M -128 0 R D 16256 9255 M -128 0 R D
16256 9376 M -128 0 R D 16256 9497 M -128 0 R D 16256 9617 M -128 0 R D
16256 9738 M -128 0 R D 16256 9859 M -128 0 R D 16256 9980 M -128 0 R D
16256 10101 M -128 0 R D 16256 10221 M -128 0 R D 16256 10463 M -128 0 R D
16256 10584 M -128 0 R D 16256 10705 M -128 0 R D 16256 10825 M -128 0 R D
16256 10946 M -128 0 R D 16256 11067 M -128 0 R D 16256 11188 M -128 0 R D
16256 11309 M -128 0 R D 16256 11429 M -128 0 R D 16256 11671 M -128 0 R D
16256 11792 M -128 0 R D 16256 11913 M -128 0 R D 16256 12033 M -128 0 R D
16256 12154 M -128 0 R D 16256 12275 M -128 0 R D 16256 12396 M -128 0 R D
16256 12516 M -128 0 R D 16256 12637 M -128 0 R D 16256 12879 M -128 0 R D
16256 13000 M -128 0 R D 16256 13120 M -128 0 R D 16256 13241 M -128 0 R D
10 setlinewidth 12098 10248 M 0 152 R 3832 1559 R D 40 setlinewidth
10182 11717 M 1916 -2097 R 2874 495 R D 70 setlinewidth 10182 10972 M
0 144 R 2874 -1839 R D 20 setlinewidth 0.373 0.000 0.000 setrgbcolor
12098 10359 M 111 0 R 0 -222 R -222 0 R 0 222 R 222 0 R D 10182 11828 M
111 0 R 0 -222 R -222 0 R 0 222 R 222 0 R D 12098 10248 M -1916 1469 R D
10182 11083 M 111 0 R 0 -222 R -222 0 R 0 222 R 222 0 R D 10182 11717 M
0 -745 R D 0.380 0.639 0.000 setrgbcolor 12098 10511 M 111 0 R 0 -222 R
-222 0 R 0 222 R 222 0 R D 12098 9731 M 111 0 R 0 -222 R -222 0 R 0 222 R
222 0 R D 12098 10400 M 0 -780 R D 10182 11227 M 111 0 R 0 -222 R -222 0 R
0 222 R 222 0 R D 12098 9620 M -1916 1496 R D 0.000 0.098 0.890 setrgbcolor
15930 12070 M 111 0 R 0 -222 R -222 0 R 0 222 R 222 0 R D 14972 10226 M
111 0 R 0 -222 R -222 0 R 0 222 R 222 0 R D 15930 11959 M -958 -1844 R D
13056 9388 M 111 0 R 0 -222 R -222 0 R 0 222 R 222 0 R D 14972 10115 M
-1916 -838 R D 0.000 0.000 0.000 setrgbcolor 14476 9645 M 0 -368 R D
14476 9469 M 35 35 R 35 18 R 52 0 R 35 -18 R 35 -35 R 18 -52 R 0 -35 R
-18 -53 R -35 -35 R -35 -17 R -52 0 R -35 17 R -35 35 R D 14984 9469 M
-18 35 R -52 18 R -53 0 R -52 -18 R -18 -35 R 18 -35 R 35 -17 R 87 -18 R
35 -17 R 18 -35 R 0 -18 R -18 -35 R -52 -17 R -53 0 R -52 17 R -18 35 R D
15194 9645 M -52 -18 R -35 -52 R -18 -88 R 0 -53 R 18 -87 R 35 -53 R
52 -17 R 35 0 R 53 17 R 35 53 R 17 87 R 0 53 R -17 88 R -35 52 R -53 18 R
-35 0 R D 15457 9522 M 0 -245 R D 15457 9417 M 18 52 R 35 35 R 35 18 R
52 0 R D 15860 9469 M -17 35 R -53 18 R -53 0 R -52 -18 R -18 -35 R 18 -35 R
35 -17 R 88 -18 R 35 -17 R 17 -35 R 0 -18 R -17 -35 R -53 -17 R -53 0 R
-52 17 R -18 35 R D 2366 2404 M 6390 0 R D 2545 2404 M 0 198 R D 1996 2121 M
-35 -11 R -24 -35 R -12 -59 R 0 -35 R 12 -58 R 24 -35 R 35 -12 R 23 0 R
35 12 R 23 35 R 12 58 R 0 35 R -12 59 R -23 35 R -35 11 R -23 0 R D
2183 1899 M -12 -11 R 12 -12 R 11 12 R -11 11 R D 2346 2121 M -35 -11 R
-23 -35 R -12 -59 R 0 -35 R 12 -58 R 23 -35 R 35 -12 R 23 0 R 36 12 R
23 35 R 12 58 R 0 35 R -12 59 R -23 35 R -36 11 R -23 0 R D 2580 2121 M
-35 -11 R -24 -35 R -11 -59 R 0 -35 R 11 -58 R 24 -35 R 35 -12 R 23 0 R
35 12 R 24 35 R 11 58 R 0 35 R -11 59 R -24 35 R -35 11 R -23 0 R D
2778 2075 M 24 11 R 35 35 R 0 -245 R D 3129 2086 M -12 24 R -35 11 R -23 0 R
-35 -11 R -24 -35 R -11 -59 R 0 -58 R 11 -47 R 24 -23 R 35 -12 R 12 0 R
35 12 R 23 23 R 12 35 R 0 12 R -12 35 R -23 23 R -35 12 R -12 0 R -35 -12 R
-24 -23 R -11 -35 R D 3546 2404 M 0 198 R D 2996 2121 M -35 -11 R -23 -35 R
-12 -59 R 0 -35 R 12 -58 R 23 -35 R 35 -12 R 24 0 R 35 12 R 23 35 R 12 58 R
0 35 R -12 59 R -23 35 R -35 11 R -24 0 R D 3183 1899 M -11 -11 R 11 -12 R
12 12 R -12 11 R D 3347 2121 M -35 -11 R -24 -35 R -11 -59 R 0 -35 R
11 -58 R 24 -35 R 35 -12 R 23 0 R 35 12 R 24 35 R 11 58 R 0 35 R -11 59 R
-24 35 R -35 11 R -23 0 R D 3581 2121 M -35 -11 R -24 -35 R -12 -59 R
0 -35 R 12 -58 R 24 -35 R 35 -12 R 23 0 R 35 12 R 23 35 R 12 58 R 0 35 R
-12 59 R -23 35 R -35 11 R -23 0 R D 3779 2075 M 24 11 R 35 35 R 0 -245 R D
4036 2121 M -35 -11 R -11 -24 R 0 -23 R 11 -23 R 24 -12 R 46 -12 R 35 -11 R
24 -24 R 11 -23 R 0 -35 R -11 -24 R -12 -11 R -35 -12 R -47 0 R -35 12 R
-11 11 R -12 24 R 0 35 R 12 23 R 23 24 R 35 11 R 47 12 R 23 12 R 12 23 R
0 23 R -12 24 R -35 11 R -47 0 R D 4546 2404 M 0 198 R D 3997 2121 M
-35 -11 R -23 -35 R -12 -59 R 0 -35 R 12 -58 R 23 -35 R 35 -12 R 24 0 R
35 12 R 23 35 R 12 58 R 0 35 R -12 59 R -23 35 R -35 11 R -24 0 R D
4184 1899 M -12 -11 R 12 -12 R 12 12 R -12 11 R D 4348 2121 M -35 -11 R
-24 -35 R -11 -59 R 0 -35 R 11 -58 R 24 -35 R 35 -12 R 23 0 R 35 12 R
24 35 R 11 58 R 0 35 R -11 59 R -24 35 R -35 11 R -23 0 R D 4581 2121 M
-35 -11 R -23 -35 R -12 -59 R 0 -35 R 12 -58 R 23 -35 R 35 -12 R 24 0 R
35 12 R 23 35 R 12 58 R 0 35 R -12 59 R -23 35 R -35 11 R -24 0 R D
4757 2063 M 0 12 R 11 23 R 12 12 R 23 11 R 47 0 R 24 -11 R 11 -12 R 12 -23 R
0 -24 R -12 -23 R -23 -35 R -117 -117 R 164 0 R D 5049 2121 M -35 -11 R
-24 -35 R -11 -59 R 0 -35 R 11 -58 R 24 -35 R 35 -12 R 23 0 R 35 12 R
24 35 R 11 58 R 0 35 R -11 59 R -24 35 R -35 11 R -23 0 R D 5547 2404 M
0 198 R D 4998 2121 M -35 -11 R -23 -35 R -12 -59 R 0 -35 R 12 -58 R
23 -35 R 35 -12 R 23 0 R 35 12 R 24 35 R 12 58 R 0 35 R -12 59 R -24 35 R
-35 11 R -23 0 R D 5185 1899 M -12 -11 R 12 -12 R 12 12 R -12 11 R D
5349 2121 M -35 -11 R -24 -35 R -12 -59 R 0 -35 R 12 -58 R 24 -35 R 35 -12 R
23 0 R 35 12 R 23 35 R 12 58 R 0 35 R -12 59 R -23 35 R -35 11 R -23 0 R D
5582 2121 M -35 -11 R -23 -35 R -12 -59 R 0 -35 R 12 -58 R 23 -35 R 35 -12 R
24 0 R 35 12 R 23 35 R 12 58 R 0 35 R -12 59 R -23 35 R -35 11 R -24 0 R D
5758 2063 M 0 12 R 11 23 R 12 12 R 23 11 R 47 0 R 23 -11 R 12 -12 R 12 -23 R
0 -24 R -12 -23 R -23 -35 R -117 -117 R 163 0 R D 5991 2063 M 0 12 R 12 23 R
12 12 R 23 11 R 47 0 R 23 -11 R 12 -12 R 11 -23 R 0 -24 R -11 -23 R
-24 -35 R -116 -117 R 163 0 R D 6548 2404 M 0 198 R D 5999 2121 M -35 -11 R
-24 -35 R -11 -59 R 0 -35 R 11 -58 R 24 -35 R 35 -12 R 23 0 R 35 12 R
24 35 R 11 58 R 0 35 R -11 59 R -24 35 R -35 11 R -23 0 R D 6186 1899 M
-12 -11 R 12 -12 R 12 12 R -12 11 R D 6349 2121 M -35 -11 R -23 -35 R
-12 -59 R 0 -35 R 12 -58 R 23 -35 R 35 -12 R 24 0 R 35 12 R 23 35 R 12 58 R
0 35 R -12 59 R -23 35 R -35 11 R -24 0 R D 6583 2121 M -35 -11 R -23 -35 R
-12 -59 R 0 -35 R 12 -58 R 23 -35 R 35 -12 R 23 0 R 36 12 R 23 35 R 12 58 R
0 35 R -12 59 R -23 35 R -36 11 R -23 0 R D 6758 2063 M 0 12 R 12 23 R
12 12 R 23 11 R 47 0 R 23 -11 R 12 -12 R 12 -23 R 0 -24 R -12 -23 R
-23 -35 R -117 -117 R 163 0 R D 7097 2121 M -117 -163 R 176 0 R D
7097 2121 M 0 -245 R D 7549 2404 M 0 198 R D 7000 2121 M -35 -11 R -24 -35 R
-11 -59 R 0 -35 R 11 -58 R 24 -35 R 35 -12 R 23 0 R 35 12 R 24 35 R 11 58 R
0 35 R -11 59 R -24 35 R -35 11 R -23 0 R D 7187 1899 M -12 -11 R 12 -12 R
11 12 R -11 11 R D 7350 2121 M -35 -11 R -23 -35 R -12 -59 R 0 -35 R
12 -58 R 23 -35 R 35 -12 R 24 0 R 35 12 R 23 35 R 12 58 R 0 35 R -12 59 R
-23 35 R -35 11 R -24 0 R D 7584 2121 M -35 -11 R -23 -35 R -12 -59 R
0 -35 R 12 -58 R 23 -35 R 35 -12 R 23 0 R 35 12 R 24 35 R 11 58 R 0 35 R
-11 59 R -24 35 R -35 11 R -23 0 R D 7759 2063 M 0 12 R 12 23 R 12 12 R
23 11 R 47 0 R 23 -11 R 12 -12 R 11 -23 R 0 -24 R -11 -23 R -24 -35 R
-116 -117 R 163 0 R D 8133 2086 M -12 24 R -35 11 R -23 0 R -35 -11 R
-23 -35 R -12 -59 R 0 -58 R 12 -47 R 23 -23 R 35 -12 R 12 0 R 35 12 R
23 23 R 12 35 R 0 12 R -12 35 R -23 23 R -35 12 R -12 0 R -35 -12 R
-23 -23 R -12 -35 R D 8550 2404 M 0 198 R D 8001 2121 M -36 -11 R -23 -35 R
-12 -59 R 0 -35 R 12 -58 R 23 -35 R 36 -12 R 23 0 R 35 12 R 23 35 R 12 58 R
0 35 R -12 59 R -23 35 R -35 11 R -23 0 R D 8187 1899 M -11 -11 R 11 -12 R
12 12 R -12 11 R D 8351 2121 M -35 -11 R -23 -35 R -12 -59 R 0 -35 R
12 -58 R 23 -35 R 35 -12 R 23 0 R 35 12 R 24 35 R 12 58 R 0 35 R -12 59 R
-24 35 R -35 11 R -23 0 R D 8585 2121 M -35 -11 R -24 -35 R -11 -59 R
0 -35 R 11 -58 R 24 -35 R 35 -12 R 23 0 R 35 12 R 24 35 R 11 58 R 0 35 R
-11 59 R -24 35 R -35 11 R -23 0 R D 8760 2063 M 0 12 R 12 23 R 11 12 R
24 11 R 46 0 R 24 -11 R 12 -12 R 11 -23 R 0 -24 R -11 -23 R -24 -35 R
-117 -117 R 164 0 R D 9040 2121 M -35 -11 R -11 -24 R 0 -23 R 11 -23 R
24 -12 R 46 -12 R 36 -11 R 23 -24 R 12 -23 R 0 -35 R -12 -24 R -12 -11 R
-35 -12 R -47 0 R -35 12 R -11 11 R -12 24 R 0 35 R 12 23 R 23 24 R 35 11 R
47 12 R 23 12 R 12 23 R 0 23 R -12 24 R -35 11 R -47 0 R D 2795 2404 M
0 99 R D 3045 2404 M 0 99 R D 3295 2404 M 0 99 R D 3796 2404 M 0 99 R D
4046 2404 M 0 99 R D 4296 2404 M 0 99 R D 4797 2404 M 0 99 R D 5047 2404 M
0 99 R D 5297 2404 M 0 99 R D 5797 2404 M 0 99 R D 6048 2404 M 0 99 R D
6298 2404 M 0 99 R D 6798 2404 M 0 99 R D 7048 2404 M 0 99 R D 7299 2404 M
0 99 R D 7799 2404 M 0 99 R D 8049 2404 M 0 99 R D 8299 2404 M 0 99 R D
2366 7348 M 6390 0 R D 2545 7348 M 0 -198 R D 3546 7348 M 0 -198 R D
4546 7348 M 0 -198 R D 5547 7348 M 0 -198 R D 6548 7348 M 0 -198 R D
7549 7348 M 0 -198 R D 8550 7348 M 0 -198 R D 2795 7348 M 0 -99 R D
3045 7348 M 0 -99 R D 3295 7348 M 0 -99 R D 3796 7348 M 0 -99 R D
4046 7348 M 0 -99 R D 4296 7348 M 0 -99 R D 4797 7348 M 0 -99 R D
5047 7348 M 0 -99 R D 5297 7348 M 0 -99 R D 5797 7348 M 0 -99 R D
6048 7348 M 0 -99 R D 6298 7348 M 0 -99 R D 6798 7348 M 0 -99 R D
7048 7348 M 0 -99 R D 7299 7348 M 0 -99 R D 7799 7348 M 0 -99 R D
8049 7348 M 0 -99 R D 8299 7348 M 0 -99 R D 2366 2404 M 0 4944 R D
2366 2900 M 256 0 R D 1601 3005 M 128 0 R -70 -94 R 35 0 R 24 -12 R 11 -11 R
12 -35 R 0 -24 R -12 -35 R -23 -23 R -35 -12 R -35 0 R -35 12 R -12 12 R
-12 23 R D 1963 2969 M -12 24 R -35 12 R -23 0 R -35 -12 R -24 -35 R
-11 -59 R 0 -58 R 11 -47 R 24 -23 R 35 -12 R 11 0 R 36 12 R 23 23 R 12 35 R
0 12 R -12 35 R -23 23 R -36 12 R -11 0 R -35 -12 R -24 -23 R -11 -35 R D
2185 3005 M -117 0 R -12 -106 R 12 12 R 35 12 R 35 0 R 35 -12 R 24 -23 R
11 -35 R 0 -24 R -11 -35 R -24 -23 R -35 -12 R -35 0 R -35 12 R -12 12 R
-11 23 R D 2366 3788 M 256 0 R D 1601 3893 M 128 0 R -70 -94 R 35 0 R
24 -11 R 11 -12 R 12 -35 R 0 -24 R -12 -35 R -23 -23 R -35 -12 R -35 0 R
-35 12 R -12 12 R -12 23 R D 1975 3893 M -117 -246 R D 1811 3893 M 164 0 R D
2115 3893 M -35 -12 R -24 -35 R -11 -58 R 0 -36 R 11 -58 R 24 -35 R 35 -12 R
23 0 R 35 12 R 24 35 R 11 58 R 0 36 R -11 58 R -24 35 R -35 12 R -23 0 R D
2366 4676 M 256 0 R D 1601 4781 M 128 0 R -70 -94 R 35 0 R 24 -11 R 11 -12 R
12 -35 R 0 -23 R -12 -35 R -23 -24 R -35 -12 R -35 0 R -35 12 R -12 12 R
-12 23 R D 1975 4781 M -117 -246 R D 1811 4781 M 164 0 R D 2185 4781 M
-117 0 R -12 -105 R 12 11 R 35 12 R 35 0 R 35 -12 R 24 -23 R 11 -35 R
0 -23 R -11 -35 R -24 -24 R -35 -12 R -35 0 R -35 12 R -12 12 R -11 23 R D
2366 5564 M 256 0 R D 1601 5669 M 128 0 R -70 -93 R 35 0 R 24 -12 R 11 -12 R
12 -35 R 0 -23 R -12 -35 R -23 -24 R -35 -11 R -35 0 R -35 11 R -12 12 R
-12 23 R D 1869 5669 M -35 -12 R -11 -23 R 0 -23 R 11 -24 R 24 -11 R
46 -12 R 36 -12 R 23 -23 R 12 -24 R 0 -35 R -12 -23 R -12 -12 R -35 -11 R
-47 0 R -35 11 R -11 12 R -12 23 R 0 35 R 12 24 R 23 23 R 35 12 R 47 12 R
23 11 R 12 24 R 0 23 R -12 23 R -35 12 R -47 0 R D 2115 5669 M -35 -12 R
-24 -35 R -11 -58 R 0 -35 R 11 -59 R 24 -35 R 35 -11 R 23 0 R 35 11 R
24 35 R 11 59 R 0 35 R -11 58 R -24 35 R -35 12 R -23 0 R D 2366 6453 M
256 0 R D 1601 6557 M 128 0 R -70 -93 R 35 0 R 24 -12 R 11 -12 R 12 -35 R
0 -23 R -12 -35 R -23 -24 R -35 -11 R -35 0 R -35 11 R -12 12 R -12 24 R D
1869 6557 M -35 -12 R -11 -23 R 0 -23 R 11 -24 R 24 -11 R 46 -12 R 36 -12 R
23 -23 R 12 -23 R 0 -35 R -12 -24 R -12 -12 R -35 -11 R -47 0 R -35 11 R
-11 12 R -12 24 R 0 35 R 12 23 R 23 23 R 35 12 R 47 12 R 23 11 R 12 24 R
0 23 R -12 23 R -35 12 R -47 0 R D 2185 6557 M -117 0 R -12 -105 R 12 12 R
35 11 R 35 0 R 35 -11 R 24 -24 R 11 -35 R 0 -23 R -11 -35 R -24 -24 R
-35 -11 R -35 0 R -35 11 R -12 12 R -11 24 R D 2366 7341 M 256 0 R D
1601 7347 M 128 0 R -70 -94 R 35 0 R 24 -11 R 11 -12 R 12 -35 R 0 -23 R
-12 -35 R -23 -24 R -35 -11 R -35 0 R -35 11 R -12 12 R -12 23 R D
1963 7265 M -12 -35 R -23 -23 R -35 -12 R -12 0 R -35 12 R -23 23 R -12 35 R
0 12 R 12 35 R 23 23 R 35 12 R 12 0 R 35 -12 R 23 -23 R 12 -47 R 0 -58 R
-12 -59 R -23 -35 R -35 -11 R -24 0 R -35 11 R -11 24 R D 2115 7347 M
-35 -12 R -24 -35 R -11 -58 R 0 -35 R 11 -59 R 24 -35 R 35 -11 R 23 0 R
35 11 R 24 35 R 11 59 R 0 35 R -11 58 R -24 35 R -35 12 R -23 0 R D
2366 2545 M 128 0 R D 2366 2722 M 128 0 R D 2366 3078 M 128 0 R D
2366 3255 M 128 0 R D 2366 3433 M 128 0 R D 2366 3610 M 128 0 R D
2366 3966 M 128 0 R D 2366 4143 M 128 0 R D 2366 4321 M 128 0 R D
2366 4499 M 128 0 R D 2366 4854 M 128 0 R D 2366 5032 M 128 0 R D
2366 5209 M 128 0 R D 2366 5387 M 128 0 R D 2366 5742 M 128 0 R D
2366 5920 M 128 0 R D 2366 6097 M 128 0 R D 2366 6275 M 128 0 R D
2366 6630 M 128 0 R D 2366 6808 M 128 0 R D 2366 6985 M 128 0 R D
2366 7163 M 128 0 R D 8756 2404 M 0 4944 R D 8756 2900 M -256 0 R D
8756 3788 M -256 0 R D 8756 4676 M -256 0 R D 8756 5564 M -256 0 R D
8756 6453 M -256 0 R D 8756 7341 M -256 0 R D 8756 2545 M -128 0 R D
8756 2722 M -128 0 R D 8756 3078 M -128 0 R D 8756 3255 M -128 0 R D
8756 3433 M -128 0 R D 8756 3610 M -128 0 R D 8756 3966 M -128 0 R D
8756 4143 M -128 0 R D 8756 4321 M -128 0 R D 8756 4499 M -128 0 R D
8756 4854 M -128 0 R D 8756 5032 M -128 0 R D 8756 5209 M -128 0 R D
8756 5387 M -128 0 R D 8756 5742 M -128 0 R D 8756 5920 M -128 0 R D
8756 6097 M -128 0 R D 8756 6275 M -128 0 R D 8756 6630 M -128 0 R D
8756 6808 M -128 0 R D 8756 6985 M -128 0 R D 8756 7163 M -128 0 R D
10 setlinewidth 3342 4254 M 1467 -537 R 3668 269 R D 40 setlinewidth
4075 4301 M -733 503 R 2201 506 R D 70 setlinewidth 2608 5330 M 0 -371 R
1467 -558 R D 20 setlinewidth 0.373 0.000 0.000 setrgbcolor 3342 4365 M
111 0 R 0 -222 R -222 0 R 0 222 R 222 0 R D 4075 4412 M 111 0 R 0 -222 R
-222 0 R 0 222 R 222 0 R D 3342 4254 M 733 47 R D 2608 5441 M 111 0 R
0 -222 R -222 0 R 0 222 R 222 0 R D 4075 4301 M -1467 1029 R D
0.380 0.639 0.000 setrgbcolor 4809 3828 M 111 0 R 0 -222 R -222 0 R 0 222 R
222 0 R D 3342 4915 M 111 0 R 0 -222 R -222 0 R 0 222 R 222 0 R D
4809 3717 M -1467 1087 R D 2608 5070 M 111 0 R 0 -222 R -222 0 R 0 222 R
222 0 R D 3342 4804 M -734 155 R D 0.000 0.098 0.890 setrgbcolor 8477 4097 M
111 0 R 0 -222 R -222 0 R 0 222 R 222 0 R D 5543 5421 M 111 0 R 0 -222 R
-222 0 R 0 222 R 222 0 R D 8477 3986 M -2934 1324 R D 4075 4512 M 111 0 R
0 -222 R -222 0 R 0 222 R 222 0 R D 5543 5310 M -1468 -909 R D
0.000 0.000 0.000 setrgbcolor 7023 4085 M 0 -368 R D 7023 3910 M 35 35 R
35 17 R 52 0 R 35 -17 R 35 -35 R 18 -53 R 0 -35 R -18 -52 R -35 -35 R
-35 -18 R -52 0 R -35 18 R -35 35 R D 7531 3910 M -18 35 R -52 17 R -53 0 R
-52 -17 R -18 -35 R 18 -35 R 35 -18 R 87 -17 R 35 -18 R 18 -35 R 0 -17 R
-18 -35 R -52 -18 R -53 0 R -52 18 R -18 35 R D 7689 4015 M 35 18 R 52 52 R
0 -368 R D 8004 3962 M 0 -245 R D 8004 3857 M 18 53 R 35 35 R 35 17 R 52 0 R
D 8407 3910 M -17 35 R -53 17 R -53 0 R -52 -17 R -18 -35 R 18 -35 R
35 -18 R 88 -17 R 35 -18 R 17 -35 R 0 -17 R -17 -35 R -53 -18 R -53 0 R
-52 18 R -18 35 R D 9866 2404 M 6390 0 R D 10099 2404 M 0 198 R D
9550 2121 M -35 -11 R -23 -35 R -12 -59 R 0 -35 R 12 -58 R 23 -35 R 35 -12 R
24 0 R 35 12 R 23 35 R 12 58 R 0 35 R -12 59 R -23 35 R -35 11 R -24 0 R D
9737 1899 M -12 -11 R 12 -12 R 12 12 R -12 11 R D 9901 2121 M -35 -11 R
-24 -35 R -11 -59 R 0 -35 R 11 -58 R 24 -35 R 35 -12 R 23 0 R 35 12 R
24 35 R 11 58 R 0 35 R -11 59 R -24 35 R -35 11 R -23 0 R D 10134 2121 M
-35 -11 R -23 -35 R -12 -59 R 0 -35 R 12 -58 R 23 -35 R 35 -12 R 24 0 R
35 12 R 23 35 R 12 58 R 0 35 R -12 59 R -23 35 R -35 11 R -24 0 R D
10333 2075 M 23 11 R 35 35 R 0 -245 R D 10684 2086 M -12 24 R -35 11 R
-24 0 R -35 -11 R -23 -35 R -12 -59 R 0 -58 R 12 -47 R 23 -23 R 35 -12 R
12 0 R 35 12 R 24 23 R 11 35 R 0 12 R -11 35 R -24 23 R -35 12 R -12 0 R
-35 -12 R -23 -23 R -12 -35 R D 11406 2404 M 0 198 R D 10857 2121 M
-35 -11 R -23 -35 R -12 -59 R 0 -35 R 12 -58 R 23 -35 R 35 -12 R 24 0 R
35 12 R 23 35 R 12 58 R 0 35 R -12 59 R -23 35 R -35 11 R -24 0 R D
11044 1899 M -12 -11 R 12 -12 R 12 12 R -12 11 R D 11208 2121 M -35 -11 R
-24 -35 R -11 -59 R 0 -35 R 11 -58 R 24 -35 R 35 -12 R 23 0 R 35 12 R
23 35 R 12 58 R 0 35 R -12 59 R -23 35 R -35 11 R -23 0 R D 11441 2121 M
-35 -11 R -23 -35 R -12 -59 R 0 -35 R 12 -58 R 23 -35 R 35 -12 R 24 0 R
35 12 R 23 35 R 12 58 R 0 35 R -12 59 R -23 35 R -35 11 R -24 0 R D
11640 2075 M 23 11 R 35 35 R 0 -245 R D 11897 2121 M -35 -11 R -12 -24 R
0 -23 R 12 -23 R 23 -12 R 47 -12 R 35 -11 R 24 -24 R 11 -23 R 0 -35 R
-11 -24 R -12 -11 R -35 -12 R -47 0 R -35 12 R -12 11 R -11 24 R 0 35 R
11 23 R 24 24 R 35 11 R 46 12 R 24 12 R 12 23 R 0 23 R -12 24 R -35 11 R
-47 0 R D 12713 2404 M 0 198 R D 12164 2121 M -35 -11 R -23 -35 R -12 -59 R
0 -35 R 12 -58 R 23 -35 R 35 -12 R 23 0 R 36 12 R 23 35 R 12 58 R 0 35 R
-12 59 R -23 35 R -36 11 R -23 0 R D 12351 1899 M -12 -11 R 12 -12 R 12 12 R
-12 11 R D 12515 2121 M -35 -11 R -24 -35 R -11 -59 R 0 -35 R 11 -58 R
24 -35 R 35 -12 R 23 0 R 35 12 R 23 35 R 12 58 R 0 35 R -12 59 R -23 35 R
-35 11 R -23 0 R D 12748 2121 M -35 -11 R -23 -35 R -12 -59 R 0 -35 R
12 -58 R 23 -35 R 35 -12 R 24 0 R 35 12 R 23 35 R 12 58 R 0 35 R -12 59 R
-23 35 R -35 11 R -24 0 R D 12924 2063 M 0 12 R 11 23 R 12 12 R 23 11 R
47 0 R 23 -11 R 12 -12 R 12 -23 R 0 -24 R -12 -23 R -23 -35 R -117 -117 R
163 0 R D 13216 2121 M -35 -11 R -24 -35 R -11 -59 R 0 -35 R 11 -58 R
24 -35 R 35 -12 R 23 0 R 35 12 R 23 35 R 12 58 R 0 35 R -12 59 R -23 35 R
-35 11 R -23 0 R D 14020 2404 M 0 198 R D 13471 2121 M -35 -11 R -23 -35 R
-12 -59 R 0 -35 R 12 -58 R 23 -35 R 35 -12 R 23 0 R 35 12 R 24 35 R 11 58 R
0 35 R -11 59 R -24 35 R -35 11 R -23 0 R D 13658 1899 M -12 -11 R 12 -12 R
12 12 R -12 11 R D 13822 2121 M -36 -11 R -23 -35 R -12 -59 R 0 -35 R
12 -58 R 23 -35 R 36 -12 R 23 0 R 35 12 R 23 35 R 12 58 R 0 35 R -12 59 R
-23 35 R -35 11 R -23 0 R D 14055 2121 M -35 -11 R -23 -35 R -12 -59 R
0 -35 R 12 -58 R 23 -35 R 35 -12 R 24 0 R 35 12 R 23 35 R 12 58 R 0 35 R
-12 59 R -23 35 R -35 11 R -24 0 R D 14230 2063 M 0 12 R 12 23 R 12 12 R
23 11 R 47 0 R 23 -11 R 12 -12 R 12 -23 R 0 -24 R -12 -23 R -23 -35 R
-117 -117 R 163 0 R D 14464 2063 M 0 12 R 12 23 R 12 12 R 23 11 R 47 0 R
23 -11 R 12 -12 R 11 -23 R 0 -24 R -11 -23 R -24 -35 R -117 -117 R 164 0 R D
15327 2404 M 0 198 R D 14778 2121 M -35 -11 R -23 -35 R -12 -59 R 0 -35 R
12 -58 R 23 -35 R 35 -12 R 23 0 R 35 12 R 24 35 R 11 58 R 0 35 R -11 59 R
-24 35 R -35 11 R -23 0 R D 14965 1899 M -12 -11 R 12 -12 R 12 12 R -12 11 R
D 15128 2121 M -35 -11 R -23 -35 R -12 -59 R 0 -35 R 12 -58 R 23 -35 R
35 -12 R 24 0 R 35 12 R 23 35 R 12 58 R 0 35 R -12 59 R -23 35 R -35 11 R
-24 0 R D 15362 2121 M -35 -11 R -23 -35 R -12 -59 R 0 -35 R 12 -58 R
23 -35 R 35 -12 R 24 0 R 35 12 R 23 35 R 12 58 R 0 35 R -12 59 R -23 35 R
-35 11 R -24 0 R D 15537 2063 M 0 12 R 12 23 R 12 12 R 23 11 R 47 0 R
23 -11 R 12 -12 R 12 -23 R 0 -24 R -12 -23 R -23 -35 R -117 -117 R 163 0 R D
15876 2121 M -117 -163 R 176 0 R D 15876 2121 M 0 -245 R D 10426 2404 M
0 99 R D 10753 2404 M 0 99 R D 11080 2404 M 0 99 R D 11733 2404 M 0 99 R D
12060 2404 M 0 99 R D 12387 2404 M 0 99 R D 13040 2404 M 0 99 R D
13367 2404 M 0 99 R D 13693 2404 M 0 99 R D 14347 2404 M 0 99 R D
14674 2404 M 0 99 R D 15000 2404 M 0 99 R D 15654 2404 M 0 99 R D
15981 2404 M 0 99 R D 9866 7348 M 6390 0 R D 10099 7348 M 0 -198 R D
11406 7348 M 0 -198 R D 12713 7348 M 0 -198 R D 14020 7348 M 0 -198 R D
15327 7348 M 0 -198 R D 10426 7348 M 0 -99 R D 10753 7348 M 0 -99 R D
11080 7348 M 0 -99 R D 11733 7348 M 0 -99 R D 12060 7348 M 0 -99 R D
12387 7348 M 0 -99 R D 13040 7348 M 0 -99 R D 13367 7348 M 0 -99 R D
13693 7348 M 0 -99 R D 14347 7348 M 0 -99 R D 14674 7348 M 0 -99 R D
15000 7348 M 0 -99 R D 15654 7348 M 0 -99 R D 15981 7348 M 0 -99 R D
9866 2404 M 0 4944 R D 9866 3423 M 256 0 R D 9101 3528 M 128 0 R -70 -94 R
35 0 R 24 -11 R 11 -12 R 12 -35 R 0 -24 R -12 -35 R -23 -23 R -35 -12 R
-35 0 R -35 12 R -12 12 R -12 23 R D 9463 3493 M -12 23 R -35 12 R -23 0 R
-35 -12 R -24 -35 R -11 -58 R 0 -59 R 11 -47 R 24 -23 R 35 -12 R 11 0 R
36 12 R 23 23 R 12 35 R 0 12 R -12 35 R -23 24 R -36 11 R -11 0 R -35 -11 R
-24 -24 R -11 -35 R D 9615 3528 M -35 -12 R -24 -35 R -11 -58 R 0 -35 R
11 -59 R 24 -35 R 35 -12 R 23 0 R 35 12 R 24 35 R 11 59 R 0 35 R -11 58 R
-24 35 R -35 12 R -23 0 R D 9866 4538 M 256 0 R D 9101 4642 M 128 0 R
-70 -93 R 35 0 R 24 -12 R 11 -11 R 12 -35 R 0 -24 R -12 -35 R -23 -23 R
-35 -12 R -35 0 R -35 12 R -12 11 R -12 24 R D 9475 4642 M -117 -245 R D
9311 4642 M 164 0 R D 9615 4642 M -35 -11 R -24 -35 R -11 -59 R 0 -35 R
11 -58 R 24 -35 R 35 -12 R 23 0 R 35 12 R 24 35 R 11 58 R 0 35 R -11 59 R
-24 35 R -35 11 R -23 0 R D 9866 5653 M 256 0 R D 9101 5757 M 128 0 R
-70 -93 R 35 0 R 24 -12 R 11 -12 R 12 -35 R 0 -23 R -12 -35 R -23 -24 R
-35 -11 R -35 0 R -35 11 R -12 12 R -12 24 R D 9369 5757 M -35 -12 R
-11 -23 R 0 -23 R 11 -24 R 24 -11 R 46 -12 R 36 -12 R 23 -23 R 12 -23 R
0 -35 R -12 -24 R -12 -12 R -35 -11 R -47 0 R -35 11 R -11 12 R -12 24 R
0 35 R 12 23 R 23 23 R 35 12 R 47 12 R 23 11 R 12 24 R 0 23 R -12 23 R
-35 12 R -47 0 R D 9615 5757 M -35 -12 R -24 -35 R -11 -58 R 0 -35 R
11 -58 R 24 -36 R 35 -11 R 23 0 R 35 11 R 24 36 R 11 58 R 0 35 R -11 58 R
-24 35 R -35 12 R -23 0 R D 9866 6767 M 256 0 R D 9101 6872 M 128 0 R
-70 -94 R 35 0 R 24 -11 R 11 -12 R 12 -35 R 0 -23 R -12 -35 R -23 -24 R
-35 -12 R -35 0 R -35 12 R -12 12 R -12 23 R D 9463 6790 M -12 -35 R
-23 -23 R -35 -12 R -12 0 R -35 12 R -23 23 R -12 35 R 0 12 R 12 35 R
23 23 R 35 12 R 12 0 R 35 -12 R 23 -23 R 12 -47 R 0 -58 R -12 -59 R
-23 -35 R -35 -12 R -24 0 R -35 12 R -11 24 R D 9615 6872 M -35 -12 R
-24 -35 R -11 -58 R 0 -35 R 11 -59 R 24 -35 R 35 -12 R 23 0 R 35 12 R
24 35 R 11 59 R 0 35 R -11 58 R -24 35 R -35 12 R -23 0 R D 9866 2420 M
128 0 R D 9866 2531 M 128 0 R D 9866 2643 M 128 0 R D 9866 2754 M 128 0 R D
9866 2866 M 128 0 R D 9866 2977 M 128 0 R D 9866 3089 M 128 0 R D
9866 3200 M 128 0 R D 9866 3312 M 128 0 R D 9866 3535 M 128 0 R D
9866 3646 M 128 0 R D 9866 3758 M 128 0 R D 9866 3869 M 128 0 R D
9866 3981 M 128 0 R D 9866 4092 M 128 0 R D 9866 4203 M 128 0 R D
9866 4315 M 128 0 R D 9866 4426 M 128 0 R D 9866 4649 M 128 0 R D
9866 4761 M 128 0 R D 9866 4872 M 128 0 R D 9866 4984 M 128 0 R D
9866 5095 M 128 0 R D 9866 5207 M 128 0 R D 9866 5318 M 128 0 R D
9866 5430 M 128 0 R D 9866 5541 M 128 0 R D 9866 5764 M 128 0 R D
9866 5876 M 128 0 R D 9866 5987 M 128 0 R D 9866 6098 M 128 0 R D
9866 6210 M 128 0 R D 9866 6321 M 128 0 R D 9866 6433 M 128 0 R D
9866 6544 M 128 0 R D 9866 6656 M 128 0 R D 9866 6879 M 128 0 R D
9866 6990 M 128 0 R D 9866 7102 M 128 0 R D 9866 7213 M 128 0 R D
9866 7325 M 128 0 R D 16256 2404 M 0 4944 R D 16256 3423 M -256 0 R D
16256 4538 M -256 0 R D 16256 5653 M -256 0 R D 16256 6767 M -256 0 R D
16256 2420 M -128 0 R D 16256 2531 M -128 0 R D 16256 2643 M -128 0 R D
16256 2754 M -128 0 R D 16256 2866 M -128 0 R D 16256 2977 M -128 0 R D
16256 3089 M -128 0 R D 16256 3200 M -128 0 R D 16256 3312 M -128 0 R D
16256 3535 M -128 0 R D 16256 3646 M -128 0 R D 16256 3758 M -128 0 R D
16256 3869 M -128 0 R D 16256 3981 M -128 0 R D 16256 4092 M -128 0 R D
16256 4203 M -128 0 R D 16256 4315 M -128 0 R D 16256 4426 M -128 0 R D
16256 4649 M -128 0 R D 16256 4761 M -128 0 R D 16256 4872 M -128 0 R D
16256 4984 M -128 0 R D 16256 5095 M -128 0 R D 16256 5207 M -128 0 R D
16256 5318 M -128 0 R D 16256 5430 M -128 0 R D 16256 5541 M -128 0 R D
16256 5764 M -128 0 R D 16256 5876 M -128 0 R D 16256 5987 M -128 0 R D
16256 6098 M -128 0 R D 16256 6210 M -128 0 R D 16256 6321 M -128 0 R D
16256 6433 M -128 0 R D 16256 6544 M -128 0 R D 16256 6656 M -128 0 R D
16256 6879 M -128 0 R D 16256 6990 M -128 0 R D 16256 7102 M -128 0 R D
16256 7213 M -128 0 R D 16256 7325 M -128 0 R D 10 setlinewidth 12098 4630 M
0 -555 R 3832 1990 R D 40 setlinewidth 11140 4442 M 958 676 R 1916 375 R D
70 setlinewidth 11140 3474 M -958 1806 R 3832 -2078 R D 20 setlinewidth
0.373 0.000 0.000 setrgbcolor 12098 4741 M 111 0 R 0 -222 R -222 0 R 0 222 R
222 0 R D 11140 4553 M 111 0 R 0 -222 R -222 0 R 0 222 R 222 0 R D
12098 4630 M -958 -188 R D 11140 3585 M 111 0 R 0 -222 R -222 0 R 0 222 R
222 0 R D 11140 4442 M 0 -968 R D 0.380 0.639 0.000 setrgbcolor 12098 4186 M
111 0 R 0 -222 R -222 0 R 0 222 R 222 0 R D 12098 5229 M 111 0 R 0 -222 R
-222 0 R 0 222 R 222 0 R D 12098 4075 M 0 1043 R D 10182 5391 M 111 0 R
0 -222 R -222 0 R 0 222 R 222 0 R D 12098 5118 M -1916 162 R D
0.000 0.098 0.890 setrgbcolor 15930 6176 M 111 0 R 0 -222 R -222 0 R 0 222 R
222 0 R D 14014 5604 M 111 0 R 0 -222 R -222 0 R 0 222 R 222 0 R D
15930 6065 M -1916 -572 R D 14014 3313 M 111 0 R 0 -222 R -222 0 R 0 222 R
222 0 R D 14014 5493 M 0 -2291 R D 0.000 0.000 0.000 setrgbcolor
14143 3570 M 0 -368 R D 14143 3395 M 35 35 R 35 18 R 52 0 R 35 -18 R
35 -35 R 18 -53 R 0 -35 R -18 -52 R -35 -35 R -35 -18 R -52 0 R -35 18 R
-35 35 R D 14651 3395 M -18 35 R -52 18 R -53 0 R -52 -18 R -18 -35 R
18 -35 R 35 -18 R 87 -17 R 35 -18 R 18 -35 R 0 -17 R -18 -35 R -52 -18 R
-53 0 R -52 18 R -18 35 R D 14809 3500 M 35 18 R 52 52 R 0 -368 R D
15124 3448 M 0 -246 R D 15124 3342 M 18 53 R 35 35 R 35 18 R 52 0 R D
15527 3395 M -17 35 R -53 18 R -53 0 R -52 -18 R -18 -35 R 18 -35 R 35 -18 R
88 -17 R 35 -18 R 17 -35 R 0 -17 R -17 -35 R -53 -18 R -53 0 R -52 18 R
-18 35 R D 15650 3570 M 0 -368 R D 15650 3377 M 52 53 R 35 18 R 53 0 R
35 -18 R 18 -53 R 0 -175 R D 4813 525 M 0 -245 R D 4813 455 M 52 53 R
35 17 R 53 0 R 35 -17 R 17 -53 R 0 -175 R D 5146 525 M 0 -175 R 17 -52 R
35 -18 R 53 0 R 35 18 R 52 52 R D 5338 525 M 0 -245 R D 5479 525 M 0 -245 R
D 5479 455 M 52 53 R 35 17 R 53 0 R 35 -17 R 17 -53 R 0 -175 R D 5671 455 M
53 53 R 35 17 R 53 0 R 35 -17 R 17 -53 R 0 -175 R D 6004 648 M 0 -368 R D
6004 473 M 35 35 R 35 17 R 53 0 R 35 -17 R 35 -35 R 18 -53 R 0 -35 R
-18 -52 R -35 -35 R -35 -18 R -53 0 R -35 18 R -35 35 R D 6320 420 M 210 0 R
0 35 R -17 35 R -18 18 R -35 17 R -53 0 R -35 -17 R -35 -35 R -17 -53 R
0 -35 R 17 -52 R 35 -35 R 35 -18 R 53 0 R 35 18 R 35 35 R D 6653 525 M
0 -245 R D 6653 420 M 17 53 R 35 35 R 35 17 R 53 0 R D 7266 648 M -35 0 R
-35 -17 R -17 -53 R 0 -298 R D 7126 525 M 123 0 R D 7371 525 M 0 -245 R D
7371 420 M 18 53 R 35 35 R 35 17 R 53 0 R D 7792 525 M 0 -245 R D 7792 473 M
-35 35 R -35 17 R -53 0 R -35 -17 R -35 -35 R -17 -53 R 0 -35 R 17 -52 R
35 -35 R 35 -18 R 53 0 R 35 18 R 35 35 R D 8125 473 M -35 35 R -35 17 R
-53 0 R -35 -17 R -35 -35 R -17 -53 R 0 -35 R 17 -52 R 35 -35 R 35 -18 R
53 0 R 35 18 R 35 35 R D 8265 648 M 0 -298 R 18 -52 R 35 -18 R 35 0 R D
8213 525 M 122 0 R D 8441 648 M 17 -17 R 18 17 R -18 18 R -17 -18 R D
8458 525 M 0 -245 R D 8668 525 M -35 -17 R -35 -35 R -17 -53 R 0 -35 R
17 -52 R 35 -35 R 35 -18 R 53 0 R 35 18 R 35 35 R 18 52 R 0 35 R -18 53 R
-35 35 R -35 17 R -53 0 R D 8931 525 M 0 -245 R D 8931 455 M 53 53 R 35 17 R
52 0 R 36 -17 R 17 -53 R 0 -175 R D 9615 525 M -35 -17 R -35 -35 R -18 -53 R
0 -35 R 18 -52 R 35 -35 R 35 -18 R 52 0 R 35 18 R 35 35 R 18 52 R 0 35 R
-18 53 R -35 35 R -35 17 R -52 0 R D 9983 648 M -35 0 R -35 -17 R -18 -53 R
0 -298 R D 9843 525 M 122 0 R D 10544 473 M -18 35 R -52 17 R -53 0 R
-53 -17 R -17 -35 R 17 -35 R 35 -18 R 88 -17 R 35 -18 R 18 -35 R 0 -17 R
-18 -35 R -52 -18 R -53 0 R -53 18 R -17 35 R D 10666 525 M 0 -175 R
18 -52 R 35 -18 R 53 0 R 35 18 R 52 52 R D 10859 525 M 0 -245 R D
10999 648 M 0 -368 R D 10999 473 M 35 35 R 35 17 R 53 0 R 35 -17 R 35 -35 R
18 -53 R 0 -35 R -18 -52 R -35 -35 R -35 -18 R -53 0 R -35 18 R -35 35 R D
11332 648 M 0 -368 R D 11332 455 M 53 53 R 35 17 R 53 0 R 35 -17 R 17 -53 R
0 -175 R D 11858 525 M 0 -245 R D 11858 473 M -35 35 R -35 17 R -53 0 R
-35 -17 R -35 -35 R -17 -53 R 0 -35 R 17 -52 R 35 -35 R 35 -18 R 53 0 R
35 18 R 35 35 R D 11998 648 M 0 -368 R D 12209 525 M -35 -17 R -35 -35 R
-18 -53 R 0 -35 R 18 -52 R 35 -35 R 35 -18 R 52 0 R 35 18 R 35 35 R 18 52 R
0 35 R -18 53 R -35 35 R -35 17 R -52 0 R D 12647 473 M -18 35 R -52 17 R
-53 0 R -52 -17 R -18 -35 R 18 -35 R 35 -18 R 87 -17 R 35 -18 R 18 -35 R
0 -17 R -18 -35 R -52 -18 R -53 0 R -52 18 R -18 35 R D 13243 525 M 0 -245 R
D 13243 473 M -35 35 R -35 17 R -53 0 R -35 -17 R -35 -35 R -18 -53 R
0 -35 R 18 -52 R 35 -35 R 35 -18 R 53 0 R 35 18 R 35 35 R D 13383 648 M
0 -368 R D 13506 648 M 17 -17 R 18 17 R -18 18 R -17 -18 R D 13523 525 M
0 -245 R D 13628 525 M 105 -245 R 106 245 R D 13926 420 M 211 0 R 0 35 R
-18 35 R -17 18 R -36 17 R -52 0 R -35 -17 R -35 -35 R -18 -53 R 0 -35 R
18 -52 R 35 -35 R 35 -18 R 52 0 R 36 18 R 35 35 R D 435 2485 M 245 0 R D
487 2485 M -35 -35 R -17 -35 R 0 -52 R 17 -35 R 35 -35 R 53 -18 R 35 0 R
52 18 R 35 35 R 18 35 R 0 52 R -18 35 R -35 35 R D 435 2591 M 245 105 R
-245 105 R D 540 2888 M 0 211 R -35 0 R -35 -18 R -18 -17 R -17 -35 R
0 -53 R 17 -35 R 35 -35 R 53 -18 R 35 0 R 52 18 R 35 35 R 18 35 R 0 53 R
-18 35 R -35 35 R D 435 3221 M 245 0 R D 540 3221 M -53 18 R -35 35 R
-17 35 R 0 53 R D 435 3642 M 245 0 R D 487 3642 M -35 -35 R -17 -35 R
0 -53 R 17 -35 R 35 -35 R 53 -17 R 35 0 R 52 17 R 35 35 R 18 35 R 0 53 R
-18 35 R -35 35 R D 435 3975 M 298 0 R 52 -17 R 18 -18 R 17 -35 R 0 -53 R
-17 -35 R D 487 3975 M -35 -35 R -17 -35 R 0 -53 R 17 -35 R 35 -35 R
53 -17 R 35 0 R 52 17 R 35 35 R 18 35 R 0 53 R -18 35 R -35 35 R D
540 4098 M 0 210 R -35 0 R -35 -17 R -18 -18 R -17 -35 R 0 -53 R 17 -35 R
35 -35 R 53 -17 R 35 0 R 52 17 R 35 35 R 18 35 R 0 53 R -18 35 R -35 35 R D
435 4711 M 245 0 R D 505 4711 M -53 53 R -17 35 R 0 52 R 17 35 R 53 18 R
175 0 R D 505 4904 M -53 53 R -17 35 R 0 52 R 17 35 R 53 18 R 175 0 R D
435 5430 M 245 0 R D 487 5430 M -35 -35 R -17 -35 R 0 -53 R 17 -35 R
35 -35 R 53 -18 R 35 0 R 52 18 R 35 35 R 18 35 R 0 53 R -18 35 R -35 35 R D
487 5745 M -35 -17 R -17 -53 R 0 -52 R 17 -53 R 35 -18 R 35 18 R 18 35 R
17 88 R 18 35 R 35 17 R 17 0 R 35 -17 R 18 -53 R 0 -52 R -18 -53 R -35 -18 R
D 487 6043 M -35 -17 R -17 -53 R 0 -52 R 17 -53 R 35 -18 R 35 18 R 18 35 R
17 88 R 18 35 R 35 17 R 17 0 R 35 -17 R 18 -53 R 0 -52 R -18 -53 R -35 -18 R
D 435 6516 M 17 -35 R 35 -35 R 53 -17 R 35 0 R 52 17 R 35 35 R 18 35 R
0 53 R -18 35 R -35 35 R -52 18 R -35 0 R -53 -18 R -35 -35 R -17 -35 R
0 -53 R D 312 6884 M 0 -35 R 17 -35 R 53 -17 R 298 0 R D 435 6744 M 0 123 R
D 487 7445 M -35 -17 R -17 -53 R 0 -52 R 17 -53 R 35 -17 R 35 17 R 18 35 R
17 88 R 18 35 R 35 17 R 17 0 R 35 -17 R 18 -53 R 0 -52 R -18 -53 R -35 -17 R
D 435 7568 M 175 0 R 52 18 R 18 35 R 0 52 R -18 35 R -52 53 R D 435 7761 M
245 0 R D 312 7901 M 368 0 R D 487 7901 M -35 35 R -17 35 R 0 53 R 17 35 R
35 35 R 53 17 R 35 0 R 52 -17 R 35 -35 R 18 -35 R 0 -53 R -18 -35 R
-35 -35 R D 312 8234 M 368 0 R D 505 8234 M -53 53 R -17 35 R 0 52 R 17 35 R
53 18 R 175 0 R D 435 8760 M 245 0 R D 487 8760 M -35 -35 R -17 -35 R
0 -53 R 17 -35 R 35 -35 R 53 -18 R 35 0 R 52 18 R 35 35 R 18 35 R 0 53 R
-18 35 R -35 35 R D 312 8900 M 368 0 R D 435 9110 M 17 -35 R 35 -35 R
53 -17 R 35 0 R 52 17 R 35 35 R 18 35 R 0 53 R -18 35 R -35 35 R -52 18 R
-35 0 R -53 -18 R -35 -35 R -17 -35 R 0 -53 R D 487 9548 M -35 -17 R
-17 -53 R 0 -52 R 17 -53 R 35 -17 R 35 17 R 18 35 R 17 88 R 18 35 R 35 17 R
17 0 R 35 -17 R 18 -53 R 0 -52 R -18 -53 R -35 -17 R D 435 10144 M 245 0 R D
487 10144 M -35 -35 R -17 -35 R 0 -52 R 17 -35 R 35 -35 R 53 -18 R 35 0 R
52 18 R 35 35 R 18 35 R 0 52 R -18 35 R -35 35 R D 312 10285 M 368 0 R D
312 10407 M 17 18 R -17 17 R -18 -17 R 18 -18 R D 435 10425 M 245 0 R D
435 10530 M 245 105 R -245 105 R D 540 10828 M 0 210 R -35 0 R -35 -17 R
-18 -18 R -17 -35 R 0 -52 R 17 -36 R 35 -35 R 53 -17 R 35 0 R 52 17 R
35 35 R 18 36 R 0 52 R -18 35 R -35 35 R D 242 11284 M 35 -35 R 52 -36 R
71 -35 R 87 -17 R 70 0 R 88 17 R 88 35 R 52 36 R 35 35 R D 382 11441 M
-17 35 R -53 53 R 368 0 R D 540 11739 M 0 211 R -35 0 R -35 -18 R -18 -17 R
-17 -36 R 0 -52 R 17 -35 R 35 -35 R 53 -18 R 35 0 R 52 18 R 35 35 R 18 35 R
0 52 R -18 36 R -35 35 R D 435 12283 M 52 -18 R 35 -35 R 18 -53 R 0 -17 R
-18 -53 R -35 -35 R -52 -17 R -18 0 R -52 17 R -36 35 R -17 53 R 0 17 R
17 53 R 36 35 R 70 18 R 87 0 R 88 -18 R 52 -35 R 18 -53 R 0 -35 R -18 -52 R
-35 -18 R D 312 12423 M 368 0 R D 312 12423 M 368 140 R -368 140 R 368 0 R D
700 12932 M -22 -11 R -10 -33 R 0 -32 R 10 -33 R 22 -10 R 22 10 R 11 22 R
11 54 R 10 22 R 22 11 R 11 0 R 22 -11 R 11 -33 R 0 -32 R -11 -33 R -22 -10 R
D 668 13008 M 108 0 R 33 11 R 11 21 R 0 33 R -11 22 R -33 32 R D 668 13127 M
152 0 R D 668 13214 M 152 0 R D 711 13214 M -33 32 R -10 22 R 0 33 R 10 21 R
33 11 R 109 0 R D 242 13423 M 35 35 R 52 35 R 71 35 R 87 17 R 70 0 R
88 -17 R 88 -35 R 52 -35 R 35 -35 R D
%%PageTrailer
end
%%PageResources: font Helvetica
%%Trailer
%%Pages: 1
%%DocumentNeededResources: font Helvetica
%%EOF
