%!PS-Adobe-3.0 EPSF-3.0
%%BoundingBox: 0 0 425 311
%%Title: Graphics produced by IDL
%%For: jlgan@aida119, /home/jlgan/work/subhalo_model
%%Creator: IDL Version 7.0 (linux x86_64 m64)
%%CreationDate: Wed Jun  3 14:30:06 2009
%%DocumentData: Clean7bit
%%Requirements: color
%%LanguageLevel: 1
%%PageOrder: Ascend
%%Pages: (atend)
%%DocumentNeededResources: (atend)
%%EndComments
%%BeginProlog
%+ prolog.ps -- Prolog for IDL generated PostScript files
%+ Copyright (c) 1988-2007 ITT Visual Information Solutions. All Rights Reserved.
%v 5
/$IDL_DICT 40 dict def $IDL_DICT begin /bdef { bind def } bind def /C
{currentpoint newpath moveto} bdef /CP {currentpoint} bdef /D {currentpoint
stroke moveto} bdef /F {closepath fill} bdef /K { setgray } bdef /M {moveto}
bdef /N {rmoveto} bdef /P {lineto} bdef /R {rlineto} bdef /S {gsave show
grestore} bdef /X {currentpoint pop} bdef /Z {gsave currentpoint lineto 20
setlinewidth 1 setlinecap stroke grestore} bdef /L0 {[] 0 setdash} bdef /L1
{[40 100] 0 setdash} bdef /L2 {[200 200] 0 setdash} bdef /L3 {[200 100 50
100] 0 setdash} bdef /L4 {[300 100 50 100 50 100 50 100] 0 setdash} bdef /L5
{[400 200] 0 setdash} bdef /STDFONT { findfont exch scalefont setfont } bdef
/ISOFONT { findfont dup length dict begin { 1 index /FID ne {def} {pop pop}
ifelse } forall /Encoding ISOLatin1Encoding def currentdict end /idltmpfont
exch definefont exch scalefont setfont } bdef /ISOBULLET { gsave /Helvetica
findfont exch scalefont setfont (\267) show currentpoint grestore moveto}
bdef /MITERLIMIT { 2.5 setmiterlimit } bdef end
%%EndProlog
%%Page: 0 1
%%PageRequirements: color
%%PageResources: (atend)
%%PageOrientation: Portrait
%%PageBoundingBox: 0 0 425 311
%%BeginPageSetup
$IDL_DICT begin 0.0283465 dup scale MITERLIMIT
%%IncludeResource: font Helvetica
423.333 /Helvetica STDFONT
%%EndPageSetup
20 setlinewidth L0 0.000 0.000 0.000 setrgbcolor 2886 1830 M 11248 0 R D
2886 1830 M 0 331 R D 30 setlinewidth 2628 1463 M -46 -15 R -30 -46 R
-15 -76 R 0 -45 R 15 -76 R 30 -46 R 46 -15 R 30 0 R 46 15 R 30 46 R 15 76 R
0 45 R -15 76 R -30 46 R -46 15 R -30 0 R D 2871 1174 M -15 -15 R 15 -15 R
15 15 R -15 15 R D 3084 1463 M -46 -15 R -30 -46 R -16 -76 R 0 -45 R
16 -76 R 30 -46 R 46 -15 R 30 0 R 45 15 R 31 46 R 15 76 R 0 45 R -15 76 R
-31 46 R -45 15 R -30 0 R D 20 setlinewidth 5136 1830 M 0 331 R D
30 setlinewidth 4877 1463 M -45 -15 R -30 -46 R -16 -76 R 0 -45 R 16 -76 R
30 -46 R 45 -15 R 31 0 R 45 15 R 31 46 R 15 76 R 0 45 R -15 76 R -31 46 R
-45 15 R -31 0 R D 5121 1174 M -16 -15 R 16 -15 R 15 15 R -15 15 R D
5257 1387 M 0 15 R 15 31 R 16 15 R 30 15 R 61 0 R 30 -15 R 15 -15 R 16 -31 R
0 -30 R -16 -30 R -30 -46 R -152 -152 R 213 0 R D 20 setlinewidth
7385 1830 M 0 331 R D 30 setlinewidth 7127 1463 M -45 -15 R -31 -46 R
-15 -76 R 0 -45 R 15 -76 R 31 -46 R 45 -15 R 31 0 R 45 15 R 30 46 R 16 76 R
0 45 R -16 76 R -30 46 R -45 15 R -31 0 R D 7370 1174 M -15 -15 R 15 -15 R
15 15 R -15 15 R D 7644 1463 M -152 -213 R 228 0 R D 7644 1463 M 0 -319 R D
20 setlinewidth 9635 1830 M 0 331 R D 30 setlinewidth 9377 1463 M -46 -15 R
-30 -46 R -15 -76 R 0 -45 R 15 -76 R 30 -46 R 46 -15 R 30 0 R 46 15 R
30 46 R 15 76 R 0 45 R -15 76 R -30 46 R -46 15 R -30 0 R D 9620 1174 M
-15 -15 R 15 -15 R 15 15 R -15 15 R D 9939 1417 M -15 31 R -46 15 R -30 0 R
-46 -15 R -30 -46 R -15 -76 R 0 -76 R 15 -60 R 30 -31 R 46 -15 R 15 0 R
45 15 R 31 31 R 15 45 R 0 15 R -15 46 R -31 30 R -45 16 R -15 0 R -46 -16 R
-30 -30 R -15 -46 R D 20 setlinewidth 11885 1830 M 0 331 R D 30 setlinewidth
11626 1463 M -45 -15 R -31 -46 R -15 -76 R 0 -45 R 15 -76 R 31 -46 R
45 -15 R 31 0 R 45 15 R 31 46 R 15 76 R 0 45 R -15 76 R -31 46 R -45 15 R
-31 0 R D 11869 1174 M -15 -15 R 15 -15 R 16 15 R -16 15 R D 12067 1463 M
-46 -15 R -15 -31 R 0 -30 R 15 -30 R 31 -15 R 60 -16 R 46 -15 R 30 -30 R
16 -31 R 0 -45 R -16 -31 R -15 -15 R -45 -15 R -61 0 R -46 15 R -15 15 R
-15 31 R 0 45 R 15 31 R 31 30 R 45 15 R 61 16 R 30 15 R 15 30 R 0 30 R
-15 31 R -45 15 R -61 0 R D 20 setlinewidth 14134 1830 M 0 331 R D
30 setlinewidth 13830 1402 M 31 15 R 45 46 R 0 -319 R D 14119 1174 M
-15 -15 R 15 -15 R 15 15 R -15 15 R D 14332 1463 M -46 -15 R -30 -46 R
-15 -76 R 0 -45 R 15 -76 R 30 -46 R 46 -15 R 30 0 R 46 15 R 30 46 R 15 76 R
0 45 R -15 76 R -30 46 R -46 15 R -30 0 R D 20 setlinewidth 3448 1830 M
0 166 R D 4011 1830 M 0 166 R D 4573 1830 M 0 166 R D 5698 1830 M 0 166 R D
6261 1830 M 0 166 R D 6823 1830 M 0 166 R D 7948 1830 M 0 166 R D
8510 1830 M 0 166 R D 9073 1830 M 0 166 R D 10197 1830 M 0 166 R D
10760 1830 M 0 166 R D 11322 1830 M 0 166 R D 12447 1830 M 0 166 R D
13009 1830 M 0 166 R D 13572 1830 M 0 166 R D 30 setlinewidth 7249 716 M
-30 31 R -30 15 R -46 0 R -30 -15 R -31 -31 R -15 -45 R 0 -31 R 15 -45 R
31 -31 R 30 -15 R 46 0 R 30 15 R 30 31 R D 7341 868 M 15 -15 R 15 15 R
-15 15 R -15 -15 R D 7356 762 M 0 -213 R D 7477 762 M 0 -213 R D 7477 671 M
15 45 R 31 31 R 30 15 R 46 0 R D 7842 716 M -31 31 R -30 15 R -45 0 R
-31 -15 R -30 -31 R -15 -45 R 0 -31 R 15 -45 R 30 -31 R 31 -15 R 45 0 R
30 15 R 31 31 R D 7948 762 M 0 -152 R 15 -46 R 31 -15 R 45 0 R 31 15 R
45 46 R D 8115 762 M 0 -213 R D 8237 868 M 0 -319 R D 8525 762 M 0 -213 R D
8525 716 M -30 31 R -30 15 R -46 0 R -30 -15 R -31 -31 R -15 -45 R 0 -31 R
15 -45 R 31 -31 R 30 -15 R 46 0 R 30 15 R 30 31 R D 8647 762 M 0 -213 R D
8647 671 M 15 45 R 30 31 R 31 15 R 45 0 R D 8829 868 M 15 -15 R 16 15 R
-16 15 R -15 -15 R D 8844 762 M 0 -213 R D 8981 868 M 0 -258 R 15 -46 R
31 -15 R 30 0 R D 8935 762 M 107 0 R D 9118 762 M 91 -213 R 91 213 R D
9209 549 M -30 -76 R -31 -30 R -30 -15 R -15 0 R D 9422 564 M -16 -15 R
-15 15 R 15 16 R 16 -16 R 0 -45 R -16 -31 R -15 -15 R D 9923 747 M -31 15 R
-45 0 R -31 -15 R -30 -31 R -15 -45 R 0 -46 R 15 -45 R 15 -16 R 31 -15 R
45 0 R 31 15 R D 9771 656 M 121 0 R D 20 setlinewidth 2886 10085 M 11248 0 R
D 2886 10085 M 0 -330 R D 5136 10085 M 0 -330 R D 7385 10085 M 0 -330 R D
9635 10085 M 0 -330 R D 11885 10085 M 0 -330 R D 14134 10085 M 0 -330 R D
3448 10085 M 0 -165 R D 4011 10085 M 0 -165 R D 4573 10085 M 0 -165 R D
5698 10085 M 0 -165 R D 6261 10085 M 0 -165 R D 6823 10085 M 0 -165 R D
7948 10085 M 0 -165 R D 8510 10085 M 0 -165 R D 9073 10085 M 0 -165 R D
10197 10085 M 0 -165 R D 10760 10085 M 0 -165 R D 11322 10085 M 0 -165 R D
12447 10085 M 0 -165 R D 13009 10085 M 0 -165 R D 13572 10085 M 0 -165 R D
2886 1830 M 0 8255 R D 2886 1830 M 450 0 R D 30 setlinewidth 2104 2149 M
-46 -15 R -30 -45 R -15 -76 R 0 -46 R 15 -76 R 30 -45 R 46 -16 R 30 0 R
46 16 R 30 45 R 15 76 R 0 46 R -15 76 R -30 45 R -46 15 R -30 0 R D
2347 1861 M -15 -15 R 15 -16 R 15 16 R -15 15 R D 2560 2149 M -46 -15 R
-30 -45 R -16 -76 R 0 -46 R 16 -76 R 30 -45 R 46 -16 R 30 0 R 45 16 R
31 45 R 15 76 R 0 46 R -15 76 R -31 45 R -45 15 R -30 0 R D 20 setlinewidth
2886 4410 M 450 0 R D 30 setlinewidth 2104 4546 M -46 -15 R -30 -46 R
-15 -76 R 0 -45 R 15 -76 R 30 -46 R 46 -15 R 30 0 R 46 15 R 30 46 R 15 76 R
0 45 R -15 76 R -30 46 R -46 15 R -30 0 R D 2347 4257 M -15 -15 R 15 -15 R
15 15 R -15 15 R D 2651 4546 M -152 0 R -15 -137 R 15 15 R 45 16 R 46 0 R
45 -16 R 31 -30 R 15 -46 R 0 -30 R -15 -46 R -31 -30 R -45 -15 R -46 0 R
-45 15 R -15 15 R -16 31 R D 20 setlinewidth 2886 6989 M 450 0 R D
30 setlinewidth 2058 7065 M 31 15 R 45 45 R 0 -319 R D 2347 6837 M -15 -15 R
15 -16 R 15 16 R -15 15 R D 2560 7125 M -46 -15 R -30 -45 R -16 -76 R
0 -46 R 16 -76 R 30 -45 R 46 -16 R 30 0 R 45 16 R 31 45 R 15 76 R 0 46 R
-15 76 R -31 45 R -45 15 R -30 0 R D 20 setlinewidth 2886 9569 M 450 0 R D
30 setlinewidth 2058 9644 M 31 15 R 45 46 R 0 -319 R D 2347 9416 M -15 -15 R
15 -15 R 15 15 R -15 15 R D 2651 9705 M -152 0 R -15 -137 R 15 15 R 45 16 R
46 0 R 45 -16 R 31 -30 R 15 -46 R 0 -30 R -15 -46 R -31 -30 R -45 -15 R
-46 0 R -45 15 R -15 15 R -16 31 R D 20 setlinewidth 2886 2346 M 225 0 R D
2886 2862 M 225 0 R D 2886 3378 M 225 0 R D 2886 3894 M 225 0 R D
2886 4926 M 225 0 R D 2886 5442 M 225 0 R D 2886 5958 M 225 0 R D
2886 6474 M 225 0 R D 2886 7505 M 225 0 R D 2886 8021 M 225 0 R D
2886 8537 M 225 0 R D 2886 9053 M 225 0 R D 2886 10085 M 225 0 R D
30 setlinewidth 1337 5525 M 334 0 R D 1382 5525 M -30 30 R -15 31 R 0 45 R
15 30 R 30 31 R 46 15 R 30 0 R 46 -15 R 30 -31 R 15 -30 R 0 -45 R -15 -31 R
-30 -30 R D 1170 5920 M 30 -31 R 46 -30 R 60 -30 R 76 -16 R 61 0 R 76 16 R
76 30 R 46 30 R 30 31 R D 1352 6163 M -15 -31 R 0 -45 R 15 -31 R 30 -30 R
46 -15 R 45 0 R 46 15 R 15 15 R 15 31 R 0 45 R -15 31 R D 1443 6011 M
0 121 R D 1170 6254 M 30 30 R 46 31 R 60 30 R 76 15 R 61 0 R 76 -15 R
76 -30 R 46 -31 R 30 -30 R D 20 setlinewidth 14134 1830 M 0 8255 R D
14134 1830 M -450 0 R D 14134 4410 M -450 0 R D 14134 6989 M -450 0 R D
14134 9569 M -450 0 R D 14134 2346 M -225 0 R D 14134 2862 M -225 0 R D
14134 3378 M -225 0 R D 14134 3894 M -225 0 R D 14134 4926 M -225 0 R D
14134 5442 M -225 0 R D 14134 5958 M -225 0 R D 14134 6474 M -225 0 R D
14134 7505 M -225 0 R D 14134 8021 M -225 0 R D 14134 8537 M -225 0 R D
14134 9053 M -225 0 R D 14134 10085 M -225 0 R D 40 setlinewidth L2
2886 1830 M 113 217 R 112 268 R 113 286 R 112 293 R 112 296 R 113 296 R
112 293 R 113 290 R 112 285 R 113 279 R 112 272 R 113 265 R 112 258 R
113 249 R 112 242 R 113 232 R 112 224 R 113 216 R 112 206 R 113 197 R
112 189 R 113 179 R 112 170 R 113 162 R 112 152 R 113 144 R 112 134 R
113 126 R 112 118 R 113 109 R 112 100 R 112 92 R 113 84 R 112 76 R 113 69 R
112 60 R 113 53 R 112 45 R 113 38 R 112 31 R 113 24 R 112 17 R 113 10 R
112 4 R 113 -2 R 112 -9 R 113 -14 R 112 -20 R 113 -26 R 112 -31 R 113 -37 R
112 -41 R 113 -47 R 112 -51 R 113 -56 R 112 -60 R 113 -64 R 112 -69 R
113 -72 R 112 -76 R 112 -79 R 113 -83 R 112 -86 R 113 -89 R 112 -92 R
113 -94 R 112 -97 R 113 -99 R 112 -102 R 113 -103 R 112 -106 R 113 -107 R
112 -109 R 113 -110 R 112 -111 R 113 -113 R 112 -113 R 113 -115 R 112 -115 R
113 -115 R 112 -116 R 113 -117 R 112 -116 R 113 -117 R 112 -116 R 113 -117 R
112 -116 R 112 -115 R 113 -115 R 112 -115 R 113 -113 R 112 -113 R 113 -112 R
112 -110 R 113 -110 R 112 -108 R 113 -107 R 112 -105 R 113 -104 R D
30 setlinewidth L0 1.000 0.000 0.706 setrgbcolor 2999 1832 M 1237 3021 R
1237 3045 R 1237 1229 R 1238 338 R 1237 -778 R 1237 -1009 R 1238 -984 R
1237 -1189 R 1237 -2040 R D 0.506 0.000 0.000 setrgbcolor 2999 1830 M
1237 1557 R 1237 1986 R 1237 1898 R 1238 1929 R 1237 6 R 1237 -137 R
1238 -692 R 1237 -1040 R 1237 -3183 R D 1.000 0.349 0.000 setrgbcolor
2999 1832 M 1237 1646 R 1237 2383 R 1237 2176 R 1238 1779 R 1237 -350 R
1237 -757 R 1238 -989 R 1237 -1182 R 1237 -2789 R D
0.000 0.514 1.000 setrgbcolor 2999 1845 M 1237 3370 R 1237 2957 R
1237 1204 R 1238 112 R 1237 -1266 R 1237 -872 R 1238 -779 R 1237 -972 R
1237 -2234 R D 0.588 0.000 0.588 setrgbcolor 2999 1853 M 1237 3295 R
1237 2988 R 1237 1242 R 1238 157 R 1237 -1262 R 1237 -857 R 1238 -880 R
1237 -960 R 1237 -2223 R D 1.000 0.000 0.706 setrgbcolor 8510 4307 M 146 0 R
147 0 R 146 0 R 146 0 R 146 0 R 147 0 R 146 0 R 146 0 R 146 0 R D
0.506 0.000 0.000 setrgbcolor 8510 3894 M 146 0 R 147 0 R 146 0 R 146 0 R
146 0 R 147 0 R 146 0 R 146 0 R 146 0 R D 1.000 0.349 0.000 setrgbcolor
8510 3481 M 146 0 R 147 0 R 146 0 R 146 0 R 146 0 R 147 0 R 146 0 R 146 0 R
146 0 R D 0.000 0.514 1.000 setrgbcolor 8510 3069 M 146 0 R 147 0 R 146 0 R
146 0 R 146 0 R 147 0 R 146 0 R 146 0 R 146 0 R D
0.588 0.000 0.588 setrgbcolor 8510 2656 M 146 0 R 147 0 R 146 0 R 146 0 R
146 0 R 147 0 R 146 0 R 146 0 R 146 0 R D 1.000 0.000 0.706 setrgbcolor
10018 4461 M 0 -319 R D 10018 4309 M 30 30 R 31 15 R 45 0 R 31 -15 R
30 -30 R 15 -46 R 0 -30 R -15 -46 R -30 -30 R -31 -15 R -45 0 R -31 15 R
-30 30 R D 10459 4309 M -16 30 R -45 15 R -46 0 R -45 -15 R -16 -30 R
16 -31 R 30 -15 R 76 -15 R 30 -15 R 16 -31 R 0 -15 R -16 -30 R -45 -15 R
-46 0 R -45 15 R -16 30 R D 10641 4461 M -46 -16 R -30 -45 R -15 -76 R
0 -46 R 15 -76 R 30 -45 R 46 -15 R 30 0 R 46 15 R 30 45 R 15 76 R 0 46 R
-15 76 R -30 45 R -46 16 R -30 0 R D 10945 4461 M -46 -16 R -30 -45 R
-16 -76 R 0 -46 R 16 -76 R 30 -45 R 46 -15 R 30 0 R 46 15 R 30 45 R 15 76 R
0 46 R -15 76 R -30 45 R -46 16 R -30 0 R D 0.506 0.000 0.000 setrgbcolor
10018 4048 M 0 -319 R D 10018 3896 M 30 30 R 31 16 R 45 0 R 31 -16 R
30 -30 R 15 -46 R 0 -30 R -15 -45 R -30 -31 R -31 -15 R -45 0 R -31 15 R
-30 31 R D 10459 3896 M -16 30 R -45 16 R -46 0 R -45 -16 R -16 -30 R
16 -30 R 30 -16 R 76 -15 R 30 -15 R 16 -30 R 0 -15 R -16 -31 R -45 -15 R
-46 0 R -45 15 R -16 31 R D 10641 4048 M -46 -15 R -30 -46 R -15 -76 R
0 -45 R 15 -76 R 30 -46 R 46 -15 R 30 0 R 46 15 R 30 46 R 15 76 R 0 45 R
-15 76 R -30 46 R -46 15 R -30 0 R D 10869 3942 M 0 -213 R D 10869 3850 M
15 46 R 30 30 R 31 16 R 45 0 R D 11218 3896 M -15 30 R -46 16 R -45 0 R
-46 -16 R -15 -30 R 15 -30 R 30 -16 R 76 -15 R 31 -15 R 15 -30 R 0 -15 R
-15 -31 R -46 -15 R -45 0 R -46 15 R -15 31 R D
1.000 0.349 0.000 setrgbcolor 10018 3635 M 0 -319 R D 10018 3483 M 30 31 R
31 15 R 45 0 R 31 -15 R 30 -31 R 15 -45 R 0 -31 R -15 -45 R -30 -31 R
-31 -15 R -45 0 R -31 15 R -30 31 R D 10459 3483 M -16 31 R -45 15 R -46 0 R
-45 -15 R -16 -31 R 16 -30 R 30 -15 R 76 -15 R 30 -16 R 16 -30 R 0 -15 R
-16 -31 R -45 -15 R -46 0 R -45 15 R -16 31 R D 10641 3635 M -46 -15 R
-30 -46 R -15 -75 R 0 -46 R 15 -76 R 30 -46 R 46 -15 R 30 0 R 46 15 R
30 46 R 15 76 R 0 46 R -15 75 R -30 46 R -46 15 R -30 0 R D 10869 3529 M
0 -213 R D 10869 3438 M 15 45 R 30 31 R 31 15 R 45 0 R D 11218 3483 M
-15 31 R -46 15 R -45 0 R -46 -15 R -15 -31 R 15 -30 R 30 -15 R 76 -15 R
31 -16 R 15 -30 R 0 -15 R -15 -31 R -46 -15 R -45 0 R -46 15 R -15 31 R D
11324 3635 M 0 -319 R D 11324 3468 M 46 46 R 30 15 R 46 0 R 30 -15 R
15 -46 R 0 -152 R D 0.000 0.514 1.000 setrgbcolor 10018 3223 M 0 -319 R D
10018 3071 M 30 30 R 31 15 R 45 0 R 31 -15 R 30 -30 R 15 -46 R 0 -30 R
-15 -46 R -30 -30 R -31 -15 R -45 0 R -31 15 R -30 30 R D 10459 3071 M
-16 30 R -45 15 R -46 0 R -45 -15 R -16 -30 R 16 -31 R 30 -15 R 76 -15 R
30 -15 R 16 -31 R 0 -15 R -16 -30 R -45 -15 R -46 0 R -45 15 R -16 30 R D
10595 3162 M 31 15 R 45 46 R 0 -319 R D 10869 3116 M 0 -212 R D 10869 3025 M
15 46 R 30 30 R 31 15 R 45 0 R D 11218 3071 M -15 30 R -46 15 R -45 0 R
-46 -15 R -15 -30 R 15 -31 R 30 -15 R 76 -15 R 31 -15 R 15 -31 R 0 -15 R
-15 -30 R -46 -15 R -45 0 R -46 15 R -15 30 R D
0.588 0.000 0.588 setrgbcolor 10018 2810 M 0 -319 R D 10018 2658 M 30 30 R
31 15 R 45 0 R 31 -15 R 30 -30 R 15 -46 R 0 -30 R -15 -46 R -30 -30 R
-31 -15 R -45 0 R -31 15 R -30 30 R D 10459 2658 M -16 30 R -45 15 R -46 0 R
-45 -15 R -16 -30 R 16 -30 R 30 -16 R 76 -15 R 30 -15 R 16 -30 R 0 -16 R
-16 -30 R -45 -15 R -46 0 R -45 15 R -16 30 R D 10595 2749 M 31 15 R 45 46 R
0 -319 R D 10869 2703 M 0 -212 R D 10869 2612 M 15 46 R 30 30 R 31 15 R
45 0 R D 11218 2658 M -15 30 R -46 15 R -45 0 R -46 -15 R -15 -30 R 15 -30 R
30 -16 R 76 -15 R 31 -15 R 15 -30 R 0 -16 R -15 -30 R -46 -15 R -45 0 R
-46 15 R -15 30 R D 11324 2810 M 0 -319 R D 11324 2643 M 46 45 R 30 15 R
46 0 R 30 -15 R 15 -45 R 0 -152 R D
%%PageTrailer
end
%%PageResources: font Helvetica
%%Trailer
%%Pages: 1
%%DocumentNeededResources: font Helvetica
%%EOF
