%!PS-Adobe-3.0 EPSF-3.0
%%BoundingBox: 0 0 510 396
%%Title: Graphics produced by IDL
%%For: jlgan@aida119, /home/jlgan/work/subhalo_model
%%Creator: IDL Version 7.0 (linux x86_64 m64)
%%CreationDate: Tue May 12 17:47:57 2009
%%DocumentData: Clean7bit
%%Requirements: color
%%LanguageLevel: 1
%%PageOrder: Ascend
%%Pages: (atend)
%%DocumentNeededResources: (atend)
%%EndComments
%%BeginProlog
%+ prolog.ps -- Prolog for IDL generated PostScript files
%+ Copyright (c) 1988-2007 ITT Visual Information Solutions. All Rights Reserved.
%v 5
/$IDL_DICT 40 dict def $IDL_DICT begin /bdef { bind def } bind def /C
{currentpoint newpath moveto} bdef /CP {currentpoint} bdef /D {currentpoint
stroke moveto} bdef /F {closepath fill} bdef /K { setgray } bdef /M {moveto}
bdef /N {rmoveto} bdef /P {lineto} bdef /R {rlineto} bdef /S {gsave show
grestore} bdef /X {currentpoint pop} bdef /Z {gsave currentpoint lineto 20
setlinewidth 1 setlinecap stroke grestore} bdef /L0 {[] 0 setdash} bdef /L1
{[40 100] 0 setdash} bdef /L2 {[200 200] 0 setdash} bdef /L3 {[200 100 50
100] 0 setdash} bdef /L4 {[300 100 50 100 50 100 50 100] 0 setdash} bdef /L5
{[400 200] 0 setdash} bdef /STDFONT { findfont exch scalefont setfont } bdef
/ISOFONT { findfont dup length dict begin { 1 index /FID ne {def} {pop pop}
ifelse } forall /Encoding ISOLatin1Encoding def currentdict end /idltmpfont
exch definefont exch scalefont setfont } bdef /ISOBULLET { gsave /Helvetica
findfont exch scalefont setfont (\267) show currentpoint grestore moveto}
bdef /MITERLIMIT { 2.5 setmiterlimit } bdef end
%%EndProlog
%%Page: 0 1
%%PageRequirements: color
%%PageResources: (atend)
%%PageOrientation: Portrait
%%PageBoundingBox: 0 0 510 396
%%BeginPageSetup
$IDL_DICT begin 0.0283465 dup scale MITERLIMIT
%%IncludeResource: font Helvetica
423.333 /Helvetica STDFONT
%%EndPageSetup
20 setlinewidth L0 0.000 0.000 0.000 setrgbcolor 3300 8192 M 5397 0 R D
3300 8192 M 0 171 R D 30 setlinewidth 3043 7727 M 231 0 R D 3493 7881 M
-129 -180 R 193 0 R D 3493 7881 M 0 -270 R D 20 setlinewidth 4649 8192 M
0 171 R D 30 setlinewidth 4392 7727 M 232 0 R D 4739 7881 M 142 0 R
-77 -103 R 38 0 R 26 -12 R 13 -13 R 13 -39 R 0 -26 R -13 -38 R -26 -26 R
-39 -13 R -38 0 R -39 13 R -13 13 R -12 26 R D 20 setlinewidth 5999 8192 M
0 171 R D 30 setlinewidth 5742 7727 M 231 0 R D 6076 7817 M 0 13 R 13 25 R
12 13 R 26 13 R 52 0 R 25 -13 R 13 -13 R 13 -25 R 0 -26 R -13 -26 R
-26 -38 R -128 -129 R 180 0 R D 20 setlinewidth 7348 8192 M 0 171 R D
30 setlinewidth 7091 7727 M 231 0 R D 7451 7830 M 25 13 R 39 38 R 0 -270 R D
20 setlinewidth 8697 8192 M 0 171 R D 30 setlinewidth 8671 7881 M -38 -13 R
-26 -38 R -13 -64 R 0 -39 R 13 -64 R 26 -39 R 38 -13 R 26 0 R 39 13 R
25 39 R 13 64 R 0 39 R -13 64 R -25 38 R -39 13 R -26 0 R D 20 setlinewidth
3435 8192 M 0 85 R D 3570 8192 M 0 85 R D 3705 8192 M 0 85 R D 3840 8192 M
0 85 R D 3975 8192 M 0 85 R D 4110 8192 M 0 85 R D 4245 8192 M 0 85 R D
4379 8192 M 0 85 R D 4514 8192 M 0 85 R D 4784 8192 M 0 85 R D 4919 8192 M
0 85 R D 5054 8192 M 0 85 R D 5189 8192 M 0 85 R D 5324 8192 M 0 85 R D
5459 8192 M 0 85 R D 5594 8192 M 0 85 R D 5729 8192 M 0 85 R D 5864 8192 M
0 85 R D 6134 8192 M 0 85 R D 6268 8192 M 0 85 R D 6403 8192 M 0 85 R D
6538 8192 M 0 85 R D 6673 8192 M 0 85 R D 6808 8192 M 0 85 R D 6943 8192 M
0 85 R D 7078 8192 M 0 85 R D 7213 8192 M 0 85 R D 7483 8192 M 0 85 R D
7618 8192 M 0 85 R D 7753 8192 M 0 85 R D 7888 8192 M 0 85 R D 8022 8192 M
0 85 R D 8157 8192 M 0 85 R D 8292 8192 M 0 85 R D 8427 8192 M 0 85 R D
8562 8192 M 0 85 R D 30 setlinewidth 5195 7378 M 0 -270 R D 5440 7288 M
0 -219 R -13 -38 R -13 -13 R -26 -13 R -38 0 R -26 13 R D 5440 7249 M
-26 26 R -26 13 R -38 0 R -26 -13 R -26 -26 R -13 -38 R 0 -26 R 13 -39 R
26 -25 R 26 -13 R 38 0 R 26 13 R 26 25 R D 5632 7429 M -25 -25 R -26 -39 R
-26 -51 R -13 -65 R 0 -51 R 13 -64 R 26 -65 R 26 -38 R 25 -26 R D
5722 7288 M 0 -180 R D 5722 7236 M 39 39 R 26 13 R 38 0 R 26 -13 R 13 -39 R
0 -128 R D 5864 7236 M 38 39 R 26 13 R 38 0 R 26 -13 R 13 -39 R 0 -128 R D
6313 7429 M -231 -424 R D 6391 7378 M 0 -270 R D 6391 7378 M 102 -270 R
103 270 R 0 -270 R D 6686 7429 M 26 -25 R 26 -39 R 25 -51 R 13 -65 R 0 -51 R
-13 -64 R -25 -65 R -26 -38 R -26 -26 R D 20 setlinewidth 3300 12456 M
5397 0 R D 3300 12456 M 0 -170 R D 4649 12456 M 0 -170 R D 5999 12456 M
0 -170 R D 7348 12456 M 0 -170 R D 8697 12456 M 0 -170 R D 3435 12456 M
0 -85 R D 3570 12456 M 0 -85 R D 3705 12456 M 0 -85 R D 3840 12456 M 0 -85 R
D 3975 12456 M 0 -85 R D 4110 12456 M 0 -85 R D 4245 12456 M 0 -85 R D
4379 12456 M 0 -85 R D 4514 12456 M 0 -85 R D 4784 12456 M 0 -85 R D
4919 12456 M 0 -85 R D 5054 12456 M 0 -85 R D 5189 12456 M 0 -85 R D
5324 12456 M 0 -85 R D 5459 12456 M 0 -85 R D 5594 12456 M 0 -85 R D
5729 12456 M 0 -85 R D 5864 12456 M 0 -85 R D 6134 12456 M 0 -85 R D
6268 12456 M 0 -85 R D 6403 12456 M 0 -85 R D 6538 12456 M 0 -85 R D
6673 12456 M 0 -85 R D 6808 12456 M 0 -85 R D 6943 12456 M 0 -85 R D
7078 12456 M 0 -85 R D 7213 12456 M 0 -85 R D 7483 12456 M 0 -85 R D
7618 12456 M 0 -85 R D 7753 12456 M 0 -85 R D 7888 12456 M 0 -85 R D
8022 12456 M 0 -85 R D 8157 12456 M 0 -85 R D 8292 12456 M 0 -85 R D
8427 12456 M 0 -85 R D 8562 12456 M 0 -85 R D 3300 8192 M 0 4264 R D
3300 8192 M 216 0 R D 30 setlinewidth 2240 8308 M 231 0 R D 2600 8411 M
25 12 R 39 39 R 0 -270 R D 2844 8218 M -13 -13 R 13 -13 R 13 13 R -13 13 R D
3024 8462 M -39 -13 R -26 -38 R -12 -65 R 0 -38 R 12 -65 R 26 -38 R 39 -13 R
25 0 R 39 13 R 26 38 R 13 65 R 0 38 R -13 65 R -26 38 R -39 13 R -25 0 R D
20 setlinewidth 3300 8838 M 216 0 R D 30 setlinewidth 2240 8799 M 231 0 R D
2638 8953 M -38 -13 R -26 -38 R -13 -65 R 0 -38 R 13 -64 R 26 -39 R 38 -13 R
26 0 R 38 13 R 26 39 R 13 64 R 0 38 R -13 65 R -26 38 R -38 13 R -26 0 R D
2844 8709 M -13 -13 R 13 -13 R 13 13 R -13 13 R D 3101 8953 M -129 0 R
-13 -116 R 13 13 R 39 13 R 38 0 R 39 -13 R 26 -25 R 13 -39 R 0 -26 R
-13 -38 R -26 -26 R -39 -13 R -38 0 R -39 13 R -13 13 R -12 26 R D
20 setlinewidth 3300 9484 M 216 0 R D 30 setlinewidth 2638 9599 M -38 -13 R
-26 -38 R -13 -64 R 0 -39 R 13 -64 R 26 -39 R 38 -13 R 26 0 R 38 13 R
26 39 R 13 64 R 0 39 R -13 64 R -26 38 R -38 13 R -26 0 R D 2844 9355 M
-13 -13 R 13 -13 R 13 13 R -13 13 R D 3024 9599 M -39 -13 R -26 -38 R
-12 -64 R 0 -39 R 12 -64 R 26 -39 R 39 -13 R 25 0 R 39 13 R 26 39 R 13 64 R
0 39 R -13 64 R -26 38 R -39 13 R -25 0 R D 20 setlinewidth 3300 10130 M
216 0 R D 30 setlinewidth 2638 10245 M -38 -13 R -26 -38 R -13 -64 R 0 -39 R
13 -64 R 26 -39 R 38 -13 R 26 0 R 38 13 R 26 39 R 13 64 R 0 39 R -13 64 R
-26 38 R -38 13 R -26 0 R D 2844 10001 M -13 -13 R 13 -13 R 13 13 R -13 13 R
D 3101 10245 M -129 0 R -13 -115 R 13 12 R 39 13 R 38 0 R 39 -13 R 26 -25 R
13 -39 R 0 -26 R -13 -38 R -26 -26 R -39 -13 R -38 0 R -39 13 R -13 13 R
-12 26 R D 20 setlinewidth 3300 10776 M 216 0 R D 30 setlinewidth
2600 10840 M 25 13 R 39 38 R 0 -270 R D 2844 10647 M -13 -13 R 13 -13 R
13 13 R -13 13 R D 3024 10891 M -39 -13 R -26 -38 R -12 -64 R 0 -39 R
12 -64 R 26 -39 R 39 -13 R 25 0 R 39 13 R 26 39 R 13 64 R 0 39 R -13 64 R
-26 38 R -39 13 R -25 0 R D 20 setlinewidth 3300 11422 M 216 0 R D
30 setlinewidth 2600 11486 M 25 13 R 39 38 R 0 -270 R D 2844 11293 M
-13 -13 R 13 -13 R 13 13 R -13 13 R D 3101 11537 M -129 0 R -13 -115 R
13 13 R 39 12 R 38 0 R 39 -12 R 26 -26 R 13 -39 R 0 -25 R -13 -39 R
-26 -26 R -39 -13 R -38 0 R -39 13 R -13 13 R -12 26 R D 20 setlinewidth
3300 12068 M 216 0 R D 30 setlinewidth 2574 12119 M 0 13 R 13 26 R 13 13 R
25 12 R 52 0 R 25 -12 R 13 -13 R 13 -26 R 0 -26 R -13 -25 R -25 -39 R
-129 -128 R 180 0 R D 2844 11939 M -13 -13 R 13 -12 R 13 12 R -13 13 R D
3024 12183 M -39 -12 R -26 -39 R -12 -64 R 0 -39 R 12 -64 R 26 -39 R
39 -12 R 25 0 R 39 12 R 26 39 R 13 64 R 0 39 R -13 64 R -26 39 R -39 12 R
-25 0 R D 20 setlinewidth 3300 8321 M 108 0 R D 3300 8450 M 108 0 R D
3300 8580 M 108 0 R D 3300 8709 M 108 0 R D 3300 8967 M 108 0 R D
3300 9097 M 108 0 R D 3300 9226 M 108 0 R D 3300 9355 M 108 0 R D
3300 9613 M 108 0 R D 3300 9743 M 108 0 R D 3300 9872 M 108 0 R D
3300 10001 M 108 0 R D 3300 10259 M 108 0 R D 3300 10389 M 108 0 R D
3300 10518 M 108 0 R D 3300 10647 M 108 0 R D 3300 10906 M 108 0 R D
3300 11035 M 108 0 R D 3300 11164 M 108 0 R D 3300 11293 M 108 0 R D
3300 11552 M 108 0 R D 3300 11681 M 108 0 R D 3300 11810 M 108 0 R D
3300 11939 M 108 0 R D 3300 12198 M 108 0 R D 3300 12327 M 108 0 R D
3300 12456 M 108 0 R D 30 setlinewidth 1565 8640 M 270 0 R D 1655 8885 M
218 0 R 39 -13 R 13 -13 R 13 -26 R 0 -38 R -13 -26 R D 1694 8885 M -26 -26 R
-13 -26 R 0 -38 R 13 -26 R 26 -26 R 38 -13 R 26 0 R 38 13 R 26 26 R 13 26 R
0 38 R -13 26 R -26 26 R D 1514 8987 M 424 0 R D 1514 9000 M 424 0 R D
1514 8987 M 0 90 R D 1938 8987 M 0 90 R D 1565 9309 M 270 0 R D 1694 9309 M
-26 -26 R -13 -26 R 0 -38 R 13 -26 R 26 -26 R 38 -13 R 26 0 R 38 13 R
26 26 R 13 26 R 0 38 R -13 26 R -26 26 R D 1565 9412 M 270 0 R D 1565 9412 M
270 179 R -270 0 R D 1514 9900 M 424 -231 R D 1565 10118 M 270 0 R D
1694 10118 M -26 -25 R -13 -26 R 0 -39 R 13 -25 R 26 -26 R 38 -13 R 26 0 R
38 13 R 26 26 R 13 25 R 0 39 R -13 26 R -26 25 R D 1565 10221 M 270 0 R D
1655 10324 M 180 0 R D 1706 10324 M -38 39 R -13 25 R 0 39 R 13 26 R 38 12 R
129 0 R D 1514 10658 M 25 -25 R 39 -26 R 51 -26 R 65 -13 R 51 0 R 64 13 R
64 26 R 39 26 R 26 25 R D 1655 10748 M 180 0 R D 1706 10748 M -38 39 R
-13 25 R 0 39 R 13 26 R 38 13 R 129 0 R D 1706 10890 M -38 38 R -13 26 R
0 38 R 13 26 R 38 13 R 129 0 R D 1514 11339 M 424 -231 R D 1565 11417 M
270 0 R D 1565 11417 M 270 102 R -270 103 R 270 0 R D 1514 11712 M 25 26 R
39 26 R 51 25 R 65 13 R 51 0 R 64 -13 R 64 -25 R 39 -26 R 26 -26 R D
1514 11969 M 424 0 R D 1514 11982 M 424 0 R D 1514 11892 M 0 90 R D
1938 11892 M 0 90 R D 20 setlinewidth 8697 8192 M 0 4264 R D 8697 8192 M
-216 0 R D 8697 8838 M -216 0 R D 8697 9484 M -216 0 R D 8697 10130 M
-216 0 R D 8697 10776 M -216 0 R D 8697 11422 M -216 0 R D 8697 12068 M
-216 0 R D 8697 8321 M -108 0 R D 8697 8450 M -108 0 R D 8697 8580 M
-108 0 R D 8697 8709 M -108 0 R D 8697 8967 M -108 0 R D 8697 9097 M
-108 0 R D 8697 9226 M -108 0 R D 8697 9355 M -108 0 R D 8697 9613 M
-108 0 R D 8697 9743 M -108 0 R D 8697 9872 M -108 0 R D 8697 10001 M
-108 0 R D 8697 10259 M -108 0 R D 8697 10389 M -108 0 R D 8697 10518 M
-108 0 R D 8697 10647 M -108 0 R D 8697 10906 M -108 0 R D 8697 11035 M
-108 0 R D 8697 11164 M -108 0 R D 8697 11293 M -108 0 R D 8697 11552 M
-108 0 R D 8697 11681 M -108 0 R D 8697 11810 M -108 0 R D 8697 11939 M
-108 0 R D 8697 12198 M -108 0 R D 8697 12327 M -108 0 R D 8697 12456 M
-108 0 R D 30 setlinewidth 3435 12205 M 479 -147 R 479 -356 R 479 -349 R
479 -342 R 479 -277 R 479 -377 R 479 -315 R 479 -284 R 479 -316 R 479 -736 R
D L2 3300 11855 M 405 -247 R 405 -289 R 404 -310 R 405 -325 R 405 -319 R
405 -322 R 405 -289 R 404 -352 R 405 -337 R 405 -299 R D L0
1.000 0.000 0.706 setrgbcolor 3300 11903 M 405 -191 R 405 -323 R 404 -337 R
405 -335 R 405 -352 R 405 -273 R 405 -373 R 404 -295 R 405 -408 R 405 -102 R
D 0.506 0.000 0.000 setrgbcolor 3300 11836 M 405 -181 R 405 -318 R
404 -340 R 405 -331 R 405 -348 R 405 -281 R 405 -362 R 404 -251 R 405 -408 R
405 -102 R D 1.000 0.349 0.000 setrgbcolor 3300 11887 M 405 -189 R
405 -320 R 404 -335 R 405 -333 R 405 -347 R 405 -271 R 405 -373 R 404 -295 R
405 -408 R 405 -102 R D 0.000 0.514 1.000 setrgbcolor 3300 11972 M
405 -203 R 405 -327 R 404 -333 R 405 -333 R 405 -355 R 405 -310 R 405 -361 R
404 -300 R 405 -434 R 405 -102 R D 0.588 0.000 0.588 setrgbcolor
3300 11921 M 405 -197 R 405 -319 R 404 -337 R 405 -342 R 405 -352 R
405 -282 R 405 -373 R 404 -295 R 405 -408 R 405 -102 R D 20 setlinewidth
0.000 0.000 0.000 setrgbcolor 10857 8192 M 5397 0 R D 12106 8192 M 0 171 R D
30 setlinewidth 11887 7881 M -38 -13 R -26 -38 R -13 -64 R 0 -39 R 13 -64 R
26 -39 R 38 -13 R 26 0 R 39 13 R 25 39 R 13 64 R 0 39 R -13 64 R -25 38 R
-39 13 R -26 0 R D 12093 7637 M -13 -13 R 13 -13 R 13 13 R -13 13 R D
12234 7830 M 26 13 R 39 38 R 0 -270 R D 20 setlinewidth 16254 8192 M 0 171 R
D 30 setlinewidth 15997 7830 M 26 13 R 38 38 R 0 -270 R D 16241 7637 M
-13 -13 R 13 -13 R 13 13 R -13 13 R D 16421 7881 M -38 -13 R -26 -38 R
-13 -64 R 0 -39 R 13 -64 R 26 -39 R 38 -13 R 26 0 R 38 13 R 26 39 R 13 64 R
0 39 R -13 64 R -26 38 R -38 13 R -26 0 R D 20 setlinewidth 10857 8192 M
0 85 R D 11186 8192 M 0 85 R D 11463 8192 M 0 85 R D 11704 8192 M 0 85 R D
11916 8192 M 0 85 R D 13355 8192 M 0 85 R D 14085 8192 M 0 85 R D
14603 8192 M 0 85 R D 15005 8192 M 0 85 R D 15334 8192 M 0 85 R D
15612 8192 M 0 85 R D 15852 8192 M 0 85 R D 16064 8192 M 0 85 R D
30 setlinewidth 13087 7288 M 0 -180 R D 13087 7211 M 13 38 R 26 26 R 25 13 R
39 0 R D 13460 7429 M -232 -424 R D 13537 7378 M 0 -270 R D 13537 7378 M
116 0 R 38 -13 R 13 -13 R 13 -26 R 0 -25 R -13 -26 R -13 -13 R -38 -13 R
-116 0 R D 13627 7249 M 90 -141 R D 13776 7117 M 48 -111 R 48 111 R D
13911 7173 M 8 -8 R 8 8 R -8 8 R -8 -8 R D 13919 7117 M 0 -111 R D
13983 7117 M 0 -111 R D 13983 7069 M 8 24 R 16 16 R 16 8 R 24 0 R D
20 setlinewidth 10857 12456 M 5397 0 R D 12106 12456 M 0 -170 R D
16254 12456 M 0 -170 R D 10857 12456 M 0 -85 R D 11186 12456 M 0 -85 R D
11463 12456 M 0 -85 R D 11704 12456 M 0 -85 R D 11916 12456 M 0 -85 R D
13355 12456 M 0 -85 R D 14085 12456 M 0 -85 R D 14603 12456 M 0 -85 R D
15005 12456 M 0 -85 R D 15334 12456 M 0 -85 R D 15612 12456 M 0 -85 R D
15852 12456 M 0 -85 R D 16064 12456 M 0 -85 R D 10857 8192 M 0 4264 R D
10857 8192 M 216 0 R D 30 setlinewidth 9938 8462 M -38 -13 R -26 -38 R
-13 -65 R 0 -38 R 13 -65 R 26 -38 R 38 -13 R 26 0 R 38 13 R 26 38 R 13 65 R
0 38 R -13 65 R -26 38 R -38 13 R -26 0 R D 10144 8218 M -13 -13 R 13 -13 R
13 13 R -13 13 R D 10324 8462 M -39 -13 R -26 -38 R -12 -65 R 0 -38 R
12 -65 R 26 -38 R 39 -13 R 25 0 R 39 13 R 26 38 R 13 65 R 0 38 R -13 65 R
-26 38 R -39 13 R -25 0 R D 10542 8411 M 26 12 R 38 39 R 0 -270 R D
20 setlinewidth 10857 10243 M 216 0 R D 30 setlinewidth 9938 10358 M
-38 -13 R -26 -39 R -13 -64 R 0 -38 R 13 -65 R 26 -38 R 38 -13 R 26 0 R
38 13 R 26 38 R 13 65 R 0 38 R -13 64 R -26 39 R -38 13 R -26 0 R D
10144 10114 M -13 -13 R 13 -13 R 13 13 R -13 13 R D 10285 10306 M 26 13 R
38 39 R 0 -270 R D 10581 10358 M -39 -13 R -26 -39 R -12 -64 R 0 -38 R
12 -65 R 26 -38 R 39 -13 R 25 0 R 39 13 R 26 38 R 13 65 R 0 38 R -13 64 R
-26 39 R -39 13 R -25 0 R D 20 setlinewidth 10857 12294 M 216 0 R D
30 setlinewidth 9900 12357 M 25 13 R 39 39 R 0 -270 R D 10144 12165 M
-13 -13 R 13 -13 R 13 13 R -13 13 R D 10324 12409 M -39 -13 R -26 -39 R
-12 -64 R 0 -39 R 12 -64 R 26 -38 R 39 -13 R 25 0 R 39 13 R 26 38 R 13 64 R
0 39 R -13 64 R -26 39 R -39 13 R -25 0 R D 10581 12409 M -39 -13 R
-26 -39 R -12 -64 R 0 -39 R 12 -64 R 26 -38 R 39 -13 R 25 0 R 39 13 R
26 38 R 13 64 R 0 39 R -13 64 R -26 39 R -39 13 R -25 0 R D 20 setlinewidth
10857 8809 M 108 0 R D 10857 9171 M 108 0 R D 10857 9427 M 108 0 R D
10857 9626 M 108 0 R D 10857 9788 M 108 0 R D 10857 9925 M 108 0 R D
10857 10044 M 108 0 R D 10857 10149 M 108 0 R D 10857 10860 M 108 0 R D
10857 11221 M 108 0 R D 10857 11478 M 108 0 R D 10857 11676 M 108 0 R D
10857 11839 M 108 0 R D 10857 11976 M 108 0 R D 10857 12095 M 108 0 R D
10857 12200 M 108 0 R D 30 setlinewidth 9199 9350 M 270 0 R D 9199 9350 M
270 180 R -270 0 R D 9148 9722 M 25 -25 R 39 -26 R 51 -26 R 65 -13 R 51 0 R
64 13 R 65 26 R 38 26 R 26 25 R D 9238 10018 M 115 -206 R 116 206 R D
9289 10121 M 180 0 R D 9366 10121 M -38 13 R -26 25 R -13 26 R 0 39 R D
9148 10275 M 25 26 R 39 26 R 51 25 R 65 13 R 51 0 R 64 -13 R 65 -25 R
38 -26 R 26 -26 R D 9148 10674 M 424 -232 R D 9199 10751 M 270 0 R D
9199 10751 M 270 180 R -270 0 R D 9404 11027 M 136 0 R 23 8 R 8 16 R 0 15 R
D 9460 11003 M 0 56 R D 9460 11146 M 8 -16 R 16 -16 R 24 -8 R 16 0 R 23 8 R
16 16 R 8 16 R 0 24 R -8 16 R -16 16 R -23 8 R -16 0 R -24 -8 R -16 -16 R
-8 -16 R 0 -24 R D 9404 11273 M 136 0 R 23 8 R 8 16 R 0 16 R D 9460 11249 M
0 56 R D 20 setlinewidth 16254 8192 M 0 4264 R D 16254 8192 M -216 0 R D
16254 10243 M -216 0 R D 16254 12294 M -216 0 R D 16254 8809 M -108 0 R D
16254 9171 M -108 0 R D 16254 9427 M -108 0 R D 16254 9626 M -108 0 R D
16254 9788 M -108 0 R D 16254 9925 M -108 0 R D 16254 10044 M -108 0 R D
16254 10149 M -108 0 R D 16254 10860 M -108 0 R D 16254 11221 M -108 0 R D
16254 11478 M -108 0 R D 16254 11676 M -108 0 R D 16254 11839 M -108 0 R D
16254 11976 M -108 0 R D 16254 12095 M -108 0 R D 16254 12200 M -108 0 R D
40 setlinewidth L1 10857 9144 M 788 508 R 922 612 R 922 578 R 921 587 R
922 544 R 922 321 R D 30 setlinewidth L0 1.000 0.000 0.706 setrgbcolor
10857 8928 M 788 853 R 922 692 R 922 633 R 921 499 R 922 414 R 922 275 R D
0.506 0.000 0.000 setrgbcolor 10857 8804 M 788 780 R 922 530 R 922 548 R
921 554 R 922 645 R 922 433 R D 1.000 0.349 0.000 setrgbcolor 10857 8692 M
788 816 R 922 702 R 922 626 R 921 572 R 922 547 R 922 339 R D
0.000 0.514 1.000 setrgbcolor 10857 9142 M 788 788 R 922 672 R 922 577 R
921 456 R 922 394 R 922 265 R D 0.588 0.000 0.588 setrgbcolor 10857 9084 M
788 809 R 922 685 R 922 596 R 921 463 R 922 392 R 922 265 R D
20 setlinewidth 0.000 0.000 0.000 setrgbcolor 3300 2248 M 5397 0 R D
3300 2248 M 0 171 R D 30 setlinewidth 3082 1937 M -39 -13 R -26 -38 R
-13 -64 R 0 -39 R 13 -64 R 26 -39 R 39 -13 R 25 0 R 39 13 R 26 39 R 12 64 R
0 39 R -12 64 R -26 38 R -39 13 R -25 0 R D 3287 1693 M -13 -13 R 13 -13 R
13 13 R -13 13 R D 3467 1937 M -38 -13 R -26 -38 R -13 -64 R 0 -39 R
13 -64 R 26 -39 R 38 -13 R 26 0 R 38 13 R 26 39 R 13 64 R 0 39 R -13 64 R
-26 38 R -38 13 R -26 0 R D 20 setlinewidth 4379 2248 M 0 171 R D
30 setlinewidth 4161 1937 M -39 -13 R -25 -38 R -13 -64 R 0 -39 R 13 -64 R
25 -39 R 39 -13 R 26 0 R 38 13 R 26 39 R 13 64 R 0 39 R -13 64 R -26 38 R
-38 13 R -26 0 R D 4367 1693 M -13 -13 R 13 -13 R 12 13 R -12 13 R D
4482 1873 M 0 13 R 13 25 R 13 13 R 26 13 R 51 0 R 26 -13 R 13 -13 R 13 -25 R
0 -26 R -13 -26 R -26 -38 R -129 -129 R 180 0 R D 20 setlinewidth
5459 2248 M 0 171 R D 30 setlinewidth 5240 1937 M -38 -13 R -26 -38 R
-13 -64 R 0 -39 R 13 -64 R 26 -39 R 38 -13 R 26 0 R 39 13 R 25 39 R 13 64 R
0 39 R -13 64 R -25 38 R -39 13 R -26 0 R D 5446 1693 M -13 -13 R 13 -13 R
13 13 R -13 13 R D 5677 1937 M -128 -180 R 193 0 R D 5677 1937 M 0 -270 R D
20 setlinewidth 6538 2248 M 0 171 R D 30 setlinewidth 6320 1937 M -39 -13 R
-25 -38 R -13 -64 R 0 -39 R 13 -64 R 25 -39 R 39 -13 R 26 0 R 38 13 R
26 39 R 13 64 R 0 39 R -13 64 R -26 38 R -38 13 R -26 0 R D 6525 1693 M
-12 -13 R 12 -13 R 13 13 R -13 13 R D 6795 1899 M -13 25 R -38 13 R -26 0 R
-38 -13 R -26 -38 R -13 -64 R 0 -65 R 13 -51 R 26 -26 R 38 -13 R 13 0 R
39 13 R 25 26 R 13 38 R 0 13 R -13 39 R -25 26 R -39 12 R -13 0 R -38 -12 R
-26 -26 R -13 -39 R D 20 setlinewidth 7618 2248 M 0 171 R D 30 setlinewidth
7399 1937 M -38 -13 R -26 -38 R -13 -64 R 0 -39 R 13 -64 R 26 -39 R 38 -13 R
26 0 R 38 13 R 26 39 R 13 64 R 0 39 R -13 64 R -26 38 R -38 13 R -26 0 R D
7605 1693 M -13 -13 R 13 -13 R 13 13 R -13 13 R D 7772 1937 M -39 -13 R
-12 -25 R 0 -26 R 12 -26 R 26 -13 R 51 -12 R 39 -13 R 26 -26 R 13 -26 R
0 -38 R -13 -26 R -13 -13 R -39 -13 R -51 0 R -39 13 R -12 13 R -13 26 R
0 38 R 13 26 R 25 26 R 39 13 R 51 12 R 26 13 R 13 26 R 0 26 R -13 25 R
-39 13 R -51 0 R D 20 setlinewidth 8697 2248 M 0 171 R D 30 setlinewidth
8440 1886 M 26 13 R 38 38 R 0 -270 R D 8684 1693 M -13 -13 R 13 -13 R
13 13 R -13 13 R D 8864 1937 M -38 -13 R -26 -38 R -13 -64 R 0 -39 R
13 -64 R 26 -39 R 38 -13 R 26 0 R 38 13 R 26 39 R 13 64 R 0 39 R -13 64 R
-26 38 R -38 13 R -26 0 R D 20 setlinewidth 3570 2248 M 0 85 R D 3840 2248 M
0 85 R D 4110 2248 M 0 85 R D 4649 2248 M 0 85 R D 4919 2248 M 0 85 R D
5189 2248 M 0 85 R D 5729 2248 M 0 85 R D 5999 2248 M 0 85 R D 6268 2248 M
0 85 R D 6808 2248 M 0 85 R D 7078 2248 M 0 85 R D 7348 2248 M 0 85 R D
7888 2248 M 0 85 R D 8157 2248 M 0 85 R D 8427 2248 M 0 85 R D
30 setlinewidth 4932 1305 M -26 26 R -26 13 R -38 0 R -26 -13 R -26 -26 R
-12 -38 R 0 -26 R 12 -39 R 26 -25 R 26 -13 R 38 0 R 26 13 R 26 25 R D
5009 1434 M 13 -13 R 13 13 R -13 13 R -13 -13 R D 5022 1344 M 0 -180 R D
5125 1344 M 0 -180 R D 5125 1267 M 12 38 R 26 26 R 26 13 R 38 0 R D
5433 1305 M -26 26 R -25 13 R -39 0 R -26 -13 R -25 -26 R -13 -38 R 0 -26 R
13 -39 R 25 -25 R 26 -13 R 39 0 R 25 13 R 26 25 R D 5523 1344 M 0 -129 R
13 -38 R 26 -13 R 38 0 R 26 13 R 38 38 R D 5664 1344 M 0 -180 R D
5767 1434 M 0 -270 R D 6011 1344 M 0 -180 R D 6011 1305 M -25 26 R -26 13 R
-39 0 R -25 -13 R -26 -26 R -13 -38 R 0 -26 R 13 -39 R 26 -25 R 25 -13 R
39 0 R 26 13 R 25 25 R D 6114 1344 M 0 -180 R D 6114 1267 M 13 38 R 26 26 R
26 13 R 38 0 R D 6268 1434 M 13 -13 R 13 13 R -13 13 R -13 -13 R D
6281 1344 M 0 -180 R D 6397 1434 M 0 -219 R 13 -38 R 26 -13 R 25 0 R D
6358 1344 M 90 0 R D 6513 1344 M 77 -180 R 77 180 R D 6590 1164 M -26 -64 R
-26 -26 R -25 -13 R -13 0 R D 6770 1177 M -13 -13 R -13 13 R 13 13 R
13 -13 R 0 -39 R -13 -26 R -13 -12 R D 7194 1331 M -26 13 R -38 0 R
-26 -13 R -26 -26 R -13 -38 R 0 -39 R 13 -38 R 13 -13 R 26 -13 R 38 0 R
26 13 R D 7065 1254 M 103 0 R D 20 setlinewidth 3300 6512 M 5397 0 R D
3300 6512 M 0 -170 R D 4379 6512 M 0 -170 R D 5459 6512 M 0 -170 R D
6538 6512 M 0 -170 R D 7618 6512 M 0 -170 R D 8697 6512 M 0 -170 R D
3570 6512 M 0 -85 R D 3840 6512 M 0 -85 R D 4110 6512 M 0 -85 R D
4649 6512 M 0 -85 R D 4919 6512 M 0 -85 R D 5189 6512 M 0 -85 R D
5729 6512 M 0 -85 R D 5999 6512 M 0 -85 R D 6268 6512 M 0 -85 R D
6808 6512 M 0 -85 R D 7078 6512 M 0 -85 R D 7348 6512 M 0 -85 R D
7888 6512 M 0 -85 R D 8157 6512 M 0 -85 R D 8427 6512 M 0 -85 R D
3300 2248 M 0 4264 R D 3300 2248 M 216 0 R D 30 setlinewidth 2638 2518 M
-38 -13 R -26 -38 R -13 -65 R 0 -38 R 13 -65 R 26 -38 R 38 -13 R 26 0 R
38 13 R 26 38 R 13 65 R 0 38 R -13 65 R -26 38 R -38 13 R -26 0 R D
2844 2274 M -13 -13 R 13 -13 R 13 13 R -13 13 R D 3024 2518 M -39 -13 R
-26 -38 R -12 -65 R 0 -38 R 12 -65 R 26 -38 R 39 -13 R 25 0 R 39 13 R
26 38 R 13 65 R 0 38 R -13 65 R -26 38 R -39 13 R -25 0 R D 20 setlinewidth
3300 3581 M 216 0 R D 30 setlinewidth 2638 3696 M -38 -13 R -26 -39 R
-13 -64 R 0 -39 R 13 -64 R 26 -38 R 38 -13 R 26 0 R 38 13 R 26 38 R 13 64 R
0 39 R -13 64 R -26 39 R -38 13 R -26 0 R D 2844 3451 M -13 -12 R 13 -13 R
13 13 R -13 12 R D 3101 3696 M -129 0 R -13 -116 R 13 13 R 39 13 R 38 0 R
39 -13 R 26 -26 R 13 -38 R 0 -26 R -13 -39 R -26 -25 R -39 -13 R -38 0 R
-39 13 R -13 12 R -12 26 R D 20 setlinewidth 3300 4913 M 216 0 R D
30 setlinewidth 2600 4977 M 25 13 R 39 38 R 0 -270 R D 2844 4784 M -13 -13 R
13 -13 R 13 13 R -13 13 R D 3024 5028 M -39 -13 R -26 -38 R -12 -65 R
0 -38 R 12 -64 R 26 -39 R 39 -13 R 25 0 R 39 13 R 26 39 R 13 64 R 0 38 R
-13 65 R -26 38 R -39 13 R -25 0 R D 20 setlinewidth 3300 6246 M 216 0 R D
30 setlinewidth 2600 6309 M 25 13 R 39 39 R 0 -270 R D 2844 6116 M -13 -12 R
13 -13 R 13 13 R -13 12 R D 3101 6361 M -129 0 R -13 -116 R 13 13 R 39 13 R
38 0 R 39 -13 R 26 -26 R 13 -38 R 0 -26 R -13 -39 R -26 -25 R -39 -13 R
-38 0 R -39 13 R -13 12 R -12 26 R D 20 setlinewidth 3300 2515 M 108 0 R D
3300 2781 M 108 0 R D 3300 3048 M 108 0 R D 3300 3314 M 108 0 R D
3300 3847 M 108 0 R D 3300 4114 M 108 0 R D 3300 4380 M 108 0 R D
3300 4647 M 108 0 R D 3300 5180 M 108 0 R D 3300 5446 M 108 0 R D
3300 5713 M 108 0 R D 3300 5979 M 108 0 R D 3300 6512 M 108 0 R D
30 setlinewidth 1989 4014 M 283 0 R D 2028 4014 M -26 25 R -13 26 R 0 39 R
13 25 R 26 26 R 38 13 R 26 0 R 39 -13 R 25 -26 R 13 -25 R 0 -39 R -13 -26 R
-25 -25 R D 1848 4348 M 25 -26 R 39 -25 R 51 -26 R 65 -13 R 51 0 R 64 13 R
65 26 R 38 25 R 26 26 R D 2002 4554 M -13 -26 R 0 -39 R 13 -25 R 26 -26 R
38 -13 R 39 0 R 38 13 R 13 13 R 13 25 R 0 39 R -13 26 R D 2079 4425 M
0 103 R D 1848 4631 M 25 25 R 39 26 R 51 26 R 65 13 R 51 0 R 64 -13 R
65 -26 R 38 -26 R 26 -25 R D 20 setlinewidth 8697 2248 M 0 4264 R D
8697 2248 M -216 0 R D 8697 3581 M -216 0 R D 8697 4913 M -216 0 R D
8697 6246 M -216 0 R D 8697 2515 M -108 0 R D 8697 2781 M -108 0 R D
8697 3048 M -108 0 R D 8697 3314 M -108 0 R D 8697 3847 M -108 0 R D
8697 4114 M -108 0 R D 8697 4380 M -108 0 R D 8697 4647 M -108 0 R D
8697 5180 M -108 0 R D 8697 5446 M -108 0 R D 8697 5713 M -108 0 R D
8697 5979 M -108 0 R D 8697 6512 M -108 0 R D 40 setlinewidth L2 3300 2248 M
54 112 R 54 138 R 54 148 R 54 151 R 54 153 R 54 153 R 54 152 R 54 150 R
54 147 R 54 144 R 54 140 R 54 137 R 54 133 R 54 129 R 54 125 R 54 120 R
54 116 R 54 111 R 54 107 R 53 102 R 54 97 R 54 93 R 54 88 R 54 83 R 54 79 R
54 74 R 54 69 R 54 65 R 54 61 R 54 56 R 54 52 R 54 48 R 54 43 R 54 40 R
54 35 R 54 31 R 54 27 R 54 24 R 54 19 R 54 16 R 54 12 R 54 9 R 54 6 R 54 2 R
54 -1 R 54 -5 R 54 -7 R 54 -11 R 54 -13 R 54 -16 R 54 -19 R 54 -21 R
53 -25 R 54 -26 R 54 -29 R 54 -31 R 54 -33 R 54 -35 R 54 -38 R 54 -39 R
54 -41 R 54 -43 R 54 -44 R 54 -46 R 54 -47 R 54 -49 R 54 -50 R 54 -52 R
54 -52 R 54 -54 R 54 -54 R 54 -55 R 54 -57 R 54 -56 R 54 -58 R 54 -58 R
54 -59 R 54 -59 R 54 -59 R 54 -60 R 54 -60 R 54 -60 R 54 -60 R 54 -61 R
54 -60 R 54 -60 R 53 -60 R 54 -59 R 54 -60 R 54 -59 R 54 -58 R 54 -59 R
54 -57 R 54 -58 R 54 -56 R 54 -56 R 54 -55 R 54 -55 R 54 -53 R D
30 setlinewidth L0 1.000 0.000 0.706 setrgbcolor 3354 2254 M 594 1245 R
593 1445 R 594 640 R 594 234 R 593 -19 R 594 -264 R 594 -487 R 593 -441 R
594 -986 R D 0.506 0.000 0.000 setrgbcolor 3354 2257 M 594 873 R 593 935 R
594 809 R 594 685 R 593 299 R 594 44 R 594 -299 R 593 -259 R 594 -1229 R D
1.000 0.349 0.000 setrgbcolor 3354 2255 M 594 961 R 593 1105 R 594 808 R
594 501 R 593 230 R 594 -4 R 594 -416 R 593 -361 R 594 -1158 R D
0.000 0.514 1.000 setrgbcolor 3354 2258 M 594 1279 R 593 1391 R 594 664 R
594 221 R 593 -39 R 594 -242 R 594 -485 R 593 -444 R 594 -979 R D
0.588 0.000 0.588 setrgbcolor 3354 2255 M 594 1254 R 593 1429 R 594 645 R
594 240 R 593 -33 R 594 -253 R 594 -493 R 593 -435 R 594 -988 R D
1.000 0.000 0.706 setrgbcolor 11397 4380 M 108 0 R 108 0 R 108 0 R 108 0 R
107 0 R 108 0 R 108 0 R 108 0 R 108 0 R D 0.506 0.000 0.000 setrgbcolor
11397 3954 M 108 0 R 108 0 R 108 0 R 108 0 R 107 0 R 108 0 R 108 0 R 108 0 R
108 0 R D 1.000 0.349 0.000 setrgbcolor 11397 3527 M 108 0 R 108 0 R 108 0 R
108 0 R 107 0 R 108 0 R 108 0 R 108 0 R 108 0 R D
0.000 0.514 1.000 setrgbcolor 11397 3101 M 108 0 R 108 0 R 108 0 R 108 0 R
107 0 R 108 0 R 108 0 R 108 0 R 108 0 R D 0.588 0.000 0.588 setrgbcolor
11397 2674 M 108 0 R 108 0 R 108 0 R 108 0 R 107 0 R 108 0 R 108 0 R 108 0 R
108 0 R D 1.000 0.000 0.706 setrgbcolor 12515 4479 M 0 -269 R D 12515 4351 M
25 26 R 26 12 R 39 0 R 25 -12 R 26 -26 R 13 -39 R 0 -25 R -13 -39 R
-26 -26 R -25 -12 R -39 0 R -26 12 R -25 26 R D 12887 4351 M -12 26 R
-39 12 R -38 0 R -39 -12 R -13 -26 R 13 -26 R 26 -13 R 64 -13 R 26 -12 R
12 -26 R 0 -13 R -12 -26 R -39 -12 R -38 0 R -39 12 R -13 26 R D
13042 4479 M -39 -12 R -26 -39 R -12 -64 R 0 -39 R 12 -64 R 26 -39 R
39 -12 R 25 0 R 39 12 R 26 39 R 13 64 R 0 39 R -13 64 R -26 39 R -39 12 R
-25 0 R D 13299 4479 M -39 -12 R -26 -39 R -12 -64 R 0 -39 R 12 -64 R
26 -39 R 39 -12 R 25 0 R 39 12 R 26 39 R 13 64 R 0 39 R -13 64 R -26 39 R
-39 12 R -25 0 R D 0.506 0.000 0.000 setrgbcolor 12515 4053 M 0 -270 R D
12515 3924 M 25 26 R 26 13 R 39 0 R 25 -13 R 26 -26 R 13 -38 R 0 -26 R
-13 -38 R -26 -26 R -25 -13 R -39 0 R -26 13 R -25 26 R D 12887 3924 M
-12 26 R -39 13 R -38 0 R -39 -13 R -13 -26 R 13 -25 R 26 -13 R 64 -13 R
26 -13 R 12 -25 R 0 -13 R -12 -26 R -39 -13 R -38 0 R -39 13 R -13 26 R D
13042 4053 M -39 -13 R -26 -38 R -12 -65 R 0 -38 R 12 -64 R 26 -39 R
39 -13 R 25 0 R 39 13 R 26 39 R 13 64 R 0 38 R -13 65 R -26 38 R -39 13 R
-25 0 R D 13234 3963 M 0 -180 R D 13234 3886 M 13 38 R 26 26 R 26 13 R
38 0 R D 13530 3924 M -13 26 R -38 13 R -39 0 R -38 -13 R -13 -26 R 13 -25 R
25 -13 R 65 -13 R 25 -13 R 13 -25 R 0 -13 R -13 -26 R -38 -13 R -39 0 R
-38 13 R -13 26 R D 1.000 0.349 0.000 setrgbcolor 12515 3627 M 0 -270 R D
12515 3498 M 25 26 R 26 13 R 39 0 R 25 -13 R 26 -26 R 13 -38 R 0 -26 R
-13 -39 R -26 -25 R -25 -13 R -39 0 R -26 13 R -25 25 R D 12887 3498 M
-12 26 R -39 13 R -38 0 R -39 -13 R -13 -26 R 13 -26 R 26 -12 R 64 -13 R
26 -13 R 12 -26 R 0 -13 R -12 -25 R -39 -13 R -38 0 R -39 13 R -13 25 R D
13042 3627 M -39 -13 R -26 -39 R -12 -64 R 0 -39 R 12 -64 R 26 -38 R
39 -13 R 25 0 R 39 13 R 26 38 R 13 64 R 0 39 R -13 64 R -26 39 R -39 13 R
-25 0 R D 13234 3537 M 0 -180 R D 13234 3460 M 13 38 R 26 26 R 26 13 R
38 0 R D 13530 3498 M -13 26 R -38 13 R -39 0 R -38 -13 R -13 -26 R 13 -26 R
25 -12 R 65 -13 R 25 -13 R 13 -26 R 0 -13 R -13 -25 R -38 -13 R -39 0 R
-38 13 R -13 25 R D 13620 3627 M 0 -270 R D 13620 3485 M 39 39 R 25 13 R
39 0 R 26 -13 R 12 -39 R 0 -128 R D 0.000 0.514 1.000 setrgbcolor
12515 3200 M 0 -270 R D 12515 3072 M 25 25 R 26 13 R 39 0 R 25 -13 R
26 -25 R 13 -39 R 0 -26 R -13 -38 R -26 -26 R -25 -13 R -39 0 R -26 13 R
-25 26 R D 12887 3072 M -12 25 R -39 13 R -38 0 R -39 -13 R -13 -25 R
13 -26 R 26 -13 R 64 -13 R 26 -13 R 12 -25 R 0 -13 R -12 -26 R -39 -13 R
-38 0 R -39 13 R -13 26 R D 13003 3149 M 26 13 R 38 38 R 0 -270 R D
13234 3110 M 0 -180 R D 13234 3033 M 13 39 R 26 25 R 26 13 R 38 0 R D
13530 3072 M -13 25 R -38 13 R -39 0 R -38 -13 R -13 -25 R 13 -26 R 25 -13 R
65 -13 R 25 -13 R 13 -25 R 0 -13 R -13 -26 R -38 -13 R -39 0 R -38 13 R
-13 26 R D 0.588 0.000 0.588 setrgbcolor 12515 2774 M 0 -270 R D
12515 2645 M 25 26 R 26 13 R 39 0 R 25 -13 R 26 -26 R 13 -38 R 0 -26 R
-13 -39 R -26 -25 R -25 -13 R -39 0 R -26 13 R -25 25 R D 12887 2645 M
-12 26 R -39 13 R -38 0 R -39 -13 R -13 -26 R 13 -25 R 26 -13 R 64 -13 R
26 -13 R 12 -26 R 0 -13 R -12 -25 R -39 -13 R -38 0 R -39 13 R -13 25 R D
13003 2722 M 26 13 R 38 39 R 0 -270 R D 13234 2684 M 0 -180 R D 13234 2607 M
13 38 R 26 26 R 26 13 R 38 0 R D 13530 2645 M -13 26 R -38 13 R -39 0 R
-38 -13 R -13 -26 R 13 -25 R 25 -13 R 65 -13 R 25 -13 R 13 -26 R 0 -13 R
-13 -25 R -38 -13 R -39 0 R -38 13 R -13 25 R D 13620 2774 M 0 -270 R D
13620 2632 M 39 39 R 25 13 R 39 0 R 26 -13 R 12 -39 R 0 -128 R D
%%PageTrailer
end
%%PageResources: font Helvetica
%%Trailer
%%Pages: 1
%%DocumentNeededResources: font Helvetica
%%EOF
