%!PS-Adobe-3.0 EPSF-3.0
%%BoundingBox: 0 0 453 382
%%Title: Graphics produced by IDL
%%For: dacia@Lserver, /home/dacia/work/subhalo_model
%%Creator: IDL Version 7.0 (linux x86_64 m64)
%%CreationDate: Wed May 26 15:47:08 2010
%%DocumentData: Clean7bit
%%Requirements: color
%%LanguageLevel: 1
%%PageOrder: Ascend
%%Pages: (atend)
%%DocumentNeededResources: (atend)
%%EndComments
%%BeginProlog
%+ prolog.ps -- Prolog for IDL generated PostScript files
%+ Copyright (c) 1988-2007 ITT Visual Information Solutions. All Rights Reserved.
%v 5
/$IDL_DICT 40 dict def $IDL_DICT begin /bdef { bind def } bind def /C
{currentpoint newpath moveto} bdef /CP {currentpoint} bdef /D {currentpoint
stroke moveto} bdef /F {closepath fill} bdef /K { setgray } bdef /M {moveto}
bdef /N {rmoveto} bdef /P {lineto} bdef /R {rlineto} bdef /S {gsave show
grestore} bdef /X {currentpoint pop} bdef /Z {gsave currentpoint lineto 20
setlinewidth 1 setlinecap stroke grestore} bdef /L0 {[] 0 setdash} bdef /L1
{[40 100] 0 setdash} bdef /L2 {[200 200] 0 setdash} bdef /L3 {[200 100 50
100] 0 setdash} bdef /L4 {[300 100 50 100 50 100 50 100] 0 setdash} bdef /L5
{[400 200] 0 setdash} bdef /STDFONT { findfont exch scalefont setfont } bdef
/ISOFONT { findfont dup length dict begin { 1 index /FID ne {def} {pop pop}
ifelse } forall /Encoding ISOLatin1Encoding def currentdict end /idltmpfont
exch definefont exch scalefont setfont } bdef /ISOBULLET { gsave /Helvetica
findfont exch scalefont setfont (\267) show currentpoint grestore moveto}
bdef /MITERLIMIT { 2.5 setmiterlimit } bdef end
%%EndProlog
%%Page: 0 1
%%PageRequirements: color
%%PageResources: (atend)
%%PageOrientation: Portrait
%%PageBoundingBox: 0 0 453 382
%%BeginPageSetup
$IDL_DICT begin 0.0283465 dup scale MITERLIMIT
%%IncludeResource: font Helvetica
423.333 /Helvetica STDFONT
%%EndPageSetup
0.000 0.000 0.000 setrgbcolor gsave 8800 176 translate 0 0 M 1.2 dup scale
-411.48 0 N
(m/M) show grestore gsave 539 7319 translate 0 0 M 90 rotate 1.2 dup scale
-1164.17 0 N
(dN/dln\(m/M\)) show grestore 40 setlinewidth L0 1760 7319 M 7040 0 R D
2290 7319 M 0 237 R D gsave 2290 6680 translate 0 0 M 1.21 dup scale
-58.8433 0 N
( ) show grestore 4050 7319 M 0 237 R D gsave 4050 6680 translate 0 0 M
1.21 dup scale -58.8433 0 N
( ) show grestore 5810 7319 M 0 237 R D gsave 5810 6680 translate 0 0 M
1.21 dup scale -58.8433 0 N
( ) show grestore 7570 7319 M 0 237 R D gsave 7570 6680 translate 0 0 M
1.21 dup scale -58.8433 0 N
( ) show grestore 1760 7319 M 0 118 R D 1899 7319 M 0 118 R D 2017 7319 M
0 118 R D 2119 7319 M 0 118 R D 2209 7319 M 0 118 R D 2820 7319 M 0 118 R D
3130 7319 M 0 118 R D 3349 7319 M 0 118 R D 3520 7319 M 0 118 R D
3659 7319 M 0 118 R D 3777 7319 M 0 118 R D 3879 7319 M 0 118 R D
3969 7319 M 0 118 R D 4580 7319 M 0 118 R D 4890 7319 M 0 118 R D
5109 7319 M 0 118 R D 5280 7319 M 0 118 R D 5419 7319 M 0 118 R D
5537 7319 M 0 118 R D 5639 7319 M 0 118 R D 5729 7319 M 0 118 R D
6340 7319 M 0 118 R D 6650 7319 M 0 118 R D 6869 7319 M 0 118 R D
7040 7319 M 0 118 R D 7179 7319 M 0 118 R D 7297 7319 M 0 118 R D
7399 7319 M 0 118 R D 7489 7319 M 0 118 R D 8100 7319 M 0 118 R D
8410 7319 M 0 118 R D 8630 7319 M 0 118 R D 8800 7319 M 0 118 R D
1760 13230 M 7040 0 R D 2290 13230 M 0 -236 R D 4050 13230 M 0 -236 R D
5810 13230 M 0 -236 R D 7570 13230 M 0 -236 R D 1760 13230 M 0 -118 R D
1899 13230 M 0 -118 R D 2017 13230 M 0 -118 R D 2119 13230 M 0 -118 R D
2209 13230 M 0 -118 R D 2820 13230 M 0 -118 R D 3130 13230 M 0 -118 R D
3349 13230 M 0 -118 R D 3520 13230 M 0 -118 R D 3659 13230 M 0 -118 R D
3777 13230 M 0 -118 R D 3879 13230 M 0 -118 R D 3969 13230 M 0 -118 R D
4580 13230 M 0 -118 R D 4890 13230 M 0 -118 R D 5109 13230 M 0 -118 R D
5280 13230 M 0 -118 R D 5419 13230 M 0 -118 R D 5537 13230 M 0 -118 R D
5639 13230 M 0 -118 R D 5729 13230 M 0 -118 R D 6340 13230 M 0 -118 R D
6650 13230 M 0 -118 R D 6869 13230 M 0 -118 R D 7040 13230 M 0 -118 R D
7179 13230 M 0 -118 R D 7297 13230 M 0 -118 R D 7399 13230 M 0 -118 R D
7489 13230 M 0 -118 R D 8100 13230 M 0 -118 R D 8410 13230 M 0 -118 R D
8630 13230 M 0 -118 R D 8800 13230 M 0 -118 R D 1760 7319 M 0 5911 R D
1760 7319 M 282 0 R D gsave 1626 7319 translate 0 0 M 1.21 dup scale
-704.08 0 N
(10) show X 192.937 M
%%IncludeResource: font Helvetica
262.467 /Helvetica STDFONT
(-2) show grestore
%%IncludeResource: font Helvetica
423.333 /Helvetica STDFONT 1760 8603 M 282 0 R D
gsave 1626 8433 translate 0 0 M 1.21 dup scale -704.08 0 N
(10) show X 192.937 M
%%IncludeResource: font Helvetica
262.467 /Helvetica STDFONT
(-1) show grestore
%%IncludeResource: font Helvetica
423.333 /Helvetica STDFONT 1760 9888 M 282 0 R D
gsave 1626 9717 translate 0 0 M 1.21 dup scale -235.373 0 N
(1) show grestore 1760 11172 M 282 0 R D gsave 1626 11002 translate 0 0 M
1.21 dup scale -470.747 0 N
(10) show grestore 1760 12457 M 282 0 R D gsave 1626 12286 translate 0 0 M
1.21 dup scale -616.678 0 N
(10) show X 192.937 M
%%IncludeResource: font Helvetica
262.467 /Helvetica STDFONT
(2) show grestore
%%IncludeResource: font Helvetica
423.333 /Helvetica STDFONT 1760 7705 M 141 0 R D 1760 7931 M 141 0 R D
1760 8092 M 141 0 R D 1760 8216 M 141 0 R D 1760 8318 M 141 0 R D
1760 8404 M 141 0 R D 1760 8479 M 141 0 R D 1760 8544 M 141 0 R D
1760 8990 M 141 0 R D 1760 9216 M 141 0 R D 1760 9376 M 141 0 R D
1760 9501 M 141 0 R D 1760 9603 M 141 0 R D 1760 9689 M 141 0 R D
1760 9763 M 141 0 R D 1760 9829 M 141 0 R D 1760 10274 M 141 0 R D
1760 10501 M 141 0 R D 1760 10661 M 141 0 R D 1760 10786 M 141 0 R D
1760 10887 M 141 0 R D 1760 10973 M 141 0 R D 1760 11048 M 141 0 R D
1760 11113 M 141 0 R D 1760 11559 M 141 0 R D 1760 11785 M 141 0 R D
1760 11946 M 141 0 R D 1760 12070 M 141 0 R D 1760 12172 M 141 0 R D
1760 12258 M 141 0 R D 1760 12332 M 141 0 R D 1760 12398 M 141 0 R D
1760 12843 M 141 0 R D 1760 13070 M 141 0 R D 1760 13230 M 141 0 R D
8800 7319 M 0 5911 R D 8800 7319 M -282 0 R D 8800 8603 M -282 0 R D
8800 9888 M -282 0 R D 8800 11172 M -282 0 R D 8800 12457 M -282 0 R D
8800 7705 M -141 0 R D 8800 7931 M -141 0 R D 8800 8092 M -141 0 R D
8800 8216 M -141 0 R D 8800 8318 M -141 0 R D 8800 8404 M -141 0 R D
8800 8479 M -141 0 R D 8800 8544 M -141 0 R D 8800 8990 M -141 0 R D
8800 9216 M -141 0 R D 8800 9376 M -141 0 R D 8800 9501 M -141 0 R D
8800 9603 M -141 0 R D 8800 9689 M -141 0 R D 8800 9763 M -141 0 R D
8800 9829 M -141 0 R D 8800 10274 M -141 0 R D 8800 10501 M -141 0 R D
8800 10661 M -141 0 R D 8800 10786 M -141 0 R D 8800 10887 M -141 0 R D
8800 10973 M -141 0 R D 8800 11048 M -141 0 R D 8800 11113 M -141 0 R D
8800 11559 M -141 0 R D 8800 11785 M -141 0 R D 8800 11946 M -141 0 R D
8800 12070 M -141 0 R D 8800 12172 M -141 0 R D 8800 12258 M -141 0 R D
8800 12332 M -141 0 R D 8800 12398 M -141 0 R D 8800 12843 M -141 0 R D
8800 13070 M -141 0 R D 8800 13230 M -141 0 R D L2 2290 11818 M 528 -268 R
528 -293 R 528 -323 R 528 -335 R 528 -313 R 528 -333 R 528 -333 R 528 -285 R
528 -334 R 528 -330 R D L5 2290 13028 M 642 -375 R 643 -375 R 642 -375 R
642 -375 R 643 -375 R 642 -376 R 643 -375 R 642 -379 R 642 -420 R 643 -936 R
D L1 2290 12867 M 642 -372 R 643 -366 R 642 -373 R 642 -339 R 643 -304 R
642 -358 R 643 -328 R 642 -243 R 642 -345 R 643 -651 R D L0
0.000 0.000 1.000 setrgbcolor 2290 12184 M 528 -292 R 528 -358 R 528 -311 R
528 -408 R 528 -291 R 528 -382 R 528 -255 R 528 -566 R 528 -285 R 528 -173 R
D 80 setlinewidth 2290 11886 M 528 -291 R 528 -357 R 528 -325 R 528 -333 R
528 -353 R 528 -316 R 528 -387 R 528 -661 R 528 48 R 528 0 R D
120 setlinewidth 2290 11696 M 528 -296 R 528 -316 R 528 -291 R 528 -312 R
528 -349 R 528 -471 R 528 -137 R 528 -613 R 528 194 R 528 -807 R D
0.000 0.000 0.000 setrgbcolor gsave 2119 7830 translate 0 0 M 1.1 dup scale
(ln) show
%%IncludeResource: font Symbol
423.333 /Symbol STDFONT
(L) show
%%IncludeResource: font Helvetica
423.333 /Helvetica STDFONT
(=2.5) show grestore 40 setlinewidth 0.000 0.000 1.000 setrgbcolor
2112 9388 M 70 0 R 71 0 R 70 0 R 71 0 R 70 0 R 70 0 R 71 0 R 70 0 R 71 0 R D
80 setlinewidth 2112 8915 M 70 0 R 71 0 R 70 0 R 71 0 R 70 0 R 70 0 R 71 0 R
70 0 R 71 0 R D 120 setlinewidth 2112 8442 M 70 0 R 71 0 R 70 0 R 71 0 R
70 0 R 70 0 R 71 0 R 70 0 R 71 0 R D gsave 2816 9295 translate 0 0 M
1.1 dup scale
(A=1.) show grestore gsave 2816 8823 translate 0 0 M 1.1 dup scale
(A=3.5) show grestore gsave 2816 8350 translate 0 0 M 1.1 dup scale
(A=10.) show grestore 40 setlinewidth 0.000 0.000 0.000 setrgbcolor
8800 7319 M 7040 0 R D 9330 7319 M 0 237 R D gsave 9330 6680 translate 0 0 M
1.21 dup scale -58.8433 0 N
( ) show grestore 11090 7319 M 0 237 R D gsave 11090 6680 translate 0 0 M
1.21 dup scale -58.8433 0 N
( ) show grestore 12850 7319 M 0 237 R D gsave 12850 6680 translate 0 0 M
1.21 dup scale -58.8433 0 N
( ) show grestore 14610 7319 M 0 237 R D gsave 14610 6680 translate 0 0 M
1.21 dup scale -58.8433 0 N
( ) show grestore 8800 7319 M 0 118 R D 8939 7319 M 0 118 R D 9057 7319 M
0 118 R D 9159 7319 M 0 118 R D 9249 7319 M 0 118 R D 9860 7319 M 0 118 R D
10170 7319 M 0 118 R D 10390 7319 M 0 118 R D 10560 7319 M 0 118 R D
10699 7319 M 0 118 R D 10817 7319 M 0 118 R D 10919 7319 M 0 118 R D
11009 7319 M 0 118 R D 11620 7319 M 0 118 R D 11930 7319 M 0 118 R D
12150 7319 M 0 118 R D 12320 7319 M 0 118 R D 12459 7319 M 0 118 R D
12577 7319 M 0 118 R D 12679 7319 M 0 118 R D 12769 7319 M 0 118 R D
13380 7319 M 0 118 R D 13690 7319 M 0 118 R D 13910 7319 M 0 118 R D
14080 7319 M 0 118 R D 14220 7319 M 0 118 R D 14337 7319 M 0 118 R D
14439 7319 M 0 118 R D 14529 7319 M 0 118 R D 15140 7319 M 0 118 R D
15450 7319 M 0 118 R D 15670 7319 M 0 118 R D 15840 7319 M 0 118 R D
8800 13230 M 7040 0 R D 9330 13230 M 0 -236 R D 11090 13230 M 0 -236 R D
12850 13230 M 0 -236 R D 14610 13230 M 0 -236 R D 8800 13230 M 0 -118 R D
8939 13230 M 0 -118 R D 9057 13230 M 0 -118 R D 9159 13230 M 0 -118 R D
9249 13230 M 0 -118 R D 9860 13230 M 0 -118 R D 10170 13230 M 0 -118 R D
10390 13230 M 0 -118 R D 10560 13230 M 0 -118 R D 10699 13230 M 0 -118 R D
10817 13230 M 0 -118 R D 10919 13230 M 0 -118 R D 11009 13230 M 0 -118 R D
11620 13230 M 0 -118 R D 11930 13230 M 0 -118 R D 12150 13230 M 0 -118 R D
12320 13230 M 0 -118 R D 12459 13230 M 0 -118 R D 12577 13230 M 0 -118 R D
12679 13230 M 0 -118 R D 12769 13230 M 0 -118 R D 13380 13230 M 0 -118 R D
13690 13230 M 0 -118 R D 13910 13230 M 0 -118 R D 14080 13230 M 0 -118 R D
14220 13230 M 0 -118 R D 14337 13230 M 0 -118 R D 14439 13230 M 0 -118 R D
14529 13230 M 0 -118 R D 15140 13230 M 0 -118 R D 15450 13230 M 0 -118 R D
15670 13230 M 0 -118 R D 15840 13230 M 0 -118 R D 8800 7319 M 0 5911 R D
8800 7319 M 282 0 R D gsave 8666 7319 translate 0 0 M 1.21 dup scale
-117.687 0 N
( ) show grestore 8800 8603 M 282 0 R D gsave 8666 8433 translate 0 0 M
1.21 dup scale -117.687 0 N
( ) show grestore 8800 9888 M 282 0 R D gsave 8666 9717 translate 0 0 M
1.21 dup scale -117.687 0 N
( ) show grestore 8800 11172 M 282 0 R D gsave 8666 11002 translate 0 0 M
1.21 dup scale -117.687 0 N
( ) show grestore 8800 12457 M 282 0 R D gsave 8666 12286 translate 0 0 M
1.21 dup scale -117.687 0 N
( ) show grestore 8800 7705 M 141 0 R D 8800 7931 M 141 0 R D 8800 8092 M
141 0 R D 8800 8216 M 141 0 R D 8800 8318 M 141 0 R D 8800 8404 M 141 0 R D
8800 8479 M 141 0 R D 8800 8544 M 141 0 R D 8800 8990 M 141 0 R D
8800 9216 M 141 0 R D 8800 9376 M 141 0 R D 8800 9501 M 141 0 R D
8800 9603 M 141 0 R D 8800 9689 M 141 0 R D 8800 9763 M 141 0 R D
8800 9829 M 141 0 R D 8800 10274 M 141 0 R D 8800 10501 M 141 0 R D
8800 10661 M 141 0 R D 8800 10786 M 141 0 R D 8800 10887 M 141 0 R D
8800 10973 M 141 0 R D 8800 11048 M 141 0 R D 8800 11113 M 141 0 R D
8800 11559 M 141 0 R D 8800 11785 M 141 0 R D 8800 11946 M 141 0 R D
8800 12070 M 141 0 R D 8800 12172 M 141 0 R D 8800 12258 M 141 0 R D
8800 12332 M 141 0 R D 8800 12398 M 141 0 R D 8800 12843 M 141 0 R D
8800 13070 M 141 0 R D 8800 13230 M 141 0 R D 15840 7319 M 0 5911 R D
15840 7319 M -281 0 R D 15840 8603 M -281 0 R D 15840 9888 M -281 0 R D
15840 11172 M -281 0 R D 15840 12457 M -281 0 R D 15840 7705 M -141 0 R D
15840 7931 M -141 0 R D 15840 8092 M -141 0 R D 15840 8216 M -141 0 R D
15840 8318 M -141 0 R D 15840 8404 M -141 0 R D 15840 8479 M -141 0 R D
15840 8544 M -141 0 R D 15840 8990 M -141 0 R D 15840 9216 M -141 0 R D
15840 9376 M -141 0 R D 15840 9501 M -141 0 R D 15840 9603 M -141 0 R D
15840 9689 M -141 0 R D 15840 9763 M -141 0 R D 15840 9829 M -141 0 R D
15840 10274 M -141 0 R D 15840 10501 M -141 0 R D 15840 10661 M -141 0 R D
15840 10786 M -141 0 R D 15840 10887 M -141 0 R D 15840 10973 M -141 0 R D
15840 11048 M -141 0 R D 15840 11113 M -141 0 R D 15840 11559 M -141 0 R D
15840 11785 M -141 0 R D 15840 11946 M -141 0 R D 15840 12070 M -141 0 R D
15840 12172 M -141 0 R D 15840 12258 M -141 0 R D 15840 12332 M -141 0 R D
15840 12398 M -141 0 R D 15840 12843 M -141 0 R D 15840 13070 M -141 0 R D
15840 13230 M -141 0 R D L2 9330 11818 M 528 -268 R 528 -293 R 528 -323 R
528 -335 R 528 -313 R 528 -333 R 528 -333 R 528 -285 R 528 -334 R 528 -330 R
D L5 9330 13028 M 642 -375 R 643 -375 R 642 -375 R 643 -375 R 642 -375 R
642 -376 R 643 -375 R 642 -379 R 643 -420 R 642 -936 R D L1 9330 12867 M
642 -372 R 643 -366 R 642 -373 R 643 -339 R 642 -304 R 642 -358 R 643 -328 R
642 -243 R 643 -345 R 642 -651 R D L0 0.000 0.000 1.000 setrgbcolor
9330 12180 M 528 -292 R 528 -367 R 528 -316 R 528 -398 R 528 -313 R
528 -357 R 528 -319 R 528 -650 R 528 -257 R 528 -48 R D 80 setlinewidth
9330 11884 M 528 -312 R 528 -355 R 528 -336 R 528 -313 R 528 -396 R
528 -327 R 528 -337 R 528 -699 R 528 102 R 528 -48 R D 120 setlinewidth
9330 11691 M 528 -300 R 528 -332 R 528 -276 R 528 -352 R 528 -360 R
528 -386 R 528 -342 R 528 -432 R 528 161 R 528 -774 R D
0.000 0.000 0.000 setrgbcolor gsave 9159 7830 translate 0 0 M 1.1 dup scale
(ln) show
%%IncludeResource: font Symbol
423.333 /Symbol STDFONT
(L) show
%%IncludeResource: font Helvetica
423.333 /Helvetica STDFONT
(=5.0) show grestore 40 setlinewidth 1760 1408 M 7040 0 R D 2290 1408 M
0 236 R D gsave 2290 769 translate 0 0 M 1.21 dup scale -352.04 0 N
(10) show X 192.937 M
%%IncludeResource: font Helvetica
262.467 /Helvetica STDFONT
(-4) show grestore
%%IncludeResource: font Helvetica
423.333 /Helvetica STDFONT 4050 1408 M 0 236 R D
gsave 4050 769 translate 0 0 M 1.21 dup scale -352.04 0 N
(10) show X 192.937 M
%%IncludeResource: font Helvetica
262.467 /Helvetica STDFONT
(-3) show grestore
%%IncludeResource: font Helvetica
423.333 /Helvetica STDFONT 5810 1408 M 0 236 R D
gsave 5810 769 translate 0 0 M 1.21 dup scale -352.04 0 N
(10) show X 192.937 M
%%IncludeResource: font Helvetica
262.467 /Helvetica STDFONT
(-2) show grestore
%%IncludeResource: font Helvetica
423.333 /Helvetica STDFONT 7570 1408 M 0 236 R D
gsave 7570 769 translate 0 0 M 1.21 dup scale -352.04 0 N
(10) show X 192.937 M
%%IncludeResource: font Helvetica
262.467 /Helvetica STDFONT
(-1) show grestore
%%IncludeResource: font Helvetica
423.333 /Helvetica STDFONT 1760 1408 M 0 118 R D 1899 1408 M 0 118 R D
2017 1408 M 0 118 R D 2119 1408 M 0 118 R D 2209 1408 M 0 118 R D
2820 1408 M 0 118 R D 3130 1408 M 0 118 R D 3349 1408 M 0 118 R D
3520 1408 M 0 118 R D 3659 1408 M 0 118 R D 3777 1408 M 0 118 R D
3879 1408 M 0 118 R D 3969 1408 M 0 118 R D 4580 1408 M 0 118 R D
4890 1408 M 0 118 R D 5109 1408 M 0 118 R D 5280 1408 M 0 118 R D
5419 1408 M 0 118 R D 5537 1408 M 0 118 R D 5639 1408 M 0 118 R D
5729 1408 M 0 118 R D 6340 1408 M 0 118 R D 6650 1408 M 0 118 R D
6869 1408 M 0 118 R D 7040 1408 M 0 118 R D 7179 1408 M 0 118 R D
7297 1408 M 0 118 R D 7399 1408 M 0 118 R D 7489 1408 M 0 118 R D
8100 1408 M 0 118 R D 8410 1408 M 0 118 R D 8630 1408 M 0 118 R D
8800 1408 M 0 118 R D 1760 7319 M 7040 0 R D 2290 7319 M 0 -236 R D
4050 7319 M 0 -236 R D 5810 7319 M 0 -236 R D 7570 7319 M 0 -236 R D
1760 7319 M 0 -118 R D 1899 7319 M 0 -118 R D 2017 7319 M 0 -118 R D
2119 7319 M 0 -118 R D 2209 7319 M 0 -118 R D 2820 7319 M 0 -118 R D
3130 7319 M 0 -118 R D 3349 7319 M 0 -118 R D 3520 7319 M 0 -118 R D
3659 7319 M 0 -118 R D 3777 7319 M 0 -118 R D 3879 7319 M 0 -118 R D
3969 7319 M 0 -118 R D 4580 7319 M 0 -118 R D 4890 7319 M 0 -118 R D
5109 7319 M 0 -118 R D 5280 7319 M 0 -118 R D 5419 7319 M 0 -118 R D
5537 7319 M 0 -118 R D 5639 7319 M 0 -118 R D 5729 7319 M 0 -118 R D
6340 7319 M 0 -118 R D 6650 7319 M 0 -118 R D 6869 7319 M 0 -118 R D
7040 7319 M 0 -118 R D 7179 7319 M 0 -118 R D 7297 7319 M 0 -118 R D
7399 7319 M 0 -118 R D 7489 7319 M 0 -118 R D 8100 7319 M 0 -118 R D
8410 7319 M 0 -118 R D 8630 7319 M 0 -118 R D 8800 7319 M 0 -118 R D
1760 1408 M 0 5911 R D 1760 1407 M 282 0 R D gsave 1626 1408 translate 0 0 M
1.21 dup scale -704.08 0 N
(10) show X 192.937 M
%%IncludeResource: font Helvetica
262.467 /Helvetica STDFONT
(-2) show grestore
%%IncludeResource: font Helvetica
423.333 /Helvetica STDFONT 1760 2692 M 282 0 R D
gsave 1626 2522 translate 0 0 M 1.21 dup scale -704.08 0 N
(10) show X 192.937 M
%%IncludeResource: font Helvetica
262.467 /Helvetica STDFONT
(-1) show grestore
%%IncludeResource: font Helvetica
423.333 /Helvetica STDFONT 1760 3977 M 282 0 R D
gsave 1626 3806 translate 0 0 M 1.21 dup scale -235.373 0 N
(1) show grestore 1760 5261 M 282 0 R D gsave 1626 5091 translate 0 0 M
1.21 dup scale -470.747 0 N
(10) show grestore 1760 6546 M 282 0 R D gsave 1626 6375 translate 0 0 M
1.21 dup scale -616.678 0 N
(10) show X 192.937 M
%%IncludeResource: font Helvetica
262.467 /Helvetica STDFONT
(2) show grestore
%%IncludeResource: font Helvetica
423.333 /Helvetica STDFONT 1760 1794 M 141 0 R D 1760 2020 M 141 0 R D
1760 2181 M 141 0 R D 1760 2305 M 141 0 R D 1760 2407 M 141 0 R D
1760 2493 M 141 0 R D 1760 2568 M 141 0 R D 1760 2633 M 141 0 R D
1760 3079 M 141 0 R D 1760 3305 M 141 0 R D 1760 3465 M 141 0 R D
1760 3590 M 141 0 R D 1760 3692 M 141 0 R D 1760 3778 M 141 0 R D
1760 3852 M 141 0 R D 1760 3918 M 141 0 R D 1760 4363 M 141 0 R D
1760 4589 M 141 0 R D 1760 4750 M 141 0 R D 1760 4874 M 141 0 R D
1760 4976 M 141 0 R D 1760 5062 M 141 0 R D 1760 5137 M 141 0 R D
1760 5202 M 141 0 R D 1760 5648 M 141 0 R D 1760 5874 M 141 0 R D
1760 6035 M 141 0 R D 1760 6159 M 141 0 R D 1760 6261 M 141 0 R D
1760 6347 M 141 0 R D 1760 6421 M 141 0 R D 1760 6487 M 141 0 R D
1760 6932 M 141 0 R D 1760 7159 M 141 0 R D 1760 7319 M 141 0 R D
8800 1408 M 0 5911 R D 8800 1407 M -282 0 R D 8800 2692 M -282 0 R D
8800 3977 M -282 0 R D 8800 5261 M -282 0 R D 8800 6546 M -282 0 R D
8800 1794 M -141 0 R D 8800 2020 M -141 0 R D 8800 2181 M -141 0 R D
8800 2305 M -141 0 R D 8800 2407 M -141 0 R D 8800 2493 M -141 0 R D
8800 2568 M -141 0 R D 8800 2633 M -141 0 R D 8800 3079 M -141 0 R D
8800 3305 M -141 0 R D 8800 3465 M -141 0 R D 8800 3590 M -141 0 R D
8800 3692 M -141 0 R D 8800 3778 M -141 0 R D 8800 3852 M -141 0 R D
8800 3918 M -141 0 R D 8800 4363 M -141 0 R D 8800 4589 M -141 0 R D
8800 4750 M -141 0 R D 8800 4874 M -141 0 R D 8800 4976 M -141 0 R D
8800 5062 M -141 0 R D 8800 5137 M -141 0 R D 8800 5202 M -141 0 R D
8800 5648 M -141 0 R D 8800 5874 M -141 0 R D 8800 6035 M -141 0 R D
8800 6159 M -141 0 R D 8800 6261 M -141 0 R D 8800 6347 M -141 0 R D
8800 6421 M -141 0 R D 8800 6487 M -141 0 R D 8800 6932 M -141 0 R D
8800 7159 M -141 0 R D 8800 7319 M -141 0 R D L2 2290 5907 M 528 -268 R
528 -293 R 528 -323 R 528 -335 R 528 -313 R 528 -333 R 528 -333 R 528 -285 R
528 -334 R 528 -330 R D L5 2290 7117 M 642 -375 R 643 -375 R 642 -375 R
642 -375 R 643 -376 R 642 -375 R 643 -375 R 642 -379 R 642 -420 R 643 -936 R
D L1 2290 6956 M 642 -372 R 643 -366 R 642 -373 R 642 -339 R 643 -304 R
642 -358 R 643 -328 R 642 -243 R 642 -345 R 643 -651 R D L0
0.000 0.000 1.000 setrgbcolor 2290 6419 M 528 -326 R 528 -313 R 528 -360 R
528 -362 R 528 -346 R 528 -378 R 528 -418 R 528 -506 R 528 -410 R 528 0 R D
80 setlinewidth 2290 6045 M 528 -294 R 528 -364 R 528 -305 R 528 -397 R
528 -295 R 528 -291 R 528 -486 R 528 -488 R 528 -285 R 528 160 R D
120 setlinewidth 2290 5728 M 528 -306 R 528 -360 R 528 -297 R 528 -334 R
528 -345 R 528 -290 R 528 -433 R 528 -318 R 528 -205 R 528 160 R D
0.000 0.000 0.000 setrgbcolor gsave 2119 1919 translate 0 0 M 1.1 dup scale
(ln) show
%%IncludeResource: font Symbol
423.333 /Symbol STDFONT
(L) show
%%IncludeResource: font Helvetica
423.333 /Helvetica STDFONT
(=2.5+ln[m\(0\)/m\(t\)]) show grestore 40 setlinewidth 8800 1408 M 7040 0 R
D 9330 1408 M 0 236 R D gsave 9330 769 translate 0 0 M 1.21 dup scale
-352.04 0 N
(10) show X 192.937 M
%%IncludeResource: font Helvetica
262.467 /Helvetica STDFONT
(-4) show grestore
%%IncludeResource: font Helvetica
423.333 /Helvetica STDFONT 11090 1408 M 0 236 R D
gsave 11090 769 translate 0 0 M 1.21 dup scale -352.04 0 N
(10) show X 192.937 M
%%IncludeResource: font Helvetica
262.467 /Helvetica STDFONT
(-3) show grestore
%%IncludeResource: font Helvetica
423.333 /Helvetica STDFONT 12850 1408 M 0 236 R D
gsave 12850 769 translate 0 0 M 1.21 dup scale -352.04 0 N
(10) show X 192.937 M
%%IncludeResource: font Helvetica
262.467 /Helvetica STDFONT
(-2) show grestore
%%IncludeResource: font Helvetica
423.333 /Helvetica STDFONT 14610 1408 M 0 236 R D
gsave 14610 769 translate 0 0 M 1.21 dup scale -352.04 0 N
(10) show X 192.937 M
%%IncludeResource: font Helvetica
262.467 /Helvetica STDFONT
(-1) show grestore
%%IncludeResource: font Helvetica
423.333 /Helvetica STDFONT 8800 1408 M 0 118 R D 8939 1408 M 0 118 R D
9057 1408 M 0 118 R D 9159 1408 M 0 118 R D 9249 1408 M 0 118 R D
9860 1408 M 0 118 R D 10170 1408 M 0 118 R D 10390 1408 M 0 118 R D
10560 1408 M 0 118 R D 10699 1408 M 0 118 R D 10817 1408 M 0 118 R D
10919 1408 M 0 118 R D 11009 1408 M 0 118 R D 11620 1408 M 0 118 R D
11930 1408 M 0 118 R D 12150 1408 M 0 118 R D 12320 1408 M 0 118 R D
12459 1408 M 0 118 R D 12577 1408 M 0 118 R D 12679 1408 M 0 118 R D
12769 1408 M 0 118 R D 13380 1408 M 0 118 R D 13690 1408 M 0 118 R D
13910 1408 M 0 118 R D 14080 1408 M 0 118 R D 14220 1408 M 0 118 R D
14337 1408 M 0 118 R D 14439 1408 M 0 118 R D 14529 1408 M 0 118 R D
15140 1408 M 0 118 R D 15450 1408 M 0 118 R D 15670 1408 M 0 118 R D
15840 1408 M 0 118 R D 8800 7319 M 7040 0 R D 9330 7319 M 0 -236 R D
11090 7319 M 0 -236 R D 12850 7319 M 0 -236 R D 14610 7319 M 0 -236 R D
8800 7319 M 0 -118 R D 8939 7319 M 0 -118 R D 9057 7319 M 0 -118 R D
9159 7319 M 0 -118 R D 9249 7319 M 0 -118 R D 9860 7319 M 0 -118 R D
10170 7319 M 0 -118 R D 10390 7319 M 0 -118 R D 10560 7319 M 0 -118 R D
10699 7319 M 0 -118 R D 10817 7319 M 0 -118 R D 10919 7319 M 0 -118 R D
11009 7319 M 0 -118 R D 11620 7319 M 0 -118 R D 11930 7319 M 0 -118 R D
12150 7319 M 0 -118 R D 12320 7319 M 0 -118 R D 12459 7319 M 0 -118 R D
12577 7319 M 0 -118 R D 12679 7319 M 0 -118 R D 12769 7319 M 0 -118 R D
13380 7319 M 0 -118 R D 13690 7319 M 0 -118 R D 13910 7319 M 0 -118 R D
14080 7319 M 0 -118 R D 14220 7319 M 0 -118 R D 14337 7319 M 0 -118 R D
14439 7319 M 0 -118 R D 14529 7319 M 0 -118 R D 15140 7319 M 0 -118 R D
15450 7319 M 0 -118 R D 15670 7319 M 0 -118 R D 15840 7319 M 0 -118 R D
8800 1408 M 0 5911 R D 8800 1407 M 282 0 R D gsave 8666 1408 translate 0 0 M
1.21 dup scale -117.687 0 N
( ) show grestore 8800 2692 M 282 0 R D gsave 8666 2522 translate 0 0 M
1.21 dup scale -117.687 0 N
( ) show grestore 8800 3977 M 282 0 R D gsave 8666 3806 translate 0 0 M
1.21 dup scale -117.687 0 N
( ) show grestore 8800 5261 M 282 0 R D gsave 8666 5091 translate 0 0 M
1.21 dup scale -117.687 0 N
( ) show grestore 8800 6546 M 282 0 R D gsave 8666 6375 translate 0 0 M
1.21 dup scale -117.687 0 N
( ) show grestore 8800 1794 M 141 0 R D 8800 2020 M 141 0 R D 8800 2181 M
141 0 R D 8800 2305 M 141 0 R D 8800 2407 M 141 0 R D 8800 2493 M 141 0 R D
8800 2568 M 141 0 R D 8800 2633 M 141 0 R D 8800 3079 M 141 0 R D
8800 3305 M 141 0 R D 8800 3465 M 141 0 R D 8800 3590 M 141 0 R D
8800 3692 M 141 0 R D 8800 3778 M 141 0 R D 8800 3852 M 141 0 R D
8800 3918 M 141 0 R D 8800 4363 M 141 0 R D 8800 4589 M 141 0 R D
8800 4750 M 141 0 R D 8800 4874 M 141 0 R D 8800 4976 M 141 0 R D
8800 5062 M 141 0 R D 8800 5137 M 141 0 R D 8800 5202 M 141 0 R D
8800 5648 M 141 0 R D 8800 5874 M 141 0 R D 8800 6035 M 141 0 R D
8800 6159 M 141 0 R D 8800 6261 M 141 0 R D 8800 6347 M 141 0 R D
8800 6421 M 141 0 R D 8800 6487 M 141 0 R D 8800 6932 M 141 0 R D
8800 7159 M 141 0 R D 8800 7319 M 141 0 R D 15840 1408 M 0 5911 R D
15840 1407 M -281 0 R D 15840 2692 M -281 0 R D 15840 3977 M -281 0 R D
15840 5261 M -281 0 R D 15840 6546 M -281 0 R D 15840 1794 M -141 0 R D
15840 2020 M -141 0 R D 15840 2181 M -141 0 R D 15840 2305 M -141 0 R D
15840 2407 M -141 0 R D 15840 2493 M -141 0 R D 15840 2568 M -141 0 R D
15840 2633 M -141 0 R D 15840 3079 M -141 0 R D 15840 3305 M -141 0 R D
15840 3465 M -141 0 R D 15840 3590 M -141 0 R D 15840 3692 M -141 0 R D
15840 3778 M -141 0 R D 15840 3852 M -141 0 R D 15840 3918 M -141 0 R D
15840 4363 M -141 0 R D 15840 4589 M -141 0 R D 15840 4750 M -141 0 R D
15840 4874 M -141 0 R D 15840 4976 M -141 0 R D 15840 5062 M -141 0 R D
15840 5137 M -141 0 R D 15840 5202 M -141 0 R D 15840 5648 M -141 0 R D
15840 5874 M -141 0 R D 15840 6035 M -141 0 R D 15840 6159 M -141 0 R D
15840 6261 M -141 0 R D 15840 6347 M -141 0 R D 15840 6421 M -141 0 R D
15840 6487 M -141 0 R D 15840 6932 M -141 0 R D 15840 7159 M -141 0 R D
15840 7319 M -141 0 R D L2 9330 5907 M 528 -268 R 528 -293 R 528 -323 R
528 -335 R 528 -313 R 528 -333 R 528 -333 R 528 -285 R 528 -334 R 528 -330 R
D L5 9330 7117 M 642 -375 R 643 -375 R 642 -375 R 643 -375 R 642 -376 R
642 -375 R 643 -375 R 642 -379 R 643 -420 R 642 -936 R D L1 9330 6956 M
642 -372 R 643 -366 R 642 -373 R 643 -339 R 642 -304 R 642 -358 R 643 -328 R
642 -243 R 643 -345 R 642 -651 R D L0 0.000 0.000 1.000 setrgbcolor
9330 6417 M 528 -332 R 528 -314 R 528 -351 R 528 -381 R 528 -338 R
528 -315 R 528 -410 R 528 -412 R 528 -370 R 528 -69 R D 80 setlinewidth
9330 6045 M 528 -301 R 528 -359 R 528 -306 R 528 -405 R 528 -257 R
528 -299 R 528 -432 R 528 -430 R 528 -256 R 528 45 R D 120 setlinewidth
9330 5730 M 528 -306 R 528 -352 R 528 -329 R 528 -271 R 528 -354 R
528 -311 R 528 -334 R 528 -428 R 528 -93 R 528 48 R D
0.000 0.000 0.000 setrgbcolor gsave 9159 1919 translate 0 0 M 1.1 dup scale
(ln) show
%%IncludeResource: font Symbol
423.333 /Symbol STDFONT
(L) show
%%IncludeResource: font Helvetica
423.333 /Helvetica STDFONT
(=ln[M\(t\)/m\(t\)]) show grestore gsave 7200 12420 translate 0 0 M
1.1 dup scale
(M1) show grestore
%%PageTrailer
end
%%PageResources: font Helvetica
%%+ font Symbol
%%Trailer
%%Pages: 1
%%DocumentNeededResources: font Helvetica
%%+ font Symbol
%%EOF
