%!PS-Adobe-3.0 EPSF-3.0
%%BoundingBox: 0 0 510 425
%%Title: Graphics produced by IDL
%%For: jlgan@aida119, /home/jlgan/work/subhalo_model
%%Creator: IDL Version 7.1 (linux x86_64 m64)
%%CreationDate: Tue Aug 18 10:15:52 2009
%%DocumentData: Clean7bit
%%Requirements: color
%%LanguageLevel: 1
%%PageOrder: Ascend
%%Pages: (atend)
%%DocumentNeededResources: (atend)
%%EndComments
%%BeginProlog
%+ prolog.ps -- Prolog for IDL generated PostScript files
%+ Copyright (c) 1988-2009 ITT Visual Information Solutions. All Rights Reserved.
%v 5
/$IDL_DICT 40 dict def $IDL_DICT begin /bdef { bind def } bind def /C
{currentpoint newpath moveto} bdef /CP {currentpoint} bdef /D {currentpoint
stroke moveto} bdef /F {closepath fill} bdef /K { setgray } bdef /M {moveto}
bdef /N {rmoveto} bdef /P {lineto} bdef /R {rlineto} bdef /S {gsave show
grestore} bdef /X {currentpoint pop} bdef /Z {gsave currentpoint lineto 20
setlinewidth 1 setlinecap stroke grestore} bdef /L0 {[] 0 setdash} bdef /L1
{[40 100] 0 setdash} bdef /L2 {[200 200] 0 setdash} bdef /L3 {[200 100 50
100] 0 setdash} bdef /L4 {[300 100 50 100 50 100 50 100] 0 setdash} bdef /L5
{[400 200] 0 setdash} bdef /STDFONT { findfont exch scalefont setfont } bdef
/ISOFONT { findfont dup length dict begin { 1 index /FID ne {def} {pop pop}
ifelse } forall /Encoding ISOLatin1Encoding def currentdict end /idltmpfont
exch definefont exch scalefont setfont } bdef /ISOBULLET { gsave /Helvetica
findfont exch scalefont setfont (\267) show currentpoint grestore moveto}
bdef /MITERLIMIT { 2.5 setmiterlimit } bdef end
%%EndProlog
%%Page: 0 1
%%PageRequirements: color
%%PageResources: (atend)
%%PageOrientation: Portrait
%%PageBoundingBox: 0 0 510 425
%%BeginPageSetup
$IDL_DICT begin 0.0283465 dup scale MITERLIMIT
%%IncludeResource: font Helvetica
423.333 /Helvetica STDFONT
%%EndPageSetup
40 setlinewidth L0 0.000 0.000 0.000 setrgbcolor 2940 8452 M 6117 0 R D
3400 8452 M 0 210 R D gsave 3400 7692 translate 0 0 M 1.44 dup scale
-352.04 0 N
(10) show X 192.937 M
%%IncludeResource: font Helvetica
262.467 /Helvetica STDFONT
(-4) show grestore
%%IncludeResource: font Helvetica
423.333 /Helvetica STDFONT 4930 8452 M 0 210 R D
gsave 4930 7692 translate 0 0 M 1.44 dup scale -352.04 0 N
(10) show X 192.937 M
%%IncludeResource: font Helvetica
262.467 /Helvetica STDFONT
(-3) show grestore
%%IncludeResource: font Helvetica
423.333 /Helvetica STDFONT 6459 8452 M 0 210 R D
gsave 6459 7692 translate 0 0 M 1.44 dup scale -352.04 0 N
(10) show X 192.937 M
%%IncludeResource: font Helvetica
262.467 /Helvetica STDFONT
(-2) show grestore
%%IncludeResource: font Helvetica
423.333 /Helvetica STDFONT 7988 8452 M 0 210 R D
gsave 7988 7692 translate 0 0 M 1.44 dup scale -352.04 0 N
(10) show X 192.937 M
%%IncludeResource: font Helvetica
262.467 /Helvetica STDFONT
(-1) show grestore
%%IncludeResource: font Helvetica
423.333 /Helvetica STDFONT 2940 8452 M 0 105 R D 3061 8452 M 0 105 R D
3164 8452 M 0 105 R D 3252 8452 M 0 105 R D 3330 8452 M 0 105 R D
3861 8452 M 0 105 R D 4130 8452 M 0 105 R D 4321 8452 M 0 105 R D
4469 8452 M 0 105 R D 4590 8452 M 0 105 R D 4693 8452 M 0 105 R D
4781 8452 M 0 105 R D 4860 8452 M 0 105 R D 5390 8452 M 0 105 R D
5659 8452 M 0 105 R D 5850 8452 M 0 105 R D 5999 8452 M 0 105 R D
6120 8452 M 0 105 R D 6222 8452 M 0 105 R D 6311 8452 M 0 105 R D
6389 8452 M 0 105 R D 6919 8452 M 0 105 R D 7189 8452 M 0 105 R D
7380 8452 M 0 105 R D 7528 8452 M 0 105 R D 7649 8452 M 0 105 R D
7751 8452 M 0 105 R D 7840 8452 M 0 105 R D 7918 8452 M 0 105 R D
8449 8452 M 0 105 R D 8718 8452 M 0 105 R D 8909 8452 M 0 105 R D
9057 8452 M 0 105 R D 2940 13696 M 6117 0 R D 3400 13696 M 0 -210 R D
4930 13696 M 0 -210 R D 6459 13696 M 0 -210 R D 7988 13696 M 0 -210 R D
2940 13696 M 0 -105 R D 3061 13696 M 0 -105 R D 3164 13696 M 0 -105 R D
3252 13696 M 0 -105 R D 3330 13696 M 0 -105 R D 3861 13696 M 0 -105 R D
4130 13696 M 0 -105 R D 4321 13696 M 0 -105 R D 4469 13696 M 0 -105 R D
4590 13696 M 0 -105 R D 4693 13696 M 0 -105 R D 4781 13696 M 0 -105 R D
4860 13696 M 0 -105 R D 5390 13696 M 0 -105 R D 5659 13696 M 0 -105 R D
5850 13696 M 0 -105 R D 5999 13696 M 0 -105 R D 6120 13696 M 0 -105 R D
6222 13696 M 0 -105 R D 6311 13696 M 0 -105 R D 6389 13696 M 0 -105 R D
6919 13696 M 0 -105 R D 7189 13696 M 0 -105 R D 7380 13696 M 0 -105 R D
7528 13696 M 0 -105 R D 7649 13696 M 0 -105 R D 7751 13696 M 0 -105 R D
7840 13696 M 0 -105 R D 7918 13696 M 0 -105 R D 8449 13696 M 0 -105 R D
8718 13696 M 0 -105 R D 8909 13696 M 0 -105 R D 9057 13696 M 0 -105 R D
2940 8452 M 0 5244 R D 2940 8452 M 245 0 R D gsave 2780 8452 translate 0 0 M
1.44 dup scale -704.08 0 N
(10) show X 192.937 M
%%IncludeResource: font Helvetica
262.467 /Helvetica STDFONT
(-2) show grestore
%%IncludeResource: font Helvetica
423.333 /Helvetica STDFONT 2940 9591 M 245 0 R D
gsave 2780 9388 translate 0 0 M 1.44 dup scale -704.08 0 N
(10) show X 192.937 M
%%IncludeResource: font Helvetica
262.467 /Helvetica STDFONT
(-1) show grestore
%%IncludeResource: font Helvetica
423.333 /Helvetica STDFONT 2940 10731 M 245 0 R D
gsave 2780 10528 translate 0 0 M 1.44 dup scale -235.373 0 N
(1) show grestore 2940 11870 M 245 0 R D gsave 2780 11668 translate 0 0 M
1.44 dup scale -470.747 0 N
(10) show grestore 2940 13010 M 245 0 R D gsave 2780 12807 translate 0 0 M
1.44 dup scale -616.678 0 N
(10) show X 192.937 M
%%IncludeResource: font Helvetica
262.467 /Helvetica STDFONT
(2) show grestore
%%IncludeResource: font Helvetica
423.333 /Helvetica STDFONT 2940 8795 M 122 0 R D 2940 8995 M 122 0 R D
2940 9138 M 122 0 R D 2940 9248 M 122 0 R D 2940 9338 M 122 0 R D
2940 9415 M 122 0 R D 2940 9481 M 122 0 R D 2940 9539 M 122 0 R D
2940 9934 M 122 0 R D 2940 10135 M 122 0 R D 2940 10277 M 122 0 R D
2940 10388 M 122 0 R D 2940 10478 M 122 0 R D 2940 10554 M 122 0 R D
2940 10620 M 122 0 R D 2940 10679 M 122 0 R D 2940 11074 M 122 0 R D
2940 11275 M 122 0 R D 2940 11417 M 122 0 R D 2940 11527 M 122 0 R D
2940 11618 M 122 0 R D 2940 11694 M 122 0 R D 2940 11760 M 122 0 R D
2940 11818 M 122 0 R D 2940 12213 M 122 0 R D 2940 12414 M 122 0 R D
2940 12556 M 122 0 R D 2940 12667 M 122 0 R D 2940 12757 M 122 0 R D
2940 12833 M 122 0 R D 2940 12900 M 122 0 R D 2940 12958 M 122 0 R D
2940 13353 M 122 0 R D 2940 13554 M 122 0 R D 2940 13696 M 122 0 R D
9057 8452 M 0 5244 R D 9057 8452 M -245 0 R D 9057 9591 M -245 0 R D
9057 10731 M -245 0 R D 9057 11870 M -245 0 R D 9057 13010 M -245 0 R D
9057 8795 M -122 0 R D 9057 8995 M -122 0 R D 9057 9138 M -122 0 R D
9057 9248 M -122 0 R D 9057 9338 M -122 0 R D 9057 9415 M -122 0 R D
9057 9481 M -122 0 R D 9057 9539 M -122 0 R D 9057 9934 M -122 0 R D
9057 10135 M -122 0 R D 9057 10277 M -122 0 R D 9057 10388 M -122 0 R D
9057 10478 M -122 0 R D 9057 10554 M -122 0 R D 9057 10620 M -122 0 R D
9057 10679 M -122 0 R D 9057 11074 M -122 0 R D 9057 11275 M -122 0 R D
9057 11417 M -122 0 R D 9057 11527 M -122 0 R D 9057 11618 M -122 0 R D
9057 11694 M -122 0 R D 9057 11760 M -122 0 R D 9057 11818 M -122 0 R D
9057 12213 M -122 0 R D 9057 12414 M -122 0 R D 9057 12556 M -122 0 R D
9057 12667 M -122 0 R D 9057 12757 M -122 0 R D 9057 12833 M -122 0 R D
9057 12900 M -122 0 R D 9057 12958 M -122 0 R D 9057 13353 M -122 0 R D
9057 13554 M -122 0 R D 9057 13696 M -122 0 R D L2 3400 12444 M 459 -239 R
459 -259 R 459 -287 R 459 -297 R 458 -278 R 459 -295 R 459 -296 R 459 -252 R
458 -297 R 459 -293 R D L1 3174 13329 M 581 -141 R 581 -348 R 581 -331 R
580 -335 R 581 -273 R 581 -349 R 581 -286 R 581 -255 R 580 -280 R 581 -600 R
D L0 0.506 0.000 0.000 setrgbcolor 3400 12904 M 459 -284 R 459 -276 R
459 -298 R 459 -310 R 458 -309 R 459 -303 R 459 -321 R 459 -355 R 458 -411 R
459 -172 R D 1.000 0.349 0.000 setrgbcolor 3400 12572 M 459 -259 R
459 -311 R 459 -272 R 459 -343 R 458 -276 R 459 -183 R 459 -432 R 459 -355 R
458 -320 R 459 44 R D 0.000 0.549 0.000 setrgbcolor 3400 12286 M 459 -264 R
459 -294 R 459 -289 R 459 -271 R 458 -249 R 459 -310 R 459 -308 R 459 -436 R
458 -44 R 459 44 R D 0.000 0.000 0.000 setrgbcolor 10497 8452 M 6117 0 R D
10957 8452 M 0 210 R D gsave 10957 7692 translate 0 0 M 1.44 dup scale
-352.04 0 N
(10) show X 192.937 M
%%IncludeResource: font Helvetica
262.467 /Helvetica STDFONT
(-4) show grestore
%%IncludeResource: font Helvetica
423.333 /Helvetica STDFONT 12487 8452 M 0 210 R D
gsave 12487 7692 translate 0 0 M 1.44 dup scale -352.04 0 N
(10) show X 192.937 M
%%IncludeResource: font Helvetica
262.467 /Helvetica STDFONT
(-3) show grestore
%%IncludeResource: font Helvetica
423.333 /Helvetica STDFONT 14016 8452 M 0 210 R D
gsave 14016 7692 translate 0 0 M 1.44 dup scale -352.04 0 N
(10) show X 192.937 M
%%IncludeResource: font Helvetica
262.467 /Helvetica STDFONT
(-2) show grestore
%%IncludeResource: font Helvetica
423.333 /Helvetica STDFONT 15545 8452 M 0 210 R D
gsave 15545 7692 translate 0 0 M 1.44 dup scale -352.04 0 N
(10) show X 192.937 M
%%IncludeResource: font Helvetica
262.467 /Helvetica STDFONT
(-1) show grestore
%%IncludeResource: font Helvetica
423.333 /Helvetica STDFONT 10497 8452 M 0 105 R D 10618 8452 M 0 105 R D
10721 8452 M 0 105 R D 10809 8452 M 0 105 R D 10887 8452 M 0 105 R D
11418 8452 M 0 105 R D 11687 8452 M 0 105 R D 11878 8452 M 0 105 R D
12026 8452 M 0 105 R D 12147 8452 M 0 105 R D 12250 8452 M 0 105 R D
12338 8452 M 0 105 R D 12417 8452 M 0 105 R D 12947 8452 M 0 105 R D
13216 8452 M 0 105 R D 13407 8452 M 0 105 R D 13556 8452 M 0 105 R D
13677 8452 M 0 105 R D 13779 8452 M 0 105 R D 13868 8452 M 0 105 R D
13946 8452 M 0 105 R D 14476 8452 M 0 105 R D 14746 8452 M 0 105 R D
14937 8452 M 0 105 R D 15085 8452 M 0 105 R D 15206 8452 M 0 105 R D
15308 8452 M 0 105 R D 15397 8452 M 0 105 R D 15475 8452 M 0 105 R D
16006 8452 M 0 105 R D 16275 8452 M 0 105 R D 16466 8452 M 0 105 R D
16614 8452 M 0 105 R D 10497 13696 M 6117 0 R D 10957 13696 M 0 -210 R D
12487 13696 M 0 -210 R D 14016 13696 M 0 -210 R D 15545 13696 M 0 -210 R D
10497 13696 M 0 -105 R D 10618 13696 M 0 -105 R D 10721 13696 M 0 -105 R D
10809 13696 M 0 -105 R D 10887 13696 M 0 -105 R D 11418 13696 M 0 -105 R D
11687 13696 M 0 -105 R D 11878 13696 M 0 -105 R D 12026 13696 M 0 -105 R D
12147 13696 M 0 -105 R D 12250 13696 M 0 -105 R D 12338 13696 M 0 -105 R D
12417 13696 M 0 -105 R D 12947 13696 M 0 -105 R D 13216 13696 M 0 -105 R D
13407 13696 M 0 -105 R D 13556 13696 M 0 -105 R D 13677 13696 M 0 -105 R D
13779 13696 M 0 -105 R D 13868 13696 M 0 -105 R D 13946 13696 M 0 -105 R D
14476 13696 M 0 -105 R D 14746 13696 M 0 -105 R D 14937 13696 M 0 -105 R D
15085 13696 M 0 -105 R D 15206 13696 M 0 -105 R D 15308 13696 M 0 -105 R D
15397 13696 M 0 -105 R D 15475 13696 M 0 -105 R D 16006 13696 M 0 -105 R D
16275 13696 M 0 -105 R D 16466 13696 M 0 -105 R D 16614 13696 M 0 -105 R D
10497 8452 M 0 5244 R D 10497 8452 M 245 0 R D
gsave 10337 8452 translate 0 0 M 1.44 dup scale -704.08 0 N
(10) show X 192.937 M
%%IncludeResource: font Helvetica
262.467 /Helvetica STDFONT
(-2) show grestore
%%IncludeResource: font Helvetica
423.333 /Helvetica STDFONT 10497 9591 M 245 0 R D
gsave 10337 9388 translate 0 0 M 1.44 dup scale -704.08 0 N
(10) show X 192.937 M
%%IncludeResource: font Helvetica
262.467 /Helvetica STDFONT
(-1) show grestore
%%IncludeResource: font Helvetica
423.333 /Helvetica STDFONT 10497 10731 M 245 0 R D
gsave 10337 10528 translate 0 0 M 1.44 dup scale -235.373 0 N
(1) show grestore 10497 11870 M 245 0 R D gsave 10337 11668 translate 0 0 M
1.44 dup scale -470.747 0 N
(10) show grestore 10497 13010 M 245 0 R D gsave 10337 12807 translate 0 0 M
1.44 dup scale -616.678 0 N
(10) show X 192.937 M
%%IncludeResource: font Helvetica
262.467 /Helvetica STDFONT
(2) show grestore
%%IncludeResource: font Helvetica
423.333 /Helvetica STDFONT 10497 8795 M 122 0 R D 10497 8995 M 122 0 R D
10497 9138 M 122 0 R D 10497 9248 M 122 0 R D 10497 9338 M 122 0 R D
10497 9415 M 122 0 R D 10497 9481 M 122 0 R D 10497 9539 M 122 0 R D
10497 9934 M 122 0 R D 10497 10135 M 122 0 R D 10497 10277 M 122 0 R D
10497 10388 M 122 0 R D 10497 10478 M 122 0 R D 10497 10554 M 122 0 R D
10497 10620 M 122 0 R D 10497 10679 M 122 0 R D 10497 11074 M 122 0 R D
10497 11275 M 122 0 R D 10497 11417 M 122 0 R D 10497 11527 M 122 0 R D
10497 11618 M 122 0 R D 10497 11694 M 122 0 R D 10497 11760 M 122 0 R D
10497 11818 M 122 0 R D 10497 12213 M 122 0 R D 10497 12414 M 122 0 R D
10497 12556 M 122 0 R D 10497 12667 M 122 0 R D 10497 12757 M 122 0 R D
10497 12833 M 122 0 R D 10497 12900 M 122 0 R D 10497 12958 M 122 0 R D
10497 13353 M 122 0 R D 10497 13554 M 122 0 R D 10497 13696 M 122 0 R D
16614 8452 M 0 5244 R D 16614 8452 M -245 0 R D 16614 9591 M -245 0 R D
16614 10731 M -245 0 R D 16614 11870 M -245 0 R D 16614 13010 M -245 0 R D
16614 8795 M -122 0 R D 16614 8995 M -122 0 R D 16614 9138 M -122 0 R D
16614 9248 M -122 0 R D 16614 9338 M -122 0 R D 16614 9415 M -122 0 R D
16614 9481 M -122 0 R D 16614 9539 M -122 0 R D 16614 9934 M -122 0 R D
16614 10135 M -122 0 R D 16614 10277 M -122 0 R D 16614 10388 M -122 0 R D
16614 10478 M -122 0 R D 16614 10554 M -122 0 R D 16614 10620 M -122 0 R D
16614 10679 M -122 0 R D 16614 11074 M -122 0 R D 16614 11275 M -122 0 R D
16614 11417 M -122 0 R D 16614 11527 M -122 0 R D 16614 11618 M -122 0 R D
16614 11694 M -122 0 R D 16614 11760 M -122 0 R D 16614 11818 M -122 0 R D
16614 12213 M -122 0 R D 16614 12414 M -122 0 R D 16614 12556 M -122 0 R D
16614 12667 M -122 0 R D 16614 12757 M -122 0 R D 16614 12833 M -122 0 R D
16614 12900 M -122 0 R D 16614 12958 M -122 0 R D 16614 13353 M -122 0 R D
16614 13554 M -122 0 R D 16614 13696 M -122 0 R D L2 10957 12444 M
459 -239 R 459 -259 R 459 -287 R 459 -297 R 458 -278 R 459 -295 R 459 -296 R
459 -252 R 458 -297 R 459 -293 R D L1 10731 13329 M 581 -141 R 581 -348 R
581 -331 R 580 -335 R 581 -273 R 581 -349 R 581 -286 R 581 -255 R 580 -280 R
581 -600 R D L0 0.506 0.000 0.000 setrgbcolor 10957 12885 M 459 -292 R
459 -280 R 459 -305 R 459 -340 R 458 -277 R 459 -280 R 459 -374 R 459 -289 R
458 -331 R 459 -176 R D 1.000 0.349 0.000 setrgbcolor 10957 12571 M
459 -272 R 459 -324 R 459 -281 R 459 -313 R 458 -273 R 459 -298 R 459 -314 R
459 -431 R 458 -161 R 459 0 R D 0.000 0.549 0.000 setrgbcolor 10957 12291 M
459 -272 R 459 -320 R 459 -270 R 459 -298 R 458 -264 R 459 -296 R 459 -343 R
459 -363 R 458 -91 R 459 91 R D 0.000 0.000 0.000 setrgbcolor 2940 2008 M
6117 0 R D 3400 2008 M 0 210 R D gsave 3400 1248 translate 0 0 M
1.44 dup scale -352.04 0 N
(10) show X 192.937 M
%%IncludeResource: font Helvetica
262.467 /Helvetica STDFONT
(-4) show grestore
%%IncludeResource: font Helvetica
423.333 /Helvetica STDFONT 4930 2008 M 0 210 R D
gsave 4930 1248 translate 0 0 M 1.44 dup scale -352.04 0 N
(10) show X 192.937 M
%%IncludeResource: font Helvetica
262.467 /Helvetica STDFONT
(-3) show grestore
%%IncludeResource: font Helvetica
423.333 /Helvetica STDFONT 6459 2008 M 0 210 R D
gsave 6459 1248 translate 0 0 M 1.44 dup scale -352.04 0 N
(10) show X 192.937 M
%%IncludeResource: font Helvetica
262.467 /Helvetica STDFONT
(-2) show grestore
%%IncludeResource: font Helvetica
423.333 /Helvetica STDFONT 7988 2008 M 0 210 R D
gsave 7988 1248 translate 0 0 M 1.44 dup scale -352.04 0 N
(10) show X 192.937 M
%%IncludeResource: font Helvetica
262.467 /Helvetica STDFONT
(-1) show grestore
%%IncludeResource: font Helvetica
423.333 /Helvetica STDFONT 2940 2008 M 0 105 R D 3061 2008 M 0 105 R D
3164 2008 M 0 105 R D 3252 2008 M 0 105 R D 3330 2008 M 0 105 R D
3861 2008 M 0 105 R D 4130 2008 M 0 105 R D 4321 2008 M 0 105 R D
4469 2008 M 0 105 R D 4590 2008 M 0 105 R D 4693 2008 M 0 105 R D
4781 2008 M 0 105 R D 4860 2008 M 0 105 R D 5390 2008 M 0 105 R D
5659 2008 M 0 105 R D 5850 2008 M 0 105 R D 5999 2008 M 0 105 R D
6120 2008 M 0 105 R D 6222 2008 M 0 105 R D 6311 2008 M 0 105 R D
6389 2008 M 0 105 R D 6919 2008 M 0 105 R D 7189 2008 M 0 105 R D
7380 2008 M 0 105 R D 7528 2008 M 0 105 R D 7649 2008 M 0 105 R D
7751 2008 M 0 105 R D 7840 2008 M 0 105 R D 7918 2008 M 0 105 R D
8449 2008 M 0 105 R D 8718 2008 M 0 105 R D 8909 2008 M 0 105 R D
9057 2008 M 0 105 R D 2940 7252 M 6117 0 R D 3400 7252 M 0 -210 R D
4930 7252 M 0 -210 R D 6459 7252 M 0 -210 R D 7988 7252 M 0 -210 R D
2940 7252 M 0 -105 R D 3061 7252 M 0 -105 R D 3164 7252 M 0 -105 R D
3252 7252 M 0 -105 R D 3330 7252 M 0 -105 R D 3861 7252 M 0 -105 R D
4130 7252 M 0 -105 R D 4321 7252 M 0 -105 R D 4469 7252 M 0 -105 R D
4590 7252 M 0 -105 R D 4693 7252 M 0 -105 R D 4781 7252 M 0 -105 R D
4860 7252 M 0 -105 R D 5390 7252 M 0 -105 R D 5659 7252 M 0 -105 R D
5850 7252 M 0 -105 R D 5999 7252 M 0 -105 R D 6120 7252 M 0 -105 R D
6222 7252 M 0 -105 R D 6311 7252 M 0 -105 R D 6389 7252 M 0 -105 R D
6919 7252 M 0 -105 R D 7189 7252 M 0 -105 R D 7380 7252 M 0 -105 R D
7528 7252 M 0 -105 R D 7649 7252 M 0 -105 R D 7751 7252 M 0 -105 R D
7840 7252 M 0 -105 R D 7918 7252 M 0 -105 R D 8449 7252 M 0 -105 R D
8718 7252 M 0 -105 R D 8909 7252 M 0 -105 R D 9057 7252 M 0 -105 R D
2940 2008 M 0 5244 R D 2940 2008 M 245 0 R D gsave 2780 2008 translate 0 0 M
1.44 dup scale -704.08 0 N
(10) show X 192.937 M
%%IncludeResource: font Helvetica
262.467 /Helvetica STDFONT
(-2) show grestore
%%IncludeResource: font Helvetica
423.333 /Helvetica STDFONT 2940 3147 M 245 0 R D
gsave 2780 2944 translate 0 0 M 1.44 dup scale -704.08 0 N
(10) show X 192.937 M
%%IncludeResource: font Helvetica
262.467 /Helvetica STDFONT
(-1) show grestore
%%IncludeResource: font Helvetica
423.333 /Helvetica STDFONT 2940 4287 M 245 0 R D
gsave 2780 4084 translate 0 0 M 1.44 dup scale -235.373 0 N
(1) show grestore 2940 5426 M 245 0 R D gsave 2780 5224 translate 0 0 M
1.44 dup scale -470.747 0 N
(10) show grestore 2940 6566 M 245 0 R D gsave 2780 6363 translate 0 0 M
1.44 dup scale -616.678 0 N
(10) show X 192.937 M
%%IncludeResource: font Helvetica
262.467 /Helvetica STDFONT
(2) show grestore
%%IncludeResource: font Helvetica
423.333 /Helvetica STDFONT 2940 2351 M 122 0 R D 2940 2551 M 122 0 R D
2940 2694 M 122 0 R D 2940 2804 M 122 0 R D 2940 2894 M 122 0 R D
2940 2971 M 122 0 R D 2940 3037 M 122 0 R D 2940 3095 M 122 0 R D
2940 3490 M 122 0 R D 2940 3691 M 122 0 R D 2940 3833 M 122 0 R D
2940 3944 M 122 0 R D 2940 4034 M 122 0 R D 2940 4110 M 122 0 R D
2940 4176 M 122 0 R D 2940 4235 M 122 0 R D 2940 4630 M 122 0 R D
2940 4831 M 122 0 R D 2940 4973 M 122 0 R D 2940 5083 M 122 0 R D
2940 5174 M 122 0 R D 2940 5250 M 122 0 R D 2940 5316 M 122 0 R D
2940 5374 M 122 0 R D 2940 5769 M 122 0 R D 2940 5970 M 122 0 R D
2940 6112 M 122 0 R D 2940 6223 M 122 0 R D 2940 6313 M 122 0 R D
2940 6389 M 122 0 R D 2940 6456 M 122 0 R D 2940 6514 M 122 0 R D
2940 6909 M 122 0 R D 2940 7110 M 122 0 R D 2940 7252 M 122 0 R D
9057 2008 M 0 5244 R D 9057 2008 M -245 0 R D 9057 3147 M -245 0 R D
9057 4287 M -245 0 R D 9057 5426 M -245 0 R D 9057 6566 M -245 0 R D
9057 2351 M -122 0 R D 9057 2551 M -122 0 R D 9057 2694 M -122 0 R D
9057 2804 M -122 0 R D 9057 2894 M -122 0 R D 9057 2971 M -122 0 R D
9057 3037 M -122 0 R D 9057 3095 M -122 0 R D 9057 3490 M -122 0 R D
9057 3691 M -122 0 R D 9057 3833 M -122 0 R D 9057 3944 M -122 0 R D
9057 4034 M -122 0 R D 9057 4110 M -122 0 R D 9057 4176 M -122 0 R D
9057 4235 M -122 0 R D 9057 4630 M -122 0 R D 9057 4831 M -122 0 R D
9057 4973 M -122 0 R D 9057 5083 M -122 0 R D 9057 5174 M -122 0 R D
9057 5250 M -122 0 R D 9057 5316 M -122 0 R D 9057 5374 M -122 0 R D
9057 5769 M -122 0 R D 9057 5970 M -122 0 R D 9057 6112 M -122 0 R D
9057 6223 M -122 0 R D 9057 6313 M -122 0 R D 9057 6389 M -122 0 R D
9057 6456 M -122 0 R D 9057 6514 M -122 0 R D 9057 6909 M -122 0 R D
9057 7110 M -122 0 R D 9057 7252 M -122 0 R D L2 3400 6000 M 459 -239 R
459 -259 R 459 -287 R 459 -297 R 458 -278 R 459 -295 R 459 -296 R 459 -252 R
458 -297 R 459 -293 R D L1 3174 6885 M 581 -141 R 581 -348 R 581 -331 R
580 -335 R 581 -273 R 581 -349 R 581 -286 R 581 -255 R 580 -280 R 581 -600 R
D L0 0.506 0.000 0.000 setrgbcolor 3400 6446 M 459 -289 R 459 -281 R
459 -307 R 459 -345 R 458 -281 R 459 -300 R 459 -350 R 459 -343 R 458 -357 R
459 -30 R D 1.000 0.349 0.000 setrgbcolor 3400 6124 M 459 -270 R 459 -315 R
459 -281 R 459 -341 R 458 -260 R 459 -239 R 459 -389 R 459 -356 R 458 -252 R
459 0 R D 0.000 0.549 0.000 setrgbcolor 3400 5830 M 459 -266 R 459 -327 R
459 -240 R 459 -285 R 458 -289 R 459 -286 R 459 -280 R 459 -294 R 458 -186 R
459 -99 R D 0.000 0.000 0.000 setrgbcolor 10497 2008 M 6117 0 R D
10957 2008 M 0 210 R D gsave 10957 1248 translate 0 0 M 1.44 dup scale
-352.04 0 N
(10) show X 192.937 M
%%IncludeResource: font Helvetica
262.467 /Helvetica STDFONT
(-4) show grestore
%%IncludeResource: font Helvetica
423.333 /Helvetica STDFONT 12487 2008 M 0 210 R D
gsave 12487 1248 translate 0 0 M 1.44 dup scale -352.04 0 N
(10) show X 192.937 M
%%IncludeResource: font Helvetica
262.467 /Helvetica STDFONT
(-3) show grestore
%%IncludeResource: font Helvetica
423.333 /Helvetica STDFONT 14016 2008 M 0 210 R D
gsave 14016 1248 translate 0 0 M 1.44 dup scale -352.04 0 N
(10) show X 192.937 M
%%IncludeResource: font Helvetica
262.467 /Helvetica STDFONT
(-2) show grestore
%%IncludeResource: font Helvetica
423.333 /Helvetica STDFONT 15545 2008 M 0 210 R D
gsave 15545 1248 translate 0 0 M 1.44 dup scale -352.04 0 N
(10) show X 192.937 M
%%IncludeResource: font Helvetica
262.467 /Helvetica STDFONT
(-1) show grestore
%%IncludeResource: font Helvetica
423.333 /Helvetica STDFONT 10497 2008 M 0 105 R D 10618 2008 M 0 105 R D
10721 2008 M 0 105 R D 10809 2008 M 0 105 R D 10887 2008 M 0 105 R D
11418 2008 M 0 105 R D 11687 2008 M 0 105 R D 11878 2008 M 0 105 R D
12026 2008 M 0 105 R D 12147 2008 M 0 105 R D 12250 2008 M 0 105 R D
12338 2008 M 0 105 R D 12417 2008 M 0 105 R D 12947 2008 M 0 105 R D
13216 2008 M 0 105 R D 13407 2008 M 0 105 R D 13556 2008 M 0 105 R D
13677 2008 M 0 105 R D 13779 2008 M 0 105 R D 13868 2008 M 0 105 R D
13946 2008 M 0 105 R D 14476 2008 M 0 105 R D 14746 2008 M 0 105 R D
14937 2008 M 0 105 R D 15085 2008 M 0 105 R D 15206 2008 M 0 105 R D
15308 2008 M 0 105 R D 15397 2008 M 0 105 R D 15475 2008 M 0 105 R D
16006 2008 M 0 105 R D 16275 2008 M 0 105 R D 16466 2008 M 0 105 R D
16614 2008 M 0 105 R D 10497 7252 M 6117 0 R D 10957 7252 M 0 -210 R D
12487 7252 M 0 -210 R D 14016 7252 M 0 -210 R D 15545 7252 M 0 -210 R D
10497 7252 M 0 -105 R D 10618 7252 M 0 -105 R D 10721 7252 M 0 -105 R D
10809 7252 M 0 -105 R D 10887 7252 M 0 -105 R D 11418 7252 M 0 -105 R D
11687 7252 M 0 -105 R D 11878 7252 M 0 -105 R D 12026 7252 M 0 -105 R D
12147 7252 M 0 -105 R D 12250 7252 M 0 -105 R D 12338 7252 M 0 -105 R D
12417 7252 M 0 -105 R D 12947 7252 M 0 -105 R D 13216 7252 M 0 -105 R D
13407 7252 M 0 -105 R D 13556 7252 M 0 -105 R D 13677 7252 M 0 -105 R D
13779 7252 M 0 -105 R D 13868 7252 M 0 -105 R D 13946 7252 M 0 -105 R D
14476 7252 M 0 -105 R D 14746 7252 M 0 -105 R D 14937 7252 M 0 -105 R D
15085 7252 M 0 -105 R D 15206 7252 M 0 -105 R D 15308 7252 M 0 -105 R D
15397 7252 M 0 -105 R D 15475 7252 M 0 -105 R D 16006 7252 M 0 -105 R D
16275 7252 M 0 -105 R D 16466 7252 M 0 -105 R D 16614 7252 M 0 -105 R D
10497 2008 M 0 5244 R D 10497 2008 M 245 0 R D
gsave 10337 2008 translate 0 0 M 1.44 dup scale -704.08 0 N
(10) show X 192.937 M
%%IncludeResource: font Helvetica
262.467 /Helvetica STDFONT
(-2) show grestore
%%IncludeResource: font Helvetica
423.333 /Helvetica STDFONT 10497 3147 M 245 0 R D
gsave 10337 2944 translate 0 0 M 1.44 dup scale -704.08 0 N
(10) show X 192.937 M
%%IncludeResource: font Helvetica
262.467 /Helvetica STDFONT
(-1) show grestore
%%IncludeResource: font Helvetica
423.333 /Helvetica STDFONT 10497 4287 M 245 0 R D
gsave 10337 4084 translate 0 0 M 1.44 dup scale -235.373 0 N
(1) show grestore 10497 5426 M 245 0 R D gsave 10337 5224 translate 0 0 M
1.44 dup scale -470.747 0 N
(10) show grestore 10497 6566 M 245 0 R D gsave 10337 6363 translate 0 0 M
1.44 dup scale -616.678 0 N
(10) show X 192.937 M
%%IncludeResource: font Helvetica
262.467 /Helvetica STDFONT
(2) show grestore
%%IncludeResource: font Helvetica
423.333 /Helvetica STDFONT 10497 2351 M 122 0 R D 10497 2551 M 122 0 R D
10497 2694 M 122 0 R D 10497 2804 M 122 0 R D 10497 2894 M 122 0 R D
10497 2971 M 122 0 R D 10497 3037 M 122 0 R D 10497 3095 M 122 0 R D
10497 3490 M 122 0 R D 10497 3691 M 122 0 R D 10497 3833 M 122 0 R D
10497 3944 M 122 0 R D 10497 4034 M 122 0 R D 10497 4110 M 122 0 R D
10497 4176 M 122 0 R D 10497 4235 M 122 0 R D 10497 4630 M 122 0 R D
10497 4831 M 122 0 R D 10497 4973 M 122 0 R D 10497 5083 M 122 0 R D
10497 5174 M 122 0 R D 10497 5250 M 122 0 R D 10497 5316 M 122 0 R D
10497 5374 M 122 0 R D 10497 5769 M 122 0 R D 10497 5970 M 122 0 R D
10497 6112 M 122 0 R D 10497 6223 M 122 0 R D 10497 6313 M 122 0 R D
10497 6389 M 122 0 R D 10497 6456 M 122 0 R D 10497 6514 M 122 0 R D
10497 6909 M 122 0 R D 10497 7110 M 122 0 R D 10497 7252 M 122 0 R D
16614 2008 M 0 5244 R D 16614 2008 M -245 0 R D 16614 3147 M -245 0 R D
16614 4287 M -245 0 R D 16614 5426 M -245 0 R D 16614 6566 M -245 0 R D
16614 2351 M -122 0 R D 16614 2551 M -122 0 R D 16614 2694 M -122 0 R D
16614 2804 M -122 0 R D 16614 2894 M -122 0 R D 16614 2971 M -122 0 R D
16614 3037 M -122 0 R D 16614 3095 M -122 0 R D 16614 3490 M -122 0 R D
16614 3691 M -122 0 R D 16614 3833 M -122 0 R D 16614 3944 M -122 0 R D
16614 4034 M -122 0 R D 16614 4110 M -122 0 R D 16614 4176 M -122 0 R D
16614 4235 M -122 0 R D 16614 4630 M -122 0 R D 16614 4831 M -122 0 R D
16614 4973 M -122 0 R D 16614 5083 M -122 0 R D 16614 5174 M -122 0 R D
16614 5250 M -122 0 R D 16614 5316 M -122 0 R D 16614 5374 M -122 0 R D
16614 5769 M -122 0 R D 16614 5970 M -122 0 R D 16614 6112 M -122 0 R D
16614 6223 M -122 0 R D 16614 6313 M -122 0 R D 16614 6389 M -122 0 R D
16614 6456 M -122 0 R D 16614 6514 M -122 0 R D 16614 6909 M -122 0 R D
16614 7110 M -122 0 R D 16614 7252 M -122 0 R D L2 10957 6000 M 459 -239 R
459 -259 R 459 -287 R 459 -297 R 458 -278 R 459 -295 R 459 -296 R 459 -252 R
458 -297 R 459 -293 R D L1 10731 6885 M 581 -141 R 581 -348 R 581 -331 R
580 -335 R 581 -273 R 581 -349 R 581 -286 R 581 -255 R 580 -280 R 581 -600 R
D L0 0.506 0.000 0.000 setrgbcolor 10957 6337 M 459 -270 R 459 -328 R
459 -340 R 459 -380 R 458 -345 R 459 -449 R 459 -368 R 459 -436 R 458 -143 R
459 52 R D 1.000 0.349 0.000 setrgbcolor 10957 6087 M 459 -250 R 459 -317 R
459 -277 R 459 -367 R 458 -447 R 459 -343 R 459 -283 R 459 -525 R 458 99 R
459 -157 R D 0.000 0.549 0.000 setrgbcolor 10957 5902 M 459 -253 R
459 -290 R 459 -243 R 459 -378 R 458 -438 R 459 -336 R 459 -244 R 459 -390 R
458 130 R 459 -383 R D
%%PageTrailer
end
%%PageResources: font Helvetica
%%Trailer
%%Pages: 1
%%DocumentNeededResources: font Helvetica
%%EOF
