%!PS-Adobe-3.0 EPSF-3.0
%%BoundingBox: 0 0 510 425
%%Title: Graphics produced by IDL
%%For: jlgan@aida119, /home/jlgan/work/subhalo_model
%%Creator: IDL Version 7.1 (linux x86_64 m64)
%%CreationDate: Tue Aug 18 11:13:54 2009
%%DocumentData: Clean7bit
%%Requirements: color
%%LanguageLevel: 1
%%PageOrder: Ascend
%%Pages: (atend)
%%DocumentNeededResources: (atend)
%%EndComments
%%BeginProlog
%+ prolog.ps -- Prolog for IDL generated PostScript files
%+ Copyright (c) 1988-2009 ITT Visual Information Solutions. All Rights Reserved.
%v 5
/$IDL_DICT 40 dict def $IDL_DICT begin /bdef { bind def } bind def /C
{currentpoint newpath moveto} bdef /CP {currentpoint} bdef /D {currentpoint
stroke moveto} bdef /F {closepath fill} bdef /K { setgray } bdef /M {moveto}
bdef /N {rmoveto} bdef /P {lineto} bdef /R {rlineto} bdef /S {gsave show
grestore} bdef /X {currentpoint pop} bdef /Z {gsave currentpoint lineto 20
setlinewidth 1 setlinecap stroke grestore} bdef /L0 {[] 0 setdash} bdef /L1
{[40 100] 0 setdash} bdef /L2 {[200 200] 0 setdash} bdef /L3 {[200 100 50
100] 0 setdash} bdef /L4 {[300 100 50 100 50 100 50 100] 0 setdash} bdef /L5
{[400 200] 0 setdash} bdef /STDFONT { findfont exch scalefont setfont } bdef
/ISOFONT { findfont dup length dict begin { 1 index /FID ne {def} {pop pop}
ifelse } forall /Encoding ISOLatin1Encoding def currentdict end /idltmpfont
exch definefont exch scalefont setfont } bdef /ISOBULLET { gsave /Helvetica
findfont exch scalefont setfont (\267) show currentpoint grestore moveto}
bdef /MITERLIMIT { 2.5 setmiterlimit } bdef end
%%EndProlog
%%Page: 0 1
%%PageRequirements: color
%%PageResources: (atend)
%%PageOrientation: Portrait
%%PageBoundingBox: 0 0 510 425
%%BeginPageSetup
$IDL_DICT begin 0.0283465 dup scale MITERLIMIT
%%IncludeResource: font Helvetica
423.333 /Helvetica STDFONT
%%EndPageSetup
0.000 0.000 0.000 setrgbcolor gsave 9777 802 translate 0 0 M 1.2 dup scale
-411.48 0 N
(m/M) show grestore gsave 1428 7852 translate 0 0 M 90 rotate 1.2 dup scale
-1164.17 0 N
(dN/dln\(m/M\)) show grestore 40 setlinewidth L0 2760 8302 M 6477 0 R D
3248 8302 M 0 222 R D gsave 3248 7663 translate 0 0 M 1.21 dup scale
-352.04 0 N
(10) show X 192.937 M
%%IncludeResource: font Helvetica
262.467 /Helvetica STDFONT
(-4) show grestore
%%IncludeResource: font Helvetica
423.333 /Helvetica STDFONT 4867 8302 M 0 222 R D
gsave 4867 7663 translate 0 0 M 1.21 dup scale -352.04 0 N
(10) show X 192.937 M
%%IncludeResource: font Helvetica
262.467 /Helvetica STDFONT
(-3) show grestore
%%IncludeResource: font Helvetica
423.333 /Helvetica STDFONT 6486 8302 M 0 222 R D
gsave 6486 7663 translate 0 0 M 1.21 dup scale -352.04 0 N
(10) show X 192.937 M
%%IncludeResource: font Helvetica
262.467 /Helvetica STDFONT
(-2) show grestore
%%IncludeResource: font Helvetica
423.333 /Helvetica STDFONT 8105 8302 M 0 222 R D
gsave 8105 7663 translate 0 0 M 1.21 dup scale -352.04 0 N
(10) show X 192.937 M
%%IncludeResource: font Helvetica
262.467 /Helvetica STDFONT
(-1) show grestore
%%IncludeResource: font Helvetica
423.333 /Helvetica STDFONT 2760 8302 M 0 111 R D 2888 8302 M 0 111 R D
2997 8302 M 0 111 R D 3091 8302 M 0 111 R D 3173 8302 M 0 111 R D
3735 8302 M 0 111 R D 4020 8302 M 0 111 R D 4222 8302 M 0 111 R D
4379 8302 M 0 111 R D 4508 8302 M 0 111 R D 4616 8302 M 0 111 R D
4710 8302 M 0 111 R D 4793 8302 M 0 111 R D 5354 8302 M 0 111 R D
5639 8302 M 0 111 R D 5842 8302 M 0 111 R D 5999 8302 M 0 111 R D
6127 8302 M 0 111 R D 6235 8302 M 0 111 R D 6329 8302 M 0 111 R D
6412 8302 M 0 111 R D 6973 8302 M 0 111 R D 7259 8302 M 0 111 R D
7461 8302 M 0 111 R D 7618 8302 M 0 111 R D 7746 8302 M 0 111 R D
7854 8302 M 0 111 R D 7948 8302 M 0 111 R D 8031 8302 M 0 111 R D
8593 8302 M 0 111 R D 8878 8302 M 0 111 R D 9080 8302 M 0 111 R D
9237 8302 M 0 111 R D 2760 13846 M 6477 0 R D 3248 13846 M 0 -222 R D
4867 13846 M 0 -222 R D 6486 13846 M 0 -222 R D 8105 13846 M 0 -222 R D
2760 13846 M 0 -111 R D 2888 13846 M 0 -111 R D 2997 13846 M 0 -111 R D
3091 13846 M 0 -111 R D 3173 13846 M 0 -111 R D 3735 13846 M 0 -111 R D
4020 13846 M 0 -111 R D 4222 13846 M 0 -111 R D 4379 13846 M 0 -111 R D
4508 13846 M 0 -111 R D 4616 13846 M 0 -111 R D 4710 13846 M 0 -111 R D
4793 13846 M 0 -111 R D 5354 13846 M 0 -111 R D 5639 13846 M 0 -111 R D
5842 13846 M 0 -111 R D 5999 13846 M 0 -111 R D 6127 13846 M 0 -111 R D
6235 13846 M 0 -111 R D 6329 13846 M 0 -111 R D 6412 13846 M 0 -111 R D
6973 13846 M 0 -111 R D 7259 13846 M 0 -111 R D 7461 13846 M 0 -111 R D
7618 13846 M 0 -111 R D 7746 13846 M 0 -111 R D 7854 13846 M 0 -111 R D
7948 13846 M 0 -111 R D 8031 13846 M 0 -111 R D 8593 13846 M 0 -111 R D
8878 13846 M 0 -111 R D 9080 13846 M 0 -111 R D 9237 13846 M 0 -111 R D
2760 8302 M 0 5544 R D 2760 8302 M 259 0 R D gsave 2626 8302 translate 0 0 M
1.21 dup scale -704.08 0 N
(10) show X 192.937 M
%%IncludeResource: font Helvetica
262.467 /Helvetica STDFONT
(-2) show grestore
%%IncludeResource: font Helvetica
423.333 /Helvetica STDFONT 2760 9506 M 259 0 R D
gsave 2626 9336 translate 0 0 M 1.21 dup scale -704.08 0 N
(10) show X 192.937 M
%%IncludeResource: font Helvetica
262.467 /Helvetica STDFONT
(-1) show grestore
%%IncludeResource: font Helvetica
423.333 /Helvetica STDFONT 2760 10711 M 259 0 R D
gsave 2626 10541 translate 0 0 M 1.21 dup scale -235.373 0 N
(1) show grestore 2760 11916 M 259 0 R D gsave 2626 11746 translate 0 0 M
1.21 dup scale -470.747 0 N
(10) show grestore 2760 13121 M 259 0 R D gsave 2626 12950 translate 0 0 M
1.21 dup scale -616.678 0 N
(10) show X 192.937 M
%%IncludeResource: font Helvetica
262.467 /Helvetica STDFONT
(2) show grestore
%%IncludeResource: font Helvetica
423.333 /Helvetica STDFONT 2760 8664 M 130 0 R D 2760 8876 M 130 0 R D
2760 9027 M 130 0 R D 2760 9144 M 130 0 R D 2760 9239 M 130 0 R D
2760 9320 M 130 0 R D 2760 9390 M 130 0 R D 2760 9451 M 130 0 R D
2760 9869 M 130 0 R D 2760 10081 M 130 0 R D 2760 10232 M 130 0 R D
2760 10348 M 130 0 R D 2760 10444 M 130 0 R D 2760 10525 M 130 0 R D
2760 10594 M 130 0 R D 2760 10656 M 130 0 R D 2760 11074 M 130 0 R D
2760 11286 M 130 0 R D 2760 11436 M 130 0 R D 2760 11553 M 130 0 R D
2760 11649 M 130 0 R D 2760 11729 M 130 0 R D 2760 11799 M 130 0 R D
2760 11861 M 130 0 R D 2760 12279 M 130 0 R D 2760 12491 M 130 0 R D
2760 12641 M 130 0 R D 2760 12758 M 130 0 R D 2760 12853 M 130 0 R D
2760 12934 M 130 0 R D 2760 13004 M 130 0 R D 2760 13066 M 130 0 R D
2760 13483 M 130 0 R D 2760 13696 M 130 0 R D 2760 13846 M 130 0 R D
9237 8302 M 0 5544 R D 9237 8302 M -259 0 R D 9237 9506 M -259 0 R D
9237 10711 M -259 0 R D 9237 11916 M -259 0 R D 9237 13121 M -259 0 R D
9237 8664 M -129 0 R D 9237 8876 M -129 0 R D 9237 9027 M -129 0 R D
9237 9144 M -129 0 R D 9237 9239 M -129 0 R D 9237 9320 M -129 0 R D
9237 9390 M -129 0 R D 9237 9451 M -129 0 R D 9237 9869 M -129 0 R D
9237 10081 M -129 0 R D 9237 10232 M -129 0 R D 9237 10348 M -129 0 R D
9237 10444 M -129 0 R D 9237 10525 M -129 0 R D 9237 10594 M -129 0 R D
9237 10656 M -129 0 R D 9237 11074 M -129 0 R D 9237 11286 M -129 0 R D
9237 11436 M -129 0 R D 9237 11553 M -129 0 R D 9237 11649 M -129 0 R D
9237 11729 M -129 0 R D 9237 11799 M -129 0 R D 9237 11861 M -129 0 R D
9237 12279 M -129 0 R D 9237 12491 M -129 0 R D 9237 12641 M -129 0 R D
9237 12758 M -129 0 R D 9237 12853 M -129 0 R D 9237 12934 M -129 0 R D
9237 13004 M -129 0 R D 9237 13066 M -129 0 R D 9237 13483 M -129 0 R D
9237 13696 M -129 0 R D 9237 13846 M -129 0 R D L2 3248 12522 M 485 -252 R
486 -275 R 486 -302 R 486 -315 R 485 -294 R 486 -311 R 486 -313 R 486 -267 R
486 -313 R 485 -310 R D L1 3008 13458 M 615 -149 R 615 -368 R 615 -350 R
615 -354 R 615 -288 R 615 -369 R 615 -303 R 615 -270 R 615 -296 R 615 -634 R
D L0 0.000 0.000 1.000 setrgbcolor 3248 12658 M 485 -274 R 486 -329 R
486 -288 R 486 -362 R 485 -292 R 486 -193 R 486 -457 R 486 -375 R 486 -338 R
485 45 R D 3183 12516 M 129 0 R -64 0 R 0 283 R -65 0 R 129 0 R D
3669 12236 M 129 0 R -65 0 R 0 296 R -64 0 R 129 0 R D 4154 11852 M 130 0 R
-65 0 R 0 406 R -65 0 R 130 0 R D 4640 11517 M 130 0 R -65 0 R 0 501 R
-65 0 R 130 0 R D 5126 11074 M 129 0 R -64 0 R 0 662 R -65 0 R 129 0 R D
5612 10535 M 129 0 R -65 0 R 0 1157 R -64 0 R 129 0 R D 6097 10450 M 130 0 R
-65 0 R 0 941 R -65 0 R 130 0 R D 6583 9685 M 130 0 R -65 0 R 0 1556 R
-65 0 R 130 0 R D 7069 9008 M 130 0 R -65 0 R 0 2160 R -65 0 R 130 0 R D
7620 8302 M 0 3223 R -65 0 R 129 0 R D 8105 8302 M 0 3046 R -64 0 R 129 0 R
D 0.000 0.000 0.000 setrgbcolor gsave 2997 8664 translate 0 0 M
1.1 dup scale
(ln) show
%%IncludeResource: font Symbol
423.333 /Symbol STDFONT
(L) show
%%IncludeResource: font Helvetica
423.333 /Helvetica STDFONT
(=2.5) show grestore 10317 8302 M 6477 0 R D 10805 8302 M 0 222 R D
gsave 10805 7663 translate 0 0 M 1.21 dup scale -352.04 0 N
(10) show X 192.937 M
%%IncludeResource: font Helvetica
262.467 /Helvetica STDFONT
(-4) show grestore
%%IncludeResource: font Helvetica
423.333 /Helvetica STDFONT 12424 8302 M 0 222 R D
gsave 12424 7663 translate 0 0 M 1.21 dup scale -352.04 0 N
(10) show X 192.937 M
%%IncludeResource: font Helvetica
262.467 /Helvetica STDFONT
(-3) show grestore
%%IncludeResource: font Helvetica
423.333 /Helvetica STDFONT 14043 8302 M 0 222 R D
gsave 14043 7663 translate 0 0 M 1.21 dup scale -352.04 0 N
(10) show X 192.937 M
%%IncludeResource: font Helvetica
262.467 /Helvetica STDFONT
(-2) show grestore
%%IncludeResource: font Helvetica
423.333 /Helvetica STDFONT 15662 8302 M 0 222 R D
gsave 15662 7663 translate 0 0 M 1.21 dup scale -352.04 0 N
(10) show X 192.937 M
%%IncludeResource: font Helvetica
262.467 /Helvetica STDFONT
(-1) show grestore
%%IncludeResource: font Helvetica
423.333 /Helvetica STDFONT 10317 8302 M 0 111 R D 10445 8302 M 0 111 R D
10554 8302 M 0 111 R D 10648 8302 M 0 111 R D 10730 8302 M 0 111 R D
11292 8302 M 0 111 R D 11577 8302 M 0 111 R D 11779 8302 M 0 111 R D
11936 8302 M 0 111 R D 12065 8302 M 0 111 R D 12173 8302 M 0 111 R D
12267 8302 M 0 111 R D 12350 8302 M 0 111 R D 12911 8302 M 0 111 R D
13196 8302 M 0 111 R D 13399 8302 M 0 111 R D 13556 8302 M 0 111 R D
13684 8302 M 0 111 R D 13792 8302 M 0 111 R D 13886 8302 M 0 111 R D
13969 8302 M 0 111 R D 14530 8302 M 0 111 R D 14816 8302 M 0 111 R D
15018 8302 M 0 111 R D 15175 8302 M 0 111 R D 15303 8302 M 0 111 R D
15411 8302 M 0 111 R D 15505 8302 M 0 111 R D 15588 8302 M 0 111 R D
16150 8302 M 0 111 R D 16435 8302 M 0 111 R D 16637 8302 M 0 111 R D
16794 8302 M 0 111 R D 10317 13846 M 6477 0 R D 10805 13846 M 0 -222 R D
12424 13846 M 0 -222 R D 14043 13846 M 0 -222 R D 15662 13846 M 0 -222 R D
10317 13846 M 0 -111 R D 10445 13846 M 0 -111 R D 10554 13846 M 0 -111 R D
10648 13846 M 0 -111 R D 10730 13846 M 0 -111 R D 11292 13846 M 0 -111 R D
11577 13846 M 0 -111 R D 11779 13846 M 0 -111 R D 11936 13846 M 0 -111 R D
12065 13846 M 0 -111 R D 12173 13846 M 0 -111 R D 12267 13846 M 0 -111 R D
12350 13846 M 0 -111 R D 12911 13846 M 0 -111 R D 13196 13846 M 0 -111 R D
13399 13846 M 0 -111 R D 13556 13846 M 0 -111 R D 13684 13846 M 0 -111 R D
13792 13846 M 0 -111 R D 13886 13846 M 0 -111 R D 13969 13846 M 0 -111 R D
14530 13846 M 0 -111 R D 14816 13846 M 0 -111 R D 15018 13846 M 0 -111 R D
15175 13846 M 0 -111 R D 15303 13846 M 0 -111 R D 15411 13846 M 0 -111 R D
15505 13846 M 0 -111 R D 15588 13846 M 0 -111 R D 16150 13846 M 0 -111 R D
16435 13846 M 0 -111 R D 16637 13846 M 0 -111 R D 16794 13846 M 0 -111 R D
10317 8302 M 0 5544 R D 10317 8302 M 259 0 R D
gsave 10183 8302 translate 0 0 M 1.21 dup scale -704.08 0 N
(10) show X 192.937 M
%%IncludeResource: font Helvetica
262.467 /Helvetica STDFONT
(-2) show grestore
%%IncludeResource: font Helvetica
423.333 /Helvetica STDFONT 10317 9506 M 259 0 R D
gsave 10183 9336 translate 0 0 M 1.21 dup scale -704.08 0 N
(10) show X 192.937 M
%%IncludeResource: font Helvetica
262.467 /Helvetica STDFONT
(-1) show grestore
%%IncludeResource: font Helvetica
423.333 /Helvetica STDFONT 10317 10711 M 259 0 R D
gsave 10183 10541 translate 0 0 M 1.21 dup scale -235.373 0 N
(1) show grestore 10317 11916 M 259 0 R D gsave 10183 11746 translate 0 0 M
1.21 dup scale -470.747 0 N
(10) show grestore 10317 13121 M 259 0 R D gsave 10183 12950 translate 0 0 M
1.21 dup scale -616.678 0 N
(10) show X 192.937 M
%%IncludeResource: font Helvetica
262.467 /Helvetica STDFONT
(2) show grestore
%%IncludeResource: font Helvetica
423.333 /Helvetica STDFONT 10317 8664 M 130 0 R D 10317 8876 M 130 0 R D
10317 9027 M 130 0 R D 10317 9144 M 130 0 R D 10317 9239 M 130 0 R D
10317 9320 M 130 0 R D 10317 9390 M 130 0 R D 10317 9451 M 130 0 R D
10317 9869 M 130 0 R D 10317 10081 M 130 0 R D 10317 10232 M 130 0 R D
10317 10348 M 130 0 R D 10317 10444 M 130 0 R D 10317 10525 M 130 0 R D
10317 10594 M 130 0 R D 10317 10656 M 130 0 R D 10317 11074 M 130 0 R D
10317 11286 M 130 0 R D 10317 11436 M 130 0 R D 10317 11553 M 130 0 R D
10317 11649 M 130 0 R D 10317 11729 M 130 0 R D 10317 11799 M 130 0 R D
10317 11861 M 130 0 R D 10317 12279 M 130 0 R D 10317 12491 M 130 0 R D
10317 12641 M 130 0 R D 10317 12758 M 130 0 R D 10317 12853 M 130 0 R D
10317 12934 M 130 0 R D 10317 13004 M 130 0 R D 10317 13066 M 130 0 R D
10317 13483 M 130 0 R D 10317 13696 M 130 0 R D 10317 13846 M 130 0 R D
16794 8302 M 0 5544 R D 16794 8302 M -259 0 R D 16794 9506 M -259 0 R D
16794 10711 M -259 0 R D 16794 11916 M -259 0 R D 16794 13121 M -259 0 R D
16794 8664 M -129 0 R D 16794 8876 M -129 0 R D 16794 9027 M -129 0 R D
16794 9144 M -129 0 R D 16794 9239 M -129 0 R D 16794 9320 M -129 0 R D
16794 9390 M -129 0 R D 16794 9451 M -129 0 R D 16794 9869 M -129 0 R D
16794 10081 M -129 0 R D 16794 10232 M -129 0 R D 16794 10348 M -129 0 R D
16794 10444 M -129 0 R D 16794 10525 M -129 0 R D 16794 10594 M -129 0 R D
16794 10656 M -129 0 R D 16794 11074 M -129 0 R D 16794 11286 M -129 0 R D
16794 11436 M -129 0 R D 16794 11553 M -129 0 R D 16794 11649 M -129 0 R D
16794 11729 M -129 0 R D 16794 11799 M -129 0 R D 16794 11861 M -129 0 R D
16794 12279 M -129 0 R D 16794 12491 M -129 0 R D 16794 12641 M -129 0 R D
16794 12758 M -129 0 R D 16794 12853 M -129 0 R D 16794 12934 M -129 0 R D
16794 13004 M -129 0 R D 16794 13066 M -129 0 R D 16794 13483 M -129 0 R D
16794 13696 M -129 0 R D 16794 13846 M -129 0 R D L2 10805 12522 M
485 -252 R 486 -275 R 486 -302 R 486 -315 R 485 -294 R 486 -311 R 486 -313 R
486 -267 R 486 -313 R 485 -310 R D L1 10565 13458 M 615 -149 R 615 -368 R
615 -350 R 615 -354 R 615 -288 R 615 -369 R 615 -303 R 615 -270 R 615 -296 R
615 -634 R D L0 0.000 0.000 1.000 setrgbcolor 10805 12657 M 485 -288 R
486 -343 R 486 -296 R 486 -331 R 485 -289 R 486 -316 R 486 -331 R 486 -456 R
486 -170 R 485 0 R D 10740 12521 M 129 0 R -64 0 R 0 272 R -65 0 R 129 0 R D
11226 12221 M 129 0 R -65 0 R 0 295 R -64 0 R 129 0 R D 11711 11823 M
130 0 R -65 0 R 0 407 R -65 0 R 130 0 R D 12197 11479 M 130 0 R -65 0 R
0 501 R -65 0 R 130 0 R D 12683 11080 M 129 0 R -64 0 R 0 637 R -65 0 R
129 0 R D 13169 10599 M 129 0 R -65 0 R 0 1022 R -64 0 R 129 0 R D
13654 10246 M 130 0 R -65 0 R 0 1097 R -65 0 R 130 0 R D 14140 9724 M
130 0 R -65 0 R 0 1478 R -65 0 R 130 0 R D 14626 8811 M 130 0 R -65 0 R
0 2392 R -65 0 R 130 0 R D 15112 8361 M 129 0 R -64 0 R 0 2952 R -65 0 R
129 0 R D 15598 8361 M 129 0 R -65 0 R 0 2952 R -64 0 R 129 0 R D
0.000 0.000 0.000 setrgbcolor gsave 10554 8664 translate 0 0 M 1.1 dup scale
(ln) show
%%IncludeResource: font Symbol
423.333 /Symbol STDFONT
(L) show
%%IncludeResource: font Helvetica
423.333 /Helvetica STDFONT
(=f[m\(0\)/M\(0\)]) show grestore 2760 1858 M 6477 0 R D 3248 1858 M 0 222 R
D gsave 3248 1219 translate 0 0 M 1.21 dup scale -352.04 0 N
(10) show X 192.937 M
%%IncludeResource: font Helvetica
262.467 /Helvetica STDFONT
(-4) show grestore
%%IncludeResource: font Helvetica
423.333 /Helvetica STDFONT 4867 1858 M 0 222 R D
gsave 4867 1219 translate 0 0 M 1.21 dup scale -352.04 0 N
(10) show X 192.937 M
%%IncludeResource: font Helvetica
262.467 /Helvetica STDFONT
(-3) show grestore
%%IncludeResource: font Helvetica
423.333 /Helvetica STDFONT 6486 1858 M 0 222 R D
gsave 6486 1219 translate 0 0 M 1.21 dup scale -352.04 0 N
(10) show X 192.937 M
%%IncludeResource: font Helvetica
262.467 /Helvetica STDFONT
(-2) show grestore
%%IncludeResource: font Helvetica
423.333 /Helvetica STDFONT 8105 1858 M 0 222 R D
gsave 8105 1219 translate 0 0 M 1.21 dup scale -352.04 0 N
(10) show X 192.937 M
%%IncludeResource: font Helvetica
262.467 /Helvetica STDFONT
(-1) show grestore
%%IncludeResource: font Helvetica
423.333 /Helvetica STDFONT 2760 1858 M 0 111 R D 2888 1858 M 0 111 R D
2997 1858 M 0 111 R D 3091 1858 M 0 111 R D 3173 1858 M 0 111 R D
3735 1858 M 0 111 R D 4020 1858 M 0 111 R D 4222 1858 M 0 111 R D
4379 1858 M 0 111 R D 4508 1858 M 0 111 R D 4616 1858 M 0 111 R D
4710 1858 M 0 111 R D 4793 1858 M 0 111 R D 5354 1858 M 0 111 R D
5639 1858 M 0 111 R D 5842 1858 M 0 111 R D 5999 1858 M 0 111 R D
6127 1858 M 0 111 R D 6235 1858 M 0 111 R D 6329 1858 M 0 111 R D
6412 1858 M 0 111 R D 6973 1858 M 0 111 R D 7259 1858 M 0 111 R D
7461 1858 M 0 111 R D 7618 1858 M 0 111 R D 7746 1858 M 0 111 R D
7854 1858 M 0 111 R D 7948 1858 M 0 111 R D 8031 1858 M 0 111 R D
8593 1858 M 0 111 R D 8878 1858 M 0 111 R D 9080 1858 M 0 111 R D
9237 1858 M 0 111 R D 2760 7402 M 6477 0 R D 3248 7402 M 0 -222 R D
4867 7402 M 0 -222 R D 6486 7402 M 0 -222 R D 8105 7402 M 0 -222 R D
2760 7402 M 0 -111 R D 2888 7402 M 0 -111 R D 2997 7402 M 0 -111 R D
3091 7402 M 0 -111 R D 3173 7402 M 0 -111 R D 3735 7402 M 0 -111 R D
4020 7402 M 0 -111 R D 4222 7402 M 0 -111 R D 4379 7402 M 0 -111 R D
4508 7402 M 0 -111 R D 4616 7402 M 0 -111 R D 4710 7402 M 0 -111 R D
4793 7402 M 0 -111 R D 5354 7402 M 0 -111 R D 5639 7402 M 0 -111 R D
5842 7402 M 0 -111 R D 5999 7402 M 0 -111 R D 6127 7402 M 0 -111 R D
6235 7402 M 0 -111 R D 6329 7402 M 0 -111 R D 6412 7402 M 0 -111 R D
6973 7402 M 0 -111 R D 7259 7402 M 0 -111 R D 7461 7402 M 0 -111 R D
7618 7402 M 0 -111 R D 7746 7402 M 0 -111 R D 7854 7402 M 0 -111 R D
7948 7402 M 0 -111 R D 8031 7402 M 0 -111 R D 8593 7402 M 0 -111 R D
8878 7402 M 0 -111 R D 9080 7402 M 0 -111 R D 9237 7402 M 0 -111 R D
2760 1858 M 0 5544 R D 2760 1858 M 259 0 R D gsave 2626 1858 translate 0 0 M
1.21 dup scale -704.08 0 N
(10) show X 192.937 M
%%IncludeResource: font Helvetica
262.467 /Helvetica STDFONT
(-2) show grestore
%%IncludeResource: font Helvetica
423.333 /Helvetica STDFONT 2760 3062 M 259 0 R D
gsave 2626 2892 translate 0 0 M 1.21 dup scale -704.08 0 N
(10) show X 192.937 M
%%IncludeResource: font Helvetica
262.467 /Helvetica STDFONT
(-1) show grestore
%%IncludeResource: font Helvetica
423.333 /Helvetica STDFONT 2760 4267 M 259 0 R D
gsave 2626 4097 translate 0 0 M 1.21 dup scale -235.373 0 N
(1) show grestore 2760 5472 M 259 0 R D gsave 2626 5302 translate 0 0 M
1.21 dup scale -470.747 0 N
(10) show grestore 2760 6677 M 259 0 R D gsave 2626 6506 translate 0 0 M
1.21 dup scale -616.678 0 N
(10) show X 192.937 M
%%IncludeResource: font Helvetica
262.467 /Helvetica STDFONT
(2) show grestore
%%IncludeResource: font Helvetica
423.333 /Helvetica STDFONT 2760 2220 M 130 0 R D 2760 2432 M 130 0 R D
2760 2583 M 130 0 R D 2760 2700 M 130 0 R D 2760 2795 M 130 0 R D
2760 2876 M 130 0 R D 2760 2946 M 130 0 R D 2760 3007 M 130 0 R D
2760 3425 M 130 0 R D 2760 3637 M 130 0 R D 2760 3788 M 130 0 R D
2760 3904 M 130 0 R D 2760 4000 M 130 0 R D 2760 4081 M 130 0 R D
2760 4150 M 130 0 R D 2760 4212 M 130 0 R D 2760 4630 M 130 0 R D
2760 4842 M 130 0 R D 2760 4992 M 130 0 R D 2760 5109 M 130 0 R D
2760 5205 M 130 0 R D 2760 5285 M 130 0 R D 2760 5355 M 130 0 R D
2760 5417 M 130 0 R D 2760 5835 M 130 0 R D 2760 6047 M 130 0 R D
2760 6197 M 130 0 R D 2760 6314 M 130 0 R D 2760 6409 M 130 0 R D
2760 6490 M 130 0 R D 2760 6560 M 130 0 R D 2760 6622 M 130 0 R D
2760 7039 M 130 0 R D 2760 7252 M 130 0 R D 2760 7402 M 130 0 R D
9237 1858 M 0 5544 R D 9237 1858 M -259 0 R D 9237 3062 M -259 0 R D
9237 4267 M -259 0 R D 9237 5472 M -259 0 R D 9237 6677 M -259 0 R D
9237 2220 M -129 0 R D 9237 2432 M -129 0 R D 9237 2583 M -129 0 R D
9237 2700 M -129 0 R D 9237 2795 M -129 0 R D 9237 2876 M -129 0 R D
9237 2946 M -129 0 R D 9237 3007 M -129 0 R D 9237 3425 M -129 0 R D
9237 3637 M -129 0 R D 9237 3788 M -129 0 R D 9237 3904 M -129 0 R D
9237 4000 M -129 0 R D 9237 4081 M -129 0 R D 9237 4150 M -129 0 R D
9237 4212 M -129 0 R D 9237 4630 M -129 0 R D 9237 4842 M -129 0 R D
9237 4992 M -129 0 R D 9237 5109 M -129 0 R D 9237 5205 M -129 0 R D
9237 5285 M -129 0 R D 9237 5355 M -129 0 R D 9237 5417 M -129 0 R D
9237 5835 M -129 0 R D 9237 6047 M -129 0 R D 9237 6197 M -129 0 R D
9237 6314 M -129 0 R D 9237 6409 M -129 0 R D 9237 6490 M -129 0 R D
9237 6560 M -129 0 R D 9237 6622 M -129 0 R D 9237 7039 M -129 0 R D
9237 7252 M -129 0 R D 9237 7402 M -129 0 R D L2 3248 6078 M 485 -252 R
486 -275 R 486 -302 R 486 -315 R 485 -293 R 486 -312 R 486 -313 R 486 -267 R
486 -313 R 485 -310 R D L1 3008 7014 M 615 -149 R 615 -368 R 615 -350 R
615 -354 R 615 -288 R 615 -369 R 615 -303 R 615 -270 R 615 -296 R 615 -634 R
D L0 0.000 0.000 1.000 setrgbcolor 3248 6210 M 485 -286 R 486 -333 R
486 -297 R 486 -360 R 485 -275 R 486 -253 R 486 -412 R 486 -375 R 486 -268 R
485 0 R D 3183 6074 M 129 0 R -64 0 R 0 272 R -65 0 R 129 0 R D 3669 5770 M
129 0 R -65 0 R 0 308 R -64 0 R 129 0 R D 4154 5394 M 130 0 R -65 0 R
0 394 R -65 0 R 130 0 R D 4640 5045 M 130 0 R -65 0 R 0 499 R -65 0 R
130 0 R D 5126 4602 M 129 0 R -64 0 R 0 664 R -65 0 R 129 0 R D 5612 4136 M
129 0 R -65 0 R 0 1046 R -64 0 R 129 0 R D 6097 3913 M 130 0 R -65 0 R
0 985 R -65 0 R 130 0 R D 6583 3202 M 130 0 R -65 0 R 0 1585 R -65 0 R
130 0 R D 7069 2503 M 130 0 R -65 0 R 0 2231 R -65 0 R 130 0 R D 7620 1858 M
0 3165 R -65 0 R 129 0 R D 8105 1858 M 0 3046 R -64 0 R 129 0 R D
0.000 0.000 0.000 setrgbcolor gsave 2997 2220 translate 0 0 M 1.1 dup scale
(ln) show
%%IncludeResource: font Symbol
423.333 /Symbol STDFONT
(L) show
%%IncludeResource: font Helvetica
423.333 /Helvetica STDFONT
(=ln[M/m]) show grestore 10317 1858 M 6477 0 R D 10805 1858 M 0 222 R D
gsave 10805 1219 translate 0 0 M 1.21 dup scale -352.04 0 N
(10) show X 192.937 M
%%IncludeResource: font Helvetica
262.467 /Helvetica STDFONT
(-4) show grestore
%%IncludeResource: font Helvetica
423.333 /Helvetica STDFONT 12424 1858 M 0 222 R D
gsave 12424 1219 translate 0 0 M 1.21 dup scale -352.04 0 N
(10) show X 192.937 M
%%IncludeResource: font Helvetica
262.467 /Helvetica STDFONT
(-3) show grestore
%%IncludeResource: font Helvetica
423.333 /Helvetica STDFONT 14043 1858 M 0 222 R D
gsave 14043 1219 translate 0 0 M 1.21 dup scale -352.04 0 N
(10) show X 192.937 M
%%IncludeResource: font Helvetica
262.467 /Helvetica STDFONT
(-2) show grestore
%%IncludeResource: font Helvetica
423.333 /Helvetica STDFONT 15662 1858 M 0 222 R D
gsave 15662 1219 translate 0 0 M 1.21 dup scale -352.04 0 N
(10) show X 192.937 M
%%IncludeResource: font Helvetica
262.467 /Helvetica STDFONT
(-1) show grestore
%%IncludeResource: font Helvetica
423.333 /Helvetica STDFONT 10317 1858 M 0 111 R D 10445 1858 M 0 111 R D
10554 1858 M 0 111 R D 10648 1858 M 0 111 R D 10730 1858 M 0 111 R D
11292 1858 M 0 111 R D 11577 1858 M 0 111 R D 11779 1858 M 0 111 R D
11936 1858 M 0 111 R D 12065 1858 M 0 111 R D 12173 1858 M 0 111 R D
12267 1858 M 0 111 R D 12350 1858 M 0 111 R D 12911 1858 M 0 111 R D
13196 1858 M 0 111 R D 13399 1858 M 0 111 R D 13556 1858 M 0 111 R D
13684 1858 M 0 111 R D 13792 1858 M 0 111 R D 13886 1858 M 0 111 R D
13969 1858 M 0 111 R D 14530 1858 M 0 111 R D 14816 1858 M 0 111 R D
15018 1858 M 0 111 R D 15175 1858 M 0 111 R D 15303 1858 M 0 111 R D
15411 1858 M 0 111 R D 15505 1858 M 0 111 R D 15588 1858 M 0 111 R D
16150 1858 M 0 111 R D 16435 1858 M 0 111 R D 16637 1858 M 0 111 R D
16794 1858 M 0 111 R D 10317 7402 M 6477 0 R D 10805 7402 M 0 -222 R D
12424 7402 M 0 -222 R D 14043 7402 M 0 -222 R D 15662 7402 M 0 -222 R D
10317 7402 M 0 -111 R D 10445 7402 M 0 -111 R D 10554 7402 M 0 -111 R D
10648 7402 M 0 -111 R D 10730 7402 M 0 -111 R D 11292 7402 M 0 -111 R D
11577 7402 M 0 -111 R D 11779 7402 M 0 -111 R D 11936 7402 M 0 -111 R D
12065 7402 M 0 -111 R D 12173 7402 M 0 -111 R D 12267 7402 M 0 -111 R D
12350 7402 M 0 -111 R D 12911 7402 M 0 -111 R D 13196 7402 M 0 -111 R D
13399 7402 M 0 -111 R D 13556 7402 M 0 -111 R D 13684 7402 M 0 -111 R D
13792 7402 M 0 -111 R D 13886 7402 M 0 -111 R D 13969 7402 M 0 -111 R D
14530 7402 M 0 -111 R D 14816 7402 M 0 -111 R D 15018 7402 M 0 -111 R D
15175 7402 M 0 -111 R D 15303 7402 M 0 -111 R D 15411 7402 M 0 -111 R D
15505 7402 M 0 -111 R D 15588 7402 M 0 -111 R D 16150 7402 M 0 -111 R D
16435 7402 M 0 -111 R D 16637 7402 M 0 -111 R D 16794 7402 M 0 -111 R D
10317 1858 M 0 5544 R D 10317 1858 M 259 0 R D
gsave 10183 1858 translate 0 0 M 1.21 dup scale -704.08 0 N
(10) show X 192.937 M
%%IncludeResource: font Helvetica
262.467 /Helvetica STDFONT
(-2) show grestore
%%IncludeResource: font Helvetica
423.333 /Helvetica STDFONT 10317 3062 M 259 0 R D
gsave 10183 2892 translate 0 0 M 1.21 dup scale -704.08 0 N
(10) show X 192.937 M
%%IncludeResource: font Helvetica
262.467 /Helvetica STDFONT
(-1) show grestore
%%IncludeResource: font Helvetica
423.333 /Helvetica STDFONT 10317 4267 M 259 0 R D
gsave 10183 4097 translate 0 0 M 1.21 dup scale -235.373 0 N
(1) show grestore 10317 5472 M 259 0 R D gsave 10183 5302 translate 0 0 M
1.21 dup scale -470.747 0 N
(10) show grestore 10317 6677 M 259 0 R D gsave 10183 6506 translate 0 0 M
1.21 dup scale -616.678 0 N
(10) show X 192.937 M
%%IncludeResource: font Helvetica
262.467 /Helvetica STDFONT
(2) show grestore
%%IncludeResource: font Helvetica
423.333 /Helvetica STDFONT 10317 2220 M 130 0 R D 10317 2432 M 130 0 R D
10317 2583 M 130 0 R D 10317 2700 M 130 0 R D 10317 2795 M 130 0 R D
10317 2876 M 130 0 R D 10317 2946 M 130 0 R D 10317 3007 M 130 0 R D
10317 3425 M 130 0 R D 10317 3637 M 130 0 R D 10317 3788 M 130 0 R D
10317 3904 M 130 0 R D 10317 4000 M 130 0 R D 10317 4081 M 130 0 R D
10317 4150 M 130 0 R D 10317 4212 M 130 0 R D 10317 4630 M 130 0 R D
10317 4842 M 130 0 R D 10317 4992 M 130 0 R D 10317 5109 M 130 0 R D
10317 5205 M 130 0 R D 10317 5285 M 130 0 R D 10317 5355 M 130 0 R D
10317 5417 M 130 0 R D 10317 5835 M 130 0 R D 10317 6047 M 130 0 R D
10317 6197 M 130 0 R D 10317 6314 M 130 0 R D 10317 6409 M 130 0 R D
10317 6490 M 130 0 R D 10317 6560 M 130 0 R D 10317 6622 M 130 0 R D
10317 7039 M 130 0 R D 10317 7252 M 130 0 R D 10317 7402 M 130 0 R D
16794 1858 M 0 5544 R D 16794 1858 M -259 0 R D 16794 3062 M -259 0 R D
16794 4267 M -259 0 R D 16794 5472 M -259 0 R D 16794 6677 M -259 0 R D
16794 2220 M -129 0 R D 16794 2432 M -129 0 R D 16794 2583 M -129 0 R D
16794 2700 M -129 0 R D 16794 2795 M -129 0 R D 16794 2876 M -129 0 R D
16794 2946 M -129 0 R D 16794 3007 M -129 0 R D 16794 3425 M -129 0 R D
16794 3637 M -129 0 R D 16794 3788 M -129 0 R D 16794 3904 M -129 0 R D
16794 4000 M -129 0 R D 16794 4081 M -129 0 R D 16794 4150 M -129 0 R D
16794 4212 M -129 0 R D 16794 4630 M -129 0 R D 16794 4842 M -129 0 R D
16794 4992 M -129 0 R D 16794 5109 M -129 0 R D 16794 5205 M -129 0 R D
16794 5285 M -129 0 R D 16794 5355 M -129 0 R D 16794 5417 M -129 0 R D
16794 5835 M -129 0 R D 16794 6047 M -129 0 R D 16794 6197 M -129 0 R D
16794 6314 M -129 0 R D 16794 6409 M -129 0 R D 16794 6490 M -129 0 R D
16794 6560 M -129 0 R D 16794 6622 M -129 0 R D 16794 7039 M -129 0 R D
16794 7252 M -129 0 R D 16794 7402 M -129 0 R D L2 10805 6078 M 485 -252 R
486 -275 R 486 -302 R 486 -315 R 485 -293 R 486 -312 R 486 -313 R 486 -267 R
486 -313 R 485 -310 R D L1 10565 7014 M 615 -149 R 615 -368 R 615 -350 R
615 -354 R 615 -288 R 615 -369 R 615 -303 R 615 -270 R 615 -296 R 615 -634 R
D L0 0.000 0.000 1.000 setrgbcolor 10805 6170 M 485 -264 R 486 -335 R
486 -293 R 486 -388 R 485 -473 R 486 -363 R 486 -298 R 486 -555 R 486 105 R
485 -167 R D 10740 6021 M 129 0 R -64 0 R 0 299 R -65 0 R 129 0 R D
11226 5735 M 129 0 R -65 0 R 0 342 R -64 0 R 129 0 R D 11711 5380 M 130 0 R
-65 0 R 0 382 R -65 0 R 130 0 R D 12197 5022 M 130 0 R -65 0 R 0 513 R
-65 0 R 130 0 R D 12683 4513 M 129 0 R -64 0 R 0 753 R -65 0 R 129 0 R D
13169 3798 M 129 0 R -65 0 R 0 1238 R -64 0 R 129 0 R D 13654 3306 M 130 0 R
-65 0 R 0 1497 R -65 0 R 130 0 R D 14140 2824 M 130 0 R -65 0 R 0 1864 R
-65 0 R 130 0 R D 14691 1858 M 0 3015 R -65 0 R 130 0 R D 15177 1858 M
0 2944 R -65 0 R 129 0 R D 15662 1858 M 0 3292 R -64 0 R 129 0 R D
0.000 0.000 0.000 setrgbcolor gsave 10554 2220 translate 0 0 M 1.1 dup scale
(ln) show
%%IncludeResource: font Symbol
423.333 /Symbol STDFONT
(L) show
%%IncludeResource: font Helvetica
423.333 /Helvetica STDFONT
(=ZB03) show grestore
%%PageTrailer
end
%%PageResources: font Helvetica
%%+ font Symbol
%%Trailer
%%Pages: 1
%%DocumentNeededResources: font Helvetica
%%+ font Symbol
%%EOF
