%!PS-Adobe-3.0 EPSF-3.0
%%BoundingBox: 0 0 340 283
%%Title: Graphics produced by IDL
%%For: jlgan@aida119, /home/jlgan/work/subhalo_model
%%Creator: IDL Version 7.1 (linux x86_64 m64)
%%CreationDate: Sat Aug  1 21:27:53 2009
%%DocumentData: Clean7bit
%%Requirements: color
%%LanguageLevel: 1
%%PageOrder: Ascend
%%Pages: (atend)
%%DocumentNeededResources: (atend)
%%EndComments
%%BeginProlog
%+ prolog.ps -- Prolog for IDL generated PostScript files
%+ Copyright (c) 1988-2009 ITT Visual Information Solutions. All Rights Reserved.
%v 5
/$IDL_DICT 40 dict def $IDL_DICT begin /bdef { bind def } bind def /C
{currentpoint newpath moveto} bdef /CP {currentpoint} bdef /D {currentpoint
stroke moveto} bdef /F {closepath fill} bdef /K { setgray } bdef /M {moveto}
bdef /N {rmoveto} bdef /P {lineto} bdef /R {rlineto} bdef /S {gsave show
grestore} bdef /X {currentpoint pop} bdef /Z {gsave currentpoint lineto 20
setlinewidth 1 setlinecap stroke grestore} bdef /L0 {[] 0 setdash} bdef /L1
{[40 100] 0 setdash} bdef /L2 {[200 200] 0 setdash} bdef /L3 {[200 100 50
100] 0 setdash} bdef /L4 {[300 100 50 100 50 100 50 100] 0 setdash} bdef /L5
{[400 200] 0 setdash} bdef /STDFONT { findfont exch scalefont setfont } bdef
/ISOFONT { findfont dup length dict begin { 1 index /FID ne {def} {pop pop}
ifelse } forall /Encoding ISOLatin1Encoding def currentdict end /idltmpfont
exch definefont exch scalefont setfont } bdef /ISOBULLET { gsave /Helvetica
findfont exch scalefont setfont (\267) show currentpoint grestore moveto}
bdef /MITERLIMIT { 2.5 setmiterlimit } bdef end
%%EndProlog
%%Page: 0 1
%%PageRequirements: color
%%PageResources: (atend)
%%PageOrientation: Portrait
%%PageBoundingBox: 0 0 340 283
%%BeginPageSetup
$IDL_DICT begin 0.0283465 dup scale MITERLIMIT
%%IncludeResource: font Helvetica
423.333 /Helvetica STDFONT
%%EndPageSetup
40 setlinewidth L0 0.000 0.000 0.000 setrgbcolor 1920 1600 M 9840 0 R D
2661 1600 M 0 324 R D gsave 2661 840 translate 0 0 M 1.44 dup scale
-352.04 0 N
(10) show X 192.937 M
%%IncludeResource: font Helvetica
262.467 /Helvetica STDFONT
(-4) show grestore
%%IncludeResource: font Helvetica
423.333 /Helvetica STDFONT 5121 1600 M 0 324 R D
gsave 5121 840 translate 0 0 M 1.44 dup scale -352.04 0 N
(10) show X 192.937 M
%%IncludeResource: font Helvetica
262.467 /Helvetica STDFONT
(-3) show grestore
%%IncludeResource: font Helvetica
423.333 /Helvetica STDFONT 7581 1600 M 0 324 R D
gsave 7581 840 translate 0 0 M 1.44 dup scale -352.04 0 N
(10) show X 192.937 M
%%IncludeResource: font Helvetica
262.467 /Helvetica STDFONT
(-2) show grestore
%%IncludeResource: font Helvetica
423.333 /Helvetica STDFONT 10041 1600 M 0 324 R D
gsave 10041 840 translate 0 0 M 1.44 dup scale -352.04 0 N
(10) show X 192.937 M
%%IncludeResource: font Helvetica
262.467 /Helvetica STDFONT
(-1) show grestore
%%IncludeResource: font Helvetica
423.333 /Helvetica STDFONT 1920 1600 M 0 162 R D 2115 1600 M 0 162 R D
2279 1600 M 0 162 R D 2422 1600 M 0 162 R D 2548 1600 M 0 162 R D
3401 1600 M 0 162 R D 3834 1600 M 0 162 R D 4142 1600 M 0 162 R D
4380 1600 M 0 162 R D 4575 1600 M 0 162 R D 4739 1600 M 0 162 R D
4882 1600 M 0 162 R D 5008 1600 M 0 162 R D 5861 1600 M 0 162 R D
6294 1600 M 0 162 R D 6602 1600 M 0 162 R D 6840 1600 M 0 162 R D
7035 1600 M 0 162 R D 7199 1600 M 0 162 R D 7342 1600 M 0 162 R D
7468 1600 M 0 162 R D 8321 1600 M 0 162 R D 8754 1600 M 0 162 R D
9062 1600 M 0 162 R D 9300 1600 M 0 162 R D 9495 1600 M 0 162 R D
9659 1600 M 0 162 R D 9802 1600 M 0 162 R D 9928 1600 M 0 162 R D
10781 1600 M 0 162 R D 11214 1600 M 0 162 R D 11522 1600 M 0 162 R D
11760 1600 M 0 162 R D gsave 6840 181 translate 0 0 M 1.44 dup scale
-411.48 0 N
(m/M) show grestore 1920 9700 M 9840 0 R D 2661 9700 M 0 -324 R D
5121 9700 M 0 -324 R D 7581 9700 M 0 -324 R D 10041 9700 M 0 -324 R D
1920 9700 M 0 -162 R D 2115 9700 M 0 -162 R D 2279 9700 M 0 -162 R D
2422 9700 M 0 -162 R D 2548 9700 M 0 -162 R D 3401 9700 M 0 -162 R D
3834 9700 M 0 -162 R D 4142 9700 M 0 -162 R D 4380 9700 M 0 -162 R D
4575 9700 M 0 -162 R D 4739 9700 M 0 -162 R D 4882 9700 M 0 -162 R D
5008 9700 M 0 -162 R D 5861 9700 M 0 -162 R D 6294 9700 M 0 -162 R D
6602 9700 M 0 -162 R D 6840 9700 M 0 -162 R D 7035 9700 M 0 -162 R D
7199 9700 M 0 -162 R D 7342 9700 M 0 -162 R D 7468 9700 M 0 -162 R D
8321 9700 M 0 -162 R D 8754 9700 M 0 -162 R D 9062 9700 M 0 -162 R D
9300 9700 M 0 -162 R D 9495 9700 M 0 -162 R D 9659 9700 M 0 -162 R D
9802 9700 M 0 -162 R D 9928 9700 M 0 -162 R D 10781 9700 M 0 -162 R D
11214 9700 M 0 -162 R D 11522 9700 M 0 -162 R D 11760 9700 M 0 -162 R D
1920 1600 M 0 8100 R D 1920 3359 M 394 0 R D gsave 1760 3157 translate 0 0 M
1.44 dup scale -704.08 0 N
(10) show X 192.937 M
%%IncludeResource: font Helvetica
262.467 /Helvetica STDFONT
(-1) show grestore
%%IncludeResource: font Helvetica
423.333 /Helvetica STDFONT 1920 5120 M 394 0 R D
gsave 1760 4917 translate 0 0 M 1.44 dup scale -235.373 0 N
(1) show grestore 1920 6880 M 394 0 R D gsave 1760 6677 translate 0 0 M
1.44 dup scale -470.747 0 N
(10) show grestore 1920 8640 M 394 0 R D gsave 1760 8437 translate 0 0 M
1.44 dup scale -616.678 0 N
(10) show X 192.937 M
%%IncludeResource: font Helvetica
262.467 /Helvetica STDFONT
(2) show grestore
%%IncludeResource: font Helvetica
423.333 /Helvetica STDFONT 1920 2129 M 197 0 R D 1920 2439 M 197 0 R D
1920 2659 M 197 0 R D 1920 2830 M 197 0 R D 1920 2969 M 197 0 R D
1920 3087 M 197 0 R D 1920 3189 M 197 0 R D 1920 3279 M 197 0 R D
1920 3889 M 197 0 R D 1920 4199 M 197 0 R D 1920 4419 M 197 0 R D
1920 4590 M 197 0 R D 1920 4729 M 197 0 R D 1920 4847 M 197 0 R D
1920 4949 M 197 0 R D 1920 5039 M 197 0 R D 1920 5650 M 197 0 R D
1920 5960 M 197 0 R D 1920 6180 M 197 0 R D 1920 6350 M 197 0 R D
1920 6489 M 197 0 R D 1920 6607 M 197 0 R D 1920 6709 M 197 0 R D
1920 6799 M 197 0 R D 1920 7410 M 197 0 R D 1920 7720 M 197 0 R D
1920 7940 M 197 0 R D 1920 8110 M 197 0 R D 1920 8250 M 197 0 R D
1920 8368 M 197 0 R D 1920 8470 M 197 0 R D 1920 8560 M 197 0 R D
1920 9170 M 197 0 R D 1920 9480 M 197 0 R D 1920 9700 M 197 0 R D
11760 1600 M 0 8100 R D 11760 3359 M -394 0 R D 11760 5120 M -394 0 R D
11760 6880 M -394 0 R D 11760 8640 M -394 0 R D 11760 2129 M -197 0 R D
11760 2439 M -197 0 R D 11760 2659 M -197 0 R D 11760 2830 M -197 0 R D
11760 2969 M -197 0 R D 11760 3087 M -197 0 R D 11760 3189 M -197 0 R D
11760 3279 M -197 0 R D 11760 3889 M -197 0 R D 11760 4199 M -197 0 R D
11760 4419 M -197 0 R D 11760 4590 M -197 0 R D 11760 4729 M -197 0 R D
11760 4847 M -197 0 R D 11760 4949 M -197 0 R D 11760 5039 M -197 0 R D
11760 5650 M -197 0 R D 11760 5960 M -197 0 R D 11760 6180 M -197 0 R D
11760 6350 M -197 0 R D 11760 6489 M -197 0 R D 11760 6607 M -197 0 R D
11760 6709 M -197 0 R D 11760 6799 M -197 0 R D 11760 7410 M -197 0 R D
11760 7720 M -197 0 R D 11760 7940 M -197 0 R D 11760 8110 M -197 0 R D
11760 8250 M -197 0 R D 11760 8368 M -197 0 R D 11760 8470 M -197 0 R D
11760 8560 M -197 0 R D 11760 9170 M -197 0 R D 11760 9480 M -197 0 R D
11760 9700 M -197 0 R D L2 2661 7765 M 738 -368 R 738 -401 R 738 -442 R
738 -460 R 738 -429 R 738 -455 R 738 -457 R 738 -391 R 738 -457 R 738 -453 R
D gsave 660 5650 translate 0 0 M 90 rotate 1.4 dup scale -1164.17 0 N
(dN/dln\(m/M\)) show grestore L1 2297 9133 M 934 -218 R 934 -537 R
934 -512 R 935 -517 R 934 -421 R 934 -539 R 935 -442 R 934 -395 R 934 -433 R
935 -926 R D 30 setlinewidth L0 0.000 0.000 1.000 setrgbcolor 2661 8961 M
738 -455 R 738 -483 R 738 -458 R 738 -581 R 738 -499 R 738 -473 R 738 -725 R
738 -399 R 738 -755 R 738 -181 R D 70 setlinewidth 2661 8099 M 738 -438 R
738 -431 R 738 -523 R 738 -465 R 738 -369 R 738 -526 R 738 -444 R 738 -658 R
738 -243 R 738 -159 R D 50 setlinewidth 2562 7895 M 197 0 R -98 0 R 0 407 R
-99 0 R 197 0 R D 3300 7443 M 197 0 R -98 0 R 0 437 R -99 0 R 197 0 R D
4038 6942 M 197 0 R -98 0 R 0 576 R -99 0 R 197 0 R D 4776 6333 M 197 0 R
-98 0 R 0 748 R -99 0 R 197 0 R D 5514 5820 M 197 0 R -98 0 R 0 845 R
-99 0 R 197 0 R D 6252 5264 M 197 0 R -98 0 R 0 1217 R -99 0 R 197 0 R D
6990 4588 M 197 0 R -98 0 R 0 1519 R -99 0 R 197 0 R D 7728 3890 M 197 0 R
-98 0 R 0 2025 R -99 0 R 197 0 R D 8466 2564 M 197 0 R -98 0 R 0 3362 R
-99 0 R 197 0 R D 9204 1996 M 197 0 R -98 0 R 0 4011 R -99 0 R 197 0 R D
9942 1687 M 197 0 R -98 0 R 0 4312 R -99 0 R 197 0 R D 110 setlinewidth
2661 7504 M 738 -412 R 738 -505 R 738 -371 R 738 -440 R 738 -446 R
738 -442 R 738 -432 R 738 -454 R 738 -287 R 738 -153 R D 30 setlinewidth
2314 4111 M 108 0 R 108 0 R 108 0 R 109 0 R 108 0 R 108 0 R 108 0 R 109 0 R
108 0 R D 70 setlinewidth 2314 3625 M 108 0 R 108 0 R 108 0 R 109 0 R
108 0 R 108 0 R 108 0 R 109 0 R 108 0 R D 110 setlinewidth 2314 3139 M
108 0 R 108 0 R 108 0 R 109 0 R 108 0 R 108 0 R 108 0 R 109 0 R 108 0 R D
40 setlinewidth L2 0.000 0.000 0.000 setrgbcolor 2314 2653 M 108 0 R 108 0 R
108 0 R 109 0 R 108 0 R 108 0 R 108 0 R 109 0 R 108 0 R D L1 2314 2167 M
108 0 R 108 0 R 108 0 R 109 0 R 108 0 R 108 0 R 108 0 R 109 0 R 108 0 R D
0.000 0.000 1.000 setrgbcolor gsave 3396 3940 translate 0 0 M 1.2 dup scale
(A=0.1) show grestore gsave 3396 3454 translate 0 0 M 1.2 dup scale
(A=2.5) show grestore gsave 3396 2968 translate 0 0 M 1.2 dup scale
(A=10.) show grestore 0.000 0.000 0.000 setrgbcolor
gsave 3396 2482 translate 0 0 M 1.2 dup scale
(SIM) show grestore gsave 3396 1996 translate 0 0 M 1.2 dup scale
(non-evolved SHMF) show grestore
%%PageTrailer
end
%%PageResources: font Helvetica
%%Trailer
%%Pages: 1
%%DocumentNeededResources: font Helvetica
%%EOF
