%!PS-Adobe-3.0 EPSF-3.0
%%BoundingBox: 0 0 504 360
%%Title: Graphics produced by IDL
%%For: jlgan@aida119, /home/jlgan/work/subhalo_model
%%Creator: IDL Version 7.0 (linux x86_64 m64)
%%CreationDate: Wed Jun 24 14:18:40 2009
%%DocumentData: Clean7bit
%%Requirements: color
%%LanguageLevel: 1
%%PageOrder: Ascend
%%Pages: (atend)
%%DocumentNeededResources: (atend)
%%EndComments
%%BeginProlog
%+ prolog.ps -- Prolog for IDL generated PostScript files
%+ Copyright (c) 1988-2007 ITT Visual Information Solutions. All Rights Reserved.
%v 5
/$IDL_DICT 40 dict def $IDL_DICT begin /bdef { bind def } bind def /C
{currentpoint newpath moveto} bdef /CP {currentpoint} bdef /D {currentpoint
stroke moveto} bdef /F {closepath fill} bdef /K { setgray } bdef /M {moveto}
bdef /N {rmoveto} bdef /P {lineto} bdef /R {rlineto} bdef /S {gsave show
grestore} bdef /X {currentpoint pop} bdef /Z {gsave currentpoint lineto 20
setlinewidth 1 setlinecap stroke grestore} bdef /L0 {[] 0 setdash} bdef /L1
{[40 100] 0 setdash} bdef /L2 {[200 200] 0 setdash} bdef /L3 {[200 100 50
100] 0 setdash} bdef /L4 {[300 100 50 100 50 100 50 100] 0 setdash} bdef /L5
{[400 200] 0 setdash} bdef /STDFONT { findfont exch scalefont setfont } bdef
/ISOFONT { findfont dup length dict begin { 1 index /FID ne {def} {pop pop}
ifelse } forall /Encoding ISOLatin1Encoding def currentdict end /idltmpfont
exch definefont exch scalefont setfont } bdef /ISOBULLET { gsave /Helvetica
findfont exch scalefont setfont (\267) show currentpoint grestore moveto}
bdef /MITERLIMIT { 2.5 setmiterlimit } bdef end
%%EndProlog
%%Page: 0 1
%%PageRequirements: color
%%PageResources: (atend)
%%PageOrientation: Portrait
%%PageBoundingBox: 0 0 504 360
%%BeginPageSetup
$IDL_DICT begin 0.0283465 dup scale MITERLIMIT
%%IncludeResource: font Helvetica
423.333 /Helvetica STDFONT
%%EndPageSetup
40 setlinewidth L0 0.000 0.000 0.000 setrgbcolor 2664 1690 M 14317 0 R D
2664 1690 M 0 406 R D gsave 2664 929 translate 0 0 M 1.44 dup scale
-188.172 0 N
(-6) show grestore 6243 1690 M 0 406 R D gsave 6243 929 translate 0 0 M
1.44 dup scale -188.172 0 N
(-5) show grestore 9822 1690 M 0 406 R D gsave 9822 929 translate 0 0 M
1.44 dup scale -188.172 0 N
(-4) show grestore 13402 1690 M 0 406 R D gsave 13402 929 translate 0 0 M
1.44 dup scale -188.172 0 N
(-3) show grestore 16981 1690 M 0 406 R D gsave 16981 929 translate 0 0 M
1.44 dup scale -188.172 0 N
(-2) show grestore 3022 1690 M 0 203 R D 3380 1690 M 0 203 R D 3738 1690 M
0 203 R D 4096 1690 M 0 203 R D 4454 1690 M 0 203 R D 4812 1690 M 0 203 R D
5170 1690 M 0 203 R D 5527 1690 M 0 203 R D 5885 1690 M 0 203 R D
6601 1690 M 0 203 R D 6959 1690 M 0 203 R D 7317 1690 M 0 203 R D
7675 1690 M 0 203 R D 8033 1690 M 0 203 R D 8391 1690 M 0 203 R D
8749 1690 M 0 203 R D 9107 1690 M 0 203 R D 9465 1690 M 0 203 R D
10180 1690 M 0 203 R D 10538 1690 M 0 203 R D 10896 1690 M 0 203 R D
11254 1690 M 0 203 R D 11612 1690 M 0 203 R D 11970 1690 M 0 203 R D
12328 1690 M 0 203 R D 12686 1690 M 0 203 R D 13044 1690 M 0 203 R D
13760 1690 M 0 203 R D 14118 1690 M 0 203 R D 14475 1690 M 0 203 R D
14833 1690 M 0 203 R D 15191 1690 M 0 203 R D 15549 1690 M 0 203 R D
15907 1690 M 0 203 R D 16265 1690 M 0 203 R D 16623 1690 M 0 203 R D
2664 11855 M 14317 0 R D 2664 11855 M 0 -406 R D 6243 11855 M 0 -406 R D
9822 11855 M 0 -406 R D 13402 11855 M 0 -406 R D 16981 11855 M 0 -406 R D
3022 11855 M 0 -203 R D 3380 11855 M 0 -203 R D 3738 11855 M 0 -203 R D
4096 11855 M 0 -203 R D 4454 11855 M 0 -203 R D 4812 11855 M 0 -203 R D
5170 11855 M 0 -203 R D 5527 11855 M 0 -203 R D 5885 11855 M 0 -203 R D
6601 11855 M 0 -203 R D 6959 11855 M 0 -203 R D 7317 11855 M 0 -203 R D
7675 11855 M 0 -203 R D 8033 11855 M 0 -203 R D 8391 11855 M 0 -203 R D
8749 11855 M 0 -203 R D 9107 11855 M 0 -203 R D 9465 11855 M 0 -203 R D
10180 11855 M 0 -203 R D 10538 11855 M 0 -203 R D 10896 11855 M 0 -203 R D
11254 11855 M 0 -203 R D 11612 11855 M 0 -203 R D 11970 11855 M 0 -203 R D
12328 11855 M 0 -203 R D 12686 11855 M 0 -203 R D 13044 11855 M 0 -203 R D
13760 11855 M 0 -203 R D 14118 11855 M 0 -203 R D 14475 11855 M 0 -203 R D
14833 11855 M 0 -203 R D 15191 11855 M 0 -203 R D 15549 11855 M 0 -203 R D
15907 11855 M 0 -203 R D 16265 11855 M 0 -203 R D 16623 11855 M 0 -203 R D
2664 1690 M 0 10165 R D 2664 4036 M 573 0 R D
gsave 2504 3833 translate 0 0 M 1.44 dup scale -235.373 0 N
(1) show grestore 2664 6642 M 573 0 R D gsave 2504 6439 translate 0 0 M
1.44 dup scale -235.373 0 N
(2) show grestore 2664 9249 M 573 0 R D gsave 2504 9046 translate 0 0 M
1.44 dup scale -235.373 0 N
(3) show grestore 2664 11855 M 573 0 R D gsave 2504 11500 translate 0 0 M
1.44 dup scale -235.373 0 N
(4) show grestore 2664 1690 M 286 0 R D 2664 1950 M 286 0 R D 2664 2211 M
286 0 R D 2664 2472 M 286 0 R D 2664 2732 M 286 0 R D 2664 2993 M 286 0 R D
2664 3254 M 286 0 R D 2664 3514 M 286 0 R D 2664 3775 M 286 0 R D
2664 4296 M 286 0 R D 2664 4557 M 286 0 R D 2664 4818 M 286 0 R D
2664 5078 M 286 0 R D 2664 5339 M 286 0 R D 2664 5600 M 286 0 R D
2664 5860 M 286 0 R D 2664 6121 M 286 0 R D 2664 6381 M 286 0 R D
2664 6903 M 286 0 R D 2664 7163 M 286 0 R D 2664 7424 M 286 0 R D
2664 7685 M 286 0 R D 2664 7945 M 286 0 R D 2664 8206 M 286 0 R D
2664 8467 M 286 0 R D 2664 8727 M 286 0 R D 2664 8988 M 286 0 R D
2664 9509 M 286 0 R D 2664 9770 M 286 0 R D 2664 10031 M 286 0 R D
2664 10291 M 286 0 R D 2664 10552 M 286 0 R D 2664 10813 M 286 0 R D
2664 11073 M 286 0 R D 2664 11334 M 286 0 R D 2664 11595 M 286 0 R D
16981 1690 M 0 10165 R D 16981 4036 M -573 0 R D 16981 6642 M -573 0 R D
16981 9249 M -573 0 R D 16981 11855 M -573 0 R D 16981 1690 M -286 0 R D
16981 1950 M -286 0 R D 16981 2211 M -286 0 R D 16981 2472 M -286 0 R D
16981 2732 M -286 0 R D 16981 2993 M -286 0 R D 16981 3254 M -286 0 R D
16981 3514 M -286 0 R D 16981 3775 M -286 0 R D 16981 4296 M -286 0 R D
16981 4557 M -286 0 R D 16981 4818 M -286 0 R D 16981 5078 M -286 0 R D
16981 5339 M -286 0 R D 16981 5600 M -286 0 R D 16981 5860 M -286 0 R D
16981 6121 M -286 0 R D 16981 6381 M -286 0 R D 16981 6903 M -286 0 R D
16981 7163 M -286 0 R D 16981 7424 M -286 0 R D 16981 7685 M -286 0 R D
16981 7945 M -286 0 R D 16981 8206 M -286 0 R D 16981 8467 M -286 0 R D
16981 8727 M -286 0 R D 16981 8988 M -286 0 R D 16981 9509 M -286 0 R D
16981 9770 M -286 0 R D 16981 10031 M -286 0 R D 16981 10291 M -286 0 R D
16981 10552 M -286 0 R D 16981 10813 M -286 0 R D 16981 11073 M -286 0 R D
16981 11334 M -286 0 R D 16981 11595 M -286 0 R D 2664 11855 M Z
0.761 0.000 0.000 setrgbcolor 2664 10010 M 1074 -286 R 1074 -463 R
1073 -550 R 1074 -579 R 1074 -831 R 1074 -741 R 1073 -847 R 1074 -893 R
1074 -487 R 1074 -1082 R D 0.000 0.000 1.000 setrgbcolor 2664 10775 M
1074 -480 R 1074 -603 R 1073 -683 R 1074 -772 R 1074 -677 R 1074 -918 R
1073 -740 R 1074 -924 R 1074 -835 R 1074 -686 R D L2
0.000 0.000 0.000 setrgbcolor 2664 11350 M 1074 -782 R 1074 -782 R
1073 -782 R 1074 -782 R 1074 -782 R 1074 -782 R 1073 -782 R 1074 -782 R
1074 -782 R 1074 -782 R D L3 2664 11490 M 1074 -703 R 1074 -704 R
1073 -704 R 1074 -704 R 1074 -704 R 1074 -703 R 1073 -704 R 1074 -704 R
1074 -704 R 1074 -703 R D
%%PageTrailer
end
%%PageResources: font Helvetica
%%Trailer
%%Pages: 1
%%DocumentNeededResources: font Helvetica
%%EOF
