%!PS-Adobe-3.0 EPSF-3.0
%%BoundingBox: 0 0 453 510
%%Title: Graphics produced by IDL
%%For: jlgan@aida119, /home/jlgan/work/subhalo_model
%%Creator: IDL Version 7.0 (linux x86_64 m64)
%%CreationDate: Wed Jun  3 14:30:06 2009
%%DocumentData: Clean7bit
%%Requirements: color
%%LanguageLevel: 1
%%PageOrder: Ascend
%%Pages: (atend)
%%DocumentNeededResources: (atend)
%%EndComments
%%BeginProlog
%+ prolog.ps -- Prolog for IDL generated PostScript files
%+ Copyright (c) 1988-2007 ITT Visual Information Solutions. All Rights Reserved.
%v 5
/$IDL_DICT 40 dict def $IDL_DICT begin /bdef { bind def } bind def /C
{currentpoint newpath moveto} bdef /CP {currentpoint} bdef /D {currentpoint
stroke moveto} bdef /F {closepath fill} bdef /K { setgray } bdef /M {moveto}
bdef /N {rmoveto} bdef /P {lineto} bdef /R {rlineto} bdef /S {gsave show
grestore} bdef /X {currentpoint pop} bdef /Z {gsave currentpoint lineto 20
setlinewidth 1 setlinecap stroke grestore} bdef /L0 {[] 0 setdash} bdef /L1
{[40 100] 0 setdash} bdef /L2 {[200 200] 0 setdash} bdef /L3 {[200 100 50
100] 0 setdash} bdef /L4 {[300 100 50 100 50 100 50 100] 0 setdash} bdef /L5
{[400 200] 0 setdash} bdef /STDFONT { findfont exch scalefont setfont } bdef
/ISOFONT { findfont dup length dict begin { 1 index /FID ne {def} {pop pop}
ifelse } forall /Encoding ISOLatin1Encoding def currentdict end /idltmpfont
exch definefont exch scalefont setfont } bdef /ISOBULLET { gsave /Helvetica
findfont exch scalefont setfont (\267) show currentpoint grestore moveto}
bdef /MITERLIMIT { 2.5 setmiterlimit } bdef end
%%EndProlog
%%Page: 0 1
%%PageRequirements: color
%%PageResources: (atend)
%%PageOrientation: Portrait
%%PageBoundingBox: 0 0 453 510
%%BeginPageSetup
$IDL_DICT begin 0.0283465 dup scale MITERLIMIT
%%IncludeResource: font Helvetica
423.333 /Helvetica STDFONT
%%EndPageSetup
30 setlinewidth L0 0.000 0.000 0.000 setrgbcolor 7828 671 M 0 -319 R D
8116 565 M 0 -258 R -15 -46 R -15 -15 R -30 -15 R -46 0 R -30 15 R D
8116 519 M -30 31 R -30 15 R -46 0 R -30 -15 R -31 -31 R -15 -45 R 0 -31 R
15 -45 R 31 -31 R 30 -15 R 46 0 R 30 15 R 30 31 R D 8344 732 M -30 -31 R
-31 -45 R -30 -61 R -15 -76 R 0 -61 R 15 -76 R 30 -75 R 31 -46 R 30 -30 R D
8451 565 M 0 -213 R D 8451 504 M 45 46 R 30 15 R 46 0 R 30 -15 R 16 -46 R
0 -152 R D 8618 504 M 45 46 R 31 15 R 45 0 R 30 -15 R 16 -46 R 0 -152 R D
9149 732 M -273 -501 R D 9240 671 M 0 -319 R D 9240 671 M 122 -319 R
121 319 R 0 -319 R D 9590 732 M 30 -31 R 30 -45 R 31 -61 R 15 -76 R 0 -61 R
-15 -76 R -31 -75 R -30 -46 R -30 -30 R D 569 7362 M 319 0 R D 675 7651 M
259 0 R 45 -15 R 15 -16 R 16 -30 R 0 -45 R -16 -31 R D 721 7651 M -30 -31 R
-16 -30 R 0 -45 R 16 -31 R 30 -30 R 46 -15 R 30 0 R 46 15 R 30 30 R 15 31 R
0 45 R -15 30 R -30 31 R D 508 7772 M 502 0 R D 508 7788 M 502 0 R D
508 7772 M 0 107 R D 1010 7772 M 0 107 R D 569 8152 M 319 0 R D 721 8152 M
-30 -30 R -16 -31 R 0 -45 R 16 -31 R 30 -30 R 46 -15 R 30 0 R 46 15 R
30 30 R 15 31 R 0 45 R -15 31 R -30 30 R D 569 8274 M 319 0 R D 569 8274 M
319 212 R -319 0 R D 508 8851 M 502 -274 R D 569 9109 M 319 0 R D 721 9109 M
-30 -30 R -16 -31 R 0 -45 R 16 -31 R 30 -30 R 46 -15 R 30 0 R 46 15 R
30 30 R 15 31 R 0 45 R -15 31 R -30 30 R D 569 9231 M 319 0 R D 675 9352 M
213 0 R D 736 9352 M -45 46 R -16 30 R 0 46 R 16 30 R 45 15 R 152 0 R D
508 9747 M 31 -30 R 45 -31 R 61 -30 R 76 -15 R 61 0 R 76 15 R 76 30 R
45 31 R 31 30 R D 675 9853 M 213 0 R D 736 9853 M -45 46 R -16 30 R 0 46 R
16 30 R 45 15 R 152 0 R D 736 10020 M -45 46 R -16 30 R 0 46 R 16 30 R
45 16 R 152 0 R D 508 10552 M 502 -273 R D 569 10643 M 319 0 R D 569 10643 M
319 122 R -319 121 R 319 0 R D 508 10993 M 31 30 R 45 30 R 61 31 R 76 15 R
61 0 R 76 -15 R 76 -31 R 45 -30 R 31 -30 R D 508 11296 M 502 0 R D
508 11312 M 502 0 R D 508 11205 M 0 107 R D 1010 11205 M 0 107 R D
20 setlinewidth 2220 12000 M 6557 0 R D 2712 12000 M 0 212 R D 4351 12000 M
0 212 R D 5990 12000 M 0 212 R D 7630 12000 M 0 212 R D 2220 12000 M 0 106 R
D 2384 12000 M 0 106 R D 2548 12000 M 0 106 R D 2876 12000 M 0 106 R D
3040 12000 M 0 106 R D 3204 12000 M 0 106 R D 3368 12000 M 0 106 R D
3531 12000 M 0 106 R D 3695 12000 M 0 106 R D 3859 12000 M 0 106 R D
4023 12000 M 0 106 R D 4187 12000 M 0 106 R D 4515 12000 M 0 106 R D
4679 12000 M 0 106 R D 4843 12000 M 0 106 R D 5007 12000 M 0 106 R D
5171 12000 M 0 106 R D 5335 12000 M 0 106 R D 5499 12000 M 0 106 R D
5663 12000 M 0 106 R D 5826 12000 M 0 106 R D 6154 12000 M 0 106 R D
6318 12000 M 0 106 R D 6482 12000 M 0 106 R D 6646 12000 M 0 106 R D
6810 12000 M 0 106 R D 6974 12000 M 0 106 R D 7138 12000 M 0 106 R D
7302 12000 M 0 106 R D 7466 12000 M 0 106 R D 7794 12000 M 0 106 R D
7957 12000 M 0 106 R D 8121 12000 M 0 106 R D 8285 12000 M 0 106 R D
8449 12000 M 0 106 R D 8613 12000 M 0 106 R D 8777 12000 M 0 106 R D
2220 17296 M 6557 0 R D 2712 17296 M 0 -212 R D 4351 17296 M 0 -212 R D
5990 17296 M 0 -212 R D 7630 17296 M 0 -212 R D 2220 17296 M 0 -106 R D
2384 17296 M 0 -106 R D 2548 17296 M 0 -106 R D 2876 17296 M 0 -106 R D
3040 17296 M 0 -106 R D 3204 17296 M 0 -106 R D 3368 17296 M 0 -106 R D
3531 17296 M 0 -106 R D 3695 17296 M 0 -106 R D 3859 17296 M 0 -106 R D
4023 17296 M 0 -106 R D 4187 17296 M 0 -106 R D 4515 17296 M 0 -106 R D
4679 17296 M 0 -106 R D 4843 17296 M 0 -106 R D 5007 17296 M 0 -106 R D
5171 17296 M 0 -106 R D 5335 17296 M 0 -106 R D 5499 17296 M 0 -106 R D
5663 17296 M 0 -106 R D 5826 17296 M 0 -106 R D 6154 17296 M 0 -106 R D
6318 17296 M 0 -106 R D 6482 17296 M 0 -106 R D 6646 17296 M 0 -106 R D
6810 17296 M 0 -106 R D 6974 17296 M 0 -106 R D 7138 17296 M 0 -106 R D
7302 17296 M 0 -106 R D 7466 17296 M 0 -106 R D 7794 17296 M 0 -106 R D
7957 17296 M 0 -106 R D 8121 17296 M 0 -106 R D 8285 17296 M 0 -106 R D
8449 17296 M 0 -106 R D 8613 17296 M 0 -106 R D 8777 17296 M 0 -106 R D
2220 12000 M 0 5296 R D 2220 12000 M 262 0 R D 30 setlinewidth 1607 12105 M
210 0 R D 1910 12187 M 0 12 R 12 23 R 12 12 R 23 11 R 47 0 R 23 -11 R
12 -12 R 12 -23 R 0 -24 R -12 -23 R -23 -35 R -117 -117 R 163 0 R D
20 setlinewidth 2220 13177 M 262 0 R D 30 setlinewidth 1607 13141 M 210 0 R
D 1934 13235 M 23 11 R 35 36 R 0 -246 R D 20 setlinewidth 2220 14354 M
262 0 R D 30 setlinewidth 1969 14458 M -35 -11 R -24 -35 R -11 -59 R 0 -35 R
11 -58 R 24 -35 R 35 -12 R 23 0 R 35 12 R 24 35 R 11 58 R 0 35 R -11 59 R
-24 35 R -35 11 R -23 0 R D 20 setlinewidth 2220 15531 M 262 0 R D
30 setlinewidth 1934 15589 M 23 11 R 35 35 R 0 -245 R D 20 setlinewidth
2220 16708 M 262 0 R D 30 setlinewidth 1910 16754 M 0 11 R 12 24 R 12 12 R
23 11 R 47 0 R 23 -11 R 12 -12 R 12 -24 R 0 -23 R -12 -23 R -23 -35 R
-117 -117 R 163 0 R D 20 setlinewidth 2220 12118 M 131 0 R D 2220 12235 M
131 0 R D 2220 12353 M 131 0 R D 2220 12471 M 131 0 R D 2220 12589 M 131 0 R
D 2220 12706 M 131 0 R D 2220 12824 M 131 0 R D 2220 12942 M 131 0 R D
2220 13059 M 131 0 R D 2220 13295 M 131 0 R D 2220 13412 M 131 0 R D
2220 13530 M 131 0 R D 2220 13648 M 131 0 R D 2220 13765 M 131 0 R D
2220 13883 M 131 0 R D 2220 14001 M 131 0 R D 2220 14118 M 131 0 R D
2220 14236 M 131 0 R D 2220 14472 M 131 0 R D 2220 14589 M 131 0 R D
2220 14707 M 131 0 R D 2220 14825 M 131 0 R D 2220 14942 M 131 0 R D
2220 15060 M 131 0 R D 2220 15178 M 131 0 R D 2220 15295 M 131 0 R D
2220 15413 M 131 0 R D 2220 15648 M 131 0 R D 2220 15766 M 131 0 R D
2220 15884 M 131 0 R D 2220 16002 M 131 0 R D 2220 16119 M 131 0 R D
2220 16237 M 131 0 R D 2220 16355 M 131 0 R D 2220 16472 M 131 0 R D
2220 16590 M 131 0 R D 2220 16825 M 131 0 R D 2220 16943 M 131 0 R D
2220 17061 M 131 0 R D 2220 17178 M 131 0 R D 2220 17296 M 131 0 R D
8777 12000 M 0 5296 R D 8777 12000 M -262 0 R D 8777 13177 M -262 0 R D
8777 14354 M -262 0 R D 8777 15531 M -262 0 R D 8777 16708 M -262 0 R D
8777 12118 M -131 0 R D 8777 12235 M -131 0 R D 8777 12353 M -131 0 R D
8777 12471 M -131 0 R D 8777 12589 M -131 0 R D 8777 12706 M -131 0 R D
8777 12824 M -131 0 R D 8777 12942 M -131 0 R D 8777 13059 M -131 0 R D
8777 13295 M -131 0 R D 8777 13412 M -131 0 R D 8777 13530 M -131 0 R D
8777 13648 M -131 0 R D 8777 13765 M -131 0 R D 8777 13883 M -131 0 R D
8777 14001 M -131 0 R D 8777 14118 M -131 0 R D 8777 14236 M -131 0 R D
8777 14472 M -131 0 R D 8777 14589 M -131 0 R D 8777 14707 M -131 0 R D
8777 14825 M -131 0 R D 8777 14942 M -131 0 R D 8777 15060 M -131 0 R D
8777 15178 M -131 0 R D 8777 15295 M -131 0 R D 8777 15413 M -131 0 R D
8777 15648 M -131 0 R D 8777 15766 M -131 0 R D 8777 15884 M -131 0 R D
8777 16002 M -131 0 R D 8777 16119 M -131 0 R D 8777 16237 M -131 0 R D
8777 16355 M -131 0 R D 8777 16472 M -131 0 R D 8777 16590 M -131 0 R D
8777 16825 M -131 0 R D 8777 16943 M -131 0 R D 8777 17061 M -131 0 R D
8777 17178 M -131 0 R D 8777 17296 M -131 0 R D 30 setlinewidth L2
2598 17296 M 494 -283 R 622 -358 R 623 -357 R 623 -358 R 622 -358 R
623 -357 R 622 -358 R 623 -360 R 623 -395 R 622 -877 R D L0 2469 17037 M
623 -145 R 622 -360 R 623 -341 R 623 -346 R 622 -284 R 623 -360 R 622 -292 R
623 -266 R 623 -289 R 622 -620 R D L2 2712 16123 M 492 -246 R 491 -269 R
492 -295 R 492 -308 R 492 -286 R 492 -305 R 491 -305 R 492 -261 R 492 -306 R
492 -303 R D L5 2220 16991 M 492 -340 R 819 -551 R 820 -466 R 820 -643 R
410 -367 R D 20 setlinewidth L0 0.000 0.000 1.000 setrgbcolor 2712 16951 M
492 -308 R 491 -325 R 492 -310 R 492 -381 R 492 -334 R 492 -354 R 491 -523 R
492 -293 R 492 -585 R 492 -123 R D 50 setlinewidth 2712 16679 M 492 -299 R
491 -311 R 492 -328 R 492 -361 R 492 -291 R 492 -396 R 491 -370 R 492 -469 R
492 -188 R 492 -300 R D 80 setlinewidth 2712 16537 M 492 -302 R 491 -332 R
492 -342 R 492 -330 R 492 -321 R 492 -347 R 491 -364 R 492 -626 R 492 64 R
492 -271 R D 30 setlinewidth 2646 16380 M 131 0 R -65 0 R 0 314 R -66 0 R
131 0 R D 3138 16078 M 131 0 R -65 0 R 0 315 R -66 0 R 131 0 R D
3630 15726 M 131 0 R -66 0 R 0 354 R -65 0 R 131 0 R D 4122 15343 M 131 0 R
-66 0 R 0 436 R -65 0 R 131 0 R D 4613 14962 M 132 0 R -66 0 R 0 537 R
-66 0 R 132 0 R D 5105 14550 M 131 0 R -65 0 R 0 720 R -66 0 R 131 0 R D
5597 14079 M 131 0 R -65 0 R 0 968 R -66 0 R 131 0 R D 6089 13523 M 131 0 R
-66 0 R 0 1351 R -65 0 R 131 0 R D 6580 12258 M 132 0 R -66 0 R 0 2631 R
-66 0 R 132 0 R D 7072 12351 M 131 0 R -65 0 R 0 2572 R -66 0 R 131 0 R D
7630 12000 M 0 2907 R -66 0 R 131 0 R D 110 setlinewidth 2712 16371 M
492 -324 R 491 -333 R 492 -313 R 492 -316 R 492 -420 R 492 -297 R 491 -347 R
492 -521 R 492 194 R 492 -589 R D 30 setlinewidth
0.000 0.000 0.000 setrgbcolor 3085 12908 M 0 -319 R D 3085 12756 M 31 30 R
30 15 R 46 0 R 30 -15 R 30 -30 R 16 -46 R 0 -30 R -16 -46 R -30 -30 R
-30 -15 R -46 0 R -30 15 R -31 30 R D 3526 12756 M -15 30 R -46 15 R -46 0 R
-45 -15 R -15 -30 R 15 -31 R 30 -15 R 76 -15 R 31 -15 R 15 -31 R 0 -15 R
-15 -30 R -46 -15 R -46 0 R -45 15 R -15 30 R D 3708 12908 M -46 -16 R
-30 -45 R -15 -76 R 0 -46 R 15 -76 R 30 -45 R 46 -15 R 30 0 R 46 15 R
30 45 R 16 76 R 0 46 R -16 76 R -30 45 R -46 16 R -30 0 R D 4012 12908 M
-46 -16 R -30 -45 R -15 -76 R 0 -46 R 15 -76 R 30 -45 R 46 -15 R 30 0 R
46 15 R 30 45 R 15 76 R 0 46 R -15 76 R -30 45 R -46 16 R -30 0 R D
20 setlinewidth 8777 12000 M 6557 0 R D 9269 12000 M 0 212 R D 10908 12000 M
0 212 R D 12547 12000 M 0 212 R D 14187 12000 M 0 212 R D 8777 12000 M
0 106 R D 8941 12000 M 0 106 R D 9105 12000 M 0 106 R D 9433 12000 M 0 106 R
D 9597 12000 M 0 106 R D 9761 12000 M 0 106 R D 9925 12000 M 0 106 R D
10088 12000 M 0 106 R D 10252 12000 M 0 106 R D 10416 12000 M 0 106 R D
10580 12000 M 0 106 R D 10744 12000 M 0 106 R D 11072 12000 M 0 106 R D
11236 12000 M 0 106 R D 11400 12000 M 0 106 R D 11564 12000 M 0 106 R D
11728 12000 M 0 106 R D 11892 12000 M 0 106 R D 12056 12000 M 0 106 R D
12220 12000 M 0 106 R D 12383 12000 M 0 106 R D 12711 12000 M 0 106 R D
12875 12000 M 0 106 R D 13039 12000 M 0 106 R D 13203 12000 M 0 106 R D
13367 12000 M 0 106 R D 13531 12000 M 0 106 R D 13695 12000 M 0 106 R D
13859 12000 M 0 106 R D 14023 12000 M 0 106 R D 14351 12000 M 0 106 R D
14514 12000 M 0 106 R D 14678 12000 M 0 106 R D 14842 12000 M 0 106 R D
15006 12000 M 0 106 R D 15170 12000 M 0 106 R D 15334 12000 M 0 106 R D
8777 17296 M 6557 0 R D 9269 17296 M 0 -212 R D 10908 17296 M 0 -212 R D
12547 17296 M 0 -212 R D 14187 17296 M 0 -212 R D 8777 17296 M 0 -106 R D
8941 17296 M 0 -106 R D 9105 17296 M 0 -106 R D 9433 17296 M 0 -106 R D
9597 17296 M 0 -106 R D 9761 17296 M 0 -106 R D 9925 17296 M 0 -106 R D
10088 17296 M 0 -106 R D 10252 17296 M 0 -106 R D 10416 17296 M 0 -106 R D
10580 17296 M 0 -106 R D 10744 17296 M 0 -106 R D 11072 17296 M 0 -106 R D
11236 17296 M 0 -106 R D 11400 17296 M 0 -106 R D 11564 17296 M 0 -106 R D
11728 17296 M 0 -106 R D 11892 17296 M 0 -106 R D 12056 17296 M 0 -106 R D
12220 17296 M 0 -106 R D 12383 17296 M 0 -106 R D 12711 17296 M 0 -106 R D
12875 17296 M 0 -106 R D 13039 17296 M 0 -106 R D 13203 17296 M 0 -106 R D
13367 17296 M 0 -106 R D 13531 17296 M 0 -106 R D 13695 17296 M 0 -106 R D
13859 17296 M 0 -106 R D 14023 17296 M 0 -106 R D 14351 17296 M 0 -106 R D
14514 17296 M 0 -106 R D 14678 17296 M 0 -106 R D 14842 17296 M 0 -106 R D
15006 17296 M 0 -106 R D 15170 17296 M 0 -106 R D 15334 17296 M 0 -106 R D
8777 12000 M 0 5296 R D 8777 12000 M 262 0 R D 8777 13177 M 262 0 R D
8777 14354 M 262 0 R D 8777 15531 M 262 0 R D 8777 16708 M 262 0 R D
8777 12118 M 131 0 R D 8777 12235 M 131 0 R D 8777 12353 M 131 0 R D
8777 12471 M 131 0 R D 8777 12589 M 131 0 R D 8777 12706 M 131 0 R D
8777 12824 M 131 0 R D 8777 12942 M 131 0 R D 8777 13059 M 131 0 R D
8777 13295 M 131 0 R D 8777 13412 M 131 0 R D 8777 13530 M 131 0 R D
8777 13648 M 131 0 R D 8777 13765 M 131 0 R D 8777 13883 M 131 0 R D
8777 14001 M 131 0 R D 8777 14118 M 131 0 R D 8777 14236 M 131 0 R D
8777 14472 M 131 0 R D 8777 14589 M 131 0 R D 8777 14707 M 131 0 R D
8777 14825 M 131 0 R D 8777 14942 M 131 0 R D 8777 15060 M 131 0 R D
8777 15178 M 131 0 R D 8777 15295 M 131 0 R D 8777 15413 M 131 0 R D
8777 15648 M 131 0 R D 8777 15766 M 131 0 R D 8777 15884 M 131 0 R D
8777 16002 M 131 0 R D 8777 16119 M 131 0 R D 8777 16237 M 131 0 R D
8777 16355 M 131 0 R D 8777 16472 M 131 0 R D 8777 16590 M 131 0 R D
8777 16825 M 131 0 R D 8777 16943 M 131 0 R D 8777 17061 M 131 0 R D
8777 17178 M 131 0 R D 8777 17296 M 131 0 R D 15334 12000 M 0 5296 R D
15334 12000 M -262 0 R D 15334 13177 M -262 0 R D 15334 14354 M -262 0 R D
15334 15531 M -262 0 R D 15334 16708 M -262 0 R D 15334 12118 M -131 0 R D
15334 12235 M -131 0 R D 15334 12353 M -131 0 R D 15334 12471 M -131 0 R D
15334 12589 M -131 0 R D 15334 12706 M -131 0 R D 15334 12824 M -131 0 R D
15334 12942 M -131 0 R D 15334 13059 M -131 0 R D 15334 13295 M -131 0 R D
15334 13412 M -131 0 R D 15334 13530 M -131 0 R D 15334 13648 M -131 0 R D
15334 13765 M -131 0 R D 15334 13883 M -131 0 R D 15334 14001 M -131 0 R D
15334 14118 M -131 0 R D 15334 14236 M -131 0 R D 15334 14472 M -131 0 R D
15334 14589 M -131 0 R D 15334 14707 M -131 0 R D 15334 14825 M -131 0 R D
15334 14942 M -131 0 R D 15334 15060 M -131 0 R D 15334 15178 M -131 0 R D
15334 15295 M -131 0 R D 15334 15413 M -131 0 R D 15334 15648 M -131 0 R D
15334 15766 M -131 0 R D 15334 15884 M -131 0 R D 15334 16002 M -131 0 R D
15334 16119 M -131 0 R D 15334 16237 M -131 0 R D 15334 16355 M -131 0 R D
15334 16472 M -131 0 R D 15334 16590 M -131 0 R D 15334 16825 M -131 0 R D
15334 16943 M -131 0 R D 15334 17061 M -131 0 R D 15334 17178 M -131 0 R D
15334 17296 M -131 0 R D 30 setlinewidth L2 9155 17296 M 494 -283 R
622 -358 R 623 -357 R 623 -358 R 622 -358 R 623 -357 R 622 -358 R 623 -360 R
623 -395 R 622 -877 R D L0 9026 17037 M 623 -145 R 622 -360 R 623 -341 R
623 -346 R 622 -284 R 623 -360 R 622 -292 R 623 -266 R 623 -289 R 622 -620 R
D L2 9269 16123 M 492 -246 R 491 -269 R 492 -295 R 492 -308 R 492 -286 R
492 -305 R 491 -305 R 492 -261 R 492 -306 R 492 -303 R D L5 8777 16991 M
492 -340 R 819 -551 R 820 -466 R 820 -643 R 410 -367 R D 20 setlinewidth L0
0.000 0.000 1.000 setrgbcolor 9269 16951 M 492 -308 R 491 -325 R 492 -310 R
492 -381 R 492 -334 R 492 -354 R 491 -523 R 492 -293 R 492 -585 R 492 -123 R
D 50 setlinewidth 9269 16654 M 492 -311 R 491 -300 R 492 -310 R 492 -366 R
492 -292 R 492 -382 R 491 -290 R 492 -529 R 492 -180 R 492 -442 R D
80 setlinewidth 9269 16502 M 492 -306 R 491 -324 R 492 -346 R 492 -298 R
492 -294 R 492 -401 R 491 -260 R 492 -667 R 492 139 R 492 -493 R D
30 setlinewidth 9203 16357 M 131 0 R -65 0 R 0 290 R -66 0 R 131 0 R D
9695 16036 M 131 0 R -65 0 R 0 320 R -66 0 R 131 0 R D 10187 15674 M 131 0 R
-66 0 R 0 396 R -65 0 R 131 0 R D 10679 15286 M 131 0 R -66 0 R 0 481 R
-65 0 R 131 0 R D 11170 14962 M 132 0 R -66 0 R 0 532 R -66 0 R 132 0 R D
11662 14562 M 131 0 R -65 0 R 0 744 R -66 0 R 131 0 R D 12154 14019 M
131 0 R -65 0 R 0 1027 R -66 0 R 131 0 R D 12646 13632 M 131 0 R -66 0 R
0 1282 R -65 0 R 131 0 R D 13137 12266 M 132 0 R -66 0 R 0 2681 R -66 0 R
132 0 R D 13629 12749 M 131 0 R -65 0 R 0 1993 R -66 0 R 131 0 R D
14187 12000 M 0 2994 R -66 0 R 131 0 R D 110 setlinewidth 9269 16270 M
492 -336 R 491 -345 R 492 -320 R 492 -314 R 492 -397 R 492 -293 R 491 -337 R
492 -562 R 492 207 R 492 -468 R D 30 setlinewidth
0.000 0.000 0.000 setrgbcolor 9642 12908 M 0 -319 R D 9642 12756 M 31 30 R
30 15 R 46 0 R 30 -15 R 30 -30 R 16 -46 R 0 -30 R -16 -46 R -30 -30 R
-30 -15 R -46 0 R -30 15 R -31 30 R D 10083 12756 M -15 30 R -46 15 R
-46 0 R -45 -15 R -15 -30 R 15 -31 R 30 -15 R 76 -15 R 31 -15 R 15 -31 R
0 -15 R -15 -30 R -46 -15 R -46 0 R -45 15 R -15 30 R D 10265 12908 M
-46 -16 R -30 -45 R -15 -76 R 0 -46 R 15 -76 R 30 -45 R 46 -15 R 30 0 R
46 15 R 30 45 R 16 76 R 0 46 R -16 76 R -30 45 R -46 16 R -30 0 R D
10493 12801 M 0 -212 R D 10493 12710 M 15 46 R 30 30 R 31 15 R 45 0 R D
10842 12756 M -15 30 R -46 15 R -45 0 R -46 -15 R -15 -30 R 15 -31 R
31 -15 R 76 -15 R 30 -15 R 15 -31 R 0 -15 R -15 -30 R -46 -15 R -45 0 R
-46 15 R -15 30 R D 20 setlinewidth 2220 6704 M 6557 0 R D 2712 6704 M
0 212 R D 4351 6704 M 0 212 R D 5990 6704 M 0 212 R D 7630 6704 M 0 212 R D
2220 6704 M 0 106 R D 2384 6704 M 0 106 R D 2548 6704 M 0 106 R D
2876 6704 M 0 106 R D 3040 6704 M 0 106 R D 3204 6704 M 0 106 R D
3368 6704 M 0 106 R D 3531 6704 M 0 106 R D 3695 6704 M 0 106 R D
3859 6704 M 0 106 R D 4023 6704 M 0 106 R D 4187 6704 M 0 106 R D
4515 6704 M 0 106 R D 4679 6704 M 0 106 R D 4843 6704 M 0 106 R D
5007 6704 M 0 106 R D 5171 6704 M 0 106 R D 5335 6704 M 0 106 R D
5499 6704 M 0 106 R D 5663 6704 M 0 106 R D 5826 6704 M 0 106 R D
6154 6704 M 0 106 R D 6318 6704 M 0 106 R D 6482 6704 M 0 106 R D
6646 6704 M 0 106 R D 6810 6704 M 0 106 R D 6974 6704 M 0 106 R D
7138 6704 M 0 106 R D 7302 6704 M 0 106 R D 7466 6704 M 0 106 R D
7794 6704 M 0 106 R D 7957 6704 M 0 106 R D 8121 6704 M 0 106 R D
8285 6704 M 0 106 R D 8449 6704 M 0 106 R D 8613 6704 M 0 106 R D
8777 6704 M 0 106 R D 2220 12000 M 6557 0 R D 2712 12000 M 0 -212 R D
4351 12000 M 0 -212 R D 5990 12000 M 0 -212 R D 7630 12000 M 0 -212 R D
2220 12000 M 0 -106 R D 2384 12000 M 0 -106 R D 2548 12000 M 0 -106 R D
2876 12000 M 0 -106 R D 3040 12000 M 0 -106 R D 3204 12000 M 0 -106 R D
3368 12000 M 0 -106 R D 3531 12000 M 0 -106 R D 3695 12000 M 0 -106 R D
3859 12000 M 0 -106 R D 4023 12000 M 0 -106 R D 4187 12000 M 0 -106 R D
4515 12000 M 0 -106 R D 4679 12000 M 0 -106 R D 4843 12000 M 0 -106 R D
5007 12000 M 0 -106 R D 5171 12000 M 0 -106 R D 5335 12000 M 0 -106 R D
5499 12000 M 0 -106 R D 5663 12000 M 0 -106 R D 5826 12000 M 0 -106 R D
6154 12000 M 0 -106 R D 6318 12000 M 0 -106 R D 6482 12000 M 0 -106 R D
6646 12000 M 0 -106 R D 6810 12000 M 0 -106 R D 6974 12000 M 0 -106 R D
7138 12000 M 0 -106 R D 7302 12000 M 0 -106 R D 7466 12000 M 0 -106 R D
7794 12000 M 0 -106 R D 7957 12000 M 0 -106 R D 8121 12000 M 0 -106 R D
8285 12000 M 0 -106 R D 8449 12000 M 0 -106 R D 8613 12000 M 0 -106 R D
8777 12000 M 0 -106 R D 2220 6704 M 0 5296 R D 2220 6704 M 262 0 R D
30 setlinewidth 1607 6809 M 210 0 R D 1910 6891 M 0 12 R 12 23 R 12 12 R
23 11 R 47 0 R 23 -11 R 12 -12 R 12 -23 R 0 -24 R -12 -23 R -23 -35 R
-117 -117 R 163 0 R D 20 setlinewidth 2220 7881 M 262 0 R D 30 setlinewidth
1607 7845 M 210 0 R D 1934 7939 M 23 11 R 35 36 R 0 -246 R D 20 setlinewidth
2220 9058 M 262 0 R D 30 setlinewidth 1969 9162 M -35 -11 R -24 -35 R
-11 -59 R 0 -35 R 11 -58 R 24 -35 R 35 -12 R 23 0 R 35 12 R 24 35 R 11 58 R
0 35 R -11 59 R -24 35 R -35 11 R -23 0 R D 20 setlinewidth 2220 10235 M
262 0 R D 30 setlinewidth 1934 10293 M 23 11 R 35 35 R 0 -245 R D
20 setlinewidth 2220 11412 M 262 0 R D 30 setlinewidth 1910 11458 M 0 11 R
12 24 R 12 12 R 23 11 R 47 0 R 23 -11 R 12 -12 R 12 -24 R 0 -23 R -12 -23 R
-23 -35 R -117 -117 R 163 0 R D 20 setlinewidth 2220 6822 M 131 0 R D
2220 6939 M 131 0 R D 2220 7057 M 131 0 R D 2220 7175 M 131 0 R D
2220 7293 M 131 0 R D 2220 7410 M 131 0 R D 2220 7528 M 131 0 R D
2220 7646 M 131 0 R D 2220 7763 M 131 0 R D 2220 7999 M 131 0 R D
2220 8116 M 131 0 R D 2220 8234 M 131 0 R D 2220 8352 M 131 0 R D
2220 8469 M 131 0 R D 2220 8587 M 131 0 R D 2220 8705 M 131 0 R D
2220 8822 M 131 0 R D 2220 8940 M 131 0 R D 2220 9176 M 131 0 R D
2220 9293 M 131 0 R D 2220 9411 M 131 0 R D 2220 9529 M 131 0 R D
2220 9646 M 131 0 R D 2220 9764 M 131 0 R D 2220 9882 M 131 0 R D
2220 9999 M 131 0 R D 2220 10117 M 131 0 R D 2220 10352 M 131 0 R D
2220 10470 M 131 0 R D 2220 10588 M 131 0 R D 2220 10706 M 131 0 R D
2220 10823 M 131 0 R D 2220 10941 M 131 0 R D 2220 11059 M 131 0 R D
2220 11176 M 131 0 R D 2220 11294 M 131 0 R D 2220 11529 M 131 0 R D
2220 11647 M 131 0 R D 2220 11765 M 131 0 R D 2220 11882 M 131 0 R D
2220 12000 M 131 0 R D 8777 6704 M 0 5296 R D 8777 6704 M -262 0 R D
8777 7881 M -262 0 R D 8777 9058 M -262 0 R D 8777 10235 M -262 0 R D
8777 11412 M -262 0 R D 8777 6822 M -131 0 R D 8777 6939 M -131 0 R D
8777 7057 M -131 0 R D 8777 7175 M -131 0 R D 8777 7293 M -131 0 R D
8777 7410 M -131 0 R D 8777 7528 M -131 0 R D 8777 7646 M -131 0 R D
8777 7763 M -131 0 R D 8777 7999 M -131 0 R D 8777 8116 M -131 0 R D
8777 8234 M -131 0 R D 8777 8352 M -131 0 R D 8777 8469 M -131 0 R D
8777 8587 M -131 0 R D 8777 8705 M -131 0 R D 8777 8822 M -131 0 R D
8777 8940 M -131 0 R D 8777 9176 M -131 0 R D 8777 9293 M -131 0 R D
8777 9411 M -131 0 R D 8777 9529 M -131 0 R D 8777 9646 M -131 0 R D
8777 9764 M -131 0 R D 8777 9882 M -131 0 R D 8777 9999 M -131 0 R D
8777 10117 M -131 0 R D 8777 10352 M -131 0 R D 8777 10470 M -131 0 R D
8777 10588 M -131 0 R D 8777 10706 M -131 0 R D 8777 10823 M -131 0 R D
8777 10941 M -131 0 R D 8777 11059 M -131 0 R D 8777 11176 M -131 0 R D
8777 11294 M -131 0 R D 8777 11529 M -131 0 R D 8777 11647 M -131 0 R D
8777 11765 M -131 0 R D 8777 11882 M -131 0 R D 8777 12000 M -131 0 R D
30 setlinewidth L2 2598 12000 M 494 -283 R 622 -358 R 623 -357 R 623 -358 R
622 -358 R 623 -357 R 622 -358 R 623 -360 R 623 -395 R 622 -877 R D L0
2469 11741 M 623 -145 R 622 -360 R 623 -341 R 623 -346 R 622 -284 R
623 -360 R 622 -292 R 623 -266 R 623 -289 R 622 -620 R D L2 2712 10827 M
492 -246 R 491 -269 R 492 -295 R 492 -308 R 492 -286 R 492 -305 R 491 -305 R
492 -261 R 492 -306 R 492 -303 R D L5 2220 11695 M 492 -340 R 819 -551 R
820 -466 R 820 -643 R 410 -367 R D 20 setlinewidth L0
0.000 0.000 1.000 setrgbcolor 2712 11655 M 492 -308 R 491 -325 R 492 -310 R
492 -381 R 492 -334 R 492 -354 R 491 -523 R 492 -293 R 492 -585 R 492 -123 R
D 50 setlinewidth 2712 11376 M 492 -298 R 491 -308 R 492 -326 R 492 -360 R
492 -291 R 492 -396 R 491 -370 R 492 -469 R 492 -188 R 492 -300 R D
80 setlinewidth 2712 11225 M 492 -311 R 491 -317 R 492 -350 R 492 -323 R
492 -281 R 492 -396 R 491 -306 R 492 -600 R 492 29 R 492 -482 R D
30 setlinewidth 2646 11072 M 131 0 R -65 0 R 0 306 R -66 0 R 131 0 R D
3138 10755 M 131 0 R -65 0 R 0 318 R -66 0 R 131 0 R D 3630 10401 M 131 0 R
-66 0 R 0 392 R -65 0 R 131 0 R D 4122 10018 M 131 0 R -66 0 R 0 458 R
-65 0 R 131 0 R D 4613 9649 M 132 0 R -66 0 R 0 550 R -66 0 R 132 0 R D
5105 9279 M 131 0 R -65 0 R 0 728 R -66 0 R 131 0 R D 5597 8723 M 131 0 R
-65 0 R 0 1048 R -66 0 R 131 0 R D 6089 8289 M 131 0 R -66 0 R 0 1305 R
-65 0 R 131 0 R D 6580 7128 M 132 0 R -66 0 R 0 2426 R -66 0 R 132 0 R D
7072 7274 M 131 0 R -65 0 R 0 2193 R -66 0 R 131 0 R D 7630 6704 M 0 3056 R
-66 0 R 131 0 R D 110 setlinewidth 2712 11039 M 492 -327 R 491 -331 R
492 -323 R 492 -333 R 492 -398 R 492 -292 R 491 -325 R 492 -506 R 492 194 R
492 -589 R D 30 setlinewidth 0.000 0.000 0.000 setrgbcolor 3085 7612 M
0 -319 R D 3085 7460 M 31 30 R 30 15 R 46 0 R 30 -15 R 30 -30 R 16 -46 R
0 -30 R -16 -46 R -30 -30 R -30 -15 R -46 0 R -30 15 R -31 30 R D
3526 7460 M -15 30 R -46 15 R -46 0 R -45 -15 R -15 -30 R 15 -31 R 30 -15 R
76 -15 R 31 -15 R 15 -31 R 0 -15 R -15 -30 R -46 -15 R -46 0 R -45 15 R
-15 30 R D 3708 7612 M -46 -16 R -30 -45 R -15 -76 R 0 -46 R 15 -76 R
30 -45 R 46 -15 R 30 0 R 46 15 R 30 45 R 16 76 R 0 46 R -16 76 R -30 45 R
-46 16 R -30 0 R D 3936 7505 M 0 -212 R D 3936 7414 M 15 46 R 30 30 R
31 15 R 45 0 R D 4285 7460 M -15 30 R -46 15 R -45 0 R -46 -15 R -15 -30 R
15 -31 R 31 -15 R 76 -15 R 30 -15 R 15 -31 R 0 -15 R -15 -30 R -46 -15 R
-45 0 R -46 15 R -15 30 R D 4392 7612 M 0 -319 R D 4392 7444 M 45 46 R
31 15 R 45 0 R 30 -15 R 16 -46 R 0 -151 R D 20 setlinewidth 8777 6704 M
6557 0 R D 9269 6704 M 0 212 R D 30 setlinewidth 9035 6281 M 210 0 R D
9444 6421 M -117 -163 R 176 0 R D 9444 6421 M 0 -245 R D 20 setlinewidth
10908 6704 M 0 212 R D 30 setlinewidth 10674 6281 M 211 0 R D 10990 6421 M
128 0 R -70 -93 R 35 0 R 24 -12 R 11 -11 R 12 -35 R 0 -24 R -12 -35 R
-23 -23 R -35 -12 R -35 0 R -35 12 R -12 11 R -11 24 R D 20 setlinewidth
12547 6704 M 0 212 R D 30 setlinewidth 12314 6281 M 210 0 R D 12617 6363 M
0 12 R 12 23 R 12 12 R 23 11 R 47 0 R 23 -11 R 12 -12 R 12 -23 R 0 -24 R
-12 -23 R -23 -35 R -117 -117 R 163 0 R D 20 setlinewidth 14187 6704 M
0 212 R D 30 setlinewidth 13953 6281 M 210 0 R D 14280 6375 M 23 11 R
35 35 R 0 -245 R D 20 setlinewidth 8777 6704 M 0 106 R D 8941 6704 M 0 106 R
D 9105 6704 M 0 106 R D 9433 6704 M 0 106 R D 9597 6704 M 0 106 R D
9761 6704 M 0 106 R D 9925 6704 M 0 106 R D 10088 6704 M 0 106 R D
10252 6704 M 0 106 R D 10416 6704 M 0 106 R D 10580 6704 M 0 106 R D
10744 6704 M 0 106 R D 11072 6704 M 0 106 R D 11236 6704 M 0 106 R D
11400 6704 M 0 106 R D 11564 6704 M 0 106 R D 11728 6704 M 0 106 R D
11892 6704 M 0 106 R D 12056 6704 M 0 106 R D 12220 6704 M 0 106 R D
12383 6704 M 0 106 R D 12711 6704 M 0 106 R D 12875 6704 M 0 106 R D
13039 6704 M 0 106 R D 13203 6704 M 0 106 R D 13367 6704 M 0 106 R D
13531 6704 M 0 106 R D 13695 6704 M 0 106 R D 13859 6704 M 0 106 R D
14023 6704 M 0 106 R D 14351 6704 M 0 106 R D 14514 6704 M 0 106 R D
14678 6704 M 0 106 R D 14842 6704 M 0 106 R D 15006 6704 M 0 106 R D
15170 6704 M 0 106 R D 15334 6704 M 0 106 R D 8777 12000 M 6557 0 R D
9269 12000 M 0 -212 R D 10908 12000 M 0 -212 R D 12547 12000 M 0 -212 R D
14187 12000 M 0 -212 R D 8777 12000 M 0 -106 R D 8941 12000 M 0 -106 R D
9105 12000 M 0 -106 R D 9433 12000 M 0 -106 R D 9597 12000 M 0 -106 R D
9761 12000 M 0 -106 R D 9925 12000 M 0 -106 R D 10088 12000 M 0 -106 R D
10252 12000 M 0 -106 R D 10416 12000 M 0 -106 R D 10580 12000 M 0 -106 R D
10744 12000 M 0 -106 R D 11072 12000 M 0 -106 R D 11236 12000 M 0 -106 R D
11400 12000 M 0 -106 R D 11564 12000 M 0 -106 R D 11728 12000 M 0 -106 R D
11892 12000 M 0 -106 R D 12056 12000 M 0 -106 R D 12220 12000 M 0 -106 R D
12383 12000 M 0 -106 R D 12711 12000 M 0 -106 R D 12875 12000 M 0 -106 R D
13039 12000 M 0 -106 R D 13203 12000 M 0 -106 R D 13367 12000 M 0 -106 R D
13531 12000 M 0 -106 R D 13695 12000 M 0 -106 R D 13859 12000 M 0 -106 R D
14023 12000 M 0 -106 R D 14351 12000 M 0 -106 R D 14514 12000 M 0 -106 R D
14678 12000 M 0 -106 R D 14842 12000 M 0 -106 R D 15006 12000 M 0 -106 R D
15170 12000 M 0 -106 R D 15334 12000 M 0 -106 R D 8777 6704 M 0 5296 R D
8777 6704 M 262 0 R D 8777 7881 M 262 0 R D 8777 9058 M 262 0 R D
8777 10235 M 262 0 R D 8777 11412 M 262 0 R D 8777 6822 M 131 0 R D
8777 6939 M 131 0 R D 8777 7057 M 131 0 R D 8777 7175 M 131 0 R D
8777 7293 M 131 0 R D 8777 7410 M 131 0 R D 8777 7528 M 131 0 R D
8777 7646 M 131 0 R D 8777 7763 M 131 0 R D 8777 7999 M 131 0 R D
8777 8116 M 131 0 R D 8777 8234 M 131 0 R D 8777 8352 M 131 0 R D
8777 8469 M 131 0 R D 8777 8587 M 131 0 R D 8777 8705 M 131 0 R D
8777 8822 M 131 0 R D 8777 8940 M 131 0 R D 8777 9176 M 131 0 R D
8777 9293 M 131 0 R D 8777 9411 M 131 0 R D 8777 9529 M 131 0 R D
8777 9646 M 131 0 R D 8777 9764 M 131 0 R D 8777 9882 M 131 0 R D
8777 9999 M 131 0 R D 8777 10117 M 131 0 R D 8777 10352 M 131 0 R D
8777 10470 M 131 0 R D 8777 10588 M 131 0 R D 8777 10706 M 131 0 R D
8777 10823 M 131 0 R D 8777 10941 M 131 0 R D 8777 11059 M 131 0 R D
8777 11176 M 131 0 R D 8777 11294 M 131 0 R D 8777 11529 M 131 0 R D
8777 11647 M 131 0 R D 8777 11765 M 131 0 R D 8777 11882 M 131 0 R D
8777 12000 M 131 0 R D 15334 6704 M 0 5296 R D 15334 6704 M -262 0 R D
15334 7881 M -262 0 R D 15334 9058 M -262 0 R D 15334 10235 M -262 0 R D
15334 11412 M -262 0 R D 15334 6822 M -131 0 R D 15334 6939 M -131 0 R D
15334 7057 M -131 0 R D 15334 7175 M -131 0 R D 15334 7293 M -131 0 R D
15334 7410 M -131 0 R D 15334 7528 M -131 0 R D 15334 7646 M -131 0 R D
15334 7763 M -131 0 R D 15334 7999 M -131 0 R D 15334 8116 M -131 0 R D
15334 8234 M -131 0 R D 15334 8352 M -131 0 R D 15334 8469 M -131 0 R D
15334 8587 M -131 0 R D 15334 8705 M -131 0 R D 15334 8822 M -131 0 R D
15334 8940 M -131 0 R D 15334 9176 M -131 0 R D 15334 9293 M -131 0 R D
15334 9411 M -131 0 R D 15334 9529 M -131 0 R D 15334 9646 M -131 0 R D
15334 9764 M -131 0 R D 15334 9882 M -131 0 R D 15334 9999 M -131 0 R D
15334 10117 M -131 0 R D 15334 10352 M -131 0 R D 15334 10470 M -131 0 R D
15334 10588 M -131 0 R D 15334 10706 M -131 0 R D 15334 10823 M -131 0 R D
15334 10941 M -131 0 R D 15334 11059 M -131 0 R D 15334 11176 M -131 0 R D
15334 11294 M -131 0 R D 15334 11529 M -131 0 R D 15334 11647 M -131 0 R D
15334 11765 M -131 0 R D 15334 11882 M -131 0 R D 15334 12000 M -131 0 R D
30 setlinewidth L2 9155 12000 M 494 -283 R 622 -358 R 623 -357 R 623 -358 R
622 -358 R 623 -357 R 622 -358 R 623 -360 R 623 -395 R 622 -877 R D L0
9026 11741 M 623 -145 R 622 -360 R 623 -341 R 623 -346 R 622 -284 R
623 -360 R 622 -292 R 623 -266 R 623 -289 R 622 -620 R D L2 9269 10827 M
492 -246 R 491 -269 R 492 -295 R 492 -308 R 492 -286 R 492 -305 R 491 -305 R
492 -261 R 492 -306 R 492 -303 R D L5 8777 11695 M 492 -340 R 819 -551 R
820 -466 R 820 -643 R 410 -367 R D 20 setlinewidth L0
0.000 0.000 1.000 setrgbcolor 9269 11655 M 492 -308 R 491 -325 R 492 -310 R
492 -381 R 492 -334 R 492 -354 R 491 -523 R 492 -293 R 492 -585 R 492 -123 R
D 50 setlinewidth 9269 11413 M 492 -297 R 491 -315 R 492 -333 R 492 -365 R
492 -300 R 492 -406 R 491 -370 R 492 -469 R 492 -188 R 492 -300 R D
80 setlinewidth 9269 11298 M 492 -310 R 491 -302 R 492 -352 R 492 -331 R
492 -335 R 492 -377 R 491 -340 R 492 -610 R 492 29 R 492 -482 R D
30 setlinewidth 9203 11146 M 131 0 R -65 0 R 0 303 R -66 0 R 131 0 R D
9695 10830 M 131 0 R -65 0 R 0 317 R -66 0 R 131 0 R D 10187 10509 M 131 0 R
-66 0 R 0 354 R -65 0 R 131 0 R D 10679 10110 M 131 0 R -66 0 R 0 447 R
-65 0 R 131 0 R D 11170 9746 M 132 0 R -66 0 R 0 514 R -66 0 R 132 0 R D
11662 9312 M 131 0 R -65 0 R 0 713 R -66 0 R 131 0 R D 12154 8792 M 131 0 R
-65 0 R 0 998 R -66 0 R 131 0 R D 12646 8311 M 131 0 R -66 0 R 0 1279 R
-65 0 R 131 0 R D 13137 7128 M 132 0 R -66 0 R 0 2426 R -66 0 R 132 0 R D
13629 7274 M 131 0 R -65 0 R 0 2193 R -66 0 R 131 0 R D 14187 6704 M
0 3056 R -66 0 R 131 0 R D 110 setlinewidth 9269 11154 M 492 -305 R
491 -321 R 492 -310 R 492 -350 R 492 -365 R 492 -272 R 491 -392 R 492 -529 R
492 139 R 492 -640 R D 30 setlinewidth 0.000 0.000 0.000 setrgbcolor
9642 7612 M 0 -319 R D 9642 7460 M 31 30 R 30 15 R 46 0 R 30 -15 R 30 -30 R
16 -46 R 0 -30 R -16 -46 R -30 -30 R -30 -15 R -46 0 R -30 15 R -31 30 R D
10083 7460 M -15 30 R -46 15 R -46 0 R -45 -15 R -15 -30 R 15 -31 R 30 -15 R
76 -15 R 31 -15 R 15 -31 R 0 -15 R -15 -30 R -46 -15 R -46 0 R -45 15 R
-15 30 R D 10219 7551 M 31 15 R 45 46 R 0 -319 R D 10493 7505 M 0 -212 R D
10493 7414 M 15 46 R 30 30 R 31 15 R 45 0 R D 10842 7460 M -15 30 R -46 15 R
-45 0 R -46 -15 R -15 -30 R 15 -31 R 31 -15 R 76 -15 R 30 -15 R 15 -31 R
0 -15 R -15 -30 R -46 -15 R -45 0 R -46 15 R -15 30 R D 20 setlinewidth
2220 1408 M 6557 0 R D 2712 1408 M 0 212 R D 30 setlinewidth 2478 985 M
210 0 R D 2887 1125 M -117 -163 R 176 0 R D 2887 1125 M 0 -245 R D
20 setlinewidth 4351 1408 M 0 212 R D 30 setlinewidth 4117 985 M 211 0 R D
4433 1125 M 128 0 R -70 -93 R 35 0 R 24 -12 R 11 -11 R 12 -35 R 0 -24 R
-12 -35 R -23 -23 R -35 -12 R -35 0 R -35 12 R -12 11 R -11 24 R D
20 setlinewidth 5990 1408 M 0 212 R D 30 setlinewidth 5757 985 M 210 0 R D
6060 1067 M 0 12 R 12 23 R 12 12 R 23 11 R 47 0 R 23 -11 R 12 -12 R 12 -23 R
0 -24 R -12 -23 R -23 -35 R -117 -117 R 163 0 R D 20 setlinewidth
7630 1408 M 0 212 R D 30 setlinewidth 7396 985 M 210 0 R D 7723 1079 M
23 11 R 36 35 R 0 -245 R D 20 setlinewidth 2220 1408 M 0 106 R D 2384 1408 M
0 106 R D 2548 1408 M 0 106 R D 2876 1408 M 0 106 R D 3040 1408 M 0 106 R D
3204 1408 M 0 106 R D 3368 1408 M 0 106 R D 3531 1408 M 0 106 R D
3695 1408 M 0 106 R D 3859 1408 M 0 106 R D 4023 1408 M 0 106 R D
4187 1408 M 0 106 R D 4515 1408 M 0 106 R D 4679 1408 M 0 106 R D
4843 1408 M 0 106 R D 5007 1408 M 0 106 R D 5171 1408 M 0 106 R D
5335 1408 M 0 106 R D 5499 1408 M 0 106 R D 5663 1408 M 0 106 R D
5826 1408 M 0 106 R D 6154 1408 M 0 106 R D 6318 1408 M 0 106 R D
6482 1408 M 0 106 R D 6646 1408 M 0 106 R D 6810 1408 M 0 106 R D
6974 1408 M 0 106 R D 7138 1408 M 0 106 R D 7302 1408 M 0 106 R D
7466 1408 M 0 106 R D 7794 1408 M 0 106 R D 7957 1408 M 0 106 R D
8121 1408 M 0 106 R D 8285 1408 M 0 106 R D 8449 1408 M 0 106 R D
8613 1408 M 0 106 R D 8777 1408 M 0 106 R D 2220 6704 M 6557 0 R D
2712 6704 M 0 -212 R D 4351 6704 M 0 -212 R D 5990 6704 M 0 -212 R D
7630 6704 M 0 -212 R D 2220 6704 M 0 -106 R D 2384 6704 M 0 -106 R D
2548 6704 M 0 -106 R D 2876 6704 M 0 -106 R D 3040 6704 M 0 -106 R D
3204 6704 M 0 -106 R D 3368 6704 M 0 -106 R D 3531 6704 M 0 -106 R D
3695 6704 M 0 -106 R D 3859 6704 M 0 -106 R D 4023 6704 M 0 -106 R D
4187 6704 M 0 -106 R D 4515 6704 M 0 -106 R D 4679 6704 M 0 -106 R D
4843 6704 M 0 -106 R D 5007 6704 M 0 -106 R D 5171 6704 M 0 -106 R D
5335 6704 M 0 -106 R D 5499 6704 M 0 -106 R D 5663 6704 M 0 -106 R D
5826 6704 M 0 -106 R D 6154 6704 M 0 -106 R D 6318 6704 M 0 -106 R D
6482 6704 M 0 -106 R D 6646 6704 M 0 -106 R D 6810 6704 M 0 -106 R D
6974 6704 M 0 -106 R D 7138 6704 M 0 -106 R D 7302 6704 M 0 -106 R D
7466 6704 M 0 -106 R D 7794 6704 M 0 -106 R D 7957 6704 M 0 -106 R D
8121 6704 M 0 -106 R D 8285 6704 M 0 -106 R D 8449 6704 M 0 -106 R D
8613 6704 M 0 -106 R D 8777 6704 M 0 -106 R D 2220 1408 M 0 5296 R D
2220 1408 M 262 0 R D 30 setlinewidth 1607 1513 M 210 0 R D 1910 1595 M
0 12 R 12 23 R 12 12 R 23 11 R 47 0 R 23 -11 R 12 -12 R 12 -23 R 0 -24 R
-12 -23 R -23 -35 R -117 -117 R 163 0 R D 20 setlinewidth 2220 2585 M
262 0 R D 30 setlinewidth 1607 2549 M 210 0 R D 1934 2643 M 23 11 R 35 36 R
0 -246 R D 20 setlinewidth 2220 3762 M 262 0 R D 30 setlinewidth 1969 3866 M
-35 -11 R -24 -35 R -11 -59 R 0 -35 R 11 -58 R 24 -35 R 35 -12 R 23 0 R
35 12 R 24 35 R 11 58 R 0 35 R -11 59 R -24 35 R -35 11 R -23 0 R D
20 setlinewidth 2220 4939 M 262 0 R D 30 setlinewidth 1934 4997 M 23 11 R
35 35 R 0 -245 R D 20 setlinewidth 2220 6116 M 262 0 R D 30 setlinewidth
1910 6162 M 0 11 R 12 24 R 12 12 R 23 11 R 47 0 R 23 -11 R 12 -12 R 12 -24 R
0 -23 R -12 -23 R -23 -35 R -117 -117 R 163 0 R D 20 setlinewidth
2220 1526 M 131 0 R D 2220 1643 M 131 0 R D 2220 1761 M 131 0 R D
2220 1879 M 131 0 R D 2220 1997 M 131 0 R D 2220 2114 M 131 0 R D
2220 2232 M 131 0 R D 2220 2350 M 131 0 R D 2220 2467 M 131 0 R D
2220 2703 M 131 0 R D 2220 2820 M 131 0 R D 2220 2938 M 131 0 R D
2220 3056 M 131 0 R D 2220 3173 M 131 0 R D 2220 3291 M 131 0 R D
2220 3409 M 131 0 R D 2220 3526 M 131 0 R D 2220 3644 M 131 0 R D
2220 3880 M 131 0 R D 2220 3997 M 131 0 R D 2220 4115 M 131 0 R D
2220 4233 M 131 0 R D 2220 4350 M 131 0 R D 2220 4468 M 131 0 R D
2220 4586 M 131 0 R D 2220 4703 M 131 0 R D 2220 4821 M 131 0 R D
2220 5056 M 131 0 R D 2220 5174 M 131 0 R D 2220 5292 M 131 0 R D
2220 5410 M 131 0 R D 2220 5527 M 131 0 R D 2220 5645 M 131 0 R D
2220 5763 M 131 0 R D 2220 5880 M 131 0 R D 2220 5998 M 131 0 R D
2220 6233 M 131 0 R D 2220 6351 M 131 0 R D 2220 6469 M 131 0 R D
2220 6586 M 131 0 R D 2220 6704 M 131 0 R D 8777 1408 M 0 5296 R D
8777 1408 M -262 0 R D 8777 2585 M -262 0 R D 8777 3762 M -262 0 R D
8777 4939 M -262 0 R D 8777 6116 M -262 0 R D 8777 1526 M -131 0 R D
8777 1643 M -131 0 R D 8777 1761 M -131 0 R D 8777 1879 M -131 0 R D
8777 1997 M -131 0 R D 8777 2114 M -131 0 R D 8777 2232 M -131 0 R D
8777 2350 M -131 0 R D 8777 2467 M -131 0 R D 8777 2703 M -131 0 R D
8777 2820 M -131 0 R D 8777 2938 M -131 0 R D 8777 3056 M -131 0 R D
8777 3173 M -131 0 R D 8777 3291 M -131 0 R D 8777 3409 M -131 0 R D
8777 3526 M -131 0 R D 8777 3644 M -131 0 R D 8777 3880 M -131 0 R D
8777 3997 M -131 0 R D 8777 4115 M -131 0 R D 8777 4233 M -131 0 R D
8777 4350 M -131 0 R D 8777 4468 M -131 0 R D 8777 4586 M -131 0 R D
8777 4703 M -131 0 R D 8777 4821 M -131 0 R D 8777 5056 M -131 0 R D
8777 5174 M -131 0 R D 8777 5292 M -131 0 R D 8777 5410 M -131 0 R D
8777 5527 M -131 0 R D 8777 5645 M -131 0 R D 8777 5763 M -131 0 R D
8777 5880 M -131 0 R D 8777 5998 M -131 0 R D 8777 6233 M -131 0 R D
8777 6351 M -131 0 R D 8777 6469 M -131 0 R D 8777 6586 M -131 0 R D
8777 6704 M -131 0 R D 30 setlinewidth L2 2598 6704 M 494 -283 R 622 -358 R
623 -357 R 623 -358 R 622 -358 R 623 -357 R 622 -358 R 623 -360 R 623 -395 R
622 -877 R D L0 2469 6445 M 623 -145 R 622 -360 R 623 -341 R 623 -346 R
622 -284 R 623 -360 R 622 -292 R 623 -266 R 623 -289 R 622 -620 R D L2
2712 5531 M 492 -246 R 491 -269 R 492 -295 R 492 -308 R 492 -286 R
492 -305 R 491 -305 R 492 -261 R 492 -306 R 492 -303 R D L5 2220 6399 M
492 -340 R 819 -551 R 820 -466 R 820 -643 R 410 -367 R D 20 setlinewidth L0
0.000 0.000 1.000 setrgbcolor 2712 6359 M 492 -308 R 491 -325 R 492 -310 R
492 -381 R 492 -334 R 492 -354 R 491 -523 R 492 -293 R 492 -585 R 492 -123 R
D 50 setlinewidth 2712 6096 M 492 -294 R 491 -318 R 492 -333 R 492 -363 R
492 -291 R 492 -396 R 491 -370 R 492 -469 R 492 -188 R 492 -300 R D
80 setlinewidth 2712 5965 M 492 -303 R 491 -314 R 492 -369 R 492 -319 R
492 -304 R 492 -400 R 491 -311 R 492 -600 R 492 29 R 492 -482 R D
30 setlinewidth 2646 5815 M 131 0 R -65 0 R 0 301 R -66 0 R 131 0 R D
3138 5503 M 131 0 R -65 0 R 0 318 R -66 0 R 131 0 R D 3630 5155 M 131 0 R
-66 0 R 0 385 R -65 0 R 131 0 R D 4122 4755 M 131 0 R -66 0 R 0 447 R
-65 0 R 131 0 R D 4613 4388 M 132 0 R -66 0 R 0 543 R -66 0 R 132 0 R D
5105 3991 M 131 0 R -65 0 R 0 730 R -66 0 R 131 0 R D 5597 3435 M 131 0 R
-65 0 R 0 1042 R -66 0 R 131 0 R D 6089 2993 M 131 0 R -66 0 R 0 1305 R
-65 0 R 131 0 R D 6580 1832 M 132 0 R -66 0 R 0 2426 R -66 0 R 132 0 R D
7072 1978 M 131 0 R -65 0 R 0 2193 R -66 0 R 131 0 R D 7630 1408 M 0 3056 R
-66 0 R 131 0 R D 110 setlinewidth 2712 5809 M 492 -318 R 491 -311 R
492 -338 R 492 -313 R 492 -371 R 492 -321 R 491 -381 R 492 -548 R 492 194 R
492 -589 R D 30 setlinewidth 0.000 0.000 0.000 setrgbcolor 3085 2316 M
0 -319 R D 3085 2164 M 31 30 R 30 15 R 46 0 R 30 -15 R 30 -30 R 16 -46 R
0 -30 R -16 -46 R -30 -30 R -30 -15 R -46 0 R -30 15 R -31 30 R D
3526 2164 M -15 30 R -46 15 R -46 0 R -45 -15 R -15 -30 R 15 -31 R 30 -15 R
76 -15 R 31 -15 R 15 -31 R 0 -15 R -15 -30 R -46 -15 R -46 0 R -45 15 R
-15 30 R D 3662 2255 M 31 15 R 45 46 R 0 -319 R D 3936 2209 M 0 -212 R D
3936 2118 M 15 46 R 30 30 R 31 15 R 45 0 R D 4285 2164 M -15 30 R -46 15 R
-45 0 R -46 -15 R -15 -30 R 15 -31 R 31 -15 R 76 -15 R 30 -15 R 15 -31 R
0 -15 R -15 -30 R -46 -15 R -45 0 R -46 15 R -15 30 R D 4392 2316 M 0 -319 R
D 4392 2148 M 45 46 R 31 15 R 45 0 R 30 -15 R 16 -46 R 0 -151 R D
9670 3968 M 0 -298 R 18 -52 R 35 -18 R 35 0 R D 9618 3845 M 122 0 R D
9863 3968 M 0 -368 R D 9863 3775 M 52 53 R 36 17 R 52 0 R 35 -17 R 18 -53 R
0 -175 R D 10178 3968 M 18 -17 R 17 17 R -17 18 R -18 -18 R D 10196 3845 M
0 -245 R D 10336 3845 M 0 -245 R D 10336 3775 M 53 53 R 35 17 R 52 0 R
35 -17 R 18 -53 R 0 -175 R D 10669 3758 M 316 0 R D 11125 3915 M 280 -157 R
-280 -158 R D 11563 3968 M 0 -298 R 17 -52 R 36 -18 R 35 0 R D 11510 3845 M
123 0 R D 11756 3968 M 0 -368 R D 11756 3775 M 52 53 R 35 17 R 53 0 R
35 -17 R 18 -53 R 0 -175 R D 12071 3968 M 18 -17 R 17 17 R -17 18 R
-18 -18 R D 12089 3845 M 0 -245 R D 12422 3793 M -35 35 R -35 17 R -53 0 R
-35 -17 R -35 -35 R -18 -53 R 0 -35 R 18 -52 R 35 -35 R 35 -18 R 53 0 R
35 18 R 35 35 R D 12544 3968 M 0 -368 R D 12720 3845 M -176 -175 R D
12615 3740 M 122 -140 R D 12860 3845 M -18 -17 R 18 -18 R 17 18 R -17 17 R D
12860 3635 M -18 -17 R 18 -18 R 17 18 R -17 17 R D 9740 3440 M -140 -368 R D
9740 3440 M 140 -368 R D 9653 3195 M 175 0 R D 9968 3282 M 316 0 R D
9968 3177 M 316 0 R D 10511 3440 M -52 -17 R -35 -53 R -18 -88 R 0 -52 R
18 -88 R 35 -52 R 52 -18 R 35 0 R 53 18 R 35 52 R 18 88 R 0 52 R -18 88 R
-35 53 R -53 17 R -35 0 R D 10792 3107 M -18 -17 R 18 -18 R 17 18 R -17 17 R
D 10985 3370 M 35 17 R 52 53 R 0 -368 R D 11335 3090 M -17 -18 R -18 18 R
18 17 R 17 -17 R 0 -53 R -17 -35 R -18 -18 R D 11510 3370 M 35 17 R 53 53 R
0 -368 R D 11843 3107 M -17 -17 R 17 -18 R 18 18 R -18 17 R D 12036 3090 M
-17 -18 R -18 18 R 18 17 R 17 -17 R 0 -53 R -17 -35 R -18 -18 R D
12176 3352 M 0 18 R 18 35 R 17 18 R 35 17 R 71 0 R 35 -17 R 17 -18 R
18 -35 R 0 -35 R -18 -35 R -35 -53 R -175 -175 R 245 0 R D 12544 3107 M
-17 -17 R 17 -18 R 18 18 R -18 17 R D 12895 3440 M -175 0 R -18 -158 R
18 18 R 52 17 R 53 0 R 52 -17 R 35 -35 R 18 -53 R 0 -35 R -18 -52 R
-35 -35 R -52 -18 R -53 0 R -52 18 R -18 17 R -17 35 R D 13088 3090 M
-18 -18 R -17 18 R 17 17 R 18 -17 R 0 -53 R -18 -35 R -17 -18 R D
13263 3370 M 35 17 R 53 53 R 0 -368 R D 13666 3440 M -52 -17 R -36 -53 R
-17 -88 R 0 -52 R 17 -88 R 36 -52 R 52 -18 R 35 0 R 53 18 R 35 52 R 17 88 R
0 52 R -17 88 R -35 53 R -53 17 R -35 0 R D 13947 3107 M -18 -17 R 18 -18 R
17 18 R -17 17 R D
%%PageTrailer
end
%%PageResources: font Helvetica
%%Trailer
%%Pages: 1
%%DocumentNeededResources: font Helvetica
%%EOF
