%!PS-Adobe-3.0 EPSF-3.0
%%BoundingBox: 0 0 504 360
%%Title: Graphics produced by IDL
%%For: jlgan@aida119, /home/jlgan/work/subhalo_model
%%Creator: IDL Version 7.0 (linux x86_64 m64)
%%CreationDate: Mon May  4 10:52:37 2009
%%DocumentData: Clean7bit
%%Requirements: color
%%LanguageLevel: 1
%%PageOrder: Ascend
%%Pages: (atend)
%%DocumentNeededResources: (atend)
%%EndComments
%%BeginProlog
%+ prolog.ps -- Prolog for IDL generated PostScript files
%+ Copyright (c) 1988-2007 ITT Visual Information Solutions. All Rights Reserved.
%v 5
/$IDL_DICT 40 dict def $IDL_DICT begin /bdef { bind def } bind def /C
{currentpoint newpath moveto} bdef /CP {currentpoint} bdef /D {currentpoint
stroke moveto} bdef /F {closepath fill} bdef /K { setgray } bdef /M {moveto}
bdef /N {rmoveto} bdef /P {lineto} bdef /R {rlineto} bdef /S {gsave show
grestore} bdef /X {currentpoint pop} bdef /Z {gsave currentpoint lineto 20
setlinewidth 1 setlinecap stroke grestore} bdef /L0 {[] 0 setdash} bdef /L1
{[40 100] 0 setdash} bdef /L2 {[200 200] 0 setdash} bdef /L3 {[200 100 50
100] 0 setdash} bdef /L4 {[300 100 50 100 50 100 50 100] 0 setdash} bdef /L5
{[400 200] 0 setdash} bdef /STDFONT { findfont exch scalefont setfont } bdef
/ISOFONT { findfont dup length dict begin { 1 index /FID ne {def} {pop pop}
ifelse } forall /Encoding ISOLatin1Encoding def currentdict end /idltmpfont
exch definefont exch scalefont setfont } bdef /ISOBULLET { gsave /Helvetica
findfont exch scalefont setfont (\267) show currentpoint grestore moveto}
bdef /MITERLIMIT { 2.5 setmiterlimit } bdef end
%%EndProlog
%%Page: 0 1
%%PageRequirements: color
%%PageResources: (atend)
%%PageOrientation: Portrait
%%PageBoundingBox: 0 0 504 360
%%BeginPageSetup
$IDL_DICT begin 0.0283465 dup scale MITERLIMIT
%%IncludeResource: font Helvetica
423.333 /Helvetica STDFONT
%%EndPageSetup
20 setlinewidth L0 0.000 0.000 0.000 setrgbcolor 2886 1830 M 14028 0 R D
6132 1830 M 0 399 R D 30 setlinewidth 5796 1353 M -59 -20 R -40 -59 R
-19 -99 R 0 -59 R 19 -99 R 40 -59 R 59 -20 R 40 0 R 59 20 R 39 59 R 20 99 R
0 59 R -20 99 R -39 59 R -59 20 R -40 0 R D 6112 978 M -20 -20 R 20 -20 R
20 20 R -20 20 R D 6329 1274 M 40 20 R 59 59 R 0 -415 R D 20 setlinewidth
16914 1830 M 0 399 R D 30 setlinewidth 16519 1274 M 40 20 R 59 59 R 0 -415 R
D 16895 978 M -20 -20 R 20 -20 R 19 20 R -19 20 R D 17171 1353 M -59 -20 R
-40 -59 R -19 -99 R 0 -59 R 19 -99 R 40 -59 R 59 -20 R 39 0 R 60 20 R
39 59 R 20 99 R 0 59 R -20 99 R -39 59 R -60 20 R -39 0 R D 20 setlinewidth
2886 1830 M 0 200 R D 3740 1830 M 0 200 R D 4462 1830 M 0 200 R D
5087 1830 M 0 200 R D 5639 1830 M 0 200 R D 9378 1830 M 0 200 R D
11276 1830 M 0 200 R D 12624 1830 M 0 200 R D 13668 1830 M 0 200 R D
14522 1830 M 0 200 R D 15244 1830 M 0 200 R D 15869 1830 M 0 200 R D
16421 1830 M 0 200 R D 30 setlinewidth 9180 441 M 0 -276 R D 9180 323 M
20 59 R 40 40 R 39 19 R 59 0 R D 9753 658 M -355 -651 R D 9872 579 M
0 -414 R D 9872 579 M 177 0 R 59 -19 R 20 -20 R 20 -40 R 0 -39 R -20 -39 R
-20 -20 R -59 -20 R -177 0 R D 10010 382 M 138 -217 R D 10239 179 M
74 -171 R 73 171 R D 10447 264 M 12 -12 R 12 12 R -12 13 R -12 -13 R D
10459 179 M 0 -171 R D 10557 179 M 0 -171 R D 10557 105 M 12 37 R 25 24 R
24 13 R 37 0 R D 20 setlinewidth 2886 11785 M 14028 0 R D 6132 11785 M
0 -398 R D 16914 11785 M 0 -398 R D 2886 11785 M 0 -199 R D 3740 11785 M
0 -199 R D 4462 11785 M 0 -199 R D 5087 11785 M 0 -199 R D 5639 11785 M
0 -199 R D 9378 11785 M 0 -199 R D 11276 11785 M 0 -199 R D 12624 11785 M
0 -199 R D 13668 11785 M 0 -199 R D 14522 11785 M 0 -199 R D 15244 11785 M
0 -199 R D 15869 11785 M 0 -199 R D 16421 11785 M 0 -199 R D 2886 1830 M
0 9955 R D 2886 2533 M 561 0 R D 30 setlinewidth 1474 2709 M -59 -19 R
-40 -60 R -19 -98 R 0 -60 R 19 -98 R 40 -60 R 59 -19 R 40 0 R 59 19 R
39 60 R 20 98 R 0 60 R -20 98 R -39 60 R -59 19 R -40 0 R D 1790 2334 M
-20 -20 R 20 -19 R 20 19 R -20 20 R D 2067 2709 M -60 -19 R -39 -60 R
-20 -98 R 0 -60 R 20 -98 R 39 -60 R 60 -19 R 39 0 R 59 19 R 40 60 R 20 98 R
0 60 R -20 98 R -40 60 R -59 19 R -39 0 R D 2402 2630 M 40 20 R 59 59 R
0 -414 R D 20 setlinewidth 2886 7065 M 561 0 R D 30 setlinewidth 1474 7242 M
-59 -20 R -40 -59 R -19 -99 R 0 -59 R 19 -99 R 40 -59 R 59 -20 R 40 0 R
59 20 R 39 59 R 20 99 R 0 59 R -20 99 R -39 59 R -59 20 R -40 0 R D
1790 6866 M -20 -19 R 20 -20 R 20 20 R -20 19 R D 2007 7163 M 40 19 R
59 60 R 0 -415 R D 2462 7242 M -60 -20 R -39 -59 R -20 -99 R 0 -59 R
20 -99 R 39 -59 R 60 -20 R 39 0 R 59 20 R 40 59 R 20 99 R 0 59 R -20 99 R
-40 59 R -59 20 R -39 0 R D 20 setlinewidth 2886 11597 M 561 0 R D
30 setlinewidth 1415 11695 M 39 20 R 60 59 R 0 -415 R D 1790 11399 M
-20 -20 R 20 -20 R 20 20 R -20 20 R D 2067 11774 M -60 -20 R -39 -59 R
-20 -99 R 0 -59 R 20 -99 R 39 -59 R 60 -20 R 39 0 R 59 20 R 40 59 R 20 99 R
0 59 R -20 99 R -40 59 R -59 20 R -39 0 R D 2462 11774 M -60 -20 R -39 -59 R
-20 -99 R 0 -59 R 20 -99 R 39 -59 R 60 -20 R 39 0 R 59 20 R 40 59 R 20 99 R
0 59 R -20 99 R -40 59 R -59 20 R -39 0 R D 20 setlinewidth 2886 1830 M
281 0 R D 2886 2093 M 281 0 R D 2886 2325 M 281 0 R D 2886 3897 M 281 0 R D
2886 4695 M 281 0 R D 2886 5261 M 281 0 R D 2886 5701 M 281 0 R D
2886 6059 M 281 0 R D 2886 6363 M 281 0 R D 2886 6626 M 281 0 R D
2886 6858 M 281 0 R D 2886 8429 M 281 0 R D 2886 9227 M 281 0 R D
2886 9794 M 281 0 R D 2886 10233 M 281 0 R D 2886 10592 M 281 0 R D
2886 10895 M 281 0 R D 2886 11158 M 281 0 R D 2886 11390 M 281 0 R D
30 setlinewidth 339 5311 M 414 0 R D 339 5311 M 414 276 R -414 0 R D
260 5883 M 39 -39 R 60 -40 R 79 -39 R 98 -20 R 79 0 R 99 20 R 99 39 R
59 40 R 39 39 R D 398 6338 M 178 -316 R 177 316 R D 477 6496 M 276 0 R D
596 6496 M -60 19 R -39 40 R -20 39 R 0 59 R D 260 6732 M 39 40 R 60 39 R
79 40 R 98 20 R 79 0 R 99 -20 R 99 -40 R 59 -39 R 39 -40 R D 260 7345 M
651 -356 R D 339 7463 M 414 0 R D 339 7463 M 414 277 R -414 0 R D 654 7887 M
208 0 R 36 12 R 13 25 R 0 24 R D 740 7850 M 0 86 R D 740 8070 M 12 -24 R
24 -24 R 37 -13 R 24 0 R 37 13 R 24 24 R 13 24 R 0 37 R -13 25 R -24 24 R
-37 12 R -24 0 R -37 -12 R -24 -24 R -12 -25 R 0 -37 R D 654 8266 M 208 0 R
36 12 R 13 25 R 0 24 R D 740 8229 M 0 86 R D 20 setlinewidth 16914 1830 M
0 9955 R D 16914 2533 M -561 0 R D 16914 7065 M -561 0 R D 16914 11597 M
-561 0 R D 16914 1830 M -280 0 R D 16914 2093 M -280 0 R D 16914 2325 M
-280 0 R D 16914 3897 M -280 0 R D 16914 4695 M -280 0 R D 16914 5261 M
-280 0 R D 16914 5701 M -280 0 R D 16914 6059 M -280 0 R D 16914 6363 M
-280 0 R D 16914 6626 M -280 0 R D 16914 6858 M -280 0 R D 16914 8429 M
-280 0 R D 16914 9227 M -280 0 R D 16914 9794 M -280 0 R D 16914 10233 M
-280 0 R D 16914 10592 M -280 0 R D 16914 10895 M -280 0 R D 16914 11158 M
-280 0 R D 16914 11390 M -280 0 R D 1.000 0.000 0.706 setrgbcolor
2886 5519 M 2048 1525 R 2396 1435 R 2396 1179 R 2396 852 R 2396 579 R
2396 508 R D L1 4036 1830 M 898 1976 R 2396 3231 R 2396 1831 R 2396 1274 R
2396 973 R 2396 482 R D L0 0.506 0.000 0.000 setrgbcolor 3913 1830 M
1021 688 R 2396 2392 R 2396 2797 R 2396 1640 R 2396 1144 R 2396 1106 R D L1
7137 1830 M 193 183 R 2396 2534 R 2396 2853 R 2396 3160 R 2396 1037 R D L0
1.000 0.349 0.000 setrgbcolor 3013 1830 M 1921 2161 R 2396 2467 R
2396 1937 R 2396 1388 R 2396 980 R 2396 834 R D L1 6301 1830 M 1029 1683 R
2396 2685 R 2396 2540 R 2396 2089 R 2396 770 R D L0
0.000 0.514 1.000 setrgbcolor 2886 5604 M 2048 1407 R 2396 1396 R
2396 1187 R 2396 880 R 2396 601 R 2396 522 R D L1 4268 1830 M 666 1474 R
2396 3539 R 2396 1919 R 2396 1332 R 2396 1008 R 2396 495 R D L0
0.588 0.000 0.588 setrgbcolor 2886 5555 M 2048 1457 R 2396 1434 R
2396 1184 R 2396 863 R 2396 590 R 2396 514 R D L1 4121 1830 M 813 1817 R
2396 3324 R 2396 1854 R 2396 1296 R 2396 988 R 2396 488 R D
%%PageTrailer
end
%%PageResources: font Helvetica
%%Trailer
%%Pages: 1
%%DocumentNeededResources: font Helvetica
%%EOF
