%!PS-Adobe-3.0 EPSF-3.0
%%BoundingBox: 0 0 425 311
%%Title: Graphics produced by IDL
%%For: jlgan@aida119, /home/jlgan/work/subhalo_model
%%Creator: IDL Version 7.0 (linux x86_64 m64)
%%CreationDate: Thu May 21 20:05:01 2009
%%DocumentData: Clean7bit
%%Requirements: color
%%LanguageLevel: 1
%%PageOrder: Ascend
%%Pages: (atend)
%%DocumentNeededResources: (atend)
%%EndComments
%%BeginProlog
%+ prolog.ps -- Prolog for IDL generated PostScript files
%+ Copyright (c) 1988-2007 ITT Visual Information Solutions. All Rights Reserved.
%v 5
/$IDL_DICT 40 dict def $IDL_DICT begin /bdef { bind def } bind def /C
{currentpoint newpath moveto} bdef /CP {currentpoint} bdef /D {currentpoint
stroke moveto} bdef /F {closepath fill} bdef /K { setgray } bdef /M {moveto}
bdef /N {rmoveto} bdef /P {lineto} bdef /R {rlineto} bdef /S {gsave show
grestore} bdef /X {currentpoint pop} bdef /Z {gsave currentpoint lineto 20
setlinewidth 1 setlinecap stroke grestore} bdef /L0 {[] 0 setdash} bdef /L1
{[40 100] 0 setdash} bdef /L2 {[200 200] 0 setdash} bdef /L3 {[200 100 50
100] 0 setdash} bdef /L4 {[300 100 50 100 50 100 50 100] 0 setdash} bdef /L5
{[400 200] 0 setdash} bdef /STDFONT { findfont exch scalefont setfont } bdef
/ISOFONT { findfont dup length dict begin { 1 index /FID ne {def} {pop pop}
ifelse } forall /Encoding ISOLatin1Encoding def currentdict end /idltmpfont
exch definefont exch scalefont setfont } bdef /ISOBULLET { gsave /Helvetica
findfont exch scalefont setfont (\267) show currentpoint grestore moveto}
bdef /MITERLIMIT { 2.5 setmiterlimit } bdef end
%%EndProlog
%%Page: 0 1
%%PageRequirements: color
%%PageResources: (atend)
%%PageOrientation: Portrait
%%PageBoundingBox: 0 0 425 311
%%BeginPageSetup
$IDL_DICT begin 0.0283465 dup scale MITERLIMIT
%%IncludeResource: font Helvetica
423.333 /Helvetica STDFONT
%%EndPageSetup
20 setlinewidth L0 0.000 0.000 0.000 setrgbcolor 2886 1830 M 11248 0 R D
5698 1830 M 0 331 R D 30 setlinewidth 5362 1353 M -59 -20 R -39 -59 R
-20 -99 R 0 -59 R 20 -99 R 39 -59 R 59 -20 R 40 0 R 59 20 R 40 59 R 19 99 R
0 59 R -19 99 R -40 59 R -59 20 R -40 0 R D 5678 978 M -19 -20 R 19 -20 R
20 20 R -20 20 R D 6073 1353 M -197 0 R -20 -178 R 20 20 R 59 20 R 59 0 R
60 -20 R 39 -40 R 20 -59 R 0 -39 R -20 -60 R -39 -39 R -60 -20 R -59 0 R
-59 20 R -20 20 R -20 39 R D 20 setlinewidth 9213 1830 M 0 331 R D
30 setlinewidth 8818 1274 M 40 20 R 59 59 R 0 -415 R D 9193 978 M -19 -20 R
19 -20 R 20 20 R -20 20 R D 9470 1353 M -59 -20 R -40 -59 R -20 -99 R
0 -59 R 20 -99 R 40 -59 R 59 -20 R 39 0 R 60 20 R 39 59 R 20 99 R 0 59 R
-20 99 R -39 59 R -60 20 R -39 0 R D 20 setlinewidth 12728 1830 M 0 331 R D
30 setlinewidth 12333 1274 M 40 20 R 59 59 R 0 -415 R D 12709 978 M
-20 -20 R 20 -20 R 19 20 R -19 20 R D 13103 1353 M -197 0 R -20 -178 R
20 20 R 59 20 R 59 0 R 60 -20 R 39 -40 R 20 -59 R 0 -39 R -20 -60 R
-39 -39 R -60 -20 R -59 0 R -59 20 R -20 20 R -20 39 R D 20 setlinewidth
2886 1830 M 0 166 R D 3589 1830 M 0 166 R D 4292 1830 M 0 166 R D
4995 1830 M 0 166 R D 6401 1830 M 0 166 R D 7104 1830 M 0 166 R D
7807 1830 M 0 166 R D 8510 1830 M 0 166 R D 9916 1830 M 0 166 R D
10619 1830 M 0 166 R D 11322 1830 M 0 166 R D 12025 1830 M 0 166 R D
13431 1830 M 0 166 R D 14134 1830 M 0 166 R D 30 setlinewidth 6417 441 M
0 -276 R D 6417 323 M 19 59 R 40 39 R 39 20 R 60 0 R D 6812 658 M -40 -39 R
-39 -59 R -40 -79 R -20 -99 R 0 -79 R 20 -99 R 40 -98 R 39 -60 R 40 -39 R D
7147 441 M -217 -276 R D 6930 441 M 217 0 R D 6930 165 M 217 0 R D
7285 402 M 356 0 R D 7285 283 M 356 0 R D 7898 579 M -60 -19 R -39 -60 R
-20 -98 R 0 -59 R 20 -99 R 39 -59 R 60 -20 R 39 0 R 59 20 R 40 59 R 20 99 R
0 59 R -20 98 R -40 60 R -59 19 R -39 0 R D 8174 658 M 40 -39 R 39 -59 R
40 -79 R 19 -99 R 0 -79 R -19 -99 R -40 -98 R -39 -60 R -40 -39 R D
8786 658 M -355 -651 R D 8905 441 M 0 -276 R D 8905 323 M 19 59 R 40 39 R
39 20 R 60 0 R D 9300 658 M -40 -39 R -39 -59 R -40 -79 R -20 -99 R 0 -79 R
20 -99 R 40 -98 R 39 -60 R 40 -39 R D 9635 441 M -217 -276 R D 9418 441 M
217 0 R D 9418 165 M 217 0 R D 9885 179 M 0 -171 R D 9885 142 M -24 24 R
-25 13 R -36 0 R -25 -13 R -24 -24 R -12 -37 R 0 -24 R 12 -37 R 24 -24 R
25 -12 R 36 0 R 25 12 R 24 24 R D 10118 142 M -25 24 R -24 13 R -37 0 R
-24 -13 R -25 -24 R -12 -37 R 0 -24 R 12 -37 R 25 -24 R 24 -12 R 37 0 R
24 12 R 25 24 R D 10338 142 M -25 24 R -24 13 R -37 0 R -24 -13 R -25 -24 R
-12 -37 R 0 -24 R 12 -37 R 25 -24 R 24 -12 R 37 0 R 24 12 R 25 24 R D
10426 658 M 40 -39 R 39 -59 R 39 -79 R 20 -99 R 0 -79 R -20 -99 R -39 -98 R
-39 -60 R -40 -39 R D 20 setlinewidth 2886 10085 M 11248 0 R D 5698 10085 M
0 -330 R D 9213 10085 M 0 -330 R D 12728 10085 M 0 -330 R D 2886 10085 M
0 -165 R D 3589 10085 M 0 -165 R D 4292 10085 M 0 -165 R D 4995 10085 M
0 -165 R D 6401 10085 M 0 -165 R D 7104 10085 M 0 -165 R D 7807 10085 M
0 -165 R D 8510 10085 M 0 -165 R D 9916 10085 M 0 -165 R D 10619 10085 M
0 -165 R D 11322 10085 M 0 -165 R D 12025 10085 M 0 -165 R D 13431 10085 M
0 -165 R D 14134 10085 M 0 -165 R D 2886 1830 M 0 8255 R D 2886 1830 M
450 0 R D 30 setlinewidth 1474 2245 M -59 -20 R -40 -59 R -19 -99 R 0 -59 R
19 -99 R 40 -59 R 59 -20 R 40 0 R 59 20 R 39 59 R 20 99 R 0 59 R -20 99 R
-39 59 R -59 20 R -40 0 R D 1790 1870 M -20 -20 R 20 -20 R 20 20 R -20 20 R
D 2067 2245 M -60 -20 R -39 -59 R -20 -99 R 0 -59 R 20 -99 R 39 -59 R
60 -20 R 39 0 R 59 20 R 40 59 R 20 99 R 0 59 R -20 99 R -40 59 R -59 20 R
-39 0 R D 2462 2245 M -60 -20 R -39 -59 R -20 -99 R 0 -59 R 20 -99 R
39 -59 R 60 -20 R 39 0 R 59 20 R 40 59 R 19 99 R 0 59 R -19 99 R -40 59 R
-59 20 R -39 0 R D 20 setlinewidth 2886 3706 M 450 0 R D 30 setlinewidth
1474 3883 M -59 -20 R -40 -59 R -19 -99 R 0 -59 R 19 -99 R 40 -59 R 59 -19 R
40 0 R 59 19 R 39 59 R 20 99 R 0 59 R -20 99 R -39 59 R -59 20 R -40 0 R D
1790 3508 M -20 -20 R 20 -19 R 20 19 R -20 20 R D 2067 3883 M -60 -20 R
-39 -59 R -20 -99 R 0 -59 R 20 -99 R 39 -59 R 60 -19 R 39 0 R 59 19 R
40 59 R 20 99 R 0 59 R -20 99 R -40 59 R -59 20 R -39 0 R D 2580 3883 M
-197 0 R -20 -178 R 20 20 R 59 20 R 59 0 R 59 -20 R 40 -39 R 19 -60 R
0 -39 R -19 -59 R -40 -40 R -59 -19 R -59 0 R -59 19 R -20 20 R -20 39 R D
20 setlinewidth 2886 5582 M 450 0 R D 30 setlinewidth 1474 5759 M -59 -20 R
-40 -59 R -19 -99 R 0 -59 R 19 -99 R 40 -59 R 59 -19 R 40 0 R 59 19 R
39 59 R 20 99 R 0 59 R -20 99 R -39 59 R -59 20 R -40 0 R D 1790 5384 M
-20 -20 R 20 -19 R 20 19 R -20 20 R D 2007 5680 M 40 20 R 59 59 R 0 -414 R D
2462 5759 M -60 -20 R -39 -59 R -20 -99 R 0 -59 R 20 -99 R 39 -59 R 60 -19 R
39 0 R 59 19 R 40 59 R 19 99 R 0 59 R -19 99 R -40 59 R -59 20 R -39 0 R D
20 setlinewidth 2886 7458 M 450 0 R D 30 setlinewidth 1474 7635 M -59 -20 R
-40 -59 R -19 -99 R 0 -59 R 19 -99 R 40 -59 R 59 -19 R 40 0 R 59 19 R
39 59 R 20 99 R 0 59 R -20 99 R -39 59 R -59 20 R -40 0 R D 1790 7260 M
-20 -20 R 20 -19 R 20 19 R -20 20 R D 2007 7556 M 40 20 R 59 59 R 0 -414 R D
2580 7635 M -197 0 R -20 -178 R 20 20 R 59 20 R 59 0 R 59 -20 R 40 -39 R
19 -60 R 0 -39 R -19 -59 R -40 -40 R -59 -19 R -59 0 R -59 19 R -20 20 R
-20 39 R D 20 setlinewidth 2886 9334 M 450 0 R D 30 setlinewidth 1474 9511 M
-59 -20 R -40 -59 R -19 -99 R 0 -59 R 19 -99 R 40 -59 R 59 -19 R 40 0 R
59 19 R 39 59 R 20 99 R 0 59 R -20 99 R -39 59 R -59 20 R -40 0 R D
1790 9136 M -20 -20 R 20 -19 R 20 19 R -20 20 R D 1968 9412 M 0 20 R 20 40 R
19 19 R 40 20 R 79 0 R 39 -20 R 20 -19 R 20 -40 R 0 -39 R -20 -40 R
-39 -59 R -198 -197 R 277 0 R D 2462 9511 M -60 -20 R -39 -59 R -20 -99 R
0 -59 R 20 -99 R 39 -59 R 60 -19 R 39 0 R 59 19 R 40 59 R 19 99 R 0 59 R
-19 99 R -40 59 R -59 20 R -39 0 R D 20 setlinewidth 2886 2206 M 225 0 R D
2886 2581 M 225 0 R D 2886 2956 M 225 0 R D 2886 3331 M 225 0 R D
2886 4082 M 225 0 R D 2886 4457 M 225 0 R D 2886 4832 M 225 0 R D
2886 5207 M 225 0 R D 2886 5958 M 225 0 R D 2886 6333 M 225 0 R D
2886 6708 M 225 0 R D 2886 7083 M 225 0 R D 2886 7834 M 225 0 R D
2886 8209 M 225 0 R D 2886 8584 M 225 0 R D 2886 8959 M 225 0 R D
2886 9710 M 225 0 R D 2886 10085 M 225 0 R D 30 setlinewidth 477 3509 M
276 0 R D 556 3509 M -59 59 R -20 40 R 0 59 R 20 40 R 59 19 R 197 0 R D
477 3884 M 197 0 R 60 20 R 19 40 R 0 59 R -19 39 R -60 60 R D 477 4102 M
276 0 R D 477 4259 M 276 0 R D 556 4259 M -59 60 R -20 39 R 0 59 R 20 40 R
59 20 R 197 0 R D 556 4477 M -59 59 R -20 39 R 0 60 R 20 39 R 59 20 R
197 0 R D 339 4852 M 414 0 R D 536 4852 M -39 39 R -20 40 R 0 59 R 20 40 R
39 39 R 60 20 R 39 0 R 59 -20 R 40 -39 R 19 -40 R 0 -59 R -19 -40 R
-40 -39 R D 596 5207 M 0 237 R -40 0 R -39 -19 R -20 -20 R -20 -40 R 0 -59 R
20 -39 R 39 -40 R 60 -20 R 39 0 R 59 20 R 40 40 R 19 39 R 0 59 R -19 40 R
-40 39 R D 477 5582 M 276 0 R D 596 5582 M -60 20 R -39 40 R -20 39 R 0 59 R
D 339 6274 M 0 -40 R 20 -39 R 59 -20 R 335 0 R D 477 6116 M 0 138 R D
477 6392 M 276 0 R D 596 6392 M -60 20 R -39 39 R -20 40 R 0 59 R D
477 6866 M 276 0 R D 536 6866 M -39 -40 R -20 -39 R 0 -59 R 20 -40 R
39 -39 R 60 -20 R 39 0 R 59 20 R 40 39 R 19 40 R 0 59 R -19 39 R -40 40 R D
536 7241 M -39 -39 R -20 -40 R 0 -59 R 20 -40 R 39 -39 R 60 -20 R 39 0 R
59 20 R 40 39 R 19 40 R 0 59 R -19 40 R -40 39 R D 339 7399 M 335 0 R
60 20 R 19 39 R 0 40 R D 477 7340 M 0 138 R D 339 7597 M 20 19 R -20 20 R
-20 -20 R 20 -19 R D 477 7616 M 276 0 R D 477 7853 M 20 -39 R 39 -40 R
60 -19 R 39 0 R 59 19 R 40 40 R 19 39 R 0 60 R -19 39 R -40 40 R -59 19 R
-39 0 R -60 -19 R -39 -40 R -20 -39 R 0 -60 R D 477 8149 M 276 0 R D
556 8149 M -59 60 R -20 39 R 0 59 R 20 40 R 59 20 R 197 0 R D
20 setlinewidth 14134 1830 M 0 8255 R D 14134 1830 M -450 0 R D 14134 3706 M
-450 0 R D 14134 5582 M -450 0 R D 14134 7458 M -450 0 R D 14134 9334 M
-450 0 R D 14134 2206 M -225 0 R D 14134 2581 M -225 0 R D 14134 2956 M
-225 0 R D 14134 3331 M -225 0 R D 14134 4082 M -225 0 R D 14134 4457 M
-225 0 R D 14134 4832 M -225 0 R D 14134 5207 M -225 0 R D 14134 5958 M
-225 0 R D 14134 6333 M -225 0 R D 14134 6708 M -225 0 R D 14134 7083 M
-225 0 R D 14134 7834 M -225 0 R D 14134 8209 M -225 0 R D 14134 8584 M
-225 0 R D 14134 8959 M -225 0 R D 14134 9710 M -225 0 R D 14134 10085 M
-225 0 R D 30 setlinewidth 1.000 0.000 0.706 setrgbcolor 2886 2488 M
1250 2034 R 1250 941 R 1249 850 R 1250 243 R 1250 1783 R 1250 -1489 R
1250 -349 R 1249 -637 R 1250 -2934 R D 0.506 0.000 0.000 setrgbcolor
2886 2032 M 1250 1967 R 1250 878 R 1249 1371 R 1250 -184 R 1250 2847 R
1250 -2458 R 1250 447 R 1249 212 R 1250 -3884 R D
1.000 0.349 0.000 setrgbcolor 2886 2083 M 1250 1924 R 1250 1224 R
1249 1134 R 1250 -75 R 1250 2334 R 1250 -1948 R 1250 54 R 1249 -89 R
1250 -3465 R D 0.000 0.514 1.000 setrgbcolor 2886 2502 M 1250 2109 R
1250 889 R 1249 939 R 1250 153 R 1250 1655 R 1250 -1432 R 1250 -443 R
1249 -535 R 1250 -2927 R D 0.588 0.000 0.588 setrgbcolor 2886 2475 M
1250 2078 R 1250 897 R 1249 964 R 1250 153 R 1250 1718 R 1250 -1452 R
1250 -373 R 1249 -584 R 1250 -2965 R D
%%PageTrailer
end
%%PageResources: font Helvetica
%%Trailer
%%Pages: 1
%%DocumentNeededResources: font Helvetica
%%EOF
