%!PS-Adobe-3.0 EPSF-3.0
%%BoundingBox: 0 0 283 226
%%Title: Graphics produced by IDL
%%For: dacia@JiangHu, /home/dacia/work/subhalo_model
%%Creator: IDL Version 7.0 (linux x86_64 m64)
%%CreationDate: Mon Nov  9 16:53:43 2009
%%DocumentData: Clean7bit
%%Requirements: color
%%LanguageLevel: 1
%%PageOrder: Ascend
%%Pages: (atend)
%%DocumentNeededResources: (atend)
%%EndComments
%%BeginProlog
%+ prolog.ps -- Prolog for IDL generated PostScript files
%+ Copyright (c) 1988-2007 ITT Visual Information Solutions. All Rights Reserved.
%v 5
/$IDL_DICT 40 dict def $IDL_DICT begin /bdef { bind def } bind def /C
{currentpoint newpath moveto} bdef /CP {currentpoint} bdef /D {currentpoint
stroke moveto} bdef /F {closepath fill} bdef /K { setgray } bdef /M {moveto}
bdef /N {rmoveto} bdef /P {lineto} bdef /R {rlineto} bdef /S {gsave show
grestore} bdef /X {currentpoint pop} bdef /Z {gsave currentpoint lineto 20
setlinewidth 1 setlinecap stroke grestore} bdef /L0 {[] 0 setdash} bdef /L1
{[40 100] 0 setdash} bdef /L2 {[200 200] 0 setdash} bdef /L3 {[200 100 50
100] 0 setdash} bdef /L4 {[300 100 50 100 50 100 50 100] 0 setdash} bdef /L5
{[400 200] 0 setdash} bdef /STDFONT { findfont exch scalefont setfont } bdef
/ISOFONT { findfont dup length dict begin { 1 index /FID ne {def} {pop pop}
ifelse } forall /Encoding ISOLatin1Encoding def currentdict end /idltmpfont
exch definefont exch scalefont setfont } bdef /ISOBULLET { gsave /Helvetica
findfont exch scalefont setfont (\267) show currentpoint grestore moveto}
bdef /MITERLIMIT { 2.5 setmiterlimit } bdef end
%%EndProlog
%%Page: 0 1
%%PageRequirements: color
%%PageResources: (atend)
%%PageOrientation: Portrait
%%PageBoundingBox: 0 0 283 226
%%BeginPageSetup
$IDL_DICT begin 0.0283465 dup scale MITERLIMIT
%%IncludeResource: font Helvetica
423.333 /Helvetica STDFONT
%%EndPageSetup
40 setlinewidth L0 0.000 0.000 0.000 setrgbcolor 2100 1360 M 7500 0 R D
3539 1360 M 0 256 R D gsave 3539 721 translate 0 0 M 1.21 dup scale
-294.217 0 N
(0.2) show grestore 5055 1360 M 0 256 R D gsave 5055 721 translate 0 0 M
1.21 dup scale -294.217 0 N
(0.4) show grestore 6570 1360 M 0 256 R D gsave 6570 721 translate 0 0 M
1.21 dup scale -294.217 0 N
(0.6) show grestore 8085 1360 M 0 256 R D gsave 8085 721 translate 0 0 M
1.21 dup scale -294.217 0 N
(0.8) show grestore 9600 1360 M 0 256 R D gsave 9600 721 translate 0 0 M
1.21 dup scale -294.217 0 N
(1.0) show grestore 2403 1360 M 0 128 R D 2782 1360 M 0 128 R D 3161 1360 M
0 128 R D 3918 1360 M 0 128 R D 4297 1360 M 0 128 R D 4676 1360 M 0 128 R D
5433 1360 M 0 128 R D 5812 1360 M 0 128 R D 6191 1360 M 0 128 R D
6948 1360 M 0 128 R D 7327 1360 M 0 128 R D 7706 1360 M 0 128 R D
8464 1360 M 0 128 R D 8842 1360 M 0 128 R D 9221 1360 M 0 128 R D
2100 7760 M 7500 0 R D 3539 7760 M 0 -256 R D 5055 7760 M 0 -256 R D
6570 7760 M 0 -256 R D 8085 7760 M 0 -256 R D 9600 7760 M 0 -256 R D
2403 7760 M 0 -128 R D 2782 7760 M 0 -128 R D 3161 7760 M 0 -128 R D
3918 7760 M 0 -128 R D 4297 7760 M 0 -128 R D 4676 7760 M 0 -128 R D
5433 7760 M 0 -128 R D 5812 7760 M 0 -128 R D 6191 7760 M 0 -128 R D
6948 7760 M 0 -128 R D 7327 7760 M 0 -128 R D 7706 7760 M 0 -128 R D
8464 7760 M 0 -128 R D 8842 7760 M 0 -128 R D 9221 7760 M 0 -128 R D
2100 1360 M 0 6400 R D 2100 2959 M 300 0 R D gsave 1966 2788 translate 0 0 M
1.21 dup scale -235.373 0 N
(1) show grestore 2100 4559 M 300 0 R D gsave 1966 4389 translate 0 0 M
1.21 dup scale -235.373 0 N
(2) show grestore 2100 6160 M 300 0 R D gsave 1966 5989 translate 0 0 M
1.21 dup scale -235.373 0 N
(3) show grestore 2100 7760 M 300 0 R D gsave 1966 7462 translate 0 0 M
1.21 dup scale -235.373 0 N
(4) show grestore 2100 1518 M 150 0 R D 2100 1678 M 150 0 R D 2100 1839 M
150 0 R D 2100 1999 M 150 0 R D 2100 2159 M 150 0 R D 2100 2319 M 150 0 R D
2100 2479 M 150 0 R D 2100 2639 M 150 0 R D 2100 2799 M 150 0 R D
2100 3119 M 150 0 R D 2100 3279 M 150 0 R D 2100 3439 M 150 0 R D
2100 3599 M 150 0 R D 2100 3759 M 150 0 R D 2100 3919 M 150 0 R D
2100 4079 M 150 0 R D 2100 4239 M 150 0 R D 2100 4399 M 150 0 R D
2100 4719 M 150 0 R D 2100 4879 M 150 0 R D 2100 5039 M 150 0 R D
2100 5199 M 150 0 R D 2100 5359 M 150 0 R D 2100 5519 M 150 0 R D
2100 5679 M 150 0 R D 2100 5840 M 150 0 R D 2100 6000 M 150 0 R D
2100 6320 M 150 0 R D 2100 6480 M 150 0 R D 2100 6640 M 150 0 R D
2100 6800 M 150 0 R D 2100 6960 M 150 0 R D 2100 7120 M 150 0 R D
2100 7280 M 150 0 R D 2100 7440 M 150 0 R D 2100 7600 M 150 0 R D
9600 1360 M 0 6400 R D 9600 2959 M -300 0 R D 9600 4559 M -300 0 R D
9600 6160 M -300 0 R D 9600 7760 M -300 0 R D 9600 1518 M -150 0 R D
9600 1678 M -150 0 R D 9600 1839 M -150 0 R D 9600 1999 M -150 0 R D
9600 2159 M -150 0 R D 9600 2319 M -150 0 R D 9600 2479 M -150 0 R D
9600 2639 M -150 0 R D 9600 2799 M -150 0 R D 9600 3119 M -150 0 R D
9600 3279 M -150 0 R D 9600 3439 M -150 0 R D 9600 3599 M -150 0 R D
9600 3759 M -150 0 R D 9600 3919 M -150 0 R D 9600 4079 M -150 0 R D
9600 4239 M -150 0 R D 9600 4399 M -150 0 R D 9600 4719 M -150 0 R D
9600 4879 M -150 0 R D 9600 5039 M -150 0 R D 9600 5199 M -150 0 R D
9600 5359 M -150 0 R D 9600 5519 M -150 0 R D 9600 5679 M -150 0 R D
9600 5840 M -150 0 R D 9600 6000 M -150 0 R D 9600 6320 M -150 0 R D
9600 6480 M -150 0 R D 9600 6640 M -150 0 R D 9600 6800 M -150 0 R D
9600 6960 M -150 0 R D 9600 7120 M -150 0 R D 9600 7280 M -150 0 R D
9600 7440 M -150 0 R D 9600 7600 M -150 0 R D 2100 1469 M 111 0 R 0 -109 R D
2099 1469 M 112 0 R D 2151 1469 M 111 0 R 0 -109 R D 2099 1469 M 163 0 R D
2235 1515 M 111 0 R 0 -155 R D 2124 1360 M 0 155 R 222 0 R D 2376 1515 M
111 0 R 0 -155 R D 2265 1360 M 0 155 R 222 0 R D 2611 1652 M 111 0 R
0 -222 R -222 0 R 0 222 R 222 0 R D 3003 1789 M 111 0 R 0 -222 R -222 0 R
0 222 R 222 0 R D 3656 2110 M 111 0 R 0 -222 R -222 0 R 0 222 R 222 0 R D
4747 2430 M 111 0 R 0 -222 R -222 0 R 0 222 R 222 0 R D 6566 2704 M 111 0 R
0 -222 R -222 0 R 0 222 R 222 0 R D 9599 2848 M -110 0 R 0 222 R 110 0 R D
30 setlinewidth 2329 1360 M 47 1 R 235 17 R 392 58 R 653 162 R 1091 306 R
1819 450 R 3033 604 R D 2282 1360 M 94 2 R 235 11 R 392 37 R 653 107 R
1091 265 R 1819 505 R 3033 671 R D 2249 1360 M Z 2264 1360 M Z 2280 1360 M Z
2297 1360 M Z 2315 1360 M 0 1 R D 2334 1360 M 0 1 R D 2354 1360 M 0 2 R D
2376 1361 M 0 1 R D 2399 1362 M 0 1 R D 2424 1364 M Z 2450 1365 M Z
2479 1367 M 0 -1 R D 2509 1369 M 0 -2 R D 2540 1372 M 0 -3 R D 2574 1375 M
0 -4 R D 2611 1378 M 0 -5 R D 2650 1382 M 0 -6 R D 2691 1387 M 0 -8 R D
2735 1392 M 0 -10 R D 2782 1398 M 0 -12 R D 2832 1406 M 0 -15 R D
2886 1414 M 0 -18 R D 2942 1424 M 0 -22 R D 3003 1436 M 0 -26 R D
3067 1449 M 0 -31 R D 3136 1464 M 0 -37 R D 3210 1481 M 0 -43 R D
3288 1500 M 0 -50 R D 3371 1522 M 0 -58 R D 3460 1545 M 0 -65 R D
3555 1570 M 0 -73 R D 3656 1598 M 0 -81 R D 3765 1628 M 0 -88 R D
3881 1661 M 0 -96 R D 4004 1696 M 0 -104 R D 4136 1733 M 0 -110 R D
4275 1772 M 0 -115 R D 4423 1814 M 0 -119 R D 4580 1858 M 0 -122 R D
4747 1904 M 0 -122 R D 4925 1952 M 0 -119 R D 5115 2003 M 0 -115 R D
5317 2056 M 0 -109 R D 5533 2111 M 0 -102 R D 5764 2168 M 0 -94 R D
6012 2227 M 0 -84 R D 6279 2289 M 0 -76 R D 6566 2354 M 0 -67 R D
6875 2421 M 0 -58 R D 7207 2491 M 0 -50 R D 7558 2563 M 0 -42 R D
7929 2637 M 0 -34 R D 8319 2714 M 0 -26 R D 8727 2793 M 0 -17 R D
9154 2875 M 0 -9 R D 80 setlinewidth 0.000 0.000 1.000 setrgbcolor
2100 1365 M 51 11 R 84 27 R 141 55 R 235 98 R 392 160 R 653 239 R 1091 306 R
1819 340 R 3033 357 R D 40 setlinewidth 2100 1366 M 51 13 R 84 29 R 141 57 R
235 103 R 392 160 R 653 238 R 1091 304 R 1819 336 R 3033 352 R D
0.000 0.000 0.000 setrgbcolor 7698 3476 M 111 0 R 0 -222 R -222 0 R 0 222 R
222 0 R -111 0 R D 7809 3476 M 0 -222 R -222 0 R 0 222 R 222 0 R D
gsave 8039 3216 translate 0 0 M 1.1 dup scale
(MW) show grestore 0.000 0.000 1.000 setrgbcolor 7220 2911 M 82 0 R 82 0 R
82 0 R 81 0 R 82 0 R 82 0 R 82 0 R 82 0 R 82 0 R D 80 setlinewidth
7220 2457 M 82 0 R 82 0 R 82 0 R 81 0 R 82 0 R 82 0 R 82 0 R 82 0 R 82 0 R D
gsave 8039 2761 translate 0 0 M 1.1 dup scale
(5%) show grestore gsave 8039 2307 translate 0 0 M 1.1 dup scale
(30%) show grestore 30 setlinewidth 0.000 0.000 0.000 setrgbcolor
7220 2173 M 68 0 R 68 0 R 69 0 R 68 0 R 68 0 R 68 0 R 69 0 R 68 0 R 68 0 R
68 0 R 69 0 R D 7220 1833 M 68 0 R 68 0 R 69 0 R 68 0 R 68 0 R 68 0 R 69 0 R
68 0 R 68 0 R 68 0 R 69 0 R D 7220 2173 M 0 -340 R D 7302 2173 M 0 -340 R D
7384 2173 M 0 -340 R D 7466 2173 M 0 -340 R D 7547 2173 M 0 -340 R D
7629 2173 M 0 -340 R D 7711 2173 M 0 -340 R D 7793 2173 M 0 -340 R D
7875 2173 M 0 -340 R D 7957 2173 M 0 -340 R D
gsave 8039 1833 translate 0 0 M 1.1 dup scale
(SIM) show grestore
%%PageTrailer
end
%%PageResources: font Helvetica
%%Trailer
%%Pages: 1
%%DocumentNeededResources: font Helvetica
%%EOF
