%!PS-Adobe-3.0 EPSF-3.0
%%BoundingBox: 0 0 453 283
%%Title: Graphics produced by IDL
%%For: dacia@Lserver, /home/dacia/work/subhalo_model
%%Creator: IDL Version 7.0 (linux x86_64 m64)
%%CreationDate: Tue Dec 15 15:56:36 2009
%%DocumentData: Clean7bit
%%Requirements: color
%%LanguageLevel: 1
%%PageOrder: Ascend
%%Pages: (atend)
%%DocumentNeededResources: (atend)
%%EndComments
%%BeginProlog
%+ prolog.ps -- Prolog for IDL generated PostScript files
%+ Copyright (c) 1988-2007 ITT Visual Information Solutions. All Rights Reserved.
%v 5
/$IDL_DICT 40 dict def $IDL_DICT begin /bdef { bind def } bind def /C
{currentpoint newpath moveto} bdef /CP {currentpoint} bdef /D {currentpoint
stroke moveto} bdef /F {closepath fill} bdef /K { setgray } bdef /M {moveto}
bdef /N {rmoveto} bdef /P {lineto} bdef /R {rlineto} bdef /S {gsave show
grestore} bdef /X {currentpoint pop} bdef /Z {gsave currentpoint lineto 20
setlinewidth 1 setlinecap stroke grestore} bdef /L0 {[] 0 setdash} bdef /L1
{[40 100] 0 setdash} bdef /L2 {[200 200] 0 setdash} bdef /L3 {[200 100 50
100] 0 setdash} bdef /L4 {[300 100 50 100 50 100 50 100] 0 setdash} bdef /L5
{[400 200] 0 setdash} bdef /STDFONT { findfont exch scalefont setfont } bdef
/ISOFONT { findfont dup length dict begin { 1 index /FID ne {def} {pop pop}
ifelse } forall /Encoding ISOLatin1Encoding def currentdict end /idltmpfont
exch definefont exch scalefont setfont } bdef /ISOBULLET { gsave /Helvetica
findfont exch scalefont setfont (\267) show currentpoint grestore moveto}
bdef /MITERLIMIT { 2.5 setmiterlimit } bdef end
%%EndProlog
%%Page: 0 1
%%PageRequirements: color
%%PageResources: (atend)
%%PageOrientation: Portrait
%%PageBoundingBox: 0 0 453 283
%%BeginPageSetup
$IDL_DICT begin 0.0283465 dup scale MITERLIMIT
%%IncludeResource: font Helvetica
423.333 /Helvetica STDFONT
%%EndPageSetup
0.000 0.000 0.000 setrgbcolor gsave 8640 352 translate 0 0 M 1.1 dup scale
-420.603 0 N
(r/R) show X -101.051 M
%%IncludeResource: font Helvetica
262.467 /Helvetica STDFONT
(vir) show grestore
%%IncludeResource: font Helvetica
423.333 /Helvetica STDFONT gsave 428 5352 translate 0 0 M 90 rotate
1.1 dup scale -1255.42 0 N
(N\(<r\)/N\(<R) show X -101.051 M
%%IncludeResource: font Helvetica
262.467 /Helvetica STDFONT
(vir) show X 0 M
%%IncludeResource: font Helvetica
423.333 /Helvetica STDFONT
(\)) show grestore 40 setlinewidth L0 1760 1408 M 6880 0 R D 3352 1408 M
0 316 R D gsave 3352 769 translate 0 0 M 1.21 dup scale -294.217 0 N
(0.1) show grestore 8640 1408 M 0 316 R D gsave 8640 769 translate 0 0 M
1.21 dup scale -294.217 0 N
(1.0) show grestore 1760 1408 M 0 158 R D 2179 1408 M 0 158 R D 2533 1408 M
0 158 R D 2839 1408 M 0 158 R D 3110 1408 M 0 158 R D 4944 1408 M 0 158 R D
5875 1408 M 0 158 R D 6536 1408 M 0 158 R D 7048 1408 M 0 158 R D
7467 1408 M 0 158 R D 7821 1408 M 0 158 R D 8128 1408 M 0 158 R D
8398 1408 M 0 158 R D 1760 9296 M 6880 0 R D 3352 9296 M 0 -316 R D
8640 9296 M 0 -316 R D 1760 9296 M 0 -158 R D 2179 9296 M 0 -158 R D
2533 9296 M 0 -158 R D 2839 9296 M 0 -158 R D 3110 9296 M 0 -158 R D
4944 9296 M 0 -158 R D 5875 9296 M 0 -158 R D 6536 9296 M 0 -158 R D
7048 9296 M 0 -158 R D 7467 9296 M 0 -158 R D 7821 9296 M 0 -158 R D
8128 9296 M 0 -158 R D 8398 9296 M 0 -158 R D 1760 1408 M 0 7888 R D
1760 3016 M 275 0 R D gsave 1626 2846 translate 0 0 M 1.21 dup scale
-823.807 0 N
(0.01) show grestore 1760 6093 M 275 0 R D gsave 1626 5922 translate 0 0 M
1.21 dup scale -823.807 0 N
(0.10) show grestore 1760 9169 M 275 0 R D gsave 1626 8998 translate 0 0 M
1.21 dup scale -823.807 0 N
(1.00) show grestore 1760 1408 M 138 0 R D 1760 1792 M 138 0 R D 1760 2090 M
138 0 R D 1760 2334 M 138 0 R D 1760 2540 M 138 0 R D 1760 2718 M 138 0 R D
1760 2876 M 138 0 R D 1760 3942 M 138 0 R D 1760 4484 M 138 0 R D
1760 4868 M 138 0 R D 1760 5167 M 138 0 R D 1760 5410 M 138 0 R D
1760 5616 M 138 0 R D 1760 5794 M 138 0 R D 1760 5952 M 138 0 R D
1760 7019 M 138 0 R D 1760 7560 M 138 0 R D 1760 7945 M 138 0 R D
1760 8243 M 138 0 R D 1760 8486 M 138 0 R D 1760 8692 M 138 0 R D
1760 8871 M 138 0 R D 1760 9028 M 138 0 R D 8640 1408 M 0 7888 R D
8640 3016 M -275 0 R D 8640 6093 M -275 0 R D 8640 9169 M -275 0 R D
8640 1408 M -138 0 R D 8640 1792 M -138 0 R D 8640 2090 M -138 0 R D
8640 2334 M -138 0 R D 8640 2540 M -138 0 R D 8640 2718 M -138 0 R D
8640 2876 M -138 0 R D 8640 3942 M -138 0 R D 8640 4484 M -138 0 R D
8640 4868 M -138 0 R D 8640 5167 M -138 0 R D 8640 5410 M -138 0 R D
8640 5616 M -138 0 R D 8640 5794 M -138 0 R D 8640 5952 M -138 0 R D
8640 7019 M -138 0 R D 8640 7560 M -138 0 R D 8640 7945 M -138 0 R D
8640 8243 M -138 0 R D 8640 8486 M -138 0 R D 8640 8692 M -138 0 R D
8640 8871 M -138 0 R D 8640 9028 M -138 0 R D 1.000 0.000 0.706 setrgbcolor
1759 6943 M 1005 817 R 1175 694 R 1176 486 R 1175 202 R 1175 27 R 1175 0 R D
L1 0.506 0.000 0.000 setrgbcolor 1759 3651 M 1005 1095 R 1175 1344 R
1176 1176 R 1175 1029 R 1175 629 R 1175 245 R D L2
1.000 0.349 0.000 setrgbcolor 1759 1429 M 1005 1306 R 1175 1303 R
1176 1219 R 1175 1326 R 1175 1392 R 1175 1194 R D
%%PageTrailer
end
%%PageResources: font Helvetica
%%Trailer
%%Pages: 1
%%DocumentNeededResources: font Helvetica
%%EOF
