%!PS-Adobe-3.0 EPSF-3.0
%%BoundingBox: 0 0 453 510
%%Title: Graphics produced by IDL
%%For: jlgan@aida119, /home/jlgan/work/subhalo_model
%%Creator: IDL Version 7.0 (linux x86_64 m64)
%%CreationDate: Mon May 18 12:27:20 2009
%%DocumentData: Clean7bit
%%Requirements: color
%%LanguageLevel: 1
%%PageOrder: Ascend
%%Pages: (atend)
%%DocumentNeededResources: (atend)
%%EndComments
%%BeginProlog
%+ prolog.ps -- Prolog for IDL generated PostScript files
%+ Copyright (c) 1988-2007 ITT Visual Information Solutions. All Rights Reserved.
%v 5
/$IDL_DICT 40 dict def $IDL_DICT begin /bdef { bind def } bind def /C
{currentpoint newpath moveto} bdef /CP {currentpoint} bdef /D {currentpoint
stroke moveto} bdef /F {closepath fill} bdef /K { setgray } bdef /M {moveto}
bdef /N {rmoveto} bdef /P {lineto} bdef /R {rlineto} bdef /S {gsave show
grestore} bdef /X {currentpoint pop} bdef /Z {gsave currentpoint lineto 20
setlinewidth 1 setlinecap stroke grestore} bdef /L0 {[] 0 setdash} bdef /L1
{[40 100] 0 setdash} bdef /L2 {[200 200] 0 setdash} bdef /L3 {[200 100 50
100] 0 setdash} bdef /L4 {[300 100 50 100 50 100 50 100] 0 setdash} bdef /L5
{[400 200] 0 setdash} bdef /STDFONT { findfont exch scalefont setfont } bdef
/ISOFONT { findfont dup length dict begin { 1 index /FID ne {def} {pop pop}
ifelse } forall /Encoding ISOLatin1Encoding def currentdict end /idltmpfont
exch definefont exch scalefont setfont } bdef /ISOBULLET { gsave /Helvetica
findfont exch scalefont setfont (\267) show currentpoint grestore moveto}
bdef /MITERLIMIT { 2.5 setmiterlimit } bdef end
%%EndProlog
%%Page: 0 1
%%PageRequirements: color
%%PageResources: (atend)
%%PageOrientation: Portrait
%%PageBoundingBox: 0 0 453 510
%%BeginPageSetup
$IDL_DICT begin 0.0283465 dup scale MITERLIMIT
%%IncludeResource: font Helvetica
423.333 /Helvetica STDFONT
%%EndPageSetup
30 setlinewidth L0 0.000 0.000 0.000 setrgbcolor 8223 565 M 0 -213 R D
8223 474 M 16 45 R 30 31 R 30 15 R 46 0 R D 8664 732 M -274 -501 R D
8755 671 M 0 -319 R D 8755 671 M 137 0 R 45 -15 R 15 -15 R 16 -31 R 0 -30 R
-16 -30 R -15 -16 R -45 -15 R -137 0 R D 8861 519 M 107 -167 R D 9038 363 M
56 -132 R 57 132 R D 9198 429 M 9 -10 R 9 10 R -9 9 R -9 -9 R D 9207 363 M
0 -132 R D 9282 363 M 0 -132 R D 9282 306 M 10 29 R 19 18 R 18 10 R 29 0 R D
569 8201 M 319 0 R D 569 8201 M 319 212 R -319 0 R D 508 8641 M 31 -30 R
45 -31 R 61 -30 R 76 -15 R 61 0 R 76 15 R 76 30 R 45 31 R 31 30 R D
615 8990 M 136 -243 R 137 243 R D 675 9112 M 213 0 R D 767 9112 M -46 15 R
-30 31 R -16 30 R 0 45 R D 508 9294 M 31 31 R 45 30 R 61 30 R 76 16 R 61 0 R
76 -16 R 76 -30 R 45 -30 R 31 -31 R D 508 9765 M 502 -273 R D 569 9856 M
319 0 R D 569 9856 M 319 213 R -319 0 R D 812 10182 M 159 0 R 29 10 R 9 19 R
0 18 R D 877 10154 M 0 66 R D 877 10323 M 10 -18 R 19 -19 R 28 -10 R 19 0 R
28 10 R 19 19 R 9 18 R 0 29 R -9 19 R -19 18 R -28 10 R -19 0 R -28 -10 R
-19 -18 R -10 -19 R 0 -29 R D 812 10474 M 159 0 R 29 9 R 9 19 R 0 19 R D
877 10446 M 0 66 R D 20 setlinewidth 2220 12000 M 6557 0 R D 3737 12000 M
0 212 R D 8777 12000 M 0 212 R D 2220 12000 M 0 106 R D 2619 12000 M 0 106 R
D 2957 12000 M 0 106 R D 3249 12000 M 0 106 R D 3507 12000 M 0 106 R D
5254 12000 M 0 106 R D 6142 12000 M 0 106 R D 6772 12000 M 0 106 R D
7260 12000 M 0 106 R D 7659 12000 M 0 106 R D 7996 12000 M 0 106 R D
8289 12000 M 0 106 R D 8546 12000 M 0 106 R D 2220 17296 M 6557 0 R D
3737 17296 M 0 -212 R D 8777 17296 M 0 -212 R D 2220 17296 M 0 -106 R D
2619 17296 M 0 -106 R D 2957 17296 M 0 -106 R D 3249 17296 M 0 -106 R D
3507 17296 M 0 -106 R D 5254 17296 M 0 -106 R D 6142 17296 M 0 -106 R D
6772 17296 M 0 -106 R D 7260 17296 M 0 -106 R D 7659 17296 M 0 -106 R D
7996 17296 M 0 -106 R D 8289 17296 M 0 -106 R D 8546 17296 M 0 -106 R D
2220 12000 M 0 5296 R D 2220 12374 M 262 0 R D 30 setlinewidth 1385 12478 M
-35 -12 R -24 -35 R -11 -58 R 0 -35 R 11 -58 R 24 -36 R 35 -11 R 23 0 R
35 11 R 23 36 R 12 58 R 0 35 R -12 58 R -23 35 R -35 12 R -23 0 R D
1572 12256 M -12 -12 R 12 -11 R 11 11 R -11 12 R D 1735 12478 M -35 -12 R
-23 -35 R -12 -58 R 0 -35 R 12 -58 R 23 -36 R 35 -11 R 24 0 R 35 11 R
23 36 R 12 58 R 0 35 R -12 58 R -23 35 R -35 12 R -24 0 R D 1934 12431 M
23 12 R 35 35 R 0 -245 R D 20 setlinewidth 2220 14785 M 262 0 R D
30 setlinewidth 1385 14890 M -35 -12 R -24 -35 R -11 -59 R 0 -35 R 11 -58 R
24 -35 R 35 -12 R 23 0 R 35 12 R 23 35 R 12 58 R 0 35 R -12 59 R -23 35 R
-35 12 R -23 0 R D 1572 14668 M -12 -12 R 12 -12 R 11 12 R -11 12 R D
1700 14843 M 24 11 R 35 36 R 0 -246 R D 1969 14890 M -35 -12 R -24 -35 R
-11 -59 R 0 -35 R 11 -58 R 24 -35 R 35 -12 R 23 0 R 35 12 R 24 35 R 11 58 R
0 35 R -11 59 R -24 35 R -35 12 R -23 0 R D 20 setlinewidth 2220 17196 M
262 0 R D 30 setlinewidth 1350 17248 M 23 12 R 35 35 R 0 -245 R D
1572 17073 M -12 -12 R 12 -11 R 11 11 R -11 12 R D 1735 17295 M -35 -12 R
-23 -35 R -12 -58 R 0 -35 R 12 -59 R 23 -35 R 35 -11 R 24 0 R 35 11 R
23 35 R 12 59 R 0 35 R -12 58 R -23 35 R -35 12 R -24 0 R D 1969 17295 M
-35 -12 R -24 -35 R -11 -58 R 0 -35 R 11 -59 R 24 -35 R 35 -11 R 23 0 R
35 11 R 24 35 R 11 59 R 0 35 R -11 58 R -24 35 R -35 12 R -23 0 R D
20 setlinewidth 2220 12000 M 131 0 R D 2220 12140 M 131 0 R D 2220 12263 M
131 0 R D 2220 13099 M 131 0 R D 2220 13524 M 131 0 R D 2220 13825 M 131 0 R
D 2220 14059 M 131 0 R D 2220 14250 M 131 0 R D 2220 14411 M 131 0 R D
2220 14551 M 131 0 R D 2220 14675 M 131 0 R D 2220 15511 M 131 0 R D
2220 15935 M 131 0 R D 2220 16237 M 131 0 R D 2220 16470 M 131 0 R D
2220 16661 M 131 0 R D 2220 16823 M 131 0 R D 2220 16963 M 131 0 R D
2220 17086 M 131 0 R D 8777 12000 M 0 5296 R D 8777 12374 M -262 0 R D
8777 14785 M -262 0 R D 8777 17196 M -262 0 R D 8777 12000 M -131 0 R D
8777 12140 M -131 0 R D 8777 12263 M -131 0 R D 8777 13099 M -131 0 R D
8777 13524 M -131 0 R D 8777 13825 M -131 0 R D 8777 14059 M -131 0 R D
8777 14250 M -131 0 R D 8777 14411 M -131 0 R D 8777 14551 M -131 0 R D
8777 14675 M -131 0 R D 8777 15511 M -131 0 R D 8777 15935 M -131 0 R D
8777 16237 M -131 0 R D 8777 16470 M -131 0 R D 8777 16661 M -131 0 R D
8777 16823 M -131 0 R D 8777 16963 M -131 0 R D 8777 17086 M -131 0 R D
30 setlinewidth L2 3669 12000 M 628 785 R 1120 1316 R 1120 1202 R
1120 1047 R 1120 846 R D 0.255 0.255 0.255 setrgbcolor 2947 12000 M
230 285 R 1120 1305 R 1120 1187 R 1120 1028 R 1120 821 R 1120 570 R D L1
0.000 0.000 0.000 setrgbcolor 2220 14321 M 957 553 R 1120 622 R 1120 567 R
1120 499 R 1120 420 R 1120 214 R D L0 3177 14924 M -957 -757 R D
4297 15637 M -1120 -713 R D 5417 16222 M -1120 -585 R D 6537 16647 M
-1120 -425 R D 7657 16946 M -1120 -299 R D 8777 17196 M -1120 -250 R D
3177 15035 M 111 -111 R -111 -111 R -111 111 R 111 111 R D 2220 14166 M
957 758 R D 4297 15748 M 111 -111 R -111 -111 R -111 111 R 111 111 R D
3177 14924 M 1120 713 R D 5417 16333 M 111 -111 R -111 -111 R -111 111 R
111 111 R D 4297 15637 M 1120 585 R D 6537 16758 M 111 -111 R -111 -111 R
-111 111 R 111 111 R D 5417 16222 M 1120 425 R D 7657 17057 M 111 -111 R
-111 -111 R -111 111 R 111 111 R D 6537 16647 M 1120 299 R D 8777 17085 M
-111 111 R 100 100 R D 7657 16946 M 1120 250 R D 3177 13675 M 111 -222 R
-222 0 R 111 222 R D 2220 12701 M 957 863 R D 4297 14681 M 111 -222 R
-222 0 R 111 222 R D 3177 13564 M 1120 1006 R D 5417 15699 M 111 -222 R
-222 0 R 111 222 R D 4297 14570 M 1120 1018 R D 6537 16467 M 111 -222 R
-222 0 R 111 222 R D 5417 15588 M 1120 768 R D 7657 16952 M 111 -222 R
-222 0 R 111 222 R D 6537 16356 M 1120 485 R D 8777 17085 M -111 0 R
105 211 R D 7657 16841 M 1120 355 R D 3177 12012 M 111 0 R 0 -12 R D
3066 12000 M 0 12 R 222 0 R D 4297 13245 M 111 0 R 0 -222 R -222 0 R 0 222 R
222 0 R D 3266 12000 M 1031 1134 R D 5417 14906 M 111 0 R 0 -222 R -222 0 R
0 222 R 222 0 R D 4297 13134 M 1120 1661 R D 6537 15699 M 111 0 R 0 -222 R
-222 0 R 0 222 R 222 0 R D 5417 14795 M 1120 793 R D 7657 16369 M 111 0 R
0 -222 R -222 0 R 0 222 R 222 0 R D 6537 15588 M 1120 670 R D 8777 17085 M
-111 0 R 0 211 R D 7657 16258 M 1120 938 R D 7388 12582 M 0 -319 R D
7388 12430 M 31 31 R 30 15 R 46 0 R 30 -15 R 31 -31 R 15 -45 R 0 -31 R
-15 -45 R -31 -31 R -30 -15 R -46 0 R -30 15 R -31 31 R D 7829 12430 M
-15 31 R -46 15 R -45 0 R -46 -15 R -15 -31 R 15 -30 R 30 -15 R 76 -15 R
31 -16 R 15 -30 R 0 -15 R -15 -31 R -46 -15 R -45 0 R -46 15 R -15 31 R D
8011 12582 M -45 -15 R -31 -46 R -15 -75 R 0 -46 R 15 -76 R 31 -46 R
45 -15 R 31 0 R 45 15 R 31 46 R 15 76 R 0 46 R -15 75 R -31 46 R -45 15 R
-31 0 R D 8315 12582 M -46 -15 R -30 -46 R -15 -75 R 0 -46 R 15 -76 R
30 -46 R 46 -15 R 30 0 R 46 15 R 30 46 R 16 76 R 0 46 R -16 75 R -30 46 R
-46 15 R -30 0 R D 20 setlinewidth 8777 12000 M 6557 0 R D 10294 12000 M
0 212 R D 15334 12000 M 0 212 R D 8777 12000 M 0 106 R D 9176 12000 M
0 106 R D 9514 12000 M 0 106 R D 9806 12000 M 0 106 R D 10064 12000 M
0 106 R D 11811 12000 M 0 106 R D 12699 12000 M 0 106 R D 13329 12000 M
0 106 R D 13817 12000 M 0 106 R D 14216 12000 M 0 106 R D 14553 12000 M
0 106 R D 14846 12000 M 0 106 R D 15103 12000 M 0 106 R D 8777 17296 M
6557 0 R D 10294 17296 M 0 -212 R D 15334 17296 M 0 -212 R D 8777 17296 M
0 -106 R D 9176 17296 M 0 -106 R D 9514 17296 M 0 -106 R D 9806 17296 M
0 -106 R D 10064 17296 M 0 -106 R D 11811 17296 M 0 -106 R D 12699 17296 M
0 -106 R D 13329 17296 M 0 -106 R D 13817 17296 M 0 -106 R D 14216 17296 M
0 -106 R D 14553 17296 M 0 -106 R D 14846 17296 M 0 -106 R D 15103 17296 M
0 -106 R D 8777 12000 M 0 5296 R D 8777 12374 M 262 0 R D 8777 14785 M
262 0 R D 8777 17196 M 262 0 R D 8777 12000 M 131 0 R D 8777 12140 M 131 0 R
D 8777 12263 M 131 0 R D 8777 13099 M 131 0 R D 8777 13524 M 131 0 R D
8777 13825 M 131 0 R D 8777 14059 M 131 0 R D 8777 14250 M 131 0 R D
8777 14411 M 131 0 R D 8777 14551 M 131 0 R D 8777 14675 M 131 0 R D
8777 15511 M 131 0 R D 8777 15935 M 131 0 R D 8777 16237 M 131 0 R D
8777 16470 M 131 0 R D 8777 16661 M 131 0 R D 8777 16823 M 131 0 R D
8777 16963 M 131 0 R D 8777 17086 M 131 0 R D 15334 12000 M 0 5296 R D
15334 12374 M -262 0 R D 15334 14785 M -262 0 R D 15334 17196 M -262 0 R D
15334 12000 M -131 0 R D 15334 12140 M -131 0 R D 15334 12263 M -131 0 R D
15334 13099 M -131 0 R D 15334 13524 M -131 0 R D 15334 13825 M -131 0 R D
15334 14059 M -131 0 R D 15334 14250 M -131 0 R D 15334 14411 M -131 0 R D
15334 14551 M -131 0 R D 15334 14675 M -131 0 R D 15334 15511 M -131 0 R D
15334 15935 M -131 0 R D 15334 16237 M -131 0 R D 15334 16470 M -131 0 R D
15334 16661 M -131 0 R D 15334 16823 M -131 0 R D 15334 16963 M -131 0 R D
15334 17086 M -131 0 R D 30 setlinewidth L2 10226 12000 M 628 785 R
1120 1316 R 1120 1202 R 1120 1047 R 1120 846 R D
0.255 0.255 0.255 setrgbcolor 9504 12000 M 230 285 R 1120 1305 R 1120 1187 R
1120 1028 R 1120 821 R 1120 570 R D L1 0.000 0.000 0.000 setrgbcolor
8777 14321 M 957 553 R 1120 622 R 1120 567 R 1120 499 R 1120 420 R
1120 214 R D L0 9734 12981 M -682 -981 R D 10854 14430 M -1120 -1449 R D
11974 15515 M -1120 -1085 R D 13094 16302 M -1120 -787 R D 14214 16819 M
-1120 -517 R D 15334 17196 M -1120 -377 R D 9734 13087 M 111 -111 R
-111 -111 R -111 111 R 111 111 R D 9062 12000 M 672 976 R D 10854 14540 M
111 -111 R -111 -111 R -111 111 R 111 111 R D 9734 12976 M 1120 1453 R D
11974 15626 M 111 -111 R -111 -111 R -111 111 R 111 111 R D 10854 14429 M
1120 1086 R D 13094 16413 M 111 -111 R -111 -111 R -111 111 R 111 111 R D
11974 15515 M 1120 787 R D 14214 16930 M 111 -111 R -111 -111 R -111 111 R
111 111 R D 13094 16302 M 1120 517 R D 15334 17085 M -111 111 R 100 100 R D
14214 16819 M 1120 377 R D 9734 12699 M 111 -222 R -222 0 R 111 222 R D
9337 12000 M 397 588 R D 10854 14138 M 111 -222 R -222 0 R 111 222 R D
9734 12588 M 1120 1439 R D 11974 15373 M 111 -222 R -222 0 R 111 222 R D
10854 14027 M 1120 1235 R D 13094 16292 M 111 -222 R -222 0 R 111 222 R D
11974 15262 M 1120 919 R D 14214 16892 M 111 -222 R -222 0 R 111 222 R D
13094 16181 M 1120 600 R D 15334 17085 M -111 0 R 105 211 R D 14214 16781 M
1120 415 R D 10854 13235 M 111 0 R 0 -222 R -222 0 R 0 222 R 222 0 R D
9838 12000 M 1016 1124 R D 11974 14903 M 111 0 R 0 -222 R -222 0 R 0 222 R
222 0 R D 10854 13124 M 1120 1668 R D 13094 15698 M 111 0 R 0 -222 R
-222 0 R 0 222 R 222 0 R D 11974 14792 M 1120 795 R D 14214 16369 M 111 0 R
0 -222 R -222 0 R 0 222 R 222 0 R D 13094 15587 M 1120 671 R D 15334 17085 M
-111 0 R 0 211 R D 14214 16258 M 1120 938 R D 13794 12582 M 0 -319 R D
13794 12430 M 30 31 R 30 15 R 46 0 R 30 -15 R 31 -31 R 15 -45 R 0 -31 R
-15 -45 R -31 -31 R -30 -15 R -46 0 R -30 15 R -30 31 R D 14234 12430 M
-15 31 R -46 15 R -45 0 R -46 -15 R -15 -31 R 15 -30 R 31 -15 R 75 -15 R
31 -16 R 15 -30 R 0 -15 R -15 -31 R -46 -15 R -45 0 R -46 15 R -15 31 R D
14416 12582 M -45 -15 R -31 -46 R -15 -75 R 0 -46 R 15 -76 R 31 -46 R
45 -15 R 31 0 R 45 15 R 31 46 R 15 76 R 0 46 R -15 75 R -31 46 R -45 15 R
-31 0 R D 14644 12476 M 0 -213 R D 14644 12385 M 15 45 R 31 31 R 30 15 R
46 0 R D 14994 12430 M -16 31 R -45 15 R -46 0 R -45 -15 R -16 -31 R
16 -30 R 30 -15 R 76 -15 R 30 -16 R 16 -30 R 0 -15 R -16 -31 R -45 -15 R
-46 0 R -45 15 R -16 31 R D 20 setlinewidth 2220 6704 M 6557 0 R D
3737 6704 M 0 212 R D 8777 6704 M 0 212 R D 2220 6704 M 0 106 R D
2619 6704 M 0 106 R D 2957 6704 M 0 106 R D 3249 6704 M 0 106 R D
3507 6704 M 0 106 R D 5254 6704 M 0 106 R D 6142 6704 M 0 106 R D
6772 6704 M 0 106 R D 7260 6704 M 0 106 R D 7659 6704 M 0 106 R D
7996 6704 M 0 106 R D 8289 6704 M 0 106 R D 8546 6704 M 0 106 R D
2220 12000 M 6557 0 R D 3737 12000 M 0 -212 R D 8777 12000 M 0 -212 R D
2220 12000 M 0 -106 R D 2619 12000 M 0 -106 R D 2957 12000 M 0 -106 R D
3249 12000 M 0 -106 R D 3507 12000 M 0 -106 R D 5254 12000 M 0 -106 R D
6142 12000 M 0 -106 R D 6772 12000 M 0 -106 R D 7260 12000 M 0 -106 R D
7659 12000 M 0 -106 R D 7996 12000 M 0 -106 R D 8289 12000 M 0 -106 R D
8546 12000 M 0 -106 R D 2220 6704 M 0 5296 R D 2220 7078 M 262 0 R D
30 setlinewidth 1385 7182 M -35 -12 R -24 -35 R -11 -58 R 0 -35 R 11 -58 R
24 -36 R 35 -11 R 23 0 R 35 11 R 23 36 R 12 58 R 0 35 R -12 58 R -23 35 R
-35 12 R -23 0 R D 1572 6960 M -12 -12 R 12 -11 R 11 11 R -11 12 R D
1735 7182 M -35 -12 R -23 -35 R -12 -58 R 0 -35 R 12 -58 R 23 -36 R 35 -11 R
24 0 R 35 11 R 23 36 R 12 58 R 0 35 R -12 58 R -23 35 R -35 12 R -24 0 R D
1934 7135 M 23 12 R 35 35 R 0 -245 R D 20 setlinewidth 2220 9489 M 262 0 R D
30 setlinewidth 1385 9594 M -35 -12 R -24 -35 R -11 -59 R 0 -35 R 11 -58 R
24 -35 R 35 -12 R 23 0 R 35 12 R 23 35 R 12 58 R 0 35 R -12 59 R -23 35 R
-35 12 R -23 0 R D 1572 9372 M -12 -12 R 12 -12 R 11 12 R -11 12 R D
1700 9547 M 24 11 R 35 36 R 0 -246 R D 1969 9594 M -35 -12 R -24 -35 R
-11 -59 R 0 -35 R 11 -58 R 24 -35 R 35 -12 R 23 0 R 35 12 R 24 35 R 11 58 R
0 35 R -11 59 R -24 35 R -35 12 R -23 0 R D 20 setlinewidth 2220 11900 M
262 0 R D 30 setlinewidth 1350 11952 M 23 12 R 35 35 R 0 -245 R D
1572 11777 M -12 -12 R 12 -11 R 11 11 R -11 12 R D 1735 11999 M -35 -12 R
-23 -35 R -12 -58 R 0 -35 R 12 -59 R 23 -35 R 35 -11 R 24 0 R 35 11 R
23 35 R 12 59 R 0 35 R -12 58 R -23 35 R -35 12 R -24 0 R D 1969 11999 M
-35 -12 R -24 -35 R -11 -58 R 0 -35 R 11 -59 R 24 -35 R 35 -11 R 23 0 R
35 11 R 24 35 R 11 59 R 0 35 R -11 58 R -24 35 R -35 12 R -23 0 R D
20 setlinewidth 2220 6704 M 131 0 R D 2220 6844 M 131 0 R D 2220 6967 M
131 0 R D 2220 7803 M 131 0 R D 2220 8228 M 131 0 R D 2220 8529 M 131 0 R D
2220 8763 M 131 0 R D 2220 8954 M 131 0 R D 2220 9115 M 131 0 R D
2220 9255 M 131 0 R D 2220 9379 M 131 0 R D 2220 10215 M 131 0 R D
2220 10639 M 131 0 R D 2220 10941 M 131 0 R D 2220 11174 M 131 0 R D
2220 11365 M 131 0 R D 2220 11527 M 131 0 R D 2220 11667 M 131 0 R D
2220 11790 M 131 0 R D 8777 6704 M 0 5296 R D 8777 7078 M -262 0 R D
8777 9489 M -262 0 R D 8777 11900 M -262 0 R D 8777 6704 M -131 0 R D
8777 6844 M -131 0 R D 8777 6967 M -131 0 R D 8777 7803 M -131 0 R D
8777 8228 M -131 0 R D 8777 8529 M -131 0 R D 8777 8763 M -131 0 R D
8777 8954 M -131 0 R D 8777 9115 M -131 0 R D 8777 9255 M -131 0 R D
8777 9379 M -131 0 R D 8777 10215 M -131 0 R D 8777 10639 M -131 0 R D
8777 10941 M -131 0 R D 8777 11174 M -131 0 R D 8777 11365 M -131 0 R D
8777 11527 M -131 0 R D 8777 11667 M -131 0 R D 8777 11790 M -131 0 R D
30 setlinewidth L2 3669 6704 M 628 785 R 1120 1316 R 1120 1202 R 1120 1047 R
1120 846 R D 0.255 0.255 0.255 setrgbcolor 2947 6704 M 230 285 R 1120 1305 R
1120 1187 R 1120 1028 R 1120 821 R 1120 570 R D L1
0.000 0.000 0.000 setrgbcolor 2220 9025 M 957 553 R 1120 622 R 1120 567 R
1120 499 R 1120 420 R 1120 214 R D L0 3177 8665 M -957 -1243 R D 4297 9679 M
-1120 -1014 R D 5417 10548 M -1120 -869 R D 6537 11184 M -1120 -636 R D
7657 11587 M -1120 -403 R D 8777 11900 M -1120 -313 R D 3177 8775 M
111 -111 R -111 -111 R -111 111 R 111 111 R D 2220 7417 M 957 1247 R D
4297 9790 M 111 -111 R -111 -111 R -111 111 R 111 111 R D 3177 8664 M
1120 1015 R D 5417 10658 M 111 -111 R -111 -111 R -111 111 R 111 111 R D
4297 9679 M 1120 868 R D 6537 11295 M 111 -111 R -111 -111 R -111 111 R
111 111 R D 5417 10547 M 1120 637 R D 7657 11698 M 111 -111 R -111 -111 R
-111 111 R 111 111 R D 6537 11184 M 1120 403 R D 8777 11789 M -111 111 R
100 100 R D 7657 11587 M 1120 313 R D 3177 8045 M 111 -222 R -222 0 R
111 222 R D 2220 6869 M 957 1065 R D 4297 9175 M 111 -222 R -222 0 R
111 222 R D 3177 7934 M 1120 1130 R D 5417 10279 M 111 -222 R -222 0 R
111 222 R D 4297 9064 M 1120 1104 R D 6537 11122 M 111 -222 R -222 0 R
111 222 R D 5417 10168 M 1120 843 R D 7657 11640 M 111 -222 R -222 0 R
111 222 R D 6537 11011 M 1120 518 R D 8777 11789 M -111 0 R 105 211 R D
7657 11529 M 1120 371 R D 3177 6716 M 111 0 R 0 -12 R D 3066 6704 M 0 12 R
222 0 R D 4297 7949 M 111 0 R 0 -222 R -222 0 R 0 222 R 222 0 R D
3266 6704 M 1031 1134 R D 5417 9610 M 111 0 R 0 -222 R -222 0 R 0 222 R
222 0 R D 4297 7838 M 1120 1661 R D 6537 10403 M 111 0 R 0 -222 R -222 0 R
0 222 R 222 0 R D 5417 9499 M 1120 793 R D 7657 11073 M 111 0 R 0 -222 R
-222 0 R 0 222 R 222 0 R D 6537 10292 M 1120 670 R D 8777 11789 M -111 0 R
0 211 R D 7657 10962 M 1120 938 R D 6948 7286 M 0 -319 R D 6948 7134 M
30 31 R 31 15 R 45 0 R 31 -15 R 30 -31 R 15 -45 R 0 -31 R -15 -45 R
-30 -31 R -31 -15 R -45 0 R -31 15 R -30 31 R D 7388 7134 M -15 31 R
-45 15 R -46 0 R -45 -15 R -16 -31 R 16 -30 R 30 -15 R 76 -15 R 30 -16 R
15 -30 R 0 -15 R -15 -31 R -45 -15 R -46 0 R -45 15 R -16 31 R D 7571 7286 M
-46 -15 R -30 -46 R -15 -75 R 0 -46 R 15 -76 R 30 -46 R 46 -15 R 30 0 R
46 15 R 30 46 R 15 76 R 0 46 R -15 75 R -30 46 R -46 15 R -30 0 R D
7799 7180 M 0 -213 R D 7799 7089 M 15 45 R 30 31 R 31 15 R 45 0 R D
8148 7134 M -15 31 R -46 15 R -45 0 R -46 -15 R -15 -31 R 15 -30 R 30 -15 R
76 -15 R 31 -16 R 15 -30 R 0 -15 R -15 -31 R -46 -15 R -45 0 R -46 15 R
-15 31 R D 8254 7286 M 0 -319 R D 8254 7119 M 46 46 R 30 15 R 46 0 R
30 -15 R 15 -46 R 0 -152 R D 20 setlinewidth 8777 6704 M 6557 0 R D
10294 6704 M 0 212 R D 30 setlinewidth 10096 6421 M -35 -11 R -24 -35 R
-12 -59 R 0 -35 R 12 -58 R 24 -35 R 35 -12 R 23 0 R 35 12 R 23 35 R 12 58 R
0 35 R -12 59 R -23 35 R -35 11 R -23 0 R D 10283 6199 M -12 -11 R 12 -12 R
11 12 R -11 11 R D 10411 6375 M 23 11 R 35 35 R 0 -245 R D 20 setlinewidth
15334 6704 M 0 212 R D 30 setlinewidth 15100 6375 M 24 11 R 35 35 R 0 -245 R
D 15322 6199 M -11 -11 R 11 -12 R 12 12 R -12 11 R D 15486 6421 M -35 -11 R
-23 -35 R -12 -59 R 0 -35 R 12 -58 R 23 -35 R 35 -12 R 23 0 R 35 12 R
24 35 R 11 58 R 0 35 R -11 59 R -24 35 R -35 11 R -23 0 R D 20 setlinewidth
8777 6704 M 0 106 R D 9176 6704 M 0 106 R D 9514 6704 M 0 106 R D
9806 6704 M 0 106 R D 10064 6704 M 0 106 R D 11811 6704 M 0 106 R D
12699 6704 M 0 106 R D 13329 6704 M 0 106 R D 13817 6704 M 0 106 R D
14216 6704 M 0 106 R D 14553 6704 M 0 106 R D 14846 6704 M 0 106 R D
15103 6704 M 0 106 R D 8777 12000 M 6557 0 R D 10294 12000 M 0 -212 R D
15334 12000 M 0 -212 R D 8777 12000 M 0 -106 R D 9176 12000 M 0 -106 R D
9514 12000 M 0 -106 R D 9806 12000 M 0 -106 R D 10064 12000 M 0 -106 R D
11811 12000 M 0 -106 R D 12699 12000 M 0 -106 R D 13329 12000 M 0 -106 R D
13817 12000 M 0 -106 R D 14216 12000 M 0 -106 R D 14553 12000 M 0 -106 R D
14846 12000 M 0 -106 R D 15103 12000 M 0 -106 R D 8777 6704 M 0 5296 R D
8777 7078 M 262 0 R D 8777 9489 M 262 0 R D 8777 11900 M 262 0 R D
8777 6704 M 131 0 R D 8777 6844 M 131 0 R D 8777 6967 M 131 0 R D
8777 7803 M 131 0 R D 8777 8228 M 131 0 R D 8777 8529 M 131 0 R D
8777 8763 M 131 0 R D 8777 8954 M 131 0 R D 8777 9115 M 131 0 R D
8777 9255 M 131 0 R D 8777 9379 M 131 0 R D 8777 10215 M 131 0 R D
8777 10639 M 131 0 R D 8777 10941 M 131 0 R D 8777 11174 M 131 0 R D
8777 11365 M 131 0 R D 8777 11527 M 131 0 R D 8777 11667 M 131 0 R D
8777 11790 M 131 0 R D 15334 6704 M 0 5296 R D 15334 7078 M -262 0 R D
15334 9489 M -262 0 R D 15334 11900 M -262 0 R D 15334 6704 M -131 0 R D
15334 6844 M -131 0 R D 15334 6967 M -131 0 R D 15334 7803 M -131 0 R D
15334 8228 M -131 0 R D 15334 8529 M -131 0 R D 15334 8763 M -131 0 R D
15334 8954 M -131 0 R D 15334 9115 M -131 0 R D 15334 9255 M -131 0 R D
15334 9379 M -131 0 R D 15334 10215 M -131 0 R D 15334 10639 M -131 0 R D
15334 10941 M -131 0 R D 15334 11174 M -131 0 R D 15334 11365 M -131 0 R D
15334 11527 M -131 0 R D 15334 11667 M -131 0 R D 15334 11790 M -131 0 R D
30 setlinewidth L2 10226 6704 M 628 785 R 1120 1316 R 1120 1202 R
1120 1047 R 1120 846 R D 0.255 0.255 0.255 setrgbcolor 9504 6704 M 230 285 R
1120 1305 R 1120 1187 R 1120 1028 R 1120 821 R 1120 570 R D L1
0.000 0.000 0.000 setrgbcolor 8777 9025 M 957 553 R 1120 622 R 1120 567 R
1120 499 R 1120 420 R 1120 214 R D L0 9734 9571 M -957 -740 R D
10854 10286 M -1120 -715 R D 11974 10895 M -1120 -609 R D 13094 11336 M
-1120 -441 R D 14214 11644 M -1120 -308 R D 15334 11900 M -1120 -256 R D
9734 9681 M 111 -111 R -111 -111 R -111 111 R 111 111 R D 8777 8829 M
957 741 R D 10854 10397 M 111 -111 R -111 -111 R -111 111 R 111 111 R D
9734 9570 M 1120 716 R D 11974 11006 M 111 -111 R -111 -111 R -111 111 R
111 111 R D 10854 10286 M 1120 609 R D 13094 11447 M 111 -111 R -111 -111 R
-111 111 R 111 111 R D 11974 10895 M 1120 441 R D 14214 11755 M 111 -111 R
-111 -111 R -111 111 R 111 111 R D 13094 11336 M 1120 308 R D 15334 11789 M
-111 111 R 100 100 R D 14214 11644 M 1120 256 R D 9734 8322 M 111 -222 R
-222 0 R 111 222 R D 8777 7278 M 957 933 R D 10854 9358 M 111 -222 R
-222 0 R 111 222 R D 9734 8211 M 1120 1036 R D 11974 10393 M 111 -222 R
-222 0 R 111 222 R D 10854 9247 M 1120 1035 R D 13094 11167 M 111 -222 R
-222 0 R 111 222 R D 11974 10282 M 1120 774 R D 14214 11654 M 111 -222 R
-222 0 R 111 222 R D 13094 11056 M 1120 487 R D 15334 11789 M -111 0 R
105 211 R D 14214 11543 M 1120 357 R D 9734 6716 M 111 0 R 0 -12 R D
9623 6704 M 0 12 R 222 0 R D 10854 7949 M 111 0 R 0 -222 R -222 0 R 0 222 R
222 0 R D 9823 6704 M 1031 1134 R D 11974 9610 M 111 0 R 0 -222 R -222 0 R
0 222 R 222 0 R D 10854 7838 M 1120 1661 R D 13094 10403 M 111 0 R 0 -222 R
-222 0 R 0 222 R 222 0 R D 11974 9499 M 1120 793 R D 14214 11073 M 111 0 R
0 -222 R -222 0 R 0 222 R 222 0 R D 13094 10292 M 1120 670 R D 15334 11789 M
-111 0 R 0 211 R D 14214 10962 M 1120 938 R D 13794 7286 M 0 -319 R D
13794 7134 M 30 31 R 30 15 R 46 0 R 30 -15 R 31 -31 R 15 -45 R 0 -31 R
-15 -45 R -31 -31 R -30 -15 R -46 0 R -30 15 R -30 31 R D 14234 7134 M
-15 31 R -46 15 R -45 0 R -46 -15 R -15 -31 R 15 -30 R 31 -15 R 75 -15 R
31 -16 R 15 -30 R 0 -15 R -15 -31 R -46 -15 R -45 0 R -46 15 R -15 31 R D
14371 7225 M 30 16 R 46 45 R 0 -319 R D 14644 7180 M 0 -213 R D 14644 7089 M
15 45 R 31 31 R 30 15 R 46 0 R D 14994 7134 M -16 31 R -45 15 R -46 0 R
-45 -15 R -16 -31 R 16 -30 R 30 -15 R 76 -15 R 30 -16 R 16 -30 R 0 -15 R
-16 -31 R -45 -15 R -46 0 R -45 15 R -16 31 R D 20 setlinewidth 2220 1408 M
6557 0 R D 3737 1408 M 0 212 R D 30 setlinewidth 3539 1125 M -35 -11 R
-24 -35 R -12 -59 R 0 -35 R 12 -58 R 24 -35 R 35 -12 R 23 0 R 35 12 R
23 35 R 12 58 R 0 35 R -12 59 R -23 35 R -35 11 R -23 0 R D 3726 903 M
-12 -11 R 12 -12 R 11 12 R -11 11 R D 3854 1079 M 23 11 R 35 35 R 0 -245 R D
20 setlinewidth 8777 1408 M 0 212 R D 30 setlinewidth 8543 1079 M 24 11 R
35 35 R 0 -245 R D 8765 903 M -11 -11 R 11 -12 R 12 12 R -12 11 R D
8929 1125 M -35 -11 R -23 -35 R -12 -59 R 0 -35 R 12 -58 R 23 -35 R 35 -12 R
23 0 R 35 12 R 24 35 R 11 58 R 0 35 R -11 59 R -24 35 R -35 11 R -23 0 R D
20 setlinewidth 2220 1408 M 0 106 R D 2619 1408 M 0 106 R D 2957 1408 M
0 106 R D 3249 1408 M 0 106 R D 3507 1408 M 0 106 R D 5254 1408 M 0 106 R D
6142 1408 M 0 106 R D 6772 1408 M 0 106 R D 7260 1408 M 0 106 R D
7659 1408 M 0 106 R D 7996 1408 M 0 106 R D 8289 1408 M 0 106 R D
8546 1408 M 0 106 R D 2220 6704 M 6557 0 R D 3737 6704 M 0 -212 R D
8777 6704 M 0 -212 R D 2220 6704 M 0 -106 R D 2619 6704 M 0 -106 R D
2957 6704 M 0 -106 R D 3249 6704 M 0 -106 R D 3507 6704 M 0 -106 R D
5254 6704 M 0 -106 R D 6142 6704 M 0 -106 R D 6772 6704 M 0 -106 R D
7260 6704 M 0 -106 R D 7659 6704 M 0 -106 R D 7996 6704 M 0 -106 R D
8289 6704 M 0 -106 R D 8546 6704 M 0 -106 R D 2220 1408 M 0 5296 R D
2220 1782 M 262 0 R D 30 setlinewidth 1385 1886 M -35 -12 R -24 -35 R
-11 -58 R 0 -35 R 11 -58 R 24 -36 R 35 -11 R 23 0 R 35 11 R 23 36 R 12 58 R
0 35 R -12 58 R -23 35 R -35 12 R -23 0 R D 1572 1664 M -12 -12 R 12 -11 R
11 11 R -11 12 R D 1735 1886 M -35 -12 R -23 -35 R -12 -58 R 0 -35 R
12 -58 R 23 -36 R 35 -11 R 24 0 R 35 11 R 23 36 R 12 58 R 0 35 R -12 58 R
-23 35 R -35 12 R -24 0 R D 1934 1839 M 23 12 R 35 35 R 0 -245 R D
20 setlinewidth 2220 4193 M 262 0 R D 30 setlinewidth 1385 4298 M -35 -12 R
-24 -35 R -11 -59 R 0 -35 R 11 -58 R 24 -35 R 35 -12 R 23 0 R 35 12 R
23 35 R 12 58 R 0 35 R -12 59 R -23 35 R -35 12 R -23 0 R D 1572 4076 M
-12 -12 R 12 -12 R 11 12 R -11 12 R D 1700 4251 M 24 11 R 35 36 R 0 -246 R D
1969 4298 M -35 -12 R -24 -35 R -11 -59 R 0 -35 R 11 -58 R 24 -35 R 35 -12 R
23 0 R 35 12 R 24 35 R 11 58 R 0 35 R -11 59 R -24 35 R -35 12 R -23 0 R D
20 setlinewidth 2220 6604 M 262 0 R D 30 setlinewidth 1350 6656 M 23 12 R
35 35 R 0 -245 R D 1572 6481 M -12 -12 R 12 -11 R 11 11 R -11 12 R D
1735 6703 M -35 -12 R -23 -35 R -12 -58 R 0 -35 R 12 -59 R 23 -35 R 35 -11 R
24 0 R 35 11 R 23 35 R 12 59 R 0 35 R -12 58 R -23 35 R -35 12 R -24 0 R D
1969 6703 M -35 -12 R -24 -35 R -11 -58 R 0 -35 R 11 -59 R 24 -35 R 35 -11 R
23 0 R 35 11 R 24 35 R 11 59 R 0 35 R -11 58 R -24 35 R -35 12 R -23 0 R D
20 setlinewidth 2220 1408 M 131 0 R D 2220 1548 M 131 0 R D 2220 1671 M
131 0 R D 2220 2507 M 131 0 R D 2220 2932 M 131 0 R D 2220 3233 M 131 0 R D
2220 3467 M 131 0 R D 2220 3658 M 131 0 R D 2220 3819 M 131 0 R D
2220 3959 M 131 0 R D 2220 4083 M 131 0 R D 2220 4919 M 131 0 R D
2220 5343 M 131 0 R D 2220 5645 M 131 0 R D 2220 5878 M 131 0 R D
2220 6069 M 131 0 R D 2220 6231 M 131 0 R D 2220 6371 M 131 0 R D
2220 6494 M 131 0 R D 8777 1408 M 0 5296 R D 8777 1782 M -262 0 R D
8777 4193 M -262 0 R D 8777 6604 M -262 0 R D 8777 1408 M -131 0 R D
8777 1548 M -131 0 R D 8777 1671 M -131 0 R D 8777 2507 M -131 0 R D
8777 2932 M -131 0 R D 8777 3233 M -131 0 R D 8777 3467 M -131 0 R D
8777 3658 M -131 0 R D 8777 3819 M -131 0 R D 8777 3959 M -131 0 R D
8777 4083 M -131 0 R D 8777 4919 M -131 0 R D 8777 5343 M -131 0 R D
8777 5645 M -131 0 R D 8777 5878 M -131 0 R D 8777 6069 M -131 0 R D
8777 6231 M -131 0 R D 8777 6371 M -131 0 R D 8777 6494 M -131 0 R D
30 setlinewidth L2 3669 1408 M 628 785 R 1120 1316 R 1120 1202 R 1120 1047 R
1120 846 R D 0.255 0.255 0.255 setrgbcolor 2947 1408 M 230 285 R 1120 1305 R
1120 1187 R 1120 1028 R 1120 821 R 1120 570 R D L1
0.000 0.000 0.000 setrgbcolor 2220 3729 M 957 553 R 1120 622 R 1120 567 R
1120 499 R 1120 420 R 1120 214 R D L0 3177 4311 M -957 -773 R D 4297 5020 M
-1120 -709 R D 5417 5617 M -1120 -597 R D 6537 6049 M -1120 -432 R D
7657 6351 M -1120 -302 R D 8777 6604 M -1120 -253 R D 3177 4421 M 111 -111 R
-111 -111 R -111 111 R 111 111 R D 2220 3537 M 957 773 R D 4297 5131 M
111 -111 R -111 -111 R -111 111 R 111 111 R D 3177 4310 M 1120 710 R D
5417 5728 M 111 -111 R -111 -111 R -111 111 R 111 111 R D 4297 5020 M
1120 597 R D 6537 6160 M 111 -111 R -111 -111 R -111 111 R 111 111 R D
5417 5617 M 1120 432 R D 7657 6462 M 111 -111 R -111 -111 R -111 111 R
111 111 R D 6537 6049 M 1120 302 R D 8777 6493 M -111 111 R 100 100 R D
7657 6351 M 1120 253 R D 3177 3047 M 111 -222 R -222 0 R 111 222 R D
2220 2013 M 957 923 R D 4297 4075 M 111 -222 R -222 0 R 111 222 R D
3177 2936 M 1120 1028 R D 5417 5100 M 111 -222 R -222 0 R 111 222 R D
4297 3964 M 1120 1025 R D 6537 5873 M 111 -222 R -222 0 R 111 222 R D
5417 4989 M 1120 773 R D 7657 6359 M 111 -222 R -222 0 R 111 222 R D
6537 5762 M 1120 486 R D 8777 6493 M -111 0 R 105 211 R D 7657 6248 M
1120 356 R D 3177 1420 M 111 0 R 0 -12 R D 3066 1408 M 0 12 R 222 0 R D
4297 2653 M 111 0 R 0 -222 R -222 0 R 0 222 R 222 0 R D 3266 1408 M
1031 1134 R D 5417 4314 M 111 0 R 0 -222 R -222 0 R 0 222 R 222 0 R D
4297 2542 M 1120 1661 R D 6537 5107 M 111 0 R 0 -222 R -222 0 R 0 222 R
222 0 R D 5417 4203 M 1120 793 R D 7657 5777 M 111 0 R 0 -222 R -222 0 R
0 222 R 222 0 R D 6537 4996 M 1120 670 R D 8777 6493 M -111 0 R 0 211 R D
7657 5666 M 1120 938 R D 6948 1990 M 0 -319 R D 6948 1838 M 30 31 R 31 15 R
45 0 R 31 -15 R 30 -31 R 15 -45 R 0 -31 R -15 -45 R -30 -31 R -31 -15 R
-45 0 R -31 15 R -30 31 R D 7388 1838 M -15 31 R -45 15 R -46 0 R -45 -15 R
-16 -31 R 16 -30 R 30 -15 R 76 -15 R 30 -16 R 15 -30 R 0 -15 R -15 -31 R
-45 -15 R -46 0 R -45 15 R -16 31 R D 7525 1929 M 31 16 R 45 45 R 0 -319 R D
7799 1884 M 0 -213 R D 7799 1793 M 15 45 R 30 31 R 31 15 R 45 0 R D
8148 1838 M -15 31 R -46 15 R -45 0 R -46 -15 R -15 -31 R 15 -30 R 30 -15 R
76 -15 R 31 -16 R 15 -30 R 0 -15 R -15 -31 R -46 -15 R -45 0 R -46 15 R
-15 31 R D 8254 1990 M 0 -319 R D 8254 1823 M 46 46 R 30 15 R 46 0 R
30 -15 R 15 -46 R 0 -152 R D 10088 3526 M 99 0 R 98 0 R 99 0 R 98 0 R 98 0 R
99 0 R 98 0 R 98 0 R 99 0 R D 10088 3156 M 99 0 R 98 0 R 99 0 R 98 0 R
98 0 R 99 0 R 98 0 R 98 0 R 99 0 R D 10088 2785 M 99 0 R 98 0 R 99 0 R
98 0 R 98 0 R 99 0 R 98 0 R 98 0 R 99 0 R D 10088 2414 M 99 0 R 98 0 R
99 0 R 98 0 R 98 0 R 99 0 R 98 0 R 98 0 R 99 0 R D 10570 3526 M Z
10570 3267 M 111 -111 R -111 -111 R -111 111 R 111 111 R 111 -111 R
-111 -111 R -111 111 R 111 111 R D 10570 2896 M 111 -222 R -222 0 R
111 222 R 111 -222 R -222 0 R 111 222 R D 10570 2525 M 111 0 R 0 -222 R
-222 0 R 0 222 R 222 0 R -111 0 R D 10681 2525 M 0 -222 R -222 0 R 0 222 R
222 0 R D 11285 3591 M 0 -213 R D 11285 3545 M -31 31 R -30 15 R -46 0 R
-30 -15 R -30 -31 R -16 -45 R 0 -31 R 16 -45 R 30 -31 R 30 -15 R 46 0 R
30 15 R 31 31 R D 11406 3697 M 0 -319 R D 11528 3697 M 0 -319 R D
11269 3220 M -167 -213 R D 11102 3220 M 167 0 R D 11102 3007 M 167 0 R D
11619 3281 M -243 -137 R 243 -137 R D 11923 3281 M -16 30 R -45 15 R -30 0 R
-46 -15 R -30 -45 R -16 -76 R 0 -76 R 16 -61 R 30 -30 R 46 -16 R 15 0 R
45 16 R 31 30 R 15 46 R 0 15 R -15 45 R -31 31 R -45 15 R -15 0 R -46 -15 R
-30 -31 R -16 -45 R D 11269 2849 M -167 -212 R D 11102 2849 M 167 0 R D
11102 2637 M 167 0 R D 11619 2910 M -243 -137 R 243 -136 R D 11740 2880 M
0 15 R 16 30 R 15 16 R 30 15 R 61 0 R 30 -15 R 15 -16 R 16 -30 R 0 -30 R
-16 -31 R -30 -45 R -152 -152 R 213 0 R D 11269 2479 M -167 -213 R D
11102 2479 M 167 0 R D 11102 2266 M 167 0 R D 11619 2539 M -243 -136 R
243 -137 R D 11816 2585 M -45 -15 R -31 -46 R -15 -76 R 0 -45 R 15 -76 R
31 -46 R 45 -15 R 31 0 R 45 15 R 31 46 R 15 76 R 0 45 R -15 76 R -31 46 R
-45 15 R -31 0 R D 12059 2296 M -15 -15 R 15 -15 R 16 15 R -16 15 R D
12363 2585 M -152 0 R -15 -137 R 15 16 R 46 15 R 45 0 R 46 -15 R 30 -31 R
16 -45 R 0 -31 R -16 -45 R -30 -31 R -46 -15 R -45 0 R -46 15 R -15 15 R
-15 31 R D
%%PageTrailer
end
%%PageResources: font Helvetica
%%Trailer
%%Pages: 1
%%DocumentNeededResources: font Helvetica
%%EOF
