%!PS-Adobe-3.0 EPSF-3.0
%%BoundingBox: 0 0 453 510
%%Title: Graphics produced by IDL
%%For: jlgan@aida119, /home/jlgan/work/subhalo_model
%%Creator: IDL Version 7.0 (linux x86_64 m64)
%%CreationDate: Wed Jun  3 14:30:06 2009
%%DocumentData: Clean7bit
%%Requirements: color
%%LanguageLevel: 1
%%PageOrder: Ascend
%%Pages: (atend)
%%DocumentNeededResources: (atend)
%%EndComments
%%BeginProlog
%+ prolog.ps -- Prolog for IDL generated PostScript files
%+ Copyright (c) 1988-2007 ITT Visual Information Solutions. All Rights Reserved.
%v 5
/$IDL_DICT 40 dict def $IDL_DICT begin /bdef { bind def } bind def /C
{currentpoint newpath moveto} bdef /CP {currentpoint} bdef /D {currentpoint
stroke moveto} bdef /F {closepath fill} bdef /K { setgray } bdef /M {moveto}
bdef /N {rmoveto} bdef /P {lineto} bdef /R {rlineto} bdef /S {gsave show
grestore} bdef /X {currentpoint pop} bdef /Z {gsave currentpoint lineto 20
setlinewidth 1 setlinecap stroke grestore} bdef /L0 {[] 0 setdash} bdef /L1
{[40 100] 0 setdash} bdef /L2 {[200 200] 0 setdash} bdef /L3 {[200 100 50
100] 0 setdash} bdef /L4 {[300 100 50 100 50 100 50 100] 0 setdash} bdef /L5
{[400 200] 0 setdash} bdef /STDFONT { findfont exch scalefont setfont } bdef
/ISOFONT { findfont dup length dict begin { 1 index /FID ne {def} {pop pop}
ifelse } forall /Encoding ISOLatin1Encoding def currentdict end /idltmpfont
exch definefont exch scalefont setfont } bdef /ISOBULLET { gsave /Helvetica
findfont exch scalefont setfont (\267) show currentpoint grestore moveto}
bdef /MITERLIMIT { 2.5 setmiterlimit } bdef end
%%EndProlog
%%Page: 0 1
%%PageRequirements: color
%%PageResources: (atend)
%%PageOrientation: Portrait
%%PageBoundingBox: 0 0 453 510
%%BeginPageSetup
$IDL_DICT begin 0.0283465 dup scale MITERLIMIT
%%IncludeResource: font Helvetica
423.333 /Helvetica STDFONT
%%EndPageSetup
30 setlinewidth L0 0.000 0.000 0.000 setrgbcolor 8223 565 M 0 -213 R D
8223 474 M 16 45 R 30 31 R 30 15 R 46 0 R D 8664 732 M -274 -501 R D
8755 671 M 0 -319 R D 8755 671 M 137 0 R 45 -15 R 15 -15 R 16 -31 R 0 -30 R
-16 -30 R -15 -16 R -45 -15 R -137 0 R D 8861 519 M 107 -167 R D 9038 363 M
56 -132 R 57 132 R D 9198 429 M 9 -10 R 9 10 R -9 9 R -9 -9 R D 9207 363 M
0 -132 R D 9282 363 M 0 -132 R D 9282 306 M 10 29 R 19 18 R 18 10 R 29 0 R D
569 8201 M 319 0 R D 569 8201 M 319 212 R -319 0 R D 508 8641 M 31 -30 R
45 -31 R 61 -30 R 76 -15 R 61 0 R 76 15 R 76 30 R 45 31 R 31 30 R D
615 8990 M 136 -243 R 137 243 R D 675 9112 M 213 0 R D 767 9112 M -46 15 R
-30 31 R -16 30 R 0 45 R D 508 9294 M 31 31 R 45 30 R 61 30 R 76 16 R 61 0 R
76 -16 R 76 -30 R 45 -30 R 31 -31 R D 508 9765 M 502 -273 R D 569 9856 M
319 0 R D 569 9856 M 319 213 R -319 0 R D 812 10182 M 159 0 R 29 10 R 9 19 R
0 18 R D 877 10154 M 0 66 R D 877 10323 M 10 -18 R 19 -19 R 28 -10 R 19 0 R
28 10 R 19 19 R 9 18 R 0 29 R -9 19 R -19 18 R -28 10 R -19 0 R -28 -10 R
-19 -18 R -10 -19 R 0 -29 R D 812 10474 M 159 0 R 29 9 R 9 19 R 0 19 R D
877 10446 M 0 66 R D 20 setlinewidth 2220 12000 M 6557 0 R D 3737 12000 M
0 212 R D 8777 12000 M 0 212 R D 2220 12000 M 0 106 R D 2619 12000 M 0 106 R
D 2957 12000 M 0 106 R D 3249 12000 M 0 106 R D 3507 12000 M 0 106 R D
5254 12000 M 0 106 R D 6142 12000 M 0 106 R D 6772 12000 M 0 106 R D
7260 12000 M 0 106 R D 7659 12000 M 0 106 R D 7996 12000 M 0 106 R D
8289 12000 M 0 106 R D 8546 12000 M 0 106 R D 2220 17296 M 6557 0 R D
3737 17296 M 0 -212 R D 8777 17296 M 0 -212 R D 2220 17296 M 0 -106 R D
2619 17296 M 0 -106 R D 2957 17296 M 0 -106 R D 3249 17296 M 0 -106 R D
3507 17296 M 0 -106 R D 5254 17296 M 0 -106 R D 6142 17296 M 0 -106 R D
6772 17296 M 0 -106 R D 7260 17296 M 0 -106 R D 7659 17296 M 0 -106 R D
7996 17296 M 0 -106 R D 8289 17296 M 0 -106 R D 8546 17296 M 0 -106 R D
2220 12000 M 0 5296 R D 2220 12374 M 262 0 R D 30 setlinewidth 1385 12478 M
-35 -12 R -24 -35 R -11 -58 R 0 -35 R 11 -58 R 24 -36 R 35 -11 R 23 0 R
35 11 R 23 36 R 12 58 R 0 35 R -12 58 R -23 35 R -35 12 R -23 0 R D
1572 12256 M -12 -12 R 12 -11 R 11 11 R -11 12 R D 1735 12478 M -35 -12 R
-23 -35 R -12 -58 R 0 -35 R 12 -58 R 23 -36 R 35 -11 R 24 0 R 35 11 R
23 36 R 12 58 R 0 35 R -12 58 R -23 35 R -35 12 R -24 0 R D 1934 12431 M
23 12 R 35 35 R 0 -245 R D 20 setlinewidth 2220 14785 M 262 0 R D
30 setlinewidth 1385 14890 M -35 -12 R -24 -35 R -11 -59 R 0 -35 R 11 -58 R
24 -35 R 35 -12 R 23 0 R 35 12 R 23 35 R 12 58 R 0 35 R -12 59 R -23 35 R
-35 12 R -23 0 R D 1572 14668 M -12 -12 R 12 -12 R 11 12 R -11 12 R D
1700 14843 M 24 11 R 35 36 R 0 -246 R D 1969 14890 M -35 -12 R -24 -35 R
-11 -59 R 0 -35 R 11 -58 R 24 -35 R 35 -12 R 23 0 R 35 12 R 24 35 R 11 58 R
0 35 R -11 59 R -24 35 R -35 12 R -23 0 R D 20 setlinewidth 2220 17196 M
262 0 R D 30 setlinewidth 1350 17248 M 23 12 R 35 35 R 0 -245 R D
1572 17073 M -12 -12 R 12 -11 R 11 11 R -11 12 R D 1735 17295 M -35 -12 R
-23 -35 R -12 -58 R 0 -35 R 12 -59 R 23 -35 R 35 -11 R 24 0 R 35 11 R
23 35 R 12 59 R 0 35 R -12 58 R -23 35 R -35 12 R -24 0 R D 1969 17295 M
-35 -12 R -24 -35 R -11 -58 R 0 -35 R 11 -59 R 24 -35 R 35 -11 R 23 0 R
35 11 R 24 35 R 11 59 R 0 35 R -11 58 R -24 35 R -35 12 R -23 0 R D
20 setlinewidth 2220 12000 M 131 0 R D 2220 12140 M 131 0 R D 2220 12263 M
131 0 R D 2220 13099 M 131 0 R D 2220 13524 M 131 0 R D 2220 13825 M 131 0 R
D 2220 14059 M 131 0 R D 2220 14250 M 131 0 R D 2220 14411 M 131 0 R D
2220 14551 M 131 0 R D 2220 14675 M 131 0 R D 2220 15511 M 131 0 R D
2220 15935 M 131 0 R D 2220 16237 M 131 0 R D 2220 16470 M 131 0 R D
2220 16661 M 131 0 R D 2220 16823 M 131 0 R D 2220 16963 M 131 0 R D
2220 17086 M 131 0 R D 8777 12000 M 0 5296 R D 8777 12374 M -262 0 R D
8777 14785 M -262 0 R D 8777 17196 M -262 0 R D 8777 12000 M -131 0 R D
8777 12140 M -131 0 R D 8777 12263 M -131 0 R D 8777 13099 M -131 0 R D
8777 13524 M -131 0 R D 8777 13825 M -131 0 R D 8777 14059 M -131 0 R D
8777 14250 M -131 0 R D 8777 14411 M -131 0 R D 8777 14551 M -131 0 R D
8777 14675 M -131 0 R D 8777 15511 M -131 0 R D 8777 15935 M -131 0 R D
8777 16237 M -131 0 R D 8777 16470 M -131 0 R D 8777 16661 M -131 0 R D
8777 16823 M -131 0 R D 8777 16963 M -131 0 R D 8777 17086 M -131 0 R D
30 setlinewidth L2 3669 12000 M 628 785 R 1120 1316 R 1120 1202 R
1120 1047 R 1120 846 R D 0.255 0.255 0.255 setrgbcolor 2947 12000 M
230 285 R 1120 1305 R 1120 1187 R 1120 1028 R 1120 821 R 1120 570 R D L1
0.000 0.000 0.000 setrgbcolor 2220 14321 M 957 553 R 1120 622 R 1120 567 R
1120 499 R 1120 420 R 1120 214 R D L0 3177 14837 M -957 -755 R D
4297 15566 M -1120 -729 R D 5417 16181 M -1120 -615 R D 6537 16623 M
-1120 -442 R D 7657 16942 M -1120 -319 R D 8777 17196 M -1120 -254 R D
3177 14755 M 111 -111 R -111 -111 R -111 111 R 111 111 R D 2220 13836 M
957 808 R D 4297 15533 M 111 -111 R -111 -111 R -111 111 R 111 111 R D
3177 14644 M 1120 778 R D 5417 16209 M 111 -111 R -111 -111 R -111 111 R
111 111 R D 4297 15422 M 1120 676 R D 6537 16693 M 111 -111 R -111 -111 R
-111 111 R 111 111 R D 5417 16098 M 1120 484 R D 7657 17037 M 111 -111 R
-111 -111 R -111 111 R 111 111 R D 6537 16582 M 1120 344 R D 8777 17085 M
-111 111 R 100 100 R D 7657 16926 M 1120 270 R D 3177 14296 M 111 -222 R
-222 0 R 111 222 R D 2220 13181 M 957 1004 R D 4297 15187 M 111 -222 R
-222 0 R 111 222 R D 3177 14185 M 1120 891 R D 5417 15970 M 111 -222 R
-222 0 R 111 222 R D 4297 15076 M 1120 783 R D 6537 16544 M 111 -222 R
-222 0 R 111 222 R D 5417 15859 M 1120 574 R D 7657 16968 M 111 -222 R
-222 0 R 111 222 R D 6537 16433 M 1120 424 R D 8777 17085 M -111 0 R
105 211 R D 7657 16857 M 1120 339 R D 3177 13506 M 111 0 R 0 -222 R -222 0 R
0 222 R 222 0 R D 2220 12341 M 957 1054 R D 4297 14531 M 111 0 R 0 -222 R
-222 0 R 0 222 R 222 0 R D 3177 13395 M 1120 1025 R D 5417 15543 M 111 0 R
0 -222 R -222 0 R 0 222 R 222 0 R D 4297 14420 M 1120 1012 R D 6537 16250 M
111 0 R 0 -222 R -222 0 R 0 222 R 222 0 R D 5417 15432 M 1120 707 R D
7657 16799 M 111 0 R 0 -222 R -222 0 R 0 222 R 222 0 R D 6537 16139 M
1120 549 R D 8777 17085 M -111 0 R 0 211 R D 7657 16688 M 1120 508 R D
3288 12235 M -222 -222 R 111 111 R -111 111 R 222 -222 R D 3020 12000 M
157 124 R D 4408 14034 M -222 -222 R 111 111 R -111 111 R 222 -222 R D
3177 12124 M 1120 1799 R D 5528 15335 M -222 -222 R 111 111 R -111 111 R
222 -222 R D 4297 13923 M 1120 1301 R D 6648 16128 M -222 -222 R 111 111 R
-111 111 R 222 -222 R D 5417 15224 M 1120 793 R D 7768 16714 M -222 -222 R
111 111 R -111 111 R 222 -222 R D 6537 16017 M 1120 586 R D 8777 17196 M
-111 -111 R 111 111 R -100 100 R 100 -100 R -1120 -593 R D 7388 12582 M
0 -319 R D 7388 12430 M 31 31 R 30 15 R 46 0 R 30 -15 R 31 -31 R 15 -45 R
0 -31 R -15 -45 R -31 -31 R -30 -15 R -46 0 R -30 15 R -31 31 R D
7829 12430 M -15 31 R -46 15 R -45 0 R -46 -15 R -15 -31 R 15 -30 R 30 -15 R
76 -15 R 31 -16 R 15 -30 R 0 -15 R -15 -31 R -46 -15 R -45 0 R -46 15 R
-15 31 R D 8011 12582 M -45 -15 R -31 -46 R -15 -75 R 0 -46 R 15 -76 R
31 -46 R 45 -15 R 31 0 R 45 15 R 31 46 R 15 76 R 0 46 R -15 75 R -31 46 R
-45 15 R -31 0 R D 8315 12582 M -46 -15 R -30 -46 R -15 -75 R 0 -46 R
15 -76 R 30 -46 R 46 -15 R 30 0 R 46 15 R 30 46 R 16 76 R 0 46 R -16 75 R
-30 46 R -46 15 R -30 0 R D 20 setlinewidth 8777 12000 M 6557 0 R D
10294 12000 M 0 212 R D 15334 12000 M 0 212 R D 8777 12000 M 0 106 R D
9176 12000 M 0 106 R D 9514 12000 M 0 106 R D 9806 12000 M 0 106 R D
10064 12000 M 0 106 R D 11811 12000 M 0 106 R D 12699 12000 M 0 106 R D
13329 12000 M 0 106 R D 13817 12000 M 0 106 R D 14216 12000 M 0 106 R D
14553 12000 M 0 106 R D 14846 12000 M 0 106 R D 15103 12000 M 0 106 R D
8777 17296 M 6557 0 R D 10294 17296 M 0 -212 R D 15334 17296 M 0 -212 R D
8777 17296 M 0 -106 R D 9176 17296 M 0 -106 R D 9514 17296 M 0 -106 R D
9806 17296 M 0 -106 R D 10064 17296 M 0 -106 R D 11811 17296 M 0 -106 R D
12699 17296 M 0 -106 R D 13329 17296 M 0 -106 R D 13817 17296 M 0 -106 R D
14216 17296 M 0 -106 R D 14553 17296 M 0 -106 R D 14846 17296 M 0 -106 R D
15103 17296 M 0 -106 R D 8777 12000 M 0 5296 R D 8777 12374 M 262 0 R D
8777 14785 M 262 0 R D 8777 17196 M 262 0 R D 8777 12000 M 131 0 R D
8777 12140 M 131 0 R D 8777 12263 M 131 0 R D 8777 13099 M 131 0 R D
8777 13524 M 131 0 R D 8777 13825 M 131 0 R D 8777 14059 M 131 0 R D
8777 14250 M 131 0 R D 8777 14411 M 131 0 R D 8777 14551 M 131 0 R D
8777 14675 M 131 0 R D 8777 15511 M 131 0 R D 8777 15935 M 131 0 R D
8777 16237 M 131 0 R D 8777 16470 M 131 0 R D 8777 16661 M 131 0 R D
8777 16823 M 131 0 R D 8777 16963 M 131 0 R D 8777 17086 M 131 0 R D
15334 12000 M 0 5296 R D 15334 12374 M -262 0 R D 15334 14785 M -262 0 R D
15334 17196 M -262 0 R D 15334 12000 M -131 0 R D 15334 12140 M -131 0 R D
15334 12263 M -131 0 R D 15334 13099 M -131 0 R D 15334 13524 M -131 0 R D
15334 13825 M -131 0 R D 15334 14059 M -131 0 R D 15334 14250 M -131 0 R D
15334 14411 M -131 0 R D 15334 14551 M -131 0 R D 15334 14675 M -131 0 R D
15334 15511 M -131 0 R D 15334 15935 M -131 0 R D 15334 16237 M -131 0 R D
15334 16470 M -131 0 R D 15334 16661 M -131 0 R D 15334 16823 M -131 0 R D
15334 16963 M -131 0 R D 15334 17086 M -131 0 R D 30 setlinewidth L2
10226 12000 M 628 785 R 1120 1316 R 1120 1202 R 1120 1047 R 1120 846 R D
0.255 0.255 0.255 setrgbcolor 9504 12000 M 230 285 R 1120 1305 R 1120 1187 R
1120 1028 R 1120 821 R 1120 570 R D L1 0.000 0.000 0.000 setrgbcolor
8777 14321 M 957 553 R 1120 622 R 1120 567 R 1120 499 R 1120 420 R
1120 214 R D L0 9734 13113 M -887 -1113 R D 10854 14496 M -1120 -1383 R D
11974 15544 M -1120 -1048 R D 13094 16192 M -1120 -648 R D 14214 16721 M
-1120 -529 R D 15334 17196 M -1120 -475 R D 9734 13224 M 111 -111 R
-111 -111 R -111 111 R 111 111 R D 8847 12000 M 887 1113 R D 10854 14607 M
111 -111 R -111 -111 R -111 111 R 111 111 R D 9734 13113 M 1120 1383 R D
11974 15655 M 111 -111 R -111 -111 R -111 111 R 111 111 R D 10854 14496 M
1120 1048 R D 13094 16303 M 111 -111 R -111 -111 R -111 111 R 111 111 R D
11974 15544 M 1120 648 R D 14214 16832 M 111 -111 R -111 -111 R -111 111 R
111 111 R D 13094 16192 M 1120 529 R D 15334 17085 M -111 111 R 100 100 R D
14214 16721 M 1120 475 R D 9734 13212 M 111 -222 R -222 0 R 111 222 R D
8844 12000 M 890 1101 R D 10854 14603 M 111 -222 R -222 0 R 111 222 R D
9734 13101 M 1120 1391 R D 11974 15654 M 111 -222 R -222 0 R 111 222 R D
10854 14492 M 1120 1051 R D 13094 16302 M 111 -222 R -222 0 R 111 222 R D
11974 15543 M 1120 648 R D 14214 16830 M 111 -222 R -222 0 R 111 222 R D
13094 16191 M 1120 528 R D 15334 17085 M -111 0 R 105 211 R D 14214 16719 M
1120 477 R D 9734 12514 M 111 0 R 0 -222 R -222 0 R 0 222 R 222 0 R D
9071 12000 M 663 403 R D 10854 14081 M 111 0 R 0 -222 R -222 0 R 0 222 R
222 0 R D 9734 12403 M 1120 1567 R D 11974 15318 M 111 0 R 0 -222 R -222 0 R
0 222 R 222 0 R D 10854 13970 M 1120 1237 R D 13094 16070 M 111 0 R 0 -222 R
-222 0 R 0 222 R 222 0 R D 11974 15207 M 1120 752 R D 14214 16682 M 111 0 R
0 -222 R -222 0 R 0 222 R 222 0 R D 13094 15959 M 1120 612 R D 15334 17085 M
-111 0 R 0 211 R D 14214 16571 M 1120 625 R D 10965 13711 M -222 -222 R
111 111 R -111 111 R 222 -222 R D 10205 12000 M 649 1600 R D 12085 14934 M
-222 -222 R 111 111 R -111 111 R 222 -222 R D 10854 13600 M 1120 1223 R D
13205 15856 M -222 -222 R 111 111 R -111 111 R 222 -222 R D 11974 14823 M
1120 922 R D 14325 16537 M -222 -222 R 111 111 R -111 111 R 222 -222 R D
13094 15745 M 1120 681 R D 15334 17196 M -111 -111 R 111 111 R -100 100 R
100 -100 R -1120 -770 R D 13794 12582 M 0 -319 R D 13794 12430 M 30 31 R
30 15 R 46 0 R 30 -15 R 31 -31 R 15 -45 R 0 -31 R -15 -45 R -31 -31 R
-30 -15 R -46 0 R -30 15 R -30 31 R D 14234 12430 M -15 31 R -46 15 R
-45 0 R -46 -15 R -15 -31 R 15 -30 R 31 -15 R 75 -15 R 31 -16 R 15 -30 R
0 -15 R -15 -31 R -46 -15 R -45 0 R -46 15 R -15 31 R D 14416 12582 M
-45 -15 R -31 -46 R -15 -75 R 0 -46 R 15 -76 R 31 -46 R 45 -15 R 31 0 R
45 15 R 31 46 R 15 76 R 0 46 R -15 75 R -31 46 R -45 15 R -31 0 R D
14644 12476 M 0 -213 R D 14644 12385 M 15 45 R 31 31 R 30 15 R 46 0 R D
14994 12430 M -16 31 R -45 15 R -46 0 R -45 -15 R -16 -31 R 16 -30 R
30 -15 R 76 -15 R 30 -16 R 16 -30 R 0 -15 R -16 -31 R -45 -15 R -46 0 R
-45 15 R -16 31 R D 20 setlinewidth 2220 6704 M 6557 0 R D 3737 6704 M
0 212 R D 8777 6704 M 0 212 R D 2220 6704 M 0 106 R D 2619 6704 M 0 106 R D
2957 6704 M 0 106 R D 3249 6704 M 0 106 R D 3507 6704 M 0 106 R D
5254 6704 M 0 106 R D 6142 6704 M 0 106 R D 6772 6704 M 0 106 R D
7260 6704 M 0 106 R D 7659 6704 M 0 106 R D 7996 6704 M 0 106 R D
8289 6704 M 0 106 R D 8546 6704 M 0 106 R D 2220 12000 M 6557 0 R D
3737 12000 M 0 -212 R D 8777 12000 M 0 -212 R D 2220 12000 M 0 -106 R D
2619 12000 M 0 -106 R D 2957 12000 M 0 -106 R D 3249 12000 M 0 -106 R D
3507 12000 M 0 -106 R D 5254 12000 M 0 -106 R D 6142 12000 M 0 -106 R D
6772 12000 M 0 -106 R D 7260 12000 M 0 -106 R D 7659 12000 M 0 -106 R D
7996 12000 M 0 -106 R D 8289 12000 M 0 -106 R D 8546 12000 M 0 -106 R D
2220 6704 M 0 5296 R D 2220 7078 M 262 0 R D 30 setlinewidth 1385 7182 M
-35 -12 R -24 -35 R -11 -58 R 0 -35 R 11 -58 R 24 -36 R 35 -11 R 23 0 R
35 11 R 23 36 R 12 58 R 0 35 R -12 58 R -23 35 R -35 12 R -23 0 R D
1572 6960 M -12 -12 R 12 -11 R 11 11 R -11 12 R D 1735 7182 M -35 -12 R
-23 -35 R -12 -58 R 0 -35 R 12 -58 R 23 -36 R 35 -11 R 24 0 R 35 11 R
23 36 R 12 58 R 0 35 R -12 58 R -23 35 R -35 12 R -24 0 R D 1934 7135 M
23 12 R 35 35 R 0 -245 R D 20 setlinewidth 2220 9489 M 262 0 R D
30 setlinewidth 1385 9594 M -35 -12 R -24 -35 R -11 -59 R 0 -35 R 11 -58 R
24 -35 R 35 -12 R 23 0 R 35 12 R 23 35 R 12 58 R 0 35 R -12 59 R -23 35 R
-35 12 R -23 0 R D 1572 9372 M -12 -12 R 12 -12 R 11 12 R -11 12 R D
1700 9547 M 24 11 R 35 36 R 0 -246 R D 1969 9594 M -35 -12 R -24 -35 R
-11 -59 R 0 -35 R 11 -58 R 24 -35 R 35 -12 R 23 0 R 35 12 R 24 35 R 11 58 R
0 35 R -11 59 R -24 35 R -35 12 R -23 0 R D 20 setlinewidth 2220 11900 M
262 0 R D 30 setlinewidth 1350 11952 M 23 12 R 35 35 R 0 -245 R D
1572 11777 M -12 -12 R 12 -11 R 11 11 R -11 12 R D 1735 11999 M -35 -12 R
-23 -35 R -12 -58 R 0 -35 R 12 -59 R 23 -35 R 35 -11 R 24 0 R 35 11 R
23 35 R 12 59 R 0 35 R -12 58 R -23 35 R -35 12 R -24 0 R D 1969 11999 M
-35 -12 R -24 -35 R -11 -58 R 0 -35 R 11 -59 R 24 -35 R 35 -11 R 23 0 R
35 11 R 24 35 R 11 59 R 0 35 R -11 58 R -24 35 R -35 12 R -23 0 R D
20 setlinewidth 2220 6704 M 131 0 R D 2220 6844 M 131 0 R D 2220 6967 M
131 0 R D 2220 7803 M 131 0 R D 2220 8228 M 131 0 R D 2220 8529 M 131 0 R D
2220 8763 M 131 0 R D 2220 8954 M 131 0 R D 2220 9115 M 131 0 R D
2220 9255 M 131 0 R D 2220 9379 M 131 0 R D 2220 10215 M 131 0 R D
2220 10639 M 131 0 R D 2220 10941 M 131 0 R D 2220 11174 M 131 0 R D
2220 11365 M 131 0 R D 2220 11527 M 131 0 R D 2220 11667 M 131 0 R D
2220 11790 M 131 0 R D 8777 6704 M 0 5296 R D 8777 7078 M -262 0 R D
8777 9489 M -262 0 R D 8777 11900 M -262 0 R D 8777 6704 M -131 0 R D
8777 6844 M -131 0 R D 8777 6967 M -131 0 R D 8777 7803 M -131 0 R D
8777 8228 M -131 0 R D 8777 8529 M -131 0 R D 8777 8763 M -131 0 R D
8777 8954 M -131 0 R D 8777 9115 M -131 0 R D 8777 9255 M -131 0 R D
8777 9379 M -131 0 R D 8777 10215 M -131 0 R D 8777 10639 M -131 0 R D
8777 10941 M -131 0 R D 8777 11174 M -131 0 R D 8777 11365 M -131 0 R D
8777 11527 M -131 0 R D 8777 11667 M -131 0 R D 8777 11790 M -131 0 R D
30 setlinewidth L2 3669 6704 M 628 785 R 1120 1316 R 1120 1202 R 1120 1047 R
1120 846 R D 0.255 0.255 0.255 setrgbcolor 2947 6704 M 230 285 R 1120 1305 R
1120 1187 R 1120 1028 R 1120 821 R 1120 570 R D L1
0.000 0.000 0.000 setrgbcolor 2220 9025 M 957 553 R 1120 622 R 1120 567 R
1120 499 R 1120 420 R 1120 214 R D L0 3177 8651 M -957 -1180 R D 4297 9667 M
-1120 -1016 R D 5417 10524 M -1120 -857 R D 6537 11106 M -1120 -582 R D
7657 11541 M -1120 -435 R D 8777 11900 M -1120 -359 R D 3177 8762 M
111 -111 R -111 -111 R -111 111 R 111 111 R D 2220 7471 M 957 1180 R D
4297 9778 M 111 -111 R -111 -111 R -111 111 R 111 111 R D 3177 8651 M
1120 1016 R D 5417 10635 M 111 -111 R -111 -111 R -111 111 R 111 111 R D
4297 9667 M 1120 857 R D 6537 11217 M 111 -111 R -111 -111 R -111 111 R
111 111 R D 5417 10524 M 1120 582 R D 7657 11652 M 111 -111 R -111 -111 R
-111 111 R 111 111 R D 6537 11106 M 1120 435 R D 8777 11789 M -111 111 R
100 100 R D 7657 11541 M 1120 359 R D 3177 8622 M 111 -222 R -222 0 R
111 222 R D 2220 7250 M 957 1261 R D 4297 9701 M 111 -222 R -222 0 R
111 222 R D 3177 8511 M 1120 1079 R D 5417 10581 M 111 -222 R -222 0 R
111 222 R D 4297 9590 M 1120 880 R D 6537 11175 M 111 -222 R -222 0 R
111 222 R D 5417 10470 M 1120 594 R D 7657 11624 M 111 -222 R -222 0 R
111 222 R D 6537 11064 M 1120 449 R D 8777 11789 M -111 0 R 105 211 R D
7657 11513 M 1120 387 R D 3177 7718 M 111 0 R 0 -222 R -222 0 R 0 222 R
222 0 R D 2330 6704 M 847 903 R D 4297 9064 M 111 0 R 0 -222 R -222 0 R
0 222 R 222 0 R D 3177 7607 M 1120 1346 R D 5417 10203 M 111 0 R 0 -222 R
-222 0 R 0 222 R 222 0 R D 4297 8953 M 1120 1139 R D 6537 10920 M 111 0 R
0 -222 R -222 0 R 0 222 R 222 0 R D 5417 10092 M 1120 717 R D 7657 11459 M
111 0 R 0 -222 R -222 0 R 0 222 R 222 0 R D 6537 10809 M 1120 539 R D
8777 11789 M -111 0 R 0 211 R D 7657 11348 M 1120 552 R D 3288 7203 M
-222 -222 R 111 111 R -111 111 R 222 -222 R D 2988 6704 M 189 388 R D
4408 8353 M -222 -222 R 111 111 R -111 111 R 222 -222 R D 3177 7092 M
1120 1150 R D 5528 9724 M -222 -222 R 111 111 R -111 111 R 222 -222 R D
4297 8242 M 1120 1371 R D 6648 10688 M -222 -222 R 111 111 R -111 111 R
222 -222 R D 5417 9613 M 1120 964 R D 7768 11347 M -222 -222 R 111 111 R
-111 111 R 222 -222 R D 6537 10577 M 1120 659 R D 8777 11900 M -111 -111 R
111 111 R -100 100 R 100 -100 R -1120 -664 R D 6948 7286 M 0 -319 R D
6948 7134 M 30 31 R 31 15 R 45 0 R 31 -15 R 30 -31 R 15 -45 R 0 -31 R
-15 -45 R -30 -31 R -31 -15 R -45 0 R -31 15 R -30 31 R D 7388 7134 M
-15 31 R -45 15 R -46 0 R -45 -15 R -16 -31 R 16 -30 R 30 -15 R 76 -15 R
30 -16 R 15 -30 R 0 -15 R -15 -31 R -45 -15 R -46 0 R -45 15 R -16 31 R D
7571 7286 M -46 -15 R -30 -46 R -15 -75 R 0 -46 R 15 -76 R 30 -46 R 46 -15 R
30 0 R 46 15 R 30 46 R 15 76 R 0 46 R -15 75 R -30 46 R -46 15 R -30 0 R D
7799 7180 M 0 -213 R D 7799 7089 M 15 45 R 30 31 R 31 15 R 45 0 R D
8148 7134 M -15 31 R -46 15 R -45 0 R -46 -15 R -15 -31 R 15 -30 R 30 -15 R
76 -15 R 31 -16 R 15 -30 R 0 -15 R -15 -31 R -46 -15 R -45 0 R -46 15 R
-15 31 R D 8254 7286 M 0 -319 R D 8254 7119 M 46 46 R 30 15 R 46 0 R
30 -15 R 15 -46 R 0 -152 R D 20 setlinewidth 8777 6704 M 6557 0 R D
10294 6704 M 0 212 R D 30 setlinewidth 10096 6421 M -35 -11 R -24 -35 R
-12 -59 R 0 -35 R 12 -58 R 24 -35 R 35 -12 R 23 0 R 35 12 R 23 35 R 12 58 R
0 35 R -12 59 R -23 35 R -35 11 R -23 0 R D 10283 6199 M -12 -11 R 12 -12 R
11 12 R -11 11 R D 10411 6375 M 23 11 R 35 35 R 0 -245 R D 20 setlinewidth
15334 6704 M 0 212 R D 30 setlinewidth 15100 6375 M 24 11 R 35 35 R 0 -245 R
D 15322 6199 M -11 -11 R 11 -12 R 12 12 R -12 11 R D 15486 6421 M -35 -11 R
-23 -35 R -12 -59 R 0 -35 R 12 -58 R 23 -35 R 35 -12 R 23 0 R 35 12 R
24 35 R 11 58 R 0 35 R -11 59 R -24 35 R -35 11 R -23 0 R D 20 setlinewidth
8777 6704 M 0 106 R D 9176 6704 M 0 106 R D 9514 6704 M 0 106 R D
9806 6704 M 0 106 R D 10064 6704 M 0 106 R D 11811 6704 M 0 106 R D
12699 6704 M 0 106 R D 13329 6704 M 0 106 R D 13817 6704 M 0 106 R D
14216 6704 M 0 106 R D 14553 6704 M 0 106 R D 14846 6704 M 0 106 R D
15103 6704 M 0 106 R D 8777 12000 M 6557 0 R D 10294 12000 M 0 -212 R D
15334 12000 M 0 -212 R D 8777 12000 M 0 -106 R D 9176 12000 M 0 -106 R D
9514 12000 M 0 -106 R D 9806 12000 M 0 -106 R D 10064 12000 M 0 -106 R D
11811 12000 M 0 -106 R D 12699 12000 M 0 -106 R D 13329 12000 M 0 -106 R D
13817 12000 M 0 -106 R D 14216 12000 M 0 -106 R D 14553 12000 M 0 -106 R D
14846 12000 M 0 -106 R D 15103 12000 M 0 -106 R D 8777 6704 M 0 5296 R D
8777 7078 M 262 0 R D 8777 9489 M 262 0 R D 8777 11900 M 262 0 R D
8777 6704 M 131 0 R D 8777 6844 M 131 0 R D 8777 6967 M 131 0 R D
8777 7803 M 131 0 R D 8777 8228 M 131 0 R D 8777 8529 M 131 0 R D
8777 8763 M 131 0 R D 8777 8954 M 131 0 R D 8777 9115 M 131 0 R D
8777 9255 M 131 0 R D 8777 9379 M 131 0 R D 8777 10215 M 131 0 R D
8777 10639 M 131 0 R D 8777 10941 M 131 0 R D 8777 11174 M 131 0 R D
8777 11365 M 131 0 R D 8777 11527 M 131 0 R D 8777 11667 M 131 0 R D
8777 11790 M 131 0 R D 15334 6704 M 0 5296 R D 15334 7078 M -262 0 R D
15334 9489 M -262 0 R D 15334 11900 M -262 0 R D 15334 6704 M -131 0 R D
15334 6844 M -131 0 R D 15334 6967 M -131 0 R D 15334 7803 M -131 0 R D
15334 8228 M -131 0 R D 15334 8529 M -131 0 R D 15334 8763 M -131 0 R D
15334 8954 M -131 0 R D 15334 9115 M -131 0 R D 15334 9255 M -131 0 R D
15334 9379 M -131 0 R D 15334 10215 M -131 0 R D 15334 10639 M -131 0 R D
15334 10941 M -131 0 R D 15334 11174 M -131 0 R D 15334 11365 M -131 0 R D
15334 11527 M -131 0 R D 15334 11667 M -131 0 R D 15334 11790 M -131 0 R D
30 setlinewidth L2 10226 6704 M 628 785 R 1120 1316 R 1120 1202 R
1120 1047 R 1120 846 R D 0.255 0.255 0.255 setrgbcolor 9504 6704 M 230 285 R
1120 1305 R 1120 1187 R 1120 1028 R 1120 821 R 1120 570 R D L1
0.000 0.000 0.000 setrgbcolor 8777 9025 M 957 553 R 1120 622 R 1120 567 R
1120 499 R 1120 420 R 1120 214 R D L0 9734 9489 M -957 -736 R D
10854 10241 M -1120 -752 R D 11974 10868 M -1120 -627 R D 13094 11304 M
-1120 -436 R D 14214 11626 M -1120 -322 R D 15334 11900 M -1120 -274 R D
9734 9600 M 111 -111 R -111 -111 R -111 111 R 111 111 R D 8777 8753 M
957 736 R D 10854 10352 M 111 -111 R -111 -111 R -111 111 R 111 111 R D
9734 9489 M 1120 752 R D 11974 10979 M 111 -111 R -111 -111 R -111 111 R
111 111 R D 10854 10241 M 1120 627 R D 13094 11415 M 111 -111 R -111 -111 R
-111 111 R 111 111 R D 11974 10868 M 1120 436 R D 14214 11737 M 111 -111 R
-111 -111 R -111 111 R 111 111 R D 13094 11304 M 1120 322 R D 15334 11789 M
-111 111 R 100 100 R D 14214 11626 M 1120 274 R D 9734 9589 M 111 -222 R
-222 0 R 111 222 R D 8777 8735 M 957 743 R D 10854 10345 M 111 -222 R
-222 0 R 111 222 R D 9734 9478 M 1120 756 R D 11974 10971 M 111 -222 R
-222 0 R 111 222 R D 10854 10234 M 1120 626 R D 13094 11401 M 111 -222 R
-222 0 R 111 222 R D 11974 10860 M 1120 430 R D 14214 11723 M 111 -222 R
-222 0 R 111 222 R D 13094 11290 M 1120 322 R D 15334 11789 M -111 0 R
105 211 R D 14214 11612 M 1120 288 R D 9734 9089 M 111 0 R 0 -222 R -222 0 R
0 222 R 222 0 R D 8777 8278 M 957 700 R D 10854 9856 M 111 0 R 0 -222 R
-222 0 R 0 222 R 222 0 R D 9734 8978 M 1120 767 R D 11974 10627 M 111 0 R
0 -222 R -222 0 R 0 222 R 222 0 R D 10854 9745 M 1120 771 R D 13094 11146 M
111 0 R 0 -222 R -222 0 R 0 222 R 222 0 R D 11974 10516 M 1120 519 R D
14214 11560 M 111 0 R 0 -222 R -222 0 R 0 222 R 222 0 R D 13094 11035 M
1120 414 R D 15334 11789 M -111 0 R 0 211 R D 14214 11449 M 1120 451 R D
9845 8650 M -222 -222 R 111 111 R -111 111 R 222 -222 R D 8777 7962 M
957 577 R D 10965 9349 M -222 -222 R 111 111 R -111 111 R 222 -222 R D
9734 8539 M 1120 699 R D 12085 10231 M -222 -222 R 111 111 R -111 111 R
222 -222 R D 10854 9238 M 1120 882 R D 13205 10906 M -222 -222 R 111 111 R
-111 111 R 222 -222 R D 11974 10120 M 1120 675 R D 14325 11439 M -222 -222 R
111 111 R -111 111 R 222 -222 R D 13094 10795 M 1120 533 R D 15334 11900 M
-111 -111 R 111 111 R -100 100 R 100 -100 R -1120 -572 R D 13794 7286 M
0 -319 R D 13794 7134 M 30 31 R 30 15 R 46 0 R 30 -15 R 31 -31 R 15 -45 R
0 -31 R -15 -45 R -31 -31 R -30 -15 R -46 0 R -30 15 R -30 31 R D
14234 7134 M -15 31 R -46 15 R -45 0 R -46 -15 R -15 -31 R 15 -30 R 31 -15 R
75 -15 R 31 -16 R 15 -30 R 0 -15 R -15 -31 R -46 -15 R -45 0 R -46 15 R
-15 31 R D 14371 7225 M 30 16 R 46 45 R 0 -319 R D 14644 7180 M 0 -213 R D
14644 7089 M 15 45 R 31 31 R 30 15 R 46 0 R D 14994 7134 M -16 31 R -45 15 R
-46 0 R -45 -15 R -16 -31 R 16 -30 R 30 -15 R 76 -15 R 30 -16 R 16 -30 R
0 -15 R -16 -31 R -45 -15 R -46 0 R -45 15 R -16 31 R D 20 setlinewidth
2220 1408 M 6557 0 R D 3737 1408 M 0 212 R D 30 setlinewidth 3539 1125 M
-35 -11 R -24 -35 R -12 -59 R 0 -35 R 12 -58 R 24 -35 R 35 -12 R 23 0 R
35 12 R 23 35 R 12 58 R 0 35 R -12 59 R -23 35 R -35 11 R -23 0 R D
3726 903 M -12 -11 R 12 -12 R 11 12 R -11 11 R D 3854 1079 M 23 11 R 35 35 R
0 -245 R D 20 setlinewidth 8777 1408 M 0 212 R D 30 setlinewidth 8543 1079 M
24 11 R 35 35 R 0 -245 R D 8765 903 M -11 -11 R 11 -12 R 12 12 R -12 11 R D
8929 1125 M -35 -11 R -23 -35 R -12 -59 R 0 -35 R 12 -58 R 23 -35 R 35 -12 R
23 0 R 35 12 R 24 35 R 11 58 R 0 35 R -11 59 R -24 35 R -35 11 R -23 0 R D
20 setlinewidth 2220 1408 M 0 106 R D 2619 1408 M 0 106 R D 2957 1408 M
0 106 R D 3249 1408 M 0 106 R D 3507 1408 M 0 106 R D 5254 1408 M 0 106 R D
6142 1408 M 0 106 R D 6772 1408 M 0 106 R D 7260 1408 M 0 106 R D
7659 1408 M 0 106 R D 7996 1408 M 0 106 R D 8289 1408 M 0 106 R D
8546 1408 M 0 106 R D 2220 6704 M 6557 0 R D 3737 6704 M 0 -212 R D
8777 6704 M 0 -212 R D 2220 6704 M 0 -106 R D 2619 6704 M 0 -106 R D
2957 6704 M 0 -106 R D 3249 6704 M 0 -106 R D 3507 6704 M 0 -106 R D
5254 6704 M 0 -106 R D 6142 6704 M 0 -106 R D 6772 6704 M 0 -106 R D
7260 6704 M 0 -106 R D 7659 6704 M 0 -106 R D 7996 6704 M 0 -106 R D
8289 6704 M 0 -106 R D 8546 6704 M 0 -106 R D 2220 1408 M 0 5296 R D
2220 1782 M 262 0 R D 30 setlinewidth 1385 1886 M -35 -12 R -24 -35 R
-11 -58 R 0 -35 R 11 -58 R 24 -36 R 35 -11 R 23 0 R 35 11 R 23 36 R 12 58 R
0 35 R -12 58 R -23 35 R -35 12 R -23 0 R D 1572 1664 M -12 -12 R 12 -11 R
11 11 R -11 12 R D 1735 1886 M -35 -12 R -23 -35 R -12 -58 R 0 -35 R
12 -58 R 23 -36 R 35 -11 R 24 0 R 35 11 R 23 36 R 12 58 R 0 35 R -12 58 R
-23 35 R -35 12 R -24 0 R D 1934 1839 M 23 12 R 35 35 R 0 -245 R D
20 setlinewidth 2220 4193 M 262 0 R D 30 setlinewidth 1385 4298 M -35 -12 R
-24 -35 R -11 -59 R 0 -35 R 11 -58 R 24 -35 R 35 -12 R 23 0 R 35 12 R
23 35 R 12 58 R 0 35 R -12 59 R -23 35 R -35 12 R -23 0 R D 1572 4076 M
-12 -12 R 12 -12 R 11 12 R -11 12 R D 1700 4251 M 24 11 R 35 36 R 0 -246 R D
1969 4298 M -35 -12 R -24 -35 R -11 -59 R 0 -35 R 11 -58 R 24 -35 R 35 -12 R
23 0 R 35 12 R 24 35 R 11 58 R 0 35 R -11 59 R -24 35 R -35 12 R -23 0 R D
20 setlinewidth 2220 6604 M 262 0 R D 30 setlinewidth 1350 6656 M 23 12 R
35 35 R 0 -245 R D 1572 6481 M -12 -12 R 12 -11 R 11 11 R -11 12 R D
1735 6703 M -35 -12 R -23 -35 R -12 -58 R 0 -35 R 12 -59 R 23 -35 R 35 -11 R
24 0 R 35 11 R 23 35 R 12 59 R 0 35 R -12 58 R -23 35 R -35 12 R -24 0 R D
1969 6703 M -35 -12 R -24 -35 R -11 -58 R 0 -35 R 11 -59 R 24 -35 R 35 -11 R
23 0 R 35 11 R 24 35 R 11 59 R 0 35 R -11 58 R -24 35 R -35 12 R -23 0 R D
20 setlinewidth 2220 1408 M 131 0 R D 2220 1548 M 131 0 R D 2220 1671 M
131 0 R D 2220 2507 M 131 0 R D 2220 2932 M 131 0 R D 2220 3233 M 131 0 R D
2220 3467 M 131 0 R D 2220 3658 M 131 0 R D 2220 3819 M 131 0 R D
2220 3959 M 131 0 R D 2220 4083 M 131 0 R D 2220 4919 M 131 0 R D
2220 5343 M 131 0 R D 2220 5645 M 131 0 R D 2220 5878 M 131 0 R D
2220 6069 M 131 0 R D 2220 6231 M 131 0 R D 2220 6371 M 131 0 R D
2220 6494 M 131 0 R D 8777 1408 M 0 5296 R D 8777 1782 M -262 0 R D
8777 4193 M -262 0 R D 8777 6604 M -262 0 R D 8777 1408 M -131 0 R D
8777 1548 M -131 0 R D 8777 1671 M -131 0 R D 8777 2507 M -131 0 R D
8777 2932 M -131 0 R D 8777 3233 M -131 0 R D 8777 3467 M -131 0 R D
8777 3658 M -131 0 R D 8777 3819 M -131 0 R D 8777 3959 M -131 0 R D
8777 4083 M -131 0 R D 8777 4919 M -131 0 R D 8777 5343 M -131 0 R D
8777 5645 M -131 0 R D 8777 5878 M -131 0 R D 8777 6069 M -131 0 R D
8777 6231 M -131 0 R D 8777 6371 M -131 0 R D 8777 6494 M -131 0 R D
30 setlinewidth L2 3669 1408 M 628 785 R 1120 1316 R 1120 1202 R 1120 1047 R
1120 846 R D 0.255 0.255 0.255 setrgbcolor 2947 1408 M 230 285 R 1120 1305 R
1120 1187 R 1120 1028 R 1120 821 R 1120 570 R D L1
0.000 0.000 0.000 setrgbcolor 2220 3729 M 957 553 R 1120 622 R 1120 567 R
1120 499 R 1120 420 R 1120 214 R D L0 3177 4181 M -957 -801 R D 4297 4955 M
-1120 -774 R D 5417 5587 M -1120 -632 R D 6537 6017 M -1120 -430 R D
7657 6332 M -1120 -315 R D 8777 6604 M -1120 -272 R D 3177 4292 M 111 -111 R
-111 -111 R -111 111 R 111 111 R D 2220 3380 M 957 801 R D 4297 5066 M
111 -111 R -111 -111 R -111 111 R 111 111 R D 3177 4181 M 1120 774 R D
5417 5698 M 111 -111 R -111 -111 R -111 111 R 111 111 R D 4297 4955 M
1120 632 R D 6537 6128 M 111 -111 R -111 -111 R -111 111 R 111 111 R D
5417 5587 M 1120 430 R D 7657 6443 M 111 -111 R -111 -111 R -111 111 R
111 111 R D 6537 6017 M 1120 315 R D 8777 6493 M -111 111 R 100 100 R D
7657 6332 M 1120 272 R D 3177 3950 M 111 -222 R -222 0 R 111 222 R D
2220 2964 M 957 875 R D 4297 4816 M 111 -222 R -222 0 R 111 222 R D
3177 3839 M 1120 866 R D 5417 5526 M 111 -222 R -222 0 R 111 222 R D
4297 4705 M 1120 710 R D 6537 6010 M 111 -222 R -222 0 R 111 222 R D
5417 5415 M 1120 484 R D 7657 6383 M 111 -222 R -222 0 R 111 222 R D
6537 5899 M 1120 373 R D 8777 6493 M -111 0 R 105 211 R D 7657 6272 M
1120 332 R D 3177 3349 M 111 0 R 0 -222 R -222 0 R 0 222 R 222 0 R D
2220 2552 M 957 686 R D 4297 4269 M 111 0 R 0 -222 R -222 0 R 0 222 R
222 0 R D 3177 3238 M 1120 920 R D 5417 5158 M 111 0 R 0 -222 R -222 0 R
0 222 R 222 0 R D 4297 4158 M 1120 889 R D 6537 5751 M 111 0 R 0 -222 R
-222 0 R 0 222 R 222 0 R D 5417 5047 M 1120 593 R D 7657 6216 M 111 0 R
0 -222 R -222 0 R 0 222 R 222 0 R D 6537 5640 M 1120 465 R D 8777 6493 M
-111 0 R 0 211 R D 7657 6105 M 1120 499 R D 3288 2935 M -222 -222 R
111 111 R -111 111 R 222 -222 R D 2220 2003 M 957 821 R D 4408 3618 M
-222 -222 R 111 111 R -111 111 R 222 -222 R D 3177 2824 M 1120 683 R D
5528 4677 M -222 -222 R 111 111 R -111 111 R 222 -222 R D 4297 3507 M
1120 1059 R D 6648 5491 M -222 -222 R 111 111 R -111 111 R 222 -222 R D
5417 4566 M 1120 814 R D 7768 6087 M -222 -222 R 111 111 R -111 111 R
222 -222 R D 6537 5380 M 1120 596 R D 8777 6604 M -111 -111 R 111 111 R
-100 100 R 100 -100 R -1120 -628 R D 6948 1990 M 0 -319 R D 6948 1838 M
30 31 R 31 15 R 45 0 R 31 -15 R 30 -31 R 15 -45 R 0 -31 R -15 -45 R
-30 -31 R -31 -15 R -45 0 R -31 15 R -30 31 R D 7388 1838 M -15 31 R
-45 15 R -46 0 R -45 -15 R -16 -31 R 16 -30 R 30 -15 R 76 -15 R 30 -16 R
15 -30 R 0 -15 R -15 -31 R -45 -15 R -46 0 R -45 15 R -16 31 R D 7525 1929 M
31 16 R 45 45 R 0 -319 R D 7799 1884 M 0 -213 R D 7799 1793 M 15 45 R
30 31 R 31 15 R 45 0 R D 8148 1838 M -15 31 R -46 15 R -45 0 R -46 -15 R
-15 -31 R 15 -30 R 30 -15 R 76 -15 R 31 -16 R 15 -30 R 0 -15 R -15 -31 R
-46 -15 R -45 0 R -46 15 R -15 31 R D 8254 1990 M 0 -319 R D 8254 1823 M
46 46 R 30 15 R 46 0 R 30 -15 R 15 -46 R 0 -152 R D 10088 3526 M 99 0 R
98 0 R 99 0 R 98 0 R 98 0 R 99 0 R 98 0 R 98 0 R 99 0 R D 10088 3156 M
99 0 R 98 0 R 99 0 R 98 0 R 98 0 R 99 0 R 98 0 R 98 0 R 99 0 R D
10088 2785 M 99 0 R 98 0 R 99 0 R 98 0 R 98 0 R 99 0 R 98 0 R 98 0 R 99 0 R
D 10088 2414 M 99 0 R 98 0 R 99 0 R 98 0 R 98 0 R 99 0 R 98 0 R 98 0 R
99 0 R D 10088 2044 M 99 0 R 98 0 R 99 0 R 98 0 R 98 0 R 99 0 R 98 0 R
98 0 R 99 0 R D 10570 3526 M Z 10570 3267 M 111 -111 R -111 -111 R
-111 111 R 111 111 R 111 -111 R -111 -111 R -111 111 R 111 111 R D
10570 2896 M 111 -222 R -222 0 R 111 222 R 111 -222 R -222 0 R 111 222 R D
10570 2525 M 111 0 R 0 -222 R -222 0 R 0 222 R 222 0 R -111 0 R D
10681 2525 M 0 -222 R -222 0 R 0 222 R 222 0 R D 10681 2155 M -222 -222 R
111 111 R -111 111 R 222 -222 R D 10681 2155 M -222 -222 R 111 111 R
-111 111 R 222 -222 R D 11285 3591 M 0 -213 R D 11285 3545 M -31 31 R
-30 15 R -46 0 R -30 -15 R -30 -31 R -16 -45 R 0 -31 R 16 -45 R 30 -31 R
30 -15 R 46 0 R 30 15 R 31 31 R D 11406 3697 M 0 -319 R D 11528 3697 M
0 -319 R D 11118 3220 M 0 -213 R D 11118 3159 M 45 46 R 31 15 R 45 0 R
30 -15 R 16 -46 R 0 -152 R D 11285 3159 M 45 46 R 31 15 R 45 0 R 31 -15 R
15 -46 R 0 -152 R D 11816 3387 M -273 -501 R D 11907 3326 M 0 -319 R D
11907 3326 M 122 -319 R 121 319 R 0 -319 R D 12272 3281 M 243 -137 R
-243 -137 R D 12667 3266 M 30 15 R 46 45 R 0 -319 R D 12925 3129 M 182 0 R
0 30 R -15 31 R -15 15 R -30 15 R -46 0 R -30 -15 R -31 -30 R -15 -46 R
0 -30 R 15 -46 R 31 -30 R 30 -16 R 46 0 R 30 16 R 30 30 R D 13214 3144 M
273 0 R D 13791 3281 M -15 30 R -46 15 R -30 0 R -46 -15 R -30 -45 R
-15 -76 R 0 -76 R 15 -61 R 30 -30 R 46 -16 R 15 0 R 46 16 R 30 30 R 15 46 R
0 15 R -15 45 R -30 31 R -46 15 R -15 0 R -46 -15 R -30 -31 R -15 -45 R D
11118 2849 M 0 -212 R D 11118 2789 M 45 45 R 31 15 R 45 0 R 30 -15 R
16 -45 R 0 -152 R D 11285 2789 M 45 45 R 31 15 R 45 0 R 31 -15 R 15 -45 R
0 -152 R D 11816 3016 M -273 -501 R D 11907 2956 M 0 -319 R D 11907 2956 M
122 -319 R 121 319 R 0 -319 R D 12272 2910 M 243 -137 R -243 -136 R D
12667 2895 M 30 15 R 46 46 R 0 -319 R D 12925 2758 M 182 0 R 0 31 R -15 30 R
-15 15 R -30 15 R -46 0 R -30 -15 R -31 -30 R -15 -46 R 0 -30 R 15 -46 R
31 -30 R 30 -15 R 46 0 R 30 15 R 30 30 R D 13214 2773 M 273 0 R D
13776 2956 M -152 0 R -15 -137 R 15 15 R 45 15 R 46 0 R 46 -15 R 30 -30 R
15 -46 R 0 -30 R -15 -46 R -30 -30 R -46 -15 R -46 0 R -45 15 R -15 15 R
-16 31 R D 11118 2479 M 0 -213 R D 11118 2418 M 45 46 R 31 15 R 45 0 R
30 -15 R 16 -46 R 0 -152 R D 11285 2418 M 45 46 R 31 15 R 45 0 R 31 -15 R
15 -46 R 0 -152 R D 11816 2646 M -273 -501 R D 11907 2585 M 0 -319 R D
11907 2585 M 122 -319 R 121 319 R 0 -319 R D 12272 2539 M 243 -136 R
-243 -137 R D 12667 2524 M 30 15 R 46 46 R 0 -319 R D 12925 2388 M 182 0 R
0 30 R -15 30 R -15 16 R -30 15 R -46 0 R -30 -15 R -31 -31 R -15 -45 R
0 -31 R 15 -45 R 31 -31 R 30 -15 R 46 0 R 30 15 R 30 31 R D 13214 2403 M
273 0 R D 13745 2585 M -152 -213 R 228 0 R D 13745 2585 M 0 -319 R D
11118 2108 M 0 -213 R D 11118 2047 M 45 46 R 31 15 R 45 0 R 30 -15 R
16 -46 R 0 -152 R D 11285 2047 M 45 46 R 31 15 R 45 0 R 31 -15 R 15 -46 R
0 -152 R D 11816 2275 M -273 -501 R D 11907 2214 M 0 -319 R D 11907 2214 M
122 -319 R 121 319 R 0 -319 R D 12272 2169 M 243 -137 R -243 -137 R D
12667 2154 M 30 15 R 46 45 R 0 -319 R D 12925 2017 M 182 0 R 0 30 R -15 31 R
-15 15 R -30 15 R -46 0 R -30 -15 R -31 -31 R -15 -45 R 0 -31 R 15 -45 R
31 -30 R 30 -16 R 46 0 R 30 16 R 30 30 R D 13214 2032 M 273 0 R D
13624 2214 M 167 0 R -91 -121 R 45 0 R 31 -15 R 15 -16 R 15 -45 R 0 -31 R
-15 -45 R -30 -30 R -46 -16 R -46 0 R -45 16 R -15 15 R -16 30 R D
%%PageTrailer
end
%%PageResources: font Helvetica
%%Trailer
%%Pages: 1
%%DocumentNeededResources: font Helvetica
%%EOF
