%!PS-Adobe-3.0 EPSF-3.0
%%BoundingBox: 0 0 453 396
%%Title: Graphics produced by IDL
%%For: dacia@Lserver, /home/dacia/work/subhalo_model
%%Creator: IDL Version 7.0 (linux x86_64 m64)
%%CreationDate: Mon Jan 25 17:17:55 2010
%%DocumentData: Clean7bit
%%Requirements: color
%%LanguageLevel: 1
%%PageOrder: Ascend
%%Pages: (atend)
%%DocumentNeededResources: (atend)
%%EndComments
%%BeginProlog
%+ prolog.ps -- Prolog for IDL generated PostScript files
%+ Copyright (c) 1988-2007 ITT Visual Information Solutions. All Rights Reserved.
%v 5
/$IDL_DICT 40 dict def $IDL_DICT begin /bdef { bind def } bind def /C
{currentpoint newpath moveto} bdef /CP {currentpoint} bdef /D {currentpoint
stroke moveto} bdef /F {closepath fill} bdef /K { setgray } bdef /M {moveto}
bdef /N {rmoveto} bdef /P {lineto} bdef /R {rlineto} bdef /S {gsave show
grestore} bdef /X {currentpoint pop} bdef /Z {gsave currentpoint lineto 20
setlinewidth 1 setlinecap stroke grestore} bdef /L0 {[] 0 setdash} bdef /L1
{[40 100] 0 setdash} bdef /L2 {[200 200] 0 setdash} bdef /L3 {[200 100 50
100] 0 setdash} bdef /L4 {[300 100 50 100 50 100 50 100] 0 setdash} bdef /L5
{[400 200] 0 setdash} bdef /STDFONT { findfont exch scalefont setfont } bdef
/ISOFONT { findfont dup length dict begin { 1 index /FID ne {def} {pop pop}
ifelse } forall /Encoding ISOLatin1Encoding def currentdict end /idltmpfont
exch definefont exch scalefont setfont } bdef /ISOBULLET { gsave /Helvetica
findfont exch scalefont setfont (\267) show currentpoint grestore moveto}
bdef /MITERLIMIT { 2.5 setmiterlimit } bdef end
%%EndProlog
%%Page: 0 1
%%PageRequirements: color
%%PageResources: (atend)
%%PageOrientation: Portrait
%%PageBoundingBox: 0 0 453 396
%%BeginPageSetup
$IDL_DICT begin 0.0283465 dup scale MITERLIMIT
%%IncludeResource: font Helvetica
423.333 /Helvetica STDFONT
%%EndPageSetup
0.000 0.000 0.000 setrgbcolor gsave 8640 13472 translate 0 0 M
1.25 dup scale -294.005 0 N
(M2) show grestore gsave 8640 352 translate 0 0 M 1.1 dup scale -420.603 0 N
(r/R) show X -101.051 M
%%IncludeResource: font Helvetica
262.467 /Helvetica STDFONT
(vir) show grestore
%%IncludeResource: font Helvetica
423.333 /Helvetica STDFONT gsave 428 7352 translate 0 0 M 90 rotate
1.1 dup scale -1255.42 0 N
(N\(<r\)/N\(<R) show X -101.051 M
%%IncludeResource: font Helvetica
262.467 /Helvetica STDFONT
(vir) show X 0 M
%%IncludeResource: font Helvetica
423.333 /Helvetica STDFONT
(\)) show grestore 40 setlinewidth L0 1760 7352 M 6880 0 R D 3352 7352 M
0 238 R D gsave 3352 6713 translate 0 0 M 1.21 dup scale -58.8433 0 N
( ) show grestore 8640 7352 M 0 238 R D gsave 8640 6713 translate 0 0 M
1.21 dup scale -58.8433 0 N
( ) show grestore 1760 7352 M 0 119 R D 2179 7352 M 0 119 R D 2533 7352 M
0 119 R D 2839 7352 M 0 119 R D 3110 7352 M 0 119 R D 4944 7352 M 0 119 R D
5875 7352 M 0 119 R D 6536 7352 M 0 119 R D 7048 7352 M 0 119 R D
7467 7352 M 0 119 R D 7821 7352 M 0 119 R D 8128 7352 M 0 119 R D
8398 7352 M 0 119 R D 1760 13296 M 6880 0 R D 3352 13296 M 0 -238 R D
8640 13296 M 0 -238 R D 1760 13296 M 0 -119 R D 2179 13296 M 0 -119 R D
2533 13296 M 0 -119 R D 2839 13296 M 0 -119 R D 3110 13296 M 0 -119 R D
4944 13296 M 0 -119 R D 5875 13296 M 0 -119 R D 6536 13296 M 0 -119 R D
7048 13296 M 0 -119 R D 7467 13296 M 0 -119 R D 7821 13296 M 0 -119 R D
8128 13296 M 0 -119 R D 8398 13296 M 0 -119 R D 1760 7352 M 0 5944 R D
1760 8564 M 275 0 R D gsave 1626 8394 translate 0 0 M 1.21 dup scale
-823.807 0 N
(0.01) show grestore 1760 10882 M 275 0 R D gsave 1626 10712 translate 0 0 M
1.21 dup scale -823.807 0 N
(0.10) show grestore 1760 13200 M 275 0 R D gsave 1626 12998 translate 0 0 M
1.21 dup scale -823.807 0 N
(1.00) show grestore 1760 7352 M 138 0 R D 1760 7642 M 138 0 R D 1760 7866 M
138 0 R D 1760 8050 M 138 0 R D 1760 8205 M 138 0 R D 1760 8339 M 138 0 R D
1760 8458 M 138 0 R D 1760 9262 M 138 0 R D 1760 9670 M 138 0 R D
1760 9960 M 138 0 R D 1760 10184 M 138 0 R D 1760 10368 M 138 0 R D
1760 10523 M 138 0 R D 1760 10657 M 138 0 R D 1760 10776 M 138 0 R D
1760 11580 M 138 0 R D 1760 11988 M 138 0 R D 1760 12278 M 138 0 R D
1760 12502 M 138 0 R D 1760 12686 M 138 0 R D 1760 12841 M 138 0 R D
1760 12975 M 138 0 R D 1760 13094 M 138 0 R D 8640 7352 M 0 5944 R D
8640 8564 M -275 0 R D 8640 10882 M -275 0 R D 8640 13200 M -275 0 R D
8640 7352 M -138 0 R D 8640 7642 M -138 0 R D 8640 7866 M -138 0 R D
8640 8050 M -138 0 R D 8640 8205 M -138 0 R D 8640 8339 M -138 0 R D
8640 8458 M -138 0 R D 8640 9262 M -138 0 R D 8640 9670 M -138 0 R D
8640 9960 M -138 0 R D 8640 10184 M -138 0 R D 8640 10368 M -138 0 R D
8640 10523 M -138 0 R D 8640 10657 M -138 0 R D 8640 10776 M -138 0 R D
8640 11580 M -138 0 R D 8640 11988 M -138 0 R D 8640 12278 M -138 0 R D
8640 12502 M -138 0 R D 8640 12686 M -138 0 R D 8640 12841 M -138 0 R D
8640 12975 M -138 0 R D 8640 13094 M -138 0 R D
0.000 1.000 1.000 setrgbcolor 1957 7351 M 807 1239 R 1175 987 R 1176 1471 R
1175 847 R 1175 666 R 1175 639 R D 0.000 0.000 0.000 setrgbcolor
1759 10408 M 1005 645 R 1175 611 R 1176 530 R 1175 437 R 1175 325 R
1175 244 R D L1 0.000 1.000 1.000 setrgbcolor 2764 9148 M 1175 1803 R
1176 156 R 1175 1057 R 1175 646 R 1175 390 R D 0.000 0.000 0.000 setrgbcolor
1759 9487 M 1005 877 R 1175 776 R 1176 636 R 1175 525 R 1175 483 R
1175 416 R D L2 0.000 1.000 1.000 setrgbcolor 5115 11396 M 1175 0 R
1175 698 R 1175 1106 R D 0.000 0.000 0.000 setrgbcolor 1759 8951 M
1005 1139 R 1175 698 R 1176 714 R 1175 625 R 1175 560 R 1175 513 R D
gsave 4944 9960 translate 0 0 M 1.1 dup scale
(m\(z=0\)/M\(z=0\)) show grestore L0 5200 9432 M 89 0 R 90 0 R 89 0 R 90 0 R
89 0 R 90 0 R 89 0 R 90 0 R 89 0 R D L1 5200 8719 M 89 0 R 90 0 R 89 0 R
90 0 R 89 0 R 90 0 R 89 0 R 90 0 R 89 0 R D L2 5200 8006 M 89 0 R 90 0 R
89 0 R 90 0 R 89 0 R 90 0 R 89 0 R 90 0 R 89 0 R D
gsave 6094 9343 translate 0 0 M 1.1 dup scale
([10) show X 192.937 M
%%IncludeResource: font Helvetica
262.467 /Helvetica STDFONT
(-5) show X 0 M
%%IncludeResource: font Helvetica
423.333 /Helvetica STDFONT
(,10) show X 192.937 M
%%IncludeResource: font Helvetica
262.467 /Helvetica STDFONT
(-4) show X 0 M
%%IncludeResource: font Helvetica
423.333 /Helvetica STDFONT
(]) show grestore gsave 6094 8629 translate 0 0 M 1.1 dup scale
([10) show X 192.937 M
%%IncludeResource: font Helvetica
262.467 /Helvetica STDFONT
(-4) show X 0 M
%%IncludeResource: font Helvetica
423.333 /Helvetica STDFONT
(,10) show X 192.937 M
%%IncludeResource: font Helvetica
262.467 /Helvetica STDFONT
(-3) show X 0 M
%%IncludeResource: font Helvetica
423.333 /Helvetica STDFONT
(]) show grestore gsave 6094 7916 translate 0 0 M 1.1 dup scale
([10) show X 192.937 M
%%IncludeResource: font Helvetica
262.467 /Helvetica STDFONT
(-3) show X 0 M
%%IncludeResource: font Helvetica
423.333 /Helvetica STDFONT
(,10) show X 192.937 M
%%IncludeResource: font Helvetica
262.467 /Helvetica STDFONT
(-2) show X 0 M
%%IncludeResource: font Helvetica
423.333 /Helvetica STDFONT
(]) show grestore 0.000 1.000 1.000 setrgbcolor
gsave 8158 10918 translate 0 0 M -2000.25 0 N
(Via Lactea) show grestore L0 0.000 0.000 0.000 setrgbcolor 8640 7352 M
6880 0 R D 10232 7352 M 0 238 R D gsave 10232 6713 translate 0 0 M
1.21 dup scale -58.8433 0 N
( ) show grestore 15520 7352 M 0 238 R D gsave 15520 6713 translate 0 0 M
1.21 dup scale -58.8433 0 N
( ) show grestore 8640 7352 M 0 119 R D 9059 7352 M 0 119 R D 9413 7352 M
0 119 R D 9720 7352 M 0 119 R D 9990 7352 M 0 119 R D 11824 7352 M 0 119 R D
12755 7352 M 0 119 R D 13416 7352 M 0 119 R D 13928 7352 M 0 119 R D
14347 7352 M 0 119 R D 14701 7352 M 0 119 R D 15008 7352 M 0 119 R D
15278 7352 M 0 119 R D 8640 13296 M 6880 0 R D 10232 13296 M 0 -238 R D
15520 13296 M 0 -238 R D 8640 13296 M 0 -119 R D 9059 13296 M 0 -119 R D
9413 13296 M 0 -119 R D 9720 13296 M 0 -119 R D 9990 13296 M 0 -119 R D
11824 13296 M 0 -119 R D 12755 13296 M 0 -119 R D 13416 13296 M 0 -119 R D
13928 13296 M 0 -119 R D 14347 13296 M 0 -119 R D 14701 13296 M 0 -119 R D
15008 13296 M 0 -119 R D 15278 13296 M 0 -119 R D 8640 7352 M 0 5944 R D
8640 8564 M 275 0 R D gsave 8506 8394 translate 0 0 M 1.21 dup scale
-117.687 0 N
( ) show grestore 8640 10882 M 275 0 R D gsave 8506 10712 translate 0 0 M
1.21 dup scale -117.687 0 N
( ) show grestore 8640 13200 M 275 0 R D gsave 8506 12998 translate 0 0 M
1.21 dup scale -117.687 0 N
( ) show grestore 8640 7352 M 138 0 R D 8640 7642 M 138 0 R D 8640 7866 M
138 0 R D 8640 8050 M 138 0 R D 8640 8205 M 138 0 R D 8640 8339 M 138 0 R D
8640 8458 M 138 0 R D 8640 9262 M 138 0 R D 8640 9670 M 138 0 R D
8640 9960 M 138 0 R D 8640 10184 M 138 0 R D 8640 10368 M 138 0 R D
8640 10523 M 138 0 R D 8640 10657 M 138 0 R D 8640 10776 M 138 0 R D
8640 11580 M 138 0 R D 8640 11988 M 138 0 R D 8640 12278 M 138 0 R D
8640 12502 M 138 0 R D 8640 12686 M 138 0 R D 8640 12841 M 138 0 R D
8640 12975 M 138 0 R D 8640 13094 M 138 0 R D 15520 7352 M 0 5944 R D
15520 8564 M -275 0 R D 15520 10882 M -275 0 R D 15520 13200 M -275 0 R D
15520 7352 M -137 0 R D 15520 7642 M -137 0 R D 15520 7866 M -137 0 R D
15520 8050 M -137 0 R D 15520 8205 M -137 0 R D 15520 8339 M -137 0 R D
15520 8458 M -137 0 R D 15520 9262 M -137 0 R D 15520 9670 M -137 0 R D
15520 9960 M -137 0 R D 15520 10184 M -137 0 R D 15520 10368 M -137 0 R D
15520 10523 M -137 0 R D 15520 10657 M -137 0 R D 15520 10776 M -137 0 R D
15520 11580 M -137 0 R D 15520 11988 M -137 0 R D 15520 12278 M -137 0 R D
15520 12502 M -137 0 R D 15520 12686 M -137 0 R D 15520 12841 M -137 0 R D
15520 12975 M -137 0 R D 15520 13094 M -137 0 R D 8640 10541 M 1004 592 R
1176 592 R 1175 491 R 1175 418 R 1175 321 R 1175 245 R D L1 8640 10175 M
1004 822 R 1176 631 R 1175 545 R 1175 445 R 1175 335 R 1175 247 R D L2
8640 9136 M 1004 1542 R 1176 888 R 1175 617 R 1175 411 R 1175 328 R
1175 278 R D gsave 11824 9960 translate 0 0 M 1.1 dup scale
(m\(z) show X -101.051 M
%%IncludeResource: font Helvetica
262.467 /Helvetica STDFONT
(acc) show X 0 M
%%IncludeResource: font Helvetica
423.333 /Helvetica STDFONT
(\)/M\(z=0\)) show grestore L0 12080 9432 M 90 0 R 89 0 R 89 0 R 90 0 R
89 0 R 90 0 R 89 0 R 90 0 R 89 0 R D L1 12080 8719 M 90 0 R 89 0 R 89 0 R
90 0 R 89 0 R 90 0 R 89 0 R 90 0 R 89 0 R D L2 12080 8006 M 90 0 R 89 0 R
89 0 R 90 0 R 89 0 R 90 0 R 89 0 R 90 0 R 89 0 R D
gsave 12975 9343 translate 0 0 M 1.1 dup scale
([10) show X 192.937 M
%%IncludeResource: font Helvetica
262.467 /Helvetica STDFONT
(-4) show X 0 M
%%IncludeResource: font Helvetica
423.333 /Helvetica STDFONT
(,10) show X 192.937 M
%%IncludeResource: font Helvetica
262.467 /Helvetica STDFONT
(-3) show X 0 M
%%IncludeResource: font Helvetica
423.333 /Helvetica STDFONT
(]) show grestore gsave 12975 8629 translate 0 0 M 1.1 dup scale
([10) show X 192.937 M
%%IncludeResource: font Helvetica
262.467 /Helvetica STDFONT
(-3) show X 0 M
%%IncludeResource: font Helvetica
423.333 /Helvetica STDFONT
(,10) show X 192.937 M
%%IncludeResource: font Helvetica
262.467 /Helvetica STDFONT
(-2) show X 0 M
%%IncludeResource: font Helvetica
423.333 /Helvetica STDFONT
(]) show grestore gsave 12975 7916 translate 0 0 M 1.1 dup scale
([10) show X 192.937 M
%%IncludeResource: font Helvetica
262.467 /Helvetica STDFONT
(-2) show X 0 M
%%IncludeResource: font Helvetica
423.333 /Helvetica STDFONT
(,1]) show grestore L0 1760 1408 M 6880 0 R D 3352 1408 M 0 238 R D
gsave 3352 769 translate 0 0 M 1.21 dup scale -294.217 0 N
(0.1) show grestore 8640 1408 M 0 238 R D gsave 8640 769 translate 0 0 M
1.21 dup scale -294.217 0 N
(1.0) show grestore 1760 1408 M 0 119 R D 2179 1408 M 0 119 R D 2533 1408 M
0 119 R D 2839 1408 M 0 119 R D 3110 1408 M 0 119 R D 4944 1408 M 0 119 R D
5875 1408 M 0 119 R D 6536 1408 M 0 119 R D 7048 1408 M 0 119 R D
7467 1408 M 0 119 R D 7821 1408 M 0 119 R D 8128 1408 M 0 119 R D
8398 1408 M 0 119 R D 1760 7352 M 6880 0 R D 3352 7352 M 0 -238 R D
8640 7352 M 0 -238 R D 1760 7352 M 0 -119 R D 2179 7352 M 0 -119 R D
2533 7352 M 0 -119 R D 2839 7352 M 0 -119 R D 3110 7352 M 0 -119 R D
4944 7352 M 0 -119 R D 5875 7352 M 0 -119 R D 6536 7352 M 0 -119 R D
7048 7352 M 0 -119 R D 7467 7352 M 0 -119 R D 7821 7352 M 0 -119 R D
8128 7352 M 0 -119 R D 8398 7352 M 0 -119 R D 1760 1408 M 0 5944 R D
1760 2620 M 275 0 R D gsave 1626 2450 translate 0 0 M 1.21 dup scale
-823.807 0 N
(0.01) show grestore 1760 4938 M 275 0 R D gsave 1626 4768 translate 0 0 M
1.21 dup scale -823.807 0 N
(0.10) show grestore 1760 7256 M 275 0 R D gsave 1626 7054 translate 0 0 M
1.21 dup scale -823.807 0 N
(1.00) show grestore 1760 1408 M 138 0 R D 1760 1698 M 138 0 R D 1760 1922 M
138 0 R D 1760 2106 M 138 0 R D 1760 2261 M 138 0 R D 1760 2395 M 138 0 R D
1760 2514 M 138 0 R D 1760 3318 M 138 0 R D 1760 3726 M 138 0 R D
1760 4016 M 138 0 R D 1760 4240 M 138 0 R D 1760 4424 M 138 0 R D
1760 4579 M 138 0 R D 1760 4713 M 138 0 R D 1760 4832 M 138 0 R D
1760 5636 M 138 0 R D 1760 6044 M 138 0 R D 1760 6334 M 138 0 R D
1760 6558 M 138 0 R D 1760 6742 M 138 0 R D 1760 6897 M 138 0 R D
1760 7031 M 138 0 R D 1760 7150 M 138 0 R D 8640 1408 M 0 5944 R D
8640 2620 M -275 0 R D 8640 4938 M -275 0 R D 8640 7256 M -275 0 R D
8640 1408 M -138 0 R D 8640 1698 M -138 0 R D 8640 1922 M -138 0 R D
8640 2106 M -138 0 R D 8640 2261 M -138 0 R D 8640 2395 M -138 0 R D
8640 2514 M -138 0 R D 8640 3318 M -138 0 R D 8640 3726 M -138 0 R D
8640 4016 M -138 0 R D 8640 4240 M -138 0 R D 8640 4424 M -138 0 R D
8640 4579 M -138 0 R D 8640 4713 M -138 0 R D 8640 4832 M -138 0 R D
8640 5636 M -138 0 R D 8640 6044 M -138 0 R D 8640 6334 M -138 0 R D
8640 6558 M -138 0 R D 8640 6742 M -138 0 R D 8640 6897 M -138 0 R D
8640 7031 M -138 0 R D 8640 7150 M -138 0 R D 1759 5571 M 1005 615 R
1175 525 R 1176 365 R 1175 160 R 1175 20 R 1175 0 R D L1 1759 2894 M
1005 1032 R 1175 980 R 1176 905 R 1175 781 R 1175 480 R 1175 184 R D L2
1915 1408 M 849 1069 R 1175 954 R 1176 949 R 1175 995 R 1175 1004 R
1175 877 R D gsave 4944 4016 translate 0 0 M 1.1 dup scale
(accretion time\(z\)) show grestore L0 5200 3488 M 89 0 R 90 0 R 89 0 R
90 0 R 89 0 R 90 0 R 89 0 R 90 0 R 89 0 R D L1 5200 2775 M 89 0 R 90 0 R
89 0 R 90 0 R 89 0 R 90 0 R 89 0 R 90 0 R 89 0 R D L2 5200 2062 M 89 0 R
90 0 R 89 0 R 90 0 R 89 0 R 90 0 R 89 0 R 90 0 R 89 0 R D
gsave 6094 3399 translate 0 0 M 1.1 dup scale
([2,6]) show grestore gsave 6094 2685 translate 0 0 M 1.1 dup scale
([0.5,2]) show grestore gsave 6094 1972 translate 0 0 M 1.1 dup scale
([0,0.5]) show grestore L0 8640 1408 M 6880 0 R D 10232 1408 M 0 238 R D
gsave 10232 769 translate 0 0 M 1.21 dup scale -294.217 0 N
(0.1) show grestore 15520 1408 M 0 238 R D gsave 15520 769 translate 0 0 M
1.21 dup scale -294.217 0 N
(1.0) show grestore 8640 1408 M 0 119 R D 9059 1408 M 0 119 R D 9413 1408 M
0 119 R D 9720 1408 M 0 119 R D 9990 1408 M 0 119 R D 11824 1408 M 0 119 R D
12755 1408 M 0 119 R D 13416 1408 M 0 119 R D 13928 1408 M 0 119 R D
14347 1408 M 0 119 R D 14701 1408 M 0 119 R D 15008 1408 M 0 119 R D
15278 1408 M 0 119 R D 8640 7352 M 6880 0 R D 10232 7352 M 0 -238 R D
15520 7352 M 0 -238 R D 8640 7352 M 0 -119 R D 9059 7352 M 0 -119 R D
9413 7352 M 0 -119 R D 9720 7352 M 0 -119 R D 9990 7352 M 0 -119 R D
11824 7352 M 0 -119 R D 12755 7352 M 0 -119 R D 13416 7352 M 0 -119 R D
13928 7352 M 0 -119 R D 14347 7352 M 0 -119 R D 14701 7352 M 0 -119 R D
15008 7352 M 0 -119 R D 15278 7352 M 0 -119 R D 8640 1408 M 0 5944 R D
8640 2620 M 275 0 R D gsave 8506 2450 translate 0 0 M 1.21 dup scale
-117.687 0 N
( ) show grestore 8640 4938 M 275 0 R D gsave 8506 4768 translate 0 0 M
1.21 dup scale -117.687 0 N
( ) show grestore 8640 7256 M 275 0 R D gsave 8506 7054 translate 0 0 M
1.21 dup scale -117.687 0 N
( ) show grestore 8640 1408 M 138 0 R D 8640 1698 M 138 0 R D 8640 1922 M
138 0 R D 8640 2106 M 138 0 R D 8640 2261 M 138 0 R D 8640 2395 M 138 0 R D
8640 2514 M 138 0 R D 8640 3318 M 138 0 R D 8640 3726 M 138 0 R D
8640 4016 M 138 0 R D 8640 4240 M 138 0 R D 8640 4424 M 138 0 R D
8640 4579 M 138 0 R D 8640 4713 M 138 0 R D 8640 4832 M 138 0 R D
8640 5636 M 138 0 R D 8640 6044 M 138 0 R D 8640 6334 M 138 0 R D
8640 6558 M 138 0 R D 8640 6742 M 138 0 R D 8640 6897 M 138 0 R D
8640 7031 M 138 0 R D 8640 7150 M 138 0 R D 15520 1408 M 0 5944 R D
15520 2620 M -275 0 R D 15520 4938 M -275 0 R D 15520 7256 M -275 0 R D
15520 1408 M -137 0 R D 15520 1698 M -137 0 R D 15520 1922 M -137 0 R D
15520 2106 M -137 0 R D 15520 2261 M -137 0 R D 15520 2395 M -137 0 R D
15520 2514 M -137 0 R D 15520 3318 M -137 0 R D 15520 3726 M -137 0 R D
15520 4016 M -137 0 R D 15520 4240 M -137 0 R D 15520 4424 M -137 0 R D
15520 4579 M -137 0 R D 15520 4713 M -137 0 R D 15520 4832 M -137 0 R D
15520 5636 M -137 0 R D 15520 6044 M -137 0 R D 15520 6334 M -137 0 R D
15520 6558 M -137 0 R D 15520 6742 M -137 0 R D 15520 6897 M -137 0 R D
15520 7031 M -137 0 R D 15520 7150 M -137 0 R D 8640 3435 M 1004 895 R
1176 902 R 1175 781 R 1175 586 R 1175 396 R 1175 261 R D L1 8640 5628 M
1004 531 R 1176 419 R 1175 274 R 1175 191 R 1175 130 R 1175 83 R D L2
8640 5491 M 1004 522 R 1176 459 R 1175 318 R 1175 229 R 1175 137 R
1175 100 R D gsave 11824 4016 translate 0 0 M 1.1 dup scale
(m\(z) show X -101.051 M
%%IncludeResource: font Helvetica
262.467 /Helvetica STDFONT
(acc) show X 0 M
%%IncludeResource: font Helvetica
423.333 /Helvetica STDFONT
(\)/M\(z) show X -101.051 M
%%IncludeResource: font Helvetica
262.467 /Helvetica STDFONT
(acc) show X 0 M
%%IncludeResource: font Helvetica
423.333 /Helvetica STDFONT
(\)) show grestore L0 12080 3488 M 90 0 R 89 0 R 89 0 R 90 0 R 89 0 R 90 0 R
89 0 R 90 0 R 89 0 R D L1 12080 2775 M 90 0 R 89 0 R 89 0 R 90 0 R 89 0 R
90 0 R 89 0 R 90 0 R 89 0 R D L2 12080 2062 M 90 0 R 89 0 R 89 0 R 90 0 R
89 0 R 90 0 R 89 0 R 90 0 R 89 0 R D gsave 12975 3399 translate 0 0 M
1.1 dup scale
([10) show X 192.937 M
%%IncludeResource: font Helvetica
262.467 /Helvetica STDFONT
(-4) show X 0 M
%%IncludeResource: font Helvetica
423.333 /Helvetica STDFONT
(,10) show X 192.937 M
%%IncludeResource: font Helvetica
262.467 /Helvetica STDFONT
(-3) show X 0 M
%%IncludeResource: font Helvetica
423.333 /Helvetica STDFONT
(]) show grestore gsave 12975 2685 translate 0 0 M 1.1 dup scale
([10) show X 192.937 M
%%IncludeResource: font Helvetica
262.467 /Helvetica STDFONT
(-3) show X 0 M
%%IncludeResource: font Helvetica
423.333 /Helvetica STDFONT
(,10) show X 192.937 M
%%IncludeResource: font Helvetica
262.467 /Helvetica STDFONT
(-2) show X 0 M
%%IncludeResource: font Helvetica
423.333 /Helvetica STDFONT
(]) show grestore gsave 12975 1972 translate 0 0 M 1.1 dup scale
([10) show X 192.937 M
%%IncludeResource: font Helvetica
262.467 /Helvetica STDFONT
(-2) show X 0 M
%%IncludeResource: font Helvetica
423.333 /Helvetica STDFONT
(,1]) show grestore
%%PageTrailer
end
%%PageResources: font Helvetica
%%Trailer
%%Pages: 1
%%DocumentNeededResources: font Helvetica
%%EOF
