%!PS-Adobe-3.0 EPSF-3.0
%%BoundingBox: 0 0 425 340
%%Title: Graphics produced by IDL
%%For: jlgan@aida119, /home/jlgan/work/subhalo_model
%%Creator: IDL Version 7.0 (linux x86_64 m64)
%%CreationDate: Tue Jun  9 14:53:33 2009
%%DocumentData: Clean7bit
%%Requirements: color
%%LanguageLevel: 1
%%PageOrder: Ascend
%%Pages: (atend)
%%DocumentNeededResources: (atend)
%%EndComments
%%BeginProlog
%+ prolog.ps -- Prolog for IDL generated PostScript files
%+ Copyright (c) 1988-2007 ITT Visual Information Solutions. All Rights Reserved.
%v 5
/$IDL_DICT 40 dict def $IDL_DICT begin /bdef { bind def } bind def /C
{currentpoint newpath moveto} bdef /CP {currentpoint} bdef /D {currentpoint
stroke moveto} bdef /F {closepath fill} bdef /K { setgray } bdef /M {moveto}
bdef /N {rmoveto} bdef /P {lineto} bdef /R {rlineto} bdef /S {gsave show
grestore} bdef /X {currentpoint pop} bdef /Z {gsave currentpoint lineto 20
setlinewidth 1 setlinecap stroke grestore} bdef /L0 {[] 0 setdash} bdef /L1
{[40 100] 0 setdash} bdef /L2 {[200 200] 0 setdash} bdef /L3 {[200 100 50
100] 0 setdash} bdef /L4 {[300 100 50 100 50 100 50 100] 0 setdash} bdef /L5
{[400 200] 0 setdash} bdef /STDFONT { findfont exch scalefont setfont } bdef
/ISOFONT { findfont dup length dict begin { 1 index /FID ne {def} {pop pop}
ifelse } forall /Encoding ISOLatin1Encoding def currentdict end /idltmpfont
exch definefont exch scalefont setfont } bdef /ISOBULLET { gsave /Helvetica
findfont exch scalefont setfont (\267) show currentpoint grestore moveto}
bdef /MITERLIMIT { 2.5 setmiterlimit } bdef end
%%EndProlog
%%Page: 0 1
%%PageRequirements: color
%%PageResources: (atend)
%%PageOrientation: Portrait
%%PageBoundingBox: 0 0 425 340
%%BeginPageSetup
$IDL_DICT begin 0.0283465 dup scale MITERLIMIT
%%IncludeResource: font Helvetica
423.333 /Helvetica STDFONT
%%EndPageSetup
40 setlinewidth L0 0.000 0.000 0.000 setrgbcolor 2886 1830 M 11248 0 R D
5489 1830 M 0 371 R D gsave 5489 938 translate 0 0 M 1.69 dup scale
-294.217 0 N
(0.1) show grestore 14134 1830 M 0 371 R D gsave 14134 938 translate 0 0 M
1.69 dup scale -294.217 0 N
(1.0) show grestore 2886 1830 M 0 186 R D 3571 1830 M 0 186 R D 4149 1830 M
0 186 R D 4651 1830 M 0 186 R D 5093 1830 M 0 186 R D 8091 1830 M 0 186 R D
9614 1830 M 0 186 R D 10694 1830 M 0 186 R D 11532 1830 M 0 186 R D
12216 1830 M 0 186 R D 12795 1830 M 0 186 R D 13296 1830 M 0 186 R D
13739 1830 M 0 186 R D gsave 8510 165 translate 0 0 M 1.69 dup scale
-420.603 0 N
(r/R) show X -101.051 M
%%IncludeResource: font Helvetica
262.467 /Helvetica STDFONT
(vir) show grestore
%%IncludeResource: font Helvetica
423.333 /Helvetica STDFONT 2886 11085 M 11248 0 R D 5489 11085 M 0 -370 R D
14134 11085 M 0 -370 R D 2886 11085 M 0 -185 R D 3571 11085 M 0 -185 R D
4149 11085 M 0 -185 R D 4651 11085 M 0 -185 R D 5093 11085 M 0 -185 R D
8091 11085 M 0 -185 R D 9614 11085 M 0 -185 R D 10694 11085 M 0 -185 R D
11532 11085 M 0 -185 R D 12216 11085 M 0 -185 R D 12795 11085 M 0 -185 R D
13296 11085 M 0 -185 R D 13739 11085 M 0 -185 R D 2886 1830 M 0 9255 R D
2886 2483 M 450 0 R D gsave 2698 2245 translate 0 0 M 1.69 dup scale
-823.807 0 N
(0.01) show grestore 2886 6697 M 450 0 R D gsave 2698 6459 translate 0 0 M
1.69 dup scale -823.807 0 N
(0.10) show grestore 2886 10910 M 450 0 R D gsave 2698 10668 translate 0 0 M
1.69 dup scale -823.807 0 N
(1.00) show grestore 2886 1830 M 225 0 R D 2886 2075 M 225 0 R D 2886 2290 M
225 0 R D 2886 3752 M 225 0 R D 2886 4494 M 225 0 R D 2886 5020 M 225 0 R D
2886 5428 M 225 0 R D 2886 5762 M 225 0 R D 2886 6044 M 225 0 R D
2886 6288 M 225 0 R D 2886 6504 M 225 0 R D 2886 7965 M 225 0 R D
2886 8707 M 225 0 R D 2886 9234 M 225 0 R D 2886 9642 M 225 0 R D
2886 9976 M 225 0 R D 2886 10258 M 225 0 R D 2886 10502 M 225 0 R D
2886 10718 M 225 0 R D gsave 744 6458 translate 0 0 M 90 rotate
1.69 dup scale -845.49 0 N
(N\(<r\)/N) show X -101.051 M
%%IncludeResource: font Helvetica
262.467 /Helvetica STDFONT
(tot) show grestore
%%IncludeResource: font Helvetica
423.333 /Helvetica STDFONT 14134 1830 M 0 9255 R D 14134 2483 M -450 0 R D
14134 6697 M -450 0 R D 14134 10910 M -450 0 R D 14134 1830 M -225 0 R D
14134 2075 M -225 0 R D 14134 2290 M -225 0 R D 14134 3752 M -225 0 R D
14134 4494 M -225 0 R D 14134 5020 M -225 0 R D 14134 5428 M -225 0 R D
14134 5762 M -225 0 R D 14134 6044 M -225 0 R D 14134 6288 M -225 0 R D
14134 6504 M -225 0 R D 14134 7965 M -225 0 R D 14134 8707 M -225 0 R D
14134 9234 M -225 0 R D 14134 9642 M -225 0 R D 14134 9976 M -225 0 R D
14134 10258 M -225 0 R D 14134 10502 M -225 0 R D 14134 10718 M -225 0 R D
1.000 0.000 0.706 setrgbcolor 2886 4095 M 74 64 R 673 558 R 570 462 R
494 391 R 438 338 R 391 297 R 355 263 R 323 235 R 299 213 R 276 193 R
257 177 R 241 163 R 226 151 R 213 139 R 202 130 R 192 122 R 182 114 R
174 107 R 166 101 R 159 96 R 153 90 R 147 86 R 141 81 R 136 78 R 131 74 R
127 71 R 123 67 R 119 65 R 115 62 R 112 60 R 108 57 R 106 55 R 102 53 R
100 52 R 97 49 R 95 48 R 93 46 R 90 44 R 88 44 R 86 41 R 84 41 R 83 39 R
80 39 R 79 37 R 77 36 R 76 35 R 74 34 R 73 33 R 72 33 R 70 31 R 68 31 R
68 30 R 66 29 R 65 28 R 65 28 R 63 28 R 61 26 R 61 26 R 60 26 R 59 24 R
59 25 R 57 24 R 56 23 R 56 23 R 54 22 R 54 22 R 54 22 R 52 21 R 52 20 R
51 21 R 50 20 R 50 19 R 49 19 R 48 19 R 48 19 R 47 18 R 47 18 R 46 18 R
45 17 R 45 17 R 44 17 R 44 16 R 44 16 R 43 16 R 42 16 R 42 15 R 41 16 R
41 15 R 41 14 R 40 15 R 40 14 R 39 14 R 39 14 R 38 14 R 38 13 R D L1
0.506 0.000 0.000 setrgbcolor 2886 4716 M 74 61 R 673 530 R 570 435 R
494 366 R 438 316 R 391 275 R 355 242 R 323 217 R 299 195 R 276 177 R
257 161 R 241 148 R 226 137 R 213 126 R 202 117 R 192 110 R 182 102 R
174 97 R 166 90 R 159 85 R 153 81 R 147 77 R 141 72 R 136 69 R 131 66 R
127 63 R 123 60 R 119 58 R 115 55 R 112 52 R 108 51 R 106 49 R 102 47 R
100 45 R 97 44 R 95 42 R 93 40 R 90 40 R 88 38 R 86 37 R 84 35 R 83 35 R
80 34 R 79 32 R 77 32 R 76 31 R 74 30 R 73 29 R 72 28 R 70 28 R 68 27 R
68 26 R 66 26 R 65 25 R 65 25 R 63 23 R 61 24 R 61 23 R 60 22 R 59 22 R
59 21 R 57 21 R 56 20 R 56 20 R 54 20 R 54 19 R 54 19 R 52 19 R 52 18 R
51 18 R 50 17 R 50 17 R 49 17 R 48 17 R 48 16 R 47 16 R 47 16 R 46 15 R
45 15 R 45 15 R 44 15 R 44 14 R 44 14 R 43 14 R 42 14 R 42 14 R 41 13 R
41 13 R 41 13 R 40 13 R 40 12 R 39 13 R 39 12 R 38 12 R 38 12 R D L2
1.000 0.349 0.000 setrgbcolor 2886 5179 M 74 58 R 673 504 R 570 412 R
494 346 R 438 297 R 391 257 R 355 227 R 323 202 R 299 181 R 276 164 R
257 149 R 241 136 R 226 126 R 213 116 R 202 108 R 192 101 R 182 94 R
174 88 R 166 83 R 159 78 R 153 73 R 147 70 R 141 67 R 136 63 R 131 60 R
127 57 R 123 54 R 119 53 R 115 50 R 112 48 R 108 46 R 106 44 R 102 43 R
100 41 R 97 39 R 95 39 R 93 37 R 90 35 R 88 35 R 86 33 R 84 33 R 83 31 R
80 30 R 79 30 R 77 29 R 76 28 R 74 27 R 73 26 R 72 26 R 70 25 R 68 25 R
68 24 R 66 23 R 65 22 R 65 23 R 63 21 R 61 21 R 61 21 R 60 20 R 59 20 R
59 19 R 57 19 R 56 19 R 56 18 R 54 18 R 54 17 R 54 17 R 52 17 R 52 17 R
51 16 R 50 16 R 50 15 R 49 16 R 48 15 R 48 14 R 47 15 R 47 14 R 46 14 R
45 14 R 45 13 R 44 14 R 44 13 R 44 13 R 43 12 R 42 13 R 42 12 R 41 12 R
41 12 R 41 12 R 40 11 R 40 12 R 39 11 R 39 11 R 38 11 R 38 11 R D L3
0.000 0.549 0.000 setrgbcolor 2886 5540 M 74 56 R 673 483 R 570 393 R
494 328 R 438 280 R 391 243 R 355 214 R 323 190 R 299 169 R 276 154 R
257 139 R 241 128 R 226 117 R 213 108 R 202 101 R 192 93 R 182 88 R 174 81 R
166 77 R 159 73 R 153 68 R 147 65 R 141 61 R 136 59 R 131 55 R 127 53 R
123 51 R 119 48 R 115 47 R 112 44 R 108 43 R 106 41 R 102 39 R 100 38 R
97 37 R 95 35 R 93 34 R 90 33 R 88 32 R 86 31 R 84 30 R 83 29 R 80 28 R
79 28 R 77 26 R 76 26 R 74 25 R 73 25 R 72 23 R 70 24 R 68 22 R 68 22 R
66 22 R 65 21 R 65 20 R 63 20 R 61 20 R 61 19 R 60 19 R 59 18 R 59 18 R
57 17 R 56 17 R 56 17 R 54 17 R 54 16 R 54 16 R 52 15 R 52 16 R 51 14 R
50 15 R 50 15 R 49 14 R 48 14 R 48 13 R 47 14 R 47 13 R 46 13 R 45 13 R
45 12 R 44 12 R 44 13 R 44 11 R 43 12 R 42 12 R 42 11 R 41 11 R 41 12 R
41 10 R 40 11 R 40 11 R 39 10 R 39 10 R 38 11 R 38 10 R D L4
0.000 0.514 1.000 setrgbcolor 2886 5834 M 74 54 R 673 463 R 570 376 R
494 314 R 438 266 R 391 231 R 355 202 R 323 180 R 299 160 R 276 145 R
257 132 R 241 120 R 226 110 R 213 102 R 202 95 R 192 87 R 182 82 R 174 77 R
166 72 R 159 68 R 153 65 R 147 60 R 141 58 R 136 55 R 131 52 R 127 49 R
123 48 R 119 45 R 115 43 R 112 42 R 108 40 R 106 38 R 102 37 R 100 36 R
97 34 R 95 33 R 93 32 R 90 31 R 88 30 R 86 29 R 84 28 R 83 27 R 80 27 R
79 25 R 77 25 R 76 25 R 74 23 R 73 23 R 72 22 R 70 22 R 68 21 R 68 21 R
66 20 R 65 20 R 65 19 R 63 19 R 61 18 R 61 18 R 60 18 R 59 17 R 59 16 R
57 17 R 56 16 R 56 16 R 54 15 R 54 15 R 54 15 R 52 15 R 52 14 R 51 14 R
50 14 R 50 13 R 49 14 R 48 13 R 48 13 R 47 12 R 47 13 R 46 12 R 45 12 R
45 12 R 44 11 R 44 12 R 44 11 R 43 11 R 42 11 R 42 10 R 41 11 R 41 10 R
41 11 R 40 10 R 40 10 R 39 9 R 39 10 R 38 10 R 38 9 R D L5
0.000 0.000 1.000 setrgbcolor 2886 6079 M 74 52 R 673 446 R 570 361 R
494 300 R 438 255 R 391 221 R 355 193 R 323 170 R 299 153 R 276 138 R
257 124 R 241 114 R 226 105 R 213 97 R 202 89 R 192 83 R 182 78 R 174 73 R
166 68 R 159 64 R 153 61 R 147 57 R 141 55 R 136 52 R 131 49 R 127 47 R
123 45 R 119 42 R 115 41 R 112 40 R 108 38 R 106 36 R 102 35 R 100 33 R
97 33 R 95 31 R 93 30 R 90 30 R 88 28 R 86 27 R 84 27 R 83 26 R 80 25 R
79 24 R 77 23 R 76 23 R 74 23 R 73 21 R 72 21 R 70 21 R 68 20 R 68 20 R
66 19 R 65 18 R 65 19 R 63 17 R 61 18 R 61 17 R 60 16 R 59 17 R 59 16 R
57 15 R 56 15 R 56 15 R 54 15 R 54 14 R 54 14 R 52 14 R 52 14 R 51 13 R
50 13 R 50 13 R 49 13 R 48 12 R 48 12 R 47 12 R 47 12 R 46 11 R 45 12 R
45 11 R 44 11 R 44 11 R 44 10 R 43 11 R 42 10 R 42 10 R 41 10 R 41 10 R
41 10 R 40 10 R 40 9 R 39 9 R 39 10 R 38 9 R 38 9 R D L0
0.588 0.000 0.588 setrgbcolor 2886 6287 M 74 51 R D L0 2960 6338 M 673 431 R
D L0 3633 6769 M 570 347 R D L0 4203 7116 M 494 289 R D L0 4697 7405 M
438 245 R D L0 5135 7650 M 391 211 R D L0 5526 7861 M 355 184 R D L0
5881 8045 M 323 164 R D L0 6204 8209 M 299 146 R D L0 6503 8355 M 276 131 R
D L0 6779 8486 M 257 119 R D L0 7036 8605 M 241 109 R D L0 7277 8714 M
226 100 R D L0 7503 8814 M 213 92 R D L0 7716 8906 M 202 85 R D L0
7918 8991 M 192 79 R D L0 8110 9070 M 182 74 R D L0 8292 9144 M 174 69 R D
L0 8466 9213 M 166 66 R D L0 8632 9279 M 159 61 R D L0 8791 9340 M 153 58 R
D L0 8944 9398 M 147 54 R D L0 9091 9452 M 141 52 R D L0 9232 9504 M
136 49 R D L0 9368 9553 M 131 47 R D L0 9499 9600 M 127 45 R D L0
9626 9645 M 123 43 R D L0 9749 9688 M 119 40 R D L0 9868 9728 M 115 40 R D
L0 9983 9768 M 112 37 R D L0 10095 9805 M 108 36 R D L0 10203 9841 M
106 35 R D L0 10309 9876 M 102 33 R D L0 10411 9909 M 100 32 R D L0
10511 9941 M 97 31 R D L0 10608 9972 M 95 30 R D L0 10703 10002 M 93 28 R D
L0 10796 10030 M 90 28 R D L0 10886 10058 M 88 27 R D L0 10974 10085 M
86 26 R D L0 11060 10111 M 84 26 R D L0 11144 10137 M 83 24 R D L0
11227 10161 M 80 24 R D L0 11307 10185 M 79 23 R D L0 11386 10208 M 77 23 R
D L0 11463 10231 M 76 21 R D L0 11539 10252 M 74 22 R D L0 11613 10274 M
73 20 R D L0 11686 10294 M 72 20 R D L0 11758 10314 M 70 20 R D L0
11828 10334 M 68 19 R D L0 11896 10353 M 68 19 R D L0 11964 10372 M 66 18 R
D L0 12030 10390 M 65 18 R D L0 12095 10408 M 65 17 R D L0 12160 10425 M
63 17 R D L0 12223 10442 M 61 17 R D L0 12284 10459 M 61 16 R D L0
12345 10475 M 60 16 R D L0 12405 10491 M 59 15 R D L0 12464 10506 M 59 16 R
D L0 12523 10522 M 57 14 R D L0 12580 10536 M 56 15 R D L0 12636 10551 M
56 14 R D L0 12692 10565 M 54 14 R D L0 12746 10579 M 54 14 R D L0
12800 10593 M 54 13 R D L0 12854 10606 M 52 14 R D L0 12906 10620 M 52 13 R
D L0 12958 10633 M 51 12 R D L0 13009 10645 M 50 13 R D L0 13059 10658 M
50 12 R D L0 13109 10670 M 49 12 R D L0 13158 10682 M 48 12 R D L0
13206 10694 M 48 11 R D L0 13254 10705 M 47 12 R D L0 13301 10717 M 47 11 R
D L0 13348 10728 M 46 11 R D L0 13394 10739 M 45 11 R D L0 13439 10750 M
45 11 R D L0 13484 10761 M 44 10 R D L0 13528 10771 M 44 11 R D L0
13572 10782 M 44 10 R D L0 13616 10792 M 43 10 R D L0 13659 10802 M 42 10 R
D L0 13701 10812 M 42 9 R D L0 13743 10821 M 41 10 R D L0 13784 10831 M
41 9 R D L0 13825 10840 M 41 10 R D L0 13866 10850 M 40 9 R D L0
13906 10859 M 40 9 R D L0 13946 10868 M 39 9 R D L0 13985 10877 M 39 9 R D
L0 14024 10886 M 38 8 R D L0 14062 10894 M 38 9 R D 10 setlinewidth
0.000 0.000 0.000 setrgbcolor 2886 4853 M 74 60 R 673 522 R 570 428 R
494 361 R 438 310 R 391 270 R 355 238 R 323 213 R 299 191 R 276 173 R
257 157 R 241 145 R 226 133 R 213 124 R 202 114 R 192 107 R 182 100 R
174 94 R 166 88 R 159 83 R 153 79 R 147 75 R 141 70 R 136 68 R 131 64 R
127 61 R 123 58 R 119 56 R 115 54 R 112 51 R 108 49 R 106 48 R 102 45 R
100 44 R 97 43 R 95 41 R 93 39 R 90 39 R 88 37 R 86 35 R 84 35 R 83 34 R
80 32 R 79 32 R 77 31 R 76 30 R 74 29 R 73 28 R 72 28 R 70 27 R 68 26 R
68 26 R 66 25 R 65 24 R 65 24 R 63 23 R 61 23 R 61 22 R 60 21 R 59 22 R
59 20 R 57 21 R 56 20 R 56 19 R 54 19 R 54 19 R 54 18 R 52 18 R 52 18 R
51 17 R 50 17 R 50 17 R 49 16 R 48 16 R 48 16 R 47 15 R 47 16 R 46 15 R
45 14 R 45 15 R 44 14 R 44 14 R 44 14 R 43 14 R 42 13 R 42 13 R 41 13 R
41 13 R 41 12 R 40 13 R 40 12 R 39 12 R 39 12 R 38 12 R 38 11 R D
%%PageTrailer
end
%%PageResources: font Helvetica
%%Trailer
%%Pages: 1
%%DocumentNeededResources: font Helvetica
%%EOF
