%!PS-Adobe-3.0 EPSF-3.0
%%BoundingBox: 0 0 283 226
%%Title: Graphics produced by IDL
%%For: dacia@Lserver, /home/dacia/work/subhalo_model
%%Creator: IDL Version 7.0 (linux x86_64 m64)
%%CreationDate: Mon Jan 25 17:17:55 2010
%%DocumentData: Clean7bit
%%Requirements: color
%%LanguageLevel: 1
%%PageOrder: Ascend
%%Pages: (atend)
%%DocumentNeededResources: (atend)
%%EndComments
%%BeginProlog
%+ prolog.ps -- Prolog for IDL generated PostScript files
%+ Copyright (c) 1988-2007 ITT Visual Information Solutions. All Rights Reserved.
%v 5
/$IDL_DICT 40 dict def $IDL_DICT begin /bdef { bind def } bind def /C
{currentpoint newpath moveto} bdef /CP {currentpoint} bdef /D {currentpoint
stroke moveto} bdef /F {closepath fill} bdef /K { setgray } bdef /M {moveto}
bdef /N {rmoveto} bdef /P {lineto} bdef /R {rlineto} bdef /S {gsave show
grestore} bdef /X {currentpoint pop} bdef /Z {gsave currentpoint lineto 20
setlinewidth 1 setlinecap stroke grestore} bdef /L0 {[] 0 setdash} bdef /L1
{[40 100] 0 setdash} bdef /L2 {[200 200] 0 setdash} bdef /L3 {[200 100 50
100] 0 setdash} bdef /L4 {[300 100 50 100 50 100 50 100] 0 setdash} bdef /L5
{[400 200] 0 setdash} bdef /STDFONT { findfont exch scalefont setfont } bdef
/ISOFONT { findfont dup length dict begin { 1 index /FID ne {def} {pop pop}
ifelse } forall /Encoding ISOLatin1Encoding def currentdict end /idltmpfont
exch definefont exch scalefont setfont } bdef /ISOBULLET { gsave /Helvetica
findfont exch scalefont setfont (\267) show currentpoint grestore moveto}
bdef /MITERLIMIT { 2.5 setmiterlimit } bdef end
%%EndProlog
%%Page: 0 1
%%PageRequirements: color
%%PageResources: (atend)
%%PageOrientation: Portrait
%%PageBoundingBox: 0 0 283 226
%%BeginPageSetup
$IDL_DICT begin 0.0283465 dup scale MITERLIMIT
%%IncludeResource: font Helvetica
423.333 /Helvetica STDFONT
%%EndPageSetup
40 setlinewidth L0 0.000 0.000 0.000 setrgbcolor 2100 1360 M 7500 0 R D
3835 1360 M 0 256 R D gsave 3835 721 translate 0 0 M 1.21 dup scale
-294.217 0 N
(0.1) show grestore 9600 1360 M 0 256 R D gsave 9600 721 translate 0 0 M
1.21 dup scale -294.217 0 N
(1.0) show grestore 2100 1360 M 0 128 R D 2556 1360 M 0 128 R D 2942 1360 M
0 128 R D 3277 1360 M 0 128 R D 3572 1360 M 0 128 R D 5571 1360 M 0 128 R D
6586 1360 M 0 128 R D 7306 1360 M 0 128 R D 7865 1360 M 0 128 R D
8321 1360 M 0 128 R D 8707 1360 M 0 128 R D 9041 1360 M 0 128 R D
9336 1360 M 0 128 R D gsave 5850 167 translate 0 0 M 1.21 dup scale
-420.603 0 N
(r/R) show X -101.051 M
%%IncludeResource: font Helvetica
262.467 /Helvetica STDFONT
(vir) show grestore
%%IncludeResource: font Helvetica
423.333 /Helvetica STDFONT 2100 7760 M 7500 0 R D 3835 7760 M 0 -256 R D
9600 7760 M 0 -256 R D 2100 7760 M 0 -128 R D 2556 7760 M 0 -128 R D
2942 7760 M 0 -128 R D 3277 7760 M 0 -128 R D 3572 7760 M 0 -128 R D
5571 7760 M 0 -128 R D 6586 7760 M 0 -128 R D 7306 7760 M 0 -128 R D
7865 7760 M 0 -128 R D 8321 7760 M 0 -128 R D 8707 7760 M 0 -128 R D
9041 7760 M 0 -128 R D 9336 7760 M 0 -128 R D 2100 1360 M 0 6400 R D
2100 2665 M 300 0 R D gsave 1966 2495 translate 0 0 M 1.21 dup scale
-823.807 0 N
(0.01) show grestore 2100 5161 M 300 0 R D gsave 1966 4990 translate 0 0 M
1.21 dup scale -823.807 0 N
(0.10) show grestore 2100 7657 M 300 0 R D gsave 1966 7462 translate 0 0 M
1.21 dup scale -823.807 0 N
(1.00) show grestore 2100 1360 M 150 0 R D 2100 1672 M 150 0 R D 2100 1914 M
150 0 R D 2100 2111 M 150 0 R D 2100 2278 M 150 0 R D 2100 2423 M 150 0 R D
2100 2551 M 150 0 R D 2100 3416 M 150 0 R D 2100 3856 M 150 0 R D
2100 4168 M 150 0 R D 2100 4410 M 150 0 R D 2100 4607 M 150 0 R D
2100 4774 M 150 0 R D 2100 4919 M 150 0 R D 2100 5047 M 150 0 R D
2100 5912 M 150 0 R D 2100 6352 M 150 0 R D 2100 6663 M 150 0 R D
2100 6905 M 150 0 R D 2100 7103 M 150 0 R D 2100 7270 M 150 0 R D
2100 7415 M 150 0 R D 2100 7542 M 150 0 R D gsave 567 4560 translate 0 0 M
90 rotate 1.21 dup scale -1255.42 0 N
(N\(<r\)/N\(<R) show X -101.051 M
%%IncludeResource: font Helvetica
262.467 /Helvetica STDFONT
(vir) show X 0 M
%%IncludeResource: font Helvetica
423.333 /Helvetica STDFONT
(\)) show grestore 9600 1360 M 0 6400 R D 9600 2665 M -300 0 R D 9600 5161 M
-300 0 R D 9600 7657 M -300 0 R D 9600 1360 M -150 0 R D 9600 1672 M
-150 0 R D 9600 1914 M -150 0 R D 9600 2111 M -150 0 R D 9600 2278 M
-150 0 R D 9600 2423 M -150 0 R D 9600 2551 M -150 0 R D 9600 3416 M
-150 0 R D 9600 3856 M -150 0 R D 9600 4168 M -150 0 R D 9600 4410 M
-150 0 R D 9600 4607 M -150 0 R D 9600 4774 M -150 0 R D 9600 4919 M
-150 0 R D 9600 5047 M -150 0 R D 9600 5912 M -150 0 R D 9600 6352 M
-150 0 R D 9600 6663 M -150 0 R D 9600 6905 M -150 0 R D 9600 7103 M
-150 0 R D 9600 7270 M -150 0 R D 9600 7415 M -150 0 R D 9600 7542 M
-150 0 R D 2099 3692 M 1096 865 R 1281 842 R 1281 719 R 1281 656 R
1281 512 R 1280 370 R D 3195 5169 M 111 0 R 0 -222 R -222 0 R 0 222 R
222 0 R D 4476 5920 M 111 0 R 0 -222 R -222 0 R 0 222 R 222 0 R D
5757 6913 M 111 0 R 0 -222 R -222 0 R 0 222 R 222 0 R D 7038 7353 M 111 0 R
0 -222 R -222 0 R 0 222 R 222 0 R D 8319 7609 M 111 0 R 0 -222 R -222 0 R
0 222 R 222 0 R D 9599 7546 M -110 0 R 0 214 R D 30 setlinewidth 2247 1360 M
948 1544 R 1281 1468 R 1281 1225 R 1281 893 R 1281 652 R 1280 514 R D
2115 1360 M 1080 1213 R 1281 1351 R 1281 1229 R 1281 1064 R 1281 850 R
1280 589 R D 2235 1467 M 0 33 R D 2395 1751 M 0 -69 R D 2555 2013 M 0 -150 R
D 2715 2257 M 0 -214 R D 2875 2484 M 0 -263 R D 3035 2699 M 0 -301 R D
3195 2904 M 0 -331 R D 3355 3099 M 0 -353 R D 3516 3288 M 0 -370 R D
3677 3474 M 0 -385 R D 3837 3658 M 0 -399 R D 3997 3839 M 0 -412 R D
4156 4018 M 0 -424 R D 4316 4196 M 0 -436 R D 4476 4372 M 0 -448 R D
4636 4545 M 0 -458 R D 4796 4714 M 0 -467 R D 4956 4876 M 0 -471 R D
5116 5032 M 0 -472 R D 5276 5182 M 0 -470 R D 5436 5325 M 0 -464 R D
5596 5463 M 0 -455 R D 5757 5597 M 0 -444 R D 5918 5726 M 0 -430 R D
6080 5850 M 0 -414 R D 6241 5969 M 0 -396 R D 6401 6083 M 0 -376 R D
6561 6191 M 0 -353 R D 6721 6295 M 0 -329 R D 6879 6394 M 0 -301 R D
7038 6490 M 0 -273 R D 7196 6582 M 0 -243 R D 7355 6671 M 0 -213 R D
7514 6756 M 0 -184 R D 7673 6838 M 0 -157 R D 7833 6918 M 0 -133 R D
7993 6995 M 0 -112 R D 8155 7069 M 0 -92 R D 8319 7142 M 0 -75 R D
8484 7213 M 0 -62 R D 8649 7282 M 0 -49 R D 8814 7348 M 0 -38 R D
8976 7414 M 0 -30 R D 9136 7477 M 0 -21 R D 9294 7538 M 0 -13 R D
9448 7598 M 0 -6 R D 40 setlinewidth 7698 3079 M 111 0 R 0 -222 R -222 0 R
0 222 R 222 0 R -111 0 R D 7809 3079 M 0 -222 R -222 0 R 0 222 R 222 0 R D
gsave 8039 2818 translate 0 0 M 1.1 dup scale
(MW) show grestore 7220 2514 M 82 0 R 82 0 R 82 0 R 81 0 R 82 0 R 82 0 R
82 0 R 82 0 R 82 0 R D gsave 8039 2364 translate 0 0 M 1.1 dup scale
(M1) show grestore 30 setlinewidth 7220 2173 M 68 0 R 68 0 R 69 0 R 68 0 R
68 0 R 68 0 R 69 0 R 68 0 R 68 0 R 68 0 R 69 0 R D 7220 1833 M 68 0 R 68 0 R
69 0 R 68 0 R 68 0 R 68 0 R 69 0 R 68 0 R 68 0 R 68 0 R 69 0 R D 7220 2173 M
0 -340 R D 7302 2173 M 0 -340 R D 7384 2173 M 0 -340 R D 7466 2173 M
0 -340 R D 7547 2173 M 0 -340 R D 7629 2173 M 0 -340 R D 7711 2173 M
0 -340 R D 7793 2173 M 0 -340 R D 7875 2173 M 0 -340 R D 7957 2173 M
0 -340 R D gsave 8039 1833 translate 0 0 M 1.1 dup scale
(SIM) show grestore
%%PageTrailer
end
%%PageResources: font Helvetica
%%Trailer
%%Pages: 1
%%DocumentNeededResources: font Helvetica
%%EOF
