%!PS-Adobe-3.0 EPSF-3.0
%%BoundingBox: 0 0 510 325
%%Title: Graphics produced by IDL
%%For: dacia@JiangHu, /home/dacia/work/subhalo_model
%%Creator: IDL Version 7.0 (linux x86_64 m64)
%%CreationDate: Tue Nov  3 14:36:54 2009
%%DocumentData: Clean7bit
%%Requirements: color
%%LanguageLevel: 1
%%PageOrder: Ascend
%%Pages: (atend)
%%DocumentNeededResources: (atend)
%%EndComments
%%BeginProlog
%+ prolog.ps -- Prolog for IDL generated PostScript files
%+ Copyright (c) 1988-2007 ITT Visual Information Solutions. All Rights Reserved.
%v 5
/$IDL_DICT 40 dict def $IDL_DICT begin /bdef { bind def } bind def /C
{currentpoint newpath moveto} bdef /CP {currentpoint} bdef /D {currentpoint
stroke moveto} bdef /F {closepath fill} bdef /K { setgray } bdef /M {moveto}
bdef /N {rmoveto} bdef /P {lineto} bdef /R {rlineto} bdef /S {gsave show
grestore} bdef /X {currentpoint pop} bdef /Z {gsave currentpoint lineto 20
setlinewidth 1 setlinecap stroke grestore} bdef /L0 {[] 0 setdash} bdef /L1
{[40 100] 0 setdash} bdef /L2 {[200 200] 0 setdash} bdef /L3 {[200 100 50
100] 0 setdash} bdef /L4 {[300 100 50 100 50 100 50 100] 0 setdash} bdef /L5
{[400 200] 0 setdash} bdef /STDFONT { findfont exch scalefont setfont } bdef
/ISOFONT { findfont dup length dict begin { 1 index /FID ne {def} {pop pop}
ifelse } forall /Encoding ISOLatin1Encoding def currentdict end /idltmpfont
exch definefont exch scalefont setfont } bdef /ISOBULLET { gsave /Helvetica
findfont exch scalefont setfont (\267) show currentpoint grestore moveto}
bdef /MITERLIMIT { 2.5 setmiterlimit } bdef end
%%EndProlog
%%Page: 0 1
%%PageRequirements: color
%%PageResources: (atend)
%%PageOrientation: Portrait
%%PageBoundingBox: 0 0 510 325
%%BeginPageSetup
$IDL_DICT begin 0.0283465 dup scale MITERLIMIT
%%IncludeResource: font Helvetica
423.333 /Helvetica STDFONT
%%EndPageSetup
0.000 0.000 0.000 setrgbcolor gsave 9777 176 translate 0 0 M 1.2 dup scale
-420.603 0 N
(r/R) show X -101.051 M
%%IncludeResource: font Helvetica
262.467 /Helvetica STDFONT
(vir) show grestore
%%IncludeResource: font Helvetica
423.333 /Helvetica STDFONT gsave 555 6102 translate 0 0 M 90 rotate
1.2 dup scale -1255.42 0 N
(N\(<r\)/N\(<R) show X -101.051 M
%%IncludeResource: font Helvetica
262.467 /Helvetica STDFONT
(vir) show X 0 M
%%IncludeResource: font Helvetica
423.333 /Helvetica STDFONT
(\)) show grestore 40 setlinewidth L0 2220 6102 M 5038 0 R D 3386 6102 M
0 188 R D gsave 3386 5342 translate 0 0 M 1.44 dup scale -58.8433 0 N
( ) show grestore 7258 6102 M 0 188 R D gsave 7258 5342 translate 0 0 M
1.44 dup scale -58.8433 0 N
( ) show grestore 2220 6102 M 0 94 R D 2527 6102 M 0 94 R D 2786 6102 M
0 94 R D 3011 6102 M 0 94 R D 3209 6102 M 0 94 R D 4551 6102 M 0 94 R D
5233 6102 M 0 94 R D 5717 6102 M 0 94 R D 6092 6102 M 0 94 R D 6399 6102 M
0 94 R D 6658 6102 M 0 94 R D 6883 6102 M 0 94 R D 7081 6102 M 0 94 R D
2220 10796 M 5038 0 R D 3386 10796 M 0 -188 R D 7258 10796 M 0 -188 R D
2220 10796 M 0 -94 R D 2527 10796 M 0 -94 R D 2786 10796 M 0 -94 R D
3011 10796 M 0 -94 R D 3209 10796 M 0 -94 R D 4551 10796 M 0 -94 R D
5233 10796 M 0 -94 R D 5717 10796 M 0 -94 R D 6092 10796 M 0 -94 R D
6399 10796 M 0 -94 R D 6658 10796 M 0 -94 R D 6883 10796 M 0 -94 R D
7081 10796 M 0 -94 R D 2220 6102 M 0 4694 R D 2220 7059 M 202 0 R D
gsave 2060 6856 translate 0 0 M 1.44 dup scale -823.807 0 N
(0.01) show grestore 2220 8890 M 202 0 R D gsave 2060 8687 translate 0 0 M
1.44 dup scale -823.807 0 N
(0.10) show grestore 2220 10720 M 202 0 R D gsave 2060 10441 translate 0 0 M
1.44 dup scale -823.807 0 N
(1.00) show grestore 2220 6102 M 101 0 R D 2220 6331 M 101 0 R D 2220 6508 M
101 0 R D 2220 6653 M 101 0 R D 2220 6776 M 101 0 R D 2220 6882 M 101 0 R D
2220 6975 M 101 0 R D 2220 7610 M 101 0 R D 2220 7933 M 101 0 R D
2220 8161 M 101 0 R D 2220 8339 M 101 0 R D 2220 8484 M 101 0 R D
2220 8606 M 101 0 R D 2220 8712 M 101 0 R D 2220 8806 M 101 0 R D
2220 9441 M 101 0 R D 2220 9763 M 101 0 R D 2220 9992 M 101 0 R D
2220 10169 M 101 0 R D 2220 10314 M 101 0 R D 2220 10437 M 101 0 R D
2220 10543 M 101 0 R D 2220 10637 M 101 0 R D 7258 6102 M 0 4694 R D
7258 7059 M -201 0 R D 7258 8890 M -201 0 R D 7258 10720 M -201 0 R D
7258 6102 M -101 0 R D 7258 6331 M -101 0 R D 7258 6508 M -101 0 R D
7258 6653 M -101 0 R D 7258 6776 M -101 0 R D 7258 6882 M -101 0 R D
7258 6975 M -101 0 R D 7258 7610 M -101 0 R D 7258 7933 M -101 0 R D
7258 8161 M -101 0 R D 7258 8339 M -101 0 R D 7258 8484 M -101 0 R D
7258 8606 M -101 0 R D 7258 8712 M -101 0 R D 7258 8806 M -101 0 R D
7258 9441 M -101 0 R D 7258 9763 M -101 0 R D 7258 9992 M -101 0 R D
7258 10169 M -101 0 R D 7258 10314 M -101 0 R D 7258 10437 M -101 0 R D
7258 10543 M -101 0 R D 7258 10637 M -101 0 R D
0.000 0.514 1.000 setrgbcolor 2365 6102 M 591 977 R 860 780 R 861 1162 R
860 669 R 861 525 R 860 505 R D 0.000 0.000 0.000 setrgbcolor 2220 7025 M
736 801 R 860 874 R 861 677 R 860 560 R 861 444 R 860 339 R D L1
0.000 0.514 1.000 setrgbcolor 4677 9296 M 860 0 R 861 551 R 860 873 R D
0.000 0.000 0.000 setrgbcolor 2956 6570 M 860 874 R 861 1296 R 860 694 R
861 728 R 860 558 R D L2 3816 7117 M 861 1279 R 860 1178 R 861 569 R
860 577 R D L0 0.000 0.514 1.000 setrgbcolor 4235 7276 M 66 0 R 65 0 R
66 0 R 65 0 R 66 0 R 65 0 R 66 0 R 65 0 R 66 0 R D L1 4235 6712 M 66 0 R
65 0 R 66 0 R 65 0 R 66 0 R 65 0 R 66 0 R 65 0 R 66 0 R D
gsave 4890 7189 translate 0 0 M 1.2 dup scale
([10) show X 192.937 M
%%IncludeResource: font Helvetica
262.467 /Helvetica STDFONT
(-5) show X 0 M
%%IncludeResource: font Helvetica
423.333 /Helvetica STDFONT
(,10) show X 192.937 M
%%IncludeResource: font Helvetica
262.467 /Helvetica STDFONT
(-4) show X 0 M
%%IncludeResource: font Helvetica
423.333 /Helvetica STDFONT
(]) show grestore gsave 4890 6626 translate 0 0 M 1.2 dup scale
([10) show X 192.937 M
%%IncludeResource: font Helvetica
262.467 /Helvetica STDFONT
(-3) show X 0 M
%%IncludeResource: font Helvetica
423.333 /Helvetica STDFONT
(,10) show X 192.937 M
%%IncludeResource: font Helvetica
262.467 /Helvetica STDFONT
(-2) show X 0 M
%%IncludeResource: font Helvetica
423.333 /Helvetica STDFONT
(]) show grestore gsave 6956 7698 translate 0 0 M 1.1 dup scale -2000.25 0 N
(Via Lactea) show grestore L0 0.000 0.000 0.000 setrgbcolor 7258 6102 M
5038 0 R D 8424 6102 M 0 188 R D gsave 8424 5342 translate 0 0 M
1.44 dup scale -58.8433 0 N
( ) show grestore 12296 6102 M 0 188 R D gsave 12296 5342 translate 0 0 M
1.44 dup scale -58.8433 0 N
( ) show grestore 7258 6102 M 0 94 R D 7565 6102 M 0 94 R D 7824 6102 M
0 94 R D 8049 6102 M 0 94 R D 8247 6102 M 0 94 R D 9589 6102 M 0 94 R D
10271 6102 M 0 94 R D 10755 6102 M 0 94 R D 11130 6102 M 0 94 R D
11437 6102 M 0 94 R D 11696 6102 M 0 94 R D 11921 6102 M 0 94 R D
12119 6102 M 0 94 R D 7258 10796 M 5038 0 R D 8424 10796 M 0 -188 R D
12296 10796 M 0 -188 R D 7258 10796 M 0 -94 R D 7565 10796 M 0 -94 R D
7824 10796 M 0 -94 R D 8049 10796 M 0 -94 R D 8247 10796 M 0 -94 R D
9589 10796 M 0 -94 R D 10271 10796 M 0 -94 R D 10755 10796 M 0 -94 R D
11130 10796 M 0 -94 R D 11437 10796 M 0 -94 R D 11696 10796 M 0 -94 R D
11921 10796 M 0 -94 R D 12119 10796 M 0 -94 R D 7258 6102 M 0 4694 R D
7258 7059 M 202 0 R D gsave 7098 6856 translate 0 0 M 1.44 dup scale
-117.687 0 N
( ) show grestore 7258 8890 M 202 0 R D gsave 7098 8687 translate 0 0 M
1.44 dup scale -117.687 0 N
( ) show grestore 7258 10720 M 202 0 R D gsave 7098 10441 translate 0 0 M
1.44 dup scale -117.687 0 N
( ) show grestore 7258 6102 M 101 0 R D 7258 6331 M 101 0 R D 7258 6508 M
101 0 R D 7258 6653 M 101 0 R D 7258 6776 M 101 0 R D 7258 6882 M 101 0 R D
7258 6975 M 101 0 R D 7258 7610 M 101 0 R D 7258 7933 M 101 0 R D
7258 8161 M 101 0 R D 7258 8339 M 101 0 R D 7258 8484 M 101 0 R D
7258 8606 M 101 0 R D 7258 8712 M 101 0 R D 7258 8806 M 101 0 R D
7258 9441 M 101 0 R D 7258 9763 M 101 0 R D 7258 9992 M 101 0 R D
7258 10169 M 101 0 R D 7258 10314 M 101 0 R D 7258 10437 M 101 0 R D
7258 10543 M 101 0 R D 7258 10637 M 101 0 R D 12296 6102 M 0 4694 R D
12296 7059 M -201 0 R D 12296 8890 M -201 0 R D 12296 10720 M -201 0 R D
12296 6102 M -101 0 R D 12296 6331 M -101 0 R D 12296 6508 M -101 0 R D
12296 6653 M -101 0 R D 12296 6776 M -101 0 R D 12296 6882 M -101 0 R D
12296 6975 M -101 0 R D 12296 7610 M -101 0 R D 12296 7933 M -101 0 R D
12296 8161 M -101 0 R D 12296 8339 M -101 0 R D 12296 8484 M -101 0 R D
12296 8606 M -101 0 R D 12296 8712 M -101 0 R D 12296 8806 M -101 0 R D
12296 9441 M -101 0 R D 12296 9763 M -101 0 R D 12296 9992 M -101 0 R D
12296 10169 M -101 0 R D 12296 10314 M -101 0 R D 12296 10437 M -101 0 R D
12296 10543 M -101 0 R D 12296 10637 M -101 0 R D 7258 8894 M 736 365 R
860 393 R 861 355 R 860 296 R 861 232 R 860 185 R D L1 7258 9027 M 736 397 R
860 347 R 861 324 R 860 260 R 861 207 R 860 158 R D L2 7258 9179 M 736 430 R
860 330 R 861 287 R 860 228 R 861 136 R 860 130 R D L0 12296 6102 M 5038 0 R
D 13462 6102 M 0 188 R D gsave 13462 5342 translate 0 0 M 1.44 dup scale
-58.8433 0 N
( ) show grestore 17334 6102 M 0 188 R D gsave 17334 5342 translate 0 0 M
1.44 dup scale -58.8433 0 N
( ) show grestore 12296 6102 M 0 94 R D 12603 6102 M 0 94 R D 12862 6102 M
0 94 R D 13087 6102 M 0 94 R D 13285 6102 M 0 94 R D 14627 6102 M 0 94 R D
15309 6102 M 0 94 R D 15793 6102 M 0 94 R D 16168 6102 M 0 94 R D
16475 6102 M 0 94 R D 16734 6102 M 0 94 R D 16959 6102 M 0 94 R D
17157 6102 M 0 94 R D 12296 10796 M 5038 0 R D 13462 10796 M 0 -188 R D
17334 10796 M 0 -188 R D 12296 10796 M 0 -94 R D 12603 10796 M 0 -94 R D
12862 10796 M 0 -94 R D 13087 10796 M 0 -94 R D 13285 10796 M 0 -94 R D
14627 10796 M 0 -94 R D 15309 10796 M 0 -94 R D 15793 10796 M 0 -94 R D
16168 10796 M 0 -94 R D 16475 10796 M 0 -94 R D 16734 10796 M 0 -94 R D
16959 10796 M 0 -94 R D 17157 10796 M 0 -94 R D 12296 6102 M 0 4694 R D
12296 7059 M 202 0 R D gsave 12136 6856 translate 0 0 M 1.44 dup scale
-117.687 0 N
( ) show grestore 12296 8890 M 202 0 R D gsave 12136 8687 translate 0 0 M
1.44 dup scale -117.687 0 N
( ) show grestore 12296 10720 M 202 0 R D gsave 12136 10441 translate 0 0 M
1.44 dup scale -117.687 0 N
( ) show grestore 12296 6102 M 101 0 R D 12296 6331 M 101 0 R D 12296 6508 M
101 0 R D 12296 6653 M 101 0 R D 12296 6776 M 101 0 R D 12296 6882 M 101 0 R
D 12296 6975 M 101 0 R D 12296 7610 M 101 0 R D 12296 7933 M 101 0 R D
12296 8161 M 101 0 R D 12296 8339 M 101 0 R D 12296 8484 M 101 0 R D
12296 8606 M 101 0 R D 12296 8712 M 101 0 R D 12296 8806 M 101 0 R D
12296 9441 M 101 0 R D 12296 9763 M 101 0 R D 12296 9992 M 101 0 R D
12296 10169 M 101 0 R D 12296 10314 M 101 0 R D 12296 10437 M 101 0 R D
12296 10543 M 101 0 R D 12296 10637 M 101 0 R D 17334 6102 M 0 4694 R D
17334 7059 M -201 0 R D 17334 8890 M -201 0 R D 17334 10720 M -201 0 R D
17334 6102 M -101 0 R D 17334 6331 M -101 0 R D 17334 6508 M -101 0 R D
17334 6653 M -101 0 R D 17334 6776 M -101 0 R D 17334 6882 M -101 0 R D
17334 6975 M -101 0 R D 17334 7610 M -101 0 R D 17334 7933 M -101 0 R D
17334 8161 M -101 0 R D 17334 8339 M -101 0 R D 17334 8484 M -101 0 R D
17334 8606 M -101 0 R D 17334 8712 M -101 0 R D 17334 8806 M -101 0 R D
17334 9441 M -101 0 R D 17334 9763 M -101 0 R D 17334 9992 M -101 0 R D
17334 10169 M -101 0 R D 17334 10314 M -101 0 R D 17334 10437 M -101 0 R D
17334 10543 M -101 0 R D 17334 10637 M -101 0 R D 12296 8574 M 736 509 R
860 481 R 861 398 R 860 319 R 861 247 R 860 192 R D L1 12296 6441 M
736 736 R 860 855 R 861 766 R 860 723 R 861 683 R 860 516 R D
gsave 2520 10120 translate 0 0 M 1.2 dup scale
(M1) show grestore L0 2220 1408 M 5038 0 R D 3386 1408 M 0 188 R D
gsave 3386 648 translate 0 0 M 1.44 dup scale -294.217 0 N
(0.1) show grestore 7258 1408 M 0 188 R D gsave 7258 648 translate 0 0 M
1.44 dup scale -294.217 0 N
(1.0) show grestore 2220 1408 M 0 94 R D 2527 1408 M 0 94 R D 2786 1408 M
0 94 R D 3011 1408 M 0 94 R D 3209 1408 M 0 94 R D 4551 1408 M 0 94 R D
5233 1408 M 0 94 R D 5717 1408 M 0 94 R D 6092 1408 M 0 94 R D 6399 1408 M
0 94 R D 6658 1408 M 0 94 R D 6883 1408 M 0 94 R D 7081 1408 M 0 94 R D
2220 6102 M 5038 0 R D 3386 6102 M 0 -188 R D 7258 6102 M 0 -188 R D
2220 6102 M 0 -94 R D 2527 6102 M 0 -94 R D 2786 6102 M 0 -94 R D
3011 6102 M 0 -94 R D 3209 6102 M 0 -94 R D 4551 6102 M 0 -94 R D
5233 6102 M 0 -94 R D 5717 6102 M 0 -94 R D 6092 6102 M 0 -94 R D
6399 6102 M 0 -94 R D 6658 6102 M 0 -94 R D 6883 6102 M 0 -94 R D
7081 6102 M 0 -94 R D 2220 1408 M 0 4694 R D 2220 2365 M 202 0 R D
gsave 2060 2162 translate 0 0 M 1.44 dup scale -823.807 0 N
(0.01) show grestore 2220 4196 M 202 0 R D gsave 2060 3993 translate 0 0 M
1.44 dup scale -823.807 0 N
(0.10) show grestore 2220 6026 M 202 0 R D gsave 2060 5747 translate 0 0 M
1.44 dup scale -823.807 0 N
(1.00) show grestore 2220 1408 M 101 0 R D 2220 1637 M 101 0 R D 2220 1814 M
101 0 R D 2220 1959 M 101 0 R D 2220 2082 M 101 0 R D 2220 2188 M 101 0 R D
2220 2281 M 101 0 R D 2220 2916 M 101 0 R D 2220 3239 M 101 0 R D
2220 3467 M 101 0 R D 2220 3645 M 101 0 R D 2220 3790 M 101 0 R D
2220 3912 M 101 0 R D 2220 4018 M 101 0 R D 2220 4112 M 101 0 R D
2220 4747 M 101 0 R D 2220 5069 M 101 0 R D 2220 5298 M 101 0 R D
2220 5475 M 101 0 R D 2220 5620 M 101 0 R D 2220 5743 M 101 0 R D
2220 5849 M 101 0 R D 2220 5943 M 101 0 R D 7258 1408 M 0 4694 R D
7258 2365 M -201 0 R D 7258 4196 M -201 0 R D 7258 6026 M -201 0 R D
7258 1408 M -101 0 R D 7258 1637 M -101 0 R D 7258 1814 M -101 0 R D
7258 1959 M -101 0 R D 7258 2082 M -101 0 R D 7258 2188 M -101 0 R D
7258 2281 M -101 0 R D 7258 2916 M -101 0 R D 7258 3239 M -101 0 R D
7258 3467 M -101 0 R D 7258 3645 M -101 0 R D 7258 3790 M -101 0 R D
7258 3912 M -101 0 R D 7258 4018 M -101 0 R D 7258 4112 M -101 0 R D
7258 4747 M -101 0 R D 7258 5069 M -101 0 R D 7258 5298 M -101 0 R D
7258 5475 M -101 0 R D 7258 5620 M -101 0 R D 7258 5743 M -101 0 R D
7258 5849 M -101 0 R D 7258 5943 M -101 0 R D 0.000 0.514 1.000 setrgbcolor
2365 1408 M 591 977 R 860 780 R 861 1162 R 860 669 R 861 525 R 860 505 R D
0.000 0.000 0.000 setrgbcolor 2220 3813 M 736 494 R 860 482 R 861 416 R
860 342 R 861 262 R 860 217 R D L1 0.000 0.514 1.000 setrgbcolor 4677 4602 M
860 0 R 861 551 R 860 873 R D 0.000 0.000 0.000 setrgbcolor 2220 3236 M
736 424 R 860 445 R 861 551 R 860 531 R 861 435 R 860 404 R D L2 2220 3082 M
736 277 R 860 406 R 861 373 R 860 767 R 861 513 R 860 608 R D
gsave 4739 11040 translate 0 0 M 1.2 dup scale -1387.69 0 N
(m\(z=0\)/M\(z=0\)) show grestore L0 4235 3051 M 66 0 R 65 0 R 66 0 R 65 0 R
66 0 R 65 0 R 66 0 R 65 0 R 66 0 R D L1 4235 2488 M 66 0 R 65 0 R 66 0 R
65 0 R 66 0 R 65 0 R 66 0 R 65 0 R 66 0 R D L2 4235 1924 M 66 0 R 65 0 R
66 0 R 65 0 R 66 0 R 65 0 R 66 0 R 65 0 R 66 0 R D
gsave 4890 2965 translate 0 0 M 1.2 dup scale
([10) show X 192.937 M
%%IncludeResource: font Helvetica
262.467 /Helvetica STDFONT
(-5) show X 0 M
%%IncludeResource: font Helvetica
423.333 /Helvetica STDFONT
(,10) show X 192.937 M
%%IncludeResource: font Helvetica
262.467 /Helvetica STDFONT
(-4) show X 0 M
%%IncludeResource: font Helvetica
423.333 /Helvetica STDFONT
(]) show grestore gsave 4890 2401 translate 0 0 M 1.2 dup scale
([10) show X 192.937 M
%%IncludeResource: font Helvetica
262.467 /Helvetica STDFONT
(-3) show X 0 M
%%IncludeResource: font Helvetica
423.333 /Helvetica STDFONT
(,10) show X 192.937 M
%%IncludeResource: font Helvetica
262.467 /Helvetica STDFONT
(-2) show X 0 M
%%IncludeResource: font Helvetica
423.333 /Helvetica STDFONT
(]) show grestore gsave 4890 1838 translate 0 0 M 1.2 dup scale
([10) show X 192.937 M
%%IncludeResource: font Helvetica
262.467 /Helvetica STDFONT
(-2) show X 0 M
%%IncludeResource: font Helvetica
423.333 /Helvetica STDFONT
(,1]) show grestore L0 7258 1408 M 5038 0 R D 8424 1408 M 0 188 R D
gsave 8424 648 translate 0 0 M 1.44 dup scale -294.217 0 N
(0.1) show grestore 12296 1408 M 0 188 R D gsave 12296 648 translate 0 0 M
1.44 dup scale -294.217 0 N
(1.0) show grestore 7258 1408 M 0 94 R D 7565 1408 M 0 94 R D 7824 1408 M
0 94 R D 8049 1408 M 0 94 R D 8247 1408 M 0 94 R D 9589 1408 M 0 94 R D
10271 1408 M 0 94 R D 10755 1408 M 0 94 R D 11130 1408 M 0 94 R D
11437 1408 M 0 94 R D 11696 1408 M 0 94 R D 11921 1408 M 0 94 R D
12119 1408 M 0 94 R D 7258 6102 M 5038 0 R D 8424 6102 M 0 -188 R D
12296 6102 M 0 -188 R D 7258 6102 M 0 -94 R D 7565 6102 M 0 -94 R D
7824 6102 M 0 -94 R D 8049 6102 M 0 -94 R D 8247 6102 M 0 -94 R D
9589 6102 M 0 -94 R D 10271 6102 M 0 -94 R D 10755 6102 M 0 -94 R D
11130 6102 M 0 -94 R D 11437 6102 M 0 -94 R D 11696 6102 M 0 -94 R D
11921 6102 M 0 -94 R D 12119 6102 M 0 -94 R D 7258 1408 M 0 4694 R D
7258 2365 M 202 0 R D gsave 7098 2162 translate 0 0 M 1.44 dup scale
-117.687 0 N
( ) show grestore 7258 4196 M 202 0 R D gsave 7098 3993 translate 0 0 M
1.44 dup scale -117.687 0 N
( ) show grestore 7258 6026 M 202 0 R D gsave 7098 5747 translate 0 0 M
1.44 dup scale -117.687 0 N
( ) show grestore 7258 1408 M 101 0 R D 7258 1637 M 101 0 R D 7258 1814 M
101 0 R D 7258 1959 M 101 0 R D 7258 2082 M 101 0 R D 7258 2188 M 101 0 R D
7258 2281 M 101 0 R D 7258 2916 M 101 0 R D 7258 3239 M 101 0 R D
7258 3467 M 101 0 R D 7258 3645 M 101 0 R D 7258 3790 M 101 0 R D
7258 3912 M 101 0 R D 7258 4018 M 101 0 R D 7258 4112 M 101 0 R D
7258 4747 M 101 0 R D 7258 5069 M 101 0 R D 7258 5298 M 101 0 R D
7258 5475 M 101 0 R D 7258 5620 M 101 0 R D 7258 5743 M 101 0 R D
7258 5849 M 101 0 R D 7258 5943 M 101 0 R D 12296 1408 M 0 4694 R D
12296 2365 M -201 0 R D 12296 4196 M -201 0 R D 12296 6026 M -201 0 R D
12296 1408 M -101 0 R D 12296 1637 M -101 0 R D 12296 1814 M -101 0 R D
12296 1959 M -101 0 R D 12296 2082 M -101 0 R D 12296 2188 M -101 0 R D
12296 2281 M -101 0 R D 12296 2916 M -101 0 R D 12296 3239 M -101 0 R D
12296 3467 M -101 0 R D 12296 3645 M -101 0 R D 12296 3790 M -101 0 R D
12296 3912 M -101 0 R D 12296 4018 M -101 0 R D 12296 4112 M -101 0 R D
12296 4747 M -101 0 R D 12296 5069 M -101 0 R D 12296 5298 M -101 0 R D
12296 5475 M -101 0 R D 12296 5620 M -101 0 R D 12296 5743 M -101 0 R D
12296 5849 M -101 0 R D 12296 5943 M -101 0 R D 7258 3959 M 736 466 R
860 452 R 861 383 R 860 321 R 861 249 R 860 196 R D L1 7258 3881 M 736 458 R
860 489 R 861 432 R 860 308 R 861 262 R 860 196 R D L2 7258 3808 M 736 386 R
860 448 R 861 460 R 860 453 R 861 262 R 860 209 R D
gsave 9777 11040 translate 0 0 M 1.2 dup scale -1350.59 0 N
(m\(z) show X -101.051 M
%%IncludeResource: font Helvetica
262.467 /Helvetica STDFONT
(acc) show X 0 M
%%IncludeResource: font Helvetica
423.333 /Helvetica STDFONT
(\)/M\(z=0\)) show grestore L0 9273 3051 M 66 0 R 65 0 R 66 0 R 65 0 R
66 0 R 65 0 R 66 0 R 65 0 R 66 0 R D L1 9273 2488 M 66 0 R 65 0 R 66 0 R
65 0 R 66 0 R 65 0 R 66 0 R 65 0 R 66 0 R D L2 9273 1924 M 66 0 R 65 0 R
66 0 R 65 0 R 66 0 R 65 0 R 66 0 R 65 0 R 66 0 R D
gsave 9928 2965 translate 0 0 M 1.2 dup scale
([10) show X 192.937 M
%%IncludeResource: font Helvetica
262.467 /Helvetica STDFONT
(-4) show X 0 M
%%IncludeResource: font Helvetica
423.333 /Helvetica STDFONT
(,10) show X 192.937 M
%%IncludeResource: font Helvetica
262.467 /Helvetica STDFONT
(-3) show X 0 M
%%IncludeResource: font Helvetica
423.333 /Helvetica STDFONT
(]) show grestore gsave 9928 2401 translate 0 0 M 1.2 dup scale
([10) show X 192.937 M
%%IncludeResource: font Helvetica
262.467 /Helvetica STDFONT
(-3) show X 0 M
%%IncludeResource: font Helvetica
423.333 /Helvetica STDFONT
(,10) show X 192.937 M
%%IncludeResource: font Helvetica
262.467 /Helvetica STDFONT
(-2) show X 0 M
%%IncludeResource: font Helvetica
423.333 /Helvetica STDFONT
(]) show grestore gsave 9928 1838 translate 0 0 M 1.2 dup scale
([10) show X 192.937 M
%%IncludeResource: font Helvetica
262.467 /Helvetica STDFONT
(-2) show X 0 M
%%IncludeResource: font Helvetica
423.333 /Helvetica STDFONT
(,1]) show grestore L0 12296 1408 M 5038 0 R D 13462 1408 M 0 188 R D
gsave 13462 648 translate 0 0 M 1.44 dup scale -294.217 0 N
(0.1) show grestore 17334 1408 M 0 188 R D gsave 17334 648 translate 0 0 M
1.44 dup scale -294.217 0 N
(1.0) show grestore 12296 1408 M 0 94 R D 12603 1408 M 0 94 R D 12862 1408 M
0 94 R D 13087 1408 M 0 94 R D 13285 1408 M 0 94 R D 14627 1408 M 0 94 R D
15309 1408 M 0 94 R D 15793 1408 M 0 94 R D 16168 1408 M 0 94 R D
16475 1408 M 0 94 R D 16734 1408 M 0 94 R D 16959 1408 M 0 94 R D
17157 1408 M 0 94 R D 12296 6102 M 5038 0 R D 13462 6102 M 0 -188 R D
17334 6102 M 0 -188 R D 12296 6102 M 0 -94 R D 12603 6102 M 0 -94 R D
12862 6102 M 0 -94 R D 13087 6102 M 0 -94 R D 13285 6102 M 0 -94 R D
14627 6102 M 0 -94 R D 15309 6102 M 0 -94 R D 15793 6102 M 0 -94 R D
16168 6102 M 0 -94 R D 16475 6102 M 0 -94 R D 16734 6102 M 0 -94 R D
16959 6102 M 0 -94 R D 17157 6102 M 0 -94 R D 12296 1408 M 0 4694 R D
12296 2365 M 202 0 R D gsave 12136 2162 translate 0 0 M 1.44 dup scale
-117.687 0 N
( ) show grestore 12296 4196 M 202 0 R D gsave 12136 3993 translate 0 0 M
1.44 dup scale -117.687 0 N
( ) show grestore 12296 6026 M 202 0 R D gsave 12136 5747 translate 0 0 M
1.44 dup scale -117.687 0 N
( ) show grestore 12296 1408 M 101 0 R D 12296 1637 M 101 0 R D 12296 1814 M
101 0 R D 12296 1959 M 101 0 R D 12296 2082 M 101 0 R D 12296 2188 M 101 0 R
D 12296 2281 M 101 0 R D 12296 2916 M 101 0 R D 12296 3239 M 101 0 R D
12296 3467 M 101 0 R D 12296 3645 M 101 0 R D 12296 3790 M 101 0 R D
12296 3912 M 101 0 R D 12296 4018 M 101 0 R D 12296 4112 M 101 0 R D
12296 4747 M 101 0 R D 12296 5069 M 101 0 R D 12296 5298 M 101 0 R D
12296 5475 M 101 0 R D 12296 5620 M 101 0 R D 12296 5743 M 101 0 R D
12296 5849 M 101 0 R D 12296 5943 M 101 0 R D 17334 1408 M 0 4694 R D
17334 2365 M -201 0 R D 17334 4196 M -201 0 R D 17334 6026 M -201 0 R D
17334 1408 M -101 0 R D 17334 1637 M -101 0 R D 17334 1814 M -101 0 R D
17334 1959 M -101 0 R D 17334 2082 M -101 0 R D 17334 2188 M -101 0 R D
17334 2281 M -101 0 R D 17334 2916 M -101 0 R D 17334 3239 M -101 0 R D
17334 3467 M -101 0 R D 17334 3645 M -101 0 R D 17334 3790 M -101 0 R D
17334 3912 M -101 0 R D 17334 4018 M -101 0 R D 17334 4112 M -101 0 R D
17334 4747 M -101 0 R D 17334 5069 M -101 0 R D 17334 5298 M -101 0 R D
17334 5475 M -101 0 R D 17334 5620 M -101 0 R D 17334 5743 M -101 0 R D
17334 5849 M -101 0 R D 17334 5943 M -101 0 R D 12296 3824 M 736 515 R
860 486 R 861 414 R 860 332 R 861 255 R 860 200 R D L1 12296 1734 M
736 811 R 860 781 R 861 759 R 860 739 R 861 675 R 860 527 R D
gsave 14815 11040 translate 0 0 M 1.2 dup scale -1317.41 0 N
(accretion time) show grestore L0 14311 3051 M 66 0 R 65 0 R 66 0 R 65 0 R
66 0 R 65 0 R 66 0 R 65 0 R 66 0 R D L1 14311 2488 M 66 0 R 65 0 R 66 0 R
65 0 R 66 0 R 65 0 R 66 0 R 65 0 R 66 0 R D gsave 14966 2965 translate 0 0 M
1.2 dup scale
(z<6.) show grestore gsave 14966 2401 translate 0 0 M 1.2 dup scale
(z<1.) show grestore gsave 2520 5405 translate 0 0 M 1.2 dup scale
(M2) show grestore
%%PageTrailer
end
%%PageResources: font Helvetica
%%Trailer
%%Pages: 1
%%DocumentNeededResources: font Helvetica
%%EOF
