%!PS-Adobe-3.0 EPSF-3.0
%%BoundingBox: 0 0 527 340
%%Title: Graphics produced by IDL
%%For: jlgan@aida119, /home/jlgan/work/subhalo_model
%%Creator: IDL Version 7.1 (linux x86_64 m64)
%%CreationDate: Sat Aug  1 21:27:53 2009
%%DocumentData: Clean7bit
%%Requirements: color
%%LanguageLevel: 1
%%PageOrder: Ascend
%%Pages: (atend)
%%DocumentNeededResources: (atend)
%%EndComments
%%BeginProlog
%+ prolog.ps -- Prolog for IDL generated PostScript files
%+ Copyright (c) 1988-2009 ITT Visual Information Solutions. All Rights Reserved.
%v 5
/$IDL_DICT 40 dict def $IDL_DICT begin /bdef { bind def } bind def /C
{currentpoint newpath moveto} bdef /CP {currentpoint} bdef /D {currentpoint
stroke moveto} bdef /F {closepath fill} bdef /K { setgray } bdef /M {moveto}
bdef /N {rmoveto} bdef /P {lineto} bdef /R {rlineto} bdef /S {gsave show
grestore} bdef /X {currentpoint pop} bdef /Z {gsave currentpoint lineto 20
setlinewidth 1 setlinecap stroke grestore} bdef /L0 {[] 0 setdash} bdef /L1
{[40 100] 0 setdash} bdef /L2 {[200 200] 0 setdash} bdef /L3 {[200 100 50
100] 0 setdash} bdef /L4 {[300 100 50 100 50 100 50 100] 0 setdash} bdef /L5
{[400 200] 0 setdash} bdef /STDFONT { findfont exch scalefont setfont } bdef
/ISOFONT { findfont dup length dict begin { 1 index /FID ne {def} {pop pop}
ifelse } forall /Encoding ISOLatin1Encoding def currentdict end /idltmpfont
exch definefont exch scalefont setfont } bdef /ISOBULLET { gsave /Helvetica
findfont exch scalefont setfont (\267) show currentpoint grestore moveto}
bdef /MITERLIMIT { 2.5 setmiterlimit } bdef end
%%EndProlog
%%Page: 0 1
%%PageRequirements: color
%%PageResources: (atend)
%%PageOrientation: Portrait
%%PageBoundingBox: 0 0 527 340
%%BeginPageSetup
$IDL_DICT begin 0.0283465 dup scale MITERLIMIT
%%IncludeResource: font Helvetica
423.333 /Helvetica STDFONT
%%EndPageSetup
0.000 0.000 0.000 setrgbcolor gsave 10077 317 translate 0 0 M 1.2 dup scale
-420.603 0 N
(r/R) show X -101.051 M
%%IncludeResource: font Helvetica
262.467 /Helvetica STDFONT
(vir) show grestore
%%IncludeResource: font Helvetica
423.333 /Helvetica STDFONT gsave 755 6352 translate 0 0 M 90 rotate
1.2 dup scale -845.49 0 N
(N\(<r\)/N) show X -101.051 M
%%IncludeResource: font Helvetica
262.467 /Helvetica STDFONT
(tot) show grestore
%%IncludeResource: font Helvetica
423.333 /Helvetica STDFONT 40 setlinewidth L0 2220 6352 M 5238 0 R D
3432 6352 M 0 198 R D gsave 3432 5718 translate 0 0 M 1.2 dup scale
-58.8433 0 N
( ) show grestore 7458 6352 M 0 198 R D gsave 7458 5718 translate 0 0 M
1.2 dup scale -58.8433 0 N
( ) show grestore 2220 6352 M 0 99 R D 2539 6352 M 0 99 R D 2808 6352 M
0 99 R D 3042 6352 M 0 99 R D 3248 6352 M 0 99 R D 4644 6352 M 0 99 R D
5353 6352 M 0 99 R D 5856 6352 M 0 99 R D 6246 6352 M 0 99 R D 6565 6352 M
0 99 R D 6834 6352 M 0 99 R D 7068 6352 M 0 99 R D 7274 6352 M 0 99 R D
2220 11296 M 5238 0 R D 3432 11296 M 0 -198 R D 7458 11296 M 0 -198 R D
2220 11296 M 0 -99 R D 2539 11296 M 0 -99 R D 2808 11296 M 0 -99 R D
3042 11296 M 0 -99 R D 3248 11296 M 0 -99 R D 4644 11296 M 0 -99 R D
5353 11296 M 0 -99 R D 5856 11296 M 0 -99 R D 6246 11296 M 0 -99 R D
6565 11296 M 0 -99 R D 6834 11296 M 0 -99 R D 7068 11296 M 0 -99 R D
7274 11296 M 0 -99 R D 2220 6352 M 0 4944 R D 2220 7360 M 210 0 R D
gsave 2087 7191 translate 0 0 M 1.2 dup scale -823.807 0 N
(0.01) show grestore 2220 9288 M 210 0 R D gsave 2087 9119 translate 0 0 M
1.2 dup scale -823.807 0 N
(0.10) show grestore 2220 11216 M 210 0 R D gsave 2087 11000 translate 0 0 M
1.2 dup scale -823.807 0 N
(1.00) show grestore 2220 6352 M 105 0 R D 2220 6593 M 105 0 R D 2220 6780 M
105 0 R D 2220 6932 M 105 0 R D 2220 7062 M 105 0 R D 2220 7173 M 105 0 R D
2220 7272 M 105 0 R D 2220 7941 M 105 0 R D 2220 8280 M 105 0 R D
2220 8521 M 105 0 R D 2220 8708 M 105 0 R D 2220 8860 M 105 0 R D
2220 8990 M 105 0 R D 2220 9101 M 105 0 R D 2220 9200 M 105 0 R D
2220 9869 M 105 0 R D 2220 10208 M 105 0 R D 2220 10449 M 105 0 R D
2220 10636 M 105 0 R D 2220 10789 M 105 0 R D 2220 10918 M 105 0 R D
2220 11029 M 105 0 R D 2220 11128 M 105 0 R D 7458 6352 M 0 4944 R D
7458 7360 M -209 0 R D 7458 9288 M -209 0 R D 7458 11216 M -209 0 R D
7458 6352 M -105 0 R D 7458 6593 M -105 0 R D 7458 6780 M -105 0 R D
7458 6932 M -105 0 R D 7458 7062 M -105 0 R D 7458 7173 M -105 0 R D
7458 7272 M -105 0 R D 7458 7941 M -105 0 R D 7458 8280 M -105 0 R D
7458 8521 M -105 0 R D 7458 8708 M -105 0 R D 7458 8860 M -105 0 R D
7458 8990 M -105 0 R D 7458 9101 M -105 0 R D 7458 9200 M -105 0 R D
7458 9869 M -105 0 R D 7458 10208 M -105 0 R D 7458 10449 M -105 0 R D
7458 10636 M -105 0 R D 7458 10789 M -105 0 R D 7458 10918 M -105 0 R D
7458 11029 M -105 0 R D 7458 11128 M -105 0 R D
0.000 0.514 1.000 setrgbcolor 2371 6352 M 614 1029 R 894 822 R 895 1223 R
895 705 R 894 554 R 895 531 R D 0.000 0.000 0.000 setrgbcolor 2220 7191 M
765 1013 R 894 963 R 895 707 R 895 575 R 894 446 R 895 321 R D L1
0.000 0.514 1.000 setrgbcolor 4774 9716 M 895 0 R 894 580 R 895 920 R D
0.000 0.000 0.000 setrgbcolor 2467 6352 M 518 780 R 894 1240 R 895 736 R
895 808 R 894 749 R 895 551 R D L2 3879 8788 M 895 581 R 895 679 R 894 668 R
895 500 R D L0 0.000 0.514 1.000 setrgbcolor 4315 7588 M 68 0 R 68 0 R
69 0 R 68 0 R 68 0 R 68 0 R 68 0 R 68 0 R 68 0 R D L1 4315 6995 M 68 0 R
68 0 R 69 0 R 68 0 R 68 0 R 68 0 R 68 0 R 68 0 R 68 0 R D
gsave 4996 7501 translate 0 0 M 1.2 dup scale
([10) show X 192.937 M
%%IncludeResource: font Helvetica
262.467 /Helvetica STDFONT
(-5) show X 0 M
%%IncludeResource: font Helvetica
423.333 /Helvetica STDFONT
(,10) show X 192.937 M
%%IncludeResource: font Helvetica
262.467 /Helvetica STDFONT
(-4) show X 0 M
%%IncludeResource: font Helvetica
423.333 /Helvetica STDFONT
(]) show grestore gsave 4996 6908 translate 0 0 M 1.2 dup scale
([10) show X 192.937 M
%%IncludeResource: font Helvetica
262.467 /Helvetica STDFONT
(-3) show X 0 M
%%IncludeResource: font Helvetica
423.333 /Helvetica STDFONT
(,10) show X 192.937 M
%%IncludeResource: font Helvetica
262.467 /Helvetica STDFONT
(-2) show X 0 M
%%IncludeResource: font Helvetica
423.333 /Helvetica STDFONT
(]) show grestore gsave 7196 7984 translate 0 0 M 1.2 dup scale -2000.25 0 N
(Via Lactea) show grestore L0 0.000 0.000 0.000 setrgbcolor 7458 6352 M
5238 0 R D 8670 6352 M 0 198 R D gsave 8670 5718 translate 0 0 M
1.2 dup scale -58.8433 0 N
( ) show grestore 12696 6352 M 0 198 R D gsave 12696 5718 translate 0 0 M
1.2 dup scale -58.8433 0 N
( ) show grestore 7458 6352 M 0 99 R D 7777 6352 M 0 99 R D 8046 6352 M
0 99 R D 8280 6352 M 0 99 R D 8486 6352 M 0 99 R D 9882 6352 M 0 99 R D
10591 6352 M 0 99 R D 11094 6352 M 0 99 R D 11484 6352 M 0 99 R D
11803 6352 M 0 99 R D 12072 6352 M 0 99 R D 12306 6352 M 0 99 R D
12512 6352 M 0 99 R D 7458 11296 M 5238 0 R D 8670 11296 M 0 -198 R D
12696 11296 M 0 -198 R D 7458 11296 M 0 -99 R D 7777 11296 M 0 -99 R D
8046 11296 M 0 -99 R D 8280 11296 M 0 -99 R D 8486 11296 M 0 -99 R D
9882 11296 M 0 -99 R D 10591 11296 M 0 -99 R D 11094 11296 M 0 -99 R D
11484 11296 M 0 -99 R D 11803 11296 M 0 -99 R D 12072 11296 M 0 -99 R D
12306 11296 M 0 -99 R D 12512 11296 M 0 -99 R D 7458 6352 M 0 4944 R D
7458 7360 M 210 0 R D gsave 7325 7191 translate 0 0 M 1.2 dup scale
-117.687 0 N
( ) show grestore 7458 9288 M 210 0 R D gsave 7325 9119 translate 0 0 M
1.2 dup scale -117.687 0 N
( ) show grestore 7458 11216 M 210 0 R D gsave 7325 11000 translate 0 0 M
1.2 dup scale -117.687 0 N
( ) show grestore 7458 6352 M 105 0 R D 7458 6593 M 105 0 R D 7458 6780 M
105 0 R D 7458 6932 M 105 0 R D 7458 7062 M 105 0 R D 7458 7173 M 105 0 R D
7458 7272 M 105 0 R D 7458 7941 M 105 0 R D 7458 8280 M 105 0 R D
7458 8521 M 105 0 R D 7458 8708 M 105 0 R D 7458 8860 M 105 0 R D
7458 8990 M 105 0 R D 7458 9101 M 105 0 R D 7458 9200 M 105 0 R D
7458 9869 M 105 0 R D 7458 10208 M 105 0 R D 7458 10449 M 105 0 R D
7458 10636 M 105 0 R D 7458 10789 M 105 0 R D 7458 10918 M 105 0 R D
7458 11029 M 105 0 R D 7458 11128 M 105 0 R D 12696 6352 M 0 4944 R D
12696 7360 M -209 0 R D 12696 9288 M -209 0 R D 12696 11216 M -209 0 R D
12696 6352 M -105 0 R D 12696 6593 M -105 0 R D 12696 6780 M -105 0 R D
12696 6932 M -105 0 R D 12696 7062 M -105 0 R D 12696 7173 M -105 0 R D
12696 7272 M -105 0 R D 12696 7941 M -105 0 R D 12696 8280 M -105 0 R D
12696 8521 M -105 0 R D 12696 8708 M -105 0 R D 12696 8860 M -105 0 R D
12696 8990 M -105 0 R D 12696 9101 M -105 0 R D 12696 9200 M -105 0 R D
12696 9869 M -105 0 R D 12696 10208 M -105 0 R D 12696 10449 M -105 0 R D
12696 10636 M -105 0 R D 12696 10789 M -105 0 R D 12696 10918 M -105 0 R D
12696 11029 M -105 0 R D 12696 11128 M -105 0 R D 7458 9274 M 765 399 R
894 427 R 895 366 R 895 305 R 894 248 R 895 197 R D L1 7458 9405 M 765 399 R
894 407 R 895 346 R 895 276 R 894 211 R 895 172 R D L2 7458 9572 M 765 342 R
894 410 R 895 316 R 895 216 R 894 199 R 895 161 R D L0 12696 6352 M 5238 0 R
D 13908 6352 M 0 198 R D gsave 13908 5718 translate 0 0 M 1.2 dup scale
-58.8433 0 N
( ) show grestore 17934 6352 M 0 198 R D gsave 17934 5718 translate 0 0 M
1.2 dup scale -58.8433 0 N
( ) show grestore 12696 6352 M 0 99 R D 13015 6352 M 0 99 R D 13284 6352 M
0 99 R D 13518 6352 M 0 99 R D 13724 6352 M 0 99 R D 15120 6352 M 0 99 R D
15829 6352 M 0 99 R D 16332 6352 M 0 99 R D 16722 6352 M 0 99 R D
17041 6352 M 0 99 R D 17310 6352 M 0 99 R D 17544 6352 M 0 99 R D
17750 6352 M 0 99 R D 12696 11296 M 5238 0 R D 13908 11296 M 0 -198 R D
17934 11296 M 0 -198 R D 12696 11296 M 0 -99 R D 13015 11296 M 0 -99 R D
13284 11296 M 0 -99 R D 13518 11296 M 0 -99 R D 13724 11296 M 0 -99 R D
15120 11296 M 0 -99 R D 15829 11296 M 0 -99 R D 16332 11296 M 0 -99 R D
16722 11296 M 0 -99 R D 17041 11296 M 0 -99 R D 17310 11296 M 0 -99 R D
17544 11296 M 0 -99 R D 17750 11296 M 0 -99 R D 12696 6352 M 0 4944 R D
12696 7360 M 210 0 R D gsave 12563 7191 translate 0 0 M 1.2 dup scale
-117.687 0 N
( ) show grestore 12696 9288 M 210 0 R D gsave 12563 9119 translate 0 0 M
1.2 dup scale -117.687 0 N
( ) show grestore 12696 11216 M 210 0 R D gsave 12563 11000 translate 0 0 M
1.2 dup scale -117.687 0 N
( ) show grestore 12696 6352 M 105 0 R D 12696 6593 M 105 0 R D 12696 6780 M
105 0 R D 12696 6932 M 105 0 R D 12696 7062 M 105 0 R D 12696 7173 M 105 0 R
D 12696 7272 M 105 0 R D 12696 7941 M 105 0 R D 12696 8280 M 105 0 R D
12696 8521 M 105 0 R D 12696 8708 M 105 0 R D 12696 8860 M 105 0 R D
12696 8990 M 105 0 R D 12696 9101 M 105 0 R D 12696 9200 M 105 0 R D
12696 9869 M 105 0 R D 12696 10208 M 105 0 R D 12696 10449 M 105 0 R D
12696 10636 M 105 0 R D 12696 10789 M 105 0 R D 12696 10918 M 105 0 R D
12696 11029 M 105 0 R D 12696 11128 M 105 0 R D 17934 6352 M 0 4944 R D
17934 7360 M -209 0 R D 17934 9288 M -209 0 R D 17934 11216 M -209 0 R D
17934 6352 M -105 0 R D 17934 6593 M -105 0 R D 17934 6780 M -105 0 R D
17934 6932 M -105 0 R D 17934 7062 M -105 0 R D 17934 7173 M -105 0 R D
17934 7272 M -105 0 R D 17934 7941 M -105 0 R D 17934 8280 M -105 0 R D
17934 8521 M -105 0 R D 17934 8708 M -105 0 R D 17934 8860 M -105 0 R D
17934 8990 M -105 0 R D 17934 9101 M -105 0 R D 17934 9200 M -105 0 R D
17934 9869 M -105 0 R D 17934 10208 M -105 0 R D 17934 10449 M -105 0 R D
17934 10636 M -105 0 R D 17934 10789 M -105 0 R D 17934 10918 M -105 0 R D
17934 11029 M -105 0 R D 17934 11128 M -105 0 R D 12696 8968 M 765 526 R
894 510 R 895 419 R 895 329 R 894 260 R 895 204 R D L1 12696 6603 M
765 942 R 894 818 R 895 841 R 895 756 R 894 710 R 895 546 R D
gsave 2604 10560 translate 0 0 M 1.2 dup scale
(mrs0) show grestore L0 2220 1408 M 5238 0 R D 3432 1408 M 0 198 R D
gsave 3432 774 translate 0 0 M 1.2 dup scale -294.217 0 N
(0.1) show grestore 7458 1408 M 0 198 R D gsave 7458 774 translate 0 0 M
1.2 dup scale -294.217 0 N
(1.0) show grestore 2220 1408 M 0 99 R D 2539 1408 M 0 99 R D 2808 1408 M
0 99 R D 3042 1408 M 0 99 R D 3248 1408 M 0 99 R D 4644 1408 M 0 99 R D
5353 1408 M 0 99 R D 5856 1408 M 0 99 R D 6246 1408 M 0 99 R D 6565 1408 M
0 99 R D 6834 1408 M 0 99 R D 7068 1408 M 0 99 R D 7274 1408 M 0 99 R D
2220 6352 M 5238 0 R D 3432 6352 M 0 -198 R D 7458 6352 M 0 -198 R D
2220 6352 M 0 -99 R D 2539 6352 M 0 -99 R D 2808 6352 M 0 -99 R D
3042 6352 M 0 -99 R D 3248 6352 M 0 -99 R D 4644 6352 M 0 -99 R D
5353 6352 M 0 -99 R D 5856 6352 M 0 -99 R D 6246 6352 M 0 -99 R D
6565 6352 M 0 -99 R D 6834 6352 M 0 -99 R D 7068 6352 M 0 -99 R D
7274 6352 M 0 -99 R D 2220 1408 M 0 4944 R D 2220 2416 M 210 0 R D
gsave 2087 2247 translate 0 0 M 1.2 dup scale -823.807 0 N
(0.01) show grestore 2220 4344 M 210 0 R D gsave 2087 4175 translate 0 0 M
1.2 dup scale -823.807 0 N
(0.10) show grestore 2220 6272 M 210 0 R D gsave 2087 6056 translate 0 0 M
1.2 dup scale -823.807 0 N
(1.00) show grestore 2220 1408 M 105 0 R D 2220 1649 M 105 0 R D 2220 1836 M
105 0 R D 2220 1988 M 105 0 R D 2220 2118 M 105 0 R D 2220 2229 M 105 0 R D
2220 2328 M 105 0 R D 2220 2997 M 105 0 R D 2220 3336 M 105 0 R D
2220 3577 M 105 0 R D 2220 3764 M 105 0 R D 2220 3916 M 105 0 R D
2220 4046 M 105 0 R D 2220 4157 M 105 0 R D 2220 4256 M 105 0 R D
2220 4925 M 105 0 R D 2220 5264 M 105 0 R D 2220 5505 M 105 0 R D
2220 5692 M 105 0 R D 2220 5845 M 105 0 R D 2220 5974 M 105 0 R D
2220 6085 M 105 0 R D 2220 6184 M 105 0 R D 7458 1408 M 0 4944 R D
7458 2416 M -209 0 R D 7458 4344 M -209 0 R D 7458 6272 M -209 0 R D
7458 1408 M -105 0 R D 7458 1649 M -105 0 R D 7458 1836 M -105 0 R D
7458 1988 M -105 0 R D 7458 2118 M -105 0 R D 7458 2229 M -105 0 R D
7458 2328 M -105 0 R D 7458 2997 M -105 0 R D 7458 3336 M -105 0 R D
7458 3577 M -105 0 R D 7458 3764 M -105 0 R D 7458 3916 M -105 0 R D
7458 4046 M -105 0 R D 7458 4157 M -105 0 R D 7458 4256 M -105 0 R D
7458 4925 M -105 0 R D 7458 5264 M -105 0 R D 7458 5505 M -105 0 R D
7458 5692 M -105 0 R D 7458 5845 M -105 0 R D 7458 5974 M -105 0 R D
7458 6085 M -105 0 R D 7458 6184 M -105 0 R D 0.000 0.514 1.000 setrgbcolor
2371 1408 M 614 1029 R 894 822 R 895 1223 R 895 705 R 894 554 R 895 531 R D
0.000 0.000 0.000 setrgbcolor 2732 1408 M 253 527 R 894 1538 R 895 1029 R
895 747 R 894 583 R 895 440 R D L1 0.000 0.514 1.000 setrgbcolor 4774 4772 M
895 0 R 894 580 R 895 920 R D 0.000 0.000 0.000 setrgbcolor 2985 1491 M
894 1161 R 895 1106 R 895 1017 R 894 886 R 895 611 R D L2 3879 3844 M
895 581 R 895 679 R 894 668 R 895 500 R D gsave 4839 11520 translate 0 0 M
1.2 dup scale -1387.69 0 N
(m\(z=0\)/M\(z=0\)) show grestore L0 4315 3138 M 68 0 R 68 0 R 69 0 R 68 0 R
68 0 R 68 0 R 68 0 R 68 0 R 68 0 R D L1 4315 2545 M 68 0 R 68 0 R 69 0 R
68 0 R 68 0 R 68 0 R 68 0 R 68 0 R 68 0 R D L2 4315 1952 M 68 0 R 68 0 R
69 0 R 68 0 R 68 0 R 68 0 R 68 0 R 68 0 R 68 0 R D
gsave 4996 3051 translate 0 0 M 1.2 dup scale
([10) show X 192.937 M
%%IncludeResource: font Helvetica
262.467 /Helvetica STDFONT
(-5) show X 0 M
%%IncludeResource: font Helvetica
423.333 /Helvetica STDFONT
(,10) show X 192.937 M
%%IncludeResource: font Helvetica
262.467 /Helvetica STDFONT
(-4) show X 0 M
%%IncludeResource: font Helvetica
423.333 /Helvetica STDFONT
(]) show grestore gsave 4996 2458 translate 0 0 M 1.2 dup scale
([10) show X 192.937 M
%%IncludeResource: font Helvetica
262.467 /Helvetica STDFONT
(-3) show X 0 M
%%IncludeResource: font Helvetica
423.333 /Helvetica STDFONT
(,10) show X 192.937 M
%%IncludeResource: font Helvetica
262.467 /Helvetica STDFONT
(-2) show X 0 M
%%IncludeResource: font Helvetica
423.333 /Helvetica STDFONT
(]) show grestore gsave 4996 1865 translate 0 0 M 1.2 dup scale
([10) show X 192.937 M
%%IncludeResource: font Helvetica
262.467 /Helvetica STDFONT
(-2) show X 0 M
%%IncludeResource: font Helvetica
423.333 /Helvetica STDFONT
(,1]) show grestore L0 7458 1408 M 5238 0 R D 8670 1408 M 0 198 R D
gsave 8670 774 translate 0 0 M 1.2 dup scale -294.217 0 N
(0.1) show grestore 12696 1408 M 0 198 R D gsave 12696 774 translate 0 0 M
1.2 dup scale -294.217 0 N
(1.0) show grestore 7458 1408 M 0 99 R D 7777 1408 M 0 99 R D 8046 1408 M
0 99 R D 8280 1408 M 0 99 R D 8486 1408 M 0 99 R D 9882 1408 M 0 99 R D
10591 1408 M 0 99 R D 11094 1408 M 0 99 R D 11484 1408 M 0 99 R D
11803 1408 M 0 99 R D 12072 1408 M 0 99 R D 12306 1408 M 0 99 R D
12512 1408 M 0 99 R D 7458 6352 M 5238 0 R D 8670 6352 M 0 -198 R D
12696 6352 M 0 -198 R D 7458 6352 M 0 -99 R D 7777 6352 M 0 -99 R D
8046 6352 M 0 -99 R D 8280 6352 M 0 -99 R D 8486 6352 M 0 -99 R D
9882 6352 M 0 -99 R D 10591 6352 M 0 -99 R D 11094 6352 M 0 -99 R D
11484 6352 M 0 -99 R D 11803 6352 M 0 -99 R D 12072 6352 M 0 -99 R D
12306 6352 M 0 -99 R D 12512 6352 M 0 -99 R D 7458 1408 M 0 4944 R D
7458 2416 M 210 0 R D gsave 7325 2247 translate 0 0 M 1.2 dup scale
-117.687 0 N
( ) show grestore 7458 4344 M 210 0 R D gsave 7325 4175 translate 0 0 M
1.2 dup scale -117.687 0 N
( ) show grestore 7458 6272 M 210 0 R D gsave 7325 6056 translate 0 0 M
1.2 dup scale -117.687 0 N
( ) show grestore 7458 1408 M 105 0 R D 7458 1649 M 105 0 R D 7458 1836 M
105 0 R D 7458 1988 M 105 0 R D 7458 2118 M 105 0 R D 7458 2229 M 105 0 R D
7458 2328 M 105 0 R D 7458 2997 M 105 0 R D 7458 3336 M 105 0 R D
7458 3577 M 105 0 R D 7458 3764 M 105 0 R D 7458 3916 M 105 0 R D
7458 4046 M 105 0 R D 7458 4157 M 105 0 R D 7458 4256 M 105 0 R D
7458 4925 M 105 0 R D 7458 5264 M 105 0 R D 7458 5505 M 105 0 R D
7458 5692 M 105 0 R D 7458 5845 M 105 0 R D 7458 5974 M 105 0 R D
7458 6085 M 105 0 R D 7458 6184 M 105 0 R D 12696 1408 M 0 4944 R D
12696 2416 M -209 0 R D 12696 4344 M -209 0 R D 12696 6272 M -209 0 R D
12696 1408 M -105 0 R D 12696 1649 M -105 0 R D 12696 1836 M -105 0 R D
12696 1988 M -105 0 R D 12696 2118 M -105 0 R D 12696 2229 M -105 0 R D
12696 2328 M -105 0 R D 12696 2997 M -105 0 R D 12696 3336 M -105 0 R D
12696 3577 M -105 0 R D 12696 3764 M -105 0 R D 12696 3916 M -105 0 R D
12696 4046 M -105 0 R D 12696 4157 M -105 0 R D 12696 4256 M -105 0 R D
12696 4925 M -105 0 R D 12696 5264 M -105 0 R D 12696 5505 M -105 0 R D
12696 5692 M -105 0 R D 12696 5845 M -105 0 R D 12696 5974 M -105 0 R D
12696 6085 M -105 0 R D 12696 6184 M -105 0 R D 7938 1408 M 285 589 R
894 1378 R 895 979 R 895 784 R 894 646 R 895 488 R D L1 7603 1408 M
620 1128 R 894 718 R 895 1074 R 895 783 R 894 672 R 895 489 R D L2
9117 3679 M 895 725 R 895 843 R 894 604 R 895 421 R D
gsave 10077 11520 translate 0 0 M 1.2 dup scale -1350.59 0 N
(m\(z) show X -101.051 M
%%IncludeResource: font Helvetica
262.467 /Helvetica STDFONT
(acc) show X 0 M
%%IncludeResource: font Helvetica
423.333 /Helvetica STDFONT
(\)/M\(z=0\)) show grestore L0 9553 3138 M 68 0 R 68 0 R 69 0 R 68 0 R
68 0 R 68 0 R 68 0 R 68 0 R 68 0 R D L1 9553 2545 M 68 0 R 68 0 R 69 0 R
68 0 R 68 0 R 68 0 R 68 0 R 68 0 R 68 0 R D L2 9553 1952 M 68 0 R 68 0 R
69 0 R 68 0 R 68 0 R 68 0 R 68 0 R 68 0 R 68 0 R D
gsave 10234 3051 translate 0 0 M 1.2 dup scale
([10) show X 192.937 M
%%IncludeResource: font Helvetica
262.467 /Helvetica STDFONT
(-4) show X 0 M
%%IncludeResource: font Helvetica
423.333 /Helvetica STDFONT
(,10) show X 192.937 M
%%IncludeResource: font Helvetica
262.467 /Helvetica STDFONT
(-3) show X 0 M
%%IncludeResource: font Helvetica
423.333 /Helvetica STDFONT
(]) show grestore gsave 10234 2458 translate 0 0 M 1.2 dup scale
([10) show X 192.937 M
%%IncludeResource: font Helvetica
262.467 /Helvetica STDFONT
(-3) show X 0 M
%%IncludeResource: font Helvetica
423.333 /Helvetica STDFONT
(,10) show X 192.937 M
%%IncludeResource: font Helvetica
262.467 /Helvetica STDFONT
(-2) show X 0 M
%%IncludeResource: font Helvetica
423.333 /Helvetica STDFONT
(]) show grestore gsave 10234 1865 translate 0 0 M 1.2 dup scale
([10) show X 192.937 M
%%IncludeResource: font Helvetica
262.467 /Helvetica STDFONT
(-2) show X 0 M
%%IncludeResource: font Helvetica
423.333 /Helvetica STDFONT
(,1]) show grestore L0 12696 1408 M 5238 0 R D 13908 1408 M 0 198 R D
gsave 13908 774 translate 0 0 M 1.2 dup scale -294.217 0 N
(0.1) show grestore 17934 1408 M 0 198 R D gsave 17934 774 translate 0 0 M
1.2 dup scale -294.217 0 N
(1.0) show grestore 12696 1408 M 0 99 R D 13015 1408 M 0 99 R D 13284 1408 M
0 99 R D 13518 1408 M 0 99 R D 13724 1408 M 0 99 R D 15120 1408 M 0 99 R D
15829 1408 M 0 99 R D 16332 1408 M 0 99 R D 16722 1408 M 0 99 R D
17041 1408 M 0 99 R D 17310 1408 M 0 99 R D 17544 1408 M 0 99 R D
17750 1408 M 0 99 R D 12696 6352 M 5238 0 R D 13908 6352 M 0 -198 R D
17934 6352 M 0 -198 R D 12696 6352 M 0 -99 R D 13015 6352 M 0 -99 R D
13284 6352 M 0 -99 R D 13518 6352 M 0 -99 R D 13724 6352 M 0 -99 R D
15120 6352 M 0 -99 R D 15829 6352 M 0 -99 R D 16332 6352 M 0 -99 R D
16722 6352 M 0 -99 R D 17041 6352 M 0 -99 R D 17310 6352 M 0 -99 R D
17544 6352 M 0 -99 R D 17750 6352 M 0 -99 R D 12696 1408 M 0 4944 R D
12696 2416 M 210 0 R D gsave 12563 2247 translate 0 0 M 1.2 dup scale
-117.687 0 N
( ) show grestore 12696 4344 M 210 0 R D gsave 12563 4175 translate 0 0 M
1.2 dup scale -117.687 0 N
( ) show grestore 12696 6272 M 210 0 R D gsave 12563 6056 translate 0 0 M
1.2 dup scale -117.687 0 N
( ) show grestore 12696 1408 M 105 0 R D 12696 1649 M 105 0 R D 12696 1836 M
105 0 R D 12696 1988 M 105 0 R D 12696 2118 M 105 0 R D 12696 2229 M 105 0 R
D 12696 2328 M 105 0 R D 12696 2997 M 105 0 R D 12696 3336 M 105 0 R D
12696 3577 M 105 0 R D 12696 3764 M 105 0 R D 12696 3916 M 105 0 R D
12696 4046 M 105 0 R D 12696 4157 M 105 0 R D 12696 4256 M 105 0 R D
12696 4925 M 105 0 R D 12696 5264 M 105 0 R D 12696 5505 M 105 0 R D
12696 5692 M 105 0 R D 12696 5845 M 105 0 R D 12696 5974 M 105 0 R D
12696 6085 M 105 0 R D 12696 6184 M 105 0 R D 17934 1408 M 0 4944 R D
17934 2416 M -209 0 R D 17934 4344 M -209 0 R D 17934 6272 M -209 0 R D
17934 1408 M -105 0 R D 17934 1649 M -105 0 R D 17934 1836 M -105 0 R D
17934 1988 M -105 0 R D 17934 2118 M -105 0 R D 17934 2229 M -105 0 R D
17934 2328 M -105 0 R D 17934 2997 M -105 0 R D 17934 3336 M -105 0 R D
17934 3577 M -105 0 R D 17934 3764 M -105 0 R D 17934 3916 M -105 0 R D
17934 4046 M -105 0 R D 17934 4157 M -105 0 R D 17934 4256 M -105 0 R D
17934 4925 M -105 0 R D 17934 5264 M -105 0 R D 17934 5505 M -105 0 R D
17934 5692 M -105 0 R D 17934 5845 M -105 0 R D 17934 5974 M -105 0 R D
17934 6085 M -105 0 R D 17934 6184 M -105 0 R D 13155 1408 M 306 560 R
894 1404 R 895 1026 R 895 764 R 894 632 R 895 478 R D L1 13088 1408 M
373 645 R 894 1071 R 895 961 R 895 812 R 894 763 R 895 612 R D
gsave 15315 11520 translate 0 0 M 1.2 dup scale -1317.41 0 N
(accretion time) show grestore L0 14791 3138 M 68 0 R 68 0 R 69 0 R 68 0 R
68 0 R 68 0 R 68 0 R 68 0 R 68 0 R D L1 14791 2545 M 68 0 R 68 0 R 69 0 R
68 0 R 68 0 R 68 0 R 68 0 R 68 0 R 68 0 R D gsave 15472 3051 translate 0 0 M
1.2 dup scale
(z<6.) show grestore gsave 15472 2458 translate 0 0 M 1.2 dup scale
(z<1.) show grestore gsave 2604 5640 translate 0 0 M 1.2 dup scale
(mrs1) show grestore
%%PageTrailer
end
%%PageResources: font Helvetica
%%Trailer
%%Pages: 1
%%DocumentNeededResources: font Helvetica
%%EOF
