%!PS-Adobe-3.0 EPSF-3.0
%%BoundingBox: 0 0 283 226
%%Title: Graphics produced by IDL
%%For: dacia@Lserver, /home/dacia/work/subhalo_model
%%Creator: IDL Version 7.0 (linux x86_64 m64)
%%CreationDate: Mon Jan 25 17:17:55 2010
%%DocumentData: Clean7bit
%%Requirements: color
%%LanguageLevel: 1
%%PageOrder: Ascend
%%Pages: (atend)
%%DocumentNeededResources: (atend)
%%EndComments
%%BeginProlog
%+ prolog.ps -- Prolog for IDL generated PostScript files
%+ Copyright (c) 1988-2007 ITT Visual Information Solutions. All Rights Reserved.
%v 5
/$IDL_DICT 40 dict def $IDL_DICT begin /bdef { bind def } bind def /C
{currentpoint newpath moveto} bdef /CP {currentpoint} bdef /D {currentpoint
stroke moveto} bdef /F {closepath fill} bdef /K { setgray } bdef /M {moveto}
bdef /N {rmoveto} bdef /P {lineto} bdef /R {rlineto} bdef /S {gsave show
grestore} bdef /X {currentpoint pop} bdef /Z {gsave currentpoint lineto 20
setlinewidth 1 setlinecap stroke grestore} bdef /L0 {[] 0 setdash} bdef /L1
{[40 100] 0 setdash} bdef /L2 {[200 200] 0 setdash} bdef /L3 {[200 100 50
100] 0 setdash} bdef /L4 {[300 100 50 100 50 100 50 100] 0 setdash} bdef /L5
{[400 200] 0 setdash} bdef /STDFONT { findfont exch scalefont setfont } bdef
/ISOFONT { findfont dup length dict begin { 1 index /FID ne {def} {pop pop}
ifelse } forall /Encoding ISOLatin1Encoding def currentdict end /idltmpfont
exch definefont exch scalefont setfont } bdef /ISOBULLET { gsave /Helvetica
findfont exch scalefont setfont (\267) show currentpoint grestore moveto}
bdef /MITERLIMIT { 2.5 setmiterlimit } bdef end
%%EndProlog
%%Page: 0 1
%%PageRequirements: color
%%PageResources: (atend)
%%PageOrientation: Portrait
%%PageBoundingBox: 0 0 283 226
%%BeginPageSetup
$IDL_DICT begin 0.0283465 dup scale MITERLIMIT
%%IncludeResource: font Helvetica
423.333 /Helvetica STDFONT
%%EndPageSetup
40 setlinewidth L0 0.000 0.000 0.000 setrgbcolor 2100 1360 M 7500 0 R D
4675 1360 M 0 256 R D gsave 4675 721 translate 0 0 M 1.21 dup scale
-294.217 0 N
(0.1) show grestore 9600 1360 M 0 256 R D gsave 9600 721 translate 0 0 M
1.21 dup scale -294.217 0 N
(1.0) show grestore 2100 1360 M 0 128 R D 2715 1360 M 0 128 R D 3193 1360 M
0 128 R D 3583 1360 M 0 128 R D 3912 1360 M 0 128 R D 4198 1360 M 0 128 R D
4450 1360 M 0 128 R D 6158 1360 M 0 128 R D 7025 1360 M 0 128 R D
7640 1360 M 0 128 R D 8117 1360 M 0 128 R D 8507 1360 M 0 128 R D
8837 1360 M 0 128 R D 9123 1360 M 0 128 R D 9375 1360 M 0 128 R D
gsave 5850 167 translate 0 0 M 1.21 dup scale -420.603 0 N
(r/R) show X -101.051 M
%%IncludeResource: font Helvetica
262.467 /Helvetica STDFONT
(vir) show grestore
%%IncludeResource: font Helvetica
423.333 /Helvetica STDFONT 2100 7760 M 7500 0 R D 4675 7760 M 0 -256 R D
9600 7760 M 0 -256 R D 2100 7760 M 0 -128 R D 2715 7760 M 0 -128 R D
3193 7760 M 0 -128 R D 3583 7760 M 0 -128 R D 3912 7760 M 0 -128 R D
4198 7760 M 0 -128 R D 4450 7760 M 0 -128 R D 6158 7760 M 0 -128 R D
7025 7760 M 0 -128 R D 7640 7760 M 0 -128 R D 8117 7760 M 0 -128 R D
8507 7760 M 0 -128 R D 8837 7760 M 0 -128 R D 9123 7760 M 0 -128 R D
9375 7760 M 0 -128 R D 2100 1360 M 0 6400 R D 2100 2443 M 300 0 R D
gsave 1966 2273 translate 0 0 M 1.21 dup scale -823.807 0 N
(0.01) show grestore 2100 6043 M 300 0 R D gsave 1966 5872 translate 0 0 M
1.21 dup scale -823.807 0 N
(0.10) show grestore 2100 1360 M 150 0 R D 2100 1645 M 150 0 R D 2100 1886 M
150 0 R D 2100 2095 M 150 0 R D 2100 2279 M 150 0 R D 2100 3527 M 150 0 R D
2100 4161 M 150 0 R D 2100 4610 M 150 0 R D 2100 4959 M 150 0 R D
2100 5244 M 150 0 R D 2100 5485 M 150 0 R D 2100 5694 M 150 0 R D
2100 5878 M 150 0 R D 2100 7126 M 150 0 R D 2100 7760 M 150 0 R D
gsave 567 4560 translate 0 0 M 90 rotate 1.21 dup scale -834.39 0 N
(m\(r\)/M\(r\)) show grestore 9600 1360 M 0 6400 R D 9600 2443 M -300 0 R D
9600 6043 M -300 0 R D 9600 1360 M -150 0 R D 9600 1645 M -150 0 R D
9600 1886 M -150 0 R D 9600 2095 M -150 0 R D 9600 2279 M -150 0 R D
9600 3527 M -150 0 R D 9600 4161 M -150 0 R D 9600 4610 M -150 0 R D
9600 4959 M -150 0 R D 9600 5244 M -150 0 R D 9600 5485 M -150 0 R D
9600 5694 M -150 0 R D 9600 5878 M -150 0 R D 9600 7126 M -150 0 R D
9600 7760 M -150 0 R D 2099 4071 M 934 272 R 1095 593 R 1094 648 R
1095 -317 R 1094 1291 R 1095 -470 R 1093 1357 R D L1 3464 1360 M 664 913 R
1094 1359 R 1095 1212 R 1094 1064 R 1095 917 R 1093 768 R D L2 2189 1360 M
844 1140 R 1095 198 R 1094 1445 R 1095 -98 R 1094 1130 R 1095 397 R
1093 1364 R D L0 6537 2798 M 69 0 R 68 0 R 68 0 R 68 0 R 69 0 R 68 0 R
68 0 R 68 0 R 69 0 R D L1 6537 2344 M 69 0 R 68 0 R 68 0 R 68 0 R 69 0 R
68 0 R 68 0 R 68 0 R 69 0 R D L2 6537 1889 M 69 0 R 68 0 R 68 0 R 68 0 R
69 0 R 68 0 R 68 0 R 68 0 R 69 0 R D gsave 7220 2648 translate 0 0 M
1.1 dup scale
(M2) show grestore gsave 7220 2194 translate 0 0 M 1.1 dup scale
(Aqurius) show grestore gsave 7220 1740 translate 0 0 M 1.1 dup scale
(via Lactea) show grestore
%%PageTrailer
end
%%PageResources: font Helvetica
%%Trailer
%%Pages: 1
%%DocumentNeededResources: font Helvetica
%%EOF
