%!PS-Adobe-3.0 EPSF-3.0
%%BoundingBox: 0 0 453 311
%%Title: Graphics produced by IDL
%%For: jlgan@Hserver, /home/jlgan/work/phoenix
%%Creator: IDL Version 7.1.1 (linux x86_64 m64)
%%CreationDate: Mon Jun 23 17:51:41 2014
%%DocumentData: Clean7bit
%%Requirements: color
%%LanguageLevel: 1
%%PageOrder: Ascend
%%Pages: (atend)
%%DocumentNeededResources: (atend)
%%EndComments
%%BeginProlog
%+ prolog.ps -- Prolog for IDL generated PostScript files
%+ Copyright (c) 1988-2009 ITT Visual Information Solutions. All Rights Reserved.
%v 5
/$IDL_DICT 40 dict def $IDL_DICT begin /bdef { bind def } bind def /C
{currentpoint newpath moveto} bdef /CP {currentpoint} bdef /D {currentpoint
stroke moveto} bdef /F {closepath fill} bdef /K { setgray } bdef /M {moveto}
bdef /N {rmoveto} bdef /P {lineto} bdef /R {rlineto} bdef /S {gsave show
grestore} bdef /X {currentpoint pop} bdef /Z {gsave currentpoint lineto 20
setlinewidth 1 setlinecap stroke grestore} bdef /L0 {[] 0 setdash} bdef /L1
{[40 100] 0 setdash} bdef /L2 {[200 200] 0 setdash} bdef /L3 {[200 100 50
100] 0 setdash} bdef /L4 {[300 100 50 100 50 100 50 100] 0 setdash} bdef /L5
{[400 200] 0 setdash} bdef /STDFONT { findfont exch scalefont setfont } bdef
/ISOFONT { findfont dup length dict begin { 1 index /FID ne {def} {pop pop}
ifelse } forall /Encoding ISOLatin1Encoding def currentdict end /idltmpfont
exch definefont exch scalefont setfont } bdef /ISOBULLET { gsave /Helvetica
findfont exch scalefont setfont (\267) show currentpoint grestore moveto}
bdef /MITERLIMIT { 2.5 setmiterlimit } bdef end
%%EndProlog
%%Page: 0 1
%%PageRequirements: color
%%PageResources: (atend)
%%PageOrientation: Portrait
%%PageBoundingBox: 0 0 453 311
%%BeginPageSetup
$IDL_DICT begin 0.0283465 dup scale MITERLIMIT
%%IncludeResource: font Helvetica
423.333 /Helvetica STDFONT
%%EndPageSetup
0.000 0.000 0.000 setrgbcolor gsave 8777 352 translate 0 0 M -576.368 0 N
(t / Gyr) show grestore gsave 888 5852 translate 0 0 M 90 rotate
-424.349 0 N
(M) show X -101.051 M
%%IncludeResource: font Helvetica
262.467 /Helvetica STDFONT
(halo) show grestore
%%IncludeResource: font Helvetica
423.333 /Helvetica STDFONT 30 setlinewidth L0 2220 7333 M 4371 0 R D
2938 7333 M 0 119 R D gsave 2938 6805 translate 0 0 M -58.8433 0 N
( ) show grestore 3736 7333 M 0 119 R D gsave 3736 6805 translate 0 0 M
-58.8433 0 N
( ) show grestore 4534 7333 M 0 119 R D gsave 4534 6805 translate 0 0 M
-58.8433 0 N
( ) show grestore 5332 7333 M 0 119 R D gsave 5332 6805 translate 0 0 M
-58.8433 0 N
( ) show grestore 6129 7333 M 0 119 R D gsave 6129 6805 translate 0 0 M
-58.8433 0 N
( ) show grestore 2220 7333 M 0 60 R D 2300 7333 M 0 60 R D 2380 7333 M
0 60 R D 2459 7333 M 0 60 R D 2539 7333 M 0 60 R D 2619 7333 M 0 60 R D
2699 7333 M 0 60 R D 2779 7333 M 0 60 R D 2858 7333 M 0 60 R D 3018 7333 M
0 60 R D 3098 7333 M 0 60 R D 3177 7333 M 0 60 R D 3257 7333 M 0 60 R D
3337 7333 M 0 60 R D 3417 7333 M 0 60 R D 3497 7333 M 0 60 R D 3576 7333 M
0 60 R D 3656 7333 M 0 60 R D 3816 7333 M 0 60 R D 3896 7333 M 0 60 R D
3975 7333 M 0 60 R D 4055 7333 M 0 60 R D 4135 7333 M 0 60 R D 4215 7333 M
0 60 R D 4294 7333 M 0 60 R D 4374 7333 M 0 60 R D 4454 7333 M 0 60 R D
4614 7333 M 0 60 R D 4693 7333 M 0 60 R D 4773 7333 M 0 60 R D 4853 7333 M
0 60 R D 4933 7333 M 0 60 R D 5012 7333 M 0 60 R D 5092 7333 M 0 60 R D
5172 7333 M 0 60 R D 5252 7333 M 0 60 R D 5411 7333 M 0 60 R D 5491 7333 M
0 60 R D 5571 7333 M 0 60 R D 5651 7333 M 0 60 R D 5731 7333 M 0 60 R D
5810 7333 M 0 60 R D 5890 7333 M 0 60 R D 5970 7333 M 0 60 R D 6050 7333 M
0 60 R D 6209 7333 M 0 60 R D 6289 7333 M 0 60 R D 6369 7333 M 0 60 R D
6449 7333 M 0 60 R D 6528 7333 M 0 60 R D 2220 10296 M 4371 0 R D
2938 10296 M 0 -118 R D 3736 10296 M 0 -118 R D 4534 10296 M 0 -118 R D
5332 10296 M 0 -118 R D 6129 10296 M 0 -118 R D 2220 10296 M 0 -59 R D
2300 10296 M 0 -59 R D 2380 10296 M 0 -59 R D 2459 10296 M 0 -59 R D
2539 10296 M 0 -59 R D 2619 10296 M 0 -59 R D 2699 10296 M 0 -59 R D
2779 10296 M 0 -59 R D 2858 10296 M 0 -59 R D 3018 10296 M 0 -59 R D
3098 10296 M 0 -59 R D 3177 10296 M 0 -59 R D 3257 10296 M 0 -59 R D
3337 10296 M 0 -59 R D 3417 10296 M 0 -59 R D 3497 10296 M 0 -59 R D
3576 10296 M 0 -59 R D 3656 10296 M 0 -59 R D 3816 10296 M 0 -59 R D
3896 10296 M 0 -59 R D 3975 10296 M 0 -59 R D 4055 10296 M 0 -59 R D
4135 10296 M 0 -59 R D 4215 10296 M 0 -59 R D 4294 10296 M 0 -59 R D
4374 10296 M 0 -59 R D 4454 10296 M 0 -59 R D 4614 10296 M 0 -59 R D
4693 10296 M 0 -59 R D 4773 10296 M 0 -59 R D 4853 10296 M 0 -59 R D
4933 10296 M 0 -59 R D 5012 10296 M 0 -59 R D 5092 10296 M 0 -59 R D
5172 10296 M 0 -59 R D 5252 10296 M 0 -59 R D 5411 10296 M 0 -59 R D
5491 10296 M 0 -59 R D 5571 10296 M 0 -59 R D 5651 10296 M 0 -59 R D
5731 10296 M 0 -59 R D 5810 10296 M 0 -59 R D 5890 10296 M 0 -59 R D
5970 10296 M 0 -59 R D 6050 10296 M 0 -59 R D 6209 10296 M 0 -59 R D
6289 10296 M 0 -59 R D 6369 10296 M 0 -59 R D 6449 10296 M 0 -59 R D
6528 10296 M 0 -59 R D 2220 7333 M 0 2963 R D 2220 7778 M 175 0 R D
gsave 2109 7638 translate 0 0 M -762.61 0 N
(10) show X 192.937 M
%%IncludeResource: font Helvetica
262.467 /Helvetica STDFONT
(12) show grestore
%%IncludeResource: font Helvetica
423.333 /Helvetica STDFONT 2220 8415 M 175 0 R D
gsave 2109 8274 translate 0 0 M -762.61 0 N
(10) show X 192.937 M
%%IncludeResource: font Helvetica
262.467 /Helvetica STDFONT
(13) show grestore
%%IncludeResource: font Helvetica
423.333 /Helvetica STDFONT 2220 9052 M 175 0 R D
gsave 2109 8911 translate 0 0 M -762.61 0 N
(10) show X 192.937 M
%%IncludeResource: font Helvetica
262.467 /Helvetica STDFONT
(14) show grestore
%%IncludeResource: font Helvetica
423.333 /Helvetica STDFONT 2220 9688 M 175 0 R D
gsave 2109 9548 translate 0 0 M -762.61 0 N
(10) show X 192.937 M
%%IncludeResource: font Helvetica
262.467 /Helvetica STDFONT
(15) show grestore
%%IncludeResource: font Helvetica
423.333 /Helvetica STDFONT 2220 7333 M 88 0 R D 2220 7446 M 88 0 R D
2220 7525 M 88 0 R D 2220 7587 M 88 0 R D 2220 7637 M 88 0 R D 2220 7680 M
88 0 R D 2220 7717 M 88 0 R D 2220 7749 M 88 0 R D 2220 7970 M 88 0 R D
2220 8082 M 88 0 R D 2220 8162 M 88 0 R D 2220 8223 M 88 0 R D 2220 8274 M
88 0 R D 2220 8316 M 88 0 R D 2220 8353 M 88 0 R D 2220 8386 M 88 0 R D
2220 8607 M 88 0 R D 2220 8719 M 88 0 R D 2220 8798 M 88 0 R D 2220 8860 M
88 0 R D 2220 8911 M 88 0 R D 2220 8953 M 88 0 R D 2220 8990 M 88 0 R D
2220 9023 M 88 0 R D 2220 9243 M 88 0 R D 2220 9356 M 88 0 R D 2220 9435 M
88 0 R D 2220 9497 M 88 0 R D 2220 9547 M 88 0 R D 2220 9590 M 88 0 R D
2220 9627 M 88 0 R D 2220 9659 M 88 0 R D 2220 9880 M 88 0 R D 2220 9992 M
88 0 R D 2220 10072 M 88 0 R D 2220 10134 M 88 0 R D 2220 10184 M 88 0 R D
2220 10227 M 88 0 R D 2220 10263 M 88 0 R D 2220 10296 M 88 0 R D
6591 7333 M 0 2963 R D 6591 7778 M -174 0 R D 6591 8415 M -174 0 R D
6591 9052 M -174 0 R D 6591 9688 M -174 0 R D 6591 7333 M -87 0 R D
6591 7446 M -87 0 R D 6591 7525 M -87 0 R D 6591 7587 M -87 0 R D
6591 7637 M -87 0 R D 6591 7680 M -87 0 R D 6591 7717 M -87 0 R D
6591 7749 M -87 0 R D 6591 7970 M -87 0 R D 6591 8082 M -87 0 R D
6591 8162 M -87 0 R D 6591 8223 M -87 0 R D 6591 8274 M -87 0 R D
6591 8316 M -87 0 R D 6591 8353 M -87 0 R D 6591 8386 M -87 0 R D
6591 8607 M -87 0 R D 6591 8719 M -87 0 R D 6591 8798 M -87 0 R D
6591 8860 M -87 0 R D 6591 8911 M -87 0 R D 6591 8953 M -87 0 R D
6591 8990 M -87 0 R D 6591 9023 M -87 0 R D 6591 9243 M -87 0 R D
6591 9356 M -87 0 R D 6591 9435 M -87 0 R D 6591 9497 M -87 0 R D
6591 9547 M -87 0 R D 6591 9590 M -87 0 R D 6591 9627 M -87 0 R D
6591 9659 M -87 0 R D 6591 9880 M -87 0 R D 6591 9992 M -87 0 R D
6591 10072 M -87 0 R D 6591 10134 M -87 0 R D 6591 10184 M -87 0 R D
6591 10227 M -87 0 R D 6591 10263 M -87 0 R D 6591 10296 M -87 0 R D
0.761 0.000 0.000 setrgbcolor 2220 8803 M 102 7 R 600 2 R 594 -5 R 580 9 R
560 4 R 534 8 R 503 0 R 468 0 R 430 888 R D 0.000 0.549 0.000 setrgbcolor
2220 8535 M 102 3 R 600 25 R 594 -2 R 580 0 R 560 0 R 534 0 R 503 0 R
468 0 R 430 267 R D 0.000 0.000 1.000 setrgbcolor 2220 9621 M 102 2 R
600 5 R 594 9 R 580 15 R 560 12 R 534 14 R 503 15 R 468 11 R 430 -1143 R D
0.000 0.000 0.000 setrgbcolor 6591 7333 M 4372 0 R D 7309 7333 M 0 119 R D
gsave 7309 6805 translate 0 0 M -58.8433 0 N
( ) show grestore 8107 7333 M 0 119 R D gsave 8107 6805 translate 0 0 M
-58.8433 0 N
( ) show grestore 8905 7333 M 0 119 R D gsave 8905 6805 translate 0 0 M
-58.8433 0 N
( ) show grestore 9703 7333 M 0 119 R D gsave 9703 6805 translate 0 0 M
-58.8433 0 N
( ) show grestore 10501 7333 M 0 119 R D gsave 10501 6805 translate 0 0 M
-58.8433 0 N
( ) show grestore 6591 7333 M 0 60 R D 6671 7333 M 0 60 R D 6751 7333 M
0 60 R D 6831 7333 M 0 60 R D 6911 7333 M 0 60 R D 6990 7333 M 0 60 R D
7070 7333 M 0 60 R D 7150 7333 M 0 60 R D 7230 7333 M 0 60 R D 7389 7333 M
0 60 R D 7469 7333 M 0 60 R D 7549 7333 M 0 60 R D 7629 7333 M 0 60 R D
7708 7333 M 0 60 R D 7788 7333 M 0 60 R D 7868 7333 M 0 60 R D 7948 7333 M
0 60 R D 8028 7333 M 0 60 R D 8187 7333 M 0 60 R D 8267 7333 M 0 60 R D
8347 7333 M 0 60 R D 8426 7333 M 0 60 R D 8506 7333 M 0 60 R D 8586 7333 M
0 60 R D 8666 7333 M 0 60 R D 8746 7333 M 0 60 R D 8825 7333 M 0 60 R D
8985 7333 M 0 60 R D 9065 7333 M 0 60 R D 9144 7333 M 0 60 R D 9224 7333 M
0 60 R D 9304 7333 M 0 60 R D 9384 7333 M 0 60 R D 9464 7333 M 0 60 R D
9543 7333 M 0 60 R D 9623 7333 M 0 60 R D 9783 7333 M 0 60 R D 9863 7333 M
0 60 R D 9942 7333 M 0 60 R D 10022 7333 M 0 60 R D 10102 7333 M 0 60 R D
10182 7333 M 0 60 R D 10261 7333 M 0 60 R D 10341 7333 M 0 60 R D
10421 7333 M 0 60 R D 10581 7333 M 0 60 R D 10660 7333 M 0 60 R D
10740 7333 M 0 60 R D 10820 7333 M 0 60 R D 10900 7333 M 0 60 R D
6591 10296 M 4372 0 R D 7309 10296 M 0 -118 R D 8107 10296 M 0 -118 R D
8905 10296 M 0 -118 R D 9703 10296 M 0 -118 R D 10501 10296 M 0 -118 R D
6591 10296 M 0 -59 R D 6671 10296 M 0 -59 R D 6751 10296 M 0 -59 R D
6831 10296 M 0 -59 R D 6911 10296 M 0 -59 R D 6990 10296 M 0 -59 R D
7070 10296 M 0 -59 R D 7150 10296 M 0 -59 R D 7230 10296 M 0 -59 R D
7389 10296 M 0 -59 R D 7469 10296 M 0 -59 R D 7549 10296 M 0 -59 R D
7629 10296 M 0 -59 R D 7708 10296 M 0 -59 R D 7788 10296 M 0 -59 R D
7868 10296 M 0 -59 R D 7948 10296 M 0 -59 R D 8028 10296 M 0 -59 R D
8187 10296 M 0 -59 R D 8267 10296 M 0 -59 R D 8347 10296 M 0 -59 R D
8426 10296 M 0 -59 R D 8506 10296 M 0 -59 R D 8586 10296 M 0 -59 R D
8666 10296 M 0 -59 R D 8746 10296 M 0 -59 R D 8825 10296 M 0 -59 R D
8985 10296 M 0 -59 R D 9065 10296 M 0 -59 R D 9144 10296 M 0 -59 R D
9224 10296 M 0 -59 R D 9304 10296 M 0 -59 R D 9384 10296 M 0 -59 R D
9464 10296 M 0 -59 R D 9543 10296 M 0 -59 R D 9623 10296 M 0 -59 R D
9783 10296 M 0 -59 R D 9863 10296 M 0 -59 R D 9942 10296 M 0 -59 R D
10022 10296 M 0 -59 R D 10102 10296 M 0 -59 R D 10182 10296 M 0 -59 R D
10261 10296 M 0 -59 R D 10341 10296 M 0 -59 R D 10421 10296 M 0 -59 R D
10581 10296 M 0 -59 R D 10660 10296 M 0 -59 R D 10740 10296 M 0 -59 R D
10820 10296 M 0 -59 R D 10900 10296 M 0 -59 R D 6591 7333 M 0 2963 R D
6591 7778 M 175 0 R D gsave 6480 7638 translate 0 0 M -117.687 0 N
( ) show grestore 6591 8415 M 175 0 R D gsave 6480 8274 translate 0 0 M
-117.687 0 N
( ) show grestore 6591 9052 M 175 0 R D gsave 6480 8911 translate 0 0 M
-117.687 0 N
( ) show grestore 6591 9688 M 175 0 R D gsave 6480 9548 translate 0 0 M
-117.687 0 N
( ) show grestore 6591 7333 M 88 0 R D 6591 7446 M 88 0 R D 6591 7525 M
88 0 R D 6591 7587 M 88 0 R D 6591 7637 M 88 0 R D 6591 7680 M 88 0 R D
6591 7717 M 88 0 R D 6591 7749 M 88 0 R D 6591 7970 M 88 0 R D 6591 8082 M
88 0 R D 6591 8162 M 88 0 R D 6591 8223 M 88 0 R D 6591 8274 M 88 0 R D
6591 8316 M 88 0 R D 6591 8353 M 88 0 R D 6591 8386 M 88 0 R D 6591 8607 M
88 0 R D 6591 8719 M 88 0 R D 6591 8798 M 88 0 R D 6591 8860 M 88 0 R D
6591 8911 M 88 0 R D 6591 8953 M 88 0 R D 6591 8990 M 88 0 R D 6591 9023 M
88 0 R D 6591 9243 M 88 0 R D 6591 9356 M 88 0 R D 6591 9435 M 88 0 R D
6591 9497 M 88 0 R D 6591 9547 M 88 0 R D 6591 9590 M 88 0 R D 6591 9627 M
88 0 R D 6591 9659 M 88 0 R D 6591 9880 M 88 0 R D 6591 9992 M 88 0 R D
6591 10072 M 88 0 R D 6591 10134 M 88 0 R D 6591 10184 M 88 0 R D
6591 10227 M 88 0 R D 6591 10263 M 88 0 R D 6591 10296 M 88 0 R D
10963 7333 M 0 2963 R D 10963 7778 M -175 0 R D 10963 8415 M -175 0 R D
10963 9052 M -175 0 R D 10963 9688 M -175 0 R D 10963 7333 M -88 0 R D
10963 7446 M -88 0 R D 10963 7525 M -88 0 R D 10963 7587 M -88 0 R D
10963 7637 M -88 0 R D 10963 7680 M -88 0 R D 10963 7717 M -88 0 R D
10963 7749 M -88 0 R D 10963 7970 M -88 0 R D 10963 8082 M -88 0 R D
10963 8162 M -88 0 R D 10963 8223 M -88 0 R D 10963 8274 M -88 0 R D
10963 8316 M -88 0 R D 10963 8353 M -88 0 R D 10963 8386 M -88 0 R D
10963 8607 M -88 0 R D 10963 8719 M -88 0 R D 10963 8798 M -88 0 R D
10963 8860 M -88 0 R D 10963 8911 M -88 0 R D 10963 8953 M -88 0 R D
10963 8990 M -88 0 R D 10963 9023 M -88 0 R D 10963 9243 M -88 0 R D
10963 9356 M -88 0 R D 10963 9435 M -88 0 R D 10963 9497 M -88 0 R D
10963 9547 M -88 0 R D 10963 9590 M -88 0 R D 10963 9627 M -88 0 R D
10963 9659 M -88 0 R D 10963 9880 M -88 0 R D 10963 9992 M -88 0 R D
10963 10072 M -88 0 R D 10963 10134 M -88 0 R D 10963 10184 M -88 0 R D
10963 10227 M -88 0 R D 10963 10263 M -88 0 R D 10963 10296 M -88 0 R D
0.761 0.000 0.000 setrgbcolor 6591 9380 M 102 4 R 601 25 R 593 54 R 580 47 R
560 46 R 534 42 R 503 32 R 469 39 R 429 67 R D 0.000 0.549 0.000 setrgbcolor
6591 8967 M 102 5 R 601 29 R 593 26 R 580 9 R 560 27 R 534 12 R 503 6 R
469 8 R 429 -4 R D 0.000 0.000 1.000 setrgbcolor 6591 8899 M 102 0 R 601 0 R
593 0 R 580 0 R 560 0 R 534 0 R 503 0 R 469 0 R 429 0 R D
0.000 0.000 0.000 setrgbcolor 10963 7333 M 4371 0 R D 11681 7333 M 0 119 R D
gsave 11681 6805 translate 0 0 M -58.8433 0 N
( ) show grestore 12479 7333 M 0 119 R D gsave 12479 6805 translate 0 0 M
-58.8433 0 N
( ) show grestore 13276 7333 M 0 119 R D gsave 13276 6805 translate 0 0 M
-58.8433 0 N
( ) show grestore 14074 7333 M 0 119 R D gsave 14074 6805 translate 0 0 M
-58.8433 0 N
( ) show grestore 14872 7333 M 0 119 R D gsave 14872 6805 translate 0 0 M
-58.8433 0 N
( ) show grestore 10963 7333 M 0 60 R D 11043 7333 M 0 60 R D 11122 7333 M
0 60 R D 11202 7333 M 0 60 R D 11282 7333 M 0 60 R D 11362 7333 M 0 60 R D
11441 7333 M 0 60 R D 11521 7333 M 0 60 R D 11601 7333 M 0 60 R D
11761 7333 M 0 60 R D 11840 7333 M 0 60 R D 11920 7333 M 0 60 R D
12000 7333 M 0 60 R D 12080 7333 M 0 60 R D 12159 7333 M 0 60 R D
12239 7333 M 0 60 R D 12319 7333 M 0 60 R D 12399 7333 M 0 60 R D
12558 7333 M 0 60 R D 12638 7333 M 0 60 R D 12718 7333 M 0 60 R D
12798 7333 M 0 60 R D 12878 7333 M 0 60 R D 12957 7333 M 0 60 R D
13037 7333 M 0 60 R D 13117 7333 M 0 60 R D 13197 7333 M 0 60 R D
13356 7333 M 0 60 R D 13436 7333 M 0 60 R D 13516 7333 M 0 60 R D
13596 7333 M 0 60 R D 13675 7333 M 0 60 R D 13755 7333 M 0 60 R D
13835 7333 M 0 60 R D 13915 7333 M 0 60 R D 13995 7333 M 0 60 R D
14154 7333 M 0 60 R D 14234 7333 M 0 60 R D 14314 7333 M 0 60 R D
14393 7333 M 0 60 R D 14473 7333 M 0 60 R D 14553 7333 M 0 60 R D
14633 7333 M 0 60 R D 14713 7333 M 0 60 R D 14792 7333 M 0 60 R D
14952 7333 M 0 60 R D 15032 7333 M 0 60 R D 15111 7333 M 0 60 R D
15191 7333 M 0 60 R D 15271 7333 M 0 60 R D 10963 10296 M 4371 0 R D
11681 10296 M 0 -118 R D 12479 10296 M 0 -118 R D 13276 10296 M 0 -118 R D
14074 10296 M 0 -118 R D 14872 10296 M 0 -118 R D 10963 10296 M 0 -59 R D
11043 10296 M 0 -59 R D 11122 10296 M 0 -59 R D 11202 10296 M 0 -59 R D
11282 10296 M 0 -59 R D 11362 10296 M 0 -59 R D 11441 10296 M 0 -59 R D
11521 10296 M 0 -59 R D 11601 10296 M 0 -59 R D 11761 10296 M 0 -59 R D
11840 10296 M 0 -59 R D 11920 10296 M 0 -59 R D 12000 10296 M 0 -59 R D
12080 10296 M 0 -59 R D 12159 10296 M 0 -59 R D 12239 10296 M 0 -59 R D
12319 10296 M 0 -59 R D 12399 10296 M 0 -59 R D 12558 10296 M 0 -59 R D
12638 10296 M 0 -59 R D 12718 10296 M 0 -59 R D 12798 10296 M 0 -59 R D
12878 10296 M 0 -59 R D 12957 10296 M 0 -59 R D 13037 10296 M 0 -59 R D
13117 10296 M 0 -59 R D 13197 10296 M 0 -59 R D 13356 10296 M 0 -59 R D
13436 10296 M 0 -59 R D 13516 10296 M 0 -59 R D 13596 10296 M 0 -59 R D
13675 10296 M 0 -59 R D 13755 10296 M 0 -59 R D 13835 10296 M 0 -59 R D
13915 10296 M 0 -59 R D 13995 10296 M 0 -59 R D 14154 10296 M 0 -59 R D
14234 10296 M 0 -59 R D 14314 10296 M 0 -59 R D 14393 10296 M 0 -59 R D
14473 10296 M 0 -59 R D 14553 10296 M 0 -59 R D 14633 10296 M 0 -59 R D
14713 10296 M 0 -59 R D 14792 10296 M 0 -59 R D 14952 10296 M 0 -59 R D
15032 10296 M 0 -59 R D 15111 10296 M 0 -59 R D 15191 10296 M 0 -59 R D
15271 10296 M 0 -59 R D 10963 7333 M 0 2963 R D 10963 7778 M 175 0 R D
gsave 10852 7638 translate 0 0 M -117.687 0 N
( ) show grestore 10963 8415 M 175 0 R D gsave 10852 8274 translate 0 0 M
-117.687 0 N
( ) show grestore 10963 9052 M 175 0 R D gsave 10852 8911 translate 0 0 M
-117.687 0 N
( ) show grestore 10963 9688 M 175 0 R D gsave 10852 9548 translate 0 0 M
-117.687 0 N
( ) show grestore 10963 7333 M 87 0 R D 10963 7446 M 87 0 R D 10963 7525 M
87 0 R D 10963 7587 M 87 0 R D 10963 7637 M 87 0 R D 10963 7680 M 87 0 R D
10963 7717 M 87 0 R D 10963 7749 M 87 0 R D 10963 7970 M 87 0 R D
10963 8082 M 87 0 R D 10963 8162 M 87 0 R D 10963 8223 M 87 0 R D
10963 8274 M 87 0 R D 10963 8316 M 87 0 R D 10963 8353 M 87 0 R D
10963 8386 M 87 0 R D 10963 8607 M 87 0 R D 10963 8719 M 87 0 R D
10963 8798 M 87 0 R D 10963 8860 M 87 0 R D 10963 8911 M 87 0 R D
10963 8953 M 87 0 R D 10963 8990 M 87 0 R D 10963 9023 M 87 0 R D
10963 9243 M 87 0 R D 10963 9356 M 87 0 R D 10963 9435 M 87 0 R D
10963 9497 M 87 0 R D 10963 9547 M 87 0 R D 10963 9590 M 87 0 R D
10963 9627 M 87 0 R D 10963 9659 M 87 0 R D 10963 9880 M 87 0 R D
10963 9992 M 87 0 R D 10963 10072 M 87 0 R D 10963 10134 M 87 0 R D
10963 10184 M 87 0 R D 10963 10227 M 87 0 R D 10963 10263 M 87 0 R D
10963 10296 M 87 0 R D 15334 7333 M 0 2963 R D 15334 7778 M -175 0 R D
15334 8415 M -175 0 R D 15334 9052 M -175 0 R D 15334 9688 M -175 0 R D
15334 7333 M -87 0 R D 15334 7446 M -87 0 R D 15334 7525 M -87 0 R D
15334 7587 M -87 0 R D 15334 7637 M -87 0 R D 15334 7680 M -87 0 R D
15334 7717 M -87 0 R D 15334 7749 M -87 0 R D 15334 7970 M -87 0 R D
15334 8082 M -87 0 R D 15334 8162 M -87 0 R D 15334 8223 M -87 0 R D
15334 8274 M -87 0 R D 15334 8316 M -87 0 R D 15334 8353 M -87 0 R D
15334 8386 M -87 0 R D 15334 8607 M -87 0 R D 15334 8719 M -87 0 R D
15334 8798 M -87 0 R D 15334 8860 M -87 0 R D 15334 8911 M -87 0 R D
15334 8953 M -87 0 R D 15334 8990 M -87 0 R D 15334 9023 M -87 0 R D
15334 9243 M -87 0 R D 15334 9356 M -87 0 R D 15334 9435 M -87 0 R D
15334 9497 M -87 0 R D 15334 9547 M -87 0 R D 15334 9590 M -87 0 R D
15334 9627 M -87 0 R D 15334 9659 M -87 0 R D 15334 9880 M -87 0 R D
15334 9992 M -87 0 R D 15334 10072 M -87 0 R D 15334 10134 M -87 0 R D
15334 10184 M -87 0 R D 15334 10227 M -87 0 R D 15334 10263 M -87 0 R D
15334 10296 M -87 0 R D 0.761 0.000 0.000 setrgbcolor 10962 8777 M 103 9 R
600 41 R 594 46 R 580 41 R 559 40 R 534 20 R 504 3 R 468 26 R 430 606 R D
0.000 0.549 0.000 setrgbcolor 10962 9039 M 103 3 R 600 26 R 594 24 R
580 56 R 559 14 R 534 17 R 504 10 R 468 24 R 430 13 R D
0.000 0.000 1.000 setrgbcolor 10962 9455 M 103 17 R 600 36 R 594 16 R
580 15 R 559 6 R 534 19 R 504 13 R 468 23 R 430 -574 R D
0.000 0.000 0.000 setrgbcolor 2220 4371 M 4371 0 R D 2938 4371 M 0 118 R D
gsave 2938 3843 translate 0 0 M -58.8433 0 N
( ) show grestore 3736 4371 M 0 118 R D gsave 3736 3843 translate 0 0 M
-58.8433 0 N
( ) show grestore 4534 4371 M 0 118 R D gsave 4534 3843 translate 0 0 M
-58.8433 0 N
( ) show grestore 5332 4371 M 0 118 R D gsave 5332 3843 translate 0 0 M
-58.8433 0 N
( ) show grestore 6129 4371 M 0 118 R D gsave 6129 3843 translate 0 0 M
-58.8433 0 N
( ) show grestore 2220 4371 M 0 59 R D 2300 4371 M 0 59 R D 2380 4371 M
0 59 R D 2459 4371 M 0 59 R D 2539 4371 M 0 59 R D 2619 4371 M 0 59 R D
2699 4371 M 0 59 R D 2779 4371 M 0 59 R D 2858 4371 M 0 59 R D 3018 4371 M
0 59 R D 3098 4371 M 0 59 R D 3177 4371 M 0 59 R D 3257 4371 M 0 59 R D
3337 4371 M 0 59 R D 3417 4371 M 0 59 R D 3497 4371 M 0 59 R D 3576 4371 M
0 59 R D 3656 4371 M 0 59 R D 3816 4371 M 0 59 R D 3896 4371 M 0 59 R D
3975 4371 M 0 59 R D 4055 4371 M 0 59 R D 4135 4371 M 0 59 R D 4215 4371 M
0 59 R D 4294 4371 M 0 59 R D 4374 4371 M 0 59 R D 4454 4371 M 0 59 R D
4614 4371 M 0 59 R D 4693 4371 M 0 59 R D 4773 4371 M 0 59 R D 4853 4371 M
0 59 R D 4933 4371 M 0 59 R D 5012 4371 M 0 59 R D 5092 4371 M 0 59 R D
5172 4371 M 0 59 R D 5252 4371 M 0 59 R D 5411 4371 M 0 59 R D 5491 4371 M
0 59 R D 5571 4371 M 0 59 R D 5651 4371 M 0 59 R D 5731 4371 M 0 59 R D
5810 4371 M 0 59 R D 5890 4371 M 0 59 R D 5970 4371 M 0 59 R D 6050 4371 M
0 59 R D 6209 4371 M 0 59 R D 6289 4371 M 0 59 R D 6369 4371 M 0 59 R D
6449 4371 M 0 59 R D 6528 4371 M 0 59 R D 2220 7333 M 4371 0 R D 2938 7333 M
0 -118 R D 3736 7333 M 0 -118 R D 4534 7333 M 0 -118 R D 5332 7333 M
0 -118 R D 6129 7333 M 0 -118 R D 2220 7333 M 0 -59 R D 2300 7333 M 0 -59 R
D 2380 7333 M 0 -59 R D 2459 7333 M 0 -59 R D 2539 7333 M 0 -59 R D
2619 7333 M 0 -59 R D 2699 7333 M 0 -59 R D 2779 7333 M 0 -59 R D
2858 7333 M 0 -59 R D 3018 7333 M 0 -59 R D 3098 7333 M 0 -59 R D
3177 7333 M 0 -59 R D 3257 7333 M 0 -59 R D 3337 7333 M 0 -59 R D
3417 7333 M 0 -59 R D 3497 7333 M 0 -59 R D 3576 7333 M 0 -59 R D
3656 7333 M 0 -59 R D 3816 7333 M 0 -59 R D 3896 7333 M 0 -59 R D
3975 7333 M 0 -59 R D 4055 7333 M 0 -59 R D 4135 7333 M 0 -59 R D
4215 7333 M 0 -59 R D 4294 7333 M 0 -59 R D 4374 7333 M 0 -59 R D
4454 7333 M 0 -59 R D 4614 7333 M 0 -59 R D 4693 7333 M 0 -59 R D
4773 7333 M 0 -59 R D 4853 7333 M 0 -59 R D 4933 7333 M 0 -59 R D
5012 7333 M 0 -59 R D 5092 7333 M 0 -59 R D 5172 7333 M 0 -59 R D
5252 7333 M 0 -59 R D 5411 7333 M 0 -59 R D 5491 7333 M 0 -59 R D
5571 7333 M 0 -59 R D 5651 7333 M 0 -59 R D 5731 7333 M 0 -59 R D
5810 7333 M 0 -59 R D 5890 7333 M 0 -59 R D 5970 7333 M 0 -59 R D
6050 7333 M 0 -59 R D 6209 7333 M 0 -59 R D 6289 7333 M 0 -59 R D
6369 7333 M 0 -59 R D 6449 7333 M 0 -59 R D 6528 7333 M 0 -59 R D
2220 4371 M 0 2962 R D 2220 4816 M 175 0 R D gsave 2109 4675 translate 0 0 M
-762.61 0 N
(10) show X 192.937 M
%%IncludeResource: font Helvetica
262.467 /Helvetica STDFONT
(12) show grestore
%%IncludeResource: font Helvetica
423.333 /Helvetica STDFONT 2220 5452 M 175 0 R D
gsave 2109 5312 translate 0 0 M -762.61 0 N
(10) show X 192.937 M
%%IncludeResource: font Helvetica
262.467 /Helvetica STDFONT
(13) show grestore
%%IncludeResource: font Helvetica
423.333 /Helvetica STDFONT 2220 6089 M 175 0 R D
gsave 2109 5948 translate 0 0 M -762.61 0 N
(10) show X 192.937 M
%%IncludeResource: font Helvetica
262.467 /Helvetica STDFONT
(14) show grestore
%%IncludeResource: font Helvetica
423.333 /Helvetica STDFONT 2220 6726 M 175 0 R D
gsave 2109 6585 translate 0 0 M -762.61 0 N
(10) show X 192.937 M
%%IncludeResource: font Helvetica
262.467 /Helvetica STDFONT
(15) show grestore
%%IncludeResource: font Helvetica
423.333 /Helvetica STDFONT 2220 4371 M 88 0 R D 2220 4483 M 88 0 R D
2220 4562 M 88 0 R D 2220 4624 M 88 0 R D 2220 4675 M 88 0 R D 2220 4717 M
88 0 R D 2220 4754 M 88 0 R D 2220 4787 M 88 0 R D 2220 5007 M 88 0 R D
2220 5120 M 88 0 R D 2220 5199 M 88 0 R D 2220 5261 M 88 0 R D 2220 5311 M
88 0 R D 2220 5354 M 88 0 R D 2220 5391 M 88 0 R D 2220 5423 M 88 0 R D
2220 5644 M 88 0 R D 2220 5756 M 88 0 R D 2220 5836 M 88 0 R D 2220 5897 M
88 0 R D 2220 5948 M 88 0 R D 2220 5991 M 88 0 R D 2220 6027 M 88 0 R D
2220 6060 M 88 0 R D 2220 6281 M 88 0 R D 2220 6393 M 88 0 R D 2220 6472 M
88 0 R D 2220 6534 M 88 0 R D 2220 6585 M 88 0 R D 2220 6627 M 88 0 R D
2220 6664 M 88 0 R D 2220 6697 M 88 0 R D 2220 6917 M 88 0 R D 2220 7030 M
88 0 R D 2220 7109 M 88 0 R D 2220 7171 M 88 0 R D 2220 7221 M 88 0 R D
2220 7264 M 88 0 R D 2220 7301 M 88 0 R D 2220 7333 M 88 0 R D 6591 4371 M
0 2962 R D 6591 4816 M -174 0 R D 6591 5452 M -174 0 R D 6591 6089 M
-174 0 R D 6591 6726 M -174 0 R D 6591 4371 M -87 0 R D 6591 4483 M -87 0 R
D 6591 4562 M -87 0 R D 6591 4624 M -87 0 R D 6591 4675 M -87 0 R D
6591 4717 M -87 0 R D 6591 4754 M -87 0 R D 6591 4787 M -87 0 R D
6591 5007 M -87 0 R D 6591 5120 M -87 0 R D 6591 5199 M -87 0 R D
6591 5261 M -87 0 R D 6591 5311 M -87 0 R D 6591 5354 M -87 0 R D
6591 5391 M -87 0 R D 6591 5423 M -87 0 R D 6591 5644 M -87 0 R D
6591 5756 M -87 0 R D 6591 5836 M -87 0 R D 6591 5897 M -87 0 R D
6591 5948 M -87 0 R D 6591 5991 M -87 0 R D 6591 6027 M -87 0 R D
6591 6060 M -87 0 R D 6591 6281 M -87 0 R D 6591 6393 M -87 0 R D
6591 6472 M -87 0 R D 6591 6534 M -87 0 R D 6591 6585 M -87 0 R D
6591 6627 M -87 0 R D 6591 6664 M -87 0 R D 6591 6697 M -87 0 R D
6591 6917 M -87 0 R D 6591 7030 M -87 0 R D 6591 7109 M -87 0 R D
6591 7171 M -87 0 R D 6591 7221 M -87 0 R D 6591 7264 M -87 0 R D
6591 7301 M -87 0 R D 6591 7333 M -87 0 R D 0.761 0.000 0.000 setrgbcolor
5693 5757 M 468 616 R 430 325 R D 0.000 0.549 0.000 setrgbcolor 5894 4370 M
267 1451 R 430 548 R D 0.000 0.000 1.000 setrgbcolor 5693 6678 M 468 16 R
430 -876 R D 0.761 0.000 0.000 setrgbcolor 2439 5556 M 65 0 R 66 0 R 65 0 R
66 0 R 65 0 R 66 0 R 66 0 R 65 0 R 66 0 R D 0.000 0.549 0.000 setrgbcolor
2439 5171 M 65 0 R 66 0 R 65 0 R 66 0 R 65 0 R 66 0 R 66 0 R 65 0 R 66 0 R D
0.000 0.000 1.000 setrgbcolor 2439 4785 M 65 0 R 66 0 R 65 0 R 66 0 R 65 0 R
66 0 R 66 0 R 65 0 R 66 0 R D 0.761 0.000 0.000 setrgbcolor
gsave 3094 5499 translate 0 0 M
(1) show grestore 0.000 0.549 0.000 setrgbcolor
gsave 3094 5114 translate 0 0 M
(2) show grestore 0.000 0.000 1.000 setrgbcolor
gsave 3094 4729 translate 0 0 M
(3) show grestore 0.000 0.000 0.000 setrgbcolor 6591 4371 M 4372 0 R D
7309 4371 M 0 118 R D gsave 7309 3843 translate 0 0 M -58.8433 0 N
( ) show grestore 8107 4371 M 0 118 R D gsave 8107 3843 translate 0 0 M
-58.8433 0 N
( ) show grestore 8905 4371 M 0 118 R D gsave 8905 3843 translate 0 0 M
-58.8433 0 N
( ) show grestore 9703 4371 M 0 118 R D gsave 9703 3843 translate 0 0 M
-58.8433 0 N
( ) show grestore 10501 4371 M 0 118 R D gsave 10501 3843 translate 0 0 M
-58.8433 0 N
( ) show grestore 6591 4371 M 0 59 R D 6671 4371 M 0 59 R D 6751 4371 M
0 59 R D 6831 4371 M 0 59 R D 6911 4371 M 0 59 R D 6990 4371 M 0 59 R D
7070 4371 M 0 59 R D 7150 4371 M 0 59 R D 7230 4371 M 0 59 R D 7389 4371 M
0 59 R D 7469 4371 M 0 59 R D 7549 4371 M 0 59 R D 7629 4371 M 0 59 R D
7708 4371 M 0 59 R D 7788 4371 M 0 59 R D 7868 4371 M 0 59 R D 7948 4371 M
0 59 R D 8028 4371 M 0 59 R D 8187 4371 M 0 59 R D 8267 4371 M 0 59 R D
8347 4371 M 0 59 R D 8426 4371 M 0 59 R D 8506 4371 M 0 59 R D 8586 4371 M
0 59 R D 8666 4371 M 0 59 R D 8746 4371 M 0 59 R D 8825 4371 M 0 59 R D
8985 4371 M 0 59 R D 9065 4371 M 0 59 R D 9144 4371 M 0 59 R D 9224 4371 M
0 59 R D 9304 4371 M 0 59 R D 9384 4371 M 0 59 R D 9464 4371 M 0 59 R D
9543 4371 M 0 59 R D 9623 4371 M 0 59 R D 9783 4371 M 0 59 R D 9863 4371 M
0 59 R D 9942 4371 M 0 59 R D 10022 4371 M 0 59 R D 10102 4371 M 0 59 R D
10182 4371 M 0 59 R D 10261 4371 M 0 59 R D 10341 4371 M 0 59 R D
10421 4371 M 0 59 R D 10581 4371 M 0 59 R D 10660 4371 M 0 59 R D
10740 4371 M 0 59 R D 10820 4371 M 0 59 R D 10900 4371 M 0 59 R D
6591 7333 M 4372 0 R D 7309 7333 M 0 -118 R D 8107 7333 M 0 -118 R D
8905 7333 M 0 -118 R D 9703 7333 M 0 -118 R D 10501 7333 M 0 -118 R D
6591 7333 M 0 -59 R D 6671 7333 M 0 -59 R D 6751 7333 M 0 -59 R D
6831 7333 M 0 -59 R D 6911 7333 M 0 -59 R D 6990 7333 M 0 -59 R D
7070 7333 M 0 -59 R D 7150 7333 M 0 -59 R D 7230 7333 M 0 -59 R D
7389 7333 M 0 -59 R D 7469 7333 M 0 -59 R D 7549 7333 M 0 -59 R D
7629 7333 M 0 -59 R D 7708 7333 M 0 -59 R D 7788 7333 M 0 -59 R D
7868 7333 M 0 -59 R D 7948 7333 M 0 -59 R D 8028 7333 M 0 -59 R D
8187 7333 M 0 -59 R D 8267 7333 M 0 -59 R D 8347 7333 M 0 -59 R D
8426 7333 M 0 -59 R D 8506 7333 M 0 -59 R D 8586 7333 M 0 -59 R D
8666 7333 M 0 -59 R D 8746 7333 M 0 -59 R D 8825 7333 M 0 -59 R D
8985 7333 M 0 -59 R D 9065 7333 M 0 -59 R D 9144 7333 M 0 -59 R D
9224 7333 M 0 -59 R D 9304 7333 M 0 -59 R D 9384 7333 M 0 -59 R D
9464 7333 M 0 -59 R D 9543 7333 M 0 -59 R D 9623 7333 M 0 -59 R D
9783 7333 M 0 -59 R D 9863 7333 M 0 -59 R D 9942 7333 M 0 -59 R D
10022 7333 M 0 -59 R D 10102 7333 M 0 -59 R D 10182 7333 M 0 -59 R D
10261 7333 M 0 -59 R D 10341 7333 M 0 -59 R D 10421 7333 M 0 -59 R D
10581 7333 M 0 -59 R D 10660 7333 M 0 -59 R D 10740 7333 M 0 -59 R D
10820 7333 M 0 -59 R D 10900 7333 M 0 -59 R D 6591 4371 M 0 2962 R D
6591 4816 M 175 0 R D gsave 6480 4675 translate 0 0 M -117.687 0 N
( ) show grestore 6591 5452 M 175 0 R D gsave 6480 5312 translate 0 0 M
-117.687 0 N
( ) show grestore 6591 6089 M 175 0 R D gsave 6480 5948 translate 0 0 M
-117.687 0 N
( ) show grestore 6591 6726 M 175 0 R D gsave 6480 6585 translate 0 0 M
-117.687 0 N
( ) show grestore 6591 4371 M 88 0 R D 6591 4483 M 88 0 R D 6591 4562 M
88 0 R D 6591 4624 M 88 0 R D 6591 4675 M 88 0 R D 6591 4717 M 88 0 R D
6591 4754 M 88 0 R D 6591 4787 M 88 0 R D 6591 5007 M 88 0 R D 6591 5120 M
88 0 R D 6591 5199 M 88 0 R D 6591 5261 M 88 0 R D 6591 5311 M 88 0 R D
6591 5354 M 88 0 R D 6591 5391 M 88 0 R D 6591 5423 M 88 0 R D 6591 5644 M
88 0 R D 6591 5756 M 88 0 R D 6591 5836 M 88 0 R D 6591 5897 M 88 0 R D
6591 5948 M 88 0 R D 6591 5991 M 88 0 R D 6591 6027 M 88 0 R D 6591 6060 M
88 0 R D 6591 6281 M 88 0 R D 6591 6393 M 88 0 R D 6591 6472 M 88 0 R D
6591 6534 M 88 0 R D 6591 6585 M 88 0 R D 6591 6627 M 88 0 R D 6591 6664 M
88 0 R D 6591 6697 M 88 0 R D 6591 6917 M 88 0 R D 6591 7030 M 88 0 R D
6591 7109 M 88 0 R D 6591 7171 M 88 0 R D 6591 7221 M 88 0 R D 6591 7264 M
88 0 R D 6591 7301 M 88 0 R D 6591 7333 M 88 0 R D 10963 4371 M 0 2962 R D
10963 4816 M -175 0 R D 10963 5452 M -175 0 R D 10963 6089 M -175 0 R D
10963 6726 M -175 0 R D 10963 4371 M -88 0 R D 10963 4483 M -88 0 R D
10963 4562 M -88 0 R D 10963 4624 M -88 0 R D 10963 4675 M -88 0 R D
10963 4717 M -88 0 R D 10963 4754 M -88 0 R D 10963 4787 M -88 0 R D
10963 5007 M -88 0 R D 10963 5120 M -88 0 R D 10963 5199 M -88 0 R D
10963 5261 M -88 0 R D 10963 5311 M -88 0 R D 10963 5354 M -88 0 R D
10963 5391 M -88 0 R D 10963 5423 M -88 0 R D 10963 5644 M -88 0 R D
10963 5756 M -88 0 R D 10963 5836 M -88 0 R D 10963 5897 M -88 0 R D
10963 5948 M -88 0 R D 10963 5991 M -88 0 R D 10963 6027 M -88 0 R D
10963 6060 M -88 0 R D 10963 6281 M -88 0 R D 10963 6393 M -88 0 R D
10963 6472 M -88 0 R D 10963 6534 M -88 0 R D 10963 6585 M -88 0 R D
10963 6627 M -88 0 R D 10963 6664 M -88 0 R D 10963 6697 M -88 0 R D
10963 6917 M -88 0 R D 10963 7030 M -88 0 R D 10963 7109 M -88 0 R D
10963 7171 M -88 0 R D 10963 7221 M -88 0 R D 10963 7264 M -88 0 R D
10963 7301 M -88 0 R D 10963 7333 M -88 0 R D 0.761 0.000 0.000 setrgbcolor
6591 6057 M 102 4 R 601 14 R 593 17 R 580 6 R 560 13 R 534 11 R 503 8 R
469 13 R 429 544 R D 0.000 0.549 0.000 setrgbcolor 6591 5809 M 102 0 R
601 0 R 593 0 R 580 0 R 560 0 R 534 0 R 503 0 R 469 0 R 429 343 R D
0.000 0.000 1.000 setrgbcolor 6591 6581 M 102 9 R 601 35 R 593 4 R 580 14 R
560 6 R 534 11 R 503 5 R 469 15 R 429 -869 R D 0.000 0.000 0.000 setrgbcolor
10963 4371 M 4371 0 R D 11681 4371 M 0 118 R D
gsave 11681 3843 translate 0 0 M -58.8433 0 N
( ) show grestore 12479 4371 M 0 118 R D gsave 12479 3843 translate 0 0 M
-58.8433 0 N
( ) show grestore 13276 4371 M 0 118 R D gsave 13276 3843 translate 0 0 M
-58.8433 0 N
( ) show grestore 14074 4371 M 0 118 R D gsave 14074 3843 translate 0 0 M
-58.8433 0 N
( ) show grestore 14872 4371 M 0 118 R D gsave 14872 3843 translate 0 0 M
-58.8433 0 N
( ) show grestore 10963 4371 M 0 59 R D 11043 4371 M 0 59 R D 11122 4371 M
0 59 R D 11202 4371 M 0 59 R D 11282 4371 M 0 59 R D 11362 4371 M 0 59 R D
11441 4371 M 0 59 R D 11521 4371 M 0 59 R D 11601 4371 M 0 59 R D
11761 4371 M 0 59 R D 11840 4371 M 0 59 R D 11920 4371 M 0 59 R D
12000 4371 M 0 59 R D 12080 4371 M 0 59 R D 12159 4371 M 0 59 R D
12239 4371 M 0 59 R D 12319 4371 M 0 59 R D 12399 4371 M 0 59 R D
12558 4371 M 0 59 R D 12638 4371 M 0 59 R D 12718 4371 M 0 59 R D
12798 4371 M 0 59 R D 12878 4371 M 0 59 R D 12957 4371 M 0 59 R D
13037 4371 M 0 59 R D 13117 4371 M 0 59 R D 13197 4371 M 0 59 R D
13356 4371 M 0 59 R D 13436 4371 M 0 59 R D 13516 4371 M 0 59 R D
13596 4371 M 0 59 R D 13675 4371 M 0 59 R D 13755 4371 M 0 59 R D
13835 4371 M 0 59 R D 13915 4371 M 0 59 R D 13995 4371 M 0 59 R D
14154 4371 M 0 59 R D 14234 4371 M 0 59 R D 14314 4371 M 0 59 R D
14393 4371 M 0 59 R D 14473 4371 M 0 59 R D 14553 4371 M 0 59 R D
14633 4371 M 0 59 R D 14713 4371 M 0 59 R D 14792 4371 M 0 59 R D
14952 4371 M 0 59 R D 15032 4371 M 0 59 R D 15111 4371 M 0 59 R D
15191 4371 M 0 59 R D 15271 4371 M 0 59 R D 10963 7333 M 4371 0 R D
11681 7333 M 0 -118 R D 12479 7333 M 0 -118 R D 13276 7333 M 0 -118 R D
14074 7333 M 0 -118 R D 14872 7333 M 0 -118 R D 10963 7333 M 0 -59 R D
11043 7333 M 0 -59 R D 11122 7333 M 0 -59 R D 11202 7333 M 0 -59 R D
11282 7333 M 0 -59 R D 11362 7333 M 0 -59 R D 11441 7333 M 0 -59 R D
11521 7333 M 0 -59 R D 11601 7333 M 0 -59 R D 11761 7333 M 0 -59 R D
11840 7333 M 0 -59 R D 11920 7333 M 0 -59 R D 12000 7333 M 0 -59 R D
12080 7333 M 0 -59 R D 12159 7333 M 0 -59 R D 12239 7333 M 0 -59 R D
12319 7333 M 0 -59 R D 12399 7333 M 0 -59 R D 12558 7333 M 0 -59 R D
12638 7333 M 0 -59 R D 12718 7333 M 0 -59 R D 12798 7333 M 0 -59 R D
12878 7333 M 0 -59 R D 12957 7333 M 0 -59 R D 13037 7333 M 0 -59 R D
13117 7333 M 0 -59 R D 13197 7333 M 0 -59 R D 13356 7333 M 0 -59 R D
13436 7333 M 0 -59 R D 13516 7333 M 0 -59 R D 13596 7333 M 0 -59 R D
13675 7333 M 0 -59 R D 13755 7333 M 0 -59 R D 13835 7333 M 0 -59 R D
13915 7333 M 0 -59 R D 13995 7333 M 0 -59 R D 14154 7333 M 0 -59 R D
14234 7333 M 0 -59 R D 14314 7333 M 0 -59 R D 14393 7333 M 0 -59 R D
14473 7333 M 0 -59 R D 14553 7333 M 0 -59 R D 14633 7333 M 0 -59 R D
14713 7333 M 0 -59 R D 14792 7333 M 0 -59 R D 14952 7333 M 0 -59 R D
15032 7333 M 0 -59 R D 15111 7333 M 0 -59 R D 15191 7333 M 0 -59 R D
15271 7333 M 0 -59 R D 10963 4371 M 0 2962 R D 10963 4816 M 175 0 R D
gsave 10852 4675 translate 0 0 M -117.687 0 N
( ) show grestore 10963 5452 M 175 0 R D gsave 10852 5312 translate 0 0 M
-117.687 0 N
( ) show grestore 10963 6089 M 175 0 R D gsave 10852 5948 translate 0 0 M
-117.687 0 N
( ) show grestore 10963 6726 M 175 0 R D gsave 10852 6585 translate 0 0 M
-117.687 0 N
( ) show grestore 10963 4371 M 87 0 R D 10963 4483 M 87 0 R D 10963 4562 M
87 0 R D 10963 4624 M 87 0 R D 10963 4675 M 87 0 R D 10963 4717 M 87 0 R D
10963 4754 M 87 0 R D 10963 4787 M 87 0 R D 10963 5007 M 87 0 R D
10963 5120 M 87 0 R D 10963 5199 M 87 0 R D 10963 5261 M 87 0 R D
10963 5311 M 87 0 R D 10963 5354 M 87 0 R D 10963 5391 M 87 0 R D
10963 5423 M 87 0 R D 10963 5644 M 87 0 R D 10963 5756 M 87 0 R D
10963 5836 M 87 0 R D 10963 5897 M 87 0 R D 10963 5948 M 87 0 R D
10963 5991 M 87 0 R D 10963 6027 M 87 0 R D 10963 6060 M 87 0 R D
10963 6281 M 87 0 R D 10963 6393 M 87 0 R D 10963 6472 M 87 0 R D
10963 6534 M 87 0 R D 10963 6585 M 87 0 R D 10963 6627 M 87 0 R D
10963 6664 M 87 0 R D 10963 6697 M 87 0 R D 10963 6917 M 87 0 R D
10963 7030 M 87 0 R D 10963 7109 M 87 0 R D 10963 7171 M 87 0 R D
10963 7221 M 87 0 R D 10963 7264 M 87 0 R D 10963 7301 M 87 0 R D
10963 7333 M 87 0 R D 15334 4371 M 0 2962 R D 15334 4816 M -175 0 R D
15334 5452 M -175 0 R D 15334 6089 M -175 0 R D 15334 6726 M -175 0 R D
15334 4371 M -87 0 R D 15334 4483 M -87 0 R D 15334 4562 M -87 0 R D
15334 4624 M -87 0 R D 15334 4675 M -87 0 R D 15334 4717 M -87 0 R D
15334 4754 M -87 0 R D 15334 4787 M -87 0 R D 15334 5007 M -87 0 R D
15334 5120 M -87 0 R D 15334 5199 M -87 0 R D 15334 5261 M -87 0 R D
15334 5311 M -87 0 R D 15334 5354 M -87 0 R D 15334 5391 M -87 0 R D
15334 5423 M -87 0 R D 15334 5644 M -87 0 R D 15334 5756 M -87 0 R D
15334 5836 M -87 0 R D 15334 5897 M -87 0 R D 15334 5948 M -87 0 R D
15334 5991 M -87 0 R D 15334 6027 M -87 0 R D 15334 6060 M -87 0 R D
15334 6281 M -87 0 R D 15334 6393 M -87 0 R D 15334 6472 M -87 0 R D
15334 6534 M -87 0 R D 15334 6585 M -87 0 R D 15334 6627 M -87 0 R D
15334 6664 M -87 0 R D 15334 6697 M -87 0 R D 15334 6917 M -87 0 R D
15334 7030 M -87 0 R D 15334 7109 M -87 0 R D 15334 7171 M -87 0 R D
15334 7221 M -87 0 R D 15334 7264 M -87 0 R D 15334 7301 M -87 0 R D
15334 7333 M -87 0 R D 0.761 0.000 0.000 setrgbcolor 10962 5569 M 103 3 R
600 11 R 594 0 R 580 0 R 559 0 R 534 0 R 504 0 R 468 0 R 430 1204 R D
0.000 0.549 0.000 setrgbcolor 10962 5931 M 103 5 R 600 -6 R 594 -7 R 580 4 R
559 2 R 534 7 R 504 1 R 468 0 R 430 0 R D 0.000 0.000 1.000 setrgbcolor
10962 6628 M 103 2 R 600 26 R 594 24 R 580 21 R 559 29 R 534 17 R 504 19 R
468 10 R 430 -1193 R D 0.000 0.000 0.000 setrgbcolor 2220 1408 M 4371 0 R D
2938 1408 M 0 119 R D gsave 2938 880 translate 0 0 M -117.687 0 N
(9) show grestore 3736 1408 M 0 119 R D gsave 3736 880 translate 0 0 M
-235.373 0 N
(10) show grestore 4534 1408 M 0 119 R D gsave 4534 880 translate 0 0 M
-235.373 0 N
(11) show grestore 5332 1408 M 0 119 R D gsave 5332 880 translate 0 0 M
-235.373 0 N
(12) show grestore 6129 1408 M 0 119 R D gsave 6129 880 translate 0 0 M
-235.373 0 N
(13) show grestore 2220 1408 M 0 59 R D 2300 1408 M 0 59 R D 2380 1408 M
0 59 R D 2459 1408 M 0 59 R D 2539 1408 M 0 59 R D 2619 1408 M 0 59 R D
2699 1408 M 0 59 R D 2779 1408 M 0 59 R D 2858 1408 M 0 59 R D 3018 1408 M
0 59 R D 3098 1408 M 0 59 R D 3177 1408 M 0 59 R D 3257 1408 M 0 59 R D
3337 1408 M 0 59 R D 3417 1408 M 0 59 R D 3497 1408 M 0 59 R D 3576 1408 M
0 59 R D 3656 1408 M 0 59 R D 3816 1408 M 0 59 R D 3896 1408 M 0 59 R D
3975 1408 M 0 59 R D 4055 1408 M 0 59 R D 4135 1408 M 0 59 R D 4215 1408 M
0 59 R D 4294 1408 M 0 59 R D 4374 1408 M 0 59 R D 4454 1408 M 0 59 R D
4614 1408 M 0 59 R D 4693 1408 M 0 59 R D 4773 1408 M 0 59 R D 4853 1408 M
0 59 R D 4933 1408 M 0 59 R D 5012 1408 M 0 59 R D 5092 1408 M 0 59 R D
5172 1408 M 0 59 R D 5252 1408 M 0 59 R D 5411 1408 M 0 59 R D 5491 1408 M
0 59 R D 5571 1408 M 0 59 R D 5651 1408 M 0 59 R D 5731 1408 M 0 59 R D
5810 1408 M 0 59 R D 5890 1408 M 0 59 R D 5970 1408 M 0 59 R D 6050 1408 M
0 59 R D 6209 1408 M 0 59 R D 6289 1408 M 0 59 R D 6369 1408 M 0 59 R D
6449 1408 M 0 59 R D 6528 1408 M 0 59 R D 2220 4371 M 4371 0 R D 2938 4371 M
0 -119 R D 3736 4371 M 0 -119 R D 4534 4371 M 0 -119 R D 5332 4371 M
0 -119 R D 6129 4371 M 0 -119 R D 2220 4371 M 0 -60 R D 2300 4371 M 0 -60 R
D 2380 4371 M 0 -60 R D 2459 4371 M 0 -60 R D 2539 4371 M 0 -60 R D
2619 4371 M 0 -60 R D 2699 4371 M 0 -60 R D 2779 4371 M 0 -60 R D
2858 4371 M 0 -60 R D 3018 4371 M 0 -60 R D 3098 4371 M 0 -60 R D
3177 4371 M 0 -60 R D 3257 4371 M 0 -60 R D 3337 4371 M 0 -60 R D
3417 4371 M 0 -60 R D 3497 4371 M 0 -60 R D 3576 4371 M 0 -60 R D
3656 4371 M 0 -60 R D 3816 4371 M 0 -60 R D 3896 4371 M 0 -60 R D
3975 4371 M 0 -60 R D 4055 4371 M 0 -60 R D 4135 4371 M 0 -60 R D
4215 4371 M 0 -60 R D 4294 4371 M 0 -60 R D 4374 4371 M 0 -60 R D
4454 4371 M 0 -60 R D 4614 4371 M 0 -60 R D 4693 4371 M 0 -60 R D
4773 4371 M 0 -60 R D 4853 4371 M 0 -60 R D 4933 4371 M 0 -60 R D
5012 4371 M 0 -60 R D 5092 4371 M 0 -60 R D 5172 4371 M 0 -60 R D
5252 4371 M 0 -60 R D 5411 4371 M 0 -60 R D 5491 4371 M 0 -60 R D
5571 4371 M 0 -60 R D 5651 4371 M 0 -60 R D 5731 4371 M 0 -60 R D
5810 4371 M 0 -60 R D 5890 4371 M 0 -60 R D 5970 4371 M 0 -60 R D
6050 4371 M 0 -60 R D 6209 4371 M 0 -60 R D 6289 4371 M 0 -60 R D
6369 4371 M 0 -60 R D 6449 4371 M 0 -60 R D 6528 4371 M 0 -60 R D
2220 1408 M 0 2963 R D 2220 1853 M 175 0 R D gsave 2109 1712 translate 0 0 M
-762.61 0 N
(10) show X 192.937 M
%%IncludeResource: font Helvetica
262.467 /Helvetica STDFONT
(12) show grestore
%%IncludeResource: font Helvetica
423.333 /Helvetica STDFONT 2220 2490 M 175 0 R D
gsave 2109 2349 translate 0 0 M -762.61 0 N
(10) show X 192.937 M
%%IncludeResource: font Helvetica
262.467 /Helvetica STDFONT
(13) show grestore
%%IncludeResource: font Helvetica
423.333 /Helvetica STDFONT 2220 3126 M 175 0 R D
gsave 2109 2986 translate 0 0 M -762.61 0 N
(10) show X 192.937 M
%%IncludeResource: font Helvetica
262.467 /Helvetica STDFONT
(14) show grestore
%%IncludeResource: font Helvetica
423.333 /Helvetica STDFONT 2220 3763 M 175 0 R D
gsave 2109 3622 translate 0 0 M -762.61 0 N
(10) show X 192.937 M
%%IncludeResource: font Helvetica
262.467 /Helvetica STDFONT
(15) show grestore
%%IncludeResource: font Helvetica
423.333 /Helvetica STDFONT 2220 1408 M 88 0 R D 2220 1520 M 88 0 R D
2220 1600 M 88 0 R D 2220 1661 M 88 0 R D 2220 1712 M 88 0 R D 2220 1754 M
88 0 R D 2220 1791 M 88 0 R D 2220 1824 M 88 0 R D 2220 2045 M 88 0 R D
2220 2157 M 88 0 R D 2220 2236 M 88 0 R D 2220 2298 M 88 0 R D 2220 2349 M
88 0 R D 2220 2391 M 88 0 R D 2220 2428 M 88 0 R D 2220 2461 M 88 0 R D
2220 2681 M 88 0 R D 2220 2794 M 88 0 R D 2220 2873 M 88 0 R D 2220 2935 M
88 0 R D 2220 2985 M 88 0 R D 2220 3028 M 88 0 R D 2220 3065 M 88 0 R D
2220 3097 M 88 0 R D 2220 3318 M 88 0 R D 2220 3430 M 88 0 R D 2220 3510 M
88 0 R D 2220 3571 M 88 0 R D 2220 3622 M 88 0 R D 2220 3665 M 88 0 R D
2220 3701 M 88 0 R D 2220 3734 M 88 0 R D 2220 3955 M 88 0 R D 2220 4067 M
88 0 R D 2220 4146 M 88 0 R D 2220 4208 M 88 0 R D 2220 4259 M 88 0 R D
2220 4301 M 88 0 R D 2220 4338 M 88 0 R D 2220 4371 M 88 0 R D 6591 1408 M
0 2963 R D 6591 1853 M -174 0 R D 6591 2490 M -174 0 R D 6591 3126 M
-174 0 R D 6591 3763 M -174 0 R D 6591 1408 M -87 0 R D 6591 1520 M -87 0 R
D 6591 1600 M -87 0 R D 6591 1661 M -87 0 R D 6591 1712 M -87 0 R D
6591 1754 M -87 0 R D 6591 1791 M -87 0 R D 6591 1824 M -87 0 R D
6591 2045 M -87 0 R D 6591 2157 M -87 0 R D 6591 2236 M -87 0 R D
6591 2298 M -87 0 R D 6591 2349 M -87 0 R D 6591 2391 M -87 0 R D
6591 2428 M -87 0 R D 6591 2461 M -87 0 R D 6591 2681 M -87 0 R D
6591 2794 M -87 0 R D 6591 2873 M -87 0 R D 6591 2935 M -87 0 R D
6591 2985 M -87 0 R D 6591 3028 M -87 0 R D 6591 3065 M -87 0 R D
6591 3097 M -87 0 R D 6591 3318 M -87 0 R D 6591 3430 M -87 0 R D
6591 3510 M -87 0 R D 6591 3571 M -87 0 R D 6591 3622 M -87 0 R D
6591 3665 M -87 0 R D 6591 3701 M -87 0 R D 6591 3734 M -87 0 R D
6591 3955 M -87 0 R D 6591 4067 M -87 0 R D 6591 4146 M -87 0 R D
6591 4208 M -87 0 R D 6591 4259 M -87 0 R D 6591 4301 M -87 0 R D
6591 4338 M -87 0 R D 6591 4371 M -87 0 R D 0.761 0.000 0.000 setrgbcolor
2220 3366 M 102 32 R 600 38 R 594 -108 R 580 0 R 560 0 R 534 0 R 503 0 R
468 0 R 430 566 R D 0.000 0.549 0.000 setrgbcolor 2220 3079 M 102 6 R
600 25 R 594 -24 R 580 0 R 560 0 R 534 0 R 503 0 R 468 0 R 430 242 R D
0.000 0.000 1.000 setrgbcolor 2220 3510 M 102 12 R 600 42 R 594 48 R
580 76 R 560 64 R 534 45 R 503 42 R 468 44 R 430 -797 R D
0.000 0.000 0.000 setrgbcolor 6591 1408 M 4372 0 R D 7309 1408 M 0 119 R D
gsave 7309 880 translate 0 0 M -117.687 0 N
(9) show grestore 8107 1408 M 0 119 R D gsave 8107 880 translate 0 0 M
-235.373 0 N
(10) show grestore 8905 1408 M 0 119 R D gsave 8905 880 translate 0 0 M
-235.373 0 N
(11) show grestore 9703 1408 M 0 119 R D gsave 9703 880 translate 0 0 M
-235.373 0 N
(12) show grestore 10501 1408 M 0 119 R D gsave 10501 880 translate 0 0 M
-235.373 0 N
(13) show grestore 6591 1408 M 0 59 R D 6671 1408 M 0 59 R D 6751 1408 M
0 59 R D 6831 1408 M 0 59 R D 6911 1408 M 0 59 R D 6990 1408 M 0 59 R D
7070 1408 M 0 59 R D 7150 1408 M 0 59 R D 7230 1408 M 0 59 R D 7389 1408 M
0 59 R D 7469 1408 M 0 59 R D 7549 1408 M 0 59 R D 7629 1408 M 0 59 R D
7708 1408 M 0 59 R D 7788 1408 M 0 59 R D 7868 1408 M 0 59 R D 7948 1408 M
0 59 R D 8028 1408 M 0 59 R D 8187 1408 M 0 59 R D 8267 1408 M 0 59 R D
8347 1408 M 0 59 R D 8426 1408 M 0 59 R D 8506 1408 M 0 59 R D 8586 1408 M
0 59 R D 8666 1408 M 0 59 R D 8746 1408 M 0 59 R D 8825 1408 M 0 59 R D
8985 1408 M 0 59 R D 9065 1408 M 0 59 R D 9144 1408 M 0 59 R D 9224 1408 M
0 59 R D 9304 1408 M 0 59 R D 9384 1408 M 0 59 R D 9464 1408 M 0 59 R D
9543 1408 M 0 59 R D 9623 1408 M 0 59 R D 9783 1408 M 0 59 R D 9863 1408 M
0 59 R D 9942 1408 M 0 59 R D 10022 1408 M 0 59 R D 10102 1408 M 0 59 R D
10182 1408 M 0 59 R D 10261 1408 M 0 59 R D 10341 1408 M 0 59 R D
10421 1408 M 0 59 R D 10581 1408 M 0 59 R D 10660 1408 M 0 59 R D
10740 1408 M 0 59 R D 10820 1408 M 0 59 R D 10900 1408 M 0 59 R D
6591 4371 M 4372 0 R D 7309 4371 M 0 -119 R D 8107 4371 M 0 -119 R D
8905 4371 M 0 -119 R D 9703 4371 M 0 -119 R D 10501 4371 M 0 -119 R D
6591 4371 M 0 -60 R D 6671 4371 M 0 -60 R D 6751 4371 M 0 -60 R D
6831 4371 M 0 -60 R D 6911 4371 M 0 -60 R D 6990 4371 M 0 -60 R D
7070 4371 M 0 -60 R D 7150 4371 M 0 -60 R D 7230 4371 M 0 -60 R D
7389 4371 M 0 -60 R D 7469 4371 M 0 -60 R D 7549 4371 M 0 -60 R D
7629 4371 M 0 -60 R D 7708 4371 M 0 -60 R D 7788 4371 M 0 -60 R D
7868 4371 M 0 -60 R D 7948 4371 M 0 -60 R D 8028 4371 M 0 -60 R D
8187 4371 M 0 -60 R D 8267 4371 M 0 -60 R D 8347 4371 M 0 -60 R D
8426 4371 M 0 -60 R D 8506 4371 M 0 -60 R D 8586 4371 M 0 -60 R D
8666 4371 M 0 -60 R D 8746 4371 M 0 -60 R D 8825 4371 M 0 -60 R D
8985 4371 M 0 -60 R D 9065 4371 M 0 -60 R D 9144 4371 M 0 -60 R D
9224 4371 M 0 -60 R D 9304 4371 M 0 -60 R D 9384 4371 M 0 -60 R D
9464 4371 M 0 -60 R D 9543 4371 M 0 -60 R D 9623 4371 M 0 -60 R D
9783 4371 M 0 -60 R D 9863 4371 M 0 -60 R D 9942 4371 M 0 -60 R D
10022 4371 M 0 -60 R D 10102 4371 M 0 -60 R D 10182 4371 M 0 -60 R D
10261 4371 M 0 -60 R D 10341 4371 M 0 -60 R D 10421 4371 M 0 -60 R D
10581 4371 M 0 -60 R D 10660 4371 M 0 -60 R D 10740 4371 M 0 -60 R D
10820 4371 M 0 -60 R D 10900 4371 M 0 -60 R D 6591 1408 M 0 2963 R D
6591 1853 M 175 0 R D gsave 6480 1712 translate 0 0 M -117.687 0 N
( ) show grestore 6591 2490 M 175 0 R D gsave 6480 2349 translate 0 0 M
-117.687 0 N
( ) show grestore 6591 3126 M 175 0 R D gsave 6480 2986 translate 0 0 M
-117.687 0 N
( ) show grestore 6591 3763 M 175 0 R D gsave 6480 3622 translate 0 0 M
-117.687 0 N
( ) show grestore 6591 1408 M 88 0 R D 6591 1520 M 88 0 R D 6591 1600 M
88 0 R D 6591 1661 M 88 0 R D 6591 1712 M 88 0 R D 6591 1754 M 88 0 R D
6591 1791 M 88 0 R D 6591 1824 M 88 0 R D 6591 2045 M 88 0 R D 6591 2157 M
88 0 R D 6591 2236 M 88 0 R D 6591 2298 M 88 0 R D 6591 2349 M 88 0 R D
6591 2391 M 88 0 R D 6591 2428 M 88 0 R D 6591 2461 M 88 0 R D 6591 2681 M
88 0 R D 6591 2794 M 88 0 R D 6591 2873 M 88 0 R D 6591 2935 M 88 0 R D
6591 2985 M 88 0 R D 6591 3028 M 88 0 R D 6591 3065 M 88 0 R D 6591 3097 M
88 0 R D 6591 3318 M 88 0 R D 6591 3430 M 88 0 R D 6591 3510 M 88 0 R D
6591 3571 M 88 0 R D 6591 3622 M 88 0 R D 6591 3665 M 88 0 R D 6591 3701 M
88 0 R D 6591 3734 M 88 0 R D 6591 3955 M 88 0 R D 6591 4067 M 88 0 R D
6591 4146 M 88 0 R D 6591 4208 M 88 0 R D 6591 4259 M 88 0 R D 6591 4301 M
88 0 R D 6591 4338 M 88 0 R D 6591 4371 M 88 0 R D 10963 1408 M 0 2963 R D
10963 1853 M -175 0 R D 10963 2490 M -175 0 R D 10963 3126 M -175 0 R D
10963 3763 M -175 0 R D 10963 1408 M -88 0 R D 10963 1520 M -88 0 R D
10963 1600 M -88 0 R D 10963 1661 M -88 0 R D 10963 1712 M -88 0 R D
10963 1754 M -88 0 R D 10963 1791 M -88 0 R D 10963 1824 M -88 0 R D
10963 2045 M -88 0 R D 10963 2157 M -88 0 R D 10963 2236 M -88 0 R D
10963 2298 M -88 0 R D 10963 2349 M -88 0 R D 10963 2391 M -88 0 R D
10963 2428 M -88 0 R D 10963 2461 M -88 0 R D 10963 2681 M -88 0 R D
10963 2794 M -88 0 R D 10963 2873 M -88 0 R D 10963 2935 M -88 0 R D
10963 2985 M -88 0 R D 10963 3028 M -88 0 R D 10963 3065 M -88 0 R D
10963 3097 M -88 0 R D 10963 3318 M -88 0 R D 10963 3430 M -88 0 R D
10963 3510 M -88 0 R D 10963 3571 M -88 0 R D 10963 3622 M -88 0 R D
10963 3665 M -88 0 R D 10963 3701 M -88 0 R D 10963 3734 M -88 0 R D
10963 3955 M -88 0 R D 10963 4067 M -88 0 R D 10963 4146 M -88 0 R D
10963 4208 M -88 0 R D 10963 4259 M -88 0 R D 10963 4301 M -88 0 R D
10963 4338 M -88 0 R D 10963 4371 M -88 0 R D 0.761 0.000 0.000 setrgbcolor
8049 1408 M 418 1801 R 560 620 R 534 40 R 503 36 R 469 25 R 429 3 R D
0.000 0.549 0.000 setrgbcolor 6693 2797 M 601 0 R 593 0 R 580 0 R 560 0 R
534 0 R 503 0 R 469 0 R 429 376 R D 0.000 0.000 1.000 setrgbcolor
8100 1408 M 367 1512 R 560 260 R 534 -6 R 503 0 R 469 0 R 429 -377 R D
0.000 0.000 0.000 setrgbcolor 10963 1408 M 4371 0 R D 11681 1408 M 0 119 R D
gsave 11681 880 translate 0 0 M -117.687 0 N
(9) show grestore 12479 1408 M 0 119 R D gsave 12479 880 translate 0 0 M
-235.373 0 N
(10) show grestore 13276 1408 M 0 119 R D gsave 13276 880 translate 0 0 M
-235.373 0 N
(11) show grestore 14074 1408 M 0 119 R D gsave 14074 880 translate 0 0 M
-235.373 0 N
(12) show grestore 14872 1408 M 0 119 R D gsave 14872 880 translate 0 0 M
-235.373 0 N
(13) show grestore 10963 1408 M 0 59 R D 11043 1408 M 0 59 R D 11122 1408 M
0 59 R D 11202 1408 M 0 59 R D 11282 1408 M 0 59 R D 11362 1408 M 0 59 R D
11441 1408 M 0 59 R D 11521 1408 M 0 59 R D 11601 1408 M 0 59 R D
11761 1408 M 0 59 R D 11840 1408 M 0 59 R D 11920 1408 M 0 59 R D
12000 1408 M 0 59 R D 12080 1408 M 0 59 R D 12159 1408 M 0 59 R D
12239 1408 M 0 59 R D 12319 1408 M 0 59 R D 12399 1408 M 0 59 R D
12558 1408 M 0 59 R D 12638 1408 M 0 59 R D 12718 1408 M 0 59 R D
12798 1408 M 0 59 R D 12878 1408 M 0 59 R D 12957 1408 M 0 59 R D
13037 1408 M 0 59 R D 13117 1408 M 0 59 R D 13197 1408 M 0 59 R D
13356 1408 M 0 59 R D 13436 1408 M 0 59 R D 13516 1408 M 0 59 R D
13596 1408 M 0 59 R D 13675 1408 M 0 59 R D 13755 1408 M 0 59 R D
13835 1408 M 0 59 R D 13915 1408 M 0 59 R D 13995 1408 M 0 59 R D
14154 1408 M 0 59 R D 14234 1408 M 0 59 R D 14314 1408 M 0 59 R D
14393 1408 M 0 59 R D 14473 1408 M 0 59 R D 14553 1408 M 0 59 R D
14633 1408 M 0 59 R D 14713 1408 M 0 59 R D 14792 1408 M 0 59 R D
14952 1408 M 0 59 R D 15032 1408 M 0 59 R D 15111 1408 M 0 59 R D
15191 1408 M 0 59 R D 15271 1408 M 0 59 R D 10963 4371 M 4371 0 R D
11681 4371 M 0 -119 R D 12479 4371 M 0 -119 R D 13276 4371 M 0 -119 R D
14074 4371 M 0 -119 R D 14872 4371 M 0 -119 R D 10963 4371 M 0 -60 R D
11043 4371 M 0 -60 R D 11122 4371 M 0 -60 R D 11202 4371 M 0 -60 R D
11282 4371 M 0 -60 R D 11362 4371 M 0 -60 R D 11441 4371 M 0 -60 R D
11521 4371 M 0 -60 R D 11601 4371 M 0 -60 R D 11761 4371 M 0 -60 R D
11840 4371 M 0 -60 R D 11920 4371 M 0 -60 R D 12000 4371 M 0 -60 R D
12080 4371 M 0 -60 R D 12159 4371 M 0 -60 R D 12239 4371 M 0 -60 R D
12319 4371 M 0 -60 R D 12399 4371 M 0 -60 R D 12558 4371 M 0 -60 R D
12638 4371 M 0 -60 R D 12718 4371 M 0 -60 R D 12798 4371 M 0 -60 R D
12878 4371 M 0 -60 R D 12957 4371 M 0 -60 R D 13037 4371 M 0 -60 R D
13117 4371 M 0 -60 R D 13197 4371 M 0 -60 R D 13356 4371 M 0 -60 R D
13436 4371 M 0 -60 R D 13516 4371 M 0 -60 R D 13596 4371 M 0 -60 R D
13675 4371 M 0 -60 R D 13755 4371 M 0 -60 R D 13835 4371 M 0 -60 R D
13915 4371 M 0 -60 R D 13995 4371 M 0 -60 R D 14154 4371 M 0 -60 R D
14234 4371 M 0 -60 R D 14314 4371 M 0 -60 R D 14393 4371 M 0 -60 R D
14473 4371 M 0 -60 R D 14553 4371 M 0 -60 R D 14633 4371 M 0 -60 R D
14713 4371 M 0 -60 R D 14792 4371 M 0 -60 R D 14952 4371 M 0 -60 R D
15032 4371 M 0 -60 R D 15111 4371 M 0 -60 R D 15191 4371 M 0 -60 R D
15271 4371 M 0 -60 R D 10963 1408 M 0 2963 R D 10963 1853 M 175 0 R D
gsave 10852 1712 translate 0 0 M -117.687 0 N
( ) show grestore 10963 2490 M 175 0 R D gsave 10852 2349 translate 0 0 M
-117.687 0 N
( ) show grestore 10963 3126 M 175 0 R D gsave 10852 2986 translate 0 0 M
-117.687 0 N
( ) show grestore 10963 3763 M 175 0 R D gsave 10852 3622 translate 0 0 M
-117.687 0 N
( ) show grestore 10963 1408 M 87 0 R D 10963 1520 M 87 0 R D 10963 1600 M
87 0 R D 10963 1661 M 87 0 R D 10963 1712 M 87 0 R D 10963 1754 M 87 0 R D
10963 1791 M 87 0 R D 10963 1824 M 87 0 R D 10963 2045 M 87 0 R D
10963 2157 M 87 0 R D 10963 2236 M 87 0 R D 10963 2298 M 87 0 R D
10963 2349 M 87 0 R D 10963 2391 M 87 0 R D 10963 2428 M 87 0 R D
10963 2461 M 87 0 R D 10963 2681 M 87 0 R D 10963 2794 M 87 0 R D
10963 2873 M 87 0 R D 10963 2935 M 87 0 R D 10963 2985 M 87 0 R D
10963 3028 M 87 0 R D 10963 3065 M 87 0 R D 10963 3097 M 87 0 R D
10963 3318 M 87 0 R D 10963 3430 M 87 0 R D 10963 3510 M 87 0 R D
10963 3571 M 87 0 R D 10963 3622 M 87 0 R D 10963 3665 M 87 0 R D
10963 3701 M 87 0 R D 10963 3734 M 87 0 R D 10963 3955 M 87 0 R D
10963 4067 M 87 0 R D 10963 4146 M 87 0 R D 10963 4208 M 87 0 R D
10963 4259 M 87 0 R D 10963 4301 M 87 0 R D 10963 4338 M 87 0 R D
10963 4371 M 87 0 R D 15334 1408 M 0 2963 R D 15334 1853 M -175 0 R D
15334 2490 M -175 0 R D 15334 3126 M -175 0 R D 15334 3763 M -175 0 R D
15334 1408 M -87 0 R D 15334 1520 M -87 0 R D 15334 1600 M -87 0 R D
15334 1661 M -87 0 R D 15334 1712 M -87 0 R D 15334 1754 M -87 0 R D
15334 1791 M -87 0 R D 15334 1824 M -87 0 R D 15334 2045 M -87 0 R D
15334 2157 M -87 0 R D 15334 2236 M -87 0 R D 15334 2298 M -87 0 R D
15334 2349 M -87 0 R D 15334 2391 M -87 0 R D 15334 2428 M -87 0 R D
15334 2461 M -87 0 R D 15334 2681 M -87 0 R D 15334 2794 M -87 0 R D
15334 2873 M -87 0 R D 15334 2935 M -87 0 R D 15334 2985 M -87 0 R D
15334 3028 M -87 0 R D 15334 3065 M -87 0 R D 15334 3097 M -87 0 R D
15334 3318 M -87 0 R D 15334 3430 M -87 0 R D 15334 3510 M -87 0 R D
15334 3571 M -87 0 R D 15334 3622 M -87 0 R D 15334 3665 M -87 0 R D
15334 3701 M -87 0 R D 15334 3734 M -87 0 R D 15334 3955 M -87 0 R D
15334 4067 M -87 0 R D 15334 4146 M -87 0 R D 15334 4208 M -87 0 R D
15334 4259 M -87 0 R D 15334 4301 M -87 0 R D 15334 4338 M -87 0 R D
15334 4371 M -87 0 R D 0.761 0.000 0.000 setrgbcolor 10962 3948 M 103 9 R
600 57 R 594 44 R 580 22 R 559 28 R 534 15 R 504 11 R 468 8 R 430 4 R D
0.000 0.549 0.000 setrgbcolor 10962 3095 M 103 2 R 600 24 R 594 13 R
580 17 R 559 7 R 534 8 R 504 6 R 468 -115 R 430 299 R D
0.000 0.000 1.000 setrgbcolor 10962 3241 M 103 2 R 600 15 R 594 15 R
580 40 R 559 15 R 534 11 R 504 8 R 468 8 R 430 -298 R D
%%PageTrailer
end
%%PageResources: font Helvetica
%%Trailer
%%Pages: 1
%%DocumentNeededResources: font Helvetica
%%EOF
