%!PS-Adobe-3.0 EPSF-3.0
%%BoundingBox: 0 0 453 311
%%Title: Graphics produced by IDL
%%For: jlgan@Hserver, /home/jlgan/work/phoenix
%%Creator: IDL Version 7.1.1 (linux x86_64 m64)
%%CreationDate: Mon Jun 23 17:51:41 2014
%%DocumentData: Clean7bit
%%Requirements: color
%%LanguageLevel: 1
%%PageOrder: Ascend
%%Pages: (atend)
%%DocumentNeededResources: (atend)
%%EndComments
%%BeginProlog
%+ prolog.ps -- Prolog for IDL generated PostScript files
%+ Copyright (c) 1988-2009 ITT Visual Information Solutions. All Rights Reserved.
%v 5
/$IDL_DICT 40 dict def $IDL_DICT begin /bdef { bind def } bind def /C
{currentpoint newpath moveto} bdef /CP {currentpoint} bdef /D {currentpoint
stroke moveto} bdef /F {closepath fill} bdef /K { setgray } bdef /M {moveto}
bdef /N {rmoveto} bdef /P {lineto} bdef /R {rlineto} bdef /S {gsave show
grestore} bdef /X {currentpoint pop} bdef /Z {gsave currentpoint lineto 20
setlinewidth 1 setlinecap stroke grestore} bdef /L0 {[] 0 setdash} bdef /L1
{[40 100] 0 setdash} bdef /L2 {[200 200] 0 setdash} bdef /L3 {[200 100 50
100] 0 setdash} bdef /L4 {[300 100 50 100 50 100 50 100] 0 setdash} bdef /L5
{[400 200] 0 setdash} bdef /STDFONT { findfont exch scalefont setfont } bdef
/ISOFONT { findfont dup length dict begin { 1 index /FID ne {def} {pop pop}
ifelse } forall /Encoding ISOLatin1Encoding def currentdict end /idltmpfont
exch definefont exch scalefont setfont } bdef /ISOBULLET { gsave /Helvetica
findfont exch scalefont setfont (\267) show currentpoint grestore moveto}
bdef /MITERLIMIT { 2.5 setmiterlimit } bdef end
%%EndProlog
%%Page: 0 1
%%PageRequirements: color
%%PageResources: (atend)
%%PageOrientation: Portrait
%%PageBoundingBox: 0 0 453 311
%%BeginPageSetup
$IDL_DICT begin 0.0283465 dup scale MITERLIMIT
%%IncludeResource: font Helvetica
423.333 /Helvetica STDFONT
%%EndPageSetup
0.000 0.000 0.000 setrgbcolor gsave 8777 352 translate 0 0 M -576.368 0 N
(t / Gyr) show grestore gsave 888 5852 translate 0 0 M 90 rotate
-395.084 0 N
(M) show X -101.051 M
%%IncludeResource: font Helvetica
262.467 /Helvetica STDFONT
(star) show grestore
%%IncludeResource: font Helvetica
423.333 /Helvetica STDFONT 30 setlinewidth L0 2220 7333 M 4371 0 R D
2938 7333 M 0 119 R D gsave 2938 6805 translate 0 0 M -58.8433 0 N
( ) show grestore 3736 7333 M 0 119 R D gsave 3736 6805 translate 0 0 M
-58.8433 0 N
( ) show grestore 4534 7333 M 0 119 R D gsave 4534 6805 translate 0 0 M
-58.8433 0 N
( ) show grestore 5332 7333 M 0 119 R D gsave 5332 6805 translate 0 0 M
-58.8433 0 N
( ) show grestore 6129 7333 M 0 119 R D gsave 6129 6805 translate 0 0 M
-58.8433 0 N
( ) show grestore 2220 7333 M 0 60 R D 2300 7333 M 0 60 R D 2380 7333 M
0 60 R D 2459 7333 M 0 60 R D 2539 7333 M 0 60 R D 2619 7333 M 0 60 R D
2699 7333 M 0 60 R D 2779 7333 M 0 60 R D 2858 7333 M 0 60 R D 3018 7333 M
0 60 R D 3098 7333 M 0 60 R D 3177 7333 M 0 60 R D 3257 7333 M 0 60 R D
3337 7333 M 0 60 R D 3417 7333 M 0 60 R D 3497 7333 M 0 60 R D 3576 7333 M
0 60 R D 3656 7333 M 0 60 R D 3816 7333 M 0 60 R D 3896 7333 M 0 60 R D
3975 7333 M 0 60 R D 4055 7333 M 0 60 R D 4135 7333 M 0 60 R D 4215 7333 M
0 60 R D 4294 7333 M 0 60 R D 4374 7333 M 0 60 R D 4454 7333 M 0 60 R D
4614 7333 M 0 60 R D 4693 7333 M 0 60 R D 4773 7333 M 0 60 R D 4853 7333 M
0 60 R D 4933 7333 M 0 60 R D 5012 7333 M 0 60 R D 5092 7333 M 0 60 R D
5172 7333 M 0 60 R D 5252 7333 M 0 60 R D 5411 7333 M 0 60 R D 5491 7333 M
0 60 R D 5571 7333 M 0 60 R D 5651 7333 M 0 60 R D 5731 7333 M 0 60 R D
5810 7333 M 0 60 R D 5890 7333 M 0 60 R D 5970 7333 M 0 60 R D 6050 7333 M
0 60 R D 6209 7333 M 0 60 R D 6289 7333 M 0 60 R D 6369 7333 M 0 60 R D
6449 7333 M 0 60 R D 6528 7333 M 0 60 R D 2220 10296 M 4371 0 R D
2938 10296 M 0 -118 R D 3736 10296 M 0 -118 R D 4534 10296 M 0 -118 R D
5332 10296 M 0 -118 R D 6129 10296 M 0 -118 R D 2220 10296 M 0 -59 R D
2300 10296 M 0 -59 R D 2380 10296 M 0 -59 R D 2459 10296 M 0 -59 R D
2539 10296 M 0 -59 R D 2619 10296 M 0 -59 R D 2699 10296 M 0 -59 R D
2779 10296 M 0 -59 R D 2858 10296 M 0 -59 R D 3018 10296 M 0 -59 R D
3098 10296 M 0 -59 R D 3177 10296 M 0 -59 R D 3257 10296 M 0 -59 R D
3337 10296 M 0 -59 R D 3417 10296 M 0 -59 R D 3497 10296 M 0 -59 R D
3576 10296 M 0 -59 R D 3656 10296 M 0 -59 R D 3816 10296 M 0 -59 R D
3896 10296 M 0 -59 R D 3975 10296 M 0 -59 R D 4055 10296 M 0 -59 R D
4135 10296 M 0 -59 R D 4215 10296 M 0 -59 R D 4294 10296 M 0 -59 R D
4374 10296 M 0 -59 R D 4454 10296 M 0 -59 R D 4614 10296 M 0 -59 R D
4693 10296 M 0 -59 R D 4773 10296 M 0 -59 R D 4853 10296 M 0 -59 R D
4933 10296 M 0 -59 R D 5012 10296 M 0 -59 R D 5092 10296 M 0 -59 R D
5172 10296 M 0 -59 R D 5252 10296 M 0 -59 R D 5411 10296 M 0 -59 R D
5491 10296 M 0 -59 R D 5571 10296 M 0 -59 R D 5651 10296 M 0 -59 R D
5731 10296 M 0 -59 R D 5810 10296 M 0 -59 R D 5890 10296 M 0 -59 R D
5970 10296 M 0 -59 R D 6050 10296 M 0 -59 R D 6209 10296 M 0 -59 R D
6289 10296 M 0 -59 R D 6369 10296 M 0 -59 R D 6449 10296 M 0 -59 R D
6528 10296 M 0 -59 R D 2220 7333 M 0 2963 R D 2220 7851 M 175 0 R D
gsave 2109 7710 translate 0 0 M -762.61 0 N
(10) show X 192.937 M
%%IncludeResource: font Helvetica
262.467 /Helvetica STDFONT
(10) show grestore
%%IncludeResource: font Helvetica
423.333 /Helvetica STDFONT 2220 8592 M 175 0 R D
gsave 2109 8451 translate 0 0 M -762.61 0 N
(10) show X 192.937 M
%%IncludeResource: font Helvetica
262.467 /Helvetica STDFONT
(11) show grestore
%%IncludeResource: font Helvetica
423.333 /Helvetica STDFONT 2220 9332 M 175 0 R D
gsave 2109 9192 translate 0 0 M -762.61 0 N
(10) show X 192.937 M
%%IncludeResource: font Helvetica
262.467 /Helvetica STDFONT
(12) show grestore
%%IncludeResource: font Helvetica
423.333 /Helvetica STDFONT 2220 10073 M 175 0 R D
gsave 2109 9932 translate 0 0 M -762.61 0 N
(10) show X 192.937 M
%%IncludeResource: font Helvetica
262.467 /Helvetica STDFONT
(13) show grestore
%%IncludeResource: font Helvetica
423.333 /Helvetica STDFONT 2220 7333 M 88 0 R D 2220 7464 M 88 0 R D
2220 7556 M 88 0 R D 2220 7628 M 88 0 R D 2220 7687 M 88 0 R D 2220 7736 M
88 0 R D 2220 7779 M 88 0 R D 2220 7817 M 88 0 R D 2220 8074 M 88 0 R D
2220 8204 M 88 0 R D 2220 8297 M 88 0 R D 2220 8369 M 88 0 R D 2220 8427 M
88 0 R D 2220 8477 M 88 0 R D 2220 8520 M 88 0 R D 2220 8558 M 88 0 R D
2220 8815 M 88 0 R D 2220 8945 M 88 0 R D 2220 9038 M 88 0 R D 2220 9109 M
88 0 R D 2220 9168 M 88 0 R D 2220 9218 M 88 0 R D 2220 9261 M 88 0 R D
2220 9299 M 88 0 R D 2220 9555 M 88 0 R D 2220 9686 M 88 0 R D 2220 9778 M
88 0 R D 2220 9850 M 88 0 R D 2220 9909 M 88 0 R D 2220 9958 M 88 0 R D
2220 10001 M 88 0 R D 2220 10039 M 88 0 R D 2220 10296 M 88 0 R D
6591 7333 M 0 2963 R D 6591 7851 M -174 0 R D 6591 8592 M -174 0 R D
6591 9332 M -174 0 R D 6591 10073 M -174 0 R D 6591 7333 M -87 0 R D
6591 7464 M -87 0 R D 6591 7556 M -87 0 R D 6591 7628 M -87 0 R D
6591 7687 M -87 0 R D 6591 7736 M -87 0 R D 6591 7779 M -87 0 R D
6591 7817 M -87 0 R D 6591 8074 M -87 0 R D 6591 8204 M -87 0 R D
6591 8297 M -87 0 R D 6591 8369 M -87 0 R D 6591 8427 M -87 0 R D
6591 8477 M -87 0 R D 6591 8520 M -87 0 R D 6591 8558 M -87 0 R D
6591 8815 M -87 0 R D 6591 8945 M -87 0 R D 6591 9038 M -87 0 R D
6591 9109 M -87 0 R D 6591 9168 M -87 0 R D 6591 9218 M -87 0 R D
6591 9261 M -87 0 R D 6591 9299 M -87 0 R D 6591 9555 M -87 0 R D
6591 9686 M -87 0 R D 6591 9778 M -87 0 R D 6591 9850 M -87 0 R D
6591 9909 M -87 0 R D 6591 9958 M -87 0 R D 6591 10001 M -87 0 R D
6591 10039 M -87 0 R D 6591 10296 M -87 0 R D 0.761 0.000 0.000 setrgbcolor
2220 8964 M 102 3 R 600 1 R 594 7 R 580 16 R 560 5 R 534 5 R 503 3 R
468 10 R 430 841 R D 0.000 0.549 0.000 setrgbcolor 2220 8835 M 102 9 R
600 5 R 594 2 R 580 22 R 560 1 R 534 2 R 503 1 R 468 15 R 430 122 R D
0.000 0.000 1.000 setrgbcolor 2220 9730 M 102 5 R 600 16 R 594 39 R 580 8 R
560 13 R 534 15 R 503 16 R 468 7 R 430 -956 R D
0.000 0.000 0.000 setrgbcolor 6591 7333 M 4372 0 R D 7309 7333 M 0 119 R D
gsave 7309 6805 translate 0 0 M -58.8433 0 N
( ) show grestore 8107 7333 M 0 119 R D gsave 8107 6805 translate 0 0 M
-58.8433 0 N
( ) show grestore 8905 7333 M 0 119 R D gsave 8905 6805 translate 0 0 M
-58.8433 0 N
( ) show grestore 9703 7333 M 0 119 R D gsave 9703 6805 translate 0 0 M
-58.8433 0 N
( ) show grestore 10501 7333 M 0 119 R D gsave 10501 6805 translate 0 0 M
-58.8433 0 N
( ) show grestore 6591 7333 M 0 60 R D 6671 7333 M 0 60 R D 6751 7333 M
0 60 R D 6831 7333 M 0 60 R D 6911 7333 M 0 60 R D 6990 7333 M 0 60 R D
7070 7333 M 0 60 R D 7150 7333 M 0 60 R D 7230 7333 M 0 60 R D 7389 7333 M
0 60 R D 7469 7333 M 0 60 R D 7549 7333 M 0 60 R D 7629 7333 M 0 60 R D
7708 7333 M 0 60 R D 7788 7333 M 0 60 R D 7868 7333 M 0 60 R D 7948 7333 M
0 60 R D 8028 7333 M 0 60 R D 8187 7333 M 0 60 R D 8267 7333 M 0 60 R D
8347 7333 M 0 60 R D 8426 7333 M 0 60 R D 8506 7333 M 0 60 R D 8586 7333 M
0 60 R D 8666 7333 M 0 60 R D 8746 7333 M 0 60 R D 8825 7333 M 0 60 R D
8985 7333 M 0 60 R D 9065 7333 M 0 60 R D 9144 7333 M 0 60 R D 9224 7333 M
0 60 R D 9304 7333 M 0 60 R D 9384 7333 M 0 60 R D 9464 7333 M 0 60 R D
9543 7333 M 0 60 R D 9623 7333 M 0 60 R D 9783 7333 M 0 60 R D 9863 7333 M
0 60 R D 9942 7333 M 0 60 R D 10022 7333 M 0 60 R D 10102 7333 M 0 60 R D
10182 7333 M 0 60 R D 10261 7333 M 0 60 R D 10341 7333 M 0 60 R D
10421 7333 M 0 60 R D 10581 7333 M 0 60 R D 10660 7333 M 0 60 R D
10740 7333 M 0 60 R D 10820 7333 M 0 60 R D 10900 7333 M 0 60 R D
6591 10296 M 4372 0 R D 7309 10296 M 0 -118 R D 8107 10296 M 0 -118 R D
8905 10296 M 0 -118 R D 9703 10296 M 0 -118 R D 10501 10296 M 0 -118 R D
6591 10296 M 0 -59 R D 6671 10296 M 0 -59 R D 6751 10296 M 0 -59 R D
6831 10296 M 0 -59 R D 6911 10296 M 0 -59 R D 6990 10296 M 0 -59 R D
7070 10296 M 0 -59 R D 7150 10296 M 0 -59 R D 7230 10296 M 0 -59 R D
7389 10296 M 0 -59 R D 7469 10296 M 0 -59 R D 7549 10296 M 0 -59 R D
7629 10296 M 0 -59 R D 7708 10296 M 0 -59 R D 7788 10296 M 0 -59 R D
7868 10296 M 0 -59 R D 7948 10296 M 0 -59 R D 8028 10296 M 0 -59 R D
8187 10296 M 0 -59 R D 8267 10296 M 0 -59 R D 8347 10296 M 0 -59 R D
8426 10296 M 0 -59 R D 8506 10296 M 0 -59 R D 8586 10296 M 0 -59 R D
8666 10296 M 0 -59 R D 8746 10296 M 0 -59 R D 8825 10296 M 0 -59 R D
8985 10296 M 0 -59 R D 9065 10296 M 0 -59 R D 9144 10296 M 0 -59 R D
9224 10296 M 0 -59 R D 9304 10296 M 0 -59 R D 9384 10296 M 0 -59 R D
9464 10296 M 0 -59 R D 9543 10296 M 0 -59 R D 9623 10296 M 0 -59 R D
9783 10296 M 0 -59 R D 9863 10296 M 0 -59 R D 9942 10296 M 0 -59 R D
10022 10296 M 0 -59 R D 10102 10296 M 0 -59 R D 10182 10296 M 0 -59 R D
10261 10296 M 0 -59 R D 10341 10296 M 0 -59 R D 10421 10296 M 0 -59 R D
10581 10296 M 0 -59 R D 10660 10296 M 0 -59 R D 10740 10296 M 0 -59 R D
10820 10296 M 0 -59 R D 10900 10296 M 0 -59 R D 6591 7333 M 0 2963 R D
6591 7851 M 175 0 R D gsave 6480 7710 translate 0 0 M -117.687 0 N
( ) show grestore 6591 8592 M 175 0 R D gsave 6480 8451 translate 0 0 M
-117.687 0 N
( ) show grestore 6591 9332 M 175 0 R D gsave 6480 9192 translate 0 0 M
-117.687 0 N
( ) show grestore 6591 10073 M 175 0 R D gsave 6480 9932 translate 0 0 M
-117.687 0 N
( ) show grestore 6591 7333 M 88 0 R D 6591 7464 M 88 0 R D 6591 7556 M
88 0 R D 6591 7628 M 88 0 R D 6591 7687 M 88 0 R D 6591 7736 M 88 0 R D
6591 7779 M 88 0 R D 6591 7817 M 88 0 R D 6591 8074 M 88 0 R D 6591 8204 M
88 0 R D 6591 8297 M 88 0 R D 6591 8369 M 88 0 R D 6591 8427 M 88 0 R D
6591 8477 M 88 0 R D 6591 8520 M 88 0 R D 6591 8558 M 88 0 R D 6591 8815 M
88 0 R D 6591 8945 M 88 0 R D 6591 9038 M 88 0 R D 6591 9109 M 88 0 R D
6591 9168 M 88 0 R D 6591 9218 M 88 0 R D 6591 9261 M 88 0 R D 6591 9299 M
88 0 R D 6591 9555 M 88 0 R D 6591 9686 M 88 0 R D 6591 9778 M 88 0 R D
6591 9850 M 88 0 R D 6591 9909 M 88 0 R D 6591 9958 M 88 0 R D 6591 10001 M
88 0 R D 6591 10039 M 88 0 R D 6591 10296 M 88 0 R D 10963 7333 M 0 2963 R D
10963 7851 M -175 0 R D 10963 8592 M -175 0 R D 10963 9332 M -175 0 R D
10963 10073 M -175 0 R D 10963 7333 M -88 0 R D 10963 7464 M -88 0 R D
10963 7556 M -88 0 R D 10963 7628 M -88 0 R D 10963 7687 M -88 0 R D
10963 7736 M -88 0 R D 10963 7779 M -88 0 R D 10963 7817 M -88 0 R D
10963 8074 M -88 0 R D 10963 8204 M -88 0 R D 10963 8297 M -88 0 R D
10963 8369 M -88 0 R D 10963 8427 M -88 0 R D 10963 8477 M -88 0 R D
10963 8520 M -88 0 R D 10963 8558 M -88 0 R D 10963 8815 M -88 0 R D
10963 8945 M -88 0 R D 10963 9038 M -88 0 R D 10963 9109 M -88 0 R D
10963 9168 M -88 0 R D 10963 9218 M -88 0 R D 10963 9261 M -88 0 R D
10963 9299 M -88 0 R D 10963 9555 M -88 0 R D 10963 9686 M -88 0 R D
10963 9778 M -88 0 R D 10963 9850 M -88 0 R D 10963 9909 M -88 0 R D
10963 9958 M -88 0 R D 10963 10001 M -88 0 R D 10963 10039 M -88 0 R D
10963 10296 M -88 0 R D 0.761 0.000 0.000 setrgbcolor 6591 9473 M 102 3 R
601 18 R 593 55 R 580 15 R 560 44 R 534 32 R 503 29 R 469 5 R 429 200 R D
0.000 0.549 0.000 setrgbcolor 6591 9093 M 102 3 R 601 71 R 593 24 R 580 7 R
560 23 R 534 17 R 503 7 R 469 21 R 429 1 R D 0.000 0.000 1.000 setrgbcolor
6591 8996 M 102 1 R 601 2 R 593 1 R 580 2 R 560 1 R 534 1 R 503 1 R 469 1 R
429 0 R D 0.000 0.000 0.000 setrgbcolor 10963 7333 M 4371 0 R D 11681 7333 M
0 119 R D gsave 11681 6805 translate 0 0 M -58.8433 0 N
( ) show grestore 12479 7333 M 0 119 R D gsave 12479 6805 translate 0 0 M
-58.8433 0 N
( ) show grestore 13276 7333 M 0 119 R D gsave 13276 6805 translate 0 0 M
-58.8433 0 N
( ) show grestore 14074 7333 M 0 119 R D gsave 14074 6805 translate 0 0 M
-58.8433 0 N
( ) show grestore 14872 7333 M 0 119 R D gsave 14872 6805 translate 0 0 M
-58.8433 0 N
( ) show grestore 10963 7333 M 0 60 R D 11043 7333 M 0 60 R D 11122 7333 M
0 60 R D 11202 7333 M 0 60 R D 11282 7333 M 0 60 R D 11362 7333 M 0 60 R D
11441 7333 M 0 60 R D 11521 7333 M 0 60 R D 11601 7333 M 0 60 R D
11761 7333 M 0 60 R D 11840 7333 M 0 60 R D 11920 7333 M 0 60 R D
12000 7333 M 0 60 R D 12080 7333 M 0 60 R D 12159 7333 M 0 60 R D
12239 7333 M 0 60 R D 12319 7333 M 0 60 R D 12399 7333 M 0 60 R D
12558 7333 M 0 60 R D 12638 7333 M 0 60 R D 12718 7333 M 0 60 R D
12798 7333 M 0 60 R D 12878 7333 M 0 60 R D 12957 7333 M 0 60 R D
13037 7333 M 0 60 R D 13117 7333 M 0 60 R D 13197 7333 M 0 60 R D
13356 7333 M 0 60 R D 13436 7333 M 0 60 R D 13516 7333 M 0 60 R D
13596 7333 M 0 60 R D 13675 7333 M 0 60 R D 13755 7333 M 0 60 R D
13835 7333 M 0 60 R D 13915 7333 M 0 60 R D 13995 7333 M 0 60 R D
14154 7333 M 0 60 R D 14234 7333 M 0 60 R D 14314 7333 M 0 60 R D
14393 7333 M 0 60 R D 14473 7333 M 0 60 R D 14553 7333 M 0 60 R D
14633 7333 M 0 60 R D 14713 7333 M 0 60 R D 14792 7333 M 0 60 R D
14952 7333 M 0 60 R D 15032 7333 M 0 60 R D 15111 7333 M 0 60 R D
15191 7333 M 0 60 R D 15271 7333 M 0 60 R D 10963 10296 M 4371 0 R D
11681 10296 M 0 -118 R D 12479 10296 M 0 -118 R D 13276 10296 M 0 -118 R D
14074 10296 M 0 -118 R D 14872 10296 M 0 -118 R D 10963 10296 M 0 -59 R D
11043 10296 M 0 -59 R D 11122 10296 M 0 -59 R D 11202 10296 M 0 -59 R D
11282 10296 M 0 -59 R D 11362 10296 M 0 -59 R D 11441 10296 M 0 -59 R D
11521 10296 M 0 -59 R D 11601 10296 M 0 -59 R D 11761 10296 M 0 -59 R D
11840 10296 M 0 -59 R D 11920 10296 M 0 -59 R D 12000 10296 M 0 -59 R D
12080 10296 M 0 -59 R D 12159 10296 M 0 -59 R D 12239 10296 M 0 -59 R D
12319 10296 M 0 -59 R D 12399 10296 M 0 -59 R D 12558 10296 M 0 -59 R D
12638 10296 M 0 -59 R D 12718 10296 M 0 -59 R D 12798 10296 M 0 -59 R D
12878 10296 M 0 -59 R D 12957 10296 M 0 -59 R D 13037 10296 M 0 -59 R D
13117 10296 M 0 -59 R D 13197 10296 M 0 -59 R D 13356 10296 M 0 -59 R D
13436 10296 M 0 -59 R D 13516 10296 M 0 -59 R D 13596 10296 M 0 -59 R D
13675 10296 M 0 -59 R D 13755 10296 M 0 -59 R D 13835 10296 M 0 -59 R D
13915 10296 M 0 -59 R D 13995 10296 M 0 -59 R D 14154 10296 M 0 -59 R D
14234 10296 M 0 -59 R D 14314 10296 M 0 -59 R D 14393 10296 M 0 -59 R D
14473 10296 M 0 -59 R D 14553 10296 M 0 -59 R D 14633 10296 M 0 -59 R D
14713 10296 M 0 -59 R D 14792 10296 M 0 -59 R D 14952 10296 M 0 -59 R D
15032 10296 M 0 -59 R D 15111 10296 M 0 -59 R D 15191 10296 M 0 -59 R D
15271 10296 M 0 -59 R D 10963 7333 M 0 2963 R D 10963 7851 M 175 0 R D
gsave 10852 7710 translate 0 0 M -117.687 0 N
( ) show grestore 10963 8592 M 175 0 R D gsave 10852 8451 translate 0 0 M
-117.687 0 N
( ) show grestore 10963 9332 M 175 0 R D gsave 10852 9192 translate 0 0 M
-117.687 0 N
( ) show grestore 10963 10073 M 175 0 R D gsave 10852 9932 translate 0 0 M
-117.687 0 N
( ) show grestore 10963 7333 M 87 0 R D 10963 7464 M 87 0 R D 10963 7556 M
87 0 R D 10963 7628 M 87 0 R D 10963 7687 M 87 0 R D 10963 7736 M 87 0 R D
10963 7779 M 87 0 R D 10963 7817 M 87 0 R D 10963 8074 M 87 0 R D
10963 8204 M 87 0 R D 10963 8297 M 87 0 R D 10963 8369 M 87 0 R D
10963 8427 M 87 0 R D 10963 8477 M 87 0 R D 10963 8520 M 87 0 R D
10963 8558 M 87 0 R D 10963 8815 M 87 0 R D 10963 8945 M 87 0 R D
10963 9038 M 87 0 R D 10963 9109 M 87 0 R D 10963 9168 M 87 0 R D
10963 9218 M 87 0 R D 10963 9261 M 87 0 R D 10963 9299 M 87 0 R D
10963 9555 M 87 0 R D 10963 9686 M 87 0 R D 10963 9778 M 87 0 R D
10963 9850 M 87 0 R D 10963 9909 M 87 0 R D 10963 9958 M 87 0 R D
10963 10001 M 87 0 R D 10963 10039 M 87 0 R D 10963 10296 M 87 0 R D
15334 7333 M 0 2963 R D 15334 7851 M -175 0 R D 15334 8592 M -175 0 R D
15334 9332 M -175 0 R D 15334 10073 M -175 0 R D 15334 7333 M -87 0 R D
15334 7464 M -87 0 R D 15334 7556 M -87 0 R D 15334 7628 M -87 0 R D
15334 7687 M -87 0 R D 15334 7736 M -87 0 R D 15334 7779 M -87 0 R D
15334 7817 M -87 0 R D 15334 8074 M -87 0 R D 15334 8204 M -87 0 R D
15334 8297 M -87 0 R D 15334 8369 M -87 0 R D 15334 8427 M -87 0 R D
15334 8477 M -87 0 R D 15334 8520 M -87 0 R D 15334 8558 M -87 0 R D
15334 8815 M -87 0 R D 15334 8945 M -87 0 R D 15334 9038 M -87 0 R D
15334 9109 M -87 0 R D 15334 9168 M -87 0 R D 15334 9218 M -87 0 R D
15334 9261 M -87 0 R D 15334 9299 M -87 0 R D 15334 9555 M -87 0 R D
15334 9686 M -87 0 R D 15334 9778 M -87 0 R D 15334 9850 M -87 0 R D
15334 9909 M -87 0 R D 15334 9958 M -87 0 R D 15334 10001 M -87 0 R D
15334 10039 M -87 0 R D 15334 10296 M -87 0 R D
0.761 0.000 0.000 setrgbcolor 10962 8935 M 103 2 R 600 22 R 594 2 R 580 11 R
559 2 R 534 17 R 504 1 R 468 2 R 430 701 R D 0.000 0.549 0.000 setrgbcolor
10962 9093 M 103 2 R 600 52 R 594 3 R 580 15 R 559 7 R 534 45 R 504 11 R
468 8 R 430 7 R D 0.000 0.000 1.000 setrgbcolor 10962 9529 M 103 43 R
600 37 R 594 22 R 580 16 R 559 23 R 534 3 R 504 10 R 468 6 R 430 -691 R D
0.000 0.000 0.000 setrgbcolor 2220 4371 M 4371 0 R D 2938 4371 M 0 118 R D
gsave 2938 3843 translate 0 0 M -58.8433 0 N
( ) show grestore 3736 4371 M 0 118 R D gsave 3736 3843 translate 0 0 M
-58.8433 0 N
( ) show grestore 4534 4371 M 0 118 R D gsave 4534 3843 translate 0 0 M
-58.8433 0 N
( ) show grestore 5332 4371 M 0 118 R D gsave 5332 3843 translate 0 0 M
-58.8433 0 N
( ) show grestore 6129 4371 M 0 118 R D gsave 6129 3843 translate 0 0 M
-58.8433 0 N
( ) show grestore 2220 4371 M 0 59 R D 2300 4371 M 0 59 R D 2380 4371 M
0 59 R D 2459 4371 M 0 59 R D 2539 4371 M 0 59 R D 2619 4371 M 0 59 R D
2699 4371 M 0 59 R D 2779 4371 M 0 59 R D 2858 4371 M 0 59 R D 3018 4371 M
0 59 R D 3098 4371 M 0 59 R D 3177 4371 M 0 59 R D 3257 4371 M 0 59 R D
3337 4371 M 0 59 R D 3417 4371 M 0 59 R D 3497 4371 M 0 59 R D 3576 4371 M
0 59 R D 3656 4371 M 0 59 R D 3816 4371 M 0 59 R D 3896 4371 M 0 59 R D
3975 4371 M 0 59 R D 4055 4371 M 0 59 R D 4135 4371 M 0 59 R D 4215 4371 M
0 59 R D 4294 4371 M 0 59 R D 4374 4371 M 0 59 R D 4454 4371 M 0 59 R D
4614 4371 M 0 59 R D 4693 4371 M 0 59 R D 4773 4371 M 0 59 R D 4853 4371 M
0 59 R D 4933 4371 M 0 59 R D 5012 4371 M 0 59 R D 5092 4371 M 0 59 R D
5172 4371 M 0 59 R D 5252 4371 M 0 59 R D 5411 4371 M 0 59 R D 5491 4371 M
0 59 R D 5571 4371 M 0 59 R D 5651 4371 M 0 59 R D 5731 4371 M 0 59 R D
5810 4371 M 0 59 R D 5890 4371 M 0 59 R D 5970 4371 M 0 59 R D 6050 4371 M
0 59 R D 6209 4371 M 0 59 R D 6289 4371 M 0 59 R D 6369 4371 M 0 59 R D
6449 4371 M 0 59 R D 6528 4371 M 0 59 R D 2220 7333 M 4371 0 R D 2938 7333 M
0 -118 R D 3736 7333 M 0 -118 R D 4534 7333 M 0 -118 R D 5332 7333 M
0 -118 R D 6129 7333 M 0 -118 R D 2220 7333 M 0 -59 R D 2300 7333 M 0 -59 R
D 2380 7333 M 0 -59 R D 2459 7333 M 0 -59 R D 2539 7333 M 0 -59 R D
2619 7333 M 0 -59 R D 2699 7333 M 0 -59 R D 2779 7333 M 0 -59 R D
2858 7333 M 0 -59 R D 3018 7333 M 0 -59 R D 3098 7333 M 0 -59 R D
3177 7333 M 0 -59 R D 3257 7333 M 0 -59 R D 3337 7333 M 0 -59 R D
3417 7333 M 0 -59 R D 3497 7333 M 0 -59 R D 3576 7333 M 0 -59 R D
3656 7333 M 0 -59 R D 3816 7333 M 0 -59 R D 3896 7333 M 0 -59 R D
3975 7333 M 0 -59 R D 4055 7333 M 0 -59 R D 4135 7333 M 0 -59 R D
4215 7333 M 0 -59 R D 4294 7333 M 0 -59 R D 4374 7333 M 0 -59 R D
4454 7333 M 0 -59 R D 4614 7333 M 0 -59 R D 4693 7333 M 0 -59 R D
4773 7333 M 0 -59 R D 4853 7333 M 0 -59 R D 4933 7333 M 0 -59 R D
5012 7333 M 0 -59 R D 5092 7333 M 0 -59 R D 5172 7333 M 0 -59 R D
5252 7333 M 0 -59 R D 5411 7333 M 0 -59 R D 5491 7333 M 0 -59 R D
5571 7333 M 0 -59 R D 5651 7333 M 0 -59 R D 5731 7333 M 0 -59 R D
5810 7333 M 0 -59 R D 5890 7333 M 0 -59 R D 5970 7333 M 0 -59 R D
6050 7333 M 0 -59 R D 6209 7333 M 0 -59 R D 6289 7333 M 0 -59 R D
6369 7333 M 0 -59 R D 6449 7333 M 0 -59 R D 6528 7333 M 0 -59 R D
2220 4371 M 0 2962 R D 2220 4888 M 175 0 R D gsave 2109 4748 translate 0 0 M
-762.61 0 N
(10) show X 192.937 M
%%IncludeResource: font Helvetica
262.467 /Helvetica STDFONT
(10) show grestore
%%IncludeResource: font Helvetica
423.333 /Helvetica STDFONT 2220 5629 M 175 0 R D
gsave 2109 5488 translate 0 0 M -762.61 0 N
(10) show X 192.937 M
%%IncludeResource: font Helvetica
262.467 /Helvetica STDFONT
(11) show grestore
%%IncludeResource: font Helvetica
423.333 /Helvetica STDFONT 2220 6370 M 175 0 R D
gsave 2109 6229 translate 0 0 M -762.61 0 N
(10) show X 192.937 M
%%IncludeResource: font Helvetica
262.467 /Helvetica STDFONT
(12) show grestore
%%IncludeResource: font Helvetica
423.333 /Helvetica STDFONT 2220 7110 M 175 0 R D
gsave 2109 6970 translate 0 0 M -762.61 0 N
(10) show X 192.937 M
%%IncludeResource: font Helvetica
262.467 /Helvetica STDFONT
(13) show grestore
%%IncludeResource: font Helvetica
423.333 /Helvetica STDFONT 2220 4371 M 88 0 R D 2220 4501 M 88 0 R D
2220 4594 M 88 0 R D 2220 4665 M 88 0 R D 2220 4724 M 88 0 R D 2220 4774 M
88 0 R D 2220 4817 M 88 0 R D 2220 4855 M 88 0 R D 2220 5111 M 88 0 R D
2220 5242 M 88 0 R D 2220 5334 M 88 0 R D 2220 5406 M 88 0 R D 2220 5465 M
88 0 R D 2220 5514 M 88 0 R D 2220 5557 M 88 0 R D 2220 5595 M 88 0 R D
2220 5852 M 88 0 R D 2220 5982 M 88 0 R D 2220 6075 M 88 0 R D 2220 6147 M
88 0 R D 2220 6205 M 88 0 R D 2220 6255 M 88 0 R D 2220 6298 M 88 0 R D
2220 6336 M 88 0 R D 2220 6593 M 88 0 R D 2220 6723 M 88 0 R D 2220 6816 M
88 0 R D 2220 6887 M 88 0 R D 2220 6946 M 88 0 R D 2220 6996 M 88 0 R D
2220 7039 M 88 0 R D 2220 7077 M 88 0 R D 2220 7333 M 88 0 R D 6591 4371 M
0 2962 R D 6591 4888 M -174 0 R D 6591 5629 M -174 0 R D 6591 6370 M
-174 0 R D 6591 7110 M -174 0 R D 6591 4371 M -87 0 R D 6591 4501 M -87 0 R
D 6591 4594 M -87 0 R D 6591 4665 M -87 0 R D 6591 4724 M -87 0 R D
6591 4774 M -87 0 R D 6591 4817 M -87 0 R D 6591 4855 M -87 0 R D
6591 5111 M -87 0 R D 6591 5242 M -87 0 R D 6591 5334 M -87 0 R D
6591 5406 M -87 0 R D 6591 5465 M -87 0 R D 6591 5514 M -87 0 R D
6591 5557 M -87 0 R D 6591 5595 M -87 0 R D 6591 5852 M -87 0 R D
6591 5982 M -87 0 R D 6591 6075 M -87 0 R D 6591 6147 M -87 0 R D
6591 6205 M -87 0 R D 6591 6255 M -87 0 R D 6591 6298 M -87 0 R D
6591 6336 M -87 0 R D 6591 6593 M -87 0 R D 6591 6723 M -87 0 R D
6591 6816 M -87 0 R D 6591 6887 M -87 0 R D 6591 6946 M -87 0 R D
6591 6996 M -87 0 R D 6591 7039 M -87 0 R D 6591 7077 M -87 0 R D
6591 7333 M -87 0 R D 0.761 0.000 0.000 setrgbcolor 5921 4370 M 240 70 R
430 2441 R D 0.000 0.549 0.000 setrgbcolor 6456 4370 M 135 1728 R D
0.000 0.000 1.000 setrgbcolor 5693 6606 M 468 10 R 430 -723 R D
0.761 0.000 0.000 setrgbcolor 2439 5556 M 65 0 R 66 0 R 65 0 R 66 0 R 65 0 R
66 0 R 66 0 R 65 0 R 66 0 R D 0.000 0.549 0.000 setrgbcolor 2439 5171 M
65 0 R 66 0 R 65 0 R 66 0 R 65 0 R 66 0 R 66 0 R 65 0 R 66 0 R D
0.000 0.000 1.000 setrgbcolor 2439 4785 M 65 0 R 66 0 R 65 0 R 66 0 R 65 0 R
66 0 R 66 0 R 65 0 R 66 0 R D 0.761 0.000 0.000 setrgbcolor
gsave 3094 5499 translate 0 0 M
(1) show grestore 0.000 0.549 0.000 setrgbcolor
gsave 3094 5114 translate 0 0 M
(2) show grestore 0.000 0.000 1.000 setrgbcolor
gsave 3094 4729 translate 0 0 M
(3) show grestore 0.000 0.000 0.000 setrgbcolor 6591 4371 M 4372 0 R D
7309 4371 M 0 118 R D gsave 7309 3843 translate 0 0 M -58.8433 0 N
( ) show grestore 8107 4371 M 0 118 R D gsave 8107 3843 translate 0 0 M
-58.8433 0 N
( ) show grestore 8905 4371 M 0 118 R D gsave 8905 3843 translate 0 0 M
-58.8433 0 N
( ) show grestore 9703 4371 M 0 118 R D gsave 9703 3843 translate 0 0 M
-58.8433 0 N
( ) show grestore 10501 4371 M 0 118 R D gsave 10501 3843 translate 0 0 M
-58.8433 0 N
( ) show grestore 6591 4371 M 0 59 R D 6671 4371 M 0 59 R D 6751 4371 M
0 59 R D 6831 4371 M 0 59 R D 6911 4371 M 0 59 R D 6990 4371 M 0 59 R D
7070 4371 M 0 59 R D 7150 4371 M 0 59 R D 7230 4371 M 0 59 R D 7389 4371 M
0 59 R D 7469 4371 M 0 59 R D 7549 4371 M 0 59 R D 7629 4371 M 0 59 R D
7708 4371 M 0 59 R D 7788 4371 M 0 59 R D 7868 4371 M 0 59 R D 7948 4371 M
0 59 R D 8028 4371 M 0 59 R D 8187 4371 M 0 59 R D 8267 4371 M 0 59 R D
8347 4371 M 0 59 R D 8426 4371 M 0 59 R D 8506 4371 M 0 59 R D 8586 4371 M
0 59 R D 8666 4371 M 0 59 R D 8746 4371 M 0 59 R D 8825 4371 M 0 59 R D
8985 4371 M 0 59 R D 9065 4371 M 0 59 R D 9144 4371 M 0 59 R D 9224 4371 M
0 59 R D 9304 4371 M 0 59 R D 9384 4371 M 0 59 R D 9464 4371 M 0 59 R D
9543 4371 M 0 59 R D 9623 4371 M 0 59 R D 9783 4371 M 0 59 R D 9863 4371 M
0 59 R D 9942 4371 M 0 59 R D 10022 4371 M 0 59 R D 10102 4371 M 0 59 R D
10182 4371 M 0 59 R D 10261 4371 M 0 59 R D 10341 4371 M 0 59 R D
10421 4371 M 0 59 R D 10581 4371 M 0 59 R D 10660 4371 M 0 59 R D
10740 4371 M 0 59 R D 10820 4371 M 0 59 R D 10900 4371 M 0 59 R D
6591 7333 M 4372 0 R D 7309 7333 M 0 -118 R D 8107 7333 M 0 -118 R D
8905 7333 M 0 -118 R D 9703 7333 M 0 -118 R D 10501 7333 M 0 -118 R D
6591 7333 M 0 -59 R D 6671 7333 M 0 -59 R D 6751 7333 M 0 -59 R D
6831 7333 M 0 -59 R D 6911 7333 M 0 -59 R D 6990 7333 M 0 -59 R D
7070 7333 M 0 -59 R D 7150 7333 M 0 -59 R D 7230 7333 M 0 -59 R D
7389 7333 M 0 -59 R D 7469 7333 M 0 -59 R D 7549 7333 M 0 -59 R D
7629 7333 M 0 -59 R D 7708 7333 M 0 -59 R D 7788 7333 M 0 -59 R D
7868 7333 M 0 -59 R D 7948 7333 M 0 -59 R D 8028 7333 M 0 -59 R D
8187 7333 M 0 -59 R D 8267 7333 M 0 -59 R D 8347 7333 M 0 -59 R D
8426 7333 M 0 -59 R D 8506 7333 M 0 -59 R D 8586 7333 M 0 -59 R D
8666 7333 M 0 -59 R D 8746 7333 M 0 -59 R D 8825 7333 M 0 -59 R D
8985 7333 M 0 -59 R D 9065 7333 M 0 -59 R D 9144 7333 M 0 -59 R D
9224 7333 M 0 -59 R D 9304 7333 M 0 -59 R D 9384 7333 M 0 -59 R D
9464 7333 M 0 -59 R D 9543 7333 M 0 -59 R D 9623 7333 M 0 -59 R D
9783 7333 M 0 -59 R D 9863 7333 M 0 -59 R D 9942 7333 M 0 -59 R D
10022 7333 M 0 -59 R D 10102 7333 M 0 -59 R D 10182 7333 M 0 -59 R D
10261 7333 M 0 -59 R D 10341 7333 M 0 -59 R D 10421 7333 M 0 -59 R D
10581 7333 M 0 -59 R D 10660 7333 M 0 -59 R D 10740 7333 M 0 -59 R D
10820 7333 M 0 -59 R D 10900 7333 M 0 -59 R D 6591 4371 M 0 2962 R D
6591 4888 M 175 0 R D gsave 6480 4748 translate 0 0 M -117.687 0 N
( ) show grestore 6591 5629 M 175 0 R D gsave 6480 5488 translate 0 0 M
-117.687 0 N
( ) show grestore 6591 6370 M 175 0 R D gsave 6480 6229 translate 0 0 M
-117.687 0 N
( ) show grestore 6591 7110 M 175 0 R D gsave 6480 6970 translate 0 0 M
-117.687 0 N
( ) show grestore 6591 4371 M 88 0 R D 6591 4501 M 88 0 R D 6591 4594 M
88 0 R D 6591 4665 M 88 0 R D 6591 4724 M 88 0 R D 6591 4774 M 88 0 R D
6591 4817 M 88 0 R D 6591 4855 M 88 0 R D 6591 5111 M 88 0 R D 6591 5242 M
88 0 R D 6591 5334 M 88 0 R D 6591 5406 M 88 0 R D 6591 5465 M 88 0 R D
6591 5514 M 88 0 R D 6591 5557 M 88 0 R D 6591 5595 M 88 0 R D 6591 5852 M
88 0 R D 6591 5982 M 88 0 R D 6591 6075 M 88 0 R D 6591 6147 M 88 0 R D
6591 6205 M 88 0 R D 6591 6255 M 88 0 R D 6591 6298 M 88 0 R D 6591 6336 M
88 0 R D 6591 6593 M 88 0 R D 6591 6723 M 88 0 R D 6591 6816 M 88 0 R D
6591 6887 M 88 0 R D 6591 6946 M 88 0 R D 6591 6996 M 88 0 R D 6591 7039 M
88 0 R D 6591 7077 M 88 0 R D 6591 7333 M 88 0 R D 10963 4371 M 0 2962 R D
10963 4888 M -175 0 R D 10963 5629 M -175 0 R D 10963 6370 M -175 0 R D
10963 7110 M -175 0 R D 10963 4371 M -88 0 R D 10963 4501 M -88 0 R D
10963 4594 M -88 0 R D 10963 4665 M -88 0 R D 10963 4724 M -88 0 R D
10963 4774 M -88 0 R D 10963 4817 M -88 0 R D 10963 4855 M -88 0 R D
10963 5111 M -88 0 R D 10963 5242 M -88 0 R D 10963 5334 M -88 0 R D
10963 5406 M -88 0 R D 10963 5465 M -88 0 R D 10963 5514 M -88 0 R D
10963 5557 M -88 0 R D 10963 5595 M -88 0 R D 10963 5852 M -88 0 R D
10963 5982 M -88 0 R D 10963 6075 M -88 0 R D 10963 6147 M -88 0 R D
10963 6205 M -88 0 R D 10963 6255 M -88 0 R D 10963 6298 M -88 0 R D
10963 6336 M -88 0 R D 10963 6593 M -88 0 R D 10963 6723 M -88 0 R D
10963 6816 M -88 0 R D 10963 6887 M -88 0 R D 10963 6946 M -88 0 R D
10963 6996 M -88 0 R D 10963 7039 M -88 0 R D 10963 7077 M -88 0 R D
10963 7333 M -88 0 R D 0.761 0.000 0.000 setrgbcolor 6591 6109 M 102 5 R
601 29 R 593 25 R 580 25 R 560 1 R 534 11 R 503 6 R 469 2 R 429 527 R D
0.000 0.549 0.000 setrgbcolor 6591 5924 M 102 7 R 601 2 R 593 2 R 580 2 R
560 1 R 534 2 R 503 1 R 469 1 R 429 304 R D 0.000 0.000 1.000 setrgbcolor
6591 6435 M 102 6 R 601 65 R 593 181 R 580 13 R 560 10 R 534 7 R 503 11 R
469 2 R 429 -785 R D 0.000 0.000 0.000 setrgbcolor 10963 4371 M 4371 0 R D
11681 4371 M 0 118 R D gsave 11681 3843 translate 0 0 M -58.8433 0 N
( ) show grestore 12479 4371 M 0 118 R D gsave 12479 3843 translate 0 0 M
-58.8433 0 N
( ) show grestore 13276 4371 M 0 118 R D gsave 13276 3843 translate 0 0 M
-58.8433 0 N
( ) show grestore 14074 4371 M 0 118 R D gsave 14074 3843 translate 0 0 M
-58.8433 0 N
( ) show grestore 14872 4371 M 0 118 R D gsave 14872 3843 translate 0 0 M
-58.8433 0 N
( ) show grestore 10963 4371 M 0 59 R D 11043 4371 M 0 59 R D 11122 4371 M
0 59 R D 11202 4371 M 0 59 R D 11282 4371 M 0 59 R D 11362 4371 M 0 59 R D
11441 4371 M 0 59 R D 11521 4371 M 0 59 R D 11601 4371 M 0 59 R D
11761 4371 M 0 59 R D 11840 4371 M 0 59 R D 11920 4371 M 0 59 R D
12000 4371 M 0 59 R D 12080 4371 M 0 59 R D 12159 4371 M 0 59 R D
12239 4371 M 0 59 R D 12319 4371 M 0 59 R D 12399 4371 M 0 59 R D
12558 4371 M 0 59 R D 12638 4371 M 0 59 R D 12718 4371 M 0 59 R D
12798 4371 M 0 59 R D 12878 4371 M 0 59 R D 12957 4371 M 0 59 R D
13037 4371 M 0 59 R D 13117 4371 M 0 59 R D 13197 4371 M 0 59 R D
13356 4371 M 0 59 R D 13436 4371 M 0 59 R D 13516 4371 M 0 59 R D
13596 4371 M 0 59 R D 13675 4371 M 0 59 R D 13755 4371 M 0 59 R D
13835 4371 M 0 59 R D 13915 4371 M 0 59 R D 13995 4371 M 0 59 R D
14154 4371 M 0 59 R D 14234 4371 M 0 59 R D 14314 4371 M 0 59 R D
14393 4371 M 0 59 R D 14473 4371 M 0 59 R D 14553 4371 M 0 59 R D
14633 4371 M 0 59 R D 14713 4371 M 0 59 R D 14792 4371 M 0 59 R D
14952 4371 M 0 59 R D 15032 4371 M 0 59 R D 15111 4371 M 0 59 R D
15191 4371 M 0 59 R D 15271 4371 M 0 59 R D 10963 7333 M 4371 0 R D
11681 7333 M 0 -118 R D 12479 7333 M 0 -118 R D 13276 7333 M 0 -118 R D
14074 7333 M 0 -118 R D 14872 7333 M 0 -118 R D 10963 7333 M 0 -59 R D
11043 7333 M 0 -59 R D 11122 7333 M 0 -59 R D 11202 7333 M 0 -59 R D
11282 7333 M 0 -59 R D 11362 7333 M 0 -59 R D 11441 7333 M 0 -59 R D
11521 7333 M 0 -59 R D 11601 7333 M 0 -59 R D 11761 7333 M 0 -59 R D
11840 7333 M 0 -59 R D 11920 7333 M 0 -59 R D 12000 7333 M 0 -59 R D
12080 7333 M 0 -59 R D 12159 7333 M 0 -59 R D 12239 7333 M 0 -59 R D
12319 7333 M 0 -59 R D 12399 7333 M 0 -59 R D 12558 7333 M 0 -59 R D
12638 7333 M 0 -59 R D 12718 7333 M 0 -59 R D 12798 7333 M 0 -59 R D
12878 7333 M 0 -59 R D 12957 7333 M 0 -59 R D 13037 7333 M 0 -59 R D
13117 7333 M 0 -59 R D 13197 7333 M 0 -59 R D 13356 7333 M 0 -59 R D
13436 7333 M 0 -59 R D 13516 7333 M 0 -59 R D 13596 7333 M 0 -59 R D
13675 7333 M 0 -59 R D 13755 7333 M 0 -59 R D 13835 7333 M 0 -59 R D
13915 7333 M 0 -59 R D 13995 7333 M 0 -59 R D 14154 7333 M 0 -59 R D
14234 7333 M 0 -59 R D 14314 7333 M 0 -59 R D 14393 7333 M 0 -59 R D
14473 7333 M 0 -59 R D 14553 7333 M 0 -59 R D 14633 7333 M 0 -59 R D
14713 7333 M 0 -59 R D 14792 7333 M 0 -59 R D 14952 7333 M 0 -59 R D
15032 7333 M 0 -59 R D 15111 7333 M 0 -59 R D 15191 7333 M 0 -59 R D
15271 7333 M 0 -59 R D 10963 4371 M 0 2962 R D 10963 4888 M 175 0 R D
gsave 10852 4748 translate 0 0 M -117.687 0 N
( ) show grestore 10963 5629 M 175 0 R D gsave 10852 5488 translate 0 0 M
-117.687 0 N
( ) show grestore 10963 6370 M 175 0 R D gsave 10852 6229 translate 0 0 M
-117.687 0 N
( ) show grestore 10963 7110 M 175 0 R D gsave 10852 6970 translate 0 0 M
-117.687 0 N
( ) show grestore 10963 4371 M 87 0 R D 10963 4501 M 87 0 R D 10963 4594 M
87 0 R D 10963 4665 M 87 0 R D 10963 4724 M 87 0 R D 10963 4774 M 87 0 R D
10963 4817 M 87 0 R D 10963 4855 M 87 0 R D 10963 5111 M 87 0 R D
10963 5242 M 87 0 R D 10963 5334 M 87 0 R D 10963 5406 M 87 0 R D
10963 5465 M 87 0 R D 10963 5514 M 87 0 R D 10963 5557 M 87 0 R D
10963 5595 M 87 0 R D 10963 5852 M 87 0 R D 10963 5982 M 87 0 R D
10963 6075 M 87 0 R D 10963 6147 M 87 0 R D 10963 6205 M 87 0 R D
10963 6255 M 87 0 R D 10963 6298 M 87 0 R D 10963 6336 M 87 0 R D
10963 6593 M 87 0 R D 10963 6723 M 87 0 R D 10963 6816 M 87 0 R D
10963 6887 M 87 0 R D 10963 6946 M 87 0 R D 10963 6996 M 87 0 R D
10963 7039 M 87 0 R D 10963 7077 M 87 0 R D 10963 7333 M 87 0 R D
15334 4371 M 0 2962 R D 15334 4888 M -175 0 R D 15334 5629 M -175 0 R D
15334 6370 M -175 0 R D 15334 7110 M -175 0 R D 15334 4371 M -87 0 R D
15334 4501 M -87 0 R D 15334 4594 M -87 0 R D 15334 4665 M -87 0 R D
15334 4724 M -87 0 R D 15334 4774 M -87 0 R D 15334 4817 M -87 0 R D
15334 4855 M -87 0 R D 15334 5111 M -87 0 R D 15334 5242 M -87 0 R D
15334 5334 M -87 0 R D 15334 5406 M -87 0 R D 15334 5465 M -87 0 R D
15334 5514 M -87 0 R D 15334 5557 M -87 0 R D 15334 5595 M -87 0 R D
15334 5852 M -87 0 R D 15334 5982 M -87 0 R D 15334 6075 M -87 0 R D
15334 6147 M -87 0 R D 15334 6205 M -87 0 R D 15334 6255 M -87 0 R D
15334 6298 M -87 0 R D 15334 6336 M -87 0 R D 15334 6593 M -87 0 R D
15334 6723 M -87 0 R D 15334 6816 M -87 0 R D 15334 6887 M -87 0 R D
15334 6946 M -87 0 R D 15334 6996 M -87 0 R D 15334 7039 M -87 0 R D
15334 7077 M -87 0 R D 15334 7333 M -87 0 R D 0.761 0.000 0.000 setrgbcolor
10962 5815 M 103 5 R 600 101 R 594 8 R 580 1 R 559 1 R 534 1 R 504 1 R
468 1 R 430 928 R D 0.000 0.549 0.000 setrgbcolor 10962 6014 M 103 1 R
600 14 R 594 15 R 580 2 R 559 34 R 534 7 R 504 60 R 468 2 R 430 2 R D
0.000 0.000 1.000 setrgbcolor 10962 6709 M 103 4 R 600 22 R 594 19 R
580 50 R 559 5 R 534 12 R 504 16 R 468 17 R 430 -919 R D
0.000 0.000 0.000 setrgbcolor 2220 1408 M 4371 0 R D 2938 1408 M 0 119 R D
gsave 2938 880 translate 0 0 M -117.687 0 N
(9) show grestore 3736 1408 M 0 119 R D gsave 3736 880 translate 0 0 M
-235.373 0 N
(10) show grestore 4534 1408 M 0 119 R D gsave 4534 880 translate 0 0 M
-235.373 0 N
(11) show grestore 5332 1408 M 0 119 R D gsave 5332 880 translate 0 0 M
-235.373 0 N
(12) show grestore 6129 1408 M 0 119 R D gsave 6129 880 translate 0 0 M
-235.373 0 N
(13) show grestore 2220 1408 M 0 59 R D 2300 1408 M 0 59 R D 2380 1408 M
0 59 R D 2459 1408 M 0 59 R D 2539 1408 M 0 59 R D 2619 1408 M 0 59 R D
2699 1408 M 0 59 R D 2779 1408 M 0 59 R D 2858 1408 M 0 59 R D 3018 1408 M
0 59 R D 3098 1408 M 0 59 R D 3177 1408 M 0 59 R D 3257 1408 M 0 59 R D
3337 1408 M 0 59 R D 3417 1408 M 0 59 R D 3497 1408 M 0 59 R D 3576 1408 M
0 59 R D 3656 1408 M 0 59 R D 3816 1408 M 0 59 R D 3896 1408 M 0 59 R D
3975 1408 M 0 59 R D 4055 1408 M 0 59 R D 4135 1408 M 0 59 R D 4215 1408 M
0 59 R D 4294 1408 M 0 59 R D 4374 1408 M 0 59 R D 4454 1408 M 0 59 R D
4614 1408 M 0 59 R D 4693 1408 M 0 59 R D 4773 1408 M 0 59 R D 4853 1408 M
0 59 R D 4933 1408 M 0 59 R D 5012 1408 M 0 59 R D 5092 1408 M 0 59 R D
5172 1408 M 0 59 R D 5252 1408 M 0 59 R D 5411 1408 M 0 59 R D 5491 1408 M
0 59 R D 5571 1408 M 0 59 R D 5651 1408 M 0 59 R D 5731 1408 M 0 59 R D
5810 1408 M 0 59 R D 5890 1408 M 0 59 R D 5970 1408 M 0 59 R D 6050 1408 M
0 59 R D 6209 1408 M 0 59 R D 6289 1408 M 0 59 R D 6369 1408 M 0 59 R D
6449 1408 M 0 59 R D 6528 1408 M 0 59 R D 2220 4371 M 4371 0 R D 2938 4371 M
0 -119 R D 3736 4371 M 0 -119 R D 4534 4371 M 0 -119 R D 5332 4371 M
0 -119 R D 6129 4371 M 0 -119 R D 2220 4371 M 0 -60 R D 2300 4371 M 0 -60 R
D 2380 4371 M 0 -60 R D 2459 4371 M 0 -60 R D 2539 4371 M 0 -60 R D
2619 4371 M 0 -60 R D 2699 4371 M 0 -60 R D 2779 4371 M 0 -60 R D
2858 4371 M 0 -60 R D 3018 4371 M 0 -60 R D 3098 4371 M 0 -60 R D
3177 4371 M 0 -60 R D 3257 4371 M 0 -60 R D 3337 4371 M 0 -60 R D
3417 4371 M 0 -60 R D 3497 4371 M 0 -60 R D 3576 4371 M 0 -60 R D
3656 4371 M 0 -60 R D 3816 4371 M 0 -60 R D 3896 4371 M 0 -60 R D
3975 4371 M 0 -60 R D 4055 4371 M 0 -60 R D 4135 4371 M 0 -60 R D
4215 4371 M 0 -60 R D 4294 4371 M 0 -60 R D 4374 4371 M 0 -60 R D
4454 4371 M 0 -60 R D 4614 4371 M 0 -60 R D 4693 4371 M 0 -60 R D
4773 4371 M 0 -60 R D 4853 4371 M 0 -60 R D 4933 4371 M 0 -60 R D
5012 4371 M 0 -60 R D 5092 4371 M 0 -60 R D 5172 4371 M 0 -60 R D
5252 4371 M 0 -60 R D 5411 4371 M 0 -60 R D 5491 4371 M 0 -60 R D
5571 4371 M 0 -60 R D 5651 4371 M 0 -60 R D 5731 4371 M 0 -60 R D
5810 4371 M 0 -60 R D 5890 4371 M 0 -60 R D 5970 4371 M 0 -60 R D
6050 4371 M 0 -60 R D 6209 4371 M 0 -60 R D 6289 4371 M 0 -60 R D
6369 4371 M 0 -60 R D 6449 4371 M 0 -60 R D 6528 4371 M 0 -60 R D
2220 1408 M 0 2963 R D 2220 1926 M 175 0 R D gsave 2109 1785 translate 0 0 M
-762.61 0 N
(10) show X 192.937 M
%%IncludeResource: font Helvetica
262.467 /Helvetica STDFONT
(10) show grestore
%%IncludeResource: font Helvetica
423.333 /Helvetica STDFONT 2220 2666 M 175 0 R D
gsave 2109 2526 translate 0 0 M -762.61 0 N
(10) show X 192.937 M
%%IncludeResource: font Helvetica
262.467 /Helvetica STDFONT
(11) show grestore
%%IncludeResource: font Helvetica
423.333 /Helvetica STDFONT 2220 3407 M 175 0 R D
gsave 2109 3266 translate 0 0 M -762.61 0 N
(10) show X 192.937 M
%%IncludeResource: font Helvetica
262.467 /Helvetica STDFONT
(12) show grestore
%%IncludeResource: font Helvetica
423.333 /Helvetica STDFONT 2220 4148 M 175 0 R D
gsave 2109 4007 translate 0 0 M -762.61 0 N
(10) show X 192.937 M
%%IncludeResource: font Helvetica
262.467 /Helvetica STDFONT
(13) show grestore
%%IncludeResource: font Helvetica
423.333 /Helvetica STDFONT 2220 1408 M 88 0 R D 2220 1538 M 88 0 R D
2220 1631 M 88 0 R D 2220 1703 M 88 0 R D 2220 1761 M 88 0 R D 2220 1811 M
88 0 R D 2220 1854 M 88 0 R D 2220 1892 M 88 0 R D 2220 2149 M 88 0 R D
2220 2279 M 88 0 R D 2220 2372 M 88 0 R D 2220 2443 M 88 0 R D 2220 2502 M
88 0 R D 2220 2552 M 88 0 R D 2220 2595 M 88 0 R D 2220 2633 M 88 0 R D
2220 2889 M 88 0 R D 2220 3020 M 88 0 R D 2220 3112 M 88 0 R D 2220 3184 M
88 0 R D 2220 3243 M 88 0 R D 2220 3292 M 88 0 R D 2220 3335 M 88 0 R D
2220 3373 M 88 0 R D 2220 3630 M 88 0 R D 2220 3760 M 88 0 R D 2220 3853 M
88 0 R D 2220 3925 M 88 0 R D 2220 3983 M 88 0 R D 2220 4033 M 88 0 R D
2220 4076 M 88 0 R D 2220 4114 M 88 0 R D 2220 4371 M 88 0 R D 6591 1408 M
0 2963 R D 6591 1926 M -174 0 R D 6591 2666 M -174 0 R D 6591 3407 M
-174 0 R D 6591 4148 M -174 0 R D 6591 1408 M -87 0 R D 6591 1538 M -87 0 R
D 6591 1631 M -87 0 R D 6591 1703 M -87 0 R D 6591 1761 M -87 0 R D
6591 1811 M -87 0 R D 6591 1854 M -87 0 R D 6591 1892 M -87 0 R D
6591 2149 M -87 0 R D 6591 2279 M -87 0 R D 6591 2372 M -87 0 R D
6591 2443 M -87 0 R D 6591 2502 M -87 0 R D 6591 2552 M -87 0 R D
6591 2595 M -87 0 R D 6591 2633 M -87 0 R D 6591 2889 M -87 0 R D
6591 3020 M -87 0 R D 6591 3112 M -87 0 R D 6591 3184 M -87 0 R D
6591 3243 M -87 0 R D 6591 3292 M -87 0 R D 6591 3335 M -87 0 R D
6591 3373 M -87 0 R D 6591 3630 M -87 0 R D 6591 3760 M -87 0 R D
6591 3853 M -87 0 R D 6591 3925 M -87 0 R D 6591 3983 M -87 0 R D
6591 4033 M -87 0 R D 6591 4076 M -87 0 R D 6591 4114 M -87 0 R D
6591 4371 M -87 0 R D 0.761 0.000 0.000 setrgbcolor 2220 3166 M 102 9 R
600 191 R 594 55 R 580 0 R 560 0 R 534 1 R 503 0 R 468 0 R 430 419 R D
0.000 0.549 0.000 setrgbcolor 2220 3147 M 102 2 R 600 2 R 594 16 R 580 1 R
560 1 R 534 1 R 503 1 R 468 0 R 430 251 R D 0.000 0.000 1.000 setrgbcolor
2220 3500 M 102 45 R 600 35 R 594 19 R 580 16 R 560 27 R 534 26 R 503 126 R
468 14 R 430 -636 R D 0.000 0.000 0.000 setrgbcolor 6591 1408 M 4372 0 R D
7309 1408 M 0 119 R D gsave 7309 880 translate 0 0 M -117.687 0 N
(9) show grestore 8107 1408 M 0 119 R D gsave 8107 880 translate 0 0 M
-235.373 0 N
(10) show grestore 8905 1408 M 0 119 R D gsave 8905 880 translate 0 0 M
-235.373 0 N
(11) show grestore 9703 1408 M 0 119 R D gsave 9703 880 translate 0 0 M
-235.373 0 N
(12) show grestore 10501 1408 M 0 119 R D gsave 10501 880 translate 0 0 M
-235.373 0 N
(13) show grestore 6591 1408 M 0 59 R D 6671 1408 M 0 59 R D 6751 1408 M
0 59 R D 6831 1408 M 0 59 R D 6911 1408 M 0 59 R D 6990 1408 M 0 59 R D
7070 1408 M 0 59 R D 7150 1408 M 0 59 R D 7230 1408 M 0 59 R D 7389 1408 M
0 59 R D 7469 1408 M 0 59 R D 7549 1408 M 0 59 R D 7629 1408 M 0 59 R D
7708 1408 M 0 59 R D 7788 1408 M 0 59 R D 7868 1408 M 0 59 R D 7948 1408 M
0 59 R D 8028 1408 M 0 59 R D 8187 1408 M 0 59 R D 8267 1408 M 0 59 R D
8347 1408 M 0 59 R D 8426 1408 M 0 59 R D 8506 1408 M 0 59 R D 8586 1408 M
0 59 R D 8666 1408 M 0 59 R D 8746 1408 M 0 59 R D 8825 1408 M 0 59 R D
8985 1408 M 0 59 R D 9065 1408 M 0 59 R D 9144 1408 M 0 59 R D 9224 1408 M
0 59 R D 9304 1408 M 0 59 R D 9384 1408 M 0 59 R D 9464 1408 M 0 59 R D
9543 1408 M 0 59 R D 9623 1408 M 0 59 R D 9783 1408 M 0 59 R D 9863 1408 M
0 59 R D 9942 1408 M 0 59 R D 10022 1408 M 0 59 R D 10102 1408 M 0 59 R D
10182 1408 M 0 59 R D 10261 1408 M 0 59 R D 10341 1408 M 0 59 R D
10421 1408 M 0 59 R D 10581 1408 M 0 59 R D 10660 1408 M 0 59 R D
10740 1408 M 0 59 R D 10820 1408 M 0 59 R D 10900 1408 M 0 59 R D
6591 4371 M 4372 0 R D 7309 4371 M 0 -119 R D 8107 4371 M 0 -119 R D
8905 4371 M 0 -119 R D 9703 4371 M 0 -119 R D 10501 4371 M 0 -119 R D
6591 4371 M 0 -60 R D 6671 4371 M 0 -60 R D 6751 4371 M 0 -60 R D
6831 4371 M 0 -60 R D 6911 4371 M 0 -60 R D 6990 4371 M 0 -60 R D
7070 4371 M 0 -60 R D 7150 4371 M 0 -60 R D 7230 4371 M 0 -60 R D
7389 4371 M 0 -60 R D 7469 4371 M 0 -60 R D 7549 4371 M 0 -60 R D
7629 4371 M 0 -60 R D 7708 4371 M 0 -60 R D 7788 4371 M 0 -60 R D
7868 4371 M 0 -60 R D 7948 4371 M 0 -60 R D 8028 4371 M 0 -60 R D
8187 4371 M 0 -60 R D 8267 4371 M 0 -60 R D 8347 4371 M 0 -60 R D
8426 4371 M 0 -60 R D 8506 4371 M 0 -60 R D 8586 4371 M 0 -60 R D
8666 4371 M 0 -60 R D 8746 4371 M 0 -60 R D 8825 4371 M 0 -60 R D
8985 4371 M 0 -60 R D 9065 4371 M 0 -60 R D 9144 4371 M 0 -60 R D
9224 4371 M 0 -60 R D 9304 4371 M 0 -60 R D 9384 4371 M 0 -60 R D
9464 4371 M 0 -60 R D 9543 4371 M 0 -60 R D 9623 4371 M 0 -60 R D
9783 4371 M 0 -60 R D 9863 4371 M 0 -60 R D 9942 4371 M 0 -60 R D
10022 4371 M 0 -60 R D 10102 4371 M 0 -60 R D 10182 4371 M 0 -60 R D
10261 4371 M 0 -60 R D 10341 4371 M 0 -60 R D 10421 4371 M 0 -60 R D
10581 4371 M 0 -60 R D 10660 4371 M 0 -60 R D 10740 4371 M 0 -60 R D
10820 4371 M 0 -60 R D 10900 4371 M 0 -60 R D 6591 1408 M 0 2963 R D
6591 1926 M 175 0 R D gsave 6480 1785 translate 0 0 M -117.687 0 N
( ) show grestore 6591 2666 M 175 0 R D gsave 6480 2526 translate 0 0 M
-117.687 0 N
( ) show grestore 6591 3407 M 175 0 R D gsave 6480 3266 translate 0 0 M
-117.687 0 N
( ) show grestore 6591 4148 M 175 0 R D gsave 6480 4007 translate 0 0 M
-117.687 0 N
( ) show grestore 6591 1408 M 88 0 R D 6591 1538 M 88 0 R D 6591 1631 M
88 0 R D 6591 1703 M 88 0 R D 6591 1761 M 88 0 R D 6591 1811 M 88 0 R D
6591 1854 M 88 0 R D 6591 1892 M 88 0 R D 6591 2149 M 88 0 R D 6591 2279 M
88 0 R D 6591 2372 M 88 0 R D 6591 2443 M 88 0 R D 6591 2502 M 88 0 R D
6591 2552 M 88 0 R D 6591 2595 M 88 0 R D 6591 2633 M 88 0 R D 6591 2889 M
88 0 R D 6591 3020 M 88 0 R D 6591 3112 M 88 0 R D 6591 3184 M 88 0 R D
6591 3243 M 88 0 R D 6591 3292 M 88 0 R D 6591 3335 M 88 0 R D 6591 3373 M
88 0 R D 6591 3630 M 88 0 R D 6591 3760 M 88 0 R D 6591 3853 M 88 0 R D
6591 3925 M 88 0 R D 6591 3983 M 88 0 R D 6591 4033 M 88 0 R D 6591 4076 M
88 0 R D 6591 4114 M 88 0 R D 6591 4371 M 88 0 R D 10963 1408 M 0 2963 R D
10963 1926 M -175 0 R D 10963 2666 M -175 0 R D 10963 3407 M -175 0 R D
10963 4148 M -175 0 R D 10963 1408 M -88 0 R D 10963 1538 M -88 0 R D
10963 1631 M -88 0 R D 10963 1703 M -88 0 R D 10963 1761 M -88 0 R D
10963 1811 M -88 0 R D 10963 1854 M -88 0 R D 10963 1892 M -88 0 R D
10963 2149 M -88 0 R D 10963 2279 M -88 0 R D 10963 2372 M -88 0 R D
10963 2443 M -88 0 R D 10963 2502 M -88 0 R D 10963 2552 M -88 0 R D
10963 2595 M -88 0 R D 10963 2633 M -88 0 R D 10963 2889 M -88 0 R D
10963 3020 M -88 0 R D 10963 3112 M -88 0 R D 10963 3184 M -88 0 R D
10963 3243 M -88 0 R D 10963 3292 M -88 0 R D 10963 3335 M -88 0 R D
10963 3373 M -88 0 R D 10963 3630 M -88 0 R D 10963 3760 M -88 0 R D
10963 3853 M -88 0 R D 10963 3925 M -88 0 R D 10963 3983 M -88 0 R D
10963 4033 M -88 0 R D 10963 4076 M -88 0 R D 10963 4114 M -88 0 R D
10963 4371 M -88 0 R D 0.761 0.000 0.000 setrgbcolor 8527 1408 M 500 2358 R
534 34 R 503 51 R 469 175 R 429 33 R D 0.000 0.549 0.000 setrgbcolor
6693 3184 M 601 1 R 593 1 R 580 1 R 560 1 R 534 1 R 503 0 R 469 1 R
429 169 R D 0.000 0.000 1.000 setrgbcolor 8703 1408 M 324 1949 R 534 3 R
503 0 R 469 0 R 429 -169 R D 0.000 0.000 0.000 setrgbcolor 10963 1408 M
4371 0 R D 11681 1408 M 0 119 R D gsave 11681 880 translate 0 0 M
-117.687 0 N
(9) show grestore 12479 1408 M 0 119 R D gsave 12479 880 translate 0 0 M
-235.373 0 N
(10) show grestore 13276 1408 M 0 119 R D gsave 13276 880 translate 0 0 M
-235.373 0 N
(11) show grestore 14074 1408 M 0 119 R D gsave 14074 880 translate 0 0 M
-235.373 0 N
(12) show grestore 14872 1408 M 0 119 R D gsave 14872 880 translate 0 0 M
-235.373 0 N
(13) show grestore 10963 1408 M 0 59 R D 11043 1408 M 0 59 R D 11122 1408 M
0 59 R D 11202 1408 M 0 59 R D 11282 1408 M 0 59 R D 11362 1408 M 0 59 R D
11441 1408 M 0 59 R D 11521 1408 M 0 59 R D 11601 1408 M 0 59 R D
11761 1408 M 0 59 R D 11840 1408 M 0 59 R D 11920 1408 M 0 59 R D
12000 1408 M 0 59 R D 12080 1408 M 0 59 R D 12159 1408 M 0 59 R D
12239 1408 M 0 59 R D 12319 1408 M 0 59 R D 12399 1408 M 0 59 R D
12558 1408 M 0 59 R D 12638 1408 M 0 59 R D 12718 1408 M 0 59 R D
12798 1408 M 0 59 R D 12878 1408 M 0 59 R D 12957 1408 M 0 59 R D
13037 1408 M 0 59 R D 13117 1408 M 0 59 R D 13197 1408 M 0 59 R D
13356 1408 M 0 59 R D 13436 1408 M 0 59 R D 13516 1408 M 0 59 R D
13596 1408 M 0 59 R D 13675 1408 M 0 59 R D 13755 1408 M 0 59 R D
13835 1408 M 0 59 R D 13915 1408 M 0 59 R D 13995 1408 M 0 59 R D
14154 1408 M 0 59 R D 14234 1408 M 0 59 R D 14314 1408 M 0 59 R D
14393 1408 M 0 59 R D 14473 1408 M 0 59 R D 14553 1408 M 0 59 R D
14633 1408 M 0 59 R D 14713 1408 M 0 59 R D 14792 1408 M 0 59 R D
14952 1408 M 0 59 R D 15032 1408 M 0 59 R D 15111 1408 M 0 59 R D
15191 1408 M 0 59 R D 15271 1408 M 0 59 R D 10963 4371 M 4371 0 R D
11681 4371 M 0 -119 R D 12479 4371 M 0 -119 R D 13276 4371 M 0 -119 R D
14074 4371 M 0 -119 R D 14872 4371 M 0 -119 R D 10963 4371 M 0 -60 R D
11043 4371 M 0 -60 R D 11122 4371 M 0 -60 R D 11202 4371 M 0 -60 R D
11282 4371 M 0 -60 R D 11362 4371 M 0 -60 R D 11441 4371 M 0 -60 R D
11521 4371 M 0 -60 R D 11601 4371 M 0 -60 R D 11761 4371 M 0 -60 R D
11840 4371 M 0 -60 R D 11920 4371 M 0 -60 R D 12000 4371 M 0 -60 R D
12080 4371 M 0 -60 R D 12159 4371 M 0 -60 R D 12239 4371 M 0 -60 R D
12319 4371 M 0 -60 R D 12399 4371 M 0 -60 R D 12558 4371 M 0 -60 R D
12638 4371 M 0 -60 R D 12718 4371 M 0 -60 R D 12798 4371 M 0 -60 R D
12878 4371 M 0 -60 R D 12957 4371 M 0 -60 R D 13037 4371 M 0 -60 R D
13117 4371 M 0 -60 R D 13197 4371 M 0 -60 R D 13356 4371 M 0 -60 R D
13436 4371 M 0 -60 R D 13516 4371 M 0 -60 R D 13596 4371 M 0 -60 R D
13675 4371 M 0 -60 R D 13755 4371 M 0 -60 R D 13835 4371 M 0 -60 R D
13915 4371 M 0 -60 R D 13995 4371 M 0 -60 R D 14154 4371 M 0 -60 R D
14234 4371 M 0 -60 R D 14314 4371 M 0 -60 R D 14393 4371 M 0 -60 R D
14473 4371 M 0 -60 R D 14553 4371 M 0 -60 R D 14633 4371 M 0 -60 R D
14713 4371 M 0 -60 R D 14792 4371 M 0 -60 R D 14952 4371 M 0 -60 R D
15032 4371 M 0 -60 R D 15111 4371 M 0 -60 R D 15191 4371 M 0 -60 R D
15271 4371 M 0 -60 R D 10963 1408 M 0 2963 R D 10963 1926 M 175 0 R D
gsave 10852 1785 translate 0 0 M -117.687 0 N
( ) show grestore 10963 2666 M 175 0 R D gsave 10852 2526 translate 0 0 M
-117.687 0 N
( ) show grestore 10963 3407 M 175 0 R D gsave 10852 3266 translate 0 0 M
-117.687 0 N
( ) show grestore 10963 4148 M 175 0 R D gsave 10852 4007 translate 0 0 M
-117.687 0 N
( ) show grestore 10963 1408 M 87 0 R D 10963 1538 M 87 0 R D 10963 1631 M
87 0 R D 10963 1703 M 87 0 R D 10963 1761 M 87 0 R D 10963 1811 M 87 0 R D
10963 1854 M 87 0 R D 10963 1892 M 87 0 R D 10963 2149 M 87 0 R D
10963 2279 M 87 0 R D 10963 2372 M 87 0 R D 10963 2443 M 87 0 R D
10963 2502 M 87 0 R D 10963 2552 M 87 0 R D 10963 2595 M 87 0 R D
10963 2633 M 87 0 R D 10963 2889 M 87 0 R D 10963 3020 M 87 0 R D
10963 3112 M 87 0 R D 10963 3184 M 87 0 R D 10963 3243 M 87 0 R D
10963 3292 M 87 0 R D 10963 3335 M 87 0 R D 10963 3373 M 87 0 R D
10963 3630 M 87 0 R D 10963 3760 M 87 0 R D 10963 3853 M 87 0 R D
10963 3925 M 87 0 R D 10963 3983 M 87 0 R D 10963 4033 M 87 0 R D
10963 4076 M 87 0 R D 10963 4114 M 87 0 R D 10963 4371 M 87 0 R D
15334 1408 M 0 2963 R D 15334 1926 M -175 0 R D 15334 2666 M -175 0 R D
15334 3407 M -175 0 R D 15334 4148 M -175 0 R D 15334 1408 M -87 0 R D
15334 1538 M -87 0 R D 15334 1631 M -87 0 R D 15334 1703 M -87 0 R D
15334 1761 M -87 0 R D 15334 1811 M -87 0 R D 15334 1854 M -87 0 R D
15334 1892 M -87 0 R D 15334 2149 M -87 0 R D 15334 2279 M -87 0 R D
15334 2372 M -87 0 R D 15334 2443 M -87 0 R D 15334 2502 M -87 0 R D
15334 2552 M -87 0 R D 15334 2595 M -87 0 R D 15334 2633 M -87 0 R D
15334 2889 M -87 0 R D 15334 3020 M -87 0 R D 15334 3112 M -87 0 R D
15334 3184 M -87 0 R D 15334 3243 M -87 0 R D 15334 3292 M -87 0 R D
15334 3335 M -87 0 R D 15334 3373 M -87 0 R D 15334 3630 M -87 0 R D
15334 3760 M -87 0 R D 15334 3853 M -87 0 R D 15334 3925 M -87 0 R D
15334 3983 M -87 0 R D 15334 4033 M -87 0 R D 15334 4076 M -87 0 R D
15334 4114 M -87 0 R D 15334 4371 M -87 0 R D 0.761 0.000 0.000 setrgbcolor
10962 4006 M 103 5 R 600 31 R 594 107 R 580 37 R 559 33 R 534 16 R 504 37 R
468 23 R 430 20 R D 0.000 0.549 0.000 setrgbcolor 10962 3327 M 103 7 R
600 20 R 594 15 R 580 12 R 559 0 R 534 3 R 504 0 R 468 14 R 430 120 R D
0.000 0.000 1.000 setrgbcolor 10962 3322 M 103 2 R 600 20 R 594 108 R
580 9 R 559 9 R 534 13 R 504 12 R 468 17 R 430 -109 R D
%%PageTrailer
end
%%PageResources: font Helvetica
%%Trailer
%%Pages: 1
%%DocumentNeededResources: font Helvetica
%%EOF
