%!PS-Adobe-3.0 EPSF-3.0
%%BoundingBox: 0 0 283 226
%%Title: Graphics produced by IDL
%%For: jlgan@Hserver, /home/jlgan/work/phoenix
%%Creator: IDL Version 7.1.1 (linux x86_64 m64)
%%CreationDate: Fri May 16 23:54:37 2014
%%DocumentData: Clean7bit
%%Requirements: color
%%LanguageLevel: 1
%%PageOrder: Ascend
%%Pages: (atend)
%%DocumentNeededResources: (atend)
%%EndComments
%%BeginProlog
%+ prolog.ps -- Prolog for IDL generated PostScript files
%+ Copyright (c) 1988-2009 ITT Visual Information Solutions. All Rights Reserved.
%v 5
/$IDL_DICT 40 dict def $IDL_DICT begin /bdef { bind def } bind def /C
{currentpoint newpath moveto} bdef /CP {currentpoint} bdef /D {currentpoint
stroke moveto} bdef /F {closepath fill} bdef /K { setgray } bdef /M {moveto}
bdef /N {rmoveto} bdef /P {lineto} bdef /R {rlineto} bdef /S {gsave show
grestore} bdef /X {currentpoint pop} bdef /Z {gsave currentpoint lineto 20
setlinewidth 1 setlinecap stroke grestore} bdef /L0 {[] 0 setdash} bdef /L1
{[40 100] 0 setdash} bdef /L2 {[200 200] 0 setdash} bdef /L3 {[200 100 50
100] 0 setdash} bdef /L4 {[300 100 50 100 50 100 50 100] 0 setdash} bdef /L5
{[400 200] 0 setdash} bdef /STDFONT { findfont exch scalefont setfont } bdef
/ISOFONT { findfont dup length dict begin { 1 index /FID ne {def} {pop pop}
ifelse } forall /Encoding ISOLatin1Encoding def currentdict end /idltmpfont
exch definefont exch scalefont setfont } bdef /ISOBULLET { gsave /Helvetica
findfont exch scalefont setfont (\267) show currentpoint grestore moveto}
bdef /MITERLIMIT { 2.5 setmiterlimit } bdef end
%%EndProlog
%%Page: 0 1
%%PageRequirements: color
%%PageResources: (atend)
%%PageOrientation: Portrait
%%PageBoundingBox: 0 0 283 226
%%BeginPageSetup
$IDL_DICT begin 0.0283465 dup scale MITERLIMIT
%%IncludeResource: font Helvetica
423.333 /Helvetica STDFONT
%%EndPageSetup
40 setlinewidth L0 0.000 0.000 0.000 setrgbcolor 2220 1408 M 7114 0 R D
2950 1408 M 0 236 R D gsave 2950 880 translate 0 0 M -117.687 0 N
(2) show grestore 4054 1408 M 0 236 R D gsave 4054 880 translate 0 0 M
-117.687 0 N
(4) show grestore 5158 1408 M 0 236 R D gsave 5158 880 translate 0 0 M
-117.687 0 N
(6) show grestore 6262 1408 M 0 236 R D gsave 6262 880 translate 0 0 M
-117.687 0 N
(8) show grestore 7366 1408 M 0 236 R D gsave 7366 880 translate 0 0 M
-235.373 0 N
(10) show grestore 8470 1408 M 0 236 R D gsave 8470 880 translate 0 0 M
-235.373 0 N
(12) show grestore 2398 1408 M 0 118 R D 2674 1408 M 0 118 R D 3226 1408 M
0 118 R D 3502 1408 M 0 118 R D 3778 1408 M 0 118 R D 4330 1408 M 0 118 R D
4606 1408 M 0 118 R D 4882 1408 M 0 118 R D 5434 1408 M 0 118 R D
5710 1408 M 0 118 R D 5986 1408 M 0 118 R D 6538 1408 M 0 118 R D
6814 1408 M 0 118 R D 7090 1408 M 0 118 R D 7642 1408 M 0 118 R D
7918 1408 M 0 118 R D 8194 1408 M 0 118 R D 8746 1408 M 0 118 R D
9022 1408 M 0 118 R D 9298 1408 M 0 118 R D gsave 5777 422 translate 0 0 M
-576.368 0 N
(t / Gyr) show grestore 2220 7296 M 7114 0 R D 2950 7296 M 0 -235 R D
4054 7296 M 0 -235 R D 5158 7296 M 0 -235 R D 6262 7296 M 0 -235 R D
7366 7296 M 0 -235 R D 8470 7296 M 0 -235 R D 2398 7296 M 0 -118 R D
2674 7296 M 0 -118 R D 3226 7296 M 0 -118 R D 3502 7296 M 0 -118 R D
3778 7296 M 0 -118 R D 4330 7296 M 0 -118 R D 4606 7296 M 0 -118 R D
4882 7296 M 0 -118 R D 5434 7296 M 0 -118 R D 5710 7296 M 0 -118 R D
5986 7296 M 0 -118 R D 6538 7296 M 0 -118 R D 6814 7296 M 0 -118 R D
7090 7296 M 0 -118 R D 7642 7296 M 0 -118 R D 7918 7296 M 0 -118 R D
8194 7296 M 0 -118 R D 8746 7296 M 0 -118 R D 9022 7296 M 0 -118 R D
9298 7296 M 0 -118 R D 2220 1408 M 0 5888 R D 2220 2231 M 285 0 R D
gsave 2109 2090 translate 0 0 M -823.807 0 N
(0.01) show grestore 2220 3409 M 285 0 R D gsave 2109 3268 translate 0 0 M
-823.807 0 N
(0.10) show grestore 2220 4586 M 285 0 R D gsave 2109 4446 translate 0 0 M
-823.807 0 N
(1.00) show grestore 2220 5764 M 285 0 R D gsave 2109 5623 translate 0 0 M
-1059.18 0 N
(10.00) show grestore 2220 6942 M 285 0 R D gsave 2109 6801 translate 0 0 M
-1294.55 0 N
(100.00) show grestore 2220 1408 M 142 0 R D 2220 1615 M 142 0 R D
2220 1763 M 142 0 R D 2220 1877 M 142 0 R D 2220 1970 M 142 0 R D
2220 2049 M 142 0 R D 2220 2117 M 142 0 R D 2220 2177 M 142 0 R D
2220 2586 M 142 0 R D 2220 2793 M 142 0 R D 2220 2940 M 142 0 R D
2220 3054 M 142 0 R D 2220 3147 M 142 0 R D 2220 3226 M 142 0 R D
2220 3295 M 142 0 R D 2220 3355 M 142 0 R D 2220 3763 M 142 0 R D
2220 3971 M 142 0 R D 2220 4118 M 142 0 R D 2220 4232 M 142 0 R D
2220 4325 M 142 0 R D 2220 4404 M 142 0 R D 2220 4472 M 142 0 R D
2220 4532 M 142 0 R D 2220 4941 M 142 0 R D 2220 5148 M 142 0 R D
2220 5295 M 142 0 R D 2220 5409 M 142 0 R D 2220 5503 M 142 0 R D
2220 5582 M 142 0 R D 2220 5650 M 142 0 R D 2220 5710 M 142 0 R D
2220 6118 M 142 0 R D 2220 6326 M 142 0 R D 2220 6473 M 142 0 R D
2220 6587 M 142 0 R D 2220 6680 M 142 0 R D 2220 6759 M 142 0 R D
2220 6827 M 142 0 R D 2220 6888 M 142 0 R D 2220 7296 M 142 0 R D
gsave 482 4352 translate 0 0 M 90 rotate -1304.33 0 N
(sSFR / \(Gyr) show X 192.937 M
%%IncludeResource: font Helvetica
262.467 /Helvetica STDFONT
(-1) show X 0 M
%%IncludeResource: font Helvetica
423.333 /Helvetica STDFONT
(\)) show grestore 9334 1408 M 0 5888 R D 9334 2231 M -285 0 R D 9334 3409 M
-285 0 R D 9334 4586 M -285 0 R D 9334 5764 M -285 0 R D 9334 6942 M
-285 0 R D 9334 1408 M -142 0 R D 9334 1615 M -142 0 R D 9334 1763 M
-142 0 R D 9334 1877 M -142 0 R D 9334 1970 M -142 0 R D 9334 2049 M
-142 0 R D 9334 2117 M -142 0 R D 9334 2177 M -142 0 R D 9334 2586 M
-142 0 R D 9334 2793 M -142 0 R D 9334 2940 M -142 0 R D 9334 3054 M
-142 0 R D 9334 3147 M -142 0 R D 9334 3226 M -142 0 R D 9334 3295 M
-142 0 R D 9334 3355 M -142 0 R D 9334 3763 M -142 0 R D 9334 3971 M
-142 0 R D 9334 4118 M -142 0 R D 9334 4232 M -142 0 R D 9334 4325 M
-142 0 R D 9334 4404 M -142 0 R D 9334 4472 M -142 0 R D 9334 4532 M
-142 0 R D 9334 4941 M -142 0 R D 9334 5148 M -142 0 R D 9334 5295 M
-142 0 R D 9334 5409 M -142 0 R D 9334 5503 M -142 0 R D 9334 5582 M
-142 0 R D 9334 5650 M -142 0 R D 9334 5710 M -142 0 R D 9334 6118 M
-142 0 R D 9334 6326 M -142 0 R D 9334 6473 M -142 0 R D 9334 6587 M
-142 0 R D 9334 6680 M -142 0 R D 9334 6759 M -142 0 R D 9334 6827 M
-142 0 R D 9334 6888 M -142 0 R D 9334 7296 M -142 0 R D 20 setlinewidth
2261 6061 M 45 -71 R 50 -131 R 56 -171 R 61 -217 R 69 -189 R 75 -176 R
84 -152 R 93 -148 R 104 -149 R 114 -149 R 127 -144 R 141 -105 R 156 -157 R
173 -125 R 192 -6 R 212 -191 R 236 -110 R 262 -111 R 290 -89 R 322 -176 R
356 -139 R 396 -148 R 438 -116 R 486 -119 R 540 -140 R 597 -150 R 663 -168 R
735 -135 R D 2261 6053 M 45 -67 R 50 -140 R 56 -112 R 61 -226 R 69 -163 R
75 -161 R 84 -168 R 93 -151 R 104 -154 R 114 -144 R 127 -150 R 141 -106 R
156 -155 R 173 -138 R 192 -66 R 212 -168 R 236 -111 R 262 -105 R 290 -63 R
322 -192 R 356 -127 R 396 -132 R 438 -133 R 486 -134 R 540 -136 R 597 -136 R
663 -153 R 735 -315 R D 2261 6082 M 45 -53 R 50 -125 R 56 -177 R 61 -229 R
69 -218 R 75 -154 R 84 -160 R 93 -144 R 104 -145 R 114 -145 R 127 -127 R
141 -100 R 156 -146 R 173 -122 R 192 -35 R 212 -186 R 236 -122 R 262 -110 R
290 -58 R 322 -178 R 356 -119 R 396 -141 R 438 -149 R 486 -127 R 540 -138 R
597 -137 R 663 -156 R 735 -278 R D 2261 6083 M 45 -65 R 50 -125 R 56 -183 R
61 -206 R 69 -188 R 75 -157 R 84 -148 R 93 -154 R 104 -142 R 114 -135 R
127 -135 R 141 -98 R 156 -157 R 173 -125 R 192 -38 R 212 -174 R 236 -119 R
262 -104 R 290 -63 R 322 -178 R 356 -127 R 396 -130 R 438 -165 R 486 -140 R
540 -140 R 597 -149 R 663 -140 R 735 -324 R D 2261 6086 M 45 -17 R 50 -106 R
56 -267 R 61 -249 R 69 -194 R 75 -162 R 84 -142 R 93 -150 R 104 -147 R
114 -141 R 127 -137 R 141 -95 R 156 -146 R 173 -131 R 192 -55 R 212 -167 R
236 -121 R 262 -113 R 290 -72 R 322 -174 R 356 -120 R 396 -133 R 438 -142 R
486 -157 R 540 -149 R 597 -133 R 663 -145 R 735 -225 R D 2261 6060 M
45 -122 R 50 -125 R 56 -142 R 61 -193 R 69 -178 R 75 -152 R 84 -172 R
93 -134 R 104 -160 R 114 -144 R 127 -143 R 141 -94 R 156 -175 R 173 -126 R
192 -69 R 212 -173 R 236 -128 R 262 -148 R 290 -81 R 322 -182 R 356 -138 R
396 -139 R 438 -139 R 486 -124 R 540 -141 R 597 -162 R 663 -177 R 735 -186 R
D 2261 5984 M 45 -100 R 50 -106 R 56 -99 R 61 -126 R 69 -149 R 75 -144 R
84 -154 R 93 -144 R 104 -140 R 114 -144 R 127 -142 R 141 -98 R 156 -174 R
173 -137 R 192 -52 R 212 -175 R 236 -129 R 262 -112 R 290 -77 R 322 -174 R
356 -120 R 396 -120 R 438 -137 R 486 -164 R 540 -146 R 597 -155 R 663 -192 R
735 -289 R D 2261 6037 M 45 -131 R 50 -116 R 56 -104 R 61 -154 R 69 -155 R
75 -153 R 84 -155 R 93 -150 R 104 -149 R 114 -148 R 127 -149 R 141 -109 R
156 -159 R 173 -135 R 192 -51 R 212 -190 R 236 -123 R 262 -114 R 290 -89 R
322 -169 R 356 -118 R 396 -114 R 438 -139 R 486 -134 R 540 -154 R 597 -150 R
663 -156 R 735 -328 R D 2261 6022 M 45 -112 R 50 -115 R 56 -129 R 61 -122 R
69 -129 R 75 -135 R 84 -133 R 93 -137 R 104 -147 R 114 -144 R 127 -143 R
141 -104 R 156 -170 R 173 -142 R 192 -66 R 212 -177 R 236 -130 R 262 -118 R
290 -82 R 322 -181 R 356 -141 R 396 -141 R 438 -150 R 486 -152 R 540 -155 R
597 -170 R 663 -154 R 735 -199 R D
%%PageTrailer
end
%%PageResources: font Helvetica
%%Trailer
%%Pages: 1
%%DocumentNeededResources: font Helvetica
%%EOF
