%!PS-Adobe-3.0 EPSF-3.0
%%BoundingBox: 0 0 283 226
%%Title: Graphics produced by IDL
%%For: jlgan@Hserver, /home/jlgan/work/phoenix
%%Creator: IDL Version 7.1.1 (linux x86_64 m64)
%%CreationDate: Wed Jun  4 17:02:13 2014
%%DocumentData: Clean7bit
%%Requirements: color
%%LanguageLevel: 1
%%PageOrder: Ascend
%%Pages: (atend)
%%DocumentNeededResources: (atend)
%%EndComments
%%BeginProlog
%+ prolog.ps -- Prolog for IDL generated PostScript files
%+ Copyright (c) 1988-2009 ITT Visual Information Solutions. All Rights Reserved.
%v 5
/$IDL_DICT 40 dict def $IDL_DICT begin /bdef { bind def } bind def /C
{currentpoint newpath moveto} bdef /CP {currentpoint} bdef /D {currentpoint
stroke moveto} bdef /F {closepath fill} bdef /K { setgray } bdef /M {moveto}
bdef /N {rmoveto} bdef /P {lineto} bdef /R {rlineto} bdef /S {gsave show
grestore} bdef /X {currentpoint pop} bdef /Z {gsave currentpoint lineto 20
setlinewidth 1 setlinecap stroke grestore} bdef /L0 {[] 0 setdash} bdef /L1
{[40 100] 0 setdash} bdef /L2 {[200 200] 0 setdash} bdef /L3 {[200 100 50
100] 0 setdash} bdef /L4 {[300 100 50 100 50 100 50 100] 0 setdash} bdef /L5
{[400 200] 0 setdash} bdef /STDFONT { findfont exch scalefont setfont } bdef
/ISOFONT { findfont dup length dict begin { 1 index /FID ne {def} {pop pop}
ifelse } forall /Encoding ISOLatin1Encoding def currentdict end /idltmpfont
exch definefont exch scalefont setfont } bdef /ISOBULLET { gsave /Helvetica
findfont exch scalefont setfont (\267) show currentpoint grestore moveto}
bdef /MITERLIMIT { 2.5 setmiterlimit } bdef end
%%EndProlog
%%Page: 0 1
%%PageRequirements: color
%%PageResources: (atend)
%%PageOrientation: Portrait
%%PageBoundingBox: 0 0 283 226
%%BeginPageSetup
$IDL_DICT begin 0.0283465 dup scale MITERLIMIT
%%IncludeResource: font Helvetica
423.333 /Helvetica STDFONT
%%EndPageSetup
30 setlinewidth L0 0.000 0.000 0.000 setrgbcolor 2220 1408 M 7114 0 R D
2639 1408 M 0 236 R D gsave 2639 880 translate 0 0 M -294.217 0 N
(8.0) show grestore 3685 1408 M 0 236 R D gsave 3685 880 translate 0 0 M
-294.217 0 N
(8.5) show grestore 4731 1408 M 0 236 R D gsave 4731 880 translate 0 0 M
-294.217 0 N
(9.0) show grestore 5777 1408 M 0 236 R D gsave 5777 880 translate 0 0 M
-294.217 0 N
(9.5) show grestore 6823 1408 M 0 236 R D gsave 6823 880 translate 0 0 M
-411.903 0 N
(10.0) show grestore 7869 1408 M 0 236 R D gsave 7869 880 translate 0 0 M
-411.903 0 N
(10.5) show grestore 8916 1408 M 0 236 R D gsave 8916 880 translate 0 0 M
-411.903 0 N
(11.0) show grestore 2220 1408 M 0 118 R D 2429 1408 M 0 118 R D 2848 1408 M
0 118 R D 3057 1408 M 0 118 R D 3266 1408 M 0 118 R D 3475 1408 M 0 118 R D
3894 1408 M 0 118 R D 4103 1408 M 0 118 R D 4312 1408 M 0 118 R D
4522 1408 M 0 118 R D 4940 1408 M 0 118 R D 5149 1408 M 0 118 R D
5359 1408 M 0 118 R D 5568 1408 M 0 118 R D 5986 1408 M 0 118 R D
6196 1408 M 0 118 R D 6405 1408 M 0 118 R D 6614 1408 M 0 118 R D
7032 1408 M 0 118 R D 7242 1408 M 0 118 R D 7451 1408 M 0 118 R D
7660 1408 M 0 118 R D 8079 1408 M 0 118 R D 8288 1408 M 0 118 R D
8497 1408 M 0 118 R D 8706 1408 M 0 118 R D 9125 1408 M 0 118 R D
9334 1408 M 0 118 R D gsave 5777 422 translate 0 0 M -1497.15 0 N
(log) show X -101.051 M
%%IncludeResource: font Helvetica
262.467 /Helvetica STDFONT
(10) show X 0 M
%%IncludeResource: font Helvetica
423.333 /Helvetica STDFONT
([L / \(h) show X 192.937 M
%%IncludeResource: font Helvetica
262.467 /Helvetica STDFONT
(-2) show X 0 M
%%IncludeResource: font Helvetica
423.333 /Helvetica STDFONT
(M) show CP X -101.051 M
%%IncludeResource: font AvantGarde-Book
262.467 /AvantGarde-Book STDFONT
(O) show M X -58.3193 M
%%IncludeResource: font AvantGarde-Book
186.267 /AvantGarde-Book STDFONT
( \267) show X 0 M
%%IncludeResource: font Helvetica
423.333 /Helvetica STDFONT
(\)]) show grestore 2220 7296 M 7114 0 R D 2639 7296 M 0 -235 R D
3685 7296 M 0 -235 R D 4731 7296 M 0 -235 R D 5777 7296 M 0 -235 R D
6823 7296 M 0 -235 R D 7869 7296 M 0 -235 R D 8916 7296 M 0 -235 R D
2220 7296 M 0 -118 R D 2429 7296 M 0 -118 R D 2848 7296 M 0 -118 R D
3057 7296 M 0 -118 R D 3266 7296 M 0 -118 R D 3475 7296 M 0 -118 R D
3894 7296 M 0 -118 R D 4103 7296 M 0 -118 R D 4312 7296 M 0 -118 R D
4522 7296 M 0 -118 R D 4940 7296 M 0 -118 R D 5149 7296 M 0 -118 R D
5359 7296 M 0 -118 R D 5568 7296 M 0 -118 R D 5986 7296 M 0 -118 R D
6196 7296 M 0 -118 R D 6405 7296 M 0 -118 R D 6614 7296 M 0 -118 R D
7032 7296 M 0 -118 R D 7242 7296 M 0 -118 R D 7451 7296 M 0 -118 R D
7660 7296 M 0 -118 R D 8079 7296 M 0 -118 R D 8288 7296 M 0 -118 R D
8497 7296 M 0 -118 R D 8706 7296 M 0 -118 R D 9125 7296 M 0 -118 R D
9334 7296 M 0 -118 R D 2220 1408 M 0 5888 R D 2220 2387 M 285 0 R D
gsave 2109 2246 translate 0 0 M -704.08 0 N
(10) show X 192.937 M
%%IncludeResource: font Helvetica
262.467 /Helvetica STDFONT
(-5) show grestore
%%IncludeResource: font Helvetica
423.333 /Helvetica STDFONT 2220 3369 M 285 0 R D
gsave 2109 3229 translate 0 0 M -704.08 0 N
(10) show X 192.937 M
%%IncludeResource: font Helvetica
262.467 /Helvetica STDFONT
(-4) show grestore
%%IncludeResource: font Helvetica
423.333 /Helvetica STDFONT 2220 4352 M 285 0 R D
gsave 2109 4211 translate 0 0 M -704.08 0 N
(10) show X 192.937 M
%%IncludeResource: font Helvetica
262.467 /Helvetica STDFONT
(-3) show grestore
%%IncludeResource: font Helvetica
423.333 /Helvetica STDFONT 2220 5335 M 285 0 R D
gsave 2109 5194 translate 0 0 M -704.08 0 N
(10) show X 192.937 M
%%IncludeResource: font Helvetica
262.467 /Helvetica STDFONT
(-2) show grestore
%%IncludeResource: font Helvetica
423.333 /Helvetica STDFONT 2220 6318 M 285 0 R D
gsave 2109 6177 translate 0 0 M -704.08 0 N
(10) show X 192.937 M
%%IncludeResource: font Helvetica
262.467 /Helvetica STDFONT
(-1) show grestore
%%IncludeResource: font Helvetica
423.333 /Helvetica STDFONT 2220 1700 M 142 0 R D 2220 1873 M 142 0 R D
2220 1995 M 142 0 R D 2220 2091 M 142 0 R D 2220 2169 M 142 0 R D
2220 2234 M 142 0 R D 2220 2291 M 142 0 R D 2220 2342 M 142 0 R D
2220 2682 M 142 0 R D 2220 2855 M 142 0 R D 2220 2978 M 142 0 R D
2220 3073 M 142 0 R D 2220 3151 M 142 0 R D 2220 3217 M 142 0 R D
2220 3274 M 142 0 R D 2220 3324 M 142 0 R D 2220 3665 M 142 0 R D
2220 3838 M 142 0 R D 2220 3961 M 142 0 R D 2220 4056 M 142 0 R D
2220 4134 M 142 0 R D 2220 4200 M 142 0 R D 2220 4257 M 142 0 R D
2220 4307 M 142 0 R D 2220 4648 M 142 0 R D 2220 4821 M 142 0 R D
2220 4944 M 142 0 R D 2220 5039 M 142 0 R D 2220 5117 M 142 0 R D
2220 5183 M 142 0 R D 2220 5240 M 142 0 R D 2220 5290 M 142 0 R D
2220 5631 M 142 0 R D 2220 5804 M 142 0 R D 2220 5926 M 142 0 R D
2220 6022 M 142 0 R D 2220 6100 M 142 0 R D 2220 6165 M 142 0 R D
2220 6222 M 142 0 R D 2220 6273 M 142 0 R D 2220 6613 M 142 0 R D
2220 6786 M 142 0 R D 2220 6909 M 142 0 R D 2220 7004 M 142 0 R D
2220 7082 M 142 0 R D 2220 7148 M 142 0 R D 2220 7205 M 142 0 R D
2220 7255 M 142 0 R D gsave 1072 4352 translate 0 0 M 90 rotate -1939.66 0 N
%%IncludeResource: font Symbol
423.333 /Symbol STDFONT
(f) show
%%IncludeResource: font Helvetica
423.333 /Helvetica STDFONT
(\(L\) / \(h) show X 192.937 M
%%IncludeResource: font Helvetica
262.467 /Helvetica STDFONT
(3) show X 0 M
%%IncludeResource: font Helvetica
423.333 /Helvetica STDFONT
(Mpc) show X 192.937 M
%%IncludeResource: font Helvetica
262.467 /Helvetica STDFONT
(-3) show X 0 M
%%IncludeResource: font Helvetica
423.333 /Helvetica STDFONT
(lg) show X 192.937 M
%%IncludeResource: font Helvetica
262.467 /Helvetica STDFONT
(-1) show X 0 M
%%IncludeResource: font Helvetica
423.333 /Helvetica STDFONT
(L\)) show grestore 9334 1408 M 0 5888 R D 9334 2387 M -285 0 R D
9334 3369 M -285 0 R D 9334 4352 M -285 0 R D 9334 5335 M -285 0 R D
9334 6318 M -285 0 R D 9334 1700 M -142 0 R D 9334 1873 M -142 0 R D
9334 1995 M -142 0 R D 9334 2091 M -142 0 R D 9334 2169 M -142 0 R D
9334 2234 M -142 0 R D 9334 2291 M -142 0 R D 9334 2342 M -142 0 R D
9334 2682 M -142 0 R D 9334 2855 M -142 0 R D 9334 2978 M -142 0 R D
9334 3073 M -142 0 R D 9334 3151 M -142 0 R D 9334 3217 M -142 0 R D
9334 3274 M -142 0 R D 9334 3324 M -142 0 R D 9334 3665 M -142 0 R D
9334 3838 M -142 0 R D 9334 3961 M -142 0 R D 9334 4056 M -142 0 R D
9334 4134 M -142 0 R D 9334 4200 M -142 0 R D 9334 4257 M -142 0 R D
9334 4307 M -142 0 R D 9334 4648 M -142 0 R D 9334 4821 M -142 0 R D
9334 4944 M -142 0 R D 9334 5039 M -142 0 R D 9334 5117 M -142 0 R D
9334 5183 M -142 0 R D 9334 5240 M -142 0 R D 9334 5290 M -142 0 R D
9334 5631 M -142 0 R D 9334 5804 M -142 0 R D 9334 5926 M -142 0 R D
9334 6022 M -142 0 R D 9334 6100 M -142 0 R D 9334 6165 M -142 0 R D
9334 6222 M -142 0 R D 9334 6273 M -142 0 R D 9334 6613 M -142 0 R D
9334 6786 M -142 0 R D 9334 6909 M -142 0 R D 9334 7004 M -142 0 R D
9334 7082 M -142 0 R D 9334 7148 M -142 0 R D 9334 7205 M -142 0 R D
9334 7255 M -142 0 R D 2220 6385 M 111 0 R 0 -222 R -111 0 R D 2220 6385 M
111 0 R D 2429 6308 M 111 0 R 0 -222 R -222 0 R 0 222 R 222 0 R D
2639 6236 M 111 0 R 0 -222 R -222 0 R 0 222 R 222 0 R D 2848 6216 M 111 0 R
0 -222 R -222 0 R 0 222 R 222 0 R D 3057 6066 M 111 0 R 0 -222 R -222 0 R
0 222 R 222 0 R D 3266 6131 M 111 0 R 0 -222 R -222 0 R 0 222 R 222 0 R D
3475 6091 M 111 0 R 0 -222 R -222 0 R 0 222 R 222 0 R D 3685 6112 M 111 0 R
0 -222 R -222 0 R 0 222 R 222 0 R D 3894 6138 M 111 0 R 0 -222 R -222 0 R
0 222 R 222 0 R D 4103 6130 M 111 0 R 0 -222 R -222 0 R 0 222 R 222 0 R D
4312 6112 M 111 0 R 0 -222 R -222 0 R 0 222 R 222 0 R D 4522 6063 M 111 0 R
0 -222 R -222 0 R 0 222 R 222 0 R D 4731 6006 M 111 0 R 0 -222 R -222 0 R
0 222 R 222 0 R D 4940 5974 M 111 0 R 0 -222 R -222 0 R 0 222 R 222 0 R D
5149 5944 M 111 0 R 0 -222 R -222 0 R 0 222 R 222 0 R D 5359 5897 M 111 0 R
0 -222 R -222 0 R 0 222 R 222 0 R D 5568 5877 M 111 0 R 0 -222 R -222 0 R
0 222 R 222 0 R D 5777 5855 M 111 0 R 0 -222 R -222 0 R 0 222 R 222 0 R D
5986 5868 M 111 0 R 0 -222 R -222 0 R 0 222 R 222 0 R D 6196 5834 M 111 0 R
0 -222 R -222 0 R 0 222 R 222 0 R D 6405 5781 M 111 0 R 0 -222 R -222 0 R
0 222 R 222 0 R D 6614 5705 M 111 0 R 0 -222 R -222 0 R 0 222 R 222 0 R D
6823 5630 M 111 0 R 0 -222 R -222 0 R 0 222 R 222 0 R D 7032 5540 M 111 0 R
0 -222 R -222 0 R 0 222 R 222 0 R D 7242 5420 M 111 0 R 0 -222 R -222 0 R
0 222 R 222 0 R D 7451 5257 M 111 0 R 0 -222 R -222 0 R 0 222 R 222 0 R D
7660 5051 M 111 0 R 0 -222 R -222 0 R 0 222 R 222 0 R D 7869 4805 M 111 0 R
0 -222 R -222 0 R 0 222 R 222 0 R D 8079 4495 M 111 0 R 0 -222 R -222 0 R
0 222 R 222 0 R D 8288 4145 M 111 0 R 0 -222 R -222 0 R 0 222 R 222 0 R D
8497 3738 M 111 0 R 0 -222 R -222 0 R 0 222 R 222 0 R D 8706 3262 M 111 0 R
0 -222 R -222 0 R 0 222 R 222 0 R D 8916 2610 M 111 0 R 0 -222 R -222 0 R
0 222 R 222 0 R D 2220 6073 M 71 0 R -71 0 R 0 337 R 71 0 R D 2358 6111 M
142 0 R -71 0 R 0 158 R -71 0 R 142 0 R D 2567 6067 M 143 0 R -71 0 R
0 109 R -72 0 R 143 0 R D 2777 6057 M 142 0 R -71 0 R 0 92 R -71 0 R 142 0 R
D 2986 5911 M 142 0 R -71 0 R 0 84 R -71 0 R 142 0 R D 3195 5981 M 142 0 R
-71 0 R 0 75 R -71 0 R 142 0 R D 3404 5949 M 143 0 R -72 0 R 0 60 R -71 0 R
143 0 R D 3614 5976 M 142 0 R -71 0 R 0 49 R -71 0 R 142 0 R D 3823 6011 M
142 0 R -71 0 R 0 31 R -71 0 R 142 0 R D 4032 6005 M 142 0 R -71 0 R 0 28 R
-71 0 R 142 0 R D 4241 5987 M 143 0 R -72 0 R 0 27 R -71 0 R 143 0 R D
4450 5938 M 143 0 R -71 0 R 0 28 R -72 0 R 143 0 R D 4660 5878 M 142 0 R
-71 0 R 0 33 R -71 0 R 142 0 R D 4869 5847 M 142 0 R -71 0 R 0 31 R -71 0 R
142 0 R D 5078 5814 M 142 0 R -71 0 R 0 37 R -71 0 R 142 0 R D 5287 5771 M
143 0 R -71 0 R 0 30 R -72 0 R 143 0 R D 5497 5750 M 142 0 R -71 0 R 0 31 R
-71 0 R 142 0 R D 5706 5728 M 142 0 R -71 0 R 0 32 R -71 0 R 142 0 R D
5915 5741 M 142 0 R -71 0 R 0 30 R -71 0 R 142 0 R D 6124 5708 M 143 0 R
-71 0 R 0 30 R -72 0 R 143 0 R D 6334 5655 M 142 0 R -71 0 R 0 29 R -71 0 R
142 0 R D 6543 5578 M 142 0 R -71 0 R 0 31 R -71 0 R 142 0 R D 6752 5503 M
142 0 R -71 0 R 0 31 R -71 0 R 142 0 R D 6961 5413 M 143 0 R -72 0 R 0 31 R
-71 0 R 143 0 R D 7171 5294 M 142 0 R -71 0 R 0 29 R -71 0 R 142 0 R D
7380 5131 M 142 0 R -71 0 R 0 30 R -71 0 R 142 0 R D 7589 4925 M 142 0 R
-71 0 R 0 29 R -71 0 R 142 0 R D 7798 4679 M 143 0 R -72 0 R 0 29 R -71 0 R
143 0 R D 8007 4373 M 143 0 R -71 0 R 0 22 R -72 0 R 143 0 R D 8217 4025 M
142 0 R -71 0 R 0 18 R -71 0 R 142 0 R D 8426 3601 M 142 0 R -71 0 R 0 51 R
-71 0 R 142 0 R D 8635 3106 M 142 0 R -71 0 R 0 86 R -71 0 R 142 0 R D
8844 2427 M 143 0 R -71 0 R 0 133 R -72 0 R 143 0 R D
0.761 0.000 0.000 setrgbcolor 2639 3276 M 523 300 R 523 438 R 523 41 R
523 614 R 523 704 R 523 906 R 523 709 R 523 104 R 523 -185 R 523 -549 R
523 -856 R 524 -1805 R D 2567 3101 M 143 0 R -71 0 R 0 351 R -72 0 R 143 0 R
D 3090 3148 M 143 0 R -71 0 R 0 857 R -72 0 R 143 0 R D 3614 3676 M 142 0 R
-71 0 R 0 677 R -71 0 R 142 0 R D 4137 3543 M 142 0 R -71 0 R 0 1024 R
-71 0 R 142 0 R D 4660 4207 M 142 0 R -71 0 R 0 924 R -71 0 R 142 0 R D
5183 4741 M 142 0 R -71 0 R 0 1264 R -71 0 R 142 0 R D 5706 5594 M 142 0 R
-71 0 R 0 1370 R -71 0 R 142 0 R D 6229 6802 M 142 0 R -71 0 R 0 371 R
-71 0 R 142 0 R D 6752 6944 M 142 0 R -71 0 R 0 296 R -71 0 R 142 0 R D
7275 6612 M 142 0 R -71 0 R 0 591 R -71 0 R 142 0 R D 7798 5886 M 143 0 R
-72 0 R 0 943 R -71 0 R 143 0 R D 8321 4628 M 143 0 R -72 0 R 0 1748 R
-71 0 R 143 0 R D 8844 3184 M 143 0 R -71 0 R 0 1027 R -72 0 R 143 0 R D
0.000 0.000 1.000 setrgbcolor 2639 3288 M 523 398 R 523 143 R 523 379 R
523 735 R 523 624 R 523 144 R 523 337 R 523 165 R 523 -144 R 523 -205 R
523 -834 R 524 -1190 R D 2567 3038 M 143 0 R -71 0 R 0 500 R -72 0 R 143 0 R
D 3090 3278 M 143 0 R -71 0 R 0 817 R -72 0 R 143 0 R D 3614 3447 M 142 0 R
-71 0 R 0 763 R -71 0 R 142 0 R D 4137 3542 M 142 0 R -71 0 R 0 1333 R
-71 0 R 142 0 R D 4660 3984 M 142 0 R -71 0 R 0 1918 R -71 0 R 142 0 R D
5183 4976 M 142 0 R -71 0 R 0 1183 R -71 0 R 142 0 R D 5706 5188 M 142 0 R
-71 0 R 0 1045 R -71 0 R 142 0 R D 6229 5725 M 142 0 R -71 0 R 0 647 R
-71 0 R 142 0 R D 6752 6005 M 142 0 R -71 0 R 0 416 R -71 0 R 142 0 R D
7275 5923 M 142 0 R -71 0 R 0 293 R -71 0 R 142 0 R D 7798 5704 M 143 0 R
-72 0 R 0 320 R -71 0 R 143 0 R D 8321 4701 M 143 0 R -72 0 R 0 658 R
-71 0 R 143 0 R D 8844 3639 M 143 0 R -71 0 R 0 402 R -72 0 R 143 0 R D
%%PageTrailer
end
%%PageResources: font Helvetica
%%+ font Symbol
%%+ font AvantGarde-Book
%%Trailer
%%Pages: 1
%%DocumentNeededResources: font Helvetica
%%+ font Symbol
%%+ font AvantGarde-Book
%%EOF
