%!PS-Adobe-3.0 EPSF-3.0
%%BoundingBox: 0 0 453 311
%%Title: Graphics produced by IDL
%%For: jlgan@Hserver, /home/jlgan/work/phoenix
%%Creator: IDL Version 7.1.1 (linux x86_64 m64)
%%CreationDate: Mon Jun 16 12:19:58 2014
%%DocumentData: Clean7bit
%%Requirements: color
%%LanguageLevel: 1
%%PageOrder: Ascend
%%Pages: (atend)
%%DocumentNeededResources: (atend)
%%EndComments
%%BeginProlog
%+ prolog.ps -- Prolog for IDL generated PostScript files
%+ Copyright (c) 1988-2009 ITT Visual Information Solutions. All Rights Reserved.
%v 5
/$IDL_DICT 40 dict def $IDL_DICT begin /bdef { bind def } bind def /C
{currentpoint newpath moveto} bdef /CP {currentpoint} bdef /D {currentpoint
stroke moveto} bdef /F {closepath fill} bdef /K { setgray } bdef /M {moveto}
bdef /N {rmoveto} bdef /P {lineto} bdef /R {rlineto} bdef /S {gsave show
grestore} bdef /X {currentpoint pop} bdef /Z {gsave currentpoint lineto 20
setlinewidth 1 setlinecap stroke grestore} bdef /L0 {[] 0 setdash} bdef /L1
{[40 100] 0 setdash} bdef /L2 {[200 200] 0 setdash} bdef /L3 {[200 100 50
100] 0 setdash} bdef /L4 {[300 100 50 100 50 100 50 100] 0 setdash} bdef /L5
{[400 200] 0 setdash} bdef /STDFONT { findfont exch scalefont setfont } bdef
/ISOFONT { findfont dup length dict begin { 1 index /FID ne {def} {pop pop}
ifelse } forall /Encoding ISOLatin1Encoding def currentdict end /idltmpfont
exch definefont exch scalefont setfont } bdef /ISOBULLET { gsave /Helvetica
findfont exch scalefont setfont (\267) show currentpoint grestore moveto}
bdef /MITERLIMIT { 2.5 setmiterlimit } bdef end
%%EndProlog
%%Page: 0 1
%%PageRequirements: color
%%PageResources: (atend)
%%PageOrientation: Portrait
%%PageBoundingBox: 0 0 453 311
%%BeginPageSetup
$IDL_DICT begin 0.0283465 dup scale MITERLIMIT
%%IncludeResource: font Helvetica
423.333 /Helvetica STDFONT
%%EndPageSetup
0.000 0.000 0.000 setrgbcolor gsave 8777 352 translate 0 0 M -576.368 0 N
(t / Gyr) show grestore gsave 2351 8530 translate 0 0 M 90 rotate
-220.019 0 N
(M) show X -101.051 M
%%IncludeResource: font Helvetica
262.467 /Helvetica STDFONT
(r) show grestore
%%IncludeResource: font Helvetica
423.333 /Helvetica STDFONT 30 setlinewidth L0 2220 7333 M 4371 0 R D
2938 7333 M 0 119 R D gsave 2938 6805 translate 0 0 M -58.8433 0 N
( ) show grestore 3736 7333 M 0 119 R D gsave 3736 6805 translate 0 0 M
-58.8433 0 N
( ) show grestore 4534 7333 M 0 119 R D gsave 4534 6805 translate 0 0 M
-58.8433 0 N
( ) show grestore 5332 7333 M 0 119 R D gsave 5332 6805 translate 0 0 M
-58.8433 0 N
( ) show grestore 6129 7333 M 0 119 R D gsave 6129 6805 translate 0 0 M
-58.8433 0 N
( ) show grestore 2220 7333 M 0 60 R D 2300 7333 M 0 60 R D 2380 7333 M
0 60 R D 2459 7333 M 0 60 R D 2539 7333 M 0 60 R D 2619 7333 M 0 60 R D
2699 7333 M 0 60 R D 2779 7333 M 0 60 R D 2858 7333 M 0 60 R D 3018 7333 M
0 60 R D 3098 7333 M 0 60 R D 3177 7333 M 0 60 R D 3257 7333 M 0 60 R D
3337 7333 M 0 60 R D 3417 7333 M 0 60 R D 3497 7333 M 0 60 R D 3576 7333 M
0 60 R D 3656 7333 M 0 60 R D 3816 7333 M 0 60 R D 3896 7333 M 0 60 R D
3975 7333 M 0 60 R D 4055 7333 M 0 60 R D 4135 7333 M 0 60 R D 4215 7333 M
0 60 R D 4294 7333 M 0 60 R D 4374 7333 M 0 60 R D 4454 7333 M 0 60 R D
4614 7333 M 0 60 R D 4693 7333 M 0 60 R D 4773 7333 M 0 60 R D 4853 7333 M
0 60 R D 4933 7333 M 0 60 R D 5012 7333 M 0 60 R D 5092 7333 M 0 60 R D
5172 7333 M 0 60 R D 5252 7333 M 0 60 R D 5411 7333 M 0 60 R D 5491 7333 M
0 60 R D 5571 7333 M 0 60 R D 5651 7333 M 0 60 R D 5731 7333 M 0 60 R D
5810 7333 M 0 60 R D 5890 7333 M 0 60 R D 5970 7333 M 0 60 R D 6050 7333 M
0 60 R D 6209 7333 M 0 60 R D 6289 7333 M 0 60 R D 6369 7333 M 0 60 R D
6449 7333 M 0 60 R D 6528 7333 M 0 60 R D 2220 10296 M 4371 0 R D
2938 10296 M 0 -118 R D 3736 10296 M 0 -118 R D 4534 10296 M 0 -118 R D
5332 10296 M 0 -118 R D 6129 10296 M 0 -118 R D 2220 10296 M 0 -59 R D
2300 10296 M 0 -59 R D 2380 10296 M 0 -59 R D 2459 10296 M 0 -59 R D
2539 10296 M 0 -59 R D 2619 10296 M 0 -59 R D 2699 10296 M 0 -59 R D
2779 10296 M 0 -59 R D 2858 10296 M 0 -59 R D 3018 10296 M 0 -59 R D
3098 10296 M 0 -59 R D 3177 10296 M 0 -59 R D 3257 10296 M 0 -59 R D
3337 10296 M 0 -59 R D 3417 10296 M 0 -59 R D 3497 10296 M 0 -59 R D
3576 10296 M 0 -59 R D 3656 10296 M 0 -59 R D 3816 10296 M 0 -59 R D
3896 10296 M 0 -59 R D 3975 10296 M 0 -59 R D 4055 10296 M 0 -59 R D
4135 10296 M 0 -59 R D 4215 10296 M 0 -59 R D 4294 10296 M 0 -59 R D
4374 10296 M 0 -59 R D 4454 10296 M 0 -59 R D 4614 10296 M 0 -59 R D
4693 10296 M 0 -59 R D 4773 10296 M 0 -59 R D 4853 10296 M 0 -59 R D
4933 10296 M 0 -59 R D 5012 10296 M 0 -59 R D 5092 10296 M 0 -59 R D
5172 10296 M 0 -59 R D 5252 10296 M 0 -59 R D 5411 10296 M 0 -59 R D
5491 10296 M 0 -59 R D 5571 10296 M 0 -59 R D 5651 10296 M 0 -59 R D
5731 10296 M 0 -59 R D 5810 10296 M 0 -59 R D 5890 10296 M 0 -59 R D
5970 10296 M 0 -59 R D 6050 10296 M 0 -59 R D 6209 10296 M 0 -59 R D
6289 10296 M 0 -59 R D 6369 10296 M 0 -59 R D 6449 10296 M 0 -59 R D
6528 10296 M 0 -59 R D 2220 7333 M 0 2963 R D 2220 7856 M 175 0 R D
gsave 2109 7715 translate 0 0 M -611.717 0 N
(-26) show grestore 2220 8437 M 175 0 R D gsave 2109 8296 translate 0 0 M
-611.717 0 N
(-25) show grestore 2220 9018 M 175 0 R D gsave 2109 8877 translate 0 0 M
-611.717 0 N
(-24) show grestore 2220 9599 M 175 0 R D gsave 2109 9458 translate 0 0 M
-611.717 0 N
(-23) show grestore 2220 10180 M 175 0 R D gsave 2109 10039 translate 0 0 M
-611.717 0 N
(-22) show grestore 2220 7333 M 88 0 R D 2220 7391 M 88 0 R D 2220 7450 M
88 0 R D 2220 7508 M 88 0 R D 2220 7566 M 88 0 R D 2220 7624 M 88 0 R D
2220 7682 M 88 0 R D 2220 7740 M 88 0 R D 2220 7798 M 88 0 R D 2220 7914 M
88 0 R D 2220 7972 M 88 0 R D 2220 8030 M 88 0 R D 2220 8089 M 88 0 R D
2220 8147 M 88 0 R D 2220 8205 M 88 0 R D 2220 8263 M 88 0 R D 2220 8321 M
88 0 R D 2220 8379 M 88 0 R D 2220 8495 M 88 0 R D 2220 8553 M 88 0 R D
2220 8611 M 88 0 R D 2220 8669 M 88 0 R D 2220 8728 M 88 0 R D 2220 8786 M
88 0 R D 2220 8844 M 88 0 R D 2220 8902 M 88 0 R D 2220 8960 M 88 0 R D
2220 9076 M 88 0 R D 2220 9134 M 88 0 R D 2220 9192 M 88 0 R D 2220 9250 M
88 0 R D 2220 9308 M 88 0 R D 2220 9367 M 88 0 R D 2220 9425 M 88 0 R D
2220 9483 M 88 0 R D 2220 9541 M 88 0 R D 2220 9657 M 88 0 R D 2220 9715 M
88 0 R D 2220 9773 M 88 0 R D 2220 9831 M 88 0 R D 2220 9889 M 88 0 R D
2220 9948 M 88 0 R D 2220 10006 M 88 0 R D 2220 10064 M 88 0 R D
2220 10122 M 88 0 R D 2220 10238 M 88 0 R D 2220 10296 M 88 0 R D
6591 7333 M 0 2963 R D 6591 7856 M -174 0 R D 6591 8437 M -174 0 R D
6591 9018 M -174 0 R D 6591 9599 M -174 0 R D 6591 10180 M -174 0 R D
6591 7333 M -87 0 R D 6591 7391 M -87 0 R D 6591 7450 M -87 0 R D
6591 7508 M -87 0 R D 6591 7566 M -87 0 R D 6591 7624 M -87 0 R D
6591 7682 M -87 0 R D 6591 7740 M -87 0 R D 6591 7798 M -87 0 R D
6591 7914 M -87 0 R D 6591 7972 M -87 0 R D 6591 8030 M -87 0 R D
6591 8089 M -87 0 R D 6591 8147 M -87 0 R D 6591 8205 M -87 0 R D
6591 8263 M -87 0 R D 6591 8321 M -87 0 R D 6591 8379 M -87 0 R D
6591 8495 M -87 0 R D 6591 8553 M -87 0 R D 6591 8611 M -87 0 R D
6591 8669 M -87 0 R D 6591 8728 M -87 0 R D 6591 8786 M -87 0 R D
6591 8844 M -87 0 R D 6591 8902 M -87 0 R D 6591 8960 M -87 0 R D
6591 9076 M -87 0 R D 6591 9134 M -87 0 R D 6591 9192 M -87 0 R D
6591 9250 M -87 0 R D 6591 9308 M -87 0 R D 6591 9367 M -87 0 R D
6591 9425 M -87 0 R D 6591 9483 M -87 0 R D 6591 9541 M -87 0 R D
6591 9657 M -87 0 R D 6591 9715 M -87 0 R D 6591 9773 M -87 0 R D
6591 9831 M -87 0 R D 6591 9889 M -87 0 R D 6591 9948 M -87 0 R D
6591 10006 M -87 0 R D 6591 10064 M -87 0 R D 6591 10122 M -87 0 R D
6591 10238 M -87 0 R D 6591 10296 M -87 0 R D 0.761 0.000 0.000 setrgbcolor
2220 9661 M 102 -5 R 600 -5 R 594 -18 R 580 -42 R 560 -14 R 534 -17 R
503 -17 R 468 -29 R 430 -1624 R D 0.000 0.549 0.000 setrgbcolor 2220 9943 M
102 -16 R 600 -15 R 594 -7 R 580 -46 R 560 -7 R 534 -10 R 503 -12 R
468 -48 R 430 -306 R D 0.000 0.000 1.000 setrgbcolor 2220 8151 M 102 -9 R
600 -34 R 594 -77 R 580 -19 R 560 -28 R 534 -31 R 503 -32 R 468 -16 R
430 1837 R D 0.000 0.000 0.000 setrgbcolor 6591 7333 M 4372 0 R D
7309 7333 M 0 119 R D gsave 7309 6805 translate 0 0 M -58.8433 0 N
( ) show grestore 8107 7333 M 0 119 R D gsave 8107 6805 translate 0 0 M
-58.8433 0 N
( ) show grestore 8905 7333 M 0 119 R D gsave 8905 6805 translate 0 0 M
-58.8433 0 N
( ) show grestore 9703 7333 M 0 119 R D gsave 9703 6805 translate 0 0 M
-58.8433 0 N
( ) show grestore 10501 7333 M 0 119 R D gsave 10501 6805 translate 0 0 M
-58.8433 0 N
( ) show grestore 6591 7333 M 0 60 R D 6671 7333 M 0 60 R D 6751 7333 M
0 60 R D 6831 7333 M 0 60 R D 6911 7333 M 0 60 R D 6990 7333 M 0 60 R D
7070 7333 M 0 60 R D 7150 7333 M 0 60 R D 7230 7333 M 0 60 R D 7389 7333 M
0 60 R D 7469 7333 M 0 60 R D 7549 7333 M 0 60 R D 7629 7333 M 0 60 R D
7708 7333 M 0 60 R D 7788 7333 M 0 60 R D 7868 7333 M 0 60 R D 7948 7333 M
0 60 R D 8028 7333 M 0 60 R D 8187 7333 M 0 60 R D 8267 7333 M 0 60 R D
8347 7333 M 0 60 R D 8426 7333 M 0 60 R D 8506 7333 M 0 60 R D 8586 7333 M
0 60 R D 8666 7333 M 0 60 R D 8746 7333 M 0 60 R D 8825 7333 M 0 60 R D
8985 7333 M 0 60 R D 9065 7333 M 0 60 R D 9144 7333 M 0 60 R D 9224 7333 M
0 60 R D 9304 7333 M 0 60 R D 9384 7333 M 0 60 R D 9464 7333 M 0 60 R D
9543 7333 M 0 60 R D 9623 7333 M 0 60 R D 9783 7333 M 0 60 R D 9863 7333 M
0 60 R D 9942 7333 M 0 60 R D 10022 7333 M 0 60 R D 10102 7333 M 0 60 R D
10182 7333 M 0 60 R D 10261 7333 M 0 60 R D 10341 7333 M 0 60 R D
10421 7333 M 0 60 R D 10581 7333 M 0 60 R D 10660 7333 M 0 60 R D
10740 7333 M 0 60 R D 10820 7333 M 0 60 R D 10900 7333 M 0 60 R D
6591 10296 M 4372 0 R D 7309 10296 M 0 -118 R D 8107 10296 M 0 -118 R D
8905 10296 M 0 -118 R D 9703 10296 M 0 -118 R D 10501 10296 M 0 -118 R D
6591 10296 M 0 -59 R D 6671 10296 M 0 -59 R D 6751 10296 M 0 -59 R D
6831 10296 M 0 -59 R D 6911 10296 M 0 -59 R D 6990 10296 M 0 -59 R D
7070 10296 M 0 -59 R D 7150 10296 M 0 -59 R D 7230 10296 M 0 -59 R D
7389 10296 M 0 -59 R D 7469 10296 M 0 -59 R D 7549 10296 M 0 -59 R D
7629 10296 M 0 -59 R D 7708 10296 M 0 -59 R D 7788 10296 M 0 -59 R D
7868 10296 M 0 -59 R D 7948 10296 M 0 -59 R D 8028 10296 M 0 -59 R D
8187 10296 M 0 -59 R D 8267 10296 M 0 -59 R D 8347 10296 M 0 -59 R D
8426 10296 M 0 -59 R D 8506 10296 M 0 -59 R D 8586 10296 M 0 -59 R D
8666 10296 M 0 -59 R D 8746 10296 M 0 -59 R D 8825 10296 M 0 -59 R D
8985 10296 M 0 -59 R D 9065 10296 M 0 -59 R D 9144 10296 M 0 -59 R D
9224 10296 M 0 -59 R D 9304 10296 M 0 -59 R D 9384 10296 M 0 -59 R D
9464 10296 M 0 -59 R D 9543 10296 M 0 -59 R D 9623 10296 M 0 -59 R D
9783 10296 M 0 -59 R D 9863 10296 M 0 -59 R D 9942 10296 M 0 -59 R D
10022 10296 M 0 -59 R D 10102 10296 M 0 -59 R D 10182 10296 M 0 -59 R D
10261 10296 M 0 -59 R D 10341 10296 M 0 -59 R D 10421 10296 M 0 -59 R D
10581 10296 M 0 -59 R D 10660 10296 M 0 -59 R D 10740 10296 M 0 -59 R D
10820 10296 M 0 -59 R D 10900 10296 M 0 -59 R D 6591 7333 M 0 2963 R D
6591 7856 M 175 0 R D gsave 6480 7715 translate 0 0 M -117.687 0 N
( ) show grestore 6591 8437 M 175 0 R D gsave 6480 8296 translate 0 0 M
-117.687 0 N
( ) show grestore 6591 9018 M 175 0 R D gsave 6480 8877 translate 0 0 M
-117.687 0 N
( ) show grestore 6591 9599 M 175 0 R D gsave 6480 9458 translate 0 0 M
-117.687 0 N
( ) show grestore 6591 10180 M 175 0 R D gsave 6480 10039 translate 0 0 M
-117.687 0 N
( ) show grestore 6591 7333 M 88 0 R D 6591 7391 M 88 0 R D 6591 7450 M
88 0 R D 6591 7508 M 88 0 R D 6591 7566 M 88 0 R D 6591 7624 M 88 0 R D
6591 7682 M 88 0 R D 6591 7740 M 88 0 R D 6591 7798 M 88 0 R D 6591 7914 M
88 0 R D 6591 7972 M 88 0 R D 6591 8030 M 88 0 R D 6591 8089 M 88 0 R D
6591 8147 M 88 0 R D 6591 8205 M 88 0 R D 6591 8263 M 88 0 R D 6591 8321 M
88 0 R D 6591 8379 M 88 0 R D 6591 8495 M 88 0 R D 6591 8553 M 88 0 R D
6591 8611 M 88 0 R D 6591 8669 M 88 0 R D 6591 8728 M 88 0 R D 6591 8786 M
88 0 R D 6591 8844 M 88 0 R D 6591 8902 M 88 0 R D 6591 8960 M 88 0 R D
6591 9076 M 88 0 R D 6591 9134 M 88 0 R D 6591 9192 M 88 0 R D 6591 9250 M
88 0 R D 6591 9308 M 88 0 R D 6591 9367 M 88 0 R D 6591 9425 M 88 0 R D
6591 9483 M 88 0 R D 6591 9541 M 88 0 R D 6591 9657 M 88 0 R D 6591 9715 M
88 0 R D 6591 9773 M 88 0 R D 6591 9831 M 88 0 R D 6591 9889 M 88 0 R D
6591 9948 M 88 0 R D 6591 10006 M 88 0 R D 6591 10064 M 88 0 R D
6591 10122 M 88 0 R D 6591 10238 M 88 0 R D 6591 10296 M 88 0 R D
10963 7333 M 0 2963 R D 10963 7856 M -175 0 R D 10963 8437 M -175 0 R D
10963 9018 M -175 0 R D 10963 9599 M -175 0 R D 10963 10180 M -175 0 R D
10963 7333 M -88 0 R D 10963 7391 M -88 0 R D 10963 7450 M -88 0 R D
10963 7508 M -88 0 R D 10963 7566 M -88 0 R D 10963 7624 M -88 0 R D
10963 7682 M -88 0 R D 10963 7740 M -88 0 R D 10963 7798 M -88 0 R D
10963 7914 M -88 0 R D 10963 7972 M -88 0 R D 10963 8030 M -88 0 R D
10963 8089 M -88 0 R D 10963 8147 M -88 0 R D 10963 8205 M -88 0 R D
10963 8263 M -88 0 R D 10963 8321 M -88 0 R D 10963 8379 M -88 0 R D
10963 8495 M -88 0 R D 10963 8553 M -88 0 R D 10963 8611 M -88 0 R D
10963 8669 M -88 0 R D 10963 8728 M -88 0 R D 10963 8786 M -88 0 R D
10963 8844 M -88 0 R D 10963 8902 M -88 0 R D 10963 8960 M -88 0 R D
10963 9076 M -88 0 R D 10963 9134 M -88 0 R D 10963 9192 M -88 0 R D
10963 9250 M -88 0 R D 10963 9308 M -88 0 R D 10963 9367 M -88 0 R D
10963 9425 M -88 0 R D 10963 9483 M -88 0 R D 10963 9541 M -88 0 R D
10963 9657 M -88 0 R D 10963 9715 M -88 0 R D 10963 9773 M -88 0 R D
10963 9831 M -88 0 R D 10963 9889 M -88 0 R D 10963 9948 M -88 0 R D
10963 10006 M -88 0 R D 10963 10064 M -88 0 R D 10963 10122 M -88 0 R D
10963 10238 M -88 0 R D 10963 10296 M -88 0 R D
0.761 0.000 0.000 setrgbcolor 6591 9715 M 102 -2 R 601 -41 R 593 -8 R
580 -22 R 560 -10 R 534 -42 R 503 -15 R 469 -18 R 429 -1354 R D
0.000 0.549 0.000 setrgbcolor 6591 9394 M 102 -4 R 601 -101 R 593 -8 R
580 -34 R 560 -16 R 534 -98 R 503 -27 R 469 -22 R 429 -33 R D
0.000 0.000 1.000 setrgbcolor 6591 8536 M 102 -81 R 601 -73 R 593 -45 R
580 -34 R 560 -44 R 534 -8 R 503 -20 R 469 -14 R 429 1282 R D
0.000 0.000 0.000 setrgbcolor 10963 7333 M 4371 0 R D 11681 7333 M 0 119 R D
gsave 11681 6805 translate 0 0 M -58.8433 0 N
( ) show grestore 12479 7333 M 0 119 R D gsave 12479 6805 translate 0 0 M
-58.8433 0 N
( ) show grestore 13276 7333 M 0 119 R D gsave 13276 6805 translate 0 0 M
-58.8433 0 N
( ) show grestore 14074 7333 M 0 119 R D gsave 14074 6805 translate 0 0 M
-58.8433 0 N
( ) show grestore 14872 7333 M 0 119 R D gsave 14872 6805 translate 0 0 M
-58.8433 0 N
( ) show grestore 10963 7333 M 0 60 R D 11043 7333 M 0 60 R D 11122 7333 M
0 60 R D 11202 7333 M 0 60 R D 11282 7333 M 0 60 R D 11362 7333 M 0 60 R D
11441 7333 M 0 60 R D 11521 7333 M 0 60 R D 11601 7333 M 0 60 R D
11761 7333 M 0 60 R D 11840 7333 M 0 60 R D 11920 7333 M 0 60 R D
12000 7333 M 0 60 R D 12080 7333 M 0 60 R D 12159 7333 M 0 60 R D
12239 7333 M 0 60 R D 12319 7333 M 0 60 R D 12399 7333 M 0 60 R D
12558 7333 M 0 60 R D 12638 7333 M 0 60 R D 12718 7333 M 0 60 R D
12798 7333 M 0 60 R D 12878 7333 M 0 60 R D 12957 7333 M 0 60 R D
13037 7333 M 0 60 R D 13117 7333 M 0 60 R D 13197 7333 M 0 60 R D
13356 7333 M 0 60 R D 13436 7333 M 0 60 R D 13516 7333 M 0 60 R D
13596 7333 M 0 60 R D 13675 7333 M 0 60 R D 13755 7333 M 0 60 R D
13835 7333 M 0 60 R D 13915 7333 M 0 60 R D 13995 7333 M 0 60 R D
14154 7333 M 0 60 R D 14234 7333 M 0 60 R D 14314 7333 M 0 60 R D
14393 7333 M 0 60 R D 14473 7333 M 0 60 R D 14553 7333 M 0 60 R D
14633 7333 M 0 60 R D 14713 7333 M 0 60 R D 14792 7333 M 0 60 R D
14952 7333 M 0 60 R D 15032 7333 M 0 60 R D 15111 7333 M 0 60 R D
15191 7333 M 0 60 R D 15271 7333 M 0 60 R D 10963 10296 M 4371 0 R D
11681 10296 M 0 -118 R D 12479 10296 M 0 -118 R D 13276 10296 M 0 -118 R D
14074 10296 M 0 -118 R D 14872 10296 M 0 -118 R D 10963 10296 M 0 -59 R D
11043 10296 M 0 -59 R D 11122 10296 M 0 -59 R D 11202 10296 M 0 -59 R D
11282 10296 M 0 -59 R D 11362 10296 M 0 -59 R D 11441 10296 M 0 -59 R D
11521 10296 M 0 -59 R D 11601 10296 M 0 -59 R D 11761 10296 M 0 -59 R D
11840 10296 M 0 -59 R D 11920 10296 M 0 -59 R D 12000 10296 M 0 -59 R D
12080 10296 M 0 -59 R D 12159 10296 M 0 -59 R D 12239 10296 M 0 -59 R D
12319 10296 M 0 -59 R D 12399 10296 M 0 -59 R D 12558 10296 M 0 -59 R D
12638 10296 M 0 -59 R D 12718 10296 M 0 -59 R D 12798 10296 M 0 -59 R D
12878 10296 M 0 -59 R D 12957 10296 M 0 -59 R D 13037 10296 M 0 -59 R D
13117 10296 M 0 -59 R D 13197 10296 M 0 -59 R D 13356 10296 M 0 -59 R D
13436 10296 M 0 -59 R D 13516 10296 M 0 -59 R D 13596 10296 M 0 -59 R D
13675 10296 M 0 -59 R D 13755 10296 M 0 -59 R D 13835 10296 M 0 -59 R D
13915 10296 M 0 -59 R D 13995 10296 M 0 -59 R D 14154 10296 M 0 -59 R D
14234 10296 M 0 -59 R D 14314 10296 M 0 -59 R D 14393 10296 M 0 -59 R D
14473 10296 M 0 -59 R D 14553 10296 M 0 -59 R D 14633 10296 M 0 -59 R D
14713 10296 M 0 -59 R D 14792 10296 M 0 -59 R D 14952 10296 M 0 -59 R D
15032 10296 M 0 -59 R D 15111 10296 M 0 -59 R D 15191 10296 M 0 -59 R D
15271 10296 M 0 -59 R D 10963 7333 M 0 2963 R D 10963 7856 M 175 0 R D
gsave 10852 7715 translate 0 0 M -117.687 0 N
( ) show grestore 10963 8437 M 175 0 R D gsave 10852 8296 translate 0 0 M
-117.687 0 N
( ) show grestore 10963 9018 M 175 0 R D gsave 10852 8877 translate 0 0 M
-117.687 0 N
( ) show grestore 10963 9599 M 175 0 R D gsave 10852 9458 translate 0 0 M
-117.687 0 N
( ) show grestore 10963 10180 M 175 0 R D gsave 10852 10039 translate 0 0 M
-117.687 0 N
( ) show grestore 10963 7333 M 87 0 R D 10963 7391 M 87 0 R D 10963 7450 M
87 0 R D 10963 7508 M 87 0 R D 10963 7566 M 87 0 R D 10963 7624 M 87 0 R D
10963 7682 M 87 0 R D 10963 7740 M 87 0 R D 10963 7798 M 87 0 R D
10963 7914 M 87 0 R D 10963 7972 M 87 0 R D 10963 8030 M 87 0 R D
10963 8089 M 87 0 R D 10963 8147 M 87 0 R D 10963 8205 M 87 0 R D
10963 8263 M 87 0 R D 10963 8321 M 87 0 R D 10963 8379 M 87 0 R D
10963 8495 M 87 0 R D 10963 8553 M 87 0 R D 10963 8611 M 87 0 R D
10963 8669 M 87 0 R D 10963 8728 M 87 0 R D 10963 8786 M 87 0 R D
10963 8844 M 87 0 R D 10963 8902 M 87 0 R D 10963 8960 M 87 0 R D
10963 9076 M 87 0 R D 10963 9134 M 87 0 R D 10963 9192 M 87 0 R D
10963 9250 M 87 0 R D 10963 9308 M 87 0 R D 10963 9367 M 87 0 R D
10963 9425 M 87 0 R D 10963 9483 M 87 0 R D 10963 9541 M 87 0 R D
10963 9657 M 87 0 R D 10963 9715 M 87 0 R D 10963 9773 M 87 0 R D
10963 9831 M 87 0 R D 10963 9889 M 87 0 R D 10963 9948 M 87 0 R D
10963 10006 M 87 0 R D 10963 10064 M 87 0 R D 10963 10122 M 87 0 R D
10963 10238 M 87 0 R D 10963 10296 M 87 0 R D 15334 7333 M 0 2963 R D
15334 7856 M -175 0 R D 15334 8437 M -175 0 R D 15334 9018 M -175 0 R D
15334 9599 M -175 0 R D 15334 10180 M -175 0 R D 15334 7333 M -87 0 R D
15334 7391 M -87 0 R D 15334 7450 M -87 0 R D 15334 7508 M -87 0 R D
15334 7566 M -87 0 R D 15334 7624 M -87 0 R D 15334 7682 M -87 0 R D
15334 7740 M -87 0 R D 15334 7798 M -87 0 R D 15334 7914 M -87 0 R D
15334 7972 M -87 0 R D 15334 8030 M -87 0 R D 15334 8089 M -87 0 R D
15334 8147 M -87 0 R D 15334 8205 M -87 0 R D 15334 8263 M -87 0 R D
15334 8321 M -87 0 R D 15334 8379 M -87 0 R D 15334 8495 M -87 0 R D
15334 8553 M -87 0 R D 15334 8611 M -87 0 R D 15334 8669 M -87 0 R D
15334 8728 M -87 0 R D 15334 8786 M -87 0 R D 15334 8844 M -87 0 R D
15334 8902 M -87 0 R D 15334 8960 M -87 0 R D 15334 9076 M -87 0 R D
15334 9134 M -87 0 R D 15334 9192 M -87 0 R D 15334 9250 M -87 0 R D
15334 9308 M -87 0 R D 15334 9367 M -87 0 R D 15334 9425 M -87 0 R D
15334 9483 M -87 0 R D 15334 9541 M -87 0 R D 15334 9657 M -87 0 R D
15334 9715 M -87 0 R D 15334 9773 M -87 0 R D 15334 9831 M -87 0 R D
15334 9889 M -87 0 R D 15334 9948 M -87 0 R D 15334 10006 M -87 0 R D
15334 10064 M -87 0 R D 15334 10122 M -87 0 R D 15334 10238 M -87 0 R D
15334 10296 M -87 0 R D 0.761 0.000 0.000 setrgbcolor 10962 9446 M 103 -9 R
600 -62 R 594 -55 R 580 -51 R 559 -7 R 534 -27 R 504 -22 R 468 -13 R
430 -1037 R D 0.000 0.549 0.000 setrgbcolor 10962 9791 M 103 -12 R 600 -6 R
594 -7 R 580 -8 R 559 -9 R 534 -11 R 504 -15 R 468 -19 R 430 -593 R D
0.000 0.000 1.000 setrgbcolor 10962 8792 M 103 -11 R 600 -132 R 594 -357 R
580 -26 R 559 -20 R 534 -17 R 504 -24 R 468 -6 R 430 1453 R D
0.000 0.000 0.000 setrgbcolor gsave 4508 23269 translate 0 0 M 90 rotate
-424.349 0 N
(M) show X -101.051 M
%%IncludeResource: font Helvetica
262.467 /Helvetica STDFONT
(halo) show grestore
%%IncludeResource: font Helvetica
423.333 /Helvetica STDFONT 2220 4371 M 4371 0 R D 2938 4371 M 0 118 R D
gsave 2938 3843 translate 0 0 M -58.8433 0 N
( ) show grestore 3736 4371 M 0 118 R D gsave 3736 3843 translate 0 0 M
-58.8433 0 N
( ) show grestore 4534 4371 M 0 118 R D gsave 4534 3843 translate 0 0 M
-58.8433 0 N
( ) show grestore 5332 4371 M 0 118 R D gsave 5332 3843 translate 0 0 M
-58.8433 0 N
( ) show grestore 6129 4371 M 0 118 R D gsave 6129 3843 translate 0 0 M
-58.8433 0 N
( ) show grestore 2220 4371 M 0 59 R D 2300 4371 M 0 59 R D 2380 4371 M
0 59 R D 2459 4371 M 0 59 R D 2539 4371 M 0 59 R D 2619 4371 M 0 59 R D
2699 4371 M 0 59 R D 2779 4371 M 0 59 R D 2858 4371 M 0 59 R D 3018 4371 M
0 59 R D 3098 4371 M 0 59 R D 3177 4371 M 0 59 R D 3257 4371 M 0 59 R D
3337 4371 M 0 59 R D 3417 4371 M 0 59 R D 3497 4371 M 0 59 R D 3576 4371 M
0 59 R D 3656 4371 M 0 59 R D 3816 4371 M 0 59 R D 3896 4371 M 0 59 R D
3975 4371 M 0 59 R D 4055 4371 M 0 59 R D 4135 4371 M 0 59 R D 4215 4371 M
0 59 R D 4294 4371 M 0 59 R D 4374 4371 M 0 59 R D 4454 4371 M 0 59 R D
4614 4371 M 0 59 R D 4693 4371 M 0 59 R D 4773 4371 M 0 59 R D 4853 4371 M
0 59 R D 4933 4371 M 0 59 R D 5012 4371 M 0 59 R D 5092 4371 M 0 59 R D
5172 4371 M 0 59 R D 5252 4371 M 0 59 R D 5411 4371 M 0 59 R D 5491 4371 M
0 59 R D 5571 4371 M 0 59 R D 5651 4371 M 0 59 R D 5731 4371 M 0 59 R D
5810 4371 M 0 59 R D 5890 4371 M 0 59 R D 5970 4371 M 0 59 R D 6050 4371 M
0 59 R D 6209 4371 M 0 59 R D 6289 4371 M 0 59 R D 6369 4371 M 0 59 R D
6449 4371 M 0 59 R D 6528 4371 M 0 59 R D 2220 7333 M 4371 0 R D 2938 7333 M
0 -118 R D 3736 7333 M 0 -118 R D 4534 7333 M 0 -118 R D 5332 7333 M
0 -118 R D 6129 7333 M 0 -118 R D 2220 7333 M 0 -59 R D 2300 7333 M 0 -59 R
D 2380 7333 M 0 -59 R D 2459 7333 M 0 -59 R D 2539 7333 M 0 -59 R D
2619 7333 M 0 -59 R D 2699 7333 M 0 -59 R D 2779 7333 M 0 -59 R D
2858 7333 M 0 -59 R D 3018 7333 M 0 -59 R D 3098 7333 M 0 -59 R D
3177 7333 M 0 -59 R D 3257 7333 M 0 -59 R D 3337 7333 M 0 -59 R D
3417 7333 M 0 -59 R D 3497 7333 M 0 -59 R D 3576 7333 M 0 -59 R D
3656 7333 M 0 -59 R D 3816 7333 M 0 -59 R D 3896 7333 M 0 -59 R D
3975 7333 M 0 -59 R D 4055 7333 M 0 -59 R D 4135 7333 M 0 -59 R D
4215 7333 M 0 -59 R D 4294 7333 M 0 -59 R D 4374 7333 M 0 -59 R D
4454 7333 M 0 -59 R D 4614 7333 M 0 -59 R D 4693 7333 M 0 -59 R D
4773 7333 M 0 -59 R D 4853 7333 M 0 -59 R D 4933 7333 M 0 -59 R D
5012 7333 M 0 -59 R D 5092 7333 M 0 -59 R D 5172 7333 M 0 -59 R D
5252 7333 M 0 -59 R D 5411 7333 M 0 -59 R D 5491 7333 M 0 -59 R D
5571 7333 M 0 -59 R D 5651 7333 M 0 -59 R D 5731 7333 M 0 -59 R D
5810 7333 M 0 -59 R D 5890 7333 M 0 -59 R D 5970 7333 M 0 -59 R D
6050 7333 M 0 -59 R D 6209 7333 M 0 -59 R D 6289 7333 M 0 -59 R D
6369 7333 M 0 -59 R D 6449 7333 M 0 -59 R D 6528 7333 M 0 -59 R D
2220 4371 M 0 2962 R D 2220 4887 M 175 0 R D gsave 2109 4746 translate 0 0 M
-588.433 0 N
(0.2) show grestore 2220 5431 M 175 0 R D gsave 2109 5290 translate 0 0 M
-588.433 0 N
(0.4) show grestore 2220 5974 M 175 0 R D gsave 2109 5834 translate 0 0 M
-588.433 0 N
(0.6) show grestore 2220 6518 M 175 0 R D gsave 2109 6377 translate 0 0 M
-588.433 0 N
(0.8) show grestore 2220 7062 M 175 0 R D gsave 2109 6921 translate 0 0 M
-588.433 0 N
(1.0) show grestore 2220 4479 M 88 0 R D 2220 4615 M 88 0 R D 2220 4751 M
88 0 R D 2220 5023 M 88 0 R D 2220 5159 M 88 0 R D 2220 5295 M 88 0 R D
2220 5567 M 88 0 R D 2220 5703 M 88 0 R D 2220 5838 M 88 0 R D 2220 6110 M
88 0 R D 2220 6246 M 88 0 R D 2220 6382 M 88 0 R D 2220 6654 M 88 0 R D
2220 6790 M 88 0 R D 2220 6926 M 88 0 R D 2220 7197 M 88 0 R D 2220 7333 M
88 0 R D 6591 4371 M 0 2962 R D 6591 4887 M -174 0 R D 6591 5431 M -174 0 R
D 6591 5974 M -174 0 R D 6591 6518 M -174 0 R D 6591 7062 M -174 0 R D
6591 4479 M -87 0 R D 6591 4615 M -87 0 R D 6591 4751 M -87 0 R D
6591 5023 M -87 0 R D 6591 5159 M -87 0 R D 6591 5295 M -87 0 R D
6591 5567 M -87 0 R D 6591 5703 M -87 0 R D 6591 5838 M -87 0 R D
6591 6110 M -87 0 R D 6591 6246 M -87 0 R D 6591 6382 M -87 0 R D
6591 6654 M -87 0 R D 6591 6790 M -87 0 R D 6591 6926 M -87 0 R D
6591 7197 M -87 0 R D 6591 7333 M -87 0 R D 0.761 0.000 0.000 setrgbcolor
2220 4443 M 102 3 R 600 1 R 594 -2 R 580 3 R 560 2 R 534 3 R 503 0 R 468 0 R
430 2609 R D 0.000 0.549 0.000 setrgbcolor 2220 5288 M 102 9 R 600 91 R
594 -10 R 580 0 R 560 0 R 534 0 R 503 0 R 468 0 R 430 1684 R D
0.000 0.000 1.000 setrgbcolor 2220 6357 M 102 8 R 600 43 R 594 65 R
580 116 R 560 105 R 534 118 R 503 135 R 468 115 R 430 -2675 R D
0.000 0.000 0.000 setrgbcolor 6591 4371 M 4372 0 R D 7309 4371 M 0 118 R D
gsave 7309 3843 translate 0 0 M -58.8433 0 N
( ) show grestore 8107 4371 M 0 118 R D gsave 8107 3843 translate 0 0 M
-58.8433 0 N
( ) show grestore 8905 4371 M 0 118 R D gsave 8905 3843 translate 0 0 M
-58.8433 0 N
( ) show grestore 9703 4371 M 0 118 R D gsave 9703 3843 translate 0 0 M
-58.8433 0 N
( ) show grestore 10501 4371 M 0 118 R D gsave 10501 3843 translate 0 0 M
-58.8433 0 N
( ) show grestore 6591 4371 M 0 59 R D 6671 4371 M 0 59 R D 6751 4371 M
0 59 R D 6831 4371 M 0 59 R D 6911 4371 M 0 59 R D 6990 4371 M 0 59 R D
7070 4371 M 0 59 R D 7150 4371 M 0 59 R D 7230 4371 M 0 59 R D 7389 4371 M
0 59 R D 7469 4371 M 0 59 R D 7549 4371 M 0 59 R D 7629 4371 M 0 59 R D
7708 4371 M 0 59 R D 7788 4371 M 0 59 R D 7868 4371 M 0 59 R D 7948 4371 M
0 59 R D 8028 4371 M 0 59 R D 8187 4371 M 0 59 R D 8267 4371 M 0 59 R D
8347 4371 M 0 59 R D 8426 4371 M 0 59 R D 8506 4371 M 0 59 R D 8586 4371 M
0 59 R D 8666 4371 M 0 59 R D 8746 4371 M 0 59 R D 8825 4371 M 0 59 R D
8985 4371 M 0 59 R D 9065 4371 M 0 59 R D 9144 4371 M 0 59 R D 9224 4371 M
0 59 R D 9304 4371 M 0 59 R D 9384 4371 M 0 59 R D 9464 4371 M 0 59 R D
9543 4371 M 0 59 R D 9623 4371 M 0 59 R D 9783 4371 M 0 59 R D 9863 4371 M
0 59 R D 9942 4371 M 0 59 R D 10022 4371 M 0 59 R D 10102 4371 M 0 59 R D
10182 4371 M 0 59 R D 10261 4371 M 0 59 R D 10341 4371 M 0 59 R D
10421 4371 M 0 59 R D 10581 4371 M 0 59 R D 10660 4371 M 0 59 R D
10740 4371 M 0 59 R D 10820 4371 M 0 59 R D 10900 4371 M 0 59 R D
6591 7333 M 4372 0 R D 7309 7333 M 0 -118 R D 8107 7333 M 0 -118 R D
8905 7333 M 0 -118 R D 9703 7333 M 0 -118 R D 10501 7333 M 0 -118 R D
6591 7333 M 0 -59 R D 6671 7333 M 0 -59 R D 6751 7333 M 0 -59 R D
6831 7333 M 0 -59 R D 6911 7333 M 0 -59 R D 6990 7333 M 0 -59 R D
7070 7333 M 0 -59 R D 7150 7333 M 0 -59 R D 7230 7333 M 0 -59 R D
7389 7333 M 0 -59 R D 7469 7333 M 0 -59 R D 7549 7333 M 0 -59 R D
7629 7333 M 0 -59 R D 7708 7333 M 0 -59 R D 7788 7333 M 0 -59 R D
7868 7333 M 0 -59 R D 7948 7333 M 0 -59 R D 8028 7333 M 0 -59 R D
8187 7333 M 0 -59 R D 8267 7333 M 0 -59 R D 8347 7333 M 0 -59 R D
8426 7333 M 0 -59 R D 8506 7333 M 0 -59 R D 8586 7333 M 0 -59 R D
8666 7333 M 0 -59 R D 8746 7333 M 0 -59 R D 8825 7333 M 0 -59 R D
8985 7333 M 0 -59 R D 9065 7333 M 0 -59 R D 9144 7333 M 0 -59 R D
9224 7333 M 0 -59 R D 9304 7333 M 0 -59 R D 9384 7333 M 0 -59 R D
9464 7333 M 0 -59 R D 9543 7333 M 0 -59 R D 9623 7333 M 0 -59 R D
9783 7333 M 0 -59 R D 9863 7333 M 0 -59 R D 9942 7333 M 0 -59 R D
10022 7333 M 0 -59 R D 10102 7333 M 0 -59 R D 10182 7333 M 0 -59 R D
10261 7333 M 0 -59 R D 10341 7333 M 0 -59 R D 10421 7333 M 0 -59 R D
10581 7333 M 0 -59 R D 10660 7333 M 0 -59 R D 10740 7333 M 0 -59 R D
10820 7333 M 0 -59 R D 10900 7333 M 0 -59 R D 6591 4371 M 0 2962 R D
6591 4887 M 175 0 R D gsave 6480 4746 translate 0 0 M -117.687 0 N
( ) show grestore 6591 5431 M 175 0 R D gsave 6480 5290 translate 0 0 M
-117.687 0 N
( ) show grestore 6591 5974 M 175 0 R D gsave 6480 5834 translate 0 0 M
-117.687 0 N
( ) show grestore 6591 6518 M 175 0 R D gsave 6480 6377 translate 0 0 M
-117.687 0 N
( ) show grestore 6591 7062 M 175 0 R D gsave 6480 6921 translate 0 0 M
-117.687 0 N
( ) show grestore 6591 4479 M 88 0 R D 6591 4615 M 88 0 R D 6591 4751 M
88 0 R D 6591 5023 M 88 0 R D 6591 5159 M 88 0 R D 6591 5295 M 88 0 R D
6591 5567 M 88 0 R D 6591 5703 M 88 0 R D 6591 5838 M 88 0 R D 6591 6110 M
88 0 R D 6591 6246 M 88 0 R D 6591 6382 M 88 0 R D 6591 6654 M 88 0 R D
6591 6790 M 88 0 R D 6591 6926 M 88 0 R D 6591 7197 M 88 0 R D 6591 7333 M
88 0 R D 10963 4371 M 0 2962 R D 10963 4887 M -175 0 R D 10963 5431 M
-175 0 R D 10963 5974 M -175 0 R D 10963 6518 M -175 0 R D 10963 7062 M
-175 0 R D 10963 4479 M -88 0 R D 10963 4615 M -88 0 R D 10963 4751 M
-88 0 R D 10963 5023 M -88 0 R D 10963 5159 M -88 0 R D 10963 5295 M -88 0 R
D 10963 5567 M -88 0 R D 10963 5703 M -88 0 R D 10963 5838 M -88 0 R D
10963 6110 M -88 0 R D 10963 6246 M -88 0 R D 10963 6382 M -88 0 R D
10963 6654 M -88 0 R D 10963 6790 M -88 0 R D 10963 6926 M -88 0 R D
10963 7197 M -88 0 R D 10963 7333 M -88 0 R D 0.761 0.000 0.000 setrgbcolor
6591 4478 M 102 4 R 601 22 R 593 29 R 580 31 R 560 33 R 534 20 R 503 3 R
469 28 R 429 2408 R D 0.000 0.549 0.000 setrgbcolor 6591 5730 M 102 12 R
601 137 R 593 138 R 580 374 R 560 111 R 534 133 R 503 83 R 469 218 R
429 125 R D 0.000 0.000 1.000 setrgbcolor 6591 5970 M 102 86 R 601 234 R
593 117 R 580 117 R 560 49 R 534 161 R 503 115 R 469 213 R 429 -2372 R D
0.000 0.000 0.000 setrgbcolor 10963 4371 M 4371 0 R D 11681 4371 M 0 118 R D
gsave 11681 3843 translate 0 0 M -58.8433 0 N
( ) show grestore 12479 4371 M 0 118 R D gsave 12479 3843 translate 0 0 M
-58.8433 0 N
( ) show grestore 13276 4371 M 0 118 R D gsave 13276 3843 translate 0 0 M
-58.8433 0 N
( ) show grestore 14074 4371 M 0 118 R D gsave 14074 3843 translate 0 0 M
-58.8433 0 N
( ) show grestore 14872 4371 M 0 118 R D gsave 14872 3843 translate 0 0 M
-58.8433 0 N
( ) show grestore 10963 4371 M 0 59 R D 11043 4371 M 0 59 R D 11122 4371 M
0 59 R D 11202 4371 M 0 59 R D 11282 4371 M 0 59 R D 11362 4371 M 0 59 R D
11441 4371 M 0 59 R D 11521 4371 M 0 59 R D 11601 4371 M 0 59 R D
11761 4371 M 0 59 R D 11840 4371 M 0 59 R D 11920 4371 M 0 59 R D
12000 4371 M 0 59 R D 12080 4371 M 0 59 R D 12159 4371 M 0 59 R D
12239 4371 M 0 59 R D 12319 4371 M 0 59 R D 12399 4371 M 0 59 R D
12558 4371 M 0 59 R D 12638 4371 M 0 59 R D 12718 4371 M 0 59 R D
12798 4371 M 0 59 R D 12878 4371 M 0 59 R D 12957 4371 M 0 59 R D
13037 4371 M 0 59 R D 13117 4371 M 0 59 R D 13197 4371 M 0 59 R D
13356 4371 M 0 59 R D 13436 4371 M 0 59 R D 13516 4371 M 0 59 R D
13596 4371 M 0 59 R D 13675 4371 M 0 59 R D 13755 4371 M 0 59 R D
13835 4371 M 0 59 R D 13915 4371 M 0 59 R D 13995 4371 M 0 59 R D
14154 4371 M 0 59 R D 14234 4371 M 0 59 R D 14314 4371 M 0 59 R D
14393 4371 M 0 59 R D 14473 4371 M 0 59 R D 14553 4371 M 0 59 R D
14633 4371 M 0 59 R D 14713 4371 M 0 59 R D 14792 4371 M 0 59 R D
14952 4371 M 0 59 R D 15032 4371 M 0 59 R D 15111 4371 M 0 59 R D
15191 4371 M 0 59 R D 15271 4371 M 0 59 R D 10963 7333 M 4371 0 R D
11681 7333 M 0 -118 R D 12479 7333 M 0 -118 R D 13276 7333 M 0 -118 R D
14074 7333 M 0 -118 R D 14872 7333 M 0 -118 R D 10963 7333 M 0 -59 R D
11043 7333 M 0 -59 R D 11122 7333 M 0 -59 R D 11202 7333 M 0 -59 R D
11282 7333 M 0 -59 R D 11362 7333 M 0 -59 R D 11441 7333 M 0 -59 R D
11521 7333 M 0 -59 R D 11601 7333 M 0 -59 R D 11761 7333 M 0 -59 R D
11840 7333 M 0 -59 R D 11920 7333 M 0 -59 R D 12000 7333 M 0 -59 R D
12080 7333 M 0 -59 R D 12159 7333 M 0 -59 R D 12239 7333 M 0 -59 R D
12319 7333 M 0 -59 R D 12399 7333 M 0 -59 R D 12558 7333 M 0 -59 R D
12638 7333 M 0 -59 R D 12718 7333 M 0 -59 R D 12798 7333 M 0 -59 R D
12878 7333 M 0 -59 R D 12957 7333 M 0 -59 R D 13037 7333 M 0 -59 R D
13117 7333 M 0 -59 R D 13197 7333 M 0 -59 R D 13356 7333 M 0 -59 R D
13436 7333 M 0 -59 R D 13516 7333 M 0 -59 R D 13596 7333 M 0 -59 R D
13675 7333 M 0 -59 R D 13755 7333 M 0 -59 R D 13835 7333 M 0 -59 R D
13915 7333 M 0 -59 R D 13995 7333 M 0 -59 R D 14154 7333 M 0 -59 R D
14234 7333 M 0 -59 R D 14314 7333 M 0 -59 R D 14393 7333 M 0 -59 R D
14473 7333 M 0 -59 R D 14553 7333 M 0 -59 R D 14633 7333 M 0 -59 R D
14713 7333 M 0 -59 R D 14792 7333 M 0 -59 R D 14952 7333 M 0 -59 R D
15032 7333 M 0 -59 R D 15111 7333 M 0 -59 R D 15191 7333 M 0 -59 R D
15271 7333 M 0 -59 R D 10963 4371 M 0 2962 R D 10963 4887 M 175 0 R D
gsave 10852 4746 translate 0 0 M -117.687 0 N
( ) show grestore 10963 5431 M 175 0 R D gsave 10852 5290 translate 0 0 M
-117.687 0 N
( ) show grestore 10963 5974 M 175 0 R D gsave 10852 5834 translate 0 0 M
-117.687 0 N
( ) show grestore 10963 6518 M 175 0 R D gsave 10852 6377 translate 0 0 M
-117.687 0 N
( ) show grestore 10963 7062 M 175 0 R D gsave 10852 6921 translate 0 0 M
-117.687 0 N
( ) show grestore 10963 4479 M 87 0 R D 10963 4615 M 87 0 R D 10963 4751 M
87 0 R D 10963 5023 M 87 0 R D 10963 5159 M 87 0 R D 10963 5295 M 87 0 R D
10963 5567 M 87 0 R D 10963 5703 M 87 0 R D 10963 5838 M 87 0 R D
10963 6110 M 87 0 R D 10963 6246 M 87 0 R D 10963 6382 M 87 0 R D
10963 6654 M 87 0 R D 10963 6790 M 87 0 R D 10963 6926 M 87 0 R D
10963 7197 M 87 0 R D 10963 7333 M 87 0 R D 15334 4371 M 0 2962 R D
15334 4887 M -175 0 R D 15334 5431 M -175 0 R D 15334 5974 M -175 0 R D
15334 6518 M -175 0 R D 15334 7062 M -175 0 R D 15334 4479 M -87 0 R D
15334 4615 M -87 0 R D 15334 4751 M -87 0 R D 15334 5023 M -87 0 R D
15334 5159 M -87 0 R D 15334 5295 M -87 0 R D 15334 5567 M -87 0 R D
15334 5703 M -87 0 R D 15334 5838 M -87 0 R D 15334 6110 M -87 0 R D
15334 6246 M -87 0 R D 15334 6382 M -87 0 R D 15334 6654 M -87 0 R D
15334 6790 M -87 0 R D 15334 6926 M -87 0 R D 15334 7197 M -87 0 R D
15334 7333 M -87 0 R D 0.761 0.000 0.000 setrgbcolor 10962 4619 M 103 4 R
600 15 R 594 19 R 580 7 R 559 16 R 534 13 R 504 9 R 468 18 R 430 2342 R D
0.000 0.549 0.000 setrgbcolor 10962 5127 M 103 0 R 600 0 R 594 0 R 580 0 R
559 0 R 534 0 R 504 0 R 468 0 R 430 1935 R D 0.000 0.000 1.000 setrgbcolor
10962 6253 M 103 57 R 600 262 R 594 33 R 580 117 R 559 56 R 534 98 R
504 48 R 468 138 R 430 -2602 R D 0.000 0.000 0.000 setrgbcolor
gsave 4508 5057 translate 0 0 M 90 rotate -395.084 0 N
(M) show X -101.051 M
%%IncludeResource: font Helvetica
262.467 /Helvetica STDFONT
(star) show grestore
%%IncludeResource: font Helvetica
423.333 /Helvetica STDFONT 2220 1408 M 4371 0 R D 2938 1408 M 0 119 R D
gsave 2938 880 translate 0 0 M -117.687 0 N
(9) show grestore 3736 1408 M 0 119 R D gsave 3736 880 translate 0 0 M
-235.373 0 N
(10) show grestore 4534 1408 M 0 119 R D gsave 4534 880 translate 0 0 M
-235.373 0 N
(11) show grestore 5332 1408 M 0 119 R D gsave 5332 880 translate 0 0 M
-235.373 0 N
(12) show grestore 6129 1408 M 0 119 R D gsave 6129 880 translate 0 0 M
-235.373 0 N
(13) show grestore 2220 1408 M 0 59 R D 2300 1408 M 0 59 R D 2380 1408 M
0 59 R D 2459 1408 M 0 59 R D 2539 1408 M 0 59 R D 2619 1408 M 0 59 R D
2699 1408 M 0 59 R D 2779 1408 M 0 59 R D 2858 1408 M 0 59 R D 3018 1408 M
0 59 R D 3098 1408 M 0 59 R D 3177 1408 M 0 59 R D 3257 1408 M 0 59 R D
3337 1408 M 0 59 R D 3417 1408 M 0 59 R D 3497 1408 M 0 59 R D 3576 1408 M
0 59 R D 3656 1408 M 0 59 R D 3816 1408 M 0 59 R D 3896 1408 M 0 59 R D
3975 1408 M 0 59 R D 4055 1408 M 0 59 R D 4135 1408 M 0 59 R D 4215 1408 M
0 59 R D 4294 1408 M 0 59 R D 4374 1408 M 0 59 R D 4454 1408 M 0 59 R D
4614 1408 M 0 59 R D 4693 1408 M 0 59 R D 4773 1408 M 0 59 R D 4853 1408 M
0 59 R D 4933 1408 M 0 59 R D 5012 1408 M 0 59 R D 5092 1408 M 0 59 R D
5172 1408 M 0 59 R D 5252 1408 M 0 59 R D 5411 1408 M 0 59 R D 5491 1408 M
0 59 R D 5571 1408 M 0 59 R D 5651 1408 M 0 59 R D 5731 1408 M 0 59 R D
5810 1408 M 0 59 R D 5890 1408 M 0 59 R D 5970 1408 M 0 59 R D 6050 1408 M
0 59 R D 6209 1408 M 0 59 R D 6289 1408 M 0 59 R D 6369 1408 M 0 59 R D
6449 1408 M 0 59 R D 6528 1408 M 0 59 R D 2220 4371 M 4371 0 R D 2938 4371 M
0 -119 R D 3736 4371 M 0 -119 R D 4534 4371 M 0 -119 R D 5332 4371 M
0 -119 R D 6129 4371 M 0 -119 R D 2220 4371 M 0 -60 R D 2300 4371 M 0 -60 R
D 2380 4371 M 0 -60 R D 2459 4371 M 0 -60 R D 2539 4371 M 0 -60 R D
2619 4371 M 0 -60 R D 2699 4371 M 0 -60 R D 2779 4371 M 0 -60 R D
2858 4371 M 0 -60 R D 3018 4371 M 0 -60 R D 3098 4371 M 0 -60 R D
3177 4371 M 0 -60 R D 3257 4371 M 0 -60 R D 3337 4371 M 0 -60 R D
3417 4371 M 0 -60 R D 3497 4371 M 0 -60 R D 3576 4371 M 0 -60 R D
3656 4371 M 0 -60 R D 3816 4371 M 0 -60 R D 3896 4371 M 0 -60 R D
3975 4371 M 0 -60 R D 4055 4371 M 0 -60 R D 4135 4371 M 0 -60 R D
4215 4371 M 0 -60 R D 4294 4371 M 0 -60 R D 4374 4371 M 0 -60 R D
4454 4371 M 0 -60 R D 4614 4371 M 0 -60 R D 4693 4371 M 0 -60 R D
4773 4371 M 0 -60 R D 4853 4371 M 0 -60 R D 4933 4371 M 0 -60 R D
5012 4371 M 0 -60 R D 5092 4371 M 0 -60 R D 5172 4371 M 0 -60 R D
5252 4371 M 0 -60 R D 5411 4371 M 0 -60 R D 5491 4371 M 0 -60 R D
5571 4371 M 0 -60 R D 5651 4371 M 0 -60 R D 5731 4371 M 0 -60 R D
5810 4371 M 0 -60 R D 5890 4371 M 0 -60 R D 5970 4371 M 0 -60 R D
6050 4371 M 0 -60 R D 6209 4371 M 0 -60 R D 6289 4371 M 0 -60 R D
6369 4371 M 0 -60 R D 6449 4371 M 0 -60 R D 6528 4371 M 0 -60 R D
2220 1408 M 0 2963 R D 2220 1924 M 175 0 R D gsave 2109 1784 translate 0 0 M
-588.433 0 N
(0.2) show grestore 2220 2468 M 175 0 R D gsave 2109 2327 translate 0 0 M
-588.433 0 N
(0.4) show grestore 2220 3012 M 175 0 R D gsave 2109 2871 translate 0 0 M
-588.433 0 N
(0.6) show grestore 2220 3555 M 175 0 R D gsave 2109 3415 translate 0 0 M
-588.433 0 N
(0.8) show grestore 2220 4099 M 175 0 R D gsave 2109 3958 translate 0 0 M
-588.433 0 N
(1.0) show grestore 2220 1517 M 88 0 R D 2220 1653 M 88 0 R D 2220 1789 M
88 0 R D 2220 2060 M 88 0 R D 2220 2196 M 88 0 R D 2220 2332 M 88 0 R D
2220 2604 M 88 0 R D 2220 2740 M 88 0 R D 2220 2876 M 88 0 R D 2220 3148 M
88 0 R D 2220 3284 M 88 0 R D 2220 3419 M 88 0 R D 2220 3691 M 88 0 R D
2220 3827 M 88 0 R D 2220 3963 M 88 0 R D 2220 4235 M 88 0 R D 2220 4371 M
88 0 R D 6591 1408 M 0 2963 R D 6591 1924 M -174 0 R D 6591 2468 M -174 0 R
D 6591 3012 M -174 0 R D 6591 3555 M -174 0 R D 6591 4099 M -174 0 R D
6591 1517 M -87 0 R D 6591 1653 M -87 0 R D 6591 1789 M -87 0 R D
6591 2060 M -87 0 R D 6591 2196 M -87 0 R D 6591 2332 M -87 0 R D
6591 2604 M -87 0 R D 6591 2740 M -87 0 R D 6591 2876 M -87 0 R D
6591 3148 M -87 0 R D 6591 3284 M -87 0 R D 6591 3419 M -87 0 R D
6591 3691 M -87 0 R D 6591 3827 M -87 0 R D 6591 3963 M -87 0 R D
6591 4235 M -87 0 R D 6591 4371 M -87 0 R D 0.761 0.000 0.000 setrgbcolor
2220 1551 M 102 2 R 600 1 R 594 4 R 580 8 R 560 3 R 534 3 R 503 2 R 468 6 R
430 2519 R D 0.000 0.549 0.000 setrgbcolor 2220 2943 M 102 38 R 600 27 R
594 10 R 580 113 R 560 8 R 534 9 R 503 6 R 468 86 R 430 859 R D
0.000 0.000 1.000 setrgbcolor 2220 3260 M 102 29 R 600 99 R 594 256 R
580 58 R 560 99 R 534 117 R 503 127 R 468 54 R 430 -2579 R D
0.000 0.000 0.000 setrgbcolor 6591 1408 M 4372 0 R D 7309 1408 M 0 119 R D
gsave 7309 880 translate 0 0 M -117.687 0 N
(9) show grestore 8107 1408 M 0 119 R D gsave 8107 880 translate 0 0 M
-235.373 0 N
(10) show grestore 8905 1408 M 0 119 R D gsave 8905 880 translate 0 0 M
-235.373 0 N
(11) show grestore 9703 1408 M 0 119 R D gsave 9703 880 translate 0 0 M
-235.373 0 N
(12) show grestore 10501 1408 M 0 119 R D gsave 10501 880 translate 0 0 M
-235.373 0 N
(13) show grestore 6591 1408 M 0 59 R D 6671 1408 M 0 59 R D 6751 1408 M
0 59 R D 6831 1408 M 0 59 R D 6911 1408 M 0 59 R D 6990 1408 M 0 59 R D
7070 1408 M 0 59 R D 7150 1408 M 0 59 R D 7230 1408 M 0 59 R D 7389 1408 M
0 59 R D 7469 1408 M 0 59 R D 7549 1408 M 0 59 R D 7629 1408 M 0 59 R D
7708 1408 M 0 59 R D 7788 1408 M 0 59 R D 7868 1408 M 0 59 R D 7948 1408 M
0 59 R D 8028 1408 M 0 59 R D 8187 1408 M 0 59 R D 8267 1408 M 0 59 R D
8347 1408 M 0 59 R D 8426 1408 M 0 59 R D 8506 1408 M 0 59 R D 8586 1408 M
0 59 R D 8666 1408 M 0 59 R D 8746 1408 M 0 59 R D 8825 1408 M 0 59 R D
8985 1408 M 0 59 R D 9065 1408 M 0 59 R D 9144 1408 M 0 59 R D 9224 1408 M
0 59 R D 9304 1408 M 0 59 R D 9384 1408 M 0 59 R D 9464 1408 M 0 59 R D
9543 1408 M 0 59 R D 9623 1408 M 0 59 R D 9783 1408 M 0 59 R D 9863 1408 M
0 59 R D 9942 1408 M 0 59 R D 10022 1408 M 0 59 R D 10102 1408 M 0 59 R D
10182 1408 M 0 59 R D 10261 1408 M 0 59 R D 10341 1408 M 0 59 R D
10421 1408 M 0 59 R D 10581 1408 M 0 59 R D 10660 1408 M 0 59 R D
10740 1408 M 0 59 R D 10820 1408 M 0 59 R D 10900 1408 M 0 59 R D
6591 4371 M 4372 0 R D 7309 4371 M 0 -119 R D 8107 4371 M 0 -119 R D
8905 4371 M 0 -119 R D 9703 4371 M 0 -119 R D 10501 4371 M 0 -119 R D
6591 4371 M 0 -60 R D 6671 4371 M 0 -60 R D 6751 4371 M 0 -60 R D
6831 4371 M 0 -60 R D 6911 4371 M 0 -60 R D 6990 4371 M 0 -60 R D
7070 4371 M 0 -60 R D 7150 4371 M 0 -60 R D 7230 4371 M 0 -60 R D
7389 4371 M 0 -60 R D 7469 4371 M 0 -60 R D 7549 4371 M 0 -60 R D
7629 4371 M 0 -60 R D 7708 4371 M 0 -60 R D 7788 4371 M 0 -60 R D
7868 4371 M 0 -60 R D 7948 4371 M 0 -60 R D 8028 4371 M 0 -60 R D
8187 4371 M 0 -60 R D 8267 4371 M 0 -60 R D 8347 4371 M 0 -60 R D
8426 4371 M 0 -60 R D 8506 4371 M 0 -60 R D 8586 4371 M 0 -60 R D
8666 4371 M 0 -60 R D 8746 4371 M 0 -60 R D 8825 4371 M 0 -60 R D
8985 4371 M 0 -60 R D 9065 4371 M 0 -60 R D 9144 4371 M 0 -60 R D
9224 4371 M 0 -60 R D 9304 4371 M 0 -60 R D 9384 4371 M 0 -60 R D
9464 4371 M 0 -60 R D 9543 4371 M 0 -60 R D 9623 4371 M 0 -60 R D
9783 4371 M 0 -60 R D 9863 4371 M 0 -60 R D 9942 4371 M 0 -60 R D
10022 4371 M 0 -60 R D 10102 4371 M 0 -60 R D 10182 4371 M 0 -60 R D
10261 4371 M 0 -60 R D 10341 4371 M 0 -60 R D 10421 4371 M 0 -60 R D
10581 4371 M 0 -60 R D 10660 4371 M 0 -60 R D 10740 4371 M 0 -60 R D
10820 4371 M 0 -60 R D 10900 4371 M 0 -60 R D 6591 1408 M 0 2963 R D
6591 1924 M 175 0 R D gsave 6480 1784 translate 0 0 M -117.687 0 N
( ) show grestore 6591 2468 M 175 0 R D gsave 6480 2327 translate 0 0 M
-117.687 0 N
( ) show grestore 6591 3012 M 175 0 R D gsave 6480 2871 translate 0 0 M
-117.687 0 N
( ) show grestore 6591 3555 M 175 0 R D gsave 6480 3415 translate 0 0 M
-117.687 0 N
( ) show grestore 6591 4099 M 175 0 R D gsave 6480 3958 translate 0 0 M
-117.687 0 N
( ) show grestore 6591 1517 M 88 0 R D 6591 1653 M 88 0 R D 6591 1789 M
88 0 R D 6591 2060 M 88 0 R D 6591 2196 M 88 0 R D 6591 2332 M 88 0 R D
6591 2604 M 88 0 R D 6591 2740 M 88 0 R D 6591 2876 M 88 0 R D 6591 3148 M
88 0 R D 6591 3284 M 88 0 R D 6591 3419 M 88 0 R D 6591 3691 M 88 0 R D
6591 3827 M 88 0 R D 6591 3963 M 88 0 R D 6591 4235 M 88 0 R D 6591 4371 M
88 0 R D 10963 1408 M 0 2963 R D 10963 1924 M -175 0 R D 10963 2468 M
-175 0 R D 10963 3012 M -175 0 R D 10963 3555 M -175 0 R D 10963 4099 M
-175 0 R D 10963 1517 M -88 0 R D 10963 1653 M -88 0 R D 10963 1789 M
-88 0 R D 10963 2060 M -88 0 R D 10963 2196 M -88 0 R D 10963 2332 M -88 0 R
D 10963 2604 M -88 0 R D 10963 2740 M -88 0 R D 10963 2876 M -88 0 R D
10963 3148 M -88 0 R D 10963 3284 M -88 0 R D 10963 3419 M -88 0 R D
10963 3691 M -88 0 R D 10963 3827 M -88 0 R D 10963 3963 M -88 0 R D
10963 4235 M -88 0 R D 10963 4371 M -88 0 R D 0.761 0.000 0.000 setrgbcolor
6591 1638 M 102 1 R 601 18 R 593 2 R 580 9 R 560 2 R 534 16 R 503 1 R
469 1 R 429 2405 R D 0.000 0.549 0.000 setrgbcolor 6591 3086 M 102 10 R
601 305 R 593 15 R 580 100 R 560 42 R 534 329 R 503 87 R 469 67 R 429 57 R D
0.000 0.000 1.000 setrgbcolor 6591 3100 M 102 173 R 601 229 R 593 150 R
580 117 R 560 175 R 534 25 R 503 82 R 469 48 R 429 -2396 R D
0.000 0.000 0.000 setrgbcolor 10963 1408 M 4371 0 R D 11681 1408 M 0 119 R D
gsave 11681 880 translate 0 0 M -117.687 0 N
(9) show grestore 12479 1408 M 0 119 R D gsave 12479 880 translate 0 0 M
-235.373 0 N
(10) show grestore 13276 1408 M 0 119 R D gsave 13276 880 translate 0 0 M
-235.373 0 N
(11) show grestore 14074 1408 M 0 119 R D gsave 14074 880 translate 0 0 M
-235.373 0 N
(12) show grestore 14872 1408 M 0 119 R D gsave 14872 880 translate 0 0 M
-235.373 0 N
(13) show grestore 10963 1408 M 0 59 R D 11043 1408 M 0 59 R D 11122 1408 M
0 59 R D 11202 1408 M 0 59 R D 11282 1408 M 0 59 R D 11362 1408 M 0 59 R D
11441 1408 M 0 59 R D 11521 1408 M 0 59 R D 11601 1408 M 0 59 R D
11761 1408 M 0 59 R D 11840 1408 M 0 59 R D 11920 1408 M 0 59 R D
12000 1408 M 0 59 R D 12080 1408 M 0 59 R D 12159 1408 M 0 59 R D
12239 1408 M 0 59 R D 12319 1408 M 0 59 R D 12399 1408 M 0 59 R D
12558 1408 M 0 59 R D 12638 1408 M 0 59 R D 12718 1408 M 0 59 R D
12798 1408 M 0 59 R D 12878 1408 M 0 59 R D 12957 1408 M 0 59 R D
13037 1408 M 0 59 R D 13117 1408 M 0 59 R D 13197 1408 M 0 59 R D
13356 1408 M 0 59 R D 13436 1408 M 0 59 R D 13516 1408 M 0 59 R D
13596 1408 M 0 59 R D 13675 1408 M 0 59 R D 13755 1408 M 0 59 R D
13835 1408 M 0 59 R D 13915 1408 M 0 59 R D 13995 1408 M 0 59 R D
14154 1408 M 0 59 R D 14234 1408 M 0 59 R D 14314 1408 M 0 59 R D
14393 1408 M 0 59 R D 14473 1408 M 0 59 R D 14553 1408 M 0 59 R D
14633 1408 M 0 59 R D 14713 1408 M 0 59 R D 14792 1408 M 0 59 R D
14952 1408 M 0 59 R D 15032 1408 M 0 59 R D 15111 1408 M 0 59 R D
15191 1408 M 0 59 R D 15271 1408 M 0 59 R D 10963 4371 M 4371 0 R D
11681 4371 M 0 -119 R D 12479 4371 M 0 -119 R D 13276 4371 M 0 -119 R D
14074 4371 M 0 -119 R D 14872 4371 M 0 -119 R D 10963 4371 M 0 -60 R D
11043 4371 M 0 -60 R D 11122 4371 M 0 -60 R D 11202 4371 M 0 -60 R D
11282 4371 M 0 -60 R D 11362 4371 M 0 -60 R D 11441 4371 M 0 -60 R D
11521 4371 M 0 -60 R D 11601 4371 M 0 -60 R D 11761 4371 M 0 -60 R D
11840 4371 M 0 -60 R D 11920 4371 M 0 -60 R D 12000 4371 M 0 -60 R D
12080 4371 M 0 -60 R D 12159 4371 M 0 -60 R D 12239 4371 M 0 -60 R D
12319 4371 M 0 -60 R D 12399 4371 M 0 -60 R D 12558 4371 M 0 -60 R D
12638 4371 M 0 -60 R D 12718 4371 M 0 -60 R D 12798 4371 M 0 -60 R D
12878 4371 M 0 -60 R D 12957 4371 M 0 -60 R D 13037 4371 M 0 -60 R D
13117 4371 M 0 -60 R D 13197 4371 M 0 -60 R D 13356 4371 M 0 -60 R D
13436 4371 M 0 -60 R D 13516 4371 M 0 -60 R D 13596 4371 M 0 -60 R D
13675 4371 M 0 -60 R D 13755 4371 M 0 -60 R D 13835 4371 M 0 -60 R D
13915 4371 M 0 -60 R D 13995 4371 M 0 -60 R D 14154 4371 M 0 -60 R D
14234 4371 M 0 -60 R D 14314 4371 M 0 -60 R D 14393 4371 M 0 -60 R D
14473 4371 M 0 -60 R D 14553 4371 M 0 -60 R D 14633 4371 M 0 -60 R D
14713 4371 M 0 -60 R D 14792 4371 M 0 -60 R D 14952 4371 M 0 -60 R D
15032 4371 M 0 -60 R D 15111 4371 M 0 -60 R D 15191 4371 M 0 -60 R D
15271 4371 M 0 -60 R D 10963 1408 M 0 2963 R D 10963 1924 M 175 0 R D
gsave 10852 1784 translate 0 0 M -117.687 0 N
( ) show grestore 10963 2468 M 175 0 R D gsave 10852 2327 translate 0 0 M
-117.687 0 N
( ) show grestore 10963 3012 M 175 0 R D gsave 10852 2871 translate 0 0 M
-117.687 0 N
( ) show grestore 10963 3555 M 175 0 R D gsave 10852 3415 translate 0 0 M
-117.687 0 N
( ) show grestore 10963 4099 M 175 0 R D gsave 10852 3958 translate 0 0 M
-117.687 0 N
( ) show grestore 10963 1517 M 87 0 R D 10963 1653 M 87 0 R D 10963 1789 M
87 0 R D 10963 2060 M 87 0 R D 10963 2196 M 87 0 R D 10963 2332 M 87 0 R D
10963 2604 M 87 0 R D 10963 2740 M 87 0 R D 10963 2876 M 87 0 R D
10963 3148 M 87 0 R D 10963 3284 M 87 0 R D 10963 3419 M 87 0 R D
10963 3691 M 87 0 R D 10963 3827 M 87 0 R D 10963 3963 M 87 0 R D
10963 4235 M 87 0 R D 10963 4371 M 87 0 R D 15334 1408 M 0 2963 R D
15334 1924 M -175 0 R D 15334 2468 M -175 0 R D 15334 3012 M -175 0 R D
15334 3555 M -175 0 R D 15334 4099 M -175 0 R D 15334 1517 M -87 0 R D
15334 1653 M -87 0 R D 15334 1789 M -87 0 R D 15334 2060 M -87 0 R D
15334 2196 M -87 0 R D 15334 2332 M -87 0 R D 15334 2604 M -87 0 R D
15334 2740 M -87 0 R D 15334 2876 M -87 0 R D 15334 3148 M -87 0 R D
15334 3284 M -87 0 R D 15334 3419 M -87 0 R D 15334 3691 M -87 0 R D
15334 3827 M -87 0 R D 15334 3963 M -87 0 R D 15334 4235 M -87 0 R D
15334 4371 M -87 0 R D 0.761 0.000 0.000 setrgbcolor 10962 1760 M 103 6 R
600 37 R 594 34 R 580 37 R 559 2 R 534 17 R 504 10 R 468 1 R 430 2195 R D
0.000 0.549 0.000 setrgbcolor 10962 2380 M 103 20 R 600 6 R 594 6 R 580 5 R
559 5 R 534 5 R 504 5 R 468 4 R 430 1663 R D 0.000 0.000 1.000 setrgbcolor
10962 2467 M 103 19 R 600 247 R 594 1029 R 580 92 R 559 79 R 534 57 R
504 90 R 468 19 R 430 -2482 R D
%%PageTrailer
end
%%PageResources: font Helvetica
%%Trailer
%%Pages: 1
%%DocumentNeededResources: font Helvetica
%%EOF
