%!PS-Adobe-3.0 EPSF-3.0
%%BoundingBox: 0 0 510 311
%%Title: Graphics produced by IDL
%%For: jlgan@Hserver, /home/jlgan/work/phoenix
%%Creator: IDL Version 7.1.1 (linux x86_64 m64)
%%CreationDate: Mon Jun 16 14:14:52 2014
%%DocumentData: Clean7bit
%%Requirements: color
%%LanguageLevel: 1
%%PageOrder: Ascend
%%Pages: (atend)
%%DocumentNeededResources: (atend)
%%EndComments
%%BeginProlog
%+ prolog.ps -- Prolog for IDL generated PostScript files
%+ Copyright (c) 1988-2009 ITT Visual Information Solutions. All Rights Reserved.
%v 5
/$IDL_DICT 40 dict def $IDL_DICT begin /bdef { bind def } bind def /C
{currentpoint newpath moveto} bdef /CP {currentpoint} bdef /D {currentpoint
stroke moveto} bdef /F {closepath fill} bdef /K { setgray } bdef /M {moveto}
bdef /N {rmoveto} bdef /P {lineto} bdef /R {rlineto} bdef /S {gsave show
grestore} bdef /X {currentpoint pop} bdef /Z {gsave currentpoint lineto 20
setlinewidth 1 setlinecap stroke grestore} bdef /L0 {[] 0 setdash} bdef /L1
{[40 100] 0 setdash} bdef /L2 {[200 200] 0 setdash} bdef /L3 {[200 100 50
100] 0 setdash} bdef /L4 {[300 100 50 100 50 100 50 100] 0 setdash} bdef /L5
{[400 200] 0 setdash} bdef /STDFONT { findfont exch scalefont setfont } bdef
/ISOFONT { findfont dup length dict begin { 1 index /FID ne {def} {pop pop}
ifelse } forall /Encoding ISOLatin1Encoding def currentdict end /idltmpfont
exch definefont exch scalefont setfont } bdef /ISOBULLET { gsave /Helvetica
findfont exch scalefont setfont (\267) show currentpoint grestore moveto}
bdef /MITERLIMIT { 2.5 setmiterlimit } bdef end
%%EndProlog
%%Page: 0 1
%%PageRequirements: color
%%PageResources: (atend)
%%PageOrientation: Portrait
%%PageBoundingBox: 0 0 510 311
%%BeginPageSetup
$IDL_DICT begin 0.0283465 dup scale MITERLIMIT
%%IncludeResource: font Helvetica
423.333 /Helvetica STDFONT
%%EndPageSetup
0.000 0.000 0.000 setrgbcolor gsave 9777 10648 translate 0 0 M
1.25 dup scale -1576.07 0 N
(MCG is not BCG) show grestore gsave 9777 352 translate 0 0 M -576.368 0 N
(t / Gyr) show grestore gsave 900 8815 translate 0 0 M 90 rotate
-220.019 0 N
(M) show X -101.051 M
%%IncludeResource: font Helvetica
262.467 /Helvetica STDFONT
(r) show grestore
%%IncludeResource: font Helvetica
423.333 /Helvetica STDFONT 30 setlinewidth L0 2220 7333 M 3779 0 R D
2841 7333 M 0 119 R D gsave 2841 6805 translate 0 0 M -58.8433 0 N
( ) show grestore 3530 7333 M 0 119 R D gsave 3530 6805 translate 0 0 M
-58.8433 0 N
( ) show grestore 4220 7333 M 0 119 R D gsave 4220 6805 translate 0 0 M
-58.8433 0 N
( ) show grestore 4910 7333 M 0 119 R D gsave 4910 6805 translate 0 0 M
-58.8433 0 N
( ) show grestore 5599 7333 M 0 119 R D gsave 5599 6805 translate 0 0 M
-58.8433 0 N
( ) show grestore 2220 7333 M 0 60 R D 2289 7333 M 0 60 R D 2358 7333 M
0 60 R D 2427 7333 M 0 60 R D 2496 7333 M 0 60 R D 2565 7333 M 0 60 R D
2634 7333 M 0 60 R D 2703 7333 M 0 60 R D 2772 7333 M 0 60 R D 2910 7333 M
0 60 R D 2979 7333 M 0 60 R D 3048 7333 M 0 60 R D 3117 7333 M 0 60 R D
3186 7333 M 0 60 R D 3255 7333 M 0 60 R D 3324 7333 M 0 60 R D 3392 7333 M
0 60 R D 3461 7333 M 0 60 R D 3599 7333 M 0 60 R D 3668 7333 M 0 60 R D
3737 7333 M 0 60 R D 3806 7333 M 0 60 R D 3875 7333 M 0 60 R D 3944 7333 M
0 60 R D 4013 7333 M 0 60 R D 4082 7333 M 0 60 R D 4151 7333 M 0 60 R D
4289 7333 M 0 60 R D 4358 7333 M 0 60 R D 4427 7333 M 0 60 R D 4496 7333 M
0 60 R D 4565 7333 M 0 60 R D 4634 7333 M 0 60 R D 4703 7333 M 0 60 R D
4772 7333 M 0 60 R D 4841 7333 M 0 60 R D 4979 7333 M 0 60 R D 5048 7333 M
0 60 R D 5117 7333 M 0 60 R D 5186 7333 M 0 60 R D 5254 7333 M 0 60 R D
5323 7333 M 0 60 R D 5392 7333 M 0 60 R D 5461 7333 M 0 60 R D 5530 7333 M
0 60 R D 5668 7333 M 0 60 R D 5737 7333 M 0 60 R D 5806 7333 M 0 60 R D
5875 7333 M 0 60 R D 5944 7333 M 0 60 R D 2220 10296 M 3779 0 R D
2841 10296 M 0 -118 R D 3530 10296 M 0 -118 R D 4220 10296 M 0 -118 R D
4910 10296 M 0 -118 R D 5599 10296 M 0 -118 R D 2220 10296 M 0 -59 R D
2289 10296 M 0 -59 R D 2358 10296 M 0 -59 R D 2427 10296 M 0 -59 R D
2496 10296 M 0 -59 R D 2565 10296 M 0 -59 R D 2634 10296 M 0 -59 R D
2703 10296 M 0 -59 R D 2772 10296 M 0 -59 R D 2910 10296 M 0 -59 R D
2979 10296 M 0 -59 R D 3048 10296 M 0 -59 R D 3117 10296 M 0 -59 R D
3186 10296 M 0 -59 R D 3255 10296 M 0 -59 R D 3324 10296 M 0 -59 R D
3392 10296 M 0 -59 R D 3461 10296 M 0 -59 R D 3599 10296 M 0 -59 R D
3668 10296 M 0 -59 R D 3737 10296 M 0 -59 R D 3806 10296 M 0 -59 R D
3875 10296 M 0 -59 R D 3944 10296 M 0 -59 R D 4013 10296 M 0 -59 R D
4082 10296 M 0 -59 R D 4151 10296 M 0 -59 R D 4289 10296 M 0 -59 R D
4358 10296 M 0 -59 R D 4427 10296 M 0 -59 R D 4496 10296 M 0 -59 R D
4565 10296 M 0 -59 R D 4634 10296 M 0 -59 R D 4703 10296 M 0 -59 R D
4772 10296 M 0 -59 R D 4841 10296 M 0 -59 R D 4979 10296 M 0 -59 R D
5048 10296 M 0 -59 R D 5117 10296 M 0 -59 R D 5186 10296 M 0 -59 R D
5254 10296 M 0 -59 R D 5323 10296 M 0 -59 R D 5392 10296 M 0 -59 R D
5461 10296 M 0 -59 R D 5530 10296 M 0 -59 R D 5668 10296 M 0 -59 R D
5737 10296 M 0 -59 R D 5806 10296 M 0 -59 R D 5875 10296 M 0 -59 R D
5944 10296 M 0 -59 R D 2220 7333 M 0 2963 R D 2220 7856 M 151 0 R D
gsave 2109 7715 translate 0 0 M -611.717 0 N
(-26) show grestore 2220 8437 M 151 0 R D gsave 2109 8296 translate 0 0 M
-611.717 0 N
(-25) show grestore 2220 9018 M 151 0 R D gsave 2109 8877 translate 0 0 M
-611.717 0 N
(-24) show grestore 2220 9599 M 151 0 R D gsave 2109 9458 translate 0 0 M
-611.717 0 N
(-23) show grestore 2220 10180 M 151 0 R D gsave 2109 10039 translate 0 0 M
-611.717 0 N
(-22) show grestore 2220 7333 M 76 0 R D 2220 7391 M 76 0 R D 2220 7450 M
76 0 R D 2220 7508 M 76 0 R D 2220 7566 M 76 0 R D 2220 7624 M 76 0 R D
2220 7682 M 76 0 R D 2220 7740 M 76 0 R D 2220 7798 M 76 0 R D 2220 7914 M
76 0 R D 2220 7972 M 76 0 R D 2220 8030 M 76 0 R D 2220 8089 M 76 0 R D
2220 8147 M 76 0 R D 2220 8205 M 76 0 R D 2220 8263 M 76 0 R D 2220 8321 M
76 0 R D 2220 8379 M 76 0 R D 2220 8495 M 76 0 R D 2220 8553 M 76 0 R D
2220 8611 M 76 0 R D 2220 8669 M 76 0 R D 2220 8728 M 76 0 R D 2220 8786 M
76 0 R D 2220 8844 M 76 0 R D 2220 8902 M 76 0 R D 2220 8960 M 76 0 R D
2220 9076 M 76 0 R D 2220 9134 M 76 0 R D 2220 9192 M 76 0 R D 2220 9250 M
76 0 R D 2220 9308 M 76 0 R D 2220 9367 M 76 0 R D 2220 9425 M 76 0 R D
2220 9483 M 76 0 R D 2220 9541 M 76 0 R D 2220 9657 M 76 0 R D 2220 9715 M
76 0 R D 2220 9773 M 76 0 R D 2220 9831 M 76 0 R D 2220 9889 M 76 0 R D
2220 9948 M 76 0 R D 2220 10006 M 76 0 R D 2220 10064 M 76 0 R D
2220 10122 M 76 0 R D 2220 10238 M 76 0 R D 2220 10296 M 76 0 R D
5999 7333 M 0 2963 R D 5999 7856 M -152 0 R D 5999 8437 M -152 0 R D
5999 9018 M -152 0 R D 5999 9599 M -152 0 R D 5999 10180 M -152 0 R D
5999 7333 M -76 0 R D 5999 7391 M -76 0 R D 5999 7450 M -76 0 R D
5999 7508 M -76 0 R D 5999 7566 M -76 0 R D 5999 7624 M -76 0 R D
5999 7682 M -76 0 R D 5999 7740 M -76 0 R D 5999 7798 M -76 0 R D
5999 7914 M -76 0 R D 5999 7972 M -76 0 R D 5999 8030 M -76 0 R D
5999 8089 M -76 0 R D 5999 8147 M -76 0 R D 5999 8205 M -76 0 R D
5999 8263 M -76 0 R D 5999 8321 M -76 0 R D 5999 8379 M -76 0 R D
5999 8495 M -76 0 R D 5999 8553 M -76 0 R D 5999 8611 M -76 0 R D
5999 8669 M -76 0 R D 5999 8728 M -76 0 R D 5999 8786 M -76 0 R D
5999 8844 M -76 0 R D 5999 8902 M -76 0 R D 5999 8960 M -76 0 R D
5999 9076 M -76 0 R D 5999 9134 M -76 0 R D 5999 9192 M -76 0 R D
5999 9250 M -76 0 R D 5999 9308 M -76 0 R D 5999 9367 M -76 0 R D
5999 9425 M -76 0 R D 5999 9483 M -76 0 R D 5999 9541 M -76 0 R D
5999 9657 M -76 0 R D 5999 9715 M -76 0 R D 5999 9773 M -76 0 R D
5999 9831 M -76 0 R D 5999 9889 M -76 0 R D 5999 9948 M -76 0 R D
5999 10006 M -76 0 R D 5999 10064 M -76 0 R D 5999 10122 M -76 0 R D
5999 10238 M -76 0 R D 5999 10296 M -76 0 R D 0.761 0.000 0.000 setrgbcolor
2220 10252 M 88 0 R 519 -4 R 513 -23 R 502 -6 R 483 -45 R 462 -17 R
435 -13 R 405 -15 R 337 -2796 R D 0.000 0.549 0.000 setrgbcolor 5352 10296 M
275 -2765 R 371 1168 R D 0.000 0.000 1.000 setrgbcolor 2220 9006 M 88 -6 R
519 -64 R 513 -40 R 502 -16 R 483 -11 R 462 -35 R 435 -57 R 405 -29 R
371 1337 R D 0.000 0.000 0.000 setrgbcolor 5999 7333 M 3778 0 R D
6619 7333 M 0 119 R D gsave 6619 6805 translate 0 0 M -58.8433 0 N
( ) show grestore 7309 7333 M 0 119 R D gsave 7309 6805 translate 0 0 M
-58.8433 0 N
( ) show grestore 7999 7333 M 0 119 R D gsave 7999 6805 translate 0 0 M
-58.8433 0 N
( ) show grestore 8688 7333 M 0 119 R D gsave 8688 6805 translate 0 0 M
-58.8433 0 N
( ) show grestore 9378 7333 M 0 119 R D gsave 9378 6805 translate 0 0 M
-58.8433 0 N
( ) show grestore 5999 7333 M 0 60 R D 6068 7333 M 0 60 R D 6137 7333 M
0 60 R D 6205 7333 M 0 60 R D 6274 7333 M 0 60 R D 6343 7333 M 0 60 R D
6412 7333 M 0 60 R D 6481 7333 M 0 60 R D 6550 7333 M 0 60 R D 6688 7333 M
0 60 R D 6757 7333 M 0 60 R D 6826 7333 M 0 60 R D 6895 7333 M 0 60 R D
6964 7333 M 0 60 R D 7033 7333 M 0 60 R D 7102 7333 M 0 60 R D 7171 7333 M
0 60 R D 7240 7333 M 0 60 R D 7378 7333 M 0 60 R D 7447 7333 M 0 60 R D
7516 7333 M 0 60 R D 7585 7333 M 0 60 R D 7654 7333 M 0 60 R D 7723 7333 M
0 60 R D 7792 7333 M 0 60 R D 7861 7333 M 0 60 R D 7930 7333 M 0 60 R D
8067 7333 M 0 60 R D 8136 7333 M 0 60 R D 8205 7333 M 0 60 R D 8274 7333 M
0 60 R D 8343 7333 M 0 60 R D 8412 7333 M 0 60 R D 8481 7333 M 0 60 R D
8550 7333 M 0 60 R D 8619 7333 M 0 60 R D 8757 7333 M 0 60 R D 8826 7333 M
0 60 R D 8895 7333 M 0 60 R D 8964 7333 M 0 60 R D 9033 7333 M 0 60 R D
9102 7333 M 0 60 R D 9171 7333 M 0 60 R D 9240 7333 M 0 60 R D 9309 7333 M
0 60 R D 9447 7333 M 0 60 R D 9516 7333 M 0 60 R D 9585 7333 M 0 60 R D
9654 7333 M 0 60 R D 9723 7333 M 0 60 R D 5999 10296 M 3778 0 R D
6619 10296 M 0 -118 R D 7309 10296 M 0 -118 R D 7999 10296 M 0 -118 R D
8688 10296 M 0 -118 R D 9378 10296 M 0 -118 R D 5999 10296 M 0 -59 R D
6068 10296 M 0 -59 R D 6137 10296 M 0 -59 R D 6205 10296 M 0 -59 R D
6274 10296 M 0 -59 R D 6343 10296 M 0 -59 R D 6412 10296 M 0 -59 R D
6481 10296 M 0 -59 R D 6550 10296 M 0 -59 R D 6688 10296 M 0 -59 R D
6757 10296 M 0 -59 R D 6826 10296 M 0 -59 R D 6895 10296 M 0 -59 R D
6964 10296 M 0 -59 R D 7033 10296 M 0 -59 R D 7102 10296 M 0 -59 R D
7171 10296 M 0 -59 R D 7240 10296 M 0 -59 R D 7378 10296 M 0 -59 R D
7447 10296 M 0 -59 R D 7516 10296 M 0 -59 R D 7585 10296 M 0 -59 R D
7654 10296 M 0 -59 R D 7723 10296 M 0 -59 R D 7792 10296 M 0 -59 R D
7861 10296 M 0 -59 R D 7930 10296 M 0 -59 R D 8067 10296 M 0 -59 R D
8136 10296 M 0 -59 R D 8205 10296 M 0 -59 R D 8274 10296 M 0 -59 R D
8343 10296 M 0 -59 R D 8412 10296 M 0 -59 R D 8481 10296 M 0 -59 R D
8550 10296 M 0 -59 R D 8619 10296 M 0 -59 R D 8757 10296 M 0 -59 R D
8826 10296 M 0 -59 R D 8895 10296 M 0 -59 R D 8964 10296 M 0 -59 R D
9033 10296 M 0 -59 R D 9102 10296 M 0 -59 R D 9171 10296 M 0 -59 R D
9240 10296 M 0 -59 R D 9309 10296 M 0 -59 R D 9447 10296 M 0 -59 R D
9516 10296 M 0 -59 R D 9585 10296 M 0 -59 R D 9654 10296 M 0 -59 R D
9723 10296 M 0 -59 R D 5999 7333 M 0 2963 R D 5999 7856 M 151 0 R D
gsave 5888 7715 translate 0 0 M -117.687 0 N
( ) show grestore 5999 8437 M 151 0 R D gsave 5888 8296 translate 0 0 M
-117.687 0 N
( ) show grestore 5999 9018 M 151 0 R D gsave 5888 8877 translate 0 0 M
-117.687 0 N
( ) show grestore 5999 9599 M 151 0 R D gsave 5888 9458 translate 0 0 M
-117.687 0 N
( ) show grestore 5999 10180 M 151 0 R D gsave 5888 10039 translate 0 0 M
-117.687 0 N
( ) show grestore 5999 7333 M 75 0 R D 5999 7391 M 75 0 R D 5999 7450 M
75 0 R D 5999 7508 M 75 0 R D 5999 7566 M 75 0 R D 5999 7624 M 75 0 R D
5999 7682 M 75 0 R D 5999 7740 M 75 0 R D 5999 7798 M 75 0 R D 5999 7914 M
75 0 R D 5999 7972 M 75 0 R D 5999 8030 M 75 0 R D 5999 8089 M 75 0 R D
5999 8147 M 75 0 R D 5999 8205 M 75 0 R D 5999 8263 M 75 0 R D 5999 8321 M
75 0 R D 5999 8379 M 75 0 R D 5999 8495 M 75 0 R D 5999 8553 M 75 0 R D
5999 8611 M 75 0 R D 5999 8669 M 75 0 R D 5999 8728 M 75 0 R D 5999 8786 M
75 0 R D 5999 8844 M 75 0 R D 5999 8902 M 75 0 R D 5999 8960 M 75 0 R D
5999 9076 M 75 0 R D 5999 9134 M 75 0 R D 5999 9192 M 75 0 R D 5999 9250 M
75 0 R D 5999 9308 M 75 0 R D 5999 9367 M 75 0 R D 5999 9425 M 75 0 R D
5999 9483 M 75 0 R D 5999 9541 M 75 0 R D 5999 9657 M 75 0 R D 5999 9715 M
75 0 R D 5999 9773 M 75 0 R D 5999 9831 M 75 0 R D 5999 9889 M 75 0 R D
5999 9948 M 75 0 R D 5999 10006 M 75 0 R D 5999 10064 M 75 0 R D
5999 10122 M 75 0 R D 5999 10238 M 75 0 R D 5999 10296 M 75 0 R D
9777 7333 M 0 2963 R D 9777 7856 M -151 0 R D 9777 8437 M -151 0 R D
9777 9018 M -151 0 R D 9777 9599 M -151 0 R D 9777 10180 M -151 0 R D
9777 7333 M -75 0 R D 9777 7391 M -75 0 R D 9777 7450 M -75 0 R D
9777 7508 M -75 0 R D 9777 7566 M -75 0 R D 9777 7624 M -75 0 R D
9777 7682 M -75 0 R D 9777 7740 M -75 0 R D 9777 7798 M -75 0 R D
9777 7914 M -75 0 R D 9777 7972 M -75 0 R D 9777 8030 M -75 0 R D
9777 8089 M -75 0 R D 9777 8147 M -75 0 R D 9777 8205 M -75 0 R D
9777 8263 M -75 0 R D 9777 8321 M -75 0 R D 9777 8379 M -75 0 R D
9777 8495 M -75 0 R D 9777 8553 M -75 0 R D 9777 8611 M -75 0 R D
9777 8669 M -75 0 R D 9777 8728 M -75 0 R D 9777 8786 M -75 0 R D
9777 8844 M -75 0 R D 9777 8902 M -75 0 R D 9777 8960 M -75 0 R D
9777 9076 M -75 0 R D 9777 9134 M -75 0 R D 9777 9192 M -75 0 R D
9777 9250 M -75 0 R D 9777 9308 M -75 0 R D 9777 9367 M -75 0 R D
9777 9425 M -75 0 R D 9777 9483 M -75 0 R D 9777 9541 M -75 0 R D
9777 9657 M -75 0 R D 9777 9715 M -75 0 R D 9777 9773 M -75 0 R D
9777 9831 M -75 0 R D 9777 9889 M -75 0 R D 9777 9948 M -75 0 R D
9777 10006 M -75 0 R D 9777 10064 M -75 0 R D 9777 10122 M -75 0 R D
9777 10238 M -75 0 R D 9777 10296 M -75 0 R D 0.761 0.000 0.000 setrgbcolor
9347 10296 M 58 -22 R 372 -1191 R D 0.000 0.549 0.000 setrgbcolor
5998 9353 M 89 -3 R 518 -23 R 514 -47 R 501 -66 R 484 -69 R 461 -5 R
435 -22 R 405 -18 R 372 3 R D 0.000 0.000 1.000 setrgbcolor 9776 10296 M
1 -372 R D 0.000 0.000 0.000 setrgbcolor 9777 7333 M 3779 0 R D 10398 7333 M
0 119 R D gsave 10398 6805 translate 0 0 M -58.8433 0 N
( ) show grestore 11087 7333 M 0 119 R D gsave 11087 6805 translate 0 0 M
-58.8433 0 N
( ) show grestore 11777 7333 M 0 119 R D gsave 11777 6805 translate 0 0 M
-58.8433 0 N
( ) show grestore 12467 7333 M 0 119 R D gsave 12467 6805 translate 0 0 M
-58.8433 0 N
( ) show grestore 13156 7333 M 0 119 R D gsave 13156 6805 translate 0 0 M
-58.8433 0 N
( ) show grestore 9777 7333 M 0 60 R D 9846 7333 M 0 60 R D 9915 7333 M
0 60 R D 9984 7333 M 0 60 R D 10053 7333 M 0 60 R D 10122 7333 M 0 60 R D
10191 7333 M 0 60 R D 10260 7333 M 0 60 R D 10329 7333 M 0 60 R D
10467 7333 M 0 60 R D 10536 7333 M 0 60 R D 10605 7333 M 0 60 R D
10674 7333 M 0 60 R D 10743 7333 M 0 60 R D 10812 7333 M 0 60 R D
10881 7333 M 0 60 R D 10949 7333 M 0 60 R D 11018 7333 M 0 60 R D
11156 7333 M 0 60 R D 11225 7333 M 0 60 R D 11294 7333 M 0 60 R D
11363 7333 M 0 60 R D 11432 7333 M 0 60 R D 11501 7333 M 0 60 R D
11570 7333 M 0 60 R D 11639 7333 M 0 60 R D 11708 7333 M 0 60 R D
11846 7333 M 0 60 R D 11915 7333 M 0 60 R D 11984 7333 M 0 60 R D
12053 7333 M 0 60 R D 12122 7333 M 0 60 R D 12191 7333 M 0 60 R D
12260 7333 M 0 60 R D 12329 7333 M 0 60 R D 12398 7333 M 0 60 R D
12536 7333 M 0 60 R D 12605 7333 M 0 60 R D 12674 7333 M 0 60 R D
12743 7333 M 0 60 R D 12811 7333 M 0 60 R D 12880 7333 M 0 60 R D
12949 7333 M 0 60 R D 13018 7333 M 0 60 R D 13087 7333 M 0 60 R D
13225 7333 M 0 60 R D 13294 7333 M 0 60 R D 13363 7333 M 0 60 R D
13432 7333 M 0 60 R D 13501 7333 M 0 60 R D 9777 10296 M 3779 0 R D
10398 10296 M 0 -118 R D 11087 10296 M 0 -118 R D 11777 10296 M 0 -118 R D
12467 10296 M 0 -118 R D 13156 10296 M 0 -118 R D 9777 10296 M 0 -59 R D
9846 10296 M 0 -59 R D 9915 10296 M 0 -59 R D 9984 10296 M 0 -59 R D
10053 10296 M 0 -59 R D 10122 10296 M 0 -59 R D 10191 10296 M 0 -59 R D
10260 10296 M 0 -59 R D 10329 10296 M 0 -59 R D 10467 10296 M 0 -59 R D
10536 10296 M 0 -59 R D 10605 10296 M 0 -59 R D 10674 10296 M 0 -59 R D
10743 10296 M 0 -59 R D 10812 10296 M 0 -59 R D 10881 10296 M 0 -59 R D
10949 10296 M 0 -59 R D 11018 10296 M 0 -59 R D 11156 10296 M 0 -59 R D
11225 10296 M 0 -59 R D 11294 10296 M 0 -59 R D 11363 10296 M 0 -59 R D
11432 10296 M 0 -59 R D 11501 10296 M 0 -59 R D 11570 10296 M 0 -59 R D
11639 10296 M 0 -59 R D 11708 10296 M 0 -59 R D 11846 10296 M 0 -59 R D
11915 10296 M 0 -59 R D 11984 10296 M 0 -59 R D 12053 10296 M 0 -59 R D
12122 10296 M 0 -59 R D 12191 10296 M 0 -59 R D 12260 10296 M 0 -59 R D
12329 10296 M 0 -59 R D 12398 10296 M 0 -59 R D 12536 10296 M 0 -59 R D
12605 10296 M 0 -59 R D 12674 10296 M 0 -59 R D 12743 10296 M 0 -59 R D
12811 10296 M 0 -59 R D 12880 10296 M 0 -59 R D 12949 10296 M 0 -59 R D
13018 10296 M 0 -59 R D 13087 10296 M 0 -59 R D 13225 10296 M 0 -59 R D
13294 10296 M 0 -59 R D 13363 10296 M 0 -59 R D 13432 10296 M 0 -59 R D
13501 10296 M 0 -59 R D 9777 7333 M 0 2963 R D 9777 7856 M 151 0 R D
gsave 9666 7715 translate 0 0 M -117.687 0 N
( ) show grestore 9777 8437 M 151 0 R D gsave 9666 8296 translate 0 0 M
-117.687 0 N
( ) show grestore 9777 9018 M 151 0 R D gsave 9666 8877 translate 0 0 M
-117.687 0 N
( ) show grestore 9777 9599 M 151 0 R D gsave 9666 9458 translate 0 0 M
-117.687 0 N
( ) show grestore 9777 10180 M 151 0 R D gsave 9666 10039 translate 0 0 M
-117.687 0 N
( ) show grestore 9777 7333 M 76 0 R D 9777 7391 M 76 0 R D 9777 7450 M
76 0 R D 9777 7508 M 76 0 R D 9777 7566 M 76 0 R D 9777 7624 M 76 0 R D
9777 7682 M 76 0 R D 9777 7740 M 76 0 R D 9777 7798 M 76 0 R D 9777 7914 M
76 0 R D 9777 7972 M 76 0 R D 9777 8030 M 76 0 R D 9777 8089 M 76 0 R D
9777 8147 M 76 0 R D 9777 8205 M 76 0 R D 9777 8263 M 76 0 R D 9777 8321 M
76 0 R D 9777 8379 M 76 0 R D 9777 8495 M 76 0 R D 9777 8553 M 76 0 R D
9777 8611 M 76 0 R D 9777 8669 M 76 0 R D 9777 8728 M 76 0 R D 9777 8786 M
76 0 R D 9777 8844 M 76 0 R D 9777 8902 M 76 0 R D 9777 8960 M 76 0 R D
9777 9076 M 76 0 R D 9777 9134 M 76 0 R D 9777 9192 M 76 0 R D 9777 9250 M
76 0 R D 9777 9308 M 76 0 R D 9777 9367 M 76 0 R D 9777 9425 M 76 0 R D
9777 9483 M 76 0 R D 9777 9541 M 76 0 R D 9777 9657 M 76 0 R D 9777 9715 M
76 0 R D 9777 9773 M 76 0 R D 9777 9831 M 76 0 R D 9777 9889 M 76 0 R D
9777 9948 M 76 0 R D 9777 10006 M 76 0 R D 9777 10064 M 76 0 R D
9777 10122 M 76 0 R D 9777 10238 M 76 0 R D 9777 10296 M 76 0 R D
13556 7333 M 0 2963 R D 13556 7856 M -152 0 R D 13556 8437 M -152 0 R D
13556 9018 M -152 0 R D 13556 9599 M -152 0 R D 13556 10180 M -152 0 R D
13556 7333 M -76 0 R D 13556 7391 M -76 0 R D 13556 7450 M -76 0 R D
13556 7508 M -76 0 R D 13556 7566 M -76 0 R D 13556 7624 M -76 0 R D
13556 7682 M -76 0 R D 13556 7740 M -76 0 R D 13556 7798 M -76 0 R D
13556 7914 M -76 0 R D 13556 7972 M -76 0 R D 13556 8030 M -76 0 R D
13556 8089 M -76 0 R D 13556 8147 M -76 0 R D 13556 8205 M -76 0 R D
13556 8263 M -76 0 R D 13556 8321 M -76 0 R D 13556 8379 M -76 0 R D
13556 8495 M -76 0 R D 13556 8553 M -76 0 R D 13556 8611 M -76 0 R D
13556 8669 M -76 0 R D 13556 8728 M -76 0 R D 13556 8786 M -76 0 R D
13556 8844 M -76 0 R D 13556 8902 M -76 0 R D 13556 8960 M -76 0 R D
13556 9076 M -76 0 R D 13556 9134 M -76 0 R D 13556 9192 M -76 0 R D
13556 9250 M -76 0 R D 13556 9308 M -76 0 R D 13556 9367 M -76 0 R D
13556 9425 M -76 0 R D 13556 9483 M -76 0 R D 13556 9541 M -76 0 R D
13556 9657 M -76 0 R D 13556 9715 M -76 0 R D 13556 9773 M -76 0 R D
13556 9831 M -76 0 R D 13556 9889 M -76 0 R D 13556 9948 M -76 0 R D
13556 10006 M -76 0 R D 13556 10064 M -76 0 R D 13556 10122 M -76 0 R D
13556 10238 M -76 0 R D 13556 10296 M -76 0 R D
0.761 0.000 0.000 setrgbcolor 11672 10296 M 210 -13 R 462 -12 R 435 -16 R
405 -19 R 371 -2035 R D 0.000 0.549 0.000 setrgbcolor 9777 8294 M 88 -16 R
519 -33 R 513 -16 R 502 -8 R 483 -5 R 462 -4 R 435 -4 R 405 -4 R 371 710 R D
0.000 0.000 1.000 setrgbcolor 9777 9255 M 88 -83 R 519 -42 R 513 -88 R
502 -18 R 483 -39 R 462 -9 R 435 -12 R 405 -12 R 371 1215 R D
0.000 0.000 0.000 setrgbcolor 13556 7333 M 3778 0 R D 14176 7333 M 0 119 R D
gsave 14176 6805 translate 0 0 M -58.8433 0 N
( ) show grestore 14866 7333 M 0 119 R D gsave 14866 6805 translate 0 0 M
-58.8433 0 N
( ) show grestore 15556 7333 M 0 119 R D gsave 15556 6805 translate 0 0 M
-58.8433 0 N
( ) show grestore 16245 7333 M 0 119 R D gsave 16245 6805 translate 0 0 M
-58.8433 0 N
( ) show grestore 16935 7333 M 0 119 R D gsave 16935 6805 translate 0 0 M
-58.8433 0 N
( ) show grestore 13556 7333 M 0 60 R D 13625 7333 M 0 60 R D 13694 7333 M
0 60 R D 13762 7333 M 0 60 R D 13831 7333 M 0 60 R D 13900 7333 M 0 60 R D
13969 7333 M 0 60 R D 14038 7333 M 0 60 R D 14107 7333 M 0 60 R D
14245 7333 M 0 60 R D 14314 7333 M 0 60 R D 14383 7333 M 0 60 R D
14452 7333 M 0 60 R D 14521 7333 M 0 60 R D 14590 7333 M 0 60 R D
14659 7333 M 0 60 R D 14728 7333 M 0 60 R D 14797 7333 M 0 60 R D
14935 7333 M 0 60 R D 15004 7333 M 0 60 R D 15073 7333 M 0 60 R D
15142 7333 M 0 60 R D 15211 7333 M 0 60 R D 15280 7333 M 0 60 R D
15349 7333 M 0 60 R D 15418 7333 M 0 60 R D 15487 7333 M 0 60 R D
15624 7333 M 0 60 R D 15693 7333 M 0 60 R D 15762 7333 M 0 60 R D
15831 7333 M 0 60 R D 15900 7333 M 0 60 R D 15969 7333 M 0 60 R D
16038 7333 M 0 60 R D 16107 7333 M 0 60 R D 16176 7333 M 0 60 R D
16314 7333 M 0 60 R D 16383 7333 M 0 60 R D 16452 7333 M 0 60 R D
16521 7333 M 0 60 R D 16590 7333 M 0 60 R D 16659 7333 M 0 60 R D
16728 7333 M 0 60 R D 16797 7333 M 0 60 R D 16866 7333 M 0 60 R D
17004 7333 M 0 60 R D 17073 7333 M 0 60 R D 17142 7333 M 0 60 R D
17211 7333 M 0 60 R D 17280 7333 M 0 60 R D 13556 10296 M 3778 0 R D
14176 10296 M 0 -118 R D 14866 10296 M 0 -118 R D 15556 10296 M 0 -118 R D
16245 10296 M 0 -118 R D 16935 10296 M 0 -118 R D 13556 10296 M 0 -59 R D
13625 10296 M 0 -59 R D 13694 10296 M 0 -59 R D 13762 10296 M 0 -59 R D
13831 10296 M 0 -59 R D 13900 10296 M 0 -59 R D 13969 10296 M 0 -59 R D
14038 10296 M 0 -59 R D 14107 10296 M 0 -59 R D 14245 10296 M 0 -59 R D
14314 10296 M 0 -59 R D 14383 10296 M 0 -59 R D 14452 10296 M 0 -59 R D
14521 10296 M 0 -59 R D 14590 10296 M 0 -59 R D 14659 10296 M 0 -59 R D
14728 10296 M 0 -59 R D 14797 10296 M 0 -59 R D 14935 10296 M 0 -59 R D
15004 10296 M 0 -59 R D 15073 10296 M 0 -59 R D 15142 10296 M 0 -59 R D
15211 10296 M 0 -59 R D 15280 10296 M 0 -59 R D 15349 10296 M 0 -59 R D
15418 10296 M 0 -59 R D 15487 10296 M 0 -59 R D 15624 10296 M 0 -59 R D
15693 10296 M 0 -59 R D 15762 10296 M 0 -59 R D 15831 10296 M 0 -59 R D
15900 10296 M 0 -59 R D 15969 10296 M 0 -59 R D 16038 10296 M 0 -59 R D
16107 10296 M 0 -59 R D 16176 10296 M 0 -59 R D 16314 10296 M 0 -59 R D
16383 10296 M 0 -59 R D 16452 10296 M 0 -59 R D 16521 10296 M 0 -59 R D
16590 10296 M 0 -59 R D 16659 10296 M 0 -59 R D 16728 10296 M 0 -59 R D
16797 10296 M 0 -59 R D 16866 10296 M 0 -59 R D 17004 10296 M 0 -59 R D
17073 10296 M 0 -59 R D 17142 10296 M 0 -59 R D 17211 10296 M 0 -59 R D
17280 10296 M 0 -59 R D 13556 7333 M 0 2963 R D 13556 7856 M 151 0 R D
gsave 13445 7715 translate 0 0 M -117.687 0 N
( ) show grestore 13556 8437 M 151 0 R D gsave 13445 8296 translate 0 0 M
-117.687 0 N
( ) show grestore 13556 9018 M 151 0 R D gsave 13445 8877 translate 0 0 M
-117.687 0 N
( ) show grestore 13556 9599 M 151 0 R D gsave 13445 9458 translate 0 0 M
-117.687 0 N
( ) show grestore 13556 10180 M 151 0 R D gsave 13445 10039 translate 0 0 M
-117.687 0 N
( ) show grestore 13556 7333 M 75 0 R D 13556 7391 M 75 0 R D 13556 7450 M
75 0 R D 13556 7508 M 75 0 R D 13556 7566 M 75 0 R D 13556 7624 M 75 0 R D
13556 7682 M 75 0 R D 13556 7740 M 75 0 R D 13556 7798 M 75 0 R D
13556 7914 M 75 0 R D 13556 7972 M 75 0 R D 13556 8030 M 75 0 R D
13556 8089 M 75 0 R D 13556 8147 M 75 0 R D 13556 8205 M 75 0 R D
13556 8263 M 75 0 R D 13556 8321 M 75 0 R D 13556 8379 M 75 0 R D
13556 8495 M 75 0 R D 13556 8553 M 75 0 R D 13556 8611 M 75 0 R D
13556 8669 M 75 0 R D 13556 8728 M 75 0 R D 13556 8786 M 75 0 R D
13556 8844 M 75 0 R D 13556 8902 M 75 0 R D 13556 8960 M 75 0 R D
13556 9076 M 75 0 R D 13556 9134 M 75 0 R D 13556 9192 M 75 0 R D
13556 9250 M 75 0 R D 13556 9308 M 75 0 R D 13556 9367 M 75 0 R D
13556 9425 M 75 0 R D 13556 9483 M 75 0 R D 13556 9541 M 75 0 R D
13556 9657 M 75 0 R D 13556 9715 M 75 0 R D 13556 9773 M 75 0 R D
13556 9831 M 75 0 R D 13556 9889 M 75 0 R D 13556 9948 M 75 0 R D
13556 10006 M 75 0 R D 13556 10064 M 75 0 R D 13556 10122 M 75 0 R D
13556 10238 M 75 0 R D 13556 10296 M 75 0 R D 17334 7333 M 0 2963 R D
17334 7856 M -151 0 R D 17334 8437 M -151 0 R D 17334 9018 M -151 0 R D
17334 9599 M -151 0 R D 17334 10180 M -151 0 R D 17334 7333 M -75 0 R D
17334 7391 M -75 0 R D 17334 7450 M -75 0 R D 17334 7508 M -75 0 R D
17334 7566 M -75 0 R D 17334 7624 M -75 0 R D 17334 7682 M -75 0 R D
17334 7740 M -75 0 R D 17334 7798 M -75 0 R D 17334 7914 M -75 0 R D
17334 7972 M -75 0 R D 17334 8030 M -75 0 R D 17334 8089 M -75 0 R D
17334 8147 M -75 0 R D 17334 8205 M -75 0 R D 17334 8263 M -75 0 R D
17334 8321 M -75 0 R D 17334 8379 M -75 0 R D 17334 8495 M -75 0 R D
17334 8553 M -75 0 R D 17334 8611 M -75 0 R D 17334 8669 M -75 0 R D
17334 8728 M -75 0 R D 17334 8786 M -75 0 R D 17334 8844 M -75 0 R D
17334 8902 M -75 0 R D 17334 8960 M -75 0 R D 17334 9076 M -75 0 R D
17334 9134 M -75 0 R D 17334 9192 M -75 0 R D 17334 9250 M -75 0 R D
17334 9308 M -75 0 R D 17334 9367 M -75 0 R D 17334 9425 M -75 0 R D
17334 9483 M -75 0 R D 17334 9541 M -75 0 R D 17334 9657 M -75 0 R D
17334 9715 M -75 0 R D 17334 9773 M -75 0 R D 17334 9831 M -75 0 R D
17334 9889 M -75 0 R D 17334 9948 M -75 0 R D 17334 10006 M -75 0 R D
17334 10064 M -75 0 R D 17334 10122 M -75 0 R D 17334 10238 M -75 0 R D
17334 10296 M -75 0 R D 0.761 0.000 0.000 setrgbcolor 14012 10296 M
86 -2963 R D 0.000 0.549 0.000 setrgbcolor 14128 10296 M 34 -864 R 514 -40 R
501 -8 R 484 -29 R 461 -24 R 435 -37 R 405 -15 R 372 -431 R D
0.000 0.000 1.000 setrgbcolor 17150 10296 M 184 -248 R D
0.000 0.000 0.000 setrgbcolor gsave 900 5852 translate 0 0 M 90 rotate
-424.349 0 N
(M) show X -101.051 M
%%IncludeResource: font Helvetica
262.467 /Helvetica STDFONT
(halo) show grestore
%%IncludeResource: font Helvetica
423.333 /Helvetica STDFONT 2220 4371 M 3779 0 R D 2841 4371 M 0 118 R D
gsave 2841 3843 translate 0 0 M -58.8433 0 N
( ) show grestore 3530 4371 M 0 118 R D gsave 3530 3843 translate 0 0 M
-58.8433 0 N
( ) show grestore 4220 4371 M 0 118 R D gsave 4220 3843 translate 0 0 M
-58.8433 0 N
( ) show grestore 4910 4371 M 0 118 R D gsave 4910 3843 translate 0 0 M
-58.8433 0 N
( ) show grestore 5599 4371 M 0 118 R D gsave 5599 3843 translate 0 0 M
-58.8433 0 N
( ) show grestore 2220 4371 M 0 59 R D 2289 4371 M 0 59 R D 2358 4371 M
0 59 R D 2427 4371 M 0 59 R D 2496 4371 M 0 59 R D 2565 4371 M 0 59 R D
2634 4371 M 0 59 R D 2703 4371 M 0 59 R D 2772 4371 M 0 59 R D 2910 4371 M
0 59 R D 2979 4371 M 0 59 R D 3048 4371 M 0 59 R D 3117 4371 M 0 59 R D
3186 4371 M 0 59 R D 3255 4371 M 0 59 R D 3324 4371 M 0 59 R D 3392 4371 M
0 59 R D 3461 4371 M 0 59 R D 3599 4371 M 0 59 R D 3668 4371 M 0 59 R D
3737 4371 M 0 59 R D 3806 4371 M 0 59 R D 3875 4371 M 0 59 R D 3944 4371 M
0 59 R D 4013 4371 M 0 59 R D 4082 4371 M 0 59 R D 4151 4371 M 0 59 R D
4289 4371 M 0 59 R D 4358 4371 M 0 59 R D 4427 4371 M 0 59 R D 4496 4371 M
0 59 R D 4565 4371 M 0 59 R D 4634 4371 M 0 59 R D 4703 4371 M 0 59 R D
4772 4371 M 0 59 R D 4841 4371 M 0 59 R D 4979 4371 M 0 59 R D 5048 4371 M
0 59 R D 5117 4371 M 0 59 R D 5186 4371 M 0 59 R D 5254 4371 M 0 59 R D
5323 4371 M 0 59 R D 5392 4371 M 0 59 R D 5461 4371 M 0 59 R D 5530 4371 M
0 59 R D 5668 4371 M 0 59 R D 5737 4371 M 0 59 R D 5806 4371 M 0 59 R D
5875 4371 M 0 59 R D 5944 4371 M 0 59 R D 2220 7333 M 3779 0 R D 2841 7333 M
0 -118 R D 3530 7333 M 0 -118 R D 4220 7333 M 0 -118 R D 4910 7333 M
0 -118 R D 5599 7333 M 0 -118 R D 2220 7333 M 0 -59 R D 2289 7333 M 0 -59 R
D 2358 7333 M 0 -59 R D 2427 7333 M 0 -59 R D 2496 7333 M 0 -59 R D
2565 7333 M 0 -59 R D 2634 7333 M 0 -59 R D 2703 7333 M 0 -59 R D
2772 7333 M 0 -59 R D 2910 7333 M 0 -59 R D 2979 7333 M 0 -59 R D
3048 7333 M 0 -59 R D 3117 7333 M 0 -59 R D 3186 7333 M 0 -59 R D
3255 7333 M 0 -59 R D 3324 7333 M 0 -59 R D 3392 7333 M 0 -59 R D
3461 7333 M 0 -59 R D 3599 7333 M 0 -59 R D 3668 7333 M 0 -59 R D
3737 7333 M 0 -59 R D 3806 7333 M 0 -59 R D 3875 7333 M 0 -59 R D
3944 7333 M 0 -59 R D 4013 7333 M 0 -59 R D 4082 7333 M 0 -59 R D
4151 7333 M 0 -59 R D 4289 7333 M 0 -59 R D 4358 7333 M 0 -59 R D
4427 7333 M 0 -59 R D 4496 7333 M 0 -59 R D 4565 7333 M 0 -59 R D
4634 7333 M 0 -59 R D 4703 7333 M 0 -59 R D 4772 7333 M 0 -59 R D
4841 7333 M 0 -59 R D 4979 7333 M 0 -59 R D 5048 7333 M 0 -59 R D
5117 7333 M 0 -59 R D 5186 7333 M 0 -59 R D 5254 7333 M 0 -59 R D
5323 7333 M 0 -59 R D 5392 7333 M 0 -59 R D 5461 7333 M 0 -59 R D
5530 7333 M 0 -59 R D 5668 7333 M 0 -59 R D 5737 7333 M 0 -59 R D
5806 7333 M 0 -59 R D 5875 7333 M 0 -59 R D 5944 7333 M 0 -59 R D
2220 4371 M 0 2962 R D 2220 4887 M 151 0 R D gsave 2109 4746 translate 0 0 M
-588.433 0 N
(0.2) show grestore 2220 5431 M 151 0 R D gsave 2109 5290 translate 0 0 M
-588.433 0 N
(0.4) show grestore 2220 5974 M 151 0 R D gsave 2109 5834 translate 0 0 M
-588.433 0 N
(0.6) show grestore 2220 6518 M 151 0 R D gsave 2109 6377 translate 0 0 M
-588.433 0 N
(0.8) show grestore 2220 7062 M 151 0 R D gsave 2109 6921 translate 0 0 M
-588.433 0 N
(1.0) show grestore 2220 4479 M 76 0 R D 2220 4615 M 76 0 R D 2220 4751 M
76 0 R D 2220 5023 M 76 0 R D 2220 5159 M 76 0 R D 2220 5295 M 76 0 R D
2220 5567 M 76 0 R D 2220 5703 M 76 0 R D 2220 5838 M 76 0 R D 2220 6110 M
76 0 R D 2220 6246 M 76 0 R D 2220 6382 M 76 0 R D 2220 6654 M 76 0 R D
2220 6790 M 76 0 R D 2220 6926 M 76 0 R D 2220 7197 M 76 0 R D 2220 7333 M
76 0 R D 5999 4371 M 0 2962 R D 5999 4887 M -152 0 R D 5999 5431 M -152 0 R
D 5999 5974 M -152 0 R D 5999 6518 M -152 0 R D 5999 7062 M -152 0 R D
5999 4479 M -76 0 R D 5999 4615 M -76 0 R D 5999 4751 M -76 0 R D
5999 5023 M -76 0 R D 5999 5159 M -76 0 R D 5999 5295 M -76 0 R D
5999 5567 M -76 0 R D 5999 5703 M -76 0 R D 5999 5838 M -76 0 R D
5999 6110 M -76 0 R D 5999 6246 M -76 0 R D 5999 6382 M -76 0 R D
5999 6654 M -76 0 R D 5999 6790 M -76 0 R D 5999 6926 M -76 0 R D
5999 7197 M -76 0 R D 5999 7333 M -76 0 R D 0.761 0.000 0.000 setrgbcolor
2220 6751 M 88 44 R 519 11 R 513 45 R 502 49 R 483 68 R 462 94 R 435 -37 R
405 0 R 371 -2591 R D 0.000 0.549 0.000 setrgbcolor 5630 4370 M 368 2684 R D
0.000 0.000 1.000 setrgbcolor 2220 6331 M 88 3 R 519 78 R 513 59 R 502 116 R
483 109 R 462 118 R 435 129 R 405 119 R 371 -2598 R D
0.000 0.000 0.000 setrgbcolor 5999 4371 M 3778 0 R D 6619 4371 M 0 118 R D
gsave 6619 3843 translate 0 0 M -58.8433 0 N
( ) show grestore 7309 4371 M 0 118 R D gsave 7309 3843 translate 0 0 M
-58.8433 0 N
( ) show grestore 7999 4371 M 0 118 R D gsave 7999 3843 translate 0 0 M
-58.8433 0 N
( ) show grestore 8688 4371 M 0 118 R D gsave 8688 3843 translate 0 0 M
-58.8433 0 N
( ) show grestore 9378 4371 M 0 118 R D gsave 9378 3843 translate 0 0 M
-58.8433 0 N
( ) show grestore 5999 4371 M 0 59 R D 6068 4371 M 0 59 R D 6137 4371 M
0 59 R D 6205 4371 M 0 59 R D 6274 4371 M 0 59 R D 6343 4371 M 0 59 R D
6412 4371 M 0 59 R D 6481 4371 M 0 59 R D 6550 4371 M 0 59 R D 6688 4371 M
0 59 R D 6757 4371 M 0 59 R D 6826 4371 M 0 59 R D 6895 4371 M 0 59 R D
6964 4371 M 0 59 R D 7033 4371 M 0 59 R D 7102 4371 M 0 59 R D 7171 4371 M
0 59 R D 7240 4371 M 0 59 R D 7378 4371 M 0 59 R D 7447 4371 M 0 59 R D
7516 4371 M 0 59 R D 7585 4371 M 0 59 R D 7654 4371 M 0 59 R D 7723 4371 M
0 59 R D 7792 4371 M 0 59 R D 7861 4371 M 0 59 R D 7930 4371 M 0 59 R D
8067 4371 M 0 59 R D 8136 4371 M 0 59 R D 8205 4371 M 0 59 R D 8274 4371 M
0 59 R D 8343 4371 M 0 59 R D 8412 4371 M 0 59 R D 8481 4371 M 0 59 R D
8550 4371 M 0 59 R D 8619 4371 M 0 59 R D 8757 4371 M 0 59 R D 8826 4371 M
0 59 R D 8895 4371 M 0 59 R D 8964 4371 M 0 59 R D 9033 4371 M 0 59 R D
9102 4371 M 0 59 R D 9171 4371 M 0 59 R D 9240 4371 M 0 59 R D 9309 4371 M
0 59 R D 9447 4371 M 0 59 R D 9516 4371 M 0 59 R D 9585 4371 M 0 59 R D
9654 4371 M 0 59 R D 9723 4371 M 0 59 R D 5999 7333 M 3778 0 R D 6619 7333 M
0 -118 R D 7309 7333 M 0 -118 R D 7999 7333 M 0 -118 R D 8688 7333 M
0 -118 R D 9378 7333 M 0 -118 R D 5999 7333 M 0 -59 R D 6068 7333 M 0 -59 R
D 6137 7333 M 0 -59 R D 6205 7333 M 0 -59 R D 6274 7333 M 0 -59 R D
6343 7333 M 0 -59 R D 6412 7333 M 0 -59 R D 6481 7333 M 0 -59 R D
6550 7333 M 0 -59 R D 6688 7333 M 0 -59 R D 6757 7333 M 0 -59 R D
6826 7333 M 0 -59 R D 6895 7333 M 0 -59 R D 6964 7333 M 0 -59 R D
7033 7333 M 0 -59 R D 7102 7333 M 0 -59 R D 7171 7333 M 0 -59 R D
7240 7333 M 0 -59 R D 7378 7333 M 0 -59 R D 7447 7333 M 0 -59 R D
7516 7333 M 0 -59 R D 7585 7333 M 0 -59 R D 7654 7333 M 0 -59 R D
7723 7333 M 0 -59 R D 7792 7333 M 0 -59 R D 7861 7333 M 0 -59 R D
7930 7333 M 0 -59 R D 8067 7333 M 0 -59 R D 8136 7333 M 0 -59 R D
8205 7333 M 0 -59 R D 8274 7333 M 0 -59 R D 8343 7333 M 0 -59 R D
8412 7333 M 0 -59 R D 8481 7333 M 0 -59 R D 8550 7333 M 0 -59 R D
8619 7333 M 0 -59 R D 8757 7333 M 0 -59 R D 8826 7333 M 0 -59 R D
8895 7333 M 0 -59 R D 8964 7333 M 0 -59 R D 9033 7333 M 0 -59 R D
9102 7333 M 0 -59 R D 9171 7333 M 0 -59 R D 9240 7333 M 0 -59 R D
9309 7333 M 0 -59 R D 9447 7333 M 0 -59 R D 9516 7333 M 0 -59 R D
9585 7333 M 0 -59 R D 9654 7333 M 0 -59 R D 9723 7333 M 0 -59 R D
5999 4371 M 0 2962 R D 5999 4887 M 151 0 R D gsave 5888 4746 translate 0 0 M
-117.687 0 N
( ) show grestore 5999 5431 M 151 0 R D gsave 5888 5290 translate 0 0 M
-117.687 0 N
( ) show grestore 5999 5974 M 151 0 R D gsave 5888 5834 translate 0 0 M
-117.687 0 N
( ) show grestore 5999 6518 M 151 0 R D gsave 5888 6377 translate 0 0 M
-117.687 0 N
( ) show grestore 5999 7062 M 151 0 R D gsave 5888 6921 translate 0 0 M
-117.687 0 N
( ) show grestore 5999 4479 M 75 0 R D 5999 4615 M 75 0 R D 5999 4751 M
75 0 R D 5999 5023 M 75 0 R D 5999 5159 M 75 0 R D 5999 5295 M 75 0 R D
5999 5567 M 75 0 R D 5999 5703 M 75 0 R D 5999 5838 M 75 0 R D 5999 6110 M
75 0 R D 5999 6246 M 75 0 R D 5999 6382 M 75 0 R D 5999 6654 M 75 0 R D
5999 6790 M 75 0 R D 5999 6926 M 75 0 R D 5999 7197 M 75 0 R D 5999 7333 M
75 0 R D 9777 4371 M 0 2962 R D 9777 4887 M -151 0 R D 9777 5431 M -151 0 R
D 9777 5974 M -151 0 R D 9777 6518 M -151 0 R D 9777 7062 M -151 0 R D
9777 4479 M -75 0 R D 9777 4615 M -75 0 R D 9777 4751 M -75 0 R D
9777 5023 M -75 0 R D 9777 5159 M -75 0 R D 9777 5295 M -75 0 R D
9777 5567 M -75 0 R D 9777 5703 M -75 0 R D 9777 5838 M -75 0 R D
9777 6110 M -75 0 R D 9777 6246 M -75 0 R D 9777 6382 M -75 0 R D
9777 6654 M -75 0 R D 9777 6790 M -75 0 R D 9777 6926 M -75 0 R D
9777 7197 M -75 0 R D 9777 7333 M -75 0 R D 0.761 0.000 0.000 setrgbcolor
9408 4370 M 369 2692 R D 0.000 0.549 0.000 setrgbcolor 5998 5080 M 89 10 R
518 57 R 514 178 R 501 144 R 484 239 R 461 224 R 435 208 R 405 323 R
372 599 R D 0.000 0.000 1.000 setrgbcolor 9407 4370 M 370 2692 R D
0.000 0.000 0.000 setrgbcolor 9777 4371 M 3779 0 R D 10398 4371 M 0 118 R D
gsave 10398 3843 translate 0 0 M -58.8433 0 N
( ) show grestore 11087 4371 M 0 118 R D gsave 11087 3843 translate 0 0 M
-58.8433 0 N
( ) show grestore 11777 4371 M 0 118 R D gsave 11777 3843 translate 0 0 M
-58.8433 0 N
( ) show grestore 12467 4371 M 0 118 R D gsave 12467 3843 translate 0 0 M
-58.8433 0 N
( ) show grestore 13156 4371 M 0 118 R D gsave 13156 3843 translate 0 0 M
-58.8433 0 N
( ) show grestore 9777 4371 M 0 59 R D 9846 4371 M 0 59 R D 9915 4371 M
0 59 R D 9984 4371 M 0 59 R D 10053 4371 M 0 59 R D 10122 4371 M 0 59 R D
10191 4371 M 0 59 R D 10260 4371 M 0 59 R D 10329 4371 M 0 59 R D
10467 4371 M 0 59 R D 10536 4371 M 0 59 R D 10605 4371 M 0 59 R D
10674 4371 M 0 59 R D 10743 4371 M 0 59 R D 10812 4371 M 0 59 R D
10881 4371 M 0 59 R D 10949 4371 M 0 59 R D 11018 4371 M 0 59 R D
11156 4371 M 0 59 R D 11225 4371 M 0 59 R D 11294 4371 M 0 59 R D
11363 4371 M 0 59 R D 11432 4371 M 0 59 R D 11501 4371 M 0 59 R D
11570 4371 M 0 59 R D 11639 4371 M 0 59 R D 11708 4371 M 0 59 R D
11846 4371 M 0 59 R D 11915 4371 M 0 59 R D 11984 4371 M 0 59 R D
12053 4371 M 0 59 R D 12122 4371 M 0 59 R D 12191 4371 M 0 59 R D
12260 4371 M 0 59 R D 12329 4371 M 0 59 R D 12398 4371 M 0 59 R D
12536 4371 M 0 59 R D 12605 4371 M 0 59 R D 12674 4371 M 0 59 R D
12743 4371 M 0 59 R D 12811 4371 M 0 59 R D 12880 4371 M 0 59 R D
12949 4371 M 0 59 R D 13018 4371 M 0 59 R D 13087 4371 M 0 59 R D
13225 4371 M 0 59 R D 13294 4371 M 0 59 R D 13363 4371 M 0 59 R D
13432 4371 M 0 59 R D 13501 4371 M 0 59 R D 9777 7333 M 3779 0 R D
10398 7333 M 0 -118 R D 11087 7333 M 0 -118 R D 11777 7333 M 0 -118 R D
12467 7333 M 0 -118 R D 13156 7333 M 0 -118 R D 9777 7333 M 0 -59 R D
9846 7333 M 0 -59 R D 9915 7333 M 0 -59 R D 9984 7333 M 0 -59 R D
10053 7333 M 0 -59 R D 10122 7333 M 0 -59 R D 10191 7333 M 0 -59 R D
10260 7333 M 0 -59 R D 10329 7333 M 0 -59 R D 10467 7333 M 0 -59 R D
10536 7333 M 0 -59 R D 10605 7333 M 0 -59 R D 10674 7333 M 0 -59 R D
10743 7333 M 0 -59 R D 10812 7333 M 0 -59 R D 10881 7333 M 0 -59 R D
10949 7333 M 0 -59 R D 11018 7333 M 0 -59 R D 11156 7333 M 0 -59 R D
11225 7333 M 0 -59 R D 11294 7333 M 0 -59 R D 11363 7333 M 0 -59 R D
11432 7333 M 0 -59 R D 11501 7333 M 0 -59 R D 11570 7333 M 0 -59 R D
11639 7333 M 0 -59 R D 11708 7333 M 0 -59 R D 11846 7333 M 0 -59 R D
11915 7333 M 0 -59 R D 11984 7333 M 0 -59 R D 12053 7333 M 0 -59 R D
12122 7333 M 0 -59 R D 12191 7333 M 0 -59 R D 12260 7333 M 0 -59 R D
12329 7333 M 0 -59 R D 12398 7333 M 0 -59 R D 12536 7333 M 0 -59 R D
12605 7333 M 0 -59 R D 12674 7333 M 0 -59 R D 12743 7333 M 0 -59 R D
12811 7333 M 0 -59 R D 12880 7333 M 0 -59 R D 12949 7333 M 0 -59 R D
13018 7333 M 0 -59 R D 13087 7333 M 0 -59 R D 13225 7333 M 0 -59 R D
13294 7333 M 0 -59 R D 13363 7333 M 0 -59 R D 13432 7333 M 0 -59 R D
13501 7333 M 0 -59 R D 9777 4371 M 0 2962 R D 9777 4887 M 151 0 R D
gsave 9666 4746 translate 0 0 M -117.687 0 N
( ) show grestore 9777 5431 M 151 0 R D gsave 9666 5290 translate 0 0 M
-117.687 0 N
( ) show grestore 9777 5974 M 151 0 R D gsave 9666 5834 translate 0 0 M
-117.687 0 N
( ) show grestore 9777 6518 M 151 0 R D gsave 9666 6377 translate 0 0 M
-117.687 0 N
( ) show grestore 9777 7062 M 151 0 R D gsave 9666 6921 translate 0 0 M
-117.687 0 N
( ) show grestore 9777 4479 M 76 0 R D 9777 4615 M 76 0 R D 9777 4751 M
76 0 R D 9777 5023 M 76 0 R D 9777 5159 M 76 0 R D 9777 5295 M 76 0 R D
9777 5567 M 76 0 R D 9777 5703 M 76 0 R D 9777 5838 M 76 0 R D 9777 6110 M
76 0 R D 9777 6246 M 76 0 R D 9777 6382 M 76 0 R D 9777 6654 M 76 0 R D
9777 6790 M 76 0 R D 9777 6926 M 76 0 R D 9777 7197 M 76 0 R D 9777 7333 M
76 0 R D 13556 4371 M 0 2962 R D 13556 4887 M -152 0 R D 13556 5431 M
-152 0 R D 13556 5974 M -152 0 R D 13556 6518 M -152 0 R D 13556 7062 M
-152 0 R D 13556 4479 M -76 0 R D 13556 4615 M -76 0 R D 13556 4751 M
-76 0 R D 13556 5023 M -76 0 R D 13556 5159 M -76 0 R D 13556 5295 M -76 0 R
D 13556 5567 M -76 0 R D 13556 5703 M -76 0 R D 13556 5838 M -76 0 R D
13556 6110 M -76 0 R D 13556 6246 M -76 0 R D 13556 6382 M -76 0 R D
13556 6654 M -76 0 R D 13556 6790 M -76 0 R D 13556 6926 M -76 0 R D
13556 7197 M -76 0 R D 13556 7333 M -76 0 R D 0.761 0.000 0.000 setrgbcolor
9777 5530 M 88 25 R 519 198 R 513 264 R 502 289 R 483 290 R 462 134 R
435 148 R 405 184 R 368 -2692 R D 0.000 0.549 0.000 setrgbcolor 13187 4370 M
368 2684 R D 0.000 0.000 1.000 setrgbcolor 9777 6007 M 88 81 R 519 255 R
513 96 R 502 85 R 483 58 R 462 175 R 435 118 R 405 187 R 371 -2366 R D
0.000 0.000 0.000 setrgbcolor 13556 4371 M 3778 0 R D 14176 4371 M 0 118 R D
gsave 14176 3843 translate 0 0 M -58.8433 0 N
( ) show grestore 14866 4371 M 0 118 R D gsave 14866 3843 translate 0 0 M
-58.8433 0 N
( ) show grestore 15556 4371 M 0 118 R D gsave 15556 3843 translate 0 0 M
-58.8433 0 N
( ) show grestore 16245 4371 M 0 118 R D gsave 16245 3843 translate 0 0 M
-58.8433 0 N
( ) show grestore 16935 4371 M 0 118 R D gsave 16935 3843 translate 0 0 M
-58.8433 0 N
( ) show grestore 13556 4371 M 0 59 R D 13625 4371 M 0 59 R D 13694 4371 M
0 59 R D 13762 4371 M 0 59 R D 13831 4371 M 0 59 R D 13900 4371 M 0 59 R D
13969 4371 M 0 59 R D 14038 4371 M 0 59 R D 14107 4371 M 0 59 R D
14245 4371 M 0 59 R D 14314 4371 M 0 59 R D 14383 4371 M 0 59 R D
14452 4371 M 0 59 R D 14521 4371 M 0 59 R D 14590 4371 M 0 59 R D
14659 4371 M 0 59 R D 14728 4371 M 0 59 R D 14797 4371 M 0 59 R D
14935 4371 M 0 59 R D 15004 4371 M 0 59 R D 15073 4371 M 0 59 R D
15142 4371 M 0 59 R D 15211 4371 M 0 59 R D 15280 4371 M 0 59 R D
15349 4371 M 0 59 R D 15418 4371 M 0 59 R D 15487 4371 M 0 59 R D
15624 4371 M 0 59 R D 15693 4371 M 0 59 R D 15762 4371 M 0 59 R D
15831 4371 M 0 59 R D 15900 4371 M 0 59 R D 15969 4371 M 0 59 R D
16038 4371 M 0 59 R D 16107 4371 M 0 59 R D 16176 4371 M 0 59 R D
16314 4371 M 0 59 R D 16383 4371 M 0 59 R D 16452 4371 M 0 59 R D
16521 4371 M 0 59 R D 16590 4371 M 0 59 R D 16659 4371 M 0 59 R D
16728 4371 M 0 59 R D 16797 4371 M 0 59 R D 16866 4371 M 0 59 R D
17004 4371 M 0 59 R D 17073 4371 M 0 59 R D 17142 4371 M 0 59 R D
17211 4371 M 0 59 R D 17280 4371 M 0 59 R D 13556 7333 M 3778 0 R D
14176 7333 M 0 -118 R D 14866 7333 M 0 -118 R D 15556 7333 M 0 -118 R D
16245 7333 M 0 -118 R D 16935 7333 M 0 -118 R D 13556 7333 M 0 -59 R D
13625 7333 M 0 -59 R D 13694 7333 M 0 -59 R D 13762 7333 M 0 -59 R D
13831 7333 M 0 -59 R D 13900 7333 M 0 -59 R D 13969 7333 M 0 -59 R D
14038 7333 M 0 -59 R D 14107 7333 M 0 -59 R D 14245 7333 M 0 -59 R D
14314 7333 M 0 -59 R D 14383 7333 M 0 -59 R D 14452 7333 M 0 -59 R D
14521 7333 M 0 -59 R D 14590 7333 M 0 -59 R D 14659 7333 M 0 -59 R D
14728 7333 M 0 -59 R D 14797 7333 M 0 -59 R D 14935 7333 M 0 -59 R D
15004 7333 M 0 -59 R D 15073 7333 M 0 -59 R D 15142 7333 M 0 -59 R D
15211 7333 M 0 -59 R D 15280 7333 M 0 -59 R D 15349 7333 M 0 -59 R D
15418 7333 M 0 -59 R D 15487 7333 M 0 -59 R D 15624 7333 M 0 -59 R D
15693 7333 M 0 -59 R D 15762 7333 M 0 -59 R D 15831 7333 M 0 -59 R D
15900 7333 M 0 -59 R D 15969 7333 M 0 -59 R D 16038 7333 M 0 -59 R D
16107 7333 M 0 -59 R D 16176 7333 M 0 -59 R D 16314 7333 M 0 -59 R D
16383 7333 M 0 -59 R D 16452 7333 M 0 -59 R D 16521 7333 M 0 -59 R D
16590 7333 M 0 -59 R D 16659 7333 M 0 -59 R D 16728 7333 M 0 -59 R D
16797 7333 M 0 -59 R D 16866 7333 M 0 -59 R D 17004 7333 M 0 -59 R D
17073 7333 M 0 -59 R D 17142 7333 M 0 -59 R D 17211 7333 M 0 -59 R D
17280 7333 M 0 -59 R D 13556 4371 M 0 2962 R D 13556 4887 M 151 0 R D
gsave 13445 4746 translate 0 0 M -117.687 0 N
( ) show grestore 13556 5431 M 151 0 R D gsave 13445 5290 translate 0 0 M
-117.687 0 N
( ) show grestore 13556 5974 M 151 0 R D gsave 13445 5834 translate 0 0 M
-117.687 0 N
( ) show grestore 13556 6518 M 151 0 R D gsave 13445 6377 translate 0 0 M
-117.687 0 N
( ) show grestore 13556 7062 M 151 0 R D gsave 13445 6921 translate 0 0 M
-117.687 0 N
( ) show grestore 13556 4479 M 75 0 R D 13556 4615 M 75 0 R D 13556 4751 M
75 0 R D 13556 5023 M 75 0 R D 13556 5159 M 75 0 R D 13556 5295 M 75 0 R D
13556 5567 M 75 0 R D 13556 5703 M 75 0 R D 13556 5838 M 75 0 R D
13556 6110 M 75 0 R D 13556 6246 M 75 0 R D 13556 6382 M 75 0 R D
13556 6654 M 75 0 R D 13556 6790 M 75 0 R D 13556 6926 M 75 0 R D
13556 7197 M 75 0 R D 13556 7333 M 75 0 R D 17334 4371 M 0 2962 R D
17334 4887 M -151 0 R D 17334 5431 M -151 0 R D 17334 5974 M -151 0 R D
17334 6518 M -151 0 R D 17334 7062 M -151 0 R D 17334 4479 M -75 0 R D
17334 4615 M -75 0 R D 17334 4751 M -75 0 R D 17334 5023 M -75 0 R D
17334 5159 M -75 0 R D 17334 5295 M -75 0 R D 17334 5567 M -75 0 R D
17334 5703 M -75 0 R D 17334 5838 M -75 0 R D 17334 6110 M -75 0 R D
17334 6246 M -75 0 R D 17334 6382 M -75 0 R D 17334 6654 M -75 0 R D
17334 6790 M -75 0 R D 17334 6926 M -75 0 R D 17334 7197 M -75 0 R D
17334 7333 M -75 0 R D 0.761 0.000 0.000 setrgbcolor 13653 4370 M 509 1351 R
514 149 R 501 229 R 484 228 R 461 231 R 435 239 R 405 229 R 372 36 R D
0.000 0.549 0.000 setrgbcolor 13654 4370 M 508 1246 R 514 302 R 501 445 R
484 153 R 461 244 R 435 183 R 405 116 R 372 3 R D
0.000 0.000 1.000 setrgbcolor 13649 4370 M 513 2483 R 514 209 R 501 -314 R
484 0 R 461 0 R 435 0 R 405 0 R 372 0 R D 0.000 0.000 0.000 setrgbcolor
gsave 900 2889 translate 0 0 M 90 rotate -395.084 0 N
(M) show X -101.051 M
%%IncludeResource: font Helvetica
262.467 /Helvetica STDFONT
(star) show grestore
%%IncludeResource: font Helvetica
423.333 /Helvetica STDFONT 2220 1408 M 3779 0 R D 2841 1408 M 0 119 R D
gsave 2841 880 translate 0 0 M -117.687 0 N
(9) show grestore 3530 1408 M 0 119 R D gsave 3530 880 translate 0 0 M
-235.373 0 N
(10) show grestore 4220 1408 M 0 119 R D gsave 4220 880 translate 0 0 M
-235.373 0 N
(11) show grestore 4910 1408 M 0 119 R D gsave 4910 880 translate 0 0 M
-235.373 0 N
(12) show grestore 5599 1408 M 0 119 R D gsave 5599 880 translate 0 0 M
-235.373 0 N
(13) show grestore 2220 1408 M 0 59 R D 2289 1408 M 0 59 R D 2358 1408 M
0 59 R D 2427 1408 M 0 59 R D 2496 1408 M 0 59 R D 2565 1408 M 0 59 R D
2634 1408 M 0 59 R D 2703 1408 M 0 59 R D 2772 1408 M 0 59 R D 2910 1408 M
0 59 R D 2979 1408 M 0 59 R D 3048 1408 M 0 59 R D 3117 1408 M 0 59 R D
3186 1408 M 0 59 R D 3255 1408 M 0 59 R D 3324 1408 M 0 59 R D 3392 1408 M
0 59 R D 3461 1408 M 0 59 R D 3599 1408 M 0 59 R D 3668 1408 M 0 59 R D
3737 1408 M 0 59 R D 3806 1408 M 0 59 R D 3875 1408 M 0 59 R D 3944 1408 M
0 59 R D 4013 1408 M 0 59 R D 4082 1408 M 0 59 R D 4151 1408 M 0 59 R D
4289 1408 M 0 59 R D 4358 1408 M 0 59 R D 4427 1408 M 0 59 R D 4496 1408 M
0 59 R D 4565 1408 M 0 59 R D 4634 1408 M 0 59 R D 4703 1408 M 0 59 R D
4772 1408 M 0 59 R D 4841 1408 M 0 59 R D 4979 1408 M 0 59 R D 5048 1408 M
0 59 R D 5117 1408 M 0 59 R D 5186 1408 M 0 59 R D 5254 1408 M 0 59 R D
5323 1408 M 0 59 R D 5392 1408 M 0 59 R D 5461 1408 M 0 59 R D 5530 1408 M
0 59 R D 5668 1408 M 0 59 R D 5737 1408 M 0 59 R D 5806 1408 M 0 59 R D
5875 1408 M 0 59 R D 5944 1408 M 0 59 R D 2220 4371 M 3779 0 R D 2841 4371 M
0 -119 R D 3530 4371 M 0 -119 R D 4220 4371 M 0 -119 R D 4910 4371 M
0 -119 R D 5599 4371 M 0 -119 R D 2220 4371 M 0 -60 R D 2289 4371 M 0 -60 R
D 2358 4371 M 0 -60 R D 2427 4371 M 0 -60 R D 2496 4371 M 0 -60 R D
2565 4371 M 0 -60 R D 2634 4371 M 0 -60 R D 2703 4371 M 0 -60 R D
2772 4371 M 0 -60 R D 2910 4371 M 0 -60 R D 2979 4371 M 0 -60 R D
3048 4371 M 0 -60 R D 3117 4371 M 0 -60 R D 3186 4371 M 0 -60 R D
3255 4371 M 0 -60 R D 3324 4371 M 0 -60 R D 3392 4371 M 0 -60 R D
3461 4371 M 0 -60 R D 3599 4371 M 0 -60 R D 3668 4371 M 0 -60 R D
3737 4371 M 0 -60 R D 3806 4371 M 0 -60 R D 3875 4371 M 0 -60 R D
3944 4371 M 0 -60 R D 4013 4371 M 0 -60 R D 4082 4371 M 0 -60 R D
4151 4371 M 0 -60 R D 4289 4371 M 0 -60 R D 4358 4371 M 0 -60 R D
4427 4371 M 0 -60 R D 4496 4371 M 0 -60 R D 4565 4371 M 0 -60 R D
4634 4371 M 0 -60 R D 4703 4371 M 0 -60 R D 4772 4371 M 0 -60 R D
4841 4371 M 0 -60 R D 4979 4371 M 0 -60 R D 5048 4371 M 0 -60 R D
5117 4371 M 0 -60 R D 5186 4371 M 0 -60 R D 5254 4371 M 0 -60 R D
5323 4371 M 0 -60 R D 5392 4371 M 0 -60 R D 5461 4371 M 0 -60 R D
5530 4371 M 0 -60 R D 5668 4371 M 0 -60 R D 5737 4371 M 0 -60 R D
5806 4371 M 0 -60 R D 5875 4371 M 0 -60 R D 5944 4371 M 0 -60 R D
2220 1408 M 0 2963 R D 2220 1924 M 151 0 R D gsave 2109 1784 translate 0 0 M
-588.433 0 N
(0.2) show grestore 2220 2468 M 151 0 R D gsave 2109 2327 translate 0 0 M
-588.433 0 N
(0.4) show grestore 2220 3012 M 151 0 R D gsave 2109 2871 translate 0 0 M
-588.433 0 N
(0.6) show grestore 2220 3555 M 151 0 R D gsave 2109 3415 translate 0 0 M
-588.433 0 N
(0.8) show grestore 2220 4099 M 151 0 R D gsave 2109 3958 translate 0 0 M
-588.433 0 N
(1.0) show grestore 2220 1517 M 76 0 R D 2220 1653 M 76 0 R D 2220 1789 M
76 0 R D 2220 2060 M 76 0 R D 2220 2196 M 76 0 R D 2220 2332 M 76 0 R D
2220 2604 M 76 0 R D 2220 2740 M 76 0 R D 2220 2876 M 76 0 R D 2220 3148 M
76 0 R D 2220 3284 M 76 0 R D 2220 3419 M 76 0 R D 2220 3691 M 76 0 R D
2220 3827 M 76 0 R D 2220 3963 M 76 0 R D 2220 4235 M 76 0 R D 2220 4371 M
76 0 R D 5999 1408 M 0 2963 R D 5999 1924 M -152 0 R D 5999 2468 M -152 0 R
D 5999 3012 M -152 0 R D 5999 3555 M -152 0 R D 5999 4099 M -152 0 R D
5999 1517 M -76 0 R D 5999 1653 M -76 0 R D 5999 1789 M -76 0 R D
5999 2060 M -76 0 R D 5999 2196 M -76 0 R D 5999 2332 M -76 0 R D
5999 2604 M -76 0 R D 5999 2740 M -76 0 R D 5999 2876 M -76 0 R D
5999 3148 M -76 0 R D 5999 3284 M -76 0 R D 5999 3419 M -76 0 R D
5999 3691 M -76 0 R D 5999 3827 M -76 0 R D 5999 3963 M -76 0 R D
5999 4235 M -76 0 R D 5999 4371 M -76 0 R D 0.761 0.000 0.000 setrgbcolor
2220 1587 M 88 1 R 519 0 R 513 7 R 502 1 R 483 10 R 462 3 R 435 1 R 405 1 R
371 2481 R D 0.000 0.549 0.000 setrgbcolor 5223 1408 M 404 2115 R 371 574 R
D 0.000 0.000 1.000 setrgbcolor 2220 3251 M 88 18 R 519 205 R 513 115 R
502 43 R 483 35 R 462 112 R 435 228 R 405 92 R 371 -2419 R D
0.000 0.000 0.000 setrgbcolor 5999 1408 M 3778 0 R D 6619 1408 M 0 119 R D
gsave 6619 880 translate 0 0 M -117.687 0 N
(9) show grestore 7309 1408 M 0 119 R D gsave 7309 880 translate 0 0 M
-235.373 0 N
(10) show grestore 7999 1408 M 0 119 R D gsave 7999 880 translate 0 0 M
-235.373 0 N
(11) show grestore 8688 1408 M 0 119 R D gsave 8688 880 translate 0 0 M
-235.373 0 N
(12) show grestore 9378 1408 M 0 119 R D gsave 9378 880 translate 0 0 M
-235.373 0 N
(13) show grestore 5999 1408 M 0 59 R D 6068 1408 M 0 59 R D 6137 1408 M
0 59 R D 6205 1408 M 0 59 R D 6274 1408 M 0 59 R D 6343 1408 M 0 59 R D
6412 1408 M 0 59 R D 6481 1408 M 0 59 R D 6550 1408 M 0 59 R D 6688 1408 M
0 59 R D 6757 1408 M 0 59 R D 6826 1408 M 0 59 R D 6895 1408 M 0 59 R D
6964 1408 M 0 59 R D 7033 1408 M 0 59 R D 7102 1408 M 0 59 R D 7171 1408 M
0 59 R D 7240 1408 M 0 59 R D 7378 1408 M 0 59 R D 7447 1408 M 0 59 R D
7516 1408 M 0 59 R D 7585 1408 M 0 59 R D 7654 1408 M 0 59 R D 7723 1408 M
0 59 R D 7792 1408 M 0 59 R D 7861 1408 M 0 59 R D 7930 1408 M 0 59 R D
8067 1408 M 0 59 R D 8136 1408 M 0 59 R D 8205 1408 M 0 59 R D 8274 1408 M
0 59 R D 8343 1408 M 0 59 R D 8412 1408 M 0 59 R D 8481 1408 M 0 59 R D
8550 1408 M 0 59 R D 8619 1408 M 0 59 R D 8757 1408 M 0 59 R D 8826 1408 M
0 59 R D 8895 1408 M 0 59 R D 8964 1408 M 0 59 R D 9033 1408 M 0 59 R D
9102 1408 M 0 59 R D 9171 1408 M 0 59 R D 9240 1408 M 0 59 R D 9309 1408 M
0 59 R D 9447 1408 M 0 59 R D 9516 1408 M 0 59 R D 9585 1408 M 0 59 R D
9654 1408 M 0 59 R D 9723 1408 M 0 59 R D 5999 4371 M 3778 0 R D 6619 4371 M
0 -119 R D 7309 4371 M 0 -119 R D 7999 4371 M 0 -119 R D 8688 4371 M
0 -119 R D 9378 4371 M 0 -119 R D 5999 4371 M 0 -60 R D 6068 4371 M 0 -60 R
D 6137 4371 M 0 -60 R D 6205 4371 M 0 -60 R D 6274 4371 M 0 -60 R D
6343 4371 M 0 -60 R D 6412 4371 M 0 -60 R D 6481 4371 M 0 -60 R D
6550 4371 M 0 -60 R D 6688 4371 M 0 -60 R D 6757 4371 M 0 -60 R D
6826 4371 M 0 -60 R D 6895 4371 M 0 -60 R D 6964 4371 M 0 -60 R D
7033 4371 M 0 -60 R D 7102 4371 M 0 -60 R D 7171 4371 M 0 -60 R D
7240 4371 M 0 -60 R D 7378 4371 M 0 -60 R D 7447 4371 M 0 -60 R D
7516 4371 M 0 -60 R D 7585 4371 M 0 -60 R D 7654 4371 M 0 -60 R D
7723 4371 M 0 -60 R D 7792 4371 M 0 -60 R D 7861 4371 M 0 -60 R D
7930 4371 M 0 -60 R D 8067 4371 M 0 -60 R D 8136 4371 M 0 -60 R D
8205 4371 M 0 -60 R D 8274 4371 M 0 -60 R D 8343 4371 M 0 -60 R D
8412 4371 M 0 -60 R D 8481 4371 M 0 -60 R D 8550 4371 M 0 -60 R D
8619 4371 M 0 -60 R D 8757 4371 M 0 -60 R D 8826 4371 M 0 -60 R D
8895 4371 M 0 -60 R D 8964 4371 M 0 -60 R D 9033 4371 M 0 -60 R D
9102 4371 M 0 -60 R D 9171 4371 M 0 -60 R D 9240 4371 M 0 -60 R D
9309 4371 M 0 -60 R D 9447 4371 M 0 -60 R D 9516 4371 M 0 -60 R D
9585 4371 M 0 -60 R D 9654 4371 M 0 -60 R D 9723 4371 M 0 -60 R D
5999 1408 M 0 2963 R D 5999 1924 M 151 0 R D gsave 5888 1784 translate 0 0 M
-117.687 0 N
( ) show grestore 5999 2468 M 151 0 R D gsave 5888 2327 translate 0 0 M
-117.687 0 N
( ) show grestore 5999 3012 M 151 0 R D gsave 5888 2871 translate 0 0 M
-117.687 0 N
( ) show grestore 5999 3555 M 151 0 R D gsave 5888 3415 translate 0 0 M
-117.687 0 N
( ) show grestore 5999 4099 M 151 0 R D gsave 5888 3958 translate 0 0 M
-117.687 0 N
( ) show grestore 5999 1517 M 75 0 R D 5999 1653 M 75 0 R D 5999 1789 M
75 0 R D 5999 2060 M 75 0 R D 5999 2196 M 75 0 R D 5999 2332 M 75 0 R D
5999 2604 M 75 0 R D 5999 2740 M 75 0 R D 5999 2876 M 75 0 R D 5999 3148 M
75 0 R D 5999 3284 M 75 0 R D 5999 3419 M 75 0 R D 5999 3691 M 75 0 R D
5999 3827 M 75 0 R D 5999 3963 M 75 0 R D 5999 4235 M 75 0 R D 5999 4371 M
75 0 R D 9777 1408 M 0 2963 R D 9777 1924 M -151 0 R D 9777 2468 M -151 0 R
D 9777 3012 M -151 0 R D 9777 3555 M -151 0 R D 9777 4099 M -151 0 R D
9777 1517 M -75 0 R D 9777 1653 M -75 0 R D 9777 1789 M -75 0 R D
9777 2060 M -75 0 R D 9777 2196 M -75 0 R D 9777 2332 M -75 0 R D
9777 2604 M -75 0 R D 9777 2740 M -75 0 R D 9777 2876 M -75 0 R D
9777 3148 M -75 0 R D 9777 3284 M -75 0 R D 9777 3419 M -75 0 R D
9777 3691 M -75 0 R D 9777 3827 M -75 0 R D 9777 3963 M -75 0 R D
9777 4235 M -75 0 R D 9777 4371 M -75 0 R D 0.761 0.000 0.000 setrgbcolor
5998 1494 M 89 2 R 518 10 R 514 11 R 501 13 R 484 13 R 461 13 R 435 14 R
405 13 R 372 2516 R D 0.000 0.549 0.000 setrgbcolor 5998 3284 M 89 8 R
518 62 R 514 153 R 501 218 R 484 253 R 461 8 R 435 71 R 405 42 R 372 -138 R
D 0.000 0.000 1.000 setrgbcolor 9408 1408 M 369 2691 R D
0.000 0.000 0.000 setrgbcolor 9777 1408 M 3779 0 R D 10398 1408 M 0 119 R D
gsave 10398 880 translate 0 0 M -117.687 0 N
(9) show grestore 11087 1408 M 0 119 R D gsave 11087 880 translate 0 0 M
-235.373 0 N
(10) show grestore 11777 1408 M 0 119 R D gsave 11777 880 translate 0 0 M
-235.373 0 N
(11) show grestore 12467 1408 M 0 119 R D gsave 12467 880 translate 0 0 M
-235.373 0 N
(12) show grestore 13156 1408 M 0 119 R D gsave 13156 880 translate 0 0 M
-235.373 0 N
(13) show grestore 9777 1408 M 0 59 R D 9846 1408 M 0 59 R D 9915 1408 M
0 59 R D 9984 1408 M 0 59 R D 10053 1408 M 0 59 R D 10122 1408 M 0 59 R D
10191 1408 M 0 59 R D 10260 1408 M 0 59 R D 10329 1408 M 0 59 R D
10467 1408 M 0 59 R D 10536 1408 M 0 59 R D 10605 1408 M 0 59 R D
10674 1408 M 0 59 R D 10743 1408 M 0 59 R D 10812 1408 M 0 59 R D
10881 1408 M 0 59 R D 10949 1408 M 0 59 R D 11018 1408 M 0 59 R D
11156 1408 M 0 59 R D 11225 1408 M 0 59 R D 11294 1408 M 0 59 R D
11363 1408 M 0 59 R D 11432 1408 M 0 59 R D 11501 1408 M 0 59 R D
11570 1408 M 0 59 R D 11639 1408 M 0 59 R D 11708 1408 M 0 59 R D
11846 1408 M 0 59 R D 11915 1408 M 0 59 R D 11984 1408 M 0 59 R D
12053 1408 M 0 59 R D 12122 1408 M 0 59 R D 12191 1408 M 0 59 R D
12260 1408 M 0 59 R D 12329 1408 M 0 59 R D 12398 1408 M 0 59 R D
12536 1408 M 0 59 R D 12605 1408 M 0 59 R D 12674 1408 M 0 59 R D
12743 1408 M 0 59 R D 12811 1408 M 0 59 R D 12880 1408 M 0 59 R D
12949 1408 M 0 59 R D 13018 1408 M 0 59 R D 13087 1408 M 0 59 R D
13225 1408 M 0 59 R D 13294 1408 M 0 59 R D 13363 1408 M 0 59 R D
13432 1408 M 0 59 R D 13501 1408 M 0 59 R D 9777 4371 M 3779 0 R D
10398 4371 M 0 -119 R D 11087 4371 M 0 -119 R D 11777 4371 M 0 -119 R D
12467 4371 M 0 -119 R D 13156 4371 M 0 -119 R D 9777 4371 M 0 -60 R D
9846 4371 M 0 -60 R D 9915 4371 M 0 -60 R D 9984 4371 M 0 -60 R D
10053 4371 M 0 -60 R D 10122 4371 M 0 -60 R D 10191 4371 M 0 -60 R D
10260 4371 M 0 -60 R D 10329 4371 M 0 -60 R D 10467 4371 M 0 -60 R D
10536 4371 M 0 -60 R D 10605 4371 M 0 -60 R D 10674 4371 M 0 -60 R D
10743 4371 M 0 -60 R D 10812 4371 M 0 -60 R D 10881 4371 M 0 -60 R D
10949 4371 M 0 -60 R D 11018 4371 M 0 -60 R D 11156 4371 M 0 -60 R D
11225 4371 M 0 -60 R D 11294 4371 M 0 -60 R D 11363 4371 M 0 -60 R D
11432 4371 M 0 -60 R D 11501 4371 M 0 -60 R D 11570 4371 M 0 -60 R D
11639 4371 M 0 -60 R D 11708 4371 M 0 -60 R D 11846 4371 M 0 -60 R D
11915 4371 M 0 -60 R D 11984 4371 M 0 -60 R D 12053 4371 M 0 -60 R D
12122 4371 M 0 -60 R D 12191 4371 M 0 -60 R D 12260 4371 M 0 -60 R D
12329 4371 M 0 -60 R D 12398 4371 M 0 -60 R D 12536 4371 M 0 -60 R D
12605 4371 M 0 -60 R D 12674 4371 M 0 -60 R D 12743 4371 M 0 -60 R D
12811 4371 M 0 -60 R D 12880 4371 M 0 -60 R D 12949 4371 M 0 -60 R D
13018 4371 M 0 -60 R D 13087 4371 M 0 -60 R D 13225 4371 M 0 -60 R D
13294 4371 M 0 -60 R D 13363 4371 M 0 -60 R D 13432 4371 M 0 -60 R D
13501 4371 M 0 -60 R D 9777 1408 M 0 2963 R D 9777 1924 M 151 0 R D
gsave 9666 1784 translate 0 0 M -117.687 0 N
( ) show grestore 9777 2468 M 151 0 R D gsave 9666 2327 translate 0 0 M
-117.687 0 N
( ) show grestore 9777 3012 M 151 0 R D gsave 9666 2871 translate 0 0 M
-117.687 0 N
( ) show grestore 9777 3555 M 151 0 R D gsave 9666 3415 translate 0 0 M
-117.687 0 N
( ) show grestore 9777 4099 M 151 0 R D gsave 9666 3958 translate 0 0 M
-117.687 0 N
( ) show grestore 9777 1517 M 76 0 R D 9777 1653 M 76 0 R D 9777 1789 M
76 0 R D 9777 2060 M 76 0 R D 9777 2196 M 76 0 R D 9777 2332 M 76 0 R D
9777 2604 M 76 0 R D 9777 2740 M 76 0 R D 9777 2876 M 76 0 R D 9777 3148 M
76 0 R D 9777 3284 M 76 0 R D 9777 3419 M 76 0 R D 9777 3691 M 76 0 R D
9777 3827 M 76 0 R D 9777 3963 M 76 0 R D 9777 4235 M 76 0 R D 9777 4371 M
76 0 R D 13556 1408 M 0 2963 R D 13556 1924 M -152 0 R D 13556 2468 M
-152 0 R D 13556 3012 M -152 0 R D 13556 3555 M -152 0 R D 13556 4099 M
-152 0 R D 13556 1517 M -76 0 R D 13556 1653 M -76 0 R D 13556 1789 M
-76 0 R D 13556 2060 M -76 0 R D 13556 2196 M -76 0 R D 13556 2332 M -76 0 R
D 13556 2604 M -76 0 R D 13556 2740 M -76 0 R D 13556 2876 M -76 0 R D
13556 3148 M -76 0 R D 13556 3284 M -76 0 R D 13556 3419 M -76 0 R D
13556 3691 M -76 0 R D 13556 3827 M -76 0 R D 13556 3963 M -76 0 R D
13556 4235 M -76 0 R D 13556 4371 M -76 0 R D 0.761 0.000 0.000 setrgbcolor
9777 1504 M 88 1 R 519 1 R 513 1 R 502 1 R 483 4 R 462 1 R 435 0 R 405 1 R
371 2578 R D 0.000 0.549 0.000 setrgbcolor 9777 3814 M 88 63 R 519 120 R
513 50 R 502 24 R 483 12 R 462 8 R 435 5 R 405 3 R 371 -1587 R D
0.000 0.000 1.000 setrgbcolor 9777 3157 M 88 178 R 519 124 R 513 326 R
502 66 R 483 151 R 462 23 R 435 37 R 405 37 R 371 -2366 R D
0.000 0.000 0.000 setrgbcolor 13556 1408 M 3778 0 R D 14176 1408 M 0 119 R D
gsave 14176 880 translate 0 0 M -117.687 0 N
(9) show grestore 14866 1408 M 0 119 R D gsave 14866 880 translate 0 0 M
-235.373 0 N
(10) show grestore 15556 1408 M 0 119 R D gsave 15556 880 translate 0 0 M
-235.373 0 N
(11) show grestore 16245 1408 M 0 119 R D gsave 16245 880 translate 0 0 M
-235.373 0 N
(12) show grestore 16935 1408 M 0 119 R D gsave 16935 880 translate 0 0 M
-235.373 0 N
(13) show grestore 13556 1408 M 0 59 R D 13625 1408 M 0 59 R D 13694 1408 M
0 59 R D 13762 1408 M 0 59 R D 13831 1408 M 0 59 R D 13900 1408 M 0 59 R D
13969 1408 M 0 59 R D 14038 1408 M 0 59 R D 14107 1408 M 0 59 R D
14245 1408 M 0 59 R D 14314 1408 M 0 59 R D 14383 1408 M 0 59 R D
14452 1408 M 0 59 R D 14521 1408 M 0 59 R D 14590 1408 M 0 59 R D
14659 1408 M 0 59 R D 14728 1408 M 0 59 R D 14797 1408 M 0 59 R D
14935 1408 M 0 59 R D 15004 1408 M 0 59 R D 15073 1408 M 0 59 R D
15142 1408 M 0 59 R D 15211 1408 M 0 59 R D 15280 1408 M 0 59 R D
15349 1408 M 0 59 R D 15418 1408 M 0 59 R D 15487 1408 M 0 59 R D
15624 1408 M 0 59 R D 15693 1408 M 0 59 R D 15762 1408 M 0 59 R D
15831 1408 M 0 59 R D 15900 1408 M 0 59 R D 15969 1408 M 0 59 R D
16038 1408 M 0 59 R D 16107 1408 M 0 59 R D 16176 1408 M 0 59 R D
16314 1408 M 0 59 R D 16383 1408 M 0 59 R D 16452 1408 M 0 59 R D
16521 1408 M 0 59 R D 16590 1408 M 0 59 R D 16659 1408 M 0 59 R D
16728 1408 M 0 59 R D 16797 1408 M 0 59 R D 16866 1408 M 0 59 R D
17004 1408 M 0 59 R D 17073 1408 M 0 59 R D 17142 1408 M 0 59 R D
17211 1408 M 0 59 R D 17280 1408 M 0 59 R D 13556 4371 M 3778 0 R D
14176 4371 M 0 -119 R D 14866 4371 M 0 -119 R D 15556 4371 M 0 -119 R D
16245 4371 M 0 -119 R D 16935 4371 M 0 -119 R D 13556 4371 M 0 -60 R D
13625 4371 M 0 -60 R D 13694 4371 M 0 -60 R D 13762 4371 M 0 -60 R D
13831 4371 M 0 -60 R D 13900 4371 M 0 -60 R D 13969 4371 M 0 -60 R D
14038 4371 M 0 -60 R D 14107 4371 M 0 -60 R D 14245 4371 M 0 -60 R D
14314 4371 M 0 -60 R D 14383 4371 M 0 -60 R D 14452 4371 M 0 -60 R D
14521 4371 M 0 -60 R D 14590 4371 M 0 -60 R D 14659 4371 M 0 -60 R D
14728 4371 M 0 -60 R D 14797 4371 M 0 -60 R D 14935 4371 M 0 -60 R D
15004 4371 M 0 -60 R D 15073 4371 M 0 -60 R D 15142 4371 M 0 -60 R D
15211 4371 M 0 -60 R D 15280 4371 M 0 -60 R D 15349 4371 M 0 -60 R D
15418 4371 M 0 -60 R D 15487 4371 M 0 -60 R D 15624 4371 M 0 -60 R D
15693 4371 M 0 -60 R D 15762 4371 M 0 -60 R D 15831 4371 M 0 -60 R D
15900 4371 M 0 -60 R D 15969 4371 M 0 -60 R D 16038 4371 M 0 -60 R D
16107 4371 M 0 -60 R D 16176 4371 M 0 -60 R D 16314 4371 M 0 -60 R D
16383 4371 M 0 -60 R D 16452 4371 M 0 -60 R D 16521 4371 M 0 -60 R D
16590 4371 M 0 -60 R D 16659 4371 M 0 -60 R D 16728 4371 M 0 -60 R D
16797 4371 M 0 -60 R D 16866 4371 M 0 -60 R D 17004 4371 M 0 -60 R D
17073 4371 M 0 -60 R D 17142 4371 M 0 -60 R D 17211 4371 M 0 -60 R D
17280 4371 M 0 -60 R D 13556 1408 M 0 2963 R D 13556 1924 M 151 0 R D
gsave 13445 1784 translate 0 0 M -117.687 0 N
( ) show grestore 13556 2468 M 151 0 R D gsave 13445 2327 translate 0 0 M
-117.687 0 N
( ) show grestore 13556 3012 M 151 0 R D gsave 13445 2871 translate 0 0 M
-117.687 0 N
( ) show grestore 13556 3555 M 151 0 R D gsave 13445 3415 translate 0 0 M
-117.687 0 N
( ) show grestore 13556 4099 M 151 0 R D gsave 13445 3958 translate 0 0 M
-117.687 0 N
( ) show grestore 13556 1517 M 75 0 R D 13556 1653 M 75 0 R D 13556 1789 M
75 0 R D 13556 2060 M 75 0 R D 13556 2196 M 75 0 R D 13556 2332 M 75 0 R D
13556 2604 M 75 0 R D 13556 2740 M 75 0 R D 13556 2876 M 75 0 R D
13556 3148 M 75 0 R D 13556 3284 M 75 0 R D 13556 3419 M 75 0 R D
13556 3691 M 75 0 R D 13556 3827 M 75 0 R D 13556 3963 M 75 0 R D
13556 4235 M 75 0 R D 13556 4371 M 75 0 R D 17334 1408 M 0 2963 R D
17334 1924 M -151 0 R D 17334 2468 M -151 0 R D 17334 3012 M -151 0 R D
17334 3555 M -151 0 R D 17334 4099 M -151 0 R D 17334 1517 M -75 0 R D
17334 1653 M -75 0 R D 17334 1789 M -75 0 R D 17334 2060 M -75 0 R D
17334 2196 M -75 0 R D 17334 2332 M -75 0 R D 17334 2604 M -75 0 R D
17334 2740 M -75 0 R D 17334 2876 M -75 0 R D 17334 3148 M -75 0 R D
17334 3284 M -75 0 R D 17334 3419 M -75 0 R D 17334 3691 M -75 0 R D
17334 3827 M -75 0 R D 17334 3963 M -75 0 R D 17334 4235 M -75 0 R D
17334 4371 M -75 0 R D 0.761 0.000 0.000 setrgbcolor 13649 1408 M 513 2690 R
514 0 R 501 0 R 484 1 R 461 0 R 435 0 R 405 0 R 372 0 R D
0.000 0.549 0.000 setrgbcolor 13654 1408 M 508 1247 R 514 82 R 501 9 R
484 55 R 461 38 R 435 72 R 405 13 R 372 1175 R D
0.000 0.000 1.000 setrgbcolor 15196 1408 M 465 640 R 461 336 R 435 179 R
405 611 R 372 925 R D
%%PageTrailer
end
%%PageResources: font Helvetica
%%Trailer
%%Pages: 1
%%DocumentNeededResources: font Helvetica
%%EOF
