%!PS-Adobe-3.0 EPSF-3.0
%%BoundingBox: 0 0 510 198
%%Title: Graphics produced by IDL
%%For: jlgan@Hserver, /home/jlgan/work/phoenix
%%Creator: IDL Version 7.1.1 (linux x86_64 m64)
%%CreationDate: Wed Jun  4 18:35:59 2014
%%DocumentData: Clean7bit
%%Requirements: color
%%LanguageLevel: 1
%%PageOrder: Ascend
%%Pages: (atend)
%%DocumentNeededResources: (atend)
%%EndComments
%%BeginProlog
%+ prolog.ps -- Prolog for IDL generated PostScript files
%+ Copyright (c) 1988-2009 ITT Visual Information Solutions. All Rights Reserved.
%v 5
/$IDL_DICT 40 dict def $IDL_DICT begin /bdef { bind def } bind def /C
{currentpoint newpath moveto} bdef /CP {currentpoint} bdef /D {currentpoint
stroke moveto} bdef /F {closepath fill} bdef /K { setgray } bdef /M {moveto}
bdef /N {rmoveto} bdef /P {lineto} bdef /R {rlineto} bdef /S {gsave show
grestore} bdef /X {currentpoint pop} bdef /Z {gsave currentpoint lineto 20
setlinewidth 1 setlinecap stroke grestore} bdef /L0 {[] 0 setdash} bdef /L1
{[40 100] 0 setdash} bdef /L2 {[200 200] 0 setdash} bdef /L3 {[200 100 50
100] 0 setdash} bdef /L4 {[300 100 50 100 50 100 50 100] 0 setdash} bdef /L5
{[400 200] 0 setdash} bdef /STDFONT { findfont exch scalefont setfont } bdef
/ISOFONT { findfont dup length dict begin { 1 index /FID ne {def} {pop pop}
ifelse } forall /Encoding ISOLatin1Encoding def currentdict end /idltmpfont
exch definefont exch scalefont setfont } bdef /ISOBULLET { gsave /Helvetica
findfont exch scalefont setfont (\267) show currentpoint grestore moveto}
bdef /MITERLIMIT { 2.5 setmiterlimit } bdef end
%%EndProlog
%%Page: 0 1
%%PageRequirements: color
%%PageResources: (atend)
%%PageOrientation: Portrait
%%PageBoundingBox: 0 0 510 198
%%BeginPageSetup
$IDL_DICT begin 0.0283465 dup scale MITERLIMIT
%%IncludeResource: font Helvetica
423.333 /Helvetica STDFONT
%%EndPageSetup
0.000 0.000 0.000 setrgbcolor gsave 9777 352 translate 0 0 M -1652.34 0 N
(log) show X -101.051 M
%%IncludeResource: font Helvetica
262.467 /Helvetica STDFONT
(10) show X 0 M
%%IncludeResource: font Helvetica
423.333 /Helvetica STDFONT
([M) show X -101.051 M
%%IncludeResource: font Symbol
262.467 /Symbol STDFONT
(*) show X 0 M
%%IncludeResource: font Helvetica
423.333 /Helvetica STDFONT
( / \(h) show X 192.937 M
%%IncludeResource: font Helvetica
262.467 /Helvetica STDFONT
(-2) show X 0 M
%%IncludeResource: font Helvetica
423.333 /Helvetica STDFONT
(M) show CP X -101.051 M
%%IncludeResource: font AvantGarde-Book
262.467 /AvantGarde-Book STDFONT
(O) show M X -58.3193 M
%%IncludeResource: font AvantGarde-Book
186.267 /AvantGarde-Book STDFONT
( \267) show X 0 M
%%IncludeResource: font Helvetica
423.333 /Helvetica STDFONT
(\)]) show grestore gsave 888 3852 translate 0 0 M 90 rotate -2156.83 0 N
%%IncludeResource: font Symbol
423.333 /Symbol STDFONT
(f) show
%%IncludeResource: font Helvetica
423.333 /Helvetica STDFONT
(\(M) show X -101.051 M
%%IncludeResource: font Symbol
262.467 /Symbol STDFONT
(*) show X 0 M
%%IncludeResource: font Helvetica
423.333 /Helvetica STDFONT
(\) / \(h) show X 192.937 M
%%IncludeResource: font Helvetica
262.467 /Helvetica STDFONT
(3) show X 0 M
%%IncludeResource: font Helvetica
423.333 /Helvetica STDFONT
(Mpc) show X 192.937 M
%%IncludeResource: font Helvetica
262.467 /Helvetica STDFONT
(-3) show X 0 M
%%IncludeResource: font Helvetica
423.333 /Helvetica STDFONT
(lg) show X 192.937 M
%%IncludeResource: font Helvetica
262.467 /Helvetica STDFONT
(-1) show X 0 M
%%IncludeResource: font Helvetica
423.333 /Helvetica STDFONT
(M) show X -101.051 M
%%IncludeResource: font Symbol
262.467 /Symbol STDFONT
(*) show X 0 M
%%IncludeResource: font Helvetica
423.333 /Helvetica STDFONT
(\)) show grestore 30 setlinewidth L0 2220 1408 M 5038 0 R D 3410 1408 M
0 196 R D gsave 3410 880 translate 0 0 M -117.687 0 N
(9) show grestore 4613 1408 M 0 196 R D gsave 4613 880 translate 0 0 M
-235.373 0 N
(10) show grestore 5815 1408 M 0 196 R D gsave 5815 880 translate 0 0 M
-235.373 0 N
(11) show grestore 7018 1408 M 0 196 R D gsave 7018 880 translate 0 0 M
-235.373 0 N
(12) show grestore 2328 1408 M 0 98 R D 2449 1408 M 0 98 R D 2569 1408 M
0 98 R D 2689 1408 M 0 98 R D 2809 1408 M 0 98 R D 2929 1408 M 0 98 R D
3050 1408 M 0 98 R D 3170 1408 M 0 98 R D 3290 1408 M 0 98 R D 3531 1408 M
0 98 R D 3651 1408 M 0 98 R D 3771 1408 M 0 98 R D 3891 1408 M 0 98 R D
4012 1408 M 0 98 R D 4132 1408 M 0 98 R D 4252 1408 M 0 98 R D 4372 1408 M
0 98 R D 4493 1408 M 0 98 R D 4733 1408 M 0 98 R D 4853 1408 M 0 98 R D
4974 1408 M 0 98 R D 5094 1408 M 0 98 R D 5214 1408 M 0 98 R D 5334 1408 M
0 98 R D 5455 1408 M 0 98 R D 5575 1408 M 0 98 R D 5695 1408 M 0 98 R D
5935 1408 M 0 98 R D 6056 1408 M 0 98 R D 6176 1408 M 0 98 R D 6296 1408 M
0 98 R D 6416 1408 M 0 98 R D 6537 1408 M 0 98 R D 6657 1408 M 0 98 R D
6777 1408 M 0 98 R D 6897 1408 M 0 98 R D 7138 1408 M 0 98 R D 7258 1408 M
0 98 R D 2220 6296 M 5038 0 R D 3410 6296 M 0 -195 R D 4613 6296 M 0 -195 R
D 5815 6296 M 0 -195 R D 7018 6296 M 0 -195 R D 2328 6296 M 0 -98 R D
2449 6296 M 0 -98 R D 2569 6296 M 0 -98 R D 2689 6296 M 0 -98 R D
2809 6296 M 0 -98 R D 2929 6296 M 0 -98 R D 3050 6296 M 0 -98 R D
3170 6296 M 0 -98 R D 3290 6296 M 0 -98 R D 3531 6296 M 0 -98 R D
3651 6296 M 0 -98 R D 3771 6296 M 0 -98 R D 3891 6296 M 0 -98 R D
4012 6296 M 0 -98 R D 4132 6296 M 0 -98 R D 4252 6296 M 0 -98 R D
4372 6296 M 0 -98 R D 4493 6296 M 0 -98 R D 4733 6296 M 0 -98 R D
4853 6296 M 0 -98 R D 4974 6296 M 0 -98 R D 5094 6296 M 0 -98 R D
5214 6296 M 0 -98 R D 5334 6296 M 0 -98 R D 5455 6296 M 0 -98 R D
5575 6296 M 0 -98 R D 5695 6296 M 0 -98 R D 5935 6296 M 0 -98 R D
6056 6296 M 0 -98 R D 6176 6296 M 0 -98 R D 6296 6296 M 0 -98 R D
6416 6296 M 0 -98 R D 6537 6296 M 0 -98 R D 6657 6296 M 0 -98 R D
6777 6296 M 0 -98 R D 6897 6296 M 0 -98 R D 7138 6296 M 0 -98 R D
7258 6296 M 0 -98 R D 2220 1408 M 0 4888 R D 2220 1585 M 202 0 R D
gsave 2109 1445 translate 0 0 M -704.08 0 N
(10) show X 192.937 M
%%IncludeResource: font Helvetica
262.467 /Helvetica STDFONT
(-8) show grestore
%%IncludeResource: font Helvetica
423.333 /Helvetica STDFONT 2220 2764 M 202 0 R D
gsave 2109 2623 translate 0 0 M -704.08 0 N
(10) show X 192.937 M
%%IncludeResource: font Helvetica
262.467 /Helvetica STDFONT
(-6) show grestore
%%IncludeResource: font Helvetica
423.333 /Helvetica STDFONT 2220 3942 M 202 0 R D
gsave 2109 3801 translate 0 0 M -704.08 0 N
(10) show X 192.937 M
%%IncludeResource: font Helvetica
262.467 /Helvetica STDFONT
(-4) show grestore
%%IncludeResource: font Helvetica
423.333 /Helvetica STDFONT 2220 5120 M 202 0 R D
gsave 2109 4980 translate 0 0 M -704.08 0 N
(10) show X 192.937 M
%%IncludeResource: font Helvetica
262.467 /Helvetica STDFONT
(-2) show grestore
%%IncludeResource: font Helvetica
423.333 /Helvetica STDFONT 2220 2175 M 101 0 R D 2220 3353 M 101 0 R D
2220 4531 M 101 0 R D 2220 5709 M 101 0 R D 7258 1408 M 0 4888 R D
7258 1585 M -201 0 R D 7258 2764 M -201 0 R D 7258 3942 M -201 0 R D
7258 5120 M -201 0 R D 7258 2175 M -101 0 R D 7258 3353 M -101 0 R D
7258 4531 M -101 0 R D 7258 5709 M -101 0 R D 2220 5635 M 99 -198 R -99 0 R
D 2449 5640 M 111 -222 R -222 0 R 111 222 R D 2689 5618 M 111 -222 R
-222 0 R 111 222 R D 2929 5594 M 111 -222 R -222 0 R 111 222 R D 3170 5564 M
111 -222 R -222 0 R 111 222 R D 3410 5525 M 111 -222 R -222 0 R 111 222 R D
3651 5473 M 111 -222 R -222 0 R 111 222 R D 3891 5431 M 111 -222 R -222 0 R
111 222 R D 4132 5427 M 111 -222 R -222 0 R 111 222 R D 4372 5413 M
111 -222 R -222 0 R 111 222 R D 4613 5385 M 111 -222 R -222 0 R 111 222 R D
4853 5333 M 111 -222 R -222 0 R 111 222 R D 5094 5243 M 111 -222 R -222 0 R
111 222 R D 5334 5095 M 111 -222 R -222 0 R 111 222 R D 5575 4867 M
111 -222 R -222 0 R 111 222 R D 5815 4567 M 111 -222 R -222 0 R 111 222 R D
6056 4158 M 111 -222 R -222 0 R 111 222 R D 6296 3579 M 111 -222 R -222 0 R
111 222 R D 6537 2729 M 111 -222 R -222 0 R 111 222 R D 6777 1451 M 21 -43 R
D 6755 1408 M 22 43 R D 2220 5516 M 38 0 R -38 0 R D 2220 5576 M 38 0 R D
2398 5499 M 101 0 R -50 0 R 0 56 R -51 0 R 101 0 R D 2639 5479 M 100 0 R
-50 0 R 0 54 R -50 0 R 100 0 R D 2879 5456 M 101 0 R -51 0 R 0 51 R -50 0 R
101 0 R D 3120 5427 M 100 0 R -50 0 R 0 50 R -50 0 R 100 0 R D 3360 5388 M
101 0 R -51 0 R 0 50 R -50 0 R 101 0 R D 3601 5335 M 100 0 R -50 0 R 0 52 R
-50 0 R 100 0 R D 3841 5292 M 101 0 R -51 0 R 0 53 R -50 0 R 101 0 R D
4082 5292 M 100 0 R -50 0 R 0 46 R -50 0 R 100 0 R D 4322 5282 M 101 0 R
-51 0 R 0 39 R -50 0 R 101 0 R D 4562 5255 M 101 0 R -50 0 R 0 36 R -51 0 R
101 0 R D 4803 5205 M 101 0 R -51 0 R 0 33 R -50 0 R 101 0 R D 5043 5115 M
101 0 R -50 0 R 0 33 R -51 0 R 101 0 R D 5284 4964 M 101 0 R -51 0 R 0 38 R
-50 0 R 101 0 R D 5524 4732 M 101 0 R -50 0 R 0 47 R -51 0 R 101 0 R D
5765 4424 M 101 0 R -51 0 R 0 59 R -50 0 R 101 0 R D 6005 4010 M 101 0 R
-50 0 R 0 70 R -51 0 R 101 0 R D 6246 3427 M 101 0 R -51 0 R 0 77 R -50 0 R
101 0 R D 6486 2524 M 101 0 R -50 0 R 0 163 R -51 0 R 101 0 R D 6777 1408 M
0 777 R -50 0 R 101 0 R D 7018 1408 M 0 767 R -51 0 R 101 0 R D
0.761 0.000 0.000 setrgbcolor 2220 5616 M 306 -90 R 317 -69 R 318 -93 R
318 -5 R 317 -36 R 318 -79 R 318 -34 R 318 -257 R 317 -241 R 318 -448 R
318 -74 R 317 -663 R 318 -773 R 318 227 R D 0.000 0.549 0.000 setrgbcolor
2220 5599 M 306 -59 R 317 -81 R 318 -98 R 318 -52 R 317 -1 R 318 -72 R
318 -24 R 318 -161 R 317 -314 R 318 -402 R 318 -57 R 317 -751 R 318 -773 R
318 234 R D 0.000 0.000 1.000 setrgbcolor 2220 5384 M 306 -49 R 317 -36 R
318 -72 R 318 -44 R 317 12 R 318 -28 R 318 -10 R 318 -69 R 317 -183 R
318 -497 R 318 -217 R 317 0 R 318 -1437 R 318 -1291 R D
0.000 0.000 0.000 setrgbcolor 2976 3963 M 111 -222 R -222 0 R 111 222 R
111 -222 R -222 0 R 111 222 R D gsave 3480 3705 translate 0 0 M
(Li2009) show grestore 0.761 0.000 0.000 setrgbcolor 2724 3363 M 75 0 R
76 0 R 76 0 R 75 0 R 76 0 R 75 0 R 76 0 R 75 0 R 76 0 R D
0.000 0.549 0.000 setrgbcolor 2724 2874 M 75 0 R 76 0 R 76 0 R 75 0 R 76 0 R
75 0 R 76 0 R 75 0 R 76 0 R D 0.000 0.000 1.000 setrgbcolor 2724 2386 M
75 0 R 76 0 R 76 0 R 75 0 R 76 0 R 75 0 R 76 0 R 75 0 R 76 0 R D
0.761 0.000 0.000 setrgbcolor gsave 3480 3216 translate 0 0 M
(PhA2) show grestore 0.000 0.549 0.000 setrgbcolor
gsave 3480 2727 translate 0 0 M
(PhA3) show grestore 0.000 0.000 1.000 setrgbcolor
gsave 3480 2238 translate 0 0 M
(PhA4) show grestore 0.000 0.000 0.000 setrgbcolor
gsave 2724 1701 translate 0 0 M
(whole cluster) show grestore 7258 1408 M 5038 0 R D 8448 1408 M 0 196 R D
gsave 8448 880 translate 0 0 M -117.687 0 N
(9) show grestore 9651 1408 M 0 196 R D gsave 9651 880 translate 0 0 M
-235.373 0 N
(10) show grestore 10853 1408 M 0 196 R D gsave 10853 880 translate 0 0 M
-235.373 0 N
(11) show grestore 12056 1408 M 0 196 R D gsave 12056 880 translate 0 0 M
-235.373 0 N
(12) show grestore 7366 1408 M 0 98 R D 7487 1408 M 0 98 R D 7607 1408 M
0 98 R D 7727 1408 M 0 98 R D 7847 1408 M 0 98 R D 7967 1408 M 0 98 R D
8088 1408 M 0 98 R D 8208 1408 M 0 98 R D 8328 1408 M 0 98 R D 8569 1408 M
0 98 R D 8689 1408 M 0 98 R D 8809 1408 M 0 98 R D 8929 1408 M 0 98 R D
9050 1408 M 0 98 R D 9170 1408 M 0 98 R D 9290 1408 M 0 98 R D 9410 1408 M
0 98 R D 9531 1408 M 0 98 R D 9771 1408 M 0 98 R D 9891 1408 M 0 98 R D
10012 1408 M 0 98 R D 10132 1408 M 0 98 R D 10252 1408 M 0 98 R D
10372 1408 M 0 98 R D 10493 1408 M 0 98 R D 10613 1408 M 0 98 R D
10733 1408 M 0 98 R D 10973 1408 M 0 98 R D 11094 1408 M 0 98 R D
11214 1408 M 0 98 R D 11334 1408 M 0 98 R D 11454 1408 M 0 98 R D
11575 1408 M 0 98 R D 11695 1408 M 0 98 R D 11815 1408 M 0 98 R D
11935 1408 M 0 98 R D 12176 1408 M 0 98 R D 12296 1408 M 0 98 R D
7258 6296 M 5038 0 R D 8448 6296 M 0 -195 R D 9651 6296 M 0 -195 R D
10853 6296 M 0 -195 R D 12056 6296 M 0 -195 R D 7366 6296 M 0 -98 R D
7487 6296 M 0 -98 R D 7607 6296 M 0 -98 R D 7727 6296 M 0 -98 R D
7847 6296 M 0 -98 R D 7967 6296 M 0 -98 R D 8088 6296 M 0 -98 R D
8208 6296 M 0 -98 R D 8328 6296 M 0 -98 R D 8569 6296 M 0 -98 R D
8689 6296 M 0 -98 R D 8809 6296 M 0 -98 R D 8929 6296 M 0 -98 R D
9050 6296 M 0 -98 R D 9170 6296 M 0 -98 R D 9290 6296 M 0 -98 R D
9410 6296 M 0 -98 R D 9531 6296 M 0 -98 R D 9771 6296 M 0 -98 R D
9891 6296 M 0 -98 R D 10012 6296 M 0 -98 R D 10132 6296 M 0 -98 R D
10252 6296 M 0 -98 R D 10372 6296 M 0 -98 R D 10493 6296 M 0 -98 R D
10613 6296 M 0 -98 R D 10733 6296 M 0 -98 R D 10973 6296 M 0 -98 R D
11094 6296 M 0 -98 R D 11214 6296 M 0 -98 R D 11334 6296 M 0 -98 R D
11454 6296 M 0 -98 R D 11575 6296 M 0 -98 R D 11695 6296 M 0 -98 R D
11815 6296 M 0 -98 R D 11935 6296 M 0 -98 R D 12176 6296 M 0 -98 R D
12296 6296 M 0 -98 R D 7258 1408 M 0 4888 R D 7258 1585 M 202 0 R D
gsave 7147 1445 translate 0 0 M -117.687 0 N
( ) show grestore 7258 2764 M 202 0 R D gsave 7147 2623 translate 0 0 M
-117.687 0 N
( ) show grestore 7258 3942 M 202 0 R D gsave 7147 3801 translate 0 0 M
-117.687 0 N
( ) show grestore 7258 5120 M 202 0 R D gsave 7147 4980 translate 0 0 M
-117.687 0 N
( ) show grestore 7258 2175 M 101 0 R D 7258 3353 M 101 0 R D 7258 4531 M
101 0 R D 7258 5709 M 101 0 R D 12296 1408 M 0 4888 R D 12296 1585 M
-201 0 R D 12296 2764 M -201 0 R D 12296 3942 M -201 0 R D 12296 5120 M
-201 0 R D 12296 2175 M -101 0 R D 12296 3353 M -101 0 R D 12296 4531 M
-101 0 R D 12296 5709 M -101 0 R D 7258 5635 M 99 -198 R -99 0 R D
7487 5640 M 111 -222 R -222 0 R 111 222 R D 7727 5618 M 111 -222 R -222 0 R
111 222 R D 7967 5594 M 111 -222 R -222 0 R 111 222 R D 8208 5564 M
111 -222 R -222 0 R 111 222 R D 8448 5525 M 111 -222 R -222 0 R 111 222 R D
8689 5473 M 111 -222 R -222 0 R 111 222 R D 8929 5431 M 111 -222 R -222 0 R
111 222 R D 9170 5427 M 111 -222 R -222 0 R 111 222 R D 9410 5413 M
111 -222 R -222 0 R 111 222 R D 9651 5385 M 111 -222 R -222 0 R 111 222 R D
9891 5333 M 111 -222 R -222 0 R 111 222 R D 10132 5243 M 111 -222 R -222 0 R
111 222 R D 10372 5095 M 111 -222 R -222 0 R 111 222 R D 10613 4867 M
111 -222 R -222 0 R 111 222 R D 10853 4567 M 111 -222 R -222 0 R 111 222 R D
11094 4158 M 111 -222 R -222 0 R 111 222 R D 11334 3579 M 111 -222 R
-222 0 R 111 222 R D 11575 2729 M 111 -222 R -222 0 R 111 222 R D
11815 1451 M 21 -43 R D 11793 1408 M 22 43 R D 7258 5516 M 38 0 R -38 0 R D
7258 5576 M 38 0 R D 7436 5499 M 101 0 R -50 0 R 0 56 R -51 0 R 101 0 R D
7677 5479 M 100 0 R -50 0 R 0 54 R -50 0 R 100 0 R D 7917 5456 M 101 0 R
-51 0 R 0 51 R -50 0 R 101 0 R D 8158 5427 M 100 0 R -50 0 R 0 50 R -50 0 R
100 0 R D 8398 5388 M 101 0 R -51 0 R 0 50 R -50 0 R 101 0 R D 8639 5335 M
100 0 R -50 0 R 0 52 R -50 0 R 100 0 R D 8879 5292 M 101 0 R -51 0 R 0 53 R
-50 0 R 101 0 R D 9120 5292 M 100 0 R -50 0 R 0 46 R -50 0 R 100 0 R D
9360 5282 M 101 0 R -51 0 R 0 39 R -50 0 R 101 0 R D 9600 5255 M 101 0 R
-50 0 R 0 36 R -51 0 R 101 0 R D 9841 5205 M 101 0 R -51 0 R 0 33 R -50 0 R
101 0 R D 10081 5115 M 101 0 R -50 0 R 0 33 R -51 0 R 101 0 R D 10322 4964 M
101 0 R -51 0 R 0 38 R -50 0 R 101 0 R D 10562 4732 M 101 0 R -50 0 R 0 47 R
-51 0 R 101 0 R D 10803 4424 M 101 0 R -51 0 R 0 59 R -50 0 R 101 0 R D
11043 4010 M 101 0 R -50 0 R 0 70 R -51 0 R 101 0 R D 11284 3427 M 101 0 R
-51 0 R 0 77 R -50 0 R 101 0 R D 11524 2524 M 101 0 R -50 0 R 0 163 R
-51 0 R 101 0 R D 11815 1408 M 0 777 R -50 0 R 101 0 R D 12056 1408 M
0 767 R -51 0 R 101 0 R D 0.761 0.000 0.000 setrgbcolor 7258 5582 M
306 -76 R 317 -81 R 318 -73 R 318 -45 R 317 -29 R 318 -41 R 318 -62 R
318 -186 R 317 -327 R 318 -344 R 318 -292 R 317 -283 R 318 -666 R 318 -352 R
D 7258 5544 M 38 0 R -38 0 R D 7258 5627 M 38 0 R D 7513 5470 M 101 0 R
-50 0 R 0 71 R -51 0 R 101 0 R D 7831 5384 M 101 0 R -51 0 R 0 82 R -50 0 R
101 0 R D 8149 5313 M 101 0 R -51 0 R 0 78 R -50 0 R 101 0 R D 8466 5262 M
101 0 R -50 0 R 0 90 R -51 0 R 101 0 R D 8784 5238 M 101 0 R -51 0 R 0 81 R
-50 0 R 101 0 R D 9102 5189 M 101 0 R -51 0 R 0 97 R -50 0 R 101 0 R D
9419 5126 M 101 0 R -50 0 R 0 99 R -51 0 R 101 0 R D 9737 4946 M 101 0 R
-50 0 R 0 86 R -51 0 R 101 0 R D 10055 4582 M 101 0 R -51 0 R 0 161 R
-50 0 R 101 0 R D 10373 4210 M 100 0 R -50 0 R 0 215 R -50 0 R 100 0 R D
10690 3891 M 101 0 R -50 0 R 0 269 R -51 0 R 101 0 R D 11008 3536 M 101 0 R
-51 0 R 0 415 R -50 0 R 101 0 R D 11326 2589 M 100 0 R -50 0 R 0 976 R
-50 0 R 100 0 R D 11643 1964 M 101 0 R -50 0 R 0 1522 R -51 0 R 101 0 R D
0.000 0.000 1.000 setrgbcolor 7258 5357 M 306 -24 R 317 -46 R 318 -47 R
318 -42 R 317 -24 R 318 -9 R 318 10 R 318 -44 R 317 -222 R 318 -334 R
318 -240 R 317 -198 R 318 -316 R 318 -1048 R D 7258 5221 M 38 0 R -38 0 R D
7258 5496 M 38 0 R D 7513 5246 M 101 0 R -50 0 R 0 175 R -51 0 R 101 0 R D
7831 5219 M 101 0 R -51 0 R 0 137 R -50 0 R 101 0 R D 8149 5166 M 101 0 R
-51 0 R 0 147 R -50 0 R 101 0 R D 8466 5138 M 101 0 R -50 0 R 0 121 R
-51 0 R 101 0 R D 8784 5116 M 101 0 R -51 0 R 0 116 R -50 0 R 101 0 R D
9102 5116 M 101 0 R -51 0 R 0 97 R -50 0 R 101 0 R D 9419 5117 M 101 0 R
-50 0 R 0 116 R -51 0 R 101 0 R D 9737 5091 M 101 0 R -50 0 R 0 80 R -51 0 R
101 0 R D 10055 4858 M 101 0 R -51 0 R 0 102 R -50 0 R 101 0 R D
10373 4478 M 100 0 R -50 0 R 0 194 R -50 0 R 100 0 R D 10690 4187 M 101 0 R
-50 0 R 0 296 R -51 0 R 101 0 R D 11008 4013 M 101 0 R -51 0 R 0 249 R
-50 0 R 101 0 R D 11326 3397 M 100 0 R -50 0 R 0 847 R -50 0 R 100 0 R D
11643 1528 M 101 0 R -50 0 R 0 2490 R -51 0 R 101 0 R D
0.761 0.000 0.000 setrgbcolor 7762 2874 M 75 0 R 76 0 R 76 0 R 75 0 R 76 0 R
75 0 R 76 0 R 75 0 R 76 0 R D 0.000 0.000 1.000 setrgbcolor 7762 2386 M
75 0 R 76 0 R 76 0 R 75 0 R 76 0 R 75 0 R 76 0 R 75 0 R 76 0 R D
0.761 0.000 0.000 setrgbcolor gsave 8518 2727 translate 0 0 M
(Ph2) show grestore 0.000 0.000 1.000 setrgbcolor
gsave 8518 2238 translate 0 0 M
(Ph4) show grestore 0.000 0.000 0.000 setrgbcolor
gsave 7762 1701 translate 0 0 M
(whole cluster) show grestore 12296 1408 M 5038 0 R D 13486 1408 M 0 196 R D
gsave 13486 880 translate 0 0 M -117.687 0 N
(9) show grestore 14689 1408 M 0 196 R D gsave 14689 880 translate 0 0 M
-235.373 0 N
(10) show grestore 15891 1408 M 0 196 R D gsave 15891 880 translate 0 0 M
-235.373 0 N
(11) show grestore 17094 1408 M 0 196 R D gsave 17094 880 translate 0 0 M
-235.373 0 N
(12) show grestore 12404 1408 M 0 98 R D 12525 1408 M 0 98 R D 12645 1408 M
0 98 R D 12765 1408 M 0 98 R D 12885 1408 M 0 98 R D 13005 1408 M 0 98 R D
13126 1408 M 0 98 R D 13246 1408 M 0 98 R D 13366 1408 M 0 98 R D
13607 1408 M 0 98 R D 13727 1408 M 0 98 R D 13847 1408 M 0 98 R D
13967 1408 M 0 98 R D 14088 1408 M 0 98 R D 14208 1408 M 0 98 R D
14328 1408 M 0 98 R D 14448 1408 M 0 98 R D 14569 1408 M 0 98 R D
14809 1408 M 0 98 R D 14929 1408 M 0 98 R D 15050 1408 M 0 98 R D
15170 1408 M 0 98 R D 15290 1408 M 0 98 R D 15410 1408 M 0 98 R D
15531 1408 M 0 98 R D 15651 1408 M 0 98 R D 15771 1408 M 0 98 R D
16011 1408 M 0 98 R D 16132 1408 M 0 98 R D 16252 1408 M 0 98 R D
16372 1408 M 0 98 R D 16492 1408 M 0 98 R D 16613 1408 M 0 98 R D
16733 1408 M 0 98 R D 16853 1408 M 0 98 R D 16973 1408 M 0 98 R D
17214 1408 M 0 98 R D 17334 1408 M 0 98 R D 12296 6296 M 5038 0 R D
13486 6296 M 0 -195 R D 14689 6296 M 0 -195 R D 15891 6296 M 0 -195 R D
17094 6296 M 0 -195 R D 12404 6296 M 0 -98 R D 12525 6296 M 0 -98 R D
12645 6296 M 0 -98 R D 12765 6296 M 0 -98 R D 12885 6296 M 0 -98 R D
13005 6296 M 0 -98 R D 13126 6296 M 0 -98 R D 13246 6296 M 0 -98 R D
13366 6296 M 0 -98 R D 13607 6296 M 0 -98 R D 13727 6296 M 0 -98 R D
13847 6296 M 0 -98 R D 13967 6296 M 0 -98 R D 14088 6296 M 0 -98 R D
14208 6296 M 0 -98 R D 14328 6296 M 0 -98 R D 14448 6296 M 0 -98 R D
14569 6296 M 0 -98 R D 14809 6296 M 0 -98 R D 14929 6296 M 0 -98 R D
15050 6296 M 0 -98 R D 15170 6296 M 0 -98 R D 15290 6296 M 0 -98 R D
15410 6296 M 0 -98 R D 15531 6296 M 0 -98 R D 15651 6296 M 0 -98 R D
15771 6296 M 0 -98 R D 16011 6296 M 0 -98 R D 16132 6296 M 0 -98 R D
16252 6296 M 0 -98 R D 16372 6296 M 0 -98 R D 16492 6296 M 0 -98 R D
16613 6296 M 0 -98 R D 16733 6296 M 0 -98 R D 16853 6296 M 0 -98 R D
16973 6296 M 0 -98 R D 17214 6296 M 0 -98 R D 17334 6296 M 0 -98 R D
12296 1408 M 0 4888 R D 12296 1585 M 202 0 R D
gsave 12185 1445 translate 0 0 M -117.687 0 N
( ) show grestore 12296 2764 M 202 0 R D gsave 12185 2623 translate 0 0 M
-117.687 0 N
( ) show grestore 12296 3942 M 202 0 R D gsave 12185 3801 translate 0 0 M
-117.687 0 N
( ) show grestore 12296 5120 M 202 0 R D gsave 12185 4980 translate 0 0 M
-117.687 0 N
( ) show grestore 12296 2175 M 101 0 R D 12296 3353 M 101 0 R D 12296 4531 M
101 0 R D 12296 5709 M 101 0 R D 17334 1408 M 0 4888 R D 17334 1585 M
-201 0 R D 17334 2764 M -201 0 R D 17334 3942 M -201 0 R D 17334 5120 M
-201 0 R D 17334 2175 M -101 0 R D 17334 3353 M -101 0 R D 17334 4531 M
-101 0 R D 17334 5709 M -101 0 R D 14076 5167 M 111 -111 R -111 -111 R
-111 111 R 111 111 R D 14252 5177 M 111 -111 R -111 -111 R -111 111 R
111 111 R D 14429 5181 M 111 -111 R -111 -111 R -111 111 R 111 111 R D
14605 5175 M 111 -111 R -111 -111 R -111 111 R 111 111 R D 14781 5157 M
111 -111 R -111 -111 R -111 111 R 111 111 R D 14958 5122 M 111 -111 R
-111 -111 R -111 111 R 111 111 R D 15134 5062 M 111 -111 R -111 -111 R
-111 111 R 111 111 R D 15310 4967 M 111 -111 R -111 -111 R -111 111 R
111 111 R D 15487 4823 M 111 -111 R -111 -111 R -111 111 R 111 111 R D
15663 4612 M 111 -111 R -111 -111 R -111 111 R 111 111 R D 15839 4305 M
111 -111 R -111 -111 R -111 111 R 111 111 R D 16016 3865 M 111 -111 R
-111 -111 R -111 111 R 111 111 R D 16192 3237 M 111 -111 R -111 -111 R
-111 111 R 111 111 R D 16368 2347 M 111 -111 R -111 -111 R -111 111 R
111 111 R D 14025 4982 M 101 0 R -50 0 R 0 151 R -51 0 R 101 0 R D
14202 4998 M 101 0 R -51 0 R 0 138 R -50 0 R 101 0 R D 14378 5006 M 101 0 R
-50 0 R 0 129 R -51 0 R 101 0 R D 14555 5004 M 100 0 R -50 0 R 0 121 R
-50 0 R 100 0 R D 14731 4987 M 101 0 R -51 0 R 0 118 R -50 0 R 101 0 R D
14907 4949 M 101 0 R -50 0 R 0 121 R -51 0 R 101 0 R D 15084 4883 M 100 0 R
-50 0 R 0 131 R -50 0 R 100 0 R D 15260 4775 M 101 0 R -51 0 R 0 154 R
-50 0 R 101 0 R D 15436 4611 M 101 0 R -50 0 R 0 191 R -51 0 R 101 0 R D
15613 4367 M 100 0 R -50 0 R 0 250 R -50 0 R 100 0 R D 15789 4011 M 101 0 R
-51 0 R 0 340 R -50 0 R 101 0 R D 15965 3497 M 101 0 R -50 0 R 0 475 R
-51 0 R 101 0 R D 16142 2764 M 100 0 R -50 0 R 0 669 R -50 0 R 100 0 R D
16318 1722 M 101 0 R -51 0 R 0 948 R -50 0 R 101 0 R D 16545 1408 M 0 187 R
-51 0 R 101 0 R D 50 setlinewidth L2 12296 5803 M 116 -36 R 291 -44 R
302 -48 R 302 -70 R 302 -79 R 300 -35 R 302 -74 R 302 -40 R 302 13 R
301 -65 R 291 -215 R 302 -232 R 301 -307 R 302 -110 R 301 -170 R D
30 setlinewidth L0 12362 5743 M 101 0 R -51 0 R 0 46 R -50 0 R 101 0 R D
12653 5705 M 101 0 R -51 0 R 0 36 R -50 0 R 101 0 R D 12955 5651 M 100 0 R
-50 0 R 0 46 R -50 0 R 100 0 R D 13256 5576 M 101 0 R -50 0 R 0 55 R -51 0 R
101 0 R D 13558 5497 M 101 0 R -50 0 R 0 55 R -51 0 R 101 0 R D 13859 5462 M
101 0 R -51 0 R 0 55 R -50 0 R 101 0 R D 14161 5382 M 100 0 R -50 0 R 0 65 R
-50 0 R 100 0 R D 14462 5342 M 101 0 R -50 0 R 0 66 R -51 0 R 101 0 R D
14764 5344 M 101 0 R -50 0 R 0 86 R -51 0 R 101 0 R D 15066 5278 M 101 0 R
-51 0 R 0 86 R -50 0 R 101 0 R D 15357 5044 M 101 0 R -51 0 R 0 119 R
-50 0 R 101 0 R D 15659 4772 M 101 0 R -51 0 R 0 180 R -50 0 R 101 0 R D
15959 4360 M 101 0 R -50 0 R 0 325 R -51 0 R 101 0 R D 16261 4127 M 101 0 R
-50 0 R 0 475 R -51 0 R 101 0 R D 16563 3236 M 101 0 R -51 0 R 0 1230 R
-50 0 R 101 0 R D 0.761 0.000 0.000 setrgbcolor 12296 5707 M 306 -71 R
317 -75 R 318 -67 R 318 -31 R 317 -28 R 318 -16 R 318 -101 R 318 -228 R
317 -316 R 318 -359 R 318 -339 R 317 -402 R 318 -648 R 318 -500 R D
12296 5680 M 38 0 R -38 0 R D 12296 5740 M 38 0 R D 12551 5612 M 101 0 R
-50 0 R 0 48 R -51 0 R 101 0 R D 12869 5531 M 101 0 R -51 0 R 0 60 R -50 0 R
101 0 R D 13187 5473 M 101 0 R -51 0 R 0 41 R -50 0 R 101 0 R D 13504 5446 M
101 0 R -50 0 R 0 33 R -51 0 R 101 0 R D 13822 5416 M 101 0 R -51 0 R 0 39 R
-50 0 R 101 0 R D 14140 5384 M 101 0 R -51 0 R 0 69 R -50 0 R 101 0 R D
14457 5284 M 101 0 R -50 0 R 0 67 R -51 0 R 101 0 R D 14775 5021 M 101 0 R
-50 0 R 0 138 R -51 0 R 101 0 R D 15093 4685 M 101 0 R -51 0 R 0 178 R
-50 0 R 101 0 R D 15411 4304 M 100 0 R -50 0 R 0 222 R -50 0 R 100 0 R D
15728 3980 M 101 0 R -50 0 R 0 192 R -51 0 R 101 0 R D 16046 3382 M 101 0 R
-51 0 R 0 584 R -50 0 R 101 0 R D 16364 2478 M 100 0 R -50 0 R 0 1096 R
-50 0 R 100 0 R D 16681 1470 M 101 0 R -50 0 R 0 2111 R -51 0 R 101 0 R D
0.000 0.000 1.000 setrgbcolor 12296 5410 M 306 -10 R 317 -9 R 318 -48 R
318 -14 R 317 -24 R 318 9 R 318 43 R 318 -58 R 317 -243 R 318 -297 R
318 -275 R 317 -208 R 318 -673 R 318 -1822 R D 12296 5211 M 38 0 R -38 0 R D
12296 5612 M 38 0 R D 12551 5273 M 101 0 R -50 0 R 0 254 R -51 0 R 101 0 R D
12869 5292 M 101 0 R -51 0 R 0 198 R -50 0 R 101 0 R D 13187 5244 M 101 0 R
-51 0 R 0 197 R -50 0 R 101 0 R D 13504 5239 M 101 0 R -50 0 R 0 180 R
-51 0 R 101 0 R D 13822 5234 M 101 0 R -51 0 R 0 141 R -50 0 R 101 0 R D
14140 5259 M 101 0 R -51 0 R 0 110 R -50 0 R 101 0 R D 14457 5316 M 101 0 R
-50 0 R 0 81 R -51 0 R 101 0 R D 14775 5252 M 101 0 R -50 0 R 0 94 R -51 0 R
101 0 R D 15093 4973 M 101 0 R -51 0 R 0 166 R -50 0 R 101 0 R D
15411 4672 M 100 0 R -50 0 R 0 173 R -50 0 R 100 0 R D 15728 4297 M 101 0 R
-50 0 R 0 375 R -51 0 R 101 0 R D 16046 3977 M 101 0 R -51 0 R 0 598 R
-50 0 R 101 0 R D 16364 2795 M 100 0 R -50 0 R 0 1616 R -50 0 R 100 0 R D
16732 1408 M 0 1328 R -51 0 R 101 0 R D 0.000 0.000 0.000 setrgbcolor
13052 3963 M 111 -111 R -111 -111 R -111 111 R 111 111 R 111 -111 R
-111 -111 R -111 111 R 111 111 R D gsave 13556 3705 translate 0 0 M
(Vulcani2011) show grestore L2 12800 3363 M 75 0 R 76 0 R 76 0 R 75 0 R
76 0 R 75 0 R 76 0 R 75 0 R 76 0 R D L0 0.761 0.000 0.000 setrgbcolor
12800 2874 M 75 0 R 76 0 R 76 0 R 75 0 R 76 0 R 75 0 R 76 0 R 75 0 R 76 0 R
D 0.000 0.000 1.000 setrgbcolor 12800 2386 M 75 0 R 76 0 R 76 0 R 75 0 R
76 0 R 75 0 R 76 0 R 75 0 R 76 0 R D 0.000 0.000 0.000 setrgbcolor
gsave 13556 3216 translate 0 0 M
(Guo2011) show grestore 0.761 0.000 0.000 setrgbcolor
gsave 13556 2727 translate 0 0 M
(Ph2) show grestore 0.000 0.000 1.000 setrgbcolor
gsave 13556 2238 translate 0 0 M
(Ph4) show grestore 0.000 0.000 0.000 setrgbcolor
gsave 12800 1701 translate 0 0 M
(within R) show X -101.051 M
%%IncludeResource: font Helvetica
262.467 /Helvetica STDFONT
(200) show grestore
%%IncludeResource: font Helvetica
423.333 /Helvetica STDFONT
%%PageTrailer
end
%%PageResources: font Helvetica
%%+ font Symbol
%%+ font AvantGarde-Book
%%Trailer
%%Pages: 1
%%DocumentNeededResources: font Helvetica
%%+ font Symbol
%%+ font AvantGarde-Book
%%EOF
