%!PS-Adobe-3.0 EPSF-3.0
%%BoundingBox: 0 0 425 198
%%Title: Graphics produced by IDL
%%For: jlgan@Hserver, /home/jlgan/work/phoenix
%%Creator: IDL Version 7.1.1 (linux x86_64 m64)
%%CreationDate: Wed Jun  4 18:35:59 2014
%%DocumentData: Clean7bit
%%Requirements: color
%%LanguageLevel: 1
%%PageOrder: Ascend
%%Pages: (atend)
%%DocumentNeededResources: (atend)
%%EndComments
%%BeginProlog
%+ prolog.ps -- Prolog for IDL generated PostScript files
%+ Copyright (c) 1988-2009 ITT Visual Information Solutions. All Rights Reserved.
%v 5
/$IDL_DICT 40 dict def $IDL_DICT begin /bdef { bind def } bind def /C
{currentpoint newpath moveto} bdef /CP {currentpoint} bdef /D {currentpoint
stroke moveto} bdef /F {closepath fill} bdef /K { setgray } bdef /M {moveto}
bdef /N {rmoveto} bdef /P {lineto} bdef /R {rlineto} bdef /S {gsave show
grestore} bdef /X {currentpoint pop} bdef /Z {gsave currentpoint lineto 20
setlinewidth 1 setlinecap stroke grestore} bdef /L0 {[] 0 setdash} bdef /L1
{[40 100] 0 setdash} bdef /L2 {[200 200] 0 setdash} bdef /L3 {[200 100 50
100] 0 setdash} bdef /L4 {[300 100 50 100 50 100 50 100] 0 setdash} bdef /L5
{[400 200] 0 setdash} bdef /STDFONT { findfont exch scalefont setfont } bdef
/ISOFONT { findfont dup length dict begin { 1 index /FID ne {def} {pop pop}
ifelse } forall /Encoding ISOLatin1Encoding def currentdict end /idltmpfont
exch definefont exch scalefont setfont } bdef /ISOBULLET { gsave /Helvetica
findfont exch scalefont setfont (\267) show currentpoint grestore moveto}
bdef /MITERLIMIT { 2.5 setmiterlimit } bdef end
%%EndProlog
%%Page: 0 1
%%PageRequirements: color
%%PageResources: (atend)
%%PageOrientation: Portrait
%%PageBoundingBox: 0 0 425 198
%%BeginPageSetup
$IDL_DICT begin 0.0283465 dup scale MITERLIMIT
%%IncludeResource: font Helvetica
423.333 /Helvetica STDFONT
%%EndPageSetup
0.000 0.000 0.000 setrgbcolor gsave 8277 352 translate 0 0 M -1652.34 0 N
(log) show X -101.051 M
%%IncludeResource: font Helvetica
262.467 /Helvetica STDFONT
(10) show X 0 M
%%IncludeResource: font Helvetica
423.333 /Helvetica STDFONT
([M) show X -101.051 M
%%IncludeResource: font Symbol
262.467 /Symbol STDFONT
(*) show X 0 M
%%IncludeResource: font Helvetica
423.333 /Helvetica STDFONT
( / \(h) show X 192.937 M
%%IncludeResource: font Helvetica
262.467 /Helvetica STDFONT
(-2) show X 0 M
%%IncludeResource: font Helvetica
423.333 /Helvetica STDFONT
(M) show CP X -101.051 M
%%IncludeResource: font AvantGarde-Book
262.467 /AvantGarde-Book STDFONT
(O) show M X -58.3193 M
%%IncludeResource: font AvantGarde-Book
186.267 /AvantGarde-Book STDFONT
( \267) show X 0 M
%%IncludeResource: font Helvetica
423.333 /Helvetica STDFONT
(\)]) show grestore gsave 888 3852 translate 0 0 M 90 rotate -2156.83 0 N
%%IncludeResource: font Symbol
423.333 /Symbol STDFONT
(f) show
%%IncludeResource: font Helvetica
423.333 /Helvetica STDFONT
(\(M) show X -101.051 M
%%IncludeResource: font Symbol
262.467 /Symbol STDFONT
(*) show X 0 M
%%IncludeResource: font Helvetica
423.333 /Helvetica STDFONT
(\) / \(h) show X 192.937 M
%%IncludeResource: font Helvetica
262.467 /Helvetica STDFONT
(3) show X 0 M
%%IncludeResource: font Helvetica
423.333 /Helvetica STDFONT
(Mpc) show X 192.937 M
%%IncludeResource: font Helvetica
262.467 /Helvetica STDFONT
(-3) show X 0 M
%%IncludeResource: font Helvetica
423.333 /Helvetica STDFONT
(lg) show X 192.937 M
%%IncludeResource: font Helvetica
262.467 /Helvetica STDFONT
(-1) show X 0 M
%%IncludeResource: font Helvetica
423.333 /Helvetica STDFONT
(M) show X -101.051 M
%%IncludeResource: font Symbol
262.467 /Symbol STDFONT
(*) show X 0 M
%%IncludeResource: font Helvetica
423.333 /Helvetica STDFONT
(\)) show grestore 30 setlinewidth L0 2220 1408 M 6057 0 R D 3651 1408 M
0 196 R D gsave 3651 880 translate 0 0 M -117.687 0 N
(9) show grestore 5097 1408 M 0 196 R D gsave 5097 880 translate 0 0 M
-235.373 0 N
(10) show grestore 6542 1408 M 0 196 R D gsave 6542 880 translate 0 0 M
-235.373 0 N
(11) show grestore 7988 1408 M 0 196 R D gsave 7988 880 translate 0 0 M
-235.373 0 N
(12) show grestore 2350 1408 M 0 98 R D 2495 1408 M 0 98 R D 2639 1408 M
0 98 R D 2784 1408 M 0 98 R D 2928 1408 M 0 98 R D 3073 1408 M 0 98 R D
3218 1408 M 0 98 R D 3362 1408 M 0 98 R D 3507 1408 M 0 98 R D 3796 1408 M
0 98 R D 3940 1408 M 0 98 R D 4085 1408 M 0 98 R D 4229 1408 M 0 98 R D
4374 1408 M 0 98 R D 4519 1408 M 0 98 R D 4663 1408 M 0 98 R D 4808 1408 M
0 98 R D 4952 1408 M 0 98 R D 5241 1408 M 0 98 R D 5386 1408 M 0 98 R D
5530 1408 M 0 98 R D 5675 1408 M 0 98 R D 5820 1408 M 0 98 R D 5964 1408 M
0 98 R D 6109 1408 M 0 98 R D 6253 1408 M 0 98 R D 6398 1408 M 0 98 R D
6687 1408 M 0 98 R D 6831 1408 M 0 98 R D 6976 1408 M 0 98 R D 7121 1408 M
0 98 R D 7265 1408 M 0 98 R D 7410 1408 M 0 98 R D 7554 1408 M 0 98 R D
7699 1408 M 0 98 R D 7843 1408 M 0 98 R D 8133 1408 M 0 98 R D 8277 1408 M
0 98 R D 2220 6296 M 6057 0 R D 3651 6296 M 0 -195 R D 5097 6296 M 0 -195 R
D 6542 6296 M 0 -195 R D 7988 6296 M 0 -195 R D 2350 6296 M 0 -98 R D
2495 6296 M 0 -98 R D 2639 6296 M 0 -98 R D 2784 6296 M 0 -98 R D
2928 6296 M 0 -98 R D 3073 6296 M 0 -98 R D 3218 6296 M 0 -98 R D
3362 6296 M 0 -98 R D 3507 6296 M 0 -98 R D 3796 6296 M 0 -98 R D
3940 6296 M 0 -98 R D 4085 6296 M 0 -98 R D 4229 6296 M 0 -98 R D
4374 6296 M 0 -98 R D 4519 6296 M 0 -98 R D 4663 6296 M 0 -98 R D
4808 6296 M 0 -98 R D 4952 6296 M 0 -98 R D 5241 6296 M 0 -98 R D
5386 6296 M 0 -98 R D 5530 6296 M 0 -98 R D 5675 6296 M 0 -98 R D
5820 6296 M 0 -98 R D 5964 6296 M 0 -98 R D 6109 6296 M 0 -98 R D
6253 6296 M 0 -98 R D 6398 6296 M 0 -98 R D 6687 6296 M 0 -98 R D
6831 6296 M 0 -98 R D 6976 6296 M 0 -98 R D 7121 6296 M 0 -98 R D
7265 6296 M 0 -98 R D 7410 6296 M 0 -98 R D 7554 6296 M 0 -98 R D
7699 6296 M 0 -98 R D 7843 6296 M 0 -98 R D 8133 6296 M 0 -98 R D
8277 6296 M 0 -98 R D 2220 1408 M 0 4888 R D 2220 1585 M 242 0 R D
gsave 2109 1445 translate 0 0 M -704.08 0 N
(10) show X 192.937 M
%%IncludeResource: font Helvetica
262.467 /Helvetica STDFONT
(-8) show grestore
%%IncludeResource: font Helvetica
423.333 /Helvetica STDFONT 2220 2764 M 242 0 R D
gsave 2109 2623 translate 0 0 M -704.08 0 N
(10) show X 192.937 M
%%IncludeResource: font Helvetica
262.467 /Helvetica STDFONT
(-6) show grestore
%%IncludeResource: font Helvetica
423.333 /Helvetica STDFONT 2220 3942 M 242 0 R D
gsave 2109 3801 translate 0 0 M -704.08 0 N
(10) show X 192.937 M
%%IncludeResource: font Helvetica
262.467 /Helvetica STDFONT
(-4) show grestore
%%IncludeResource: font Helvetica
423.333 /Helvetica STDFONT 2220 5120 M 242 0 R D
gsave 2109 4980 translate 0 0 M -704.08 0 N
(10) show X 192.937 M
%%IncludeResource: font Helvetica
262.467 /Helvetica STDFONT
(-2) show grestore
%%IncludeResource: font Helvetica
423.333 /Helvetica STDFONT 2220 2175 M 121 0 R D 2220 3353 M 121 0 R D
2220 4531 M 121 0 R D 2220 5709 M 121 0 R D 8277 1408 M 0 4888 R D
8277 1585 M -242 0 R D 8277 2764 M -242 0 R D 8277 3942 M -242 0 R D
8277 5120 M -242 0 R D 8277 2175 M -121 0 R D 8277 3353 M -121 0 R D
8277 4531 M -121 0 R D 8277 5709 M -121 0 R D 2495 5308 M 111 0 R 0 -222 R
-222 0 R 0 222 R 222 0 R D 2639 5467 M 111 0 R 0 -222 R -222 0 R 0 222 R
222 0 R D 2784 5318 M 111 0 R 0 -222 R -222 0 R 0 222 R 222 0 R D
2928 5199 M 111 0 R 0 -222 R -222 0 R 0 222 R 222 0 R D 3073 5180 M 111 0 R
0 -222 R -222 0 R 0 222 R 222 0 R D 3218 5261 M 111 0 R 0 -222 R -222 0 R
0 222 R 222 0 R D 3362 5171 M 111 0 R 0 -222 R -222 0 R 0 222 R 222 0 R D
3507 5206 M 111 0 R 0 -222 R -222 0 R 0 222 R 222 0 R D 3651 5181 M 111 0 R
0 -222 R -222 0 R 0 222 R 222 0 R D 3796 5228 M 111 0 R 0 -222 R -222 0 R
0 222 R 222 0 R D 3940 5197 M 111 0 R 0 -222 R -222 0 R 0 222 R 222 0 R D
4085 5202 M 111 0 R 0 -222 R -222 0 R 0 222 R 222 0 R D 4229 5220 M 111 0 R
0 -222 R -222 0 R 0 222 R 222 0 R D 4374 5178 M 111 0 R 0 -222 R -222 0 R
0 222 R 222 0 R D 4519 5125 M 111 0 R 0 -222 R -222 0 R 0 222 R 222 0 R D
4663 5112 M 111 0 R 0 -222 R -222 0 R 0 222 R 222 0 R D 4808 5092 M 111 0 R
0 -222 R -222 0 R 0 222 R 222 0 R D 4952 5082 M 111 0 R 0 -222 R -222 0 R
0 222 R 222 0 R D 5097 5062 M 111 0 R 0 -222 R -222 0 R 0 222 R 222 0 R D
5241 5040 M 111 0 R 0 -222 R -222 0 R 0 222 R 222 0 R D 5386 5032 M 111 0 R
0 -223 R -222 0 R 0 223 R 222 0 R D 5530 5004 M 111 0 R 0 -222 R -222 0 R
0 222 R 222 0 R D 5675 4959 M 111 0 R 0 -222 R -222 0 R 0 222 R 222 0 R D
5820 4888 M 111 0 R 0 -222 R -222 0 R 0 222 R 222 0 R D 5964 4806 M 111 0 R
0 -222 R -222 0 R 0 222 R 222 0 R D 6109 4701 M 111 0 R 0 -222 R -222 0 R
0 222 R 222 0 R D 6253 4576 M 111 0 R 0 -222 R -222 0 R 0 222 R 222 0 R D
6398 4430 M 111 0 R 0 -222 R -222 0 R 0 222 R 222 0 R D 6542 4254 M 111 0 R
0 -222 R -222 0 R 0 222 R 222 0 R D 6687 4058 M 111 0 R 0 -222 R -222 0 R
0 222 R 222 0 R D 6831 3843 M 111 0 R 0 -222 R -222 0 R 0 222 R 222 0 R D
6976 3550 M 111 0 R 0 -222 R -222 0 R 0 222 R 222 0 R D 7121 3229 M 111 0 R
0 -222 R -222 0 R 0 222 R 222 0 R D 10 setlinewidth
0.310 0.000 0.373 setrgbcolor 2220 5532 M 368 -92 R 382 -53 R 381 -99 R
382 13 R 382 -46 R 382 -72 R 382 -42 R 382 -275 R 382 -498 R 382 -281 R
382 -178 R 382 -382 R 382 -773 R 382 227 R D 0.329 0.000 0.659 setrgbcolor
2220 5522 M 368 -55 R 382 -80 R 381 -90 R 382 -56 R 382 6 R 382 -63 R
382 -31 R 382 -213 R 382 -360 R 382 -656 R 382 177 R 382 -574 R 382 -773 R
382 234 R D 0.141 0.000 0.961 setrgbcolor 2220 5290 M 368 -26 R 382 -28 R
381 -62 R 382 -46 R 382 2 R 382 -15 R 382 0 R 382 -57 R 382 -192 R
382 -458 R 382 -321 R 382 0 R 382 -1333 R 382 -1291 R D
0.000 0.180 1.000 setrgbcolor 2220 5495 M 368 -55 R 382 -105 R 381 -67 R
382 -19 R 382 -44 R 382 -23 R 382 -92 R 382 -238 R 382 -308 R 382 -412 R
382 -114 R 382 -491 R 382 -773 R 382 198 R D 0.000 0.514 1.000 setrgbcolor
2220 5349 M 368 -15 R 382 -83 R 381 -21 R 382 -36 R 382 -80 R 382 13 R
382 11 R 382 -62 R 382 -281 R 382 -281 R 382 -657 R 382 178 R 382 -178 R
382 -2394 R D 0.000 0.863 1.000 setrgbcolor 2220 5433 M 368 -54 R 382 -59 R
381 -93 R 382 -46 R 382 -9 R 382 -85 R 382 -89 R 382 -209 R 382 -295 R
382 -459 R 382 -17 R 382 -491 R 382 -773 R 382 -1291 R D
0.000 1.000 0.796 setrgbcolor 2220 5396 M 368 -79 R 382 -28 R 381 -58 R
382 -63 R 382 -83 R 382 57 R 382 -22 R 382 -33 R 382 -318 R 382 -263 R
382 -412 R 382 104 R 382 -281 R 382 -2454 R D 0.000 1.000 0.482 setrgbcolor
2220 5603 M 368 -89 R 382 -58 R 381 -64 R 382 -60 R 382 -27 R 382 -41 R
382 -78 R 382 -182 R 382 -467 R 382 -411 R 382 -178 R 382 -421 R 382 -773 R
382 -1291 R D 0.000 1.000 0.149 setrgbcolor 2220 5265 M 368 -50 R 382 -43 R
381 -45 R 382 -30 R 382 -57 R 382 -22 R 382 17 R 382 -38 R 382 -221 R
382 -404 R 382 -178 R 382 -216 R 382 -282 R 382 -2233 R D
0.200 1.000 0.000 setrgbcolor 2220 5454 M 368 -54 R 382 -111 R 381 -48 R
382 -41 R 382 -20 R 382 -62 R 382 -17 R 382 -205 R 382 -518 R 382 -498 R
382 0 R 382 -353 R 382 -773 R 382 -1291 R D 0.529 1.000 0.000 setrgbcolor
2220 5412 M 368 -120 R 382 -22 R 381 -44 R 382 -59 R 382 -21 R 382 -48 R
382 65 R 382 -95 R 382 -203 R 382 -244 R 382 -412 R 382 -281 R 382 0 R
382 -2465 R D 0.867 1.000 0.000 setrgbcolor 2220 5505 M 368 -90 R 382 -60 R
381 -65 R 382 -70 R 382 -8 R 382 -34 R 382 -62 R 382 -218 R 382 -291 R
382 -709 R 382 0 R 382 -371 R 382 -773 R 382 -1291 R D
1.000 0.780 0.000 setrgbcolor 2220 5389 M 368 -22 R 382 -63 R 381 -51 R
382 -28 R 382 20 R 382 -38 R 382 67 R 382 -95 R 382 -289 R 382 -185 R
382 -251 R 382 -281 R 382 -177 R 382 -2533 R D 1.000 0.467 0.000 setrgbcolor
2220 5554 M 368 -102 R 382 -74 R 381 -82 R 382 -2 R 382 -45 R 382 -25 R
382 -107 R 382 -178 R 382 -295 R 382 -316 R 382 -562 R 382 0 R 382 0 R
382 -2303 R D 1.000 0.133 0.000 setrgbcolor 2220 5204 M 368 17 R 382 -26 R
381 -85 R 382 -3 R 382 6 R 382 11 R 382 0 R 382 -28 R 382 -173 R 382 -423 R
382 -28 R 382 -227 R 382 -217 R 382 -104 R D 0.000 0.659 0.000 setrgbcolor
2220 5486 M 368 -83 R 382 -87 R 381 -55 R 382 -45 R 382 -31 R 382 -12 R
382 -67 R 382 -249 R 382 -276 R 382 -370 R 382 -177 R 382 -74 R 382 -1206 R
382 -1291 R D 0.000 1.000 0.659 setrgbcolor 2220 5220 M 368 3 R 382 -44 R
381 -50 R 382 0 R 382 -9 R 382 -5 R 382 29 R 382 -35 R 382 -232 R 382 -295 R
382 -185 R 382 -281 R 382 -235 R 382 -177 R D 0.502 0.000 1.000 setrgbcolor
2220 5502 M 368 -57 R 382 -101 R 381 -65 R 382 -58 R 382 -6 R 382 -6 R
382 -67 R 382 -198 R 382 -333 R 382 -222 R 382 -329 R 382 -120 R 382 -1186 R
382 -1291 R D 1.000 0.000 0.502 setrgbcolor 2220 4993 M 368 78 R 382 5 R
381 -20 R 382 -30 R 382 -16 R 382 40 R 382 32 R 382 20 R 382 -163 R
382 -327 R 382 -229 R 382 -205 R 382 -198 R 382 -458 R D 30 setlinewidth
0.000 0.000 0.000 setrgbcolor 8277 1408 M 6057 0 R D 9708 1408 M 0 196 R D
gsave 9708 880 translate 0 0 M -117.687 0 N
(9) show grestore 11154 1408 M 0 196 R D gsave 11154 880 translate 0 0 M
-235.373 0 N
(10) show grestore 12599 1408 M 0 196 R D gsave 12599 880 translate 0 0 M
-235.373 0 N
(11) show grestore 14045 1408 M 0 196 R D gsave 14045 880 translate 0 0 M
-235.373 0 N
(12) show grestore 8407 1408 M 0 98 R D 8552 1408 M 0 98 R D 8696 1408 M
0 98 R D 8841 1408 M 0 98 R D 8985 1408 M 0 98 R D 9130 1408 M 0 98 R D
9275 1408 M 0 98 R D 9419 1408 M 0 98 R D 9564 1408 M 0 98 R D 9853 1408 M
0 98 R D 9997 1408 M 0 98 R D 10142 1408 M 0 98 R D 10286 1408 M 0 98 R D
10431 1408 M 0 98 R D 10576 1408 M 0 98 R D 10720 1408 M 0 98 R D
10865 1408 M 0 98 R D 11009 1408 M 0 98 R D 11298 1408 M 0 98 R D
11443 1408 M 0 98 R D 11587 1408 M 0 98 R D 11732 1408 M 0 98 R D
11877 1408 M 0 98 R D 12021 1408 M 0 98 R D 12166 1408 M 0 98 R D
12310 1408 M 0 98 R D 12455 1408 M 0 98 R D 12744 1408 M 0 98 R D
12888 1408 M 0 98 R D 13033 1408 M 0 98 R D 13178 1408 M 0 98 R D
13322 1408 M 0 98 R D 13467 1408 M 0 98 R D 13611 1408 M 0 98 R D
13756 1408 M 0 98 R D 13900 1408 M 0 98 R D 14190 1408 M 0 98 R D
14334 1408 M 0 98 R D 8277 6296 M 6057 0 R D 9708 6296 M 0 -195 R D
11154 6296 M 0 -195 R D 12599 6296 M 0 -195 R D 14045 6296 M 0 -195 R D
8407 6296 M 0 -98 R D 8552 6296 M 0 -98 R D 8696 6296 M 0 -98 R D
8841 6296 M 0 -98 R D 8985 6296 M 0 -98 R D 9130 6296 M 0 -98 R D
9275 6296 M 0 -98 R D 9419 6296 M 0 -98 R D 9564 6296 M 0 -98 R D
9853 6296 M 0 -98 R D 9997 6296 M 0 -98 R D 10142 6296 M 0 -98 R D
10286 6296 M 0 -98 R D 10431 6296 M 0 -98 R D 10576 6296 M 0 -98 R D
10720 6296 M 0 -98 R D 10865 6296 M 0 -98 R D 11009 6296 M 0 -98 R D
11298 6296 M 0 -98 R D 11443 6296 M 0 -98 R D 11587 6296 M 0 -98 R D
11732 6296 M 0 -98 R D 11877 6296 M 0 -98 R D 12021 6296 M 0 -98 R D
12166 6296 M 0 -98 R D 12310 6296 M 0 -98 R D 12455 6296 M 0 -98 R D
12744 6296 M 0 -98 R D 12888 6296 M 0 -98 R D 13033 6296 M 0 -98 R D
13178 6296 M 0 -98 R D 13322 6296 M 0 -98 R D 13467 6296 M 0 -98 R D
13611 6296 M 0 -98 R D 13756 6296 M 0 -98 R D 13900 6296 M 0 -98 R D
14190 6296 M 0 -98 R D 14334 6296 M 0 -98 R D 8277 1408 M 0 4888 R D
8277 1585 M 242 0 R D gsave 8166 1445 translate 0 0 M -117.687 0 N
( ) show grestore 8277 2764 M 242 0 R D gsave 8166 2623 translate 0 0 M
-117.687 0 N
( ) show grestore 8277 3942 M 242 0 R D gsave 8166 3801 translate 0 0 M
-117.687 0 N
( ) show grestore 8277 5120 M 242 0 R D gsave 8166 4980 translate 0 0 M
-117.687 0 N
( ) show grestore 8277 2175 M 121 0 R D 8277 3353 M 121 0 R D 8277 4531 M
121 0 R D 8277 5709 M 121 0 R D 14334 1408 M 0 4888 R D 14334 1585 M
-242 0 R D 14334 2764 M -242 0 R D 14334 3942 M -242 0 R D 14334 5120 M
-242 0 R D 14334 2175 M -121 0 R D 14334 3353 M -121 0 R D 14334 4531 M
-121 0 R D 14334 5709 M -121 0 R D 8552 5663 M 111 0 R 0 -222 R -222 0 R
0 222 R 222 0 R D 8696 5465 M 111 0 R 0 -222 R -222 0 R 0 222 R 222 0 R D
8841 5573 M 111 0 R 0 -222 R -222 0 R 0 222 R 222 0 R D 8985 5496 M 111 0 R
0 -222 R -222 0 R 0 222 R 222 0 R D 9130 5456 M 111 0 R 0 -222 R -222 0 R
0 222 R 222 0 R D 9275 5418 M 111 0 R 0 -222 R -222 0 R 0 222 R 222 0 R D
9419 5410 M 111 0 R 0 -222 R -222 0 R 0 222 R 222 0 R D 9564 5384 M 111 0 R
0 -222 R -222 0 R 0 222 R 222 0 R D 9708 5369 M 111 0 R 0 -222 R -222 0 R
0 222 R 222 0 R D 9853 5384 M 111 0 R 0 -222 R -222 0 R 0 222 R 222 0 R D
9997 5360 M 111 0 R 0 -222 R -222 0 R 0 222 R 222 0 R D 10142 5369 M 111 0 R
0 -222 R -222 0 R 0 222 R 222 0 R D 10286 5359 M 111 0 R 0 -222 R -222 0 R
0 222 R 222 0 R D 10431 5318 M 111 0 R 0 -222 R -222 0 R 0 222 R 222 0 R D
10576 5329 M 111 0 R 0 -222 R -222 0 R 0 222 R 222 0 R D 10720 5306 M
111 0 R 0 -222 R -222 0 R 0 222 R 222 0 R D 10865 5281 M 111 0 R 0 -222 R
-222 0 R 0 222 R 222 0 R D 11009 5277 M 111 0 R 0 -222 R -222 0 R 0 222 R
222 0 R D 11154 5264 M 111 0 R 0 -222 R -222 0 R 0 222 R 222 0 R D
11298 5265 M 111 0 R 0 -222 R -222 0 R 0 222 R 222 0 R D 11443 5258 M
111 0 R 0 -222 R -222 0 R 0 222 R 222 0 R D 11587 5254 M 111 0 R 0 -222 R
-222 0 R 0 222 R 222 0 R D 11732 5223 M 111 0 R 0 -222 R -222 0 R 0 222 R
222 0 R D 11877 5181 M 111 0 R 0 -222 R -222 0 R 0 222 R 222 0 R D
12021 5125 M 111 0 R 0 -222 R -222 0 R 0 222 R 222 0 R D 12166 5063 M
111 0 R 0 -222 R -222 0 R 0 222 R 222 0 R D 12310 4984 M 111 0 R 0 -222 R
-222 0 R 0 222 R 222 0 R D 12455 4884 M 111 0 R 0 -222 R -222 0 R 0 222 R
222 0 R D 12599 4767 M 111 0 R 0 -222 R -222 0 R 0 222 R 222 0 R D
12744 4633 M 111 0 R 0 -222 R -222 0 R 0 222 R 222 0 R D 12888 4480 M
111 0 R 0 -222 R -222 0 R 0 222 R 222 0 R D 13033 4317 M 111 0 R 0 -222 R
-222 0 R 0 222 R 222 0 R D 13178 4114 M 111 0 R 0 -222 R -222 0 R 0 222 R
222 0 R D 13322 3860 M 111 0 R 0 -222 R -222 0 R 0 222 R 222 0 R D
13467 3510 M 111 0 R 0 -222 R -222 0 R 0 222 R 222 0 R D 10 setlinewidth
0.310 0.000 0.373 setrgbcolor 8277 5289 M 368 -84 R 382 -115 R 381 -76 R
382 -61 R 382 0 R 382 -106 R 382 -7 R 382 -206 R 382 0 R 382 -547 R 382 0 R
382 -560 R 382 -773 R 382 -1291 R D 0.329 0.000 0.659 setrgbcolor
8277 5254 M 368 -73 R 382 -84 R 381 -122 R 382 -35 R 382 -26 R 382 -112 R
382 8 R 382 -25 R 382 -248 R 382 -259 R 382 -177 R 382 -574 R 382 -773 R
382 -1291 R D 0.141 0.000 0.961 setrgbcolor 8277 5083 M 368 -109 R 382 -63 R
381 -115 R 382 -34 R 382 50 R 382 -79 R 382 -57 R 382 -153 R 382 -115 R
382 -55 R 382 -335 R 382 -491 R 382 -773 R 382 -1291 R D
0.000 0.180 1.000 setrgbcolor 8277 5224 M 368 -59 R 382 -119 R 381 -81 R
382 -80 R 382 -44 R 382 -16 R 382 5 R 382 -177 R 382 -344 R 382 -104 R
382 -187 R 382 -491 R 382 70 R 382 -2134 R D 0.000 0.514 1.000 setrgbcolor
8277 5071 M 368 -62 R 382 -88 R 381 0 R 382 -113 R 382 -20 R 382 -60 R
382 -18 R 382 0 R 382 -196 R 382 -376 R 382 74 R 382 -685 R 382 -773 R
382 201 R D 0.000 0.863 1.000 setrgbcolor 8277 5217 M 368 -104 R 382 -57 R
381 -70 R 382 -68 R 382 -86 R 382 -79 R 382 -61 R 382 45 R 382 -467 R
382 -412 R 382 0 R 382 0 R 382 -1104 R 382 201 R D
0.000 1.000 0.796 setrgbcolor 8277 5163 M 368 -78 R 382 -81 R 381 -15 R
382 -8 R 382 -108 R 382 -86 R 382 -91 R 382 23 R 382 -390 R 382 -235 R
382 -76 R 382 -491 R 382 -773 R 382 231 R D 0.000 1.000 0.482 setrgbcolor
8277 5256 M 368 -66 R 382 -96 R 381 -62 R 382 -63 R 382 -64 R 382 23 R
382 -70 R 382 -170 R 382 -126 R 382 -436 R 382 -108 R 382 -491 R 382 -773 R
382 246 R D 0.000 1.000 0.149 setrgbcolor 8277 5027 M 368 -29 R 382 -92 R
381 -88 R 382 -20 R 382 -67 R 382 -72 R 382 -46 R 382 57 R 382 -71 R
382 -405 R 382 -498 R 382 -169 R 382 -773 R 382 -1291 R D
0.200 1.000 0.000 setrgbcolor 8277 5253 M 368 -114 R 382 -86 R 381 -45 R
382 -84 R 382 -53 R 382 -11 R 382 -77 R 382 -112 R 382 -436 R 382 -74 R
382 -143 R 382 -491 R 382 -773 R 382 212 R D 0.529 1.000 0.000 setrgbcolor
8277 5191 M 368 -54 R 382 -133 R 381 -4 R 382 -98 R 382 -113 R 382 34 R
382 -16 R 382 -88 R 382 -293 R 382 -217 R 382 -104 R 382 -578 R 382 109 R
382 -2173 R D 0.867 1.000 0.000 setrgbcolor 8277 5165 M 368 -26 R 382 -111 R
381 -96 R 382 -72 R 382 -12 R 382 -34 R 382 -93 R 382 -57 R 382 -204 R
382 -281 R 382 -161 R 382 -491 R 382 -773 R 382 221 R D
1.000 0.780 0.000 setrgbcolor 8277 5054 M 368 -42 R 382 -60 R 381 -26 R
382 -164 R 382 0 R 382 -27 R 382 -207 R 382 0 R 382 -34 R 382 -498 R 382 0 R
382 -469 R 382 -773 R 382 -1291 R D 1.000 0.467 0.000 setrgbcolor
8277 5221 M 368 -72 R 382 -74 R 381 -104 R 382 -72 R 382 -19 R 382 -75 R
382 -33 R 382 -63 R 382 -330 R 382 -202 R 382 -130 R 382 -281 R 382 -1012 R
382 155 R D 1.000 0.133 0.000 setrgbcolor 8277 4787 M 368 51 R 382 -35 R
381 -65 R 382 -96 R 382 49 R 382 18 R 382 -109 R 382 -19 R 382 -272 R
382 -281 R 382 0 R 382 -501 R 382 107 R 382 -2171 R D
0.000 0.659 0.000 setrgbcolor 8277 5227 M 368 -101 R 382 -64 R 381 -62 R
382 -112 R 382 -41 R 382 -70 R 382 23 R 382 -100 R 382 -385 R 382 -47 R
382 -308 R 382 -433 R 382 -773 R 382 -1291 R D 0.000 1.000 0.659 setrgbcolor
8277 4964 M 368 13 R 382 -64 R 381 -44 R 382 -131 R 382 87 R 382 -87 R
382 26 R 382 -26 R 382 -182 R 382 -675 R 382 104 R 382 -104 R 382 -1127 R
382 -1291 R D 0.502 0.000 1.000 setrgbcolor 8277 5196 M 368 -66 R 382 -76 R
381 -128 R 382 -61 R 382 -8 R 382 -51 R 382 4 R 382 -125 R 382 -255 R
382 -340 R 382 -281 R 382 -282 R 382 49 R 382 -2113 R D
1.000 0.000 0.502 setrgbcolor 8277 4727 M 368 80 R 382 2 R 381 -71 R
382 -30 R 382 0 R 382 0 R 382 0 R 382 -44 R 382 -152 R 382 -401 R 382 -57 R
382 -355 R 382 -177 R 382 0 R D
%%PageTrailer
end
%%PageResources: font Helvetica
%%+ font Symbol
%%+ font AvantGarde-Book
%%Trailer
%%Pages: 1
%%DocumentNeededResources: font Helvetica
%%+ font Symbol
%%+ font AvantGarde-Book
%%EOF
