%!PS-Adobe-3.0 EPSF-3.0
%%BoundingBox: 0 0 481 425
%%Title: Graphics produced by IDL
%%For: jlgan@Hserver, /home/jlgan/work/phoenix
%%Creator: IDL Version 7.1.1 (linux x86_64 m64)
%%CreationDate: Wed Jun  4 18:35:59 2014
%%DocumentData: Clean7bit
%%Requirements: color
%%LanguageLevel: 1
%%PageOrder: Ascend
%%Pages: (atend)
%%DocumentNeededResources: (atend)
%%EndComments
%%BeginProlog
%+ prolog.ps -- Prolog for IDL generated PostScript files
%+ Copyright (c) 1988-2009 ITT Visual Information Solutions. All Rights Reserved.
%v 5
/$IDL_DICT 40 dict def $IDL_DICT begin /bdef { bind def } bind def /C
{currentpoint newpath moveto} bdef /CP {currentpoint} bdef /D {currentpoint
stroke moveto} bdef /F {closepath fill} bdef /K { setgray } bdef /M {moveto}
bdef /N {rmoveto} bdef /P {lineto} bdef /R {rlineto} bdef /S {gsave show
grestore} bdef /X {currentpoint pop} bdef /Z {gsave currentpoint lineto 20
setlinewidth 1 setlinecap stroke grestore} bdef /L0 {[] 0 setdash} bdef /L1
{[40 100] 0 setdash} bdef /L2 {[200 200] 0 setdash} bdef /L3 {[200 100 50
100] 0 setdash} bdef /L4 {[300 100 50 100 50 100 50 100] 0 setdash} bdef /L5
{[400 200] 0 setdash} bdef /STDFONT { findfont exch scalefont setfont } bdef
/ISOFONT { findfont dup length dict begin { 1 index /FID ne {def} {pop pop}
ifelse } forall /Encoding ISOLatin1Encoding def currentdict end /idltmpfont
exch definefont exch scalefont setfont } bdef /ISOBULLET { gsave /Helvetica
findfont exch scalefont setfont (\267) show currentpoint grestore moveto}
bdef /MITERLIMIT { 2.5 setmiterlimit } bdef end
%%EndProlog
%%Page: 0 1
%%PageRequirements: color
%%PageResources: (atend)
%%PageOrientation: Portrait
%%PageBoundingBox: 0 0 481 425
%%BeginPageSetup
$IDL_DICT begin 0.0283465 dup scale MITERLIMIT
%%IncludeResource: font Helvetica
423.333 /Helvetica STDFONT
%%EndPageSetup
0.000 0.000 0.000 setrgbcolor gsave 9277 352 translate 0 0 M -1652.34 0 N
(log) show X -101.051 M
%%IncludeResource: font Helvetica
262.467 /Helvetica STDFONT
(10) show X 0 M
%%IncludeResource: font Helvetica
423.333 /Helvetica STDFONT
([M) show X -101.051 M
%%IncludeResource: font Symbol
262.467 /Symbol STDFONT
(*) show X 0 M
%%IncludeResource: font Helvetica
423.333 /Helvetica STDFONT
( / \(h) show X 192.937 M
%%IncludeResource: font Helvetica
262.467 /Helvetica STDFONT
(-2) show X 0 M
%%IncludeResource: font Helvetica
423.333 /Helvetica STDFONT
(M) show CP X -101.051 M
%%IncludeResource: font AvantGarde-Book
262.467 /AvantGarde-Book STDFONT
(O) show M X -58.3193 M
%%IncludeResource: font AvantGarde-Book
186.267 /AvantGarde-Book STDFONT
( \267) show X 0 M
%%IncludeResource: font Helvetica
423.333 /Helvetica STDFONT
(\)]) show grestore gsave 888 7852 translate 0 0 M 90 rotate -2156.83 0 N
%%IncludeResource: font Symbol
423.333 /Symbol STDFONT
(f) show
%%IncludeResource: font Helvetica
423.333 /Helvetica STDFONT
(\(M) show X -101.051 M
%%IncludeResource: font Symbol
262.467 /Symbol STDFONT
(*) show X 0 M
%%IncludeResource: font Helvetica
423.333 /Helvetica STDFONT
(\) / \(h) show X 192.937 M
%%IncludeResource: font Helvetica
262.467 /Helvetica STDFONT
(3) show X 0 M
%%IncludeResource: font Helvetica
423.333 /Helvetica STDFONT
(Mpc) show X 192.937 M
%%IncludeResource: font Helvetica
262.467 /Helvetica STDFONT
(-3) show X 0 M
%%IncludeResource: font Helvetica
423.333 /Helvetica STDFONT
(lg) show X 192.937 M
%%IncludeResource: font Helvetica
262.467 /Helvetica STDFONT
(-1) show X 0 M
%%IncludeResource: font Helvetica
423.333 /Helvetica STDFONT
(M) show X -101.051 M
%%IncludeResource: font Symbol
262.467 /Symbol STDFONT
(*) show X 0 M
%%IncludeResource: font Helvetica
423.333 /Helvetica STDFONT
(\)) show grestore 30 setlinewidth L0 2220 10000 M 4705 0 R D 3332 10000 M
0 172 R D gsave 3332 9472 translate 0 0 M -58.8433 0 N
( ) show grestore 4455 10000 M 0 172 R D gsave 4455 9472 translate 0 0 M
-58.8433 0 N
( ) show grestore 5577 10000 M 0 172 R D gsave 5577 9472 translate 0 0 M
-58.8433 0 N
( ) show grestore 6700 10000 M 0 172 R D gsave 6700 9472 translate 0 0 M
-58.8433 0 N
( ) show grestore 2321 10000 M 0 86 R D 2433 10000 M 0 86 R D 2546 10000 M
0 86 R D 2658 10000 M 0 86 R D 2770 10000 M 0 86 R D 2883 10000 M 0 86 R D
2995 10000 M 0 86 R D 3107 10000 M 0 86 R D 3219 10000 M 0 86 R D
3444 10000 M 0 86 R D 3556 10000 M 0 86 R D 3669 10000 M 0 86 R D
3781 10000 M 0 86 R D 3893 10000 M 0 86 R D 4005 10000 M 0 86 R D
4118 10000 M 0 86 R D 4230 10000 M 0 86 R D 4342 10000 M 0 86 R D
4567 10000 M 0 86 R D 4679 10000 M 0 86 R D 4791 10000 M 0 86 R D
4904 10000 M 0 86 R D 5016 10000 M 0 86 R D 5128 10000 M 0 86 R D
5241 10000 M 0 86 R D 5353 10000 M 0 86 R D 5465 10000 M 0 86 R D
5690 10000 M 0 86 R D 5802 10000 M 0 86 R D 5914 10000 M 0 86 R D
6026 10000 M 0 86 R D 6139 10000 M 0 86 R D 6251 10000 M 0 86 R D
6363 10000 M 0 86 R D 6476 10000 M 0 86 R D 6588 10000 M 0 86 R D
6812 10000 M 0 86 R D 6925 10000 M 0 86 R D 2220 14296 M 4705 0 R D
3332 14296 M 0 -172 R D 4455 14296 M 0 -172 R D 5577 14296 M 0 -172 R D
6700 14296 M 0 -172 R D 2321 14296 M 0 -86 R D 2433 14296 M 0 -86 R D
2546 14296 M 0 -86 R D 2658 14296 M 0 -86 R D 2770 14296 M 0 -86 R D
2883 14296 M 0 -86 R D 2995 14296 M 0 -86 R D 3107 14296 M 0 -86 R D
3219 14296 M 0 -86 R D 3444 14296 M 0 -86 R D 3556 14296 M 0 -86 R D
3669 14296 M 0 -86 R D 3781 14296 M 0 -86 R D 3893 14296 M 0 -86 R D
4005 14296 M 0 -86 R D 4118 14296 M 0 -86 R D 4230 14296 M 0 -86 R D
4342 14296 M 0 -86 R D 4567 14296 M 0 -86 R D 4679 14296 M 0 -86 R D
4791 14296 M 0 -86 R D 4904 14296 M 0 -86 R D 5016 14296 M 0 -86 R D
5128 14296 M 0 -86 R D 5241 14296 M 0 -86 R D 5353 14296 M 0 -86 R D
5465 14296 M 0 -86 R D 5690 14296 M 0 -86 R D 5802 14296 M 0 -86 R D
5914 14296 M 0 -86 R D 6026 14296 M 0 -86 R D 6139 14296 M 0 -86 R D
6251 14296 M 0 -86 R D 6363 14296 M 0 -86 R D 6476 14296 M 0 -86 R D
6588 14296 M 0 -86 R D 6812 14296 M 0 -86 R D 6925 14296 M 0 -86 R D
2220 10000 M 0 4296 R D 2220 10156 M 188 0 R D
gsave 2109 10015 translate 0 0 M -704.08 0 N
(10) show X 192.937 M
%%IncludeResource: font Helvetica
262.467 /Helvetica STDFONT
(-8) show grestore
%%IncludeResource: font Helvetica
423.333 /Helvetica STDFONT 2220 11192 M 188 0 R D
gsave 2109 11051 translate 0 0 M -704.08 0 N
(10) show X 192.937 M
%%IncludeResource: font Helvetica
262.467 /Helvetica STDFONT
(-6) show grestore
%%IncludeResource: font Helvetica
423.333 /Helvetica STDFONT 2220 12227 M 188 0 R D
gsave 2109 12086 translate 0 0 M -704.08 0 N
(10) show X 192.937 M
%%IncludeResource: font Helvetica
262.467 /Helvetica STDFONT
(-4) show grestore
%%IncludeResource: font Helvetica
423.333 /Helvetica STDFONT 2220 13263 M 188 0 R D
gsave 2109 13122 translate 0 0 M -704.08 0 N
(10) show X 192.937 M
%%IncludeResource: font Helvetica
262.467 /Helvetica STDFONT
(-2) show grestore
%%IncludeResource: font Helvetica
423.333 /Helvetica STDFONT 2220 10674 M 94 0 R D 2220 11709 M 94 0 R D
2220 12745 M 94 0 R D 2220 13781 M 94 0 R D 6925 10000 M 0 4296 R D
6925 10156 M -188 0 R D 6925 11192 M -188 0 R D 6925 12227 M -188 0 R D
6925 13263 M -188 0 R D 6925 10674 M -94 0 R D 6925 11709 M -94 0 R D
6925 12745 M -94 0 R D 6925 13781 M -94 0 R D 2220 13727 M 100 -200 R
-100 0 R D 2433 13733 M 111 -222 R -222 0 R 111 222 R D 2658 13714 M
111 -222 R -222 0 R 111 222 R D 2883 13692 M 111 -222 R -222 0 R 111 222 R D
3107 13666 M 111 -222 R -222 0 R 111 222 R D 3332 13632 M 111 -222 R
-222 0 R 111 222 R D 3556 13587 M 111 -222 R -222 0 R 111 222 R D
3781 13549 M 111 -222 R -222 0 R 111 222 R D 4005 13546 M 111 -222 R
-222 0 R 111 222 R D 4230 13534 M 111 -222 R -222 0 R 111 222 R D
4455 13509 M 111 -222 R -222 0 R 111 222 R D 4679 13463 M 111 -222 R
-222 0 R 111 222 R D 4904 13384 M 111 -222 R -222 0 R 111 222 R D
5128 13254 M 111 -222 R -222 0 R 111 222 R D 5353 13054 M 111 -222 R
-222 0 R 111 222 R D 5577 12790 M 111 -222 R -222 0 R 111 222 R D
5802 12431 M 111 -222 R -222 0 R 111 222 R D 6026 11922 M 111 -222 R
-222 0 R 111 222 R D 6251 11175 M 111 -222 R -222 0 R 111 222 R D
6476 10051 M 25 -51 R D 6450 10000 M 26 51 R D 2220 13610 M 36 0 R -36 0 R D
2220 13663 M 36 0 R D 2386 13595 M 94 0 R -47 0 R 0 50 R -47 0 R 94 0 R D
2611 13578 M 94 0 R -47 0 R 0 47 R -47 0 R 94 0 R D 2836 13558 M 94 0 R
-47 0 R 0 45 R -47 0 R 94 0 R D 3060 13532 M 94 0 R -47 0 R 0 44 R -47 0 R
94 0 R D 3285 13498 M 94 0 R -47 0 R 0 44 R -47 0 R 94 0 R D 3509 13451 M
94 0 R -47 0 R 0 46 R -47 0 R 94 0 R D 3734 13414 M 94 0 R -47 0 R 0 46 R
-47 0 R 94 0 R D 3958 13414 M 94 0 R -47 0 R 0 40 R -47 0 R 94 0 R D
4183 13405 M 94 0 R -47 0 R 0 34 R -47 0 R 94 0 R D 4407 13382 M 95 0 R
-47 0 R 0 31 R -48 0 R 95 0 R D 4632 13337 M 94 0 R -47 0 R 0 29 R -47 0 R
94 0 R D 4857 13258 M 94 0 R -47 0 R 0 29 R -47 0 R 94 0 R D 5081 13126 M
94 0 R -47 0 R 0 33 R -47 0 R 94 0 R D 5306 12921 M 94 0 R -47 0 R 0 42 R
-47 0 R 94 0 R D 5530 12651 M 94 0 R -47 0 R 0 52 R -47 0 R 94 0 R D
5755 12287 M 94 0 R -47 0 R 0 61 R -47 0 R 94 0 R D 5979 11774 M 95 0 R
-48 0 R 0 68 R -47 0 R 95 0 R D 6204 10981 M 94 0 R -47 0 R 0 143 R -47 0 R
94 0 R D 6476 10000 M 0 683 R -47 0 R 94 0 R D 6700 10000 M 0 674 R -47 0 R
94 0 R D 0.761 0.000 0.000 setrgbcolor 2220 13698 M 286 -79 R 296 -61 R
297 -81 R 297 -4 R 296 -32 R 297 -70 R 297 -30 R 296 -226 R 297 -211 R
297 -394 R 296 -64 R 297 -584 R 297 -679 R 296 199 R D L2 2220 13750 M
286 -79 R 296 -41 R 297 -49 R 297 -15 R 296 -37 R 297 -45 R 297 -74 R
296 -243 R 297 -351 R 297 -228 R 296 -294 R 297 -432 R 297 -679 R
296 -1134 R D L0 0.000 0.549 0.000 setrgbcolor 2220 13683 M 286 -52 R
296 -71 R 297 -86 R 297 -45 R 296 -1 R 297 -63 R 297 -21 R 296 -142 R
297 -276 R 297 -353 R 296 -50 R 297 -661 R 297 -679 R 296 206 R D L2
2220 13715 M 286 -40 R 296 -65 R 297 -78 R 297 -20 R 296 -10 R 297 -37 R
297 -36 R 296 -223 R 297 -268 R 297 -437 R 296 0 R 297 -639 R 297 -679 R
296 -1134 R D L0 0.000 0.000 1.000 setrgbcolor 2220 13495 M 286 -43 R
296 -32 R 297 -64 R 297 -38 R 296 11 R 297 -26 R 297 -8 R 296 -61 R
297 -160 R 297 -438 R 296 -190 R 297 0 R 297 -1263 R 296 -1134 R D L2
2220 13478 M 286 8 R 296 -23 R 297 -46 R 297 3 R 296 -39 R 297 -18 R
297 57 R 296 -82 R 297 -172 R 297 -312 R 296 -362 R 297 0 R 297 -1309 R
296 -1134 R D L0 0.000 1.000 1.000 setrgbcolor 2220 13619 M 286 -40 R
296 -168 R 297 143 R 297 -133 R 296 8 R 297 -460 R 297 -148 R 296 463 R
297 60 R 297 -283 R 296 -330 R 297 -39 R 297 -450 R 296 -160 R D
0.000 0.000 0.000 setrgbcolor 2926 12474 M 111 -222 R -222 0 R 111 222 R
111 -222 R -222 0 R 111 222 R D gsave 3396 12234 translate 0 0 M
(Li2009) show grestore L1 2691 11804 M 70 0 R 71 0 R 70 0 R 71 0 R 70 0 R
71 0 R 71 0 R 70 0 R 71 0 R D L0 0.000 1.000 1.000 setrgbcolor 2691 11332 M
70 0 R 71 0 R 70 0 R 71 0 R 70 0 R 71 0 R 71 0 R 70 0 R 71 0 R D
0.761 0.000 0.000 setrgbcolor 2691 10859 M 70 0 R 71 0 R 70 0 R 71 0 R
70 0 R 71 0 R 71 0 R 70 0 R 71 0 R D 0.000 0.549 0.000 setrgbcolor
2691 10387 M 70 0 R 71 0 R 70 0 R 71 0 R 70 0 R 71 0 R 71 0 R 70 0 R 71 0 R
D 0.000 0.000 0.000 setrgbcolor gsave 3396 11744 translate 0 0 M
(Field) show grestore 0.000 1.000 1.000 setrgbcolor
gsave 3396 11271 translate 0 0 M
(PhA2) show grestore 0.761 0.000 0.000 setrgbcolor
gsave 3396 10799 translate 0 0 M
(PhA3) show grestore 0.000 0.549 0.000 setrgbcolor
gsave 3396 10326 translate 0 0 M
(PhA4) show grestore 0.000 0.000 0.000 setrgbcolor 6925 10000 M 4704 0 R D
8036 10000 M 0 172 R D gsave 8036 9472 translate 0 0 M -58.8433 0 N
( ) show grestore 9159 10000 M 0 172 R D gsave 9159 9472 translate 0 0 M
-58.8433 0 N
( ) show grestore 10282 10000 M 0 172 R D gsave 10282 9472 translate 0 0 M
-58.8433 0 N
( ) show grestore 11405 10000 M 0 172 R D gsave 11405 9472 translate 0 0 M
-58.8433 0 N
( ) show grestore 7026 10000 M 0 86 R D 7138 10000 M 0 86 R D 7250 10000 M
0 86 R D 7363 10000 M 0 86 R D 7475 10000 M 0 86 R D 7587 10000 M 0 86 R D
7700 10000 M 0 86 R D 7812 10000 M 0 86 R D 7924 10000 M 0 86 R D
8149 10000 M 0 86 R D 8261 10000 M 0 86 R D 8373 10000 M 0 86 R D
8485 10000 M 0 86 R D 8598 10000 M 0 86 R D 8710 10000 M 0 86 R D
8822 10000 M 0 86 R D 8935 10000 M 0 86 R D 9047 10000 M 0 86 R D
9271 10000 M 0 86 R D 9384 10000 M 0 86 R D 9496 10000 M 0 86 R D
9608 10000 M 0 86 R D 9721 10000 M 0 86 R D 9833 10000 M 0 86 R D
9945 10000 M 0 86 R D 10057 10000 M 0 86 R D 10170 10000 M 0 86 R D
10394 10000 M 0 86 R D 10507 10000 M 0 86 R D 10619 10000 M 0 86 R D
10731 10000 M 0 86 R D 10843 10000 M 0 86 R D 10956 10000 M 0 86 R D
11068 10000 M 0 86 R D 11180 10000 M 0 86 R D 11293 10000 M 0 86 R D
11517 10000 M 0 86 R D 11629 10000 M 0 86 R D 6925 14296 M 4704 0 R D
8036 14296 M 0 -172 R D 9159 14296 M 0 -172 R D 10282 14296 M 0 -172 R D
11405 14296 M 0 -172 R D 7026 14296 M 0 -86 R D 7138 14296 M 0 -86 R D
7250 14296 M 0 -86 R D 7363 14296 M 0 -86 R D 7475 14296 M 0 -86 R D
7587 14296 M 0 -86 R D 7700 14296 M 0 -86 R D 7812 14296 M 0 -86 R D
7924 14296 M 0 -86 R D 8149 14296 M 0 -86 R D 8261 14296 M 0 -86 R D
8373 14296 M 0 -86 R D 8485 14296 M 0 -86 R D 8598 14296 M 0 -86 R D
8710 14296 M 0 -86 R D 8822 14296 M 0 -86 R D 8935 14296 M 0 -86 R D
9047 14296 M 0 -86 R D 9271 14296 M 0 -86 R D 9384 14296 M 0 -86 R D
9496 14296 M 0 -86 R D 9608 14296 M 0 -86 R D 9721 14296 M 0 -86 R D
9833 14296 M 0 -86 R D 9945 14296 M 0 -86 R D 10057 14296 M 0 -86 R D
10170 14296 M 0 -86 R D 10394 14296 M 0 -86 R D 10507 14296 M 0 -86 R D
10619 14296 M 0 -86 R D 10731 14296 M 0 -86 R D 10843 14296 M 0 -86 R D
10956 14296 M 0 -86 R D 11068 14296 M 0 -86 R D 11180 14296 M 0 -86 R D
11293 14296 M 0 -86 R D 11517 14296 M 0 -86 R D 11629 14296 M 0 -86 R D
6925 10000 M 0 4296 R D 6925 10156 M 188 0 R D
gsave 6814 10015 translate 0 0 M -117.687 0 N
( ) show grestore 6925 11192 M 188 0 R D gsave 6814 11051 translate 0 0 M
-117.687 0 N
( ) show grestore 6925 12227 M 188 0 R D gsave 6814 12086 translate 0 0 M
-117.687 0 N
( ) show grestore 6925 13263 M 188 0 R D gsave 6814 13122 translate 0 0 M
-117.687 0 N
( ) show grestore 6925 10674 M 94 0 R D 6925 11709 M 94 0 R D 6925 12745 M
94 0 R D 6925 13781 M 94 0 R D 11629 10000 M 0 4296 R D 11629 10156 M
-188 0 R D 11629 11192 M -188 0 R D 11629 12227 M -188 0 R D 11629 13263 M
-188 0 R D 11629 10674 M -94 0 R D 11629 11709 M -94 0 R D 11629 12745 M
-94 0 R D 11629 13781 M -94 0 R D 6924 13729 M 101 -202 R -101 0 R D
7138 13733 M 111 -222 R -222 0 R 111 222 R D 7363 13714 M 111 -222 R
-222 0 R 111 222 R D 7587 13692 M 111 -222 R -222 0 R 111 222 R D
7812 13666 M 111 -222 R -222 0 R 111 222 R D 8036 13632 M 111 -222 R
-222 0 R 111 222 R D 8261 13587 M 111 -222 R -222 0 R 111 222 R D
8485 13549 M 111 -222 R -222 0 R 111 222 R D 8710 13546 M 111 -222 R
-222 0 R 111 222 R D 8935 13534 M 111 -222 R -222 0 R 111 222 R D
9159 13509 M 111 -222 R -222 0 R 111 222 R D 9384 13463 M 111 -222 R
-222 0 R 111 222 R D 9608 13384 M 111 -222 R -222 0 R 111 222 R D
9833 13254 M 111 -222 R -222 0 R 111 222 R D 10057 13054 M 111 -222 R
-222 0 R 111 222 R D 10282 12790 M 111 -222 R -222 0 R 111 222 R D
10507 12431 M 111 -222 R -222 0 R 111 222 R D 10731 11922 M 111 -222 R
-222 0 R 111 222 R D 10956 11175 M 111 -222 R -222 0 R 111 222 R D
11180 10051 M 25 -51 R D 11154 10000 M 26 51 R D 6924 13610 M 37 0 R -37 0 R
D 6924 13663 M 37 0 R D 7091 13595 M 94 0 R -47 0 R 0 50 R -47 0 R 94 0 R D
7316 13578 M 94 0 R -47 0 R 0 47 R -47 0 R 94 0 R D 7540 13558 M 94 0 R
-47 0 R 0 45 R -47 0 R 94 0 R D 7765 13532 M 94 0 R -47 0 R 0 44 R -47 0 R
94 0 R D 7989 13498 M 94 0 R -47 0 R 0 44 R -47 0 R 94 0 R D 8214 13451 M
94 0 R -47 0 R 0 46 R -47 0 R 94 0 R D 8438 13414 M 95 0 R -48 0 R 0 46 R
-47 0 R 95 0 R D 8663 13414 M 94 0 R -47 0 R 0 40 R -47 0 R 94 0 R D
8888 13405 M 94 0 R -47 0 R 0 34 R -47 0 R 94 0 R D 9112 13382 M 94 0 R
-47 0 R 0 31 R -47 0 R 94 0 R D 9337 13337 M 94 0 R -47 0 R 0 29 R -47 0 R
94 0 R D 9561 13258 M 94 0 R -47 0 R 0 29 R -47 0 R 94 0 R D 9786 13126 M
94 0 R -47 0 R 0 33 R -47 0 R 94 0 R D 10010 12921 M 95 0 R -48 0 R 0 42 R
-47 0 R 95 0 R D 10235 12651 M 94 0 R -47 0 R 0 52 R -47 0 R 94 0 R D
10460 12287 M 94 0 R -47 0 R 0 61 R -47 0 R 94 0 R D 10684 11774 M 94 0 R
-47 0 R 0 68 R -47 0 R 94 0 R D 10909 10981 M 94 0 R -47 0 R 0 143 R -47 0 R
94 0 R D 11180 10000 M 0 683 R -47 0 R 94 0 R D 11405 10000 M 0 674 R
-47 0 R 94 0 R D 0.761 0.000 0.000 setrgbcolor 6924 13659 M 286 -49 R
297 -96 R 297 -62 R 296 -28 R 297 -38 R 297 -19 R 296 -61 R 297 -194 R
297 -280 R 296 -247 R 297 -291 R 297 -432 R 296 62 R 297 -567 R D L2
6924 13775 M 286 -33 R 297 -88 R 297 -74 R 296 -12 R 297 -15 R 297 -6 R
296 -99 R 297 -238 R 297 -362 R 296 -206 R 297 -348 R 297 -432 R 296 231 R
297 -2044 R D L0 0.000 0.000 1.000 setrgbcolor 6924 13530 M 286 -24 R
297 -74 R 297 -14 R 296 -45 R 297 -60 R 297 -1 R 296 5 R 297 -45 R
297 -231 R 296 -265 R 297 -261 R 297 -206 R 296 -156 R 297 0 R D L2
6924 13620 M 286 -18 R 297 -46 R 297 -57 R 296 -17 R 297 -51 R 297 30 R
296 16 R 297 -60 R 297 -333 R 296 -171 R 297 -438 R 297 156 R 296 -156 R
297 -2426 R D L0 0.000 0.000 0.000 setrgbcolor 7138 13803 M 111 0 R 0 -222 R
-222 0 R 0 222 R 222 0 R D 7250 13736 M 111 0 R 0 -222 R -222 0 R 0 222 R
222 0 R D 7363 13745 M 111 0 R 0 -222 R -222 0 R 0 222 R 222 0 R D
7475 13668 M 111 0 R 0 -222 R -222 0 R 0 222 R 222 0 R D 7587 13637 M
111 0 R 0 -222 R -222 0 R 0 222 R 222 0 R D 7700 13635 M 111 0 R 0 -222 R
-222 0 R 0 222 R 222 0 R D 7812 13605 M 111 0 R 0 -222 R -222 0 R 0 222 R
222 0 R D 7924 13599 M 111 0 R 0 -222 R -222 0 R 0 222 R 222 0 R D
8036 13583 M 111 0 R 0 -222 R -222 0 R 0 222 R 222 0 R D 8149 13605 M
111 0 R 0 -222 R -222 0 R 0 222 R 222 0 R D 8261 13582 M 111 0 R 0 -222 R
-222 0 R 0 222 R 222 0 R D 8373 13589 M 111 0 R 0 -222 R -222 0 R 0 222 R
222 0 R D 8485 13589 M 111 0 R 0 -222 R -222 0 R 0 222 R 222 0 R D
8598 13552 M 111 0 R 0 -222 R -222 0 R 0 222 R 222 0 R D 8710 13543 M
111 0 R 0 -222 R -222 0 R 0 222 R 222 0 R D 8822 13526 M 111 0 R 0 -222 R
-222 0 R 0 222 R 222 0 R D 8935 13506 M 111 0 R 0 -222 R -222 0 R 0 222 R
222 0 R D 9047 13500 M 111 0 R 0 -222 R -222 0 R 0 222 R 222 0 R D
9159 13487 M 111 0 R 0 -222 R -222 0 R 0 222 R 222 0 R D 9271 13482 M
111 0 R 0 -222 R -222 0 R 0 222 R 222 0 R D 9384 13475 M 111 0 R 0 -222 R
-222 0 R 0 222 R 222 0 R D 9496 13465 M 111 0 R 0 -222 R -222 0 R 0 222 R
222 0 R D 9608 13435 M 111 0 R 0 -222 R -222 0 R 0 222 R 222 0 R D
9721 13392 M 111 0 R 0 -222 R -222 0 R 0 222 R 222 0 R D 9833 13337 M
111 0 R 0 -222 R -222 0 R 0 222 R 222 0 R D 9945 13275 M 111 0 R 0 -222 R
-222 0 R 0 222 R 222 0 R D 10057 13198 M 111 0 R 0 -222 R -222 0 R 0 222 R
222 0 R D 10170 13104 M 111 0 R 0 -222 R -222 0 R 0 222 R 222 0 R D
10282 12994 M 111 0 R 0 -222 R -222 0 R 0 222 R 222 0 R D 10394 12870 M
111 0 R 0 -222 R -222 0 R 0 222 R 222 0 R D 10507 12731 M 111 0 R 0 -222 R
-222 0 R 0 222 R 222 0 R D 10619 12581 M 111 0 R 0 -222 R -222 0 R 0 222 R
222 0 R D 10731 12399 M 111 0 R 0 -222 R -222 0 R 0 222 R 222 0 R D
10843 12168 M 111 0 R 0 -222 R -222 0 R 0 222 R 222 0 R D 10956 11861 M
111 0 R 0 -222 R -222 0 R 0 222 R 222 0 R D 7091 13524 M 94 0 R -47 0 R
0 264 R -47 0 R 94 0 R D 7203 13566 M 94 0 R -47 0 R 0 106 R -47 0 R 94 0 R
D 7316 13594 M 94 0 R -47 0 R 0 73 R -47 0 R 94 0 R D 7428 13514 M 94 0 R
-47 0 R 0 78 R -47 0 R 94 0 R D 7540 13495 M 94 0 R -47 0 R 0 58 R -47 0 R
94 0 R D 7652 13499 M 95 0 R -47 0 R 0 48 R -48 0 R 95 0 R D 7765 13474 M
94 0 R -47 0 R 0 38 R -47 0 R 94 0 R D 7877 13471 M 94 0 R -47 0 R 0 32 R
-47 0 R 94 0 R D 7989 13458 M 94 0 R -47 0 R 0 27 R -47 0 R 94 0 R D
8102 13482 M 94 0 R -47 0 R 0 24 R -47 0 R 94 0 R D 8214 13459 M 94 0 R
-47 0 R 0 24 R -47 0 R 94 0 R D 8326 13468 M 94 0 R -47 0 R 0 19 R -47 0 R
94 0 R D 8438 13468 M 95 0 R -48 0 R 0 19 R -47 0 R 95 0 R D 8551 13430 M
94 0 R -47 0 R 0 22 R -47 0 R 94 0 R D 8663 13422 M 94 0 R -47 0 R 0 20 R
-47 0 R 94 0 R D 8775 13404 M 94 0 R -47 0 R 0 22 R -47 0 R 94 0 R D
8888 13386 M 94 0 R -47 0 R 0 17 R -47 0 R 94 0 R D 9000 13379 M 94 0 R
-47 0 R 0 20 R -47 0 R 94 0 R D 9112 13367 M 94 0 R -47 0 R 0 18 R -47 0 R
94 0 R D 9224 13361 M 95 0 R -48 0 R 0 19 R -47 0 R 95 0 R D 9337 13355 M
94 0 R -47 0 R 0 18 R -47 0 R 94 0 R D 9449 13346 M 94 0 R -47 0 R 0 17 R
-47 0 R 94 0 R D 9561 13315 M 94 0 R -47 0 R 0 17 R -47 0 R 94 0 R D
9674 13273 M 94 0 R -47 0 R 0 15 R -47 0 R 94 0 R D 9786 13219 M 94 0 R
-47 0 R 0 14 R -47 0 R 94 0 R D 9898 13157 M 94 0 R -47 0 R 0 13 R -47 0 R
94 0 R D 10010 13081 M 95 0 R -48 0 R 0 13 R -47 0 R 95 0 R D 10123 12987 M
94 0 R -47 0 R 0 11 R -47 0 R 94 0 R D 10235 12877 M 94 0 R -47 0 R 0 11 R
-47 0 R 94 0 R D 10347 12755 M 94 0 R -47 0 R 0 9 R -47 0 R 94 0 R D
10460 12616 M 94 0 R -47 0 R 0 9 R -47 0 R 94 0 R D 10572 12465 M 94 0 R
-47 0 R 0 9 R -47 0 R 94 0 R D 10684 12281 M 94 0 R -47 0 R 0 14 R -47 0 R
94 0 R D 10796 12043 M 94 0 R -47 0 R 0 28 R -47 0 R 94 0 R D 10909 11731 M
94 0 R -47 0 R 0 37 R -47 0 R 94 0 R D 7630 11744 M 111 -222 R -222 0 R
111 222 R 111 -222 R -222 0 R 111 222 R D 7630 11271 M 111 0 R 0 -222 R
-222 0 R 0 222 R 222 0 R -111 0 R D 7741 11271 M 0 -222 R -222 0 R 0 222 R
222 0 R D 7630 10798 M 111 -111 R -111 -111 R -111 111 R 111 111 R
111 -111 R -111 -111 R -111 111 R 111 111 R D
gsave 8101 11547 translate 0 0 M
(Li2009) show grestore gsave 8101 11074 translate 0 0 M
(Yang2009) show grestore gsave 8101 10602 translate 0 0 M
(Vulcani2011) show grestore 11629 10000 M 4705 0 R D 12741 10000 M 0 172 R D
gsave 12741 9472 translate 0 0 M -58.8433 0 N
( ) show grestore 13864 10000 M 0 172 R D gsave 13864 9472 translate 0 0 M
-58.8433 0 N
( ) show grestore 14987 10000 M 0 172 R D gsave 14987 9472 translate 0 0 M
-58.8433 0 N
( ) show grestore 16110 10000 M 0 172 R D gsave 16110 9472 translate 0 0 M
-58.8433 0 N
( ) show grestore 11730 10000 M 0 86 R D 11843 10000 M 0 86 R D
11955 10000 M 0 86 R D 12067 10000 M 0 86 R D 12180 10000 M 0 86 R D
12292 10000 M 0 86 R D 12404 10000 M 0 86 R D 12516 10000 M 0 86 R D
12629 10000 M 0 86 R D 12853 10000 M 0 86 R D 12966 10000 M 0 86 R D
13078 10000 M 0 86 R D 13190 10000 M 0 86 R D 13302 10000 M 0 86 R D
13415 10000 M 0 86 R D 13527 10000 M 0 86 R D 13639 10000 M 0 86 R D
13752 10000 M 0 86 R D 13976 10000 M 0 86 R D 14088 10000 M 0 86 R D
14201 10000 M 0 86 R D 14313 10000 M 0 86 R D 14425 10000 M 0 86 R D
14538 10000 M 0 86 R D 14650 10000 M 0 86 R D 14762 10000 M 0 86 R D
14874 10000 M 0 86 R D 15099 10000 M 0 86 R D 15211 10000 M 0 86 R D
15324 10000 M 0 86 R D 15436 10000 M 0 86 R D 15548 10000 M 0 86 R D
15660 10000 M 0 86 R D 15773 10000 M 0 86 R D 15885 10000 M 0 86 R D
15997 10000 M 0 86 R D 16222 10000 M 0 86 R D 16334 10000 M 0 86 R D
11629 14296 M 4705 0 R D 12741 14296 M 0 -172 R D 13864 14296 M 0 -172 R D
14987 14296 M 0 -172 R D 16110 14296 M 0 -172 R D 11730 14296 M 0 -86 R D
11843 14296 M 0 -86 R D 11955 14296 M 0 -86 R D 12067 14296 M 0 -86 R D
12180 14296 M 0 -86 R D 12292 14296 M 0 -86 R D 12404 14296 M 0 -86 R D
12516 14296 M 0 -86 R D 12629 14296 M 0 -86 R D 12853 14296 M 0 -86 R D
12966 14296 M 0 -86 R D 13078 14296 M 0 -86 R D 13190 14296 M 0 -86 R D
13302 14296 M 0 -86 R D 13415 14296 M 0 -86 R D 13527 14296 M 0 -86 R D
13639 14296 M 0 -86 R D 13752 14296 M 0 -86 R D 13976 14296 M 0 -86 R D
14088 14296 M 0 -86 R D 14201 14296 M 0 -86 R D 14313 14296 M 0 -86 R D
14425 14296 M 0 -86 R D 14538 14296 M 0 -86 R D 14650 14296 M 0 -86 R D
14762 14296 M 0 -86 R D 14874 14296 M 0 -86 R D 15099 14296 M 0 -86 R D
15211 14296 M 0 -86 R D 15324 14296 M 0 -86 R D 15436 14296 M 0 -86 R D
15548 14296 M 0 -86 R D 15660 14296 M 0 -86 R D 15773 14296 M 0 -86 R D
15885 14296 M 0 -86 R D 15997 14296 M 0 -86 R D 16222 14296 M 0 -86 R D
16334 14296 M 0 -86 R D 11629 10000 M 0 4296 R D 11629 10156 M 189 0 R D
gsave 11518 10015 translate 0 0 M -117.687 0 N
( ) show grestore 11629 11192 M 189 0 R D gsave 11518 11051 translate 0 0 M
-117.687 0 N
( ) show grestore 11629 12227 M 189 0 R D gsave 11518 12086 translate 0 0 M
-117.687 0 N
( ) show grestore 11629 13263 M 189 0 R D gsave 11518 13122 translate 0 0 M
-117.687 0 N
( ) show grestore 11629 10674 M 95 0 R D 11629 11709 M 95 0 R D
11629 12745 M 95 0 R D 11629 13781 M 95 0 R D 16334 10000 M 0 4296 R D
16334 10156 M -188 0 R D 16334 11192 M -188 0 R D 16334 12227 M -188 0 R D
16334 13263 M -188 0 R D 16334 10674 M -94 0 R D 16334 11709 M -94 0 R D
16334 12745 M -94 0 R D 16334 13781 M -94 0 R D 11629 13727 M 100 -200 R
-100 0 R D 11843 13733 M 111 -222 R -222 0 R 111 222 R D 12067 13714 M
111 -222 R -222 0 R 111 222 R D 12292 13692 M 111 -222 R -222 0 R 111 222 R
D 12516 13666 M 111 -222 R -222 0 R 111 222 R D 12741 13632 M 111 -222 R
-222 0 R 111 222 R D 12966 13587 M 111 -222 R -222 0 R 111 222 R D
13190 13549 M 111 -222 R -222 0 R 111 222 R D 13415 13546 M 111 -222 R
-222 0 R 111 222 R D 13639 13534 M 111 -222 R -222 0 R 111 222 R D
13864 13509 M 111 -222 R -222 0 R 111 222 R D 14088 13463 M 111 -222 R
-222 0 R 111 222 R D 14313 13384 M 111 -222 R -222 0 R 111 222 R D
14538 13254 M 111 -222 R -222 0 R 111 222 R D 14762 13054 M 111 -222 R
-222 0 R 111 222 R D 14987 12790 M 111 -222 R -222 0 R 111 222 R D
15211 12431 M 111 -222 R -222 0 R 111 222 R D 15436 11922 M 111 -222 R
-222 0 R 111 222 R D 15660 11175 M 111 -222 R -222 0 R 111 222 R D
15885 10051 M 25 -51 R D 15859 10000 M 26 51 R D 11629 13610 M 36 0 R
-36 0 R D 11629 13663 M 36 0 R D 11796 13595 M 94 0 R -47 0 R 0 50 R -47 0 R
94 0 R D 12020 13578 M 94 0 R -47 0 R 0 47 R -47 0 R 94 0 R D 12245 13558 M
94 0 R -47 0 R 0 45 R -47 0 R 94 0 R D 12469 13532 M 95 0 R -48 0 R 0 44 R
-47 0 R 95 0 R D 12694 13498 M 94 0 R -47 0 R 0 44 R -47 0 R 94 0 R D
12919 13451 M 94 0 R -47 0 R 0 46 R -47 0 R 94 0 R D 13143 13414 M 94 0 R
-47 0 R 0 46 R -47 0 R 94 0 R D 13368 13414 M 94 0 R -47 0 R 0 40 R -47 0 R
94 0 R D 13592 13405 M 94 0 R -47 0 R 0 34 R -47 0 R 94 0 R D 13817 13382 M
94 0 R -47 0 R 0 31 R -47 0 R 94 0 R D 14041 13337 M 94 0 R -47 0 R 0 29 R
-47 0 R 94 0 R D 14266 13258 M 94 0 R -47 0 R 0 29 R -47 0 R 94 0 R D
14491 13126 M 94 0 R -47 0 R 0 33 R -47 0 R 94 0 R D 14715 12921 M 94 0 R
-47 0 R 0 42 R -47 0 R 94 0 R D 14940 12651 M 94 0 R -47 0 R 0 52 R -47 0 R
94 0 R D 15164 12287 M 94 0 R -47 0 R 0 61 R -47 0 R 94 0 R D 15389 11774 M
94 0 R -47 0 R 0 68 R -47 0 R 94 0 R D 15613 10981 M 94 0 R -47 0 R 0 143 R
-47 0 R 94 0 R D 15885 10000 M 0 683 R -47 0 R 94 0 R D 16110 10000 M
0 674 R -48 0 R 95 0 R D 0.761 0.000 0.000 setrgbcolor 11629 13618 M
286 -60 R 297 -51 R 296 -76 R 297 -46 R 297 -24 R 296 -73 R 297 -74 R
297 -108 R 296 -315 R 297 -391 R 297 -247 R 296 0 R 297 -970 R 297 177 R D
L2 11629 13780 M 286 -57 R 297 -32 R 296 -107 R 297 -6 R 297 -36 R 296 -32 R
297 -111 R 297 -267 R 296 -102 R 297 -281 R 297 -455 R 296 -432 R 297 -679 R
297 397 R D L0 0.000 0.000 1.000 setrgbcolor 11629 13581 M 286 -69 R
297 -37 R 296 -41 R 297 -41 R 297 -80 R 296 19 R 297 -31 R 297 -19 R
296 -291 R 297 -227 R 297 -403 R 296 156 R 297 -312 R 297 0 R D L2
11629 13687 M 286 -95 R 297 -3 R 296 -18 R 297 -67 R 297 -78 R 296 67 R
297 -29 R 297 -44 R 296 -231 R 297 -362 R 297 -247 R 296 156 R 297 -156 R
297 -2531 R D L0 0.000 0.000 0.000 setrgbcolor 13291 13317 M 111 -111 R
-111 -111 R -111 111 R 111 111 R D 13456 13326 M 111 -111 R -111 -111 R
-111 111 R 111 111 R D 13621 13329 M 111 -111 R -111 -111 R -111 111 R
111 111 R D 13785 13324 M 111 -111 R -111 -111 R -111 111 R 111 111 R D
13950 13309 M 111 -111 R -111 -111 R -111 111 R 111 111 R D 14115 13277 M
111 -111 R -111 -111 R -111 111 R 111 111 R D 14280 13225 M 111 -111 R
-111 -111 R -111 111 R 111 111 R D 14444 13141 M 111 -111 R -111 -111 R
-111 111 R 111 111 R D 14609 13015 M 111 -111 R -111 -111 R -111 111 R
111 111 R D 14774 12829 M 111 -111 R -111 -111 R -111 111 R 111 111 R D
14938 12560 M 111 -111 R -111 -111 R -111 111 R 111 111 R D 15103 12173 M
111 -111 R -111 -111 R -111 111 R 111 111 R D 15268 11621 M 111 -111 R
-111 -111 R -111 111 R 111 111 R D 15432 10839 M 111 -111 R -111 -111 R
-111 111 R 111 111 R D 13244 13141 M 94 0 R -47 0 R 0 133 R -47 0 R 94 0 R D
13409 13155 M 94 0 R -47 0 R 0 122 R -47 0 R 94 0 R D 13574 13163 M 94 0 R
-47 0 R 0 112 R -47 0 R 94 0 R D 13738 13161 M 95 0 R -48 0 R 0 106 R
-47 0 R 95 0 R D 13903 13146 M 94 0 R -47 0 R 0 104 R -47 0 R 94 0 R D
14068 13113 M 94 0 R -47 0 R 0 106 R -47 0 R 94 0 R D 14232 13054 M 95 0 R
-47 0 R 0 116 R -48 0 R 95 0 R D 14397 12960 M 94 0 R -47 0 R 0 134 R
-47 0 R 94 0 R D 14562 12815 M 94 0 R -47 0 R 0 168 R -47 0 R 94 0 R D
14727 12601 M 94 0 R -47 0 R 0 220 R -47 0 R 94 0 R D 14891 12288 M 94 0 R
-47 0 R 0 299 R -47 0 R 94 0 R D 15056 11836 M 94 0 R -47 0 R 0 417 R
-47 0 R 94 0 R D 15221 11192 M 94 0 R -47 0 R 0 588 R -47 0 R 94 0 R D
15385 10276 M 94 0 R -47 0 R 0 834 R -47 0 R 94 0 R D 15597 10000 M 0 164 R
-47 0 R 94 0 R D L2 12100 11633 M 70 0 R 71 0 R 71 0 R 70 0 R 71 0 R 70 0 R
71 0 R 70 0 R 71 0 R D L0 0.761 0.000 0.000 setrgbcolor 12100 11160 M 70 0 R
71 0 R 71 0 R 70 0 R 71 0 R 70 0 R 71 0 R 70 0 R 71 0 R D
0.000 0.000 1.000 setrgbcolor 12100 10687 M 70 0 R 71 0 R 71 0 R 70 0 R
71 0 R 70 0 R 71 0 R 70 0 R 71 0 R D 0.000 0.000 0.000 setrgbcolor
gsave 12806 11572 translate 0 0 M
(<R) show X -101.051 M
%%IncludeResource: font Helvetica
262.467 /Helvetica STDFONT
(200) show grestore
%%IncludeResource: font Helvetica
423.333 /Helvetica STDFONT 0.761 0.000 0.000 setrgbcolor
gsave 12806 11100 translate 0 0 M
(Ph2) show grestore 0.000 0.000 1.000 setrgbcolor
gsave 12806 10627 translate 0 0 M
(Ph4) show grestore 0.000 0.000 0.000 setrgbcolor 2220 5704 M 4705 0 R D
3332 5704 M 0 172 R D gsave 3332 5176 translate 0 0 M -58.8433 0 N
( ) show grestore 4455 5704 M 0 172 R D gsave 4455 5176 translate 0 0 M
-58.8433 0 N
( ) show grestore 5577 5704 M 0 172 R D gsave 5577 5176 translate 0 0 M
-58.8433 0 N
( ) show grestore 6700 5704 M 0 172 R D gsave 6700 5176 translate 0 0 M
-58.8433 0 N
( ) show grestore 2321 5704 M 0 86 R D 2433 5704 M 0 86 R D 2546 5704 M
0 86 R D 2658 5704 M 0 86 R D 2770 5704 M 0 86 R D 2883 5704 M 0 86 R D
2995 5704 M 0 86 R D 3107 5704 M 0 86 R D 3219 5704 M 0 86 R D 3444 5704 M
0 86 R D 3556 5704 M 0 86 R D 3669 5704 M 0 86 R D 3781 5704 M 0 86 R D
3893 5704 M 0 86 R D 4005 5704 M 0 86 R D 4118 5704 M 0 86 R D 4230 5704 M
0 86 R D 4342 5704 M 0 86 R D 4567 5704 M 0 86 R D 4679 5704 M 0 86 R D
4791 5704 M 0 86 R D 4904 5704 M 0 86 R D 5016 5704 M 0 86 R D 5128 5704 M
0 86 R D 5241 5704 M 0 86 R D 5353 5704 M 0 86 R D 5465 5704 M 0 86 R D
5690 5704 M 0 86 R D 5802 5704 M 0 86 R D 5914 5704 M 0 86 R D 6026 5704 M
0 86 R D 6139 5704 M 0 86 R D 6251 5704 M 0 86 R D 6363 5704 M 0 86 R D
6476 5704 M 0 86 R D 6588 5704 M 0 86 R D 6812 5704 M 0 86 R D 6925 5704 M
0 86 R D 2220 10000 M 4705 0 R D 3332 10000 M 0 -172 R D 4455 10000 M
0 -172 R D 5577 10000 M 0 -172 R D 6700 10000 M 0 -172 R D 2321 10000 M
0 -86 R D 2433 10000 M 0 -86 R D 2546 10000 M 0 -86 R D 2658 10000 M 0 -86 R
D 2770 10000 M 0 -86 R D 2883 10000 M 0 -86 R D 2995 10000 M 0 -86 R D
3107 10000 M 0 -86 R D 3219 10000 M 0 -86 R D 3444 10000 M 0 -86 R D
3556 10000 M 0 -86 R D 3669 10000 M 0 -86 R D 3781 10000 M 0 -86 R D
3893 10000 M 0 -86 R D 4005 10000 M 0 -86 R D 4118 10000 M 0 -86 R D
4230 10000 M 0 -86 R D 4342 10000 M 0 -86 R D 4567 10000 M 0 -86 R D
4679 10000 M 0 -86 R D 4791 10000 M 0 -86 R D 4904 10000 M 0 -86 R D
5016 10000 M 0 -86 R D 5128 10000 M 0 -86 R D 5241 10000 M 0 -86 R D
5353 10000 M 0 -86 R D 5465 10000 M 0 -86 R D 5690 10000 M 0 -86 R D
5802 10000 M 0 -86 R D 5914 10000 M 0 -86 R D 6026 10000 M 0 -86 R D
6139 10000 M 0 -86 R D 6251 10000 M 0 -86 R D 6363 10000 M 0 -86 R D
6476 10000 M 0 -86 R D 6588 10000 M 0 -86 R D 6812 10000 M 0 -86 R D
6925 10000 M 0 -86 R D 2220 5704 M 0 4296 R D 2220 5860 M 188 0 R D
gsave 2109 5719 translate 0 0 M -704.08 0 N
(10) show X 192.937 M
%%IncludeResource: font Helvetica
262.467 /Helvetica STDFONT
(-8) show grestore
%%IncludeResource: font Helvetica
423.333 /Helvetica STDFONT 2220 6896 M 188 0 R D
gsave 2109 6755 translate 0 0 M -704.08 0 N
(10) show X 192.937 M
%%IncludeResource: font Helvetica
262.467 /Helvetica STDFONT
(-6) show grestore
%%IncludeResource: font Helvetica
423.333 /Helvetica STDFONT 2220 7931 M 188 0 R D
gsave 2109 7790 translate 0 0 M -704.08 0 N
(10) show X 192.937 M
%%IncludeResource: font Helvetica
262.467 /Helvetica STDFONT
(-4) show grestore
%%IncludeResource: font Helvetica
423.333 /Helvetica STDFONT 2220 8967 M 188 0 R D
gsave 2109 8826 translate 0 0 M -704.08 0 N
(10) show X 192.937 M
%%IncludeResource: font Helvetica
262.467 /Helvetica STDFONT
(-2) show grestore
%%IncludeResource: font Helvetica
423.333 /Helvetica STDFONT 2220 6378 M 94 0 R D 2220 7413 M 94 0 R D
2220 8449 M 94 0 R D 2220 9485 M 94 0 R D 6925 5704 M 0 4296 R D 6925 5860 M
-188 0 R D 6925 6896 M -188 0 R D 6925 7931 M -188 0 R D 6925 8967 M
-188 0 R D 6925 6378 M -94 0 R D 6925 7413 M -94 0 R D 6925 8449 M -94 0 R D
6925 9485 M -94 0 R D 2220 9431 M 100 -200 R -100 0 R D 2433 9437 M
111 -222 R -222 0 R 111 222 R D 2658 9418 M 111 -222 R -222 0 R 111 222 R D
2883 9396 M 111 -222 R -222 0 R 111 222 R D 3107 9370 M 111 -222 R -222 0 R
111 222 R D 3332 9336 M 111 -222 R -222 0 R 111 222 R D 3556 9291 M
111 -222 R -222 0 R 111 222 R D 3781 9253 M 111 -222 R -222 0 R 111 222 R D
4005 9250 M 111 -222 R -222 0 R 111 222 R D 4230 9238 M 111 -222 R -222 0 R
111 222 R D 4455 9213 M 111 -222 R -222 0 R 111 222 R D 4679 9167 M
111 -222 R -222 0 R 111 222 R D 4904 9088 M 111 -222 R -222 0 R 111 222 R D
5128 8958 M 111 -222 R -222 0 R 111 222 R D 5353 8758 M 111 -222 R -222 0 R
111 222 R D 5577 8494 M 111 -222 R -222 0 R 111 222 R D 5802 8135 M
111 -222 R -222 0 R 111 222 R D 6026 7626 M 111 -222 R -222 0 R 111 222 R D
6251 6879 M 111 -222 R -222 0 R 111 222 R D 6476 5755 M 25 -51 R D
6450 5704 M 26 51 R D 2220 9314 M 36 0 R -36 0 R D 2220 9367 M 36 0 R D
2386 9299 M 94 0 R -47 0 R 0 50 R -47 0 R 94 0 R D 2611 9282 M 94 0 R
-47 0 R 0 47 R -47 0 R 94 0 R D 2836 9262 M 94 0 R -47 0 R 0 45 R -47 0 R
94 0 R D 3060 9236 M 94 0 R -47 0 R 0 44 R -47 0 R 94 0 R D 3285 9202 M
94 0 R -47 0 R 0 44 R -47 0 R 94 0 R D 3509 9155 M 94 0 R -47 0 R 0 46 R
-47 0 R 94 0 R D 3734 9118 M 94 0 R -47 0 R 0 46 R -47 0 R 94 0 R D
3958 9118 M 94 0 R -47 0 R 0 40 R -47 0 R 94 0 R D 4183 9109 M 94 0 R
-47 0 R 0 34 R -47 0 R 94 0 R D 4407 9086 M 95 0 R -47 0 R 0 31 R -48 0 R
95 0 R D 4632 9041 M 94 0 R -47 0 R 0 29 R -47 0 R 94 0 R D 4857 8962 M
94 0 R -47 0 R 0 29 R -47 0 R 94 0 R D 5081 8830 M 94 0 R -47 0 R 0 33 R
-47 0 R 94 0 R D 5306 8625 M 94 0 R -47 0 R 0 42 R -47 0 R 94 0 R D
5530 8355 M 94 0 R -47 0 R 0 52 R -47 0 R 94 0 R D 5755 7991 M 94 0 R
-47 0 R 0 61 R -47 0 R 94 0 R D 5979 7478 M 95 0 R -48 0 R 0 68 R -47 0 R
95 0 R D 6204 6685 M 94 0 R -47 0 R 0 143 R -47 0 R 94 0 R D 6476 5704 M
0 683 R -47 0 R 94 0 R D 6700 5704 M 0 674 R -47 0 R 94 0 R D
0.761 0.000 0.000 setrgbcolor 2220 9443 M 286 -74 R 296 -59 R 297 -55 R
297 -54 R 296 -29 R 297 -26 R 297 -67 R 296 -157 R 297 -301 R 297 -373 R
296 -311 R 297 -371 R 297 -679 R 296 216 R D L2 2220 9507 M 286 -78 R
296 -32 R 297 -59 R 297 -57 R 296 -5 R 297 -21 R 297 -158 R 296 -121 R
297 -311 R 297 -247 R 296 -420 R 297 -432 R 297 -679 R 296 379 R D L0
0.000 0.000 1.000 setrgbcolor 2220 9168 M 286 -38 R 296 -50 R 297 -49 R
297 -24 R 296 -52 R 297 -29 R 297 5 R 296 -18 R 297 -158 R 297 -355 R
296 -217 R 297 -221 R 297 -247 R 296 -1962 R D L2 2220 9339 M 286 -26 R
296 -35 R 297 -14 R 297 16 R 296 -158 R 297 41 R 297 56 R 296 -97 R
297 -218 R 297 -259 R 296 -91 R 297 -156 R 297 -1511 R 296 -1134 R D L0
0.000 0.000 0.000 setrgbcolor 6925 5704 M 4704 0 R D 8036 5704 M 0 172 R D
gsave 8036 5176 translate 0 0 M -58.8433 0 N
( ) show grestore 9159 5704 M 0 172 R D gsave 9159 5176 translate 0 0 M
-58.8433 0 N
( ) show grestore 10282 5704 M 0 172 R D gsave 10282 5176 translate 0 0 M
-58.8433 0 N
( ) show grestore 11405 5704 M 0 172 R D gsave 11405 5176 translate 0 0 M
-58.8433 0 N
( ) show grestore 7026 5704 M 0 86 R D 7138 5704 M 0 86 R D 7250 5704 M
0 86 R D 7363 5704 M 0 86 R D 7475 5704 M 0 86 R D 7587 5704 M 0 86 R D
7700 5704 M 0 86 R D 7812 5704 M 0 86 R D 7924 5704 M 0 86 R D 8149 5704 M
0 86 R D 8261 5704 M 0 86 R D 8373 5704 M 0 86 R D 8485 5704 M 0 86 R D
8598 5704 M 0 86 R D 8710 5704 M 0 86 R D 8822 5704 M 0 86 R D 8935 5704 M
0 86 R D 9047 5704 M 0 86 R D 9271 5704 M 0 86 R D 9384 5704 M 0 86 R D
9496 5704 M 0 86 R D 9608 5704 M 0 86 R D 9721 5704 M 0 86 R D 9833 5704 M
0 86 R D 9945 5704 M 0 86 R D 10057 5704 M 0 86 R D 10170 5704 M 0 86 R D
10394 5704 M 0 86 R D 10507 5704 M 0 86 R D 10619 5704 M 0 86 R D
10731 5704 M 0 86 R D 10843 5704 M 0 86 R D 10956 5704 M 0 86 R D
11068 5704 M 0 86 R D 11180 5704 M 0 86 R D 11293 5704 M 0 86 R D
11517 5704 M 0 86 R D 11629 5704 M 0 86 R D 6925 10000 M 4704 0 R D
8036 10000 M 0 -172 R D 9159 10000 M 0 -172 R D 10282 10000 M 0 -172 R D
11405 10000 M 0 -172 R D 7026 10000 M 0 -86 R D 7138 10000 M 0 -86 R D
7250 10000 M 0 -86 R D 7363 10000 M 0 -86 R D 7475 10000 M 0 -86 R D
7587 10000 M 0 -86 R D 7700 10000 M 0 -86 R D 7812 10000 M 0 -86 R D
7924 10000 M 0 -86 R D 8149 10000 M 0 -86 R D 8261 10000 M 0 -86 R D
8373 10000 M 0 -86 R D 8485 10000 M 0 -86 R D 8598 10000 M 0 -86 R D
8710 10000 M 0 -86 R D 8822 10000 M 0 -86 R D 8935 10000 M 0 -86 R D
9047 10000 M 0 -86 R D 9271 10000 M 0 -86 R D 9384 10000 M 0 -86 R D
9496 10000 M 0 -86 R D 9608 10000 M 0 -86 R D 9721 10000 M 0 -86 R D
9833 10000 M 0 -86 R D 9945 10000 M 0 -86 R D 10057 10000 M 0 -86 R D
10170 10000 M 0 -86 R D 10394 10000 M 0 -86 R D 10507 10000 M 0 -86 R D
10619 10000 M 0 -86 R D 10731 10000 M 0 -86 R D 10843 10000 M 0 -86 R D
10956 10000 M 0 -86 R D 11068 10000 M 0 -86 R D 11180 10000 M 0 -86 R D
11293 10000 M 0 -86 R D 11517 10000 M 0 -86 R D 11629 10000 M 0 -86 R D
6925 5704 M 0 4296 R D 6925 5860 M 188 0 R D gsave 6814 5719 translate 0 0 M
-117.687 0 N
( ) show grestore 6925 6896 M 188 0 R D gsave 6814 6755 translate 0 0 M
-117.687 0 N
( ) show grestore 6925 7931 M 188 0 R D gsave 6814 7790 translate 0 0 M
-117.687 0 N
( ) show grestore 6925 8967 M 188 0 R D gsave 6814 8826 translate 0 0 M
-117.687 0 N
( ) show grestore 6925 6378 M 94 0 R D 6925 7413 M 94 0 R D 6925 8449 M
94 0 R D 6925 9485 M 94 0 R D 11629 5704 M 0 4296 R D 11629 5860 M -188 0 R
D 11629 6896 M -188 0 R D 11629 7931 M -188 0 R D 11629 8967 M -188 0 R D
11629 6378 M -94 0 R D 11629 7413 M -94 0 R D 11629 8449 M -94 0 R D
11629 9485 M -94 0 R D 6924 9433 M 101 -202 R -101 0 R D 7138 9437 M
111 -222 R -222 0 R 111 222 R D 7363 9418 M 111 -222 R -222 0 R 111 222 R D
7587 9396 M 111 -222 R -222 0 R 111 222 R D 7812 9370 M 111 -222 R -222 0 R
111 222 R D 8036 9336 M 111 -222 R -222 0 R 111 222 R D 8261 9291 M
111 -222 R -222 0 R 111 222 R D 8485 9253 M 111 -222 R -222 0 R 111 222 R D
8710 9250 M 111 -222 R -222 0 R 111 222 R D 8935 9238 M 111 -222 R -222 0 R
111 222 R D 9159 9213 M 111 -222 R -222 0 R 111 222 R D 9384 9167 M
111 -222 R -222 0 R 111 222 R D 9608 9088 M 111 -222 R -222 0 R 111 222 R D
9833 8958 M 111 -222 R -222 0 R 111 222 R D 10057 8758 M 111 -222 R -222 0 R
111 222 R D 10282 8494 M 111 -222 R -222 0 R 111 222 R D 10507 8135 M
111 -222 R -222 0 R 111 222 R D 10731 7626 M 111 -222 R -222 0 R 111 222 R D
10956 6879 M 111 -222 R -222 0 R 111 222 R D 11180 5755 M 25 -51 R D
11154 5704 M 26 51 R D 6924 9314 M 37 0 R -37 0 R D 6924 9367 M 37 0 R D
7091 9299 M 94 0 R -47 0 R 0 50 R -47 0 R 94 0 R D 7316 9282 M 94 0 R
-47 0 R 0 47 R -47 0 R 94 0 R D 7540 9262 M 94 0 R -47 0 R 0 45 R -47 0 R
94 0 R D 7765 9236 M 94 0 R -47 0 R 0 44 R -47 0 R 94 0 R D 7989 9202 M
94 0 R -47 0 R 0 44 R -47 0 R 94 0 R D 8214 9155 M 94 0 R -47 0 R 0 46 R
-47 0 R 94 0 R D 8438 9118 M 95 0 R -48 0 R 0 46 R -47 0 R 95 0 R D
8663 9118 M 94 0 R -47 0 R 0 40 R -47 0 R 94 0 R D 8888 9109 M 94 0 R
-47 0 R 0 34 R -47 0 R 94 0 R D 9112 9086 M 94 0 R -47 0 R 0 31 R -47 0 R
94 0 R D 9337 9041 M 94 0 R -47 0 R 0 29 R -47 0 R 94 0 R D 9561 8962 M
94 0 R -47 0 R 0 29 R -47 0 R 94 0 R D 9786 8830 M 94 0 R -47 0 R 0 33 R
-47 0 R 94 0 R D 10010 8625 M 95 0 R -48 0 R 0 42 R -47 0 R 95 0 R D
10235 8355 M 94 0 R -47 0 R 0 52 R -47 0 R 94 0 R D 10460 7991 M 94 0 R
-47 0 R 0 61 R -47 0 R 94 0 R D 10684 7478 M 94 0 R -47 0 R 0 68 R -47 0 R
94 0 R D 10909 6685 M 94 0 R -47 0 R 0 143 R -47 0 R 94 0 R D 11180 5704 M
0 683 R -47 0 R 94 0 R D 11405 5704 M 0 674 R -47 0 R 94 0 R D
0.761 0.000 0.000 setrgbcolor 6924 9345 M 286 -63 R 297 -92 R 297 -41 R
296 -46 R 297 -25 R 297 -44 R 296 -27 R 297 -159 R 297 -432 R 296 -227 R
297 -312 R 297 0 R 296 -990 R 297 187 R D L2 6924 9447 M 286 -26 R 297 -82 R
297 -53 R 296 -20 R 297 -45 R 297 -34 R 296 -11 R 297 -184 R 297 -330 R
296 -403 R 297 -261 R 297 -432 R 296 -679 R 297 378 R D L0
0.000 0.000 1.000 setrgbcolor 6924 9302 M 286 -86 R 297 -49 R 297 -29 R
296 -62 R 297 -37 R 297 -26 R 296 41 R 297 -82 R 297 -192 R 296 -211 R
297 -288 R 297 -362 R 296 156 R 297 -2322 R D L2 6924 9376 M 286 -126 R
297 0 R 297 -59 R 296 -45 R 297 61 R 297 -79 R 296 63 R 297 -67 R 297 -213 R
296 -195 R 297 -311 R 297 -156 R 296 -1362 R 297 -1134 R D L0
0.000 0.000 0.000 setrgbcolor 11629 5704 M 4705 0 R D 12741 5704 M 0 172 R D
gsave 12741 5176 translate 0 0 M -58.8433 0 N
( ) show grestore 13864 5704 M 0 172 R D gsave 13864 5176 translate 0 0 M
-58.8433 0 N
( ) show grestore 14987 5704 M 0 172 R D gsave 14987 5176 translate 0 0 M
-58.8433 0 N
( ) show grestore 16110 5704 M 0 172 R D gsave 16110 5176 translate 0 0 M
-58.8433 0 N
( ) show grestore 11730 5704 M 0 86 R D 11843 5704 M 0 86 R D 11955 5704 M
0 86 R D 12067 5704 M 0 86 R D 12180 5704 M 0 86 R D 12292 5704 M 0 86 R D
12404 5704 M 0 86 R D 12516 5704 M 0 86 R D 12629 5704 M 0 86 R D
12853 5704 M 0 86 R D 12966 5704 M 0 86 R D 13078 5704 M 0 86 R D
13190 5704 M 0 86 R D 13302 5704 M 0 86 R D 13415 5704 M 0 86 R D
13527 5704 M 0 86 R D 13639 5704 M 0 86 R D 13752 5704 M 0 86 R D
13976 5704 M 0 86 R D 14088 5704 M 0 86 R D 14201 5704 M 0 86 R D
14313 5704 M 0 86 R D 14425 5704 M 0 86 R D 14538 5704 M 0 86 R D
14650 5704 M 0 86 R D 14762 5704 M 0 86 R D 14874 5704 M 0 86 R D
15099 5704 M 0 86 R D 15211 5704 M 0 86 R D 15324 5704 M 0 86 R D
15436 5704 M 0 86 R D 15548 5704 M 0 86 R D 15660 5704 M 0 86 R D
15773 5704 M 0 86 R D 15885 5704 M 0 86 R D 15997 5704 M 0 86 R D
16222 5704 M 0 86 R D 16334 5704 M 0 86 R D 11629 10000 M 4705 0 R D
12741 10000 M 0 -172 R D 13864 10000 M 0 -172 R D 14987 10000 M 0 -172 R D
16110 10000 M 0 -172 R D 11730 10000 M 0 -86 R D 11843 10000 M 0 -86 R D
11955 10000 M 0 -86 R D 12067 10000 M 0 -86 R D 12180 10000 M 0 -86 R D
12292 10000 M 0 -86 R D 12404 10000 M 0 -86 R D 12516 10000 M 0 -86 R D
12629 10000 M 0 -86 R D 12853 10000 M 0 -86 R D 12966 10000 M 0 -86 R D
13078 10000 M 0 -86 R D 13190 10000 M 0 -86 R D 13302 10000 M 0 -86 R D
13415 10000 M 0 -86 R D 13527 10000 M 0 -86 R D 13639 10000 M 0 -86 R D
13752 10000 M 0 -86 R D 13976 10000 M 0 -86 R D 14088 10000 M 0 -86 R D
14201 10000 M 0 -86 R D 14313 10000 M 0 -86 R D 14425 10000 M 0 -86 R D
14538 10000 M 0 -86 R D 14650 10000 M 0 -86 R D 14762 10000 M 0 -86 R D
14874 10000 M 0 -86 R D 15099 10000 M 0 -86 R D 15211 10000 M 0 -86 R D
15324 10000 M 0 -86 R D 15436 10000 M 0 -86 R D 15548 10000 M 0 -86 R D
15660 10000 M 0 -86 R D 15773 10000 M 0 -86 R D 15885 10000 M 0 -86 R D
15997 10000 M 0 -86 R D 16222 10000 M 0 -86 R D 16334 10000 M 0 -86 R D
11629 5704 M 0 4296 R D 11629 5860 M 189 0 R D
gsave 11518 5719 translate 0 0 M -117.687 0 N
( ) show grestore 11629 6896 M 189 0 R D gsave 11518 6755 translate 0 0 M
-117.687 0 N
( ) show grestore 11629 7931 M 189 0 R D gsave 11518 7790 translate 0 0 M
-117.687 0 N
( ) show grestore 11629 8967 M 189 0 R D gsave 11518 8826 translate 0 0 M
-117.687 0 N
( ) show grestore 11629 6378 M 95 0 R D 11629 7413 M 95 0 R D 11629 8449 M
95 0 R D 11629 9485 M 95 0 R D 16334 5704 M 0 4296 R D 16334 5860 M -188 0 R
D 16334 6896 M -188 0 R D 16334 7931 M -188 0 R D 16334 8967 M -188 0 R D
16334 6378 M -94 0 R D 16334 7413 M -94 0 R D 16334 8449 M -94 0 R D
16334 9485 M -94 0 R D 11629 9431 M 100 -200 R -100 0 R D 11843 9437 M
111 -222 R -222 0 R 111 222 R D 12067 9418 M 111 -222 R -222 0 R 111 222 R D
12292 9396 M 111 -222 R -222 0 R 111 222 R D 12516 9370 M 111 -222 R
-222 0 R 111 222 R D 12741 9336 M 111 -222 R -222 0 R 111 222 R D
12966 9291 M 111 -222 R -222 0 R 111 222 R D 13190 9253 M 111 -222 R
-222 0 R 111 222 R D 13415 9250 M 111 -222 R -222 0 R 111 222 R D
13639 9238 M 111 -222 R -222 0 R 111 222 R D 13864 9213 M 111 -222 R
-222 0 R 111 222 R D 14088 9167 M 111 -222 R -222 0 R 111 222 R D
14313 9088 M 111 -222 R -222 0 R 111 222 R D 14538 8958 M 111 -222 R
-222 0 R 111 222 R D 14762 8758 M 111 -222 R -222 0 R 111 222 R D
14987 8494 M 111 -222 R -222 0 R 111 222 R D 15211 8135 M 111 -222 R
-222 0 R 111 222 R D 15436 7626 M 111 -222 R -222 0 R 111 222 R D
15660 6879 M 111 -222 R -222 0 R 111 222 R D 15885 5755 M 25 -51 R D
15859 5704 M 26 51 R D 11629 9314 M 36 0 R -36 0 R D 11629 9367 M 36 0 R D
11796 9299 M 94 0 R -47 0 R 0 50 R -47 0 R 94 0 R D 12020 9282 M 94 0 R
-47 0 R 0 47 R -47 0 R 94 0 R D 12245 9262 M 94 0 R -47 0 R 0 45 R -47 0 R
94 0 R D 12469 9236 M 95 0 R -48 0 R 0 44 R -47 0 R 95 0 R D 12694 9202 M
94 0 R -47 0 R 0 44 R -47 0 R 94 0 R D 12919 9155 M 94 0 R -47 0 R 0 46 R
-47 0 R 94 0 R D 13143 9118 M 94 0 R -47 0 R 0 46 R -47 0 R 94 0 R D
13368 9118 M 94 0 R -47 0 R 0 40 R -47 0 R 94 0 R D 13592 9109 M 94 0 R
-47 0 R 0 34 R -47 0 R 94 0 R D 13817 9086 M 94 0 R -47 0 R 0 31 R -47 0 R
94 0 R D 14041 9041 M 94 0 R -47 0 R 0 29 R -47 0 R 94 0 R D 14266 8962 M
94 0 R -47 0 R 0 29 R -47 0 R 94 0 R D 14491 8830 M 94 0 R -47 0 R 0 33 R
-47 0 R 94 0 R D 14715 8625 M 94 0 R -47 0 R 0 42 R -47 0 R 94 0 R D
14940 8355 M 94 0 R -47 0 R 0 52 R -47 0 R 94 0 R D 15164 7991 M 94 0 R
-47 0 R 0 61 R -47 0 R 94 0 R D 15389 7478 M 94 0 R -47 0 R 0 68 R -47 0 R
94 0 R D 15613 6685 M 94 0 R -47 0 R 0 143 R -47 0 R 94 0 R D 15885 5704 M
0 683 R -47 0 R 94 0 R D 16110 5704 M 0 674 R -48 0 R 95 0 R D
0.761 0.000 0.000 setrgbcolor 11629 9358 M 286 -67 R 297 -63 R 296 -62 R
297 -62 R 297 -8 R 296 -30 R 297 -59 R 297 -160 R 296 -231 R 297 -412 R
297 -312 R 296 -326 R 297 -679 R 297 194 R D L2 11629 9487 M 286 -82 R
297 -54 R 296 -45 R 297 -54 R 297 -7 R 296 -32 R 297 -57 R 297 -197 R
296 -262 R 297 -405 R 297 -294 R 296 -432 R 297 -679 R 297 338 R D L0
0.000 0.000 1.000 setrgbcolor 11629 9257 M 286 -23 R 297 -55 R 296 -41 R
297 -45 R 297 15 R 296 -32 R 297 38 R 297 -79 R 296 -227 R 297 -193 R
297 -199 R 296 -282 R 297 -156 R 297 -2225 R D L2 11629 9231 M 286 -15 R
297 -28 R 296 -57 R 297 9 R 297 33 R 296 -48 R 297 75 R 297 -110 R
296 -216 R 297 -96 R 297 -362 R 296 -247 R 297 0 R 297 -2416 R D L0
0.000 0.000 0.000 setrgbcolor 2220 1408 M 4705 0 R D 3332 1408 M 0 172 R D
gsave 3332 880 translate 0 0 M -117.687 0 N
(9) show grestore 4455 1408 M 0 172 R D gsave 4455 880 translate 0 0 M
-235.373 0 N
(10) show grestore 5577 1408 M 0 172 R D gsave 5577 880 translate 0 0 M
-235.373 0 N
(11) show grestore 6700 1408 M 0 172 R D gsave 6700 880 translate 0 0 M
-235.373 0 N
(12) show grestore 2321 1408 M 0 86 R D 2433 1408 M 0 86 R D 2546 1408 M
0 86 R D 2658 1408 M 0 86 R D 2770 1408 M 0 86 R D 2883 1408 M 0 86 R D
2995 1408 M 0 86 R D 3107 1408 M 0 86 R D 3219 1408 M 0 86 R D 3444 1408 M
0 86 R D 3556 1408 M 0 86 R D 3669 1408 M 0 86 R D 3781 1408 M 0 86 R D
3893 1408 M 0 86 R D 4005 1408 M 0 86 R D 4118 1408 M 0 86 R D 4230 1408 M
0 86 R D 4342 1408 M 0 86 R D 4567 1408 M 0 86 R D 4679 1408 M 0 86 R D
4791 1408 M 0 86 R D 4904 1408 M 0 86 R D 5016 1408 M 0 86 R D 5128 1408 M
0 86 R D 5241 1408 M 0 86 R D 5353 1408 M 0 86 R D 5465 1408 M 0 86 R D
5690 1408 M 0 86 R D 5802 1408 M 0 86 R D 5914 1408 M 0 86 R D 6026 1408 M
0 86 R D 6139 1408 M 0 86 R D 6251 1408 M 0 86 R D 6363 1408 M 0 86 R D
6476 1408 M 0 86 R D 6588 1408 M 0 86 R D 6812 1408 M 0 86 R D 6925 1408 M
0 86 R D 2220 5704 M 4705 0 R D 3332 5704 M 0 -172 R D 4455 5704 M 0 -172 R
D 5577 5704 M 0 -172 R D 6700 5704 M 0 -172 R D 2321 5704 M 0 -86 R D
2433 5704 M 0 -86 R D 2546 5704 M 0 -86 R D 2658 5704 M 0 -86 R D
2770 5704 M 0 -86 R D 2883 5704 M 0 -86 R D 2995 5704 M 0 -86 R D
3107 5704 M 0 -86 R D 3219 5704 M 0 -86 R D 3444 5704 M 0 -86 R D
3556 5704 M 0 -86 R D 3669 5704 M 0 -86 R D 3781 5704 M 0 -86 R D
3893 5704 M 0 -86 R D 4005 5704 M 0 -86 R D 4118 5704 M 0 -86 R D
4230 5704 M 0 -86 R D 4342 5704 M 0 -86 R D 4567 5704 M 0 -86 R D
4679 5704 M 0 -86 R D 4791 5704 M 0 -86 R D 4904 5704 M 0 -86 R D
5016 5704 M 0 -86 R D 5128 5704 M 0 -86 R D 5241 5704 M 0 -86 R D
5353 5704 M 0 -86 R D 5465 5704 M 0 -86 R D 5690 5704 M 0 -86 R D
5802 5704 M 0 -86 R D 5914 5704 M 0 -86 R D 6026 5704 M 0 -86 R D
6139 5704 M 0 -86 R D 6251 5704 M 0 -86 R D 6363 5704 M 0 -86 R D
6476 5704 M 0 -86 R D 6588 5704 M 0 -86 R D 6812 5704 M 0 -86 R D
6925 5704 M 0 -86 R D 2220 1408 M 0 4296 R D 2220 1564 M 188 0 R D
gsave 2109 1423 translate 0 0 M -704.08 0 N
(10) show X 192.937 M
%%IncludeResource: font Helvetica
262.467 /Helvetica STDFONT
(-8) show grestore
%%IncludeResource: font Helvetica
423.333 /Helvetica STDFONT 2220 2600 M 188 0 R D
gsave 2109 2459 translate 0 0 M -704.08 0 N
(10) show X 192.937 M
%%IncludeResource: font Helvetica
262.467 /Helvetica STDFONT
(-6) show grestore
%%IncludeResource: font Helvetica
423.333 /Helvetica STDFONT 2220 3635 M 188 0 R D
gsave 2109 3494 translate 0 0 M -704.08 0 N
(10) show X 192.937 M
%%IncludeResource: font Helvetica
262.467 /Helvetica STDFONT
(-4) show grestore
%%IncludeResource: font Helvetica
423.333 /Helvetica STDFONT 2220 4671 M 188 0 R D
gsave 2109 4530 translate 0 0 M -704.08 0 N
(10) show X 192.937 M
%%IncludeResource: font Helvetica
262.467 /Helvetica STDFONT
(-2) show grestore
%%IncludeResource: font Helvetica
423.333 /Helvetica STDFONT 2220 2082 M 94 0 R D 2220 3117 M 94 0 R D
2220 4153 M 94 0 R D 2220 5189 M 94 0 R D 6925 1408 M 0 4296 R D 6925 1564 M
-188 0 R D 6925 2600 M -188 0 R D 6925 3635 M -188 0 R D 6925 4671 M
-188 0 R D 6925 2082 M -94 0 R D 6925 3117 M -94 0 R D 6925 4153 M -94 0 R D
6925 5189 M -94 0 R D 2220 5135 M 100 -200 R -100 0 R D 2433 5141 M
111 -222 R -222 0 R 111 222 R D 2658 5122 M 111 -222 R -222 0 R 111 222 R D
2883 5100 M 111 -222 R -222 0 R 111 222 R D 3107 5074 M 111 -222 R -222 0 R
111 222 R D 3332 5040 M 111 -222 R -222 0 R 111 222 R D 3556 4995 M
111 -222 R -222 0 R 111 222 R D 3781 4957 M 111 -222 R -222 0 R 111 222 R D
4005 4954 M 111 -222 R -222 0 R 111 222 R D 4230 4942 M 111 -222 R -222 0 R
111 222 R D 4455 4917 M 111 -222 R -222 0 R 111 222 R D 4679 4871 M
111 -222 R -222 0 R 111 222 R D 4904 4792 M 111 -222 R -222 0 R 111 222 R D
5128 4662 M 111 -222 R -222 0 R 111 222 R D 5353 4462 M 111 -222 R -222 0 R
111 222 R D 5577 4198 M 111 -222 R -222 0 R 111 222 R D 5802 3839 M
111 -222 R -222 0 R 111 222 R D 6026 3330 M 111 -222 R -222 0 R 111 222 R D
6251 2583 M 111 -222 R -222 0 R 111 222 R D 6476 1459 M 25 -51 R D
6450 1408 M 26 51 R D 2220 5018 M 36 0 R -36 0 R D 2220 5071 M 36 0 R D
2386 5003 M 94 0 R -47 0 R 0 50 R -47 0 R 94 0 R D 2611 4986 M 94 0 R
-47 0 R 0 47 R -47 0 R 94 0 R D 2836 4966 M 94 0 R -47 0 R 0 45 R -47 0 R
94 0 R D 3060 4940 M 94 0 R -47 0 R 0 44 R -47 0 R 94 0 R D 3285 4906 M
94 0 R -47 0 R 0 44 R -47 0 R 94 0 R D 3509 4859 M 94 0 R -47 0 R 0 46 R
-47 0 R 94 0 R D 3734 4822 M 94 0 R -47 0 R 0 46 R -47 0 R 94 0 R D
3958 4822 M 94 0 R -47 0 R 0 40 R -47 0 R 94 0 R D 4183 4813 M 94 0 R
-47 0 R 0 34 R -47 0 R 94 0 R D 4407 4790 M 95 0 R -47 0 R 0 31 R -48 0 R
95 0 R D 4632 4745 M 94 0 R -47 0 R 0 29 R -47 0 R 94 0 R D 4857 4666 M
94 0 R -47 0 R 0 29 R -47 0 R 94 0 R D 5081 4534 M 94 0 R -47 0 R 0 33 R
-47 0 R 94 0 R D 5306 4329 M 94 0 R -47 0 R 0 42 R -47 0 R 94 0 R D
5530 4059 M 94 0 R -47 0 R 0 52 R -47 0 R 94 0 R D 5755 3695 M 94 0 R
-47 0 R 0 61 R -47 0 R 94 0 R D 5979 3182 M 95 0 R -48 0 R 0 68 R -47 0 R
95 0 R D 6204 2389 M 94 0 R -47 0 R 0 143 R -47 0 R 94 0 R D 6476 1408 M
0 683 R -47 0 R 94 0 R D 6700 1408 M 0 674 R -47 0 R 94 0 R D
0.761 0.000 0.000 setrgbcolor 2220 5106 M 286 -84 R 296 -65 R 297 -76 R
297 -14 R 296 -35 R 297 -30 R 297 -82 R 296 -132 R 297 -267 R 297 -247 R
296 -282 R 297 -156 R 297 -156 R 296 0 R D L2 2220 5235 M 286 -90 R
296 -88 R 297 -57 R 297 -10 R 296 -43 R 297 30 R 297 -125 R 296 -122 R
297 -274 R 297 -467 R 296 -156 R 297 0 R 297 0 R 296 0 R D L0
0.000 0.000 1.000 setrgbcolor 2220 4784 M 286 21 R 296 -25 R 297 -71 R
297 -16 R 296 11 R 297 10 R 297 -13 R 296 -23 R 297 -161 R 297 -358 R
296 -22 R 297 -236 R 297 -75 R 296 -206 R D L2 2220 4890 M 286 54 R 296 -9 R
297 -76 R 297 7 R 296 -2 R 297 12 R 297 18 R 296 -10 R 297 -125 R 297 -365 R
296 -18 R 297 -312 R 297 0 R 296 -91 R D L0 0.000 0.000 0.000 setrgbcolor
6925 1408 M 4704 0 R D 8036 1408 M 0 172 R D gsave 8036 880 translate 0 0 M
-117.687 0 N
(9) show grestore 9159 1408 M 0 172 R D gsave 9159 880 translate 0 0 M
-235.373 0 N
(10) show grestore 10282 1408 M 0 172 R D gsave 10282 880 translate 0 0 M
-235.373 0 N
(11) show grestore 11405 1408 M 0 172 R D gsave 11405 880 translate 0 0 M
-235.373 0 N
(12) show grestore 7026 1408 M 0 86 R D 7138 1408 M 0 86 R D 7250 1408 M
0 86 R D 7363 1408 M 0 86 R D 7475 1408 M 0 86 R D 7587 1408 M 0 86 R D
7700 1408 M 0 86 R D 7812 1408 M 0 86 R D 7924 1408 M 0 86 R D 8149 1408 M
0 86 R D 8261 1408 M 0 86 R D 8373 1408 M 0 86 R D 8485 1408 M 0 86 R D
8598 1408 M 0 86 R D 8710 1408 M 0 86 R D 8822 1408 M 0 86 R D 8935 1408 M
0 86 R D 9047 1408 M 0 86 R D 9271 1408 M 0 86 R D 9384 1408 M 0 86 R D
9496 1408 M 0 86 R D 9608 1408 M 0 86 R D 9721 1408 M 0 86 R D 9833 1408 M
0 86 R D 9945 1408 M 0 86 R D 10057 1408 M 0 86 R D 10170 1408 M 0 86 R D
10394 1408 M 0 86 R D 10507 1408 M 0 86 R D 10619 1408 M 0 86 R D
10731 1408 M 0 86 R D 10843 1408 M 0 86 R D 10956 1408 M 0 86 R D
11068 1408 M 0 86 R D 11180 1408 M 0 86 R D 11293 1408 M 0 86 R D
11517 1408 M 0 86 R D 11629 1408 M 0 86 R D 6925 5704 M 4704 0 R D
8036 5704 M 0 -172 R D 9159 5704 M 0 -172 R D 10282 5704 M 0 -172 R D
11405 5704 M 0 -172 R D 7026 5704 M 0 -86 R D 7138 5704 M 0 -86 R D
7250 5704 M 0 -86 R D 7363 5704 M 0 -86 R D 7475 5704 M 0 -86 R D
7587 5704 M 0 -86 R D 7700 5704 M 0 -86 R D 7812 5704 M 0 -86 R D
7924 5704 M 0 -86 R D 8149 5704 M 0 -86 R D 8261 5704 M 0 -86 R D
8373 5704 M 0 -86 R D 8485 5704 M 0 -86 R D 8598 5704 M 0 -86 R D
8710 5704 M 0 -86 R D 8822 5704 M 0 -86 R D 8935 5704 M 0 -86 R D
9047 5704 M 0 -86 R D 9271 5704 M 0 -86 R D 9384 5704 M 0 -86 R D
9496 5704 M 0 -86 R D 9608 5704 M 0 -86 R D 9721 5704 M 0 -86 R D
9833 5704 M 0 -86 R D 9945 5704 M 0 -86 R D 10057 5704 M 0 -86 R D
10170 5704 M 0 -86 R D 10394 5704 M 0 -86 R D 10507 5704 M 0 -86 R D
10619 5704 M 0 -86 R D 10731 5704 M 0 -86 R D 10843 5704 M 0 -86 R D
10956 5704 M 0 -86 R D 11068 5704 M 0 -86 R D 11180 5704 M 0 -86 R D
11293 5704 M 0 -86 R D 11517 5704 M 0 -86 R D 11629 5704 M 0 -86 R D
6925 1408 M 0 4296 R D 6925 1564 M 188 0 R D gsave 6814 1423 translate 0 0 M
-117.687 0 N
( ) show grestore 6925 2600 M 188 0 R D gsave 6814 2459 translate 0 0 M
-117.687 0 N
( ) show grestore 6925 3635 M 188 0 R D gsave 6814 3494 translate 0 0 M
-117.687 0 N
( ) show grestore 6925 4671 M 188 0 R D gsave 6814 4530 translate 0 0 M
-117.687 0 N
( ) show grestore 6925 2082 M 94 0 R D 6925 3117 M 94 0 R D 6925 4153 M
94 0 R D 6925 5189 M 94 0 R D 11629 1408 M 0 4296 R D 11629 1564 M -188 0 R
D 11629 2600 M -188 0 R D 11629 3635 M -188 0 R D 11629 4671 M -188 0 R D
11629 2082 M -94 0 R D 11629 3117 M -94 0 R D 11629 4153 M -94 0 R D
11629 5189 M -94 0 R D 6924 5137 M 101 -202 R -101 0 R D 7138 5141 M
111 -222 R -222 0 R 111 222 R D 7363 5122 M 111 -222 R -222 0 R 111 222 R D
7587 5100 M 111 -222 R -222 0 R 111 222 R D 7812 5074 M 111 -222 R -222 0 R
111 222 R D 8036 5040 M 111 -222 R -222 0 R 111 222 R D 8261 4995 M
111 -222 R -222 0 R 111 222 R D 8485 4957 M 111 -222 R -222 0 R 111 222 R D
8710 4954 M 111 -222 R -222 0 R 111 222 R D 8935 4942 M 111 -222 R -222 0 R
111 222 R D 9159 4917 M 111 -222 R -222 0 R 111 222 R D 9384 4871 M
111 -222 R -222 0 R 111 222 R D 9608 4792 M 111 -222 R -222 0 R 111 222 R D
9833 4662 M 111 -222 R -222 0 R 111 222 R D 10057 4462 M 111 -222 R -222 0 R
111 222 R D 10282 4198 M 111 -222 R -222 0 R 111 222 R D 10507 3839 M
111 -222 R -222 0 R 111 222 R D 10731 3330 M 111 -222 R -222 0 R 111 222 R D
10956 2583 M 111 -222 R -222 0 R 111 222 R D 11180 1459 M 25 -51 R D
11154 1408 M 26 51 R D 6924 5018 M 37 0 R -37 0 R D 6924 5071 M 37 0 R D
7091 5003 M 94 0 R -47 0 R 0 50 R -47 0 R 94 0 R D 7316 4986 M 94 0 R
-47 0 R 0 47 R -47 0 R 94 0 R D 7540 4966 M 94 0 R -47 0 R 0 45 R -47 0 R
94 0 R D 7765 4940 M 94 0 R -47 0 R 0 44 R -47 0 R 94 0 R D 7989 4906 M
94 0 R -47 0 R 0 44 R -47 0 R 94 0 R D 8214 4859 M 94 0 R -47 0 R 0 46 R
-47 0 R 94 0 R D 8438 4822 M 95 0 R -48 0 R 0 46 R -47 0 R 95 0 R D
8663 4822 M 94 0 R -47 0 R 0 40 R -47 0 R 94 0 R D 8888 4813 M 94 0 R
-47 0 R 0 34 R -47 0 R 94 0 R D 9112 4790 M 94 0 R -47 0 R 0 31 R -47 0 R
94 0 R D 9337 4745 M 94 0 R -47 0 R 0 29 R -47 0 R 94 0 R D 9561 4666 M
94 0 R -47 0 R 0 29 R -47 0 R 94 0 R D 9786 4534 M 94 0 R -47 0 R 0 33 R
-47 0 R 94 0 R D 10010 4329 M 95 0 R -48 0 R 0 42 R -47 0 R 95 0 R D
10235 4059 M 94 0 R -47 0 R 0 52 R -47 0 R 94 0 R D 10460 3695 M 94 0 R
-47 0 R 0 61 R -47 0 R 94 0 R D 10684 3182 M 94 0 R -47 0 R 0 68 R -47 0 R
94 0 R D 10909 2389 M 94 0 R -47 0 R 0 143 R -47 0 R 94 0 R D 11180 1408 M
0 683 R -47 0 R 94 0 R D 11405 1408 M 0 674 R -47 0 R 94 0 R D
0.761 0.000 0.000 setrgbcolor 6924 5062 M 286 -77 R 297 -71 R 297 -50 R
296 -54 R 297 -29 R 297 -20 R 296 -44 R 297 -180 R 297 -272 R 296 -211 R
297 -213 R 297 -190 R 296 -1060 R 297 -1134 R D L2 6924 5174 M 286 -60 R
297 -81 R 297 -37 R 296 -34 R 297 -34 R 297 7 R 296 -87 R 297 -227 R
297 -247 R 296 -421 R 297 -156 R 297 -527 R 296 -679 R 297 -1134 R D L0
0.000 0.000 1.000 setrgbcolor 6924 4829 M 286 5 R 297 -44 R 297 -42 R
296 -26 R 297 10 R 297 -19 R 296 24 R 297 -29 R 297 -195 R 296 -301 R
297 -136 R 297 -213 R 296 -281 R 297 -156 R D L2 6924 4843 M 286 6 R
297 19 R 297 -29 R 296 -15 R 297 37 R 297 2 R 296 28 R 297 -16 R 297 -245 R
296 -269 R 297 -139 R 297 -952 R 296 -679 R 297 -1134 R D L0
0.000 0.000 0.000 setrgbcolor 11629 1408 M 4705 0 R D 12741 1408 M 0 172 R D
gsave 12741 880 translate 0 0 M -117.687 0 N
(9) show grestore 13864 1408 M 0 172 R D gsave 13864 880 translate 0 0 M
-235.373 0 N
(10) show grestore 14987 1408 M 0 172 R D gsave 14987 880 translate 0 0 M
-235.373 0 N
(11) show grestore 16110 1408 M 0 172 R D gsave 16110 880 translate 0 0 M
-235.373 0 N
(12) show grestore 11730 1408 M 0 86 R D 11843 1408 M 0 86 R D 11955 1408 M
0 86 R D 12067 1408 M 0 86 R D 12180 1408 M 0 86 R D 12292 1408 M 0 86 R D
12404 1408 M 0 86 R D 12516 1408 M 0 86 R D 12629 1408 M 0 86 R D
12853 1408 M 0 86 R D 12966 1408 M 0 86 R D 13078 1408 M 0 86 R D
13190 1408 M 0 86 R D 13302 1408 M 0 86 R D 13415 1408 M 0 86 R D
13527 1408 M 0 86 R D 13639 1408 M 0 86 R D 13752 1408 M 0 86 R D
13976 1408 M 0 86 R D 14088 1408 M 0 86 R D 14201 1408 M 0 86 R D
14313 1408 M 0 86 R D 14425 1408 M 0 86 R D 14538 1408 M 0 86 R D
14650 1408 M 0 86 R D 14762 1408 M 0 86 R D 14874 1408 M 0 86 R D
15099 1408 M 0 86 R D 15211 1408 M 0 86 R D 15324 1408 M 0 86 R D
15436 1408 M 0 86 R D 15548 1408 M 0 86 R D 15660 1408 M 0 86 R D
15773 1408 M 0 86 R D 15885 1408 M 0 86 R D 15997 1408 M 0 86 R D
16222 1408 M 0 86 R D 16334 1408 M 0 86 R D 11629 5704 M 4705 0 R D
12741 5704 M 0 -172 R D 13864 5704 M 0 -172 R D 14987 5704 M 0 -172 R D
16110 5704 M 0 -172 R D 11730 5704 M 0 -86 R D 11843 5704 M 0 -86 R D
11955 5704 M 0 -86 R D 12067 5704 M 0 -86 R D 12180 5704 M 0 -86 R D
12292 5704 M 0 -86 R D 12404 5704 M 0 -86 R D 12516 5704 M 0 -86 R D
12629 5704 M 0 -86 R D 12853 5704 M 0 -86 R D 12966 5704 M 0 -86 R D
13078 5704 M 0 -86 R D 13190 5704 M 0 -86 R D 13302 5704 M 0 -86 R D
13415 5704 M 0 -86 R D 13527 5704 M 0 -86 R D 13639 5704 M 0 -86 R D
13752 5704 M 0 -86 R D 13976 5704 M 0 -86 R D 14088 5704 M 0 -86 R D
14201 5704 M 0 -86 R D 14313 5704 M 0 -86 R D 14425 5704 M 0 -86 R D
14538 5704 M 0 -86 R D 14650 5704 M 0 -86 R D 14762 5704 M 0 -86 R D
14874 5704 M 0 -86 R D 15099 5704 M 0 -86 R D 15211 5704 M 0 -86 R D
15324 5704 M 0 -86 R D 15436 5704 M 0 -86 R D 15548 5704 M 0 -86 R D
15660 5704 M 0 -86 R D 15773 5704 M 0 -86 R D 15885 5704 M 0 -86 R D
15997 5704 M 0 -86 R D 16222 5704 M 0 -86 R D 16334 5704 M 0 -86 R D
11629 1408 M 0 4296 R D 11629 1564 M 189 0 R D
gsave 11518 1423 translate 0 0 M -117.687 0 N
( ) show grestore 11629 2600 M 189 0 R D gsave 11518 2459 translate 0 0 M
-117.687 0 N
( ) show grestore 11629 3635 M 189 0 R D gsave 11518 3494 translate 0 0 M
-117.687 0 N
( ) show grestore 11629 4671 M 189 0 R D gsave 11518 4530 translate 0 0 M
-117.687 0 N
( ) show grestore 11629 2082 M 95 0 R D 11629 3117 M 95 0 R D 11629 4153 M
95 0 R D 11629 5189 M 95 0 R D 16334 1408 M 0 4296 R D 16334 1564 M -188 0 R
D 16334 2600 M -188 0 R D 16334 3635 M -188 0 R D 16334 4671 M -188 0 R D
16334 2082 M -94 0 R D 16334 3117 M -94 0 R D 16334 4153 M -94 0 R D
16334 5189 M -94 0 R D 11629 5135 M 100 -200 R -100 0 R D 11843 5141 M
111 -222 R -222 0 R 111 222 R D 12067 5122 M 111 -222 R -222 0 R 111 222 R D
12292 5100 M 111 -222 R -222 0 R 111 222 R D 12516 5074 M 111 -222 R
-222 0 R 111 222 R D 12741 5040 M 111 -222 R -222 0 R 111 222 R D
12966 4995 M 111 -222 R -222 0 R 111 222 R D 13190 4957 M 111 -222 R
-222 0 R 111 222 R D 13415 4954 M 111 -222 R -222 0 R 111 222 R D
13639 4942 M 111 -222 R -222 0 R 111 222 R D 13864 4917 M 111 -222 R
-222 0 R 111 222 R D 14088 4871 M 111 -222 R -222 0 R 111 222 R D
14313 4792 M 111 -222 R -222 0 R 111 222 R D 14538 4662 M 111 -222 R
-222 0 R 111 222 R D 14762 4462 M 111 -222 R -222 0 R 111 222 R D
14987 4198 M 111 -222 R -222 0 R 111 222 R D 15211 3839 M 111 -222 R
-222 0 R 111 222 R D 15436 3330 M 111 -222 R -222 0 R 111 222 R D
15660 2583 M 111 -222 R -222 0 R 111 222 R D 15885 1459 M 25 -51 R D
15859 1408 M 26 51 R D 11629 5018 M 36 0 R -36 0 R D 11629 5071 M 36 0 R D
11796 5003 M 94 0 R -47 0 R 0 50 R -47 0 R 94 0 R D 12020 4986 M 94 0 R
-47 0 R 0 47 R -47 0 R 94 0 R D 12245 4966 M 94 0 R -47 0 R 0 45 R -47 0 R
94 0 R D 12469 4940 M 95 0 R -48 0 R 0 44 R -47 0 R 95 0 R D 12694 4906 M
94 0 R -47 0 R 0 44 R -47 0 R 94 0 R D 12919 4859 M 94 0 R -47 0 R 0 46 R
-47 0 R 94 0 R D 13143 4822 M 94 0 R -47 0 R 0 46 R -47 0 R 94 0 R D
13368 4822 M 94 0 R -47 0 R 0 40 R -47 0 R 94 0 R D 13592 4813 M 94 0 R
-47 0 R 0 34 R -47 0 R 94 0 R D 13817 4790 M 94 0 R -47 0 R 0 31 R -47 0 R
94 0 R D 14041 4745 M 94 0 R -47 0 R 0 29 R -47 0 R 94 0 R D 14266 4666 M
94 0 R -47 0 R 0 29 R -47 0 R 94 0 R D 14491 4534 M 94 0 R -47 0 R 0 33 R
-47 0 R 94 0 R D 14715 4329 M 94 0 R -47 0 R 0 42 R -47 0 R 94 0 R D
14940 4059 M 94 0 R -47 0 R 0 52 R -47 0 R 94 0 R D 15164 3695 M 94 0 R
-47 0 R 0 61 R -47 0 R 94 0 R D 15389 3182 M 94 0 R -47 0 R 0 68 R -47 0 R
94 0 R D 15613 2389 M 94 0 R -47 0 R 0 143 R -47 0 R 94 0 R D 15885 1408 M
0 683 R -47 0 R 94 0 R D 16110 1408 M 0 674 R -48 0 R 95 0 R D
0.761 0.000 0.000 setrgbcolor 11629 5066 M 286 -52 R 297 -84 R 296 -69 R
297 -52 R 297 -5 R 296 -13 R 297 -47 R 297 -159 R 296 -272 R 297 -224 R
297 -279 R 296 -177 R 297 -115 R 297 -2061 R D L2 11629 5182 M 286 -53 R
297 -96 R 296 -50 R 297 -36 R 297 6 R 296 -1 R 297 -74 R 297 -205 R
296 -262 R 297 -178 R 297 -297 R 296 -65 R 297 -1280 R 297 -1134 R D L0
0.000 0.000 1.000 setrgbcolor 11629 4627 M 286 69 R 297 3 R 296 -28 R
297 -26 R 297 -11 R 296 27 R 297 23 R 297 8 R 296 -142 R 297 -296 R
297 -176 R 296 -203 R 297 -172 R 297 -281 R D L2 11629 4533 M 286 126 R
297 54 R 296 -23 R 297 0 R 297 6 R 296 63 R 297 54 R 297 30 R 296 -172 R
297 -318 R 297 -202 R 296 -136 R 297 -156 R 297 -2402 R D
%%PageTrailer
end
%%PageResources: font Helvetica
%%+ font Symbol
%%+ font AvantGarde-Book
%%Trailer
%%Pages: 1
%%DocumentNeededResources: font Helvetica
%%+ font Symbol
%%+ font AvantGarde-Book
%%EOF
