\BOOKMARK [1][-]{section.1}{\376\377\000\061\000\040\137\025\000\040\212\000}{}% 1
\BOOKMARK [1][-]{section.2}{\376\377\000\062\000\040\211\302\155\113\151\202\217\360}{}% 2
\BOOKMARK [2][-]{subsection.2.1}{\376\377\000\062\000\056\000\061\000\040\153\324\230\221}{section.2}% 3
\BOOKMARK [2][-]{subsection.2.2}{\376\377\000\062\000\056\000\062\000\040\230\234\202\162}{section.2}% 4
\BOOKMARK [2][-]{subsection.2.3}{\376\377\000\062\000\056\000\063\000\040\221\321\134\136\116\060\136\246}{section.2}% 5
\BOOKMARK [2][-]{subsection.2.4}{\376\377\000\062\000\056\000\064\000\040\172\172\225\364\122\006\136\003}{section.2}% 6
\BOOKMARK [2][-]{subsection.2.5}{\376\377\000\062\000\056\000\065\000\040\215\050\221\317\121\375\145\160}{section.2}% 7
\BOOKMARK [2][-]{subsection.2.6}{\376\377\000\062\000\056\000\066\000\040\131\047\134\017}{section.2}% 8
\BOOKMARK [2][-]{subsection.2.7}{\376\377\000\062\000\056\000\067\000\040\211\302\155\113\133\371\164\006\213\272\152\041\127\213\166\204\146\227\171\072}{section.2}% 9
\BOOKMARK [1][-]{section.3}{\376\377\000\063\000\040\164\003\162\266\146\037\126\342\166\204\137\142\142\020\124\214\157\024\123\026}{}% 10
\BOOKMARK [2][-]{subsection.3.1}{\376\377\000\063\000\056\000\061\000\040\164\003\162\266\146\037\126\342\166\204\137\142\142\020}{section.3}% 11
\BOOKMARK [3][-]{subsubsection.3.1.1}{\376\377\000\063\000\056\000\061\000\056\000\061\000\040\137\142\142\020\147\072\122\066}{subsection.3.1}% 12
\BOOKMARK [3][-]{subsubsection.3.1.2}{\376\377\000\063\000\056\000\061\000\056\000\062\000\040\122\035\131\313\215\050\221\317\121\375\145\160}{subsection.3.1}% 13
\BOOKMARK [2][-]{subsection.3.2}{\376\377\000\063\000\056\000\062\000\040\164\003\162\266\146\037\126\342\166\204\157\024\123\026}{section.3}% 14
\BOOKMARK [3][-]{subsubsection.3.2.1}{\376\377\000\063\000\056\000\062\000\056\000\061\000\040\215\050\221\317\166\204\157\024\123\026}{subsection.3.2}% 15
\BOOKMARK [3][-]{subsubsection.3.2.2}{\376\377\000\063\000\056\000\062\000\056\000\062\000\040\131\047\134\017\166\204\157\024\123\026}{subsection.3.2}% 16
\BOOKMARK [3][-]{subsubsection.3.2.3}{\376\377\000\063\000\056\000\062\000\056\000\063\000\040\172\172\225\364\166\204\157\024\123\026}{subsection.3.2}% 17
\BOOKMARK [2][-]{subsection.3.3}{\376\377\000\063\000\056\000\063\000\040\146\037\174\373\166\204\136\166\124\010\116\016\164\003\162\266\146\037\126\342\166\204\137\142\142\020\124\214\157\024\123\026}{section.3}% 18
\BOOKMARK [3][-]{subsubsection.3.3.1}{\376\377\000\063\000\056\000\063\000\056\000\061\000\040\137\142\142\020\116\016\164\346\211\343}{subsection.3.3}% 19
\BOOKMARK [3][-]{subsubsection.3.3.2}{\376\377\000\063\000\056\000\063\000\056\000\062\000\040\221\321\134\136\116\060\136\246\166\204\123\314\134\360\122\006\136\003}{subsection.3.3}% 20
\BOOKMARK [1][-]{section.4}{\376\377\000\064\000\040\140\073\176\323\116\016\213\250\213\272}{}% 21
