\relax 
\providecommand\HyperFirstAtBeginDocument{\AtBeginDocument}
\HyperFirstAtBeginDocument{\ifx\hyper@anchor\@undefined
\global\let\oldcontentsline\contentsline
\gdef\contentsline#1#2#3#4{\oldcontentsline{#1}{#2}{#3}}
\global\let\oldnewlabel\newlabel
\gdef\newlabel#1#2{\newlabelxx{#1}#2}
\gdef\newlabelxx#1#2#3#4#5#6{\oldnewlabel{#1}{{#2}{#3}}}
\AtEndDocument{\ifx\hyper@anchor\@undefined
\let\contentsline\oldcontentsline
\let\newlabel\oldnewlabel
\fi}
\fi}
\global\let\hyper@last\relax 
\gdef\HyperFirstAtBeginDocument#1{#1}
\providecommand*\HyPL@Entry[1]{}
\bibstyle{plain}
\citation{johnson1999,johnson2002,salaris1997,piatti2007}
\citation{eggen1962}
\citation{searle1978}
\citation{holtzman1992,whitmore1993,whitmore1995,zepf1999,larsen2002}
\citation{cote2004}
\citation{jordan2007}
\citation{carter2008,peng2011}
\citation{ferrarese2012}
\citation{frinchaboy2012,lardo2011}
\citation{bates2004}
\citation{mineo2014}
\citation{henze2013}
\citation{brodie2012,alvesbrito2011,usher2012}
\citation{zhang1999,degrijs2003,anders2004,jordan2007}
\citation{brodie2006,peng2008,brodie2012}
\HyPL@Entry{0<</S/D>>}
\@writefile{toc}{\contentsline {section}{\numberline {1}引\hskip 1em\relax 言}{1}{section.1}}
\newlabel{sec:intro}{{1}{1}{引\quad 言\relax }{section.1}{}}
\citation{ashman1992,forbes1997}
\citation{gieles2013,renaud2013}
\citation{kravtsov2005,griffen2010}
\citation{white1991,cole2000,kang2005,benson2012}
\citation{beasley2002,bekki2008,forbes2010,griffen2010,muratov2010}
\citation{beasley2002,bekki2008}
\citation{cote2004,jordan2007,carter2008}
\citation{bates2004,frinchaboy2012,lardo2011}
\@writefile{toc}{\contentsline {section}{\numberline {2}观测概述}{2}{section.2}}
\newlabel{sec:obs}{{2}{2}{观测概述\relax }{section.2}{}}
\citation{peng2008}
\citation{peng2008}
\citation{forbes1996,harris2004,dirsch2005,rhode2004}
\citation{durrell1996}
\citation{lotz2004}
\citation{lotz2004}
\citation{peng2008}
\citation{peng2008}
\citation{peng2008}
\citation{forbes1996,harris2004,dirsch2005,rhode2004}
\citation{durrell1996}
\citation{lotz2004}
\citation{lotz2004}
\citation{peng2008}
\citation{harris1981,zepf1993}
\citation{peng2008}
\citation{zepf1993}
\citation{peng2008}
\citation{zepf1993,miller2007,peng2008}
\citation{miller2007}
\citation{peng2006}
\@writefile{toc}{\contentsline {subsection}{\numberline {2.1}比频}{3}{subsection.2.1}}
\@writefile{lof}{\contentsline {figure}{\numberline {1}{\ignorespaces Virgo星系团中球状星团的比频与星系光度的关系分布\textsuperscript  {\textsuperscript  {\cite  {peng2008}}}。 图中实心点为ACS Virgo Cluster Survey的结果\textsuperscript  {\textsuperscript  {\cite  {peng2008}}}；空心菱形表示早型星系的结果\textsuperscript  {\textsuperscript  {\cite  {forbes1996,harris2004,dirsch2005,rhode2004}}}；加号、星号和正方形表示Durrell 等人\textsuperscript  {\textsuperscript  {\cite  {durrell1996}}} 和Lotz等人\textsuperscript  {\textsuperscript  {\cite  {lotz2004}}}关于矮椭圆星系的结果；三角形表示了本星系群中的5个矮星系的结果\textsuperscript  {\textsuperscript  {\cite  {lotz2004}}}；虚线给出了一个星系具有一个球状星团时的比频分布。图片来自Peng 等人\textsuperscript  {\textsuperscript  {\cite  {peng2008}}}。}}{3}{figure.1}}
\newlabel{fig:SpecificFrequency}{{1}{3}{Virgo星系团中球状星团的比频与星系光度的关系分布\upcite {peng2008}。 图中实心点为ACS Virgo Cluster Survey的结果\upcite {peng2008}；空心菱形表示早型星系的结果\upcite {forbes1996,harris2004,dirsch2005,rhode2004}；加号、星号和正方形表示Durrell 等人\upcite {durrell1996} 和Lotz等人\upcite {lotz2004}关于矮椭圆星系的结果；三角形表示了本星系群中的5个矮星系的结果\upcite {lotz2004}；虚线给出了一个星系具有一个球状星团时的比频分布。图片来自Peng 等人\upcite {peng2008}。\relax }{figure.1}{}}
\citation{peng2006}
\citation{couture1991}
\citation{zepf1993}
\citation{harris1992}
\citation{peng2004}
\citation{rejkuba2005}
\citation{ostrov1993}
\citation{peng2006}
\citation{brodie2006}
\citation{peng2006}
\citation{fan2008}
\citation{alvesbrito2011}
\citation{yoon2006,yoon2011,blakeslee2012}
\citation{brodie2005,woodley2005,proctor2004,usher2012}
\citation{brodie2012,alvesbrito2011,usher2012}
\citation{alvesbrito2011}
\citation{raimondo2005,maraston1998}
\citation{brodie2012}
\citation{usher2012}
\@writefile{toc}{\contentsline {subsection}{\numberline {2.2}颜色}{4}{subsection.2.2}}
\@writefile{lof}{\contentsline {figure}{\numberline {2}{\ignorespaces \bfseries  Virgo星系团中球状星团的颜色分布，其中宿主星系按星等分为7部分。图片来自Peng等人\textsuperscript  {\textsuperscript  {\cite  {peng2006}}}。}}{4}{figure.2}}
\newlabel{fig:ColorDistribution}{{2}{4}{\bfseries Virgo星系团中球状星团的颜色分布，其中宿主星系按星等分为7部分。图片来自Peng等人\upcite {peng2006}。\relax }{figure.2}{}}
\@writefile{toc}{\contentsline {subsection}{\numberline {2.3}金属丰度}{4}{subsection.2.3}}
\citation{fan2008}
\citation{brodie2006}
\citation{peng2004,bassino2006,lee2010a,lee2010b}
\citation{harris2001}
\citation{brodie2006}
\citation{zhang1999,degrijs2003,anders2004,jordan2007}
\citation{ho1996,mengel2002,degrijs2004,jordan2007}
\@writefile{lof}{\contentsline {figure}{\numberline {3}{\ignorespaces 银河系和M31中球状星团的金属丰度分布。图片来自Fan等人\textsuperscript  {\textsuperscript  {\cite  {fan2008}}}。}}{5}{figure.3}}
\newlabel{fig:Metallicity}{{3}{5}{银河系和M31中球状星团的金属丰度分布。图片来自Fan等人\upcite {fan2008}。\relax }{figure.3}{}}
\@writefile{toc}{\contentsline {subsection}{\numberline {2.4}空间分布}{5}{subsection.2.4}}
\@writefile{toc}{\contentsline {subsection}{\numberline {2.5}质量函数}{5}{subsection.2.5}}
\citation{vandenbergh1991}
\citation{jordan2005}
\citation{kundu1998,kundu1999}
\citation{larsen2001}
\citation{kundu2001}
\citation{jordan2005}
\citation{brooks2007}
\@writefile{lof}{\contentsline {figure}{\numberline {4}{\ignorespaces 星系M31中球状星团的空间分布。左图为富金属星团，右图为贫金属星团。图片来自Fan等人\textsuperscript  {\textsuperscript  {\cite  {fan2008}}}。}}{6}{figure.4}}
\newlabel{fig:SpatialDistribution}{{4}{6}{星系M31中球状星团的空间分布。左图为富金属星团，右图为贫金属星团。图片来自Fan等人\upcite {fan2008}。\relax }{figure.4}{}}
\@writefile{toc}{\contentsline {subsection}{\numberline {2.6}大小}{6}{subsection.2.6}}
\newlabel{obs:size}{{2.6}{6}{大小\relax }{subsection.2.6}{}}
\@writefile{toc}{\contentsline {subsection}{\numberline {2.7}观测对理论模型的暗示}{6}{subsection.2.7}}
\citation{ho1996,mengel2002,degrijs2004}
\citation{kruijssen2012a}
\citation{ashman1992}
\citation{forbes1997,forbes2010}
\citation{santos2003}
\citation{griffen2010}
\citation{cote1998,cote2002}
\citation{hilker1998,strader2004}
\citation{kravtsov2005}
\@writefile{toc}{\contentsline {section}{\numberline {3}球状星团的形成和演化}{7}{section.3}}
\newlabel{sec:model}{{3}{7}{球状星团的形成和演化\relax }{section.3}{}}
\@writefile{toc}{\contentsline {subsection}{\numberline {3.1}球状星团的形成}{7}{subsection.3.1}}
\newlabel{subsec:formation}{{3.1}{7}{球状星团的形成\relax }{subsection.3.1}{}}
\@writefile{toc}{\contentsline {subsubsection}{\numberline {3.1.1}形成机制}{7}{subsubsection.3.1.1}}
\newlabel{subsubsec:howform}{{3.1.1}{7}{形成机制\relax }{subsubsection.3.1.1}{}}
\citation{griffen2010}
\citation{springel2008}
\citation{kravtsov2005}
\citation{griffen2010}
\citation{xu2012a,xu2012b}
\citation{prieto2008,muratov2010}
\citation{kravtsov2005}
\citation{fall2001}
\citation{shu2010}
\citation{vesperini2003}
\@writefile{toc}{\contentsline {subsubsection}{\numberline {3.1.2}初始质量函数}{8}{subsubsection.3.1.2}}
\citation{kruijssen2012a}
\citation{fall2001}
\citation{vesperini2003}
\citation{prieto2008}
\citation{shu2010}
\citation{fall2001}
\citation{prieto2008}
\citation{shu2010}
\citation{fall2001}
\citation{heggie2008}
\citation{heggie2008}
\citation{heggie2008}
\@writefile{toc}{\contentsline {subsection}{\numberline {3.2}球状星团的演化}{9}{subsection.3.2}}
\newlabel{subsec:evolution}{{3.2}{9}{球状星团的演化\relax }{subsection.3.2}{}}
\@writefile{toc}{\contentsline {subsubsection}{\numberline {3.2.1}质量的演化}{9}{subsubsection.3.2.1}}
\newlabel{subsubsec:MassEvolution}{{3.2.1}{9}{质量的演化\relax }{subsubsection.3.2.1}{}}
\@writefile{toc}{\contentsline {subsubsection}{\numberline {3.2.2}大小的演化}{9}{subsubsection.3.2.2}}
\newlabel{subsubsec:SizeEvolution}{{3.2.2}{9}{大小的演化\relax }{subsubsection.3.2.2}{}}
\citation{binney2008}
\citation{henon1975}
\citation{alexander2012}
\citation{gieles2011,gieles2013}
\citation{heggie2008}
\@writefile{lof}{\contentsline {figure}{\numberline {5}{\ignorespaces 数值模拟中，球状星团M4潮汐半径、半质量半径、核半径随时间的演化(由上至下)。图片来自Heggie和Giersz\textsuperscript  {\textsuperscript  {\cite  {heggie2008}}}。}}{10}{figure.5}}
\newlabel{fig:RadiusEvolution}{{5}{10}{数值模拟中，球状星团M4潮汐半径、半质量半径、核半径随时间的演化(由上至下)。图片来自Heggie和Giersz\upcite {heggie2008}。\relax }{figure.5}{}}
\citation{binney2008}
\citation{shu2010}
\citation{shu2010}
\citation{prieto2008}
\citation{penarrubia2009}
\citation{kruijssen2011,kruijssen2012b,renaud2011,renaud2013}
\@writefile{toc}{\contentsline {subsubsection}{\numberline {3.2.3}空间的演化}{11}{subsubsection.3.2.3}}
\newlabel{subsubsec:SpatialEvolution}{{3.2.3}{11}{空间的演化\relax }{subsubsection.3.2.3}{}}
\newlabel{eq:f_df}{{9}{11}{空间的演化\relax }{equation.3.9}{}}
\citation{kruijssen2011,kruijssen2012b}
\citation{renaud2011,renaud2013}
\citation{kruijssen2012b}
\citation{brooks2007,dave2007}
\citation{muratov2010}
\citation{tonini2013}
\citation{beasley2002}
\citation{bekki2008}
\citation{beasley2002}
\citation{bekki2008}
\citation{tonini2013}
\@writefile{toc}{\contentsline {subsection}{\numberline {3.3}星系的并合与球状星团的形成和演化}{12}{subsection.3.3}}
\newlabel{subsec:merger}{{3.3}{12}{星系的并合与球状星团的形成和演化\relax }{subsection.3.3}{}}
\@writefile{toc}{\contentsline {subsubsection}{\numberline {3.3.1}形成与瓦解}{12}{subsubsection.3.3.1}}
\@writefile{toc}{\contentsline {subsubsection}{\numberline {3.3.2}金属丰度的双峰分布}{12}{subsubsection.3.3.2}}
\@writefile{toc}{\contentsline {section}{\numberline {4}总结与讨论}{12}{section.4}}
\newlabel{sec:summary}{{4}{12}{总结与讨论\relax }{section.4}{}}
\bibdata{gcsTW}
\bibcite{johnson1999}{{1}{1999}{{Johnson et al.}}{{}}}
\bibcite{johnson2002}{{2}{2002}{{Johnson et al.}}{{}}}
\bibcite{salaris1997}{{3}{1997}{{Salaris et al.}}{{}}}
\bibcite{piatti2007}{{4}{2007}{{Piatti et al.}}{{}}}
\bibcite{eggen1962}{{5}{1962}{{Eggen et al.}}{{}}}
\bibcite{searle1978}{{6}{1978}{{Searle Zinn}}{{}}}
\bibcite{holtzman1992}{{7}{1992}{{Holtzman et al.}}{{}}}
\bibcite{whitmore1993}{{8}{1993}{{Whitmore et al.}}{{}}}
\bibcite{whitmore1995}{{9}{1995}{{Whitmore Schweizer}}{{}}}
\bibcite{zepf1999}{{10}{1999}{{Zepf et al.}}{{}}}
\bibcite{larsen2002}{{11}{2002}{{Larsen }}{{}}}
\bibcite{cote2004}{{12}{2004}{{C{\^o}t{\'e} et al.}}{{}}}
\bibcite{jordan2007}{{13}{2007}{{Jord{\'a}n et al.}}{{}}}
\bibcite{carter2008}{{14}{2008}{{Carter et al.}}{{}}}
\bibcite{peng2011}{{15}{2011}{{Peng et al.}}{{}}}
\bibcite{ferrarese2012}{{16}{2012}{{Ferrarese et al.}}{{}}}
\bibcite{frinchaboy2012}{{17}{2012}{{Frinchaboy et al.}}{{}}}
\bibcite{lardo2011}{{18}{2011}{{Lardo et al.}}{{}}}
\bibcite{bates2004}{{19}{2004}{{Bates et al.}}{{}}}
\bibcite{mineo2014}{{20}{2014}{{Mineo et al.}}{{}}}
\bibcite{henze2013}{{21}{2013}{{Henze et al.}}{{}}}
\bibcite{brodie2012}{{22}{2012}{{Brodie et al.}}{{}}}
\bibcite{alvesbrito2011}{{23}{2011}{{Alves-Brito et al.}}{{}}}
\bibcite{usher2012}{{24}{2012}{{Usher et al.}}{{}}}
\bibcite{zhang1999}{{25}{1999}{{Zhang Fall}}{{}}}
\bibcite{degrijs2003}{{26}{2003}{{de Grijs et al.}}{{}}}
\bibcite{anders2004}{{27}{2004}{{Anders et al.}}{{}}}
\bibcite{brodie2006}{{28}{2006}{{Brodie Strader}}{{}}}
\bibcite{peng2008}{{29}{2008}{{Peng et al.}}{{}}}
\bibcite{ashman1992}{{30}{1992}{{Ashman Zepf}}{{}}}
\bibcite{forbes1997}{{31}{1997}{{Forbes et al.}}{{}}}
\bibcite{gieles2013}{{32}{2013}{{Gieles}}{{}}}
\bibcite{renaud2013}{{33}{2013}{{Renaud Gieles}}{{}}}
\bibcite{kravtsov2005}{{34}{2005}{{Kravtsov Gnedin}}{{}}}
\bibcite{griffen2010}{{35}{2010}{{Griffen et al.}}{{}}}
\bibcite{white1991}{{36}{1991}{{White Frenk}}{{}}}
\bibcite{cole2000}{{37}{2000}{{Cole et al.}}{{}}}
\bibcite{kang2005}{{38}{2005}{{Kang et al.}}{{}}}
\bibcite{benson2012}{{39}{2012}{{Benson}}{{}}}
\bibcite{beasley2002}{{40}{2002}{{Beasley et al.}}{{}}}
\bibcite{bekki2008}{{41}{2008}{{Bekki et al.}}{{}}}
\bibcite{forbes2010}{{42}{2010}{{Forbes Bridges}}{{}}}
\bibcite{muratov2010}{{43}{2010}{{Muratov Gnedin}}{{}}}
\bibcite{forbes1996}{{44}{1996}{{Forbes et al.}}{{}}}
\bibcite{harris1992}{{45}{1992}{{Harris et al.}}{{}}}
\bibcite{harris2004}{{46}{2004}{{Harris et al.}}{{}}}
\bibcite{harris2013}{{47}{2013}{{Harris et al.}}{{}}}
\bibcite{dirsch2005}{{48}{2005}{{Dirsch et al.}}{{}}}
\bibcite{rhode2004}{{49}{2004}{{Rhode Zepf}}{{}}}
\bibcite{durrell1996}{{50}{1996}{{Durrell et al.}}{{}}}
\bibcite{lotz2004}{{51}{2004}{{Lotz et al.}}{{}}}
\bibcite{harris1981}{{52}{1981}{{Harris van den Bergh}}{{}}}
\bibcite{zepf1993}{{53}{1993}{{Zepf Ashman}}{{}}}
\bibcite{miller2007}{{54}{2007}{{Miller Lotz}}{{}}}
\bibcite{peng2006}{{55}{2006}{{Peng et al.}}{{}}}
\bibcite{couture1991}{{56}{1991}{{Couture et al.}}{{}}}
\bibcite{peng2004}{{57}{2004}{{Peng et al.}}{{}}}
\bibcite{rejkuba2005}{{58}{2005}{{Rejkuba et al.}}{{}}}
\bibcite{ostrov1993}{{59}{1993}{{Ostrov et al.}}{{}}}
\bibcite{fan2008}{{60}{2008}{{Fan et al.}}{{}}}
\bibcite{yoon2006}{{61}{2006}{{Yoon et al.}}{{}}}
\bibcite{yoon2011}{{62}{2011}{{Yoon et al.}}{{}}}
\bibcite{blakeslee2012}{{63}{2012}{{Blakeslee et al.}}{{}}}
\bibcite{brodie2005}{{64}{2005}{{Brodie et al.}}{{}}}
\bibcite{woodley2005}{{65}{2005}{{Woodley et al.}}{{}}}
\bibcite{proctor2004}{{66}{2004}{{Proctor et al.}}{{}}}
\bibcite{raimondo2005}{{67}{2005}{{Raimondo et al.}}{{}}}
\bibcite{maraston1998}{{68}{1998}{{Maraston}}{{}}}
\bibcite{bassino2006}{{69}{2006}{{Bassino et al.}}{{}}}
\bibcite{lee2010a}{{70}{2010a}{{Lee et al.}}{{}}}
\bibcite{lee2010b}{{71}{2010b}{{Lee et al.}}{{}}}
\bibcite{harris2001}{{72}{2001}{{Harris}}{{}}}
\bibcite{ho1996}{{73}{1996}{{Ho Filippenko}}{{}}}
\bibcite{mengel2002}{{74}{2002}{{Mengel et al.}}{{}}}
\bibcite{degrijs2004}{{75}{2004}{{de Grijs et al.}}{{}}}
\bibcite{vandenbergh1991}{{76}{1991}{{van den Bergh et al.}}{{}}}
\bibcite{jordan2005}{{77}{2005}{{Jord{\'a}n et al.}}{{}}}
\bibcite{kundu1998}{{78}{1998}{{Kundu Whitmore}}{{}}}
\bibcite{kundu1999}{{79}{1999}{{Kundu et al.}}{{}}}
\bibcite{larsen2001}{{80}{2001}{{Larsen et al.}}{{}}}
\bibcite{kundu2001}{{81}{2001}{{Kundu Whitmore}}{{}}}
\bibcite{brooks2007}{{82}{2007}{{Brooks et al.}}{{}}}
\bibcite{kruijssen2012a}{{83}{2012a}{{Kruijssen Cooper}}{{}}}
\bibcite{santos2003}{{84}{2003}{{Santos}}{{}}}
\bibcite{cote1998}{{85}{1998}{{C{\^o}t{\'e} et al.}}{{}}}
\bibcite{cote2002}{{86}{2002}{{C{\^o}t{\'e} et al.}}{{}}}
\bibcite{hilker1998}{{87}{1998}{{Hilker}}{{}}}
\bibcite{strader2004}{{88}{2004}{{Strader et al.}}{{}}}
\bibcite{springel2008}{{89}{2008}{{Springel et al.}}{{}}}
\bibcite{xu2012a}{{90}{2012a}{{Xu et al.}}{{}}}
\bibcite{xu2012b}{{91}{2012b}{{Xu et al.}}{{}}}
\bibcite{prieto2008}{{92}{2008}{{Prieto Gnedin}}{{}}}
\bibcite{fall2001}{{93}{2001}{{Fall Zhang}}{{}}}
\bibcite{shu2010}{{94}{2010}{{Shu et al.}}{{}}}
\bibcite{vesperini2003}{{95}{2003}{{Vesperini et al.}}{{}}}
\bibcite{heggie2008}{{96}{2008}{{Heggie Giersz}}{{}}}
\bibcite{binney2008}{{97}{2008}{{Binney Tremaine}}{{}}}
\bibcite{henon1975}{{98}{1975}{{H{\'e}non}}{{}}}
\bibcite{alexander2012}{{99}{2012}{{Alexander Gieles}}{{}}}
\bibcite{gieles2011}{{100}{2011}{{Gieles et al.}}{{}}}
\bibcite{penarrubia2009}{{101}{2009}{{Pe{\~n}arrubia et al.}}{{}}}
\bibcite{kruijssen2011}{{102}{2011}{{Kruijssen et al.}}{{}}}
\bibcite{kruijssen2012b}{{103}{2012b}{{Kruijssen et al.}}{{}}}
\bibcite{renaud2011}{{104}{2011}{{Renaud et al.}}{{}}}
\bibcite{dave2007}{{105}{2007}{{Dav{\'e} Oppenheimer}}{{}}}
\bibcite{tonini2013}{{106}{2013}{{Tonini}}{{}}}
