%!PS-Adobe-3.0 EPSF-3.0
%%BoundingBox: 0 0 566 538
%%Title: Graphics produced by IDL
%%For: mgieles@Mark-Gieles-MacBook-Pro.local, 
%%      /Users/mgieles/Dropbox/tex/papers/life-cycle/make_figures/rc_rh_rj
%%Creator: IDL Version 7.0, Mac OS X (darwin i386 m32)
%%CreationDate: Wed Nov 10 21:21:08 2010
%%DocumentData: Clean7bit
%%Requirements: color
%%LanguageLevel: 1
%%PageOrder: Ascend
%%Pages: (atend)
%%DocumentNeededResources: (atend)
%%EndComments
%%BeginProlog
%+ prolog.ps -- Prolog for IDL generated PostScript files
%+ Copyright (c) 1988-2007 ITT Visual Information Solutions. All Rights Reserved.
%v 5
/$IDL_DICT 40 dict def $IDL_DICT begin /bdef { bind def } bind def /C
{currentpoint newpath moveto} bdef /CP {currentpoint} bdef /D {currentpoint
stroke moveto} bdef /F {closepath fill} bdef /K { setgray } bdef /M {moveto}
bdef /N {rmoveto} bdef /P {lineto} bdef /R {rlineto} bdef /S {gsave show
grestore} bdef /X {currentpoint pop} bdef /Z {gsave currentpoint lineto 20
setlinewidth 1 setlinecap stroke grestore} bdef /L0 {[] 0 setdash} bdef /L1
{[40 100] 0 setdash} bdef /L2 {[200 200] 0 setdash} bdef /L3 {[200 100 50
100] 0 setdash} bdef /L4 {[300 100 50 100 50 100 50 100] 0 setdash} bdef /L5
{[400 200] 0 setdash} bdef /STDFONT { findfont exch scalefont setfont } bdef
/ISOFONT { findfont dup length dict begin { 1 index /FID ne {def} {pop pop}
ifelse } forall /Encoding ISOLatin1Encoding def currentdict end /idltmpfont
exch definefont exch scalefont setfont } bdef /ISOBULLET { gsave /Helvetica
findfont exch scalefont setfont (\267) show currentpoint grestore moveto}
bdef /MITERLIMIT { 2.5 setmiterlimit } bdef end
%%EndProlog
%%Page: 0 1
%%PageRequirements: color
%%PageResources: (atend)
%%PageOrientation: Portrait
%%PageBoundingBox: 0 0 566 538
%%BeginPageSetup
$IDL_DICT begin 0.0283465 dup scale MITERLIMIT
%%IncludeResource: font Helvetica
423.333 /Helvetica STDFONT
%%EndPageSetup
25 setlinewidth L0 0.000 0.000 0.000 setrgbcolor 3500 2375 M 15500 0 R D
3500 2375 M 0 310 R D 3398 1799 M 41 20 R 61 61 R 0 -429 R D 3480 1860 M
0 -409 R D 3398 1451 M 184 0 R D 7104 2375 M 0 310 R D 6797 1799 M 41 20 R
61 61 R 0 -429 R D 6879 1860 M 0 -409 R D 6797 1451 M 184 0 R D 7267 1880 M
-61 -20 R -41 -61 R -20 -103 R 0 -61 R 20 -102 R 41 -62 R 61 -20 R 41 0 R
62 20 R 40 62 R 21 102 R 0 61 R -21 103 R -40 61 R -62 20 R -41 0 R
-41 -20 R -20 -20 R -20 -41 R -21 -103 R 0 -61 R 21 -102 R 20 -41 R 20 -21 R
41 -20 R D 7308 1451 M 41 20 R 21 21 R 20 41 R 20 102 R 0 61 R -20 103 R
-20 41 R -21 20 R -41 20 R D 10708 2375 M 0 310 R D 10196 1799 M 41 20 R
62 61 R 0 -429 R D 10278 1860 M 0 -409 R D 10196 1451 M 184 0 R D
10667 1880 M -62 -20 R -41 -61 R -20 -103 R 0 -61 R 20 -102 R 41 -62 R
62 -20 R 41 0 R 61 20 R 41 62 R 20 102 R 0 61 R -20 103 R -41 61 R -61 20 R
-41 0 R -41 -20 R -21 -20 R -20 -41 R -21 -103 R 0 -61 R 21 -102 R 20 -41 R
21 -21 R 41 -20 R D 10708 1451 M 40 20 R 21 21 R 20 41 R 21 102 R 0 61 R
-21 103 R -20 41 R -21 20 R -40 20 R D 11076 1880 M -62 -20 R -41 -61 R
-20 -103 R 0 -61 R 20 -102 R 41 -62 R 62 -20 R 41 0 R 61 20 R 41 62 R
20 102 R 0 61 R -20 103 R -41 61 R -61 20 R -41 0 R -41 -20 R -21 -20 R
-20 -41 R -21 -103 R 0 -61 R 21 -102 R 20 -41 R 21 -21 R 41 -20 R D
11117 1451 M 40 20 R 21 21 R 20 41 R 21 102 R 0 61 R -21 103 R -20 41 R
-21 20 R -40 20 R D 14311 2375 M 0 310 R D 13596 1799 M 41 20 R 61 61 R
0 -429 R D 13677 1860 M 0 -409 R D 13596 1451 M 184 0 R D 14066 1880 M
-61 -20 R -41 -61 R -21 -103 R 0 -61 R 21 -102 R 41 -62 R 61 -20 R 41 0 R
61 20 R 41 62 R 21 102 R 0 61 R -21 103 R -41 61 R -61 20 R -41 0 R
-41 -20 R -20 -20 R -21 -41 R -20 -103 R 0 -61 R 20 -102 R 21 -41 R 20 -21 R
41 -20 R D 14107 1451 M 41 20 R 20 21 R 21 41 R 20 102 R 0 61 R -20 103 R
-21 41 R -20 20 R -41 20 R D 14475 1880 M -61 -20 R -41 -61 R -21 -103 R
0 -61 R 21 -102 R 41 -62 R 61 -20 R 41 0 R 61 20 R 41 62 R 21 102 R 0 61 R
-21 103 R -41 61 R -61 20 R -41 0 R -41 -20 R -20 -20 R -21 -41 R -20 -103 R
0 -61 R 20 -102 R 21 -41 R 20 -21 R 41 -20 R D 14516 1451 M 41 20 R 20 21 R
21 41 R 20 102 R 0 61 R -20 103 R -21 41 R -20 20 R -41 20 R D 14884 1880 M
-61 -20 R -41 -61 R -21 -103 R 0 -61 R 21 -102 R 41 -62 R 61 -20 R 41 0 R
61 20 R 41 62 R 20 102 R 0 61 R -20 103 R -41 61 R -61 20 R -41 0 R
-41 -20 R -20 -20 R -21 -41 R -20 -103 R 0 -61 R 20 -102 R 21 -41 R 20 -21 R
41 -20 R D 14925 1451 M 41 20 R 20 21 R 21 41 R 20 102 R 0 61 R -20 103 R
-21 41 R -20 20 R -41 20 R D 17915 2375 M 0 310 R D 16995 1799 M 41 20 R
61 61 R 0 -429 R D 17077 1860 M 0 -409 R D 16995 1451 M 184 0 R D
17465 1880 M -61 -20 R -41 -61 R -20 -103 R 0 -61 R 20 -102 R 41 -62 R
61 -20 R 41 0 R 62 20 R 40 62 R 21 102 R 0 61 R -21 103 R -40 61 R -62 20 R
-41 0 R -41 -20 R -20 -20 R -20 -41 R -21 -103 R 0 -61 R 21 -102 R 20 -41 R
20 -21 R 41 -20 R D 17506 1451 M 41 20 R 21 21 R 20 41 R 20 102 R 0 61 R
-20 103 R -20 41 R -21 20 R -41 20 R D 17874 1880 M -61 -20 R -41 -61 R
-20 -103 R 0 -61 R 20 -102 R 41 -62 R 61 -20 R 41 0 R 61 20 R 41 62 R
21 102 R 0 61 R -21 103 R -41 61 R -61 20 R -41 0 R -41 -20 R -20 -20 R
-21 -41 R -20 -103 R 0 -61 R 20 -102 R 21 -41 R 20 -21 R 41 -20 R D
17915 1451 M 41 20 R 20 21 R 21 41 R 20 102 R 0 61 R -20 103 R -21 41 R
-20 20 R -41 20 R D 18283 1880 M -61 -20 R -41 -61 R -20 -103 R 0 -61 R
20 -102 R 41 -62 R 61 -20 R 41 0 R 61 20 R 41 62 R 21 102 R 0 61 R -21 103 R
-41 61 R -61 20 R -41 0 R -41 -20 R -20 -20 R -21 -41 R -20 -103 R 0 -61 R
20 -102 R 21 -41 R 20 -21 R 41 -20 R D 18324 1451 M 41 20 R 20 21 R 21 41 R
20 102 R 0 61 R -20 103 R -21 41 R -20 20 R -41 20 R D 18692 1880 M
-61 -20 R -41 -61 R -21 -103 R 0 -61 R 21 -102 R 41 -62 R 61 -20 R 41 0 R
61 20 R 41 62 R 21 102 R 0 61 R -21 103 R -41 61 R -61 20 R -41 0 R
-41 -20 R -20 -20 R -21 -41 R -20 -103 R 0 -61 R 20 -102 R 21 -41 R 20 -21 R
41 -20 R D 18733 1451 M 41 20 R 20 21 R 21 41 R 20 102 R 0 61 R -20 103 R
-21 41 R -20 20 R -41 20 R D 4585 2375 M 0 155 R D 5219 2375 M 0 155 R D
5670 2375 M 0 155 R D 6019 2375 M 0 155 R D 6304 2375 M 0 155 R D
6546 2375 M 0 155 R D 6755 2375 M 0 155 R D 6939 2375 M 0 155 R D
8189 2375 M 0 155 R D 8823 2375 M 0 155 R D 9273 2375 M 0 155 R D
9623 2375 M 0 155 R D 9908 2375 M 0 155 R D 10149 2375 M 0 155 R D
10358 2375 M 0 155 R D 10543 2375 M 0 155 R D 11792 2375 M 0 155 R D
12427 2375 M 0 155 R D 12877 2375 M 0 155 R D 13227 2375 M 0 155 R D
13512 2375 M 0 155 R D 13753 2375 M 0 155 R D 13962 2375 M 0 155 R D
14146 2375 M 0 155 R D 15396 2375 M 0 155 R D 16031 2375 M 0 155 R D
16481 2375 M 0 155 R D 16830 2375 M 0 155 R D 17116 2375 M 0 155 R D
17357 2375 M 0 155 R D 17566 2375 M 0 155 R D 17750 2375 M 0 155 R D
19000 2375 M 0 155 R D 9768 1080 M -144 -430 R D 9768 1080 M 143 -430 R D
9768 1018 M 122 -368 R D 9665 773 M 184 0 R D 9584 650 M 122 0 R D
9829 650 M 123 0 R D 10136 936 M -41 -20 R -21 -20 R -20 -41 R 0 -41 R
20 -41 R 21 -21 R 41 -20 R 41 0 R 40 20 R 21 21 R 20 41 R 0 41 R -20 41 R
-21 20 R -40 20 R -41 0 R D 10095 916 M -21 -41 R 0 -82 R 21 -41 R D
10217 752 M 21 41 R 0 82 R -21 41 R D 10238 896 M 20 20 R 41 20 R 0 -20 R
-41 0 R D 10074 773 M -20 -21 R -21 -40 R 0 -21 R 21 -41 R 61 -41 R 102 0 R
62 -20 R 20 -21 R D 10033 691 M 21 -20 R 61 -21 R 102 0 R 62 -41 R 20 -41 R
0 -20 R -20 -41 R -62 -20 R -122 0 R -62 20 R -20 41 R 0 20 R 20 41 R
62 41 R D 10442 814 M 246 0 R 0 41 R -21 41 R -20 20 R -41 20 R -61 0 R
-62 -20 R -41 -41 R -20 -61 R 0 -41 R 20 -61 R 41 -41 R 62 -21 R 40 0 R
62 21 R 41 41 R D 10667 814 M 0 61 R -20 41 R D 10545 936 M -41 -20 R
-41 -41 R -21 -61 R 0 -41 R 21 -61 R 41 -41 R 41 -21 R D 11158 1161 M
0 -674 R D 11178 1161 M 0 -674 R D 11158 1161 M 143 0 R D 11158 487 M
143 0 R D 11465 1080 M 0 -430 R D 11485 1080 M 123 -368 R D 11465 1080 M
143 -430 R 143 430 R 0 -430 R D 11771 1080 M 0 -430 R D 11403 1080 M 82 0 R
D 11751 1080 M 82 0 R D 11403 650 M 123 0 R D 11690 650 M 143 0 R D
11955 936 M 123 -286 R D 11976 936 M 102 -245 R D 12201 936 M -123 -286 R
-41 -102 R -41 -41 R -41 -20 R -20 0 R -20 20 R 20 21 R 20 -21 R D
11915 936 M 122 0 R D 12119 936 M 123 0 R D 12364 936 M 0 -286 R D
12385 936 M 0 -286 R D 12385 814 M 20 61 R 41 41 R 41 20 R 61 0 R 21 -20 R
0 -20 R -21 -21 R -20 21 R 20 20 R D 12303 936 M 82 0 R D 12303 650 M
143 0 R D 12794 1161 M 0 -674 R D 12814 1161 M 0 -674 R D 12671 1161 M
143 0 R D 12671 487 M 143 0 R D 3500 17875 M 15500 0 R D 3500 17875 M
0 -310 R D 7104 17875 M 0 -310 R D 10708 17875 M 0 -310 R D 14311 17875 M
0 -310 R D 17915 17875 M 0 -310 R D 4585 17875 M 0 -155 R D 5219 17875 M
0 -155 R D 5670 17875 M 0 -155 R D 6019 17875 M 0 -155 R D 6304 17875 M
0 -155 R D 6546 17875 M 0 -155 R D 6755 17875 M 0 -155 R D 6939 17875 M
0 -155 R D 8189 17875 M 0 -155 R D 8823 17875 M 0 -155 R D 9273 17875 M
0 -155 R D 9623 17875 M 0 -155 R D 9908 17875 M 0 -155 R D 10149 17875 M
0 -155 R D 10358 17875 M 0 -155 R D 10543 17875 M 0 -155 R D 11792 17875 M
0 -155 R D 12427 17875 M 0 -155 R D 12877 17875 M 0 -155 R D 13227 17875 M
0 -155 R D 13512 17875 M 0 -155 R D 13753 17875 M 0 -155 R D 13962 17875 M
0 -155 R D 14146 17875 M 0 -155 R D 15396 17875 M 0 -155 R D 16031 17875 M
0 -155 R D 16481 17875 M 0 -155 R D 16830 17875 M 0 -155 R D 17116 17875 M
0 -155 R D 17357 17875 M 0 -155 R D 17566 17875 M 0 -155 R D 17750 17875 M
0 -155 R D 19000 17875 M 0 -155 R D 3500 2375 M 0 15500 R D 3500 2375 M
310 0 R D 2038 2804 M -61 -20 R -41 -61 R -21 -103 R 0 -61 R 21 -102 R
41 -62 R 61 -20 R 41 0 R 61 20 R 41 62 R 21 102 R 0 61 R -21 103 R -41 61 R
-61 20 R -41 0 R -41 -20 R -20 -20 R -21 -41 R -20 -103 R 0 -61 R 20 -102 R
21 -41 R 20 -21 R 41 -20 R D 2079 2375 M 41 20 R 20 21 R 21 41 R 20 102 R
0 61 R -20 103 R -21 41 R -20 20 R -41 20 R D 2365 2416 M -20 -21 R 20 -20 R
21 20 R -21 21 R D 2651 2804 M -61 -20 R -41 -61 R -20 -103 R 0 -61 R
20 -102 R 41 -62 R 61 -20 R 41 0 R 62 20 R 41 62 R 20 102 R 0 61 R -20 103 R
-41 61 R -62 20 R -41 0 R -40 -20 R -21 -20 R -20 -41 R -21 -103 R 0 -61 R
21 -102 R 20 -41 R 21 -21 R 40 -20 R D 2692 2375 M 41 20 R 21 21 R 20 41 R
21 102 R 0 61 R -21 103 R -20 41 R -21 20 R -41 20 R D 2999 2723 M 41 20 R
61 61 R 0 -429 R D 3081 2784 M 0 -409 R D 2999 2375 M 184 0 R D 3500 6295 M
310 0 R D 2038 6478 M -61 -21 R -41 -61 R -21 -102 R 0 -62 R 21 -102 R
41 -61 R 61 -21 R 41 0 R 61 21 R 41 61 R 21 102 R 0 62 R -21 102 R -41 61 R
-61 21 R -41 0 R -41 -21 R -20 -20 R -21 -41 R -20 -102 R 0 -62 R 20 -102 R
21 -41 R 20 -20 R 41 -21 R D 2079 6048 M 41 21 R 20 20 R 21 41 R 20 102 R
0 62 R -20 102 R -21 41 R -20 20 R -41 21 R D 2365 6089 M -20 -20 R 20 -21 R
21 21 R -21 20 R D 2590 6396 M 41 20 R 61 62 R 0 -430 R D 2672 6457 M
0 -409 R D 2590 6048 M 184 0 R D 3060 6478 M -61 -21 R -41 -61 R -20 -102 R
0 -62 R 20 -102 R 41 -61 R 61 -21 R 41 0 R 62 21 R 41 61 R 20 102 R 0 62 R
-20 102 R -41 61 R -62 21 R -41 0 R -41 -21 R -20 -20 R -20 -41 R -21 -102 R
0 -62 R 21 -102 R 20 -41 R 20 -20 R 41 -21 R D 3101 6048 M 41 21 R 21 20 R
20 41 R 21 102 R 0 62 R -21 102 R -20 41 R -21 20 R -41 21 R D 3500 10215 M
310 0 R D 1977 10316 M 41 20 R 61 62 R 0 -430 R D 2058 10377 M 0 -409 R D
1977 9968 M 184 0 R D 2365 10009 M -20 -20 R 20 -21 R 21 21 R -21 20 R D
2651 10398 M -61 -21 R -41 -61 R -20 -102 R 0 -62 R 20 -102 R 41 -61 R
61 -21 R 41 0 R 62 21 R 41 61 R 20 102 R 0 62 R -20 102 R -41 61 R -62 21 R
-41 0 R -40 -21 R -21 -20 R -20 -41 R -21 -102 R 0 -62 R 21 -102 R 20 -41 R
21 -20 R 40 -21 R D 2692 9968 M 41 21 R 21 20 R 20 41 R 21 102 R 0 62 R
-21 102 R -20 41 R -21 20 R -41 21 R D 3060 10398 M -61 -21 R -41 -61 R
-20 -102 R 0 -62 R 20 -102 R 41 -61 R 61 -21 R 41 0 R 62 21 R 41 61 R
20 102 R 0 62 R -20 102 R -41 61 R -62 21 R -41 0 R -41 -21 R -20 -20 R
-20 -41 R -21 -102 R 0 -62 R 21 -102 R 20 -41 R 20 -20 R 41 -21 R D
3101 9968 M 41 21 R 21 20 R 20 41 R 21 102 R 0 62 R -21 102 R -20 41 R
-21 20 R -41 21 R D 3500 14135 M 310 0 R D 1568 14236 M 41 20 R 61 62 R
0 -430 R D 1650 14297 M 0 -409 R D 1568 13888 M 184 0 R D 2038 14318 M
-61 -21 R -41 -61 R -21 -103 R 0 -61 R 21 -102 R 41 -61 R 61 -21 R 41 0 R
61 21 R 41 61 R 21 102 R 0 61 R -21 103 R -41 61 R -61 21 R -41 0 R
-41 -21 R -20 -20 R -21 -41 R -20 -103 R 0 -61 R 20 -102 R 21 -41 R 20 -20 R
41 -21 R D 2079 13888 M 41 21 R 20 20 R 21 41 R 20 102 R 0 61 R -20 103 R
-21 41 R -20 20 R -41 21 R D 2365 13929 M -20 -20 R 20 -21 R 21 21 R
-21 20 R D 2651 14318 M -61 -21 R -41 -61 R -20 -103 R 0 -61 R 20 -102 R
41 -61 R 61 -21 R 41 0 R 62 21 R 41 61 R 20 102 R 0 61 R -20 103 R -41 61 R
-62 21 R -41 0 R -40 -21 R -21 -20 R -20 -41 R -21 -103 R 0 -61 R 21 -102 R
20 -41 R 21 -20 R 40 -21 R D 2692 13888 M 41 21 R 21 20 R 20 41 R 21 102 R
0 61 R -21 103 R -20 41 R -21 20 R -41 21 R D 3060 14318 M -61 -21 R
-41 -61 R -20 -103 R 0 -61 R 20 -102 R 41 -61 R 61 -21 R 41 0 R 62 21 R
41 61 R 20 102 R 0 61 R -20 103 R -41 61 R -62 21 R -41 0 R -41 -21 R
-20 -20 R -20 -41 R -21 -103 R 0 -61 R 21 -102 R 20 -41 R 20 -20 R 41 -21 R
D 3101 13888 M 41 21 R 21 20 R 20 41 R 21 102 R 0 61 R -21 103 R -20 41 R
-21 20 R -41 21 R D 3500 3555 M 155 0 R D 3500 4245 M 155 0 R D 3500 4735 M
155 0 R D 3500 5115 M 155 0 R D 3500 5425 M 155 0 R D 3500 5688 M 155 0 R D
3500 5915 M 155 0 R D 3500 6115 M 155 0 R D 3500 7475 M 155 0 R D
3500 8165 M 155 0 R D 3500 8655 M 155 0 R D 3500 9035 M 155 0 R D
3500 9345 M 155 0 R D 3500 9607 M 155 0 R D 3500 9835 M 155 0 R D
3500 10035 M 155 0 R D 3500 11395 M 155 0 R D 3500 12085 M 155 0 R D
3500 12575 M 155 0 R D 3500 12955 M 155 0 R D 3500 13265 M 155 0 R D
3500 13527 M 155 0 R D 3500 13755 M 155 0 R D 3500 13955 M 155 0 R D
3500 15315 M 155 0 R D 3500 16005 M 155 0 R D 3500 16495 M 155 0 R D
3500 16874 M 155 0 R D 3500 17185 M 155 0 R D 3500 17447 M 155 0 R D
3500 17674 M 155 0 R D 3500 17875 M 155 0 R D 453 8193 M 430 0 R D
453 8213 M 430 0 R D 453 8131 M 0 246 R 21 61 R 20 21 R 41 20 R 41 0 R
41 -20 R 20 -21 R 21 -61 R 0 -164 R D 453 8377 M 21 41 R 20 20 R 41 21 R
41 0 R 41 -21 R 20 -20 R 21 -41 R D 883 8131 M 0 144 R D 658 8315 M 20 41 R
21 21 R 143 61 R 20 21 R 0 20 R -20 20 R D 678 8356 M 41 21 R 143 41 R
21 20 R 0 41 R -41 20 R -21 0 R D 637 8643 M 21 0 R 0 -21 R -21 0 R -20 21 R
-21 40 R 0 82 R 21 41 R 20 21 R 41 20 R 143 0 R 41 20 R 21 21 R D 637 8827 M
184 0 R 41 20 R 21 41 R 0 20 R D 678 8827 M 21 -21 R 20 -123 R 21 -61 R
40 -20 R 41 0 R 41 20 R 21 61 R 0 62 R -21 41 R -41 41 R D 719 8683 M
21 -40 R 40 -21 R 41 0 R 41 21 R 21 40 R D 453 9256 M 430 0 R D 453 9276 M
430 0 R D 658 9256 M -41 -41 R -21 -41 R 0 -41 R 21 -61 R 41 -41 R 61 -20 R
41 0 R 61 20 R 41 41 R 21 61 R 0 41 R -21 41 R -41 41 R D 596 9133 M
21 -41 R 41 -40 R 61 -21 R 41 0 R 61 21 R 41 40 R 21 41 R D 453 9195 M
0 81 R D 883 9256 M 0 82 R D 453 9481 M 21 -21 R 20 21 R -20 20 R -21 -20 R
D 596 9481 M 287 0 R D 596 9501 M 287 0 R D 596 9420 M 0 81 R D 883 9420 M
0 143 R D 596 9706 M 225 0 R 41 20 R 21 62 R 0 41 R -21 61 R -41 41 R D
596 9726 M 225 0 R 41 21 R 21 41 R D 596 9931 M 287 0 R D 596 9951 M 287 0 R
D 596 9644 M 0 82 R D 596 9869 M 0 82 R D 883 9931 M 0 82 R D 637 10319 M
-41 21 R 82 0 R -41 -21 R -20 -20 R -21 -41 R 0 -82 R 21 -41 R 20 -20 R
41 0 R 21 20 R 20 41 R 41 102 R 20 41 R 21 21 R D 658 10115 M 20 20 R
21 41 R 41 102 R 20 41 R 20 21 R 62 0 R 20 -21 R 21 -41 R 0 -81 R -21 -41 R
-20 -21 R -41 -20 R 82 0 R -41 20 R D 372 10810 M 674 0 R D 372 10830 M
674 0 R D 372 10810 M 0 143 R D 1046 10810 M 0 143 R D 596 11117 M 450 0 R D
596 11137 M 450 0 R D 658 11137 M -41 41 R -21 41 R 0 41 R 21 61 R 41 41 R
61 21 R 41 0 R 61 -21 R 41 -41 R 21 -61 R 0 -41 R -21 -41 R -41 -41 R D
596 11260 M 21 41 R 41 41 R 61 20 R 41 0 R 61 -20 R 41 -41 R 21 -41 R D
596 11055 M 0 82 R D 1046 11055 M 0 143 R D 658 11751 M 20 -21 R 21 21 R
-21 20 R -20 0 R -41 -41 R -21 -41 R 0 -61 R 21 -61 R 41 -41 R 61 -21 R
41 0 R 61 21 R 41 41 R 21 61 R 0 41 R -21 61 R -41 41 R D 596 11628 M
21 -41 R 41 -41 R 61 -20 R 41 0 R 61 20 R 41 41 R 21 41 R D 372 12016 M
674 0 R D 372 12037 M 674 0 R D 372 11894 M 0 143 R D 1046 11894 M 0 143 R D
19000 2375 M 0 15500 R D 19000 2375 M -310 0 R D 19000 6295 M -310 0 R D
19000 10215 M -310 0 R D 19000 14135 M -310 0 R D 19000 3555 M -155 0 R D
19000 4245 M -155 0 R D 19000 4735 M -155 0 R D 19000 5115 M -155 0 R D
19000 5425 M -155 0 R D 19000 5688 M -155 0 R D 19000 5915 M -155 0 R D
19000 6115 M -155 0 R D 19000 7475 M -155 0 R D 19000 8165 M -155 0 R D
19000 8655 M -155 0 R D 19000 9035 M -155 0 R D 19000 9345 M -155 0 R D
19000 9607 M -155 0 R D 19000 9835 M -155 0 R D 19000 10035 M -155 0 R D
19000 11395 M -155 0 R D 19000 12085 M -155 0 R D 19000 12575 M -155 0 R D
19000 12955 M -155 0 R D 19000 13265 M -155 0 R D 19000 13527 M -155 0 R D
19000 13755 M -155 0 R D 19000 13955 M -155 0 R D 19000 15315 M -155 0 R D
19000 16005 M -155 0 R D 19000 16495 M -155 0 R D 19000 16874 M -155 0 R D
19000 17185 M -155 0 R D 19000 17447 M -155 0 R D 19000 17674 M -155 0 R D
19000 17875 M -155 0 R D 3500 8849 M 4489 -3305 R 1026 -2002 R 177 1494 R
301 -965 R 251 -639 R 216 427 R 97 89 R 178 405 R 158 -888 R 144 467 R
131 1385 R 232 -849 R 201 -348 R 177 1254 R 158 -1016 R 143 -479 R
131 1669 R 120 -1255 R 111 193 R 104 -637 R 97 918 R 91 99 R 86 1453 R
81 -300 R 77 -2 R 73 -71 R 70 -813 R 66 457 R 64 775 R 61 -607 R 59 -144 R
57 -223 R 54 -208 R 53 1213 R 51 -999 R 49 443 R 47 323 R 46 -359 R
45 -249 R 43 -220 R 43 1117 R 41 -504 R 39 -421 R 39 475 R 38 -855 R
37 1173 R 36 687 R 35 -935 R 35 359 R 33 -235 R 33 556 R 32 -1340 R
32 -246 R 30 1853 R 31 367 R 29 -1503 R 29 533 R 28 -264 R 28 935 R 28 402 R
27 -1197 R 26 313 R 26 802 R 25 -2136 R 25 2310 R 25 -1583 R 24 756 R
24 485 R 23 -993 R 23 724 R 23 490 R 22 -1384 R 22 1002 R 22 -104 R 42 602 R
42 -1179 R 40 -720 R 39 1646 R 38 -347 R 36 -1398 R 37 517 R 35 147 R
34 834 R 34 -69 R 32 -515 R 32 -22 R 32 536 R 30 -805 R 30 562 R 30 -1187 R
29 1063 R 28 420 R 27 -1326 R 28 724 R 26 27 R 26 -582 R 26 911 R 25 136 R
25 -115 R 24 407 R 24 333 R 24 -842 R 23 120 R 22 -71 R 23 -668 R 22 -48 R
21 -130 R 22 854 R 21 -753 R 20 1222 R 21 -1089 R 20 517 R 20 -1693 R
19 1432 R 19 -264 R 19 616 R 19 -665 R 19 1656 R 18 -1287 R 18 746 R
17 -1116 R 18 1490 R 17 -1589 R 17 -165 R 17 650 R 17 789 R 16 -691 R
16 -219 R 16 887 R 16 -1200 R 16 411 R 15 3 R 16 -390 R 15 -227 R 15 931 R
15 -117 R 14 207 R 15 -171 R 14 187 R 14 120 R 14 648 R 14 -1267 R 14 -219 R
13 406 R 14 -50 R 13 266 R 13 -1068 R 13 296 R 13 -74 R 13 381 R 12 263 R
13 -386 R 12 1347 R 12 510 R 13 -862 R 12 -668 R 12 223 R 11 717 R 12 -946 R
12 -1122 R 11 1357 R 12 97 R 11 486 R 11 -1260 R 11 783 R 11 165 R 11 334 R
11 18 R 10 -1303 R 11 496 R 11 1144 R 10 -774 R 10 -193 R 11 296 R 10 456 R
10 -473 R 10 -152 R 10 -40 R 10 441 R 10 -483 R 9 135 R 10 -988 R 9 833 R
10 -239 R 9 -1431 R 10 1350 R 9 608 R 9 765 R 9 -581 R 9 -801 R 9 478 R
9 -169 R 9 -926 R 9 1735 R 8 -651 R 9 804 R 9 -957 R 8 877 R 9 -57 R
8 -1126 R 8 512 R 9 884 R 8 -1075 R 8 287 R 8 -997 R 8 -37 R 8 879 R 8 829 R
8 -466 R 8 -1001 R 8 592 R 7 1252 R 8 -1499 R 8 952 R 7 98 R 8 -402 R
7 -1259 R 8 996 R 7 716 R 7 319 R 8 -76 R 7 -1028 R 7 -397 R 7 513 R
7 -220 R 7 1252 R 7 -311 R 7 214 R 7 -883 R 7 117 R 7 -276 R 7 421 R
7 -244 R 6 -155 R 7 -148 R 7 421 R 6 144 R 7 68 R 6 -425 R 7 -149 R 6 -667 R
7 90 R 6 511 R 6 -601 R 7 1085 R 6 -248 R 6 325 R 6 120 R 6 -969 R 7 190 R
6 509 R 6 -418 R 6 -114 R 6 -914 R 6 1704 R 6 -357 R 5 14 R 6 -819 R
6 1406 R 6 -1226 R 6 752 R 5 785 R 6 -1579 R 6 269 R 5 -266 R 6 247 R
6 869 R 5 -214 R 6 -1683 R 5 2058 R 5 -1386 R 6 988 R 5 -39 R 6 227 R
5 -1152 R 5 640 R 6 -356 R 5 -78 R 5 -1367 R 5 1776 R 5 307 R 6 -753 R
5 130 R 5 846 R 5 -945 R 5 359 R 5 -1264 R 5 292 R 5 1337 R 5 101 R
5 -1419 R 5 781 R 5 651 R 4 -1122 R 5 1194 R 5 -815 R 5 -255 R 5 160 R
4 755 R 5 -646 R 5 -176 R 4 633 R 5 -809 R 5 192 R 4 165 R 5 -520 R 4 1177 R
5 -1033 R 4 129 R 5 1549 R 4 -1509 R 5 -418 R 4 959 R 5 219 R 4 294 R
4 222 R 5 -676 R 4 -359 R 4 -272 R 5 1239 R 4 -349 R 4 -615 R 4 340 R
5 -843 R 4 -66 R 4 141 R 4 8 R 4 178 R 4 32 R 5 -45 R 4 1190 R 4 -742 R
4 -532 R 4 254 R 4 66 R 4 993 R 4 -1797 R 4 39 R 4 1333 R 4 -1191 R 3 -615 R
4 651 R 4 -659 R 4 329 R 4 -45 R 4 571 R 4 -284 R 3 395 R 4 497 R 4 -613 R
4 266 R 3 -786 R 4 646 R 4 -1375 R 3 846 R 4 1470 R 4 -942 R 3 113 R
4 -472 R 4 532 R 3 -269 R 4 863 R 3 -925 R 4 263 R 3 -275 R 4 -116 R 3 88 R
4 -273 R 3 -875 R 4 1424 R 3 -566 R 4 -109 R 3 418 R 3 -121 R 4 557 R
3 -44 R 4 -1226 R 3 -139 R 3 -938 R 4 1944 R 3 -655 R 3 420 R 3 -688 R
4 637 R 3 129 R 3 -379 R 3 863 R 4 -572 R 3 568 R 3 -1648 R 3 119 R 3 356 R
2 111 R 3 168 R 3 -354 R 3 87 R 3 53 R 3 -54 R 4 115 R 1 -456 R 3 -418 R
2 636 R 3 -522 R 1 589 R 3 365 R 3 57 R 3 -182 R 3 -277 R 3 875 R 3 -708 R
3 591 R 3 -276 R 3 45 R 3 -628 R 3 232 R 3 513 R 3 -663 R 3 211 R 2 -1027 R
3 927 R 3 -97 R 3 -648 R 3 170 R 1 511 R 3 -129 R 1 9 R 2 -564 R 1 496 R
3 142 R 1 61 R 2 -625 R 1 -494 R 2 706 R 1 270 R 1 -653 R 2 740 R 1 -944 R
1 195 R 2 149 R 1 -182 R 2 291 R 1 -338 R 3 195 R 1 213 R 3 -76 R 1 -205 R
1 531 R 3 -356 R 3 811 R 2 189 R 3 -446 R 3 -319 R 2 156 R 3 306 R 2 -393 R
2 1011 R 2 -695 R 3 -511 R 2 225 R 3 -100 R 1 23 R 3 79 R 2 -170 R 2 -30 R
1 33 R 2 -268 R 2 -267 R 1 297 R 1 515 R 1 -537 R 2 510 R 1 -434 R 1 306 R
1 -210 R 2 -746 R 0 344 R 1 821 R 2 -918 R 1 -678 R 0 160 R 1 -384 R 1 521 R
2 1097 R 1 -80 R 1 -369 R 1 357 R 1 196 R 3 9 R 2 -196 R 1 865 R 3 -890 R
2 -216 R 1 -292 R 2 1225 R 2 -758 R 2 537 R 3 -466 R 2 409 R 2 -351 R
3 -164 R 2 536 R 1 104 R 2 -820 R 3 -154 R 1 441 R 2 -942 R 1 629 R 2 177 R
1 133 R 1 -186 R 1 383 R 1 -320 R 1 422 R 2 -949 R 3 572 R 1 -88 R 1 -255 R
1 1084 R 1 -289 R 1 -128 R 1 -235 R 3 119 R 2 -80 R 1 -660 R 1 1027 R
2 -1226 R 1 235 R 1 -921 R 1 488 R 2 832 R 1 -404 R 1 767 R 1 154 R 1 -304 R
1 -685 R 1 229 R 1 381 R 1 333 R 1 -579 R 1 870 R 2 -238 R 3 -100 R 2 -51 R
2 88 R 2 -177 R 2 261 R 2 -103 R 2 113 R 1 -582 R 2 661 R 2 508 R 2 -362 R
3 144 R 2 -1146 R 1 476 R 1 -417 R 1 860 R 1 -807 R 1 641 R 1 -993 R 1 -60 R
1 -561 R 0 200 R 1 769 R 1 89 R 1 -473 R 1 349 R 1 -203 R 1 726 R 1 -1896 R
0 1354 R 1 -374 R 1 -258 R 0 599 R 1 -26 R 1 -432 R 0 -1 R 1 -13 R 0 -349 R
1 263 R 0 287 R 1 -104 R 1 -594 R 1 -878 R 0 1443 R 1 -298 R 1 245 R 1 660 R
1 -417 R 1 662 R 2 264 R 0 -811 R 2 436 R 2 -321 R 1 164 R 1 219 R 2 -29 R
2 -266 R 1 829 R 1 -521 R 1 159 R 1 -262 R 1 498 R 1 -106 R 1 -257 R
1 -773 R 1 613 R 1 -454 R 1 614 R 0 -911 R 1 539 R 1 63 R 0 -896 R 1 3 R
0 136 R 1 577 R 0 413 R 1 -393 R 1 -863 R 1 984 R 1 177 R 1 -362 R 1 174 R
1 -24 R 1 -139 R 1 713 R 2 -368 R 2 541 R 2 201 R 2 438 R 2 161 R 1 -471 R
2 430 R 2 -450 R 2 -100 R 1 -4 R 2 850 R 2 -766 R 2 521 R 2 -572 R 1 303 R
2 -135 R 2 158 R 2 -722 R 1 -256 R 2 223 R 2 -73 R 1 -199 R 1 -600 R 2 -44 R
1 1161 R 1 -491 R 1 -391 R 1 468 R 0 -1598 R 1 1051 R 1 -652 R 1 490 R
0 -74 R 1 -1017 R 0 1198 R 1 -102 R 1 -881 R 0 917 R 1 634 R 0 -300 R
2 -24 R 2 -328 R 1 -26 R 1 528 R 0 -406 R 1 -355 R 1 -252 R 1 -391 R 1 930 R
0 97 R 1 70 R 1 519 R 2 -117 R 1 16 R 1 -153 R 1 944 R 2 -681 R 1 -141 R
1 158 R 2 327 R 1 -385 R 1 -65 R 1 -56 R 1 343 R 1 91 R 2 -859 R 1 215 R
1 -171 R 0 244 R 1 -144 R 1 665 R 1 -1340 R 1 460 R 1 -1440 R 0 603 R
1 321 R 0 413 R 1 60 R 0 317 R 1 -214 R 1 717 R 1 -447 R 1 476 R 1 -265 R
1 -191 R 1 379 R 0 -547 R 1 85 R 1 931 R 1 -815 R 1 131 R 1 -635 R 1 830 R
0 -694 R 1 -224 R 1 670 R 1 -225 R 0 -454 R 1 1077 R 1 -600 R 1 321 R
0 -940 R 1 430 R 0 -29 R 1 802 R 1 -725 R 1 252 R 0 134 R 1 -805 R 1 699 R
1 -13 R 0 -477 R 1 52 R 0 12 R 1 38 R 1 -354 R 1 677 R 0 470 R 1 -1253 R
1 916 R 1 -612 R 0 629 R 1 -479 R 0 307 R D 18005 4804 M 1 -29 R 1 126 R
1 57 R 0 -30 R 2 509 R 1 -134 R 2 849 R 1 320 R 2 -651 R 1 -441 R 1 -185 R
2 570 R 1 -563 R 2 519 R 1 -232 R 1 12 R 1 -418 R 2 875 R 1 -146 R 1 271 R
2 -1288 R 1 43 R 2 176 R 1 -143 R 1 448 R 1 -204 R 1 -213 R 1 -321 R 1 371 R
1 -443 R 1 598 R 1 -172 R 1 2 R 1 523 R 0 -316 R 1 166 R 1 -138 R 2 335 R
1 11 R 1 245 R 2 -535 R 1 -200 R 1 325 R 1 -242 R 1 -623 R 1 -55 R 1 122 R
0 105 R 1 337 R 1 -1132 R 0 1328 R 1 -1111 R 0 417 R 1 -23 R 1 445 R 0 -35 R
1 -895 R 1 663 R 0 -132 R 1 -516 R 0 452 R 1 24 R 1 358 R 0 -284 R 1 438 R
1 -134 R 0 138 R 1 -108 R 1 -216 R 1 -729 R 1 533 R 0 12 R 1 133 R 0 -339 R
1 -567 R 0 498 R 0 -20 R 1 394 R 0 -1108 R 0 1765 R 1 -739 R 1 75 R 0 66 R
1 -231 R 1 305 R 0 -110 R 1 -474 R 0 1095 R 1 -576 R 1 431 R 1 -231 R
1 609 R 1 625 R 1 -558 R 1 316 R 2 -471 R 1 6 R 1 565 R 1 -771 R 1 144 R
2 -131 R 1 42 R 1 45 R 1 -230 R 2 154 R 0 -235 R 1 -660 R 1 722 R 0 -109 R
2 -299 R 0 401 R 1 324 R 2 130 R 0 -1066 R 1 -201 R 0 24 R 1 525 R 1 -597 R
0 49 R 0 -722 R 0 620 R 1 -534 R 0 1224 R 1 -99 R 1 47 R 0 360 R 1 280 R
1 -558 R 1 -519 R 1 785 R 1 69 R 1 -741 R 1 -241 R 0 32 R 0 111 R 1 -260 R
0 609 R 1 -289 R 0 -205 R 1 -423 R 0 1106 R 0 -353 R 1 -1451 R 0 1174 R
1 -418 R 0 198 R 0 -303 R 0 291 R 1 245 R 0 -86 R 1 734 R 0 -372 R 1 163 R
0 -321 R 1 -8 R 0 236 R 1 173 R 2 464 R 1 -34 R 1 452 R 1 574 R 1 -370 R
1 -259 R 1 253 R 1 134 R 1 50 R 2 -718 R 1 883 R 1 -754 R 1 95 R 1 412 R
1 248 R 1 -247 R 1 -259 R 1 517 R 1 -1038 R 1 354 R 2 102 R 1 -302 R 1 813 R
1 -488 R 1 -138 R 1 -75 R 1 -129 R 1 167 R 1 -743 R 0 88 R 1 -451 R 1 -941 R
0 1153 R 0 248 R 1 -518 R 0 161 R 1 -45 R 0 -12 R 1 447 R 0 -860 R 1 246 R
0 -298 R 1 65 R 0 682 R 1 -114 R 1 130 R 0 19 R 1 -863 R 1 784 R 1 -285 R
0 326 R 1 30 R 0 -908 R 1 311 R 0 432 R 0 -331 R 1 -232 R 0 497 R 1 -170 R
0 -480 R 1 -235 R 0 871 R 0 -35 R 1 -170 R 0 -702 R 1 575 R 0 317 R 0 287 R
1 -1044 R 0 474 R 0 499 R 1 -390 R 0 368 R 1 -127 R 0 120 R 1 -347 R 0 653 R
1 -835 R 1 883 R 1 -701 R 0 386 R 1 -157 R 0 459 R 1 -473 R 0 685 R 1 454 R
1 -908 R 1 651 R 1 -688 R 1 397 R 1 306 R 1 227 R 0 -628 R 1 924 R 1 -950 R
1 280 R 1 -31 R 1 -20 R 1 -245 R 1 91 R 0 -179 R 1 86 R 0 327 R 1 7 R
1 -264 R 0 -385 R 1 -244 R 0 249 R 1 -453 R 0 -63 R 1 -15 R 0 916 R 1 -634 R
0 122 R 0 222 R 1 351 R 1 -173 R 1 532 R 1 -504 R 1 19 R 1 314 R 0 -384 R
1 531 R 1 -542 R 1 103 R 1 -318 R 1 775 R 1 -320 R 0 128 R 1 -45 R 1 -516 R
1 -282 R 0 -61 R 1 -184 R 0 -543 R 0 512 R 0 500 R 1 739 R 1 133 R 1 -62 R
1 -177 R 0 250 R 1 172 R 1 -454 R 1 -63 R 1 335 R 1 180 R 1 -144 R 1 -236 R
0 133 R 1 226 R 1 -694 R 1 750 R 1 -370 R 1 -584 R 1 379 R 0 14 R 1 -243 R
0 -648 R 1 -106 R 0 80 R 1 111 R 0 482 R 1 -280 R 0 78 R 0 786 R 1 -487 R
1 -1117 R 0 1265 R 1 -233 R 0 247 R 1 108 R 0 -1288 R 1 1279 R 1 -748 R
0 623 R 1 -611 R 0 -342 R 1 76 R 0 981 R 0 -502 R 1 -567 R 0 447 R 0 -180 R
1 17 R 0 704 R 1 -145 R 1 -770 R 0 1168 R 1 215 R 1 -1304 R 1 750 R 1 106 R
0 597 R 1 -748 R 1 29 R 1 258 R 1 -248 R 1 632 R 0 -906 R 1 518 R 1 -367 R
1 -698 R 0 61 R 0 -18 R 1 -108 R 0 -1268 R 0 1707 R 1 369 R 0 -951 R 1 580 R
0 293 R 1 -558 R 0 472 R 1 19 R 0 -785 R 0 503 R 1 -408 R 0 619 R 0 42 R
1 179 R 1 -706 R 0 577 R 1 -111 R 1 -426 R 0 389 R 0 213 R 1 -129 R 1 -354 R
0 591 R 1 -475 R 0 755 R 1 -504 R 1 -1084 R 0 315 R 0 -287 R 0 375 R
0 -570 R 1 1261 R 0 -68 R 1 -269 R 0 588 R 1 -808 R 1 186 R 0 48 R 0 253 R
1 -323 R 0 -39 R 0 -193 R 1 690 R 0 -445 R 1 -107 R 0 51 R 0 -341 R 1 -351 R
0 905 R 0 118 R 1 -714 R 0 1213 R 1 -83 R 1 -177 R 0 -126 R 1 -654 R 0 516 R
0 -915 R 1 852 R 0 425 R 1 -195 R 0 419 R 1 -830 R 1 520 R 0 126 R 1 -499 R
0 417 R 1 -72 R 1 120 R 0 400 R 1 -34 R 1 8 R 1 114 R 0 1013 R 1 -1494 R
1 1319 R 1 -265 R 0 279 R 1 -624 R 1 398 R 0 -250 R 1 -241 R 1 654 R 0 250 R
1 -418 R 1 178 R 1 -340 R 0 -41 R 1 551 R 1 -440 R 0 -23 R 1 486 R 1 -656 R
0 -203 R 1 -226 R 1 -473 R 1 934 R 0 -550 R 1 433 R 1 17 R 0 161 R 1 -672 R
1 248 R 0 -448 R 1 -467 R 1 -215 R 0 1227 R 1 -268 R 1 -14 R 0 -561 R
1 352 R 1 -243 R 0 115 R 1 -145 R 1 -1033 R 0 800 R 0 -404 R 1 797 R
0 -351 R 0 -13 R 1 -1 R 0 -367 R 0 -164 R 0 -242 R 0 -170 R 1 419 R 0 -646 R
0 956 R 0 -381 R 0 -10 R 1 75 R 0 -12 R 0 517 R 1 -139 R 0 607 R 0 552 R
1 -1049 R 0 103 R 1 -445 R 0 86 R 0 277 R 0 -504 R 1 106 R 0 301 R 0 -535 R
1 1093 R 0 -570 R 0 -411 R 0 -14 R 1 109 R 0 347 R 0 68 R 1 -222 R 0 163 R
0 -182 R 1 829 R 1 299 R 0 154 R 1 -257 R 1 -502 R 0 543 R 1 907 R 0 -764 R
1 -458 R 1 308 R 0 385 R 1 -516 R 0 79 R 1 -185 R 1 309 R 0 -27 R 1 100 R
1 133 R 0 247 R 1 -461 R 0 -856 R 1 1079 R 1 -59 R 0 -839 R 1 568 R
0 -1058 R 1 1199 R 0 -594 R 1 -681 R 0 550 R 1 -670 R 0 594 R 0 846 R
1 -779 R 0 534 R 1 -214 R 0 -635 R 1 576 R 0 -828 R 1 1258 R 0 -307 R
1 115 R 0 -476 R 1 666 R 0 -3 R 1 -488 R 1 -543 R 0 764 R 1 -502 R 0 787 R
1 180 R 1 -549 R 0 478 R 1 -65 R 0 -423 R 1 154 R 0 -885 R 1 993 R 1 -634 R
0 -92 R 0 187 R 1 530 R 0 -484 R 1 -22 R 0 252 R 1 104 R 1 -973 R 0 3 R
0 548 R 1 375 R 0 -296 R 1 -383 R 0 -290 R 0 718 R 1 -694 R 0 597 R 0 -359 R
1 97 R 0 803 R 0 -29 R 1 -331 R 1 -368 R 0 757 R 1 -287 R 0 494 R 1 -515 R
0 -716 R 1 977 R 0 -519 R 0 92 R 1 -177 R 0 -620 R 0 1115 R 1 -820 R
0 -215 R 0 368 R 1 -635 R 0 307 R 0 748 R 1 168 R 0 104 R 1 -846 R 0 -789 R
0 1138 R 0 -762 R 1 882 R 0 -904 R 0 -49 R 0 832 R 1 -121 R 0 305 R 1 -164 R
0 459 R 1 293 R 0 -1201 R 0 686 R 1 81 R 1 669 R 0 -241 R 1 110 R 0 -212 R
1 355 R 0 -102 R 1 -292 R 0 21 R 1 448 R 0 -325 R 1 317 R 0 179 R 1 -916 R
0 527 R 1 -694 R 0 190 R 1 1101 R 0 -434 R 1 -724 R 0 692 R 1 -782 R 0 738 R
1 -947 R 0 301 R 1 -65 R 0 -75 R 1 123 R 0 -584 R 1 24 R 0 496 R 0 311 R
1 -543 R 0 -153 R 1 194 R 0 -154 R 1 721 R 0 -551 R 0 -736 R 1 706 R
0 -117 R 0 -195 R 1 105 R 0 649 R 1 -17 R 0 304 R 1 -330 R 0 220 R 1 43 R
0 -803 R 0 388 R 1 -204 R 0 -219 R 0 -375 R 1 1369 R 0 -460 R 1 -651 R
0 582 R 0 196 R 1 -198 R 0 -371 R 1 164 R 0 46 R 0 -588 R 1 357 R 0 885 R
0 -60 R 1 -1042 R 0 359 R 1 109 R 0 146 R 1 -176 R 0 473 R 0 -233 R 1 -416 R
0 23 R 1 667 R 0 -103 R 0 208 R 1 -226 R 0 291 R 1 -56 R 0 759 R 1 -1373 R
0 1132 R 1 -611 R 0 210 R 1 -452 R 0 282 R 0 807 R 1 -525 R 0 439 R 1 -355 R
0 46 R 1 -503 R 0 -379 R 1 138 R 0 -75 R 0 -664 R 1 1111 R 0 196 R 1 -306 R
0 -745 R 1 206 R 0 -320 R 0 520 R 1 -574 R 0 -275 R 0 -668 R 0 855 R 0 259 R
1 -158 R 0 117 R 0 -352 R 1 -756 R D 18459 3502 M 0 476 R 0 390 R 0 -135 R
0 -246 R 0 532 R 1 704 R 0 -681 R 1 537 R 0 -173 R 1 -591 R 0 458 R 0 314 R
1 359 R 0 -730 R 1 -226 R 0 1182 R 0 -226 R 1 -439 R 0 600 R 1 -468 R
0 -226 R 0 -51 R 1 253 R 0 963 R 1 -100 R 0 -727 R 0 170 R 1 71 R 0 -159 R
1 -61 R 0 -5 R 1 267 R 0 -162 R 0 187 R 1 -88 R 0 -150 R 1 32 R 0 -317 R
0 -212 R 1 774 R 0 33 R 1 2 R 0 -781 R 0 511 R 1 -69 R 0 635 R 1 -853 R
0 207 R 0 69 R 1 111 R 0 8 R 1 -85 R 0 203 R 0 -261 R 1 -228 R 0 -183 R
0 -213 R 1 462 R 0 -191 R 1 434 R 0 -939 R 0 317 R 1 84 R 0 558 R 1 -651 R
0 1043 R 0 -447 R 1 -368 R 0 -705 R 0 1159 R 1 186 R 0 -259 R 0 160 R 1 82 R
0 -1420 R 0 497 R 0 -760 R 1 744 R 0 194 R 1 -606 R 0 538 R 0 558 R 1 -756 R
0 170 R 0 -323 R 1 1088 R 0 -751 R 0 -365 R 1 -88 R 0 662 R 0 -848 R 1 612 R
0 -384 R 0 217 R 1 1097 R 0 -616 R 0 234 R 1 -228 R 0 705 R 0 214 R 1 -77 R
0 -385 R 0 24 R 1 -565 R 0 779 R 1 9 R 0 74 R 0 -914 R 1 704 R 0 73 R
0 154 R 1 -257 R 0 -187 R 0 643 R 1 -771 R 0 597 R 0 367 R 1 -672 R 0 -53 R
1 696 R 0 -422 R 0 -128 R 1 20 R 0 -121 R 0 -133 R 1 -172 R 0 1026 R
0 -620 R 1 132 R 0 -667 R 0 54 R 1 35 R 0 868 R 0 -437 R 1 -350 R 0 -641 R
0 -2 R 1 503 R 0 74 R 0 -449 R 1 8 R 0 -36 R 0 463 R 1 -1152 R 0 380 R
0 -28 R 1 931 R 0 -794 R 0 -40 R 0 33 R 1 456 R 0 -918 R 0 1496 R 1 53 R
0 -130 R 0 -146 R 1 -336 R 0 6 R 0 642 R 1 -391 R 0 364 R 0 -52 R 1 -258 R
0 -95 R 0 34 R 1 320 R 0 378 R 0 -110 R 1 202 R 0 -897 R 0 -36 R 1 559 R
0 -593 R 0 88 R 0 -75 R 1 -634 R 0 24 R 0 613 R 1 126 R 0 227 R 0 -1024 R
1 751 R 0 -689 R 0 714 R 1 -666 R 0 564 R 0 -802 R 1 -41 R 0 400 R 0 -428 R
0 311 R 1 681 R 0 -84 R 0 -305 R 1 308 R 0 95 R 0 11 R 1 -492 R 0 -29 R
0 95 R 0 130 R 1 326 R 0 -471 R 0 -378 R 1 1372 R 0 -1062 R 0 668 R 1 -640 R
0 -28 R 0 45 R 0 684 R 1 -523 R 0 -170 R 0 239 R 1 -558 R 0 914 R 0 -412 R
0 -496 R 1 541 R 0 -48 R 0 -340 R 1 -73 R 0 -59 R 0 456 R 0 115 R 1 133 R
0 -635 R 0 1159 R 1 -824 R 0 121 R 0 -179 R 0 331 R 1 -203 R 0 -198 R
0 -515 R 1 648 R 0 -334 R 0 297 R 0 543 R 1 -419 R 0 314 R 0 -830 R 1 355 R
0 470 R 0 -1075 R 0 303 R 1 298 R 0 -65 R 0 308 R 0 372 R 1 -650 R 0 -15 R
0 -593 R 0 516 R 1 -24 R 0 -114 R 0 -187 R 1 488 R 0 -349 R 0 187 R 0 645 R
1 -508 R 0 474 R 0 -1145 R 1 890 R 0 62 R 0 32 R 0 200 R 1 -437 R 0 829 R
0 -220 R 0 -793 R 1 419 R 0 265 R 0 -10 R 0 -670 R 1 257 R 0 163 R 0 -388 R
0 259 R 1 385 R 0 -47 R 0 266 R 0 -605 R 1 -4 R 0 -277 R 0 415 R 0 -116 R
1 -63 R 0 33 R 0 361 R 0 469 R 1 -384 R 0 -339 R 0 825 R 1 -640 R 0 439 R
0 -387 R 0 59 R 0 307 R 1 -195 R 0 -304 R 0 105 R 1 -165 R 0 78 R 0 364 R
0 -513 R 0 -148 R 1 -381 R 0 768 R 0 -233 R 0 278 R 1 327 R 0 -390 R 0 -88 R
0 -146 R 1 278 R 0 -210 R 0 382 R 0 -23 R 1 114 R 0 245 R 0 -199 R 0 -547 R
1 851 R 0 -446 R 0 -453 R 0 192 R 1 -100 R 0 -706 R 0 672 R 0 214 R 0 -254 R
1 440 R 0 -506 R 0 -125 R 0 424 R 1 -737 R 0 228 R 0 111 R 0 -422 R 1 -236 R
0 99 R 0 426 R 0 -407 R 1 91 R 0 237 R 0 516 R 0 -140 R 0 -527 R 1 57 R
0 -441 R 0 -284 R 0 207 R 1 594 R 0 -41 R 0 -432 R 0 457 R 0 -190 R 1 -160 R
0 -682 R 0 1941 R 0 118 R 0 -373 R 1 -151 R 0 -463 R 0 1116 R 0 -373 R
1 294 R 0 -739 R 0 810 R 0 -484 R 0 446 R 1 -438 R 0 -608 R 0 569 R 0 205 R
0 -296 R 1 263 R 0 -3 R 0 -54 R 0 -50 R 1 -94 R 0 257 R 0 225 R 0 438 R
0 -494 R 1 -1304 R 0 938 R 0 -247 R 0 405 R 1 269 R 0 -192 R 0 -212 R 0 88 R
0 428 R 1 -919 R 0 318 R 0 -368 R 0 29 R 0 465 R 1 -145 R 0 -294 R 0 246 R
0 -321 R 1 -125 R 0 189 R 0 122 R 0 -121 R 0 93 R 1 -317 R 0 190 R 0 297 R
0 560 R 0 -174 R 1 -710 R 0 -147 R 0 -209 R 0 952 R 0 -258 R 1 294 R
0 -397 R 0 59 R 0 -302 R 0 -377 R 1 60 R 0 369 R 0 -24 R 0 484 R 0 -222 R
1 73 R 0 19 R 0 533 R 0 -363 R 0 530 R 1 -715 R 0 -1 R 0 213 R 0 -359 R
0 -297 R 1 -437 R 0 689 R 0 -308 R 0 -542 R 0 824 R 1 358 R 0 -8 R 0 -809 R
0 708 R 0 -1081 R 0 991 R 1 171 R 0 -735 R 0 -148 R 0 512 R 1 83 R 0 -254 R
0 -13 R 0 46 R 0 -281 R 0 -45 R 1 592 R 0 81 R 0 -322 R 0 -72 R 0 524 R
1 -50 R 0 -133 R 0 -452 R 0 -193 R 0 -505 R 1 723 R 0 256 R 0 -180 R 0 769 R
0 -848 R 0 172 R 1 -434 R 0 171 R 0 231 R 0 84 R 0 80 R 1 -304 R 0 -64 R
0 -562 R 0 91 R 0 204 R 1 629 R 0 -1150 R 0 1059 R 0 424 R 0 -726 R 0 431 R
1 156 R 0 515 R 0 -877 R 0 -785 R 0 878 R 0 -114 R 1 -149 R 0 474 R 0 -785 R
0 845 R 0 -628 R 1 -862 R 0 1275 R 0 -405 R 0 294 R 0 41 R 0 -228 R 1 -1 R
0 -52 R 0 684 R 0 120 R 0 235 R 0 -208 R 1 -561 R 0 594 R 0 -249 R 0 -144 R
0 -186 R 0 839 R 1 -28 R 0 -542 R 0 314 R 0 -86 R 0 733 R 0 -134 R 1 23 R
0 -453 R 0 253 R 0 264 R 0 -474 R 1 879 R 0 -3 R 0 -532 R 0 292 R 0 -339 R
0 -303 R 1 487 R 0 -16 R 0 220 R 0 -465 R 0 204 R 0 -568 R 1 146 R 0 241 R
0 -362 R 0 -555 R 0 1162 R 0 -280 R 1 612 R 0 -468 R 0 67 R 0 5 R 0 -887 R
0 542 R 1 44 R 0 231 R 0 21 R 0 -391 R 0 -361 R 0 677 R 1 -513 R 0 209 R
0 -759 R 0 385 R 0 420 R 0 -1009 R 0 970 R 1 -244 R 0 93 R 0 -413 R 0 31 R
0 505 R 0 90 R 1 -583 R 0 789 R 0 -732 R 0 599 R 0 -90 R 0 -532 R 1 446 R
0 77 R 0 203 R 0 -230 R 0 -594 R 0 684 R 0 107 R 1 201 R 0 -778 R 0 651 R
0 -532 R 0 337 R 0 66 R 1 -490 R 0 709 R 0 -839 R 0 345 R 0 566 R 0 -843 R
0 74 R 1 -292 R 0 520 R 0 -140 R 0 -413 R 0 96 R 0 589 R 1 -197 R 0 -508 R
0 971 R 0 -957 R 0 190 R 0 -374 R 0 518 R 1 -251 R 0 404 R 0 -500 R 0 73 R
0 -457 R 0 107 R 0 -27 R 1 -887 R 0 395 R 0 100 R 0 -317 R 0 1013 R 0 214 R
0 -27 R 1 626 R 0 -568 R 0 -214 R 0 -260 R 0 243 R 0 -348 R 0 32 R 1 604 R
0 -196 R 0 -55 R 0 -229 R 0 633 R 0 -411 R 0 297 R 1 220 R 0 -725 R 0 -229 R
0 697 R 0 -84 R 0 -130 R 0 -359 R 1 756 R 0 -12 R 0 -501 R 0 54 R 0 477 R
0 -63 R 0 -152 R 1 -253 R 0 314 R 0 -649 R 0 -219 R 0 130 R 0 -1 R 0 -208 R
1 319 R 0 3 R 0 494 R 0 -866 R 0 263 R 0 -812 R 0 1228 R 1 -1009 R 0 -240 R
0 793 R 0 -680 R 0 326 R 0 840 R 0 -78 R 0 370 R 1 -927 R 0 -2 R 0 355 R
0 368 R 0 -544 R 0 -34 R 0 127 R 1 33 R 0 261 R 0 785 R 0 -556 R 0 297 R
0 -655 R 0 538 R 0 294 R 1 289 R 0 -633 R 0 -24 R 0 52 R 0 -758 R 0 12 R
0 548 R 0 -51 R 1 309 R 0 -2 R 0 -623 R 0 166 R 0 -70 R 0 474 R 0 -700 R
0 700 R 1 -188 R 0 116 R 0 -370 R 0 184 R 0 136 R 0 -111 R 0 191 R 1 -250 R
0 -492 R 0 1078 R 0 -201 R 0 -255 R 0 -105 R 0 598 R 0 -583 R 1 -409 R
0 409 R 0 -292 R 0 357 R 0 -223 R 0 -120 R 0 736 R 0 -731 R 1 247 R 0 -286 R
0 280 R 0 360 R 0 -685 R 0 21 R 0 746 R 0 -128 R 1 155 R 0 -79 R 0 -521 R
0 939 R 0 -18 R 0 21 R 0 -364 R 0 9 R 0 70 R D 18634 5642 M 1 -259 R 0 687 R
0 -1208 R 0 603 R 0 189 R 0 717 R 0 -639 R 0 39 R 1 103 R 0 123 R 0 -24 R
0 70 R 0 5 R 0 19 R 0 155 R 0 -194 R 1 -239 R 0 654 R 0 -612 R 0 -15 R
0 241 R 0 -260 R 0 -301 R 0 612 R 0 -224 R 0 -33 R 1 119 R 0 -575 R 0 767 R
0 -148 R 0 79 R 0 -276 R 0 -22 R 0 -240 R 1 685 R 0 -533 R 0 -23 R 0 -547 R
0 368 R 0 504 R 0 -493 R 0 -81 R 0 -41 R 1 789 R 0 -1467 R 0 504 R 0 -450 R
0 1092 R 0 -449 R 0 228 R 0 -41 R 0 -590 R 1 338 R 0 -152 R 0 131 R 0 -560 R
0 -283 R 0 161 R 0 222 R 0 393 R 0 -99 R 1 415 R 0 225 R 0 52 R 0 -372 R
0 112 R 0 29 R 0 -8 R 0 -235 R 0 21 R 1 515 R 0 -442 R 0 792 R 0 -520 R
0 228 R 0 -225 R 0 -85 R 0 -675 R 0 726 R 1 -833 R 0 -324 R 0 958 R 0 -747 R
0 297 R 0 -195 R 0 472 R 0 238 R 0 560 R 0 -824 R 1 -39 R 0 -381 R 0 599 R
0 -81 R 0 -129 R 0 -182 R 0 140 R 0 169 R 0 -133 R 0 -365 R 1 480 R 0 716 R
0 -627 R 0 -51 R 0 296 R 0 -535 R 0 46 R 0 -389 R 0 296 R 1 -321 R 0 -250 R
0 213 R 0 -324 R 0 988 R 0 -376 R 0 -381 R 0 -305 R 0 -244 R 0 327 R 1 439 R
0 497 R 0 -732 R 0 292 R 0 -19 R 0 -965 R 0 907 R 0 97 R 0 303 R 0 226 R
1 -1401 R 0 729 R 0 31 R 0 690 R 0 -177 R 0 -276 R 0 18 R 0 73 R 0 -386 R
0 -329 R 0 532 R 1 577 R 0 -355 R 0 682 R 0 -62 R 0 200 R 0 -21 R 0 -437 R
0 647 R 0 -162 R 0 -200 R 0 72 R 1 -476 R 0 -20 R 0 348 R 0 172 R 0 52 R
0 -1205 R 0 898 R 0 -252 R 0 129 R 0 -403 R 1 696 R 0 -752 R 0 505 R 0 335 R
0 -557 R 0 235 R 0 -286 R 0 472 R 0 -527 R 0 -199 R 0 979 R 1 -544 R 0 221 R
0 29 R 0 -265 R 0 -78 R 0 31 R 0 61 R 0 -389 R 0 -373 R 0 382 R 0 -453 R
0 515 R 1 510 R 0 -280 R 0 -37 R 0 -869 R 0 400 R 0 -290 R 0 416 R 0 -488 R
0 429 R 0 843 R 0 -589 R 1 173 R 0 -315 R 0 -122 R 0 127 R 0 -135 R 0 389 R
0 -123 R 0 33 R 0 -89 R 0 -398 R 0 383 R 1 14 R 0 266 R 0 -52 R 0 470 R
0 -952 R 0 20 R 0 1104 R 0 273 R 0 -238 R 0 -559 R 0 749 R 1 -93 R 0 -215 R
0 -119 R 0 -163 R 0 294 R 0 532 R 0 -817 R 0 -28 R 0 -28 R 0 177 R 0 71 R
0 -168 R 0 248 R 1 -741 R 0 457 R 0 322 R 0 16 R 0 -9 R 0 -411 R 0 13 R
0 9 R 0 -925 R 0 392 R 0 654 R 1 -182 R 0 -304 R 0 -342 R 0 447 R 0 -400 R
0 677 R 0 188 R 0 -385 R 0 -349 R 0 227 R 0 -154 R 0 -210 R 1 480 R 0 226 R
0 164 R 0 -468 R 0 148 R 0 654 R 0 -421 R 0 -55 R 0 -179 R 0 643 R 0 -230 R
0 -592 R 0 413 R 1 -288 R 0 268 R 0 3 R 0 -992 R 0 847 R 0 -382 R 0 -981 R
0 264 R 0 402 R 0 135 R 0 263 R 0 -123 R 0 95 R 1 727 R 0 -649 R 0 -60 R
0 150 R 0 -319 R 0 497 R 0 547 R 0 -109 R 0 -131 R 0 89 R 0 -163 R 0 56 R
0 -381 R 1 696 R 0 -465 R 0 -104 R 0 55 R 0 -203 R 0 119 R 0 -101 R 0 -796 R
0 863 R 0 -407 R 0 -43 R 0 507 R 0 -475 R 1 547 R 0 112 R 0 -65 R 0 -944 R
0 -431 R 0 781 R 0 50 R 0 -599 R 0 123 R 0 170 R 0 -478 R 0 422 R 0 332 R
0 -188 R 1 -438 R 0 580 R 0 -485 R 0 -228 R 0 584 R 0 -397 R 0 567 R
0 -512 R 0 771 R 0 385 R 0 -282 R 0 176 R 0 -107 R 1 -809 R 0 686 R 0 145 R
0 -570 R 0 376 R 0 -383 R 0 166 R 0 -147 R 0 222 R 0 -397 R 0 -12 R 0 655 R
0 94 R 0 -889 R 1 432 R 0 -492 R 0 345 R 0 -174 R 0 -153 R 0 926 R 0 -230 R
0 -100 R 0 -67 R 0 -258 R 0 520 R 0 -180 R 0 316 R 0 -172 R 0 -432 R 1 269 R
0 -53 R 0 -83 R 0 -407 R 0 295 R 0 165 R 0 194 R 0 246 R 0 -260 R 0 -341 R
0 157 R 0 -350 R 0 169 R 0 -135 R 1 -382 R 0 -55 R 0 -286 R 0 258 R 0 -385 R
0 479 R 0 439 R 0 64 R 0 -113 R 0 -469 R 0 870 R 0 -433 R 0 886 R 0 -26 R
0 -177 R 1 -250 R 0 401 R 0 346 R 0 -281 R 0 -332 R 0 93 R 0 502 R 0 -565 R
0 310 R 0 202 R 0 -383 R 0 -304 R 0 -200 R 0 280 R 0 -395 R 0 161 R 1 345 R
0 -342 R 0 -536 R 0 188 R 0 613 R 0 -534 R 0 618 R 0 66 R 0 -532 R 0 132 R
0 674 R 0 -96 R 0 -177 R 0 -13 R 0 -149 R 0 464 R 1 -456 R 0 -52 R 0 -46 R
0 -506 R 0 -323 R 0 476 R 0 314 R 0 -388 R 0 -138 R 0 78 R 0 -33 R 0 263 R
0 -9 R 0 168 R 0 -30 R 1 -246 R 0 43 R 0 646 R 0 -423 R 0 -541 R 0 645 R
0 -126 R 0 -191 R 0 512 R 0 -518 R 0 319 R 0 -177 R 0 146 R 0 463 R 0 157 R
0 -394 R 0 -760 R 0 751 R 1 -608 R 0 354 R 0 -17 R 0 176 R 0 362 R 0 -18 R
0 140 R 0 -147 R 0 -421 R 0 160 R 0 -313 R 0 368 R 0 -244 R 0 -183 R 0 979 R
0 -232 R 1 -267 R 0 41 R 0 -205 R 0 305 R 0 65 R 0 -116 R 0 95 R 0 239 R
0 -646 R 0 121 R 0 55 R 0 -127 R 0 115 R 0 -53 R 0 98 R 0 299 R 1 -132 R
0 -237 R 0 16 R 0 -17 R 0 292 R 0 137 R 0 -415 R 0 140 R 0 -304 R 0 406 R
0 -118 R 0 62 R 0 -523 R 0 258 R 0 577 R 0 -437 R 0 123 R 0 111 R 0 -919 R
1 519 R 0 247 R 0 -193 R 0 137 R 0 -393 R 0 432 R 0 -455 R 0 93 R 0 -147 R
0 246 R 0 1 R 0 -278 R 0 -341 R 0 -482 R 0 435 R 0 -243 R 0 899 R 1 -456 R
0 -159 R 0 478 R 0 -293 R 0 249 R 0 -427 R 0 -110 R 0 330 R 0 635 R 0 -209 R
0 -646 R 0 -22 R 0 580 R 0 -76 R 0 14 R 0 -230 R 0 -221 R 0 282 R 0 258 R
0 -497 R 1 7 R 0 559 R 0 -73 R 0 169 R 0 -42 R 0 238 R 0 -236 R 0 151 R
0 -1 R 0 -202 R 0 633 R 0 -136 R 0 292 R 0 -344 R 0 325 R 0 -884 R 0 353 R
0 129 R 1 -417 R 0 -108 R 0 271 R 0 339 R 0 -446 R 0 531 R 0 -582 R 0 -93 R
0 267 R 0 129 R 0 -66 R 0 -266 R 0 -361 R 0 81 R 0 -250 R 0 633 R 0 -91 R
0 -36 R 0 -249 R 1 -481 R 0 761 R 0 -244 R 0 77 R 0 73 R 0 41 R 0 -288 R
0 -416 R 0 75 R 0 721 R 0 -263 R 0 -4 R 0 352 R 0 -625 R 0 -2 R 0 734 R
0 -376 R 0 -489 R 0 801 R 0 -464 R 0 325 R 0 -218 R 1 86 R 0 14 R 0 178 R
0 200 R 0 -142 R 0 265 R 0 -268 R 0 -558 R 0 611 R 0 -520 R 0 584 R 0 -533 R
0 507 R 0 170 R 0 -30 R 0 -306 R 0 -88 R 0 -801 R 0 849 R 0 -483 R 1 -221 R
0 620 R 0 -580 R 0 612 R 0 -331 R 0 341 R 0 269 R 0 -80 R 0 -350 R 0 267 R
0 -28 R 0 -33 R 0 -766 R 0 188 R 0 807 R 0 -333 R 0 440 R 0 -77 R 0 -611 R
0 -525 R 0 -392 R 0 574 R 1 558 R 0 -317 R 0 377 R 0 -129 R 0 55 R 0 -150 R
0 87 R 0 578 R 0 90 R 0 38 R 0 -409 R 0 524 R 0 -386 R 0 433 R 0 -667 R
0 -268 R 0 753 R 0 -635 R 0 540 R 0 -294 R 0 90 R 0 -108 R 1 -26 R 0 444 R
0 -551 R 0 55 R 0 219 R 0 -25 R 0 -66 R 0 -244 R 0 212 R 0 -474 R 0 774 R
0 -3 R 0 236 R 0 -277 R 0 -241 R 0 448 R 0 -114 R 0 -245 R 0 349 R 0 -109 R
0 -238 R 0 112 R 0 72 R 0 137 R 1 -497 R 0 497 R 0 -237 R 0 -156 R 0 -371 R
0 151 R 0 183 R 0 -53 R 0 -243 R 0 599 R 0 223 R 0 -185 R 0 -178 R 0 176 R
0 -147 R 0 -300 R 0 95 R 0 75 R 0 -54 R 0 -495 R 0 -163 R 0 1096 R 0 -606 R
1 479 R 0 -6 R 0 388 R 0 -108 R 0 -385 R 0 -143 R 0 115 R 0 39 R 0 72 R
0 -267 R 0 91 R 0 426 R 0 -10 R 0 -288 R 0 427 R 0 -213 R 0 396 R 0 -591 R
0 415 R 0 -235 R 0 -98 R 0 -228 R 0 61 R 0 748 R 0 380 R 0 -706 R 1 38 R
0 -128 R 0 -551 R 0 581 R 0 88 R 0 299 R 0 -355 R 0 192 R 0 44 R 0 15 R
0 -86 R 0 213 R D 18688 6428 M 0 -829 R 0 128 R 0 210 R 0 -472 R 0 260 R
0 456 R 0 -250 R 0 -274 R 0 -169 R 0 -11 R 0 373 R 0 233 R 1 -444 R 0 376 R
0 719 R 0 -498 R 0 194 R 0 -190 R 0 816 R 0 -346 R 0 -477 R 0 356 R 0 96 R
0 -758 R 0 125 R 0 530 R 0 -376 R 0 230 R 0 -188 R 0 178 R 0 240 R 0 -170 R
0 57 R 0 316 R 0 -423 R 0 66 R 0 42 R 0 -406 R 0 -238 R 0 525 R 1 -664 R
0 114 R 0 33 R 0 780 R 0 -271 R 0 49 R 0 84 R 0 -97 R 0 -507 R 0 69 R
0 178 R 0 -199 R 0 30 R 0 112 R 0 470 R 0 -869 R 0 508 R 0 -527 R 0 149 R
0 149 R 0 -496 R 0 203 R 0 -145 R 0 316 R 0 -459 R 0 40 R 1 371 R 0 284 R
0 29 R 0 -240 R 0 648 R 0 -516 R 0 490 R 0 -387 R 0 -66 R 0 -615 R 0 -41 R
0 42 R 0 289 R 0 87 R 0 -203 R 0 257 R 0 56 R 0 -91 R 0 -239 R 0 -167 R
0 230 R 0 639 R 0 65 R 0 -307 R 0 111 R 0 236 R 0 36 R 1 -463 R 0 324 R
0 -446 R 0 -148 R 0 534 R 0 259 R 0 -413 R 0 -85 R 0 319 R 0 44 R 0 52 R
0 -201 R 0 -105 R 0 4 R 0 53 R 0 74 R 0 -202 R 0 138 R 0 -621 R 0 135 R
0 -41 R 0 562 R 0 -653 R 0 615 R 0 -654 R 0 -30 R 0 199 R 0 -374 R 0 768 R
1 -226 R 0 247 R 0 -455 R 0 189 R 0 290 R 0 -377 R 0 83 R 0 -200 R 0 240 R
0 75 R 0 -790 R 0 452 R 0 -52 R 0 8 R 0 144 R 0 28 R 0 -31 R 0 773 R
0 -475 R 0 -374 R 0 411 R 0 -412 R 0 96 R 0 -182 R 0 -166 R 0 -19 R 0 26 R
0 -561 R 0 29 R 1 93 R 0 -182 R 0 216 R 0 904 R 0 -1146 R 0 275 R 0 363 R
0 -558 R 0 74 R 0 513 R 0 232 R 0 -79 R 0 -92 R 0 145 R 0 509 R 0 -800 R
0 336 R 0 -267 R 0 -157 R 0 411 R 0 326 R 0 124 R 0 399 R 0 -191 R 0 -739 R
0 310 R 0 -410 R 0 428 R 0 -680 R 0 -1 R 0 457 R 0 -59 R 1 -110 R 0 -483 R
0 440 R 0 162 R 0 274 R 0 -326 R 0 -25 R 0 21 R 0 -180 R 0 307 R 0 274 R
0 -183 R 0 -500 R 0 358 R 0 247 R 0 -244 R 0 -78 R 0 -10 R 0 222 R 0 -3 R
0 -215 R 0 288 R 0 244 R 0 -147 R 0 -117 R 0 -152 R 0 -64 R 0 -295 R 0 623 R
0 -55 R 0 -81 R 0 76 R 0 -497 R 0 652 R 1 -19 R 0 -227 R 0 46 R 0 -350 R
0 -394 R 0 130 R 0 37 R 0 -351 R 0 372 R 0 -86 R 0 -473 R 0 150 R 0 347 R
0 606 R 0 -283 R 0 189 R 0 -267 R 0 614 R 0 -363 R 0 376 R 0 -447 R 0 22 R
0 -98 R 0 -390 R 0 181 R 0 322 R 0 -445 R 0 528 R 0 -355 R 0 -26 R 0 320 R
1 -586 R 0 382 R 0 -603 R 0 239 R 0 493 R 0 -723 R 0 858 R 0 -34 R 0 -145 R
0 -929 R 0 525 R 0 -364 R 0 830 R 0 -163 R 0 -292 R 0 324 R 0 -629 R
0 -264 R 0 641 R 0 264 R 0 -192 R 0 895 R 0 -204 R 0 -820 R 0 676 R 0 -424 R
0 -282 R 0 590 R 0 -43 R 0 587 R 0 -73 R 0 -507 R 0 -301 R 0 238 R 0 -579 R
0 188 R 0 312 R 1 499 R 0 -838 R 0 -29 R 0 -181 R 0 275 R 0 -244 R 0 103 R
0 -181 R 0 -139 R 0 123 R 0 76 R 0 -244 R 0 179 R 0 33 R 0 54 R 0 -233 R
0 427 R 0 -86 R 0 657 R 0 -502 R 0 391 R 0 -531 R 0 -241 R 0 224 R 0 761 R
0 -750 R 0 193 R 0 -258 R 0 -12 R 0 19 R 0 -253 R 0 182 R 0 280 R 0 -603 R
1 768 R 0 -140 R 0 672 R 0 -630 R 0 79 R 0 233 R 0 -885 R 0 839 R 0 9 R
0 285 R 0 -594 R 0 664 R 0 -187 R 0 89 R 0 -24 R 0 -217 R 0 345 R 0 -49 R
0 209 R 0 -675 R 0 344 R 0 -142 R 0 234 R 0 -161 R 0 -521 R 0 37 R 0 255 R
0 202 R 0 574 R 0 -382 R 0 561 R 0 -792 R 0 1156 R 0 -1042 R 0 401 R 0 89 R
0 380 R 0 -404 R 0 -718 R 1 703 R 0 -447 R 0 -79 R 0 201 R 0 284 R 0 39 R
0 314 R 0 -221 R 0 -1047 R 0 620 R 0 -1137 R 0 472 R 0 -93 R 0 412 R
0 -176 R 0 18 R 0 46 R 0 141 R 0 102 R 0 -8 R 0 -422 R 0 188 R 0 -324 R
0 280 R 0 281 R 0 -165 R 0 437 R 0 382 R 0 28 R 0 -1065 R 0 375 R 0 724 R
0 -413 R 0 249 R 0 374 R 0 -1139 R 0 363 R 0 14 R 1 -146 R 0 276 R 0 403 R
0 -846 R 0 -178 R 0 906 R 0 206 R 0 -872 R 0 -27 R 0 170 R 0 41 R 0 49 R
0 -61 R 0 -119 R 0 -58 R 0 -898 R 0 1599 R 0 -146 R 0 -407 R 0 711 R 0 -50 R
0 187 R 0 -460 R 0 -134 R 0 -310 R 0 132 R 0 -385 R 0 183 R 0 788 R 0 219 R
0 121 R 0 -232 R 0 -23 R 0 -125 R 0 760 R 0 -54 R 0 -508 R 0 260 R 0 -195 R
0 258 R 0 -384 R 0 -146 R 0 -158 R 0 45 R 1 95 R 0 121 R 0 289 R 0 -405 R
0 -313 R 0 227 R 0 228 R 0 -70 R 0 -462 R 0 502 R 0 -470 R 0 28 R 0 512 R
0 18 R 0 -146 R 0 -101 R 0 -174 R 0 -248 R 0 -189 R 0 445 R 0 -196 R 0 392 R
0 52 R 0 323 R 0 -290 R 0 -345 R 0 286 R 0 -79 R 0 -288 R 0 444 R 0 116 R
0 35 R 0 -653 R 0 -94 R 0 471 R 0 -257 R 0 58 R 0 602 R 0 -393 R 0 83 R
0 -476 R 0 -131 R 1 707 R 0 -408 R 0 -753 R 0 136 R 0 358 R 0 -121 R 0 311 R
0 -98 R 0 -833 R 0 498 R 0 316 R 0 -700 R 0 496 R 0 -761 R 0 708 R 0 -85 R
0 -56 R 0 34 R 0 579 R 0 -490 R 0 291 R 0 388 R 0 -1054 R 0 545 R 0 429 R
0 -409 R 0 312 R 0 -738 R 0 507 R 0 -527 R 0 723 R 0 -196 R 0 -1 R 0 382 R
0 -462 R 0 -359 R 0 444 R 0 -30 R 0 477 R 0 -456 R 0 149 R 0 -195 R 0 347 R
0 -438 R 0 557 R 0 -1440 R 0 14 R 0 285 R 0 797 R 1 -83 R 0 -365 R 0 887 R
0 -197 R 0 355 R 0 -560 R 0 3 R 0 310 R 0 -223 R 0 228 R 0 -116 R 0 -421 R
0 715 R 0 -382 R 0 -333 R 0 -115 R 0 286 R 0 595 R 0 -691 R 0 -168 R 0 567 R
0 -154 R 0 -657 R 0 361 R 0 -158 R 0 3 R 0 -8 R 0 -123 R 0 -129 R 0 230 R
0 -365 R 0 435 R 0 391 R 0 -578 R 0 79 R 0 357 R 0 -930 R 0 1212 R 0 32 R
0 -1056 R 0 56 R 0 307 R 0 442 R 0 -543 R 0 378 R 0 -147 R 0 -1059 R 0 980 R
1 405 R 0 -133 R 0 -247 R 0 -81 R 0 -684 R 0 -42 R 0 403 R 0 898 R 0 -349 R
0 -741 R 0 390 R 0 450 R 0 -633 R 0 751 R 0 -720 R 0 -178 R 0 71 R 0 42 R
0 411 R 0 434 R 0 -247 R 0 -368 R 0 418 R 0 -745 R 0 417 R 0 -322 R 0 427 R
0 1016 R 0 -576 R 0 83 R 0 -616 R 0 752 R 0 -200 R 0 -11 R 0 -228 R 0 -129 R
0 129 R 0 152 R 0 -36 R 0 219 R 0 -437 R 0 -63 R 0 407 R 0 -681 R 0 -225 R
0 -325 R 0 408 R 0 -306 R 0 8 R 0 490 R 0 184 R 0 92 R 0 513 R 0 -687 R
0 466 R 1 -350 R 0 -56 R 0 -234 R 0 752 R 0 -29 R 0 -344 R 0 257 R 0 -401 R
0 -214 R 0 729 R 0 -1201 R 0 -221 R 0 580 R 0 -165 R 0 -253 R 0 -205 R
0 404 R 0 -141 R 0 -536 R 0 578 R 0 -34 R 0 -915 R 0 1412 R 0 107 R 0 -696 R
0 -21 R 0 -482 R 0 25 R 0 1484 R 0 -476 R 0 284 R 0 -601 R 0 -389 R 0 492 R
0 -1078 R 0 195 R 0 1113 R 0 378 R 0 -732 R 0 -559 R 0 825 R 0 -35 R
0 -975 R 0 714 R 0 485 R 0 -448 R 0 -277 R 0 130 R 0 -156 R 0 -38 R 0 -485 R
0 333 R 0 -58 R 0 -253 R 0 1124 R 0 -1006 R 0 401 R 0 206 R 1 28 R 0 49 R
0 -381 R 0 47 R 0 604 R 0 -154 R 0 -59 R 0 395 R 0 -254 R 0 -463 R 0 -780 R
0 803 R 0 653 R 0 -1315 R 0 726 R 0 -158 R 0 -1497 R 0 2591 R 0 -1021 R
0 543 R 0 -918 R 0 469 R 0 -134 R 0 741 R 0 375 R 0 -594 R 0 317 R 0 34 R
0 822 R 0 -2157 R 0 902 R 0 -200 R 0 1228 R 0 -1328 R 0 332 R 0 -391 R
0 973 R 0 -667 R 0 255 R 0 212 R 0 -897 R 0 642 R 0 -632 R 0 1027 R 0 -866 R
0 616 R 0 554 R 0 -748 R 0 455 R 0 907 R 0 -636 R 0 278 R 0 -440 R 0 -595 R
0 268 R 1 377 R 0 343 R 0 -924 R D 18708 5444 M 0 440 R 0 -82 R 0 -220 R
0 385 R 0 846 R 0 -625 R 0 -382 R 0 -179 R 0 149 R 0 -104 R 0 -480 R
0 1303 R 0 -596 R 0 569 R 0 -105 R 0 -561 R 0 359 R 0 -602 R 0 -186 R
0 335 R 0 1388 R 0 230 R 0 134 R 0 -1253 R 0 -567 R 0 -327 R 0 1058 R
0 -365 R 0 9 R 0 56 R 0 653 R 0 -70 R 0 -300 R 0 -277 R 0 523 R 0 -832 R
0 -516 R 0 -437 R 0 222 R 0 -264 R 0 222 R 0 501 R 0 -840 R 0 611 R 0 517 R
0 -29 R 0 -488 R 0 497 R 0 -341 R 0 464 R 0 68 R 0 -201 R 0 -940 R 0 12 R
0 245 R 0 -440 R 0 1155 R 0 -16 R 0 258 R 0 -393 R 0 560 R 1 -1218 R 0 628 R
0 394 R 0 -525 R 0 -499 R 0 964 R 0 -827 R 0 542 R 0 187 R 0 674 R 0 -726 R
0 18 R 0 -680 R 0 405 R 0 77 R 0 -317 R 0 693 R 0 -304 R 0 347 R 0 385 R
0 -162 R 0 -461 R 0 -440 R 0 -553 R 0 582 R 0 -488 R 0 40 R 0 167 R
0 -1513 R 0 331 R 0 -18 R 0 697 R 0 -617 R 0 506 R 0 -447 R 0 696 R 0 67 R
0 490 R 0 -140 R 0 66 R 0 -2216 R 0 1311 R 0 607 R 0 117 R 0 -162 R 0 -127 R
0 822 R 0 -1538 R 0 557 R 0 273 R 0 458 R 0 27 R 0 34 R 0 -64 R 0 231 R
0 -299 R 0 815 R 0 -371 R 0 206 R 0 -405 R 1 309 R 0 20 R 0 -302 R 0 -258 R
0 -494 R 0 157 R 0 213 R 0 -1324 R 0 1588 R 0 -110 R 0 131 R 0 135 R 0 -21 R
0 -912 R 0 523 R 0 -404 R 0 238 R 0 646 R 0 -1158 R 0 286 R 0 457 R 0 746 R
0 -242 R 0 -289 R 0 1326 R 0 -211 R 0 178 R 0 -585 R 0 204 R 0 -613 R
0 -204 R 0 607 R 0 -677 R 0 369 R 0 -2028 R 0 1222 R 0 83 R 0 544 R 0 711 R
0 -1057 R 0 -110 R 0 942 R 0 268 R 0 -391 R 0 -634 R 0 -265 R 0 -528 R
0 1967 R 0 -109 R 0 -1318 R 0 257 R 0 97 R 0 190 R 0 383 R 0 -190 R 0 -339 R
0 -693 R 0 1553 R 0 -828 R 0 1172 R 0 -764 R 0 -431 R 0 1068 R 0 -372 R
0 -704 R 0 -79 R 0 745 R 0 -260 R 0 -1047 R 0 546 R 1 -271 R 0 -979 R
0 337 R 0 150 R 0 1115 R 0 -1345 R 0 -17 R 0 1420 R 0 81 R 0 -373 R 0 -447 R
0 398 R 0 -421 R 0 -270 R 0 -467 R 0 -25 R 0 1572 R 0 -533 R 0 -824 R
0 664 R 0 1767 R 0 -1623 R 0 779 R 0 -1065 R 0 487 R 0 399 R 0 -212 R
0 -892 R 0 1523 R 0 163 R 0 -726 R 0 -329 R 0 362 R 0 558 R 0 -310 R 0 16 R
0 -199 R 0 712 R 0 27 R 0 -622 R 0 -469 R 0 -863 R 0 786 R 0 927 R 0 -1466 R
0 980 R 0 -8 R 0 -127 R 0 -346 R 0 943 R 0 -132 R 0 696 R 0 -720 R 0 244 R
0 -1295 R 0 767 R 0 525 R 0 18 R 0 479 R 0 -400 R 0 -468 R 0 48 R 0 -704 R
0 611 R 0 -108 R 0 1126 R 0 -326 R 0 93 R 0 21 R 0 128 R 0 -434 R 0 -414 R
0 188 R 0 -353 R 0 457 R 1 -47 R 0 -276 R 0 -1113 R 0 228 R 0 283 R 0 -299 R
0 294 R 0 -298 R 0 792 R 0 -346 R 0 1032 R 0 -1056 R 0 371 R 0 95 R 0 -486 R
0 176 R 0 -628 R 0 983 R 0 266 R 0 -406 R 0 1406 R 0 -1285 R 0 -708 R
0 -325 R 0 292 R 0 -501 R 0 722 R 0 1133 R 0 -1578 R 0 187 R 0 1056 R
0 -67 R 0 266 R 0 -457 R 0 -900 R 0 696 R 0 171 R 0 1278 R 0 -598 R 0 -88 R
0 511 R 0 -689 R 0 -1302 R 0 856 R 0 -486 R 0 770 R 0 180 R 0 141 R 0 -442 R
0 -100 R 0 -450 R 0 -1363 R 0 1981 R 0 166 R 0 696 R 0 -50 R 0 -1129 R
0 675 R 0 -847 R 0 -273 R 0 -291 R 0 599 R 0 -325 R 0 61 R 0 61 R 0 417 R
0 -256 R 0 -232 R 0 -783 R 0 1011 R 1 -563 R 0 890 R 0 -448 R 0 621 R
0 -278 R 0 -504 R 0 497 R 0 -249 R 0 330 R 0 -579 R 0 -706 R 0 2029 R
0 -660 R 0 524 R 0 -695 R 0 -188 R 0 -842 R 0 -146 R 0 533 R 0 -254 R
0 -184 R 0 -341 R 0 612 R 0 -591 R 0 1507 R 0 -516 R 0 -525 R 0 172 R
0 338 R 0 -228 R 0 -925 R 0 215 R 0 -83 R 0 1518 R 0 925 R 0 -44 R 0 -503 R
0 98 R 0 -224 R 0 -332 R 0 122 R 0 -397 R 0 1196 R 0 280 R 0 423 R 0 -2260 R
0 555 R 0 542 R 0 -375 R 0 134 R 0 -602 R 0 1050 R 0 248 R 0 -432 R 0 292 R
0 -241 R 0 311 R 0 -897 R 0 772 R 0 824 R 0 -923 R 0 -302 R 0 -526 R 0 867 R
0 473 R 0 -63 R 0 -1431 R 0 846 R 0 -528 R 0 227 R 0 -400 R 0 581 R 0 -909 R
0 926 R 0 -129 R 0 -176 R 0 -119 R 0 -125 R 0 1787 R 0 -762 R 0 370 R
0 -823 R 0 -163 R 1 571 R 0 303 R 0 -554 R 0 541 R 0 -139 R 0 -340 R 0 88 R
0 -277 R 0 -35 R 0 344 R 0 -155 R 0 892 R 0 -413 R 0 -1151 R 0 988 R
0 -242 R 0 -301 R 0 -133 R 0 -1113 R 0 768 R 0 -63 R 0 1335 R 0 -108 R
0 -180 R 0 -561 R 0 851 R 0 -658 R 0 -383 R 0 177 R 0 -18 R 0 825 R 0 -301 R
0 -176 R 0 -247 R 0 210 R 0 -393 R 0 312 R 0 243 R 0 86 R 0 -661 R 0 61 R
0 462 R 0 -344 R 0 405 R 0 -245 R 0 -176 R 0 726 R 0 -814 R 0 115 R 0 -153 R
0 566 R 0 -302 R 0 65 R 0 -531 R 0 -513 R 0 185 R 0 -163 R 0 -245 R 0 -75 R
0 -221 R 0 830 R 0 -173 R 0 996 R 0 58 R 0 778 R 0 -244 R 0 -593 R 0 -118 R
0 1223 R 0 -1101 R 0 -692 R 0 489 R 0 -51 R 0 882 R 0 -693 R 0 -71 R
0 -454 R 0 -77 R 0 137 R 0 -242 R 0 261 R 0 364 R 0 558 R 0 -193 R 0 -108 R
0 -722 R 0 -70 R 1 277 R 0 132 R 0 -94 R 0 478 R 0 -344 R 0 10 R 0 142 R
0 171 R 0 -828 R 0 203 R 0 251 R 0 181 R 0 -802 R 0 394 R 0 -848 R 0 785 R
0 -533 R 0 468 R 0 -327 R 0 1020 R 0 -532 R 0 -1258 R 0 1203 R 0 365 R
0 -367 R 0 -85 R 0 -1179 R 0 1778 R 0 -477 R 0 604 R 0 -963 R 0 287 R
0 -88 R 0 -393 R 0 -60 R 0 1160 R 0 -1683 R 0 472 R 0 389 R 0 459 R 0 846 R
0 -1147 R 0 -81 R 0 -84 R 0 132 R 0 84 R 0 295 R 0 -839 R 0 -811 R 0 -8 R
0 1921 R 0 -729 R 0 224 R 0 -558 R 0 785 R 0 -1032 R 0 878 R 0 -365 R
0 -851 R 0 604 R 0 700 R 0 -736 R 0 1035 R 0 -339 R 0 -314 R 0 -627 R
0 595 R 0 -1031 R 0 270 R 0 -438 R 0 638 R 0 -328 R 0 610 R 0 -727 R 0 984 R
0 -335 R 0 586 R 0 -584 R 0 -351 R 0 144 R 0 -424 R 0 -395 R 0 897 R
0 -419 R 0 -248 R 1 -457 R 0 1172 R 0 -477 R 0 535 R 0 -644 R 0 -586 R
0 -187 R 0 1049 R 0 -228 R 0 390 R 0 316 R 0 -216 R 0 -379 R 0 -276 R 0 -3 R
0 1188 R 0 -1193 R 0 -14 R 0 581 R 0 -101 R 0 361 R 0 -222 R 0 715 R 0 836 R
0 127 R 0 -1387 R 0 -543 R 0 867 R 0 -398 R 0 1062 R 0 -541 R 0 939 R
0 -1275 R 0 360 R 0 -387 R 0 673 R 0 341 R 0 -354 R 0 -386 R 0 170 R 0 308 R
0 -1220 R 0 424 R 0 549 R 0 -169 R 0 -895 R 0 166 R 0 39 R 0 -391 R 0 530 R
0 365 R 0 234 R 0 108 R 0 -44 R 0 351 R 0 -347 R 0 -81 R 0 202 R 0 -218 R
0 -299 R 0 340 R 0 -269 R 0 -32 R 0 462 R 0 484 R 0 -460 R 0 -665 R 0 662 R
0 -114 R 0 46 R 0 -668 R 0 -68 R 0 -35 R 0 -213 R 0 1058 R 0 -614 R 0 1298 R
0 -546 R 0 -862 R 0 29 R 0 -320 R 0 -10 R 0 1032 R 0 56 R 0 -123 R 0 -191 R
0 328 R 0 -553 R 0 168 R 0 58 R 0 -877 R 0 1238 R 0 51 R 0 -686 R 0 320 R
0 -192 R 0 -671 R 0 659 R 0 -331 R 1 462 R 0 211 R 0 -172 R 0 -188 R 0 219 R
0 1104 R 0 -927 R 0 123 R 0 76 R 0 -462 R 0 228 R 0 -397 R 0 739 R 0 -803 R
0 -151 R 0 686 R 0 -371 R 0 494 R 0 -656 R 0 1130 R 0 -520 R 0 -824 R
0 725 R 0 318 R 0 385 R 0 285 R 0 -858 R 0 242 R 0 465 R 0 251 R 0 -1485 R
0 1397 R 0 -1443 R 0 770 R 0 492 R 0 -283 R 0 -939 R 0 134 R 0 685 R
0 -348 R 0 299 R 0 -450 R 0 110 R 0 201 R 0 1005 R 0 -368 R 0 -520 R
0 -557 R 0 592 R 0 338 R 0 -118 R 0 -127 R 0 225 R 0 -1510 R 0 1302 R
0 -280 R 0 -200 R 0 24 R 0 134 R 0 42 R D 18717 6491 M 0 -60 R 0 881 R
0 -665 R 0 -221 R 0 -618 R 0 474 R 0 -1024 R 0 760 R 0 492 R 0 -181 R
0 -196 R 0 -149 R 0 300 R 0 -747 R 0 628 R 0 270 R 0 -740 R 0 -55 R 0 65 R
0 244 R 0 241 R 0 -971 R 0 346 R 0 916 R 0 -19 R 0 54 R 0 -476 R 0 401 R
0 -742 R 0 -143 R 0 738 R 0 -254 R 0 302 R 0 -947 R 0 1289 R 0 -1111 R
0 382 R 0 -87 R 0 669 R 0 -121 R 0 -175 R 0 -316 R 1 932 R 0 117 R 0 -330 R
0 37 R 0 392 R 0 -250 R 0 -635 R 0 -99 R 0 278 R 0 -67 R 0 127 R 0 170 R
0 608 R 0 -182 R 0 -115 R 0 -658 R 0 -356 R 0 114 R 0 514 R 0 -361 R 0 -27 R
0 -440 R 0 791 R 0 620 R 0 468 R 0 -942 R 0 612 R 0 -295 R 0 -238 R 0 -219 R
0 642 R 0 -314 R 0 -239 R 0 96 R 0 -60 R 0 314 R 0 690 R 0 -597 R 0 -239 R
0 -526 R 0 -66 R 0 724 R 0 250 R 0 -520 R 0 -82 R 0 -757 R 0 334 R 0 386 R
0 192 R 0 -167 R 0 262 R 0 -476 R 0 205 R 0 -161 R 0 1248 R 0 -642 R
0 -416 R 0 -300 R 0 1166 R 0 -138 R 0 -796 R 0 -285 R 0 1046 R 0 127 R
0 -1179 R 0 18 R 0 -987 R 0 1013 R 0 -927 R 0 768 R 0 716 R 0 -545 R 0 36 R
0 -637 R 0 558 R 0 -881 R 0 1046 R 0 1149 R 0 -1016 R 0 167 R 0 -959 R
0 -212 R 0 624 R 0 -113 R 0 -549 R 0 827 R 0 -703 R 0 421 R 0 -1286 R
0 1335 R 0 -1175 R 0 -220 R 0 356 R 0 717 R 0 -151 R 0 -235 R 0 741 R
0 -802 R 1 351 R 0 231 R 0 457 R 0 -127 R 0 -1095 R 0 643 R 0 474 R
0 -1230 R 0 796 R 0 -415 R 0 -756 R 0 310 R 0 167 R 0 39 R 0 142 R 0 298 R
0 -548 R 0 -345 R 0 137 R 0 1005 R 0 -646 R 0 929 R 0 -521 R 0 -557 R
0 -454 R 0 251 R 0 354 R 0 496 R 0 185 R 0 -208 R 0 438 R 0 454 R 0 -641 R
0 360 R 0 141 R 0 -741 R 0 1314 R 0 -930 R 0 69 R 0 547 R 0 -947 R 0 493 R
0 -301 R 0 -939 R 0 523 R 0 3 R 0 -139 R 0 -476 R 0 645 R 0 -352 R 0 783 R
0 822 R 0 -1190 R 0 856 R 0 39 R 0 -170 R 0 -38 R 0 -500 R 0 486 R 0 -1127 R
0 1102 R 0 -85 R 0 -338 R 0 120 R 0 228 R 0 -732 R 0 -376 R 0 790 R 0 -360 R
0 222 R 0 -198 R 0 -477 R 0 -28 R 0 540 R 0 -444 R 0 -49 R 0 118 R 0 33 R
0 -92 R 0 208 R 0 -274 R 0 -39 R 0 146 R 0 749 R 0 488 R 0 -913 R 0 -527 R
0 391 R 0 227 R 0 -1 R 0 498 R 0 -688 R 0 217 R 0 -170 R 0 218 R 0 354 R
0 -650 R 0 587 R 0 -409 R 0 -89 R 0 748 R 0 -407 R 0 -75 R 0 -324 R 0 391 R
0 -10 R 0 -24 R 0 270 R 0 -121 R 0 -258 R 0 -296 R 0 536 R 1 -148 R 0 405 R
0 -567 R 0 254 R 0 -520 R 0 830 R 0 -347 R 0 -216 R 0 605 R 0 -570 R
0 -365 R 0 714 R 0 -10 R 0 -48 R 0 372 R 0 -249 R 0 5 R 0 216 R 0 177 R
0 -265 R 0 -434 R 0 54 R 0 498 R 0 148 R 0 -130 R 0 -74 R 0 321 R 0 202 R
0 341 R 0 -261 R 0 370 R 0 -379 R 0 -250 R 0 -330 R 0 521 R 0 -350 R 0 443 R
0 381 R 0 -727 R 0 -208 R 0 379 R 0 29 R 0 -46 R 0 -91 R 0 -184 R 0 -102 R
0 -163 R 0 -32 R 0 586 R 0 -1339 R 0 549 R 0 1069 R 0 -468 R 0 24 R 0 203 R
0 105 R 0 -960 R 0 345 R 0 253 R 0 191 R 0 746 R 0 -1071 R 0 595 R 0 -292 R
0 -898 R 0 1061 R 0 -213 R 0 209 R 0 131 R 0 -802 R 0 502 R 0 -464 R 0 19 R
0 -99 R 0 668 R 0 23 R 0 136 R 0 190 R 0 -524 R 0 198 R 0 933 R 0 -101 R
0 -518 R 0 85 R 0 -533 R 0 -181 R 0 138 R 0 257 R 0 -524 R D 3500 9293 M
5 0 R 5 0 R 5 0 R 5 0 R 5 0 R 5 0 R 6 0 R 5 0 R 5 0 R 5 0 R 5 0 R 5 0 R
5 0 R 5 0 R 5 0 R 5 0 R 5 0 R 5 0 R 5 0 R 6 0 R 5 0 R 5 0 R 5 0 R 5 0 R
5 0 R 5 0 R 5 0 R 5 0 R 5 0 R 5 0 R 5 0 R 5 0 R 6 0 R 5 0 R 5 0 R 5 0 R
5 0 R 5 0 R 5 0 R 5 0 R 5 0 R 5 0 R 5 0 R 5 0 R 5 0 R 5 -1 R 6 0 R 5 0 R
5 0 R 5 0 R 5 0 R 5 0 R 5 0 R 5 0 R 5 0 R 5 0 R 5 0 R 5 0 R 5 0 R 6 0 R
5 0 R 5 0 R 5 0 R 5 0 R 5 0 R 5 0 R 5 0 R 5 0 R 5 0 R 5 0 R 5 0 R 5 0 R
6 0 R 5 0 R 5 0 R 5 0 R 5 0 R 5 0 R 5 0 R 5 0 R 5 0 R 5 0 R 5 0 R 5 0 R
5 0 R 6 0 R 5 0 R 5 0 R 5 0 R 5 0 R 5 0 R 5 0 R 5 0 R 5 0 R 5 0 R 5 0 R
5 0 R 5 0 R 6 0 R 5 0 R 5 -1 R 5 0 R 5 0 R 5 0 R 5 0 R 5 0 R 5 0 R 5 0 R
5 0 R 5 0 R 5 0 R 5 0 R 6 0 R 5 0 R 5 0 R 5 0 R 5 0 R 5 0 R 5 0 R 5 0 R
5 0 R 5 0 R 5 0 R 5 0 R 5 0 R 6 0 R 5 0 R 5 0 R 5 0 R 5 0 R 5 0 R 5 0 R
5 0 R 5 0 R 5 0 R 5 0 R 5 0 R 5 0 R 6 0 R 5 0 R 5 0 R 5 0 R 5 0 R 5 0 R
5 0 R 5 0 R 5 0 R 5 0 R 5 -1 R 5 0 R 5 0 R 6 0 R 5 0 R 5 0 R 5 0 R 5 0 R
5 0 R 5 0 R 5 0 R 5 0 R 5 0 R 5 0 R 5 0 R 5 0 R 6 0 R 5 0 R 5 0 R 5 0 R
5 0 R 5 0 R 5 0 R 5 0 R 5 0 R 5 0 R 5 0 R 5 0 R 5 0 R 5 0 R 6 0 R 5 0 R
5 0 R 5 0 R 5 0 R 5 0 R 5 0 R 5 0 R 5 0 R 5 0 R 5 0 R 5 0 R 5 -1 R 6 0 R
5 0 R 5 0 R 5 0 R 5 0 R 5 0 R 5 0 R 5 0 R 5 0 R 5 0 R 5 0 R 5 0 R 5 0 R
6 0 R 5 0 R 5 0 R 5 0 R 5 0 R 5 0 R 5 0 R 5 0 R 5 0 R 5 0 R 5 0 R 5 0 R
5 0 R 6 0 R 5 0 R 5 0 R 5 0 R 5 0 R 5 0 R 5 0 R 5 0 R 5 0 R 5 0 R 5 0 R
5 -1 R 5 0 R 6 0 R 5 0 R 5 0 R 5 0 R 5 0 R 5 0 R 5 0 R 5 0 R 5 0 R 5 0 R
5 0 R 5 0 R 5 0 R 6 0 R 5 0 R 5 0 R 5 0 R 5 0 R 5 0 R 5 0 R 5 0 R 5 0 R
5 0 R 5 0 R 5 0 R 5 0 R 5 0 R 6 0 R 5 0 R 5 0 R 5 0 R 5 0 R 5 0 R 5 -1 R
5 0 R 5 0 R 5 0 R 5 0 R 5 0 R 5 0 R 6 0 R 5 0 R 5 0 R 5 0 R 5 0 R 5 0 R
5 0 R 5 0 R 5 0 R 5 0 R 5 0 R 5 0 R 5 0 R 6 0 R 5 0 R 5 0 R 5 0 R 5 0 R
5 0 R 5 0 R 5 0 R 5 0 R 5 0 R 5 0 R 5 0 R 5 0 R 6 -1 R 5 0 R 5 0 R 5 0 R
5 0 R 5 0 R 5 0 R 5 0 R 5 0 R 5 0 R 5 0 R 5 0 R 5 0 R 6 0 R 5 0 R 5 0 R
5 0 R 5 0 R 5 0 R 5 0 R 5 0 R 5 0 R 5 0 R 5 0 R 5 0 R 5 0 R 5 0 R 6 0 R
5 0 R 5 0 R 5 -1 R 5 0 R 5 0 R 5 0 R 5 0 R 5 0 R 5 0 R 5 0 R 5 0 R 5 0 R
6 0 R 5 0 R 5 0 R 5 0 R 5 0 R 5 0 R 5 0 R 5 0 R 5 0 R 5 0 R 5 0 R 5 0 R
5 0 R 6 0 R 5 0 R 5 0 R 5 0 R 5 0 R 5 0 R 5 -1 R 5 0 R 5 0 R 5 0 R 5 0 R
5 0 R 5 0 R 6 0 R 5 0 R 5 0 R 5 0 R 5 0 R 5 0 R 5 0 R 5 0 R 5 0 R 5 0 R
5 0 R 5 0 R 5 0 R 6 0 R 5 0 R 5 0 R 5 0 R 5 0 R 5 0 R 5 0 R 5 -1 R 5 0 R
5 0 R 5 0 R 5 0 R 5 0 R 5 0 R 6 0 R 5 0 R 5 0 R 5 0 R 5 0 R 5 0 R 5 0 R
5 0 R 5 0 R 5 0 R 5 0 R 5 0 R 5 0 R 6 0 R 5 0 R 5 0 R 5 0 R 5 0 R 5 0 R
5 -1 R 5 0 R 5 0 R 5 0 R 5 0 R 5 0 R 5 0 R 6 0 R 5 0 R 5 0 R 5 0 R 5 0 R
5 0 R 5 0 R 5 0 R 5 0 R 5 0 R 5 0 R 5 0 R 5 0 R 6 0 R 5 0 R 5 0 R 5 0 R
5 0 R 5 -1 R 5 0 R 5 0 R 5 0 R 5 0 R 5 0 R 5 0 R 5 0 R 6 0 R 5 0 R 5 0 R
5 0 R 5 0 R 5 0 R 5 0 R 5 0 R 5 0 R 5 0 R 5 0 R 5 0 R 5 0 R 6 0 R 5 0 R
5 0 R 5 -1 R 5 0 R 5 0 R 5 0 R 5 0 R 5 0 R 5 0 R 5 0 R 5 0 R 5 0 R 5 0 R
6 0 R 5 0 R 5 0 R 5 0 R 5 0 R 5 0 R 5 0 R 5 0 R 5 0 R 5 0 R 5 0 R 5 0 R
5 0 R 6 -1 R 5 0 R 5 0 R 5 0 R 5 0 R 5 0 R 5 0 R 5 0 R 5 0 R 5 0 R 5 0 R
5 0 R 5 0 R 6 0 R 5 0 R 5 0 R 5 0 R 5 0 R 5 0 R 5 0 R 5 0 R 5 0 R 5 0 R
5 0 R 5 -1 R 5 0 R 6 0 R 5 0 R 5 0 R 5 0 R 5 0 R 5 0 R 5 0 R 5 0 R 5 0 R
5 0 R 5 0 R 5 0 R 5 0 R 6 0 R 5 0 R 5 0 R 5 0 R 5 0 R 5 0 R 5 0 R 5 0 R
5 0 R 5 -1 R 5 0 R 5 0 R 5 0 R 5 0 R 6 0 R 5 0 R 5 0 R 5 0 R 5 0 R 5 0 R
5 0 R 5 0 R 5 0 R 5 0 R 5 0 R 5 0 R 5 0 R 6 0 R 5 0 R 5 0 R 5 0 R 5 0 R
5 0 R 5 -1 R 5 0 R 5 0 R 5 0 R 5 0 R 5 0 R 5 0 R 6 0 R 5 0 R 5 0 R 5 0 R
5 0 R 5 0 R 5 0 R 5 0 R 5 0 R 5 0 R 5 0 R 5 0 R 5 0 R 6 0 R 5 0 R 5 0 R
5 0 R 5 0 R 5 -1 R 5 0 R 5 0 R 5 0 R 5 0 R 5 0 R 5 0 R 5 0 R 6 0 R 5 0 R
5 0 R 5 0 R 5 0 R 5 0 R 5 0 R 5 0 R 5 0 R 5 0 R 5 0 R 5 0 R 5 0 R 5 0 R
6 0 R 5 0 R 5 0 R 5 0 R 5 0 R 5 -1 R 5 0 R 5 0 R 5 0 R 5 0 R 5 0 R 5 0 R
5 0 R 6 0 R 5 0 R 5 0 R 5 0 R 5 0 R 5 0 R 5 0 R 5 0 R 5 0 R 5 0 R 5 0 R
5 0 R 5 0 R 6 0 R 5 0 R 5 0 R 5 0 R 5 0 R 5 0 R 5 0 R 5 0 R 5 0 R 5 -1 R
5 0 R 5 0 R 5 0 R 6 0 R 5 0 R 5 0 R 5 0 R 5 0 R 5 0 R 5 0 R 5 0 R 5 0 R
5 0 R 5 0 R 5 0 R 5 0 R 6 0 R 5 0 R 5 0 R 5 0 R 5 0 R 5 0 R 5 0 R 5 0 R
5 0 R 5 0 R 5 0 R 5 0 R 5 0 R 5 0 R 6 0 R 5 0 R 5 0 R 5 0 R 5 0 R 5 0 R
5 0 R 5 0 R 5 0 R 5 0 R 5 -1 R 5 0 R 5 0 R 6 0 R 5 0 R 5 0 R 5 0 R 5 0 R
5 0 R 5 0 R 5 0 R 5 0 R 5 0 R 5 0 R 5 0 R 5 0 R 6 0 R 5 0 R 5 0 R 5 0 R
5 0 R 5 0 R 5 0 R 5 0 R 5 0 R 5 0 R 5 0 R 5 0 R 5 0 R 6 0 R 5 0 R 5 0 R
5 0 R 5 0 R 5 0 R 5 0 R 5 0 R 5 0 R 5 0 R 5 0 R 5 0 R 5 0 R 6 0 R 5 0 R
5 0 R 5 0 R 5 0 R 5 0 R 5 0 R 5 0 R 5 0 R 5 0 R 5 0 R 5 0 R 5 0 R 6 0 R
5 0 R 5 0 R 5 0 R 5 0 R 5 0 R 5 0 R 5 0 R 5 0 R 5 0 R 5 0 R 5 0 R 5 0 R
5 0 R 6 0 R 5 0 R 5 0 R 5 0 R 5 0 R D 7307 9272 M 5 0 R 5 1 R 5 0 R 5 0 R
5 0 R 5 0 R 5 0 R 5 0 R 6 0 R 5 0 R 5 0 R 5 0 R 5 0 R 5 0 R 5 0 R 5 0 R
5 0 R 5 0 R 5 0 R 5 0 R 5 0 R 6 0 R 5 0 R 5 0 R 5 0 R 5 0 R 5 0 R 5 0 R
5 0 R 5 0 R 5 1 R 5 0 R 5 0 R 5 0 R 6 0 R 5 0 R 5 0 R 5 0 R 5 0 R 5 0 R
5 0 R 5 0 R 5 0 R 5 0 R 5 0 R 5 0 R 5 0 R 6 1 R 5 0 R 5 0 R 5 0 R 5 0 R
5 0 R 5 0 R 5 0 R 5 0 R 5 0 R 5 0 R 5 0 R 5 0 R 5 0 R 6 1 R 5 0 R 5 0 R
5 0 R 5 0 R 5 0 R 5 0 R 5 0 R 5 0 R 5 0 R 5 0 R 5 1 R 5 0 R 6 0 R 5 0 R
5 0 R 5 0 R 5 0 R 5 0 R 5 0 R 5 1 R 5 0 R 5 0 R 5 0 R 5 0 R 5 0 R 6 0 R
5 0 R 5 0 R 5 1 R 5 0 R 5 0 R 5 0 R 5 0 R 5 0 R 5 0 R 5 1 R 5 0 R 5 0 R
6 0 R 5 0 R 5 0 R 5 0 R 5 1 R 5 0 R 5 0 R 5 0 R 5 0 R 5 0 R 5 0 R 5 1 R
5 0 R 6 0 R 5 0 R 5 0 R 5 0 R 5 1 R 5 0 R 5 0 R 5 0 R 5 0 R 5 1 R 5 0 R
5 0 R 5 0 R 5 0 R 6 0 R 5 1 R 5 0 R 5 0 R 5 0 R 5 0 R 5 1 R 5 0 R 5 0 R
5 0 R 5 1 R 5 0 R 5 0 R 6 0 R 5 0 R 5 1 R 5 0 R 5 0 R 5 0 R 5 1 R 5 0 R
5 0 R 5 0 R 5 1 R 5 0 R 5 0 R 6 0 R 5 1 R 5 0 R 5 0 R 5 0 R 5 1 R 5 0 R
5 0 R 5 1 R 5 0 R 5 0 R 5 0 R 5 1 R 6 0 R 5 0 R 5 1 R 5 0 R 5 0 R 5 0 R
5 1 R 5 0 R 5 0 R 5 1 R 5 0 R 5 0 R 5 1 R 6 0 R 5 0 R 5 1 R 5 0 R 5 0 R
5 1 R 5 0 R 5 0 R 5 1 R 5 0 R 5 1 R 5 0 R 5 0 R 6 1 R 5 0 R 5 0 R 5 1 R
5 0 R 5 1 R 5 0 R 5 0 R 5 1 R 5 0 R 5 1 R 5 0 R 5 0 R 5 1 R 6 0 R 5 1 R
5 0 R 5 1 R 5 0 R 5 0 R 5 1 R 5 0 R 5 1 R 5 0 R 5 1 R 5 0 R 5 1 R 6 0 R
5 1 R 5 0 R 5 1 R 5 0 R 5 1 R 5 0 R 5 1 R 5 0 R 5 1 R 5 0 R 5 1 R 5 0 R
6 1 R 5 0 R 5 1 R 5 0 R 5 1 R 5 1 R 5 0 R 5 1 R 5 0 R 5 1 R 5 0 R 5 1 R
5 1 R 6 0 R 5 1 R 5 0 R 5 1 R 5 1 R 5 0 R 5 1 R 5 0 R 5 1 R 5 1 R 5 0 R
5 1 R 5 1 R 6 0 R 5 1 R 5 1 R 5 0 R 5 1 R 5 1 R 5 1 R 5 0 R 5 1 R 5 1 R
5 0 R 5 1 R 5 1 R 5 1 R 6 0 R 5 1 R 5 1 R 5 1 R 5 0 R 5 1 R 5 1 R 5 1 R
5 0 R 5 1 R 5 1 R 5 1 R 5 1 R 6 1 R 5 0 R 5 1 R 5 1 R 5 1 R 5 1 R 5 1 R
5 0 R 5 1 R 5 1 R 5 1 R 5 1 R 5 1 R 6 1 R 5 1 R 5 1 R 5 1 R 5 1 R 5 0 R
5 1 R 5 1 R 5 1 R 5 1 R 5 1 R 5 1 R 5 1 R 6 1 R 5 1 R 5 1 R 5 1 R 5 1 R
5 1 R 5 2 R 5 1 R 5 1 R 5 1 R 5 1 R 5 1 R 5 1 R 6 1 R 5 1 R 5 1 R 5 1 R
5 2 R 5 1 R 5 1 R 5 1 R 5 1 R 5 1 R 5 2 R 5 1 R 5 2 R 5 2 R 6 3 R 5 3 R
5 3 R 5 3 R 5 2 R 5 3 R 5 3 R 5 3 R 5 3 R 5 3 R 5 3 R 5 3 R 5 3 R 6 3 R
5 3 R 5 4 R 5 3 R 5 3 R 5 3 R 5 4 R 5 3 R 5 3 R 5 4 R 5 3 R 5 3 R 5 4 R
6 4 R 5 3 R 5 4 R 5 3 R 5 4 R 5 4 R 5 3 R 5 3 R 5 3 R 5 3 R 5 2 R 5 3 R
5 2 R 6 3 R 5 2 R 5 2 R 5 3 R 5 2 R 5 2 R 5 3 R 5 2 R 5 2 R 5 2 R 5 2 R
5 3 R 5 2 R 6 2 R 5 2 R 5 2 R 5 2 R 5 1 R 5 2 R 5 2 R 5 2 R 5 2 R 5 1 R
5 2 R 5 2 R 5 1 R 6 2 R 5 1 R 5 2 R 5 1 R 5 1 R 5 2 R 5 1 R 5 1 R 5 1 R
5 2 R 5 1 R 5 1 R 5 1 R 5 1 R 6 1 R 5 1 R 5 1 R 5 0 R 5 1 R 5 1 R 5 1 R
5 0 R 5 1 R 5 0 R 5 1 R 5 0 R 5 1 R 6 1 R 5 1 R 5 2 R 5 2 R 5 1 R 5 2 R
5 2 R 5 1 R 5 2 R 5 2 R 5 2 R 5 1 R 5 2 R 6 2 R 5 1 R 5 2 R 5 2 R 5 2 R
5 1 R 5 2 R 5 2 R 5 2 R 5 1 R 5 2 R 5 2 R 5 2 R 6 1 R 5 2 R 5 2 R 5 2 R
5 1 R 5 2 R 5 2 R 5 2 R 5 1 R 5 2 R 5 2 R 5 2 R 5 2 R 6 1 R 5 2 R 5 2 R
5 2 R 5 2 R 5 1 R 5 2 R 5 2 R 5 2 R 5 2 R 5 2 R 5 1 R 5 2 R 5 2 R 6 2 R
5 2 R 5 2 R 5 2 R 5 1 R 5 2 R 5 2 R 5 2 R 5 2 R 5 2 R 5 2 R 5 2 R 5 2 R
6 1 R 5 2 R 5 2 R 5 2 R 5 2 R 5 2 R 5 2 R 5 2 R 5 2 R 5 2 R 5 2 R 5 2 R
5 2 R 6 2 R 5 2 R 5 2 R 5 2 R 5 2 R 5 1 R 5 2 R 5 2 R 5 2 R 5 2 R 5 2 R
5 2 R 5 2 R 6 3 R 5 2 R 5 3 R 5 3 R 5 3 R 5 3 R 5 3 R 5 3 R 5 3 R 5 3 R
5 3 R 5 3 R 5 3 R 6 3 R 5 4 R 5 3 R 5 3 R 5 4 R 5 3 R 5 4 R 5 2 R 5 3 R
5 2 R 5 3 R 5 2 R 5 3 R 5 2 R 6 2 R 5 3 R 5 2 R 5 2 R 5 2 R 5 2 R 5 2 R
5 2 R 5 2 R 5 2 R 5 2 R 5 2 R 5 2 R 6 1 R 5 2 R 5 1 R 5 2 R 5 1 R 5 2 R
5 1 R 5 2 R 5 1 R 5 1 R 5 1 R 5 1 R 5 1 R 6 1 R 5 1 R 5 2 R 5 2 R 5 2 R
5 2 R 5 2 R 5 2 R 5 2 R 5 1 R 5 2 R 5 2 R 5 2 R 6 2 R 5 2 R 5 2 R 5 2 R
5 2 R 5 1 R 5 2 R 5 2 R 5 2 R 5 2 R 5 2 R 5 2 R 5 2 R 6 2 R 5 2 R 5 2 R
5 1 R 5 2 R 5 2 R 5 2 R 5 2 R 5 3 R 5 2 R 5 2 R 5 2 R 5 3 R 6 2 R 5 2 R
5 2 R 5 3 R 5 2 R 5 3 R 5 2 R 5 2 R 5 3 R 5 2 R 5 3 R 5 2 R 5 3 R 5 2 R
6 3 R 5 2 R 5 3 R 5 3 R 5 2 R 5 3 R 5 3 R 5 2 R 5 3 R 5 2 R 5 3 R 5 2 R
5 2 R 6 3 R 5 2 R 5 2 R 5 3 R 5 2 R 5 2 R 5 2 R 5 3 R 5 2 R 5 2 R 5 3 R
5 2 R 5 2 R 6 2 R 5 3 R 5 2 R 5 2 R 5 2 R 5 3 R 5 2 R 5 2 R 5 2 R 5 2 R
5 2 R 5 2 R 5 3 R 6 2 R 5 2 R 5 2 R 5 2 R 5 2 R 5 2 R 5 2 R 5 2 R 5 2 R
5 1 R 5 2 R 5 2 R 5 2 R 6 2 R 5 2 R 5 2 R 5 2 R 5 1 R 5 2 R 5 2 R 5 2 R
5 1 R 5 2 R 5 2 R 5 1 R 5 2 R 5 2 R 6 1 R 5 2 R 5 2 R 5 1 R 5 2 R 5 1 R
5 2 R 5 1 R 5 2 R 5 1 R 5 2 R 5 1 R 5 2 R 6 1 R 5 2 R 5 2 R 5 2 R 5 3 R
5 2 R 5 2 R 5 2 R 5 2 R 5 2 R 5 2 R 5 3 R 5 2 R 6 2 R 5 2 R 5 3 R 5 2 R
5 2 R 5 3 R 5 2 R 5 2 R 5 3 R 5 2 R 5 2 R 5 3 R 5 2 R 6 2 R 5 3 R 5 2 R
5 3 R 5 2 R 5 3 R 5 2 R 5 3 R 5 2 R 5 3 R 5 2 R 5 3 R 5 3 R 6 2 R 5 3 R
5 2 R 5 3 R D 11114 10273 M 5 2 R 5 2 R 5 3 R 5 2 R 5 2 R 5 3 R 5 2 R 5 3 R
5 2 R 5 2 R 6 3 R 5 2 R 5 2 R 5 3 R 5 2 R 5 3 R 5 2 R 5 2 R 5 3 R 5 2 R
5 3 R 5 2 R 5 2 R 6 3 R 5 2 R 5 3 R 5 2 R 5 2 R 5 3 R 5 2 R 5 3 R 5 2 R
5 3 R 5 2 R 5 2 R 5 3 R 6 2 R 5 3 R 5 2 R 5 2 R 5 3 R 5 2 R 5 3 R 5 2 R
5 3 R 5 2 R 5 2 R 5 3 R 5 2 R 6 3 R 5 2 R 5 3 R 5 2 R 5 3 R 5 2 R 5 2 R
5 3 R 5 2 R 5 3 R 5 2 R 5 3 R 5 2 R 6 3 R 5 2 R 5 2 R 5 3 R 5 2 R 5 2 R
5 3 R 5 2 R 5 2 R 5 3 R 5 2 R 5 2 R 5 2 R 6 3 R 5 2 R 5 2 R 5 2 R 5 3 R
5 2 R 5 2 R 5 2 R 5 3 R 5 2 R 5 2 R 5 2 R 5 2 R 5 3 R 6 2 R 5 2 R 5 2 R
5 2 R 5 3 R 5 2 R 5 3 R 5 2 R 5 2 R 5 3 R 5 2 R 5 3 R 5 2 R 6 2 R 5 3 R
5 2 R 5 3 R 5 2 R 5 3 R 5 2 R 5 3 R 5 2 R 5 3 R 5 2 R 5 3 R 5 2 R 6 3 R
5 2 R 5 3 R 5 2 R 5 3 R 5 2 R 5 3 R 5 2 R 5 3 R 5 2 R 5 3 R 5 2 R 5 3 R
6 2 R 5 3 R 5 2 R 5 3 R 5 2 R 5 3 R 5 2 R 5 3 R 5 2 R 5 3 R 5 2 R 5 3 R
5 2 R 6 3 R 5 2 R 5 3 R 5 2 R 5 2 R 5 3 R 5 2 R 5 2 R 5 3 R 5 2 R 5 2 R
5 3 R 5 2 R 5 2 R 6 2 R 5 3 R 5 2 R 5 2 R 5 2 R 5 3 R 5 2 R 5 2 R 5 2 R
5 2 R 5 3 R 5 2 R 5 2 R 6 2 R 5 3 R 5 2 R 5 2 R 5 2 R 5 2 R 5 3 R 5 2 R
5 2 R 5 2 R 5 2 R 5 2 R 5 3 R 6 2 R 5 2 R 5 2 R 5 2 R 5 3 R 5 2 R 5 3 R
5 2 R 5 3 R 5 2 R 5 2 R 5 3 R 5 2 R 6 3 R 5 2 R 5 3 R 5 3 R 5 2 R 5 3 R
5 2 R 5 3 R 5 3 R 5 2 R 5 2 R 5 2 R 5 3 R 6 2 R 5 2 R 5 2 R 5 3 R 5 2 R
5 2 R 5 2 R 5 2 R 5 2 R 5 2 R 5 2 R 5 2 R 5 2 R 5 3 R 6 2 R 5 2 R 5 3 R
5 2 R 5 3 R 5 3 R 5 2 R 5 3 R 5 3 R 5 2 R 5 3 R 5 3 R 5 3 R 6 3 R 5 2 R
5 3 R 5 3 R 5 2 R 5 3 R 5 2 R 5 3 R 5 2 R 5 2 R 5 2 R 5 3 R 5 2 R 6 2 R
5 2 R 5 2 R 5 3 R 5 2 R 5 2 R 5 2 R 5 2 R 5 2 R 5 3 R 5 2 R 5 2 R 5 3 R
6 2 R 5 2 R 5 3 R 5 2 R 5 2 R 5 2 R 5 3 R 5 2 R 5 2 R 5 2 R 5 3 R 5 2 R
5 2 R 6 2 R 5 2 R 5 2 R 5 2 R 5 2 R 5 2 R 5 2 R 5 2 R 5 2 R 5 1 R 5 3 R
5 2 R 5 2 R 5 2 R 6 2 R 5 2 R 5 2 R 5 3 R 5 2 R 5 2 R 5 2 R 5 3 R 5 2 R
5 2 R 5 3 R 5 2 R 5 2 R 6 3 R 5 2 R 5 3 R 5 2 R 5 3 R 5 2 R 5 3 R 5 2 R
5 3 R 5 2 R 5 3 R 5 2 R 5 2 R 6 3 R 5 2 R 5 2 R 5 2 R 5 2 R 5 3 R 5 2 R
5 2 R 5 2 R 5 2 R 5 3 R 5 2 R 5 2 R 6 3 R 5 2 R 5 3 R 5 2 R 5 3 R 5 2 R
5 3 R 5 2 R 5 3 R 5 2 R 5 3 R 5 2 R 5 3 R 6 2 R 5 3 R 5 3 R 5 2 R 5 3 R
5 3 R 5 2 R 5 3 R 5 2 R 5 3 R 5 2 R 5 2 R 5 3 R 6 2 R 5 2 R 5 2 R 5 2 R
5 2 R 5 3 R 5 2 R 5 2 R 5 3 R 5 2 R 5 2 R 5 2 R 5 3 R 5 2 R 6 2 R 5 3 R
5 2 R 5 2 R 5 1 R 5 2 R 5 2 R 5 2 R 5 1 R 5 2 R 5 1 R 5 2 R 5 2 R 6 2 R
5 2 R 5 2 R 5 2 R 5 2 R 5 3 R 5 2 R 5 3 R 5 2 R 5 2 R 5 2 R 5 2 R 5 1 R
6 2 R 5 1 R 5 1 R 5 2 R 5 1 R 5 1 R 5 2 R 5 2 R 5 2 R 5 2 R 5 3 R 5 2 R
5 3 R 6 3 R 5 3 R 5 2 R 5 2 R 5 2 R 5 2 R 5 2 R 5 2 R 5 2 R 5 2 R 5 2 R
5 1 R 5 2 R 6 2 R 5 2 R 5 1 R 5 2 R 5 2 R 5 1 R 5 2 R 5 2 R 5 2 R 5 3 R
5 3 R 5 2 R 5 3 R 5 3 R 6 3 R 5 3 R 5 3 R 5 1 R 5 2 R 5 2 R 5 1 R 5 1 R
5 1 R 5 1 R 5 2 R 5 2 R 5 2 R 6 2 R 5 2 R 5 2 R 5 3 R 5 2 R 5 2 R 5 2 R
5 2 R 5 2 R 5 2 R 5 2 R 5 2 R 5 2 R 6 2 R 5 3 R 5 2 R 5 3 R 5 3 R 5 3 R
5 3 R 5 2 R 5 3 R 5 2 R 5 2 R 5 2 R 5 1 R 6 2 R 5 2 R 5 2 R 5 2 R 5 2 R
5 2 R 5 2 R 5 3 R 5 2 R 5 2 R 5 3 R 5 2 R 5 2 R 6 3 R 5 2 R 5 3 R 5 2 R
5 1 R 5 2 R 5 1 R 5 1 R 5 1 R 5 1 R 5 1 R 5 1 R 5 2 R 5 1 R 6 2 R 5 1 R
5 2 R 5 2 R 5 1 R 5 2 R 5 3 R 5 2 R 5 2 R 5 2 R 5 3 R 5 2 R 5 3 R 6 2 R
5 3 R 5 2 R 5 2 R 5 2 R 5 2 R 5 2 R 5 2 R 5 1 R 5 2 R 5 1 R 5 2 R 5 1 R
6 1 R 5 1 R 5 1 R 5 2 R 5 1 R 5 2 R 5 2 R 5 3 R 5 2 R 5 1 R 5 2 R 5 2 R
5 1 R 6 1 R 5 2 R 5 1 R 5 2 R 5 1 R 5 2 R 5 2 R 5 2 R 5 2 R 5 2 R 5 2 R
5 2 R 5 3 R 6 2 R 5 2 R 5 3 R 5 2 R 5 2 R 5 3 R 5 1 R 5 2 R 5 1 R 5 2 R
5 1 R 5 1 R 5 3 R 6 2 R 5 3 R 5 3 R 5 3 R 5 2 R 5 2 R 5 1 R 5 2 R 5 2 R
5 1 R 5 2 R 5 1 R 5 2 R 5 1 R 6 2 R 5 2 R 5 2 R 5 2 R 5 2 R 5 2 R 5 1 R
5 2 R 5 1 R 5 1 R 5 1 R 5 2 R 5 2 R 6 3 R 5 3 R 5 2 R 5 1 R 5 2 R 5 1 R
5 1 R 5 2 R 5 1 R 5 2 R 5 1 R 5 1 R 5 2 R 6 2 R 5 1 R 5 2 R 5 2 R 5 1 R
5 1 R 5 1 R 5 1 R 5 1 R 5 2 R 5 1 R 5 1 R 5 2 R 6 2 R 5 2 R 5 3 R 5 3 R
5 2 R 5 2 R 5 1 R 5 2 R 5 1 R 5 1 R 5 1 R 5 1 R 5 1 R 6 2 R 5 2 R 5 2 R
5 3 R 5 2 R 5 1 R 5 2 R 5 2 R 5 1 R 5 2 R 5 1 R 5 1 R 5 1 R 5 1 R 6 1 R
5 1 R 5 0 R 5 1 R 5 0 R 5 0 R 5 1 R 5 1 R 5 1 R 5 1 R 5 2 R 5 1 R 5 2 R
6 2 R 5 2 R 5 2 R 5 2 R 5 2 R 5 3 R 5 3 R 5 2 R 5 3 R 5 2 R 5 2 R 5 2 R
5 1 R 6 2 R 5 1 R 5 1 R 5 1 R 5 1 R 5 2 R 5 1 R 5 2 R 5 2 R 5 1 R 5 2 R
5 1 R 5 2 R 6 2 R 5 1 R 5 2 R 5 1 R 5 2 R 5 2 R 5 2 R 5 2 R 5 2 R 5 2 R
5 3 R 5 2 R 5 2 R 6 1 R 5 2 R 5 1 R 5 1 R 5 1 R 5 1 R 5 1 R 5 1 R 5 2 R
5 1 R 5 1 R 5 1 R 5 1 R 5 2 R 6 1 R 5 2 R 5 1 R 5 2 R 5 2 R 5 2 R 5 2 R
5 1 R 5 2 R 5 3 R 5 2 R 5 2 R 5 3 R 6 3 R 5 3 R 5 3 R 5 4 R 5 3 R 5 2 R
5 2 R 5 2 R 5 2 R 5 1 R 5 2 R 5 2 R 5 2 R 6 2 R 5 2 R 5 2 R 5 2 R 5 1 R
5 2 R 5 1 R 5 2 R 5 1 R 5 1 R 5 2 R 5 2 R 5 2 R 6 2 R 5 2 R D 14921 11836 M
5 2 R 5 1 R 5 2 R 5 1 R 5 2 R 5 1 R 5 2 R 5 2 R 5 1 R 5 2 R 5 2 R 6 1 R
5 2 R 5 1 R 5 2 R 5 1 R 5 2 R 5 2 R 5 2 R 5 2 R 5 3 R 5 1 R 5 2 R 5 2 R
6 1 R 5 2 R 5 1 R 5 1 R 5 2 R 5 1 R 5 1 R 5 1 R 5 2 R 5 1 R 5 2 R 5 3 R
5 1 R 5 1 R 6 1 R 5 0 R 5 0 R 5 1 R 5 2 R 5 2 R 5 3 R 5 2 R 5 3 R 5 2 R
5 1 R 5 2 R 5 1 R 6 2 R 5 1 R 5 1 R 5 1 R 5 1 R 5 2 R 5 1 R 5 2 R 5 2 R
5 2 R 5 2 R 5 2 R 5 1 R 6 2 R 5 1 R 5 1 R 5 1 R 5 1 R 5 2 R 5 3 R 5 2 R
5 3 R 5 3 R 5 1 R 5 1 R 5 1 R 6 0 R 5 0 R 5 0 R 5 0 R 5 -1 R 5 1 R 5 0 R
5 0 R 5 0 R 5 1 R 5 1 R 5 2 R 5 2 R 6 2 R 5 2 R 5 3 R 5 2 R 5 2 R 5 1 R
5 0 R 5 0 R 5 1 R 5 0 R 5 0 R 5 0 R 5 0 R 5 0 R 6 0 R 5 1 R 5 2 R 5 2 R
5 3 R 5 3 R 5 1 R 5 0 R 5 0 R 5 1 R 5 2 R 5 2 R 5 3 R 6 0 R 5 0 R 5 -1 R
5 -1 R 5 1 R 5 2 R 5 3 R 5 1 R 5 2 R 5 2 R 5 2 R 5 2 R 5 3 R 6 2 R 5 2 R
5 2 R 5 1 R 5 0 R 5 0 R 5 0 R 5 -1 R 5 0 R 5 1 R 5 2 R 5 1 R 5 1 R 6 1 R
5 1 R 5 2 R 5 2 R 5 2 R 5 1 R 5 1 R 5 0 R 5 1 R 5 2 R 5 2 R 5 2 R 5 2 R
6 1 R 5 1 R 5 0 R 5 0 R 5 0 R 5 0 R 5 0 R 5 1 R 5 2 R 5 2 R 5 3 R 5 2 R
5 0 R 5 1 R 6 0 R 5 0 R 5 0 R 5 1 R 5 2 R 5 2 R 5 2 R 5 1 R 5 2 R 5 1 R
5 0 R 5 0 R 5 -1 R 6 -1 R 5 0 R 5 1 R 5 2 R 5 1 R 5 3 R 5 3 R 5 0 R 5 1 R
5 0 R 5 2 R 5 3 R 5 3 R 6 0 R 5 -1 R 5 1 R 5 2 R 5 3 R 5 -1 R 5 -1 R 5 -1 R
5 0 R 5 1 R 5 -1 R 5 -1 R 5 0 R 6 3 R 5 5 R 5 2 R 5 -1 R 5 -2 R 5 0 R 5 2 R
5 1 R 5 1 R 5 1 R 5 1 R 5 0 R 5 1 R 6 1 R 5 2 R 5 1 R 5 1 R 5 0 R 5 -1 R
5 0 R 5 0 R 5 1 R 5 2 R 5 3 R 5 1 R 5 -2 R 6 -1 R 5 1 R 5 2 R 5 3 R 5 4 R
5 1 R 5 -1 R 5 0 R 5 1 R 5 2 R 5 1 R 5 1 R 5 0 R 5 -1 R 6 0 R 5 2 R 5 1 R
5 1 R 5 1 R 5 3 R 5 2 R 5 0 R 5 -1 R 5 -1 R 5 -1 R 5 1 R 5 1 R 6 2 R 5 2 R
5 1 R 5 2 R 5 0 R 5 -1 R 5 2 R 5 5 R 5 2 R 5 0 R 5 -1 R 5 0 R 5 0 R 6 0 R
5 1 R 5 0 R 5 -1 R 5 -3 R 5 1 R 5 4 R 5 1 R 5 1 R 5 -1 R 5 -1 R 5 1 R 5 1 R
6 2 R 5 1 R 5 -1 R 5 -2 R 5 -1 R 5 1 R 5 3 R 5 3 R 5 2 R 5 2 R 5 0 R 5 -1 R
5 -1 R 6 1 R 5 0 R 5 -1 R 5 1 R 5 0 R 5 0 R 5 1 R 5 2 R 5 0 R 5 0 R 5 2 R
5 3 R 5 2 R 5 1 R 6 -1 R 5 -1 R 5 -1 R 5 3 R 5 1 R 5 0 R 5 -1 R 5 0 R 5 4 R
5 0 R 5 -2 R 5 -2 R 5 0 R 6 2 R 5 0 R 5 1 R 5 4 R 5 5 R 5 2 R 5 -4 R 5 -2 R
5 0 R 5 1 R 5 -1 R 5 -1 R 5 0 R 6 2 R 5 3 R 5 2 R 5 0 R 5 0 R 5 0 R 5 0 R
5 1 R 5 1 R 5 0 R 5 1 R 5 1 R 5 0 R 6 0 R 5 1 R 5 -1 R 5 1 R 5 1 R 5 1 R
5 0 R 5 3 R 5 0 R 5 -4 R 5 -2 R 5 0 R 5 0 R 6 0 R 5 1 R 5 4 R 5 1 R 5 -1 R
5 -2 R 5 -5 R 5 0 R 5 1 R 5 1 R 5 2 R 5 -2 R 5 1 R 5 2 R 6 -1 R 5 -1 R 5 2 R
5 4 R 5 3 R 5 0 R 5 -3 R 5 -3 R 5 3 R 5 0 R 5 0 R 5 1 R 5 -1 R 6 -1 R 5 6 R
5 0 R 5 -3 R 5 -1 R 5 4 R 5 3 R 5 -5 R 5 -2 R 5 4 R 5 -2 R 5 1 R 5 -1 R
6 0 R 5 -1 R 5 -4 R 5 -1 R 5 6 R 5 -2 R 5 4 R 5 -4 R 5 1 R 5 0 R 5 -1 R
5 -2 R 5 2 R 6 1 R 5 0 R 5 -4 R 5 3 R 5 5 R 5 -3 R 5 1 R 5 3 R 5 -1 R 5 -4 R
5 2 R 5 -1 R 5 0 R 6 -4 R 5 7 R 5 -1 R 5 -3 R 5 5 R 5 5 R 5 -6 R 5 -3 R
5 1 R 5 -3 R 5 -5 R 5 3 R 5 7 R 6 3 R 5 -7 R 5 2 R 5 -1 R 5 2 R 5 5 R 5 0 R
5 -2 R 5 2 R 5 1 R 5 -1 R 5 3 R 5 -4 R 5 -1 R 6 -1 R 5 5 R 5 -1 R 5 -4 R
5 2 R 5 1 R 5 -3 R 5 6 R 5 -2 R 5 6 R 5 3 R 5 -2 R 5 2 R 6 -1 R 5 0 R 5 -1 R
5 -3 R 5 -1 R 5 7 R 5 -3 R 5 5 R 5 4 R 5 -2 R 5 -3 R 5 5 R 5 -2 R 6 2 R
5 0 R 5 -2 R 5 -1 R 5 9 R 5 -9 R 5 6 R 5 0 R 5 -4 R 5 5 R 5 1 R 5 -12 R
5 7 R 6 -6 R 5 9 R 5 -2 R 5 2 R 5 0 R 5 6 R 5 -8 R 5 -1 R 5 4 R 5 -2 R 5 6 R
5 -6 R 5 6 R 6 -3 R 5 3 R 5 4 R 5 1 R 5 1 R 5 4 R 5 0 R 5 -1 R 5 0 R 5 -4 R
5 6 R 5 3 R 5 -4 R 5 3 R 6 0 R 5 2 R 5 -4 R 5 4 R 5 2 R 5 -2 R 5 4 R 5 -10 R
5 5 R 5 -1 R 5 2 R 5 4 R 5 2 R 6 -2 R 5 1 R 5 -4 R 5 2 R 5 -1 R 5 4 R 5 -7 R
5 3 R 5 4 R 5 -5 R 5 5 R 5 -7 R 5 1 R 6 2 R 5 -3 R 5 2 R 5 1 R 5 1 R 5 -1 R
5 -7 R 5 0 R 5 -6 R 5 10 R 5 -2 R 5 1 R 5 -10 R 6 0 R 5 2 R 5 -6 R 5 1 R
5 2 R 5 -6 R 5 0 R 5 -2 R 5 -3 R 5 2 R 5 -7 R 5 2 R 5 -3 R 6 0 R 5 2 R 5 0 R
5 -9 R 5 -2 R 5 3 R 5 3 R 5 -6 R 5 1 R 5 -4 R 5 0 R 5 -5 R 5 7 R 5 -5 R
6 -6 R 5 2 R 5 -2 R 5 1 R 5 -5 R 5 -1 R 5 -1 R 5 1 R 5 -8 R 5 1 R 5 -4 R
5 1 R 5 -7 R 6 -6 R 5 1 R 5 -4 R 5 -5 R 5 7 R 5 -3 R 5 -6 R 5 3 R 5 -11 R
5 4 R 5 -1 R 5 -9 R 5 -7 R 6 4 R 5 1 R 5 -5 R 5 5 R 5 -10 R 5 0 R 5 -11 R
5 2 R 5 3 R 5 -16 R 5 6 R 5 -4 R 5 -6 R 6 -10 R 5 -11 R 5 4 R 5 -5 R 5 -10 R
5 -2 R 5 7 R 5 -11 R 5 1 R 5 -5 R 5 -7 R 5 -5 R 5 -3 R 6 -17 R 5 -3 R 5 1 R
5 -8 R 5 5 R 5 -7 R 5 -9 R 5 -4 R 5 1 R 5 -9 R 5 1 R 5 1 R 5 -10 R 5 -2 R
6 -13 R 5 3 R 5 -7 R 5 -14 R 5 -2 R 5 1 R 5 -6 R 5 -7 R 5 -5 R 5 -15 R 5 2 R
5 -11 R 5 -16 R 6 -4 R 5 -6 R 5 0 R 5 4 R 5 -5 R 5 -12 R 5 -33 R 5 -4 R
5 -7 R 5 8 R 5 -16 R 5 -6 R 5 -9 R 6 -7 R 5 -24 R 5 3 R 5 -21 R 5 -4 R
5 -14 R 5 -18 R 5 -2 R 5 -17 R 5 6 R 5 -13 R 5 -23 R 5 -16 R 6 -3 R 5 -10 R
5 -8 R 5 -11 R 5 -20 R 5 0 R 5 -12 R 5 -10 R 5 -27 R 5 -16 R 5 3 R 5 -16 R
5 -17 R 6 -15 R 5 -5 R 5 -26 R 5 0 R 5 -15 R 5 -28 R 5 -52 R 5 -18 R 5 -26 R
5 -26 R 5 -32 R 5 -35 R 5 -13 R 6 -42 R 5 -28 R 5 -46 R 5 -46 R 5 -40 R
5 -8 R 5 -24 R 5 -60 R 5 -45 R 5 -51 R 5 -101 R 5 -13 R 5 -55 R 5 -130 R
6 -118 R 5 -45 R 5 -100 R D 3500 16267 M 5 0 R 5 0 R 5 0 R 5 0 R 5 0 R 5 0 R
6 0 R 5 0 R 5 0 R 5 0 R 5 0 R 5 0 R 5 0 R 5 0 R 5 0 R 5 0 R 5 0 R 5 0 R
5 0 R 6 0 R 5 0 R 5 0 R 5 0 R 5 0 R 5 0 R 5 0 R 5 0 R 5 0 R 5 0 R 5 0 R
5 0 R 5 0 R 6 0 R 5 0 R 5 0 R 5 0 R 5 0 R 5 0 R 5 0 R 5 0 R 5 0 R 5 0 R
5 0 R 5 0 R 5 0 R 5 0 R 6 0 R 5 0 R 5 0 R 5 0 R 5 0 R 5 0 R 5 0 R 5 0 R
5 0 R 5 0 R 5 0 R 5 -1 R 5 0 R 6 0 R 5 0 R 5 0 R 5 0 R 5 0 R 5 0 R 5 0 R
5 0 R 5 0 R 5 0 R 5 0 R 5 0 R 5 0 R 6 0 R 5 0 R 5 0 R 5 0 R 5 0 R 5 0 R
5 0 R 5 0 R 5 0 R 5 0 R 5 0 R 5 0 R 5 0 R 6 0 R 5 0 R 5 0 R 5 0 R 5 0 R
5 0 R 5 0 R 5 0 R 5 0 R 5 0 R 5 0 R 5 0 R 5 0 R 6 0 R 5 0 R 5 0 R 5 0 R
5 0 R 5 0 R 5 0 R 5 0 R 5 0 R 5 0 R 5 0 R 5 0 R 5 0 R 5 0 R 6 0 R 5 0 R
5 0 R 5 0 R 5 0 R 5 0 R 5 0 R 5 0 R 5 0 R 5 0 R 5 0 R 5 0 R 5 0 R 6 -1 R
5 0 R 5 0 R 5 0 R 5 0 R 5 0 R 5 0 R 5 0 R 5 0 R 5 0 R 5 0 R 5 0 R 5 0 R
6 0 R 5 0 R 5 0 R 5 0 R 5 0 R 5 0 R 5 0 R 5 0 R 5 0 R 5 0 R 5 0 R 5 0 R
5 0 R 6 0 R 5 0 R 5 0 R 5 0 R 5 0 R 5 0 R 5 0 R 5 0 R 5 0 R 5 0 R 5 0 R
5 0 R 5 0 R 6 0 R 5 0 R 5 0 R 5 0 R 5 0 R 5 0 R 5 0 R 5 0 R 5 0 R 5 0 R
5 0 R 5 0 R 5 0 R 5 0 R 6 0 R 5 0 R 5 -1 R 5 0 R 5 0 R 5 0 R 5 0 R 5 0 R
5 0 R 5 0 R 5 0 R 5 0 R 5 0 R 6 0 R 5 0 R 5 0 R 5 0 R 5 0 R 5 0 R 5 0 R
5 0 R 5 0 R 5 0 R 5 0 R 5 0 R 5 0 R 6 0 R 5 0 R 5 0 R 5 0 R 5 0 R 5 0 R
5 0 R 5 0 R 5 0 R 5 0 R 5 0 R 5 0 R 5 0 R 6 0 R 5 0 R 5 0 R 5 0 R 5 0 R
5 0 R 5 0 R 5 0 R 5 0 R 5 0 R 5 -1 R 5 0 R 5 0 R 6 0 R 5 0 R 5 0 R 5 0 R
5 0 R 5 0 R 5 0 R 5 0 R 5 0 R 5 0 R 5 0 R 5 0 R 5 0 R 6 0 R 5 0 R 5 0 R
5 0 R 5 0 R 5 0 R 5 0 R 5 0 R 5 0 R 5 0 R 5 0 R 5 0 R 5 0 R 5 0 R 6 0 R
5 0 R 5 0 R 5 0 R 5 0 R 5 0 R 5 0 R 5 0 R 5 0 R 5 0 R 5 0 R 5 -1 R 5 0 R
6 0 R 5 0 R 5 0 R 5 0 R 5 0 R 5 0 R 5 0 R 5 0 R 5 0 R 5 0 R 5 0 R 5 0 R
5 0 R 6 0 R 5 0 R 5 0 R 5 0 R 5 0 R 5 0 R 5 0 R 5 0 R 5 0 R 5 0 R 5 0 R
5 0 R 5 0 R 6 0 R 5 0 R 5 0 R 5 0 R 5 0 R 5 0 R 5 0 R 5 0 R 5 -1 R 5 0 R
5 0 R 5 0 R 5 0 R 6 0 R 5 0 R 5 0 R 5 0 R 5 0 R 5 0 R 5 0 R 5 0 R 5 0 R
5 0 R 5 0 R 5 0 R 5 0 R 5 0 R 6 0 R 5 0 R 5 0 R 5 0 R 5 0 R 5 0 R 5 0 R
5 0 R 5 0 R 5 0 R 5 0 R 5 0 R 5 0 R 6 0 R 5 -1 R 5 0 R 5 0 R 5 0 R 5 0 R
5 0 R 5 0 R 5 0 R 5 0 R 5 0 R 5 0 R 5 0 R 6 0 R 5 0 R 5 0 R 5 0 R 5 0 R
5 0 R 5 0 R 5 0 R 5 0 R 5 0 R 5 0 R 5 0 R 5 0 R 6 0 R 5 0 R 5 0 R 5 0 R
5 -1 R 5 0 R 5 0 R 5 0 R 5 0 R 5 0 R 5 0 R 5 0 R 5 0 R 6 0 R 5 0 R 5 0 R
5 0 R 5 0 R 5 0 R 5 0 R 5 0 R 5 0 R 5 0 R 5 0 R 5 0 R 5 0 R 5 0 R 6 0 R
5 0 R 5 0 R 5 0 R 5 0 R 5 -1 R 5 0 R 5 0 R 5 0 R 5 0 R 5 0 R 5 0 R 5 0 R
6 0 R 5 0 R 5 0 R 5 0 R 5 0 R 5 0 R 5 0 R 5 0 R 5 0 R 5 0 R 5 0 R 5 0 R
5 0 R 6 0 R 5 0 R 5 0 R 5 0 R 5 -1 R 5 0 R 5 0 R 5 0 R 5 0 R 5 0 R 5 0 R
5 0 R 5 0 R 6 0 R 5 0 R 5 0 R 5 0 R 5 0 R 5 0 R 5 0 R 5 0 R 5 0 R 5 0 R
5 0 R 5 0 R 5 0 R 6 0 R 5 -1 R 5 0 R 5 0 R 5 0 R 5 0 R 5 0 R 5 0 R 5 0 R
5 0 R 5 0 R 5 0 R 5 0 R 6 0 R 5 0 R 5 0 R 5 0 R 5 0 R 5 0 R 5 0 R 5 0 R
5 0 R 5 0 R 5 -1 R 5 0 R 5 0 R 5 0 R 6 0 R 5 0 R 5 0 R 5 0 R 5 0 R 5 0 R
5 0 R 5 0 R 5 0 R 5 0 R 5 0 R 5 0 R 5 0 R 6 0 R 5 0 R 5 0 R 5 -1 R 5 0 R
5 0 R 5 0 R 5 0 R 5 0 R 5 0 R 5 0 R 5 0 R 5 0 R 6 0 R 5 0 R 5 0 R 5 0 R
5 0 R 5 0 R 5 0 R 5 0 R 5 0 R 5 -1 R 5 0 R 5 0 R 5 0 R 6 0 R 5 0 R 5 0 R
5 0 R 5 0 R 5 0 R 5 0 R 5 0 R 5 0 R 5 0 R 5 0 R 5 0 R 5 0 R 6 0 R 5 -1 R
5 0 R 5 0 R 5 0 R 5 0 R 5 0 R 5 0 R 5 0 R 5 0 R 5 0 R 5 0 R 5 0 R 5 0 R
6 0 R 5 0 R 5 0 R 5 0 R 5 0 R 5 -1 R 5 0 R 5 0 R 5 0 R 5 0 R 5 0 R 5 0 R
5 0 R 6 0 R 5 0 R 5 0 R 5 0 R 5 0 R 5 0 R 5 0 R 5 0 R 5 -1 R 5 0 R 5 0 R
5 0 R 5 0 R 6 0 R 5 0 R 5 0 R 5 0 R 5 0 R 5 0 R 5 0 R 5 0 R 5 0 R 5 0 R
5 0 R 5 -1 R 5 0 R 6 0 R 5 0 R 5 0 R 5 0 R 5 0 R 5 0 R 5 0 R 5 0 R 5 0 R
5 0 R 5 0 R 5 0 R 5 -1 R 6 0 R 5 0 R 5 0 R 5 0 R 5 0 R 5 0 R 5 0 R 5 0 R
5 0 R 5 0 R 5 0 R 5 0 R 5 0 R 5 0 R 6 -1 R 5 0 R 5 0 R 5 0 R 5 0 R 5 0 R
5 0 R 5 0 R 5 0 R 5 0 R 5 0 R 5 0 R 5 0 R 6 0 R 5 -1 R 5 0 R 5 0 R 5 0 R
5 0 R 5 0 R 5 0 R 5 0 R 5 0 R 5 0 R 5 0 R 5 0 R 6 0 R 5 -1 R 5 0 R 5 0 R
5 0 R 5 0 R 5 0 R 5 0 R 5 0 R 5 0 R 5 0 R 5 0 R 5 0 R 6 0 R 5 -1 R 5 0 R
5 0 R 5 0 R 5 0 R 5 0 R 5 0 R 5 0 R 5 0 R 5 0 R 5 0 R 5 0 R 6 -1 R 5 0 R
5 0 R 5 0 R 5 0 R 5 0 R 5 0 R 5 0 R 5 0 R 5 0 R 5 0 R 5 0 R 5 -1 R 5 0 R
6 0 R 5 0 R 5 0 R 5 0 R 5 0 R 5 0 R 5 0 R 5 0 R 5 0 R 5 -1 R 5 0 R 5 0 R
5 0 R 6 0 R 5 0 R 5 0 R 5 0 R 5 0 R 5 0 R 5 0 R 5 -1 R 5 0 R 5 0 R 5 0 R
5 0 R 5 0 R 6 0 R 5 0 R 5 0 R 5 0 R 5 0 R 5 -1 R 5 0 R 5 0 R 5 0 R 5 0 R
5 0 R 5 0 R 5 0 R 6 0 R 5 0 R 5 0 R 5 -1 R 5 0 R 5 0 R 5 0 R 5 0 R 5 0 R
5 0 R 5 0 R 5 0 R 5 0 R 6 -1 R 5 0 R 5 0 R 5 0 R 5 0 R 5 0 R 5 0 R 5 0 R
5 0 R 5 0 R 5 -1 R 5 0 R 5 0 R 6 0 R 5 0 R 5 0 R 5 0 R 5 0 R 5 0 R 5 0 R
5 -1 R 5 0 R 5 0 R 5 0 R 5 0 R 5 0 R 5 0 R 6 0 R 5 0 R 5 -1 R 5 0 R 5 0 R D
7307 16234 M 5 0 R 5 0 R 5 0 R 5 0 R 5 0 R 5 0 R 5 -1 R 5 0 R 6 0 R 5 0 R
5 0 R 5 0 R 5 0 R 5 0 R 5 0 R 5 -1 R 5 0 R 5 0 R 5 0 R 5 0 R 5 0 R 6 0 R
5 0 R 5 0 R 5 -1 R 5 0 R 5 0 R 5 0 R 5 0 R 5 0 R 5 0 R 5 0 R 5 0 R 5 -1 R
6 0 R 5 0 R 5 0 R 5 0 R 5 0 R 5 0 R 5 0 R 5 -1 R 5 0 R 5 0 R 5 0 R 5 0 R
5 0 R 6 0 R 5 0 R 5 -1 R 5 0 R 5 0 R 5 0 R 5 0 R 5 0 R 5 0 R 5 0 R 5 -1 R
5 0 R 5 0 R 5 0 R 6 0 R 5 0 R 5 0 R 5 0 R 5 -1 R 5 0 R 5 0 R 5 0 R 5 0 R
5 0 R 5 0 R 5 0 R 5 -1 R 6 0 R 5 0 R 5 0 R 5 0 R 5 0 R 5 0 R 5 0 R 5 -1 R
5 0 R 5 0 R 5 0 R 5 0 R 5 0 R 6 0 R 5 -1 R 5 0 R 5 0 R 5 0 R 5 0 R 5 0 R
5 0 R 5 0 R 5 -1 R 5 0 R 5 0 R 5 0 R 6 0 R 5 0 R 5 0 R 5 -1 R 5 0 R 5 0 R
5 0 R 5 0 R 5 0 R 5 0 R 5 -1 R 5 0 R 5 0 R 6 0 R 5 0 R 5 0 R 5 0 R 5 -1 R
5 0 R 5 0 R 5 0 R 5 0 R 5 0 R 5 0 R 5 -1 R 5 0 R 5 0 R 6 0 R 5 0 R 5 0 R
5 0 R 5 -1 R 5 0 R 5 0 R 5 0 R 5 0 R 5 0 R 5 -1 R 5 0 R 5 0 R 6 0 R 5 0 R
5 0 R 5 0 R 5 -1 R 5 0 R 5 0 R 5 0 R 5 0 R 5 0 R 5 0 R 5 -1 R 5 0 R 6 0 R
5 0 R 5 0 R 5 0 R 5 -1 R 5 0 R 5 0 R 5 0 R 5 0 R 5 0 R 5 -1 R 5 0 R 5 0 R
6 0 R 5 0 R 5 0 R 5 0 R 5 -1 R 5 0 R 5 0 R 5 0 R 5 0 R 5 0 R 5 -1 R 5 0 R
5 0 R 6 0 R 5 0 R 5 0 R 5 -1 R 5 0 R 5 0 R 5 0 R 5 0 R 5 0 R 5 -1 R 5 0 R
5 0 R 5 0 R 6 0 R 5 0 R 5 -1 R 5 0 R 5 0 R 5 0 R 5 0 R 5 0 R 5 -1 R 5 0 R
5 0 R 5 0 R 5 0 R 5 0 R 6 -1 R 5 0 R 5 0 R 5 0 R 5 0 R 5 0 R 5 -1 R 5 0 R
5 0 R 5 0 R 5 0 R 5 0 R 5 -1 R 6 0 R 5 0 R 5 0 R 5 0 R 5 -1 R 5 0 R 5 0 R
5 0 R 5 0 R 5 0 R 5 -1 R 5 0 R 5 0 R 6 0 R 5 0 R 5 0 R 5 -1 R 5 0 R 5 0 R
5 0 R 5 0 R 5 -1 R 5 0 R 5 0 R 5 0 R 5 0 R 6 0 R 5 -1 R 5 0 R 5 0 R 5 0 R
5 0 R 5 -1 R 5 0 R 5 0 R 5 0 R 5 0 R 5 0 R 5 -1 R 6 0 R 5 0 R 5 0 R 5 0 R
5 -1 R 5 0 R 5 0 R 5 0 R 5 0 R 5 0 R 5 -1 R 5 0 R 5 0 R 5 0 R 6 0 R 5 -1 R
5 0 R 5 0 R 5 0 R 5 0 R 5 -1 R 5 0 R 5 0 R 5 0 R 5 0 R 5 0 R 5 -1 R 6 0 R
5 0 R 5 0 R 5 0 R 5 -1 R 5 0 R 5 0 R 5 0 R 5 0 R 5 -1 R 5 0 R 5 0 R 5 0 R
6 0 R 5 -1 R 5 0 R 5 0 R 5 0 R 5 0 R 5 0 R 5 -1 R 5 0 R 5 0 R 5 0 R 5 0 R
5 -1 R 6 0 R 5 0 R 5 0 R 5 0 R 5 -1 R 5 0 R 5 0 R 5 0 R 5 0 R 5 -1 R 5 0 R
5 0 R 5 0 R 6 0 R 5 0 R 5 -1 R 5 0 R 5 0 R 5 0 R 5 0 R 5 -1 R 5 0 R 5 0 R
5 0 R 5 0 R 5 -1 R 5 0 R 6 0 R 5 0 R 5 0 R 5 -1 R 5 0 R 5 0 R 5 0 R 5 0 R
5 -1 R 5 0 R 5 0 R 5 0 R 5 0 R 6 -1 R 5 0 R 5 0 R 5 0 R 5 -1 R 5 0 R 5 0 R
5 0 R 5 0 R 5 -1 R 5 0 R 5 0 R 5 0 R 6 0 R 5 -1 R 5 0 R 5 0 R 5 0 R 5 0 R
5 -1 R 5 0 R 5 0 R 5 0 R 5 0 R 5 -1 R 5 0 R 6 0 R 5 0 R 5 0 R 5 -1 R 5 0 R
5 0 R 5 0 R 5 0 R 5 -1 R 5 0 R 5 0 R 5 0 R 5 -1 R 6 0 R 5 0 R 5 0 R 5 0 R
5 -1 R 5 0 R 5 0 R 5 0 R 5 0 R 5 -1 R 5 0 R 5 0 R 5 0 R 6 0 R 5 -1 R 5 0 R
5 0 R 5 0 R 5 0 R 5 -1 R 5 0 R 5 0 R 5 0 R 5 0 R 5 0 R 5 -1 R 5 0 R 6 0 R
5 0 R 5 0 R 5 -1 R 5 0 R 5 0 R 5 0 R 5 0 R 5 -1 R 5 0 R 5 0 R 5 0 R 5 0 R
6 -1 R 5 0 R 5 0 R 5 0 R 5 0 R 5 -1 R 5 0 R 5 0 R 5 0 R 5 0 R 5 -1 R 5 0 R
5 0 R 6 0 R 5 0 R 5 -1 R 5 0 R 5 0 R 5 0 R 5 0 R 5 -1 R 5 0 R 5 0 R 5 0 R
5 0 R 5 -1 R 6 0 R 5 0 R 5 0 R 5 0 R 5 -1 R 5 0 R 5 0 R 5 0 R 5 -1 R 5 0 R
5 0 R 5 0 R 5 0 R 6 -1 R 5 0 R 5 0 R 5 0 R 5 0 R 5 -1 R 5 0 R 5 0 R 5 0 R
5 0 R 5 -1 R 5 0 R 5 0 R 5 0 R 6 0 R 5 -1 R 5 0 R 5 0 R 5 0 R 5 0 R 5 -1 R
5 0 R 5 0 R 5 0 R 5 -1 R 5 0 R 5 0 R 6 0 R 5 0 R 5 -1 R 5 0 R 5 0 R 5 0 R
5 0 R 5 -1 R 5 0 R 5 0 R 5 0 R 5 0 R 5 -1 R 6 0 R 5 0 R 5 0 R 5 -1 R 5 0 R
5 0 R 5 0 R 5 0 R 5 -1 R 5 0 R 5 0 R 5 0 R 5 0 R 6 -1 R 5 0 R 5 0 R 5 0 R
5 -1 R 5 0 R 5 0 R 5 0 R 5 0 R 5 -1 R 5 0 R 5 0 R 5 0 R 6 -1 R 5 0 R 5 0 R
5 0 R 5 0 R 5 -1 R 5 0 R 5 0 R 5 0 R 5 -1 R 5 0 R 5 0 R 5 0 R 5 0 R 6 -1 R
5 0 R 5 0 R 5 0 R 5 -1 R 5 0 R 5 0 R 5 0 R 5 -1 R 5 0 R 5 0 R 5 0 R 5 0 R
6 -1 R 5 0 R 5 0 R 5 0 R 5 -1 R 5 0 R 5 0 R 5 0 R 5 -1 R 5 0 R 5 0 R 5 0 R
5 -1 R 6 0 R 5 0 R 5 0 R 5 0 R 5 -1 R 5 0 R 5 0 R 5 0 R 5 -1 R 5 0 R 5 0 R
5 0 R 5 0 R 6 -1 R 5 0 R 5 0 R 5 0 R 5 -1 R 5 0 R 5 0 R 5 0 R 5 0 R 5 -1 R
5 0 R 5 0 R 5 0 R 6 0 R 5 -1 R 5 0 R 5 0 R 5 0 R 5 0 R 5 -1 R 5 0 R 5 0 R
5 0 R 5 -1 R 5 0 R 5 0 R 6 0 R 5 0 R 5 -1 R 5 0 R 5 0 R 5 0 R 5 -1 R 5 0 R
5 0 R 5 0 R 5 -1 R 5 0 R 5 0 R 5 0 R 6 -1 R 5 0 R 5 0 R 5 0 R 5 -1 R 5 0 R
5 0 R 5 0 R 5 -1 R 5 0 R 5 0 R 5 0 R 5 0 R 6 -1 R 5 0 R 5 0 R 5 0 R 5 -1 R
5 0 R 5 0 R 5 0 R 5 0 R 5 -1 R 5 0 R 5 0 R 5 0 R 6 -1 R 5 0 R 5 0 R 5 0 R
5 0 R 5 -1 R 5 0 R 5 0 R 5 0 R 5 -1 R 5 0 R 5 0 R 5 0 R 6 -1 R 5 0 R 5 0 R
5 0 R 5 -1 R 5 0 R 5 0 R 5 0 R 5 -1 R 5 0 R 5 0 R 5 0 R 5 -1 R 6 0 R 5 0 R
5 0 R 5 -1 R 5 0 R 5 0 R 5 0 R 5 -1 R 5 0 R 5 0 R 5 0 R 5 -1 R 5 0 R 5 0 R
6 0 R 5 -1 R 5 0 R 5 0 R 5 -1 R 5 0 R 5 0 R 5 0 R 5 -1 R 5 0 R 5 0 R 5 -1 R
5 0 R 6 0 R 5 0 R 5 -1 R 5 0 R 5 0 R 5 0 R 5 -1 R 5 0 R 5 0 R 5 0 R 5 -1 R
5 0 R 5 0 R 6 0 R 5 -1 R 5 0 R 5 0 R 5 0 R 5 -1 R 5 0 R 5 0 R 5 0 R 5 -1 R
5 0 R 5 0 R 5 0 R 6 -1 R 5 0 R 5 0 R 5 0 R 5 -1 R 5 0 R 5 0 R 5 0 R 5 -1 R
5 0 R 5 0 R 5 0 R 5 -1 R 6 0 R 5 0 R 5 0 R 5 -1 R D 11114 16089 M 5 0 R
5 0 R 5 0 R 5 0 R 5 -1 R 5 0 R 5 0 R 5 0 R 5 -1 R 5 0 R 6 0 R 5 0 R 5 -1 R
5 0 R 5 0 R 5 0 R 5 -1 R 5 0 R 5 0 R 5 0 R 5 -1 R 5 0 R 5 0 R 6 0 R 5 -1 R
5 0 R 5 0 R 5 0 R 5 0 R 5 -1 R 5 0 R 5 0 R 5 0 R 5 -1 R 5 0 R 5 0 R 6 0 R
5 -1 R 5 0 R 5 0 R 5 0 R 5 -1 R 5 0 R 5 0 R 5 0 R 5 -1 R 5 0 R 5 0 R 5 0 R
6 -1 R 5 0 R 5 0 R 5 -1 R 5 0 R 5 0 R 5 0 R 5 -1 R 5 0 R 5 0 R 5 0 R 5 -1 R
5 0 R 6 0 R 5 0 R 5 -1 R 5 0 R 5 0 R 5 0 R 5 -1 R 5 0 R 5 0 R 5 0 R 5 -1 R
5 0 R 5 0 R 6 -1 R 5 0 R 5 0 R 5 0 R 5 -1 R 5 0 R 5 0 R 5 0 R 5 -1 R 5 0 R
5 0 R 5 0 R 5 -1 R 5 0 R 6 0 R 5 -1 R 5 0 R 5 0 R 5 0 R 5 -1 R 5 0 R 5 0 R
5 0 R 5 -1 R 5 0 R 5 0 R 5 0 R 6 -1 R 5 0 R 5 0 R 5 0 R 5 -1 R 5 0 R 5 0 R
5 0 R 5 -1 R 5 0 R 5 0 R 5 0 R 5 0 R 6 -1 R 5 0 R 5 0 R 5 0 R 5 -1 R 5 0 R
5 0 R 5 0 R 5 -1 R 5 0 R 5 0 R 5 0 R 5 -1 R 6 0 R 5 0 R 5 -1 R 5 0 R 5 0 R
5 0 R 5 -1 R 5 0 R 5 0 R 5 0 R 5 -1 R 5 0 R 5 0 R 6 0 R 5 -1 R 5 0 R 5 0 R
5 0 R 5 -1 R 5 0 R 5 0 R 5 0 R 5 -1 R 5 0 R 5 0 R 5 0 R 5 -1 R 6 0 R 5 0 R
5 0 R 5 -1 R 5 0 R 5 0 R 5 0 R 5 -1 R 5 0 R 5 0 R 5 0 R 5 -1 R 5 0 R 6 0 R
5 0 R 5 -1 R 5 0 R 5 0 R 5 0 R 5 -1 R 5 0 R 5 0 R 5 0 R 5 -1 R 5 0 R 5 0 R
6 0 R 5 -1 R 5 0 R 5 0 R 5 0 R 5 -1 R 5 0 R 5 0 R 5 0 R 5 -1 R 5 0 R 5 0 R
5 0 R 6 -1 R 5 0 R 5 0 R 5 0 R 5 -1 R 5 0 R 5 0 R 5 0 R 5 -1 R 5 0 R 5 0 R
5 0 R 5 0 R 6 -1 R 5 0 R 5 0 R 5 0 R 5 -1 R 5 0 R 5 0 R 5 0 R 5 -1 R 5 0 R
5 0 R 5 0 R 5 -1 R 5 0 R 6 0 R 5 0 R 5 -1 R 5 0 R 5 0 R 5 0 R 5 -1 R 5 0 R
5 0 R 5 0 R 5 -1 R 5 0 R 5 0 R 6 -1 R 5 0 R 5 0 R 5 0 R 5 -1 R 5 0 R 5 0 R
5 0 R 5 -1 R 5 0 R 5 0 R 5 0 R 5 0 R 6 -1 R 5 0 R 5 0 R 5 0 R 5 0 R 5 -1 R
5 0 R 5 0 R 5 0 R 5 -1 R 5 0 R 5 0 R 5 0 R 6 -1 R 5 0 R 5 0 R 5 0 R 5 -1 R
5 0 R 5 0 R 5 0 R 5 -1 R 5 0 R 5 0 R 5 0 R 5 -1 R 6 0 R 5 0 R 5 0 R 5 -1 R
5 0 R 5 0 R 5 0 R 5 -1 R 5 0 R 5 0 R 5 0 R 5 -1 R 5 0 R 5 0 R 6 0 R 5 -1 R
5 0 R 5 0 R 5 0 R 5 -1 R 5 0 R 5 0 R 5 0 R 5 -1 R 5 0 R 5 0 R 5 0 R 6 -1 R
5 0 R 5 0 R 5 0 R 5 -1 R 5 0 R 5 0 R 5 0 R 5 -1 R 5 0 R 5 0 R 5 0 R 5 -1 R
6 0 R 5 0 R 5 0 R 5 -1 R 5 0 R 5 0 R 5 -1 R 5 0 R 5 0 R 5 0 R 5 -1 R 5 0 R
5 0 R 6 0 R 5 -1 R 5 0 R 5 0 R 5 -1 R 5 0 R 5 0 R 5 0 R 5 -1 R 5 0 R 5 0 R
5 0 R 5 -1 R 6 0 R 5 0 R 5 0 R 5 -1 R 5 0 R 5 0 R 5 0 R 5 -1 R 5 0 R 5 0 R
5 0 R 5 -1 R 5 0 R 6 0 R 5 0 R 5 -1 R 5 0 R 5 0 R 5 0 R 5 -1 R 5 0 R 5 0 R
5 0 R 5 -1 R 5 0 R 5 0 R 5 -1 R 6 0 R 5 0 R 5 0 R 5 -1 R 5 0 R 5 0 R 5 0 R
5 -1 R 5 0 R 5 0 R 5 0 R 5 -1 R 5 0 R 6 0 R 5 0 R 5 -1 R 5 0 R 5 0 R 5 0 R
5 -1 R 5 0 R 5 0 R 5 0 R 5 -1 R 5 0 R 5 0 R 6 0 R 5 -1 R 5 0 R 5 0 R 5 0 R
5 -1 R 5 0 R 5 0 R 5 0 R 5 -1 R 5 0 R 5 0 R 5 0 R 6 -1 R 5 0 R 5 0 R 5 0 R
5 -1 R 5 0 R 5 0 R 5 0 R 5 -1 R 5 0 R 5 0 R 5 0 R 5 -1 R 6 0 R 5 0 R 5 0 R
5 -1 R 5 0 R 5 0 R 5 0 R 5 -1 R 5 0 R 5 0 R 5 0 R 5 -1 R 5 0 R 5 0 R 6 -1 R
5 0 R 5 0 R 5 0 R 5 -1 R 5 0 R 5 0 R 5 -1 R 5 0 R 5 0 R 5 0 R 5 -1 R 5 0 R
6 0 R 5 0 R 5 -1 R 5 0 R 5 0 R 5 0 R 5 -1 R 5 0 R 5 0 R 5 0 R 5 -1 R 5 0 R
5 0 R 6 -1 R 5 0 R 5 0 R 5 0 R 5 -1 R 5 0 R 5 0 R 5 -1 R 5 0 R 5 0 R 5 -1 R
5 0 R 5 0 R 6 0 R 5 0 R 5 -1 R 5 0 R 5 0 R 5 0 R 5 -1 R 5 0 R 5 0 R 5 0 R
5 -1 R 5 0 R 5 0 R 6 0 R 5 -1 R 5 0 R 5 0 R 5 -1 R 5 0 R 5 0 R 5 0 R 5 0 R
5 -1 R 5 0 R 5 0 R 5 0 R 5 -1 R 6 0 R 5 0 R 5 -1 R 5 0 R 5 0 R 5 0 R 5 -1 R
5 0 R 5 0 R 5 0 R 5 -1 R 5 0 R 5 0 R 6 -1 R 5 0 R 5 0 R 5 0 R 5 -1 R 5 0 R
5 0 R 5 0 R 5 -1 R 5 0 R 5 0 R 5 0 R 5 -1 R 6 0 R 5 0 R 5 0 R 5 -1 R 5 0 R
5 0 R 5 -1 R 5 0 R 5 0 R 5 0 R 5 -1 R 5 0 R 5 0 R 6 0 R 5 0 R 5 -1 R 5 0 R
5 0 R 5 -1 R 5 0 R 5 0 R 5 0 R 5 -1 R 5 0 R 5 0 R 5 -1 R 6 0 R 5 0 R 5 0 R
5 -1 R 5 0 R 5 0 R 5 -1 R 5 0 R 5 0 R 5 0 R 5 -1 R 5 0 R 5 0 R 6 -1 R 5 0 R
5 0 R 5 0 R 5 -1 R 5 0 R 5 0 R 5 -1 R 5 0 R 5 0 R 5 0 R 5 -1 R 5 0 R 5 0 R
6 0 R 5 -1 R 5 0 R 5 0 R 5 -1 R 5 0 R 5 0 R 5 0 R 5 -1 R 5 0 R 5 0 R 5 -1 R
5 0 R 6 0 R 5 0 R 5 -1 R 5 0 R 5 0 R 5 -1 R 5 0 R 5 0 R 5 0 R 5 -1 R 5 0 R
5 0 R 5 -1 R 6 0 R 5 0 R 5 -1 R 5 0 R 5 0 R 5 0 R 5 -1 R 5 0 R 5 0 R 5 0 R
5 -1 R 5 0 R 5 0 R 6 0 R 5 -1 R 5 0 R 5 0 R 5 -1 R 5 0 R 5 0 R 5 0 R 5 -1 R
5 0 R 5 0 R 5 0 R 5 -1 R 6 0 R 5 0 R 5 -1 R 5 0 R 5 0 R 5 0 R 5 -1 R 5 0 R
5 0 R 5 -1 R 5 0 R 5 0 R 5 -1 R 5 0 R 6 0 R 5 -1 R 5 0 R 5 0 R 5 -1 R 5 0 R
5 0 R 5 0 R 5 -1 R 5 0 R 5 0 R 5 0 R 5 -1 R 6 0 R 5 0 R 5 -1 R 5 0 R 5 0 R
5 0 R 5 -1 R 5 0 R 5 0 R 5 -1 R 5 0 R 5 0 R 5 -1 R 6 0 R 5 0 R 5 0 R 5 -1 R
5 0 R 5 0 R 5 -1 R 5 0 R 5 0 R 5 -1 R 5 0 R 5 0 R 5 -1 R 6 0 R 5 0 R 5 0 R
5 -1 R 5 0 R 5 0 R 5 -1 R 5 0 R 5 0 R 5 -1 R 5 0 R 5 0 R 5 -1 R 6 0 R 5 0 R
5 -1 R 5 0 R 5 0 R 5 -1 R 5 0 R 5 0 R 5 -1 R 5 0 R 5 0 R 5 -1 R 5 0 R 5 0 R
6 0 R 5 -1 R 5 0 R 5 0 R 5 -1 R 5 0 R 5 -1 R 5 0 R 5 -1 R 5 -1 R 5 -1 R
5 0 R 5 -1 R 6 0 R 5 -1 R 5 0 R 5 -1 R 5 0 R 5 -1 R 5 0 R 5 -1 R 5 0 R 5 0 R
5 -1 R 5 0 R 5 -1 R 6 0 R 5 0 R 5 -1 R 5 0 R 5 -1 R 5 0 R 5 0 R 5 -1 R 5 0 R
5 0 R 5 -1 R 5 0 R 5 0 R 6 -1 R 5 0 R D 14921 15885 M 5 0 R 5 -1 R 5 0 R
5 -1 R 5 0 R 5 0 R 5 -1 R 5 0 R 5 0 R 5 -1 R 5 0 R 6 -1 R 5 0 R 5 0 R 5 -1 R
5 0 R 5 -1 R 5 0 R 5 0 R 5 -1 R 5 0 R 5 0 R 5 -1 R 5 0 R 6 0 R 5 -1 R 5 0 R
5 0 R 5 -1 R 5 0 R 5 0 R 5 -1 R 5 0 R 5 -1 R 5 0 R 5 0 R 5 -1 R 5 0 R 6 0 R
5 -1 R 5 0 R 5 0 R 5 -1 R 5 0 R 5 -1 R 5 0 R 5 0 R 5 -1 R 5 0 R 5 0 R 5 -1 R
6 0 R 5 0 R 5 -1 R 5 0 R 5 -1 R 5 0 R 5 0 R 5 -1 R 5 0 R 5 -1 R 5 0 R 5 0 R
5 -1 R 6 0 R 5 0 R 5 -1 R 5 0 R 5 -1 R 5 0 R 5 0 R 5 -1 R 5 0 R 5 -1 R 5 0 R
5 0 R 5 -1 R 6 0 R 5 0 R 5 -1 R 5 0 R 5 0 R 5 -1 R 5 0 R 5 -1 R 5 0 R 5 0 R
5 -1 R 5 0 R 5 -1 R 6 0 R 5 0 R 5 -1 R 5 0 R 5 -1 R 5 0 R 5 0 R 5 -1 R 5 0 R
5 -1 R 5 0 R 5 0 R 5 -1 R 5 0 R 6 -1 R 5 0 R 5 0 R 5 -1 R 5 0 R 5 -1 R 5 0 R
5 -1 R 5 0 R 5 0 R 5 -1 R 5 0 R 5 -1 R 6 0 R 5 -1 R 5 0 R 5 0 R 5 -1 R 5 0 R
5 -1 R 5 0 R 5 -1 R 5 0 R 5 -1 R 5 0 R 5 -1 R 6 0 R 5 0 R 5 -1 R 5 0 R
5 -1 R 5 0 R 5 0 R 5 -1 R 5 0 R 5 -1 R 5 0 R 5 -1 R 5 0 R 6 0 R 5 -1 R 5 0 R
5 -1 R 5 0 R 5 -1 R 5 0 R 5 0 R 5 -1 R 5 0 R 5 -1 R 5 0 R 5 -1 R 6 0 R
5 -1 R 5 0 R 5 0 R 5 -1 R 5 0 R 5 -1 R 5 0 R 5 -1 R 5 0 R 5 -1 R 5 0 R
5 -1 R 5 0 R 6 0 R 5 -1 R 5 0 R 5 -1 R 5 0 R 5 -1 R 5 0 R 5 0 R 5 -1 R 5 0 R
5 -1 R 5 0 R 5 -1 R 6 0 R 5 -1 R 5 0 R 5 -1 R 5 0 R 5 -1 R 5 0 R 5 -1 R
5 0 R 5 -1 R 5 0 R 5 -1 R 5 0 R 6 -1 R 5 0 R 5 0 R 5 -1 R 5 0 R 5 -1 R 5 0 R
5 -1 R 5 0 R 5 -1 R 5 0 R 5 -1 R 5 0 R 6 -1 R 5 0 R 5 -1 R 5 0 R 5 -1 R
5 0 R 5 -1 R 5 0 R 5 -1 R 5 0 R 5 -1 R 5 0 R 5 -1 R 6 -1 R 5 0 R 5 -1 R
5 0 R 5 -1 R 5 0 R 5 -1 R 5 0 R 5 -1 R 5 0 R 5 -1 R 5 0 R 5 -1 R 6 0 R
5 -1 R 5 0 R 5 -1 R 5 -1 R 5 0 R 5 -1 R 5 0 R 5 -1 R 5 0 R 5 -1 R 5 0 R
5 -1 R 5 0 R 6 -1 R 5 0 R 5 -1 R 5 0 R 5 -1 R 5 -1 R 5 0 R 5 -1 R 5 0 R
5 -1 R 5 -1 R 5 0 R 5 -1 R 6 0 R 5 -1 R 5 0 R 5 -1 R 5 -1 R 5 0 R 5 -1 R
5 0 R 5 -1 R 5 0 R 5 -1 R 5 -1 R 5 0 R 6 -1 R 5 0 R 5 -1 R 5 0 R 5 -1 R
5 -1 R 5 0 R 5 -1 R 5 -1 R 5 0 R 5 -1 R 5 0 R 5 -1 R 6 -1 R 5 0 R 5 -1 R
5 0 R 5 -1 R 5 -1 R 5 0 R 5 -1 R 5 -1 R 5 0 R 5 -1 R 5 0 R 5 -1 R 6 -1 R
5 0 R 5 -1 R 5 -1 R 5 0 R 5 -1 R 5 -1 R 5 0 R 5 -1 R 5 -1 R 5 0 R 5 -1 R
5 -1 R 5 0 R 6 -1 R 5 -1 R 5 0 R 5 -1 R 5 0 R 5 -1 R 5 -1 R 5 -1 R 5 0 R
5 -1 R 5 -1 R 5 0 R 5 -1 R 6 -1 R 5 0 R 5 -1 R 5 -1 R 5 -1 R 5 0 R 5 -1 R
5 -1 R 5 -1 R 5 0 R 5 -1 R 5 -1 R 5 -1 R 6 0 R 5 -1 R 5 -1 R 5 -1 R 5 0 R
5 -1 R 5 -1 R 5 -1 R 5 0 R 5 -1 R 5 -1 R 5 -1 R 5 -1 R 6 0 R 5 -1 R 5 -1 R
5 -1 R 5 0 R 5 -1 R 5 -1 R 5 -1 R 5 0 R 5 -1 R 5 -1 R 5 -1 R 5 -1 R 6 0 R
5 -1 R 5 -1 R 5 -1 R 5 -1 R 5 0 R 5 -1 R 5 -1 R 5 -1 R 5 -1 R 5 0 R 5 -1 R
5 -1 R 5 -1 R 6 -1 R 5 -1 R 5 0 R 5 -1 R 5 -1 R 5 -1 R 5 -1 R 5 -1 R 5 -1 R
5 -1 R 5 -1 R 5 -1 R 5 -1 R 6 0 R 5 -1 R 5 -1 R 5 -1 R 5 -1 R 5 -1 R 5 -1 R
5 -1 R 5 -1 R 5 -1 R 5 -1 R 5 -1 R 5 -1 R 6 -1 R 5 -1 R 5 -1 R 5 -1 R 5 -1 R
5 0 R 5 -1 R 5 -1 R 5 -1 R 5 -1 R 5 -1 R 5 -1 R 5 -1 R 6 -1 R 5 -1 R 5 -1 R
5 -1 R 5 -1 R 5 -1 R 5 -1 R 5 -1 R 5 -1 R 5 -1 R 5 -2 R 5 -1 R 5 -1 R 6 -1 R
5 -1 R 5 -1 R 5 -1 R 5 -1 R 5 -1 R 5 -1 R 5 -1 R 5 -1 R 5 -1 R 5 -1 R 5 -2 R
5 -1 R 6 -1 R 5 -1 R 5 -1 R 5 -2 R 5 -1 R 5 -1 R 5 -1 R 5 -1 R 5 -1 R 5 -2 R
5 -1 R 5 -1 R 5 -1 R 5 -1 R 6 -2 R 5 -1 R 5 -1 R 5 -1 R 5 -2 R 5 -1 R 5 -1 R
5 -1 R 5 -2 R 5 -1 R 5 -1 R 5 -1 R 5 -2 R 6 -1 R 5 -1 R 5 -2 R 5 -1 R 5 -2 R
5 -1 R 5 -1 R 5 -2 R 5 -1 R 5 -2 R 5 -1 R 5 -1 R 5 -2 R 6 -1 R 5 -2 R 5 -1 R
5 -2 R 5 -1 R 5 -2 R 5 -1 R 5 -2 R 5 -1 R 5 -1 R 5 -2 R 5 -2 R 5 -1 R 6 -1 R
5 -2 R 5 -2 R 5 -2 R 5 -1 R 5 -2 R 5 -1 R 5 -2 R 5 -2 R 5 -1 R 5 -2 R 5 -2 R
5 -2 R 6 -2 R 5 -1 R 5 -2 R 5 -2 R 5 -2 R 5 -1 R 5 -2 R 5 -2 R 5 -2 R 5 -2 R
5 -1 R 5 -2 R 5 -2 R 5 -2 R 6 -2 R 5 -2 R 5 -2 R 5 -2 R 5 -2 R 5 -3 R 5 -2 R
5 -2 R 5 -2 R 5 -2 R 5 -3 R 5 -1 R 5 -2 R 6 -3 R 5 -2 R 5 -2 R 5 -2 R 5 -2 R
5 -3 R 5 -2 R 5 -3 R 5 -2 R 5 -2 R 5 -3 R 5 -2 R 5 -2 R 6 -2 R 5 -2 R 5 -2 R
5 -3 R 5 -2 R 5 -3 R 5 -2 R 5 -3 R 5 -2 R 5 -3 R 5 -3 R 5 -2 R 5 -3 R 6 -2 R
5 -3 R 5 -2 R 5 -3 R 5 -2 R 5 -3 R 5 -3 R 5 -3 R 5 -3 R 5 -3 R 5 -2 R 5 -3 R
5 -2 R 6 -3 R 5 -3 R 5 -3 R 5 -3 R 5 -3 R 5 -2 R 5 -3 R 5 -3 R 5 -2 R 5 -3 R
5 -3 R 5 -2 R 5 -4 R 5 -3 R 6 -3 R 5 -3 R 5 -4 R 5 -3 R 5 -3 R 5 -3 R 5 -3 R
5 -3 R 5 -4 R 5 -3 R 5 -3 R 5 -4 R 5 -4 R 6 -3 R 5 -4 R 5 -4 R 5 -3 R 5 -3 R
5 -3 R 5 -3 R 5 -3 R 5 -4 R 5 -3 R 5 -4 R 5 -4 R 5 -3 R 6 -4 R 5 -5 R 5 -4 R
5 -4 R 5 -4 R 5 -4 R 5 -4 R 5 -3 R 5 -4 R 5 -4 R 5 -5 R 5 -4 R 5 -4 R 6 -5 R
5 -5 R 5 -3 R 5 -4 R 5 -4 R 5 -5 R 5 -4 R 5 -4 R 5 -5 R 5 -5 R 5 -5 R 5 -5 R
5 -5 R 6 -4 R 5 -5 R 5 -5 R 5 -5 R 5 -5 R 5 -5 R 5 -5 R 5 -5 R 5 -6 R 5 -4 R
5 -5 R 5 -6 R 5 -6 R 5 -5 R 6 -6 R 5 -5 R 5 -6 R 5 -6 R 5 -6 R 5 -6 R 5 -6 R
5 -6 R 5 -5 R 5 -6 R 5 -6 R 5 -6 R 5 -7 R 6 -6 R 5 -7 R 5 -7 R 5 -8 R 5 -8 R
5 -7 R 5 -7 R 5 -7 R 5 -8 R 5 -8 R 5 -8 R 5 -7 R 5 -8 R 6 -8 R 5 -9 R 5 -9 R
5 -8 R 5 -9 R 5 -9 R 5 -9 R 5 -10 R 5 -9 R 5 -11 R 5 -10 R 5 -11 R 5 -11 R
6 -10 R 5 -11 R 5 -10 R 5 -12 R 5 -11 R 5 -13 R 5 -14 R 5 -12 R 5 -14 R
5 -13 R 5 -17 R 5 -15 R 5 -15 R 6 -15 R 5 -17 R 5 -16 R 5 -19 R 5 -16 R
5 -20 R 5 -18 R 5 -19 R 5 -20 R 5 -20 R 5 -20 R 5 -24 R 5 -22 R 6 -24 R
5 -25 R 5 -24 R 5 -26 R 5 -28 R 5 -31 R 5 -32 R 5 -35 R 5 -37 R 5 -38 R
5 -45 R 5 -47 R 5 -51 R 5 -54 R 6 -58 R 5 -70 R 5 -71 R D
%%PageTrailer
end
%%PageResources: font Helvetica
%%Trailer
%%Pages: 1
%%DocumentNeededResources: font Helvetica
%%EOF
