%!PS-Adobe-3.0 EPSF-3.0
%%For: fanzhou
%%Title: PGPLOT PostScript plot
%%Creator: PGPLOT
%%CreationDate:  8-Nov-2007 16:03
%%BoundingBox: (atend)
%%DocumentFonts: (atend)
%%LanguageLevel: 1
%%Orientation: Landscape
%%Pages: (atend)
%%EndComments
%%BeginProlog
/L {moveto rlineto currentpoint stroke moveto} bind def
/C {rlineto currentpoint stroke moveto} bind def
/D {moveto 0 0 rlineto currentpoint stroke moveto} bind def
/SLW {5 mul setlinewidth} bind def
/SCF /pop load def
/BP {newpath moveto} bind def
/LP /rlineto load def
/EP {rlineto closepath eofill} bind def
/MB {gsave translate MFAC dup scale 1 setlinewidth 2 setlinecap 0 setlinejoin newpath} bind def
/ME /grestore load def
/CC {0 360 arc stroke} bind def
/FC {0 360 arc fill} bind def
%%EndProlog
 
%%Page: 1 1
%%BeginPageSetup
/PGPLOT save def
0.072 0.072 scale
5950 250 translate 90 rotate
1 setlinejoin 1 setlinecap 1 SLW 1 SCF
%%EndPageSetup
%%PageBoundingBox: (atend)
0.000 setgray 2 SLW 3200 0 800 1120 L 0 3360 C -3200 0 C 0 -3360 C 0 42 C 0 42 914 1120 L 0 42 1029 1120 L 0 42 1143 1120 L
0 84 1257 1120 L 0 42 1371 1120 L 0 42 1486 1120 L 0 42 1600 1120 L 0 42 1714 1120 L 0 84 1829 1120 L 0 42 1943 1120 L
0 42 2057 1120 L 0 42 2171 1120 L 0 42 2286 1120 L 0 84 2400 1120 L 0 42 2514 1120 L 0 42 2629 1120 L 0 42 2743 1120 L
0 42 2857 1120 L 0 84 2971 1120 L 0 42 3086 1120 L 0 42 3200 1120 L 0 42 3314 1120 L 0 42 3429 1120 L 0 84 3543 1120 L
0 42 3657 1120 L 0 42 3771 1120 L 0 42 3886 1120 L 0 42 4000 1120 L 0 42 800 4438 L 0 42 914 4438 L 0 42 1029 4438 L
0 42 1143 4438 L 0 84 1257 4396 L 0 42 1371 4438 L 0 42 1486 4438 L 0 42 1600 4438 L 0 42 1714 4438 L 0 84 1829 4396 L
0 42 1943 4438 L 0 42 2057 4438 L 0 42 2171 4438 L 0 42 2286 4438 L 0 84 2400 4396 L 0 42 2514 4438 L 0 42 2629 4438 L
0 42 2743 4438 L 0 42 2857 4438 L 0 84 2971 4396 L 0 42 3086 4438 L 0 42 3200 4438 L 0 42 3314 4438 L 0 42 3429 4438 L
0 84 3543 4396 L 0 42 3657 4438 L 0 42 3771 4438 L 0 42 3886 4438 L 0 42 4000 4438 L 101 0 1039 952 L 11 5 1196 997 L 17 17 C
0 -117 C 0 -112 1218 1014 L 50 0 1196 902 L -16 -5 1324 1019 L -12 -17 C -5 -28 C 0 -17 C 5 -28 C 12 -17 C 16 -5 C 12 0 C 16 5 C
12 17 C 5 28 C 0 17 C -5 28 C -12 17 C -16 5 C -12 0 C -11 -5 C -5 -6 C -6 -11 C -6 -28 C 0 -17 C 6 -28 C 6 -11 C 5 -6 C 11 -5 C
11 5 1336 902 L 5 6 C 6 11 C 6 28 C 0 17 C -6 28 C -6 11 C -5 6 C -11 5 C -16 -5 1436 1019 L -12 -17 C -5 -28 C 0 -17 C 5 -28 C
12 -17 C 16 -5 C 12 0 C 16 5 C 12 17 C 5 28 C 0 17 C -5 28 C -12 17 C -16 5 C -12 0 C -11 -5 C -5 -6 C -6 -11 C -6 -28 C 0 -17 C
6 -28 C 6 -11 C 5 -6 C 11 -5 C 11 5 1448 902 L 5 6 C 6 11 C 6 28 C 0 17 C -6 28 C -6 11 C -5 6 C -11 5 C 101 0 1666 952 L
-11 -56 1817 1019 L 11 11 C 17 6 C 17 0 C 17 -6 C 11 -11 C 6 -17 C 0 -11 C -6 -17 C -11 -11 C -17 -5 C -17 0 C -17 5 C -5 6 C
-6 11 C 0 6 C 6 5 C 5 -5 C -5 -6 C 11 -6 1851 980 L 11 -11 C 6 -17 C 0 -11 C -6 -17 C -11 -11 C -11 -5 C 56 0 1817 1019 L
28 0 1817 1014 L 28 5 C -17 -5 1952 1019 L -11 -17 C -6 -28 C 0 -17 C 6 -28 C 11 -17 C 17 -5 C 11 0 C 17 5 C 11 17 C 6 28 C 0 17 C
-6 28 C -11 17 C -17 5 C -11 0 C -11 -5 C -6 -6 C -6 -11 C -5 -28 C 0 -17 C 5 -28 C 6 -11 C 6 -6 C 11 -5 C 11 5 1963 902 L 6 6 C
5 11 C 6 28 C 0 17 C -6 28 C -5 11 C -6 6 C -11 5 C -16 -5 2394 1019 L -12 -17 C -5 -28 C 0 -17 C 5 -28 C 12 -17 C 16 -5 C 12 0 C
16 5 C 12 17 C 5 28 C 0 17 C -5 28 C -12 17 C -16 5 C -12 0 C -11 -5 C -5 -6 C -6 -11 C -6 -28 C 0 -17 C 6 -28 C 6 -11 C 5 -6 C
11 -5 C 11 5 2406 902 L 5 6 C 6 11 C 6 28 C 0 17 C -6 28 C -6 11 C -5 6 C -11 5 C -11 -56 2887 1019 L 11 11 C 17 6 C 17 0 C 17 -6 C
11 -11 C 6 -17 C 0 -11 C -6 -17 C -11 -11 C -17 -5 C -17 0 C -17 5 C -5 6 C -6 11 C 0 6 C 6 5 C 5 -5 C -5 -6 C 11 -6 2921 980 L
11 -11 C 6 -17 C 0 -11 C -6 -17 C -11 -11 C -11 -5 C 56 0 2887 1019 L 28 0 2887 1014 L 28 5 C -17 -5 3022 1019 L -11 -17 C -6 -28 C
0 -17 C 6 -28 C 11 -17 C 17 -5 C 11 0 C 17 5 C 11 17 C 6 28 C 0 17 C -6 28 C -11 17 C -17 5 C -11 0 C -11 -5 C -6 -6 C -6 -11 C
-5 -28 C 0 -17 C 5 -28 C 6 -11 C 6 -6 C 11 -5 C 11 5 3033 902 L 6 6 C 5 11 C 6 28 C 0 17 C -6 28 C -5 11 C -6 6 C -11 5 C
12 5 3408 997 L 16 17 C 0 -117 C 0 -112 3431 1014 L 51 0 3408 902 L -17 -5 3537 1019 L -11 -17 C -5 -28 C 0 -17 C 5 -28 C 11 -17 C
17 -5 C 11 0 C 17 5 C 11 17 C 6 28 C 0 17 C -6 28 C -11 17 C -17 5 C -11 0 C -11 -5 C -6 -6 C -5 -11 C -6 -28 C 0 -17 C 6 -28 C
5 -11 C 6 -6 C 11 -5 C 12 5 3548 902 L 5 6 C 6 11 C 5 28 C 0 17 C -5 28 C -6 11 C -5 6 C -12 5 C -17 -5 3649 1019 L -11 -17 C
-5 -28 C 0 -17 C 5 -28 C 11 -17 C 17 -5 C 11 0 C 17 5 C 11 17 C 6 28 C 0 17 C -6 28 C -11 17 C -17 5 C -11 0 C -11 -5 C -6 -6 C
-5 -11 C -6 -28 C 0 -17 C 6 -28 C 5 -11 C 6 -6 C 11 -5 C 12 5 3660 902 L 5 6 C 6 11 C 5 28 C 0 17 C -5 28 C -6 11 C -5 6 C -12 5 C
42 0 800 1120 L 42 0 800 1249 L 42 0 800 1378 L 84 0 800 1508 L 42 0 800 1637 L 42 0 800 1766 L 42 0 800 1895 L 42 0 800 2025 L
84 0 800 2154 L 42 0 800 2283 L 42 0 800 2412 L 42 0 800 2542 L 42 0 800 2671 L 84 0 800 2800 L 42 0 800 2929 L 42 0 800 3058 L
42 0 800 3188 L 42 0 800 3317 L 84 0 800 3446 L 42 0 800 3575 L 42 0 800 3705 L 42 0 800 3834 L 42 0 800 3963 L 84 0 800 4092 L
42 0 800 4222 L 42 0 800 4351 L 42 0 800 4480 L 42 0 3958 1120 L 42 0 3958 1249 L 42 0 3958 1378 L 84 0 3916 1508 L 42 0 3958 1637 L
42 0 3958 1766 L 42 0 3958 1895 L 42 0 3958 2025 L 84 0 3916 2154 L 42 0 3958 2283 L 42 0 3958 2412 L 42 0 3958 2542 L
42 0 3958 2671 L 84 0 3916 2800 L 42 0 3958 2929 L 42 0 3958 3058 L 42 0 3958 3188 L 42 0 3958 3317 L 84 0 3916 3446 L
42 0 3958 3575 L 42 0 3958 3705 L 42 0 3958 3834 L 42 0 3958 3963 L 84 0 3916 4092 L 42 0 3958 4222 L 42 0 3958 4351 L
42 0 3958 4480 L 101 0 213 1503 L 11 6 370 1548 L 17 17 C 0 -118 C 0 -112 393 1565 L 51 0 370 1453 L -17 -6 499 1571 L -11 -17 C
-6 -28 C 0 -17 C 6 -28 C 11 -16 C 17 -6 C 11 0 C 17 6 C 11 16 C 6 28 C 0 17 C -6 28 C -11 17 C -17 6 C -11 0 C -11 -6 C -6 -6 C
-5 -11 C -6 -28 C 0 -17 C 6 -28 C 5 -11 C 6 -5 C 11 -6 C 11 6 510 1453 L 6 5 C 6 11 C 5 28 C 0 17 C -5 28 C -6 11 C -6 6 C -11 6 C
-17 -6 611 1571 L -11 -17 C -6 -28 C 0 -17 C 6 -28 C 11 -16 C 17 -6 C 11 0 C 17 6 C 11 16 C 6 28 C 0 17 C -6 28 C -11 17 C -17 6 C
-11 0 C -11 -6 C -6 -6 C -5 -11 C -6 -28 C 0 -17 C 6 -28 C 5 -11 C 6 -5 C 11 -6 C 11 6 622 1453 L 6 5 C 6 11 C 5 28 C 0 17 C -5 28 C
-6 11 C -6 6 C -11 6 C 101 0 325 2150 L -12 -56 477 2217 L 12 11 C 16 6 C 17 0 C 17 -6 C 11 -11 C 6 -17 C 0 -11 C -6 -17 C -11 -11 C
-17 -6 C -17 0 C -16 6 C -6 5 C -6 12 C 0 5 C 6 6 C 6 -6 C -6 -5 C 11 -6 510 2178 L 12 -11 C 5 -17 C 0 -11 C -5 -17 C -12 -11 C
-11 -6 C 56 0 477 2217 L 28 0 477 2211 L 28 6 C -17 -6 611 2217 L -11 -17 C -6 -28 C 0 -16 C 6 -28 C 11 -17 C 17 -6 C 11 0 C 17 6 C
11 17 C 6 28 C 0 16 C -6 28 C -11 17 C -17 6 C -11 0 C -11 -6 C -6 -5 C -5 -12 C -6 -28 C 0 -16 C 6 -28 C 5 -12 C 6 -5 C 11 -6 C
11 6 622 2099 L 6 5 C 6 12 C 5 28 C 0 16 C -5 28 C -6 12 C -6 5 C -11 6 C -17 -6 611 2863 L -11 -16 C -6 -28 C 0 -17 C 6 -28 C
11 -17 C 17 -6 C 11 0 C 17 6 C 11 17 C 6 28 C 0 17 C -6 28 C -11 16 C -17 6 C -11 0 C -11 -6 C -6 -5 C -5 -11 C -6 -28 C 0 -17 C
6 -28 C 5 -11 C 6 -6 C 11 -6 C 11 6 622 2745 L 6 6 C 6 11 C 5 28 C 0 17 C -5 28 C -6 11 C -6 5 C -11 6 C -12 -56 477 3509 L 12 11 C
16 6 C 17 0 C 17 -6 C 11 -11 C 6 -17 C 0 -11 C -6 -17 C -11 -11 C -17 -5 C -17 0 C -16 5 C -6 6 C -6 11 C 0 6 C 6 5 C 6 -5 C -6 -6 C
11 -6 510 3470 L 12 -11 C 5 -17 C 0 -11 C -5 -17 C -12 -11 C -11 -5 C 56 0 477 3509 L 28 0 477 3504 L 28 5 C -17 -5 611 3509 L
-11 -17 C -6 -28 C 0 -17 C 6 -28 C 11 -17 C 17 -5 C 11 0 C 17 5 C 11 17 C 6 28 C 0 17 C -6 28 C -11 17 C -17 5 C -11 0 C -11 -5 C
-6 -6 C -5 -11 C -6 -28 C 0 -17 C 6 -28 C 5 -11 C 6 -6 C 11 -5 C 11 5 622 3392 L 6 6 C 6 11 C 5 28 C 0 17 C -5 28 C -6 11 C -6 6 C
-11 5 C 11 6 370 4133 L 17 16 C 0 -117 C 0 -112 393 4150 L 51 0 370 4038 L -17 -5 499 4155 L -11 -17 C -6 -28 C 0 -17 C 6 -28 C
11 -17 C 17 -5 C 11 0 C 17 5 C 11 17 C 6 28 C 0 17 C -6 28 C -11 17 C -17 5 C -11 0 C -11 -5 C -6 -6 C -5 -11 C -6 -28 C 0 -17 C
6 -28 C 5 -11 C 6 -6 C 11 -5 C 11 5 510 4038 L 6 6 C 6 11 C 5 28 C 0 17 C -5 28 C -6 11 C -6 6 C -11 5 C -17 -5 611 4155 L -11 -17 C
-6 -28 C 0 -17 C 6 -28 C 11 -17 C 17 -5 C 11 0 C 17 5 C 11 17 C 6 28 C 0 17 C -6 28 C -11 17 C -17 5 C -11 0 C -11 -5 C -6 -6 C
-5 -11 C -6 -28 C 0 -17 C 6 -28 C 5 -11 C 6 -6 C 11 -5 C 11 5 622 4038 L 6 6 C 6 11 C 5 28 C 0 17 C -5 28 C -6 11 C -6 6 C -11 5 C
73 -117 1896 655 L 72 -117 1902 655 L -78 -117 1974 655 L 33 0 1885 655 L 34 0 1952 655 L 33 0 1885 538 L 34 0 1952 538 L
-11 -12 2142 678 L -11 -16 C -11 -23 C -6 -28 C 0 -22 C 6 -28 C 11 -23 C 11 -16 C 11 -12 C -11 -22 2131 666 L -6 -17 C -5 -28 C
0 -22 C 5 -28 C 6 -17 C 11 -22 C 0 -6 2187 605 L -5 0 C 0 6 C 5 5 C 11 6 C 23 0 C 11 -6 C 6 -5 C 5 -11 C 0 -40 C 6 -11 C 5 -5 C
0 -51 2238 605 L 5 -11 C 11 -5 C 6 0 C -6 -6 2238 594 L -34 -6 C -16 -5 C -6 -11 C 0 -12 C 6 -11 C 16 -5 C 17 0 C 11 5 C 12 11 C
-11 -5 2198 582 L -5 -11 C 0 -12 C 5 -11 C 11 -5 C 0 -78 2299 616 L 0 -78 2305 616 L 5 17 2305 582 L 12 11 C 11 6 C 17 0 C 5 -6 C
0 -5 C -5 -6 C -6 6 C 6 5 C 23 0 2282 616 L 40 0 2282 538 L -5 -5 2450 599 L 5 -6 C 6 6 C 0 5 C -11 11 C -11 6 C -17 0 C -17 -6 C
-11 -11 C -6 -17 C 0 -11 C 6 -17 C 11 -11 C 17 -5 C 11 0 C 17 5 C 11 11 C -11 -6 2417 616 L -12 -11 C -5 -17 C 0 -11 C 5 -17 C
12 -11 C 11 -5 C 0 -78 2501 616 L 0 -78 2506 616 L 12 11 2506 599 L 16 6 C 12 0 C 16 -6 C 6 -11 C 0 -61 C 11 -6 2546 616 L 5 -11 C
0 -61 C 11 11 2568 599 L 17 6 C 11 0 C 17 -6 C 6 -11 C 0 -61 C 11 -6 2607 616 L 6 -11 C 0 -61 C 22 0 2484 616 L 39 0 2484 538 L
39 0 2546 538 L 39 0 2607 538 L -6 -5 2686 655 L 6 -6 C 5 6 C -5 5 C 0 -78 2686 616 L 0 -78 2691 616 L 22 0 2669 616 L
39 0 2669 538 L 0 -78 2747 616 L 0 -78 2753 616 L 11 11 2753 599 L 17 6 C 11 0 C 17 -6 C 5 -11 C 0 -61 C 11 -6 2792 616 L 6 -11 C
0 -61 C 23 0 2730 616 L 40 0 2730 538 L 39 0 2792 538 L 11 -12 2859 678 L 12 -16 C 11 -23 C 5 -28 C 0 -22 C -5 -28 C -11 -23 C
-12 -16 C -11 -12 C 12 -22 2870 666 L 5 -17 C 6 -28 C 0 -22 C -6 -28 C -5 -17 C -12 -22 C 62 39 282 2293 L 56 0 C 62 39 282 2299 L
56 0 C 62 -39 282 2377 L 0 34 282 2282 L 0 33 282 2355 L 0 39 400 2316 L 11 -11 260 2545 L 17 -11 C 22 -11 C 28 -6 C 22 0 C 28 6 C
23 11 C 17 11 C 11 11 C 22 -11 271 2534 L 17 -6 C 28 -5 C 22 0 C 28 5 C 17 6 C 23 11 C 6 0 332 2590 L 0 -6 C -6 0 C -5 6 C -6 11 C
0 23 C 6 11 C 5 5 C 12 6 C 39 0 C 11 6 C 6 5 C 51 0 332 2640 L 11 6 C 6 11 C 0 6 C 5 -5 344 2640 L 6 -34 C 5 -17 C 12 -5 C 11 0 C
11 5 C 6 17 C 0 17 C -6 11 C -11 11 C 5 -11 355 2601 L 12 -6 C 11 0 C 11 6 C 6 11 C 79 0 321 2702 L 79 0 321 2708 L -17 5 355 2708 L
-11 11 C -6 12 C 0 16 C 6 6 C 5 0 C 6 -6 C -6 -5 C -5 5 C 0 23 321 2685 L 0 39 400 2685 L 6 -5 338 2853 L 5 5 C -5 6 C -6 0 C
-11 -11 C -6 -12 C 0 -16 C 6 -17 C 11 -11 C 17 -6 C 11 0 C 17 6 C 11 11 C 6 17 C 0 11 C -6 17 C -11 11 C 6 -12 321 2820 L 11 -11 C
17 -5 C 11 0 C 17 5 C 11 11 C 6 12 C 79 0 321 2904 L 79 0 321 2909 L -11 11 338 2909 L -6 17 C 0 11 C 6 17 C 11 6 C 62 0 C
6 12 321 2948 L 11 5 C 62 0 C -11 11 338 2971 L -6 17 C 0 11 C 6 17 C 11 5 C 62 0 C 6 11 321 3010 L 11 6 C 62 0 C 0 22 321 2887 L
0 39 400 2887 L 0 40 400 2948 L 0 39 400 3010 L 6 -5 282 3088 L 5 5 C -5 6 C -6 -6 C 79 0 321 3088 L 79 0 321 3094 L 0 22 321 3072 L
0 39 400 3072 L 79 0 321 3150 L 79 0 321 3156 L -11 11 338 3156 L -6 17 C 0 11 C 6 17 C 11 5 C 62 0 C 6 11 321 3195 L 11 6 C 62 0 C
0 23 321 3133 L 0 39 400 3133 L 0 39 400 3195 L 11 11 260 3262 L 17 11 C 22 12 C 28 5 C 22 0 C 28 -5 C 23 -12 C 17 -11 C 11 -11 C
22 11 271 3273 L 17 6 C 28 6 C 22 0 C 28 -6 C 17 -6 C 23 -11 C
0 -78 1742 4300 L 0 -78 1748 4300 L 11 11 1748 4283 L 17 6 C 11 0 C 17 -6 C 5 -11 C 0 -61 C 11 -6 1787 4300 L 6 -11 C 0 -61 C
12 11 1809 4283 L 16 6 C 12 0 C 16 -6 C 6 -11 C 0 -61 C 11 -6 1849 4300 L 5 -11 C 0 -61 C 23 0 1725 4300 L 40 0 1725 4222 L
39 0 1787 4222 L 39 0 1849 4222 L 68 0 1921 4266 L 0 12 C -6 11 C -6 5 C -11 6 C -17 0 C -16 -6 C -12 -11 C -5 -17 C 0 -11 C 5 -17 C
12 -11 C 16 -5 C 12 0 C 16 5 C 12 11 C 0 17 1983 4266 L -6 11 C -11 -6 1949 4300 L -11 -11 C -6 -17 C 0 -11 C 6 -17 C 11 -11 C
11 -5 C 0 -95 2033 4339 L 6 -17 C 11 -5 C 11 0 C 12 5 C 5 11 C 0 -95 2039 4339 L 6 -17 C 5 -5 C 44 0 2017 4300 L 0 -6 2117 4289 L
-5 0 C 0 6 C 5 5 C 12 6 C 22 0 C 11 -6 C 6 -5 C 5 -11 C 0 -40 C 6 -11 C 6 -5 C 0 -51 2168 4289 L 5 -11 C 12 -5 C 5 0 C
-6 -6 2168 4278 L -33 -6 C -17 -5 C -6 -11 C 0 -12 C 6 -11 C 17 -5 C 16 0 C 12 5 C 11 11 C -12 -5 2129 4266 L -5 -11 C 0 -12 C
5 -11 C 12 -5 C 0 -117 2229 4339 L 0 -117 2235 4339 L 22 0 2213 4339 L 39 0 2213 4222 L 101 0 2285 4272 L 0 -78 2437 4300 L
0 -78 2442 4300 L 6 17 2442 4266 L 11 11 C 11 6 C 17 0 C 6 -6 C 0 -5 C -6 -6 C -6 6 C 6 5 C 22 0 2420 4300 L 39 0 2420 4222 L
-6 -5 2532 4339 L 6 -6 C 5 6 C -5 5 C 0 -78 2532 4300 L 0 -78 2537 4300 L 22 0 2515 4300 L 39 0 2515 4222 L -5 -5 2649 4283 L 5 -6 C
6 6 C 0 5 C -11 11 C -11 6 C -17 0 C -17 -6 C -11 -11 C -6 -17 C 0 -11 C 6 -17 C 11 -11 C 17 -5 C 11 0 C 17 5 C 11 11 C
-11 -6 2616 4300 L -12 -11 C -5 -17 C 0 -11 C 5 -17 C 12 -11 C 11 -5 C 0 -117 2700 4339 L 0 -117 2705 4339 L 12 11 2705 4283 L
16 6 C 12 0 C 16 -6 C 6 -11 C 0 -61 C 11 -6 2745 4300 L 5 -11 C 0 -61 C 22 0 2683 4339 L 39 0 2683 4222 L 39 0 2745 4222 L
/M16 {MB -4 -4 moveto 0 8 rlineto 8 0 rlineto 0 -8                              
rlineto closepath fill ME} bind def                                             
/MFAC      5.600 def    
1856 3866 M16
1938 3831 M16
2299 3927 M16
2013 3633 M16
2026 3616 M16
2547 3912 M16
2165 3560 M16
1829 3252 M16
1272 2713 M16
1845 3177 M16
1820 3127 M16
1296 2640 M16
1440 2692 M16
2230 3275 M16
2674 3535 M16
1869 2765 M16
2196 3045 M16
2204 3014 M16
1535 2423 M16
2465 3217 M16
1538 2364 M16
1649 2420 M16
2213 2903 M16
2303 2970 M16
1780 2437 M16
2523 3084 M16
2544 3062 M16
2374 2876 M16
2477 2967 M16
2389 2873 M16
2323 2783 M16
2308 2766 M16
2779 3176 M16
2523 2942 M16
2371 2789 M16
2360 2754 M16
2468 2789 M16
3053 3300 M16
2324 2643 M16
2513 2801 M16
1978 2319 M16
2702 2950 M16
2503 2763 M16
2367 2628 M16
2581 2811 M16
3016 3194 M16
2650 2842 M16
2889 3010 M16
3019 2983 M16
2808 2723 M16
2362 2317 M16
3189 3019 M16
3073 2897 M16
2306 2110 M16
2319 2122 M16
2019 1817 M16
2863 2533 M16
2033 1747 M16
2865 2485 M16
3018 2622 M16
3013 2610 M16
2496 2111 M16
3302 2835 M16
2691 2260 M16
3303 2779 M16
3121 2582 M16
2583 2086 M16
2345 1857 M16
2578 2067 M16
3108 2468 M16
1890 1321 M16
3312 2587 M16
3053 2327 M16
3056 2323 M16
2005 1281 M16
2839 1936 M16
3329 2325 M16
2770 1799 M16
2648 1652 M16
2827 1785 M16
2849 1789 M16
3002 1890 M16
2485 3208 M16
2242 2978 M16
2546 3212 M16
2395 3015 M16
2354 2949 M16
2460 2986 M16
2189 2741 M16
2199 2737 M16
2404 2859 M16
2228 2701 M16
2397 2842 M16
2347 2795 M16
2399 2833 M16
2368 2802 M16
2417 2795 M16
2448 2796 M16
2417 2758 M16
2482 2794 M16
2453 2767 M16
2423 2739 M16
2436 2745 M16
2548 2828 M16
2343 2587 M16
2435 2619 M16
2771 2795 M16
2754 3465 M16
2669 3164 M16
1851 2225 M16
2899 2698 M16
2358 2158 M16
2708 2433 M16
2161 1908 M16
2742 2229 M16
3094 2207 M16
3217 2157 M16
2416 2853 M16
2414 2857 M16
2419 2838 M16
2398 2816 M16
2360 2804 M16
2427 2821 M16
2387 2788 M16
2366 2784 M16
1395 2737 M16
1649 2854 M16
1562 2765 M16
1737 2886 M16
1737 2856 M16
1953 2962 M16
2009 2991 M16
1647 2677 M16
2266 3132 M16
2320 3153 M16
2224 3056 M16
2318 3114 M16
1897 2738 M16
2096 2901 M16
2298 3075 M16
2211 2989 M16
2277 3036 M16
2166 2918 M16
1910 2664 M16
2359 3039 M16
2143 2841 M16
2116 2814 M16
2098 2769 M16
2022 2699 M16
2508 3114 M16
2297 2923 M16
2354 2964 M16
1995 2646 M16
2238 2851 M16
2483 3061 M16
2298 2891 M16
2406 2983 M16
2384 2961 M16
2187 2787 M16
2293 2872 M16
2163 2755 M16
2463 2991 M16
2411 2923 M16
2391 2901 M16
2257 2779 M16
2228 2736 M16
2422 2885 M16
2204 2687 M16
2511 2939 M16
2333 2778 M16
2271 2720 M16
2537 2951 M16
2402 2827 M16
2387 2788 M16
2391 2769 M16
2353 2714 M16
2420 2770 M16
2443 2778 M16
2360 2672 M16
2309 2625 M16
2412 2706 M16
2430 2713 M16
2223 2522 M16
2450 2716 M16
2481 2727 M16
2457 2687 M16
2654 2861 M16
2639 2830 M16
2668 2849 M16
2612 2787 M16
2628 2800 M16
2606 2779 M16
2642 2794 M16
2548 2709 M16
2410 2576 M16
2563 2711 M16
2635 2764 M16
2597 2729 M16
2583 2696 M16
2346 2471 M16
2517 2591 M16
2702 2751 M16
2589 2642 M16
2593 2605 M16
2680 2672 M16
2582 2556 M16
2696 2651 M16
2631 2540 M16
3302 2866 M16
2897 2461 M16
3482 2662 M16
2169 2813 M16
2180 2919 M16
2459 3278 M16
2550 2880 M16
2343 2810 M16
2582 2767 M16
2402 2858 M16
2775 2775 M16
3200 0 4000 1120 L 0 3360 C -3200 0 C 0 -3360 C 0 42 C 0 42 4114 1120 L 0 42 4229 1120 L 0 42 4343 1120 L 0 84 4457 1120 L
0 42 4571 1120 L 0 42 4686 1120 L 0 42 4800 1120 L 0 42 4914 1120 L 0 84 5029 1120 L 0 42 5143 1120 L 0 42 5257 1120 L
0 42 5371 1120 L 0 42 5486 1120 L 0 84 5600 1120 L 0 42 5714 1120 L 0 42 5829 1120 L 0 42 5943 1120 L 0 42 6057 1120 L
0 84 6171 1120 L 0 42 6286 1120 L 0 42 6400 1120 L 0 42 6514 1120 L 0 42 6629 1120 L 0 84 6743 1120 L 0 42 6857 1120 L
0 42 6971 1120 L 0 42 7086 1120 L 0 42 7200 1120 L 0 42 4000 4438 L 0 42 4114 4438 L 0 42 4229 4438 L 0 42 4343 4438 L
0 84 4457 4396 L 0 42 4571 4438 L 0 42 4686 4438 L 0 42 4800 4438 L 0 42 4914 4438 L 0 84 5029 4396 L 0 42 5143 4438 L
0 42 5257 4438 L 0 42 5371 4438 L 0 42 5486 4438 L 0 84 5600 4396 L 0 42 5714 4438 L 0 42 5829 4438 L 0 42 5943 4438 L
0 42 6057 4438 L 0 84 6171 4396 L 0 42 6286 4438 L 0 42 6400 4438 L 0 42 6514 4438 L 0 42 6629 4438 L 0 84 6743 4396 L
0 42 6857 4438 L 0 42 6971 4438 L 0 42 7086 4438 L 0 42 7200 4438 L 101 0 4239 952 L 11 5 4396 997 L 17 17 C 0 -117 C
0 -112 4418 1014 L 50 0 4396 902 L -16 -5 4524 1019 L -12 -17 C -5 -28 C 0 -17 C 5 -28 C 12 -17 C 16 -5 C 12 0 C 16 5 C 12 17 C
5 28 C 0 17 C -5 28 C -12 17 C -16 5 C -12 0 C -11 -5 C -5 -6 C -6 -11 C -6 -28 C 0 -17 C 6 -28 C 6 -11 C 5 -6 C 11 -5 C
11 5 4536 902 L 5 6 C 6 11 C 6 28 C 0 17 C -6 28 C -6 11 C -5 6 C -11 5 C -16 -5 4636 1019 L -12 -17 C -5 -28 C 0 -17 C 5 -28 C
12 -17 C 16 -5 C 12 0 C 16 5 C 12 17 C 5 28 C 0 17 C -5 28 C -12 17 C -16 5 C -12 0 C -11 -5 C -5 -6 C -6 -11 C -6 -28 C 0 -17 C
6 -28 C 6 -11 C 5 -6 C 11 -5 C 11 5 4648 902 L 5 6 C 6 11 C 6 28 C 0 17 C -6 28 C -6 11 C -5 6 C -11 5 C 101 0 4866 952 L
-11 -56 5017 1019 L 11 11 C 17 6 C 17 0 C 17 -6 C 11 -11 C 6 -17 C 0 -11 C -6 -17 C -11 -11 C -17 -5 C -17 0 C -17 5 C -5 6 C
-6 11 C 0 6 C 6 5 C 5 -5 C -5 -6 C 11 -6 5051 980 L 11 -11 C 6 -17 C 0 -11 C -6 -17 C -11 -11 C -11 -5 C 56 0 5017 1019 L
28 0 5017 1014 L 28 5 C -17 -5 5152 1019 L -11 -17 C -6 -28 C 0 -17 C 6 -28 C 11 -17 C 17 -5 C 11 0 C 17 5 C 11 17 C 6 28 C 0 17 C
-6 28 C -11 17 C -17 5 C -11 0 C -11 -5 C -6 -6 C -6 -11 C -5 -28 C 0 -17 C 5 -28 C 6 -11 C 6 -6 C 11 -5 C 11 5 5163 902 L 6 6 C
5 11 C 6 28 C 0 17 C -6 28 C -5 11 C -6 6 C -11 5 C -16 -5 5594 1019 L -12 -17 C -5 -28 C 0 -17 C 5 -28 C 12 -17 C 16 -5 C 12 0 C
16 5 C 12 17 C 5 28 C 0 17 C -5 28 C -12 17 C -16 5 C -12 0 C -11 -5 C -5 -6 C -6 -11 C -6 -28 C 0 -17 C 6 -28 C 6 -11 C 5 -6 C
11 -5 C 11 5 5606 902 L 5 6 C 6 11 C 6 28 C 0 17 C -6 28 C -6 11 C -5 6 C -11 5 C -11 -56 6087 1019 L 11 11 C 17 6 C 17 0 C 17 -6 C
11 -11 C 6 -17 C 0 -11 C -6 -17 C -11 -11 C -17 -5 C -17 0 C -17 5 C -5 6 C -6 11 C 0 6 C 6 5 C 5 -5 C -5 -6 C 11 -6 6121 980 L
11 -11 C 6 -17 C 0 -11 C -6 -17 C -11 -11 C -11 -5 C 56 0 6087 1019 L 28 0 6087 1014 L 28 5 C -17 -5 6222 1019 L -11 -17 C -6 -28 C
0 -17 C 6 -28 C 11 -17 C 17 -5 C 11 0 C 17 5 C 11 17 C 6 28 C 0 17 C -6 28 C -11 17 C -17 5 C -11 0 C -11 -5 C -6 -6 C -6 -11 C
-5 -28 C 0 -17 C 5 -28 C 6 -11 C 6 -6 C 11 -5 C 11 5 6233 902 L 6 6 C 5 11 C 6 28 C 0 17 C -6 28 C -5 11 C -6 6 C -11 5 C
12 5 6608 997 L 16 17 C 0 -117 C 0 -112 6631 1014 L 51 0 6608 902 L -17 -5 6737 1019 L -11 -17 C -5 -28 C 0 -17 C 5 -28 C 11 -17 C
17 -5 C 11 0 C 17 5 C 11 17 C 6 28 C 0 17 C -6 28 C -11 17 C -17 5 C -11 0 C -11 -5 C -6 -6 C -5 -11 C -6 -28 C 0 -17 C 6 -28 C
5 -11 C 6 -6 C 11 -5 C 12 5 6748 902 L 5 6 C 6 11 C 5 28 C 0 17 C -5 28 C -6 11 C -5 6 C -12 5 C -17 -5 6849 1019 L -11 -17 C
-5 -28 C 0 -17 C 5 -28 C 11 -17 C 17 -5 C 11 0 C 17 5 C 11 17 C 6 28 C 0 17 C -6 28 C -11 17 C -17 5 C -11 0 C -11 -5 C -6 -6 C
-5 -11 C -6 -28 C 0 -17 C 6 -28 C 5 -11 C 6 -6 C 11 -5 C 12 5 6860 902 L 5 6 C 6 11 C 5 28 C 0 17 C -5 28 C -6 11 C -5 6 C -12 5 C
42 0 4000 1120 L 42 0 4000 1249 L 42 0 4000 1378 L 84 0 4000 1508 L 42 0 4000 1637 L 42 0 4000 1766 L 42 0 4000 1895 L
42 0 4000 2025 L 84 0 4000 2154 L 42 0 4000 2283 L 42 0 4000 2412 L 42 0 4000 2542 L 42 0 4000 2671 L 84 0 4000 2800 L
42 0 4000 2929 L 42 0 4000 3058 L 42 0 4000 3188 L 42 0 4000 3317 L 84 0 4000 3446 L 42 0 4000 3575 L 42 0 4000 3705 L
42 0 4000 3834 L 42 0 4000 3963 L 84 0 4000 4092 L 42 0 4000 4222 L 42 0 4000 4351 L 42 0 4000 4480 L 42 0 7158 1120 L
42 0 7158 1249 L 42 0 7158 1378 L 84 0 7116 1508 L 42 0 7158 1637 L 42 0 7158 1766 L 42 0 7158 1895 L 42 0 7158 2025 L
84 0 7116 2154 L 42 0 7158 2283 L 42 0 7158 2412 L 42 0 7158 2542 L 42 0 7158 2671 L 84 0 7116 2800 L 42 0 7158 2929 L
42 0 7158 3058 L 42 0 7158 3188 L 42 0 7158 3317 L 84 0 7116 3446 L 42 0 7158 3575 L 42 0 7158 3705 L 42 0 7158 3834 L
42 0 7158 3963 L 84 0 7116 4092 L 42 0 7158 4222 L 42 0 7158 4351 L 42 0 7158 4480 L
73 -117 5096 655 L 72 -117 5102 655 L -78 -117 5174 655 L 33 0 5085 655 L 34 0 5152 655 L 33 0 5085 538 L 34 0 5152 538 L
-11 -12 5342 678 L -11 -16 C -11 -23 C -6 -28 C 0 -22 C 6 -28 C 11 -23 C 11 -16 C 11 -12 C -11 -22 5331 666 L -6 -17 C -5 -28 C
0 -22 C 5 -28 C 6 -17 C 11 -22 C 0 -6 5387 605 L -5 0 C 0 6 C 5 5 C 11 6 C 23 0 C 11 -6 C 6 -5 C 5 -11 C 0 -40 C 6 -11 C 5 -5 C
0 -51 5438 605 L 5 -11 C 11 -5 C 6 0 C -6 -6 5438 594 L -34 -6 C -16 -5 C -6 -11 C 0 -12 C 6 -11 C 16 -5 C 17 0 C 11 5 C 12 11 C
-11 -5 5398 582 L -5 -11 C 0 -12 C 5 -11 C 11 -5 C 0 -78 5499 616 L 0 -78 5505 616 L 5 17 5505 582 L 12 11 C 11 6 C 17 0 C 5 -6 C
0 -5 C -5 -6 C -6 6 C 6 5 C 23 0 5482 616 L 40 0 5482 538 L -5 -5 5650 599 L 5 -6 C 6 6 C 0 5 C -11 11 C -11 6 C -17 0 C -17 -6 C
-11 -11 C -6 -17 C 0 -11 C 6 -17 C 11 -11 C 17 -5 C 11 0 C 17 5 C 11 11 C -11 -6 5617 616 L -12 -11 C -5 -17 C 0 -11 C 5 -17 C
12 -11 C 11 -5 C 0 -78 5701 616 L 0 -78 5706 616 L 12 11 5706 599 L 16 6 C 12 0 C 16 -6 C 6 -11 C 0 -61 C 11 -6 5746 616 L 5 -11 C
0 -61 C 11 11 5768 599 L 17 6 C 11 0 C 17 -6 C 6 -11 C 0 -61 C 11 -6 5807 616 L 6 -11 C 0 -61 C 22 0 5684 616 L 39 0 5684 538 L
39 0 5746 538 L 39 0 5807 538 L -6 -5 5886 655 L 6 -6 C 5 6 C -5 5 C 0 -78 5886 616 L 0 -78 5891 616 L 22 0 5869 616 L
39 0 5869 538 L 0 -78 5947 616 L 0 -78 5953 616 L 11 11 5953 599 L 17 6 C 11 0 C 17 -6 C 5 -11 C 0 -61 C 11 -6 5992 616 L 6 -11 C
0 -61 C 23 0 5930 616 L 40 0 5930 538 L 39 0 5992 538 L 11 -12 6059 678 L 12 -16 C 11 -23 C 5 -28 C 0 -22 C -5 -28 C -11 -23 C
-12 -16 C -11 -12 C 12 -22 6070 666 L 5 -17 C 6 -28 C 0 -22 C -6 -28 C -5 -17 C -12 -22 C
0 -78 4942 4300 L 0 -78 4948 4300 L 11 11 4948 4283 L 17 6 C 11 0 C 17 -6 C 5 -11 C 0 -61 C 11 -6 4987 4300 L 6 -11 C 0 -61 C
12 11 5009 4283 L 16 6 C 12 0 C 16 -6 C 6 -11 C 0 -61 C 11 -6 5049 4300 L 5 -11 C 0 -61 C 23 0 4925 4300 L 40 0 4925 4222 L
39 0 4987 4222 L 39 0 5049 4222 L 68 0 5121 4266 L 0 12 C -6 11 C -6 5 C -11 6 C -17 0 C -16 -6 C -12 -11 C -5 -17 C 0 -11 C 5 -17 C
12 -11 C 16 -5 C 12 0 C 16 5 C 12 11 C 0 17 5183 4266 L -6 11 C -11 -6 5149 4300 L -11 -11 C -6 -17 C 0 -11 C 6 -17 C 11 -11 C
11 -5 C 0 -95 5233 4339 L 6 -17 C 11 -5 C 11 0 C 12 5 C 5 11 C 0 -95 5239 4339 L 6 -17 C 5 -5 C 44 0 5217 4300 L 0 -6 5317 4289 L
-5 0 C 0 6 C 5 5 C 12 6 C 22 0 C 11 -6 C 6 -5 C 5 -11 C 0 -40 C 6 -11 C 6 -5 C 0 -51 5368 4289 L 5 -11 C 12 -5 C 5 0 C
-6 -6 5368 4278 L -33 -6 C -17 -5 C -6 -11 C 0 -12 C 6 -11 C 17 -5 C 16 0 C 12 5 C 11 11 C -12 -5 5329 4266 L -5 -11 C 0 -12 C
5 -11 C 12 -5 C 0 -117 5429 4339 L 0 -117 5435 4339 L 22 0 5413 4339 L 39 0 5413 4222 L 101 0 5485 4272 L 0 -118 5637 4300 L
0 -118 5642 4300 L 11 11 5642 4283 L 12 6 C 11 0 C 17 -6 C 11 -11 C 5 -17 C 0 -11 C -5 -17 C -11 -11 C -17 -5 C -11 0 C -12 5 C
-11 11 C 11 -6 5676 4300 L 11 -11 C 6 -17 C 0 -11 C -6 -17 C -11 -11 C -11 -5 C 22 0 5620 4300 L 39 0 5620 4182 L -17 -6 5777 4300 L
-11 -11 C -6 -17 C 0 -11 C 6 -17 C 11 -11 C 17 -5 C 11 0 C 17 5 C 11 11 C 5 17 C 0 11 C -5 17 C -11 11 C -17 6 C -11 0 C -12 -6 C
-11 -11 C -5 -17 C 0 -11 C 5 -17 C 11 -11 C 12 -5 C 11 5 5788 4222 L 11 11 C 6 17 C 0 11 C -6 17 C -11 11 C -11 6 C
-17 -6 5889 4300 L -11 -11 C -6 -17 C 0 -11 C 6 -17 C 11 -11 C 17 -5 C 11 0 C 17 5 C 11 11 C 5 17 C 0 11 C -5 17 C -11 11 C -17 6 C
-11 0 C -12 -6 C -11 -11 C -5 -17 C 0 -11 C 5 -17 C 11 -11 C 12 -5 C 11 5 5900 4222 L 11 11 C 6 17 C 0 11 C -6 17 C -11 11 C -11 6 C
0 -78 5978 4300 L 0 -78 5984 4300 L 5 17 5984 4266 L 12 11 C 11 6 C 17 0 C 5 -6 C 0 -5 C -5 -6 C -6 6 C 6 5 C 23 0 5961 4300 L
40 0 5961 4222 L
4195 3039 M16
5130 3771 M16
4744 3391 M16
4932 3409 M16
5164 3564 M16
5051 3459 M16
5310 3671 M16
4617 3049 M16
5055 3412 M16
4531 2946 M16
5234 3536 M16
4353 2778 M16
5791 3993 M16
4541 2888 M16
5210 3434 M16
5598 3731 M16
4558 2793 M16
4934 3094 M16
4405 2631 M16
5606 3604 M16
4547 2692 M16
5314 3319 M16
4991 3033 M16
4701 2764 M16
5536 3482 M16
4851 2868 M16
4924 2917 M16
4638 2666 M16
5250 3192 M16
4618 2630 M16
4700 2666 M16
5078 2977 M16
4778 2698 M16
5406 3240 M16
5457 3268 M16
4942 2813 M16
4661 2564 M16
5184 3003 M16
4801 2657 M16
4964 2786 M16
5063 2856 M16
5664 3373 M16
5004 2783 M16
4363 2221 M16
5006 2777 M16
5350 3057 M16
4545 2342 M16
4966 2704 M16
5119 2823 M16
5024 2738 M16
5003 2713 M16
5055 2755 M16
5635 3259 M16
5659 3277 M16
4719 2454 M16
4794 2519 M16
5441 3083 M16
5061 2744 M16
5612 3220 M16
5409 3040 M16
5635 3236 M16
5477 3097 M16
5107 2761 M16
5223 2831 M16
5135 2746 M16
5096 2683 M16
5539 3069 M16
5329 2873 M16
5382 2892 M16
5337 2851 M16
5298 2811 M16
5329 2833 M16
5335 2824 M16
4939 2476 M16
5138 2642 M16
5128 2627 M16
5353 2823 M16
6065 3438 M16
6088 3446 M16
5371 2815 M16
5538 2955 M16
5133 2594 M16
5504 2909 M16
5216 2653 M16
4943 2411 M16
5297 2718 M16
5795 3154 M16
5756 3118 M16
5285 2704 M16
5669 3039 M16
5315 2707 M16
5270 2668 M16
5487 2855 M16
5439 2804 M16
5499 2841 M16
5220 2595 M16
5262 2630 M16
5439 2785 M16
5384 2736 M16
5974 3252 M16
5639 2953 M16
5476 2806 M16
5798 3085 M16
5311 2640 M16
5032 2393 M16
5971 3218 M16
5826 3085 M16
5239 2562 M16
5547 2832 M16
5156 2483 M16
5714 2972 M16
5450 2739 M16
5623 2890 M16
5499 2778 M16
5917 3145 M16
5899 3129 M16
5480 2751 M16
5551 2810 M16
5215 2512 M16
5662 2907 M16
5116 2422 M16
5343 2621 M16
5615 2859 M16
5744 2972 M16
5604 2847 M16
5614 2853 M16
5622 2854 M16
5443 2696 M16
5619 2848 M16
5415 2668 M16
5622 2848 M16
5574 2804 M16
6090 3252 M16
6007 3178 M16
5753 2948 M16
5545 2762 M16
5501 2719 M16
5568 2774 M16
6003 3146 M16
5686 2863 M16
5729 2900 M16
5745 2904 M16
5581 2759 M16
5988 3116 M16
5643 2809 M16
5757 2909 M16
5966 3082 M16
5769 2904 M16
5845 2957 M16
4852 2076 M16
5793 2905 M16
6193 3259 M16
6040 3121 M16
5943 3024 M16
4844 2043 M16
5505 2625 M16
5721 2814 M16
6023 3081 M16
5598 2702 M16
4862 2043 M16
5598 2693 M16
5644 2720 M16
5844 2889 M16
5398 2489 M16
5717 2766 M16
5866 2894 M16
5419 2496 M16
5707 2751 M16
5587 2642 M16
5598 2636 M16
6152 3126 M16
5794 2805 M16
5750 2756 M16
6141 3104 M16
5590 2603 M16
5781 2763 M16
5562 2568 M16
5384 2409 M16
5526 2531 M16
5553 2540 M16
5138 2164 M16
5774 2726 M16
5825 2771 M16
6407 3282 M16
6261 3148 M16
5787 2724 M16
5688 2636 M16
5739 2681 M16
5604 2559 M16
5848 2767 M16
5907 2813 M16
6528 3362 M16
5748 2653 M16
6047 2909 M16
5856 2734 M16
6009 2867 M16
5883 2747 M16
5850 2705 M16
5695 2566 M16
5111 2034 M16
5456 2340 M16
5945 2770 M16
5577 2436 M16
6297 3076 M16
5856 2675 M16
5744 2569 M16
6005 2798 M16
6243 3003 M16
6190 2948 M16
6205 2961 M16
5706 2505 M16
6114 2852 M16
6123 2852 M16
6209 2896 M16
5850 2575 M16
6012 2715 M16
6406 3062 M16
6171 2847 M16
5972 2665 M16
6293 2948 M16
5726 2414 M16
5664 2358 M16
5189 1920 M16
6220 2833 M16
6070 2663 M16
6051 2644 M16
6107 2693 M16
5373 2026 M16
5504 2143 M16
6082 2662 M16
5717 2332 M16
6088 2656 M16
6133 2691 M16
6264 2810 M16
6190 2733 M16
6268 2776 M16
5912 2453 M16
6068 2592 M16
5710 2265 M16
6066 2581 M16
6363 2841 M16
6304 2744 M16
6228 2670 M16
6278 2709 M16
5620 2106 M16
6450 2840 M16
5266 1740 M16
6717 3048 M16
5921 2320 M16
5438 1859 M16
5793 2179 M16
5624 2025 M16
6013 2375 M16
5282 1702 M16
6124 2459 M16
6313 2588 M16
5149 1531 M16
6236 2508 M16
5489 1825 M16
5511 1810 M16
5538 1825 M16
6424 2624 M16
6275 2449 M16
6192 2357 M16
6640 2760 M16
6251 2382 M16
5561 1727 M16
6229 2299 M16
6473 2500 M16
5860 1814 M16
5850 1800 M16
6327 2169 M16
6228 2059 M16
6354 2155 M16
5615 2702 M16
5185 2827 M16
5281 2716 M16
6126 2852 M16
5928 2837 M16
5913 2830 M16
5568 2888 M16
5295 2877 M16
5077 2801 M16
PGPLOT restore showpage
%%PageTrailer
%%PageBoundingBox: 105 32 394 538
 
%%Trailer
%%BoundingBox: 105 32 394 538
%%DocumentFonts: 
%%Pages: 1
%%EOF
