%!PS-Adobe-3.0
%%BoundingBox: 36 36 504 468
%%Title: Graphics produced by IDL
%%For: ericpeng@celesta, /Users/ericpeng/ACSVCS/Workspace
%%Creator: IDL Version 6.3, Mac OS X (darwin i386 m32)
%%CreationDate: Fri Feb 29 17:24:01 2008
%%DocumentData: Clean7bit
%%Requirements: color
%%LanguageLevel: 1
%%PageOrder: Ascend
%%Pages: 1 0
%%DocumentNeededResources: (atend)
%%EndComments
%%BeginProlog
save
%+ prolog.ps -- Prolog for IDL generated PostScript files
%+ Copyright (c) 1988-2006 Research Systems, Inc. All Rights Reserved.
%v 5
/$IDL_DICT 40 dict def $IDL_DICT begin /bdef { bind def } bind def /C
{currentpoint newpath moveto} bdef /CP {currentpoint} bdef /D {currentpoint
stroke moveto} bdef /F {closepath fill} bdef /K { setgray } bdef /M {moveto}
bdef /N {rmoveto} bdef /P {lineto} bdef /R {rlineto} bdef /S {gsave show
grestore} bdef /X {currentpoint pop} bdef /Z {gsave currentpoint lineto 20
setlinewidth 1 setlinecap stroke grestore} bdef /L0 {[] 0 setdash} bdef /L1
{[40 100] 0 setdash} bdef /L2 {[200 200] 0 setdash} bdef /L3 {[200 100 50
100] 0 setdash} bdef /L4 {[300 100 50 100 50 100 50 100] 0 setdash} bdef /L5
{[400 200] 0 setdash} bdef /STDFONT { findfont exch scalefont setfont } bdef
/ISOFONT { findfont dup length dict begin { 1 index /FID ne {def} {pop pop}
ifelse } forall /Encoding ISOLatin1Encoding def currentdict end /idltmpfont
exch definefont exch scalefont setfont } bdef /ISOBULLET { gsave /Helvetica
findfont exch scalefont setfont (\267) show currentpoint grestore moveto}
bdef /MITERLIMIT { 2.5 setmiterlimit } bdef end
%%EndProlog
%%Page: 1 1
%%PageRequirements: color
%%PageResources: (atend)
%%PageOrientation: Portrait
%%PageBoundingBox: 36 36 504 468
%%BeginPageSetup
save
$IDL_DICT begin 36 36 translate 0.0283465 dup scale MITERLIMIT
%%IncludeResource: font Times-Roman
423.333 /Times-Roman ISOFONT
%%EndPageSetup
10 setlinewidth L0 0.000 0.000 0.000 setrgbcolor 3108 1971 M 12470 0 R D
3108 1971 M 0 246 R D gsave 3108 1232 translate 0 0 M 1.4 dup scale
-331.047 0 N
(-24) show grestore 5186 1971 M 0 246 R D gsave 5186 1232 translate 0 0 M
1.4 dup scale -331.047 0 N
(-22) show grestore 7265 1971 M 0 246 R D gsave 7265 1232 translate 0 0 M
1.4 dup scale -331.047 0 N
(-20) show grestore 9343 1971 M 0 246 R D gsave 9343 1232 translate 0 0 M
1.4 dup scale -331.047 0 N
(-18) show grestore 11421 1971 M 0 246 R D gsave 11421 1232 translate 0 0 M
1.4 dup scale -331.047 0 N
(-16) show grestore 13499 1971 M 0 246 R D gsave 13499 1232 translate 0 0 M
1.4 dup scale -331.047 0 N
(-14) show grestore 15578 1971 M 0 246 R D gsave 15578 1232 translate 0 0 M
1.4 dup scale -331.047 0 N
(-12) show grestore 3628 1971 M 0 123 R D 4147 1971 M 0 123 R D 4667 1971 M
0 123 R D 5706 1971 M 0 123 R D 6225 1971 M 0 123 R D 6745 1971 M 0 123 R D
7784 1971 M 0 123 R D 8304 1971 M 0 123 R D 8823 1971 M 0 123 R D
9862 1971 M 0 123 R D 10382 1971 M 0 123 R D 10902 1971 M 0 123 R D
11941 1971 M 0 123 R D 12460 1971 M 0 123 R D 12980 1971 M 0 123 R D
14019 1971 M 0 123 R D 14539 1971 M 0 123 R D 15058 1971 M 0 123 R D
gsave 9343 591 translate 0 0 M 1.4 dup scale -282.922 0 N
(M) show X -192.695 M
%%IncludeResource: font Times-Roman
262.467 /Times-Roman ISOFONT
(V) show grestore
%%IncludeResource: font Times-Roman
423.333 /Times-Roman ISOFONT 3108 14254 M 12470 0 R D 3108 14254 M 0 -245 R
D 5186 14254 M 0 -245 R D 7265 14254 M 0 -245 R D 9343 14254 M 0 -245 R D
11421 14254 M 0 -245 R D 13499 14254 M 0 -245 R D 15578 14254 M 0 -245 R D
3628 14254 M 0 -122 R D 4147 14254 M 0 -122 R D 4667 14254 M 0 -122 R D
5706 14254 M 0 -122 R D 6225 14254 M 0 -122 R D 6745 14254 M 0 -122 R D
7784 14254 M 0 -122 R D 8304 14254 M 0 -122 R D 8823 14254 M 0 -122 R D
9862 14254 M 0 -122 R D 10382 14254 M 0 -122 R D 10902 14254 M 0 -122 R D
11941 14254 M 0 -122 R D 12460 14254 M 0 -122 R D 12980 14254 M 0 -122 R D
14019 14254 M 0 -122 R D 14539 14254 M 0 -122 R D 15058 14254 M 0 -122 R D
3108 1971 M 0 12283 R D 3108 2476 M 249 0 R D
gsave 2953 2279 translate 0 0 M 1.4 dup scale -211.667 0 N
(0) show grestore 3108 5841 M 249 0 R D gsave 2953 5644 translate 0 0 M
1.4 dup scale -423.333 0 N
(10) show grestore 3108 9207 M 249 0 R D gsave 2953 9009 translate 0 0 M
1.4 dup scale -423.333 0 N
(20) show grestore 3108 12572 M 249 0 R D gsave 2953 12375 translate 0 0 M
1.4 dup scale -423.333 0 N
(30) show grestore 3108 2140 M 125 0 R D 3108 2813 M 125 0 R D 3108 3149 M
125 0 R D 3108 3486 M 125 0 R D 3108 3822 M 125 0 R D 3108 4159 M 125 0 R D
3108 4495 M 125 0 R D 3108 4832 M 125 0 R D 3108 5168 M 125 0 R D
3108 5505 M 125 0 R D 3108 6178 M 125 0 R D 3108 6514 M 125 0 R D
3108 6851 M 125 0 R D 3108 7187 M 125 0 R D 3108 7524 M 125 0 R D
3108 7860 M 125 0 R D 3108 8197 M 125 0 R D 3108 8534 M 125 0 R D
3108 8870 M 125 0 R D 3108 9543 M 125 0 R D 3108 9880 M 125 0 R D
3108 10216 M 125 0 R D 3108 10553 M 125 0 R D 3108 10889 M 125 0 R D
3108 11226 M 125 0 R D 3108 11562 M 125 0 R D 3108 11899 M 125 0 R D
3108 12235 M 125 0 R D 3108 12908 M 125 0 R D 3108 13245 M 125 0 R D
3108 13581 M 125 0 R D 3108 13918 M 125 0 R D 3108 14254 M 125 0 R D
gsave 1894 8113 translate 0 0 M 90 rotate 1.4 dup scale -212.437 0 N
(S) show X -192.695 M
%%IncludeResource: font Times-Roman
262.467 /Times-Roman ISOFONT
(N) show grestore
%%IncludeResource: font Times-Roman
423.333 /Times-Roman ISOFONT 15578 1971 M 0 12283 R D 15578 2476 M -250 0 R
D 15578 5841 M -250 0 R D 15578 9207 M -250 0 R D 15578 12572 M -250 0 R D
15578 2140 M -125 0 R D 15578 2813 M -125 0 R D 15578 3149 M -125 0 R D
15578 3486 M -125 0 R D 15578 3822 M -125 0 R D 15578 4159 M -125 0 R D
15578 4495 M -125 0 R D 15578 4832 M -125 0 R D 15578 5168 M -125 0 R D
15578 5505 M -125 0 R D 15578 6178 M -125 0 R D 15578 6514 M -125 0 R D
15578 6851 M -125 0 R D 15578 7187 M -125 0 R D 15578 7524 M -125 0 R D
15578 7860 M -125 0 R D 15578 8197 M -125 0 R D 15578 8534 M -125 0 R D
15578 8870 M -125 0 R D 15578 9543 M -125 0 R D 15578 9880 M -125 0 R D
15578 10216 M -125 0 R D 15578 10553 M -125 0 R D 15578 10889 M -125 0 R D
15578 11226 M -125 0 R D 15578 11562 M -125 0 R D 15578 11899 M -125 0 R D
15578 12235 M -125 0 R D 15578 12908 M -125 0 R D 15578 13245 M -125 0 R D
15578 13581 M -125 0 R D 15578 13918 M -125 0 R D 15578 14254 M -125 0 R D
50 setlinewidth L1 3108 2476 M 12469 0 R D L0 0.663 0.663 0.663 setrgbcolor
6018 3327 M 111 -111 R -111 -111 R -111 111 R 111 111 R D 4147 4270 M
111 -111 R -111 -111 R -111 111 R 111 111 R D 7265 3967 M 111 -111 R
-111 -111 R -111 111 R 111 111 R D 7265 3563 M 111 -111 R -111 -111 R
-111 111 R 111 111 R D 6849 3496 M 111 -111 R -111 -111 R -111 111 R
111 111 R D 4563 4303 M 111 -111 R -111 -111 R -111 111 R 111 111 R D
6122 3664 M 111 -111 R -111 -111 R -111 111 R 111 111 R D 7057 4000 M
111 -111 R -111 -111 R -111 111 R 111 111 R D 5914 4606 M 111 -111 R
-111 -111 R -111 111 R 111 111 R D 5082 3597 M 111 -111 R -111 -111 R
-111 111 R 111 111 R D 4875 7635 M 111 -111 R -111 -111 R -111 111 R
111 111 R D 6329 2991 M 111 -111 R -111 -111 R -111 111 R 111 111 R D
5186 5279 M 111 -111 R -111 -111 R -111 111 R 111 111 R D 4355 4875 M
111 -111 R -111 -111 R -111 111 R 111 111 R D 4043 3933 M 111 -111 R
-111 -111 R -111 111 R 111 111 R D 6849 4909 M 111 -111 R -111 -111 R
-111 111 R 111 111 R D 4979 4068 M 111 -111 R -111 -111 R -111 111 R
111 111 R D 6433 4337 M 111 -111 R -111 -111 R -111 111 R 111 111 R D
4771 3294 M 111 -111 R -111 -111 R -111 111 R 111 111 R D 5706 5010 M
111 -111 R -111 -111 R -111 111 R 111 111 R D 5602 3428 M 111 -111 R
-111 -111 R -111 111 R 111 111 R D 4355 2890 M 111 -111 R -111 -111 R
-111 111 R 111 111 R D 4147 7399 M 111 -111 R -111 -111 R -111 111 R
111 111 R D 5602 2924 M 111 -111 R -111 -111 R -111 111 R 111 111 R D
3628 4909 M 111 -111 R -111 -111 R -111 111 R 111 111 R D 5186 3462 M
111 -111 R -111 -111 R -111 111 R 111 111 R D 5706 4606 M 111 -111 R
-111 -111 R -111 111 R 111 111 R D 6018 3015 M 0 403 R D 4147 3486 M
0 1346 R D 7265 3587 M 0 538 R D 7265 3250 M 0 404 R D 6849 3115 M 0 539 R D
4563 3789 M 0 807 R D 6122 3385 M 0 336 R D 7057 3654 M 0 471 R D
5914 3620 M 0 1750 R D 5082 2813 M 0 1346 R D 4875 5505 M 0 4038 R D
6329 2779 M 0 202 R D 5186 4159 M 0 2019 R D 4355 4226 M 0 1077 R D
4043 3418 M 0 808 R D 6849 4091 M 0 1414 R D 4979 3553 M 0 808 R D
6433 3755 M 0 942 R D 4771 3082 M 0 202 R D 5706 4495 M 0 808 R D
5602 2981 M 0 673 R D 4355 2644 M 0 270 R D 4147 6178 M 0 2221 R D
5602 2745 M 0 135 R D 3628 4192 M 0 1212 R D 5186 3149 M 0 404 R D
5706 3990 M 0 1010 R D 0.000 0.745 0.000 setrgbcolor 11102 3351 M 222 0 R
-111 0 R 0 111 R 0 -222 R D 11310 4361 M 222 0 R -111 0 R 0 111 R 0 -222 R D
10894 5067 M 222 0 R -111 0 R 0 111 R 0 -222 R D 12038 7524 M 222 0 R
-111 0 R 0 111 R 0 -222 R D 12453 6514 M 222 0 R -111 0 R 0 111 R 0 -222 R D
10375 3990 M 222 0 R -111 0 R 0 111 R 0 -222 R D 9751 4462 M 222 0 R
-111 0 R 0 111 R 0 -222 R D 11213 2712 M 0 1278 R D 11421 3149 M 0 2423 R D
11005 3856 M 0 2423 R D 12149 4832 M 0 5384 R D 12564 3486 M 0 6057 R D
10486 3284 M 0 1413 R D 9862 3688 M 0 1548 R D 0.000 0.000 1.000 setrgbcolor
9855 3183 M 222 0 R -111 0 R 0 111 R 0 -222 R 0 111 R 111 111 R -222 -222 R
111 111 R -111 111 R 222 -222 R D 10271 3385 M 222 0 R -111 0 R 0 111 R
0 -222 R 0 111 R 111 111 R -222 -222 R 111 111 R -111 111 R 222 -222 R D
10583 4327 M 222 0 R -111 0 R 0 111 R 0 -222 R 0 111 R 111 111 R -222 -222 R
111 111 R -111 111 R 222 -222 R D 10687 4563 M 222 0 R -111 0 R 0 111 R
0 -222 R 0 111 R 111 111 R -222 -222 R 111 111 R -111 111 R 222 -222 R D
10791 3587 M 222 0 R -111 0 R 0 111 R 0 -222 R 0 111 R 111 111 R -222 -222 R
111 111 R -111 111 R 222 -222 R D 11206 3284 M 222 0 R -111 0 R 0 111 R
0 -222 R 0 111 R 111 111 R -222 -222 R 111 111 R -111 111 R 222 -222 R D
11518 4260 M 222 0 R -111 0 R 0 111 R 0 -222 R 0 111 R 111 111 R -222 -222 R
111 111 R -111 111 R 222 -222 R D 11830 7389 M 222 0 R -111 0 R 0 111 R
0 -222 R 0 111 R 111 111 R -222 -222 R 111 111 R -111 111 R 222 -222 R D
12245 4899 M 222 0 R -111 0 R 0 111 R 0 -222 R 0 111 R 111 111 R -222 -222 R
111 111 R -111 111 R 222 -222 R D 12557 3418 M 222 0 R -111 0 R 0 111 R
0 -222 R 0 111 R 111 111 R -222 -222 R 111 111 R -111 111 R 222 -222 R D
13181 5067 M 222 0 R -111 0 R 0 111 R 0 -222 R 0 111 R 111 111 R -222 -222 R
111 111 R -111 111 R 222 -222 R D 13285 5236 M 222 0 R -111 0 R 0 111 R
0 -222 R 0 111 R 111 111 R -222 -222 R 111 111 R -111 111 R 222 -222 R D
13596 6514 M 222 0 R -111 0 R 0 111 R 0 -222 R 0 111 R 111 111 R -222 -222 R
111 111 R -111 111 R 222 -222 R D 13700 7154 M 222 0 R -111 0 R 0 111 R
0 -222 R 0 111 R 111 111 R -222 -222 R 111 111 R -111 111 R 222 -222 R D
14012 10418 M 222 0 R -111 0 R 0 111 R 0 -222 R 0 111 R 111 111 R
-222 -222 R 111 111 R -111 111 R 222 -222 R D 14012 5976 M 222 0 R -111 0 R
0 111 R 0 -222 R 0 111 R 111 111 R -222 -222 R 111 111 R -111 111 R
222 -222 R D 14116 12101 M 222 0 R -111 0 R 0 111 R 0 -222 R 0 111 R
111 111 R -222 -222 R 111 111 R -111 111 R 222 -222 R D 14220 2476 M 222 0 R
-111 0 R 0 111 R 0 -222 R 0 111 R 111 111 R -222 -222 R 111 111 R -111 111 R
222 -222 R D 14324 3250 M 222 0 R -111 0 R 0 111 R 0 -222 R 0 111 R
111 111 R -222 -222 R 111 111 R -111 111 R 222 -222 R D 14324 4798 M 222 0 R
-111 0 R 0 111 R 0 -222 R 0 111 R 111 111 R -222 -222 R 111 111 R -111 111 R
222 -222 R D 14324 5572 M 222 0 R -111 0 R 0 111 R 0 -222 R 0 111 R
111 111 R -222 -222 R 111 111 R -111 111 R 222 -222 R D 14428 4327 M 222 0 R
-111 0 R 0 111 R 0 -222 R 0 111 R 111 111 R -222 -222 R 111 111 R -111 111 R
222 -222 R D 14635 13649 M 222 0 R -111 0 R 0 111 R 0 -222 R 0 111 R
111 111 R -222 -222 R 111 111 R -111 111 R 222 -222 R D 14843 2476 M 222 0 R
-111 0 R 0 111 R 0 -222 R 0 111 R 111 111 R -222 -222 R 111 111 R -111 111 R
222 -222 R D 15051 5404 M 222 0 R -111 0 R 0 111 R 0 -222 R 0 111 R
111 111 R -222 -222 R 111 111 R -111 111 R 222 -222 R D 15051 2476 M 222 0 R
-111 0 R 0 111 R 0 -222 R 0 111 R 111 111 R -222 -222 R 111 111 R -111 111 R
222 -222 R D 15155 7760 M 222 0 R -111 0 R 0 111 R 0 -222 R 0 111 R
111 111 R -222 -222 R 111 111 R -111 111 R 222 -222 R D 10694 3294 M 111 0 R
0 -222 R -222 0 R 0 222 R 222 0 R D 11421 3428 M 111 0 R 0 -222 R -222 0 R
0 222 R 222 0 R D 11629 5044 M 111 0 R 0 -222 R -222 0 R 0 222 R 222 0 R D
11941 3327 M 111 0 R 0 -222 R -222 0 R 0 222 R 222 0 R D 12045 3731 M
111 0 R 0 -222 R -222 0 R 0 222 R 222 0 R D 12460 2587 M 111 0 R 0 -222 R
-222 0 R 0 222 R 222 0 R D 12772 4640 M 111 0 R 0 -222 R -222 0 R 0 222 R
222 0 R D 12876 3126 M 111 0 R 0 -222 R -222 0 R 0 222 R 222 0 R D
13188 2587 M 111 0 R 0 -222 R -222 0 R 0 222 R 222 0 R D 13292 5952 M
111 0 R 0 -222 R -222 0 R 0 222 R 222 0 R D 13499 2587 M 111 0 R 0 -222 R
-222 0 R 0 222 R 222 0 R D 13707 3395 M 111 0 R 0 -222 R -222 0 R 0 222 R
222 0 R D 14123 3630 M 111 0 R 0 -222 R -222 0 R 0 222 R 222 0 R D
14227 2587 M 111 0 R 0 -222 R -222 0 R 0 222 R 222 0 R D 14331 4674 M
111 0 R 0 -222 R -222 0 R 0 222 R 222 0 R D 14539 8510 M 111 0 R 0 -222 R
-222 0 R 0 222 R 222 0 R D 14539 2587 M 111 0 R 0 -222 R -222 0 R 0 222 R
222 0 R D 14642 9082 M 111 0 R 0 -222 R -222 0 R 0 222 R 222 0 R D
14746 13726 M 111 0 R 0 -222 R -222 0 R 0 222 R 222 0 R D 14850 2587 M
111 0 R 0 -222 R -222 0 R 0 222 R 222 0 R D 14954 3799 M 111 0 R 0 -222 R
-222 0 R 0 222 R 222 0 R D 15058 2587 M 111 0 R 0 -222 R -222 0 R 0 222 R
222 0 R D 15162 2587 M 111 0 R 0 -222 R -222 0 R 0 222 R 222 0 R D
0.000 0.000 0.000 setrgbcolor 12252 3159 M 111 -222 R -222 0 R 111 222 R D
11941 3664 M 111 -222 R -222 0 R 111 222 R D 10798 3126 M 111 -222 R
-222 0 R 111 222 R D 14435 12346 M 111 -222 R -222 0 R 111 222 R D
14227 8981 M 111 -222 R -222 0 R 111 222 R D 12252 2914 M 0 269 R D
11941 3317 M 0 472 R D 10798 2880 M 0 269 R D 14435 10216 M 0 4038 R D
14227 7524 M 0 2692 R D 4334 4293 M -83 84 R -83 -84 R 83 -83 R 83 83 R F
4584 6713 M -83 83 R -84 -83 R 84 -83 R 83 83 R F
4844 4213 M -84 83 R -83 -83 R 83 -84 R 84 84 R F
4708 3341 M -83 83 R -83 -83 R 83 -83 R 83 83 R F
4916 2910 M -83 83 R -83 -83 R 83 -83 R 83 83 R F
4968 4226 M -83 83 R -83 -83 R 83 -83 R 83 83 R F
4947 3775 M -83 83 R -83 -83 R 83 -83 R 83 83 R F
5914 2843 M -83 83 R -84 -83 R 84 -83 R 83 83 R F
6122 3385 M -84 83 R -83 -83 R 83 -84 R 84 84 R F
5935 3425 M -84 83 R -83 -83 R 83 -83 R 84 83 R F
6620 3142 M -83 84 R -83 -84 R 83 -83 R 83 83 R F
6537 2823 M -83 83 R -83 -83 R 83 -84 R 83 84 R F
6465 2813 M -84 83 R -83 -83 R 83 -84 R 84 84 R F
6766 2833 M -83 83 R -84 -83 R 84 -83 R 83 83 R F
6870 2705 M -83 83 R -84 -83 R 84 -83 R 83 83 R F
7150 2984 M -83 83 R -83 -83 R 83 -83 R 83 83 R F
6891 2927 M -84 83 R -83 -83 R 83 -83 R 84 83 R F
7078 2843 M -84 83 R -83 -83 R 83 -83 R 84 83 R F
6880 3240 M -83 83 R -83 -83 R 83 -83 R 83 83 R F
7764 3476 M -84 83 R -83 -83 R 83 -84 R 84 84 R F
7234 3075 M -84 83 R -83 -83 R 83 -83 R 84 83 R F
7452 3267 M -83 83 R -84 -83 R 84 -83 R 83 83 R F
7473 2644 M -84 84 R -83 -84 R 83 -83 R 84 83 R F
7556 2769 M -84 83 R -83 -83 R 83 -83 R 84 83 R F
7421 2691 M -84 84 R -83 -84 R 83 -83 R 84 83 R F
7576 2718 M -83 84 R -83 -84 R 83 -83 R 83 83 R F
7732 2769 M -83 83 R -83 -83 R 83 -83 R 83 83 R F
7951 3048 M -84 83 R -83 -83 R 83 -83 R 84 83 R F
8013 2988 M -83 83 R -84 -83 R 84 -84 R 83 84 R F
7680 2850 M -83 83 R -83 -83 R 83 -84 R 83 84 R F
7992 3166 M -83 83 R -83 -83 R 83 -83 R 83 83 R F
8065 2796 M -83 83 R -84 -83 R 84 -83 R 83 83 R F
8397 2745 M -83 84 R -83 -84 R 83 -83 R 83 83 R F
7805 2850 M -83 83 R -83 -83 R 83 -84 R 83 84 R F
8595 2792 M -83 84 R -84 -84 R 84 -83 R 83 83 R F
8231 2988 M -83 83 R -83 -83 R 83 -84 R 83 84 R F
8408 2651 M -83 83 R -84 -83 R 84 -83 R 83 83 R F
8314 2850 M -83 83 R -83 -83 R 83 -84 R 83 84 R F
8460 3126 M -84 83 R -83 -83 R 83 -84 R 84 84 R F
7784 3176 M -83 83 R -83 -83 R 83 -83 R 83 83 R F
8553 3183 M -83 83 R -83 -83 R 83 -83 R 83 83 R F
8522 3156 M -83 83 R -83 -83 R 83 -83 R 83 83 R F
8283 2564 M -83 83 R -83 -83 R 83 -84 R 83 84 R F
8314 2890 M -83 83 R -83 -83 R 83 -83 R 83 83 R F
8844 3502 M -83 84 R -83 -84 R 83 -83 R 83 83 R F
9062 2866 M -83 84 R -83 -84 R 83 -83 R 83 83 R F
8751 3156 M -84 83 R -83 -83 R 83 -83 R 84 83 R F
8990 2984 M -84 83 R -83 -83 R 83 -83 R 84 83 R F
8616 3664 M -84 83 R -83 -83 R 83 -83 R 84 83 R F
9457 3021 M -83 83 R -83 -83 R 83 -83 R 83 83 R F
9582 2897 M -83 83 R -83 -83 R 83 -84 R 83 84 R F
10143 2893 M -83 84 R -83 -84 R 83 -83 R 83 83 R F
9385 3004 M -84 84 R -83 -84 R 83 -83 R 84 83 R F
8990 2735 M -84 83 R -83 -83 R 83 -83 R 84 83 R F
10060 4287 M -83 83 R -83 -83 R 83 -84 R 83 84 R F
10787 3072 M -83 83 R -83 -83 R 83 -84 R 83 84 R F
9873 3846 M -83 83 R -84 -83 R 84 -84 R 83 84 R F
9935 3183 M -83 83 R -83 -83 R 83 -83 R 83 83 R F
9935 2836 M -83 83 R -83 -83 R 83 -83 R 83 83 R F
9644 4182 M -83 84 R -83 -84 R 83 -83 R 83 83 R F
9769 2617 M -83 84 R -83 -84 R 83 -83 R 83 83 R F
9842 3634 M -83 83 R -84 -83 R 84 -84 R 83 84 R F
10039 3139 M -83 83 R -83 -83 R 83 -83 R 83 83 R F
10060 4738 M -83 83 R -83 -83 R 83 -84 R 83 84 R F
10299 4351 M -83 83 R -83 -83 R 83 -84 R 83 84 R F
9956 2964 M -83 83 R -83 -83 R 83 -83 R 83 83 R F
10330 3334 M -83 83 R -83 -83 R 83 -83 R 83 83 R F
9613 3529 M -83 84 R -83 -84 R 83 -83 R 83 83 R F
10091 3391 M -83 84 R -83 -84 R 83 -83 R 83 83 R F
11099 2681 M -83 84 R -83 -84 R 83 -83 R 83 83 R F
10341 3220 M -84 83 R -83 -83 R 83 -83 R 84 83 R F
10133 2910 M -84 83 R -83 -83 R 83 -83 R 84 83 R F
10642 3772 M -83 83 R -84 -83 R 84 -84 R 83 84 R F
10694 2954 M -83 83 R -84 -83 R 84 -83 R 83 83 R F
10569 2601 M -83 83 R -83 -83 R 83 -84 R 83 84 R F
10881 2964 M -83 83 R -84 -83 R 84 -83 R 83 83 R F
10954 4041 M -84 83 R -83 -83 R 83 -83 R 84 83 R F
10559 5629 M -83 84 R -84 -84 R 84 -83 R 83 83 R F
10611 2099 M -84 83 R -83 -83 R 83 -83 R 84 83 R F
10839 3280 M -83 84 R -83 -84 R 83 -83 R 83 83 R F
10694 3550 M -83 83 R -84 -83 R 84 -84 R 83 84 R F
11442 2792 M -83 84 R -83 -84 R 83 -83 R 83 83 R F
11026 2792 M -83 84 R -83 -84 R 83 -83 R 83 83 R F
10611 4095 M -84 83 R -83 -83 R 83 -83 R 84 83 R F
11286 5636 M -83 83 R -83 -83 R 83 -83 R 83 83 R F
11130 3361 M -83 83 R -83 -83 R 83 -83 R 83 83 R F
11193 2315 M -84 83 R -83 -83 R 83 -84 R 84 84 R F
10496 2977 M -83 84 R -83 -84 R 83 -83 R 83 83 R F
10694 3802 M -83 83 R -84 -83 R 84 -83 R 83 83 R F
11255 2540 M -83 83 R -83 -83 R 83 -83 R 83 83 R F
10756 5902 M -83 83 R -83 -83 R 83 -83 R 83 83 R F
11245 2893 M -84 84 R -83 -84 R 83 -83 R 84 83 R F
11161 3445 M -83 84 R -83 -84 R 83 -83 R 83 83 R F
11452 6457 M -83 83 R -83 -83 R 83 -83 R 83 83 R F
10704 3395 M -83 83 R -83 -83 R 83 -83 R 83 83 R F
11473 3062 M -83 83 R -83 -83 R 83 -84 R 83 84 R F
11245 2974 M -84 83 R -83 -83 R 83 -83 R 84 83 R F
11910 4727 M -84 84 R -83 -84 R 83 -83 R 84 83 R F
11702 4101 M -83 84 R -84 -84 R 84 -83 R 83 83 R F
4251 4101 M 0 384 R D 4501 6454 M 0 518 R D 4760 3809 M 0 807 R D
4625 3301 M 0 80 R D 4833 2840 M 0 141 R D 4885 3738 M 0 976 R D 4864 3536 M
0 478 R D 5831 2732 M 0 222 R D 6038 2984 M 0 801 R D 5851 3233 M 0 384 R D
6537 2971 M 0 343 R D 6454 2765 M 0 115 R D 6381 2769 M 0 87 R D 6683 2772 M
0 121 R D 6787 2668 M 0 74 R D 7067 2937 M 0 94 R D 6807 2836 M 0 182 R D
6994 2782 M 0 121 R D 6797 3062 M 0 356 R D 7680 3338 M 0 276 R D
7150 2893 M 0 364 R D 7369 3152 M 0 229 R D 7389 2584 M 0 121 R D
7472 2728 M 0 81 R D 7337 2658 M 0 67 R D 7493 2668 M 0 101 R D 7649 2708 M
0 121 R D 7867 2870 M 0 357 R D 7930 2873 M 0 229 R D 7597 2735 M 0 229 R D
7909 3025 M 0 282 R D 7982 2705 M 0 182 R D 8314 2685 M 0 121 R D
7722 2688 M 0 323 R D 8512 2702 M 0 181 R D 8148 2917 M 0 141 R D
8325 2587 M 0 128 R D 8231 2762 M 0 175 R D 8376 3018 M 0 215 R D
7701 3008 M 0 336 R D 8470 3004 M 0 357 R D 8439 3021 M 0 269 R D
8200 2466 M 0 195 R D 8231 2823 M 0 134 R D 8761 3368 M 0 269 R D
8979 2725 M 0 283 R D 8667 3048 M 0 216 R D 8906 2873 M 0 222 R D
8532 3536 M 0 256 R D 9374 2890 M 0 262 R D 9499 2765 M 0 263 R D
10060 2691 M 0 404 R D 9301 2873 M 0 263 R D 8906 2648 M 0 175 R D
9977 3974 M 0 626 R D 10704 2752 M 0 639 R D 9790 3597 M 0 498 R D
9852 2981 M 0 404 R D 9852 2648 M 0 377 R D 9561 3937 M 0 491 R D
9686 2281 M 0 673 R D 9759 3405 M 0 458 R D 9956 2937 M 0 404 R D
9977 4391 M 0 693 R D 10216 4001 M 0 700 R D 9873 2769 M 0 390 R D
10247 3075 M 0 518 R D 9530 3331 M 0 397 R D 10008 3159 M 0 465 R D
11016 2288 M 0 787 R D 10257 2940 M 0 559 R D 10049 2688 M 0 444 R D
10559 3364 M 0 815 R D 10611 2678 M 0 552 R D 10486 2385 M 0 431 R D
10798 2631 M 0 666 R D 10870 3496 M 0 1090 R D 10476 5118 M 0 1023 R D
10527 1971 M 0 943 R D 10756 2840 M 0 881 R D 10611 3210 M 0 679 R D
11359 2412 M 0 761 R D 10943 2466 M 0 653 R D 10527 3684 M 0 821 R D
11203 4899 M 0 1474 R D 11047 2947 M 0 828 R D 11109 2103 M 0 424 R D
10413 2742 M 0 471 R D 10611 3425 M 0 754 R D 11172 2166 M 0 748 R D
10673 5310 M 0 1184 R D 11161 2617 M 0 552 R D 11972 1971 M 0 1511 R D
11078 2813 M 0 1265 R D 11369 5559 M 0 1797 R D 10621 3021 M 0 747 R D
11390 2553 M 0 1017 R D 11161 2570 M 0 808 R D 11826 3805 M 0 1845 R D
11619 3351 M 0 1501 R D L2 3108 2476 M 104 0 R 104 0 R 104 0 R 104 0 R
104 0 R 104 0 R 103 0 R 104 0 R 104 0 R 104 0 R 104 0 R 104 0 R 104 0 R
104 0 R 104 0 R 104 0 R 104 0 R 104 1 R 103 0 R 104 0 R 104 0 R 104 0 R
104 0 R 104 0 R 104 0 R 104 0 R 104 0 R 104 0 R 104 0 R 103 0 R 104 1 R
104 0 R 104 0 R 104 0 R 104 0 R 104 0 R 104 1 R 104 0 R 104 0 R 104 0 R
104 1 R 103 0 R 104 1 R 104 0 R 104 0 R 104 1 R 104 0 R 104 1 R 104 1 R
104 1 R 104 0 R 104 1 R 103 1 R 104 1 R 104 1 R 104 2 R 104 1 R 104 2 R
104 1 R 104 2 R 104 2 R 104 3 R 104 2 R 104 3 R 103 3 R 104 3 R 104 4 R
104 3 R 104 5 R 104 4 R 104 6 R 104 5 R 104 6 R 104 7 R 104 8 R 103 8 R
104 9 R 104 9 R 104 11 R 104 12 R 104 13 R 104 14 R 104 16 R 104 17 R
104 18 R 104 21 R 104 22 R 103 25 R 104 27 R 104 30 R 104 32 R 104 36 R
104 39 R 104 42 R 104 47 R 104 52 R 104 56 R 104 62 R 104 68 R 103 74 R
104 82 R 104 89 R 104 98 R 104 108 R 104 118 R 104 129 R 104 142 R 104 155 R
104 171 R 104 186 R 103 205 R 104 225 R 104 246 R 104 270 R 104 296 R
104 325 R 104 356 R 104 390 R 104 428 R 103 465 R D
0.000 0.000 0.000 setrgbcolor 3830 13515 M -56 56 R -55 -56 R 55 -55 R
56 55 R F
0.000 0.000 0.000 setrgbcolor gsave 4040 13410 translate 0 0 M
(ACSVCS) show grestore L0 0.663 0.663 0.663 setrgbcolor 3774 13204 M
111 -111 R -111 -111 R -111 111 R 111 111 R D 0.000 0.000 0.000 setrgbcolor
gsave 4040 12987 translate 0 0 M
(Literature \(see text\)) show grestore 0.000 0.745 0.000 setrgbcolor
3663 12670 M 222 0 R -111 0 R 0 111 R 0 -222 R D
0.000 0.000 0.000 setrgbcolor gsave 4040 12565 translate 0 0 M
(Durrell) show grestore 0.000 0.000 1.000 setrgbcolor 3663 12248 M 222 0 R
-111 0 R 0 111 R 0 -222 R 0 111 R 111 111 R -222 -222 R 111 111 R -111 111 R
222 -222 R D 0.000 0.000 0.000 setrgbcolor gsave 4040 12142 translate 0 0 M
(Lotz, N) show grestore 0.000 0.000 1.000 setrgbcolor 3774 11937 M 111 0 R
0 -222 R -222 0 R 0 222 R 222 0 R D 0.000 0.000 0.000 setrgbcolor
gsave 4040 11720 translate 0 0 M
(Lotz, non-N) show grestore 0.000 0.000 0.000 setrgbcolor 3774 11514 M
111 -222 R -222 0 R 111 222 R D 0.000 0.000 0.000 setrgbcolor
gsave 4040 11298 translate 0 0 M
(Local Group) show grestore 3374 13832 M 4138 0 R 0 -2746 R -4138 0 R
0 2746 R D
%%PageTrailer
end
restore
showpage
%%PageResources: font Times-Roman
%%Trailer
restore
%%Pages: 21
%%DocumentNeededResources: font Symbol
%%+ font AvantGarde-Book
%%+ font Times-Roman
%%EOF
