%!PS-Adobe-3.0 EPSF-3.0
%%BoundingBox: 0 0 283 164
%%Title: Graphics produced by IDL
%%For: dacia@Lserver, /home/dacia/work/subhalo_model
%%Creator: IDL Version 7.0 (linux x86_64 m64)
%%CreationDate: Fri May  7 15:08:37 2010
%%DocumentData: Clean7bit
%%Requirements: color
%%LanguageLevel: 1
%%PageOrder: Ascend
%%Pages: (atend)
%%DocumentNeededResources: (atend)
%%EndComments
%%BeginProlog
%+ prolog.ps -- Prolog for IDL generated PostScript files
%+ Copyright (c) 1988-2007 ITT Visual Information Solutions. All Rights Reserved.
%v 5
/$IDL_DICT 40 dict def $IDL_DICT begin /bdef { bind def } bind def /C
{currentpoint newpath moveto} bdef /CP {currentpoint} bdef /D {currentpoint
stroke moveto} bdef /F {closepath fill} bdef /K { setgray } bdef /M {moveto}
bdef /N {rmoveto} bdef /P {lineto} bdef /R {rlineto} bdef /S {gsave show
grestore} bdef /X {currentpoint pop} bdef /Z {gsave currentpoint lineto 20
setlinewidth 1 setlinecap stroke grestore} bdef /L0 {[] 0 setdash} bdef /L1
{[40 100] 0 setdash} bdef /L2 {[200 200] 0 setdash} bdef /L3 {[200 100 50
100] 0 setdash} bdef /L4 {[300 100 50 100 50 100 50 100] 0 setdash} bdef /L5
{[400 200] 0 setdash} bdef /STDFONT { findfont exch scalefont setfont } bdef
/ISOFONT { findfont dup length dict begin { 1 index /FID ne {def} {pop pop}
ifelse } forall /Encoding ISOLatin1Encoding def currentdict end /idltmpfont
exch definefont exch scalefont setfont } bdef /ISOBULLET { gsave /Helvetica
findfont exch scalefont setfont (\267) show currentpoint grestore moveto}
bdef /MITERLIMIT { 2.5 setmiterlimit } bdef end
%%EndProlog
%%Page: 0 1
%%PageRequirements: color
%%PageResources: (atend)
%%PageOrientation: Portrait
%%PageBoundingBox: 0 0 283 164
%%BeginPageSetup
$IDL_DICT begin 0.0283465 dup scale MITERLIMIT
%%IncludeResource: font Helvetica
423.333 /Helvetica STDFONT
%%EndPageSetup
0.000 0.000 0.000 setrgbcolor gsave 5750 176 translate 0 0 M 1.1 dup scale
-576.368 0 N
(t / Gyr) show grestore gsave 546 3517 translate 0 0 M 90 rotate
1.1 dup scale -611.293 0 N
(j\(t\)/j\(0\)) show grestore 40 setlinewidth L0 1700 1408 M 4050 0 R D
1700 1408 M 0 169 R D gsave 1700 769 translate 0 0 M 1.21 dup scale
-117.687 0 N
(0) show grestore 2511 1408 M 0 169 R D gsave 2511 769 translate 0 0 M
1.21 dup scale -117.687 0 N
(2) show grestore 3322 1408 M 0 169 R D gsave 3322 769 translate 0 0 M
1.21 dup scale -117.687 0 N
(4) show grestore 4132 1408 M 0 169 R D gsave 4132 769 translate 0 0 M
1.21 dup scale -117.687 0 N
(6) show grestore 4943 1408 M 0 169 R D gsave 4943 769 translate 0 0 M
1.21 dup scale -117.687 0 N
(8) show grestore 1903 1408 M 0 84 R D 2105 1408 M 0 84 R D 2308 1408 M
0 84 R D 2714 1408 M 0 84 R D 2916 1408 M 0 84 R D 3119 1408 M 0 84 R D
3524 1408 M 0 84 R D 3727 1408 M 0 84 R D 3930 1408 M 0 84 R D 4335 1408 M
0 84 R D 4538 1408 M 0 84 R D 4741 1408 M 0 84 R D 5146 1408 M 0 84 R D
5349 1408 M 0 84 R D 5551 1408 M 0 84 R D 1700 5626 M 4050 0 R D 1700 5626 M
0 -169 R D 2511 5626 M 0 -169 R D 3322 5626 M 0 -169 R D 4132 5626 M
0 -169 R D 4943 5626 M 0 -169 R D 1903 5626 M 0 -84 R D 2105 5626 M 0 -84 R
D 2308 5626 M 0 -84 R D 2714 5626 M 0 -84 R D 2916 5626 M 0 -84 R D
3119 5626 M 0 -84 R D 3524 5626 M 0 -84 R D 3727 5626 M 0 -84 R D
3930 5626 M 0 -84 R D 4335 5626 M 0 -84 R D 4538 5626 M 0 -84 R D
4741 5626 M 0 -84 R D 5146 5626 M 0 -84 R D 5349 5626 M 0 -84 R D
5551 5626 M 0 -84 R D 1700 1408 M 0 4218 R D 1700 2208 M 162 0 R D
gsave 1566 2038 translate 0 0 M 1.21 dup scale -588.433 0 N
(0.2) show grestore 1700 3012 M 162 0 R D gsave 1566 2842 translate 0 0 M
1.21 dup scale -588.433 0 N
(0.4) show grestore 1700 3817 M 162 0 R D gsave 1566 3646 translate 0 0 M
1.21 dup scale -588.433 0 N
(0.6) show grestore 1700 4621 M 162 0 R D gsave 1566 4450 translate 0 0 M
1.21 dup scale -588.433 0 N
(0.8) show grestore 1700 5425 M 162 0 R D gsave 1566 5255 translate 0 0 M
1.21 dup scale -588.433 0 N
(1.0) show grestore 1700 1605 M 81 0 R D 1700 1806 M 81 0 R D 1700 2007 M
81 0 R D 1700 2409 M 81 0 R D 1700 2610 M 81 0 R D 1700 2811 M 81 0 R D
1700 3213 M 81 0 R D 1700 3414 M 81 0 R D 1700 3616 M 81 0 R D 1700 4018 M
81 0 R D 1700 4219 M 81 0 R D 1700 4420 M 81 0 R D 1700 4822 M 81 0 R D
1700 5023 M 81 0 R D 1700 5224 M 81 0 R D 1700 5626 M 81 0 R D 5750 1408 M
0 4218 R D 5750 2208 M -162 0 R D 5750 3012 M -162 0 R D 5750 3817 M
-162 0 R D 5750 4621 M -162 0 R D 5750 5425 M -162 0 R D 5750 1605 M -81 0 R
D 5750 1806 M -81 0 R D 5750 2007 M -81 0 R D 5750 2409 M -81 0 R D
5750 2610 M -81 0 R D 5750 2811 M -81 0 R D 5750 3213 M -81 0 R D
5750 3414 M -81 0 R D 5750 3616 M -81 0 R D 5750 4018 M -81 0 R D
5750 4219 M -81 0 R D 5750 4420 M -81 0 R D 5750 4822 M -81 0 R D
5750 5023 M -81 0 R D 5750 5224 M -81 0 R D 5750 5626 M -81 0 R D L2
1700 5425 M 405 -201 R 406 -684 R 405 -522 R 406 -201 R 405 -563 R
405 -523 R 406 -643 R 405 -483 R 406 -197 R 101 -1 R D 30 setlinewidth L0
1700 5425 M 41 -36 R 107 -106 R 62 -73 R 55 -76 R 59 -102 R 68 -151 R
18 -45 R 27 -71 R 28 -72 R 28 -67 R 30 -64 R 48 -80 R 60 -78 R 79 -82 R
82 -75 R 162 -133 R 162 -126 R 162 -124 R 162 -137 R 39 -38 R 35 -41 R
47 -65 R 36 -64 R 32 -61 R 27 -44 R 26 -33 R 31 -29 R 40 -31 R 52 -32 R
82 -43 R 107 -53 R 162 -78 R 39 -20 R 57 -33 R 32 -22 R 28 -24 R 26 -28 R
23 -24 R 23 -19 R 20 -13 R 26 -12 R 33 -13 R 47 -15 R 62 -17 R 103 -26 R
83 -22 R 33 -9 R 37 -10 R 31 -11 R 27 -10 R 23 -12 R 22 -12 R 18 -9 R
18 -6 R 19 -5 R 25 -5 R 33 -5 R 49 -7 R 78 -9 R 134 -15 R 26 -3 R 34 -5 R
28 -4 R 23 -4 R 22 -5 R 20 -4 R 16 -2 R 16 -2 R 20 -2 R 24 -1 R 34 -2 R
52 -2 R 82 -4 R 84 -3 R 32 -2 R 35 -1 R 29 -2 R 25 -2 R 22 -1 R 20 -2 R
18 -1 R 17 -1 R 17 -1 R 22 -1 R 27 -1 R D 70 setlinewidth 1700 5425 M
41 -48 R 136 -185 R 73 -125 R 46 -97 R 50 -128 R 62 -199 R 54 -198 R
45 -152 R 35 -96 R 24 -59 R 32 -66 R 33 -62 R 31 -53 R 96 -145 R 94 -130 R
103 -132 R 162 -207 R 55 -77 R 56 -87 R 33 -63 R 29 -66 R 27 -75 R 24 -71 R
21 -50 R 19 -38 R 24 -36 R 30 -36 R 42 -41 R 42 -37 R 90 -73 R 46 -36 R
33 -27 R 41 -39 R 23 -25 R 19 -26 R 18 -28 R 16 -24 R 15 -18 R 14 -12 R
17 -11 R 22 -12 R 31 -13 R 48 -17 R 77 -27 R 25 -8 R 25 -10 R 21 -9 R
17 -8 R 15 -9 R 15 -9 R 12 -5 R 11 -5 R 13 -3 R 16 -2 R 22 -3 R 32 -4 R
50 -5 R 61 -6 R 23 -3 R 22 -2 R 18 -3 R 15 -2 R 14 -2 R 13 -2 R 12 -2 R
11 -1 R 14 -1 R 18 -1 R 26 -1 R 39 -1 R 64 -2 R 25 -1 R 24 -1 R 20 -1 R
17 -1 R 14 -1 R 14 -1 R 12 -1 R 11 -1 R 12 0 R 14 -1 R 19 0 R 28 -1 R
42 -1 R 71 -1 R 21 -1 R 21 0 R 18 -1 R 15 0 R 14 -1 R 13 0 R 12 -1 R 11 0 R
13 0 R 17 -1 R 23 0 R 37 -1 R 58 0 R 30 -1 R 24 0 R 20 0 R 17 -1 R 15 0 R
14 -1 R 12 0 R 12 0 R 11 -1 R 13 0 R 18 0 R 25 0 R 39 -1 R 63 0 R 24 -1 R
23 0 R 19 0 R 16 0 R 15 -1 R 13 0 R 12 0 R 11 -1 R 11 0 R 14 0 R 19 0 R
28 -1 R 43 0 R 72 0 R 19 -1 R 21 0 R 17 0 R 14 0 R 14 -1 R 12 0 R 11 0 R
11 0 R 14 0 R 17 -1 R 18 0 R D 110 setlinewidth 1700 5425 M 41 -60 R
105 -171 R 93 -189 R 42 -105 R 41 -122 R 34 -123 R 34 -143 R 40 -195 R
29 -157 R 9 -48 R 7 -37 R 7 -34 R 22 -113 R 28 -125 R 43 -170 R 40 -133 R
51 -155 R 52 -142 R 73 -188 R 88 -216 R 64 -160 R 35 -97 R 27 -90 R 17 -71 R
16 -81 R 15 -79 R 12 -57 R 13 -44 R 14 -38 R 18 -39 R 23 -40 R 25 -39 R
50 -70 R 15 -23 R 14 -21 R 11 -20 R 10 -20 R 8 -20 R 8 -19 R 7 -13 R 7 -9 R
7 -7 R 9 -7 R 13 -6 R 18 -8 R 30 -11 R 18 -6 R 12 -4 R 10 -4 R 8 -3 R 7 -4 R
7 -3 R 6 -3 R 6 -2 R 6 -1 R 7 -1 R 9 -1 R 14 -1 R 21 -2 R 35 -3 R 9 -1 R
10 -1 R 8 -1 R 7 -1 R 6 -1 R 6 0 R 6 -1 R 5 0 R 7 -1 R 8 0 R 13 -1 R 19 0 R
31 -1 R 11 0 R 11 -1 R 8 0 R 7 -1 R 7 0 R 6 0 R 4 -1 R 4 0 R 5 0 R 6 0 R
10 0 R 13 -1 R 20 0 R 33 0 R 10 -1 R 9 0 R 8 0 R 7 0 R 4 0 R 6 -1 R 4 0 R
4 0 R 5 0 R 6 0 R 9 0 R 12 -1 R 19 0 R 31 0 R 11 0 R 10 -1 R 8 0 R 7 0 R
6 0 R 6 0 R 4 0 R 5 0 R 5 -1 R 6 0 R 9 0 R 12 0 R 20 0 R 32 -1 R 10 0 R
10 0 R 8 0 R 6 0 R 5 0 R 6 0 R 4 -1 R 5 0 R 6 0 R 7 0 R 10 0 R 14 0 R 23 0 R
24 -1 R 11 0 R 9 0 R 8 0 R 6 0 R 4 0 R 6 0 R 4 -1 R 5 0 R 5 0 R 7 0 R 10 0 R
14 0 R 22 0 R 26 -1 R 11 0 R 9 0 R 7 0 R 7 0 R 4 0 R 6 0 R 4 0 R 5 0 R
6 -1 R 7 0 R 9 0 R 15 0 R 23 0 R 23 0 R 10 0 R 10 -1 R 7 0 R 7 0 R 4 0 R
4 0 R 5 0 R 5 0 R 5 0 R 7 0 R 9 -1 R 14 0 R 21 0 R 29 0 R 9 0 R 10 0 R 7 0 R
7 0 R 5 -1 R 5 0 R 5 0 R 4 0 R 6 0 R 7 0 R 11 0 R 15 0 R 25 -1 R 18 0 R
10 0 R 9 0 R 8 0 R 6 0 R 6 0 R 5 0 R 5 0 R 4 -1 R 6 0 R 8 0 R 11 0 R 16 0 R
26 0 R 15 0 R 10 0 R 9 -1 R 8 0 R 6 0 R 6 0 R 6 0 R 5 0 R 4 0 R 7 0 R 8 0 R
13 0 R 18 -1 R 31 0 R 10 0 R 9 0 R 8 0 R 7 0 R 5 0 R 6 0 R 5 -1 R 4 0 R
6 0 R 7 0 R 10 0 R 15 0 R 23 0 R 20 0 R 11 -1 R 9 0 R 7 0 R 7 0 R 5 0 R
5 0 R 5 0 R 5 0 R 6 0 R 8 0 R 11 -1 R 17 0 R 26 0 R 14 0 R 10 0 R 9 0 R
7 0 R 6 0 R 6 0 R 5 -1 R 5 0 R 5 0 R 7 0 R 9 0 R 12 0 R 20 0 R 33 -1 R 8 0 R
9 0 R 7 0 R 6 0 R 6 0 R 5 0 R 5 0 R 6 0 R 6 0 R 9 0 R 13 -1 R 20 0 R 32 0 R
8 0 R 9 0 R 7 0 R 6 0 R 6 0 R 5 -1 R 5 0 R 5 0 R 7 0 R 9 0 R 13 0 R 19 0 R
33 0 R 8 -1 R 9 0 R 7 0 R 6 0 R 6 0 R 5 0 R 5 0 R 5 0 R 6 0 R 9 0 R 13 -1 R
20 0 R 32 0 R 9 0 R 8 0 R 7 0 R 6 0 R 6 0 R 5 -1 R 5 0 R 5 0 R 7 0 R 9 0 R
13 0 R 20 0 R 28 0 R 9 0 R 9 -1 R 7 0 R 6 0 R 6 0 R 6 0 R 5 0 R 5 0 R 6 0 R
8 0 R 12 0 R 9 -1 R D 30 setlinewidth 4535 4782 M 53 0 R 52 0 R 53 0 R
53 0 R 52 0 R 53 0 R 53 0 R 52 0 R 53 0 R D 70 setlinewidth 4535 4361 M
53 0 R 52 0 R 53 0 R 53 0 R 52 0 R 53 0 R 53 0 R 52 0 R 53 0 R D
110 setlinewidth 4535 3939 M 53 0 R 52 0 R 53 0 R 53 0 R 52 0 R 53 0 R
53 0 R 52 0 R 53 0 R D gsave 5062 4629 translate 0 0 M 1.1 dup scale
(3) show grestore gsave 5062 4207 translate 0 0 M 1.1 dup scale
(4) show grestore gsave 5062 3785 translate 0 0 M 1.1 dup scale
(5) show grestore gsave 5264 5078 translate 0 0 M -852.17 0 N
(ln) show
%%IncludeResource: font Symbol
423.333 /Symbol STDFONT
(L) show
%%IncludeResource: font Helvetica
423.333 /Helvetica STDFONT
(=) show grestore 40 setlinewidth 5750 1408 M 4050 0 R D 5750 1408 M 0 169 R
D gsave 5750 769 translate 0 0 M 1.21 dup scale -117.687 0 N
(0) show grestore 6561 1408 M 0 169 R D gsave 6561 769 translate 0 0 M
1.21 dup scale -117.687 0 N
(2) show grestore 7372 1408 M 0 169 R D gsave 7372 769 translate 0 0 M
1.21 dup scale -117.687 0 N
(4) show grestore 8183 1408 M 0 169 R D gsave 8183 769 translate 0 0 M
1.21 dup scale -117.687 0 N
(6) show grestore 8993 1408 M 0 169 R D gsave 8993 769 translate 0 0 M
1.21 dup scale -117.687 0 N
(8) show grestore 5953 1408 M 0 84 R D 6155 1408 M 0 84 R D 6358 1408 M
0 84 R D 6764 1408 M 0 84 R D 6966 1408 M 0 84 R D 7169 1408 M 0 84 R D
7574 1408 M 0 84 R D 7777 1408 M 0 84 R D 7980 1408 M 0 84 R D 8385 1408 M
0 84 R D 8588 1408 M 0 84 R D 8791 1408 M 0 84 R D 9196 1408 M 0 84 R D
9399 1408 M 0 84 R D 9601 1408 M 0 84 R D 5750 5626 M 4050 0 R D 5750 5626 M
0 -169 R D 6561 5626 M 0 -169 R D 7372 5626 M 0 -169 R D 8183 5626 M
0 -169 R D 8993 5626 M 0 -169 R D 5953 5626 M 0 -84 R D 6155 5626 M 0 -84 R
D 6358 5626 M 0 -84 R D 6764 5626 M 0 -84 R D 6966 5626 M 0 -84 R D
7169 5626 M 0 -84 R D 7574 5626 M 0 -84 R D 7777 5626 M 0 -84 R D
7980 5626 M 0 -84 R D 8385 5626 M 0 -84 R D 8588 5626 M 0 -84 R D
8791 5626 M 0 -84 R D 9196 5626 M 0 -84 R D 9399 5626 M 0 -84 R D
9601 5626 M 0 -84 R D 5750 1408 M 0 4218 R D 5750 2208 M 162 0 R D
gsave 5616 2038 translate 0 0 M 1.21 dup scale -117.687 0 N
( ) show grestore 5750 3012 M 162 0 R D gsave 5616 2842 translate 0 0 M
1.21 dup scale -117.687 0 N
( ) show grestore 5750 3817 M 162 0 R D gsave 5616 3646 translate 0 0 M
1.21 dup scale -117.687 0 N
( ) show grestore 5750 4621 M 162 0 R D gsave 5616 4450 translate 0 0 M
1.21 dup scale -117.687 0 N
( ) show grestore 5750 5425 M 162 0 R D gsave 5616 5255 translate 0 0 M
1.21 dup scale -117.687 0 N
( ) show grestore 5750 1605 M 81 0 R D 5750 1806 M 81 0 R D 5750 2007 M
81 0 R D 5750 2409 M 81 0 R D 5750 2610 M 81 0 R D 5750 2811 M 81 0 R D
5750 3213 M 81 0 R D 5750 3414 M 81 0 R D 5750 3616 M 81 0 R D 5750 4018 M
81 0 R D 5750 4219 M 81 0 R D 5750 4420 M 81 0 R D 5750 4822 M 81 0 R D
5750 5023 M 81 0 R D 5750 5224 M 81 0 R D 5750 5626 M 81 0 R D 9800 1408 M
0 4218 R D 9800 2208 M -162 0 R D 9800 3012 M -162 0 R D 9800 3817 M
-162 0 R D 9800 4621 M -162 0 R D 9800 5425 M -162 0 R D 9800 1605 M -81 0 R
D 9800 1806 M -81 0 R D 9800 2007 M -81 0 R D 9800 2409 M -81 0 R D
9800 2610 M -81 0 R D 9800 2811 M -81 0 R D 9800 3213 M -81 0 R D
9800 3414 M -81 0 R D 9800 3616 M -81 0 R D 9800 4018 M -81 0 R D
9800 4219 M -81 0 R D 9800 4420 M -81 0 R D 9800 4822 M -81 0 R D
9800 5023 M -81 0 R D 9800 5224 M -81 0 R D 9800 5626 M -81 0 R D L2
5750 5425 M 405 -201 R 406 -684 R 405 -522 R 406 -201 R 405 -563 R
406 -523 R 405 -643 R 405 -483 R 406 -197 R 101 -1 R D 30 setlinewidth L0
5750 5425 M 41 -28 R 107 -81 R 84 -79 R 53 -61 R 54 -78 R 38 -68 R 49 -102 R
57 -122 R 52 -94 R 53 -75 R 66 -74 R 83 -77 R 98 -79 R 162 -119 R 162 -114 R
163 -112 R 162 -116 R 98 -79 R 74 -78 R 39 -54 R 38 -69 R 35 -71 R 28 -57 R
28 -44 R 32 -40 R 41 -40 R 56 -45 R 61 -44 R 74 -48 R 106 -67 R 133 -83 R
59 -41 R 38 -29 R 33 -30 R 27 -32 R 26 -37 R 23 -38 R 19 -30 R 19 -22 R
22 -20 R 28 -20 R 38 -23 R 57 -28 R 65 -30 R 131 -58 R 23 -11 R 34 -17 R
28 -16 R 24 -16 R 20 -17 R 19 -20 R 17 -18 R 17 -13 R 15 -9 R 20 -9 R
25 -9 R 37 -10 R 56 -14 R 94 -22 R 20 -4 R 43 -10 R 27 -7 R 24 -7 R 20 -7 R
18 -7 R 16 -8 R 15 -5 R 13 -4 R 15 -3 R 18 -3 R 25 -3 R 36 -4 R 57 -6 R
96 -8 R 20 -2 R 29 -3 R 24 -3 R 21 -3 R 17 -3 R 17 -4 R 14 -2 R 14 -3 R
13 -1 R 16 -2 R 21 -1 R 29 -2 R 31 -3 R D 70 setlinewidth 5750 5425 M
41 -40 R 108 -117 R 78 -104 R 38 -60 R 27 -48 R 29 -59 R 27 -62 R 62 -172 R
24 -80 R 22 -72 R 43 -136 R 43 -115 R 51 -110 R 54 -100 R 60 -96 R 74 -108 R
99 -134 R 121 -157 R 145 -183 R 94 -123 R 37 -55 R 37 -61 R 45 -96 R
28 -76 R 26 -89 R 22 -80 R 22 -64 R 21 -49 R 27 -49 R 35 -53 R 51 -67 R
56 -67 R 70 -79 R 47 -55 R 23 -31 R 28 -43 R 17 -31 R 15 -34 R 14 -38 R
12 -29 R 12 -22 R 12 -17 R 16 -17 R 21 -18 R 31 -22 R 49 -31 R 41 -24 R
19 -13 R 19 -12 R 15 -12 R 12 -12 R 11 -12 R 11 -12 R 9 -9 R 9 -7 R 9 -4 R
11 -5 R 16 -4 R 22 -6 R 36 -7 R 59 -12 R 13 -3 R 15 -4 R 12 -4 R 11 -3 R
9 -4 R 9 -3 R 8 -3 R 8 -1 R 10 -2 R 12 -1 R 18 -2 R 27 -2 R 45 -3 R 20 -2 R
16 -1 R 15 -2 R 12 -1 R 10 -2 R 10 -1 R 8 -2 R 8 -1 R 7 0 R 8 -1 R 11 -1 R
15 0 R 23 -1 R 36 -2 R 36 -1 R 16 -1 R 15 -1 R 12 0 R 10 -1 R 9 -1 R 9 -1 R
7 0 R 7 -1 R 8 0 R 10 -1 R 14 0 R 21 -1 R 33 -1 R 47 -1 R 13 0 R 15 0 R
11 -1 R 10 0 R 9 -1 R 9 0 R 7 -1 R 8 0 R 8 -1 R 11 0 R 15 0 R 24 -1 R 38 0 R
28 -1 R 16 0 R 14 -1 R 12 0 R 10 0 R 9 -1 R 8 0 R 7 0 R 7 -1 R 8 0 R 10 0 R
14 -1 R 20 0 R 32 -1 R 47 0 R 13 -1 R 14 0 R 12 0 R 9 0 R 9 -1 R 8 0 R 8 0 R
7 -1 R 8 0 R 11 0 R 16 0 R 23 -1 R 38 0 R 26 -1 R 16 0 R 14 0 R 12 -1 R
10 0 R 9 0 R 8 0 R 7 -1 R 7 0 R 7 0 R 10 0 R 14 -1 R 20 0 R 32 0 R 46 -1 R
13 0 R 13 -1 R 12 0 R 9 0 R 9 0 R 8 -1 R 7 0 R 7 0 R 9 0 R 11 -1 R 15 0 R
23 0 R 37 -1 R 26 0 R 16 0 R 14 -1 R 11 0 R 10 0 R 3 0 R D 110 setlinewidth
5750 5425 M 41 -51 R 138 -202 R 49 -89 R 51 -107 R 40 -100 R 58 -184 R
37 -146 R 54 -248 R 45 -191 R 34 -129 R 31 -103 R 30 -91 R 31 -86 R 37 -96 R
38 -91 R 66 -152 R 82 -179 R 132 -280 R 41 -93 R 39 -97 R 21 -62 R 22 -77 R
18 -83 R 18 -97 R 17 -96 R 15 -72 R 15 -54 R 18 -55 R 25 -60 R 37 -76 R
57 -107 R 8 -16 R 17 -36 R 9 -24 R 8 -25 R 8 -27 R 6 -28 R 7 -24 R 6 -17 R
6 -12 R 9 -11 R 11 -12 R 17 -14 R 26 -19 R 11 -7 R 9 -7 R 7 -5 R 6 -6 R
5 -6 R 4 -5 R 5 -6 R 4 -4 R 3 -2 R 5 -2 R 6 -2 R 8 -2 R 13 -3 R 20 -3 R
12 -3 R 7 -1 R 10 -3 R 4 -1 R 5 -2 R 4 -1 R 3 -2 R 4 -1 R 3 -1 R 4 0 R
4 -1 R 7 0 R 11 -1 R 18 -1 R 14 -1 R 7 -1 R 7 -1 R 5 0 R 5 -1 R 3 -1 R 4 0 R
3 -1 R 3 0 R 4 -1 R 4 0 R 4 0 R 9 -1 R 13 0 R 21 -1 R 7 0 R 7 -1 R 5 0 R
5 0 R 2 -1 R 4 0 R 4 -1 R 3 0 R 3 0 R 3 -1 R 4 0 R 7 0 R 9 0 R 15 -1 R
19 -1 R 6 0 R 6 0 R 5 0 R 4 -1 R 4 0 R 3 0 R 3 -1 R 3 0 R 3 0 R 3 -1 R 6 0 R
7 0 R 13 0 R 20 -1 R 6 0 R 7 -1 R 5 0 R 5 0 R 3 0 R 3 -1 R 4 0 R 2 0 R
3 -1 R 3 0 R 3 0 R 5 0 R 8 -1 R 11 0 R 20 0 R 7 -1 R 6 0 R 5 0 R 5 0 R
3 -1 R 4 0 R 3 0 R 3 -1 R 2 0 R 3 0 R 3 0 R 5 -1 R 8 0 R 11 0 R 19 -1 R
7 0 R 6 0 R 5 0 R 4 -1 R 4 0 R 3 0 R 3 0 R 3 -1 R 3 0 R 3 0 R 3 0 R 4 -1 R
8 0 R 11 0 R 18 -1 R 7 0 R 6 0 R 5 0 R 5 -1 R 3 0 R 3 0 R 3 0 R 3 -1 R 3 0 R
3 0 R 3 0 R 4 -1 R 7 0 R 12 0 R 18 -1 R 6 0 R 6 0 R 5 0 R 4 0 R 4 -1 R 3 0 R
3 0 R 3 -1 R 2 0 R 3 0 R 4 0 R 5 0 R 8 -1 R 13 0 R 21 -1 R 4 0 R 5 0 R 4 0 R
3 0 R 4 -1 R 3 0 R 2 0 R 3 -1 R 3 0 R 3 0 R 5 0 R 8 -1 R 12 0 R 21 0 R
4 -1 R 5 0 R 4 0 R 3 0 R 3 0 R 3 -1 R 3 0 R 2 0 R 3 0 R 3 -1 R 4 0 R 7 0 R
11 0 R 17 -1 R 6 0 R 5 0 R 5 0 R 4 -1 R 3 0 R 3 0 R 3 0 R 3 -1 R 2 0 R 3 0 R
3 0 R 5 -1 R 7 0 R 12 0 R 20 -1 R 4 0 R 4 0 R 4 0 R 3 0 R 4 -1 R 2 0 R 3 0 R
2 0 R 3 -1 R 2 0 R 5 0 R 6 0 R 11 -1 R 17 0 R 5 0 R 5 0 R 5 0 R 3 -1 R 3 0 R
3 0 R 3 0 R 2 -1 R 3 0 R 2 0 R 3 0 R 5 -1 R 8 0 R 11 0 R 17 -1 R 4 0 R 5 0 R
4 0 R 3 0 R 3 -1 R 3 0 R 2 0 R 2 0 R 3 -1 R 3 0 R 4 0 R 6 0 R 10 0 R 16 -1 R
5 0 R 5 0 R 4 0 R 4 -1 R 3 0 R 2 0 R 3 0 R 2 -1 R 2 0 R 3 0 R 2 0 R 4 0 R
7 -1 R 10 0 R 16 0 R 4 0 R 5 -1 R 4 0 R 3 0 R 3 0 R 3 0 R 2 -1 R 3 0 R 2 0 R
2 0 R 3 -1 R 4 0 R 7 0 R 10 0 R 17 -1 R 4 0 R 4 0 R 4 0 R 3 0 R 2 -1 R 3 0 R
2 0 R 2 0 R 2 -1 R 3 0 R 3 0 R 6 0 R 8 0 R 14 -1 R 6 0 R 5 0 R 4 0 R 4 0 R
3 -1 R 2 0 R 3 0 R 2 0 R 2 -1 R 2 0 R 2 0 R 4 0 R 5 0 R 8 -1 R 12 0 R 8 0 R
4 0 R 5 0 R 3 -1 R 3 0 R 2 0 R 3 0 R 2 -1 R 2 0 R 2 0 R 2 0 R 3 0 R 5 -1 R
7 0 R 12 0 R 9 0 R 4 0 R 4 -1 R 3 0 R 3 0 R 3 0 R 2 0 R 2 -1 R 2 0 R 2 0 R
2 0 R 3 -1 R 5 0 R 7 0 R 12 0 R 8 0 R 4 -1 R 4 0 R 3 0 R 3 0 R 2 0 R 2 -1 R
2 0 R 2 0 R 2 0 R 2 0 R 3 -1 R 4 0 R 7 0 R 11 0 R 9 -1 R 4 0 R 4 0 R 3 0 R
3 0 R 2 0 R 2 -1 R 2 0 R 2 0 R 2 0 R 2 -1 R 2 0 R 5 0 R 6 0 R 11 0 R 9 -1 R
3 0 R 4 0 R 3 0 R 2 0 R 3 -1 R 2 0 R 2 0 R 1 0 R 2 -1 R 2 0 R 3 0 R 4 0 R
6 0 R 10 -1 R 9 0 R 4 0 R 3 0 R 3 0 R 3 0 R 2 -1 R 2 0 R 2 0 R 1 0 R 2 -1 R
2 0 R 2 0 R 4 0 R 7 0 R 10 -1 R 8 0 R 3 0 R 4 0 R 2 0 R 3 0 R 2 -1 R 2 0 R
2 0 R 1 -1 R 2 0 R 2 0 R 2 0 R 4 0 R 6 0 R 11 -1 R 6 0 R 3 0 R 4 0 R 2 0 R
3 0 R 1 -1 R 2 0 R 2 0 R 1 0 R 2 -1 R 2 0 R 2 0 R 3 0 R 5 0 R 8 -1 R 11 0 R
3 0 R 3 0 R 2 0 R 2 0 R 2 -1 R 2 0 R 1 0 R 2 0 R 1 -1 R 2 0 R 2 0 R 3 0 R
6 0 R 8 -1 R 8 0 R 3 0 R 3 0 R 3 0 R 2 0 R 1 -1 R 2 0 R 1 0 R 2 0 R 1 -1 R
2 0 R 2 0 R 2 0 R 5 0 R 7 -1 R 11 0 R 2 0 R 3 0 R 2 0 R 2 0 R 2 -1 R 1 0 R
1 0 R 2 0 R 1 -1 R 2 0 R 2 0 R 3 0 R 5 0 R 8 -1 R 5 0 R 3 0 R 2 0 R 3 0 R
1 0 R 2 0 R 1 -1 R 2 0 R 1 0 R 1 0 R 1 -1 R 2 0 R 2 0 R 4 0 R 6 0 R 9 -1 R
3 0 R 2 0 R 2 0 R 2 0 R 2 0 R 1 -1 R 1 0 R 1 0 R 1 0 R 1 -1 R 2 0 R 2 0 R
4 0 R 6 0 R 9 -1 R 2 0 R 2 0 R 1 0 R 2 0 R 1 0 R 1 -1 R 3 0 R 11 -3 R 4 -1 R
1 0 R 0 -1 R D 30 setlinewidth 8585 4782 M 53 0 R 52 0 R 53 0 R 53 0 R
52 0 R 53 0 R 53 0 R 52 0 R 53 0 R D 70 setlinewidth 8585 4361 M 53 0 R
52 0 R 53 0 R 53 0 R 52 0 R 53 0 R 53 0 R 52 0 R 53 0 R D 110 setlinewidth
8585 3939 M 53 0 R 52 0 R 53 0 R 53 0 R 52 0 R 53 0 R 53 0 R 52 0 R 53 0 R D
gsave 9112 4629 translate 0 0 M 1.1 dup scale
(0) show grestore gsave 9112 4207 translate 0 0 M 1.1 dup scale
(1) show grestore gsave 9112 3785 translate 0 0 M 1.1 dup scale
(2) show grestore gsave 9314 5078 translate 0 0 M -2013.8 0 N
(ln) show
%%IncludeResource: font Symbol
423.333 /Symbol STDFONT
(L) show
%%IncludeResource: font Helvetica
423.333 /Helvetica STDFONT
(=-ln) show
%%IncludeResource: font Symbol
423.333 /Symbol STDFONT
(m) show
%%IncludeResource: font Helvetica
423.333 /Helvetica STDFONT
(+) show grestore
%%PageTrailer
end
%%PageResources: font Helvetica
%%+ font Symbol
%%Trailer
%%Pages: 1
%%DocumentNeededResources: font Helvetica
%%+ font Symbol
%%EOF
