%!PS-Adobe-3.0 EPSF-3.0
%%BoundingBox: 0 0 283 269
%%Title: Graphics produced by IDL
%%For: dacia@Lserver, /home/dacia/work/subhalo_model
%%Creator: IDL Version 7.0 (linux x86_64 m64)
%%CreationDate: Fri May  7 15:08:37 2010
%%DocumentData: Clean7bit
%%Requirements: color
%%LanguageLevel: 1
%%PageOrder: Ascend
%%Pages: (atend)
%%DocumentNeededResources: (atend)
%%EndComments
%%BeginProlog
%+ prolog.ps -- Prolog for IDL generated PostScript files
%+ Copyright (c) 1988-2007 ITT Visual Information Solutions. All Rights Reserved.
%v 5
/$IDL_DICT 40 dict def $IDL_DICT begin /bdef { bind def } bind def /C
{currentpoint newpath moveto} bdef /CP {currentpoint} bdef /D {currentpoint
stroke moveto} bdef /F {closepath fill} bdef /K { setgray } bdef /M {moveto}
bdef /N {rmoveto} bdef /P {lineto} bdef /R {rlineto} bdef /S {gsave show
grestore} bdef /X {currentpoint pop} bdef /Z {gsave currentpoint lineto 20
setlinewidth 1 setlinecap stroke grestore} bdef /L0 {[] 0 setdash} bdef /L1
{[40 100] 0 setdash} bdef /L2 {[200 200] 0 setdash} bdef /L3 {[200 100 50
100] 0 setdash} bdef /L4 {[300 100 50 100 50 100 50 100] 0 setdash} bdef /L5
{[400 200] 0 setdash} bdef /STDFONT { findfont exch scalefont setfont } bdef
/ISOFONT { findfont dup length dict begin { 1 index /FID ne {def} {pop pop}
ifelse } forall /Encoding ISOLatin1Encoding def currentdict end /idltmpfont
exch definefont exch scalefont setfont } bdef /ISOBULLET { gsave /Helvetica
findfont exch scalefont setfont (\267) show currentpoint grestore moveto}
bdef /MITERLIMIT { 2.5 setmiterlimit } bdef end
%%EndProlog
%%Page: 0 1
%%PageRequirements: color
%%PageResources: (atend)
%%PageOrientation: Portrait
%%PageBoundingBox: 0 0 283 269
%%BeginPageSetup
$IDL_DICT begin 0.0283465 dup scale MITERLIMIT
%%IncludeResource: font Helvetica
423.333 /Helvetica STDFONT
%%EndPageSetup
0.000 0.000 0.000 setrgbcolor gsave 5700 176 translate 0 0 M 1.1 dup scale
-576.368 0 N
(t / Gyr) show grestore gsave 446 5359 translate 0 0 M 90 rotate
1.1 dup scale -611.293 0 N
(j\(t\)/j\(0\)) show grestore 40 setlinewidth L0 1600 5359 M 4100 0 R D
1600 5359 M 0 158 R D gsave 1600 4720 translate 0 0 M 1.21 dup scale
-58.8433 0 N
( ) show grestore 2421 5359 M 0 158 R D gsave 2421 4720 translate 0 0 M
1.21 dup scale -58.8433 0 N
( ) show grestore 3242 5359 M 0 158 R D gsave 3242 4720 translate 0 0 M
1.21 dup scale -58.8433 0 N
( ) show grestore 4062 5359 M 0 158 R D gsave 4062 4720 translate 0 0 M
1.21 dup scale -58.8433 0 N
( ) show grestore 4883 5359 M 0 158 R D gsave 4883 4720 translate 0 0 M
1.21 dup scale -58.8433 0 N
( ) show grestore 1805 5359 M 0 79 R D 2010 5359 M 0 79 R D 2216 5359 M
0 79 R D 2626 5359 M 0 79 R D 2831 5359 M 0 79 R D 3036 5359 M 0 79 R D
3447 5359 M 0 79 R D 3652 5359 M 0 79 R D 3857 5359 M 0 79 R D 4268 5359 M
0 79 R D 4473 5359 M 0 79 R D 4678 5359 M 0 79 R D 5089 5359 M 0 79 R D
5294 5359 M 0 79 R D 5499 5359 M 0 79 R D 1600 9310 M 4100 0 R D 1600 9310 M
0 -158 R D 2421 9310 M 0 -158 R D 3242 9310 M 0 -158 R D 4062 9310 M
0 -158 R D 4883 9310 M 0 -158 R D 1805 9310 M 0 -79 R D 2010 9310 M 0 -79 R
D 2216 9310 M 0 -79 R D 2626 9310 M 0 -79 R D 2831 9310 M 0 -79 R D
3036 9310 M 0 -79 R D 3447 9310 M 0 -79 R D 3652 9310 M 0 -79 R D
3857 9310 M 0 -79 R D 4268 9310 M 0 -79 R D 4473 9310 M 0 -79 R D
4678 9310 M 0 -79 R D 5089 9310 M 0 -79 R D 5294 9310 M 0 -79 R D
5499 9310 M 0 -79 R D 1600 5359 M 0 3951 R D 1600 6109 M 164 0 R D
gsave 1466 5938 translate 0 0 M 1.21 dup scale -588.433 0 N
(0.2) show grestore 1600 6862 M 164 0 R D gsave 1466 6692 translate 0 0 M
1.21 dup scale -588.433 0 N
(0.4) show grestore 1600 7615 M 164 0 R D gsave 1466 7445 translate 0 0 M
1.21 dup scale -588.433 0 N
(0.6) show grestore 1600 8368 M 164 0 R D gsave 1466 8198 translate 0 0 M
1.21 dup scale -588.433 0 N
(0.8) show grestore 1600 9122 M 164 0 R D gsave 1466 8951 translate 0 0 M
1.21 dup scale -588.433 0 N
(1.0) show grestore 1600 5544 M 82 0 R D 1600 5732 M 82 0 R D 1600 5920 M
82 0 R D 1600 6297 M 82 0 R D 1600 6485 M 82 0 R D 1600 6674 M 82 0 R D
1600 7050 M 82 0 R D 1600 7239 M 82 0 R D 1600 7427 M 82 0 R D 1600 7804 M
82 0 R D 1600 7992 M 82 0 R D 1600 8180 M 82 0 R D 1600 8557 M 82 0 R D
1600 8745 M 82 0 R D 1600 8933 M 82 0 R D 1600 9310 M 82 0 R D 5700 5359 M
0 3951 R D 5700 6109 M -164 0 R D 5700 6862 M -164 0 R D 5700 7615 M
-164 0 R D 5700 8368 M -164 0 R D 5700 9122 M -164 0 R D 5700 5544 M -82 0 R
D 5700 5732 M -82 0 R D 5700 5920 M -82 0 R D 5700 6297 M -82 0 R D
5700 6485 M -82 0 R D 5700 6674 M -82 0 R D 5700 7050 M -82 0 R D
5700 7239 M -82 0 R D 5700 7427 M -82 0 R D 5700 7804 M -82 0 R D
5700 7992 M -82 0 R D 5700 8180 M -82 0 R D 5700 8557 M -82 0 R D
5700 8745 M -82 0 R D 5700 8933 M -82 0 R D 5700 9310 M -82 0 R D L2
1600 9122 M 410 -189 R 411 -640 R 410 -490 R 411 -188 R 410 -527 R
410 -490 R 411 -602 R 410 -452 R 411 -185 R D L0 1600 9122 M 41 -34 R
109 -100 R 62 -67 R 56 -72 R 60 -95 R 69 -141 R 18 -43 R 28 -67 R 28 -67 R
28 -62 R 31 -60 R 48 -76 R 61 -72 R 80 -78 R 82 -69 R 164 -125 R 165 -118 R
164 -117 R 164 -127 R 39 -37 R 36 -38 R 47 -61 R 36 -59 R 33 -58 R 27 -41 R
26 -30 R 32 -28 R 40 -29 R 53 -30 R 83 -41 R 108 -49 R 165 -73 R 39 -20 R
43 -23 R 35 -22 R 30 -25 R 27 -29 R 25 -35 R 21 -32 R 21 -28 R 23 -26 R
29 -27 R 39 -31 R 59 -41 R 94 -59 R 63 -39 R 31 -20 R 33 -23 R 29 -23 R
24 -23 R 21 -24 R 19 -30 R 17 -35 R 14 -32 R 14 -28 R 16 -27 R 21 -29 R
28 -33 R 43 -43 R 68 -64 R 26 -24 R 22 -22 R 20 -21 R 17 -21 R 14 -22 R
12 -23 R 11 -30 R 11 -34 R 8 -32 R 9 -29 R 10 -29 R 13 -31 R 19 -35 R
28 -46 R 40 -59 R 9 -14 R 9 -16 R 8 -15 R 7 -15 R 6 -16 R 4 -19 R 5 -25 R
4 -37 R 5 -42 R 4 -31 R 4 -18 R 6 -15 R 7 -7 R D
gsave 5417 8745 translate 0 0 M -1381.34 0 N
(ln) show
%%IncludeResource: font Symbol
423.333 /Symbol STDFONT
(L) show
%%IncludeResource: font Helvetica
423.333 /Helvetica STDFONT
(=3.0) show grestore 5700 5359 M 4100 0 R D 5700 5359 M 0 158 R D
gsave 5700 4720 translate 0 0 M 1.21 dup scale -58.8433 0 N
( ) show grestore 6521 5359 M 0 158 R D gsave 6521 4720 translate 0 0 M
1.21 dup scale -58.8433 0 N
( ) show grestore 7342 5359 M 0 158 R D gsave 7342 4720 translate 0 0 M
1.21 dup scale -58.8433 0 N
( ) show grestore 8163 5359 M 0 158 R D gsave 8163 4720 translate 0 0 M
1.21 dup scale -58.8433 0 N
( ) show grestore 8983 5359 M 0 158 R D gsave 8983 4720 translate 0 0 M
1.21 dup scale -58.8433 0 N
( ) show grestore 5905 5359 M 0 79 R D 6110 5359 M 0 79 R D 6316 5359 M
0 79 R D 6726 5359 M 0 79 R D 6931 5359 M 0 79 R D 7137 5359 M 0 79 R D
7547 5359 M 0 79 R D 7752 5359 M 0 79 R D 7957 5359 M 0 79 R D 8368 5359 M
0 79 R D 8573 5359 M 0 79 R D 8778 5359 M 0 79 R D 9189 5359 M 0 79 R D
9394 5359 M 0 79 R D 9599 5359 M 0 79 R D 5700 9310 M 4100 0 R D 5700 9310 M
0 -158 R D 6521 9310 M 0 -158 R D 7342 9310 M 0 -158 R D 8163 9310 M
0 -158 R D 8983 9310 M 0 -158 R D 5905 9310 M 0 -79 R D 6110 9310 M 0 -79 R
D 6316 9310 M 0 -79 R D 6726 9310 M 0 -79 R D 6931 9310 M 0 -79 R D
7137 9310 M 0 -79 R D 7547 9310 M 0 -79 R D 7752 9310 M 0 -79 R D
7957 9310 M 0 -79 R D 8368 9310 M 0 -79 R D 8573 9310 M 0 -79 R D
8778 9310 M 0 -79 R D 9189 9310 M 0 -79 R D 9394 9310 M 0 -79 R D
9599 9310 M 0 -79 R D 5700 5359 M 0 3951 R D 5700 6109 M 164 0 R D
gsave 5566 5938 translate 0 0 M 1.21 dup scale -117.687 0 N
( ) show grestore 5700 6862 M 164 0 R D gsave 5566 6692 translate 0 0 M
1.21 dup scale -117.687 0 N
( ) show grestore 5700 7615 M 164 0 R D gsave 5566 7445 translate 0 0 M
1.21 dup scale -117.687 0 N
( ) show grestore 5700 8368 M 164 0 R D gsave 5566 8198 translate 0 0 M
1.21 dup scale -117.687 0 N
( ) show grestore 5700 9122 M 164 0 R D gsave 5566 8951 translate 0 0 M
1.21 dup scale -117.687 0 N
( ) show grestore 5700 5544 M 82 0 R D 5700 5732 M 82 0 R D 5700 5920 M
82 0 R D 5700 6297 M 82 0 R D 5700 6485 M 82 0 R D 5700 6674 M 82 0 R D
5700 7050 M 82 0 R D 5700 7239 M 82 0 R D 5700 7427 M 82 0 R D 5700 7804 M
82 0 R D 5700 7992 M 82 0 R D 5700 8180 M 82 0 R D 5700 8557 M 82 0 R D
5700 8745 M 82 0 R D 5700 8933 M 82 0 R D 5700 9310 M 82 0 R D 9800 5359 M
0 3951 R D 9800 6109 M -164 0 R D 9800 6862 M -164 0 R D 9800 7615 M
-164 0 R D 9800 8368 M -164 0 R D 9800 9122 M -164 0 R D 9800 5544 M -82 0 R
D 9800 5732 M -82 0 R D 9800 5920 M -82 0 R D 9800 6297 M -82 0 R D
9800 6485 M -82 0 R D 9800 6674 M -82 0 R D 9800 7050 M -82 0 R D
9800 7239 M -82 0 R D 9800 7427 M -82 0 R D 9800 7804 M -82 0 R D
9800 7992 M -82 0 R D 9800 8180 M -82 0 R D 9800 8557 M -82 0 R D
9800 8745 M -82 0 R D 9800 8933 M -82 0 R D 9800 9310 M -82 0 R D L2
5700 9122 M 410 -189 R 411 -640 R 410 -490 R 411 -188 R 410 -527 R
411 -490 R 410 -602 R 410 -452 R 411 -185 R D L0 5700 9122 M 41 -26 R
109 -76 R 85 -74 R 53 -57 R 55 -74 R 39 -63 R 50 -95 R 57 -115 R 52 -88 R
54 -70 R 67 -69 R 84 -72 R 99 -75 R 165 -112 R 164 -106 R 164 -105 R
164 -108 R 99 -75 R 76 -73 R 39 -51 R 39 -63 R 34 -68 R 30 -53 R 28 -41 R
32 -38 R 42 -37 R 56 -43 R 62 -40 R 75 -45 R 108 -63 R 134 -78 R 43 -28 R
42 -29 R 35 -29 R 30 -31 R 26 -36 R 24 -46 R 21 -47 R 21 -42 R 21 -36 R
26 -39 R 35 -42 R 51 -55 R 81 -77 R 71 -66 R 23 -22 R 28 -28 R 25 -28 R
22 -28 R 17 -29 R 16 -33 R 14 -44 R 13 -48 R 13 -47 R 12 -40 R 14 -41 R
19 -46 R 29 -56 R 43 -75 R 28 -46 R 12 -18 R 12 -23 R 11 -21 R 9 -21 R
8 -21 R 6 -23 R 6 -29 R 6 -41 R 5 -56 R 5 -54 R 5 -38 R 5 -25 R 8 -19 R
7 -7 R D gsave 9640 8745 translate 0 0 M -2542.96 0 N
(ln) show
%%IncludeResource: font Symbol
423.333 /Symbol STDFONT
(L) show
%%IncludeResource: font Helvetica
423.333 /Helvetica STDFONT
(=-ln) show
%%IncludeResource: font Symbol
423.333 /Symbol STDFONT
(m) show
%%IncludeResource: font Helvetica
423.333 /Helvetica STDFONT
(+0.0) show grestore 1600 1408 M 4100 0 R D 1600 1408 M 0 158 R D
gsave 1600 769 translate 0 0 M 1.21 dup scale -117.687 0 N
(0) show grestore 2421 1408 M 0 158 R D gsave 2421 769 translate 0 0 M
1.21 dup scale -117.687 0 N
(2) show grestore 3242 1408 M 0 158 R D gsave 3242 769 translate 0 0 M
1.21 dup scale -117.687 0 N
(4) show grestore 4062 1408 M 0 158 R D gsave 4062 769 translate 0 0 M
1.21 dup scale -117.687 0 N
(6) show grestore 4883 1408 M 0 158 R D gsave 4883 769 translate 0 0 M
1.21 dup scale -117.687 0 N
(8) show grestore 1805 1408 M 0 79 R D 2010 1408 M 0 79 R D 2216 1408 M
0 79 R D 2626 1408 M 0 79 R D 2831 1408 M 0 79 R D 3036 1408 M 0 79 R D
3447 1408 M 0 79 R D 3652 1408 M 0 79 R D 3857 1408 M 0 79 R D 4268 1408 M
0 79 R D 4473 1408 M 0 79 R D 4678 1408 M 0 79 R D 5089 1408 M 0 79 R D
5294 1408 M 0 79 R D 5499 1408 M 0 79 R D 1600 5359 M 4100 0 R D 1600 5359 M
0 -158 R D 2421 5359 M 0 -158 R D 3242 5359 M 0 -158 R D 4062 5359 M
0 -158 R D 4883 5359 M 0 -158 R D 1805 5359 M 0 -79 R D 2010 5359 M 0 -79 R
D 2216 5359 M 0 -79 R D 2626 5359 M 0 -79 R D 2831 5359 M 0 -79 R D
3036 5359 M 0 -79 R D 3447 5359 M 0 -79 R D 3652 5359 M 0 -79 R D
3857 5359 M 0 -79 R D 4268 5359 M 0 -79 R D 4473 5359 M 0 -79 R D
4678 5359 M 0 -79 R D 5089 5359 M 0 -79 R D 5294 5359 M 0 -79 R D
5499 5359 M 0 -79 R D 1600 1408 M 0 3951 R D 1600 2158 M 164 0 R D
gsave 1466 1987 translate 0 0 M 1.21 dup scale -588.433 0 N
(0.2) show grestore 1600 2911 M 164 0 R D gsave 1466 2740 translate 0 0 M
1.21 dup scale -588.433 0 N
(0.4) show grestore 1600 3664 M 164 0 R D gsave 1466 3494 translate 0 0 M
1.21 dup scale -588.433 0 N
(0.6) show grestore 1600 4417 M 164 0 R D gsave 1466 4247 translate 0 0 M
1.21 dup scale -588.433 0 N
(0.8) show grestore 1600 5171 M 164 0 R D gsave 1466 5000 translate 0 0 M
1.21 dup scale -588.433 0 N
(1.0) show grestore 1600 1593 M 82 0 R D 1600 1781 M 82 0 R D 1600 1969 M
82 0 R D 1600 2346 M 82 0 R D 1600 2534 M 82 0 R D 1600 2723 M 82 0 R D
1600 3099 M 82 0 R D 1600 3287 M 82 0 R D 1600 3476 M 82 0 R D 1600 3852 M
82 0 R D 1600 4041 M 82 0 R D 1600 4229 M 82 0 R D 1600 4606 M 82 0 R D
1600 4794 M 82 0 R D 1600 4982 M 82 0 R D 1600 5359 M 82 0 R D 5700 1408 M
0 3951 R D 5700 2158 M -164 0 R D 5700 2911 M -164 0 R D 5700 3664 M
-164 0 R D 5700 4417 M -164 0 R D 5700 5171 M -164 0 R D 5700 1593 M -82 0 R
D 5700 1781 M -82 0 R D 5700 1969 M -82 0 R D 5700 2346 M -82 0 R D
5700 2534 M -82 0 R D 5700 2723 M -82 0 R D 5700 3099 M -82 0 R D
5700 3287 M -82 0 R D 5700 3476 M -82 0 R D 5700 3852 M -82 0 R D
5700 4041 M -82 0 R D 5700 4229 M -82 0 R D 5700 4606 M -82 0 R D
5700 4794 M -82 0 R D 5700 4982 M -82 0 R D 5700 5359 M -82 0 R D L2
1600 5171 M 410 -226 R 411 -829 R 410 -151 R 411 -113 R 410 -452 R
410 -188 R 411 -377 R 410 -188 R 411 -301 R 406 -336 R D L0 1600 5171 M
41 -32 R 127 -113 R 74 -90 R 52 -86 R 36 -82 R 31 -97 R 30 -115 R 26 -97 R
25 -70 R 25 -50 R 32 -44 R 30 -32 R 30 -27 R 36 -27 R 50 -34 R 78 -46 R
105 -57 R 154 -80 R 164 -82 R 164 -82 R 109 -62 R 19 -13 R 31 -23 R 42 -40 R
27 -36 R 22 -37 R 20 -40 R 17 -31 R 16 -21 R 18 -17 R 24 -15 R 32 -15 R
36 -14 R 56 -18 R 84 -23 R 164 -41 R 164 -41 R 72 -20 R 20 -6 R 39 -13 R
26 -11 R 23 -12 R 20 -14 R 18 -17 R 16 -22 R 14 -20 R 14 -16 R 16 -15 R
20 -14 R 28 -16 R 42 -18 R 69 -24 R 122 -39 R 164 -51 R 35 -11 R 18 -7 R
41 -16 R 22 -10 R 22 -12 R 17 -13 R 16 -15 R 14 -21 R 13 -21 R 12 -19 R
12 -16 R 15 -15 R 21 -15 R 30 -17 R 46 -22 R 80 -33 R 159 -62 R 15 -7 R
58 -26 R 15 -8 R 18 -12 R 15 -13 R 13 -14 R 12 -19 R 11 -21 R 10 -21 R
9 -16 R 12 -15 R 15 -16 R 21 -17 R 33 -21 R 54 -30 R 105 -52 R 33 -17 R
13 -7 R 31 -18 R 14 -9 R 15 -12 R 12 -12 R 10 -13 R 10 -16 R 8 -21 R 9 -22 R
7 -18 R 9 -16 R 10 -15 R 15 -17 R 1 -1 R D gsave 5417 4794 translate 0 0 M
-1381.34 0 N
(ln) show
%%IncludeResource: font Symbol
423.333 /Symbol STDFONT
(L) show
%%IncludeResource: font Helvetica
423.333 /Helvetica STDFONT
(=5.6) show grestore 5700 1408 M 4100 0 R D 5700 1408 M 0 158 R D
gsave 5700 769 translate 0 0 M 1.21 dup scale -117.687 0 N
(0) show grestore 6521 1408 M 0 158 R D gsave 6521 769 translate 0 0 M
1.21 dup scale -117.687 0 N
(2) show grestore 7342 1408 M 0 158 R D gsave 7342 769 translate 0 0 M
1.21 dup scale -117.687 0 N
(4) show grestore 8163 1408 M 0 158 R D gsave 8163 769 translate 0 0 M
1.21 dup scale -117.687 0 N
(6) show grestore 8983 1408 M 0 158 R D gsave 8983 769 translate 0 0 M
1.21 dup scale -117.687 0 N
(8) show grestore 5905 1408 M 0 79 R D 6110 1408 M 0 79 R D 6316 1408 M
0 79 R D 6726 1408 M 0 79 R D 6931 1408 M 0 79 R D 7137 1408 M 0 79 R D
7547 1408 M 0 79 R D 7752 1408 M 0 79 R D 7957 1408 M 0 79 R D 8368 1408 M
0 79 R D 8573 1408 M 0 79 R D 8778 1408 M 0 79 R D 9189 1408 M 0 79 R D
9394 1408 M 0 79 R D 9599 1408 M 0 79 R D 5700 5359 M 4100 0 R D 5700 5359 M
0 -158 R D 6521 5359 M 0 -158 R D 7342 5359 M 0 -158 R D 8163 5359 M
0 -158 R D 8983 5359 M 0 -158 R D 5905 5359 M 0 -79 R D 6110 5359 M 0 -79 R
D 6316 5359 M 0 -79 R D 6726 5359 M 0 -79 R D 6931 5359 M 0 -79 R D
7137 5359 M 0 -79 R D 7547 5359 M 0 -79 R D 7752 5359 M 0 -79 R D
7957 5359 M 0 -79 R D 8368 5359 M 0 -79 R D 8573 5359 M 0 -79 R D
8778 5359 M 0 -79 R D 9189 5359 M 0 -79 R D 9394 5359 M 0 -79 R D
9599 5359 M 0 -79 R D 5700 1408 M 0 3951 R D 5700 2158 M 164 0 R D
gsave 5566 1987 translate 0 0 M 1.21 dup scale -117.687 0 N
( ) show grestore 5700 2911 M 164 0 R D gsave 5566 2740 translate 0 0 M
1.21 dup scale -117.687 0 N
( ) show grestore 5700 3664 M 164 0 R D gsave 5566 3494 translate 0 0 M
1.21 dup scale -117.687 0 N
( ) show grestore 5700 4417 M 164 0 R D gsave 5566 4247 translate 0 0 M
1.21 dup scale -117.687 0 N
( ) show grestore 5700 5171 M 164 0 R D gsave 5566 5000 translate 0 0 M
1.21 dup scale -117.687 0 N
( ) show grestore 5700 1593 M 82 0 R D 5700 1781 M 82 0 R D 5700 1969 M
82 0 R D 5700 2346 M 82 0 R D 5700 2534 M 82 0 R D 5700 2723 M 82 0 R D
5700 3099 M 82 0 R D 5700 3287 M 82 0 R D 5700 3476 M 82 0 R D 5700 3852 M
82 0 R D 5700 4041 M 82 0 R D 5700 4229 M 82 0 R D 5700 4606 M 82 0 R D
5700 4794 M 82 0 R D 5700 4982 M 82 0 R D 5700 5359 M 82 0 R D 9800 1408 M
0 3951 R D 9800 2158 M -164 0 R D 9800 2911 M -164 0 R D 9800 3664 M
-164 0 R D 9800 4417 M -164 0 R D 9800 5171 M -164 0 R D 9800 1593 M -82 0 R
D 9800 1781 M -82 0 R D 9800 1969 M -82 0 R D 9800 2346 M -82 0 R D
9800 2534 M -82 0 R D 9800 2723 M -82 0 R D 9800 3099 M -82 0 R D
9800 3287 M -82 0 R D 9800 3476 M -82 0 R D 9800 3852 M -82 0 R D
9800 4041 M -82 0 R D 9800 4229 M -82 0 R D 9800 4606 M -82 0 R D
9800 4794 M -82 0 R D 9800 4982 M -82 0 R D 9800 5359 M -82 0 R D L2
5700 5171 M 410 -226 R 411 -829 R 410 -151 R 411 -113 R 410 -452 R
411 -188 R 410 -377 R 410 -188 R 411 -301 R 406 -336 R D L0 5700 5171 M
41 -24 R 127 -88 R 72 -67 R 67 -92 R 33 -68 R 32 -88 R 29 -97 R 28 -82 R
25 -53 R 29 -44 R 33 -37 R 51 -41 R 66 -42 R 107 -56 R 144 -67 R 164 -73 R
164 -70 R 164 -70 R 165 -79 R 28 -16 R 39 -26 R 39 -35 R 20 -24 R 24 -36 R
21 -42 R 19 -37 R 19 -28 R 18 -20 R 23 -18 R 32 -17 R 35 -16 R 44 -16 R
74 -23 R 121 -35 R 164 -44 R 164 -45 R 65 -20 R 23 -7 R 33 -13 R 28 -13 R
23 -14 R 20 -17 R 19 -22 R 17 -25 R 14 -23 R 14 -19 R 17 -17 R 21 -18 R
31 -18 R 46 -22 R 75 -30 R 136 -48 R 164 -58 R 44 -16 R 17 -7 R 48 -21 R
21 -11 R 21 -15 R 17 -15 R 16 -20 R 14 -24 R 13 -26 R 12 -22 R 13 -18 R
16 -18 R 22 -18 R 32 -22 R 52 -28 R 89 -43 R 165 -76 R 16 -8 R 35 -19 R
17 -12 R 18 -13 R 15 -15 R 12 -17 R 12 -21 R 10 -26 R 9 -23 R 9 -19 R
11 -19 R 13 -18 R 19 -20 R 29 -25 R 48 -33 R 44 -28 R D
gsave 9640 4794 translate 0 0 M -2542.96 0 N
(ln) show
%%IncludeResource: font Symbol
423.333 /Symbol STDFONT
(L) show
%%IncludeResource: font Helvetica
423.333 /Helvetica STDFONT
(=-ln) show
%%IncludeResource: font Symbol
423.333 /Symbol STDFONT
(m) show
%%IncludeResource: font Helvetica
423.333 /Helvetica STDFONT
(+1.3) show grestore
%%PageTrailer
end
%%PageResources: font Helvetica
%%+ font Symbol
%%Trailer
%%Pages: 1
%%DocumentNeededResources: font Helvetica
%%+ font Symbol
%%EOF
