%!PS-Adobe-2.0 EPSF-2.0
%%Title: tree2.fig
%%Creator: fig2dev Version 3.2 Patchlevel 4
%%CreationDate: Thu Oct 29 10:28:52 2009
%%For: u0649099@vdbosch.astro.utah.edu (Frank VanDenBosch)
%%BoundingBox: 0 0 471 684
%%Magnification: 1.0000
%%EndComments
/$F2psDict 200 dict def
$F2psDict begin
$F2psDict /mtrx matrix put
/col-1 {0 setgray} bind def
/col0 {0.000 0.000 0.000 srgb} bind def
/col1 {0.000 0.000 1.000 srgb} bind def
/col2 {0.000 1.000 0.000 srgb} bind def
/col3 {0.000 1.000 1.000 srgb} bind def
/col4 {1.000 0.000 0.000 srgb} bind def
/col5 {1.000 0.000 1.000 srgb} bind def
/col6 {1.000 1.000 0.000 srgb} bind def
/col7 {1.000 1.000 1.000 srgb} bind def
/col8 {0.000 0.000 0.560 srgb} bind def
/col9 {0.000 0.000 0.690 srgb} bind def
/col10 {0.000 0.000 0.820 srgb} bind def
/col11 {0.530 0.810 1.000 srgb} bind def
/col12 {0.000 0.560 0.000 srgb} bind def
/col13 {0.000 0.690 0.000 srgb} bind def
/col14 {0.000 0.820 0.000 srgb} bind def
/col15 {0.000 0.560 0.560 srgb} bind def
/col16 {0.000 0.690 0.690 srgb} bind def
/col17 {0.000 0.820 0.820 srgb} bind def
/col18 {0.560 0.000 0.000 srgb} bind def
/col19 {0.690 0.000 0.000 srgb} bind def
/col20 {0.820 0.000 0.000 srgb} bind def
/col21 {0.560 0.000 0.560 srgb} bind def
/col22 {0.690 0.000 0.690 srgb} bind def
/col23 {0.820 0.000 0.820 srgb} bind def
/col24 {0.500 0.190 0.000 srgb} bind def
/col25 {0.630 0.250 0.000 srgb} bind def
/col26 {0.750 0.380 0.000 srgb} bind def
/col27 {1.000 0.500 0.500 srgb} bind def
/col28 {1.000 0.630 0.630 srgb} bind def
/col29 {1.000 0.750 0.750 srgb} bind def
/col30 {1.000 0.880 0.880 srgb} bind def
/col31 {1.000 0.840 0.000 srgb} bind def

end
save
newpath 0 684 moveto 0 0 lineto 471 0 lineto 471 684 lineto closepath clip newpath
-2.9 748.3 translate
1 -1 scale

/cp {closepath} bind def
/ef {eofill} bind def
/gr {grestore} bind def
/gs {gsave} bind def
/sa {save} bind def
/rs {restore} bind def
/l {lineto} bind def
/m {moveto} bind def
/rm {rmoveto} bind def
/n {newpath} bind def
/s {stroke} bind def
/sh {show} bind def
/slc {setlinecap} bind def
/slj {setlinejoin} bind def
/slw {setlinewidth} bind def
/srgb {setrgbcolor} bind def
/rot {rotate} bind def
/sc {scale} bind def
/sd {setdash} bind def
/ff {findfont} bind def
/sf {setfont} bind def
/scf {scalefont} bind def
/sw {stringwidth} bind def
/tr {translate} bind def
/tnt {dup dup currentrgbcolor
  4 -2 roll dup 1 exch sub 3 -1 roll mul add
  4 -2 roll dup 1 exch sub 3 -1 roll mul add
  4 -2 roll dup 1 exch sub 3 -1 roll mul add srgb}
  bind def
/shd {dup dup currentrgbcolor 4 -2 roll mul 4 -2 roll mul
  4 -2 roll mul srgb} bind def
 /DrawEllipse {
	/endangle exch def
	/startangle exch def
	/yrad exch def
	/xrad exch def
	/y exch def
	/x exch def
	/savematrix mtrx currentmatrix def
	x y tr xrad yrad sc 0 0 1 startangle endangle arc
	closepath
	savematrix setmatrix
	} def

/$F2psBegin {$F2psDict begin /$F2psEnteredState save def} def
/$F2psEnd {$F2psEnteredState restore end} def

$F2psBegin
10 setmiterlimit
0 slj 0 slc
 0.06299 0.06299 sc
%
% Fig objects follow
%
% 
% here starts figure with depth 53
/Times-BoldItalic ff 450.00 scf sf
7020 1575 m
gs 1 -1 sc (z) col0 sh gr
/Times-BoldItalic ff 450.00 scf sf
7065 3330 m
gs 1 -1 sc (z) col0 sh gr
/Times-BoldItalic ff 450.00 scf sf
7065 5445 m
gs 1 -1 sc (z) col0 sh gr
/Times-BoldItalic ff 450.00 scf sf
7020 7695 m
gs 1 -1 sc (z) col0 sh gr
/Times-BoldItalic ff 450.00 scf sf
7020 10215 m
gs 1 -1 sc (z) col0 sh gr
% Polyline
15.000 slw
 [90] 0 sd
n 180 1710 m
 7425 1710 l gs col0 s gr  [] 0 sd
% Polyline
 [90] 0 sd
n 135 10350 m
 7425 10350 l gs col0 s gr  [] 0 sd
% Polyline
 [90] 0 sd
n 90 5580 m
 7380 5580 l gs col0 s gr  [] 0 sd
% Polyline
 [90] 0 sd
n 135 3465 m
 7425 3465 l gs col0 s gr  [] 0 sd
% Polyline
 [90] 0 sd
n 90 7830 m
 7380 7830 l gs col0 s gr  [] 0 sd
% here ends figure;
% 
% here starts figure with depth 51
% Ellipse
7.500 slw
n 2250 10350 1350 1350 0 360 DrawEllipse gs col9 0.50 tnt ef gr gs col0 s gr

/Times-Bold ff 300.00 scf sf
7200 1665 m
gs 1 -1 sc (4) col0 sh gr
/Times-Bold ff 300.00 scf sf
7200 3420 m
gs 1 -1 sc (3) col0 sh gr
/Times-Bold ff 300.00 scf sf
7200 5535 m
gs 1 -1 sc (2) col0 sh gr
/Times-Bold ff 300.00 scf sf
7200 7785 m
gs 1 -1 sc (1) col0 sh gr
/Times-Bold ff 300.00 scf sf
7200 10305 m
gs 1 -1 sc (0) col0 sh gr
% Ellipse
n 1035 3375 727 727 0 360 DrawEllipse gs col9 0.50 tnt ef gr gs col0 s gr

% Ellipse
n 1080 5490 765 765 0 360 DrawEllipse gs col9 0.50 tnt ef gr gs col0 s gr

% Ellipse
n 1440 7785 963 963 0 360 DrawEllipse gs col9 0.50 tnt ef gr gs col0 s gr

% Ellipse
n 1080 1710 470 470 0 360 DrawEllipse gs col9 0.50 tnt ef gr gs col0 s gr

% Polyline
45.000 slw
n 90 1080 m 7470 1080 l 7470 11835 l 90 11835 l
 cp gs col0 s gr 
% here ends figure;
% 
% here starts figure with depth 48
% Ellipse
7.500 slw
n 2655 5535 229 229 0 360 DrawEllipse gs col19 0.80 tnt ef gr gs col0 s gr

% Ellipse
n 810 5490 343 343 0 360 DrawEllipse gs col19 0.80 tnt ef gr gs col0 s gr

% Ellipse
n 1080 8010 343 343 0 360 DrawEllipse gs col19 0.80 tnt ef gr gs col0 s gr

% Ellipse
n 2070 1665 142 142 0 360 DrawEllipse gs col19 0.80 tnt ef gr gs col0 s gr

% Ellipse
n 1215 3870 142 142 0 360 DrawEllipse gs col19 0.80 tnt ef gr gs col0 s gr

% Ellipse
n 1260 6030 142 142 0 360 DrawEllipse gs col19 0.80 tnt ef gr gs col0 s gr

% Ellipse
n 1710 8460 142 142 0 360 DrawEllipse gs col19 0.80 tnt ef gr gs col0 s gr

% Ellipse
n 2790 11205 142 142 0 360 DrawEllipse gs col19 0.80 tnt ef gr gs col0 s gr

% Ellipse
n 2700 3465 343 343 0 360 DrawEllipse gs col19 0.80 tnt ef gr gs col0 s gr

% Ellipse
n 1755 10710 343 343 0 360 DrawEllipse gs col19 0.80 tnt ef gr gs col0 s gr

% Ellipse
n 1995 7755 229 229 0 360 DrawEllipse gs col19 0.80 tnt ef gr gs col0 s gr

% Ellipse
n 3090 10365 229 229 0 360 DrawEllipse gs col19 0.80 tnt ef gr gs col0 s gr

% Ellipse
n 2025 9585 503 503 0 360 DrawEllipse gs col19 0.80 tnt ef gr gs col0 s gr

% Ellipse
n 3780 7740 565 565 0 360 DrawEllipse gs col19 0.80 tnt ef gr gs col0 s gr

% Ellipse
n 3780 5670 441 441 0 360 DrawEllipse gs col20 0.80 tnt ef gr gs col0 s gr

% Ellipse
n 3435 1725 300 300 0 360 DrawEllipse gs col20 0.80 tnt ef gr gs col0 s gr

% Ellipse
n 3825 3555 390 390 0 360 DrawEllipse gs col20 0.80 tnt ef gr gs col0 s gr

% Polyline
15.000 slw
n 1035 4185 m
 1035 4635 l gs col19 0.80 tnt ef gr gs col15 s gr 
% Polyline
n 1125 6345 m
 1215 6795 l gs col19 0.80 tnt ef gr gs col15 s gr 
% Polyline
n 1710 8775 m
 1800 9000 l gs col19 0.80 tnt ef gr gs col15 s gr 
% Polyline
n 2025 1890 m
 1485 2610 l gs col19 0.80 tnt ef gr gs col15 s gr 
% Polyline
n 2475 3825 m
 1620 4905 l gs col19 0.80 tnt ef gr gs col15 s gr 
% Polyline
n 2520 5805 m
 1890 6840 l gs col19 0.80 tnt ef gr gs col15 s gr 
% Polyline
n 3525 8280 m
 2970 9090 l gs col19 0.80 tnt ef gr gs col15 s gr 
% Polyline
n 3825 3945 m
 3780 5205 l gs col20 0.80 tnt ef gr gs col15 s gr 
% Polyline
n 3765 6180 m
 3765 7095 l gs col20 0.80 tnt ef gr gs col15 s gr 
% Polyline
n 4815 3645 m
 4005 5250 l gs col20 0.80 tnt ef gr gs col15 s gr 
% Polyline
n 1035 2295 m
 1035 2610 l gs col19 0.80 tnt ef gr gs col15 s gr 
% Polyline
n 4775 5870 m
 4070 7190 l gs col20 0.80 tnt ef gr gs col15 s gr 
% Polyline
n 4404 1846 m
 3855 3090 l gs col19 0.80 tnt ef gr gs col15 s gr 
% Polyline
n 3540 2055 m
 3754 3109 l gs col19 0.80 tnt ef gr gs col15 s gr 
/Times-Bold ff 300.00 scf sf
1980 1755 m
gs 1 -1 sc (A) col0 sh gr
/Times-Bold ff 300.00 scf sf
1125 3960 m
gs 1 -1 sc (A) col0 sh gr
/Times-Bold ff 300.00 scf sf
1170 6120 m
gs 1 -1 sc (A) col0 sh gr
/Times-Bold ff 300.00 scf sf
1620 8550 m
gs 1 -1 sc (A) col0 sh gr
/Times-Bold ff 300.00 scf sf
2610 3600 m
gs 1 -1 sc (B) col0 sh gr
/Times-Bold ff 300.00 scf sf
720 5580 m
gs 1 -1 sc (B) col0 sh gr
/Times-Bold ff 300.00 scf sf
990 8100 m
gs 1 -1 sc (B) col0 sh gr
/Times-Bold ff 300.00 scf sf
2700 11295 m
gs 1 -1 sc (A) col0 sh gr
/Times-Bold ff 300.00 scf sf
2565 5670 m
gs 1 -1 sc (C) col0 sh gr
/Times-Bold ff 300.00 scf sf
1665 10845 m
gs 1 -1 sc (B) col0 sh gr
/Times-Bold ff 300.00 scf sf
1890 7875 m
gs 1 -1 sc (C) col0 sh gr
/Times-Bold ff 300.00 scf sf
3000 10485 m
gs 1 -1 sc (C) col0 sh gr
/Times-Bold ff 300.00 scf sf
3465 7680 m
gs 1 -1 sc (D) col0 sh gr
/Times-Bold ff 300.00 scf sf
1660 9555 m
gs 1 -1 sc (D) col0 sh gr
/Times-Bold ff 300.00 scf sf
3645 5925 m
gs 1 -1 sc (D) col0 sh gr
/Times-Bold ff 300.00 scf sf
3345 1830 m
gs 1 -1 sc (D) col0 sh gr
/Times-Bold ff 300.00 scf sf
3825 3825 m
gs 1 -1 sc (D) col0 sh gr
% here ends figure;
% 
% here starts figure with depth 40
% Ellipse
7.500 slw
n 3661 5454 127 127 0 360 DrawEllipse gs col7 1.00 shd ef gr gs col0 s gr

% Ellipse
n 4454 1709 127 127 0 360 DrawEllipse gs col7 1.00 shd ef gr gs col0 s gr

% Ellipse
n 3689 3374 127 127 0 360 DrawEllipse gs col7 1.00 shd ef gr gs col0 s gr

% Ellipse
n 4031 5624 154 144 0 360 DrawEllipse gs col7 1.00 shd ef gr gs col0 s gr

% Ellipse
n 4826 3449 154 144 0 360 DrawEllipse gs col7 1.00 shd ef gr gs col0 s gr

% Ellipse
n 3728 8032 226 226 0 360 DrawEllipse gs col7 1.00 shd ef gr gs col0 s gr

% Ellipse
n 4054 7604 154 144 0 360 DrawEllipse gs col7 1.00 shd ef gr gs col0 s gr

% Ellipse
n 2003 9817 226 226 0 360 DrawEllipse gs col7 1.00 shd ef gr gs col0 s gr

% Ellipse
n 2201 9421 154 144 0 360 DrawEllipse gs col7 1.00 shd ef gr gs col0 s gr

% Ellipse
n 4888 5597 226 226 0 360 DrawEllipse gs col7 1.00 shd ef gr gs col0 s gr

/Times-Bold ff 225.00 scf sf
3618 5514 m
gs 1 -1 sc (a) col0 sh gr
/Times-Bold ff 225.00 scf sf
4411 1769 m
gs 1 -1 sc (a) col0 sh gr
/Times-Bold ff 225.00 scf sf
3646 3434 m
gs 1 -1 sc (a) col0 sh gr
/Times-Bold ff 225.00 scf sf
3975 5684 m
gs 1 -1 sc (b) col0 sh gr
/Times-Bold ff 225.00 scf sf
4770 3509 m
gs 1 -1 sc (b) col0 sh gr
/Times-Bold ff 225.00 scf sf
3678 8099 m
gs 1 -1 sc (c) col0 sh gr
/Times-Bold ff 225.00 scf sf
3998 7664 m
gs 1 -1 sc (b) col0 sh gr
/Times-Bold ff 225.00 scf sf
1953 9884 m
gs 1 -1 sc (c) col0 sh gr
/Times-Bold ff 225.00 scf sf
2145 9481 m
gs 1 -1 sc (b) col0 sh gr
/Times-Bold ff 225.00 scf sf
4843 5687 m
gs 1 -1 sc (c) col0 sh gr
% here ends figure;
$F2psEnd
rs
showpage
