%!PS-Adobe-3.0 EPSF-3.0
%%BoundingBox: 0 0 283 255
%%Title: Graphics produced by IDL
%%For: dacia@Lserver, /home/dacia/work/subhalo_model
%%Creator: IDL Version 7.0 (linux x86_64 m64)
%%CreationDate: Thu Apr  1 16:08:04 2010
%%DocumentData: Clean7bit
%%Requirements: color
%%LanguageLevel: 1
%%PageOrder: Ascend
%%Pages: (atend)
%%DocumentNeededResources: (atend)
%%EndComments
%%BeginProlog
%+ prolog.ps -- Prolog for IDL generated PostScript files
%+ Copyright (c) 1988-2007 ITT Visual Information Solutions. All Rights Reserved.
%v 5
/$IDL_DICT 40 dict def $IDL_DICT begin /bdef { bind def } bind def /C
{currentpoint newpath moveto} bdef /CP {currentpoint} bdef /D {currentpoint
stroke moveto} bdef /F {closepath fill} bdef /K { setgray } bdef /M {moveto}
bdef /N {rmoveto} bdef /P {lineto} bdef /R {rlineto} bdef /S {gsave show
grestore} bdef /X {currentpoint pop} bdef /Z {gsave currentpoint lineto 20
setlinewidth 1 setlinecap stroke grestore} bdef /L0 {[] 0 setdash} bdef /L1
{[40 100] 0 setdash} bdef /L2 {[200 200] 0 setdash} bdef /L3 {[200 100 50
100] 0 setdash} bdef /L4 {[300 100 50 100 50 100 50 100] 0 setdash} bdef /L5
{[400 200] 0 setdash} bdef /STDFONT { findfont exch scalefont setfont } bdef
/ISOFONT { findfont dup length dict begin { 1 index /FID ne {def} {pop pop}
ifelse } forall /Encoding ISOLatin1Encoding def currentdict end /idltmpfont
exch definefont exch scalefont setfont } bdef /ISOBULLET { gsave /Helvetica
findfont exch scalefont setfont (\267) show currentpoint grestore moveto}
bdef /MITERLIMIT { 2.5 setmiterlimit } bdef end
%%EndProlog
%%Page: 0 1
%%PageRequirements: color
%%PageResources: (atend)
%%PageOrientation: Portrait
%%PageBoundingBox: 0 0 283 255
%%BeginPageSetup
$IDL_DICT begin 0.0283465 dup scale MITERLIMIT
%%IncludeResource: font Helvetica
423.333 /Helvetica STDFONT
%%EndPageSetup
40 setlinewidth L0 0.000 0.000 0.000 setrgbcolor 2000 1260 M 7800 0 R D
2000 1260 M 0 302 R D gsave 2000 621 translate 0 0 M 1.21 dup scale
-117.687 0 N
(1) show grestore 9228 1260 M 0 302 R D gsave 9228 621 translate 0 0 M
1.21 dup scale -235.373 0 N
(10) show grestore 4176 1260 M 0 151 R D 5448 1260 M 0 151 R D 6352 1260 M
0 151 R D 7052 1260 M 0 151 R D 7624 1260 M 0 151 R D 8108 1260 M 0 151 R D
8527 1260 M 0 151 R D 8897 1260 M 0 151 R D gsave 5900 67 translate 0 0 M
1.21 dup scale -347.133 0 N
(1+z) show grestore 2000 8820 M 7800 0 R D 2000 8820 M 0 -302 R D
9228 8820 M 0 -302 R D 4176 8820 M 0 -151 R D 5448 8820 M 0 -151 R D
6352 8820 M 0 -151 R D 7052 8820 M 0 -151 R D 7624 8820 M 0 -151 R D
8108 8820 M 0 -151 R D 8527 8820 M 0 -151 R D 8897 8820 M 0 -151 R D
2000 1260 M 0 7560 R D 2000 1426 M 312 0 R D gsave 1866 1260 translate 0 0 M
1.21 dup scale -823.807 0 N
(0.01) show grestore 2000 5048 M 312 0 R D gsave 1866 4878 translate 0 0 M
1.21 dup scale -823.807 0 N
(0.10) show grestore 2000 8670 M 312 0 R D gsave 1866 8500 translate 0 0 M
1.21 dup scale -823.807 0 N
(1.00) show grestore 2000 1260 M 156 0 R D 2000 2516 M 156 0 R D 2000 3154 M
156 0 R D 2000 3607 M 156 0 R D 2000 3958 M 156 0 R D 2000 4244 M 156 0 R D
2000 4487 M 156 0 R D 2000 4697 M 156 0 R D 2000 4882 M 156 0 R D
2000 6138 M 156 0 R D 2000 6776 M 156 0 R D 2000 7229 M 156 0 R D
2000 7580 M 156 0 R D 2000 7866 M 156 0 R D 2000 8109 M 156 0 R D
2000 8319 M 156 0 R D 2000 8504 M 156 0 R D gsave 467 5040 translate 0 0 M
90 rotate 1.21 dup scale -1146.39 0 N
(M\(z\)/M\(z=0\)) show grestore 9800 1260 M 0 7560 R D 9800 1426 M -312 0 R
D 9800 5048 M -312 0 R D 9800 8670 M -312 0 R D 9800 1260 M -156 0 R D
9800 2516 M -156 0 R D 9800 3154 M -156 0 R D 9800 3607 M -156 0 R D
9800 3958 M -156 0 R D 9800 4244 M -156 0 R D 9800 4487 M -156 0 R D
9800 4697 M -156 0 R D 9800 4882 M -156 0 R D 9800 6138 M -156 0 R D
9800 6776 M -156 0 R D 9800 7229 M -156 0 R D 9800 7580 M -156 0 R D
9800 7866 M -156 0 R D 9800 8109 M -156 0 R D 9800 8319 M -156 0 R D
9800 8504 M -156 0 R D 20 setlinewidth 2000 8670 M 209 -47 R 208 -26 R
209 -42 R 209 -31 R 209 -63 R 208 -421 R 209 -80 R 209 -47 R 208 -1331 R
209 -576 R 209 -63 R 209 -50 R 208 -64 R 209 -110 R 209 -350 R 208 -86 R
209 -108 R 209 -454 R 209 -94 R 208 -241 R 209 -318 R 209 -668 R 208 -160 R
209 -448 R 209 -131 R 209 -153 R 208 -220 R 209 -276 R 209 -152 R 208 -546 R
64 -54 R D 2000 8670 M 209 -22 R 208 -31 R 209 -25 R 209 -37 R 209 -34 R
208 -916 R 209 -48 R 209 -56 R 208 -52 R 209 -87 R 209 -142 R 209 -84 R
208 -59 R 209 -80 R 209 -96 R 208 -594 R 209 -125 R 209 -93 R 209 -279 R
208 -184 R 209 -149 R 209 -147 R 208 -166 R 209 -162 R 209 -469 R 209 -208 R
208 -172 R 209 -596 R 209 -195 R 208 -283 R 209 -188 R 209 -689 R 209 -224 R
208 -241 R 209 -263 R 72 -214 R D 2000 8670 M 209 -27 R 208 -27 R 209 -48 R
209 -60 R 209 -34 R 208 -94 R 209 -138 R 209 -118 R 208 -192 R 209 -72 R
209 -75 R 209 -84 R 208 -68 R 209 -462 R 209 -84 R 208 -274 R 209 -124 R
209 -186 R 209 -179 R 208 -146 R 209 -137 R 209 -934 R 208 -180 R 209 -268 R
209 -218 R 209 -890 R 208 -149 R 209 -177 R 209 -277 R 208 -303 R
209 -1298 R 65 -87 R D 2000 8670 M 209 -29 R 208 -26 R 209 -25 R 209 -32 R
209 -34 R 208 -35 R 209 -44 R 209 -51 R 208 -46 R 209 -85 R 209 -129 R
209 -76 R 208 -141 R 209 -74 R 209 -95 R 208 -97 R 209 -96 R 209 -104 R
209 -130 R 208 -187 R 209 -231 R 209 -178 R 208 -528 R 209 -136 R 209 -194 R
209 -260 R 208 -182 R 209 -279 R 209 -233 R 208 -194 R 209 -253 R 209 -297 R
209 -244 R 208 -967 R 209 -315 R 209 -514 R 133 -869 R D 2000 8670 M
209 -20 R 208 -1073 R 209 -34 R 209 -26 R 209 -31 R 208 -29 R 209 -234 R
209 -47 R 208 -557 R 209 -227 R 209 -61 R 209 -100 R 208 -98 R 209 -69 R
209 -357 R 208 -75 R 209 -81 R 209 -81 R 209 -84 R 208 -112 R 209 -125 R
209 -724 R 208 -113 R 209 -139 R 209 -203 R 209 -355 R 208 -211 R 209 -553 R
209 -238 R 208 -182 R 209 -253 R 209 -289 R 209 -609 R 13 -20 R D
2000 8670 M 209 -17 R 208 -32 R 209 -28 R 209 -27 R 209 -42 R 208 -44 R
209 -39 R 209 -182 R 208 -531 R 209 -91 R 209 -87 R 209 -879 R 208 -65 R
209 -89 R 209 -209 R 208 -77 R 209 -86 R 209 -90 R 209 -247 R 208 -106 R
209 -124 R 209 -186 R 208 -328 R 209 -137 R 209 -424 R 209 -191 R 208 -194 R
209 -212 R 209 -168 R 208 -231 R 209 -791 R 209 -800 R 209 -239 R 81 -417 R
D 2000 8670 M 209 -21 R 208 -30 R 209 -57 R 209 -44 R 209 -30 R 208 -46 R
209 -44 R 209 -90 R 208 -55 R 209 -97 R 209 -147 R 209 -1147 R 208 -1092 R
209 -830 R 209 -312 R 208 -547 R 209 -862 R 209 -72 R 209 -131 R 208 -789 R
209 -103 R 209 -148 R 208 -111 R 209 -407 R 209 -117 R 93 -81 R D
2000 8670 M 209 -21 R 208 -49 R 209 -34 R 209 -30 R 209 -35 R 208 -45 R
209 -61 R 209 -616 R 208 -80 R 209 -53 R 209 -58 R 209 -54 R 208 -77 R
209 -1126 R 209 -85 R 208 -110 R 209 -84 R 209 -89 R 209 -367 R 208 -241 R
209 -440 R 209 -399 R 208 -249 R 209 -342 R 209 -1018 R 209 -1373 R
208 -231 R 15 -43 R D 2000 8670 M 209 -72 R 208 -26 R 209 -25 R 209 -29 R
209 -29 R 208 -65 R 209 -41 R 209 -145 R 208 -54 R 209 -47 R 209 -70 R
209 -107 R 208 -412 R 209 -76 R 209 -107 R 208 -117 R 209 -86 R 209 -326 R
209 -832 R 208 -138 R 209 -122 R 209 -840 R 208 -122 R 209 -132 R 209 -148 R
209 -700 R 208 -763 R 209 -173 R 209 -314 R 208 -258 R 209 -579 R 209 -238 R
24 -217 R D 2000 8670 M 209 -27 R 208 -27 R 209 -26 R 209 -62 R 209 -36 R
208 -39 R 209 -195 R 209 -41 R 208 -139 R 209 -93 R 209 -64 R 209 -78 R
208 -106 R 209 -87 R 209 -84 R 208 -102 R 209 -740 R 209 -193 R 209 -145 R
208 -517 R 209 -154 R 209 -135 R 208 -185 R 209 -187 R 209 -206 R 209 -163 R
208 -150 R 209 -1055 R 209 -370 R 208 -1139 R 136 -865 R D 60 setlinewidth
2417 8529 M 835 -352 R 835 -527 R 835 -648 R 835 -792 R 835 -967 R
835 -1256 R 834 -1519 R 576 -1208 R D 2339 8349 M 156 0 R -78 0 R 0 359 R
-78 0 R 156 0 R D 3174 7829 M 156 0 R -78 0 R 0 696 R -78 0 R 156 0 R D
4009 7170 M 156 0 R -78 0 R 0 960 R -78 0 R 156 0 R D 4844 6406 M 156 0 R
-78 0 R 0 1191 R -78 0 R 156 0 R D 5679 5497 M 156 0 R -78 0 R 0 1426 R
-78 0 R 156 0 R D 6514 4431 M 156 0 R -78 0 R 0 1624 R -78 0 R 156 0 R D
7349 3066 M 156 0 R -78 0 R 0 1841 R -78 0 R 156 0 R D 8183 1433 M 156 0 R
-78 0 R 0 2070 R -78 0 R 156 0 R D 9096 1260 M 0 481 R -78 0 R 156 0 R D
%%PageTrailer
end
%%PageResources: font Helvetica
%%Trailer
%%Pages: 1
%%DocumentNeededResources: font Helvetica
%%EOF
