%!PS-Adobe-3.0 EPSF-3.0
%%BoundingBox: 0 0 283 226
%%Title: Graphics produced by IDL
%%For: dacia@Lserver, /home/dacia/work/subhalo_model
%%Creator: IDL Version 7.0 (linux x86_64 m64)
%%CreationDate: Fri May  7 15:08:37 2010
%%DocumentData: Clean7bit
%%Requirements: color
%%LanguageLevel: 1
%%PageOrder: Ascend
%%Pages: (atend)
%%DocumentNeededResources: (atend)
%%EndComments
%%BeginProlog
%+ prolog.ps -- Prolog for IDL generated PostScript files
%+ Copyright (c) 1988-2007 ITT Visual Information Solutions. All Rights Reserved.
%v 5
/$IDL_DICT 40 dict def $IDL_DICT begin /bdef { bind def } bind def /C
{currentpoint newpath moveto} bdef /CP {currentpoint} bdef /D {currentpoint
stroke moveto} bdef /F {closepath fill} bdef /K { setgray } bdef /M {moveto}
bdef /N {rmoveto} bdef /P {lineto} bdef /R {rlineto} bdef /S {gsave show
grestore} bdef /X {currentpoint pop} bdef /Z {gsave currentpoint lineto 20
setlinewidth 1 setlinecap stroke grestore} bdef /L0 {[] 0 setdash} bdef /L1
{[40 100] 0 setdash} bdef /L2 {[200 200] 0 setdash} bdef /L3 {[200 100 50
100] 0 setdash} bdef /L4 {[300 100 50 100 50 100 50 100] 0 setdash} bdef /L5
{[400 200] 0 setdash} bdef /STDFONT { findfont exch scalefont setfont } bdef
/ISOFONT { findfont dup length dict begin { 1 index /FID ne {def} {pop pop}
ifelse } forall /Encoding ISOLatin1Encoding def currentdict end /idltmpfont
exch definefont exch scalefont setfont } bdef /ISOBULLET { gsave /Helvetica
findfont exch scalefont setfont (\267) show currentpoint grestore moveto}
bdef /MITERLIMIT { 2.5 setmiterlimit } bdef end
%%EndProlog
%%Page: 0 1
%%PageRequirements: color
%%PageResources: (atend)
%%PageOrientation: Portrait
%%PageBoundingBox: 0 0 283 226
%%BeginPageSetup
$IDL_DICT begin 0.0283465 dup scale MITERLIMIT
%%IncludeResource: font Helvetica
423.333 /Helvetica STDFONT
%%EndPageSetup
40 setlinewidth L0 0.000 0.000 0.000 setrgbcolor 1800 1280 M 8000 0 R D
2402 1280 M 0 259 R D gsave 2402 641 translate 0 0 M 1.21 dup scale
-352.04 0 N
(10) show X 192.937 M
%%IncludeResource: font Helvetica
262.467 /Helvetica STDFONT
(-4) show grestore
%%IncludeResource: font Helvetica
423.333 /Helvetica STDFONT 4402 1280 M 0 259 R D
gsave 4402 641 translate 0 0 M 1.21 dup scale -352.04 0 N
(10) show X 192.937 M
%%IncludeResource: font Helvetica
262.467 /Helvetica STDFONT
(-3) show grestore
%%IncludeResource: font Helvetica
423.333 /Helvetica STDFONT 6402 1280 M 0 259 R D
gsave 6402 641 translate 0 0 M 1.21 dup scale -352.04 0 N
(10) show X 192.937 M
%%IncludeResource: font Helvetica
262.467 /Helvetica STDFONT
(-2) show grestore
%%IncludeResource: font Helvetica
423.333 /Helvetica STDFONT 8402 1280 M 0 259 R D
gsave 8402 641 translate 0 0 M 1.21 dup scale -352.04 0 N
(10) show X 192.937 M
%%IncludeResource: font Helvetica
262.467 /Helvetica STDFONT
(-1) show grestore
%%IncludeResource: font Helvetica
423.333 /Helvetica STDFONT 1800 1280 M 0 130 R D 1958 1280 M 0 130 R D
2092 1280 M 0 130 R D 2208 1280 M 0 130 R D 2311 1280 M 0 130 R D
3004 1280 M 0 130 R D 3356 1280 M 0 130 R D 3606 1280 M 0 130 R D
3800 1280 M 0 130 R D 3958 1280 M 0 130 R D 4092 1280 M 0 130 R D
4208 1280 M 0 130 R D 4311 1280 M 0 130 R D 5004 1280 M 0 130 R D
5356 1280 M 0 130 R D 5606 1280 M 0 130 R D 5800 1280 M 0 130 R D
5958 1280 M 0 130 R D 6092 1280 M 0 130 R D 6208 1280 M 0 130 R D
6311 1280 M 0 130 R D 7004 1280 M 0 130 R D 7356 1280 M 0 130 R D
7606 1280 M 0 130 R D 7800 1280 M 0 130 R D 7958 1280 M 0 130 R D
8092 1280 M 0 130 R D 8208 1280 M 0 130 R D 8311 1280 M 0 130 R D
9004 1280 M 0 130 R D 9356 1280 M 0 130 R D 9606 1280 M 0 130 R D
9800 1280 M 0 130 R D gsave 5800 87 translate 0 0 M 1.21 dup scale
-411.48 0 N
(m/M) show grestore 1800 7760 M 8000 0 R D 2402 7760 M 0 -259 R D
4402 7760 M 0 -259 R D 6402 7760 M 0 -259 R D 8402 7760 M 0 -259 R D
1800 7760 M 0 -130 R D 1958 7760 M 0 -130 R D 2092 7760 M 0 -130 R D
2208 7760 M 0 -130 R D 2311 7760 M 0 -130 R D 3004 7760 M 0 -130 R D
3356 7760 M 0 -130 R D 3606 7760 M 0 -130 R D 3800 7760 M 0 -130 R D
3958 7760 M 0 -130 R D 4092 7760 M 0 -130 R D 4208 7760 M 0 -130 R D
4311 7760 M 0 -130 R D 5004 7760 M 0 -130 R D 5356 7760 M 0 -130 R D
5606 7760 M 0 -130 R D 5800 7760 M 0 -130 R D 5958 7760 M 0 -130 R D
6092 7760 M 0 -130 R D 6208 7760 M 0 -130 R D 6311 7760 M 0 -130 R D
7004 7760 M 0 -130 R D 7356 7760 M 0 -130 R D 7606 7760 M 0 -130 R D
7800 7760 M 0 -130 R D 7958 7760 M 0 -130 R D 8092 7760 M 0 -130 R D
8208 7760 M 0 -130 R D 8311 7760 M 0 -130 R D 9004 7760 M 0 -130 R D
9356 7760 M 0 -130 R D 9606 7760 M 0 -130 R D 9800 7760 M 0 -130 R D
1800 1280 M 0 6480 R D 1800 2333 M 320 0 R D gsave 1666 2163 translate 0 0 M
1.21 dup scale -704.08 0 N
(10) show X 192.937 M
%%IncludeResource: font Helvetica
262.467 /Helvetica STDFONT
(-1) show grestore
%%IncludeResource: font Helvetica
423.333 /Helvetica STDFONT 1800 3840 M 320 0 R D
gsave 1666 3669 translate 0 0 M 1.21 dup scale -235.373 0 N
(1) show grestore 1800 5346 M 320 0 R D gsave 1666 5176 translate 0 0 M
1.21 dup scale -470.747 0 N
(10) show grestore 1800 6853 M 320 0 R D gsave 1666 6683 translate 0 0 M
1.21 dup scale -616.678 0 N
(10) show X 192.937 M
%%IncludeResource: font Helvetica
262.467 /Helvetica STDFONT
(2) show grestore
%%IncludeResource: font Helvetica
423.333 /Helvetica STDFONT 1800 1280 M 160 0 R D 1800 1545 M 160 0 R D
1800 1734 M 160 0 R D 1800 1880 M 160 0 R D 1800 1999 M 160 0 R D
1800 2100 M 160 0 R D 1800 2187 M 160 0 R D 1800 2264 M 160 0 R D
1800 2787 M 160 0 R D 1800 3052 M 160 0 R D 1800 3240 M 160 0 R D
1800 3386 M 160 0 R D 1800 3505 M 160 0 R D 1800 3606 M 160 0 R D
1800 3694 M 160 0 R D 1800 3771 M 160 0 R D 1800 4293 M 160 0 R D
1800 4559 M 160 0 R D 1800 4747 M 160 0 R D 1800 4893 M 160 0 R D
1800 5012 M 160 0 R D 1800 5113 M 160 0 R D 1800 5200 M 160 0 R D
1800 5277 M 160 0 R D 1800 5800 M 160 0 R D 1800 6065 M 160 0 R D
1800 6253 M 160 0 R D 1800 6399 M 160 0 R D 1800 6519 M 160 0 R D
1800 6620 M 160 0 R D 1800 6707 M 160 0 R D 1800 6784 M 160 0 R D
1800 7306 M 160 0 R D 1800 7572 M 160 0 R D 1800 7760 M 160 0 R D
9800 1280 M 0 6480 R D 9800 2333 M -320 0 R D 9800 3840 M -320 0 R D
9800 5346 M -320 0 R D 9800 6853 M -320 0 R D 9800 1280 M -160 0 R D
9800 1545 M -160 0 R D 9800 1734 M -160 0 R D 9800 1880 M -160 0 R D
9800 1999 M -160 0 R D 9800 2100 M -160 0 R D 9800 2187 M -160 0 R D
9800 2264 M -160 0 R D 9800 2787 M -160 0 R D 9800 3052 M -160 0 R D
9800 3240 M -160 0 R D 9800 3386 M -160 0 R D 9800 3505 M -160 0 R D
9800 3606 M -160 0 R D 9800 3694 M -160 0 R D 9800 3771 M -160 0 R D
9800 4293 M -160 0 R D 9800 4559 M -160 0 R D 9800 4747 M -160 0 R D
9800 4893 M -160 0 R D 9800 5012 M -160 0 R D 9800 5113 M -160 0 R D
9800 5200 M -160 0 R D 9800 5277 M -160 0 R D 9800 5800 M -160 0 R D
9800 6065 M -160 0 R D 9800 6253 M -160 0 R D 9800 6399 M -160 0 R D
9800 6519 M -160 0 R D 9800 6620 M -160 0 R D 9800 6707 M -160 0 R D
9800 6784 M -160 0 R D 9800 7306 M -160 0 R D 9800 7572 M -160 0 R D
9800 7760 M -160 0 R D gsave 600 4640 translate 0 0 M 90 rotate
1.2 dup scale -1164.17 0 N
(dN/dln\(m/M\)) show grestore 1.000 0.000 0.000 setrgbcolor 2402 7335 M
730 -437 R 730 -430 R 730 -437 R 730 -397 R 730 -357 R 730 -420 R 730 -385 R
730 -285 R 730 -405 R 730 -762 R D 0.000 0.000 1.000 setrgbcolor 2402 6104 M
600 -315 R 600 -343 R 600 -379 R 600 -393 R 600 -367 R 600 -390 R 600 -391 R
600 -334 R 600 -392 R 600 -387 R D L1 1.000 0.000 0.000 setrgbcolor
2402 7325 M 730 -339 R 730 -435 R 730 -432 R 730 -388 R 730 -367 R
730 -425 R 730 -405 R 730 -285 R 730 -450 R 730 -836 R D
0.000 0.000 1.000 setrgbcolor 2402 6604 M 600 -287 R 600 -338 R 600 -361 R
600 -379 R 600 -373 R 600 -375 R 600 -337 R 600 -410 R 600 -394 R 600 -348 R
D 1.000 0.000 0.000 setrgbcolor 2579 3252 M 68 0 R 68 0 R 68 0 R 69 0 R
68 0 R 68 0 R 68 0 R 69 0 R 68 0 R D L0 2579 2798 M 68 0 R 68 0 R 68 0 R
69 0 R 68 0 R 68 0 R 68 0 R 69 0 R 68 0 R D L1 0.000 0.000 1.000 setrgbcolor
2579 2344 M 68 0 R 68 0 R 68 0 R 69 0 R 68 0 R 68 0 R 68 0 R 69 0 R 68 0 R D
L0 2579 1889 M 68 0 R 68 0 R 68 0 R 69 0 R 68 0 R 68 0 R 68 0 R 69 0 R
68 0 R D 1.000 0.000 0.000 setrgbcolor gsave 3261 3102 translate 0 0 M
(Cluster, UN) show grestore gsave 3261 2648 translate 0 0 M
(MW, UN) show grestore 0.000 0.000 1.000 setrgbcolor
gsave 3261 2194 translate 0 0 M
(Cluster, EV) show grestore gsave 3261 1740 translate 0 0 M
(MW, EV) show grestore
%%PageTrailer
end
%%PageResources: font Helvetica
%%Trailer
%%Pages: 1
%%DocumentNeededResources: font Helvetica
%%EOF
