%!PS-Adobe-3.0 EPSF-3.0
%%BoundingBox: 0 0 510 198
%%Title: Graphics produced by IDL
%%For: dacia@Lserver, /home/dacia/work/subhalo_model
%%Creator: IDL Version 7.0 (linux x86_64 m64)
%%CreationDate: Fri Apr 23 15:37:24 2010
%%DocumentData: Clean7bit
%%Requirements: color
%%LanguageLevel: 1
%%PageOrder: Ascend
%%Pages: (atend)
%%DocumentNeededResources: (atend)
%%EndComments
%%BeginProlog
%+ prolog.ps -- Prolog for IDL generated PostScript files
%+ Copyright (c) 1988-2007 ITT Visual Information Solutions. All Rights Reserved.
%v 5
/$IDL_DICT 40 dict def $IDL_DICT begin /bdef { bind def } bind def /C
{currentpoint newpath moveto} bdef /CP {currentpoint} bdef /D {currentpoint
stroke moveto} bdef /F {closepath fill} bdef /K { setgray } bdef /M {moveto}
bdef /N {rmoveto} bdef /P {lineto} bdef /R {rlineto} bdef /S {gsave show
grestore} bdef /X {currentpoint pop} bdef /Z {gsave currentpoint lineto 20
setlinewidth 1 setlinecap stroke grestore} bdef /L0 {[] 0 setdash} bdef /L1
{[40 100] 0 setdash} bdef /L2 {[200 200] 0 setdash} bdef /L3 {[200 100 50
100] 0 setdash} bdef /L4 {[300 100 50 100 50 100 50 100] 0 setdash} bdef /L5
{[400 200] 0 setdash} bdef /STDFONT { findfont exch scalefont setfont } bdef
/ISOFONT { findfont dup length dict begin { 1 index /FID ne {def} {pop pop}
ifelse } forall /Encoding ISOLatin1Encoding def currentdict end /idltmpfont
exch definefont exch scalefont setfont } bdef /ISOBULLET { gsave /Helvetica
findfont exch scalefont setfont (\267) show currentpoint grestore moveto}
bdef /MITERLIMIT { 2.5 setmiterlimit } bdef end
%%EndProlog
%%Page: 0 1
%%PageRequirements: color
%%PageResources: (atend)
%%PageOrientation: Portrait
%%PageBoundingBox: 0 0 510 198
%%BeginPageSetup
$IDL_DICT begin 0.0283465 dup scale MITERLIMIT
%%IncludeResource: font Helvetica
423.333 /Helvetica STDFONT
%%EndPageSetup
0.000 0.000 0.000 setrgbcolor gsave 9720 204 translate 0 0 M 1.1 dup scale
-420.603 0 N
(r/R) show X -101.051 M
%%IncludeResource: font Helvetica
262.467 /Helvetica STDFONT
(vir) show grestore
%%IncludeResource: font Helvetica
423.333 /Helvetica STDFONT gsave 537 3778 translate 0 0 M 90 rotate
1.1 dup scale -1255.42 0 N
(N\(<r\)/N\(<R) show X -101.051 M
%%IncludeResource: font Helvetica
262.467 /Helvetica STDFONT
(vir) show X 0 M
%%IncludeResource: font Helvetica
423.333 /Helvetica STDFONT
(\)) show grestore 40 setlinewidth L0 1980 1260 M 5160 0 R D 3174 1260 M
0 201 R D gsave 3174 621 translate 0 0 M 1.21 dup scale -294.217 0 N
(0.1) show grestore 7140 1260 M 0 201 R D gsave 7140 621 translate 0 0 M
1.21 dup scale -294.217 0 N
(1.0) show grestore 1980 1260 M 0 101 R D 2294 1260 M 0 101 R D 2560 1260 M
0 101 R D 2790 1260 M 0 101 R D 2992 1260 M 0 101 R D 4368 1260 M 0 101 R D
5066 1260 M 0 101 R D 5562 1260 M 0 101 R D 5946 1260 M 0 101 R D
6260 1260 M 0 101 R D 6526 1260 M 0 101 R D 6756 1260 M 0 101 R D
6959 1260 M 0 101 R D 1980 6296 M 5160 0 R D 3174 6296 M 0 -201 R D
7140 6296 M 0 -201 R D 1980 6296 M 0 -101 R D 2294 6296 M 0 -101 R D
2560 6296 M 0 -101 R D 2790 6296 M 0 -101 R D 2992 6296 M 0 -101 R D
4368 6296 M 0 -101 R D 5066 6296 M 0 -101 R D 5562 6296 M 0 -101 R D
5946 6296 M 0 -101 R D 6260 6296 M 0 -101 R D 6526 6296 M 0 -101 R D
6756 6296 M 0 -101 R D 6959 6296 M 0 -101 R D 1980 1260 M 0 5036 R D
1980 2287 M 206 0 R D gsave 1846 2117 translate 0 0 M 1.21 dup scale
-823.807 0 N
(0.01) show grestore 1980 4251 M 206 0 R D gsave 1846 4080 translate 0 0 M
1.21 dup scale -823.807 0 N
(0.10) show grestore 1980 6215 M 206 0 R D gsave 1846 5998 translate 0 0 M
1.21 dup scale -823.807 0 N
(1.00) show grestore 1980 1260 M 103 0 R D 1980 1505 M 103 0 R D 1980 1696 M
103 0 R D 1980 1851 M 103 0 R D 1980 1983 M 103 0 R D 1980 2097 M 103 0 R D
1980 2197 M 103 0 R D 1980 2878 M 103 0 R D 1980 3224 M 103 0 R D
1980 3469 M 103 0 R D 1980 3660 M 103 0 R D 1980 3815 M 103 0 R D
1980 3947 M 103 0 R D 1980 4060 M 103 0 R D 1980 4161 M 103 0 R D
1980 4842 M 103 0 R D 1980 5188 M 103 0 R D 1980 5433 M 103 0 R D
1980 5624 M 103 0 R D 1980 5779 M 103 0 R D 1980 5910 M 103 0 R D
1980 6024 M 103 0 R D 1980 6125 M 103 0 R D 7140 1260 M 0 5036 R D
7140 2287 M -206 0 R D 7140 4251 M -206 0 R D 7140 6215 M -206 0 R D
7140 1260 M -103 0 R D 7140 1505 M -103 0 R D 7140 1696 M -103 0 R D
7140 1851 M -103 0 R D 7140 1983 M -103 0 R D 7140 2097 M -103 0 R D
7140 2197 M -103 0 R D 7140 2878 M -103 0 R D 7140 3224 M -103 0 R D
7140 3469 M -103 0 R D 7140 3660 M -103 0 R D 7140 3815 M -103 0 R D
7140 3947 M -103 0 R D 7140 4060 M -103 0 R D 7140 4161 M -103 0 R D
7140 4842 M -103 0 R D 7140 5188 M -103 0 R D 7140 5433 M -103 0 R D
7140 5624 M -103 0 R D 7140 5779 M -103 0 R D 7140 5910 M -103 0 R D
7140 6024 M -103 0 R D 7140 6125 M -103 0 R D 0.502 0.502 0.502 setrgbcolor
2128 1260 M 605 1048 R 882 837 R 881 1247 R 881 717 R 882 564 R 881 542 R D
0.000 0.000 0.000 setrgbcolor 1979 2152 M 754 949 R 882 944 R 881 713 R
881 617 R 882 476 R 881 364 R D L1 0.502 0.502 0.502 setrgbcolor 2733 2781 M
882 1529 R 881 131 R 881 896 R 882 547 R 881 331 R D
0.000 0.000 0.000 setrgbcolor 2105 1260 M 628 914 R 882 1134 R 881 905 R
881 798 R 882 679 R 881 525 R D L2 0.502 0.502 0.502 setrgbcolor 4496 4686 M
881 0 R 882 592 R 881 937 R D 0.000 0.000 0.000 setrgbcolor 2179 1260 M
554 743 R 882 937 R 881 1200 R 881 792 R 882 704 R 881 579 R D
gsave 4560 6510 translate 0 0 M 1.1 dup scale -1387.69 0 N
(m\(z=0\)/M\(z=0\)) show grestore L0 4044 3023 M 67 0 R 67 0 R 67 0 R 67 0 R
67 0 R 68 0 R 67 0 R 67 0 R 67 0 R D L1 4044 2418 M 67 0 R 67 0 R 67 0 R
67 0 R 67 0 R 68 0 R 67 0 R 67 0 R 67 0 R D L2 4044 1814 M 67 0 R 67 0 R
67 0 R 67 0 R 67 0 R 68 0 R 67 0 R 67 0 R 67 0 R D
gsave 4715 2871 translate 0 0 M 1.1 dup scale
([10) show X 192.937 M
%%IncludeResource: font Helvetica
262.467 /Helvetica STDFONT
(-5) show X 0 M
%%IncludeResource: font Helvetica
423.333 /Helvetica STDFONT
(,10) show X 192.937 M
%%IncludeResource: font Helvetica
262.467 /Helvetica STDFONT
(-4) show X 0 M
%%IncludeResource: font Helvetica
423.333 /Helvetica STDFONT
(]) show grestore gsave 4715 2266 translate 0 0 M 1.1 dup scale
([10) show X 192.937 M
%%IncludeResource: font Helvetica
262.467 /Helvetica STDFONT
(-4) show X 0 M
%%IncludeResource: font Helvetica
423.333 /Helvetica STDFONT
(,10) show X 192.937 M
%%IncludeResource: font Helvetica
262.467 /Helvetica STDFONT
(-3) show X 0 M
%%IncludeResource: font Helvetica
423.333 /Helvetica STDFONT
(]) show grestore gsave 4715 1662 translate 0 0 M 1.1 dup scale
([10) show X 192.937 M
%%IncludeResource: font Helvetica
262.467 /Helvetica STDFONT
(-3) show X 0 M
%%IncludeResource: font Helvetica
423.333 /Helvetica STDFONT
(,10) show X 192.937 M
%%IncludeResource: font Helvetica
262.467 /Helvetica STDFONT
(-2) show X 0 M
%%IncludeResource: font Helvetica
423.333 /Helvetica STDFONT
(]) show grestore 0.502 0.502 0.502 setrgbcolor
gsave 6779 4030 translate 0 0 M -2000.25 0 N
(Via Lactea) show grestore L0 0.000 0.000 0.000 setrgbcolor 7140 1260 M
5160 0 R D 8334 1260 M 0 201 R D gsave 8334 621 translate 0 0 M
1.21 dup scale -294.217 0 N
(0.1) show grestore 12300 1260 M 0 201 R D gsave 12300 621 translate 0 0 M
1.21 dup scale -294.217 0 N
(1.0) show grestore 7140 1260 M 0 101 R D 7454 1260 M 0 101 R D 7720 1260 M
0 101 R D 7950 1260 M 0 101 R D 8153 1260 M 0 101 R D 9528 1260 M 0 101 R D
10226 1260 M 0 101 R D 10722 1260 M 0 101 R D 11106 1260 M 0 101 R D
11420 1260 M 0 101 R D 11686 1260 M 0 101 R D 11916 1260 M 0 101 R D
12119 1260 M 0 101 R D 7140 6296 M 5160 0 R D 8334 6296 M 0 -201 R D
12300 6296 M 0 -201 R D 7140 6296 M 0 -101 R D 7454 6296 M 0 -101 R D
7720 6296 M 0 -101 R D 7950 6296 M 0 -101 R D 8153 6296 M 0 -101 R D
9528 6296 M 0 -101 R D 10226 6296 M 0 -101 R D 10722 6296 M 0 -101 R D
11106 6296 M 0 -101 R D 11420 6296 M 0 -101 R D 11686 6296 M 0 -101 R D
11916 6296 M 0 -101 R D 12119 6296 M 0 -101 R D 7140 1260 M 0 5036 R D
7140 2287 M 206 0 R D gsave 7006 2117 translate 0 0 M 1.21 dup scale
-117.687 0 N
( ) show grestore 7140 4251 M 206 0 R D gsave 7006 4080 translate 0 0 M
1.21 dup scale -117.687 0 N
( ) show grestore 7140 6215 M 206 0 R D gsave 7006 5998 translate 0 0 M
1.21 dup scale -117.687 0 N
( ) show grestore 7140 1260 M 103 0 R D 7140 1505 M 103 0 R D 7140 1696 M
103 0 R D 7140 1851 M 103 0 R D 7140 1983 M 103 0 R D 7140 2097 M 103 0 R D
7140 2197 M 103 0 R D 7140 2878 M 103 0 R D 7140 3224 M 103 0 R D
7140 3469 M 103 0 R D 7140 3660 M 103 0 R D 7140 3815 M 103 0 R D
7140 3947 M 103 0 R D 7140 4060 M 103 0 R D 7140 4161 M 103 0 R D
7140 4842 M 103 0 R D 7140 5188 M 103 0 R D 7140 5433 M 103 0 R D
7140 5624 M 103 0 R D 7140 5779 M 103 0 R D 7140 5910 M 103 0 R D
7140 6024 M 103 0 R D 7140 6125 M 103 0 R D 12300 1260 M 0 5036 R D
12300 2287 M -206 0 R D 12300 4251 M -206 0 R D 12300 6215 M -206 0 R D
12300 1260 M -103 0 R D 12300 1505 M -103 0 R D 12300 1696 M -103 0 R D
12300 1851 M -103 0 R D 12300 1983 M -103 0 R D 12300 2097 M -103 0 R D
12300 2197 M -103 0 R D 12300 2878 M -103 0 R D 12300 3224 M -103 0 R D
12300 3469 M -103 0 R D 12300 3660 M -103 0 R D 12300 3815 M -103 0 R D
12300 3947 M -103 0 R D 12300 4060 M -103 0 R D 12300 4161 M -103 0 R D
12300 4842 M -103 0 R D 12300 5188 M -103 0 R D 12300 5433 M -103 0 R D
12300 5624 M -103 0 R D 12300 5779 M -103 0 R D 12300 5910 M -103 0 R D
12300 6024 M -103 0 R D 12300 6125 M -103 0 R D 7140 4223 M 753 410 R
882 433 R 881 375 R 881 323 R 882 253 R 881 198 R D L1 7140 4399 M 753 428 R
882 391 R 881 331 R 881 278 R 882 218 R 881 170 R D L2 7140 4468 M 753 442 R
882 429 R 881 349 R 881 240 R 882 148 R 881 139 R D
gsave 9720 6510 translate 0 0 M 1.1 dup scale -1350.59 0 N
(m\(z) show X -101.051 M
%%IncludeResource: font Helvetica
262.467 /Helvetica STDFONT
(acc) show X 0 M
%%IncludeResource: font Helvetica
423.333 /Helvetica STDFONT
(\)/M\(z=0\)) show grestore L0 9204 3023 M 67 0 R 67 0 R 67 0 R 67 0 R
67 0 R 68 0 R 67 0 R 67 0 R 67 0 R D L1 9204 2418 M 67 0 R 67 0 R 67 0 R
67 0 R 67 0 R 68 0 R 67 0 R 67 0 R 67 0 R D L2 9204 1814 M 67 0 R 67 0 R
67 0 R 67 0 R 67 0 R 68 0 R 67 0 R 67 0 R 67 0 R D
gsave 9875 2871 translate 0 0 M 1.1 dup scale
([10) show X 192.937 M
%%IncludeResource: font Helvetica
262.467 /Helvetica STDFONT
(-4) show X 0 M
%%IncludeResource: font Helvetica
423.333 /Helvetica STDFONT
(,10) show X 192.937 M
%%IncludeResource: font Helvetica
262.467 /Helvetica STDFONT
(-3) show X 0 M
%%IncludeResource: font Helvetica
423.333 /Helvetica STDFONT
(]) show grestore gsave 9875 2266 translate 0 0 M 1.1 dup scale
([10) show X 192.937 M
%%IncludeResource: font Helvetica
262.467 /Helvetica STDFONT
(-3) show X 0 M
%%IncludeResource: font Helvetica
423.333 /Helvetica STDFONT
(,10) show X 192.937 M
%%IncludeResource: font Helvetica
262.467 /Helvetica STDFONT
(-2) show X 0 M
%%IncludeResource: font Helvetica
423.333 /Helvetica STDFONT
(]) show grestore gsave 9875 1662 translate 0 0 M 1.1 dup scale
([10) show X 192.937 M
%%IncludeResource: font Helvetica
262.467 /Helvetica STDFONT
(-2) show X 0 M
%%IncludeResource: font Helvetica
423.333 /Helvetica STDFONT
(,1]) show grestore L0 12300 1260 M 5160 0 R D 13494 1260 M 0 201 R D
gsave 13494 621 translate 0 0 M 1.21 dup scale -294.217 0 N
(0.1) show grestore 17460 1260 M 0 201 R D gsave 17460 621 translate 0 0 M
1.21 dup scale -294.217 0 N
(1.0) show grestore 12300 1260 M 0 101 R D 12614 1260 M 0 101 R D
12880 1260 M 0 101 R D 13110 1260 M 0 101 R D 13313 1260 M 0 101 R D
14688 1260 M 0 101 R D 15386 1260 M 0 101 R D 15882 1260 M 0 101 R D
16266 1260 M 0 101 R D 16580 1260 M 0 101 R D 16846 1260 M 0 101 R D
17076 1260 M 0 101 R D 17279 1260 M 0 101 R D 12300 6296 M 5160 0 R D
13494 6296 M 0 -201 R D 17460 6296 M 0 -201 R D 12300 6296 M 0 -101 R D
12614 6296 M 0 -101 R D 12880 6296 M 0 -101 R D 13110 6296 M 0 -101 R D
13313 6296 M 0 -101 R D 14688 6296 M 0 -101 R D 15386 6296 M 0 -101 R D
15882 6296 M 0 -101 R D 16266 6296 M 0 -101 R D 16580 6296 M 0 -101 R D
16846 6296 M 0 -101 R D 17076 6296 M 0 -101 R D 17279 6296 M 0 -101 R D
12300 1260 M 0 5036 R D 12300 2287 M 207 0 R D
gsave 12166 2117 translate 0 0 M 1.21 dup scale -117.687 0 N
( ) show grestore 12300 4251 M 207 0 R D gsave 12166 4080 translate 0 0 M
1.21 dup scale -117.687 0 N
( ) show grestore 12300 6215 M 207 0 R D gsave 12166 5998 translate 0 0 M
1.21 dup scale -117.687 0 N
( ) show grestore 12300 1260 M 103 0 R D 12300 1505 M 103 0 R D 12300 1696 M
103 0 R D 12300 1851 M 103 0 R D 12300 1983 M 103 0 R D 12300 2097 M 103 0 R
D 12300 2197 M 103 0 R D 12300 2878 M 103 0 R D 12300 3224 M 103 0 R D
12300 3469 M 103 0 R D 12300 3660 M 103 0 R D 12300 3815 M 103 0 R D
12300 3947 M 103 0 R D 12300 4060 M 103 0 R D 12300 4161 M 103 0 R D
12300 4842 M 103 0 R D 12300 5188 M 103 0 R D 12300 5433 M 103 0 R D
12300 5624 M 103 0 R D 12300 5779 M 103 0 R D 12300 5910 M 103 0 R D
12300 6024 M 103 0 R D 12300 6125 M 103 0 R D 17460 1260 M 0 5036 R D
17460 2287 M -206 0 R D 17460 4251 M -206 0 R D 17460 6215 M -206 0 R D
17460 1260 M -103 0 R D 17460 1505 M -103 0 R D 17460 1696 M -103 0 R D
17460 1851 M -103 0 R D 17460 1983 M -103 0 R D 17460 2097 M -103 0 R D
17460 2197 M -103 0 R D 17460 2878 M -103 0 R D 17460 3224 M -103 0 R D
17460 3469 M -103 0 R D 17460 3660 M -103 0 R D 17460 3815 M -103 0 R D
17460 3947 M -103 0 R D 17460 4060 M -103 0 R D 17460 4161 M -103 0 R D
17460 4842 M -103 0 R D 17460 5188 M -103 0 R D 17460 5433 M -103 0 R D
17460 5624 M -103 0 R D 17460 5779 M -103 0 R D 17460 5910 M -103 0 R D
17460 6024 M -103 0 R D 17460 6125 M -103 0 R D 12300 4794 M 753 513 R
882 458 R 881 303 R 881 130 R 882 17 R 881 0 R D L1 12300 2606 M 753 818 R
882 824 R 881 745 R 881 662 R 882 403 R 881 157 R D L2 12336 1260 M
717 907 R 882 768 R 881 791 R 881 895 R 882 849 R 881 745 R D
gsave 14880 6510 translate 0 0 M 1.1 dup scale -1564.22 0 N
(accretion time\(z\)) show grestore L0 14364 3023 M 67 0 R 67 0 R 67 0 R
67 0 R 68 0 R 67 0 R 67 0 R 67 0 R 67 0 R D L1 14364 2418 M 67 0 R 67 0 R
67 0 R 67 0 R 68 0 R 67 0 R 67 0 R 67 0 R 67 0 R D L2 14364 1814 M 67 0 R
67 0 R 67 0 R 67 0 R 68 0 R 67 0 R 67 0 R 67 0 R 67 0 R D
gsave 15035 2871 translate 0 0 M 1.1 dup scale
([2,6]) show grestore gsave 15035 2266 translate 0 0 M 1.1 dup scale
([0.5,2]) show grestore gsave 15035 1662 translate 0 0 M 1.1 dup scale
([0,0.5]) show grestore
%%PageTrailer
end
%%PageResources: font Helvetica
%%Trailer
%%Pages: 1
%%DocumentNeededResources: font Helvetica
%%EOF
