%!PS-Adobe-3.0 EPSF-3.0
%%BoundingBox: 0 0 453 340
%%Title: Graphics produced by IDL
%%For: daxia@Lserver, /home/daxia/work/subhalo_model
%%Creator: IDL Version 7.0 (linux x86_64 m64)
%%CreationDate: Mon Jun 13 10:52:40 2011
%%DocumentData: Clean7bit
%%Requirements: color
%%LanguageLevel: 1
%%PageOrder: Ascend
%%Pages: (atend)
%%DocumentNeededResources: (atend)
%%EndComments
%%BeginProlog
%+ prolog.ps -- Prolog for IDL generated PostScript files
%+ Copyright (c) 1988-2007 ITT Visual Information Solutions. All Rights Reserved.
%v 5
/$IDL_DICT 40 dict def $IDL_DICT begin /bdef { bind def } bind def /C
{currentpoint newpath moveto} bdef /CP {currentpoint} bdef /D {currentpoint
stroke moveto} bdef /F {closepath fill} bdef /K { setgray } bdef /M {moveto}
bdef /N {rmoveto} bdef /P {lineto} bdef /R {rlineto} bdef /S {gsave show
grestore} bdef /X {currentpoint pop} bdef /Z {gsave currentpoint lineto 20
setlinewidth 1 setlinecap stroke grestore} bdef /L0 {[] 0 setdash} bdef /L1
{[40 100] 0 setdash} bdef /L2 {[200 200] 0 setdash} bdef /L3 {[200 100 50
100] 0 setdash} bdef /L4 {[300 100 50 100 50 100 50 100] 0 setdash} bdef /L5
{[400 200] 0 setdash} bdef /STDFONT { findfont exch scalefont setfont } bdef
/ISOFONT { findfont dup length dict begin { 1 index /FID ne {def} {pop pop}
ifelse } forall /Encoding ISOLatin1Encoding def currentdict end /idltmpfont
exch definefont exch scalefont setfont } bdef /ISOBULLET { gsave /Helvetica
findfont exch scalefont setfont (\267) show currentpoint grestore moveto}
bdef /MITERLIMIT { 2.5 setmiterlimit } bdef end
%%EndProlog
%%Page: 0 1
%%PageRequirements: color
%%PageResources: (atend)
%%PageOrientation: Portrait
%%PageBoundingBox: 0 0 453 340
%%BeginPageSetup
$IDL_DICT begin 0.0283465 dup scale MITERLIMIT
%%IncludeResource: font Helvetica
423.333 /Helvetica STDFONT
%%EndPageSetup
0.000 0.000 0.000 setrgbcolor gsave 8640 448 translate 0 0 M 1.1 dup scale
-576.368 0 N
(t / Gyr) show grestore gsave 637 6600 translate 0 0 M 90 rotate
1.1 dup scale -1099.4 0 N
(m\(t\)/M\(z=0\)) show grestore 40 setlinewidth L0 2080 7080 M 5760 0 R D
2080 7080 M 0 178 R D gsave 2080 6441 translate 0 0 M 1.21 dup scale
-117.687 0 N
(0) show grestore 3520 7080 M 0 178 R D gsave 3520 6441 translate 0 0 M
1.21 dup scale -117.687 0 N
(2) show grestore 4960 7080 M 0 178 R D gsave 4960 6441 translate 0 0 M
1.21 dup scale -117.687 0 N
(4) show grestore 6400 7080 M 0 178 R D gsave 6400 6441 translate 0 0 M
1.21 dup scale -117.687 0 N
(6) show grestore 7840 7080 M 0 178 R D gsave 7840 6441 translate 0 0 M
1.21 dup scale -117.687 0 N
(8) show grestore 2440 7080 M 0 89 R D 2800 7080 M 0 89 R D 3160 7080 M
0 89 R D 3880 7080 M 0 89 R D 4240 7080 M 0 89 R D 4600 7080 M 0 89 R D
5320 7080 M 0 89 R D 5680 7080 M 0 89 R D 6040 7080 M 0 89 R D 6760 7080 M
0 89 R D 7120 7080 M 0 89 R D 7480 7080 M 0 89 R D 2080 11520 M 5760 0 R D
2080 11520 M 0 -177 R D 3520 11520 M 0 -177 R D 4960 11520 M 0 -177 R D
6400 11520 M 0 -177 R D 7840 11520 M 0 -177 R D 2440 11520 M 0 -89 R D
2800 11520 M 0 -89 R D 3160 11520 M 0 -89 R D 3880 11520 M 0 -89 R D
4240 11520 M 0 -89 R D 4600 11520 M 0 -89 R D 5320 11520 M 0 -89 R D
5680 11520 M 0 -89 R D 6040 11520 M 0 -89 R D 6760 11520 M 0 -89 R D
7120 11520 M 0 -89 R D 7480 11520 M 0 -89 R D 2080 7080 M 0 4440 R D
2080 11068 M 230 0 R D gsave 1946 10898 translate 0 0 M 1.21 dup scale
-823.807 0 N
(0.01) show grestore 2080 7080 M 115 0 R D 2080 8085 M 115 0 R D 2080 8798 M
115 0 R D 2080 9351 M 115 0 R D 2080 9802 M 115 0 R D 2080 10184 M 115 0 R D
2080 10515 M 115 0 R D 2080 10807 M 115 0 R D 7840 7080 M 0 4440 R D
7840 11068 M -230 0 R D 7840 7080 M -115 0 R D 7840 8085 M -115 0 R D
7840 8798 M -115 0 R D 7840 9351 M -115 0 R D 7840 9802 M -115 0 R D
7840 10184 M -115 0 R D 7840 10515 M -115 0 R D 7840 10807 M -115 0 R D L1
1.000 0.000 0.706 setrgbcolor 2080 11068 M 72 -15 R 144 -37 R 144 -70 R
144 -138 R 72 -184 R 69 -347 R 62 -536 R 54 -483 R 51 -299 R 59 -135 R
57 -90 R 76 -65 R 126 -62 R 144 -42 R 144 -28 R 144 -22 R 144 -18 R
144 -14 R 144 -13 R 144 -12 R 144 -11 R 144 -10 R 144 -9 R 144 -9 R 144 -9 R
144 -8 R 144 -9 R 144 -8 R 144 -9 R 144 -8 R 144 -9 R 144 -10 R 144 -9 R
144 -11 R 144 -11 R 144 -12 R 144 -14 R 144 -17 R 144 -19 R 144 -24 R
144 -35 R 144 -54 R 144 -119 R 67 -126 R 66 -259 R 59 -384 R 30 -175 R D L2
0.506 0.000 0.000 setrgbcolor 2080 11068 M 72 -5 R 144 -23 R 144 -21 R
144 -167 R 52 -125 R 74 -326 R 67 -532 R 59 -543 R 55 -358 R 59 -189 R
69 -102 R 80 -47 R 85 -27 R 118 -25 R 144 -19 R 144 -14 R 144 -10 R 144 -8 R
144 -7 R 144 -7 R 144 -5 R 144 -6 R 144 -5 R 144 -5 R 144 -4 R 144 -5 R
144 -4 R 144 -5 R 144 -4 R 144 -5 R 144 -5 R 144 -4 R 144 -5 R 144 -6 R
144 -5 R 144 -7 R 144 -7 R 144 -8 R 144 -10 R 144 -12 R 144 -16 R 144 -28 R
144 -65 R 87 -87 R 62 -160 R 67 -361 R 59 -416 R 35 -183 R D L3
0.000 0.549 0.000 setrgbcolor 2080 11068 M 72 0 R 144 0 R 144 0 R 105 -101 R
90 -193 R 77 -345 R 70 -571 R 62 -566 R 58 -365 R 65 -194 R 82 -83 R
96 -22 R 105 0 R 144 0 R 144 0 R 144 0 R 144 0 R 144 0 R 144 0 R 144 0 R
144 0 R 144 0 R 144 0 R 144 0 R 144 0 R 144 0 R 144 0 R 144 0 R 144 0 R
144 0 R 144 0 R 144 0 R 144 0 R 144 0 R 144 0 R 144 0 R 144 0 R 144 0 R
144 0 R 144 0 R 144 0 R 144 0 R 120 -52 R 44 -76 R 62 -225 R 67 -457 R
60 -438 R 56 -249 R 5 -4 R D L4 0.000 0.514 1.000 setrgbcolor 2080 11068 M
72 0 R 144 0 R 144 0 R 144 0 R 46 -43 R 42 -149 R 53 -298 R 77 -671 R
62 -548 R 60 -334 R 71 -187 R 68 -44 R 72 0 R 144 0 R 144 0 R 144 0 R
144 0 R 144 0 R 144 0 R 144 0 R 144 0 R 144 0 R 145 0 R 144 0 R 144 0 R
144 0 R 144 0 R 144 0 R 144 0 R 144 0 R 144 0 R 144 0 R 144 0 R 144 0 R
144 0 R 144 0 R 144 0 R 144 0 R 144 0 R 144 0 R 144 0 R 144 0 R 144 0 R
84 -144 R 77 -357 R 70 -542 R 66 -458 R 61 -203 R 9 -10 R D L5
1.000 0.349 0.000 setrgbcolor 2080 11068 M 72 0 R 144 0 R 144 0 R 144 0 R
47 0 R 88 -394 R 78 -650 R 67 -595 R 64 -380 R 73 -210 R 96 -17 R 111 0 R
144 0 R 144 0 R 144 0 R 144 0 R 144 0 R 144 0 R 144 0 R 144 0 R 144 0 R
144 0 R 144 0 R 144 0 R 144 0 R 144 0 R 144 0 R 144 0 R 144 0 R 144 0 R
144 0 R 144 0 R 144 0 R 144 0 R 144 0 R 144 0 R 144 0 R 144 0 R 144 0 R
144 0 R 144 0 R 94 0 R 87 -182 R 81 -436 R 71 -587 R 69 -449 R 30 -88 R D L0
0.000 0.000 0.000 setrgbcolor 9440 7080 M 5760 0 R D 9440 7080 M 0 178 R D
gsave 9440 6441 translate 0 0 M 1.21 dup scale -117.687 0 N
(0) show grestore 10263 7080 M 0 178 R D gsave 10263 6441 translate 0 0 M
1.21 dup scale -117.687 0 N
(1) show grestore 11086 7080 M 0 178 R D gsave 11086 6441 translate 0 0 M
1.21 dup scale -117.687 0 N
(2) show grestore 11909 7080 M 0 178 R D gsave 11909 6441 translate 0 0 M
1.21 dup scale -117.687 0 N
(3) show grestore 12732 7080 M 0 178 R D gsave 12732 6441 translate 0 0 M
1.21 dup scale -117.687 0 N
(4) show grestore 13554 7080 M 0 178 R D gsave 13554 6441 translate 0 0 M
1.21 dup scale -117.687 0 N
(5) show grestore 14377 7080 M 0 178 R D gsave 14377 6441 translate 0 0 M
1.21 dup scale -117.687 0 N
(6) show grestore 15200 7080 M 0 178 R D gsave 15200 6441 translate 0 0 M
1.21 dup scale -117.687 0 N
(7) show grestore 9522 7080 M 0 89 R D 9605 7080 M 0 89 R D 9687 7080 M
0 89 R D 9769 7080 M 0 89 R D 9852 7080 M 0 89 R D 9934 7080 M 0 89 R D
10016 7080 M 0 89 R D 10098 7080 M 0 89 R D 10181 7080 M 0 89 R D
10345 7080 M 0 89 R D 10428 7080 M 0 89 R D 10510 7080 M 0 89 R D
10592 7080 M 0 89 R D 10674 7080 M 0 89 R D 10757 7080 M 0 89 R D
10839 7080 M 0 89 R D 10921 7080 M 0 89 R D 11004 7080 M 0 89 R D
11168 7080 M 0 89 R D 11250 7080 M 0 89 R D 11333 7080 M 0 89 R D
11415 7080 M 0 89 R D 11497 7080 M 0 89 R D 11580 7080 M 0 89 R D
11662 7080 M 0 89 R D 11744 7080 M 0 89 R D 11826 7080 M 0 89 R D
11991 7080 M 0 89 R D 12073 7080 M 0 89 R D 12156 7080 M 0 89 R D
12238 7080 M 0 89 R D 12320 7080 M 0 89 R D 12402 7080 M 0 89 R D
12485 7080 M 0 89 R D 12567 7080 M 0 89 R D 12649 7080 M 0 89 R D
12814 7080 M 0 89 R D 12896 7080 M 0 89 R D 12978 7080 M 0 89 R D
13061 7080 M 0 89 R D 13143 7080 M 0 89 R D 13225 7080 M 0 89 R D
13308 7080 M 0 89 R D 13390 7080 M 0 89 R D 13472 7080 M 0 89 R D
13637 7080 M 0 89 R D 13719 7080 M 0 89 R D 13801 7080 M 0 89 R D
13884 7080 M 0 89 R D 13966 7080 M 0 89 R D 14048 7080 M 0 89 R D
14130 7080 M 0 89 R D 14213 7080 M 0 89 R D 14295 7080 M 0 89 R D
14460 7080 M 0 89 R D 14542 7080 M 0 89 R D 14624 7080 M 0 89 R D
14706 7080 M 0 89 R D 14789 7080 M 0 89 R D 14871 7080 M 0 89 R D
14953 7080 M 0 89 R D 15036 7080 M 0 89 R D 15118 7080 M 0 89 R D
9440 11520 M 5760 0 R D 9440 11520 M 0 -177 R D 10263 11520 M 0 -177 R D
11086 11520 M 0 -177 R D 11909 11520 M 0 -177 R D 12732 11520 M 0 -177 R D
13554 11520 M 0 -177 R D 14377 11520 M 0 -177 R D 15200 11520 M 0 -177 R D
9522 11520 M 0 -89 R D 9605 11520 M 0 -89 R D 9687 11520 M 0 -89 R D
9769 11520 M 0 -89 R D 9852 11520 M 0 -89 R D 9934 11520 M 0 -89 R D
10016 11520 M 0 -89 R D 10098 11520 M 0 -89 R D 10181 11520 M 0 -89 R D
10345 11520 M 0 -89 R D 10428 11520 M 0 -89 R D 10510 11520 M 0 -89 R D
10592 11520 M 0 -89 R D 10674 11520 M 0 -89 R D 10757 11520 M 0 -89 R D
10839 11520 M 0 -89 R D 10921 11520 M 0 -89 R D 11004 11520 M 0 -89 R D
11168 11520 M 0 -89 R D 11250 11520 M 0 -89 R D 11333 11520 M 0 -89 R D
11415 11520 M 0 -89 R D 11497 11520 M 0 -89 R D 11580 11520 M 0 -89 R D
11662 11520 M 0 -89 R D 11744 11520 M 0 -89 R D 11826 11520 M 0 -89 R D
11991 11520 M 0 -89 R D 12073 11520 M 0 -89 R D 12156 11520 M 0 -89 R D
12238 11520 M 0 -89 R D 12320 11520 M 0 -89 R D 12402 11520 M 0 -89 R D
12485 11520 M 0 -89 R D 12567 11520 M 0 -89 R D 12649 11520 M 0 -89 R D
12814 11520 M 0 -89 R D 12896 11520 M 0 -89 R D 12978 11520 M 0 -89 R D
13061 11520 M 0 -89 R D 13143 11520 M 0 -89 R D 13225 11520 M 0 -89 R D
13308 11520 M 0 -89 R D 13390 11520 M 0 -89 R D 13472 11520 M 0 -89 R D
13637 11520 M 0 -89 R D 13719 11520 M 0 -89 R D 13801 11520 M 0 -89 R D
13884 11520 M 0 -89 R D 13966 11520 M 0 -89 R D 14048 11520 M 0 -89 R D
14130 11520 M 0 -89 R D 14213 11520 M 0 -89 R D 14295 11520 M 0 -89 R D
14460 11520 M 0 -89 R D 14542 11520 M 0 -89 R D 14624 11520 M 0 -89 R D
14706 11520 M 0 -89 R D 14789 11520 M 0 -89 R D 14871 11520 M 0 -89 R D
14953 11520 M 0 -89 R D 15036 11520 M 0 -89 R D 15118 11520 M 0 -89 R D
9440 7080 M 0 4440 R D 9440 8065 M 230 0 R D gsave 9306 7895 translate 0 0 M
1.21 dup scale -823.807 0 N
(0.01) show grestore 9440 7080 M 115 0 R D 9440 7377 M 115 0 R D 9440 7635 M
115 0 R D 9440 7862 M 115 0 R D 9440 9402 M 115 0 R D 9440 10184 M 115 0 R D
9440 10738 M 115 0 R D 9440 11169 M 115 0 R D 9440 11520 M 115 0 R D
15200 7080 M 0 4440 R D 15200 8065 M -230 0 R D 15200 7080 M -115 0 R D
15200 7377 M -115 0 R D 15200 7635 M -115 0 R D 15200 7862 M -115 0 R D
15200 9402 M -115 0 R D 15200 10184 M -115 0 R D 15200 10738 M -115 0 R D
15200 11169 M -115 0 R D 15200 11520 M -115 0 R D L1
1.000 0.000 0.706 setrgbcolor 9440 11169 M 82 -8 R 140 -16 R 150 -35 R
147 -85 R 90 -107 R 83 -196 R 73 -347 R 65 -461 R 63 -387 R 58 -204 R
70 -118 R 94 -64 R 97 -37 R 165 -35 R 164 -19 R 165 -14 R 165 -12 R 164 -9 R
165 -9 R 164 -8 R 165 -8 R 164 -7 R 165 -7 R 165 -8 R 164 -9 R 165 -9 R
164 -10 R 165 -11 R 164 -16 R 165 -21 R 165 -41 R 127 -75 R 74 -101 R
68 -218 R 61 -349 R 52 -290 R 50 -164 R 60 -96 R 78 -58 R 108 -40 R
163 -31 R 165 -18 R 165 -14 R 164 -11 R 165 -10 R 85 -5 R D L2
0.506 0.000 0.000 setrgbcolor 9440 11169 M 82 -1 R 165 -1 R 165 -22 R
162 -52 R 37 -51 R 30 -61 R 83 -272 R 75 -447 R 65 -469 R 61 -320 R
66 -172 R 65 -47 R 62 -33 R 59 -15 R 64 -7 R 78 -9 R 92 -2 R 165 -4 R
164 -2 R 165 -2 R 164 -2 R 165 -2 R 165 -2 R 164 -1 R 165 -2 R 164 -1 R
165 -2 R 164 -1 R 165 -2 R 165 -3 R 164 -2 R 165 -4 R 164 -5 R 142 -44 R
66 -61 R 79 -177 R 68 -343 R 59 -403 R 57 -273 R 57 -128 R 72 -61 R 97 -26 R
106 -12 R 136 -7 R 165 -3 R 164 -1 R 165 -1 R 164 -1 R 119 -1 R D L3
0.000 0.549 0.000 setrgbcolor 9440 11169 M 82 0 R 165 0 R 165 0 R 164 -89 R
37 -54 R 32 -68 R 75 -245 R 75 -430 R 75 -537 R 68 -345 R 70 -175 R 90 -48 R
81 -18 R 98 0 R 164 0 R 165 0 R 164 0 R 165 0 R 165 0 R 164 0 R 165 0 R
164 0 R 165 0 R 164 0 R 165 0 R 165 0 R 164 0 R 165 0 R 164 0 R 165 0 R
164 0 R 165 -11 R 71 -66 R 79 -192 R 72 -379 R 62 -437 R 60 -292 R 61 -131 R
77 -51 R 104 -1 R 136 -1 R 165 0 R 165 0 R 164 0 R 165 0 R 140 0 R D L4
0.000 0.514 1.000 setrgbcolor 9440 11169 M 82 0 R 165 0 R 165 0 R 164 0 R
97 -197 R 88 -383 R 78 -526 R 74 -470 R 68 -255 R 81 -140 R 80 0 R 145 0 R
164 0 R 165 0 R 164 0 R 165 0 R 164 0 R 165 0 R 165 0 R 164 0 R 165 0 R
164 0 R 165 0 R 164 0 R 165 0 R 165 0 R 164 0 R 165 0 R 164 0 R 165 0 R
80 -125 R 79 -305 R 71 -475 R 60 -396 R 58 -223 R 70 -100 R 90 -22 R 126 0 R
165 0 R 164 0 R 165 0 R 164 0 R 165 0 R 54 0 R D L5
1.000 0.349 0.000 setrgbcolor 9440 11169 M 82 0 R 165 0 R 165 0 R 164 0 R
103 -219 R 92 -413 R 81 -544 R 77 -463 R 73 -255 R 88 -135 R 118 -37 R
130 0 R 165 0 R 164 0 R 165 0 R 164 0 R 165 0 R 165 0 R 164 0 R 165 0 R
164 0 R 165 0 R 164 0 R 165 0 R 165 0 R 164 0 R 165 0 R 164 0 R 165 0 R
164 -28 R 95 -132 R 84 -300 R 77 -489 R 65 -433 R 63 -252 R 74 -106 R
95 -15 R 132 0 R 165 0 R 164 0 R 165 0 R 164 0 R 117 0 R D L0
0.000 0.000 0.000 setrgbcolor 2080 1680 M 5760 0 R D 2080 1680 M 0 178 R D
gsave 2080 1041 translate 0 0 M 1.21 dup scale -117.687 0 N
(0) show grestore 3040 1680 M 0 178 R D gsave 3040 1041 translate 0 0 M
1.21 dup scale -117.687 0 N
(1) show grestore 4000 1680 M 0 178 R D gsave 4000 1041 translate 0 0 M
1.21 dup scale -117.687 0 N
(2) show grestore 4960 1680 M 0 178 R D gsave 4960 1041 translate 0 0 M
1.21 dup scale -117.687 0 N
(3) show grestore 5920 1680 M 0 178 R D gsave 5920 1041 translate 0 0 M
1.21 dup scale -117.687 0 N
(4) show grestore 6880 1680 M 0 178 R D gsave 6880 1041 translate 0 0 M
1.21 dup scale -117.687 0 N
(5) show grestore 7840 1680 M 0 178 R D gsave 7840 1041 translate 0 0 M
1.21 dup scale -117.687 0 N
(6) show grestore 2176 1680 M 0 89 R D 2272 1680 M 0 89 R D 2368 1680 M
0 89 R D 2464 1680 M 0 89 R D 2560 1680 M 0 89 R D 2656 1680 M 0 89 R D
2752 1680 M 0 89 R D 2848 1680 M 0 89 R D 2944 1680 M 0 89 R D 3136 1680 M
0 89 R D 3232 1680 M 0 89 R D 3328 1680 M 0 89 R D 3424 1680 M 0 89 R D
3520 1680 M 0 89 R D 3616 1680 M 0 89 R D 3712 1680 M 0 89 R D 3808 1680 M
0 89 R D 3904 1680 M 0 89 R D 4096 1680 M 0 89 R D 4192 1680 M 0 89 R D
4288 1680 M 0 89 R D 4384 1680 M 0 89 R D 4480 1680 M 0 89 R D 4576 1680 M
0 89 R D 4672 1680 M 0 89 R D 4768 1680 M 0 89 R D 4864 1680 M 0 89 R D
5056 1680 M 0 89 R D 5152 1680 M 0 89 R D 5248 1680 M 0 89 R D 5344 1680 M
0 89 R D 5440 1680 M 0 89 R D 5536 1680 M 0 89 R D 5632 1680 M 0 89 R D
5728 1680 M 0 89 R D 5824 1680 M 0 89 R D 6016 1680 M 0 89 R D 6112 1680 M
0 89 R D 6208 1680 M 0 89 R D 6304 1680 M 0 89 R D 6400 1680 M 0 89 R D
6496 1680 M 0 89 R D 6592 1680 M 0 89 R D 6688 1680 M 0 89 R D 6784 1680 M
0 89 R D 6976 1680 M 0 89 R D 7072 1680 M 0 89 R D 7168 1680 M 0 89 R D
7264 1680 M 0 89 R D 7360 1680 M 0 89 R D 7456 1680 M 0 89 R D 7552 1680 M
0 89 R D 7648 1680 M 0 89 R D 7744 1680 M 0 89 R D 2080 6120 M 5760 0 R D
2080 6120 M 0 -178 R D 3040 6120 M 0 -178 R D 4000 6120 M 0 -178 R D
4960 6120 M 0 -178 R D 5920 6120 M 0 -178 R D 6880 6120 M 0 -178 R D
7840 6120 M 0 -178 R D 2176 6120 M 0 -89 R D 2272 6120 M 0 -89 R D
2368 6120 M 0 -89 R D 2464 6120 M 0 -89 R D 2560 6120 M 0 -89 R D
2656 6120 M 0 -89 R D 2752 6120 M 0 -89 R D 2848 6120 M 0 -89 R D
2944 6120 M 0 -89 R D 3136 6120 M 0 -89 R D 3232 6120 M 0 -89 R D
3328 6120 M 0 -89 R D 3424 6120 M 0 -89 R D 3520 6120 M 0 -89 R D
3616 6120 M 0 -89 R D 3712 6120 M 0 -89 R D 3808 6120 M 0 -89 R D
3904 6120 M 0 -89 R D 4096 6120 M 0 -89 R D 4192 6120 M 0 -89 R D
4288 6120 M 0 -89 R D 4384 6120 M 0 -89 R D 4480 6120 M 0 -89 R D
4576 6120 M 0 -89 R D 4672 6120 M 0 -89 R D 4768 6120 M 0 -89 R D
4864 6120 M 0 -89 R D 5056 6120 M 0 -89 R D 5152 6120 M 0 -89 R D
5248 6120 M 0 -89 R D 5344 6120 M 0 -89 R D 5440 6120 M 0 -89 R D
5536 6120 M 0 -89 R D 5632 6120 M 0 -89 R D 5728 6120 M 0 -89 R D
5824 6120 M 0 -89 R D 6016 6120 M 0 -89 R D 6112 6120 M 0 -89 R D
6208 6120 M 0 -89 R D 6304 6120 M 0 -89 R D 6400 6120 M 0 -89 R D
6496 6120 M 0 -89 R D 6592 6120 M 0 -89 R D 6688 6120 M 0 -89 R D
6784 6120 M 0 -89 R D 6976 6120 M 0 -89 R D 7072 6120 M 0 -89 R D
7168 6120 M 0 -89 R D 7264 6120 M 0 -89 R D 7360 6120 M 0 -89 R D
7456 6120 M 0 -89 R D 7552 6120 M 0 -89 R D 7648 6120 M 0 -89 R D
7744 6120 M 0 -89 R D 2080 1680 M 0 4440 R D 2080 1861 M 230 0 R D
gsave 1946 1690 translate 0 0 M 1.21 dup scale -823.807 0 N
(0.01) show grestore 2080 5808 M 230 0 R D gsave 1946 5637 translate 0 0 M
1.21 dup scale -823.807 0 N
(0.10) show grestore 2080 1680 M 115 0 R D 2080 3049 M 115 0 R D 2080 3744 M
115 0 R D 2080 4237 M 115 0 R D 2080 4619 M 115 0 R D 2080 4932 M 115 0 R D
2080 5196 M 115 0 R D 2080 5425 M 115 0 R D 2080 5627 M 115 0 R D
7840 1680 M 0 4440 R D 7840 1861 M -230 0 R D 7840 5808 M -230 0 R D
7840 1680 M -115 0 R D 7840 3049 M -115 0 R D 7840 3744 M -115 0 R D
7840 4237 M -115 0 R D 7840 4619 M -115 0 R D 7840 4932 M -115 0 R D
7840 5196 M -115 0 R D 7840 5425 M -115 0 R D 7840 5627 M -115 0 R D L1
1.000 0.000 0.706 setrgbcolor 2080 5808 M 96 -4 R 192 -10 R 192 -15 R
155 -82 R 101 -104 R 64 -125 R 84 -293 R 75 -424 R 65 -363 R 44 -172 R
71 -155 R 88 -88 R 120 -52 R 179 -26 R 192 -19 R 192 -13 R 192 -10 R
192 -9 R 192 -7 R 192 -7 R 192 -7 R 192 -9 R 192 -9 R 192 -13 R 192 -18 R
192 -27 R 111 -57 R 68 -75 R 63 -165 R 60 -323 R 52 -370 R 50 -252 R
50 -127 R 64 -60 R 61 -33 R 119 -31 R 178 -21 R 192 -13 R 192 -12 R 192 -9 R
192 -10 R 192 -9 R 94 -6 R D L2 0.506 0.000 0.000 setrgbcolor 2080 5808 M
96 0 R 192 0 R 192 0 R 144 0 R 110 -74 R 103 -242 R 86 -390 R 75 -450 R
71 -335 R 71 -182 R 66 -83 R 114 -35 R 110 -25 R 137 -3 R 180 -2 R 192 0 R
192 0 R 192 0 R 192 0 R 192 0 R 192 0 R 192 0 R 192 0 R 192 0 R 192 -5 R
177 -78 R 62 -82 R 67 -202 R 60 -369 R 53 -419 R 50 -288 R 51 -141 R
65 -68 R 87 -31 R 128 -8 R 162 -2 R 192 -1 R 192 0 R 192 -1 R 192 0 R
192 0 R 171 -2 R D L3 0.000 0.549 0.000 setrgbcolor 2080 5808 M 96 0 R
192 0 R 192 0 R 152 0 R 108 -77 R 99 -226 R 90 -409 R 79 -465 R 75 -344 R
76 -188 R 94 -82 R 90 -18 R 94 0 R 192 0 R 192 0 R 192 0 R 192 0 R 192 0 R
192 0 R 192 0 R 192 0 R 192 0 R 192 0 R 192 0 R 192 0 R 139 -44 R 74 -103 R
70 -227 R 63 -405 R 55 -442 R 52 -302 R 55 -149 R 69 -63 R 94 -19 R 138 0 R
192 0 R 192 0 R 192 0 R 192 0 R 192 0 R 192 0 R 58 0 R D L4
0.000 0.514 1.000 setrgbcolor 2080 5808 M 96 0 R 192 0 R 192 0 R 192 0 R
72 -57 R 68 -154 R 97 -375 R 86 -486 R 82 -408 R 77 -225 R 95 -125 R
126 -10 R 151 0 R 192 0 R 192 0 R 192 0 R 192 0 R 192 0 R 192 0 R 192 0 R
192 0 R 192 0 R 192 0 R 192 0 R 192 0 R 131 -49 R 81 -137 R 71 -275 R
65 -454 R 56 -434 R 55 -278 R 60 -139 R 78 -49 R 107 -4 R 161 0 R 192 0 R
192 0 R 192 0 R 192 0 R 192 0 R 105 0 R D L5 1.000 0.349 0.000 setrgbcolor
2080 5808 M 96 0 R 192 0 R 192 0 R 137 0 R 146 -182 R 108 -312 R 96 -479 R
93 -494 R 84 -291 R 93 -157 R 121 -70 R 170 -4 R 192 0 R 192 0 R 192 0 R
192 0 R 192 0 R 192 0 R 192 0 R 192 0 R 192 0 R 192 0 R 192 0 R 192 0 R
192 -10 R 126 -76 R 80 -146 R 77 -314 R 70 -476 R 60 -415 R 58 -256 R
68 -130 R 89 -31 R 124 0 R 187 0 R 192 0 R 192 0 R 192 0 R 192 0 R 29 0 R D
L0 0.000 0.000 0.000 setrgbcolor 9440 1680 M 5760 0 R D 9440 1680 M 0 178 R
D gsave 9440 1041 translate 0 0 M 1.21 dup scale -117.687 0 N
(0) show grestore 10592 1680 M 0 178 R D gsave 10592 1041 translate 0 0 M
1.21 dup scale -117.687 0 N
(1) show grestore 11744 1680 M 0 178 R D gsave 11744 1041 translate 0 0 M
1.21 dup scale -117.687 0 N
(2) show grestore 12896 1680 M 0 178 R D gsave 12896 1041 translate 0 0 M
1.21 dup scale -117.687 0 N
(3) show grestore 14048 1680 M 0 178 R D gsave 14048 1041 translate 0 0 M
1.21 dup scale -117.687 0 N
(4) show grestore 15200 1680 M 0 178 R D gsave 15200 1041 translate 0 0 M
1.21 dup scale -117.687 0 N
(5) show grestore 9555 1680 M 0 89 R D 9670 1680 M 0 89 R D 9786 1680 M
0 89 R D 9901 1680 M 0 89 R D 10016 1680 M 0 89 R D 10131 1680 M 0 89 R D
10246 1680 M 0 89 R D 10362 1680 M 0 89 R D 10477 1680 M 0 89 R D
10707 1680 M 0 89 R D 10822 1680 M 0 89 R D 10938 1680 M 0 89 R D
11053 1680 M 0 89 R D 11168 1680 M 0 89 R D 11283 1680 M 0 89 R D
11399 1680 M 0 89 R D 11514 1680 M 0 89 R D 11629 1680 M 0 89 R D
11859 1680 M 0 89 R D 11975 1680 M 0 89 R D 12090 1680 M 0 89 R D
12205 1680 M 0 89 R D 12320 1680 M 0 89 R D 12435 1680 M 0 89 R D
12551 1680 M 0 89 R D 12666 1680 M 0 89 R D 12781 1680 M 0 89 R D
13011 1680 M 0 89 R D 13127 1680 M 0 89 R D 13242 1680 M 0 89 R D
13357 1680 M 0 89 R D 13472 1680 M 0 89 R D 13587 1680 M 0 89 R D
13703 1680 M 0 89 R D 13818 1680 M 0 89 R D 13933 1680 M 0 89 R D
14163 1680 M 0 89 R D 14279 1680 M 0 89 R D 14394 1680 M 0 89 R D
14509 1680 M 0 89 R D 14624 1680 M 0 89 R D 14739 1680 M 0 89 R D
14855 1680 M 0 89 R D 14970 1680 M 0 89 R D 15085 1680 M 0 89 R D
9440 6120 M 5760 0 R D 9440 6120 M 0 -178 R D 10592 6120 M 0 -178 R D
11744 6120 M 0 -178 R D 12896 6120 M 0 -178 R D 14048 6120 M 0 -178 R D
15200 6120 M 0 -178 R D 9555 6120 M 0 -89 R D 9670 6120 M 0 -89 R D
9786 6120 M 0 -89 R D 9901 6120 M 0 -89 R D 10016 6120 M 0 -89 R D
10131 6120 M 0 -89 R D 10246 6120 M 0 -89 R D 10362 6120 M 0 -89 R D
10477 6120 M 0 -89 R D 10707 6120 M 0 -89 R D 10822 6120 M 0 -89 R D
10938 6120 M 0 -89 R D 11053 6120 M 0 -89 R D 11168 6120 M 0 -89 R D
11283 6120 M 0 -89 R D 11399 6120 M 0 -89 R D 11514 6120 M 0 -89 R D
11629 6120 M 0 -89 R D 11859 6120 M 0 -89 R D 11975 6120 M 0 -89 R D
12090 6120 M 0 -89 R D 12205 6120 M 0 -89 R D 12320 6120 M 0 -89 R D
12435 6120 M 0 -89 R D 12551 6120 M 0 -89 R D 12666 6120 M 0 -89 R D
12781 6120 M 0 -89 R D 13011 6120 M 0 -89 R D 13127 6120 M 0 -89 R D
13242 6120 M 0 -89 R D 13357 6120 M 0 -89 R D 13472 6120 M 0 -89 R D
13587 6120 M 0 -89 R D 13703 6120 M 0 -89 R D 13818 6120 M 0 -89 R D
13933 6120 M 0 -89 R D 14163 6120 M 0 -89 R D 14279 6120 M 0 -89 R D
14394 6120 M 0 -89 R D 14509 6120 M 0 -89 R D 14624 6120 M 0 -89 R D
14739 6120 M 0 -89 R D 14855 6120 M 0 -89 R D 14970 6120 M 0 -89 R D
15085 6120 M 0 -89 R D 9440 1680 M 0 4440 R D 9440 1807 M 230 0 R D
gsave 9306 1680 translate 0 0 M 1.21 dup scale -823.807 0 N
(0.01) show grestore 9440 4578 M 230 0 R D gsave 9306 4408 translate 0 0 M
1.21 dup scale -823.807 0 N
(0.10) show grestore 9440 1680 M 115 0 R D 9440 2641 M 115 0 R D 9440 3129 M
115 0 R D 9440 3475 M 115 0 R D 9440 3744 M 115 0 R D 9440 3963 M 115 0 R D
9440 4149 M 115 0 R D 9440 4310 M 115 0 R D 9440 4451 M 115 0 R D
9440 5413 M 115 0 R D 9440 5901 M 115 0 R D 15200 1680 M 0 4440 R D
15200 1807 M -230 0 R D 15200 4578 M -230 0 R D 15200 1680 M -115 0 R D
15200 2641 M -115 0 R D 15200 3129 M -115 0 R D 15200 3475 M -115 0 R D
15200 3744 M -115 0 R D 15200 3963 M -115 0 R D 15200 4149 M -115 0 R D
15200 4310 M -115 0 R D 15200 4451 M -115 0 R D 15200 5413 M -115 0 R D
15200 5901 M -115 0 R D L1 1.000 0.000 0.706 setrgbcolor 9440 5901 M
115 -2 R 231 -3 R 230 -4 R 230 -75 R 117 -94 R 125 -213 R 87 -306 R
76 -313 R 72 -214 R 76 -119 R 96 -43 R 95 -35 R 183 -28 R 185 -12 R 230 -9 R
230 -11 R 231 -11 R 203 -21 R 123 -28 R 75 -24 R 85 -91 R 45 -116 R
44 -230 R 39 -336 R 34 -288 R 33 -183 R 39 -108 R 50 -60 R 69 -36 R
104 -23 R 170 -15 R 186 -15 R 230 -27 R 41 -10 R 56 -24 R 45 -39 R 38 -75 R
34 -156 R 31 -300 R 28 -345 R 17 -179 R D L2 0.506 0.000 0.000 setrgbcolor
9440 5901 M 115 0 R 231 0 R 230 0 R 126 -20 R 150 -79 R 96 -97 R 105 -205 R
90 -318 R 88 -353 R 79 -215 R 83 -114 R 95 -59 R 143 -30 R 160 -2 R 230 0 R
231 -3 R 230 0 R 230 -3 R 231 -16 R 105 -22 R 100 -85 R 48 -102 R 47 -200 R
43 -330 R 42 -370 R 38 -230 R 40 -124 R 51 -65 R 71 -33 R 107 -16 R 173 -8 R
230 -5 R 231 -15 R 41 -8 R 56 -23 R 46 -44 R 38 -92 R 35 -193 R 32 -332 R
28 -345 R 6 -65 R D L3 0.000 0.549 0.000 setrgbcolor 9440 5901 M 115 0 R
231 0 R 230 0 R 230 0 R 83 -24 R 81 -100 R 103 -227 R 94 -345 R 91 -348 R
82 -207 R 90 -116 R 117 -65 R 162 -21 R 175 0 R 231 0 R 230 0 R 231 0 R
230 0 R 127 -27 R 85 -76 R 50 -98 R 46 -177 R 43 -308 R 42 -409 R 38 -300 R
37 -161 R 46 -93 R 62 -46 R 92 -19 R 147 -6 R 230 0 R 230 -15 R 26 -8 R
54 -33 R 40 -64 R 34 -126 R 32 -239 R 29 -352 R 15 -211 R D L4
0.000 0.514 1.000 setrgbcolor 9440 5901 M 115 0 R 231 0 R 230 0 R 230 0 R
145 -129 R 108 -211 R 102 -342 R 98 -373 R 90 -231 R 94 -126 R 120 -70 R
166 -25 R 189 0 R 230 0 R 231 0 R 230 0 R 230 0 R 231 -26 R 73 -37 R
66 -69 R 55 -119 R 50 -212 R 47 -344 R 45 -389 R 41 -255 R 43 -147 R
56 -81 R 76 -34 R 116 -6 R 186 0 R 230 0 R 230 0 R 72 -7 R 56 -19 R 49 -51 R
42 -105 R 37 -201 R 34 -328 R 24 -284 R D L5 1.000 0.349 0.000 setrgbcolor
9440 5901 M 115 0 R 231 0 R 230 0 R 147 0 R 201 -140 R 114 -189 R 110 -327 R
107 -396 R 98 -263 R 97 -141 R 123 -77 R 169 -31 R 230 -3 R 231 0 R 230 0 R
230 0 R 231 0 R 230 -3 R 231 -48 R 61 -44 R 69 -99 R 58 -174 R 55 -304 R
49 -368 R 46 -303 R 46 -185 R 55 -112 R 75 -51 R 108 -9 R 169 0 R 231 0 R
230 0 R 231 0 R 117 -5 R 57 -19 R 57 -63 R 46 -127 R 43 -238 R 39 -342 R
17 -160 R D 30 setlinewidth L1 1.000 0.000 0.706 setrgbcolor 4366 11032 M
90 0 R 89 0 R 90 0 R 90 0 R 90 0 R 90 0 R 89 0 R 90 0 R 90 0 R D L2
0.506 0.000 0.000 setrgbcolor 4366 10548 M 90 0 R 89 0 R 90 0 R 90 0 R
90 0 R 90 0 R 89 0 R 90 0 R 90 0 R D L3 0.000 0.549 0.000 setrgbcolor
4366 10064 M 90 0 R 89 0 R 90 0 R 90 0 R 90 0 R 90 0 R 89 0 R 90 0 R 90 0 R
D L4 0.000 0.514 1.000 setrgbcolor 4366 9581 M 90 0 R 89 0 R 90 0 R 90 0 R
90 0 R 90 0 R 89 0 R 90 0 R 90 0 R D L5 1.000 0.349 0.000 setrgbcolor
4366 9097 M 90 0 R 89 0 R 90 0 R 90 0 R 90 0 R 90 0 R 89 0 R 90 0 R 90 0 R D
1.000 0.000 0.706 setrgbcolor gsave 5264 10862 translate 0 0 M 1.1 dup scale
(10) show X 192.937 M
%%IncludeResource: font Helvetica
262.467 /Helvetica STDFONT
(11) show X 0 M
%%IncludeResource: font Helvetica
423.333 /Helvetica STDFONT
(h) show X 192.937 M
%%IncludeResource: font Helvetica
262.467 /Helvetica STDFONT
(-1) show X 0 M
%%IncludeResource: font Helvetica
423.333 /Helvetica STDFONT
(M) show CP X -101.051 M
%%IncludeResource: font AvantGarde-Book
262.467 /AvantGarde-Book STDFONT
(O) show M X -58.3193 M
%%IncludeResource: font AvantGarde-Book
186.267 /AvantGarde-Book STDFONT
( \267) show
%%IncludeResource: font Helvetica
186.267 /Helvetica STDFONT grestore
%%IncludeResource: font Helvetica
423.333 /Helvetica STDFONT 0.506 0.000 0.000 setrgbcolor
gsave 5264 10378 translate 0 0 M 1.1 dup scale
(10) show X 192.937 M
%%IncludeResource: font Helvetica
262.467 /Helvetica STDFONT
(12) show X 0 M
%%IncludeResource: font Helvetica
423.333 /Helvetica STDFONT
(h) show X 192.937 M
%%IncludeResource: font Helvetica
262.467 /Helvetica STDFONT
(-1) show X 0 M
%%IncludeResource: font Helvetica
423.333 /Helvetica STDFONT
(M) show CP X -101.051 M
%%IncludeResource: font AvantGarde-Book
262.467 /AvantGarde-Book STDFONT
(O) show M X -58.3193 M
%%IncludeResource: font AvantGarde-Book
186.267 /AvantGarde-Book STDFONT
( \267) show
%%IncludeResource: font Helvetica
186.267 /Helvetica STDFONT grestore
%%IncludeResource: font Helvetica
423.333 /Helvetica STDFONT 0.000 0.549 0.000 setrgbcolor
gsave 5264 9894 translate 0 0 M 1.1 dup scale
(10) show X 192.937 M
%%IncludeResource: font Helvetica
262.467 /Helvetica STDFONT
(13) show X 0 M
%%IncludeResource: font Helvetica
423.333 /Helvetica STDFONT
(h) show X 192.937 M
%%IncludeResource: font Helvetica
262.467 /Helvetica STDFONT
(-1) show X 0 M
%%IncludeResource: font Helvetica
423.333 /Helvetica STDFONT
(M) show CP X -101.051 M
%%IncludeResource: font AvantGarde-Book
262.467 /AvantGarde-Book STDFONT
(O) show M X -58.3193 M
%%IncludeResource: font AvantGarde-Book
186.267 /AvantGarde-Book STDFONT
( \267) show
%%IncludeResource: font Helvetica
186.267 /Helvetica STDFONT grestore
%%IncludeResource: font Helvetica
423.333 /Helvetica STDFONT 0.000 0.514 1.000 setrgbcolor
gsave 5264 9410 translate 0 0 M 1.1 dup scale
(10) show X 192.937 M
%%IncludeResource: font Helvetica
262.467 /Helvetica STDFONT
(14) show X 0 M
%%IncludeResource: font Helvetica
423.333 /Helvetica STDFONT
(h) show X 192.937 M
%%IncludeResource: font Helvetica
262.467 /Helvetica STDFONT
(-1) show X 0 M
%%IncludeResource: font Helvetica
423.333 /Helvetica STDFONT
(M) show CP X -101.051 M
%%IncludeResource: font AvantGarde-Book
262.467 /AvantGarde-Book STDFONT
(O) show M X -58.3193 M
%%IncludeResource: font AvantGarde-Book
186.267 /AvantGarde-Book STDFONT
( \267) show
%%IncludeResource: font Helvetica
186.267 /Helvetica STDFONT grestore
%%IncludeResource: font Helvetica
423.333 /Helvetica STDFONT 1.000 0.349 0.000 setrgbcolor
gsave 5264 8926 translate 0 0 M 1.1 dup scale
(10) show X 192.937 M
%%IncludeResource: font Helvetica
262.467 /Helvetica STDFONT
(15) show X 0 M
%%IncludeResource: font Helvetica
423.333 /Helvetica STDFONT
(h) show X 192.937 M
%%IncludeResource: font Helvetica
262.467 /Helvetica STDFONT
(-1) show X 0 M
%%IncludeResource: font Helvetica
423.333 /Helvetica STDFONT
(M) show CP X -101.051 M
%%IncludeResource: font AvantGarde-Book
262.467 /AvantGarde-Book STDFONT
(O) show M X -58.3193 M
%%IncludeResource: font AvantGarde-Book
186.267 /AvantGarde-Book STDFONT
( \267) show
%%IncludeResource: font Helvetica
186.267 /Helvetica STDFONT grestore
%%IncludeResource: font Helvetica
423.333 /Helvetica STDFONT
%%PageTrailer
end
%%PageResources: font Helvetica
%%+ font AvantGarde-Book
%%Trailer
%%Pages: 1
%%DocumentNeededResources: font Helvetica
%%+ font AvantGarde-Book
%%EOF
