%!PS-Adobe-3.0 EPSF-3.0
%%BoundingBox: 0 0 453 198
%%Title: Graphics produced by IDL
%%For: daxia@Lserver, /home/daxia/work/subhalo_model
%%Creator: IDL Version 7.0 (linux x86_64 m64)
%%CreationDate: Mon Jun 13 10:52:40 2011
%%DocumentData: Clean7bit
%%Requirements: color
%%LanguageLevel: 1
%%PageOrder: Ascend
%%Pages: (atend)
%%DocumentNeededResources: (atend)
%%EndComments
%%BeginProlog
%+ prolog.ps -- Prolog for IDL generated PostScript files
%+ Copyright (c) 1988-2007 ITT Visual Information Solutions. All Rights Reserved.
%v 5
/$IDL_DICT 40 dict def $IDL_DICT begin /bdef { bind def } bind def /C
{currentpoint newpath moveto} bdef /CP {currentpoint} bdef /D {currentpoint
stroke moveto} bdef /F {closepath fill} bdef /K { setgray } bdef /M {moveto}
bdef /N {rmoveto} bdef /P {lineto} bdef /R {rlineto} bdef /S {gsave show
grestore} bdef /X {currentpoint pop} bdef /Z {gsave currentpoint lineto 20
setlinewidth 1 setlinecap stroke grestore} bdef /L0 {[] 0 setdash} bdef /L1
{[40 100] 0 setdash} bdef /L2 {[200 200] 0 setdash} bdef /L3 {[200 100 50
100] 0 setdash} bdef /L4 {[300 100 50 100 50 100 50 100] 0 setdash} bdef /L5
{[400 200] 0 setdash} bdef /STDFONT { findfont exch scalefont setfont } bdef
/ISOFONT { findfont dup length dict begin { 1 index /FID ne {def} {pop pop}
ifelse } forall /Encoding ISOLatin1Encoding def currentdict end /idltmpfont
exch definefont exch scalefont setfont } bdef /ISOBULLET { gsave /Helvetica
findfont exch scalefont setfont (\267) show currentpoint grestore moveto}
bdef /MITERLIMIT { 2.5 setmiterlimit } bdef end
%%EndProlog
%%Page: 0 1
%%PageRequirements: color
%%PageResources: (atend)
%%PageOrientation: Portrait
%%PageBoundingBox: 0 0 453 198
%%BeginPageSetup
$IDL_DICT begin 0.0283465 dup scale MITERLIMIT
%%IncludeResource: font Helvetica
423.333 /Helvetica STDFONT
%%EndPageSetup
0.000 0.000 0.000 setrgbcolor gsave 8560 168 translate 0 0 M 1.1 dup scale
-576.368 0 N
(t / Gyr) show grestore gsave 583 4095 translate 0 0 M 90 rotate
1.1 dup scale -869.95 0 N
(m\(t\)/m\(0\)) show grestore 40 setlinewidth L0 1760 1400 M 6160 0 R D
1760 1400 M 0 216 R D gsave 1760 761 translate 0 0 M 1.21 dup scale
-117.687 0 N
(0) show grestore 3300 1400 M 0 216 R D gsave 3300 761 translate 0 0 M
1.21 dup scale -117.687 0 N
(2) show grestore 4840 1400 M 0 216 R D gsave 4840 761 translate 0 0 M
1.21 dup scale -117.687 0 N
(4) show grestore 6380 1400 M 0 216 R D gsave 6380 761 translate 0 0 M
1.21 dup scale -117.687 0 N
(6) show grestore 7920 1400 M 0 216 R D gsave 7920 761 translate 0 0 M
1.21 dup scale -117.687 0 N
(8) show grestore 2145 1400 M 0 108 R D 2530 1400 M 0 108 R D 2915 1400 M
0 108 R D 3685 1400 M 0 108 R D 4070 1400 M 0 108 R D 4455 1400 M 0 108 R D
5225 1400 M 0 108 R D 5610 1400 M 0 108 R D 5995 1400 M 0 108 R D
6765 1400 M 0 108 R D 7150 1400 M 0 108 R D 7535 1400 M 0 108 R D
1760 6790 M 6160 0 R D 1760 6790 M 0 -216 R D 3300 6790 M 0 -216 R D
4840 6790 M 0 -216 R D 6380 6790 M 0 -216 R D 7920 6790 M 0 -216 R D
2145 6790 M 0 -108 R D 2530 6790 M 0 -108 R D 2915 6790 M 0 -108 R D
3685 6790 M 0 -108 R D 4070 6790 M 0 -108 R D 4455 6790 M 0 -108 R D
5225 6790 M 0 -108 R D 5610 6790 M 0 -108 R D 5995 6790 M 0 -108 R D
6765 6790 M 0 -108 R D 7150 6790 M 0 -108 R D 7535 6790 M 0 -108 R D
1760 1400 M 0 5390 R D 1760 1627 M 246 0 R D gsave 1626 1456 translate 0 0 M
1.21 dup scale -588.433 0 N
(0.1) show grestore 1760 6585 M 246 0 R D gsave 1626 6414 translate 0 0 M
1.21 dup scale -588.433 0 N
(1.0) show grestore 1760 1400 M 123 0 R D 1760 3119 M 123 0 R D 1760 3992 M
123 0 R D 1760 4612 M 123 0 R D 1760 5092 M 123 0 R D 1760 5485 M 123 0 R D
1760 5817 M 123 0 R D 1760 6104 M 123 0 R D 1760 6358 M 123 0 R D
7920 1400 M 0 5390 R D 7920 1627 M -246 0 R D 7920 6585 M -246 0 R D
7920 1400 M -123 0 R D 7920 3119 M -123 0 R D 7920 3992 M -123 0 R D
7920 4612 M -123 0 R D 7920 5092 M -123 0 R D 7920 5485 M -123 0 R D
7920 5817 M -123 0 R D 7920 6104 M -123 0 R D 7920 6358 M -123 0 R D L1
1.000 0.000 0.706 setrgbcolor 1760 6585 M 77 -5 R 154 -12 R 154 -19 R
124 -103 R 81 -131 R 52 -156 R 67 -369 R 60 -533 R 52 -455 R 36 -217 R
56 -194 R 71 -110 R 97 -67 R 143 -32 R 154 -24 R 154 -16 R 154 -13 R
154 -11 R 154 -9 R 154 -8 R 154 -9 R 154 -12 R 154 -11 R 154 -16 R 154 -23 R
154 -34 R 89 -71 R 55 -95 R 50 -207 R 48 -405 R 42 -466 R 40 -316 R
40 -159 R 51 -76 R 49 -41 R 95 -40 R 144 -25 R 154 -17 R 154 -14 R 154 -12 R
154 -12 R 154 -12 R 154 -13 R 154 -19 R 154 -33 R 90 -43 R 51 -53 R
46 -108 R 28 -139 R 23 -220 R D L2 0.506 0.000 0.000 setrgbcolor 1760 6585 M
77 -5 R 154 -20 R 154 -18 R 154 -145 R 56 -109 R 79 -283 R 72 -462 R
62 -472 R 60 -311 R 63 -165 R 73 -88 R 86 -41 R 91 -24 R 126 -21 R 154 -17 R
154 -12 R 154 -8 R 154 -7 R 154 -7 R 154 -5 R 154 -5 R 154 -5 R 154 -4 R
154 -5 R 154 -4 R 154 -4 R 154 -3 R 154 -4 R 154 -4 R 154 -4 R 154 -4 R
154 -4 R 154 -5 R 154 -4 R 154 -5 R 154 -6 R 154 -6 R 154 -7 R 154 -8 R
154 -11 R 154 -14 R 154 -25 R 154 -56 R 93 -75 R 66 -140 R 72 -313 R
63 -362 R 46 -193 R 47 -106 R D L3 0.000 0.549 0.000 setrgbcolor 1760 6585 M
77 -5 R 154 -24 R 154 -59 R 154 -134 R 66 -94 R 65 -225 R 76 -444 R
67 -450 R 64 -291 R 69 -155 R 89 -86 R 106 -43 R 154 -31 R 154 -17 R
154 -11 R 154 -9 R 154 -7 R 154 -6 R 154 -5 R 154 -5 R 154 -4 R 154 -4 R
154 -4 R 154 -4 R 154 -3 R 154 -4 R 154 -3 R 154 -3 R 154 -3 R 154 -3 R
154 -3 R 154 -4 R 154 -3 R 154 -3 R 154 -3 R 154 -4 R 154 -3 R 154 -4 R
154 -4 R 154 -4 R 154 -5 R 154 -5 R 154 -6 R 154 -6 R 91 -6 R D L4
0.000 0.514 1.000 setrgbcolor 1760 6585 M 77 -5 R 154 -12 R 154 -20 R
76 -43 R 77 -72 R 45 -71 R 64 -173 R 83 -397 R 73 -458 R 36 -186 R 64 -222 R
77 -127 R 101 -64 R 107 -36 R 154 -26 R 154 -14 R 154 -10 R 154 -8 R
154 -6 R 154 -6 R 154 -5 R 154 -5 R 154 -4 R 154 -4 R 154 -4 R 154 -4 R
154 -3 R 154 -3 R 154 -3 R 154 -3 R 154 -4 R 154 -3 R 154 -3 R 154 -3 R
154 -3 R 154 -3 R 154 -3 R 154 -3 R 154 -4 R 154 -3 R 154 -4 R 154 -4 R
154 -4 R 154 -5 R 154 -5 R 154 -6 R 44 -2 R D L5
1.000 0.349 0.000 setrgbcolor 1760 6585 M 77 -5 R 154 -17 R 135 -44 R
154 -71 R 81 -126 R 93 -305 R 81 -446 R 79 -398 R 70 -199 R 61 -68 R
56 -34 R 66 -29 R 92 -25 R 114 -18 R 154 -16 R 154 -12 R 154 -8 R 154 -7 R
154 -6 R 154 -5 R 154 -5 R 154 -4 R 154 -4 R 154 -4 R 154 -4 R 154 -3 R
154 -4 R 154 -3 R 154 -3 R 154 -3 R 154 -3 R 154 -3 R 154 -3 R 154 -3 R
154 -3 R 154 -3 R 154 -3 R 154 -4 R 154 -3 R 154 -4 R 154 -4 R 154 -4 R
154 -4 R 154 -5 R 154 -6 R 73 -3 R D 0.000 0.000 0.000 setrgbcolor
gsave 7535 5817 translate 0 0 M 1.1 dup scale -2929.21 0 N
(m\(0\)=10) show X 192.937 M
%%IncludeResource: font Helvetica
262.467 /Helvetica STDFONT
(10) show X 0 M
%%IncludeResource: font Helvetica
423.333 /Helvetica STDFONT
(h) show X 192.937 M
%%IncludeResource: font Helvetica
262.467 /Helvetica STDFONT
(-1) show X 0 M
%%IncludeResource: font Helvetica
423.333 /Helvetica STDFONT
(M) show CP X -101.051 M
%%IncludeResource: font AvantGarde-Book
262.467 /AvantGarde-Book STDFONT
(O) show M X -58.3193 M
%%IncludeResource: font AvantGarde-Book
186.267 /AvantGarde-Book STDFONT
( \267) show
%%IncludeResource: font Helvetica
186.267 /Helvetica STDFONT grestore
%%IncludeResource: font Helvetica
423.333 /Helvetica STDFONT L0 9200 1400 M 6160 0 R D 9200 1400 M 0 216 R D
gsave 9200 761 translate 0 0 M 1.21 dup scale -117.687 0 N
(0) show grestore 10740 1400 M 0 216 R D gsave 10740 761 translate 0 0 M
1.21 dup scale -117.687 0 N
(2) show grestore 12280 1400 M 0 216 R D gsave 12280 761 translate 0 0 M
1.21 dup scale -117.687 0 N
(4) show grestore 13820 1400 M 0 216 R D gsave 13820 761 translate 0 0 M
1.21 dup scale -117.687 0 N
(6) show grestore 15360 1400 M 0 216 R D gsave 15360 761 translate 0 0 M
1.21 dup scale -117.687 0 N
(8) show grestore 9585 1400 M 0 108 R D 9970 1400 M 0 108 R D 10355 1400 M
0 108 R D 11125 1400 M 0 108 R D 11510 1400 M 0 108 R D 11895 1400 M 0 108 R
D 12665 1400 M 0 108 R D 13050 1400 M 0 108 R D 13435 1400 M 0 108 R D
14205 1400 M 0 108 R D 14590 1400 M 0 108 R D 14975 1400 M 0 108 R D
9200 6790 M 6160 0 R D 9200 6790 M 0 -216 R D 10740 6790 M 0 -216 R D
12280 6790 M 0 -216 R D 13820 6790 M 0 -216 R D 15360 6790 M 0 -216 R D
9585 6790 M 0 -108 R D 9970 6790 M 0 -108 R D 10355 6790 M 0 -108 R D
11125 6790 M 0 -108 R D 11510 6790 M 0 -108 R D 11895 6790 M 0 -108 R D
12665 6790 M 0 -108 R D 13050 6790 M 0 -108 R D 13435 6790 M 0 -108 R D
14205 6790 M 0 -108 R D 14590 6790 M 0 -108 R D 14975 6790 M 0 -108 R D
9200 1400 M 0 5390 R D 9200 1627 M 246 0 R D gsave 9066 1456 translate 0 0 M
1.21 dup scale -588.433 0 N
(0.1) show grestore 9200 6585 M 246 0 R D gsave 9066 6414 translate 0 0 M
1.21 dup scale -588.433 0 N
(1.0) show grestore 9200 1400 M 123 0 R D 9200 3119 M 123 0 R D 9200 3992 M
123 0 R D 9200 4612 M 123 0 R D 9200 5092 M 123 0 R D 9200 5485 M 123 0 R D
9200 5817 M 123 0 R D 9200 6104 M 123 0 R D 9200 6358 M 123 0 R D
15360 1400 M 0 5390 R D 15360 1627 M -246 0 R D 15360 6585 M -246 0 R D
15360 1400 M -123 0 R D 15360 3119 M -123 0 R D 15360 3992 M -123 0 R D
15360 4612 M -123 0 R D 15360 5092 M -123 0 R D 15360 5485 M -123 0 R D
15360 5817 M -123 0 R D 15360 6104 M -123 0 R D 15360 6358 M -123 0 R D L1
1.000 0.000 0.706 setrgbcolor 9200 6585 M 77 -1 R 154 -1 R 154 -4 R
121 -91 R 82 -90 R 38 -103 R 50 -219 R 57 -445 R 51 -608 R 49 -542 R
45 -301 R 39 -151 R 66 -128 R 88 -80 R 136 -39 R 140 -48 R 154 -49 R
56 -35 R 64 -132 R 24 -112 R 23 -205 R 20 -354 R 19 -593 R 18 -713 R
4 -141 R D L2 0.506 0.000 0.000 setrgbcolor 9200 6585 M 77 -1 R 154 -1 R
154 -25 R 152 -58 R 34 -57 R 29 -67 R 78 -304 R 69 -500 R 61 -523 R
58 -357 R 61 -193 R 61 -52 R 58 -36 R 55 -18 R 61 -7 R 72 -10 R 87 -3 R
154 -4 R 154 -3 R 154 -2 R 154 -2 R 154 -2 R 154 -2 R 154 -2 R 154 -1 R
154 -2 R 154 -2 R 154 -2 R 154 -2 R 154 -2 R 154 -3 R 154 -4 R 154 -6 R
132 -50 R 62 -67 R 73 -198 R 64 -383 R 56 -450 R 53 -305 R 54 -142 R
67 -69 R 91 -29 R 99 -13 R 127 -8 R 154 -3 R 154 -2 R 154 -1 R 154 -1 R
154 -1 R 154 -1 R 154 -1 R 154 -1 R 154 -1 R 111 -2 R D L3
0.000 0.549 0.000 setrgbcolor 9200 6585 M 77 -1 R 154 -1 R 154 -4 R
154 -99 R 86 -198 R 50 -204 R 75 -478 R 66 -477 R 52 -270 R 68 -184 R
84 -96 R 91 -6 R 154 -22 R 154 -4 R 154 -3 R 154 -2 R 154 -2 R 154 -2 R
154 -1 R 154 -2 R 154 -1 R 154 -1 R 154 -1 R 154 -1 R 154 -1 R 154 -1 R
154 -1 R 154 -1 R 154 -1 R 154 -1 R 154 -1 R 154 -1 R 154 -1 R 154 -1 R
154 -1 R 154 -1 R 154 -1 R 154 -1 R 154 -2 R 154 -2 R 154 -2 R 154 -2 R
154 -3 R 154 -4 R 121 -16 R D L4 0.000 0.514 1.000 setrgbcolor 9200 6585 M
77 -1 R 154 -2 R 154 -35 R 104 -75 R 108 -121 R 85 -298 R 79 -479 R
68 -437 R 30 -139 R 69 -204 R 84 -105 R 112 -45 R 117 -5 R 154 -4 R 154 -3 R
154 -3 R 154 -2 R 154 -1 R 154 -2 R 154 -1 R 154 -1 R 154 -2 R 154 -1 R
154 -1 R 154 -1 R 154 0 R 154 -1 R 154 -1 R 154 -1 R 154 -1 R 154 -1 R
154 0 R 154 -1 R 154 -1 R 154 -1 R 154 -1 R 154 -1 R 154 -1 R 154 -1 R
154 -1 R 154 -1 R 154 -1 R 154 -1 R 154 -2 R 145 -2 R D L5
1.000 0.349 0.000 setrgbcolor 9200 6585 M 77 -1 R 154 -1 R 154 -23 R
125 -11 R 71 -50 R 65 -174 R 87 -414 R 77 -474 R 73 -331 R 43 -100 R
51 -55 R 48 -27 R 52 -14 R 72 -16 R 154 -16 R 154 -4 R 154 -3 R 154 -2 R
154 -2 R 154 -2 R 154 -1 R 154 -2 R 154 -1 R 154 -1 R 154 -1 R 154 -1 R
154 -1 R 154 -1 R 154 -1 R 154 0 R 154 -1 R 154 -1 R 154 -1 R 154 -1 R
154 -1 R 154 0 R 154 -1 R 154 -1 R 154 -1 R 154 -1 R 154 -1 R 154 -1 R
154 -1 R 154 -1 R 154 -2 R 154 -1 R 83 -2 R D 0.000 0.000 0.000 setrgbcolor
gsave 14975 5817 translate 0 0 M 1.1 dup scale -3405.78 0 N
(m\(0\)=5) show
%%IncludeResource: font Symbol
423.333 /Symbol STDFONT
(\264) show
%%IncludeResource: font Helvetica
423.333 /Helvetica STDFONT
(10) show X 192.937 M
%%IncludeResource: font Helvetica
262.467 /Helvetica STDFONT
(10) show X 0 M
%%IncludeResource: font Helvetica
423.333 /Helvetica STDFONT
(h) show X 192.937 M
%%IncludeResource: font Helvetica
262.467 /Helvetica STDFONT
(-1) show X 0 M
%%IncludeResource: font Helvetica
423.333 /Helvetica STDFONT
(M) show CP X -101.051 M
%%IncludeResource: font AvantGarde-Book
262.467 /AvantGarde-Book STDFONT
(O) show M X -58.3193 M
%%IncludeResource: font AvantGarde-Book
186.267 /AvantGarde-Book STDFONT
( \267) show
%%IncludeResource: font Helvetica
186.267 /Helvetica STDFONT grestore
%%IncludeResource: font Helvetica
423.333 /Helvetica STDFONT
%%PageTrailer
end
%%PageResources: font Helvetica
%%+ font Symbol
%%+ font AvantGarde-Book
%%Trailer
%%Pages: 1
%%DocumentNeededResources: font Helvetica
%%+ font Symbol
%%+ font AvantGarde-Book
%%EOF
