%!PS-Adobe-3.0 EPSF-3.0
%%BoundingBox: 0 0 453 198
%%Title: Graphics produced by IDL
%%For: dacia@Lserver, /home/dacia/work/subhalo_model
%%Creator: IDL Version 7.0 (linux x86_64 m64)
%%CreationDate: Fri May  7 15:08:37 2010
%%DocumentData: Clean7bit
%%Requirements: color
%%LanguageLevel: 1
%%PageOrder: Ascend
%%Pages: (atend)
%%DocumentNeededResources: (atend)
%%EndComments
%%BeginProlog
%+ prolog.ps -- Prolog for IDL generated PostScript files
%+ Copyright (c) 1988-2007 ITT Visual Information Solutions. All Rights Reserved.
%v 5
/$IDL_DICT 40 dict def $IDL_DICT begin /bdef { bind def } bind def /C
{currentpoint newpath moveto} bdef /CP {currentpoint} bdef /D {currentpoint
stroke moveto} bdef /F {closepath fill} bdef /K { setgray } bdef /M {moveto}
bdef /N {rmoveto} bdef /P {lineto} bdef /R {rlineto} bdef /S {gsave show
grestore} bdef /X {currentpoint pop} bdef /Z {gsave currentpoint lineto 20
setlinewidth 1 setlinecap stroke grestore} bdef /L0 {[] 0 setdash} bdef /L1
{[40 100] 0 setdash} bdef /L2 {[200 200] 0 setdash} bdef /L3 {[200 100 50
100] 0 setdash} bdef /L4 {[300 100 50 100 50 100 50 100] 0 setdash} bdef /L5
{[400 200] 0 setdash} bdef /STDFONT { findfont exch scalefont setfont } bdef
/ISOFONT { findfont dup length dict begin { 1 index /FID ne {def} {pop pop}
ifelse } forall /Encoding ISOLatin1Encoding def currentdict end /idltmpfont
exch definefont exch scalefont setfont } bdef /ISOBULLET { gsave /Helvetica
findfont exch scalefont setfont (\267) show currentpoint grestore moveto}
bdef /MITERLIMIT { 2.5 setmiterlimit } bdef end
%%EndProlog
%%Page: 0 1
%%PageRequirements: color
%%PageResources: (atend)
%%PageOrientation: Portrait
%%PageBoundingBox: 0 0 453 198
%%BeginPageSetup
$IDL_DICT begin 0.0283465 dup scale MITERLIMIT
%%IncludeResource: font Helvetica
423.333 /Helvetica STDFONT
%%EndPageSetup
40 setlinewidth L0 0.000 0.000 0.000 setrgbcolor 1600 1190 M 6000 0 R D
1600 1190 M 0 224 R D gsave 1600 662 translate 0 0 M -58.8433 0 N
( ) show grestore 2800 1190 M 0 224 R D gsave 2800 662 translate 0 0 M
-294.217 0 N
(0.1) show grestore 4000 1190 M 0 224 R D gsave 4000 662 translate 0 0 M
-58.8433 0 N
( ) show grestore 5200 1190 M 0 224 R D gsave 5200 662 translate 0 0 M
-294.217 0 N
(0.2) show grestore 6400 1190 M 0 224 R D gsave 6400 662 translate 0 0 M
-58.8433 0 N
( ) show grestore 7600 1190 M 0 224 R D gsave 7600 662 translate 0 0 M
-294.217 0 N
(0.3) show grestore 1840 1190 M 0 112 R D 2080 1190 M 0 112 R D 2320 1190 M
0 112 R D 2560 1190 M 0 112 R D 3040 1190 M 0 112 R D 3280 1190 M 0 112 R D
3520 1190 M 0 112 R D 3760 1190 M 0 112 R D 4240 1190 M 0 112 R D
4480 1190 M 0 112 R D 4720 1190 M 0 112 R D 4960 1190 M 0 112 R D
5440 1190 M 0 112 R D 5680 1190 M 0 112 R D 5920 1190 M 0 112 R D
6160 1190 M 0 112 R D 6640 1190 M 0 112 R D 6880 1190 M 0 112 R D
7120 1190 M 0 112 R D 7360 1190 M 0 112 R D gsave 4600 204 translate 0 0 M
-1569.8 0 N
(R) show X -101.051 M
%%IncludeResource: font Helvetica
262.467 /Helvetica STDFONT
(m) show X 192.937 M
(-1) show X 0 M
%%IncludeResource: font Helvetica
423.333 /Helvetica STDFONT
(=M) show X -101.051 M
%%IncludeResource: font Helvetica
262.467 /Helvetica STDFONT
(s) show X 0 M
%%IncludeResource: font Helvetica
423.333 /Helvetica STDFONT
(\(0\)/M) show X -101.051 M
%%IncludeResource: font Helvetica
262.467 /Helvetica STDFONT
(h) show X 0 M
%%IncludeResource: font Helvetica
423.333 /Helvetica STDFONT
(\(0\)) show grestore 1600 6790 M 6000 0 R D 1600 6790 M 0 -224 R D
2800 6790 M 0 -224 R D 4000 6790 M 0 -224 R D 5200 6790 M 0 -224 R D
6400 6790 M 0 -224 R D 7600 6790 M 0 -224 R D 1840 6790 M 0 -112 R D
2080 6790 M 0 -112 R D 2320 6790 M 0 -112 R D 2560 6790 M 0 -112 R D
3040 6790 M 0 -112 R D 3280 6790 M 0 -112 R D 3520 6790 M 0 -112 R D
3760 6790 M 0 -112 R D 4240 6790 M 0 -112 R D 4480 6790 M 0 -112 R D
4720 6790 M 0 -112 R D 4960 6790 M 0 -112 R D 5440 6790 M 0 -112 R D
5680 6790 M 0 -112 R D 5920 6790 M 0 -112 R D 6160 6790 M 0 -112 R D
6640 6790 M 0 -112 R D 6880 6790 M 0 -112 R D 7120 6790 M 0 -112 R D
7360 6790 M 0 -112 R D 1600 1190 M 0 5600 R D 1600 1812 M 240 0 R D
gsave 1489 1671 translate 0 0 M -588.433 0 N
(0.2) show grestore 1600 3057 M 240 0 R D gsave 1489 2916 translate 0 0 M
-588.433 0 N
(0.4) show grestore 1600 4301 M 240 0 R D gsave 1489 4160 translate 0 0 M
-588.433 0 N
(0.6) show grestore 1600 5546 M 240 0 R D gsave 1489 5405 translate 0 0 M
-588.433 0 N
(0.8) show grestore 1600 6790 M 240 0 R D gsave 1489 6544 translate 0 0 M
-588.433 0 N
(1.0) show grestore 1600 1190 M 120 0 R D 1600 1501 M 120 0 R D 1600 2123 M
120 0 R D 1600 2434 M 120 0 R D 1600 2746 M 120 0 R D 1600 3368 M 120 0 R D
1600 3679 M 120 0 R D 1600 3990 M 120 0 R D 1600 4612 M 120 0 R D
1600 4923 M 120 0 R D 1600 5234 M 120 0 R D 1600 5857 M 120 0 R D
1600 6168 M 120 0 R D 1600 6479 M 120 0 R D gsave 568 3990 translate 0 0 M
90 rotate -1416.18 0 N
(T) show X -101.051 M
%%IncludeResource: font Helvetica
262.467 /Helvetica STDFONT
(df) show X 0 M
%%IncludeResource: font Helvetica
423.333 /Helvetica STDFONT
( / T) show X -101.051 M
%%IncludeResource: font Helvetica
262.467 /Helvetica STDFONT
(df) show X 0 M
%%IncludeResource: font Helvetica
423.333 /Helvetica STDFONT
(\(R) show X -101.051 M
%%IncludeResource: font Helvetica
262.467 /Helvetica STDFONT
(m) show X 0 M
%%IncludeResource: font Helvetica
423.333 /Helvetica STDFONT
(=20\)) show grestore 7600 1190 M 0 5600 R D 7600 1812 M -240 0 R D
7600 3057 M -240 0 R D 7600 4301 M -240 0 R D 7600 5546 M -240 0 R D
7600 6790 M -240 0 R D 7600 1190 M -120 0 R D 7600 1501 M -120 0 R D
7600 2123 M -120 0 R D 7600 2434 M -120 0 R D 7600 2746 M -120 0 R D
7600 3368 M -120 0 R D 7600 3679 M -120 0 R D 7600 3990 M -120 0 R D
7600 4612 M -120 0 R D 7600 4923 M -120 0 R D 7600 5234 M -120 0 R D
7600 5857 M -120 0 R D 7600 6168 M -120 0 R D 7600 6479 M -120 0 R D L1
1600 6790 M 600 -1479 R 600 -793 R 720 -581 R 480 -269 R 1200 -457 R
1200 -289 R 1200 -201 R D L0 1600 6790 M 600 -1520 R 600 -784 R 720 -575 R
480 -252 R 1200 -424 R 1200 -254 R 1200 -172 R D 9200 1190 M 6000 0 R D
9867 1190 M 0 224 R D gsave 9867 662 translate 0 0 M -294.217 0 N
(0.2) show grestore 11200 1190 M 0 224 R D gsave 11200 662 translate 0 0 M
-294.217 0 N
(0.4) show grestore 12533 1190 M 0 224 R D gsave 12533 662 translate 0 0 M
-294.217 0 N
(0.6) show grestore 13867 1190 M 0 224 R D gsave 13867 662 translate 0 0 M
-294.217 0 N
(0.8) show grestore 15200 1190 M 0 224 R D gsave 15200 662 translate 0 0 M
-294.217 0 N
(1.0) show grestore 9200 1190 M 0 112 R D 9533 1190 M 0 112 R D 10200 1190 M
0 112 R D 10533 1190 M 0 112 R D 10867 1190 M 0 112 R D 11533 1190 M 0 112 R
D 11867 1190 M 0 112 R D 12200 1190 M 0 112 R D 12867 1190 M 0 112 R D
13200 1190 M 0 112 R D 13533 1190 M 0 112 R D 14200 1190 M 0 112 R D
14533 1190 M 0 112 R D 14867 1190 M 0 112 R D
gsave 12200 204 translate 0 0 M -1500.72 0 N
%%IncludeResource: font Symbol
423.333 /Symbol STDFONT
(e) show
%%IncludeResource: font Helvetica
423.333 /Helvetica STDFONT
( \(circularity\)) show grestore 9200 6790 M 6000 0 R D 9867 6790 M 0 -224 R
D 11200 6790 M 0 -224 R D 12533 6790 M 0 -224 R D 13867 6790 M 0 -224 R D
15200 6790 M 0 -224 R D 9200 6790 M 0 -112 R D 9533 6790 M 0 -112 R D
10200 6790 M 0 -112 R D 10533 6790 M 0 -112 R D 10867 6790 M 0 -112 R D
11533 6790 M 0 -112 R D 11867 6790 M 0 -112 R D 12200 6790 M 0 -112 R D
12867 6790 M 0 -112 R D 13200 6790 M 0 -112 R D 13533 6790 M 0 -112 R D
14200 6790 M 0 -112 R D 14533 6790 M 0 -112 R D 14867 6790 M 0 -112 R D
9200 1190 M 0 5600 R D 9200 1812 M 240 0 R D gsave 9089 1671 translate 0 0 M
-588.433 0 N
(0.2) show grestore 9200 3057 M 240 0 R D gsave 9089 2916 translate 0 0 M
-588.433 0 N
(0.4) show grestore 9200 4301 M 240 0 R D gsave 9089 4160 translate 0 0 M
-588.433 0 N
(0.6) show grestore 9200 5546 M 240 0 R D gsave 9089 5405 translate 0 0 M
-588.433 0 N
(0.8) show grestore 9200 6790 M 240 0 R D gsave 9089 6544 translate 0 0 M
-588.433 0 N
(1.0) show grestore 9200 1190 M 120 0 R D 9200 1501 M 120 0 R D 9200 2123 M
120 0 R D 9200 2434 M 120 0 R D 9200 2746 M 120 0 R D 9200 3368 M 120 0 R D
9200 3679 M 120 0 R D 9200 3990 M 120 0 R D 9200 4612 M 120 0 R D
9200 4923 M 120 0 R D 9200 5234 M 120 0 R D 9200 5857 M 120 0 R D
9200 6168 M 120 0 R D 9200 6479 M 120 0 R D gsave 8168 3990 translate 0 0 M
90 rotate -1110.01 0 N
(T) show X -101.051 M
%%IncludeResource: font Helvetica
262.467 /Helvetica STDFONT
(df) show X 0 M
%%IncludeResource: font Helvetica
423.333 /Helvetica STDFONT
( / T) show X -101.051 M
%%IncludeResource: font Helvetica
262.467 /Helvetica STDFONT
(df) show X 0 M
%%IncludeResource: font Helvetica
423.333 /Helvetica STDFONT
(\() show
%%IncludeResource: font Symbol
423.333 /Symbol STDFONT
(e) show
%%IncludeResource: font Helvetica
423.333 /Helvetica STDFONT
(=1\)) show grestore 15200 1190 M 0 5600 R D 15200 1812 M -240 0 R D
15200 3057 M -240 0 R D 15200 4301 M -240 0 R D 15200 5546 M -240 0 R D
15200 6790 M -240 0 R D 15200 1190 M -120 0 R D 15200 1501 M -120 0 R D
15200 2123 M -120 0 R D 15200 2434 M -120 0 R D 15200 2746 M -120 0 R D
15200 3368 M -120 0 R D 15200 3679 M -120 0 R D 15200 3990 M -120 0 R D
15200 4612 M -120 0 R D 15200 4923 M -120 0 R D 15200 5234 M -120 0 R D
15200 5857 M -120 0 R D 15200 6168 M -120 0 R D 15200 6479 M -120 0 R D L1
9200 1600 M 1333 1401 R 1334 1190 R 1333 1088 R 1333 1020 R 667 491 R D L0
9200 2035 M 1333 1029 R 1334 967 R 1333 976 R 1333 961 R 667 822 R D
5499 6052 M 65 0 R 66 0 R 65 0 R 66 0 R 65 0 R 66 0 R 66 0 R 65 0 R 66 0 R D
L1 5499 5563 M 65 0 R 66 0 R 65 0 R 66 0 R 65 0 R 66 0 R 66 0 R 65 0 R
66 0 R D gsave 6154 5904 translate 0 0 M
(A=0) show grestore gsave 6154 5415 translate 0 0 M
(LC93) show grestore
%%PageTrailer
end
%%PageResources: font Helvetica
%%+ font Symbol
%%Trailer
%%Pages: 1
%%DocumentNeededResources: font Helvetica
%%+ font Symbol
%%EOF
