%!PS-Adobe-3.0 EPSF-3.0
%%BoundingBox: 0 0 453 164
%%Title: Graphics produced by IDL
%%For: dacia@Lserver, /home/dacia/work/subhalo_model
%%Creator: IDL Version 7.0 (linux x86_64 m64)
%%CreationDate: Fri May  7 15:08:37 2010
%%DocumentData: Clean7bit
%%Requirements: color
%%LanguageLevel: 1
%%PageOrder: Ascend
%%Pages: (atend)
%%DocumentNeededResources: (atend)
%%EndComments
%%BeginProlog
%+ prolog.ps -- Prolog for IDL generated PostScript files
%+ Copyright (c) 1988-2007 ITT Visual Information Solutions. All Rights Reserved.
%v 5
/$IDL_DICT 40 dict def $IDL_DICT begin /bdef { bind def } bind def /C
{currentpoint newpath moveto} bdef /CP {currentpoint} bdef /D {currentpoint
stroke moveto} bdef /F {closepath fill} bdef /K { setgray } bdef /M {moveto}
bdef /N {rmoveto} bdef /P {lineto} bdef /R {rlineto} bdef /S {gsave show
grestore} bdef /X {currentpoint pop} bdef /Z {gsave currentpoint lineto 20
setlinewidth 1 setlinecap stroke grestore} bdef /L0 {[] 0 setdash} bdef /L1
{[40 100] 0 setdash} bdef /L2 {[200 200] 0 setdash} bdef /L3 {[200 100 50
100] 0 setdash} bdef /L4 {[300 100 50 100 50 100 50 100] 0 setdash} bdef /L5
{[400 200] 0 setdash} bdef /STDFONT { findfont exch scalefont setfont } bdef
/ISOFONT { findfont dup length dict begin { 1 index /FID ne {def} {pop pop}
ifelse } forall /Encoding ISOLatin1Encoding def currentdict end /idltmpfont
exch definefont exch scalefont setfont } bdef /ISOBULLET { gsave /Helvetica
findfont exch scalefont setfont (\267) show currentpoint grestore moveto}
bdef /MITERLIMIT { 2.5 setmiterlimit } bdef end
%%EndProlog
%%Page: 0 1
%%PageRequirements: color
%%PageResources: (atend)
%%PageOrientation: Portrait
%%PageBoundingBox: 0 0 453 164
%%BeginPageSetup
$IDL_DICT begin 0.0283465 dup scale MITERLIMIT
%%IncludeResource: font Helvetica
423.333 /Helvetica STDFONT
%%EndPageSetup
0.000 0.000 0.000 setrgbcolor gsave 8480 220 translate 0 0 M 1.1 dup scale
-1569.8 0 N
(R) show X -101.051 M
%%IncludeResource: font Helvetica
262.467 /Helvetica STDFONT
(m) show X 192.937 M
(-1) show X 0 M
%%IncludeResource: font Helvetica
423.333 /Helvetica STDFONT
(=M) show X -101.051 M
%%IncludeResource: font Helvetica
262.467 /Helvetica STDFONT
(s) show X 0 M
%%IncludeResource: font Helvetica
423.333 /Helvetica STDFONT
(\(0\)/M) show X -101.051 M
%%IncludeResource: font Helvetica
262.467 /Helvetica STDFONT
(h) show X 0 M
%%IncludeResource: font Helvetica
423.333 /Helvetica STDFONT
(\(0\)) show grestore gsave 441 3451 translate 0 0 M 90 rotate 1.1 dup scale
-697.459 0 N
(T) show X -101.051 M
%%IncludeResource: font Helvetica
262.467 /Helvetica STDFONT
(df) show X 0 M
%%IncludeResource: font Helvetica
423.333 /Helvetica STDFONT
( /Gyr) show grestore 40 setlinewidth L0 1440 1276 M 4053 0 R D 1440 1276 M
0 174 R D gsave 1440 748 translate 0 0 M -58.8433 0 N
( ) show grestore 2251 1276 M 0 174 R D gsave 2251 748 translate 0 0 M
-294.217 0 N
(0.1) show grestore 3061 1276 M 0 174 R D gsave 3061 748 translate 0 0 M
-58.8433 0 N
( ) show grestore 3872 1276 M 0 174 R D gsave 3872 748 translate 0 0 M
-294.217 0 N
(0.2) show grestore 4683 1276 M 0 174 R D gsave 4683 748 translate 0 0 M
-58.8433 0 N
( ) show grestore 5493 1276 M 0 174 R D gsave 5493 748 translate 0 0 M
-294.217 0 N
(0.3) show grestore 1602 1276 M 0 87 R D 1764 1276 M 0 87 R D 1926 1276 M
0 87 R D 2089 1276 M 0 87 R D 2413 1276 M 0 87 R D 2575 1276 M 0 87 R D
2737 1276 M 0 87 R D 2899 1276 M 0 87 R D 3223 1276 M 0 87 R D 3386 1276 M
0 87 R D 3548 1276 M 0 87 R D 3710 1276 M 0 87 R D 4034 1276 M 0 87 R D
4196 1276 M 0 87 R D 4358 1276 M 0 87 R D 4521 1276 M 0 87 R D 4845 1276 M
0 87 R D 5007 1276 M 0 87 R D 5169 1276 M 0 87 R D 5331 1276 M 0 87 R D
1440 5626 M 4053 0 R D 1440 5626 M 0 -174 R D 2251 5626 M 0 -174 R D
3061 5626 M 0 -174 R D 3872 5626 M 0 -174 R D 4683 5626 M 0 -174 R D
5493 5626 M 0 -174 R D 1602 5626 M 0 -87 R D 1764 5626 M 0 -87 R D
1926 5626 M 0 -87 R D 2089 5626 M 0 -87 R D 2413 5626 M 0 -87 R D
2575 5626 M 0 -87 R D 2737 5626 M 0 -87 R D 2899 5626 M 0 -87 R D
3223 5626 M 0 -87 R D 3386 5626 M 0 -87 R D 3548 5626 M 0 -87 R D
3710 5626 M 0 -87 R D 4034 5626 M 0 -87 R D 4196 5626 M 0 -87 R D
4358 5626 M 0 -87 R D 4521 5626 M 0 -87 R D 4845 5626 M 0 -87 R D
5007 5626 M 0 -87 R D 5169 5626 M 0 -87 R D 5331 5626 M 0 -87 R D
1440 1276 M 0 4350 R D 1440 1821 M 162 0 R D gsave 1329 1680 translate 0 0 M
-588.433 0 N
(0.5) show grestore 1440 2442 M 162 0 R D gsave 1329 2301 translate 0 0 M
-588.433 0 N
(1.0) show grestore 1440 3063 M 162 0 R D gsave 1329 2922 translate 0 0 M
-588.433 0 N
(1.5) show grestore 1440 3684 M 162 0 R D gsave 1329 3543 translate 0 0 M
-588.433 0 N
(2.0) show grestore 1440 4305 M 162 0 R D gsave 1329 4165 translate 0 0 M
-588.433 0 N
(2.5) show grestore 1440 4927 M 162 0 R D gsave 1329 4786 translate 0 0 M
-588.433 0 N
(3.0) show grestore 1440 5548 M 162 0 R D gsave 1329 5380 translate 0 0 M
-588.433 0 N
(3.5) show grestore 1440 1324 M 81 0 R D 1440 1448 M 81 0 R D 1440 1572 M
81 0 R D 1440 1696 M 81 0 R D 1440 1945 M 81 0 R D 1440 2069 M 81 0 R D
1440 2193 M 81 0 R D 1440 2318 M 81 0 R D 1440 2566 M 81 0 R D 1440 2690 M
81 0 R D 1440 2815 M 81 0 R D 1440 2939 M 81 0 R D 1440 3187 M 81 0 R D
1440 3311 M 81 0 R D 1440 3436 M 81 0 R D 1440 3560 M 81 0 R D 1440 3808 M
81 0 R D 1440 3933 M 81 0 R D 1440 4057 M 81 0 R D 1440 4181 M 81 0 R D
1440 4430 M 81 0 R D 1440 4554 M 81 0 R D 1440 4678 M 81 0 R D 1440 4802 M
81 0 R D 1440 5051 M 81 0 R D 1440 5175 M 81 0 R D 1440 5299 M 81 0 R D
1440 5424 M 81 0 R D 5493 1276 M 0 4350 R D 5493 1821 M -162 0 R D
5493 2442 M -162 0 R D 5493 3063 M -162 0 R D 5493 3684 M -162 0 R D
5493 4305 M -162 0 R D 5493 4927 M -162 0 R D 5493 5548 M -162 0 R D
5493 1324 M -81 0 R D 5493 1448 M -81 0 R D 5493 1572 M -81 0 R D
5493 1696 M -81 0 R D 5493 1945 M -81 0 R D 5493 2069 M -81 0 R D
5493 2193 M -81 0 R D 5493 2318 M -81 0 R D 5493 2566 M -81 0 R D
5493 2690 M -81 0 R D 5493 2815 M -81 0 R D 5493 2939 M -81 0 R D
5493 3187 M -81 0 R D 5493 3311 M -81 0 R D 5493 3436 M -81 0 R D
5493 3560 M -81 0 R D 5493 3808 M -81 0 R D 5493 3933 M -81 0 R D
5493 4057 M -81 0 R D 5493 4181 M -81 0 R D 5493 4430 M -81 0 R D
5493 4554 M -81 0 R D 5493 4678 M -81 0 R D 5493 4802 M -81 0 R D
5493 5051 M -81 0 R D 5493 5175 M -81 0 R D 5493 5299 M -81 0 R D
5493 5424 M -81 0 R D L1 1440 3413 M 405 -526 R 406 -283 R 486 -206 R
324 -96 R 811 -162 R 811 -103 R 810 -72 R D L0 1440 3860 M 405 -627 R
406 -365 R 486 -428 R 324 -92 R 811 -52 R 811 -13 R 810 -4 R D
gsave 5169 4962 translate 0 0 M 1.1 dup scale -947.42 0 N
%%IncludeResource: font Symbol
423.333 /Symbol STDFONT
(e) show
%%IncludeResource: font Helvetica
423.333 /Helvetica STDFONT
(=0.1) show grestore 6453 1276 M 4054 0 R D 6453 1276 M 0 174 R D
gsave 6453 748 translate 0 0 M -58.8433 0 N
( ) show grestore 7264 1276 M 0 174 R D gsave 7264 748 translate 0 0 M
-294.217 0 N
(0.1) show grestore 8075 1276 M 0 174 R D gsave 8075 748 translate 0 0 M
-58.8433 0 N
( ) show grestore 8885 1276 M 0 174 R D gsave 8885 748 translate 0 0 M
-294.217 0 N
(0.2) show grestore 9696 1276 M 0 174 R D gsave 9696 748 translate 0 0 M
-58.8433 0 N
( ) show grestore 10507 1276 M 0 174 R D gsave 10507 748 translate 0 0 M
-294.217 0 N
(0.3) show grestore 6616 1276 M 0 87 R D 6778 1276 M 0 87 R D 6940 1276 M
0 87 R D 7102 1276 M 0 87 R D 7426 1276 M 0 87 R D 7588 1276 M 0 87 R D
7750 1276 M 0 87 R D 7913 1276 M 0 87 R D 8237 1276 M 0 87 R D 8399 1276 M
0 87 R D 8561 1276 M 0 87 R D 8723 1276 M 0 87 R D 9048 1276 M 0 87 R D
9210 1276 M 0 87 R D 9372 1276 M 0 87 R D 9534 1276 M 0 87 R D 9858 1276 M
0 87 R D 10020 1276 M 0 87 R D 10183 1276 M 0 87 R D 10345 1276 M 0 87 R D
6453 5626 M 4054 0 R D 6453 5626 M 0 -174 R D 7264 5626 M 0 -174 R D
8075 5626 M 0 -174 R D 8885 5626 M 0 -174 R D 9696 5626 M 0 -174 R D
10507 5626 M 0 -174 R D 6616 5626 M 0 -87 R D 6778 5626 M 0 -87 R D
6940 5626 M 0 -87 R D 7102 5626 M 0 -87 R D 7426 5626 M 0 -87 R D
7588 5626 M 0 -87 R D 7750 5626 M 0 -87 R D 7913 5626 M 0 -87 R D
8237 5626 M 0 -87 R D 8399 5626 M 0 -87 R D 8561 5626 M 0 -87 R D
8723 5626 M 0 -87 R D 9048 5626 M 0 -87 R D 9210 5626 M 0 -87 R D
9372 5626 M 0 -87 R D 9534 5626 M 0 -87 R D 9858 5626 M 0 -87 R D
10020 5626 M 0 -87 R D 10183 5626 M 0 -87 R D 10345 5626 M 0 -87 R D
6453 1276 M 0 4350 R D 6453 1908 M 163 0 R D gsave 6342 1767 translate 0 0 M
-235.373 0 N
(2) show grestore 6453 2616 M 163 0 R D gsave 6342 2475 translate 0 0 M
-235.373 0 N
(4) show grestore 6453 3324 M 163 0 R D gsave 6342 3183 translate 0 0 M
-235.373 0 N
(6) show grestore 6453 4032 M 163 0 R D gsave 6342 3891 translate 0 0 M
-235.373 0 N
(8) show grestore 6453 4740 M 163 0 R D gsave 6342 4599 translate 0 0 M
-470.747 0 N
(10) show grestore 6453 5448 M 163 0 R D gsave 6342 5307 translate 0 0 M
-470.747 0 N
(12) show grestore 6453 1376 M 81 0 R D 6453 1553 M 81 0 R D 6453 1730 M
81 0 R D 6453 2085 M 81 0 R D 6453 2262 M 81 0 R D 6453 2439 M 81 0 R D
6453 2793 M 81 0 R D 6453 2970 M 81 0 R D 6453 3147 M 81 0 R D 6453 3501 M
81 0 R D 6453 3678 M 81 0 R D 6453 3855 M 81 0 R D 6453 4209 M 81 0 R D
6453 4386 M 81 0 R D 6453 4563 M 81 0 R D 6453 4917 M 81 0 R D 6453 5094 M
81 0 R D 6453 5271 M 81 0 R D 6453 5625 M 81 0 R D 10507 1276 M 0 4350 R D
10507 1908 M -162 0 R D 10507 2616 M -162 0 R D 10507 3324 M -162 0 R D
10507 4032 M -162 0 R D 10507 4740 M -162 0 R D 10507 5448 M -162 0 R D
10507 1376 M -81 0 R D 10507 1553 M -81 0 R D 10507 1730 M -81 0 R D
10507 2085 M -81 0 R D 10507 2262 M -81 0 R D 10507 2439 M -81 0 R D
10507 2793 M -81 0 R D 10507 2970 M -81 0 R D 10507 3147 M -81 0 R D
10507 3501 M -81 0 R D 10507 3678 M -81 0 R D 10507 3855 M -81 0 R D
10507 4209 M -81 0 R D 10507 4386 M -81 0 R D 10507 4563 M -81 0 R D
10507 4917 M -81 0 R D 10507 5094 M -81 0 R D 10507 5271 M -81 0 R D
10507 5625 M -81 0 R D L1 6453 3413 M 406 -526 R 405 -283 R 486 -206 R
325 -96 R 810 -162 R 811 -103 R 810 -72 R D L0 6453 2989 M 406 -484 R
405 -269 R 486 -161 R 325 -73 R 810 -125 R 811 -78 R 810 -51 R D
gsave 10183 4962 translate 0 0 M 1.1 dup scale -947.42 0 N
%%IncludeResource: font Symbol
423.333 /Symbol STDFONT
(e) show
%%IncludeResource: font Helvetica
423.333 /Helvetica STDFONT
(=0.5) show grestore 11467 1276 M 4053 0 R D 11467 1276 M 0 174 R D
gsave 11467 748 translate 0 0 M -58.8433 0 N
( ) show grestore 12277 1276 M 0 174 R D gsave 12277 748 translate 0 0 M
-294.217 0 N
(0.1) show grestore 13088 1276 M 0 174 R D gsave 13088 748 translate 0 0 M
-58.8433 0 N
( ) show grestore 13899 1276 M 0 174 R D gsave 13899 748 translate 0 0 M
-294.217 0 N
(0.2) show grestore 14709 1276 M 0 174 R D gsave 14709 748 translate 0 0 M
-58.8433 0 N
( ) show grestore 15520 1276 M 0 174 R D gsave 15520 748 translate 0 0 M
-294.217 0 N
(0.3) show grestore 11629 1276 M 0 87 R D 11791 1276 M 0 87 R D 11953 1276 M
0 87 R D 12115 1276 M 0 87 R D 12440 1276 M 0 87 R D 12602 1276 M 0 87 R D
12764 1276 M 0 87 R D 12926 1276 M 0 87 R D 13250 1276 M 0 87 R D
13412 1276 M 0 87 R D 13575 1276 M 0 87 R D 13737 1276 M 0 87 R D
14061 1276 M 0 87 R D 14223 1276 M 0 87 R D 14385 1276 M 0 87 R D
14547 1276 M 0 87 R D 14872 1276 M 0 87 R D 15034 1276 M 0 87 R D
15196 1276 M 0 87 R D 15358 1276 M 0 87 R D 11467 5626 M 4053 0 R D
11467 5626 M 0 -174 R D 12277 5626 M 0 -174 R D 13088 5626 M 0 -174 R D
13899 5626 M 0 -174 R D 14709 5626 M 0 -174 R D 15520 5626 M 0 -174 R D
11629 5626 M 0 -87 R D 11791 5626 M 0 -87 R D 11953 5626 M 0 -87 R D
12115 5626 M 0 -87 R D 12440 5626 M 0 -87 R D 12602 5626 M 0 -87 R D
12764 5626 M 0 -87 R D 12926 5626 M 0 -87 R D 13250 5626 M 0 -87 R D
13412 5626 M 0 -87 R D 13575 5626 M 0 -87 R D 13737 5626 M 0 -87 R D
14061 5626 M 0 -87 R D 14223 5626 M 0 -87 R D 14385 5626 M 0 -87 R D
14547 5626 M 0 -87 R D 14872 5626 M 0 -87 R D 15034 5626 M 0 -87 R D
15196 5626 M 0 -87 R D 15358 5626 M 0 -87 R D 11467 1276 M 0 4350 R D
11467 2230 M 162 0 R D gsave 11356 2090 translate 0 0 M -235.373 0 N
(5) show grestore 11467 3261 M 162 0 R D gsave 11356 3120 translate 0 0 M
-470.747 0 N
(10) show grestore 11467 4292 M 162 0 R D gsave 11356 4151 translate 0 0 M
-470.747 0 N
(15) show grestore 11467 5323 M 162 0 R D gsave 11356 5182 translate 0 0 M
-470.747 0 N
(20) show grestore 11467 1406 M 81 0 R D 11467 1612 M 81 0 R D 11467 1818 M
81 0 R D 11467 2024 M 81 0 R D 11467 2437 M 81 0 R D 11467 2643 M 81 0 R D
11467 2849 M 81 0 R D 11467 3055 M 81 0 R D 11467 3467 M 81 0 R D
11467 3674 M 81 0 R D 11467 3880 M 81 0 R D 11467 4086 M 81 0 R D
11467 4498 M 81 0 R D 11467 4705 M 81 0 R D 11467 4911 M 81 0 R D
11467 5117 M 81 0 R D 11467 5529 M 81 0 R D 15520 1276 M 0 4350 R D
15520 2230 M -162 0 R D 15520 3261 M -162 0 R D 15520 4292 M -162 0 R D
15520 5323 M -162 0 R D 15520 1406 M -81 0 R D 15520 1612 M -81 0 R D
15520 1818 M -81 0 R D 15520 2024 M -81 0 R D 15520 2437 M -81 0 R D
15520 2643 M -81 0 R D 15520 2849 M -81 0 R D 15520 3055 M -81 0 R D
15520 3467 M -81 0 R D 15520 3674 M -81 0 R D 15520 3880 M -81 0 R D
15520 4086 M -81 0 R D 15520 4498 M -81 0 R D 15520 4705 M -81 0 R D
15520 4911 M -81 0 R D 15520 5117 M -81 0 R D 15520 5529 M -81 0 R D L1
11467 3413 M 405 -526 R 405 -283 R 487 -206 R 324 -96 R 811 -162 R
810 -103 R 811 -72 R D L0 11467 3072 M 405 -409 R 405 -217 R 487 -154 R
324 -71 R 811 -116 R 810 -71 R 811 -51 R D gsave 15196 4962 translate 0 0 M
1.1 dup scale -947.42 0 N
%%IncludeResource: font Symbol
423.333 /Symbol STDFONT
(e) show
%%IncludeResource: font Helvetica
423.333 /Helvetica STDFONT
(=1.0) show grestore 13367 4543 M 66 0 R 65 0 R 66 0 R 65 0 R 66 0 R 65 0 R
66 0 R 66 0 R 65 0 R D L1 13367 4100 M 66 0 R 65 0 R 66 0 R 65 0 R 66 0 R
65 0 R 66 0 R 66 0 R 65 0 R D gsave 14023 4409 translate 0 0 M
(A=0) show grestore gsave 14023 3966 translate 0 0 M
(LC93) show grestore
%%PageTrailer
end
%%PageResources: font Helvetica
%%+ font Symbol
%%Trailer
%%Pages: 1
%%DocumentNeededResources: font Helvetica
%%+ font Symbol
%%EOF
