%!PS-Adobe-3.0 EPSF-3.0
%%BoundingBox: 0 0 453 311
%%Title: Graphics produced by IDL
%%For: dacia@Lserver, /home/dacia/work/subhalo_model
%%Creator: IDL Version 7.0 (linux x86_64 m64)
%%CreationDate: Fri May  7 15:08:37 2010
%%DocumentData: Clean7bit
%%Requirements: color
%%LanguageLevel: 1
%%PageOrder: Ascend
%%Pages: (atend)
%%DocumentNeededResources: (atend)
%%EndComments
%%BeginProlog
%+ prolog.ps -- Prolog for IDL generated PostScript files
%+ Copyright (c) 1988-2007 ITT Visual Information Solutions. All Rights Reserved.
%v 5
/$IDL_DICT 40 dict def $IDL_DICT begin /bdef { bind def } bind def /C
{currentpoint newpath moveto} bdef /CP {currentpoint} bdef /D {currentpoint
stroke moveto} bdef /F {closepath fill} bdef /K { setgray } bdef /M {moveto}
bdef /N {rmoveto} bdef /P {lineto} bdef /R {rlineto} bdef /S {gsave show
grestore} bdef /X {currentpoint pop} bdef /Z {gsave currentpoint lineto 20
setlinewidth 1 setlinecap stroke grestore} bdef /L0 {[] 0 setdash} bdef /L1
{[40 100] 0 setdash} bdef /L2 {[200 200] 0 setdash} bdef /L3 {[200 100 50
100] 0 setdash} bdef /L4 {[300 100 50 100 50 100 50 100] 0 setdash} bdef /L5
{[400 200] 0 setdash} bdef /STDFONT { findfont exch scalefont setfont } bdef
/ISOFONT { findfont dup length dict begin { 1 index /FID ne {def} {pop pop}
ifelse } forall /Encoding ISOLatin1Encoding def currentdict end /idltmpfont
exch definefont exch scalefont setfont } bdef /ISOBULLET { gsave /Helvetica
findfont exch scalefont setfont (\267) show currentpoint grestore moveto}
bdef /MITERLIMIT { 2.5 setmiterlimit } bdef end
%%EndProlog
%%Page: 0 1
%%PageRequirements: color
%%PageResources: (atend)
%%PageOrientation: Portrait
%%PageBoundingBox: 0 0 453 311
%%BeginPageSetup
$IDL_DICT begin 0.0283465 dup scale MITERLIMIT
%%IncludeResource: font Helvetica
423.333 /Helvetica STDFONT
%%EndPageSetup
0.000 0.000 0.000 setrgbcolor gsave 8400 308 translate 0 0 M 1.1 dup scale
-1569.8 0 N
(R) show X -101.051 M
%%IncludeResource: font Helvetica
262.467 /Helvetica STDFONT
(m) show X 192.937 M
(-1) show X 0 M
%%IncludeResource: font Helvetica
423.333 /Helvetica STDFONT
(=M) show X -101.051 M
%%IncludeResource: font Helvetica
262.467 /Helvetica STDFONT
(s) show X 0 M
%%IncludeResource: font Helvetica
423.333 /Helvetica STDFONT
(\(0\)/M) show X -101.051 M
%%IncludeResource: font Helvetica
262.467 /Helvetica STDFONT
(h) show X 0 M
%%IncludeResource: font Helvetica
423.333 /Helvetica STDFONT
(\(0\)) show grestore gsave 459 6050 translate 0 0 M 90 rotate 1.1 dup scale
-697.459 0 N
(T) show X -101.051 M
%%IncludeResource: font Helvetica
262.467 /Helvetica STDFONT
(df) show X 0 M
%%IncludeResource: font Helvetica
423.333 /Helvetica STDFONT
( /Gyr) show grestore 40 setlinewidth L0 1280 6490 M 4107 0 R D 1280 6490 M
0 163 R D gsave 1280 5962 translate 0 0 M -58.8433 0 N
( ) show grestore 2101 6490 M 0 163 R D gsave 2101 5962 translate 0 0 M
-294.217 0 N
(0.1) show grestore 2923 6490 M 0 163 R D gsave 2923 5962 translate 0 0 M
-58.8433 0 N
( ) show grestore 3744 6490 M 0 163 R D gsave 3744 5962 translate 0 0 M
-294.217 0 N
(0.2) show grestore 4565 6490 M 0 163 R D gsave 4565 5962 translate 0 0 M
-58.8433 0 N
( ) show grestore 5387 6490 M 0 163 R D gsave 5387 5962 translate 0 0 M
-294.217 0 N
(0.3) show grestore 1444 6490 M 0 81 R D 1609 6490 M 0 81 R D 1773 6490 M
0 81 R D 1937 6490 M 0 81 R D 2266 6490 M 0 81 R D 2430 6490 M 0 81 R D
2594 6490 M 0 81 R D 2758 6490 M 0 81 R D 3087 6490 M 0 81 R D 3251 6490 M
0 81 R D 3415 6490 M 0 81 R D 3580 6490 M 0 81 R D 3908 6490 M 0 81 R D
4073 6490 M 0 81 R D 4237 6490 M 0 81 R D 4401 6490 M 0 81 R D 4730 6490 M
0 81 R D 4894 6490 M 0 81 R D 5058 6490 M 0 81 R D 5222 6490 M 0 81 R D
1280 10560 M 4107 0 R D 1280 10560 M 0 -163 R D 2101 10560 M 0 -163 R D
2923 10560 M 0 -163 R D 3744 10560 M 0 -163 R D 4565 10560 M 0 -163 R D
5387 10560 M 0 -163 R D 1444 10560 M 0 -81 R D 1609 10560 M 0 -81 R D
1773 10560 M 0 -81 R D 1937 10560 M 0 -81 R D 2266 10560 M 0 -81 R D
2430 10560 M 0 -81 R D 2594 10560 M 0 -81 R D 2758 10560 M 0 -81 R D
3087 10560 M 0 -81 R D 3251 10560 M 0 -81 R D 3415 10560 M 0 -81 R D
3580 10560 M 0 -81 R D 3908 10560 M 0 -81 R D 4073 10560 M 0 -81 R D
4237 10560 M 0 -81 R D 4401 10560 M 0 -81 R D 4730 10560 M 0 -81 R D
4894 10560 M 0 -81 R D 5058 10560 M 0 -81 R D 5222 10560 M 0 -81 R D
1280 6490 M 0 4070 R D 1280 7111 M 164 0 R D gsave 1169 6971 translate 0 0 M
-235.373 0 N
(1) show grestore 1280 7817 M 164 0 R D gsave 1169 7676 translate 0 0 M
-235.373 0 N
(2) show grestore 1280 8522 M 164 0 R D gsave 1169 8381 translate 0 0 M
-235.373 0 N
(3) show grestore 1280 9228 M 164 0 R D gsave 1169 9087 translate 0 0 M
-235.373 0 N
(4) show grestore 1280 9933 M 164 0 R D gsave 1169 9792 translate 0 0 M
-235.373 0 N
(5) show grestore 1280 6547 M 82 0 R D 1280 6618 M 82 0 R D 1280 6688 M
82 0 R D 1280 6759 M 82 0 R D 1280 6829 M 82 0 R D 1280 6900 M 82 0 R D
1280 6970 M 82 0 R D 1280 7041 M 82 0 R D 1280 7182 M 82 0 R D 1280 7253 M
82 0 R D 1280 7323 M 82 0 R D 1280 7394 M 82 0 R D 1280 7464 M 82 0 R D
1280 7535 M 82 0 R D 1280 7605 M 82 0 R D 1280 7676 M 82 0 R D 1280 7746 M
82 0 R D 1280 7887 M 82 0 R D 1280 7958 M 82 0 R D 1280 8029 M 82 0 R D
1280 8099 M 82 0 R D 1280 8170 M 82 0 R D 1280 8240 M 82 0 R D 1280 8311 M
82 0 R D 1280 8381 M 82 0 R D 1280 8452 M 82 0 R D 1280 8593 M 82 0 R D
1280 8663 M 82 0 R D 1280 8734 M 82 0 R D 1280 8804 M 82 0 R D 1280 8875 M
82 0 R D 1280 8946 M 82 0 R D 1280 9016 M 82 0 R D 1280 9087 M 82 0 R D
1280 9157 M 82 0 R D 1280 9298 M 82 0 R D 1280 9369 M 82 0 R D 1280 9439 M
82 0 R D 1280 9510 M 82 0 R D 1280 9580 M 82 0 R D 1280 9651 M 82 0 R D
1280 9721 M 82 0 R D 1280 9792 M 82 0 R D 1280 9863 M 82 0 R D 1280 10004 M
82 0 R D 1280 10074 M 82 0 R D 1280 10145 M 82 0 R D 1280 10215 M 82 0 R D
1280 10286 M 82 0 R D 1280 10356 M 82 0 R D 1280 10427 M 82 0 R D
1280 10497 M 82 0 R D 5387 6490 M 0 4070 R D 5387 7111 M -165 0 R D
5387 7817 M -165 0 R D 5387 8522 M -165 0 R D 5387 9228 M -165 0 R D
5387 9933 M -165 0 R D 5387 6547 M -82 0 R D 5387 6618 M -82 0 R D
5387 6688 M -82 0 R D 5387 6759 M -82 0 R D 5387 6829 M -82 0 R D
5387 6900 M -82 0 R D 5387 6970 M -82 0 R D 5387 7041 M -82 0 R D
5387 7182 M -82 0 R D 5387 7253 M -82 0 R D 5387 7323 M -82 0 R D
5387 7394 M -82 0 R D 5387 7464 M -82 0 R D 5387 7535 M -82 0 R D
5387 7605 M -82 0 R D 5387 7676 M -82 0 R D 5387 7746 M -82 0 R D
5387 7887 M -82 0 R D 5387 7958 M -82 0 R D 5387 8029 M -82 0 R D
5387 8099 M -82 0 R D 5387 8170 M -82 0 R D 5387 8240 M -82 0 R D
5387 8311 M -82 0 R D 5387 8381 M -82 0 R D 5387 8452 M -82 0 R D
5387 8593 M -82 0 R D 5387 8663 M -82 0 R D 5387 8734 M -82 0 R D
5387 8804 M -82 0 R D 5387 8875 M -82 0 R D 5387 8946 M -82 0 R D
5387 9016 M -82 0 R D 5387 9087 M -82 0 R D 5387 9157 M -82 0 R D
5387 9298 M -82 0 R D 5387 9369 M -82 0 R D 5387 9439 M -82 0 R D
5387 9510 M -82 0 R D 5387 9580 M -82 0 R D 5387 9651 M -82 0 R D
5387 9721 M -82 0 R D 5387 9792 M -82 0 R D 5387 9863 M -82 0 R D
5387 10004 M -82 0 R D 5387 10074 M -82 0 R D 5387 10145 M -82 0 R D
5387 10215 M -82 0 R D 5387 10286 M -82 0 R D 5387 10356 M -82 0 R D
5387 10427 M -82 0 R D 5387 10497 M -82 0 R D L1 1280 7663 M 411 -299 R
410 -160 R 493 -117 R 329 -55 R 821 -92 R 821 -58 R 821 -41 R D L4
1280 9090 M 411 -471 R 410 -1656 R 493 -75 R 329 -31 R 821 -37 R 821 16 R
821 77 R D L3 2252 10560 M 342 -443 R 329 -297 R 821 -503 R 821 -318 R
821 -222 R D L2 1280 10560 M 411 -1350 R 410 -662 R 493 -453 R 329 -200 R
821 -325 R 821 -194 R 821 -130 R D gsave 5058 10062 translate 0 0 M
1.1 dup scale -947.42 0 N
%%IncludeResource: font Symbol
423.333 /Symbol STDFONT
(e) show
%%IncludeResource: font Helvetica
423.333 /Helvetica STDFONT
(=0.1) show grestore L0 6347 6490 M 4106 0 R D 6347 6490 M 0 163 R D
gsave 6347 5962 translate 0 0 M -58.8433 0 N
( ) show grestore 7168 6490 M 0 163 R D gsave 7168 5962 translate 0 0 M
-294.217 0 N
(0.1) show grestore 7989 6490 M 0 163 R D gsave 7989 5962 translate 0 0 M
-58.8433 0 N
( ) show grestore 8811 6490 M 0 163 R D gsave 8811 5962 translate 0 0 M
-294.217 0 N
(0.2) show grestore 9632 6490 M 0 163 R D gsave 9632 5962 translate 0 0 M
-58.8433 0 N
( ) show grestore 10453 6490 M 0 163 R D gsave 10453 5962 translate 0 0 M
-294.217 0 N
(0.3) show grestore 6511 6490 M 0 81 R D 6675 6490 M 0 81 R D 6840 6490 M
0 81 R D 7004 6490 M 0 81 R D 7332 6490 M 0 81 R D 7497 6490 M 0 81 R D
7661 6490 M 0 81 R D 7825 6490 M 0 81 R D 8154 6490 M 0 81 R D 8318 6490 M
0 81 R D 8482 6490 M 0 81 R D 8646 6490 M 0 81 R D 8975 6490 M 0 81 R D
9139 6490 M 0 81 R D 9304 6490 M 0 81 R D 9468 6490 M 0 81 R D 9796 6490 M
0 81 R D 9961 6490 M 0 81 R D 10125 6490 M 0 81 R D 10289 6490 M 0 81 R D
6347 10560 M 4106 0 R D 6347 10560 M 0 -163 R D 7168 10560 M 0 -163 R D
7989 10560 M 0 -163 R D 8811 10560 M 0 -163 R D 9632 10560 M 0 -163 R D
10453 10560 M 0 -163 R D 6511 10560 M 0 -81 R D 6675 10560 M 0 -81 R D
6840 10560 M 0 -81 R D 7004 10560 M 0 -81 R D 7332 10560 M 0 -81 R D
7497 10560 M 0 -81 R D 7661 10560 M 0 -81 R D 7825 10560 M 0 -81 R D
8154 10560 M 0 -81 R D 8318 10560 M 0 -81 R D 8482 10560 M 0 -81 R D
8646 10560 M 0 -81 R D 8975 10560 M 0 -81 R D 9139 10560 M 0 -81 R D
9304 10560 M 0 -81 R D 9468 10560 M 0 -81 R D 9796 10560 M 0 -81 R D
9961 10560 M 0 -81 R D 10125 10560 M 0 -81 R D 10289 10560 M 0 -81 R D
6347 6490 M 0 4070 R D 6347 7371 M 164 0 R D gsave 6236 7230 translate 0 0 M
-235.373 0 N
(2) show grestore 6347 8336 M 164 0 R D gsave 6236 8195 translate 0 0 M
-235.373 0 N
(4) show grestore 6347 9300 M 164 0 R D gsave 6236 9160 translate 0 0 M
-235.373 0 N
(6) show grestore 6347 10265 M 164 0 R D gsave 6236 10124 translate 0 0 M
-235.373 0 N
(8) show grestore 6347 6647 M 82 0 R D 6347 6888 M 82 0 R D 6347 7130 M
82 0 R D 6347 7612 M 82 0 R D 6347 7853 M 82 0 R D 6347 8094 M 82 0 R D
6347 8577 M 82 0 R D 6347 8818 M 82 0 R D 6347 9059 M 82 0 R D 6347 9542 M
82 0 R D 6347 9783 M 82 0 R D 6347 10024 M 82 0 R D 6347 10506 M 82 0 R D
10453 6490 M 0 4070 R D 10453 7371 M -164 0 R D 10453 8336 M -164 0 R D
10453 9300 M -164 0 R D 10453 10265 M -164 0 R D 10453 6647 M -82 0 R D
10453 6888 M -82 0 R D 10453 7130 M -82 0 R D 10453 7612 M -82 0 R D
10453 7853 M -82 0 R D 10453 8094 M -82 0 R D 10453 8577 M -82 0 R D
10453 8818 M -82 0 R D 10453 9059 M -82 0 R D 10453 9542 M -82 0 R D
10453 9783 M -82 0 R D 10453 10024 M -82 0 R D 10453 10506 M -82 0 R D L1
6347 8431 M 410 -482 R 411 -258 R 493 -189 R 328 -87 R 822 -149 R 821 -94 R
821 -65 R D L4 6347 9603 M 410 -804 R 411 -1316 R 493 -152 R 328 -66 R
822 -98 R 821 -26 R 821 33 R D L3 6887 10560 M 281 -501 R 493 -537 R
328 -249 R 822 -423 R 821 -267 R 821 -186 R D L2 6347 10560 M 410 -1350 R
411 -662 R 493 -453 R 328 -200 R 822 -325 R 821 -194 R 821 -130 R D
gsave 10125 10062 translate 0 0 M 1.1 dup scale -947.42 0 N
%%IncludeResource: font Symbol
423.333 /Symbol STDFONT
(e) show
%%IncludeResource: font Helvetica
423.333 /Helvetica STDFONT
(=0.3) show grestore L0 11413 6490 M 4107 0 R D 11413 6490 M 0 163 R D
gsave 11413 5962 translate 0 0 M -58.8433 0 N
( ) show grestore 12235 6490 M 0 163 R D gsave 12235 5962 translate 0 0 M
-294.217 0 N
(0.1) show grestore 13056 6490 M 0 163 R D gsave 13056 5962 translate 0 0 M
-58.8433 0 N
( ) show grestore 13877 6490 M 0 163 R D gsave 13877 5962 translate 0 0 M
-294.217 0 N
(0.2) show grestore 14699 6490 M 0 163 R D gsave 14699 5962 translate 0 0 M
-58.8433 0 N
( ) show grestore 15520 6490 M 0 163 R D gsave 15520 5962 translate 0 0 M
-294.217 0 N
(0.3) show grestore 11578 6490 M 0 81 R D 11742 6490 M 0 81 R D 11906 6490 M
0 81 R D 12071 6490 M 0 81 R D 12399 6490 M 0 81 R D 12563 6490 M 0 81 R D
12728 6490 M 0 81 R D 12892 6490 M 0 81 R D 13220 6490 M 0 81 R D
13385 6490 M 0 81 R D 13549 6490 M 0 81 R D 13713 6490 M 0 81 R D
14042 6490 M 0 81 R D 14206 6490 M 0 81 R D 14370 6490 M 0 81 R D
14535 6490 M 0 81 R D 14863 6490 M 0 81 R D 15027 6490 M 0 81 R D
15192 6490 M 0 81 R D 15356 6490 M 0 81 R D 11413 10560 M 4107 0 R D
11413 10560 M 0 -163 R D 12235 10560 M 0 -163 R D 13056 10560 M 0 -163 R D
13877 10560 M 0 -163 R D 14699 10560 M 0 -163 R D 15520 10560 M 0 -163 R D
11578 10560 M 0 -81 R D 11742 10560 M 0 -81 R D 11906 10560 M 0 -81 R D
12071 10560 M 0 -81 R D 12399 10560 M 0 -81 R D 12563 10560 M 0 -81 R D
12728 10560 M 0 -81 R D 12892 10560 M 0 -81 R D 13220 10560 M 0 -81 R D
13385 10560 M 0 -81 R D 13549 10560 M 0 -81 R D 13713 10560 M 0 -81 R D
14042 10560 M 0 -81 R D 14206 10560 M 0 -81 R D 14370 10560 M 0 -81 R D
14535 10560 M 0 -81 R D 14863 10560 M 0 -81 R D 15027 10560 M 0 -81 R D
15192 10560 M 0 -81 R D 15356 10560 M 0 -81 R D 11413 6490 M 0 4070 R D
11413 7066 M 165 0 R D gsave 11302 6925 translate 0 0 M -235.373 0 N
(2) show grestore 11413 7726 M 165 0 R D gsave 11302 7585 translate 0 0 M
-235.373 0 N
(4) show grestore 11413 8385 M 165 0 R D gsave 11302 8245 translate 0 0 M
-235.373 0 N
(6) show grestore 11413 9045 M 165 0 R D gsave 11302 8904 translate 0 0 M
-235.373 0 N
(8) show grestore 11413 9705 M 165 0 R D gsave 11302 9564 translate 0 0 M
-470.747 0 N
(10) show grestore 11413 10365 M 165 0 R D gsave 11302 10224 translate 0 0 M
-470.747 0 N
(12) show grestore 11413 6571 M 83 0 R D 11413 6736 M 83 0 R D 11413 6901 M
83 0 R D 11413 7231 M 83 0 R D 11413 7396 M 83 0 R D 11413 7561 M 83 0 R D
11413 7891 M 83 0 R D 11413 8056 M 83 0 R D 11413 8221 M 83 0 R D
11413 8550 M 83 0 R D 11413 8715 M 83 0 R D 11413 8880 M 83 0 R D
11413 9210 M 83 0 R D 11413 9375 M 83 0 R D 11413 9540 M 83 0 R D
11413 9870 M 83 0 R D 11413 10035 M 83 0 R D 11413 10200 M 83 0 R D
11413 10530 M 83 0 R D 15520 6490 M 0 4070 R D 15520 7066 M -164 0 R D
15520 7726 M -164 0 R D 15520 8385 M -164 0 R D 15520 9045 M -164 0 R D
15520 9705 M -164 0 R D 15520 10365 M -164 0 R D 15520 6571 M -82 0 R D
15520 6736 M -82 0 R D 15520 6901 M -82 0 R D 15520 7231 M -82 0 R D
15520 7396 M -82 0 R D 15520 7561 M -82 0 R D 15520 7891 M -82 0 R D
15520 8056 M -82 0 R D 15520 8221 M -82 0 R D 15520 8550 M -82 0 R D
15520 8715 M -82 0 R D 15520 8880 M -82 0 R D 15520 9210 M -82 0 R D
15520 9375 M -82 0 R D 15520 9540 M -82 0 R D 15520 9870 M -82 0 R D
15520 10035 M -82 0 R D 15520 10200 M -82 0 R D 15520 10530 M -82 0 R D L1
11413 8468 M 411 -490 R 411 -263 R 493 -192 R 328 -89 R 821 -152 R 822 -96 R
821 -66 R D L4 11413 9524 M 411 -880 R 411 -1044 R 493 -171 R 328 -78 R
821 -120 R 822 -56 R 821 -9 R D L3 11519 10560 M 305 -780 R 411 -564 R
493 -413 R 328 -192 R 821 -325 R 822 -205 R 821 -143 R D L2 11413 10560 M
411 -1350 R 411 -662 R 493 -453 R 328 -200 R 821 -325 R 822 -194 R
821 -130 R D gsave 15192 10062 translate 0 0 M 1.1 dup scale -947.42 0 N
%%IncludeResource: font Symbol
423.333 /Symbol STDFONT
(e) show
%%IncludeResource: font Helvetica
423.333 /Helvetica STDFONT
(=0.5) show grestore L0 1280 1540 M 4107 0 R D 1280 1540 M 0 163 R D
gsave 1280 1012 translate 0 0 M -58.8433 0 N
( ) show grestore 2101 1540 M 0 163 R D gsave 2101 1012 translate 0 0 M
-294.217 0 N
(0.1) show grestore 2923 1540 M 0 163 R D gsave 2923 1012 translate 0 0 M
-58.8433 0 N
( ) show grestore 3744 1540 M 0 163 R D gsave 3744 1012 translate 0 0 M
-294.217 0 N
(0.2) show grestore 4565 1540 M 0 163 R D gsave 4565 1012 translate 0 0 M
-58.8433 0 N
( ) show grestore 5387 1540 M 0 163 R D gsave 5387 1012 translate 0 0 M
-294.217 0 N
(0.3) show grestore 1444 1540 M 0 81 R D 1609 1540 M 0 81 R D 1773 1540 M
0 81 R D 1937 1540 M 0 81 R D 2266 1540 M 0 81 R D 2430 1540 M 0 81 R D
2594 1540 M 0 81 R D 2758 1540 M 0 81 R D 3087 1540 M 0 81 R D 3251 1540 M
0 81 R D 3415 1540 M 0 81 R D 3580 1540 M 0 81 R D 3908 1540 M 0 81 R D
4073 1540 M 0 81 R D 4237 1540 M 0 81 R D 4401 1540 M 0 81 R D 4730 1540 M
0 81 R D 4894 1540 M 0 81 R D 5058 1540 M 0 81 R D 5222 1540 M 0 81 R D
1280 5610 M 4107 0 R D 1280 5610 M 0 -163 R D 2101 5610 M 0 -163 R D
2923 5610 M 0 -163 R D 3744 5610 M 0 -163 R D 4565 5610 M 0 -163 R D
5387 5610 M 0 -163 R D 1444 5610 M 0 -81 R D 1609 5610 M 0 -81 R D
1773 5610 M 0 -81 R D 1937 5610 M 0 -81 R D 2266 5610 M 0 -81 R D
2430 5610 M 0 -81 R D 2594 5610 M 0 -81 R D 2758 5610 M 0 -81 R D
3087 5610 M 0 -81 R D 3251 5610 M 0 -81 R D 3415 5610 M 0 -81 R D
3580 5610 M 0 -81 R D 3908 5610 M 0 -81 R D 4073 5610 M 0 -81 R D
4237 5610 M 0 -81 R D 4401 5610 M 0 -81 R D 4730 5610 M 0 -81 R D
4894 5610 M 0 -81 R D 5058 5610 M 0 -81 R D 5222 5610 M 0 -81 R D
1280 1540 M 0 4070 R D 1280 2584 M 164 0 R D gsave 1169 2443 translate 0 0 M
-235.373 0 N
(5) show grestore 1280 3712 M 164 0 R D gsave 1169 3571 translate 0 0 M
-470.747 0 N
(10) show grestore 1280 4840 M 164 0 R D gsave 1169 4699 translate 0 0 M
-470.747 0 N
(15) show grestore 1280 1682 M 82 0 R D 1280 1907 M 82 0 R D 1280 2133 M
82 0 R D 1280 2358 M 82 0 R D 1280 2810 M 82 0 R D 1280 3035 M 82 0 R D
1280 3261 M 82 0 R D 1280 3486 M 82 0 R D 1280 3938 M 82 0 R D 1280 4163 M
82 0 R D 1280 4389 M 82 0 R D 1280 4614 M 82 0 R D 1280 5066 M 82 0 R D
1280 5291 M 82 0 R D 1280 5517 M 82 0 R D 5387 1540 M 0 4070 R D 5387 2584 M
-165 0 R D 5387 3712 M -165 0 R D 5387 4840 M -165 0 R D 5387 1682 M -82 0 R
D 5387 1907 M -82 0 R D 5387 2133 M -82 0 R D 5387 2358 M -82 0 R D
5387 2810 M -82 0 R D 5387 3035 M -82 0 R D 5387 3261 M -82 0 R D
5387 3486 M -82 0 R D 5387 3938 M -82 0 R D 5387 4163 M -82 0 R D
5387 4389 M -82 0 R D 5387 4614 M -82 0 R D 5387 5066 M -82 0 R D
5387 5291 M -82 0 R D 5387 5517 M -82 0 R D L1 1280 3290 M 411 -436 R
410 -234 R 493 -171 R 329 -79 R 821 -135 R 821 -85 R 821 -59 R D L4
1280 4225 M 411 -827 R 410 -820 R 493 -163 R 329 -74 R 821 -122 R 821 -67 R
821 -34 R D L3 1280 4752 M 411 -783 R 410 -420 R 493 -308 R 329 -143 R
821 -242 R 821 -153 R 821 -106 R D L2 1280 5610 M 411 -1350 R 410 -662 R
493 -453 R 329 -200 R 821 -325 R 821 -194 R 821 -130 R D
gsave 5058 5112 translate 0 0 M 1.1 dup scale -947.42 0 N
%%IncludeResource: font Symbol
423.333 /Symbol STDFONT
(e) show
%%IncludeResource: font Helvetica
423.333 /Helvetica STDFONT
(=0.7) show grestore L0 6347 1540 M 4106 0 R D 6347 1540 M 0 163 R D
gsave 6347 1012 translate 0 0 M -58.8433 0 N
( ) show grestore 7168 1540 M 0 163 R D gsave 7168 1012 translate 0 0 M
-294.217 0 N
(0.1) show grestore 7989 1540 M 0 163 R D gsave 7989 1012 translate 0 0 M
-58.8433 0 N
( ) show grestore 8811 1540 M 0 163 R D gsave 8811 1012 translate 0 0 M
-294.217 0 N
(0.2) show grestore 9632 1540 M 0 163 R D gsave 9632 1012 translate 0 0 M
-58.8433 0 N
( ) show grestore 10453 1540 M 0 163 R D gsave 10453 1012 translate 0 0 M
-294.217 0 N
(0.3) show grestore 6511 1540 M 0 81 R D 6675 1540 M 0 81 R D 6840 1540 M
0 81 R D 7004 1540 M 0 81 R D 7332 1540 M 0 81 R D 7497 1540 M 0 81 R D
7661 1540 M 0 81 R D 7825 1540 M 0 81 R D 8154 1540 M 0 81 R D 8318 1540 M
0 81 R D 8482 1540 M 0 81 R D 8646 1540 M 0 81 R D 8975 1540 M 0 81 R D
9139 1540 M 0 81 R D 9304 1540 M 0 81 R D 9468 1540 M 0 81 R D 9796 1540 M
0 81 R D 9961 1540 M 0 81 R D 10125 1540 M 0 81 R D 10289 1540 M 0 81 R D
6347 5610 M 4106 0 R D 6347 5610 M 0 -163 R D 7168 5610 M 0 -163 R D
7989 5610 M 0 -163 R D 8811 5610 M 0 -163 R D 9632 5610 M 0 -163 R D
10453 5610 M 0 -163 R D 6511 5610 M 0 -81 R D 6675 5610 M 0 -81 R D
6840 5610 M 0 -81 R D 7004 5610 M 0 -81 R D 7332 5610 M 0 -81 R D
7497 5610 M 0 -81 R D 7661 5610 M 0 -81 R D 7825 5610 M 0 -81 R D
8154 5610 M 0 -81 R D 8318 5610 M 0 -81 R D 8482 5610 M 0 -81 R D
8646 5610 M 0 -81 R D 8975 5610 M 0 -81 R D 9139 5610 M 0 -81 R D
9304 5610 M 0 -81 R D 9468 5610 M 0 -81 R D 9796 5610 M 0 -81 R D
9961 5610 M 0 -81 R D 10125 5610 M 0 -81 R D 10289 5610 M 0 -81 R D
6347 1540 M 0 4070 R D 6347 2227 M 164 0 R D gsave 6236 2087 translate 0 0 M
-235.373 0 N
(5) show grestore 6347 2999 M 164 0 R D gsave 6236 2858 translate 0 0 M
-470.747 0 N
(10) show grestore 6347 3770 M 164 0 R D gsave 6236 3629 translate 0 0 M
-470.747 0 N
(15) show grestore 6347 4542 M 164 0 R D gsave 6236 4401 translate 0 0 M
-470.747 0 N
(20) show grestore 6347 5313 M 164 0 R D gsave 6236 5172 translate 0 0 M
-470.747 0 N
(25) show grestore 6347 1610 M 82 0 R D 6347 1765 M 82 0 R D 6347 1919 M
82 0 R D 6347 2073 M 82 0 R D 6347 2382 M 82 0 R D 6347 2536 M 82 0 R D
6347 2690 M 82 0 R D 6347 2845 M 82 0 R D 6347 3153 M 82 0 R D 6347 3307 M
82 0 R D 6347 3462 M 82 0 R D 6347 3616 M 82 0 R D 6347 3925 M 82 0 R D
6347 4079 M 82 0 R D 6347 4233 M 82 0 R D 6347 4387 M 82 0 R D 6347 4696 M
82 0 R D 6347 4850 M 82 0 R D 6347 5004 M 82 0 R D 6347 5159 M 82 0 R D
6347 5467 M 82 0 R D 10453 1540 M 0 4070 R D 10453 2227 M -164 0 R D
10453 2999 M -164 0 R D 10453 3770 M -164 0 R D 10453 4542 M -164 0 R D
10453 5313 M -164 0 R D 10453 1610 M -82 0 R D 10453 1765 M -82 0 R D
10453 1919 M -82 0 R D 10453 2073 M -82 0 R D 10453 2382 M -82 0 R D
10453 2536 M -82 0 R D 10453 2690 M -82 0 R D 10453 2845 M -82 0 R D
10453 3153 M -82 0 R D 10453 3307 M -82 0 R D 10453 3462 M -82 0 R D
10453 3616 M -82 0 R D 10453 3925 M -82 0 R D 10453 4079 M -82 0 R D
10453 4233 M -82 0 R D 10453 4387 M -82 0 R D 10453 4696 M -82 0 R D
10453 4850 M -82 0 R D 10453 5004 M -82 0 R D 10453 5159 M -82 0 R D
10453 5467 M -82 0 R D L1 6347 2982 M 410 -363 R 411 -195 R 493 -142 R
328 -66 R 822 -112 R 821 -71 R 821 -49 R D L4 6347 3785 M 410 -719 R
411 -637 R 493 -142 R 328 -66 R 822 -111 R 821 -67 R 821 -44 R D L3
6347 3868 M 410 -573 R 411 -308 R 493 -225 R 328 -104 R 822 -177 R
821 -112 R 821 -78 R D L2 6347 5610 M 410 -1350 R 411 -662 R 493 -453 R
328 -200 R 822 -325 R 821 -194 R 821 -130 R D
gsave 10125 5112 translate 0 0 M 1.1 dup scale -947.42 0 N
%%IncludeResource: font Symbol
423.333 /Symbol STDFONT
(e) show
%%IncludeResource: font Helvetica
423.333 /Helvetica STDFONT
(=0.9) show grestore L0 11413 1540 M 4107 0 R D 11413 1540 M 0 163 R D
gsave 11413 1012 translate 0 0 M -58.8433 0 N
( ) show grestore 12235 1540 M 0 163 R D gsave 12235 1012 translate 0 0 M
-294.217 0 N
(0.1) show grestore 13056 1540 M 0 163 R D gsave 13056 1012 translate 0 0 M
-58.8433 0 N
( ) show grestore 13877 1540 M 0 163 R D gsave 13877 1012 translate 0 0 M
-294.217 0 N
(0.2) show grestore 14699 1540 M 0 163 R D gsave 14699 1012 translate 0 0 M
-58.8433 0 N
( ) show grestore 15520 1540 M 0 163 R D gsave 15520 1012 translate 0 0 M
-294.217 0 N
(0.3) show grestore 11578 1540 M 0 81 R D 11742 1540 M 0 81 R D 11906 1540 M
0 81 R D 12071 1540 M 0 81 R D 12399 1540 M 0 81 R D 12563 1540 M 0 81 R D
12728 1540 M 0 81 R D 12892 1540 M 0 81 R D 13220 1540 M 0 81 R D
13385 1540 M 0 81 R D 13549 1540 M 0 81 R D 13713 1540 M 0 81 R D
14042 1540 M 0 81 R D 14206 1540 M 0 81 R D 14370 1540 M 0 81 R D
14535 1540 M 0 81 R D 14863 1540 M 0 81 R D 15027 1540 M 0 81 R D
15192 1540 M 0 81 R D 15356 1540 M 0 81 R D 11413 5610 M 4107 0 R D
11413 5610 M 0 -163 R D 12235 5610 M 0 -163 R D 13056 5610 M 0 -163 R D
13877 5610 M 0 -163 R D 14699 5610 M 0 -163 R D 15520 5610 M 0 -163 R D
11578 5610 M 0 -81 R D 11742 5610 M 0 -81 R D 11906 5610 M 0 -81 R D
12071 5610 M 0 -81 R D 12399 5610 M 0 -81 R D 12563 5610 M 0 -81 R D
12728 5610 M 0 -81 R D 12892 5610 M 0 -81 R D 13220 5610 M 0 -81 R D
13385 5610 M 0 -81 R D 13549 5610 M 0 -81 R D 13713 5610 M 0 -81 R D
14042 5610 M 0 -81 R D 14206 5610 M 0 -81 R D 14370 5610 M 0 -81 R D
14535 5610 M 0 -81 R D 14863 5610 M 0 -81 R D 15027 5610 M 0 -81 R D
15192 5610 M 0 -81 R D 15356 5610 M 0 -81 R D 11413 1540 M 0 4070 R D
11413 2094 M 165 0 R D gsave 11302 1953 translate 0 0 M -235.373 0 N
(5) show grestore 11413 2732 M 165 0 R D gsave 11302 2591 translate 0 0 M
-470.747 0 N
(10) show grestore 11413 3370 M 165 0 R D gsave 11302 3229 translate 0 0 M
-470.747 0 N
(15) show grestore 11413 4008 M 165 0 R D gsave 11302 3867 translate 0 0 M
-470.747 0 N
(20) show grestore 11413 4646 M 165 0 R D gsave 11302 4505 translate 0 0 M
-470.747 0 N
(25) show grestore 11413 5284 M 165 0 R D gsave 11302 5143 translate 0 0 M
-470.747 0 N
(30) show grestore 11413 1584 M 83 0 R D 11413 1711 M 83 0 R D 11413 1839 M
83 0 R D 11413 1966 M 83 0 R D 11413 2222 M 83 0 R D 11413 2349 M 83 0 R D
11413 2477 M 83 0 R D 11413 2604 M 83 0 R D 11413 2859 M 83 0 R D
11413 2987 M 83 0 R D 11413 3115 M 83 0 R D 11413 3242 M 83 0 R D
11413 3497 M 83 0 R D 11413 3625 M 83 0 R D 11413 3753 M 83 0 R D
11413 3880 M 83 0 R D 11413 4135 M 83 0 R D 11413 4263 M 83 0 R D
11413 4390 M 83 0 R D 11413 4518 M 83 0 R D 11413 4773 M 83 0 R D
11413 4901 M 83 0 R D 11413 5028 M 83 0 R D 11413 5156 M 83 0 R D
11413 5411 M 83 0 R D 11413 5539 M 83 0 R D 15520 1540 M 0 4070 R D
15520 2094 M -164 0 R D 15520 2732 M -164 0 R D 15520 3370 M -164 0 R D
15520 4008 M -164 0 R D 15520 4646 M -164 0 R D 15520 5284 M -164 0 R D
15520 1584 M -82 0 R D 15520 1711 M -82 0 R D 15520 1839 M -82 0 R D
15520 1966 M -82 0 R D 15520 2222 M -82 0 R D 15520 2349 M -82 0 R D
15520 2477 M -82 0 R D 15520 2604 M -82 0 R D 15520 2859 M -82 0 R D
15520 2987 M -82 0 R D 15520 3115 M -82 0 R D 15520 3242 M -82 0 R D
15520 3497 M -82 0 R D 15520 3625 M -82 0 R D 15520 3753 M -82 0 R D
15520 3880 M -82 0 R D 15520 4135 M -82 0 R D 15520 4263 M -82 0 R D
15520 4390 M -82 0 R D 15520 4518 M -82 0 R D 15520 4773 M -82 0 R D
15520 4901 M -82 0 R D 15520 5028 M -82 0 R D 15520 5156 M -82 0 R D
15520 5411 M -82 0 R D 15520 5539 M -82 0 R D L1 11413 2826 M 411 -326 R
411 -175 R 493 -127 R 328 -60 R 821 -100 R 822 -64 R 821 -44 R D L4
11413 3120 M 411 -373 R 411 -402 R 493 -130 R 328 -61 R 821 -103 R 822 -65 R
821 -45 R D L3 11413 3510 M 411 -488 R 411 -262 R 493 -192 R 328 -88 R
821 -151 R 822 -96 R 821 -66 R D L2 11413 5610 M 411 -1350 R 411 -662 R
493 -453 R 328 -200 R 821 -325 R 822 -194 R 821 -130 R D
gsave 15192 5112 translate 0 0 M 1.1 dup scale -947.42 0 N
%%IncludeResource: font Symbol
423.333 /Symbol STDFONT
(e) show
%%IncludeResource: font Helvetica
423.333 /Helvetica STDFONT
(=1.0) show grestore L1 13367 4785 M 66 0 R 65 0 R 66 0 R 65 0 R 66 0 R
65 0 R 66 0 R 66 0 R 65 0 R D L4 13367 4341 M 66 0 R 65 0 R 66 0 R 65 0 R
66 0 R 65 0 R 66 0 R 66 0 R 65 0 R D L3 13367 3897 M 66 0 R 65 0 R 66 0 R
65 0 R 66 0 R 65 0 R 66 0 R 66 0 R 65 0 R D L2 13367 3452 M 66 0 R 65 0 R
66 0 R 65 0 R 66 0 R 65 0 R 66 0 R 66 0 R 65 0 R D
gsave 14023 4615 translate 0 0 M
(LC93) show grestore gsave 14023 4170 translate 0 0 M
(T03) show grestore gsave 14023 3726 translate 0 0 M
(J08) show grestore gsave 14023 3282 translate 0 0 M
(BK08) show grestore
%%PageTrailer
end
%%PageResources: font Helvetica
%%+ font Symbol
%%Trailer
%%Pages: 1
%%DocumentNeededResources: font Helvetica
%%+ font Symbol
%%EOF
