%!PS-Adobe-3.0 EPSF-3.0
%%BoundingBox: 0 0 510 170
%%Title: Graphics produced by IDL
%%For: dacia@JiangHu.site, /home/dacia/work/phoenix
%%Creator: IDL Version 7.0 (linux x86_64 m64)
%%CreationDate: Fri Jun 22 13:58:29 2012
%%DocumentData: Clean7bit
%%Requirements: color
%%LanguageLevel: 1
%%PageOrder: Ascend
%%Pages: (atend)
%%DocumentNeededResources: (atend)
%%EndComments
%%BeginProlog
%+ prolog.ps -- Prolog for IDL generated PostScript files
%+ Copyright (c) 1988-2007 ITT Visual Information Solutions. All Rights Reserved.
%v 5
/$IDL_DICT 40 dict def $IDL_DICT begin /bdef { bind def } bind def /C
{currentpoint newpath moveto} bdef /CP {currentpoint} bdef /D {currentpoint
stroke moveto} bdef /F {closepath fill} bdef /K { setgray } bdef /M {moveto}
bdef /N {rmoveto} bdef /P {lineto} bdef /R {rlineto} bdef /S {gsave show
grestore} bdef /X {currentpoint pop} bdef /Z {gsave currentpoint lineto 20
setlinewidth 1 setlinecap stroke grestore} bdef /L0 {[] 0 setdash} bdef /L1
{[40 100] 0 setdash} bdef /L2 {[200 200] 0 setdash} bdef /L3 {[200 100 50
100] 0 setdash} bdef /L4 {[300 100 50 100 50 100 50 100] 0 setdash} bdef /L5
{[400 200] 0 setdash} bdef /STDFONT { findfont exch scalefont setfont } bdef
/ISOFONT { findfont dup length dict begin { 1 index /FID ne {def} {pop pop}
ifelse } forall /Encoding ISOLatin1Encoding def currentdict end /idltmpfont
exch definefont exch scalefont setfont } bdef /ISOBULLET { gsave /Helvetica
findfont exch scalefont setfont (\267) show currentpoint grestore moveto}
bdef /MITERLIMIT { 2.5 setmiterlimit } bdef end
%%EndProlog
%%Page: 0 1
%%PageRequirements: color
%%PageResources: (atend)
%%PageOrientation: Portrait
%%PageBoundingBox: 0 0 510 170
%%BeginPageSetup
$IDL_DICT begin 0.0283465 dup scale MITERLIMIT
%%IncludeResource: font Helvetica
423.333 /Helvetica STDFONT
%%EndPageSetup
0.000 0.000 0.000 setrgbcolor gsave 690 3540 translate 0 0 M 90 rotate
-2105.45 0 N
(Cumulative Probability) show grestore gsave 3803 240 translate 0 0 M
-988.746 0 N
(M) show X -101.051 M
%%IncludeResource: font Helvetica
262.467 /Helvetica STDFONT
(gas) show X 0 M
%%IncludeResource: font Helvetica
423.333 /Helvetica STDFONT
( / M) show X -101.051 M
%%IncludeResource: font Helvetica
262.467 /Helvetica STDFONT
(halo) show grestore
%%IncludeResource: font Helvetica
423.333 /Helvetica STDFONT 40 setlinewidth L0 1800 1200 M 4005 0 R D
2681 1200 M 0 187 R D gsave 2681 672 translate 0 0 M -529.59 0 N
(0.001) show grestore 3942 1200 M 0 187 R D gsave 3942 672 translate 0 0 M
-529.59 0 N
(0.010) show grestore 5203 1200 M 0 187 R D gsave 5203 672 translate 0 0 M
-529.59 0 N
(0.100) show grestore 1800 1200 M 0 94 R D 2022 1200 M 0 94 R D 2180 1200 M
0 94 R D 2302 1200 M 0 94 R D 2402 1200 M 0 94 R D 2486 1200 M 0 94 R D
2559 1200 M 0 94 R D 2624 1200 M 0 94 R D 3061 1200 M 0 94 R D 3283 1200 M
0 94 R D 3441 1200 M 0 94 R D 3563 1200 M 0 94 R D 3663 1200 M 0 94 R D
3747 1200 M 0 94 R D 3820 1200 M 0 94 R D 3885 1200 M 0 94 R D 4322 1200 M
0 94 R D 4544 1200 M 0 94 R D 4702 1200 M 0 94 R D 4824 1200 M 0 94 R D
4924 1200 M 0 94 R D 5008 1200 M 0 94 R D 5081 1200 M 0 94 R D 5146 1200 M
0 94 R D 5583 1200 M 0 94 R D 5805 1200 M 0 94 R D 1800 5880 M 4005 0 R D
2681 5880 M 0 -187 R D 3942 5880 M 0 -187 R D 5203 5880 M 0 -187 R D
1800 5880 M 0 -94 R D 2022 5880 M 0 -94 R D 2180 5880 M 0 -94 R D
2302 5880 M 0 -94 R D 2402 5880 M 0 -94 R D 2486 5880 M 0 -94 R D
2559 5880 M 0 -94 R D 2624 5880 M 0 -94 R D 3061 5880 M 0 -94 R D
3283 5880 M 0 -94 R D 3441 5880 M 0 -94 R D 3563 5880 M 0 -94 R D
3663 5880 M 0 -94 R D 3747 5880 M 0 -94 R D 3820 5880 M 0 -94 R D
3885 5880 M 0 -94 R D 4322 5880 M 0 -94 R D 4544 5880 M 0 -94 R D
4702 5880 M 0 -94 R D 4824 5880 M 0 -94 R D 4924 5880 M 0 -94 R D
5008 5880 M 0 -94 R D 5081 5880 M 0 -94 R D 5146 5880 M 0 -94 R D
5583 5880 M 0 -94 R D 5805 5880 M 0 -94 R D 1800 1200 M 0 4680 R D
1800 2055 M 160 0 R D gsave 1689 1914 translate 0 0 M -588.433 0 N
(0.2) show grestore 1800 2955 M 160 0 R D gsave 1689 2814 translate 0 0 M
-588.433 0 N
(0.4) show grestore 1800 3855 M 160 0 R D gsave 1689 3714 translate 0 0 M
-588.433 0 N
(0.6) show grestore 1800 4755 M 160 0 R D gsave 1689 4614 translate 0 0 M
-588.433 0 N
(0.8) show grestore 1800 5655 M 160 0 R D gsave 1689 5514 translate 0 0 M
-588.433 0 N
(1.0) show grestore 1800 1380 M 80 0 R D 1800 1605 M 80 0 R D 1800 1830 M
80 0 R D 1800 2280 M 80 0 R D 1800 2505 M 80 0 R D 1800 2730 M 80 0 R D
1800 3180 M 80 0 R D 1800 3405 M 80 0 R D 1800 3630 M 80 0 R D 1800 4080 M
80 0 R D 1800 4305 M 80 0 R D 1800 4530 M 80 0 R D 1800 4980 M 80 0 R D
1800 5205 M 80 0 R D 1800 5430 M 80 0 R D 1800 5880 M 80 0 R D 5805 1200 M
0 4680 R D 5805 2055 M -160 0 R D 5805 2955 M -160 0 R D 5805 3855 M
-160 0 R D 5805 4755 M -160 0 R D 5805 5655 M -160 0 R D 5805 1380 M -80 0 R
D 5805 1605 M -80 0 R D 5805 1830 M -80 0 R D 5805 2280 M -80 0 R D
5805 2505 M -80 0 R D 5805 2730 M -80 0 R D 5805 3180 M -80 0 R D
5805 3405 M -80 0 R D 5805 3630 M -80 0 R D 5805 4080 M -80 0 R D
5805 4305 M -80 0 R D 5805 4530 M -80 0 R D 5805 4980 M -80 0 R D
5805 5205 M -80 0 R D 5805 5430 M -80 0 R D 5805 5880 M -80 0 R D L2
0.761 0.000 0.000 setrgbcolor 3897 1200 M 113 13 R 138 22 R 138 29 R
138 47 R 138 64 R 138 82 R 138 119 R 138 160 R 139 223 R 138 377 R 138 834 R
138 2084 R 138 299 R 138 102 R D L1 0.000 0.549 0.000 setrgbcolor
1800 1220 M 138 7 R 138 7 R 138 10 R 138 15 R 139 13 R 138 17 R 138 20 R
138 26 R 138 31 R 138 39 R 138 46 R 138 49 R 138 71 R 138 76 R 139 93 R
138 108 R 138 130 R 138 170 R 138 219 R 138 288 R 138 381 R 138 446 R
138 459 R 139 401 R 138 344 R 138 279 R 138 509 R 138 136 R 138 45 R D L0
0.000 0.000 1.000 setrgbcolor 1800 1251 M 138 13 R 138 13 R 138 18 R
138 20 R 139 20 R 138 27 R 138 28 R 138 36 R 138 42 R 138 47 R 138 53 R
138 63 R 138 70 R 138 74 R 139 101 R 138 102 R 138 133 R 138 195 R 138 253 R
138 338 R 138 408 R 138 440 R 138 411 R 139 352 R 138 281 R 138 243 R
138 468 R 138 118 R 138 37 R D 0.000 0.000 0.000 setrgbcolor
gsave 7808 240 translate 0 0 M -1799.37 0 N
(SFR / M) show X -101.051 M
%%IncludeResource: font Helvetica
262.467 /Helvetica STDFONT
(halo) show X 0 M
%%IncludeResource: font Helvetica
423.333 /Helvetica STDFONT
( / \(Gyr) show X 192.937 M
%%IncludeResource: font Helvetica
262.467 /Helvetica STDFONT
(-1) show X 0 M
%%IncludeResource: font Helvetica
423.333 /Helvetica STDFONT
(\)) show grestore 5805 1200 M 4005 0 R D 6456 1200 M 0 187 R D
gsave 6456 672 translate 0 0 M -352.04 0 N
(10) show X 192.937 M
%%IncludeResource: font Helvetica
262.467 /Helvetica STDFONT
(-5) show grestore
%%IncludeResource: font Helvetica
423.333 /Helvetica STDFONT 7387 1200 M 0 187 R D
gsave 7387 672 translate 0 0 M -352.04 0 N
(10) show X 192.937 M
%%IncludeResource: font Helvetica
262.467 /Helvetica STDFONT
(-4) show grestore
%%IncludeResource: font Helvetica
423.333 /Helvetica STDFONT 8318 1200 M 0 187 R D
gsave 8318 672 translate 0 0 M -352.04 0 N
(10) show X 192.937 M
%%IncludeResource: font Helvetica
262.467 /Helvetica STDFONT
(-3) show grestore
%%IncludeResource: font Helvetica
423.333 /Helvetica STDFONT 9249 1200 M 0 187 R D
gsave 9249 672 translate 0 0 M -352.04 0 N
(10) show X 192.937 M
%%IncludeResource: font Helvetica
262.467 /Helvetica STDFONT
(-2) show grestore
%%IncludeResource: font Helvetica
423.333 /Helvetica STDFONT 5805 1200 M 0 94 R D 5969 1200 M 0 94 R D
6085 1200 M 0 94 R D 6176 1200 M 0 94 R D 6249 1200 M 0 94 R D 6312 1200 M
0 94 R D 6366 1200 M 0 94 R D 6413 1200 M 0 94 R D 6736 1200 M 0 94 R D
6900 1200 M 0 94 R D 7017 1200 M 0 94 R D 7107 1200 M 0 94 R D 7181 1200 M
0 94 R D 7243 1200 M 0 94 R D 7297 1200 M 0 94 R D 7344 1200 M 0 94 R D
7667 1200 M 0 94 R D 7831 1200 M 0 94 R D 7948 1200 M 0 94 R D 8038 1200 M
0 94 R D 8112 1200 M 0 94 R D 8174 1200 M 0 94 R D 8228 1200 M 0 94 R D
8276 1200 M 0 94 R D 8599 1200 M 0 94 R D 8763 1200 M 0 94 R D 8879 1200 M
0 94 R D 8969 1200 M 0 94 R D 9043 1200 M 0 94 R D 9105 1200 M 0 94 R D
9159 1200 M 0 94 R D 9207 1200 M 0 94 R D 9530 1200 M 0 94 R D 9694 1200 M
0 94 R D 9810 1200 M 0 94 R D 5805 5880 M 4005 0 R D 6456 5880 M 0 -187 R D
7387 5880 M 0 -187 R D 8318 5880 M 0 -187 R D 9249 5880 M 0 -187 R D
5805 5880 M 0 -94 R D 5969 5880 M 0 -94 R D 6085 5880 M 0 -94 R D
6176 5880 M 0 -94 R D 6249 5880 M 0 -94 R D 6312 5880 M 0 -94 R D
6366 5880 M 0 -94 R D 6413 5880 M 0 -94 R D 6736 5880 M 0 -94 R D
6900 5880 M 0 -94 R D 7017 5880 M 0 -94 R D 7107 5880 M 0 -94 R D
7181 5880 M 0 -94 R D 7243 5880 M 0 -94 R D 7297 5880 M 0 -94 R D
7344 5880 M 0 -94 R D 7667 5880 M 0 -94 R D 7831 5880 M 0 -94 R D
7948 5880 M 0 -94 R D 8038 5880 M 0 -94 R D 8112 5880 M 0 -94 R D
8174 5880 M 0 -94 R D 8228 5880 M 0 -94 R D 8276 5880 M 0 -94 R D
8599 5880 M 0 -94 R D 8763 5880 M 0 -94 R D 8879 5880 M 0 -94 R D
8969 5880 M 0 -94 R D 9043 5880 M 0 -94 R D 9105 5880 M 0 -94 R D
9159 5880 M 0 -94 R D 9207 5880 M 0 -94 R D 9530 5880 M 0 -94 R D
9694 5880 M 0 -94 R D 9810 5880 M 0 -94 R D 5805 1200 M 0 4680 R D
5805 2055 M 160 0 R D gsave 5694 1914 translate 0 0 M -117.687 0 N
( ) show grestore 5805 2955 M 160 0 R D gsave 5694 2814 translate 0 0 M
-117.687 0 N
( ) show grestore 5805 3855 M 160 0 R D gsave 5694 3714 translate 0 0 M
-117.687 0 N
( ) show grestore 5805 4755 M 160 0 R D gsave 5694 4614 translate 0 0 M
-117.687 0 N
( ) show grestore 5805 5655 M 160 0 R D gsave 5694 5514 translate 0 0 M
-117.687 0 N
( ) show grestore 5805 1380 M 80 0 R D 5805 1605 M 80 0 R D 5805 1830 M
80 0 R D 5805 2280 M 80 0 R D 5805 2505 M 80 0 R D 5805 2730 M 80 0 R D
5805 3180 M 80 0 R D 5805 3405 M 80 0 R D 5805 3630 M 80 0 R D 5805 4080 M
80 0 R D 5805 4305 M 80 0 R D 5805 4530 M 80 0 R D 5805 4980 M 80 0 R D
5805 5205 M 80 0 R D 5805 5430 M 80 0 R D 5805 5880 M 80 0 R D 9810 1200 M
0 4680 R D 9810 2055 M -160 0 R D 9810 2955 M -160 0 R D 9810 3855 M
-160 0 R D 9810 4755 M -160 0 R D 9810 5655 M -160 0 R D 9810 1380 M -80 0 R
D 9810 1605 M -80 0 R D 9810 1830 M -80 0 R D 9810 2280 M -80 0 R D
9810 2505 M -80 0 R D 9810 2730 M -80 0 R D 9810 3180 M -80 0 R D
9810 3405 M -80 0 R D 9810 3630 M -80 0 R D 9810 4080 M -80 0 R D
9810 4305 M -80 0 R D 9810 4530 M -80 0 R D 9810 4980 M -80 0 R D
9810 5205 M -80 0 R D 9810 5430 M -80 0 R D 9810 5880 M -80 0 R D L2
0.761 0.000 0.000 setrgbcolor 5805 1296 M 138 20 R 138 32 R 138 56 R
138 128 R 139 245 R 138 132 R 138 112 R 138 113 R 138 69 R 138 44 R 138 49 R
138 62 R 138 100 R 139 192 R 138 407 R 138 413 R 138 398 R 138 359 R
138 308 R 138 237 R 138 181 R 138 145 R 138 118 R 139 90 R 138 89 R 138 86 R
138 70 R 138 62 R 138 42 R D L1 0.000 0.549 0.000 setrgbcolor 5805 1441 M
138 130 R 138 211 R 138 330 R 138 406 R 139 517 R 138 412 R 138 397 R
138 360 R 138 296 R 138 205 R 138 169 R 138 148 R 138 111 R 139 82 R
138 68 R 138 61 R 138 47 R 138 45 R 138 34 R 138 37 R 138 39 R 138 40 R
138 38 R 139 20 R 138 7 R 138 2 R 138 1 R 138 1 R 138 0 R D L0
0.000 0.000 1.000 setrgbcolor 5805 1563 M 138 176 R 138 310 R 138 506 R
138 636 R 139 691 R 138 491 R 138 393 R 138 253 R 138 150 R 138 92 R
138 57 R 138 50 R 138 34 R 139 30 R 138 29 R 138 33 R 138 28 R 138 31 R
138 28 R 138 27 R 138 20 R 138 15 R 138 6 R 139 3 R 138 2 R 138 0 R 138 0 R
138 1 R 138 0 R D 0.000 0.000 0.000 setrgbcolor
gsave 11813 240 translate 0 0 M -995.964 0 N
(M) show X -101.051 M
%%IncludeResource: font Helvetica
262.467 /Helvetica STDFONT
(star) show X 0 M
%%IncludeResource: font Helvetica
423.333 /Helvetica STDFONT
( / M) show X -101.051 M
%%IncludeResource: font Helvetica
262.467 /Helvetica STDFONT
(halo) show grestore
%%IncludeResource: font Helvetica
423.333 /Helvetica STDFONT 9810 1200 M 4005 0 R D 10510 1200 M 0 187 R D
gsave 10510 672 translate 0 0 M -352.04 0 N
(10) show X 192.937 M
%%IncludeResource: font Helvetica
262.467 /Helvetica STDFONT
(-5) show grestore
%%IncludeResource: font Helvetica
423.333 /Helvetica STDFONT 11511 1200 M 0 187 R D
gsave 11511 672 translate 0 0 M -352.04 0 N
(10) show X 192.937 M
%%IncludeResource: font Helvetica
262.467 /Helvetica STDFONT
(-4) show grestore
%%IncludeResource: font Helvetica
423.333 /Helvetica STDFONT 12512 1200 M 0 187 R D
gsave 12512 672 translate 0 0 M -352.04 0 N
(10) show X 192.937 M
%%IncludeResource: font Helvetica
262.467 /Helvetica STDFONT
(-3) show grestore
%%IncludeResource: font Helvetica
423.333 /Helvetica STDFONT 13514 1200 M 0 187 R D
gsave 13514 672 translate 0 0 M -352.04 0 N
(10) show X 192.937 M
%%IncludeResource: font Helvetica
262.467 /Helvetica STDFONT
(-2) show grestore
%%IncludeResource: font Helvetica
423.333 /Helvetica STDFONT 9810 1200 M 0 94 R D 9986 1200 M 0 94 R D
10111 1200 M 0 94 R D 10209 1200 M 0 94 R D 10288 1200 M 0 94 R D
10355 1200 M 0 94 R D 10413 1200 M 0 94 R D 10464 1200 M 0 94 R D
10811 1200 M 0 94 R D 10988 1200 M 0 94 R D 11113 1200 M 0 94 R D
11210 1200 M 0 94 R D 11289 1200 M 0 94 R D 11356 1200 M 0 94 R D
11414 1200 M 0 94 R D 11465 1200 M 0 94 R D 11813 1200 M 0 94 R D
11989 1200 M 0 94 R D 12114 1200 M 0 94 R D 12211 1200 M 0 94 R D
12290 1200 M 0 94 R D 12357 1200 M 0 94 R D 12415 1200 M 0 94 R D
12467 1200 M 0 94 R D 12814 1200 M 0 94 R D 12990 1200 M 0 94 R D
13115 1200 M 0 94 R D 13212 1200 M 0 94 R D 13292 1200 M 0 94 R D
13359 1200 M 0 94 R D 13417 1200 M 0 94 R D 13468 1200 M 0 94 R D
13815 1200 M 0 94 R D 9810 5880 M 4005 0 R D 10510 5880 M 0 -187 R D
11511 5880 M 0 -187 R D 12512 5880 M 0 -187 R D 13514 5880 M 0 -187 R D
9810 5880 M 0 -94 R D 9986 5880 M 0 -94 R D 10111 5880 M 0 -94 R D
10209 5880 M 0 -94 R D 10288 5880 M 0 -94 R D 10355 5880 M 0 -94 R D
10413 5880 M 0 -94 R D 10464 5880 M 0 -94 R D 10811 5880 M 0 -94 R D
10988 5880 M 0 -94 R D 11113 5880 M 0 -94 R D 11210 5880 M 0 -94 R D
11289 5880 M 0 -94 R D 11356 5880 M 0 -94 R D 11414 5880 M 0 -94 R D
11465 5880 M 0 -94 R D 11813 5880 M 0 -94 R D 11989 5880 M 0 -94 R D
12114 5880 M 0 -94 R D 12211 5880 M 0 -94 R D 12290 5880 M 0 -94 R D
12357 5880 M 0 -94 R D 12415 5880 M 0 -94 R D 12467 5880 M 0 -94 R D
12814 5880 M 0 -94 R D 12990 5880 M 0 -94 R D 13115 5880 M 0 -94 R D
13212 5880 M 0 -94 R D 13292 5880 M 0 -94 R D 13359 5880 M 0 -94 R D
13417 5880 M 0 -94 R D 13468 5880 M 0 -94 R D 13815 5880 M 0 -94 R D
9810 1200 M 0 4680 R D 9810 2055 M 160 0 R D gsave 9699 1914 translate 0 0 M
-117.687 0 N
( ) show grestore 9810 2955 M 160 0 R D gsave 9699 2814 translate 0 0 M
-117.687 0 N
( ) show grestore 9810 3855 M 160 0 R D gsave 9699 3714 translate 0 0 M
-117.687 0 N
( ) show grestore 9810 4755 M 160 0 R D gsave 9699 4614 translate 0 0 M
-117.687 0 N
( ) show grestore 9810 5655 M 160 0 R D gsave 9699 5514 translate 0 0 M
-117.687 0 N
( ) show grestore 9810 1380 M 80 0 R D 9810 1605 M 80 0 R D 9810 1830 M
80 0 R D 9810 2280 M 80 0 R D 9810 2505 M 80 0 R D 9810 2730 M 80 0 R D
9810 3180 M 80 0 R D 9810 3405 M 80 0 R D 9810 3630 M 80 0 R D 9810 4080 M
80 0 R D 9810 4305 M 80 0 R D 9810 4530 M 80 0 R D 9810 4980 M 80 0 R D
9810 5205 M 80 0 R D 9810 5430 M 80 0 R D 9810 5880 M 80 0 R D 13815 1200 M
0 4680 R D 13815 2055 M -160 0 R D 13815 2955 M -160 0 R D 13815 3855 M
-160 0 R D 13815 4755 M -160 0 R D 13815 5655 M -160 0 R D 13815 1380 M
-80 0 R D 13815 1605 M -80 0 R D 13815 1830 M -80 0 R D 13815 2280 M -80 0 R
D 13815 2505 M -80 0 R D 13815 2730 M -80 0 R D 13815 3180 M -80 0 R D
13815 3405 M -80 0 R D 13815 3630 M -80 0 R D 13815 4080 M -80 0 R D
13815 4305 M -80 0 R D 13815 4530 M -80 0 R D 13815 4980 M -80 0 R D
13815 5205 M -80 0 R D 13815 5430 M -80 0 R D 13815 5880 M -80 0 R D L2
0.761 0.000 0.000 setrgbcolor 9810 1267 M 138 32 R 138 24 R 138 29 R
139 33 R 138 29 R 138 35 R 138 38 R 138 55 R 138 75 R 138 69 R 138 42 R
138 26 R 138 22 R 139 21 R 138 22 R 138 12 R 138 16 R 138 21 R 138 26 R
138 65 R 138 121 R 138 230 R 139 342 R 138 463 R 138 536 R 138 600 R
138 576 R 138 444 R 138 384 R D L1 0.000 0.549 0.000 setrgbcolor
10656 1200 M 121 34 R 138 76 R 138 109 R 138 140 R 138 83 R 138 44 R
138 29 R 139 23 R 138 20 R 138 10 R 138 14 R 138 12 R 138 26 R 138 61 R
138 131 R 138 225 R 139 342 R 138 452 R 138 541 R 138 612 R 138 587 R
138 473 R 138 411 R D L0 0.000 0.000 1.000 setrgbcolor 10846 1200 M 69 11 R
138 53 R 138 127 R 138 182 R 138 82 R 138 43 R 139 23 R 138 21 R 138 14 R
138 13 R 138 12 R 138 25 R 138 62 R 138 133 R 138 223 R 139 342 R 138 453 R
138 543 R 138 616 R 138 587 R 138 476 R 138 414 R D
0.000 0.000 0.000 setrgbcolor gsave 15818 240 translate 0 0 M -1192.95 0 N
(M) show X -101.051 M
%%IncludeResource: font Helvetica
262.467 /Helvetica STDFONT
(outflow) show X 0 M
%%IncludeResource: font Helvetica
423.333 /Helvetica STDFONT
( / M) show X -101.051 M
%%IncludeResource: font Helvetica
262.467 /Helvetica STDFONT
(halo) show grestore
%%IncludeResource: font Helvetica
423.333 /Helvetica STDFONT 13815 1200 M 4005 0 R D 14515 1200 M 0 187 R D
gsave 14515 672 translate 0 0 M -352.04 0 N
(10) show X 192.937 M
%%IncludeResource: font Helvetica
262.467 /Helvetica STDFONT
(-5) show grestore
%%IncludeResource: font Helvetica
423.333 /Helvetica STDFONT 15516 1200 M 0 187 R D
gsave 15516 672 translate 0 0 M -352.04 0 N
(10) show X 192.937 M
%%IncludeResource: font Helvetica
262.467 /Helvetica STDFONT
(-4) show grestore
%%IncludeResource: font Helvetica
423.333 /Helvetica STDFONT 16518 1200 M 0 187 R D
gsave 16518 672 translate 0 0 M -352.04 0 N
(10) show X 192.937 M
%%IncludeResource: font Helvetica
262.467 /Helvetica STDFONT
(-3) show grestore
%%IncludeResource: font Helvetica
423.333 /Helvetica STDFONT 17519 1200 M 0 187 R D
gsave 17519 672 translate 0 0 M -352.04 0 N
(10) show X 192.937 M
%%IncludeResource: font Helvetica
262.467 /Helvetica STDFONT
(-2) show grestore
%%IncludeResource: font Helvetica
423.333 /Helvetica STDFONT 13815 1200 M 0 94 R D 13991 1200 M 0 94 R D
14117 1200 M 0 94 R D 14214 1200 M 0 94 R D 14293 1200 M 0 94 R D
14360 1200 M 0 94 R D 14418 1200 M 0 94 R D 14469 1200 M 0 94 R D
14816 1200 M 0 94 R D 14993 1200 M 0 94 R D 15118 1200 M 0 94 R D
15215 1200 M 0 94 R D 15294 1200 M 0 94 R D 15361 1200 M 0 94 R D
15419 1200 M 0 94 R D 15470 1200 M 0 94 R D 15818 1200 M 0 94 R D
15994 1200 M 0 94 R D 16119 1200 M 0 94 R D 16216 1200 M 0 94 R D
16295 1200 M 0 94 R D 16362 1200 M 0 94 R D 16420 1200 M 0 94 R D
16472 1200 M 0 94 R D 16819 1200 M 0 94 R D 16995 1200 M 0 94 R D
17120 1200 M 0 94 R D 17217 1200 M 0 94 R D 17297 1200 M 0 94 R D
17364 1200 M 0 94 R D 17422 1200 M 0 94 R D 17473 1200 M 0 94 R D
17820 1200 M 0 94 R D 13815 5880 M 4005 0 R D 14515 5880 M 0 -187 R D
15516 5880 M 0 -187 R D 16518 5880 M 0 -187 R D 17519 5880 M 0 -187 R D
13815 5880 M 0 -94 R D 13991 5880 M 0 -94 R D 14117 5880 M 0 -94 R D
14214 5880 M 0 -94 R D 14293 5880 M 0 -94 R D 14360 5880 M 0 -94 R D
14418 5880 M 0 -94 R D 14469 5880 M 0 -94 R D 14816 5880 M 0 -94 R D
14993 5880 M 0 -94 R D 15118 5880 M 0 -94 R D 15215 5880 M 0 -94 R D
15294 5880 M 0 -94 R D 15361 5880 M 0 -94 R D 15419 5880 M 0 -94 R D
15470 5880 M 0 -94 R D 15818 5880 M 0 -94 R D 15994 5880 M 0 -94 R D
16119 5880 M 0 -94 R D 16216 5880 M 0 -94 R D 16295 5880 M 0 -94 R D
16362 5880 M 0 -94 R D 16420 5880 M 0 -94 R D 16472 5880 M 0 -94 R D
16819 5880 M 0 -94 R D 16995 5880 M 0 -94 R D 17120 5880 M 0 -94 R D
17217 5880 M 0 -94 R D 17297 5880 M 0 -94 R D 17364 5880 M 0 -94 R D
17422 5880 M 0 -94 R D 17473 5880 M 0 -94 R D 17820 5880 M 0 -94 R D
13815 1200 M 0 4680 R D 13815 2055 M 160 0 R D
gsave 13704 1914 translate 0 0 M -117.687 0 N
( ) show grestore 13815 2955 M 160 0 R D gsave 13704 2814 translate 0 0 M
-117.687 0 N
( ) show grestore 13815 3855 M 160 0 R D gsave 13704 3714 translate 0 0 M
-117.687 0 N
( ) show grestore 13815 4755 M 160 0 R D gsave 13704 4614 translate 0 0 M
-117.687 0 N
( ) show grestore 13815 5655 M 160 0 R D gsave 13704 5514 translate 0 0 M
-117.687 0 N
( ) show grestore 13815 1380 M 80 0 R D 13815 1605 M 80 0 R D 13815 1830 M
80 0 R D 13815 2280 M 80 0 R D 13815 2505 M 80 0 R D 13815 2730 M 80 0 R D
13815 3180 M 80 0 R D 13815 3405 M 80 0 R D 13815 3630 M 80 0 R D
13815 4080 M 80 0 R D 13815 4305 M 80 0 R D 13815 4530 M 80 0 R D
13815 4980 M 80 0 R D 13815 5205 M 80 0 R D 13815 5430 M 80 0 R D
13815 5880 M 80 0 R D 17820 1200 M 0 4680 R D 17820 2055 M -160 0 R D
17820 2955 M -160 0 R D 17820 3855 M -160 0 R D 17820 4755 M -160 0 R D
17820 5655 M -160 0 R D 17820 1380 M -80 0 R D 17820 1605 M -80 0 R D
17820 1830 M -80 0 R D 17820 2280 M -80 0 R D 17820 2505 M -80 0 R D
17820 2730 M -80 0 R D 17820 3180 M -80 0 R D 17820 3405 M -80 0 R D
17820 3630 M -80 0 R D 17820 4080 M -80 0 R D 17820 4305 M -80 0 R D
17820 4530 M -80 0 R D 17820 4980 M -80 0 R D 17820 5205 M -80 0 R D
17820 5430 M -80 0 R D 17820 5880 M -80 0 R D L2
0.761 0.000 0.000 setrgbcolor 13815 1212 M 138 5 R 138 8 R 138 10 R 139 17 R
138 22 R 138 29 R 138 41 R 138 55 R 138 72 R 138 102 R 138 122 R 138 141 R
139 141 R 138 148 R 138 142 R 138 123 R 138 108 R 138 124 R 138 121 R
138 116 R 138 119 R 138 110 R 139 123 R 138 145 R 138 172 R 138 223 R
138 314 R 138 506 R 138 1084 R D L1 0.000 0.549 0.000 setrgbcolor
13815 1380 M 138 23 R 138 25 R 138 35 R 139 34 R 138 48 R 138 59 R 138 70 R
138 87 R 138 110 R 138 139 R 138 179 R 138 196 R 139 242 R 138 273 R
138 258 R 138 284 R 138 307 R 138 277 R 138 167 R 138 201 R 138 355 R
138 212 R 139 107 R 138 196 R 138 221 R 138 79 R 138 34 R 138 31 R 138 26 R
D L0 0.000 0.000 1.000 setrgbcolor 13815 1496 M 138 35 R 138 42 R 138 48 R
139 61 R 138 65 R 138 76 R 138 93 R 138 111 R 138 135 R 138 160 R 138 206 R
138 233 R 139 257 R 138 300 R 138 324 R 138 329 R 138 357 R 138 360 R
138 248 R 138 392 R 138 155 R 138 56 R 139 32 R 138 20 R 138 16 R 138 12 R
138 13 R 138 10 R 138 13 R D L2 0.761 0.000 0.000 setrgbcolor 2371 4907 M
76 0 R 75 0 R 76 0 R 76 0 R 75 0 R 76 0 R 75 0 R 76 0 R 75 0 R D L1
0.000 0.549 0.000 setrgbcolor 2371 4518 M 76 0 R 75 0 R 76 0 R 76 0 R 75 0 R
76 0 R 75 0 R 76 0 R 75 0 R D L0 0.000 0.000 1.000 setrgbcolor 2371 4130 M
76 0 R 75 0 R 76 0 R 76 0 R 75 0 R 76 0 R 75 0 R 76 0 R 75 0 R D
0.761 0.000 0.000 setrgbcolor gsave 3127 4770 translate 0 0 M
(Initial) show grestore 0.000 0.549 0.000 setrgbcolor
gsave 3127 4382 translate 0 0 M
(Middle) show grestore 0.000 0.000 1.000 setrgbcolor
gsave 3127 3993 translate 0 0 M
(Final) show grestore 0.000 0.000 0.000 setrgbcolor
gsave 2160 5400 translate 0 0 M
(Satellite) show grestore
%%PageTrailer
end
%%PageResources: font Helvetica
%%Trailer
%%Pages: 1
%%DocumentNeededResources: font Helvetica
%%EOF
