%!PS-Adobe-3.0 EPSF-3.0
%%BoundingBox: 0 0 453 170
%%Title: Graphics produced by IDL
%%For: dacia@Lserver, /home/dacia/work/subhalo_model
%%Creator: IDL Version 7.0 (linux x86_64 m64)
%%CreationDate: Tue May 11 14:25:31 2010
%%DocumentData: Clean7bit
%%Requirements: color
%%LanguageLevel: 1
%%PageOrder: Ascend
%%Pages: (atend)
%%DocumentNeededResources: (atend)
%%EndComments
%%BeginProlog
%+ prolog.ps -- Prolog for IDL generated PostScript files
%+ Copyright (c) 1988-2007 ITT Visual Information Solutions. All Rights Reserved.
%v 5
/$IDL_DICT 40 dict def $IDL_DICT begin /bdef { bind def } bind def /C
{currentpoint newpath moveto} bdef /CP {currentpoint} bdef /D {currentpoint
stroke moveto} bdef /F {closepath fill} bdef /K { setgray } bdef /M {moveto}
bdef /N {rmoveto} bdef /P {lineto} bdef /R {rlineto} bdef /S {gsave show
grestore} bdef /X {currentpoint pop} bdef /Z {gsave currentpoint lineto 20
setlinewidth 1 setlinecap stroke grestore} bdef /L0 {[] 0 setdash} bdef /L1
{[40 100] 0 setdash} bdef /L2 {[200 200] 0 setdash} bdef /L3 {[200 100 50
100] 0 setdash} bdef /L4 {[300 100 50 100 50 100 50 100] 0 setdash} bdef /L5
{[400 200] 0 setdash} bdef /STDFONT { findfont exch scalefont setfont } bdef
/ISOFONT { findfont dup length dict begin { 1 index /FID ne {def} {pop pop}
ifelse } forall /Encoding ISOLatin1Encoding def currentdict end /idltmpfont
exch definefont exch scalefont setfont } bdef /ISOBULLET { gsave /Helvetica
findfont exch scalefont setfont (\267) show currentpoint grestore moveto}
bdef /MITERLIMIT { 2.5 setmiterlimit } bdef end
%%EndProlog
%%Page: 0 1
%%PageRequirements: color
%%PageResources: (atend)
%%PageOrientation: Portrait
%%PageBoundingBox: 0 0 453 170
%%BeginPageSetup
$IDL_DICT begin 0.0283465 dup scale MITERLIMIT
%%IncludeResource: font Helvetica
423.333 /Helvetica STDFONT
%%EndPageSetup
0.000 0.000 0.000 setrgbcolor gsave 8720 144 translate 0 0 M 1.1 dup scale
-576.368 0 N
(t / Gyr) show grestore gsave 490 3510 translate 0 0 M 90 rotate
1.1 dup scale -611.293 0 N
(j\(t\)/j\(0\)) show grestore 40 setlinewidth L0 1600 1200 M 4747 0 R D
1600 1200 M 0 185 R D gsave 1600 672 translate 0 0 M -117.687 0 N
(0) show grestore 2550 1200 M 0 185 R D gsave 2550 672 translate 0 0 M
-117.687 0 N
(2) show grestore 3501 1200 M 0 185 R D gsave 3501 672 translate 0 0 M
-117.687 0 N
(4) show grestore 4451 1200 M 0 185 R D gsave 4451 672 translate 0 0 M
-117.687 0 N
(6) show grestore 5401 1200 M 0 185 R D gsave 5401 672 translate 0 0 M
-117.687 0 N
(8) show grestore 1838 1200 M 0 92 R D 2075 1200 M 0 92 R D 2313 1200 M
0 92 R D 2788 1200 M 0 92 R D 3025 1200 M 0 92 R D 3263 1200 M 0 92 R D
3738 1200 M 0 92 R D 3976 1200 M 0 92 R D 4213 1200 M 0 92 R D 4688 1200 M
0 92 R D 4926 1200 M 0 92 R D 5164 1200 M 0 92 R D 5639 1200 M 0 92 R D
5876 1200 M 0 92 R D 6114 1200 M 0 92 R D 1600 5820 M 4747 0 R D 1600 5820 M
0 -185 R D 2550 5820 M 0 -185 R D 3501 5820 M 0 -185 R D 4451 5820 M
0 -185 R D 5401 5820 M 0 -185 R D 1838 5820 M 0 -92 R D 2075 5820 M 0 -92 R
D 2313 5820 M 0 -92 R D 2788 5820 M 0 -92 R D 3025 5820 M 0 -92 R D
3263 5820 M 0 -92 R D 3738 5820 M 0 -92 R D 3976 5820 M 0 -92 R D
4213 5820 M 0 -92 R D 4688 5820 M 0 -92 R D 4926 5820 M 0 -92 R D
5164 5820 M 0 -92 R D 5639 5820 M 0 -92 R D 5876 5820 M 0 -92 R D
6114 5820 M 0 -92 R D 1600 1200 M 0 4620 R D 1600 2044 M 190 0 R D
gsave 1489 1903 translate 0 0 M -588.433 0 N
(0.2) show grestore 1600 2933 M 190 0 R D gsave 1489 2792 translate 0 0 M
-588.433 0 N
(0.4) show grestore 1600 3821 M 190 0 R D gsave 1489 3680 translate 0 0 M
-588.433 0 N
(0.6) show grestore 1600 4709 M 190 0 R D gsave 1489 4569 translate 0 0 M
-588.433 0 N
(0.8) show grestore 1600 5598 M 190 0 R D gsave 1489 5457 translate 0 0 M
-588.433 0 N
(1.0) show grestore 1600 1378 M 95 0 R D 1600 1600 M 95 0 R D 1600 1822 M
95 0 R D 1600 2266 M 95 0 R D 1600 2488 M 95 0 R D 1600 2710 M 95 0 R D
1600 3155 M 95 0 R D 1600 3377 M 95 0 R D 1600 3599 M 95 0 R D 1600 4043 M
95 0 R D 1600 4265 M 95 0 R D 1600 4487 M 95 0 R D 1600 4932 M 95 0 R D
1600 5154 M 95 0 R D 1600 5376 M 95 0 R D 1600 5820 M 95 0 R D 6347 1200 M
0 4620 R D 6347 2044 M -190 0 R D 6347 2933 M -190 0 R D 6347 3821 M
-190 0 R D 6347 4709 M -190 0 R D 6347 5598 M -190 0 R D 6347 1378 M -95 0 R
D 6347 1600 M -95 0 R D 6347 1822 M -95 0 R D 6347 2266 M -95 0 R D
6347 2488 M -95 0 R D 6347 2710 M -95 0 R D 6347 3155 M -95 0 R D
6347 3377 M -95 0 R D 6347 3599 M -95 0 R D 6347 4043 M -95 0 R D
6347 4265 M -95 0 R D 6347 4487 M -95 0 R D 6347 4932 M -95 0 R D
6347 5154 M -95 0 R D 6347 5376 M -95 0 R D 6347 5820 M -95 0 R D L2
1600 5598 M 475 -178 R 475 -444 R 475 -400 R 476 -89 R 475 -44 R 475 -222 R
475 -400 R 475 -133 R 475 -356 R 470 -308 R D 30 setlinewidth L0 1600 5598 M
48 -21 R 161 -83 R 112 -78 R 82 -78 R 78 -104 R 66 -107 R 64 -94 R 62 -72 R
75 -70 R 88 -68 R 121 -77 R 180 -104 R 190 -102 R 190 -100 R 190 -98 R
190 -102 R 190 -120 R 53 -42 R 57 -58 R 49 -69 R 46 -83 R 40 -79 R 38 -67 R
39 -56 R 50 -57 R 66 -61 R 78 -62 R 89 -66 R 178 -122 R 190 -130 R 58 -44 R
69 -59 R 37 -41 R 33 -46 R 30 -56 R 27 -62 R 22 -51 R 22 -43 R 26 -41 R
33 -43 R 46 -48 R 68 -62 R 111 -92 R 110 -91 R 28 -25 R 35 -35 R 24 -29 R
24 -37 R 19 -38 R 17 -44 R 14 -38 R 14 -32 R 16 -29 R 20 -31 R 28 -33 R
42 -43 R 66 -61 R 37 -33 R 54 -52 R 14 -17 R 15 -20 R 12 -21 R 11 -26 R
11 -29 R 10 -30 R 9 -22 R 10 -21 R 13 -21 R 17 -23 R 28 -29 R 43 -40 R
18 -17 R 13 -12 R 13 -13 R 11 -13 R 9 -12 R 7 -13 R 7 -15 R 6 -18 R 6 -22 R
6 -17 R 5 -14 R 7 -14 R 9 -15 R 15 -16 R 22 -21 R 11 -10 R 5 -4 R 9 -8 R
13 -14 R 4 -5 R 4 -7 R 3 -6 R 3 -8 R 3 -11 R 3 -15 R 1 -10 R D
60 setlinewidth 1600 5598 M 48 -21 R 141 -71 R 101 -65 R 67 -55 R 75 -79 R
62 -82 R 70 -97 R 62 -72 R 65 -56 R 76 -52 R 77 -44 R 142 -67 R 184 -77 R
190 -53 R 190 0 R 190 -22 R 190 -74 R 190 -82 R 107 -55 R 77 -51 R 46 -38 R
50 -51 R 37 -44 R 40 -47 R 43 -44 R 46 -37 R 58 -37 R 78 -39 R 83 -35 R
104 -40 R 142 -52 R 191 -68 R 190 -67 R 140 -56 R 56 -27 R 65 -38 R 40 -30 R
43 -41 R 38 -37 R 35 -31 R 37 -24 R 34 -19 R 58 -26 R 81 -29 R 125 -41 R
173 -53 R 190 -59 R 59 -19 R 82 -34 R 39 -21 R 38 -27 R 1 -1 R D
90 setlinewidth 1600 5598 M 48 -21 R 130 -65 R 121 -76 R 88 -74 R 43 -44 R
80 -96 R 63 -72 R 49 -45 R 45 -34 R 58 -34 R 65 -31 R 73 -30 R 80 -29 R
101 -33 R 190 -58 R 190 0 R 190 0 R 190 0 R 190 -27 R 173 -52 R 190 -68 R
70 -32 R 65 -37 R 59 -42 R 58 -47 R 40 -31 R 39 -24 R 50 -25 R 66 -26 R
66 -21 R 123 -33 R 160 -38 R 190 -42 R 190 -41 R 190 -41 R 190 -46 R
71 -21 R 76 -27 R 55 -26 R 52 -30 R 46 -27 R 43 -21 R 46 -17 R 58 -16 R
79 -19 R 118 -23 R 187 -33 R 2 -1 R D gsave 6114 5154 translate 0 0 M
-1828.65 0 N
(R) show X -101.051 M
%%IncludeResource: font Helvetica
262.467 /Helvetica STDFONT
(m) show X 192.937 M
(-1) show X 0 M
%%IncludeResource: font Helvetica
423.333 /Helvetica STDFONT
(=0.05) show grestore gsave 5971 4621 translate 0 0 M -1159.09 0 N
%%IncludeResource: font Symbol
423.333 /Symbol STDFONT
(e) show
%%IncludeResource: font Helvetica
423.333 /Helvetica STDFONT
(=0.65) show grestore 40 setlinewidth 6347 1200 M 4746 0 R D 6347 1200 M
0 185 R D gsave 6347 672 translate 0 0 M -117.687 0 N
(0) show grestore 7297 1200 M 0 185 R D gsave 7297 672 translate 0 0 M
-117.687 0 N
(2) show grestore 8247 1200 M 0 185 R D gsave 8247 672 translate 0 0 M
-117.687 0 N
(4) show grestore 9198 1200 M 0 185 R D gsave 9198 672 translate 0 0 M
-117.687 0 N
(6) show grestore 10148 1200 M 0 185 R D gsave 10148 672 translate 0 0 M
-117.687 0 N
(8) show grestore 6584 1200 M 0 92 R D 6822 1200 M 0 92 R D 7059 1200 M
0 92 R D 7535 1200 M 0 92 R D 7772 1200 M 0 92 R D 8010 1200 M 0 92 R D
8485 1200 M 0 92 R D 8722 1200 M 0 92 R D 8960 1200 M 0 92 R D 9435 1200 M
0 92 R D 9673 1200 M 0 92 R D 9910 1200 M 0 92 R D 10385 1200 M 0 92 R D
10623 1200 M 0 92 R D 10861 1200 M 0 92 R D 6347 5820 M 4746 0 R D
6347 5820 M 0 -185 R D 7297 5820 M 0 -185 R D 8247 5820 M 0 -185 R D
9198 5820 M 0 -185 R D 10148 5820 M 0 -185 R D 6584 5820 M 0 -92 R D
6822 5820 M 0 -92 R D 7059 5820 M 0 -92 R D 7535 5820 M 0 -92 R D
7772 5820 M 0 -92 R D 8010 5820 M 0 -92 R D 8485 5820 M 0 -92 R D
8722 5820 M 0 -92 R D 8960 5820 M 0 -92 R D 9435 5820 M 0 -92 R D
9673 5820 M 0 -92 R D 9910 5820 M 0 -92 R D 10385 5820 M 0 -92 R D
10623 5820 M 0 -92 R D 10861 5820 M 0 -92 R D 6347 1200 M 0 4620 R D
6347 2044 M 190 0 R D gsave 6236 1903 translate 0 0 M -117.687 0 N
( ) show grestore 6347 2933 M 190 0 R D gsave 6236 2792 translate 0 0 M
-117.687 0 N
( ) show grestore 6347 3821 M 190 0 R D gsave 6236 3680 translate 0 0 M
-117.687 0 N
( ) show grestore 6347 4709 M 190 0 R D gsave 6236 4569 translate 0 0 M
-117.687 0 N
( ) show grestore 6347 5598 M 190 0 R D gsave 6236 5457 translate 0 0 M
-117.687 0 N
( ) show grestore 6347 1378 M 95 0 R D 6347 1600 M 95 0 R D 6347 1822 M
95 0 R D 6347 2266 M 95 0 R D 6347 2488 M 95 0 R D 6347 2710 M 95 0 R D
6347 3155 M 95 0 R D 6347 3377 M 95 0 R D 6347 3599 M 95 0 R D 6347 4043 M
95 0 R D 6347 4265 M 95 0 R D 6347 4487 M 95 0 R D 6347 4932 M 95 0 R D
6347 5154 M 95 0 R D 6347 5376 M 95 0 R D 6347 5820 M 95 0 R D 11093 1200 M
0 4620 R D 11093 2044 M -189 0 R D 11093 2933 M -189 0 R D 11093 3821 M
-189 0 R D 11093 4709 M -189 0 R D 11093 5598 M -189 0 R D 11093 1378 M
-94 0 R D 11093 1600 M -94 0 R D 11093 1822 M -94 0 R D 11093 2266 M -94 0 R
D 11093 2488 M -94 0 R D 11093 2710 M -94 0 R D 11093 3155 M -94 0 R D
11093 3377 M -94 0 R D 11093 3599 M -94 0 R D 11093 4043 M -94 0 R D
11093 4265 M -94 0 R D 11093 4487 M -94 0 R D 11093 4932 M -94 0 R D
11093 5154 M -94 0 R D 11093 5376 M -94 0 R D 11093 5820 M -94 0 R D L2
6347 5598 M 475 -222 R 475 -755 R 475 -578 R 475 -222 R 475 -622 R
476 -577 R 475 -711 R 475 -533 R 387 -178 R D 30 setlinewidth L0 6347 5598 M
47 -33 R 162 -131 R 117 -128 R 77 -117 R 65 -134 R 67 -175 R 56 -149 R
55 -127 R 65 -125 R 74 -121 R 87 -121 R 181 -229 R 190 -223 R 190 -218 R
152 -186 R 44 -63 R 50 -83 R 45 -99 R 32 -97 R 30 -126 R 26 -129 R 26 -119 R
25 -102 R 31 -107 R 32 -98 R 48 -127 R 52 -122 R 73 -158 R 15 -34 R 24 -54 R
19 -49 R 15 -42 R 13 -44 R 10 -46 R 9 -55 R 9 -75 R 9 -97 R 8 -95 R 7 -72 R
9 -52 R 10 -36 R D 60 setlinewidth 6347 5598 M 47 -33 R 161 -130 R
145 -162 R 75 -121 R 72 -153 R 62 -143 R 52 -103 R 59 -96 R 72 -95 R
94 -100 R 137 -126 R 190 -159 R 190 -152 R 190 -151 R 190 -164 R 51 -53 R
60 -77 R 45 -75 R 39 -87 R 36 -90 R 33 -79 R 30 -57 R 37 -55 R 39 -49 R
56 -59 R 93 -87 R 106 -91 R 147 -126 R 35 -32 R 43 -44 R 37 -45 R 25 -40 R
24 -47 R 22 -52 R 19 -44 R 18 -35 R 20 -31 R 25 -32 R 35 -35 R 51 -45 R
82 -65 R 50 -38 R 64 -54 R 20 -19 R 20 -23 R 16 -24 R 16 -29 R 14 -29 R
11 -24 R 12 -19 R 14 -18 R 17 -18 R 25 -21 R 37 -27 R 59 -39 R 28 -18 R
20 -14 R 20 -15 R 16 -13 R 13 -14 R 11 -15 R 11 -17 R 10 -18 R 9 -16 R
8 -12 R 11 -12 R 13 -12 R 19 -14 R 30 -18 R 48 -26 R 15 -9 R 15 -9 R 14 -9 R
10 -8 R 10 -9 R 8 -11 R 7 -12 R 7 -12 R 6 -10 R 7 -9 R 8 -8 R 11 -9 R
16 -11 R 26 -14 R 42 -22 R 8 -4 R 10 -7 R 8 -6 R 7 -6 R 6 -8 R 5 -9 R
6 -11 R 4 -9 R 5 -8 R 6 -7 R 8 -7 R 12 -9 R 19 -11 R 28 -15 R 6 -4 R 7 -4 R
5 -5 R 5 -5 R 4 -5 R 4 -6 R 3 -9 R 3 -9 R 3 -9 R 3 -7 R 4 -6 R 6 -7 R 8 -7 R
D 90 setlinewidth 6347 5598 M 47 -33 R 160 -129 R 69 -69 R 49 -59 R 49 -68 R
45 -75 R 38 -74 R 69 -149 R 58 -117 R 56 -90 R 64 -79 R 72 -71 R 82 -68 R
96 -71 R 190 -129 R 191 -122 R 190 -120 R 190 -124 R 106 -80 R 66 -61 R
62 -73 R 45 -70 R 41 -72 R 34 -56 R 33 -43 R 38 -39 R 49 -40 R 51 -34 R
61 -37 R 91 -50 R 190 -98 R 168 -89 R 34 -20 R 42 -28 R 44 -34 R 41 -42 R
31 -41 R 27 -36 R 26 -29 R 25 -22 R 32 -22 R 42 -23 R 45 -22 R 49 -21 R
46 -19 R 115 -46 R 108 -44 R 37 -16 R 41 -22 R 30 -19 R 26 -20 R 24 -24 R
21 -22 R 21 -17 R 20 -14 R 25 -14 R 32 -15 R 48 -17 R 74 -24 R 125 -39 R
25 -8 R 37 -13 R 32 -12 R 28 -12 R 23 -12 R 21 -15 R 19 -15 R 16 -13 R
15 -10 R 18 -9 R 24 -10 R 31 -10 R 47 -14 R 75 -19 R 82 -20 R 28 -8 R
31 -8 R 26 -9 R 21 -8 R 19 -10 R 18 -11 R 15 -11 R 15 -9 R 15 -8 R 18 -8 R
24 -8 R 36 -10 R 6 -2 R D gsave 10861 5154 translate 0 0 M -1593.27 0 N
(R) show X -101.051 M
%%IncludeResource: font Helvetica
262.467 /Helvetica STDFONT
(m) show X 192.937 M
(-1) show X 0 M
%%IncludeResource: font Helvetica
423.333 /Helvetica STDFONT
(=0.1) show grestore gsave 10718 4621 translate 0 0 M -1159.09 0 N
%%IncludeResource: font Symbol
423.333 /Symbol STDFONT
(e) show
%%IncludeResource: font Helvetica
423.333 /Helvetica STDFONT
(=0.65) show grestore 40 setlinewidth 11093 1200 M 4747 0 R D 11093 1200 M
0 185 R D gsave 11093 672 translate 0 0 M -117.687 0 N
(0) show grestore 12044 1200 M 0 185 R D gsave 12044 672 translate 0 0 M
-117.687 0 N
(2) show grestore 12994 1200 M 0 185 R D gsave 12994 672 translate 0 0 M
-117.687 0 N
(4) show grestore 13944 1200 M 0 185 R D gsave 13944 672 translate 0 0 M
-117.687 0 N
(6) show grestore 14895 1200 M 0 185 R D gsave 14895 672 translate 0 0 M
-117.687 0 N
(8) show grestore 11331 1200 M 0 92 R D 11569 1200 M 0 92 R D 11806 1200 M
0 92 R D 12281 1200 M 0 92 R D 12519 1200 M 0 92 R D 12756 1200 M 0 92 R D
13232 1200 M 0 92 R D 13469 1200 M 0 92 R D 13707 1200 M 0 92 R D
14182 1200 M 0 92 R D 14419 1200 M 0 92 R D 14657 1200 M 0 92 R D
15132 1200 M 0 92 R D 15370 1200 M 0 92 R D 15607 1200 M 0 92 R D
11093 5820 M 4747 0 R D 11093 5820 M 0 -185 R D 12044 5820 M 0 -185 R D
12994 5820 M 0 -185 R D 13944 5820 M 0 -185 R D 14895 5820 M 0 -185 R D
11331 5820 M 0 -92 R D 11569 5820 M 0 -92 R D 11806 5820 M 0 -92 R D
12281 5820 M 0 -92 R D 12519 5820 M 0 -92 R D 12756 5820 M 0 -92 R D
13232 5820 M 0 -92 R D 13469 5820 M 0 -92 R D 13707 5820 M 0 -92 R D
14182 5820 M 0 -92 R D 14419 5820 M 0 -92 R D 14657 5820 M 0 -92 R D
15132 5820 M 0 -92 R D 15370 5820 M 0 -92 R D 15607 5820 M 0 -92 R D
11093 1200 M 0 4620 R D 11093 2044 M 190 0 R D
gsave 10982 1903 translate 0 0 M -117.687 0 N
( ) show grestore 11093 2933 M 190 0 R D gsave 10982 2792 translate 0 0 M
-117.687 0 N
( ) show grestore 11093 3821 M 190 0 R D gsave 10982 3680 translate 0 0 M
-117.687 0 N
( ) show grestore 11093 4709 M 190 0 R D gsave 10982 4569 translate 0 0 M
-117.687 0 N
( ) show grestore 11093 5598 M 190 0 R D gsave 10982 5457 translate 0 0 M
-117.687 0 N
( ) show grestore 11093 1378 M 95 0 R D 11093 1600 M 95 0 R D 11093 1822 M
95 0 R D 11093 2266 M 95 0 R D 11093 2488 M 95 0 R D 11093 2710 M 95 0 R D
11093 3155 M 95 0 R D 11093 3377 M 95 0 R D 11093 3599 M 95 0 R D
11093 4043 M 95 0 R D 11093 4265 M 95 0 R D 11093 4487 M 95 0 R D
11093 4932 M 95 0 R D 11093 5154 M 95 0 R D 11093 5376 M 95 0 R D
11093 5820 M 95 0 R D 15840 1200 M 0 4620 R D 15840 2044 M -190 0 R D
15840 2933 M -190 0 R D 15840 3821 M -190 0 R D 15840 4709 M -190 0 R D
15840 5598 M -190 0 R D 15840 1378 M -95 0 R D 15840 1600 M -95 0 R D
15840 1822 M -95 0 R D 15840 2266 M -95 0 R D 15840 2488 M -95 0 R D
15840 2710 M -95 0 R D 15840 3155 M -95 0 R D 15840 3377 M -95 0 R D
15840 3599 M -95 0 R D 15840 4043 M -95 0 R D 15840 4265 M -95 0 R D
15840 4487 M -95 0 R D 15840 4932 M -95 0 R D 15840 5154 M -95 0 R D
15840 5376 M -95 0 R D 15840 5820 M -95 0 R D L2 11093 5598 M 476 -267 R
475 -1554 R 475 -356 R 475 -888 R 475 -711 R 475 -622 R D 30 setlinewidth L0
11093 5598 M 48 -33 R 147 -122 R 84 -95 R 58 -91 R 43 -97 R 30 -96 R
36 -159 R 31 -176 R 30 -161 R 26 -113 R 35 -121 R 40 -107 R 50 -112 R
89 -163 R 113 -182 R 145 -215 R 190 -263 R 106 -152 R 60 -100 R 23 -46 R
31 -80 R 18 -62 R 16 -73 R 15 -97 R 13 -121 R 13 -130 R 13 -107 R 13 -98 R
18 -101 R 25 -113 R 40 -138 R 67 -185 R 25 -60 R 33 -86 R 6 -17 R 8 -25 R
6 -21 R 5 -23 R 4 -23 R 4 -26 R 3 -29 R 3 -39 R 3 -67 R 2 -61 R 0 -12 R D
60 setlinewidth 11093 5598 M 48 -33 R 147 -121 R 83 -94 R 57 -89 R 52 -117 R
37 -122 R 34 -150 R 32 -151 R 30 -108 R 31 -85 R 41 -81 R 57 -85 R 85 -101 R
138 -139 R 190 -173 R 190 -165 R 190 -168 R 41 -41 R 47 -54 R 54 -80 R
22 -46 R 22 -57 R 20 -72 R 17 -79 R 16 -63 R 15 -48 R 18 -44 R 23 -43 R
33 -46 R 50 -56 R 69 -65 R 83 -73 R 130 -110 R 28 -23 R 24 -23 R 41 -40 R
20 -24 R 19 -27 R 16 -28 R 13 -31 R 12 -38 R 12 -40 R 10 -35 R 10 -25 R
12 -23 R 16 -23 R 22 -25 R 35 -31 R 58 -43 R 112 -77 R 11 -8 R 47 -37 R
11 -10 R 14 -15 R 13 -18 R 9 -17 R 9 -21 R 8 -23 R 7 -20 R 7 -15 R 8 -13 R
11 -14 R 15 -14 R 24 -18 R 39 -23 R 73 -40 R 13 -7 R 25 -15 R 10 -6 R
12 -9 R 11 -9 R 9 -9 R 7 -10 R 7 -11 R 6 -14 R 7 -15 R 5 -12 R 6 -10 R
7 -9 R 10 -9 R 15 -11 R 24 -14 R 41 -19 R 35 -17 R 10 -4 R 19 -10 R 7 -5 R
9 -6 R 8 -6 R 6 -6 R 6 -7 R 5 -9 R 4 -10 R 5 -10 R 4 -8 R 4 -8 R 6 -7 R
8 -7 R 13 -9 R 21 -11 R 36 -17 R 14 -6 R 10 -4 R 7 -4 R 11 -6 R 6 -3 R
7 -5 R 5 -5 R 5 -4 R 4 -6 R 3 -7 R 4 -8 R 3 -9 R 3 -8 R 3 -6 R 5 -7 R 6 -6 R
9 -8 R 15 -9 R 26 -12 R 13 -7 R 10 -5 R 5 -2 R 7 -4 R 4 -3 R 5 -3 R 3 -4 R
4 -4 R 2 -4 R 3 -5 R 2 -7 R 2 -8 R 2 -8 R 2 -7 R 2 -6 R 4 -6 R 5 -6 R 9 -6 R
15 -8 R 10 -5 R D 90 setlinewidth 11093 5598 M 48 -33 R 147 -121 R 83 -93 R
45 -68 R 35 -66 R 44 -113 R 36 -126 R 32 -130 R 31 -107 R 28 -69 R 34 -61 R
44 -57 R 50 -50 R 61 -49 R 76 -55 R 125 -80 R 190 -114 R 190 -110 R
190 -110 R 144 -93 R 36 -28 R 42 -39 R 27 -32 R 27 -39 R 25 -48 R 23 -57 R
20 -52 R 19 -39 R 19 -29 R 25 -26 R 32 -26 R 47 -29 R 55 -28 R 77 -34 R
127 -53 R 190 -76 R 101 -42 R 19 -9 R 35 -17 R 47 -28 R 23 -18 R 21 -21 R
19 -25 R 17 -29 R 16 -24 R 14 -19 R 16 -15 R 20 -14 R 27 -15 R 41 -16 R
65 -22 R 113 -33 R 191 -54 R 21 -6 R 55 -17 R 26 -10 R 25 -11 R 20 -11 R
18 -12 R 16 -15 R 15 -17 R 13 -15 R 12 -11 R 13 -10 R 18 -9 R 24 -10 R
35 -10 R 57 -15 R 100 -22 R 190 -41 R 28 -7 R 21 -6 R 22 -7 R 19 -8 R
15 -8 R 14 -10 R 13 -11 R 12 -11 R 11 -8 R 12 -8 R 15 -7 R 22 -8 R 32 -8 R
51 -12 R 90 -18 R 171 -34 R 20 -5 R 20 -5 R 19 -6 R 16 -7 R 14 -7 R 12 -9 R
12 -10 R 10 -9 R 9 -8 R 11 -6 R 15 -7 R 20 -7 R 30 -9 R 50 -12 R 74 -16 R D
gsave 15607 5154 translate 0 0 M -1593.27 0 N
(R) show X -101.051 M
%%IncludeResource: font Helvetica
262.467 /Helvetica STDFONT
(m) show X 192.937 M
(-1) show X 0 M
%%IncludeResource: font Helvetica
423.333 /Helvetica STDFONT
(=0.1) show grestore gsave 15465 4621 translate 0 0 M -1159.09 0 N
%%IncludeResource: font Symbol
423.333 /Symbol STDFONT
(e) show
%%IncludeResource: font Helvetica
423.333 /Helvetica STDFONT
(=0.46) show grestore 40 setlinewidth L2 2220 2963 M 66 0 R 65 0 R 66 0 R
65 0 R 66 0 R 66 0 R 65 0 R 66 0 R 65 0 R D 30 setlinewidth L0 2220 2574 M
66 0 R 65 0 R 66 0 R 65 0 R 66 0 R 66 0 R 65 0 R 66 0 R 65 0 R D
60 setlinewidth 2220 2186 M 66 0 R 65 0 R 66 0 R 65 0 R 66 0 R 66 0 R 65 0 R
66 0 R 65 0 R D 90 setlinewidth 2220 1797 M 66 0 R 65 0 R 66 0 R 65 0 R
66 0 R 66 0 R 65 0 R 66 0 R 65 0 R D gsave 2876 2826 translate 0 0 M
(BK08) show grestore gsave 2876 2438 translate 0 0 M
(A=1) show grestore gsave 2876 2049 translate 0 0 M
(A=2) show grestore gsave 2876 1660 translate 0 0 M
(A=3) show grestore
%%PageTrailer
end
%%PageResources: font Helvetica
%%+ font Symbol
%%Trailer
%%Pages: 1
%%DocumentNeededResources: font Helvetica
%%+ font Symbol
%%EOF
