%!PS-Adobe-3.0 EPSF-3.0
%%BoundingBox: 0 0 453 198
%%Title: Graphics produced by IDL
%%For: dacia@Lserver, /home/dacia/work/subhalo_model
%%Creator: IDL Version 7.0 (linux x86_64 m64)
%%CreationDate: Tue May 11 14:25:31 2010
%%DocumentData: Clean7bit
%%Requirements: color
%%LanguageLevel: 1
%%PageOrder: Ascend
%%Pages: (atend)
%%DocumentNeededResources: (atend)
%%EndComments
%%BeginProlog
%+ prolog.ps -- Prolog for IDL generated PostScript files
%+ Copyright (c) 1988-2007 ITT Visual Information Solutions. All Rights Reserved.
%v 5
/$IDL_DICT 40 dict def $IDL_DICT begin /bdef { bind def } bind def /C
{currentpoint newpath moveto} bdef /CP {currentpoint} bdef /D {currentpoint
stroke moveto} bdef /F {closepath fill} bdef /K { setgray } bdef /M {moveto}
bdef /N {rmoveto} bdef /P {lineto} bdef /R {rlineto} bdef /S {gsave show
grestore} bdef /X {currentpoint pop} bdef /Z {gsave currentpoint lineto 20
setlinewidth 1 setlinecap stroke grestore} bdef /L0 {[] 0 setdash} bdef /L1
{[40 100] 0 setdash} bdef /L2 {[200 200] 0 setdash} bdef /L3 {[200 100 50
100] 0 setdash} bdef /L4 {[300 100 50 100 50 100 50 100] 0 setdash} bdef /L5
{[400 200] 0 setdash} bdef /STDFONT { findfont exch scalefont setfont } bdef
/ISOFONT { findfont dup length dict begin { 1 index /FID ne {def} {pop pop}
ifelse } forall /Encoding ISOLatin1Encoding def currentdict end /idltmpfont
exch definefont exch scalefont setfont } bdef /ISOBULLET { gsave /Helvetica
findfont exch scalefont setfont (\267) show currentpoint grestore moveto}
bdef /MITERLIMIT { 2.5 setmiterlimit } bdef end
%%EndProlog
%%Page: 0 1
%%PageRequirements: color
%%PageResources: (atend)
%%PageOrientation: Portrait
%%PageBoundingBox: 0 0 453 198
%%BeginPageSetup
$IDL_DICT begin 0.0283465 dup scale MITERLIMIT
%%IncludeResource: font Helvetica
423.333 /Helvetica STDFONT
%%EndPageSetup
40 setlinewidth L0 0.000 0.000 0.000 setrgbcolor 1760 1330 M 5680 0 R D
1760 1330 M 0 218 R D gsave 1760 802 translate 0 0 M -117.687 0 N
(0) show grestore 2956 1330 M 0 218 R D gsave 2956 802 translate 0 0 M
-117.687 0 N
(2) show grestore 4152 1330 M 0 218 R D gsave 4152 802 translate 0 0 M
-117.687 0 N
(4) show grestore 5347 1330 M 0 218 R D gsave 5347 802 translate 0 0 M
-117.687 0 N
(6) show grestore 6543 1330 M 0 218 R D gsave 6543 802 translate 0 0 M
-117.687 0 N
(8) show grestore 2059 1330 M 0 109 R D 2358 1330 M 0 109 R D 2657 1330 M
0 109 R D 3255 1330 M 0 109 R D 3554 1330 M 0 109 R D 3853 1330 M 0 109 R D
4451 1330 M 0 109 R D 4750 1330 M 0 109 R D 5048 1330 M 0 109 R D
5646 1330 M 0 109 R D 5945 1330 M 0 109 R D 6244 1330 M 0 109 R D
6842 1330 M 0 109 R D 7141 1330 M 0 109 R D 7440 1330 M 0 109 R D
gsave 4600 344 translate 0 0 M -576.368 0 N
(t / Gyr) show grestore 1760 6790 M 5680 0 R D 1760 6790 M 0 -218 R D
2956 6790 M 0 -218 R D 4152 6790 M 0 -218 R D 5347 6790 M 0 -218 R D
6543 6790 M 0 -218 R D 2059 6790 M 0 -109 R D 2358 6790 M 0 -109 R D
2657 6790 M 0 -109 R D 3255 6790 M 0 -109 R D 3554 6790 M 0 -109 R D
3853 6790 M 0 -109 R D 4451 6790 M 0 -109 R D 4750 6790 M 0 -109 R D
5048 6790 M 0 -109 R D 5646 6790 M 0 -109 R D 5945 6790 M 0 -109 R D
6244 6790 M 0 -109 R D 6842 6790 M 0 -109 R D 7141 6790 M 0 -109 R D
7440 6790 M 0 -109 R D 1760 1330 M 0 5460 R D 1760 2328 M 227 0 R D
gsave 1649 2187 translate 0 0 M -588.433 0 N
(0.2) show grestore 1760 3378 M 227 0 R D gsave 1649 3237 translate 0 0 M
-588.433 0 N
(0.4) show grestore 1760 4428 M 227 0 R D gsave 1649 4287 translate 0 0 M
-588.433 0 N
(0.6) show grestore 1760 5478 M 227 0 R D gsave 1649 5337 translate 0 0 M
-588.433 0 N
(0.8) show grestore 1760 6528 M 227 0 R D gsave 1649 6387 translate 0 0 M
-588.433 0 N
(1.0) show grestore 1760 1540 M 114 0 R D 1760 1803 M 114 0 R D 1760 2065 M
114 0 R D 1760 2590 M 114 0 R D 1760 2853 M 114 0 R D 1760 3115 M 114 0 R D
1760 3640 M 114 0 R D 1760 3903 M 114 0 R D 1760 4165 M 114 0 R D
1760 4690 M 114 0 R D 1760 4953 M 114 0 R D 1760 5215 M 114 0 R D
1760 5740 M 114 0 R D 1760 6003 M 114 0 R D 1760 6265 M 114 0 R D
1760 6790 M 114 0 R D gsave 728 4060 translate 0 0 M 90 rotate -1001.18 0 N
(M) show X -101.051 M
%%IncludeResource: font Helvetica
262.467 /Helvetica STDFONT
(s) show X 0 M
%%IncludeResource: font Helvetica
423.333 /Helvetica STDFONT
(\(t\)/M) show X -101.051 M
%%IncludeResource: font Helvetica
262.467 /Helvetica STDFONT
(s) show X 0 M
%%IncludeResource: font Helvetica
423.333 /Helvetica STDFONT
(\(0\)) show grestore 7440 1330 M 0 5460 R D 7440 2328 M -227 0 R D
7440 3378 M -227 0 R D 7440 4428 M -227 0 R D 7440 5478 M -227 0 R D
7440 6528 M -227 0 R D 7440 1540 M -114 0 R D 7440 1803 M -114 0 R D
7440 2065 M -114 0 R D 7440 2590 M -114 0 R D 7440 2853 M -114 0 R D
7440 3115 M -114 0 R D 7440 3640 M -114 0 R D 7440 3903 M -114 0 R D
7440 4165 M -114 0 R D 7440 4690 M -114 0 R D 7440 4953 M -114 0 R D
7440 5215 M -114 0 R D 7440 5740 M -114 0 R D 7440 6003 M -114 0 R D
7440 6265 M -114 0 R D 7440 6790 M -114 0 R D 30 setlinewidth 1760 6528 M
60 -2 R 119 -4 R 120 -7 R 120 -77 R 60 -83 R 58 -223 R 50 -335 R 45 -317 R
42 -213 R 45 -128 R 57 -84 R 67 -15 R 69 -24 R 84 -11 R 114 -8 R 120 -4 R
119 -7 R 120 -7 R 119 -4 R 120 -19 R 107 -36 R 24 -29 R 32 -66 R 25 -95 R
22 -156 R 22 -245 R 20 -270 R 19 -171 R 19 -95 R 24 -63 R 33 -45 R 40 -21 R
43 -17 R 57 -17 R 65 -33 R 11 -9 R 19 -20 R 9 -13 R 10 -22 R 9 -28 R 7 -40 R
6 -56 R 6 -84 R 5 -133 R 5 -174 R 3 -82 R 2 -30 R 3 -14 R 3 -5 R 1 -1 R D L1
1760 6528 M 60 0 R 119 0 R 120 0 R 120 -1 R 60 -47 R 60 -115 R 48 -325 R
47 -363 R 36 -189 R 42 -131 R 57 -53 R 71 -20 R 113 -4 R 119 0 R 120 0 R
119 0 R 120 0 R 120 0 R 119 0 R 82 -18 R 27 -18 R 33 -55 R 26 -131 R
20 -193 R 19 -282 R 19 -278 R 17 -177 R 18 -107 R 22 -79 R 32 -61 R 48 -51 R
74 -62 R 15 -14 R 27 -38 R 8 -17 R 4 -12 R 9 -32 R 4 -22 R 5 -33 R 4 -42 R
3 -57 R 2 -84 R 3 -123 R 1 -93 R 2 -48 R 0 -7 R 0 -4 R D 60 setlinewidth L0
1760 6528 M 60 -4 R 119 -7 R 120 -15 R 105 -153 R 67 -223 R 57 -369 R
52 -560 R 44 -537 R 43 -347 R 44 -187 R 55 -112 R 60 -27 R 65 -14 R 84 -19 R
108 -9 R 119 -9 R 120 -6 R 120 -4 R 119 -5 R 120 -5 R 119 -6 R 120 -18 R
119 -55 R 33 -44 R 35 -88 R 31 -148 R 30 -251 R 26 -299 R 25 -228 R
23 -114 R 27 -66 R 37 -37 R 51 -14 R 60 -9 R 78 -7 R 104 -9 R 120 -10 R
119 -12 R 54 -11 R 51 -34 R 21 -33 R 20 -65 R 18 -114 R 17 -146 R 14 -108 R
14 -62 R 16 -36 R 22 -20 R 30 -11 R 45 -7 R 73 -6 R 120 -6 R 73 -5 R 31 -5 R
20 -6 R 19 -11 R 15 -19 R 14 -35 R 12 -61 R 11 -67 R 11 -46 R 10 -25 R
13 -15 R 17 -8 R 25 -4 R 38 -4 R 64 -3 R 85 -3 R 19 -1 R 14 -2 R 19 -2 R
15 -4 R 13 -6 R 11 -11 R 10 -19 R 9 -30 R 9 -29 R 8 -17 R 8 -10 R 10 -6 R
15 -4 R 22 -3 R 36 -2 R 61 -2 R 20 -1 R 11 -1 R 39 -2 R 9 -1 R 12 -3 R
10 -4 R 8 -5 R 7 -8 R 7 -11 R 6 -10 R 2 -2 R D L1 1760 6528 M 60 0 R 119 0 R
120 0 R 120 -2 R 51 -43 R 46 -215 R 22 -140 R 21 -161 R 22 -307 R 39 -571 R
41 -420 R 40 -218 R 47 -142 R 47 -36 R 52 -9 R 60 -5 R 75 -3 R 106 0 R
119 0 R 120 0 R 120 0 R 119 0 R 120 0 R 119 -3 R 96 -55 R 45 -89 R 27 -94 R
36 -245 R 27 -303 R 24 -339 R 20 -245 R 20 -155 R 24 -115 R 31 -90 R
44 -73 R 66 -66 R 109 -68 R 120 -59 R 119 -73 R 29 -25 R 27 -33 R 25 -42 R
20 -50 R 18 -66 R 16 -91 R 15 -91 R 14 -66 R 14 -39 R 17 -29 R 22 -23 R
33 -19 R 51 -17 R 85 -19 R 120 -25 R 19 -5 R 21 -7 R 23 -10 R 18 -11 R
16 -15 R 14 -19 R 12 -26 R 12 -27 R 11 -20 R 10 -11 R 13 -8 R 18 -7 R
25 -6 R 39 -5 R 66 -5 R 99 -7 R 12 -1 R 33 -4 R 15 -3 R 15 -4 R 12 -4 R
11 -7 R 10 -8 R D 90 setlinewidth L0 1760 6528 M 60 -5 R 119 -12 R 120 -22 R
120 -279 R 42 -207 R 29 -203 R 55 -593 R 49 -758 R 43 -570 R 41 -312 R
39 -148 R 58 -98 R 79 -19 R 107 -29 R 120 -14 R 119 -6 R 120 -5 R 119 -5 R
120 -4 R 119 -5 R 120 -4 R 120 -6 R 119 -10 R 120 -29 R 74 -33 R 55 -77 R
36 -114 R 35 -213 R 32 -280 R 27 -201 R 27 -105 R 30 -53 R 40 -27 R 54 -15 R
82 -5 R 95 -5 R 120 -3 R 119 -3 R 120 -3 R 119 -4 R 120 -7 R 82 -12 R
33 -11 R 32 -24 R 28 -50 R 27 -97 R 23 -108 R 22 -69 R 22 -31 R 26 -16 R
36 -8 R 51 -4 R 80 -3 R 101 -2 R 120 -1 R 119 -2 R 120 -2 R 73 -3 R 30 -4 R
30 -6 R 25 -14 R 23 -30 R 21 -49 R 19 -41 R 17 -23 R 20 -12 R 25 -6 R
34 -4 R 52 -2 R 83 -2 R 120 -2 R 119 -2 R 120 -2 R 42 -2 R 30 -2 R 27 -3 R
22 -7 R 20 -14 R 19 -19 R 17 -15 R 7 -4 R D L1 1760 6528 M 60 0 R 119 0 R
120 0 R 120 -3 R 46 -76 R 46 -140 R 48 -660 R 48 -953 R 46 -689 R 41 -329 R
38 -167 R 51 -84 R 63 -94 R 89 -49 R 94 -31 R 107 -3 R 120 -4 R 120 -3 R
119 -9 R 120 -2 R 119 -7 R 120 -15 R 119 -55 R 120 -155 R 36 -121 R
37 -182 R 35 -237 R 31 -261 R 27 -192 R 27 -118 R 29 -78 R 38 -57 R 52 -43 R
77 -36 R 120 -32 R 120 -22 R 119 -19 R 120 -18 R 119 -20 R 120 -28 R
56 -20 R 36 -20 R 32 -25 R 30 -32 R 27 -35 R 24 -26 R 22 -16 R 26 -11 R
32 -8 R 45 -6 R 66 -5 R 81 -3 R D 40 setlinewidth L0 9360 1330 M 5680 0 R D
9360 1330 M 0 218 R D gsave 9360 802 translate 0 0 M -117.687 0 N
(0) show grestore 10556 1330 M 0 218 R D gsave 10556 802 translate 0 0 M
-117.687 0 N
(2) show grestore 11752 1330 M 0 218 R D gsave 11752 802 translate 0 0 M
-117.687 0 N
(4) show grestore 12947 1330 M 0 218 R D gsave 12947 802 translate 0 0 M
-117.687 0 N
(6) show grestore 14143 1330 M 0 218 R D gsave 14143 802 translate 0 0 M
-117.687 0 N
(8) show grestore 9659 1330 M 0 109 R D 9958 1330 M 0 109 R D 10257 1330 M
0 109 R D 10855 1330 M 0 109 R D 11154 1330 M 0 109 R D 11453 1330 M 0 109 R
D 12051 1330 M 0 109 R D 12350 1330 M 0 109 R D 12649 1330 M 0 109 R D
13246 1330 M 0 109 R D 13545 1330 M 0 109 R D 13844 1330 M 0 109 R D
14442 1330 M 0 109 R D 14741 1330 M 0 109 R D 15040 1330 M 0 109 R D
gsave 12200 344 translate 0 0 M -576.368 0 N
(t / Gyr) show grestore 9360 6790 M 5680 0 R D 9360 6790 M 0 -218 R D
10556 6790 M 0 -218 R D 11752 6790 M 0 -218 R D 12947 6790 M 0 -218 R D
14143 6790 M 0 -218 R D 9659 6790 M 0 -109 R D 9958 6790 M 0 -109 R D
10257 6790 M 0 -109 R D 10855 6790 M 0 -109 R D 11154 6790 M 0 -109 R D
11453 6790 M 0 -109 R D 12051 6790 M 0 -109 R D 12350 6790 M 0 -109 R D
12649 6790 M 0 -109 R D 13246 6790 M 0 -109 R D 13545 6790 M 0 -109 R D
13844 6790 M 0 -109 R D 14442 6790 M 0 -109 R D 14741 6790 M 0 -109 R D
15040 6790 M 0 -109 R D 9360 1330 M 0 5460 R D 9360 2328 M 227 0 R D
gsave 9249 2187 translate 0 0 M -588.433 0 N
(0.2) show grestore 9360 3378 M 227 0 R D gsave 9249 3237 translate 0 0 M
-588.433 0 N
(0.4) show grestore 9360 4428 M 227 0 R D gsave 9249 4287 translate 0 0 M
-588.433 0 N
(0.6) show grestore 9360 5478 M 227 0 R D gsave 9249 5337 translate 0 0 M
-588.433 0 N
(0.8) show grestore 9360 6528 M 227 0 R D gsave 9249 6387 translate 0 0 M
-588.433 0 N
(1.0) show grestore 9360 1540 M 114 0 R D 9360 1803 M 114 0 R D 9360 2065 M
114 0 R D 9360 2590 M 114 0 R D 9360 2853 M 114 0 R D 9360 3115 M 114 0 R D
9360 3640 M 114 0 R D 9360 3903 M 114 0 R D 9360 4165 M 114 0 R D
9360 4690 M 114 0 R D 9360 4953 M 114 0 R D 9360 5215 M 114 0 R D
9360 5740 M 114 0 R D 9360 6003 M 114 0 R D 9360 6265 M 114 0 R D
9360 6790 M 114 0 R D gsave 8328 4060 translate 0 0 M 90 rotate -611.293 0 N
(j\(t\)/j\(0\)) show grestore 15040 1330 M 0 5460 R D 15040 2328 M -227 0 R
D 15040 3378 M -227 0 R D 15040 4428 M -227 0 R D 15040 5478 M -227 0 R D
15040 6528 M -227 0 R D 15040 1540 M -113 0 R D 15040 1803 M -113 0 R D
15040 2065 M -113 0 R D 15040 2590 M -113 0 R D 15040 2853 M -113 0 R D
15040 3115 M -113 0 R D 15040 3640 M -113 0 R D 15040 3903 M -113 0 R D
15040 4165 M -113 0 R D 15040 4690 M -113 0 R D 15040 4953 M -113 0 R D
15040 5215 M -113 0 R D 15040 5740 M -113 0 R D 15040 6003 M -113 0 R D
15040 6265 M -113 0 R D 15040 6790 M -113 0 R D 30 setlinewidth 9360 6528 M
60 -40 R 119 -87 R 120 -107 R 120 -152 R 61 -117 R 57 -161 R 51 -201 R
44 -199 R 42 -169 R 45 -143 R 57 -141 R 67 -133 R 69 -117 R 84 -129 R
114 -161 R 120 -159 R 119 -153 R 120 -148 R 119 -146 R 120 -153 R 107 -169 R
24 -48 R 32 -79 R 25 -84 R 22 -104 R 22 -138 R 20 -163 R 19 -141 R 19 -118 R
24 -119 R 33 -130 R 40 -130 R 43 -120 R 57 -141 R 65 -147 R 11 -26 R
19 -48 R 9 -24 R 10 -32 R 9 -32 R 7 -33 R 6 -35 R 6 -40 R 5 -55 R 5 -87 R
3 -85 R 3 -53 R 0 -2 R D L1 9360 6528 M 60 -40 R 119 -87 R 120 -107 R
120 -154 R 60 -118 R 60 -174 R 48 -204 R 47 -223 R 36 -154 R 43 -149 R
56 -154 R 71 -159 R 113 -208 R 119 -194 R 120 -182 R 119 -172 R 120 -167 R
120 -164 R 119 -175 R 82 -144 R 27 -63 R 33 -92 R 26 -103 R 20 -115 R
19 -152 R 19 -181 R 17 -161 R 18 -139 R 22 -141 R 32 -155 R 48 -183 R
74 -213 R 15 -38 R 27 -72 R 8 -23 R 4 -15 R 9 -32 R 4 -17 R 5 -23 R 4 -22 R
3 -24 R 3 -28 R 2 -37 R 2 -37 R 0 -4 R D 60 setlinewidth L0 9360 6528 M
60 -40 R 119 -87 R 120 -107 R 105 -128 R 67 -116 R 57 -142 R 52 -173 R
44 -166 R 43 -134 R 44 -102 R 56 -97 R 59 -82 R 65 -74 R 84 -85 R 108 -97 R
119 -102 R 120 -97 R 120 -95 R 119 -94 R 120 -92 R 119 -94 R 120 -100 R
120 -125 R 32 -45 R 35 -61 R 31 -71 R 30 -88 R 26 -94 R 25 -82 R 23 -58 R
27 -53 R 37 -53 R 52 -60 R 59 -57 R 78 -67 R 104 -84 R 120 -93 R 119 -94 R
54 -49 R 51 -58 R 21 -32 R 20 -38 R 18 -47 R 17 -50 R 14 -41 R 14 -31 R
16 -29 R 22 -29 R 30 -31 R 45 -37 R 73 -52 R 120 -78 R 73 -48 R 31 -24 R
21 -18 R 18 -19 R 15 -21 R 14 -22 R 12 -28 R 12 -27 R 10 -23 R 10 -18 R
13 -17 R 17 -17 R 25 -19 R 38 -25 R 64 -34 R 85 -44 R 19 -11 R 15 -8 R
18 -12 R 15 -11 R 13 -12 R 11 -13 R 10 -15 R 9 -17 R 9 -19 R 8 -14 R 8 -11 R
11 -12 R 14 -11 R 22 -14 R 36 -18 R 61 -27 R 20 -9 R 11 -5 R 39 -19 R 9 -5 R
12 -8 R 10 -8 R 8 -9 R 7 -10 R 7 -13 R 7 -13 R 6 -10 R 6 -9 R 8 -9 R 12 -9 R
17 -11 R 29 -14 R 49 -20 R 11 -5 R 28 -12 R 7 -4 R 12 -6 R 9 -6 R 8 -6 R
6 -7 R 5 -7 R 6 -10 R 4 -10 R 5 -10 R 4 -8 R 5 -8 R 8 -8 R 10 -8 R 16 -10 R
27 -13 R 50 -22 R 5 -3 R 13 -7 R 6 -4 R 5 -5 R 5 -5 R 4 -6 R 3 -6 R 4 -9 R
3 -11 R 3 -9 R 3 -7 R 4 -7 R 6 -7 R 9 -8 R 15 -9 R 27 -13 R 6 -3 R 6 -3 R
7 -3 R 6 -4 R 2 -2 R 5 -4 R 2 -2 R 0 -1 R D L1 9360 6528 M 60 -40 R
119 -87 R 120 -107 R 120 -153 R 51 -97 R 46 -119 R 22 -70 R 21 -75 R
22 -90 R 39 -167 R 41 -146 R 40 -114 R 47 -102 R 47 -82 R 52 -77 R 60 -79 R
75 -89 R 106 -116 R 119 -123 R 120 -119 R 120 -116 R 119 -114 R 120 -114 R
119 -123 R 96 -118 R 45 -73 R 27 -54 R 37 -93 R 26 -94 R 24 -101 R 20 -81 R
20 -62 R 24 -57 R 31 -54 R 44 -58 R 66 -71 R 109 -96 R 120 -94 R 119 -93 R
29 -24 R 28 -26 R 24 -27 R 20 -28 R 18 -31 R 17 -36 R 14 -36 R 14 -30 R
14 -22 R 17 -21 R 22 -21 R 33 -24 R 51 -29 R 85 -42 R 120 -56 R 19 -9 R
21 -11 R 23 -13 R 18 -13 R 16 -14 R 14 -15 R 13 -18 R 11 -18 R 11 -16 R
10 -12 R 13 -12 R 18 -12 R 25 -13 R 40 -17 R 65 -24 R 99 -34 R 12 -4 R
33 -14 R 15 -7 R 15 -9 R 12 -9 R 11 -11 R 11 -13 R 9 -14 R 9 -11 R 10 -9 R
12 -9 R 17 -9 R 26 -12 R 42 -15 R 72 -23 R 22 -7 R 13 -5 R 32 -11 R 14 -6 R
14 -7 R 12 -7 R 10 -8 R 9 -9 R 8 -11 R 9 -12 R 7 -10 R 8 -8 R 10 -8 R
15 -8 R 21 -11 R 35 -13 R 61 -21 R 11 -4 R 40 -15 R 10 -4 R 13 -6 R 10 -6 R
9 -7 R 8 -7 R 7 -10 R 6 -10 R 6 -10 R 6 -8 R 7 -8 R 9 -7 R 14 -9 R 20 -10 R
35 -14 R 63 -25 R 7 -3 R 18 -8 R 8 -5 R 8 -5 R 7 -6 R 6 -7 R 5 -9 R 5 -10 R
5 -9 R 4 -8 R 5 -7 R 8 -8 R 10 -8 R 16 -9 R 26 -13 R 48 -20 R 6 -3 R 15 -8 R
5 -3 R 7 -5 R 5 -5 R 4 -5 R 4 -7 R 3 -9 R 4 -10 R 3 -9 R 3 -8 R 5 -7 R
6 -7 R 9 -8 R 16 -9 R 26 -13 R 11 -5 R 6 -3 R 3 -2 R 12 -7 R 2 -2 R 4 -4 R
3 -4 R 2 -4 R 1 -4 R D 90 setlinewidth L0 9360 6528 M 60 -40 R 119 -87 R
120 -107 R 120 -148 R 42 -73 R 29 -60 R 55 -141 R 49 -155 R 43 -126 R
41 -91 R 39 -65 R 59 -71 R 78 -72 R 107 -78 R 120 -75 R 119 -69 R 120 -66 R
119 -64 R 120 -64 R 119 -63 R 120 -62 R 120 -63 R 119 -66 R 120 -76 R
74 -59 R 55 -57 R 36 -52 R 35 -64 R 32 -69 R 27 -53 R 27 -40 R 30 -33 R
40 -33 R 54 -34 R 82 -40 R 95 -41 R 120 -47 R 119 -46 R 120 -45 R 119 -45 R
120 -49 R 82 -41 R 33 -20 R 33 -26 R 27 -29 R 27 -35 R 23 -34 R 22 -26 R
22 -20 R 26 -18 R 36 -18 R 51 -21 R 80 -26 R 101 -29 R 120 -33 R 119 -32 R
120 -34 R 73 -24 R 30 -12 R 30 -15 R 25 -16 R 23 -19 R 21 -21 R 19 -18 R
17 -15 R 20 -12 R 25 -11 R 34 -12 R 52 -15 R 83 -19 R 120 -25 R 119 -25 R
120 -26 R 43 -11 R 29 -8 R 27 -10 R 22 -11 R 21 -12 R 18 -14 R 17 -14 R
15 -10 R 18 -9 R 21 -9 R 30 -9 R 45 -11 R 71 -15 R 120 -22 R 108 -20 R D L1
9360 6528 M 60 -40 R 119 -87 R 120 -107 R 120 -153 R 46 -86 R 46 -116 R
48 -154 R 48 -182 R 46 -143 R 41 -93 R 38 -63 R 51 -66 R 63 -63 R 89 -74 R
94 -67 R 107 -71 R 120 -76 R 120 -73 R 119 -72 R 120 -70 R 119 -71 R
120 -73 R 120 -79 R 119 -97 R 36 -38 R 37 -47 R 35 -54 R 31 -58 R 28 -44 R
26 -32 R 29 -26 R 38 -23 R 52 -23 R 77 -25 R 120 -33 R 120 -28 R 119 -27 R
120 -26 R 119 -26 R 120 -28 R 56 -16 R 36 -12 R 33 -14 R 29 -16 R 27 -17 R
24 -16 R 22 -11 R 26 -11 R 32 -9 R 45 -10 R 67 -12 R 107 -16 R 120 -16 R
119 -15 R 120 -15 R 119 -17 R 85 -13 R 32 -6 R 33 -9 R 28 -9 R 26 -11 R
24 -13 R 22 -10 R 22 -9 R 26 -8 R 36 -8 R 51 -9 R 80 -11 R 120 -16 R
119 -14 R 120 -15 R 120 -15 R 73 -12 R 31 -6 R 32 -7 R 26 -8 R 25 -11 R
22 -11 R 21 -11 R 20 -8 R 24 -8 R 31 -8 R 44 -8 R 69 -11 R 114 -16 R 22 -3 R
D 30 setlinewidth L0 12711 6052 M 66 0 R 65 0 R 66 0 R 66 0 R 65 0 R 66 0 R
65 0 R 66 0 R 65 0 R D 60 setlinewidth 12711 5563 M 66 0 R 65 0 R 66 0 R
66 0 R 65 0 R 66 0 R 65 0 R 66 0 R 65 0 R D 90 setlinewidth 12711 5074 M
66 0 R 65 0 R 66 0 R 66 0 R 65 0 R 66 0 R 65 0 R 66 0 R 65 0 R D
gsave 13367 5904 translate 0 0 M
(A=1) show grestore gsave 13367 5415 translate 0 0 M
(A=2) show grestore gsave 13367 4927 translate 0 0 M
(A=3) show grestore
%%PageTrailer
end
%%PageResources: font Helvetica
%%Trailer
%%Pages: 1
%%DocumentNeededResources: font Helvetica
%%EOF
