%!PS-Adobe-3.0 EPSF-3.0
%%BoundingBox: 0 0 283 382
%%Title: Graphics produced by IDL
%%For: dacia@Lserver, /home/dacia/work/subhalo_model
%%Creator: IDL Version 7.0 (linux x86_64 m64)
%%CreationDate: Fri Apr  2 09:32:14 2010
%%DocumentData: Clean7bit
%%Requirements: color
%%LanguageLevel: 1
%%PageOrder: Ascend
%%Pages: (atend)
%%DocumentNeededResources: (atend)
%%EndComments
%%BeginProlog
%+ prolog.ps -- Prolog for IDL generated PostScript files
%+ Copyright (c) 1988-2007 ITT Visual Information Solutions. All Rights Reserved.
%v 5
/$IDL_DICT 40 dict def $IDL_DICT begin /bdef { bind def } bind def /C
{currentpoint newpath moveto} bdef /CP {currentpoint} bdef /D {currentpoint
stroke moveto} bdef /F {closepath fill} bdef /K { setgray } bdef /M {moveto}
bdef /N {rmoveto} bdef /P {lineto} bdef /R {rlineto} bdef /S {gsave show
grestore} bdef /X {currentpoint pop} bdef /Z {gsave currentpoint lineto 20
setlinewidth 1 setlinecap stroke grestore} bdef /L0 {[] 0 setdash} bdef /L1
{[40 100] 0 setdash} bdef /L2 {[200 200] 0 setdash} bdef /L3 {[200 100 50
100] 0 setdash} bdef /L4 {[300 100 50 100 50 100 50 100] 0 setdash} bdef /L5
{[400 200] 0 setdash} bdef /STDFONT { findfont exch scalefont setfont } bdef
/ISOFONT { findfont dup length dict begin { 1 index /FID ne {def} {pop pop}
ifelse } forall /Encoding ISOLatin1Encoding def currentdict end /idltmpfont
exch definefont exch scalefont setfont } bdef /ISOBULLET { gsave /Helvetica
findfont exch scalefont setfont (\267) show currentpoint grestore moveto}
bdef /MITERLIMIT { 2.5 setmiterlimit } bdef end
%%EndProlog
%%Page: 0 1
%%PageRequirements: color
%%PageResources: (atend)
%%PageOrientation: Portrait
%%PageBoundingBox: 0 0 283 382
%%BeginPageSetup
$IDL_DICT begin 0.0283465 dup scale MITERLIMIT
%%IncludeResource: font Helvetica
423.333 /Helvetica STDFONT
%%EndPageSetup
0.000 0.000 0.000 setrgbcolor gsave 5517 176 translate 0 0 M 1.1 dup scale
-576.368 0 N
(t / Gyr) show grestore gsave 479 7102 translate 0 0 M 90 rotate
1.1 dup scale -756.649 0 N
(j\(t\)/j\(t) show X -101.051 M
%%IncludeResource: font Helvetica
262.467 /Helvetica STDFONT
(acc) show X 0 M
%%IncludeResource: font Helvetica
423.333 /Helvetica STDFONT
(\)) show grestore 40 setlinewidth L0 1700 9000 M 3817 0 R D 1700 9000 M
0 152 R D gsave 1700 8361 translate 0 0 M 1.21 dup scale -58.8433 0 N
( ) show grestore 2464 9000 M 0 152 R D gsave 2464 8361 translate 0 0 M
1.21 dup scale -58.8433 0 N
( ) show grestore 3228 9000 M 0 152 R D gsave 3228 8361 translate 0 0 M
1.21 dup scale -58.8433 0 N
( ) show grestore 3992 9000 M 0 152 R D gsave 3992 8361 translate 0 0 M
1.21 dup scale -58.8433 0 N
( ) show grestore 4757 9000 M 0 152 R D gsave 4757 8361 translate 0 0 M
1.21 dup scale -58.8433 0 N
( ) show grestore 1891 9000 M 0 76 R D 2082 9000 M 0 76 R D 2273 9000 M
0 76 R D 2655 9000 M 0 76 R D 2846 9000 M 0 76 R D 3037 9000 M 0 76 R D
3419 9000 M 0 76 R D 3610 9000 M 0 76 R D 3801 9000 M 0 76 R D 4184 9000 M
0 76 R D 4375 9000 M 0 76 R D 4566 9000 M 0 76 R D 4948 9000 M 0 76 R D
5139 9000 M 0 76 R D 5330 9000 M 0 76 R D 1700 12796 M 3817 0 R D
1700 12796 M 0 -152 R D 2464 12796 M 0 -152 R D 3228 12796 M 0 -152 R D
3992 12796 M 0 -152 R D 4757 12796 M 0 -152 R D 1891 12796 M 0 -76 R D
2082 12796 M 0 -76 R D 2273 12796 M 0 -76 R D 2655 12796 M 0 -76 R D
2846 12796 M 0 -76 R D 3037 12796 M 0 -76 R D 3419 12796 M 0 -76 R D
3610 12796 M 0 -76 R D 3801 12796 M 0 -76 R D 4184 12796 M 0 -76 R D
4375 12796 M 0 -76 R D 4566 12796 M 0 -76 R D 4948 12796 M 0 -76 R D
5139 12796 M 0 -76 R D 5330 12796 M 0 -76 R D 1700 9000 M 0 3796 R D
1700 9720 M 153 0 R D gsave 1566 9550 translate 0 0 M 1.21 dup scale
-588.433 0 N
(0.2) show grestore 1700 10444 M 153 0 R D gsave 1566 10273 translate 0 0 M
1.21 dup scale -588.433 0 N
(0.4) show grestore 1700 11168 M 153 0 R D gsave 1566 10997 translate 0 0 M
1.21 dup scale -588.433 0 N
(0.6) show grestore 1700 11891 M 153 0 R D gsave 1566 11721 translate 0 0 M
1.21 dup scale -588.433 0 N
(0.8) show grestore 1700 12615 M 153 0 R D gsave 1566 12445 translate 0 0 M
1.21 dup scale -588.433 0 N
(1.0) show grestore 1700 9177 M 76 0 R D 1700 9358 M 76 0 R D 1700 9539 M
76 0 R D 1700 9901 M 76 0 R D 1700 10082 M 76 0 R D 1700 10263 M 76 0 R D
1700 10625 M 76 0 R D 1700 10806 M 76 0 R D 1700 10987 M 76 0 R D
1700 11349 M 76 0 R D 1700 11529 M 76 0 R D 1700 11710 M 76 0 R D
1700 12072 M 76 0 R D 1700 12253 M 76 0 R D 1700 12434 M 76 0 R D
1700 12796 M 76 0 R D 5517 9000 M 0 3796 R D 5517 9720 M -153 0 R D
5517 10444 M -153 0 R D 5517 11168 M -153 0 R D 5517 11891 M -153 0 R D
5517 12615 M -153 0 R D 5517 9177 M -76 0 R D 5517 9358 M -76 0 R D
5517 9539 M -76 0 R D 5517 9901 M -76 0 R D 5517 10082 M -76 0 R D
5517 10263 M -76 0 R D 5517 10625 M -76 0 R D 5517 10806 M -76 0 R D
5517 10987 M -76 0 R D 5517 11349 M -76 0 R D 5517 11529 M -76 0 R D
5517 11710 M -76 0 R D 5517 12072 M -76 0 R D 5517 12253 M -76 0 R D
5517 12434 M -76 0 R D 5517 12796 M -76 0 R D L2 1700 12615 M 382 -36 R
382 -181 R 382 -181 R 382 -72 R 382 -73 R 382 -36 R 383 -36 R 382 -145 R
382 -72 R 377 -73 R D L0 1700 12615 M 38 -12 R 98 -34 R 106 -47 R 66 -40 R
65 -50 R 59 -52 R 56 -41 R 51 -27 R 61 -24 R 62 -19 R 68 -18 R 85 -19 R
117 -17 R 138 0 R 153 0 R 153 0 R 153 0 R 153 0 R 152 0 R 153 -15 R
153 -33 R 83 -23 R 63 -22 R 61 -28 R 47 -25 R 44 -21 R 38 -15 R 50 -16 R
50 -12 R 83 -16 R 119 -18 R 153 -21 R 153 -10 R 152 0 R 153 -6 R 153 -20 R
153 -22 R 95 -17 R 26 -6 R D gsave 3609 12960 translate 0 0 M 1.1 dup scale
-579.543 0 N
%%IncludeResource: font Symbol
423.333 /Symbol STDFONT
(e) show
%%IncludeResource: font Helvetica
423.333 /Helvetica STDFONT
(=0.65) show grestore gsave 1891 9358 translate 0 0 M 1.1 dup scale
(C=0.80) show grestore 5517 9000 M 3817 0 R D 5517 9000 M 0 152 R D
gsave 5517 8361 translate 0 0 M 1.21 dup scale -58.8433 0 N
( ) show grestore 6281 9000 M 0 152 R D gsave 6281 8361 translate 0 0 M
1.21 dup scale -58.8433 0 N
( ) show grestore 7045 9000 M 0 152 R D gsave 7045 8361 translate 0 0 M
1.21 dup scale -58.8433 0 N
( ) show grestore 7809 9000 M 0 152 R D gsave 7809 8361 translate 0 0 M
1.21 dup scale -58.8433 0 N
( ) show grestore 8574 9000 M 0 152 R D gsave 8574 8361 translate 0 0 M
1.21 dup scale -58.8433 0 N
( ) show grestore 5708 9000 M 0 76 R D 5899 9000 M 0 76 R D 6090 9000 M
0 76 R D 6472 9000 M 0 76 R D 6663 9000 M 0 76 R D 6854 9000 M 0 76 R D
7236 9000 M 0 76 R D 7427 9000 M 0 76 R D 7618 9000 M 0 76 R D 8001 9000 M
0 76 R D 8192 9000 M 0 76 R D 8383 9000 M 0 76 R D 8765 9000 M 0 76 R D
8956 9000 M 0 76 R D 9147 9000 M 0 76 R D 5517 12796 M 3817 0 R D
5517 12796 M 0 -152 R D 6281 12796 M 0 -152 R D 7045 12796 M 0 -152 R D
7809 12796 M 0 -152 R D 8574 12796 M 0 -152 R D 5708 12796 M 0 -76 R D
5899 12796 M 0 -76 R D 6090 12796 M 0 -76 R D 6472 12796 M 0 -76 R D
6663 12796 M 0 -76 R D 6854 12796 M 0 -76 R D 7236 12796 M 0 -76 R D
7427 12796 M 0 -76 R D 7618 12796 M 0 -76 R D 8001 12796 M 0 -76 R D
8192 12796 M 0 -76 R D 8383 12796 M 0 -76 R D 8765 12796 M 0 -76 R D
8956 12796 M 0 -76 R D 9147 12796 M 0 -76 R D 5517 9000 M 0 3796 R D
5517 9720 M 153 0 R D gsave 5383 9550 translate 0 0 M 1.21 dup scale
-117.687 0 N
( ) show grestore 5517 10444 M 153 0 R D gsave 5383 10273 translate 0 0 M
1.21 dup scale -117.687 0 N
( ) show grestore 5517 11168 M 153 0 R D gsave 5383 10997 translate 0 0 M
1.21 dup scale -117.687 0 N
( ) show grestore 5517 11891 M 153 0 R D gsave 5383 11721 translate 0 0 M
1.21 dup scale -117.687 0 N
( ) show grestore 5517 12615 M 153 0 R D gsave 5383 12445 translate 0 0 M
1.21 dup scale -117.687 0 N
( ) show grestore 5517 9177 M 76 0 R D 5517 9358 M 76 0 R D 5517 9539 M
76 0 R D 5517 9901 M 76 0 R D 5517 10082 M 76 0 R D 5517 10263 M 76 0 R D
5517 10625 M 76 0 R D 5517 10806 M 76 0 R D 5517 10987 M 76 0 R D
5517 11349 M 76 0 R D 5517 11529 M 76 0 R D 5517 11710 M 76 0 R D
5517 12072 M 76 0 R D 5517 12253 M 76 0 R D 5517 12434 M 76 0 R D
5517 12796 M 76 0 R D 9334 9000 M 0 3796 R D 9334 9720 M -153 0 R D
9334 10444 M -153 0 R D 9334 11168 M -153 0 R D 9334 11891 M -153 0 R D
9334 12615 M -153 0 R D 9334 9177 M -76 0 R D 9334 9358 M -76 0 R D
9334 9539 M -76 0 R D 9334 9901 M -76 0 R D 9334 10082 M -76 0 R D
9334 10263 M -76 0 R D 9334 10625 M -76 0 R D 9334 10806 M -76 0 R D
9334 10987 M -76 0 R D 9334 11349 M -76 0 R D 9334 11529 M -76 0 R D
9334 11710 M -76 0 R D 9334 12072 M -76 0 R D 9334 12253 M -76 0 R D
9334 12434 M -76 0 R D 9334 12796 M -76 0 R D L2 5517 12615 M 382 -72 R
382 -471 R 382 -72 R 382 -36 R 382 -109 R 382 -36 R 383 -362 R 382 -36 R
382 -72 R 377 -287 R D L0 5517 12615 M 38 -15 R 118 -56 R 74 -48 R 55 -51 R
31 -43 R 31 -55 R 27 -58 R 24 -42 R 22 -30 R 28 -25 R 35 -22 R 50 -23 R
52 -18 R 113 -31 R 153 -35 R 153 0 R 153 0 R 153 0 R 153 0 R 152 -17 R
147 -34 R 92 -26 R 49 -19 R 36 -18 R 29 -20 R 30 -27 R 24 -25 R 23 -21 R
22 -13 R 26 -12 R 34 -11 R 49 -11 R 72 -13 R 126 -18 R 152 -20 R 153 -19 R
153 -20 R 153 -19 R 153 -22 R 38 -7 R 38 -8 R 32 -9 R 28 -11 R 25 -13 R
23 -17 R 20 -16 R 19 -13 R 21 -11 R 27 -10 R 38 -11 R 56 -13 R 92 -16 R
153 -23 R 68 -11 R D gsave 9800 10898 translate 0 0 M 90 rotate
1.1 dup scale -529.59 0 N
(0.025) show grestore gsave 7426 12960 translate 0 0 M 1.1 dup scale
-579.543 0 N
%%IncludeResource: font Symbol
423.333 /Symbol STDFONT
(e) show
%%IncludeResource: font Helvetica
423.333 /Helvetica STDFONT
(=0.46) show grestore gsave 5708 9358 translate 0 0 M 1.1 dup scale
(C=2.00) show grestore 1700 5204 M 3817 0 R D 1700 5204 M 0 152 R D
gsave 1700 4565 translate 0 0 M 1.21 dup scale -58.8433 0 N
( ) show grestore 2464 5204 M 0 152 R D gsave 2464 4565 translate 0 0 M
1.21 dup scale -58.8433 0 N
( ) show grestore 3228 5204 M 0 152 R D gsave 3228 4565 translate 0 0 M
1.21 dup scale -58.8433 0 N
( ) show grestore 3992 5204 M 0 152 R D gsave 3992 4565 translate 0 0 M
1.21 dup scale -58.8433 0 N
( ) show grestore 4757 5204 M 0 152 R D gsave 4757 4565 translate 0 0 M
1.21 dup scale -58.8433 0 N
( ) show grestore 1891 5204 M 0 76 R D 2082 5204 M 0 76 R D 2273 5204 M
0 76 R D 2655 5204 M 0 76 R D 2846 5204 M 0 76 R D 3037 5204 M 0 76 R D
3419 5204 M 0 76 R D 3610 5204 M 0 76 R D 3801 5204 M 0 76 R D 4184 5204 M
0 76 R D 4375 5204 M 0 76 R D 4566 5204 M 0 76 R D 4948 5204 M 0 76 R D
5139 5204 M 0 76 R D 5330 5204 M 0 76 R D 1700 9000 M 3817 0 R D 1700 9000 M
0 -152 R D 2464 9000 M 0 -152 R D 3228 9000 M 0 -152 R D 3992 9000 M
0 -152 R D 4757 9000 M 0 -152 R D 1891 9000 M 0 -76 R D 2082 9000 M 0 -76 R
D 2273 9000 M 0 -76 R D 2655 9000 M 0 -76 R D 2846 9000 M 0 -76 R D
3037 9000 M 0 -76 R D 3419 9000 M 0 -76 R D 3610 9000 M 0 -76 R D
3801 9000 M 0 -76 R D 4184 9000 M 0 -76 R D 4375 9000 M 0 -76 R D
4566 9000 M 0 -76 R D 4948 9000 M 0 -76 R D 5139 9000 M 0 -76 R D
5330 9000 M 0 -76 R D 1700 5204 M 0 3796 R D 1700 5924 M 153 0 R D
gsave 1566 5754 translate 0 0 M 1.21 dup scale -588.433 0 N
(0.2) show grestore 1700 6648 M 153 0 R D gsave 1566 6477 translate 0 0 M
1.21 dup scale -588.433 0 N
(0.4) show grestore 1700 7372 M 153 0 R D gsave 1566 7201 translate 0 0 M
1.21 dup scale -588.433 0 N
(0.6) show grestore 1700 8095 M 153 0 R D gsave 1566 7925 translate 0 0 M
1.21 dup scale -588.433 0 N
(0.8) show grestore 1700 8819 M 153 0 R D gsave 1566 8649 translate 0 0 M
1.21 dup scale -588.433 0 N
(1.0) show grestore 1700 5381 M 76 0 R D 1700 5562 M 76 0 R D 1700 5743 M
76 0 R D 1700 6105 M 76 0 R D 1700 6286 M 76 0 R D 1700 6467 M 76 0 R D
1700 6829 M 76 0 R D 1700 7010 M 76 0 R D 1700 7191 M 76 0 R D 1700 7553 M
76 0 R D 1700 7733 M 76 0 R D 1700 7914 M 76 0 R D 1700 8276 M 76 0 R D
1700 8457 M 76 0 R D 1700 8638 M 76 0 R D 1700 9000 M 76 0 R D 5517 5204 M
0 3796 R D 5517 5924 M -153 0 R D 5517 6648 M -153 0 R D 5517 7372 M
-153 0 R D 5517 8095 M -153 0 R D 5517 8819 M -153 0 R D 5517 5381 M -76 0 R
D 5517 5562 M -76 0 R D 5517 5743 M -76 0 R D 5517 6105 M -76 0 R D
5517 6286 M -76 0 R D 5517 6467 M -76 0 R D 5517 6829 M -76 0 R D
5517 7010 M -76 0 R D 5517 7191 M -76 0 R D 5517 7553 M -76 0 R D
5517 7733 M -76 0 R D 5517 7914 M -76 0 R D 5517 8276 M -76 0 R D
5517 8457 M -76 0 R D 5517 8638 M -76 0 R D 5517 9000 M -76 0 R D L2
1700 8819 M 382 -145 R 382 -362 R 382 -325 R 382 -73 R 382 -36 R 382 -181 R
383 -325 R 382 -109 R 382 -289 R 377 -251 R D L0 1700 8819 M 38 -17 R
102 -52 R 70 -44 R 53 -39 R 49 -46 R 49 -56 R 62 -82 R 40 -50 R 34 -35 R
50 -41 R 62 -39 R 74 -38 R 87 -36 R 112 -42 R 153 -38 R 153 0 R 153 0 R
153 -15 R 152 -53 R 153 -61 R 69 -34 R 63 -40 R 47 -38 R 33 -32 R 42 -40 R
39 -31 R 42 -25 R 52 -25 R 54 -21 R 71 -24 R 108 -32 R 153 -42 R 153 -42 R
152 -42 R 153 -48 R 43 -17 R 46 -23 R 41 -29 R 38 -33 R 32 -30 R 30 -25 R
35 -23 R 45 -25 R 60 -27 R 91 -36 R 146 -52 R 152 -54 R 27 -11 R D
gsave 1891 5562 translate 0 0 M 1.1 dup scale
(C=0.24) show grestore 5517 5204 M 3817 0 R D 5517 5204 M 0 152 R D
gsave 5517 4565 translate 0 0 M 1.21 dup scale -58.8433 0 N
( ) show grestore 6281 5204 M 0 152 R D gsave 6281 4565 translate 0 0 M
1.21 dup scale -58.8433 0 N
( ) show grestore 7045 5204 M 0 152 R D gsave 7045 4565 translate 0 0 M
1.21 dup scale -58.8433 0 N
( ) show grestore 7809 5204 M 0 152 R D gsave 7809 4565 translate 0 0 M
1.21 dup scale -58.8433 0 N
( ) show grestore 8574 5204 M 0 152 R D gsave 8574 4565 translate 0 0 M
1.21 dup scale -58.8433 0 N
( ) show grestore 5708 5204 M 0 76 R D 5899 5204 M 0 76 R D 6090 5204 M
0 76 R D 6472 5204 M 0 76 R D 6663 5204 M 0 76 R D 6854 5204 M 0 76 R D
7236 5204 M 0 76 R D 7427 5204 M 0 76 R D 7618 5204 M 0 76 R D 8001 5204 M
0 76 R D 8192 5204 M 0 76 R D 8383 5204 M 0 76 R D 8765 5204 M 0 76 R D
8956 5204 M 0 76 R D 9147 5204 M 0 76 R D 5517 9000 M 3817 0 R D 5517 9000 M
0 -152 R D 6281 9000 M 0 -152 R D 7045 9000 M 0 -152 R D 7809 9000 M
0 -152 R D 8574 9000 M 0 -152 R D 5708 9000 M 0 -76 R D 5899 9000 M 0 -76 R
D 6090 9000 M 0 -76 R D 6472 9000 M 0 -76 R D 6663 9000 M 0 -76 R D
6854 9000 M 0 -76 R D 7236 9000 M 0 -76 R D 7427 9000 M 0 -76 R D
7618 9000 M 0 -76 R D 8001 9000 M 0 -76 R D 8192 9000 M 0 -76 R D
8383 9000 M 0 -76 R D 8765 9000 M 0 -76 R D 8956 9000 M 0 -76 R D
9147 9000 M 0 -76 R D 5517 5204 M 0 3796 R D 5517 5924 M 153 0 R D
gsave 5383 5754 translate 0 0 M 1.21 dup scale -117.687 0 N
( ) show grestore 5517 6648 M 153 0 R D gsave 5383 6477 translate 0 0 M
1.21 dup scale -117.687 0 N
( ) show grestore 5517 7372 M 153 0 R D gsave 5383 7201 translate 0 0 M
1.21 dup scale -117.687 0 N
( ) show grestore 5517 8095 M 153 0 R D gsave 5383 7925 translate 0 0 M
1.21 dup scale -117.687 0 N
( ) show grestore 5517 8819 M 153 0 R D gsave 5383 8649 translate 0 0 M
1.21 dup scale -117.687 0 N
( ) show grestore 5517 5381 M 76 0 R D 5517 5562 M 76 0 R D 5517 5743 M
76 0 R D 5517 6105 M 76 0 R D 5517 6286 M 76 0 R D 5517 6467 M 76 0 R D
5517 6829 M 76 0 R D 5517 7010 M 76 0 R D 5517 7191 M 76 0 R D 5517 7553 M
76 0 R D 5517 7733 M 76 0 R D 5517 7914 M 76 0 R D 5517 8276 M 76 0 R D
5517 8457 M 76 0 R D 5517 8638 M 76 0 R D 5517 9000 M 76 0 R D 9334 5204 M
0 3796 R D 9334 5924 M -153 0 R D 9334 6648 M -153 0 R D 9334 7372 M
-153 0 R D 9334 8095 M -153 0 R D 9334 8819 M -153 0 R D 9334 5381 M -76 0 R
D 9334 5562 M -76 0 R D 9334 5743 M -76 0 R D 9334 6105 M -76 0 R D
9334 6286 M -76 0 R D 9334 6467 M -76 0 R D 9334 6829 M -76 0 R D
9334 7010 M -76 0 R D 9334 7191 M -76 0 R D 9334 7553 M -76 0 R D
9334 7733 M -76 0 R D 9334 7914 M -76 0 R D 9334 8276 M -76 0 R D
9334 8457 M -76 0 R D 9334 8638 M -76 0 R D 9334 9000 M -76 0 R D L2
5517 8819 M 382 -217 R 382 -796 R 382 -145 R 382 -108 R 382 -435 R
382 -181 R 383 -362 R 382 -180 R 382 -290 R 377 -322 R D L0 5517 8819 M
38 -22 R 119 -79 R 68 -62 R 50 -63 R 46 -87 R 19 -49 R 27 -86 R 27 -80 R
24 -53 R 22 -34 R 33 -37 R 31 -26 R 39 -28 R 46 -27 R 62 -31 R 92 -42 R
153 -64 R 153 -62 R 153 -61 R 153 -61 R 153 -71 R 18 -11 R 33 -22 R 31 -27 R
22 -24 R 22 -33 R 21 -38 R 18 -34 R 17 -24 R 18 -18 R 23 -16 R 31 -16 R
35 -14 R 44 -15 R 64 -19 R 153 -40 R 153 -38 R 152 -39 R 75 -21 R 20 -7 R
32 -12 R 26 -12 R 22 -13 R 20 -16 R 18 -21 R 16 -23 R 15 -23 R 14 -17 R
18 -16 R 23 -16 R 33 -17 R 51 -21 R 85 -30 R 153 -49 R 153 -49 R 35 -13 R
21 -8 R 27 -11 R 24 -12 R 21 -12 R 17 -15 R 16 -17 R 14 -22 R 13 -24 R
12 -21 R 12 -17 R 16 -16 R 20 -17 R 31 -19 R 48 -24 R 83 -36 R 153 -64 R
33 -14 R 15 -7 R 48 -23 R 16 -10 R 4 -3 R D gsave 9800 7102 translate 0 0 M
90 rotate 1.1 dup scale -411.903 0 N
(0.05) show grestore gsave 5708 5562 translate 0 0 M 1.1 dup scale
(C=1.01) show grestore 1700 1408 M 3817 0 R D 1700 1408 M 0 152 R D
gsave 1700 769 translate 0 0 M 1.21 dup scale -117.687 0 N
(0) show grestore 2464 1408 M 0 152 R D gsave 2464 769 translate 0 0 M
1.21 dup scale -117.687 0 N
(2) show grestore 3228 1408 M 0 152 R D gsave 3228 769 translate 0 0 M
1.21 dup scale -117.687 0 N
(4) show grestore 3992 1408 M 0 152 R D gsave 3992 769 translate 0 0 M
1.21 dup scale -117.687 0 N
(6) show grestore 4757 1408 M 0 152 R D gsave 4757 769 translate 0 0 M
1.21 dup scale -117.687 0 N
(8) show grestore 1891 1408 M 0 76 R D 2082 1408 M 0 76 R D 2273 1408 M
0 76 R D 2655 1408 M 0 76 R D 2846 1408 M 0 76 R D 3037 1408 M 0 76 R D
3419 1408 M 0 76 R D 3610 1408 M 0 76 R D 3801 1408 M 0 76 R D 4184 1408 M
0 76 R D 4375 1408 M 0 76 R D 4566 1408 M 0 76 R D 4948 1408 M 0 76 R D
5139 1408 M 0 76 R D 5330 1408 M 0 76 R D 1700 5204 M 3817 0 R D 1700 5204 M
0 -152 R D 2464 5204 M 0 -152 R D 3228 5204 M 0 -152 R D 3992 5204 M
0 -152 R D 4757 5204 M 0 -152 R D 1891 5204 M 0 -76 R D 2082 5204 M 0 -76 R
D 2273 5204 M 0 -76 R D 2655 5204 M 0 -76 R D 2846 5204 M 0 -76 R D
3037 5204 M 0 -76 R D 3419 5204 M 0 -76 R D 3610 5204 M 0 -76 R D
3801 5204 M 0 -76 R D 4184 5204 M 0 -76 R D 4375 5204 M 0 -76 R D
4566 5204 M 0 -76 R D 4948 5204 M 0 -76 R D 5139 5204 M 0 -76 R D
5330 5204 M 0 -76 R D 1700 1408 M 0 3796 R D 1700 2128 M 153 0 R D
gsave 1566 1958 translate 0 0 M 1.21 dup scale -588.433 0 N
(0.2) show grestore 1700 2852 M 153 0 R D gsave 1566 2681 translate 0 0 M
1.21 dup scale -588.433 0 N
(0.4) show grestore 1700 3576 M 153 0 R D gsave 1566 3405 translate 0 0 M
1.21 dup scale -588.433 0 N
(0.6) show grestore 1700 4299 M 153 0 R D gsave 1566 4129 translate 0 0 M
1.21 dup scale -588.433 0 N
(0.8) show grestore 1700 5023 M 153 0 R D gsave 1566 4853 translate 0 0 M
1.21 dup scale -588.433 0 N
(1.0) show grestore 1700 1585 M 76 0 R D 1700 1766 M 76 0 R D 1700 1947 M
76 0 R D 1700 2309 M 76 0 R D 1700 2490 M 76 0 R D 1700 2671 M 76 0 R D
1700 3033 M 76 0 R D 1700 3214 M 76 0 R D 1700 3395 M 76 0 R D 1700 3757 M
76 0 R D 1700 3937 M 76 0 R D 1700 4118 M 76 0 R D 1700 4480 M 76 0 R D
1700 4661 M 76 0 R D 1700 4842 M 76 0 R D 1700 5204 M 76 0 R D 5517 1408 M
0 3796 R D 5517 2128 M -153 0 R D 5517 2852 M -153 0 R D 5517 3576 M
-153 0 R D 5517 4299 M -153 0 R D 5517 5023 M -153 0 R D 5517 1585 M -76 0 R
D 5517 1766 M -76 0 R D 5517 1947 M -76 0 R D 5517 2309 M -76 0 R D
5517 2490 M -76 0 R D 5517 2671 M -76 0 R D 5517 3033 M -76 0 R D
5517 3214 M -76 0 R D 5517 3395 M -76 0 R D 5517 3757 M -76 0 R D
5517 3937 M -76 0 R D 5517 4118 M -76 0 R D 5517 4480 M -76 0 R D
5517 4661 M -76 0 R D 5517 4842 M -76 0 R D 5517 5204 M -76 0 R D L2
1700 5023 M 382 -181 R 382 -615 R 382 -470 R 382 -181 R 382 -507 R
382 -470 R 383 -579 R 382 -435 R 382 -177 R D L0 1700 5023 M 38 -24 R
101 -69 R 79 -68 R 50 -52 R 51 -67 R 37 -58 R 46 -88 R 53 -105 R 44 -72 R
49 -65 R 61 -62 R 67 -57 R 77 -57 R 89 -60 R 152 -97 R 152 -93 R 153 -93 R
153 -98 R 82 -61 R 47 -43 R 27 -29 R 26 -33 R 31 -49 R 28 -52 R 31 -61 R
30 -46 R 29 -37 R 38 -36 R 47 -37 R 48 -33 R 57 -36 R 139 -82 R 153 -89 R
43 -28 R 39 -27 R 34 -29 R 28 -30 R 25 -37 R 23 -45 R 21 -45 R 19 -39 R
21 -35 R 26 -38 R 35 -42 R 52 -54 R 83 -79 R 56 -51 R 22 -21 R 28 -28 R
25 -27 R 22 -28 R 18 -28 R 15 -31 R 15 -40 R 13 -47 R 12 -47 R 12 -39 R
13 -40 R 18 -43 R 26 -52 R 39 -69 R 42 -69 R 11 -18 R 12 -23 R 11 -21 R
9 -21 R 8 -22 R 6 -24 R 6 -32 R 6 -48 R 5 -58 R 6 -52 R 5 -36 R 7 -29 R
11 -23 R 7 -9 R 3 -2 R D gsave 1891 1766 translate 0 0 M 1.1 dup scale
(C=-0.11) show grestore 5517 1408 M 3817 0 R D 5517 1408 M 0 152 R D
gsave 5517 769 translate 0 0 M 1.21 dup scale -117.687 0 N
(0) show grestore 6281 1408 M 0 152 R D gsave 6281 769 translate 0 0 M
1.21 dup scale -117.687 0 N
(2) show grestore 7045 1408 M 0 152 R D gsave 7045 769 translate 0 0 M
1.21 dup scale -117.687 0 N
(4) show grestore 7809 1408 M 0 152 R D gsave 7809 769 translate 0 0 M
1.21 dup scale -117.687 0 N
(6) show grestore 8574 1408 M 0 152 R D gsave 8574 769 translate 0 0 M
1.21 dup scale -117.687 0 N
(8) show grestore 5708 1408 M 0 76 R D 5899 1408 M 0 76 R D 6090 1408 M
0 76 R D 6472 1408 M 0 76 R D 6663 1408 M 0 76 R D 6854 1408 M 0 76 R D
7236 1408 M 0 76 R D 7427 1408 M 0 76 R D 7618 1408 M 0 76 R D 8001 1408 M
0 76 R D 8192 1408 M 0 76 R D 8383 1408 M 0 76 R D 8765 1408 M 0 76 R D
8956 1408 M 0 76 R D 9147 1408 M 0 76 R D 5517 5204 M 3817 0 R D 5517 5204 M
0 -152 R D 6281 5204 M 0 -152 R D 7045 5204 M 0 -152 R D 7809 5204 M
0 -152 R D 8574 5204 M 0 -152 R D 5708 5204 M 0 -76 R D 5899 5204 M 0 -76 R
D 6090 5204 M 0 -76 R D 6472 5204 M 0 -76 R D 6663 5204 M 0 -76 R D
6854 5204 M 0 -76 R D 7236 5204 M 0 -76 R D 7427 5204 M 0 -76 R D
7618 5204 M 0 -76 R D 8001 5204 M 0 -76 R D 8192 5204 M 0 -76 R D
8383 5204 M 0 -76 R D 8765 5204 M 0 -76 R D 8956 5204 M 0 -76 R D
9147 5204 M 0 -76 R D 5517 1408 M 0 3796 R D 5517 2128 M 153 0 R D
gsave 5383 1958 translate 0 0 M 1.21 dup scale -117.687 0 N
( ) show grestore 5517 2852 M 153 0 R D gsave 5383 2681 translate 0 0 M
1.21 dup scale -117.687 0 N
( ) show grestore 5517 3576 M 153 0 R D gsave 5383 3405 translate 0 0 M
1.21 dup scale -117.687 0 N
( ) show grestore 5517 4299 M 153 0 R D gsave 5383 4129 translate 0 0 M
1.21 dup scale -117.687 0 N
( ) show grestore 5517 5023 M 153 0 R D gsave 5383 4853 translate 0 0 M
1.21 dup scale -117.687 0 N
( ) show grestore 5517 1585 M 76 0 R D 5517 1766 M 76 0 R D 5517 1947 M
76 0 R D 5517 2309 M 76 0 R D 5517 2490 M 76 0 R D 5517 2671 M 76 0 R D
5517 3033 M 76 0 R D 5517 3214 M 76 0 R D 5517 3395 M 76 0 R D 5517 3757 M
76 0 R D 5517 3937 M 76 0 R D 5517 4118 M 76 0 R D 5517 4480 M 76 0 R D
5517 4661 M 76 0 R D 5517 4842 M 76 0 R D 5517 5204 M 76 0 R D 9334 1408 M
0 3796 R D 9334 2128 M -153 0 R D 9334 2852 M -153 0 R D 9334 3576 M
-153 0 R D 9334 4299 M -153 0 R D 9334 5023 M -153 0 R D 9334 1585 M -76 0 R
D 9334 1766 M -76 0 R D 9334 1947 M -76 0 R D 9334 2309 M -76 0 R D
9334 2490 M -76 0 R D 9334 2671 M -76 0 R D 9334 3033 M -76 0 R D
9334 3214 M -76 0 R D 9334 3395 M -76 0 R D 9334 3757 M -76 0 R D
9334 3937 M -76 0 R D 9334 4118 M -76 0 R D 9334 4480 M -76 0 R D
9334 4661 M -76 0 R D 9334 4842 M -76 0 R D 9334 5204 M -76 0 R D L2
5517 5023 M 382 -217 R 382 -1267 R 382 -289 R 382 -724 R 382 -579 R
382 -506 R 383 -33 R D L0 5517 5023 M 38 -29 R 118 -105 R 67 -81 R 35 -57 R
29 -59 R 21 -55 R 30 -104 R 28 -126 R 24 -114 R 23 -88 R 18 -51 R 30 -64 R
38 -62 R 37 -47 R 42 -47 R 50 -50 R 63 -59 R 86 -76 R 153 -128 R 153 -126 R
99 -88 R 43 -47 R 27 -36 R 28 -47 R 17 -41 R 17 -51 R 16 -56 R 15 -50 R
13 -33 R 15 -26 R 19 -26 R 27 -26 R 41 -32 R 48 -32 R 87 -53 R 91 -53 R
75 -44 R 14 -9 R 38 -28 R 17 -15 R 16 -18 R 14 -20 R 12 -25 R 12 -32 R
11 -36 R 10 -30 R 11 -24 R 13 -25 R 19 -27 R 28 -32 R 45 -44 R 81 -70 R
45 -38 R 14 -12 R 24 -22 R 13 -14 R 13 -16 R 12 -17 R 9 -18 R 9 -21 R
7 -27 R 7 -33 R 7 -32 R 6 -26 R 8 -26 R 10 -27 R 14 -29 R 22 -37 R 37 -52 R
45 -57 R 8 -10 R 16 -23 R 6 -9 R 7 -12 R 6 -14 R 6 -14 R 4 -15 R 4 -18 R
4 -25 R 4 -33 R 3 -34 R 4 -30 R 4 -27 R 6 -26 R 9 -28 R 15 -30 R 17 -24 R
7 -9 R 5 -8 R 1 -2 R 2 -4 R 2 -3 R 1 -3 R 1 -3 R 0 -1 R D
gsave 9800 3306 translate 0 0 M 90 rotate 1.1 dup scale -545.884 0 N
%%IncludeResource: font Symbol
423.333 /Symbol STDFONT
(m) show X -95.92 M
%%IncludeResource: font Helvetica
262.467 /Helvetica STDFONT
(i) show X 0 M
%%IncludeResource: font Helvetica
423.333 /Helvetica STDFONT
(=0.1) show grestore gsave 5708 1766 translate 0 0 M 1.1 dup scale
(C=0.38) show grestore
%%PageTrailer
end
%%PageResources: font Helvetica
%%+ font Symbol
%%Trailer
%%Pages: 1
%%DocumentNeededResources: font Helvetica
%%+ font Symbol
%%EOF
