%!PS-Adobe-3.0 EPSF-3.0
%%BoundingBox: 0 0 510 396
%%Title: Graphics produced by IDL
%%For: dacia@Lserver, /home/dacia/work/subhalo_model
%%Creator: IDL Version 7.0 (linux x86_64 m64)
%%CreationDate: Thu Jun 10 11:37:22 2010
%%DocumentData: Clean7bit
%%Requirements: color
%%LanguageLevel: 1
%%PageOrder: Ascend
%%Pages: (atend)
%%DocumentNeededResources: (atend)
%%EndComments
%%BeginProlog
%+ prolog.ps -- Prolog for IDL generated PostScript files
%+ Copyright (c) 1988-2007 ITT Visual Information Solutions. All Rights Reserved.
%v 5
/$IDL_DICT 40 dict def $IDL_DICT begin /bdef { bind def } bind def /C
{currentpoint newpath moveto} bdef /CP {currentpoint} bdef /D {currentpoint
stroke moveto} bdef /F {closepath fill} bdef /K { setgray } bdef /M {moveto}
bdef /N {rmoveto} bdef /P {lineto} bdef /R {rlineto} bdef /S {gsave show
grestore} bdef /X {currentpoint pop} bdef /Z {gsave currentpoint lineto 20
setlinewidth 1 setlinecap stroke grestore} bdef /L0 {[] 0 setdash} bdef /L1
{[40 100] 0 setdash} bdef /L2 {[200 200] 0 setdash} bdef /L3 {[200 100 50
100] 0 setdash} bdef /L4 {[300 100 50 100 50 100 50 100] 0 setdash} bdef /L5
{[400 200] 0 setdash} bdef /STDFONT { findfont exch scalefont setfont } bdef
/ISOFONT { findfont dup length dict begin { 1 index /FID ne {def} {pop pop}
ifelse } forall /Encoding ISOLatin1Encoding def currentdict end /idltmpfont
exch definefont exch scalefont setfont } bdef /ISOBULLET { gsave /Helvetica
findfont exch scalefont setfont (\267) show currentpoint grestore moveto}
bdef /MITERLIMIT { 2.5 setmiterlimit } bdef end
%%EndProlog
%%Page: 0 1
%%PageRequirements: color
%%PageResources: (atend)
%%PageOrientation: Portrait
%%PageBoundingBox: 0 0 510 396
%%BeginPageSetup
$IDL_DICT begin 0.0283465 dup scale MITERLIMIT
%%IncludeResource: font Helvetica
423.333 /Helvetica STDFONT
%%EndPageSetup
0.000 0.000 0.000 setrgbcolor gsave 720 10570 translate 0 0 M 90 rotate
1.1 dup scale -1164.17 0 N
(dN/dln\(m/M\)) show grestore 40 setlinewidth L0 2220 8120 M 5080 0 R D
2602 8120 M 0 196 R D gsave 2602 7481 translate 0 0 M 1.21 dup scale
-352.04 0 N
(10) show X 192.937 M
%%IncludeResource: font Helvetica
262.467 /Helvetica STDFONT
(-4) show grestore
%%IncludeResource: font Helvetica
423.333 /Helvetica STDFONT 3872 8120 M 0 196 R D
gsave 3872 7481 translate 0 0 M 1.21 dup scale -352.04 0 N
(10) show X 192.937 M
%%IncludeResource: font Helvetica
262.467 /Helvetica STDFONT
(-3) show grestore
%%IncludeResource: font Helvetica
423.333 /Helvetica STDFONT 5142 8120 M 0 196 R D
gsave 5142 7481 translate 0 0 M 1.21 dup scale -352.04 0 N
(10) show X 192.937 M
%%IncludeResource: font Helvetica
262.467 /Helvetica STDFONT
(-2) show grestore
%%IncludeResource: font Helvetica
423.333 /Helvetica STDFONT 6412 8120 M 0 196 R D
gsave 6412 7481 translate 0 0 M 1.21 dup scale -352.04 0 N
(10) show X 192.937 M
%%IncludeResource: font Helvetica
262.467 /Helvetica STDFONT
(-1) show grestore
%%IncludeResource: font Helvetica
423.333 /Helvetica STDFONT 2220 8120 M 0 98 R D 2321 8120 M 0 98 R D
2406 8120 M 0 98 R D 2479 8120 M 0 98 R D 2544 8120 M 0 98 R D 2985 8120 M
0 98 R D 3208 8120 M 0 98 R D 3367 8120 M 0 98 R D 3490 8120 M 0 98 R D
3591 8120 M 0 98 R D 3676 8120 M 0 98 R D 3749 8120 M 0 98 R D 3814 8120 M
0 98 R D 4255 8120 M 0 98 R D 4478 8120 M 0 98 R D 4637 8120 M 0 98 R D
4760 8120 M 0 98 R D 4861 8120 M 0 98 R D 4946 8120 M 0 98 R D 5019 8120 M
0 98 R D 5084 8120 M 0 98 R D 5525 8120 M 0 98 R D 5748 8120 M 0 98 R D
5907 8120 M 0 98 R D 6030 8120 M 0 98 R D 6131 8120 M 0 98 R D 6216 8120 M
0 98 R D 6289 8120 M 0 98 R D 6354 8120 M 0 98 R D 6795 8120 M 0 98 R D
7018 8120 M 0 98 R D 7177 8120 M 0 98 R D 7300 8120 M 0 98 R D 2220 13020 M
5080 0 R D 2602 13020 M 0 -196 R D 3872 13020 M 0 -196 R D 5142 13020 M
0 -196 R D 6412 13020 M 0 -196 R D 2220 13020 M 0 -98 R D 2321 13020 M
0 -98 R D 2406 13020 M 0 -98 R D 2479 13020 M 0 -98 R D 2544 13020 M 0 -98 R
D 2985 13020 M 0 -98 R D 3208 13020 M 0 -98 R D 3367 13020 M 0 -98 R D
3490 13020 M 0 -98 R D 3591 13020 M 0 -98 R D 3676 13020 M 0 -98 R D
3749 13020 M 0 -98 R D 3814 13020 M 0 -98 R D 4255 13020 M 0 -98 R D
4478 13020 M 0 -98 R D 4637 13020 M 0 -98 R D 4760 13020 M 0 -98 R D
4861 13020 M 0 -98 R D 4946 13020 M 0 -98 R D 5019 13020 M 0 -98 R D
5084 13020 M 0 -98 R D 5525 13020 M 0 -98 R D 5748 13020 M 0 -98 R D
5907 13020 M 0 -98 R D 6030 13020 M 0 -98 R D 6131 13020 M 0 -98 R D
6216 13020 M 0 -98 R D 6289 13020 M 0 -98 R D 6354 13020 M 0 -98 R D
6795 13020 M 0 -98 R D 7018 13020 M 0 -98 R D 7177 13020 M 0 -98 R D
7300 13020 M 0 -98 R D 2220 8120 M 0 4900 R D 2220 8120 M 203 0 R D
gsave 2086 8120 translate 0 0 M 1.21 dup scale -704.08 0 N
(10) show X 192.937 M
%%IncludeResource: font Helvetica
262.467 /Helvetica STDFONT
(-2) show grestore
%%IncludeResource: font Helvetica
423.333 /Helvetica STDFONT 2220 9184 M 203 0 R D
gsave 2086 9014 translate 0 0 M 1.21 dup scale -704.08 0 N
(10) show X 192.937 M
%%IncludeResource: font Helvetica
262.467 /Helvetica STDFONT
(-1) show grestore
%%IncludeResource: font Helvetica
423.333 /Helvetica STDFONT 2220 10249 M 203 0 R D
gsave 2086 10079 translate 0 0 M 1.21 dup scale -235.373 0 N
(1) show grestore 2220 11314 M 203 0 R D gsave 2086 11144 translate 0 0 M
1.21 dup scale -470.747 0 N
(10) show grestore 2220 12379 M 203 0 R D gsave 2086 12209 translate 0 0 M
1.21 dup scale -616.678 0 N
(10) show X 192.937 M
%%IncludeResource: font Helvetica
262.467 /Helvetica STDFONT
(2) show grestore
%%IncludeResource: font Helvetica
423.333 /Helvetica STDFONT 2220 8440 M 102 0 R D 2220 8628 M 102 0 R D
2220 8761 M 102 0 R D 2220 8864 M 102 0 R D 2220 8948 M 102 0 R D
2220 9020 M 102 0 R D 2220 9081 M 102 0 R D 2220 9136 M 102 0 R D
2220 9505 M 102 0 R D 2220 9693 M 102 0 R D 2220 9826 M 102 0 R D
2220 9929 M 102 0 R D 2220 10013 M 102 0 R D 2220 10084 M 102 0 R D
2220 10146 M 102 0 R D 2220 10201 M 102 0 R D 2220 10570 M 102 0 R D
2220 10757 M 102 0 R D 2220 10890 M 102 0 R D 2220 10994 M 102 0 R D
2220 11078 M 102 0 R D 2220 11149 M 102 0 R D 2220 11211 M 102 0 R D
2220 11265 M 102 0 R D 2220 11635 M 102 0 R D 2220 11822 M 102 0 R D
2220 11955 M 102 0 R D 2220 12058 M 102 0 R D 2220 12143 M 102 0 R D
2220 12214 M 102 0 R D 2220 12276 M 102 0 R D 2220 12330 M 102 0 R D
2220 12700 M 102 0 R D 2220 12887 M 102 0 R D 2220 13020 M 102 0 R D
7300 8120 M 0 4900 R D 7300 8120 M -203 0 R D 7300 9184 M -203 0 R D
7300 10249 M -203 0 R D 7300 11314 M -203 0 R D 7300 12379 M -203 0 R D
7300 8440 M -102 0 R D 7300 8628 M -102 0 R D 7300 8761 M -102 0 R D
7300 8864 M -102 0 R D 7300 8948 M -102 0 R D 7300 9020 M -102 0 R D
7300 9081 M -102 0 R D 7300 9136 M -102 0 R D 7300 9505 M -102 0 R D
7300 9693 M -102 0 R D 7300 9826 M -102 0 R D 7300 9929 M -102 0 R D
7300 10013 M -102 0 R D 7300 10084 M -102 0 R D 7300 10146 M -102 0 R D
7300 10201 M -102 0 R D 7300 10570 M -102 0 R D 7300 10757 M -102 0 R D
7300 10890 M -102 0 R D 7300 10994 M -102 0 R D 7300 11078 M -102 0 R D
7300 11149 M -102 0 R D 7300 11211 M -102 0 R D 7300 11265 M -102 0 R D
7300 11635 M -102 0 R D 7300 11822 M -102 0 R D 7300 11955 M -102 0 R D
7300 12058 M -102 0 R D 7300 12143 M -102 0 R D 7300 12214 M -102 0 R D
7300 12276 M -102 0 R D 7300 12330 M -102 0 R D 7300 12700 M -102 0 R D
7300 12887 M -102 0 R D 7300 13020 M -102 0 R D L5 2602 11850 M 381 -223 R
381 -243 R 381 -267 R 381 -278 R 381 -260 R 381 -275 R 381 -277 R 381 -236 R
381 -277 R 381 -273 R D L4 2602 12853 M 464 -311 R 463 -311 R 464 -311 R
464 -311 R 463 -311 R 464 -311 R 463 -311 R 464 -314 R 463 -349 R 464 -776 R
D L1 2602 12719 M 464 -308 R 463 -304 R 464 -309 R 464 -281 R 463 -252 R
464 -297 R 463 -272 R 464 -201 R 463 -286 R 464 -539 R D L0 2602 12119 M
381 -269 R 381 -283 R 381 -292 R 381 -334 R 381 -292 R 381 -247 R 381 -394 R
381 -356 R 381 -141 R 381 0 R D 2423 9786 M 76 0 R 77 0 R 76 0 R 76 0 R
76 0 R 76 0 R 77 0 R 76 0 R 76 0 R D L5 2423 9394 M 76 0 R 77 0 R 76 0 R
76 0 R 76 0 R 76 0 R 77 0 R 76 0 R 76 0 R D L4 2423 9002 M 76 0 R 77 0 R
76 0 R 76 0 R 76 0 R 76 0 R 77 0 R 76 0 R 76 0 R D L1 2423 8610 M 76 0 R
77 0 R 76 0 R 76 0 R 76 0 R 76 0 R 77 0 R 76 0 R 76 0 R D
gsave 3185 9712 translate 0 0 M 1.1 dup scale
(M2) show grestore gsave 3185 9320 translate 0 0 M 1.1 dup scale
(evolved,SIM) show grestore gsave 3185 8928 translate 0 0 M 1.1 dup scale
(unevolved,SIM) show grestore gsave 3185 8536 translate 0 0 M 1.1 dup scale
(unevolved,EPS) show grestore gsave 6538 12285 translate 0 0 M 1.1 dup scale
(a) show grestore L0 7300 8120 M 5080 0 R D 7682 8120 M 0 196 R D
gsave 7682 7481 translate 0 0 M 1.21 dup scale -352.04 0 N
(10) show X 192.937 M
%%IncludeResource: font Helvetica
262.467 /Helvetica STDFONT
(-4) show grestore
%%IncludeResource: font Helvetica
423.333 /Helvetica STDFONT 8952 8120 M 0 196 R D
gsave 8952 7481 translate 0 0 M 1.21 dup scale -352.04 0 N
(10) show X 192.937 M
%%IncludeResource: font Helvetica
262.467 /Helvetica STDFONT
(-3) show grestore
%%IncludeResource: font Helvetica
423.333 /Helvetica STDFONT 10222 8120 M 0 196 R D
gsave 10222 7481 translate 0 0 M 1.21 dup scale -352.04 0 N
(10) show X 192.937 M
%%IncludeResource: font Helvetica
262.467 /Helvetica STDFONT
(-2) show grestore
%%IncludeResource: font Helvetica
423.333 /Helvetica STDFONT 11492 8120 M 0 196 R D
gsave 11492 7481 translate 0 0 M 1.21 dup scale -352.04 0 N
(10) show X 192.937 M
%%IncludeResource: font Helvetica
262.467 /Helvetica STDFONT
(-1) show grestore
%%IncludeResource: font Helvetica
423.333 /Helvetica STDFONT 7300 8120 M 0 98 R D 7401 8120 M 0 98 R D
7486 8120 M 0 98 R D 7559 8120 M 0 98 R D 7624 8120 M 0 98 R D 8065 8120 M
0 98 R D 8288 8120 M 0 98 R D 8447 8120 M 0 98 R D 8570 8120 M 0 98 R D
8671 8120 M 0 98 R D 8756 8120 M 0 98 R D 8829 8120 M 0 98 R D 8894 8120 M
0 98 R D 9335 8120 M 0 98 R D 9558 8120 M 0 98 R D 9717 8120 M 0 98 R D
9840 8120 M 0 98 R D 9941 8120 M 0 98 R D 10026 8120 M 0 98 R D 10099 8120 M
0 98 R D 10164 8120 M 0 98 R D 10605 8120 M 0 98 R D 10828 8120 M 0 98 R D
10987 8120 M 0 98 R D 11110 8120 M 0 98 R D 11211 8120 M 0 98 R D
11296 8120 M 0 98 R D 11369 8120 M 0 98 R D 11434 8120 M 0 98 R D
11875 8120 M 0 98 R D 12098 8120 M 0 98 R D 12257 8120 M 0 98 R D
12380 8120 M 0 98 R D 7300 13020 M 5080 0 R D 7682 13020 M 0 -196 R D
8952 13020 M 0 -196 R D 10222 13020 M 0 -196 R D 11492 13020 M 0 -196 R D
7300 13020 M 0 -98 R D 7401 13020 M 0 -98 R D 7486 13020 M 0 -98 R D
7559 13020 M 0 -98 R D 7624 13020 M 0 -98 R D 8065 13020 M 0 -98 R D
8288 13020 M 0 -98 R D 8447 13020 M 0 -98 R D 8570 13020 M 0 -98 R D
8671 13020 M 0 -98 R D 8756 13020 M 0 -98 R D 8829 13020 M 0 -98 R D
8894 13020 M 0 -98 R D 9335 13020 M 0 -98 R D 9558 13020 M 0 -98 R D
9717 13020 M 0 -98 R D 9840 13020 M 0 -98 R D 9941 13020 M 0 -98 R D
10026 13020 M 0 -98 R D 10099 13020 M 0 -98 R D 10164 13020 M 0 -98 R D
10605 13020 M 0 -98 R D 10828 13020 M 0 -98 R D 10987 13020 M 0 -98 R D
11110 13020 M 0 -98 R D 11211 13020 M 0 -98 R D 11296 13020 M 0 -98 R D
11369 13020 M 0 -98 R D 11434 13020 M 0 -98 R D 11875 13020 M 0 -98 R D
12098 13020 M 0 -98 R D 12257 13020 M 0 -98 R D 12380 13020 M 0 -98 R D
7300 8120 M 0 4900 R D 7300 8120 M 203 0 R D gsave 7166 8120 translate 0 0 M
1.21 dup scale -117.687 0 N
( ) show grestore 7300 9184 M 203 0 R D gsave 7166 9014 translate 0 0 M
1.21 dup scale -117.687 0 N
( ) show grestore 7300 10249 M 203 0 R D gsave 7166 10079 translate 0 0 M
1.21 dup scale -117.687 0 N
( ) show grestore 7300 11314 M 203 0 R D gsave 7166 11144 translate 0 0 M
1.21 dup scale -117.687 0 N
( ) show grestore 7300 12379 M 203 0 R D gsave 7166 12209 translate 0 0 M
1.21 dup scale -117.687 0 N
( ) show grestore 7300 8440 M 102 0 R D 7300 8628 M 102 0 R D 7300 8761 M
102 0 R D 7300 8864 M 102 0 R D 7300 8948 M 102 0 R D 7300 9020 M 102 0 R D
7300 9081 M 102 0 R D 7300 9136 M 102 0 R D 7300 9505 M 102 0 R D
7300 9693 M 102 0 R D 7300 9826 M 102 0 R D 7300 9929 M 102 0 R D
7300 10013 M 102 0 R D 7300 10084 M 102 0 R D 7300 10146 M 102 0 R D
7300 10201 M 102 0 R D 7300 10570 M 102 0 R D 7300 10757 M 102 0 R D
7300 10890 M 102 0 R D 7300 10994 M 102 0 R D 7300 11078 M 102 0 R D
7300 11149 M 102 0 R D 7300 11211 M 102 0 R D 7300 11265 M 102 0 R D
7300 11635 M 102 0 R D 7300 11822 M 102 0 R D 7300 11955 M 102 0 R D
7300 12058 M 102 0 R D 7300 12143 M 102 0 R D 7300 12214 M 102 0 R D
7300 12276 M 102 0 R D 7300 12330 M 102 0 R D 7300 12700 M 102 0 R D
7300 12887 M 102 0 R D 7300 13020 M 102 0 R D 12380 8120 M 0 4900 R D
12380 8120 M -203 0 R D 12380 9184 M -203 0 R D 12380 10249 M -203 0 R D
12380 11314 M -203 0 R D 12380 12379 M -203 0 R D 12380 8440 M -101 0 R D
12380 8628 M -101 0 R D 12380 8761 M -101 0 R D 12380 8864 M -101 0 R D
12380 8948 M -101 0 R D 12380 9020 M -101 0 R D 12380 9081 M -101 0 R D
12380 9136 M -101 0 R D 12380 9505 M -101 0 R D 12380 9693 M -101 0 R D
12380 9826 M -101 0 R D 12380 9929 M -101 0 R D 12380 10013 M -101 0 R D
12380 10084 M -101 0 R D 12380 10146 M -101 0 R D 12380 10201 M -101 0 R D
12380 10570 M -101 0 R D 12380 10757 M -101 0 R D 12380 10890 M -101 0 R D
12380 10994 M -101 0 R D 12380 11078 M -101 0 R D 12380 11149 M -101 0 R D
12380 11211 M -101 0 R D 12380 11265 M -101 0 R D 12380 11635 M -101 0 R D
12380 11822 M -101 0 R D 12380 11955 M -101 0 R D 12380 12058 M -101 0 R D
12380 12143 M -101 0 R D 12380 12214 M -101 0 R D 12380 12276 M -101 0 R D
12380 12330 M -101 0 R D 12380 12700 M -101 0 R D 12380 12887 M -101 0 R D
12380 13020 M -101 0 R D L5 7682 11850 M 381 -223 R 381 -243 R 381 -267 R
381 -278 R 381 -260 R 381 -275 R 381 -277 R 381 -236 R 381 -277 R 381 -273 R
D L1 7682 12272 M 381 -275 R 381 -260 R 381 -291 R 381 -316 R 381 -280 R
381 -261 R 381 -340 R 381 -341 R 381 -307 R 381 -58 R D L2 7682 11964 M
381 -249 R 381 -298 R 381 -254 R 381 -336 R 381 -213 R 381 -247 R 381 -359 R
381 -356 R 381 -212 R 381 37 R D L3 7682 11703 M 381 -254 R 381 -292 R
381 -272 R 381 -225 R 381 -293 R 381 -258 R 381 -277 R 381 -355 R 381 -77 R
381 40 R D gsave 9840 6860 translate 0 0 M 1.1 dup scale -411.48 0 N
(m/M) show grestore L5 7554 8512 M 112 0 R 112 0 R 111 0 R 112 0 R 112 0 R
112 0 R 111 0 R 112 0 R 112 0 R D gsave 8672 8438 translate 0 0 M
1.1 dup scale
(evolved,SIM) show grestore gsave 11618 12285 translate 0 0 M 1.1 dup scale
(b) show grestore L0 12380 8120 M 5080 0 R D 12762 8120 M 0 196 R D
gsave 12762 7481 translate 0 0 M 1.21 dup scale -352.04 0 N
(10) show X 192.937 M
%%IncludeResource: font Helvetica
262.467 /Helvetica STDFONT
(-4) show grestore
%%IncludeResource: font Helvetica
423.333 /Helvetica STDFONT 14032 8120 M 0 196 R D
gsave 14032 7481 translate 0 0 M 1.21 dup scale -352.04 0 N
(10) show X 192.937 M
%%IncludeResource: font Helvetica
262.467 /Helvetica STDFONT
(-3) show grestore
%%IncludeResource: font Helvetica
423.333 /Helvetica STDFONT 15302 8120 M 0 196 R D
gsave 15302 7481 translate 0 0 M 1.21 dup scale -352.04 0 N
(10) show X 192.937 M
%%IncludeResource: font Helvetica
262.467 /Helvetica STDFONT
(-2) show grestore
%%IncludeResource: font Helvetica
423.333 /Helvetica STDFONT 16572 8120 M 0 196 R D
gsave 16572 7481 translate 0 0 M 1.21 dup scale -352.04 0 N
(10) show X 192.937 M
%%IncludeResource: font Helvetica
262.467 /Helvetica STDFONT
(-1) show grestore
%%IncludeResource: font Helvetica
423.333 /Helvetica STDFONT 12380 8120 M 0 98 R D 12481 8120 M 0 98 R D
12566 8120 M 0 98 R D 12639 8120 M 0 98 R D 12704 8120 M 0 98 R D
13145 8120 M 0 98 R D 13368 8120 M 0 98 R D 13527 8120 M 0 98 R D
13650 8120 M 0 98 R D 13751 8120 M 0 98 R D 13836 8120 M 0 98 R D
13909 8120 M 0 98 R D 13974 8120 M 0 98 R D 14415 8120 M 0 98 R D
14638 8120 M 0 98 R D 14797 8120 M 0 98 R D 14920 8120 M 0 98 R D
15021 8120 M 0 98 R D 15106 8120 M 0 98 R D 15179 8120 M 0 98 R D
15244 8120 M 0 98 R D 15685 8120 M 0 98 R D 15908 8120 M 0 98 R D
16067 8120 M 0 98 R D 16190 8120 M 0 98 R D 16291 8120 M 0 98 R D
16376 8120 M 0 98 R D 16449 8120 M 0 98 R D 16514 8120 M 0 98 R D
16955 8120 M 0 98 R D 17178 8120 M 0 98 R D 17337 8120 M 0 98 R D
17460 8120 M 0 98 R D 12380 13020 M 5080 0 R D 12762 13020 M 0 -196 R D
14032 13020 M 0 -196 R D 15302 13020 M 0 -196 R D 16572 13020 M 0 -196 R D
12380 13020 M 0 -98 R D 12481 13020 M 0 -98 R D 12566 13020 M 0 -98 R D
12639 13020 M 0 -98 R D 12704 13020 M 0 -98 R D 13145 13020 M 0 -98 R D
13368 13020 M 0 -98 R D 13527 13020 M 0 -98 R D 13650 13020 M 0 -98 R D
13751 13020 M 0 -98 R D 13836 13020 M 0 -98 R D 13909 13020 M 0 -98 R D
13974 13020 M 0 -98 R D 14415 13020 M 0 -98 R D 14638 13020 M 0 -98 R D
14797 13020 M 0 -98 R D 14920 13020 M 0 -98 R D 15021 13020 M 0 -98 R D
15106 13020 M 0 -98 R D 15179 13020 M 0 -98 R D 15244 13020 M 0 -98 R D
15685 13020 M 0 -98 R D 15908 13020 M 0 -98 R D 16067 13020 M 0 -98 R D
16190 13020 M 0 -98 R D 16291 13020 M 0 -98 R D 16376 13020 M 0 -98 R D
16449 13020 M 0 -98 R D 16514 13020 M 0 -98 R D 16955 13020 M 0 -98 R D
17178 13020 M 0 -98 R D 17337 13020 M 0 -98 R D 17460 13020 M 0 -98 R D
12380 8120 M 0 4900 R D 12380 8120 M 203 0 R D
gsave 12246 8120 translate 0 0 M 1.21 dup scale -117.687 0 N
( ) show grestore 12380 9184 M 203 0 R D gsave 12246 9014 translate 0 0 M
1.21 dup scale -117.687 0 N
( ) show grestore 12380 10249 M 203 0 R D gsave 12246 10079 translate 0 0 M
1.21 dup scale -117.687 0 N
( ) show grestore 12380 11314 M 203 0 R D gsave 12246 11144 translate 0 0 M
1.21 dup scale -117.687 0 N
( ) show grestore 12380 12379 M 203 0 R D gsave 12246 12209 translate 0 0 M
1.21 dup scale -117.687 0 N
( ) show grestore 12380 8440 M 102 0 R D 12380 8628 M 102 0 R D 12380 8761 M
102 0 R D 12380 8864 M 102 0 R D 12380 8948 M 102 0 R D 12380 9020 M 102 0 R
D 12380 9081 M 102 0 R D 12380 9136 M 102 0 R D 12380 9505 M 102 0 R D
12380 9693 M 102 0 R D 12380 9826 M 102 0 R D 12380 9929 M 102 0 R D
12380 10013 M 102 0 R D 12380 10084 M 102 0 R D 12380 10146 M 102 0 R D
12380 10201 M 102 0 R D 12380 10570 M 102 0 R D 12380 10757 M 102 0 R D
12380 10890 M 102 0 R D 12380 10994 M 102 0 R D 12380 11078 M 102 0 R D
12380 11149 M 102 0 R D 12380 11211 M 102 0 R D 12380 11265 M 102 0 R D
12380 11635 M 102 0 R D 12380 11822 M 102 0 R D 12380 11955 M 102 0 R D
12380 12058 M 102 0 R D 12380 12143 M 102 0 R D 12380 12214 M 102 0 R D
12380 12276 M 102 0 R D 12380 12330 M 102 0 R D 12380 12700 M 102 0 R D
12380 12887 M 102 0 R D 12380 13020 M 102 0 R D 17460 8120 M 0 4900 R D
17460 8120 M -203 0 R D 17460 9184 M -203 0 R D 17460 10249 M -203 0 R D
17460 11314 M -203 0 R D 17460 12379 M -203 0 R D 17460 8440 M -101 0 R D
17460 8628 M -101 0 R D 17460 8761 M -101 0 R D 17460 8864 M -101 0 R D
17460 8948 M -101 0 R D 17460 9020 M -101 0 R D 17460 9081 M -101 0 R D
17460 9136 M -101 0 R D 17460 9505 M -101 0 R D 17460 9693 M -101 0 R D
17460 9826 M -101 0 R D 17460 9929 M -101 0 R D 17460 10013 M -101 0 R D
17460 10084 M -101 0 R D 17460 10146 M -101 0 R D 17460 10201 M -101 0 R D
17460 10570 M -101 0 R D 17460 10757 M -101 0 R D 17460 10890 M -101 0 R D
17460 10994 M -101 0 R D 17460 11078 M -101 0 R D 17460 11149 M -101 0 R D
17460 11211 M -101 0 R D 17460 11265 M -101 0 R D 17460 11635 M -101 0 R D
17460 11822 M -101 0 R D 17460 11955 M -101 0 R D 17460 12058 M -101 0 R D
17460 12143 M -101 0 R D 17460 12214 M -101 0 R D 17460 12276 M -101 0 R D
17460 12330 M -101 0 R D 17460 12700 M -101 0 R D 17460 12887 M -101 0 R D
17460 13020 M -101 0 R D L5 12762 11850 M 381 -223 R 381 -243 R 381 -267 R
381 -278 R 381 -260 R 381 -275 R 381 -277 R 381 -236 R 381 -277 R 381 -273 R
D L1 12762 11906 M 381 -241 R 381 -296 R 381 -270 R 381 -276 R 381 -292 R
381 -263 R 381 -320 R 381 -548 R 381 40 R 381 0 R D L2 12762 11904 M
381 -259 R 381 -293 R 381 -279 R 381 -259 R 381 -329 R 381 -271 R 381 -279 R
381 -579 R 381 84 R 381 -40 R D L3 12762 11964 M 381 -244 R 381 -301 R
381 -253 R 381 -329 R 381 -245 R 381 -241 R 381 -403 R 381 -405 R 381 -236 R
381 133 R D L5 12634 8512 M 112 0 R 112 0 R 111 0 R 112 0 R 112 0 R 112 0 R
111 0 R 112 0 R 112 0 R D gsave 13752 8438 translate 0 0 M 1.1 dup scale
(evolved,SIM) show grestore gsave 16698 12285 translate 0 0 M 1.1 dup scale
(c) show grestore gsave 720 3990 translate 0 0 M 90 rotate 1.1 dup scale
-1255.42 0 N
(N\(<r\)/N\(<R) show X -101.051 M
%%IncludeResource: font Helvetica
262.467 /Helvetica STDFONT
(vir) show X 0 M
%%IncludeResource: font Helvetica
423.333 /Helvetica STDFONT
(\)) show grestore L0 2220 1540 M 5080 0 R D 3395 1540 M 0 196 R D
gsave 3395 901 translate 0 0 M 1.21 dup scale -294.217 0 N
(0.1) show grestore 7300 1540 M 0 196 R D gsave 7300 901 translate 0 0 M
1.21 dup scale -294.217 0 N
(1.0) show grestore 2220 1540 M 0 98 R D 2529 1540 M 0 98 R D 2791 1540 M
0 98 R D 3017 1540 M 0 98 R D 3217 1540 M 0 98 R D 4571 1540 M 0 98 R D
5258 1540 M 0 98 R D 5746 1540 M 0 98 R D 6125 1540 M 0 98 R D 6434 1540 M
0 98 R D 6695 1540 M 0 98 R D 6922 1540 M 0 98 R D 7121 1540 M 0 98 R D
2220 6440 M 5080 0 R D 3395 6440 M 0 -196 R D 7300 6440 M 0 -196 R D
2220 6440 M 0 -98 R D 2529 6440 M 0 -98 R D 2791 6440 M 0 -98 R D
3017 6440 M 0 -98 R D 3217 6440 M 0 -98 R D 4571 6440 M 0 -98 R D
5258 6440 M 0 -98 R D 5746 6440 M 0 -98 R D 6125 6440 M 0 -98 R D
6434 6440 M 0 -98 R D 6695 6440 M 0 -98 R D 6922 6440 M 0 -98 R D
7121 6440 M 0 -98 R D 2220 1540 M 0 4900 R D 2220 2539 M 203 0 R D
gsave 2086 2369 translate 0 0 M 1.21 dup scale -823.807 0 N
(0.01) show grestore 2220 4450 M 203 0 R D gsave 2086 4280 translate 0 0 M
1.21 dup scale -823.807 0 N
(0.10) show grestore 2220 6361 M 203 0 R D gsave 2086 6142 translate 0 0 M
1.21 dup scale -823.807 0 N
(1.00) show grestore 2220 1540 M 102 0 R D 2220 1779 M 102 0 R D 2220 1964 M
102 0 R D 2220 2115 M 102 0 R D 2220 2243 M 102 0 R D 2220 2354 M 102 0 R D
2220 2452 M 102 0 R D 2220 3114 M 102 0 R D 2220 3451 M 102 0 R D
2220 3690 M 102 0 R D 2220 3875 M 102 0 R D 2220 4026 M 102 0 R D
2220 4154 M 102 0 R D 2220 4265 M 102 0 R D 2220 4363 M 102 0 R D
2220 5025 M 102 0 R D 2220 5362 M 102 0 R D 2220 5601 M 102 0 R D
2220 5786 M 102 0 R D 2220 5937 M 102 0 R D 2220 6065 M 102 0 R D
2220 6176 M 102 0 R D 2220 6274 M 102 0 R D 7300 1540 M 0 4900 R D
7300 2539 M -203 0 R D 7300 4450 M -203 0 R D 7300 6361 M -203 0 R D
7300 1540 M -102 0 R D 7300 1779 M -102 0 R D 7300 1964 M -102 0 R D
7300 2115 M -102 0 R D 7300 2243 M -102 0 R D 7300 2354 M -102 0 R D
7300 2452 M -102 0 R D 7300 3114 M -102 0 R D 7300 3451 M -102 0 R D
7300 3690 M -102 0 R D 7300 3875 M -102 0 R D 7300 4026 M -102 0 R D
7300 4154 M -102 0 R D 7300 4265 M -102 0 R D 7300 4363 M -102 0 R D
7300 5025 M -102 0 R D 7300 5362 M -102 0 R D 7300 5601 M -102 0 R D
7300 5786 M -102 0 R D 7300 5937 M -102 0 R D 7300 6065 M -102 0 R D
7300 6176 M -102 0 R D 7300 6274 M -102 0 R D 2220 4146 M 742 509 R
867 477 R 868 414 R 868 345 R 867 266 R 868 204 R D 2962 3907 M 111 0 R
0 -222 R -222 0 R 0 222 R 222 0 R D 3829 4818 M 111 0 R 0 -222 R -222 0 R
0 222 R 222 0 R D 4697 5730 M 111 0 R 0 -222 R -222 0 R 0 222 R 222 0 R D
5565 6154 M 111 0 R 0 -222 R -222 0 R 0 222 R 222 0 R D 6432 6350 M 111 0 R
0 -222 R -222 0 R 0 222 R 222 0 R D 7300 6250 M -111 0 R 0 190 R D
30 setlinewidth 2319 1539 M 643 1183 R 867 1124 R 868 938 R 868 684 R
867 499 R 868 394 R D 2230 1539 M 732 930 R 867 1034 R 868 941 R 868 815 R
867 650 R 868 452 R D 2311 1622 M 0 25 R D 2420 1840 M 0 -54 R D 2528 2040 M
0 -115 R D 2637 2226 M 0 -163 R D 2745 2401 M 0 -202 R D 2853 2565 M
0 -230 R D 2962 2722 M 0 -253 R D 3070 2871 M 0 -270 R D 3179 3017 M
0 -284 R D 3288 3159 M 0 -295 R D 3397 3299 M 0 -305 R D 3505 3438 M
0 -315 R D 3613 3575 M 0 -325 R D 3721 3711 M 0 -334 R D 3829 3846 M
0 -343 R D 3938 3979 M 0 -351 R D 4046 4108 M 0 -357 R D 4155 4232 M
0 -361 R D 4263 4351 M 0 -361 R D 4371 4466 M 0 -360 R D 4480 4576 M
0 -355 R D 4588 4682 M 0 -349 R D 4697 4784 M 0 -340 R D 4806 4883 M
0 -330 R D 4916 4978 M 0 -317 R D 5025 5069 M 0 -304 R D 5133 5156 M
0 -288 R D 5242 5239 M 0 -271 R D 5350 5318 M 0 -251 R D 5457 5395 M
0 -231 R D 5565 5468 M 0 -209 R D 5672 5538 M 0 -186 R D 5779 5606 M
0 -163 R D 5887 5671 M 0 -141 R D 5995 5735 M 0 -121 R D 6103 5795 M
0 -102 R D 6212 5854 M 0 -85 R D 6322 5911 M 0 -70 R D 6432 5967 M 0 -58 R D
6544 6021 M 0 -47 R D 6656 6074 M 0 -38 R D 6767 6125 M 0 -29 R D
6878 6175 M 0 -22 R D 6986 6223 M 0 -16 R D 7093 6270 M 0 -10 R D
7197 6316 M 0 -5 R D 7300 6361 M Z 40 setlinewidth 5878 2876 M 111 0 R
0 -222 R -222 0 R 0 222 R 222 0 R -111 0 R D 5989 2876 M 0 -222 R -222 0 R
0 222 R 222 0 R D gsave 6132 2691 translate 0 0 M 1.1 dup scale
(MW) show grestore 5522 2373 M 61 0 R 61 0 R 61 0 R 61 0 R 61 0 R 61 0 R
61 0 R 61 0 R 61 0 R D gsave 6132 2299 translate 0 0 M 1.1 dup scale
(M2) show grestore 30 setlinewidth 5522 2079 M 51 0 R 51 0 R 50 0 R 51 0 R
51 0 R 51 0 R 51 0 R 50 0 R 51 0 R 51 0 R 51 0 R D 5522 1785 M 51 0 R 51 0 R
50 0 R 51 0 R 51 0 R 51 0 R 51 0 R 50 0 R 51 0 R 51 0 R 51 0 R D 5522 2079 M
0 -294 R D 5598 2079 M 0 -294 R D 5674 2079 M 0 -294 R D 5751 2079 M
0 -294 R D 5827 2079 M 0 -294 R D 5903 2079 M 0 -294 R D 5979 2079 M
0 -294 R D 6055 2079 M 0 -294 R D gsave 6132 1785 translate 0 0 M
1.1 dup scale
(SIM) show grestore gsave 2728 5705 translate 0 0 M 1.1 dup scale
(d) show grestore 40 setlinewidth 7300 1540 M 5080 0 R D 8475 1540 M 0 196 R
D gsave 8475 901 translate 0 0 M 1.21 dup scale -294.217 0 N
(0.1) show grestore 12380 1540 M 0 196 R D gsave 12380 901 translate 0 0 M
1.21 dup scale -294.217 0 N
(1.0) show grestore 7300 1540 M 0 98 R D 7609 1540 M 0 98 R D 7871 1540 M
0 98 R D 8097 1540 M 0 98 R D 8297 1540 M 0 98 R D 9651 1540 M 0 98 R D
10338 1540 M 0 98 R D 10826 1540 M 0 98 R D 11205 1540 M 0 98 R D
11514 1540 M 0 98 R D 11775 1540 M 0 98 R D 12002 1540 M 0 98 R D
12201 1540 M 0 98 R D 7300 6440 M 5080 0 R D 8475 6440 M 0 -196 R D
12380 6440 M 0 -196 R D 7300 6440 M 0 -98 R D 7609 6440 M 0 -98 R D
7871 6440 M 0 -98 R D 8097 6440 M 0 -98 R D 8297 6440 M 0 -98 R D
9651 6440 M 0 -98 R D 10338 6440 M 0 -98 R D 10826 6440 M 0 -98 R D
11205 6440 M 0 -98 R D 11514 6440 M 0 -98 R D 11775 6440 M 0 -98 R D
12002 6440 M 0 -98 R D 12201 6440 M 0 -98 R D 7300 1540 M 0 4900 R D
7300 2539 M 203 0 R D gsave 7166 2369 translate 0 0 M 1.21 dup scale
-117.687 0 N
( ) show grestore 7300 4450 M 203 0 R D gsave 7166 4280 translate 0 0 M
1.21 dup scale -117.687 0 N
( ) show grestore 7300 6361 M 203 0 R D gsave 7166 6142 translate 0 0 M
1.21 dup scale -117.687 0 N
( ) show grestore 7300 1540 M 102 0 R D 7300 1779 M 102 0 R D 7300 1964 M
102 0 R D 7300 2115 M 102 0 R D 7300 2243 M 102 0 R D 7300 2354 M 102 0 R D
7300 2452 M 102 0 R D 7300 3114 M 102 0 R D 7300 3451 M 102 0 R D
7300 3690 M 102 0 R D 7300 3875 M 102 0 R D 7300 4026 M 102 0 R D
7300 4154 M 102 0 R D 7300 4265 M 102 0 R D 7300 4363 M 102 0 R D
7300 5025 M 102 0 R D 7300 5362 M 102 0 R D 7300 5601 M 102 0 R D
7300 5786 M 102 0 R D 7300 5937 M 102 0 R D 7300 6065 M 102 0 R D
7300 6176 M 102 0 R D 7300 6274 M 102 0 R D 12380 1540 M 0 4900 R D
12380 2539 M -203 0 R D 12380 4450 M -203 0 R D 12380 6361 M -203 0 R D
12380 1540 M -101 0 R D 12380 1779 M -101 0 R D 12380 1964 M -101 0 R D
12380 2115 M -101 0 R D 12380 2243 M -101 0 R D 12380 2354 M -101 0 R D
12380 2452 M -101 0 R D 12380 3114 M -101 0 R D 12380 3451 M -101 0 R D
12380 3690 M -101 0 R D 12380 3875 M -101 0 R D 12380 4026 M -101 0 R D
12380 4154 M -101 0 R D 12380 4265 M -101 0 R D 12380 4363 M -101 0 R D
12380 5025 M -101 0 R D 12380 5362 M -101 0 R D 12380 5601 M -101 0 R D
12380 5786 M -101 0 R D 12380 5937 M -101 0 R D 12380 6065 M -101 0 R D
12380 6176 M -101 0 R D 12380 6274 M -101 0 R D L1 7300 4362 M 742 429 R
867 431 R 868 376 R 868 311 R 867 264 R 868 188 R D L2 7300 4393 M 742 419 R
867 428 R 868 368 R 868 317 R 867 245 R 868 191 R D L3 7300 4375 M 742 426 R
867 430 R 868 379 R 868 312 R 867 244 R 868 195 R D
gsave 9840 280 translate 0 0 M 1.1 dup scale -420.603 0 N
(r/R) show X -101.051 M
%%IncludeResource: font Helvetica
262.467 /Helvetica STDFONT
(vir) show grestore
%%IncludeResource: font Helvetica
423.333 /Helvetica STDFONT L1 9840 2912 M 76 0 R 76 0 R 77 0 R 76 0 R 76 0 R
76 0 R 76 0 R 77 0 R 76 0 R D L2 9840 2520 M 76 0 R 76 0 R 77 0 R 76 0 R
76 0 R 76 0 R 76 0 R 77 0 R 76 0 R D L3 9840 2128 M 76 0 R 76 0 R 77 0 R
76 0 R 76 0 R 76 0 R 76 0 R 77 0 R 76 0 R D gsave 10602 2838 translate 0 0 M
1.1 dup scale
(A=1) show grestore gsave 10602 2446 translate 0 0 M 1.1 dup scale
(A=3.5) show grestore gsave 10602 2054 translate 0 0 M 1.1 dup scale
(A=10) show grestore gsave 7808 5705 translate 0 0 M 1.1 dup scale
(e) show grestore L0 12380 1540 M 5080 0 R D 13556 1540 M 0 196 R D
gsave 13556 901 translate 0 0 M 1.21 dup scale -294.217 0 N
(0.1) show grestore 17460 1540 M 0 196 R D gsave 17460 901 translate 0 0 M
1.21 dup scale -294.217 0 N
(1.0) show grestore 12380 1540 M 0 98 R D 12689 1540 M 0 98 R D 12951 1540 M
0 98 R D 13177 1540 M 0 98 R D 13377 1540 M 0 98 R D 14731 1540 M 0 98 R D
15419 1540 M 0 98 R D 15906 1540 M 0 98 R D 16285 1540 M 0 98 R D
16594 1540 M 0 98 R D 16855 1540 M 0 98 R D 17082 1540 M 0 98 R D
17282 1540 M 0 98 R D 12380 6440 M 5080 0 R D 13556 6440 M 0 -196 R D
17460 6440 M 0 -196 R D 12380 6440 M 0 -98 R D 12689 6440 M 0 -98 R D
12951 6440 M 0 -98 R D 13177 6440 M 0 -98 R D 13377 6440 M 0 -98 R D
14731 6440 M 0 -98 R D 15419 6440 M 0 -98 R D 15906 6440 M 0 -98 R D
16285 6440 M 0 -98 R D 16594 6440 M 0 -98 R D 16855 6440 M 0 -98 R D
17082 6440 M 0 -98 R D 17282 6440 M 0 -98 R D 12380 1540 M 0 4900 R D
12380 2539 M 203 0 R D gsave 12246 2369 translate 0 0 M 1.21 dup scale
-117.687 0 N
( ) show grestore 12380 4450 M 203 0 R D gsave 12246 4280 translate 0 0 M
1.21 dup scale -117.687 0 N
( ) show grestore 12380 6361 M 203 0 R D gsave 12246 6142 translate 0 0 M
1.21 dup scale -117.687 0 N
( ) show grestore 12380 1540 M 102 0 R D 12380 1779 M 102 0 R D 12380 1964 M
102 0 R D 12380 2115 M 102 0 R D 12380 2243 M 102 0 R D 12380 2354 M 102 0 R
D 12380 2452 M 102 0 R D 12380 3114 M 102 0 R D 12380 3451 M 102 0 R D
12380 3690 M 102 0 R D 12380 3875 M 102 0 R D 12380 4026 M 102 0 R D
12380 4154 M 102 0 R D 12380 4265 M 102 0 R D 12380 4363 M 102 0 R D
12380 5025 M 102 0 R D 12380 5362 M 102 0 R D 12380 5601 M 102 0 R D
12380 5786 M 102 0 R D 12380 5937 M 102 0 R D 12380 6065 M 102 0 R D
12380 6176 M 102 0 R D 12380 6274 M 102 0 R D 17460 1540 M 0 4900 R D
17460 2539 M -203 0 R D 17460 4450 M -203 0 R D 17460 6361 M -203 0 R D
17460 1540 M -101 0 R D 17460 1779 M -101 0 R D 17460 1964 M -101 0 R D
17460 2115 M -101 0 R D 17460 2243 M -101 0 R D 17460 2354 M -101 0 R D
17460 2452 M -101 0 R D 17460 3114 M -101 0 R D 17460 3451 M -101 0 R D
17460 3690 M -101 0 R D 17460 3875 M -101 0 R D 17460 4026 M -101 0 R D
17460 4154 M -101 0 R D 17460 4265 M -101 0 R D 17460 4363 M -101 0 R D
17460 5025 M -101 0 R D 17460 5362 M -101 0 R D 17460 5601 M -101 0 R D
17460 5786 M -101 0 R D 17460 5937 M -101 0 R D 17460 6065 M -101 0 R D
17460 6176 M -101 0 R D 17460 6274 M -101 0 R D L1 12380 4343 M 742 436 R
867 426 R 868 388 R 868 319 R 867 251 R 868 198 R D L2 12380 4336 M
742 423 R 867 445 R 868 387 R 868 319 R 867 252 R 868 199 R D L3
12380 4387 M 742 413 R 867 429 R 868 376 R 868 316 R 867 247 R 868 193 R D
L1 14920 2912 M 76 0 R 77 0 R 76 0 R 76 0 R 76 0 R 76 0 R 77 0 R 76 0 R
76 0 R D L2 14920 2520 M 76 0 R 77 0 R 76 0 R 76 0 R 76 0 R 76 0 R 77 0 R
76 0 R 76 0 R D L3 14920 2128 M 76 0 R 77 0 R 76 0 R 76 0 R 76 0 R 76 0 R
77 0 R 76 0 R 76 0 R D gsave 15682 2838 translate 0 0 M 1.1 dup scale
(ln) show
%%IncludeResource: font Symbol
423.333 /Symbol STDFONT
(L) show
%%IncludeResource: font Helvetica
423.333 /Helvetica STDFONT
(=3) show grestore gsave 15682 2446 translate 0 0 M 1.1 dup scale
(ln) show
%%IncludeResource: font Symbol
423.333 /Symbol STDFONT
(L) show
%%IncludeResource: font Helvetica
423.333 /Helvetica STDFONT
(=4) show grestore gsave 15682 2054 translate 0 0 M 1.1 dup scale
(ln) show
%%IncludeResource: font Symbol
423.333 /Symbol STDFONT
(L) show
%%IncludeResource: font Helvetica
423.333 /Helvetica STDFONT
(=5) show grestore gsave 12888 5705 translate 0 0 M 1.1 dup scale
(f) show grestore
%%PageTrailer
end
%%PageResources: font Helvetica
%%+ font Symbol
%%Trailer
%%Pages: 1
%%DocumentNeededResources: font Helvetica
%%+ font Symbol
%%EOF
