\relax 
\@writefile{toc}{\contentsline {section}{\numberline {1}Response to the Reviewer}{1}}
\@writefile{toc}{\contentsline {subsection}{\numberline {1.1}Response to the Major Points}{1}}
\@writefile{toc}{\contentsline {subsection}{\numberline {1.2}Response to the Minor Points}{3}}
\@writefile{toc}{\contentsline {subsection}{\numberline {1.3}Additional Comments}{4}}
\@writefile{toc}{\contentsline {section}{\numberline {2}List of Modifications}{4}}
