%!PS-Adobe-3.0 EPSF-3.0
%%BoundingBox: 0 0 311 170
%%Title: Graphics produced by IDL
%%For: dacia@linux-4r0t, /home/dacia/work/subhalo_model
%%Creator: IDL Version 7.0 (linux x86_64 m64)
%%CreationDate: Mon Sep 21 22:47:47 2009
%%DocumentData: Clean7bit
%%Requirements: color
%%LanguageLevel: 1
%%PageOrder: Ascend
%%Pages: (atend)
%%DocumentNeededResources: (atend)
%%EndComments
%%BeginProlog
%+ prolog.ps -- Prolog for IDL generated PostScript files
%+ Copyright (c) 1988-2007 ITT Visual Information Solutions. All Rights Reserved.
%v 5
/$IDL_DICT 40 dict def $IDL_DICT begin /bdef { bind def } bind def /C
{currentpoint newpath moveto} bdef /CP {currentpoint} bdef /D {currentpoint
stroke moveto} bdef /F {closepath fill} bdef /K { setgray } bdef /M {moveto}
bdef /N {rmoveto} bdef /P {lineto} bdef /R {rlineto} bdef /S {gsave show
grestore} bdef /X {currentpoint pop} bdef /Z {gsave currentpoint lineto 20
setlinewidth 1 setlinecap stroke grestore} bdef /L0 {[] 0 setdash} bdef /L1
{[40 100] 0 setdash} bdef /L2 {[200 200] 0 setdash} bdef /L3 {[200 100 50
100] 0 setdash} bdef /L4 {[300 100 50 100 50 100 50 100] 0 setdash} bdef /L5
{[400 200] 0 setdash} bdef /STDFONT { findfont exch scalefont setfont } bdef
/ISOFONT { findfont dup length dict begin { 1 index /FID ne {def} {pop pop}
ifelse } forall /Encoding ISOLatin1Encoding def currentdict end /idltmpfont
exch definefont exch scalefont setfont } bdef /ISOBULLET { gsave /Helvetica
findfont exch scalefont setfont (\267) show currentpoint grestore moveto}
bdef /MITERLIMIT { 2.5 setmiterlimit } bdef end
%%EndProlog
%%Page: 0 1
%%PageRequirements: color
%%PageResources: (atend)
%%PageOrientation: Portrait
%%PageBoundingBox: 0 0 311 170
%%BeginPageSetup
$IDL_DICT begin 0.0283465 dup scale MITERLIMIT
%%IncludeResource: font Helvetica
423.333 /Helvetica STDFONT
%%EndPageSetup
0.000 0.000 0.000 setrgbcolor gsave 6215 144 translate 0 0 M -576.368 0 N
(t [Gyr]) show grestore gsave 540 3450 translate 0 0 M 90 rotate
-611.293 0 N
(j\(t\)/j\(0\)) show grestore 40 setlinewidth L0 1650 1200 M 4565 0 R D
1650 1200 M 0 180 R D gsave 1650 672 translate 0 0 M -117.687 0 N
(0) show grestore 2564 1200 M 0 180 R D gsave 2564 672 translate 0 0 M
-117.687 0 N
(2) show grestore 3478 1200 M 0 180 R D gsave 3478 672 translate 0 0 M
-117.687 0 N
(4) show grestore 4392 1200 M 0 180 R D gsave 4392 672 translate 0 0 M
-117.687 0 N
(6) show grestore 5306 1200 M 0 180 R D gsave 5306 672 translate 0 0 M
-117.687 0 N
(8) show grestore 1878 1200 M 0 90 R D 2107 1200 M 0 90 R D 2335 1200 M
0 90 R D 2792 1200 M 0 90 R D 3021 1200 M 0 90 R D 3249 1200 M 0 90 R D
3706 1200 M 0 90 R D 3935 1200 M 0 90 R D 4163 1200 M 0 90 R D 4620 1200 M
0 90 R D 4849 1200 M 0 90 R D 5077 1200 M 0 90 R D 5534 1200 M 0 90 R D
5763 1200 M 0 90 R D 5991 1200 M 0 90 R D 1650 5700 M 4565 0 R D 1650 5700 M
0 -180 R D 2564 5700 M 0 -180 R D 3478 5700 M 0 -180 R D 4392 5700 M
0 -180 R D 5306 5700 M 0 -180 R D 1878 5700 M 0 -90 R D 2107 5700 M 0 -90 R
D 2335 5700 M 0 -90 R D 2792 5700 M 0 -90 R D 3021 5700 M 0 -90 R D
3249 5700 M 0 -90 R D 3706 5700 M 0 -90 R D 3935 5700 M 0 -90 R D
4163 5700 M 0 -90 R D 4620 5700 M 0 -90 R D 4849 5700 M 0 -90 R D
5077 5700 M 0 -90 R D 5534 5700 M 0 -90 R D 5763 5700 M 0 -90 R D
5991 5700 M 0 -90 R D 1650 1200 M 0 4500 R D 1650 2088 M 183 0 R D
gsave 1539 1947 translate 0 0 M -588.433 0 N
(0.2) show grestore 1650 2980 M 183 0 R D gsave 1539 2839 translate 0 0 M
-588.433 0 N
(0.4) show grestore 1650 3871 M 183 0 R D gsave 1539 3731 translate 0 0 M
-588.433 0 N
(0.6) show grestore 1650 4763 M 183 0 R D gsave 1539 4623 translate 0 0 M
-588.433 0 N
(0.8) show grestore 1650 5655 M 183 0 R D gsave 1539 5454 translate 0 0 M
-588.433 0 N
(1.0) show grestore 1650 1419 M 91 0 R D 1650 1642 M 91 0 R D 1650 1865 M
91 0 R D 1650 2311 M 91 0 R D 1650 2534 M 91 0 R D 1650 2757 M 91 0 R D
1650 3203 M 91 0 R D 1650 3426 M 91 0 R D 1650 3648 M 91 0 R D 1650 4094 M
91 0 R D 1650 4317 M 91 0 R D 1650 4540 M 91 0 R D 1650 4986 M 91 0 R D
1650 5209 M 91 0 R D 1650 5432 M 91 0 R D 6215 1200 M 0 4500 R D 6215 2088 M
-183 0 R D 6215 2980 M -183 0 R D 6215 3871 M -183 0 R D 6215 4763 M
-183 0 R D 6215 5655 M -183 0 R D 6215 1419 M -91 0 R D 6215 1642 M -91 0 R
D 6215 1865 M -91 0 R D 6215 2311 M -91 0 R D 6215 2534 M -91 0 R D
6215 2757 M -91 0 R D 6215 3203 M -91 0 R D 6215 3426 M -91 0 R D
6215 3648 M -91 0 R D 6215 4094 M -91 0 R D 6215 4317 M -91 0 R D
6215 4540 M -91 0 R D 6215 4986 M -91 0 R D 6215 5209 M -91 0 R D
6215 5432 M -91 0 R D L5 1650 5655 M 457 -223 R 457 -758 R 457 -580 R
457 -223 R 457 -624 R 457 -580 R 457 -713 R 457 -535 R 457 -219 R D L0
0.761 0.000 0.000 setrgbcolor 1650 5655 M 46 -47 R 155 -188 R 171 -307 R
72 -190 R 64 -195 R 54 -150 R 52 -112 R 44 -73 R 71 -97 R 72 -83 R 79 -82 R
80 -78 R 148 -138 R 183 -168 R 161 -156 R 64 -71 R 43 -57 R 45 -70 R
37 -72 R 34 -73 R 29 -54 R 29 -40 R 30 -32 R 38 -31 R 52 -34 R 77 -44 R
101 -54 R 141 -74 R 46 -25 R 43 -26 R 36 -26 R 31 -25 R 27 -28 R 25 -27 R
22 -20 R 21 -13 R 22 -11 R 29 -11 R 39 -11 R 57 -15 R 91 -21 R 107 -24 R
37 -8 R 38 -10 R 32 -10 R 27 -9 R 24 -10 R 22 -9 R 19 -6 R 18 -5 R 21 -3 R
25 -3 R 35 -3 R 51 -4 R 81 -6 R 113 -7 R 33 -3 R 35 -2 R 30 -3 R 25 -3 R
23 -2 R 21 -2 R 17 -2 R 18 -1 R 20 -1 R 26 -1 R 36 -1 R 55 -1 R 87 -2 R
77 -2 R 37 -1 R 36 -1 R 30 -1 R 25 -1 R 23 -1 R 21 -1 R 18 -1 R 18 0 R
19 -1 R 24 0 R 34 -1 R 49 0 R 78 -1 R 113 -2 R 32 0 R 34 -1 R 29 0 R 24 -1 R
22 0 R 21 -1 R 19 0 R 17 -1 R 21 0 R 7 0 R D L1
0.000 0.549 0.000 setrgbcolor 1650 5655 M 46 -41 R 155 -161 R 171 -264 R
72 -162 R 65 -165 R 54 -124 R 53 -90 R 60 -77 R 56 -59 R 71 -64 R 134 -103 R
183 -130 R 182 -125 R 183 -126 R 147 -112 R 65 -59 R 51 -55 R 44 -58 R
41 -66 R 37 -57 R 35 -44 R 33 -30 R 39 -27 R 53 -29 R 75 -34 R 113 -47 R
183 -71 R 146 -60 R 38 -17 R 47 -25 R 39 -24 R 33 -26 R 32 -28 R 27 -22 R
26 -15 R 27 -12 R 34 -11 R 44 -12 R 66 -15 R 103 -21 R 177 -35 R 53 -11 R
45 -10 R 40 -10 R 34 -11 R 29 -11 R 28 -12 R 24 -9 R 23 -6 R 24 -5 R 30 -4 R
41 -4 R 59 -6 R 93 -7 R 160 -12 R 44 -4 R 44 -3 R 39 -4 R 33 -3 R 28 -4 R
27 -4 R 23 -2 R 23 -2 R 22 -1 R 29 -2 R 37 -1 R 55 -1 R 86 -3 R 146 -3 R
6 -1 R D L2 0.000 0.000 1.000 setrgbcolor 1650 5655 M 46 -61 R 157 -241 R
92 -187 R 62 -159 R 69 -223 R 64 -258 R 55 -230 R 52 -184 R 45 -122 R
61 -139 R 79 -149 R 87 -150 R 121 -194 R 141 -219 R 66 -108 R 48 -86 R
36 -74 R 36 -89 R 27 -80 R 24 -78 R 21 -57 R 20 -41 R 23 -34 R 28 -34 R
38 -37 R 57 -48 R 90 -71 R 37 -29 R 32 -26 R 26 -25 R 22 -23 R 19 -23 R
18 -24 R 15 -19 R 15 -14 R 14 -9 R 18 -8 R 23 -7 R 33 -9 R 50 -12 R 82 -18 R
24 -5 R 24 -6 R 19 -5 R 17 -5 R 15 -5 R 14 -3 R 14 -3 R 13 -1 R 16 -2 R
21 -1 R 28 -2 R 45 -3 R 74 -3 R 25 -2 R 24 -1 R 21 -2 R 16 -1 R 16 -2 R
14 -1 R 14 -1 R 12 -1 R 15 0 R 17 -1 R 27 0 R 39 -1 R 63 -1 R 34 -1 R
26 -1 R 22 0 R 18 -1 R 16 0 R 15 -1 R 13 0 R 13 -1 R 13 0 R 14 0 R 21 -1 R
29 0 R 46 -1 R 74 0 R 23 -1 R 24 0 R 19 0 R 16 -1 R 15 0 R 14 0 R 13 -1 R
12 0 R 15 0 R 19 0 R 28 -1 R 42 0 R 67 0 R 27 -1 R 25 0 R 21 0 R 17 0 R
13 0 R 15 -1 R 13 0 R 12 0 R 12 0 R 16 0 R 21 -1 R 31 0 R 48 0 R 79 -1 R
21 0 R 21 0 R 18 0 R 16 0 R 14 -1 R 13 0 R 12 0 R 13 0 R 16 0 R 22 0 R
32 -1 R 49 0 R 66 0 R 23 -1 R 23 0 R 18 0 R 16 0 R 15 0 R 13 0 R 12 -1 R
13 0 R 15 0 R 21 0 R 29 0 R 46 0 R 74 -1 R 23 0 R 22 0 R 19 0 R 16 0 R
15 -1 R 13 0 R 13 0 R 12 0 R 15 0 R 20 0 R 28 -1 R 44 0 R 7 0 R D L0
0.761 0.000 0.000 setrgbcolor 3933 4800 M 82 0 R 82 0 R 82 0 R 82 0 R 82 0 R
83 0 R 82 0 R 82 0 R 82 0 R D L1 0.000 0.549 0.000 setrgbcolor 3933 4440 M
82 0 R 82 0 R 82 0 R 82 0 R 82 0 R 83 0 R 82 0 R 82 0 R 82 0 R D L2
0.000 0.000 1.000 setrgbcolor 3933 4080 M 82 0 R 82 0 R 82 0 R 82 0 R 82 0 R
83 0 R 82 0 R 82 0 R 82 0 R D 0.761 0.000 0.000 setrgbcolor
gsave 4754 4642 translate 0 0 M
( 3.60) show grestore 0.000 0.549 0.000 setrgbcolor
gsave 4754 4282 translate 0 0 M
( 3.10) show grestore 0.000 0.000 1.000 setrgbcolor
gsave 4754 3922 translate 0 0 M
( 4.60) show grestore 0.000 0.000 0.000 setrgbcolor
gsave 5759 5115 translate 0 0 M -852.17 0 N
(ln) show
%%IncludeResource: font Symbol
423.333 /Symbol STDFONT
(L) show
%%IncludeResource: font Helvetica
423.333 /Helvetica STDFONT
(=) show grestore L0 6215 1200 M 4565 0 R D 6215 1200 M 0 180 R D
gsave 6215 672 translate 0 0 M -117.687 0 N
(0) show grestore 7129 1200 M 0 180 R D gsave 7129 672 translate 0 0 M
-117.687 0 N
(2) show grestore 8043 1200 M 0 180 R D gsave 8043 672 translate 0 0 M
-117.687 0 N
(4) show grestore 8957 1200 M 0 180 R D gsave 8957 672 translate 0 0 M
-117.687 0 N
(6) show grestore 9871 1200 M 0 180 R D gsave 9871 672 translate 0 0 M
-117.687 0 N
(8) show grestore 6444 1200 M 0 90 R D 6672 1200 M 0 90 R D 6900 1200 M
0 90 R D 7357 1200 M 0 90 R D 7586 1200 M 0 90 R D 7814 1200 M 0 90 R D
8271 1200 M 0 90 R D 8500 1200 M 0 90 R D 8728 1200 M 0 90 R D 9185 1200 M
0 90 R D 9414 1200 M 0 90 R D 9642 1200 M 0 90 R D 10099 1200 M 0 90 R D
10328 1200 M 0 90 R D 10556 1200 M 0 90 R D 6215 5700 M 4565 0 R D
6215 5700 M 0 -180 R D 7129 5700 M 0 -180 R D 8043 5700 M 0 -180 R D
8957 5700 M 0 -180 R D 9871 5700 M 0 -180 R D 6444 5700 M 0 -90 R D
6672 5700 M 0 -90 R D 6900 5700 M 0 -90 R D 7357 5700 M 0 -90 R D
7586 5700 M 0 -90 R D 7814 5700 M 0 -90 R D 8271 5700 M 0 -90 R D
8500 5700 M 0 -90 R D 8728 5700 M 0 -90 R D 9185 5700 M 0 -90 R D
9414 5700 M 0 -90 R D 9642 5700 M 0 -90 R D 10099 5700 M 0 -90 R D
10328 5700 M 0 -90 R D 10556 5700 M 0 -90 R D 6215 1200 M 0 4500 R D
6215 2088 M 183 0 R D gsave 6104 1947 translate 0 0 M -117.687 0 N
( ) show grestore 6215 2980 M 183 0 R D gsave 6104 2839 translate 0 0 M
-117.687 0 N
( ) show grestore 6215 3871 M 183 0 R D gsave 6104 3731 translate 0 0 M
-117.687 0 N
( ) show grestore 6215 4763 M 183 0 R D gsave 6104 4623 translate 0 0 M
-117.687 0 N
( ) show grestore 6215 5655 M 183 0 R D gsave 6104 5454 translate 0 0 M
-117.687 0 N
( ) show grestore 6215 1419 M 91 0 R D 6215 1642 M 91 0 R D 6215 1865 M
91 0 R D 6215 2311 M 91 0 R D 6215 2534 M 91 0 R D 6215 2757 M 91 0 R D
6215 3203 M 91 0 R D 6215 3426 M 91 0 R D 6215 3648 M 91 0 R D 6215 4094 M
91 0 R D 6215 4317 M 91 0 R D 6215 4540 M 91 0 R D 6215 4986 M 91 0 R D
6215 5209 M 91 0 R D 6215 5432 M 91 0 R D 10780 1200 M 0 4500 R D
10780 2088 M -182 0 R D 10780 2980 M -182 0 R D 10780 3871 M -182 0 R D
10780 4763 M -182 0 R D 10780 5655 M -182 0 R D 10780 1419 M -91 0 R D
10780 1642 M -91 0 R D 10780 1865 M -91 0 R D 10780 2311 M -91 0 R D
10780 2534 M -91 0 R D 10780 2757 M -91 0 R D 10780 3203 M -91 0 R D
10780 3426 M -91 0 R D 10780 3648 M -91 0 R D 10780 4094 M -91 0 R D
10780 4317 M -91 0 R D 10780 4540 M -91 0 R D 10780 4986 M -91 0 R D
10780 5209 M -91 0 R D 10780 5432 M -91 0 R D L5 6215 5655 M 457 -223 R
457 -758 R 457 -580 R 457 -223 R 457 -624 R 457 -580 R 457 -713 R 457 -535 R
457 -219 R D L0 0.761 0.000 0.000 setrgbcolor 6215 5655 M 46 -40 R
155 -158 R 91 -122 R 71 -123 R 48 -105 R 68 -181 R 59 -169 R 57 -139 R
56 -106 R 68 -105 R 70 -90 R 74 -86 R 100 -108 R 116 -120 R 183 -183 R
183 -187 R 76 -86 R 49 -63 R 59 -93 R 37 -78 R 35 -89 R 30 -84 R 29 -67 R
27 -47 R 33 -45 R 42 -48 R 61 -57 R 69 -58 R 103 -84 R 78 -64 R 36 -31 R
55 -53 R 26 -32 R 24 -34 R 22 -38 R 20 -36 R 17 -26 R 16 -18 R 19 -17 R
25 -16 R 35 -18 R 52 -24 R 83 -34 R 46 -19 R 32 -14 R 30 -13 R 25 -13 R
21 -13 R 18 -13 R 17 -13 R 15 -10 R 14 -8 R 15 -5 R 18 -4 R 24 -5 R 35 -6 R
55 -7 R 91 -13 R 24 -3 R 35 -6 R 21 -4 R 18 -4 R 17 -4 R 15 -4 R 13 -2 R
12 -2 R 14 -2 R 19 -1 R 25 -2 R 37 -2 R 60 -3 R 74 -4 R 24 -2 R 26 -1 R
21 -2 R 17 -1 R 17 -2 R 15 -2 R 12 -1 R 12 -1 R 14 -1 R 18 0 R 24 -1 R
37 -1 R 57 -2 R 76 -2 R 24 -1 R 25 0 R 20 -1 R 18 -1 R 16 -1 R 14 -1 R
12 -1 R 12 0 R 12 -1 R 17 0 R 24 -1 R 35 0 R 55 -1 R 94 -2 R 20 0 R 23 -1 R
19 -1 R 16 0 R 15 -1 R 14 0 R 13 -1 R 12 0 R 16 -1 R 21 0 R 29 -1 R 46 0 R
76 -1 R 25 -1 R 28 0 R 1 -1 R D L1 0.000 0.549 0.000 setrgbcolor 6215 5655 M
46 -33 R 153 -131 R 67 -72 R 43 -54 R 35 -50 R 34 -57 R 44 -83 R 73 -168 R
58 -135 R 56 -105 R 60 -88 R 56 -66 R 69 -71 R 77 -70 R 84 -72 R 149 -119 R
183 -141 R 182 -140 R 183 -151 R 62 -60 R 75 -90 R 42 -65 R 39 -79 R
36 -79 R 30 -59 R 29 -45 R 35 -42 R 45 -42 R 62 -48 R 91 -63 R 133 -84 R
182 -118 R 29 -21 R 61 -50 R 30 -32 R 28 -35 R 26 -41 R 23 -33 R 22 -25 R
22 -19 R 27 -18 R 36 -19 R 53 -23 R 83 -32 R 139 -53 R 27 -10 R 38 -16 R
32 -16 R 27 -15 R 23 -15 R 22 -18 R 19 -15 R 19 -11 R 17 -7 R 21 -6 R
27 -6 R 40 -7 R 60 -10 R 99 -14 R 31 -4 R 33 -5 R 35 -5 R 30 -5 R 25 -5 R
21 -5 R 21 -5 R 17 -5 R 17 -3 R 16 -2 R 20 -2 R 25 -2 R 36 -2 R 56 -3 R
91 -5 R 37 -2 R 33 -2 R 33 -2 R 29 -2 R 24 -2 R 21 -2 R 19 -2 R 18 -2 R
16 -1 R 16 -1 R 18 -1 R 25 -1 R 35 -2 R 54 -1 R 88 -3 R 39 -1 R 23 -1 R D L2
0.000 0.000 1.000 setrgbcolor 6215 5655 M 46 -53 R 158 -215 R 172 -351 R
26 -78 R 26 -86 R 24 -86 R 59 -240 R 58 -232 R 53 -173 R 57 -154 R 73 -163 R
100 -196 R 106 -193 R 118 -204 R 155 -279 R 17 -35 R 19 -39 R 38 -93 R
27 -81 R 25 -91 R 23 -99 R 20 -81 R 19 -63 R 19 -50 R 25 -49 R 33 -54 R
50 -70 R 76 -98 R 28 -35 R 23 -33 R 20 -30 R 16 -29 R 14 -28 R 13 -31 R
11 -28 R 12 -20 R 10 -14 R 12 -11 R 16 -12 R 23 -13 R 34 -15 R 56 -23 R
17 -7 R 16 -7 R 14 -7 R 11 -6 R 11 -7 R 9 -6 R 9 -3 R 8 -3 R 9 -2 R 12 -3 R
17 -2 R 22 -3 R 39 -4 R 33 -4 R 17 -2 R 15 -2 R 12 -2 R 11 -2 R 10 -2 R
8 -2 R 9 -1 R 8 -1 R 9 -1 R 13 -1 R 18 -1 R 27 -1 R 45 -2 R 18 -1 R 17 -1 R
13 0 R 12 -1 R 10 -1 R 9 -1 R 9 -1 R 5 -1 R 5 0 R 8 0 R 10 -1 R 14 0 R
22 -1 R 34 -1 R 39 -1 R 16 -1 R 14 0 R 12 -1 R 10 0 R 5 -1 R 9 0 R 8 -1 R
4 0 R 3 0 R 9 -1 R 10 0 R 14 -1 R 21 0 R 33 -1 R 41 -1 R 15 0 R 14 -1 R
12 0 R 10 -1 R 8 0 R 8 -1 R 7 0 R 8 -1 R 8 0 R 9 0 R 15 -1 R 22 0 R 34 -1 R
34 -1 R 16 0 R 14 -1 R 12 0 R 10 0 R 5 -1 R 6 0 R 7 -1 R 6 0 R 8 0 R 8 -1 R
12 0 R 16 0 R 25 -1 R 39 -1 R 22 0 R 16 -1 R 13 0 R 11 0 R 10 -1 R 8 0 R
8 -1 R 7 0 R 7 0 R 9 -1 R 11 0 R 16 0 R 24 -1 R 39 -1 R 22 0 R 16 0 R
13 -1 R 12 0 R 9 -1 R 9 0 R 9 0 R 7 -1 R 7 0 R 9 0 R 12 -1 R 18 0 R 26 -1 R
43 -1 R 16 0 R 15 0 R 13 0 R 10 -1 R 8 0 R 9 -1 R 7 0 R 7 0 R 6 -1 R 9 0 R
12 0 R 16 -1 R 26 0 R 41 -1 R 17 0 R 15 -1 R 13 0 R 11 0 R 9 -1 R 9 0 R
7 0 R 7 -1 R 7 0 R 9 0 R 12 -1 R 18 0 R 27 -1 R 44 0 R 15 -1 R 14 0 R 12 0 R
9 -1 R 8 0 R 8 0 R 7 -1 R 7 0 R 7 0 R 10 -1 R 13 0 R 19 0 R 30 -1 R 48 -1 R
12 0 R 13 0 R 10 -1 R 9 0 R 8 0 R 8 -1 R 7 0 R 6 0 R 9 -1 R 13 0 R 17 0 R
28 -1 R 44 -1 R 14 0 R 13 0 R 12 -1 R 9 0 R 9 0 R 8 -1 R 7 0 R 7 0 R 7 -1 R
10 0 R 14 0 R 22 -1 R 34 0 R 27 -1 R 7 0 R D L0
0.761 0.000 0.000 setrgbcolor 8498 4800 M 82 0 R 82 0 R 82 0 R 82 0 R 82 0 R
83 0 R 82 0 R 82 0 R 82 0 R D L1 0.000 0.549 0.000 setrgbcolor 8498 4440 M
82 0 R 82 0 R 82 0 R 82 0 R 82 0 R 83 0 R 82 0 R 82 0 R 82 0 R D L2
0.000 0.000 1.000 setrgbcolor 8498 4080 M 82 0 R 82 0 R 82 0 R 82 0 R 82 0 R
83 0 R 82 0 R 82 0 R 82 0 R D 0.761 0.000 0.000 setrgbcolor
gsave 9319 4642 translate 0 0 M
( 0.74) show grestore 0.000 0.549 0.000 setrgbcolor
gsave 9319 4282 translate 0 0 M
( 0.24) show grestore 0.000 0.000 1.000 setrgbcolor
gsave 9319 3922 translate 0 0 M
( 1.74) show grestore 0.000 0.000 0.000 setrgbcolor
gsave 10324 5115 translate 0 0 M -3025.14 0 N
(ln) show
%%IncludeResource: font Symbol
423.333 /Symbol STDFONT
(L) show
%%IncludeResource: font Helvetica
423.333 /Helvetica STDFONT
(=ln[M/m\(t\)]+) show grestore
%%PageTrailer
end
%%PageResources: font Helvetica
%%+ font Symbol
%%Trailer
%%Pages: 1
%%DocumentNeededResources: font Helvetica
%%+ font Symbol
%%EOF
