%!PS-Adobe-3.0 EPSF-3.0
%%BoundingBox: 0 0 311 170
%%Title: Graphics produced by IDL
%%For: dacia@linux-4r0t, /home/dacia/work/subhalo_model
%%Creator: IDL Version 7.0 (linux x86_64 m64)
%%CreationDate: Sun Sep 27 23:53:33 2009
%%DocumentData: Clean7bit
%%Requirements: color
%%LanguageLevel: 1
%%PageOrder: Ascend
%%Pages: (atend)
%%DocumentNeededResources: (atend)
%%EndComments
%%BeginProlog
%+ prolog.ps -- Prolog for IDL generated PostScript files
%+ Copyright (c) 1988-2007 ITT Visual Information Solutions. All Rights Reserved.
%v 5
/$IDL_DICT 40 dict def $IDL_DICT begin /bdef { bind def } bind def /C
{currentpoint newpath moveto} bdef /CP {currentpoint} bdef /D {currentpoint
stroke moveto} bdef /F {closepath fill} bdef /K { setgray } bdef /M {moveto}
bdef /N {rmoveto} bdef /P {lineto} bdef /R {rlineto} bdef /S {gsave show
grestore} bdef /X {currentpoint pop} bdef /Z {gsave currentpoint lineto 20
setlinewidth 1 setlinecap stroke grestore} bdef /L0 {[] 0 setdash} bdef /L1
{[40 100] 0 setdash} bdef /L2 {[200 200] 0 setdash} bdef /L3 {[200 100 50
100] 0 setdash} bdef /L4 {[300 100 50 100 50 100 50 100] 0 setdash} bdef /L5
{[400 200] 0 setdash} bdef /STDFONT { findfont exch scalefont setfont } bdef
/ISOFONT { findfont dup length dict begin { 1 index /FID ne {def} {pop pop}
ifelse } forall /Encoding ISOLatin1Encoding def currentdict end /idltmpfont
exch definefont exch scalefont setfont } bdef /ISOBULLET { gsave /Helvetica
findfont exch scalefont setfont (\267) show currentpoint grestore moveto}
bdef /MITERLIMIT { 2.5 setmiterlimit } bdef end
%%EndProlog
%%Page: 0 1
%%PageRequirements: color
%%PageResources: (atend)
%%PageOrientation: Portrait
%%PageBoundingBox: 0 0 311 170
%%BeginPageSetup
$IDL_DICT begin 0.0283465 dup scale MITERLIMIT
%%IncludeResource: font Helvetica
423.333 /Helvetica STDFONT
%%EndPageSetup
0.000 0.000 0.000 setrgbcolor gsave 6215 144 translate 0 0 M -576.368 0 N
(t [Gyr]) show grestore gsave 540 3450 translate 0 0 M 90 rotate
-611.293 0 N
(j\(t\)/j\(0\)) show grestore 40 setlinewidth L0 1650 1200 M 4565 0 R D
1650 1200 M 0 180 R D gsave 1650 672 translate 0 0 M -117.687 0 N
(0) show grestore 2564 1200 M 0 180 R D gsave 2564 672 translate 0 0 M
-117.687 0 N
(2) show grestore 3478 1200 M 0 180 R D gsave 3478 672 translate 0 0 M
-117.687 0 N
(4) show grestore 4392 1200 M 0 180 R D gsave 4392 672 translate 0 0 M
-117.687 0 N
(6) show grestore 5306 1200 M 0 180 R D gsave 5306 672 translate 0 0 M
-117.687 0 N
(8) show grestore 1878 1200 M 0 90 R D 2107 1200 M 0 90 R D 2335 1200 M
0 90 R D 2792 1200 M 0 90 R D 3021 1200 M 0 90 R D 3249 1200 M 0 90 R D
3706 1200 M 0 90 R D 3935 1200 M 0 90 R D 4163 1200 M 0 90 R D 4620 1200 M
0 90 R D 4849 1200 M 0 90 R D 5077 1200 M 0 90 R D 5534 1200 M 0 90 R D
5763 1200 M 0 90 R D 5991 1200 M 0 90 R D 1650 5700 M 4565 0 R D 1650 5700 M
0 -180 R D 2564 5700 M 0 -180 R D 3478 5700 M 0 -180 R D 4392 5700 M
0 -180 R D 5306 5700 M 0 -180 R D 1878 5700 M 0 -90 R D 2107 5700 M 0 -90 R
D 2335 5700 M 0 -90 R D 2792 5700 M 0 -90 R D 3021 5700 M 0 -90 R D
3249 5700 M 0 -90 R D 3706 5700 M 0 -90 R D 3935 5700 M 0 -90 R D
4163 5700 M 0 -90 R D 4620 5700 M 0 -90 R D 4849 5700 M 0 -90 R D
5077 5700 M 0 -90 R D 5534 5700 M 0 -90 R D 5763 5700 M 0 -90 R D
5991 5700 M 0 -90 R D 1650 1200 M 0 4500 R D 1650 2088 M 183 0 R D
gsave 1539 1947 translate 0 0 M -588.433 0 N
(0.2) show grestore 1650 2980 M 183 0 R D gsave 1539 2839 translate 0 0 M
-588.433 0 N
(0.4) show grestore 1650 3871 M 183 0 R D gsave 1539 3731 translate 0 0 M
-588.433 0 N
(0.6) show grestore 1650 4763 M 183 0 R D gsave 1539 4623 translate 0 0 M
-588.433 0 N
(0.8) show grestore 1650 5655 M 183 0 R D gsave 1539 5454 translate 0 0 M
-588.433 0 N
(1.0) show grestore 1650 1419 M 91 0 R D 1650 1642 M 91 0 R D 1650 1865 M
91 0 R D 1650 2311 M 91 0 R D 1650 2534 M 91 0 R D 1650 2757 M 91 0 R D
1650 3203 M 91 0 R D 1650 3426 M 91 0 R D 1650 3648 M 91 0 R D 1650 4094 M
91 0 R D 1650 4317 M 91 0 R D 1650 4540 M 91 0 R D 1650 4986 M 91 0 R D
1650 5209 M 91 0 R D 1650 5432 M 91 0 R D 6215 1200 M 0 4500 R D 6215 2088 M
-183 0 R D 6215 2980 M -183 0 R D 6215 3871 M -183 0 R D 6215 4763 M
-183 0 R D 6215 5655 M -183 0 R D 6215 1419 M -91 0 R D 6215 1642 M -91 0 R
D 6215 1865 M -91 0 R D 6215 2311 M -91 0 R D 6215 2534 M -91 0 R D
6215 2757 M -91 0 R D 6215 3203 M -91 0 R D 6215 3426 M -91 0 R D
6215 3648 M -91 0 R D 6215 4094 M -91 0 R D 6215 4317 M -91 0 R D
6215 4540 M -91 0 R D 6215 4986 M -91 0 R D 6215 5209 M -91 0 R D
6215 5432 M -91 0 R D 80 setlinewidth L5 1650 5655 M 457 -223 R 457 -758 R
457 -580 R 457 -223 R 457 -624 R 457 -580 R 457 -713 R 457 -535 R 457 -219 R
D 40 setlinewidth L0 0.761 0.000 0.000 setrgbcolor 1650 5655 M 46 -26 R
155 -103 R 112 -100 R 80 -100 R 72 -125 R 63 -129 R 60 -114 R 58 -88 R
71 -86 R 79 -79 R 112 -97 R 129 -101 R 183 -136 R 182 -131 R 183 -132 R
183 -141 R 76 -71 R 82 -100 R 42 -71 R 41 -93 R 35 -95 R 34 -86 R 32 -66 R
38 -65 R 52 -70 R 73 -84 R 92 -96 R 115 -111 R 120 -117 R 25 -26 R 34 -37 R
48 -60 R 27 -42 R 23 -48 R 23 -59 R 20 -63 R 19 -58 R 17 -44 R 21 -42 R
28 -45 R 39 -53 R 59 -71 R 69 -76 R 49 -54 R 34 -42 R 17 -25 R 16 -28 R
13 -29 R 13 -36 R 11 -38 R 11 -35 R 10 -27 R 12 -26 R 15 -27 R 23 -30 R
34 -40 R 55 -58 R 12 -13 R 13 -16 R 12 -15 R 9 -16 R 8 -15 R 7 -18 R 7 -22 R
7 -22 R 5 -18 R 7 -14 R 8 -15 R 11 -15 R 17 -18 R 27 -25 R 14 -12 R 8 -7 R
7 -8 R 7 -7 R 5 -8 R 5 -7 R 4 -9 R 3 -10 R 4 -14 R 3 -11 R 3 -9 R 4 -8 R
5 -7 R 8 -8 R 13 -9 R 16 -11 R 5 -3 R 4 -4 R 2 -2 R 2 -2 R 2 -3 R 2 -3 R
1 -3 R 1 -5 R 1 -1 R 0 -1 R 0 -1 R 0 -1 R 1 -4 R 0 -2 R 0 -1 R D L1
0.000 0.549 0.000 setrgbcolor 1650 5655 M 46 -19 R 152 -75 R 112 -75 R
55 -48 R 66 -76 R 65 -94 R 65 -94 R 58 -70 R 58 -56 R 64 -50 R 88 -57 R
88 -51 R 183 -93 R 183 -88 R 183 0 R 159 -21 R 169 -81 R 183 -94 R 132 -81 R
65 -51 R 64 -67 R 54 -74 R 46 -77 R 45 -70 R 41 -51 R 51 -49 R 66 -52 R
93 -62 R 143 -84 R 183 -102 R 183 -102 R 111 -69 R 64 -47 R 48 -44 R
38 -46 R 35 -56 R 31 -53 R 29 -46 R 29 -36 R 36 -35 R 48 -38 R 69 -46 R
78 -48 R 93 -53 R 152 -88 R 29 -18 R 43 -29 R 44 -36 R 28 -29 R 26 -35 R
23 -37 R 20 -32 R 19 -25 R 22 -23 R 29 -24 R 38 -26 R 59 -34 R 67 -36 R
91 -48 R 23 -13 R D L2 0.000 0.000 1.000 setrgbcolor 1650 5655 M 46 -39 R
155 -155 R 116 -157 R 76 -145 R 78 -211 R 61 -209 R 58 -193 R 55 -155 R
64 -154 R 87 -180 R 95 -179 R 106 -182 R 173 -286 R 183 -305 R 22 -40 R
27 -54 R 30 -68 R 37 -102 R 25 -94 R 24 -120 R 22 -148 R 21 -162 R 19 -137 R
21 -128 R 26 -135 R 36 -159 R 55 -186 R 13 -40 R 6 -22 R 14 -44 R 5 -21 R
7 -27 R 5 -25 R 5 -26 R 3 -26 R 4 -32 R 3 -48 R 2 -40 R 1 -20 R 0 -1 R D L0
0.761 0.000 0.000 setrgbcolor 3933 4800 M 82 0 R 82 0 R 82 0 R 82 0 R 82 0 R
83 0 R 82 0 R 82 0 R 82 0 R D L1 0.000 0.549 0.000 setrgbcolor 3933 4440 M
82 0 R 82 0 R 82 0 R 82 0 R 82 0 R 83 0 R 82 0 R 82 0 R 82 0 R D L2
0.000 0.000 1.000 setrgbcolor 3933 4080 M 82 0 R 82 0 R 82 0 R 82 0 R 82 0 R
83 0 R 82 0 R 82 0 R 82 0 R D 0.761 0.000 0.000 setrgbcolor
gsave 4754 4642 translate 0 0 M
( 1.97) show grestore 0.000 0.549 0.000 setrgbcolor
gsave 4754 4282 translate 0 0 M
( 1.47) show grestore 0.000 0.000 1.000 setrgbcolor
gsave 4754 3922 translate 0 0 M
( 2.97) show grestore 0.000 0.000 0.000 setrgbcolor
gsave 5759 5115 translate 0 0 M -852.17 0 N
(ln) show
%%IncludeResource: font Symbol
423.333 /Symbol STDFONT
(L) show
%%IncludeResource: font Helvetica
423.333 /Helvetica STDFONT
(=) show grestore L0 6215 1200 M 4565 0 R D 6215 1200 M 0 180 R D
gsave 6215 672 translate 0 0 M -117.687 0 N
(0) show grestore 7129 1200 M 0 180 R D gsave 7129 672 translate 0 0 M
-117.687 0 N
(2) show grestore 8043 1200 M 0 180 R D gsave 8043 672 translate 0 0 M
-117.687 0 N
(4) show grestore 8957 1200 M 0 180 R D gsave 8957 672 translate 0 0 M
-117.687 0 N
(6) show grestore 9871 1200 M 0 180 R D gsave 9871 672 translate 0 0 M
-117.687 0 N
(8) show grestore 6444 1200 M 0 90 R D 6672 1200 M 0 90 R D 6900 1200 M
0 90 R D 7357 1200 M 0 90 R D 7586 1200 M 0 90 R D 7814 1200 M 0 90 R D
8271 1200 M 0 90 R D 8500 1200 M 0 90 R D 8728 1200 M 0 90 R D 9185 1200 M
0 90 R D 9414 1200 M 0 90 R D 9642 1200 M 0 90 R D 10099 1200 M 0 90 R D
10328 1200 M 0 90 R D 10556 1200 M 0 90 R D 6215 5700 M 4565 0 R D
6215 5700 M 0 -180 R D 7129 5700 M 0 -180 R D 8043 5700 M 0 -180 R D
8957 5700 M 0 -180 R D 9871 5700 M 0 -180 R D 6444 5700 M 0 -90 R D
6672 5700 M 0 -90 R D 6900 5700 M 0 -90 R D 7357 5700 M 0 -90 R D
7586 5700 M 0 -90 R D 7814 5700 M 0 -90 R D 8271 5700 M 0 -90 R D
8500 5700 M 0 -90 R D 8728 5700 M 0 -90 R D 9185 5700 M 0 -90 R D
9414 5700 M 0 -90 R D 9642 5700 M 0 -90 R D 10099 5700 M 0 -90 R D
10328 5700 M 0 -90 R D 10556 5700 M 0 -90 R D 6215 1200 M 0 4500 R D
6215 2088 M 183 0 R D gsave 6104 1947 translate 0 0 M -117.687 0 N
( ) show grestore 6215 2980 M 183 0 R D gsave 6104 2839 translate 0 0 M
-117.687 0 N
( ) show grestore 6215 3871 M 183 0 R D gsave 6104 3731 translate 0 0 M
-117.687 0 N
( ) show grestore 6215 4763 M 183 0 R D gsave 6104 4623 translate 0 0 M
-117.687 0 N
( ) show grestore 6215 5655 M 183 0 R D gsave 6104 5454 translate 0 0 M
-117.687 0 N
( ) show grestore 6215 1419 M 91 0 R D 6215 1642 M 91 0 R D 6215 1865 M
91 0 R D 6215 2311 M 91 0 R D 6215 2534 M 91 0 R D 6215 2757 M 91 0 R D
6215 3203 M 91 0 R D 6215 3426 M 91 0 R D 6215 3648 M 91 0 R D 6215 4094 M
91 0 R D 6215 4317 M 91 0 R D 6215 4540 M 91 0 R D 6215 4986 M 91 0 R D
6215 5209 M 91 0 R D 6215 5432 M 91 0 R D 10780 1200 M 0 4500 R D
10780 2088 M -182 0 R D 10780 2980 M -182 0 R D 10780 3871 M -182 0 R D
10780 4763 M -182 0 R D 10780 5655 M -182 0 R D 10780 1419 M -91 0 R D
10780 1642 M -91 0 R D 10780 1865 M -91 0 R D 10780 2311 M -91 0 R D
10780 2534 M -91 0 R D 10780 2757 M -91 0 R D 10780 3203 M -91 0 R D
10780 3426 M -91 0 R D 10780 3648 M -91 0 R D 10780 4094 M -91 0 R D
10780 4317 M -91 0 R D 10780 4540 M -91 0 R D 10780 4986 M -91 0 R D
10780 5209 M -91 0 R D 10780 5432 M -91 0 R D 80 setlinewidth L5 6215 5655 M
457 -223 R 457 -758 R 457 -580 R 457 -223 R 457 -624 R 457 -580 R 457 -713 R
457 -535 R 457 -219 R D 40 setlinewidth L0 0.761 0.000 0.000 setrgbcolor
6215 5655 M 46 -19 R 152 -77 R 109 -74 R 80 -75 R 86 -118 R 66 -111 R
62 -95 R 62 -76 R 61 -61 R 68 -58 R 139 -102 R 183 -117 R 183 -111 R
183 -108 R 182 -108 R 183 -112 R 151 -109 R 66 -62 R 50 -61 R 46 -76 R
42 -96 R 37 -94 R 35 -83 R 36 -70 R 46 -73 R 59 -77 R 73 -83 R 81 -86 R
119 -119 R 183 -181 R 32 -34 R 40 -46 R 42 -58 R 29 -51 R 24 -56 R 24 -72 R
20 -81 R 20 -78 R 18 -61 R 22 -62 R 29 -67 R 42 -81 R 63 -108 R 78 -121 R
14 -23 R 23 -39 R 18 -32 R 15 -33 R 13 -34 R 11 -36 R 10 -46 R 10 -64 R
8 -58 R 8 -50 R 9 -48 R 12 -49 R 17 -53 R 26 -62 R 20 -40 R 9 -18 R 6 -13 R
2 -5 R 6 -15 R 2 -6 R 2 -9 R 2 -8 R 2 -9 R 1 -10 R 2 -22 R 0 -2 R 0 -1 R
0 -1 R 0 -1 R D L1 0.000 0.549 0.000 setrgbcolor 6215 5655 M 46 -13 R
152 -51 R 108 -48 R 77 -49 R 75 -65 R 65 -71 R 62 -64 R 60 -50 R 74 -48 R
69 -38 R 81 -37 R 138 -56 R 183 -47 R 176 0 R 182 0 R 183 0 R 183 0 R
183 -20 R 177 -69 R 132 -62 R 75 -45 R 67 -52 R 64 -69 R 56 -74 R 54 -70 R
50 -53 R 61 -52 R 63 -46 R 108 -66 R 155 -83 R 182 -93 R 183 -92 R 183 -94 R
111 -66 R 77 -56 R 52 -52 R 45 -59 R 40 -69 R 34 -60 R 32 -51 R 38 -48 R
48 -50 R 65 -57 R 99 -75 R 125 -88 R 92 -65 R D L2
0.000 0.000 1.000 setrgbcolor 6215 5655 M 46 -33 R 153 -128 R 109 -122 R
79 -125 R 86 -202 R 66 -198 R 61 -175 R 57 -142 R 62 -129 R 71 -130 R
78 -129 R 89 -138 R 125 -183 R 164 -233 R 183 -261 R 50 -79 R 56 -103 R
46 -111 R 28 -91 R 26 -121 R 25 -153 R 24 -172 R 21 -148 R 23 -140 R
29 -151 R 41 -178 R 61 -215 R 19 -60 R 6 -20 R 28 -95 R 3 -12 R 10 -50 R
5 -26 R 4 -32 R 3 -38 R 4 -58 R 2 -54 R 1 -16 R 1 -4 R D L0
0.761 0.000 0.000 setrgbcolor 8498 4800 M 82 0 R 82 0 R 82 0 R 82 0 R 82 0 R
83 0 R 82 0 R 82 0 R 82 0 R D L1 0.000 0.549 0.000 setrgbcolor 8498 4440 M
82 0 R 82 0 R 82 0 R 82 0 R 82 0 R 83 0 R 82 0 R 82 0 R 82 0 R D L2
0.000 0.000 1.000 setrgbcolor 8498 4080 M 82 0 R 82 0 R 82 0 R 82 0 R 82 0 R
83 0 R 82 0 R 82 0 R 82 0 R D 0.761 0.000 0.000 setrgbcolor
gsave 9319 4642 translate 0 0 M
(-0.81) show grestore 0.000 0.549 0.000 setrgbcolor
gsave 9319 4282 translate 0 0 M
(-1.31) show grestore 0.000 0.000 1.000 setrgbcolor
gsave 9319 3922 translate 0 0 M
( 0.19) show grestore 0.000 0.000 0.000 setrgbcolor
gsave 10324 5115 translate 0 0 M -3025.14 0 N
(ln) show
%%IncludeResource: font Symbol
423.333 /Symbol STDFONT
(L) show
%%IncludeResource: font Helvetica
423.333 /Helvetica STDFONT
(=ln[M/m\(t\)]+) show grestore
%%PageTrailer
end
%%PageResources: font Helvetica
%%+ font Symbol
%%Trailer
%%Pages: 1
%%DocumentNeededResources: font Helvetica
%%+ font Symbol
%%EOF
