%!PS-Adobe-3.0 EPSF-3.0
%%BoundingBox: 0 0 283 255
%%Title: Graphics produced by IDL
%%For: dacia@linux-4r0t, /home/dacia/work/subhalo_model
%%Creator: IDL Version 7.0 (linux x86_64 m64)
%%CreationDate: Wed Oct  7 22:08:48 2009
%%DocumentData: Clean7bit
%%Requirements: color
%%LanguageLevel: 1
%%PageOrder: Ascend
%%Pages: (atend)
%%DocumentNeededResources: (atend)
%%EndComments
%%BeginProlog
%+ prolog.ps -- Prolog for IDL generated PostScript files
%+ Copyright (c) 1988-2007 ITT Visual Information Solutions. All Rights Reserved.
%v 5
/$IDL_DICT 40 dict def $IDL_DICT begin /bdef { bind def } bind def /C
{currentpoint newpath moveto} bdef /CP {currentpoint} bdef /D {currentpoint
stroke moveto} bdef /F {closepath fill} bdef /K { setgray } bdef /M {moveto}
bdef /N {rmoveto} bdef /P {lineto} bdef /R {rlineto} bdef /S {gsave show
grestore} bdef /X {currentpoint pop} bdef /Z {gsave currentpoint lineto 20
setlinewidth 1 setlinecap stroke grestore} bdef /L0 {[] 0 setdash} bdef /L1
{[40 100] 0 setdash} bdef /L2 {[200 200] 0 setdash} bdef /L3 {[200 100 50
100] 0 setdash} bdef /L4 {[300 100 50 100 50 100 50 100] 0 setdash} bdef /L5
{[400 200] 0 setdash} bdef /STDFONT { findfont exch scalefont setfont } bdef
/ISOFONT { findfont dup length dict begin { 1 index /FID ne {def} {pop pop}
ifelse } forall /Encoding ISOLatin1Encoding def currentdict end /idltmpfont
exch definefont exch scalefont setfont } bdef /ISOBULLET { gsave /Helvetica
findfont exch scalefont setfont (\267) show currentpoint grestore moveto}
bdef /MITERLIMIT { 2.5 setmiterlimit } bdef end
%%EndProlog
%%Page: 0 1
%%PageRequirements: color
%%PageResources: (atend)
%%PageOrientation: Portrait
%%PageBoundingBox: 0 0 283 255
%%BeginPageSetup
$IDL_DICT begin 0.0283465 dup scale MITERLIMIT
%%IncludeResource: font Helvetica
423.333 /Helvetica STDFONT
%%EndPageSetup
40 setlinewidth L0 0.000 0.000 0.000 setrgbcolor 2100 1620 M 7600 0 R D
2100 1620 M 0 281 R D gsave 2100 860 translate 0 0 M 1.44 dup scale
-117.687 0 N
(0) show grestore 3622 1620 M 0 281 R D gsave 3622 860 translate 0 0 M
1.44 dup scale -117.687 0 N
(2) show grestore 5143 1620 M 0 281 R D gsave 5143 860 translate 0 0 M
1.44 dup scale -117.687 0 N
(4) show grestore 6665 1620 M 0 281 R D gsave 6665 860 translate 0 0 M
1.44 dup scale -117.687 0 N
(6) show grestore 8186 1620 M 0 281 R D gsave 8186 860 translate 0 0 M
1.44 dup scale -117.687 0 N
(8) show grestore 2480 1620 M 0 140 R D 2861 1620 M 0 140 R D 3241 1620 M
0 140 R D 4002 1620 M 0 140 R D 4382 1620 M 0 140 R D 4763 1620 M 0 140 R D
5523 1620 M 0 140 R D 5904 1620 M 0 140 R D 6284 1620 M 0 140 R D
7045 1620 M 0 140 R D 7425 1620 M 0 140 R D 7806 1620 M 0 140 R D
8566 1620 M 0 140 R D 8947 1620 M 0 140 R D 9327 1620 M 0 140 R D
gsave 5900 201 translate 0 0 M 1.44 dup scale -576.368 0 N
(t / Gyr) show grestore 2100 8640 M 7600 0 R D 2100 8640 M 0 -281 R D
3622 8640 M 0 -281 R D 5143 8640 M 0 -281 R D 6665 8640 M 0 -281 R D
8186 8640 M 0 -281 R D 2480 8640 M 0 -140 R D 2861 8640 M 0 -140 R D
3241 8640 M 0 -140 R D 4002 8640 M 0 -140 R D 4382 8640 M 0 -140 R D
4763 8640 M 0 -140 R D 5523 8640 M 0 -140 R D 5904 8640 M 0 -140 R D
6284 8640 M 0 -140 R D 7045 8640 M 0 -140 R D 7425 8640 M 0 -140 R D
7806 8640 M 0 -140 R D 8566 8640 M 0 -140 R D 8947 8640 M 0 -140 R D
9327 8640 M 0 -140 R D 2100 1620 M 0 7020 R D 2100 3005 M 304 0 R D
gsave 1940 2802 translate 0 0 M 1.44 dup scale -588.433 0 N
(0.2) show grestore 2100 4396 M 304 0 R D gsave 1940 4193 translate 0 0 M
1.44 dup scale -588.433 0 N
(0.4) show grestore 2100 5787 M 304 0 R D gsave 1940 5585 translate 0 0 M
1.44 dup scale -588.433 0 N
(0.6) show grestore 2100 7179 M 304 0 R D gsave 1940 6976 translate 0 0 M
1.44 dup scale -588.433 0 N
(0.8) show grestore 2100 8570 M 304 0 R D gsave 1940 8285 translate 0 0 M
1.44 dup scale -588.433 0 N
(1.0) show grestore 2100 1961 M 152 0 R D 2100 2309 M 152 0 R D 2100 2657 M
152 0 R D 2100 3352 M 152 0 R D 2100 3700 M 152 0 R D 2100 4048 M 152 0 R D
2100 4744 M 152 0 R D 2100 5092 M 152 0 R D 2100 5440 M 152 0 R D
2100 6135 M 152 0 R D 2100 6483 M 152 0 R D 2100 6831 M 152 0 R D
2100 7527 M 152 0 R D 2100 7875 M 152 0 R D 2100 8223 M 152 0 R D
gsave 614 5130 translate 0 0 M 90 rotate 1.44 dup scale -611.293 0 N
(j\(t\)/j\(0\)) show grestore 9700 1620 M 0 7020 R D 9700 3005 M -304 0 R D
9700 4396 M -304 0 R D 9700 5787 M -304 0 R D 9700 7179 M -304 0 R D
9700 8570 M -304 0 R D 9700 1961 M -152 0 R D 9700 2309 M -152 0 R D
9700 2657 M -152 0 R D 9700 3352 M -152 0 R D 9700 3700 M -152 0 R D
9700 4048 M -152 0 R D 9700 4744 M -152 0 R D 9700 5092 M -152 0 R D
9700 5440 M -152 0 R D 9700 6135 M -152 0 R D 9700 6483 M -152 0 R D
9700 6831 M -152 0 R D 9700 7527 M -152 0 R D 9700 7875 M -152 0 R D
9700 8223 M -152 0 R D L5 2100 8570 M 761 -347 R 761 -1183 R 760 -905 R
761 -348 R 761 -974 R 761 -904 R 760 -1113 R 761 -835 R 761 -341 R D
30 setlinewidth L0 0.000 0.000 1.000 setrgbcolor 2100 8570 M 76 -41 R
256 -161 R 217 -189 R 134 -160 R 120 -170 R 101 -135 R 97 -97 R 101 -72 R
126 -69 R 136 -59 R 229 -84 R 286 -94 R 305 -67 R 304 0 R 304 -48 R
296 -93 R 304 -107 R 128 -54 R 150 -79 R 99 -68 R 94 -74 R 80 -60 R 77 -45 R
79 -34 R 81 -27 R 98 -27 R 137 -32 R 237 -49 R 304 -59 R 304 -58 R 305 -58 R
304 -66 R 94 -25 R 99 -32 R 84 -34 R 80 -38 R 68 -32 R 66 -24 R 68 -18 R
85 -18 R 113 -18 R 167 -24 R 261 -32 R 305 -37 R 241 -29 R D 70 setlinewidth
2100 8570 M 76 -82 R 259 -324 R 286 -535 R 60 -158 R 37 -109 R 108 -357 R
92 -296 R 88 -228 R 66 -133 R 96 -163 R 106 -156 R 116 -153 R 105 -130 R
130 -154 R 165 -191 R 189 -214 R 168 -197 R 103 -130 R 87 -125 R 64 -110 R
61 -128 R 51 -127 R 45 -109 R 43 -82 R 40 -56 R 49 -52 R 64 -54 R 92 -65 R
141 -90 R 204 -126 R 56 -36 R 59 -42 R 48 -39 R 41 -39 R 37 -42 R 34 -39 R
28 -26 R 28 -19 R 31 -15 R 40 -15 R 53 -15 R 80 -20 R 125 -27 R 111 -24 R
54 -12 R 51 -13 R 42 -11 R 35 -12 R 33 -11 R 29 -10 R 25 -6 R 24 -4 R
28 -4 R 36 -3 R 49 -4 R 74 -5 R 117 -6 R 106 -7 R 52 -3 R 48 -3 R 40 -3 R
33 -4 R 32 -3 R 28 -2 R 27 -2 R 24 -2 R 29 -1 R 36 -1 R 52 -1 R 79 -2 R
126 -3 R 74 -1 R 52 -1 R 48 -1 R 39 -2 R 33 -1 R 31 -1 R 28 -1 R 26 -1 R
25 -1 R 27 0 R 38 -1 R 52 -1 R 79 -1 R 128 -1 R 68 -1 R 53 0 R 46 -1 R
39 -1 R 33 0 R 31 -1 R 27 -1 R 27 0 R 24 0 R 28 -1 R 38 0 R 53 -1 R 81 0 R
131 -1 R 62 -1 R 52 0 R 46 -1 R 38 0 R 33 0 R 30 -1 R 29 0 R 26 -1 R 25 0 R
30 0 R 39 -1 R 56 0 R 86 0 R 141 -1 R 51 -1 R 51 0 R 43 0 R 37 0 R 31 -1 R
25 0 R 23 0 R 16 -1 R D 110 setlinewidth 2100 8570 M 76 -124 R 265 -497 R
110 -256 R 118 -338 R 64 -220 R 69 -277 R 100 -502 R 89 -505 R 75 -400 R
73 -329 R 84 -316 R 84 -280 R 77 -238 R 102 -291 R 166 -442 R 47 -126 R
47 -134 R 38 -121 R 31 -116 R 27 -117 R 26 -127 R 25 -126 R 22 -88 R
22 -59 R 25 -53 R 33 -55 R 48 -65 R 75 -88 R 26 -32 R 23 -29 R 18 -26 R
15 -24 R 15 -25 R 12 -22 R 11 -14 R 11 -10 R 12 -9 R 16 -7 R 21 -8 R 33 -8 R
51 -12 R 26 -6 R 20 -5 R 17 -4 R 14 -4 R 12 -4 R 12 -4 R 9 -2 R 10 -2 R
10 -2 R 14 -1 R 18 -1 R 26 -2 R 42 -2 R 39 -2 R 19 -1 R 19 -2 R 14 -1 R
12 -1 R 11 -1 R 9 -1 R 10 -1 R 10 0 R 10 -1 R 12 0 R 22 -1 R 33 0 R 53 -2 R
19 0 R 18 -1 R 14 0 R 11 -1 R 11 0 R 11 -1 R 10 0 R 8 -1 R 10 0 R 12 0 R
19 -1 R 27 0 R 43 -1 R 32 -1 R 19 0 R 16 0 R 14 -1 R 11 0 R 12 -1 R 10 0 R
9 -1 R 10 0 R 9 0 R 13 0 R 21 -1 R 32 0 R 52 -1 R 19 0 R 17 -1 R 15 0 R
10 0 R 11 -1 R 11 0 R 8 -1 R 9 0 R 10 0 R 12 -1 R 18 0 R 27 0 R 41 -1 R
34 0 R 18 -1 R 16 0 R 13 0 R 12 -1 R 11 0 R 9 0 R 9 -1 R 10 0 R 9 0 R
15 -1 R 22 0 R 33 0 R 52 -1 R 18 0 R 16 -1 R 14 0 R 10 0 R 9 -1 R 11 0 R
10 0 R 9 -1 R 8 0 R 13 0 R 19 -1 R 27 0 R 44 -1 R 27 0 R 18 0 R 16 0 R
13 -1 R 11 0 R 11 0 R 9 -1 R 9 0 R 10 0 R 9 -1 R 16 0 R 22 0 R 35 -1 R
56 0 R 15 -1 R 15 0 R 12 0 R 11 -1 R 11 0 R 9 0 R 8 -1 R 10 0 R 9 0 R 16 0 R
23 -1 R 36 0 R 46 -1 R 17 0 R 16 0 R 13 -1 R 11 0 R 12 0 R 9 -1 R 9 0 R
9 0 R 10 0 R 15 -1 R 23 0 R 34 0 R 49 -1 R 17 0 R 15 0 R 13 -1 R 11 0 R
10 0 R 9 -1 R 9 0 R 9 0 R 10 -1 R 15 0 R 21 0 R 33 0 R 52 -1 R 16 0 R
16 -1 R 12 0 R 11 0 R 11 -1 R 9 0 R 9 0 R 9 0 R 9 -1 R 15 0 R 20 0 R 32 -1 R
51 0 R 16 0 R 16 -1 R 13 0 R 11 0 R 11 -1 R 9 0 R 9 0 R 8 0 R 10 -1 R 13 0 R
19 0 R 30 -1 R 46 0 R 20 0 R 17 -1 R 14 0 R 11 0 R 11 0 R 10 -1 R 8 0 R
8 0 R 9 -1 R 10 0 R 16 0 R 23 0 R 36 -1 R 40 0 R 17 0 R 15 -1 R 13 0 R
11 0 R 10 -1 R 9 0 R 8 0 R 9 0 R 9 -1 R 15 0 R 20 0 R 32 0 R 50 -1 R 16 0 R
15 -1 R 13 0 R 11 0 R 10 0 R 9 -1 R 8 0 R 9 0 R 10 0 R 13 -1 R 20 0 R 29 0 R
48 -1 R 17 0 R 16 0 R 14 -1 R 11 0 R 10 0 R 10 0 R 9 -1 R 8 0 R 10 0 R
11 0 R 18 -1 R 26 0 R 41 0 R 25 -1 R 17 0 R 14 0 R 12 0 R 11 -1 R 10 0 R
8 0 R 8 -1 R 9 0 R 10 0 R 15 0 R 21 -1 R 33 0 R 47 -1 R 15 0 R 15 0 R 12 0 R
11 0 R 10 -1 R 8 0 R 8 0 R 9 -1 R 10 0 R 14 0 R 20 0 R 32 -1 R 50 0 R 15 0 R
14 -1 R 12 0 R 11 0 R 10 0 R 8 -1 R 8 0 R 9 0 R 9 0 R 15 -1 R 20 0 R 31 0 R
50 -1 R 15 0 R 14 0 R 12 -1 R 10 0 R 10 0 R 9 0 R 8 -1 R 8 0 R 10 0 R 14 0 R
20 -1 R 30 0 R 50 0 R 15 -1 R 14 0 R 12 0 R 10 0 R 10 -1 R 9 0 R 8 0 R 8 0 R
10 -1 R 14 0 R 20 0 R 31 -1 R 49 0 R 15 0 R 14 0 R 12 -1 R 10 0 R 10 0 R
8 -1 R 8 0 R 9 0 R 9 0 R 13 0 R 20 -1 R 30 0 R 48 -1 R 15 0 R 14 0 R 12 0 R
11 0 R 9 -1 R 9 0 R 8 0 R 8 -1 R 10 0 R 13 0 R 19 0 R 15 -1 R D
30 setlinewidth 7567 7509 M 65 0 R 65 0 R 66 0 R 65 0 R 65 0 R 66 0 R 65 0 R
66 0 R 65 0 R D 70 setlinewidth 7567 6991 M 65 0 R 65 0 R 66 0 R 65 0 R
65 0 R 66 0 R 65 0 R 66 0 R 65 0 R D 110 setlinewidth 7567 6474 M 65 0 R
65 0 R 66 0 R 65 0 R 65 0 R 66 0 R 65 0 R 66 0 R 65 0 R D
gsave 8220 7357 translate 0 0 M 1.2 dup scale
(2) show grestore gsave 8220 6840 translate 0 0 M 1.2 dup scale
(4) show grestore gsave 8220 6322 translate 0 0 M 1.2 dup scale
(6) show grestore gsave 7567 7897 translate 0 0 M 1.2 dup scale
(ln) show
%%IncludeResource: font Symbol
423.333 /Symbol STDFONT
(L) show
%%IncludeResource: font Helvetica
423.333 /Helvetica STDFONT
(=) show grestore
%%PageTrailer
end
%%PageResources: font Helvetica
%%+ font Symbol
%%Trailer
%%Pages: 1
%%DocumentNeededResources: font Helvetica
%%+ font Symbol
%%EOF
