%!PS-Adobe-3.0 EPSF-3.0
%%BoundingBox: 0 0 283 255
%%Title: Graphics produced by IDL
%%For: dacia@linux-4r0t, /home/dacia/work/subhalo_model
%%Creator: IDL Version 7.0 (linux x86_64 m64)
%%CreationDate: Wed Oct  7 22:08:48 2009
%%DocumentData: Clean7bit
%%Requirements: color
%%LanguageLevel: 1
%%PageOrder: Ascend
%%Pages: (atend)
%%DocumentNeededResources: (atend)
%%EndComments
%%BeginProlog
%+ prolog.ps -- Prolog for IDL generated PostScript files
%+ Copyright (c) 1988-2007 ITT Visual Information Solutions. All Rights Reserved.
%v 5
/$IDL_DICT 40 dict def $IDL_DICT begin /bdef { bind def } bind def /C
{currentpoint newpath moveto} bdef /CP {currentpoint} bdef /D {currentpoint
stroke moveto} bdef /F {closepath fill} bdef /K { setgray } bdef /M {moveto}
bdef /N {rmoveto} bdef /P {lineto} bdef /R {rlineto} bdef /S {gsave show
grestore} bdef /X {currentpoint pop} bdef /Z {gsave currentpoint lineto 20
setlinewidth 1 setlinecap stroke grestore} bdef /L0 {[] 0 setdash} bdef /L1
{[40 100] 0 setdash} bdef /L2 {[200 200] 0 setdash} bdef /L3 {[200 100 50
100] 0 setdash} bdef /L4 {[300 100 50 100 50 100 50 100] 0 setdash} bdef /L5
{[400 200] 0 setdash} bdef /STDFONT { findfont exch scalefont setfont } bdef
/ISOFONT { findfont dup length dict begin { 1 index /FID ne {def} {pop pop}
ifelse } forall /Encoding ISOLatin1Encoding def currentdict end /idltmpfont
exch definefont exch scalefont setfont } bdef /ISOBULLET { gsave /Helvetica
findfont exch scalefont setfont (\267) show currentpoint grestore moveto}
bdef /MITERLIMIT { 2.5 setmiterlimit } bdef end
%%EndProlog
%%Page: 0 1
%%PageRequirements: color
%%PageResources: (atend)
%%PageOrientation: Portrait
%%PageBoundingBox: 0 0 283 255
%%BeginPageSetup
$IDL_DICT begin 0.0283465 dup scale MITERLIMIT
%%IncludeResource: font Helvetica
423.333 /Helvetica STDFONT
%%EndPageSetup
40 setlinewidth L0 0.000 0.000 0.000 setrgbcolor 2100 1620 M 7600 0 R D
2100 1620 M 0 281 R D gsave 2100 860 translate 0 0 M 1.44 dup scale
-117.687 0 N
(0) show grestore 3622 1620 M 0 281 R D gsave 3622 860 translate 0 0 M
1.44 dup scale -117.687 0 N
(2) show grestore 5143 1620 M 0 281 R D gsave 5143 860 translate 0 0 M
1.44 dup scale -117.687 0 N
(4) show grestore 6665 1620 M 0 281 R D gsave 6665 860 translate 0 0 M
1.44 dup scale -117.687 0 N
(6) show grestore 8186 1620 M 0 281 R D gsave 8186 860 translate 0 0 M
1.44 dup scale -117.687 0 N
(8) show grestore 2480 1620 M 0 140 R D 2861 1620 M 0 140 R D 3241 1620 M
0 140 R D 4002 1620 M 0 140 R D 4382 1620 M 0 140 R D 4763 1620 M 0 140 R D
5523 1620 M 0 140 R D 5904 1620 M 0 140 R D 6284 1620 M 0 140 R D
7045 1620 M 0 140 R D 7425 1620 M 0 140 R D 7806 1620 M 0 140 R D
8566 1620 M 0 140 R D 8947 1620 M 0 140 R D 9327 1620 M 0 140 R D
gsave 5900 201 translate 0 0 M 1.44 dup scale -576.368 0 N
(t / Gyr) show grestore 2100 8640 M 7600 0 R D 2100 8640 M 0 -281 R D
3622 8640 M 0 -281 R D 5143 8640 M 0 -281 R D 6665 8640 M 0 -281 R D
8186 8640 M 0 -281 R D 2480 8640 M 0 -140 R D 2861 8640 M 0 -140 R D
3241 8640 M 0 -140 R D 4002 8640 M 0 -140 R D 4382 8640 M 0 -140 R D
4763 8640 M 0 -140 R D 5523 8640 M 0 -140 R D 5904 8640 M 0 -140 R D
6284 8640 M 0 -140 R D 7045 8640 M 0 -140 R D 7425 8640 M 0 -140 R D
7806 8640 M 0 -140 R D 8566 8640 M 0 -140 R D 8947 8640 M 0 -140 R D
9327 8640 M 0 -140 R D 2100 1620 M 0 7020 R D 2100 3005 M 304 0 R D
gsave 1940 2802 translate 0 0 M 1.44 dup scale -588.433 0 N
(0.2) show grestore 2100 4396 M 304 0 R D gsave 1940 4193 translate 0 0 M
1.44 dup scale -588.433 0 N
(0.4) show grestore 2100 5787 M 304 0 R D gsave 1940 5585 translate 0 0 M
1.44 dup scale -588.433 0 N
(0.6) show grestore 2100 7179 M 304 0 R D gsave 1940 6976 translate 0 0 M
1.44 dup scale -588.433 0 N
(0.8) show grestore 2100 8570 M 304 0 R D gsave 1940 8285 translate 0 0 M
1.44 dup scale -588.433 0 N
(1.0) show grestore 2100 1961 M 152 0 R D 2100 2309 M 152 0 R D 2100 2657 M
152 0 R D 2100 3352 M 152 0 R D 2100 3700 M 152 0 R D 2100 4048 M 152 0 R D
2100 4744 M 152 0 R D 2100 5092 M 152 0 R D 2100 5440 M 152 0 R D
2100 6135 M 152 0 R D 2100 6483 M 152 0 R D 2100 6831 M 152 0 R D
2100 7527 M 152 0 R D 2100 7875 M 152 0 R D 2100 8223 M 152 0 R D
gsave 614 5130 translate 0 0 M 90 rotate 1.44 dup scale -611.293 0 N
(j\(t\)/j\(0\)) show grestore 9700 1620 M 0 7020 R D 9700 3005 M -304 0 R D
9700 4396 M -304 0 R D 9700 5787 M -304 0 R D 9700 7179 M -304 0 R D
9700 8570 M -304 0 R D 9700 1961 M -152 0 R D 9700 2309 M -152 0 R D
9700 2657 M -152 0 R D 9700 3352 M -152 0 R D 9700 3700 M -152 0 R D
9700 4048 M -152 0 R D 9700 4744 M -152 0 R D 9700 5092 M -152 0 R D
9700 5440 M -152 0 R D 9700 6135 M -152 0 R D 9700 6483 M -152 0 R D
9700 6831 M -152 0 R D 9700 7527 M -152 0 R D 9700 7875 M -152 0 R D
9700 8223 M -152 0 R D L5 2100 8570 M 761 -347 R 761 -1183 R 760 -905 R
761 -348 R 761 -974 R 761 -904 R 760 -1113 R 761 -835 R 761 -341 R D
30 setlinewidth L0 0.000 0.000 1.000 setrgbcolor 2100 8570 M 76 -47 R
254 -184 R 182 -176 R 128 -173 R 69 -123 R 100 -221 R 105 -266 R 97 -222 R
100 -191 R 126 -200 R 126 -171 R 162 -200 R 234 -269 R 304 -333 R 304 -327 R
240 -277 R 65 -87 R 73 -112 R 80 -160 R 53 -145 R 50 -193 R 45 -218 R
43 -215 R 39 -176 R 48 -184 R 63 -203 R 90 -253 R 139 -337 R 94 -218 R
18 -45 R 27 -73 R 22 -67 R 19 -69 R 15 -73 R 14 -87 R 13 -120 R 12 -176 R
12 -187 R 9 -95 R 9 -47 R 12 -27 R 3 -3 R D 70 setlinewidth 2100 8570 M
76 -47 R 254 -184 R 77 -68 R 80 -80 R 74 -87 R 68 -95 R 105 -178 R
121 -246 R 94 -177 R 91 -136 R 85 -101 R 135 -130 R 137 -111 R 152 -111 R
184 -126 R 304 -198 R 304 -194 R 305 -196 R 261 -185 R 93 -78 R 89 -90 R
61 -74 R 73 -110 R 67 -123 R 58 -104 R 55 -79 R 58 -64 R 73 -62 R 97 -68 R
140 -84 R 221 -121 R 305 -160 R 151 -85 R 110 -71 R 61 -48 R 55 -52 R
49 -59 R 45 -61 R 39 -47 R 37 -34 R 42 -29 R 53 -29 R 73 -32 R 109 -41 R
173 -59 R 209 -70 R 52 -18 R 69 -26 R 59 -25 R 50 -25 R 42 -26 R 40 -29 R
35 -27 R 34 -19 R 31 -13 R 37 -12 R 50 -11 R 69 -12 R 107 -17 R 175 -24 R
93 -13 R 56 -8 R 63 -9 R 53 -9 R 45 -8 R 38 -9 R 36 -9 R 32 -7 R 30 -6 R
30 -3 R 35 -3 R 47 -4 R 67 -4 R 103 -6 R 170 -8 R 74 -4 R 56 -3 R 60 -3 R
52 -4 R 44 -3 R 37 -4 R 26 -3 R D 110 setlinewidth 2100 8570 M 76 -47 R
254 -184 R 48 -42 R 47 -43 R 28 -28 R 22 -23 R 21 -22 R 19 -20 R 17 -20 R
15 -18 R 16 -19 R 22 -27 R 32 -41 R 121 -168 R 109 -144 R 91 -90 R 89 -62 R
105 -52 R 134 -53 R 184 -58 R 280 -74 R 304 -75 R 304 0 R 304 0 R 305 -21 R
304 -76 R 304 -87 R 136 -49 R 113 -52 R 103 -60 R 95 -59 R 81 -42 R 77 -29 R
87 -24 R 112 -25 R 151 -26 R 226 -34 R 304 -41 R 305 -40 R 304 -40 R
304 -42 R 269 -42 R 101 -20 R 100 -25 R 92 -28 R 83 -27 R 69 -16 R 67 -10 R
79 -7 R 101 -7 R 138 -8 R 208 -11 R 305 -13 R 35 -2 R D 30 setlinewidth
2991 3629 M 65 0 R 66 0 R 65 0 R 65 0 R 66 0 R 65 0 R 65 0 R 66 0 R 65 0 R D
70 setlinewidth 2991 3112 M 65 0 R 66 0 R 65 0 R 65 0 R 66 0 R 65 0 R 65 0 R
66 0 R 65 0 R D 110 setlinewidth 2991 2595 M 65 0 R 66 0 R 65 0 R 65 0 R
66 0 R 65 0 R 65 0 R 66 0 R 65 0 R D gsave 3645 3478 translate 0 0 M
1.2 dup scale
(1) show grestore gsave 3645 2960 translate 0 0 M 1.2 dup scale
(3.5) show grestore gsave 3645 2443 translate 0 0 M 1.2 dup scale
(10) show grestore gsave 2991 4017 translate 0 0 M 1.2 dup scale
(A=) show grestore
%%PageTrailer
end
%%PageResources: font Helvetica
%%Trailer
%%Pages: 1
%%DocumentNeededResources: font Helvetica
%%EOF
