%!PS-Adobe-3.0 EPSF-3.0
%%BoundingBox: 0 0 510 340
%%Title: Graphics produced by IDL
%%For: jlgan@aida119, /home/jlgan/work/subhalo_model
%%Creator: IDL Version 7.1 (linux x86_64 m64)
%%CreationDate: Fri Aug 21 21:46:35 2009
%%DocumentData: Clean7bit
%%Requirements: color
%%LanguageLevel: 1
%%PageOrder: Ascend
%%Pages: (atend)
%%DocumentNeededResources: (atend)
%%EndComments
%%BeginProlog
%+ prolog.ps -- Prolog for IDL generated PostScript files
%+ Copyright (c) 1988-2009 ITT Visual Information Solutions. All Rights Reserved.
%v 5
/$IDL_DICT 40 dict def $IDL_DICT begin /bdef { bind def } bind def /C
{currentpoint newpath moveto} bdef /CP {currentpoint} bdef /D {currentpoint
stroke moveto} bdef /F {closepath fill} bdef /K { setgray } bdef /M {moveto}
bdef /N {rmoveto} bdef /P {lineto} bdef /R {rlineto} bdef /S {gsave show
grestore} bdef /X {currentpoint pop} bdef /Z {gsave currentpoint lineto 20
setlinewidth 1 setlinecap stroke grestore} bdef /L0 {[] 0 setdash} bdef /L1
{[40 100] 0 setdash} bdef /L2 {[200 200] 0 setdash} bdef /L3 {[200 100 50
100] 0 setdash} bdef /L4 {[300 100 50 100 50 100 50 100] 0 setdash} bdef /L5
{[400 200] 0 setdash} bdef /STDFONT { findfont exch scalefont setfont } bdef
/ISOFONT { findfont dup length dict begin { 1 index /FID ne {def} {pop pop}
ifelse } forall /Encoding ISOLatin1Encoding def currentdict end /idltmpfont
exch definefont exch scalefont setfont } bdef /ISOBULLET { gsave /Helvetica
findfont exch scalefont setfont (\267) show currentpoint grestore moveto}
bdef /MITERLIMIT { 2.5 setmiterlimit } bdef end
%%EndProlog
%%Page: 0 1
%%PageRequirements: color
%%PageResources: (atend)
%%PageOrientation: Portrait
%%PageBoundingBox: 0 0 510 340
%%BeginPageSetup
$IDL_DICT begin 0.0283465 dup scale MITERLIMIT
%%IncludeResource: font Helvetica
423.333 /Helvetica STDFONT
%%EndPageSetup
40 setlinewidth L0 0.000 0.000 0.000 setrgbcolor 2664 1690 M 14537 0 R D
2664 1690 M 0 378 R D gsave 2664 929 translate 0 0 M 1.44 dup scale
-117.687 0 N
(0) show grestore 4867 1690 M 0 378 R D gsave 4867 929 translate 0 0 M
1.44 dup scale -117.687 0 N
(5) show grestore 7069 1690 M 0 378 R D gsave 7069 929 translate 0 0 M
1.44 dup scale -235.373 0 N
(10) show grestore 9272 1690 M 0 378 R D gsave 9272 929 translate 0 0 M
1.44 dup scale -235.373 0 N
(15) show grestore 11474 1690 M 0 378 R D gsave 11474 929 translate 0 0 M
1.44 dup scale -235.373 0 N
(20) show grestore 13677 1690 M 0 378 R D gsave 13677 929 translate 0 0 M
1.44 dup scale -235.373 0 N
(25) show grestore 15879 1690 M 0 378 R D gsave 15879 929 translate 0 0 M
1.44 dup scale -235.373 0 N
(30) show grestore 3105 1690 M 0 189 R D 3545 1690 M 0 189 R D 3986 1690 M
0 189 R D 4426 1690 M 0 189 R D 5307 1690 M 0 189 R D 5748 1690 M 0 189 R D
6188 1690 M 0 189 R D 6629 1690 M 0 189 R D 7510 1690 M 0 189 R D
7950 1690 M 0 189 R D 8391 1690 M 0 189 R D 8831 1690 M 0 189 R D
9712 1690 M 0 189 R D 10153 1690 M 0 189 R D 10593 1690 M 0 189 R D
11034 1690 M 0 189 R D 11915 1690 M 0 189 R D 12355 1690 M 0 189 R D
12796 1690 M 0 189 R D 13236 1690 M 0 189 R D 14117 1690 M 0 189 R D
14558 1690 M 0 189 R D 14998 1690 M 0 189 R D 15439 1690 M 0 189 R D
16320 1690 M 0 189 R D 16760 1690 M 0 189 R D 17201 1690 M 0 189 R D
2664 11155 M 14537 0 R D 2664 11155 M 0 -378 R D 4867 11155 M 0 -378 R D
7069 11155 M 0 -378 R D 9272 11155 M 0 -378 R D 11474 11155 M 0 -378 R D
13677 11155 M 0 -378 R D 15879 11155 M 0 -378 R D 3105 11155 M 0 -189 R D
3545 11155 M 0 -189 R D 3986 11155 M 0 -189 R D 4426 11155 M 0 -189 R D
5307 11155 M 0 -189 R D 5748 11155 M 0 -189 R D 6188 11155 M 0 -189 R D
6629 11155 M 0 -189 R D 7510 11155 M 0 -189 R D 7950 11155 M 0 -189 R D
8391 11155 M 0 -189 R D 8831 11155 M 0 -189 R D 9712 11155 M 0 -189 R D
10153 11155 M 0 -189 R D 10593 11155 M 0 -189 R D 11034 11155 M 0 -189 R D
11915 11155 M 0 -189 R D 12355 11155 M 0 -189 R D 12796 11155 M 0 -189 R D
13236 11155 M 0 -189 R D 14117 11155 M 0 -189 R D 14558 11155 M 0 -189 R D
14998 11155 M 0 -189 R D 15439 11155 M 0 -189 R D 16320 11155 M 0 -189 R D
16760 11155 M 0 -189 R D 17201 11155 M 0 -189 R D 2664 1690 M 0 9465 R D
2664 3065 M 582 0 R D gsave 2504 2863 translate 0 0 M 1.44 dup scale
-235.373 0 N
(2) show grestore 2664 5267 M 582 0 R D gsave 2504 5064 translate 0 0 M
1.44 dup scale -235.373 0 N
(4) show grestore 2664 7468 M 582 0 R D gsave 2504 7265 translate 0 0 M
1.44 dup scale -235.373 0 N
(6) show grestore 2664 9669 M 582 0 R D gsave 2504 9467 translate 0 0 M
1.44 dup scale -235.373 0 N
(8) show grestore 2664 1965 M 291 0 R D 2664 2515 M 291 0 R D 2664 3616 M
291 0 R D 2664 4166 M 291 0 R D 2664 4716 M 291 0 R D 2664 5817 M 291 0 R D
2664 6367 M 291 0 R D 2664 6918 M 291 0 R D 2664 8018 M 291 0 R D
2664 8569 M 291 0 R D 2664 9119 M 291 0 R D 2664 10220 M 291 0 R D
2664 10770 M 291 0 R D 17201 1690 M 0 9465 R D 17201 3065 M -582 0 R D
17201 5267 M -582 0 R D 17201 7468 M -582 0 R D 17201 9669 M -582 0 R D
17201 1965 M -291 0 R D 17201 2515 M -291 0 R D 17201 3616 M -291 0 R D
17201 4166 M -291 0 R D 17201 4716 M -291 0 R D 17201 5817 M -291 0 R D
17201 6367 M -291 0 R D 17201 6918 M -291 0 R D 17201 8018 M -291 0 R D
17201 8569 M -291 0 R D 17201 9119 M -291 0 R D 17201 10220 M -291 0 R D
17201 10770 M -291 0 R D 2994 2515 M 222 0 R -111 0 R 0 111 R 0 -222 R D
3434 2515 M 222 0 R -111 0 R 0 111 R 0 -222 R D 3875 2812 M 222 0 R -111 0 R
0 111 R 0 -222 R D 4315 2845 M 222 0 R -111 0 R 0 111 R 0 -222 R D
4756 3065 M 222 0 R -111 0 R 0 111 R 0 -222 R D 5196 3065 M 222 0 R -111 0 R
0 111 R 0 -222 R D 5637 3242 M 222 0 R -111 0 R 0 111 R 0 -222 R D
6077 3506 M 222 0 R -111 0 R 0 111 R 0 -222 R D 6518 3616 M 222 0 R -111 0 R
0 111 R 0 -222 R D 6958 3836 M 222 0 R -111 0 R 0 111 R 0 -222 R D
7399 4166 M 222 0 R -111 0 R 0 111 R 0 -222 R D 7839 4496 M 222 0 R -111 0 R
0 111 R 0 -222 R D 8280 4606 M 222 0 R -111 0 R 0 111 R 0 -222 R D
8720 4716 M 222 0 R -111 0 R 0 111 R 0 -222 R D 9161 4827 M 222 0 R -111 0 R
0 111 R 0 -222 R D 9601 4827 M 222 0 R -111 0 R 0 111 R 0 -222 R D
10042 4827 M 222 0 R -111 0 R 0 111 R 0 -222 R D 10482 4827 M 222 0 R
-111 0 R 0 111 R 0 -222 R D 10923 5267 M 222 0 R -111 0 R 0 111 R 0 -222 R D
11363 5267 M 222 0 R -111 0 R 0 111 R 0 -222 R D 11804 5487 M 222 0 R
-111 0 R 0 111 R 0 -222 R D 12244 5487 M 222 0 R -111 0 R 0 111 R 0 -222 R D
12685 5487 M 222 0 R -111 0 R 0 111 R 0 -222 R D 13125 5707 M 222 0 R
-111 0 R 0 111 R 0 -222 R D 13566 5817 M 222 0 R -111 0 R 0 111 R 0 -222 R D
14006 6147 M 222 0 R -111 0 R 0 111 R 0 -222 R D 14447 6257 M 222 0 R
-111 0 R 0 111 R 0 -222 R D 14887 6588 M 222 0 R -111 0 R 0 111 R 0 -222 R D
15328 7908 M 222 0 R -111 0 R 0 111 R 0 -222 R D 15768 8789 M 222 0 R
-111 0 R 0 111 R 0 -222 R D 16209 9339 M 222 0 R -111 0 R 0 111 R 0 -222 R D
16649 10220 M 222 0 R -111 0 R 0 111 R 0 -222 R D 3105 2560 M 111 -222 R
-222 0 R 111 222 R D 3545 2164 M 111 -222 R -222 0 R 111 222 R D 3986 2734 M
111 -222 R -222 0 R 111 222 R D 4426 2513 M 111 -222 R -222 0 R 111 222 R D
4867 3024 M 111 -222 R -222 0 R 111 222 R D 5307 3258 M 111 -222 R -222 0 R
111 222 R D 5748 3938 M 111 -222 R -222 0 R 111 222 R D 6188 3403 M
111 -222 R -222 0 R 111 222 R D 6629 3998 M 111 -222 R -222 0 R 111 222 R D
7069 4086 M 111 -222 R -222 0 R 111 222 R D 7510 4807 M 111 -222 R -222 0 R
111 222 R D 7950 4518 M 111 -222 R -222 0 R 111 222 R D 8391 4556 M
111 -222 R -222 0 R 111 222 R D 8831 4453 M 111 -222 R -222 0 R 111 222 R D
9272 5236 M 111 -222 R -222 0 R 111 222 R D 9712 4402 M 111 -222 R -222 0 R
111 222 R D 10153 4428 M 111 -222 R -222 0 R 111 222 R D 10593 4476 M
111 -222 R -222 0 R 111 222 R D 11034 6177 M 111 -222 R -222 0 R 111 222 R D
11474 5366 M 111 -222 R -222 0 R 111 222 R D 11915 5563 M 111 -222 R
-222 0 R 111 222 R D 12355 5986 M 111 -222 R -222 0 R 111 222 R D
12796 5460 M 111 -222 R -222 0 R 111 222 R D 13236 6288 M 111 -222 R
-222 0 R 111 222 R D 13677 7711 M 111 -222 R -222 0 R 111 222 R D
14117 6410 M 111 -222 R -222 0 R 111 222 R D 14558 6627 M 111 -222 R
-222 0 R 111 222 R D 14998 6434 M 111 -222 R -222 0 R 111 222 R D
15439 7395 M 111 -222 R -222 0 R 111 222 R D 15879 8581 M 111 -222 R
-222 0 R 111 222 R D 16320 8884 M 111 -222 R -222 0 R 111 222 R D
16760 9605 M 111 -222 R -222 0 R 111 222 R D
%%PageTrailer
end
%%PageResources: font Helvetica
%%Trailer
%%Pages: 1
%%DocumentNeededResources: font Helvetica
%%EOF
