%!PS-Adobe-3.0 EPSF-3.0
%%BoundingBox: 0 0 425 566
%%Title: Graphics produced by IDL
%%For: jlgan@aida119, /home/jlgan/work/subhalo_model
%%Creator: IDL Version 7.1 (linux x86_64 m64)
%%CreationDate: Thu Aug 20 10:11:45 2009
%%DocumentData: Clean7bit
%%Requirements: color
%%LanguageLevel: 1
%%PageOrder: Ascend
%%Pages: (atend)
%%DocumentNeededResources: (atend)
%%EndComments
%%BeginProlog
%+ prolog.ps -- Prolog for IDL generated PostScript files
%+ Copyright (c) 1988-2009 ITT Visual Information Solutions. All Rights Reserved.
%v 5
/$IDL_DICT 40 dict def $IDL_DICT begin /bdef { bind def } bind def /C
{currentpoint newpath moveto} bdef /CP {currentpoint} bdef /D {currentpoint
stroke moveto} bdef /F {closepath fill} bdef /K { setgray } bdef /M {moveto}
bdef /N {rmoveto} bdef /P {lineto} bdef /R {rlineto} bdef /S {gsave show
grestore} bdef /X {currentpoint pop} bdef /Z {gsave currentpoint lineto 20
setlinewidth 1 setlinecap stroke grestore} bdef /L0 {[] 0 setdash} bdef /L1
{[40 100] 0 setdash} bdef /L2 {[200 200] 0 setdash} bdef /L3 {[200 100 50
100] 0 setdash} bdef /L4 {[300 100 50 100 50 100 50 100] 0 setdash} bdef /L5
{[400 200] 0 setdash} bdef /STDFONT { findfont exch scalefont setfont } bdef
/ISOFONT { findfont dup length dict begin { 1 index /FID ne {def} {pop pop}
ifelse } forall /Encoding ISOLatin1Encoding def currentdict end /idltmpfont
exch definefont exch scalefont setfont } bdef /ISOBULLET { gsave /Helvetica
findfont exch scalefont setfont (\267) show currentpoint grestore moveto}
bdef /MITERLIMIT { 2.5 setmiterlimit } bdef end
%%EndProlog
%%Page: 0 1
%%PageRequirements: color
%%PageResources: (atend)
%%PageOrientation: Portrait
%%PageBoundingBox: 0 0 425 566
%%BeginPageSetup
$IDL_DICT begin 0.0283465 dup scale MITERLIMIT
%%IncludeResource: font Helvetica
423.333 /Helvetica STDFONT
%%EndPageSetup
0.000 0.000 0.000 setrgbcolor gsave 8277 352 translate 0 0 M -576.368 0 N
(t [Gyr]) show grestore gsave 888 10352 translate 0 0 M 90 rotate
-611.293 0 N
(j\(t\)/j\(0\)) show grestore 40 setlinewidth L0 2220 13333 M 6057 0 R D
2220 13333 M 0 239 R D gsave 2220 12805 translate 0 0 M -58.8433 0 N
( ) show grestore 3321 13333 M 0 239 R D gsave 3321 12805 translate 0 0 M
-58.8433 0 N
( ) show grestore 4423 13333 M 0 239 R D gsave 4423 12805 translate 0 0 M
-58.8433 0 N
( ) show grestore 5524 13333 M 0 239 R D gsave 5524 12805 translate 0 0 M
-58.8433 0 N
( ) show grestore 6625 13333 M 0 239 R D gsave 6625 12805 translate 0 0 M
-58.8433 0 N
( ) show grestore 7726 13333 M 0 239 R D gsave 7726 12805 translate 0 0 M
-58.8433 0 N
( ) show grestore 2495 13333 M 0 120 R D 2771 13333 M 0 120 R D 3046 13333 M
0 120 R D 3597 13333 M 0 120 R D 3872 13333 M 0 120 R D 4147 13333 M 0 120 R
D 4698 13333 M 0 120 R D 4973 13333 M 0 120 R D 5249 13333 M 0 120 R D
5799 13333 M 0 120 R D 6075 13333 M 0 120 R D 6350 13333 M 0 120 R D
6900 13333 M 0 120 R D 7176 13333 M 0 120 R D 7451 13333 M 0 120 R D
8002 13333 M 0 120 R D 8277 13333 M 0 120 R D 2220 19296 M 6057 0 R D
2220 19296 M 0 -238 R D 3321 19296 M 0 -238 R D 4423 19296 M 0 -238 R D
5524 19296 M 0 -238 R D 6625 19296 M 0 -238 R D 7726 19296 M 0 -238 R D
2495 19296 M 0 -119 R D 2771 19296 M 0 -119 R D 3046 19296 M 0 -119 R D
3597 19296 M 0 -119 R D 3872 19296 M 0 -119 R D 4147 19296 M 0 -119 R D
4698 19296 M 0 -119 R D 4973 19296 M 0 -119 R D 5249 19296 M 0 -119 R D
5799 19296 M 0 -119 R D 6075 19296 M 0 -119 R D 6350 19296 M 0 -119 R D
6900 19296 M 0 -119 R D 7176 19296 M 0 -119 R D 7451 19296 M 0 -119 R D
8002 19296 M 0 -119 R D 8277 19296 M 0 -119 R D 2220 13333 M 0 5963 R D
2220 14413 M 242 0 R D gsave 2109 14272 translate 0 0 M -588.433 0 N
(0.2) show grestore 2220 15498 M 242 0 R D gsave 2109 15357 translate 0 0 M
-588.433 0 N
(0.4) show grestore 2220 16583 M 242 0 R D gsave 2109 16443 translate 0 0 M
-588.433 0 N
(0.6) show grestore 2220 17668 M 242 0 R D gsave 2109 17528 translate 0 0 M
-588.433 0 N
(0.8) show grestore 2220 18754 M 242 0 R D gsave 2109 18613 translate 0 0 M
-588.433 0 N
(1.0) show grestore 2220 13599 M 121 0 R D 2220 13871 M 121 0 R D
2220 14142 M 121 0 R D 2220 14684 M 121 0 R D 2220 14956 M 121 0 R D
2220 15227 M 121 0 R D 2220 15770 M 121 0 R D 2220 16041 M 121 0 R D
2220 16312 M 121 0 R D 2220 16855 M 121 0 R D 2220 17126 M 121 0 R D
2220 17397 M 121 0 R D 2220 17940 M 121 0 R D 2220 18211 M 121 0 R D
2220 18482 M 121 0 R D 2220 19025 M 121 0 R D 2220 19296 M 121 0 R D
8277 13333 M 0 5963 R D 8277 14413 M -242 0 R D 8277 15498 M -242 0 R D
8277 16583 M -242 0 R D 8277 17668 M -242 0 R D 8277 18754 M -242 0 R D
8277 13599 M -121 0 R D 8277 13871 M -121 0 R D 8277 14142 M -121 0 R D
8277 14684 M -121 0 R D 8277 14956 M -121 0 R D 8277 15227 M -121 0 R D
8277 15770 M -121 0 R D 8277 16041 M -121 0 R D 8277 16312 M -121 0 R D
8277 16855 M -121 0 R D 8277 17126 M -121 0 R D 8277 17397 M -121 0 R D
8277 17940 M -121 0 R D 8277 18211 M -121 0 R D 8277 18482 M -121 0 R D
8277 19025 M -121 0 R D 8277 19296 M -121 0 R D L2 2220 18754 M 551 -55 R
550 -271 R 551 -271 R 551 -109 R 550 -108 R 551 -55 R 551 -54 R 550 -217 R
551 -108 R 550 -109 R D L0 2220 18754 M 55 -15 R 186 -54 R 142 -57 R
92 -48 R 64 -41 R 86 -57 R 78 -42 R 73 -29 R 89 -26 R 119 -26 R 160 -27 R
209 -23 R 198 0 R 220 0 R 220 0 R 221 0 R 220 0 R 220 0 R 220 0 R 221 0 R
220 -31 R 154 -30 R 106 -25 R 98 -32 R 75 -29 R 73 -29 R 70 -23 R 54 -13 R
85 -17 R 110 -16 R 153 -18 R 220 -22 R 221 -2 R 220 0 R 220 0 R 220 0 R
221 0 R 220 -20 R 220 -25 R 4 -1 R D gsave 2495 14413 translate 0 0 M
(ln) show
%%IncludeResource: font Symbol
423.333 /Symbol STDFONT
(L) show
%%IncludeResource: font Helvetica
423.333 /Helvetica STDFONT
(=3.50) show grestore gsave 2495 13925 translate 0 0 M
(m) show X -101.051 M
%%IncludeResource: font Helvetica
262.467 /Helvetica STDFONT
(f) show X 0 M
%%IncludeResource: font Helvetica
423.333 /Helvetica STDFONT
(/m) show X -101.051 M
%%IncludeResource: font Helvetica
262.467 /Helvetica STDFONT
(i) show X 0 M
%%IncludeResource: font Helvetica
423.333 /Helvetica STDFONT
(=0.29) show grestore 8277 13333 M 6057 0 R D 8277 13333 M 0 239 R D
gsave 8277 12805 translate 0 0 M -58.8433 0 N
( ) show grestore 9378 13333 M 0 239 R D gsave 9378 12805 translate 0 0 M
-58.8433 0 N
( ) show grestore 10480 13333 M 0 239 R D gsave 10480 12805 translate 0 0 M
-58.8433 0 N
( ) show grestore 11581 13333 M 0 239 R D gsave 11581 12805 translate 0 0 M
-58.8433 0 N
( ) show grestore 12682 13333 M 0 239 R D gsave 12682 12805 translate 0 0 M
-58.8433 0 N
( ) show grestore 13783 13333 M 0 239 R D gsave 13783 12805 translate 0 0 M
-58.8433 0 N
( ) show grestore 8552 13333 M 0 120 R D 8828 13333 M 0 120 R D 9103 13333 M
0 120 R D 9654 13333 M 0 120 R D 9929 13333 M 0 120 R D 10204 13333 M
0 120 R D 10755 13333 M 0 120 R D 11030 13333 M 0 120 R D 11306 13333 M
0 120 R D 11856 13333 M 0 120 R D 12132 13333 M 0 120 R D 12407 13333 M
0 120 R D 12957 13333 M 0 120 R D 13233 13333 M 0 120 R D 13508 13333 M
0 120 R D 14059 13333 M 0 120 R D 14334 13333 M 0 120 R D 8277 19296 M
6057 0 R D 8277 19296 M 0 -238 R D 9378 19296 M 0 -238 R D 10480 19296 M
0 -238 R D 11581 19296 M 0 -238 R D 12682 19296 M 0 -238 R D 13783 19296 M
0 -238 R D 8552 19296 M 0 -119 R D 8828 19296 M 0 -119 R D 9103 19296 M
0 -119 R D 9654 19296 M 0 -119 R D 9929 19296 M 0 -119 R D 10204 19296 M
0 -119 R D 10755 19296 M 0 -119 R D 11030 19296 M 0 -119 R D 11306 19296 M
0 -119 R D 11856 19296 M 0 -119 R D 12132 19296 M 0 -119 R D 12407 19296 M
0 -119 R D 12957 19296 M 0 -119 R D 13233 19296 M 0 -119 R D 13508 19296 M
0 -119 R D 14059 19296 M 0 -119 R D 14334 19296 M 0 -119 R D 8277 13333 M
0 5963 R D 8277 14413 M 242 0 R D gsave 8166 14272 translate 0 0 M
-117.687 0 N
( ) show grestore 8277 15498 M 242 0 R D gsave 8166 15357 translate 0 0 M
-117.687 0 N
( ) show grestore 8277 16583 M 242 0 R D gsave 8166 16443 translate 0 0 M
-117.687 0 N
( ) show grestore 8277 17668 M 242 0 R D gsave 8166 17528 translate 0 0 M
-117.687 0 N
( ) show grestore 8277 18754 M 242 0 R D gsave 8166 18613 translate 0 0 M
-117.687 0 N
( ) show grestore 8277 13599 M 121 0 R D 8277 13871 M 121 0 R D 8277 14142 M
121 0 R D 8277 14684 M 121 0 R D 8277 14956 M 121 0 R D 8277 15227 M 121 0 R
D 8277 15770 M 121 0 R D 8277 16041 M 121 0 R D 8277 16312 M 121 0 R D
8277 16855 M 121 0 R D 8277 17126 M 121 0 R D 8277 17397 M 121 0 R D
8277 17940 M 121 0 R D 8277 18211 M 121 0 R D 8277 18482 M 121 0 R D
8277 19025 M 121 0 R D 8277 19296 M 121 0 R D 14334 13333 M 0 5963 R D
14334 14413 M -242 0 R D 14334 15498 M -242 0 R D 14334 16583 M -242 0 R D
14334 17668 M -242 0 R D 14334 18754 M -242 0 R D 14334 13599 M -121 0 R D
14334 13871 M -121 0 R D 14334 14142 M -121 0 R D 14334 14684 M -121 0 R D
14334 14956 M -121 0 R D 14334 15227 M -121 0 R D 14334 15770 M -121 0 R D
14334 16041 M -121 0 R D 14334 16312 M -121 0 R D 14334 16855 M -121 0 R D
14334 17126 M -121 0 R D 14334 17397 M -121 0 R D 14334 17940 M -121 0 R D
14334 18211 M -121 0 R D 14334 18482 M -121 0 R D 14334 19025 M -121 0 R D
14334 19296 M -121 0 R D L2 8277 18754 M 551 -109 R 550 -705 R 551 -109 R
551 -54 R 550 -163 R 551 -54 R 551 -543 R 550 -54 R 551 -108 R 550 -434 R D
L0 8277 18754 M 55 -25 R 171 -89 R 76 -51 R 78 -70 R 52 -65 R 45 -77 R
42 -93 R 37 -83 R 35 -60 R 36 -43 R 46 -36 R 61 -36 R 74 -31 R 109 -37 R
150 -43 R 220 -41 R 220 0 R 221 0 R 220 0 R 220 -17 R 220 -58 R 221 -73 R
34 -15 R 39 -20 R 43 -27 R 43 -37 R 38 -43 R 34 -41 R 32 -31 R 30 -21 R
37 -18 R 50 -17 R 71 -18 R 91 -18 R 176 -29 R 220 -34 R 220 -32 R 221 -32 R
220 -34 R 220 -40 R 27 -6 R 53 -15 R 40 -16 R 36 -19 R 33 -26 R 30 -27 R
27 -23 R 29 -19 R 35 -17 R 47 -17 R 68 -19 R 109 -24 R 185 -35 R 220 -39 R
220 -38 R 221 -39 R 143 -30 R 30 -7 R 51 -15 R 25 -9 R D
gsave 8552 14413 translate 0 0 M
(ln) show
%%IncludeResource: font Symbol
423.333 /Symbol STDFONT
(L) show
%%IncludeResource: font Helvetica
423.333 /Helvetica STDFONT
(=6.00) show grestore gsave 8552 13925 translate 0 0 M
(m) show X -101.051 M
%%IncludeResource: font Helvetica
262.467 /Helvetica STDFONT
(f) show X 0 M
%%IncludeResource: font Helvetica
423.333 /Helvetica STDFONT
(/m) show X -101.051 M
%%IncludeResource: font Helvetica
262.467 /Helvetica STDFONT
(i) show X 0 M
%%IncludeResource: font Helvetica
423.333 /Helvetica STDFONT
(=0.18) show grestore gsave 11030 18482 translate 0 0 M
(m\(0\)/M\(0\)=0.025) show grestore 2220 7371 M 6057 0 R D 2220 7371 M
0 238 R D gsave 2220 6843 translate 0 0 M -58.8433 0 N
( ) show grestore 3321 7371 M 0 238 R D gsave 3321 6843 translate 0 0 M
-58.8433 0 N
( ) show grestore 4423 7371 M 0 238 R D gsave 4423 6843 translate 0 0 M
-58.8433 0 N
( ) show grestore 5524 7371 M 0 238 R D gsave 5524 6843 translate 0 0 M
-58.8433 0 N
( ) show grestore 6625 7371 M 0 238 R D gsave 6625 6843 translate 0 0 M
-58.8433 0 N
( ) show grestore 7726 7371 M 0 238 R D gsave 7726 6843 translate 0 0 M
-58.8433 0 N
( ) show grestore 2495 7371 M 0 119 R D 2771 7371 M 0 119 R D 3046 7371 M
0 119 R D 3597 7371 M 0 119 R D 3872 7371 M 0 119 R D 4147 7371 M 0 119 R D
4698 7371 M 0 119 R D 4973 7371 M 0 119 R D 5249 7371 M 0 119 R D
5799 7371 M 0 119 R D 6075 7371 M 0 119 R D 6350 7371 M 0 119 R D
6900 7371 M 0 119 R D 7176 7371 M 0 119 R D 7451 7371 M 0 119 R D
8002 7371 M 0 119 R D 8277 7371 M 0 119 R D 2220 13333 M 6057 0 R D
2220 13333 M 0 -238 R D 3321 13333 M 0 -238 R D 4423 13333 M 0 -238 R D
5524 13333 M 0 -238 R D 6625 13333 M 0 -238 R D 7726 13333 M 0 -238 R D
2495 13333 M 0 -119 R D 2771 13333 M 0 -119 R D 3046 13333 M 0 -119 R D
3597 13333 M 0 -119 R D 3872 13333 M 0 -119 R D 4147 13333 M 0 -119 R D
4698 13333 M 0 -119 R D 4973 13333 M 0 -119 R D 5249 13333 M 0 -119 R D
5799 13333 M 0 -119 R D 6075 13333 M 0 -119 R D 6350 13333 M 0 -119 R D
6900 13333 M 0 -119 R D 7176 13333 M 0 -119 R D 7451 13333 M 0 -119 R D
8002 13333 M 0 -119 R D 8277 13333 M 0 -119 R D 2220 7371 M 0 5962 R D
2220 8450 M 242 0 R D gsave 2109 8310 translate 0 0 M -588.433 0 N
(0.2) show grestore 2220 9536 M 242 0 R D gsave 2109 9395 translate 0 0 M
-588.433 0 N
(0.4) show grestore 2220 10621 M 242 0 R D gsave 2109 10480 translate 0 0 M
-588.433 0 N
(0.6) show grestore 2220 11706 M 242 0 R D gsave 2109 11565 translate 0 0 M
-588.433 0 N
(0.8) show grestore 2220 12791 M 242 0 R D gsave 2109 12650 translate 0 0 M
-588.433 0 N
(1.0) show grestore 2220 7637 M 121 0 R D 2220 7908 M 121 0 R D 2220 8179 M
121 0 R D 2220 8722 M 121 0 R D 2220 8993 M 121 0 R D 2220 9264 M 121 0 R D
2220 9807 M 121 0 R D 2220 10078 M 121 0 R D 2220 10349 M 121 0 R D
2220 10892 M 121 0 R D 2220 11163 M 121 0 R D 2220 11434 M 121 0 R D
2220 11977 M 121 0 R D 2220 12248 M 121 0 R D 2220 12520 M 121 0 R D
2220 13062 M 121 0 R D 2220 13333 M 121 0 R D 8277 7371 M 0 5962 R D
8277 8450 M -242 0 R D 8277 9536 M -242 0 R D 8277 10621 M -242 0 R D
8277 11706 M -242 0 R D 8277 12791 M -242 0 R D 8277 7637 M -121 0 R D
8277 7908 M -121 0 R D 8277 8179 M -121 0 R D 8277 8722 M -121 0 R D
8277 8993 M -121 0 R D 8277 9264 M -121 0 R D 8277 9807 M -121 0 R D
8277 10078 M -121 0 R D 8277 10349 M -121 0 R D 8277 10892 M -121 0 R D
8277 11163 M -121 0 R D 8277 11434 M -121 0 R D 8277 11977 M -121 0 R D
8277 12248 M -121 0 R D 8277 12520 M -121 0 R D 8277 13062 M -121 0 R D
8277 13333 M -121 0 R D L2 2220 12791 M 551 -217 R 550 -543 R 551 -488 R
551 -109 R 550 -54 R 551 -271 R 551 -488 R 550 -163 R 551 -434 R 550 -380 R
D L0 2220 12791 M 55 -27 R 187 -105 R 131 -98 R 65 -62 R 91 -109 R 81 -111 R
68 -84 R 52 -52 R 64 -49 R 93 -55 R 123 -57 R 181 -70 R 220 -77 R 220 -7 R
221 0 R 220 0 R 220 -68 R 220 -81 R 155 -68 R 99 -57 R 72 -55 R 69 -63 R
62 -59 R 59 -47 R 59 -34 R 72 -32 R 81 -30 R 98 -30 R 139 -38 R 220 -57 R
220 -56 R 220 -55 R 221 -61 R 87 -30 R 73 -29 R 63 -33 R 60 -43 R 52 -45 R
50 -42 R 48 -33 R 58 -32 R 77 -35 R 109 -42 R 170 -58 R 220 -71 R 220 -72 R
141 -51 R 60 -26 R 61 -30 R 50 -34 R 48 -43 R 43 -46 R 9 -10 R D
gsave 2495 8450 translate 0 0 M
(ln) show
%%IncludeResource: font Symbol
423.333 /Symbol STDFONT
(L) show
%%IncludeResource: font Helvetica
423.333 /Helvetica STDFONT
(=3.30) show grestore gsave 2495 7962 translate 0 0 M
(m) show X -101.051 M
%%IncludeResource: font Helvetica
262.467 /Helvetica STDFONT
(f) show X 0 M
%%IncludeResource: font Helvetica
423.333 /Helvetica STDFONT
(/m) show X -101.051 M
%%IncludeResource: font Helvetica
262.467 /Helvetica STDFONT
(i) show X 0 M
%%IncludeResource: font Helvetica
423.333 /Helvetica STDFONT
(=0.28) show grestore 8277 7371 M 6057 0 R D 8277 7371 M 0 238 R D
gsave 8277 6843 translate 0 0 M -58.8433 0 N
( ) show grestore 9378 7371 M 0 238 R D gsave 9378 6843 translate 0 0 M
-58.8433 0 N
( ) show grestore 10480 7371 M 0 238 R D gsave 10480 6843 translate 0 0 M
-58.8433 0 N
( ) show grestore 11581 7371 M 0 238 R D gsave 11581 6843 translate 0 0 M
-58.8433 0 N
( ) show grestore 12682 7371 M 0 238 R D gsave 12682 6843 translate 0 0 M
-58.8433 0 N
( ) show grestore 13783 7371 M 0 238 R D gsave 13783 6843 translate 0 0 M
-58.8433 0 N
( ) show grestore 8552 7371 M 0 119 R D 8828 7371 M 0 119 R D 9103 7371 M
0 119 R D 9654 7371 M 0 119 R D 9929 7371 M 0 119 R D 10204 7371 M 0 119 R D
10755 7371 M 0 119 R D 11030 7371 M 0 119 R D 11306 7371 M 0 119 R D
11856 7371 M 0 119 R D 12132 7371 M 0 119 R D 12407 7371 M 0 119 R D
12957 7371 M 0 119 R D 13233 7371 M 0 119 R D 13508 7371 M 0 119 R D
14059 7371 M 0 119 R D 14334 7371 M 0 119 R D 8277 13333 M 6057 0 R D
8277 13333 M 0 -238 R D 9378 13333 M 0 -238 R D 10480 13333 M 0 -238 R D
11581 13333 M 0 -238 R D 12682 13333 M 0 -238 R D 13783 13333 M 0 -238 R D
8552 13333 M 0 -119 R D 8828 13333 M 0 -119 R D 9103 13333 M 0 -119 R D
9654 13333 M 0 -119 R D 9929 13333 M 0 -119 R D 10204 13333 M 0 -119 R D
10755 13333 M 0 -119 R D 11030 13333 M 0 -119 R D 11306 13333 M 0 -119 R D
11856 13333 M 0 -119 R D 12132 13333 M 0 -119 R D 12407 13333 M 0 -119 R D
12957 13333 M 0 -119 R D 13233 13333 M 0 -119 R D 13508 13333 M 0 -119 R D
14059 13333 M 0 -119 R D 14334 13333 M 0 -119 R D 8277 7371 M 0 5962 R D
8277 8450 M 242 0 R D gsave 8166 8310 translate 0 0 M -117.687 0 N
( ) show grestore 8277 9536 M 242 0 R D gsave 8166 9395 translate 0 0 M
-117.687 0 N
( ) show grestore 8277 10621 M 242 0 R D gsave 8166 10480 translate 0 0 M
-117.687 0 N
( ) show grestore 8277 11706 M 242 0 R D gsave 8166 11565 translate 0 0 M
-117.687 0 N
( ) show grestore 8277 12791 M 242 0 R D gsave 8166 12650 translate 0 0 M
-117.687 0 N
( ) show grestore 8277 7637 M 121 0 R D 8277 7908 M 121 0 R D 8277 8179 M
121 0 R D 8277 8722 M 121 0 R D 8277 8993 M 121 0 R D 8277 9264 M 121 0 R D
8277 9807 M 121 0 R D 8277 10078 M 121 0 R D 8277 10349 M 121 0 R D
8277 10892 M 121 0 R D 8277 11163 M 121 0 R D 8277 11434 M 121 0 R D
8277 11977 M 121 0 R D 8277 12248 M 121 0 R D 8277 12520 M 121 0 R D
8277 13062 M 121 0 R D 8277 13333 M 121 0 R D 14334 7371 M 0 5962 R D
14334 8450 M -242 0 R D 14334 9536 M -242 0 R D 14334 10621 M -242 0 R D
14334 11706 M -242 0 R D 14334 12791 M -242 0 R D 14334 7637 M -121 0 R D
14334 7908 M -121 0 R D 14334 8179 M -121 0 R D 14334 8722 M -121 0 R D
14334 8993 M -121 0 R D 14334 9264 M -121 0 R D 14334 9807 M -121 0 R D
14334 10078 M -121 0 R D 14334 10349 M -121 0 R D 14334 10892 M -121 0 R D
14334 11163 M -121 0 R D 14334 11434 M -121 0 R D 14334 11977 M -121 0 R D
14334 12248 M -121 0 R D 14334 12520 M -121 0 R D 14334 13062 M -121 0 R D
14334 13333 M -121 0 R D L2 8277 12791 M 551 -326 R 550 -1193 R 551 -217 R
551 -163 R 550 -651 R 551 -271 R 551 -543 R 550 -271 R 551 -434 R 550 -489 R
D L0 8277 12791 M 55 -37 R 171 -137 R 96 -104 R 83 -129 R 45 -100 R
43 -130 R 39 -149 R 38 -135 R 35 -88 R 37 -68 R 49 -61 R 69 -64 R 101 -72 R
107 -65 R 156 -86 R 220 -115 R 220 -112 R 220 -112 R 221 -126 R 29 -21 R
45 -35 R 46 -45 R 44 -58 R 29 -54 R 28 -62 R 24 -52 R 24 -38 R 24 -28 R
31 -25 R 42 -25 R 63 -28 R 77 -29 R 159 -51 R 221 -67 R 220 -67 R 89 -30 R
29 -10 R 44 -19 R 37 -18 R 32 -20 R 26 -23 R 25 -29 R 22 -37 R 20 -34 R
18 -28 R 21 -25 R 28 -25 R 37 -26 R 57 -31 R 92 -41 R 162 -65 R 221 -86 R
52 -22 R 21 -9 R 73 -36 R 26 -15 R 27 -21 R 22 -22 R 20 -28 R 18 -36 R
17 -35 R 15 -31 R 17 -26 R 21 -26 R 29 -26 R 42 -32 R 69 -41 R 119 -63 R
219 -114 R 28 -17 R 23 -16 R 25 -19 R 20 -20 R 17 -22 R 16 -27 R 14 -35 R
14 -40 R 13 -32 R 13 -26 R 17 -27 R 23 -28 R 35 -34 R 56 -44 R 99 -70 R
85 -59 R 17 -12 R 40 -31 R 16 -14 R 18 -19 R 15 -19 R 12 -21 R 11 -25 R
11 -32 R 10 -40 R 9 -33 R 9 -28 R 12 -27 R 16 -28 R 23 -34 R 38 -43 R
65 -64 R 42 -39 R 16 -15 R 16 -16 R 10 -11 R 14 -16 R 11 -16 R 11 -16 R
8 -17 R 7 -19 R 7 -24 R 6 -31 R 6 -36 R 6 -32 R 5 -28 R 8 -28 R 10 -29 R
17 -33 R 26 -41 R 48 -62 R 17 -21 R 5 -7 R 9 -15 R 4 -6 R 4 -10 R 4 -10 R
3 -10 R 3 -11 R 2 -13 R 3 -18 R 2 -32 R 1 -29 R 2 -26 R 1 -11 R D
gsave 8552 8450 translate 0 0 M
(ln) show
%%IncludeResource: font Symbol
423.333 /Symbol STDFONT
(L) show
%%IncludeResource: font Helvetica
423.333 /Helvetica STDFONT
(=4.60) show grestore gsave 8552 7962 translate 0 0 M
(m) show X -101.051 M
%%IncludeResource: font Helvetica
262.467 /Helvetica STDFONT
(f) show X 0 M
%%IncludeResource: font Helvetica
423.333 /Helvetica STDFONT
(/m) show X -101.051 M
%%IncludeResource: font Helvetica
262.467 /Helvetica STDFONT
(i) show X 0 M
%%IncludeResource: font Helvetica
423.333 /Helvetica STDFONT
(=0.16) show grestore gsave 11030 12520 translate 0 0 M
(m\(0\)/M\(0\)=0.05) show grestore 2220 1408 M 6057 0 R D 2220 1408 M
0 239 R D gsave 2220 880 translate 0 0 M -117.687 0 N
(0) show grestore 3321 1408 M 0 239 R D gsave 3321 880 translate 0 0 M
-117.687 0 N
(2) show grestore 4423 1408 M 0 239 R D gsave 4423 880 translate 0 0 M
-117.687 0 N
(4) show grestore 5524 1408 M 0 239 R D gsave 5524 880 translate 0 0 M
-117.687 0 N
(6) show grestore 6625 1408 M 0 239 R D gsave 6625 880 translate 0 0 M
-117.687 0 N
(8) show grestore 7726 1408 M 0 239 R D gsave 7726 880 translate 0 0 M
-235.373 0 N
(10) show grestore 2495 1408 M 0 119 R D 2771 1408 M 0 119 R D 3046 1408 M
0 119 R D 3597 1408 M 0 119 R D 3872 1408 M 0 119 R D 4147 1408 M 0 119 R D
4698 1408 M 0 119 R D 4973 1408 M 0 119 R D 5249 1408 M 0 119 R D
5799 1408 M 0 119 R D 6075 1408 M 0 119 R D 6350 1408 M 0 119 R D
6900 1408 M 0 119 R D 7176 1408 M 0 119 R D 7451 1408 M 0 119 R D
8002 1408 M 0 119 R D 8277 1408 M 0 119 R D 2220 7371 M 6057 0 R D
2220 7371 M 0 -239 R D 3321 7371 M 0 -239 R D 4423 7371 M 0 -239 R D
5524 7371 M 0 -239 R D 6625 7371 M 0 -239 R D 7726 7371 M 0 -239 R D
2495 7371 M 0 -119 R D 2771 7371 M 0 -119 R D 3046 7371 M 0 -119 R D
3597 7371 M 0 -119 R D 3872 7371 M 0 -119 R D 4147 7371 M 0 -119 R D
4698 7371 M 0 -119 R D 4973 7371 M 0 -119 R D 5249 7371 M 0 -119 R D
5799 7371 M 0 -119 R D 6075 7371 M 0 -119 R D 6350 7371 M 0 -119 R D
6900 7371 M 0 -119 R D 7176 7371 M 0 -119 R D 7451 7371 M 0 -119 R D
8002 7371 M 0 -119 R D 8277 7371 M 0 -119 R D 2220 1408 M 0 5963 R D
2220 2488 M 242 0 R D gsave 2109 2347 translate 0 0 M -588.433 0 N
(0.2) show grestore 2220 3573 M 242 0 R D gsave 2109 3432 translate 0 0 M
-588.433 0 N
(0.4) show grestore 2220 4658 M 242 0 R D gsave 2109 4517 translate 0 0 M
-588.433 0 N
(0.6) show grestore 2220 5743 M 242 0 R D gsave 2109 5602 translate 0 0 M
-588.433 0 N
(0.8) show grestore 2220 6828 M 242 0 R D gsave 2109 6687 translate 0 0 M
-588.433 0 N
(1.0) show grestore 2220 1674 M 121 0 R D 2220 1945 M 121 0 R D 2220 2217 M
121 0 R D 2220 2759 M 121 0 R D 2220 3030 M 121 0 R D 2220 3302 M 121 0 R D
2220 3844 M 121 0 R D 2220 4115 M 121 0 R D 2220 4387 M 121 0 R D
2220 4929 M 121 0 R D 2220 5201 M 121 0 R D 2220 5472 M 121 0 R D
2220 6014 M 121 0 R D 2220 6286 M 121 0 R D 2220 6557 M 121 0 R D
2220 7099 M 121 0 R D 2220 7371 M 121 0 R D 8277 1408 M 0 5963 R D
8277 2488 M -242 0 R D 8277 3573 M -242 0 R D 8277 4658 M -242 0 R D
8277 5743 M -242 0 R D 8277 6828 M -242 0 R D 8277 1674 M -121 0 R D
8277 1945 M -121 0 R D 8277 2217 M -121 0 R D 8277 2759 M -121 0 R D
8277 3030 M -121 0 R D 8277 3302 M -121 0 R D 8277 3844 M -121 0 R D
8277 4115 M -121 0 R D 8277 4387 M -121 0 R D 8277 4929 M -121 0 R D
8277 5201 M -121 0 R D 8277 5472 M -121 0 R D 8277 6014 M -121 0 R D
8277 6286 M -121 0 R D 8277 6557 M -121 0 R D 8277 7099 M -121 0 R D
8277 7371 M -121 0 R D L2 2220 6828 M 551 -271 R 550 -922 R 551 -706 R
551 -271 R 550 -760 R 551 -705 R 551 -868 R 550 -651 R 551 -266 R D L0
2220 6828 M 55 -43 R 186 -171 R 103 -121 R 109 -168 R 64 -126 R 79 -188 R
69 -160 R 67 -124 R 71 -102 R 90 -101 R 110 -102 R 111 -92 R 221 -168 R
220 -160 R 220 -160 R 220 -173 R 76 -69 R 76 -85 R 52 -73 R 50 -88 R
45 -90 R 38 -69 R 37 -52 R 43 -46 R 54 -46 R 74 -50 R 95 -57 R 128 -72 R
221 -119 R 92 -53 R 51 -32 R 52 -38 R 42 -38 R 36 -43 R 35 -56 R 30 -57 R
29 -53 R 28 -44 R 35 -45 R 47 -50 R 67 -62 R 105 -88 R 147 -118 R 33 -28 R
41 -37 R 34 -37 R 29 -37 R 24 -40 R 23 -52 R 20 -58 R 20 -58 R 18 -47 R
21 -48 R 28 -51 R 40 -63 R 61 -83 R 87 -112 R 20 -28 R 22 -32 R 19 -32 R
15 -33 R 13 -34 R 12 -44 R 12 -56 R 10 -63 R 10 -55 R 11 -51 R 14 -53 R
19 -59 R 30 -71 R 26 -52 R 7 -14 R 4 -9 R 10 -23 R 3 -8 R 5 -13 R 3 -11 R
3 -12 R 2 -13 R 2 -17 R 2 -16 R 0 -7 R 1 -7 R 0 -4 R D
gsave 2495 2488 translate 0 0 M
(ln) show
%%IncludeResource: font Symbol
423.333 /Symbol STDFONT
(L) show
%%IncludeResource: font Helvetica
423.333 /Helvetica STDFONT
(=2.70) show grestore gsave 2495 1999 translate 0 0 M
(m) show X -101.051 M
%%IncludeResource: font Helvetica
262.467 /Helvetica STDFONT
(f) show X 0 M
%%IncludeResource: font Helvetica
423.333 /Helvetica STDFONT
(/m) show X -101.051 M
%%IncludeResource: font Helvetica
262.467 /Helvetica STDFONT
(i) show X 0 M
%%IncludeResource: font Helvetica
423.333 /Helvetica STDFONT
(=0.21) show grestore 8277 1408 M 6057 0 R D 8277 1408 M 0 239 R D
gsave 8277 880 translate 0 0 M -117.687 0 N
(0) show grestore 9378 1408 M 0 239 R D gsave 9378 880 translate 0 0 M
-117.687 0 N
(2) show grestore 10480 1408 M 0 239 R D gsave 10480 880 translate 0 0 M
-117.687 0 N
(4) show grestore 11581 1408 M 0 239 R D gsave 11581 880 translate 0 0 M
-117.687 0 N
(6) show grestore 12682 1408 M 0 239 R D gsave 12682 880 translate 0 0 M
-117.687 0 N
(8) show grestore 13783 1408 M 0 239 R D gsave 13783 880 translate 0 0 M
-235.373 0 N
(10) show grestore 8552 1408 M 0 119 R D 8828 1408 M 0 119 R D 9103 1408 M
0 119 R D 9654 1408 M 0 119 R D 9929 1408 M 0 119 R D 10204 1408 M 0 119 R D
10755 1408 M 0 119 R D 11030 1408 M 0 119 R D 11306 1408 M 0 119 R D
11856 1408 M 0 119 R D 12132 1408 M 0 119 R D 12407 1408 M 0 119 R D
12957 1408 M 0 119 R D 13233 1408 M 0 119 R D 13508 1408 M 0 119 R D
14059 1408 M 0 119 R D 14334 1408 M 0 119 R D 8277 7371 M 6057 0 R D
8277 7371 M 0 -239 R D 9378 7371 M 0 -239 R D 10480 7371 M 0 -239 R D
11581 7371 M 0 -239 R D 12682 7371 M 0 -239 R D 13783 7371 M 0 -239 R D
8552 7371 M 0 -119 R D 8828 7371 M 0 -119 R D 9103 7371 M 0 -119 R D
9654 7371 M 0 -119 R D 9929 7371 M 0 -119 R D 10204 7371 M 0 -119 R D
10755 7371 M 0 -119 R D 11030 7371 M 0 -119 R D 11306 7371 M 0 -119 R D
11856 7371 M 0 -119 R D 12132 7371 M 0 -119 R D 12407 7371 M 0 -119 R D
12957 7371 M 0 -119 R D 13233 7371 M 0 -119 R D 13508 7371 M 0 -119 R D
14059 7371 M 0 -119 R D 14334 7371 M 0 -119 R D 8277 1408 M 0 5963 R D
8277 2488 M 242 0 R D gsave 8166 2347 translate 0 0 M -117.687 0 N
( ) show grestore 8277 3573 M 242 0 R D gsave 8166 3432 translate 0 0 M
-117.687 0 N
( ) show grestore 8277 4658 M 242 0 R D gsave 8166 4517 translate 0 0 M
-117.687 0 N
( ) show grestore 8277 5743 M 242 0 R D gsave 8166 5602 translate 0 0 M
-117.687 0 N
( ) show grestore 8277 6828 M 242 0 R D gsave 8166 6687 translate 0 0 M
-117.687 0 N
( ) show grestore 8277 1674 M 121 0 R D 8277 1945 M 121 0 R D 8277 2217 M
121 0 R D 8277 2759 M 121 0 R D 8277 3030 M 121 0 R D 8277 3302 M 121 0 R D
8277 3844 M 121 0 R D 8277 4115 M 121 0 R D 8277 4387 M 121 0 R D
8277 4929 M 121 0 R D 8277 5201 M 121 0 R D 8277 5472 M 121 0 R D
8277 6014 M 121 0 R D 8277 6286 M 121 0 R D 8277 6557 M 121 0 R D
8277 7099 M 121 0 R D 8277 7371 M 121 0 R D 14334 1408 M 0 5963 R D
14334 2488 M -242 0 R D 14334 3573 M -242 0 R D 14334 4658 M -242 0 R D
14334 5743 M -242 0 R D 14334 6828 M -242 0 R D 14334 1674 M -121 0 R D
14334 1945 M -121 0 R D 14334 2217 M -121 0 R D 14334 2759 M -121 0 R D
14334 3030 M -121 0 R D 14334 3302 M -121 0 R D 14334 3844 M -121 0 R D
14334 4115 M -121 0 R D 14334 4387 M -121 0 R D 14334 4929 M -121 0 R D
14334 5201 M -121 0 R D 14334 5472 M -121 0 R D 14334 6014 M -121 0 R D
14334 6286 M -121 0 R D 14334 6557 M -121 0 R D 14334 7099 M -121 0 R D
14334 7371 M -121 0 R D L2 8277 6828 M 551 -325 R 550 -1899 R 551 -434 R
551 -1085 R 550 -868 R 551 -760 R 551 -49 R D L0 8277 6828 M 55 -52 R
171 -189 R 99 -149 R 73 -153 R 50 -154 R 47 -205 R 38 -220 R 37 -209 R
33 -143 R 36 -110 R 46 -104 R 54 -94 R 62 -90 R 77 -98 R 103 -122 R
133 -147 R 202 -214 R 220 -241 R 22 -27 R 28 -37 R 32 -48 R 29 -51 R
38 -87 R 22 -68 R 21 -83 R 19 -77 R 18 -60 R 17 -42 R 21 -37 R 29 -36 R
41 -40 R 64 -52 R 109 -75 R 155 -103 R 37 -25 R 18 -12 R 64 -50 R 20 -20 R
23 -26 R 19 -27 R 16 -32 R 15 -43 R 14 -46 R 12 -43 R 13 -36 R 16 -34 R
21 -37 R 30 -42 R 48 -55 R 81 -80 R 79 -74 R 26 -24 R 12 -12 R 43 -49 R
13 -18 R 14 -24 R 12 -26 R 10 -30 R 10 -40 R 10 -50 R 8 -45 R 9 -37 R
11 -36 R 14 -38 R 21 -45 R 35 -58 R 59 -84 R 24 -32 R 9 -14 R 17 -25 R
8 -14 R 9 -17 R 8 -17 R 6 -18 R 5 -20 R 5 -24 R 5 -32 R 4 -46 R 4 -49 R
4 -43 R 5 -37 R 7 -32 R 11 -31 R 19 -29 R 13 -13 R 5 -5 R 5 -3 R 2 -3 R D
gsave 8552 2488 translate 0 0 M
(ln) show
%%IncludeResource: font Symbol
423.333 /Symbol STDFONT
(L) show
%%IncludeResource: font Helvetica
423.333 /Helvetica STDFONT
(=3.20) show grestore gsave 8552 1999 translate 0 0 M
(m) show X -101.051 M
%%IncludeResource: font Helvetica
262.467 /Helvetica STDFONT
(f) show X 0 M
%%IncludeResource: font Helvetica
423.333 /Helvetica STDFONT
(/m) show X -101.051 M
%%IncludeResource: font Helvetica
262.467 /Helvetica STDFONT
(i) show X 0 M
%%IncludeResource: font Helvetica
423.333 /Helvetica STDFONT
(=0.14) show grestore gsave 11030 6557 translate 0 0 M
(m\(0\)/M\(0\)=0.1) show grestore gsave 750 19400 translate 0 0 M
(A=2.5) show grestore gsave 3750 19400 translate 0 0 M
%%IncludeResource: font Symbol
423.333 /Symbol STDFONT
(e) show
%%IncludeResource: font Helvetica
423.333 /Helvetica STDFONT
(=0.65) show grestore gsave 9750 19400 translate 0 0 M
%%IncludeResource: font Symbol
423.333 /Symbol STDFONT
(e) show
%%IncludeResource: font Helvetica
423.333 /Helvetica STDFONT
(=0.46) show grestore
%%PageTrailer
end
%%PageResources: font Helvetica
%%+ font Symbol
%%Trailer
%%Pages: 1
%%DocumentNeededResources: font Helvetica
%%+ font Symbol
%%EOF
