%!PS-Adobe-3.0 EPSF-3.0
%%BoundingBox: 0 0 425 566
%%Title: Graphics produced by IDL
%%For: jlgan@aida119, /home/jlgan/work/subhalo_model
%%Creator: IDL Version 7.1 (linux x86_64 m64)
%%CreationDate: Thu Aug 20 22:54:58 2009
%%DocumentData: Clean7bit
%%Requirements: color
%%LanguageLevel: 1
%%PageOrder: Ascend
%%Pages: (atend)
%%DocumentNeededResources: (atend)
%%EndComments
%%BeginProlog
%+ prolog.ps -- Prolog for IDL generated PostScript files
%+ Copyright (c) 1988-2009 ITT Visual Information Solutions. All Rights Reserved.
%v 5
/$IDL_DICT 40 dict def $IDL_DICT begin /bdef { bind def } bind def /C
{currentpoint newpath moveto} bdef /CP {currentpoint} bdef /D {currentpoint
stroke moveto} bdef /F {closepath fill} bdef /K { setgray } bdef /M {moveto}
bdef /N {rmoveto} bdef /P {lineto} bdef /R {rlineto} bdef /S {gsave show
grestore} bdef /X {currentpoint pop} bdef /Z {gsave currentpoint lineto 20
setlinewidth 1 setlinecap stroke grestore} bdef /L0 {[] 0 setdash} bdef /L1
{[40 100] 0 setdash} bdef /L2 {[200 200] 0 setdash} bdef /L3 {[200 100 50
100] 0 setdash} bdef /L4 {[300 100 50 100 50 100 50 100] 0 setdash} bdef /L5
{[400 200] 0 setdash} bdef /STDFONT { findfont exch scalefont setfont } bdef
/ISOFONT { findfont dup length dict begin { 1 index /FID ne {def} {pop pop}
ifelse } forall /Encoding ISOLatin1Encoding def currentdict end /idltmpfont
exch definefont exch scalefont setfont } bdef /ISOBULLET { gsave /Helvetica
findfont exch scalefont setfont (\267) show currentpoint grestore moveto}
bdef /MITERLIMIT { 2.5 setmiterlimit } bdef end
%%EndProlog
%%Page: 0 1
%%PageRequirements: color
%%PageResources: (atend)
%%PageOrientation: Portrait
%%PageBoundingBox: 0 0 425 566
%%BeginPageSetup
$IDL_DICT begin 0.0283465 dup scale MITERLIMIT
%%IncludeResource: font Helvetica
423.333 /Helvetica STDFONT
%%EndPageSetup
0.000 0.000 0.000 setrgbcolor gsave 8277 352 translate 0 0 M -576.368 0 N
(t [Gyr]) show grestore gsave 888 10352 translate 0 0 M 90 rotate
-611.293 0 N
(j\(t\)/j\(0\)) show grestore 40 setlinewidth L0 2220 13333 M 6057 0 R D
2220 13333 M 0 239 R D gsave 2220 12805 translate 0 0 M -58.8433 0 N
( ) show grestore 3321 13333 M 0 239 R D gsave 3321 12805 translate 0 0 M
-58.8433 0 N
( ) show grestore 4423 13333 M 0 239 R D gsave 4423 12805 translate 0 0 M
-58.8433 0 N
( ) show grestore 5524 13333 M 0 239 R D gsave 5524 12805 translate 0 0 M
-58.8433 0 N
( ) show grestore 6625 13333 M 0 239 R D gsave 6625 12805 translate 0 0 M
-58.8433 0 N
( ) show grestore 7726 13333 M 0 239 R D gsave 7726 12805 translate 0 0 M
-58.8433 0 N
( ) show grestore 2495 13333 M 0 120 R D 2771 13333 M 0 120 R D 3046 13333 M
0 120 R D 3597 13333 M 0 120 R D 3872 13333 M 0 120 R D 4147 13333 M 0 120 R
D 4698 13333 M 0 120 R D 4973 13333 M 0 120 R D 5249 13333 M 0 120 R D
5799 13333 M 0 120 R D 6075 13333 M 0 120 R D 6350 13333 M 0 120 R D
6900 13333 M 0 120 R D 7176 13333 M 0 120 R D 7451 13333 M 0 120 R D
8002 13333 M 0 120 R D 8277 13333 M 0 120 R D 2220 19296 M 6057 0 R D
2220 19296 M 0 -238 R D 3321 19296 M 0 -238 R D 4423 19296 M 0 -238 R D
5524 19296 M 0 -238 R D 6625 19296 M 0 -238 R D 7726 19296 M 0 -238 R D
2495 19296 M 0 -119 R D 2771 19296 M 0 -119 R D 3046 19296 M 0 -119 R D
3597 19296 M 0 -119 R D 3872 19296 M 0 -119 R D 4147 19296 M 0 -119 R D
4698 19296 M 0 -119 R D 4973 19296 M 0 -119 R D 5249 19296 M 0 -119 R D
5799 19296 M 0 -119 R D 6075 19296 M 0 -119 R D 6350 19296 M 0 -119 R D
6900 19296 M 0 -119 R D 7176 19296 M 0 -119 R D 7451 19296 M 0 -119 R D
8002 19296 M 0 -119 R D 8277 19296 M 0 -119 R D 2220 13333 M 0 5963 R D
2220 14413 M 242 0 R D gsave 2109 14272 translate 0 0 M -588.433 0 N
(0.2) show grestore 2220 15498 M 242 0 R D gsave 2109 15357 translate 0 0 M
-588.433 0 N
(0.4) show grestore 2220 16583 M 242 0 R D gsave 2109 16443 translate 0 0 M
-588.433 0 N
(0.6) show grestore 2220 17668 M 242 0 R D gsave 2109 17528 translate 0 0 M
-588.433 0 N
(0.8) show grestore 2220 18754 M 242 0 R D gsave 2109 18613 translate 0 0 M
-588.433 0 N
(1.0) show grestore 2220 13599 M 121 0 R D 2220 13871 M 121 0 R D
2220 14142 M 121 0 R D 2220 14684 M 121 0 R D 2220 14956 M 121 0 R D
2220 15227 M 121 0 R D 2220 15770 M 121 0 R D 2220 16041 M 121 0 R D
2220 16312 M 121 0 R D 2220 16855 M 121 0 R D 2220 17126 M 121 0 R D
2220 17397 M 121 0 R D 2220 17940 M 121 0 R D 2220 18211 M 121 0 R D
2220 18482 M 121 0 R D 2220 19025 M 121 0 R D 2220 19296 M 121 0 R D
8277 13333 M 0 5963 R D 8277 14413 M -242 0 R D 8277 15498 M -242 0 R D
8277 16583 M -242 0 R D 8277 17668 M -242 0 R D 8277 18754 M -242 0 R D
8277 13599 M -121 0 R D 8277 13871 M -121 0 R D 8277 14142 M -121 0 R D
8277 14684 M -121 0 R D 8277 14956 M -121 0 R D 8277 15227 M -121 0 R D
8277 15770 M -121 0 R D 8277 16041 M -121 0 R D 8277 16312 M -121 0 R D
8277 16855 M -121 0 R D 8277 17126 M -121 0 R D 8277 17397 M -121 0 R D
8277 17940 M -121 0 R D 8277 18211 M -121 0 R D 8277 18482 M -121 0 R D
8277 19025 M -121 0 R D 8277 19296 M -121 0 R D L2 2220 18754 M 551 -55 R
550 -271 R 551 -271 R 551 -109 R 550 -108 R 551 -55 R 551 -54 R 550 -217 R
551 -108 R 550 -109 R D L0 2220 18754 M 55 -25 R 183 -91 R 84 -52 R 78 -59 R
32 -27 R 92 -91 R 81 -89 R 70 -64 R 66 -45 R 78 -39 R 101 -36 R 97 -29 R
144 -37 R 220 -36 R 220 0 R 221 0 R 220 0 R 220 0 R 220 0 R 221 -46 R
220 -59 R 102 -35 R 102 -46 R 81 -45 R 71 -39 R 67 -30 R 65 -22 R 80 -20 R
105 -21 R 129 -21 R 221 -32 R 220 -31 R 220 -29 R 220 -30 R 221 -31 R
220 -34 R 99 -20 R 81 -20 R 74 -24 R 68 -30 R 58 -27 R 55 -23 R 62 -21 R
77 -20 R 106 -23 R 157 -28 R 173 -29 R D gsave 2495 14413 translate 0 0 M
(ln) show
%%IncludeResource: font Symbol
423.333 /Symbol STDFONT
(L) show
%%IncludeResource: font Helvetica
423.333 /Helvetica STDFONT
(=5.97) show grestore gsave 2495 13925 translate 0 0 M
(m) show X -101.051 M
%%IncludeResource: font Helvetica
262.467 /Helvetica STDFONT
(f) show X 0 M
%%IncludeResource: font Helvetica
423.333 /Helvetica STDFONT
(/m) show X -101.051 M
%%IncludeResource: font Helvetica
262.467 /Helvetica STDFONT
(i) show X 0 M
%%IncludeResource: font Helvetica
423.333 /Helvetica STDFONT
(=0.21) show grestore 8277 13333 M 6057 0 R D 8277 13333 M 0 239 R D
gsave 8277 12805 translate 0 0 M -58.8433 0 N
( ) show grestore 9378 13333 M 0 239 R D gsave 9378 12805 translate 0 0 M
-58.8433 0 N
( ) show grestore 10480 13333 M 0 239 R D gsave 10480 12805 translate 0 0 M
-58.8433 0 N
( ) show grestore 11581 13333 M 0 239 R D gsave 11581 12805 translate 0 0 M
-58.8433 0 N
( ) show grestore 12682 13333 M 0 239 R D gsave 12682 12805 translate 0 0 M
-58.8433 0 N
( ) show grestore 13783 13333 M 0 239 R D gsave 13783 12805 translate 0 0 M
-58.8433 0 N
( ) show grestore 8552 13333 M 0 120 R D 8828 13333 M 0 120 R D 9103 13333 M
0 120 R D 9654 13333 M 0 120 R D 9929 13333 M 0 120 R D 10204 13333 M
0 120 R D 10755 13333 M 0 120 R D 11030 13333 M 0 120 R D 11306 13333 M
0 120 R D 11856 13333 M 0 120 R D 12132 13333 M 0 120 R D 12407 13333 M
0 120 R D 12957 13333 M 0 120 R D 13233 13333 M 0 120 R D 13508 13333 M
0 120 R D 14059 13333 M 0 120 R D 14334 13333 M 0 120 R D 8277 19296 M
6057 0 R D 8277 19296 M 0 -238 R D 9378 19296 M 0 -238 R D 10480 19296 M
0 -238 R D 11581 19296 M 0 -238 R D 12682 19296 M 0 -238 R D 13783 19296 M
0 -238 R D 8552 19296 M 0 -119 R D 8828 19296 M 0 -119 R D 9103 19296 M
0 -119 R D 9654 19296 M 0 -119 R D 9929 19296 M 0 -119 R D 10204 19296 M
0 -119 R D 10755 19296 M 0 -119 R D 11030 19296 M 0 -119 R D 11306 19296 M
0 -119 R D 11856 19296 M 0 -119 R D 12132 19296 M 0 -119 R D 12407 19296 M
0 -119 R D 12957 19296 M 0 -119 R D 13233 19296 M 0 -119 R D 13508 19296 M
0 -119 R D 14059 19296 M 0 -119 R D 14334 19296 M 0 -119 R D 8277 13333 M
0 5963 R D 8277 14413 M 242 0 R D gsave 8166 14272 translate 0 0 M
-117.687 0 N
( ) show grestore 8277 15498 M 242 0 R D gsave 8166 15357 translate 0 0 M
-117.687 0 N
( ) show grestore 8277 16583 M 242 0 R D gsave 8166 16443 translate 0 0 M
-117.687 0 N
( ) show grestore 8277 17668 M 242 0 R D gsave 8166 17528 translate 0 0 M
-117.687 0 N
( ) show grestore 8277 18754 M 242 0 R D gsave 8166 18613 translate 0 0 M
-117.687 0 N
( ) show grestore 8277 13599 M 121 0 R D 8277 13871 M 121 0 R D 8277 14142 M
121 0 R D 8277 14684 M 121 0 R D 8277 14956 M 121 0 R D 8277 15227 M 121 0 R
D 8277 15770 M 121 0 R D 8277 16041 M 121 0 R D 8277 16312 M 121 0 R D
8277 16855 M 121 0 R D 8277 17126 M 121 0 R D 8277 17397 M 121 0 R D
8277 17940 M 121 0 R D 8277 18211 M 121 0 R D 8277 18482 M 121 0 R D
8277 19025 M 121 0 R D 8277 19296 M 121 0 R D 14334 13333 M 0 5963 R D
14334 14413 M -242 0 R D 14334 15498 M -242 0 R D 14334 16583 M -242 0 R D
14334 17668 M -242 0 R D 14334 18754 M -242 0 R D 14334 13599 M -121 0 R D
14334 13871 M -121 0 R D 14334 14142 M -121 0 R D 14334 14684 M -121 0 R D
14334 14956 M -121 0 R D 14334 15227 M -121 0 R D 14334 15770 M -121 0 R D
14334 16041 M -121 0 R D 14334 16312 M -121 0 R D 14334 16855 M -121 0 R D
14334 17126 M -121 0 R D 14334 17397 M -121 0 R D 14334 17940 M -121 0 R D
14334 18211 M -121 0 R D 14334 18482 M -121 0 R D 14334 19025 M -121 0 R D
14334 19296 M -121 0 R D L2 8277 18754 M 551 -109 R 550 -705 R 551 -109 R
551 -54 R 550 -163 R 551 -54 R 551 -543 R 550 -54 R 551 -108 R 550 -434 R D
L0 8277 18754 M 55 -32 R 172 -117 R 71 -61 R 80 -92 R 64 -105 R 44 -97 R
40 -109 R 36 -86 R 34 -57 R 36 -41 R 46 -35 R 47 -26 R 62 -27 R 72 -26 R
176 -53 R 221 -57 R 220 -6 R 220 0 R 220 0 R 221 -57 R 220 -63 R 83 -30 R
91 -43 R 40 -27 R 39 -33 R 36 -39 R 32 -33 R 31 -23 R 30 -16 R 37 -13 R
50 -13 R 72 -14 R 115 -18 R 193 -24 R 221 -26 R 220 -26 R 220 -26 R
221 -28 R 95 -14 R 46 -8 R 50 -11 R 41 -12 R 36 -15 R 33 -19 R 30 -21 R
28 -19 R 27 -14 R 34 -13 R 45 -13 R 64 -15 R 102 -17 R 172 -25 R 220 -30 R
220 -29 R 221 -30 R 182 -28 R 27 -5 R 51 -12 R 40 -11 R 35 -13 R 31 -17 R
29 -21 R 25 -20 R 24 -16 R 27 -13 R 34 -14 R D
gsave 8552 14413 translate 0 0 M
(ln) show
%%IncludeResource: font Symbol
423.333 /Symbol STDFONT
(L) show
%%IncludeResource: font Helvetica
423.333 /Helvetica STDFONT
(=7.83) show grestore gsave 8552 13925 translate 0 0 M
(m) show X -101.051 M
%%IncludeResource: font Helvetica
262.467 /Helvetica STDFONT
(f) show X 0 M
%%IncludeResource: font Helvetica
423.333 /Helvetica STDFONT
(/m) show X -101.051 M
%%IncludeResource: font Helvetica
262.467 /Helvetica STDFONT
(i) show X 0 M
%%IncludeResource: font Helvetica
423.333 /Helvetica STDFONT
(=0.11) show grestore gsave 11030 18482 translate 0 0 M
(m\(0\)/M\(0\)=0.025) show grestore 2220 7371 M 6057 0 R D 2220 7371 M
0 238 R D gsave 2220 6843 translate 0 0 M -58.8433 0 N
( ) show grestore 3321 7371 M 0 238 R D gsave 3321 6843 translate 0 0 M
-58.8433 0 N
( ) show grestore 4423 7371 M 0 238 R D gsave 4423 6843 translate 0 0 M
-58.8433 0 N
( ) show grestore 5524 7371 M 0 238 R D gsave 5524 6843 translate 0 0 M
-58.8433 0 N
( ) show grestore 6625 7371 M 0 238 R D gsave 6625 6843 translate 0 0 M
-58.8433 0 N
( ) show grestore 7726 7371 M 0 238 R D gsave 7726 6843 translate 0 0 M
-58.8433 0 N
( ) show grestore 2495 7371 M 0 119 R D 2771 7371 M 0 119 R D 3046 7371 M
0 119 R D 3597 7371 M 0 119 R D 3872 7371 M 0 119 R D 4147 7371 M 0 119 R D
4698 7371 M 0 119 R D 4973 7371 M 0 119 R D 5249 7371 M 0 119 R D
5799 7371 M 0 119 R D 6075 7371 M 0 119 R D 6350 7371 M 0 119 R D
6900 7371 M 0 119 R D 7176 7371 M 0 119 R D 7451 7371 M 0 119 R D
8002 7371 M 0 119 R D 8277 7371 M 0 119 R D 2220 13333 M 6057 0 R D
2220 13333 M 0 -238 R D 3321 13333 M 0 -238 R D 4423 13333 M 0 -238 R D
5524 13333 M 0 -238 R D 6625 13333 M 0 -238 R D 7726 13333 M 0 -238 R D
2495 13333 M 0 -119 R D 2771 13333 M 0 -119 R D 3046 13333 M 0 -119 R D
3597 13333 M 0 -119 R D 3872 13333 M 0 -119 R D 4147 13333 M 0 -119 R D
4698 13333 M 0 -119 R D 4973 13333 M 0 -119 R D 5249 13333 M 0 -119 R D
5799 13333 M 0 -119 R D 6075 13333 M 0 -119 R D 6350 13333 M 0 -119 R D
6900 13333 M 0 -119 R D 7176 13333 M 0 -119 R D 7451 13333 M 0 -119 R D
8002 13333 M 0 -119 R D 8277 13333 M 0 -119 R D 2220 7371 M 0 5962 R D
2220 8450 M 242 0 R D gsave 2109 8310 translate 0 0 M -588.433 0 N
(0.2) show grestore 2220 9536 M 242 0 R D gsave 2109 9395 translate 0 0 M
-588.433 0 N
(0.4) show grestore 2220 10621 M 242 0 R D gsave 2109 10480 translate 0 0 M
-588.433 0 N
(0.6) show grestore 2220 11706 M 242 0 R D gsave 2109 11565 translate 0 0 M
-588.433 0 N
(0.8) show grestore 2220 12791 M 242 0 R D gsave 2109 12650 translate 0 0 M
-588.433 0 N
(1.0) show grestore 2220 7637 M 121 0 R D 2220 7908 M 121 0 R D 2220 8179 M
121 0 R D 2220 8722 M 121 0 R D 2220 8993 M 121 0 R D 2220 9264 M 121 0 R D
2220 9807 M 121 0 R D 2220 10078 M 121 0 R D 2220 10349 M 121 0 R D
2220 10892 M 121 0 R D 2220 11163 M 121 0 R D 2220 11434 M 121 0 R D
2220 11977 M 121 0 R D 2220 12248 M 121 0 R D 2220 12520 M 121 0 R D
2220 13062 M 121 0 R D 2220 13333 M 121 0 R D 8277 7371 M 0 5962 R D
8277 8450 M -242 0 R D 8277 9536 M -242 0 R D 8277 10621 M -242 0 R D
8277 11706 M -242 0 R D 8277 12791 M -242 0 R D 8277 7637 M -121 0 R D
8277 7908 M -121 0 R D 8277 8179 M -121 0 R D 8277 8722 M -121 0 R D
8277 8993 M -121 0 R D 8277 9264 M -121 0 R D 8277 9807 M -121 0 R D
8277 10078 M -121 0 R D 8277 10349 M -121 0 R D 8277 10892 M -121 0 R D
8277 11163 M -121 0 R D 8277 11434 M -121 0 R D 8277 11977 M -121 0 R D
8277 12248 M -121 0 R D 8277 12520 M -121 0 R D 8277 13062 M -121 0 R D
8277 13333 M -121 0 R D L2 2220 12791 M 551 -217 R 550 -543 R 551 -488 R
551 -109 R 550 -54 R 551 -271 R 551 -488 R 550 -163 R 551 -434 R 550 -380 R
D L0 2220 12791 M 55 -35 R 186 -134 R 69 -63 R 67 -71 R 61 -77 R 49 -71 R
58 -95 R 81 -137 R 75 -101 R 69 -66 R 83 -59 R 107 -61 R 118 -55 R 140 -59 R
220 -87 R 220 -84 R 221 -82 R 220 -84 R 220 -91 R 99 -47 R 106 -62 R
35 -26 R 67 -56 R 60 -60 R 53 -48 R 50 -35 R 52 -27 R 65 -26 R 71 -22 R
109 -30 R 183 -44 R 221 -50 R 220 -49 R 220 -52 R 107 -29 R 67 -22 R
61 -25 R 54 -30 R 50 -36 R 43 -35 R 41 -29 R 45 -26 R 56 -26 R 77 -29 R
113 -36 R 180 -52 R 220 -61 R 220 -64 R 68 -22 R 61 -23 R 53 -25 R 45 -28 R
43 -36 R 37 -36 R 36 -33 R 35 -26 R 44 -27 R 58 -29 R 85 -35 R 132 -49 R
96 -34 R D gsave 2495 8450 translate 0 0 M
(ln) show
%%IncludeResource: font Symbol
423.333 /Symbol STDFONT
(L) show
%%IncludeResource: font Helvetica
423.333 /Helvetica STDFONT
(=4.27) show grestore gsave 2495 7962 translate 0 0 M
(m) show X -101.051 M
%%IncludeResource: font Helvetica
262.467 /Helvetica STDFONT
(f) show X 0 M
%%IncludeResource: font Helvetica
423.333 /Helvetica STDFONT
(/m) show X -101.051 M
%%IncludeResource: font Helvetica
262.467 /Helvetica STDFONT
(i) show X 0 M
%%IncludeResource: font Helvetica
423.333 /Helvetica STDFONT
(=0.18) show grestore 8277 7371 M 6057 0 R D 8277 7371 M 0 238 R D
gsave 8277 6843 translate 0 0 M -58.8433 0 N
( ) show grestore 9378 7371 M 0 238 R D gsave 9378 6843 translate 0 0 M
-58.8433 0 N
( ) show grestore 10480 7371 M 0 238 R D gsave 10480 6843 translate 0 0 M
-58.8433 0 N
( ) show grestore 11581 7371 M 0 238 R D gsave 11581 6843 translate 0 0 M
-58.8433 0 N
( ) show grestore 12682 7371 M 0 238 R D gsave 12682 6843 translate 0 0 M
-58.8433 0 N
( ) show grestore 13783 7371 M 0 238 R D gsave 13783 6843 translate 0 0 M
-58.8433 0 N
( ) show grestore 8552 7371 M 0 119 R D 8828 7371 M 0 119 R D 9103 7371 M
0 119 R D 9654 7371 M 0 119 R D 9929 7371 M 0 119 R D 10204 7371 M 0 119 R D
10755 7371 M 0 119 R D 11030 7371 M 0 119 R D 11306 7371 M 0 119 R D
11856 7371 M 0 119 R D 12132 7371 M 0 119 R D 12407 7371 M 0 119 R D
12957 7371 M 0 119 R D 13233 7371 M 0 119 R D 13508 7371 M 0 119 R D
14059 7371 M 0 119 R D 14334 7371 M 0 119 R D 8277 13333 M 6057 0 R D
8277 13333 M 0 -238 R D 9378 13333 M 0 -238 R D 10480 13333 M 0 -238 R D
11581 13333 M 0 -238 R D 12682 13333 M 0 -238 R D 13783 13333 M 0 -238 R D
8552 13333 M 0 -119 R D 8828 13333 M 0 -119 R D 9103 13333 M 0 -119 R D
9654 13333 M 0 -119 R D 9929 13333 M 0 -119 R D 10204 13333 M 0 -119 R D
10755 13333 M 0 -119 R D 11030 13333 M 0 -119 R D 11306 13333 M 0 -119 R D
11856 13333 M 0 -119 R D 12132 13333 M 0 -119 R D 12407 13333 M 0 -119 R D
12957 13333 M 0 -119 R D 13233 13333 M 0 -119 R D 13508 13333 M 0 -119 R D
14059 13333 M 0 -119 R D 14334 13333 M 0 -119 R D 8277 7371 M 0 5962 R D
8277 8450 M 242 0 R D gsave 8166 8310 translate 0 0 M -117.687 0 N
( ) show grestore 8277 9536 M 242 0 R D gsave 8166 9395 translate 0 0 M
-117.687 0 N
( ) show grestore 8277 10621 M 242 0 R D gsave 8166 10480 translate 0 0 M
-117.687 0 N
( ) show grestore 8277 11706 M 242 0 R D gsave 8166 11565 translate 0 0 M
-117.687 0 N
( ) show grestore 8277 12791 M 242 0 R D gsave 8166 12650 translate 0 0 M
-117.687 0 N
( ) show grestore 8277 7637 M 121 0 R D 8277 7908 M 121 0 R D 8277 8179 M
121 0 R D 8277 8722 M 121 0 R D 8277 8993 M 121 0 R D 8277 9264 M 121 0 R D
8277 9807 M 121 0 R D 8277 10078 M 121 0 R D 8277 10349 M 121 0 R D
8277 10892 M 121 0 R D 8277 11163 M 121 0 R D 8277 11434 M 121 0 R D
8277 11977 M 121 0 R D 8277 12248 M 121 0 R D 8277 12520 M 121 0 R D
8277 13062 M 121 0 R D 8277 13333 M 121 0 R D 14334 7371 M 0 5962 R D
14334 8450 M -242 0 R D 14334 9536 M -242 0 R D 14334 10621 M -242 0 R D
14334 11706 M -242 0 R D 14334 12791 M -242 0 R D 14334 7637 M -121 0 R D
14334 7908 M -121 0 R D 14334 8179 M -121 0 R D 14334 8722 M -121 0 R D
14334 8993 M -121 0 R D 14334 9264 M -121 0 R D 14334 9807 M -121 0 R D
14334 10078 M -121 0 R D 14334 10349 M -121 0 R D 14334 10892 M -121 0 R D
14334 11163 M -121 0 R D 14334 11434 M -121 0 R D 14334 11977 M -121 0 R D
14334 12248 M -121 0 R D 14334 12520 M -121 0 R D 14334 13062 M -121 0 R D
14334 13333 M -121 0 R D L2 8277 12791 M 551 -326 R 550 -1193 R 551 -217 R
551 -163 R 550 -651 R 551 -271 R 551 -543 R 550 -271 R 551 -434 R 550 -489 R
D L0 8277 12791 M 55 -46 R 170 -163 R 64 -80 R 52 -78 R 34 -62 R 35 -78 R
48 -132 R 41 -153 R 38 -160 R 36 -131 R 33 -79 R 37 -61 R 49 -56 R 68 -58 R
104 -69 R 134 -75 R 221 -112 R 220 -108 R 220 -106 R 220 -115 R 53 -33 R
59 -42 R 51 -48 R 33 -40 R 30 -48 R 29 -52 R 25 -43 R 23 -30 R 24 -20 R
30 -18 R 41 -17 R 59 -19 R 93 -24 R 160 -36 R 220 -47 R 221 -47 R 98 -23 R
30 -8 R 45 -13 R 38 -14 R 32 -14 R 28 -17 R 25 -23 R 23 -26 R 22 -25 R
20 -19 R 24 -17 R 31 -17 R 45 -19 R 68 -22 R 113 -32 R 212 -53 R 221 -57 R
42 -11 R 34 -10 R 39 -13 R 35 -14 R 29 -15 R 25 -16 R 23 -21 R 21 -25 R
18 -25 R 17 -21 R 19 -18 R 24 -17 R 34 -18 R 50 -22 R 80 -28 R 140 -44 R
221 -66 R 30 -10 R 53 -19 R 30 -11 R 31 -14 R 27 -15 R 22 -15 R 19 -20 R
18 -25 R 16 -25 R 16 -23 R 15 -18 R 20 -18 R 26 -18 R 39 -21 R 62 -27 R
104 -41 R 209 -77 R 26 -10 R 29 -13 R 27 -13 R 25 -14 R 22 -14 R 18 -16 R
16 -20 R 15 -25 R 13 -25 R 12 -22 R 14 -19 R 16 -18 R 23 -19 R 33 -22 R
54 -28 R 21 -10 R D gsave 8552 8450 translate 0 0 M
(ln) show
%%IncludeResource: font Symbol
423.333 /Symbol STDFONT
(L) show
%%IncludeResource: font Helvetica
423.333 /Helvetica STDFONT
(=5.60) show grestore gsave 8552 7962 translate 0 0 M
(m) show X -101.051 M
%%IncludeResource: font Helvetica
262.467 /Helvetica STDFONT
(f) show X 0 M
%%IncludeResource: font Helvetica
423.333 /Helvetica STDFONT
(/m) show X -101.051 M
%%IncludeResource: font Helvetica
262.467 /Helvetica STDFONT
(i) show X 0 M
%%IncludeResource: font Helvetica
423.333 /Helvetica STDFONT
(=0.09) show grestore gsave 11030 12520 translate 0 0 M
(m\(0\)/M\(0\)=0.05) show grestore 2220 1408 M 6057 0 R D 2220 1408 M
0 239 R D gsave 2220 880 translate 0 0 M -117.687 0 N
(0) show grestore 3321 1408 M 0 239 R D gsave 3321 880 translate 0 0 M
-117.687 0 N
(2) show grestore 4423 1408 M 0 239 R D gsave 4423 880 translate 0 0 M
-117.687 0 N
(4) show grestore 5524 1408 M 0 239 R D gsave 5524 880 translate 0 0 M
-117.687 0 N
(6) show grestore 6625 1408 M 0 239 R D gsave 6625 880 translate 0 0 M
-117.687 0 N
(8) show grestore 7726 1408 M 0 239 R D gsave 7726 880 translate 0 0 M
-235.373 0 N
(10) show grestore 2495 1408 M 0 119 R D 2771 1408 M 0 119 R D 3046 1408 M
0 119 R D 3597 1408 M 0 119 R D 3872 1408 M 0 119 R D 4147 1408 M 0 119 R D
4698 1408 M 0 119 R D 4973 1408 M 0 119 R D 5249 1408 M 0 119 R D
5799 1408 M 0 119 R D 6075 1408 M 0 119 R D 6350 1408 M 0 119 R D
6900 1408 M 0 119 R D 7176 1408 M 0 119 R D 7451 1408 M 0 119 R D
8002 1408 M 0 119 R D 8277 1408 M 0 119 R D 2220 7371 M 6057 0 R D
2220 7371 M 0 -239 R D 3321 7371 M 0 -239 R D 4423 7371 M 0 -239 R D
5524 7371 M 0 -239 R D 6625 7371 M 0 -239 R D 7726 7371 M 0 -239 R D
2495 7371 M 0 -119 R D 2771 7371 M 0 -119 R D 3046 7371 M 0 -119 R D
3597 7371 M 0 -119 R D 3872 7371 M 0 -119 R D 4147 7371 M 0 -119 R D
4698 7371 M 0 -119 R D 4973 7371 M 0 -119 R D 5249 7371 M 0 -119 R D
5799 7371 M 0 -119 R D 6075 7371 M 0 -119 R D 6350 7371 M 0 -119 R D
6900 7371 M 0 -119 R D 7176 7371 M 0 -119 R D 7451 7371 M 0 -119 R D
8002 7371 M 0 -119 R D 8277 7371 M 0 -119 R D 2220 1408 M 0 5963 R D
2220 2488 M 242 0 R D gsave 2109 2347 translate 0 0 M -588.433 0 N
(0.2) show grestore 2220 3573 M 242 0 R D gsave 2109 3432 translate 0 0 M
-588.433 0 N
(0.4) show grestore 2220 4658 M 242 0 R D gsave 2109 4517 translate 0 0 M
-588.433 0 N
(0.6) show grestore 2220 5743 M 242 0 R D gsave 2109 5602 translate 0 0 M
-588.433 0 N
(0.8) show grestore 2220 6828 M 242 0 R D gsave 2109 6687 translate 0 0 M
-588.433 0 N
(1.0) show grestore 2220 1674 M 121 0 R D 2220 1945 M 121 0 R D 2220 2217 M
121 0 R D 2220 2759 M 121 0 R D 2220 3030 M 121 0 R D 2220 3302 M 121 0 R D
2220 3844 M 121 0 R D 2220 4115 M 121 0 R D 2220 4387 M 121 0 R D
2220 4929 M 121 0 R D 2220 5201 M 121 0 R D 2220 5472 M 121 0 R D
2220 6014 M 121 0 R D 2220 6286 M 121 0 R D 2220 6557 M 121 0 R D
2220 7099 M 121 0 R D 2220 7371 M 121 0 R D 8277 1408 M 0 5963 R D
8277 2488 M -242 0 R D 8277 3573 M -242 0 R D 8277 4658 M -242 0 R D
8277 5743 M -242 0 R D 8277 6828 M -242 0 R D 8277 1674 M -121 0 R D
8277 1945 M -121 0 R D 8277 2217 M -121 0 R D 8277 2759 M -121 0 R D
8277 3030 M -121 0 R D 8277 3302 M -121 0 R D 8277 3844 M -121 0 R D
8277 4115 M -121 0 R D 8277 4387 M -121 0 R D 8277 4929 M -121 0 R D
8277 5201 M -121 0 R D 8277 5472 M -121 0 R D 8277 6014 M -121 0 R D
8277 6286 M -121 0 R D 8277 6557 M -121 0 R D 8277 7099 M -121 0 R D
8277 7371 M -121 0 R D L2 2220 6828 M 551 -271 R 550 -922 R 551 -706 R
551 -271 R 550 -760 R 551 -705 R 551 -868 R 550 -651 R 551 -266 R D L0
2220 6828 M 55 -51 R 186 -200 R 206 -328 R 51 -117 R 38 -98 R 77 -212 R
65 -160 R 64 -119 R 71 -102 R 73 -83 R 119 -114 R 109 -93 R 145 -116 R
197 -152 R 221 -169 R 220 -181 R 62 -60 R 56 -63 R 61 -84 R 49 -81 R
45 -79 R 37 -56 R 36 -40 R 41 -35 R 54 -36 R 73 -39 R 76 -37 R 112 -50 R
220 -96 R 108 -49 R 52 -26 R 53 -31 R 44 -31 R 38 -36 R 36 -45 R 32 -45 R
29 -40 R 31 -34 R 37 -35 R 50 -39 R 73 -49 R 114 -69 R 153 -91 R 40 -25 R
46 -31 R 38 -30 R 33 -32 R 27 -35 R 27 -44 R 23 -46 R 22 -42 R 22 -35 R
26 -37 R 36 -40 R 52 -50 R 81 -70 R 91 -77 R 30 -27 R 31 -30 R 26 -29 R
22 -30 R 18 -33 R 18 -42 R 15 -46 R 15 -44 R 14 -37 R 17 -38 R 23 -41 R
32 -50 R 51 -67 R 51 -65 R 17 -23 R 17 -26 R 15 -24 R 12 -25 R 10 -27 R
9 -33 R 9 -43 R 8 -50 R 8 -43 R 8 -39 R 11 -39 R 15 -42 R 23 -49 R 20 -33 R
8 -14 R 5 -11 R 4 -9 R 4 -8 R 2 -7 R 2 -6 R 1 -5 R 1 -5 R 1 -3 R 0 -3 R
1 -3 R 0 -1 R 0 -1 R 0 -1 R 0 -2 R 1 0 R D gsave 2495 2488 translate 0 0 M
(ln) show
%%IncludeResource: font Symbol
423.333 /Symbol STDFONT
(L) show
%%IncludeResource: font Helvetica
423.333 /Helvetica STDFONT
(=3.18) show grestore gsave 2495 1999 translate 0 0 M
(m) show X -101.051 M
%%IncludeResource: font Helvetica
262.467 /Helvetica STDFONT
(f) show X 0 M
%%IncludeResource: font Helvetica
423.333 /Helvetica STDFONT
(/m) show X -101.051 M
%%IncludeResource: font Helvetica
262.467 /Helvetica STDFONT
(i) show X 0 M
%%IncludeResource: font Helvetica
423.333 /Helvetica STDFONT
(=0.14) show grestore 8277 1408 M 6057 0 R D 8277 1408 M 0 239 R D
gsave 8277 880 translate 0 0 M -117.687 0 N
(0) show grestore 9378 1408 M 0 239 R D gsave 9378 880 translate 0 0 M
-117.687 0 N
(2) show grestore 10480 1408 M 0 239 R D gsave 10480 880 translate 0 0 M
-117.687 0 N
(4) show grestore 11581 1408 M 0 239 R D gsave 11581 880 translate 0 0 M
-117.687 0 N
(6) show grestore 12682 1408 M 0 239 R D gsave 12682 880 translate 0 0 M
-117.687 0 N
(8) show grestore 13783 1408 M 0 239 R D gsave 13783 880 translate 0 0 M
-235.373 0 N
(10) show grestore 8552 1408 M 0 119 R D 8828 1408 M 0 119 R D 9103 1408 M
0 119 R D 9654 1408 M 0 119 R D 9929 1408 M 0 119 R D 10204 1408 M 0 119 R D
10755 1408 M 0 119 R D 11030 1408 M 0 119 R D 11306 1408 M 0 119 R D
11856 1408 M 0 119 R D 12132 1408 M 0 119 R D 12407 1408 M 0 119 R D
12957 1408 M 0 119 R D 13233 1408 M 0 119 R D 13508 1408 M 0 119 R D
14059 1408 M 0 119 R D 14334 1408 M 0 119 R D 8277 7371 M 6057 0 R D
8277 7371 M 0 -239 R D 9378 7371 M 0 -239 R D 10480 7371 M 0 -239 R D
11581 7371 M 0 -239 R D 12682 7371 M 0 -239 R D 13783 7371 M 0 -239 R D
8552 7371 M 0 -119 R D 8828 7371 M 0 -119 R D 9103 7371 M 0 -119 R D
9654 7371 M 0 -119 R D 9929 7371 M 0 -119 R D 10204 7371 M 0 -119 R D
10755 7371 M 0 -119 R D 11030 7371 M 0 -119 R D 11306 7371 M 0 -119 R D
11856 7371 M 0 -119 R D 12132 7371 M 0 -119 R D 12407 7371 M 0 -119 R D
12957 7371 M 0 -119 R D 13233 7371 M 0 -119 R D 13508 7371 M 0 -119 R D
14059 7371 M 0 -119 R D 14334 7371 M 0 -119 R D 8277 1408 M 0 5963 R D
8277 2488 M 242 0 R D gsave 8166 2347 translate 0 0 M -117.687 0 N
( ) show grestore 8277 3573 M 242 0 R D gsave 8166 3432 translate 0 0 M
-117.687 0 N
( ) show grestore 8277 4658 M 242 0 R D gsave 8166 4517 translate 0 0 M
-117.687 0 N
( ) show grestore 8277 5743 M 242 0 R D gsave 8166 5602 translate 0 0 M
-117.687 0 N
( ) show grestore 8277 6828 M 242 0 R D gsave 8166 6687 translate 0 0 M
-117.687 0 N
( ) show grestore 8277 1674 M 121 0 R D 8277 1945 M 121 0 R D 8277 2217 M
121 0 R D 8277 2759 M 121 0 R D 8277 3030 M 121 0 R D 8277 3302 M 121 0 R D
8277 3844 M 121 0 R D 8277 4115 M 121 0 R D 8277 4387 M 121 0 R D
8277 4929 M 121 0 R D 8277 5201 M 121 0 R D 8277 5472 M 121 0 R D
8277 6014 M 121 0 R D 8277 6286 M 121 0 R D 8277 6557 M 121 0 R D
8277 7099 M 121 0 R D 8277 7371 M 121 0 R D 14334 1408 M 0 5963 R D
14334 2488 M -242 0 R D 14334 3573 M -242 0 R D 14334 4658 M -242 0 R D
14334 5743 M -242 0 R D 14334 6828 M -242 0 R D 14334 1674 M -121 0 R D
14334 1945 M -121 0 R D 14334 2217 M -121 0 R D 14334 2759 M -121 0 R D
14334 3030 M -121 0 R D 14334 3302 M -121 0 R D 14334 3844 M -121 0 R D
14334 4115 M -121 0 R D 14334 4387 M -121 0 R D 14334 4929 M -121 0 R D
14334 5201 M -121 0 R D 14334 5472 M -121 0 R D 14334 6014 M -121 0 R D
14334 6286 M -121 0 R D 14334 6557 M -121 0 R D 14334 7099 M -121 0 R D
14334 7371 M -121 0 R D L2 8277 6828 M 551 -325 R 550 -1899 R 551 -434 R
551 -1085 R 550 -868 R 551 -760 R 551 -49 R D L0 8277 6828 M 55 -67 R
173 -248 R 85 -162 R 65 -164 R 86 -333 R 45 -276 R 36 -255 R 30 -188 R
29 -131 R 35 -110 R 44 -104 R 62 -112 R 96 -141 R 104 -137 R 128 -157 R
220 -262 R 51 -63 R 62 -84 R 63 -106 R 24 -55 R 23 -61 R 20 -69 R 19 -67 R
18 -53 R 16 -32 R 18 -25 R 24 -24 R 33 -25 R 51 -30 R 83 -42 R 156 -72 R
50 -24 R 29 -14 R 26 -14 R 28 -16 R 26 -17 R 22 -18 R 19 -20 R 16 -23 R
16 -30 R 13 -30 R 13 -26 R 14 -22 R 17 -22 R 24 -24 R 34 -28 R 56 -36 R
95 -57 R 65 -38 R 20 -13 R 37 -23 R 20 -15 R 21 -17 R 18 -17 R 15 -19 R
12 -21 R 13 -28 R 10 -30 R 11 -27 R 10 -23 R 12 -22 R 17 -24 R 24 -27 R
37 -34 R 64 -50 R 62 -47 R 15 -11 R 27 -23 R 15 -13 R 15 -16 R 12 -16 R
10 -18 R 10 -20 R 8 -26 R 8 -29 R 7 -27 R 7 -23 R 9 -22 R 11 -24 R 17 -26 R
27 -33 R 44 -46 R 35 -34 R 21 -21 R 6 -7 R 21 -26 R 6 -11 R 8 -14 R 5 -14 R
6 -18 R 5 -23 R 4 -31 R 5 -28 R 4 -24 R 6 -22 R 8 -23 R 11 -25 R 20 -29 R
33 -41 R 11 -13 R 4 -5 R 5 -8 R 4 -7 R 3 -5 R 2 -6 R 2 -6 R 2 -6 R 1 -7 R
2 -8 R 0 -4 R 0 -4 R 1 -5 R 0 -1 R 0 -1 R 0 -1 R 0 -4 R 1 -5 R 0 -3 R 0 -2 R
0 -1 R D gsave 8552 2488 translate 0 0 M
(ln) show
%%IncludeResource: font Symbol
423.333 /Symbol STDFONT
(L) show
%%IncludeResource: font Helvetica
423.333 /Helvetica STDFONT
(=4.17) show grestore gsave 8552 1999 translate 0 0 M
(m) show X -101.051 M
%%IncludeResource: font Helvetica
262.467 /Helvetica STDFONT
(f) show X 0 M
%%IncludeResource: font Helvetica
423.333 /Helvetica STDFONT
(/m) show X -101.051 M
%%IncludeResource: font Helvetica
262.467 /Helvetica STDFONT
(i) show X 0 M
%%IncludeResource: font Helvetica
423.333 /Helvetica STDFONT
(=0.07) show grestore gsave 11030 6557 translate 0 0 M
(m\(0\)/M\(0\)=0.1) show grestore gsave 750 19400 translate 0 0 M
(A=3.5) show grestore gsave 3750 19400 translate 0 0 M
%%IncludeResource: font Symbol
423.333 /Symbol STDFONT
(e) show
%%IncludeResource: font Helvetica
423.333 /Helvetica STDFONT
(=0.65) show grestore gsave 9750 19400 translate 0 0 M
%%IncludeResource: font Symbol
423.333 /Symbol STDFONT
(e) show
%%IncludeResource: font Helvetica
423.333 /Helvetica STDFONT
(=0.46) show grestore
%%PageTrailer
end
%%PageResources: font Helvetica
%%+ font Symbol
%%Trailer
%%Pages: 1
%%DocumentNeededResources: font Helvetica
%%+ font Symbol
%%EOF
