%!PS-Adobe-3.0 EPSF-3.0
%%BoundingBox: 0 0 283 453
%%Title: Graphics produced by IDL
%%For: jlgan@aida119, /home/jlgan/work/subhalo_model
%%Creator: IDL Version 7.1 (linux x86_64 m64)
%%CreationDate: Mon Aug 10 12:31:24 2009
%%DocumentData: Clean7bit
%%Requirements: color
%%LanguageLevel: 1
%%PageOrder: Ascend
%%Pages: (atend)
%%DocumentNeededResources: (atend)
%%EndComments
%%BeginProlog
%+ prolog.ps -- Prolog for IDL generated PostScript files
%+ Copyright (c) 1988-2009 ITT Visual Information Solutions. All Rights Reserved.
%v 5
/$IDL_DICT 40 dict def $IDL_DICT begin /bdef { bind def } bind def /C
{currentpoint newpath moveto} bdef /CP {currentpoint} bdef /D {currentpoint
stroke moveto} bdef /F {closepath fill} bdef /K { setgray } bdef /M {moveto}
bdef /N {rmoveto} bdef /P {lineto} bdef /R {rlineto} bdef /S {gsave show
grestore} bdef /X {currentpoint pop} bdef /Z {gsave currentpoint lineto 20
setlinewidth 1 setlinecap stroke grestore} bdef /L0 {[] 0 setdash} bdef /L1
{[40 100] 0 setdash} bdef /L2 {[200 200] 0 setdash} bdef /L3 {[200 100 50
100] 0 setdash} bdef /L4 {[300 100 50 100 50 100 50 100] 0 setdash} bdef /L5
{[400 200] 0 setdash} bdef /STDFONT { findfont exch scalefont setfont } bdef
/ISOFONT { findfont dup length dict begin { 1 index /FID ne {def} {pop pop}
ifelse } forall /Encoding ISOLatin1Encoding def currentdict end /idltmpfont
exch definefont exch scalefont setfont } bdef /ISOBULLET { gsave /Helvetica
findfont exch scalefont setfont (\267) show currentpoint grestore moveto}
bdef /MITERLIMIT { 2.5 setmiterlimit } bdef end
%%EndProlog
%%Page: 0 1
%%PageRequirements: color
%%PageResources: (atend)
%%PageOrientation: Portrait
%%PageBoundingBox: 0 0 283 453
%%BeginPageSetup
$IDL_DICT begin 0.0283465 dup scale MITERLIMIT
%%IncludeResource: font Helvetica
423.333 /Helvetica STDFONT
%%EndPageSetup
40 setlinewidth L0 0.000 0.000 0.000 setrgbcolor 2220 9152 M 7114 0 R D
3138 9152 M 0 214 R D gsave 3138 8624 translate 0 0 M -411.903 0 N
(0.05) show grestore 4285 9152 M 0 214 R D gsave 4285 8624 translate 0 0 M
-294.217 0 N
(0.1) show grestore 5433 9152 M 0 214 R D gsave 5433 8624 translate 0 0 M
-58.8433 0 N
( ) show grestore 6580 9152 M 0 214 R D gsave 6580 8624 translate 0 0 M
-294.217 0 N
(0.2) show grestore 7728 9152 M 0 214 R D gsave 7728 8624 translate 0 0 M
-58.8433 0 N
( ) show grestore 8875 9152 M 0 214 R D gsave 8875 8624 translate 0 0 M
-294.217 0 N
(0.3) show grestore 2220 9152 M 0 107 R D 2450 9152 M 0 107 R D 2679 9152 M
0 107 R D 2909 9152 M 0 107 R D 3367 9152 M 0 107 R D 3597 9152 M 0 107 R D
3826 9152 M 0 107 R D 4056 9152 M 0 107 R D 4515 9152 M 0 107 R D
4744 9152 M 0 107 R D 4974 9152 M 0 107 R D 5203 9152 M 0 107 R D
5662 9152 M 0 107 R D 5892 9152 M 0 107 R D 6121 9152 M 0 107 R D
6351 9152 M 0 107 R D 6810 9152 M 0 107 R D 7039 9152 M 0 107 R D
7269 9152 M 0 107 R D 7498 9152 M 0 107 R D 7957 9152 M 0 107 R D
8187 9152 M 0 107 R D 8416 9152 M 0 107 R D 8646 9152 M 0 107 R D
9105 9152 M 0 107 R D 9334 9152 M 0 107 R D gsave 5777 8166 translate 0 0 M
-928.793 0 N
(m\(0\)/M\(0\)) show grestore 2220 14496 M 7114 0 R D 3138 14496 M 0 -214 R
D 4285 14496 M 0 -214 R D 5433 14496 M 0 -214 R D 6580 14496 M 0 -214 R D
7728 14496 M 0 -214 R D 8875 14496 M 0 -214 R D 2220 14496 M 0 -107 R D
2450 14496 M 0 -107 R D 2679 14496 M 0 -107 R D 2909 14496 M 0 -107 R D
3367 14496 M 0 -107 R D 3597 14496 M 0 -107 R D 3826 14496 M 0 -107 R D
4056 14496 M 0 -107 R D 4515 14496 M 0 -107 R D 4744 14496 M 0 -107 R D
4974 14496 M 0 -107 R D 5203 14496 M 0 -107 R D 5662 14496 M 0 -107 R D
5892 14496 M 0 -107 R D 6121 14496 M 0 -107 R D 6351 14496 M 0 -107 R D
6810 14496 M 0 -107 R D 7039 14496 M 0 -107 R D 7269 14496 M 0 -107 R D
7498 14496 M 0 -107 R D 7957 14496 M 0 -107 R D 8187 14496 M 0 -107 R D
8416 14496 M 0 -107 R D 8646 14496 M 0 -107 R D 9105 14496 M 0 -107 R D
9334 14496 M 0 -107 R D 2220 9152 M 0 5344 R D 2220 9152 M 285 0 R D
gsave 2109 9152 translate 0 0 M -729.403 0 N
(-1.0) show grestore 2220 9987 M 285 0 R D gsave 2109 9846 translate 0 0 M
-729.403 0 N
(-0.5) show grestore 2220 10822 M 285 0 R D gsave 2109 10681 translate 0 0 M
-588.433 0 N
(0.0) show grestore 2220 11657 M 285 0 R D gsave 2109 11516 translate 0 0 M
-588.433 0 N
(0.5) show grestore 2220 12492 M 285 0 R D gsave 2109 12351 translate 0 0 M
-588.433 0 N
(1.0) show grestore 2220 13327 M 285 0 R D gsave 2109 13186 translate 0 0 M
-588.433 0 N
(1.5) show grestore 2220 14162 M 285 0 R D gsave 2109 14021 translate 0 0 M
-588.433 0 N
(2.0) show grestore 2220 9319 M 142 0 R D 2220 9486 M 142 0 R D 2220 9653 M
142 0 R D 2220 9820 M 142 0 R D 2220 10154 M 142 0 R D 2220 10321 M 142 0 R
D 2220 10488 M 142 0 R D 2220 10655 M 142 0 R D 2220 10989 M 142 0 R D
2220 11156 M 142 0 R D 2220 11323 M 142 0 R D 2220 11490 M 142 0 R D
2220 11824 M 142 0 R D 2220 11991 M 142 0 R D 2220 12158 M 142 0 R D
2220 12325 M 142 0 R D 2220 12659 M 142 0 R D 2220 12826 M 142 0 R D
2220 12993 M 142 0 R D 2220 13160 M 142 0 R D 2220 13494 M 142 0 R D
2220 13661 M 142 0 R D 2220 13828 M 142 0 R D 2220 13995 M 142 0 R D
2220 14329 M 142 0 R D 2220 14496 M 142 0 R D
gsave 1047 11824 translate 0 0 M 90 rotate -1643.17 0 N
(ln) show
%%IncludeResource: font Symbol
423.333 /Symbol STDFONT
(L) show
%%IncludeResource: font Helvetica
423.333 /Helvetica STDFONT
(-ln[M\(0\)/m\(t\)]) show grestore 9334 9152 M 0 5344 R D 9334 9152 M
-285 0 R D 9334 9987 M -285 0 R D 9334 10822 M -285 0 R D 9334 11657 M
-285 0 R D 9334 12492 M -285 0 R D 9334 13327 M -285 0 R D 9334 14162 M
-285 0 R D 9334 9319 M -142 0 R D 9334 9486 M -142 0 R D 9334 9653 M
-142 0 R D 9334 9820 M -142 0 R D 9334 10154 M -142 0 R D 9334 10321 M
-142 0 R D 9334 10488 M -142 0 R D 9334 10655 M -142 0 R D 9334 10989 M
-142 0 R D 9334 11156 M -142 0 R D 9334 11323 M -142 0 R D 9334 11490 M
-142 0 R D 9334 11824 M -142 0 R D 9334 11991 M -142 0 R D 9334 12158 M
-142 0 R D 9334 12325 M -142 0 R D 9334 12659 M -142 0 R D 9334 12826 M
-142 0 R D 9334 12993 M -142 0 R D 9334 13160 M -142 0 R D 9334 13494 M
-142 0 R D 9334 13661 M -142 0 R D 9334 13828 M -142 0 R D 9334 13995 M
-142 0 R D 9334 14329 M -142 0 R D 9334 14496 M -142 0 R D 8764 10321 M
222 0 R -111 0 R 0 111 R 0 -222 R D 8764 9987 M 222 0 R -111 0 R 0 111 R
0 -222 R D 6469 10488 M 222 0 R -111 0 R 0 111 R 0 -222 R D 6469 10488 M
222 0 R -111 0 R 0 111 R 0 -222 R D 6469 9987 M 222 0 R -111 0 R 0 111 R
0 -222 R D 6469 9486 M 222 0 R -111 0 R 0 111 R 0 -222 R D 4174 11490 M
222 0 R -111 0 R 0 111 R 0 -222 R D 4174 11323 M 222 0 R -111 0 R 0 111 R
0 -222 R D 4174 10822 M 222 0 R -111 0 R 0 111 R 0 -222 R D 4174 10321 M
222 0 R -111 0 R 0 111 R 0 -222 R D 3502 11991 M 222 0 R -111 0 R 0 111 R
0 -222 R D 3502 10989 M 222 0 R -111 0 R 0 111 R 0 -222 R D 3027 12492 M
222 0 R -111 0 R 0 111 R 0 -222 R D 3027 12659 M 222 0 R -111 0 R 0 111 R
0 -222 R D 3027 11991 M 222 0 R -111 0 R 0 111 R 0 -222 R D 2453 14162 M
222 0 R -111 0 R 0 111 R 0 -222 R D 2453 12659 M 222 0 R -111 0 R 0 111 R
0 -222 R D 4174 10488 M 222 0 R -111 0 R 0 111 R 0 -222 R D 4174 10822 M
222 0 R -111 0 R 0 111 R 0 -222 R D 4174 10488 M 222 0 R -111 0 R 0 111 R
0 -222 R D 4174 10972 M 222 0 R -111 0 R 0 111 R 0 -222 R D 4174 10321 M
222 0 R -111 0 R 0 111 R 0 -222 R D 4174 10488 M 222 0 R -111 0 R 0 111 R
0 -222 R D 4174 10488 M 222 0 R -111 0 R 0 111 R 0 -222 R D 4174 10822 M
222 0 R -111 0 R 0 111 R 0 -222 R D 4174 10822 M 222 0 R -111 0 R 0 111 R
0 -222 R D 0.000 0.000 1.000 setrgbcolor 2220 13283 M 69 -95 R 69 -93 R
69 -92 R 68 -91 R 69 -89 R 69 -88 R 69 -87 R 69 -85 R 69 -84 R 69 -83 R
68 -82 R 69 -80 R 69 -79 R 69 -77 R 69 -76 R 69 -75 R 68 -74 R 69 -72 R
69 -71 R 69 -70 R 69 -68 R 69 -67 R 68 -66 R 69 -64 R 69 -63 R 69 -62 R
69 -60 R 69 -59 R 69 -58 R 68 -57 R 69 -55 R 69 -54 R 69 -52 R 69 -51 R
69 -50 R 68 -49 R 69 -47 R 69 -46 R 69 -44 R 69 -44 R 69 -42 R 69 -40 R
68 -40 R 69 -38 R 69 -36 R 69 -36 R 69 -34 R 69 -33 R 68 -31 R 69 -30 R
69 -29 R 69 -27 R 69 -27 R 69 -24 R 69 -24 R 68 -22 R 69 -21 R 69 -20 R
69 -18 R 69 -17 R 69 -16 R 68 -14 R 69 -13 R 69 -12 R 69 -10 R 69 -9 R
69 -8 R 69 -6 R 68 -5 R 69 -4 R 69 -2 R 69 -2 R 69 1 R 69 1 R 68 3 R 69 4 R
69 5 R 69 7 R 69 8 R 69 10 R 69 10 R 68 12 R 69 14 R 69 14 R 69 16 R 69 18 R
69 18 R 68 20 R 69 21 R 69 23 R 69 24 R 69 25 R 69 27 R 68 27 R 69 29 R
69 31 R 69 32 R 69 33 R 69 34 R 69 36 R D 0.000 0.000 0.000 setrgbcolor
2220 2208 M 7114 0 R D 3109 2208 M 0 214 R D gsave 3109 1680 translate 0 0 M
-294.217 0 N
(0.4) show grestore 4888 2208 M 0 214 R D gsave 4888 1680 translate 0 0 M
-294.217 0 N
(0.6) show grestore 6666 2208 M 0 214 R D gsave 6666 1680 translate 0 0 M
-294.217 0 N
(0.8) show grestore 8445 2208 M 0 214 R D gsave 8445 1680 translate 0 0 M
-294.217 0 N
(1.0) show grestore 2220 2208 M 0 107 R D 2665 2208 M 0 107 R D 3554 2208 M
0 107 R D 3999 2208 M 0 107 R D 4443 2208 M 0 107 R D 5332 2208 M 0 107 R D
5777 2208 M 0 107 R D 6222 2208 M 0 107 R D 7111 2208 M 0 107 R D
7556 2208 M 0 107 R D 8000 2208 M 0 107 R D 8889 2208 M 0 107 R D
9334 2208 M 0 107 R D gsave 5777 1222 translate 0 0 M -92.9217 0 N
%%IncludeResource: font Symbol
423.333 /Symbol STDFONT
(e) show
%%IncludeResource: font Helvetica
423.333 /Helvetica STDFONT grestore 2220 7552 M 7114 0 R D 3109 7552 M
0 -214 R D 4888 7552 M 0 -214 R D 6666 7552 M 0 -214 R D 8445 7552 M
0 -214 R D 2220 7552 M 0 -107 R D 2665 7552 M 0 -107 R D 3554 7552 M
0 -107 R D 3999 7552 M 0 -107 R D 4443 7552 M 0 -107 R D 5332 7552 M
0 -107 R D 5777 7552 M 0 -107 R D 6222 7552 M 0 -107 R D 7111 7552 M
0 -107 R D 7556 7552 M 0 -107 R D 8000 7552 M 0 -107 R D 8889 7552 M
0 -107 R D 9334 7552 M 0 -107 R D 2220 2208 M 0 5344 R D 2220 2208 M 285 0 R
D gsave 2109 2208 translate 0 0 M -729.403 0 N
(-1.0) show grestore 2220 3043 M 285 0 R D gsave 2109 2902 translate 0 0 M
-729.403 0 N
(-0.5) show grestore 2220 3878 M 285 0 R D gsave 2109 3737 translate 0 0 M
-588.433 0 N
(0.0) show grestore 2220 4713 M 285 0 R D gsave 2109 4572 translate 0 0 M
-588.433 0 N
(0.5) show grestore 2220 5548 M 285 0 R D gsave 2109 5407 translate 0 0 M
-588.433 0 N
(1.0) show grestore 2220 6383 M 285 0 R D gsave 2109 6242 translate 0 0 M
-588.433 0 N
(1.5) show grestore 2220 7218 M 285 0 R D gsave 2109 7077 translate 0 0 M
-588.433 0 N
(2.0) show grestore 2220 2375 M 142 0 R D 2220 2542 M 142 0 R D 2220 2709 M
142 0 R D 2220 2876 M 142 0 R D 2220 3210 M 142 0 R D 2220 3377 M 142 0 R D
2220 3544 M 142 0 R D 2220 3711 M 142 0 R D 2220 4045 M 142 0 R D
2220 4212 M 142 0 R D 2220 4379 M 142 0 R D 2220 4546 M 142 0 R D
2220 4880 M 142 0 R D 2220 5047 M 142 0 R D 2220 5214 M 142 0 R D
2220 5381 M 142 0 R D 2220 5715 M 142 0 R D 2220 5882 M 142 0 R D
2220 6049 M 142 0 R D 2220 6216 M 142 0 R D 2220 6550 M 142 0 R D
2220 6717 M 142 0 R D 2220 6884 M 142 0 R D 2220 7051 M 142 0 R D
2220 7385 M 142 0 R D 2220 7552 M 142 0 R D gsave 1047 4880 translate 0 0 M
90 rotate -1643.17 0 N
(ln) show
%%IncludeResource: font Symbol
423.333 /Symbol STDFONT
(L) show
%%IncludeResource: font Helvetica
423.333 /Helvetica STDFONT
(-ln[M\(0\)/m\(t\)]) show grestore 9334 2208 M 0 5344 R D 9334 2208 M
-285 0 R D 9334 3043 M -285 0 R D 9334 3878 M -285 0 R D 9334 4713 M
-285 0 R D 9334 5548 M -285 0 R D 9334 6383 M -285 0 R D 9334 7218 M
-285 0 R D 9334 2375 M -142 0 R D 9334 2542 M -142 0 R D 9334 2709 M
-142 0 R D 9334 2876 M -142 0 R D 9334 3210 M -142 0 R D 9334 3377 M
-142 0 R D 9334 3544 M -142 0 R D 9334 3711 M -142 0 R D 9334 4045 M
-142 0 R D 9334 4212 M -142 0 R D 9334 4379 M -142 0 R D 9334 4546 M
-142 0 R D 9334 4880 M -142 0 R D 9334 5047 M -142 0 R D 9334 5214 M
-142 0 R D 9334 5381 M -142 0 R D 9334 5715 M -142 0 R D 9334 5882 M
-142 0 R D 9334 6049 M -142 0 R D 9334 6216 M -142 0 R D 9334 6550 M
-142 0 R D 9334 6717 M -142 0 R D 9334 6884 M -142 0 R D 9334 7051 M
-142 0 R D 9334 7385 M -142 0 R D 9334 7552 M -142 0 R D 6377 3377 M 222 0 R
-111 0 R 0 111 R 0 -222 R D 8334 3043 M 222 0 R -111 0 R 0 111 R 0 -222 R D
3532 3544 M 222 0 R -111 0 R 0 111 R 0 -222 R D 5221 3544 M 222 0 R -111 0 R
0 111 R 0 -222 R D 6377 3043 M 222 0 R -111 0 R 0 111 R 0 -222 R D
8334 2542 M 222 0 R -111 0 R 0 111 R 0 -222 R D 2376 4546 M 222 0 R -111 0 R
0 111 R 0 -222 R D 3532 4379 M 222 0 R -111 0 R 0 111 R 0 -222 R D
5221 3878 M 222 0 R -111 0 R 0 111 R 0 -222 R D 6377 3377 M 222 0 R -111 0 R
0 111 R 0 -222 R D 3532 5047 M 222 0 R -111 0 R 0 111 R 0 -222 R D
5221 4045 M 222 0 R -111 0 R 0 111 R 0 -222 R D 2376 5548 M 222 0 R -111 0 R
0 111 R 0 -222 R D 3532 5715 M 222 0 R -111 0 R 0 111 R 0 -222 R D
5221 5047 M 222 0 R -111 0 R 0 111 R 0 -222 R D 3532 7218 M 222 0 R -111 0 R
0 111 R 0 -222 R D 5221 5715 M 222 0 R -111 0 R 0 111 R 0 -222 R D
2376 3544 M 222 0 R -111 0 R 0 111 R 0 -222 R D 2376 3878 M 222 0 R -111 0 R
0 111 R 0 -222 R D 3532 3544 M 222 0 R -111 0 R 0 111 R 0 -222 R D
3532 4028 M 222 0 R -111 0 R 0 111 R 0 -222 R D 5221 3377 M 222 0 R -111 0 R
0 111 R 0 -222 R D 5221 3544 M 222 0 R -111 0 R 0 111 R 0 -222 R D
5221 3544 M 222 0 R -111 0 R 0 111 R 0 -222 R D 5221 3878 M 222 0 R -111 0 R
0 111 R 0 -222 R D 5221 3878 M 222 0 R -111 0 R 0 111 R 0 -222 R D
%%PageTrailer
end
%%PageResources: font Helvetica
%%+ font Symbol
%%Trailer
%%Pages: 1
%%DocumentNeededResources: font Helvetica
%%+ font Symbol
%%EOF
