%!PS-Adobe-3.0 EPSF-3.0
%%BoundingBox: 0 0 283 368
%%Title: Graphics produced by IDL
%%For: jlgan@aida119, /home/jlgan/work/subhalo_model
%%Creator: IDL Version 7.1 (linux x86_64 m64)
%%CreationDate: Tue Aug 25 13:11:17 2009
%%DocumentData: Clean7bit
%%Requirements: color
%%LanguageLevel: 1
%%PageOrder: Ascend
%%Pages: (atend)
%%DocumentNeededResources: (atend)
%%EndComments
%%BeginProlog
%+ prolog.ps -- Prolog for IDL generated PostScript files
%+ Copyright (c) 1988-2009 ITT Visual Information Solutions. All Rights Reserved.
%v 5
/$IDL_DICT 40 dict def $IDL_DICT begin /bdef { bind def } bind def /C
{currentpoint newpath moveto} bdef /CP {currentpoint} bdef /D {currentpoint
stroke moveto} bdef /F {closepath fill} bdef /K { setgray } bdef /M {moveto}
bdef /N {rmoveto} bdef /P {lineto} bdef /R {rlineto} bdef /S {gsave show
grestore} bdef /X {currentpoint pop} bdef /Z {gsave currentpoint lineto 20
setlinewidth 1 setlinecap stroke grestore} bdef /L0 {[] 0 setdash} bdef /L1
{[40 100] 0 setdash} bdef /L2 {[200 200] 0 setdash} bdef /L3 {[200 100 50
100] 0 setdash} bdef /L4 {[300 100 50 100 50 100 50 100] 0 setdash} bdef /L5
{[400 200] 0 setdash} bdef /STDFONT { findfont exch scalefont setfont } bdef
/ISOFONT { findfont dup length dict begin { 1 index /FID ne {def} {pop pop}
ifelse } forall /Encoding ISOLatin1Encoding def currentdict end /idltmpfont
exch definefont exch scalefont setfont } bdef /ISOBULLET { gsave /Helvetica
findfont exch scalefont setfont (\267) show currentpoint grestore moveto}
bdef /MITERLIMIT { 2.5 setmiterlimit } bdef end
%%EndProlog
%%Page: 0 1
%%PageRequirements: color
%%PageResources: (atend)
%%PageOrientation: Portrait
%%PageBoundingBox: 0 0 283 368
%%BeginPageSetup
$IDL_DICT begin 0.0283465 dup scale MITERLIMIT
%%IncludeResource: font Helvetica
423.333 /Helvetica STDFONT
%%EndPageSetup
0.000 0.000 0.000 setrgbcolor gsave 5777 352 translate 0 0 M -576.368 0 N
(t [Gyr]) show grestore gsave 888 6852 translate 0 0 M 90 rotate
-611.293 0 N
(j\(t\)/j\(0\)) show grestore 40 setlinewidth L0 2220 8667 M 3557 0 R D
2220 8667 M 0 145 R D gsave 2220 8139 translate 0 0 M -58.8433 0 N
( ) show grestore 2932 8667 M 0 145 R D gsave 2932 8139 translate 0 0 M
-58.8433 0 N
( ) show grestore 3644 8667 M 0 145 R D gsave 3644 8139 translate 0 0 M
-58.8433 0 N
( ) show grestore 4356 8667 M 0 145 R D gsave 4356 8139 translate 0 0 M
-58.8433 0 N
( ) show grestore 5068 8667 M 0 145 R D gsave 5068 8139 translate 0 0 M
-58.8433 0 N
( ) show grestore 2398 8667 M 0 72 R D 2576 8667 M 0 72 R D 2754 8667 M
0 72 R D 3110 8667 M 0 72 R D 3288 8667 M 0 72 R D 3466 8667 M 0 72 R D
3822 8667 M 0 72 R D 4000 8667 M 0 72 R D 4178 8667 M 0 72 R D 4534 8667 M
0 72 R D 4712 8667 M 0 72 R D 4890 8667 M 0 72 R D 5247 8667 M 0 72 R D
5425 8667 M 0 72 R D 5603 8667 M 0 72 R D 2220 12296 M 3557 0 R D
2220 12296 M 0 -145 R D 2932 12296 M 0 -145 R D 3644 12296 M 0 -145 R D
4356 12296 M 0 -145 R D 5068 12296 M 0 -145 R D 2398 12296 M 0 -73 R D
2576 12296 M 0 -73 R D 2754 12296 M 0 -73 R D 3110 12296 M 0 -73 R D
3288 12296 M 0 -73 R D 3466 12296 M 0 -73 R D 3822 12296 M 0 -73 R D
4000 12296 M 0 -73 R D 4178 12296 M 0 -73 R D 4534 12296 M 0 -73 R D
4712 12296 M 0 -73 R D 4890 12296 M 0 -73 R D 5247 12296 M 0 -73 R D
5425 12296 M 0 -73 R D 5603 12296 M 0 -73 R D 2220 8667 M 0 3629 R D
2220 9324 M 142 0 R D gsave 2109 9183 translate 0 0 M -588.433 0 N
(0.2) show grestore 2220 9984 M 142 0 R D gsave 2109 9844 translate 0 0 M
-588.433 0 N
(0.4) show grestore 2220 10645 M 142 0 R D gsave 2109 10504 translate 0 0 M
-588.433 0 N
(0.6) show grestore 2220 11305 M 142 0 R D gsave 2109 11165 translate 0 0 M
-588.433 0 N
(0.8) show grestore 2220 11966 M 142 0 R D gsave 2109 11825 translate 0 0 M
-588.433 0 N
(1.0) show grestore 2220 8829 M 71 0 R D 2220 8994 M 71 0 R D 2220 9159 M
71 0 R D 2220 9489 M 71 0 R D 2220 9654 M 71 0 R D 2220 9819 M 71 0 R D
2220 10150 M 71 0 R D 2220 10315 M 71 0 R D 2220 10480 M 71 0 R D
2220 10810 M 71 0 R D 2220 10975 M 71 0 R D 2220 11140 M 71 0 R D
2220 11470 M 71 0 R D 2220 11636 M 71 0 R D 2220 11801 M 71 0 R D
2220 12131 M 71 0 R D 2220 12296 M 71 0 R D 5777 8667 M 0 3629 R D
5777 9324 M -142 0 R D 5777 9984 M -142 0 R D 5777 10645 M -142 0 R D
5777 11305 M -142 0 R D 5777 11966 M -142 0 R D 5777 8829 M -71 0 R D
5777 8994 M -71 0 R D 5777 9159 M -71 0 R D 5777 9489 M -71 0 R D
5777 9654 M -71 0 R D 5777 9819 M -71 0 R D 5777 10150 M -71 0 R D
5777 10315 M -71 0 R D 5777 10480 M -71 0 R D 5777 10810 M -71 0 R D
5777 10975 M -71 0 R D 5777 11140 M -71 0 R D 5777 11470 M -71 0 R D
5777 11636 M -71 0 R D 5777 11801 M -71 0 R D 5777 12131 M -71 0 R D
5777 12296 M -71 0 R D 80 setlinewidth L5 2220 11966 M 356 -33 R 356 -165 R
356 -165 R 356 -66 R 356 -67 R 356 -33 R 356 -33 R 356 -132 R 357 -66 R
352 -66 R D
%%PageTrailer
end
%%PageResources: font Helvetica
%%Trailer
%%Pages: 1
%%DocumentNeededResources: font Helvetica
%%EOF
