%!PS-Adobe-3.0 EPSF-3.0
%%BoundingBox: 0 0 283 368
%%Title: Graphics produced by IDL
%%For: dacia@JiangHu, /home/dacia/work/subhalo_model
%%Creator: IDL Version 7.0 (linux x86_64 m64)
%%CreationDate: Wed Nov  4 22:13:02 2009
%%DocumentData: Clean7bit
%%Requirements: color
%%LanguageLevel: 1
%%PageOrder: Ascend
%%Pages: (atend)
%%DocumentNeededResources: (atend)
%%EndComments
%%BeginProlog
%+ prolog.ps -- Prolog for IDL generated PostScript files
%+ Copyright (c) 1988-2007 ITT Visual Information Solutions. All Rights Reserved.
%v 5
/$IDL_DICT 40 dict def $IDL_DICT begin /bdef { bind def } bind def /C
{currentpoint newpath moveto} bdef /CP {currentpoint} bdef /D {currentpoint
stroke moveto} bdef /F {closepath fill} bdef /K { setgray } bdef /M {moveto}
bdef /N {rmoveto} bdef /P {lineto} bdef /R {rlineto} bdef /S {gsave show
grestore} bdef /X {currentpoint pop} bdef /Z {gsave currentpoint lineto 20
setlinewidth 1 setlinecap stroke grestore} bdef /L0 {[] 0 setdash} bdef /L1
{[40 100] 0 setdash} bdef /L2 {[200 200] 0 setdash} bdef /L3 {[200 100 50
100] 0 setdash} bdef /L4 {[300 100 50 100 50 100 50 100] 0 setdash} bdef /L5
{[400 200] 0 setdash} bdef /STDFONT { findfont exch scalefont setfont } bdef
/ISOFONT { findfont dup length dict begin { 1 index /FID ne {def} {pop pop}
ifelse } forall /Encoding ISOLatin1Encoding def currentdict end /idltmpfont
exch definefont exch scalefont setfont } bdef /ISOBULLET { gsave /Helvetica
findfont exch scalefont setfont (\267) show currentpoint grestore moveto}
bdef /MITERLIMIT { 2.5 setmiterlimit } bdef end
%%EndProlog
%%Page: 0 1
%%PageRequirements: color
%%PageResources: (atend)
%%PageOrientation: Portrait
%%PageBoundingBox: 0 0 283 368
%%BeginPageSetup
$IDL_DICT begin 0.0283465 dup scale MITERLIMIT
%%IncludeResource: font Helvetica
423.333 /Helvetica STDFONT
%%EndPageSetup
0.000 0.000 0.000 setrgbcolor gsave 5777 352 translate 0 0 M -576.368 0 N
(t / Gyr) show grestore gsave 888 6852 translate 0 0 M 90 rotate
-611.293 0 N
(j\(t\)/j\(0\)) show grestore 40 setlinewidth L0 2220 8667 M 3557 0 R D
2220 8667 M 0 145 R D gsave 2220 8139 translate 0 0 M -58.8433 0 N
( ) show grestore 2932 8667 M 0 145 R D gsave 2932 8139 translate 0 0 M
-58.8433 0 N
( ) show grestore 3644 8667 M 0 145 R D gsave 3644 8139 translate 0 0 M
-58.8433 0 N
( ) show grestore 4356 8667 M 0 145 R D gsave 4356 8139 translate 0 0 M
-58.8433 0 N
( ) show grestore 5068 8667 M 0 145 R D gsave 5068 8139 translate 0 0 M
-58.8433 0 N
( ) show grestore 2398 8667 M 0 72 R D 2576 8667 M 0 72 R D 2754 8667 M
0 72 R D 3110 8667 M 0 72 R D 3288 8667 M 0 72 R D 3466 8667 M 0 72 R D
3822 8667 M 0 72 R D 4000 8667 M 0 72 R D 4178 8667 M 0 72 R D 4534 8667 M
0 72 R D 4712 8667 M 0 72 R D 4890 8667 M 0 72 R D 5247 8667 M 0 72 R D
5425 8667 M 0 72 R D 5603 8667 M 0 72 R D 2220 12296 M 3557 0 R D
2220 12296 M 0 -145 R D 2932 12296 M 0 -145 R D 3644 12296 M 0 -145 R D
4356 12296 M 0 -145 R D 5068 12296 M 0 -145 R D 2398 12296 M 0 -73 R D
2576 12296 M 0 -73 R D 2754 12296 M 0 -73 R D 3110 12296 M 0 -73 R D
3288 12296 M 0 -73 R D 3466 12296 M 0 -73 R D 3822 12296 M 0 -73 R D
4000 12296 M 0 -73 R D 4178 12296 M 0 -73 R D 4534 12296 M 0 -73 R D
4712 12296 M 0 -73 R D 4890 12296 M 0 -73 R D 5247 12296 M 0 -73 R D
5425 12296 M 0 -73 R D 5603 12296 M 0 -73 R D 2220 8667 M 0 3629 R D
2220 9324 M 142 0 R D gsave 2109 9183 translate 0 0 M -588.433 0 N
(0.2) show grestore 2220 9984 M 142 0 R D gsave 2109 9844 translate 0 0 M
-588.433 0 N
(0.4) show grestore 2220 10645 M 142 0 R D gsave 2109 10504 translate 0 0 M
-588.433 0 N
(0.6) show grestore 2220 11305 M 142 0 R D gsave 2109 11165 translate 0 0 M
-588.433 0 N
(0.8) show grestore 2220 11966 M 142 0 R D gsave 2109 11825 translate 0 0 M
-588.433 0 N
(1.0) show grestore 2220 8829 M 71 0 R D 2220 8994 M 71 0 R D 2220 9159 M
71 0 R D 2220 9489 M 71 0 R D 2220 9654 M 71 0 R D 2220 9819 M 71 0 R D
2220 10150 M 71 0 R D 2220 10315 M 71 0 R D 2220 10480 M 71 0 R D
2220 10810 M 71 0 R D 2220 10975 M 71 0 R D 2220 11140 M 71 0 R D
2220 11470 M 71 0 R D 2220 11636 M 71 0 R D 2220 11801 M 71 0 R D
2220 12131 M 71 0 R D 2220 12296 M 71 0 R D 5777 8667 M 0 3629 R D
5777 9324 M -142 0 R D 5777 9984 M -142 0 R D 5777 10645 M -142 0 R D
5777 11305 M -142 0 R D 5777 11966 M -142 0 R D 5777 8829 M -71 0 R D
5777 8994 M -71 0 R D 5777 9159 M -71 0 R D 5777 9489 M -71 0 R D
5777 9654 M -71 0 R D 5777 9819 M -71 0 R D 5777 10150 M -71 0 R D
5777 10315 M -71 0 R D 5777 10480 M -71 0 R D 5777 10810 M -71 0 R D
5777 10975 M -71 0 R D 5777 11140 M -71 0 R D 5777 11470 M -71 0 R D
5777 11636 M -71 0 R D 5777 11801 M -71 0 R D 5777 12131 M -71 0 R D
5777 12296 M -71 0 R D L5 2220 11966 M 356 -33 R 356 -165 R 356 -165 R
356 -66 R 356 -67 R 356 -33 R 356 -33 R 356 -132 R 357 -66 R 352 -66 R D L0
0.761 0.000 0.000 setrgbcolor 2220 11966 M 36 -14 R 119 -54 R 53 -30 R
40 -26 R 52 -41 R 58 -56 R 50 -51 R 48 -39 R 26 -16 R 54 -26 R 67 -25 R
92 -27 R 141 -34 R 143 -4 R 142 0 R 143 0 R 142 0 R 143 0 R 142 -16 R
142 -37 R 92 -29 R 57 -23 R 60 -32 R 49 -31 R 41 -23 R 40 -18 R 45 -15 R
58 -15 R 78 -16 R 119 -22 R 142 -23 R 143 -22 R 142 -23 R 143 -23 R
142 -25 R 81 -17 R 60 -16 R 46 -17 R 44 -19 R 37 -16 R 36 -12 R 38 -10 R
31 -6 R D L1 0.000 0.549 0.000 setrgbcolor 2220 11966 M 36 -13 R 75 -30 R
68 -31 R 50 -28 R 33 -21 R 32 -24 R 24 -21 R 57 -55 R 48 -44 R 22 -16 R
44 -27 R 34 -15 R 49 -19 R 49 -16 R 104 -27 R 142 -33 R 143 0 R 142 0 R
143 0 R 142 0 R 142 0 R 143 -15 R 128 -30 R 109 -32 R 67 -26 R 54 -27 R
49 -29 R 43 -23 R 40 -17 R 45 -15 R 40 -10 R 74 -16 R 103 -18 R 142 -22 R
143 -21 R 142 -21 R 142 -21 R 143 -22 R 142 -25 R 50 -12 R 38 -11 R 47 -16 R
43 -18 R 36 -14 R 15 -5 R D L2 0.000 0.000 1.000 setrgbcolor 2220 11966 M
36 -17 R 118 -62 R 55 -36 R 50 -40 R 24 -23 R 58 -63 R 52 -64 R 44 -48 R
43 -35 R 50 -30 R 65 -29 R 85 -32 R 130 -40 R 143 -29 R 142 0 R 143 0 R
142 0 R 143 -21 R 142 -44 R 106 -39 R 61 -30 R 51 -30 R 48 -36 R 41 -30 R
40 -23 R 40 -17 R 50 -17 R 67 -18 R 98 -23 R 143 -29 R 142 -28 R 143 -27 R
142 -29 R 142 -33 R 45 -13 R 46 -17 R 42 -19 R 39 -20 R 31 -15 R 31 -12 R
37 -10 R 46 -10 R 64 -12 R 95 -14 R 102 -15 R D
0.761 0.000 0.000 setrgbcolor gsave 2505 9624 translate 0 0 M
(C= 2.0) show grestore 0.000 0.549 0.000 setrgbcolor
gsave 2505 9261 translate 0 0 M
(C= 1.5) show grestore 0.000 0.000 1.000 setrgbcolor
gsave 2505 8898 translate 0 0 M
(C= 3.0) show grestore L0 0.000 0.000 0.000 setrgbcolor 5777 8667 M 3557 0 R
D 5777 8667 M 0 145 R D gsave 5777 8139 translate 0 0 M -58.8433 0 N
( ) show grestore 6489 8667 M 0 145 R D gsave 6489 8139 translate 0 0 M
-58.8433 0 N
( ) show grestore 7201 8667 M 0 145 R D gsave 7201 8139 translate 0 0 M
-58.8433 0 N
( ) show grestore 7913 8667 M 0 145 R D gsave 7913 8139 translate 0 0 M
-58.8433 0 N
( ) show grestore 8626 8667 M 0 145 R D gsave 8626 8139 translate 0 0 M
-58.8433 0 N
( ) show grestore 5955 8667 M 0 72 R D 6133 8667 M 0 72 R D 6311 8667 M
0 72 R D 6667 8667 M 0 72 R D 6845 8667 M 0 72 R D 7023 8667 M 0 72 R D
7379 8667 M 0 72 R D 7557 8667 M 0 72 R D 7735 8667 M 0 72 R D 8091 8667 M
0 72 R D 8269 8667 M 0 72 R D 8447 8667 M 0 72 R D 8804 8667 M 0 72 R D
8982 8667 M 0 72 R D 9160 8667 M 0 72 R D 5777 12296 M 3557 0 R D
5777 12296 M 0 -145 R D 6489 12296 M 0 -145 R D 7201 12296 M 0 -145 R D
7913 12296 M 0 -145 R D 8626 12296 M 0 -145 R D 5955 12296 M 0 -73 R D
6133 12296 M 0 -73 R D 6311 12296 M 0 -73 R D 6667 12296 M 0 -73 R D
6845 12296 M 0 -73 R D 7023 12296 M 0 -73 R D 7379 12296 M 0 -73 R D
7557 12296 M 0 -73 R D 7735 12296 M 0 -73 R D 8091 12296 M 0 -73 R D
8269 12296 M 0 -73 R D 8447 12296 M 0 -73 R D 8804 12296 M 0 -73 R D
8982 12296 M 0 -73 R D 9160 12296 M 0 -73 R D 5777 8667 M 0 3629 R D
5777 9324 M 142 0 R D gsave 5666 9183 translate 0 0 M -117.687 0 N
( ) show grestore 5777 9984 M 142 0 R D gsave 5666 9844 translate 0 0 M
-117.687 0 N
( ) show grestore 5777 10645 M 142 0 R D gsave 5666 10504 translate 0 0 M
-117.687 0 N
( ) show grestore 5777 11305 M 142 0 R D gsave 5666 11165 translate 0 0 M
-117.687 0 N
( ) show grestore 5777 11966 M 142 0 R D gsave 5666 11825 translate 0 0 M
-117.687 0 N
( ) show grestore 5777 8829 M 71 0 R D 5777 8994 M 71 0 R D 5777 9159 M
71 0 R D 5777 9489 M 71 0 R D 5777 9654 M 71 0 R D 5777 9819 M 71 0 R D
5777 10150 M 71 0 R D 5777 10315 M 71 0 R D 5777 10480 M 71 0 R D
5777 10810 M 71 0 R D 5777 10975 M 71 0 R D 5777 11140 M 71 0 R D
5777 11470 M 71 0 R D 5777 11636 M 71 0 R D 5777 11801 M 71 0 R D
5777 12131 M 71 0 R D 5777 12296 M 71 0 R D 9334 8667 M 0 3629 R D
9334 9324 M -142 0 R D 9334 9984 M -142 0 R D 9334 10645 M -142 0 R D
9334 11305 M -142 0 R D 9334 11966 M -142 0 R D 9334 8829 M -71 0 R D
9334 8994 M -71 0 R D 9334 9159 M -71 0 R D 9334 9489 M -71 0 R D
9334 9654 M -71 0 R D 9334 9819 M -71 0 R D 9334 10150 M -71 0 R D
9334 10315 M -71 0 R D 9334 10480 M -71 0 R D 9334 10810 M -71 0 R D
9334 10975 M -71 0 R D 9334 11140 M -71 0 R D 9334 11470 M -71 0 R D
9334 11636 M -71 0 R D 9334 11801 M -71 0 R D 9334 12131 M -71 0 R D
9334 12296 M -71 0 R D L5 5777 11966 M 356 -66 R 356 -430 R 356 -66 R
356 -33 R 356 -99 R 356 -33 R 356 -330 R 356 -33 R 357 -66 R 352 -262 R D L0
0.761 0.000 0.000 setrgbcolor 5777 11966 M 36 -9 R 109 -33 R 46 -18 R
52 -27 R 32 -23 R 25 -23 R 28 -35 R 26 -33 R 24 -24 R 23 -16 R 28 -13 R
38 -12 R 55 -12 R 86 -15 R 142 -19 R 143 0 R 142 0 R 143 0 R 142 0 R 142 0 R
143 0 R 142 0 R 143 -6 R 142 -20 R 61 -12 R 55 -14 R 37 -14 R 28 -15 R
25 -17 R 22 -13 R 22 -9 R 23 -7 R 31 -6 R 42 -6 R 63 -7 R 103 -9 R 142 -10 R
143 0 R 142 0 R 143 0 R 142 0 R 142 0 R 143 -11 R 16 -2 R D L1
0.000 0.549 0.000 setrgbcolor 5777 11966 M 36 -8 R 109 -29 R 46 -15 R
52 -23 R 32 -20 R 25 -21 R 28 -30 R 26 -28 R 24 -22 R 23 -14 R 28 -12 R
39 -10 R 55 -11 R 59 -9 R 133 -17 R 142 -1 R 143 0 R 142 0 R 143 0 R 142 0 R
143 0 R 142 0 R 142 0 R 143 -5 R 142 -18 R 56 -9 R 62 -15 R 28 -10 R
29 -13 R 25 -15 R 23 -11 R 21 -8 R 25 -6 R 31 -6 R 43 -5 R 66 -6 R 106 -8 R
142 -6 R 143 0 R 142 0 R 142 0 R 143 0 R 142 0 R 49 -2 R D L2
0.000 0.000 1.000 setrgbcolor 5777 11966 M 36 -12 R 109 -42 R 46 -22 R
52 -34 R 39 -37 R 30 -37 R 27 -43 R 24 -36 R 22 -25 R 25 -17 R 26 -13 R
27 -11 R 36 -11 R 41 -10 R 59 -12 R 103 -18 R 142 -11 R 143 0 R 142 0 R
143 0 R 142 0 R 143 0 R 142 -6 R 142 -25 R 85 -18 R 33 -10 R 39 -14 R
29 -14 R 27 -18 R 24 -19 R 21 -14 R 20 -9 R 24 -8 R 30 -7 R 42 -7 R 64 -8 R
104 -11 R 142 -12 R 143 -2 R 142 0 R 142 0 R 143 -6 R 141 -12 R 113 -13 R
27 -3 R 43 -8 R 27 -7 R 26 -9 R 24 -10 R 20 -8 R 20 -5 R 21 -4 R D
0.000 0.000 0.000 setrgbcolor gsave 9800 10481 translate 0 0 M 90 rotate
-529.59 0 N
(0.025) show grestore 0.761 0.000 0.000 setrgbcolor
gsave 6062 9624 translate 0 0 M
(C= 0.0) show grestore 0.000 0.549 0.000 setrgbcolor
gsave 6062 9261 translate 0 0 M
(C=-0.5) show grestore 0.000 0.000 1.000 setrgbcolor
gsave 6062 8898 translate 0 0 M
(C= 1.0) show grestore L0 0.000 0.000 0.000 setrgbcolor 2220 5037 M 3557 0 R
D 2220 5037 M 0 146 R D gsave 2220 4509 translate 0 0 M -58.8433 0 N
( ) show grestore 2932 5037 M 0 146 R D gsave 2932 4509 translate 0 0 M
-58.8433 0 N
( ) show grestore 3644 5037 M 0 146 R D gsave 3644 4509 translate 0 0 M
-58.8433 0 N
( ) show grestore 4356 5037 M 0 146 R D gsave 4356 4509 translate 0 0 M
-58.8433 0 N
( ) show grestore 5068 5037 M 0 146 R D gsave 5068 4509 translate 0 0 M
-58.8433 0 N
( ) show grestore 2398 5037 M 0 73 R D 2576 5037 M 0 73 R D 2754 5037 M
0 73 R D 3110 5037 M 0 73 R D 3288 5037 M 0 73 R D 3466 5037 M 0 73 R D
3822 5037 M 0 73 R D 4000 5037 M 0 73 R D 4178 5037 M 0 73 R D 4534 5037 M
0 73 R D 4712 5037 M 0 73 R D 4890 5037 M 0 73 R D 5247 5037 M 0 73 R D
5425 5037 M 0 73 R D 5603 5037 M 0 73 R D 2220 8667 M 3557 0 R D 2220 8667 M
0 -145 R D 2932 8667 M 0 -145 R D 3644 8667 M 0 -145 R D 4356 8667 M
0 -145 R D 5068 8667 M 0 -145 R D 2398 8667 M 0 -73 R D 2576 8667 M 0 -73 R
D 2754 8667 M 0 -73 R D 3110 8667 M 0 -73 R D 3288 8667 M 0 -73 R D
3466 8667 M 0 -73 R D 3822 8667 M 0 -73 R D 4000 8667 M 0 -73 R D
4178 8667 M 0 -73 R D 4534 8667 M 0 -73 R D 4712 8667 M 0 -73 R D
4890 8667 M 0 -73 R D 5247 8667 M 0 -73 R D 5425 8667 M 0 -73 R D
5603 8667 M 0 -73 R D 2220 5037 M 0 3630 R D 2220 5695 M 142 0 R D
gsave 2109 5554 translate 0 0 M -588.433 0 N
(0.2) show grestore 2220 6355 M 142 0 R D gsave 2109 6214 translate 0 0 M
-588.433 0 N
(0.4) show grestore 2220 7016 M 142 0 R D gsave 2109 6875 translate 0 0 M
-588.433 0 N
(0.6) show grestore 2220 7676 M 142 0 R D gsave 2109 7535 translate 0 0 M
-588.433 0 N
(0.8) show grestore 2220 8336 M 142 0 R D gsave 2109 8196 translate 0 0 M
-588.433 0 N
(1.0) show grestore 2220 5199 M 71 0 R D 2220 5364 M 71 0 R D 2220 5529 M
71 0 R D 2220 5860 M 71 0 R D 2220 6025 M 71 0 R D 2220 6190 M 71 0 R D
2220 6520 M 71 0 R D 2220 6685 M 71 0 R D 2220 6850 M 71 0 R D 2220 7181 M
71 0 R D 2220 7346 M 71 0 R D 2220 7511 M 71 0 R D 2220 7841 M 71 0 R D
2220 8006 M 71 0 R D 2220 8171 M 71 0 R D 2220 8502 M 71 0 R D 2220 8667 M
71 0 R D 5777 5037 M 0 3630 R D 5777 5695 M -142 0 R D 5777 6355 M -142 0 R
D 5777 7016 M -142 0 R D 5777 7676 M -142 0 R D 5777 8336 M -142 0 R D
5777 5199 M -71 0 R D 5777 5364 M -71 0 R D 5777 5529 M -71 0 R D
5777 5860 M -71 0 R D 5777 6025 M -71 0 R D 5777 6190 M -71 0 R D
5777 6520 M -71 0 R D 5777 6685 M -71 0 R D 5777 6850 M -71 0 R D
5777 7181 M -71 0 R D 5777 7346 M -71 0 R D 5777 7511 M -71 0 R D
5777 7841 M -71 0 R D 5777 8006 M -71 0 R D 5777 8171 M -71 0 R D
5777 8502 M -71 0 R D 5777 8667 M -71 0 R D L5 2220 8336 M 356 -132 R
356 -330 R 356 -297 R 356 -66 R 356 -33 R 356 -165 R 356 -297 R 356 -100 R
357 -264 R 352 -229 R D L0 0.761 0.000 0.000 setrgbcolor 2220 8336 M
36 -20 R 119 -80 R 86 -76 R 61 -72 R 27 -38 R 56 -91 R 46 -70 R 44 -52 R
48 -43 R 61 -41 R 68 -38 R 97 -47 R 132 -58 R 142 -59 R 142 -59 R 143 -59 R
142 -62 R 102 -53 R 54 -35 R 28 -23 R 29 -27 R 26 -30 R 37 -44 R 29 -32 R
29 -24 R 34 -21 R 45 -22 R 59 -23 R 91 -31 R 142 -45 R 142 -44 R 143 -46 R
56 -20 R 56 -25 R 33 -19 R 31 -23 R 29 -23 R 24 -18 R 23 -14 R 26 -11 R
34 -12 R 46 -12 R 68 -16 R 110 -23 R 142 -29 R 118 -26 R 29 -7 R 37 -11 R
30 -11 R 27 -12 R 25 -13 R 22 -11 R 21 -7 R 22 -6 R 28 -6 R 38 -6 R 42 -6 R
D L1 0.000 0.549 0.000 setrgbcolor 2220 8336 M 36 -18 R 119 -70 R 86 -67 R
45 -45 R 59 -75 R 53 -77 R 44 -56 R 42 -41 R 51 -38 R 66 -37 R 75 -35 R
87 -36 R 143 -54 R 142 -36 R 143 0 R 142 -47 R 137 -51 R 143 -61 R 55 -30 R
54 -36 R 41 -36 R 41 -42 R 35 -35 R 34 -26 R 36 -21 R 46 -21 R 62 -23 R
92 -28 R 142 -41 R 143 -38 R 142 -40 R 142 -44 R 38 -14 R 43 -20 R 35 -21 R
34 -25 R 29 -20 R 28 -16 R 28 -12 R 36 -12 R 48 -13 R 70 -15 R 111 -23 R
142 -27 R 143 -28 R 59 -13 R 35 -10 R D L2 0.000 0.000 1.000 setrgbcolor
2220 8336 M 36 -25 R 71 -56 R 61 -55 R 58 -64 R 46 -61 R 57 -96 R 35 -71 R
50 -102 R 46 -79 R 44 -56 R 45 -46 R 42 -36 R 41 -31 R 95 -66 R 143 -88 R
142 -84 R 143 -84 R 142 -87 R 85 -60 R 46 -39 R 43 -45 R 35 -47 R 32 -51 R
28 -42 R 27 -31 R 28 -25 R 36 -24 R 47 -26 R 70 -33 R 102 -44 R 143 -59 R
112 -49 R 29 -14 R 37 -21 R 30 -22 R 26 -22 R 25 -25 R 21 -21 R 21 -15 R
21 -11 R 26 -11 R 36 -12 R 52 -15 R 83 -21 R 142 -35 R 41 -11 R 35 -10 R
31 -10 R 26 -10 R 22 -11 R 21 -12 R 19 -10 R 17 -7 R 18 -5 R 22 -4 R 30 -5 R
43 -6 R 68 -8 R 114 -12 R 45 -6 R 31 -3 R 31 -4 R 25 -4 R 22 -4 R 21 -4 R
18 -4 R 17 -3 R 16 -1 R 19 -2 R 25 -1 R 35 -2 R 54 -3 R 11 -1 R D
0.761 0.000 0.000 setrgbcolor gsave 2505 5995 translate 0 0 M
(C= 1.2) show grestore 0.000 0.549 0.000 setrgbcolor
gsave 2505 5632 translate 0 0 M
(C= 0.7) show grestore 0.000 0.000 1.000 setrgbcolor
gsave 2505 5269 translate 0 0 M
(C= 2.2) show grestore L0 0.000 0.000 0.000 setrgbcolor 5777 5037 M 3557 0 R
D 5777 5037 M 0 146 R D gsave 5777 4509 translate 0 0 M -58.8433 0 N
( ) show grestore 6489 5037 M 0 146 R D gsave 6489 4509 translate 0 0 M
-58.8433 0 N
( ) show grestore 7201 5037 M 0 146 R D gsave 7201 4509 translate 0 0 M
-58.8433 0 N
( ) show grestore 7913 5037 M 0 146 R D gsave 7913 4509 translate 0 0 M
-58.8433 0 N
( ) show grestore 8626 5037 M 0 146 R D gsave 8626 4509 translate 0 0 M
-58.8433 0 N
( ) show grestore 5955 5037 M 0 73 R D 6133 5037 M 0 73 R D 6311 5037 M
0 73 R D 6667 5037 M 0 73 R D 6845 5037 M 0 73 R D 7023 5037 M 0 73 R D
7379 5037 M 0 73 R D 7557 5037 M 0 73 R D 7735 5037 M 0 73 R D 8091 5037 M
0 73 R D 8269 5037 M 0 73 R D 8447 5037 M 0 73 R D 8804 5037 M 0 73 R D
8982 5037 M 0 73 R D 9160 5037 M 0 73 R D 5777 8667 M 3557 0 R D 5777 8667 M
0 -145 R D 6489 8667 M 0 -145 R D 7201 8667 M 0 -145 R D 7913 8667 M
0 -145 R D 8626 8667 M 0 -145 R D 5955 8667 M 0 -73 R D 6133 8667 M 0 -73 R
D 6311 8667 M 0 -73 R D 6667 8667 M 0 -73 R D 6845 8667 M 0 -73 R D
7023 8667 M 0 -73 R D 7379 8667 M 0 -73 R D 7557 8667 M 0 -73 R D
7735 8667 M 0 -73 R D 8091 8667 M 0 -73 R D 8269 8667 M 0 -73 R D
8447 8667 M 0 -73 R D 8804 8667 M 0 -73 R D 8982 8667 M 0 -73 R D
9160 8667 M 0 -73 R D 5777 5037 M 0 3630 R D 5777 5695 M 142 0 R D
gsave 5666 5554 translate 0 0 M -117.687 0 N
( ) show grestore 5777 6355 M 142 0 R D gsave 5666 6214 translate 0 0 M
-117.687 0 N
( ) show grestore 5777 7016 M 142 0 R D gsave 5666 6875 translate 0 0 M
-117.687 0 N
( ) show grestore 5777 7676 M 142 0 R D gsave 5666 7535 translate 0 0 M
-117.687 0 N
( ) show grestore 5777 8336 M 142 0 R D gsave 5666 8196 translate 0 0 M
-117.687 0 N
( ) show grestore 5777 5199 M 71 0 R D 5777 5364 M 71 0 R D 5777 5529 M
71 0 R D 5777 5860 M 71 0 R D 5777 6025 M 71 0 R D 5777 6190 M 71 0 R D
5777 6520 M 71 0 R D 5777 6685 M 71 0 R D 5777 6850 M 71 0 R D 5777 7181 M
71 0 R D 5777 7346 M 71 0 R D 5777 7511 M 71 0 R D 5777 7841 M 71 0 R D
5777 8006 M 71 0 R D 5777 8171 M 71 0 R D 5777 8502 M 71 0 R D 5777 8667 M
71 0 R D 9334 5037 M 0 3630 R D 9334 5695 M -142 0 R D 9334 6355 M -142 0 R
D 9334 7016 M -142 0 R D 9334 7676 M -142 0 R D 9334 8336 M -142 0 R D
9334 5199 M -71 0 R D 9334 5364 M -71 0 R D 9334 5529 M -71 0 R D
9334 5860 M -71 0 R D 9334 6025 M -71 0 R D 9334 6190 M -71 0 R D
9334 6520 M -71 0 R D 9334 6685 M -71 0 R D 9334 6850 M -71 0 R D
9334 7181 M -71 0 R D 9334 7346 M -71 0 R D 9334 7511 M -71 0 R D
9334 7841 M -71 0 R D 9334 8006 M -71 0 R D 9334 8171 M -71 0 R D
9334 8502 M -71 0 R D 9334 8667 M -71 0 R D L5 5777 8336 M 356 -198 R
356 -726 R 356 -132 R 356 -99 R 356 -397 R 356 -165 R 356 -330 R 356 -165 R
357 -264 R 352 -295 R D L0 0.761 0.000 0.000 setrgbcolor 5777 8336 M
36 -23 R 110 -84 R 62 -65 R 33 -46 R 31 -54 R 29 -70 R 30 -95 R 24 -86 R
22 -66 R 22 -43 R 26 -37 R 35 -36 R 51 -37 R 79 -47 R 133 -66 R 142 -67 R
143 -65 R 142 -64 R 143 -72 R 26 -16 R 41 -30 R 42 -42 R 19 -29 R 19 -35 R
17 -33 R 16 -25 R 15 -16 R 19 -14 R 22 -12 R 29 -12 R 51 -18 R 83 -23 R
142 -36 R 143 -35 R 142 -39 R 14 -4 R 50 -21 R 17 -10 R 17 -12 R 16 -15 R
15 -14 R 13 -10 R 13 -6 R 16 -6 R 20 -5 R 30 -5 R 46 -7 R 77 -9 R 143 -16 R
142 -16 R 41 -5 R 21 -3 R 26 -4 R 24 -4 R 19 -4 R 17 -5 R 15 -5 R 14 -6 R
13 -4 R 11 -2 R 13 -2 R 17 -2 R 23 -2 R 35 -2 R 55 -2 R 98 -4 R 142 -6 R
108 -4 R 14 -1 R 41 -2 R 19 -2 R 19 -1 R 16 -2 R 8 -2 R D L1
0.000 0.549 0.000 setrgbcolor 5777 8336 M 36 -20 R 110 -76 R 39 -34 R
48 -54 R 27 -37 R 39 -76 R 27 -76 R 25 -77 R 23 -61 R 21 -39 R 26 -33 R
34 -31 R 48 -31 R 53 -28 R 65 -30 R 122 -49 R 142 -55 R 143 -53 R 142 -53 R
142 -55 R 98 -45 R 27 -16 R 27 -18 R 28 -24 R 22 -25 R 20 -31 R 19 -32 R
15 -24 R 16 -16 R 18 -13 R 23 -13 R 32 -12 R 30 -9 R 61 -16 R 111 -25 R
143 -29 R 142 -29 R 143 -32 R 24 -6 R 37 -11 R 26 -10 R 21 -10 R 19 -12 R
18 -14 R 15 -13 R 15 -10 R 14 -6 R 16 -6 R 22 -5 R 31 -5 R 48 -6 R 80 -9 R
143 -14 R 142 -14 R 142 -16 R 14 -1 R 34 -6 R 21 -4 R 19 -4 R 16 -6 R
16 -5 R 13 -5 R 13 -3 R 14 -2 R 18 -1 R 25 -2 R 36 -2 R 59 -3 R 103 -4 R
56 -2 R D L2 0.000 0.000 1.000 setrgbcolor 5777 8336 M 36 -28 R 110 -101 R
40 -48 R 48 -72 R 38 -77 R 28 -79 R 27 -100 R 24 -103 R 20 -77 R 20 -54 R
24 -45 R 31 -43 R 44 -44 R 64 -52 R 90 -63 R 143 -89 R 142 -87 R 143 -85 R
112 -76 R 29 -25 R 38 -40 R 20 -28 R 19 -33 R 17 -39 R 15 -38 R 15 -29 R
13 -18 R 17 -15 R 21 -15 R 31 -16 R 47 -20 R 78 -27 R 142 -46 R 143 -46 R
17 -7 R 55 -23 R 17 -9 R 18 -12 R 15 -13 R 15 -16 R 12 -14 R 12 -11 R
11 -6 R 14 -6 R 17 -5 R 25 -5 R 38 -6 R 62 -9 R 118 -15 R 142 -19 R 14 -2 R
30 -5 R 19 -3 R 17 -5 R 14 -4 R 14 -5 R 12 -4 R 10 -3 R 10 -2 R 11 -2 R
15 -1 R 21 -2 R 32 -2 R 51 -2 R 90 -4 R 142 -6 R 17 -1 R 44 -2 R 18 -1 R
19 -1 R 16 -2 R 14 -1 R 12 -2 R 12 -1 R 11 -2 R 10 0 R 12 -1 R 15 0 R
23 -1 R 35 -1 R 58 -1 R 108 -2 R 142 -3 R 14 0 R 23 0 R 19 -1 R 15 -1 R
1 0 R D 0.000 0.000 0.000 setrgbcolor gsave 9800 6852 translate 0 0 M
90 rotate -411.903 0 N
(0.05) show grestore 0.761 0.000 0.000 setrgbcolor
gsave 6062 5995 translate 0 0 M
(C= 1.7) show grestore 0.000 0.549 0.000 setrgbcolor
gsave 6062 5632 translate 0 0 M
(C= 1.2) show grestore 0.000 0.000 1.000 setrgbcolor
gsave 6062 5269 translate 0 0 M
(C= 2.7) show grestore L0 0.000 0.000 0.000 setrgbcolor 2220 1408 M 3557 0 R
D 2220 1408 M 0 145 R D gsave 2220 880 translate 0 0 M -117.687 0 N
(0) show grestore 2932 1408 M 0 145 R D gsave 2932 880 translate 0 0 M
-117.687 0 N
(2) show grestore 3644 1408 M 0 145 R D gsave 3644 880 translate 0 0 M
-117.687 0 N
(4) show grestore 4356 1408 M 0 145 R D gsave 4356 880 translate 0 0 M
-117.687 0 N
(6) show grestore 5068 1408 M 0 145 R D gsave 5068 880 translate 0 0 M
-117.687 0 N
(8) show grestore 2398 1408 M 0 73 R D 2576 1408 M 0 73 R D 2754 1408 M
0 73 R D 3110 1408 M 0 73 R D 3288 1408 M 0 73 R D 3466 1408 M 0 73 R D
3822 1408 M 0 73 R D 4000 1408 M 0 73 R D 4178 1408 M 0 73 R D 4534 1408 M
0 73 R D 4712 1408 M 0 73 R D 4890 1408 M 0 73 R D 5247 1408 M 0 73 R D
5425 1408 M 0 73 R D 5603 1408 M 0 73 R D 2220 5037 M 3557 0 R D 2220 5037 M
0 -145 R D 2932 5037 M 0 -145 R D 3644 5037 M 0 -145 R D 4356 5037 M
0 -145 R D 5068 5037 M 0 -145 R D 2398 5037 M 0 -72 R D 2576 5037 M 0 -72 R
D 2754 5037 M 0 -72 R D 3110 5037 M 0 -72 R D 3288 5037 M 0 -72 R D
3466 5037 M 0 -72 R D 3822 5037 M 0 -72 R D 4000 5037 M 0 -72 R D
4178 5037 M 0 -72 R D 4534 5037 M 0 -72 R D 4712 5037 M 0 -72 R D
4890 5037 M 0 -72 R D 5247 5037 M 0 -72 R D 5425 5037 M 0 -72 R D
5603 5037 M 0 -72 R D 2220 1408 M 0 3629 R D 2220 2065 M 142 0 R D
gsave 2109 1924 translate 0 0 M -588.433 0 N
(0.2) show grestore 2220 2726 M 142 0 R D gsave 2109 2585 translate 0 0 M
-588.433 0 N
(0.4) show grestore 2220 3386 M 142 0 R D gsave 2109 3245 translate 0 0 M
-588.433 0 N
(0.6) show grestore 2220 4047 M 142 0 R D gsave 2109 3906 translate 0 0 M
-588.433 0 N
(0.8) show grestore 2220 4707 M 142 0 R D gsave 2109 4566 translate 0 0 M
-588.433 0 N
(1.0) show grestore 2220 1570 M 71 0 R D 2220 1735 M 71 0 R D 2220 1900 M
71 0 R D 2220 2230 M 71 0 R D 2220 2395 M 71 0 R D 2220 2561 M 71 0 R D
2220 2891 M 71 0 R D 2220 3056 M 71 0 R D 2220 3221 M 71 0 R D 2220 3551 M
71 0 R D 2220 3716 M 71 0 R D 2220 3882 M 71 0 R D 2220 4212 M 71 0 R D
2220 4377 M 71 0 R D 2220 4542 M 71 0 R D 2220 4872 M 71 0 R D 2220 5037 M
71 0 R D 5777 1408 M 0 3629 R D 5777 2065 M -142 0 R D 5777 2726 M -142 0 R
D 5777 3386 M -142 0 R D 5777 4047 M -142 0 R D 5777 4707 M -142 0 R D
5777 1570 M -71 0 R D 5777 1735 M -71 0 R D 5777 1900 M -71 0 R D
5777 2230 M -71 0 R D 5777 2395 M -71 0 R D 5777 2561 M -71 0 R D
5777 2891 M -71 0 R D 5777 3056 M -71 0 R D 5777 3221 M -71 0 R D
5777 3551 M -71 0 R D 5777 3716 M -71 0 R D 5777 3882 M -71 0 R D
5777 4212 M -71 0 R D 5777 4377 M -71 0 R D 5777 4542 M -71 0 R D
5777 4872 M -71 0 R D 5777 5037 M -71 0 R D L5 2220 4707 M 356 -165 R
356 -561 R 356 -430 R 356 -165 R 356 -462 R 356 -429 R 356 -529 R 356 -396 R
357 -162 R D L0 0.761 0.000 0.000 setrgbcolor 2220 4707 M 36 -30 R
121 -117 R 70 -90 R 56 -91 R 37 -78 R 53 -134 R 46 -125 R 45 -103 R 43 -79 R
54 -77 R 54 -67 R 57 -63 R 78 -81 R 91 -89 R 142 -135 R 143 -138 R 59 -64 R
38 -47 R 46 -68 R 30 -59 R 26 -65 R 24 -62 R 22 -50 R 21 -35 R 26 -33 R
33 -35 R 47 -43 R 54 -43 R 80 -62 R 61 -48 R 29 -23 R 42 -39 R 20 -23 R
19 -25 R 17 -29 R 16 -26 R 13 -19 R 12 -14 R 15 -12 R 20 -13 R 27 -13 R
40 -17 R 65 -26 R 36 -14 R 25 -10 R 23 -10 R 20 -9 R 16 -10 R 14 -9 R
14 -10 R 11 -8 R 11 -5 R 12 -4 R 14 -3 R 19 -4 R 27 -4 R 43 -6 R 71 -9 R
18 -3 R 28 -4 R 16 -3 R 14 -3 R 13 -3 R 12 -3 R 10 -1 R 9 -2 R 12 -1 R
14 -1 R 19 -1 R 30 -2 R 46 -2 R 58 -3 R 19 -1 R 19 -1 R 17 -1 R 14 -2 R
12 -1 R 12 -1 R 10 -1 R 9 -1 R 11 0 R 14 -1 R 19 0 R 28 -1 R 45 -1 R 59 -2 R
18 0 R 20 -1 R 16 -1 R 13 0 R 13 -1 R 11 -1 R 10 0 R 9 -1 R 9 0 R 14 0 R
18 -1 R 27 0 R 43 -1 R 73 -1 R 16 -1 R 18 0 R 15 0 R 12 -1 R 12 0 R 11 -1 R
10 0 R 10 0 R 12 -1 R 16 0 R 23 0 R 36 -1 R 59 -1 R 20 0 R 21 0 R 1 0 R D L1
0.000 0.549 0.000 setrgbcolor 2220 4707 M 36 -25 R 119 -97 R 53 -53 R
33 -40 R 27 -37 R 27 -42 R 34 -62 R 56 -124 R 46 -100 R 44 -78 R 46 -65 R
44 -49 R 54 -52 R 60 -52 R 65 -53 R 116 -89 R 142 -104 R 143 -104 R
142 -111 R 49 -45 R 58 -67 R 32 -48 R 31 -58 R 28 -59 R 24 -44 R 22 -33 R
28 -31 R 35 -31 R 48 -36 R 71 -46 R 103 -62 R 142 -88 R 23 -15 R 47 -37 R
24 -24 R 21 -26 R 21 -30 R 18 -25 R 17 -18 R 17 -14 R 21 -14 R 28 -14 R
41 -17 R 65 -24 R 108 -38 R 22 -8 R 29 -12 R 25 -11 R 21 -12 R 18 -11 R
17 -13 R 15 -11 R 14 -8 R 14 -6 R 16 -4 R 21 -5 R 31 -5 R 47 -7 R 77 -10 R
25 -3 R 25 -4 R 27 -4 R 24 -4 R 19 -3 R 17 -4 R 16 -4 R 13 -3 R 14 -2 R
12 -2 R 15 -1 R 20 -2 R 28 -1 R 44 -3 R 71 -3 R 28 -2 R 26 -1 R 26 -2 R
22 -1 R 19 -1 R 16 -2 R 16 -2 R 13 -1 R 13 -1 R 12 -1 R 14 -1 R 20 0 R
27 -1 R 42 -2 R 69 -1 R 30 -1 R 18 -1 R D L2 0.000 0.000 1.000 setrgbcolor
2220 4707 M 36 -40 R 123 -158 R 134 -261 R 21 -57 R 20 -64 R 18 -63 R
46 -179 R 45 -171 R 41 -128 R 45 -114 R 57 -121 R 78 -145 R 83 -143 R
91 -151 R 121 -207 R 14 -25 R 14 -29 R 30 -69 R 21 -60 R 19 -68 R 18 -73 R
16 -60 R 14 -46 R 16 -37 R 19 -37 R 26 -40 R 38 -52 R 60 -72 R 21 -27 R
19 -23 R 15 -23 R 13 -21 R 10 -21 R 11 -23 R 9 -20 R 8 -16 R 8 -10 R 10 -8 R
12 -9 R 18 -9 R 27 -12 R 43 -17 R 13 -5 R 13 -5 R 11 -5 R 9 -5 R 8 -5 R
7 -4 R 7 -3 R 6 -2 R 7 -2 R 10 -1 R 13 -2 R 17 -2 R 30 -3 R 26 -3 R 13 -1 R
12 -2 R 10 -1 R 8 -2 R 7 -1 R 7 -2 R 7 -1 R 6 0 R 7 -1 R 10 -1 R 14 0 R
22 -1 R 34 -2 R 15 0 R 13 -1 R 10 -1 R 9 0 R 8 -1 R 7 -1 R 7 0 R 4 -1 R
4 0 R 6 0 R 8 -1 R 11 0 R 17 -1 R 26 0 R 31 -1 R 12 -1 R 11 0 R 10 0 R
7 -1 R 4 0 R 7 -1 R 6 0 R 3 0 R 3 0 R 7 -1 R 7 0 R 12 0 R 16 -1 R 26 0 R
32 -1 R 11 0 R 11 -1 R 10 0 R 7 0 R 7 -1 R 6 0 R 6 0 R 5 -1 R 6 0 R 8 0 R
11 -1 R 18 0 R 26 0 R 27 -1 R 12 0 R 11 -1 R 9 0 R 8 0 R 4 0 R 4 -1 R 6 0 R
5 0 R 6 -1 R 7 0 R 9 0 R 12 0 R 19 -1 R 31 0 R 17 -1 R 12 0 R 11 0 R 9 -1 R
7 0 R 6 0 R 6 0 R 6 -1 R 6 0 R 6 0 R 9 -1 R 13 0 R 19 0 R 30 -1 R 17 0 R
12 0 R 11 -1 R 8 0 R 8 0 R 7 0 R 6 -1 R 6 0 R 6 0 R 7 -1 R 9 0 R 14 0 R
20 -1 R 34 0 R 12 0 R 12 -1 R 10 0 R 8 0 R 6 0 R 7 -1 R 6 0 R 5 0 R 5 0 R
7 -1 R 9 0 R 13 0 R 20 -1 R 32 0 R 13 0 R 12 -1 R 10 0 R 8 0 R 7 0 R 7 -1 R
6 0 R 5 0 R 6 0 R 7 -1 R 9 0 R 14 0 R 21 -1 R 35 0 R 11 0 R 11 -1 R 9 0 R
8 0 R 6 0 R 6 -1 R 6 0 R 5 0 R 6 0 R 7 -1 R 10 0 R 15 0 R 23 -1 R 38 0 R
9 0 R 10 -1 R 8 0 R 7 0 R 7 0 R 5 -1 R 6 0 R 5 0 R 7 0 R 9 -1 R 14 0 R
22 0 R 34 -1 R 11 0 R 10 0 R 9 0 R 7 -1 R 7 0 R 6 0 R 6 -1 R 6 0 R 5 0 R
8 0 R 11 0 R 17 -1 R 26 0 R 22 -1 R 5 0 R D 0.761 0.000 0.000 setrgbcolor
gsave 3999 4543 translate 0 0 M
(C= 0.7) show grestore 0.000 0.549 0.000 setrgbcolor
gsave 3999 4180 translate 0 0 M
(C= 0.2) show grestore 0.000 0.000 1.000 setrgbcolor
gsave 3999 3817 translate 0 0 M
(C= 1.7) show grestore L0 0.000 0.000 0.000 setrgbcolor 5777 1408 M 3557 0 R
D 5777 1408 M 0 145 R D gsave 5777 880 translate 0 0 M -117.687 0 N
(0) show grestore 6489 1408 M 0 145 R D gsave 6489 880 translate 0 0 M
-117.687 0 N
(2) show grestore 7201 1408 M 0 145 R D gsave 7201 880 translate 0 0 M
-117.687 0 N
(4) show grestore 7913 1408 M 0 145 R D gsave 7913 880 translate 0 0 M
-117.687 0 N
(6) show grestore 8626 1408 M 0 145 R D gsave 8626 880 translate 0 0 M
-117.687 0 N
(8) show grestore 5955 1408 M 0 73 R D 6133 1408 M 0 73 R D 6311 1408 M
0 73 R D 6667 1408 M 0 73 R D 6845 1408 M 0 73 R D 7023 1408 M 0 73 R D
7379 1408 M 0 73 R D 7557 1408 M 0 73 R D 7735 1408 M 0 73 R D 8091 1408 M
0 73 R D 8269 1408 M 0 73 R D 8447 1408 M 0 73 R D 8804 1408 M 0 73 R D
8982 1408 M 0 73 R D 9160 1408 M 0 73 R D 5777 5037 M 3557 0 R D 5777 5037 M
0 -145 R D 6489 5037 M 0 -145 R D 7201 5037 M 0 -145 R D 7913 5037 M
0 -145 R D 8626 5037 M 0 -145 R D 5955 5037 M 0 -72 R D 6133 5037 M 0 -72 R
D 6311 5037 M 0 -72 R D 6667 5037 M 0 -72 R D 6845 5037 M 0 -72 R D
7023 5037 M 0 -72 R D 7379 5037 M 0 -72 R D 7557 5037 M 0 -72 R D
7735 5037 M 0 -72 R D 8091 5037 M 0 -72 R D 8269 5037 M 0 -72 R D
8447 5037 M 0 -72 R D 8804 5037 M 0 -72 R D 8982 5037 M 0 -72 R D
9160 5037 M 0 -72 R D 5777 1408 M 0 3629 R D 5777 2065 M 142 0 R D
gsave 5666 1924 translate 0 0 M -117.687 0 N
( ) show grestore 5777 2726 M 142 0 R D gsave 5666 2585 translate 0 0 M
-117.687 0 N
( ) show grestore 5777 3386 M 142 0 R D gsave 5666 3245 translate 0 0 M
-117.687 0 N
( ) show grestore 5777 4047 M 142 0 R D gsave 5666 3906 translate 0 0 M
-117.687 0 N
( ) show grestore 5777 4707 M 142 0 R D gsave 5666 4566 translate 0 0 M
-117.687 0 N
( ) show grestore 5777 1570 M 71 0 R D 5777 1735 M 71 0 R D 5777 1900 M
71 0 R D 5777 2230 M 71 0 R D 5777 2395 M 71 0 R D 5777 2561 M 71 0 R D
5777 2891 M 71 0 R D 5777 3056 M 71 0 R D 5777 3221 M 71 0 R D 5777 3551 M
71 0 R D 5777 3716 M 71 0 R D 5777 3882 M 71 0 R D 5777 4212 M 71 0 R D
5777 4377 M 71 0 R D 5777 4542 M 71 0 R D 5777 4872 M 71 0 R D 5777 5037 M
71 0 R D 9334 1408 M 0 3629 R D 9334 2065 M -142 0 R D 9334 2726 M -142 0 R
D 9334 3386 M -142 0 R D 9334 4047 M -142 0 R D 9334 4707 M -142 0 R D
9334 1570 M -71 0 R D 9334 1735 M -71 0 R D 9334 1900 M -71 0 R D
9334 2230 M -71 0 R D 9334 2395 M -71 0 R D 9334 2561 M -71 0 R D
9334 2891 M -71 0 R D 9334 3056 M -71 0 R D 9334 3221 M -71 0 R D
9334 3551 M -71 0 R D 9334 3716 M -71 0 R D 9334 3882 M -71 0 R D
9334 4212 M -71 0 R D 9334 4377 M -71 0 R D 9334 4542 M -71 0 R D
9334 4872 M -71 0 R D 9334 5037 M -71 0 R D L5 5777 4707 M 356 -198 R
356 -1156 R 356 -264 R 356 -660 R 356 -529 R 356 -462 R 356 -30 R D L0
0.761 0.000 0.000 setrgbcolor 5777 4707 M 36 -32 R 111 -119 R 64 -94 R
25 -49 R 22 -51 R 42 -132 R 26 -123 R 24 -136 R 23 -121 R 20 -80 R 24 -68 R
31 -65 R 44 -71 R 67 -90 R 104 -120 R 141 -152 R 142 -152 R 22 -26 R
33 -41 R 35 -55 R 19 -37 R 15 -40 R 14 -45 R 13 -53 R 11 -44 R 11 -33 R
12 -24 R 14 -21 R 19 -21 R 28 -25 R 44 -33 R 77 -49 R 82 -52 R 13 -8 R
44 -31 R 13 -11 R 16 -15 R 12 -14 R 11 -16 R 9 -17 R 9 -17 R 9 -14 R 7 -8 R
9 -7 R 12 -6 R 16 -6 R 24 -7 R 40 -10 R 73 -15 R 42 -9 R 13 -2 R 23 -6 R
14 -3 R 14 -4 R 11 -4 R 10 -4 R 8 -4 R 8 -4 R 7 -3 R 7 -2 R 7 -2 R 10 -1 R
14 -2 R 19 -2 R 33 -2 R 56 -3 R 60 -4 R 10 -1 R 34 -2 R 12 -1 R 12 -2 R
11 -1 R 8 -1 R 9 -2 R 7 -1 R 7 -1 R 7 -1 R 8 -1 R 9 0 R 15 -1 R 23 -1 R
37 -1 R 68 -2 R 38 -1 R 24 0 R 11 -1 R 14 0 R 12 -1 R 10 0 R 9 -1 R 7 -1 R
7 0 R 6 -1 R 6 0 R 8 -1 R 8 0 R 13 0 R 19 -1 R 31 0 R 53 -1 R 63 -1 R 15 0 R
12 -1 R 14 0 R 13 0 R 12 -1 R 10 0 R 8 0 R 5 -1 R 8 0 R 5 0 R 6 -1 R 7 0 R
9 0 R 13 -1 R 19 0 R 30 0 R 53 -1 R 62 -1 R 15 0 R 12 0 R 14 -1 R 14 0 R
11 0 R 10 0 R 8 -1 R 5 0 R 8 0 R 6 -1 R 6 0 R 6 0 R 10 0 R 12 -1 R 19 0 R
31 0 R 54 -1 R 57 -1 R 10 0 R 32 0 R 11 0 R 12 -1 R 10 0 R 9 0 R 7 0 R
7 -1 R 5 0 R 6 0 R 7 0 R 9 -1 R 12 0 R 19 0 R 30 -1 R 51 0 R 37 -1 R D L1
0.000 0.549 0.000 setrgbcolor 5777 4707 M 36 -27 R 110 -101 R 64 -80 R
26 -41 R 22 -44 R 42 -115 R 27 -107 R 24 -116 R 23 -100 R 21 -66 R 24 -56 R
33 -54 R 29 -40 R 33 -38 R 35 -36 R 46 -44 R 65 -59 R 142 -120 R 143 -115 R
142 -122 R 15 -14 R 31 -34 R 30 -42 R 21 -37 R 16 -38 R 16 -46 R 14 -49 R
13 -40 R 13 -26 R 14 -21 R 18 -20 R 26 -21 R 39 -26 R 64 -36 R 122 -62 R
80 -41 R 15 -8 R 44 -27 R 16 -11 R 17 -15 R 14 -15 R 12 -16 R 12 -19 R
10 -17 R 9 -12 R 9 -8 R 12 -7 R 15 -6 R 21 -7 R 33 -8 R 56 -12 R 111 -22 R
34 -7 R 17 -3 R 17 -4 R 19 -4 R 16 -5 R 14 -5 R 12 -4 R 10 -5 R 10 -6 R
9 -3 R 8 -3 R 9 -2 R 11 -2 R 15 -1 R 23 -2 R 36 -3 R 62 -4 R 124 -8 R
13 -1 R 21 -1 R 16 -2 R 14 -1 R 13 -2 R 10 -2 R 10 -2 R 8 -1 R 8 -1 R 9 -1 R
10 0 R 14 -1 R 21 -1 R 33 -1 R 56 -1 R 113 -3 R 11 -1 R 42 -1 R 13 0 R
14 -1 R 12 -1 R 10 0 R 10 -1 R 8 -1 R 8 -1 R 8 0 R 8 0 R 13 -1 R 18 0 R
29 -1 R 47 0 R 89 -2 R 48 0 R 14 0 R 23 -1 R 16 0 R 15 0 R 12 -1 R 11 0 R
10 -1 R 6 0 R 4 0 R 4 0 R 5 -1 R 7 0 R 8 0 R 12 0 R 17 -1 R 26 0 R 42 0 R
76 -1 R 21 -1 R D L2 0.000 0.000 1.000 setrgbcolor 5777 4707 M 36 -42 R
111 -155 R 62 -115 R 56 -151 R 34 -141 R 25 -146 R 23 -175 R 23 -165 R
20 -115 R 22 -92 R 29 -91 R 33 -87 R 34 -75 R 37 -75 R 43 -83 R 55 -99 R
142 -243 R 15 -26 R 18 -36 R 33 -73 R 15 -41 R 11 -42 R 11 -47 R 9 -54 R
9 -51 R 8 -40 R 8 -26 R 9 -23 R 13 -23 R 18 -26 R 28 -32 R 47 -45 R 41 -37 R
11 -10 R 20 -20 R 10 -11 R 11 -13 R 9 -13 R 8 -13 R 7 -13 R 6 -15 R 5 -13 R
6 -10 R 4 -7 R 6 -5 R 8 -5 R 11 -5 R 17 -6 R 28 -8 R 52 -14 R 8 -2 R 16 -5 R
9 -3 R 9 -3 R 7 -3 R 6 -3 R 6 -3 R 5 -3 R 4 -3 R 4 -2 R 5 -1 R 6 -1 R 8 -1 R
12 -2 R 19 -1 R 33 -3 R 36 -3 R 15 -1 R 7 -1 R 10 0 R 7 -1 R 8 -2 R 5 -1 R
5 -1 R 5 -1 R 4 -1 R 4 0 R 4 -1 R 7 0 R 7 0 R 14 -1 R 21 -1 R 38 -1 R
16 -1 R 9 0 R 15 -1 R 8 0 R 8 0 R 8 -1 R 5 0 R 5 -1 R 5 0 R 4 -1 R 4 0 R
4 -1 R 3 0 R 6 0 R 9 0 R 12 -1 R 20 0 R 36 -1 R 20 -1 R 17 0 R 6 0 R 11 -1 R
8 0 R 7 0 R 5 0 R 5 -1 R 5 0 R 4 -1 R 4 0 R 5 0 R 5 -1 R 8 0 R 12 0 R
20 -1 R 33 0 R 25 -1 R 14 0 R 6 0 R 11 0 R 8 -1 R 7 0 R 5 0 R 5 -1 R 5 0 R
4 0 R 4 -1 R 4 0 R 4 0 R 7 0 R 10 -1 R 16 0 R 27 -1 R 51 -1 R 6 0 R 10 0 R
8 0 R 8 0 R 5 -1 R 4 0 R 5 0 R 5 0 R 4 -1 R 4 0 R 4 0 R 6 -1 R 9 0 R 13 0 R
22 -1 R 38 0 R 12 -1 R 8 0 R 14 0 R 8 0 R 8 0 R 7 -1 R 5 0 R 6 0 R 4 -1 R
4 0 R 4 0 R 4 0 R 4 -1 R 7 0 R 9 0 R 15 0 R 25 -1 R 47 -1 R 8 0 R 12 0 R
8 0 R 7 -1 R 6 0 R 5 0 R 5 0 R 5 -1 R 3 0 R 4 0 R 4 0 R 5 -1 R 7 0 R 11 0 R
17 -1 R 29 0 R 37 -1 R 13 0 R 7 0 R 8 0 R 7 -1 R 6 0 R 5 0 R 5 0 R 4 -1 R
4 0 R 4 0 R 4 0 R 6 -1 R 8 0 R 13 0 R 21 -1 R 38 0 R 11 0 R 10 -1 R 7 0 R
9 0 R 8 0 R 7 0 R 6 -1 R 5 0 R 4 0 R 5 0 R 4 -1 R 3 0 R 5 0 R 6 0 R 8 -1 R
13 0 R 20 0 R 37 -1 R 11 0 R 8 0 R 14 0 R 8 -1 R 7 0 R 7 0 R 5 0 R 5 0 R
5 -1 R 4 0 R 3 0 R 4 -1 R 4 0 R 6 0 R 9 0 R 13 0 R 23 -1 R 40 -1 R 6 0 R
23 0 R 6 0 R 7 0 R 7 -1 R 5 0 R 4 0 R 5 0 R 3 -1 R 4 0 R 4 0 R 4 0 R 7 -1 R
10 0 R 16 0 R 27 -1 R 44 0 R 5 0 R 12 -1 R 7 0 R 7 0 R 5 0 R 5 0 R 4 -1 R
4 0 R 4 0 R 3 -1 R 4 0 R 6 0 R 9 0 R 14 0 R 22 -1 R 36 -1 R D
0.000 0.000 0.000 setrgbcolor gsave 9800 3223 translate 0 0 M 90 rotate
-829.31 0 N
(m/M=0.1) show grestore 0.761 0.000 0.000 setrgbcolor
gsave 7556 4543 translate 0 0 M
(C= 1.0) show grestore 0.000 0.549 0.000 setrgbcolor
gsave 7556 4180 translate 0 0 M
(C= 0.5) show grestore 0.000 0.000 1.000 setrgbcolor
gsave 7556 3817 translate 0 0 M
(C= 2.0) show grestore 0.000 0.000 0.000 setrgbcolor
gsave 2500 12480 translate 0 0 M
%%IncludeResource: font Symbol
423.333 /Symbol STDFONT
(e) show
%%IncludeResource: font Helvetica
423.333 /Helvetica STDFONT
(=0.65) show grestore gsave 6500 12480 translate 0 0 M
%%IncludeResource: font Symbol
423.333 /Symbol STDFONT
(e) show
%%IncludeResource: font Helvetica
423.333 /Helvetica STDFONT
(=0.46) show grestore
%%PageTrailer
end
%%PageResources: font Helvetica
%%+ font Symbol
%%Trailer
%%Pages: 1
%%DocumentNeededResources: font Helvetica
%%+ font Symbol
%%EOF
