%!PS-Adobe-3.0 EPSF-3.0
%%BoundingBox: 0 0 283 368
%%Title: Graphics produced by IDL
%%For: dacia@JiangHu, /home/dacia/work/subhalo_model
%%Creator: IDL Version 7.0 (linux x86_64 m64)
%%CreationDate: Wed Nov  4 22:13:02 2009
%%DocumentData: Clean7bit
%%Requirements: color
%%LanguageLevel: 1
%%PageOrder: Ascend
%%Pages: (atend)
%%DocumentNeededResources: (atend)
%%EndComments
%%BeginProlog
%+ prolog.ps -- Prolog for IDL generated PostScript files
%+ Copyright (c) 1988-2007 ITT Visual Information Solutions. All Rights Reserved.
%v 5
/$IDL_DICT 40 dict def $IDL_DICT begin /bdef { bind def } bind def /C
{currentpoint newpath moveto} bdef /CP {currentpoint} bdef /D {currentpoint
stroke moveto} bdef /F {closepath fill} bdef /K { setgray } bdef /M {moveto}
bdef /N {rmoveto} bdef /P {lineto} bdef /R {rlineto} bdef /S {gsave show
grestore} bdef /X {currentpoint pop} bdef /Z {gsave currentpoint lineto 20
setlinewidth 1 setlinecap stroke grestore} bdef /L0 {[] 0 setdash} bdef /L1
{[40 100] 0 setdash} bdef /L2 {[200 200] 0 setdash} bdef /L3 {[200 100 50
100] 0 setdash} bdef /L4 {[300 100 50 100 50 100 50 100] 0 setdash} bdef /L5
{[400 200] 0 setdash} bdef /STDFONT { findfont exch scalefont setfont } bdef
/ISOFONT { findfont dup length dict begin { 1 index /FID ne {def} {pop pop}
ifelse } forall /Encoding ISOLatin1Encoding def currentdict end /idltmpfont
exch definefont exch scalefont setfont } bdef /ISOBULLET { gsave /Helvetica
findfont exch scalefont setfont (\267) show currentpoint grestore moveto}
bdef /MITERLIMIT { 2.5 setmiterlimit } bdef end
%%EndProlog
%%Page: 0 1
%%PageRequirements: color
%%PageResources: (atend)
%%PageOrientation: Portrait
%%PageBoundingBox: 0 0 283 368
%%BeginPageSetup
$IDL_DICT begin 0.0283465 dup scale MITERLIMIT
%%IncludeResource: font Helvetica
423.333 /Helvetica STDFONT
%%EndPageSetup
0.000 0.000 0.000 setrgbcolor gsave 5777 352 translate 0 0 M -576.368 0 N
(t / Gyr) show grestore gsave 888 6852 translate 0 0 M 90 rotate
-611.293 0 N
(j\(t\)/j\(0\)) show grestore 40 setlinewidth L0 2220 8667 M 3557 0 R D
2220 8667 M 0 145 R D gsave 2220 8139 translate 0 0 M -58.8433 0 N
( ) show grestore 2932 8667 M 0 145 R D gsave 2932 8139 translate 0 0 M
-58.8433 0 N
( ) show grestore 3644 8667 M 0 145 R D gsave 3644 8139 translate 0 0 M
-58.8433 0 N
( ) show grestore 4356 8667 M 0 145 R D gsave 4356 8139 translate 0 0 M
-58.8433 0 N
( ) show grestore 5068 8667 M 0 145 R D gsave 5068 8139 translate 0 0 M
-58.8433 0 N
( ) show grestore 2398 8667 M 0 72 R D 2576 8667 M 0 72 R D 2754 8667 M
0 72 R D 3110 8667 M 0 72 R D 3288 8667 M 0 72 R D 3466 8667 M 0 72 R D
3822 8667 M 0 72 R D 4000 8667 M 0 72 R D 4178 8667 M 0 72 R D 4534 8667 M
0 72 R D 4712 8667 M 0 72 R D 4890 8667 M 0 72 R D 5247 8667 M 0 72 R D
5425 8667 M 0 72 R D 5603 8667 M 0 72 R D 2220 12296 M 3557 0 R D
2220 12296 M 0 -145 R D 2932 12296 M 0 -145 R D 3644 12296 M 0 -145 R D
4356 12296 M 0 -145 R D 5068 12296 M 0 -145 R D 2398 12296 M 0 -73 R D
2576 12296 M 0 -73 R D 2754 12296 M 0 -73 R D 3110 12296 M 0 -73 R D
3288 12296 M 0 -73 R D 3466 12296 M 0 -73 R D 3822 12296 M 0 -73 R D
4000 12296 M 0 -73 R D 4178 12296 M 0 -73 R D 4534 12296 M 0 -73 R D
4712 12296 M 0 -73 R D 4890 12296 M 0 -73 R D 5247 12296 M 0 -73 R D
5425 12296 M 0 -73 R D 5603 12296 M 0 -73 R D 2220 8667 M 0 3629 R D
2220 9324 M 142 0 R D gsave 2109 9183 translate 0 0 M -588.433 0 N
(0.2) show grestore 2220 9984 M 142 0 R D gsave 2109 9844 translate 0 0 M
-588.433 0 N
(0.4) show grestore 2220 10645 M 142 0 R D gsave 2109 10504 translate 0 0 M
-588.433 0 N
(0.6) show grestore 2220 11305 M 142 0 R D gsave 2109 11165 translate 0 0 M
-588.433 0 N
(0.8) show grestore 2220 11966 M 142 0 R D gsave 2109 11825 translate 0 0 M
-588.433 0 N
(1.0) show grestore 2220 8829 M 71 0 R D 2220 8994 M 71 0 R D 2220 9159 M
71 0 R D 2220 9489 M 71 0 R D 2220 9654 M 71 0 R D 2220 9819 M 71 0 R D
2220 10150 M 71 0 R D 2220 10315 M 71 0 R D 2220 10480 M 71 0 R D
2220 10810 M 71 0 R D 2220 10975 M 71 0 R D 2220 11140 M 71 0 R D
2220 11470 M 71 0 R D 2220 11636 M 71 0 R D 2220 11801 M 71 0 R D
2220 12131 M 71 0 R D 2220 12296 M 71 0 R D 5777 8667 M 0 3629 R D
5777 9324 M -142 0 R D 5777 9984 M -142 0 R D 5777 10645 M -142 0 R D
5777 11305 M -142 0 R D 5777 11966 M -142 0 R D 5777 8829 M -71 0 R D
5777 8994 M -71 0 R D 5777 9159 M -71 0 R D 5777 9489 M -71 0 R D
5777 9654 M -71 0 R D 5777 9819 M -71 0 R D 5777 10150 M -71 0 R D
5777 10315 M -71 0 R D 5777 10480 M -71 0 R D 5777 10810 M -71 0 R D
5777 10975 M -71 0 R D 5777 11140 M -71 0 R D 5777 11470 M -71 0 R D
5777 11636 M -71 0 R D 5777 11801 M -71 0 R D 5777 12131 M -71 0 R D
5777 12296 M -71 0 R D L5 2220 11966 M 356 -33 R 356 -165 R 356 -165 R
356 -66 R 356 -67 R 356 -33 R 356 -33 R 356 -132 R 357 -66 R 352 -66 R D L0
0.761 0.000 0.000 setrgbcolor 2220 11966 M 36 -11 R 119 -41 R 49 -21 R
69 -37 R 63 -42 R 54 -40 R 45 -28 R 33 -16 R 50 -17 R 62 -16 R 69 -15 R
85 -14 R 143 -16 R 142 0 R 143 0 R 142 0 R 142 0 R 143 0 R 142 0 R 143 0 R
142 -20 R 143 -26 R 58 -15 R 62 -19 R 53 -21 R 46 -16 R 44 -13 R 46 -9 R
57 -9 R 62 -8 R 88 -9 R 142 -13 R 143 -2 R 142 0 R 143 0 R 142 0 R 143 -3 R
27 -3 R D L1 0.000 0.000 1.000 setrgbcolor 2220 11966 M 36 -8 R 119 -30 R
81 -27 R 29 -12 R 61 -30 R 56 -32 R 47 -25 R 31 -13 R 49 -16 R 58 -14 R
80 -14 R 116 -17 R 142 -10 R 143 0 R 142 0 R 143 0 R 142 0 R 142 0 R 143 0 R
142 0 R 143 0 R 142 -17 R 143 -24 R 44 -10 R 36 -9 R 62 -21 R 50 -17 R
47 -14 R 46 -10 R 55 -10 R 73 -9 R 106 -11 R 142 -13 R 142 0 R 143 0 R
142 0 R 139 0 R D 0.761 0.000 0.000 setrgbcolor
gsave 2505 9624 translate 0 0 M
(C= 4.4) show grestore 0.000 0.000 1.000 setrgbcolor
gsave 2505 9261 translate 0 0 M
(C=-0.5) show grestore L0 0.000 0.000 0.000 setrgbcolor 5777 8667 M 3557 0 R
D 5777 8667 M 0 145 R D gsave 5777 8139 translate 0 0 M -58.8433 0 N
( ) show grestore 6489 8667 M 0 145 R D gsave 6489 8139 translate 0 0 M
-58.8433 0 N
( ) show grestore 7201 8667 M 0 145 R D gsave 7201 8139 translate 0 0 M
-58.8433 0 N
( ) show grestore 7913 8667 M 0 145 R D gsave 7913 8139 translate 0 0 M
-58.8433 0 N
( ) show grestore 8626 8667 M 0 145 R D gsave 8626 8139 translate 0 0 M
-58.8433 0 N
( ) show grestore 5955 8667 M 0 72 R D 6133 8667 M 0 72 R D 6311 8667 M
0 72 R D 6667 8667 M 0 72 R D 6845 8667 M 0 72 R D 7023 8667 M 0 72 R D
7379 8667 M 0 72 R D 7557 8667 M 0 72 R D 7735 8667 M 0 72 R D 8091 8667 M
0 72 R D 8269 8667 M 0 72 R D 8447 8667 M 0 72 R D 8804 8667 M 0 72 R D
8982 8667 M 0 72 R D 9160 8667 M 0 72 R D 5777 12296 M 3557 0 R D
5777 12296 M 0 -145 R D 6489 12296 M 0 -145 R D 7201 12296 M 0 -145 R D
7913 12296 M 0 -145 R D 8626 12296 M 0 -145 R D 5955 12296 M 0 -73 R D
6133 12296 M 0 -73 R D 6311 12296 M 0 -73 R D 6667 12296 M 0 -73 R D
6845 12296 M 0 -73 R D 7023 12296 M 0 -73 R D 7379 12296 M 0 -73 R D
7557 12296 M 0 -73 R D 7735 12296 M 0 -73 R D 8091 12296 M 0 -73 R D
8269 12296 M 0 -73 R D 8447 12296 M 0 -73 R D 8804 12296 M 0 -73 R D
8982 12296 M 0 -73 R D 9160 12296 M 0 -73 R D 5777 8667 M 0 3629 R D
5777 9324 M 142 0 R D gsave 5666 9183 translate 0 0 M -117.687 0 N
( ) show grestore 5777 9984 M 142 0 R D gsave 5666 9844 translate 0 0 M
-117.687 0 N
( ) show grestore 5777 10645 M 142 0 R D gsave 5666 10504 translate 0 0 M
-117.687 0 N
( ) show grestore 5777 11305 M 142 0 R D gsave 5666 11165 translate 0 0 M
-117.687 0 N
( ) show grestore 5777 11966 M 142 0 R D gsave 5666 11825 translate 0 0 M
-117.687 0 N
( ) show grestore 5777 8829 M 71 0 R D 5777 8994 M 71 0 R D 5777 9159 M
71 0 R D 5777 9489 M 71 0 R D 5777 9654 M 71 0 R D 5777 9819 M 71 0 R D
5777 10150 M 71 0 R D 5777 10315 M 71 0 R D 5777 10480 M 71 0 R D
5777 10810 M 71 0 R D 5777 10975 M 71 0 R D 5777 11140 M 71 0 R D
5777 11470 M 71 0 R D 5777 11636 M 71 0 R D 5777 11801 M 71 0 R D
5777 12131 M 71 0 R D 5777 12296 M 71 0 R D 9334 8667 M 0 3629 R D
9334 9324 M -142 0 R D 9334 9984 M -142 0 R D 9334 10645 M -142 0 R D
9334 11305 M -142 0 R D 9334 11966 M -142 0 R D 9334 8829 M -71 0 R D
9334 8994 M -71 0 R D 9334 9159 M -71 0 R D 9334 9489 M -71 0 R D
9334 9654 M -71 0 R D 9334 9819 M -71 0 R D 9334 10150 M -71 0 R D
9334 10315 M -71 0 R D 9334 10480 M -71 0 R D 9334 10810 M -71 0 R D
9334 10975 M -71 0 R D 9334 11140 M -71 0 R D 9334 11470 M -71 0 R D
9334 11636 M -71 0 R D 9334 11801 M -71 0 R D 9334 12131 M -71 0 R D
9334 12296 M -71 0 R D L5 5777 11966 M 356 -66 R 356 -430 R 356 -66 R
356 -33 R 356 -99 R 356 -33 R 356 -330 R 356 -33 R 357 -66 R 352 -262 R D L0
0.761 0.000 0.000 setrgbcolor 5777 11966 M 36 -21 R 109 -74 R 70 -64 R
39 -49 R 31 -53 R 29 -64 R 26 -72 R 23 -57 R 22 -38 R 23 -27 R 24 -20 R
39 -23 R 54 -23 R 66 -23 R 94 -28 R 143 -39 R 142 -19 R 142 0 R 143 -34 R
142 -40 R 119 -40 R 22 -10 R 29 -14 R 29 -19 R 24 -20 R 23 -25 R 21 -23 R
19 -17 R 18 -10 R 21 -9 R 29 -8 R 41 -9 R 58 -9 R 102 -14 R 142 -18 R
143 -17 R 142 -18 R 143 -18 R 58 -9 R 29 -5 R 31 -7 R 26 -7 R 22 -9 R
21 -12 R 18 -13 R 18 -13 R 16 -9 R 20 -8 R 26 -9 R 37 -9 R 58 -10 R 95 -15 R
143 -20 R 142 -20 R 143 -20 R 91 -15 R 19 -4 R 22 -5 R D L1
0.000 0.000 1.000 setrgbcolor 5777 11966 M 36 -18 R 111 -64 R 45 -33 R
36 -33 R 37 -44 R 26 -41 R 28 -58 R 26 -62 R 25 -51 R 22 -32 R 26 -24 R
33 -22 R 32 -16 R 66 -25 R 89 -27 R 143 -37 R 142 -17 R 142 0 R 143 0 R
142 -18 R 138 -36 R 124 -39 R 25 -11 R 32 -16 R 31 -21 R 25 -22 R 23 -26 R
20 -22 R 20 -15 R 20 -11 R 25 -9 R 34 -10 R 49 -10 R 79 -13 R 137 -20 R
142 -18 R 143 -19 R 142 -19 R 142 -20 R 41 -8 R 33 -7 R 30 -7 R 25 -9 R
23 -11 R 21 -15 R 18 -15 R 18 -12 R 18 -11 R 22 -9 R 31 -10 R 45 -11 R
71 -13 R 122 -20 R 143 -22 R 142 -22 R 53 -9 R D
0.000 0.000 0.000 setrgbcolor gsave 9800 10481 translate 0 0 M 90 rotate
-529.59 0 N
(0.025) show grestore 0.761 0.000 0.000 setrgbcolor
gsave 6062 9624 translate 0 0 M
(C= 8.4) show grestore 0.000 0.000 1.000 setrgbcolor
gsave 6062 9261 translate 0 0 M
(C= 3.4) show grestore L0 0.000 0.000 0.000 setrgbcolor 2220 5037 M 3557 0 R
D 2220 5037 M 0 146 R D gsave 2220 4509 translate 0 0 M -58.8433 0 N
( ) show grestore 2932 5037 M 0 146 R D gsave 2932 4509 translate 0 0 M
-58.8433 0 N
( ) show grestore 3644 5037 M 0 146 R D gsave 3644 4509 translate 0 0 M
-58.8433 0 N
( ) show grestore 4356 5037 M 0 146 R D gsave 4356 4509 translate 0 0 M
-58.8433 0 N
( ) show grestore 5068 5037 M 0 146 R D gsave 5068 4509 translate 0 0 M
-58.8433 0 N
( ) show grestore 2398 5037 M 0 73 R D 2576 5037 M 0 73 R D 2754 5037 M
0 73 R D 3110 5037 M 0 73 R D 3288 5037 M 0 73 R D 3466 5037 M 0 73 R D
3822 5037 M 0 73 R D 4000 5037 M 0 73 R D 4178 5037 M 0 73 R D 4534 5037 M
0 73 R D 4712 5037 M 0 73 R D 4890 5037 M 0 73 R D 5247 5037 M 0 73 R D
5425 5037 M 0 73 R D 5603 5037 M 0 73 R D 2220 8667 M 3557 0 R D 2220 8667 M
0 -145 R D 2932 8667 M 0 -145 R D 3644 8667 M 0 -145 R D 4356 8667 M
0 -145 R D 5068 8667 M 0 -145 R D 2398 8667 M 0 -73 R D 2576 8667 M 0 -73 R
D 2754 8667 M 0 -73 R D 3110 8667 M 0 -73 R D 3288 8667 M 0 -73 R D
3466 8667 M 0 -73 R D 3822 8667 M 0 -73 R D 4000 8667 M 0 -73 R D
4178 8667 M 0 -73 R D 4534 8667 M 0 -73 R D 4712 8667 M 0 -73 R D
4890 8667 M 0 -73 R D 5247 8667 M 0 -73 R D 5425 8667 M 0 -73 R D
5603 8667 M 0 -73 R D 2220 5037 M 0 3630 R D 2220 5695 M 142 0 R D
gsave 2109 5554 translate 0 0 M -588.433 0 N
(0.2) show grestore 2220 6355 M 142 0 R D gsave 2109 6214 translate 0 0 M
-588.433 0 N
(0.4) show grestore 2220 7016 M 142 0 R D gsave 2109 6875 translate 0 0 M
-588.433 0 N
(0.6) show grestore 2220 7676 M 142 0 R D gsave 2109 7535 translate 0 0 M
-588.433 0 N
(0.8) show grestore 2220 8336 M 142 0 R D gsave 2109 8196 translate 0 0 M
-588.433 0 N
(1.0) show grestore 2220 5199 M 71 0 R D 2220 5364 M 71 0 R D 2220 5529 M
71 0 R D 2220 5860 M 71 0 R D 2220 6025 M 71 0 R D 2220 6190 M 71 0 R D
2220 6520 M 71 0 R D 2220 6685 M 71 0 R D 2220 6850 M 71 0 R D 2220 7181 M
71 0 R D 2220 7346 M 71 0 R D 2220 7511 M 71 0 R D 2220 7841 M 71 0 R D
2220 8006 M 71 0 R D 2220 8171 M 71 0 R D 2220 8502 M 71 0 R D 2220 8667 M
71 0 R D 5777 5037 M 0 3630 R D 5777 5695 M -142 0 R D 5777 6355 M -142 0 R
D 5777 7016 M -142 0 R D 5777 7676 M -142 0 R D 5777 8336 M -142 0 R D
5777 5199 M -71 0 R D 5777 5364 M -71 0 R D 5777 5529 M -71 0 R D
5777 5860 M -71 0 R D 5777 6025 M -71 0 R D 5777 6190 M -71 0 R D
5777 6520 M -71 0 R D 5777 6685 M -71 0 R D 5777 6850 M -71 0 R D
5777 7181 M -71 0 R D 5777 7346 M -71 0 R D 5777 7511 M -71 0 R D
5777 7841 M -71 0 R D 5777 8006 M -71 0 R D 5777 8171 M -71 0 R D
5777 8502 M -71 0 R D 5777 8667 M -71 0 R D L5 2220 8336 M 356 -132 R
356 -330 R 356 -297 R 356 -66 R 356 -33 R 356 -165 R 356 -297 R 356 -100 R
357 -264 R 352 -229 R D L0 0.761 0.000 0.000 setrgbcolor 2220 8336 M
36 -20 R 120 -78 R 102 -92 R 44 -53 R 20 -26 R 57 -84 R 47 -64 R 44 -46 R
32 -24 R 47 -29 R 65 -32 R 71 -30 R 133 -48 R 142 -48 R 142 -23 R 143 -14 R
142 -47 R 143 -50 R 81 -34 R 87 -46 R 45 -32 R 43 -37 R 37 -31 R 36 -23 R
35 -16 R 44 -16 R 49 -14 R 82 -20 R 125 -27 R 143 -29 R 142 -28 R 143 -30 R
93 -22 R 44 -13 R 43 -16 R 37 -18 R 35 -23 R 30 -21 R 29 -18 R 31 -15 R
40 -16 R 54 -18 R 79 -22 R 127 -33 R 142 -35 R 143 -36 R 8 -3 R D L1
0.000 0.000 1.000 setrgbcolor 2220 8336 M 36 -14 R 119 -55 R 85 -52 R
28 -21 R 22 -19 R 47 -46 R 58 -66 R 44 -46 R 35 -28 R 50 -31 R 47 -23 R
52 -22 R 62 -23 R 84 -27 R 143 -43 R 142 0 R 142 0 R 143 0 R 142 0 R
143 -38 R 142 -48 R 64 -27 R 50 -25 R 53 -34 R 48 -38 R 42 -34 R 40 -26 R
40 -20 R 50 -19 R 58 -18 R 73 -19 R 137 -33 R 143 -31 R 142 -32 R 142 -31 R
143 -35 R 61 -18 R 49 -18 R 42 -21 R 40 -26 R 36 -27 R 33 -24 R 33 -20 R
40 -20 R 54 -21 R 78 -25 R 100 -30 R D 0.761 0.000 0.000 setrgbcolor
gsave 2505 5995 translate 0 0 M
(C= 4.1) show grestore 0.000 0.000 1.000 setrgbcolor
gsave 2505 5632 translate 0 0 M
(C=-0.1) show grestore L0 0.000 0.000 0.000 setrgbcolor 5777 5037 M 3557 0 R
D 5777 5037 M 0 146 R D gsave 5777 4509 translate 0 0 M -58.8433 0 N
( ) show grestore 6489 5037 M 0 146 R D gsave 6489 4509 translate 0 0 M
-58.8433 0 N
( ) show grestore 7201 5037 M 0 146 R D gsave 7201 4509 translate 0 0 M
-58.8433 0 N
( ) show grestore 7913 5037 M 0 146 R D gsave 7913 4509 translate 0 0 M
-58.8433 0 N
( ) show grestore 8626 5037 M 0 146 R D gsave 8626 4509 translate 0 0 M
-58.8433 0 N
( ) show grestore 5955 5037 M 0 73 R D 6133 5037 M 0 73 R D 6311 5037 M
0 73 R D 6667 5037 M 0 73 R D 6845 5037 M 0 73 R D 7023 5037 M 0 73 R D
7379 5037 M 0 73 R D 7557 5037 M 0 73 R D 7735 5037 M 0 73 R D 8091 5037 M
0 73 R D 8269 5037 M 0 73 R D 8447 5037 M 0 73 R D 8804 5037 M 0 73 R D
8982 5037 M 0 73 R D 9160 5037 M 0 73 R D 5777 8667 M 3557 0 R D 5777 8667 M
0 -145 R D 6489 8667 M 0 -145 R D 7201 8667 M 0 -145 R D 7913 8667 M
0 -145 R D 8626 8667 M 0 -145 R D 5955 8667 M 0 -73 R D 6133 8667 M 0 -73 R
D 6311 8667 M 0 -73 R D 6667 8667 M 0 -73 R D 6845 8667 M 0 -73 R D
7023 8667 M 0 -73 R D 7379 8667 M 0 -73 R D 7557 8667 M 0 -73 R D
7735 8667 M 0 -73 R D 8091 8667 M 0 -73 R D 8269 8667 M 0 -73 R D
8447 8667 M 0 -73 R D 8804 8667 M 0 -73 R D 8982 8667 M 0 -73 R D
9160 8667 M 0 -73 R D 5777 5037 M 0 3630 R D 5777 5695 M 142 0 R D
gsave 5666 5554 translate 0 0 M -117.687 0 N
( ) show grestore 5777 6355 M 142 0 R D gsave 5666 6214 translate 0 0 M
-117.687 0 N
( ) show grestore 5777 7016 M 142 0 R D gsave 5666 6875 translate 0 0 M
-117.687 0 N
( ) show grestore 5777 7676 M 142 0 R D gsave 5666 7535 translate 0 0 M
-117.687 0 N
( ) show grestore 5777 8336 M 142 0 R D gsave 5666 8196 translate 0 0 M
-117.687 0 N
( ) show grestore 5777 5199 M 71 0 R D 5777 5364 M 71 0 R D 5777 5529 M
71 0 R D 5777 5860 M 71 0 R D 5777 6025 M 71 0 R D 5777 6190 M 71 0 R D
5777 6520 M 71 0 R D 5777 6685 M 71 0 R D 5777 6850 M 71 0 R D 5777 7181 M
71 0 R D 5777 7346 M 71 0 R D 5777 7511 M 71 0 R D 5777 7841 M 71 0 R D
5777 8006 M 71 0 R D 5777 8171 M 71 0 R D 5777 8502 M 71 0 R D 5777 8667 M
71 0 R D 9334 5037 M 0 3630 R D 9334 5695 M -142 0 R D 9334 6355 M -142 0 R
D 9334 7016 M -142 0 R D 9334 7676 M -142 0 R D 9334 8336 M -142 0 R D
9334 5199 M -71 0 R D 9334 5364 M -71 0 R D 9334 5529 M -71 0 R D
9334 5860 M -71 0 R D 9334 6025 M -71 0 R D 9334 6190 M -71 0 R D
9334 6520 M -71 0 R D 9334 6685 M -71 0 R D 9334 6850 M -71 0 R D
9334 7181 M -71 0 R D 9334 7346 M -71 0 R D 9334 7511 M -71 0 R D
9334 7841 M -71 0 R D 9334 8006 M -71 0 R D 9334 8171 M -71 0 R D
9334 8502 M -71 0 R D 9334 8667 M -71 0 R D L5 5777 8336 M 356 -198 R
356 -726 R 356 -132 R 356 -99 R 356 -397 R 356 -165 R 356 -330 R 356 -165 R
357 -264 R 352 -295 R D L0 0.761 0.000 0.000 setrgbcolor 5777 8336 M
36 -31 R 110 -115 R 65 -91 R 53 -108 R 32 -95 R 31 -123 R 23 -111 R 21 -80 R
20 -54 R 23 -44 R 30 -40 R 42 -42 R 51 -40 R 68 -47 R 100 -63 R 142 -85 R
143 -83 R 142 -91 R 16 -11 R 20 -17 R 32 -31 R 31 -39 R 18 -30 R 17 -36 R
15 -31 R 14 -21 R 14 -14 R 17 -13 R 23 -11 R 32 -13 R 51 -16 R 86 -23 R
143 -35 R 142 -37 R 14 -5 R 42 -14 R 20 -8 R 19 -10 R 15 -11 R 15 -15 R
13 -18 R 13 -16 R 12 -12 R 14 -12 R 18 -11 R 27 -13 R 40 -16 R 68 -22 R
131 -40 R 82 -25 R 14 -5 R 46 -17 R 17 -8 R 17 -9 R 15 -11 R 13 -13 R
12 -16 R 10 -17 R 10 -14 R 11 -12 R 13 -12 R 18 -12 R 26 -14 R 41 -19 R
71 -27 R 139 -53 R 14 -6 R 20 -9 R 17 -9 R 15 -9 R 12 -11 R 11 -12 R
10 -15 R 9 -17 R 8 -15 R 8 -13 R 11 -12 R 13 -12 R 20 -14 R 31 -18 R
53 -26 R 102 -47 R 12 -6 R 24 -13 R 12 -8 R 13 -10 R 10 -9 R 8 -11 R 9 -14 R
7 -17 R 7 -17 R 6 -12 R 8 -13 R 9 -12 R 14 -13 R 22 -17 R 34 -22 R 65 -39 R
16 -9 R 7 -5 R 29 -20 R 8 -6 R 9 -9 R 8 -9 R 6 -11 R 6 -13 R 5 -16 R 6 -17 R
4 -12 R 6 -12 R 7 -13 R 7 -9 R D L1 0.000 0.000 1.000 setrgbcolor
5777 8336 M 36 -24 R 109 -89 R 40 -42 R 42 -54 R 26 -43 R 27 -57 R 26 -71 R
26 -97 R 24 -92 R 22 -70 R 22 -47 R 26 -41 R 35 -39 R 51 -42 R 80 -53 R
135 -77 R 142 -76 R 143 -74 R 142 -75 R 90 -55 R 35 -26 R 36 -34 R 27 -35 R
18 -33 R 18 -38 R 16 -33 R 15 -24 R 15 -16 R 14 -11 R 18 -12 R 32 -15 R
48 -18 R 78 -25 R 143 -41 R 142 -41 R 69 -21 R 15 -5 R 42 -16 R 20 -10 R
20 -12 R 16 -14 R 15 -18 R 14 -21 R 12 -19 R 11 -15 R 14 -14 R 18 -15 R
25 -15 R 37 -18 R 62 -25 R 111 -41 R 143 -53 R 14 -5 R 42 -19 R 17 -10 R
17 -11 R 15 -13 R 12 -16 R 12 -20 R 11 -21 R 10 -18 R 10 -15 R 13 -15 R
18 -15 R 26 -18 R 41 -23 R 71 -35 R 139 -65 R 22 -12 R 14 -9 R 16 -11 R
13 -12 R 11 -12 R 10 -16 R 9 -20 R 8 -20 R 8 -19 R 8 -15 R 10 -15 R 14 -16 R
21 -18 R 32 -24 R 56 -36 R 68 -42 R 15 -10 R 10 -6 R 21 -17 R 10 -9 R
11 -11 R 8 -12 R 8 -13 R 7 -18 R 6 -20 R 6 -20 R 5 -16 R 7 -15 R 9 -16 R
13 -18 R 19 -21 R 33 -31 R 38 -32 R D 0.000 0.000 0.000 setrgbcolor
gsave 9800 6852 translate 0 0 M 90 rotate -411.903 0 N
(0.05) show grestore 0.761 0.000 0.000 setrgbcolor
gsave 6062 5995 translate 0 0 M
(C= 6.4) show grestore 0.000 0.000 1.000 setrgbcolor
gsave 6062 5632 translate 0 0 M
(C= 2.0) show grestore L0 0.000 0.000 0.000 setrgbcolor 2220 1408 M 3557 0 R
D 2220 1408 M 0 145 R D gsave 2220 880 translate 0 0 M -117.687 0 N
(0) show grestore 2932 1408 M 0 145 R D gsave 2932 880 translate 0 0 M
-117.687 0 N
(2) show grestore 3644 1408 M 0 145 R D gsave 3644 880 translate 0 0 M
-117.687 0 N
(4) show grestore 4356 1408 M 0 145 R D gsave 4356 880 translate 0 0 M
-117.687 0 N
(6) show grestore 5068 1408 M 0 145 R D gsave 5068 880 translate 0 0 M
-117.687 0 N
(8) show grestore 2398 1408 M 0 73 R D 2576 1408 M 0 73 R D 2754 1408 M
0 73 R D 3110 1408 M 0 73 R D 3288 1408 M 0 73 R D 3466 1408 M 0 73 R D
3822 1408 M 0 73 R D 4000 1408 M 0 73 R D 4178 1408 M 0 73 R D 4534 1408 M
0 73 R D 4712 1408 M 0 73 R D 4890 1408 M 0 73 R D 5247 1408 M 0 73 R D
5425 1408 M 0 73 R D 5603 1408 M 0 73 R D 2220 5037 M 3557 0 R D 2220 5037 M
0 -145 R D 2932 5037 M 0 -145 R D 3644 5037 M 0 -145 R D 4356 5037 M
0 -145 R D 5068 5037 M 0 -145 R D 2398 5037 M 0 -72 R D 2576 5037 M 0 -72 R
D 2754 5037 M 0 -72 R D 3110 5037 M 0 -72 R D 3288 5037 M 0 -72 R D
3466 5037 M 0 -72 R D 3822 5037 M 0 -72 R D 4000 5037 M 0 -72 R D
4178 5037 M 0 -72 R D 4534 5037 M 0 -72 R D 4712 5037 M 0 -72 R D
4890 5037 M 0 -72 R D 5247 5037 M 0 -72 R D 5425 5037 M 0 -72 R D
5603 5037 M 0 -72 R D 2220 1408 M 0 3629 R D 2220 2065 M 142 0 R D
gsave 2109 1924 translate 0 0 M -588.433 0 N
(0.2) show grestore 2220 2726 M 142 0 R D gsave 2109 2585 translate 0 0 M
-588.433 0 N
(0.4) show grestore 2220 3386 M 142 0 R D gsave 2109 3245 translate 0 0 M
-588.433 0 N
(0.6) show grestore 2220 4047 M 142 0 R D gsave 2109 3906 translate 0 0 M
-588.433 0 N
(0.8) show grestore 2220 4707 M 142 0 R D gsave 2109 4566 translate 0 0 M
-588.433 0 N
(1.0) show grestore 2220 1570 M 71 0 R D 2220 1735 M 71 0 R D 2220 1900 M
71 0 R D 2220 2230 M 71 0 R D 2220 2395 M 71 0 R D 2220 2561 M 71 0 R D
2220 2891 M 71 0 R D 2220 3056 M 71 0 R D 2220 3221 M 71 0 R D 2220 3551 M
71 0 R D 2220 3716 M 71 0 R D 2220 3882 M 71 0 R D 2220 4212 M 71 0 R D
2220 4377 M 71 0 R D 2220 4542 M 71 0 R D 2220 4872 M 71 0 R D 2220 5037 M
71 0 R D 5777 1408 M 0 3629 R D 5777 2065 M -142 0 R D 5777 2726 M -142 0 R
D 5777 3386 M -142 0 R D 5777 4047 M -142 0 R D 5777 4707 M -142 0 R D
5777 1570 M -71 0 R D 5777 1735 M -71 0 R D 5777 1900 M -71 0 R D
5777 2230 M -71 0 R D 5777 2395 M -71 0 R D 5777 2561 M -71 0 R D
5777 2891 M -71 0 R D 5777 3056 M -71 0 R D 5777 3221 M -71 0 R D
5777 3551 M -71 0 R D 5777 3716 M -71 0 R D 5777 3882 M -71 0 R D
5777 4212 M -71 0 R D 5777 4377 M -71 0 R D 5777 4542 M -71 0 R D
5777 4872 M -71 0 R D 5777 5037 M -71 0 R D L5 2220 4707 M 356 -165 R
356 -561 R 356 -430 R 356 -165 R 356 -462 R 356 -429 R 356 -529 R 356 -396 R
357 -162 R D L0 0.761 0.000 0.000 setrgbcolor 2220 4707 M 36 -33 R
120 -130 R 133 -214 R 56 -132 R 50 -137 R 43 -106 R 27 -55 R 20 -33 R
50 -69 R 61 -66 R 61 -58 R 65 -55 R 75 -61 R 97 -77 R 142 -111 R 142 -118 R
41 -39 R 38 -41 R 39 -53 R 31 -50 R 28 -51 R 23 -37 R 23 -27 R 26 -22 R
32 -22 R 44 -24 R 65 -32 R 94 -42 R 142 -64 R 29 -14 R 35 -19 R 28 -19 R
24 -21 R 23 -26 R 20 -28 R 20 -27 R 17 -22 R 22 -21 R 27 -24 R 40 -27 R
60 -39 R 99 -60 R 24 -15 R 29 -20 R 25 -18 R 20 -19 R 18 -20 R 16 -26 R
15 -28 R 12 -26 R 12 -22 R 15 -22 R 18 -23 R 26 -28 R 39 -37 R 63 -55 R
19 -17 R 19 -18 R 17 -18 R 14 -18 R 11 -19 R 11 -22 R 9 -28 R 9 -27 R
8 -24 R 8 -23 R 12 -24 R 14 -27 R 23 -35 R 35 -48 R 12 -16 R 10 -14 R
9 -15 R 7 -13 R 7 -15 R 5 -15 R 4 -20 R 5 -30 R 5 -32 R 4 -27 R 4 -23 R
6 -20 R 9 -20 R 13 -18 R 3 -4 R 3 -2 R 1 -2 R D L1
0.000 0.000 1.000 setrgbcolor 2220 4707 M 36 -22 R 119 -88 R 36 -32 R
37 -38 R 35 -41 R 32 -45 R 49 -85 R 56 -116 R 44 -85 R 43 -64 R 40 -48 R
63 -62 R 64 -52 R 71 -53 R 86 -60 R 142 -94 R 143 -92 R 142 -93 R 123 -88 R
43 -37 R 42 -42 R 29 -36 R 33 -52 R 32 -58 R 27 -50 R 26 -37 R 27 -30 R
34 -30 R 46 -33 R 65 -39 R 104 -57 R 142 -77 R 71 -40 R 31 -20 R 34 -24 R
28 -25 R 23 -28 R 23 -36 R 20 -39 R 19 -36 R 18 -30 R 22 -30 R 29 -34 R
43 -41 R 65 -57 R 111 -92 R 18 -16 R 25 -24 R 21 -23 R 18 -25 R 14 -26 R
15 -34 R 12 -40 R 12 -39 R 11 -32 R 14 -32 R 17 -35 R 25 -43 R 38 -57 R
47 -67 R 12 -17 R 13 -20 R 11 -20 R 9 -19 R 8 -21 R 6 -24 R 7 -33 R 6 -43 R
6 -44 R 5 -36 R 7 -34 R 9 -35 R 14 -36 R 15 -27 R 4 -7 R 4 -7 R 3 -5 R
2 -5 R 1 -2 R 1 -2 R 0 -1 R D 0.761 0.000 0.000 setrgbcolor
gsave 3999 4543 translate 0 0 M
(C= 3.4) show grestore 0.000 0.000 1.000 setrgbcolor
gsave 3999 4180 translate 0 0 M
(C= 0.0) show grestore L0 0.000 0.000 0.000 setrgbcolor 5777 1408 M 3557 0 R
D 5777 1408 M 0 145 R D gsave 5777 880 translate 0 0 M -117.687 0 N
(0) show grestore 6489 1408 M 0 145 R D gsave 6489 880 translate 0 0 M
-117.687 0 N
(2) show grestore 7201 1408 M 0 145 R D gsave 7201 880 translate 0 0 M
-117.687 0 N
(4) show grestore 7913 1408 M 0 145 R D gsave 7913 880 translate 0 0 M
-117.687 0 N
(6) show grestore 8626 1408 M 0 145 R D gsave 8626 880 translate 0 0 M
-117.687 0 N
(8) show grestore 5955 1408 M 0 73 R D 6133 1408 M 0 73 R D 6311 1408 M
0 73 R D 6667 1408 M 0 73 R D 6845 1408 M 0 73 R D 7023 1408 M 0 73 R D
7379 1408 M 0 73 R D 7557 1408 M 0 73 R D 7735 1408 M 0 73 R D 8091 1408 M
0 73 R D 8269 1408 M 0 73 R D 8447 1408 M 0 73 R D 8804 1408 M 0 73 R D
8982 1408 M 0 73 R D 9160 1408 M 0 73 R D 5777 5037 M 3557 0 R D 5777 5037 M
0 -145 R D 6489 5037 M 0 -145 R D 7201 5037 M 0 -145 R D 7913 5037 M
0 -145 R D 8626 5037 M 0 -145 R D 5955 5037 M 0 -72 R D 6133 5037 M 0 -72 R
D 6311 5037 M 0 -72 R D 6667 5037 M 0 -72 R D 6845 5037 M 0 -72 R D
7023 5037 M 0 -72 R D 7379 5037 M 0 -72 R D 7557 5037 M 0 -72 R D
7735 5037 M 0 -72 R D 8091 5037 M 0 -72 R D 8269 5037 M 0 -72 R D
8447 5037 M 0 -72 R D 8804 5037 M 0 -72 R D 8982 5037 M 0 -72 R D
9160 5037 M 0 -72 R D 5777 1408 M 0 3629 R D 5777 2065 M 142 0 R D
gsave 5666 1924 translate 0 0 M -117.687 0 N
( ) show grestore 5777 2726 M 142 0 R D gsave 5666 2585 translate 0 0 M
-117.687 0 N
( ) show grestore 5777 3386 M 142 0 R D gsave 5666 3245 translate 0 0 M
-117.687 0 N
( ) show grestore 5777 4047 M 142 0 R D gsave 5666 3906 translate 0 0 M
-117.687 0 N
( ) show grestore 5777 4707 M 142 0 R D gsave 5666 4566 translate 0 0 M
-117.687 0 N
( ) show grestore 5777 1570 M 71 0 R D 5777 1735 M 71 0 R D 5777 1900 M
71 0 R D 5777 2230 M 71 0 R D 5777 2395 M 71 0 R D 5777 2561 M 71 0 R D
5777 2891 M 71 0 R D 5777 3056 M 71 0 R D 5777 3221 M 71 0 R D 5777 3551 M
71 0 R D 5777 3716 M 71 0 R D 5777 3882 M 71 0 R D 5777 4212 M 71 0 R D
5777 4377 M 71 0 R D 5777 4542 M 71 0 R D 5777 4872 M 71 0 R D 5777 5037 M
71 0 R D 9334 1408 M 0 3629 R D 9334 2065 M -142 0 R D 9334 2726 M -142 0 R
D 9334 3386 M -142 0 R D 9334 4047 M -142 0 R D 9334 4707 M -142 0 R D
9334 1570 M -71 0 R D 9334 1735 M -71 0 R D 9334 1900 M -71 0 R D
9334 2230 M -71 0 R D 9334 2395 M -71 0 R D 9334 2561 M -71 0 R D
9334 2891 M -71 0 R D 9334 3056 M -71 0 R D 9334 3221 M -71 0 R D
9334 3551 M -71 0 R D 9334 3716 M -71 0 R D 9334 3882 M -71 0 R D
9334 4212 M -71 0 R D 9334 4377 M -71 0 R D 9334 4542 M -71 0 R D
9334 4872 M -71 0 R D 9334 5037 M -71 0 R D L5 5777 4707 M 356 -198 R
356 -1156 R 356 -264 R 356 -660 R 356 -529 R 356 -462 R 356 -30 R D L0
0.761 0.000 0.000 setrgbcolor 5777 4707 M 36 -41 R 110 -150 R 65 -119 R
26 -62 R 22 -64 R 38 -146 R 25 -135 R 24 -153 R 22 -138 R 21 -89 R 21 -66 R
24 -52 R 37 -66 R 42 -60 R 45 -58 R 66 -78 R 115 -128 R 143 -156 R 14 -17 R
22 -28 R 21 -32 R 22 -36 R 16 -35 R 15 -37 R 13 -43 R 12 -39 R 10 -28 R
10 -18 R 12 -15 R 15 -15 R 21 -15 R 33 -18 R 52 -24 R 97 -42 R 44 -19 R
15 -7 R 30 -15 R 16 -9 R 17 -11 R 13 -11 R 12 -12 R 10 -16 R 10 -19 R
8 -17 R 8 -14 R 10 -13 R 12 -14 R 16 -15 R 26 -18 R 41 -24 R 73 -40 R
29 -16 R 12 -7 R 26 -16 R 12 -9 R 13 -10 R 11 -11 R 9 -12 R 8 -15 R 7 -18 R
8 -19 R 6 -15 R 8 -14 R 9 -14 R 13 -15 R 21 -18 R 33 -26 R 60 -42 R 14 -10 R
7 -5 R 21 -18 R 8 -8 R 8 -10 R 7 -11 R 6 -12 R 6 -16 R 5 -18 R 4 -16 R
5 -14 R 6 -14 R 7 -14 R 12 -16 R 17 -20 R 30 -29 R 22 -20 R 15 -14 R 4 -4 R
14 -16 R 4 -6 R 5 -9 R 4 -9 R 3 -11 R 4 -15 R 3 -18 R 3 -17 R 3 -15 R
4 -13 R 5 -14 R 8 -16 R 12 -18 R 23 -26 R 8 -8 R 2 -4 R 4 -5 R 1 -2 R 3 -5 R
2 -3 R 1 -4 R 1 -4 R 2 -5 R 0 -6 R 1 -7 R 1 -5 R 0 -5 R 0 -4 R 0 -1 R 0 -1 R
0 -1 R 0 -1 R 0 -1 R D L1 0.000 0.000 1.000 setrgbcolor 5777 4707 M 36 -30 R
111 -113 R 67 -94 R 54 -110 R 30 -95 R 30 -137 R 24 -131 R 21 -100 R
19 -74 R 24 -64 R 31 -62 R 43 -67 R 51 -64 R 77 -87 R 118 -120 R 142 -138 R
143 -146 R 15 -19 R 21 -29 R 23 -36 R 22 -47 R 14 -41 R 15 -50 R 12 -48 R
12 -38 R 11 -24 R 14 -22 R 17 -21 R 26 -22 R 39 -29 R 65 -41 R 128 -74 R
15 -10 R 43 -28 R 15 -10 R 17 -15 R 14 -15 R 12 -17 R 10 -20 R 10 -27 R
10 -30 R 9 -24 R 9 -21 R 11 -20 R 16 -22 R 24 -27 R 39 -36 R 69 -58 R
30 -25 R 12 -10 R 22 -21 R 11 -11 R 12 -14 R 10 -14 R 8 -15 R 7 -18 R
7 -23 R 6 -27 R 6 -26 R 5 -21 R 7 -21 R 9 -23 R 13 -24 R 21 -32 R 34 -44 R
26 -30 R 17 -21 R 8 -10 R 6 -10 R 7 -11 R 5 -11 R 5 -11 R 4 -13 R 4 -15 R
3 -21 R 3 -28 R 3 -27 R 3 -23 R 4 -22 R 5 -22 R 9 -22 R 13 -25 R 16 -22 R
7 -8 R 4 -6 R 3 -5 R 2 -4 R 1 -3 R 1 -2 R 0 -2 R 0 -1 R D
0.000 0.000 0.000 setrgbcolor gsave 9800 3223 translate 0 0 M 90 rotate
-829.31 0 N
(m/M=0.1) show grestore 0.761 0.000 0.000 setrgbcolor
gsave 7556 4543 translate 0 0 M
(C= 4.2) show grestore 0.000 0.000 1.000 setrgbcolor
gsave 7556 4180 translate 0 0 M
(C= 0.8) show grestore 0.000 0.000 0.000 setrgbcolor
gsave 2500 12480 translate 0 0 M
%%IncludeResource: font Symbol
423.333 /Symbol STDFONT
(e) show
%%IncludeResource: font Helvetica
423.333 /Helvetica STDFONT
(=0.65) show grestore gsave 6500 12480 translate 0 0 M
%%IncludeResource: font Symbol
423.333 /Symbol STDFONT
(e) show
%%IncludeResource: font Helvetica
423.333 /Helvetica STDFONT
(=0.46) show grestore
%%PageTrailer
end
%%PageResources: font Helvetica
%%+ font Symbol
%%Trailer
%%Pages: 1
%%DocumentNeededResources: font Helvetica
%%+ font Symbol
%%EOF
