%!PS-Adobe-3.0 EPSF-3.0
%%BoundingBox: 0 0 510 566
%%Title: Graphics produced by IDL
%%For: jlgan@aida119, /home/jlgan/work/subhalo_model
%%Creator: IDL Version 7.1 (linux x86_64 m64)
%%CreationDate: Tue Aug 11 14:05:23 2009
%%DocumentData: Clean7bit
%%Requirements: color
%%LanguageLevel: 1
%%PageOrder: Ascend
%%Pages: (atend)
%%DocumentNeededResources: (atend)
%%EndComments
%%BeginProlog
%+ prolog.ps -- Prolog for IDL generated PostScript files
%+ Copyright (c) 1988-2009 ITT Visual Information Solutions. All Rights Reserved.
%v 5
/$IDL_DICT 40 dict def $IDL_DICT begin /bdef { bind def } bind def /C
{currentpoint newpath moveto} bdef /CP {currentpoint} bdef /D {currentpoint
stroke moveto} bdef /F {closepath fill} bdef /K { setgray } bdef /M {moveto}
bdef /N {rmoveto} bdef /P {lineto} bdef /R {rlineto} bdef /S {gsave show
grestore} bdef /X {currentpoint pop} bdef /Z {gsave currentpoint lineto 20
setlinewidth 1 setlinecap stroke grestore} bdef /L0 {[] 0 setdash} bdef /L1
{[40 100] 0 setdash} bdef /L2 {[200 200] 0 setdash} bdef /L3 {[200 100 50
100] 0 setdash} bdef /L4 {[300 100 50 100 50 100 50 100] 0 setdash} bdef /L5
{[400 200] 0 setdash} bdef /STDFONT { findfont exch scalefont setfont } bdef
/ISOFONT { findfont dup length dict begin { 1 index /FID ne {def} {pop pop}
ifelse } forall /Encoding ISOLatin1Encoding def currentdict end /idltmpfont
exch definefont exch scalefont setfont } bdef /ISOBULLET { gsave /Helvetica
findfont exch scalefont setfont (\267) show currentpoint grestore moveto}
bdef /MITERLIMIT { 2.5 setmiterlimit } bdef end
%%EndProlog
%%Page: 0 1
%%PageRequirements: color
%%PageResources: (atend)
%%PageOrientation: Portrait
%%PageBoundingBox: 0 0 510 566
%%BeginPageSetup
$IDL_DICT begin 0.0283465 dup scale MITERLIMIT
%%IncludeResource: font Helvetica
423.333 /Helvetica STDFONT
%%EndPageSetup
40 setlinewidth L0 0.000 0.000 0.000 setrgbcolor 2664 1690 M 14537 0 R D
2664 1690 M 0 698 R D gsave 2664 929 translate 0 0 M 1.44 dup scale
-117.687 0 N
(0) show grestore 5356 1690 M 0 698 R D gsave 5356 929 translate 0 0 M
1.44 dup scale -117.687 0 N
(5) show grestore 8048 1690 M 0 698 R D gsave 8048 929 translate 0 0 M
1.44 dup scale -235.373 0 N
(10) show grestore 10740 1690 M 0 698 R D gsave 10740 929 translate 0 0 M
1.44 dup scale -235.373 0 N
(15) show grestore 13432 1690 M 0 698 R D gsave 13432 929 translate 0 0 M
1.44 dup scale -235.373 0 N
(20) show grestore 16124 1690 M 0 698 R D gsave 16124 929 translate 0 0 M
1.44 dup scale -235.373 0 N
(25) show grestore 3202 1690 M 0 349 R D 3741 1690 M 0 349 R D 4279 1690 M
0 349 R D 4818 1690 M 0 349 R D 5894 1690 M 0 349 R D 6433 1690 M 0 349 R D
6971 1690 M 0 349 R D 7510 1690 M 0 349 R D 8586 1690 M 0 349 R D
9125 1690 M 0 349 R D 9663 1690 M 0 349 R D 10202 1690 M 0 349 R D
11278 1690 M 0 349 R D 11817 1690 M 0 349 R D 12355 1690 M 0 349 R D
12894 1690 M 0 349 R D 13970 1690 M 0 349 R D 14509 1690 M 0 349 R D
15047 1690 M 0 349 R D 15586 1690 M 0 349 R D 16662 1690 M 0 349 R D
17201 1690 M 0 349 R D gsave 9932 270 translate 0 0 M 1.44 dup scale
-505.883 0 N
(index) show grestore 2664 19155 M 14537 0 R D 2664 19155 M 0 -698 R D
5356 19155 M 0 -698 R D 8048 19155 M 0 -698 R D 10740 19155 M 0 -698 R D
13432 19155 M 0 -698 R D 16124 19155 M 0 -698 R D 3202 19155 M 0 -349 R D
3741 19155 M 0 -349 R D 4279 19155 M 0 -349 R D 4818 19155 M 0 -349 R D
5894 19155 M 0 -349 R D 6433 19155 M 0 -349 R D 6971 19155 M 0 -349 R D
7510 19155 M 0 -349 R D 8586 19155 M 0 -349 R D 9125 19155 M 0 -349 R D
9663 19155 M 0 -349 R D 10202 19155 M 0 -349 R D 11278 19155 M 0 -349 R D
11817 19155 M 0 -349 R D 12355 19155 M 0 -349 R D 12894 19155 M 0 -349 R D
13970 19155 M 0 -349 R D 14509 19155 M 0 -349 R D 15047 19155 M 0 -349 R D
15586 19155 M 0 -349 R D 16662 19155 M 0 -349 R D 17201 19155 M 0 -349 R D
2664 1690 M 0 17465 R D 2664 11073 M 582 0 R D
gsave 2504 10870 translate 0 0 M 1.44 dup scale -470.747 0 N
(10) show grestore 2664 1690 M 291 0 R D 2664 4054 M 291 0 R D 2664 5731 M
291 0 R D 2664 7032 M 291 0 R D 2664 8095 M 291 0 R D 2664 8994 M 291 0 R D
2664 9772 M 291 0 R D 2664 10459 M 291 0 R D 2664 15114 M 291 0 R D
2664 17478 M 291 0 R D 2664 19155 M 291 0 R D
gsave 1348 10423 translate 0 0 M 90 rotate 1.44 dup scale -756.302 0 N
(T) show X -101.051 M
%%IncludeResource: font Helvetica
262.467 /Helvetica STDFONT
(df) show X 0 M
%%IncludeResource: font Helvetica
423.333 /Helvetica STDFONT
( [Gyr]) show grestore 17201 1690 M 0 17465 R D 17201 11073 M -582 0 R D
17201 1690 M -291 0 R D 17201 4054 M -291 0 R D 17201 5731 M -291 0 R D
17201 7032 M -291 0 R D 17201 8095 M -291 0 R D 17201 8994 M -291 0 R D
17201 9772 M -291 0 R D 17201 10459 M -291 0 R D 17201 15114 M -291 0 R D
17201 17478 M -291 0 R D 17201 19155 M -291 0 R D 3091 4952 M 222 0 R
-111 0 R 0 111 R 0 -222 R D 3630 4952 M 222 0 R -111 0 R 0 111 R 0 -222 R D
4168 6153 M 222 0 R -111 0 R 0 111 R 0 -222 R D 4707 6153 M 222 0 R -111 0 R
0 111 R 0 -222 R D 5245 6287 M 222 0 R -111 0 R 0 111 R 0 -222 R D
5783 6418 M 222 0 R -111 0 R 0 111 R 0 -222 R D 6322 6854 M 222 0 R -111 0 R
0 111 R 0 -222 R D 6860 7032 M 222 0 R -111 0 R 0 111 R 0 -222 R D
7399 7587 M 222 0 R -111 0 R 0 111 R 0 -222 R D 7937 7693 M 222 0 R -111 0 R
0 111 R 0 -222 R D 8475 8095 M 222 0 R -111 0 R 0 111 R 0 -222 R D
9014 8095 M 222 0 R -111 0 R 0 111 R 0 -222 R D 9552 8286 M 222 0 R -111 0 R
0 111 R 0 -222 R D 10091 8425 M 222 0 R -111 0 R 0 111 R 0 -222 R D
10629 8910 M 222 0 R -111 0 R 0 111 R 0 -222 R D 11167 9396 M 222 0 R
-111 0 R 0 111 R 0 -222 R D 11706 9951 M 222 0 R -111 0 R 0 111 R 0 -222 R D
12244 10459 M 222 0 R -111 0 R 0 111 R 0 -222 R D 12783 10774 M 222 0 R
-111 0 R 0 111 R 0 -222 R D 13321 11073 M 222 0 R -111 0 R 0 111 R 0 -222 R
D 13859 11495 M 222 0 R -111 0 R 0 111 R 0 -222 R D 14398 11629 M 222 0 R
-111 0 R 0 111 R 0 -222 R D 14936 12374 M 222 0 R -111 0 R 0 111 R 0 -222 R
D 15475 14167 M 222 0 R -111 0 R 0 111 R 0 -222 R D 16013 15670 M 222 0 R
-111 0 R 0 111 R 0 -222 R D 16551 18856 M 222 0 R -111 0 R 0 111 R 0 -222 R
D 1.000 0.000 0.000 setrgbcolor 3202 4702 M 539 424 R 538 744 R 539 232 R
538 297 R 538 -81 R 539 319 R 538 659 R 539 454 R 538 -237 R 538 865 R
539 -524 R 538 702 R 539 -373 R 538 613 R 538 727 R 539 329 R 538 658 R
539 130 R 538 552 R 538 168 R 539 376 R 538 726 R 539 1978 R 538 1025 R
538 3511 R D 0.000 0.000 1.000 setrgbcolor 3202 6527 M 539 -1846 R
538 1997 R 539 -1301 R 538 639 R 538 1478 R 539 1338 R 538 -1629 R
539 -590 R 538 -239 R 538 1031 R 539 2012 R 538 -867 R 539 196 R 538 -2369 R
538 3456 R 539 1072 R 538 371 R 539 -4058 R 538 3174 R 538 -493 R 539 3246 R
538 -215 R 539 1794 R 538 -766 R 538 4870 R D
%%PageTrailer
end
%%PageResources: font Helvetica
%%Trailer
%%Pages: 1
%%DocumentNeededResources: font Helvetica
%%EOF
