%!PS-Adobe-3.0 EPSF-3.0
%%BoundingBox: 0 0 510 425
%%Title: Graphics produced by IDL
%%For: jlgan@aida119, /home/jlgan/work/subhalo_model
%%Creator: IDL Version 7.1 (linux x86_64 m64)
%%CreationDate: Tue Aug 18 17:34:08 2009
%%DocumentData: Clean7bit
%%Requirements: color
%%LanguageLevel: 1
%%PageOrder: Ascend
%%Pages: (atend)
%%DocumentNeededResources: (atend)
%%EndComments
%%BeginProlog
%+ prolog.ps -- Prolog for IDL generated PostScript files
%+ Copyright (c) 1988-2009 ITT Visual Information Solutions. All Rights Reserved.
%v 5
/$IDL_DICT 40 dict def $IDL_DICT begin /bdef { bind def } bind def /C
{currentpoint newpath moveto} bdef /CP {currentpoint} bdef /D {currentpoint
stroke moveto} bdef /F {closepath fill} bdef /K { setgray } bdef /M {moveto}
bdef /N {rmoveto} bdef /P {lineto} bdef /R {rlineto} bdef /S {gsave show
grestore} bdef /X {currentpoint pop} bdef /Z {gsave currentpoint lineto 20
setlinewidth 1 setlinecap stroke grestore} bdef /L0 {[] 0 setdash} bdef /L1
{[40 100] 0 setdash} bdef /L2 {[200 200] 0 setdash} bdef /L3 {[200 100 50
100] 0 setdash} bdef /L4 {[300 100 50 100 50 100 50 100] 0 setdash} bdef /L5
{[400 200] 0 setdash} bdef /STDFONT { findfont exch scalefont setfont } bdef
/ISOFONT { findfont dup length dict begin { 1 index /FID ne {def} {pop pop}
ifelse } forall /Encoding ISOLatin1Encoding def currentdict end /idltmpfont
exch definefont exch scalefont setfont } bdef /ISOBULLET { gsave /Helvetica
findfont exch scalefont setfont (\267) show currentpoint grestore moveto}
bdef /MITERLIMIT { 2.5 setmiterlimit } bdef end
%%EndProlog
%%Page: 0 1
%%PageRequirements: color
%%PageResources: (atend)
%%PageOrientation: Portrait
%%PageBoundingBox: 0 0 510 425
%%BeginPageSetup
$IDL_DICT begin 0.0283465 dup scale MITERLIMIT
%%IncludeResource: font Helvetica
423.333 /Helvetica STDFONT
%%EndPageSetup
40 setlinewidth L0 0.000 0.000 0.000 setrgbcolor 3120 8302 M 5757 0 R D
3120 8302 M 0 222 R D gsave 3120 7668 translate 0 0 M 1.2 dup scale
-117.687 0 N
(0) show grestore 3888 8302 M 0 222 R D gsave 3888 7668 translate 0 0 M
1.2 dup scale -117.687 0 N
(2) show grestore 4655 8302 M 0 222 R D gsave 4655 7668 translate 0 0 M
1.2 dup scale -117.687 0 N
(4) show grestore 5423 8302 M 0 222 R D gsave 5423 7668 translate 0 0 M
1.2 dup scale -117.687 0 N
(6) show grestore 6190 8302 M 0 222 R D gsave 6190 7668 translate 0 0 M
1.2 dup scale -117.687 0 N
(8) show grestore 6958 8302 M 0 222 R D gsave 6958 7668 translate 0 0 M
1.2 dup scale -235.373 0 N
(10) show grestore 7726 8302 M 0 222 R D gsave 7726 7668 translate 0 0 M
1.2 dup scale -235.373 0 N
(12) show grestore 8493 8302 M 0 222 R D gsave 8493 7668 translate 0 0 M
1.2 dup scale -235.373 0 N
(14) show grestore 3312 8302 M 0 111 R D 3504 8302 M 0 111 R D 3696 8302 M
0 111 R D 4080 8302 M 0 111 R D 4271 8302 M 0 111 R D 4463 8302 M 0 111 R D
4847 8302 M 0 111 R D 5039 8302 M 0 111 R D 5231 8302 M 0 111 R D
5615 8302 M 0 111 R D 5807 8302 M 0 111 R D 5999 8302 M 0 111 R D
6382 8302 M 0 111 R D 6574 8302 M 0 111 R D 6766 8302 M 0 111 R D
7150 8302 M 0 111 R D 7342 8302 M 0 111 R D 7534 8302 M 0 111 R D
7918 8302 M 0 111 R D 8109 8302 M 0 111 R D 8301 8302 M 0 111 R D
8685 8302 M 0 111 R D 8877 8302 M 0 111 R D 3120 13846 M 5757 0 R D
3120 13846 M 0 -222 R D 3888 13846 M 0 -222 R D 4655 13846 M 0 -222 R D
5423 13846 M 0 -222 R D 6190 13846 M 0 -222 R D 6958 13846 M 0 -222 R D
7726 13846 M 0 -222 R D 8493 13846 M 0 -222 R D 3312 13846 M 0 -111 R D
3504 13846 M 0 -111 R D 3696 13846 M 0 -111 R D 4080 13846 M 0 -111 R D
4271 13846 M 0 -111 R D 4463 13846 M 0 -111 R D 4847 13846 M 0 -111 R D
5039 13846 M 0 -111 R D 5231 13846 M 0 -111 R D 5615 13846 M 0 -111 R D
5807 13846 M 0 -111 R D 5999 13846 M 0 -111 R D 6382 13846 M 0 -111 R D
6574 13846 M 0 -111 R D 6766 13846 M 0 -111 R D 7150 13846 M 0 -111 R D
7342 13846 M 0 -111 R D 7534 13846 M 0 -111 R D 7918 13846 M 0 -111 R D
8109 13846 M 0 -111 R D 8301 13846 M 0 -111 R D 8685 13846 M 0 -111 R D
8877 13846 M 0 -111 R D 3120 8302 M 0 5544 R D 3120 8566 M 230 0 R D
gsave 2987 8397 translate 0 0 M 1.2 dup scale -588.433 0 N
(0.0) show grestore 3120 9622 M 230 0 R D gsave 2987 9453 translate 0 0 M
1.2 dup scale -588.433 0 N
(0.2) show grestore 3120 10678 M 230 0 R D gsave 2987 10509 translate 0 0 M
1.2 dup scale -588.433 0 N
(0.4) show grestore 3120 11734 M 230 0 R D gsave 2987 11565 translate 0 0 M
1.2 dup scale -588.433 0 N
(0.6) show grestore 3120 12790 M 230 0 R D gsave 2987 12621 translate 0 0 M
1.2 dup scale -588.433 0 N
(0.8) show grestore 3120 13846 M 230 0 R D gsave 2987 13550 translate 0 0 M
1.2 dup scale -588.433 0 N
(1.0) show grestore 3120 8302 M 115 0 R D 3120 8830 M 115 0 R D 3120 9094 M
115 0 R D 3120 9358 M 115 0 R D 3120 9886 M 115 0 R D 3120 10150 M 115 0 R D
3120 10414 M 115 0 R D 3120 10942 M 115 0 R D 3120 11206 M 115 0 R D
3120 11470 M 115 0 R D 3120 11998 M 115 0 R D 3120 12262 M 115 0 R D
3120 12526 M 115 0 R D 3120 13054 M 115 0 R D 3120 13318 M 115 0 R D
3120 13582 M 115 0 R D gsave 1881 11074 translate 0 0 M 90 rotate
1.2 dup scale -869.95 0 N
(m\(t\)/m\(0\)) show grestore 8877 8302 M 0 5544 R D 8877 8566 M -230 0 R D
8877 9622 M -230 0 R D 8877 10678 M -230 0 R D 8877 11734 M -230 0 R D
8877 12790 M -230 0 R D 8877 13846 M -230 0 R D 8877 8302 M -115 0 R D
8877 8830 M -115 0 R D 8877 9094 M -115 0 R D 8877 9358 M -115 0 R D
8877 9886 M -115 0 R D 8877 10150 M -115 0 R D 8877 10414 M -115 0 R D
8877 10942 M -115 0 R D 8877 11206 M -115 0 R D 8877 11470 M -115 0 R D
8877 11998 M -115 0 R D 8877 12262 M -115 0 R D 8877 12526 M -115 0 R D
8877 13054 M -115 0 R D 8877 13318 M -115 0 R D 8877 13582 M -115 0 R D
1.000 0.000 0.706 setrgbcolor 3120 13846 M 38 0 R 145 0 R 86 -270 R 35 -68 R
25 -116 R 23 -94 R 23 -162 R 21 -177 R 22 -126 R 22 -134 R 20 -134 R
18 -207 R 17 -95 R 16 -177 R 53 -489 R 29 -202 R 21 -117 R 20 -85 R 19 -56 R
20 -62 R 27 -62 R 25 -59 R 68 -75 R 63 -97 R 45 -43 R 34 -38 R 29 -38 R
40 -119 R 36 -166 R 28 -213 R 25 -293 R 22 -330 R 19 -220 R 19 -126 R
18 -68 R 23 -44 R 31 -25 R 29 -25 R 32 -34 R 19 -33 R 15 -47 R 13 -66 R
14 -84 R 10 -48 R 10 -29 R 11 -18 R 14 -12 R 18 -11 R 26 -10 R 26 -10 R
16 -7 R 13 -9 R 11 -11 R 12 -11 R 9 -6 R 8 -3 R 10 -3 R 13 -1 R 17 0 R
25 0 R 25 0 R 15 0 R 12 -2 R 12 -2 R 11 -3 R 8 -1 R 9 -1 R 10 0 R 13 0 R
17 0 R 27 0 R 21 0 R 14 0 R 12 -1 R 11 0 R 6 -1 R 6 0 R 5 0 R 7 -1 R 9 0 R
10 0 R 14 0 R 21 0 R 32 0 R 14 0 R 13 0 R 11 0 R 8 0 R 6 0 R 5 0 R 6 0 R
8 0 R 10 0 R 13 0 R 18 0 R 27 0 R 19 0 R 14 0 R 12 0 R 11 0 R 6 0 R 5 -1 R
5 0 R 8 0 R 9 0 R 11 0 R 16 0 R 23 0 R 28 0 R 14 0 R 12 0 R 11 0 R 8 0 R
7 0 R 7 0 R 9 0 R 10 0 R 13 0 R 18 0 R 28 0 R 18 0 R 13 0 R 12 0 R 10 0 R
10 0 R 9 0 R 8 0 R 10 0 R 13 0 R 18 0 R 26 0 R 19 0 R 14 0 R 12 0 R 10 0 R
11 0 R 9 0 R 9 0 R 10 0 R 13 0 R 19 0 R 28 0 R 17 0 R 13 0 R 12 0 R 10 0 R
9 0 R 9 0 R 8 0 R 10 0 R 13 0 R 18 0 R 28 0 R 17 0 R 14 0 R 11 0 R 11 0 R
9 0 R 9 0 R 8 0 R 10 0 R 13 0 R 18 0 R 27 0 R 18 0 R 13 0 R 12 0 R 10 0 R
10 0 R 8 0 R 9 0 R 9 0 R 13 0 R 18 0 R 26 0 R 19 0 R 13 0 R 12 0 R 10 0 R
10 0 R 9 0 R 8 0 R 9 0 R 13 0 R 17 0 R 26 0 R 19 0 R 14 0 R 11 0 R 11 0 R
10 0 R 9 0 R 8 0 R 10 0 R 12 0 R 18 0 R 26 0 R 18 0 R 14 0 R 11 0 R 11 0 R
9 0 R 9 0 R 8 0 R 9 0 R 13 0 R 17 0 R 26 0 R 19 0 R 13 0 R 12 0 R 10 0 R
11 0 R 8 0 R 8 0 R 10 0 R 12 0 R 17 0 R 26 0 R 19 0 R 13 0 R 11 0 R 11 0 R
10 0 R 9 0 R 9 0 R 10 0 R 12 0 R 19 0 R 27 0 R 16 0 R 13 0 R 11 0 R 11 0 R
9 0 R 8 0 R 8 0 R 10 0 R 13 0 R 18 0 R 27 0 R 16 0 R 13 0 R 11 0 R 11 0 R
8 0 R 9 0 R 8 0 R 10 0 R 12 0 R 18 0 R 26 0 R 17 0 R 13 0 R 11 0 R 11 0 R
9 0 R 8 0 R 8 0 R 10 0 R 12 0 R 17 0 R 26 0 R 18 0 R 13 0 R 11 0 R 11 0 R
10 0 R 9 0 R 8 0 R 10 0 R 12 0 R 18 0 R 28 0 R 15 0 R 13 0 R 11 0 R 10 0 R
9 0 R 8 0 R 8 0 R 10 0 R 12 0 R 18 0 R 26 0 R 17 0 R 13 0 R 11 0 R 10 0 R
9 0 R 8 0 R 8 0 R 10 0 R 12 0 R 17 0 R 26 0 R 17 0 R 13 0 R 11 0 R 10 0 R
9 0 R 9 0 R 7 0 R 10 0 R 12 0 R 16 0 R 25 0 R 19 0 R 13 0 R 11 0 R 10 0 R
10 0 R 8 0 R 8 0 R 9 0 R 12 0 R 16 0 R 25 0 R 19 0 R 13 0 R 11 0 R 10 0 R
10 0 R 8 0 R 7 0 R 10 0 R 11 0 R 17 0 R 25 0 R 18 0 R 13 0 R 11 0 R 10 0 R
10 0 R 8 0 R 8 0 R 9 0 R 11 0 R 17 0 R 24 0 R 19 0 R 13 0 R 11 0 R 10 0 R
10 0 R 8 0 R 7 0 R 9 0 R 12 0 R 16 0 R 24 0 R 19 0 R 13 0 R 11 0 R 10 0 R
10 0 R 8 0 R 8 0 R 9 0 R 11 0 R 16 0 R 23 0 R 20 0 R 13 0 R 11 0 R 10 0 R
10 0 R 8 0 R 7 0 R 9 0 R 11 0 R 16 0 R 23 0 R 21 0 R 13 0 R 11 0 R 10 0 R
9 0 R 8 0 R 7 0 R 4 0 R D 0.506 0.000 0.000 setrgbcolor 3120 13846 M 38 0 R
144 0 R 86 -272 R 41 -138 R 40 -158 R 25 -192 R 23 -195 R 82 -776 R
72 -611 R 71 -361 R 48 -138 R 40 -75 R 83 -56 R 110 -65 R 143 -28 R
109 -32 R 69 -36 R 56 -126 R 56 -253 R 41 -322 R 36 -317 R 29 -187 R
28 -98 R 34 -56 R 43 -31 R 58 -20 R 86 -21 R 49 -17 R 37 -26 R 31 -45 R
26 -79 R 28 -129 R 20 -87 R 20 -48 R 21 -25 R 26 -15 R 35 -8 R 50 -7 R
67 -9 R 31 -9 R 26 -14 R 22 -26 R 24 -45 R 17 -31 R 17 -18 R 18 -11 R
22 -6 R 29 -3 R 42 -2 R 64 -2 R 30 -2 R 25 -4 R 22 -7 R 20 -9 R 18 -8 R
16 -4 R 17 -1 R 20 0 R 26 0 R 37 0 R 57 0 R 34 0 R 27 0 R 23 -1 R 20 -2 R
21 -4 R 16 -2 R 15 0 R 19 0 R 23 0 R 33 0 R 49 0 R 46 0 R 28 0 R 23 0 R
21 0 R 21 -2 R 15 -1 R 15 0 R 17 0 R 21 0 R 28 0 R 42 0 R 63 0 R 28 0 R
23 0 R 21 0 R 21 -1 R 16 0 R 16 0 R 16 0 R 21 0 R 27 0 R 40 0 R 60 0 R
29 0 R 25 0 R 21 0 R 20 -1 R 17 0 R 16 0 R 16 0 R 19 0 R 25 0 R 36 0 R
54 0 R 35 0 R 26 0 R 22 0 R 21 0 R 19 -1 R 16 0 R 15 0 R 18 0 R 22 0 R
32 0 R 46 0 R 49 0 R 27 0 R 24 0 R 20 0 R 20 0 R 15 0 R 15 0 R 17 0 R 20 0 R
28 0 R 40 0 R 62 0 R 27 0 R 24 0 R 20 0 R 22 0 R 16 0 R 15 0 R 16 0 R 21 0 R
26 0 R 39 0 R 59 0 R 29 0 R 24 0 R 21 0 R 20 0 R 17 0 R 16 0 R 15 0 R 19 0 R
24 0 R 35 0 R 52 0 R 36 0 R 27 0 R 22 0 R 20 0 R 19 0 R 16 0 R 14 0 R 18 0 R
21 0 R 30 0 R 45 0 R 52 0 R 27 0 R 23 0 R 20 0 R 20 0 R 15 0 R 15 0 R 16 0 R
21 0 R 26 0 R 40 0 R 60 0 R 28 0 R 23 0 R 21 0 R 19 0 R 9 -1 R D
1.000 0.349 0.000 setrgbcolor 3120 13846 M 38 0 R 141 0 R 59 0 R 25 -31 R
23 -81 R 22 -38 R 19 -90 R 19 -103 R 16 -132 R 51 -450 R 49 -489 R 32 -154 R
26 -119 R 24 -197 R 21 -108 R 20 -123 R 42 -191 R 38 -119 R 33 -47 R
31 -43 R 31 -25 R 36 -11 R 37 -7 R 40 -5 R 45 -5 R 52 0 R 154 0 R 153 0 R
150 -107 R 60 -58 R 34 -138 R 41 -244 R 48 -414 R 41 -350 R 40 -207 R
38 -94 R 47 -49 R 60 -26 R 78 -14 R 127 -16 R 75 -16 R 50 -27 R 43 -57 R
35 -101 R 37 -169 R 17 -74 R 24 -71 R 25 -39 R 32 -20 R 41 -9 R 57 -5 R
87 -3 R 67 -4 R 43 -6 R 36 -13 R 30 -30 R 29 -58 R 25 -60 R 23 -38 R
23 -19 R 27 -10 R 36 -6 R 51 -4 R 76 -3 R 60 -4 R 39 -4 R 33 -8 R 27 -16 R
27 -27 R 22 -23 R 22 -13 R 21 -7 R 26 -2 R 35 -1 R 49 0 R 75 0 R 55 0 R
37 0 R 31 -2 R 27 -5 R 26 -8 R 21 -7 R 21 -3 R 21 -1 R 26 0 R 34 0 R 50 0 R
75 0 R 51 0 R 37 0 R 30 0 R 27 0 R 27 -4 R 21 -3 R 20 0 R 22 0 R 27 0 R
35 0 R 52 0 R 80 0 R 44 0 R 35 0 R 30 0 R 26 -1 R 26 -1 R 20 -2 R 19 0 R
22 0 R 27 0 R 37 0 R 54 0 R 84 0 R 40 0 R 34 0 R 28 0 R 26 0 R 25 -1 R
21 0 R 19 0 R 24 0 R 30 0 R 41 0 R 63 0 R 74 0 R 38 0 R 31 0 R 26 0 R
26 -1 R 21 0 R 21 0 R 20 0 R 25 0 R 32 0 R 47 0 R 70 0 R 55 0 R 37 0 R
30 0 R 26 0 R 25 0 R 21 -1 R 20 0 R 18 0 R D 0.000 0.000 0.000 setrgbcolor
10677 8302 M 5757 0 R D 10677 8302 M 0 222 R D
gsave 10677 7668 translate 0 0 M 1.2 dup scale -117.687 0 N
(0) show grestore 11445 8302 M 0 222 R D gsave 11445 7668 translate 0 0 M
1.2 dup scale -117.687 0 N
(2) show grestore 12212 8302 M 0 222 R D gsave 12212 7668 translate 0 0 M
1.2 dup scale -117.687 0 N
(4) show grestore 12980 8302 M 0 222 R D gsave 12980 7668 translate 0 0 M
1.2 dup scale -117.687 0 N
(6) show grestore 13747 8302 M 0 222 R D gsave 13747 7668 translate 0 0 M
1.2 dup scale -117.687 0 N
(8) show grestore 14515 8302 M 0 222 R D gsave 14515 7668 translate 0 0 M
1.2 dup scale -235.373 0 N
(10) show grestore 15283 8302 M 0 222 R D gsave 15283 7668 translate 0 0 M
1.2 dup scale -235.373 0 N
(12) show grestore 16050 8302 M 0 222 R D gsave 16050 7668 translate 0 0 M
1.2 dup scale -235.373 0 N
(14) show grestore 10869 8302 M 0 111 R D 11061 8302 M 0 111 R D
11253 8302 M 0 111 R D 11637 8302 M 0 111 R D 11828 8302 M 0 111 R D
12020 8302 M 0 111 R D 12404 8302 M 0 111 R D 12596 8302 M 0 111 R D
12788 8302 M 0 111 R D 13172 8302 M 0 111 R D 13364 8302 M 0 111 R D
13556 8302 M 0 111 R D 13939 8302 M 0 111 R D 14131 8302 M 0 111 R D
14323 8302 M 0 111 R D 14707 8302 M 0 111 R D 14899 8302 M 0 111 R D
15091 8302 M 0 111 R D 15475 8302 M 0 111 R D 15666 8302 M 0 111 R D
15858 8302 M 0 111 R D 16242 8302 M 0 111 R D 16434 8302 M 0 111 R D
10677 13846 M 5757 0 R D 10677 13846 M 0 -222 R D 11445 13846 M 0 -222 R D
12212 13846 M 0 -222 R D 12980 13846 M 0 -222 R D 13747 13846 M 0 -222 R D
14515 13846 M 0 -222 R D 15283 13846 M 0 -222 R D 16050 13846 M 0 -222 R D
10869 13846 M 0 -111 R D 11061 13846 M 0 -111 R D 11253 13846 M 0 -111 R D
11637 13846 M 0 -111 R D 11828 13846 M 0 -111 R D 12020 13846 M 0 -111 R D
12404 13846 M 0 -111 R D 12596 13846 M 0 -111 R D 12788 13846 M 0 -111 R D
13172 13846 M 0 -111 R D 13364 13846 M 0 -111 R D 13556 13846 M 0 -111 R D
13939 13846 M 0 -111 R D 14131 13846 M 0 -111 R D 14323 13846 M 0 -111 R D
14707 13846 M 0 -111 R D 14899 13846 M 0 -111 R D 15091 13846 M 0 -111 R D
15475 13846 M 0 -111 R D 15666 13846 M 0 -111 R D 15858 13846 M 0 -111 R D
16242 13846 M 0 -111 R D 16434 13846 M 0 -111 R D 10677 8302 M 0 5544 R D
10677 8566 M 230 0 R D gsave 10544 8397 translate 0 0 M 1.2 dup scale
-588.433 0 N
(0.0) show grestore 10677 9622 M 230 0 R D gsave 10544 9453 translate 0 0 M
1.2 dup scale -588.433 0 N
(0.2) show grestore 10677 10678 M 230 0 R D
gsave 10544 10509 translate 0 0 M 1.2 dup scale -588.433 0 N
(0.4) show grestore 10677 11734 M 230 0 R D
gsave 10544 11565 translate 0 0 M 1.2 dup scale -588.433 0 N
(0.6) show grestore 10677 12790 M 230 0 R D
gsave 10544 12621 translate 0 0 M 1.2 dup scale -588.433 0 N
(0.8) show grestore 10677 13846 M 230 0 R D
gsave 10544 13550 translate 0 0 M 1.2 dup scale -588.433 0 N
(1.0) show grestore 10677 8302 M 115 0 R D 10677 8830 M 115 0 R D
10677 9094 M 115 0 R D 10677 9358 M 115 0 R D 10677 9886 M 115 0 R D
10677 10150 M 115 0 R D 10677 10414 M 115 0 R D 10677 10942 M 115 0 R D
10677 11206 M 115 0 R D 10677 11470 M 115 0 R D 10677 11998 M 115 0 R D
10677 12262 M 115 0 R D 10677 12526 M 115 0 R D 10677 13054 M 115 0 R D
10677 13318 M 115 0 R D 10677 13582 M 115 0 R D
gsave 9438 11074 translate 0 0 M 90 rotate 1.2 dup scale -611.293 0 N
(j\(t\)/j\(0\)) show grestore 16434 8302 M 0 5544 R D 16434 8566 M -230 0 R
D 16434 9622 M -230 0 R D 16434 10678 M -230 0 R D 16434 11734 M -230 0 R D
16434 12790 M -230 0 R D 16434 13846 M -230 0 R D 16434 8302 M -115 0 R D
16434 8830 M -115 0 R D 16434 9094 M -115 0 R D 16434 9358 M -115 0 R D
16434 9886 M -115 0 R D 16434 10150 M -115 0 R D 16434 10414 M -115 0 R D
16434 10942 M -115 0 R D 16434 11206 M -115 0 R D 16434 11470 M -115 0 R D
16434 11998 M -115 0 R D 16434 12262 M -115 0 R D 16434 12526 M -115 0 R D
16434 13054 M -115 0 R D 16434 13318 M -115 0 R D 16434 13582 M -115 0 R D
1.000 0.000 0.706 setrgbcolor 10677 13846 M 38 -78 R 145 -336 R 86 -244 R
35 -112 R 25 -88 R 23 -86 R 23 -93 R 21 -87 R 22 -98 R 22 -102 R 20 -99 R
18 -94 R 17 -88 R 16 -85 R 53 -268 R 29 -138 R 21 -93 R 20 -86 R 19 -81 R
20 -80 R 27 -106 R 25 -93 R 68 -249 R 63 -216 R 45 -154 R 34 -115 R 29 -99 R
40 -145 R 36 -142 R 28 -125 R 25 -128 R 22 -125 R 19 -92 R 19 -71 R 18 -57 R
23 -58 R 31 -66 R 29 -57 R 32 -61 R 19 -36 R 15 -33 R 13 -32 R 14 -31 R
10 -18 R 10 -13 R 11 -10 R 14 -9 R 18 -10 R 26 -11 R 26 -11 R 16 -6 R
13 -5 R 11 -5 R 12 -4 R 9 -3 R 8 -1 R 10 -2 R 13 -1 R 17 -2 R 25 -2 R
25 -2 R 15 -2 R 12 -1 R 12 -1 R 11 -1 R 8 -1 R 9 -1 R 10 0 R 13 -1 R 17 0 R
27 -1 R 21 -1 R 14 0 R 12 -1 R 11 0 R 6 -1 R 6 0 R 5 0 R 7 0 R 9 -1 R 10 0 R
14 0 R 21 -1 R 32 0 R 14 -1 R 13 0 R 11 0 R 8 -1 R 6 0 R 5 0 R 6 0 R 8 0 R
10 0 R 13 -1 R 18 0 R 27 0 R 19 -1 R 14 0 R 12 0 R 11 -1 R 6 0 R 5 0 R 5 0 R
8 0 R 9 0 R 11 -1 R 16 0 R 23 0 R 28 0 R 14 -1 R 12 0 R 11 0 R 8 0 R 7 -1 R
7 0 R 9 0 R 10 0 R 13 0 R 18 -1 R 28 0 R 18 0 R 13 0 R 12 -1 R 10 0 R 10 0 R
9 0 R 8 0 R 10 -1 R 13 0 R 18 0 R 26 0 R 19 -1 R 14 0 R 12 0 R 10 0 R 11 0 R
9 -1 R 9 0 R 10 0 R 13 0 R 19 0 R 28 -1 R 17 0 R 13 0 R 12 0 R 10 -1 R 9 0 R
9 0 R 8 0 R 10 0 R 13 0 R 18 -1 R 28 0 R 17 0 R 14 0 R 11 -1 R 11 0 R 9 0 R
9 0 R 8 0 R 10 -1 R 13 0 R 18 0 R 27 0 R 18 0 R 13 -1 R 12 0 R 10 0 R 10 0 R
8 0 R 9 -1 R 10 0 R 12 0 R 18 0 R 26 0 R 19 -1 R 13 0 R 12 0 R 10 0 R 10 0 R
9 -1 R 8 0 R 9 0 R 13 0 R 17 0 R 26 -1 R 19 0 R 14 0 R 11 0 R 11 0 R 10 -1 R
9 0 R 8 0 R 10 0 R 12 0 R 18 -1 R 26 0 R 18 0 R 14 0 R 11 0 R 11 -1 R 9 0 R
9 0 R 8 0 R 9 0 R 13 -1 R 17 0 R 26 0 R 19 0 R 13 0 R 12 -1 R 10 0 R 11 0 R
8 0 R 8 0 R 10 -1 R 12 0 R 17 0 R 26 0 R 19 0 R 13 -1 R 11 0 R 11 0 R 10 0 R
9 0 R 9 -1 R 10 0 R 12 0 R 19 0 R 27 0 R 16 -1 R 13 0 R 11 0 R 11 0 R 9 0 R
8 -1 R 8 0 R 10 0 R 13 0 R 18 0 R 27 -1 R 16 0 R 13 0 R 11 0 R 11 0 R 8 -1 R
9 0 R 8 0 R 10 0 R 12 0 R 18 0 R 26 -1 R 17 0 R 13 0 R 11 0 R 11 -1 R 9 0 R
8 0 R 8 0 R 10 0 R 12 0 R 17 -1 R 26 0 R 18 0 R 13 0 R 11 0 R 11 -1 R 10 0 R
9 0 R 8 0 R 10 0 R 12 -1 R 18 0 R 28 0 R 15 0 R 13 0 R 11 -1 R 10 0 R 9 0 R
8 0 R 8 0 R 10 -1 R 12 0 R 18 0 R 26 0 R 17 0 R 13 -1 R 11 0 R 10 0 R 9 0 R
8 0 R 8 0 R 10 -1 R 12 0 R 17 0 R 26 0 R 17 0 R 13 -1 R 11 0 R 10 0 R 9 0 R
9 0 R 7 -1 R 10 0 R 12 0 R 16 0 R 25 0 R 19 -1 R 13 0 R 11 0 R 10 0 R 10 0 R
8 -1 R 8 0 R 9 0 R 12 0 R 16 0 R 25 0 R 19 -1 R 13 0 R 11 0 R 10 0 R 10 0 R
8 -1 R 7 0 R 10 0 R 11 0 R 17 0 R 25 -1 R 18 0 R 13 0 R 11 0 R 10 0 R
10 -1 R 8 0 R 8 0 R 9 0 R 11 0 R 17 0 R 24 -1 R 19 0 R 13 0 R 11 0 R 10 0 R
10 -1 R 8 0 R 7 0 R 9 0 R 12 0 R 16 -1 R 24 0 R 19 0 R 13 0 R 11 0 R 10 -1 R
10 0 R 8 0 R 8 0 R 9 0 R 11 0 R 16 -1 R 23 0 R 20 0 R 13 0 R 11 0 R 10 -1 R
10 0 R 8 0 R 7 0 R 9 0 R 11 -1 R 16 0 R 23 0 R 21 0 R 13 0 R 11 -1 R 10 0 R
9 0 R 8 0 R 7 0 R 4 0 R D 0.506 0.000 0.000 setrgbcolor 10677 13846 M
38 -63 R 144 -266 R 86 -193 R 41 -106 R 40 -114 R 25 -78 R 23 -76 R
82 -281 R 72 -244 R 71 -202 R 48 -116 R 40 -88 R 83 -169 R 110 -208 R
143 -258 R 109 -198 R 69 -136 R 56 -125 R 56 -146 R 41 -124 R 36 -108 R
29 -75 R 28 -59 R 34 -57 R 43 -60 R 58 -73 R 86 -101 R 49 -58 R 37 -48 R
31 -44 R 26 -42 R 28 -48 R 20 -30 R 20 -21 R 21 -18 R 26 -18 R 35 -19 R
50 -26 R 67 -33 R 31 -16 R 26 -15 R 22 -14 R 24 -15 R 17 -9 R 17 -6 R
18 -4 R 22 -4 R 29 -5 R 42 -6 R 64 -8 R 30 -4 R 25 -4 R 22 -3 R 20 -3 R
18 -3 R 16 -1 R 17 -2 R 20 -1 R 26 -1 R 37 -2 R 57 -2 R 34 -2 R 27 -1 R
23 -2 R 20 -1 R 21 -2 R 16 0 R 15 -1 R 19 -1 R 23 0 R 33 -1 R 49 -1 R
46 -2 R 28 0 R 23 -1 R 21 -1 R 21 -1 R 15 0 R 15 -1 R 17 0 R 21 -1 R 28 0 R
42 -1 R 63 -1 R 28 -1 R 23 0 R 21 -1 R 21 0 R 16 -1 R 16 0 R 16 -1 R 21 0 R
27 0 R 40 -1 R 60 -1 R 29 0 R 25 -1 R 21 0 R 20 0 R 17 -1 R 16 0 R 16 0 R
19 -1 R 25 0 R 36 -1 R 54 0 R 35 -1 R 26 0 R 22 0 R 21 -1 R 19 0 R 16 -1 R
15 0 R 18 0 R 22 0 R 32 -1 R 46 0 R 49 -1 R 27 0 R 24 0 R 20 -1 R 20 0 R
15 0 R 15 -1 R 17 0 R 20 0 R 28 -1 R 40 0 R 62 -1 R 27 0 R 24 0 R 20 0 R
22 -1 R 16 0 R 15 0 R 16 -1 R 21 0 R 26 0 R 39 -1 R 59 0 R 29 0 R 24 -1 R
21 0 R 20 0 R 17 -1 R 16 0 R 15 0 R 19 0 R 24 -1 R 35 0 R 52 -1 R 36 0 R
27 0 R 22 0 R 20 -1 R 19 0 R 16 0 R 14 -1 R 18 0 R 21 0 R 30 0 R 45 -1 R
52 0 R 27 0 R 23 -1 R 20 0 R 20 0 R 15 -1 R 15 0 R 16 0 R 21 0 R 26 -1 R
40 0 R 60 0 R 28 -1 R 23 0 R 21 0 R 19 -1 R 9 0 R D
1.000 0.349 0.000 setrgbcolor 10677 13846 M 38 -47 R 141 -195 R 59 -98 R
25 -45 R 23 -45 R 22 -45 R 19 -43 R 19 -41 R 16 -40 R 51 -124 R 49 -128 R
32 -80 R 26 -68 R 24 -58 R 21 -50 R 20 -45 R 42 -83 R 38 -68 R 33 -54 R
31 -49 R 31 -45 R 36 -51 R 37 -51 R 40 -54 R 45 -59 R 52 -66 R 154 -194 R
153 -195 R 150 -210 R 60 -96 R 34 -64 R 41 -86 R 48 -111 R 41 -91 R 40 -69 R
38 -53 R 47 -52 R 60 -58 R 78 -67 R 127 -106 R 75 -64 R 50 -47 R 43 -46 R
35 -44 R 37 -49 R 17 -20 R 24 -24 R 25 -20 R 32 -20 R 41 -22 R 57 -27 R
87 -37 R 67 -30 R 43 -20 R 36 -20 R 30 -18 R 29 -20 R 25 -16 R 23 -11 R
23 -9 R 27 -8 R 36 -8 R 51 -10 R 76 -14 R 60 -12 R 39 -7 R 33 -8 R 27 -6 R
27 -7 R 22 -5 R 22 -3 R 21 -3 R 26 -2 R 35 -2 R 49 -4 R 75 -4 R 55 -4 R
37 -2 R 31 -2 R 27 -3 R 26 -2 R 21 -2 R 21 -1 R 21 -1 R 26 -1 R 34 -1 R
50 -2 R 75 -2 R 51 -1 R 37 -2 R 30 -1 R 27 -1 R 27 -1 R 21 -1 R 20 -1 R
22 -1 R 27 0 R 35 -1 R 52 -1 R 80 -1 R 44 -1 R 35 -1 R 30 -1 R 26 -1 R
26 -1 R 20 0 R 19 -1 R 22 0 R 27 -1 R 37 0 R 54 -1 R 84 -1 R 40 -1 R 34 -1 R
28 0 R 26 -1 R 25 -1 R 21 0 R 19 -1 R 24 0 R 30 0 R 41 -1 R 63 -1 R 74 -1 R
38 0 R 31 -1 R 26 0 R 26 -1 R 21 0 R 21 -1 R 20 0 R 25 -1 R 32 0 R 47 -1 R
70 0 R 55 -1 R 37 0 R 30 -1 R 26 0 R 25 -1 R 21 0 R 20 -1 R 18 0 R D
0.000 0.000 0.000 setrgbcolor 3120 1858 M 5757 0 R D 3120 1858 M 0 222 R D
gsave 3120 1224 translate 0 0 M 1.2 dup scale -117.687 0 N
(0) show grestore 3888 1858 M 0 222 R D gsave 3888 1224 translate 0 0 M
1.2 dup scale -117.687 0 N
(2) show grestore 4655 1858 M 0 222 R D gsave 4655 1224 translate 0 0 M
1.2 dup scale -117.687 0 N
(4) show grestore 5423 1858 M 0 222 R D gsave 5423 1224 translate 0 0 M
1.2 dup scale -117.687 0 N
(6) show grestore 6190 1858 M 0 222 R D gsave 6190 1224 translate 0 0 M
1.2 dup scale -117.687 0 N
(8) show grestore 6958 1858 M 0 222 R D gsave 6958 1224 translate 0 0 M
1.2 dup scale -235.373 0 N
(10) show grestore 7726 1858 M 0 222 R D gsave 7726 1224 translate 0 0 M
1.2 dup scale -235.373 0 N
(12) show grestore 8493 1858 M 0 222 R D gsave 8493 1224 translate 0 0 M
1.2 dup scale -235.373 0 N
(14) show grestore 3312 1858 M 0 111 R D 3504 1858 M 0 111 R D 3696 1858 M
0 111 R D 4080 1858 M 0 111 R D 4271 1858 M 0 111 R D 4463 1858 M 0 111 R D
4847 1858 M 0 111 R D 5039 1858 M 0 111 R D 5231 1858 M 0 111 R D
5615 1858 M 0 111 R D 5807 1858 M 0 111 R D 5999 1858 M 0 111 R D
6382 1858 M 0 111 R D 6574 1858 M 0 111 R D 6766 1858 M 0 111 R D
7150 1858 M 0 111 R D 7342 1858 M 0 111 R D 7534 1858 M 0 111 R D
7918 1858 M 0 111 R D 8109 1858 M 0 111 R D 8301 1858 M 0 111 R D
8685 1858 M 0 111 R D 8877 1858 M 0 111 R D 3120 7402 M 5757 0 R D
3120 7402 M 0 -222 R D 3888 7402 M 0 -222 R D 4655 7402 M 0 -222 R D
5423 7402 M 0 -222 R D 6190 7402 M 0 -222 R D 6958 7402 M 0 -222 R D
7726 7402 M 0 -222 R D 8493 7402 M 0 -222 R D 3312 7402 M 0 -111 R D
3504 7402 M 0 -111 R D 3696 7402 M 0 -111 R D 4080 7402 M 0 -111 R D
4271 7402 M 0 -111 R D 4463 7402 M 0 -111 R D 4847 7402 M 0 -111 R D
5039 7402 M 0 -111 R D 5231 7402 M 0 -111 R D 5615 7402 M 0 -111 R D
5807 7402 M 0 -111 R D 5999 7402 M 0 -111 R D 6382 7402 M 0 -111 R D
6574 7402 M 0 -111 R D 6766 7402 M 0 -111 R D 7150 7402 M 0 -111 R D
7342 7402 M 0 -111 R D 7534 7402 M 0 -111 R D 7918 7402 M 0 -111 R D
8109 7402 M 0 -111 R D 8301 7402 M 0 -111 R D 8685 7402 M 0 -111 R D
8877 7402 M 0 -111 R D 3120 1858 M 0 5544 R D 3120 2122 M 230 0 R D
gsave 2987 1953 translate 0 0 M 1.2 dup scale -588.433 0 N
(0.0) show grestore 3120 3178 M 230 0 R D gsave 2987 3009 translate 0 0 M
1.2 dup scale -588.433 0 N
(0.2) show grestore 3120 4234 M 230 0 R D gsave 2987 4065 translate 0 0 M
1.2 dup scale -588.433 0 N
(0.4) show grestore 3120 5290 M 230 0 R D gsave 2987 5121 translate 0 0 M
1.2 dup scale -588.433 0 N
(0.6) show grestore 3120 6346 M 230 0 R D gsave 2987 6177 translate 0 0 M
1.2 dup scale -588.433 0 N
(0.8) show grestore 3120 7402 M 230 0 R D gsave 2987 7106 translate 0 0 M
1.2 dup scale -588.433 0 N
(1.0) show grestore 3120 1858 M 115 0 R D 3120 2386 M 115 0 R D 3120 2650 M
115 0 R D 3120 2914 M 115 0 R D 3120 3442 M 115 0 R D 3120 3706 M 115 0 R D
3120 3970 M 115 0 R D 3120 4498 M 115 0 R D 3120 4762 M 115 0 R D
3120 5026 M 115 0 R D 3120 5554 M 115 0 R D 3120 5818 M 115 0 R D
3120 6082 M 115 0 R D 3120 6610 M 115 0 R D 3120 6874 M 115 0 R D
3120 7138 M 115 0 R D gsave 1881 4630 translate 0 0 M 90 rotate
1.2 dup scale -620.416 0 N
(r\(t\)/R) show X -101.051 M
%%IncludeResource: font Helvetica
262.467 /Helvetica STDFONT
(vir) show grestore
%%IncludeResource: font Helvetica
423.333 /Helvetica STDFONT 8877 1858 M 0 5544 R D 8877 2122 M -230 0 R D
8877 3178 M -230 0 R D 8877 4234 M -230 0 R D 8877 5290 M -230 0 R D
8877 6346 M -230 0 R D 8877 7402 M -230 0 R D 8877 1858 M -115 0 R D
8877 2386 M -115 0 R D 8877 2650 M -115 0 R D 8877 2914 M -115 0 R D
8877 3442 M -115 0 R D 8877 3706 M -115 0 R D 8877 3970 M -115 0 R D
8877 4498 M -115 0 R D 8877 4762 M -115 0 R D 8877 5026 M -115 0 R D
8877 5554 M -115 0 R D 8877 5818 M -115 0 R D 8877 6082 M -115 0 R D
8877 6610 M -115 0 R D 8877 6874 M -115 0 R D 8877 7138 M -115 0 R D
1.000 0.000 0.706 setrgbcolor 3120 7402 M 38 -252 R 145 -1053 R 86 -678 R
35 -276 R 25 -196 R 23 -173 R 23 -169 R 21 -140 R 22 -135 R 22 -116 R
20 -89 R 18 -65 R 17 -43 R 16 -28 R 53 -1 R 29 43 R 21 42 R 20 45 R 19 45 R
20 45 R 27 56 R 25 40 R 68 44 R 63 -73 R 45 -133 R 34 -149 R 29 -160 R
40 -280 R 36 -302 R 28 -253 R 25 -205 R 22 -108 R 19 4 R 19 62 R 18 81 R
23 84 R 31 51 R 29 -34 R 32 -135 R 19 -119 R 15 -118 R 13 -96 R 14 -50 R
10 15 R 10 46 R 11 63 R 14 74 R 18 68 R 26 23 R 26 -73 R 16 -83 R 13 -84 R
11 -68 R 12 -25 R 9 24 R 8 46 R 10 62 R 13 72 R 17 69 R 25 25 R 25 -66 R
15 -82 R 12 -79 R 12 -62 R 11 -16 R 8 28 R 9 48 R 10 64 R 13 71 R 17 66 R
27 13 R 21 -64 R 14 -77 R 12 -77 R 11 -60 R 6 -16 R 6 2 R 5 13 R 7 36 R
9 56 R 10 63 R 14 71 R 21 53 R 32 -45 R 14 -70 R 13 -79 R 11 -66 R 8 -32 R
6 -4 R 5 9 R 6 24 R 8 48 R 10 64 R 13 71 R 18 63 R 27 5 R 19 -63 R 14 -77 R
12 -75 R 11 -58 R 6 -13 R 5 4 R 5 17 R 8 39 R 9 58 R 11 69 R 16 69 R 23 39 R
28 -61 R 14 -74 R 12 -77 R 11 -62 R 8 -22 R 7 8 R 7 29 R 9 49 R 10 64 R
13 71 R 18 61 R 28 -7 R 18 -63 R 13 -77 R 12 -74 R 10 -51 R 10 -10 R 9 32 R
8 48 R 10 63 R 13 70 R 18 63 R 26 2 R 19 -62 R 14 -76 R 12 -74 R 10 -55 R
11 -11 R 9 36 R 9 51 R 10 64 R 13 70 R 19 59 R 28 -15 R 17 -63 R 13 -77 R
12 -72 R 10 -48 R 9 -6 R 9 33 R 8 50 R 10 63 R 13 69 R 18 61 R 28 -6 R
17 -62 R 14 -76 R 11 -73 R 11 -53 R 9 -7 R 9 32 R 8 48 R 10 63 R 13 69 R
18 61 R 27 -2 R 18 -61 R 13 -76 R 12 -72 R 10 -55 R 10 -9 R 8 31 R 9 48 R
9 62 R 13 69 R 18 62 R 26 2 R 19 -61 R 13 -75 R 12 -73 R 10 -55 R 10 -11 R
9 29 R 8 48 R 9 61 R 13 69 R 17 62 R 26 6 R 19 -61 R 14 -74 R 11 -73 R
11 -56 R 10 -12 R 9 30 R 8 48 R 10 62 R 12 68 R 18 62 R 26 2 R 18 -61 R
14 -74 R 11 -73 R 11 -54 R 9 -12 R 9 30 R 8 47 R 9 61 R 13 68 R 17 62 R
26 6 R 19 -60 R 13 -74 R 12 -72 R 10 -56 R 11 -12 R 8 29 R 8 48 R 10 61 R
12 68 R 17 61 R 26 4 R 19 -61 R 13 -73 R 11 -72 R 11 -55 R 10 -10 R 9 34 R
9 50 R 10 62 R 12 68 R 19 57 R 27 -14 R 16 -61 R 13 -75 R 11 -69 R 11 -49 R
9 -4 R 8 33 R 8 48 R 10 62 R 13 68 R 18 58 R 27 -9 R 16 -61 R 13 -74 R
11 -70 R 11 -50 R 8 -6 R 9 31 R 8 47 R 10 61 R 12 67 R 18 60 R 26 -3 R
17 -60 R 13 -73 R 11 -71 R 11 -52 R 9 -9 R 8 29 R 8 47 R 10 60 R 12 67 R
17 60 R 26 3 R 18 -59 R 13 -72 R 11 -71 R 11 -54 R 10 -11 R 9 34 R 8 49 R
10 62 R 12 66 R 18 57 R 28 -13 R 15 -60 R 13 -74 R 11 -68 R 10 -49 R 9 -4 R
8 32 R 8 47 R 10 61 R 12 66 R 18 58 R 26 -7 R 17 -59 R 13 -72 R 11 -70 R
10 -50 R 9 -8 R 8 30 R 8 46 R 10 60 R 12 66 R 17 59 R 26 1 R 17 -59 R
13 -72 R 11 -69 R 10 -53 R 9 -11 R 9 29 R 7 45 R 10 58 R 12 66 R 16 61 R
25 7 R 19 -58 R 13 -71 R 11 -70 R 10 -55 R 10 -12 R 8 27 R 8 45 R 9 58 R
12 66 R 16 60 R 25 8 R 19 -58 R 13 -70 R 11 -70 R 10 -54 R 10 -13 R 8 26 R
7 45 R 10 58 R 11 66 R 17 60 R 25 9 R 18 -58 R 13 -70 R 11 -70 R 10 -54 R
10 -14 R 8 27 R 8 44 R 9 57 R 11 66 R 17 60 R 24 11 R 19 -58 R 13 -69 R
11 -70 R 10 -54 R 10 -15 R 8 26 R 7 43 R 9 57 R 12 65 R 16 61 R 24 13 R
19 -57 R 13 -70 R 11 -69 R 10 -55 R 10 -15 R 8 25 R 8 43 R 9 56 R 11 65 R
16 60 R 23 16 R 20 -57 R 13 -69 R 11 -69 R 10 -55 R 10 -16 R 8 23 R 7 43 R
9 56 R 11 64 R 16 61 R 23 18 R 21 -57 R 13 -68 R 11 -69 R 10 -55 R 9 -18 R
8 23 R 7 42 R 4 24 R D 0.506 0.000 0.000 setrgbcolor 3120 7402 M 38 -252 R
144 -1041 R 86 -665 R 41 -319 R 40 -295 R 25 -172 R 23 -145 R 82 -331 R
72 -1 R 71 210 R 48 190 R 40 158 R 83 285 R 110 203 R 143 -109 R 109 -406 R
69 -412 R 56 -423 R 56 -458 R 41 -269 R 36 -81 R 29 67 R 28 135 R 34 182 R
43 196 R 58 154 R 86 -69 R 49 -206 R 37 -233 R 31 -232 R 26 -193 R 28 -120 R
20 22 R 20 95 R 21 131 R 26 157 R 35 157 R 50 93 R 67 -146 R 31 -170 R
26 -181 R 22 -157 R 24 -100 R 17 19 R 17 84 R 18 117 R 22 144 R 29 151 R
42 114 R 64 -88 R 30 -145 R 25 -166 R 22 -149 R 20 -98 R 18 2 R 16 74 R
17 108 R 20 137 R 26 149 R 37 130 R 57 -12 R 34 -130 R 27 -160 R 23 -157 R
20 -122 R 21 -34 R 16 56 R 15 97 R 19 128 R 23 146 R 33 143 R 49 54 R
46 -122 R 28 -152 R 23 -159 R 21 -133 R 21 -66 R 15 33 R 15 82 R 17 115 R
21 141 R 28 147 R 42 106 R 63 -104 R 28 -141 R 23 -160 R 21 -137 R 21 -83 R
16 23 R 16 80 R 16 113 R 21 138 R 27 146 R 40 115 R 60 -71 R 29 -136 R
25 -159 R 21 -144 R 20 -97 R 17 -1 R 16 71 R 16 104 R 19 132 R 25 147 R
36 130 R 54 -1 R 35 -125 R 26 -154 R 22 -154 R 21 -123 R 19 -38 R 16 51 R
15 93 R 18 123 R 22 143 R 32 142 R 46 67 R 49 -118 R 27 -149 R 24 -156 R
20 -132 R 20 -68 R 15 30 R 15 81 R 17 113 R 20 138 R 28 145 R 40 108 R
62 -93 R 27 -138 R 24 -157 R 20 -138 R 22 -88 R 16 20 R 15 79 R 16 110 R
21 136 R 26 144 R 39 116 R 59 -61 R 29 -133 R 24 -156 R 21 -144 R 20 -101 R
17 -6 R 16 68 R 15 102 R 19 130 R 24 144 R 35 131 R 52 11 R 36 -123 R
27 -151 R 22 -153 R 20 -123 R 19 -45 R 16 45 R 14 89 R 18 119 R 21 141 R
30 142 R 45 79 R 52 -114 R 27 -147 R 23 -154 R 20 -131 R 20 -71 R 15 28 R
15 79 R 16 111 R 21 136 R 26 144 R 40 109 R 60 -83 R 28 -135 R 23 -156 R
21 -138 R 19 -89 R 9 2 R D 1.000 0.349 0.000 setrgbcolor 3120 7402 M
38 -252 R 141 -1014 R 59 -455 R 25 -186 R 23 -178 R 22 -162 R 19 -145 R
19 -125 R 16 -111 R 51 -282 R 49 -171 R 32 -40 R 26 10 R 24 40 R 21 57 R
20 70 R 42 176 R 38 180 R 33 162 R 31 150 R 31 142 R 36 153 R 37 141 R
40 132 R 45 120 R 52 96 R 154 20 R 153 -410 R 150 -856 R 60 -454 R 34 -282 R
41 -318 R 48 -261 R 41 -26 R 40 147 R 38 218 R 47 275 R 60 289 R 78 210 R
127 -97 R 75 -328 R 50 -327 R 43 -332 R 35 -257 R 37 -144 R 17 10 R 24 95 R
25 158 R 32 211 R 41 239 R 57 224 R 87 51 R 67 -205 R 43 -241 R 36 -257 R
30 -228 R 29 -161 R 25 -19 R 23 98 R 23 149 R 27 192 R 36 218 R 51 207 R
76 52 R 60 -179 R 39 -217 R 33 -231 R 27 -201 R 27 -132 R 22 3 R 22 100 R
21 147 R 26 189 R 35 212 R 49 200 R 75 40 R 55 -171 R 37 -211 R 31 -221 R
27 -191 R 26 -117 R 21 12 R 21 102 R 21 148 R 26 188 R 34 210 R 50 195 R
75 26 R 51 -169 R 37 -209 R 30 -218 R 27 -185 R 27 -113 R 21 30 R 20 109 R
22 153 R 27 191 R 35 210 R 52 183 R 80 -26 R 44 -172 R 35 -213 R 30 -214 R
26 -176 R 26 -82 R 20 46 R 19 111 R 22 157 R 27 194 R 37 210 R 54 171 R
84 -78 R 40 -179 R 34 -216 R 28 -207 R 26 -163 R 25 -47 R 21 73 R 19 129 R
24 171 R 30 201 R 41 207 R 63 121 R 74 -156 R 38 -200 R 31 -215 R 26 -192 R
26 -129 R 21 -2 R 21 95 R 20 140 R 25 181 R 32 205 R 47 197 R 70 56 R
55 -163 R 37 -202 R 30 -214 R 26 -186 R 25 -116 R 21 9 R 20 99 R 18 128 R D
0.000 0.000 0.000 setrgbcolor 10677 1858 M 5757 0 R D 10677 1858 M 0 222 R D
gsave 10677 1224 translate 0 0 M 1.2 dup scale -117.687 0 N
(0) show grestore 11445 1858 M 0 222 R D gsave 11445 1224 translate 0 0 M
1.2 dup scale -117.687 0 N
(2) show grestore 12212 1858 M 0 222 R D gsave 12212 1224 translate 0 0 M
1.2 dup scale -117.687 0 N
(4) show grestore 12980 1858 M 0 222 R D gsave 12980 1224 translate 0 0 M
1.2 dup scale -117.687 0 N
(6) show grestore 13747 1858 M 0 222 R D gsave 13747 1224 translate 0 0 M
1.2 dup scale -117.687 0 N
(8) show grestore 14515 1858 M 0 222 R D gsave 14515 1224 translate 0 0 M
1.2 dup scale -235.373 0 N
(10) show grestore 15283 1858 M 0 222 R D gsave 15283 1224 translate 0 0 M
1.2 dup scale -235.373 0 N
(12) show grestore 16050 1858 M 0 222 R D gsave 16050 1224 translate 0 0 M
1.2 dup scale -235.373 0 N
(14) show grestore 10869 1858 M 0 111 R D 11061 1858 M 0 111 R D
11253 1858 M 0 111 R D 11637 1858 M 0 111 R D 11828 1858 M 0 111 R D
12020 1858 M 0 111 R D 12404 1858 M 0 111 R D 12596 1858 M 0 111 R D
12788 1858 M 0 111 R D 13172 1858 M 0 111 R D 13364 1858 M 0 111 R D
13556 1858 M 0 111 R D 13939 1858 M 0 111 R D 14131 1858 M 0 111 R D
14323 1858 M 0 111 R D 14707 1858 M 0 111 R D 14899 1858 M 0 111 R D
15091 1858 M 0 111 R D 15475 1858 M 0 111 R D 15666 1858 M 0 111 R D
15858 1858 M 0 111 R D 16242 1858 M 0 111 R D 16434 1858 M 0 111 R D
10677 7402 M 5757 0 R D 10677 7402 M 0 -222 R D 11445 7402 M 0 -222 R D
12212 7402 M 0 -222 R D 12980 7402 M 0 -222 R D 13747 7402 M 0 -222 R D
14515 7402 M 0 -222 R D 15283 7402 M 0 -222 R D 16050 7402 M 0 -222 R D
10869 7402 M 0 -111 R D 11061 7402 M 0 -111 R D 11253 7402 M 0 -111 R D
11637 7402 M 0 -111 R D 11828 7402 M 0 -111 R D 12020 7402 M 0 -111 R D
12404 7402 M 0 -111 R D 12596 7402 M 0 -111 R D 12788 7402 M 0 -111 R D
13172 7402 M 0 -111 R D 13364 7402 M 0 -111 R D 13556 7402 M 0 -111 R D
13939 7402 M 0 -111 R D 14131 7402 M 0 -111 R D 14323 7402 M 0 -111 R D
14707 7402 M 0 -111 R D 14899 7402 M 0 -111 R D 15091 7402 M 0 -111 R D
15475 7402 M 0 -111 R D 15666 7402 M 0 -111 R D 15858 7402 M 0 -111 R D
16242 7402 M 0 -111 R D 16434 7402 M 0 -111 R D 10677 1858 M 0 5544 R D
10677 1949 M 230 0 R D gsave 10544 1858 translate 0 0 M 1.2 dup scale
-588.433 0 N
(0.0) show grestore 10677 2858 M 230 0 R D gsave 10544 2689 translate 0 0 M
1.2 dup scale -588.433 0 N
(0.5) show grestore 10677 3767 M 230 0 R D gsave 10544 3598 translate 0 0 M
1.2 dup scale -588.433 0 N
(1.0) show grestore 10677 4676 M 230 0 R D gsave 10544 4507 translate 0 0 M
1.2 dup scale -588.433 0 N
(1.5) show grestore 10677 5584 M 230 0 R D gsave 10544 5415 translate 0 0 M
1.2 dup scale -588.433 0 N
(2.0) show grestore 10677 6493 M 230 0 R D gsave 10544 6324 translate 0 0 M
1.2 dup scale -588.433 0 N
(2.5) show grestore 10677 7402 M 230 0 R D gsave 10544 7106 translate 0 0 M
1.2 dup scale -588.433 0 N
(3.0) show grestore 10677 2131 M 115 0 R D 10677 2313 M 115 0 R D
10677 2494 M 115 0 R D 10677 2676 M 115 0 R D 10677 3040 M 115 0 R D
10677 3221 M 115 0 R D 10677 3403 M 115 0 R D 10677 3585 M 115 0 R D
10677 3948 M 115 0 R D 10677 4130 M 115 0 R D 10677 4312 M 115 0 R D
10677 4494 M 115 0 R D 10677 4857 M 115 0 R D 10677 5039 M 115 0 R D
10677 5221 M 115 0 R D 10677 5403 M 115 0 R D 10677 5766 M 115 0 R D
10677 5948 M 115 0 R D 10677 6130 M 115 0 R D 10677 6311 M 115 0 R D
10677 6675 M 115 0 R D 10677 6857 M 115 0 R D 10677 7039 M 115 0 R D
10677 7220 M 115 0 R D gsave 9438 4630 translate 0 0 M 90 rotate
1.2 dup scale -599.863 0 N
(dj\(t\)/dt) show grestore 16434 1858 M 0 5544 R D 16434 1949 M -230 0 R D
16434 2858 M -230 0 R D 16434 3767 M -230 0 R D 16434 4676 M -230 0 R D
16434 5584 M -230 0 R D 16434 6493 M -230 0 R D 16434 7402 M -230 0 R D
16434 2131 M -115 0 R D 16434 2313 M -115 0 R D 16434 2494 M -115 0 R D
16434 2676 M -115 0 R D 16434 3040 M -115 0 R D 16434 3221 M -115 0 R D
16434 3403 M -115 0 R D 16434 3585 M -115 0 R D 16434 3948 M -115 0 R D
16434 4130 M -115 0 R D 16434 4312 M -115 0 R D 16434 4494 M -115 0 R D
16434 4857 M -115 0 R D 16434 5039 M -115 0 R D 16434 5221 M -115 0 R D
16434 5403 M -115 0 R D 16434 5766 M -115 0 R D 16434 5948 M -115 0 R D
16434 6130 M -115 0 R D 16434 6311 M -115 0 R D 16434 6675 M -115 0 R D
16434 6857 M -115 0 R D 16434 7039 M -115 0 R D 16434 7220 M -115 0 R D
1.000 0.000 0.706 setrgbcolor 10677 3767 M 38 105 R 145 500 R 86 439 R
35 247 R 25 217 R 23 217 R 23 214 R 21 203 R 22 247 R 22 242 R 20 171 R
18 117 R 17 63 R 16 -30 R 53 -331 R 29 -238 R 21 -169 R 20 -155 R 19 -121 R
20 -103 R 27 -141 R 25 -94 R 68 -180 R 63 -111 R 45 -17 R 34 44 R 29 84 R
40 234 R 36 422 R 28 532 R 25 438 R 22 -150 R 19 -712 R 19 -827 R 18 -608 R
23 -419 R 31 -274 R 29 -105 R 32 32 R 19 113 R 15 151 R 13 36 R 14 -287 R
10 -416 R 10 -378 R 11 -267 R 14 -180 R 18 -118 R 26 -74 R 26 -19 R 16 7 R
13 10 R 11 -17 R 12 -70 R 9 -76 R 8 -58 R 10 -40 R 13 -24 R 17 -12 R 25 -3 R
25 8 R 15 10 R 12 7 R 12 -2 R 11 -18 R 8 -20 R 9 -15 R 10 -9 R 13 -6 R
17 -4 R 27 0 R 21 3 R 14 5 R 12 6 R 11 3 R 6 -1 R 6 -4 R 5 -5 R 7 -6 R
9 -5 R 10 -4 R 14 -3 R 21 -1 R 32 1 R 14 3 R 13 4 R 11 4 R 8 2 R 6 -1 R
5 -2 R 6 -4 R 8 -3 R 10 -4 R 13 -2 R 18 -2 R 27 0 R 19 2 R 14 2 R 12 4 R
11 4 R 6 1 R 5 -1 R 5 -2 R 8 -3 R 9 -4 R 11 -2 R 16 -2 R 23 -1 R 28 2 R
14 2 R 12 3 R 11 4 R 8 1 R 7 -1 R 7 -2 R 9 -3 R 10 -3 R 13 -2 R 18 -1 R
28 0 R 18 1 R 13 3 R 12 3 R 10 3 R 10 0 R 9 -2 R 8 -3 R 10 -3 R 13 -2 R
18 -1 R 26 0 R 19 1 R 14 3 R 12 3 R 10 3 R 11 1 R 9 -3 R 9 -3 R 10 -2 R
13 -2 R 19 -1 R 28 0 R 17 1 R 13 3 R 12 3 R 10 3 R 9 0 R 9 -2 R 8 -3 R
10 -2 R 13 -2 R 18 -1 R 28 0 R 17 1 R 14 2 R 11 4 R 11 3 R 9 0 R 9 -2 R
8 -3 R 10 -2 R 13 -2 R 18 -1 R 27 0 R 18 1 R 13 2 R 12 3 R 10 3 R 10 1 R
8 -2 R 9 -3 R 10 -2 R 12 -2 R 18 -1 R 26 0 R 19 1 R 13 2 R 12 3 R 10 3 R
10 1 R 9 -2 R 8 -3 R 9 -2 R 13 -2 R 17 -1 R 26 0 R 19 1 R 14 2 R 11 3 R
11 3 R 10 1 R 9 -2 R 8 -3 R 10 -2 R 12 -2 R 18 -1 R 26 0 R 18 1 R 14 2 R
11 3 R 11 3 R 9 1 R 9 -2 R 8 -3 R 9 -2 R 13 -2 R 17 -1 R 26 -1 R 19 2 R
13 2 R 12 3 R 10 3 R 11 1 R 8 -2 R 8 -3 R 10 -2 R 12 -2 R 17 -2 R 26 0 R
19 2 R 13 2 R 11 3 R 11 3 R 10 1 R 9 -3 R 9 -2 R 10 -3 R 12 -2 R 19 -1 R
27 1 R 16 1 R 13 2 R 11 3 R 11 3 R 9 1 R 8 -3 R 8 -2 R 10 -3 R 13 -2 R
18 -1 R 27 1 R 16 1 R 13 2 R 11 3 R 11 3 R 8 1 R 9 -2 R 8 -3 R 10 -3 R
12 -2 R 18 -1 R 26 0 R 17 2 R 13 2 R 11 3 R 11 3 R 9 1 R 8 -2 R 8 -3 R
10 -2 R 12 -2 R 17 -2 R 26 0 R 18 2 R 13 2 R 11 3 R 11 3 R 10 1 R 9 -3 R
8 -2 R 10 -3 R 12 -2 R 18 -1 R 28 1 R 15 1 R 13 2 R 11 3 R 10 3 R 9 1 R
8 -3 R 8 -2 R 10 -3 R 12 -2 R 18 -1 R 26 0 R 17 2 R 13 2 R 11 3 R 10 3 R
9 1 R 8 -2 R 8 -3 R 10 -3 R 12 -1 R 17 -2 R 26 0 R 17 2 R 13 2 R 11 3 R
10 3 R 9 1 R 9 -2 R 7 -3 R 10 -2 R 12 -2 R 16 -2 R 25 0 R 19 1 R 13 3 R
11 3 R 10 3 R 10 1 R 8 -2 R 8 -3 R 9 -2 R 12 -2 R 16 -1 R 25 -1 R 19 2 R
13 2 R 11 3 R 10 3 R 10 1 R 8 -2 R 7 -3 R 10 -2 R 11 -2 R 17 -1 R 25 -1 R
18 2 R 13 2 R 11 3 R 10 3 R 10 1 R 8 -2 R 8 -3 R 9 -2 R 11 -2 R 17 -1 R
24 -1 R 19 2 R 13 2 R 11 3 R 10 3 R 10 1 R 8 -2 R 7 -2 R 9 -3 R 12 -2 R
16 -1 R 24 -1 R 19 2 R 13 2 R 11 3 R 10 3 R 10 1 R 8 -2 R 8 -2 R 9 -3 R
11 -2 R 16 -1 R 23 -1 R 20 2 R 13 2 R 11 3 R 10 3 R 10 1 R 8 -1 R 7 -3 R
9 -3 R 11 -2 R 16 -1 R 23 -1 R 21 2 R 13 1 R 11 4 R 10 3 R 9 1 R 8 -1 R
7 -3 R 4 -2 R D 0.506 0.000 0.000 setrgbcolor 10677 3767 M 38 105 R
144 493 R 86 404 R 41 289 R 40 332 R 25 190 R 23 136 R 82 126 R 72 -353 R
71 -560 R 48 -322 R 40 -185 R 83 -221 R 110 -135 R 143 -40 R 109 120 R
69 215 R 56 341 R 56 517 R 41 226 R 36 -290 R 29 -551 R 28 -498 R 34 -372 R
43 -245 R 58 -144 R 86 -41 R 49 67 R 37 142 R 31 199 R 26 144 R 28 -122 R
20 -331 R 20 -340 R 21 -237 R 26 -157 R 35 -97 R 50 -50 R 67 12 R 31 43 R
26 64 R 22 32 R 24 -81 R 17 -149 R 17 -140 R 18 -92 R 22 -58 R 29 -34 R
42 -17 R 64 0 R 30 9 R 25 14 R 22 6 R 20 -16 R 18 -34 R 16 -35 R 17 -20 R
20 -13 R 26 -7 R 37 -5 R 57 0 R 34 5 R 27 9 R 23 10 R 20 3 R 21 -12 R
16 -14 R 15 -9 R 19 -7 R 23 -5 R 33 -3 R 49 -1 R 46 2 R 28 4 R 23 7 R 21 6 R
21 -2 R 15 -7 R 15 -6 R 17 -5 R 21 -4 R 28 -2 R 42 -1 R 63 1 R 28 2 R 23 5 R
21 5 R 21 1 R 16 -4 R 16 -4 R 16 -4 R 21 -3 R 27 -2 R 40 -1 R 60 0 R 29 2 R
25 3 R 21 5 R 20 3 R 17 -2 R 16 -4 R 16 -3 R 19 -3 R 25 -2 R 36 -1 R 54 0 R
35 1 R 26 2 R 22 4 R 21 3 R 19 1 R 16 -3 R 15 -3 R 18 -3 R 22 -2 R 32 -1 R
46 -1 R 49 1 R 27 2 R 24 3 R 20 3 R 20 2 R 15 -1 R 15 -3 R 17 -3 R 20 -2 R
28 -2 R 40 -1 R 62 1 R 27 2 R 24 2 R 20 3 R 22 3 R 16 -1 R 15 -3 R 16 -2 R
21 -3 R 26 -1 R 39 -1 R 59 0 R 29 2 R 24 2 R 21 3 R 20 3 R 17 0 R 16 -3 R
15 -2 R 19 -3 R 24 -1 R 35 -1 R 52 0 R 36 1 R 27 1 R 22 3 R 20 3 R 19 1 R
16 -1 R 14 -3 R 18 -2 R 21 -2 R 30 -1 R 45 -1 R 52 1 R 27 1 R 23 3 R 20 3 R
20 2 R 15 -1 R 15 -2 R 16 -3 R 21 -2 R 26 -1 R 40 -1 R 60 1 R 28 1 R 23 2 R
21 3 R 19 2 R 9 0 R D 1.000 0.349 0.000 setrgbcolor 10677 3767 M 38 104 R
141 494 R 59 313 R 25 161 R 23 166 R 22 173 R 19 162 R 19 131 R 16 108 R
51 224 R 49 59 R 32 11 R 26 -80 R 24 -209 R 21 -195 R 20 -183 R 42 -369 R
38 -272 R 33 -175 R 31 -125 R 31 -98 R 36 -84 R 37 -62 R 40 -52 R 45 -41 R
52 -28 R 154 -19 R 153 102 R 150 345 R 60 336 R 34 296 R 41 344 R 48 87 R
41 -424 R 40 -627 R 38 -466 R 47 -322 R 60 -202 R 78 -103 R 127 -10 R
75 92 R 50 166 R 43 249 R 35 184 R 37 -72 R 17 -191 R 24 -342 R 25 -278 R
32 -201 R 41 -129 R 57 -74 R 87 -23 R 67 35 R 43 70 R 36 111 R 30 112 R
29 10 R 25 -149 R 23 -208 R 23 -148 R 27 -101 R 36 -64 R 51 -37 R 76 -15 R
60 12 R 39 26 R 33 37 R 27 25 R 27 -28 R 22 -76 R 22 -79 R 21 -50 R 26 -30 R
35 -18 R 49 -9 R 75 -1 R 55 6 R 37 12 R 31 15 R 27 10 R 26 -8 R 21 -25 R
21 -23 R 21 -16 R 26 -9 R 34 -7 R 50 -4 R 75 -1 R 51 3 R 37 6 R 30 11 R
27 9 R 27 -1 R 21 -11 R 20 -11 R 22 -8 R 27 -6 R 35 -5 R 52 -2 R 80 0 R
44 3 R 35 4 R 30 8 R 26 7 R 26 0 R 20 -7 R 19 -6 R 22 -6 R 27 -5 R 37 -3 R
54 -1 R 84 0 R 40 2 R 34 4 R 28 7 R 26 6 R 25 -1 R 21 -5 R 19 -5 R 24 -5 R
30 -4 R 41 -2 R 63 -1 R 74 1 R 38 3 R 31 4 R 26 6 R 26 4 R 21 -1 R 21 -5 R
20 -5 R 25 -4 R 32 -2 R 47 -2 R 70 -1 R 55 2 R 37 2 R 30 4 R 26 6 R 25 3 R
21 -1 R 20 -4 R 18 -5 R D
%%PageTrailer
end
%%PageResources: font Helvetica
%%Trailer
%%Pages: 1
%%DocumentNeededResources: font Helvetica
%%EOF
