%!PS-Adobe-3.0 EPSF-3.0
%%BoundingBox: 0 0 453 311
%%Title: Graphics produced by IDL
%%For: jlgan@Hserver, /home/jlgan/work/phoenix
%%Creator: IDL Version 7.1.1 (linux x86_64 m64)
%%CreationDate: Wed Sep 24 23:41:01 2014
%%DocumentData: Clean7bit
%%Requirements: color
%%LanguageLevel: 1
%%PageOrder: Ascend
%%Pages: (atend)
%%DocumentNeededResources: (atend)
%%EndComments
%%BeginProlog
%+ prolog.ps -- Prolog for IDL generated PostScript files
%+ Copyright (c) 1988-2009 ITT Visual Information Solutions. All Rights Reserved.
%v 5
/$IDL_DICT 40 dict def $IDL_DICT begin /bdef { bind def } bind def /C
{currentpoint newpath moveto} bdef /CP {currentpoint} bdef /D {currentpoint
stroke moveto} bdef /F {closepath fill} bdef /K { setgray } bdef /M {moveto}
bdef /N {rmoveto} bdef /P {lineto} bdef /R {rlineto} bdef /S {gsave show
grestore} bdef /X {currentpoint pop} bdef /Z {gsave currentpoint lineto 20
setlinewidth 1 setlinecap stroke grestore} bdef /L0 {[] 0 setdash} bdef /L1
{[40 100] 0 setdash} bdef /L2 {[200 200] 0 setdash} bdef /L3 {[200 100 50
100] 0 setdash} bdef /L4 {[300 100 50 100 50 100 50 100] 0 setdash} bdef /L5
{[400 200] 0 setdash} bdef /STDFONT { findfont exch scalefont setfont } bdef
/ISOFONT { findfont dup length dict begin { 1 index /FID ne {def} {pop pop}
ifelse } forall /Encoding ISOLatin1Encoding def currentdict end /idltmpfont
exch definefont exch scalefont setfont } bdef /ISOBULLET { gsave /Helvetica
findfont exch scalefont setfont (\267) show currentpoint grestore moveto}
bdef /MITERLIMIT { 2.5 setmiterlimit } bdef end
%%EndProlog
%%Page: 0 1
%%PageRequirements: color
%%PageResources: (atend)
%%PageOrientation: Portrait
%%PageBoundingBox: 0 0 453 311
%%BeginPageSetup
$IDL_DICT begin 0.0283465 dup scale MITERLIMIT
%%IncludeResource: font Helvetica
423.333 /Helvetica STDFONT
%%EndPageSetup
0.000 0.000 0.000 setrgbcolor gsave 8777 352 translate 0 0 M -576.368 0 N
(t / Gyr) show grestore gsave 888 5852 translate 0 0 M 90 rotate
-220.019 0 N
(M) show X -101.051 M
%%IncludeResource: font Helvetica
262.467 /Helvetica STDFONT
(r) show grestore
%%IncludeResource: font Helvetica
423.333 /Helvetica STDFONT 30 setlinewidth L0 2220 7333 M 4371 0 R D
2938 7333 M 0 89 R D gsave 2938 6805 translate 0 0 M -58.8433 0 N
( ) show grestore 3736 7333 M 0 89 R D gsave 3736 6805 translate 0 0 M
-58.8433 0 N
( ) show grestore 4534 7333 M 0 89 R D gsave 4534 6805 translate 0 0 M
-58.8433 0 N
( ) show grestore 5332 7333 M 0 89 R D gsave 5332 6805 translate 0 0 M
-58.8433 0 N
( ) show grestore 6129 7333 M 0 89 R D gsave 6129 6805 translate 0 0 M
-58.8433 0 N
( ) show grestore 2220 7333 M 0 45 R D 2300 7333 M 0 45 R D 2380 7333 M
0 45 R D 2459 7333 M 0 45 R D 2539 7333 M 0 45 R D 2619 7333 M 0 45 R D
2699 7333 M 0 45 R D 2779 7333 M 0 45 R D 2858 7333 M 0 45 R D 3018 7333 M
0 45 R D 3098 7333 M 0 45 R D 3177 7333 M 0 45 R D 3257 7333 M 0 45 R D
3337 7333 M 0 45 R D 3417 7333 M 0 45 R D 3497 7333 M 0 45 R D 3576 7333 M
0 45 R D 3656 7333 M 0 45 R D 3816 7333 M 0 45 R D 3896 7333 M 0 45 R D
3975 7333 M 0 45 R D 4055 7333 M 0 45 R D 4135 7333 M 0 45 R D 4215 7333 M
0 45 R D 4294 7333 M 0 45 R D 4374 7333 M 0 45 R D 4454 7333 M 0 45 R D
4614 7333 M 0 45 R D 4693 7333 M 0 45 R D 4773 7333 M 0 45 R D 4853 7333 M
0 45 R D 4933 7333 M 0 45 R D 5012 7333 M 0 45 R D 5092 7333 M 0 45 R D
5172 7333 M 0 45 R D 5252 7333 M 0 45 R D 5411 7333 M 0 45 R D 5491 7333 M
0 45 R D 5571 7333 M 0 45 R D 5651 7333 M 0 45 R D 5731 7333 M 0 45 R D
5810 7333 M 0 45 R D 5890 7333 M 0 45 R D 5970 7333 M 0 45 R D 6050 7333 M
0 45 R D 6209 7333 M 0 45 R D 6289 7333 M 0 45 R D 6369 7333 M 0 45 R D
6449 7333 M 0 45 R D 6528 7333 M 0 45 R D 2220 10296 M 4371 0 R D
2938 10296 M 0 -89 R D 3736 10296 M 0 -89 R D 4534 10296 M 0 -89 R D
5332 10296 M 0 -89 R D 6129 10296 M 0 -89 R D 2220 10296 M 0 -44 R D
2300 10296 M 0 -44 R D 2380 10296 M 0 -44 R D 2459 10296 M 0 -44 R D
2539 10296 M 0 -44 R D 2619 10296 M 0 -44 R D 2699 10296 M 0 -44 R D
2779 10296 M 0 -44 R D 2858 10296 M 0 -44 R D 3018 10296 M 0 -44 R D
3098 10296 M 0 -44 R D 3177 10296 M 0 -44 R D 3257 10296 M 0 -44 R D
3337 10296 M 0 -44 R D 3417 10296 M 0 -44 R D 3497 10296 M 0 -44 R D
3576 10296 M 0 -44 R D 3656 10296 M 0 -44 R D 3816 10296 M 0 -44 R D
3896 10296 M 0 -44 R D 3975 10296 M 0 -44 R D 4055 10296 M 0 -44 R D
4135 10296 M 0 -44 R D 4215 10296 M 0 -44 R D 4294 10296 M 0 -44 R D
4374 10296 M 0 -44 R D 4454 10296 M 0 -44 R D 4614 10296 M 0 -44 R D
4693 10296 M 0 -44 R D 4773 10296 M 0 -44 R D 4853 10296 M 0 -44 R D
4933 10296 M 0 -44 R D 5012 10296 M 0 -44 R D 5092 10296 M 0 -44 R D
5172 10296 M 0 -44 R D 5252 10296 M 0 -44 R D 5411 10296 M 0 -44 R D
5491 10296 M 0 -44 R D 5571 10296 M 0 -44 R D 5651 10296 M 0 -44 R D
5731 10296 M 0 -44 R D 5810 10296 M 0 -44 R D 5890 10296 M 0 -44 R D
5970 10296 M 0 -44 R D 6050 10296 M 0 -44 R D 6209 10296 M 0 -44 R D
6289 10296 M 0 -44 R D 6369 10296 M 0 -44 R D 6449 10296 M 0 -44 R D
6528 10296 M 0 -44 R D 2220 7333 M 0 2963 R D 2220 8126 M 131 0 R D
gsave 2109 7985 translate 0 0 M -611.717 0 N
(-26) show grestore 2220 8961 M 131 0 R D gsave 2109 8820 translate 0 0 M
-611.717 0 N
(-24) show grestore 2220 9795 M 131 0 R D gsave 2109 9655 translate 0 0 M
-611.717 0 N
(-22) show grestore 2220 7500 M 66 0 R D 2220 7709 M 66 0 R D 2220 7918 M
66 0 R D 2220 8335 M 66 0 R D 2220 8543 M 66 0 R D 2220 8752 M 66 0 R D
2220 9169 M 66 0 R D 2220 9378 M 66 0 R D 2220 9587 M 66 0 R D 2220 10004 M
66 0 R D 2220 10213 M 66 0 R D 6591 7333 M 0 2963 R D 6591 8126 M -131 0 R D
6591 8961 M -131 0 R D 6591 9795 M -131 0 R D 6591 7500 M -65 0 R D
6591 7709 M -65 0 R D 6591 7918 M -65 0 R D 6591 8335 M -65 0 R D
6591 8543 M -65 0 R D 6591 8752 M -65 0 R D 6591 9169 M -65 0 R D
6591 9378 M -65 0 R D 6591 9587 M -65 0 R D 6591 10004 M -65 0 R D
6591 10213 M -65 0 R D 0.761 0.000 0.000 setrgbcolor 2220 9428 M 102 -1 R
300 -2 R 300 -2 R 298 -6 R 296 -7 R 292 -15 R 288 -17 R 283 -3 R 277 -7 R
270 -3 R 264 -10 R 255 -5 R 248 -7 R 239 -9 R 229 -12 R 220 -7 R 210 -1159 R
D 0.000 0.549 0.000 setrgbcolor 2220 9647 M 102 -21 R 300 -7 R 300 -3 R
298 -3 R 296 -3 R 292 -2 R 288 -30 R 283 -2 R 277 -3 R 270 -3 R 264 -4 R
255 -4 R 248 -4 R 239 -27 R 229 -5 R 220 -8 R 210 -224 R D
0.000 0.000 1.000 setrgbcolor 2220 8342 M 102 -6 R 300 -14 R 300 -10 R
298 -39 R 296 -17 R 292 -9 R 288 -4 R 283 -11 R 277 -9 R 270 -9 R 264 -13 R
255 -12 R 248 -11 R 239 -7 R 229 -4 R 220 -6 R 210 1336 R D
0.000 0.000 0.000 setrgbcolor 6591 7333 M 4372 0 R D 7309 7333 M 0 89 R D
gsave 7309 6805 translate 0 0 M -58.8433 0 N
( ) show grestore 8107 7333 M 0 89 R D gsave 8107 6805 translate 0 0 M
-58.8433 0 N
( ) show grestore 8905 7333 M 0 89 R D gsave 8905 6805 translate 0 0 M
-58.8433 0 N
( ) show grestore 9703 7333 M 0 89 R D gsave 9703 6805 translate 0 0 M
-58.8433 0 N
( ) show grestore 10501 7333 M 0 89 R D gsave 10501 6805 translate 0 0 M
-58.8433 0 N
( ) show grestore 6591 7333 M 0 45 R D 6671 7333 M 0 45 R D 6751 7333 M
0 45 R D 6831 7333 M 0 45 R D 6911 7333 M 0 45 R D 6990 7333 M 0 45 R D
7070 7333 M 0 45 R D 7150 7333 M 0 45 R D 7230 7333 M 0 45 R D 7389 7333 M
0 45 R D 7469 7333 M 0 45 R D 7549 7333 M 0 45 R D 7629 7333 M 0 45 R D
7708 7333 M 0 45 R D 7788 7333 M 0 45 R D 7868 7333 M 0 45 R D 7948 7333 M
0 45 R D 8028 7333 M 0 45 R D 8187 7333 M 0 45 R D 8267 7333 M 0 45 R D
8347 7333 M 0 45 R D 8426 7333 M 0 45 R D 8506 7333 M 0 45 R D 8586 7333 M
0 45 R D 8666 7333 M 0 45 R D 8746 7333 M 0 45 R D 8825 7333 M 0 45 R D
8985 7333 M 0 45 R D 9065 7333 M 0 45 R D 9144 7333 M 0 45 R D 9224 7333 M
0 45 R D 9304 7333 M 0 45 R D 9384 7333 M 0 45 R D 9464 7333 M 0 45 R D
9543 7333 M 0 45 R D 9623 7333 M 0 45 R D 9783 7333 M 0 45 R D 9863 7333 M
0 45 R D 9942 7333 M 0 45 R D 10022 7333 M 0 45 R D 10102 7333 M 0 45 R D
10182 7333 M 0 45 R D 10261 7333 M 0 45 R D 10341 7333 M 0 45 R D
10421 7333 M 0 45 R D 10581 7333 M 0 45 R D 10660 7333 M 0 45 R D
10740 7333 M 0 45 R D 10820 7333 M 0 45 R D 10900 7333 M 0 45 R D
6591 10296 M 4372 0 R D 7309 10296 M 0 -89 R D 8107 10296 M 0 -89 R D
8905 10296 M 0 -89 R D 9703 10296 M 0 -89 R D 10501 10296 M 0 -89 R D
6591 10296 M 0 -44 R D 6671 10296 M 0 -44 R D 6751 10296 M 0 -44 R D
6831 10296 M 0 -44 R D 6911 10296 M 0 -44 R D 6990 10296 M 0 -44 R D
7070 10296 M 0 -44 R D 7150 10296 M 0 -44 R D 7230 10296 M 0 -44 R D
7389 10296 M 0 -44 R D 7469 10296 M 0 -44 R D 7549 10296 M 0 -44 R D
7629 10296 M 0 -44 R D 7708 10296 M 0 -44 R D 7788 10296 M 0 -44 R D
7868 10296 M 0 -44 R D 7948 10296 M 0 -44 R D 8028 10296 M 0 -44 R D
8187 10296 M 0 -44 R D 8267 10296 M 0 -44 R D 8347 10296 M 0 -44 R D
8426 10296 M 0 -44 R D 8506 10296 M 0 -44 R D 8586 10296 M 0 -44 R D
8666 10296 M 0 -44 R D 8746 10296 M 0 -44 R D 8825 10296 M 0 -44 R D
8985 10296 M 0 -44 R D 9065 10296 M 0 -44 R D 9144 10296 M 0 -44 R D
9224 10296 M 0 -44 R D 9304 10296 M 0 -44 R D 9384 10296 M 0 -44 R D
9464 10296 M 0 -44 R D 9543 10296 M 0 -44 R D 9623 10296 M 0 -44 R D
9783 10296 M 0 -44 R D 9863 10296 M 0 -44 R D 9942 10296 M 0 -44 R D
10022 10296 M 0 -44 R D 10102 10296 M 0 -44 R D 10182 10296 M 0 -44 R D
10261 10296 M 0 -44 R D 10341 10296 M 0 -44 R D 10421 10296 M 0 -44 R D
10581 10296 M 0 -44 R D 10660 10296 M 0 -44 R D 10740 10296 M 0 -44 R D
10820 10296 M 0 -44 R D 10900 10296 M 0 -44 R D 6591 7333 M 0 2963 R D
6591 8126 M 132 0 R D gsave 6480 7985 translate 0 0 M -117.687 0 N
( ) show grestore 6591 8961 M 132 0 R D gsave 6480 8820 translate 0 0 M
-117.687 0 N
( ) show grestore 6591 9795 M 132 0 R D gsave 6480 9655 translate 0 0 M
-117.687 0 N
( ) show grestore 6591 7500 M 66 0 R D 6591 7709 M 66 0 R D 6591 7918 M
66 0 R D 6591 8335 M 66 0 R D 6591 8543 M 66 0 R D 6591 8752 M 66 0 R D
6591 9169 M 66 0 R D 6591 9378 M 66 0 R D 6591 9587 M 66 0 R D 6591 10004 M
66 0 R D 6591 10213 M 66 0 R D 10963 7333 M 0 2963 R D 10963 8126 M -131 0 R
D 10963 8961 M -131 0 R D 10963 9795 M -131 0 R D 10963 7500 M -66 0 R D
10963 7709 M -66 0 R D 10963 7918 M -66 0 R D 10963 8335 M -66 0 R D
10963 8543 M -66 0 R D 10963 8752 M -66 0 R D 10963 9169 M -66 0 R D
10963 9378 M -66 0 R D 10963 9587 M -66 0 R D 10963 10004 M -66 0 R D
10963 10213 M -66 0 R D 0.761 0.000 0.000 setrgbcolor 6591 8696 M 102 -1 R
301 -20 R 300 -6 R 298 -15 R 295 -59 R 292 -6 R 288 -16 R 283 -50 R
277 -11 R 271 -37 R 263 -6 R 256 -10 R 247 -33 R 239 -3 R 230 -6 R 220 -11 R
209 -278 R D 0.000 0.549 0.000 setrgbcolor 6591 9237 M 102 0 R 301 -11 R
300 -100 R 298 -12 R 295 -29 R 292 -4 R 288 -5 R 283 -2 R 277 -25 R 271 -6 R
263 -13 R 256 -3 R 247 -8 R 239 -3 R 230 -29 R 220 -3 R 209 -8 R D
0.000 0.000 1.000 setrgbcolor 6591 9376 M 102 0 R 301 -2 R 300 -2 R 298 -2 R
295 -3 R 292 -2 R 288 -3 R 283 -2 R 277 -3 R 271 -4 R 263 -3 R 256 -5 R
247 -5 R 239 -6 R 230 -7 R 220 -9 R 209 -26 R D
0.000 0.000 0.000 setrgbcolor 10963 7333 M 4371 0 R D 11681 7333 M 0 89 R D
gsave 11681 6805 translate 0 0 M -58.8433 0 N
( ) show grestore 12479 7333 M 0 89 R D gsave 12479 6805 translate 0 0 M
-58.8433 0 N
( ) show grestore 13276 7333 M 0 89 R D gsave 13276 6805 translate 0 0 M
-58.8433 0 N
( ) show grestore 14074 7333 M 0 89 R D gsave 14074 6805 translate 0 0 M
-58.8433 0 N
( ) show grestore 14872 7333 M 0 89 R D gsave 14872 6805 translate 0 0 M
-58.8433 0 N
( ) show grestore 10963 7333 M 0 45 R D 11043 7333 M 0 45 R D 11122 7333 M
0 45 R D 11202 7333 M 0 45 R D 11282 7333 M 0 45 R D 11362 7333 M 0 45 R D
11441 7333 M 0 45 R D 11521 7333 M 0 45 R D 11601 7333 M 0 45 R D
11761 7333 M 0 45 R D 11840 7333 M 0 45 R D 11920 7333 M 0 45 R D
12000 7333 M 0 45 R D 12080 7333 M 0 45 R D 12159 7333 M 0 45 R D
12239 7333 M 0 45 R D 12319 7333 M 0 45 R D 12399 7333 M 0 45 R D
12558 7333 M 0 45 R D 12638 7333 M 0 45 R D 12718 7333 M 0 45 R D
12798 7333 M 0 45 R D 12878 7333 M 0 45 R D 12957 7333 M 0 45 R D
13037 7333 M 0 45 R D 13117 7333 M 0 45 R D 13197 7333 M 0 45 R D
13356 7333 M 0 45 R D 13436 7333 M 0 45 R D 13516 7333 M 0 45 R D
13596 7333 M 0 45 R D 13675 7333 M 0 45 R D 13755 7333 M 0 45 R D
13835 7333 M 0 45 R D 13915 7333 M 0 45 R D 13995 7333 M 0 45 R D
14154 7333 M 0 45 R D 14234 7333 M 0 45 R D 14314 7333 M 0 45 R D
14393 7333 M 0 45 R D 14473 7333 M 0 45 R D 14553 7333 M 0 45 R D
14633 7333 M 0 45 R D 14713 7333 M 0 45 R D 14792 7333 M 0 45 R D
14952 7333 M 0 45 R D 15032 7333 M 0 45 R D 15111 7333 M 0 45 R D
15191 7333 M 0 45 R D 15271 7333 M 0 45 R D 10963 10296 M 4371 0 R D
11681 10296 M 0 -89 R D 12479 10296 M 0 -89 R D 13276 10296 M 0 -89 R D
14074 10296 M 0 -89 R D 14872 10296 M 0 -89 R D 10963 10296 M 0 -44 R D
11043 10296 M 0 -44 R D 11122 10296 M 0 -44 R D 11202 10296 M 0 -44 R D
11282 10296 M 0 -44 R D 11362 10296 M 0 -44 R D 11441 10296 M 0 -44 R D
11521 10296 M 0 -44 R D 11601 10296 M 0 -44 R D 11761 10296 M 0 -44 R D
11840 10296 M 0 -44 R D 11920 10296 M 0 -44 R D 12000 10296 M 0 -44 R D
12080 10296 M 0 -44 R D 12159 10296 M 0 -44 R D 12239 10296 M 0 -44 R D
12319 10296 M 0 -44 R D 12399 10296 M 0 -44 R D 12558 10296 M 0 -44 R D
12638 10296 M 0 -44 R D 12718 10296 M 0 -44 R D 12798 10296 M 0 -44 R D
12878 10296 M 0 -44 R D 12957 10296 M 0 -44 R D 13037 10296 M 0 -44 R D
13117 10296 M 0 -44 R D 13197 10296 M 0 -44 R D 13356 10296 M 0 -44 R D
13436 10296 M 0 -44 R D 13516 10296 M 0 -44 R D 13596 10296 M 0 -44 R D
13675 10296 M 0 -44 R D 13755 10296 M 0 -44 R D 13835 10296 M 0 -44 R D
13915 10296 M 0 -44 R D 13995 10296 M 0 -44 R D 14154 10296 M 0 -44 R D
14234 10296 M 0 -44 R D 14314 10296 M 0 -44 R D 14393 10296 M 0 -44 R D
14473 10296 M 0 -44 R D 14553 10296 M 0 -44 R D 14633 10296 M 0 -44 R D
14713 10296 M 0 -44 R D 14792 10296 M 0 -44 R D 14952 10296 M 0 -44 R D
15032 10296 M 0 -44 R D 15111 10296 M 0 -44 R D 15191 10296 M 0 -44 R D
15271 10296 M 0 -44 R D 10963 7333 M 0 2963 R D 10963 8126 M 131 0 R D
gsave 10852 7985 translate 0 0 M -117.687 0 N
( ) show grestore 10963 8961 M 131 0 R D gsave 10852 8820 translate 0 0 M
-117.687 0 N
( ) show grestore 10963 9795 M 131 0 R D gsave 10852 9655 translate 0 0 M
-117.687 0 N
( ) show grestore 10963 7500 M 65 0 R D 10963 7709 M 65 0 R D 10963 7918 M
65 0 R D 10963 8335 M 65 0 R D 10963 8543 M 65 0 R D 10963 8752 M 65 0 R D
10963 9169 M 65 0 R D 10963 9378 M 65 0 R D 10963 9587 M 65 0 R D
10963 10004 M 65 0 R D 10963 10213 M 65 0 R D 15334 7333 M 0 2963 R D
15334 8126 M -131 0 R D 15334 8961 M -131 0 R D 15334 9795 M -131 0 R D
15334 7500 M -65 0 R D 15334 7709 M -65 0 R D 15334 7918 M -65 0 R D
15334 8335 M -65 0 R D 15334 8543 M -65 0 R D 15334 8752 M -65 0 R D
15334 9169 M -65 0 R D 15334 9378 M -65 0 R D 15334 9587 M -65 0 R D
15334 10004 M -65 0 R D 15334 10213 M -65 0 R D
0.761 0.000 0.000 setrgbcolor 10962 9470 M 103 -1 R 300 -2 R 300 -28 R
298 -4 R 296 -2 R 292 -3 R 288 -14 R 282 -4 R 277 -3 R 271 -15 R 263 -16 R
256 -5 R 248 -6 R 238 -7 R 230 -7 R 220 -14 R 210 -952 R D
0.000 0.549 0.000 setrgbcolor 10962 9242 M 103 -1 R 300 -20 R 300 -43 R
298 -3 R 296 -3 R 292 -3 R 288 -17 R 282 -8 R 277 -4 R 271 -7 R 263 -82 R
256 -5 R 248 -19 R 238 -10 R 230 -7 R 220 -10 R 210 -11 R D
0.000 0.000 1.000 setrgbcolor 10962 8680 M 103 -111 R 300 -35 R 300 -16 R
298 -12 R 296 -21 R 292 -16 R 288 -8 R 282 -26 R 277 -6 R 271 -4 R 263 -2 R
256 -6 R 248 -8 R 238 -4 R 230 -6 R 220 -5 R 210 917 R D
0.000 0.000 0.000 setrgbcolor 2220 4371 M 4371 0 R D 2938 4371 M 0 89 R D
gsave 2938 3843 translate 0 0 M -58.8433 0 N
( ) show grestore 3736 4371 M 0 89 R D gsave 3736 3843 translate 0 0 M
-58.8433 0 N
( ) show grestore 4534 4371 M 0 89 R D gsave 4534 3843 translate 0 0 M
-58.8433 0 N
( ) show grestore 5332 4371 M 0 89 R D gsave 5332 3843 translate 0 0 M
-58.8433 0 N
( ) show grestore 6129 4371 M 0 89 R D gsave 6129 3843 translate 0 0 M
-58.8433 0 N
( ) show grestore 2220 4371 M 0 44 R D 2300 4371 M 0 44 R D 2380 4371 M
0 44 R D 2459 4371 M 0 44 R D 2539 4371 M 0 44 R D 2619 4371 M 0 44 R D
2699 4371 M 0 44 R D 2779 4371 M 0 44 R D 2858 4371 M 0 44 R D 3018 4371 M
0 44 R D 3098 4371 M 0 44 R D 3177 4371 M 0 44 R D 3257 4371 M 0 44 R D
3337 4371 M 0 44 R D 3417 4371 M 0 44 R D 3497 4371 M 0 44 R D 3576 4371 M
0 44 R D 3656 4371 M 0 44 R D 3816 4371 M 0 44 R D 3896 4371 M 0 44 R D
3975 4371 M 0 44 R D 4055 4371 M 0 44 R D 4135 4371 M 0 44 R D 4215 4371 M
0 44 R D 4294 4371 M 0 44 R D 4374 4371 M 0 44 R D 4454 4371 M 0 44 R D
4614 4371 M 0 44 R D 4693 4371 M 0 44 R D 4773 4371 M 0 44 R D 4853 4371 M
0 44 R D 4933 4371 M 0 44 R D 5012 4371 M 0 44 R D 5092 4371 M 0 44 R D
5172 4371 M 0 44 R D 5252 4371 M 0 44 R D 5411 4371 M 0 44 R D 5491 4371 M
0 44 R D 5571 4371 M 0 44 R D 5651 4371 M 0 44 R D 5731 4371 M 0 44 R D
5810 4371 M 0 44 R D 5890 4371 M 0 44 R D 5970 4371 M 0 44 R D 6050 4371 M
0 44 R D 6209 4371 M 0 44 R D 6289 4371 M 0 44 R D 6369 4371 M 0 44 R D
6449 4371 M 0 44 R D 6528 4371 M 0 44 R D 2220 7333 M 4371 0 R D 2938 7333 M
0 -88 R D 3736 7333 M 0 -88 R D 4534 7333 M 0 -88 R D 5332 7333 M 0 -88 R D
6129 7333 M 0 -88 R D 2220 7333 M 0 -44 R D 2300 7333 M 0 -44 R D
2380 7333 M 0 -44 R D 2459 7333 M 0 -44 R D 2539 7333 M 0 -44 R D
2619 7333 M 0 -44 R D 2699 7333 M 0 -44 R D 2779 7333 M 0 -44 R D
2858 7333 M 0 -44 R D 3018 7333 M 0 -44 R D 3098 7333 M 0 -44 R D
3177 7333 M 0 -44 R D 3257 7333 M 0 -44 R D 3337 7333 M 0 -44 R D
3417 7333 M 0 -44 R D 3497 7333 M 0 -44 R D 3576 7333 M 0 -44 R D
3656 7333 M 0 -44 R D 3816 7333 M 0 -44 R D 3896 7333 M 0 -44 R D
3975 7333 M 0 -44 R D 4055 7333 M 0 -44 R D 4135 7333 M 0 -44 R D
4215 7333 M 0 -44 R D 4294 7333 M 0 -44 R D 4374 7333 M 0 -44 R D
4454 7333 M 0 -44 R D 4614 7333 M 0 -44 R D 4693 7333 M 0 -44 R D
4773 7333 M 0 -44 R D 4853 7333 M 0 -44 R D 4933 7333 M 0 -44 R D
5012 7333 M 0 -44 R D 5092 7333 M 0 -44 R D 5172 7333 M 0 -44 R D
5252 7333 M 0 -44 R D 5411 7333 M 0 -44 R D 5491 7333 M 0 -44 R D
5571 7333 M 0 -44 R D 5651 7333 M 0 -44 R D 5731 7333 M 0 -44 R D
5810 7333 M 0 -44 R D 5890 7333 M 0 -44 R D 5970 7333 M 0 -44 R D
6050 7333 M 0 -44 R D 6209 7333 M 0 -44 R D 6289 7333 M 0 -44 R D
6369 7333 M 0 -44 R D 6449 7333 M 0 -44 R D 6528 7333 M 0 -44 R D
2220 4371 M 0 2962 R D 2220 5164 M 131 0 R D gsave 2109 5023 translate 0 0 M
-611.717 0 N
(-26) show grestore 2220 5998 M 131 0 R D gsave 2109 5857 translate 0 0 M
-611.717 0 N
(-24) show grestore 2220 6833 M 131 0 R D gsave 2109 6692 translate 0 0 M
-611.717 0 N
(-22) show grestore 2220 4538 M 66 0 R D 2220 4746 M 66 0 R D 2220 4955 M
66 0 R D 2220 5372 M 66 0 R D 2220 5581 M 66 0 R D 2220 5789 M 66 0 R D
2220 6207 M 66 0 R D 2220 6415 M 66 0 R D 2220 6624 M 66 0 R D 2220 7041 M
66 0 R D 2220 7250 M 66 0 R D 6591 4371 M 0 2962 R D 6591 5164 M -131 0 R D
6591 5998 M -131 0 R D 6591 6833 M -131 0 R D 6591 4538 M -65 0 R D
6591 4746 M -65 0 R D 6591 4955 M -65 0 R D 6591 5372 M -65 0 R D
6591 5581 M -65 0 R D 6591 5789 M -65 0 R D 6591 6207 M -65 0 R D
6591 6415 M -65 0 R D 6591 6624 M -65 0 R D 6591 7041 M -65 0 R D
6591 7250 M -65 0 R D 0.761 0.000 0.000 setrgbcolor 6256 7333 M 125 -1042 R
210 -1100 R D 0.000 0.549 0.000 setrgbcolor 6354 7333 M 27 -771 R 210 -280 R
D 0.000 0.000 1.000 setrgbcolor 5651 7333 M 42 -1741 R 239 -6 R 229 -9 R
220 -252 R 210 1219 R D 0.761 0.000 0.000 setrgbcolor 2439 5556 M 65 0 R
66 0 R 65 0 R 66 0 R 65 0 R 66 0 R 66 0 R 65 0 R 66 0 R D
0.000 0.549 0.000 setrgbcolor 2439 5171 M 65 0 R 66 0 R 65 0 R 66 0 R 65 0 R
66 0 R 66 0 R 65 0 R 66 0 R D 0.000 0.000 1.000 setrgbcolor 2439 4785 M
65 0 R 66 0 R 65 0 R 66 0 R 65 0 R 66 0 R 66 0 R 65 0 R 66 0 R D
0.761 0.000 0.000 setrgbcolor gsave 3094 5499 translate 0 0 M
(1) show grestore 0.000 0.549 0.000 setrgbcolor
gsave 3094 5114 translate 0 0 M
(2) show grestore 0.000 0.000 1.000 setrgbcolor
gsave 3094 4729 translate 0 0 M
(3) show grestore 0.000 0.000 0.000 setrgbcolor 6591 4371 M 4372 0 R D
7309 4371 M 0 89 R D gsave 7309 3843 translate 0 0 M -58.8433 0 N
( ) show grestore 8107 4371 M 0 89 R D gsave 8107 3843 translate 0 0 M
-58.8433 0 N
( ) show grestore 8905 4371 M 0 89 R D gsave 8905 3843 translate 0 0 M
-58.8433 0 N
( ) show grestore 9703 4371 M 0 89 R D gsave 9703 3843 translate 0 0 M
-58.8433 0 N
( ) show grestore 10501 4371 M 0 89 R D gsave 10501 3843 translate 0 0 M
-58.8433 0 N
( ) show grestore 6591 4371 M 0 44 R D 6671 4371 M 0 44 R D 6751 4371 M
0 44 R D 6831 4371 M 0 44 R D 6911 4371 M 0 44 R D 6990 4371 M 0 44 R D
7070 4371 M 0 44 R D 7150 4371 M 0 44 R D 7230 4371 M 0 44 R D 7389 4371 M
0 44 R D 7469 4371 M 0 44 R D 7549 4371 M 0 44 R D 7629 4371 M 0 44 R D
7708 4371 M 0 44 R D 7788 4371 M 0 44 R D 7868 4371 M 0 44 R D 7948 4371 M
0 44 R D 8028 4371 M 0 44 R D 8187 4371 M 0 44 R D 8267 4371 M 0 44 R D
8347 4371 M 0 44 R D 8426 4371 M 0 44 R D 8506 4371 M 0 44 R D 8586 4371 M
0 44 R D 8666 4371 M 0 44 R D 8746 4371 M 0 44 R D 8825 4371 M 0 44 R D
8985 4371 M 0 44 R D 9065 4371 M 0 44 R D 9144 4371 M 0 44 R D 9224 4371 M
0 44 R D 9304 4371 M 0 44 R D 9384 4371 M 0 44 R D 9464 4371 M 0 44 R D
9543 4371 M 0 44 R D 9623 4371 M 0 44 R D 9783 4371 M 0 44 R D 9863 4371 M
0 44 R D 9942 4371 M 0 44 R D 10022 4371 M 0 44 R D 10102 4371 M 0 44 R D
10182 4371 M 0 44 R D 10261 4371 M 0 44 R D 10341 4371 M 0 44 R D
10421 4371 M 0 44 R D 10581 4371 M 0 44 R D 10660 4371 M 0 44 R D
10740 4371 M 0 44 R D 10820 4371 M 0 44 R D 10900 4371 M 0 44 R D
6591 7333 M 4372 0 R D 7309 7333 M 0 -88 R D 8107 7333 M 0 -88 R D
8905 7333 M 0 -88 R D 9703 7333 M 0 -88 R D 10501 7333 M 0 -88 R D
6591 7333 M 0 -44 R D 6671 7333 M 0 -44 R D 6751 7333 M 0 -44 R D
6831 7333 M 0 -44 R D 6911 7333 M 0 -44 R D 6990 7333 M 0 -44 R D
7070 7333 M 0 -44 R D 7150 7333 M 0 -44 R D 7230 7333 M 0 -44 R D
7389 7333 M 0 -44 R D 7469 7333 M 0 -44 R D 7549 7333 M 0 -44 R D
7629 7333 M 0 -44 R D 7708 7333 M 0 -44 R D 7788 7333 M 0 -44 R D
7868 7333 M 0 -44 R D 7948 7333 M 0 -44 R D 8028 7333 M 0 -44 R D
8187 7333 M 0 -44 R D 8267 7333 M 0 -44 R D 8347 7333 M 0 -44 R D
8426 7333 M 0 -44 R D 8506 7333 M 0 -44 R D 8586 7333 M 0 -44 R D
8666 7333 M 0 -44 R D 8746 7333 M 0 -44 R D 8825 7333 M 0 -44 R D
8985 7333 M 0 -44 R D 9065 7333 M 0 -44 R D 9144 7333 M 0 -44 R D
9224 7333 M 0 -44 R D 9304 7333 M 0 -44 R D 9384 7333 M 0 -44 R D
9464 7333 M 0 -44 R D 9543 7333 M 0 -44 R D 9623 7333 M 0 -44 R D
9783 7333 M 0 -44 R D 9863 7333 M 0 -44 R D 9942 7333 M 0 -44 R D
10022 7333 M 0 -44 R D 10102 7333 M 0 -44 R D 10182 7333 M 0 -44 R D
10261 7333 M 0 -44 R D 10341 7333 M 0 -44 R D 10421 7333 M 0 -44 R D
10581 7333 M 0 -44 R D 10660 7333 M 0 -44 R D 10740 7333 M 0 -44 R D
10820 7333 M 0 -44 R D 10900 7333 M 0 -44 R D 6591 4371 M 0 2962 R D
6591 5164 M 132 0 R D gsave 6480 5023 translate 0 0 M -117.687 0 N
( ) show grestore 6591 5998 M 132 0 R D gsave 6480 5857 translate 0 0 M
-117.687 0 N
( ) show grestore 6591 6833 M 132 0 R D gsave 6480 6692 translate 0 0 M
-117.687 0 N
( ) show grestore 6591 4538 M 66 0 R D 6591 4746 M 66 0 R D 6591 4955 M
66 0 R D 6591 5372 M 66 0 R D 6591 5581 M 66 0 R D 6591 5789 M 66 0 R D
6591 6207 M 66 0 R D 6591 6415 M 66 0 R D 6591 6624 M 66 0 R D 6591 7041 M
66 0 R D 6591 7250 M 66 0 R D 10963 4371 M 0 2962 R D 10963 5164 M -131 0 R
D 10963 5998 M -131 0 R D 10963 6833 M -131 0 R D 10963 4538 M -66 0 R D
10963 4746 M -66 0 R D 10963 4955 M -66 0 R D 10963 5372 M -66 0 R D
10963 5581 M -66 0 R D 10963 5789 M -66 0 R D 10963 6207 M -66 0 R D
10963 6415 M -66 0 R D 10963 6624 M -66 0 R D 10963 7041 M -66 0 R D
10963 7250 M -66 0 R D 0.761 0.000 0.000 setrgbcolor 6591 6309 M 102 -7 R
301 -13 R 300 -41 R 298 -9 R 295 -25 R 292 -7 R 288 -25 R 283 -2 R 277 -2 R
271 -10 R 263 -18 R 256 -6 R 247 -8 R 239 -4 R 230 -5 R 220 -51 R 209 -678 R
D 0.000 0.549 0.000 setrgbcolor 6591 6546 M 102 -9 R 301 -2 R 300 -2 R
298 -3 R 295 -2 R 292 -3 R 288 -3 R 283 -3 R 277 -3 R 271 -4 R 263 -4 R
256 -5 R 247 -5 R 239 -6 R 230 -8 R 220 -9 R 209 -414 R D
0.000 0.000 1.000 setrgbcolor 6591 5838 M 102 -9 R 301 -60 R 300 -33 R
298 -155 R 295 -100 R 292 -5 R 288 -13 R 283 -4 R 277 -9 R 271 -4 R 263 -8 R
256 -11 R 247 -5 R 239 -2 R 230 -2 R 220 -7 R 209 1031 R D
0.000 0.000 0.000 setrgbcolor 10963 4371 M 4371 0 R D 11681 4371 M 0 89 R D
gsave 11681 3843 translate 0 0 M -58.8433 0 N
( ) show grestore 12479 4371 M 0 89 R D gsave 12479 3843 translate 0 0 M
-58.8433 0 N
( ) show grestore 13276 4371 M 0 89 R D gsave 13276 3843 translate 0 0 M
-58.8433 0 N
( ) show grestore 14074 4371 M 0 89 R D gsave 14074 3843 translate 0 0 M
-58.8433 0 N
( ) show grestore 14872 4371 M 0 89 R D gsave 14872 3843 translate 0 0 M
-58.8433 0 N
( ) show grestore 10963 4371 M 0 44 R D 11043 4371 M 0 44 R D 11122 4371 M
0 44 R D 11202 4371 M 0 44 R D 11282 4371 M 0 44 R D 11362 4371 M 0 44 R D
11441 4371 M 0 44 R D 11521 4371 M 0 44 R D 11601 4371 M 0 44 R D
11761 4371 M 0 44 R D 11840 4371 M 0 44 R D 11920 4371 M 0 44 R D
12000 4371 M 0 44 R D 12080 4371 M 0 44 R D 12159 4371 M 0 44 R D
12239 4371 M 0 44 R D 12319 4371 M 0 44 R D 12399 4371 M 0 44 R D
12558 4371 M 0 44 R D 12638 4371 M 0 44 R D 12718 4371 M 0 44 R D
12798 4371 M 0 44 R D 12878 4371 M 0 44 R D 12957 4371 M 0 44 R D
13037 4371 M 0 44 R D 13117 4371 M 0 44 R D 13197 4371 M 0 44 R D
13356 4371 M 0 44 R D 13436 4371 M 0 44 R D 13516 4371 M 0 44 R D
13596 4371 M 0 44 R D 13675 4371 M 0 44 R D 13755 4371 M 0 44 R D
13835 4371 M 0 44 R D 13915 4371 M 0 44 R D 13995 4371 M 0 44 R D
14154 4371 M 0 44 R D 14234 4371 M 0 44 R D 14314 4371 M 0 44 R D
14393 4371 M 0 44 R D 14473 4371 M 0 44 R D 14553 4371 M 0 44 R D
14633 4371 M 0 44 R D 14713 4371 M 0 44 R D 14792 4371 M 0 44 R D
14952 4371 M 0 44 R D 15032 4371 M 0 44 R D 15111 4371 M 0 44 R D
15191 4371 M 0 44 R D 15271 4371 M 0 44 R D 10963 7333 M 4371 0 R D
11681 7333 M 0 -88 R D 12479 7333 M 0 -88 R D 13276 7333 M 0 -88 R D
14074 7333 M 0 -88 R D 14872 7333 M 0 -88 R D 10963 7333 M 0 -44 R D
11043 7333 M 0 -44 R D 11122 7333 M 0 -44 R D 11202 7333 M 0 -44 R D
11282 7333 M 0 -44 R D 11362 7333 M 0 -44 R D 11441 7333 M 0 -44 R D
11521 7333 M 0 -44 R D 11601 7333 M 0 -44 R D 11761 7333 M 0 -44 R D
11840 7333 M 0 -44 R D 11920 7333 M 0 -44 R D 12000 7333 M 0 -44 R D
12080 7333 M 0 -44 R D 12159 7333 M 0 -44 R D 12239 7333 M 0 -44 R D
12319 7333 M 0 -44 R D 12399 7333 M 0 -44 R D 12558 7333 M 0 -44 R D
12638 7333 M 0 -44 R D 12718 7333 M 0 -44 R D 12798 7333 M 0 -44 R D
12878 7333 M 0 -44 R D 12957 7333 M 0 -44 R D 13037 7333 M 0 -44 R D
13117 7333 M 0 -44 R D 13197 7333 M 0 -44 R D 13356 7333 M 0 -44 R D
13436 7333 M 0 -44 R D 13516 7333 M 0 -44 R D 13596 7333 M 0 -44 R D
13675 7333 M 0 -44 R D 13755 7333 M 0 -44 R D 13835 7333 M 0 -44 R D
13915 7333 M 0 -44 R D 13995 7333 M 0 -44 R D 14154 7333 M 0 -44 R D
14234 7333 M 0 -44 R D 14314 7333 M 0 -44 R D 14393 7333 M 0 -44 R D
14473 7333 M 0 -44 R D 14553 7333 M 0 -44 R D 14633 7333 M 0 -44 R D
14713 7333 M 0 -44 R D 14792 7333 M 0 -44 R D 14952 7333 M 0 -44 R D
15032 7333 M 0 -44 R D 15111 7333 M 0 -44 R D 15191 7333 M 0 -44 R D
15271 7333 M 0 -44 R D 10963 4371 M 0 2962 R D 10963 5164 M 131 0 R D
gsave 10852 5023 translate 0 0 M -117.687 0 N
( ) show grestore 10963 5998 M 131 0 R D gsave 10852 5857 translate 0 0 M
-117.687 0 N
( ) show grestore 10963 6833 M 131 0 R D gsave 10852 6692 translate 0 0 M
-117.687 0 N
( ) show grestore 10963 4538 M 65 0 R D 10963 4746 M 65 0 R D 10963 4955 M
65 0 R D 10963 5372 M 65 0 R D 10963 5581 M 65 0 R D 10963 5789 M 65 0 R D
10963 6207 M 65 0 R D 10963 6415 M 65 0 R D 10963 6624 M 65 0 R D
10963 7041 M 65 0 R D 10963 7250 M 65 0 R D 15334 4371 M 0 2962 R D
15334 5164 M -131 0 R D 15334 5998 M -131 0 R D 15334 6833 M -131 0 R D
15334 4538 M -65 0 R D 15334 4746 M -65 0 R D 15334 4955 M -65 0 R D
15334 5372 M -65 0 R D 15334 5581 M -65 0 R D 15334 5789 M -65 0 R D
15334 6207 M -65 0 R D 15334 6415 M -65 0 R D 15334 6624 M -65 0 R D
15334 7041 M -65 0 R D 15334 7250 M -65 0 R D 0.761 0.000 0.000 setrgbcolor
10962 6742 M 103 -3 R 300 -85 R 300 -55 R 298 -13 R 296 -1 R 292 -2 R
288 -2 R 282 -2 R 277 -2 R 271 -2 R 263 -3 R 256 -4 R 248 -3 R 238 -4 R
230 -5 R 220 -6 R 210 -1314 R D 0.000 0.549 0.000 setrgbcolor 10962 6445 M
103 -3 R 300 -19 R 300 -2 R 298 -13 R 296 -9 R 292 -3 R 288 -2 R 282 -42 R
277 -3 R 271 -10 R 263 -4 R 256 -5 R 248 -82 R 238 -4 R 230 -4 R 220 -7 R
210 -13 R D 0.000 0.000 1.000 setrgbcolor 10962 5458 M 103 -4 R 300 -15 R
300 -17 R 298 -13 R 296 -14 R 292 -8 R 288 -63 R 282 -6 R 277 -2 R 271 -9 R
263 -8 R 256 -19 R 248 -5 R 238 -16 R 230 -10 R 220 -7 R 210 1289 R D
0.000 0.000 0.000 setrgbcolor 2220 1408 M 4371 0 R D 2938 1408 M 0 89 R D
gsave 2938 880 translate 0 0 M -117.687 0 N
(9) show grestore 3736 1408 M 0 89 R D gsave 3736 880 translate 0 0 M
-235.373 0 N
(10) show grestore 4534 1408 M 0 89 R D gsave 4534 880 translate 0 0 M
-235.373 0 N
(11) show grestore 5332 1408 M 0 89 R D gsave 5332 880 translate 0 0 M
-235.373 0 N
(12) show grestore 6129 1408 M 0 89 R D gsave 6129 880 translate 0 0 M
-235.373 0 N
(13) show grestore 2220 1408 M 0 44 R D 2300 1408 M 0 44 R D 2380 1408 M
0 44 R D 2459 1408 M 0 44 R D 2539 1408 M 0 44 R D 2619 1408 M 0 44 R D
2699 1408 M 0 44 R D 2779 1408 M 0 44 R D 2858 1408 M 0 44 R D 3018 1408 M
0 44 R D 3098 1408 M 0 44 R D 3177 1408 M 0 44 R D 3257 1408 M 0 44 R D
3337 1408 M 0 44 R D 3417 1408 M 0 44 R D 3497 1408 M 0 44 R D 3576 1408 M
0 44 R D 3656 1408 M 0 44 R D 3816 1408 M 0 44 R D 3896 1408 M 0 44 R D
3975 1408 M 0 44 R D 4055 1408 M 0 44 R D 4135 1408 M 0 44 R D 4215 1408 M
0 44 R D 4294 1408 M 0 44 R D 4374 1408 M 0 44 R D 4454 1408 M 0 44 R D
4614 1408 M 0 44 R D 4693 1408 M 0 44 R D 4773 1408 M 0 44 R D 4853 1408 M
0 44 R D 4933 1408 M 0 44 R D 5012 1408 M 0 44 R D 5092 1408 M 0 44 R D
5172 1408 M 0 44 R D 5252 1408 M 0 44 R D 5411 1408 M 0 44 R D 5491 1408 M
0 44 R D 5571 1408 M 0 44 R D 5651 1408 M 0 44 R D 5731 1408 M 0 44 R D
5810 1408 M 0 44 R D 5890 1408 M 0 44 R D 5970 1408 M 0 44 R D 6050 1408 M
0 44 R D 6209 1408 M 0 44 R D 6289 1408 M 0 44 R D 6369 1408 M 0 44 R D
6449 1408 M 0 44 R D 6528 1408 M 0 44 R D 2220 4371 M 4371 0 R D 2938 4371 M
0 -89 R D 3736 4371 M 0 -89 R D 4534 4371 M 0 -89 R D 5332 4371 M 0 -89 R D
6129 4371 M 0 -89 R D 2220 4371 M 0 -45 R D 2300 4371 M 0 -45 R D
2380 4371 M 0 -45 R D 2459 4371 M 0 -45 R D 2539 4371 M 0 -45 R D
2619 4371 M 0 -45 R D 2699 4371 M 0 -45 R D 2779 4371 M 0 -45 R D
2858 4371 M 0 -45 R D 3018 4371 M 0 -45 R D 3098 4371 M 0 -45 R D
3177 4371 M 0 -45 R D 3257 4371 M 0 -45 R D 3337 4371 M 0 -45 R D
3417 4371 M 0 -45 R D 3497 4371 M 0 -45 R D 3576 4371 M 0 -45 R D
3656 4371 M 0 -45 R D 3816 4371 M 0 -45 R D 3896 4371 M 0 -45 R D
3975 4371 M 0 -45 R D 4055 4371 M 0 -45 R D 4135 4371 M 0 -45 R D
4215 4371 M 0 -45 R D 4294 4371 M 0 -45 R D 4374 4371 M 0 -45 R D
4454 4371 M 0 -45 R D 4614 4371 M 0 -45 R D 4693 4371 M 0 -45 R D
4773 4371 M 0 -45 R D 4853 4371 M 0 -45 R D 4933 4371 M 0 -45 R D
5012 4371 M 0 -45 R D 5092 4371 M 0 -45 R D 5172 4371 M 0 -45 R D
5252 4371 M 0 -45 R D 5411 4371 M 0 -45 R D 5491 4371 M 0 -45 R D
5571 4371 M 0 -45 R D 5651 4371 M 0 -45 R D 5731 4371 M 0 -45 R D
5810 4371 M 0 -45 R D 5890 4371 M 0 -45 R D 5970 4371 M 0 -45 R D
6050 4371 M 0 -45 R D 6209 4371 M 0 -45 R D 6289 4371 M 0 -45 R D
6369 4371 M 0 -45 R D 6449 4371 M 0 -45 R D 6528 4371 M 0 -45 R D
2220 1408 M 0 2963 R D 2220 2201 M 131 0 R D gsave 2109 2060 translate 0 0 M
-611.717 0 N
(-26) show grestore 2220 3035 M 131 0 R D gsave 2109 2895 translate 0 0 M
-611.717 0 N
(-24) show grestore 2220 3870 M 131 0 R D gsave 2109 3729 translate 0 0 M
-611.717 0 N
(-22) show grestore 2220 1575 M 66 0 R D 2220 1784 M 66 0 R D 2220 1992 M
66 0 R D 2220 2410 M 66 0 R D 2220 2618 M 66 0 R D 2220 2827 M 66 0 R D
2220 3244 M 66 0 R D 2220 3453 M 66 0 R D 2220 3661 M 66 0 R D 2220 4079 M
66 0 R D 2220 4287 M 66 0 R D 6591 1408 M 0 2963 R D 6591 2201 M -131 0 R D
6591 3035 M -131 0 R D 6591 3870 M -131 0 R D 6591 1575 M -65 0 R D
6591 1784 M -65 0 R D 6591 1992 M -65 0 R D 6591 2410 M -65 0 R D
6591 2618 M -65 0 R D 6591 2827 M -65 0 R D 6591 3244 M -65 0 R D
6591 3453 M -65 0 R D 6591 3661 M -65 0 R D 6591 4079 M -65 0 R D
6591 4287 M -65 0 R D 0.761 0.000 0.000 setrgbcolor 2220 3324 M 102 -17 R
300 -252 R 300 -12 R 298 -44 R 296 -38 R 292 -1 R 288 -1 R 283 -1 R 277 -1 R
270 0 R 264 -1 R 255 -2 R 248 -1 R 239 -2 R 229 -2 R 220 -2 R 210 -602 R D
0.000 0.549 0.000 setrgbcolor 3465 4370 M 51 -1081 R 292 -75 R 288 -1 R
283 0 R 277 0 R 270 0 R 264 0 R 255 0 R 248 0 R 239 0 R 229 0 R 220 0 R
210 -272 R D 0.000 0.000 1.000 setrgbcolor 2220 2796 M 102 -15 R 300 -8 R
300 -45 R 298 -15 R 296 -12 R 292 -13 R 288 -14 R 283 -10 R 277 -32 R
270 -25 R 264 -13 R 255 -15 R 248 -163 R 239 -16 R 229 -6 R 220 -33 R
210 852 R D 0.000 0.000 0.000 setrgbcolor 6591 1408 M 4372 0 R D 7309 1408 M
0 89 R D gsave 7309 880 translate 0 0 M -117.687 0 N
(9) show grestore 8107 1408 M 0 89 R D gsave 8107 880 translate 0 0 M
-235.373 0 N
(10) show grestore 8905 1408 M 0 89 R D gsave 8905 880 translate 0 0 M
-235.373 0 N
(11) show grestore 9703 1408 M 0 89 R D gsave 9703 880 translate 0 0 M
-235.373 0 N
(12) show grestore 10501 1408 M 0 89 R D gsave 10501 880 translate 0 0 M
-235.373 0 N
(13) show grestore 6591 1408 M 0 44 R D 6671 1408 M 0 44 R D 6751 1408 M
0 44 R D 6831 1408 M 0 44 R D 6911 1408 M 0 44 R D 6990 1408 M 0 44 R D
7070 1408 M 0 44 R D 7150 1408 M 0 44 R D 7230 1408 M 0 44 R D 7389 1408 M
0 44 R D 7469 1408 M 0 44 R D 7549 1408 M 0 44 R D 7629 1408 M 0 44 R D
7708 1408 M 0 44 R D 7788 1408 M 0 44 R D 7868 1408 M 0 44 R D 7948 1408 M
0 44 R D 8028 1408 M 0 44 R D 8187 1408 M 0 44 R D 8267 1408 M 0 44 R D
8347 1408 M 0 44 R D 8426 1408 M 0 44 R D 8506 1408 M 0 44 R D 8586 1408 M
0 44 R D 8666 1408 M 0 44 R D 8746 1408 M 0 44 R D 8825 1408 M 0 44 R D
8985 1408 M 0 44 R D 9065 1408 M 0 44 R D 9144 1408 M 0 44 R D 9224 1408 M
0 44 R D 9304 1408 M 0 44 R D 9384 1408 M 0 44 R D 9464 1408 M 0 44 R D
9543 1408 M 0 44 R D 9623 1408 M 0 44 R D 9783 1408 M 0 44 R D 9863 1408 M
0 44 R D 9942 1408 M 0 44 R D 10022 1408 M 0 44 R D 10102 1408 M 0 44 R D
10182 1408 M 0 44 R D 10261 1408 M 0 44 R D 10341 1408 M 0 44 R D
10421 1408 M 0 44 R D 10581 1408 M 0 44 R D 10660 1408 M 0 44 R D
10740 1408 M 0 44 R D 10820 1408 M 0 44 R D 10900 1408 M 0 44 R D
6591 4371 M 4372 0 R D 7309 4371 M 0 -89 R D 8107 4371 M 0 -89 R D
8905 4371 M 0 -89 R D 9703 4371 M 0 -89 R D 10501 4371 M 0 -89 R D
6591 4371 M 0 -45 R D 6671 4371 M 0 -45 R D 6751 4371 M 0 -45 R D
6831 4371 M 0 -45 R D 6911 4371 M 0 -45 R D 6990 4371 M 0 -45 R D
7070 4371 M 0 -45 R D 7150 4371 M 0 -45 R D 7230 4371 M 0 -45 R D
7389 4371 M 0 -45 R D 7469 4371 M 0 -45 R D 7549 4371 M 0 -45 R D
7629 4371 M 0 -45 R D 7708 4371 M 0 -45 R D 7788 4371 M 0 -45 R D
7868 4371 M 0 -45 R D 7948 4371 M 0 -45 R D 8028 4371 M 0 -45 R D
8187 4371 M 0 -45 R D 8267 4371 M 0 -45 R D 8347 4371 M 0 -45 R D
8426 4371 M 0 -45 R D 8506 4371 M 0 -45 R D 8586 4371 M 0 -45 R D
8666 4371 M 0 -45 R D 8746 4371 M 0 -45 R D 8825 4371 M 0 -45 R D
8985 4371 M 0 -45 R D 9065 4371 M 0 -45 R D 9144 4371 M 0 -45 R D
9224 4371 M 0 -45 R D 9304 4371 M 0 -45 R D 9384 4371 M 0 -45 R D
9464 4371 M 0 -45 R D 9543 4371 M 0 -45 R D 9623 4371 M 0 -45 R D
9783 4371 M 0 -45 R D 9863 4371 M 0 -45 R D 9942 4371 M 0 -45 R D
10022 4371 M 0 -45 R D 10102 4371 M 0 -45 R D 10182 4371 M 0 -45 R D
10261 4371 M 0 -45 R D 10341 4371 M 0 -45 R D 10421 4371 M 0 -45 R D
10581 4371 M 0 -45 R D 10660 4371 M 0 -45 R D 10740 4371 M 0 -45 R D
10820 4371 M 0 -45 R D 10900 4371 M 0 -45 R D 6591 1408 M 0 2963 R D
6591 2201 M 132 0 R D gsave 6480 2060 translate 0 0 M -117.687 0 N
( ) show grestore 6591 3035 M 132 0 R D gsave 6480 2895 translate 0 0 M
-117.687 0 N
( ) show grestore 6591 3870 M 132 0 R D gsave 6480 3729 translate 0 0 M
-117.687 0 N
( ) show grestore 6591 1575 M 66 0 R D 6591 1784 M 66 0 R D 6591 1992 M
66 0 R D 6591 2410 M 66 0 R D 6591 2618 M 66 0 R D 6591 2827 M 66 0 R D
6591 3244 M 66 0 R D 6591 3453 M 66 0 R D 6591 3661 M 66 0 R D 6591 4079 M
66 0 R D 6591 4287 M 66 0 R D 10963 1408 M 0 2963 R D 10963 2201 M -131 0 R
D 10963 3035 M -131 0 R D 10963 3870 M -131 0 R D 10963 1575 M -66 0 R D
10963 1784 M -66 0 R D 10963 1992 M -66 0 R D 10963 2410 M -66 0 R D
10963 2618 M -66 0 R D 10963 2827 M -66 0 R D 10963 3244 M -66 0 R D
10963 3453 M -66 0 R D 10963 3661 M -66 0 R D 10963 4079 M -66 0 R D
10963 4287 M -66 0 R D 0.761 0.000 0.000 setrgbcolor 8881 4370 M 146 -1898 R
271 -8 R 263 -43 R 256 -17 R 247 -60 R 239 -8 R 230 -237 R 220 -37 R
209 -15 R D 0.000 0.549 0.000 setrgbcolor 6591 3301 M 102 -2 R 301 -2 R
300 -1 R 298 -1 R 295 -2 R 292 -1 R 288 -2 R 283 -2 R 277 -2 R 271 -2 R
263 -2 R 256 -3 R 247 -3 R 239 -4 R 230 -4 R 220 -6 R 209 -236 R D
0.000 0.000 1.000 setrgbcolor 8659 4370 M 91 -1326 R 277 -1 R 271 -4 R
263 -1 R 256 -1 R 247 -1 R 239 -1 R 230 -2 R 220 -2 R 209 213 R D
0.000 0.000 0.000 setrgbcolor 10963 1408 M 4371 0 R D 11681 1408 M 0 89 R D
gsave 11681 880 translate 0 0 M -117.687 0 N
(9) show grestore 12479 1408 M 0 89 R D gsave 12479 880 translate 0 0 M
-235.373 0 N
(10) show grestore 13276 1408 M 0 89 R D gsave 13276 880 translate 0 0 M
-235.373 0 N
(11) show grestore 14074 1408 M 0 89 R D gsave 14074 880 translate 0 0 M
-235.373 0 N
(12) show grestore 14872 1408 M 0 89 R D gsave 14872 880 translate 0 0 M
-235.373 0 N
(13) show grestore 10963 1408 M 0 44 R D 11043 1408 M 0 44 R D 11122 1408 M
0 44 R D 11202 1408 M 0 44 R D 11282 1408 M 0 44 R D 11362 1408 M 0 44 R D
11441 1408 M 0 44 R D 11521 1408 M 0 44 R D 11601 1408 M 0 44 R D
11761 1408 M 0 44 R D 11840 1408 M 0 44 R D 11920 1408 M 0 44 R D
12000 1408 M 0 44 R D 12080 1408 M 0 44 R D 12159 1408 M 0 44 R D
12239 1408 M 0 44 R D 12319 1408 M 0 44 R D 12399 1408 M 0 44 R D
12558 1408 M 0 44 R D 12638 1408 M 0 44 R D 12718 1408 M 0 44 R D
12798 1408 M 0 44 R D 12878 1408 M 0 44 R D 12957 1408 M 0 44 R D
13037 1408 M 0 44 R D 13117 1408 M 0 44 R D 13197 1408 M 0 44 R D
13356 1408 M 0 44 R D 13436 1408 M 0 44 R D 13516 1408 M 0 44 R D
13596 1408 M 0 44 R D 13675 1408 M 0 44 R D 13755 1408 M 0 44 R D
13835 1408 M 0 44 R D 13915 1408 M 0 44 R D 13995 1408 M 0 44 R D
14154 1408 M 0 44 R D 14234 1408 M 0 44 R D 14314 1408 M 0 44 R D
14393 1408 M 0 44 R D 14473 1408 M 0 44 R D 14553 1408 M 0 44 R D
14633 1408 M 0 44 R D 14713 1408 M 0 44 R D 14792 1408 M 0 44 R D
14952 1408 M 0 44 R D 15032 1408 M 0 44 R D 15111 1408 M 0 44 R D
15191 1408 M 0 44 R D 15271 1408 M 0 44 R D 10963 4371 M 4371 0 R D
11681 4371 M 0 -89 R D 12479 4371 M 0 -89 R D 13276 4371 M 0 -89 R D
14074 4371 M 0 -89 R D 14872 4371 M 0 -89 R D 10963 4371 M 0 -45 R D
11043 4371 M 0 -45 R D 11122 4371 M 0 -45 R D 11202 4371 M 0 -45 R D
11282 4371 M 0 -45 R D 11362 4371 M 0 -45 R D 11441 4371 M 0 -45 R D
11521 4371 M 0 -45 R D 11601 4371 M 0 -45 R D 11761 4371 M 0 -45 R D
11840 4371 M 0 -45 R D 11920 4371 M 0 -45 R D 12000 4371 M 0 -45 R D
12080 4371 M 0 -45 R D 12159 4371 M 0 -45 R D 12239 4371 M 0 -45 R D
12319 4371 M 0 -45 R D 12399 4371 M 0 -45 R D 12558 4371 M 0 -45 R D
12638 4371 M 0 -45 R D 12718 4371 M 0 -45 R D 12798 4371 M 0 -45 R D
12878 4371 M 0 -45 R D 12957 4371 M 0 -45 R D 13037 4371 M 0 -45 R D
13117 4371 M 0 -45 R D 13197 4371 M 0 -45 R D 13356 4371 M 0 -45 R D
13436 4371 M 0 -45 R D 13516 4371 M 0 -45 R D 13596 4371 M 0 -45 R D
13675 4371 M 0 -45 R D 13755 4371 M 0 -45 R D 13835 4371 M 0 -45 R D
13915 4371 M 0 -45 R D 13995 4371 M 0 -45 R D 14154 4371 M 0 -45 R D
14234 4371 M 0 -45 R D 14314 4371 M 0 -45 R D 14393 4371 M 0 -45 R D
14473 4371 M 0 -45 R D 14553 4371 M 0 -45 R D 14633 4371 M 0 -45 R D
14713 4371 M 0 -45 R D 14792 4371 M 0 -45 R D 14952 4371 M 0 -45 R D
15032 4371 M 0 -45 R D 15111 4371 M 0 -45 R D 15191 4371 M 0 -45 R D
15271 4371 M 0 -45 R D 10963 1408 M 0 2963 R D 10963 2201 M 131 0 R D
gsave 10852 2060 translate 0 0 M -117.687 0 N
( ) show grestore 10963 3035 M 131 0 R D gsave 10852 2895 translate 0 0 M
-117.687 0 N
( ) show grestore 10963 3870 M 131 0 R D gsave 10852 3729 translate 0 0 M
-117.687 0 N
( ) show grestore 10963 1575 M 65 0 R D 10963 1784 M 65 0 R D 10963 1992 M
65 0 R D 10963 2410 M 65 0 R D 10963 2618 M 65 0 R D 10963 2827 M 65 0 R D
10963 3244 M 65 0 R D 10963 3453 M 65 0 R D 10963 3661 M 65 0 R D
10963 4079 M 65 0 R D 10963 4287 M 65 0 R D 15334 1408 M 0 2963 R D
15334 2201 M -131 0 R D 15334 3035 M -131 0 R D 15334 3870 M -131 0 R D
15334 1575 M -65 0 R D 15334 1784 M -65 0 R D 15334 1992 M -65 0 R D
15334 2410 M -65 0 R D 15334 2618 M -65 0 R D 15334 2827 M -65 0 R D
15334 3244 M -65 0 R D 15334 3453 M -65 0 R D 15334 3661 M -65 0 R D
15334 4079 M -65 0 R D 15334 4287 M -65 0 R D 0.761 0.000 0.000 setrgbcolor
10962 2133 M 103 -4 R 300 -17 R 300 -29 R 298 -32 R 296 -122 R 292 -27 R
288 -27 R 282 -19 R 277 -29 R 271 -11 R 263 -14 R 256 -11 R 248 -41 R
238 -20 R 230 -14 R 220 -14 R 210 -18 R D 0.000 0.549 0.000 setrgbcolor
10962 3101 M 103 -15 R 300 -3 R 300 -32 R 298 -10 R 296 -12 R 292 -13 R
288 -1 R 282 -2 R 277 -1 R 271 -4 R 263 -2 R 256 -1 R 248 -2 R 238 -14 R
230 -5 R 220 -8 R 210 -159 R D 0.000 0.000 1.000 setrgbcolor 10962 3110 M
103 -3 R 300 -27 R 300 -6 R 298 -134 R 296 -19 R 292 -2 R 288 -7 R 282 -5 R
277 -8 R 271 -19 R 263 -6 R 256 -12 R 248 -8 R 238 -21 R 230 -7 R 220 -2 R
210 143 R D
%%PageTrailer
end
%%PageResources: font Helvetica
%%Trailer
%%Pages: 1
%%DocumentNeededResources: font Helvetica
%%EOF
