%!PS-Adobe-3.0 EPSF-3.0
%%BoundingBox: 0 0 283 255
%%Title: Graphics produced by IDL
%%For: jlgan@Hserver, /home/jlgan/work/phoenix
%%Creator: IDL Version 7.1.1 (linux x86_64 m64)
%%CreationDate: Tue Nov 11 15:48:10 2014
%%DocumentData: Clean7bit
%%Requirements: color
%%LanguageLevel: 1
%%PageOrder: Ascend
%%Pages: (atend)
%%DocumentNeededResources: (atend)
%%EndComments
%%BeginProlog
%+ prolog.ps -- Prolog for IDL generated PostScript files
%+ Copyright (c) 1988-2009 ITT Visual Information Solutions. All Rights Reserved.
%v 5
/$IDL_DICT 40 dict def $IDL_DICT begin /bdef { bind def } bind def /C
{currentpoint newpath moveto} bdef /CP {currentpoint} bdef /D {currentpoint
stroke moveto} bdef /F {closepath fill} bdef /K { setgray } bdef /M {moveto}
bdef /N {rmoveto} bdef /P {lineto} bdef /R {rlineto} bdef /S {gsave show
grestore} bdef /X {currentpoint pop} bdef /Z {gsave currentpoint lineto 20
setlinewidth 1 setlinecap stroke grestore} bdef /L0 {[] 0 setdash} bdef /L1
{[40 100] 0 setdash} bdef /L2 {[200 200] 0 setdash} bdef /L3 {[200 100 50
100] 0 setdash} bdef /L4 {[300 100 50 100 50 100 50 100] 0 setdash} bdef /L5
{[400 200] 0 setdash} bdef /STDFONT { findfont exch scalefont setfont } bdef
/ISOFONT { findfont dup length dict begin { 1 index /FID ne {def} {pop pop}
ifelse } forall /Encoding ISOLatin1Encoding def currentdict end /idltmpfont
exch definefont exch scalefont setfont } bdef /ISOBULLET { gsave /Helvetica
findfont exch scalefont setfont (\267) show currentpoint grestore moveto}
bdef /MITERLIMIT { 2.5 setmiterlimit } bdef end
%%EndProlog
%%Page: 0 1
%%PageRequirements: color
%%PageResources: (atend)
%%PageOrientation: Portrait
%%PageBoundingBox: 0 0 283 255
%%BeginPageSetup
$IDL_DICT begin 0.0283465 dup scale MITERLIMIT
%%IncludeResource: font Helvetica
423.333 /Helvetica STDFONT
%%EndPageSetup
30 setlinewidth L0 0.000 0.000 0.000 setrgbcolor 1300 1170 M 8300 0 R D
1644 1170 M 0 205 R D gsave 1644 642 translate 0 0 M -117.687 0 N
(6) show grestore 3744 1170 M 0 205 R D gsave 3744 642 translate 0 0 M
-117.687 0 N
(8) show grestore 5843 1170 M 0 205 R D gsave 5843 642 translate 0 0 M
-235.373 0 N
(10) show grestore 7943 1170 M 0 205 R D gsave 7943 642 translate 0 0 M
-235.373 0 N
(12) show grestore 2169 1170 M 0 103 R D 2694 1170 M 0 103 R D 3219 1170 M
0 103 R D 4269 1170 M 0 103 R D 4793 1170 M 0 103 R D 5318 1170 M 0 103 R D
6368 1170 M 0 103 R D 6893 1170 M 0 103 R D 7418 1170 M 0 103 R D
8467 1170 M 0 103 R D 8992 1170 M 0 103 R D 9517 1170 M 0 103 R D
gsave 5450 184 translate 0 0 M -576.368 0 N
(t / Gyr) show grestore 1300 1170 M 0 6840 R D 1300 1170 M 249 0 R D
gsave 1189 1170 translate 0 0 M -235.373 0 N
(0) show grestore 1300 2884 M 249 0 R D gsave 1189 2743 translate 0 0 M
-235.373 0 N
(1) show grestore 1300 4599 M 249 0 R D gsave 1189 4458 translate 0 0 M
-235.373 0 N
(2) show grestore 1300 6313 M 249 0 R D gsave 1189 6172 translate 0 0 M
-235.373 0 N
(3) show grestore 1300 1341 M 124 0 R D 1300 1513 M 124 0 R D 1300 1684 M
124 0 R D 1300 1856 M 124 0 R D 1300 2027 M 124 0 R D 1300 2199 M 124 0 R D
1300 2370 M 124 0 R D 1300 2541 M 124 0 R D 1300 2713 M 124 0 R D
1300 3056 M 124 0 R D 1300 3227 M 124 0 R D 1300 3399 M 124 0 R D
1300 3570 M 124 0 R D 1300 3741 M 124 0 R D 1300 3913 M 124 0 R D
1300 4084 M 124 0 R D 1300 4256 M 124 0 R D 1300 4427 M 124 0 R D
1300 4770 M 124 0 R D 1300 4941 M 124 0 R D 1300 5113 M 124 0 R D
1300 5284 M 124 0 R D 1300 5456 M 124 0 R D 1300 5627 M 124 0 R D
1300 5799 M 124 0 R D 1300 5970 M 124 0 R D 1300 6141 M 124 0 R D
1300 6484 M 124 0 R D 1300 6656 M 124 0 R D 1300 6827 M 124 0 R D
1300 6999 M 124 0 R D 1300 7170 M 124 0 R D 1300 7341 M 124 0 R D
1300 7513 M 124 0 R D 1300 7684 M 124 0 R D 1300 7856 M 124 0 R D
gsave 621 4590 translate 0 0 M 90 rotate -448.945 0 N
%%IncludeResource: font Symbol
423.333 /Symbol STDFONT
(D) show
%%IncludeResource: font Helvetica
423.333 /Helvetica STDFONT
(M) show X -101.051 M
%%IncludeResource: font Helvetica
262.467 /Helvetica STDFONT
(12) show grestore
%%IncludeResource: font Helvetica
423.333 /Helvetica STDFONT 9600 1170 M 0 6840 R D 9600 1170 M -249 0 R D
9600 2884 M -249 0 R D 9600 4599 M -249 0 R D 9600 6313 M -249 0 R D
9600 1341 M -124 0 R D 9600 1513 M -124 0 R D 9600 1684 M -124 0 R D
9600 1856 M -124 0 R D 9600 2027 M -124 0 R D 9600 2199 M -124 0 R D
9600 2370 M -124 0 R D 9600 2541 M -124 0 R D 9600 2713 M -124 0 R D
9600 3056 M -124 0 R D 9600 3227 M -124 0 R D 9600 3399 M -124 0 R D
9600 3570 M -124 0 R D 9600 3741 M -124 0 R D 9600 3913 M -124 0 R D
9600 4084 M -124 0 R D 9600 4256 M -124 0 R D 9600 4427 M -124 0 R D
9600 4770 M -124 0 R D 9600 4941 M -124 0 R D 9600 5113 M -124 0 R D
9600 5284 M -124 0 R D 9600 5456 M -124 0 R D 9600 5627 M -124 0 R D
9600 5799 M -124 0 R D 9600 5970 M -124 0 R D 9600 6141 M -124 0 R D
9600 6484 M -124 0 R D 9600 6656 M -124 0 R D 9600 6827 M -124 0 R D
9600 6999 M -124 0 R D 9600 7170 M -124 0 R D 9600 7341 M -124 0 R D
9600 7513 M -124 0 R D 9600 7684 M -124 0 R D 9600 7856 M -124 0 R D L1
1300 4599 M 365 0 R 374 0 R 380 0 R 386 0 R 390 0 R 393 0 R 395 0 R 395 0 R
394 0 R 393 0 R 389 0 R 384 0 R 379 0 R 372 0 R 364 0 R 356 0 R 347 0 R
336 0 R 326 0 R 314 0 R 302 0 R 290 0 R 275 0 R D L0
0.255 0.255 0.255 setrgbcolor 1300 2587 M 365 288 R 374 3461 R 380 -89 R
386 -734 R 390 49 R 393 21 R 395 55 R 395 49 R 394 34 R 393 138 R 389 39 R
384 -22 R 379 -53 R 372 34 R 364 7 R 356 25 R 347 14 R 336 28 R 326 16 R
314 -7 R 302 -32 R 290 -8 R 275 -61 R D 1.000 0.000 0.706 setrgbcolor
1300 1301 M 365 -11 R 374 22 R 380 -38 R 386 72 R 390 -31 R 393 -29 R
395 63 R 395 -49 R 394 -11 R 393 64 R 389 -125 R 384 23 R 379 62 R 372 207 R
364 40 R 356 154 R 347 20 R 336 38 R 326 135 R 314 9 R 302 20 R 290 41 R
275 2577 R D 0.506 0.000 0.000 setrgbcolor 1300 1949 M 365 -173 R 374 77 R
380 21 R 386 86 R 390 25 R 393 69 R 395 1866 R 395 22 R 394 -79 R 393 37 R
389 77 R 384 53 R 379 -61 R 372 75 R 364 2 R 356 -20 R 347 -307 R 336 4 R
326 -28 R 314 -28 R 302 -13 R 290 -34 R 275 -17 R D
1.000 0.349 0.000 setrgbcolor 1300 2350 M 365 99 R 374 103 R 380 -26 R
386 12 R 390 574 R 393 -38 R 395 6 R 395 -1440 R 394 -52 R 393 74 R 389 75 R
384 36 R 379 73 R 372 66 R 364 68 R 356 0 R 347 196 R 336 47 R 326 -143 R
314 13 R 302 27 R 290 2730 R 275 966 R D 0.000 0.549 0.000 setrgbcolor
1300 1999 M 365 771 R 374 15 R 380 30 R 386 136 R 390 155 R 393 2 R 395 57 R
395 205 R 394 -4 R 393 591 R 389 298 R 384 -8 R 379 -127 R 372 1 R 364 31 R
356 -23 R 347 -41 R 336 19 R 326 -28 R 314 -27 R 302 -13 R 290 -191 R
275 -1 R D 0.000 0.514 1.000 setrgbcolor 1300 4932 M 365 -31 R 374 89 R
380 59 R 386 81 R 390 -203 R 393 44 R 395 51 R 395 59 R 394 63 R 393 46 R
389 51 R 384 28 R 379 297 R 372 -151 R 364 1 R 356 -8 R 347 18 R 336 55 R
326 -317 R 314 48 R 302 24 R 290 3 R 275 -29 R D
0.000 0.000 1.000 setrgbcolor 1300 1387 M 365 113 R 374 162 R 380 94 R
386 78 R 390 118 R 393 1342 R 395 38 R 395 -1001 R 394 130 R 393 -114 R
389 -109 R 384 50 R 379 51 R 372 39 R 364 131 R 356 97 R 347 48 R 336 59 R
326 662 R 314 59 R 302 18 R 290 123 R 275 39 R D
0.588 0.000 0.588 setrgbcolor 1300 2566 M 365 -72 R 374 -825 R 380 -16 R
386 -1 R 390 -26 R 393 53 R 395 -77 R 395 -111 R 394 -102 R 393 -209 R
389 41 R 384 18 R 379 52 R 372 20 R 364 162 R 356 22 R 347 165 R 336 67 R
326 245 R 314 33 R 302 3001 R 290 144 R 275 38 R D
0.000 1.000 1.000 setrgbcolor 1300 4126 M 365 61 R 374 -47 R 380 180 R
386 230 R 390 78 R 393 111 R 395 59 R 395 67 R 394 119 R 393 -176 R
389 423 R 384 89 R 379 82 R 372 47 R 364 90 R 356 -23 R 347 42 R 336 -6 R
326 141 R 314 -4 R 302 26 R 290 36 R 275 41 R D
0.000 0.000 0.000 setrgbcolor 1300 8010 M 8300 0 R D 1900 8010 M 0 -205 R D
gsave 1900 8186 translate 0 0 M -294.217 0 N
(1.0) show grestore 3440 8010 M 0 -205 R D gsave 3440 8186 translate 0 0 M
-294.217 0 N
(0.8) show grestore 4980 8010 M 0 -205 R D gsave 4980 8186 translate 0 0 M
-294.217 0 N
(0.6) show grestore 6520 8010 M 0 -205 R D gsave 6520 8186 translate 0 0 M
-294.217 0 N
(0.4) show grestore 8060 8010 M 0 -205 R D gsave 8060 8186 translate 0 0 M
-294.217 0 N
(0.2) show grestore 9600 8010 M 0 -205 R D gsave 9600 8186 translate 0 0 M
-294.217 0 N
(0.0) show grestore 1515 8010 M 0 -103 R D 2285 8010 M 0 -103 R D
2670 8010 M 0 -103 R D 3055 8010 M 0 -103 R D 3825 8010 M 0 -103 R D
4210 8010 M 0 -103 R D 4595 8010 M 0 -103 R D 5365 8010 M 0 -103 R D
5750 8010 M 0 -103 R D 6135 8010 M 0 -103 R D 6905 8010 M 0 -103 R D
7290 8010 M 0 -103 R D 7675 8010 M 0 -103 R D 8445 8010 M 0 -103 R D
8830 8010 M 0 -103 R D 9215 8010 M 0 -103 R D
gsave 5450 8538 translate 0 0 M -776.393 0 N
(Redshift) show grestore 0.255 0.255 0.255 setrgbcolor 2647 7607 M 57 0 R
57 0 R 57 0 R 57 0 R 56 0 R 57 0 R 57 0 R 57 0 R 57 0 R D
1.000 0.000 0.706 setrgbcolor 2647 7194 M 57 0 R 57 0 R 57 0 R 57 0 R 56 0 R
57 0 R 57 0 R 57 0 R 57 0 R D 0.506 0.000 0.000 setrgbcolor 2647 6781 M
57 0 R 57 0 R 57 0 R 57 0 R 56 0 R 57 0 R 57 0 R 57 0 R 57 0 R D
1.000 0.349 0.000 setrgbcolor 2647 6367 M 57 0 R 57 0 R 57 0 R 57 0 R 56 0 R
57 0 R 57 0 R 57 0 R 57 0 R D 0.000 0.549 0.000 setrgbcolor 2647 5954 M
57 0 R 57 0 R 57 0 R 57 0 R 56 0 R 57 0 R 57 0 R 57 0 R 57 0 R D
0.255 0.255 0.255 setrgbcolor gsave 3216 7446 translate 0 0 M
(PhA) show grestore 1.000 0.000 0.706 setrgbcolor
gsave 3216 7032 translate 0 0 M
(PhB) show grestore 0.506 0.000 0.000 setrgbcolor
gsave 3216 6619 translate 0 0 M
(PhC) show grestore 1.000 0.349 0.000 setrgbcolor
gsave 3216 6206 translate 0 0 M
(PhD) show grestore 0.000 0.549 0.000 setrgbcolor
gsave 3216 5792 translate 0 0 M
(PhE) show grestore 0.000 0.514 1.000 setrgbcolor 4710 7607 M 57 0 R 57 0 R
57 0 R 57 0 R 57 0 R 56 0 R 57 0 R 57 0 R 57 0 R D
0.000 0.000 1.000 setrgbcolor 4710 7194 M 57 0 R 57 0 R 57 0 R 57 0 R 57 0 R
56 0 R 57 0 R 57 0 R 57 0 R D 0.588 0.000 0.588 setrgbcolor 4710 6781 M
57 0 R 57 0 R 57 0 R 57 0 R 57 0 R 56 0 R 57 0 R 57 0 R 57 0 R D
0.000 1.000 1.000 setrgbcolor 4710 6367 M 57 0 R 57 0 R 57 0 R 57 0 R 57 0 R
56 0 R 57 0 R 57 0 R 57 0 R D 0.000 0.514 1.000 setrgbcolor
gsave 5279 7446 translate 0 0 M
(PhF) show grestore 0.000 0.000 1.000 setrgbcolor
gsave 5279 7032 translate 0 0 M
(PhG) show grestore 0.588 0.000 0.588 setrgbcolor
gsave 5279 6619 translate 0 0 M
(PhH) show grestore 0.000 1.000 1.000 setrgbcolor
gsave 5279 6206 translate 0 0 M
(PhI) show grestore
%%PageTrailer
end
%%PageResources: font Helvetica
%%+ font Symbol
%%Trailer
%%Pages: 1
%%DocumentNeededResources: font Helvetica
%%+ font Symbol
%%EOF
