%!PS-Adobe-3.0 EPSF-3.0
%%BoundingBox: 0 0 283 226
%%Title: Graphics produced by IDL
%%For: jlgan@Hserver, /home/jlgan/work/phoenix
%%Creator: IDL Version 7.1.1 (linux x86_64 m64)
%%CreationDate: Tue Nov 11 15:48:10 2014
%%DocumentData: Clean7bit
%%Requirements: color
%%LanguageLevel: 1
%%PageOrder: Ascend
%%Pages: (atend)
%%DocumentNeededResources: (atend)
%%EndComments
%%BeginProlog
%+ prolog.ps -- Prolog for IDL generated PostScript files
%+ Copyright (c) 1988-2009 ITT Visual Information Solutions. All Rights Reserved.
%v 5
/$IDL_DICT 40 dict def $IDL_DICT begin /bdef { bind def } bind def /C
{currentpoint newpath moveto} bdef /CP {currentpoint} bdef /D {currentpoint
stroke moveto} bdef /F {closepath fill} bdef /K { setgray } bdef /M {moveto}
bdef /N {rmoveto} bdef /P {lineto} bdef /R {rlineto} bdef /S {gsave show
grestore} bdef /X {currentpoint pop} bdef /Z {gsave currentpoint lineto 20
setlinewidth 1 setlinecap stroke grestore} bdef /L0 {[] 0 setdash} bdef /L1
{[40 100] 0 setdash} bdef /L2 {[200 200] 0 setdash} bdef /L3 {[200 100 50
100] 0 setdash} bdef /L4 {[300 100 50 100 50 100 50 100] 0 setdash} bdef /L5
{[400 200] 0 setdash} bdef /STDFONT { findfont exch scalefont setfont } bdef
/ISOFONT { findfont dup length dict begin { 1 index /FID ne {def} {pop pop}
ifelse } forall /Encoding ISOLatin1Encoding def currentdict end /idltmpfont
exch definefont exch scalefont setfont } bdef /ISOBULLET { gsave /Helvetica
findfont exch scalefont setfont (\267) show currentpoint grestore moveto}
bdef /MITERLIMIT { 2.5 setmiterlimit } bdef end
%%EndProlog
%%Page: 0 1
%%PageRequirements: color
%%PageResources: (atend)
%%PageOrientation: Portrait
%%PageBoundingBox: 0 0 283 226
%%BeginPageSetup
$IDL_DICT begin 0.0283465 dup scale MITERLIMIT
%%IncludeResource: font Helvetica
423.333 /Helvetica STDFONT
%%EndPageSetup
30 setlinewidth L0 0.000 0.000 0.000 setrgbcolor 1300 1120 M 8500 0 R D
2320 1120 M 0 202 R D gsave 2320 592 translate 0 0 M -294.217 0 N
(0.2) show grestore 3680 1120 M 0 202 R D gsave 3680 592 translate 0 0 M
-294.217 0 N
(0.4) show grestore 5040 1120 M 0 202 R D gsave 5040 592 translate 0 0 M
-294.217 0 N
(0.6) show grestore 6400 1120 M 0 202 R D gsave 6400 592 translate 0 0 M
-294.217 0 N
(0.8) show grestore 7760 1120 M 0 202 R D gsave 7760 592 translate 0 0 M
-294.217 0 N
(1.0) show grestore 9120 1120 M 0 202 R D gsave 9120 592 translate 0 0 M
-294.217 0 N
(1.2) show grestore 1300 1120 M 0 101 R D 1640 1120 M 0 101 R D 1980 1120 M
0 101 R D 2660 1120 M 0 101 R D 3000 1120 M 0 101 R D 3340 1120 M 0 101 R D
4020 1120 M 0 101 R D 4360 1120 M 0 101 R D 4700 1120 M 0 101 R D
5380 1120 M 0 101 R D 5720 1120 M 0 101 R D 6060 1120 M 0 101 R D
6740 1120 M 0 101 R D 7080 1120 M 0 101 R D 7420 1120 M 0 101 R D
8100 1120 M 0 101 R D 8440 1120 M 0 101 R D 8780 1120 M 0 101 R D
9460 1120 M 0 101 R D 9800 1120 M 0 101 R D gsave 5550 134 translate 0 0 M
-142.316 0 N
(z) show X -101.051 M
%%IncludeResource: font Helvetica
262.467 /Helvetica STDFONT
(f) show grestore
%%IncludeResource: font Helvetica
423.333 /Helvetica STDFONT 1300 7840 M 8500 0 R D 2320 7840 M 0 -202 R D
3680 7840 M 0 -202 R D 5040 7840 M 0 -202 R D 6400 7840 M 0 -202 R D
7760 7840 M 0 -202 R D 9120 7840 M 0 -202 R D 1300 7840 M 0 -101 R D
1640 7840 M 0 -101 R D 1980 7840 M 0 -101 R D 2660 7840 M 0 -101 R D
3000 7840 M 0 -101 R D 3340 7840 M 0 -101 R D 4020 7840 M 0 -101 R D
4360 7840 M 0 -101 R D 4700 7840 M 0 -101 R D 5380 7840 M 0 -101 R D
5720 7840 M 0 -101 R D 6060 7840 M 0 -101 R D 6740 7840 M 0 -101 R D
7080 7840 M 0 -101 R D 7420 7840 M 0 -101 R D 8100 7840 M 0 -101 R D
8440 7840 M 0 -101 R D 8780 7840 M 0 -101 R D 9460 7840 M 0 -101 R D
9800 7840 M 0 -101 R D 1300 1120 M 0 6720 R D 1300 1120 M 255 0 R D
gsave 1189 1120 translate 0 0 M -235.373 0 N
(0) show grestore 1300 2804 M 255 0 R D gsave 1189 2663 translate 0 0 M
-235.373 0 N
(1) show grestore 1300 4488 M 255 0 R D gsave 1189 4348 translate 0 0 M
-235.373 0 N
(2) show grestore 1300 6173 M 255 0 R D gsave 1189 6032 translate 0 0 M
-235.373 0 N
(3) show grestore 1300 1288 M 128 0 R D 1300 1457 M 128 0 R D 1300 1625 M
128 0 R D 1300 1794 M 128 0 R D 1300 1962 M 128 0 R D 1300 2131 M 128 0 R D
1300 2299 M 128 0 R D 1300 2467 M 128 0 R D 1300 2636 M 128 0 R D
1300 2973 M 128 0 R D 1300 3141 M 128 0 R D 1300 3309 M 128 0 R D
1300 3478 M 128 0 R D 1300 3646 M 128 0 R D 1300 3815 M 128 0 R D
1300 3983 M 128 0 R D 1300 4152 M 128 0 R D 1300 4320 M 128 0 R D
1300 4657 M 128 0 R D 1300 4825 M 128 0 R D 1300 4994 M 128 0 R D
1300 5162 M 128 0 R D 1300 5331 M 128 0 R D 1300 5499 M 128 0 R D
1300 5667 M 128 0 R D 1300 5836 M 128 0 R D 1300 6004 M 128 0 R D
1300 6341 M 128 0 R D 1300 6509 M 128 0 R D 1300 6678 M 128 0 R D
1300 6846 M 128 0 R D 1300 7015 M 128 0 R D 1300 7183 M 128 0 R D
1300 7352 M 128 0 R D 1300 7520 M 128 0 R D 1300 7688 M 128 0 R D
gsave 621 4480 translate 0 0 M 90 rotate -448.945 0 N
%%IncludeResource: font Symbol
423.333 /Symbol STDFONT
(D) show
%%IncludeResource: font Helvetica
423.333 /Helvetica STDFONT
(M) show X -101.051 M
%%IncludeResource: font Helvetica
262.467 /Helvetica STDFONT
(12) show grestore
%%IncludeResource: font Helvetica
423.333 /Helvetica STDFONT 9800 1120 M 0 6720 R D 9800 1120 M -255 0 R D
9800 2804 M -255 0 R D 9800 4488 M -255 0 R D 9800 6173 M -255 0 R D
9800 1288 M -127 0 R D 9800 1457 M -127 0 R D 9800 1625 M -127 0 R D
9800 1794 M -127 0 R D 9800 1962 M -127 0 R D 9800 2131 M -127 0 R D
9800 2299 M -127 0 R D 9800 2467 M -127 0 R D 9800 2636 M -127 0 R D
9800 2973 M -127 0 R D 9800 3141 M -127 0 R D 9800 3309 M -127 0 R D
9800 3478 M -127 0 R D 9800 3646 M -127 0 R D 9800 3815 M -127 0 R D
9800 3983 M -127 0 R D 9800 4152 M -127 0 R D 9800 4320 M -127 0 R D
9800 4657 M -127 0 R D 9800 4825 M -127 0 R D 9800 4994 M -127 0 R D
9800 5162 M -127 0 R D 9800 5331 M -127 0 R D 9800 5499 M -127 0 R D
9800 5667 M -127 0 R D 9800 5836 M -127 0 R D 9800 6004 M -127 0 R D
9800 6341 M -127 0 R D 9800 6509 M -127 0 R D 9800 6678 M -127 0 R D
9800 6846 M -127 0 R D 9800 7015 M -127 0 R D 9800 7183 M -127 0 R D
9800 7352 M -127 0 R D 9800 7520 M -127 0 R D 9800 7688 M -127 0 R D L1
1299 4488 M 341 0 R 680 0 R 680 0 R 680 0 R 680 0 R 680 0 R 680 0 R 680 0 R
680 0 R 680 0 R 680 0 R 680 0 R 680 0 R D 0.255 0.255 0.255 setrgbcolor
gsave 8916 5559 translate 0 0 M -105.833 0 N
(x) show grestore gsave 8916 6080 translate 0 0 M -141.182 0 N
(A) show grestore 1.000 0.000 0.706 setrgbcolor
gsave 4088 4306 translate 0 0 M -105.833 0 N
(x) show grestore gsave 4088 4791 translate 0 0 M -141.182 0 N
(B) show grestore 0.506 0.000 0.000 setrgbcolor
gsave 6128 3363 translate 0 0 M -105.833 0 N
(x) show grestore gsave 6128 4267 translate 0 0 M -152.823 0 N
(C) show grestore 1.000 0.349 0.000 setrgbcolor
gsave 4088 5541 translate 0 0 M -105.833 0 N
(x) show grestore gsave 4088 6025 translate 0 0 M -152.823 0 N
(D) show grestore 0.000 0.549 0.000 setrgbcolor
gsave 7148 3602 translate 0 0 M -105.833 0 N
(x) show grestore gsave 7148 4480 translate 0 0 M -141.182 0 N
(E) show grestore 0.000 0.514 1.000 setrgbcolor
gsave 8440 4942 translate 0 0 M -105.833 0 N
(x) show grestore gsave 8440 5484 translate 0 0 M -129.328 0 N
(F) show grestore 0.000 0.000 1.000 setrgbcolor
gsave 2184 3374 translate 0 0 M -105.833 0 N
(x) show grestore gsave 2184 3859 translate 0 0 M -164.677 0 N
(G) show grestore 0.588 0.000 0.588 setrgbcolor
gsave 2388 4921 translate 0 0 M -105.833 0 N
(x) show grestore gsave 2388 5406 translate 0 0 M -152.823 0 N
(H) show grestore 0.000 1.000 1.000 setrgbcolor
gsave 4768 5514 translate 0 0 M -105.833 0 N
(x) show grestore gsave 4768 5998 translate 0 0 M -58.8433 0 N
(I) show grestore 0.255 0.255 0.255 setrgbcolor
gsave 8916 5596 translate 0 0 M -123.613 0 N
(+) show grestore 1.000 0.000 0.706 setrgbcolor
gsave 4088 1052 translate 0 0 M -123.613 0 N
(+) show grestore 0.506 0.000 0.000 setrgbcolor
gsave 6128 3782 translate 0 0 M -123.613 0 N
(+) show grestore 1.000 0.349 0.000 setrgbcolor
gsave 4088 1564 translate 0 0 M -123.613 0 N
(+) show grestore 0.000 0.549 0.000 setrgbcolor
gsave 7148 3996 translate 0 0 M -123.613 0 N
(+) show grestore 0.000 0.514 1.000 setrgbcolor
gsave 8440 4999 translate 0 0 M -123.613 0 N
(+) show grestore 0.000 0.000 1.000 setrgbcolor
gsave 2184 2071 translate 0 0 M -123.613 0 N
(+) show grestore 0.588 0.000 0.588 setrgbcolor
gsave 2388 1040 translate 0 0 M -123.613 0 N
(+) show grestore 0.000 1.000 1.000 setrgbcolor
gsave 4768 5050 translate 0 0 M -123.613 0 N
(+) show grestore 0.255 0.255 0.255 setrgbcolor
gsave 8916 2365 translate 0 0 M -82.3383 0 N
(*) show grestore 1.000 0.000 0.706 setrgbcolor
gsave 4088 1101 translate 0 0 M -82.3383 0 N
(*) show grestore 0.506 0.000 0.000 setrgbcolor
gsave 6128 1738 translate 0 0 M -82.3383 0 N
(*) show grestore 1.000 0.349 0.000 setrgbcolor
gsave 4088 2132 translate 0 0 M -82.3383 0 N
(*) show grestore 0.000 0.549 0.000 setrgbcolor
gsave 7148 1787 translate 0 0 M -82.3383 0 N
(*) show grestore 0.000 0.514 1.000 setrgbcolor
gsave 8440 4668 translate 0 0 M -82.3383 0 N
(*) show grestore 0.000 0.000 1.000 setrgbcolor
gsave 2184 1185 translate 0 0 M -82.3383 0 N
(*) show grestore 0.588 0.000 0.588 setrgbcolor
gsave 2388 2343 translate 0 0 M -82.3383 0 N
(*) show grestore 0.000 1.000 1.000 setrgbcolor
gsave 4768 3877 translate 0 0 M -82.3383 0 N
(*) show grestore L0 0.000 0.000 0.000 setrgbcolor 2473 7289 M -222 -222 R
111 111 R -111 111 R 222 -222 R D 2473 7289 M -222 -222 R 111 111 R
-111 111 R 222 -222 R D 2251 6766 M 222 0 R -111 0 R 0 111 R 0 -222 R D
2251 6766 M 222 0 R -111 0 R 0 111 R 0 -222 R D 2251 6354 M 222 0 R -111 0 R
0 111 R 0 -222 R 0 111 R 111 111 R -222 -222 R 111 111 R -111 111 R
222 -222 R D 2251 6354 M 222 0 R -111 0 R 0 111 R 0 -222 R 0 111 R 111 111 R
-222 -222 R 111 111 R -111 111 R 222 -222 R D
gsave 2718 7023 translate 0 0 M
(z) show
%%IncludeResource: font Symbol
423.333 /Symbol STDFONT
(\273) show
%%IncludeResource: font Helvetica
423.333 /Helvetica STDFONT
(0.0) show grestore gsave 2718 6611 translate 0 0 M
(z) show
%%IncludeResource: font Symbol
423.333 /Symbol STDFONT
(\273) show
%%IncludeResource: font Helvetica
423.333 /Helvetica STDFONT
(0.3) show grestore gsave 2718 6199 translate 0 0 M
(z) show
%%IncludeResource: font Symbol
423.333 /Symbol STDFONT
(\273) show
%%IncludeResource: font Helvetica
423.333 /Helvetica STDFONT
(1.0) show grestore
%%PageTrailer
end
%%PageResources: font Helvetica
%%+ font Symbol
%%Trailer
%%Pages: 1
%%DocumentNeededResources: font Helvetica
%%+ font Symbol
%%EOF
