%!PS-Adobe-3.0
%%BoundingBox: 54 360 507 700
%%Title: Graphics produced by IDL
%%For: jlgan@Hserver, /home/jlgan/work/phoenix
%%Creator: IDL Version 7.1.1 (linux x86_64 m64)
%%CreationDate: Tue Nov  4 15:49:54 2014
%%DocumentData: Clean7bit
%%Requirements: color
%%LanguageLevel: 1
%%PageOrder: Ascend
%%Pages: (atend)
%%DocumentNeededResources: (atend)
%%EndComments
%%BeginProlog
save
%+ prolog.ps -- Prolog for IDL generated PostScript files
%+ Copyright (c) 1988-2009 ITT Visual Information Solutions. All Rights Reserved.
%v 5
/$IDL_DICT 40 dict def $IDL_DICT begin /bdef { bind def } bind def /C
{currentpoint newpath moveto} bdef /CP {currentpoint} bdef /D {currentpoint
stroke moveto} bdef /F {closepath fill} bdef /K { setgray } bdef /M {moveto}
bdef /N {rmoveto} bdef /P {lineto} bdef /R {rlineto} bdef /S {gsave show
grestore} bdef /X {currentpoint pop} bdef /Z {gsave currentpoint lineto 20
setlinewidth 1 setlinecap stroke grestore} bdef /L0 {[] 0 setdash} bdef /L1
{[40 100] 0 setdash} bdef /L2 {[200 200] 0 setdash} bdef /L3 {[200 100 50
100] 0 setdash} bdef /L4 {[300 100 50 100 50 100 50 100] 0 setdash} bdef /L5
{[400 200] 0 setdash} bdef /STDFONT { findfont exch scalefont setfont } bdef
/ISOFONT { findfont dup length dict begin { 1 index /FID ne {def} {pop pop}
ifelse } forall /Encoding ISOLatin1Encoding def currentdict end /idltmpfont
exch definefont exch scalefont setfont } bdef /ISOBULLET { gsave /Helvetica
findfont exch scalefont setfont (\267) show currentpoint grestore moveto}
bdef /MITERLIMIT { 2.5 setmiterlimit } bdef end
%%EndProlog
%%Page: 0 1
%%PageRequirements: color
%%PageResources: (atend)
%%PageOrientation: Portrait
%%PageBoundingBox: 54 360 507 700
%%BeginPageSetup
save
$IDL_DICT begin 54 360 translate 0.0283465 dup scale MITERLIMIT
%%IncludeResource: font Helvetica
423.333 /Helvetica STDFONT
%%EndPageSetup
30 setlinewidth L0 0.000 0.000 0.000 setrgbcolor 4991 12013 M 0 -613 R D
4991 12013 M 380 0 R D 4991 11721 M 234 0 R D 5634 11809 M -58 -29 R
-59 -59 R -29 -87 R 0 -59 R 29 -87 R 59 -59 R 58 -29 R 88 0 R 58 29 R
58 59 R 30 87 R 0 59 R -30 87 R -58 59 R -58 29 R -88 0 R D 6072 11809 M
0 -409 R D 6072 11692 M 88 88 R 58 29 R 88 0 R 58 -29 R 29 -88 R 0 -292 R D
6656 12013 M 0 -496 R 30 -88 R 58 -29 R 58 0 R D 6569 11809 M 204 0 R D
7445 11867 M 0 30 R 29 58 R 29 29 R 59 29 R 117 0 R 58 -29 R 29 -29 R
30 -58 R 0 -59 R -30 -58 R -58 -88 R -292 -292 R 409 0 R D 8175 12013 M
-87 -29 R -59 -87 R -29 -146 R 0 -88 R 29 -146 R 59 -88 R 87 -29 R 59 0 R
87 29 R 59 88 R 29 146 R 0 88 R -29 146 R -59 87 R -87 29 R -59 0 R D
8672 11429 M -29 -29 R -30 29 R 30 29 R 29 -29 R 0 -87 R -29 -59 R -30 -29 R
D 9548 12013 M -58 0 R -59 -29 R -29 -87 R 0 -497 R D 9314 11809 M 205 0 R D
9840 11809 M -58 -29 R -59 -59 R -29 -87 R 0 -59 R 29 -87 R 59 -59 R
58 -29 R 88 0 R 58 29 R 59 59 R 29 87 R 0 59 R -29 87 R -59 59 R -58 29 R
-88 0 R D 10278 11809 M 0 -409 R D 10278 11692 M 88 88 R 58 29 R 88 0 R
59 -29 R 29 -88 R 0 -292 R D 10863 12013 M 0 -496 R 29 -88 R 58 -29 R 59 0 R
D 10775 11809 M 204 0 R D 554 10805 M -23 -11 R -23 -24 R -12 -23 R
-12 -35 R 0 -59 R 12 -35 R 12 -23 R 23 -23 R 23 -12 R 47 0 R 23 12 R 24 23 R
11 23 R 12 35 R 0 59 R -12 35 R -11 23 R -24 24 R -23 11 R -47 0 R D
881 10689 M -23 23 R -23 12 R -35 0 R -24 -12 R -23 -23 R -12 -36 R 0 -23 R
12 -35 R 23 -23 R 24 -12 R 35 0 R 23 12 R 23 23 R D 975 10805 M 0 -198 R
12 -35 R 23 -12 R 23 0 R D 940 10724 M 82 0 R D 1232 10724 M 0 -164 R D
1232 10689 M -23 23 R -24 12 R -35 0 R -23 -12 R -24 -23 R -11 -36 R 0 -23 R
11 -35 R 24 -23 R 23 -12 R 35 0 R 24 12 R 23 23 R D 1325 10805 M 0 -245 R D
480 10440 M 0 -10080 R D 1667 10805 M -35 -11 R -24 -35 R -11 -59 R 0 -35 R
11 -58 R 24 -35 R 35 -12 R 23 0 R 35 12 R 24 35 R 11 58 R 0 35 R -11 59 R
-24 35 R -35 11 R -23 0 R D 1901 10805 M -36 -11 R -23 -35 R -12 -59 R
0 -35 R 12 -58 R 23 -35 R 36 -12 R 23 0 R 35 12 R 23 35 R 12 58 R 0 35 R
-12 59 R -23 35 R -35 11 R -23 0 R D 1365 10440 M 0 -10080 R D 2552 10805 M
-35 -11 R -24 -35 R -12 -59 R 0 -35 R 12 -58 R 24 -35 R 35 -12 R 23 0 R
35 12 R 23 35 R 12 58 R 0 35 R -12 59 R -23 35 R -35 11 R -23 0 R D
2750 10759 M 24 11 R 35 35 R 0 -245 R D 2249 10440 M 0 -10080 R D
3436 10805 M -35 -11 R -23 -35 R -12 -59 R 0 -35 R 12 -58 R 23 -35 R
35 -12 R 24 0 R 35 12 R 23 35 R 12 58 R 0 35 R -12 59 R -23 35 R -35 11 R
-24 0 R D 3612 10747 M 0 12 R 11 23 R 12 12 R 23 11 R 47 0 R 23 -11 R
12 -12 R 12 -23 R 0 -24 R -12 -23 R -23 -35 R -117 -117 R 163 0 R D
3134 10440 M 0 -10080 R D 4321 10805 M -35 -11 R -23 -35 R -12 -59 R 0 -35 R
12 -58 R 23 -35 R 35 -12 R 23 0 R 35 12 R 24 35 R 11 58 R 0 35 R -11 59 R
-24 35 R -35 11 R -23 0 R D 4508 10805 M 128 0 R -70 -93 R 35 0 R 24 -12 R
11 -11 R 12 -36 R 0 -23 R -12 -35 R -23 -23 R -35 -12 R -35 0 R -35 12 R
-12 11 R -11 24 R D 4019 10440 M 0 -10080 R D 5206 10805 M -35 -11 R
-24 -35 R -11 -59 R 0 -35 R 11 -58 R 24 -35 R 35 -12 R 23 0 R 35 12 R
23 35 R 12 58 R 0 35 R -12 59 R -23 35 R -35 11 R -23 0 R D 5486 10805 M
-117 -163 R 176 0 R D 5486 10805 M 0 -245 R D 4904 10440 M 0 -10080 R D
6090 10805 M -35 -11 R -23 -35 R -12 -59 R 0 -35 R 12 -58 R 23 -35 R
35 -12 R 24 0 R 35 12 R 23 35 R 12 58 R 0 35 R -12 59 R -23 35 R -35 11 R
-24 0 R D 6394 10805 M -117 0 R -11 -105 R 11 12 R 35 12 R 35 0 R 35 -12 R
24 -23 R 12 -36 R 0 -23 R -12 -35 R -24 -23 R -35 -12 R -35 0 R -35 12 R
-11 11 R -12 24 R D 5788 10440 M 0 -10080 R D 6975 10805 M -35 -11 R
-23 -35 R -12 -59 R 0 -35 R 12 -58 R 23 -35 R 35 -12 R 23 0 R 36 12 R
23 35 R 12 58 R 0 35 R -12 59 R -23 35 R -36 11 R -23 0 R D 7291 10770 M
-12 24 R -35 11 R -24 0 R -35 -11 R -23 -35 R -12 -59 R 0 -58 R 12 -47 R
23 -23 R 35 -12 R 12 0 R 35 12 R 24 23 R 11 35 R 0 12 R -11 35 R -24 23 R
-35 12 R -12 0 R -35 -12 R -23 -23 R -12 -35 R D 6673 10440 M 0 -10080 R D
7860 10805 M -35 -11 R -24 -35 R -11 -59 R 0 -35 R 11 -58 R 24 -35 R
35 -12 R 23 0 R 35 12 R 24 35 R 11 58 R 0 35 R -11 59 R -24 35 R -35 11 R
-23 0 R D 8187 10805 M -117 -245 R D 8023 10805 M 164 0 R D 7558 10440 M
0 -10080 R D 8709 10759 M 24 11 R 35 35 R 0 -245 R D 8978 10805 M -35 -11 R
-23 -35 R -12 -59 R 0 -35 R 12 -58 R 23 -35 R 35 -12 R 24 0 R 35 12 R
23 35 R 12 58 R 0 35 R -12 59 R -23 35 R -35 11 R -24 0 R D 8442 10440 M
0 -10080 R D 9594 10759 M 24 11 R 35 35 R 0 -245 R D 9828 10759 M 23 11 R
35 35 R 0 -245 R D 9327 10440 M 0 -10080 R D 10479 10759 M 23 11 R 35 35 R
0 -245 R D 10689 10747 M 0 12 R 12 23 R 12 12 R 23 11 R 47 0 R 23 -11 R
12 -12 R 11 -23 R 0 -24 R -11 -23 R -24 -35 R -117 -117 R 164 0 R D
10212 10440 M 0 -10080 R D 11364 10759 M 23 11 R 35 35 R 0 -245 R D
11586 10805 M 128 0 R -70 -93 R 35 0 R 23 -12 R 12 -11 R 12 -36 R 0 -23 R
-12 -35 R -23 -23 R -35 -12 R -35 0 R -35 12 R -12 11 R -12 24 R D
11096 10440 M 0 -10080 R D 12248 10759 M 24 11 R 35 35 R 0 -245 R D
12564 10805 M -117 -163 R 175 0 R D 12564 10805 M 0 -245 R D 11981 10440 M
0 -10080 R D 13133 10759 M 23 11 R 35 35 R 0 -245 R D 13472 10805 M -117 0 R
-12 -105 R 12 12 R 35 12 R 35 0 R 35 -12 R 24 -23 R 11 -36 R 0 -23 R
-11 -35 R -24 -23 R -35 -12 R -35 0 R -35 12 R -12 11 R -11 24 R D
12866 10440 M 0 -10080 R D 14018 10759 M 23 11 R 35 35 R 0 -245 R D
14368 10770 M -11 24 R -36 11 R -23 0 R -35 -11 R -23 -35 R -12 -59 R
0 -58 R 12 -47 R 23 -23 R 35 -12 R 12 0 R 35 12 R 23 23 R 12 35 R 0 12 R
-12 35 R -23 23 R -35 12 R -12 0 R -35 -12 R -23 -23 R -12 -35 R D
13751 10440 M 0 -10080 R D 14902 10759 M 24 11 R 35 35 R 0 -245 R D
15265 10805 M -117 -245 R D 15101 10805 M 164 0 R D 14635 10440 M 0 -10080 R
D 15520 10440 M 0 -10080 R D 480 10440 M 15040 0 R D 480 8760 M 15040 0 R D
683 9341 M -35 -11 R -24 -35 R -11 -59 R 0 -35 R 11 -58 R 24 -35 R 35 -12 R
23 0 R 35 12 R 24 35 R 11 58 R 0 35 R -11 59 R -24 35 R -35 11 R -23 0 R D
963 9341 M -117 -163 R 176 0 R D 963 9341 M 0 -245 R D 1080 9260 M
129 -164 R D 1209 9260 M -129 -164 R D 1795 9254 M 233 -281 R D 1795 9254 M
47 -47 R 46 -23 R 70 0 R 47 23 R 23 24 R 0 46 R -46 0 R 0 -46 R -24 -47 R
-116 23 R D 1888 9184 M 140 47 R D 2005 9277 M 0 -70 R D 1982 9254 M 46 0 R
D 2028 8973 M -46 47 R -47 24 R -70 0 R -47 -24 R -23 -23 R 0 -47 R 47 0 R
0 47 R 23 47 R 117 -24 R D 1935 9044 M -140 -47 R D 1818 9020 M 0 -70 R D
1795 8973 M 47 0 R D 2843 9347 M -23 24 R -47 23 R -70 0 R -47 -23 R
-23 -24 R -24 -46 R 0 -47 R 24 -47 R 23 -23 R 140 -94 R 24 -23 R 23 -47 R
0 -47 R -23 -46 R -24 -24 R -46 -23 R -70 0 R -47 23 R -24 24 R D
3798 9955 M -70 -70 R -47 -70 R -47 -94 R -23 -117 R 0 -140 R 23 -140 R
24 -93 R 70 -258 R 23 -93 R 24 -140 R 0 -117 R -24 -117 R -23 -70 R
-47 -93 R D 3728 9885 M -47 -94 R -23 -70 R -24 -117 R 0 -116 R 24 -141 R
23 -93 R 70 -257 R 24 -94 R 23 -140 R 0 -140 R -23 -117 R -47 -93 R
-47 -70 R -70 -71 R D 4589 9090 M 24 -46 R 46 -24 R 47 0 R 47 24 R 23 46 R
0 47 R -23 47 R -47 23 R -47 0 R -46 -23 R -24 -24 R -23 -70 R 0 -70 R
23 -70 R 47 -47 R 70 -23 R 70 0 R 70 23 R 47 47 R 23 47 R 24 70 R 0 93 R
-24 71 R -46 70 R -47 23 R -70 23 R -70 0 R -70 -23 R -47 -23 R -47 -47 R
-47 -70 R -23 -94 R 0 -117 R 23 -116 R 47 -94 R 47 -47 R 70 -46 R 93 -24 R
117 0 R 94 24 R 70 46 R 47 47 R D 4519 9254 M -23 -47 R -24 -93 R 0 -141 R
24 -93 R 46 -93 R 47 -47 R 70 -47 R 94 -23 R 93 0 R 94 23 R 46 23 R 71 47 R
D 4636 9184 M 93 0 R D 4613 9160 M 140 0 R D 4589 9137 M 187 0 R D
4589 9114 M 187 0 R D 4589 9090 M 187 0 R D 4613 9067 M 140 0 R D
4636 9044 M 93 0 R D 5033 9254 M 0 -47 R 47 0 R 0 47 R -47 0 R D 5057 9254 M
0 -47 R D 5033 9231 M 47 0 R D 5033 9020 M 0 -47 R 47 0 R 0 47 R -47 0 R D
5057 9020 M 0 -47 R D 5033 8997 M 47 0 R D 5334 9324 M 0 -70 R D 5801 9324 M
0 -70 R D 5334 9324 M 467 0 R D 5334 9301 M 467 0 R D 5334 9277 M 467 0 R D
5334 9254 M 467 0 R D 6242 9581 M 0 -935 R D 6265 9581 M 0 -935 R D
6359 9581 M 0 -935 R D 6452 9488 M 47 0 R 0 -47 R -47 0 R 0 70 R 23 47 R
47 23 R 70 0 R 47 -23 R 47 -47 R 23 -70 R 0 -117 R -23 -70 R -47 -47 R
-47 -23 R -47 0 R -46 23 R -24 47 R -23 -47 R -47 -70 R -23 -23 R 23 -24 R
47 -70 R 23 -47 R 24 47 R 46 24 R 47 0 R 47 -24 R 47 -47 R 23 -70 R 0 -116 R
-23 -71 R -47 -46 R -47 -24 R -70 0 R -47 24 R -23 46 R 0 71 R 47 0 R
0 -47 R -47 0 R D 6475 9488 M 0 -47 R D 6452 9464 M 47 0 R D 6639 9558 M
23 -47 R 24 -70 R 0 -117 R -24 -70 R -23 -47 R D 6475 9254 M 0 -47 R
-46 -70 R -47 -23 R 47 -24 R 46 -70 R 0 -47 R D 6639 9020 M 23 -47 R
24 -70 R 0 -116 R -24 -71 R -23 -46 R D 6475 8787 M 0 -47 R D 6452 8763 M
47 0 R D 7080 8997 M -24 23 R -23 47 R 0 70 R 23 47 R 24 23 R 46 24 R 47 0 R
47 -24 R 23 -23 R 94 -140 R 23 -24 R 47 -23 R 47 0 R 46 23 R 24 24 R 23 46 R
0 70 R -23 47 R -24 24 R D 8175 9114 M 46 -70 R 24 -24 R 47 -23 R 46 0 R
47 23 R 23 24 R 24 46 R 0 47 R -24 47 R -23 23 R -47 24 R -46 0 R -47 -24 R
-24 -23 R -93 -140 R -23 -24 R -47 -23 R -47 0 R -47 23 R -23 24 R -23 46 R
0 47 R 23 47 R 23 23 R 47 24 R 47 0 R 47 -24 R 23 -23 R 47 -70 R D
8896 9394 M 0 -421 R D 9083 9254 M 0 -421 R D 8896 9207 M 187 47 R D
8896 9184 M 187 47 R D 8896 8997 M 187 47 R D 8896 8973 M 187 47 R D
9781 9488 M 0 -491 R D 9781 9207 M 70 47 R 70 0 R 46 -23 R 24 -47 R 0 -47 R
-24 -47 R -70 -46 R -46 -24 R -70 -23 R D 9781 9207 M 70 24 R 70 0 R
46 -24 R D 9944 9231 M 23 -47 R 0 -47 R -23 -47 R -47 -46 R D 10782 9231 M
-70 -24 R -47 -47 R -23 -46 R 0 -47 R 23 -47 R 47 -23 R 47 0 R 70 23 R
47 47 R 23 47 R 0 46 R -23 47 R -47 24 R -47 0 R D 10689 9160 M 140 71 R D
10665 9114 M 187 93 R D 10642 9067 M 234 117 R D 10665 9044 M 234 116 R D
10689 9020 M 187 94 R D 10712 8997 M 140 70 R D 11714 9231 M -94 -24 R
-70 -47 R -23 -46 R 0 -47 R 23 -47 R 47 -23 R 70 0 R 93 23 R 70 47 R 24 47 R
0 46 R -24 47 R -46 24 R -70 0 R 116 -24 R D 11784 9231 M -117 -24 R
-117 -47 R D 11620 9207 M -93 -93 R D 11550 9020 M 117 -23 R D 11597 8997 M
117 23 R 116 47 R D 11760 9020 M 94 94 R D 12481 9184 M -23 47 R 0 46 R
-47 0 R 0 -46 R 24 -24 R 46 -23 R 70 0 R 47 23 R 47 47 R D 12435 9277 M
0 -70 R D 12411 9254 M 47 0 R D 12411 9231 M 140 -47 R D 12481 9184 M
117 23 R D 12645 9254 M 0 -304 R D 13483 9231 M -94 -24 R -70 -47 R
-23 -46 R 0 -47 R 23 -47 R 47 -23 R 70 0 R 94 23 R 70 47 R 23 47 R 0 46 R
-23 47 R -47 24 R -70 0 R 117 -24 R D 13553 9231 M -117 -24 R -117 -47 R D
13389 9207 M -93 -93 R D 13319 9020 M 117 -23 R D 13366 8997 M 117 23 R
117 47 R D 13530 9020 M 93 94 R D 14251 8646 M 23 0 R 24 24 R 0 23 R
-24 23 R -23 0 R -24 -23 R 0 -47 R 24 -46 R 47 -24 R 46 0 R 70 24 R 47 46 R
23 47 R 24 94 R 0 257 R -24 607 R 0 164 R 24 117 R 23 46 R 47 24 R 23 0 R
47 -24 R 23 -46 R 0 -94 R -23 -70 R -23 -47 R -47 -70 R -117 -93 R
-140 -94 R -47 -47 R -47 -70 R -23 -46 R -23 -94 R 0 -93 R 23 -94 R 47 -70 R
70 -47 R 93 -23 R 94 0 R 93 23 R 47 24 R 47 70 R 23 70 R 0 93 R -23 71 R
-24 46 R -46 47 R -70 23 R -94 0 R -70 -23 R -47 -47 R -23 -70 R 0 -93 R
23 -70 R 47 -47 R D 14251 8693 M 0 -23 R 23 0 R 0 23 R -23 0 R D
14578 9651 M -94 -93 R -116 -94 R -70 -70 R -47 -70 R -24 -47 R -23 -70 R
0 -93 R 23 -94 R 24 -47 R 70 -70 R D 14508 8880 M 70 23 R 47 24 R 46 70 R
24 70 R 0 93 R -24 71 R -23 46 R -47 47 R -46 23 R D 15112 9371 M 0 -538 R D
15252 9394 M 0 -537 R D 15065 9207 M 234 47 R D 15065 9184 M 234 47 R D
15065 8997 M 234 47 R D 15065 8973 M 234 47 R D 480 7080 M 15040 0 R D
683 7661 M -35 -11 R -24 -35 R -11 -59 R 0 -35 R 11 -58 R 24 -35 R 35 -12 R
23 0 R 35 12 R 24 35 R 11 58 R 0 35 R -11 59 R -24 35 R -35 11 R -23 0 R D
998 7626 M -11 24 R -35 11 R -24 0 R -35 -11 R -23 -35 R -12 -59 R 0 -58 R
12 -47 R 23 -23 R 35 -12 R 12 0 R 35 12 R 23 23 R 12 35 R 0 12 R -12 35 R
-23 23 R -35 12 R -12 0 R -35 -12 R -23 -23 R -12 -35 R D 1080 7580 M
129 -164 R D 1209 7580 M -129 -164 R D 1748 7597 M 70 70 R 47 -70 R 0 -257 R
D 1795 7644 M 47 -70 R 0 -234 R D 1865 7597 M 70 70 R 47 -70 R 0 -233 R D
1912 7644 M 46 -70 R 0 -210 R D 1982 7597 M 70 70 R 47 -70 R 0 -374 R D
2028 7644 M 47 -70 R 0 -351 R D 2099 7597 M 70 70 R 23 -46 R 23 -70 R
0 -71 R -23 -70 R -23 -46 R -47 -47 R -70 -47 R -117 -47 R D 2145 7644 M
24 -23 R 23 -70 R 0 -71 R -23 -70 R -24 -46 R -46 -47 R -71 -47 R -93 -47 R
D 2680 7410 M 93 0 R -23 24 R -24 70 R 0 47 R 24 70 R 46 46 R 70 24 R 47 0 R
70 -24 R 47 -46 R 23 -70 R 0 -47 R -23 -70 R -23 -24 R 93 0 R D 2680 7387 M
140 0 R -47 47 R -23 70 R 0 47 R 23 70 R 47 46 R 46 24 R D 2913 7691 M
47 -24 R 47 -46 R 23 -70 R 0 -47 R -23 -70 R -47 -47 R 140 0 R D 2726 7293 M
327 0 R D 2726 7270 M 327 0 R D 3517 7574 M 71 70 R 70 -70 R 0 -281 R D
3564 7621 M 70 -70 R 0 -258 R D 3658 7574 M 70 70 R 70 -70 R 0 -281 R D
3704 7621 M 71 -70 R 0 -258 R D 3798 7574 M 70 70 R 70 -70 R 0 -257 R
47 -47 R D 3845 7621 M 70 -70 R 0 -258 R 46 -46 R 71 70 R D 4823 7644 M
-374 -374 R D 4823 7644 M -70 -23 R -140 0 R D 4776 7597 M -70 0 R -93 24 R
D 4823 7644 M -24 -70 R 0 -140 R D 4776 7597 M 0 -70 R 23 -93 R D
4613 7434 M -164 0 R D 4589 7410 M -70 0 R -70 24 R D 4613 7434 M 0 -164 R D
4589 7410 M 0 -70 R 24 -70 R D 5310 7504 M 47 93 R 117 -233 R D 5357 7551 M
117 -234 R 70 163 R 117 0 R 70 24 R 23 47 R 0 46 R -23 47 R -47 23 R -23 0 R
-47 -23 R -23 -47 R 0 -46 R 23 -71 R 23 -46 R 24 -70 R 0 -71 R -47 -46 R D
5661 7667 M -24 -23 R -23 -47 R 0 -46 R 47 -94 R 23 -70 R 0 -70 R -23 -47 R
-47 -23 R D 6218 7504 M 70 70 R 94 -47 R D 6265 7551 M 94 -47 R 70 70 R
70 -47 R D 6405 7551 M 70 -47 R 70 70 R 47 -47 R D 6522 7551 M 47 -47 R
70 70 R D 6218 7364 M 70 70 R 94 -47 R D 6265 7410 M 94 -46 R 70 70 R
70 -47 R D 6405 7410 M 70 -46 R 70 70 R 47 -47 R D 6522 7410 M 47 -46 R
70 70 R D 7126 7667 M 94 -46 R 47 -47 R 23 -70 R 0 -70 R -23 -70 R -47 -47 R
-94 -47 R D 7126 7667 M 71 -23 R 46 -23 R 47 -47 R 23 -70 R D 7313 7434 M
-23 -70 R -47 -47 R -46 -24 R -71 -23 R D 7500 7667 M -70 -23 R -47 -23 R
-46 -47 R -24 -70 R D 7313 7434 M 24 -70 R 46 -47 R 47 -24 R 70 -23 R D
7500 7667 M -93 -46 R -47 -47 R -23 -70 R 0 -70 R 23 -70 R 47 -47 R 93 -47 R
D 7103 7480 M 421 0 R D 7103 7457 M 421 0 R D 7988 7457 M 0 -47 R 46 0 R
0 47 R -46 0 R 46 -47 R D 8034 7457 M -46 -47 R D 8872 7480 M 94 -46 R
70 -47 R 47 -47 R 23 -70 R 0 -47 R -23 -46 R -24 -24 R D 8872 7457 M
141 -70 R D 8872 7434 M 71 -24 R 93 -46 R 47 -47 R 23 -47 R D 9991 7597 M
-24 -46 R -46 -47 R -94 -47 R -70 -23 R D 9897 7480 M -140 -70 R D
9944 7714 M 23 -23 R 24 -47 R 0 -47 R -24 -70 R -46 -47 R -70 -46 R
-94 -47 R D 10689 7597 M -24 -46 R -46 -71 R -47 -46 R D 10689 7597 M
23 -46 R 47 -71 R 46 -46 R D 10689 7551 M -70 -94 R D 10689 7551 M 70 -94 R
D 10689 7504 M -47 -47 R D 10689 7504 M 46 -47 R D 10665 7457 M 47 0 R D
10572 7434 M 233 0 R D 11597 7597 M -70 -23 R -47 -47 R -24 -70 R 0 -47 R
24 -70 R 47 -47 R 70 -23 R 46 0 R 71 23 R 46 47 R 24 70 R 0 47 R -24 70 R
-46 47 R -71 23 R -46 0 R D 12575 7831 M -70 -23 R -47 -24 R -47 -47 R
-46 -70 R -24 -93 R 0 -140 R 24 -70 R 46 -47 R 70 -24 R 47 0 R 70 24 R
47 47 R 23 70 R D 12341 7480 M 24 71 R 46 46 R 70 24 R 47 0 R 70 -24 R
47 -46 R 23 -71 R 0 -140 R -23 -93 R -47 -70 R -47 -47 R -46 -23 R -70 -24 R
D 13296 7527 M 0 -70 R D 13530 7527 M 0 -70 R D 13296 7527 M 234 0 R D
13296 7504 M 234 0 R D 13296 7480 M 234 0 R D 13296 7457 M 234 0 R D
14111 7364 M 0 140 R 654 0 R 0 -140 R D 15065 7714 M 0 -491 R D 14995 7714 M
444 0 R -233 -234 R 233 -233 R D 15416 7340 M 23 -70 R 24 -47 R D
15416 7340 M 0 -70 R -70 0 R 70 -23 R 47 -24 R D 480 5400 M 15040 0 R D
648 5935 M 23 11 R 35 35 R 0 -245 R D 917 5981 M -36 -11 R -23 -35 R
-12 -59 R 0 -35 R 12 -58 R 23 -35 R 36 -12 R 23 0 R 35 12 R 23 35 R 12 58 R
0 35 R -12 59 R -23 35 R -35 11 R -23 0 R D 1080 5900 M 129 -164 R D
1209 5900 M -129 -164 R D 1912 6081 M -187 -327 R D 1912 6081 M 187 -327 R D
2609 5754 M 0 23 R 24 47 R 23 23 R 47 24 R 47 0 R 46 -24 R 24 -23 R 23 -47 R
0 -23 R D 2680 5847 M 93 0 R D 2656 5824 M 140 0 R D 2633 5800 M 187 0 R D
2633 5777 M 187 0 R D 2609 5754 M 234 0 R D 3564 5847 M -47 -23 R -23 -47 R
0 -47 R 23 -46 R 47 -24 R 47 0 R 47 24 R 23 46 R 0 47 R -23 47 R -47 23 R
-47 0 R D 3517 5777 M 0 -47 R D 3541 5800 M 0 -93 R D 3564 5824 M 0 -140 R D
3588 5824 M 0 -140 R D 3611 5824 M 0 -140 R D 3634 5800 M 0 -93 R D
3658 5777 M 0 -47 R D 4496 5894 M -117 -210 R 234 0 R -117 210 R D
4496 5824 M -70 -117 R D 4496 5824 M 70 -117 R D 4496 5754 M -24 -47 R D
4496 5754 M 23 -47 R D 5380 5613 M 117 211 R -233 0 R 116 -211 R D
5380 5684 M 70 116 R D 5380 5684 M -70 116 R D 5380 5754 M 24 46 R D
5380 5754 M -23 46 R D 6288 5894 M -93 -257 R 234 163 R -281 0 R 234 -163 R
-94 257 R 0 -140 R -140 46 R D 6288 5754 M -93 -117 R D 6288 5754 M
94 -117 R D 6288 5754 M 141 46 R D 7150 5894 M 0 -281 R D 7080 5824 M
140 0 R D 7033 5684 M 47 -47 R 46 -24 R 47 0 R 47 24 R 47 47 R D 7964 5847 M
234 -234 R D 8198 5847 M -234 -234 R D 8011 5894 M -70 -70 R -23 -47 R D
8151 5894 M 70 -70 R 24 -47 R D 9013 6011 M 0 -351 R D 8896 5941 M
234 -141 R D 9130 5941 M -234 -141 R D 8802 5660 M 70 -140 R D 9223 5660 M
-70 -140 R D 8802 5660 M 421 0 R D 8872 5520 M 281 0 R D 9781 5894 M 0 -94 R
-94 0 R 0 -93 R 94 0 R 0 -94 R 93 0 R 0 94 R 93 0 R 0 93 R -93 0 R 0 94 R
-93 0 R D 10735 5941 M -163 -281 R 327 0 R -164 281 R D 10735 5567 M
164 280 R -327 0 R 163 -280 R D 11643 5871 M 0 -141 R -23 -210 R D
11643 5730 M 24 -210 R -47 0 R D 11643 5871 M -23 70 R -23 46 R -47 24 R
70 -70 R D 11643 5871 M 24 70 R 23 46 R 47 24 R -70 -70 R D 11643 5871 M
-93 46 R -47 0 R -47 -46 R D 11597 5894 M -94 0 R -47 -23 R D 11643 5871 M
94 46 R 47 0 R 46 -46 R D 11690 5894 M 94 0 R 46 -23 R D 11643 5871 M
-46 -24 R -24 -23 R 0 -70 R D 11643 5871 M -46 -47 R -24 -70 R D
11643 5871 M 47 -24 R 24 -23 R 0 -70 R D 11643 5871 M 47 -47 R 24 -70 R D
12528 5590 M -23 -70 R D 12528 5590 M 23 -70 R -46 0 R D 12528 5590 M
70 -23 R 70 0 R 47 46 R 0 71 R -23 23 R -47 0 R 47 47 R 23 70 R -23 47 R
-47 23 R -47 -23 R 24 70 R -24 46 R -47 24 R -46 0 R -47 -24 R -23 -46 R
23 -70 R -47 23 R -46 -23 R -24 -47 R 24 -70 R 46 -47 R -46 0 R -24 -23 R
0 -71 R 47 -46 R 70 0 R 70 23 R D 13226 5800 M 47 -46 R D 13296 5917 M
47 -117 R D 13436 6011 M 0 -187 R D 13576 5917 M -46 -117 R D 13647 5800 M
-47 -46 R D 14087 5567 M -23 -24 R 0 -46 R 23 -24 R 47 0 R 23 24 R 0 46 R
-23 24 R -47 0 R D 14972 5637 M -47 -24 R -23 -23 R -24 -47 R 0 -46 R
24 -47 R 23 -23 R 47 -24 R 47 0 R 46 24 R 24 23 R 23 47 R 0 46 R -23 47 R
-24 23 R -46 24 R -47 0 R D 480 3720 M 15040 0 R D 648 4255 M 23 11 R
35 35 R 0 -245 R D 858 4243 M 0 12 R 12 23 R 11 12 R 24 11 R 47 0 R 23 -11 R
12 -12 R 11 -23 R 0 -24 R -11 -23 R -24 -35 R -117 -117 R 164 0 R D
1080 4220 M 129 -164 R D 1209 4220 M -129 -164 R D 1678 4097 M -70 -23 R
-70 -47 R -47 -70 R -23 -70 R 0 -94 R 23 -70 R 47 -70 R 70 -47 R 70 -23 R
93 0 R 71 23 R 70 47 R 46 70 R 24 70 R 0 94 R -24 70 R -46 70 R -70 47 R
-71 23 R -93 0 R D 2563 4354 M -117 -23 R -94 -47 R -70 -47 R -70 -70 R
-47 -70 R -46 -93 R -24 -117 R 0 -94 R 24 -117 R 46 -93 R 47 -70 R 70 -70 R
70 -47 R 94 -47 R 117 -23 R 93 0 R 117 23 R 93 47 R 71 47 R 70 70 R 46 70 R
47 93 R 24 117 R 0 94 R -24 117 R -47 93 R -46 70 R -70 70 R -71 47 R
-93 47 R -117 23 R -93 0 R D 3541 4284 M 23 -47 R 24 -93 R 0 -140 R
-24 -94 R -23 -47 R D 3961 4284 M -23 -47 R -23 -93 R 0 -140 R 23 -94 R
23 -47 R D 3541 4284 M 47 -23 R 93 -24 R 140 0 R 94 24 R 46 23 R D
3541 3863 M 47 24 R 93 23 R 140 0 R 94 -23 R 46 -24 R D 4659 4354 M
-70 -23 R -70 -47 R -47 -70 R -23 -70 R 0 -94 R 23 -70 R 47 -70 R 70 -47 R
70 -23 R 94 0 R 70 23 R 70 47 R 47 70 R 23 70 R 0 94 R -23 70 R -47 70 R
-70 47 R -70 23 R -94 0 R D 4706 4354 M 0 -514 R D 4449 4097 M 514 0 R D
5357 4354 M 0 -350 R D 5380 4354 M -23 -257 R 23 47 R 24 23 R 46 24 R 71 0 R
70 -24 R 23 -47 R 0 -46 R -23 -47 R -47 -47 R D 5521 4191 M 46 -24 R
24 -47 R 0 -46 R -70 -141 R 0 -46 R 23 -24 R 47 0 R 46 47 R D 5310 4354 M
70 0 R D 6382 4307 M 23 47 R 0 -491 R D 6452 4307 M -23 47 R 0 -491 R D
6218 4307 M 24 47 R 0 -163 R 23 -71 R 47 -46 R 70 -24 R 23 0 R D 6288 4307 M
-23 47 R 0 -187 R 23 -70 R D 6616 4307 M -24 47 R 0 -163 R -23 -71 R
-47 -46 R -70 -24 R -23 0 R D 6545 4307 M 24 47 R 0 -187 R -24 -70 R D
6312 3957 M 210 0 R D 7430 4331 M -93 0 R -94 -24 R -70 -46 R -47 -70 R
-23 -71 R 0 -70 R 23 -70 R 47 -70 R 70 -47 R 94 -23 R 93 0 R D 7430 4331 M
-70 -24 R -70 -46 R -47 -70 R -23 -71 R 0 -70 R 23 -70 R 47 -70 R 70 -47 R
70 -23 R D 8081 4237 M 140 -327 R D 8221 4237 M -140 -327 R D 7988 4144 M
327 -140 R D 8315 4144 M -327 -140 R D 8989 4191 M -46 -24 R -24 0 R
-47 24 R -23 46 R 0 24 R 23 46 R 47 24 R 24 0 R 46 -24 R 24 -46 R 0 -24 R
-24 -46 R -70 -94 R -23 -70 R 0 -47 R 23 -70 R 47 -47 R 70 -23 R 94 0 R
70 23 R 46 47 R 24 70 R 0 47 R -24 70 R -70 94 R -23 46 R 0 24 R 23 46 R
47 24 R 23 0 R 47 -24 R 23 -46 R 0 -24 R -23 -46 R -47 -24 R -23 0 R
-47 24 R D 8896 3980 M 23 -47 R 47 -46 R 70 -24 R 94 0 R 70 24 R 46 46 R
24 47 R D 9757 4331 M 24 -94 R 23 -46 R 47 -47 R 70 -24 R 93 0 R 70 24 R
47 47 R 23 46 R 24 94 R D 9757 4331 M 24 -70 R 23 -47 R 47 -47 R 70 -23 R
93 0 R 70 23 R 47 47 R 23 47 R 24 70 R D 9921 4144 M -47 -24 R -23 -23 R
-24 -47 R 0 -70 R 24 -47 R 46 -46 R 47 -24 R 47 0 R 47 24 R 46 46 R 24 47 R
0 70 R -24 47 R -23 23 R -47 24 R D 9921 4120 M -47 -23 R -23 -47 R 0 -70 R
23 -70 R D 10061 3910 M 23 70 R 0 70 R -23 47 R -47 23 R D 11063 4284 M
-351 0 R -47 -23 R -23 -47 R 0 -47 R 23 -47 R 47 -23 R 47 0 R 46 23 R
24 47 R 0 47 R -24 47 R 258 0 R D 10642 4191 M 23 -47 R 24 -24 R 46 -23 R D
10829 4191 M -24 46 R -23 24 R -47 23 R D 10642 3933 M 350 0 R 47 24 R
24 47 R 0 46 R -24 47 R -47 23 R -46 0 R -47 -23 R -23 -47 R 0 -46 R
23 -47 R -257 0 R D 11063 4027 M -24 47 R -23 23 R -47 23 R D 10876 4027 M
23 -47 R 23 -23 R 47 -24 R D 11550 4494 M 0 -841 R D 11667 4494 M 0 -841 R D
11900 4494 M 0 -841 R D 12017 4494 M 0 -841 R D 11667 4191 M 233 46 R D
11667 4167 M 233 47 R D 11667 4144 M 233 47 R D 11667 3957 M 233 47 R D
11667 3933 M 233 47 R D 11667 3910 M 233 47 R D 12341 4074 M 654 0 R D
12481 3910 M 374 0 R D 12622 3747 M 93 0 R D 13343 4097 M 23 47 R 47 23 R
47 0 R 46 -23 R 24 -47 R 0 -47 R -24 -46 R -46 -24 R -47 0 R -47 24 R
-23 23 R -24 70 R 0 70 R 24 70 R 46 47 R 71 23 R 93 0 R 94 -23 R 70 -47 R
46 -70 R 24 -93 R 0 -117 R -24 -94 R -23 -46 R -47 -70 R -70 -71 R -93 -70 R
-117 -70 R -94 -47 R D 13553 4307 M 70 -23 R 70 -47 R 47 -70 R 23 -93 R
0 -117 R -23 -94 R -23 -46 R -47 -70 R -70 -71 R -117 -93 R -70 -47 R D
13389 4144 M 94 0 R D 13366 4120 M 140 0 R D 13343 4097 M 187 0 R D
13343 4074 M 187 0 R D 13343 4050 M 187 0 R D 13366 4027 M 140 0 R D
13389 4004 M 94 0 R D 13880 4214 M 0 -47 R 47 0 R 0 47 R -47 0 R D
13904 4214 M 0 -47 R D 13880 4191 M 47 0 R D 13880 3980 M 0 -47 R 47 0 R
0 47 R -47 0 R D 13904 3980 M 0 -47 R D 13880 3957 M 47 0 R D 14111 4074 M
654 0 R D 14111 4074 M 327 -374 R 327 374 R D 15112 4915 M 70 -70 R 47 -70 R
47 -94 R 23 -117 R 0 -140 R -23 -140 R -24 -93 R -70 -258 R -23 -93 R
-23 -140 R 0 -117 R 23 -117 R 23 -70 R 47 -93 R D 15182 4845 M 47 -94 R
23 -70 R 24 -117 R 0 -116 R -24 -141 R -23 -93 R -70 -257 R -23 -94 R
-24 -140 R 0 -140 R 24 -117 R 46 -93 R 47 -70 R 70 -71 R D 480 2040 M
15040 0 R D 648 2575 M 23 11 R 35 35 R 0 -245 R D 963 2621 M -117 -163 R
176 0 R D 963 2621 M 0 -245 R D 1080 2540 M 129 -164 R D 1209 2540 M
-129 -164 R D 1982 2394 M 46 -70 R 24 -24 R 47 -23 R 46 0 R 47 23 R 23 24 R
24 46 R 0 47 R -24 47 R -23 23 R -47 24 R -46 0 R -47 -24 R -24 -23 R
-93 -140 R -23 -24 R -47 -23 R -47 0 R -47 23 R -23 24 R -23 46 R 0 47 R
23 47 R 23 23 R 47 24 R 47 0 R 47 -24 R 23 -23 R 47 -70 R D 2609 2674 M
0 -280 R 141 0 R -141 280 R D 2609 2604 M 94 -187 R D 2609 2534 M 71 -140 R
D 2609 2464 M 24 -47 R D 3494 2487 M 0 -187 R 187 0 R 0 187 R -187 0 R D
3517 2464 M 0 -140 R D 3541 2464 M 0 -140 R D 3564 2464 M 0 -140 R D
3588 2464 M 0 -140 R D 3611 2464 M 0 -140 R D 3634 2464 M 0 -140 R D
3658 2464 M 0 -140 R D 4379 2394 M 210 -117 R 0 234 R -210 -117 R D
4449 2394 M 117 -70 R D 4449 2394 M 117 70 R D 4519 2394 M 47 -24 R D
4519 2394 M 47 23 R D 5474 2394 M -210 117 R 0 -234 R 210 117 R D
5404 2394 M -117 70 R D 5404 2394 M -117 -70 R D 5334 2394 M -47 23 R D
5334 2394 M -47 -24 R D 6148 2557 M 0 -327 R D 6148 2557 M 164 -70 R
-164 -70 R D 6172 2511 M 70 -24 R -70 -23 R D 7173 2534 M 0 -281 R D
7033 2417 M 23 47 R 234 0 R 23 -47 R D 7126 2277 M 94 0 R D 8034 2604 M
-116 -421 R D 8221 2604 M 117 -421 R -327 328 R D 8245 2511 M -327 -328 R D
8034 2604 M 187 0 R D 8011 2511 M 234 0 R D 8943 2581 M 140 -281 R D
8896 2440 M 187 94 R D 8802 2160 M 468 0 R 0 234 R -468 -234 R D
10014 2440 M -23 47 R -47 47 R -70 23 R -47 0 R -70 -23 R -47 -47 R
-23 -70 R 0 -47 R 23 -70 R 47 -47 R 70 -23 R 47 0 R 70 23 R 47 47 R 23 47 R
D 10014 2440 M -47 47 R -46 24 R -47 0 R -47 -24 R -23 -23 R -23 -47 R
0 -47 R 23 -46 R 23 -24 R 47 -23 R 47 0 R 46 23 R 47 47 R D 10782 2604 M
0 47 R 23 23 R 47 0 R 24 -23 R 0 -47 R D 10572 2207 M 23 46 R 47 47 R
23 47 R 24 93 R 0 117 R 23 24 R 47 23 R 140 0 R 47 -23 R 23 -24 R 0 -117 R
23 -93 R 24 -47 R 47 -47 R 23 -46 R -514 0 R D 10805 2207 M -23 -24 R
23 -23 R 47 0 R 24 23 R -24 24 R D 11643 2604 M 0 -47 R D 11643 2487 M
0 -47 R D 11643 2370 M 0 -46 R D 11643 2230 M -23 -70 R D 11643 2230 M
24 -70 R -47 0 R D 11643 2651 M -23 -47 R -23 -23 R D 11643 2651 M 24 -47 R
23 -23 R D 11597 2581 M 46 23 R 47 -23 R D 11643 2557 M -46 -70 R -47 -23 R
-23 23 R D 11643 2557 M 47 -70 R 47 -23 R 23 23 R D 11550 2464 M 47 0 R
46 23 R 47 -23 R 47 0 R D 11643 2440 M -46 -70 R -47 -23 R -47 0 R -23 47 R
0 -24 R 23 -23 R D 11643 2440 M 47 -70 R 47 -23 R 47 0 R 23 47 R 0 -24 R
-23 -23 R D 11550 2347 M 47 0 R 46 23 R 47 -23 R 47 0 R D 11643 2324 M
-46 -71 R -24 -23 R -46 -23 R -24 0 R -23 23 R -24 47 R 0 -47 R 47 -23 R D
11643 2324 M 47 -71 R 24 -23 R 46 -23 R 24 0 R 23 23 R 23 47 R 0 -47 R
-46 -23 R D 11527 2207 M 46 0 R 70 23 R 71 -23 R 46 0 R D 12528 2230 M
-23 -70 R D 12528 2230 M 23 -70 R -46 0 R D 12528 2230 M 94 23 R 0 47 R
46 24 R 0 70 R 47 23 R 0 117 R -23 70 R -24 23 R -46 0 R -47 24 R -94 0 R
-46 -24 R -47 0 R -23 -23 R -24 -70 R 0 -117 R 47 -23 R 0 -70 R 47 -24 R
0 -47 R 93 -23 R D 13226 2183 M -23 -23 R 23 -23 R 23 23 R -23 23 R D
14087 2253 M -47 -23 R -23 -47 R 0 -46 R 23 -47 R 47 -23 R 47 0 R 47 23 R
23 47 R 0 46 R -23 47 R -47 23 R -47 0 R D 14972 2324 M -70 -24 R -47 -47 R
-23 -70 R 0 -46 R 23 -70 R 47 -47 R 70 -24 R 47 0 R 70 24 R 47 47 R 23 70 R
0 46 R -23 70 R -47 47 R -70 24 R -47 0 R D 480 360 M 15040 0 R D 648 895 M
23 11 R 35 35 R 0 -245 R D 998 906 M -11 24 R -35 11 R -24 0 R -35 -11 R
-23 -35 R -12 -59 R 0 -58 R 12 -47 R 23 -23 R 35 -12 R 12 0 R 35 12 R
23 23 R 12 35 R 0 12 R -12 35 R -23 23 R -35 12 R -12 0 R -35 -12 R
-23 -23 R -12 -35 R D 1080 860 M 129 -164 R D 1209 860 M -129 -164 R D
1678 877 M -94 -23 R -46 -23 R -70 -47 R -47 -47 R -47 -70 R -23 -47 R
-24 -93 R 0 -94 R 24 -93 R 23 -47 R 47 -70 R 47 -47 R 70 -47 R 46 -23 R
94 -23 R 93 0 R 94 23 R 47 23 R 70 47 R 46 47 R 47 70 R 24 47 R 23 93 R
0 94 R -23 93 R -24 47 R -47 70 R -46 47 R -70 47 R -47 23 R -94 23 R
-93 0 R D 2539 1438 M -140 -23 R -93 -24 R -117 -46 R -117 -70 R -94 -71 R
-93 -93 R -70 -94 R -70 -116 R -47 -117 R -23 -94 R -24 -140 R 0 -140 R
24 -140 R 23 -94 R 47 -117 R 70 -115 R 70 -94 R 93 -93 R 94 -71 R 117 -70 R
117 -46 R 93 -24 R 140 -23 R 141 0 R 140 23 R 93 24 R 117 46 R 117 70 R
93 71 R 94 93 R 70 94 R 70 115 R 47 117 R 23 94 R 24 140 R 0 140 R -24 140 R
-23 94 R -47 117 R -70 116 R -70 94 R -94 93 R -93 71 R -117 70 R -117 46 R
-93 24 R -140 23 R -141 0 R D 3634 994 M -46 -23 R 23 -47 R 47 -23 R D
3634 994 M -23 -23 R 0 -47 R D 3751 994 M 47 -23 R -23 -47 R -47 -23 R D
3751 994 M 24 -23 R 0 -47 R D 3658 901 M -47 -24 R -23 -23 R -24 -47 R
0 -70 R 24 -47 R 23 -23 R 47 -23 R 70 0 R 47 23 R 23 23 R 23 47 R 0 70 R
-23 47 R -23 23 R -47 24 R -70 0 R D 3681 644 M 0 -141 R D 3704 644 M
0 -141 R D 3588 573 M 210 0 R D 4449 924 M 23 47 R 47 23 R 70 0 R 47 -23 R
23 -47 R 0 -70 R -23 -70 R -23 -47 R -47 -47 R -70 -46 R D 4589 994 M
24 -23 R 23 -47 R 0 -93 R -23 -71 R -47 -70 R D 4753 994 M -47 -491 R D
4776 994 M -93 -491 R D 4496 644 M 327 0 R D 5474 807 M -70 -23 R -47 -47 R
-23 -70 R 0 -23 R 23 -71 R 47 -46 R 70 -24 R 23 0 R 70 24 R 47 46 R 23 71 R
0 23 R -23 70 R -47 47 R -70 23 R -23 0 R D 5474 947 M -94 -46 R 94 93 R
0 -187 R D 5497 947 M 94 -46 R -94 93 R 0 -187 R D 5474 690 M -24 -23 R
0 -23 R 24 -24 R 23 0 R 24 24 R 0 23 R -24 23 R -23 0 R D 5474 667 M 0 -23 R
23 0 R 0 23 R -23 0 R D 6265 994 M 0 -491 R D 6288 994 M 0 -491 R D
6195 994 M 280 0 R 70 -23 R 24 -24 R 23 -46 R 0 -70 R -23 -47 R -24 -24 R
-70 -23 R -187 0 R D 6475 994 M 47 -23 R 23 -24 R 24 -46 R 0 -70 R -24 -47 R
-23 -24 R -47 -23 R D 6195 503 M 374 0 R 0 117 R -24 -117 R D 7243 737 M
-46 0 R -47 -23 R -24 -24 R -23 -46 R 0 -47 R 23 -47 R 24 -23 R 47 -24 R
46 0 R 47 24 R 23 23 R 24 47 R 0 47 R -24 46 R -23 24 R -47 23 R D
7337 947 M -70 -210 R D 7500 901 M -187 -187 R D 7547 737 M -210 -70 R D
8105 620 M -47 24 R -24 0 R -46 -24 R -24 -47 R 0 -23 R 24 -47 R 46 -23 R
24 0 R 47 23 R 23 47 R 0 23 R -23 47 R -71 94 R -23 70 R 0 47 R 23 70 R
47 46 R 70 24 R 94 0 R 70 -24 R 47 -46 R 23 -70 R 0 -47 R -23 -70 R
-70 -94 R -24 -47 R 0 -23 R 24 -47 R 46 -23 R 24 0 R 46 23 R 24 47 R 0 23 R
-24 47 R -46 24 R -24 0 R -46 -24 R D 8011 831 M 23 46 R 47 47 R 70 23 R
94 0 R 70 -23 R 47 -47 R 23 -46 R D 8896 831 M -24 23 R 0 47 R 24 46 R
47 24 R 46 0 R 47 -24 R 23 -23 R 24 -47 R 23 -117 R D 8872 901 M 47 46 R
47 0 R 47 -23 R 23 -23 R 23 -47 R 24 -94 R 0 -257 R D 9293 831 M 23 23 R
0 47 R -23 46 R -47 24 R -46 0 R -47 -24 R -23 -23 R -24 -47 R -23 -117 R D
9316 901 M -46 46 R -47 0 R -47 -23 R -23 -23 R -23 -47 R -24 -94 R 0 -257 R
D 9851 901 M 0 -281 R D 9874 877 M 0 -233 R D 10061 877 M 0 -233 R D
10084 901 M 0 -281 R D 9757 971 M 47 -47 R 47 -23 R 70 -24 R 93 0 R 70 24 R
47 23 R 47 47 R D 9757 550 M 47 47 R 47 23 R 70 24 R 93 0 R 70 -24 R
47 -23 R 47 -47 R D 10782 644 M -47 23 R -23 0 R -47 -23 R -23 -47 R 0 -24 R
23 -46 R 47 -24 R 23 0 R 47 24 R 23 46 R 0 24 R -23 47 R -117 116 R -23 47 R
0 70 R 23 47 R 47 23 R 70 24 R 94 0 R 93 -24 R 47 -46 R 23 -47 R 0 -70 R
-23 -70 R -70 -70 R -24 -47 R 0 -47 R 24 -47 R 46 0 R 24 24 R 23 46 R D
10735 690 M -46 70 R -24 47 R 0 70 R 24 47 R 23 23 R D 10876 971 M 70 -24 R
46 -46 R 24 -47 R 0 -70 R -24 -70 R -46 -70 R D 11550 1134 M 0 -841 R D
11667 1134 M 0 -841 R D 11900 1134 M 0 -841 R D 12017 1134 M 0 -841 R D
11667 831 M 233 46 R D 11667 807 M 233 47 R D 11667 784 M 233 47 R D
11667 597 M 233 47 R D 11667 573 M 233 47 R D 11667 550 M 233 47 R D
12341 714 M 654 0 R D 12481 550 M 374 0 R D 12622 387 M 93 0 R D 13343 737 M
23 47 R 47 23 R 47 0 R 46 -23 R 24 -47 R 0 -47 R -24 -46 R -46 -24 R -47 0 R
-47 24 R -23 23 R -24 70 R 0 70 R 24 70 R 46 47 R 71 23 R 93 0 R 94 -23 R
70 -47 R 46 -70 R 24 -93 R 0 -117 R -24 -94 R -23 -46 R -47 -70 R -70 -71 R
-93 -70 R -117 -70 R -94 -47 R D 13553 947 M 70 -23 R 70 -47 R 47 -70 R
23 -93 R 0 -117 R -23 -94 R -23 -46 R -47 -70 R -70 -71 R -117 -93 R
-70 -47 R D 13389 784 M 94 0 R D 13366 760 M 140 0 R D 13343 737 M 187 0 R D
13343 714 M 187 0 R D 13343 690 M 187 0 R D 13366 667 M 140 0 R D
13389 644 M 94 0 R D 13880 854 M 0 -47 R 47 0 R 0 47 R -47 0 R D 13904 854 M
0 -47 R D 13880 831 M 47 0 R D 13880 620 M 0 -47 R 47 0 R 0 47 R -47 0 R D
13904 620 M 0 -47 R D 13880 597 M 47 0 R D 14111 714 M 654 0 R D 14111 714 M
327 -374 R 327 374 R D 15112 1555 M 70 -70 R 47 -70 R 47 -94 R 23 -117 R
0 -140 R -23 -140 R -24 -93 R -70 -258 R -23 -93 R -23 -140 R 0 -117 R
23 -117 R 23 -70 R 47 -92 R D 15182 1485 M 47 -94 R 23 -70 R 24 -117 R
0 -116 R -24 -141 R -23 -93 R -70 -257 R -23 -94 R -24 -140 R 0 -140 R
24 -117 R 46 -93 R 47 -69 R 70 -71 R D
%%PageTrailer
end
restore
showpage
%%PageResources: font Helvetica
%%Trailer
restore
%%Pages: 1
%%DocumentNeededResources: font Helvetica
%%EOF
