%!PS-Adobe-3.0 EPSF-3.0
%%BoundingBox: 0 0 425 283
%%Title: Graphics produced by IDL
%%For: jlgan@Hserver, /home/jlgan/work/phoenix
%%Creator: IDL Version 7.1.1 (linux x86_64 m64)
%%CreationDate: Tue Nov  4 15:25:14 2014
%%DocumentData: Clean7bit
%%Requirements: color
%%LanguageLevel: 1
%%PageOrder: Ascend
%%Pages: (atend)
%%DocumentNeededResources: (atend)
%%EndComments
%%BeginProlog
%+ prolog.ps -- Prolog for IDL generated PostScript files
%+ Copyright (c) 1988-2009 ITT Visual Information Solutions. All Rights Reserved.
%v 5
/$IDL_DICT 40 dict def $IDL_DICT begin /bdef { bind def } bind def /C
{currentpoint newpath moveto} bdef /CP {currentpoint} bdef /D {currentpoint
stroke moveto} bdef /F {closepath fill} bdef /K { setgray } bdef /M {moveto}
bdef /N {rmoveto} bdef /P {lineto} bdef /R {rlineto} bdef /S {gsave show
grestore} bdef /X {currentpoint pop} bdef /Z {gsave currentpoint lineto 20
setlinewidth 1 setlinecap stroke grestore} bdef /L0 {[] 0 setdash} bdef /L1
{[40 100] 0 setdash} bdef /L2 {[200 200] 0 setdash} bdef /L3 {[200 100 50
100] 0 setdash} bdef /L4 {[300 100 50 100 50 100 50 100] 0 setdash} bdef /L5
{[400 200] 0 setdash} bdef /STDFONT { findfont exch scalefont setfont } bdef
/ISOFONT { findfont dup length dict begin { 1 index /FID ne {def} {pop pop}
ifelse } forall /Encoding ISOLatin1Encoding def currentdict end /idltmpfont
exch definefont exch scalefont setfont } bdef /ISOBULLET { gsave /Helvetica
findfont exch scalefont setfont (\267) show currentpoint grestore moveto}
bdef /MITERLIMIT { 2.5 setmiterlimit } bdef end
%%EndProlog
%%Page: 0 1
%%PageRequirements: color
%%PageResources: (atend)
%%PageOrientation: Portrait
%%PageBoundingBox: 0 0 425 283
%%BeginPageSetup
$IDL_DICT begin 0.0283465 dup scale MITERLIMIT
%%IncludeResource: font Helvetica
423.333 /Helvetica STDFONT
%%EndPageSetup
30 setlinewidth L0 0.000 0.000 0.000 setrgbcolor 4827 10113 M 0 -613 R D
4827 10113 M 380 0 R D 4827 9821 M 234 0 R D 5470 9909 M -59 -29 R -58 -59 R
-29 -87 R 0 -59 R 29 -87 R 58 -59 R 59 -29 R 88 0 R 58 29 R 58 59 R 30 87 R
0 59 R -30 87 R -58 59 R -58 29 R -88 0 R D 5908 9909 M 0 -409 R D
5908 9792 M 88 88 R 58 29 R 88 0 R 58 -29 R 29 -88 R 0 -292 R D 6492 10113 M
0 -496 R 29 -88 R 59 -29 R 58 0 R D 6405 9909 M 204 0 R D 7544 10113 M
-292 -409 R 438 0 R D 7544 10113 M 0 -613 R D 7924 9529 M -30 -29 R -29 29 R
29 29 R 30 -29 R 0 -87 R -30 -59 R -29 -29 R D 8654 10113 M 0 -496 R
29 -88 R 58 -29 R 59 0 R D 8566 9909 M 205 0 R D 8946 9734 M 350 0 R 0 58 R
-29 59 R -29 29 R -58 29 R -88 0 R -58 -29 R -59 -59 R -29 -87 R 0 -59 R
29 -87 R 59 -59 R 58 -29 R 88 0 R 58 29 R 58 59 R D 9793 9821 M -29 59 R
-88 29 R -87 0 R -88 -29 R -29 -59 R 29 -58 R 58 -29 R 146 -30 R 59 -29 R
29 -58 R 0 -29 R -29 -59 R -88 -29 R -87 0 R -88 29 R -29 59 R D
10027 10113 M 0 -496 R 29 -88 R 58 -29 R 59 0 R D 9939 9909 M 205 0 R D
497 9045 M -24 -11 R -23 -24 R -12 -23 R -11 -35 R 0 -59 R 11 -35 R 12 -23 R
23 -23 R 24 -12 R 46 0 R 24 12 R 23 23 R 12 23 R 11 35 R 0 59 R -11 35 R
-12 23 R -23 24 R -24 11 R -46 0 R D 824 8929 M -24 23 R -23 12 R -35 0 R
-23 -12 R -24 -23 R -11 -36 R 0 -23 R 11 -35 R 24 -23 R 23 -12 R 35 0 R
23 12 R 24 23 R D 917 9045 M 0 -198 R 12 -35 R 23 -12 R 24 0 R D 882 8964 M
82 0 R D 1174 8964 M 0 -164 R D 1174 8929 M -23 23 R -23 12 R -35 0 R
-24 -12 R -23 -23 R -12 -36 R 0 -23 R 12 -35 R 23 -23 R 24 -12 R 35 0 R
23 12 R 23 23 R D 1268 9045 M 0 -245 R D 450 8700 M 0 -8400 R D 1554 9045 M
-35 -11 R -24 -35 R -11 -59 R 0 -35 R 11 -58 R 24 -35 R 35 -12 R 23 0 R
35 12 R 24 35 R 11 58 R 0 35 R -11 59 R -24 35 R -35 11 R -23 0 R D
1788 9045 M -35 -11 R -24 -35 R -12 -59 R 0 -35 R 12 -58 R 24 -35 R 35 -12 R
23 0 R 35 12 R 23 35 R 12 58 R 0 35 R -12 59 R -23 35 R -35 11 R -23 0 R D
1279 8700 M 0 -8400 R D 2383 9045 M -35 -11 R -23 -35 R -12 -59 R 0 -35 R
12 -58 R 23 -35 R 35 -12 R 24 0 R 35 12 R 23 35 R 12 58 R 0 35 R -12 59 R
-23 35 R -35 11 R -24 0 R D 2582 8999 M 23 11 R 35 35 R 0 -245 R D
2109 8700 M 0 -8400 R D 3213 9045 M -35 -11 R -24 -35 R -11 -59 R 0 -35 R
11 -58 R 24 -35 R 35 -12 R 23 0 R 35 12 R 24 35 R 11 58 R 0 35 R -11 59 R
-24 35 R -35 11 R -23 0 R D 3388 8987 M 0 12 R 12 23 R 11 12 R 24 11 R
46 0 R 24 -11 R 12 -12 R 11 -23 R 0 -24 R -11 -23 R -24 -35 R -117 -117 R
164 0 R D 2938 8700 M 0 -8400 R D 4042 9045 M -35 -11 R -23 -35 R -12 -59 R
0 -35 R 12 -58 R 23 -35 R 35 -12 R 24 0 R 35 12 R 23 35 R 12 58 R 0 35 R
-12 59 R -23 35 R -35 11 R -24 0 R D 4229 9045 M 129 0 R -70 -93 R 35 0 R
23 -12 R 12 -11 R 11 -36 R 0 -23 R -11 -35 R -24 -23 R -35 -12 R -35 0 R
-35 12 R -12 11 R -11 24 R D 3768 8700 M 0 -8400 R D 4872 9045 M -35 -11 R
-24 -35 R -12 -59 R 0 -35 R 12 -58 R 24 -35 R 35 -12 R 23 0 R 35 12 R
23 35 R 12 58 R 0 35 R -12 59 R -23 35 R -35 11 R -23 0 R D 5152 9045 M
-117 -163 R 175 0 R D 5152 9045 M 0 -245 R D 4597 8700 M 0 -8400 R D
5701 9045 M -35 -11 R -23 -35 R -12 -59 R 0 -35 R 12 -58 R 23 -35 R 35 -12 R
23 0 R 35 12 R 24 35 R 11 58 R 0 35 R -11 59 R -24 35 R -35 11 R -23 0 R D
6005 9045 M -117 0 R -12 -105 R 12 12 R 35 12 R 35 0 R 35 -12 R 23 -23 R
12 -36 R 0 -23 R -12 -35 R -23 -23 R -35 -12 R -35 0 R -35 12 R -12 11 R
-11 24 R D 5426 8700 M 0 -8400 R D 6530 9045 M -35 -11 R -23 -35 R -12 -59 R
0 -35 R 12 -58 R 23 -35 R 35 -12 R 24 0 R 35 12 R 23 35 R 12 58 R 0 35 R
-12 59 R -23 35 R -35 11 R -24 0 R D 6846 9010 M -12 24 R -35 11 R -23 0 R
-35 -11 R -24 -35 R -11 -59 R 0 -58 R 11 -47 R 24 -23 R 35 -12 R 11 0 R
35 12 R 24 23 R 12 35 R 0 12 R -12 35 R -24 23 R -35 12 R -11 0 R -35 -12 R
-24 -23 R -11 -35 R D 6256 8700 M 0 -8400 R D 7360 9045 M -35 -11 R
-24 -35 R -11 -59 R 0 -35 R 11 -58 R 24 -35 R 35 -12 R 23 0 R 35 12 R
24 35 R 11 58 R 0 35 R -11 59 R -24 35 R -35 11 R -23 0 R D 7687 9045 M
-117 -245 R D 7523 9045 M 164 0 R D 7085 8700 M 0 -8400 R D 8154 8999 M
24 11 R 35 35 R 0 -245 R D 8423 9045 M -35 -11 R -24 -35 R -11 -59 R 0 -35 R
11 -58 R 24 -35 R 35 -12 R 23 0 R 35 12 R 24 35 R 11 58 R 0 35 R -11 59 R
-24 35 R -35 11 R -23 0 R D 7915 8700 M 0 -8400 R D 8984 8999 M 23 11 R
35 35 R 0 -245 R D 9217 8999 M 24 11 R 35 35 R 0 -245 R D 8744 8700 M
0 -8400 R D 9813 8999 M 23 11 R 35 35 R 0 -245 R D 10023 8987 M 0 12 R
12 23 R 12 12 R 23 11 R 47 0 R 23 -11 R 12 -12 R 12 -23 R 0 -24 R -12 -23 R
-24 -35 R -116 -117 R 163 0 R D 9574 8700 M 0 -8400 R D 10642 8999 M 24 11 R
35 35 R 0 -245 R D 10864 9045 M 129 0 R -70 -93 R 35 0 R 23 -12 R 12 -11 R
12 -36 R 0 -23 R -12 -35 R -23 -23 R -36 -12 R -35 0 R -35 12 R -11 11 R
-12 24 R D 10403 8700 M 0 -8400 R D 11472 8999 M 23 11 R 35 35 R 0 -245 R D
11787 9045 M -117 -163 R 176 0 R D 11787 9045 M 0 -245 R D 11232 8700 M
0 -8400 R D 12301 8999 M 24 11 R 35 35 R 0 -245 R D 12640 9045 M -117 0 R
-11 -105 R 11 12 R 35 12 R 35 0 R 35 -12 R 24 -23 R 11 -36 R 0 -23 R
-11 -35 R -24 -23 R -35 -12 R -35 0 R -35 12 R -11 11 R -12 24 R D
12062 8700 M 0 -8400 R D 13131 8999 M 23 11 R 35 35 R 0 -245 R D
13481 9010 M -12 24 R -35 11 R -23 0 R -35 -11 R -23 -35 R -12 -59 R 0 -58 R
12 -47 R 23 -23 R 35 -12 R 12 0 R 35 12 R 23 23 R 12 35 R 0 12 R -12 35 R
-23 23 R -35 12 R -12 0 R -35 -12 R -23 -23 R -12 -35 R D 12891 8700 M
0 -8400 R D 13960 8999 M 23 11 R 35 35 R 0 -245 R D 14322 9045 M -117 -245 R
D 14159 9045 M 163 0 R D 13721 8700 M 0 -8400 R D 14550 8700 M 0 -8400 R D
450 8700 M 14100 0 R D 450 7300 M 14100 0 R D 625 7825 M -35 -11 R -23 -35 R
-12 -59 R 0 -35 R 12 -58 R 23 -35 R 35 -12 R 24 0 R 35 12 R 23 35 R 12 58 R
0 35 R -12 59 R -23 35 R -35 11 R -24 0 R D 906 7825 M -117 -163 R 175 0 R D
906 7825 M 0 -245 R D 1022 7744 M 129 -164 R D 1151 7744 M -129 -164 R D
2540 7891 M 0 -327 R D 2540 7447 M -24 -24 R 24 -23 R 23 23 R -23 24 R D
3346 7891 M 0 -164 R D 3533 7891 M 0 -164 R D 4339 7984 M -164 -771 R D
4479 7984 M -164 -771 R D 4175 7680 M 327 0 R D 4152 7540 M 327 0 R D
5098 7984 M 0 -701 R D 5192 7984 M 0 -701 R D 5308 7821 M -46 46 R -70 24 R
-94 0 R -70 -24 R -47 -46 R 0 -47 R 24 -47 R 23 -23 R 47 -24 R 140 -46 R
47 -24 R 23 -23 R 23 -47 R 0 -70 R -46 -47 R -70 -23 R -94 0 R -70 23 R
-47 47 R D 6231 7891 M -420 -491 R D 5928 7891 M 46 -47 R 0 -47 R -23 -46 R
-47 -24 R -47 0 R -46 47 R 0 47 R 23 46 R 47 24 R 47 0 R 46 -24 R 70 -23 R
70 0 R 71 23 R 46 24 R D 6138 7564 M -47 -24 R -23 -47 R 0 -46 R 46 -47 R
47 0 R 47 23 R 23 47 R 0 47 R -46 47 R -47 0 R D 7107 7680 M 0 24 R -23 23 R
-23 0 R -24 -23 R -23 -47 R -47 -117 R -46 -70 R -47 -47 R -47 -23 R -93 0 R
-47 23 R -24 24 R -23 46 R 0 47 R 23 47 R 24 23 R 163 94 R 24 23 R 23 47 R
0 47 R -23 46 R -47 24 R -47 -24 R -23 -46 R 0 -47 R 23 -70 R 47 -70 R
117 -164 R 47 -47 R 46 -23 R 47 0 R 23 23 R 0 24 R D 7493 7891 M 0 -164 R D
8486 7984 M -47 -47 R -47 -70 R -46 -93 R -24 -117 R 0 -93 R 24 -117 R
46 -117 R 47 -70 R 47 -47 R D 9128 7984 M 47 -47 R 47 -70 R 47 -93 R
23 -117 R 0 -93 R -23 -117 R -47 -117 R -47 -70 R -47 -47 R D 10075 7751 M
0 -281 R D 9958 7680 M 233 -140 R D 10191 7680 M -233 -140 R D 11021 7821 M
0 -421 R D 10811 7610 M 420 0 R D 11687 7423 M -24 -23 R -23 23 R 23 24 R
24 -24 R 0 -70 R -24 -46 R -23 -24 R D 12469 7610 M 421 0 R D 13322 7447 M
-23 -24 R 23 -23 R 24 23 R -24 24 R D 14502 7984 M -421 -771 R D 450 5900 M
14100 0 R D 625 6425 M -35 -11 R -23 -35 R -12 -59 R 0 -35 R 12 -58 R
23 -35 R 35 -12 R 24 0 R 35 12 R 23 35 R 12 58 R 0 35 R -12 59 R -23 35 R
-35 11 R -24 0 R D 941 6390 M -12 24 R -35 11 R -23 0 R -36 -11 R -23 -35 R
-12 -59 R 0 -58 R 12 -47 R 23 -23 R 36 -12 R 11 0 R 35 12 R 24 23 R 11 35 R
0 12 R -11 35 R -24 23 R -35 12 R -11 0 R -36 -12 R -23 -23 R -12 -35 R D
1022 6344 M 129 -164 R D 1151 6344 M -129 -164 R D 1804 6491 M -70 -24 R
-47 -70 R -23 -117 R 0 -70 R 23 -117 R 47 -70 R 70 -23 R 47 0 R 70 23 R
46 70 R 24 117 R 0 70 R -24 117 R -46 70 R -70 24 R -47 0 R D 2563 6397 M
47 24 R 70 70 R 0 -491 R D 3346 6374 M 0 23 R 23 47 R 24 23 R 46 24 R 94 0 R
47 -24 R 23 -23 R 23 -47 R 0 -46 R -23 -47 R -47 -70 R -234 -234 R 328 0 R D
4199 6491 M 257 0 R -141 -187 R 71 0 R 46 -24 R 24 -23 R 23 -70 R 0 -47 R
-23 -70 R -47 -47 R -70 -23 R -70 0 R -70 23 R -24 24 R -23 46 R D
5215 6491 M -234 -327 R 351 0 R D 5215 6491 M 0 -491 R D 6091 6491 M
-234 0 R -23 -211 R 23 24 R 71 23 R 70 0 R 70 -23 R 46 -47 R 24 -70 R
0 -47 R -24 -70 R -46 -47 R -70 -23 R -70 0 R -71 23 R -23 24 R -23 46 R D
6944 6421 M -23 46 R -71 24 R -46 0 R -70 -24 R -47 -70 R -24 -117 R
0 -116 R 24 -94 R 47 -47 R 70 -23 R 23 0 R 70 23 R 47 47 R 23 70 R 0 24 R
-23 70 R -47 46 R -70 24 R -23 0 R -70 -24 R -47 -46 R -24 -70 R D
7797 6491 M -234 -491 R D 7470 6491 M 327 0 R D 8416 6491 M -70 -24 R
-24 -46 R 0 -47 R 24 -47 R 46 -23 R 94 -24 R 70 -23 R 47 -47 R 23 -46 R
0 -71 R -23 -46 R -24 -24 R -70 -23 R -93 0 R -70 23 R -24 24 R -23 46 R
0 71 R 23 46 R 47 47 R 70 23 R 94 24 R 46 23 R 24 47 R 0 47 R -24 46 R
-70 24 R -93 0 R D 9432 6327 M -23 -70 R -47 -47 R -70 -23 R -23 0 R
-71 23 R -46 47 R -24 70 R 0 24 R 24 70 R 46 46 R 71 24 R 23 0 R 70 -24 R
47 -46 R 23 -94 R 0 -117 R -23 -117 R -47 -70 R -70 -23 R -47 0 R -70 23 R
-23 47 R D 10005 6327 M -24 -23 R 24 -24 R 23 24 R -23 23 R D 10005 6047 M
-24 -24 R 24 -23 R 23 23 R -23 24 R D 10834 6327 M -23 -23 R 23 -24 R
23 24 R -23 23 R D 10857 6023 M -23 -23 R -23 23 R 23 24 R 23 -24 R 0 -70 R
-23 -46 R -23 -24 R D 12014 6421 M -374 -211 R 374 -210 R D 12469 6280 M
421 0 R D 12469 6140 M 421 0 R D 13299 6421 M 374 -211 R -374 -210 R D
14105 6374 M 0 23 R 23 47 R 24 23 R 46 24 R 94 0 R 47 -24 R 23 -23 R
23 -47 R 0 -46 R -23 -47 R -23 -24 R -94 -46 R 0 -70 R D 14245 6047 M
-23 -24 R 23 -23 R 23 23 R -23 24 R D 450 4500 M 14100 0 R D 590 4979 M
23 11 R 36 35 R 0 -245 R D 859 5025 M -35 -11 R -24 -35 R -11 -59 R 0 -35 R
11 -58 R 24 -35 R 35 -12 R 23 0 R 35 12 R 24 35 R 11 58 R 0 35 R -11 59 R
-24 35 R -35 11 R -23 0 R D 1022 4944 M 129 -164 R D 1151 4944 M -129 -164 R
D 2014 4904 M -23 47 R -47 23 R -70 0 R -47 -23 R -23 -24 R -24 -70 R
0 -70 R 24 -47 R 47 -23 R 70 0 R 46 23 R 24 47 R D 1874 4974 M -47 -47 R
-23 -70 R 0 -70 R 23 -47 R 24 -23 R D 2014 4974 M -23 -187 R 0 -47 R
47 -23 R 46 0 R 47 47 R 23 70 R 0 46 R -23 71 R -23 46 R -47 47 R -47 23 R
-70 24 R -70 0 R -70 -24 R -47 -23 R -47 -47 R -23 -46 R -23 -71 R 0 -70 R
23 -70 R 23 -47 R 47 -46 R 47 -24 R 70 -23 R 70 0 R 70 23 R 47 24 R 23 23 R
D 2038 4974 M -24 -187 R 0 -47 R 24 -23 R D 2633 5091 M -187 -491 R D
2633 5091 M 187 -491 R D 2516 4764 M 234 0 R D 3346 5091 M 0 -491 R D
3346 5091 M 210 0 R 70 -24 R 24 -23 R 23 -47 R 0 -46 R -23 -47 R -24 -24 R
-70 -23 R -210 0 R D 3556 4857 M 70 -23 R 24 -24 R 23 -46 R 0 -71 R
-23 -46 R -24 -24 R -70 -23 R -210 0 R D 4175 5091 M 0 -491 R D 4175 5091 M
281 0 R D 5122 5091 M -187 -491 R D 5122 5091 M 186 -491 R -373 0 R D
5834 5091 M 0 -491 R D 5834 5091 M 304 0 R D 5834 4857 M 187 0 R D
5834 4600 M 304 0 R D 6967 5091 M -327 -491 R D 6640 5091 M 327 0 R D
6640 4600 M 327 0 R D 7493 5091 M 0 -491 R D 7820 5091 M 0 -491 R D
7493 4857 M 327 0 R D 8439 5091 M -47 -24 R -46 -46 R -24 -47 R -23 -70 R
0 -117 R 23 -70 R 24 -47 R 46 -47 R 47 -23 R 94 0 R 46 23 R 47 47 R 23 47 R
24 70 R 0 117 R -24 70 R -23 47 R -47 46 R -46 24 R -94 0 R D 8416 4857 M
140 0 R D 9152 5091 M 0 -491 R D 9981 5091 M 0 -491 R D 10308 5091 M
-327 -327 R D 10098 4880 M 210 -280 R D 10927 5091 M -187 -491 R D
10927 5091 M 187 -491 R D 11640 5091 M 0 -491 R D 11640 5091 M 187 -491 R
187 491 R 0 -491 R D 12469 5091 M 0 -491 R D 12469 5091 M 328 -491 R 0 491 R
D 13252 5091 M 327 0 R D 13346 4857 M 140 0 R D 13252 4600 M 327 0 R D
14245 5091 M -47 -24 R -46 -46 R -24 -47 R -23 -70 R 0 -117 R 23 -70 R
24 -47 R 46 -47 R 47 -23 R 94 0 R 46 23 R 47 47 R 23 47 R 24 70 R 0 117 R
-24 70 R -23 47 R -47 46 R -46 24 R -94 0 R D 450 3100 M 14100 0 R D
590 3579 M 23 11 R 36 35 R 0 -245 R D 800 3567 M 0 12 R 12 23 R 12 12 R
23 11 R 47 0 R 23 -11 R 12 -12 R 12 -23 R 0 -24 R -12 -23 R -23 -35 R
-117 -117 R 163 0 R D 1022 3544 M 129 -164 R D 1151 3544 M -129 -164 R D
1687 3691 M 0 -491 R D 2014 3691 M 0 -491 R D 1687 3691 M 327 0 R D
2516 3691 M 0 -491 R D 2516 3691 M 211 0 R 70 -24 R 23 -23 R 24 -47 R
0 -70 R -24 -47 R -23 -23 R -70 -23 R -211 0 R D 3299 3691 M 164 -234 R
-164 -257 R D 3299 3691 M 327 0 R D 3299 3200 M 327 0 R D 4269 3691 M
0 -491 R D 4105 3691 M 327 0 R D 4958 3574 M 0 47 R 23 46 R 24 24 R 46 0 R
24 -24 R 23 -46 R 24 -94 R 0 -327 R D 5285 3574 M 0 47 R -23 46 R -24 24 R
-46 0 R -24 -24 R -23 -46 R -23 -94 R D 5974 3691 M 0 -491 R D 5928 3574 M
-71 -23 R -23 -24 R -23 -47 R 0 -70 R 23 -46 R 23 -24 R 71 -23 R 93 0 R
70 23 R 23 24 R 24 46 R 0 70 R -24 47 R -23 24 R -70 23 R -93 0 R D
6640 3691 M 327 -491 R D 6640 3200 M 327 491 R D 7656 3691 M 0 -491 R D
7446 3551 M 24 0 R 23 -24 R 23 -93 R 24 -47 R 23 -23 R 70 -24 R 47 0 R
70 24 R 23 23 R 24 47 R 23 93 R 23 24 R 24 0 R D 8299 3200 M 93 0 R
-70 164 R -23 93 R 0 94 R 23 70 R 47 46 R 70 24 R 47 0 R 70 -24 R 47 -46 R
23 -70 R 0 -94 R -23 -93 R -70 -164 R 93 0 R D 9315 3410 M 47 -70 R 23 -23 R
47 -24 R 47 0 R 47 24 R 23 23 R 23 47 R 0 47 R -23 46 R -23 24 R -47 23 R
-47 0 R -47 -23 R -23 -24 R -93 -140 R -24 -23 R -47 -24 R -46 0 R -47 24 R
-23 23 R -47 47 R 0 47 R 47 46 R 23 24 R 47 23 R 46 0 R 47 -23 R 24 -24 R
46 -70 R D 9958 3597 M 23 47 R 47 47 R 70 0 R 23 -24 R 0 -46 R -116 -351 R
0 -47 R 23 -23 R 70 0 R 47 47 R 23 46 R D 10811 3784 M 0 -771 R D
10834 3784 M 0 -771 R D 10811 3784 M 163 0 R D 10811 3013 M 163 0 R D
11523 3691 M 351 -584 R D 12586 3784 M 0 -771 R D 12610 3784 M 0 -771 R D
12446 3784 M 164 0 R D 12446 3013 M 164 0 R D 13322 3574 M -23 -47 R
-47 -70 R -70 -47 R D 13322 3574 M 24 -47 R 46 -70 R 47 -47 R D 14058 3200 M
421 0 R D 450 1700 M 14100 0 R D 590 2179 M 23 11 R 36 35 R 0 -245 R D
906 2225 M -117 -163 R 175 0 R D 906 2225 M 0 -245 R D 1022 2144 M
129 -164 R D 1151 2144 M -129 -164 R D 1687 2291 M 0 -164 R D 2633 2127 M
-46 -23 R -47 -47 R -24 -47 R -23 -70 R 0 -70 R 23 -47 R 47 -23 R 47 0 R
47 23 R 70 70 R 46 71 R 47 93 R 24 70 R D 2633 2127 M 47 0 R 23 -23 R
24 -47 R 46 -187 R 24 -47 R 23 -23 R 24 0 R D 3533 2291 M -47 -24 R
-47 -46 R -46 -94 R -24 -70 R -23 -93 R -24 -141 R -23 -210 R D 3533 2291 M
47 0 R 46 -47 R 0 -70 R -23 -47 R -23 -23 R -47 -24 R -70 0 R 46 -23 R
47 -47 R 24 -46 R 0 -71 R -24 -46 R -23 -24 R -47 -23 R -47 0 R -46 23 R
-24 24 R -23 70 R D 4105 2057 M 47 47 R 47 23 R 23 0 R 47 -23 R 23 -24 R
23 -70 R 0 -93 R -23 -117 R D 4479 2127 M -23 -70 R -24 -47 R -140 -210 R
-47 -117 R -23 -70 R D 5168 2127 M -70 0 R -47 -23 R -46 -47 R -24 -70 R
0 -70 R 24 -70 R 23 -24 R 47 -23 R 47 0 R 46 23 R 47 47 R 23 70 R 0 70 R
-23 70 R -47 47 R -46 47 R -24 47 R 0 46 R 24 24 R 46 0 R 47 -24 R 47 -46 R
D 6044 2104 M -46 23 R -70 0 R -47 -23 R -47 -47 R -23 -70 R 0 -70 R
23 -70 R 23 -24 R 47 -23 R 70 0 R 47 23 R D 5811 1964 M 187 0 R D
6804 2291 M -47 -24 R -23 -23 R 0 -23 R 23 -24 R 70 -23 R 70 0 R -93 -47 R
-70 -47 R -71 -70 R -23 -70 R 0 -47 R 23 -46 R 47 -47 R 70 -70 R 24 -47 R
0 -47 R -24 -23 R -46 0 R -24 47 R D 7423 2034 M 23 46 R 47 47 R 47 0 R
23 -23 R 0 -47 R -23 -93 R -47 -164 R D 7540 1964 M 46 93 R 47 47 R 47 23 R
47 0 R 46 -47 R 0 -70 R -23 -117 R -70 -280 R D 8463 2291 M -47 -24 R
-47 -70 R -23 -46 R -24 -71 R -23 -116 R 0 -94 R 23 -47 R 24 -23 R 46 0 R
47 23 R 47 70 R 23 47 R 24 70 R 23 117 R 0 94 R -23 46 R -24 24 R -46 0 R D
8322 2057 M 211 0 R D 9198 2127 M -46 -163 R -24 -94 R 0 -47 R 24 -23 R
46 0 R 47 47 R 24 46 R D 10028 2127 M -94 -327 R D 10262 2104 M -24 23 R
-23 0 R -47 -23 R -93 -94 R -47 -23 R -23 0 R 46 -23 R 24 -24 R 46 -117 R
24 -23 R 23 0 R 23 23 R D 10740 2291 M 47 0 R 47 -24 R 23 -23 R 187 -444 R D
10904 2127 M -140 -327 R D 11710 2127 M -140 -514 R D 11687 2034 M
-24 -117 R 0 -70 R 47 -47 R 47 0 R 47 23 R 46 47 R 47 94 R 47 163 R D
11897 1964 M -23 -94 R 0 -47 R 23 -23 R 47 0 R 46 47 R 24 46 R D
12446 2127 M 70 0 R -23 -140 R -24 -117 R -23 -70 R D 12750 2127 M -24 -70 R
-23 -47 R -47 -70 R -70 -70 R -70 -47 R -70 -23 R D 13439 2291 M -47 -24 R
-23 -23 R 0 -23 R 23 -24 R 70 -23 R 70 0 R D 13462 2174 M -70 -23 R
-46 -24 R -24 -47 R 0 -46 R 47 -47 R 70 -23 R 47 0 R D 13439 1964 M
-93 -24 R -47 -23 R -24 -47 R 0 -47 R 47 -70 R 94 -46 R 23 -24 R 0 -47 R
-47 -23 R -46 0 R D 14222 2127 M -47 -23 R -47 -47 R -23 -70 R 0 -70 R
23 -70 R 24 -24 R 46 -23 R 47 0 R 47 23 R 47 47 R 23 70 R 0 70 R -23 70 R
-24 24 R -47 23 R -46 0 R D 450 300 M 14100 0 R D 590 779 M 23 11 R 36 35 R
0 -245 R D 941 790 M -12 24 R -35 11 R -23 0 R -36 -11 R -23 -35 R -12 -59 R
0 -58 R 12 -47 R 23 -23 R 36 -12 R 11 0 R 35 12 R 24 23 R 11 35 R 0 12 R
-11 35 R -24 23 R -35 12 R -11 0 R -36 -12 R -23 -23 R -12 -35 R D
1022 744 M 129 -164 R D 1151 744 M -129 -164 R D 1804 727 M -94 -327 R D
1921 727 M 23 -140 R 23 -117 R 24 -70 R D 1640 657 M 47 47 R 70 23 R 304 0 R
D 2516 587 M 0 -70 R 24 -70 R 23 -24 R 47 -23 R 47 0 R 46 23 R 47 47 R
23 70 R 0 70 R -23 70 R -23 24 R -47 23 R -47 0 R -46 -23 R -47 -47 R
-24 -70 R -116 -374 R D 3673 727 M -234 0 R -46 -23 R -47 -47 R -24 -70 R
0 -70 R 24 -70 R 23 -24 R 47 -23 R 47 0 R 46 23 R 47 47 R 24 70 R 0 70 R
-24 70 R -23 24 R -47 23 R D 4339 727 M -70 -327 R D 4129 657 M 46 47 R
70 23 R 257 0 R D 4935 634 M 23 46 R 47 47 R 46 0 R 24 -23 R 0 -47 R
-47 -140 R 0 -70 R 47 -47 R 47 0 R 70 23 R 46 47 R 47 94 R 23 93 R 0 70 R D
6068 891 M -187 -678 R D 5951 727 M -70 -23 R -47 -47 R -23 -70 R 0 -70 R
23 -47 R 47 -47 R 70 -23 R 47 0 R 70 23 R 46 47 R 24 70 R 0 70 R -24 47 R
-46 47 R -70 23 R -47 0 R D 6617 727 M 46 0 R 47 -47 R 140 -420 R 47 -47 R
47 0 R D 6967 727 M -23 -47 R -47 -70 R -234 -280 R -46 -70 R -24 -47 R D
7773 891 M -187 -678 R D 7423 634 M 23 46 R 47 47 R 47 0 R 23 -23 R 0 -47 R
-23 -117 R 0 -70 R 23 -47 R 47 -23 R 46 0 R 71 23 R 46 47 R 47 70 R 47 117 R
23 70 R D 8416 727 M -47 -23 R -47 -70 R -23 -70 R 0 -71 R 23 -70 R 24 -23 R
46 0 R 47 23 R 47 70 R 23 94 R D 8486 493 M 23 -70 R 24 -23 R 46 0 R 47 23 R
47 70 R 23 71 R 0 70 R -23 70 R -24 23 R D 9315 610 M 47 -70 R 23 -23 R
47 -24 R 47 0 R 47 24 R 23 23 R 23 47 R 0 47 R -23 46 R -23 24 R -47 23 R
-47 0 R -47 -23 R -23 -24 R -93 -140 R -24 -23 R -47 -24 R -46 0 R -47 24 R
-23 23 R -47 47 R 0 47 R 47 46 R 23 24 R 47 23 R 46 0 R 47 -23 R 24 -24 R
46 -70 R D 9958 797 M 23 47 R 47 47 R 70 0 R 23 -24 R 0 -46 R -116 -351 R
0 -47 R 23 -23 R 70 0 R 47 47 R 23 46 R D 10811 984 M 0 -771 R D 10834 984 M
0 -771 R D 10811 984 M 163 0 R D 10811 213 M 163 0 R D 11523 891 M
351 -584 R D 12586 984 M 0 -771 R D 12610 984 M 0 -771 R D 12446 984 M
164 0 R D 12446 213 M 164 0 R D 13322 774 M -23 -47 R -47 -70 R -70 -47 R D
13322 774 M 24 -47 R 46 -70 R 47 -47 R D 14058 400 M 421 0 R D
%%PageTrailer
end
%%PageResources: font Helvetica
%%Trailer
%%Pages: 1
%%DocumentNeededResources: font Helvetica
%%EOF
