%!PS-Adobe-3.0 EPSF-3.0
%%BoundingBox: 0 0 481 425
%%Title: Graphics produced by IDL
%%For: jlgan@Hserver, /home/jlgan/work/phoenix
%%Creator: IDL Version 7.1.1 (linux x86_64 m64)
%%CreationDate: Tue Nov  4 11:29:53 2014
%%DocumentData: Clean7bit
%%Requirements: color
%%LanguageLevel: 1
%%PageOrder: Ascend
%%Pages: (atend)
%%DocumentNeededResources: (atend)
%%EndComments
%%BeginProlog
%+ prolog.ps -- Prolog for IDL generated PostScript files
%+ Copyright (c) 1988-2009 ITT Visual Information Solutions. All Rights Reserved.
%v 5
/$IDL_DICT 40 dict def $IDL_DICT begin /bdef { bind def } bind def /C
{currentpoint newpath moveto} bdef /CP {currentpoint} bdef /D {currentpoint
stroke moveto} bdef /F {closepath fill} bdef /K { setgray } bdef /M {moveto}
bdef /N {rmoveto} bdef /P {lineto} bdef /R {rlineto} bdef /S {gsave show
grestore} bdef /X {currentpoint pop} bdef /Z {gsave currentpoint lineto 20
setlinewidth 1 setlinecap stroke grestore} bdef /L0 {[] 0 setdash} bdef /L1
{[40 100] 0 setdash} bdef /L2 {[200 200] 0 setdash} bdef /L3 {[200 100 50
100] 0 setdash} bdef /L4 {[300 100 50 100 50 100 50 100] 0 setdash} bdef /L5
{[400 200] 0 setdash} bdef /STDFONT { findfont exch scalefont setfont } bdef
/ISOFONT { findfont dup length dict begin { 1 index /FID ne {def} {pop pop}
ifelse } forall /Encoding ISOLatin1Encoding def currentdict end /idltmpfont
exch definefont exch scalefont setfont } bdef /ISOBULLET { gsave /Helvetica
findfont exch scalefont setfont (\267) show currentpoint grestore moveto}
bdef /MITERLIMIT { 2.5 setmiterlimit } bdef end
%%EndProlog
%%Page: 0 1
%%PageRequirements: color
%%PageResources: (atend)
%%PageOrientation: Portrait
%%PageBoundingBox: 0 0 481 425
%%BeginPageSetup
$IDL_DICT begin 0.0283465 dup scale MITERLIMIT
%%IncludeResource: font Palatino-Roman
423.333 /Palatino-Roman STDFONT
%%EndPageSetup
0.000 0.000 0.000 setrgbcolor gsave 9277 14507 translate 0 0 M
1.25 dup scale -1617.56 0 N
(My Palatino Title) show grestore 30 setlinewidth L0 2220 1408 M 14114 0 R D
2220 1408 M 0 387 R D gsave 2220 880 translate 0 0 M -105.833 0 N
(0) show grestore 5357 1408 M 0 387 R D gsave 5357 880 translate 0 0 M
-105.833 0 N
(2) show grestore 8493 1408 M 0 387 R D gsave 8493 880 translate 0 0 M
-105.833 0 N
(4) show grestore 11629 1408 M 0 387 R D gsave 11629 880 translate 0 0 M
-105.833 0 N
(6) show grestore 14766 1408 M 0 387 R D gsave 14766 880 translate 0 0 M
-105.833 0 N
(8) show grestore 3004 1408 M 0 193 R D 3788 1408 M 0 193 R D 4572 1408 M
0 193 R D 6141 1408 M 0 193 R D 6925 1408 M 0 193 R D 7709 1408 M 0 193 R D
9277 1408 M 0 193 R D 10061 1408 M 0 193 R D 10845 1408 M 0 193 R D
12414 1408 M 0 193 R D 13198 1408 M 0 193 R D 13982 1408 M 0 193 R D
15550 1408 M 0 193 R D 16334 1408 M 0 193 R D 2220 14296 M 14114 0 R D
2220 14296 M 0 -387 R D 5357 14296 M 0 -387 R D 8493 14296 M 0 -387 R D
11629 14296 M 0 -387 R D 14766 14296 M 0 -387 R D 3004 14296 M 0 -193 R D
3788 14296 M 0 -193 R D 4572 14296 M 0 -193 R D 6141 14296 M 0 -193 R D
6925 14296 M 0 -193 R D 7709 14296 M 0 -193 R D 9277 14296 M 0 -193 R D
10061 14296 M 0 -193 R D 10845 14296 M 0 -193 R D 12414 14296 M 0 -193 R D
13198 14296 M 0 -193 R D 13982 14296 M 0 -193 R D 15550 14296 M 0 -193 R D
16334 14296 M 0 -193 R D 2220 1408 M 0 12888 R D 2220 1408 M 424 0 R D
gsave 2109 1408 translate 0 0 M -211.667 0 N
(0) show grestore 2220 4272 M 424 0 R D gsave 2109 4131 translate 0 0 M
-211.667 0 N
(2) show grestore 2220 7136 M 424 0 R D gsave 2109 6995 translate 0 0 M
-211.667 0 N
(4) show grestore 2220 10000 M 424 0 R D gsave 2109 9859 translate 0 0 M
-211.667 0 N
(6) show grestore 2220 12864 M 424 0 R D gsave 2109 12723 translate 0 0 M
-211.667 0 N
(8) show grestore 2220 2124 M 212 0 R D 2220 2840 M 212 0 R D 2220 3556 M
212 0 R D 2220 4988 M 212 0 R D 2220 5704 M 212 0 R D 2220 6420 M 212 0 R D
2220 7852 M 212 0 R D 2220 8568 M 212 0 R D 2220 9284 M 212 0 R D
2220 10716 M 212 0 R D 2220 11432 M 212 0 R D 2220 12148 M 212 0 R D
2220 13580 M 212 0 R D 2220 14296 M 212 0 R D 16334 1408 M 0 12888 R D
16334 1408 M -423 0 R D 16334 4272 M -423 0 R D 16334 7136 M -423 0 R D
16334 10000 M -423 0 R D 16334 12864 M -423 0 R D 16334 2124 M -212 0 R D
16334 2840 M -212 0 R D 16334 3556 M -212 0 R D 16334 4988 M -212 0 R D
16334 5704 M -212 0 R D 16334 6420 M -212 0 R D 16334 7852 M -212 0 R D
16334 8568 M -212 0 R D 16334 9284 M -212 0 R D 16334 10716 M -212 0 R D
16334 11432 M -212 0 R D 16334 12148 M -212 0 R D 16334 13580 M -212 0 R D
16334 14296 M -212 0 R D 2220 1408 M 1568 1432 R 1569 1432 R 1568 1432 R
1568 1432 R 1568 1432 R 1568 1432 R 1569 1432 R 1568 1432 R 1568 1432 R D
%%PageTrailer
end
%%PageResources: font Palatino-Roman
%%Trailer
%%Pages: 1
%%DocumentNeededResources: font Palatino-Roman
%%EOF
