%!PS-Adobe-3.0 EPSF-3.0
%%BoundingBox: 0 0 396 453
%%Title: Graphics produced by IDL
%%For: dacia@Lserver, /home/dacia/work/subhalo_model
%%Creator: IDL Version 7.0 (linux x86_64 m64)
%%CreationDate: Tue Dec 22 17:42:07 2009
%%DocumentData: Clean7bit
%%Requirements: color
%%LanguageLevel: 1
%%PageOrder: Ascend
%%Pages: (atend)
%%DocumentNeededResources: (atend)
%%EndComments
%%BeginProlog
%+ prolog.ps -- Prolog for IDL generated PostScript files
%+ Copyright (c) 1988-2007 ITT Visual Information Solutions. All Rights Reserved.
%v 5
/$IDL_DICT 40 dict def $IDL_DICT begin /bdef { bind def } bind def /C
{currentpoint newpath moveto} bdef /CP {currentpoint} bdef /D {currentpoint
stroke moveto} bdef /F {closepath fill} bdef /K { setgray } bdef /M {moveto}
bdef /N {rmoveto} bdef /P {lineto} bdef /R {rlineto} bdef /S {gsave show
grestore} bdef /X {currentpoint pop} bdef /Z {gsave currentpoint lineto 20
setlinewidth 1 setlinecap stroke grestore} bdef /L0 {[] 0 setdash} bdef /L1
{[40 100] 0 setdash} bdef /L2 {[200 200] 0 setdash} bdef /L3 {[200 100 50
100] 0 setdash} bdef /L4 {[300 100 50 100 50 100 50 100] 0 setdash} bdef /L5
{[400 200] 0 setdash} bdef /STDFONT { findfont exch scalefont setfont } bdef
/ISOFONT { findfont dup length dict begin { 1 index /FID ne {def} {pop pop}
ifelse } forall /Encoding ISOLatin1Encoding def currentdict end /idltmpfont
exch definefont exch scalefont setfont } bdef /ISOBULLET { gsave /Helvetica
findfont exch scalefont setfont (\267) show currentpoint grestore moveto}
bdef /MITERLIMIT { 2.5 setmiterlimit } bdef end
%%EndProlog
%%Page: 0 1
%%PageRequirements: color
%%PageResources: (atend)
%%PageOrientation: Portrait
%%PageBoundingBox: 0 0 396 453
%%BeginPageSetup
$IDL_DICT begin 0.0283465 dup scale MITERLIMIT
%%IncludeResource: font Helvetica
423.333 /Helvetica STDFONT
%%EndPageSetup
0.000 0.000 0.000 setrgbcolor gsave 7910 176 translate 0 0 M 1.2 dup scale
-411.48 0 N
(m/M) show grestore gsave 746 8544 translate 0 0 M 90 rotate 1.2 dup scale
-1164.17 0 N
(dN/dln\(m/M\)) show grestore 40 setlinewidth L0 2100 10923 M 5810 0 R D
2586 10923 M 0 190 R D gsave 2586 10284 translate 0 0 M 1.21 dup scale
-58.8433 0 N
( ) show grestore 4199 10923 M 0 190 R D gsave 4199 10284 translate 0 0 M
1.21 dup scale -58.8433 0 N
( ) show grestore 5812 10923 M 0 190 R D gsave 5812 10284 translate 0 0 M
1.21 dup scale -58.8433 0 N
( ) show grestore 7425 10923 M 0 190 R D gsave 7425 10284 translate 0 0 M
1.21 dup scale -58.8433 0 N
( ) show grestore 2100 10923 M 0 95 R D 2228 10923 M 0 95 R D 2336 10923 M
0 95 R D 2429 10923 M 0 95 R D 2512 10923 M 0 95 R D 3071 10923 M 0 95 R D
3355 10923 M 0 95 R D 3557 10923 M 0 95 R D 3713 10923 M 0 95 R D
3841 10923 M 0 95 R D 3949 10923 M 0 95 R D 4042 10923 M 0 95 R D
4125 10923 M 0 95 R D 4684 10923 M 0 95 R D 4968 10923 M 0 95 R D
5170 10923 M 0 95 R D 5326 10923 M 0 95 R D 5454 10923 M 0 95 R D
5562 10923 M 0 95 R D 5655 10923 M 0 95 R D 5738 10923 M 0 95 R D
6297 10923 M 0 95 R D 6581 10923 M 0 95 R D 6783 10923 M 0 95 R D
6939 10923 M 0 95 R D 7067 10923 M 0 95 R D 7175 10923 M 0 95 R D
7268 10923 M 0 95 R D 7351 10923 M 0 95 R D 7910 10923 M 0 95 R D
2100 15680 M 5810 0 R D 2586 15680 M 0 -190 R D 4199 15680 M 0 -190 R D
5812 15680 M 0 -190 R D 7425 15680 M 0 -190 R D 2100 15680 M 0 -95 R D
2228 15680 M 0 -95 R D 2336 15680 M 0 -95 R D 2429 15680 M 0 -95 R D
2512 15680 M 0 -95 R D 3071 15680 M 0 -95 R D 3355 15680 M 0 -95 R D
3557 15680 M 0 -95 R D 3713 15680 M 0 -95 R D 3841 15680 M 0 -95 R D
3949 15680 M 0 -95 R D 4042 15680 M 0 -95 R D 4125 15680 M 0 -95 R D
4684 15680 M 0 -95 R D 4968 15680 M 0 -95 R D 5170 15680 M 0 -95 R D
5326 15680 M 0 -95 R D 5454 15680 M 0 -95 R D 5562 15680 M 0 -95 R D
5655 15680 M 0 -95 R D 5738 15680 M 0 -95 R D 6297 15680 M 0 -95 R D
6581 15680 M 0 -95 R D 6783 15680 M 0 -95 R D 6939 15680 M 0 -95 R D
7067 15680 M 0 -95 R D 7175 15680 M 0 -95 R D 7268 15680 M 0 -95 R D
7351 15680 M 0 -95 R D 7910 15680 M 0 -95 R D 2100 10923 M 0 4757 R D
2100 11572 M 232 0 R D gsave 1966 11401 translate 0 0 M 1.21 dup scale
-704.08 0 N
(10) show X 192.937 M
%%IncludeResource: font Helvetica
262.467 /Helvetica STDFONT
(-1) show grestore
%%IncludeResource: font Helvetica
423.333 /Helvetica STDFONT 2100 12816 M 232 0 R D
gsave 1966 12646 translate 0 0 M 1.21 dup scale -235.373 0 N
(1) show grestore 2100 14061 M 232 0 R D gsave 1966 13891 translate 0 0 M
1.21 dup scale -470.747 0 N
(10) show grestore 2100 15306 M 232 0 R D gsave 1966 15135 translate 0 0 M
1.21 dup scale -616.678 0 N
(10) show X 192.937 M
%%IncludeResource: font Helvetica
262.467 /Helvetica STDFONT
(2) show grestore
%%IncludeResource: font Helvetica
423.333 /Helvetica STDFONT 2100 11076 M 116 0 R D 2100 11197 M 116 0 R D
2100 11296 M 116 0 R D 2100 11379 M 116 0 R D 2100 11451 M 116 0 R D
2100 11515 M 116 0 R D 2100 11946 M 116 0 R D 2100 12166 M 116 0 R D
2100 12321 M 116 0 R D 2100 12442 M 116 0 R D 2100 12540 M 116 0 R D
2100 12624 M 116 0 R D 2100 12696 M 116 0 R D 2100 12759 M 116 0 R D
2100 13191 M 116 0 R D 2100 13410 M 116 0 R D 2100 13566 M 116 0 R D
2100 13686 M 116 0 R D 2100 13785 M 116 0 R D 2100 13868 M 116 0 R D
2100 13940 M 116 0 R D 2100 14004 M 116 0 R D 2100 14436 M 116 0 R D
2100 14655 M 116 0 R D 2100 14810 M 116 0 R D 2100 14931 M 116 0 R D
2100 15029 M 116 0 R D 2100 15113 M 116 0 R D 2100 15185 M 116 0 R D
2100 15249 M 116 0 R D 2100 15680 M 116 0 R D 7910 10923 M 0 4757 R D
7910 11572 M -232 0 R D 7910 12816 M -232 0 R D 7910 14061 M -232 0 R D
7910 15306 M -232 0 R D 7910 11076 M -116 0 R D 7910 11197 M -116 0 R D
7910 11296 M -116 0 R D 7910 11379 M -116 0 R D 7910 11451 M -116 0 R D
7910 11515 M -116 0 R D 7910 11946 M -116 0 R D 7910 12166 M -116 0 R D
7910 12321 M -116 0 R D 7910 12442 M -116 0 R D 7910 12540 M -116 0 R D
7910 12624 M -116 0 R D 7910 12696 M -116 0 R D 7910 12759 M -116 0 R D
7910 13191 M -116 0 R D 7910 13410 M -116 0 R D 7910 13566 M -116 0 R D
7910 13686 M -116 0 R D 7910 13785 M -116 0 R D 7910 13868 M -116 0 R D
7910 13940 M -116 0 R D 7910 14004 M -116 0 R D 7910 14436 M -116 0 R D
7910 14655 M -116 0 R D 7910 14810 M -116 0 R D 7910 14931 M -116 0 R D
7910 15029 M -116 0 R D 7910 15113 M -116 0 R D 7910 15185 M -116 0 R D
7910 15249 M -116 0 R D 7910 15680 M -116 0 R D L5 2586 14585 M 483 -261 R
484 -268 R 484 -338 R 484 -305 R 484 -322 R 484 -323 R 484 -334 R 484 -297 R
484 -309 R 484 -453 R D L0 0.000 0.000 1.000 setrgbcolor 2586 14989 M
483 -248 R 484 -312 R 484 -329 R 484 -274 R 484 -312 R 484 -240 R 484 -358 R
484 -133 R 484 -249 R 484 -101 R D 2586 14452 M 483 -176 R 484 -295 R
484 -329 R 484 -269 R 484 -264 R 484 -319 R 484 -400 R 484 49 R 484 -390 R
484 -189 R D 2586 13911 M 483 -90 R 484 -244 R 484 -364 R 484 -145 R
484 -416 R 484 -430 R 484 0 R 484 -76 R 484 -567 R 484 0 R D
0.000 0.000 0.000 setrgbcolor gsave 2586 11379 translate 0 0 M 1.1 dup scale
(1e11h) show X 192.937 M
%%IncludeResource: font Helvetica
262.467 /Helvetica STDFONT
(-1) show X 0 M
%%IncludeResource: font Helvetica
423.333 /Helvetica STDFONT
(M) show X -101.051 M
%%IncludeResource: font Helvetica
262.467 /Helvetica STDFONT
(sun) show grestore
%%IncludeResource: font Helvetica
423.333 /Helvetica STDFONT 7910 10923 M 5810 0 R D 8396 10923 M 0 190 R D
gsave 8396 10284 translate 0 0 M 1.21 dup scale -58.8433 0 N
( ) show grestore 10009 10923 M 0 190 R D gsave 10009 10284 translate 0 0 M
1.21 dup scale -58.8433 0 N
( ) show grestore 11622 10923 M 0 190 R D gsave 11622 10284 translate 0 0 M
1.21 dup scale -58.8433 0 N
( ) show grestore 13235 10923 M 0 190 R D gsave 13235 10284 translate 0 0 M
1.21 dup scale -58.8433 0 N
( ) show grestore 7910 10923 M 0 95 R D 8038 10923 M 0 95 R D 8146 10923 M
0 95 R D 8239 10923 M 0 95 R D 8322 10923 M 0 95 R D 8881 10923 M 0 95 R D
9165 10923 M 0 95 R D 9367 10923 M 0 95 R D 9523 10923 M 0 95 R D
9651 10923 M 0 95 R D 9759 10923 M 0 95 R D 9852 10923 M 0 95 R D
9935 10923 M 0 95 R D 10494 10923 M 0 95 R D 10778 10923 M 0 95 R D
10980 10923 M 0 95 R D 11136 10923 M 0 95 R D 11264 10923 M 0 95 R D
11372 10923 M 0 95 R D 11465 10923 M 0 95 R D 11548 10923 M 0 95 R D
12107 10923 M 0 95 R D 12391 10923 M 0 95 R D 12593 10923 M 0 95 R D
12749 10923 M 0 95 R D 12877 10923 M 0 95 R D 12985 10923 M 0 95 R D
13078 10923 M 0 95 R D 13161 10923 M 0 95 R D 13720 10923 M 0 95 R D
7910 15680 M 5810 0 R D 8396 15680 M 0 -190 R D 10009 15680 M 0 -190 R D
11622 15680 M 0 -190 R D 13235 15680 M 0 -190 R D 7910 15680 M 0 -95 R D
8038 15680 M 0 -95 R D 8146 15680 M 0 -95 R D 8239 15680 M 0 -95 R D
8322 15680 M 0 -95 R D 8881 15680 M 0 -95 R D 9165 15680 M 0 -95 R D
9367 15680 M 0 -95 R D 9523 15680 M 0 -95 R D 9651 15680 M 0 -95 R D
9759 15680 M 0 -95 R D 9852 15680 M 0 -95 R D 9935 15680 M 0 -95 R D
10494 15680 M 0 -95 R D 10778 15680 M 0 -95 R D 10980 15680 M 0 -95 R D
11136 15680 M 0 -95 R D 11264 15680 M 0 -95 R D 11372 15680 M 0 -95 R D
11465 15680 M 0 -95 R D 11548 15680 M 0 -95 R D 12107 15680 M 0 -95 R D
12391 15680 M 0 -95 R D 12593 15680 M 0 -95 R D 12749 15680 M 0 -95 R D
12877 15680 M 0 -95 R D 12985 15680 M 0 -95 R D 13078 15680 M 0 -95 R D
13161 15680 M 0 -95 R D 13720 15680 M 0 -95 R D 7910 10923 M 0 4757 R D
7910 11572 M 232 0 R D gsave 7776 11401 translate 0 0 M 1.21 dup scale
-117.687 0 N
( ) show grestore 7910 12816 M 232 0 R D gsave 7776 12646 translate 0 0 M
1.21 dup scale -117.687 0 N
( ) show grestore 7910 14061 M 232 0 R D gsave 7776 13891 translate 0 0 M
1.21 dup scale -117.687 0 N
( ) show grestore 7910 15306 M 232 0 R D gsave 7776 15135 translate 0 0 M
1.21 dup scale -117.687 0 N
( ) show grestore 7910 11076 M 116 0 R D 7910 11197 M 116 0 R D 7910 11296 M
116 0 R D 7910 11379 M 116 0 R D 7910 11451 M 116 0 R D 7910 11515 M 116 0 R
D 7910 11946 M 116 0 R D 7910 12166 M 116 0 R D 7910 12321 M 116 0 R D
7910 12442 M 116 0 R D 7910 12540 M 116 0 R D 7910 12624 M 116 0 R D
7910 12696 M 116 0 R D 7910 12759 M 116 0 R D 7910 13191 M 116 0 R D
7910 13410 M 116 0 R D 7910 13566 M 116 0 R D 7910 13686 M 116 0 R D
7910 13785 M 116 0 R D 7910 13868 M 116 0 R D 7910 13940 M 116 0 R D
7910 14004 M 116 0 R D 7910 14436 M 116 0 R D 7910 14655 M 116 0 R D
7910 14810 M 116 0 R D 7910 14931 M 116 0 R D 7910 15029 M 116 0 R D
7910 15113 M 116 0 R D 7910 15185 M 116 0 R D 7910 15249 M 116 0 R D
7910 15680 M 116 0 R D 13720 10923 M 0 4757 R D 13720 11572 M -232 0 R D
13720 12816 M -232 0 R D 13720 14061 M -232 0 R D 13720 15306 M -232 0 R D
13720 11076 M -116 0 R D 13720 11197 M -116 0 R D 13720 11296 M -116 0 R D
13720 11379 M -116 0 R D 13720 11451 M -116 0 R D 13720 11515 M -116 0 R D
13720 11946 M -116 0 R D 13720 12166 M -116 0 R D 13720 12321 M -116 0 R D
13720 12442 M -116 0 R D 13720 12540 M -116 0 R D 13720 12624 M -116 0 R D
13720 12696 M -116 0 R D 13720 12759 M -116 0 R D 13720 13191 M -116 0 R D
13720 13410 M -116 0 R D 13720 13566 M -116 0 R D 13720 13686 M -116 0 R D
13720 13785 M -116 0 R D 13720 13868 M -116 0 R D 13720 13940 M -116 0 R D
13720 14004 M -116 0 R D 13720 14436 M -116 0 R D 13720 14655 M -116 0 R D
13720 14810 M -116 0 R D 13720 14931 M -116 0 R D 13720 15029 M -116 0 R D
13720 15113 M -116 0 R D 13720 15185 M -116 0 R D 13720 15249 M -116 0 R D
13720 15680 M -116 0 R D L5 8396 14687 M 484 -260 R 483 -284 R 484 -313 R
484 -325 R 484 -303 R 484 -322 R 484 -323 R 484 -276 R 484 -324 R 484 -320 R
D L0 0.000 0.000 1.000 setrgbcolor 8396 15049 M 484 -228 R 483 -303 R
484 -325 R 484 -294 R 484 -342 R 484 -197 R 484 -349 R 484 -115 R 484 -276 R
484 -187 R D 8396 14590 M 484 -208 R 483 -267 R 484 -349 R 484 -252 R
484 -364 R 484 -209 R 484 -278 R 484 -156 R 484 -334 R 484 -84 R D
8396 14114 M 484 -84 R 483 -271 R 484 -396 R 484 -193 R 484 -403 R
484 -147 R 484 -273 R 484 -174 R 484 -259 R 484 -142 R D
0.000 0.000 0.000 setrgbcolor gsave 8396 11379 translate 0 0 M 1.1 dup scale
(1e12h) show X 192.937 M
%%IncludeResource: font Helvetica
262.467 /Helvetica STDFONT
(-1) show X 0 M
%%IncludeResource: font Helvetica
423.333 /Helvetica STDFONT
(M) show X -101.051 M
%%IncludeResource: font Helvetica
262.467 /Helvetica STDFONT
(sun) show grestore
%%IncludeResource: font Helvetica
423.333 /Helvetica STDFONT 2100 6165 M 5810 0 R D 2586 6165 M 0 191 R D
gsave 2586 5527 translate 0 0 M 1.21 dup scale -58.8433 0 N
( ) show grestore 4199 6165 M 0 191 R D gsave 4199 5527 translate 0 0 M
1.21 dup scale -58.8433 0 N
( ) show grestore 5812 6165 M 0 191 R D gsave 5812 5527 translate 0 0 M
1.21 dup scale -58.8433 0 N
( ) show grestore 7425 6165 M 0 191 R D gsave 7425 5527 translate 0 0 M
1.21 dup scale -58.8433 0 N
( ) show grestore 2100 6165 M 0 96 R D 2228 6165 M 0 96 R D 2336 6165 M
0 96 R D 2429 6165 M 0 96 R D 2512 6165 M 0 96 R D 3071 6165 M 0 96 R D
3355 6165 M 0 96 R D 3557 6165 M 0 96 R D 3713 6165 M 0 96 R D 3841 6165 M
0 96 R D 3949 6165 M 0 96 R D 4042 6165 M 0 96 R D 4125 6165 M 0 96 R D
4684 6165 M 0 96 R D 4968 6165 M 0 96 R D 5170 6165 M 0 96 R D 5326 6165 M
0 96 R D 5454 6165 M 0 96 R D 5562 6165 M 0 96 R D 5655 6165 M 0 96 R D
5738 6165 M 0 96 R D 6297 6165 M 0 96 R D 6581 6165 M 0 96 R D 6783 6165 M
0 96 R D 6939 6165 M 0 96 R D 7067 6165 M 0 96 R D 7175 6165 M 0 96 R D
7268 6165 M 0 96 R D 7351 6165 M 0 96 R D 7910 6165 M 0 96 R D 2100 10923 M
5810 0 R D 2586 10923 M 0 -191 R D 4199 10923 M 0 -191 R D 5812 10923 M
0 -191 R D 7425 10923 M 0 -191 R D 2100 10923 M 0 -95 R D 2228 10923 M
0 -95 R D 2336 10923 M 0 -95 R D 2429 10923 M 0 -95 R D 2512 10923 M 0 -95 R
D 3071 10923 M 0 -95 R D 3355 10923 M 0 -95 R D 3557 10923 M 0 -95 R D
3713 10923 M 0 -95 R D 3841 10923 M 0 -95 R D 3949 10923 M 0 -95 R D
4042 10923 M 0 -95 R D 4125 10923 M 0 -95 R D 4684 10923 M 0 -95 R D
4968 10923 M 0 -95 R D 5170 10923 M 0 -95 R D 5326 10923 M 0 -95 R D
5454 10923 M 0 -95 R D 5562 10923 M 0 -95 R D 5655 10923 M 0 -95 R D
5738 10923 M 0 -95 R D 6297 10923 M 0 -95 R D 6581 10923 M 0 -95 R D
6783 10923 M 0 -95 R D 6939 10923 M 0 -95 R D 7067 10923 M 0 -95 R D
7175 10923 M 0 -95 R D 7268 10923 M 0 -95 R D 7351 10923 M 0 -95 R D
7910 10923 M 0 -95 R D 2100 6165 M 0 4758 R D 2100 6814 M 232 0 R D
gsave 1966 6644 translate 0 0 M 1.21 dup scale -704.08 0 N
(10) show X 192.937 M
%%IncludeResource: font Helvetica
262.467 /Helvetica STDFONT
(-1) show grestore
%%IncludeResource: font Helvetica
423.333 /Helvetica STDFONT 2100 8059 M 232 0 R D
gsave 1966 7889 translate 0 0 M 1.21 dup scale -235.373 0 N
(1) show grestore 2100 9304 M 232 0 R D gsave 1966 9133 translate 0 0 M
1.21 dup scale -470.747 0 N
(10) show grestore 2100 10548 M 232 0 R D gsave 1966 10378 translate 0 0 M
1.21 dup scale -616.678 0 N
(10) show X 192.937 M
%%IncludeResource: font Helvetica
262.467 /Helvetica STDFONT
(2) show grestore
%%IncludeResource: font Helvetica
423.333 /Helvetica STDFONT 2100 6319 M 116 0 R D 2100 6440 M 116 0 R D
2100 6538 M 116 0 R D 2100 6622 M 116 0 R D 2100 6694 M 116 0 R D
2100 6757 M 116 0 R D 2100 7189 M 116 0 R D 2100 7408 M 116 0 R D
2100 7564 M 116 0 R D 2100 7684 M 116 0 R D 2100 7783 M 116 0 R D
2100 7866 M 116 0 R D 2100 7938 M 116 0 R D 2100 8002 M 116 0 R D
2100 8434 M 116 0 R D 2100 8653 M 116 0 R D 2100 8808 M 116 0 R D
2100 8929 M 116 0 R D 2100 9027 M 116 0 R D 2100 9111 M 116 0 R D
2100 9183 M 116 0 R D 2100 9247 M 116 0 R D 2100 9678 M 116 0 R D
2100 9897 M 116 0 R D 2100 10053 M 116 0 R D 2100 10173 M 116 0 R D
2100 10272 M 116 0 R D 2100 10355 M 116 0 R D 2100 10428 M 116 0 R D
2100 10491 M 116 0 R D 2100 10923 M 116 0 R D 7910 6165 M 0 4758 R D
7910 6814 M -232 0 R D 7910 8059 M -232 0 R D 7910 9304 M -232 0 R D
7910 10548 M -232 0 R D 7910 6319 M -116 0 R D 7910 6440 M -116 0 R D
7910 6538 M -116 0 R D 7910 6622 M -116 0 R D 7910 6694 M -116 0 R D
7910 6757 M -116 0 R D 7910 7189 M -116 0 R D 7910 7408 M -116 0 R D
7910 7564 M -116 0 R D 7910 7684 M -116 0 R D 7910 7783 M -116 0 R D
7910 7866 M -116 0 R D 7910 7938 M -116 0 R D 7910 8002 M -116 0 R D
7910 8434 M -116 0 R D 7910 8653 M -116 0 R D 7910 8808 M -116 0 R D
7910 8929 M -116 0 R D 7910 9027 M -116 0 R D 7910 9111 M -116 0 R D
7910 9183 M -116 0 R D 7910 9247 M -116 0 R D 7910 9678 M -116 0 R D
7910 9897 M -116 0 R D 7910 10053 M -116 0 R D 7910 10173 M -116 0 R D
7910 10272 M -116 0 R D 7910 10355 M -116 0 R D 7910 10428 M -116 0 R D
7910 10491 M -116 0 R D 7910 10923 M -116 0 R D L5 2586 10055 M 483 -264 R
484 -295 R 484 -299 R 484 -336 R 484 -284 R 484 -330 R 484 -335 R 484 -320 R
484 -353 R 484 -214 R D L0 0.000 0.000 1.000 setrgbcolor 2586 10354 M
483 -209 R 484 -293 R 484 -324 R 484 -269 R 484 -370 R 484 -192 R 484 -349 R
484 -196 R 484 -110 R 484 -158 R D 2586 9938 M 483 -184 R 484 -290 R
484 -341 R 484 -251 R 484 -333 R 484 -205 R 484 -325 R 484 -232 R 484 -56 R
484 -190 R D 2586 9494 M 483 -71 R 484 -261 R 484 -360 R 484 -272 R
484 -299 R 484 -267 R 484 -257 R 484 -219 R 484 -292 R 484 -130 R D
0.000 0.000 0.000 setrgbcolor gsave 2586 6622 translate 0 0 M 1.1 dup scale
(1e13h) show X 192.937 M
%%IncludeResource: font Helvetica
262.467 /Helvetica STDFONT
(-1) show X 0 M
%%IncludeResource: font Helvetica
423.333 /Helvetica STDFONT
(M) show X -101.051 M
%%IncludeResource: font Helvetica
262.467 /Helvetica STDFONT
(sun) show grestore
%%IncludeResource: font Helvetica
423.333 /Helvetica STDFONT 7910 6165 M 5810 0 R D 8396 6165 M 0 191 R D
gsave 8396 5527 translate 0 0 M 1.21 dup scale -352.04 0 N
(10) show X 192.937 M
%%IncludeResource: font Helvetica
262.467 /Helvetica STDFONT
(-4) show grestore
%%IncludeResource: font Helvetica
423.333 /Helvetica STDFONT 10009 6165 M 0 191 R D
gsave 10009 5527 translate 0 0 M 1.21 dup scale -352.04 0 N
(10) show X 192.937 M
%%IncludeResource: font Helvetica
262.467 /Helvetica STDFONT
(-3) show grestore
%%IncludeResource: font Helvetica
423.333 /Helvetica STDFONT 11622 6165 M 0 191 R D
gsave 11622 5527 translate 0 0 M 1.21 dup scale -352.04 0 N
(10) show X 192.937 M
%%IncludeResource: font Helvetica
262.467 /Helvetica STDFONT
(-2) show grestore
%%IncludeResource: font Helvetica
423.333 /Helvetica STDFONT 13235 6165 M 0 191 R D
gsave 13235 5527 translate 0 0 M 1.21 dup scale -352.04 0 N
(10) show X 192.937 M
%%IncludeResource: font Helvetica
262.467 /Helvetica STDFONT
(-1) show grestore
%%IncludeResource: font Helvetica
423.333 /Helvetica STDFONT 7910 6165 M 0 96 R D 8038 6165 M 0 96 R D
8146 6165 M 0 96 R D 8239 6165 M 0 96 R D 8322 6165 M 0 96 R D 8881 6165 M
0 96 R D 9165 6165 M 0 96 R D 9367 6165 M 0 96 R D 9523 6165 M 0 96 R D
9651 6165 M 0 96 R D 9759 6165 M 0 96 R D 9852 6165 M 0 96 R D 9935 6165 M
0 96 R D 10494 6165 M 0 96 R D 10778 6165 M 0 96 R D 10980 6165 M 0 96 R D
11136 6165 M 0 96 R D 11264 6165 M 0 96 R D 11372 6165 M 0 96 R D
11465 6165 M 0 96 R D 11548 6165 M 0 96 R D 12107 6165 M 0 96 R D
12391 6165 M 0 96 R D 12593 6165 M 0 96 R D 12749 6165 M 0 96 R D
12877 6165 M 0 96 R D 12985 6165 M 0 96 R D 13078 6165 M 0 96 R D
13161 6165 M 0 96 R D 13720 6165 M 0 96 R D 7910 10923 M 5810 0 R D
8396 10923 M 0 -191 R D 10009 10923 M 0 -191 R D 11622 10923 M 0 -191 R D
13235 10923 M 0 -191 R D 7910 10923 M 0 -95 R D 8038 10923 M 0 -95 R D
8146 10923 M 0 -95 R D 8239 10923 M 0 -95 R D 8322 10923 M 0 -95 R D
8881 10923 M 0 -95 R D 9165 10923 M 0 -95 R D 9367 10923 M 0 -95 R D
9523 10923 M 0 -95 R D 9651 10923 M 0 -95 R D 9759 10923 M 0 -95 R D
9852 10923 M 0 -95 R D 9935 10923 M 0 -95 R D 10494 10923 M 0 -95 R D
10778 10923 M 0 -95 R D 10980 10923 M 0 -95 R D 11136 10923 M 0 -95 R D
11264 10923 M 0 -95 R D 11372 10923 M 0 -95 R D 11465 10923 M 0 -95 R D
11548 10923 M 0 -95 R D 12107 10923 M 0 -95 R D 12391 10923 M 0 -95 R D
12593 10923 M 0 -95 R D 12749 10923 M 0 -95 R D 12877 10923 M 0 -95 R D
12985 10923 M 0 -95 R D 13078 10923 M 0 -95 R D 13161 10923 M 0 -95 R D
13720 10923 M 0 -95 R D 7910 6165 M 0 4758 R D 7910 6814 M 232 0 R D
gsave 7776 6644 translate 0 0 M 1.21 dup scale -117.687 0 N
( ) show grestore 7910 8059 M 232 0 R D gsave 7776 7889 translate 0 0 M
1.21 dup scale -117.687 0 N
( ) show grestore 7910 9304 M 232 0 R D gsave 7776 9133 translate 0 0 M
1.21 dup scale -117.687 0 N
( ) show grestore 7910 10548 M 232 0 R D gsave 7776 10378 translate 0 0 M
1.21 dup scale -117.687 0 N
( ) show grestore 7910 6319 M 116 0 R D 7910 6440 M 116 0 R D 7910 6538 M
116 0 R D 7910 6622 M 116 0 R D 7910 6694 M 116 0 R D 7910 6757 M 116 0 R D
7910 7189 M 116 0 R D 7910 7408 M 116 0 R D 7910 7564 M 116 0 R D
7910 7684 M 116 0 R D 7910 7783 M 116 0 R D 7910 7866 M 116 0 R D
7910 7938 M 116 0 R D 7910 8002 M 116 0 R D 7910 8434 M 116 0 R D
7910 8653 M 116 0 R D 7910 8808 M 116 0 R D 7910 8929 M 116 0 R D
7910 9027 M 116 0 R D 7910 9111 M 116 0 R D 7910 9183 M 116 0 R D
7910 9247 M 116 0 R D 7910 9678 M 116 0 R D 7910 9897 M 116 0 R D
7910 10053 M 116 0 R D 7910 10173 M 116 0 R D 7910 10272 M 116 0 R D
7910 10355 M 116 0 R D 7910 10428 M 116 0 R D 7910 10491 M 116 0 R D
7910 10923 M 116 0 R D 13720 6165 M 0 4758 R D 13720 6814 M -232 0 R D
13720 8059 M -232 0 R D 13720 9304 M -232 0 R D 13720 10548 M -232 0 R D
13720 6319 M -116 0 R D 13720 6440 M -116 0 R D 13720 6538 M -116 0 R D
13720 6622 M -116 0 R D 13720 6694 M -116 0 R D 13720 6757 M -116 0 R D
13720 7189 M -116 0 R D 13720 7408 M -116 0 R D 13720 7564 M -116 0 R D
13720 7684 M -116 0 R D 13720 7783 M -116 0 R D 13720 7866 M -116 0 R D
13720 7938 M -116 0 R D 13720 8002 M -116 0 R D 13720 8434 M -116 0 R D
13720 8653 M -116 0 R D 13720 8808 M -116 0 R D 13720 8929 M -116 0 R D
13720 9027 M -116 0 R D 13720 9111 M -116 0 R D 13720 9183 M -116 0 R D
13720 9247 M -116 0 R D 13720 9678 M -116 0 R D 13720 9897 M -116 0 R D
13720 10053 M -116 0 R D 13720 10173 M -116 0 R D 13720 10272 M -116 0 R D
13720 10355 M -116 0 R D 13720 10428 M -116 0 R D 13720 10491 M -116 0 R D
13720 10923 M -116 0 R D L5 8396 10190 M 484 -250 R 483 -290 R 484 -298 R
484 -325 R 484 -325 R 484 -298 R 484 -361 R 484 -225 R 484 -344 R 484 -291 R
D L0 0.000 0.000 1.000 setrgbcolor 8396 10431 M 484 -178 R 483 -310 R
484 -285 R 484 -306 R 484 -300 R 484 -221 R 484 -353 R 484 -158 R 484 -182 R
484 -155 R D 8396 10046 M 484 -145 R 483 -268 R 484 -344 R 484 -237 R
484 -315 R 484 -296 R 484 -251 R 484 -216 R 484 -224 R 484 -107 R D
8396 9634 M 484 -7 R 483 -270 R 484 -328 R 484 -249 R 484 -332 R 484 -271 R
484 -261 R 484 -195 R 484 -306 R 484 -26 R D 0.000 0.000 0.000 setrgbcolor
gsave 8396 6622 translate 0 0 M 1.1 dup scale
(1e14h) show X 192.937 M
%%IncludeResource: font Helvetica
262.467 /Helvetica STDFONT
(-1) show X 0 M
%%IncludeResource: font Helvetica
423.333 /Helvetica STDFONT
(M) show X -101.051 M
%%IncludeResource: font Helvetica
262.467 /Helvetica STDFONT
(sun) show grestore
%%IncludeResource: font Helvetica
423.333 /Helvetica STDFONT 2100 1408 M 5810 0 R D 2586 1408 M 0 190 R D
gsave 2586 769 translate 0 0 M 1.21 dup scale -352.04 0 N
(10) show X 192.937 M
%%IncludeResource: font Helvetica
262.467 /Helvetica STDFONT
(-4) show grestore
%%IncludeResource: font Helvetica
423.333 /Helvetica STDFONT 4199 1408 M 0 190 R D
gsave 4199 769 translate 0 0 M 1.21 dup scale -352.04 0 N
(10) show X 192.937 M
%%IncludeResource: font Helvetica
262.467 /Helvetica STDFONT
(-3) show grestore
%%IncludeResource: font Helvetica
423.333 /Helvetica STDFONT 5812 1408 M 0 190 R D
gsave 5812 769 translate 0 0 M 1.21 dup scale -352.04 0 N
(10) show X 192.937 M
%%IncludeResource: font Helvetica
262.467 /Helvetica STDFONT
(-2) show grestore
%%IncludeResource: font Helvetica
423.333 /Helvetica STDFONT 7425 1408 M 0 190 R D
gsave 7425 769 translate 0 0 M 1.21 dup scale -352.04 0 N
(10) show X 192.937 M
%%IncludeResource: font Helvetica
262.467 /Helvetica STDFONT
(-1) show grestore
%%IncludeResource: font Helvetica
423.333 /Helvetica STDFONT 2100 1408 M 0 95 R D 2228 1408 M 0 95 R D
2336 1408 M 0 95 R D 2429 1408 M 0 95 R D 2512 1408 M 0 95 R D 3071 1408 M
0 95 R D 3355 1408 M 0 95 R D 3557 1408 M 0 95 R D 3713 1408 M 0 95 R D
3841 1408 M 0 95 R D 3949 1408 M 0 95 R D 4042 1408 M 0 95 R D 4125 1408 M
0 95 R D 4684 1408 M 0 95 R D 4968 1408 M 0 95 R D 5170 1408 M 0 95 R D
5326 1408 M 0 95 R D 5454 1408 M 0 95 R D 5562 1408 M 0 95 R D 5655 1408 M
0 95 R D 5738 1408 M 0 95 R D 6297 1408 M 0 95 R D 6581 1408 M 0 95 R D
6783 1408 M 0 95 R D 6939 1408 M 0 95 R D 7067 1408 M 0 95 R D 7175 1408 M
0 95 R D 7268 1408 M 0 95 R D 7351 1408 M 0 95 R D 7910 1408 M 0 95 R D
2100 6165 M 5810 0 R D 2586 6165 M 0 -190 R D 4199 6165 M 0 -190 R D
5812 6165 M 0 -190 R D 7425 6165 M 0 -190 R D 2100 6165 M 0 -95 R D
2228 6165 M 0 -95 R D 2336 6165 M 0 -95 R D 2429 6165 M 0 -95 R D
2512 6165 M 0 -95 R D 3071 6165 M 0 -95 R D 3355 6165 M 0 -95 R D
3557 6165 M 0 -95 R D 3713 6165 M 0 -95 R D 3841 6165 M 0 -95 R D
3949 6165 M 0 -95 R D 4042 6165 M 0 -95 R D 4125 6165 M 0 -95 R D
4684 6165 M 0 -95 R D 4968 6165 M 0 -95 R D 5170 6165 M 0 -95 R D
5326 6165 M 0 -95 R D 5454 6165 M 0 -95 R D 5562 6165 M 0 -95 R D
5655 6165 M 0 -95 R D 5738 6165 M 0 -95 R D 6297 6165 M 0 -95 R D
6581 6165 M 0 -95 R D 6783 6165 M 0 -95 R D 6939 6165 M 0 -95 R D
7067 6165 M 0 -95 R D 7175 6165 M 0 -95 R D 7268 6165 M 0 -95 R D
7351 6165 M 0 -95 R D 7910 6165 M 0 -95 R D 2100 1408 M 0 4757 R D
2100 2057 M 232 0 R D gsave 1966 1887 translate 0 0 M 1.21 dup scale
-704.08 0 N
(10) show X 192.937 M
%%IncludeResource: font Helvetica
262.467 /Helvetica STDFONT
(-1) show grestore
%%IncludeResource: font Helvetica
423.333 /Helvetica STDFONT 2100 3302 M 232 0 R D
gsave 1966 3131 translate 0 0 M 1.21 dup scale -235.373 0 N
(1) show grestore 2100 4546 M 232 0 R D gsave 1966 4376 translate 0 0 M
1.21 dup scale -470.747 0 N
(10) show grestore 2100 5791 M 232 0 R D gsave 1966 5620 translate 0 0 M
1.21 dup scale -616.678 0 N
(10) show X 192.937 M
%%IncludeResource: font Helvetica
262.467 /Helvetica STDFONT
(2) show grestore
%%IncludeResource: font Helvetica
423.333 /Helvetica STDFONT 2100 1562 M 116 0 R D 2100 1682 M 116 0 R D
2100 1781 M 116 0 R D 2100 1864 M 116 0 R D 2100 1936 M 116 0 R D
2100 2000 M 116 0 R D 2100 2432 M 116 0 R D 2100 2651 M 116 0 R D
2100 2806 M 116 0 R D 2100 2927 M 116 0 R D 2100 3025 M 116 0 R D
2100 3109 M 116 0 R D 2100 3181 M 116 0 R D 2100 3245 M 116 0 R D
2100 3676 M 116 0 R D 2100 3895 M 116 0 R D 2100 4051 M 116 0 R D
2100 4171 M 116 0 R D 2100 4270 M 116 0 R D 2100 4353 M 116 0 R D
2100 4426 M 116 0 R D 2100 4489 M 116 0 R D 2100 4921 M 116 0 R D
2100 5140 M 116 0 R D 2100 5295 M 116 0 R D 2100 5416 M 116 0 R D
2100 5515 M 116 0 R D 2100 5598 M 116 0 R D 2100 5670 M 116 0 R D
2100 5734 M 116 0 R D 2100 6165 M 116 0 R D 7910 1408 M 0 4757 R D
7910 2057 M -232 0 R D 7910 3302 M -232 0 R D 7910 4546 M -232 0 R D
7910 5791 M -232 0 R D 7910 1562 M -116 0 R D 7910 1682 M -116 0 R D
7910 1781 M -116 0 R D 7910 1864 M -116 0 R D 7910 1936 M -116 0 R D
7910 2000 M -116 0 R D 7910 2432 M -116 0 R D 7910 2651 M -116 0 R D
7910 2806 M -116 0 R D 7910 2927 M -116 0 R D 7910 3025 M -116 0 R D
7910 3109 M -116 0 R D 7910 3181 M -116 0 R D 7910 3245 M -116 0 R D
7910 3676 M -116 0 R D 7910 3895 M -116 0 R D 7910 4051 M -116 0 R D
7910 4171 M -116 0 R D 7910 4270 M -116 0 R D 7910 4353 M -116 0 R D
7910 4426 M -116 0 R D 7910 4489 M -116 0 R D 7910 4921 M -116 0 R D
7910 5140 M -116 0 R D 7910 5295 M -116 0 R D 7910 5416 M -116 0 R D
7910 5515 M -116 0 R D 7910 5598 M -116 0 R D 7910 5670 M -116 0 R D
7910 5734 M -116 0 R D 7910 6165 M -116 0 R D L5 2586 5585 M 483 -237 R
484 -279 R 484 -299 R 484 -312 R 484 -308 R 484 -310 R 484 -278 R 484 -339 R
484 -326 R 484 -287 R D L0 0.000 0.000 1.000 setrgbcolor 2586 5766 M
483 -135 R 484 -300 R 484 -287 R 484 -298 R 484 -315 R 484 -260 R 484 -309 R
484 -186 R 484 -197 R 484 -202 R D 2586 5437 M 483 -85 R 484 -294 R
484 -275 R 484 -334 R 484 -288 R 484 -299 R 484 -236 R 484 -280 R 484 -168 R
484 -292 R D 2586 5059 M 483 44 R 484 -267 R 484 -310 R 484 -294 R
484 -342 R 484 -230 R 484 -279 R 484 -254 R 484 -178 R 484 -291 R D
0.000 0.000 0.000 setrgbcolor gsave 2586 1864 translate 0 0 M 1.1 dup scale
(1e15h) show X 192.937 M
%%IncludeResource: font Helvetica
262.467 /Helvetica STDFONT
(-1) show X 0 M
%%IncludeResource: font Helvetica
423.333 /Helvetica STDFONT
(M) show X -101.051 M
%%IncludeResource: font Helvetica
262.467 /Helvetica STDFONT
(sun) show grestore
%%IncludeResource: font Helvetica
423.333 /Helvetica STDFONT
%%PageTrailer
end
%%PageResources: font Helvetica
%%Trailer
%%Pages: 1
%%DocumentNeededResources: font Helvetica
%%EOF
