%!PS-Adobe-3.0 EPSF-3.0
%%BoundingBox: 0 0 283 226
%%Title: Graphics produced by IDL
%%For: dacia@Lserver, /home/dacia/work/subhalo_model
%%Creator: IDL Version 7.0 (linux x86_64 m64)
%%CreationDate: Tue Dec 22 17:42:07 2009
%%DocumentData: Clean7bit
%%Requirements: color
%%LanguageLevel: 1
%%PageOrder: Ascend
%%Pages: (atend)
%%DocumentNeededResources: (atend)
%%EndComments
%%BeginProlog
%+ prolog.ps -- Prolog for IDL generated PostScript files
%+ Copyright (c) 1988-2007 ITT Visual Information Solutions. All Rights Reserved.
%v 5
/$IDL_DICT 40 dict def $IDL_DICT begin /bdef { bind def } bind def /C
{currentpoint newpath moveto} bdef /CP {currentpoint} bdef /D {currentpoint
stroke moveto} bdef /F {closepath fill} bdef /K { setgray } bdef /M {moveto}
bdef /N {rmoveto} bdef /P {lineto} bdef /R {rlineto} bdef /S {gsave show
grestore} bdef /X {currentpoint pop} bdef /Z {gsave currentpoint lineto 20
setlinewidth 1 setlinecap stroke grestore} bdef /L0 {[] 0 setdash} bdef /L1
{[40 100] 0 setdash} bdef /L2 {[200 200] 0 setdash} bdef /L3 {[200 100 50
100] 0 setdash} bdef /L4 {[300 100 50 100 50 100 50 100] 0 setdash} bdef /L5
{[400 200] 0 setdash} bdef /STDFONT { findfont exch scalefont setfont } bdef
/ISOFONT { findfont dup length dict begin { 1 index /FID ne {def} {pop pop}
ifelse } forall /Encoding ISOLatin1Encoding def currentdict end /idltmpfont
exch definefont exch scalefont setfont } bdef /ISOBULLET { gsave /Helvetica
findfont exch scalefont setfont (\267) show currentpoint grestore moveto}
bdef /MITERLIMIT { 2.5 setmiterlimit } bdef end
%%EndProlog
%%Page: 0 1
%%PageRequirements: color
%%PageResources: (atend)
%%PageOrientation: Portrait
%%PageBoundingBox: 0 0 283 226
%%BeginPageSetup
$IDL_DICT begin 0.0283465 dup scale MITERLIMIT
%%IncludeResource: font Helvetica
423.333 /Helvetica STDFONT
%%EndPageSetup
40 setlinewidth L0 0.000 0.000 0.000 setrgbcolor 2000 1600 M 7700 0 R D
2579 1600 M 0 246 R D gsave 2579 961 translate 0 0 M 1.21 dup scale
-352.04 0 N
(10) show X 192.937 M
%%IncludeResource: font Helvetica
262.467 /Helvetica STDFONT
(-4) show grestore
%%IncludeResource: font Helvetica
423.333 /Helvetica STDFONT 4504 1600 M 0 246 R D
gsave 4504 961 translate 0 0 M 1.21 dup scale -352.04 0 N
(10) show X 192.937 M
%%IncludeResource: font Helvetica
262.467 /Helvetica STDFONT
(-3) show grestore
%%IncludeResource: font Helvetica
423.333 /Helvetica STDFONT 6429 1600 M 0 246 R D
gsave 6429 961 translate 0 0 M 1.21 dup scale -352.04 0 N
(10) show X 192.937 M
%%IncludeResource: font Helvetica
262.467 /Helvetica STDFONT
(-2) show grestore
%%IncludeResource: font Helvetica
423.333 /Helvetica STDFONT 8354 1600 M 0 246 R D
gsave 8354 961 translate 0 0 M 1.21 dup scale -352.04 0 N
(10) show X 192.937 M
%%IncludeResource: font Helvetica
262.467 /Helvetica STDFONT
(-1) show grestore
%%IncludeResource: font Helvetica
423.333 /Helvetica STDFONT 2000 1600 M 0 123 R D 2152 1600 M 0 123 R D
2281 1600 M 0 123 R D 2393 1600 M 0 123 R D 2491 1600 M 0 123 R D
3159 1600 M 0 123 R D 3498 1600 M 0 123 R D 3738 1600 M 0 123 R D
3925 1600 M 0 123 R D 4077 1600 M 0 123 R D 4206 1600 M 0 123 R D
4318 1600 M 0 123 R D 4416 1600 M 0 123 R D 5084 1600 M 0 123 R D
5423 1600 M 0 123 R D 5663 1600 M 0 123 R D 5850 1600 M 0 123 R D
6002 1600 M 0 123 R D 6131 1600 M 0 123 R D 6243 1600 M 0 123 R D
6341 1600 M 0 123 R D 7009 1600 M 0 123 R D 7348 1600 M 0 123 R D
7588 1600 M 0 123 R D 7775 1600 M 0 123 R D 7927 1600 M 0 123 R D
8056 1600 M 0 123 R D 8168 1600 M 0 123 R D 8266 1600 M 0 123 R D
8934 1600 M 0 123 R D 9273 1600 M 0 123 R D 9513 1600 M 0 123 R D
9700 1600 M 0 123 R D gsave 5850 407 translate 0 0 M 1.21 dup scale
-411.48 0 N
(m/M) show grestore 2000 7760 M 7700 0 R D 2579 7760 M 0 -246 R D
4504 7760 M 0 -246 R D 6429 7760 M 0 -246 R D 8354 7760 M 0 -246 R D
2000 7760 M 0 -123 R D 2152 7760 M 0 -123 R D 2281 7760 M 0 -123 R D
2393 7760 M 0 -123 R D 2491 7760 M 0 -123 R D 3159 7760 M 0 -123 R D
3498 7760 M 0 -123 R D 3738 7760 M 0 -123 R D 3925 7760 M 0 -123 R D
4077 7760 M 0 -123 R D 4206 7760 M 0 -123 R D 4318 7760 M 0 -123 R D
4416 7760 M 0 -123 R D 5084 7760 M 0 -123 R D 5423 7760 M 0 -123 R D
5663 7760 M 0 -123 R D 5850 7760 M 0 -123 R D 6002 7760 M 0 -123 R D
6131 7760 M 0 -123 R D 6243 7760 M 0 -123 R D 6341 7760 M 0 -123 R D
7009 7760 M 0 -123 R D 7348 7760 M 0 -123 R D 7588 7760 M 0 -123 R D
7775 7760 M 0 -123 R D 7927 7760 M 0 -123 R D 8056 7760 M 0 -123 R D
8168 7760 M 0 -123 R D 8266 7760 M 0 -123 R D 8934 7760 M 0 -123 R D
9273 7760 M 0 -123 R D 9513 7760 M 0 -123 R D 9700 7760 M 0 -123 R D
2000 1600 M 0 6160 R D 2000 2601 M 308 0 R D gsave 1866 2431 translate 0 0 M
1.21 dup scale -704.08 0 N
(10) show X 192.937 M
%%IncludeResource: font Helvetica
262.467 /Helvetica STDFONT
(-1) show grestore
%%IncludeResource: font Helvetica
423.333 /Helvetica STDFONT 2000 4033 M 308 0 R D
gsave 1866 3863 translate 0 0 M 1.21 dup scale -235.373 0 N
(1) show grestore 2000 5466 M 308 0 R D gsave 1866 5295 translate 0 0 M
1.21 dup scale -470.747 0 N
(10) show grestore 2000 6898 M 308 0 R D gsave 1866 6727 translate 0 0 M
1.21 dup scale -616.678 0 N
(10) show X 192.937 M
%%IncludeResource: font Helvetica
262.467 /Helvetica STDFONT
(2) show grestore
%%IncludeResource: font Helvetica
423.333 /Helvetica STDFONT 2000 1600 M 154 0 R D 2000 1852 M 154 0 R D
2000 2031 M 154 0 R D 2000 2170 M 154 0 R D 2000 2283 M 154 0 R D
2000 2379 M 154 0 R D 2000 2462 M 154 0 R D 2000 2536 M 154 0 R D
2000 3032 M 154 0 R D 2000 3284 M 154 0 R D 2000 3463 M 154 0 R D
2000 3602 M 154 0 R D 2000 3716 M 154 0 R D 2000 3811 M 154 0 R D
2000 3894 M 154 0 R D 2000 3968 M 154 0 R D 2000 4464 M 154 0 R D
2000 4717 M 154 0 R D 2000 4896 M 154 0 R D 2000 5034 M 154 0 R D
2000 5148 M 154 0 R D 2000 5244 M 154 0 R D 2000 5327 M 154 0 R D
2000 5400 M 154 0 R D 2000 5897 M 154 0 R D 2000 6149 M 154 0 R D
2000 6328 M 154 0 R D 2000 6467 M 154 0 R D 2000 6580 M 154 0 R D
2000 6676 M 154 0 R D 2000 6759 M 154 0 R D 2000 6832 M 154 0 R D
2000 7329 M 154 0 R D 2000 7581 M 154 0 R D 2000 7760 M 154 0 R D
9700 1600 M 0 6160 R D 9700 2601 M -308 0 R D 9700 4033 M -308 0 R D
9700 5466 M -308 0 R D 9700 6898 M -308 0 R D 9700 1600 M -154 0 R D
9700 1852 M -154 0 R D 9700 2031 M -154 0 R D 9700 2170 M -154 0 R D
9700 2283 M -154 0 R D 9700 2379 M -154 0 R D 9700 2462 M -154 0 R D
9700 2536 M -154 0 R D 9700 3032 M -154 0 R D 9700 3284 M -154 0 R D
9700 3463 M -154 0 R D 9700 3602 M -154 0 R D 9700 3716 M -154 0 R D
9700 3811 M -154 0 R D 9700 3894 M -154 0 R D 9700 3968 M -154 0 R D
9700 4464 M -154 0 R D 9700 4717 M -154 0 R D 9700 4896 M -154 0 R D
9700 5034 M -154 0 R D 9700 5148 M -154 0 R D 9700 5244 M -154 0 R D
9700 5327 M -154 0 R D 9700 5400 M -154 0 R D 9700 5897 M -154 0 R D
9700 6149 M -154 0 R D 9700 6328 M -154 0 R D 9700 6467 M -154 0 R D
9700 6580 M -154 0 R D 9700 6676 M -154 0 R D 9700 6759 M -154 0 R D
9700 6832 M -154 0 R D 9700 7329 M -154 0 R D 9700 7581 M -154 0 R D
9700 7760 M -154 0 R D 2579 7535 M 703 -419 R 703 -418 R 702 -418 R
703 -418 R 703 -418 R 702 -419 R 703 -418 R 702 -422 R 703 -469 R
703 -1044 R D gsave 600 4640 translate 0 0 M 90 rotate 1.4 dup scale
-1164.17 0 N
(dN/dln\(m/M\)) show grestore 20 setlinewidth L1
1.000 0.000 0.706 setrgbcolor 2579 5915 M 578 -202 R 577 -339 R 578 -379 R
577 -310 R 578 -303 R 577 -368 R 578 -459 R 577 55 R 578 -449 R 577 -216 R D
L2 0.506 0.000 0.000 setrgbcolor 2579 6074 M 578 -239 R 577 -307 R
578 -402 R 577 -290 R 578 -419 R 577 -240 R 578 -320 R 577 -179 R 578 -385 R
577 -96 R D L3 1.000 0.349 0.000 setrgbcolor 2579 6196 M 578 -212 R
577 -334 R 578 -392 R 577 -289 R 578 -383 R 577 -236 R 578 -374 R 577 -267 R
578 -64 R 577 -219 R D L4 0.000 0.514 1.000 setrgbcolor 2579 6319 M
578 -166 R 577 -309 R 578 -395 R 577 -273 R 578 -363 R 577 -340 R 578 -289 R
577 -249 R 578 -257 R 577 -123 R D L5 0.588 0.000 0.588 setrgbcolor
2579 6490 M 578 -98 R 577 -337 R 578 -317 R 577 -384 R 578 -331 R 577 -344 R
578 -272 R 577 -323 R 578 -192 R 577 -337 R D L1
1.000 0.000 0.706 setrgbcolor 2510 2003 M 69 0 R 68 0 R 68 0 R 68 0 R 69 0 R
68 0 R 68 0 R 68 0 R 69 0 R D L2 0.506 0.000 0.000 setrgbcolor 2510 2457 M
69 0 R 68 0 R 68 0 R 68 0 R 69 0 R 68 0 R 68 0 R 68 0 R 69 0 R D L3
1.000 0.349 0.000 setrgbcolor 2510 2911 M 69 0 R 68 0 R 68 0 R 68 0 R 69 0 R
68 0 R 68 0 R 68 0 R 69 0 R D L4 0.000 0.514 1.000 setrgbcolor 2510 3365 M
69 0 R 68 0 R 68 0 R 68 0 R 69 0 R 68 0 R 68 0 R 68 0 R 69 0 R D L5
0.588 0.000 0.588 setrgbcolor 2510 3820 M 69 0 R 68 0 R 68 0 R 68 0 R 69 0 R
68 0 R 68 0 R 68 0 R 69 0 R D 1.000 0.000 0.706 setrgbcolor
gsave 3193 1853 translate 0 0 M 1.1 dup scale
(1e11h) show X 192.937 M
%%IncludeResource: font Helvetica
262.467 /Helvetica STDFONT
(-1) show X 0 M
%%IncludeResource: font Helvetica
423.333 /Helvetica STDFONT
(M) show X -101.051 M
%%IncludeResource: font Helvetica
262.467 /Helvetica STDFONT
(sun) show grestore
%%IncludeResource: font Helvetica
423.333 /Helvetica STDFONT 0.506 0.000 0.000 setrgbcolor
gsave 3193 2307 translate 0 0 M 1.1 dup scale
(1e12h) show X 192.937 M
%%IncludeResource: font Helvetica
262.467 /Helvetica STDFONT
(-1) show X 0 M
%%IncludeResource: font Helvetica
423.333 /Helvetica STDFONT
(M) show X -101.051 M
%%IncludeResource: font Helvetica
262.467 /Helvetica STDFONT
(sun) show grestore
%%IncludeResource: font Helvetica
423.333 /Helvetica STDFONT 1.000 0.349 0.000 setrgbcolor
gsave 3193 2761 translate 0 0 M 1.1 dup scale
(1e13h) show X 192.937 M
%%IncludeResource: font Helvetica
262.467 /Helvetica STDFONT
(-1) show X 0 M
%%IncludeResource: font Helvetica
423.333 /Helvetica STDFONT
(M) show X -101.051 M
%%IncludeResource: font Helvetica
262.467 /Helvetica STDFONT
(sun) show grestore
%%IncludeResource: font Helvetica
423.333 /Helvetica STDFONT 0.000 0.514 1.000 setrgbcolor
gsave 3193 3216 translate 0 0 M 1.1 dup scale
(1e14h) show X 192.937 M
%%IncludeResource: font Helvetica
262.467 /Helvetica STDFONT
(-1) show X 0 M
%%IncludeResource: font Helvetica
423.333 /Helvetica STDFONT
(M) show X -101.051 M
%%IncludeResource: font Helvetica
262.467 /Helvetica STDFONT
(sun) show grestore
%%IncludeResource: font Helvetica
423.333 /Helvetica STDFONT 0.588 0.000 0.588 setrgbcolor
gsave 3193 3670 translate 0 0 M 1.1 dup scale
(1e15h) show X 192.937 M
%%IncludeResource: font Helvetica
262.467 /Helvetica STDFONT
(-1) show X 0 M
%%IncludeResource: font Helvetica
423.333 /Helvetica STDFONT
(M) show X -101.051 M
%%IncludeResource: font Helvetica
262.467 /Helvetica STDFONT
(sun) show grestore
%%IncludeResource: font Helvetica
423.333 /Helvetica STDFONT
%%PageTrailer
end
%%PageResources: font Helvetica
%%Trailer
%%Pages: 1
%%DocumentNeededResources: font Helvetica
%%EOF
