%!PS-Adobe-3.0 EPSF-3.0
%%BoundingBox: 0 0 283 226
%%Title: Graphics produced by IDL
%%For: dacia@Lserver, /home/dacia/work/subhalo_model
%%Creator: IDL Version 7.0 (linux x86_64 m64)
%%CreationDate: Tue Dec 22 17:42:07 2009
%%DocumentData: Clean7bit
%%Requirements: color
%%LanguageLevel: 1
%%PageOrder: Ascend
%%Pages: (atend)
%%DocumentNeededResources: (atend)
%%EndComments
%%BeginProlog
%+ prolog.ps -- Prolog for IDL generated PostScript files
%+ Copyright (c) 1988-2007 ITT Visual Information Solutions. All Rights Reserved.
%v 5
/$IDL_DICT 40 dict def $IDL_DICT begin /bdef { bind def } bind def /C
{currentpoint newpath moveto} bdef /CP {currentpoint} bdef /D {currentpoint
stroke moveto} bdef /F {closepath fill} bdef /K { setgray } bdef /M {moveto}
bdef /N {rmoveto} bdef /P {lineto} bdef /R {rlineto} bdef /S {gsave show
grestore} bdef /X {currentpoint pop} bdef /Z {gsave currentpoint lineto 20
setlinewidth 1 setlinecap stroke grestore} bdef /L0 {[] 0 setdash} bdef /L1
{[40 100] 0 setdash} bdef /L2 {[200 200] 0 setdash} bdef /L3 {[200 100 50
100] 0 setdash} bdef /L4 {[300 100 50 100 50 100 50 100] 0 setdash} bdef /L5
{[400 200] 0 setdash} bdef /STDFONT { findfont exch scalefont setfont } bdef
/ISOFONT { findfont dup length dict begin { 1 index /FID ne {def} {pop pop}
ifelse } forall /Encoding ISOLatin1Encoding def currentdict end /idltmpfont
exch definefont exch scalefont setfont } bdef /ISOBULLET { gsave /Helvetica
findfont exch scalefont setfont (\267) show currentpoint grestore moveto}
bdef /MITERLIMIT { 2.5 setmiterlimit } bdef end
%%EndProlog
%%Page: 0 1
%%PageRequirements: color
%%PageResources: (atend)
%%PageOrientation: Portrait
%%PageBoundingBox: 0 0 283 226
%%BeginPageSetup
$IDL_DICT begin 0.0283465 dup scale MITERLIMIT
%%IncludeResource: font Helvetica
423.333 /Helvetica STDFONT
%%EndPageSetup
40 setlinewidth L0 0.000 0.000 0.000 setrgbcolor 2100 1360 M 7500 0 R D
3835 1360 M 0 256 R D gsave 3835 721 translate 0 0 M 1.21 dup scale
-294.217 0 N
(0.1) show grestore 9600 1360 M 0 256 R D gsave 9600 721 translate 0 0 M
1.21 dup scale -294.217 0 N
(1.0) show grestore 2100 1360 M 0 128 R D 2556 1360 M 0 128 R D 2942 1360 M
0 128 R D 3277 1360 M 0 128 R D 3572 1360 M 0 128 R D 5571 1360 M 0 128 R D
6586 1360 M 0 128 R D 7306 1360 M 0 128 R D 7865 1360 M 0 128 R D
8321 1360 M 0 128 R D 8707 1360 M 0 128 R D 9041 1360 M 0 128 R D
9336 1360 M 0 128 R D gsave 5850 167 translate 0 0 M 1.21 dup scale
-420.603 0 N
(r/R) show X -101.051 M
%%IncludeResource: font Helvetica
262.467 /Helvetica STDFONT
(vir) show grestore
%%IncludeResource: font Helvetica
423.333 /Helvetica STDFONT 2100 7760 M 7500 0 R D 3835 7760 M 0 -256 R D
9600 7760 M 0 -256 R D 2100 7760 M 0 -128 R D 2556 7760 M 0 -128 R D
2942 7760 M 0 -128 R D 3277 7760 M 0 -128 R D 3572 7760 M 0 -128 R D
5571 7760 M 0 -128 R D 6586 7760 M 0 -128 R D 7306 7760 M 0 -128 R D
7865 7760 M 0 -128 R D 8321 7760 M 0 -128 R D 8707 7760 M 0 -128 R D
9041 7760 M 0 -128 R D 9336 7760 M 0 -128 R D 2100 1360 M 0 6400 R D
2100 2992 M 300 0 R D gsave 1966 2822 translate 0 0 M 1.21 dup scale
-823.807 0 N
(0.01) show grestore 2100 5328 M 300 0 R D gsave 1966 5158 translate 0 0 M
1.21 dup scale -823.807 0 N
(0.10) show grestore 2100 7663 M 300 0 R D gsave 1966 7462 translate 0 0 M
1.21 dup scale -823.807 0 N
(1.00) show grestore 2100 1360 M 150 0 R D 2100 1771 M 150 0 R D 2100 2063 M
150 0 R D 2100 2289 M 150 0 R D 2100 2474 M 150 0 R D 2100 2631 M 150 0 R D
2100 2766 M 150 0 R D 2100 2886 M 150 0 R D 2100 3695 M 150 0 R D
2100 4107 M 150 0 R D 2100 4399 M 150 0 R D 2100 4625 M 150 0 R D
2100 4810 M 150 0 R D 2100 4966 M 150 0 R D 2100 5102 M 150 0 R D
2100 5221 M 150 0 R D 2100 6031 M 150 0 R D 2100 6442 M 150 0 R D
2100 6734 M 150 0 R D 2100 6960 M 150 0 R D 2100 7145 M 150 0 R D
2100 7302 M 150 0 R D 2100 7437 M 150 0 R D 2100 7556 M 150 0 R D
gsave 567 4560 translate 0 0 M 90 rotate 1.21 dup scale -1255.42 0 N
(N\(<r\)/N\(<R) show X -101.051 M
%%IncludeResource: font Helvetica
262.467 /Helvetica STDFONT
(vir) show X 0 M
%%IncludeResource: font Helvetica
423.333 /Helvetica STDFONT
(\)) show grestore 9600 1360 M 0 6400 R D 9600 2992 M -300 0 R D 9600 5328 M
-300 0 R D 9600 7663 M -300 0 R D 9600 1360 M -150 0 R D 9600 1771 M
-150 0 R D 9600 2063 M -150 0 R D 9600 2289 M -150 0 R D 9600 2474 M
-150 0 R D 9600 2631 M -150 0 R D 9600 2766 M -150 0 R D 9600 2886 M
-150 0 R D 9600 3695 M -150 0 R D 9600 4107 M -150 0 R D 9600 4399 M
-150 0 R D 9600 4625 M -150 0 R D 9600 4810 M -150 0 R D 9600 4966 M
-150 0 R D 9600 5102 M -150 0 R D 9600 5221 M -150 0 R D 9600 6031 M
-150 0 R D 9600 6442 M -150 0 R D 9600 6734 M -150 0 R D 9600 6960 M
-150 0 R D 9600 7145 M -150 0 R D 9600 7302 M -150 0 R D 9600 7437 M
-150 0 R D 9600 7556 M -150 0 R D 20 setlinewidth L1
1.000 0.000 0.706 setrgbcolor 2255 1360 M 940 861 R 1281 1672 R 1281 1346 R
1281 1013 R 1281 789 R 1280 621 R D L2 0.506 0.000 0.000 setrgbcolor
2645 1360 M 550 936 R 1281 1523 R 1281 1394 R 1281 999 R 1281 836 R
1280 614 R D L3 1.000 0.349 0.000 setrgbcolor 2678 1360 M 517 805 R
1281 1469 R 1281 1425 R 1281 1109 R 1281 835 R 1280 659 R D L4
0.000 0.514 1.000 setrgbcolor 2484 1360 M 711 1062 R 1281 1249 R 1281 1336 R
1281 1138 R 1281 844 R 1280 673 R D L5 0.588 0.000 0.588 setrgbcolor
2687 1360 M 508 964 R 1281 1413 R 1281 1251 R 1281 1139 R 1281 883 R
1280 652 R D L1 1.000 0.000 0.706 setrgbcolor 6537 3820 M 69 0 R 68 0 R
68 0 R 68 0 R 69 0 R 68 0 R 68 0 R 68 0 R 69 0 R D L2
0.506 0.000 0.000 setrgbcolor 6537 3422 M 69 0 R 68 0 R 68 0 R 68 0 R 69 0 R
68 0 R 68 0 R 68 0 R 69 0 R D L3 1.000 0.349 0.000 setrgbcolor 6537 3025 M
69 0 R 68 0 R 68 0 R 68 0 R 69 0 R 68 0 R 68 0 R 68 0 R 69 0 R D L4
0.000 0.514 1.000 setrgbcolor 6537 2627 M 69 0 R 68 0 R 68 0 R 68 0 R 69 0 R
68 0 R 68 0 R 68 0 R 69 0 R D L5 0.588 0.000 0.588 setrgbcolor 6537 2230 M
69 0 R 68 0 R 68 0 R 68 0 R 69 0 R 68 0 R 68 0 R 68 0 R 69 0 R D
1.000 0.000 0.706 setrgbcolor gsave 7220 3670 translate 0 0 M 1.1 dup scale
(1e11h) show X 192.937 M
%%IncludeResource: font Helvetica
262.467 /Helvetica STDFONT
(-1) show X 0 M
%%IncludeResource: font Helvetica
423.333 /Helvetica STDFONT
(M) show X -101.051 M
%%IncludeResource: font Helvetica
262.467 /Helvetica STDFONT
(sun) show grestore
%%IncludeResource: font Helvetica
423.333 /Helvetica STDFONT 0.506 0.000 0.000 setrgbcolor
gsave 7220 3272 translate 0 0 M 1.1 dup scale
(1e12h) show X 192.937 M
%%IncludeResource: font Helvetica
262.467 /Helvetica STDFONT
(-1) show X 0 M
%%IncludeResource: font Helvetica
423.333 /Helvetica STDFONT
(M) show X -101.051 M
%%IncludeResource: font Helvetica
262.467 /Helvetica STDFONT
(sun) show grestore
%%IncludeResource: font Helvetica
423.333 /Helvetica STDFONT 1.000 0.349 0.000 setrgbcolor
gsave 7220 2875 translate 0 0 M 1.1 dup scale
(1e13h) show X 192.937 M
%%IncludeResource: font Helvetica
262.467 /Helvetica STDFONT
(-1) show X 0 M
%%IncludeResource: font Helvetica
423.333 /Helvetica STDFONT
(M) show X -101.051 M
%%IncludeResource: font Helvetica
262.467 /Helvetica STDFONT
(sun) show grestore
%%IncludeResource: font Helvetica
423.333 /Helvetica STDFONT 0.000 0.514 1.000 setrgbcolor
gsave 7220 2478 translate 0 0 M 1.1 dup scale
(1e14h) show X 192.937 M
%%IncludeResource: font Helvetica
262.467 /Helvetica STDFONT
(-1) show X 0 M
%%IncludeResource: font Helvetica
423.333 /Helvetica STDFONT
(M) show X -101.051 M
%%IncludeResource: font Helvetica
262.467 /Helvetica STDFONT
(sun) show grestore
%%IncludeResource: font Helvetica
423.333 /Helvetica STDFONT 0.588 0.000 0.588 setrgbcolor
gsave 7220 2080 translate 0 0 M 1.1 dup scale
(1e15h) show X 192.937 M
%%IncludeResource: font Helvetica
262.467 /Helvetica STDFONT
(-1) show X 0 M
%%IncludeResource: font Helvetica
423.333 /Helvetica STDFONT
(M) show X -101.051 M
%%IncludeResource: font Helvetica
262.467 /Helvetica STDFONT
(sun) show grestore
%%IncludeResource: font Helvetica
423.333 /Helvetica STDFONT
%%PageTrailer
end
%%PageResources: font Helvetica
%%Trailer
%%Pages: 1
%%DocumentNeededResources: font Helvetica
%%EOF
