\relax 
\@writefile{toc}{\contentsline {section}{\numberline {1}The Distribution of Subhalo Population}{2}}
\newlabel{subsec:subpop}{{1}{2}}
\@writefile{lof}{\contentsline {figure}{\numberline {1}{\ignorespaces Subhalo mass function (SHMF, upper panels) and radial number distribution (lower panels) in a Milky-Way type halo. Panels a and d basically show the predictions from model M2 (solid) with {} and {} of Equation\nobreakspace  {}(\G@refundefinedtrue {\unhbox \voidb@x \hbox {\normalfont  \bfseries  ??}}\GenericWarning  {               }{LaTeX Warning: Reference `eq:fitting' on page 2 undefined}). In panel a, the unevolved and evolved SHMFs from simulation are shown as dashed-dotted and long dashed lines, respectively. In panel d, we also plot the radial number distribution of simulated subhaloes (hatch area, upper limit: Via Lactea; lower limit: Aquarius) and observational MW satellites (squares). In panels b and e, we compare the results of simulation to the model M1 with $\mathop {\mathgroup \symoperators ln}\nolimits \Lambda =-\mathop {\mathgroup \symoperators ln}\nolimits \mu $ and , while in panels c and f, the used parameters are $\mathop {\mathgroup \symoperators ln}\nolimits \Lambda =3, 4, 5$ and . The model predictions with different parameters are plotted in lines with varying line style as indicated.}}{2}}
\newlabel{fig:subpop}{{1}{2}}
