%!PS-Adobe-3.0 EPSF-3.0
%%BoundingBox: 0 0 510 510
%%Title: Graphics produced by IDL
%%For: dacia@Lserver, /home/dacia/work/subhalo_model
%%Creator: IDL Version 7.0 (linux x86_64 m64)
%%CreationDate: Tue Dec 15 10:31:40 2009
%%DocumentData: Clean7bit
%%Requirements: color
%%LanguageLevel: 1
%%PageOrder: Ascend
%%Pages: (atend)
%%DocumentNeededResources: (atend)
%%EndComments
%%BeginProlog
%+ prolog.ps -- Prolog for IDL generated PostScript files
%+ Copyright (c) 1988-2007 ITT Visual Information Solutions. All Rights Reserved.
%v 5
/$IDL_DICT 40 dict def $IDL_DICT begin /bdef { bind def } bind def /C
{currentpoint newpath moveto} bdef /CP {currentpoint} bdef /D {currentpoint
stroke moveto} bdef /F {closepath fill} bdef /K { setgray } bdef /M {moveto}
bdef /N {rmoveto} bdef /P {lineto} bdef /R {rlineto} bdef /S {gsave show
grestore} bdef /X {currentpoint pop} bdef /Z {gsave currentpoint lineto 20
setlinewidth 1 setlinecap stroke grestore} bdef /L0 {[] 0 setdash} bdef /L1
{[40 100] 0 setdash} bdef /L2 {[200 200] 0 setdash} bdef /L3 {[200 100 50
100] 0 setdash} bdef /L4 {[300 100 50 100 50 100 50 100] 0 setdash} bdef /L5
{[400 200] 0 setdash} bdef /STDFONT { findfont exch scalefont setfont } bdef
/ISOFONT { findfont dup length dict begin { 1 index /FID ne {def} {pop pop}
ifelse } forall /Encoding ISOLatin1Encoding def currentdict end /idltmpfont
exch definefont exch scalefont setfont } bdef /ISOBULLET { gsave /Helvetica
findfont exch scalefont setfont (\267) show currentpoint grestore moveto}
bdef /MITERLIMIT { 2.5 setmiterlimit } bdef end
%%EndProlog
%%Page: 0 1
%%PageRequirements: color
%%PageResources: (atend)
%%PageOrientation: Portrait
%%PageBoundingBox: 0 0 510 510
%%BeginPageSetup
$IDL_DICT begin 0.0283465 dup scale MITERLIMIT
%%IncludeResource: font Helvetica
423.333 /Helvetica STDFONT
%%EndPageSetup
0.000 0.000 0.000 setrgbcolor gsave 9777 352 translate 0 0 M -458.682 0 N
(r/kpc) show grestore gsave 888 9352 translate 0 0 M 90 rotate -458.682 0 N
(r/kpc) show grestore 40 setlinewidth L0 2220 12000 M 5038 0 R D
2989 12000 M 0 202 R D gsave 2989 11472 translate 0 0 M -58.8433 0 N
( ) show grestore 3864 12000 M 0 202 R D gsave 3864 11472 translate 0 0 M
-58.8433 0 N
( ) show grestore 4739 12000 M 0 202 R D gsave 4739 11472 translate 0 0 M
-58.8433 0 N
( ) show grestore 5614 12000 M 0 202 R D gsave 5614 11472 translate 0 0 M
-58.8433 0 N
( ) show grestore 6489 12000 M 0 202 R D gsave 6489 11472 translate 0 0 M
-58.8433 0 N
( ) show grestore 2290 12000 M 0 101 R D 2377 12000 M 0 101 R D 2465 12000 M
0 101 R D 2552 12000 M 0 101 R D 2640 12000 M 0 101 R D 2727 12000 M 0 101 R
D 2815 12000 M 0 101 R D 2902 12000 M 0 101 R D 3077 12000 M 0 101 R D
3164 12000 M 0 101 R D 3252 12000 M 0 101 R D 3339 12000 M 0 101 R D
3427 12000 M 0 101 R D 3514 12000 M 0 101 R D 3602 12000 M 0 101 R D
3689 12000 M 0 101 R D 3777 12000 M 0 101 R D 3952 12000 M 0 101 R D
4039 12000 M 0 101 R D 4127 12000 M 0 101 R D 4214 12000 M 0 101 R D
4302 12000 M 0 101 R D 4389 12000 M 0 101 R D 4477 12000 M 0 101 R D
4564 12000 M 0 101 R D 4652 12000 M 0 101 R D 4827 12000 M 0 101 R D
4914 12000 M 0 101 R D 5002 12000 M 0 101 R D 5089 12000 M 0 101 R D
5176 12000 M 0 101 R D 5264 12000 M 0 101 R D 5351 12000 M 0 101 R D
5439 12000 M 0 101 R D 5526 12000 M 0 101 R D 5701 12000 M 0 101 R D
5789 12000 M 0 101 R D 5876 12000 M 0 101 R D 5964 12000 M 0 101 R D
6051 12000 M 0 101 R D 6139 12000 M 0 101 R D 6226 12000 M 0 101 R D
6314 12000 M 0 101 R D 6401 12000 M 0 101 R D 6576 12000 M 0 101 R D
6664 12000 M 0 101 R D 6751 12000 M 0 101 R D 6839 12000 M 0 101 R D
6926 12000 M 0 101 R D 7014 12000 M 0 101 R D 7101 12000 M 0 101 R D
7189 12000 M 0 101 R D 2220 17038 M 5038 0 R D 2989 17038 M 0 -201 R D
3864 17038 M 0 -201 R D 4739 17038 M 0 -201 R D 5614 17038 M 0 -201 R D
6489 17038 M 0 -201 R D 2290 17038 M 0 -101 R D 2377 17038 M 0 -101 R D
2465 17038 M 0 -101 R D 2552 17038 M 0 -101 R D 2640 17038 M 0 -101 R D
2727 17038 M 0 -101 R D 2815 17038 M 0 -101 R D 2902 17038 M 0 -101 R D
3077 17038 M 0 -101 R D 3164 17038 M 0 -101 R D 3252 17038 M 0 -101 R D
3339 17038 M 0 -101 R D 3427 17038 M 0 -101 R D 3514 17038 M 0 -101 R D
3602 17038 M 0 -101 R D 3689 17038 M 0 -101 R D 3777 17038 M 0 -101 R D
3952 17038 M 0 -101 R D 4039 17038 M 0 -101 R D 4127 17038 M 0 -101 R D
4214 17038 M 0 -101 R D 4302 17038 M 0 -101 R D 4389 17038 M 0 -101 R D
4477 17038 M 0 -101 R D 4564 17038 M 0 -101 R D 4652 17038 M 0 -101 R D
4827 17038 M 0 -101 R D 4914 17038 M 0 -101 R D 5002 17038 M 0 -101 R D
5089 17038 M 0 -101 R D 5176 17038 M 0 -101 R D 5264 17038 M 0 -101 R D
5351 17038 M 0 -101 R D 5439 17038 M 0 -101 R D 5526 17038 M 0 -101 R D
5701 17038 M 0 -101 R D 5789 17038 M 0 -101 R D 5876 17038 M 0 -101 R D
5964 17038 M 0 -101 R D 6051 17038 M 0 -101 R D 6139 17038 M 0 -101 R D
6226 17038 M 0 -101 R D 6314 17038 M 0 -101 R D 6401 17038 M 0 -101 R D
6576 17038 M 0 -101 R D 6664 17038 M 0 -101 R D 6751 17038 M 0 -101 R D
6839 17038 M 0 -101 R D 6926 17038 M 0 -101 R D 7014 17038 M 0 -101 R D
7101 17038 M 0 -101 R D 7189 17038 M 0 -101 R D 2220 12000 M 0 5038 R D
2220 12769 M 202 0 R D gsave 2109 12629 translate 0 0 M -847.09 0 N
(-200) show grestore 2220 13644 M 202 0 R D gsave 2109 13503 translate 0 0 M
-847.09 0 N
(-100) show grestore 2220 14519 M 202 0 R D gsave 2109 14378 translate 0 0 M
-235.373 0 N
(0) show grestore 2220 15394 M 202 0 R D gsave 2109 15253 translate 0 0 M
-706.12 0 N
(100) show grestore 2220 16269 M 202 0 R D gsave 2109 16128 translate 0 0 M
-706.12 0 N
(200) show grestore 2220 12070 M 101 0 R D 2220 12157 M 101 0 R D
2220 12245 M 101 0 R D 2220 12332 M 101 0 R D 2220 12420 M 101 0 R D
2220 12507 M 101 0 R D 2220 12595 M 101 0 R D 2220 12682 M 101 0 R D
2220 12857 M 101 0 R D 2220 12944 M 101 0 R D 2220 13032 M 101 0 R D
2220 13119 M 101 0 R D 2220 13207 M 101 0 R D 2220 13294 M 101 0 R D
2220 13382 M 101 0 R D 2220 13469 M 101 0 R D 2220 13557 M 101 0 R D
2220 13732 M 101 0 R D 2220 13819 M 101 0 R D 2220 13907 M 101 0 R D
2220 13994 M 101 0 R D 2220 14082 M 101 0 R D 2220 14169 M 101 0 R D
2220 14257 M 101 0 R D 2220 14344 M 101 0 R D 2220 14432 M 101 0 R D
2220 14607 M 101 0 R D 2220 14694 M 101 0 R D 2220 14782 M 101 0 R D
2220 14869 M 101 0 R D 2220 14956 M 101 0 R D 2220 15044 M 101 0 R D
2220 15131 M 101 0 R D 2220 15219 M 101 0 R D 2220 15306 M 101 0 R D
2220 15481 M 101 0 R D 2220 15569 M 101 0 R D 2220 15656 M 101 0 R D
2220 15744 M 101 0 R D 2220 15831 M 101 0 R D 2220 15919 M 101 0 R D
2220 16006 M 101 0 R D 2220 16094 M 101 0 R D 2220 16181 M 101 0 R D
2220 16356 M 101 0 R D 2220 16444 M 101 0 R D 2220 16531 M 101 0 R D
2220 16619 M 101 0 R D 2220 16706 M 101 0 R D 2220 16794 M 101 0 R D
2220 16881 M 101 0 R D 2220 16969 M 101 0 R D 7258 12000 M 0 5038 R D
7258 12769 M -201 0 R D 7258 13644 M -201 0 R D 7258 14519 M -201 0 R D
7258 15394 M -201 0 R D 7258 16269 M -201 0 R D 7258 12070 M -101 0 R D
7258 12157 M -101 0 R D 7258 12245 M -101 0 R D 7258 12332 M -101 0 R D
7258 12420 M -101 0 R D 7258 12507 M -101 0 R D 7258 12595 M -101 0 R D
7258 12682 M -101 0 R D 7258 12857 M -101 0 R D 7258 12944 M -101 0 R D
7258 13032 M -101 0 R D 7258 13119 M -101 0 R D 7258 13207 M -101 0 R D
7258 13294 M -101 0 R D 7258 13382 M -101 0 R D 7258 13469 M -101 0 R D
7258 13557 M -101 0 R D 7258 13732 M -101 0 R D 7258 13819 M -101 0 R D
7258 13907 M -101 0 R D 7258 13994 M -101 0 R D 7258 14082 M -101 0 R D
7258 14169 M -101 0 R D 7258 14257 M -101 0 R D 7258 14344 M -101 0 R D
7258 14432 M -101 0 R D 7258 14607 M -101 0 R D 7258 14694 M -101 0 R D
7258 14782 M -101 0 R D 7258 14869 M -101 0 R D 7258 14956 M -101 0 R D
7258 15044 M -101 0 R D 7258 15131 M -101 0 R D 7258 15219 M -101 0 R D
7258 15306 M -101 0 R D 7258 15481 M -101 0 R D 7258 15569 M -101 0 R D
7258 15656 M -101 0 R D 7258 15744 M -101 0 R D 7258 15831 M -101 0 R D
7258 15919 M -101 0 R D 7258 16006 M -101 0 R D 7258 16094 M -101 0 R D
7258 16181 M -101 0 R D 7258 16356 M -101 0 R D 7258 16444 M -101 0 R D
7258 16531 M -101 0 R D 7258 16619 M -101 0 R D 7258 16706 M -101 0 R D
7258 16794 M -101 0 R D 7258 16881 M -101 0 R D 7258 16969 M -101 0 R D
6494 14519 M -63 118 R -155 232 R -199 223 R -246 202 R -292 169 R
-332 121 R -359 58 R -366 -11 R -350 -79 R -318 -135 R -275 -178 R
-229 -204 R -185 -222 R -143 -229 R -104 -231 R -69 -228 R -39 -222 R
-12 -213 R 12 -203 R 34 -192 R 53 -180 R 71 -167 R 86 -153 R 101 -139 R
114 -124 R 126 -108 R 136 -92 R 145 -76 R 154 -59 R 161 -41 R 168 -23 R
172 -4 R 176 17 R 178 37 R 180 60 R 178 82 R 175 108 R 170 133 R 161 161 R
149 189 R 131 221 R 107 251 R 75 283 R 35 309 R -15 331 R -75 340 R
-141 332 R -205 304 R -256 256 R -289 198 R -304 138 R -303 83 R -293 35 R
-276 -7 R -256 -41 R -233 -70 R -210 -92 R -187 -110 R -165 -125 R
-143 -137 R -121 -146 R -101 -153 R -80 -158 R -59 -163 R -40 -164 R
-21 -166 R -1 -164 R 17 -164 R 37 -160 R 55 -156 R 74 -151 R 92 -144 R
110 -136 R 129 -126 R 147 -115 R 166 -101 R 184 -85 R 201 -66 R 219 -44 R
236 -19 R 251 12 R 263 48 R 271 89 R 273 137 R 264 188 R 243 243 R 203 294 R
147 335 R 80 355 R 12 355 R -48 336 R -98 306 R -134 270 R -161 232 R
-179 195 R -190 159 R -197 126 R -199 97 R -198 69 R -196 43 R -192 20 R
-185 -2 R -178 -22 R -169 -40 R -160 -59 R -150 -75 R -138 -91 R -126 -105 R
-113 -119 R -99 -133 R -85 -144 R -68 -155 R -51 -166 R -33 -176 R
-13 -184 R 8 -191 R 31 -197 R 56 -201 R 83 -203 R 113 -203 R 145 -198 R
181 -189 R 219 -174 R 257 -151 R 296 -117 R 330 -72 R 352 -14 R 360 54 R
345 122 R 309 182 R 262 226 R 208 253 R 156 266 R 108 267 R 66 262 R
28 252 R -3 238 R -31 223 R -54 207 R -74 190 R -90 173 R -106 155 R
-119 137 R -129 119 R -138 101 R -147 83 R -152 65 R -158 46 R -162 28 R
-165 9 R -166 -10 R -166 -29 R -165 -50 R -163 -69 R -158 -91 R -152 -111 R
-145 -133 R -134 -156 R -121 -179 R -104 -202 R -84 -226 R -57 -250 R
-24 -272 R 14 -292 R 62 -306 R 115 -310 R 176 -301 R 236 -273 R 288 -226 R
322 -166 R 336 -100 R 331 -38 R 315 14 R 289 57 R 261 91 R 230 117 R
201 138 R 172 152 R 144 162 R 119 169 R 94 174 R 71 177 R 49 176 R 27 176 R
7 172 R -12 169 R -31 164 R -50 157 R -66 150 R -84 142 R -100 132 R
-117 121 R -132 109 R -146 95 R -162 81 R -175 64 R -189 45 R -201 25 R
-212 1 R -222 -25 R -230 -55 R D 0.208 0.208 0.208 setrgbcolor 4730 14519 M
1 2 R 0 1 R 0 1 R 1 1 R 0 1 R 1 0 R 0 1 R 1 0 R 1 1 R 1 0 R 1 0 R 0 1 R
1 0 R 1 0 R 1 0 R 1 0 R 1 -1 R 1 0 R 1 0 R 0 -1 R 1 0 R 0 -1 R 1 0 R 0 -1 R
1 0 R 0 -1 R 0 -1 R 1 -1 R 0 -2 R D 4730 14519 M 1 -2 R 0 -1 R 0 -1 R 1 0 R
0 -1 R 0 -1 R 1 0 R 0 -1 R 1 0 R 1 0 R 0 -1 R 1 0 R 1 0 R 1 -1 R 1 0 R 1 0 R
1 0 R 0 1 R 1 0 R 1 0 R 0 1 R 1 0 R 1 0 R 0 1 R 1 0 R 0 1 R 1 1 R 0 1 R
0 1 R 1 0 R 0 2 R D 0.000 0.000 0.000 setrgbcolor 4739 14519 M Z
gsave 5243 12756 translate 0 0 M
(40.1Gyr) show grestore gsave 5243 12404 translate 0 0 M
(5.0e10M) show X -101.051 M
%%IncludeResource: font Helvetica
262.467 /Helvetica STDFONT
(sun) show grestore
%%IncludeResource: font Helvetica
423.333 /Helvetica STDFONT 7258 12000 M 5038 0 R D 8027 12000 M 0 202 R D
gsave 8027 11472 translate 0 0 M -58.8433 0 N
( ) show grestore 8902 12000 M 0 202 R D gsave 8902 11472 translate 0 0 M
-58.8433 0 N
( ) show grestore 9777 12000 M 0 202 R D gsave 9777 11472 translate 0 0 M
-58.8433 0 N
( ) show grestore 10652 12000 M 0 202 R D gsave 10652 11472 translate 0 0 M
-58.8433 0 N
( ) show grestore 11527 12000 M 0 202 R D gsave 11527 11472 translate 0 0 M
-58.8433 0 N
( ) show grestore 7328 12000 M 0 101 R D 7415 12000 M 0 101 R D 7503 12000 M
0 101 R D 7590 12000 M 0 101 R D 7678 12000 M 0 101 R D 7765 12000 M 0 101 R
D 7853 12000 M 0 101 R D 7940 12000 M 0 101 R D 8115 12000 M 0 101 R D
8202 12000 M 0 101 R D 8290 12000 M 0 101 R D 8377 12000 M 0 101 R D
8465 12000 M 0 101 R D 8552 12000 M 0 101 R D 8640 12000 M 0 101 R D
8727 12000 M 0 101 R D 8815 12000 M 0 101 R D 8990 12000 M 0 101 R D
9077 12000 M 0 101 R D 9165 12000 M 0 101 R D 9252 12000 M 0 101 R D
9340 12000 M 0 101 R D 9427 12000 M 0 101 R D 9515 12000 M 0 101 R D
9602 12000 M 0 101 R D 9690 12000 M 0 101 R D 9865 12000 M 0 101 R D
9952 12000 M 0 101 R D 10040 12000 M 0 101 R D 10127 12000 M 0 101 R D
10214 12000 M 0 101 R D 10302 12000 M 0 101 R D 10389 12000 M 0 101 R D
10477 12000 M 0 101 R D 10564 12000 M 0 101 R D 10739 12000 M 0 101 R D
10827 12000 M 0 101 R D 10914 12000 M 0 101 R D 11002 12000 M 0 101 R D
11089 12000 M 0 101 R D 11177 12000 M 0 101 R D 11264 12000 M 0 101 R D
11352 12000 M 0 101 R D 11439 12000 M 0 101 R D 11614 12000 M 0 101 R D
11702 12000 M 0 101 R D 11789 12000 M 0 101 R D 11877 12000 M 0 101 R D
11964 12000 M 0 101 R D 12052 12000 M 0 101 R D 12139 12000 M 0 101 R D
12227 12000 M 0 101 R D 7258 17038 M 5038 0 R D 8027 17038 M 0 -201 R D
8902 17038 M 0 -201 R D 9777 17038 M 0 -201 R D 10652 17038 M 0 -201 R D
11527 17038 M 0 -201 R D 7328 17038 M 0 -101 R D 7415 17038 M 0 -101 R D
7503 17038 M 0 -101 R D 7590 17038 M 0 -101 R D 7678 17038 M 0 -101 R D
7765 17038 M 0 -101 R D 7853 17038 M 0 -101 R D 7940 17038 M 0 -101 R D
8115 17038 M 0 -101 R D 8202 17038 M 0 -101 R D 8290 17038 M 0 -101 R D
8377 17038 M 0 -101 R D 8465 17038 M 0 -101 R D 8552 17038 M 0 -101 R D
8640 17038 M 0 -101 R D 8727 17038 M 0 -101 R D 8815 17038 M 0 -101 R D
8990 17038 M 0 -101 R D 9077 17038 M 0 -101 R D 9165 17038 M 0 -101 R D
9252 17038 M 0 -101 R D 9340 17038 M 0 -101 R D 9427 17038 M 0 -101 R D
9515 17038 M 0 -101 R D 9602 17038 M 0 -101 R D 9690 17038 M 0 -101 R D
9865 17038 M 0 -101 R D 9952 17038 M 0 -101 R D 10040 17038 M 0 -101 R D
10127 17038 M 0 -101 R D 10214 17038 M 0 -101 R D 10302 17038 M 0 -101 R D
10389 17038 M 0 -101 R D 10477 17038 M 0 -101 R D 10564 17038 M 0 -101 R D
10739 17038 M 0 -101 R D 10827 17038 M 0 -101 R D 10914 17038 M 0 -101 R D
11002 17038 M 0 -101 R D 11089 17038 M 0 -101 R D 11177 17038 M 0 -101 R D
11264 17038 M 0 -101 R D 11352 17038 M 0 -101 R D 11439 17038 M 0 -101 R D
11614 17038 M 0 -101 R D 11702 17038 M 0 -101 R D 11789 17038 M 0 -101 R D
11877 17038 M 0 -101 R D 11964 17038 M 0 -101 R D 12052 17038 M 0 -101 R D
12139 17038 M 0 -101 R D 12227 17038 M 0 -101 R D 7258 12000 M 0 5038 R D
7258 12769 M 202 0 R D gsave 7147 12629 translate 0 0 M -117.687 0 N
( ) show grestore 7258 13644 M 202 0 R D gsave 7147 13503 translate 0 0 M
-117.687 0 N
( ) show grestore 7258 14519 M 202 0 R D gsave 7147 14378 translate 0 0 M
-117.687 0 N
( ) show grestore 7258 15394 M 202 0 R D gsave 7147 15253 translate 0 0 M
-117.687 0 N
( ) show grestore 7258 16269 M 202 0 R D gsave 7147 16128 translate 0 0 M
-117.687 0 N
( ) show grestore 7258 12070 M 101 0 R D 7258 12157 M 101 0 R D 7258 12245 M
101 0 R D 7258 12332 M 101 0 R D 7258 12420 M 101 0 R D 7258 12507 M 101 0 R
D 7258 12595 M 101 0 R D 7258 12682 M 101 0 R D 7258 12857 M 101 0 R D
7258 12944 M 101 0 R D 7258 13032 M 101 0 R D 7258 13119 M 101 0 R D
7258 13207 M 101 0 R D 7258 13294 M 101 0 R D 7258 13382 M 101 0 R D
7258 13469 M 101 0 R D 7258 13557 M 101 0 R D 7258 13732 M 101 0 R D
7258 13819 M 101 0 R D 7258 13907 M 101 0 R D 7258 13994 M 101 0 R D
7258 14082 M 101 0 R D 7258 14169 M 101 0 R D 7258 14257 M 101 0 R D
7258 14344 M 101 0 R D 7258 14432 M 101 0 R D 7258 14607 M 101 0 R D
7258 14694 M 101 0 R D 7258 14782 M 101 0 R D 7258 14869 M 101 0 R D
7258 14956 M 101 0 R D 7258 15044 M 101 0 R D 7258 15131 M 101 0 R D
7258 15219 M 101 0 R D 7258 15306 M 101 0 R D 7258 15481 M 101 0 R D
7258 15569 M 101 0 R D 7258 15656 M 101 0 R D 7258 15744 M 101 0 R D
7258 15831 M 101 0 R D 7258 15919 M 101 0 R D 7258 16006 M 101 0 R D
7258 16094 M 101 0 R D 7258 16181 M 101 0 R D 7258 16356 M 101 0 R D
7258 16444 M 101 0 R D 7258 16531 M 101 0 R D 7258 16619 M 101 0 R D
7258 16706 M 101 0 R D 7258 16794 M 101 0 R D 7258 16881 M 101 0 R D
7258 16969 M 101 0 R D 12296 12000 M 0 5038 R D 12296 12769 M -201 0 R D
12296 13644 M -201 0 R D 12296 14519 M -201 0 R D 12296 15394 M -201 0 R D
12296 16269 M -201 0 R D 12296 12070 M -101 0 R D 12296 12157 M -101 0 R D
12296 12245 M -101 0 R D 12296 12332 M -101 0 R D 12296 12420 M -101 0 R D
12296 12507 M -101 0 R D 12296 12595 M -101 0 R D 12296 12682 M -101 0 R D
12296 12857 M -101 0 R D 12296 12944 M -101 0 R D 12296 13032 M -101 0 R D
12296 13119 M -101 0 R D 12296 13207 M -101 0 R D 12296 13294 M -101 0 R D
12296 13382 M -101 0 R D 12296 13469 M -101 0 R D 12296 13557 M -101 0 R D
12296 13732 M -101 0 R D 12296 13819 M -101 0 R D 12296 13907 M -101 0 R D
12296 13994 M -101 0 R D 12296 14082 M -101 0 R D 12296 14169 M -101 0 R D
12296 14257 M -101 0 R D 12296 14344 M -101 0 R D 12296 14432 M -101 0 R D
12296 14607 M -101 0 R D 12296 14694 M -101 0 R D 12296 14782 M -101 0 R D
12296 14869 M -101 0 R D 12296 14956 M -101 0 R D 12296 15044 M -101 0 R D
12296 15131 M -101 0 R D 12296 15219 M -101 0 R D 12296 15306 M -101 0 R D
12296 15481 M -101 0 R D 12296 15569 M -101 0 R D 12296 15656 M -101 0 R D
12296 15744 M -101 0 R D 12296 15831 M -101 0 R D 12296 15919 M -101 0 R D
12296 16006 M -101 0 R D 12296 16094 M -101 0 R D 12296 16181 M -101 0 R D
12296 16356 M -101 0 R D 12296 16444 M -101 0 R D 12296 16531 M -101 0 R D
12296 16619 M -101 0 R D 12296 16706 M -101 0 R D 12296 16794 M -101 0 R D
12296 16881 M -101 0 R D 12296 16969 M -101 0 R D 11532 14519 M -63 118 R
-155 232 R -199 223 R -246 202 R -292 169 R -332 121 R -359 58 R -366 -11 R
-350 -79 R -318 -135 R -275 -178 R -229 -204 R -185 -222 R -143 -229 R
-104 -231 R -69 -228 R -39 -222 R -12 -213 R 12 -203 R 34 -192 R 53 -180 R
71 -167 R 86 -153 R 101 -139 R 114 -124 R 126 -108 R 136 -92 R 145 -76 R
154 -59 R 161 -41 R 168 -23 R 172 -4 R 176 17 R 178 37 R 180 60 R 178 82 R
175 108 R 170 133 R 161 161 R 149 189 R 131 221 R 107 251 R 75 283 R
35 309 R -15 331 R -75 340 R -141 332 R -205 304 R -256 256 R -289 198 R
-304 138 R -303 83 R -293 35 R -276 -7 R -256 -41 R -233 -70 R -210 -92 R
-187 -110 R -165 -125 R -143 -137 R -121 -146 R -101 -153 R -80 -158 R
-59 -163 R -40 -164 R -21 -166 R -1 -164 R 17 -164 R 37 -160 R 55 -156 R
74 -151 R 92 -144 R 110 -136 R 129 -126 R 147 -115 R 166 -101 R 184 -85 R
201 -66 R 219 -44 R 236 -19 R 251 12 R 263 48 R 271 89 R 273 137 R 264 188 R
243 243 R 203 294 R 147 335 R 80 355 R 12 355 R -48 336 R -98 306 R
-134 270 R -161 232 R -179 195 R -190 159 R -197 126 R -199 97 R -198 69 R
-196 43 R -192 20 R -185 -2 R -178 -22 R -169 -40 R -160 -59 R -150 -75 R
-138 -91 R -126 -105 R -113 -119 R -99 -133 R -85 -144 R -68 -155 R
-51 -166 R -33 -176 R -13 -184 R 8 -191 R 31 -197 R 56 -201 R 83 -203 R
113 -203 R 145 -198 R 181 -189 R 219 -174 R 257 -151 R 296 -117 R 330 -72 R
352 -14 R 360 54 R 345 122 R 309 182 R 262 226 R 208 253 R 156 266 R
108 267 R 66 262 R 28 252 R -3 238 R -31 223 R -54 207 R -74 190 R -90 173 R
-106 155 R -119 137 R -129 119 R -138 101 R -147 83 R -152 65 R -158 46 R
-162 28 R -165 9 R -166 -10 R -166 -29 R -165 -50 R -163 -69 R -158 -91 R
-152 -111 R -145 -133 R -134 -156 R -121 -179 R -104 -202 R -84 -226 R
-57 -250 R -24 -272 R 14 -292 R 62 -306 R 115 -310 R 176 -301 R 236 -273 R
288 -226 R 322 -166 R 336 -100 R 331 -38 R 315 14 R 289 57 R 261 91 R
230 117 R 201 138 R 172 152 R 144 162 R 119 169 R 94 174 R 71 177 R 49 176 R
27 176 R 7 172 R -12 169 R -31 164 R -50 157 R -66 150 R -84 142 R
-100 132 R -117 121 R -132 109 R -146 95 R -162 81 R -175 64 R -189 45 R
-201 25 R -212 1 R -222 -25 R -230 -55 R D 0.208 0.208 0.208 setrgbcolor
9768 14519 M 1 2 R 0 1 R 0 1 R 1 1 R 0 1 R 1 0 R 0 1 R 1 0 R 1 1 R 1 0 R
1 0 R 0 1 R 1 0 R 1 0 R 1 0 R 1 0 R 1 -1 R 1 0 R 1 0 R 0 -1 R 1 0 R 0 -1 R
1 0 R 0 -1 R 1 0 R 0 -1 R 0 -1 R 1 -1 R 0 -2 R D 9768 14519 M 1 -2 R 0 -1 R
0 -1 R 1 0 R 0 -1 R 0 -1 R 1 0 R 0 -1 R 1 0 R 1 0 R 0 -1 R 1 0 R 1 0 R
1 -1 R 1 0 R 1 0 R 1 0 R 0 1 R 1 0 R 1 0 R 0 1 R 1 0 R 1 0 R 0 1 R 1 0 R
0 1 R 1 1 R 0 1 R 0 1 R 1 0 R 0 2 R D 0.000 0.000 0.000 setrgbcolor
9777 14519 M Z gsave 10281 12756 translate 0 0 M
(40.1Gyr) show grestore gsave 10281 12404 translate 0 0 M
(7.5e10M) show X -101.051 M
%%IncludeResource: font Helvetica
262.467 /Helvetica STDFONT
(sun) show grestore
%%IncludeResource: font Helvetica
423.333 /Helvetica STDFONT 12296 12000 M 5038 0 R D 13065 12000 M 0 202 R D
gsave 13065 11472 translate 0 0 M -58.8433 0 N
( ) show grestore 13940 12000 M 0 202 R D gsave 13940 11472 translate 0 0 M
-58.8433 0 N
( ) show grestore 14815 12000 M 0 202 R D gsave 14815 11472 translate 0 0 M
-58.8433 0 N
( ) show grestore 15690 12000 M 0 202 R D gsave 15690 11472 translate 0 0 M
-58.8433 0 N
( ) show grestore 16565 12000 M 0 202 R D gsave 16565 11472 translate 0 0 M
-58.8433 0 N
( ) show grestore 12366 12000 M 0 101 R D 12453 12000 M 0 101 R D
12541 12000 M 0 101 R D 12628 12000 M 0 101 R D 12716 12000 M 0 101 R D
12803 12000 M 0 101 R D 12891 12000 M 0 101 R D 12978 12000 M 0 101 R D
13153 12000 M 0 101 R D 13240 12000 M 0 101 R D 13328 12000 M 0 101 R D
13415 12000 M 0 101 R D 13503 12000 M 0 101 R D 13590 12000 M 0 101 R D
13678 12000 M 0 101 R D 13765 12000 M 0 101 R D 13853 12000 M 0 101 R D
14028 12000 M 0 101 R D 14115 12000 M 0 101 R D 14203 12000 M 0 101 R D
14290 12000 M 0 101 R D 14378 12000 M 0 101 R D 14465 12000 M 0 101 R D
14553 12000 M 0 101 R D 14640 12000 M 0 101 R D 14728 12000 M 0 101 R D
14903 12000 M 0 101 R D 14990 12000 M 0 101 R D 15078 12000 M 0 101 R D
15165 12000 M 0 101 R D 15252 12000 M 0 101 R D 15340 12000 M 0 101 R D
15427 12000 M 0 101 R D 15515 12000 M 0 101 R D 15602 12000 M 0 101 R D
15777 12000 M 0 101 R D 15865 12000 M 0 101 R D 15952 12000 M 0 101 R D
16040 12000 M 0 101 R D 16127 12000 M 0 101 R D 16215 12000 M 0 101 R D
16302 12000 M 0 101 R D 16390 12000 M 0 101 R D 16477 12000 M 0 101 R D
16652 12000 M 0 101 R D 16740 12000 M 0 101 R D 16827 12000 M 0 101 R D
16915 12000 M 0 101 R D 17002 12000 M 0 101 R D 17090 12000 M 0 101 R D
17177 12000 M 0 101 R D 17265 12000 M 0 101 R D 12296 17038 M 5038 0 R D
13065 17038 M 0 -201 R D 13940 17038 M 0 -201 R D 14815 17038 M 0 -201 R D
15690 17038 M 0 -201 R D 16565 17038 M 0 -201 R D 12366 17038 M 0 -101 R D
12453 17038 M 0 -101 R D 12541 17038 M 0 -101 R D 12628 17038 M 0 -101 R D
12716 17038 M 0 -101 R D 12803 17038 M 0 -101 R D 12891 17038 M 0 -101 R D
12978 17038 M 0 -101 R D 13153 17038 M 0 -101 R D 13240 17038 M 0 -101 R D
13328 17038 M 0 -101 R D 13415 17038 M 0 -101 R D 13503 17038 M 0 -101 R D
13590 17038 M 0 -101 R D 13678 17038 M 0 -101 R D 13765 17038 M 0 -101 R D
13853 17038 M 0 -101 R D 14028 17038 M 0 -101 R D 14115 17038 M 0 -101 R D
14203 17038 M 0 -101 R D 14290 17038 M 0 -101 R D 14378 17038 M 0 -101 R D
14465 17038 M 0 -101 R D 14553 17038 M 0 -101 R D 14640 17038 M 0 -101 R D
14728 17038 M 0 -101 R D 14903 17038 M 0 -101 R D 14990 17038 M 0 -101 R D
15078 17038 M 0 -101 R D 15165 17038 M 0 -101 R D 15252 17038 M 0 -101 R D
15340 17038 M 0 -101 R D 15427 17038 M 0 -101 R D 15515 17038 M 0 -101 R D
15602 17038 M 0 -101 R D 15777 17038 M 0 -101 R D 15865 17038 M 0 -101 R D
15952 17038 M 0 -101 R D 16040 17038 M 0 -101 R D 16127 17038 M 0 -101 R D
16215 17038 M 0 -101 R D 16302 17038 M 0 -101 R D 16390 17038 M 0 -101 R D
16477 17038 M 0 -101 R D 16652 17038 M 0 -101 R D 16740 17038 M 0 -101 R D
16827 17038 M 0 -101 R D 16915 17038 M 0 -101 R D 17002 17038 M 0 -101 R D
17090 17038 M 0 -101 R D 17177 17038 M 0 -101 R D 17265 17038 M 0 -101 R D
12296 12000 M 0 5038 R D 12296 12769 M 202 0 R D
gsave 12185 12629 translate 0 0 M -117.687 0 N
( ) show grestore 12296 13644 M 202 0 R D gsave 12185 13503 translate 0 0 M
-117.687 0 N
( ) show grestore 12296 14519 M 202 0 R D gsave 12185 14378 translate 0 0 M
-117.687 0 N
( ) show grestore 12296 15394 M 202 0 R D gsave 12185 15253 translate 0 0 M
-117.687 0 N
( ) show grestore 12296 16269 M 202 0 R D gsave 12185 16128 translate 0 0 M
-117.687 0 N
( ) show grestore 12296 12070 M 101 0 R D 12296 12157 M 101 0 R D
12296 12245 M 101 0 R D 12296 12332 M 101 0 R D 12296 12420 M 101 0 R D
12296 12507 M 101 0 R D 12296 12595 M 101 0 R D 12296 12682 M 101 0 R D
12296 12857 M 101 0 R D 12296 12944 M 101 0 R D 12296 13032 M 101 0 R D
12296 13119 M 101 0 R D 12296 13207 M 101 0 R D 12296 13294 M 101 0 R D
12296 13382 M 101 0 R D 12296 13469 M 101 0 R D 12296 13557 M 101 0 R D
12296 13732 M 101 0 R D 12296 13819 M 101 0 R D 12296 13907 M 101 0 R D
12296 13994 M 101 0 R D 12296 14082 M 101 0 R D 12296 14169 M 101 0 R D
12296 14257 M 101 0 R D 12296 14344 M 101 0 R D 12296 14432 M 101 0 R D
12296 14607 M 101 0 R D 12296 14694 M 101 0 R D 12296 14782 M 101 0 R D
12296 14869 M 101 0 R D 12296 14956 M 101 0 R D 12296 15044 M 101 0 R D
12296 15131 M 101 0 R D 12296 15219 M 101 0 R D 12296 15306 M 101 0 R D
12296 15481 M 101 0 R D 12296 15569 M 101 0 R D 12296 15656 M 101 0 R D
12296 15744 M 101 0 R D 12296 15831 M 101 0 R D 12296 15919 M 101 0 R D
12296 16006 M 101 0 R D 12296 16094 M 101 0 R D 12296 16181 M 101 0 R D
12296 16356 M 101 0 R D 12296 16444 M 101 0 R D 12296 16531 M 101 0 R D
12296 16619 M 101 0 R D 12296 16706 M 101 0 R D 12296 16794 M 101 0 R D
12296 16881 M 101 0 R D 12296 16969 M 101 0 R D 17334 12000 M 0 5038 R D
17334 12769 M -201 0 R D 17334 13644 M -201 0 R D 17334 14519 M -201 0 R D
17334 15394 M -201 0 R D 17334 16269 M -201 0 R D 17334 12070 M -101 0 R D
17334 12157 M -101 0 R D 17334 12245 M -101 0 R D 17334 12332 M -101 0 R D
17334 12420 M -101 0 R D 17334 12507 M -101 0 R D 17334 12595 M -101 0 R D
17334 12682 M -101 0 R D 17334 12857 M -101 0 R D 17334 12944 M -101 0 R D
17334 13032 M -101 0 R D 17334 13119 M -101 0 R D 17334 13207 M -101 0 R D
17334 13294 M -101 0 R D 17334 13382 M -101 0 R D 17334 13469 M -101 0 R D
17334 13557 M -101 0 R D 17334 13732 M -101 0 R D 17334 13819 M -101 0 R D
17334 13907 M -101 0 R D 17334 13994 M -101 0 R D 17334 14082 M -101 0 R D
17334 14169 M -101 0 R D 17334 14257 M -101 0 R D 17334 14344 M -101 0 R D
17334 14432 M -101 0 R D 17334 14607 M -101 0 R D 17334 14694 M -101 0 R D
17334 14782 M -101 0 R D 17334 14869 M -101 0 R D 17334 14956 M -101 0 R D
17334 15044 M -101 0 R D 17334 15131 M -101 0 R D 17334 15219 M -101 0 R D
17334 15306 M -101 0 R D 17334 15481 M -101 0 R D 17334 15569 M -101 0 R D
17334 15656 M -101 0 R D 17334 15744 M -101 0 R D 17334 15831 M -101 0 R D
17334 15919 M -101 0 R D 17334 16006 M -101 0 R D 17334 16094 M -101 0 R D
17334 16181 M -101 0 R D 17334 16356 M -101 0 R D 17334 16444 M -101 0 R D
17334 16531 M -101 0 R D 17334 16619 M -101 0 R D 17334 16706 M -101 0 R D
17334 16794 M -101 0 R D 17334 16881 M -101 0 R D 17334 16969 M -101 0 R D
16570 14519 M -63 118 R -155 232 R -199 223 R -246 202 R -292 169 R
-332 121 R -359 58 R -366 -11 R -350 -79 R -318 -135 R -275 -178 R
-229 -204 R -185 -222 R -143 -229 R -104 -231 R -69 -228 R -39 -222 R
-12 -213 R 12 -203 R 34 -192 R 53 -180 R 71 -167 R 86 -153 R 101 -139 R
114 -124 R 126 -108 R 136 -92 R 145 -76 R 154 -59 R 161 -41 R 168 -23 R
172 -4 R 176 17 R 178 37 R 180 60 R 178 82 R 175 108 R 170 133 R 161 161 R
149 189 R 131 221 R 107 251 R 75 283 R 35 309 R -15 331 R -75 340 R
-141 332 R -205 304 R -256 256 R -289 198 R -304 138 R -303 83 R -293 35 R
-276 -7 R -256 -41 R -233 -70 R -210 -92 R -187 -110 R -165 -125 R
-143 -137 R -121 -146 R -101 -153 R -80 -158 R -59 -163 R -40 -164 R
-21 -166 R -1 -164 R 17 -164 R 37 -160 R 55 -156 R 74 -151 R 92 -144 R
110 -136 R 129 -126 R 147 -115 R 166 -101 R 184 -85 R 201 -66 R 219 -44 R
236 -19 R 251 12 R 263 48 R 271 89 R 273 137 R 264 188 R 243 243 R 203 294 R
147 335 R 80 355 R 12 355 R -48 336 R -98 306 R -134 270 R -161 232 R
-179 195 R -190 159 R -197 126 R -199 97 R -198 69 R -196 43 R -192 20 R
-185 -2 R -178 -22 R -169 -40 R -160 -59 R -150 -75 R -138 -91 R -126 -105 R
-113 -119 R -99 -133 R -85 -144 R -68 -155 R -51 -166 R -33 -176 R
-13 -184 R 8 -191 R 31 -197 R 56 -201 R 83 -203 R 113 -203 R 145 -198 R
181 -189 R 219 -174 R 257 -151 R 296 -117 R 330 -72 R 352 -14 R 360 54 R
345 122 R 309 182 R 262 226 R 208 253 R 156 266 R 108 267 R 66 262 R
28 252 R -3 238 R -31 223 R -54 207 R -74 190 R -90 173 R -106 155 R
-119 137 R -129 119 R -138 101 R -147 83 R -152 65 R -158 46 R -162 28 R
-165 9 R -166 -10 R -166 -29 R -165 -50 R -163 -69 R -158 -91 R -152 -111 R
-145 -133 R -134 -156 R -121 -179 R -104 -202 R -84 -226 R -57 -250 R
-24 -272 R 14 -292 R 62 -306 R 115 -310 R 176 -301 R 236 -273 R 288 -226 R
322 -166 R 336 -100 R 331 -38 R 315 14 R 289 57 R 261 91 R 230 117 R
201 138 R 172 152 R 144 162 R 119 169 R 94 174 R 71 177 R 49 176 R 27 176 R
7 172 R -12 169 R -31 164 R -50 157 R -66 150 R -84 142 R -100 132 R
-117 121 R -132 109 R -146 95 R -162 81 R -175 64 R -189 45 R -201 25 R
-212 1 R -222 -25 R -230 -55 R D 0.208 0.208 0.208 setrgbcolor 14806 14519 M
1 2 R 0 1 R 0 1 R 1 1 R 0 1 R 1 0 R 0 1 R 1 0 R 1 1 R 1 0 R 1 0 R 0 1 R
1 0 R 1 0 R 1 0 R 1 0 R 1 -1 R 1 0 R 1 0 R 0 -1 R 1 0 R 0 -1 R 1 0 R 0 -1 R
1 0 R 0 -1 R 0 -1 R 1 -1 R 0 -2 R D 14806 14519 M 1 -2 R 0 -1 R 0 -1 R 1 0 R
0 -1 R 0 -1 R 1 0 R 0 -1 R 1 0 R 1 0 R 0 -1 R 1 0 R 1 0 R 1 -1 R 1 0 R 1 0 R
1 0 R 0 1 R 1 0 R 1 0 R 0 1 R 1 0 R 1 0 R 0 1 R 1 0 R 0 1 R 1 1 R 0 1 R
0 1 R 1 0 R 0 2 R D 0.000 0.000 0.000 setrgbcolor 14815 14519 M Z
gsave 15319 12756 translate 0 0 M
(40.1Gyr) show grestore gsave 15319 12404 translate 0 0 M
(1.0e11M) show X -101.051 M
%%IncludeResource: font Helvetica
262.467 /Helvetica STDFONT
(sun) show grestore
%%IncludeResource: font Helvetica
423.333 /Helvetica STDFONT 2220 6704 M 5038 0 R D 2989 6704 M 0 202 R D
gsave 2989 6176 translate 0 0 M -58.8433 0 N
( ) show grestore 3864 6704 M 0 202 R D gsave 3864 6176 translate 0 0 M
-58.8433 0 N
( ) show grestore 4739 6704 M 0 202 R D gsave 4739 6176 translate 0 0 M
-58.8433 0 N
( ) show grestore 5614 6704 M 0 202 R D gsave 5614 6176 translate 0 0 M
-58.8433 0 N
( ) show grestore 6489 6704 M 0 202 R D gsave 6489 6176 translate 0 0 M
-58.8433 0 N
( ) show grestore 2290 6704 M 0 101 R D 2377 6704 M 0 101 R D 2465 6704 M
0 101 R D 2552 6704 M 0 101 R D 2640 6704 M 0 101 R D 2727 6704 M 0 101 R D
2815 6704 M 0 101 R D 2902 6704 M 0 101 R D 3077 6704 M 0 101 R D
3164 6704 M 0 101 R D 3252 6704 M 0 101 R D 3339 6704 M 0 101 R D
3427 6704 M 0 101 R D 3514 6704 M 0 101 R D 3602 6704 M 0 101 R D
3689 6704 M 0 101 R D 3777 6704 M 0 101 R D 3952 6704 M 0 101 R D
4039 6704 M 0 101 R D 4127 6704 M 0 101 R D 4214 6704 M 0 101 R D
4302 6704 M 0 101 R D 4389 6704 M 0 101 R D 4477 6704 M 0 101 R D
4564 6704 M 0 101 R D 4652 6704 M 0 101 R D 4827 6704 M 0 101 R D
4914 6704 M 0 101 R D 5002 6704 M 0 101 R D 5089 6704 M 0 101 R D
5176 6704 M 0 101 R D 5264 6704 M 0 101 R D 5351 6704 M 0 101 R D
5439 6704 M 0 101 R D 5526 6704 M 0 101 R D 5701 6704 M 0 101 R D
5789 6704 M 0 101 R D 5876 6704 M 0 101 R D 5964 6704 M 0 101 R D
6051 6704 M 0 101 R D 6139 6704 M 0 101 R D 6226 6704 M 0 101 R D
6314 6704 M 0 101 R D 6401 6704 M 0 101 R D 6576 6704 M 0 101 R D
6664 6704 M 0 101 R D 6751 6704 M 0 101 R D 6839 6704 M 0 101 R D
6926 6704 M 0 101 R D 7014 6704 M 0 101 R D 7101 6704 M 0 101 R D
7189 6704 M 0 101 R D 2220 11742 M 5038 0 R D 2989 11742 M 0 -201 R D
3864 11742 M 0 -201 R D 4739 11742 M 0 -201 R D 5614 11742 M 0 -201 R D
6489 11742 M 0 -201 R D 2290 11742 M 0 -101 R D 2377 11742 M 0 -101 R D
2465 11742 M 0 -101 R D 2552 11742 M 0 -101 R D 2640 11742 M 0 -101 R D
2727 11742 M 0 -101 R D 2815 11742 M 0 -101 R D 2902 11742 M 0 -101 R D
3077 11742 M 0 -101 R D 3164 11742 M 0 -101 R D 3252 11742 M 0 -101 R D
3339 11742 M 0 -101 R D 3427 11742 M 0 -101 R D 3514 11742 M 0 -101 R D
3602 11742 M 0 -101 R D 3689 11742 M 0 -101 R D 3777 11742 M 0 -101 R D
3952 11742 M 0 -101 R D 4039 11742 M 0 -101 R D 4127 11742 M 0 -101 R D
4214 11742 M 0 -101 R D 4302 11742 M 0 -101 R D 4389 11742 M 0 -101 R D
4477 11742 M 0 -101 R D 4564 11742 M 0 -101 R D 4652 11742 M 0 -101 R D
4827 11742 M 0 -101 R D 4914 11742 M 0 -101 R D 5002 11742 M 0 -101 R D
5089 11742 M 0 -101 R D 5176 11742 M 0 -101 R D 5264 11742 M 0 -101 R D
5351 11742 M 0 -101 R D 5439 11742 M 0 -101 R D 5526 11742 M 0 -101 R D
5701 11742 M 0 -101 R D 5789 11742 M 0 -101 R D 5876 11742 M 0 -101 R D
5964 11742 M 0 -101 R D 6051 11742 M 0 -101 R D 6139 11742 M 0 -101 R D
6226 11742 M 0 -101 R D 6314 11742 M 0 -101 R D 6401 11742 M 0 -101 R D
6576 11742 M 0 -101 R D 6664 11742 M 0 -101 R D 6751 11742 M 0 -101 R D
6839 11742 M 0 -101 R D 6926 11742 M 0 -101 R D 7014 11742 M 0 -101 R D
7101 11742 M 0 -101 R D 7189 11742 M 0 -101 R D 2220 6704 M 0 5038 R D
2220 7473 M 202 0 R D gsave 2109 7333 translate 0 0 M -847.09 0 N
(-200) show grestore 2220 8348 M 202 0 R D gsave 2109 8207 translate 0 0 M
-847.09 0 N
(-100) show grestore 2220 9223 M 202 0 R D gsave 2109 9082 translate 0 0 M
-235.373 0 N
(0) show grestore 2220 10098 M 202 0 R D gsave 2109 9957 translate 0 0 M
-706.12 0 N
(100) show grestore 2220 10973 M 202 0 R D gsave 2109 10832 translate 0 0 M
-706.12 0 N
(200) show grestore 2220 6774 M 101 0 R D 2220 6861 M 101 0 R D 2220 6949 M
101 0 R D 2220 7036 M 101 0 R D 2220 7124 M 101 0 R D 2220 7211 M 101 0 R D
2220 7299 M 101 0 R D 2220 7386 M 101 0 R D 2220 7561 M 101 0 R D
2220 7648 M 101 0 R D 2220 7736 M 101 0 R D 2220 7823 M 101 0 R D
2220 7911 M 101 0 R D 2220 7998 M 101 0 R D 2220 8086 M 101 0 R D
2220 8173 M 101 0 R D 2220 8261 M 101 0 R D 2220 8436 M 101 0 R D
2220 8523 M 101 0 R D 2220 8611 M 101 0 R D 2220 8698 M 101 0 R D
2220 8786 M 101 0 R D 2220 8873 M 101 0 R D 2220 8961 M 101 0 R D
2220 9048 M 101 0 R D 2220 9136 M 101 0 R D 2220 9311 M 101 0 R D
2220 9398 M 101 0 R D 2220 9486 M 101 0 R D 2220 9573 M 101 0 R D
2220 9660 M 101 0 R D 2220 9748 M 101 0 R D 2220 9835 M 101 0 R D
2220 9923 M 101 0 R D 2220 10010 M 101 0 R D 2220 10185 M 101 0 R D
2220 10273 M 101 0 R D 2220 10360 M 101 0 R D 2220 10448 M 101 0 R D
2220 10535 M 101 0 R D 2220 10623 M 101 0 R D 2220 10710 M 101 0 R D
2220 10798 M 101 0 R D 2220 10885 M 101 0 R D 2220 11060 M 101 0 R D
2220 11148 M 101 0 R D 2220 11235 M 101 0 R D 2220 11323 M 101 0 R D
2220 11410 M 101 0 R D 2220 11498 M 101 0 R D 2220 11585 M 101 0 R D
2220 11673 M 101 0 R D 7258 6704 M 0 5038 R D 7258 7473 M -201 0 R D
7258 8348 M -201 0 R D 7258 9223 M -201 0 R D 7258 10098 M -201 0 R D
7258 10973 M -201 0 R D 7258 6774 M -101 0 R D 7258 6861 M -101 0 R D
7258 6949 M -101 0 R D 7258 7036 M -101 0 R D 7258 7124 M -101 0 R D
7258 7211 M -101 0 R D 7258 7299 M -101 0 R D 7258 7386 M -101 0 R D
7258 7561 M -101 0 R D 7258 7648 M -101 0 R D 7258 7736 M -101 0 R D
7258 7823 M -101 0 R D 7258 7911 M -101 0 R D 7258 7998 M -101 0 R D
7258 8086 M -101 0 R D 7258 8173 M -101 0 R D 7258 8261 M -101 0 R D
7258 8436 M -101 0 R D 7258 8523 M -101 0 R D 7258 8611 M -101 0 R D
7258 8698 M -101 0 R D 7258 8786 M -101 0 R D 7258 8873 M -101 0 R D
7258 8961 M -101 0 R D 7258 9048 M -101 0 R D 7258 9136 M -101 0 R D
7258 9311 M -101 0 R D 7258 9398 M -101 0 R D 7258 9486 M -101 0 R D
7258 9573 M -101 0 R D 7258 9660 M -101 0 R D 7258 9748 M -101 0 R D
7258 9835 M -101 0 R D 7258 9923 M -101 0 R D 7258 10010 M -101 0 R D
7258 10185 M -101 0 R D 7258 10273 M -101 0 R D 7258 10360 M -101 0 R D
7258 10448 M -101 0 R D 7258 10535 M -101 0 R D 7258 10623 M -101 0 R D
7258 10710 M -101 0 R D 7258 10798 M -101 0 R D 7258 10885 M -101 0 R D
7258 11060 M -101 0 R D 7258 11148 M -101 0 R D 7258 11235 M -101 0 R D
7258 11323 M -101 0 R D 7258 11410 M -101 0 R D 7258 11498 M -101 0 R D
7258 11585 M -101 0 R D 7258 11673 M -101 0 R D 6494 9223 M -63 118 R
-155 232 R -199 223 R -246 202 R -292 169 R -332 121 R -359 58 R -366 -11 R
-350 -79 R -318 -135 R -275 -178 R -229 -204 R -185 -222 R -143 -229 R
-104 -231 R -69 -228 R -39 -222 R -12 -213 R 12 -203 R 34 -192 R 53 -180 R
71 -167 R 86 -153 R 101 -139 R 114 -124 R 126 -108 R 136 -92 R 145 -76 R
154 -59 R 161 -41 R 168 -23 R 172 -4 R 176 17 R 178 37 R 180 60 R 178 82 R
175 108 R 170 133 R 161 161 R 149 189 R 131 221 R 107 251 R 75 283 R
35 309 R -15 331 R -75 340 R -141 332 R -205 304 R -256 256 R -289 198 R
-304 138 R -303 83 R -293 35 R -276 -7 R -256 -41 R -233 -70 R -210 -92 R
-187 -110 R -165 -125 R -143 -137 R -121 -146 R -101 -153 R -80 -158 R
-59 -163 R -40 -164 R -21 -166 R -1 -164 R 17 -164 R 37 -160 R 55 -156 R
74 -151 R 92 -144 R 110 -136 R 129 -126 R 147 -115 R 166 -101 R 184 -85 R
201 -66 R 219 -44 R 236 -19 R 251 12 R 263 48 R 271 89 R 273 137 R 264 188 R
243 243 R 203 294 R 147 335 R 80 355 R 12 355 R -48 336 R -98 306 R
-134 270 R -161 232 R -179 195 R -190 159 R -197 126 R -199 97 R -198 69 R
-196 43 R -192 20 R -185 -2 R -178 -22 R -169 -40 R -160 -59 R -150 -75 R
-138 -91 R -126 -105 R -113 -119 R -99 -133 R -85 -144 R -68 -155 R
-51 -166 R -33 -176 R -13 -184 R 8 -191 R 31 -197 R 56 -201 R 83 -203 R
113 -203 R 145 -198 R 181 -189 R 219 -174 R 257 -151 R 296 -117 R 330 -72 R
352 -14 R 360 54 R 345 122 R 309 182 R 262 226 R 208 253 R 156 266 R
108 267 R 66 262 R 28 252 R -3 238 R -31 223 R -54 207 R -74 190 R -90 173 R
-106 155 R -119 137 R -129 119 R -138 101 R -147 83 R -152 65 R -158 46 R
-162 28 R -165 9 R -166 -10 R -166 -29 R -165 -50 R -163 -69 R -158 -91 R
-152 -111 R -145 -133 R -134 -156 R -121 -179 R -104 -202 R -84 -226 R
-57 -250 R -24 -272 R 14 -292 R 62 -306 R 115 -310 R 176 -301 R 236 -273 R
288 -226 R 322 -166 R 336 -100 R 331 -38 R 315 14 R 289 57 R 261 91 R
230 117 R 201 138 R 172 152 R 144 162 R 119 169 R 94 174 R 71 177 R 49 176 R
27 176 R 7 172 R -12 169 R -31 164 R -50 157 R -66 150 R -84 142 R
-100 132 R -117 121 R -132 109 R -146 95 R -162 81 R -175 64 R -189 45 R
-201 25 R -212 1 R -222 -25 R -230 -55 R D 0.208 0.208 0.208 setrgbcolor
4730 9223 M 1 2 R 0 1 R 0 1 R 1 1 R 0 1 R 1 0 R 0 1 R 1 0 R 1 1 R 1 0 R
1 0 R 0 1 R 1 0 R 1 0 R 1 0 R 1 0 R 1 -1 R 1 0 R 1 0 R 0 -1 R 1 0 R 0 -1 R
1 0 R 0 -1 R 1 0 R 0 -1 R 0 -1 R 1 -1 R 0 -2 R D 4730 9223 M 1 -2 R 0 -1 R
0 -1 R 1 0 R 0 -1 R 0 -1 R 1 0 R 0 -1 R 1 0 R 1 0 R 0 -1 R 1 0 R 1 0 R
1 -1 R 1 0 R 1 0 R 1 0 R 0 1 R 1 0 R 1 0 R 0 1 R 1 0 R 1 0 R 0 1 R 1 0 R
0 1 R 1 1 R 0 1 R 0 1 R 1 0 R 0 2 R D 0.000 0.000 0.000 setrgbcolor
4739 9223 M Z gsave 5243 7460 translate 0 0 M
(40.1Gyr) show grestore gsave 5243 7108 translate 0 0 M
(1.3e11M) show X -101.051 M
%%IncludeResource: font Helvetica
262.467 /Helvetica STDFONT
(sun) show grestore
%%IncludeResource: font Helvetica
423.333 /Helvetica STDFONT 7258 6704 M 5038 0 R D 8027 6704 M 0 202 R D
gsave 8027 6176 translate 0 0 M -58.8433 0 N
( ) show grestore 8902 6704 M 0 202 R D gsave 8902 6176 translate 0 0 M
-58.8433 0 N
( ) show grestore 9777 6704 M 0 202 R D gsave 9777 6176 translate 0 0 M
-58.8433 0 N
( ) show grestore 10652 6704 M 0 202 R D gsave 10652 6176 translate 0 0 M
-58.8433 0 N
( ) show grestore 11527 6704 M 0 202 R D gsave 11527 6176 translate 0 0 M
-58.8433 0 N
( ) show grestore 7328 6704 M 0 101 R D 7415 6704 M 0 101 R D 7503 6704 M
0 101 R D 7590 6704 M 0 101 R D 7678 6704 M 0 101 R D 7765 6704 M 0 101 R D
7853 6704 M 0 101 R D 7940 6704 M 0 101 R D 8115 6704 M 0 101 R D
8202 6704 M 0 101 R D 8290 6704 M 0 101 R D 8377 6704 M 0 101 R D
8465 6704 M 0 101 R D 8552 6704 M 0 101 R D 8640 6704 M 0 101 R D
8727 6704 M 0 101 R D 8815 6704 M 0 101 R D 8990 6704 M 0 101 R D
9077 6704 M 0 101 R D 9165 6704 M 0 101 R D 9252 6704 M 0 101 R D
9340 6704 M 0 101 R D 9427 6704 M 0 101 R D 9515 6704 M 0 101 R D
9602 6704 M 0 101 R D 9690 6704 M 0 101 R D 9865 6704 M 0 101 R D
9952 6704 M 0 101 R D 10040 6704 M 0 101 R D 10127 6704 M 0 101 R D
10214 6704 M 0 101 R D 10302 6704 M 0 101 R D 10389 6704 M 0 101 R D
10477 6704 M 0 101 R D 10564 6704 M 0 101 R D 10739 6704 M 0 101 R D
10827 6704 M 0 101 R D 10914 6704 M 0 101 R D 11002 6704 M 0 101 R D
11089 6704 M 0 101 R D 11177 6704 M 0 101 R D 11264 6704 M 0 101 R D
11352 6704 M 0 101 R D 11439 6704 M 0 101 R D 11614 6704 M 0 101 R D
11702 6704 M 0 101 R D 11789 6704 M 0 101 R D 11877 6704 M 0 101 R D
11964 6704 M 0 101 R D 12052 6704 M 0 101 R D 12139 6704 M 0 101 R D
12227 6704 M 0 101 R D 7258 11742 M 5038 0 R D 8027 11742 M 0 -201 R D
8902 11742 M 0 -201 R D 9777 11742 M 0 -201 R D 10652 11742 M 0 -201 R D
11527 11742 M 0 -201 R D 7328 11742 M 0 -101 R D 7415 11742 M 0 -101 R D
7503 11742 M 0 -101 R D 7590 11742 M 0 -101 R D 7678 11742 M 0 -101 R D
7765 11742 M 0 -101 R D 7853 11742 M 0 -101 R D 7940 11742 M 0 -101 R D
8115 11742 M 0 -101 R D 8202 11742 M 0 -101 R D 8290 11742 M 0 -101 R D
8377 11742 M 0 -101 R D 8465 11742 M 0 -101 R D 8552 11742 M 0 -101 R D
8640 11742 M 0 -101 R D 8727 11742 M 0 -101 R D 8815 11742 M 0 -101 R D
8990 11742 M 0 -101 R D 9077 11742 M 0 -101 R D 9165 11742 M 0 -101 R D
9252 11742 M 0 -101 R D 9340 11742 M 0 -101 R D 9427 11742 M 0 -101 R D
9515 11742 M 0 -101 R D 9602 11742 M 0 -101 R D 9690 11742 M 0 -101 R D
9865 11742 M 0 -101 R D 9952 11742 M 0 -101 R D 10040 11742 M 0 -101 R D
10127 11742 M 0 -101 R D 10214 11742 M 0 -101 R D 10302 11742 M 0 -101 R D
10389 11742 M 0 -101 R D 10477 11742 M 0 -101 R D 10564 11742 M 0 -101 R D
10739 11742 M 0 -101 R D 10827 11742 M 0 -101 R D 10914 11742 M 0 -101 R D
11002 11742 M 0 -101 R D 11089 11742 M 0 -101 R D 11177 11742 M 0 -101 R D
11264 11742 M 0 -101 R D 11352 11742 M 0 -101 R D 11439 11742 M 0 -101 R D
11614 11742 M 0 -101 R D 11702 11742 M 0 -101 R D 11789 11742 M 0 -101 R D
11877 11742 M 0 -101 R D 11964 11742 M 0 -101 R D 12052 11742 M 0 -101 R D
12139 11742 M 0 -101 R D 12227 11742 M 0 -101 R D 7258 6704 M 0 5038 R D
7258 7473 M 202 0 R D gsave 7147 7333 translate 0 0 M -117.687 0 N
( ) show grestore 7258 8348 M 202 0 R D gsave 7147 8207 translate 0 0 M
-117.687 0 N
( ) show grestore 7258 9223 M 202 0 R D gsave 7147 9082 translate 0 0 M
-117.687 0 N
( ) show grestore 7258 10098 M 202 0 R D gsave 7147 9957 translate 0 0 M
-117.687 0 N
( ) show grestore 7258 10973 M 202 0 R D gsave 7147 10832 translate 0 0 M
-117.687 0 N
( ) show grestore 7258 6774 M 101 0 R D 7258 6861 M 101 0 R D 7258 6949 M
101 0 R D 7258 7036 M 101 0 R D 7258 7124 M 101 0 R D 7258 7211 M 101 0 R D
7258 7299 M 101 0 R D 7258 7386 M 101 0 R D 7258 7561 M 101 0 R D
7258 7648 M 101 0 R D 7258 7736 M 101 0 R D 7258 7823 M 101 0 R D
7258 7911 M 101 0 R D 7258 7998 M 101 0 R D 7258 8086 M 101 0 R D
7258 8173 M 101 0 R D 7258 8261 M 101 0 R D 7258 8436 M 101 0 R D
7258 8523 M 101 0 R D 7258 8611 M 101 0 R D 7258 8698 M 101 0 R D
7258 8786 M 101 0 R D 7258 8873 M 101 0 R D 7258 8961 M 101 0 R D
7258 9048 M 101 0 R D 7258 9136 M 101 0 R D 7258 9311 M 101 0 R D
7258 9398 M 101 0 R D 7258 9486 M 101 0 R D 7258 9573 M 101 0 R D
7258 9660 M 101 0 R D 7258 9748 M 101 0 R D 7258 9835 M 101 0 R D
7258 9923 M 101 0 R D 7258 10010 M 101 0 R D 7258 10185 M 101 0 R D
7258 10273 M 101 0 R D 7258 10360 M 101 0 R D 7258 10448 M 101 0 R D
7258 10535 M 101 0 R D 7258 10623 M 101 0 R D 7258 10710 M 101 0 R D
7258 10798 M 101 0 R D 7258 10885 M 101 0 R D 7258 11060 M 101 0 R D
7258 11148 M 101 0 R D 7258 11235 M 101 0 R D 7258 11323 M 101 0 R D
7258 11410 M 101 0 R D 7258 11498 M 101 0 R D 7258 11585 M 101 0 R D
7258 11673 M 101 0 R D 12296 6704 M 0 5038 R D 12296 7473 M -201 0 R D
12296 8348 M -201 0 R D 12296 9223 M -201 0 R D 12296 10098 M -201 0 R D
12296 10973 M -201 0 R D 12296 6774 M -101 0 R D 12296 6861 M -101 0 R D
12296 6949 M -101 0 R D 12296 7036 M -101 0 R D 12296 7124 M -101 0 R D
12296 7211 M -101 0 R D 12296 7299 M -101 0 R D 12296 7386 M -101 0 R D
12296 7561 M -101 0 R D 12296 7648 M -101 0 R D 12296 7736 M -101 0 R D
12296 7823 M -101 0 R D 12296 7911 M -101 0 R D 12296 7998 M -101 0 R D
12296 8086 M -101 0 R D 12296 8173 M -101 0 R D 12296 8261 M -101 0 R D
12296 8436 M -101 0 R D 12296 8523 M -101 0 R D 12296 8611 M -101 0 R D
12296 8698 M -101 0 R D 12296 8786 M -101 0 R D 12296 8873 M -101 0 R D
12296 8961 M -101 0 R D 12296 9048 M -101 0 R D 12296 9136 M -101 0 R D
12296 9311 M -101 0 R D 12296 9398 M -101 0 R D 12296 9486 M -101 0 R D
12296 9573 M -101 0 R D 12296 9660 M -101 0 R D 12296 9748 M -101 0 R D
12296 9835 M -101 0 R D 12296 9923 M -101 0 R D 12296 10010 M -101 0 R D
12296 10185 M -101 0 R D 12296 10273 M -101 0 R D 12296 10360 M -101 0 R D
12296 10448 M -101 0 R D 12296 10535 M -101 0 R D 12296 10623 M -101 0 R D
12296 10710 M -101 0 R D 12296 10798 M -101 0 R D 12296 10885 M -101 0 R D
12296 11060 M -101 0 R D 12296 11148 M -101 0 R D 12296 11235 M -101 0 R D
12296 11323 M -101 0 R D 12296 11410 M -101 0 R D 12296 11498 M -101 0 R D
12296 11585 M -101 0 R D 12296 11673 M -101 0 R D 11532 9223 M -63 118 R
-155 232 R -199 223 R -246 202 R -292 169 R -332 121 R -359 58 R -366 -11 R
-350 -79 R -318 -135 R -275 -178 R -229 -204 R -185 -222 R -143 -229 R
-104 -231 R -69 -228 R -39 -222 R -12 -213 R 12 -203 R 34 -192 R 53 -180 R
71 -167 R 86 -153 R 101 -139 R 114 -124 R 126 -108 R 136 -92 R 145 -76 R
154 -59 R 161 -41 R 168 -23 R 172 -4 R 176 17 R 178 37 R 180 60 R 178 82 R
175 108 R 170 133 R 161 161 R 149 189 R 131 221 R 107 251 R 75 283 R
35 309 R -15 331 R -75 340 R -141 332 R -205 304 R -256 256 R -289 198 R
-304 138 R -303 83 R -293 35 R -276 -7 R -256 -41 R -233 -70 R -210 -92 R
-187 -110 R -165 -125 R -143 -137 R -121 -146 R -101 -153 R -80 -158 R
-59 -163 R -40 -164 R -21 -166 R -1 -164 R 17 -164 R 37 -160 R 55 -156 R
74 -151 R 92 -144 R 110 -136 R 129 -126 R 147 -115 R 166 -101 R 184 -85 R
201 -66 R 219 -44 R 236 -19 R 251 12 R 263 48 R 271 89 R 273 137 R 264 188 R
243 243 R 203 294 R 147 335 R 80 355 R 12 355 R -48 336 R -98 306 R
-134 270 R -161 232 R -179 195 R -190 159 R -197 126 R -199 97 R -198 69 R
-196 43 R -192 20 R -185 -2 R -178 -22 R -169 -40 R -160 -59 R -150 -75 R
-138 -91 R -126 -105 R -113 -119 R -99 -133 R -85 -144 R -68 -155 R
-51 -166 R -33 -176 R -13 -184 R 8 -191 R 31 -197 R 56 -201 R 83 -203 R
113 -203 R 145 -198 R 181 -189 R 219 -174 R 257 -151 R 296 -117 R 330 -72 R
352 -14 R 360 54 R 345 122 R 309 182 R 262 226 R 208 253 R 156 266 R
108 267 R 66 262 R 28 252 R -3 238 R -31 223 R -54 207 R -74 190 R -90 173 R
-106 155 R -119 137 R -129 119 R -138 101 R -147 83 R -152 65 R -158 46 R
-162 28 R -165 9 R -166 -10 R -166 -29 R -165 -50 R -163 -69 R -158 -91 R
-152 -111 R -145 -133 R -134 -156 R -121 -179 R -104 -202 R -84 -226 R
-57 -250 R -24 -272 R 14 -292 R 62 -306 R 115 -310 R 176 -301 R 236 -273 R
288 -226 R 322 -166 R 336 -100 R 331 -38 R 315 14 R 289 57 R 261 91 R
230 117 R 201 138 R 172 152 R 144 162 R 119 169 R 94 174 R 71 177 R 49 176 R
27 176 R 7 172 R -12 169 R -31 164 R -50 157 R -66 150 R -84 142 R
-100 132 R -117 121 R -132 109 R -146 95 R -162 81 R -175 64 R -189 45 R
-201 25 R -212 1 R -222 -25 R -230 -55 R D 0.208 0.208 0.208 setrgbcolor
9768 9223 M 1 2 R 0 1 R 0 1 R 1 1 R 0 1 R 1 0 R 0 1 R 1 0 R 1 1 R 1 0 R
1 0 R 0 1 R 1 0 R 1 0 R 1 0 R 1 0 R 1 -1 R 1 0 R 1 0 R 0 -1 R 1 0 R 0 -1 R
1 0 R 0 -1 R 1 0 R 0 -1 R 0 -1 R 1 -1 R 0 -2 R D 9768 9223 M 1 -2 R 0 -1 R
0 -1 R 1 0 R 0 -1 R 0 -1 R 1 0 R 0 -1 R 1 0 R 1 0 R 0 -1 R 1 0 R 1 0 R
1 -1 R 1 0 R 1 0 R 1 0 R 0 1 R 1 0 R 1 0 R 0 1 R 1 0 R 1 0 R 0 1 R 1 0 R
0 1 R 1 1 R 0 1 R 0 1 R 1 0 R 0 2 R D 0.000 0.000 0.000 setrgbcolor
9777 9223 M Z gsave 10281 7460 translate 0 0 M
(40.1Gyr) show grestore gsave 10281 7108 translate 0 0 M
(1.5e11M) show X -101.051 M
%%IncludeResource: font Helvetica
262.467 /Helvetica STDFONT
(sun) show grestore
%%IncludeResource: font Helvetica
423.333 /Helvetica STDFONT 12296 6704 M 5038 0 R D 13065 6704 M 0 202 R D
gsave 13065 6176 translate 0 0 M -58.8433 0 N
( ) show grestore 13940 6704 M 0 202 R D gsave 13940 6176 translate 0 0 M
-58.8433 0 N
( ) show grestore 14815 6704 M 0 202 R D gsave 14815 6176 translate 0 0 M
-58.8433 0 N
( ) show grestore 15690 6704 M 0 202 R D gsave 15690 6176 translate 0 0 M
-58.8433 0 N
( ) show grestore 16565 6704 M 0 202 R D gsave 16565 6176 translate 0 0 M
-58.8433 0 N
( ) show grestore 12366 6704 M 0 101 R D 12453 6704 M 0 101 R D 12541 6704 M
0 101 R D 12628 6704 M 0 101 R D 12716 6704 M 0 101 R D 12803 6704 M 0 101 R
D 12891 6704 M 0 101 R D 12978 6704 M 0 101 R D 13153 6704 M 0 101 R D
13240 6704 M 0 101 R D 13328 6704 M 0 101 R D 13415 6704 M 0 101 R D
13503 6704 M 0 101 R D 13590 6704 M 0 101 R D 13678 6704 M 0 101 R D
13765 6704 M 0 101 R D 13853 6704 M 0 101 R D 14028 6704 M 0 101 R D
14115 6704 M 0 101 R D 14203 6704 M 0 101 R D 14290 6704 M 0 101 R D
14378 6704 M 0 101 R D 14465 6704 M 0 101 R D 14553 6704 M 0 101 R D
14640 6704 M 0 101 R D 14728 6704 M 0 101 R D 14903 6704 M 0 101 R D
14990 6704 M 0 101 R D 15078 6704 M 0 101 R D 15165 6704 M 0 101 R D
15252 6704 M 0 101 R D 15340 6704 M 0 101 R D 15427 6704 M 0 101 R D
15515 6704 M 0 101 R D 15602 6704 M 0 101 R D 15777 6704 M 0 101 R D
15865 6704 M 0 101 R D 15952 6704 M 0 101 R D 16040 6704 M 0 101 R D
16127 6704 M 0 101 R D 16215 6704 M 0 101 R D 16302 6704 M 0 101 R D
16390 6704 M 0 101 R D 16477 6704 M 0 101 R D 16652 6704 M 0 101 R D
16740 6704 M 0 101 R D 16827 6704 M 0 101 R D 16915 6704 M 0 101 R D
17002 6704 M 0 101 R D 17090 6704 M 0 101 R D 17177 6704 M 0 101 R D
17265 6704 M 0 101 R D 12296 11742 M 5038 0 R D 13065 11742 M 0 -201 R D
13940 11742 M 0 -201 R D 14815 11742 M 0 -201 R D 15690 11742 M 0 -201 R D
16565 11742 M 0 -201 R D 12366 11742 M 0 -101 R D 12453 11742 M 0 -101 R D
12541 11742 M 0 -101 R D 12628 11742 M 0 -101 R D 12716 11742 M 0 -101 R D
12803 11742 M 0 -101 R D 12891 11742 M 0 -101 R D 12978 11742 M 0 -101 R D
13153 11742 M 0 -101 R D 13240 11742 M 0 -101 R D 13328 11742 M 0 -101 R D
13415 11742 M 0 -101 R D 13503 11742 M 0 -101 R D 13590 11742 M 0 -101 R D
13678 11742 M 0 -101 R D 13765 11742 M 0 -101 R D 13853 11742 M 0 -101 R D
14028 11742 M 0 -101 R D 14115 11742 M 0 -101 R D 14203 11742 M 0 -101 R D
14290 11742 M 0 -101 R D 14378 11742 M 0 -101 R D 14465 11742 M 0 -101 R D
14553 11742 M 0 -101 R D 14640 11742 M 0 -101 R D 14728 11742 M 0 -101 R D
14903 11742 M 0 -101 R D 14990 11742 M 0 -101 R D 15078 11742 M 0 -101 R D
15165 11742 M 0 -101 R D 15252 11742 M 0 -101 R D 15340 11742 M 0 -101 R D
15427 11742 M 0 -101 R D 15515 11742 M 0 -101 R D 15602 11742 M 0 -101 R D
15777 11742 M 0 -101 R D 15865 11742 M 0 -101 R D 15952 11742 M 0 -101 R D
16040 11742 M 0 -101 R D 16127 11742 M 0 -101 R D 16215 11742 M 0 -101 R D
16302 11742 M 0 -101 R D 16390 11742 M 0 -101 R D 16477 11742 M 0 -101 R D
16652 11742 M 0 -101 R D 16740 11742 M 0 -101 R D 16827 11742 M 0 -101 R D
16915 11742 M 0 -101 R D 17002 11742 M 0 -101 R D 17090 11742 M 0 -101 R D
17177 11742 M 0 -101 R D 17265 11742 M 0 -101 R D 12296 6704 M 0 5038 R D
12296 7473 M 202 0 R D gsave 12185 7333 translate 0 0 M -117.687 0 N
( ) show grestore 12296 8348 M 202 0 R D gsave 12185 8207 translate 0 0 M
-117.687 0 N
( ) show grestore 12296 9223 M 202 0 R D gsave 12185 9082 translate 0 0 M
-117.687 0 N
( ) show grestore 12296 10098 M 202 0 R D gsave 12185 9957 translate 0 0 M
-117.687 0 N
( ) show grestore 12296 10973 M 202 0 R D gsave 12185 10832 translate 0 0 M
-117.687 0 N
( ) show grestore 12296 6774 M 101 0 R D 12296 6861 M 101 0 R D 12296 6949 M
101 0 R D 12296 7036 M 101 0 R D 12296 7124 M 101 0 R D 12296 7211 M 101 0 R
D 12296 7299 M 101 0 R D 12296 7386 M 101 0 R D 12296 7561 M 101 0 R D
12296 7648 M 101 0 R D 12296 7736 M 101 0 R D 12296 7823 M 101 0 R D
12296 7911 M 101 0 R D 12296 7998 M 101 0 R D 12296 8086 M 101 0 R D
12296 8173 M 101 0 R D 12296 8261 M 101 0 R D 12296 8436 M 101 0 R D
12296 8523 M 101 0 R D 12296 8611 M 101 0 R D 12296 8698 M 101 0 R D
12296 8786 M 101 0 R D 12296 8873 M 101 0 R D 12296 8961 M 101 0 R D
12296 9048 M 101 0 R D 12296 9136 M 101 0 R D 12296 9311 M 101 0 R D
12296 9398 M 101 0 R D 12296 9486 M 101 0 R D 12296 9573 M 101 0 R D
12296 9660 M 101 0 R D 12296 9748 M 101 0 R D 12296 9835 M 101 0 R D
12296 9923 M 101 0 R D 12296 10010 M 101 0 R D 12296 10185 M 101 0 R D
12296 10273 M 101 0 R D 12296 10360 M 101 0 R D 12296 10448 M 101 0 R D
12296 10535 M 101 0 R D 12296 10623 M 101 0 R D 12296 10710 M 101 0 R D
12296 10798 M 101 0 R D 12296 10885 M 101 0 R D 12296 11060 M 101 0 R D
12296 11148 M 101 0 R D 12296 11235 M 101 0 R D 12296 11323 M 101 0 R D
12296 11410 M 101 0 R D 12296 11498 M 101 0 R D 12296 11585 M 101 0 R D
12296 11673 M 101 0 R D 17334 6704 M 0 5038 R D 17334 7473 M -201 0 R D
17334 8348 M -201 0 R D 17334 9223 M -201 0 R D 17334 10098 M -201 0 R D
17334 10973 M -201 0 R D 17334 6774 M -101 0 R D 17334 6861 M -101 0 R D
17334 6949 M -101 0 R D 17334 7036 M -101 0 R D 17334 7124 M -101 0 R D
17334 7211 M -101 0 R D 17334 7299 M -101 0 R D 17334 7386 M -101 0 R D
17334 7561 M -101 0 R D 17334 7648 M -101 0 R D 17334 7736 M -101 0 R D
17334 7823 M -101 0 R D 17334 7911 M -101 0 R D 17334 7998 M -101 0 R D
17334 8086 M -101 0 R D 17334 8173 M -101 0 R D 17334 8261 M -101 0 R D
17334 8436 M -101 0 R D 17334 8523 M -101 0 R D 17334 8611 M -101 0 R D
17334 8698 M -101 0 R D 17334 8786 M -101 0 R D 17334 8873 M -101 0 R D
17334 8961 M -101 0 R D 17334 9048 M -101 0 R D 17334 9136 M -101 0 R D
17334 9311 M -101 0 R D 17334 9398 M -101 0 R D 17334 9486 M -101 0 R D
17334 9573 M -101 0 R D 17334 9660 M -101 0 R D 17334 9748 M -101 0 R D
17334 9835 M -101 0 R D 17334 9923 M -101 0 R D 17334 10010 M -101 0 R D
17334 10185 M -101 0 R D 17334 10273 M -101 0 R D 17334 10360 M -101 0 R D
17334 10448 M -101 0 R D 17334 10535 M -101 0 R D 17334 10623 M -101 0 R D
17334 10710 M -101 0 R D 17334 10798 M -101 0 R D 17334 10885 M -101 0 R D
17334 11060 M -101 0 R D 17334 11148 M -101 0 R D 17334 11235 M -101 0 R D
17334 11323 M -101 0 R D 17334 11410 M -101 0 R D 17334 11498 M -101 0 R D
17334 11585 M -101 0 R D 17334 11673 M -101 0 R D 16570 9223 M -63 118 R
-155 232 R -199 223 R -246 202 R -292 169 R -332 121 R -359 58 R -366 -11 R
-350 -79 R -318 -135 R -275 -178 R -229 -204 R -185 -222 R -143 -229 R
-104 -231 R -69 -228 R -39 -222 R -12 -213 R 12 -203 R 34 -192 R 53 -180 R
71 -167 R 86 -153 R 101 -139 R 114 -124 R 126 -108 R 136 -92 R 145 -76 R
154 -59 R 161 -41 R 168 -23 R 172 -4 R 176 17 R 178 37 R 180 60 R 178 82 R
175 108 R 170 133 R 161 161 R 149 189 R 131 221 R 107 251 R 75 283 R
35 309 R -15 331 R -75 340 R -141 332 R -205 304 R -256 256 R -289 198 R
-304 138 R -303 83 R -293 35 R -276 -7 R -256 -41 R -233 -70 R -210 -92 R
-187 -110 R -165 -125 R -143 -137 R -121 -146 R -101 -153 R -80 -158 R
-59 -163 R -40 -164 R -21 -166 R -1 -164 R 17 -164 R 37 -160 R 55 -156 R
74 -151 R 92 -144 R 110 -136 R 129 -126 R 147 -115 R 166 -101 R 184 -85 R
201 -66 R 219 -44 R 236 -19 R 251 12 R 263 48 R 271 89 R 273 137 R 264 188 R
243 243 R 203 294 R 147 335 R 80 355 R 12 355 R -48 336 R -98 306 R
-134 270 R -161 232 R -179 195 R -190 159 R -197 126 R -199 97 R -198 69 R
-196 43 R -192 20 R -185 -2 R -178 -22 R -169 -40 R -160 -59 R -150 -75 R
-138 -91 R -126 -105 R -113 -119 R -99 -133 R -85 -144 R -68 -155 R
-51 -166 R -33 -176 R -13 -184 R 8 -191 R 31 -197 R 56 -201 R 83 -203 R
113 -203 R 145 -198 R 181 -189 R 219 -174 R 257 -151 R 296 -117 R 330 -72 R
352 -14 R 360 54 R 345 122 R 309 182 R 262 226 R 208 253 R 156 266 R
108 267 R 66 262 R 28 252 R -3 238 R -31 223 R -54 207 R -74 190 R -90 173 R
-106 155 R -119 137 R -129 119 R -138 101 R -147 83 R -152 65 R -158 46 R
-162 28 R -165 9 R -166 -10 R -166 -29 R -165 -50 R -163 -69 R -158 -91 R
-152 -111 R -145 -133 R -134 -156 R -121 -179 R -104 -202 R -84 -226 R
-57 -250 R -24 -272 R 14 -292 R 62 -306 R 115 -310 R 176 -301 R 236 -273 R
288 -226 R 322 -166 R 336 -100 R 331 -38 R 315 14 R 289 57 R 261 91 R
230 117 R 201 138 R 172 152 R 144 162 R 119 169 R 94 174 R 71 177 R 49 176 R
27 176 R 7 172 R -12 169 R -31 164 R -50 157 R -66 150 R -84 142 R
-100 132 R -117 121 R -132 109 R -146 95 R -162 81 R -175 64 R -189 45 R
-201 25 R -212 1 R -222 -25 R -230 -55 R D 0.208 0.208 0.208 setrgbcolor
14806 9223 M 1 2 R 0 1 R 0 1 R 1 1 R 0 1 R 1 0 R 0 1 R 1 0 R 1 1 R 1 0 R
1 0 R 0 1 R 1 0 R 1 0 R 1 0 R 1 0 R 1 -1 R 1 0 R 1 0 R 0 -1 R 1 0 R 0 -1 R
1 0 R 0 -1 R 1 0 R 0 -1 R 0 -1 R 1 -1 R 0 -2 R D 14806 9223 M 1 -2 R 0 -1 R
0 -1 R 1 0 R 0 -1 R 0 -1 R 1 0 R 0 -1 R 1 0 R 1 0 R 0 -1 R 1 0 R 1 0 R
1 -1 R 1 0 R 1 0 R 1 0 R 0 1 R 1 0 R 1 0 R 0 1 R 1 0 R 1 0 R 0 1 R 1 0 R
0 1 R 1 1 R 0 1 R 0 1 R 1 0 R 0 2 R D 0.000 0.000 0.000 setrgbcolor
14815 9223 M Z gsave 15319 7460 translate 0 0 M
(40.1Gyr) show grestore gsave 15319 7108 translate 0 0 M
(2.0e11M) show X -101.051 M
%%IncludeResource: font Helvetica
262.467 /Helvetica STDFONT
(sun) show grestore
%%IncludeResource: font Helvetica
423.333 /Helvetica STDFONT 2220 1408 M 5038 0 R D 2989 1408 M 0 202 R D
gsave 2989 880 translate 0 0 M -423.545 0 N
(-200) show grestore 3864 1408 M 0 202 R D gsave 3864 880 translate 0 0 M
-423.545 0 N
(-100) show grestore 4739 1408 M 0 202 R D gsave 4739 880 translate 0 0 M
-117.687 0 N
(0) show grestore 5614 1408 M 0 202 R D gsave 5614 880 translate 0 0 M
-353.06 0 N
(100) show grestore 6489 1408 M 0 202 R D gsave 6489 880 translate 0 0 M
-353.06 0 N
(200) show grestore 2290 1408 M 0 101 R D 2377 1408 M 0 101 R D 2465 1408 M
0 101 R D 2552 1408 M 0 101 R D 2640 1408 M 0 101 R D 2727 1408 M 0 101 R D
2815 1408 M 0 101 R D 2902 1408 M 0 101 R D 3077 1408 M 0 101 R D
3164 1408 M 0 101 R D 3252 1408 M 0 101 R D 3339 1408 M 0 101 R D
3427 1408 M 0 101 R D 3514 1408 M 0 101 R D 3602 1408 M 0 101 R D
3689 1408 M 0 101 R D 3777 1408 M 0 101 R D 3952 1408 M 0 101 R D
4039 1408 M 0 101 R D 4127 1408 M 0 101 R D 4214 1408 M 0 101 R D
4302 1408 M 0 101 R D 4389 1408 M 0 101 R D 4477 1408 M 0 101 R D
4564 1408 M 0 101 R D 4652 1408 M 0 101 R D 4827 1408 M 0 101 R D
4914 1408 M 0 101 R D 5002 1408 M 0 101 R D 5089 1408 M 0 101 R D
5176 1408 M 0 101 R D 5264 1408 M 0 101 R D 5351 1408 M 0 101 R D
5439 1408 M 0 101 R D 5526 1408 M 0 101 R D 5701 1408 M 0 101 R D
5789 1408 M 0 101 R D 5876 1408 M 0 101 R D 5964 1408 M 0 101 R D
6051 1408 M 0 101 R D 6139 1408 M 0 101 R D 6226 1408 M 0 101 R D
6314 1408 M 0 101 R D 6401 1408 M 0 101 R D 6576 1408 M 0 101 R D
6664 1408 M 0 101 R D 6751 1408 M 0 101 R D 6839 1408 M 0 101 R D
6926 1408 M 0 101 R D 7014 1408 M 0 101 R D 7101 1408 M 0 101 R D
7189 1408 M 0 101 R D 2220 6446 M 5038 0 R D 2989 6446 M 0 -201 R D
3864 6446 M 0 -201 R D 4739 6446 M 0 -201 R D 5614 6446 M 0 -201 R D
6489 6446 M 0 -201 R D 2290 6446 M 0 -101 R D 2377 6446 M 0 -101 R D
2465 6446 M 0 -101 R D 2552 6446 M 0 -101 R D 2640 6446 M 0 -101 R D
2727 6446 M 0 -101 R D 2815 6446 M 0 -101 R D 2902 6446 M 0 -101 R D
3077 6446 M 0 -101 R D 3164 6446 M 0 -101 R D 3252 6446 M 0 -101 R D
3339 6446 M 0 -101 R D 3427 6446 M 0 -101 R D 3514 6446 M 0 -101 R D
3602 6446 M 0 -101 R D 3689 6446 M 0 -101 R D 3777 6446 M 0 -101 R D
3952 6446 M 0 -101 R D 4039 6446 M 0 -101 R D 4127 6446 M 0 -101 R D
4214 6446 M 0 -101 R D 4302 6446 M 0 -101 R D 4389 6446 M 0 -101 R D
4477 6446 M 0 -101 R D 4564 6446 M 0 -101 R D 4652 6446 M 0 -101 R D
4827 6446 M 0 -101 R D 4914 6446 M 0 -101 R D 5002 6446 M 0 -101 R D
5089 6446 M 0 -101 R D 5176 6446 M 0 -101 R D 5264 6446 M 0 -101 R D
5351 6446 M 0 -101 R D 5439 6446 M 0 -101 R D 5526 6446 M 0 -101 R D
5701 6446 M 0 -101 R D 5789 6446 M 0 -101 R D 5876 6446 M 0 -101 R D
5964 6446 M 0 -101 R D 6051 6446 M 0 -101 R D 6139 6446 M 0 -101 R D
6226 6446 M 0 -101 R D 6314 6446 M 0 -101 R D 6401 6446 M 0 -101 R D
6576 6446 M 0 -101 R D 6664 6446 M 0 -101 R D 6751 6446 M 0 -101 R D
6839 6446 M 0 -101 R D 6926 6446 M 0 -101 R D 7014 6446 M 0 -101 R D
7101 6446 M 0 -101 R D 7189 6446 M 0 -101 R D 2220 1408 M 0 5038 R D
2220 2177 M 202 0 R D gsave 2109 2037 translate 0 0 M -847.09 0 N
(-200) show grestore 2220 3052 M 202 0 R D gsave 2109 2911 translate 0 0 M
-847.09 0 N
(-100) show grestore 2220 3927 M 202 0 R D gsave 2109 3786 translate 0 0 M
-235.373 0 N
(0) show grestore 2220 4802 M 202 0 R D gsave 2109 4661 translate 0 0 M
-706.12 0 N
(100) show grestore 2220 5677 M 202 0 R D gsave 2109 5536 translate 0 0 M
-706.12 0 N
(200) show grestore 2220 1478 M 101 0 R D 2220 1565 M 101 0 R D 2220 1653 M
101 0 R D 2220 1740 M 101 0 R D 2220 1828 M 101 0 R D 2220 1915 M 101 0 R D
2220 2003 M 101 0 R D 2220 2090 M 101 0 R D 2220 2265 M 101 0 R D
2220 2352 M 101 0 R D 2220 2440 M 101 0 R D 2220 2527 M 101 0 R D
2220 2615 M 101 0 R D 2220 2702 M 101 0 R D 2220 2790 M 101 0 R D
2220 2877 M 101 0 R D 2220 2965 M 101 0 R D 2220 3140 M 101 0 R D
2220 3227 M 101 0 R D 2220 3315 M 101 0 R D 2220 3402 M 101 0 R D
2220 3490 M 101 0 R D 2220 3577 M 101 0 R D 2220 3665 M 101 0 R D
2220 3752 M 101 0 R D 2220 3840 M 101 0 R D 2220 4015 M 101 0 R D
2220 4102 M 101 0 R D 2220 4190 M 101 0 R D 2220 4277 M 101 0 R D
2220 4364 M 101 0 R D 2220 4452 M 101 0 R D 2220 4539 M 101 0 R D
2220 4627 M 101 0 R D 2220 4714 M 101 0 R D 2220 4889 M 101 0 R D
2220 4977 M 101 0 R D 2220 5064 M 101 0 R D 2220 5152 M 101 0 R D
2220 5239 M 101 0 R D 2220 5327 M 101 0 R D 2220 5414 M 101 0 R D
2220 5502 M 101 0 R D 2220 5589 M 101 0 R D 2220 5764 M 101 0 R D
2220 5852 M 101 0 R D 2220 5939 M 101 0 R D 2220 6027 M 101 0 R D
2220 6114 M 101 0 R D 2220 6202 M 101 0 R D 2220 6289 M 101 0 R D
2220 6377 M 101 0 R D 7258 1408 M 0 5038 R D 7258 2177 M -201 0 R D
7258 3052 M -201 0 R D 7258 3927 M -201 0 R D 7258 4802 M -201 0 R D
7258 5677 M -201 0 R D 7258 1478 M -101 0 R D 7258 1565 M -101 0 R D
7258 1653 M -101 0 R D 7258 1740 M -101 0 R D 7258 1828 M -101 0 R D
7258 1915 M -101 0 R D 7258 2003 M -101 0 R D 7258 2090 M -101 0 R D
7258 2265 M -101 0 R D 7258 2352 M -101 0 R D 7258 2440 M -101 0 R D
7258 2527 M -101 0 R D 7258 2615 M -101 0 R D 7258 2702 M -101 0 R D
7258 2790 M -101 0 R D 7258 2877 M -101 0 R D 7258 2965 M -101 0 R D
7258 3140 M -101 0 R D 7258 3227 M -101 0 R D 7258 3315 M -101 0 R D
7258 3402 M -101 0 R D 7258 3490 M -101 0 R D 7258 3577 M -101 0 R D
7258 3665 M -101 0 R D 7258 3752 M -101 0 R D 7258 3840 M -101 0 R D
7258 4015 M -101 0 R D 7258 4102 M -101 0 R D 7258 4190 M -101 0 R D
7258 4277 M -101 0 R D 7258 4364 M -101 0 R D 7258 4452 M -101 0 R D
7258 4539 M -101 0 R D 7258 4627 M -101 0 R D 7258 4714 M -101 0 R D
7258 4889 M -101 0 R D 7258 4977 M -101 0 R D 7258 5064 M -101 0 R D
7258 5152 M -101 0 R D 7258 5239 M -101 0 R D 7258 5327 M -101 0 R D
7258 5414 M -101 0 R D 7258 5502 M -101 0 R D 7258 5589 M -101 0 R D
7258 5764 M -101 0 R D 7258 5852 M -101 0 R D 7258 5939 M -101 0 R D
7258 6027 M -101 0 R D 7258 6114 M -101 0 R D 7258 6202 M -101 0 R D
7258 6289 M -101 0 R D 7258 6377 M -101 0 R D 6494 3927 M -63 118 R
-155 232 R -199 223 R -246 202 R -292 169 R -332 121 R -359 58 R -366 -11 R
-350 -79 R -318 -135 R -275 -178 R -229 -204 R -185 -222 R -143 -229 R
-104 -231 R -69 -228 R -39 -222 R -12 -213 R 12 -203 R 34 -192 R 53 -180 R
71 -167 R 86 -153 R 101 -139 R 114 -124 R 126 -108 R 136 -92 R 145 -76 R
154 -59 R 161 -41 R 168 -23 R 172 -4 R 176 17 R 178 37 R 180 60 R 178 82 R
175 108 R 170 133 R 161 161 R 149 189 R 131 221 R 107 251 R 75 283 R
35 309 R -15 331 R -75 340 R -141 332 R -205 304 R -256 256 R -289 198 R
-304 138 R -303 83 R -293 35 R -276 -7 R -256 -41 R -233 -70 R -210 -92 R
-187 -110 R -165 -125 R -143 -137 R -121 -146 R -101 -153 R -80 -158 R
-59 -163 R -40 -164 R -21 -166 R -1 -164 R 17 -164 R 37 -160 R 55 -156 R
74 -151 R 92 -144 R 110 -136 R 129 -126 R 147 -115 R 166 -101 R 184 -85 R
201 -66 R 219 -44 R 236 -19 R 251 12 R 263 48 R 271 89 R 273 137 R 264 188 R
243 243 R 203 294 R 147 335 R 80 355 R 12 355 R -48 336 R -98 306 R
-134 270 R -161 232 R -179 195 R -190 159 R -197 126 R -199 97 R -198 69 R
-196 43 R -192 20 R -185 -2 R -178 -22 R -169 -40 R -160 -59 R -150 -75 R
-138 -91 R -126 -105 R -113 -119 R -99 -133 R -85 -144 R -68 -155 R
-51 -166 R -33 -176 R -13 -184 R 8 -191 R 31 -197 R 56 -201 R 83 -203 R
113 -203 R 145 -198 R 181 -189 R 219 -174 R 257 -151 R 296 -117 R 330 -72 R
352 -14 R 360 54 R 345 122 R 309 182 R 262 226 R 208 253 R 156 266 R
108 267 R 66 262 R 28 252 R -3 238 R -31 223 R -54 207 R -74 190 R -90 173 R
-106 155 R -119 137 R -129 119 R -138 101 R -147 83 R -152 65 R -158 46 R
-162 28 R -165 9 R -166 -10 R -166 -29 R -165 -50 R -163 -69 R -158 -91 R
-152 -111 R -145 -133 R -134 -156 R -121 -179 R -104 -202 R -84 -226 R
-57 -250 R -24 -272 R 14 -292 R 62 -306 R 115 -310 R 176 -301 R 236 -273 R
288 -226 R 322 -166 R 336 -100 R 331 -38 R 315 14 R 289 57 R 261 91 R
230 117 R 201 138 R 172 152 R 144 162 R 119 169 R 94 174 R 71 177 R 49 176 R
27 176 R 7 172 R -12 169 R -31 164 R -50 157 R -66 150 R -84 142 R
-100 132 R -117 121 R -132 109 R -146 95 R -162 81 R -175 64 R -189 45 R
-201 25 R -212 1 R -222 -25 R -230 -55 R D 0.208 0.208 0.208 setrgbcolor
4730 3927 M 1 2 R 0 1 R 0 1 R 1 1 R 0 1 R 1 0 R 0 1 R 1 0 R 1 1 R 1 0 R
1 0 R 0 1 R 1 0 R 1 0 R 1 0 R 1 0 R 1 -1 R 1 0 R 1 0 R 0 -1 R 1 0 R 0 -1 R
1 0 R 0 -1 R 1 0 R 0 -1 R 0 -1 R 1 -1 R 0 -2 R D 4730 3927 M 1 -2 R 0 -1 R
0 -1 R 1 0 R 0 -1 R 0 -1 R 1 0 R 0 -1 R 1 0 R 1 0 R 0 -1 R 1 0 R 1 0 R
1 -1 R 1 0 R 1 0 R 1 0 R 0 1 R 1 0 R 1 0 R 0 1 R 1 0 R 1 0 R 0 1 R 1 0 R
0 1 R 1 1 R 0 1 R 0 1 R 1 0 R 0 2 R D 0.000 0.000 0.000 setrgbcolor
4739 3927 M Z gsave 5243 2164 translate 0 0 M
(40.1Gyr) show grestore gsave 5243 1812 translate 0 0 M
(2.5e11M) show X -101.051 M
%%IncludeResource: font Helvetica
262.467 /Helvetica STDFONT
(sun) show grestore
%%IncludeResource: font Helvetica
423.333 /Helvetica STDFONT 7258 1408 M 5038 0 R D 8027 1408 M 0 202 R D
gsave 8027 880 translate 0 0 M -423.545 0 N
(-200) show grestore 8902 1408 M 0 202 R D gsave 8902 880 translate 0 0 M
-423.545 0 N
(-100) show grestore 9777 1408 M 0 202 R D gsave 9777 880 translate 0 0 M
-117.687 0 N
(0) show grestore 10652 1408 M 0 202 R D gsave 10652 880 translate 0 0 M
-353.06 0 N
(100) show grestore 11527 1408 M 0 202 R D gsave 11527 880 translate 0 0 M
-353.06 0 N
(200) show grestore 7328 1408 M 0 101 R D 7415 1408 M 0 101 R D 7503 1408 M
0 101 R D 7590 1408 M 0 101 R D 7678 1408 M 0 101 R D 7765 1408 M 0 101 R D
7853 1408 M 0 101 R D 7940 1408 M 0 101 R D 8115 1408 M 0 101 R D
8202 1408 M 0 101 R D 8290 1408 M 0 101 R D 8377 1408 M 0 101 R D
8465 1408 M 0 101 R D 8552 1408 M 0 101 R D 8640 1408 M 0 101 R D
8727 1408 M 0 101 R D 8815 1408 M 0 101 R D 8990 1408 M 0 101 R D
9077 1408 M 0 101 R D 9165 1408 M 0 101 R D 9252 1408 M 0 101 R D
9340 1408 M 0 101 R D 9427 1408 M 0 101 R D 9515 1408 M 0 101 R D
9602 1408 M 0 101 R D 9690 1408 M 0 101 R D 9865 1408 M 0 101 R D
9952 1408 M 0 101 R D 10040 1408 M 0 101 R D 10127 1408 M 0 101 R D
10214 1408 M 0 101 R D 10302 1408 M 0 101 R D 10389 1408 M 0 101 R D
10477 1408 M 0 101 R D 10564 1408 M 0 101 R D 10739 1408 M 0 101 R D
10827 1408 M 0 101 R D 10914 1408 M 0 101 R D 11002 1408 M 0 101 R D
11089 1408 M 0 101 R D 11177 1408 M 0 101 R D 11264 1408 M 0 101 R D
11352 1408 M 0 101 R D 11439 1408 M 0 101 R D 11614 1408 M 0 101 R D
11702 1408 M 0 101 R D 11789 1408 M 0 101 R D 11877 1408 M 0 101 R D
11964 1408 M 0 101 R D 12052 1408 M 0 101 R D 12139 1408 M 0 101 R D
12227 1408 M 0 101 R D 7258 6446 M 5038 0 R D 8027 6446 M 0 -201 R D
8902 6446 M 0 -201 R D 9777 6446 M 0 -201 R D 10652 6446 M 0 -201 R D
11527 6446 M 0 -201 R D 7328 6446 M 0 -101 R D 7415 6446 M 0 -101 R D
7503 6446 M 0 -101 R D 7590 6446 M 0 -101 R D 7678 6446 M 0 -101 R D
7765 6446 M 0 -101 R D 7853 6446 M 0 -101 R D 7940 6446 M 0 -101 R D
8115 6446 M 0 -101 R D 8202 6446 M 0 -101 R D 8290 6446 M 0 -101 R D
8377 6446 M 0 -101 R D 8465 6446 M 0 -101 R D 8552 6446 M 0 -101 R D
8640 6446 M 0 -101 R D 8727 6446 M 0 -101 R D 8815 6446 M 0 -101 R D
8990 6446 M 0 -101 R D 9077 6446 M 0 -101 R D 9165 6446 M 0 -101 R D
9252 6446 M 0 -101 R D 9340 6446 M 0 -101 R D 9427 6446 M 0 -101 R D
9515 6446 M 0 -101 R D 9602 6446 M 0 -101 R D 9690 6446 M 0 -101 R D
9865 6446 M 0 -101 R D 9952 6446 M 0 -101 R D 10040 6446 M 0 -101 R D
10127 6446 M 0 -101 R D 10214 6446 M 0 -101 R D 10302 6446 M 0 -101 R D
10389 6446 M 0 -101 R D 10477 6446 M 0 -101 R D 10564 6446 M 0 -101 R D
10739 6446 M 0 -101 R D 10827 6446 M 0 -101 R D 10914 6446 M 0 -101 R D
11002 6446 M 0 -101 R D 11089 6446 M 0 -101 R D 11177 6446 M 0 -101 R D
11264 6446 M 0 -101 R D 11352 6446 M 0 -101 R D 11439 6446 M 0 -101 R D
11614 6446 M 0 -101 R D 11702 6446 M 0 -101 R D 11789 6446 M 0 -101 R D
11877 6446 M 0 -101 R D 11964 6446 M 0 -101 R D 12052 6446 M 0 -101 R D
12139 6446 M 0 -101 R D 12227 6446 M 0 -101 R D 7258 1408 M 0 5038 R D
7258 2177 M 202 0 R D gsave 7147 2037 translate 0 0 M -117.687 0 N
( ) show grestore 7258 3052 M 202 0 R D gsave 7147 2911 translate 0 0 M
-117.687 0 N
( ) show grestore 7258 3927 M 202 0 R D gsave 7147 3786 translate 0 0 M
-117.687 0 N
( ) show grestore 7258 4802 M 202 0 R D gsave 7147 4661 translate 0 0 M
-117.687 0 N
( ) show grestore 7258 5677 M 202 0 R D gsave 7147 5536 translate 0 0 M
-117.687 0 N
( ) show grestore 7258 1478 M 101 0 R D 7258 1565 M 101 0 R D 7258 1653 M
101 0 R D 7258 1740 M 101 0 R D 7258 1828 M 101 0 R D 7258 1915 M 101 0 R D
7258 2003 M 101 0 R D 7258 2090 M 101 0 R D 7258 2265 M 101 0 R D
7258 2352 M 101 0 R D 7258 2440 M 101 0 R D 7258 2527 M 101 0 R D
7258 2615 M 101 0 R D 7258 2702 M 101 0 R D 7258 2790 M 101 0 R D
7258 2877 M 101 0 R D 7258 2965 M 101 0 R D 7258 3140 M 101 0 R D
7258 3227 M 101 0 R D 7258 3315 M 101 0 R D 7258 3402 M 101 0 R D
7258 3490 M 101 0 R D 7258 3577 M 101 0 R D 7258 3665 M 101 0 R D
7258 3752 M 101 0 R D 7258 3840 M 101 0 R D 7258 4015 M 101 0 R D
7258 4102 M 101 0 R D 7258 4190 M 101 0 R D 7258 4277 M 101 0 R D
7258 4364 M 101 0 R D 7258 4452 M 101 0 R D 7258 4539 M 101 0 R D
7258 4627 M 101 0 R D 7258 4714 M 101 0 R D 7258 4889 M 101 0 R D
7258 4977 M 101 0 R D 7258 5064 M 101 0 R D 7258 5152 M 101 0 R D
7258 5239 M 101 0 R D 7258 5327 M 101 0 R D 7258 5414 M 101 0 R D
7258 5502 M 101 0 R D 7258 5589 M 101 0 R D 7258 5764 M 101 0 R D
7258 5852 M 101 0 R D 7258 5939 M 101 0 R D 7258 6027 M 101 0 R D
7258 6114 M 101 0 R D 7258 6202 M 101 0 R D 7258 6289 M 101 0 R D
7258 6377 M 101 0 R D 12296 1408 M 0 5038 R D 12296 2177 M -201 0 R D
12296 3052 M -201 0 R D 12296 3927 M -201 0 R D 12296 4802 M -201 0 R D
12296 5677 M -201 0 R D 12296 1478 M -101 0 R D 12296 1565 M -101 0 R D
12296 1653 M -101 0 R D 12296 1740 M -101 0 R D 12296 1828 M -101 0 R D
12296 1915 M -101 0 R D 12296 2003 M -101 0 R D 12296 2090 M -101 0 R D
12296 2265 M -101 0 R D 12296 2352 M -101 0 R D 12296 2440 M -101 0 R D
12296 2527 M -101 0 R D 12296 2615 M -101 0 R D 12296 2702 M -101 0 R D
12296 2790 M -101 0 R D 12296 2877 M -101 0 R D 12296 2965 M -101 0 R D
12296 3140 M -101 0 R D 12296 3227 M -101 0 R D 12296 3315 M -101 0 R D
12296 3402 M -101 0 R D 12296 3490 M -101 0 R D 12296 3577 M -101 0 R D
12296 3665 M -101 0 R D 12296 3752 M -101 0 R D 12296 3840 M -101 0 R D
12296 4015 M -101 0 R D 12296 4102 M -101 0 R D 12296 4190 M -101 0 R D
12296 4277 M -101 0 R D 12296 4364 M -101 0 R D 12296 4452 M -101 0 R D
12296 4539 M -101 0 R D 12296 4627 M -101 0 R D 12296 4714 M -101 0 R D
12296 4889 M -101 0 R D 12296 4977 M -101 0 R D 12296 5064 M -101 0 R D
12296 5152 M -101 0 R D 12296 5239 M -101 0 R D 12296 5327 M -101 0 R D
12296 5414 M -101 0 R D 12296 5502 M -101 0 R D 12296 5589 M -101 0 R D
12296 5764 M -101 0 R D 12296 5852 M -101 0 R D 12296 5939 M -101 0 R D
12296 6027 M -101 0 R D 12296 6114 M -101 0 R D 12296 6202 M -101 0 R D
12296 6289 M -101 0 R D 12296 6377 M -101 0 R D 11532 3927 M -63 118 R
-155 232 R -199 223 R -246 202 R -292 169 R -332 121 R -359 58 R -366 -11 R
-350 -79 R -318 -135 R -275 -178 R -229 -204 R -185 -222 R -143 -229 R
-104 -231 R -69 -228 R -39 -222 R -12 -213 R 12 -203 R 34 -192 R 53 -180 R
71 -167 R 86 -153 R 101 -139 R 114 -124 R 126 -108 R 136 -92 R 145 -76 R
154 -59 R 161 -41 R 168 -23 R 172 -4 R 176 17 R 178 37 R 180 60 R 178 82 R
175 108 R 170 133 R 161 161 R 149 189 R 131 221 R 107 251 R 75 283 R
35 309 R -15 331 R -75 340 R -141 332 R -205 304 R -256 256 R -289 198 R
-304 138 R -303 83 R -293 35 R -276 -7 R -256 -41 R -233 -70 R -210 -92 R
-187 -110 R -165 -125 R -143 -137 R -121 -146 R -101 -153 R -80 -158 R
-59 -163 R -40 -164 R -21 -166 R -1 -164 R 17 -164 R 37 -160 R 55 -156 R
74 -151 R 92 -144 R 110 -136 R 129 -126 R 147 -115 R 166 -101 R 184 -85 R
201 -66 R 219 -44 R 236 -19 R 251 12 R 263 48 R 271 89 R 273 137 R 264 188 R
243 243 R 203 294 R 147 335 R 80 355 R 12 355 R -48 336 R -98 306 R
-134 270 R -161 232 R -179 195 R -190 159 R -197 126 R -199 97 R -198 69 R
-196 43 R -192 20 R -185 -2 R -178 -22 R -169 -40 R -160 -59 R -150 -75 R
-138 -91 R -126 -105 R -113 -119 R -99 -133 R -85 -144 R -68 -155 R
-51 -166 R -33 -176 R -13 -184 R 8 -191 R 31 -197 R 56 -201 R 83 -203 R
113 -203 R 145 -198 R 181 -189 R 219 -174 R 257 -151 R 296 -117 R 330 -72 R
352 -14 R 360 54 R 345 122 R 309 182 R 262 226 R 208 253 R 156 266 R
108 267 R 66 262 R 28 252 R -3 238 R -31 223 R -54 207 R -74 190 R -90 173 R
-106 155 R -119 137 R -129 119 R -138 101 R -147 83 R -152 65 R -158 46 R
-162 28 R -165 9 R -166 -10 R -166 -29 R -165 -50 R -163 -69 R -158 -91 R
-152 -111 R -145 -133 R -134 -156 R -121 -179 R -104 -202 R -84 -226 R
-57 -250 R -24 -272 R 14 -292 R 62 -306 R 115 -310 R 176 -301 R 236 -273 R
288 -226 R 322 -166 R 336 -100 R 331 -38 R 315 14 R 289 57 R 261 91 R
230 117 R 201 138 R 172 152 R 144 162 R 119 169 R 94 174 R 71 177 R 49 176 R
27 176 R 7 172 R -12 169 R -31 164 R -50 157 R -66 150 R -84 142 R
-100 132 R -117 121 R -132 109 R -146 95 R -162 81 R -175 64 R -189 45 R
-201 25 R -212 1 R -222 -25 R -230 -55 R D 0.208 0.208 0.208 setrgbcolor
9768 3927 M 1 2 R 0 1 R 0 1 R 1 1 R 0 1 R 1 0 R 0 1 R 1 0 R 1 1 R 1 0 R
1 0 R 0 1 R 1 0 R 1 0 R 1 0 R 1 0 R 1 -1 R 1 0 R 1 0 R 0 -1 R 1 0 R 0 -1 R
1 0 R 0 -1 R 1 0 R 0 -1 R 0 -1 R 1 -1 R 0 -2 R D 9768 3927 M 1 -2 R 0 -1 R
0 -1 R 1 0 R 0 -1 R 0 -1 R 1 0 R 0 -1 R 1 0 R 1 0 R 0 -1 R 1 0 R 1 0 R
1 -1 R 1 0 R 1 0 R 1 0 R 0 1 R 1 0 R 1 0 R 0 1 R 1 0 R 1 0 R 0 1 R 1 0 R
0 1 R 1 1 R 0 1 R 0 1 R 1 0 R 0 2 R D 0.000 0.000 0.000 setrgbcolor
9777 3927 M Z gsave 10281 2164 translate 0 0 M
(40.1Gyr) show grestore gsave 10281 1812 translate 0 0 M
(3.0e11M) show X -101.051 M
%%IncludeResource: font Helvetica
262.467 /Helvetica STDFONT
(sun) show grestore
%%IncludeResource: font Helvetica
423.333 /Helvetica STDFONT
%%PageTrailer
end
%%PageResources: font Helvetica
%%Trailer
%%Pages: 1
%%DocumentNeededResources: font Helvetica
%%EOF
