%!PS-Adobe-3.0 EPSF-3.0
%%BoundingBox: 0 0 510 510
%%Title: Graphics produced by IDL
%%For: dacia@Lserver, /home/dacia/work/subhalo_model
%%Creator: IDL Version 7.0 (linux x86_64 m64)
%%CreationDate: Tue Dec 15 10:31:40 2009
%%DocumentData: Clean7bit
%%Requirements: color
%%LanguageLevel: 1
%%PageOrder: Ascend
%%Pages: (atend)
%%DocumentNeededResources: (atend)
%%EndComments
%%BeginProlog
%+ prolog.ps -- Prolog for IDL generated PostScript files
%+ Copyright (c) 1988-2007 ITT Visual Information Solutions. All Rights Reserved.
%v 5
/$IDL_DICT 40 dict def $IDL_DICT begin /bdef { bind def } bind def /C
{currentpoint newpath moveto} bdef /CP {currentpoint} bdef /D {currentpoint
stroke moveto} bdef /F {closepath fill} bdef /K { setgray } bdef /M {moveto}
bdef /N {rmoveto} bdef /P {lineto} bdef /R {rlineto} bdef /S {gsave show
grestore} bdef /X {currentpoint pop} bdef /Z {gsave currentpoint lineto 20
setlinewidth 1 setlinecap stroke grestore} bdef /L0 {[] 0 setdash} bdef /L1
{[40 100] 0 setdash} bdef /L2 {[200 200] 0 setdash} bdef /L3 {[200 100 50
100] 0 setdash} bdef /L4 {[300 100 50 100 50 100 50 100] 0 setdash} bdef /L5
{[400 200] 0 setdash} bdef /STDFONT { findfont exch scalefont setfont } bdef
/ISOFONT { findfont dup length dict begin { 1 index /FID ne {def} {pop pop}
ifelse } forall /Encoding ISOLatin1Encoding def currentdict end /idltmpfont
exch definefont exch scalefont setfont } bdef /ISOBULLET { gsave /Helvetica
findfont exch scalefont setfont (\267) show currentpoint grestore moveto}
bdef /MITERLIMIT { 2.5 setmiterlimit } bdef end
%%EndProlog
%%Page: 0 1
%%PageRequirements: color
%%PageResources: (atend)
%%PageOrientation: Portrait
%%PageBoundingBox: 0 0 510 510
%%BeginPageSetup
$IDL_DICT begin 0.0283465 dup scale MITERLIMIT
%%IncludeResource: font Helvetica
423.333 /Helvetica STDFONT
%%EndPageSetup
0.000 0.000 0.000 setrgbcolor gsave 9777 352 translate 0 0 M -458.682 0 N
(r/kpc) show grestore gsave 888 9352 translate 0 0 M 90 rotate -458.682 0 N
(r/kpc) show grestore 40 setlinewidth L0 2220 12000 M 5038 0 R D
3393 12000 M 0 202 R D gsave 3393 11472 translate 0 0 M -58.8433 0 N
( ) show grestore 4739 12000 M 0 202 R D gsave 4739 11472 translate 0 0 M
-58.8433 0 N
( ) show grestore 6085 12000 M 0 202 R D gsave 6085 11472 translate 0 0 M
-58.8433 0 N
( ) show grestore 2384 12000 M 0 101 R D 2721 12000 M 0 101 R D 3057 12000 M
0 101 R D 3730 12000 M 0 101 R D 4066 12000 M 0 101 R D 4403 12000 M 0 101 R
D 5076 12000 M 0 101 R D 5412 12000 M 0 101 R D 5748 12000 M 0 101 R D
6421 12000 M 0 101 R D 6758 12000 M 0 101 R D 7094 12000 M 0 101 R D
2220 17038 M 5038 0 R D 3393 17038 M 0 -201 R D 4739 17038 M 0 -201 R D
6085 17038 M 0 -201 R D 2384 17038 M 0 -101 R D 2721 17038 M 0 -101 R D
3057 17038 M 0 -101 R D 3730 17038 M 0 -101 R D 4066 17038 M 0 -101 R D
4403 17038 M 0 -101 R D 5076 17038 M 0 -101 R D 5412 17038 M 0 -101 R D
5748 17038 M 0 -101 R D 6421 17038 M 0 -101 R D 6758 17038 M 0 -101 R D
7094 17038 M 0 -101 R D 2220 12000 M 0 5038 R D 2220 13173 M 202 0 R D
gsave 2109 13033 translate 0 0 M -847.09 0 N
(-200) show grestore 2220 14519 M 202 0 R D gsave 2109 14378 translate 0 0 M
-235.373 0 N
(0) show grestore 2220 15865 M 202 0 R D gsave 2109 15724 translate 0 0 M
-706.12 0 N
(200) show grestore 2220 12164 M 101 0 R D 2220 12501 M 101 0 R D
2220 12837 M 101 0 R D 2220 13510 M 101 0 R D 2220 13846 M 101 0 R D
2220 14183 M 101 0 R D 2220 14856 M 101 0 R D 2220 15192 M 101 0 R D
2220 15528 M 101 0 R D 2220 16201 M 101 0 R D 2220 16538 M 101 0 R D
2220 16874 M 101 0 R D 7258 12000 M 0 5038 R D 7258 13173 M -201 0 R D
7258 14519 M -201 0 R D 7258 15865 M -201 0 R D 7258 12164 M -101 0 R D
7258 12501 M -101 0 R D 7258 12837 M -101 0 R D 7258 13510 M -101 0 R D
7258 13846 M -101 0 R D 7258 14183 M -101 0 R D 7258 14856 M -101 0 R D
7258 15192 M -101 0 R D 7258 15528 M -101 0 R D 7258 16201 M -101 0 R D
7258 16538 M -101 0 R D 7258 16874 M -101 0 R D 6089 14519 M -92 50 R
-208 100 R -250 92 R -306 75 R -186 22 R -198 -2 R -187 -31 R -154 -53 R
-135 -67 R -140 -91 R -153 -123 R -174 -171 R -169 -203 R -130 -187 R
-100 -172 R -79 -158 R -60 -146 R -47 -135 R -34 -125 R -23 -115 R
-15 -106 R -6 -98 R 2 -89 R 8 -81 R 14 -74 R 21 -66 R 26 -59 R 31 -51 R
36 -44 R 41 -37 R 45 -29 R 50 -22 R 54 -14 R 58 -6 R 62 1 R 66 10 R 70 18 R
74 28 R 77 37 R 81 47 R 85 58 R 88 70 R 91 83 R 95 98 R 97 114 R 101 135 R
102 158 R 102 187 R 100 225 R 90 271 R 53 259 R 15 189 R -12 198 R -41 176 R
-63 156 R -79 139 R -105 147 R -146 166 R -204 189 R -192 146 R -177 114 R
-162 88 R -150 69 R -139 54 R -128 40 R -119 29 R -109 19 R -101 11 R
-93 2 R -84 -4 R -77 -11 R -70 -18 R -62 -23 R -54 -28 R -47 -34 R -41 -38 R
-32 -44 R -26 -47 R -18 -52 R -10 -57 R -2 -60 R 5 -65 R 14 -68 R 23 -72 R
32 -77 R 42 -79 R 53 -84 R 64 -87 R 76 -91 R 91 -95 R 106 -97 R 125 -101 R
146 -103 R 174 -105 R 207 -104 R 249 -98 R 306 -80 R 185 -25 R 198 -2 R
187 29 R 171 57 R 138 69 R 145 93 R 160 128 R 182 178 R 165 196 R 127 181 R
100 167 R 78 154 R 61 143 R 47 132 R 35 122 R 24 113 R 15 104 R 7 95 R
-1 88 R -7 80 R -14 73 R -21 65 R -25 58 R -31 51 R -36 43 R -41 36 R
-46 29 R -50 22 R -54 14 R -59 6 R -63 -2 R -67 -9 R -71 -19 R -74 -27 R
-79 -37 R -83 -47 R -86 -58 R -90 -71 R -94 -83 R -98 -98 R -101 -116 R
-103 -136 R -107 -160 R -106 -191 R -104 -230 R -93 -279 R -48 -230 R
-16 -192 R 12 -197 R 40 -173 R 62 -152 R 78 -141 R 106 -152 R 149 -172 R
199 -189 R 187 -146 R 173 -115 R 159 -90 R 147 -70 R 136 -55 R 127 -42 R
116 -30 R 109 -21 R 99 -12 R 92 -4 R 84 4 R 76 10 R 69 16 R 61 22 R 55 28 R
D 0.208 0.208 0.208 setrgbcolor 4732 14519 M 0 1 R 1 1 R 0 1 R 0 1 R 1 0 R
0 1 R 1 0 R 0 1 R 1 0 R 1 0 R 0 1 R 1 0 R 1 0 R 1 0 R 1 0 R 0 -1 R 1 0 R
1 0 R 0 -1 R 1 0 R 0 -1 R 1 0 R 0 -1 R 0 -1 R 1 0 R 0 -1 R 0 -1 R D
4732 14519 M 0 -1 R 1 -1 R 0 -1 R 0 -1 R 1 0 R 0 -1 R 1 0 R 0 -1 R 1 0 R
1 0 R 1 0 R 0 -1 R 1 0 R 1 0 R 1 1 R 1 0 R 1 0 R 0 1 R 1 0 R 0 1 R 1 0 R
0 1 R 0 1 R 1 0 R 0 1 R 0 1 R D 0.000 0.000 0.000 setrgbcolor 4739 14519 M Z
gsave 5243 12756 translate 0 0 M
(30.1Gyr) show grestore gsave 5243 12404 translate 0 0 M
(5.0e10M) show X -101.051 M
%%IncludeResource: font Helvetica
262.467 /Helvetica STDFONT
(sun) show grestore
%%IncludeResource: font Helvetica
423.333 /Helvetica STDFONT 7258 12000 M 5038 0 R D 8431 12000 M 0 202 R D
gsave 8431 11472 translate 0 0 M -58.8433 0 N
( ) show grestore 9777 12000 M 0 202 R D gsave 9777 11472 translate 0 0 M
-58.8433 0 N
( ) show grestore 11123 12000 M 0 202 R D gsave 11123 11472 translate 0 0 M
-58.8433 0 N
( ) show grestore 7422 12000 M 0 101 R D 7759 12000 M 0 101 R D 8095 12000 M
0 101 R D 8768 12000 M 0 101 R D 9104 12000 M 0 101 R D 9441 12000 M 0 101 R
D 10114 12000 M 0 101 R D 10450 12000 M 0 101 R D 10786 12000 M 0 101 R D
11459 12000 M 0 101 R D 11796 12000 M 0 101 R D 12132 12000 M 0 101 R D
7258 17038 M 5038 0 R D 8431 17038 M 0 -201 R D 9777 17038 M 0 -201 R D
11123 17038 M 0 -201 R D 7422 17038 M 0 -101 R D 7759 17038 M 0 -101 R D
8095 17038 M 0 -101 R D 8768 17038 M 0 -101 R D 9104 17038 M 0 -101 R D
9441 17038 M 0 -101 R D 10114 17038 M 0 -101 R D 10450 17038 M 0 -101 R D
10786 17038 M 0 -101 R D 11459 17038 M 0 -101 R D 11796 17038 M 0 -101 R D
12132 17038 M 0 -101 R D 7258 12000 M 0 5038 R D 7258 13173 M 202 0 R D
gsave 7147 13033 translate 0 0 M -117.687 0 N
( ) show grestore 7258 14519 M 202 0 R D gsave 7147 14378 translate 0 0 M
-117.687 0 N
( ) show grestore 7258 15865 M 202 0 R D gsave 7147 15724 translate 0 0 M
-117.687 0 N
( ) show grestore 7258 12164 M 101 0 R D 7258 12501 M 101 0 R D 7258 12837 M
101 0 R D 7258 13510 M 101 0 R D 7258 13846 M 101 0 R D 7258 14183 M 101 0 R
D 7258 14856 M 101 0 R D 7258 15192 M 101 0 R D 7258 15528 M 101 0 R D
7258 16201 M 101 0 R D 7258 16538 M 101 0 R D 7258 16874 M 101 0 R D
12296 12000 M 0 5038 R D 12296 13173 M -201 0 R D 12296 14519 M -201 0 R D
12296 15865 M -201 0 R D 12296 12164 M -101 0 R D 12296 12501 M -101 0 R D
12296 12837 M -101 0 R D 12296 13510 M -101 0 R D 12296 13846 M -101 0 R D
12296 14183 M -101 0 R D 12296 14856 M -101 0 R D 12296 15192 M -101 0 R D
12296 15528 M -101 0 R D 12296 16201 M -101 0 R D 12296 16538 M -101 0 R D
12296 16874 M -101 0 R D 11127 14519 M -92 50 R -208 100 R -250 92 R
-306 75 R -186 22 R -198 -2 R -187 -31 R -154 -53 R -135 -67 R -140 -91 R
-153 -123 R -174 -171 R -169 -203 R -130 -187 R -100 -172 R -79 -158 R
-60 -146 R -47 -135 R -34 -125 R -23 -115 R -15 -106 R -6 -98 R 2 -89 R
8 -81 R 14 -74 R 21 -66 R 26 -59 R 31 -51 R 36 -44 R 41 -37 R 45 -29 R
50 -22 R 54 -14 R 58 -6 R 62 1 R 66 10 R 70 18 R 74 28 R 77 37 R 81 47 R
85 58 R 88 70 R 91 83 R 95 98 R 97 114 R 101 135 R 102 158 R 102 187 R
100 225 R 90 271 R 53 259 R 15 189 R -12 198 R -41 176 R -63 156 R -79 139 R
-105 147 R -146 166 R -204 189 R -192 146 R -177 114 R -162 88 R -150 69 R
-139 54 R -128 40 R -119 29 R -109 19 R -101 11 R -93 2 R -84 -4 R -77 -11 R
-70 -18 R -62 -23 R -54 -28 R -47 -34 R -41 -38 R -32 -44 R -26 -47 R
-18 -52 R -10 -57 R -2 -60 R 5 -65 R 14 -68 R 23 -72 R 32 -77 R 42 -79 R
53 -84 R 64 -87 R 76 -91 R 91 -95 R 106 -97 R 125 -101 R 146 -103 R
174 -105 R 207 -104 R 249 -98 R 306 -80 R 185 -25 R 198 -2 R 187 29 R
171 57 R 138 69 R 145 93 R 160 128 R 182 178 R 165 196 R 127 181 R 100 167 R
78 154 R 61 143 R 47 132 R 35 122 R 24 113 R 15 104 R 7 95 R -1 88 R -7 80 R
-14 73 R -21 65 R -25 58 R -31 51 R -36 43 R -41 36 R -46 29 R -50 22 R
-54 14 R -59 6 R -63 -2 R -67 -9 R -71 -19 R -74 -27 R -79 -37 R -83 -47 R
-86 -58 R -90 -71 R -94 -83 R -98 -98 R -101 -116 R -103 -136 R -107 -160 R
-106 -191 R -104 -230 R -93 -279 R -48 -230 R -16 -192 R 12 -197 R 40 -173 R
62 -152 R 78 -141 R 106 -152 R 149 -172 R 199 -189 R 187 -146 R 173 -115 R
159 -90 R 147 -70 R 136 -55 R 127 -42 R 116 -30 R 109 -21 R 99 -12 R 92 -4 R
84 4 R 76 10 R 69 16 R 61 22 R 55 28 R D 0.208 0.208 0.208 setrgbcolor
9770 14519 M 0 1 R 1 1 R 0 1 R 0 1 R 1 0 R 0 1 R 1 0 R 0 1 R 1 0 R 1 0 R
0 1 R 1 0 R 1 0 R 1 0 R 1 0 R 0 -1 R 1 0 R 1 0 R 0 -1 R 1 0 R 0 -1 R 1 0 R
0 -1 R 0 -1 R 1 0 R 0 -1 R 0 -1 R D 9770 14519 M 0 -1 R 1 -1 R 0 -1 R 0 -1 R
1 0 R 0 -1 R 1 0 R 0 -1 R 1 0 R 1 0 R 1 0 R 0 -1 R 1 0 R 1 0 R 1 1 R 1 0 R
1 0 R 0 1 R 1 0 R 0 1 R 1 0 R 0 1 R 0 1 R 1 0 R 0 1 R 0 1 R D
0.000 0.000 0.000 setrgbcolor 9777 14519 M Z
gsave 10281 12756 translate 0 0 M
(30.1Gyr) show grestore gsave 10281 12404 translate 0 0 M
(7.5e10M) show X -101.051 M
%%IncludeResource: font Helvetica
262.467 /Helvetica STDFONT
(sun) show grestore
%%IncludeResource: font Helvetica
423.333 /Helvetica STDFONT 12296 12000 M 5038 0 R D 13469 12000 M 0 202 R D
gsave 13469 11472 translate 0 0 M -58.8433 0 N
( ) show grestore 14815 12000 M 0 202 R D gsave 14815 11472 translate 0 0 M
-58.8433 0 N
( ) show grestore 16161 12000 M 0 202 R D gsave 16161 11472 translate 0 0 M
-58.8433 0 N
( ) show grestore 12460 12000 M 0 101 R D 12797 12000 M 0 101 R D
13133 12000 M 0 101 R D 13806 12000 M 0 101 R D 14142 12000 M 0 101 R D
14479 12000 M 0 101 R D 15152 12000 M 0 101 R D 15488 12000 M 0 101 R D
15824 12000 M 0 101 R D 16497 12000 M 0 101 R D 16834 12000 M 0 101 R D
17170 12000 M 0 101 R D 12296 17038 M 5038 0 R D 13469 17038 M 0 -201 R D
14815 17038 M 0 -201 R D 16161 17038 M 0 -201 R D 12460 17038 M 0 -101 R D
12797 17038 M 0 -101 R D 13133 17038 M 0 -101 R D 13806 17038 M 0 -101 R D
14142 17038 M 0 -101 R D 14479 17038 M 0 -101 R D 15152 17038 M 0 -101 R D
15488 17038 M 0 -101 R D 15824 17038 M 0 -101 R D 16497 17038 M 0 -101 R D
16834 17038 M 0 -101 R D 17170 17038 M 0 -101 R D 12296 12000 M 0 5038 R D
12296 13173 M 202 0 R D gsave 12185 13033 translate 0 0 M -117.687 0 N
( ) show grestore 12296 14519 M 202 0 R D gsave 12185 14378 translate 0 0 M
-117.687 0 N
( ) show grestore 12296 15865 M 202 0 R D gsave 12185 15724 translate 0 0 M
-117.687 0 N
( ) show grestore 12296 12164 M 101 0 R D 12296 12501 M 101 0 R D
12296 12837 M 101 0 R D 12296 13510 M 101 0 R D 12296 13846 M 101 0 R D
12296 14183 M 101 0 R D 12296 14856 M 101 0 R D 12296 15192 M 101 0 R D
12296 15528 M 101 0 R D 12296 16201 M 101 0 R D 12296 16538 M 101 0 R D
12296 16874 M 101 0 R D 17334 12000 M 0 5038 R D 17334 13173 M -201 0 R D
17334 14519 M -201 0 R D 17334 15865 M -201 0 R D 17334 12164 M -101 0 R D
17334 12501 M -101 0 R D 17334 12837 M -101 0 R D 17334 13510 M -101 0 R D
17334 13846 M -101 0 R D 17334 14183 M -101 0 R D 17334 14856 M -101 0 R D
17334 15192 M -101 0 R D 17334 15528 M -101 0 R D 17334 16201 M -101 0 R D
17334 16538 M -101 0 R D 17334 16874 M -101 0 R D 16165 14519 M -92 50 R
-208 100 R -250 92 R -306 75 R -186 22 R -198 -2 R -187 -31 R -154 -53 R
-135 -67 R -140 -91 R -153 -123 R -174 -171 R -169 -203 R -130 -187 R
-100 -172 R -79 -158 R -60 -146 R -47 -135 R -34 -125 R -23 -115 R
-15 -106 R -6 -98 R 2 -89 R 8 -81 R 14 -74 R 21 -66 R 26 -59 R 31 -51 R
36 -44 R 41 -37 R 45 -29 R 50 -22 R 54 -14 R 58 -6 R 62 1 R 66 10 R 70 18 R
74 28 R 77 37 R 81 47 R 85 58 R 88 70 R 91 83 R 95 98 R 97 114 R 101 135 R
102 158 R 102 187 R 100 225 R 90 271 R 53 259 R 15 189 R -12 198 R -41 176 R
-63 156 R -79 139 R -105 147 R -146 166 R -204 189 R -192 146 R -177 114 R
-162 88 R -150 69 R -139 54 R -128 40 R -119 29 R -109 19 R -101 11 R
-93 2 R -84 -4 R -77 -11 R -70 -18 R -62 -23 R -54 -28 R -47 -34 R -41 -38 R
-32 -44 R -26 -47 R -18 -52 R -10 -57 R -2 -60 R 5 -65 R 14 -68 R 23 -72 R
32 -77 R 42 -79 R 53 -84 R 64 -87 R 76 -91 R 91 -95 R 106 -97 R 125 -101 R
146 -103 R 174 -105 R 207 -104 R 249 -98 R 306 -80 R 185 -25 R 198 -2 R
187 29 R 171 57 R 138 69 R 145 93 R 160 128 R 182 178 R 165 196 R 127 181 R
100 167 R 78 154 R 61 143 R 47 132 R 35 122 R 24 113 R 15 104 R 7 95 R
-1 88 R -7 80 R -14 73 R -21 65 R -25 58 R -31 51 R -36 43 R -41 36 R
-46 29 R -50 22 R -54 14 R -59 6 R -63 -2 R -67 -9 R -71 -19 R -74 -27 R
-79 -37 R -83 -47 R -86 -58 R -90 -71 R -94 -83 R -98 -98 R -101 -116 R
-103 -136 R -107 -160 R -106 -191 R -104 -230 R -93 -279 R -48 -230 R
-16 -192 R 12 -197 R 40 -173 R 62 -152 R 78 -141 R 106 -152 R 149 -172 R
199 -189 R 187 -146 R 173 -115 R 159 -90 R 147 -70 R 136 -55 R 127 -42 R
116 -30 R 109 -21 R 99 -12 R 92 -4 R 84 4 R 76 10 R 69 16 R 61 22 R 55 28 R
D 0.208 0.208 0.208 setrgbcolor 14808 14519 M 0 1 R 1 1 R 0 1 R 0 1 R 1 0 R
0 1 R 1 0 R 0 1 R 1 0 R 1 0 R 0 1 R 1 0 R 1 0 R 1 0 R 1 0 R 0 -1 R 1 0 R
1 0 R 0 -1 R 1 0 R 0 -1 R 1 0 R 0 -1 R 0 -1 R 1 0 R 0 -1 R 0 -1 R D
14808 14519 M 0 -1 R 1 -1 R 0 -1 R 0 -1 R 1 0 R 0 -1 R 1 0 R 0 -1 R 1 0 R
1 0 R 1 0 R 0 -1 R 1 0 R 1 0 R 1 1 R 1 0 R 1 0 R 0 1 R 1 0 R 0 1 R 1 0 R
0 1 R 0 1 R 1 0 R 0 1 R 0 1 R D 0.000 0.000 0.000 setrgbcolor 14815 14519 M
Z gsave 15319 12756 translate 0 0 M
(30.1Gyr) show grestore gsave 15319 12404 translate 0 0 M
(1.0e11M) show X -101.051 M
%%IncludeResource: font Helvetica
262.467 /Helvetica STDFONT
(sun) show grestore
%%IncludeResource: font Helvetica
423.333 /Helvetica STDFONT 2220 6704 M 5038 0 R D 3393 6704 M 0 202 R D
gsave 3393 6176 translate 0 0 M -58.8433 0 N
( ) show grestore 4739 6704 M 0 202 R D gsave 4739 6176 translate 0 0 M
-58.8433 0 N
( ) show grestore 6085 6704 M 0 202 R D gsave 6085 6176 translate 0 0 M
-58.8433 0 N
( ) show grestore 2384 6704 M 0 101 R D 2721 6704 M 0 101 R D 3057 6704 M
0 101 R D 3730 6704 M 0 101 R D 4066 6704 M 0 101 R D 4403 6704 M 0 101 R D
5076 6704 M 0 101 R D 5412 6704 M 0 101 R D 5748 6704 M 0 101 R D
6421 6704 M 0 101 R D 6758 6704 M 0 101 R D 7094 6704 M 0 101 R D
2220 11742 M 5038 0 R D 3393 11742 M 0 -201 R D 4739 11742 M 0 -201 R D
6085 11742 M 0 -201 R D 2384 11742 M 0 -101 R D 2721 11742 M 0 -101 R D
3057 11742 M 0 -101 R D 3730 11742 M 0 -101 R D 4066 11742 M 0 -101 R D
4403 11742 M 0 -101 R D 5076 11742 M 0 -101 R D 5412 11742 M 0 -101 R D
5748 11742 M 0 -101 R D 6421 11742 M 0 -101 R D 6758 11742 M 0 -101 R D
7094 11742 M 0 -101 R D 2220 6704 M 0 5038 R D 2220 7877 M 202 0 R D
gsave 2109 7737 translate 0 0 M -847.09 0 N
(-200) show grestore 2220 9223 M 202 0 R D gsave 2109 9082 translate 0 0 M
-235.373 0 N
(0) show grestore 2220 10569 M 202 0 R D gsave 2109 10428 translate 0 0 M
-706.12 0 N
(200) show grestore 2220 6868 M 101 0 R D 2220 7205 M 101 0 R D 2220 7541 M
101 0 R D 2220 8214 M 101 0 R D 2220 8550 M 101 0 R D 2220 8887 M 101 0 R D
2220 9560 M 101 0 R D 2220 9896 M 101 0 R D 2220 10232 M 101 0 R D
2220 10905 M 101 0 R D 2220 11242 M 101 0 R D 2220 11578 M 101 0 R D
7258 6704 M 0 5038 R D 7258 7877 M -201 0 R D 7258 9223 M -201 0 R D
7258 10569 M -201 0 R D 7258 6868 M -101 0 R D 7258 7205 M -101 0 R D
7258 7541 M -101 0 R D 7258 8214 M -101 0 R D 7258 8550 M -101 0 R D
7258 8887 M -101 0 R D 7258 9560 M -101 0 R D 7258 9896 M -101 0 R D
7258 10232 M -101 0 R D 7258 10905 M -101 0 R D 7258 11242 M -101 0 R D
7258 11578 M -101 0 R D 6089 9223 M -92 50 R -208 100 R -250 92 R -306 75 R
-186 22 R -198 -2 R -187 -31 R -154 -53 R -135 -67 R -140 -91 R -153 -123 R
-174 -171 R -169 -203 R -130 -187 R -100 -172 R -79 -158 R -60 -146 R
-47 -135 R -34 -125 R -23 -115 R -15 -106 R -6 -98 R 2 -89 R 8 -81 R
14 -74 R 21 -66 R 26 -59 R 31 -51 R 36 -44 R 41 -37 R 45 -29 R 50 -22 R
54 -14 R 58 -6 R 62 1 R 66 10 R 70 18 R 74 28 R 77 37 R 81 47 R 85 58 R
88 70 R 91 83 R 95 98 R 97 114 R 101 135 R 102 158 R 102 187 R 100 225 R
90 271 R 53 259 R 15 189 R -12 198 R -41 176 R -63 156 R -79 139 R
-105 147 R -146 166 R -204 189 R -192 146 R -177 114 R -162 88 R -150 69 R
-139 54 R -128 40 R -119 29 R -109 19 R -101 11 R -93 2 R -84 -4 R -77 -11 R
-70 -18 R -62 -23 R -54 -28 R -47 -34 R -41 -38 R -32 -44 R -26 -47 R
-18 -52 R -10 -57 R -2 -60 R 5 -65 R 14 -68 R 23 -72 R 32 -77 R 42 -79 R
53 -84 R 64 -87 R 76 -91 R 91 -95 R 106 -97 R 125 -101 R 146 -103 R
174 -105 R 207 -104 R 249 -98 R 306 -80 R 185 -25 R 198 -2 R 187 29 R
171 57 R 138 69 R 145 93 R 160 128 R 182 178 R 165 196 R 127 181 R 100 167 R
78 154 R 61 143 R 47 132 R 35 122 R 24 113 R 15 104 R 7 95 R -1 88 R -7 80 R
-14 73 R -21 65 R -25 58 R -31 51 R -36 43 R -41 36 R -46 29 R -50 22 R
-54 14 R -59 6 R -63 -2 R -67 -9 R -71 -19 R -74 -27 R -79 -37 R -83 -47 R
-86 -58 R -90 -71 R -94 -83 R -98 -98 R -101 -116 R -103 -136 R -107 -160 R
-106 -191 R -104 -230 R -93 -279 R -48 -230 R -16 -192 R 12 -197 R 40 -173 R
62 -152 R 78 -141 R 106 -152 R 149 -172 R 199 -189 R 187 -146 R 173 -115 R
159 -90 R 147 -70 R 136 -55 R 127 -42 R 116 -30 R 109 -21 R 99 -12 R 92 -4 R
84 4 R 76 10 R 69 16 R 61 22 R 55 28 R D 0.208 0.208 0.208 setrgbcolor
4732 9223 M 0 1 R 1 1 R 0 1 R 0 1 R 1 0 R 0 1 R 1 0 R 0 1 R 1 0 R 1 0 R
0 1 R 1 0 R 1 0 R 1 0 R 1 0 R 0 -1 R 1 0 R 1 0 R 0 -1 R 1 0 R 0 -1 R 1 0 R
0 -1 R 0 -1 R 1 0 R 0 -1 R 0 -1 R D 4732 9223 M 0 -1 R 1 -1 R 0 -1 R 0 -1 R
1 0 R 0 -1 R 1 0 R 0 -1 R 1 0 R 1 0 R 1 0 R 0 -1 R 1 0 R 1 0 R 1 1 R 1 0 R
1 0 R 0 1 R 1 0 R 0 1 R 1 0 R 0 1 R 0 1 R 1 0 R 0 1 R 0 1 R D
0.000 0.000 0.000 setrgbcolor 4739 9223 M Z gsave 5243 7460 translate 0 0 M
(30.1Gyr) show grestore gsave 5243 7108 translate 0 0 M
(1.3e11M) show X -101.051 M
%%IncludeResource: font Helvetica
262.467 /Helvetica STDFONT
(sun) show grestore
%%IncludeResource: font Helvetica
423.333 /Helvetica STDFONT 7258 6704 M 5038 0 R D 8431 6704 M 0 202 R D
gsave 8431 6176 translate 0 0 M -58.8433 0 N
( ) show grestore 9777 6704 M 0 202 R D gsave 9777 6176 translate 0 0 M
-58.8433 0 N
( ) show grestore 11123 6704 M 0 202 R D gsave 11123 6176 translate 0 0 M
-58.8433 0 N
( ) show grestore 7422 6704 M 0 101 R D 7759 6704 M 0 101 R D 8095 6704 M
0 101 R D 8768 6704 M 0 101 R D 9104 6704 M 0 101 R D 9441 6704 M 0 101 R D
10114 6704 M 0 101 R D 10450 6704 M 0 101 R D 10786 6704 M 0 101 R D
11459 6704 M 0 101 R D 11796 6704 M 0 101 R D 12132 6704 M 0 101 R D
7258 11742 M 5038 0 R D 8431 11742 M 0 -201 R D 9777 11742 M 0 -201 R D
11123 11742 M 0 -201 R D 7422 11742 M 0 -101 R D 7759 11742 M 0 -101 R D
8095 11742 M 0 -101 R D 8768 11742 M 0 -101 R D 9104 11742 M 0 -101 R D
9441 11742 M 0 -101 R D 10114 11742 M 0 -101 R D 10450 11742 M 0 -101 R D
10786 11742 M 0 -101 R D 11459 11742 M 0 -101 R D 11796 11742 M 0 -101 R D
12132 11742 M 0 -101 R D 7258 6704 M 0 5038 R D 7258 7877 M 202 0 R D
gsave 7147 7737 translate 0 0 M -117.687 0 N
( ) show grestore 7258 9223 M 202 0 R D gsave 7147 9082 translate 0 0 M
-117.687 0 N
( ) show grestore 7258 10569 M 202 0 R D gsave 7147 10428 translate 0 0 M
-117.687 0 N
( ) show grestore 7258 6868 M 101 0 R D 7258 7205 M 101 0 R D 7258 7541 M
101 0 R D 7258 8214 M 101 0 R D 7258 8550 M 101 0 R D 7258 8887 M 101 0 R D
7258 9560 M 101 0 R D 7258 9896 M 101 0 R D 7258 10232 M 101 0 R D
7258 10905 M 101 0 R D 7258 11242 M 101 0 R D 7258 11578 M 101 0 R D
12296 6704 M 0 5038 R D 12296 7877 M -201 0 R D 12296 9223 M -201 0 R D
12296 10569 M -201 0 R D 12296 6868 M -101 0 R D 12296 7205 M -101 0 R D
12296 7541 M -101 0 R D 12296 8214 M -101 0 R D 12296 8550 M -101 0 R D
12296 8887 M -101 0 R D 12296 9560 M -101 0 R D 12296 9896 M -101 0 R D
12296 10232 M -101 0 R D 12296 10905 M -101 0 R D 12296 11242 M -101 0 R D
12296 11578 M -101 0 R D 11127 9223 M -92 50 R -208 100 R -250 92 R
-306 75 R -186 22 R -198 -2 R -187 -31 R -154 -53 R -135 -67 R -140 -91 R
-153 -123 R -174 -171 R -169 -203 R -130 -187 R -100 -172 R -79 -158 R
-60 -146 R -47 -135 R -34 -125 R -23 -115 R -15 -106 R -6 -98 R 2 -89 R
8 -81 R 14 -74 R 21 -66 R 26 -59 R 31 -51 R 36 -44 R 41 -37 R 45 -29 R
50 -22 R 54 -14 R 58 -6 R 62 1 R 66 10 R 70 18 R 74 28 R 77 37 R 81 47 R
85 58 R 88 70 R 91 83 R 95 98 R 97 114 R 101 135 R 102 158 R 102 187 R
100 225 R 90 271 R 53 259 R 15 189 R -12 198 R -41 176 R -63 156 R -79 139 R
-105 147 R -146 166 R -204 189 R -192 146 R -177 114 R -162 88 R -150 69 R
-139 54 R -128 40 R -119 29 R -109 19 R -101 11 R -93 2 R -84 -4 R -77 -11 R
-70 -18 R -62 -23 R -54 -28 R -47 -34 R -41 -38 R -32 -44 R -26 -47 R
-18 -52 R -10 -57 R -2 -60 R 5 -65 R 14 -68 R 23 -72 R 32 -77 R 42 -79 R
53 -84 R 64 -87 R 76 -91 R 91 -95 R 106 -97 R 125 -101 R 146 -103 R
174 -105 R 207 -104 R 249 -98 R 306 -80 R 185 -25 R 198 -2 R 187 29 R
171 57 R 138 69 R 145 93 R 160 128 R 182 178 R 165 196 R 127 181 R 100 167 R
78 154 R 61 143 R 47 132 R 35 122 R 24 113 R 15 104 R 7 95 R -1 88 R -7 80 R
-14 73 R -21 65 R -25 58 R -31 51 R -36 43 R -41 36 R -46 29 R -50 22 R
-54 14 R -59 6 R -63 -2 R -67 -9 R -71 -19 R -74 -27 R -79 -37 R -83 -47 R
-86 -58 R -90 -71 R -94 -83 R -98 -98 R -101 -116 R -103 -136 R -107 -160 R
-106 -191 R -104 -230 R -93 -279 R -48 -230 R -16 -192 R 12 -197 R 40 -173 R
62 -152 R 78 -141 R 106 -152 R 149 -172 R 199 -189 R 187 -146 R 173 -115 R
159 -90 R 147 -70 R 136 -55 R 127 -42 R 116 -30 R 109 -21 R 99 -12 R 92 -4 R
84 4 R 76 10 R 69 16 R 61 22 R 55 28 R D 0.208 0.208 0.208 setrgbcolor
9770 9223 M 0 1 R 1 1 R 0 1 R 0 1 R 1 0 R 0 1 R 1 0 R 0 1 R 1 0 R 1 0 R
0 1 R 1 0 R 1 0 R 1 0 R 1 0 R 0 -1 R 1 0 R 1 0 R 0 -1 R 1 0 R 0 -1 R 1 0 R
0 -1 R 0 -1 R 1 0 R 0 -1 R 0 -1 R D 9770 9223 M 0 -1 R 1 -1 R 0 -1 R 0 -1 R
1 0 R 0 -1 R 1 0 R 0 -1 R 1 0 R 1 0 R 1 0 R 0 -1 R 1 0 R 1 0 R 1 1 R 1 0 R
1 0 R 0 1 R 1 0 R 0 1 R 1 0 R 0 1 R 0 1 R 1 0 R 0 1 R 0 1 R D
0.000 0.000 0.000 setrgbcolor 9777 9223 M Z gsave 10281 7460 translate 0 0 M
(30.1Gyr) show grestore gsave 10281 7108 translate 0 0 M
(1.5e11M) show X -101.051 M
%%IncludeResource: font Helvetica
262.467 /Helvetica STDFONT
(sun) show grestore
%%IncludeResource: font Helvetica
423.333 /Helvetica STDFONT 12296 6704 M 5038 0 R D 13469 6704 M 0 202 R D
gsave 13469 6176 translate 0 0 M -58.8433 0 N
( ) show grestore 14815 6704 M 0 202 R D gsave 14815 6176 translate 0 0 M
-58.8433 0 N
( ) show grestore 16161 6704 M 0 202 R D gsave 16161 6176 translate 0 0 M
-58.8433 0 N
( ) show grestore 12460 6704 M 0 101 R D 12797 6704 M 0 101 R D 13133 6704 M
0 101 R D 13806 6704 M 0 101 R D 14142 6704 M 0 101 R D 14479 6704 M 0 101 R
D 15152 6704 M 0 101 R D 15488 6704 M 0 101 R D 15824 6704 M 0 101 R D
16497 6704 M 0 101 R D 16834 6704 M 0 101 R D 17170 6704 M 0 101 R D
12296 11742 M 5038 0 R D 13469 11742 M 0 -201 R D 14815 11742 M 0 -201 R D
16161 11742 M 0 -201 R D 12460 11742 M 0 -101 R D 12797 11742 M 0 -101 R D
13133 11742 M 0 -101 R D 13806 11742 M 0 -101 R D 14142 11742 M 0 -101 R D
14479 11742 M 0 -101 R D 15152 11742 M 0 -101 R D 15488 11742 M 0 -101 R D
15824 11742 M 0 -101 R D 16497 11742 M 0 -101 R D 16834 11742 M 0 -101 R D
17170 11742 M 0 -101 R D 12296 6704 M 0 5038 R D 12296 7877 M 202 0 R D
gsave 12185 7737 translate 0 0 M -117.687 0 N
( ) show grestore 12296 9223 M 202 0 R D gsave 12185 9082 translate 0 0 M
-117.687 0 N
( ) show grestore 12296 10569 M 202 0 R D gsave 12185 10428 translate 0 0 M
-117.687 0 N
( ) show grestore 12296 6868 M 101 0 R D 12296 7205 M 101 0 R D 12296 7541 M
101 0 R D 12296 8214 M 101 0 R D 12296 8550 M 101 0 R D 12296 8887 M 101 0 R
D 12296 9560 M 101 0 R D 12296 9896 M 101 0 R D 12296 10232 M 101 0 R D
12296 10905 M 101 0 R D 12296 11242 M 101 0 R D 12296 11578 M 101 0 R D
17334 6704 M 0 5038 R D 17334 7877 M -201 0 R D 17334 9223 M -201 0 R D
17334 10569 M -201 0 R D 17334 6868 M -101 0 R D 17334 7205 M -101 0 R D
17334 7541 M -101 0 R D 17334 8214 M -101 0 R D 17334 8550 M -101 0 R D
17334 8887 M -101 0 R D 17334 9560 M -101 0 R D 17334 9896 M -101 0 R D
17334 10232 M -101 0 R D 17334 10905 M -101 0 R D 17334 11242 M -101 0 R D
17334 11578 M -101 0 R D 16165 9223 M -92 50 R -208 100 R -250 92 R
-306 75 R -186 22 R -198 -2 R -187 -31 R -154 -53 R -135 -67 R -140 -91 R
-153 -123 R -174 -171 R -169 -203 R -130 -187 R -100 -172 R -79 -158 R
-60 -146 R -47 -135 R -34 -125 R -23 -115 R -15 -106 R -6 -98 R 2 -89 R
8 -81 R 14 -74 R 21 -66 R 26 -59 R 31 -51 R 36 -44 R 41 -37 R 45 -29 R
50 -22 R 54 -14 R 58 -6 R 62 1 R 66 10 R 70 18 R 74 28 R 77 37 R 81 47 R
85 58 R 88 70 R 91 83 R 95 98 R 97 114 R 101 135 R 102 158 R 102 187 R
100 225 R 90 271 R 53 259 R 15 189 R -12 198 R -41 176 R -63 156 R -79 139 R
-105 147 R -146 166 R -204 189 R -192 146 R -177 114 R -162 88 R -150 69 R
-139 54 R -128 40 R -119 29 R -109 19 R -101 11 R -93 2 R -84 -4 R -77 -11 R
-70 -18 R -62 -23 R -54 -28 R -47 -34 R -41 -38 R -32 -44 R -26 -47 R
-18 -52 R -10 -57 R -2 -60 R 5 -65 R 14 -68 R 23 -72 R 32 -77 R 42 -79 R
53 -84 R 64 -87 R 76 -91 R 91 -95 R 106 -97 R 125 -101 R 146 -103 R
174 -105 R 207 -104 R 249 -98 R 306 -80 R 185 -25 R 198 -2 R 187 29 R
171 57 R 138 69 R 145 93 R 160 128 R 182 178 R 165 196 R 127 181 R 100 167 R
78 154 R 61 143 R 47 132 R 35 122 R 24 113 R 15 104 R 7 95 R -1 88 R -7 80 R
-14 73 R -21 65 R -25 58 R -31 51 R -36 43 R -41 36 R -46 29 R -50 22 R
-54 14 R -59 6 R -63 -2 R -67 -9 R -71 -19 R -74 -27 R -79 -37 R -83 -47 R
-86 -58 R -90 -71 R -94 -83 R -98 -98 R -101 -116 R -103 -136 R -107 -160 R
-106 -191 R -104 -230 R -93 -279 R -48 -230 R -16 -192 R 12 -197 R 40 -173 R
62 -152 R 78 -141 R 106 -152 R 149 -172 R 199 -189 R 187 -146 R 173 -115 R
159 -90 R 147 -70 R 136 -55 R 127 -42 R 116 -30 R 109 -21 R 99 -12 R 92 -4 R
84 4 R 76 10 R 69 16 R 61 22 R 55 28 R D 0.208 0.208 0.208 setrgbcolor
14808 9223 M 0 1 R 1 1 R 0 1 R 0 1 R 1 0 R 0 1 R 1 0 R 0 1 R 1 0 R 1 0 R
0 1 R 1 0 R 1 0 R 1 0 R 1 0 R 0 -1 R 1 0 R 1 0 R 0 -1 R 1 0 R 0 -1 R 1 0 R
0 -1 R 0 -1 R 1 0 R 0 -1 R 0 -1 R D 14808 9223 M 0 -1 R 1 -1 R 0 -1 R 0 -1 R
1 0 R 0 -1 R 1 0 R 0 -1 R 1 0 R 1 0 R 1 0 R 0 -1 R 1 0 R 1 0 R 1 1 R 1 0 R
1 0 R 0 1 R 1 0 R 0 1 R 1 0 R 0 1 R 0 1 R 1 0 R 0 1 R 0 1 R D
0.000 0.000 0.000 setrgbcolor 14815 9223 M Z
gsave 15319 7460 translate 0 0 M
(30.1Gyr) show grestore gsave 15319 7108 translate 0 0 M
(2.0e11M) show X -101.051 M
%%IncludeResource: font Helvetica
262.467 /Helvetica STDFONT
(sun) show grestore
%%IncludeResource: font Helvetica
423.333 /Helvetica STDFONT 2220 1408 M 5038 0 R D 3393 1408 M 0 202 R D
gsave 3393 880 translate 0 0 M -423.545 0 N
(-200) show grestore 4739 1408 M 0 202 R D gsave 4739 880 translate 0 0 M
-117.687 0 N
(0) show grestore 6085 1408 M 0 202 R D gsave 6085 880 translate 0 0 M
-353.06 0 N
(200) show grestore 2384 1408 M 0 101 R D 2721 1408 M 0 101 R D 3057 1408 M
0 101 R D 3730 1408 M 0 101 R D 4066 1408 M 0 101 R D 4403 1408 M 0 101 R D
5076 1408 M 0 101 R D 5412 1408 M 0 101 R D 5748 1408 M 0 101 R D
6421 1408 M 0 101 R D 6758 1408 M 0 101 R D 7094 1408 M 0 101 R D
2220 6446 M 5038 0 R D 3393 6446 M 0 -201 R D 4739 6446 M 0 -201 R D
6085 6446 M 0 -201 R D 2384 6446 M 0 -101 R D 2721 6446 M 0 -101 R D
3057 6446 M 0 -101 R D 3730 6446 M 0 -101 R D 4066 6446 M 0 -101 R D
4403 6446 M 0 -101 R D 5076 6446 M 0 -101 R D 5412 6446 M 0 -101 R D
5748 6446 M 0 -101 R D 6421 6446 M 0 -101 R D 6758 6446 M 0 -101 R D
7094 6446 M 0 -101 R D 2220 1408 M 0 5038 R D 2220 2581 M 202 0 R D
gsave 2109 2441 translate 0 0 M -847.09 0 N
(-200) show grestore 2220 3927 M 202 0 R D gsave 2109 3786 translate 0 0 M
-235.373 0 N
(0) show grestore 2220 5273 M 202 0 R D gsave 2109 5132 translate 0 0 M
-706.12 0 N
(200) show grestore 2220 1572 M 101 0 R D 2220 1909 M 101 0 R D 2220 2245 M
101 0 R D 2220 2918 M 101 0 R D 2220 3254 M 101 0 R D 2220 3591 M 101 0 R D
2220 4264 M 101 0 R D 2220 4600 M 101 0 R D 2220 4936 M 101 0 R D
2220 5609 M 101 0 R D 2220 5946 M 101 0 R D 2220 6282 M 101 0 R D
7258 1408 M 0 5038 R D 7258 2581 M -201 0 R D 7258 3927 M -201 0 R D
7258 5273 M -201 0 R D 7258 1572 M -101 0 R D 7258 1909 M -101 0 R D
7258 2245 M -101 0 R D 7258 2918 M -101 0 R D 7258 3254 M -101 0 R D
7258 3591 M -101 0 R D 7258 4264 M -101 0 R D 7258 4600 M -101 0 R D
7258 4936 M -101 0 R D 7258 5609 M -101 0 R D 7258 5946 M -101 0 R D
7258 6282 M -101 0 R D 6089 3927 M -92 50 R -208 100 R -250 92 R -306 75 R
-186 22 R -198 -2 R -187 -31 R -154 -53 R -135 -67 R -140 -91 R -153 -123 R
-174 -171 R -169 -203 R -130 -187 R -100 -172 R -79 -158 R -60 -146 R
-47 -135 R -34 -125 R -23 -115 R -15 -106 R -6 -98 R 2 -89 R 8 -81 R
14 -74 R 21 -66 R 26 -59 R 31 -51 R 36 -44 R 41 -37 R 45 -29 R 50 -22 R
54 -14 R 58 -6 R 62 1 R 66 10 R 70 18 R 74 28 R 77 37 R 81 47 R 85 58 R
88 70 R 91 83 R 95 98 R 97 114 R 101 135 R 102 158 R 102 187 R 100 225 R
90 271 R 53 259 R 15 189 R -12 198 R -41 176 R -63 156 R -79 139 R
-105 147 R -146 166 R -204 189 R -192 146 R -177 114 R -162 88 R -150 69 R
-139 54 R -128 40 R -119 29 R -109 19 R -101 11 R -93 2 R -84 -4 R -77 -11 R
-70 -18 R -62 -23 R -54 -28 R -47 -34 R -41 -38 R -32 -44 R -26 -47 R
-18 -52 R -10 -57 R -2 -60 R 5 -65 R 14 -68 R 23 -72 R 32 -77 R 42 -79 R
53 -84 R 64 -87 R 76 -91 R 91 -95 R 106 -97 R 125 -101 R 146 -103 R
174 -105 R 207 -104 R 249 -98 R 306 -80 R 185 -25 R 198 -2 R 187 29 R
171 57 R 138 69 R 145 93 R 160 128 R 182 178 R 165 196 R 127 181 R 100 167 R
78 154 R 61 143 R 47 132 R 35 122 R 24 113 R 15 104 R 7 95 R -1 88 R -7 80 R
-14 73 R -21 65 R -25 58 R -31 51 R -36 43 R -41 36 R -46 29 R -50 22 R
-54 14 R -59 6 R -63 -2 R -67 -9 R -71 -19 R -74 -27 R -79 -37 R -83 -47 R
-86 -58 R -90 -71 R -94 -83 R -98 -98 R -101 -116 R -103 -136 R -107 -160 R
-106 -191 R -104 -230 R -93 -279 R -48 -230 R -16 -192 R 12 -197 R 40 -173 R
62 -152 R 78 -141 R 106 -152 R 149 -172 R 199 -189 R 187 -146 R 173 -115 R
159 -90 R 147 -70 R 136 -55 R 127 -42 R 116 -30 R 109 -21 R 99 -12 R 92 -4 R
84 4 R 76 10 R 69 16 R 61 22 R 55 28 R D 0.208 0.208 0.208 setrgbcolor
4732 3927 M 0 1 R 1 1 R 0 1 R 0 1 R 1 0 R 0 1 R 1 0 R 0 1 R 1 0 R 1 0 R
0 1 R 1 0 R 1 0 R 1 0 R 1 0 R 0 -1 R 1 0 R 1 0 R 0 -1 R 1 0 R 0 -1 R 1 0 R
0 -1 R 0 -1 R 1 0 R 0 -1 R 0 -1 R D 4732 3927 M 0 -1 R 1 -1 R 0 -1 R 0 -1 R
1 0 R 0 -1 R 1 0 R 0 -1 R 1 0 R 1 0 R 1 0 R 0 -1 R 1 0 R 1 0 R 1 1 R 1 0 R
1 0 R 0 1 R 1 0 R 0 1 R 1 0 R 0 1 R 0 1 R 1 0 R 0 1 R 0 1 R D
0.000 0.000 0.000 setrgbcolor 4739 3927 M Z gsave 5243 2164 translate 0 0 M
(30.1Gyr) show grestore gsave 5243 1812 translate 0 0 M
(2.5e11M) show X -101.051 M
%%IncludeResource: font Helvetica
262.467 /Helvetica STDFONT
(sun) show grestore
%%IncludeResource: font Helvetica
423.333 /Helvetica STDFONT 7258 1408 M 5038 0 R D 8431 1408 M 0 202 R D
gsave 8431 880 translate 0 0 M -423.545 0 N
(-200) show grestore 9777 1408 M 0 202 R D gsave 9777 880 translate 0 0 M
-117.687 0 N
(0) show grestore 11123 1408 M 0 202 R D gsave 11123 880 translate 0 0 M
-353.06 0 N
(200) show grestore 7422 1408 M 0 101 R D 7759 1408 M 0 101 R D 8095 1408 M
0 101 R D 8768 1408 M 0 101 R D 9104 1408 M 0 101 R D 9441 1408 M 0 101 R D
10114 1408 M 0 101 R D 10450 1408 M 0 101 R D 10786 1408 M 0 101 R D
11459 1408 M 0 101 R D 11796 1408 M 0 101 R D 12132 1408 M 0 101 R D
7258 6446 M 5038 0 R D 8431 6446 M 0 -201 R D 9777 6446 M 0 -201 R D
11123 6446 M 0 -201 R D 7422 6446 M 0 -101 R D 7759 6446 M 0 -101 R D
8095 6446 M 0 -101 R D 8768 6446 M 0 -101 R D 9104 6446 M 0 -101 R D
9441 6446 M 0 -101 R D 10114 6446 M 0 -101 R D 10450 6446 M 0 -101 R D
10786 6446 M 0 -101 R D 11459 6446 M 0 -101 R D 11796 6446 M 0 -101 R D
12132 6446 M 0 -101 R D 7258 1408 M 0 5038 R D 7258 2581 M 202 0 R D
gsave 7147 2441 translate 0 0 M -117.687 0 N
( ) show grestore 7258 3927 M 202 0 R D gsave 7147 3786 translate 0 0 M
-117.687 0 N
( ) show grestore 7258 5273 M 202 0 R D gsave 7147 5132 translate 0 0 M
-117.687 0 N
( ) show grestore 7258 1572 M 101 0 R D 7258 1909 M 101 0 R D 7258 2245 M
101 0 R D 7258 2918 M 101 0 R D 7258 3254 M 101 0 R D 7258 3591 M 101 0 R D
7258 4264 M 101 0 R D 7258 4600 M 101 0 R D 7258 4936 M 101 0 R D
7258 5609 M 101 0 R D 7258 5946 M 101 0 R D 7258 6282 M 101 0 R D
12296 1408 M 0 5038 R D 12296 2581 M -201 0 R D 12296 3927 M -201 0 R D
12296 5273 M -201 0 R D 12296 1572 M -101 0 R D 12296 1909 M -101 0 R D
12296 2245 M -101 0 R D 12296 2918 M -101 0 R D 12296 3254 M -101 0 R D
12296 3591 M -101 0 R D 12296 4264 M -101 0 R D 12296 4600 M -101 0 R D
12296 4936 M -101 0 R D 12296 5609 M -101 0 R D 12296 5946 M -101 0 R D
12296 6282 M -101 0 R D 11127 3927 M -92 50 R -208 100 R -250 92 R -306 75 R
-186 22 R -198 -2 R -187 -31 R -154 -53 R -135 -67 R -140 -91 R -153 -123 R
-174 -171 R -169 -203 R -130 -187 R -100 -172 R -79 -158 R -60 -146 R
-47 -135 R -34 -125 R -23 -115 R -15 -106 R -6 -98 R 2 -89 R 8 -81 R
14 -74 R 21 -66 R 26 -59 R 31 -51 R 36 -44 R 41 -37 R 45 -29 R 50 -22 R
54 -14 R 58 -6 R 62 1 R 66 10 R 70 18 R 74 28 R 77 37 R 81 47 R 85 58 R
88 70 R 91 83 R 95 98 R 97 114 R 101 135 R 102 158 R 102 187 R 100 225 R
90 271 R 53 259 R 15 189 R -12 198 R -41 176 R -63 156 R -79 139 R
-105 147 R -146 166 R -204 189 R -192 146 R -177 114 R -162 88 R -150 69 R
-139 54 R -128 40 R -119 29 R -109 19 R -101 11 R -93 2 R -84 -4 R -77 -11 R
-70 -18 R -62 -23 R -54 -28 R -47 -34 R -41 -38 R -32 -44 R -26 -47 R
-18 -52 R -10 -57 R -2 -60 R 5 -65 R 14 -68 R 23 -72 R 32 -77 R 42 -79 R
53 -84 R 64 -87 R 76 -91 R 91 -95 R 106 -97 R 125 -101 R 146 -103 R
174 -105 R 207 -104 R 249 -98 R 306 -80 R 185 -25 R 198 -2 R 187 29 R
171 57 R 138 69 R 145 93 R 160 128 R 182 178 R 165 196 R 127 181 R 100 167 R
78 154 R 61 143 R 47 132 R 35 122 R 24 113 R 15 104 R 7 95 R -1 88 R -7 80 R
-14 73 R -21 65 R -25 58 R -31 51 R -36 43 R -41 36 R -46 29 R -50 22 R
-54 14 R -59 6 R -63 -2 R -67 -9 R -71 -19 R -74 -27 R -79 -37 R -83 -47 R
-86 -58 R -90 -71 R -94 -83 R -98 -98 R -101 -116 R -103 -136 R -107 -160 R
-106 -191 R -104 -230 R -93 -279 R -48 -230 R -16 -192 R 12 -197 R 40 -173 R
62 -152 R 78 -141 R 106 -152 R 149 -172 R 199 -189 R 187 -146 R 173 -115 R
159 -90 R 147 -70 R 136 -55 R 127 -42 R 116 -30 R 109 -21 R 99 -12 R 92 -4 R
84 4 R 76 10 R 69 16 R 61 22 R 55 28 R D 0.208 0.208 0.208 setrgbcolor
9770 3927 M 0 1 R 1 1 R 0 1 R 0 1 R 1 0 R 0 1 R 1 0 R 0 1 R 1 0 R 1 0 R
0 1 R 1 0 R 1 0 R 1 0 R 1 0 R 0 -1 R 1 0 R 1 0 R 0 -1 R 1 0 R 0 -1 R 1 0 R
0 -1 R 0 -1 R 1 0 R 0 -1 R 0 -1 R D 9770 3927 M 0 -1 R 1 -1 R 0 -1 R 0 -1 R
1 0 R 0 -1 R 1 0 R 0 -1 R 1 0 R 1 0 R 1 0 R 0 -1 R 1 0 R 1 0 R 1 1 R 1 0 R
1 0 R 0 1 R 1 0 R 0 1 R 1 0 R 0 1 R 0 1 R 1 0 R 0 1 R 0 1 R D
0.000 0.000 0.000 setrgbcolor 9777 3927 M Z gsave 10281 2164 translate 0 0 M
(30.1Gyr) show grestore gsave 10281 1812 translate 0 0 M
(3.0e11M) show X -101.051 M
%%IncludeResource: font Helvetica
262.467 /Helvetica STDFONT
(sun) show grestore
%%IncludeResource: font Helvetica
423.333 /Helvetica STDFONT
%%PageTrailer
end
%%PageResources: font Helvetica
%%Trailer
%%Pages: 1
%%DocumentNeededResources: font Helvetica
%%EOF
