%!PS-Adobe-3.0 EPSF-3.0
%%BoundingBox: 0 0 510 510
%%Title: Graphics produced by IDL
%%For: dacia@Lserver, /home/dacia/work/subhalo_model
%%Creator: IDL Version 7.0 (linux x86_64 m64)
%%CreationDate: Tue Dec 15 10:31:40 2009
%%DocumentData: Clean7bit
%%Requirements: color
%%LanguageLevel: 1
%%PageOrder: Ascend
%%Pages: (atend)
%%DocumentNeededResources: (atend)
%%EndComments
%%BeginProlog
%+ prolog.ps -- Prolog for IDL generated PostScript files
%+ Copyright (c) 1988-2007 ITT Visual Information Solutions. All Rights Reserved.
%v 5
/$IDL_DICT 40 dict def $IDL_DICT begin /bdef { bind def } bind def /C
{currentpoint newpath moveto} bdef /CP {currentpoint} bdef /D {currentpoint
stroke moveto} bdef /F {closepath fill} bdef /K { setgray } bdef /M {moveto}
bdef /N {rmoveto} bdef /P {lineto} bdef /R {rlineto} bdef /S {gsave show
grestore} bdef /X {currentpoint pop} bdef /Z {gsave currentpoint lineto 20
setlinewidth 1 setlinecap stroke grestore} bdef /L0 {[] 0 setdash} bdef /L1
{[40 100] 0 setdash} bdef /L2 {[200 200] 0 setdash} bdef /L3 {[200 100 50
100] 0 setdash} bdef /L4 {[300 100 50 100 50 100 50 100] 0 setdash} bdef /L5
{[400 200] 0 setdash} bdef /STDFONT { findfont exch scalefont setfont } bdef
/ISOFONT { findfont dup length dict begin { 1 index /FID ne {def} {pop pop}
ifelse } forall /Encoding ISOLatin1Encoding def currentdict end /idltmpfont
exch definefont exch scalefont setfont } bdef /ISOBULLET { gsave /Helvetica
findfont exch scalefont setfont (\267) show currentpoint grestore moveto}
bdef /MITERLIMIT { 2.5 setmiterlimit } bdef end
%%EndProlog
%%Page: 0 1
%%PageRequirements: color
%%PageResources: (atend)
%%PageOrientation: Portrait
%%PageBoundingBox: 0 0 510 510
%%BeginPageSetup
$IDL_DICT begin 0.0283465 dup scale MITERLIMIT
%%IncludeResource: font Helvetica
423.333 /Helvetica STDFONT
%%EndPageSetup
0.000 0.000 0.000 setrgbcolor gsave 9777 352 translate 0 0 M -458.682 0 N
(r/kpc) show grestore gsave 888 9352 translate 0 0 M 90 rotate -458.682 0 N
(r/kpc) show grestore 40 setlinewidth L0 2220 12000 M 5038 0 R D
2227 12000 M 0 202 R D gsave 2227 11472 translate 0 0 M -58.8433 0 N
( ) show grestore 3483 12000 M 0 202 R D gsave 3483 11472 translate 0 0 M
-58.8433 0 N
( ) show grestore 4739 12000 M 0 202 R D gsave 4739 11472 translate 0 0 M
-58.8433 0 N
( ) show grestore 5995 12000 M 0 202 R D gsave 5995 11472 translate 0 0 M
-58.8433 0 N
( ) show grestore 7251 12000 M 0 202 R D gsave 7251 11472 translate 0 0 M
-58.8433 0 N
( ) show grestore 2353 12000 M 0 101 R D 2478 12000 M 0 101 R D 2604 12000 M
0 101 R D 2729 12000 M 0 101 R D 2855 12000 M 0 101 R D 2981 12000 M 0 101 R
D 3106 12000 M 0 101 R D 3232 12000 M 0 101 R D 3357 12000 M 0 101 R D
3609 12000 M 0 101 R D 3734 12000 M 0 101 R D 3860 12000 M 0 101 R D
3985 12000 M 0 101 R D 4111 12000 M 0 101 R D 4237 12000 M 0 101 R D
4362 12000 M 0 101 R D 4488 12000 M 0 101 R D 4613 12000 M 0 101 R D
4865 12000 M 0 101 R D 4990 12000 M 0 101 R D 5116 12000 M 0 101 R D
5241 12000 M 0 101 R D 5367 12000 M 0 101 R D 5493 12000 M 0 101 R D
5618 12000 M 0 101 R D 5744 12000 M 0 101 R D 5869 12000 M 0 101 R D
6121 12000 M 0 101 R D 6246 12000 M 0 101 R D 6372 12000 M 0 101 R D
6498 12000 M 0 101 R D 6623 12000 M 0 101 R D 6749 12000 M 0 101 R D
6874 12000 M 0 101 R D 7000 12000 M 0 101 R D 7126 12000 M 0 101 R D
2220 17038 M 5038 0 R D 2227 17038 M 0 -201 R D 3483 17038 M 0 -201 R D
4739 17038 M 0 -201 R D 5995 17038 M 0 -201 R D 7251 17038 M 0 -201 R D
2353 17038 M 0 -101 R D 2478 17038 M 0 -101 R D 2604 17038 M 0 -101 R D
2729 17038 M 0 -101 R D 2855 17038 M 0 -101 R D 2981 17038 M 0 -101 R D
3106 17038 M 0 -101 R D 3232 17038 M 0 -101 R D 3357 17038 M 0 -101 R D
3609 17038 M 0 -101 R D 3734 17038 M 0 -101 R D 3860 17038 M 0 -101 R D
3985 17038 M 0 -101 R D 4111 17038 M 0 -101 R D 4237 17038 M 0 -101 R D
4362 17038 M 0 -101 R D 4488 17038 M 0 -101 R D 4613 17038 M 0 -101 R D
4865 17038 M 0 -101 R D 4990 17038 M 0 -101 R D 5116 17038 M 0 -101 R D
5241 17038 M 0 -101 R D 5367 17038 M 0 -101 R D 5493 17038 M 0 -101 R D
5618 17038 M 0 -101 R D 5744 17038 M 0 -101 R D 5869 17038 M 0 -101 R D
6121 17038 M 0 -101 R D 6246 17038 M 0 -101 R D 6372 17038 M 0 -101 R D
6498 17038 M 0 -101 R D 6623 17038 M 0 -101 R D 6749 17038 M 0 -101 R D
6874 17038 M 0 -101 R D 7000 17038 M 0 -101 R D 7126 17038 M 0 -101 R D
2220 12000 M 0 5038 R D 2220 12007 M 202 0 R D
gsave 2109 12000 translate 0 0 M -847.09 0 N
(-200) show grestore 2220 13263 M 202 0 R D gsave 2109 13122 translate 0 0 M
-847.09 0 N
(-100) show grestore 2220 14519 M 202 0 R D gsave 2109 14378 translate 0 0 M
-235.373 0 N
(0) show grestore 2220 15775 M 202 0 R D gsave 2109 15634 translate 0 0 M
-706.12 0 N
(100) show grestore 2220 17031 M 202 0 R D gsave 2109 16792 translate 0 0 M
-706.12 0 N
(200) show grestore 2220 12133 M 101 0 R D 2220 12258 M 101 0 R D
2220 12384 M 101 0 R D 2220 12509 M 101 0 R D 2220 12635 M 101 0 R D
2220 12761 M 101 0 R D 2220 12886 M 101 0 R D 2220 13012 M 101 0 R D
2220 13137 M 101 0 R D 2220 13389 M 101 0 R D 2220 13514 M 101 0 R D
2220 13640 M 101 0 R D 2220 13765 M 101 0 R D 2220 13891 M 101 0 R D
2220 14017 M 101 0 R D 2220 14142 M 101 0 R D 2220 14268 M 101 0 R D
2220 14393 M 101 0 R D 2220 14645 M 101 0 R D 2220 14770 M 101 0 R D
2220 14896 M 101 0 R D 2220 15021 M 101 0 R D 2220 15147 M 101 0 R D
2220 15273 M 101 0 R D 2220 15398 M 101 0 R D 2220 15524 M 101 0 R D
2220 15649 M 101 0 R D 2220 15901 M 101 0 R D 2220 16026 M 101 0 R D
2220 16152 M 101 0 R D 2220 16278 M 101 0 R D 2220 16403 M 101 0 R D
2220 16529 M 101 0 R D 2220 16654 M 101 0 R D 2220 16780 M 101 0 R D
2220 16906 M 101 0 R D 7258 12000 M 0 5038 R D 7258 12007 M -201 0 R D
7258 13263 M -201 0 R D 7258 14519 M -201 0 R D 7258 15775 M -201 0 R D
7258 17031 M -201 0 R D 7258 12133 M -101 0 R D 7258 12258 M -101 0 R D
7258 12384 M -101 0 R D 7258 12509 M -101 0 R D 7258 12635 M -101 0 R D
7258 12761 M -101 0 R D 7258 12886 M -101 0 R D 7258 13012 M -101 0 R D
7258 13137 M -101 0 R D 7258 13389 M -101 0 R D 7258 13514 M -101 0 R D
7258 13640 M -101 0 R D 7258 13765 M -101 0 R D 7258 13891 M -101 0 R D
7258 14017 M -101 0 R D 7258 14142 M -101 0 R D 7258 14268 M -101 0 R D
7258 14393 M -101 0 R D 7258 14645 M -101 0 R D 7258 14770 M -101 0 R D
7258 14896 M -101 0 R D 7258 15021 M -101 0 R D 7258 15147 M -101 0 R D
7258 15273 M -101 0 R D 7258 15398 M -101 0 R D 7258 15524 M -101 0 R D
7258 15649 M -101 0 R D 7258 15901 M -101 0 R D 7258 16026 M -101 0 R D
7258 16152 M -101 0 R D 7258 16278 M -101 0 R D 7258 16403 M -101 0 R D
7258 16529 M -101 0 R D 7258 16654 M -101 0 R D 7258 16780 M -101 0 R D
7258 16906 M -101 0 R D 7258 14519 M -7 188 R -56 372 R -110 359 R
-163 339 R -212 310 R -255 276 R -294 235 R -325 189 R -349 138 R -367 84 R
-374 29 R -375 -27 R -367 -83 R -350 -136 R -327 -187 R -176 -131 R
-162 -143 R -149 -157 R -136 -171 R -122 -183 R -106 -194 R -89 -205 R
-71 -214 R -52 -221 R -32 -227 R -12 -230 R 10 -232 R 31 -232 R 36 -163 R
49 -169 R 61 -165 R 73 -163 R 85 -158 R 97 -153 R 109 -147 R 121 -140 R
131 -132 R 142 -123 R 118 -89 R 123 -81 R 128 -75 R 133 -68 R 139 -60 R
143 -52 R 147 -43 R 150 -35 R 153 -26 R 137 -15 R 137 -7 R 139 0 R 140 8 R
141 16 R 140 24 R 140 32 R 139 41 R 137 48 R 135 57 R 116 57 R 114 62 R
111 70 R 108 75 R 105 82 R 95 82 R 101 97 R 86 92 R 81 95 R 85 111 R
70 104 R 65 106 R 59 109 R 54 111 R 48 114 R 43 117 R 37 118 R 31 120 R
25 121 R 19 122 R 13 124 R 7 123 R 1 124 R -5 124 R -12 123 R -17 123 R
-23 121 R -30 121 R -35 118 R -41 117 R -46 115 R -53 112 R -57 110 R
-63 106 R -69 104 R -73 100 R -78 96 R -82 92 R -87 88 R -92 84 R -95 79 R
-99 74 R -103 70 R -105 64 R -109 59 R -112 54 R -114 48 R -117 42 R
-118 36 R -120 31 R -121 25 R -123 19 R -123 12 R -123 7 R -124 1 R
-124 -6 R -123 -12 R -123 -17 R -121 -24 R -121 -29 R -118 -36 R -117 -41 R
-115 -47 R -112 -53 R -109 -58 R -107 -63 R -103 -68 R -100 -74 R -96 -78 R
-92 -83 R -88 -87 R -83 -92 R -79 -95 R -74 -99 R -69 -103 R -64 -106 R
-59 -109 R -53 -112 R -48 -114 R -42 -117 R -36 -118 R -30 -120 R -25 -122 R
-18 -122 R -13 -123 R -6 -124 R 0 -124 R 6 -123 R 11 -124 R 18 -122 R
24 -122 R 30 -120 R 36 -119 R 42 -116 R 47 -115 R 53 -112 R 58 -109 R
63 -106 R 69 -103 R 74 -100 R 78 -96 R 83 -91 R 88 -88 R 92 -83 R 95 -79 R
100 -74 R 103 -69 R 106 -63 R 109 -59 R 112 -53 R 114 -47 R 117 -42 R
119 -36 R 120 -30 R 121 -24 R 123 -18 R 123 -12 R 124 -6 R 123 0 R 124 6 R
123 12 R 123 19 R 121 24 R 120 30 R 119 36 R 116 42 R 115 47 R 112 54 R
109 58 R 106 64 R 103 69 R 99 74 R 96 79 R 91 83 R 88 88 R 83 91 R 78 96 R
74 100 R 68 103 R 64 106 R 58 110 R 52 112 R 48 114 R 41 117 R 36 119 R
29 120 R 24 121 R 18 123 R 12 123 R 6 124 R -1 124 R -6 124 R -13 123 R
-18 122 R -25 122 R -31 120 R -36 118 R -42 116 R -48 115 R -53 111 R
-59 109 R -64 106 R -69 103 R -75 99 R -79 96 R -83 91 R -88 87 R -92 83 R
-96 78 R -100 73 R -103 69 R -107 63 R -109 58 R -113 52 R -114 47 R
-117 41 R -119 35 R -120 30 R -122 23 R -122 18 R -124 11 R -123 6 R
-124 -1 R -124 -7 R -123 -13 R -122 -19 R -122 -25 R -120 -30 R -118 -37 R
-116 -42 R -114 -49 R -112 -53 R -109 -59 R -106 -65 R -102 -69 R -99 -75 R
-95 -79 R -91 -84 R -87 -88 R -83 -92 R -78 -96 R -73 -100 R -68 -104 R
-63 -107 R -57 -109 R -52 -113 R -47 -114 R -41 -117 R -35 -119 R -29 -120 R
-23 -122 R -17 -123 R -12 -123 R -5 -124 R 1 -124 R 8 -123 R 13 -123 R
19 -123 R 25 -121 R 31 -120 R 37 -118 R 43 -116 R 48 -114 R 54 -112 R
60 -108 R 64 -106 R 70 -102 R 75 -99 R 79 -95 R 84 -91 R 89 -87 R 92 -82 R
97 -78 R 100 -73 R 104 -67 R 106 -63 R 110 -57 R 113 -52 R 115 -46 R
117 -41 R 118 -35 R 121 -28 R 122 -23 R 122 -17 R 124 -11 R 123 -5 R 124 2 R
124 7 R 123 14 R 122 19 R 121 26 R 120 31 R 118 37 R 116 43 R 114 49 R
112 54 R 108 60 R 106 65 R 102 70 R 98 75 R 95 80 R 91 84 R 86 88 R 82 93 R
78 97 R 72 100 R 68 104 R 62 107 R 57 110 R 52 113 R 46 115 R 40 117 R
34 119 R 29 120 R 22 122 R 17 123 R 11 123 R 4 124 R -2 124 R -7 123 R
-14 123 R -20 123 R -26 121 R -32 119 R -37 118 R -44 116 R -49 114 R
-54 111 R -60 109 R -65 105 R -71 102 R -75 98 R -80 95 R -84 91 R -89 86 R
-93 82 R -97 77 R -100 72 R -104 67 R -108 62 R -110 57 R -112 51 R
-116 46 R -117 40 R -119 34 R -120 28 R -122 22 R -123 17 R -123 10 R
-124 4 R -124 -2 R -124 -8 R -123 -14 R -122 -20 R -121 -26 R -119 -33 R
-118 -37 R -116 -44 R -114 -49 R -111 -55 R -108 -60 R -105 -66 R -102 -70 R
-98 -76 R -95 -80 R -90 -85 R -86 -89 R -82 -93 R -76 -97 R -73 -101 R
-66 -104 R -62 -107 R -57 -110 R -51 -113 R -45 -116 R -40 -117 R -33 -119 R
-28 -121 R -22 -122 R -16 -122 R -10 -124 R -4 -124 R 2 -123 R 9 -124 R
14 -123 R 21 -122 R 26 -121 R 33 -120 R 38 -118 R 44 -115 R 49 -114 R
55 -111 R 61 -108 R 66 -105 R 70 -101 R 76 -98 R 80 -94 R 85 -91 R 90 -85 R
93 -82 R 97 -76 R 101 -72 R 105 -67 R 107 -61 R 111 -57 R 113 -50 R
115 -45 R 117 -40 R 120 -33 R 120 -28 R 122 -21 R 123 -16 R 124 -9 R
123 -4 R 124 3 R 124 8 R 123 15 R 122 21 R 121 27 R 119 32 R 118 39 R
115 44 R 114 50 R 111 55 R 107 61 R 105 66 R 102 71 R 98 76 R 93 81 R
90 85 R 86 89 R 81 94 R 76 98 R 72 101 R 66 104 R 62 108 R 55 110 R 51 113 R
45 116 R 39 117 R 33 120 R 27 121 R 21 122 R 16 122 R 9 124 R 3 124 R
-3 124 R -9 123 R -15 123 R -21 122 R -27 121 R -33 119 R -39 118 R
-44 115 R -51 114 R -55 110 R -61 108 R -67 105 R -71 101 R -76 98 R
-81 93 R -85 90 R -90 85 R -94 81 R -98 76 R -101 72 R -105 66 R -107 61 R
-111 55 R -113 50 R -116 45 R -118 38 R -119 33 R -121 27 R -122 21 R
-123 15 R -123 9 R -124 3 R -124 -3 R -123 -9 R -123 -16 R -122 -21 R
-121 -28 R -119 -33 R -118 -39 R -115 -45 R -113 -50 R -111 -56 R -107 -62 R
-105 -66 R -101 -72 R -97 -76 R -94 -81 R -89 -86 R -85 -90 R -81 -94 R
-76 -98 R -71 -101 R -66 -105 R -61 -108 R -55 -111 R -50 -113 R -44 -116 R
-38 -118 R -33 -119 R -26 -121 R -21 -122 R -15 -123 R -8 -124 R -3 -124 R
4 -123 R 9 -124 R 16 -123 R 22 -122 R 27 -120 R 34 -119 R 39 -118 R
46 -115 R 50 -113 R 57 -110 R 61 -108 R 67 -104 R 72 -101 R 76 -97 R
82 -94 R 86 -89 R 90 -85 R 94 -80 R 98 -76 R 102 -70 R 105 -66 R 108 -61 R
111 -55 R 113 -49 R 116 -44 R 118 -38 R 120 -32 R 121 -27 R 122 -20 R
123 -14 R 123 -9 R 124 -2 R 124 4 R 123 10 R 123 16 R 122 22 R 121 28 R
119 34 R 117 40 R 115 45 R 113 51 R 110 57 R 108 61 R 104 68 R 100 72 R
97 77 R 94 81 R 89 86 R 84 91 R 80 94 R 76 98 R 70 102 R 66 105 R 60 109 R
54 111 R 50 113 R 43 116 R 38 118 R 32 120 R 26 121 R 20 122 R 14 123 R
8 124 R 2 124 R -4 123 R -11 124 R -16 123 R -22 121 R -28 121 R -35 119 R
-40 117 R -45 115 R -52 113 R -57 110 R -62 107 R -67 104 R -72 101 R
-78 96 R -81 93 R -87 89 R -90 85 R -95 79 R -98 76 R -102 70 R -106 65 R
-108 60 R -111 54 R -114 49 R -116 43 R -118 38 R -120 31 R -121 26 R
-122 20 R -124 14 R -123 7 R -124 2 R -124 -5 R -123 -10 R -123 -17 R
-122 -23 R -120 -28 R -119 -35 R -117 -40 R -115 -46 R -113 -52 R -110 -57 R
-106 -62 R -104 -68 R -101 -72 R D 0.208 0.208 0.208 setrgbcolor
4727 14519 M 0 3 R 0 1 R 1 1 R 0 1 R 1 1 R 0 1 R 1 0 R 0 1 R 1 0 R 0 1 R
1 0 R 0 1 R 1 0 R 1 0 R 0 1 R 1 0 R 1 0 R 1 0 R 0 1 R 1 0 R 1 0 R 1 0 R
1 0 R 0 -1 R 1 0 R 1 0 R 1 0 R 0 -1 R 1 0 R 1 0 R 0 -1 R 1 0 R 1 -1 R 1 -1 R
0 -1 R 1 0 R 0 -1 R 1 -1 R 0 -1 R 0 -1 R 1 -3 R D 4727 14519 M 0 -2 R 0 -1 R
0 -1 R 1 -1 R 0 -1 R 1 -1 R 0 -1 R 1 0 R 0 -1 R 1 0 R 0 -1 R 1 0 R 1 -1 R
1 0 R 0 -1 R 1 0 R 1 0 R 1 0 R 1 0 R 1 0 R 1 0 R 1 0 R 1 0 R 1 0 R 1 0 R
0 1 R 1 0 R 1 0 R 0 1 R 1 0 R 0 1 R 1 0 R 0 1 R 1 0 R 0 1 R 1 0 R 0 1 R
0 1 R 1 0 R 0 1 R 0 1 R 0 1 R 1 2 R D 0.000 0.000 0.000 setrgbcolor
4739 14519 M Z gsave 5243 12756 translate 0 0 M
(45.0Gyr) show grestore gsave 5243 12404 translate 0 0 M
(5.0e10M) show X -101.051 M
%%IncludeResource: font Helvetica
262.467 /Helvetica STDFONT
(sun) show grestore
%%IncludeResource: font Helvetica
423.333 /Helvetica STDFONT 7258 12000 M 5038 0 R D 7265 12000 M 0 202 R D
gsave 7265 11472 translate 0 0 M -58.8433 0 N
( ) show grestore 8521 12000 M 0 202 R D gsave 8521 11472 translate 0 0 M
-58.8433 0 N
( ) show grestore 9777 12000 M 0 202 R D gsave 9777 11472 translate 0 0 M
-58.8433 0 N
( ) show grestore 11033 12000 M 0 202 R D gsave 11033 11472 translate 0 0 M
-58.8433 0 N
( ) show grestore 12289 12000 M 0 202 R D gsave 12289 11472 translate 0 0 M
-58.8433 0 N
( ) show grestore 7391 12000 M 0 101 R D 7516 12000 M 0 101 R D 7642 12000 M
0 101 R D 7767 12000 M 0 101 R D 7893 12000 M 0 101 R D 8019 12000 M 0 101 R
D 8144 12000 M 0 101 R D 8270 12000 M 0 101 R D 8395 12000 M 0 101 R D
8647 12000 M 0 101 R D 8772 12000 M 0 101 R D 8898 12000 M 0 101 R D
9023 12000 M 0 101 R D 9149 12000 M 0 101 R D 9275 12000 M 0 101 R D
9400 12000 M 0 101 R D 9526 12000 M 0 101 R D 9651 12000 M 0 101 R D
9903 12000 M 0 101 R D 10028 12000 M 0 101 R D 10154 12000 M 0 101 R D
10279 12000 M 0 101 R D 10405 12000 M 0 101 R D 10531 12000 M 0 101 R D
10656 12000 M 0 101 R D 10782 12000 M 0 101 R D 10907 12000 M 0 101 R D
11159 12000 M 0 101 R D 11284 12000 M 0 101 R D 11410 12000 M 0 101 R D
11536 12000 M 0 101 R D 11661 12000 M 0 101 R D 11787 12000 M 0 101 R D
11912 12000 M 0 101 R D 12038 12000 M 0 101 R D 12164 12000 M 0 101 R D
7258 17038 M 5038 0 R D 7265 17038 M 0 -201 R D 8521 17038 M 0 -201 R D
9777 17038 M 0 -201 R D 11033 17038 M 0 -201 R D 12289 17038 M 0 -201 R D
7391 17038 M 0 -101 R D 7516 17038 M 0 -101 R D 7642 17038 M 0 -101 R D
7767 17038 M 0 -101 R D 7893 17038 M 0 -101 R D 8019 17038 M 0 -101 R D
8144 17038 M 0 -101 R D 8270 17038 M 0 -101 R D 8395 17038 M 0 -101 R D
8647 17038 M 0 -101 R D 8772 17038 M 0 -101 R D 8898 17038 M 0 -101 R D
9023 17038 M 0 -101 R D 9149 17038 M 0 -101 R D 9275 17038 M 0 -101 R D
9400 17038 M 0 -101 R D 9526 17038 M 0 -101 R D 9651 17038 M 0 -101 R D
9903 17038 M 0 -101 R D 10028 17038 M 0 -101 R D 10154 17038 M 0 -101 R D
10279 17038 M 0 -101 R D 10405 17038 M 0 -101 R D 10531 17038 M 0 -101 R D
10656 17038 M 0 -101 R D 10782 17038 M 0 -101 R D 10907 17038 M 0 -101 R D
11159 17038 M 0 -101 R D 11284 17038 M 0 -101 R D 11410 17038 M 0 -101 R D
11536 17038 M 0 -101 R D 11661 17038 M 0 -101 R D 11787 17038 M 0 -101 R D
11912 17038 M 0 -101 R D 12038 17038 M 0 -101 R D 12164 17038 M 0 -101 R D
7258 12000 M 0 5038 R D 7258 12007 M 202 0 R D
gsave 7147 12000 translate 0 0 M -117.687 0 N
( ) show grestore 7258 13263 M 202 0 R D gsave 7147 13122 translate 0 0 M
-117.687 0 N
( ) show grestore 7258 14519 M 202 0 R D gsave 7147 14378 translate 0 0 M
-117.687 0 N
( ) show grestore 7258 15775 M 202 0 R D gsave 7147 15634 translate 0 0 M
-117.687 0 N
( ) show grestore 7258 17031 M 202 0 R D gsave 7147 16792 translate 0 0 M
-117.687 0 N
( ) show grestore 7258 12133 M 101 0 R D 7258 12258 M 101 0 R D 7258 12384 M
101 0 R D 7258 12509 M 101 0 R D 7258 12635 M 101 0 R D 7258 12761 M 101 0 R
D 7258 12886 M 101 0 R D 7258 13012 M 101 0 R D 7258 13137 M 101 0 R D
7258 13389 M 101 0 R D 7258 13514 M 101 0 R D 7258 13640 M 101 0 R D
7258 13765 M 101 0 R D 7258 13891 M 101 0 R D 7258 14017 M 101 0 R D
7258 14142 M 101 0 R D 7258 14268 M 101 0 R D 7258 14393 M 101 0 R D
7258 14645 M 101 0 R D 7258 14770 M 101 0 R D 7258 14896 M 101 0 R D
7258 15021 M 101 0 R D 7258 15147 M 101 0 R D 7258 15273 M 101 0 R D
7258 15398 M 101 0 R D 7258 15524 M 101 0 R D 7258 15649 M 101 0 R D
7258 15901 M 101 0 R D 7258 16026 M 101 0 R D 7258 16152 M 101 0 R D
7258 16278 M 101 0 R D 7258 16403 M 101 0 R D 7258 16529 M 101 0 R D
7258 16654 M 101 0 R D 7258 16780 M 101 0 R D 7258 16906 M 101 0 R D
12296 12000 M 0 5038 R D 12296 12007 M -201 0 R D 12296 13263 M -201 0 R D
12296 14519 M -201 0 R D 12296 15775 M -201 0 R D 12296 17031 M -201 0 R D
12296 12133 M -101 0 R D 12296 12258 M -101 0 R D 12296 12384 M -101 0 R D
12296 12509 M -101 0 R D 12296 12635 M -101 0 R D 12296 12761 M -101 0 R D
12296 12886 M -101 0 R D 12296 13012 M -101 0 R D 12296 13137 M -101 0 R D
12296 13389 M -101 0 R D 12296 13514 M -101 0 R D 12296 13640 M -101 0 R D
12296 13765 M -101 0 R D 12296 13891 M -101 0 R D 12296 14017 M -101 0 R D
12296 14142 M -101 0 R D 12296 14268 M -101 0 R D 12296 14393 M -101 0 R D
12296 14645 M -101 0 R D 12296 14770 M -101 0 R D 12296 14896 M -101 0 R D
12296 15021 M -101 0 R D 12296 15147 M -101 0 R D 12296 15273 M -101 0 R D
12296 15398 M -101 0 R D 12296 15524 M -101 0 R D 12296 15649 M -101 0 R D
12296 15901 M -101 0 R D 12296 16026 M -101 0 R D 12296 16152 M -101 0 R D
12296 16278 M -101 0 R D 12296 16403 M -101 0 R D 12296 16529 M -101 0 R D
12296 16654 M -101 0 R D 12296 16780 M -101 0 R D 12296 16906 M -101 0 R D
12296 14519 M -7 188 R -56 372 R -110 359 R -163 339 R -212 310 R -255 276 R
-294 235 R -325 189 R -349 138 R -367 84 R -374 29 R -375 -27 R -367 -83 R
-350 -136 R -327 -187 R -176 -131 R -162 -143 R -149 -157 R -136 -171 R
-122 -183 R -106 -194 R -89 -205 R -71 -214 R -52 -221 R -32 -227 R
-12 -230 R 10 -232 R 31 -232 R 36 -163 R 49 -169 R 61 -165 R 73 -163 R
85 -158 R 97 -153 R 109 -147 R 121 -140 R 131 -132 R 142 -123 R 118 -89 R
123 -81 R 128 -75 R 133 -68 R 139 -60 R 143 -52 R 147 -43 R 150 -35 R
153 -26 R 137 -15 R 137 -7 R 139 0 R 140 8 R 141 16 R 140 24 R 140 32 R
139 41 R 137 48 R 135 57 R 116 57 R 114 62 R 111 70 R 108 75 R 105 82 R
95 82 R 101 97 R 86 92 R 81 95 R 85 111 R 70 104 R 65 106 R 59 109 R
54 111 R 48 114 R 43 117 R 37 118 R 31 120 R 25 121 R 19 122 R 13 124 R
7 123 R 1 124 R -5 124 R -12 123 R -17 123 R -23 121 R -30 121 R -35 118 R
-41 117 R -46 115 R -53 112 R -57 110 R -63 106 R -69 104 R -73 100 R
-78 96 R -82 92 R -87 88 R -92 84 R -95 79 R -99 74 R -103 70 R -105 64 R
-109 59 R -112 54 R -114 48 R -117 42 R -118 36 R -120 31 R -121 25 R
-123 19 R -123 12 R -123 7 R -124 1 R -124 -6 R -123 -12 R -123 -17 R
-121 -24 R -121 -29 R -118 -36 R -117 -41 R -115 -47 R -112 -53 R -109 -58 R
-107 -63 R -103 -68 R -100 -74 R -96 -78 R -92 -83 R -88 -87 R -83 -92 R
-79 -95 R -74 -99 R -69 -103 R -64 -106 R -59 -109 R -53 -112 R -48 -114 R
-42 -117 R -36 -118 R -30 -120 R -25 -122 R -18 -122 R -13 -123 R -6 -124 R
0 -124 R 6 -123 R 11 -124 R 18 -122 R 24 -122 R 30 -120 R 36 -119 R
42 -116 R 47 -115 R 53 -112 R 58 -109 R 63 -106 R 69 -103 R 74 -100 R
78 -96 R 83 -91 R 88 -88 R 92 -83 R 95 -79 R 100 -74 R 103 -69 R 106 -63 R
109 -59 R 112 -53 R 114 -47 R 117 -42 R 119 -36 R 120 -30 R 121 -24 R
123 -18 R 123 -12 R 124 -6 R 123 0 R 124 6 R 123 12 R 123 19 R 121 24 R
120 30 R 119 36 R 116 42 R 115 47 R 112 54 R 109 58 R 106 64 R 103 69 R
99 74 R 96 79 R 91 83 R 88 88 R 83 91 R 78 96 R 74 100 R 68 103 R 64 106 R
58 110 R 52 112 R 48 114 R 41 117 R 36 119 R 29 120 R 24 121 R 18 123 R
12 123 R 6 124 R -1 124 R -6 124 R -13 123 R -18 122 R -25 122 R -31 120 R
-36 118 R -42 116 R -48 115 R -53 111 R -59 109 R -64 106 R -69 103 R
-75 99 R -79 96 R -83 91 R -88 87 R -92 83 R -96 78 R -100 73 R -103 69 R
-107 63 R -109 58 R -113 52 R -114 47 R -117 41 R -119 35 R -120 30 R
-122 23 R -122 18 R -124 11 R -123 6 R -124 -1 R -124 -7 R -123 -13 R
-122 -19 R -122 -25 R -120 -30 R -118 -37 R -116 -42 R -114 -49 R -112 -53 R
-109 -59 R -106 -65 R -102 -69 R -99 -75 R -95 -79 R -91 -84 R -87 -88 R
-83 -92 R -78 -96 R -73 -100 R -68 -104 R -63 -107 R -57 -109 R -52 -113 R
-47 -114 R -41 -117 R -35 -119 R -29 -120 R -23 -122 R -17 -123 R -12 -123 R
-5 -124 R 1 -124 R 8 -123 R 13 -123 R 19 -123 R 25 -121 R 31 -120 R
37 -118 R 43 -116 R 48 -114 R 54 -112 R 60 -108 R 64 -106 R 70 -102 R
75 -99 R 79 -95 R 84 -91 R 89 -87 R 92 -82 R 97 -78 R 100 -73 R 104 -67 R
106 -63 R 110 -57 R 113 -52 R 115 -46 R 117 -41 R 118 -35 R 121 -28 R
122 -23 R 122 -17 R 124 -11 R 123 -5 R 124 2 R 124 7 R 123 14 R 122 19 R
121 26 R 120 31 R 118 37 R 116 43 R 114 49 R 112 54 R 108 60 R 106 65 R
102 70 R 98 75 R 95 80 R 91 84 R 86 88 R 82 93 R 78 97 R 72 100 R 68 104 R
62 107 R 57 110 R 52 113 R 46 115 R 40 117 R 34 119 R 29 120 R 22 122 R
17 123 R 11 123 R 4 124 R -2 124 R -7 123 R -14 123 R -20 123 R -26 121 R
-32 119 R -37 118 R -44 116 R -49 114 R -54 111 R -60 109 R -65 105 R
-71 102 R -75 98 R -80 95 R -84 91 R -89 86 R -93 82 R -97 77 R -100 72 R
-104 67 R -108 62 R -110 57 R -112 51 R -116 46 R -117 40 R -119 34 R
-120 28 R -122 22 R -123 17 R -123 10 R -124 4 R -124 -2 R -124 -8 R
-123 -14 R -122 -20 R -121 -26 R -119 -33 R -118 -37 R -116 -44 R -114 -49 R
-111 -55 R -108 -60 R -105 -66 R -102 -70 R -98 -76 R -95 -80 R -90 -85 R
-86 -89 R -82 -93 R -76 -97 R -73 -101 R -66 -104 R -62 -107 R -57 -110 R
-51 -113 R -45 -116 R -40 -117 R -33 -119 R -28 -121 R -22 -122 R -16 -122 R
-10 -124 R -4 -124 R 2 -123 R 9 -124 R 14 -123 R 21 -122 R 26 -121 R
33 -120 R 38 -118 R 44 -115 R 49 -114 R 55 -111 R 61 -108 R 66 -105 R
70 -101 R 76 -98 R 80 -94 R 85 -91 R 90 -85 R 93 -82 R 97 -76 R 101 -72 R
105 -67 R 107 -61 R 111 -57 R 113 -50 R 115 -45 R 117 -40 R 120 -33 R
120 -28 R 122 -21 R 123 -16 R 124 -9 R 123 -4 R 124 3 R 124 8 R 123 15 R
122 21 R 121 27 R 119 32 R 118 39 R 115 44 R 114 50 R 111 55 R 107 61 R
105 66 R 102 71 R 98 76 R 93 81 R 90 85 R 86 89 R 81 94 R 76 98 R 72 101 R
66 104 R 62 108 R 55 110 R 51 113 R 45 116 R 39 117 R 33 120 R 27 121 R
21 122 R 16 122 R 9 124 R 3 124 R -3 124 R -9 123 R -15 123 R -21 122 R
-27 121 R -33 119 R -39 118 R -44 115 R -51 114 R -55 110 R -61 108 R
-67 105 R -71 101 R -76 98 R -81 93 R -85 90 R -90 85 R -94 81 R -98 76 R
-101 72 R -105 66 R -107 61 R -111 55 R -113 50 R -116 45 R -118 38 R
-119 33 R -121 27 R -122 21 R -123 15 R -123 9 R -124 3 R -124 -3 R
-123 -9 R -123 -16 R -122 -21 R -121 -28 R -119 -33 R -118 -39 R -115 -45 R
-113 -50 R -111 -56 R -107 -62 R -105 -66 R -101 -72 R -97 -76 R -94 -81 R
-89 -86 R -85 -90 R -81 -94 R -76 -98 R -71 -101 R -66 -105 R -61 -108 R
-55 -111 R -50 -113 R -44 -116 R -38 -118 R -33 -119 R -26 -121 R -21 -122 R
-15 -123 R -8 -124 R -3 -124 R 4 -123 R 9 -124 R 16 -123 R 22 -122 R
27 -120 R 34 -119 R 39 -118 R 46 -115 R 50 -113 R 57 -110 R 61 -108 R
67 -104 R 72 -101 R 76 -97 R 82 -94 R 86 -89 R 90 -85 R 94 -80 R 98 -76 R
102 -70 R 105 -66 R 108 -61 R 111 -55 R 113 -49 R 116 -44 R 118 -38 R
120 -32 R 121 -27 R 122 -20 R 123 -14 R 123 -9 R 124 -2 R 124 4 R 123 10 R
123 16 R 122 22 R 121 28 R 119 34 R 117 40 R 115 45 R 113 51 R 110 57 R
108 61 R 104 68 R 100 72 R 97 77 R 94 81 R 89 86 R 84 91 R 80 94 R 76 98 R
70 102 R 66 105 R 60 109 R 54 111 R 50 113 R 43 116 R 38 118 R 32 120 R
26 121 R 20 122 R 14 123 R 8 124 R 2 124 R -4 123 R -11 124 R -16 123 R
-22 121 R -28 121 R -35 119 R -40 117 R -45 115 R -52 113 R -57 110 R
-62 107 R -67 104 R -72 101 R -78 96 R -81 93 R -87 89 R -90 85 R -95 79 R
-98 76 R -102 70 R -106 65 R -108 60 R -111 54 R -114 49 R -116 43 R
-118 38 R -120 31 R -121 26 R -122 20 R -124 14 R -123 7 R -124 2 R
-124 -5 R -123 -10 R -123 -17 R -122 -23 R -120 -28 R -119 -35 R -117 -40 R
-115 -46 R -113 -52 R -110 -57 R -106 -62 R -104 -68 R -101 -72 R D
0.208 0.208 0.208 setrgbcolor 9765 14519 M 0 3 R 0 1 R 1 1 R 0 1 R 1 1 R
0 1 R 1 0 R 0 1 R 1 0 R 0 1 R 1 0 R 0 1 R 1 0 R 1 0 R 0 1 R 1 0 R 1 0 R
1 0 R 0 1 R 1 0 R 1 0 R 1 0 R 1 0 R 0 -1 R 1 0 R 1 0 R 1 0 R 0 -1 R 1 0 R
1 0 R 0 -1 R 1 0 R 1 -1 R 1 -1 R 0 -1 R 1 0 R 0 -1 R 1 -1 R 0 -1 R 0 -1 R
1 -3 R D 9765 14519 M 0 -2 R 0 -1 R 0 -1 R 1 -1 R 0 -1 R 1 -1 R 0 -1 R 1 0 R
0 -1 R 1 0 R 0 -1 R 1 0 R 1 -1 R 1 0 R 0 -1 R 1 0 R 1 0 R 1 0 R 1 0 R 1 0 R
1 0 R 1 0 R 1 0 R 1 0 R 1 0 R 0 1 R 1 0 R 1 0 R 0 1 R 1 0 R 0 1 R 1 0 R
0 1 R 1 0 R 0 1 R 1 0 R 0 1 R 0 1 R 1 0 R 0 1 R 0 1 R 0 1 R 1 2 R D
0.000 0.000 0.000 setrgbcolor 9777 14519 M Z
gsave 10281 12756 translate 0 0 M
(45.0Gyr) show grestore gsave 10281 12404 translate 0 0 M
(7.5e10M) show X -101.051 M
%%IncludeResource: font Helvetica
262.467 /Helvetica STDFONT
(sun) show grestore
%%IncludeResource: font Helvetica
423.333 /Helvetica STDFONT 12296 12000 M 5038 0 R D 12303 12000 M 0 202 R D
gsave 12303 11472 translate 0 0 M -58.8433 0 N
( ) show grestore 13559 12000 M 0 202 R D gsave 13559 11472 translate 0 0 M
-58.8433 0 N
( ) show grestore 14815 12000 M 0 202 R D gsave 14815 11472 translate 0 0 M
-58.8433 0 N
( ) show grestore 16071 12000 M 0 202 R D gsave 16071 11472 translate 0 0 M
-58.8433 0 N
( ) show grestore 17327 12000 M 0 202 R D gsave 17327 11472 translate 0 0 M
-58.8433 0 N
( ) show grestore 12429 12000 M 0 101 R D 12554 12000 M 0 101 R D
12680 12000 M 0 101 R D 12805 12000 M 0 101 R D 12931 12000 M 0 101 R D
13057 12000 M 0 101 R D 13182 12000 M 0 101 R D 13308 12000 M 0 101 R D
13433 12000 M 0 101 R D 13685 12000 M 0 101 R D 13810 12000 M 0 101 R D
13936 12000 M 0 101 R D 14061 12000 M 0 101 R D 14187 12000 M 0 101 R D
14313 12000 M 0 101 R D 14438 12000 M 0 101 R D 14564 12000 M 0 101 R D
14689 12000 M 0 101 R D 14941 12000 M 0 101 R D 15066 12000 M 0 101 R D
15192 12000 M 0 101 R D 15317 12000 M 0 101 R D 15443 12000 M 0 101 R D
15569 12000 M 0 101 R D 15694 12000 M 0 101 R D 15820 12000 M 0 101 R D
15945 12000 M 0 101 R D 16197 12000 M 0 101 R D 16322 12000 M 0 101 R D
16448 12000 M 0 101 R D 16574 12000 M 0 101 R D 16699 12000 M 0 101 R D
16825 12000 M 0 101 R D 16950 12000 M 0 101 R D 17076 12000 M 0 101 R D
17202 12000 M 0 101 R D 12296 17038 M 5038 0 R D 12303 17038 M 0 -201 R D
13559 17038 M 0 -201 R D 14815 17038 M 0 -201 R D 16071 17038 M 0 -201 R D
17327 17038 M 0 -201 R D 12429 17038 M 0 -101 R D 12554 17038 M 0 -101 R D
12680 17038 M 0 -101 R D 12805 17038 M 0 -101 R D 12931 17038 M 0 -101 R D
13057 17038 M 0 -101 R D 13182 17038 M 0 -101 R D 13308 17038 M 0 -101 R D
13433 17038 M 0 -101 R D 13685 17038 M 0 -101 R D 13810 17038 M 0 -101 R D
13936 17038 M 0 -101 R D 14061 17038 M 0 -101 R D 14187 17038 M 0 -101 R D
14313 17038 M 0 -101 R D 14438 17038 M 0 -101 R D 14564 17038 M 0 -101 R D
14689 17038 M 0 -101 R D 14941 17038 M 0 -101 R D 15066 17038 M 0 -101 R D
15192 17038 M 0 -101 R D 15317 17038 M 0 -101 R D 15443 17038 M 0 -101 R D
15569 17038 M 0 -101 R D 15694 17038 M 0 -101 R D 15820 17038 M 0 -101 R D
15945 17038 M 0 -101 R D 16197 17038 M 0 -101 R D 16322 17038 M 0 -101 R D
16448 17038 M 0 -101 R D 16574 17038 M 0 -101 R D 16699 17038 M 0 -101 R D
16825 17038 M 0 -101 R D 16950 17038 M 0 -101 R D 17076 17038 M 0 -101 R D
17202 17038 M 0 -101 R D 12296 12000 M 0 5038 R D 12296 12007 M 202 0 R D
gsave 12185 12000 translate 0 0 M -117.687 0 N
( ) show grestore 12296 13263 M 202 0 R D gsave 12185 13122 translate 0 0 M
-117.687 0 N
( ) show grestore 12296 14519 M 202 0 R D gsave 12185 14378 translate 0 0 M
-117.687 0 N
( ) show grestore 12296 15775 M 202 0 R D gsave 12185 15634 translate 0 0 M
-117.687 0 N
( ) show grestore 12296 17031 M 202 0 R D gsave 12185 16792 translate 0 0 M
-117.687 0 N
( ) show grestore 12296 12133 M 101 0 R D 12296 12258 M 101 0 R D
12296 12384 M 101 0 R D 12296 12509 M 101 0 R D 12296 12635 M 101 0 R D
12296 12761 M 101 0 R D 12296 12886 M 101 0 R D 12296 13012 M 101 0 R D
12296 13137 M 101 0 R D 12296 13389 M 101 0 R D 12296 13514 M 101 0 R D
12296 13640 M 101 0 R D 12296 13765 M 101 0 R D 12296 13891 M 101 0 R D
12296 14017 M 101 0 R D 12296 14142 M 101 0 R D 12296 14268 M 101 0 R D
12296 14393 M 101 0 R D 12296 14645 M 101 0 R D 12296 14770 M 101 0 R D
12296 14896 M 101 0 R D 12296 15021 M 101 0 R D 12296 15147 M 101 0 R D
12296 15273 M 101 0 R D 12296 15398 M 101 0 R D 12296 15524 M 101 0 R D
12296 15649 M 101 0 R D 12296 15901 M 101 0 R D 12296 16026 M 101 0 R D
12296 16152 M 101 0 R D 12296 16278 M 101 0 R D 12296 16403 M 101 0 R D
12296 16529 M 101 0 R D 12296 16654 M 101 0 R D 12296 16780 M 101 0 R D
12296 16906 M 101 0 R D 17334 12000 M 0 5038 R D 17334 12007 M -201 0 R D
17334 13263 M -201 0 R D 17334 14519 M -201 0 R D 17334 15775 M -201 0 R D
17334 17031 M -201 0 R D 17334 12133 M -101 0 R D 17334 12258 M -101 0 R D
17334 12384 M -101 0 R D 17334 12509 M -101 0 R D 17334 12635 M -101 0 R D
17334 12761 M -101 0 R D 17334 12886 M -101 0 R D 17334 13012 M -101 0 R D
17334 13137 M -101 0 R D 17334 13389 M -101 0 R D 17334 13514 M -101 0 R D
17334 13640 M -101 0 R D 17334 13765 M -101 0 R D 17334 13891 M -101 0 R D
17334 14017 M -101 0 R D 17334 14142 M -101 0 R D 17334 14268 M -101 0 R D
17334 14393 M -101 0 R D 17334 14645 M -101 0 R D 17334 14770 M -101 0 R D
17334 14896 M -101 0 R D 17334 15021 M -101 0 R D 17334 15147 M -101 0 R D
17334 15273 M -101 0 R D 17334 15398 M -101 0 R D 17334 15524 M -101 0 R D
17334 15649 M -101 0 R D 17334 15901 M -101 0 R D 17334 16026 M -101 0 R D
17334 16152 M -101 0 R D 17334 16278 M -101 0 R D 17334 16403 M -101 0 R D
17334 16529 M -101 0 R D 17334 16654 M -101 0 R D 17334 16780 M -101 0 R D
17334 16906 M -101 0 R D 17334 14519 M -7 188 R -56 372 R -110 359 R
-163 339 R -212 310 R -255 276 R -294 235 R -325 189 R -349 138 R -367 84 R
-374 29 R -375 -27 R -367 -83 R -350 -136 R -327 -187 R -176 -131 R
-162 -143 R -149 -157 R -136 -171 R -122 -183 R -106 -194 R -89 -205 R
-71 -214 R -52 -221 R -32 -227 R -12 -230 R 10 -232 R 31 -232 R 36 -163 R
49 -169 R 61 -165 R 73 -163 R 85 -158 R 97 -153 R 109 -147 R 121 -140 R
131 -132 R 142 -123 R 118 -89 R 123 -81 R 128 -75 R 133 -68 R 139 -60 R
143 -52 R 147 -43 R 150 -35 R 153 -26 R 137 -15 R 137 -7 R 139 0 R 140 8 R
141 16 R 140 24 R 140 32 R 139 41 R 137 48 R 135 57 R 116 57 R 114 62 R
111 70 R 108 75 R 105 82 R 95 82 R 101 97 R 86 92 R 81 95 R 85 111 R
70 104 R 65 106 R 59 109 R 54 111 R 48 114 R 43 117 R 37 118 R 31 120 R
25 121 R 19 122 R 13 124 R 7 123 R 1 124 R -5 124 R -12 123 R -17 123 R
-23 121 R -30 121 R -35 118 R -41 117 R -46 115 R -53 112 R -57 110 R
-63 106 R -69 104 R -73 100 R -78 96 R -82 92 R -87 88 R -92 84 R -95 79 R
-99 74 R -103 70 R -105 64 R -109 59 R -112 54 R -114 48 R -117 42 R
-118 36 R -120 31 R -121 25 R -123 19 R -123 12 R -123 7 R -124 1 R
-124 -6 R -123 -12 R -123 -17 R -121 -24 R -121 -29 R -118 -36 R -117 -41 R
-115 -47 R -112 -53 R -109 -58 R -107 -63 R -103 -68 R -100 -74 R -96 -78 R
-92 -83 R -88 -87 R -83 -92 R -79 -95 R -74 -99 R -69 -103 R -64 -106 R
-59 -109 R -53 -112 R -48 -114 R -42 -117 R -36 -118 R -30 -120 R -25 -122 R
-18 -122 R -13 -123 R -6 -124 R 0 -124 R 6 -123 R 11 -124 R 18 -122 R
24 -122 R 30 -120 R 36 -119 R 42 -116 R 47 -115 R 53 -112 R 58 -109 R
63 -106 R 69 -103 R 74 -100 R 78 -96 R 83 -91 R 88 -88 R 92 -83 R 95 -79 R
100 -74 R 103 -69 R 106 -63 R 109 -59 R 112 -53 R 114 -47 R 117 -42 R
119 -36 R 120 -30 R 121 -24 R 123 -18 R 123 -12 R 124 -6 R 123 0 R 124 6 R
123 12 R 123 19 R 121 24 R 120 30 R 119 36 R 116 42 R 115 47 R 112 54 R
109 58 R 106 64 R 103 69 R 99 74 R 96 79 R 91 83 R 88 88 R 83 91 R 78 96 R
74 100 R 68 103 R 64 106 R 58 110 R 52 112 R 48 114 R 41 117 R 36 119 R
29 120 R 24 121 R 18 123 R 12 123 R 6 124 R -1 124 R -6 124 R -13 123 R
-18 122 R -25 122 R -31 120 R -36 118 R -42 116 R -48 115 R -53 111 R
-59 109 R -64 106 R -69 103 R -75 99 R -79 96 R -83 91 R -88 87 R -92 83 R
-96 78 R -100 73 R -103 69 R -107 63 R -109 58 R -113 52 R -114 47 R
-117 41 R -119 35 R -120 30 R -122 23 R -122 18 R -124 11 R -123 6 R
-124 -1 R -124 -7 R -123 -13 R -122 -19 R -122 -25 R -120 -30 R -118 -37 R
-116 -42 R -114 -49 R -112 -53 R -109 -59 R -106 -65 R -102 -69 R -99 -75 R
-95 -79 R -91 -84 R -87 -88 R -83 -92 R -78 -96 R -73 -100 R -68 -104 R
-63 -107 R -57 -109 R -52 -113 R -47 -114 R -41 -117 R -35 -119 R -29 -120 R
-23 -122 R -17 -123 R -12 -123 R -5 -124 R 1 -124 R 8 -123 R 13 -123 R
19 -123 R 25 -121 R 31 -120 R 37 -118 R 43 -116 R 48 -114 R 54 -112 R
60 -108 R 64 -106 R 70 -102 R 75 -99 R 79 -95 R 84 -91 R 89 -87 R 92 -82 R
97 -78 R 100 -73 R 104 -67 R 106 -63 R 110 -57 R 113 -52 R 115 -46 R
117 -41 R 118 -35 R 121 -28 R 122 -23 R 122 -17 R 124 -11 R 123 -5 R 124 2 R
124 7 R 123 14 R 122 19 R 121 26 R 120 31 R 118 37 R 116 43 R 114 49 R
112 54 R 108 60 R 106 65 R 102 70 R 98 75 R 95 80 R 91 84 R 86 88 R 82 93 R
78 97 R 72 100 R 68 104 R 62 107 R 57 110 R 52 113 R 46 115 R 40 117 R
34 119 R 29 120 R 22 122 R 17 123 R 11 123 R 4 124 R -2 124 R -7 123 R
-14 123 R -20 123 R -26 121 R -32 119 R -37 118 R -44 116 R -49 114 R
-54 111 R -60 109 R -65 105 R -71 102 R -75 98 R -80 95 R -84 91 R -89 86 R
-93 82 R -97 77 R -100 72 R -104 67 R -108 62 R -110 57 R -112 51 R
-116 46 R -117 40 R -119 34 R -120 28 R -122 22 R -123 17 R -123 10 R
-124 4 R -124 -2 R -124 -8 R -123 -14 R -122 -20 R -121 -26 R -119 -33 R
-118 -37 R -116 -44 R -114 -49 R -111 -55 R -108 -60 R -105 -66 R -102 -70 R
-98 -76 R -95 -80 R -90 -85 R -86 -89 R -82 -93 R -76 -97 R -73 -101 R
-66 -104 R -62 -107 R -57 -110 R -51 -113 R -45 -116 R -40 -117 R -33 -119 R
-28 -121 R -22 -122 R -16 -122 R -10 -124 R -4 -124 R 2 -123 R 9 -124 R
14 -123 R 21 -122 R 26 -121 R 33 -120 R 38 -118 R 44 -115 R 49 -114 R
55 -111 R 61 -108 R 66 -105 R 70 -101 R 76 -98 R 80 -94 R 85 -91 R 90 -85 R
93 -82 R 97 -76 R 101 -72 R 105 -67 R 107 -61 R 111 -57 R 113 -50 R
115 -45 R 117 -40 R 120 -33 R 120 -28 R 122 -21 R 123 -16 R 124 -9 R
123 -4 R 124 3 R 124 8 R 123 15 R 122 21 R 121 27 R 119 32 R 118 39 R
115 44 R 114 50 R 111 55 R 107 61 R 105 66 R 102 71 R 98 76 R 93 81 R
90 85 R 86 89 R 81 94 R 76 98 R 72 101 R 66 104 R 62 108 R 55 110 R 51 113 R
45 116 R 39 117 R 33 120 R 27 121 R 21 122 R 16 122 R 9 124 R 3 124 R
-3 124 R -9 123 R -15 123 R -21 122 R -27 121 R -33 119 R -39 118 R
-44 115 R -51 114 R -55 110 R -61 108 R -67 105 R -71 101 R -76 98 R
-81 93 R -85 90 R -90 85 R -94 81 R -98 76 R -101 72 R -105 66 R -107 61 R
-111 55 R -113 50 R -116 45 R -118 38 R -119 33 R -121 27 R -122 21 R
-123 15 R -123 9 R -124 3 R -124 -3 R -123 -9 R -123 -16 R -122 -21 R
-121 -28 R -119 -33 R -118 -39 R -115 -45 R -113 -50 R -111 -56 R -107 -62 R
-105 -66 R -101 -72 R -97 -76 R -94 -81 R -89 -86 R -85 -90 R -81 -94 R
-76 -98 R -71 -101 R -66 -105 R -61 -108 R -55 -111 R -50 -113 R -44 -116 R
-38 -118 R -33 -119 R -26 -121 R -21 -122 R -15 -123 R -8 -124 R -3 -124 R
4 -123 R 9 -124 R 16 -123 R 22 -122 R 27 -120 R 34 -119 R 39 -118 R
46 -115 R 50 -113 R 57 -110 R 61 -108 R 67 -104 R 72 -101 R 76 -97 R
82 -94 R 86 -89 R 90 -85 R 94 -80 R 98 -76 R 102 -70 R 105 -66 R 108 -61 R
111 -55 R 113 -49 R 116 -44 R 118 -38 R 120 -32 R 121 -27 R 122 -20 R
123 -14 R 123 -9 R 124 -2 R 124 4 R 123 10 R 123 16 R 122 22 R 121 28 R
119 34 R 117 40 R 115 45 R 113 51 R 110 57 R 108 61 R 104 68 R 100 72 R
97 77 R 94 81 R 89 86 R 84 91 R 80 94 R 76 98 R 70 102 R 66 105 R 60 109 R
54 111 R 50 113 R 43 116 R 38 118 R 32 120 R 26 121 R 20 122 R 14 123 R
8 124 R 2 124 R -4 123 R -11 124 R -16 123 R -22 121 R -28 121 R -35 119 R
-40 117 R -45 115 R -52 113 R -57 110 R -62 107 R -67 104 R -72 101 R
-78 96 R -81 93 R -87 89 R -90 85 R -95 79 R -98 76 R -102 70 R -106 65 R
-108 60 R -111 54 R -114 49 R -116 43 R -118 38 R -120 31 R -121 26 R
-122 20 R -124 14 R -123 7 R -124 2 R -124 -5 R -123 -10 R -123 -17 R
-122 -23 R -120 -28 R -119 -35 R -117 -40 R -115 -46 R -113 -52 R -110 -57 R
-106 -62 R -104 -68 R -101 -72 R D 0.208 0.208 0.208 setrgbcolor
14803 14519 M 0 3 R 0 1 R 1 1 R 0 1 R 1 1 R 0 1 R 1 0 R 0 1 R 1 0 R 0 1 R
1 0 R 0 1 R 1 0 R 1 0 R 0 1 R 1 0 R 1 0 R 1 0 R 0 1 R 1 0 R 1 0 R 1 0 R
1 0 R 0 -1 R 1 0 R 1 0 R 1 0 R 0 -1 R 1 0 R 1 0 R 0 -1 R 1 0 R 1 -1 R 1 -1 R
0 -1 R 1 0 R 0 -1 R 1 -1 R 0 -1 R 0 -1 R 1 -3 R D 14803 14519 M 0 -2 R
0 -1 R 0 -1 R 1 -1 R 0 -1 R 1 -1 R 0 -1 R 1 0 R 0 -1 R 1 0 R 0 -1 R 1 0 R
1 -1 R 1 0 R 0 -1 R 1 0 R 1 0 R 1 0 R 1 0 R 1 0 R 1 0 R 1 0 R 1 0 R 1 0 R
1 0 R 0 1 R 1 0 R 1 0 R 0 1 R 1 0 R 0 1 R 1 0 R 0 1 R 1 0 R 0 1 R 1 0 R
0 1 R 0 1 R 1 0 R 0 1 R 0 1 R 0 1 R 1 2 R D 0.000 0.000 0.000 setrgbcolor
14815 14519 M Z gsave 15319 12756 translate 0 0 M
(45.0Gyr) show grestore gsave 15319 12404 translate 0 0 M
(1.0e11M) show X -101.051 M
%%IncludeResource: font Helvetica
262.467 /Helvetica STDFONT
(sun) show grestore
%%IncludeResource: font Helvetica
423.333 /Helvetica STDFONT 2220 6704 M 5038 0 R D 2227 6704 M 0 202 R D
gsave 2227 6176 translate 0 0 M -58.8433 0 N
( ) show grestore 3483 6704 M 0 202 R D gsave 3483 6176 translate 0 0 M
-58.8433 0 N
( ) show grestore 4739 6704 M 0 202 R D gsave 4739 6176 translate 0 0 M
-58.8433 0 N
( ) show grestore 5995 6704 M 0 202 R D gsave 5995 6176 translate 0 0 M
-58.8433 0 N
( ) show grestore 7251 6704 M 0 202 R D gsave 7251 6176 translate 0 0 M
-58.8433 0 N
( ) show grestore 2353 6704 M 0 101 R D 2478 6704 M 0 101 R D 2604 6704 M
0 101 R D 2729 6704 M 0 101 R D 2855 6704 M 0 101 R D 2981 6704 M 0 101 R D
3106 6704 M 0 101 R D 3232 6704 M 0 101 R D 3357 6704 M 0 101 R D
3609 6704 M 0 101 R D 3734 6704 M 0 101 R D 3860 6704 M 0 101 R D
3985 6704 M 0 101 R D 4111 6704 M 0 101 R D 4237 6704 M 0 101 R D
4362 6704 M 0 101 R D 4488 6704 M 0 101 R D 4613 6704 M 0 101 R D
4865 6704 M 0 101 R D 4990 6704 M 0 101 R D 5116 6704 M 0 101 R D
5241 6704 M 0 101 R D 5367 6704 M 0 101 R D 5493 6704 M 0 101 R D
5618 6704 M 0 101 R D 5744 6704 M 0 101 R D 5869 6704 M 0 101 R D
6121 6704 M 0 101 R D 6246 6704 M 0 101 R D 6372 6704 M 0 101 R D
6498 6704 M 0 101 R D 6623 6704 M 0 101 R D 6749 6704 M 0 101 R D
6874 6704 M 0 101 R D 7000 6704 M 0 101 R D 7126 6704 M 0 101 R D
2220 11742 M 5038 0 R D 2227 11742 M 0 -201 R D 3483 11742 M 0 -201 R D
4739 11742 M 0 -201 R D 5995 11742 M 0 -201 R D 7251 11742 M 0 -201 R D
2353 11742 M 0 -101 R D 2478 11742 M 0 -101 R D 2604 11742 M 0 -101 R D
2729 11742 M 0 -101 R D 2855 11742 M 0 -101 R D 2981 11742 M 0 -101 R D
3106 11742 M 0 -101 R D 3232 11742 M 0 -101 R D 3357 11742 M 0 -101 R D
3609 11742 M 0 -101 R D 3734 11742 M 0 -101 R D 3860 11742 M 0 -101 R D
3985 11742 M 0 -101 R D 4111 11742 M 0 -101 R D 4237 11742 M 0 -101 R D
4362 11742 M 0 -101 R D 4488 11742 M 0 -101 R D 4613 11742 M 0 -101 R D
4865 11742 M 0 -101 R D 4990 11742 M 0 -101 R D 5116 11742 M 0 -101 R D
5241 11742 M 0 -101 R D 5367 11742 M 0 -101 R D 5493 11742 M 0 -101 R D
5618 11742 M 0 -101 R D 5744 11742 M 0 -101 R D 5869 11742 M 0 -101 R D
6121 11742 M 0 -101 R D 6246 11742 M 0 -101 R D 6372 11742 M 0 -101 R D
6498 11742 M 0 -101 R D 6623 11742 M 0 -101 R D 6749 11742 M 0 -101 R D
6874 11742 M 0 -101 R D 7000 11742 M 0 -101 R D 7126 11742 M 0 -101 R D
2220 6704 M 0 5038 R D 2220 6711 M 202 0 R D gsave 2109 6704 translate 0 0 M
-847.09 0 N
(-200) show grestore 2220 7967 M 202 0 R D gsave 2109 7826 translate 0 0 M
-847.09 0 N
(-100) show grestore 2220 9223 M 202 0 R D gsave 2109 9082 translate 0 0 M
-235.373 0 N
(0) show grestore 2220 10479 M 202 0 R D gsave 2109 10338 translate 0 0 M
-706.12 0 N
(100) show grestore 2220 11735 M 202 0 R D gsave 2109 11496 translate 0 0 M
-706.12 0 N
(200) show grestore 2220 6837 M 101 0 R D 2220 6962 M 101 0 R D 2220 7088 M
101 0 R D 2220 7213 M 101 0 R D 2220 7339 M 101 0 R D 2220 7465 M 101 0 R D
2220 7590 M 101 0 R D 2220 7716 M 101 0 R D 2220 7841 M 101 0 R D
2220 8093 M 101 0 R D 2220 8218 M 101 0 R D 2220 8344 M 101 0 R D
2220 8469 M 101 0 R D 2220 8595 M 101 0 R D 2220 8721 M 101 0 R D
2220 8846 M 101 0 R D 2220 8972 M 101 0 R D 2220 9097 M 101 0 R D
2220 9349 M 101 0 R D 2220 9474 M 101 0 R D 2220 9600 M 101 0 R D
2220 9725 M 101 0 R D 2220 9851 M 101 0 R D 2220 9977 M 101 0 R D
2220 10102 M 101 0 R D 2220 10228 M 101 0 R D 2220 10353 M 101 0 R D
2220 10605 M 101 0 R D 2220 10730 M 101 0 R D 2220 10856 M 101 0 R D
2220 10982 M 101 0 R D 2220 11107 M 101 0 R D 2220 11233 M 101 0 R D
2220 11358 M 101 0 R D 2220 11484 M 101 0 R D 2220 11610 M 101 0 R D
7258 6704 M 0 5038 R D 7258 6711 M -201 0 R D 7258 7967 M -201 0 R D
7258 9223 M -201 0 R D 7258 10479 M -201 0 R D 7258 11735 M -201 0 R D
7258 6837 M -101 0 R D 7258 6962 M -101 0 R D 7258 7088 M -101 0 R D
7258 7213 M -101 0 R D 7258 7339 M -101 0 R D 7258 7465 M -101 0 R D
7258 7590 M -101 0 R D 7258 7716 M -101 0 R D 7258 7841 M -101 0 R D
7258 8093 M -101 0 R D 7258 8218 M -101 0 R D 7258 8344 M -101 0 R D
7258 8469 M -101 0 R D 7258 8595 M -101 0 R D 7258 8721 M -101 0 R D
7258 8846 M -101 0 R D 7258 8972 M -101 0 R D 7258 9097 M -101 0 R D
7258 9349 M -101 0 R D 7258 9474 M -101 0 R D 7258 9600 M -101 0 R D
7258 9725 M -101 0 R D 7258 9851 M -101 0 R D 7258 9977 M -101 0 R D
7258 10102 M -101 0 R D 7258 10228 M -101 0 R D 7258 10353 M -101 0 R D
7258 10605 M -101 0 R D 7258 10730 M -101 0 R D 7258 10856 M -101 0 R D
7258 10982 M -101 0 R D 7258 11107 M -101 0 R D 7258 11233 M -101 0 R D
7258 11358 M -101 0 R D 7258 11484 M -101 0 R D 7258 11610 M -101 0 R D
7258 9223 M -7 188 R -56 372 R -110 359 R -163 339 R -212 310 R -255 276 R
-294 235 R -325 189 R -349 138 R -367 84 R -374 29 R -375 -27 R -367 -83 R
-350 -136 R -327 -187 R -176 -131 R -162 -143 R -149 -157 R -136 -171 R
-122 -183 R -106 -194 R -89 -205 R -71 -214 R -52 -221 R -32 -227 R
-12 -230 R 10 -232 R 31 -232 R 36 -163 R 49 -169 R 61 -165 R 73 -163 R
85 -158 R 97 -153 R 109 -147 R 121 -140 R 131 -132 R 142 -123 R 118 -89 R
123 -81 R 128 -75 R 133 -68 R 139 -60 R 143 -52 R 147 -43 R 150 -35 R
153 -26 R 137 -15 R 137 -7 R 139 0 R 140 8 R 141 16 R 140 24 R 140 32 R
139 41 R 137 48 R 135 57 R 116 57 R 114 62 R 111 70 R 108 75 R 105 82 R
95 82 R 101 97 R 86 92 R 81 95 R 85 111 R 70 104 R 65 106 R 59 109 R
54 111 R 48 114 R 43 117 R 37 118 R 31 120 R 25 121 R 19 122 R 13 124 R
7 123 R 1 124 R -5 124 R -12 123 R -17 123 R -23 121 R -30 121 R -35 118 R
-41 117 R -46 115 R -53 112 R -57 110 R -63 106 R -69 104 R -73 100 R
-78 96 R -82 92 R -87 88 R -92 84 R -95 79 R -99 74 R -103 70 R -105 64 R
-109 59 R -112 54 R -114 48 R -117 42 R -118 36 R -120 31 R -121 25 R
-123 19 R -123 12 R -123 7 R -124 1 R -124 -6 R -123 -12 R -123 -17 R
-121 -24 R -121 -29 R -118 -36 R -117 -41 R -115 -47 R -112 -53 R -109 -58 R
-107 -63 R -103 -68 R -100 -74 R -96 -78 R -92 -83 R -88 -87 R -83 -92 R
-79 -95 R -74 -99 R -69 -103 R -64 -106 R -59 -109 R -53 -112 R -48 -114 R
-42 -117 R -36 -118 R -30 -120 R -25 -122 R -18 -122 R -13 -123 R -6 -124 R
0 -124 R 6 -123 R 11 -124 R 18 -122 R 24 -122 R 30 -120 R 36 -119 R
42 -116 R 47 -115 R 53 -112 R 58 -109 R 63 -106 R 69 -103 R 74 -100 R
78 -96 R 83 -91 R 88 -88 R 92 -83 R 95 -79 R 100 -74 R 103 -69 R 106 -63 R
109 -59 R 112 -53 R 114 -47 R 117 -42 R 119 -36 R 120 -30 R 121 -24 R
123 -18 R 123 -12 R 124 -6 R 123 0 R 124 6 R 123 12 R 123 19 R 121 24 R
120 30 R 119 36 R 116 42 R 115 47 R 112 54 R 109 58 R 106 64 R 103 69 R
99 74 R 96 79 R 91 83 R 88 88 R 83 91 R 78 96 R 74 100 R 68 103 R 64 106 R
58 110 R 52 112 R 48 114 R 41 117 R 36 119 R 29 120 R 24 121 R 18 123 R
12 123 R 6 124 R -1 124 R -6 124 R -13 123 R -18 122 R -25 122 R -31 120 R
-36 118 R -42 116 R -48 115 R -53 111 R -59 109 R -64 106 R -69 103 R
-75 99 R -79 96 R -83 91 R -88 87 R -92 83 R -96 78 R -100 73 R -103 69 R
-107 63 R -109 58 R -113 52 R -114 47 R -117 41 R -119 35 R -120 30 R
-122 23 R -122 18 R -124 11 R -123 6 R -124 -1 R -124 -7 R -123 -13 R
-122 -19 R -122 -25 R -120 -30 R -118 -37 R -116 -42 R -114 -49 R -112 -53 R
-109 -59 R -106 -65 R -102 -69 R -99 -75 R -95 -79 R -91 -84 R -87 -88 R
-83 -92 R -78 -96 R -73 -100 R -68 -104 R -63 -107 R -57 -109 R -52 -113 R
-47 -114 R -41 -117 R -35 -119 R -29 -120 R -23 -122 R -17 -123 R -12 -123 R
-5 -124 R 1 -124 R 8 -123 R 13 -123 R 19 -123 R 25 -121 R 31 -120 R
37 -118 R 43 -116 R 48 -114 R 54 -112 R 60 -108 R 64 -106 R 70 -102 R
75 -99 R 79 -95 R 84 -91 R 89 -87 R 92 -82 R 97 -78 R 100 -73 R 104 -67 R
106 -63 R 110 -57 R 113 -52 R 115 -46 R 117 -41 R 118 -35 R 121 -28 R
122 -23 R 122 -17 R 124 -11 R 123 -5 R 124 2 R 124 7 R 123 14 R 122 19 R
121 26 R 120 31 R 118 37 R 116 43 R 114 49 R 112 54 R 108 60 R 106 65 R
102 70 R 98 75 R 95 80 R 91 84 R 86 88 R 82 93 R 78 97 R 72 100 R 68 104 R
62 107 R 57 110 R 52 113 R 46 115 R 40 117 R 34 119 R 29 120 R 22 122 R
17 123 R 11 123 R 4 124 R -2 124 R -7 123 R -14 123 R -20 123 R -26 121 R
-32 119 R -37 118 R -44 116 R -49 114 R -54 111 R -60 109 R -65 105 R
-71 102 R -75 98 R -80 95 R -84 91 R -89 86 R -93 82 R -97 77 R -100 72 R
-104 67 R -108 62 R -110 57 R -112 51 R -116 46 R -117 40 R -119 34 R
-120 28 R -122 22 R -123 17 R -123 10 R -124 4 R -124 -2 R -124 -8 R
-123 -14 R -122 -20 R -121 -26 R -119 -33 R -118 -37 R -116 -44 R -114 -49 R
-111 -55 R -108 -60 R -105 -66 R -102 -70 R -98 -76 R -95 -80 R -90 -85 R
-86 -89 R -82 -93 R -76 -97 R -73 -101 R -66 -104 R -62 -107 R -57 -110 R
-51 -113 R -45 -116 R -40 -117 R -33 -119 R -28 -121 R -22 -122 R -16 -122 R
-10 -124 R -4 -124 R 2 -123 R 9 -124 R 14 -123 R 21 -122 R 26 -121 R
33 -120 R 38 -118 R 44 -115 R 49 -114 R 55 -111 R 61 -108 R 66 -105 R
70 -101 R 76 -98 R 80 -94 R 85 -91 R 90 -85 R 93 -82 R 97 -76 R 101 -72 R
105 -67 R 107 -61 R 111 -57 R 113 -50 R 115 -45 R 117 -40 R 120 -33 R
120 -28 R 122 -21 R 123 -16 R 124 -9 R 123 -4 R 124 3 R 124 8 R 123 15 R
122 21 R 121 27 R 119 32 R 118 39 R 115 44 R 114 50 R 111 55 R 107 61 R
105 66 R 102 71 R 98 76 R 93 81 R 90 85 R 86 89 R 81 94 R 76 98 R 72 101 R
66 104 R 62 108 R 55 110 R 51 113 R 45 116 R 39 117 R 33 120 R 27 121 R
21 122 R 16 122 R 9 124 R 3 124 R -3 124 R -9 123 R -15 123 R -21 122 R
-27 121 R -33 119 R -39 118 R -44 115 R -51 114 R -55 110 R -61 108 R
-67 105 R -71 101 R -76 98 R -81 93 R -85 90 R -90 85 R -94 81 R -98 76 R
-101 72 R -105 66 R -107 61 R -111 55 R -113 50 R -116 45 R -118 38 R
-119 33 R -121 27 R -122 21 R -123 15 R -123 9 R -124 3 R -124 -3 R
-123 -9 R -123 -16 R -122 -21 R -121 -28 R -119 -33 R -118 -39 R -115 -45 R
-113 -50 R -111 -56 R -107 -62 R -105 -66 R -101 -72 R -97 -76 R -94 -81 R
-89 -86 R -85 -90 R -81 -94 R -76 -98 R -71 -101 R -66 -105 R -61 -108 R
-55 -111 R -50 -113 R -44 -116 R -38 -118 R -33 -119 R -26 -121 R -21 -122 R
-15 -123 R -8 -124 R -3 -124 R 4 -123 R 9 -124 R 16 -123 R 22 -122 R
27 -120 R 34 -119 R 39 -118 R 46 -115 R 50 -113 R 57 -110 R 61 -108 R
67 -104 R 72 -101 R 76 -97 R 82 -94 R 86 -89 R 90 -85 R 94 -80 R 98 -76 R
102 -70 R 105 -66 R 108 -61 R 111 -55 R 113 -49 R 116 -44 R 118 -38 R
120 -32 R 121 -27 R 122 -20 R 123 -14 R 123 -9 R 124 -2 R 124 4 R 123 10 R
123 16 R 122 22 R 121 28 R 119 34 R 117 40 R 115 45 R 113 51 R 110 57 R
108 61 R 104 68 R 100 72 R 97 77 R 94 81 R 89 86 R 84 91 R 80 94 R 76 98 R
70 102 R 66 105 R 60 109 R 54 111 R 50 113 R 43 116 R 38 118 R 32 120 R
26 121 R 20 122 R 14 123 R 8 124 R 2 124 R -4 123 R -11 124 R -16 123 R
-22 121 R -28 121 R -35 119 R -40 117 R -45 115 R -52 113 R -57 110 R
-62 107 R -67 104 R -72 101 R -78 96 R -81 93 R -87 89 R -90 85 R -95 79 R
-98 76 R -102 70 R -106 65 R -108 60 R -111 54 R -114 49 R -116 43 R
-118 38 R -120 31 R -121 26 R -122 20 R -124 14 R -123 7 R -124 2 R
-124 -5 R -123 -10 R -123 -17 R -122 -23 R -120 -28 R -119 -35 R -117 -40 R
-115 -46 R -113 -52 R -110 -57 R -106 -62 R -104 -68 R -101 -72 R D
0.208 0.208 0.208 setrgbcolor 4727 9223 M 0 3 R 0 1 R 1 1 R 0 1 R 1 1 R
0 1 R 1 0 R 0 1 R 1 0 R 0 1 R 1 0 R 0 1 R 1 0 R 1 0 R 0 1 R 1 0 R 1 0 R
1 0 R 0 1 R 1 0 R 1 0 R 1 0 R 1 0 R 0 -1 R 1 0 R 1 0 R 1 0 R 0 -1 R 1 0 R
1 0 R 0 -1 R 1 0 R 1 -1 R 1 -1 R 0 -1 R 1 0 R 0 -1 R 1 -1 R 0 -1 R 0 -1 R
1 -3 R D 4727 9223 M 0 -2 R 0 -1 R 0 -1 R 1 -1 R 0 -1 R 1 -1 R 0 -1 R 1 0 R
0 -1 R 1 0 R 0 -1 R 1 0 R 1 -1 R 1 0 R 0 -1 R 1 0 R 1 0 R 1 0 R 1 0 R 1 0 R
1 0 R 1 0 R 1 0 R 1 0 R 1 0 R 0 1 R 1 0 R 1 0 R 0 1 R 1 0 R 0 1 R 1 0 R
0 1 R 1 0 R 0 1 R 1 0 R 0 1 R 0 1 R 1 0 R 0 1 R 0 1 R 0 1 R 1 2 R D
0.000 0.000 0.000 setrgbcolor 4739 9223 M Z gsave 5243 7460 translate 0 0 M
(45.0Gyr) show grestore gsave 5243 7108 translate 0 0 M
(1.3e11M) show X -101.051 M
%%IncludeResource: font Helvetica
262.467 /Helvetica STDFONT
(sun) show grestore
%%IncludeResource: font Helvetica
423.333 /Helvetica STDFONT 7258 6704 M 5038 0 R D 7265 6704 M 0 202 R D
gsave 7265 6176 translate 0 0 M -58.8433 0 N
( ) show grestore 8521 6704 M 0 202 R D gsave 8521 6176 translate 0 0 M
-58.8433 0 N
( ) show grestore 9777 6704 M 0 202 R D gsave 9777 6176 translate 0 0 M
-58.8433 0 N
( ) show grestore 11033 6704 M 0 202 R D gsave 11033 6176 translate 0 0 M
-58.8433 0 N
( ) show grestore 12289 6704 M 0 202 R D gsave 12289 6176 translate 0 0 M
-58.8433 0 N
( ) show grestore 7391 6704 M 0 101 R D 7516 6704 M 0 101 R D 7642 6704 M
0 101 R D 7767 6704 M 0 101 R D 7893 6704 M 0 101 R D 8019 6704 M 0 101 R D
8144 6704 M 0 101 R D 8270 6704 M 0 101 R D 8395 6704 M 0 101 R D
8647 6704 M 0 101 R D 8772 6704 M 0 101 R D 8898 6704 M 0 101 R D
9023 6704 M 0 101 R D 9149 6704 M 0 101 R D 9275 6704 M 0 101 R D
9400 6704 M 0 101 R D 9526 6704 M 0 101 R D 9651 6704 M 0 101 R D
9903 6704 M 0 101 R D 10028 6704 M 0 101 R D 10154 6704 M 0 101 R D
10279 6704 M 0 101 R D 10405 6704 M 0 101 R D 10531 6704 M 0 101 R D
10656 6704 M 0 101 R D 10782 6704 M 0 101 R D 10907 6704 M 0 101 R D
11159 6704 M 0 101 R D 11284 6704 M 0 101 R D 11410 6704 M 0 101 R D
11536 6704 M 0 101 R D 11661 6704 M 0 101 R D 11787 6704 M 0 101 R D
11912 6704 M 0 101 R D 12038 6704 M 0 101 R D 12164 6704 M 0 101 R D
7258 11742 M 5038 0 R D 7265 11742 M 0 -201 R D 8521 11742 M 0 -201 R D
9777 11742 M 0 -201 R D 11033 11742 M 0 -201 R D 12289 11742 M 0 -201 R D
7391 11742 M 0 -101 R D 7516 11742 M 0 -101 R D 7642 11742 M 0 -101 R D
7767 11742 M 0 -101 R D 7893 11742 M 0 -101 R D 8019 11742 M 0 -101 R D
8144 11742 M 0 -101 R D 8270 11742 M 0 -101 R D 8395 11742 M 0 -101 R D
8647 11742 M 0 -101 R D 8772 11742 M 0 -101 R D 8898 11742 M 0 -101 R D
9023 11742 M 0 -101 R D 9149 11742 M 0 -101 R D 9275 11742 M 0 -101 R D
9400 11742 M 0 -101 R D 9526 11742 M 0 -101 R D 9651 11742 M 0 -101 R D
9903 11742 M 0 -101 R D 10028 11742 M 0 -101 R D 10154 11742 M 0 -101 R D
10279 11742 M 0 -101 R D 10405 11742 M 0 -101 R D 10531 11742 M 0 -101 R D
10656 11742 M 0 -101 R D 10782 11742 M 0 -101 R D 10907 11742 M 0 -101 R D
11159 11742 M 0 -101 R D 11284 11742 M 0 -101 R D 11410 11742 M 0 -101 R D
11536 11742 M 0 -101 R D 11661 11742 M 0 -101 R D 11787 11742 M 0 -101 R D
11912 11742 M 0 -101 R D 12038 11742 M 0 -101 R D 12164 11742 M 0 -101 R D
7258 6704 M 0 5038 R D 7258 6711 M 202 0 R D gsave 7147 6704 translate 0 0 M
-117.687 0 N
( ) show grestore 7258 7967 M 202 0 R D gsave 7147 7826 translate 0 0 M
-117.687 0 N
( ) show grestore 7258 9223 M 202 0 R D gsave 7147 9082 translate 0 0 M
-117.687 0 N
( ) show grestore 7258 10479 M 202 0 R D gsave 7147 10338 translate 0 0 M
-117.687 0 N
( ) show grestore 7258 11735 M 202 0 R D gsave 7147 11496 translate 0 0 M
-117.687 0 N
( ) show grestore 7258 6837 M 101 0 R D 7258 6962 M 101 0 R D 7258 7088 M
101 0 R D 7258 7213 M 101 0 R D 7258 7339 M 101 0 R D 7258 7465 M 101 0 R D
7258 7590 M 101 0 R D 7258 7716 M 101 0 R D 7258 7841 M 101 0 R D
7258 8093 M 101 0 R D 7258 8218 M 101 0 R D 7258 8344 M 101 0 R D
7258 8469 M 101 0 R D 7258 8595 M 101 0 R D 7258 8721 M 101 0 R D
7258 8846 M 101 0 R D 7258 8972 M 101 0 R D 7258 9097 M 101 0 R D
7258 9349 M 101 0 R D 7258 9474 M 101 0 R D 7258 9600 M 101 0 R D
7258 9725 M 101 0 R D 7258 9851 M 101 0 R D 7258 9977 M 101 0 R D
7258 10102 M 101 0 R D 7258 10228 M 101 0 R D 7258 10353 M 101 0 R D
7258 10605 M 101 0 R D 7258 10730 M 101 0 R D 7258 10856 M 101 0 R D
7258 10982 M 101 0 R D 7258 11107 M 101 0 R D 7258 11233 M 101 0 R D
7258 11358 M 101 0 R D 7258 11484 M 101 0 R D 7258 11610 M 101 0 R D
12296 6704 M 0 5038 R D 12296 6711 M -201 0 R D 12296 7967 M -201 0 R D
12296 9223 M -201 0 R D 12296 10479 M -201 0 R D 12296 11735 M -201 0 R D
12296 6837 M -101 0 R D 12296 6962 M -101 0 R D 12296 7088 M -101 0 R D
12296 7213 M -101 0 R D 12296 7339 M -101 0 R D 12296 7465 M -101 0 R D
12296 7590 M -101 0 R D 12296 7716 M -101 0 R D 12296 7841 M -101 0 R D
12296 8093 M -101 0 R D 12296 8218 M -101 0 R D 12296 8344 M -101 0 R D
12296 8469 M -101 0 R D 12296 8595 M -101 0 R D 12296 8721 M -101 0 R D
12296 8846 M -101 0 R D 12296 8972 M -101 0 R D 12296 9097 M -101 0 R D
12296 9349 M -101 0 R D 12296 9474 M -101 0 R D 12296 9600 M -101 0 R D
12296 9725 M -101 0 R D 12296 9851 M -101 0 R D 12296 9977 M -101 0 R D
12296 10102 M -101 0 R D 12296 10228 M -101 0 R D 12296 10353 M -101 0 R D
12296 10605 M -101 0 R D 12296 10730 M -101 0 R D 12296 10856 M -101 0 R D
12296 10982 M -101 0 R D 12296 11107 M -101 0 R D 12296 11233 M -101 0 R D
12296 11358 M -101 0 R D 12296 11484 M -101 0 R D 12296 11610 M -101 0 R D
12296 9223 M -7 188 R -56 372 R -110 359 R -163 339 R -212 310 R -255 276 R
-294 235 R -325 189 R -349 138 R -367 84 R -374 29 R -375 -27 R -367 -83 R
-350 -136 R -327 -187 R -176 -131 R -162 -143 R -149 -157 R -136 -171 R
-122 -183 R -106 -194 R -89 -205 R -71 -214 R -52 -221 R -32 -227 R
-12 -230 R 10 -232 R 31 -232 R 36 -163 R 49 -169 R 61 -165 R 73 -163 R
85 -158 R 97 -153 R 109 -147 R 121 -140 R 131 -132 R 142 -123 R 118 -89 R
123 -81 R 128 -75 R 133 -68 R 139 -60 R 143 -52 R 147 -43 R 150 -35 R
153 -26 R 137 -15 R 137 -7 R 139 0 R 140 8 R 141 16 R 140 24 R 140 32 R
139 41 R 137 48 R 135 57 R 116 57 R 114 62 R 111 70 R 108 75 R 105 82 R
95 82 R 101 97 R 86 92 R 81 95 R 85 111 R 70 104 R 65 106 R 59 109 R
54 111 R 48 114 R 43 117 R 37 118 R 31 120 R 25 121 R 19 122 R 13 124 R
7 123 R 1 124 R -5 124 R -12 123 R -17 123 R -23 121 R -30 121 R -35 118 R
-41 117 R -46 115 R -53 112 R -57 110 R -63 106 R -69 104 R -73 100 R
-78 96 R -82 92 R -87 88 R -92 84 R -95 79 R -99 74 R -103 70 R -105 64 R
-109 59 R -112 54 R -114 48 R -117 42 R -118 36 R -120 31 R -121 25 R
-123 19 R -123 12 R -123 7 R -124 1 R -124 -6 R -123 -12 R -123 -17 R
-121 -24 R -121 -29 R -118 -36 R -117 -41 R -115 -47 R -112 -53 R -109 -58 R
-107 -63 R -103 -68 R -100 -74 R -96 -78 R -92 -83 R -88 -87 R -83 -92 R
-79 -95 R -74 -99 R -69 -103 R -64 -106 R -59 -109 R -53 -112 R -48 -114 R
-42 -117 R -36 -118 R -30 -120 R -25 -122 R -18 -122 R -13 -123 R -6 -124 R
0 -124 R 6 -123 R 11 -124 R 18 -122 R 24 -122 R 30 -120 R 36 -119 R
42 -116 R 47 -115 R 53 -112 R 58 -109 R 63 -106 R 69 -103 R 74 -100 R
78 -96 R 83 -91 R 88 -88 R 92 -83 R 95 -79 R 100 -74 R 103 -69 R 106 -63 R
109 -59 R 112 -53 R 114 -47 R 117 -42 R 119 -36 R 120 -30 R 121 -24 R
123 -18 R 123 -12 R 124 -6 R 123 0 R 124 6 R 123 12 R 123 19 R 121 24 R
120 30 R 119 36 R 116 42 R 115 47 R 112 54 R 109 58 R 106 64 R 103 69 R
99 74 R 96 79 R 91 83 R 88 88 R 83 91 R 78 96 R 74 100 R 68 103 R 64 106 R
58 110 R 52 112 R 48 114 R 41 117 R 36 119 R 29 120 R 24 121 R 18 123 R
12 123 R 6 124 R -1 124 R -6 124 R -13 123 R -18 122 R -25 122 R -31 120 R
-36 118 R -42 116 R -48 115 R -53 111 R -59 109 R -64 106 R -69 103 R
-75 99 R -79 96 R -83 91 R -88 87 R -92 83 R -96 78 R -100 73 R -103 69 R
-107 63 R -109 58 R -113 52 R -114 47 R -117 41 R -119 35 R -120 30 R
-122 23 R -122 18 R -124 11 R -123 6 R -124 -1 R -124 -7 R -123 -13 R
-122 -19 R -122 -25 R -120 -30 R -118 -37 R -116 -42 R -114 -49 R -112 -53 R
-109 -59 R -106 -65 R -102 -69 R -99 -75 R -95 -79 R -91 -84 R -87 -88 R
-83 -92 R -78 -96 R -73 -100 R -68 -104 R -63 -107 R -57 -109 R -52 -113 R
-47 -114 R -41 -117 R -35 -119 R -29 -120 R -23 -122 R -17 -123 R -12 -123 R
-5 -124 R 1 -124 R 8 -123 R 13 -123 R 19 -123 R 25 -121 R 31 -120 R
37 -118 R 43 -116 R 48 -114 R 54 -112 R 60 -108 R 64 -106 R 70 -102 R
75 -99 R 79 -95 R 84 -91 R 89 -87 R 92 -82 R 97 -78 R 100 -73 R 104 -67 R
106 -63 R 110 -57 R 113 -52 R 115 -46 R 117 -41 R 118 -35 R 121 -28 R
122 -23 R 122 -17 R 124 -11 R 123 -5 R 124 2 R 124 7 R 123 14 R 122 19 R
121 26 R 120 31 R 118 37 R 116 43 R 114 49 R 112 54 R 108 60 R 106 65 R
102 70 R 98 75 R 95 80 R 91 84 R 86 88 R 82 93 R 78 97 R 72 100 R 68 104 R
62 107 R 57 110 R 52 113 R 46 115 R 40 117 R 34 119 R 29 120 R 22 122 R
17 123 R 11 123 R 4 124 R -2 124 R -7 123 R -14 123 R -20 123 R -26 121 R
-32 119 R -37 118 R -44 116 R -49 114 R -54 111 R -60 109 R -65 105 R
-71 102 R -75 98 R -80 95 R -84 91 R -89 86 R -93 82 R -97 77 R -100 72 R
-104 67 R -108 62 R -110 57 R -112 51 R -116 46 R -117 40 R -119 34 R
-120 28 R -122 22 R -123 17 R -123 10 R -124 4 R -124 -2 R -124 -8 R
-123 -14 R -122 -20 R -121 -26 R -119 -33 R -118 -37 R -116 -44 R -114 -49 R
-111 -55 R -108 -60 R -105 -66 R -102 -70 R -98 -76 R -95 -80 R -90 -85 R
-86 -89 R -82 -93 R -76 -97 R -73 -101 R -66 -104 R -62 -107 R -57 -110 R
-51 -113 R -45 -116 R -40 -117 R -33 -119 R -28 -121 R -22 -122 R -16 -122 R
-10 -124 R -4 -124 R 2 -123 R 9 -124 R 14 -123 R 21 -122 R 26 -121 R
33 -120 R 38 -118 R 44 -115 R 49 -114 R 55 -111 R 61 -108 R 66 -105 R
70 -101 R 76 -98 R 80 -94 R 85 -91 R 90 -85 R 93 -82 R 97 -76 R 101 -72 R
105 -67 R 107 -61 R 111 -57 R 113 -50 R 115 -45 R 117 -40 R 120 -33 R
120 -28 R 122 -21 R 123 -16 R 124 -9 R 123 -4 R 124 3 R 124 8 R 123 15 R
122 21 R 121 27 R 119 32 R 118 39 R 115 44 R 114 50 R 111 55 R 107 61 R
105 66 R 102 71 R 98 76 R 93 81 R 90 85 R 86 89 R 81 94 R 76 98 R 72 101 R
66 104 R 62 108 R 55 110 R 51 113 R 45 116 R 39 117 R 33 120 R 27 121 R
21 122 R 16 122 R 9 124 R 3 124 R -3 124 R -9 123 R -15 123 R -21 122 R
-27 121 R -33 119 R -39 118 R -44 115 R -51 114 R -55 110 R -61 108 R
-67 105 R -71 101 R -76 98 R -81 93 R -85 90 R -90 85 R -94 81 R -98 76 R
-101 72 R -105 66 R -107 61 R -111 55 R -113 50 R -116 45 R -118 38 R
-119 33 R -121 27 R -122 21 R -123 15 R -123 9 R -124 3 R -124 -3 R
-123 -9 R -123 -16 R -122 -21 R -121 -28 R -119 -33 R -118 -39 R -115 -45 R
-113 -50 R -111 -56 R -107 -62 R -105 -66 R -101 -72 R -97 -76 R -94 -81 R
-89 -86 R -85 -90 R -81 -94 R -76 -98 R -71 -101 R -66 -105 R -61 -108 R
-55 -111 R -50 -113 R -44 -116 R -38 -118 R -33 -119 R -26 -121 R -21 -122 R
-15 -123 R -8 -124 R -3 -124 R 4 -123 R 9 -124 R 16 -123 R 22 -122 R
27 -120 R 34 -119 R 39 -118 R 46 -115 R 50 -113 R 57 -110 R 61 -108 R
67 -104 R 72 -101 R 76 -97 R 82 -94 R 86 -89 R 90 -85 R 94 -80 R 98 -76 R
102 -70 R 105 -66 R 108 -61 R 111 -55 R 113 -49 R 116 -44 R 118 -38 R
120 -32 R 121 -27 R 122 -20 R 123 -14 R 123 -9 R 124 -2 R 124 4 R 123 10 R
123 16 R 122 22 R 121 28 R 119 34 R 117 40 R 115 45 R 113 51 R 110 57 R
108 61 R 104 68 R 100 72 R 97 77 R 94 81 R 89 86 R 84 91 R 80 94 R 76 98 R
70 102 R 66 105 R 60 109 R 54 111 R 50 113 R 43 116 R 38 118 R 32 120 R
26 121 R 20 122 R 14 123 R 8 124 R 2 124 R -4 123 R -11 124 R -16 123 R
-22 121 R -28 121 R -35 119 R -40 117 R -45 115 R -52 113 R -57 110 R
-62 107 R -67 104 R -72 101 R -78 96 R -81 93 R -87 89 R -90 85 R -95 79 R
-98 76 R -102 70 R -106 65 R -108 60 R -111 54 R -114 49 R -116 43 R
-118 38 R -120 31 R -121 26 R -122 20 R -124 14 R -123 7 R -124 2 R
-124 -5 R -123 -10 R -123 -17 R -122 -23 R -120 -28 R -119 -35 R -117 -40 R
-115 -46 R -113 -52 R -110 -57 R -106 -62 R -104 -68 R -101 -72 R D
0.208 0.208 0.208 setrgbcolor 9765 9223 M 0 3 R 0 1 R 1 1 R 0 1 R 1 1 R
0 1 R 1 0 R 0 1 R 1 0 R 0 1 R 1 0 R 0 1 R 1 0 R 1 0 R 0 1 R 1 0 R 1 0 R
1 0 R 0 1 R 1 0 R 1 0 R 1 0 R 1 0 R 0 -1 R 1 0 R 1 0 R 1 0 R 0 -1 R 1 0 R
1 0 R 0 -1 R 1 0 R 1 -1 R 1 -1 R 0 -1 R 1 0 R 0 -1 R 1 -1 R 0 -1 R 0 -1 R
1 -3 R D 9765 9223 M 0 -2 R 0 -1 R 0 -1 R 1 -1 R 0 -1 R 1 -1 R 0 -1 R 1 0 R
0 -1 R 1 0 R 0 -1 R 1 0 R 1 -1 R 1 0 R 0 -1 R 1 0 R 1 0 R 1 0 R 1 0 R 1 0 R
1 0 R 1 0 R 1 0 R 1 0 R 1 0 R 0 1 R 1 0 R 1 0 R 0 1 R 1 0 R 0 1 R 1 0 R
0 1 R 1 0 R 0 1 R 1 0 R 0 1 R 0 1 R 1 0 R 0 1 R 0 1 R 0 1 R 1 2 R D
0.000 0.000 0.000 setrgbcolor 9777 9223 M Z gsave 10281 7460 translate 0 0 M
(45.0Gyr) show grestore gsave 10281 7108 translate 0 0 M
(1.5e11M) show X -101.051 M
%%IncludeResource: font Helvetica
262.467 /Helvetica STDFONT
(sun) show grestore
%%IncludeResource: font Helvetica
423.333 /Helvetica STDFONT 12296 6704 M 5038 0 R D 12303 6704 M 0 202 R D
gsave 12303 6176 translate 0 0 M -58.8433 0 N
( ) show grestore 13559 6704 M 0 202 R D gsave 13559 6176 translate 0 0 M
-58.8433 0 N
( ) show grestore 14815 6704 M 0 202 R D gsave 14815 6176 translate 0 0 M
-58.8433 0 N
( ) show grestore 16071 6704 M 0 202 R D gsave 16071 6176 translate 0 0 M
-58.8433 0 N
( ) show grestore 17327 6704 M 0 202 R D gsave 17327 6176 translate 0 0 M
-58.8433 0 N
( ) show grestore 12429 6704 M 0 101 R D 12554 6704 M 0 101 R D 12680 6704 M
0 101 R D 12805 6704 M 0 101 R D 12931 6704 M 0 101 R D 13057 6704 M 0 101 R
D 13182 6704 M 0 101 R D 13308 6704 M 0 101 R D 13433 6704 M 0 101 R D
13685 6704 M 0 101 R D 13810 6704 M 0 101 R D 13936 6704 M 0 101 R D
14061 6704 M 0 101 R D 14187 6704 M 0 101 R D 14313 6704 M 0 101 R D
14438 6704 M 0 101 R D 14564 6704 M 0 101 R D 14689 6704 M 0 101 R D
14941 6704 M 0 101 R D 15066 6704 M 0 101 R D 15192 6704 M 0 101 R D
15317 6704 M 0 101 R D 15443 6704 M 0 101 R D 15569 6704 M 0 101 R D
15694 6704 M 0 101 R D 15820 6704 M 0 101 R D 15945 6704 M 0 101 R D
16197 6704 M 0 101 R D 16322 6704 M 0 101 R D 16448 6704 M 0 101 R D
16574 6704 M 0 101 R D 16699 6704 M 0 101 R D 16825 6704 M 0 101 R D
16950 6704 M 0 101 R D 17076 6704 M 0 101 R D 17202 6704 M 0 101 R D
12296 11742 M 5038 0 R D 12303 11742 M 0 -201 R D 13559 11742 M 0 -201 R D
14815 11742 M 0 -201 R D 16071 11742 M 0 -201 R D 17327 11742 M 0 -201 R D
12429 11742 M 0 -101 R D 12554 11742 M 0 -101 R D 12680 11742 M 0 -101 R D
12805 11742 M 0 -101 R D 12931 11742 M 0 -101 R D 13057 11742 M 0 -101 R D
13182 11742 M 0 -101 R D 13308 11742 M 0 -101 R D 13433 11742 M 0 -101 R D
13685 11742 M 0 -101 R D 13810 11742 M 0 -101 R D 13936 11742 M 0 -101 R D
14061 11742 M 0 -101 R D 14187 11742 M 0 -101 R D 14313 11742 M 0 -101 R D
14438 11742 M 0 -101 R D 14564 11742 M 0 -101 R D 14689 11742 M 0 -101 R D
14941 11742 M 0 -101 R D 15066 11742 M 0 -101 R D 15192 11742 M 0 -101 R D
15317 11742 M 0 -101 R D 15443 11742 M 0 -101 R D 15569 11742 M 0 -101 R D
15694 11742 M 0 -101 R D 15820 11742 M 0 -101 R D 15945 11742 M 0 -101 R D
16197 11742 M 0 -101 R D 16322 11742 M 0 -101 R D 16448 11742 M 0 -101 R D
16574 11742 M 0 -101 R D 16699 11742 M 0 -101 R D 16825 11742 M 0 -101 R D
16950 11742 M 0 -101 R D 17076 11742 M 0 -101 R D 17202 11742 M 0 -101 R D
12296 6704 M 0 5038 R D 12296 6711 M 202 0 R D
gsave 12185 6704 translate 0 0 M -117.687 0 N
( ) show grestore 12296 7967 M 202 0 R D gsave 12185 7826 translate 0 0 M
-117.687 0 N
( ) show grestore 12296 9223 M 202 0 R D gsave 12185 9082 translate 0 0 M
-117.687 0 N
( ) show grestore 12296 10479 M 202 0 R D gsave 12185 10338 translate 0 0 M
-117.687 0 N
( ) show grestore 12296 11735 M 202 0 R D gsave 12185 11496 translate 0 0 M
-117.687 0 N
( ) show grestore 12296 6837 M 101 0 R D 12296 6962 M 101 0 R D 12296 7088 M
101 0 R D 12296 7213 M 101 0 R D 12296 7339 M 101 0 R D 12296 7465 M 101 0 R
D 12296 7590 M 101 0 R D 12296 7716 M 101 0 R D 12296 7841 M 101 0 R D
12296 8093 M 101 0 R D 12296 8218 M 101 0 R D 12296 8344 M 101 0 R D
12296 8469 M 101 0 R D 12296 8595 M 101 0 R D 12296 8721 M 101 0 R D
12296 8846 M 101 0 R D 12296 8972 M 101 0 R D 12296 9097 M 101 0 R D
12296 9349 M 101 0 R D 12296 9474 M 101 0 R D 12296 9600 M 101 0 R D
12296 9725 M 101 0 R D 12296 9851 M 101 0 R D 12296 9977 M 101 0 R D
12296 10102 M 101 0 R D 12296 10228 M 101 0 R D 12296 10353 M 101 0 R D
12296 10605 M 101 0 R D 12296 10730 M 101 0 R D 12296 10856 M 101 0 R D
12296 10982 M 101 0 R D 12296 11107 M 101 0 R D 12296 11233 M 101 0 R D
12296 11358 M 101 0 R D 12296 11484 M 101 0 R D 12296 11610 M 101 0 R D
17334 6704 M 0 5038 R D 17334 6711 M -201 0 R D 17334 7967 M -201 0 R D
17334 9223 M -201 0 R D 17334 10479 M -201 0 R D 17334 11735 M -201 0 R D
17334 6837 M -101 0 R D 17334 6962 M -101 0 R D 17334 7088 M -101 0 R D
17334 7213 M -101 0 R D 17334 7339 M -101 0 R D 17334 7465 M -101 0 R D
17334 7590 M -101 0 R D 17334 7716 M -101 0 R D 17334 7841 M -101 0 R D
17334 8093 M -101 0 R D 17334 8218 M -101 0 R D 17334 8344 M -101 0 R D
17334 8469 M -101 0 R D 17334 8595 M -101 0 R D 17334 8721 M -101 0 R D
17334 8846 M -101 0 R D 17334 8972 M -101 0 R D 17334 9097 M -101 0 R D
17334 9349 M -101 0 R D 17334 9474 M -101 0 R D 17334 9600 M -101 0 R D
17334 9725 M -101 0 R D 17334 9851 M -101 0 R D 17334 9977 M -101 0 R D
17334 10102 M -101 0 R D 17334 10228 M -101 0 R D 17334 10353 M -101 0 R D
17334 10605 M -101 0 R D 17334 10730 M -101 0 R D 17334 10856 M -101 0 R D
17334 10982 M -101 0 R D 17334 11107 M -101 0 R D 17334 11233 M -101 0 R D
17334 11358 M -101 0 R D 17334 11484 M -101 0 R D 17334 11610 M -101 0 R D
17334 9223 M -7 188 R -56 372 R -110 359 R -163 339 R -212 310 R -255 276 R
-294 235 R -325 189 R -349 138 R -367 84 R -374 29 R -375 -27 R -367 -83 R
-350 -136 R -327 -187 R -176 -131 R -162 -143 R -149 -157 R -136 -171 R
-122 -183 R -106 -194 R -89 -205 R -71 -214 R -52 -221 R -32 -227 R
-12 -230 R 10 -232 R 31 -232 R 36 -163 R 49 -169 R 61 -165 R 73 -163 R
85 -158 R 97 -153 R 109 -147 R 121 -140 R 131 -132 R 142 -123 R 118 -89 R
123 -81 R 128 -75 R 133 -68 R 139 -60 R 143 -52 R 147 -43 R 150 -35 R
153 -26 R 137 -15 R 137 -7 R 139 0 R 140 8 R 141 16 R 140 24 R 140 32 R
139 41 R 137 48 R 135 57 R 116 57 R 114 62 R 111 70 R 108 75 R 105 82 R
95 82 R 101 97 R 86 92 R 81 95 R 85 111 R 70 104 R 65 106 R 59 109 R
54 111 R 48 114 R 43 117 R 37 118 R 31 120 R 25 121 R 19 122 R 13 124 R
7 123 R 1 124 R -5 124 R -12 123 R -17 123 R -23 121 R -30 121 R -35 118 R
-41 117 R -46 115 R -53 112 R -57 110 R -63 106 R -69 104 R -73 100 R
-78 96 R -82 92 R -87 88 R -92 84 R -95 79 R -99 74 R -103 70 R -105 64 R
-109 59 R -112 54 R -114 48 R -117 42 R -118 36 R -120 31 R -121 25 R
-123 19 R -123 12 R -123 7 R -124 1 R -124 -6 R -123 -12 R -123 -17 R
-121 -24 R -121 -29 R -118 -36 R -117 -41 R -115 -47 R -112 -53 R -109 -58 R
-107 -63 R -103 -68 R -100 -74 R -96 -78 R -92 -83 R -88 -87 R -83 -92 R
-79 -95 R -74 -99 R -69 -103 R -64 -106 R -59 -109 R -53 -112 R -48 -114 R
-42 -117 R -36 -118 R -30 -120 R -25 -122 R -18 -122 R -13 -123 R -6 -124 R
0 -124 R 6 -123 R 11 -124 R 18 -122 R 24 -122 R 30 -120 R 36 -119 R
42 -116 R 47 -115 R 53 -112 R 58 -109 R 63 -106 R 69 -103 R 74 -100 R
78 -96 R 83 -91 R 88 -88 R 92 -83 R 95 -79 R 100 -74 R 103 -69 R 106 -63 R
109 -59 R 112 -53 R 114 -47 R 117 -42 R 119 -36 R 120 -30 R 121 -24 R
123 -18 R 123 -12 R 124 -6 R 123 0 R 124 6 R 123 12 R 123 19 R 121 24 R
120 30 R 119 36 R 116 42 R 115 47 R 112 54 R 109 58 R 106 64 R 103 69 R
99 74 R 96 79 R 91 83 R 88 88 R 83 91 R 78 96 R 74 100 R 68 103 R 64 106 R
58 110 R 52 112 R 48 114 R 41 117 R 36 119 R 29 120 R 24 121 R 18 123 R
12 123 R 6 124 R -1 124 R -6 124 R -13 123 R -18 122 R -25 122 R -31 120 R
-36 118 R -42 116 R -48 115 R -53 111 R -59 109 R -64 106 R -69 103 R
-75 99 R -79 96 R -83 91 R -88 87 R -92 83 R -96 78 R -100 73 R -103 69 R
-107 63 R -109 58 R -113 52 R -114 47 R -117 41 R -119 35 R -120 30 R
-122 23 R -122 18 R -124 11 R -123 6 R -124 -1 R -124 -7 R -123 -13 R
-122 -19 R -122 -25 R -120 -30 R -118 -37 R -116 -42 R -114 -49 R -112 -53 R
-109 -59 R -106 -65 R -102 -69 R -99 -75 R -95 -79 R -91 -84 R -87 -88 R
-83 -92 R -78 -96 R -73 -100 R -68 -104 R -63 -107 R -57 -109 R -52 -113 R
-47 -114 R -41 -117 R -35 -119 R -29 -120 R -23 -122 R -17 -123 R -12 -123 R
-5 -124 R 1 -124 R 8 -123 R 13 -123 R 19 -123 R 25 -121 R 31 -120 R
37 -118 R 43 -116 R 48 -114 R 54 -112 R 60 -108 R 64 -106 R 70 -102 R
75 -99 R 79 -95 R 84 -91 R 89 -87 R 92 -82 R 97 -78 R 100 -73 R 104 -67 R
106 -63 R 110 -57 R 113 -52 R 115 -46 R 117 -41 R 118 -35 R 121 -28 R
122 -23 R 122 -17 R 124 -11 R 123 -5 R 124 2 R 124 7 R 123 14 R 122 19 R
121 26 R 120 31 R 118 37 R 116 43 R 114 49 R 112 54 R 108 60 R 106 65 R
102 70 R 98 75 R 95 80 R 91 84 R 86 88 R 82 93 R 78 97 R 72 100 R 68 104 R
62 107 R 57 110 R 52 113 R 46 115 R 40 117 R 34 119 R 29 120 R 22 122 R
17 123 R 11 123 R 4 124 R -2 124 R -7 123 R -14 123 R -20 123 R -26 121 R
-32 119 R -37 118 R -44 116 R -49 114 R -54 111 R -60 109 R -65 105 R
-71 102 R -75 98 R -80 95 R -84 91 R -89 86 R -93 82 R -97 77 R -100 72 R
-104 67 R -108 62 R -110 57 R -112 51 R -116 46 R -117 40 R -119 34 R
-120 28 R -122 22 R -123 17 R -123 10 R -124 4 R -124 -2 R -124 -8 R
-123 -14 R -122 -20 R -121 -26 R -119 -33 R -118 -37 R -116 -44 R -114 -49 R
-111 -55 R -108 -60 R -105 -66 R -102 -70 R -98 -76 R -95 -80 R -90 -85 R
-86 -89 R -82 -93 R -76 -97 R -73 -101 R -66 -104 R -62 -107 R -57 -110 R
-51 -113 R -45 -116 R -40 -117 R -33 -119 R -28 -121 R -22 -122 R -16 -122 R
-10 -124 R -4 -124 R 2 -123 R 9 -124 R 14 -123 R 21 -122 R 26 -121 R
33 -120 R 38 -117 R 44 -116 R 49 -114 R 55 -111 R 61 -108 R 66 -105 R
70 -101 R 76 -98 R 80 -94 R 85 -91 R 90 -85 R 93 -82 R 97 -76 R 101 -72 R
105 -67 R 107 -61 R 111 -57 R 113 -50 R 115 -45 R 117 -40 R 120 -33 R
120 -28 R 122 -21 R 123 -16 R 124 -9 R 123 -4 R 124 3 R 124 8 R 123 15 R
122 21 R 121 27 R 119 32 R 118 39 R 115 44 R 114 50 R 111 55 R 107 61 R
105 66 R 102 71 R 98 76 R 93 81 R 90 85 R 86 89 R 81 94 R 76 98 R 72 101 R
66 104 R 62 108 R 55 110 R 51 113 R 45 116 R 39 117 R 33 120 R 27 121 R
21 122 R 16 122 R 9 124 R 3 124 R -3 124 R -9 123 R -15 123 R -21 122 R
-27 121 R -33 119 R -39 118 R -44 115 R -51 114 R -55 110 R -61 108 R
-67 105 R -71 101 R -76 98 R -81 93 R -85 90 R -90 85 R -94 81 R -98 76 R
-101 72 R -105 66 R -107 61 R -111 55 R -113 50 R -116 45 R -118 38 R
-119 33 R -121 27 R -122 21 R -123 15 R -123 9 R -124 3 R -124 -3 R
-123 -9 R -123 -16 R -122 -21 R -121 -28 R -119 -33 R -118 -39 R -115 -45 R
-113 -50 R -111 -56 R -107 -62 R -105 -66 R -101 -72 R -97 -76 R -94 -81 R
-89 -86 R -85 -90 R -81 -94 R -76 -98 R -71 -101 R -66 -105 R -61 -108 R
-55 -111 R -50 -113 R -44 -116 R -38 -118 R -33 -119 R -26 -121 R -21 -122 R
-15 -123 R -8 -124 R -3 -124 R 4 -123 R 9 -124 R 16 -123 R 22 -122 R
27 -120 R 34 -119 R 39 -118 R 46 -115 R 50 -113 R 57 -110 R 61 -108 R
67 -104 R 72 -101 R 76 -97 R 82 -94 R 86 -89 R 90 -85 R 94 -80 R 98 -76 R
102 -70 R 105 -66 R 108 -61 R 111 -55 R 113 -49 R 116 -44 R 118 -38 R
120 -32 R 121 -27 R 122 -20 R 123 -14 R 123 -9 R 124 -2 R 124 4 R 123 10 R
123 16 R 122 22 R 121 28 R 119 34 R 117 40 R 115 45 R 113 51 R 110 57 R
108 61 R 104 68 R 100 72 R 97 77 R 94 81 R 89 86 R 84 91 R 80 94 R 76 98 R
70 102 R 66 105 R 60 109 R 54 111 R 50 113 R 43 116 R 38 118 R 32 120 R
26 121 R 20 122 R 14 123 R 8 124 R 2 124 R -4 123 R -11 124 R -16 123 R
-22 121 R -28 121 R -35 119 R -40 117 R -45 115 R -52 113 R -57 110 R
-62 107 R -67 104 R -72 101 R -78 96 R -81 93 R -87 89 R -90 85 R -95 79 R
-98 76 R -102 70 R -106 65 R -108 60 R -111 54 R -114 49 R -116 43 R
-118 38 R -120 31 R -121 26 R -122 20 R -124 14 R -123 7 R -124 2 R
-124 -5 R -123 -10 R -123 -17 R -122 -23 R -120 -28 R -119 -35 R -117 -40 R
-115 -46 R -113 -52 R -110 -57 R -106 -62 R -104 -68 R -101 -72 R D
0.208 0.208 0.208 setrgbcolor 14803 9223 M 0 3 R 0 1 R 1 1 R 0 1 R 1 1 R
0 1 R 1 0 R 0 1 R 1 0 R 0 1 R 1 0 R 0 1 R 1 0 R 1 0 R 0 1 R 1 0 R 1 0 R
1 0 R 0 1 R 1 0 R 1 0 R 1 0 R 1 0 R 0 -1 R 1 0 R 1 0 R 1 0 R 0 -1 R 1 0 R
1 0 R 0 -1 R 1 0 R 1 -1 R 1 -1 R 0 -1 R 1 0 R 0 -1 R 1 -1 R 0 -1 R 0 -1 R
1 -3 R D 14803 9223 M 0 -2 R 0 -1 R 0 -1 R 1 -1 R 0 -1 R 1 -1 R 0 -1 R 1 0 R
0 -1 R 1 0 R 0 -1 R 1 0 R 1 -1 R 1 0 R 0 -1 R 1 0 R 1 0 R 1 0 R 1 0 R 1 0 R
1 0 R 1 0 R 1 0 R 1 0 R 1 0 R 0 1 R 1 0 R 1 0 R 0 1 R 1 0 R 0 1 R 1 0 R
0 1 R 1 0 R 0 1 R 1 0 R 0 1 R 0 1 R 1 0 R 0 1 R 0 1 R 0 1 R 1 2 R D
0.000 0.000 0.000 setrgbcolor 14815 9223 M Z
gsave 15319 7460 translate 0 0 M
(45.0Gyr) show grestore gsave 15319 7108 translate 0 0 M
(2.0e11M) show X -101.051 M
%%IncludeResource: font Helvetica
262.467 /Helvetica STDFONT
(sun) show grestore
%%IncludeResource: font Helvetica
423.333 /Helvetica STDFONT 2220 1408 M 5038 0 R D 2227 1408 M 0 202 R D
gsave 2227 880 translate 0 0 M -423.545 0 N
(-200) show grestore 3483 1408 M 0 202 R D gsave 3483 880 translate 0 0 M
-423.545 0 N
(-100) show grestore 4739 1408 M 0 202 R D gsave 4739 880 translate 0 0 M
-117.687 0 N
(0) show grestore 5995 1408 M 0 202 R D gsave 5995 880 translate 0 0 M
-353.06 0 N
(100) show grestore 7251 1408 M 0 202 R D gsave 7251 880 translate 0 0 M
-353.06 0 N
(200) show grestore 2353 1408 M 0 101 R D 2478 1408 M 0 101 R D 2604 1408 M
0 101 R D 2729 1408 M 0 101 R D 2855 1408 M 0 101 R D 2981 1408 M 0 101 R D
3106 1408 M 0 101 R D 3232 1408 M 0 101 R D 3357 1408 M 0 101 R D
3609 1408 M 0 101 R D 3734 1408 M 0 101 R D 3860 1408 M 0 101 R D
3985 1408 M 0 101 R D 4111 1408 M 0 101 R D 4237 1408 M 0 101 R D
4362 1408 M 0 101 R D 4488 1408 M 0 101 R D 4613 1408 M 0 101 R D
4865 1408 M 0 101 R D 4990 1408 M 0 101 R D 5116 1408 M 0 101 R D
5241 1408 M 0 101 R D 5367 1408 M 0 101 R D 5493 1408 M 0 101 R D
5618 1408 M 0 101 R D 5744 1408 M 0 101 R D 5869 1408 M 0 101 R D
6121 1408 M 0 101 R D 6246 1408 M 0 101 R D 6372 1408 M 0 101 R D
6498 1408 M 0 101 R D 6623 1408 M 0 101 R D 6749 1408 M 0 101 R D
6874 1408 M 0 101 R D 7000 1408 M 0 101 R D 7126 1408 M 0 101 R D
2220 6446 M 5038 0 R D 2227 6446 M 0 -201 R D 3483 6446 M 0 -201 R D
4739 6446 M 0 -201 R D 5995 6446 M 0 -201 R D 7251 6446 M 0 -201 R D
2353 6446 M 0 -101 R D 2478 6446 M 0 -101 R D 2604 6446 M 0 -101 R D
2729 6446 M 0 -101 R D 2855 6446 M 0 -101 R D 2981 6446 M 0 -101 R D
3106 6446 M 0 -101 R D 3232 6446 M 0 -101 R D 3357 6446 M 0 -101 R D
3609 6446 M 0 -101 R D 3734 6446 M 0 -101 R D 3860 6446 M 0 -101 R D
3985 6446 M 0 -101 R D 4111 6446 M 0 -101 R D 4237 6446 M 0 -101 R D
4362 6446 M 0 -101 R D 4488 6446 M 0 -101 R D 4613 6446 M 0 -101 R D
4865 6446 M 0 -101 R D 4990 6446 M 0 -101 R D 5116 6446 M 0 -101 R D
5241 6446 M 0 -101 R D 5367 6446 M 0 -101 R D 5493 6446 M 0 -101 R D
5618 6446 M 0 -101 R D 5744 6446 M 0 -101 R D 5869 6446 M 0 -101 R D
6121 6446 M 0 -101 R D 6246 6446 M 0 -101 R D 6372 6446 M 0 -101 R D
6498 6446 M 0 -101 R D 6623 6446 M 0 -101 R D 6749 6446 M 0 -101 R D
6874 6446 M 0 -101 R D 7000 6446 M 0 -101 R D 7126 6446 M 0 -101 R D
2220 1408 M 0 5038 R D 2220 1415 M 202 0 R D gsave 2109 1408 translate 0 0 M
-847.09 0 N
(-200) show grestore 2220 2671 M 202 0 R D gsave 2109 2530 translate 0 0 M
-847.09 0 N
(-100) show grestore 2220 3927 M 202 0 R D gsave 2109 3786 translate 0 0 M
-235.373 0 N
(0) show grestore 2220 5183 M 202 0 R D gsave 2109 5042 translate 0 0 M
-706.12 0 N
(100) show grestore 2220 6439 M 202 0 R D gsave 2109 6200 translate 0 0 M
-706.12 0 N
(200) show grestore 2220 1541 M 101 0 R D 2220 1666 M 101 0 R D 2220 1792 M
101 0 R D 2220 1917 M 101 0 R D 2220 2043 M 101 0 R D 2220 2169 M 101 0 R D
2220 2294 M 101 0 R D 2220 2420 M 101 0 R D 2220 2545 M 101 0 R D
2220 2797 M 101 0 R D 2220 2922 M 101 0 R D 2220 3048 M 101 0 R D
2220 3173 M 101 0 R D 2220 3299 M 101 0 R D 2220 3425 M 101 0 R D
2220 3550 M 101 0 R D 2220 3676 M 101 0 R D 2220 3801 M 101 0 R D
2220 4053 M 101 0 R D 2220 4178 M 101 0 R D 2220 4304 M 101 0 R D
2220 4429 M 101 0 R D 2220 4555 M 101 0 R D 2220 4681 M 101 0 R D
2220 4806 M 101 0 R D 2220 4932 M 101 0 R D 2220 5057 M 101 0 R D
2220 5309 M 101 0 R D 2220 5434 M 101 0 R D 2220 5560 M 101 0 R D
2220 5686 M 101 0 R D 2220 5811 M 101 0 R D 2220 5937 M 101 0 R D
2220 6062 M 101 0 R D 2220 6188 M 101 0 R D 2220 6314 M 101 0 R D
7258 1408 M 0 5038 R D 7258 1415 M -201 0 R D 7258 2671 M -201 0 R D
7258 3927 M -201 0 R D 7258 5183 M -201 0 R D 7258 6439 M -201 0 R D
7258 1541 M -101 0 R D 7258 1666 M -101 0 R D 7258 1792 M -101 0 R D
7258 1917 M -101 0 R D 7258 2043 M -101 0 R D 7258 2169 M -101 0 R D
7258 2294 M -101 0 R D 7258 2420 M -101 0 R D 7258 2545 M -101 0 R D
7258 2797 M -101 0 R D 7258 2922 M -101 0 R D 7258 3048 M -101 0 R D
7258 3173 M -101 0 R D 7258 3299 M -101 0 R D 7258 3425 M -101 0 R D
7258 3550 M -101 0 R D 7258 3676 M -101 0 R D 7258 3801 M -101 0 R D
7258 4053 M -101 0 R D 7258 4178 M -101 0 R D 7258 4304 M -101 0 R D
7258 4429 M -101 0 R D 7258 4555 M -101 0 R D 7258 4681 M -101 0 R D
7258 4806 M -101 0 R D 7258 4932 M -101 0 R D 7258 5057 M -101 0 R D
7258 5309 M -101 0 R D 7258 5434 M -101 0 R D 7258 5560 M -101 0 R D
7258 5686 M -101 0 R D 7258 5811 M -101 0 R D 7258 5937 M -101 0 R D
7258 6062 M -101 0 R D 7258 6188 M -101 0 R D 7258 6314 M -101 0 R D
7258 3927 M -7 188 R -56 372 R -110 359 R -163 339 R -212 310 R -255 276 R
-294 235 R -325 189 R -349 138 R -367 84 R -374 29 R -375 -27 R -367 -83 R
-350 -136 R -327 -187 R -176 -131 R -162 -143 R -149 -157 R -136 -171 R
-122 -183 R -106 -194 R -89 -205 R -71 -214 R -52 -221 R -32 -227 R
-12 -230 R 10 -232 R 31 -232 R 36 -163 R 49 -169 R 61 -165 R 73 -163 R
85 -158 R 97 -153 R 109 -147 R 121 -140 R 131 -132 R 142 -123 R 118 -89 R
123 -81 R 128 -75 R 133 -68 R 139 -60 R 143 -52 R 147 -43 R 150 -35 R
153 -26 R 137 -15 R 137 -7 R 139 0 R 140 8 R 141 16 R 140 24 R 140 32 R
139 41 R 137 48 R 135 57 R 116 57 R 114 62 R 111 70 R 108 75 R 105 82 R
95 82 R 101 97 R 86 92 R 81 95 R 85 111 R 70 104 R 65 106 R 59 109 R
54 111 R 48 114 R 43 117 R 37 118 R 31 120 R 25 121 R 19 122 R 13 124 R
7 123 R 1 124 R -5 124 R -12 123 R -17 123 R -23 121 R -30 121 R -35 118 R
-41 117 R -46 115 R -53 112 R -57 110 R -63 106 R -69 104 R -73 100 R
-78 96 R -82 92 R -87 88 R -92 84 R -95 79 R -99 74 R -103 70 R -105 64 R
-109 59 R -112 54 R -114 48 R -117 42 R -118 36 R -120 31 R -121 25 R
-123 19 R -123 12 R -123 7 R -124 1 R -124 -6 R -123 -12 R -123 -17 R
-121 -24 R -121 -29 R -118 -36 R -117 -41 R -115 -47 R -112 -53 R -109 -58 R
-107 -63 R -103 -68 R -100 -74 R -96 -78 R -92 -83 R -88 -87 R -83 -92 R
-79 -95 R -74 -99 R -69 -103 R -64 -106 R -59 -109 R -53 -112 R -48 -114 R
-42 -117 R -36 -118 R -30 -120 R -25 -122 R -18 -122 R -13 -123 R -6 -124 R
0 -124 R 6 -123 R 11 -124 R 18 -122 R 24 -122 R 30 -120 R 36 -119 R
42 -116 R 47 -115 R 53 -112 R 58 -109 R 63 -106 R 69 -103 R 74 -100 R
78 -96 R 83 -91 R 88 -88 R 92 -83 R 95 -79 R 100 -74 R 103 -69 R 106 -63 R
109 -59 R 112 -53 R 114 -47 R 117 -42 R 119 -36 R 120 -30 R 121 -24 R
123 -18 R 123 -12 R 124 -6 R 123 0 R 124 6 R 123 12 R 123 19 R 121 24 R
120 30 R 119 36 R 116 42 R 115 47 R 112 54 R 109 58 R 106 64 R 103 69 R
99 74 R 96 79 R 91 83 R 88 88 R 83 91 R 78 96 R 74 100 R 68 103 R 64 106 R
58 110 R 52 112 R 48 114 R 41 117 R 36 119 R 29 120 R 24 121 R 18 123 R
12 123 R 6 124 R -1 124 R -6 124 R -13 123 R -18 122 R -25 122 R -31 120 R
-36 118 R -42 116 R -48 115 R -53 111 R -59 109 R -64 106 R -69 103 R
-75 99 R -79 96 R -83 91 R -88 87 R -92 83 R -96 78 R -100 73 R -103 69 R
-107 63 R -109 58 R -113 52 R -114 47 R -117 41 R -119 35 R -120 30 R
-122 23 R -122 18 R -124 11 R -123 6 R -124 -1 R -124 -7 R -123 -13 R
-122 -19 R -122 -25 R -120 -30 R -118 -37 R -116 -42 R -114 -49 R -112 -53 R
-109 -59 R -106 -65 R -102 -69 R -99 -75 R -95 -79 R -91 -84 R -87 -88 R
-83 -92 R -78 -96 R -73 -100 R -68 -104 R -63 -107 R -57 -109 R -52 -113 R
-47 -114 R -41 -117 R -35 -119 R -29 -120 R -23 -122 R -17 -123 R -12 -123 R
-5 -124 R 1 -124 R 8 -123 R 13 -123 R 19 -123 R 25 -121 R 31 -120 R
37 -118 R 43 -116 R 48 -114 R 54 -112 R 60 -108 R 64 -106 R 70 -102 R
75 -99 R 79 -95 R 84 -91 R 89 -87 R 92 -82 R 97 -78 R 100 -73 R 104 -67 R
106 -63 R 110 -57 R 113 -52 R 115 -46 R 117 -41 R 118 -35 R 121 -28 R
122 -23 R 122 -17 R 124 -11 R 123 -5 R 124 2 R 124 7 R 123 14 R 122 19 R
121 26 R 120 31 R 118 37 R 116 43 R 114 49 R 112 54 R 108 60 R 106 65 R
102 70 R 98 75 R 95 80 R 91 84 R 86 88 R 82 93 R 78 97 R 72 100 R 68 104 R
62 107 R 57 110 R 52 113 R 46 115 R 40 117 R 34 119 R 29 120 R 22 122 R
17 123 R 11 123 R 4 124 R -2 124 R -7 123 R -14 123 R -20 123 R -26 121 R
-32 119 R -37 118 R -44 116 R -49 114 R -54 111 R -60 109 R -65 105 R
-71 102 R -75 98 R -80 95 R -84 91 R -89 86 R -93 82 R -97 77 R -100 72 R
-104 67 R -108 62 R -110 57 R -112 51 R -116 46 R -117 40 R -119 34 R
-120 28 R -122 22 R -123 17 R -123 10 R -124 4 R -124 -2 R -124 -8 R
-123 -14 R -122 -20 R -121 -26 R -119 -33 R -118 -37 R -116 -44 R -114 -49 R
-111 -55 R -108 -60 R -105 -66 R -102 -70 R -98 -76 R -95 -80 R -90 -85 R
-86 -89 R -82 -93 R -76 -97 R -73 -101 R -66 -104 R -62 -107 R -57 -110 R
-51 -113 R -45 -116 R -40 -117 R -33 -119 R -28 -121 R -22 -122 R -16 -122 R
-10 -124 R -4 -124 R 2 -123 R 9 -124 R 14 -123 R 21 -122 R 26 -121 R
33 -120 R 38 -117 R 44 -116 R 49 -114 R 55 -111 R 61 -108 R 66 -105 R
70 -101 R 76 -98 R 80 -94 R 85 -91 R 90 -85 R 93 -82 R 97 -76 R 101 -72 R
105 -67 R 107 -61 R 111 -57 R 113 -50 R 115 -45 R 117 -40 R 120 -33 R
120 -28 R 122 -21 R 123 -16 R 124 -9 R 123 -4 R 124 3 R 124 8 R 123 15 R
122 21 R 121 27 R 119 32 R 118 39 R 115 44 R 114 50 R 111 55 R 107 61 R
105 66 R 102 71 R 98 76 R 93 81 R 90 85 R 86 89 R 81 94 R 76 98 R 72 101 R
66 104 R 62 108 R 55 110 R 51 113 R 45 116 R 39 117 R 33 120 R 27 121 R
21 122 R 16 122 R 9 124 R 3 124 R -3 124 R -9 123 R -15 123 R -21 122 R
-27 121 R -33 119 R -39 118 R -44 115 R -51 114 R -55 110 R -61 108 R
-67 105 R -71 101 R -76 98 R -81 93 R -85 90 R -90 85 R -94 81 R -98 76 R
-101 72 R -105 66 R -107 61 R -111 55 R -113 50 R -116 45 R -118 38 R
-119 33 R -121 27 R -122 21 R -123 15 R -123 9 R -124 3 R -124 -3 R
-123 -9 R -123 -16 R -122 -21 R -121 -28 R -119 -33 R -118 -39 R -115 -45 R
-113 -50 R -111 -56 R -107 -62 R -105 -66 R -101 -72 R -97 -76 R -94 -81 R
-89 -86 R -85 -90 R -81 -94 R -76 -98 R -71 -101 R -66 -105 R -61 -108 R
-55 -111 R -50 -113 R -44 -116 R -38 -118 R -33 -119 R -26 -121 R -21 -122 R
-15 -123 R -8 -124 R -3 -124 R 4 -123 R 9 -124 R 16 -123 R 22 -122 R
27 -120 R 34 -119 R 39 -118 R 46 -115 R 50 -113 R 57 -110 R 61 -108 R
67 -104 R 72 -101 R 76 -97 R 82 -94 R 86 -89 R 90 -85 R 94 -80 R 98 -76 R
102 -70 R 105 -66 R 108 -61 R 111 -55 R 113 -49 R 116 -44 R 118 -38 R
120 -32 R 121 -27 R 122 -20 R 123 -14 R 123 -9 R 124 -2 R 124 4 R 123 10 R
123 16 R 122 22 R 121 28 R 119 34 R 117 40 R 115 45 R 113 51 R 110 57 R
108 61 R 104 68 R 100 72 R 97 77 R 94 81 R 89 86 R 84 91 R 80 94 R 76 98 R
70 102 R 66 105 R 60 109 R 54 111 R 50 113 R 43 116 R 38 118 R 32 120 R
26 121 R 20 122 R 14 123 R 8 124 R 2 124 R -4 123 R -11 124 R -16 123 R
-22 121 R -28 121 R -35 119 R -40 117 R -45 115 R -52 113 R -57 110 R
-62 107 R -67 104 R -72 101 R -78 96 R -81 93 R -87 89 R -90 85 R -95 79 R
-98 76 R -102 70 R -106 65 R -108 60 R -111 54 R -114 49 R -116 43 R
-118 38 R -120 31 R -121 26 R -122 20 R -124 14 R -123 7 R -124 2 R
-124 -5 R -123 -10 R -123 -17 R -122 -23 R -120 -28 R -119 -35 R -117 -40 R
-115 -46 R -113 -52 R -110 -57 R -106 -62 R -104 -68 R -101 -72 R D
0.208 0.208 0.208 setrgbcolor 4727 3927 M 0 3 R 0 1 R 1 1 R 0 1 R 1 1 R
0 1 R 1 0 R 0 1 R 1 0 R 0 1 R 1 0 R 0 1 R 1 0 R 1 0 R 0 1 R 1 0 R 1 0 R
1 0 R 0 1 R 1 0 R 1 0 R 1 0 R 1 0 R 0 -1 R 1 0 R 1 0 R 1 0 R 0 -1 R 1 0 R
1 0 R 0 -1 R 1 0 R 1 -1 R 1 -1 R 0 -1 R 1 0 R 0 -1 R 1 -1 R 0 -1 R 0 -1 R
1 -3 R D 4727 3927 M 0 -2 R 0 -1 R 0 -1 R 1 -1 R 0 -1 R 1 -1 R 0 -1 R 1 0 R
0 -1 R 1 0 R 0 -1 R 1 0 R 1 -1 R 1 0 R 0 -1 R 1 0 R 1 0 R 1 0 R 1 0 R 1 0 R
1 0 R 1 0 R 1 0 R 1 0 R 1 0 R 0 1 R 1 0 R 1 0 R 0 1 R 1 0 R 0 1 R 1 0 R
0 1 R 1 0 R 0 1 R 1 0 R 0 1 R 0 1 R 1 0 R 0 1 R 0 1 R 0 1 R 1 2 R D
0.000 0.000 0.000 setrgbcolor 4739 3927 M Z gsave 5243 2164 translate 0 0 M
(45.0Gyr) show grestore gsave 5243 1812 translate 0 0 M
(2.5e11M) show X -101.051 M
%%IncludeResource: font Helvetica
262.467 /Helvetica STDFONT
(sun) show grestore
%%IncludeResource: font Helvetica
423.333 /Helvetica STDFONT 7258 1408 M 5038 0 R D 7265 1408 M 0 202 R D
gsave 7265 880 translate 0 0 M -423.545 0 N
(-200) show grestore 8521 1408 M 0 202 R D gsave 8521 880 translate 0 0 M
-423.545 0 N
(-100) show grestore 9777 1408 M 0 202 R D gsave 9777 880 translate 0 0 M
-117.687 0 N
(0) show grestore 11033 1408 M 0 202 R D gsave 11033 880 translate 0 0 M
-353.06 0 N
(100) show grestore 12289 1408 M 0 202 R D gsave 12289 880 translate 0 0 M
-353.06 0 N
(200) show grestore 7391 1408 M 0 101 R D 7516 1408 M 0 101 R D 7642 1408 M
0 101 R D 7767 1408 M 0 101 R D 7893 1408 M 0 101 R D 8019 1408 M 0 101 R D
8144 1408 M 0 101 R D 8270 1408 M 0 101 R D 8395 1408 M 0 101 R D
8647 1408 M 0 101 R D 8772 1408 M 0 101 R D 8898 1408 M 0 101 R D
9023 1408 M 0 101 R D 9149 1408 M 0 101 R D 9275 1408 M 0 101 R D
9400 1408 M 0 101 R D 9526 1408 M 0 101 R D 9651 1408 M 0 101 R D
9903 1408 M 0 101 R D 10028 1408 M 0 101 R D 10154 1408 M 0 101 R D
10279 1408 M 0 101 R D 10405 1408 M 0 101 R D 10531 1408 M 0 101 R D
10656 1408 M 0 101 R D 10782 1408 M 0 101 R D 10907 1408 M 0 101 R D
11159 1408 M 0 101 R D 11284 1408 M 0 101 R D 11410 1408 M 0 101 R D
11536 1408 M 0 101 R D 11661 1408 M 0 101 R D 11787 1408 M 0 101 R D
11912 1408 M 0 101 R D 12038 1408 M 0 101 R D 12164 1408 M 0 101 R D
7258 6446 M 5038 0 R D 7265 6446 M 0 -201 R D 8521 6446 M 0 -201 R D
9777 6446 M 0 -201 R D 11033 6446 M 0 -201 R D 12289 6446 M 0 -201 R D
7391 6446 M 0 -101 R D 7516 6446 M 0 -101 R D 7642 6446 M 0 -101 R D
7767 6446 M 0 -101 R D 7893 6446 M 0 -101 R D 8019 6446 M 0 -101 R D
8144 6446 M 0 -101 R D 8270 6446 M 0 -101 R D 8395 6446 M 0 -101 R D
8647 6446 M 0 -101 R D 8772 6446 M 0 -101 R D 8898 6446 M 0 -101 R D
9023 6446 M 0 -101 R D 9149 6446 M 0 -101 R D 9275 6446 M 0 -101 R D
9400 6446 M 0 -101 R D 9526 6446 M 0 -101 R D 9651 6446 M 0 -101 R D
9903 6446 M 0 -101 R D 10028 6446 M 0 -101 R D 10154 6446 M 0 -101 R D
10279 6446 M 0 -101 R D 10405 6446 M 0 -101 R D 10531 6446 M 0 -101 R D
10656 6446 M 0 -101 R D 10782 6446 M 0 -101 R D 10907 6446 M 0 -101 R D
11159 6446 M 0 -101 R D 11284 6446 M 0 -101 R D 11410 6446 M 0 -101 R D
11536 6446 M 0 -101 R D 11661 6446 M 0 -101 R D 11787 6446 M 0 -101 R D
11912 6446 M 0 -101 R D 12038 6446 M 0 -101 R D 12164 6446 M 0 -101 R D
7258 1408 M 0 5038 R D 7258 1415 M 202 0 R D gsave 7147 1408 translate 0 0 M
-117.687 0 N
( ) show grestore 7258 2671 M 202 0 R D gsave 7147 2530 translate 0 0 M
-117.687 0 N
( ) show grestore 7258 3927 M 202 0 R D gsave 7147 3786 translate 0 0 M
-117.687 0 N
( ) show grestore 7258 5183 M 202 0 R D gsave 7147 5042 translate 0 0 M
-117.687 0 N
( ) show grestore 7258 6439 M 202 0 R D gsave 7147 6200 translate 0 0 M
-117.687 0 N
( ) show grestore 7258 1541 M 101 0 R D 7258 1666 M 101 0 R D 7258 1792 M
101 0 R D 7258 1917 M 101 0 R D 7258 2043 M 101 0 R D 7258 2169 M 101 0 R D
7258 2294 M 101 0 R D 7258 2420 M 101 0 R D 7258 2545 M 101 0 R D
7258 2797 M 101 0 R D 7258 2922 M 101 0 R D 7258 3048 M 101 0 R D
7258 3173 M 101 0 R D 7258 3299 M 101 0 R D 7258 3425 M 101 0 R D
7258 3550 M 101 0 R D 7258 3676 M 101 0 R D 7258 3801 M 101 0 R D
7258 4053 M 101 0 R D 7258 4178 M 101 0 R D 7258 4304 M 101 0 R D
7258 4429 M 101 0 R D 7258 4555 M 101 0 R D 7258 4681 M 101 0 R D
7258 4806 M 101 0 R D 7258 4932 M 101 0 R D 7258 5057 M 101 0 R D
7258 5309 M 101 0 R D 7258 5434 M 101 0 R D 7258 5560 M 101 0 R D
7258 5686 M 101 0 R D 7258 5811 M 101 0 R D 7258 5937 M 101 0 R D
7258 6062 M 101 0 R D 7258 6188 M 101 0 R D 7258 6314 M 101 0 R D
12296 1408 M 0 5038 R D 12296 1415 M -201 0 R D 12296 2671 M -201 0 R D
12296 3927 M -201 0 R D 12296 5183 M -201 0 R D 12296 6439 M -201 0 R D
12296 1541 M -101 0 R D 12296 1666 M -101 0 R D 12296 1792 M -101 0 R D
12296 1917 M -101 0 R D 12296 2043 M -101 0 R D 12296 2169 M -101 0 R D
12296 2294 M -101 0 R D 12296 2420 M -101 0 R D 12296 2545 M -101 0 R D
12296 2797 M -101 0 R D 12296 2922 M -101 0 R D 12296 3048 M -101 0 R D
12296 3173 M -101 0 R D 12296 3299 M -101 0 R D 12296 3425 M -101 0 R D
12296 3550 M -101 0 R D 12296 3676 M -101 0 R D 12296 3801 M -101 0 R D
12296 4053 M -101 0 R D 12296 4178 M -101 0 R D 12296 4304 M -101 0 R D
12296 4429 M -101 0 R D 12296 4555 M -101 0 R D 12296 4681 M -101 0 R D
12296 4806 M -101 0 R D 12296 4932 M -101 0 R D 12296 5057 M -101 0 R D
12296 5309 M -101 0 R D 12296 5434 M -101 0 R D 12296 5560 M -101 0 R D
12296 5686 M -101 0 R D 12296 5811 M -101 0 R D 12296 5937 M -101 0 R D
12296 6062 M -101 0 R D 12296 6188 M -101 0 R D 12296 6314 M -101 0 R D
12296 3927 M -7 188 R -56 372 R -110 359 R -163 339 R -212 310 R -255 276 R
-294 235 R -325 189 R -349 138 R -367 84 R -374 29 R -375 -27 R -367 -83 R
-350 -136 R -327 -187 R -176 -131 R -162 -143 R -149 -157 R -136 -171 R
-122 -183 R -106 -194 R -89 -205 R -71 -214 R -52 -221 R -32 -227 R
-12 -230 R 10 -232 R 31 -232 R 36 -163 R 49 -169 R 61 -165 R 73 -163 R
85 -158 R 97 -153 R 109 -147 R 121 -140 R 131 -132 R 142 -123 R 118 -89 R
123 -81 R 128 -75 R 133 -68 R 139 -60 R 143 -52 R 147 -43 R 150 -35 R
153 -26 R 137 -15 R 137 -7 R 139 0 R 140 8 R 141 16 R 140 24 R 140 32 R
139 41 R 137 48 R 135 57 R 116 57 R 114 62 R 111 70 R 108 75 R 105 82 R
95 82 R 101 97 R 86 92 R 81 95 R 85 111 R 70 104 R 65 106 R 59 109 R
54 111 R 48 114 R 43 117 R 37 118 R 31 120 R 25 121 R 19 122 R 13 124 R
7 123 R 1 124 R -5 124 R -12 123 R -17 123 R -23 121 R -30 121 R -35 118 R
-41 117 R -46 115 R -53 112 R -57 110 R -63 106 R -69 104 R -73 100 R
-78 96 R -82 92 R -87 88 R -92 84 R -95 79 R -99 74 R -103 70 R -105 64 R
-109 59 R -112 54 R -114 48 R -117 42 R -118 36 R -120 31 R -121 25 R
-123 19 R -123 12 R -123 7 R -124 1 R -124 -6 R -123 -12 R -123 -17 R
-121 -24 R -121 -29 R -118 -36 R -117 -41 R -115 -47 R -112 -53 R -109 -58 R
-107 -63 R -103 -68 R -100 -74 R -96 -78 R -92 -83 R -88 -87 R -83 -92 R
-79 -95 R -74 -99 R -69 -103 R -64 -106 R -59 -109 R -53 -112 R -48 -114 R
-42 -117 R -36 -118 R -30 -120 R -25 -122 R -18 -122 R -13 -123 R -6 -124 R
0 -124 R 6 -123 R 11 -124 R 18 -122 R 24 -122 R 30 -120 R 36 -119 R
42 -116 R 47 -115 R 53 -112 R 58 -109 R 63 -106 R 69 -103 R 74 -100 R
78 -96 R 83 -91 R 88 -88 R 92 -83 R 95 -79 R 100 -74 R 103 -69 R 106 -63 R
109 -59 R 112 -53 R 114 -47 R 117 -42 R 119 -36 R 120 -30 R 121 -24 R
123 -18 R 123 -12 R 124 -6 R 123 0 R 124 6 R 123 12 R 123 19 R 121 24 R
120 30 R 119 36 R 116 42 R 115 47 R 112 54 R 109 58 R 106 64 R 103 69 R
99 74 R 96 79 R 91 83 R 88 88 R 83 91 R 78 96 R 74 100 R 68 103 R 64 106 R
58 110 R 52 112 R 48 114 R 41 117 R 36 119 R 29 120 R 24 121 R 18 123 R
12 123 R 6 124 R -1 124 R -6 124 R -13 123 R -18 122 R -25 122 R -31 120 R
-36 118 R -42 116 R -48 115 R -53 111 R -59 109 R -64 106 R -69 103 R
-75 99 R -79 96 R -83 91 R -88 87 R -92 83 R -96 78 R -100 73 R -103 69 R
-107 63 R -109 58 R -113 52 R -114 47 R -117 41 R -119 35 R -120 30 R
-122 23 R -122 18 R -124 11 R -123 6 R -124 -1 R -124 -7 R -123 -13 R
-122 -19 R -122 -25 R -120 -30 R -118 -37 R -116 -42 R -114 -49 R -112 -53 R
-109 -59 R -106 -65 R -102 -69 R -99 -75 R -95 -79 R -91 -84 R -87 -88 R
-83 -92 R -78 -96 R -73 -100 R -68 -104 R -63 -107 R -57 -109 R -52 -113 R
-47 -114 R -41 -117 R -35 -119 R -29 -120 R -23 -122 R -17 -123 R -12 -123 R
-5 -124 R 1 -124 R 8 -123 R 13 -123 R 19 -123 R 25 -121 R 31 -120 R
37 -118 R 43 -116 R 48 -114 R 54 -112 R 60 -108 R 64 -106 R 70 -102 R
75 -99 R 79 -95 R 84 -91 R 89 -87 R 92 -82 R 97 -78 R 100 -73 R 104 -67 R
106 -63 R 110 -57 R 113 -52 R 115 -46 R 117 -41 R 118 -35 R 121 -28 R
122 -23 R 122 -17 R 124 -11 R 123 -5 R 124 2 R 124 7 R 123 14 R 122 19 R
121 26 R 120 31 R 118 37 R 116 43 R 114 49 R 112 54 R 108 60 R 106 65 R
102 70 R 98 75 R 95 80 R 91 84 R 86 88 R 82 93 R 78 97 R 72 100 R 68 104 R
62 107 R 57 110 R 52 113 R 46 115 R 40 117 R 34 119 R 29 120 R 22 122 R
17 123 R 11 123 R 4 124 R -2 124 R -7 123 R -14 123 R -20 123 R -26 121 R
-32 119 R -37 118 R -44 116 R -49 114 R -54 111 R -60 109 R -65 105 R
-71 102 R -75 98 R -80 95 R -84 91 R -89 86 R -93 82 R -97 77 R -100 72 R
-104 67 R -108 62 R -110 57 R -112 51 R -116 46 R -117 40 R -119 34 R
-120 28 R -122 22 R -123 17 R -123 10 R -124 4 R -124 -2 R -124 -8 R
-123 -14 R -122 -20 R -121 -26 R -119 -33 R -118 -37 R -116 -44 R -114 -49 R
-111 -55 R -108 -60 R -105 -66 R -102 -70 R -98 -76 R -95 -80 R -90 -85 R
-86 -89 R -82 -93 R -76 -97 R -73 -101 R -66 -104 R -62 -107 R -57 -110 R
-51 -113 R -45 -116 R -40 -117 R -33 -119 R -28 -121 R -22 -122 R -16 -122 R
-10 -124 R -4 -124 R 2 -123 R 9 -124 R 14 -123 R 21 -122 R 26 -121 R
33 -120 R 38 -117 R 44 -116 R 49 -114 R 55 -111 R 61 -108 R 66 -105 R
70 -101 R 76 -98 R 80 -94 R 85 -91 R 90 -85 R 93 -82 R 97 -76 R 101 -72 R
105 -67 R 107 -61 R 111 -57 R 113 -50 R 115 -45 R 117 -40 R 120 -33 R
120 -28 R 122 -21 R 123 -16 R 124 -9 R 123 -4 R 124 3 R 124 8 R 123 15 R
122 21 R 121 27 R 119 32 R 118 39 R 115 44 R 114 50 R 111 55 R 107 61 R
105 66 R 102 71 R 98 76 R 93 81 R 90 85 R 86 89 R 81 94 R 76 98 R 72 101 R
66 104 R 62 108 R 55 110 R 51 113 R 45 116 R 39 117 R 33 120 R 27 121 R
21 122 R 16 122 R 9 124 R 3 124 R -3 124 R -9 123 R -15 123 R -21 122 R
-27 121 R -33 119 R -39 118 R -44 115 R -51 114 R -55 110 R -61 108 R
-67 105 R -71 101 R -76 98 R -81 93 R -85 90 R -90 85 R -94 81 R -98 76 R
-101 72 R -105 66 R -107 61 R -111 55 R -113 50 R -116 45 R -118 38 R
-119 33 R -121 27 R -122 21 R -123 15 R -123 9 R -124 3 R -124 -3 R
-123 -9 R -123 -16 R -122 -21 R -121 -28 R -119 -33 R -118 -39 R -115 -45 R
-113 -50 R -111 -56 R -107 -62 R -105 -66 R -101 -72 R -97 -76 R -94 -81 R
-89 -86 R -85 -90 R -81 -94 R -76 -98 R -71 -101 R -66 -105 R -61 -108 R
-55 -111 R -50 -113 R -44 -116 R -38 -118 R -33 -119 R -26 -121 R -21 -122 R
-15 -123 R -8 -124 R -3 -124 R 4 -123 R 9 -124 R 16 -123 R 22 -122 R
27 -120 R 34 -119 R 39 -118 R 46 -115 R 50 -113 R 57 -110 R 61 -108 R
67 -104 R 72 -101 R 76 -97 R 82 -94 R 86 -89 R 90 -85 R 94 -80 R 98 -76 R
102 -70 R 105 -66 R 108 -61 R 111 -55 R 113 -49 R 116 -44 R 118 -38 R
120 -32 R 121 -27 R 122 -20 R 123 -14 R 123 -9 R 124 -2 R 124 4 R 123 10 R
123 16 R 122 22 R 121 28 R 119 34 R 117 40 R 115 45 R 113 51 R 110 57 R
108 61 R 104 68 R 100 72 R 97 77 R 94 81 R 89 86 R 84 91 R 80 94 R 76 98 R
70 102 R 66 105 R 60 109 R 54 111 R 50 113 R 43 116 R 38 118 R 32 120 R
26 121 R 20 122 R 14 123 R 8 124 R 2 124 R -4 123 R -11 124 R -16 123 R
-22 121 R -28 121 R -35 119 R -40 117 R -45 115 R -52 113 R -57 110 R
-62 107 R -67 104 R -72 101 R -78 96 R -81 93 R -87 89 R -90 85 R -95 79 R
-98 76 R -102 70 R -106 65 R -108 60 R -111 54 R -114 49 R -116 43 R
-118 38 R -120 31 R -121 26 R -122 20 R -124 14 R -123 7 R -124 2 R
-124 -5 R -123 -10 R -123 -17 R -122 -23 R -120 -28 R -119 -35 R -117 -40 R
-115 -46 R -113 -52 R -110 -57 R -106 -62 R -104 -68 R -101 -72 R D
0.208 0.208 0.208 setrgbcolor 9765 3927 M 0 3 R 0 1 R 1 1 R 0 1 R 1 1 R
0 1 R 1 0 R 0 1 R 1 0 R 0 1 R 1 0 R 0 1 R 1 0 R 1 0 R 0 1 R 1 0 R 1 0 R
1 0 R 0 1 R 1 0 R 1 0 R 1 0 R 1 0 R 0 -1 R 1 0 R 1 0 R 1 0 R 0 -1 R 1 0 R
1 0 R 0 -1 R 1 0 R 1 -1 R 1 -1 R 0 -1 R 1 0 R 0 -1 R 1 -1 R 0 -1 R 0 -1 R
1 -3 R D 9765 3927 M 0 -2 R 0 -1 R 0 -1 R 1 -1 R 0 -1 R 1 -1 R 0 -1 R 1 0 R
0 -1 R 1 0 R 0 -1 R 1 0 R 1 -1 R 1 0 R 0 -1 R 1 0 R 1 0 R 1 0 R 1 0 R 1 0 R
1 0 R 1 0 R 1 0 R 1 0 R 1 0 R 0 1 R 1 0 R 1 0 R 0 1 R 1 0 R 0 1 R 1 0 R
0 1 R 1 0 R 0 1 R 1 0 R 0 1 R 0 1 R 1 0 R 0 1 R 0 1 R 0 1 R 1 2 R D
0.000 0.000 0.000 setrgbcolor 9777 3927 M Z gsave 10281 2164 translate 0 0 M
(45.0Gyr) show grestore gsave 10281 1812 translate 0 0 M
(3.0e11M) show X -101.051 M
%%IncludeResource: font Helvetica
262.467 /Helvetica STDFONT
(sun) show grestore
%%IncludeResource: font Helvetica
423.333 /Helvetica STDFONT
%%PageTrailer
end
%%PageResources: font Helvetica
%%Trailer
%%Pages: 1
%%DocumentNeededResources: font Helvetica
%%EOF
