%!PS-Adobe-3.0 EPSF-3.0
%%BoundingBox: 0 0 510 510
%%Title: Graphics produced by IDL
%%For: dacia@Lserver, /home/dacia/work/subhalo_model
%%Creator: IDL Version 7.0 (linux x86_64 m64)
%%CreationDate: Tue Dec 15 10:31:40 2009
%%DocumentData: Clean7bit
%%Requirements: color
%%LanguageLevel: 1
%%PageOrder: Ascend
%%Pages: (atend)
%%DocumentNeededResources: (atend)
%%EndComments
%%BeginProlog
%+ prolog.ps -- Prolog for IDL generated PostScript files
%+ Copyright (c) 1988-2007 ITT Visual Information Solutions. All Rights Reserved.
%v 5
/$IDL_DICT 40 dict def $IDL_DICT begin /bdef { bind def } bind def /C
{currentpoint newpath moveto} bdef /CP {currentpoint} bdef /D {currentpoint
stroke moveto} bdef /F {closepath fill} bdef /K { setgray } bdef /M {moveto}
bdef /N {rmoveto} bdef /P {lineto} bdef /R {rlineto} bdef /S {gsave show
grestore} bdef /X {currentpoint pop} bdef /Z {gsave currentpoint lineto 20
setlinewidth 1 setlinecap stroke grestore} bdef /L0 {[] 0 setdash} bdef /L1
{[40 100] 0 setdash} bdef /L2 {[200 200] 0 setdash} bdef /L3 {[200 100 50
100] 0 setdash} bdef /L4 {[300 100 50 100 50 100 50 100] 0 setdash} bdef /L5
{[400 200] 0 setdash} bdef /STDFONT { findfont exch scalefont setfont } bdef
/ISOFONT { findfont dup length dict begin { 1 index /FID ne {def} {pop pop}
ifelse } forall /Encoding ISOLatin1Encoding def currentdict end /idltmpfont
exch definefont exch scalefont setfont } bdef /ISOBULLET { gsave /Helvetica
findfont exch scalefont setfont (\267) show currentpoint grestore moveto}
bdef /MITERLIMIT { 2.5 setmiterlimit } bdef end
%%EndProlog
%%Page: 0 1
%%PageRequirements: color
%%PageResources: (atend)
%%PageOrientation: Portrait
%%PageBoundingBox: 0 0 510 510
%%BeginPageSetup
$IDL_DICT begin 0.0283465 dup scale MITERLIMIT
%%IncludeResource: font Helvetica
423.333 /Helvetica STDFONT
%%EndPageSetup
0.000 0.000 0.000 setrgbcolor gsave 9777 352 translate 0 0 M -458.682 0 N
(r/kpc) show grestore gsave 888 9352 translate 0 0 M 90 rotate -458.682 0 N
(r/kpc) show grestore 40 setlinewidth L0 2220 12000 M 5038 0 R D
2224 12000 M 0 202 R D gsave 2224 11472 translate 0 0 M -58.8433 0 N
( ) show grestore 3481 12000 M 0 202 R D gsave 3481 11472 translate 0 0 M
-58.8433 0 N
( ) show grestore 4739 12000 M 0 202 R D gsave 4739 11472 translate 0 0 M
-58.8433 0 N
( ) show grestore 5997 12000 M 0 202 R D gsave 5997 11472 translate 0 0 M
-58.8433 0 N
( ) show grestore 7255 12000 M 0 202 R D gsave 7255 11472 translate 0 0 M
-58.8433 0 N
( ) show grestore 2538 12000 M 0 101 R D 2853 12000 M 0 101 R D 3167 12000 M
0 101 R D 3796 12000 M 0 101 R D 4110 12000 M 0 101 R D 4425 12000 M 0 101 R
D 5054 12000 M 0 101 R D 5368 12000 M 0 101 R D 5682 12000 M 0 101 R D
6311 12000 M 0 101 R D 6626 12000 M 0 101 R D 6940 12000 M 0 101 R D
2220 17038 M 5038 0 R D 2224 17038 M 0 -201 R D 3481 17038 M 0 -201 R D
4739 17038 M 0 -201 R D 5997 17038 M 0 -201 R D 7255 17038 M 0 -201 R D
2538 17038 M 0 -101 R D 2853 17038 M 0 -101 R D 3167 17038 M 0 -101 R D
3796 17038 M 0 -101 R D 4110 17038 M 0 -101 R D 4425 17038 M 0 -101 R D
5054 17038 M 0 -101 R D 5368 17038 M 0 -101 R D 5682 17038 M 0 -101 R D
6311 17038 M 0 -101 R D 6626 17038 M 0 -101 R D 6940 17038 M 0 -101 R D
2220 12000 M 0 5038 R D 2220 12004 M 202 0 R D
gsave 2109 12000 translate 0 0 M -847.09 0 N
(-400) show grestore 2220 13261 M 202 0 R D gsave 2109 13121 translate 0 0 M
-847.09 0 N
(-200) show grestore 2220 14519 M 202 0 R D gsave 2109 14378 translate 0 0 M
-235.373 0 N
(0) show grestore 2220 15777 M 202 0 R D gsave 2109 15636 translate 0 0 M
-706.12 0 N
(200) show grestore 2220 17035 M 202 0 R D gsave 2109 16792 translate 0 0 M
-706.12 0 N
(400) show grestore 2220 12318 M 101 0 R D 2220 12633 M 101 0 R D
2220 12947 M 101 0 R D 2220 13576 M 101 0 R D 2220 13890 M 101 0 R D
2220 14205 M 101 0 R D 2220 14834 M 101 0 R D 2220 15148 M 101 0 R D
2220 15462 M 101 0 R D 2220 16091 M 101 0 R D 2220 16406 M 101 0 R D
2220 16720 M 101 0 R D 7258 12000 M 0 5038 R D 7258 12004 M -201 0 R D
7258 13261 M -201 0 R D 7258 14519 M -201 0 R D 7258 15777 M -201 0 R D
7258 17035 M -201 0 R D 7258 12318 M -101 0 R D 7258 12633 M -101 0 R D
7258 12947 M -101 0 R D 7258 13576 M -101 0 R D 7258 13890 M -101 0 R D
7258 14205 M -101 0 R D 7258 14834 M -101 0 R D 7258 15148 M -101 0 R D
7258 15462 M -101 0 R D 7258 16091 M -101 0 R D 7258 16406 M -101 0 R D
7258 16720 M -101 0 R D 6000 14519 M -97 9 R -220 19 R -262 17 R -171 8 R
-112 3 R -93 2 R -75 0 R -60 -1 R -48 -2 R -39 -2 R -30 -3 R -27 -3 R
-26 -3 R -25 -5 R -22 -5 R -23 -6 R -30 -8 R -39 -13 R -57 -19 R -85 -31 R
-132 -51 R -218 -92 R -244 -109 R -203 -95 R -172 -84 R -148 -75 R
-129 -68 R -114 -62 R -101 -56 R -89 -52 R -79 -46 R -70 -43 R -61 -39 R
-52 -35 R -45 -32 R -38 -28 R -30 -25 R -24 -22 R -17 -19 R -10 -16 R
-4 -12 R 2 -9 R 9 -7 R 15 -3 R 21 0 R 28 4 R 35 7 R 41 10 R 48 14 R 56 18 R
63 22 R 72 26 R 80 31 R 89 36 R 100 42 R 111 49 R 124 56 R 139 65 R 159 77 R
182 91 R 213 112 R 256 141 R 129 76 R 33 19 R 94 59 R 17 11 R 66 43 R
22 16 R 26 19 R 23 17 R 20 17 R 18 16 R 17 16 R 15 15 R 18 19 R 22 25 R
31 37 R 44 53 R 64 85 R 102 138 R 170 245 R 134 204 R 111 175 R 93 152 R
80 134 R 69 119 R 60 107 R 52 96 R 46 86 R 39 78 R 34 69 R 28 62 R 24 54 R
19 47 R 15 41 R 11 34 R 6 28 R 3 22 R -1 16 R -5 10 R -9 4 R -12 -2 R
-16 -8 R -20 -14 R -24 -21 R -27 -27 R -32 -34 R -35 -40 R -40 -48 R
-44 -56 R -49 -64 R -53 -72 R -59 -83 R -65 -93 R -72 -106 R -79 -120 R
-88 -137 R -99 -160 R -113 -187 R -130 -226 R -154 -287 R -17 -33 R
-47 -95 R -9 -19 R -32 -72 R -11 -25 R -12 -30 R -10 -26 R -9 -25 R -7 -23 R
-6 -23 R -4 -21 R -5 -25 R -6 -34 R -7 -46 R -8 -69 R -11 -105 R -13 -170 R
-14 -299 R -6 -244 R -2 -207 R 1 -179 R 3 -156 R 5 -138 R 6 -122 R 6 -110 R
7 -97 R D 0.208 0.208 0.208 setrgbcolor 4733 14519 M 0 1 R 0 1 R 0 1 R 1 0 R
0 1 R 1 0 R 0 1 R 1 0 R 0 1 R 1 0 R 1 0 R 1 0 R 1 0 R 1 0 R 1 0 R 0 -1 R
1 0 R 1 -1 R 0 -1 R 1 0 R 0 -1 R 0 -1 R 0 -1 R D 4733 14519 M 0 -1 R 0 -1 R
0 -1 R 1 0 R 0 -1 R 1 0 R 0 -1 R 1 0 R 0 -1 R 1 0 R 1 0 R 1 0 R 1 0 R 1 0 R
1 0 R 0 1 R 1 0 R 0 1 R 1 0 R 0 1 R 1 0 R 0 1 R 0 1 R 0 1 R D
0.000 0.000 0.000 setrgbcolor 4739 14519 M Z
gsave 5243 12756 translate 0 0 M
(20.0Gyr) show grestore gsave 5243 12404 translate 0 0 M
(5.0e10M) show X -101.051 M
%%IncludeResource: font Helvetica
262.467 /Helvetica STDFONT
(sun) show grestore
%%IncludeResource: font Helvetica
423.333 /Helvetica STDFONT 7258 12000 M 5038 0 R D 7262 12000 M 0 202 R D
gsave 7262 11472 translate 0 0 M -58.8433 0 N
( ) show grestore 8519 12000 M 0 202 R D gsave 8519 11472 translate 0 0 M
-58.8433 0 N
( ) show grestore 9777 12000 M 0 202 R D gsave 9777 11472 translate 0 0 M
-58.8433 0 N
( ) show grestore 11035 12000 M 0 202 R D gsave 11035 11472 translate 0 0 M
-58.8433 0 N
( ) show grestore 12293 12000 M 0 202 R D gsave 12293 11472 translate 0 0 M
-58.8433 0 N
( ) show grestore 7576 12000 M 0 101 R D 7891 12000 M 0 101 R D 8205 12000 M
0 101 R D 8834 12000 M 0 101 R D 9148 12000 M 0 101 R D 9463 12000 M 0 101 R
D 10092 12000 M 0 101 R D 10406 12000 M 0 101 R D 10720 12000 M 0 101 R D
11349 12000 M 0 101 R D 11664 12000 M 0 101 R D 11978 12000 M 0 101 R D
7258 17038 M 5038 0 R D 7262 17038 M 0 -201 R D 8519 17038 M 0 -201 R D
9777 17038 M 0 -201 R D 11035 17038 M 0 -201 R D 12293 17038 M 0 -201 R D
7576 17038 M 0 -101 R D 7891 17038 M 0 -101 R D 8205 17038 M 0 -101 R D
8834 17038 M 0 -101 R D 9148 17038 M 0 -101 R D 9463 17038 M 0 -101 R D
10092 17038 M 0 -101 R D 10406 17038 M 0 -101 R D 10720 17038 M 0 -101 R D
11349 17038 M 0 -101 R D 11664 17038 M 0 -101 R D 11978 17038 M 0 -101 R D
7258 12000 M 0 5038 R D 7258 12004 M 202 0 R D
gsave 7147 12000 translate 0 0 M -117.687 0 N
( ) show grestore 7258 13261 M 202 0 R D gsave 7147 13121 translate 0 0 M
-117.687 0 N
( ) show grestore 7258 14519 M 202 0 R D gsave 7147 14378 translate 0 0 M
-117.687 0 N
( ) show grestore 7258 15777 M 202 0 R D gsave 7147 15636 translate 0 0 M
-117.687 0 N
( ) show grestore 7258 17035 M 202 0 R D gsave 7147 16792 translate 0 0 M
-117.687 0 N
( ) show grestore 7258 12318 M 101 0 R D 7258 12633 M 101 0 R D 7258 12947 M
101 0 R D 7258 13576 M 101 0 R D 7258 13890 M 101 0 R D 7258 14205 M 101 0 R
D 7258 14834 M 101 0 R D 7258 15148 M 101 0 R D 7258 15462 M 101 0 R D
7258 16091 M 101 0 R D 7258 16406 M 101 0 R D 7258 16720 M 101 0 R D
12296 12000 M 0 5038 R D 12296 12004 M -201 0 R D 12296 13261 M -201 0 R D
12296 14519 M -201 0 R D 12296 15777 M -201 0 R D 12296 17035 M -201 0 R D
12296 12318 M -101 0 R D 12296 12633 M -101 0 R D 12296 12947 M -101 0 R D
12296 13576 M -101 0 R D 12296 13890 M -101 0 R D 12296 14205 M -101 0 R D
12296 14834 M -101 0 R D 12296 15148 M -101 0 R D 12296 15462 M -101 0 R D
12296 16091 M -101 0 R D 12296 16406 M -101 0 R D 12296 16720 M -101 0 R D
11038 14519 M -97 9 R -220 19 R -262 17 R -171 8 R -112 3 R -93 2 R -75 0 R
-60 -1 R -48 -2 R -39 -2 R -30 -3 R -27 -3 R -26 -3 R -25 -5 R -22 -5 R
-23 -6 R -30 -8 R -39 -13 R -57 -19 R -85 -31 R -132 -51 R -218 -92 R
-244 -109 R -203 -95 R -172 -84 R -148 -75 R -129 -68 R -114 -62 R
-101 -56 R -89 -52 R -79 -46 R -70 -43 R -61 -39 R -52 -35 R -45 -32 R
-38 -28 R -30 -25 R -24 -22 R -17 -19 R -10 -16 R -4 -12 R 2 -9 R 9 -7 R
15 -3 R 21 0 R 28 4 R 35 7 R 41 10 R 48 14 R 56 18 R 63 22 R 72 26 R 80 31 R
89 36 R 100 42 R 111 49 R 124 56 R 139 65 R 159 77 R 182 91 R 213 112 R
256 141 R 129 76 R 33 19 R 94 59 R 17 11 R 65 43 R 23 16 R 26 19 R 23 17 R
20 17 R 18 16 R 17 16 R 15 15 R 18 19 R 22 25 R 31 37 R 44 53 R 64 85 R
102 138 R 170 245 R 134 204 R 111 175 R 93 152 R 80 134 R 69 119 R 60 107 R
52 96 R 46 86 R 39 78 R 34 69 R 28 62 R 24 54 R 19 47 R 15 41 R 11 34 R
6 28 R 3 22 R -1 16 R -5 10 R -9 4 R -12 -2 R -16 -8 R -20 -14 R -24 -21 R
-27 -27 R -32 -34 R -35 -40 R -40 -48 R -44 -56 R -49 -64 R -53 -72 R
-59 -83 R -65 -93 R -72 -106 R -79 -120 R -88 -137 R -99 -160 R -113 -187 R
-130 -226 R -154 -287 R -17 -33 R -47 -95 R -9 -19 R -32 -72 R -11 -25 R
-12 -30 R -10 -26 R -9 -25 R -7 -23 R -6 -23 R -4 -21 R -5 -25 R -6 -34 R
-7 -46 R -8 -69 R -11 -105 R -13 -170 R -14 -299 R -6 -244 R -2 -207 R
1 -179 R 3 -156 R 5 -138 R 6 -122 R 6 -110 R 7 -97 R D
0.208 0.208 0.208 setrgbcolor 9771 14519 M 0 1 R 0 1 R 0 1 R 1 0 R 0 1 R
1 0 R 0 1 R 1 0 R 0 1 R 1 0 R 1 0 R 1 0 R 1 0 R 1 0 R 1 0 R 0 -1 R 1 0 R
1 -1 R 0 -1 R 1 0 R 0 -1 R 0 -1 R 0 -1 R D 9771 14519 M 0 -1 R 0 -1 R 0 -1 R
1 0 R 0 -1 R 1 0 R 0 -1 R 1 0 R 0 -1 R 1 0 R 1 0 R 1 0 R 1 0 R 1 0 R 1 0 R
0 1 R 1 0 R 0 1 R 1 0 R 0 1 R 1 0 R 0 1 R 0 1 R 0 1 R D
0.000 0.000 0.000 setrgbcolor 9777 14519 M Z
gsave 10281 12756 translate 0 0 M
(20.0Gyr) show grestore gsave 10281 12404 translate 0 0 M
(7.5e10M) show X -101.051 M
%%IncludeResource: font Helvetica
262.467 /Helvetica STDFONT
(sun) show grestore
%%IncludeResource: font Helvetica
423.333 /Helvetica STDFONT 12296 12000 M 5038 0 R D 12300 12000 M 0 202 R D
gsave 12300 11472 translate 0 0 M -58.8433 0 N
( ) show grestore 13557 12000 M 0 202 R D gsave 13557 11472 translate 0 0 M
-58.8433 0 N
( ) show grestore 14815 12000 M 0 202 R D gsave 14815 11472 translate 0 0 M
-58.8433 0 N
( ) show grestore 16073 12000 M 0 202 R D gsave 16073 11472 translate 0 0 M
-58.8433 0 N
( ) show grestore 17331 12000 M 0 202 R D gsave 17331 11472 translate 0 0 M
-58.8433 0 N
( ) show grestore 12614 12000 M 0 101 R D 12929 12000 M 0 101 R D
13243 12000 M 0 101 R D 13872 12000 M 0 101 R D 14186 12000 M 0 101 R D
14501 12000 M 0 101 R D 15130 12000 M 0 101 R D 15444 12000 M 0 101 R D
15758 12000 M 0 101 R D 16387 12000 M 0 101 R D 16702 12000 M 0 101 R D
17016 12000 M 0 101 R D 12296 17038 M 5038 0 R D 12300 17038 M 0 -201 R D
13557 17038 M 0 -201 R D 14815 17038 M 0 -201 R D 16073 17038 M 0 -201 R D
17331 17038 M 0 -201 R D 12614 17038 M 0 -101 R D 12929 17038 M 0 -101 R D
13243 17038 M 0 -101 R D 13872 17038 M 0 -101 R D 14186 17038 M 0 -101 R D
14501 17038 M 0 -101 R D 15130 17038 M 0 -101 R D 15444 17038 M 0 -101 R D
15758 17038 M 0 -101 R D 16387 17038 M 0 -101 R D 16702 17038 M 0 -101 R D
17016 17038 M 0 -101 R D 12296 12000 M 0 5038 R D 12296 12004 M 202 0 R D
gsave 12185 12000 translate 0 0 M -117.687 0 N
( ) show grestore 12296 13261 M 202 0 R D gsave 12185 13121 translate 0 0 M
-117.687 0 N
( ) show grestore 12296 14519 M 202 0 R D gsave 12185 14378 translate 0 0 M
-117.687 0 N
( ) show grestore 12296 15777 M 202 0 R D gsave 12185 15636 translate 0 0 M
-117.687 0 N
( ) show grestore 12296 17035 M 202 0 R D gsave 12185 16792 translate 0 0 M
-117.687 0 N
( ) show grestore 12296 12318 M 101 0 R D 12296 12633 M 101 0 R D
12296 12947 M 101 0 R D 12296 13576 M 101 0 R D 12296 13890 M 101 0 R D
12296 14205 M 101 0 R D 12296 14834 M 101 0 R D 12296 15148 M 101 0 R D
12296 15462 M 101 0 R D 12296 16091 M 101 0 R D 12296 16406 M 101 0 R D
12296 16720 M 101 0 R D 17334 12000 M 0 5038 R D 17334 12004 M -201 0 R D
17334 13261 M -201 0 R D 17334 14519 M -201 0 R D 17334 15777 M -201 0 R D
17334 17035 M -201 0 R D 17334 12318 M -101 0 R D 17334 12633 M -101 0 R D
17334 12947 M -101 0 R D 17334 13576 M -101 0 R D 17334 13890 M -101 0 R D
17334 14205 M -101 0 R D 17334 14834 M -101 0 R D 17334 15148 M -101 0 R D
17334 15462 M -101 0 R D 17334 16091 M -101 0 R D 17334 16406 M -101 0 R D
17334 16720 M -101 0 R D 16076 14519 M -97 9 R -220 19 R -262 17 R -171 8 R
-112 3 R -93 2 R -75 0 R -60 -1 R -48 -2 R -39 -2 R -30 -3 R -27 -3 R
-26 -3 R -25 -5 R -22 -5 R -23 -6 R -30 -8 R -39 -13 R -57 -19 R -85 -31 R
-132 -51 R -218 -92 R -244 -109 R -203 -95 R -172 -84 R -148 -75 R
-129 -68 R -114 -62 R -101 -56 R -89 -52 R -79 -46 R -70 -43 R -61 -39 R
-52 -35 R -45 -32 R -38 -28 R -30 -25 R -24 -22 R -17 -19 R -10 -16 R
-4 -12 R 2 -9 R 9 -7 R 15 -3 R 21 0 R 28 4 R 35 7 R 41 10 R 48 14 R 56 18 R
63 22 R 72 26 R 80 31 R 89 36 R 100 42 R 111 49 R 124 56 R 139 65 R 159 77 R
182 91 R 213 112 R 256 141 R 129 76 R 33 19 R 94 59 R 17 11 R 65 43 R
23 16 R 26 19 R 23 17 R 20 17 R 18 16 R 17 16 R 15 15 R 18 19 R 22 25 R
31 37 R 44 53 R 64 85 R 102 138 R 170 245 R 134 204 R 111 175 R 93 152 R
80 134 R 69 119 R 60 107 R 52 96 R 46 86 R 39 78 R 34 69 R 28 62 R 24 54 R
19 47 R 15 41 R 11 34 R 6 28 R 3 22 R -1 16 R -5 10 R -9 4 R -12 -2 R
-16 -8 R -20 -14 R -24 -21 R -27 -27 R -32 -34 R -35 -40 R -40 -48 R
-44 -56 R -49 -64 R -53 -72 R -59 -83 R -65 -93 R -72 -106 R -79 -120 R
-88 -137 R -99 -160 R -113 -187 R -130 -226 R -154 -287 R -17 -33 R
-47 -95 R -9 -19 R -32 -72 R -11 -25 R -12 -30 R -10 -26 R -9 -25 R -7 -23 R
-6 -23 R -4 -21 R -5 -25 R -6 -34 R -7 -46 R -8 -69 R -11 -105 R -13 -170 R
-14 -299 R -6 -244 R -2 -207 R 1 -179 R 3 -156 R 5 -138 R 6 -122 R 6 -110 R
7 -97 R D 0.208 0.208 0.208 setrgbcolor 14809 14519 M 0 1 R 0 1 R 0 1 R
1 0 R 0 1 R 1 0 R 0 1 R 1 0 R 0 1 R 1 0 R 1 0 R 1 0 R 1 0 R 1 0 R 1 0 R
0 -1 R 1 0 R 1 -1 R 0 -1 R 1 0 R 0 -1 R 0 -1 R 0 -1 R D 14809 14519 M 0 -1 R
0 -1 R 0 -1 R 1 0 R 0 -1 R 1 0 R 0 -1 R 1 0 R 0 -1 R 1 0 R 1 0 R 1 0 R 1 0 R
1 0 R 1 0 R 0 1 R 1 0 R 0 1 R 1 0 R 0 1 R 1 0 R 0 1 R 0 1 R 0 1 R D
0.000 0.000 0.000 setrgbcolor 14815 14519 M Z
gsave 15319 12756 translate 0 0 M
(20.0Gyr) show grestore gsave 15319 12404 translate 0 0 M
(1.0e11M) show X -101.051 M
%%IncludeResource: font Helvetica
262.467 /Helvetica STDFONT
(sun) show grestore
%%IncludeResource: font Helvetica
423.333 /Helvetica STDFONT 2220 6704 M 5038 0 R D 2224 6704 M 0 202 R D
gsave 2224 6176 translate 0 0 M -58.8433 0 N
( ) show grestore 3481 6704 M 0 202 R D gsave 3481 6176 translate 0 0 M
-58.8433 0 N
( ) show grestore 4739 6704 M 0 202 R D gsave 4739 6176 translate 0 0 M
-58.8433 0 N
( ) show grestore 5997 6704 M 0 202 R D gsave 5997 6176 translate 0 0 M
-58.8433 0 N
( ) show grestore 7255 6704 M 0 202 R D gsave 7255 6176 translate 0 0 M
-58.8433 0 N
( ) show grestore 2538 6704 M 0 101 R D 2853 6704 M 0 101 R D 3167 6704 M
0 101 R D 3796 6704 M 0 101 R D 4110 6704 M 0 101 R D 4425 6704 M 0 101 R D
5054 6704 M 0 101 R D 5368 6704 M 0 101 R D 5682 6704 M 0 101 R D
6311 6704 M 0 101 R D 6626 6704 M 0 101 R D 6940 6704 M 0 101 R D
2220 11742 M 5038 0 R D 2224 11742 M 0 -201 R D 3481 11742 M 0 -201 R D
4739 11742 M 0 -201 R D 5997 11742 M 0 -201 R D 7255 11742 M 0 -201 R D
2538 11742 M 0 -101 R D 2853 11742 M 0 -101 R D 3167 11742 M 0 -101 R D
3796 11742 M 0 -101 R D 4110 11742 M 0 -101 R D 4425 11742 M 0 -101 R D
5054 11742 M 0 -101 R D 5368 11742 M 0 -101 R D 5682 11742 M 0 -101 R D
6311 11742 M 0 -101 R D 6626 11742 M 0 -101 R D 6940 11742 M 0 -101 R D
2220 6704 M 0 5038 R D 2220 6708 M 202 0 R D gsave 2109 6704 translate 0 0 M
-847.09 0 N
(-400) show grestore 2220 7965 M 202 0 R D gsave 2109 7825 translate 0 0 M
-847.09 0 N
(-200) show grestore 2220 9223 M 202 0 R D gsave 2109 9082 translate 0 0 M
-235.373 0 N
(0) show grestore 2220 10481 M 202 0 R D gsave 2109 10340 translate 0 0 M
-706.12 0 N
(200) show grestore 2220 11739 M 202 0 R D gsave 2109 11496 translate 0 0 M
-706.12 0 N
(400) show grestore 2220 7022 M 101 0 R D 2220 7337 M 101 0 R D 2220 7651 M
101 0 R D 2220 8280 M 101 0 R D 2220 8594 M 101 0 R D 2220 8909 M 101 0 R D
2220 9538 M 101 0 R D 2220 9852 M 101 0 R D 2220 10166 M 101 0 R D
2220 10795 M 101 0 R D 2220 11110 M 101 0 R D 2220 11424 M 101 0 R D
7258 6704 M 0 5038 R D 7258 6708 M -201 0 R D 7258 7965 M -201 0 R D
7258 9223 M -201 0 R D 7258 10481 M -201 0 R D 7258 11739 M -201 0 R D
7258 7022 M -101 0 R D 7258 7337 M -101 0 R D 7258 7651 M -101 0 R D
7258 8280 M -101 0 R D 7258 8594 M -101 0 R D 7258 8909 M -101 0 R D
7258 9538 M -101 0 R D 7258 9852 M -101 0 R D 7258 10166 M -101 0 R D
7258 10795 M -101 0 R D 7258 11110 M -101 0 R D 7258 11424 M -101 0 R D
6000 9223 M -97 9 R -220 19 R -262 17 R -171 8 R -112 3 R -93 2 R -75 0 R
-60 -1 R -48 -2 R -39 -2 R -30 -3 R -27 -3 R -26 -3 R -25 -5 R -22 -5 R
-23 -6 R -30 -8 R -39 -13 R -57 -19 R -85 -31 R -132 -51 R -218 -92 R
-244 -109 R -203 -95 R -172 -84 R -148 -75 R -129 -68 R -114 -62 R
-101 -56 R -89 -52 R -79 -46 R -70 -43 R -61 -39 R -52 -35 R -45 -32 R
-38 -28 R -30 -25 R -24 -22 R -17 -19 R -10 -16 R -4 -12 R 2 -9 R 9 -7 R
15 -3 R 21 0 R 28 4 R 35 7 R 41 10 R 48 14 R 56 18 R 63 22 R 72 26 R 80 31 R
89 36 R 100 42 R 111 49 R 124 56 R 139 65 R 159 77 R 182 91 R 213 112 R
256 141 R 129 76 R 33 19 R 94 59 R 17 11 R 66 43 R 22 16 R 26 19 R 23 17 R
20 17 R 18 16 R 17 16 R 15 15 R 18 19 R 22 25 R 31 37 R 44 53 R 64 85 R
102 138 R 170 245 R 134 204 R 111 175 R 93 152 R 80 134 R 69 119 R 60 107 R
52 96 R 46 86 R 39 78 R 34 69 R 28 62 R 24 54 R 19 47 R 15 41 R 11 34 R
6 28 R 3 22 R -1 16 R -5 10 R -9 4 R -12 -2 R -16 -8 R -20 -14 R -24 -21 R
-27 -27 R -32 -34 R -35 -40 R -40 -48 R -44 -56 R -49 -64 R -53 -72 R
-59 -83 R -65 -93 R -72 -106 R -79 -120 R -88 -137 R -99 -160 R -113 -187 R
-130 -226 R -154 -287 R -17 -33 R -47 -95 R -9 -19 R -32 -72 R -11 -25 R
-12 -30 R -10 -26 R -9 -25 R -7 -23 R -6 -23 R -4 -21 R -5 -25 R -6 -34 R
-7 -46 R -8 -69 R -11 -105 R -13 -170 R -14 -299 R -6 -244 R -2 -207 R
1 -179 R 3 -156 R 5 -138 R 6 -122 R 6 -110 R 7 -97 R D
0.208 0.208 0.208 setrgbcolor 4733 9223 M 0 1 R 0 1 R 0 1 R 1 0 R 0 1 R
1 0 R 0 1 R 1 0 R 0 1 R 1 0 R 1 0 R 1 0 R 1 0 R 1 0 R 1 0 R 0 -1 R 1 0 R
1 -1 R 0 -1 R 1 0 R 0 -1 R 0 -1 R 0 -1 R D 4733 9223 M 0 -1 R 0 -1 R 0 -1 R
1 0 R 0 -1 R 1 0 R 0 -1 R 1 0 R 0 -1 R 1 0 R 1 0 R 1 0 R 1 0 R 1 0 R 1 0 R
0 1 R 1 0 R 0 1 R 1 0 R 0 1 R 1 0 R 0 1 R 0 1 R 0 1 R D
0.000 0.000 0.000 setrgbcolor 4739 9223 M Z gsave 5243 7460 translate 0 0 M
(20.0Gyr) show grestore gsave 5243 7108 translate 0 0 M
(1.3e11M) show X -101.051 M
%%IncludeResource: font Helvetica
262.467 /Helvetica STDFONT
(sun) show grestore
%%IncludeResource: font Helvetica
423.333 /Helvetica STDFONT 7258 6704 M 5038 0 R D 7262 6704 M 0 202 R D
gsave 7262 6176 translate 0 0 M -58.8433 0 N
( ) show grestore 8519 6704 M 0 202 R D gsave 8519 6176 translate 0 0 M
-58.8433 0 N
( ) show grestore 9777 6704 M 0 202 R D gsave 9777 6176 translate 0 0 M
-58.8433 0 N
( ) show grestore 11035 6704 M 0 202 R D gsave 11035 6176 translate 0 0 M
-58.8433 0 N
( ) show grestore 12293 6704 M 0 202 R D gsave 12293 6176 translate 0 0 M
-58.8433 0 N
( ) show grestore 7576 6704 M 0 101 R D 7891 6704 M 0 101 R D 8205 6704 M
0 101 R D 8834 6704 M 0 101 R D 9148 6704 M 0 101 R D 9463 6704 M 0 101 R D
10092 6704 M 0 101 R D 10406 6704 M 0 101 R D 10720 6704 M 0 101 R D
11349 6704 M 0 101 R D 11664 6704 M 0 101 R D 11978 6704 M 0 101 R D
7258 11742 M 5038 0 R D 7262 11742 M 0 -201 R D 8519 11742 M 0 -201 R D
9777 11742 M 0 -201 R D 11035 11742 M 0 -201 R D 12293 11742 M 0 -201 R D
7576 11742 M 0 -101 R D 7891 11742 M 0 -101 R D 8205 11742 M 0 -101 R D
8834 11742 M 0 -101 R D 9148 11742 M 0 -101 R D 9463 11742 M 0 -101 R D
10092 11742 M 0 -101 R D 10406 11742 M 0 -101 R D 10720 11742 M 0 -101 R D
11349 11742 M 0 -101 R D 11664 11742 M 0 -101 R D 11978 11742 M 0 -101 R D
7258 6704 M 0 5038 R D 7258 6708 M 202 0 R D gsave 7147 6704 translate 0 0 M
-117.687 0 N
( ) show grestore 7258 7965 M 202 0 R D gsave 7147 7825 translate 0 0 M
-117.687 0 N
( ) show grestore 7258 9223 M 202 0 R D gsave 7147 9082 translate 0 0 M
-117.687 0 N
( ) show grestore 7258 10481 M 202 0 R D gsave 7147 10340 translate 0 0 M
-117.687 0 N
( ) show grestore 7258 11739 M 202 0 R D gsave 7147 11496 translate 0 0 M
-117.687 0 N
( ) show grestore 7258 7022 M 101 0 R D 7258 7337 M 101 0 R D 7258 7651 M
101 0 R D 7258 8280 M 101 0 R D 7258 8594 M 101 0 R D 7258 8909 M 101 0 R D
7258 9538 M 101 0 R D 7258 9852 M 101 0 R D 7258 10166 M 101 0 R D
7258 10795 M 101 0 R D 7258 11110 M 101 0 R D 7258 11424 M 101 0 R D
12296 6704 M 0 5038 R D 12296 6708 M -201 0 R D 12296 7965 M -201 0 R D
12296 9223 M -201 0 R D 12296 10481 M -201 0 R D 12296 11739 M -201 0 R D
12296 7022 M -101 0 R D 12296 7337 M -101 0 R D 12296 7651 M -101 0 R D
12296 8280 M -101 0 R D 12296 8594 M -101 0 R D 12296 8909 M -101 0 R D
12296 9538 M -101 0 R D 12296 9852 M -101 0 R D 12296 10166 M -101 0 R D
12296 10795 M -101 0 R D 12296 11110 M -101 0 R D 12296 11424 M -101 0 R D
11038 9223 M -97 9 R -220 19 R -262 17 R -171 8 R -112 3 R -93 2 R -75 0 R
-60 -1 R -48 -2 R -39 -2 R -30 -3 R -27 -3 R -26 -3 R -25 -5 R -22 -5 R
-23 -6 R -30 -8 R -39 -13 R -57 -19 R -85 -31 R -132 -51 R -218 -92 R
-244 -109 R -203 -95 R -172 -84 R -148 -75 R -129 -68 R -114 -62 R
-101 -56 R -89 -52 R -79 -46 R -70 -43 R -61 -39 R -52 -35 R -45 -32 R
-38 -28 R -30 -25 R -24 -22 R -17 -19 R -10 -16 R -4 -12 R 2 -9 R 9 -7 R
15 -3 R 21 0 R 28 4 R 35 7 R 41 10 R 48 14 R 56 18 R 63 22 R 72 26 R 80 31 R
89 36 R 100 42 R 111 49 R 124 56 R 139 65 R 159 77 R 182 91 R 213 112 R
256 141 R 129 76 R 33 19 R 94 59 R 17 11 R 65 43 R 23 16 R 26 19 R 23 17 R
20 17 R 18 16 R 17 16 R 15 15 R 18 19 R 22 25 R 31 37 R 44 53 R 64 85 R
102 138 R 170 245 R 134 204 R 111 175 R 93 152 R 80 134 R 69 119 R 60 107 R
52 96 R 46 86 R 39 78 R 34 69 R 28 62 R 24 54 R 19 47 R 15 41 R 11 34 R
6 28 R 3 22 R -1 16 R -5 10 R -9 4 R -12 -2 R -16 -8 R -20 -14 R -24 -21 R
-27 -27 R -32 -34 R -35 -40 R -40 -48 R -44 -56 R -49 -64 R -53 -72 R
-59 -83 R -65 -93 R -72 -106 R -79 -120 R -88 -137 R -99 -160 R -113 -187 R
-130 -226 R -154 -287 R -17 -33 R -47 -95 R -9 -19 R -32 -72 R -11 -25 R
-12 -30 R -10 -26 R -9 -25 R -7 -23 R -6 -23 R -4 -21 R -5 -25 R -6 -34 R
-7 -46 R -8 -69 R -11 -105 R -13 -170 R -14 -299 R -6 -244 R -2 -207 R
1 -179 R 3 -156 R 5 -138 R 6 -122 R 6 -110 R 7 -97 R D
0.208 0.208 0.208 setrgbcolor 9771 9223 M 0 1 R 0 1 R 0 1 R 1 0 R 0 1 R
1 0 R 0 1 R 1 0 R 0 1 R 1 0 R 1 0 R 1 0 R 1 0 R 1 0 R 1 0 R 0 -1 R 1 0 R
1 -1 R 0 -1 R 1 0 R 0 -1 R 0 -1 R 0 -1 R D 9771 9223 M 0 -1 R 0 -1 R 0 -1 R
1 0 R 0 -1 R 1 0 R 0 -1 R 1 0 R 0 -1 R 1 0 R 1 0 R 1 0 R 1 0 R 1 0 R 1 0 R
0 1 R 1 0 R 0 1 R 1 0 R 0 1 R 1 0 R 0 1 R 0 1 R 0 1 R D
0.000 0.000 0.000 setrgbcolor 9777 9223 M Z gsave 10281 7460 translate 0 0 M
(20.0Gyr) show grestore gsave 10281 7108 translate 0 0 M
(1.5e11M) show X -101.051 M
%%IncludeResource: font Helvetica
262.467 /Helvetica STDFONT
(sun) show grestore
%%IncludeResource: font Helvetica
423.333 /Helvetica STDFONT 12296 6704 M 5038 0 R D 12300 6704 M 0 202 R D
gsave 12300 6176 translate 0 0 M -58.8433 0 N
( ) show grestore 13557 6704 M 0 202 R D gsave 13557 6176 translate 0 0 M
-58.8433 0 N
( ) show grestore 14815 6704 M 0 202 R D gsave 14815 6176 translate 0 0 M
-58.8433 0 N
( ) show grestore 16073 6704 M 0 202 R D gsave 16073 6176 translate 0 0 M
-58.8433 0 N
( ) show grestore 17331 6704 M 0 202 R D gsave 17331 6176 translate 0 0 M
-58.8433 0 N
( ) show grestore 12614 6704 M 0 101 R D 12929 6704 M 0 101 R D 13243 6704 M
0 101 R D 13872 6704 M 0 101 R D 14186 6704 M 0 101 R D 14501 6704 M 0 101 R
D 15130 6704 M 0 101 R D 15444 6704 M 0 101 R D 15758 6704 M 0 101 R D
16387 6704 M 0 101 R D 16702 6704 M 0 101 R D 17016 6704 M 0 101 R D
12296 11742 M 5038 0 R D 12300 11742 M 0 -201 R D 13557 11742 M 0 -201 R D
14815 11742 M 0 -201 R D 16073 11742 M 0 -201 R D 17331 11742 M 0 -201 R D
12614 11742 M 0 -101 R D 12929 11742 M 0 -101 R D 13243 11742 M 0 -101 R D
13872 11742 M 0 -101 R D 14186 11742 M 0 -101 R D 14501 11742 M 0 -101 R D
15130 11742 M 0 -101 R D 15444 11742 M 0 -101 R D 15758 11742 M 0 -101 R D
16387 11742 M 0 -101 R D 16702 11742 M 0 -101 R D 17016 11742 M 0 -101 R D
12296 6704 M 0 5038 R D 12296 6708 M 202 0 R D
gsave 12185 6704 translate 0 0 M -117.687 0 N
( ) show grestore 12296 7965 M 202 0 R D gsave 12185 7825 translate 0 0 M
-117.687 0 N
( ) show grestore 12296 9223 M 202 0 R D gsave 12185 9082 translate 0 0 M
-117.687 0 N
( ) show grestore 12296 10481 M 202 0 R D gsave 12185 10340 translate 0 0 M
-117.687 0 N
( ) show grestore 12296 11739 M 202 0 R D gsave 12185 11496 translate 0 0 M
-117.687 0 N
( ) show grestore 12296 7022 M 101 0 R D 12296 7337 M 101 0 R D 12296 7651 M
101 0 R D 12296 8280 M 101 0 R D 12296 8594 M 101 0 R D 12296 8909 M 101 0 R
D 12296 9538 M 101 0 R D 12296 9852 M 101 0 R D 12296 10166 M 101 0 R D
12296 10795 M 101 0 R D 12296 11110 M 101 0 R D 12296 11424 M 101 0 R D
17334 6704 M 0 5038 R D 17334 6708 M -201 0 R D 17334 7965 M -201 0 R D
17334 9223 M -201 0 R D 17334 10481 M -201 0 R D 17334 11739 M -201 0 R D
17334 7022 M -101 0 R D 17334 7337 M -101 0 R D 17334 7651 M -101 0 R D
17334 8280 M -101 0 R D 17334 8594 M -101 0 R D 17334 8909 M -101 0 R D
17334 9538 M -101 0 R D 17334 9852 M -101 0 R D 17334 10166 M -101 0 R D
17334 10795 M -101 0 R D 17334 11110 M -101 0 R D 17334 11424 M -101 0 R D
16076 9223 M -97 9 R -220 19 R -262 17 R -171 8 R -112 3 R -93 2 R -75 0 R
-60 -1 R -48 -2 R -39 -2 R -30 -3 R -27 -3 R -26 -3 R -25 -5 R -22 -5 R
-23 -6 R -30 -8 R -39 -13 R -57 -19 R -85 -31 R -132 -51 R -218 -92 R
-244 -109 R -203 -95 R -172 -84 R -148 -75 R -129 -68 R -114 -62 R
-101 -56 R -89 -52 R -79 -46 R -70 -43 R -61 -39 R -52 -35 R -45 -32 R
-38 -28 R -30 -25 R -24 -22 R -17 -19 R -10 -16 R -4 -12 R 2 -9 R 9 -7 R
15 -3 R 21 0 R 28 4 R 35 7 R 41 10 R 48 14 R 56 18 R 63 22 R 72 26 R 80 31 R
89 36 R 100 42 R 111 49 R 124 56 R 139 65 R 159 77 R 182 91 R 213 112 R
256 141 R 129 76 R 33 19 R 94 59 R 17 11 R 65 43 R 23 16 R 26 19 R 23 17 R
20 17 R 18 16 R 17 16 R 15 15 R 18 19 R 22 25 R 31 37 R 44 53 R 64 85 R
102 138 R 170 245 R 134 204 R 111 175 R 93 152 R 80 134 R 69 119 R 60 107 R
52 96 R 46 86 R 39 78 R 34 69 R 28 62 R 24 54 R 19 47 R 15 41 R 11 34 R
6 28 R 3 22 R -1 16 R -5 10 R -9 4 R -12 -2 R -16 -8 R -20 -14 R -24 -21 R
-27 -27 R -32 -34 R -35 -40 R -40 -48 R -44 -56 R -49 -64 R -53 -72 R
-59 -83 R -65 -93 R -72 -106 R -79 -120 R -88 -137 R -99 -160 R -113 -187 R
-130 -226 R -154 -287 R -17 -33 R -47 -95 R -9 -19 R -32 -72 R -11 -25 R
-12 -30 R -10 -26 R -9 -25 R -7 -23 R -6 -23 R -4 -21 R -5 -25 R -6 -34 R
-7 -46 R -8 -69 R -11 -105 R -13 -170 R -14 -299 R -6 -244 R -2 -207 R
1 -179 R 3 -156 R 5 -138 R 6 -122 R 6 -110 R 7 -97 R D
0.208 0.208 0.208 setrgbcolor 14809 9223 M 0 1 R 0 1 R 0 1 R 1 0 R 0 1 R
1 0 R 0 1 R 1 0 R 0 1 R 1 0 R 1 0 R 1 0 R 1 0 R 1 0 R 1 0 R 0 -1 R 1 0 R
1 -1 R 0 -1 R 1 0 R 0 -1 R 0 -1 R 0 -1 R D 14809 9223 M 0 -1 R 0 -1 R 0 -1 R
1 0 R 0 -1 R 1 0 R 0 -1 R 1 0 R 0 -1 R 1 0 R 1 0 R 1 0 R 1 0 R 1 0 R 1 0 R
0 1 R 1 0 R 0 1 R 1 0 R 0 1 R 1 0 R 0 1 R 0 1 R 0 1 R D
0.000 0.000 0.000 setrgbcolor 14815 9223 M Z
gsave 15319 7460 translate 0 0 M
(20.0Gyr) show grestore gsave 15319 7108 translate 0 0 M
(2.0e11M) show X -101.051 M
%%IncludeResource: font Helvetica
262.467 /Helvetica STDFONT
(sun) show grestore
%%IncludeResource: font Helvetica
423.333 /Helvetica STDFONT 2220 1408 M 5038 0 R D 2224 1408 M 0 202 R D
gsave 2224 880 translate 0 0 M -423.545 0 N
(-400) show grestore 3481 1408 M 0 202 R D gsave 3481 880 translate 0 0 M
-423.545 0 N
(-200) show grestore 4739 1408 M 0 202 R D gsave 4739 880 translate 0 0 M
-117.687 0 N
(0) show grestore 5997 1408 M 0 202 R D gsave 5997 880 translate 0 0 M
-353.06 0 N
(200) show grestore 7255 1408 M 0 202 R D gsave 7255 880 translate 0 0 M
-353.06 0 N
(400) show grestore 2538 1408 M 0 101 R D 2853 1408 M 0 101 R D 3167 1408 M
0 101 R D 3796 1408 M 0 101 R D 4110 1408 M 0 101 R D 4425 1408 M 0 101 R D
5054 1408 M 0 101 R D 5368 1408 M 0 101 R D 5682 1408 M 0 101 R D
6311 1408 M 0 101 R D 6626 1408 M 0 101 R D 6940 1408 M 0 101 R D
2220 6446 M 5038 0 R D 2224 6446 M 0 -201 R D 3481 6446 M 0 -201 R D
4739 6446 M 0 -201 R D 5997 6446 M 0 -201 R D 7255 6446 M 0 -201 R D
2538 6446 M 0 -101 R D 2853 6446 M 0 -101 R D 3167 6446 M 0 -101 R D
3796 6446 M 0 -101 R D 4110 6446 M 0 -101 R D 4425 6446 M 0 -101 R D
5054 6446 M 0 -101 R D 5368 6446 M 0 -101 R D 5682 6446 M 0 -101 R D
6311 6446 M 0 -101 R D 6626 6446 M 0 -101 R D 6940 6446 M 0 -101 R D
2220 1408 M 0 5038 R D 2220 1412 M 202 0 R D gsave 2109 1408 translate 0 0 M
-847.09 0 N
(-400) show grestore 2220 2669 M 202 0 R D gsave 2109 2529 translate 0 0 M
-847.09 0 N
(-200) show grestore 2220 3927 M 202 0 R D gsave 2109 3786 translate 0 0 M
-235.373 0 N
(0) show grestore 2220 5185 M 202 0 R D gsave 2109 5044 translate 0 0 M
-706.12 0 N
(200) show grestore 2220 6443 M 202 0 R D gsave 2109 6200 translate 0 0 M
-706.12 0 N
(400) show grestore 2220 1726 M 101 0 R D 2220 2041 M 101 0 R D 2220 2355 M
101 0 R D 2220 2984 M 101 0 R D 2220 3298 M 101 0 R D 2220 3613 M 101 0 R D
2220 4242 M 101 0 R D 2220 4556 M 101 0 R D 2220 4870 M 101 0 R D
2220 5499 M 101 0 R D 2220 5814 M 101 0 R D 2220 6128 M 101 0 R D
7258 1408 M 0 5038 R D 7258 1412 M -201 0 R D 7258 2669 M -201 0 R D
7258 3927 M -201 0 R D 7258 5185 M -201 0 R D 7258 6443 M -201 0 R D
7258 1726 M -101 0 R D 7258 2041 M -101 0 R D 7258 2355 M -101 0 R D
7258 2984 M -101 0 R D 7258 3298 M -101 0 R D 7258 3613 M -101 0 R D
7258 4242 M -101 0 R D 7258 4556 M -101 0 R D 7258 4870 M -101 0 R D
7258 5499 M -101 0 R D 7258 5814 M -101 0 R D 7258 6128 M -101 0 R D
6000 3927 M -97 9 R -220 19 R -262 17 R -171 8 R -112 3 R -93 2 R -75 0 R
-60 -1 R -48 -2 R -39 -2 R -30 -3 R -27 -3 R -26 -3 R -25 -5 R -22 -5 R
-23 -6 R -30 -8 R -39 -13 R -57 -19 R -85 -31 R -132 -51 R -218 -92 R
-244 -109 R -203 -95 R -172 -84 R -148 -75 R -129 -68 R -114 -62 R
-101 -56 R -89 -52 R -79 -46 R -70 -43 R -61 -39 R -52 -35 R -45 -32 R
-38 -28 R -30 -25 R -24 -22 R -17 -19 R -10 -16 R -4 -12 R 2 -9 R 9 -7 R
15 -3 R 21 0 R 28 4 R 35 7 R 41 10 R 48 14 R 56 18 R 63 22 R 72 26 R 80 31 R
89 36 R 100 42 R 111 49 R 124 56 R 139 65 R 159 77 R 182 91 R 213 112 R
256 141 R 129 76 R 33 19 R 94 59 R 17 11 R 66 43 R 22 16 R 26 19 R 23 17 R
20 17 R 18 16 R 17 16 R 15 15 R 18 19 R 22 25 R 31 37 R 44 53 R 64 85 R
102 138 R 170 245 R 134 204 R 111 175 R 93 152 R 80 134 R 69 119 R 60 107 R
52 96 R 46 86 R 39 78 R 34 69 R 28 62 R 24 54 R 19 47 R 15 41 R 11 34 R
6 28 R 3 22 R -1 16 R -5 10 R -9 4 R -12 -2 R -16 -8 R -20 -14 R -24 -21 R
-27 -27 R -32 -34 R -35 -40 R -40 -48 R -44 -56 R -49 -64 R -53 -72 R
-59 -83 R -65 -93 R -72 -106 R -79 -120 R -88 -137 R -99 -160 R -113 -187 R
-130 -226 R -154 -287 R -17 -33 R -47 -95 R -9 -19 R -32 -72 R -11 -25 R
-12 -30 R -10 -26 R -9 -25 R -7 -23 R -6 -23 R -4 -21 R -5 -25 R -6 -34 R
-7 -46 R -8 -69 R -11 -105 R -13 -170 R -14 -299 R -6 -244 R -2 -207 R
1 -179 R 3 -156 R 5 -138 R 6 -122 R 6 -110 R 7 -97 R D
0.208 0.208 0.208 setrgbcolor 4733 3927 M 0 1 R 0 1 R 0 1 R 1 0 R 0 1 R
1 0 R 0 1 R 1 0 R 0 1 R 1 0 R 1 0 R 1 0 R 1 0 R 1 0 R 1 0 R 0 -1 R 1 0 R
1 -1 R 0 -1 R 1 0 R 0 -1 R 0 -1 R 0 -1 R D 4733 3927 M 0 -1 R 0 -1 R 0 -1 R
1 0 R 0 -1 R 1 0 R 0 -1 R 1 0 R 0 -1 R 1 0 R 1 0 R 1 0 R 1 0 R 1 0 R 1 0 R
0 1 R 1 0 R 0 1 R 1 0 R 0 1 R 1 0 R 0 1 R 0 1 R 0 1 R D
0.000 0.000 0.000 setrgbcolor 4739 3927 M Z gsave 5243 2164 translate 0 0 M
(20.0Gyr) show grestore gsave 5243 1812 translate 0 0 M
(2.5e11M) show X -101.051 M
%%IncludeResource: font Helvetica
262.467 /Helvetica STDFONT
(sun) show grestore
%%IncludeResource: font Helvetica
423.333 /Helvetica STDFONT 7258 1408 M 5038 0 R D 7262 1408 M 0 202 R D
gsave 7262 880 translate 0 0 M -423.545 0 N
(-400) show grestore 8519 1408 M 0 202 R D gsave 8519 880 translate 0 0 M
-423.545 0 N
(-200) show grestore 9777 1408 M 0 202 R D gsave 9777 880 translate 0 0 M
-117.687 0 N
(0) show grestore 11035 1408 M 0 202 R D gsave 11035 880 translate 0 0 M
-353.06 0 N
(200) show grestore 12293 1408 M 0 202 R D gsave 12293 880 translate 0 0 M
-353.06 0 N
(400) show grestore 7576 1408 M 0 101 R D 7891 1408 M 0 101 R D 8205 1408 M
0 101 R D 8834 1408 M 0 101 R D 9148 1408 M 0 101 R D 9463 1408 M 0 101 R D
10092 1408 M 0 101 R D 10406 1408 M 0 101 R D 10720 1408 M 0 101 R D
11349 1408 M 0 101 R D 11664 1408 M 0 101 R D 11978 1408 M 0 101 R D
7258 6446 M 5038 0 R D 7262 6446 M 0 -201 R D 8519 6446 M 0 -201 R D
9777 6446 M 0 -201 R D 11035 6446 M 0 -201 R D 12293 6446 M 0 -201 R D
7576 6446 M 0 -101 R D 7891 6446 M 0 -101 R D 8205 6446 M 0 -101 R D
8834 6446 M 0 -101 R D 9148 6446 M 0 -101 R D 9463 6446 M 0 -101 R D
10092 6446 M 0 -101 R D 10406 6446 M 0 -101 R D 10720 6446 M 0 -101 R D
11349 6446 M 0 -101 R D 11664 6446 M 0 -101 R D 11978 6446 M 0 -101 R D
7258 1408 M 0 5038 R D 7258 1412 M 202 0 R D gsave 7147 1408 translate 0 0 M
-117.687 0 N
( ) show grestore 7258 2669 M 202 0 R D gsave 7147 2529 translate 0 0 M
-117.687 0 N
( ) show grestore 7258 3927 M 202 0 R D gsave 7147 3786 translate 0 0 M
-117.687 0 N
( ) show grestore 7258 5185 M 202 0 R D gsave 7147 5044 translate 0 0 M
-117.687 0 N
( ) show grestore 7258 6443 M 202 0 R D gsave 7147 6200 translate 0 0 M
-117.687 0 N
( ) show grestore 7258 1726 M 101 0 R D 7258 2041 M 101 0 R D 7258 2355 M
101 0 R D 7258 2984 M 101 0 R D 7258 3298 M 101 0 R D 7258 3613 M 101 0 R D
7258 4242 M 101 0 R D 7258 4556 M 101 0 R D 7258 4870 M 101 0 R D
7258 5499 M 101 0 R D 7258 5814 M 101 0 R D 7258 6128 M 101 0 R D
12296 1408 M 0 5038 R D 12296 1412 M -201 0 R D 12296 2669 M -201 0 R D
12296 3927 M -201 0 R D 12296 5185 M -201 0 R D 12296 6443 M -201 0 R D
12296 1726 M -101 0 R D 12296 2041 M -101 0 R D 12296 2355 M -101 0 R D
12296 2984 M -101 0 R D 12296 3298 M -101 0 R D 12296 3613 M -101 0 R D
12296 4242 M -101 0 R D 12296 4556 M -101 0 R D 12296 4870 M -101 0 R D
12296 5499 M -101 0 R D 12296 5814 M -101 0 R D 12296 6128 M -101 0 R D
11038 3927 M -97 9 R -220 19 R -262 17 R -171 8 R -112 3 R -93 2 R -75 0 R
-60 -1 R -48 -2 R -39 -2 R -30 -3 R -27 -3 R -26 -3 R -25 -5 R -22 -5 R
-23 -6 R -30 -8 R -39 -13 R -57 -19 R -85 -31 R -132 -51 R -218 -92 R
-244 -109 R -203 -95 R -172 -84 R -148 -75 R -129 -68 R -114 -62 R
-101 -56 R -89 -52 R -79 -46 R -70 -43 R -61 -39 R -52 -35 R -45 -32 R
-38 -28 R -30 -25 R -24 -22 R -17 -19 R -10 -16 R -4 -12 R 2 -9 R 9 -7 R
15 -3 R 21 0 R 28 4 R 35 7 R 41 10 R 48 14 R 56 18 R 63 22 R 72 26 R 80 31 R
89 36 R 100 42 R 111 49 R 124 56 R 139 65 R 159 77 R 182 91 R 213 112 R
256 141 R 129 76 R 33 19 R 94 59 R 17 11 R 65 43 R 23 16 R 26 19 R 23 17 R
20 17 R 18 16 R 17 16 R 15 15 R 18 19 R 22 25 R 31 37 R 44 53 R 64 85 R
102 138 R 170 245 R 134 204 R 111 175 R 93 152 R 80 134 R 69 119 R 60 107 R
52 96 R 46 86 R 39 78 R 34 69 R 28 62 R 24 54 R 19 47 R 15 41 R 11 34 R
6 28 R 3 22 R -1 16 R -5 10 R -9 4 R -12 -2 R -16 -8 R -20 -14 R -24 -21 R
-27 -27 R -32 -34 R -35 -40 R -40 -48 R -44 -56 R -49 -64 R -53 -72 R
-59 -83 R -65 -93 R -72 -106 R -79 -120 R -88 -137 R -99 -160 R -113 -187 R
-130 -226 R -154 -287 R -17 -33 R -47 -95 R -9 -19 R -32 -72 R -11 -25 R
-12 -30 R -10 -26 R -9 -25 R -7 -23 R -6 -23 R -4 -21 R -5 -25 R -6 -34 R
-7 -46 R -8 -69 R -11 -105 R -13 -170 R -14 -299 R -6 -244 R -2 -207 R
1 -179 R 3 -156 R 5 -138 R 6 -122 R 6 -110 R 7 -97 R D
0.208 0.208 0.208 setrgbcolor 9771 3927 M 0 1 R 0 1 R 0 1 R 1 0 R 0 1 R
1 0 R 0 1 R 1 0 R 0 1 R 1 0 R 1 0 R 1 0 R 1 0 R 1 0 R 1 0 R 0 -1 R 1 0 R
1 -1 R 0 -1 R 1 0 R 0 -1 R 0 -1 R 0 -1 R D 9771 3927 M 0 -1 R 0 -1 R 0 -1 R
1 0 R 0 -1 R 1 0 R 0 -1 R 1 0 R 0 -1 R 1 0 R 1 0 R 1 0 R 1 0 R 1 0 R 1 0 R
0 1 R 1 0 R 0 1 R 1 0 R 0 1 R 1 0 R 0 1 R 0 1 R 0 1 R D
0.000 0.000 0.000 setrgbcolor 9777 3927 M Z gsave 10281 2164 translate 0 0 M
(20.0Gyr) show grestore gsave 10281 1812 translate 0 0 M
(3.0e11M) show X -101.051 M
%%IncludeResource: font Helvetica
262.467 /Helvetica STDFONT
(sun) show grestore
%%IncludeResource: font Helvetica
423.333 /Helvetica STDFONT
%%PageTrailer
end
%%PageResources: font Helvetica
%%Trailer
%%Pages: 1
%%DocumentNeededResources: font Helvetica
%%EOF
