%!PS-Adobe-3.0 EPSF-3.0
%%BoundingBox: 0 0 510 510
%%Title: Graphics produced by IDL
%%For: dacia@Lserver, /home/dacia/work/subhalo_model
%%Creator: IDL Version 7.0 (linux x86_64 m64)
%%CreationDate: Tue Dec 15 10:31:40 2009
%%DocumentData: Clean7bit
%%Requirements: color
%%LanguageLevel: 1
%%PageOrder: Ascend
%%Pages: (atend)
%%DocumentNeededResources: (atend)
%%EndComments
%%BeginProlog
%+ prolog.ps -- Prolog for IDL generated PostScript files
%+ Copyright (c) 1988-2007 ITT Visual Information Solutions. All Rights Reserved.
%v 5
/$IDL_DICT 40 dict def $IDL_DICT begin /bdef { bind def } bind def /C
{currentpoint newpath moveto} bdef /CP {currentpoint} bdef /D {currentpoint
stroke moveto} bdef /F {closepath fill} bdef /K { setgray } bdef /M {moveto}
bdef /N {rmoveto} bdef /P {lineto} bdef /R {rlineto} bdef /S {gsave show
grestore} bdef /X {currentpoint pop} bdef /Z {gsave currentpoint lineto 20
setlinewidth 1 setlinecap stroke grestore} bdef /L0 {[] 0 setdash} bdef /L1
{[40 100] 0 setdash} bdef /L2 {[200 200] 0 setdash} bdef /L3 {[200 100 50
100] 0 setdash} bdef /L4 {[300 100 50 100 50 100 50 100] 0 setdash} bdef /L5
{[400 200] 0 setdash} bdef /STDFONT { findfont exch scalefont setfont } bdef
/ISOFONT { findfont dup length dict begin { 1 index /FID ne {def} {pop pop}
ifelse } forall /Encoding ISOLatin1Encoding def currentdict end /idltmpfont
exch definefont exch scalefont setfont } bdef /ISOBULLET { gsave /Helvetica
findfont exch scalefont setfont (\267) show currentpoint grestore moveto}
bdef /MITERLIMIT { 2.5 setmiterlimit } bdef end
%%EndProlog
%%Page: 0 1
%%PageRequirements: color
%%PageResources: (atend)
%%PageOrientation: Portrait
%%PageBoundingBox: 0 0 510 510
%%BeginPageSetup
$IDL_DICT begin 0.0283465 dup scale MITERLIMIT
%%IncludeResource: font Helvetica
423.333 /Helvetica STDFONT
%%EndPageSetup
0.000 0.000 0.000 setrgbcolor gsave 9777 352 translate 0 0 M -458.682 0 N
(r/kpc) show grestore gsave 888 9352 translate 0 0 M 90 rotate -458.682 0 N
(r/kpc) show grestore 40 setlinewidth L0 2220 12000 M 5038 0 R D
2542 12000 M 0 202 R D gsave 2542 11472 translate 0 0 M -58.8433 0 N
( ) show grestore 3275 12000 M 0 202 R D gsave 3275 11472 translate 0 0 M
-58.8433 0 N
( ) show grestore 4007 12000 M 0 202 R D gsave 4007 11472 translate 0 0 M
-58.8433 0 N
( ) show grestore 4739 12000 M 0 202 R D gsave 4739 11472 translate 0 0 M
-58.8433 0 N
( ) show grestore 5471 12000 M 0 202 R D gsave 5471 11472 translate 0 0 M
-58.8433 0 N
( ) show grestore 6204 12000 M 0 202 R D gsave 6204 11472 translate 0 0 M
-58.8433 0 N
( ) show grestore 6936 12000 M 0 202 R D gsave 6936 11472 translate 0 0 M
-58.8433 0 N
( ) show grestore 2250 12000 M 0 101 R D 2323 12000 M 0 101 R D 2396 12000 M
0 101 R D 2469 12000 M 0 101 R D 2616 12000 M 0 101 R D 2689 12000 M 0 101 R
D 2762 12000 M 0 101 R D 2835 12000 M 0 101 R D 2909 12000 M 0 101 R D
2982 12000 M 0 101 R D 3055 12000 M 0 101 R D 3128 12000 M 0 101 R D
3201 12000 M 0 101 R D 3348 12000 M 0 101 R D 3421 12000 M 0 101 R D
3494 12000 M 0 101 R D 3568 12000 M 0 101 R D 3641 12000 M 0 101 R D
3714 12000 M 0 101 R D 3787 12000 M 0 101 R D 3860 12000 M 0 101 R D
3934 12000 M 0 101 R D 4080 12000 M 0 101 R D 4153 12000 M 0 101 R D
4227 12000 M 0 101 R D 4300 12000 M 0 101 R D 4373 12000 M 0 101 R D
4446 12000 M 0 101 R D 4519 12000 M 0 101 R D 4593 12000 M 0 101 R D
4666 12000 M 0 101 R D 4812 12000 M 0 101 R D 4886 12000 M 0 101 R D
4959 12000 M 0 101 R D 5032 12000 M 0 101 R D 5105 12000 M 0 101 R D
5178 12000 M 0 101 R D 5252 12000 M 0 101 R D 5325 12000 M 0 101 R D
5398 12000 M 0 101 R D 5545 12000 M 0 101 R D 5618 12000 M 0 101 R D
5691 12000 M 0 101 R D 5764 12000 M 0 101 R D 5837 12000 M 0 101 R D
5911 12000 M 0 101 R D 5984 12000 M 0 101 R D 6057 12000 M 0 101 R D
6130 12000 M 0 101 R D 6277 12000 M 0 101 R D 6350 12000 M 0 101 R D
6423 12000 M 0 101 R D 6496 12000 M 0 101 R D 6570 12000 M 0 101 R D
6643 12000 M 0 101 R D 6716 12000 M 0 101 R D 6789 12000 M 0 101 R D
6863 12000 M 0 101 R D 7009 12000 M 0 101 R D 7082 12000 M 0 101 R D
7155 12000 M 0 101 R D 7229 12000 M 0 101 R D 2220 17038 M 5038 0 R D
2542 17038 M 0 -201 R D 3275 17038 M 0 -201 R D 4007 17038 M 0 -201 R D
4739 17038 M 0 -201 R D 5471 17038 M 0 -201 R D 6204 17038 M 0 -201 R D
6936 17038 M 0 -201 R D 2250 17038 M 0 -101 R D 2323 17038 M 0 -101 R D
2396 17038 M 0 -101 R D 2469 17038 M 0 -101 R D 2616 17038 M 0 -101 R D
2689 17038 M 0 -101 R D 2762 17038 M 0 -101 R D 2835 17038 M 0 -101 R D
2909 17038 M 0 -101 R D 2982 17038 M 0 -101 R D 3055 17038 M 0 -101 R D
3128 17038 M 0 -101 R D 3201 17038 M 0 -101 R D 3348 17038 M 0 -101 R D
3421 17038 M 0 -101 R D 3494 17038 M 0 -101 R D 3568 17038 M 0 -101 R D
3641 17038 M 0 -101 R D 3714 17038 M 0 -101 R D 3787 17038 M 0 -101 R D
3860 17038 M 0 -101 R D 3934 17038 M 0 -101 R D 4080 17038 M 0 -101 R D
4153 17038 M 0 -101 R D 4227 17038 M 0 -101 R D 4300 17038 M 0 -101 R D
4373 17038 M 0 -101 R D 4446 17038 M 0 -101 R D 4519 17038 M 0 -101 R D
4593 17038 M 0 -101 R D 4666 17038 M 0 -101 R D 4812 17038 M 0 -101 R D
4886 17038 M 0 -101 R D 4959 17038 M 0 -101 R D 5032 17038 M 0 -101 R D
5105 17038 M 0 -101 R D 5178 17038 M 0 -101 R D 5252 17038 M 0 -101 R D
5325 17038 M 0 -101 R D 5398 17038 M 0 -101 R D 5545 17038 M 0 -101 R D
5618 17038 M 0 -101 R D 5691 17038 M 0 -101 R D 5764 17038 M 0 -101 R D
5837 17038 M 0 -101 R D 5911 17038 M 0 -101 R D 5984 17038 M 0 -101 R D
6057 17038 M 0 -101 R D 6130 17038 M 0 -101 R D 6277 17038 M 0 -101 R D
6350 17038 M 0 -101 R D 6423 17038 M 0 -101 R D 6496 17038 M 0 -101 R D
6570 17038 M 0 -101 R D 6643 17038 M 0 -101 R D 6716 17038 M 0 -101 R D
6789 17038 M 0 -101 R D 6863 17038 M 0 -101 R D 7009 17038 M 0 -101 R D
7082 17038 M 0 -101 R D 7155 17038 M 0 -101 R D 7229 17038 M 0 -101 R D
2220 12000 M 0 5038 R D 2220 12322 M 202 0 R D
gsave 2109 12182 translate 0 0 M -847.09 0 N
(-300) show grestore 2220 13055 M 202 0 R D gsave 2109 12914 translate 0 0 M
-847.09 0 N
(-200) show grestore 2220 13787 M 202 0 R D gsave 2109 13646 translate 0 0 M
-847.09 0 N
(-100) show grestore 2220 14519 M 202 0 R D gsave 2109 14378 translate 0 0 M
-235.373 0 N
(0) show grestore 2220 15251 M 202 0 R D gsave 2109 15111 translate 0 0 M
-706.12 0 N
(100) show grestore 2220 15984 M 202 0 R D gsave 2109 15843 translate 0 0 M
-706.12 0 N
(200) show grestore 2220 16716 M 202 0 R D gsave 2109 16575 translate 0 0 M
-706.12 0 N
(300) show grestore 2220 12030 M 101 0 R D 2220 12103 M 101 0 R D
2220 12176 M 101 0 R D 2220 12249 M 101 0 R D 2220 12396 M 101 0 R D
2220 12469 M 101 0 R D 2220 12542 M 101 0 R D 2220 12615 M 101 0 R D
2220 12689 M 101 0 R D 2220 12762 M 101 0 R D 2220 12835 M 101 0 R D
2220 12908 M 101 0 R D 2220 12981 M 101 0 R D 2220 13128 M 101 0 R D
2220 13201 M 101 0 R D 2220 13274 M 101 0 R D 2220 13348 M 101 0 R D
2220 13421 M 101 0 R D 2220 13494 M 101 0 R D 2220 13567 M 101 0 R D
2220 13640 M 101 0 R D 2220 13714 M 101 0 R D 2220 13860 M 101 0 R D
2220 13933 M 101 0 R D 2220 14007 M 101 0 R D 2220 14080 M 101 0 R D
2220 14153 M 101 0 R D 2220 14226 M 101 0 R D 2220 14299 M 101 0 R D
2220 14373 M 101 0 R D 2220 14446 M 101 0 R D 2220 14592 M 101 0 R D
2220 14666 M 101 0 R D 2220 14739 M 101 0 R D 2220 14812 M 101 0 R D
2220 14885 M 101 0 R D 2220 14958 M 101 0 R D 2220 15032 M 101 0 R D
2220 15105 M 101 0 R D 2220 15178 M 101 0 R D 2220 15325 M 101 0 R D
2220 15398 M 101 0 R D 2220 15471 M 101 0 R D 2220 15544 M 101 0 R D
2220 15617 M 101 0 R D 2220 15691 M 101 0 R D 2220 15764 M 101 0 R D
2220 15837 M 101 0 R D 2220 15910 M 101 0 R D 2220 16057 M 101 0 R D
2220 16130 M 101 0 R D 2220 16203 M 101 0 R D 2220 16276 M 101 0 R D
2220 16350 M 101 0 R D 2220 16423 M 101 0 R D 2220 16496 M 101 0 R D
2220 16569 M 101 0 R D 2220 16643 M 101 0 R D 2220 16789 M 101 0 R D
2220 16862 M 101 0 R D 2220 16935 M 101 0 R D 2220 17009 M 101 0 R D
7258 12000 M 0 5038 R D 7258 12322 M -201 0 R D 7258 13055 M -201 0 R D
7258 13787 M -201 0 R D 7258 14519 M -201 0 R D 7258 15251 M -201 0 R D
7258 15984 M -201 0 R D 7258 16716 M -201 0 R D 7258 12030 M -101 0 R D
7258 12103 M -101 0 R D 7258 12176 M -101 0 R D 7258 12249 M -101 0 R D
7258 12396 M -101 0 R D 7258 12469 M -101 0 R D 7258 12542 M -101 0 R D
7258 12615 M -101 0 R D 7258 12689 M -101 0 R D 7258 12762 M -101 0 R D
7258 12835 M -101 0 R D 7258 12908 M -101 0 R D 7258 12981 M -101 0 R D
7258 13128 M -101 0 R D 7258 13201 M -101 0 R D 7258 13274 M -101 0 R D
7258 13348 M -101 0 R D 7258 13421 M -101 0 R D 7258 13494 M -101 0 R D
7258 13567 M -101 0 R D 7258 13640 M -101 0 R D 7258 13714 M -101 0 R D
7258 13860 M -101 0 R D 7258 13933 M -101 0 R D 7258 14007 M -101 0 R D
7258 14080 M -101 0 R D 7258 14153 M -101 0 R D 7258 14226 M -101 0 R D
7258 14299 M -101 0 R D 7258 14373 M -101 0 R D 7258 14446 M -101 0 R D
7258 14592 M -101 0 R D 7258 14666 M -101 0 R D 7258 14739 M -101 0 R D
7258 14812 M -101 0 R D 7258 14885 M -101 0 R D 7258 14958 M -101 0 R D
7258 15032 M -101 0 R D 7258 15105 M -101 0 R D 7258 15178 M -101 0 R D
7258 15325 M -101 0 R D 7258 15398 M -101 0 R D 7258 15471 M -101 0 R D
7258 15544 M -101 0 R D 7258 15617 M -101 0 R D 7258 15691 M -101 0 R D
7258 15764 M -101 0 R D 7258 15837 M -101 0 R D 7258 15910 M -101 0 R D
7258 16057 M -101 0 R D 7258 16130 M -101 0 R D 7258 16203 M -101 0 R D
7258 16276 M -101 0 R D 7258 16350 M -101 0 R D 7258 16423 M -101 0 R D
7258 16496 M -101 0 R D 7258 16569 M -101 0 R D 7258 16643 M -101 0 R D
7258 16789 M -101 0 R D 7258 16862 M -101 0 R D 7258 16935 M -101 0 R D
7258 17009 M -101 0 R D 6208 14519 M -83 77 R -192 151 R -235 143 R
-284 123 R -339 80 R -381 0 R -308 -76 R -261 -125 R -242 -173 R -215 -210 R
-165 -211 R -124 -204 R -91 -194 R -65 -183 R -44 -171 R -26 -161 R
-11 -149 R 2 -139 R 14 -129 R 24 -119 R 34 -109 R 42 -99 R 49 -89 R 57 -80 R
63 -70 R 69 -60 R 74 -51 R 80 -41 R 84 -30 R 89 -21 R 94 -10 R 97 2 R
100 12 R 104 24 R 107 37 R 109 50 R 111 64 R 112 80 R 113 96 R 113 114 R
111 135 R 108 158 R 101 185 R 90 217 R 73 252 R 44 292 R -2 334 R -80 362 R
-152 305 R -200 243 R -223 186 R -269 159 R -257 106 R -238 66 R -219 35 R
-200 13 R -182 -6 R -166 -21 R -150 -32 R -136 -43 R -123 -50 R -110 -57 R
-97 -64 R -85 -69 R -74 -73 R -62 -77 R -51 -80 R -39 -84 R -29 -86 R
-18 -87 R -7 -90 R 5 -91 R 15 -91 R 27 -92 R 39 -92 R 51 -92 R 64 -90 R
76 -89 R 91 -87 R 105 -84 R 121 -79 R 137 -74 R 156 -67 R 176 -58 R
199 -45 R 225 -26 R 253 -2 R 282 33 R 309 83 R 323 158 R 296 249 R 200 284 R
116 267 R 76 306 R 28 281 R -7 252 R -30 223 R -48 197 R -60 175 R -69 155 R
-76 135 R -82 120 R -85 103 R -88 89 R -90 75 R -91 62 R -93 49 R -92 38 R
-92 25 R -92 14 R -91 3 R -89 -8 R -87 -20 R -86 -30 R -82 -41 R -80 -52 R
-76 -64 R -72 -74 R -68 -87 R -62 -98 R -56 -111 R -48 -123 R -40 -137 R
-31 -151 R -18 -167 R -3 -182 R 15 -200 R 39 -219 R 70 -237 R 110 -256 R
164 -268 R 235 -263 R 316 -218 R 288 -109 R 276 -46 R 300 1 R 294 46 R
254 75 R 217 92 R 186 103 R 159 109 R 134 113 R 115 114 R 95 114 R 79 114 R
64 112 R 50 110 R 36 107 R 24 104 R 12 101 R 1 98 R -10 93 R -21 89 R
-31 85 R -41 79 R -50 74 R -61 69 R -70 63 R -79 56 R -89 49 R -99 41 R
-108 33 R -118 23 R -128 13 R -138 2 R -148 -11 R -159 -27 R -170 -44 R
-181 -65 R -191 -91 R -201 -123 R -208 -162 R -208 -212 R -194 -274 R
-147 -342 R -54 -334 R 20 -311 R 72 -282 R D 0.208 0.208 0.208 setrgbcolor
4732 14519 M 0 2 R 0 1 R 1 1 R 0 1 R 1 0 R 0 1 R 1 0 R 1 1 R 1 0 R 1 0 R
1 0 R 1 0 R 1 0 R 1 0 R 1 0 R 0 -1 R 1 0 R 0 -1 R 1 0 R 0 -1 R 1 0 R 0 -1 R
0 -1 R 0 -2 R D 4732 14519 M 0 -1 R 0 -1 R 0 -1 R 1 0 R 0 -1 R 1 -1 R 0 -1 R
1 0 R 1 0 R 0 -1 R 1 0 R 1 0 R 1 0 R 1 0 R 1 0 R 1 0 R 0 1 R 1 0 R 1 0 R
0 1 R 1 0 R 0 1 R 1 1 R 0 1 R 0 1 R 0 1 R D 0.000 0.000 0.000 setrgbcolor
4739 14519 M Z gsave 5243 12756 translate 0 0 M
(35.0Gyr) show grestore gsave 5243 12404 translate 0 0 M
(5.0e10M) show X -101.051 M
%%IncludeResource: font Helvetica
262.467 /Helvetica STDFONT
(sun) show grestore
%%IncludeResource: font Helvetica
423.333 /Helvetica STDFONT 7258 12000 M 5038 0 R D 7580 12000 M 0 202 R D
gsave 7580 11472 translate 0 0 M -58.8433 0 N
( ) show grestore 8313 12000 M 0 202 R D gsave 8313 11472 translate 0 0 M
-58.8433 0 N
( ) show grestore 9045 12000 M 0 202 R D gsave 9045 11472 translate 0 0 M
-58.8433 0 N
( ) show grestore 9777 12000 M 0 202 R D gsave 9777 11472 translate 0 0 M
-58.8433 0 N
( ) show grestore 10509 12000 M 0 202 R D gsave 10509 11472 translate 0 0 M
-58.8433 0 N
( ) show grestore 11242 12000 M 0 202 R D gsave 11242 11472 translate 0 0 M
-58.8433 0 N
( ) show grestore 11974 12000 M 0 202 R D gsave 11974 11472 translate 0 0 M
-58.8433 0 N
( ) show grestore 7288 12000 M 0 101 R D 7361 12000 M 0 101 R D 7434 12000 M
0 101 R D 7507 12000 M 0 101 R D 7654 12000 M 0 101 R D 7727 12000 M 0 101 R
D 7800 12000 M 0 101 R D 7873 12000 M 0 101 R D 7947 12000 M 0 101 R D
8020 12000 M 0 101 R D 8093 12000 M 0 101 R D 8166 12000 M 0 101 R D
8239 12000 M 0 101 R D 8386 12000 M 0 101 R D 8459 12000 M 0 101 R D
8532 12000 M 0 101 R D 8606 12000 M 0 101 R D 8679 12000 M 0 101 R D
8752 12000 M 0 101 R D 8825 12000 M 0 101 R D 8898 12000 M 0 101 R D
8972 12000 M 0 101 R D 9118 12000 M 0 101 R D 9191 12000 M 0 101 R D
9265 12000 M 0 101 R D 9338 12000 M 0 101 R D 9411 12000 M 0 101 R D
9484 12000 M 0 101 R D 9557 12000 M 0 101 R D 9631 12000 M 0 101 R D
9704 12000 M 0 101 R D 9850 12000 M 0 101 R D 9924 12000 M 0 101 R D
9997 12000 M 0 101 R D 10070 12000 M 0 101 R D 10143 12000 M 0 101 R D
10216 12000 M 0 101 R D 10290 12000 M 0 101 R D 10363 12000 M 0 101 R D
10436 12000 M 0 101 R D 10583 12000 M 0 101 R D 10656 12000 M 0 101 R D
10729 12000 M 0 101 R D 10802 12000 M 0 101 R D 10875 12000 M 0 101 R D
10949 12000 M 0 101 R D 11022 12000 M 0 101 R D 11095 12000 M 0 101 R D
11168 12000 M 0 101 R D 11315 12000 M 0 101 R D 11388 12000 M 0 101 R D
11461 12000 M 0 101 R D 11534 12000 M 0 101 R D 11608 12000 M 0 101 R D
11681 12000 M 0 101 R D 11754 12000 M 0 101 R D 11827 12000 M 0 101 R D
11901 12000 M 0 101 R D 12047 12000 M 0 101 R D 12120 12000 M 0 101 R D
12193 12000 M 0 101 R D 12267 12000 M 0 101 R D 7258 17038 M 5038 0 R D
7580 17038 M 0 -201 R D 8313 17038 M 0 -201 R D 9045 17038 M 0 -201 R D
9777 17038 M 0 -201 R D 10509 17038 M 0 -201 R D 11242 17038 M 0 -201 R D
11974 17038 M 0 -201 R D 7288 17038 M 0 -101 R D 7361 17038 M 0 -101 R D
7434 17038 M 0 -101 R D 7507 17038 M 0 -101 R D 7654 17038 M 0 -101 R D
7727 17038 M 0 -101 R D 7800 17038 M 0 -101 R D 7873 17038 M 0 -101 R D
7947 17038 M 0 -101 R D 8020 17038 M 0 -101 R D 8093 17038 M 0 -101 R D
8166 17038 M 0 -101 R D 8239 17038 M 0 -101 R D 8386 17038 M 0 -101 R D
8459 17038 M 0 -101 R D 8532 17038 M 0 -101 R D 8606 17038 M 0 -101 R D
8679 17038 M 0 -101 R D 8752 17038 M 0 -101 R D 8825 17038 M 0 -101 R D
8898 17038 M 0 -101 R D 8972 17038 M 0 -101 R D 9118 17038 M 0 -101 R D
9191 17038 M 0 -101 R D 9265 17038 M 0 -101 R D 9338 17038 M 0 -101 R D
9411 17038 M 0 -101 R D 9484 17038 M 0 -101 R D 9557 17038 M 0 -101 R D
9631 17038 M 0 -101 R D 9704 17038 M 0 -101 R D 9850 17038 M 0 -101 R D
9924 17038 M 0 -101 R D 9997 17038 M 0 -101 R D 10070 17038 M 0 -101 R D
10143 17038 M 0 -101 R D 10216 17038 M 0 -101 R D 10290 17038 M 0 -101 R D
10363 17038 M 0 -101 R D 10436 17038 M 0 -101 R D 10583 17038 M 0 -101 R D
10656 17038 M 0 -101 R D 10729 17038 M 0 -101 R D 10802 17038 M 0 -101 R D
10875 17038 M 0 -101 R D 10949 17038 M 0 -101 R D 11022 17038 M 0 -101 R D
11095 17038 M 0 -101 R D 11168 17038 M 0 -101 R D 11315 17038 M 0 -101 R D
11388 17038 M 0 -101 R D 11461 17038 M 0 -101 R D 11534 17038 M 0 -101 R D
11608 17038 M 0 -101 R D 11681 17038 M 0 -101 R D 11754 17038 M 0 -101 R D
11827 17038 M 0 -101 R D 11901 17038 M 0 -101 R D 12047 17038 M 0 -101 R D
12120 17038 M 0 -101 R D 12193 17038 M 0 -101 R D 12267 17038 M 0 -101 R D
7258 12000 M 0 5038 R D 7258 12322 M 202 0 R D
gsave 7147 12182 translate 0 0 M -117.687 0 N
( ) show grestore 7258 13055 M 202 0 R D gsave 7147 12914 translate 0 0 M
-117.687 0 N
( ) show grestore 7258 13787 M 202 0 R D gsave 7147 13646 translate 0 0 M
-117.687 0 N
( ) show grestore 7258 14519 M 202 0 R D gsave 7147 14378 translate 0 0 M
-117.687 0 N
( ) show grestore 7258 15251 M 202 0 R D gsave 7147 15111 translate 0 0 M
-117.687 0 N
( ) show grestore 7258 15984 M 202 0 R D gsave 7147 15843 translate 0 0 M
-117.687 0 N
( ) show grestore 7258 16716 M 202 0 R D gsave 7147 16575 translate 0 0 M
-117.687 0 N
( ) show grestore 7258 12030 M 101 0 R D 7258 12103 M 101 0 R D 7258 12176 M
101 0 R D 7258 12249 M 101 0 R D 7258 12396 M 101 0 R D 7258 12469 M 101 0 R
D 7258 12542 M 101 0 R D 7258 12615 M 101 0 R D 7258 12689 M 101 0 R D
7258 12762 M 101 0 R D 7258 12835 M 101 0 R D 7258 12908 M 101 0 R D
7258 12981 M 101 0 R D 7258 13128 M 101 0 R D 7258 13201 M 101 0 R D
7258 13274 M 101 0 R D 7258 13348 M 101 0 R D 7258 13421 M 101 0 R D
7258 13494 M 101 0 R D 7258 13567 M 101 0 R D 7258 13640 M 101 0 R D
7258 13714 M 101 0 R D 7258 13860 M 101 0 R D 7258 13933 M 101 0 R D
7258 14007 M 101 0 R D 7258 14080 M 101 0 R D 7258 14153 M 101 0 R D
7258 14226 M 101 0 R D 7258 14299 M 101 0 R D 7258 14373 M 101 0 R D
7258 14446 M 101 0 R D 7258 14592 M 101 0 R D 7258 14666 M 101 0 R D
7258 14739 M 101 0 R D 7258 14812 M 101 0 R D 7258 14885 M 101 0 R D
7258 14958 M 101 0 R D 7258 15032 M 101 0 R D 7258 15105 M 101 0 R D
7258 15178 M 101 0 R D 7258 15325 M 101 0 R D 7258 15398 M 101 0 R D
7258 15471 M 101 0 R D 7258 15544 M 101 0 R D 7258 15617 M 101 0 R D
7258 15691 M 101 0 R D 7258 15764 M 101 0 R D 7258 15837 M 101 0 R D
7258 15910 M 101 0 R D 7258 16057 M 101 0 R D 7258 16130 M 101 0 R D
7258 16203 M 101 0 R D 7258 16276 M 101 0 R D 7258 16350 M 101 0 R D
7258 16423 M 101 0 R D 7258 16496 M 101 0 R D 7258 16569 M 101 0 R D
7258 16643 M 101 0 R D 7258 16789 M 101 0 R D 7258 16862 M 101 0 R D
7258 16935 M 101 0 R D 7258 17009 M 101 0 R D 12296 12000 M 0 5038 R D
12296 12322 M -201 0 R D 12296 13055 M -201 0 R D 12296 13787 M -201 0 R D
12296 14519 M -201 0 R D 12296 15251 M -201 0 R D 12296 15984 M -201 0 R D
12296 16716 M -201 0 R D 12296 12030 M -101 0 R D 12296 12103 M -101 0 R D
12296 12176 M -101 0 R D 12296 12249 M -101 0 R D 12296 12396 M -101 0 R D
12296 12469 M -101 0 R D 12296 12542 M -101 0 R D 12296 12615 M -101 0 R D
12296 12689 M -101 0 R D 12296 12762 M -101 0 R D 12296 12835 M -101 0 R D
12296 12908 M -101 0 R D 12296 12981 M -101 0 R D 12296 13128 M -101 0 R D
12296 13201 M -101 0 R D 12296 13274 M -101 0 R D 12296 13348 M -101 0 R D
12296 13421 M -101 0 R D 12296 13494 M -101 0 R D 12296 13567 M -101 0 R D
12296 13640 M -101 0 R D 12296 13714 M -101 0 R D 12296 13860 M -101 0 R D
12296 13933 M -101 0 R D 12296 14007 M -101 0 R D 12296 14080 M -101 0 R D
12296 14153 M -101 0 R D 12296 14226 M -101 0 R D 12296 14299 M -101 0 R D
12296 14373 M -101 0 R D 12296 14446 M -101 0 R D 12296 14592 M -101 0 R D
12296 14666 M -101 0 R D 12296 14739 M -101 0 R D 12296 14812 M -101 0 R D
12296 14885 M -101 0 R D 12296 14958 M -101 0 R D 12296 15032 M -101 0 R D
12296 15105 M -101 0 R D 12296 15178 M -101 0 R D 12296 15325 M -101 0 R D
12296 15398 M -101 0 R D 12296 15471 M -101 0 R D 12296 15544 M -101 0 R D
12296 15617 M -101 0 R D 12296 15691 M -101 0 R D 12296 15764 M -101 0 R D
12296 15837 M -101 0 R D 12296 15910 M -101 0 R D 12296 16057 M -101 0 R D
12296 16130 M -101 0 R D 12296 16203 M -101 0 R D 12296 16276 M -101 0 R D
12296 16350 M -101 0 R D 12296 16423 M -101 0 R D 12296 16496 M -101 0 R D
12296 16569 M -101 0 R D 12296 16643 M -101 0 R D 12296 16789 M -101 0 R D
12296 16862 M -101 0 R D 12296 16935 M -101 0 R D 12296 17009 M -101 0 R D
11246 14519 M -83 77 R -192 151 R -235 143 R -284 123 R -339 80 R -381 0 R
-308 -76 R -261 -125 R -242 -173 R -215 -210 R -165 -211 R -124 -204 R
-91 -194 R -65 -183 R -44 -171 R -26 -161 R -11 -149 R 2 -139 R 14 -129 R
24 -119 R 34 -109 R 42 -99 R 49 -89 R 57 -80 R 63 -70 R 69 -60 R 74 -51 R
80 -41 R 84 -30 R 89 -21 R 94 -10 R 97 2 R 100 12 R 104 24 R 107 37 R
109 50 R 111 64 R 112 80 R 113 96 R 113 114 R 111 135 R 108 158 R 101 185 R
90 217 R 73 252 R 44 292 R -2 334 R -80 362 R -152 305 R -200 243 R
-223 186 R -269 159 R -257 106 R -238 66 R -219 35 R -200 13 R -182 -6 R
-166 -21 R -150 -32 R -136 -43 R -123 -50 R -110 -57 R -97 -64 R -85 -69 R
-74 -73 R -62 -77 R -51 -80 R -39 -84 R -29 -86 R -18 -87 R -7 -90 R 5 -91 R
15 -91 R 27 -92 R 39 -92 R 51 -92 R 64 -90 R 76 -89 R 91 -87 R 105 -84 R
121 -79 R 137 -74 R 156 -67 R 176 -58 R 199 -45 R 225 -26 R 253 -2 R
282 33 R 309 83 R 323 158 R 296 249 R 200 284 R 116 267 R 76 306 R 28 281 R
-7 252 R -30 223 R -48 197 R -60 175 R -69 155 R -76 135 R -82 120 R
-85 103 R -88 89 R -90 75 R -91 62 R -93 49 R -92 38 R -92 25 R -92 14 R
-91 3 R -89 -8 R -87 -20 R -86 -30 R -82 -41 R -80 -52 R -76 -64 R -72 -74 R
-68 -87 R -62 -98 R -56 -111 R -48 -123 R -40 -137 R -31 -151 R -18 -167 R
-3 -182 R 15 -200 R 39 -219 R 70 -237 R 110 -256 R 164 -268 R 235 -263 R
316 -218 R 288 -109 R 276 -46 R 300 1 R 294 46 R 254 75 R 217 92 R 186 103 R
159 109 R 134 113 R 115 114 R 95 114 R 79 114 R 64 112 R 50 110 R 36 107 R
24 104 R 12 101 R 1 98 R -10 93 R -21 89 R -31 85 R -41 79 R -50 74 R
-61 69 R -70 63 R -79 56 R -89 49 R -99 41 R -108 33 R -118 23 R -128 13 R
-138 2 R -148 -11 R -159 -27 R -170 -44 R -181 -65 R -191 -91 R -201 -123 R
-208 -162 R -208 -212 R -194 -274 R -147 -342 R -54 -334 R 20 -311 R
72 -282 R D 0.208 0.208 0.208 setrgbcolor 9770 14519 M 0 2 R 0 1 R 1 1 R
0 1 R 1 0 R 0 1 R 1 0 R 1 1 R 1 0 R 1 0 R 1 0 R 1 0 R 1 0 R 1 0 R 1 0 R
0 -1 R 1 0 R 0 -1 R 1 0 R 0 -1 R 1 0 R 0 -1 R 0 -1 R 0 -2 R D 9770 14519 M
0 -1 R 0 -1 R 0 -1 R 1 0 R 0 -1 R 1 -1 R 0 -1 R 1 0 R 1 0 R 0 -1 R 1 0 R
1 0 R 1 0 R 1 0 R 1 0 R 1 0 R 0 1 R 1 0 R 1 0 R 0 1 R 1 0 R 0 1 R 1 1 R
0 1 R 0 1 R 0 1 R D 0.000 0.000 0.000 setrgbcolor 9777 14519 M Z
gsave 10281 12756 translate 0 0 M
(35.0Gyr) show grestore gsave 10281 12404 translate 0 0 M
(7.5e10M) show X -101.051 M
%%IncludeResource: font Helvetica
262.467 /Helvetica STDFONT
(sun) show grestore
%%IncludeResource: font Helvetica
423.333 /Helvetica STDFONT 12296 12000 M 5038 0 R D 12618 12000 M 0 202 R D
gsave 12618 11472 translate 0 0 M -58.8433 0 N
( ) show grestore 13351 12000 M 0 202 R D gsave 13351 11472 translate 0 0 M
-58.8433 0 N
( ) show grestore 14083 12000 M 0 202 R D gsave 14083 11472 translate 0 0 M
-58.8433 0 N
( ) show grestore 14815 12000 M 0 202 R D gsave 14815 11472 translate 0 0 M
-58.8433 0 N
( ) show grestore 15547 12000 M 0 202 R D gsave 15547 11472 translate 0 0 M
-58.8433 0 N
( ) show grestore 16280 12000 M 0 202 R D gsave 16280 11472 translate 0 0 M
-58.8433 0 N
( ) show grestore 17012 12000 M 0 202 R D gsave 17012 11472 translate 0 0 M
-58.8433 0 N
( ) show grestore 12326 12000 M 0 101 R D 12399 12000 M 0 101 R D
12472 12000 M 0 101 R D 12545 12000 M 0 101 R D 12692 12000 M 0 101 R D
12765 12000 M 0 101 R D 12838 12000 M 0 101 R D 12911 12000 M 0 101 R D
12985 12000 M 0 101 R D 13058 12000 M 0 101 R D 13131 12000 M 0 101 R D
13204 12000 M 0 101 R D 13277 12000 M 0 101 R D 13424 12000 M 0 101 R D
13497 12000 M 0 101 R D 13570 12000 M 0 101 R D 13644 12000 M 0 101 R D
13717 12000 M 0 101 R D 13790 12000 M 0 101 R D 13863 12000 M 0 101 R D
13936 12000 M 0 101 R D 14010 12000 M 0 101 R D 14156 12000 M 0 101 R D
14229 12000 M 0 101 R D 14303 12000 M 0 101 R D 14376 12000 M 0 101 R D
14449 12000 M 0 101 R D 14522 12000 M 0 101 R D 14595 12000 M 0 101 R D
14669 12000 M 0 101 R D 14742 12000 M 0 101 R D 14888 12000 M 0 101 R D
14962 12000 M 0 101 R D 15035 12000 M 0 101 R D 15108 12000 M 0 101 R D
15181 12000 M 0 101 R D 15254 12000 M 0 101 R D 15328 12000 M 0 101 R D
15401 12000 M 0 101 R D 15474 12000 M 0 101 R D 15621 12000 M 0 101 R D
15694 12000 M 0 101 R D 15767 12000 M 0 101 R D 15840 12000 M 0 101 R D
15913 12000 M 0 101 R D 15987 12000 M 0 101 R D 16060 12000 M 0 101 R D
16133 12000 M 0 101 R D 16206 12000 M 0 101 R D 16353 12000 M 0 101 R D
16426 12000 M 0 101 R D 16499 12000 M 0 101 R D 16572 12000 M 0 101 R D
16646 12000 M 0 101 R D 16719 12000 M 0 101 R D 16792 12000 M 0 101 R D
16865 12000 M 0 101 R D 16939 12000 M 0 101 R D 17085 12000 M 0 101 R D
17158 12000 M 0 101 R D 17231 12000 M 0 101 R D 17305 12000 M 0 101 R D
12296 17038 M 5038 0 R D 12618 17038 M 0 -201 R D 13351 17038 M 0 -201 R D
14083 17038 M 0 -201 R D 14815 17038 M 0 -201 R D 15547 17038 M 0 -201 R D
16280 17038 M 0 -201 R D 17012 17038 M 0 -201 R D 12326 17038 M 0 -101 R D
12399 17038 M 0 -101 R D 12472 17038 M 0 -101 R D 12545 17038 M 0 -101 R D
12692 17038 M 0 -101 R D 12765 17038 M 0 -101 R D 12838 17038 M 0 -101 R D
12911 17038 M 0 -101 R D 12985 17038 M 0 -101 R D 13058 17038 M 0 -101 R D
13131 17038 M 0 -101 R D 13204 17038 M 0 -101 R D 13277 17038 M 0 -101 R D
13424 17038 M 0 -101 R D 13497 17038 M 0 -101 R D 13570 17038 M 0 -101 R D
13644 17038 M 0 -101 R D 13717 17038 M 0 -101 R D 13790 17038 M 0 -101 R D
13863 17038 M 0 -101 R D 13936 17038 M 0 -101 R D 14010 17038 M 0 -101 R D
14156 17038 M 0 -101 R D 14229 17038 M 0 -101 R D 14303 17038 M 0 -101 R D
14376 17038 M 0 -101 R D 14449 17038 M 0 -101 R D 14522 17038 M 0 -101 R D
14595 17038 M 0 -101 R D 14669 17038 M 0 -101 R D 14742 17038 M 0 -101 R D
14888 17038 M 0 -101 R D 14962 17038 M 0 -101 R D 15035 17038 M 0 -101 R D
15108 17038 M 0 -101 R D 15181 17038 M 0 -101 R D 15254 17038 M 0 -101 R D
15328 17038 M 0 -101 R D 15401 17038 M 0 -101 R D 15474 17038 M 0 -101 R D
15621 17038 M 0 -101 R D 15694 17038 M 0 -101 R D 15767 17038 M 0 -101 R D
15840 17038 M 0 -101 R D 15913 17038 M 0 -101 R D 15987 17038 M 0 -101 R D
16060 17038 M 0 -101 R D 16133 17038 M 0 -101 R D 16206 17038 M 0 -101 R D
16353 17038 M 0 -101 R D 16426 17038 M 0 -101 R D 16499 17038 M 0 -101 R D
16572 17038 M 0 -101 R D 16646 17038 M 0 -101 R D 16719 17038 M 0 -101 R D
16792 17038 M 0 -101 R D 16865 17038 M 0 -101 R D 16939 17038 M 0 -101 R D
17085 17038 M 0 -101 R D 17158 17038 M 0 -101 R D 17231 17038 M 0 -101 R D
17305 17038 M 0 -101 R D 12296 12000 M 0 5038 R D 12296 12322 M 202 0 R D
gsave 12185 12182 translate 0 0 M -117.687 0 N
( ) show grestore 12296 13055 M 202 0 R D gsave 12185 12914 translate 0 0 M
-117.687 0 N
( ) show grestore 12296 13787 M 202 0 R D gsave 12185 13646 translate 0 0 M
-117.687 0 N
( ) show grestore 12296 14519 M 202 0 R D gsave 12185 14378 translate 0 0 M
-117.687 0 N
( ) show grestore 12296 15251 M 202 0 R D gsave 12185 15111 translate 0 0 M
-117.687 0 N
( ) show grestore 12296 15984 M 202 0 R D gsave 12185 15843 translate 0 0 M
-117.687 0 N
( ) show grestore 12296 16716 M 202 0 R D gsave 12185 16575 translate 0 0 M
-117.687 0 N
( ) show grestore 12296 12030 M 101 0 R D 12296 12103 M 101 0 R D
12296 12176 M 101 0 R D 12296 12249 M 101 0 R D 12296 12396 M 101 0 R D
12296 12469 M 101 0 R D 12296 12542 M 101 0 R D 12296 12615 M 101 0 R D
12296 12689 M 101 0 R D 12296 12762 M 101 0 R D 12296 12835 M 101 0 R D
12296 12908 M 101 0 R D 12296 12981 M 101 0 R D 12296 13128 M 101 0 R D
12296 13201 M 101 0 R D 12296 13274 M 101 0 R D 12296 13348 M 101 0 R D
12296 13421 M 101 0 R D 12296 13494 M 101 0 R D 12296 13567 M 101 0 R D
12296 13640 M 101 0 R D 12296 13714 M 101 0 R D 12296 13860 M 101 0 R D
12296 13933 M 101 0 R D 12296 14007 M 101 0 R D 12296 14080 M 101 0 R D
12296 14153 M 101 0 R D 12296 14226 M 101 0 R D 12296 14299 M 101 0 R D
12296 14373 M 101 0 R D 12296 14446 M 101 0 R D 12296 14592 M 101 0 R D
12296 14666 M 101 0 R D 12296 14739 M 101 0 R D 12296 14812 M 101 0 R D
12296 14885 M 101 0 R D 12296 14958 M 101 0 R D 12296 15032 M 101 0 R D
12296 15105 M 101 0 R D 12296 15178 M 101 0 R D 12296 15325 M 101 0 R D
12296 15398 M 101 0 R D 12296 15471 M 101 0 R D 12296 15544 M 101 0 R D
12296 15617 M 101 0 R D 12296 15691 M 101 0 R D 12296 15764 M 101 0 R D
12296 15837 M 101 0 R D 12296 15910 M 101 0 R D 12296 16057 M 101 0 R D
12296 16130 M 101 0 R D 12296 16203 M 101 0 R D 12296 16276 M 101 0 R D
12296 16350 M 101 0 R D 12296 16423 M 101 0 R D 12296 16496 M 101 0 R D
12296 16569 M 101 0 R D 12296 16643 M 101 0 R D 12296 16789 M 101 0 R D
12296 16862 M 101 0 R D 12296 16935 M 101 0 R D 12296 17009 M 101 0 R D
17334 12000 M 0 5038 R D 17334 12322 M -201 0 R D 17334 13055 M -201 0 R D
17334 13787 M -201 0 R D 17334 14519 M -201 0 R D 17334 15251 M -201 0 R D
17334 15984 M -201 0 R D 17334 16716 M -201 0 R D 17334 12030 M -101 0 R D
17334 12103 M -101 0 R D 17334 12176 M -101 0 R D 17334 12249 M -101 0 R D
17334 12396 M -101 0 R D 17334 12469 M -101 0 R D 17334 12542 M -101 0 R D
17334 12615 M -101 0 R D 17334 12689 M -101 0 R D 17334 12762 M -101 0 R D
17334 12835 M -101 0 R D 17334 12908 M -101 0 R D 17334 12981 M -101 0 R D
17334 13128 M -101 0 R D 17334 13201 M -101 0 R D 17334 13274 M -101 0 R D
17334 13348 M -101 0 R D 17334 13421 M -101 0 R D 17334 13494 M -101 0 R D
17334 13567 M -101 0 R D 17334 13640 M -101 0 R D 17334 13714 M -101 0 R D
17334 13860 M -101 0 R D 17334 13933 M -101 0 R D 17334 14007 M -101 0 R D
17334 14080 M -101 0 R D 17334 14153 M -101 0 R D 17334 14226 M -101 0 R D
17334 14299 M -101 0 R D 17334 14373 M -101 0 R D 17334 14446 M -101 0 R D
17334 14592 M -101 0 R D 17334 14666 M -101 0 R D 17334 14739 M -101 0 R D
17334 14812 M -101 0 R D 17334 14885 M -101 0 R D 17334 14958 M -101 0 R D
17334 15032 M -101 0 R D 17334 15105 M -101 0 R D 17334 15178 M -101 0 R D
17334 15325 M -101 0 R D 17334 15398 M -101 0 R D 17334 15471 M -101 0 R D
17334 15544 M -101 0 R D 17334 15617 M -101 0 R D 17334 15691 M -101 0 R D
17334 15764 M -101 0 R D 17334 15837 M -101 0 R D 17334 15910 M -101 0 R D
17334 16057 M -101 0 R D 17334 16130 M -101 0 R D 17334 16203 M -101 0 R D
17334 16276 M -101 0 R D 17334 16350 M -101 0 R D 17334 16423 M -101 0 R D
17334 16496 M -101 0 R D 17334 16569 M -101 0 R D 17334 16643 M -101 0 R D
17334 16789 M -101 0 R D 17334 16862 M -101 0 R D 17334 16935 M -101 0 R D
17334 17009 M -101 0 R D 16284 14519 M -83 77 R -192 151 R -235 143 R
-284 123 R -339 80 R -381 0 R -308 -76 R -261 -125 R -242 -173 R -215 -210 R
-165 -211 R -124 -204 R -91 -194 R -65 -183 R -44 -171 R -26 -161 R
-11 -149 R 2 -139 R 14 -129 R 24 -119 R 34 -109 R 42 -99 R 49 -89 R 57 -80 R
63 -70 R 69 -60 R 74 -51 R 80 -41 R 84 -30 R 89 -21 R 94 -10 R 97 2 R
100 12 R 104 24 R 107 37 R 109 50 R 111 64 R 112 80 R 113 96 R 113 114 R
111 135 R 108 158 R 101 185 R 90 217 R 73 252 R 44 292 R -2 334 R -80 362 R
-152 305 R -200 243 R -223 186 R -269 159 R -257 106 R -238 66 R -219 35 R
-200 13 R -182 -6 R -166 -21 R -150 -32 R -136 -43 R -123 -50 R -110 -57 R
-97 -64 R -85 -69 R -74 -73 R -62 -77 R -51 -80 R -39 -84 R -29 -86 R
-18 -87 R -7 -90 R 5 -91 R 15 -91 R 27 -92 R 39 -92 R 51 -92 R 64 -90 R
76 -89 R 91 -87 R 105 -84 R 121 -79 R 137 -74 R 156 -67 R 176 -58 R
199 -45 R 225 -26 R 253 -2 R 282 33 R 309 83 R 323 158 R 296 249 R 200 284 R
116 267 R 76 306 R 28 281 R -7 252 R -30 223 R -48 197 R -60 175 R -69 155 R
-76 135 R -82 120 R -85 103 R -88 89 R -90 75 R -91 62 R -93 49 R -92 38 R
-92 25 R -92 14 R -91 3 R -89 -8 R -87 -20 R -86 -30 R -82 -41 R -80 -52 R
-76 -64 R -72 -74 R -68 -87 R -62 -98 R -56 -111 R -48 -123 R -40 -137 R
-31 -151 R -18 -167 R -3 -182 R 15 -200 R 39 -219 R 70 -237 R 110 -256 R
164 -268 R 235 -263 R 316 -218 R 288 -109 R 276 -46 R 300 1 R 294 46 R
254 75 R 217 92 R 186 103 R 159 109 R 134 113 R 115 114 R 95 114 R 79 114 R
64 112 R 50 110 R 36 107 R 24 104 R 12 101 R 1 98 R -10 93 R -21 89 R
-31 85 R -41 79 R -50 74 R -61 69 R -70 63 R -79 56 R -89 49 R -99 41 R
-108 33 R -118 23 R -128 13 R -138 2 R -148 -11 R -159 -27 R -170 -44 R
-181 -65 R -191 -91 R -201 -123 R -208 -162 R -208 -212 R -194 -274 R
-147 -342 R -54 -334 R 20 -311 R 72 -282 R D 0.208 0.208 0.208 setrgbcolor
14808 14519 M 0 2 R 0 1 R 1 1 R 0 1 R 1 0 R 0 1 R 1 0 R 1 1 R 1 0 R 1 0 R
1 0 R 1 0 R 1 0 R 1 0 R 1 0 R 0 -1 R 1 0 R 0 -1 R 1 0 R 0 -1 R 1 0 R 0 -1 R
0 -1 R 0 -2 R D 14808 14519 M 0 -1 R 0 -1 R 0 -1 R 1 0 R 0 -1 R 1 -1 R
0 -1 R 1 0 R 1 0 R 0 -1 R 1 0 R 1 0 R 1 0 R 1 0 R 1 0 R 1 0 R 0 1 R 1 0 R
1 0 R 0 1 R 1 0 R 0 1 R 1 1 R 0 1 R 0 1 R 0 1 R D
0.000 0.000 0.000 setrgbcolor 14815 14519 M Z
gsave 15319 12756 translate 0 0 M
(35.0Gyr) show grestore gsave 15319 12404 translate 0 0 M
(1.0e11M) show X -101.051 M
%%IncludeResource: font Helvetica
262.467 /Helvetica STDFONT
(sun) show grestore
%%IncludeResource: font Helvetica
423.333 /Helvetica STDFONT 2220 6704 M 5038 0 R D 2542 6704 M 0 202 R D
gsave 2542 6176 translate 0 0 M -58.8433 0 N
( ) show grestore 3275 6704 M 0 202 R D gsave 3275 6176 translate 0 0 M
-58.8433 0 N
( ) show grestore 4007 6704 M 0 202 R D gsave 4007 6176 translate 0 0 M
-58.8433 0 N
( ) show grestore 4739 6704 M 0 202 R D gsave 4739 6176 translate 0 0 M
-58.8433 0 N
( ) show grestore 5471 6704 M 0 202 R D gsave 5471 6176 translate 0 0 M
-58.8433 0 N
( ) show grestore 6204 6704 M 0 202 R D gsave 6204 6176 translate 0 0 M
-58.8433 0 N
( ) show grestore 6936 6704 M 0 202 R D gsave 6936 6176 translate 0 0 M
-58.8433 0 N
( ) show grestore 2250 6704 M 0 101 R D 2323 6704 M 0 101 R D 2396 6704 M
0 101 R D 2469 6704 M 0 101 R D 2616 6704 M 0 101 R D 2689 6704 M 0 101 R D
2762 6704 M 0 101 R D 2835 6704 M 0 101 R D 2909 6704 M 0 101 R D
2982 6704 M 0 101 R D 3055 6704 M 0 101 R D 3128 6704 M 0 101 R D
3201 6704 M 0 101 R D 3348 6704 M 0 101 R D 3421 6704 M 0 101 R D
3494 6704 M 0 101 R D 3568 6704 M 0 101 R D 3641 6704 M 0 101 R D
3714 6704 M 0 101 R D 3787 6704 M 0 101 R D 3860 6704 M 0 101 R D
3934 6704 M 0 101 R D 4080 6704 M 0 101 R D 4153 6704 M 0 101 R D
4227 6704 M 0 101 R D 4300 6704 M 0 101 R D 4373 6704 M 0 101 R D
4446 6704 M 0 101 R D 4519 6704 M 0 101 R D 4593 6704 M 0 101 R D
4666 6704 M 0 101 R D 4812 6704 M 0 101 R D 4886 6704 M 0 101 R D
4959 6704 M 0 101 R D 5032 6704 M 0 101 R D 5105 6704 M 0 101 R D
5178 6704 M 0 101 R D 5252 6704 M 0 101 R D 5325 6704 M 0 101 R D
5398 6704 M 0 101 R D 5545 6704 M 0 101 R D 5618 6704 M 0 101 R D
5691 6704 M 0 101 R D 5764 6704 M 0 101 R D 5837 6704 M 0 101 R D
5911 6704 M 0 101 R D 5984 6704 M 0 101 R D 6057 6704 M 0 101 R D
6130 6704 M 0 101 R D 6277 6704 M 0 101 R D 6350 6704 M 0 101 R D
6423 6704 M 0 101 R D 6496 6704 M 0 101 R D 6570 6704 M 0 101 R D
6643 6704 M 0 101 R D 6716 6704 M 0 101 R D 6789 6704 M 0 101 R D
6863 6704 M 0 101 R D 7009 6704 M 0 101 R D 7082 6704 M 0 101 R D
7155 6704 M 0 101 R D 7229 6704 M 0 101 R D 2220 11742 M 5038 0 R D
2542 11742 M 0 -201 R D 3275 11742 M 0 -201 R D 4007 11742 M 0 -201 R D
4739 11742 M 0 -201 R D 5471 11742 M 0 -201 R D 6204 11742 M 0 -201 R D
6936 11742 M 0 -201 R D 2250 11742 M 0 -101 R D 2323 11742 M 0 -101 R D
2396 11742 M 0 -101 R D 2469 11742 M 0 -101 R D 2616 11742 M 0 -101 R D
2689 11742 M 0 -101 R D 2762 11742 M 0 -101 R D 2835 11742 M 0 -101 R D
2909 11742 M 0 -101 R D 2982 11742 M 0 -101 R D 3055 11742 M 0 -101 R D
3128 11742 M 0 -101 R D 3201 11742 M 0 -101 R D 3348 11742 M 0 -101 R D
3421 11742 M 0 -101 R D 3494 11742 M 0 -101 R D 3568 11742 M 0 -101 R D
3641 11742 M 0 -101 R D 3714 11742 M 0 -101 R D 3787 11742 M 0 -101 R D
3860 11742 M 0 -101 R D 3934 11742 M 0 -101 R D 4080 11742 M 0 -101 R D
4153 11742 M 0 -101 R D 4227 11742 M 0 -101 R D 4300 11742 M 0 -101 R D
4373 11742 M 0 -101 R D 4446 11742 M 0 -101 R D 4519 11742 M 0 -101 R D
4593 11742 M 0 -101 R D 4666 11742 M 0 -101 R D 4812 11742 M 0 -101 R D
4886 11742 M 0 -101 R D 4959 11742 M 0 -101 R D 5032 11742 M 0 -101 R D
5105 11742 M 0 -101 R D 5178 11742 M 0 -101 R D 5252 11742 M 0 -101 R D
5325 11742 M 0 -101 R D 5398 11742 M 0 -101 R D 5545 11742 M 0 -101 R D
5618 11742 M 0 -101 R D 5691 11742 M 0 -101 R D 5764 11742 M 0 -101 R D
5837 11742 M 0 -101 R D 5911 11742 M 0 -101 R D 5984 11742 M 0 -101 R D
6057 11742 M 0 -101 R D 6130 11742 M 0 -101 R D 6277 11742 M 0 -101 R D
6350 11742 M 0 -101 R D 6423 11742 M 0 -101 R D 6496 11742 M 0 -101 R D
6570 11742 M 0 -101 R D 6643 11742 M 0 -101 R D 6716 11742 M 0 -101 R D
6789 11742 M 0 -101 R D 6863 11742 M 0 -101 R D 7009 11742 M 0 -101 R D
7082 11742 M 0 -101 R D 7155 11742 M 0 -101 R D 7229 11742 M 0 -101 R D
2220 6704 M 0 5038 R D 2220 7026 M 202 0 R D gsave 2109 6886 translate 0 0 M
-847.09 0 N
(-300) show grestore 2220 7759 M 202 0 R D gsave 2109 7618 translate 0 0 M
-847.09 0 N
(-200) show grestore 2220 8491 M 202 0 R D gsave 2109 8350 translate 0 0 M
-847.09 0 N
(-100) show grestore 2220 9223 M 202 0 R D gsave 2109 9082 translate 0 0 M
-235.373 0 N
(0) show grestore 2220 9955 M 202 0 R D gsave 2109 9815 translate 0 0 M
-706.12 0 N
(100) show grestore 2220 10688 M 202 0 R D gsave 2109 10547 translate 0 0 M
-706.12 0 N
(200) show grestore 2220 11420 M 202 0 R D gsave 2109 11279 translate 0 0 M
-706.12 0 N
(300) show grestore 2220 6734 M 101 0 R D 2220 6807 M 101 0 R D 2220 6880 M
101 0 R D 2220 6953 M 101 0 R D 2220 7100 M 101 0 R D 2220 7173 M 101 0 R D
2220 7246 M 101 0 R D 2220 7319 M 101 0 R D 2220 7393 M 101 0 R D
2220 7466 M 101 0 R D 2220 7539 M 101 0 R D 2220 7612 M 101 0 R D
2220 7685 M 101 0 R D 2220 7832 M 101 0 R D 2220 7905 M 101 0 R D
2220 7978 M 101 0 R D 2220 8052 M 101 0 R D 2220 8125 M 101 0 R D
2220 8198 M 101 0 R D 2220 8271 M 101 0 R D 2220 8344 M 101 0 R D
2220 8418 M 101 0 R D 2220 8564 M 101 0 R D 2220 8637 M 101 0 R D
2220 8711 M 101 0 R D 2220 8784 M 101 0 R D 2220 8857 M 101 0 R D
2220 8930 M 101 0 R D 2220 9003 M 101 0 R D 2220 9077 M 101 0 R D
2220 9150 M 101 0 R D 2220 9296 M 101 0 R D 2220 9370 M 101 0 R D
2220 9443 M 101 0 R D 2220 9516 M 101 0 R D 2220 9589 M 101 0 R D
2220 9662 M 101 0 R D 2220 9736 M 101 0 R D 2220 9809 M 101 0 R D
2220 9882 M 101 0 R D 2220 10029 M 101 0 R D 2220 10102 M 101 0 R D
2220 10175 M 101 0 R D 2220 10248 M 101 0 R D 2220 10321 M 101 0 R D
2220 10395 M 101 0 R D 2220 10468 M 101 0 R D 2220 10541 M 101 0 R D
2220 10614 M 101 0 R D 2220 10761 M 101 0 R D 2220 10834 M 101 0 R D
2220 10907 M 101 0 R D 2220 10980 M 101 0 R D 2220 11054 M 101 0 R D
2220 11127 M 101 0 R D 2220 11200 M 101 0 R D 2220 11273 M 101 0 R D
2220 11347 M 101 0 R D 2220 11493 M 101 0 R D 2220 11566 M 101 0 R D
2220 11639 M 101 0 R D 2220 11713 M 101 0 R D 7258 6704 M 0 5038 R D
7258 7026 M -201 0 R D 7258 7759 M -201 0 R D 7258 8491 M -201 0 R D
7258 9223 M -201 0 R D 7258 9955 M -201 0 R D 7258 10688 M -201 0 R D
7258 11420 M -201 0 R D 7258 6734 M -101 0 R D 7258 6807 M -101 0 R D
7258 6880 M -101 0 R D 7258 6953 M -101 0 R D 7258 7100 M -101 0 R D
7258 7173 M -101 0 R D 7258 7246 M -101 0 R D 7258 7319 M -101 0 R D
7258 7393 M -101 0 R D 7258 7466 M -101 0 R D 7258 7539 M -101 0 R D
7258 7612 M -101 0 R D 7258 7685 M -101 0 R D 7258 7832 M -101 0 R D
7258 7905 M -101 0 R D 7258 7978 M -101 0 R D 7258 8052 M -101 0 R D
7258 8125 M -101 0 R D 7258 8198 M -101 0 R D 7258 8271 M -101 0 R D
7258 8344 M -101 0 R D 7258 8418 M -101 0 R D 7258 8564 M -101 0 R D
7258 8637 M -101 0 R D 7258 8711 M -101 0 R D 7258 8784 M -101 0 R D
7258 8857 M -101 0 R D 7258 8930 M -101 0 R D 7258 9003 M -101 0 R D
7258 9077 M -101 0 R D 7258 9150 M -101 0 R D 7258 9296 M -101 0 R D
7258 9370 M -101 0 R D 7258 9443 M -101 0 R D 7258 9516 M -101 0 R D
7258 9589 M -101 0 R D 7258 9662 M -101 0 R D 7258 9736 M -101 0 R D
7258 9809 M -101 0 R D 7258 9882 M -101 0 R D 7258 10029 M -101 0 R D
7258 10102 M -101 0 R D 7258 10175 M -101 0 R D 7258 10248 M -101 0 R D
7258 10321 M -101 0 R D 7258 10395 M -101 0 R D 7258 10468 M -101 0 R D
7258 10541 M -101 0 R D 7258 10614 M -101 0 R D 7258 10761 M -101 0 R D
7258 10834 M -101 0 R D 7258 10907 M -101 0 R D 7258 10980 M -101 0 R D
7258 11054 M -101 0 R D 7258 11127 M -101 0 R D 7258 11200 M -101 0 R D
7258 11273 M -101 0 R D 7258 11347 M -101 0 R D 7258 11493 M -101 0 R D
7258 11566 M -101 0 R D 7258 11639 M -101 0 R D 7258 11713 M -101 0 R D
6208 9223 M -83 77 R -192 151 R -235 143 R -284 123 R -339 80 R -381 0 R
-308 -76 R -261 -125 R -242 -173 R -215 -210 R -165 -211 R -124 -204 R
-91 -194 R -65 -183 R -44 -171 R -26 -161 R -11 -149 R 2 -139 R 14 -129 R
24 -119 R 34 -109 R 42 -99 R 49 -89 R 57 -80 R 63 -70 R 69 -60 R 74 -51 R
80 -41 R 84 -30 R 89 -21 R 94 -10 R 97 2 R 100 12 R 104 24 R 107 37 R
109 50 R 111 64 R 112 80 R 113 96 R 113 114 R 111 135 R 108 158 R 101 185 R
90 217 R 73 252 R 44 292 R -2 334 R -80 362 R -152 305 R -200 243 R
-223 186 R -269 159 R -257 106 R -238 66 R -219 35 R -200 13 R -182 -6 R
-166 -21 R -150 -32 R -136 -43 R -123 -50 R -110 -57 R -97 -64 R -85 -69 R
-74 -73 R -62 -77 R -51 -80 R -39 -84 R -29 -86 R -18 -87 R -7 -90 R 5 -91 R
15 -91 R 27 -92 R 39 -92 R 51 -92 R 64 -90 R 76 -89 R 91 -87 R 105 -84 R
121 -79 R 137 -74 R 156 -67 R 176 -58 R 199 -45 R 225 -26 R 253 -2 R
282 33 R 309 83 R 323 158 R 296 249 R 200 284 R 116 267 R 76 306 R 28 281 R
-7 252 R -30 223 R -48 197 R -60 175 R -69 155 R -76 135 R -82 120 R
-85 103 R -88 89 R -90 75 R -91 62 R -93 49 R -92 38 R -92 25 R -92 14 R
-91 3 R -89 -8 R -87 -20 R -86 -30 R -82 -41 R -80 -52 R -76 -64 R -72 -74 R
-68 -87 R -62 -98 R -56 -111 R -48 -123 R -40 -137 R -31 -151 R -18 -167 R
-3 -182 R 15 -200 R 39 -219 R 70 -237 R 110 -256 R 164 -268 R 235 -263 R
316 -218 R 288 -109 R 276 -46 R 300 1 R 294 46 R 254 75 R 217 92 R 186 103 R
159 109 R 134 113 R 115 114 R 95 114 R 79 114 R 64 112 R 50 110 R 36 107 R
24 104 R 12 101 R 1 98 R -10 93 R -21 89 R -31 85 R -41 79 R -50 74 R
-61 69 R -70 63 R -79 56 R -89 49 R -99 41 R -108 33 R -118 23 R -128 13 R
-138 2 R -148 -11 R -159 -27 R -170 -44 R -181 -65 R -191 -91 R -201 -123 R
-208 -162 R -208 -212 R -194 -274 R -147 -342 R -54 -334 R 20 -311 R
72 -282 R D 0.208 0.208 0.208 setrgbcolor 4732 9223 M 0 2 R 0 1 R 1 1 R
0 1 R 1 0 R 0 1 R 1 0 R 1 1 R 1 0 R 1 0 R 1 0 R 1 0 R 1 0 R 1 0 R 1 0 R
0 -1 R 1 0 R 0 -1 R 1 0 R 0 -1 R 1 0 R 0 -1 R 0 -1 R 0 -2 R D 4732 9223 M
0 -1 R 0 -1 R 0 -1 R 1 0 R 0 -1 R 1 -1 R 0 -1 R 1 0 R 1 0 R 0 -1 R 1 0 R
1 0 R 1 0 R 1 0 R 1 0 R 1 0 R 0 1 R 1 0 R 1 0 R 0 1 R 1 0 R 0 1 R 1 1 R
0 1 R 0 1 R 0 1 R D 0.000 0.000 0.000 setrgbcolor 4739 9223 M Z
gsave 5243 7460 translate 0 0 M
(35.0Gyr) show grestore gsave 5243 7108 translate 0 0 M
(1.3e11M) show X -101.051 M
%%IncludeResource: font Helvetica
262.467 /Helvetica STDFONT
(sun) show grestore
%%IncludeResource: font Helvetica
423.333 /Helvetica STDFONT 7258 6704 M 5038 0 R D 7580 6704 M 0 202 R D
gsave 7580 6176 translate 0 0 M -58.8433 0 N
( ) show grestore 8313 6704 M 0 202 R D gsave 8313 6176 translate 0 0 M
-58.8433 0 N
( ) show grestore 9045 6704 M 0 202 R D gsave 9045 6176 translate 0 0 M
-58.8433 0 N
( ) show grestore 9777 6704 M 0 202 R D gsave 9777 6176 translate 0 0 M
-58.8433 0 N
( ) show grestore 10509 6704 M 0 202 R D gsave 10509 6176 translate 0 0 M
-58.8433 0 N
( ) show grestore 11242 6704 M 0 202 R D gsave 11242 6176 translate 0 0 M
-58.8433 0 N
( ) show grestore 11974 6704 M 0 202 R D gsave 11974 6176 translate 0 0 M
-58.8433 0 N
( ) show grestore 7288 6704 M 0 101 R D 7361 6704 M 0 101 R D 7434 6704 M
0 101 R D 7507 6704 M 0 101 R D 7654 6704 M 0 101 R D 7727 6704 M 0 101 R D
7800 6704 M 0 101 R D 7873 6704 M 0 101 R D 7947 6704 M 0 101 R D
8020 6704 M 0 101 R D 8093 6704 M 0 101 R D 8166 6704 M 0 101 R D
8239 6704 M 0 101 R D 8386 6704 M 0 101 R D 8459 6704 M 0 101 R D
8532 6704 M 0 101 R D 8606 6704 M 0 101 R D 8679 6704 M 0 101 R D
8752 6704 M 0 101 R D 8825 6704 M 0 101 R D 8898 6704 M 0 101 R D
8972 6704 M 0 101 R D 9118 6704 M 0 101 R D 9191 6704 M 0 101 R D
9265 6704 M 0 101 R D 9338 6704 M 0 101 R D 9411 6704 M 0 101 R D
9484 6704 M 0 101 R D 9557 6704 M 0 101 R D 9631 6704 M 0 101 R D
9704 6704 M 0 101 R D 9850 6704 M 0 101 R D 9924 6704 M 0 101 R D
9997 6704 M 0 101 R D 10070 6704 M 0 101 R D 10143 6704 M 0 101 R D
10216 6704 M 0 101 R D 10290 6704 M 0 101 R D 10363 6704 M 0 101 R D
10436 6704 M 0 101 R D 10583 6704 M 0 101 R D 10656 6704 M 0 101 R D
10729 6704 M 0 101 R D 10802 6704 M 0 101 R D 10875 6704 M 0 101 R D
10949 6704 M 0 101 R D 11022 6704 M 0 101 R D 11095 6704 M 0 101 R D
11168 6704 M 0 101 R D 11315 6704 M 0 101 R D 11388 6704 M 0 101 R D
11461 6704 M 0 101 R D 11534 6704 M 0 101 R D 11608 6704 M 0 101 R D
11681 6704 M 0 101 R D 11754 6704 M 0 101 R D 11827 6704 M 0 101 R D
11901 6704 M 0 101 R D 12047 6704 M 0 101 R D 12120 6704 M 0 101 R D
12193 6704 M 0 101 R D 12267 6704 M 0 101 R D 7258 11742 M 5038 0 R D
7580 11742 M 0 -201 R D 8313 11742 M 0 -201 R D 9045 11742 M 0 -201 R D
9777 11742 M 0 -201 R D 10509 11742 M 0 -201 R D 11242 11742 M 0 -201 R D
11974 11742 M 0 -201 R D 7288 11742 M 0 -101 R D 7361 11742 M 0 -101 R D
7434 11742 M 0 -101 R D 7507 11742 M 0 -101 R D 7654 11742 M 0 -101 R D
7727 11742 M 0 -101 R D 7800 11742 M 0 -101 R D 7873 11742 M 0 -101 R D
7947 11742 M 0 -101 R D 8020 11742 M 0 -101 R D 8093 11742 M 0 -101 R D
8166 11742 M 0 -101 R D 8239 11742 M 0 -101 R D 8386 11742 M 0 -101 R D
8459 11742 M 0 -101 R D 8532 11742 M 0 -101 R D 8606 11742 M 0 -101 R D
8679 11742 M 0 -101 R D 8752 11742 M 0 -101 R D 8825 11742 M 0 -101 R D
8898 11742 M 0 -101 R D 8972 11742 M 0 -101 R D 9118 11742 M 0 -101 R D
9191 11742 M 0 -101 R D 9265 11742 M 0 -101 R D 9338 11742 M 0 -101 R D
9411 11742 M 0 -101 R D 9484 11742 M 0 -101 R D 9557 11742 M 0 -101 R D
9631 11742 M 0 -101 R D 9704 11742 M 0 -101 R D 9850 11742 M 0 -101 R D
9924 11742 M 0 -101 R D 9997 11742 M 0 -101 R D 10070 11742 M 0 -101 R D
10143 11742 M 0 -101 R D 10216 11742 M 0 -101 R D 10290 11742 M 0 -101 R D
10363 11742 M 0 -101 R D 10436 11742 M 0 -101 R D 10583 11742 M 0 -101 R D
10656 11742 M 0 -101 R D 10729 11742 M 0 -101 R D 10802 11742 M 0 -101 R D
10875 11742 M 0 -101 R D 10949 11742 M 0 -101 R D 11022 11742 M 0 -101 R D
11095 11742 M 0 -101 R D 11168 11742 M 0 -101 R D 11315 11742 M 0 -101 R D
11388 11742 M 0 -101 R D 11461 11742 M 0 -101 R D 11534 11742 M 0 -101 R D
11608 11742 M 0 -101 R D 11681 11742 M 0 -101 R D 11754 11742 M 0 -101 R D
11827 11742 M 0 -101 R D 11901 11742 M 0 -101 R D 12047 11742 M 0 -101 R D
12120 11742 M 0 -101 R D 12193 11742 M 0 -101 R D 12267 11742 M 0 -101 R D
7258 6704 M 0 5038 R D 7258 7026 M 202 0 R D gsave 7147 6886 translate 0 0 M
-117.687 0 N
( ) show grestore 7258 7759 M 202 0 R D gsave 7147 7618 translate 0 0 M
-117.687 0 N
( ) show grestore 7258 8491 M 202 0 R D gsave 7147 8350 translate 0 0 M
-117.687 0 N
( ) show grestore 7258 9223 M 202 0 R D gsave 7147 9082 translate 0 0 M
-117.687 0 N
( ) show grestore 7258 9955 M 202 0 R D gsave 7147 9815 translate 0 0 M
-117.687 0 N
( ) show grestore 7258 10688 M 202 0 R D gsave 7147 10547 translate 0 0 M
-117.687 0 N
( ) show grestore 7258 11420 M 202 0 R D gsave 7147 11279 translate 0 0 M
-117.687 0 N
( ) show grestore 7258 6734 M 101 0 R D 7258 6807 M 101 0 R D 7258 6880 M
101 0 R D 7258 6953 M 101 0 R D 7258 7100 M 101 0 R D 7258 7173 M 101 0 R D
7258 7246 M 101 0 R D 7258 7319 M 101 0 R D 7258 7393 M 101 0 R D
7258 7466 M 101 0 R D 7258 7539 M 101 0 R D 7258 7612 M 101 0 R D
7258 7685 M 101 0 R D 7258 7832 M 101 0 R D 7258 7905 M 101 0 R D
7258 7978 M 101 0 R D 7258 8052 M 101 0 R D 7258 8125 M 101 0 R D
7258 8198 M 101 0 R D 7258 8271 M 101 0 R D 7258 8344 M 101 0 R D
7258 8418 M 101 0 R D 7258 8564 M 101 0 R D 7258 8637 M 101 0 R D
7258 8711 M 101 0 R D 7258 8784 M 101 0 R D 7258 8857 M 101 0 R D
7258 8930 M 101 0 R D 7258 9003 M 101 0 R D 7258 9077 M 101 0 R D
7258 9150 M 101 0 R D 7258 9296 M 101 0 R D 7258 9370 M 101 0 R D
7258 9443 M 101 0 R D 7258 9516 M 101 0 R D 7258 9589 M 101 0 R D
7258 9662 M 101 0 R D 7258 9736 M 101 0 R D 7258 9809 M 101 0 R D
7258 9882 M 101 0 R D 7258 10029 M 101 0 R D 7258 10102 M 101 0 R D
7258 10175 M 101 0 R D 7258 10248 M 101 0 R D 7258 10321 M 101 0 R D
7258 10395 M 101 0 R D 7258 10468 M 101 0 R D 7258 10541 M 101 0 R D
7258 10614 M 101 0 R D 7258 10761 M 101 0 R D 7258 10834 M 101 0 R D
7258 10907 M 101 0 R D 7258 10980 M 101 0 R D 7258 11054 M 101 0 R D
7258 11127 M 101 0 R D 7258 11200 M 101 0 R D 7258 11273 M 101 0 R D
7258 11347 M 101 0 R D 7258 11493 M 101 0 R D 7258 11566 M 101 0 R D
7258 11639 M 101 0 R D 7258 11713 M 101 0 R D 12296 6704 M 0 5038 R D
12296 7026 M -201 0 R D 12296 7759 M -201 0 R D 12296 8491 M -201 0 R D
12296 9223 M -201 0 R D 12296 9955 M -201 0 R D 12296 10688 M -201 0 R D
12296 11420 M -201 0 R D 12296 6734 M -101 0 R D 12296 6807 M -101 0 R D
12296 6880 M -101 0 R D 12296 6953 M -101 0 R D 12296 7100 M -101 0 R D
12296 7173 M -101 0 R D 12296 7246 M -101 0 R D 12296 7319 M -101 0 R D
12296 7393 M -101 0 R D 12296 7466 M -101 0 R D 12296 7539 M -101 0 R D
12296 7612 M -101 0 R D 12296 7685 M -101 0 R D 12296 7832 M -101 0 R D
12296 7905 M -101 0 R D 12296 7978 M -101 0 R D 12296 8052 M -101 0 R D
12296 8125 M -101 0 R D 12296 8198 M -101 0 R D 12296 8271 M -101 0 R D
12296 8344 M -101 0 R D 12296 8418 M -101 0 R D 12296 8564 M -101 0 R D
12296 8637 M -101 0 R D 12296 8711 M -101 0 R D 12296 8784 M -101 0 R D
12296 8857 M -101 0 R D 12296 8930 M -101 0 R D 12296 9003 M -101 0 R D
12296 9077 M -101 0 R D 12296 9150 M -101 0 R D 12296 9296 M -101 0 R D
12296 9370 M -101 0 R D 12296 9443 M -101 0 R D 12296 9516 M -101 0 R D
12296 9589 M -101 0 R D 12296 9662 M -101 0 R D 12296 9736 M -101 0 R D
12296 9809 M -101 0 R D 12296 9882 M -101 0 R D 12296 10029 M -101 0 R D
12296 10102 M -101 0 R D 12296 10175 M -101 0 R D 12296 10248 M -101 0 R D
12296 10321 M -101 0 R D 12296 10395 M -101 0 R D 12296 10468 M -101 0 R D
12296 10541 M -101 0 R D 12296 10614 M -101 0 R D 12296 10761 M -101 0 R D
12296 10834 M -101 0 R D 12296 10907 M -101 0 R D 12296 10980 M -101 0 R D
12296 11054 M -101 0 R D 12296 11127 M -101 0 R D 12296 11200 M -101 0 R D
12296 11273 M -101 0 R D 12296 11347 M -101 0 R D 12296 11493 M -101 0 R D
12296 11566 M -101 0 R D 12296 11639 M -101 0 R D 12296 11713 M -101 0 R D
11246 9223 M -83 77 R -192 151 R -235 143 R -284 123 R -339 80 R -381 0 R
-308 -76 R -261 -125 R -242 -173 R -215 -210 R -165 -211 R -124 -204 R
-91 -194 R -65 -183 R -44 -171 R -26 -161 R -11 -149 R 2 -139 R 14 -129 R
24 -119 R 34 -109 R 42 -99 R 49 -89 R 57 -80 R 63 -70 R 69 -60 R 74 -51 R
80 -41 R 84 -30 R 89 -21 R 94 -10 R 97 2 R 100 12 R 104 24 R 107 37 R
109 50 R 111 64 R 112 80 R 113 96 R 113 114 R 111 135 R 108 158 R 101 185 R
90 217 R 73 252 R 44 292 R -2 334 R -80 362 R -152 305 R -200 243 R
-223 186 R -269 159 R -257 106 R -238 66 R -219 35 R -200 13 R -182 -6 R
-166 -21 R -150 -32 R -136 -43 R -123 -50 R -110 -57 R -97 -64 R -85 -69 R
-74 -73 R -62 -77 R -51 -80 R -39 -84 R -29 -86 R -18 -87 R -7 -90 R 5 -91 R
15 -91 R 27 -92 R 39 -92 R 51 -92 R 64 -90 R 76 -89 R 91 -87 R 105 -84 R
121 -79 R 137 -74 R 156 -67 R 176 -58 R 199 -45 R 225 -26 R 253 -2 R
282 33 R 309 83 R 323 158 R 296 249 R 200 284 R 116 267 R 76 306 R 28 281 R
-7 252 R -30 223 R -48 197 R -60 175 R -69 155 R -76 135 R -82 120 R
-85 103 R -88 89 R -90 75 R -91 62 R -93 49 R -92 38 R -92 25 R -92 14 R
-91 3 R -89 -8 R -87 -20 R -86 -30 R -82 -41 R -80 -52 R -76 -64 R -72 -74 R
-68 -87 R -62 -98 R -56 -111 R -48 -123 R -40 -137 R -31 -151 R -18 -167 R
-3 -182 R 15 -200 R 39 -219 R 70 -237 R 110 -256 R 164 -268 R 235 -263 R
316 -218 R 288 -109 R 276 -46 R 300 1 R 294 46 R 254 75 R 217 92 R 186 103 R
159 109 R 134 113 R 115 114 R 95 114 R 79 114 R 64 112 R 50 110 R 36 107 R
24 104 R 12 101 R 1 98 R -10 93 R -21 89 R -31 85 R -41 79 R -50 74 R
-61 69 R -70 63 R -79 56 R -89 49 R -99 41 R -108 33 R -118 23 R -128 13 R
-138 2 R -148 -11 R -159 -27 R -170 -44 R -181 -65 R -191 -91 R -201 -123 R
-208 -162 R -208 -212 R -194 -274 R -147 -342 R -54 -334 R 20 -311 R
72 -282 R D 0.208 0.208 0.208 setrgbcolor 9770 9223 M 0 2 R 0 1 R 1 1 R
0 1 R 1 0 R 0 1 R 1 0 R 1 1 R 1 0 R 1 0 R 1 0 R 1 0 R 1 0 R 1 0 R 1 0 R
0 -1 R 1 0 R 0 -1 R 1 0 R 0 -1 R 1 0 R 0 -1 R 0 -1 R 0 -2 R D 9770 9223 M
0 -1 R 0 -1 R 0 -1 R 1 0 R 0 -1 R 1 -1 R 0 -1 R 1 0 R 1 0 R 0 -1 R 1 0 R
1 0 R 1 0 R 1 0 R 1 0 R 1 0 R 0 1 R 1 0 R 1 0 R 0 1 R 1 0 R 0 1 R 1 1 R
0 1 R 0 1 R 0 1 R D 0.000 0.000 0.000 setrgbcolor 9777 9223 M Z
gsave 10281 7460 translate 0 0 M
(35.0Gyr) show grestore gsave 10281 7108 translate 0 0 M
(1.5e11M) show X -101.051 M
%%IncludeResource: font Helvetica
262.467 /Helvetica STDFONT
(sun) show grestore
%%IncludeResource: font Helvetica
423.333 /Helvetica STDFONT 12296 6704 M 5038 0 R D 12618 6704 M 0 202 R D
gsave 12618 6176 translate 0 0 M -58.8433 0 N
( ) show grestore 13351 6704 M 0 202 R D gsave 13351 6176 translate 0 0 M
-58.8433 0 N
( ) show grestore 14083 6704 M 0 202 R D gsave 14083 6176 translate 0 0 M
-58.8433 0 N
( ) show grestore 14815 6704 M 0 202 R D gsave 14815 6176 translate 0 0 M
-58.8433 0 N
( ) show grestore 15547 6704 M 0 202 R D gsave 15547 6176 translate 0 0 M
-58.8433 0 N
( ) show grestore 16280 6704 M 0 202 R D gsave 16280 6176 translate 0 0 M
-58.8433 0 N
( ) show grestore 17012 6704 M 0 202 R D gsave 17012 6176 translate 0 0 M
-58.8433 0 N
( ) show grestore 12326 6704 M 0 101 R D 12399 6704 M 0 101 R D 12472 6704 M
0 101 R D 12545 6704 M 0 101 R D 12692 6704 M 0 101 R D 12765 6704 M 0 101 R
D 12838 6704 M 0 101 R D 12911 6704 M 0 101 R D 12985 6704 M 0 101 R D
13058 6704 M 0 101 R D 13131 6704 M 0 101 R D 13204 6704 M 0 101 R D
13277 6704 M 0 101 R D 13424 6704 M 0 101 R D 13497 6704 M 0 101 R D
13570 6704 M 0 101 R D 13644 6704 M 0 101 R D 13717 6704 M 0 101 R D
13790 6704 M 0 101 R D 13863 6704 M 0 101 R D 13936 6704 M 0 101 R D
14010 6704 M 0 101 R D 14156 6704 M 0 101 R D 14229 6704 M 0 101 R D
14303 6704 M 0 101 R D 14376 6704 M 0 101 R D 14449 6704 M 0 101 R D
14522 6704 M 0 101 R D 14595 6704 M 0 101 R D 14669 6704 M 0 101 R D
14742 6704 M 0 101 R D 14888 6704 M 0 101 R D 14962 6704 M 0 101 R D
15035 6704 M 0 101 R D 15108 6704 M 0 101 R D 15181 6704 M 0 101 R D
15254 6704 M 0 101 R D 15328 6704 M 0 101 R D 15401 6704 M 0 101 R D
15474 6704 M 0 101 R D 15621 6704 M 0 101 R D 15694 6704 M 0 101 R D
15767 6704 M 0 101 R D 15840 6704 M 0 101 R D 15913 6704 M 0 101 R D
15987 6704 M 0 101 R D 16060 6704 M 0 101 R D 16133 6704 M 0 101 R D
16206 6704 M 0 101 R D 16353 6704 M 0 101 R D 16426 6704 M 0 101 R D
16499 6704 M 0 101 R D 16572 6704 M 0 101 R D 16646 6704 M 0 101 R D
16719 6704 M 0 101 R D 16792 6704 M 0 101 R D 16865 6704 M 0 101 R D
16939 6704 M 0 101 R D 17085 6704 M 0 101 R D 17158 6704 M 0 101 R D
17231 6704 M 0 101 R D 17305 6704 M 0 101 R D 12296 11742 M 5038 0 R D
12618 11742 M 0 -201 R D 13351 11742 M 0 -201 R D 14083 11742 M 0 -201 R D
14815 11742 M 0 -201 R D 15547 11742 M 0 -201 R D 16280 11742 M 0 -201 R D
17012 11742 M 0 -201 R D 12326 11742 M 0 -101 R D 12399 11742 M 0 -101 R D
12472 11742 M 0 -101 R D 12545 11742 M 0 -101 R D 12692 11742 M 0 -101 R D
12765 11742 M 0 -101 R D 12838 11742 M 0 -101 R D 12911 11742 M 0 -101 R D
12985 11742 M 0 -101 R D 13058 11742 M 0 -101 R D 13131 11742 M 0 -101 R D
13204 11742 M 0 -101 R D 13277 11742 M 0 -101 R D 13424 11742 M 0 -101 R D
13497 11742 M 0 -101 R D 13570 11742 M 0 -101 R D 13644 11742 M 0 -101 R D
13717 11742 M 0 -101 R D 13790 11742 M 0 -101 R D 13863 11742 M 0 -101 R D
13936 11742 M 0 -101 R D 14010 11742 M 0 -101 R D 14156 11742 M 0 -101 R D
14229 11742 M 0 -101 R D 14303 11742 M 0 -101 R D 14376 11742 M 0 -101 R D
14449 11742 M 0 -101 R D 14522 11742 M 0 -101 R D 14595 11742 M 0 -101 R D
14669 11742 M 0 -101 R D 14742 11742 M 0 -101 R D 14888 11742 M 0 -101 R D
14962 11742 M 0 -101 R D 15035 11742 M 0 -101 R D 15108 11742 M 0 -101 R D
15181 11742 M 0 -101 R D 15254 11742 M 0 -101 R D 15328 11742 M 0 -101 R D
15401 11742 M 0 -101 R D 15474 11742 M 0 -101 R D 15621 11742 M 0 -101 R D
15694 11742 M 0 -101 R D 15767 11742 M 0 -101 R D 15840 11742 M 0 -101 R D
15913 11742 M 0 -101 R D 15987 11742 M 0 -101 R D 16060 11742 M 0 -101 R D
16133 11742 M 0 -101 R D 16206 11742 M 0 -101 R D 16353 11742 M 0 -101 R D
16426 11742 M 0 -101 R D 16499 11742 M 0 -101 R D 16572 11742 M 0 -101 R D
16646 11742 M 0 -101 R D 16719 11742 M 0 -101 R D 16792 11742 M 0 -101 R D
16865 11742 M 0 -101 R D 16939 11742 M 0 -101 R D 17085 11742 M 0 -101 R D
17158 11742 M 0 -101 R D 17231 11742 M 0 -101 R D 17305 11742 M 0 -101 R D
12296 6704 M 0 5038 R D 12296 7026 M 202 0 R D
gsave 12185 6886 translate 0 0 M -117.687 0 N
( ) show grestore 12296 7759 M 202 0 R D gsave 12185 7618 translate 0 0 M
-117.687 0 N
( ) show grestore 12296 8491 M 202 0 R D gsave 12185 8350 translate 0 0 M
-117.687 0 N
( ) show grestore 12296 9223 M 202 0 R D gsave 12185 9082 translate 0 0 M
-117.687 0 N
( ) show grestore 12296 9955 M 202 0 R D gsave 12185 9815 translate 0 0 M
-117.687 0 N
( ) show grestore 12296 10688 M 202 0 R D gsave 12185 10547 translate 0 0 M
-117.687 0 N
( ) show grestore 12296 11420 M 202 0 R D gsave 12185 11279 translate 0 0 M
-117.687 0 N
( ) show grestore 12296 6734 M 101 0 R D 12296 6807 M 101 0 R D 12296 6880 M
101 0 R D 12296 6953 M 101 0 R D 12296 7100 M 101 0 R D 12296 7173 M 101 0 R
D 12296 7246 M 101 0 R D 12296 7319 M 101 0 R D 12296 7393 M 101 0 R D
12296 7466 M 101 0 R D 12296 7539 M 101 0 R D 12296 7612 M 101 0 R D
12296 7685 M 101 0 R D 12296 7832 M 101 0 R D 12296 7905 M 101 0 R D
12296 7978 M 101 0 R D 12296 8052 M 101 0 R D 12296 8125 M 101 0 R D
12296 8198 M 101 0 R D 12296 8271 M 101 0 R D 12296 8344 M 101 0 R D
12296 8418 M 101 0 R D 12296 8564 M 101 0 R D 12296 8637 M 101 0 R D
12296 8711 M 101 0 R D 12296 8784 M 101 0 R D 12296 8857 M 101 0 R D
12296 8930 M 101 0 R D 12296 9003 M 101 0 R D 12296 9077 M 101 0 R D
12296 9150 M 101 0 R D 12296 9296 M 101 0 R D 12296 9370 M 101 0 R D
12296 9443 M 101 0 R D 12296 9516 M 101 0 R D 12296 9589 M 101 0 R D
12296 9662 M 101 0 R D 12296 9736 M 101 0 R D 12296 9809 M 101 0 R D
12296 9882 M 101 0 R D 12296 10029 M 101 0 R D 12296 10102 M 101 0 R D
12296 10175 M 101 0 R D 12296 10248 M 101 0 R D 12296 10321 M 101 0 R D
12296 10395 M 101 0 R D 12296 10468 M 101 0 R D 12296 10541 M 101 0 R D
12296 10614 M 101 0 R D 12296 10761 M 101 0 R D 12296 10834 M 101 0 R D
12296 10907 M 101 0 R D 12296 10980 M 101 0 R D 12296 11054 M 101 0 R D
12296 11127 M 101 0 R D 12296 11200 M 101 0 R D 12296 11273 M 101 0 R D
12296 11347 M 101 0 R D 12296 11493 M 101 0 R D 12296 11566 M 101 0 R D
12296 11639 M 101 0 R D 12296 11713 M 101 0 R D 17334 6704 M 0 5038 R D
17334 7026 M -201 0 R D 17334 7759 M -201 0 R D 17334 8491 M -201 0 R D
17334 9223 M -201 0 R D 17334 9955 M -201 0 R D 17334 10688 M -201 0 R D
17334 11420 M -201 0 R D 17334 6734 M -101 0 R D 17334 6807 M -101 0 R D
17334 6880 M -101 0 R D 17334 6953 M -101 0 R D 17334 7100 M -101 0 R D
17334 7173 M -101 0 R D 17334 7246 M -101 0 R D 17334 7319 M -101 0 R D
17334 7393 M -101 0 R D 17334 7466 M -101 0 R D 17334 7539 M -101 0 R D
17334 7612 M -101 0 R D 17334 7685 M -101 0 R D 17334 7832 M -101 0 R D
17334 7905 M -101 0 R D 17334 7978 M -101 0 R D 17334 8052 M -101 0 R D
17334 8125 M -101 0 R D 17334 8198 M -101 0 R D 17334 8271 M -101 0 R D
17334 8344 M -101 0 R D 17334 8418 M -101 0 R D 17334 8564 M -101 0 R D
17334 8637 M -101 0 R D 17334 8711 M -101 0 R D 17334 8784 M -101 0 R D
17334 8857 M -101 0 R D 17334 8930 M -101 0 R D 17334 9003 M -101 0 R D
17334 9077 M -101 0 R D 17334 9150 M -101 0 R D 17334 9296 M -101 0 R D
17334 9370 M -101 0 R D 17334 9443 M -101 0 R D 17334 9516 M -101 0 R D
17334 9589 M -101 0 R D 17334 9662 M -101 0 R D 17334 9736 M -101 0 R D
17334 9809 M -101 0 R D 17334 9882 M -101 0 R D 17334 10029 M -101 0 R D
17334 10102 M -101 0 R D 17334 10175 M -101 0 R D 17334 10248 M -101 0 R D
17334 10321 M -101 0 R D 17334 10395 M -101 0 R D 17334 10468 M -101 0 R D
17334 10541 M -101 0 R D 17334 10614 M -101 0 R D 17334 10761 M -101 0 R D
17334 10834 M -101 0 R D 17334 10907 M -101 0 R D 17334 10980 M -101 0 R D
17334 11054 M -101 0 R D 17334 11127 M -101 0 R D 17334 11200 M -101 0 R D
17334 11273 M -101 0 R D 17334 11347 M -101 0 R D 17334 11493 M -101 0 R D
17334 11566 M -101 0 R D 17334 11639 M -101 0 R D 17334 11713 M -101 0 R D
16284 9223 M -83 77 R -192 151 R -235 143 R -284 123 R -339 80 R -381 0 R
-308 -76 R -261 -125 R -242 -173 R -215 -210 R -165 -211 R -124 -204 R
-91 -194 R -65 -183 R -44 -171 R -26 -161 R -11 -149 R 2 -139 R 14 -129 R
24 -119 R 34 -109 R 42 -99 R 49 -89 R 57 -80 R 63 -70 R 69 -60 R 74 -51 R
80 -41 R 84 -30 R 89 -21 R 94 -10 R 97 2 R 100 12 R 104 24 R 107 37 R
109 50 R 111 64 R 112 80 R 113 96 R 113 114 R 111 135 R 108 158 R 101 185 R
90 217 R 73 252 R 44 292 R -2 334 R -80 362 R -152 305 R -200 243 R
-223 186 R -269 159 R -257 106 R -238 66 R -219 35 R -200 13 R -182 -6 R
-166 -21 R -150 -32 R -136 -43 R -123 -50 R -110 -57 R -97 -64 R -85 -69 R
-74 -73 R -62 -77 R -51 -80 R -39 -84 R -29 -86 R -18 -87 R -7 -90 R 5 -91 R
15 -91 R 27 -92 R 39 -92 R 51 -92 R 64 -90 R 76 -89 R 91 -87 R 105 -84 R
121 -79 R 137 -74 R 156 -67 R 176 -58 R 199 -45 R 225 -26 R 253 -2 R
282 33 R 309 83 R 323 158 R 296 249 R 200 284 R 116 267 R 76 306 R 28 281 R
-7 252 R -30 223 R -48 197 R -60 175 R -69 155 R -76 135 R -82 120 R
-85 103 R -88 89 R -90 75 R -91 62 R -93 49 R -92 38 R -92 25 R -92 14 R
-91 3 R -89 -8 R -87 -20 R -86 -30 R -82 -41 R -80 -52 R -76 -64 R -72 -74 R
-68 -87 R -62 -98 R -56 -111 R -48 -123 R -40 -137 R -31 -151 R -18 -167 R
-3 -182 R 15 -200 R 39 -219 R 70 -237 R 110 -256 R 164 -268 R 235 -263 R
316 -218 R 288 -109 R 276 -46 R 300 1 R 294 46 R 254 75 R 217 92 R 186 103 R
159 109 R 134 113 R 115 114 R 95 114 R 79 114 R 64 112 R 50 110 R 36 107 R
24 104 R 12 101 R 1 98 R -10 93 R -21 89 R -31 85 R -41 79 R -50 74 R
-61 69 R -70 63 R -79 56 R -89 49 R -99 41 R -108 33 R -118 23 R -128 13 R
-138 2 R -148 -11 R -159 -27 R -170 -44 R -181 -65 R -191 -91 R -201 -123 R
-208 -162 R -208 -212 R -194 -274 R -147 -342 R -54 -334 R 20 -311 R
72 -282 R D 0.208 0.208 0.208 setrgbcolor 14808 9223 M 0 2 R 0 1 R 1 1 R
0 1 R 1 0 R 0 1 R 1 0 R 1 1 R 1 0 R 1 0 R 1 0 R 1 0 R 1 0 R 1 0 R 1 0 R
0 -1 R 1 0 R 0 -1 R 1 0 R 0 -1 R 1 0 R 0 -1 R 0 -1 R 0 -2 R D 14808 9223 M
0 -1 R 0 -1 R 0 -1 R 1 0 R 0 -1 R 1 -1 R 0 -1 R 1 0 R 1 0 R 0 -1 R 1 0 R
1 0 R 1 0 R 1 0 R 1 0 R 1 0 R 0 1 R 1 0 R 1 0 R 0 1 R 1 0 R 0 1 R 1 1 R
0 1 R 0 1 R 0 1 R D 0.000 0.000 0.000 setrgbcolor 14815 9223 M Z
gsave 15319 7460 translate 0 0 M
(35.0Gyr) show grestore gsave 15319 7108 translate 0 0 M
(2.0e11M) show X -101.051 M
%%IncludeResource: font Helvetica
262.467 /Helvetica STDFONT
(sun) show grestore
%%IncludeResource: font Helvetica
423.333 /Helvetica STDFONT 2220 1408 M 5038 0 R D 2542 1408 M 0 202 R D
gsave 2542 880 translate 0 0 M -423.545 0 N
(-300) show grestore 3275 1408 M 0 202 R D gsave 3275 880 translate 0 0 M
-423.545 0 N
(-200) show grestore 4007 1408 M 0 202 R D gsave 4007 880 translate 0 0 M
-423.545 0 N
(-100) show grestore 4739 1408 M 0 202 R D gsave 4739 880 translate 0 0 M
-117.687 0 N
(0) show grestore 5471 1408 M 0 202 R D gsave 5471 880 translate 0 0 M
-353.06 0 N
(100) show grestore 6204 1408 M 0 202 R D gsave 6204 880 translate 0 0 M
-353.06 0 N
(200) show grestore 6936 1408 M 0 202 R D gsave 6936 880 translate 0 0 M
-353.06 0 N
(300) show grestore 2250 1408 M 0 101 R D 2323 1408 M 0 101 R D 2396 1408 M
0 101 R D 2469 1408 M 0 101 R D 2616 1408 M 0 101 R D 2689 1408 M 0 101 R D
2762 1408 M 0 101 R D 2835 1408 M 0 101 R D 2909 1408 M 0 101 R D
2982 1408 M 0 101 R D 3055 1408 M 0 101 R D 3128 1408 M 0 101 R D
3201 1408 M 0 101 R D 3348 1408 M 0 101 R D 3421 1408 M 0 101 R D
3494 1408 M 0 101 R D 3568 1408 M 0 101 R D 3641 1408 M 0 101 R D
3714 1408 M 0 101 R D 3787 1408 M 0 101 R D 3860 1408 M 0 101 R D
3934 1408 M 0 101 R D 4080 1408 M 0 101 R D 4153 1408 M 0 101 R D
4227 1408 M 0 101 R D 4300 1408 M 0 101 R D 4373 1408 M 0 101 R D
4446 1408 M 0 101 R D 4519 1408 M 0 101 R D 4593 1408 M 0 101 R D
4666 1408 M 0 101 R D 4812 1408 M 0 101 R D 4886 1408 M 0 101 R D
4959 1408 M 0 101 R D 5032 1408 M 0 101 R D 5105 1408 M 0 101 R D
5178 1408 M 0 101 R D 5252 1408 M 0 101 R D 5325 1408 M 0 101 R D
5398 1408 M 0 101 R D 5545 1408 M 0 101 R D 5618 1408 M 0 101 R D
5691 1408 M 0 101 R D 5764 1408 M 0 101 R D 5837 1408 M 0 101 R D
5911 1408 M 0 101 R D 5984 1408 M 0 101 R D 6057 1408 M 0 101 R D
6130 1408 M 0 101 R D 6277 1408 M 0 101 R D 6350 1408 M 0 101 R D
6423 1408 M 0 101 R D 6496 1408 M 0 101 R D 6570 1408 M 0 101 R D
6643 1408 M 0 101 R D 6716 1408 M 0 101 R D 6789 1408 M 0 101 R D
6863 1408 M 0 101 R D 7009 1408 M 0 101 R D 7082 1408 M 0 101 R D
7155 1408 M 0 101 R D 7229 1408 M 0 101 R D 2220 6446 M 5038 0 R D
2542 6446 M 0 -201 R D 3275 6446 M 0 -201 R D 4007 6446 M 0 -201 R D
4739 6446 M 0 -201 R D 5471 6446 M 0 -201 R D 6204 6446 M 0 -201 R D
6936 6446 M 0 -201 R D 2250 6446 M 0 -101 R D 2323 6446 M 0 -101 R D
2396 6446 M 0 -101 R D 2469 6446 M 0 -101 R D 2616 6446 M 0 -101 R D
2689 6446 M 0 -101 R D 2762 6446 M 0 -101 R D 2835 6446 M 0 -101 R D
2909 6446 M 0 -101 R D 2982 6446 M 0 -101 R D 3055 6446 M 0 -101 R D
3128 6446 M 0 -101 R D 3201 6446 M 0 -101 R D 3348 6446 M 0 -101 R D
3421 6446 M 0 -101 R D 3494 6446 M 0 -101 R D 3568 6446 M 0 -101 R D
3641 6446 M 0 -101 R D 3714 6446 M 0 -101 R D 3787 6446 M 0 -101 R D
3860 6446 M 0 -101 R D 3934 6446 M 0 -101 R D 4080 6446 M 0 -101 R D
4153 6446 M 0 -101 R D 4227 6446 M 0 -101 R D 4300 6446 M 0 -101 R D
4373 6446 M 0 -101 R D 4446 6446 M 0 -101 R D 4519 6446 M 0 -101 R D
4593 6446 M 0 -101 R D 4666 6446 M 0 -101 R D 4812 6446 M 0 -101 R D
4886 6446 M 0 -101 R D 4959 6446 M 0 -101 R D 5032 6446 M 0 -101 R D
5105 6446 M 0 -101 R D 5178 6446 M 0 -101 R D 5252 6446 M 0 -101 R D
5325 6446 M 0 -101 R D 5398 6446 M 0 -101 R D 5545 6446 M 0 -101 R D
5618 6446 M 0 -101 R D 5691 6446 M 0 -101 R D 5764 6446 M 0 -101 R D
5837 6446 M 0 -101 R D 5911 6446 M 0 -101 R D 5984 6446 M 0 -101 R D
6057 6446 M 0 -101 R D 6130 6446 M 0 -101 R D 6277 6446 M 0 -101 R D
6350 6446 M 0 -101 R D 6423 6446 M 0 -101 R D 6496 6446 M 0 -101 R D
6570 6446 M 0 -101 R D 6643 6446 M 0 -101 R D 6716 6446 M 0 -101 R D
6789 6446 M 0 -101 R D 6863 6446 M 0 -101 R D 7009 6446 M 0 -101 R D
7082 6446 M 0 -101 R D 7155 6446 M 0 -101 R D 7229 6446 M 0 -101 R D
2220 1408 M 0 5038 R D 2220 1730 M 202 0 R D gsave 2109 1590 translate 0 0 M
-847.09 0 N
(-300) show grestore 2220 2463 M 202 0 R D gsave 2109 2322 translate 0 0 M
-847.09 0 N
(-200) show grestore 2220 3195 M 202 0 R D gsave 2109 3054 translate 0 0 M
-847.09 0 N
(-100) show grestore 2220 3927 M 202 0 R D gsave 2109 3786 translate 0 0 M
-235.373 0 N
(0) show grestore 2220 4659 M 202 0 R D gsave 2109 4519 translate 0 0 M
-706.12 0 N
(100) show grestore 2220 5392 M 202 0 R D gsave 2109 5251 translate 0 0 M
-706.12 0 N
(200) show grestore 2220 6124 M 202 0 R D gsave 2109 5983 translate 0 0 M
-706.12 0 N
(300) show grestore 2220 1438 M 101 0 R D 2220 1511 M 101 0 R D 2220 1584 M
101 0 R D 2220 1657 M 101 0 R D 2220 1804 M 101 0 R D 2220 1877 M 101 0 R D
2220 1950 M 101 0 R D 2220 2023 M 101 0 R D 2220 2097 M 101 0 R D
2220 2170 M 101 0 R D 2220 2243 M 101 0 R D 2220 2316 M 101 0 R D
2220 2389 M 101 0 R D 2220 2536 M 101 0 R D 2220 2609 M 101 0 R D
2220 2682 M 101 0 R D 2220 2756 M 101 0 R D 2220 2829 M 101 0 R D
2220 2902 M 101 0 R D 2220 2975 M 101 0 R D 2220 3048 M 101 0 R D
2220 3122 M 101 0 R D 2220 3268 M 101 0 R D 2220 3341 M 101 0 R D
2220 3415 M 101 0 R D 2220 3488 M 101 0 R D 2220 3561 M 101 0 R D
2220 3634 M 101 0 R D 2220 3707 M 101 0 R D 2220 3781 M 101 0 R D
2220 3854 M 101 0 R D 2220 4000 M 101 0 R D 2220 4074 M 101 0 R D
2220 4147 M 101 0 R D 2220 4220 M 101 0 R D 2220 4293 M 101 0 R D
2220 4366 M 101 0 R D 2220 4440 M 101 0 R D 2220 4513 M 101 0 R D
2220 4586 M 101 0 R D 2220 4733 M 101 0 R D 2220 4806 M 101 0 R D
2220 4879 M 101 0 R D 2220 4952 M 101 0 R D 2220 5025 M 101 0 R D
2220 5099 M 101 0 R D 2220 5172 M 101 0 R D 2220 5245 M 101 0 R D
2220 5318 M 101 0 R D 2220 5465 M 101 0 R D 2220 5538 M 101 0 R D
2220 5611 M 101 0 R D 2220 5684 M 101 0 R D 2220 5758 M 101 0 R D
2220 5831 M 101 0 R D 2220 5904 M 101 0 R D 2220 5977 M 101 0 R D
2220 6051 M 101 0 R D 2220 6197 M 101 0 R D 2220 6270 M 101 0 R D
2220 6343 M 101 0 R D 2220 6417 M 101 0 R D 7258 1408 M 0 5038 R D
7258 1730 M -201 0 R D 7258 2463 M -201 0 R D 7258 3195 M -201 0 R D
7258 3927 M -201 0 R D 7258 4659 M -201 0 R D 7258 5392 M -201 0 R D
7258 6124 M -201 0 R D 7258 1438 M -101 0 R D 7258 1511 M -101 0 R D
7258 1584 M -101 0 R D 7258 1657 M -101 0 R D 7258 1804 M -101 0 R D
7258 1877 M -101 0 R D 7258 1950 M -101 0 R D 7258 2023 M -101 0 R D
7258 2097 M -101 0 R D 7258 2170 M -101 0 R D 7258 2243 M -101 0 R D
7258 2316 M -101 0 R D 7258 2389 M -101 0 R D 7258 2536 M -101 0 R D
7258 2609 M -101 0 R D 7258 2682 M -101 0 R D 7258 2756 M -101 0 R D
7258 2829 M -101 0 R D 7258 2902 M -101 0 R D 7258 2975 M -101 0 R D
7258 3048 M -101 0 R D 7258 3122 M -101 0 R D 7258 3268 M -101 0 R D
7258 3341 M -101 0 R D 7258 3415 M -101 0 R D 7258 3488 M -101 0 R D
7258 3561 M -101 0 R D 7258 3634 M -101 0 R D 7258 3707 M -101 0 R D
7258 3781 M -101 0 R D 7258 3854 M -101 0 R D 7258 4000 M -101 0 R D
7258 4074 M -101 0 R D 7258 4147 M -101 0 R D 7258 4220 M -101 0 R D
7258 4293 M -101 0 R D 7258 4366 M -101 0 R D 7258 4440 M -101 0 R D
7258 4513 M -101 0 R D 7258 4586 M -101 0 R D 7258 4733 M -101 0 R D
7258 4806 M -101 0 R D 7258 4879 M -101 0 R D 7258 4952 M -101 0 R D
7258 5025 M -101 0 R D 7258 5099 M -101 0 R D 7258 5172 M -101 0 R D
7258 5245 M -101 0 R D 7258 5318 M -101 0 R D 7258 5465 M -101 0 R D
7258 5538 M -101 0 R D 7258 5611 M -101 0 R D 7258 5684 M -101 0 R D
7258 5758 M -101 0 R D 7258 5831 M -101 0 R D 7258 5904 M -101 0 R D
7258 5977 M -101 0 R D 7258 6051 M -101 0 R D 7258 6197 M -101 0 R D
7258 6270 M -101 0 R D 7258 6343 M -101 0 R D 7258 6417 M -101 0 R D
6208 3927 M -83 77 R -192 151 R -235 143 R -284 123 R -339 80 R -381 0 R
-308 -76 R -261 -125 R -242 -173 R -215 -210 R -165 -211 R -124 -204 R
-91 -194 R -65 -183 R -44 -171 R -26 -161 R -11 -149 R 2 -139 R 14 -129 R
24 -119 R 34 -109 R 42 -99 R 49 -89 R 57 -80 R 63 -70 R 69 -60 R 74 -51 R
80 -41 R 84 -30 R 89 -21 R 94 -10 R 97 2 R 100 12 R 104 24 R 107 37 R
109 50 R 111 64 R 112 80 R 113 96 R 113 114 R 111 135 R 108 158 R 101 185 R
90 217 R 73 252 R 44 292 R -2 334 R -80 362 R -152 305 R -200 243 R
-223 186 R -269 159 R -257 106 R -238 66 R -219 35 R -200 13 R -182 -6 R
-166 -21 R -150 -32 R -136 -43 R -123 -50 R -110 -57 R -97 -64 R -85 -69 R
-74 -73 R -62 -77 R -51 -80 R -39 -84 R -29 -86 R -18 -87 R -7 -90 R 5 -91 R
15 -91 R 27 -92 R 39 -92 R 51 -92 R 64 -90 R 76 -89 R 91 -87 R 105 -84 R
121 -79 R 137 -74 R 156 -67 R 176 -58 R 199 -45 R 225 -26 R 253 -2 R
282 33 R 309 83 R 323 158 R 296 249 R 200 284 R 116 267 R 76 306 R 28 281 R
-7 252 R -30 223 R -48 197 R -60 175 R -69 155 R -76 135 R -82 120 R
-85 103 R -88 89 R -90 75 R -91 62 R -93 49 R -92 38 R -92 25 R -92 14 R
-91 3 R -89 -8 R -87 -20 R -86 -30 R -82 -41 R -80 -52 R -76 -64 R -72 -74 R
-68 -87 R -62 -98 R -56 -111 R -48 -123 R -40 -137 R -31 -151 R -18 -167 R
-3 -182 R 15 -200 R 39 -219 R 70 -237 R 110 -256 R 164 -268 R 235 -263 R
316 -218 R 288 -109 R 276 -46 R 300 1 R 294 46 R 254 75 R 217 92 R 186 103 R
159 109 R 134 113 R 115 114 R 95 114 R 79 114 R 64 112 R 50 110 R 36 107 R
24 104 R 12 101 R 1 98 R -10 93 R -21 89 R -31 85 R -41 79 R -50 74 R
-61 69 R -70 63 R -79 56 R -89 49 R -99 41 R -108 33 R -118 23 R -128 13 R
-138 2 R -148 -11 R -159 -27 R -170 -44 R -181 -65 R -191 -91 R -201 -123 R
-208 -162 R -208 -212 R -194 -274 R -147 -342 R -54 -334 R 20 -311 R
72 -282 R D 0.208 0.208 0.208 setrgbcolor 4732 3927 M 0 2 R 0 1 R 1 1 R
0 1 R 1 0 R 0 1 R 1 0 R 1 1 R 1 0 R 1 0 R 1 0 R 1 0 R 1 0 R 1 0 R 1 0 R
0 -1 R 1 0 R 0 -1 R 1 0 R 0 -1 R 1 0 R 0 -1 R 0 -1 R 0 -2 R D 4732 3927 M
0 -1 R 0 -1 R 0 -1 R 1 0 R 0 -1 R 1 -1 R 0 -1 R 1 0 R 1 0 R 0 -1 R 1 0 R
1 0 R 1 0 R 1 0 R 1 0 R 1 0 R 0 1 R 1 0 R 1 0 R 0 1 R 1 0 R 0 1 R 1 1 R
0 1 R 0 1 R 0 1 R D 0.000 0.000 0.000 setrgbcolor 4739 3927 M Z
gsave 5243 2164 translate 0 0 M
(35.0Gyr) show grestore gsave 5243 1812 translate 0 0 M
(2.5e11M) show X -101.051 M
%%IncludeResource: font Helvetica
262.467 /Helvetica STDFONT
(sun) show grestore
%%IncludeResource: font Helvetica
423.333 /Helvetica STDFONT 7258 1408 M 5038 0 R D 7580 1408 M 0 202 R D
gsave 7580 880 translate 0 0 M -423.545 0 N
(-300) show grestore 8313 1408 M 0 202 R D gsave 8313 880 translate 0 0 M
-423.545 0 N
(-200) show grestore 9045 1408 M 0 202 R D gsave 9045 880 translate 0 0 M
-423.545 0 N
(-100) show grestore 9777 1408 M 0 202 R D gsave 9777 880 translate 0 0 M
-117.687 0 N
(0) show grestore 10509 1408 M 0 202 R D gsave 10509 880 translate 0 0 M
-353.06 0 N
(100) show grestore 11242 1408 M 0 202 R D gsave 11242 880 translate 0 0 M
-353.06 0 N
(200) show grestore 11974 1408 M 0 202 R D gsave 11974 880 translate 0 0 M
-353.06 0 N
(300) show grestore 7288 1408 M 0 101 R D 7361 1408 M 0 101 R D 7434 1408 M
0 101 R D 7507 1408 M 0 101 R D 7654 1408 M 0 101 R D 7727 1408 M 0 101 R D
7800 1408 M 0 101 R D 7873 1408 M 0 101 R D 7947 1408 M 0 101 R D
8020 1408 M 0 101 R D 8093 1408 M 0 101 R D 8166 1408 M 0 101 R D
8239 1408 M 0 101 R D 8386 1408 M 0 101 R D 8459 1408 M 0 101 R D
8532 1408 M 0 101 R D 8606 1408 M 0 101 R D 8679 1408 M 0 101 R D
8752 1408 M 0 101 R D 8825 1408 M 0 101 R D 8898 1408 M 0 101 R D
8972 1408 M 0 101 R D 9118 1408 M 0 101 R D 9191 1408 M 0 101 R D
9265 1408 M 0 101 R D 9338 1408 M 0 101 R D 9411 1408 M 0 101 R D
9484 1408 M 0 101 R D 9557 1408 M 0 101 R D 9631 1408 M 0 101 R D
9704 1408 M 0 101 R D 9850 1408 M 0 101 R D 9924 1408 M 0 101 R D
9997 1408 M 0 101 R D 10070 1408 M 0 101 R D 10143 1408 M 0 101 R D
10216 1408 M 0 101 R D 10290 1408 M 0 101 R D 10363 1408 M 0 101 R D
10436 1408 M 0 101 R D 10583 1408 M 0 101 R D 10656 1408 M 0 101 R D
10729 1408 M 0 101 R D 10802 1408 M 0 101 R D 10875 1408 M 0 101 R D
10949 1408 M 0 101 R D 11022 1408 M 0 101 R D 11095 1408 M 0 101 R D
11168 1408 M 0 101 R D 11315 1408 M 0 101 R D 11388 1408 M 0 101 R D
11461 1408 M 0 101 R D 11534 1408 M 0 101 R D 11608 1408 M 0 101 R D
11681 1408 M 0 101 R D 11754 1408 M 0 101 R D 11827 1408 M 0 101 R D
11901 1408 M 0 101 R D 12047 1408 M 0 101 R D 12120 1408 M 0 101 R D
12193 1408 M 0 101 R D 12267 1408 M 0 101 R D 7258 6446 M 5038 0 R D
7580 6446 M 0 -201 R D 8313 6446 M 0 -201 R D 9045 6446 M 0 -201 R D
9777 6446 M 0 -201 R D 10509 6446 M 0 -201 R D 11242 6446 M 0 -201 R D
11974 6446 M 0 -201 R D 7288 6446 M 0 -101 R D 7361 6446 M 0 -101 R D
7434 6446 M 0 -101 R D 7507 6446 M 0 -101 R D 7654 6446 M 0 -101 R D
7727 6446 M 0 -101 R D 7800 6446 M 0 -101 R D 7873 6446 M 0 -101 R D
7947 6446 M 0 -101 R D 8020 6446 M 0 -101 R D 8093 6446 M 0 -101 R D
8166 6446 M 0 -101 R D 8239 6446 M 0 -101 R D 8386 6446 M 0 -101 R D
8459 6446 M 0 -101 R D 8532 6446 M 0 -101 R D 8606 6446 M 0 -101 R D
8679 6446 M 0 -101 R D 8752 6446 M 0 -101 R D 8825 6446 M 0 -101 R D
8898 6446 M 0 -101 R D 8972 6446 M 0 -101 R D 9118 6446 M 0 -101 R D
9191 6446 M 0 -101 R D 9265 6446 M 0 -101 R D 9338 6446 M 0 -101 R D
9411 6446 M 0 -101 R D 9484 6446 M 0 -101 R D 9557 6446 M 0 -101 R D
9631 6446 M 0 -101 R D 9704 6446 M 0 -101 R D 9850 6446 M 0 -101 R D
9924 6446 M 0 -101 R D 9997 6446 M 0 -101 R D 10070 6446 M 0 -101 R D
10143 6446 M 0 -101 R D 10216 6446 M 0 -101 R D 10290 6446 M 0 -101 R D
10363 6446 M 0 -101 R D 10436 6446 M 0 -101 R D 10583 6446 M 0 -101 R D
10656 6446 M 0 -101 R D 10729 6446 M 0 -101 R D 10802 6446 M 0 -101 R D
10875 6446 M 0 -101 R D 10949 6446 M 0 -101 R D 11022 6446 M 0 -101 R D
11095 6446 M 0 -101 R D 11168 6446 M 0 -101 R D 11315 6446 M 0 -101 R D
11388 6446 M 0 -101 R D 11461 6446 M 0 -101 R D 11534 6446 M 0 -101 R D
11608 6446 M 0 -101 R D 11681 6446 M 0 -101 R D 11754 6446 M 0 -101 R D
11827 6446 M 0 -101 R D 11901 6446 M 0 -101 R D 12047 6446 M 0 -101 R D
12120 6446 M 0 -101 R D 12193 6446 M 0 -101 R D 12267 6446 M 0 -101 R D
7258 1408 M 0 5038 R D 7258 1730 M 202 0 R D gsave 7147 1590 translate 0 0 M
-117.687 0 N
( ) show grestore 7258 2463 M 202 0 R D gsave 7147 2322 translate 0 0 M
-117.687 0 N
( ) show grestore 7258 3195 M 202 0 R D gsave 7147 3054 translate 0 0 M
-117.687 0 N
( ) show grestore 7258 3927 M 202 0 R D gsave 7147 3786 translate 0 0 M
-117.687 0 N
( ) show grestore 7258 4659 M 202 0 R D gsave 7147 4519 translate 0 0 M
-117.687 0 N
( ) show grestore 7258 5392 M 202 0 R D gsave 7147 5251 translate 0 0 M
-117.687 0 N
( ) show grestore 7258 6124 M 202 0 R D gsave 7147 5983 translate 0 0 M
-117.687 0 N
( ) show grestore 7258 1438 M 101 0 R D 7258 1511 M 101 0 R D 7258 1584 M
101 0 R D 7258 1657 M 101 0 R D 7258 1804 M 101 0 R D 7258 1877 M 101 0 R D
7258 1950 M 101 0 R D 7258 2023 M 101 0 R D 7258 2097 M 101 0 R D
7258 2170 M 101 0 R D 7258 2243 M 101 0 R D 7258 2316 M 101 0 R D
7258 2389 M 101 0 R D 7258 2536 M 101 0 R D 7258 2609 M 101 0 R D
7258 2682 M 101 0 R D 7258 2756 M 101 0 R D 7258 2829 M 101 0 R D
7258 2902 M 101 0 R D 7258 2975 M 101 0 R D 7258 3048 M 101 0 R D
7258 3122 M 101 0 R D 7258 3268 M 101 0 R D 7258 3341 M 101 0 R D
7258 3415 M 101 0 R D 7258 3488 M 101 0 R D 7258 3561 M 101 0 R D
7258 3634 M 101 0 R D 7258 3707 M 101 0 R D 7258 3781 M 101 0 R D
7258 3854 M 101 0 R D 7258 4000 M 101 0 R D 7258 4074 M 101 0 R D
7258 4147 M 101 0 R D 7258 4220 M 101 0 R D 7258 4293 M 101 0 R D
7258 4366 M 101 0 R D 7258 4440 M 101 0 R D 7258 4513 M 101 0 R D
7258 4586 M 101 0 R D 7258 4733 M 101 0 R D 7258 4806 M 101 0 R D
7258 4879 M 101 0 R D 7258 4952 M 101 0 R D 7258 5025 M 101 0 R D
7258 5099 M 101 0 R D 7258 5172 M 101 0 R D 7258 5245 M 101 0 R D
7258 5318 M 101 0 R D 7258 5465 M 101 0 R D 7258 5538 M 101 0 R D
7258 5611 M 101 0 R D 7258 5684 M 101 0 R D 7258 5758 M 101 0 R D
7258 5831 M 101 0 R D 7258 5904 M 101 0 R D 7258 5977 M 101 0 R D
7258 6051 M 101 0 R D 7258 6197 M 101 0 R D 7258 6270 M 101 0 R D
7258 6343 M 101 0 R D 7258 6417 M 101 0 R D 12296 1408 M 0 5038 R D
12296 1730 M -201 0 R D 12296 2463 M -201 0 R D 12296 3195 M -201 0 R D
12296 3927 M -201 0 R D 12296 4659 M -201 0 R D 12296 5392 M -201 0 R D
12296 6124 M -201 0 R D 12296 1438 M -101 0 R D 12296 1511 M -101 0 R D
12296 1584 M -101 0 R D 12296 1657 M -101 0 R D 12296 1804 M -101 0 R D
12296 1877 M -101 0 R D 12296 1950 M -101 0 R D 12296 2023 M -101 0 R D
12296 2097 M -101 0 R D 12296 2170 M -101 0 R D 12296 2243 M -101 0 R D
12296 2316 M -101 0 R D 12296 2389 M -101 0 R D 12296 2536 M -101 0 R D
12296 2609 M -101 0 R D 12296 2682 M -101 0 R D 12296 2756 M -101 0 R D
12296 2829 M -101 0 R D 12296 2902 M -101 0 R D 12296 2975 M -101 0 R D
12296 3048 M -101 0 R D 12296 3122 M -101 0 R D 12296 3268 M -101 0 R D
12296 3341 M -101 0 R D 12296 3415 M -101 0 R D 12296 3488 M -101 0 R D
12296 3561 M -101 0 R D 12296 3634 M -101 0 R D 12296 3707 M -101 0 R D
12296 3781 M -101 0 R D 12296 3854 M -101 0 R D 12296 4000 M -101 0 R D
12296 4074 M -101 0 R D 12296 4147 M -101 0 R D 12296 4220 M -101 0 R D
12296 4293 M -101 0 R D 12296 4366 M -101 0 R D 12296 4440 M -101 0 R D
12296 4513 M -101 0 R D 12296 4586 M -101 0 R D 12296 4733 M -101 0 R D
12296 4806 M -101 0 R D 12296 4879 M -101 0 R D 12296 4952 M -101 0 R D
12296 5025 M -101 0 R D 12296 5099 M -101 0 R D 12296 5172 M -101 0 R D
12296 5245 M -101 0 R D 12296 5318 M -101 0 R D 12296 5465 M -101 0 R D
12296 5538 M -101 0 R D 12296 5611 M -101 0 R D 12296 5684 M -101 0 R D
12296 5758 M -101 0 R D 12296 5831 M -101 0 R D 12296 5904 M -101 0 R D
12296 5977 M -101 0 R D 12296 6051 M -101 0 R D 12296 6197 M -101 0 R D
12296 6270 M -101 0 R D 12296 6343 M -101 0 R D 12296 6417 M -101 0 R D
11246 3927 M -83 77 R -192 151 R -235 143 R -284 123 R -339 80 R -381 0 R
-308 -76 R -261 -125 R -242 -173 R -215 -210 R -165 -211 R -124 -204 R
-91 -194 R -65 -183 R -44 -171 R -26 -161 R -11 -149 R 2 -139 R 14 -129 R
24 -119 R 34 -109 R 42 -99 R 49 -89 R 57 -80 R 63 -70 R 69 -60 R 74 -51 R
80 -41 R 84 -30 R 89 -21 R 94 -10 R 97 2 R 100 12 R 104 24 R 107 37 R
109 50 R 111 64 R 112 80 R 113 96 R 113 114 R 111 135 R 108 158 R 101 185 R
90 217 R 73 252 R 44 292 R -2 334 R -80 362 R -152 305 R -200 243 R
-223 186 R -269 159 R -257 106 R -238 66 R -219 35 R -200 13 R -182 -6 R
-166 -21 R -150 -32 R -136 -43 R -123 -50 R -110 -57 R -97 -64 R -85 -69 R
-74 -73 R -62 -77 R -51 -80 R -39 -84 R -29 -86 R -18 -87 R -7 -90 R 5 -91 R
15 -91 R 27 -92 R 39 -92 R 51 -92 R 64 -90 R 76 -89 R 91 -87 R 105 -84 R
121 -79 R 137 -74 R 156 -67 R 176 -58 R 199 -45 R 225 -26 R 253 -2 R
282 33 R 309 83 R 323 158 R 296 249 R 200 284 R 116 267 R 76 306 R 28 281 R
-7 252 R -30 223 R -48 197 R -60 175 R -69 155 R -76 135 R -82 120 R
-85 103 R -88 89 R -90 75 R -91 62 R -93 49 R -92 38 R -92 25 R -92 14 R
-91 3 R -89 -8 R -87 -20 R -86 -30 R -82 -41 R -80 -52 R -76 -64 R -72 -74 R
-68 -87 R -62 -98 R -56 -111 R -48 -123 R -40 -137 R -31 -151 R -18 -167 R
-3 -182 R 15 -200 R 39 -219 R 70 -237 R 110 -256 R 164 -268 R 235 -263 R
316 -218 R 288 -109 R 276 -46 R 300 1 R 294 46 R 254 75 R 217 92 R 186 103 R
159 109 R 134 113 R 115 114 R 95 114 R 79 114 R 64 112 R 50 110 R 36 107 R
24 104 R 12 101 R 1 98 R -10 93 R -21 89 R -31 85 R -41 79 R -50 74 R
-61 69 R -70 63 R -79 56 R -89 49 R -99 41 R -108 33 R -118 23 R -128 13 R
-138 2 R -148 -11 R -159 -27 R -170 -44 R -181 -65 R -191 -91 R -201 -123 R
-208 -162 R -208 -212 R -194 -274 R -147 -342 R -54 -334 R 20 -311 R
72 -282 R D 0.208 0.208 0.208 setrgbcolor 9770 3927 M 0 2 R 0 1 R 1 1 R
0 1 R 1 0 R 0 1 R 1 0 R 1 1 R 1 0 R 1 0 R 1 0 R 1 0 R 1 0 R 1 0 R 1 0 R
0 -1 R 1 0 R 0 -1 R 1 0 R 0 -1 R 1 0 R 0 -1 R 0 -1 R 0 -2 R D 9770 3927 M
0 -1 R 0 -1 R 0 -1 R 1 0 R 0 -1 R 1 -1 R 0 -1 R 1 0 R 1 0 R 0 -1 R 1 0 R
1 0 R 1 0 R 1 0 R 1 0 R 1 0 R 0 1 R 1 0 R 1 0 R 0 1 R 1 0 R 0 1 R 1 1 R
0 1 R 0 1 R 0 1 R D 0.000 0.000 0.000 setrgbcolor 9777 3927 M Z
gsave 10281 2164 translate 0 0 M
(35.0Gyr) show grestore gsave 10281 1812 translate 0 0 M
(3.0e11M) show X -101.051 M
%%IncludeResource: font Helvetica
262.467 /Helvetica STDFONT
(sun) show grestore
%%IncludeResource: font Helvetica
423.333 /Helvetica STDFONT
%%PageTrailer
end
%%PageResources: font Helvetica
%%Trailer
%%Pages: 1
%%DocumentNeededResources: font Helvetica
%%EOF
