%!PS-Adobe-3.0 EPSF-3.0
%%BoundingBox: 0 0 283 255
%%Title: Graphics produced by IDL
%%For: jlgan@aida119, /home/jlgan/work/subhalo_model
%%Creator: IDL Version 7.1 (linux x86_64 m64)
%%CreationDate: Thu Aug 27 16:03:24 2009
%%DocumentData: Clean7bit
%%Requirements: color
%%LanguageLevel: 1
%%PageOrder: Ascend
%%Pages: (atend)
%%DocumentNeededResources: (atend)
%%EndComments
%%BeginProlog
%+ prolog.ps -- Prolog for IDL generated PostScript files
%+ Copyright (c) 1988-2009 ITT Visual Information Solutions. All Rights Reserved.
%v 5
/$IDL_DICT 40 dict def $IDL_DICT begin /bdef { bind def } bind def /C
{currentpoint newpath moveto} bdef /CP {currentpoint} bdef /D {currentpoint
stroke moveto} bdef /F {closepath fill} bdef /K { setgray } bdef /M {moveto}
bdef /N {rmoveto} bdef /P {lineto} bdef /R {rlineto} bdef /S {gsave show
grestore} bdef /X {currentpoint pop} bdef /Z {gsave currentpoint lineto 20
setlinewidth 1 setlinecap stroke grestore} bdef /L0 {[] 0 setdash} bdef /L1
{[40 100] 0 setdash} bdef /L2 {[200 200] 0 setdash} bdef /L3 {[200 100 50
100] 0 setdash} bdef /L4 {[300 100 50 100 50 100 50 100] 0 setdash} bdef /L5
{[400 200] 0 setdash} bdef /STDFONT { findfont exch scalefont setfont } bdef
/ISOFONT { findfont dup length dict begin { 1 index /FID ne {def} {pop pop}
ifelse } forall /Encoding ISOLatin1Encoding def currentdict end /idltmpfont
exch definefont exch scalefont setfont } bdef /ISOBULLET { gsave /Helvetica
findfont exch scalefont setfont (\267) show currentpoint grestore moveto}
bdef /MITERLIMIT { 2.5 setmiterlimit } bdef end
%%EndProlog
%%Page: 0 1
%%PageRequirements: color
%%PageResources: (atend)
%%PageOrientation: Portrait
%%PageBoundingBox: 0 0 283 255
%%BeginPageSetup
$IDL_DICT begin 0.0283465 dup scale MITERLIMIT
%%IncludeResource: font Helvetica
423.333 /Helvetica STDFONT
%%EndPageSetup
40 setlinewidth L0 0.000 0.000 0.000 setrgbcolor 1800 1530 M 7900 0 R D
1800 1530 M 0 288 R D gsave 1800 770 translate 0 0 M 1.44 dup scale
-117.687 0 N
(0) show grestore 3775 1530 M 0 288 R D gsave 3775 770 translate 0 0 M
1.44 dup scale -117.687 0 N
(1) show grestore 5750 1530 M 0 288 R D gsave 5750 770 translate 0 0 M
1.44 dup scale -117.687 0 N
(2) show grestore 7725 1530 M 0 288 R D gsave 7725 770 translate 0 0 M
1.44 dup scale -117.687 0 N
(3) show grestore 9700 1530 M 0 288 R D gsave 9700 770 translate 0 0 M
1.44 dup scale -117.687 0 N
(4) show grestore 1998 1530 M 0 144 R D 2195 1530 M 0 144 R D 2393 1530 M
0 144 R D 2590 1530 M 0 144 R D 2788 1530 M 0 144 R D 2985 1530 M 0 144 R D
3183 1530 M 0 144 R D 3380 1530 M 0 144 R D 3578 1530 M 0 144 R D
3973 1530 M 0 144 R D 4170 1530 M 0 144 R D 4368 1530 M 0 144 R D
4565 1530 M 0 144 R D 4763 1530 M 0 144 R D 4960 1530 M 0 144 R D
5158 1530 M 0 144 R D 5355 1530 M 0 144 R D 5553 1530 M 0 144 R D
5948 1530 M 0 144 R D 6145 1530 M 0 144 R D 6343 1530 M 0 144 R D
6540 1530 M 0 144 R D 6738 1530 M 0 144 R D 6935 1530 M 0 144 R D
7133 1530 M 0 144 R D 7330 1530 M 0 144 R D 7528 1530 M 0 144 R D
7923 1530 M 0 144 R D 8120 1530 M 0 144 R D 8318 1530 M 0 144 R D
8515 1530 M 0 144 R D 8713 1530 M 0 144 R D 8910 1530 M 0 144 R D
9108 1530 M 0 144 R D 9305 1530 M 0 144 R D 9503 1530 M 0 144 R D
gsave 5750 111 translate 0 0 M 1.44 dup scale -576.368 0 N
(t [Gyr]) show grestore 1800 8730 M 7900 0 R D 1800 8730 M 0 -288 R D
3775 8730 M 0 -288 R D 5750 8730 M 0 -288 R D 7725 8730 M 0 -288 R D
9700 8730 M 0 -288 R D 1998 8730 M 0 -144 R D 2195 8730 M 0 -144 R D
2393 8730 M 0 -144 R D 2590 8730 M 0 -144 R D 2788 8730 M 0 -144 R D
2985 8730 M 0 -144 R D 3183 8730 M 0 -144 R D 3380 8730 M 0 -144 R D
3578 8730 M 0 -144 R D 3973 8730 M 0 -144 R D 4170 8730 M 0 -144 R D
4368 8730 M 0 -144 R D 4565 8730 M 0 -144 R D 4763 8730 M 0 -144 R D
4960 8730 M 0 -144 R D 5158 8730 M 0 -144 R D 5355 8730 M 0 -144 R D
5553 8730 M 0 -144 R D 5948 8730 M 0 -144 R D 6145 8730 M 0 -144 R D
6343 8730 M 0 -144 R D 6540 8730 M 0 -144 R D 6738 8730 M 0 -144 R D
6935 8730 M 0 -144 R D 7133 8730 M 0 -144 R D 7330 8730 M 0 -144 R D
7528 8730 M 0 -144 R D 7923 8730 M 0 -144 R D 8120 8730 M 0 -144 R D
8318 8730 M 0 -144 R D 8515 8730 M 0 -144 R D 8713 8730 M 0 -144 R D
8910 8730 M 0 -144 R D 9108 8730 M 0 -144 R D 9305 8730 M 0 -144 R D
9503 8730 M 0 -144 R D 1800 1530 M 0 7200 R D 1800 2839 M 316 0 R D
gsave 1640 2636 translate 0 0 M 1.44 dup scale -235.373 0 N
(5) show grestore 1800 4475 M 316 0 R D gsave 1640 4273 translate 0 0 M
1.44 dup scale -470.747 0 N
(10) show grestore 1800 6112 M 316 0 R D gsave 1640 5909 translate 0 0 M
1.44 dup scale -470.747 0 N
(15) show grestore 1800 7748 M 316 0 R D gsave 1640 7545 translate 0 0 M
1.44 dup scale -470.747 0 N
(20) show grestore 1800 1530 M 158 0 R D 1800 1857 M 158 0 R D 1800 2185 M
158 0 R D 1800 2512 M 158 0 R D 1800 3166 M 158 0 R D 1800 3494 M 158 0 R D
1800 3821 M 158 0 R D 1800 4148 M 158 0 R D 1800 4803 M 158 0 R D
1800 5130 M 158 0 R D 1800 5457 M 158 0 R D 1800 5785 M 158 0 R D
1800 6439 M 158 0 R D 1800 6766 M 158 0 R D 1800 7094 M 158 0 R D
1800 7421 M 158 0 R D 1800 8075 M 158 0 R D 1800 8403 M 158 0 R D
1800 8730 M 158 0 R D gsave 484 5130 translate 0 0 M 90 rotate
1.44 dup scale -844.762 0 N
(ln) show
%%IncludeResource: font Symbol
423.333 /Symbol STDFONT
(L) show
%%IncludeResource: font Helvetica
423.333 /Helvetica STDFONT
( \(Z03\)) show grestore 9700 1530 M 0 7200 R D 9700 2839 M -316 0 R D
9700 4475 M -316 0 R D 9700 6112 M -316 0 R D 9700 7748 M -316 0 R D
9700 1530 M -158 0 R D 9700 1857 M -158 0 R D 9700 2185 M -158 0 R D
9700 2512 M -158 0 R D 9700 3166 M -158 0 R D 9700 3494 M -158 0 R D
9700 3821 M -158 0 R D 9700 4148 M -158 0 R D 9700 4803 M -158 0 R D
9700 5130 M -158 0 R D 9700 5457 M -158 0 R D 9700 5785 M -158 0 R D
9700 6439 M -158 0 R D 9700 6766 M -158 0 R D 9700 7094 M -158 0 R D
9700 7421 M -158 0 R D 9700 8075 M -158 0 R D 9700 8403 M -158 0 R D
9700 8730 M -158 0 R D 1.000 0.000 0.706 setrgbcolor 1800 8136 M 198 -22 R
246 -33 R 310 -52 R 300 -66 R 395 -127 R 119 -52 R 150 -72 R 181 -565 R
156 -2178 R 147 -827 R 150 -264 R 158 -61 R 161 1 R 328 56 R 377 60 R
395 49 R 395 36 R 395 25 R 395 19 R 395 13 R 395 8 R 395 4 R 395 -1 R
395 -4 R 395 -8 R 395 -13 R 179 -9 R D L1 0.506 0.000 0.000 setrgbcolor
1800 7961 M 198 -23 R 395 -56 R 395 -80 R 195 -54 R 264 -99 R 130 -68 R
143 -98 R 145 -133 R 86 -1830 R 85 -1655 R 90 -853 R 84 -283 R 91 -90 R
116 -21 R 160 4 R 242 -2 R 380 -105 R 103 -68 R 101 -101 R 83 -126 R
70 -147 R 68 -152 R 59 -64 R 56 30 R 55 59 R 68 68 R 90 70 R 128 64 R
199 45 R 325 -27 R 98 -35 R 101 -57 R 83 -68 R 70 -74 R 64 -67 R 59 -12 R
48 48 R 48 77 R 55 82 R 71 82 R 97 74 R 144 63 R 228 32 R 236 -34 R
105 -41 R 95 -56 R 80 -65 R 66 -65 R 63 -42 R 56 10 R 54 70 R 49 78 R
59 77 R 77 72 R 108 67 R 165 56 R 267 11 R 158 -37 R 101 -45 R 91 -62 R
76 -74 R 65 -70 R 61 -29 R 54 20 R 44 58 R D L2
1.000 0.349 0.000 setrgbcolor 1800 7810 M 198 -23 R 395 -57 R 395 -83 R
395 -143 R 183 -121 R 166 -212 R 48 -120 R 33 -122 R 23 -142 R 13 -124 R
8 -103 R 5 -97 R 6 -186 R D L0 1.000 0.000 0.706 setrgbcolor 5932 7509 M
79 0 R 78 0 R 79 0 R 78 0 R 79 0 R 78 0 R 79 0 R 78 0 R 78 0 R D L1
0.506 0.000 0.000 setrgbcolor 5932 6991 M 79 0 R 78 0 R 79 0 R 78 0 R 79 0 R
78 0 R 79 0 R 78 0 R 78 0 R D L2 1.000 0.349 0.000 setrgbcolor 5932 6474 M
79 0 R 78 0 R 79 0 R 78 0 R 79 0 R 78 0 R 79 0 R 78 0 R 78 0 R D
1.000 0.000 0.706 setrgbcolor gsave 6717 7357 translate 0 0 M 1.2 dup scale
(m/M=0.01) show grestore 0.506 0.000 0.000 setrgbcolor
gsave 6717 6840 translate 0 0 M 1.2 dup scale
(m/M=0.05) show grestore 1.000 0.349 0.000 setrgbcolor
gsave 6717 6322 translate 0 0 M 1.2 dup scale
(m/M=0.20) show grestore
%%PageTrailer
end
%%PageResources: font Helvetica
%%+ font Symbol
%%Trailer
%%Pages: 1
%%DocumentNeededResources: font Helvetica
%%+ font Symbol
%%EOF
