%!PS-Adobe-3.0 EPSF-3.0
%%BoundingBox: 0 0 283 226
%%Title: Graphics produced by IDL
%%For: jlgan@aida119, /home/jlgan/work/subhalo_model
%%Creator: IDL Version 7.1 (linux x86_64 m64)
%%CreationDate: Thu Aug 27 14:28:27 2009
%%DocumentData: Clean7bit
%%Requirements: color
%%LanguageLevel: 1
%%PageOrder: Ascend
%%Pages: (atend)
%%DocumentNeededResources: (atend)
%%EndComments
%%BeginProlog
%+ prolog.ps -- Prolog for IDL generated PostScript files
%+ Copyright (c) 1988-2009 ITT Visual Information Solutions. All Rights Reserved.
%v 5
/$IDL_DICT 40 dict def $IDL_DICT begin /bdef { bind def } bind def /C
{currentpoint newpath moveto} bdef /CP {currentpoint} bdef /D {currentpoint
stroke moveto} bdef /F {closepath fill} bdef /K { setgray } bdef /M {moveto}
bdef /N {rmoveto} bdef /P {lineto} bdef /R {rlineto} bdef /S {gsave show
grestore} bdef /X {currentpoint pop} bdef /Z {gsave currentpoint lineto 20
setlinewidth 1 setlinecap stroke grestore} bdef /L0 {[] 0 setdash} bdef /L1
{[40 100] 0 setdash} bdef /L2 {[200 200] 0 setdash} bdef /L3 {[200 100 50
100] 0 setdash} bdef /L4 {[300 100 50 100 50 100 50 100] 0 setdash} bdef /L5
{[400 200] 0 setdash} bdef /STDFONT { findfont exch scalefont setfont } bdef
/ISOFONT { findfont dup length dict begin { 1 index /FID ne {def} {pop pop}
ifelse } forall /Encoding ISOLatin1Encoding def currentdict end /idltmpfont
exch definefont exch scalefont setfont } bdef /ISOBULLET { gsave /Helvetica
findfont exch scalefont setfont (\267) show currentpoint grestore moveto}
bdef /MITERLIMIT { 2.5 setmiterlimit } bdef end
%%EndProlog
%%Page: 0 1
%%PageRequirements: color
%%PageResources: (atend)
%%PageOrientation: Portrait
%%PageBoundingBox: 0 0 283 226
%%BeginPageSetup
$IDL_DICT begin 0.0283465 dup scale MITERLIMIT
%%IncludeResource: font Helvetica
423.333 /Helvetica STDFONT
%%EndPageSetup
40 setlinewidth L0 0.000 0.000 0.000 setrgbcolor 1700 1600 M 8100 0 R D
2310 1600 M 0 246 R D gsave 2310 840 translate 0 0 M 1.44 dup scale
-352.04 0 N
(10) show X 192.937 M
%%IncludeResource: font Helvetica
262.467 /Helvetica STDFONT
(-4) show grestore
%%IncludeResource: font Helvetica
423.333 /Helvetica STDFONT 4335 1600 M 0 246 R D
gsave 4335 840 translate 0 0 M 1.44 dup scale -352.04 0 N
(10) show X 192.937 M
%%IncludeResource: font Helvetica
262.467 /Helvetica STDFONT
(-3) show grestore
%%IncludeResource: font Helvetica
423.333 /Helvetica STDFONT 6360 1600 M 0 246 R D
gsave 6360 840 translate 0 0 M 1.44 dup scale -352.04 0 N
(10) show X 192.937 M
%%IncludeResource: font Helvetica
262.467 /Helvetica STDFONT
(-2) show grestore
%%IncludeResource: font Helvetica
423.333 /Helvetica STDFONT 8385 1600 M 0 246 R D
gsave 8385 840 translate 0 0 M 1.44 dup scale -352.04 0 N
(10) show X 192.937 M
%%IncludeResource: font Helvetica
262.467 /Helvetica STDFONT
(-1) show grestore
%%IncludeResource: font Helvetica
423.333 /Helvetica STDFONT 1700 1600 M 0 123 R D 1860 1600 M 0 123 R D
1996 1600 M 0 123 R D 2113 1600 M 0 123 R D 2217 1600 M 0 123 R D
2919 1600 M 0 123 R D 3276 1600 M 0 123 R D 3529 1600 M 0 123 R D
3725 1600 M 0 123 R D 3885 1600 M 0 123 R D 4021 1600 M 0 123 R D
4138 1600 M 0 123 R D 4242 1600 M 0 123 R D 4944 1600 M 0 123 R D
5301 1600 M 0 123 R D 5554 1600 M 0 123 R D 5750 1600 M 0 123 R D
5910 1600 M 0 123 R D 6046 1600 M 0 123 R D 6163 1600 M 0 123 R D
6267 1600 M 0 123 R D 6969 1600 M 0 123 R D 7326 1600 M 0 123 R D
7579 1600 M 0 123 R D 7775 1600 M 0 123 R D 7935 1600 M 0 123 R D
8071 1600 M 0 123 R D 8188 1600 M 0 123 R D 8292 1600 M 0 123 R D
8994 1600 M 0 123 R D 9351 1600 M 0 123 R D 9604 1600 M 0 123 R D
9800 1600 M 0 123 R D gsave 5750 181 translate 0 0 M 1.44 dup scale
-411.48 0 N
(m/M) show grestore 1700 7760 M 8100 0 R D 2310 7760 M 0 -246 R D
4335 7760 M 0 -246 R D 6360 7760 M 0 -246 R D 8385 7760 M 0 -246 R D
1700 7760 M 0 -123 R D 1860 7760 M 0 -123 R D 1996 7760 M 0 -123 R D
2113 7760 M 0 -123 R D 2217 7760 M 0 -123 R D 2919 7760 M 0 -123 R D
3276 7760 M 0 -123 R D 3529 7760 M 0 -123 R D 3725 7760 M 0 -123 R D
3885 7760 M 0 -123 R D 4021 7760 M 0 -123 R D 4138 7760 M 0 -123 R D
4242 7760 M 0 -123 R D 4944 7760 M 0 -123 R D 5301 7760 M 0 -123 R D
5554 7760 M 0 -123 R D 5750 7760 M 0 -123 R D 5910 7760 M 0 -123 R D
6046 7760 M 0 -123 R D 6163 7760 M 0 -123 R D 6267 7760 M 0 -123 R D
6969 7760 M 0 -123 R D 7326 7760 M 0 -123 R D 7579 7760 M 0 -123 R D
7775 7760 M 0 -123 R D 7935 7760 M 0 -123 R D 8071 7760 M 0 -123 R D
8188 7760 M 0 -123 R D 8292 7760 M 0 -123 R D 8994 7760 M 0 -123 R D
9351 7760 M 0 -123 R D 9604 7760 M 0 -123 R D 9800 7760 M 0 -123 R D
1700 1600 M 0 6160 R D 1700 2938 M 324 0 R D gsave 1540 2735 translate 0 0 M
1.44 dup scale -704.08 0 N
(10) show X 192.937 M
%%IncludeResource: font Helvetica
262.467 /Helvetica STDFONT
(-1) show grestore
%%IncludeResource: font Helvetica
423.333 /Helvetica STDFONT 1700 4277 M 324 0 R D
gsave 1540 4074 translate 0 0 M 1.44 dup scale -235.373 0 N
(1) show grestore 1700 5615 M 324 0 R D gsave 1540 5413 translate 0 0 M
1.44 dup scale -470.747 0 N
(10) show grestore 1700 6954 M 324 0 R D gsave 1540 6751 translate 0 0 M
1.44 dup scale -616.678 0 N
(10) show X 192.937 M
%%IncludeResource: font Helvetica
262.467 /Helvetica STDFONT
(2) show grestore
%%IncludeResource: font Helvetica
423.333 /Helvetica STDFONT 1700 2002 M 162 0 R D 1700 2238 M 162 0 R D
1700 2405 M 162 0 R D 1700 2535 M 162 0 R D 1700 2641 M 162 0 R D
1700 2731 M 162 0 R D 1700 2808 M 162 0 R D 1700 2877 M 162 0 R D
1700 3341 M 162 0 R D 1700 3577 M 162 0 R D 1700 3744 M 162 0 R D
1700 3874 M 162 0 R D 1700 3980 M 162 0 R D 1700 4069 M 162 0 R D
1700 4147 M 162 0 R D 1700 4215 M 162 0 R D 1700 4680 M 162 0 R D
1700 4915 M 162 0 R D 1700 5083 M 162 0 R D 1700 5212 M 162 0 R D
1700 5318 M 162 0 R D 1700 5408 M 162 0 R D 1700 5486 M 162 0 R D
1700 5554 M 162 0 R D 1700 6018 M 162 0 R D 1700 6254 M 162 0 R D
1700 6421 M 162 0 R D 1700 6551 M 162 0 R D 1700 6657 M 162 0 R D
1700 6747 M 162 0 R D 1700 6824 M 162 0 R D 1700 6893 M 162 0 R D
1700 7357 M 162 0 R D 1700 7593 M 162 0 R D 1700 7760 M 162 0 R D
9800 1600 M 0 6160 R D 9800 2938 M -324 0 R D 9800 4277 M -324 0 R D
9800 5615 M -324 0 R D 9800 6954 M -324 0 R D 9800 2002 M -162 0 R D
9800 2238 M -162 0 R D 9800 2405 M -162 0 R D 9800 2535 M -162 0 R D
9800 2641 M -162 0 R D 9800 2731 M -162 0 R D 9800 2808 M -162 0 R D
9800 2877 M -162 0 R D 9800 3341 M -162 0 R D 9800 3577 M -162 0 R D
9800 3744 M -162 0 R D 9800 3874 M -162 0 R D 9800 3980 M -162 0 R D
9800 4069 M -162 0 R D 9800 4147 M -162 0 R D 9800 4215 M -162 0 R D
9800 4680 M -162 0 R D 9800 4915 M -162 0 R D 9800 5083 M -162 0 R D
9800 5212 M -162 0 R D 9800 5318 M -162 0 R D 9800 5408 M -162 0 R D
9800 5486 M -162 0 R D 9800 5554 M -162 0 R D 9800 6018 M -162 0 R D
9800 6254 M -162 0 R D 9800 6421 M -162 0 R D 9800 6551 M -162 0 R D
9800 6657 M -162 0 R D 9800 6747 M -162 0 R D 9800 6824 M -162 0 R D
9800 6893 M -162 0 R D 9800 7357 M -162 0 R D 9800 7593 M -162 0 R D
9800 7760 M -162 0 R D L2 2310 6289 M 607 -280 R 608 -305 R 607 -337 R
608 -349 R 607 -326 R 608 -347 R 607 -347 R 608 -297 R 607 -348 R 608 -344 R
D gsave 550 4680 translate 0 0 M 90 rotate 1.2 dup scale -1164.17 0 N
(dN/dln\(m/M\)) show grestore L1 2010 7329 M 769 -166 R 769 -409 R
769 -389 R 769 -393 R 769 -320 R 769 -410 R 770 -336 R 769 -300 R 769 -330 R
769 -704 R D L3 0.761 0.000 0.000 setrgbcolor 2310 6478 M 607 -302 R
608 -364 R 607 -333 R 608 -356 R 607 -344 R 608 -329 R 607 -422 R 608 -679 R
607 -90 R 608 0 R D L4 0.000 0.000 1.000 setrgbcolor 2310 6456 M 607 -325 R
608 -374 R 607 -346 R 608 -342 R 607 -353 R 608 -440 R 607 -261 R 608 -709 R
607 0 R 608 0 R D L3 0.761 0.000 0.000 setrgbcolor 2105 2832 M 122 0 R
121 0 R 122 0 R 121 0 R 122 0 R 121 0 R 122 0 R 121 0 R 122 0 R D L4
0.000 0.000 1.000 setrgbcolor 2105 2339 M 122 0 R 121 0 R 122 0 R 121 0 R
122 0 R 121 0 R 122 0 R 121 0 R 122 0 R D 0.761 0.000 0.000 setrgbcolor
gsave 3320 2669 translate 0 0 M 1.2 dup scale
(ln) show
%%IncludeResource: font Symbol
423.333 /Symbol STDFONT
(L) show
%%IncludeResource: font Helvetica
423.333 /Helvetica STDFONT
(=C) show grestore 0.000 0.000 1.000 setrgbcolor
gsave 3320 2177 translate 0 0 M 1.2 dup scale
(ln) show
%%IncludeResource: font Symbol
423.333 /Symbol STDFONT
(L) show
%%IncludeResource: font Helvetica
423.333 /Helvetica STDFONT
(=ln[M\(t\)/m\(t\)]+C) show grestore
%%PageTrailer
end
%%PageResources: font Helvetica
%%+ font Symbol
%%Trailer
%%Pages: 1
%%DocumentNeededResources: font Helvetica
%%+ font Symbol
%%EOF
