%!PS-Adobe-3.0 EPSF-3.0
%%BoundingBox: 0 0 510 184
%%Title: Graphics produced by IDL
%%For: jlgan@aida119, /home/jlgan/work/subhalo_model
%%Creator: IDL Version 7.1 (linux x86_64 m64)
%%CreationDate: Wed Aug 26 00:07:58 2009
%%DocumentData: Clean7bit
%%Requirements: color
%%LanguageLevel: 1
%%PageOrder: Ascend
%%Pages: (atend)
%%DocumentNeededResources: (atend)
%%EndComments
%%BeginProlog
%+ prolog.ps -- Prolog for IDL generated PostScript files
%+ Copyright (c) 1988-2009 ITT Visual Information Solutions. All Rights Reserved.
%v 5
/$IDL_DICT 40 dict def $IDL_DICT begin /bdef { bind def } bind def /C
{currentpoint newpath moveto} bdef /CP {currentpoint} bdef /D {currentpoint
stroke moveto} bdef /F {closepath fill} bdef /K { setgray } bdef /M {moveto}
bdef /N {rmoveto} bdef /P {lineto} bdef /R {rlineto} bdef /S {gsave show
grestore} bdef /X {currentpoint pop} bdef /Z {gsave currentpoint lineto 20
setlinewidth 1 setlinecap stroke grestore} bdef /L0 {[] 0 setdash} bdef /L1
{[40 100] 0 setdash} bdef /L2 {[200 200] 0 setdash} bdef /L3 {[200 100 50
100] 0 setdash} bdef /L4 {[300 100 50 100 50 100 50 100] 0 setdash} bdef /L5
{[400 200] 0 setdash} bdef /STDFONT { findfont exch scalefont setfont } bdef
/ISOFONT { findfont dup length dict begin { 1 index /FID ne {def} {pop pop}
ifelse } forall /Encoding ISOLatin1Encoding def currentdict end /idltmpfont
exch definefont exch scalefont setfont } bdef /ISOBULLET { gsave /Helvetica
findfont exch scalefont setfont (\267) show currentpoint grestore moveto}
bdef /MITERLIMIT { 2.5 setmiterlimit } bdef end
%%EndProlog
%%Page: 0 1
%%PageRequirements: color
%%PageResources: (atend)
%%PageOrientation: Portrait
%%PageBoundingBox: 0 0 510 184
%%BeginPageSetup
$IDL_DICT begin 0.0283465 dup scale MITERLIMIT
%%IncludeResource: font Helvetica
423.333 /Helvetica STDFONT
%%EndPageSetup
0.000 0.000 0.000 setrgbcolor gsave 9360 138 translate 0 0 M 1.2 dup scale
-928.793 0 N
(m\(0\)/M\(0\)) show grestore gsave 462 3738 translate 0 0 M 90 rotate
1.2 dup scale -756.302 0 N
(T) show X -101.051 M
%%IncludeResource: font Helvetica
262.467 /Helvetica STDFONT
(df) show X 0 M
%%IncludeResource: font Helvetica
423.333 /Helvetica STDFONT
( [Gyr]) show grestore 40 setlinewidth L0 1350 1300 M 4740 0 R D 1350 1300 M
0 195 R D gsave 1350 666 translate 0 0 M 1.2 dup scale -58.8433 0 N
( ) show grestore 2298 1300 M 0 195 R D gsave 2298 666 translate 0 0 M
1.2 dup scale -294.217 0 N
(0.1) show grestore 3246 1300 M 0 195 R D gsave 3246 666 translate 0 0 M
1.2 dup scale -58.8433 0 N
( ) show grestore 4194 1300 M 0 195 R D gsave 4194 666 translate 0 0 M
1.2 dup scale -294.217 0 N
(0.2) show grestore 5142 1300 M 0 195 R D gsave 5142 666 translate 0 0 M
1.2 dup scale -58.8433 0 N
( ) show grestore 6090 1300 M 0 195 R D gsave 6090 666 translate 0 0 M
1.2 dup scale -294.217 0 N
(0.3) show grestore 1540 1300 M 0 98 R D 1729 1300 M 0 98 R D 1919 1300 M
0 98 R D 2108 1300 M 0 98 R D 2488 1300 M 0 98 R D 2677 1300 M 0 98 R D
2867 1300 M 0 98 R D 3056 1300 M 0 98 R D 3436 1300 M 0 98 R D 3625 1300 M
0 98 R D 3815 1300 M 0 98 R D 4004 1300 M 0 98 R D 4384 1300 M 0 98 R D
4573 1300 M 0 98 R D 4763 1300 M 0 98 R D 4952 1300 M 0 98 R D 5332 1300 M
0 98 R D 5521 1300 M 0 98 R D 5711 1300 M 0 98 R D 5900 1300 M 0 98 R D
1350 6175 M 4740 0 R D 1350 6175 M 0 -195 R D 2298 6175 M 0 -195 R D
3246 6175 M 0 -195 R D 4194 6175 M 0 -195 R D 5142 6175 M 0 -195 R D
6090 6175 M 0 -195 R D 1540 6175 M 0 -97 R D 1729 6175 M 0 -97 R D
1919 6175 M 0 -97 R D 2108 6175 M 0 -97 R D 2488 6175 M 0 -97 R D
2677 6175 M 0 -97 R D 2867 6175 M 0 -97 R D 3056 6175 M 0 -97 R D
3436 6175 M 0 -97 R D 3625 6175 M 0 -97 R D 3815 6175 M 0 -97 R D
4004 6175 M 0 -97 R D 4384 6175 M 0 -97 R D 4573 6175 M 0 -97 R D
4763 6175 M 0 -97 R D 4952 6175 M 0 -97 R D 5332 6175 M 0 -97 R D
5521 6175 M 0 -97 R D 5711 6175 M 0 -97 R D 5900 6175 M 0 -97 R D
1350 1300 M 0 4875 R D 1350 2405 M 190 0 R D gsave 1217 2236 translate 0 0 M
1.2 dup scale -235.373 0 N
(2) show grestore 1350 3610 M 190 0 R D gsave 1217 3441 translate 0 0 M
1.2 dup scale -235.373 0 N
(4) show grestore 1350 4815 M 190 0 R D gsave 1217 4646 translate 0 0 M
1.2 dup scale -235.373 0 N
(6) show grestore 1350 6020 M 190 0 R D gsave 1217 5851 translate 0 0 M
1.2 dup scale -235.373 0 N
(8) show grestore 1350 1501 M 95 0 R D 1350 1802 M 95 0 R D 1350 2103 M
95 0 R D 1350 2706 M 95 0 R D 1350 3007 M 95 0 R D 1350 3308 M 95 0 R D
1350 3911 M 95 0 R D 1350 4212 M 95 0 R D 1350 4514 M 95 0 R D 1350 5116 M
95 0 R D 1350 5417 M 95 0 R D 1350 5719 M 95 0 R D 6090 1300 M 0 4875 R D
6090 2405 M -190 0 R D 6090 3610 M -190 0 R D 6090 4815 M -190 0 R D
6090 6020 M -190 0 R D 6090 1501 M -95 0 R D 6090 1802 M -95 0 R D
6090 2103 M -95 0 R D 6090 2706 M -95 0 R D 6090 3007 M -95 0 R D
6090 3308 M -95 0 R D 6090 3911 M -95 0 R D 6090 4212 M -95 0 R D
6090 4514 M -95 0 R D 6090 5116 M -95 0 R D 6090 5417 M -95 0 R D
6090 5719 M -95 0 R D L1 1350 6175 M 474 -1617 R 474 -793 R 569 -543 R
379 -240 R 948 -388 R 948 -233 R 948 -156 R D L2
0.761 0.000 0.000 setrgbcolor 1489 6175 M 335 -1312 R 474 -1207 R 569 -584 R
379 -165 R 948 -655 R 948 -199 R 948 -29 R D L0
0.000 0.000 1.000 setrgbcolor 1350 6113 M 474 -1481 R 474 -1026 R 569 -595 R
379 -203 R 948 -456 R 948 -115 R 948 -57 R D 0.000 0.000 0.000 setrgbcolor
gsave 5711 5578 translate 0 0 M 1.2 dup scale -947.42 0 N
%%IncludeResource: font Symbol
423.333 /Symbol STDFONT
(e) show
%%IncludeResource: font Helvetica
423.333 /Helvetica STDFONT
(=0.3) show grestore 6990 1300 M 4740 0 R D 6990 1300 M 0 195 R D
gsave 6990 666 translate 0 0 M 1.2 dup scale -58.8433 0 N
( ) show grestore 7938 1300 M 0 195 R D gsave 7938 666 translate 0 0 M
1.2 dup scale -294.217 0 N
(0.1) show grestore 8886 1300 M 0 195 R D gsave 8886 666 translate 0 0 M
1.2 dup scale -58.8433 0 N
( ) show grestore 9834 1300 M 0 195 R D gsave 9834 666 translate 0 0 M
1.2 dup scale -294.217 0 N
(0.2) show grestore 10782 1300 M 0 195 R D gsave 10782 666 translate 0 0 M
1.2 dup scale -58.8433 0 N
( ) show grestore 11730 1300 M 0 195 R D gsave 11730 666 translate 0 0 M
1.2 dup scale -294.217 0 N
(0.3) show grestore 7180 1300 M 0 98 R D 7369 1300 M 0 98 R D 7559 1300 M
0 98 R D 7748 1300 M 0 98 R D 8128 1300 M 0 98 R D 8317 1300 M 0 98 R D
8507 1300 M 0 98 R D 8696 1300 M 0 98 R D 9076 1300 M 0 98 R D 9265 1300 M
0 98 R D 9455 1300 M 0 98 R D 9644 1300 M 0 98 R D 10024 1300 M 0 98 R D
10213 1300 M 0 98 R D 10403 1300 M 0 98 R D 10593 1300 M 0 98 R D
10972 1300 M 0 98 R D 11161 1300 M 0 98 R D 11351 1300 M 0 98 R D
11541 1300 M 0 98 R D 6990 6175 M 4740 0 R D 6990 6175 M 0 -195 R D
7938 6175 M 0 -195 R D 8886 6175 M 0 -195 R D 9834 6175 M 0 -195 R D
10782 6175 M 0 -195 R D 11730 6175 M 0 -195 R D 7180 6175 M 0 -97 R D
7369 6175 M 0 -97 R D 7559 6175 M 0 -97 R D 7748 6175 M 0 -97 R D
8128 6175 M 0 -97 R D 8317 6175 M 0 -97 R D 8507 6175 M 0 -97 R D
8696 6175 M 0 -97 R D 9076 6175 M 0 -97 R D 9265 6175 M 0 -97 R D
9455 6175 M 0 -97 R D 9644 6175 M 0 -97 R D 10024 6175 M 0 -97 R D
10213 6175 M 0 -97 R D 10403 6175 M 0 -97 R D 10593 6175 M 0 -97 R D
10972 6175 M 0 -97 R D 11161 6175 M 0 -97 R D 11351 6175 M 0 -97 R D
11541 6175 M 0 -97 R D 6990 1300 M 0 4875 R D 6990 2024 M 190 0 R D
gsave 6857 1855 translate 0 0 M 1.2 dup scale -235.373 0 N
(2) show grestore 6990 2848 M 190 0 R D gsave 6857 2679 translate 0 0 M
1.2 dup scale -235.373 0 N
(4) show grestore 6990 3672 M 190 0 R D gsave 6857 3503 translate 0 0 M
1.2 dup scale -235.373 0 N
(6) show grestore 6990 4496 M 190 0 R D gsave 6857 4327 translate 0 0 M
1.2 dup scale -235.373 0 N
(8) show grestore 6990 5320 M 190 0 R D gsave 6857 5151 translate 0 0 M
1.2 dup scale -470.747 0 N
(10) show grestore 6990 6144 M 190 0 R D gsave 6857 5879 translate 0 0 M
1.2 dup scale -470.747 0 N
(12) show grestore 6990 1405 M 95 0 R D 6990 1611 M 95 0 R D 6990 1818 M
95 0 R D 6990 2230 M 95 0 R D 6990 2436 M 95 0 R D 6990 2642 M 95 0 R D
6990 3054 M 95 0 R D 6990 3260 M 95 0 R D 6990 3466 M 95 0 R D 6990 3878 M
95 0 R D 6990 4084 M 95 0 R D 6990 4290 M 95 0 R D 6990 4702 M 95 0 R D
6990 4908 M 95 0 R D 6990 5114 M 95 0 R D 6990 5526 M 95 0 R D 6990 5732 M
95 0 R D 6990 5938 M 95 0 R D 11730 1300 M 0 4875 R D 11730 2024 M -189 0 R
D 11730 2848 M -189 0 R D 11730 3672 M -189 0 R D 11730 4496 M -189 0 R D
11730 5320 M -189 0 R D 11730 6144 M -189 0 R D 11730 1405 M -95 0 R D
11730 1611 M -95 0 R D 11730 1818 M -95 0 R D 11730 2230 M -95 0 R D
11730 2436 M -95 0 R D 11730 2642 M -95 0 R D 11730 3054 M -95 0 R D
11730 3260 M -95 0 R D 11730 3466 M -95 0 R D 11730 3878 M -95 0 R D
11730 4084 M -95 0 R D 11730 4290 M -95 0 R D 11730 4702 M -95 0 R D
11730 4908 M -95 0 R D 11730 5114 M -95 0 R D 11730 5526 M -95 0 R D
11730 5732 M -95 0 R D 11730 5938 M -95 0 R D L1 6990 6175 M 474 -1617 R
474 -793 R 569 -543 R 379 -240 R 948 -388 R 948 -233 R 948 -156 R D L2
0.761 0.000 0.000 setrgbcolor 6990 6081 M 474 -1104 R 474 -1010 R 569 -403 R
379 -382 R 948 -403 R 948 -160 R 948 -298 R D L0
0.000 0.000 1.000 setrgbcolor 6990 6167 M 474 -1006 R 474 -1129 R 569 -481 R
379 -330 R 948 -320 R 948 -253 R 948 -88 R D 0.000 0.000 0.000 setrgbcolor
gsave 11351 5578 translate 0 0 M 1.2 dup scale -947.42 0 N
%%IncludeResource: font Symbol
423.333 /Symbol STDFONT
(e) show
%%IncludeResource: font Helvetica
423.333 /Helvetica STDFONT
(=0.5) show grestore 12630 1300 M 4740 0 R D 12630 1300 M 0 195 R D
gsave 12630 666 translate 0 0 M 1.2 dup scale -58.8433 0 N
( ) show grestore 13578 1300 M 0 195 R D gsave 13578 666 translate 0 0 M
1.2 dup scale -294.217 0 N
(0.1) show grestore 14526 1300 M 0 195 R D gsave 14526 666 translate 0 0 M
1.2 dup scale -58.8433 0 N
( ) show grestore 15474 1300 M 0 195 R D gsave 15474 666 translate 0 0 M
1.2 dup scale -294.217 0 N
(0.2) show grestore 16422 1300 M 0 195 R D gsave 16422 666 translate 0 0 M
1.2 dup scale -58.8433 0 N
( ) show grestore 17370 1300 M 0 195 R D gsave 17370 666 translate 0 0 M
1.2 dup scale -294.217 0 N
(0.3) show grestore 12820 1300 M 0 98 R D 13009 1300 M 0 98 R D 13199 1300 M
0 98 R D 13389 1300 M 0 98 R D 13768 1300 M 0 98 R D 13957 1300 M 0 98 R D
14147 1300 M 0 98 R D 14337 1300 M 0 98 R D 14716 1300 M 0 98 R D
14905 1300 M 0 98 R D 15095 1300 M 0 98 R D 15285 1300 M 0 98 R D
15664 1300 M 0 98 R D 15853 1300 M 0 98 R D 16043 1300 M 0 98 R D
16233 1300 M 0 98 R D 16612 1300 M 0 98 R D 16801 1300 M 0 98 R D
16991 1300 M 0 98 R D 17181 1300 M 0 98 R D 12630 6175 M 4740 0 R D
12630 6175 M 0 -195 R D 13578 6175 M 0 -195 R D 14526 6175 M 0 -195 R D
15474 6175 M 0 -195 R D 16422 6175 M 0 -195 R D 17370 6175 M 0 -195 R D
12820 6175 M 0 -97 R D 13009 6175 M 0 -97 R D 13199 6175 M 0 -97 R D
13389 6175 M 0 -97 R D 13768 6175 M 0 -97 R D 13957 6175 M 0 -97 R D
14147 6175 M 0 -97 R D 14337 6175 M 0 -97 R D 14716 6175 M 0 -97 R D
14905 6175 M 0 -97 R D 15095 6175 M 0 -97 R D 15285 6175 M 0 -97 R D
15664 6175 M 0 -97 R D 15853 6175 M 0 -97 R D 16043 6175 M 0 -97 R D
16233 6175 M 0 -97 R D 16612 6175 M 0 -97 R D 16801 6175 M 0 -97 R D
16991 6175 M 0 -97 R D 17181 6175 M 0 -97 R D 12630 1300 M 0 4875 R D
12630 2608 M 190 0 R D gsave 12497 2439 translate 0 0 M 1.2 dup scale
-235.373 0 N
(5) show grestore 12630 4017 M 190 0 R D gsave 12497 3849 translate 0 0 M
1.2 dup scale -470.747 0 N
(10) show grestore 12630 5426 M 190 0 R D gsave 12497 5258 translate 0 0 M
1.2 dup scale -470.747 0 N
(15) show grestore 12630 1481 M 95 0 R D 12630 1763 M 95 0 R D 12630 2045 M
95 0 R D 12630 2327 M 95 0 R D 12630 2890 M 95 0 R D 12630 3172 M 95 0 R D
12630 3454 M 95 0 R D 12630 3736 M 95 0 R D 12630 4299 M 95 0 R D
12630 4581 M 95 0 R D 12630 4863 M 95 0 R D 12630 5145 M 95 0 R D
12630 5708 M 95 0 R D 12630 5990 M 95 0 R D 17370 1300 M 0 4875 R D
17370 2608 M -189 0 R D 17370 4017 M -189 0 R D 17370 5426 M -189 0 R D
17370 1481 M -95 0 R D 17370 1763 M -95 0 R D 17370 2045 M -95 0 R D
17370 2327 M -95 0 R D 17370 2890 M -95 0 R D 17370 3172 M -95 0 R D
17370 3454 M -95 0 R D 17370 3736 M -95 0 R D 17370 4299 M -95 0 R D
17370 4581 M -95 0 R D 17370 4863 M -95 0 R D 17370 5145 M -95 0 R D
17370 5708 M -95 0 R D 17370 5990 M -95 0 R D L1 12630 6175 M 474 -1617 R
474 -793 R 569 -543 R 379 -240 R 948 -388 R 948 -233 R 948 -156 R D L2
0.761 0.000 0.000 setrgbcolor 12630 4646 M 474 -856 R 474 -370 R 569 -366 R
379 -27 R 948 -384 R 948 -107 R 948 -107 R D L0
0.000 0.000 1.000 setrgbcolor 12630 5162 M 474 -1006 R 474 -579 R 569 -371 R
379 -263 R 948 -183 R 948 -165 R 948 -51 R D 0.000 0.000 0.000 setrgbcolor
gsave 16991 5578 translate 0 0 M 1.2 dup scale -947.42 0 N
%%IncludeResource: font Symbol
423.333 /Symbol STDFONT
(e) show
%%IncludeResource: font Helvetica
423.333 /Helvetica STDFONT
(=0.7) show grestore L1 14003 5259 M 72 0 R 73 0 R 73 0 R 73 0 R 72 0 R
73 0 R 73 0 R 72 0 R 73 0 R D L2 0.761 0.000 0.000 setrgbcolor 14003 4862 M
72 0 R 73 0 R 73 0 R 73 0 R 72 0 R 73 0 R 73 0 R 72 0 R 73 0 R D L0
0.000 0.000 1.000 setrgbcolor 14003 4466 M 72 0 R 73 0 R 73 0 R 73 0 R
72 0 R 73 0 R 73 0 R 72 0 R 73 0 R D 0.000 0.000 0.000 setrgbcolor
gsave 14730 5130 translate 0 0 M
(BK08) show grestore 0.761 0.000 0.000 setrgbcolor
gsave 14730 4733 translate 0 0 M
(ln) show
%%IncludeResource: font Symbol
423.333 /Symbol STDFONT
(L) show
%%IncludeResource: font Helvetica
423.333 /Helvetica STDFONT
(=C) show grestore 0.000 0.000 1.000 setrgbcolor
gsave 14730 4337 translate 0 0 M
(ln[M/m\(t\)]+C) show grestore
%%PageTrailer
end
%%PageResources: font Helvetica
%%+ font Symbol
%%Trailer
%%Pages: 1
%%DocumentNeededResources: font Helvetica
%%+ font Symbol
%%EOF
