%!PS-Adobe-3.0
%%BoundingBox: 54 360 564 530
%%Title: Graphics produced by IDL
%%For: dacia@Lserver, /home/dacia/work/subhalo_model
%%Creator: IDL Version 7.0 (linux x86_64 m64)
%%CreationDate: Fri Mar 26 14:38:29 2010
%%DocumentData: Clean7bit
%%Requirements: color
%%LanguageLevel: 1
%%PageOrder: Ascend
%%Pages: (atend)
%%DocumentNeededResources: (atend)
%%EndComments
%%BeginProlog
save
%+ prolog.ps -- Prolog for IDL generated PostScript files
%+ Copyright (c) 1988-2007 ITT Visual Information Solutions. All Rights Reserved.
%v 5
/$IDL_DICT 40 dict def $IDL_DICT begin /bdef { bind def } bind def /C
{currentpoint newpath moveto} bdef /CP {currentpoint} bdef /D {currentpoint
stroke moveto} bdef /F {closepath fill} bdef /K { setgray } bdef /M {moveto}
bdef /N {rmoveto} bdef /P {lineto} bdef /R {rlineto} bdef /S {gsave show
grestore} bdef /X {currentpoint pop} bdef /Z {gsave currentpoint lineto 20
setlinewidth 1 setlinecap stroke grestore} bdef /L0 {[] 0 setdash} bdef /L1
{[40 100] 0 setdash} bdef /L2 {[200 200] 0 setdash} bdef /L3 {[200 100 50
100] 0 setdash} bdef /L4 {[300 100 50 100 50 100 50 100] 0 setdash} bdef /L5
{[400 200] 0 setdash} bdef /STDFONT { findfont exch scalefont setfont } bdef
/ISOFONT { findfont dup length dict begin { 1 index /FID ne {def} {pop pop}
ifelse } forall /Encoding ISOLatin1Encoding def currentdict end /idltmpfont
exch definefont exch scalefont setfont } bdef /ISOBULLET { gsave /Helvetica
findfont exch scalefont setfont (\267) show currentpoint grestore moveto}
bdef /MITERLIMIT { 2.5 setmiterlimit } bdef end
%%EndProlog
%%Page: 0 1
%%PageRequirements: color
%%PageResources: (atend)
%%PageOrientation: Portrait
%%PageBoundingBox: 54 360 564 530
%%BeginPageSetup
save
$IDL_DICT begin 54 360 translate 0.0283465 dup scale MITERLIMIT
%%IncludeResource: font Symbol
423.333 /Symbol STDFONT
%%EndPageSetup
40 setlinewidth L0 0.000 0.000 0.000 setrgbcolor 5597 6313 M 0 -613 R D
5597 6313 M 380 0 R D 5597 6021 M 234 0 R D 6240 6109 M -59 -29 R -58 -59 R
-29 -87 R 0 -59 R 29 -87 R 58 -59 R 59 -29 R 87 0 R 59 29 R 58 59 R 29 87 R
0 59 R -29 87 R -58 59 R -59 29 R -87 0 R D 6678 6109 M 0 -409 R D
6678 5992 M 87 88 R 59 29 R 87 0 R 59 -29 R 29 -88 R 0 -292 R D 7262 6313 M
0 -496 R 29 -88 R 59 -29 R 58 0 R D 7174 6109 M 205 0 R D 8401 6109 M
-29 -88 R -58 -58 R -88 -29 R -29 0 R -88 29 R -58 58 R -30 88 R 0 29 R
30 88 R 58 58 R 88 29 R 29 0 R 88 -29 R 58 -58 R 29 -117 R 0 -146 R
-29 -146 R -58 -88 R -88 -29 R -59 0 R -87 29 R -29 59 R D 8693 5729 M
-29 -29 R -29 29 R 29 29 R 29 -29 R 0 -87 R -29 -59 R -29 -29 R D
9686 6021 M -29 59 R -87 29 R -88 0 R -88 -29 R -29 -59 R 29 -58 R 59 -29 R
146 -30 R 58 -29 R 29 -58 R 0 -29 R -29 -59 R -87 -29 R -88 0 R -88 29 R
-29 59 R D 9833 6109 M 175 -409 R 175 409 R D 10008 5700 M -59 -146 R
-58 -58 R -58 -30 R -30 0 R D 10358 6109 M 0 -409 R D 10358 5992 M 88 88 R
58 29 R 88 0 R 58 -29 R 30 -88 R 0 -292 R D 10680 5992 M 87 88 R 59 29 R
87 0 R 59 -29 R 29 -88 R 0 -292 R D 11235 6313 M 0 -613 R D 11235 6021 M
58 59 R 58 29 R 88 0 R 59 -29 R 58 -59 R 29 -87 R 0 -59 R -29 -87 R
-58 -59 R -59 -29 R -88 0 R -58 29 R -58 59 R D 11906 6109 M -58 -29 R
-58 -59 R -30 -87 R 0 -59 R 30 -87 R 58 -59 R 58 -29 R 88 0 R 59 29 R
58 59 R 29 87 R 0 59 R -29 87 R -58 59 R -59 29 R -88 0 R D 12345 6313 M
0 -613 R D 633 5550 M -26 -13 R -26 -26 R -12 -25 R -13 -39 R 0 -64 R
13 -39 R 12 -25 R 26 -26 R 26 -13 R 51 0 R 26 13 R 26 26 R 12 25 R 13 39 R
0 64 R -13 39 R -12 25 R -26 26 R -26 13 R -51 0 R D 993 5421 M -26 26 R
-26 13 R -38 0 R -26 -13 R -26 -26 R -13 -38 R 0 -26 R 13 -38 R 26 -26 R
26 -13 R 38 0 R 26 13 R 26 26 R D 1095 5550 M 0 -219 R 13 -38 R 26 -13 R
26 0 R D 1057 5460 M 90 0 R D 1378 5460 M 0 -180 R D 1378 5421 M -25 26 R
-26 13 R -39 0 R -25 -13 R -26 -26 R -13 -38 R 0 -26 R 13 -38 R 26 -26 R
25 -13 R 39 0 R 26 13 R 25 26 R D 1481 5550 M 0 -270 R D 540 5220 M
0 -5040 R D 1879 5550 M -39 -13 R -26 -39 R -12 -64 R 0 -38 R 12 -65 R
26 -38 R 39 -13 R 25 0 R 39 13 R 26 38 R 13 65 R 0 38 R -13 64 R -26 39 R
-39 13 R -25 0 R D 2136 5550 M -39 -13 R -26 -39 R -12 -64 R 0 -38 R
12 -65 R 26 -38 R 39 -13 R 25 0 R 39 13 R 26 38 R 13 65 R 0 38 R -13 64 R
-26 39 R -39 13 R -25 0 R D 1535 5220 M 0 -5040 R D 2874 5550 M -39 -13 R
-25 -39 R -13 -64 R 0 -38 R 13 -65 R 25 -38 R 39 -13 R 26 0 R 38 13 R
26 38 R 13 65 R 0 38 R -13 64 R -26 39 R -38 13 R -26 0 R D 3092 5498 M
26 13 R 39 39 R 0 -270 R D 2531 5220 M 0 -5040 R D 3869 5550 M -38 -13 R
-26 -39 R -13 -64 R 0 -38 R 13 -65 R 26 -38 R 38 -13 R 26 0 R 39 13 R
25 38 R 13 65 R 0 38 R -13 64 R -25 39 R -39 13 R -26 0 R D 4062 5486 M
0 12 R 13 26 R 13 13 R 25 13 R 52 0 R 26 -13 R 12 -13 R 13 -26 R 0 -25 R
-13 -26 R -25 -38 R -129 -129 R 180 0 R D 3526 5220 M 0 -5040 R D
4865 5550 M -39 -13 R -26 -39 R -13 -64 R 0 -38 R 13 -65 R 26 -38 R 39 -13 R
25 0 R 39 13 R 26 38 R 12 65 R 0 38 R -12 64 R -26 39 R -39 13 R -25 0 R D
5070 5550 M 142 0 R -78 -103 R 39 0 R 26 -13 R 13 -13 R 12 -38 R 0 -26 R
-12 -38 R -26 -26 R -39 -13 R -38 0 R -39 13 R -13 13 R -12 25 R D
4521 5220 M 0 -5040 R D 5860 5550 M -39 -13 R -25 -39 R -13 -64 R 0 -38 R
13 -65 R 25 -38 R 39 -13 R 26 0 R 38 13 R 26 38 R 13 65 R 0 38 R -13 64 R
-26 39 R -38 13 R -26 0 R D 6168 5550 M -128 -180 R 193 0 R D 6168 5550 M
0 -270 R D 5516 5220 M 0 -5040 R D 6855 5550 M -38 -13 R -26 -39 R -13 -64 R
0 -38 R 13 -65 R 26 -38 R 38 -13 R 26 0 R 38 13 R 26 38 R 13 65 R 0 38 R
-13 64 R -26 39 R -38 13 R -26 0 R D 7189 5550 M -128 0 R -13 -116 R 13 13 R
38 13 R 39 0 R 38 -13 R 26 -26 R 13 -38 R 0 -26 R -13 -38 R -26 -26 R
-38 -13 R -39 0 R -38 13 R -13 13 R -13 25 R D 6512 5220 M 0 -5040 R D
7850 5550 M -38 -13 R -26 -39 R -13 -64 R 0 -38 R 13 -65 R 26 -38 R 38 -13 R
26 0 R 39 13 R 25 38 R 13 65 R 0 38 R -13 64 R -25 39 R -39 13 R -26 0 R D
8197 5511 M -12 26 R -39 13 R -26 0 R -38 -13 R -26 -39 R -13 -64 R 0 -64 R
13 -51 R 26 -26 R 38 -13 R 13 0 R 39 13 R 25 26 R 13 38 R 0 13 R -13 39 R
-25 25 R -39 13 R -13 0 R -38 -13 R -26 -25 R -13 -39 R D 7507 5220 M
0 -5040 R D 8846 5550 M -39 -13 R -25 -39 R -13 -64 R 0 -38 R 13 -65 R
25 -38 R 39 -13 R 25 0 R 39 13 R 26 38 R 13 65 R 0 38 R -13 64 R -26 39 R
-39 13 R -25 0 R D 9206 5550 M -129 -270 R D 9026 5550 M 180 0 R D
8502 5220 M 0 -5040 R D 9803 5498 M 25 13 R 39 39 R 0 -270 R D 10098 5550 M
-38 -13 R -26 -39 R -13 -64 R 0 -38 R 13 -65 R 26 -38 R 38 -13 R 26 0 R
38 13 R 26 38 R 13 65 R 0 38 R -13 64 R -26 39 R -38 13 R -26 0 R D
9498 5220 M 0 -5040 R D 10798 5498 M 26 13 R 38 39 R 0 -270 R D 11055 5498 M
26 13 R 38 39 R 0 -270 R D 10493 5220 M 0 -5040 R D 11793 5498 M 26 13 R
38 39 R 0 -270 R D 12024 5486 M 0 12 R 13 26 R 13 13 R 26 13 R 51 0 R
26 -13 R 13 -13 R 13 -26 R 0 -25 R -13 -26 R -26 -38 R -128 -129 R 180 0 R D
11488 5220 M 0 -5040 R D 12788 5498 M 26 13 R 39 39 R 0 -270 R D
13033 5550 M 141 0 R -77 -103 R 38 0 R 26 -13 R 13 -13 R 13 -38 R 0 -26 R
-13 -38 R -26 -26 R -38 -13 R -39 0 R -38 13 R -13 13 R -13 25 R D
12484 5220 M 0 -5040 R D 13784 5498 M 25 13 R 39 39 R 0 -270 R D
14131 5550 M -129 -180 R 193 0 R D 14131 5550 M 0 -270 R D 13479 5220 M
0 -5040 R D 14779 5498 M 26 13 R 38 39 R 0 -270 R D 15152 5550 M -129 0 R
-13 -116 R 13 13 R 39 13 R 38 0 R 39 -13 R 26 -26 R 12 -38 R 0 -26 R
-12 -38 R -26 -26 R -39 -13 R -38 0 R -39 13 R -13 13 R -13 25 R D
14474 5220 M 0 -5040 R D 15774 5498 M 26 13 R 39 39 R 0 -270 R D
16160 5511 M -13 26 R -39 13 R -25 0 R -39 -13 R -26 -39 R -12 -64 R 0 -64 R
12 -51 R 26 -26 R 39 -13 R 13 0 R 38 13 R 26 26 R 13 38 R 0 13 R -13 39 R
-26 25 R -38 13 R -13 0 R -39 -13 R -26 -25 R -12 -39 R D 15469 5220 M
0 -5040 R D 16770 5498 M 25 13 R 39 39 R 0 -270 R D 17168 5550 M -129 -270 R
D 16988 5550 M 180 0 R D 16465 5220 M 0 -5040 R D 17460 5220 M 0 -5040 R D
540 5220 M 16920 0 R D 540 4380 M 16920 0 R D 774 4818 M -38 -13 R -26 -39 R
-13 -64 R 0 -38 R 13 -65 R 26 -38 R 38 -13 R 26 0 R 38 13 R 26 38 R 13 65 R
0 38 R -13 64 R -26 39 R -38 13 R -26 0 R D 1083 4818 M -129 -180 R 193 0 R
D 1083 4818 M 0 -270 R D 1211 4728 M 142 -180 R D 1353 4728 M -142 -180 R D
3029 5048 M 0 -748 R D 4024 4954 M -23 -163 R 47 163 R D 4211 4954 M
-23 -163 R 47 163 R D 5020 5048 M 0 -585 R D 5160 5048 M 0 -585 R D
6272 4674 M 47 -70 R 23 -24 R 47 -23 R 47 0 R 46 23 R 24 24 R 23 46 R 0 47 R
-23 47 R -24 23 R -46 24 R -47 0 R -47 -24 R -23 -23 R -94 -140 R -23 -24 R
-47 -23 R -47 0 R -46 23 R -24 24 R -23 46 R 0 47 R 23 47 R 24 23 R 46 24 R
47 0 R 47 -24 R 23 -23 R 47 -70 R D 7057 4954 M -47 -23 R -23 -47 R 0 -47 R
23 -46 R 47 -24 R 47 0 R 46 24 R 24 46 R 0 47 R -24 47 R -46 23 R -47 0 R D
8169 4884 M -23 -23 R 23 -24 R 23 24 R 0 23 R -23 47 R -47 23 R -46 0 R
-47 -23 R -23 -47 R 0 -47 R 23 -46 R 47 -47 R 116 -70 R D 8029 4791 M
117 -71 R 46 -46 R 24 -47 R 0 -47 R -24 -47 R -46 -46 R D 8052 4767 M
-46 -47 R -24 -46 R 0 -47 R 24 -47 R 46 -47 R 117 -70 R D 8006 4580 M
116 -70 R 47 -47 R 23 -46 R 0 -47 R -23 -47 R -47 -23 R -46 0 R -47 23 R
-23 47 R 0 23 R 23 24 R 23 -24 R -23 -23 R D 9001 4954 M -24 -163 R 47 163 R
D 10253 5585 M -70 -140 R -70 -164 R -47 -117 R -23 -93 R -24 -117 R
-23 -187 R 0 -187 R 23 -187 R 24 -117 R 23 -93 R 47 -117 R 70 -163 R
70 -141 R D 10183 5445 M -47 -117 R -46 -140 R -24 -94 R -23 -140 R
-24 -187 R 0 -187 R 24 -187 R 23 -140 R 24 -93 R 46 -141 R 47 -116 R D
10968 5585 M 70 -140 R 70 -164 R 47 -117 R 23 -93 R 24 -117 R 23 -187 R
0 -187 R -23 -187 R -24 -117 R -23 -93 R -47 -117 R -70 -163 R -70 -141 R D
11038 5445 M 47 -117 R 47 -140 R 23 -94 R 23 -140 R 24 -187 R 0 -187 R
-24 -187 R -23 -140 R -23 -93 R -47 -141 R -47 -116 R D 11940 4744 M
93 -140 R D 12033 4744 M -93 -140 R D 11893 4674 M 187 0 R D 13169 4861 M
0 -398 R D 12982 4674 M 374 0 R D 12982 4463 M 374 0 R D 14024 4674 M
-23 -24 R -24 0 R -23 24 R 0 23 R 23 23 R 24 0 R 23 -23 R 0 -47 R -23 -46 R
-24 -24 R D 13977 4697 M 0 -23 R 24 0 R 0 23 R -24 0 R D 15160 4861 M
0 -398 R D 14973 4861 M 373 0 R D 14973 4674 M 373 0 R D 15898 4720 M
-24 -23 R 0 -47 R 24 -23 R 47 0 R 23 23 R 0 47 R -23 23 R -47 0 R D
15921 4697 M -23 -23 R 23 -24 R 24 24 R -24 23 R D 17173 4884 M -23 -23 R
23 -24 R 24 24 R -24 23 R D 16963 4674 M 421 0 R D 17173 4510 M -23 -23 R
23 -24 R 24 24 R -24 23 R D 540 3540 M 16920 0 R D 774 3978 M -38 -13 R
-26 -39 R -13 -64 R 0 -38 R 13 -65 R 26 -38 R 38 -13 R 26 0 R 38 13 R
26 38 R 13 65 R 0 38 R -13 64 R -26 39 R -38 13 R -26 0 R D 1121 3939 M
-13 26 R -38 13 R -26 0 R -38 -13 R -26 -39 R -13 -64 R 0 -64 R 13 -51 R
26 -26 R 38 -13 R 13 0 R 38 13 R 26 26 R 13 38 R 0 13 R -13 39 R -26 25 R
-38 13 R -13 0 R -38 -13 R -26 -25 R -13 -39 R D 1211 3888 M 142 -180 R D
1353 3888 M -142 -180 R D 2408 4021 M -164 0 R -93 -24 R -47 -23 R -47 -47 R
-23 -70 R 0 -47 R 23 -70 R 47 -47 R 47 -23 R 93 -23 R 164 0 R D 3029 4021 M
0 -164 R 23 -93 R 24 -47 R 47 -47 R 70 -23 R 46 0 R 70 23 R 47 47 R 24 47 R
23 93 R 0 164 R D 4024 4021 M 164 0 R 93 -24 R 47 -23 R 47 -47 R 23 -70 R
0 -47 R -23 -70 R -47 -47 R -47 -23 R -93 -23 R -164 0 R D 5020 3647 M
0 163 R 23 94 R 23 47 R 47 46 R 70 24 R 47 0 R 70 -24 R 47 -46 R 23 -47 R
24 -94 R 0 -163 R D 6085 3880 M -70 -46 R 70 -47 R D 6155 3951 M -117 -117 R
117 -117 R D 6038 3834 M 398 0 R D 7057 3693 M 47 -70 R 46 70 R D
6987 3764 M 117 -117 R 117 117 R D 7104 4044 M 0 -397 R D 8356 3880 M
70 -46 R -70 -47 R D 8286 3951 M 117 -117 R -117 -117 R D 8006 3834 M
397 0 R D 9048 3974 M 46 70 R 47 -70 R D 8977 3904 M 117 117 R 117 -117 R D
9094 4021 M 0 -398 R D 11987 3951 M 420 0 R D 11987 3834 M 420 0 R D
11987 3717 M 420 0 R D 14188 4745 M -94 -140 R -47 -94 R -23 -116 R 0 -94 R
23 -117 R 47 -93 R 94 -140 R D 14141 4675 M -47 -94 R -23 -70 R -24 -116 R
0 -94 R 24 -117 R 23 -70 R 47 -93 R D 14188 3951 M -117 -117 R 117 -117 R
-94 -140 R -47 -94 R -23 -117 R 0 -93 R 23 -117 R 47 -93 R 94 -141 R D
14141 3647 M -47 -94 R -23 -70 R -24 -117 R 0 -93 R 24 -117 R 23 -70 R
47 -94 R D 15346 4044 M -327 -421 R D 14973 3904 M 420 0 R D 14973 3764 M
420 0 R D 15991 4745 M 94 -140 R 46 -94 R 24 -116 R 0 -94 R -24 -117 R
-46 -93 R -94 -140 R D 16038 4675 M 47 -94 R 23 -70 R 23 -116 R 0 -94 R
-23 -117 R -23 -70 R -47 -93 R D 15991 3951 M 117 -117 R -117 -117 R
94 -140 R 46 -94 R 24 -117 R 0 -93 R -24 -117 R -46 -93 R -94 -141 R D
16038 3647 M 47 -94 R 23 -70 R 23 -117 R 0 -93 R -23 -117 R -23 -70 R
-47 -94 R D 17360 3717 M -46 0 R -47 23 R -47 47 R -70 93 R -23 24 R
-47 23 R -47 0 R -46 -23 R -24 -47 R 0 -47 R 24 -46 R 46 -24 R 47 0 R
47 24 R 23 23 R 70 93 R 47 47 R 47 24 R 46 0 R D 540 2700 M 16920 0 R D
736 3086 M 25 13 R 39 39 R 0 -270 R D 1031 3138 M -38 -13 R -26 -39 R
-13 -64 R 0 -38 R 13 -65 R 26 -38 R 38 -13 R 26 0 R 38 13 R 26 38 R 13 65 R
0 38 R -13 64 R -26 39 R -38 13 R -26 0 R D 1211 3048 M 142 -180 R D
1353 3048 M -142 -180 R D 2010 3204 M 24 -47 R 280 -280 R 24 -47 R 0 -47 R D
2034 3134 M 280 -281 R D 2010 3204 M 0 -47 R 24 -46 R 280 -281 R 24 -47 R D
2127 3040 M -93 -93 R -24 -47 R 0 -47 R 24 -46 R -24 -24 R D 2010 2900 M
47 -93 R D 2034 2947 M 0 -47 R 23 -47 R 0 -46 R -47 -24 R D 2197 2970 M
117 117 R D 2267 3204 M 0 -70 R 24 -47 R 47 0 R 0 47 R -47 23 R -24 47 R
24 -70 R 47 -47 R D 3006 2924 M 0 46 R 23 70 R 47 24 R 47 0 R 46 -24 R
94 -70 R 46 -23 R 47 0 R 47 23 R 23 47 R D 3006 2970 M 23 47 R 47 23 R
47 0 R 46 -23 R 94 -70 R 46 -23 R 47 0 R 47 23 R 23 70 R 0 47 R D
3978 2760 M 0 467 R 444 0 R 0 -467 R -444 0 R D 4939 2949 M 150 -171 R
13 26 R 13 26 R 26 44 R 27 31 R 39 53 R 35 35 R 44 39 R 40 36 R 40 26 R
30 17 R 35 22 R 14 5 R -27 39 R -48 -26 R -62 -40 R -52 -43 R -57 -49 R
-36 -39 R -35 -40 R -26 -39 R -18 -31 R -105 118 R -40 -39 R D 4948 2949 M
141 -158 R 4 9 R -136 153 R 4 9 R 137 -154 R 4 9 R -136 149 R 9 5 R
131 -145 R 5 9 R -132 140 R D 5089 2870 M 22 35 R 22 31 R 70 79 R 110 92 R
105 66 R 0 -9 R -101 -61 R -110 -93 R -70 -74 R -44 -71 R 5 -4 R 43 70 R
71 75 R 110 92 R 101 62 R 4 -5 R -101 -61 R -105 -88 R -75 -79 R -44 -70 R
4 -5 R 44 71 R 71 79 R 109 87 R 97 62 R 4 -4 R -96 -62 R -110 -88 R
-70 -79 R -44 -70 R 4 0 R 44 66 R 66 79 R 110 88 R 101 57 R D 5150 2892 M
53 66 R 66 66 R -44 -36 R D 6272 2994 M -23 70 R -24 23 R -46 24 R -47 0 R
-70 -24 R -47 -70 R -23 -70 R 0 -70 R 23 -47 R 23 -23 R 47 -24 R 47 0 R
70 24 R 47 46 R 23 71 R 23 116 R 0 117 R -23 70 R -23 24 R -47 23 R -70 0 R
-47 -23 R -23 -24 R 0 -23 R 23 0 R 0 23 R D 6132 3111 M -47 -24 R -47 -70 R
-23 -70 R 0 -94 R 23 -46 R D 6132 2783 M 47 24 R 46 46 R 24 71 R 23 116 R
0 117 R -23 70 R -47 47 R D 7267 3274 M 0 -491 R D 6964 3274 M 303 0 R D
7080 3040 M 187 0 R D 6964 2783 M 303 0 R D 8286 3227 M -23 -46 R -47 -117 R
-47 -140 R -23 -47 R -47 -70 R -47 -24 R D 8146 3134 M -24 -47 R -46 -23 R
-47 0 R -23 47 R 0 46 R 23 47 R 47 47 R 70 23 R 233 0 R -70 -23 R -23 -24 R
-23 -70 R -47 -187 R -24 -70 R -23 -47 R -47 -46 R -70 -24 R -46 0 R
-47 24 R -24 23 R 0 23 R 24 24 R 23 -24 R -23 -23 R D 8192 3274 M 94 -23 R
23 0 R D 8099 2970 M 23 24 R 47 23 R 94 0 R 46 23 R 47 71 R -47 -164 R D
8954 3274 M 187 -491 R D 8977 3274 M 164 -444 R D 9328 3274 M -187 -491 R D
8954 3274 M 374 0 R D 8977 3251 M 328 0 R D 9903 3391 M -47 -47 R -70 -23 R
-70 0 R -70 23 R -47 47 R -164 -164 R 47 -46 R 23 -70 R 0 -304 R 24 -70 R
46 -47 R 71 -23 R 140 0 R 70 -24 R 47 -47 R D 9903 3391 M 46 -47 R 70 -23 R
71 0 R 70 23 R 46 47 R 164 -164 R -47 -46 R -23 -70 R 0 -304 R -23 -70 R
-47 -47 R -70 -23 R -141 0 R -70 -24 R -46 -47 R D 11506 3835 M -24 0 R
-23 -23 R 0 -24 R 23 -23 R 24 0 R 23 23 R 0 47 R -23 47 R -47 23 R -47 0 R
-47 -23 R -46 -47 R -24 -47 R -23 -70 R -24 -163 R -23 -374 R 0 -748 R
-23 -210 R -24 -71 R D 11482 3812 M 0 -24 R 24 0 R 0 24 R -24 0 R D
11248 3555 M 0 -1122 R D 11319 3835 M -24 -70 R -23 -210 R 0 -748 R
-24 -374 R -23 -164 R -23 -70 R -24 -47 R -46 -46 R -47 -24 R -47 0 R
-47 24 R -23 46 R 0 47 R 23 24 R 24 0 R 23 -24 R 0 -23 R -23 -24 R -24 0 R D
10991 2199 M 0 -23 R 24 0 R 0 23 R -24 0 R D 12384 3344 M -23 -23 R 23 -24 R
23 24 R 0 23 R -23 24 R -47 0 R -47 -24 R -46 -47 R -24 -46 R -23 -70 R
-23 -94 R -47 -280 R -23 -94 R -24 -46 R D 12267 3321 M -23 -47 R -24 -93 R
-46 -281 R -24 -93 R -23 -70 R -23 -47 R -47 -47 R -47 -23 R -47 0 R
-23 23 R 0 24 R 23 23 R 24 -23 R -24 -24 R D 12150 3157 M -70 -23 R
-47 -47 R -23 -70 R 0 -47 R 23 -70 R 47 -47 R 70 -23 R 47 0 R 70 23 R
47 47 R 23 70 R 0 47 R -23 70 R -47 47 R -70 23 R -47 0 R D 15945 3064 M
70 70 R 93 -47 R D 15991 3111 M 94 -47 R 70 70 R 70 -47 R D 16131 3111 M
71 -47 R 70 70 R 46 -47 R D 16248 3111 M 47 -47 R 70 70 R D 15945 2924 M
70 70 R 93 -47 R D 15991 2970 M 94 -46 R 70 70 R 70 -47 R D 16131 2970 M
71 -46 R 70 70 R 46 -47 R D 16248 2970 M 47 -46 R 70 70 R D 17057 3274 M
-24 -47 R 24 -46 R 23 46 R -23 47 R 0 -654 R D 17057 3017 M -24 -70 R
24 -327 R 23 327 R -23 70 R D 16916 3111 M 47 -24 R 47 24 R -47 23 R
-47 -23 R 281 0 R D 17103 3111 M 47 -24 R 47 24 R -47 23 R -47 -23 R D
540 1860 M 16920 0 R D 736 2246 M 25 13 R 39 39 R 0 -270 R D 967 2234 M
0 12 R 13 26 R 13 13 R 25 13 R 52 0 R 25 -13 R 13 -13 R 13 -26 R 0 -25 R
-13 -26 R -25 -38 R -129 -129 R 180 0 R D 1211 2208 M 142 -180 R D
1353 2208 M -142 -180 R D 2127 2247 M -46 -23 R -47 -47 R -24 -70 R 0 -70 R
24 -47 R 23 -23 R 47 -24 R 70 0 R 70 24 R 70 46 R 47 71 R 23 70 R 0 70 R
-46 47 R -47 0 R -47 -47 R -47 -94 R -46 -117 R -70 -233 R D 2010 2037 M
47 -47 R 47 -23 R 70 0 R 70 23 R 70 47 R 47 47 R D 2384 2224 M -46 23 R
-47 0 R -47 -47 R -47 -70 R -46 -140 R -47 -210 R D 4001 2154 M 164 0 R
397 -678 R D 4141 2154 M 397 -678 R D 4118 2154 M 444 -748 R D 4749 3275 M
-94 -934 R -93 -935 R D 4996 2271 M 94 0 R 140 -281 R D 5066 2271 M
164 -328 R 210 585 R D 6225 2364 M -23 -23 R 23 -24 R 24 24 R -24 23 R D
6015 1990 M -23 -23 R 23 -24 R 23 24 R -23 23 R D 6436 1990 M -24 -23 R
24 -24 R 23 24 R -23 23 R D 7197 2387 M -93 -93 R -70 -94 R -24 -70 R
0 -46 R 24 -47 R 46 -24 R 47 0 R 47 24 R 23 47 R D 7197 2387 M 94 -93 R
70 -94 R 23 -70 R 0 -46 R -23 -47 R -47 -24 R -47 0 R -46 24 R -24 47 R
-23 -94 R -24 -70 R D 7197 2084 M 24 -94 R 23 -70 R -94 0 R D 8192 2411 M
-46 -70 R -94 -117 R -70 -70 R D 8192 2411 M 47 -70 R 94 -117 R 70 -70 R D
7982 2154 M 70 -70 R 94 -117 R 46 -70 R D 8403 2154 M -70 -70 R -94 -117 R
-47 -70 R D 9188 2154 M 0 -211 R -24 -23 R 24 140 R D 9188 2364 M -24 23 R
-46 0 R -24 -23 R 0 -47 R 24 -70 R 70 -93 R D 9188 2364 M 23 23 R 47 0 R
23 -23 R 0 -47 R -23 -70 R -70 -93 R -94 70 R -46 23 R -47 0 R -24 -23 R
0 -47 R 24 -23 R D 9188 2154 M 93 70 R 47 23 R 47 0 R 23 -23 R 0 -47 R
-23 -23 R D 9188 2154 M -94 -70 R -46 -24 R -47 0 R -24 24 R 0 46 R 24 24 R
D 9188 2154 M 93 -70 R 47 -24 R 47 0 R 23 24 R 0 46 R -23 24 R D 9996 2317 M
327 -327 R D 10323 2317 M -327 -327 R D 12982 3065 M 0 -911 R 0 -912 R D
13005 3065 M 0 -911 R 0 -912 R D 12982 3065 M 257 0 R D 12982 1242 M 257 0 R
D 15183 3065 M 0 -911 R 0 -912 R D 15206 3065 M 0 -911 R 0 -912 R D
14949 3065 M 257 0 R D 14949 1242 M 257 0 R D 15945 2107 M 186 117 R
187 -117 R D 15945 2107 M 186 93 R 187 -93 R D 16987 2154 M 140 0 R D
17244 2154 M 140 0 R D 17501 2154 M 140 0 R D 540 1020 M 16920 0 R D
736 1406 M 25 13 R 39 39 R 0 -270 R D 1083 1458 M -129 -180 R 193 0 R D
1083 1458 M 0 -270 R D 1211 1368 M 142 -180 R D 1353 1368 M -142 -180 R D
2034 1594 M -24 -163 R 47 163 R D 3426 1688 M -420 -585 R 420 0 R D
4024 1594 M 374 -163 R -374 -164 R D 4024 1220 M 374 0 R D 4024 1103 M
374 0 R D 5464 1127 M 0 46 R -24 71 R -23 46 R -70 70 R -47 24 R -70 23 R
-94 0 R -70 -23 R -46 -24 R -24 -23 R 0 -47 R 24 -23 R 46 -23 R 70 -24 R
94 0 R 70 24 R 47 23 R 70 70 R 23 47 R 24 70 R 0 47 R D 6249 1244 M 0 70 R
-24 70 R -23 23 R -47 24 R -47 0 R -46 -24 R -47 -47 R -23 -70 R 0 -70 R
23 -70 R 23 -23 R 47 -24 R 47 0 R 47 24 R 46 46 R 24 71 R 23 116 R 0 117 R
-23 70 R -24 24 R -46 23 R -47 0 R -47 -23 R -47 -47 R D 7384 1501 M
-163 0 R -94 -24 R -47 -23 R -46 -47 R -24 -70 R 0 -47 R 24 -70 R 46 -47 R
47 -23 R 94 -23 R 163 0 R D 7010 1314 M 281 0 R D 8122 1594 M -70 -23 R
-46 -47 R -24 -70 R 0 -23 R 24 -71 R 46 -46 R 70 -24 R 24 0 R 70 24 R
47 46 R 23 71 R 0 23 R -23 70 R -47 47 R -70 23 R -24 0 R D 8122 1290 M
0 -187 R D 8146 1290 M 0 -187 R D 8029 1197 M 210 0 R D 9903 1711 M
-47 -47 R -70 -23 R -70 0 R -70 23 R -47 47 R -70 -140 R -24 -94 R 0 -117 R
24 -93 R 46 -94 R 71 -93 R 116 -93 R 141 -71 R D 9903 1711 M 46 -47 R
70 -23 R 71 0 R 70 23 R 46 47 R 71 -140 R 23 -94 R 0 -117 R -23 -93 R
-47 -94 R -70 -93 R -117 -93 R -140 -71 R D 9529 1547 M 748 0 R D
11389 1664 M -24 -23 R 24 -24 R 23 24 R 0 23 R -23 24 R -47 0 R -47 -24 R
-47 -47 R -23 -46 R -23 -70 R -24 -94 R -46 -280 R -24 -94 R -23 -46 R D
11272 1641 M -24 -47 R -23 -93 R -47 -281 R -23 -93 R -23 -70 R -24 -47 R
-46 -47 R -47 -23 R -47 0 R -23 23 R 0 24 R 23 23 R 23 -23 R -23 -24 R D
12057 1454 M -24 -23 R 24 -24 R 23 24 R -23 23 R D 12010 1314 M -140 -421 R
D 12033 1314 M -70 -211 R -46 -116 R -47 -94 R -24 -47 R -46 -23 R -24 23 R
0 47 R 24 70 R 46 47 R 71 47 R 93 46 R 70 47 R 47 70 R D 14351 1594 M
-374 -163 R 374 -164 R D 13977 1220 M 374 0 R D 13977 1103 M 374 0 R D
15089 1431 M -70 -24 R -46 -47 R -24 -70 R 0 -23 R 24 -70 R 46 -47 R
70 -23 R 24 0 R 70 23 R 47 47 R 23 70 R 0 23 R -23 70 R -47 47 R -70 24 R
-24 0 R D 15393 1571 M -140 0 R 93 -24 R -140 -140 R D 15393 1571 M 0 -140 R
-23 93 R -140 -140 R D 15370 1547 M -140 -140 R D 16155 1594 M -70 -23 R
-70 -47 R -47 -70 R -23 -70 R 0 -70 R 23 -70 R 47 -71 R 70 -46 R 70 -24 R
70 0 R 70 24 R 70 46 R 47 71 R 23 70 R 0 70 R -23 70 R -47 70 R -70 47 R
-70 23 R -70 0 R D 16178 1384 M -23 -24 R 0 -23 R 23 -23 R 24 0 R 23 23 R
0 23 R -23 24 R -24 0 R D 16178 1360 M 0 -23 R 24 0 R 0 23 R -24 0 R D
17057 1594 M -24 -47 R 24 -46 R 23 46 R -23 47 R 0 -327 R D 17057 1360 M
-24 -46 R 47 -94 R -23 -47 R -24 47 R 47 94 R -23 46 R D 17057 1267 M
0 -327 R D 17057 1033 M -24 -46 R 24 -47 R 23 47 R -23 46 R D 16916 1431 M
47 -24 R 47 24 R -47 23 R -47 -23 R 281 0 R D 17103 1431 M 47 -24 R 47 24 R
-47 23 R -47 -23 R D 16916 1103 M 47 -23 R 47 23 R -47 24 R -47 -24 R
281 0 R D 17103 1103 M 47 -23 R 47 23 R -47 24 R -47 -24 R D 540 180 M
16920 0 R D 736 566 M 25 13 R 39 39 R 0 -270 R D 1121 579 M -13 26 R
-38 13 R -26 0 R -38 -13 R -26 -39 R -13 -64 R 0 -64 R 13 -51 R 26 -26 R
38 -13 R 13 0 R 38 13 R 26 26 R 13 38 R 0 13 R -13 39 R -26 25 R -38 13 R
-13 0 R -38 -13 R -26 -25 R -13 -39 R D 1211 528 M 142 -180 R D 1353 528 M
-142 -180 R D 1987 380 M 47 70 R 23 47 R -23 -93 R -140 -420 R D 2034 404 M
23 46 R 47 24 R 47 0 R 46 -24 R 24 -46 R 0 -47 R -24 -47 R -23 -23 R
-47 -24 R D 2034 287 M 47 -24 R 70 0 R 70 24 R 46 23 R 71 70 R D 3216 404 M
-23 46 R -47 24 R -47 0 R -47 -24 R -23 -23 R -23 -47 R 0 -47 R 23 -46 R
47 -24 R 47 0 R 46 24 R D 3239 474 M -23 -70 R -47 -117 R -70 -164 R
-23 -70 R 0 -47 R 23 -22 R 47 22 R 23 70 R 0 164 R 47 23 R 70 47 R 70 70 R D
4001 591 M 117 0 R 210 -281 R D 4094 567 M 234 -304 R 374 772 R D 5183 591 M
47 -24 R 47 -47 R 0 24 R -24 23 R -70 24 R -70 0 R -70 -24 R -23 -23 R
-24 -47 R 0 -47 R 24 -46 R 46 -47 R 94 -70 R D 5113 591 M -47 -24 R
-23 -23 R -23 -47 R 0 -47 R 23 -46 R 117 -117 R 23 -47 R 0 -47 R -23 -23 R
-47 0 R D 5945 497 M 23 47 R 47 47 R 70 0 R 23 -24 R 0 -47 R -23 -116 R
0 -71 R 23 -46 R 24 -24 R D 6062 591 M 23 -24 R 0 -47 R -23 -116 R 0 -71 R
23 -46 R 47 -24 R 47 0 R 46 24 R 47 46 R 47 71 R 23 70 R 23 117 R 0 93 R
-23 47 R -47 23 R -46 0 R -47 -47 R 0 -46 R 23 -70 R 47 -71 R 47 -46 R
70 -47 R D 6225 287 M 47 70 R 23 47 R 24 70 R 23 117 R 0 93 R -23 47 R
-24 23 R D 7197 567 M -23 70 R -24 47 R -46 23 R -24 0 R -46 -23 R -24 -47 R
0 -93 R 24 -70 R 23 -47 R 47 -70 R 93 -117 R D 7197 567 M 24 70 R 23 47 R
47 23 R 23 0 R 47 -23 R 23 -47 R 0 -93 R -23 -70 R -24 -47 R -46 -70 R
-94 -117 R D 8192 427 M 47 -70 R 47 -24 R 47 0 R 46 24 R 24 47 R 0 46 R
-24 47 R -46 23 R -47 0 R -70 -23 R 47 47 R 23 47 R 0 46 R -23 47 R -47 23 R
-47 0 R -47 -23 R -23 -47 R 0 -46 R 23 -47 R 47 -47 R -70 23 R -47 0 R
-46 -23 R -24 -47 R 0 -46 R 24 -47 R 46 -24 R 47 0 R 47 24 R 46 70 R
-23 -117 R -23 -70 R D 8192 427 M 24 -117 R 23 -70 R -93 0 R D 8977 450 M
24 0 R 47 -23 R 23 -47 R 0 -47 R -23 -46 R D 8977 450 M 0 24 R 24 23 R
47 0 R 23 -23 R 23 -47 R 0 -70 R -23 -47 R -23 -23 R D 9188 731 M -47 -47 R
-23 -70 R 0 -70 R 46 -140 R 0 -71 R -23 -46 R 47 -47 R D 9188 731 M 47 -47 R
23 -70 R 0 -70 R -47 -140 R 0 -71 R 24 -46 R -47 -47 R D 9398 450 M 0 24 R
-23 23 R -47 0 R -23 -23 R -24 -47 R 0 -70 R 24 -47 R 23 -23 R D 9398 450 M
-23 0 R -47 -23 R -23 -47 R 0 -47 R 23 -46 R D 9024 380 M 327 0 R D
10183 848 M 0 -585 R D 9973 263 M 420 0 R D 12982 1385 M 0 -911 R 0 -911 R D
13005 1385 M 0 -911 R 0 -911 R D 12982 1385 M 257 0 R D 12982 -437 M 257 0 R
D 15183 1385 M 0 -911 R 0 -911 R D 15206 1385 M 0 -911 R 0 -911 R D
14949 1385 M 257 0 R D 14949 -437 M 257 0 R D 15945 427 M 186 117 R
187 -117 R D 15945 427 M 186