%!PS-Adobe-3.0 EPSF-3.0
%%BoundingBox: 0 0 425 340
%%Title: Graphics produced by IDL
%%For: jlgan@aida119, /home/jlgan/work/subhalo_model
%%Creator: IDL Version 7.1 (linux x86_64 m64)
%%CreationDate: Thu Aug 13 12:08:23 2009
%%DocumentData: Clean7bit
%%Requirements: color
%%LanguageLevel: 1
%%PageOrder: Ascend
%%Pages: (atend)
%%DocumentNeededResources: (atend)
%%EndComments
%%BeginProlog
%+ prolog.ps -- Prolog for IDL generated PostScript files
%+ Copyright (c) 1988-2009 ITT Visual Information Solutions. All Rights Reserved.
%v 5
/$IDL_DICT 40 dict def $IDL_DICT begin /bdef { bind def } bind def /C
{currentpoint newpath moveto} bdef /CP {currentpoint} bdef /D {currentpoint
stroke moveto} bdef /F {closepath fill} bdef /K { setgray } bdef /M {moveto}
bdef /N {rmoveto} bdef /P {lineto} bdef /R {rlineto} bdef /S {gsave show
grestore} bdef /X {currentpoint pop} bdef /Z {gsave currentpoint lineto 20
setlinewidth 1 setlinecap stroke grestore} bdef /L0 {[] 0 setdash} bdef /L1
{[40 100] 0 setdash} bdef /L2 {[200 200] 0 setdash} bdef /L3 {[200 100 50
100] 0 setdash} bdef /L4 {[300 100 50 100 50 100 50 100] 0 setdash} bdef /L5
{[400 200] 0 setdash} bdef /STDFONT { findfont exch scalefont setfont } bdef
/ISOFONT { findfont dup length dict begin { 1 index /FID ne {def} {pop pop}
ifelse } forall /Encoding ISOLatin1Encoding def currentdict end /idltmpfont
exch definefont exch scalefont setfont } bdef /ISOBULLET { gsave /Helvetica
findfont exch scalefont setfont (\267) show currentpoint grestore moveto}
bdef /MITERLIMIT { 2.5 setmiterlimit } bdef end
%%EndProlog
%%Page: 0 1
%%PageRequirements: color
%%PageResources: (atend)
%%PageOrientation: Portrait
%%PageBoundingBox: 0 0 425 340
%%BeginPageSetup
$IDL_DICT begin 0.0283465 dup scale MITERLIMIT
%%IncludeResource: font Helvetica
423.333 /Helvetica STDFONT
%%EndPageSetup
40 setlinewidth L0 0.000 0.000 0.000 setrgbcolor 2664 1690 M 11537 0 R D
5168 1690 M 0 378 R D gsave 5168 929 translate 0 0 M 1.44 dup scale
-235.373 0 N
(20) show grestore 7674 1690 M 0 378 R D gsave 7674 929 translate 0 0 M
1.44 dup scale -235.373 0 N
(40) show grestore 10179 1690 M 0 378 R D gsave 10179 929 translate 0 0 M
1.44 dup scale -235.373 0 N
(60) show grestore 12685 1690 M 0 378 R D gsave 12685 929 translate 0 0 M
1.44 dup scale -235.373 0 N
(80) show grestore 3289 1690 M 0 189 R D 3916 1690 M 0 189 R D 4542 1690 M
0 189 R D 5795 1690 M 0 189 R D 6421 1690 M 0 189 R D 7048 1690 M 0 189 R D
8300 1690 M 0 189 R D 8927 1690 M 0 189 R D 9553 1690 M 0 189 R D
10806 1690 M 0 189 R D 11432 1690 M 0 189 R D 12059 1690 M 0 189 R D
13311 1690 M 0 189 R D 13938 1690 M 0 189 R D 2664 11155 M 11537 0 R D
5168 11155 M 0 -378 R D 7674 11155 M 0 -378 R D 10179 11155 M 0 -378 R D
12685 11155 M 0 -378 R D 3289 11155 M 0 -189 R D 3916 11155 M 0 -189 R D
4542 11155 M 0 -189 R D 5795 11155 M 0 -189 R D 6421 11155 M 0 -189 R D
7048 11155 M 0 -189 R D 8300 11155 M 0 -189 R D 8927 11155 M 0 -189 R D
9553 11155 M 0 -189 R D 10806 11155 M 0 -189 R D 11432 11155 M 0 -189 R D
12059 11155 M 0 -189 R D 13311 11155 M 0 -189 R D 13938 11155 M 0 -189 R D
2664 1690 M 0 9465 R D 2664 3404 M 462 0 R D gsave 2504 3201 translate 0 0 M
1.44 dup scale -588.433 0 N
(0.2) show grestore 2664 5126 M 462 0 R D gsave 2504 4923 translate 0 0 M
1.44 dup scale -588.433 0 N
(0.4) show grestore 2664 6849 M 462 0 R D gsave 2504 6646 translate 0 0 M
1.44 dup scale -588.433 0 N
(0.6) show grestore 2664 8571 M 462 0 R D gsave 2504 8369 translate 0 0 M
1.44 dup scale -588.433 0 N
(0.8) show grestore 2664 10294 M 462 0 R D gsave 2504 10091 translate 0 0 M
1.44 dup scale -588.433 0 N
(1.0) show grestore 2664 2112 M 231 0 R D 2664 2542 M 231 0 R D 2664 2973 M
231 0 R D 2664 3834 M 231 0 R D 2664 4265 M 231 0 R D 2664 4696 M 231 0 R D
2664 5557 M 231 0 R D 2664 5988 M 231 0 R D 2664 6418 M 231 0 R D
2664 7279 M 231 0 R D 2664 7710 M 231 0 R D 2664 8141 M 231 0 R D
2664 9002 M 231 0 R D 2664 9433 M 231 0 R D 2664 9863 M 231 0 R D
2664 10725 M 231 0 R D 2664 11155 M 231 0 R D 14201 1690 M 0 9465 R D
14201 3404 M -462 0 R D 14201 5126 M -462 0 R D 14201 6849 M -462 0 R D
14201 8571 M -462 0 R D 14201 10294 M -462 0 R D 14201 2112 M -231 0 R D
14201 2542 M -231 0 R D 14201 2973 M -231 0 R D 14201 3834 M -231 0 R D
14201 4265 M -231 0 R D 14201 4696 M -231 0 R D 14201 5557 M -231 0 R D
14201 5988 M -231 0 R D 14201 6418 M -231 0 R D 14201 7279 M -231 0 R D
14201 7710 M -231 0 R D 14201 8141 M -231 0 R D 14201 9002 M -231 0 R D
14201 9433 M -231 0 R D 14201 9863 M -231 0 R D 14201 10725 M -231 0 R D
14201 11155 M -231 0 R D 2736 1689 M 9 3 R 10 2 R 10 3 R 10 3 R 11 4 R
12 4 R 12 5 R 12 5 R 13 6 R 14 6 R 14 8 R 15 8 R 16 8 R 17 10 R 17 11 R
18 11 R 19 13 R 20 14 R 20 15 R 22 16 R 23 18 R 23 19 R 25 20 R 26 23 R
27 24 R 29 25 R 29 28 R 31 30 R 33 31 R 34 34 R 36 37 R 37 38 R 39 41 R
41 44 R 42 46 R 45 49 R 47 52 R 49 55 R 51 57 R 54 61 R 56 65 R 58 67 R
62 71 R 64 74 R 67 78 R 70 81 R 74 85 R 77 89 R 81 92 R 84 96 R 88 100 R
92 104 R 97 108 R 101 112 R 106 115 R 110 120 R 116 124 R 121 127 R
127 132 R 133 135 R 139 139 R 145 144 R 152 147 R 159 151 R 166 155 R
174 159 R 183 162 R 190 166 R 200 170 R 209 173 R 218 177 R 229 180 R
239 184 R 250 187 R 262 191 R 274 194 R 287 196 R 300 200 R 313 203 R
329 206 R 344 209 R 359 211 R 377 215 R 393 217 R 413 219 R 431 222 R
451 225 R 472 226 R 494 229 R 516 231 R D 0.227 0.000 0.855 setrgbcolor
2835 1689 M 14 1 R 14 2 R 15 1 R 16 2 R 17 2 R 17 2 R 18 2 R 19 2 R 20 3 R
20 2 R 22 3 R 23 3 R 23 3 R 25 4 R 26 3 R 27 4 R 29 4 R 29 4 R 31 4 R 33 4 R
34 4 R 36 4 R 37 4 R 39 4 R 41 4 R 42 4 R 45 4 R 47 3 R 49 4 R 51 3 R 54 3 R
56 3 R 58 2 R 62 3 R 64 2 R 67 2 R 70 2 R 74 2 R 77 2 R 81 1 R 84 1 R 88 2 R
92 1 R 97 1 R 101 1 R 106 1 R 110 0 R 116 1 R 121 1 R 127 0 R 133 0 R
139 1 R 145 0 R 152 1 R 159 0 R 166 0 R 174 0 R 183 1 R 190 0 R 200 0 R
209 0 R 218 1 R 229 0 R 239 0 R 250 1 R 262 0 R 274 1 R 287 0 R 300 1 R
313 1 R 329 0 R 344 1 R 359 -5 R 377 0 R 393 0 R 413 0 R 431 0 R 451 1 R
472 0 R 494 0 R 516 0 R D 10 setlinewidth L1 2664 1767 M 6 0 R 6 0 R 6 0 R
7 0 R 7 0 R 7 0 R 8 0 R 8 0 R 8 0 R 9 0 R 9 0 R 10 0 R 10 0 R 10 0 R 11 0 R
12 0 R 12 0 R 12 0 R 13 0 R 14 0 R 14 0 R 15 0 R 16 0 R 17 0 R 17 0 R 18 0 R
19 0 R 20 0 R 20 0 R 22 0 R 23 0 R 23 0 R 25 0 R 26 0 R 27 0 R 29 0 R 29 0 R
31 0 R 33 0 R 34 0 R 36 0 R 37 0 R 39 0 R 41 0 R 42 0 R 45 0 R 47 0 R 49 0 R
51 0 R 54 0 R 56 0 R 58 0 R 62 0 R 64 0 R 67 0 R 70 0 R 74 0 R 77 0 R 81 0 R
84 0 R 88 0 R 92 0 R 97 0 R 101 0 R 106 0 R 110 0 R 116 0 R 121 0 R 127 0 R
133 0 R 139 0 R 145 0 R 152 0 R 159 0 R 166 0 R 174 0 R 183 0 R 190 0 R
200 0 R 209 0 R 218 0 R 229 0 R 239 0 R 250 0 R 262 0 R 274 0 R 287 0 R
300 0 R 313 0 R 329 0 R 344 0 R 359 0 R 377 0 R 393 0 R 413 0 R 431 0 R
451 0 R 472 0 R 494 0 R D 100 setlinewidth L2 2835 1689 M 14 1 R 14 2 R
15 1 R 16 2 R 17 2 R 17 2 R 18 2 R 19 2 R 20 3 R 20 2 R 22 3 R 23 3 R 23 3 R
25 4 R 26 3 R 27 4 R 29 4 R 29 4 R 31 4 R 33 4 R 34 4 R 36 4 R 37 4 R 39 4 R
41 4 R 42 4 R 45 4 R 47 3 R 49 4 R 51 3 R 54 3 R 56 3 R 58 2 R 62 3 R 64 2 R
67 2 R 70 2 R 74 2 R 77 2 R 81 1 R 84 1 R 88 2 R 92 1 R 97 1 R 101 1 R
106 1 R 110 0 R 116 1 R 121 1 R 127 0 R 133 1 R 139 0 R 145 0 R 152 1 R
159 0 R 166 0 R 174 1 R 183 0 R 190 0 R 200 0 R 209 0 R 218 0 R 229 1 R
239 0 R 250 0 R 262 0 R 274 0 R 287 0 R 300 0 R 313 0 R 329 0 R 344 0 R
359 0 R 377 0 R 393 0 R 413 0 R 431 0 R 451 0 R 472 0 R 494 0 R 516 0 R D
40 setlinewidth L0 0.000 0.082 1.000 setrgbcolor 2765 1689 M 10 1 R 11 2 R
12 2 R 12 3 R 12 2 R 13 3 R 14 3 R 14 4 R 15 4 R 16 4 R 17 5 R 17 5 R 18 5 R
19 6 R 20 7 R 20 7 R 22 8 R 23 8 R 23 9 R 25 9 R 26 10 R 27 10 R 29 12 R
29 11 R 31 12 R 33 13 R 34 13 R 36 14 R 37 14 R 39 14 R 41 14 R 42 14 R
45 14 R 47 14 R 49 14 R 51 14 R 54 13 R 56 13 R 58 12 R 62 11 R 64 11 R
67 10 R 70 10 R 74 9 R 77 8 R 81 8 R 84 7 R 88 7 R 92 5 R 97 6 R 101 5 R
106 4 R 110 4 R 116 4 R 121 3 R 127 3 R 133 3 R 139 2 R 145 2 R 152 2 R
159 2 R 166 1 R 174 2 R 183 1 R 190 1 R 200 1 R 209 0 R 218 1 R 229 1 R
239 1 R 250 0 R 262 1 R 274 1 R 287 1 R 300 1 R 313 2 R 329 1 R 344 2 R
359 2 R 377 1 R 393 2 R 413 2 R 431 1 R 451 -14 R 472 0 R 494 1 R 516 0 R D
10 setlinewidth L1 2664 2112 M 6 0 R 6 0 R 6 0 R 7 0 R 7 0 R 7 0 R 8 0 R
8 0 R 8 0 R 9 0 R 9 0 R 10 0 R 10 0 R 10 0 R 11 0 R 12 0 R 12 0 R 12 0 R
13 0 R 14 0 R 14 0 R 15 0 R 16 0 R 17 0 R 17 0 R 18 0 R 19 0 R 20 0 R 20 0 R
22 0 R 23 0 R 23 0 R 25 0 R 26 0 R 27 0 R 29 0 R 29 0 R 31 0 R 33 0 R 34 0 R
36 0 R 37 0 R 39 0 R 41 0 R 42 0 R 45 0 R 47 0 R 49 0 R 51 0 R 54 0 R 56 0 R
58 0 R 62 0 R 64 0 R 67 0 R 70 0 R 74 0 R 77 0 R 81 0 R 84 0 R 88 0 R 92 0 R
97 0 R 101 0 R 106 0 R 110 0 R 116 0 R 121 0 R 127 0 R 133 0 R 139 0 R
145 0 R 152 0 R 159 0 R 166 0 R 174 0 R 183 0 R 190 0 R 200 0 R 209 0 R
218 0 R 229 0 R 239 0 R 250 0 R 262 0 R 274 0 R 287 0 R 300 0 R 313 0 R
329 0 R 344 0 R 359 0 R 377 0 R 393 0 R 413 0 R 431 0 R 451 0 R 472 0 R
494 0 R D 100 setlinewidth L2 2765 1689 M 10 1 R 11 2 R 12 2 R 12 3 R 12 2 R
13 3 R 14 3 R 14 4 R 15 4 R 16 4 R 17 5 R 17 5 R 18 5 R 19 6 R 20 7 R 20 7 R
22 8 R 23 8 R 23 9 R 25 9 R 26 10 R 27 10 R 29 12 R 29 11 R 31 12 R 33 13 R
34 13 R 36 14 R 37 14 R 39 14 R 41 14 R 42 14 R 45 14 R 47 14 R 49 14 R
51 14 R 54 13 R 56 13 R 58 12 R 62 11 R 64 11 R 67 10 R 70 10 R 74 9 R
77 8 R 81 8 R 84 7 R 88 7 R 92 5 R 97 6 R 101 5 R 106 4 R 110 4 R 116 4 R
121 3 R 127 3 R 133 3 R 139 2 R 145 3 R 152 2 R 159 1 R 166 2 R 174 1 R
183 1 R 190 1 R 200 1 R 209 1 R 218 1 R 229 1 R 239 0 R 250 1 R 262 0 R
274 1 R 287 0 R 300 0 R 313 1 R 329 0 R 344 0 R 359 0 R 377 1 R 393 0 R
413 0 R 431 0 R 451 0 R 472 0 R 494 0 R 516 0 R D 40 setlinewidth L0
0.000 0.416 1.000 setrgbcolor 2755 1689 M 10 2 R 10 2 R 11 3 R 12 2 R 12 3 R
12 4 R 13 3 R 14 4 R 14 5 R 15 5 R 16 6 R 17 6 R 17 6 R 18 8 R 19 8 R 20 8 R
20 10 R 22 10 R 23 11 R 23 12 R 25 13 R 26 13 R 27 15 R 29 16 R 29 16 R
31 18 R 33 19 R 34 19 R 36 21 R 37 22 R 39 23 R 41 24 R 42 24 R 45 25 R
47 26 R 49 27 R 51 27 R 54 27 R 56 27 R 58 27 R 62 27 R 64 26 R 67 26 R
70 26 R 74 24 R 77 23 R 81 23 R 84 21 R 88 20 R 92 18 R 97 18 R 101 16 R
106 15 R 110 14 R 116 13 R 121 11 R 127 11 R 133 10 R 139 8 R 145 8 R
152 7 R 159 7 R 166 5 R 174 5 R 183 5 R 190 4 R 200 4 R 209 3 R 218 3 R
229 2 R 239 2 R 250 2 R 262 2 R 274 1 R 287 1 R 300 1 R 313 1 R 329 1 R
344 1 R 359 1 R 377 2 R 393 1 R 413 2 R 431 2 R 451 2 R 472 2 R 494 2 R
516 1 R D 10 setlinewidth L1 2664 2542 M 6 0 R 6 0 R 6 0 R 7 0 R 7 0 R 7 0 R
8 0 R 8 0 R 8 0 R 9 0 R 9 0 R 10 0 R 10 0 R 10 0 R 11 0 R 12 0 R 12 0 R
12 0 R 13 0 R 14 0 R 14 0 R 15 0 R 16 0 R 17 0 R 17 0 R 18 0 R 19 0 R 20 0 R
20 0 R 22 0 R 23 0 R 23 0 R 25 0 R 26 0 R 27 0 R 29 0 R 29 0 R 31 0 R 33 0 R
34 0 R 36 0 R 37 0 R 39 0 R 41 0 R 42 0 R 45 0 R 47 0 R 49 0 R 51 0 R 54 0 R
56 0 R 58 0 R 62 0 R 64 0 R 67 0 R 70 0 R 74 0 R 77 0 R 81 0 R 84 0 R 88 0 R
92 0 R 97 0 R 101 0 R 106 0 R 110 0 R 116 0 R 121 0 R 127 0 R 133 0 R
139 0 R 145 0 R 152 0 R 159 0 R 166 0 R 174 0 R 183 0 R 190 0 R 200 0 R
209 0 R 218 0 R 229 0 R 239 0 R 250 0 R 262 0 R 274 0 R 287 0 R 300 0 R
313 0 R 329 0 R 344 0 R 359 0 R 377 0 R 393 0 R 413 0 R 431 0 R 451 0 R
472 0 R 494 0 R D 100 setlinewidth L2 2755 1689 M 10 2 R 10 2 R 11 3 R
12 2 R 12 3 R 12 4 R 13 3 R 14 4 R 14 5 R 15 5 R 16 6 R 17 6 R 17 7 R 18 7 R
19 8 R 20 8 R 20 10 R 22 10 R 23 11 R 23 12 R 25 12 R 26 14 R 27 15 R
29 16 R 29 16 R 31 18 R 33 19 R 34 20 R 36 20 R 37 22 R 39 23 R 41 24 R
42 24 R 45 25 R 47 26 R 49 27 R 51 27 R 54 27 R 56 27 R 58 27 R 62 27 R
64 27 R 67 25 R 70 26 R 74 24 R 77 23 R 81 23 R 84 21 R 88 20 R 92 18 R
97 18 R 101 16 R 106 15 R 110 14 R 116 13 R 121 11 R 127 11 R 133 10 R
139 8 R 145 9 R 152 6 R 159 6 R 166 6 R 174 6 R 183 4 R 190 4 R 200 4 R
209 4 R 218 3 R 229 2 R 239 2 R 250 2 R 262 2 R 274 2 R 287 2 R 300 0 R
313 1 R 329 1 R 344 2 R 359 0 R 377 2 R 393 1 R 413 -1 R 431 1 R 451 0 R
472 1 R 494 0 R 516 0 R D 40 setlinewidth L0 0.000 0.733 1.000 setrgbcolor
2745 1689 M 10 2 R 10 2 R 10 3 R 11 3 R 12 3 R 12 3 R 12 4 R 13 5 R 14 5 R
14 5 R 15 6 R 16 7 R 17 7 R 17 9 R 18 8 R 19 10 R 20 11 R 20 11 R 22 13 R
23 13 R 23 15 R 25 15 R 26 17 R 27 19 R 29 19 R 29 22 R 31 22 R 33 24 R
34 26 R 36 28 R 37 29 R 39 31 R 41 33 R 42 35 R 45 37 R 47 39 R 49 41 R
51 43 R 54 45 R 56 48 R 58 49 R 62 52 R 64 54 R 67 56 R 70 58 R 74 60 R
77 62 R 81 64 R 84 65 R 88 67 R 92 68 R 97 68 R 101 70 R 106 70 R 110 70 R
116 70 R 121 69 R 127 69 R 133 67 R 139 66 R 145 64 R 152 62 R 159 59 R
166 57 R 174 53 R 183 51 R 190 48 R 200 44 R 209 42 R 218 38 R 229 35 R
239 33 R 250 29 R 262 27 R 274 24 R 287 22 R 300 20 R 313 17 R 329 16 R
344 14 R 359 12 R 377 11 R 393 10 R 413 8 R 431 7 R 451 6 R 472 5 R 494 4 R
516 2 R D 10 setlinewidth L1 2664 4265 M 6 0 R 6 0 R 6 0 R 7 0 R 7 0 R 7 0 R
8 0 R 8 0 R 8 0 R 9 0 R 9 0 R 10 0 R 10 0 R 10 0 R 11 0 R 12 0 R 12 0 R
12 0 R 13 0 R 14 0 R 14 0 R 15 0 R 16 0 R 17 0 R 17 0 R 18 0 R 19 0 R 20 0 R
20 0 R 22 0 R 23 0 R 23 0 R 25 0 R 26 0 R 27 0 R 29 0 R 29 0 R 31 0 R 33 0 R
34 0 R 36 0 R 37 0 R 39 0 R 41 0 R 42 0 R 45 0 R 47 0 R 49 0 R 51 0 R 54 0 R
56 0 R 58 0 R 62 0 R 64 0 R 67 0 R 70 0 R 74 0 R 77 0 R 81 0 R 84 0 R 88 0 R
92 0 R 97 0 R 101 0 R 106 0 R 110 0 R 116 0 R 121 0 R 127 0 R 133 0 R
139 0 R 145 0 R 152 0 R 159 0 R 166 0 R 174 0 R 183 0 R 190 0 R 200 0 R
209 0 R 218 0 R 229 0 R 239 0 R 250 0 R 262 0 R 274 0 R 287 0 R 300 0 R
313 0 R 329 0 R 344 0 R 359 0 R 377 0 R 393 0 R 413 0 R 431 0 R 451 0 R
472 0 R 494 0 R D 100 setlinewidth L2 2745 1689 M 10 2 R 10 2 R 10 3 R
11 3 R 12 3 R 12 3 R 12 4 R 13 5 R 14 5 R 14 5 R 15 6 R 16 7 R 17 7 R 17 9 R
18 8 R 19 10 R 20 11 R 20 11 R 22 13 R 23 13 R 23 15 R 25 15 R 26 17 R
27 19 R 29 19 R 29 22 R 31 22 R 33 24 R 34 26 R 36 28 R 37 29 R 39 31 R
41 33 R 42 35 R 45 37 R 47 39 R 49 41 R 51 43 R 54 45 R 56 48 R 58 49 R
62 52 R 64 54 R 67 56 R 70 58 R 74 60 R 77 62 R 81 64 R 84 65 R 88 67 R
92 68 R 97 68 R 101 70 R 106 70 R 110 70 R 116 70 R 121 69 R 127 69 R
133 67 R 139 66 R 145 64 R 152 62 R 159 59 R 166 57 R 174 53 R 183 51 R
190 48 R 200 44 R 209 42 R 218 38 R 229 35 R 239 33 R 250 29 R 262 27 R
274 25 R 287 22 R 300 19 R 313 18 R 329 16 R 344 15 R 359 12 R 377 12 R
393 10 R 413 9 R 431 8 R 451 7 R 472 6 R 494 6 R 516 4 R D 40 setlinewidth
L0 0.000 1.000 0.933 setrgbcolor 2740 1689 M 5 1 R 10 2 R 10 2 R 10 3 R
11 3 R 12 3 R 12 4 R 12 5 R 13 4 R 14 6 R 14 6 R 15 6 R 16 8 R 17 7 R 17 9 R
18 10 R 19 10 R 20 12 R 20 12 R 22 13 R 23 15 R 23 16 R 25 17 R 26 18 R
27 20 R 29 21 R 29 23 R 31 25 R 33 26 R 34 28 R 36 30 R 37 31 R 39 34 R
41 36 R 42 38 R 45 40 R 47 43 R 49 45 R 51 48 R 54 50 R 56 52 R 58 56 R
62 57 R 64 61 R 67 64 R 70 66 R 74 69 R 77 72 R 81 74 R 84 78 R 88 80 R
92 83 R 97 86 R 101 88 R 106 91 R 110 93 R 116 96 R 121 97 R 127 100 R
133 101 R 139 103 R 145 104 R 152 105 R 159 105 R 166 106 R 174 105 R
183 105 R 190 104 R 200 102 R 209 101 R 218 98 R 229 95 R 239 92 R 250 89 R
262 85 R 274 81 R 287 76 R 300 72 R 313 67 R 329 62 R 344 58 R 359 54 R
377 49 R 393 44 R 413 41 R 431 36 R 451 33 R 472 29 R 494 26 R 516 22 R D
10 setlinewidth L1 2664 5988 M 6 0 R 6 0 R 6 0 R 7 0 R 7 0 R 7 0 R 8 0 R
8 0 R 8 0 R 9 0 R 9 0 R 10 0 R 10 0 R 10 0 R 11 0 R 12 0 R 12 0 R 12 0 R
13 0 R 14 0 R 14 0 R 15 0 R 16 0 R 17 0 R 17 0 R 18 0 R 19 0 R 20 0 R 20 0 R
22 0 R 23 0 R 23 0 R 25 0 R 26 0 R 27 0 R 29 0 R 29 0 R 31 0 R 33 0 R 34 0 R
36 0 R 37 0 R 39 0 R 41 0 R 42 0 R 45 0 R 47 0 R 49 0 R 51 0 R 54 0 R 56 0 R
58 0 R 62 0 R 64 0 R 67 0 R 70 0 R 74 0 R 77 0 R 81 0 R 84 0 R 88 0 R 92 0 R
97 0 R 101 0 R 106 0 R 110 0 R 116 0 R 121 0 R 127 0 R 133 0 R 139 0 R
145 0 R 152 0 R 159 0 R 166 0 R 174 0 R 183 0 R 190 0 R 200 0 R 209 0 R
218 0 R 229 0 R 239 0 R 250 0 R 262 0 R 274 0 R 287 0 R 300 0 R 313 0 R
329 0 R 344 0 R 359 0 R 377 0 R 393 0 R 413 0 R 431 0 R 451 0 R 472 0 R
494 0 R D 100 setlinewidth L2 2740 1689 M 5 1 R 10 2 R 10 2 R 10 3 R 11 3 R
12 3 R 12 4 R 12 5 R 13 4 R 14 6 R 14 6 R 15 6 R 16 8 R 17 7 R 17 9 R
18 10 R 19 10 R 20 12 R 20 12 R 22 13 R 23 15 R 23 16 R 25 17 R 26 18 R
27 20 R 29 21 R 29 23 R 31 25 R 33 26 R 34 28 R 36 30 R 37 31 R 39 34 R
41 36 R 42 38 R 45 40 R 47 43 R 49 45 R 51 48 R 54 50 R 56 52 R 58 56 R
62 57 R 64 61 R 67 64 R 70 66 R 74 69 R 77 72 R 81 74 R 84 78 R 88 80 R
92 83 R 97 86 R 101 88 R 106 91 R 110 93 R 116 96 R 121 97 R 127 100 R
133 101 R 139 103 R 145 104 R 152 105 R 159 105 R 166 106 R 174 105 R
183 105 R 190 104 R 200 102 R 209 101 R 218 98 R 229 95 R 239 93 R 250 88 R
262 85 R 274 81 R 287 77 R 300 72 R 313 67 R 329 63 R 344 58 R 359 54 R
377 50 R 393 45 R 413 41 R 431 37 R 451 34 R 472 31 R 494 27 R 516 24 R D
40 setlinewidth L0 0.000 1.000 0.580 setrgbcolor 2736 1689 M 9 2 R 10 2 R
10 3 R 10 3 R 11 3 R 12 4 R 12 4 R 12 5 R 13 5 R 14 6 R 14 7 R 15 7 R 16 8 R
17 9 R 17 10 R 18 10 R 19 12 R 20 13 R 20 13 R 22 15 R 23 17 R 23 17 R
25 19 R 26 21 R 27 22 R 29 23 R 29 26 R 31 27 R 33 29 R 34 31 R 36 33 R
37 36 R 39 37 R 41 40 R 42 43 R 45 45 R 47 47 R 49 50 R 51 53 R 54 56 R
56 59 R 58 62 R 62 65 R 64 67 R 67 72 R 70 74 R 74 78 R 77 81 R 81 84 R
84 88 R 88 91 R 92 95 R 97 98 R 101 102 R 106 105 R 110 109 R 116 112 R
121 115 R 127 119 R 133 122 R 139 125 R 145 129 R 152 131 R 159 134 R
166 137 R 174 140 R 183 142 R 190 144 R 200 146 R 209 148 R 218 150 R
229 150 R 239 152 R 250 151 R 262 152 R 274 152 R 287 150 R 300 149 R
313 148 R 329 145 R 344 142 R 359 138 R 377 135 R 393 130 R 413 125 R
431 120 R 451 114 R 472 108 R 494 102 R 516 94 R D 10 setlinewidth L1
2664 8571 M 6 0 R 6 0 R 6 0 R 7 0 R 7 0 R 7 0 R 8 0 R 8 0 R 8 0 R 9 0 R
9 0 R 10 0 R 10 0 R 10 0 R 11 0 R 12 0 R 12 0 R 12 0 R 13 0 R 14 0 R 14 0 R
15 0 R 16 0 R 17 0 R 17 0 R 18 0 R 19 0 R 20 0 R 20 0 R 22 0 R 23 0 R 23 0 R
25 0 R 26 0 R 27 0 R 29 0 R 29 0 R 31 0 R 33 0 R 34 0 R 36 0 R 37 0 R 39 0 R
41 0 R 42 0 R 45 0 R 47 0 R 49 0 R 51 0 R 54 0 R 56 0 R 58 0 R 62 0 R 64 0 R
67 0 R 70 0 R 74 0 R 77 0 R 81 0 R 84 0 R 88 0 R 92 0 R 97 0 R 101 0 R
106 0 R 110 0 R 116 0 R 121 0 R 127 0 R 133 0 R 139 0 R 145 0 R 152 0 R
159 0 R 166 0 R 174 0 R 183 0 R 190 0 R 200 0 R 209 0 R 218 0 R 229 0 R
239 0 R 250 0 R 262 0 R 274 0 R 287 0 R 300 0 R 313 0 R 329 0 R 344 0 R
359 0 R 377 0 R 393 0 R 413 0 R 431 0 R 451 0 R 472 0 R 494 0 R D
100 setlinewidth L2 2736 1689 M 9 2 R 10 2 R 10 3 R 10 3 R 11 3 R 12 4 R
12 4 R 12 5 R 13 5 R 14 6 R 14 7 R 15 7 R 16 8 R 17 9 R 17 10 R 18 10 R
19 12 R 20 13 R 20 13 R 22 15 R 23 17 R 23 17 R 25 19 R 26 21 R 27 22 R
29 23 R 29 26 R 31 27 R 33 29 R 34 31 R 36 33 R 37 36 R 39 37 R 41 40 R
42 43 R 45 45 R 47 47 R 49 50 R 51 53 R 54 56 R 56 59 R 58 62 R 62 65 R
64 67 R 67 72 R 70 74 R 74 78 R 77 81 R 81 84 R 84 88 R 88 91 R 92 95 R
97 98 R 101 102 R 106 105 R 110 109 R 116 112 R 121 115 R 127 119 R
133 122 R 139 125 R 145 129 R 152 131 R 159 134 R 166 137 R 174 140 R
183 142 R 190 144 R 200 146 R 209 148 R 218 150 R 229 151 R 239 151 R
250 152 R 262 152 R 274 151 R 287 151 R 300 150 R 313 147 R 329 146 R
344 142 R 359 139 R 377 135 R 393 131 R 413 126 R 431 121 R 451 115 R
472 110 R 494 103 R 516 96 R D 40 setlinewidth L0
0.000 1.000 0.247 setrgbcolor 2736 1689 M 9 2 R 10 3 R 10 3 R 10 3 R 11 4 R
12 4 R 12 4 R 12 5 R 13 6 R 14 7 R 14 7 R 15 7 R 16 9 R 17 10 R 17 10 R
18 11 R 19 13 R 20 13 R 20 15 R 22 16 R 23 18 R 23 19 R 25 20 R 26 22 R
27 23 R 29 26 R 29 27 R 31 29 R 33 31 R 34 34 R 36 35 R 37 38 R 39 41 R
41 43 R 42 45 R 45 48 R 47 51 R 49 54 R 51 57 R 54 60 R 56 63 R 58 66 R
62 70 R 64 73 R 67 76 R 70 80 R 74 84 R 77 87 R 81 91 R 84 94 R 88 98 R
92 102 R 97 106 R 101 110 R 106 113 R 110 117 R 116 121 R 121 125 R
127 129 R 133 132 R 139 136 R 145 140 R 152 143 R 159 147 R 166 150 R
174 153 R 183 157 R 190 160 R 200 162 R 209 166 R 218 168 R 229 171 R
239 172 R 250 175 R 262 177 R 274 178 R 287 179 R 300 180 R 313 180 R
329 180 R 344 180 R 359 179 R 377 177 R 393 175 R 413 173 R 431 170 R
451 166 R 472 162 R 494 157 R 516 150 R D 10 setlinewidth L1 2664 10294 M
6 0 R 6 0 R 6 0 R 7 0 R 7 0 R 7 0 R 8 0 R 8 0 R 8 0 R 9 0 R 9 0 R 10 0 R
10 0 R 10 0 R 11 0 R 12 0 R 12 0 R 12 0 R 13 0 R 14 0 R 14 0 R 15 0 R 16 0 R
17 0 R 17 0 R 18 0 R 19 0 R 20 0 R 20 0 R 22 0 R 23 0 R 23 0 R 25 0 R 26 0 R
27 0 R 29 0 R 29 0 R 31 0 R 33 0 R 34 0 R 36 0 R 37 0 R 39 0 R 41 0 R 42 0 R
45 0 R 47 0 R 49 0 R 51 0 R 54 0 R 56 0 R 58 0 R 62 0 R 64 0 R 67 0 R 70 0 R
74 0 R 77 0 R 81 0 R 84 0 R 88 0 R 92 0 R 97 0 R 101 0 R 106 0 R 110 0 R
116 0 R 121 0 R 127 0 R 133 0 R 139 0 R 145 0 R 152 0 R 159 0 R 166 0 R
174 0 R 183 0 R 190 0 R 200 0 R 209 0 R 218 0 R 229 0 R 239 0 R 250 0 R
262 0 R 274 0 R 287 0 R 300 0 R 313 0 R 329 0 R 344 0 R 359 0 R 377 0 R
393 0 R 413 0 R 431 0 R 451 0 R 472 0 R 494 0 R D 100 setlinewidth L2
2736 1689 M 9 2 R 10 3 R 10 3 R 10 3 R 11 4 R 12 4 R 12 4 R 12 5 R 13 6 R
14 7 R 14 7 R 15 7 R 16 9 R 17 10 R 17 10 R 18 11 R 19 13 R 20 13 R 20 15 R
22 16 R 23 18 R 23 19 R 25 20 R 26 22 R 27 23 R 29 26 R 29 27 R 31 29 R
33 31 R 34 34 R 36 35 R 37 38 R 39 41 R 41 43 R 42 45 R 45 48 R 47 51 R
49 54 R 51 57 R 54 60 R 56 63 R 58 66 R 62 70 R 64 73 R 67 76 R 70 80 R
74 84 R 77 87 R 81 91 R 84 94 R 88 98 R 92 102 R 97 106 R 101 110 R
106 113 R 110 117 R 116 121 R 121 125 R 127 129 R 133 132 R 139 136 R
145 140 R 152 143 R 159 147 R 166 150 R 174 153 R 183 157 R 190 160 R
200 163 R 209 165 R 218 168 R 229 171 R 239 173 R 250 175 R 262 176 R
274 179 R 287 179 R 300 180 R 313 180 R 329 181 R 344 180 R 359 180 R
377 178 R 393 176 R 413 173 R 431 171 R 451 167 R 472 164 R 494 158 R
516 153 R D
%%PageTrailer
end
%%PageResources: font Helvetica
%%Trailer
%%Pages: 1
%%DocumentNeededResources: font Helvetica
%%EOF
