%!PS-Adobe-3.0 EPSF-3.0
%%BoundingBox: 0 0 504 360
%%Title: Graphics produced by IDL
%%For: jlgan@aida119, /home/jlgan/work/subhalo_model
%%Creator: IDL Version 7.1 (linux x86_64 m64)
%%CreationDate: Thu Aug 13 14:27:24 2009
%%DocumentData: Clean7bit
%%Requirements: color
%%LanguageLevel: 1
%%PageOrder: Ascend
%%Pages: (atend)
%%DocumentNeededResources: (atend)
%%EndComments
%%BeginProlog
%+ prolog.ps -- Prolog for IDL generated PostScript files
%+ Copyright (c) 1988-2009 ITT Visual Information Solutions. All Rights Reserved.
%v 5
/$IDL_DICT 40 dict def $IDL_DICT begin /bdef { bind def } bind def /C
{currentpoint newpath moveto} bdef /CP {currentpoint} bdef /D {currentpoint
stroke moveto} bdef /F {closepath fill} bdef /K { setgray } bdef /M {moveto}
bdef /N {rmoveto} bdef /P {lineto} bdef /R {rlineto} bdef /S {gsave show
grestore} bdef /X {currentpoint pop} bdef /Z {gsave currentpoint lineto 20
setlinewidth 1 setlinecap stroke grestore} bdef /L0 {[] 0 setdash} bdef /L1
{[40 100] 0 setdash} bdef /L2 {[200 200] 0 setdash} bdef /L3 {[200 100 50
100] 0 setdash} bdef /L4 {[300 100 50 100 50 100 50 100] 0 setdash} bdef /L5
{[400 200] 0 setdash} bdef /STDFONT { findfont exch scalefont setfont } bdef
/ISOFONT { findfont dup length dict begin { 1 index /FID ne {def} {pop pop}
ifelse } forall /Encoding ISOLatin1Encoding def currentdict end /idltmpfont
exch definefont exch scalefont setfont } bdef /ISOBULLET { gsave /Helvetica
findfont exch scalefont setfont (\267) show currentpoint grestore moveto}
bdef /MITERLIMIT { 2.5 setmiterlimit } bdef end
%%EndProlog
%%Page: 0 1
%%PageRequirements: color
%%PageResources: (atend)
%%PageOrientation: Portrait
%%PageBoundingBox: 0 0 504 360
%%BeginPageSetup
$IDL_DICT begin 0.0283465 dup scale MITERLIMIT
%%IncludeResource: font Helvetica
423.333 /Helvetica STDFONT
%%EndPageSetup
40 setlinewidth L0 0.000 0.000 0.000 setrgbcolor 2664 1690 M 14317 0 R D
2664 1690 M 0 406 R D gsave 2664 929 translate 0 0 M 1.44 dup scale
-294.217 0 N
(0.0) show grestore 5527 1690 M 0 406 R D gsave 5527 929 translate 0 0 M
1.44 dup scale -294.217 0 N
(0.2) show grestore 8391 1690 M 0 406 R D gsave 8391 929 translate 0 0 M
1.44 dup scale -294.217 0 N
(0.4) show grestore 11254 1690 M 0 406 R D gsave 11254 929 translate 0 0 M
1.44 dup scale -294.217 0 N
(0.6) show grestore 14118 1690 M 0 406 R D gsave 14118 929 translate 0 0 M
1.44 dup scale -294.217 0 N
(0.8) show grestore 16981 1690 M 0 406 R D gsave 16981 929 translate 0 0 M
1.44 dup scale -294.217 0 N
(1.0) show grestore 3380 1690 M 0 203 R D 4096 1690 M 0 203 R D 4812 1690 M
0 203 R D 6243 1690 M 0 203 R D 6959 1690 M 0 203 R D 7675 1690 M 0 203 R D
9107 1690 M 0 203 R D 9822 1690 M 0 203 R D 10538 1690 M 0 203 R D
11970 1690 M 0 203 R D 12686 1690 M 0 203 R D 13402 1690 M 0 203 R D
14833 1690 M 0 203 R D 15549 1690 M 0 203 R D 16265 1690 M 0 203 R D
gsave 9822 270 translate 0 0 M 1.44 dup scale -869.95 0 N
(m\(t\)/m\(0\)) show grestore 2664 11855 M 14317 0 R D 2664 11855 M 0 -406 R
D 5527 11855 M 0 -406 R D 8391 11855 M 0 -406 R D 11254 11855 M 0 -406 R D
14118 11855 M 0 -406 R D 16981 11855 M 0 -406 R D 3380 11855 M 0 -203 R D
4096 11855 M 0 -203 R D 4812 11855 M 0 -203 R D 6243 11855 M 0 -203 R D
6959 11855 M 0 -203 R D 7675 11855 M 0 -203 R D 9107 11855 M 0 -203 R D
9822 11855 M 0 -203 R D 10538 11855 M 0 -203 R D 11970 11855 M 0 -203 R D
12686 11855 M 0 -203 R D 13402 11855 M 0 -203 R D 14833 11855 M 0 -203 R D
15549 11855 M 0 -203 R D 16265 11855 M 0 -203 R D 2664 1690 M 0 10165 R D
2664 1690 M 573 0 R D gsave 2504 1690 translate 0 0 M 1.44 dup scale
-588.433 0 N
(0.0) show grestore 2664 3723 M 573 0 R D gsave 2504 3520 translate 0 0 M
1.44 dup scale -588.433 0 N
(0.2) show grestore 2664 5756 M 573 0 R D gsave 2504 5553 translate 0 0 M
1.44 dup scale -588.433 0 N
(0.4) show grestore 2664 7789 M 573 0 R D gsave 2504 7586 translate 0 0 M
1.44 dup scale -588.433 0 N
(0.6) show grestore 2664 9822 M 573 0 R D gsave 2504 9619 translate 0 0 M
1.44 dup scale -588.433 0 N
(0.8) show grestore 2664 11855 M 573 0 R D gsave 2504 11500 translate 0 0 M
1.44 dup scale -588.433 0 N
(1.0) show grestore 2664 2198 M 286 0 R D 2664 2706 M 286 0 R D 2664 3215 M
286 0 R D 2664 4231 M 286 0 R D 2664 4739 M 286 0 R D 2664 5248 M 286 0 R D
2664 6264 M 286 0 R D 2664 6772 M 286 0 R D 2664 7281 M 286 0 R D
2664 8297 M 286 0 R D 2664 8806 M 286 0 R D 2664 9314 M 286 0 R D
2664 10330 M 286 0 R D 2664 10839 M 286 0 R D 2664 11347 M 286 0 R D
gsave 1178 6772 translate 0 0 M 90 rotate 1.44 dup scale -703.093 0 N
(r) show X -101.051 M
%%IncludeResource: font Helvetica
262.467 /Helvetica STDFONT
(bound) show X 0 M
%%IncludeResource: font Helvetica
423.333 /Helvetica STDFONT
(/r) show X -101.051 M
%%IncludeResource: font Helvetica
262.467 /Helvetica STDFONT
(vir) show grestore
%%IncludeResource: font Helvetica
423.333 /Helvetica STDFONT 16981 1690 M 0 10165 R D 16981 1690 M -573 0 R D
16981 3723 M -573 0 R D 16981 5756 M -573 0 R D 16981 7789 M -573 0 R D
16981 9822 M -573 0 R D 16981 11855 M -573 0 R D 16981 2198 M -286 0 R D
16981 2706 M -286 0 R D 16981 3215 M -286 0 R D 16981 4231 M -286 0 R D
16981 4739 M -286 0 R D 16981 5248 M -286 0 R D 16981 6264 M -286 0 R D
16981 6772 M -286 0 R D 16981 7281 M -286 0 R D 16981 8297 M -286 0 R D
16981 8806 M -286 0 R D 16981 9314 M -286 0 R D 16981 10330 M -286 0 R D
16981 10839 M -286 0 R D 16981 11347 M -286 0 R D 4593 3101 M 222 0 R
-111 0 R 0 111 R 0 -222 R D 12190 6331 M 222 0 R -111 0 R 0 111 R 0 -222 R D
5810 5323 M 222 0 R -111 0 R 0 111 R 0 -222 R D 15224 9815 M 222 0 R
-111 0 R 0 111 R 0 -222 R D 8001 3722 M 222 0 R -111 0 R 0 111 R 0 -222 R D
14654 9456 M 222 0 R -111 0 R 0 111 R 0 -222 R D 5098 3290 M 222 0 R
-111 0 R 0 111 R 0 -222 R D 10151 4896 M 222 0 R -111 0 R 0 111 R 0 -222 R D
15040 9409 M 222 0 R -111 0 R 0 111 R 0 -222 R D 12640 6650 M 222 0 R
-111 0 R 0 111 R 0 -222 R D 6956 3491 M 222 0 R -111 0 R 0 111 R 0 -222 R D
11651 6125 M 222 0 R -111 0 R 0 111 R 0 -222 R D 14241 9349 M 222 0 R
-111 0 R 0 111 R 0 -222 R D 6962 3329 M 222 0 R -111 0 R 0 111 R 0 -222 R D
10888 6604 M 222 0 R -111 0 R 0 111 R 0 -222 R D 14041 7937 M 222 0 R
-111 0 R 0 111 R 0 -222 R D 8502 4545 M 222 0 R -111 0 R 0 111 R 0 -222 R D
4039 2362 M 222 0 R -111 0 R 0 111 R 0 -222 R D 14767 9456 M 222 0 R
-111 0 R 0 111 R 0 -222 R D 5773 2735 M 222 0 R -111 0 R 0 111 R 0 -222 R D
3043 2005 M 222 0 R -111 0 R 0 111 R 0 -222 R D 7868 3960 M 222 0 R -111 0 R
0 111 R 0 -222 R D 9683 4534 M 222 0 R -111 0 R 0 111 R 0 -222 R D
10418 6434 M 222 0 R -111 0 R 0 111 R 0 -222 R D 4186 2349 M 222 0 R
-111 0 R 0 111 R 0 -222 R D 16797 11803 M 183 0 R -72 0 R 0 52 R 0 -163 R D
2805 2510 M 222 0 R -111 0 R 0 111 R 0 -222 R D 7743 5429 M 222 0 R -111 0 R
0 111 R 0 -222 R D 6339 2940 M 222 0 R -111 0 R 0 111 R 0 -222 R D
3045 2812 M 222 0 R -111 0 R 0 111 R 0 -222 R D 8742 4225 M 222 0 R -111 0 R
0 111 R 0 -222 R D 8234 3978 M 222 0 R -111 0 R 0 111 R 0 -222 R D
7020 4378 M 222 0 R -111 0 R 0 111 R 0 -222 R D 9607 5499 M 222 0 R -111 0 R
0 111 R 0 -222 R D 6586 3774 M 222 0 R -111 0 R 0 111 R 0 -222 R D
15893 10560 M 222 0 R -111 0 R 0 111 R 0 -222 R D 5300 4692 M 222 0 R
-111 0 R 0 111 R 0 -222 R D 4105 3368 M 222 0 R -111 0 R 0 111 R 0 -222 R D
5946 3365 M 222 0 R -111 0 R 0 111 R 0 -222 R D 4011 2679 M 222 0 R -111 0 R
0 111 R 0 -222 R D 14465 9166 M 222 0 R -111 0 R 0 111 R 0 -222 R D
14522 9163 M 222 0 R -111 0 R 0 111 R 0 -222 R D 11863 6751 M 222 0 R
-111 0 R 0 111 R 0 -222 R D 3174 2451 M 222 0 R -111 0 R 0 111 R 0 -222 R D
14815 9333 M 222 0 R -111 0 R 0 111 R 0 -222 R D 3462 2210 M 222 0 R
-111 0 R 0 111 R 0 -222 R D 6943 4080 M 222 0 R -111 0 R 0 111 R 0 -222 R D
12948 8186 M 222 0 R -111 0 R 0 111 R 0 -222 R D 16103 10872 M 222 0 R
-111 0 R 0 111 R 0 -222 R D 8345 5687 M 222 0 R -111 0 R 0 111 R 0 -222 R D
3827 2983 M 222 0 R -111 0 R 0 111 R 0 -222 R D 6916 3190 M 222 0 R -111 0 R
0 111 R 0 -222 R D 16612 11470 M 222 0 R -111 0 R 0 111 R 0 -222 R D
8855 4867 M 222 0 R -111 0 R 0 111 R 0 -222 R D 8969 5304 M 222 0 R -111 0 R
0 111 R 0 -222 R D 9255 4254 M 222 0 R -111 0 R 0 111 R 0 -222 R D
4299 2537 M 222 0 R -111 0 R 0 111 R 0 -222 R D 11782 5981 M 222 0 R
-111 0 R 0 111 R 0 -222 R D 16853 11843 M 127 0 R -16 0 R 0 12 R 0 -123 R D
5361 3548 M 222 0 R -111 0 R 0 111 R 0 -222 R D 9092 4131 M 222 0 R -111 0 R
0 111 R 0 -222 R D 8685 4816 M 222 0 R -111 0 R 0 111 R 0 -222 R D
13045 9455 M 222 0 R -111 0 R 0 111 R 0 -222 R D 14301 8682 M 222 0 R
-111 0 R 0 111 R 0 -222 R D 12890 6822 M 222 0 R -111 0 R 0 111 R 0 -222 R D
9313 5114 M 222 0 R -111 0 R 0 111 R 0 -222 R D 11016 5856 M 222 0 R
-111 0 R 0 111 R 0 -222 R D 9188 4585 M 222 0 R -111 0 R 0 111 R 0 -222 R D
5252 3919 M 222 0 R -111 0 R 0 111 R 0 -222 R D 9543 4975 M 222 0 R -111 0 R
0 111 R 0 -222 R D 10277 4894 M 222 0 R -111 0 R 0 111 R 0 -222 R D
15862 10795 M 222 0 R -111 0 R 0 111 R 0 -222 R D 16728 11681 M 222 0 R
-111 0 R 0 111 R 0 -222 R D 4863 2804 M 222 0 R -111 0 R 0 111 R 0 -222 R D
3572 2282 M 222 0 R -111 0 R 0 111 R 0 -222 R D 8243 4930 M 222 0 R -111 0 R
0 111 R 0 -222 R D 15281 9491 M 222 0 R -111 0 R 0 111 R 0 -222 R D
4489 2498 M 222 0 R -111 0 R 0 111 R 0 -222 R D 9395 4625 M 222 0 R -111 0 R
0 111 R 0 -222 R D 12320 6590 M 222 0 R -111 0 R 0 111 R 0 -222 R D
9583 4500 M 222 0 R -111 0 R 0 111 R 0 -222 R D 6533 2991 M 222 0 R -111 0 R
0 111 R 0 -222 R D 9116 4480 M 222 0 R -111 0 R 0 111 R 0 -222 R D
15862 10285 M 222 0 R -111 0 R 0 111 R 0 -222 R D 8693 4075 M 222 0 R
-111 0 R 0 111 R 0 -222 R D 11954 7081 M 222 0 R -111 0 R 0 111 R 0 -222 R D
15395 10667 M 222 0 R -111 0 R 0 111 R 0 -222 R D 10354 5058 M 222 0 R
-111 0 R 0 111 R 0 -222 R D 7763 3733 M 222 0 R -111 0 R 0 111 R 0 -222 R D
14282 9053 M 222 0 R -111 0 R 0 111 R 0 -222 R D 8059 3603 M 222 0 R
-111 0 R 0 111 R 0 -222 R D 14926 9103 M 222 0 R -111 0 R 0 111 R 0 -222 R D
10468 5162 M 222 0 R -111 0 R 0 111 R 0 -222 R D 4407 2390 M 222 0 R
-111 0 R 0 111 R 0 -222 R D 12132 7282 M 222 0 R -111 0 R 0 111 R 0 -222 R D
7359 3714 M 222 0 R -111 0 R 0 111 R 0 -222 R D 15625 10159 M 222 0 R
-111 0 R 0 111 R 0 -222 R D 6673 3118 M 222 0 R -111 0 R 0 111 R 0 -222 R D
11186 6415 M 222 0 R -111 0 R 0 111 R 0 -222 R D 10466 5203 M 222 0 R
-111 0 R 0 111 R 0 -222 R D 1.000 0.000 0.000 setrgbcolor 4704 4624 M
111 -111 R -111 -111 R -111 111 R 111 111 R D 12301 11084 M 111 -111 R
-111 -111 R -111 111 R 111 111 R D 5921 9067 M 111 -111 R -111 -111 R
-111 111 R 111 111 R D 15446 11855 M -111 -111 R -111 111 R D 8112 5866 M
111 -111 R -111 -111 R -111 111 R 111 111 R D 14876 11855 M -111 -111 R
-111 111 R D 5209 5001 M 111 -111 R -111 -111 R -111 111 R 111 111 R D
10262 8214 M 111 -111 R -111 -111 R -111 111 R 111 111 R D 15262 11855 M
-111 -111 R -111 111 R D 12751 11720 M 111 -111 R -111 -111 R -111 111 R
111 111 R D 7067 5404 M 111 -111 R -111 -111 R -111 111 R 111 111 R D
11762 10671 M 111 -111 R -111 -111 R -111 111 R 111 111 R D 14463 11855 M
-111 -111 R -111 111 R D 7073 5080 M 111 -111 R -111 -111 R -111 111 R
111 111 R D 10999 11629 M 111 -111 R -111 -111 R -111 111 R 111 111 R D
14263 11855 M -111 -111 R -111 111 R D 8613 7511 M 111 -111 R -111 -111 R
-111 111 R 111 111 R D 4150 3146 M 111 -111 R -111 -111 R -111 111 R
111 111 R D 14989 11855 M -111 -111 R -111 111 R D 5884 3891 M 111 -111 R
-111 -111 R -111 111 R 111 111 R D 3154 2430 M 111 -111 R -111 -111 R
-111 111 R 111 111 R D 7979 6340 M 111 -111 R -111 -111 R -111 111 R
111 111 R D 9794 7490 M 111 -111 R -111 -111 R -111 111 R 111 111 R D
10529 11290 M 111 -111 R -111 -111 R -111 111 R 111 111 R D 4297 3119 M
111 -111 R -111 -111 R -111 111 R 111 111 R D 16980 11816 M -72 -72 R
-111 111 R D 2916 3441 M 111 -111 R -111 -111 R -111 111 R 111 111 R D
7854 9280 M 111 -111 R -111 -111 R -111 111 R 111 111 R D 6450 4301 M
111 -111 R -111 -111 R -111 111 R 111 111 R D 3156 4045 M 111 -111 R
-111 -111 R -111 111 R 111 111 R D 8853 6870 M 111 -111 R -111 -111 R
-111 111 R 111 111 R D 8345 6378 M 111 -111 R -111 -111 R -111 111 R
111 111 R D 7131 7177 M 111 -111 R -111 -111 R -111 111 R 111 111 R D
9718 9420 M 111 -111 R -111 -111 R -111 111 R 111 111 R D 6697 5969 M
111 -111 R -111 -111 R -111 111 R 111 111 R D 16115 11855 M -111 -111 R
-111 111 R D 5411 7805 M 111 -111 R -111 -111 R -111 111 R 111 111 R D
4216 5158 M 111 -111 R -111 -111 R -111 111 R 111 111 R D 6057 5152 M
111 -111 R -111 -111 R -111 111 R 111 111 R D 4122 3779 M 111 -111 R
-111 -111 R -111 111 R 111 111 R D 14687 11855 M -111 -111 R -111 111 R D
14744 11855 M -111 -111 R -111 111 R D 12043 11855 M 42 -42 R -111 -111 R
-111 111 R 42 42 R D 3285 3324 M 111 -111 R -111 -111 R -111 111 R 111 111 R
D 15037 11855 M -111 -111 R -111 111 R D 3573 2841 M 111 -111 R -111 -111 R
-111 111 R 111 111 R D 7054 6581 M 111 -111 R -111 -111 R -111 111 R
111 111 R D 13170 11855 M -111 -111 R -111 111 R D 16325 11855 M -111 -111 R
-111 111 R D 8456 9795 M 111 -111 R -111 -111 R -111 111 R 111 111 R D
3938 4387 M 111 -111 R -111 -111 R -111 111 R 111 111 R D 7027 4802 M
111 -111 R -111 -111 R -111 111 R 111 111 R D 16834 11855 M -111 -111 R
-111 111 R D 8966 8155 M 111 -111 R -111 -111 R -111 111 R 111 111 R D
9080 9030 M 111 -111 R -111 -111 R -111 111 R 111 111 R D 9366 6930 M
111 -111 R -111 -111 R -111 111 R 111 111 R D 4410 3495 M 111 -111 R
-111 -111 R -111 111 R 111 111 R D 11893 10384 M 111 -111 R -111 -111 R
-111 111 R 111 111 R D 16980 11760 M -16 -16 R -111 111 R D 5472 5518 M
111 -111 R -111 -111 R -111 111 R 111 111 R D 9203 6684 M 111 -111 R
-111 -111 R -111 111 R 111 111 R D 8796 8054 M 111 -111 R -111 -111 R
-111 111 R 111 111 R D 13267 11855 M -111 -111 R -111 111 R D 14523 11855 M
-111 -111 R -111 111 R D 13112 11855 M -111 -111 R -111 111 R D 9424 8650 M
111 -111 R -111 -111 R -111 111 R 111 111 R D 11127 10134 M 111 -111 R
-111 -111 R -111 111 R 111 111 R D 9299 7591 M 111 -111 R -111 -111 R
-111 111 R 111 111 R D 5363 6259 M 111 -111 R -111 -111 R -111 111 R
111 111 R D 9654 8371 M 111 -111 R -111 -111 R -111 111 R 111 111 R D
10388 8210 M 111 -111 R -111 -111 R -111 111 R 111 111 R D 16084 11855 M
-111 -111 R -111 111 R D 16950 11855 M -111 -111 R -111 111 R D 4974 4030 M
111 -111 R -111 -111 R -111 111 R 111 111 R D 3683 2985 M 111 -111 R
-111 -111 R -111 111 R 111 111 R D 8354 8282 M 111 -111 R -111 -111 R
-111 111 R 111 111 R D 15503 11855 M -111 -111 R -111 111 R D 4600 3417 M
111 -111 R -111 -111 R -111 111 R 111 111 R D 9506 7672 M 111 -111 R
-111 -111 R -111 111 R 111 111 R D 12431 11602 M 111 -111 R -111 -111 R
-111 111 R 111 111 R D 9694 7422 M 111 -111 R -111 -111 R -111 111 R
111 111 R D 6644 4403 M 111 -111 R -111 -111 R -111 111 R 111 111 R D
9227 7380 M 111 -111 R -111 -111 R -111 111 R 111 111 R D 16084 11855 M
-111 -111 R -111 111 R D 8804 6572 M 111 -111 R -111 -111 R -111 111 R
111 111 R D 12176 11855 M -111 -111 R -111 111 R D 15617 11855 M -111 -111 R
-111 111 R D 10465 8538 M 111 -111 R -111 -111 R -111 111 R 111 111 R D
7874 5887 M 111 -111 R -111 -111 R -111 111 R 111 111 R D 14504 11855 M
-111 -111 R -111 111 R D 8170 5628 M 111 -111 R -111 -111 R -111 111 R
111 111 R D 15148 11855 M -111 -111 R -111 111 R D 10579 8746 M 111 -111 R
-111 -111 R -111 111 R 111 111 R D 4518 3202 M 111 -111 R -111 -111 R
-111 111 R 111 111 R D 12354 11855 M -111 -111 R -111 111 R D 7470 5849 M
111 -111 R -111 -111 R -111 111 R 111 111 R D 15847 11855 M -111 -111 R
-111 111 R D 6784 4658 M 111 -111 R -111 -111 R -111 111 R 111 111 R D
11297 11251 M 111 -111 R -111 -111 R -111 111 R 111 111 R D 10577 8827 M
111 -111 R -111 -111 R -111 111 R 111 111 R D
%%PageTrailer
end
%%PageResources: font Helvetica
%%Trailer
%%Pages: 1
%%DocumentNeededResources: font Helvetica
%%EOF
