%!PS-Adobe-3.0
%%BoundingBox: 54 360 558 720
%%Title: Graphics produced by IDL
%%For: dacia@linux-4r0t, /home/dacia/work/subhalo_model
%%Creator: IDL Version 7.0 (linux x86_64 m64)
%%CreationDate: Mon Oct 27 10:21:24 2008
%%DocumentData: Clean7bit
%%Requirements: color
%%LanguageLevel: 1
%%PageOrder: Ascend
%%Pages: (atend)
%%DocumentNeededResources: (atend)
%%EndComments
%%BeginProlog
save
%+ prolog.ps -- Prolog for IDL generated PostScript files
%+ Copyright (c) 1988-2007 ITT Visual Information Solutions. All Rights Reserved.
%v 5
/$IDL_DICT 40 dict def $IDL_DICT begin /bdef { bind def } bind def /C
{currentpoint newpath moveto} bdef /CP {currentpoint} bdef /D {currentpoint
stroke moveto} bdef /F {closepath fill} bdef /K { setgray } bdef /M {moveto}
bdef /N {rmoveto} bdef /P {lineto} bdef /R {rlineto} bdef /S {gsave show
grestore} bdef /X {currentpoint pop} bdef /Z {gsave currentpoint lineto 20
setlinewidth 1 setlinecap stroke grestore} bdef /L0 {[] 0 setdash} bdef /L1
{[40 100] 0 setdash} bdef /L2 {[200 200] 0 setdash} bdef /L3 {[200 100 50
100] 0 setdash} bdef /L4 {[300 100 50 100 50 100 50 100] 0 setdash} bdef /L5
{[400 200] 0 setdash} bdef /STDFONT { findfont exch scalefont setfont } bdef
/ISOFONT { findfont dup length dict begin { 1 index /FID ne {def} {pop pop}
ifelse } forall /Encoding ISOLatin1Encoding def currentdict end /idltmpfont
exch definefont exch scalefont setfont } bdef /ISOBULLET { gsave /Helvetica
findfont exch scalefont setfont (\267) show currentpoint grestore moveto}
bdef /MITERLIMIT { 2.5 setmiterlimit } bdef end
%%EndProlog
%%Page: 0 1
%%PageRequirements: color
%%PageResources: (atend)
%%PageOrientation: Portrait
%%PageBoundingBox: 54 360 558 720
%%BeginPageSetup
save
$IDL_DICT begin 54 360 translate 0.0283465 dup scale MITERLIMIT
%%IncludeResource: font Helvetica
423.333 /Helvetica STDFONT
%%EndPageSetup
10 setlinewidth L0 0.000 0.000 0.000 setrgbcolor 4622 12421 M 0 -460 R D
4622 12202 M -43 44 R -44 22 R -66 0 R -44 -22 R -44 -44 R -21 -66 R 0 -44 R
21 -65 R 44 -44 R 44 -22 R 66 0 R 44 22 R 43 44 R D 4776 12136 M 263 0 R
0 44 R -22 44 R -22 22 R -44 22 R -66 0 R -43 -22 R -44 -44 R -22 -66 R
0 -44 R 22 -65 R 44 -44 R 43 -22 R 66 0 R 44 22 R 44 44 R D 5192 12268 M
0 -307 R D 5192 12180 M 66 66 R 44 22 R 65 0 R 44 -22 R 22 -66 R 0 -219 R D
5827 12202 M -22 44 R -65 22 R -66 0 R -66 -22 R -22 -44 R 22 -44 R 44 -22 R
110 -22 R 43 -22 R 22 -44 R 0 -21 R -22 -44 R -65 -22 R -66 0 R -66 22 R
-22 44 R D 5959 12421 M 22 -22 R 22 22 R -22 22 R -22 -22 R D 5981 12268 M
0 -307 R D 6178 12421 M 0 -373 R 22 -65 R 44 -22 R 43 0 R D 6112 12268 M
154 0 R D 6375 12268 M 132 -307 R 131 307 R D 6507 11961 M -44 -110 R
-44 -43 R -44 -22 R -22 0 R D 7120 12268 M 0 -482 R D 7120 12202 M 44 44 R
44 22 R 65 0 R 44 -22 R 44 -44 R 22 -66 R 0 -44 R -22 -65 R -44 -44 R
-44 -22 R -65 0 R -44 22 R -44 44 R D 7536 12268 M 0 -307 R D 7536 12136 M
22 66 R 44 44 R 44 22 R 65 0 R D 7909 12268 M -44 -22 R -44 -44 R -22 -66 R
0 -44 R 22 -65 R 44 -44 R 44 -22 R 65 0 R 44 22 R 44 44 R 22 65 R 0 44 R
-22 66 R -44 44 R -44 22 R -65 0 R D 8369 12421 M -44 0 R -44 -22 R
-22 -66 R 0 -372 R D 8193 12268 M 154 0 R D 8478 12421 M 22 -22 R 22 22 R
-22 22 R -22 -22 R D 8500 12268 M 0 -307 R D 8675 12421 M 0 -460 R D
8829 12136 M 263 0 R 0 44 R -22 44 R -22 22 R -44 22 R -66 0 R -44 -22 R
-43 -44 R -22 -66 R 0 -44 R 22 -65 R 43 -44 R 44 -22 R 66 0 R 44 22 R
44 44 R D 9837 12268 M 0 -307 R D 9837 12202 M -44 44 R -44 22 R -66 0 R
-44 -22 R -43 -44 R -22 -66 R 0 -44 R 22 -65 R 43 -44 R 44 -22 R 66 0 R
44 22 R 44 44 R D 10143 12421 M -44 0 R -43 -22 R -22 -66 R 0 -372 R D
9968 12268 M 153 0 R D 10297 12421 M 0 -373 R 21 -65 R 44 -22 R 44 0 R D
10231 12268 M 153 0 R D 10516 12136 M 263 0 R 0 44 R -22 44 R -22 22 R
-44 22 R -66 0 R -44 -22 R -43 -44 R -22 -66 R 0 -44 R 22 -65 R 43 -44 R
44 -22 R 66 0 R 44 22 R 44 44 R D 10932 12268 M 0 -307 R D 10932 12136 M
22 66 R 44 44 R 43 22 R 66 0 R D 11589 12421 M 0 -373 R 22 -65 R 44 -22 R
44 0 R D 11523 12268 M 154 0 R D 11808 12421 M 22 -22 R 22 22 R -22 22 R
-22 -22 R D 11830 12268 M 0 -307 R D 12246 12421 M 0 -460 R D 12246 12202 M
-43 44 R -44 22 R -66 0 R -44 -22 R -44 -44 R -22 -66 R 0 -44 R 22 -65 R
44 -44 R 44 -22 R 66 0 R 44 22 R 43 44 R D 12663 12268 M 0 -307 R D
12663 12202 M -44 44 R -44 22 R -66 0 R -44 -22 R -43 -44 R -22 -66 R
0 -44 R 22 -65 R 43 -44 R 44 -22 R 66 0 R 44 22 R 44 44 R D 12838 12421 M
0 -460 R D 13364 12421 M 0 -460 R D 13364 12180 M 65 66 R 44 22 R 66 0 R
44 -22 R 22 -66 R 0 -219 R D 13758 12136 M 263 0 R 0 44 R -22 44 R -22 22 R
-44 22 R -65 0 R -44 -22 R -44 -44 R -22 -66 R 0 -44 R 22 -65 R 44 -44 R
44 -22 R 65 0 R 44 22 R 44 44 R D 14415 12268 M 0 -307 R D 14415 12202 M
-44 44 R -43 22 R -66 0 R -44 -22 R -44 -44 R -22 -66 R 0 -44 R 22 -65 R
44 -44 R 44 -22 R 66 0 R 43 22 R 44 44 R D 14612 12421 M 0 -373 R 22 -65 R
44 -22 R 44 0 R D 14547 12268 M 153 0 R D 14832 12421 M 21 -22 R 22 22 R
-22 22 R -21 -22 R D 14853 12268 M 0 -307 R D 15029 12268 M 0 -307 R D
15029 12180 M 65 66 R 44 22 R 66 0 R 44 -22 R 22 -66 R 0 -219 R D
15686 12268 M 0 -373 R -22 -66 R -22 -21 R -44 -22 R -65 0 R -44 22 R D
15686 12202 M -44 44 R -44 22 R -65 0 R -44 -22 R -44 -44 R -22 -66 R
0 -44 R 22 -65 R 44 -44 R 44 -22 R 65 0 R 44 22 R 44 44 R D 3330 2112 M
13451 0 R D 3638 2112 M 0 191 R D 3340 1688 M -53 -17 R -35 -53 R -17 -88 R
0 -52 R 17 -88 R 35 -52 R 53 -18 R 35 0 R 53 18 R 35 52 R 17 88 R 0 52 R
-17 88 R -35 53 R -53 17 R -35 0 R D 3620 1355 M -17 -17 R 17 -18 R 18 18 R
-18 17 R D 3813 1618 M 35 18 R 53 52 R 0 -368 R D 10363 2112 M 0 191 R D
10013 1618 M 35 18 R 52 52 R 0 -368 R D 10346 1355 M -18 -17 R 18 -18 R
17 18 R -17 17 R D 10591 1688 M -52 -17 R -35 -53 R -18 -88 R 0 -52 R
18 -88 R 35 -52 R 52 -18 R 35 0 R 53 18 R 35 52 R 17 88 R 0 52 R -17 88 R
-35 53 R -53 17 R -35 0 R D 3330 2112 M 0 95 R D 5662 2112 M 0 95 R D
6847 2112 M 0 95 R D 7687 2112 M 0 95 R D 8339 2112 M 0 95 R D 8871 2112 M
0 95 R D 9322 2112 M 0 95 R D 9712 2112 M 0 95 R D 10056 2112 M 0 95 R D
12388 2112 M 0 95 R D 13572 2112 M 0 95 R D 14412 2112 M 0 95 R D
15064 2112 M 0 95 R D 15597 2112 M 0 95 R D 16047 2112 M 0 95 R D
16437 2112 M 0 95 R D 16781 2112 M 0 95 R D 9595 879 M 0 -245 R D 9595 774 M
18 52 R 35 36 R 35 17 R 53 0 R D 10104 1072 M -316 -579 R D 10209 879 M
0 -245 R D 10209 774 M 17 52 R 35 36 R 35 17 R 53 0 R D 10525 613 M -11 22 R
-32 11 R -33 0 R -32 -11 R -11 -22 R 11 -21 R 21 -11 R 54 -11 R 22 -11 R
11 -21 R 0 -11 R -11 -22 R -32 -11 R -33 0 R -32 11 R -11 22 R D
3330 11644 M 13451 0 R D 3638 11644 M 0 -191 R D 10363 11644 M 0 -191 R D
3330 11644 M 0 -95 R D 5662 11644 M 0 -95 R D 6847 11644 M 0 -95 R D
7687 11644 M 0 -95 R D 8339 11644 M 0 -95 R D 8871 11644 M 0 -95 R D
9322 11644 M 0 -95 R D 9712 11644 M 0 -95 R D 10056 11644 M 0 -95 R D
12388 11644 M 0 -95 R D 13572 11644 M 0 -95 R D 14412 11644 M 0 -95 R D
15064 11644 M 0 -95 R D 15597 11644 M 0 -95 R D 16047 11644 M 0 -95 R D
16437 11644 M 0 -95 R D 16781 11644 M 0 -95 R D 3330 2112 M 0 9532 R D
3330 2701 M 269 0 R D 2333 2788 M 35 17 R 53 53 R 0 -368 R D 2736 2858 M
-52 -18 R -35 -52 R -18 -88 R 0 -52 R 18 -88 R 35 -53 R 52 -17 R 35 0 R
53 17 R 35 53 R 18 88 R 0 52 R -18 88 R -35 52 R -53 18 R -35 0 R D
3077 2984 M -109 -152 R 163 0 R D 3077 2984 M 0 -228 R D 3330 5208 M 269 0 R
D 2333 5295 M 35 17 R 53 53 R 0 -368 R D 2736 5365 M -52 -18 R -35 -52 R
-18 -88 R 0 -52 R 18 -88 R 35 -53 R 52 -17 R 35 0 R 53 17 R 35 53 R 18 88 R
0 52 R -18 88 R -35 52 R -53 18 R -35 0 R D 3098 5491 M -108 0 R -11 -97 R
11 10 R 33 11 R 32 0 R 33 -11 R 21 -21 R 11 -33 R 0 -22 R -11 -32 R
-21 -22 R -33 -11 R -32 0 R -33 11 R -11 11 R -11 22 R D 3330 7715 M 269 0 R
D 2333 7802 M 35 17 R 53 53 R 0 -368 R D 2736 7872 M -52 -17 R -35 -53 R
-18 -88 R 0 -52 R 18 -88 R 35 -52 R 52 -18 R 35 0 R 53 18 R 35 52 R 18 88 R
0 52 R -18 88 R -35 53 R -53 17 R -35 0 R D 3109 7966 M -11 21 R -32 11 R
-22 0 R -32 -11 R -22 -32 R -11 -54 R 0 -55 R 11 -43 R 22 -22 R 32 -11 R
11 0 R 33 11 R 21 22 R 11 33 R 0 10 R -11 33 R -21 22 R -33 10 R -11 0 R
-32 -10 R -22 -22 R -11 -33 R D 3330 10222 M 269 0 R D 2333 10309 M 35 18 R
53 52 R 0 -368 R D 2736 10379 M -52 -17 R -35 -53 R -18 -88 R 0 -52 R
18 -88 R 35 -52 R 52 -18 R 35 0 R 53 18 R 35 52 R 18 88 R 0 52 R -18 88 R
-35 53 R -53 17 R -35 0 R D 3120 10505 M -108 -228 R D 2968 10505 M 152 0 R
D 3330 2145 M 135 0 R D 3330 2313 M 135 0 R D 3330 2458 M 135 0 R D
3330 2586 M 135 0 R D 3330 3456 M 135 0 R D 3330 3897 M 135 0 R D
3330 4211 M 135 0 R D 3330 4453 M 135 0 R D 3330 4652 M 135 0 R D
3330 4820 M 135 0 R D 3330 4965 M 135 0 R D 3330 5093 M 135 0 R D
3330 5963 M 135 0 R D 3330 6404 M 135 0 R D 3330 6718 M 135 0 R D
3330 6961 M 135 0 R D 3330 7159 M 135 0 R D 3330 7327 M 135 0 R D
3330 7472 M 135 0 R D 3330 7601 M 135 0 R D 3330 8470 M 135 0 R D
3330 8911 M 135 0 R D 3330 9225 M 135 0 R D 3330 9468 M 135 0 R D
3330 9666 M 135 0 R D 3330 9834 M 135 0 R D 3330 9979 M 135 0 R D
3330 10108 M 135 0 R D 3330 10977 M 135 0 R D 3330 11418 M 135 0 R D
1606 6414 M 52 0 R 53 17 R 18 18 R 17 35 R 0 35 R -17 35 R -36 35 R -52 17 R
-53 0 R -52 -17 R -18 -18 R -17 -35 R 0 -35 R 17 -35 R 35 -35 R 53 -17 R
280 -88 R D 1308 6852 M 35 -35 R 53 -35 R 70 -35 R 87 -18 R 70 0 R 88 18 R
88 35 R 52 35 R 35 35 R D 1501 6974 M 245 0 R D 1606 6974 M -53 18 R
-35 35 R -17 35 R 0 53 R D 1308 7185 M 35 35 R 53 35 R 70 35 R 87 17 R
70 0 R 88 -17 R 88 -35 R 52 -35 R 35 -35 R D 16781 2112 M 0 9532 R D
16781 2701 M -269 0 R D 16781 5208 M -269 0 R D 16781 7715 M -269 0 R D
16781 10222 M -269 0 R D 16781 2145 M -134 0 R D 16781 2313 M -134 0 R D
16781 2458 M -134 0 R D 16781 2586 M -134 0 R D 16781 3456 M -134 0 R D
16781 3897 M -134 0 R D 16781 4211 M -134 0 R D 16781 4453 M -134 0 R D
16781 4652 M -134 0 R D 16781 4820 M -134 0 R D 16781 4965 M -134 0 R D
16781 5093 M -134 0 R D 16781 5963 M -134 0 R D 16781 6404 M -134 0 R D
16781 6718 M -134 0 R D 16781 6961 M -134 0 R D 16781 7159 M -134 0 R D
16781 7327 M -134 0 R D 16781 7472 M -134 0 R D 16781 7601 M -134 0 R D
16781 8470 M -134 0 R D 16781 8911 M -134 0 R D 16781 9225 M -134 0 R D
16781 9468 M -134 0 R D 16781 9666 M -134 0 R D 16781 9834 M -134 0 R D
16781 9979 M -134 0 R D 16781 10108 M -134 0 R D 16781 10977 M -134 0 R D
16781 11418 M -134 0 R D 20 setlinewidth 3638 11644 M 259 -115 R 260 -117 R
259 -118 R 260 -120 R 259 -122 R 260 -124 R 260 -126 R 259 -128 R 260 -131 R
259 -133 R 260 -136 R 259 -139 R 260 -141 R 259 -145 R 260 -149 R 259 -151 R
260 -155 R 259 -159 R 260 -163 R 259 -167 R 260 -170 R 259 -175 R 260 -179 R
259 -183 R 260 -188 R 260 -191 R 259 -196 R 260 -201 R 259 -204 R 260 -209 R
259 -213 R 260 -217 R 259 -221 R 260 -225 R 259 -229 R 260 -232 R 259 -236 R
260 -239 R 259 -243 R 260 -245 R 259 -249 R 260 -251 R 259 -255 R 260 -256 R
260 -259 R 259 -262 R 260 -263 R 259 -266 R 260 -267 R 259 -269 R D L2
0.373 0.000 0.000 setrgbcolor 3638 11342 M 259 -120 R 260 -121 R 259 -123 R
260 -125 R 259 -127 R 260 -130 R 260 -132 R 259 -135 R 260 -138 R 259 -140 R
260 -144 R 259 -147 R 260 -150 R 259 -154 R 260 -157 R 259 -162 R 260 -165 R
259 -169 R 260 -173 R 259 -177 R 260 -182 R 259 -185 R 260 -190 R 259 -195 R
260 -198 R 260 -203 R 259 -207 R 260 -211 R 259 -216 R 260 -219 R 259 -223 R
260 -228 R 259 -231 R 260 -234 R 259 -238 R 260 -241 R 259 -245 R 260 -247 R
259 -251 R 260 -253 R 259 -255 R 260 -259 R 259 -260 R 260 -263 R 260 -264 R
259 -267 R 260 -268 R 103 -108 R D 0.871 0.169 0.000 setrgbcolor
3638 10591 M 259 -132 R 260 -135 R 259 -138 R 260 -141 R 259 -144 R
260 -147 R 260 -150 R 259 -154 R 260 -157 R 259 -162 R 260 -165 R 259 -169 R
260 -173 R 259 -178 R 260 -182 R 259 -185 R 260 -191 R 259 -194 R 260 -199 R
259 -203 R 260 -207 R 259 -211 R 260 -216 R 259 -219 R 260 -224 R 260 -227 R
259 -231 R 260 -235 R 259 -238 R 260 -241 R 259 -245 R 260 -248 R 259 -250 R
260 -253 R 259 -256 R 260 -258 R 259 -261 R 260 -263 R 259 -264 R 260 -267 R
259 -268 R 94 -98 R D 0.051 0.953 0.000 setrgbcolor 3638 10241 M 259 -139 R
260 -143 R 259 -145 R 260 -149 R 259 -153 R 260 -156 R 260 -160 R 259 -164 R
260 -167 R 259 -172 R 260 -175 R 259 -180 R 260 -185 R 259 -188 R 260 -193 R
259 -197 R 260 -201 R 259 -206 R 260 -209 R 259 -214 R 260 -218 R 259 -222 R
260 -226 R 259 -230 R 260 -233 R 260 -237 R 259 -240 R 260 -243 R 259 -246 R
260 -250 R 259 -252 R 260 -255 R 259 -257 R 260 -260 R 259 -261 R 260 -264 R
259 -266 R 260 -268 R 197 -205 R D 0.000 0.255 0.741 setrgbcolor 3638 9350 M
259 -160 R 260 -164 R 259 -168 R 260 -171 R 259 -176 R 260 -180 R 260 -185 R
259 -188 R 260 -193 R 259 -197 R 260 -202 R 259 -205 R 260 -210 R 259 -214 R
260 -219 R 259 -222 R 260 -226 R 259 -229 R 260 -234 R 259 -237 R 260 -240 R
259 -243 R 260 -247 R 259 -249 R 260 -252 R 260 -255 R 259 -258 R 260 -259 R
259 -262 R 260 -264 R 259 -266 R 260 -268 R 187 -195 R D
0.000 0.000 0.478 setrgbcolor 3638 8926 M 259 -170 R 260 -174 R 259 -179 R
260 -182 R 259 -187 R 260 -192 R 260 -195 R 259 -200 R 260 -204 R 259 -208 R
260 -212 R 259 -217 R 260 -220 R 259 -225 R 260 -228 R 259 -232 R 260 -235 R
259 -239 R 260 -243 R 259 -245 R 260 -248 R 259 -251 R 260 -254 R 259 -257 R
260 -258 R 260 -261 R 259 -264 R 260 -265 R 259 -267 R 260 -269 R 31 -33 R D
%%PageTrailer
end
restore
showpage
%%PageResources: font Helvetica
%%Trailer
restore
%%Pages: 1
%%DocumentNeededResources: font Helvetica
%%EOF
