%!PS-Adobe-3.0
%%BoundingBox: 54 360 558 720
%%Title: Graphics produced by IDL
%%For: daxia@JiangHu, /home/daxia/work/subhalo_model
%%Creator: IDL Version 6.0 (linux x86 m32)
%%CreationDate: Thu Aug 21 11:39:34 2008
%%DocumentData: Clean7bit
%%Requirements: color
%%LanguageLevel: 1
%%PageOrder: Ascend
%%Pages: (atend)
%%DocumentNeededResources: (atend)
%%EndComments
%%BeginProlog
save
%+ prolog.ps -- Prolog for IDL generated PostScript files
%+ Copyright (c) 1988-2003 Research Systems, Inc. All Rights Reserved.
%v 4
/$IDL_DICT 40 dict def $IDL_DICT begin /bdef { bind def } bind def /C
{currentpoint newpath moveto} bdef /CP {currentpoint} bdef /D {currentpoint
stroke moveto} bdef /F {closepath fill} bdef /K { setgray } bdef /M {moveto}
bdef /N {rmoveto} bdef /P {lineto} bdef /R {rlineto} bdef /S {gsave show
grestore} bdef /X {currentpoint pop} bdef /Z {gsave currentpoint lineto 20
setlinewidth 1 setlinecap stroke grestore} bdef /L0 {[] 0 setdash} bdef /L1
{[40 100] 0 setdash} bdef /L2 {[200 200] 0 setdash} bdef /L3 {[200 100 50
100] 0 setdash} bdef /L4 {[300 100 50 100 50 100 50 100] 0 setdash} bdef /L5
{[400 200] 0 setdash} bdef /STDFONT { findfont exch scalefont setfont } bdef
/ISOFONT { findfont dup length dict begin { 1 index /FID ne {def} {pop pop}
ifelse } forall /Encoding ISOLatin1Encoding def currentdict end /idltmpfont
exch definefont exch scalefont setfont } bdef /ISOBULLET { gsave /Helvetica
findfont exch scalefont setfont (\267) show currentpoint grestore moveto}
bdef end 2.5 setmiterlimit
%%EndProlog
%%Page: 0 1
%%PageRequirements: color
%%PageResources: (atend)
%%PageOrientation: Portrait
%%PageBoundingBox: 54 360 558 720
%%BeginPageSetup
save
$IDL_DICT begin 54 360 translate 0.0283465 dup scale
%%IncludeResource: font Helvetica
423.333 /Helvetica STDFONT
%%EndPageSetup
10 setlinewidth L0 0.000 0.000 0.000 setrgbcolor 2220 1408 M 14894 0 R D
2816 1408 M 0 212 R D 2582 985 M 210 0 R D 2886 1067 M 0 12 R 12 23 R
11 12 R 24 11 R 46 0 R 24 -11 R 11 -12 R 12 -23 R 0 -24 R -12 -23 R
-23 -35 R -117 -117 R 164 0 R D 5199 1408 M 0 212 R D 5176 1125 M -36 -11 R
-23 -35 R -12 -59 R 0 -35 R 12 -58 R 23 -35 R 36 -12 R 23 0 R 35 12 R
23 35 R 12 58 R 0 35 R -12 59 R -23 35 R -35 11 R -23 0 R D 7582 1408 M
0 212 R D 7500 1067 M 0 12 R 12 23 R 12 12 R 23 11 R 47 0 R 23 -11 R
12 -12 R 11 -23 R 0 -24 R -11 -23 R -24 -35 R -117 -117 R 164 0 R D
9965 1408 M 0 212 R D 9988 1125 M -117 -163 R 176 0 R D 9988 1125 M 0 -245 R
D 12348 1408 M 0 212 R D 12406 1090 M -11 24 R -35 11 R -24 0 R -35 -11 R
-23 -35 R -12 -59 R 0 -58 R 12 -47 R 23 -23 R 35 -12 R 12 0 R 35 12 R
23 23 R 12 35 R 0 12 R -12 35 R -23 23 R -35 12 R -12 0 R -35 -12 R
-23 -23 R -12 -35 R D 14731 1408 M 0 212 R D 14696 1125 M -35 -11 R
-12 -24 R 0 -23 R 12 -23 R 23 -12 R 47 -12 R 35 -11 R 23 -24 R 12 -23 R
0 -35 R -12 -24 R -11 -11 R -35 -12 R -47 0 R -35 12 R -12 11 R -11 24 R
0 35 R 11 23 R 24 24 R 35 11 R 46 12 R 24 12 R 11 23 R 0 23 R -11 24 R
-35 11 R -47 0 R D 17114 1408 M 0 212 R D 16939 1079 M 23 11 R 35 35 R
0 -245 R D 17208 1125 M -35 -11 R -24 -35 R -12 -59 R 0 -35 R 12 -58 R
24 -35 R 35 -12 R 23 0 R 35 12 R 23 35 R 12 58 R 0 35 R -12 59 R -23 35 R
-35 11 R -23 0 R D 2220 1408 M 0 106 R D 3412 1408 M 0 106 R D 4007 1408 M
0 106 R D 4603 1408 M 0 106 R D 5795 1408 M 0 106 R D 6390 1408 M 0 106 R D
6986 1408 M 0 106 R D 8178 1408 M 0 106 R D 8773 1408 M 0 106 R D
9369 1408 M 0 106 R D 10561 1408 M 0 106 R D 11156 1408 M 0 106 R D
11752 1408 M 0 106 R D 12944 1408 M 0 106 R D 13540 1408 M 0 106 R D
14135 1408 M 0 106 R D 15327 1408 M 0 106 R D 15923 1408 M 0 106 R D
16518 1408 M 0 106 R D 2220 11996 M 14894 0 R D 2816 11996 M 0 -212 R D
5199 11996 M 0 -212 R D 7582 11996 M 0 -212 R D 9965 11996 M 0 -212 R D
12348 11996 M 0 -212 R D 14731 11996 M 0 -212 R D 17114 11996 M 0 -212 R D
2220 11996 M 0 -106 R D 3412 11996 M 0 -106 R D 4007 11996 M 0 -106 R D
4603 11996 M 0 -106 R D 5795 11996 M 0 -106 R D 6390 11996 M 0 -106 R D
6986 11996 M 0 -106 R D 8178 11996 M 0 -106 R D 8773 11996 M 0 -106 R D
9369 11996 M 0 -106 R D 10561 11996 M 0 -106 R D 11156 11996 M 0 -106 R D
11752 11996 M 0 -106 R D 12944 11996 M 0 -106 R D 13540 11996 M 0 -106 R D
14135 11996 M 0 -106 R D 15327 11996 M 0 -106 R D 15923 11996 M 0 -106 R D
16518 11996 M 0 -106 R D 2220 1408 M 0 10588 R D 2220 1408 M 298 0 R D
1373 1513 M 210 0 R D 1700 1607 M 24 11 R 35 35 R 0 -245 R D 1969 1653 M
-35 -11 R -24 -35 R -11 -59 R 0 -35 R 11 -58 R 24 -35 R 35 -12 R 23 0 R
35 12 R 24 35 R 11 58 R 0 35 R -11 59 R -24 35 R -35 11 R -23 0 R D
2220 2820 M 298 0 R D 1607 2784 M 210 0 R D 1957 2924 M -35 -11 R -12 -24 R
0 -23 R 12 -23 R 24 -12 R 46 -12 R 35 -11 R 24 -24 R 11 -23 R 0 -35 R
-11 -24 R -12 -11 R -35 -12 R -47 0 R -35 12 R -12 11 R -11 24 R 0 35 R
11 23 R 24 24 R 35 11 R 47 12 R 23 12 R 12 23 R 0 23 R -12 24 R -35 11 R
-47 0 R D 2220 4232 M 298 0 R D 1607 4196 M 210 0 R D 2051 4301 M -12 23 R
-35 12 R -23 0 R -35 -12 R -24 -35 R -12 -58 R 0 -58 R 12 -47 R 24 -24 R
35 -11 R 11 0 R 35 11 R 24 24 R 11 35 R 0 12 R -11 35 R -24 23 R -35 12 R
-11 0 R -35 -12 R -24 -23 R -12 -35 R D 2220 5643 M 298 0 R D 1607 5608 M
210 0 R D 2016 5748 M -117 -164 R 175 0 R D 2016 5748 M 0 -246 R D
2220 7055 M 298 0 R D 1607 7019 M 210 0 R D 1910 7101 M 0 12 R 12 23 R
12 12 R 23 12 R 47 0 R 23 -12 R 12 -12 R 12 -23 R 0 -24 R -12 -23 R
-23 -35 R -117 -117 R 163 0 R D 2220 8467 M 298 0 R D 1969 8571 M -35 -11 R
-24 -35 R -11 -59 R 0 -35 R 11 -58 R 24 -35 R 35 -12 R 23 0 R 35 12 R
24 35 R 11 58 R 0 35 R -11 59 R -24 35 R -35 11 R -23 0 R D 2220 9878 M
298 0 R D 1910 9925 M 0 11 R 12 24 R 12 11 R 23 12 R 47 0 R 23 -12 R
12 -11 R 12 -24 R 0 -23 R -12 -23 R -23 -35 R -117 -117 R 163 0 R D
2220 11290 M 298 0 R D 2016 11395 M -117 -164 R 175 0 R D 2016 11395 M
0 -246 R D 2220 1761 M 149 0 R D 2220 2114 M 149 0 R D 2220 2467 M 149 0 R D
2220 3173 M 149 0 R D 2220 3526 M 149 0 R D 2220 3879 M 149 0 R D
2220 4584 M 149 0 R D 2220 4937 M 149 0 R D 2220 5290 M 149 0 R D
2220 5996 M 149 0 R D 2220 6349 M 149 0 R D 2220 6702 M 149 0 R D
2220 7408 M 149 0 R D 2220 7761 M 149 0 R D 2220 8114 M 149 0 R D
2220 8820 M 149 0 R D 2220 9173 M 149 0 R D 2220 9526 M 149 0 R D
2220 10231 M 149 0 R D 2220 10584 M 149 0 R D 2220 10937 M 149 0 R D
2220 11643 M 149 0 R D 2220 11996 M 149 0 R D 17114 1408 M 0 10588 R D
17114 1408 M -298 0 R D 17114 2820 M -298 0 R D 17114 4232 M -298 0 R D
17114 5643 M -298 0 R D 17114 7055 M -298 0 R D 17114 8467 M -298 0 R D
17114 9878 M -298 0 R D 17114 11290 M -298 0 R D 17114 1761 M -149 0 R D
17114 2114 M -149 0 R D 17114 2467 M -149 0 R D 17114 3173 M -149 0 R D
17114 3526 M -149 0 R D 17114 3879 M -149 0 R D 17114 4584 M -149 0 R D
17114 4937 M -149 0 R D 17114 5290 M -149 0 R D 17114 5996 M -149 0 R D
17114 6349 M -149 0 R D 17114 6702 M -149 0 R D 17114 7408 M -149 0 R D
17114 7761 M -149 0 R D 17114 8114 M -149 0 R D 17114 8820 M -149 0 R D
17114 9173 M -149 0 R D 17114 9526 M -149 0 R D 17114 10231 M -149 0 R D
17114 10584 M -149 0 R D 17114 10937 M -149 0 R D 17114 11643 M -149 0 R D
17114 11996 M -149 0 R D L2 2220 8467 M 596 0 R 1191 0 R 1192 0 R 1191 0 R
1192 0 R 1191 0 R 1192 0 R 1191 0 R 1192 0 R 1192 0 R 1191 0 R 1192 0 R
1191 0 R D L0 5207 1408 M 16 2799 R 3 -2799 R D
0.149 0.000 0.000 setrgbcolor 5138 1408 M 18 4227 R 67 1980 R 35 -6207 R D
0.298 0.000 0.000 setrgbcolor 5107 1408 M 25 3639 R 62 3408 R 62 -2465 R
34 -4582 R D 0.447 0.000 0.000 setrgbcolor 4988 1408 M 35 2219 R 57 2643 R
57 1606 R 57 588 R 57 -413 R 58 -1396 R 57 -2368 R 49 -2879 R D
0.596 0.000 0.000 setrgbcolor 4900 1408 M 46 2050 R 53 1880 R 52 1435 R
53 993 R 52 559 R 52 134 R 53 -283 R 52 -696 R 53 -1102 R 52 -1498 R
53 -1889 R 36 -1583 R D 0.745 0.000 0.000 setrgbcolor 4547 1408 M 8 182 R
48 1018 R 48 930 R 47 846 R 48 761 R 48 679 R 47 598 R 48 518 R 48 441 R
47 363 R 48 288 R 48 214 R 47 142 R 48 70 R 48 0 R 47 -69 R 48 -136 R
48 -203 R 47 -267 R 48 -331 R 48 -394 R 47 -455 R 48 -516 R 48 -575 R
47 -632 R 48 -689 R 48 -745 R 47 -799 R 48 -854 R 20 -385 R D
0.894 0.000 0.000 setrgbcolor 4302 1408 M 20 333 R 43 681 R 43 641 R
43 602 R 43 563 R 42 524 R 43 487 R 43 450 R 43 413 R 43 378 R 43 343 R
43 308 R 43 275 R 43 242 R 42 209 R 43 178 R 43 146 R 43 115 R 43 85 R
43 56 R 43 27 R 43 -2 R 43 -29 R 43 -56 R 42 -84 R 43 -109 R 43 -135 R
43 -160 R 43 -185 R 43 -208 R 43 -232 R 43 -255 R 43 -277 R 42 -300 R
43 -320 R 43 -341 R 43 -362 R 43 -382 R 43 -401 R 43 -420 R 43 -439 R
43 -456 R 43 -474 R 42 -491 R 43 -508 R 35 -430 R D 14033 1408 M 26 1252 R
43 2175 R 43 2214 R 43 2253 R 43 2293 R 7 401 R D
0.953 0.090 0.000 setrgbcolor 3528 1408 M 27 265 R 38 373 R 38 360 R
38 347 R 38 334 R 38 322 R 38 309 R 38 297 R 39 285 R 38 274 R 38 262 R
38 251 R 38 240 R 38 229 R 38 219 R 39 208 R 38 198 R 38 189 R 38 178 R
38 169 R 38 160 R 38 151 R 38 142 R 39 133 R 38 125 R 38 117 R 38 108 R
38 101 R 38 93 R 38 86 R 38 78 R 39 72 R 38 65 R 38 58 R 38 51 R 38 46 R
38 39 R 38 34 R 38 28 R 39 23 R 38 17 R 38 12 R 38 8 R 38 3 R 38 -2 R
38 -6 R 39 -10 R 38 -14 R 38 -17 R 38 -22 R 38 -24 R 38 -28 R 38 -30 R
38 -34 R 39 -35 R 38 -39 R 38 -40 R 38 -43 R 38 -44 R 38 -47 R 38 -47 R
38 -49 R 39 -50 R 38 -51 R 38 -52 R 38 -53 R 38 -52 R 38 -53 R 38 -54 R
38 -53 R 39 -52 R 38 -53 R 38 -51 R 38 -51 R 38 -50 R 38 -48 R 38 -48 R
38 -46 R 39 -44 R 38 -42 R 38 -40 R 38 -38 R 38 -36 R 38 -33 R 38 -30 R
39 -28 R 38 -24 R 38 -21 R 38 -18 R 38 -15 R 38 -10 R 38 -7 R 38 -2 R 39 1 R
38 6 R 38 11 R 38 15 R 38 21 R 38 25 R 38 30 R 38 36 R 39 42 R 38 47 R
38 53 R 38 59 R 38 66 R 38 71 R 38 79 R 38 85 R 39 91 R 38 99 R 38 106 R
38 114 R 38 121 R 38 128 R 38 137 R 39 144 R 38 153 R 38 161 R 38 169 R
38 178 R 38 187 R 38 195 R 38 205 R 39 214 R 38 224 R 38 233 R 38 243 R
38 253 R 38 262 R 38 274 R 38 283 R 39 294 R 18 150 R D
0.788 0.247 0.000 setrgbcolor 3208 1408 M 13 114 R 33 300 R 34 290 R
33 282 R 33 274 R 34 265 R 33 258 R 34 249 R 33 242 R 33 234 R 34 226 R
33 219 R 33 212 R 34 204 R 33 198 R 33 190 R 34 184 R 33 176 R 33 171 R
34 163 R 33 158 R 34 151 R 33 145 R 33 139 R 34 134 R 33 127 R 33 122 R
34 116 R 33 111 R 33 106 R 34 101 R 33 95 R 34 91 R 33 86 R 33 81 R 34 77 R
33 72 R 33 68 R 34 63 R 33 60 R 33 55 R 34 52 R 33 48 R 34 44 R 33 41 R
33 37 R 34 34 R 33 31 R 33 28 R 34 25 R 33 22 R 33 19 R 34 16 R 33 15 R
34 11 R 33 10 R 33 7 R 34 5 R 33 3 R 33 2 R 34 -1 R 33 -2 R 33 -3 R 34 -5 R
33 -6 R 34 -8 R 33 -8 R 33 -9 R 34 -11 R 33 -11 R 33 -11 R 34 -13 R 33 -12 R
33 -13 R 34 -13 R 33 -13 R 34 -14 R 33 -13 R 33 -12 R 34 -13 R 33 -12 R
33 -12 R 34 -11 R 33 -10 R 33 -9 R 34 -8 R 33 -7 R 34 -6 R 33 -5 R 33 -3 R
34 -2 R 33 -1 R 33 2 R 34 3 R 33 5 R 33 8 R 34 9 R 33 12 R 33 14 R 34 16 R
33 19 R 34 22 R 33 24 R 33 27 R 34 30 R 33 34 R 33 36 R 34 40 R 33 43 R
33 46 R 34 51 R 33 53 R 34 58 R 33 62 R 33 65 R 34 70 R 33 73 R 33 79 R
34 82 R 33 87 R 33 92 R 34 96 R 33 101 R 34 106 R 33 112 R 33 116 R 34 121 R
33 127 R 33 132 R 34 138 R 33 143 R 33 149 R 34 155 R 33 161 R 34 167 R
33 173 R 33 179 R 34 186 R 33 192 R 15 90 R D 0.624 0.404 0.000 setrgbcolor
2782 1408 M 10 82 R 29 236 R 28 231 R 29 225 R 28 221 R 29 215 R 29 210 R
28 204 R 29 200 R 28 195 R 29 190 R 29 185 R 28 180 R 29 176 R 28 170 R
29 167 R 29 162 R 28 157 R 29 153 R 28 149 R 29 144 R 29 140 R 28 136 R
29 132 R 28 128 R 29 124 R 29 120 R 28 116 R 29 113 R 28 108 R 29 105 R
29 102 R 28 98 R 29 95 R 28 91 R 29 88 R 28 84 R 29 82 R 29 78 R 28 75 R
29 72 R 28 69 R 29 66 R 29 64 R 28 61 R 29 58 R 28 55 R 29 53 R 29 50 R
28 47 R 29 46 R 28 43 R 29 40 R 29 39 R 28 36 R 29 35 R 28 32 R 29 30 R
29 28 R 28 27 R 29 25 R 28 23 R 29 21 R 29 20 R 28 18 R 29 16 R 28 16 R
29 14 R 29 12 R 28 12 R 29 10 R 28 9 R 29 8 R 29 7 R 28 6 R 29 5 R 28 5 R
29 4 R 29 3 R 28 2 R 29 2 R 28 1 R 29 1 R 29 1 R 28 0 R 29 0 R 28 -1 R
29 0 R 29 -1 R 28 0 R 29 -1 R 28 0 R 29 0 R 28 0 R 29 0 R 29 1 R 28 1 R
29 2 R 28 2 R 29 2 R 29 4 R 28 4 R 29 4 R 28 6 R 29 6 R 29 8 R 28 8 R
29 10 R 28 11 R 29 11 R 29 13 R 28 15 R 29 16 R 28 17 R 29 19 R 29 20 R
28 22 R 29 23 R 28 26 R 29 27 R 29 29 R 28 31 R 29 32 R 28 35 R 29 37 R
29 39 R 28 42 R 29 43 R 28 46 R 29 49 R 29 50 R 28 54 R 29 56 R 28 58 R
29 61 R 29 64 R 28 67 R 29 70 R 28 72 R 29 76 R 29 78 R 28 82 R 29 85 R
28 88 R 29 92 R 29 95 R 28 98 R 29 101 R 28 106 R 29 108 R 28 113 R 29 116 R
29 120 R 28 124 R 29 127 R 28 132 R 29 136 R 29 139 R 28 144 R 29 148 R
2 11 R D 0.463 0.561 0.000 setrgbcolor 2710 1408 M 11 87 R 23 195 R 24 191 R
24 188 R 24 184 R 24 181 R 24 177 R 23 174 R 24 170 R 24 166 R 24 164 R
24 160 R 23 156 R 24 153 R 24 150 R 24 147 R 24 144 R 24 140 R 23 138 R
24 134 R 24 131 R 24 128 R 24 126 R 24 122 R 23 119 R 24 117 R 24 113 R
24 111 R 24 108 R 24 106 R 23 102 R 24 101 R 24 97 R 24 95 R 24 92 R 24 90 R
23 87 R 24 85 R 24 82 R 24 80 R 24 78 R 24 75 R 23 73 R 24 71 R 24 69 R
24 66 R 24 65 R 24 62 R 23 60 R 24 58 R 24 56 R 24 55 R 24 52 R 24 50 R
23 49 R 24 46 R 24 45 R 24 43 R 24 42 R 24 40 R 23 38 R 24 36 R 24 35 R
24 34 R 24 32 R 24 30 R 23 29 R 24 28 R 24 26 R 24 25 R 24 23 R 23 22 R
24 22 R 24 19 R 24 19 R 24 18 R 24 16 R 23 16 R 24 14 R 24 14 R 24 12 R
24 12 R 24 10 R 23 10 R 24 9 R 24 9 R 24 7 R 24 7 R 24 6 R 23 6 R 24 4 R
24 5 R 24 4 R 24 3 R 24 3 R 23 2 R 24 2 R 24 2 R 24 1 R 24 1 R 24 1 R 23 0 R
24 1 R 24 0 R 24 0 R 24 0 R 24 0 R 23 -1 R 24 0 R 24 0 R 24 0 R 24 1 R
24 0 R 23 0 R 24 1 R 24 1 R 24 1 R 24 2 R 24 2 R 23 2 R 24 3 R 24 3 R 24 4 R
24 4 R 23 5 R 24 6 R 24 6 R 24 7 R 24 7 R 24 8 R 23 9 R 24 10 R 24 11 R
24 11 R 24 13 R 24 13 R 23 15 R 24 15 R 24 16 R 24 18 R 24 19 R 24 19 R
23 21 R 24 23 R 24 23 R 24 25 R 24 26 R 24 27 R 23 29 R 24 30 R 24 32 R
24 33 R 24 35 R 24 36 R 23 38 R 24 40 R 24 41 R 24 43 R 24 44 R 24 47 R
23 48 R 24 50 R 24 52 R 24 54 R 24 56 R 24 57 R 23 60 R 24 62 R 24 64 R
24 66 R 24 68 R 24 70 R 23 73 R 24 75 R 24 77 R 24 79 R 24 82 R 24 84 R
23 87 R 24 89 R 24 91 R 24 94 R 24 97 R 23 99 R 24 102 R 24 104 R 24 107 R
24 110 R 24 113 R 23 115 R 24 119 R 24 121 R 15 80 R D
0.298 0.718 0.000 setrgbcolor 2648 1408 M 11 87 R 19 155 R 19 153 R 19 150 R
19 149 R 19 146 R 19 143 R 19 142 R 19 139 R 19 137 R 19 135 R 19 133 R
19 130 R 19 129 R 19 126 R 20 124 R 19 122 R 19 121 R 19 118 R 19 116 R
19 114 R 19 112 R 19 110 R 19 108 R 19 106 R 19 105 R 19 102 R 19 100 R
19 99 R 19 97 R 19 95 R 20 93 R 19 91 R 19 90 R 19 88 R 19 86 R 19 84 R
19 83 R 19 81 R 19 79 R 19 78 R 19 76 R 19 74 R 19 73 R 19 71 R 19 70 R
20 68 R 19 66 R 19 65 R 19 64 R 19 62 R 19 60 R 19 60 R 19 57 R 19 57 R
19 55 R 19 53 R 19 52 R 19 51 R 19 50 R 19 48 R 19 47 R 20 45 R 19 45 R
19 43 R 19 42 R 19 41 R 19 39 R 19 39 R 19 37 R 19 36 R 19 35 R 19 34 R
19 33 R 19 31 R 19 31 R 19 30 R 20 28 R 19 28 R 19 27 R 19 26 R 19 24 R
19 24 R 19 23 R 19 22 R 19 22 R 19 20 R 19 20 R 19 18 R 19 18 R 19 17 R
19 17 R 19 16 R 20 14 R 19 15 R 19 13 R 19 13 R 19 12 R 19 12 R 19 11 R
19 10 R 19 10 R 19 9 R 19 8 R 19 8 R 19 8 R 19 7 R 19 6 R 20 6 R 19 6 R
19 5 R 19 5 R 19 4 R 19 4 R 19 4 R 19 3 R 19 3 R 19 3 R 19 2 R 19 2 R 19 2 R
19 2 R 19 1 R 19 1 R 20 1 R 19 1 R 19 0 R 19 1 R 19 0 R 19 0 R 19 1 R 19 0 R
19 0 R 19 0 R 19 0 R 19 0 R 19 0 R 19 0 R 19 0 R 20 0 R 19 0 R 19 1 R 19 0 R
19 1 R 19 1 R 19 1 R 19 1 R 19 1 R 19 2 R 19 2 R 19 2 R 19 2 R 19 3 R 19 3 R
19 3 R 20 4 R 19 4 R 19 4 R 19 5 R 19 6 R 19 5 R 19 6 R 19 7 R 19 7 R 19 8 R
19 8 R 19 9 R 19 9 R 19 10 R 19 10 R 20 11 R 19 12 R 19 12 R 19 13 R 19 14 R
19 14 R 19 15 R 19 16 R 19 17 R 19 17 R 19 18 R 19 19 R 19 20 R 19 20 R
19 22 R 19 22 R 20 23 R 19 24 R 19 25 R 19 26 R 19 27 R 19 28 R 19 29 R
19 30 R 19 31 R 19 32 R 19 33 R 19 34 R 19 35 R 19 36 R 19 38 R 19 38 R
20 40 R 19 41 R 19 42 R 19 44 R 19 44 R 19 46 R 19 47 R 19 49 R 19 49 R
19 52 R 19 52 R 19 54 R 19 55 R 19 56 R 19 58 R 20 60 R 19 61 R 19 62 R
19 64 R 19 65 R 19 67 R 19 68 R 19 70 R 19 71 R 19 73 R 19 75 R 19 76 R
19 78 R 19 80 R 19 81 R 19 83 R 20 84 R 19 87 R 19 88 R 19 90 R 19 91 R
19 94 R 19 95 R 19 97 R 12 64 R D 0.133 0.875 0.000 setrgbcolor 5179 1408 M
44 4603 R 8 -4603 R D 0.000 0.969 0.059 setrgbcolor 5115 1408 M 41 5426 R
67 1142 R 65 -6568 R D 0.000 0.812 0.212 setrgbcolor 5073 1408 M 59 5087 R
62 1965 R 62 -1421 R 62 -4748 R 6 -883 R D 0.000 0.651 0.361 setrgbcolor
4920 1408 M 45 2131 R 58 2136 R 57 1525 R 57 926 R 57 339 R 57 -238 R
58 -805 R 57 -1365 R 57 -1908 R 57 -2444 R 5 -297 R D
0.000 0.494 0.514 setrgbcolor 4808 1408 M 33 1199 R 53 1618 R 52 1351 R
53 1085 R 52 828 R 53 573 R 52 323 R 52 77 R 53 -163 R 52 -401 R 53 -635 R
52 -863 R 53 -1087 R 52 -1310 R 52 -1526 R 32 -1069 R D
0.000 0.333 0.667 setrgbcolor 4358 1408 M 7 125 R 47 813 R 48 757 R 48 703 R
47 649 R 48 596 R 48 545 R 47 494 R 48 445 R 48 396 R 47 349 R 48 301 R
48 256 R 47 211 R 48 167 R 48 124 R 47 82 R 48 41 R 48 0 R 47 -40 R 48 -78 R
48 -116 R 47 -154 R 48 -189 R 48 -225 R 47 -260 R 48 -294 R 48 -326 R
47 -359 R 48 -390 R 48 -422 R 47 -451 R 48 -481 R 48 -509 R 47 -537 R
48 -564 R 48 -590 R 47 -616 R 33 -453 R D 14905 1408 M 41 2505 R 47 3012 R
48 3067 R 30 2004 R D 0.000 0.176 0.816 setrgbcolor 4061 1408 M 4 54 R
42 569 R 43 542 R 43 514 R 43 487 R 43 461 R 43 434 R 43 410 R 43 385 R
43 360 R 43 336 R 42 313 R 43 290 R 43 268 R 43 245 R 43 224 R 43 203 R
43 182 R 43 162 R 43 142 R 42 123 R 43 103 R 43 86 R 43 67 R 43 49 R 43 33 R
43 15 R 43 -1 R 43 -17 R 43 -32 R 42 -48 R 43 -62 R 43 -77 R 43 -91 R
43 -104 R 43 -117 R 43 -131 R 43 -142 R 43 -155 R 42 -167 R 43 -177 R
43 -189 R 43 -199 R 43 -209 R 43 -220 R 43 -228 R 43 -238 R 43 -246 R
43 -255 R 42 -263 R 43 -270 R 43 -278 R 43 -284 R 43 -292 R 43 -297 R
43 -304 R 43 -308 R 43 -315 R 42 -319 R 43 -324 R 43 -328 R 43 -331 R
4 -39 R D 11085 1408 M 14 242 R 43 824 R 43 849 R 43 874 R 43 898 R 43 924 R
43 949 R 43 975 R 42 1000 R 43 1027 R 43 1054 R 38 972 R D
0.000 0.020 0.969 setrgbcolor 3269 1408 M 19 177 R 38 345 R 38 333 R
38 322 R 38 311 R 38 300 R 38 289 R 39 279 R 38 269 R 38 258 R 38 249 R
38 238 R 38 230 R 38 219 R 38 211 R 39 202 R 38 193 R 38 184 R 38 176 R
38 168 R 38 160 R 38 152 R 39 144 R 38 136 R 38 130 R 38 122 R 38 115 R
38 109 R 38 102 R 38 96 R 39 89 R 38 83 R 38 78 R 38 71 R 38 67 R 38 61 R
38 55 R 38 51 R 39 46 R 38 41 R 38 37 R 38 33 R 38 28 R 38 24 R 38 21 R
38 17 R 39 14 R 38 10 R 38 8 R 38 4 R 38 2 R 38 -1 R 38 -4 R 39 -5 R 38 -8 R
38 -9 R 38 -12 R 38 -13 R 38 -14 R 38 -16 R 38 -16 R 39 -18 R 38 -18 R
38 -19 R 38 -19 R 38 -20 R 38 -20 R 38 -19 R 38 -19 R 39 -19 R 38 -19 R
38 -17 R 38 -17 R 38 -16 R 38 -15 R 38 -13 R 38 -11 R 39 -10 R 38 -9 R
38 -6 R 38 -4 R 38 -1 R 38 1 R 38 3 R 38 7 R 39 9 R 38 12 R 38 16 R 38 19 R
38 23 R 38 26 R 38 31 R 39 34 R 38 39 R 38 43 R 38 47 R 38 53 R 38 57 R
38 62 R 38 67 R 39 73 R 38 78 R 38 83 R 38 90 R 38 95 R 38 102 R 38 107 R
38 114 R 39 121 R 38 127 R 38 135 R 38 141 R 38 148 R 38 156 R 38 163 R
38 171 R 39 178 R 38 187 R 38 194 R 38 203 R 38 211 R 38 220 R 38 228 R
10 62 R D 0.000 0.000 0.875 setrgbcolor 3011 1408 M 10 86 R 33 286 R
34 279 R 33 270 R 33 263 R 34 256 R 33 248 R 33 240 R 34 233 R 33 226 R
33 219 R 34 213 R 33 205 R 34 199 R 33 192 R 33 186 R 34 179 R 33 173 R
33 167 R 34 161 R 33 155 R 33 149 R 34 144 R 33 138 R 33 132 R 34 127 R
33 122 R 34 117 R 33 112 R 33 107 R 34 102 R 33 97 R 33 93 R 34 88 R 33 84 R
33 80 R 34 75 R 33 72 R 34 67 R 33 64 R 33 60 R 34 56 R 33 53 R 33 49 R
34 46 R 33 43 R 33 40 R 34 36 R 33 34 R 34 31 R 33 29 R 33 25 R 34 24 R
33 21 R 33 19 R 34 16 R 33 15 R 33 12 R 34 11 R 33 9 R 34 7 R 33 6 R 33 5 R
34 3 R 33 2 R 33 1 R 34 -1 R 33 -1 R 33 -2 R 34 -2 R 33 -3 R 34 -4 R 33 -4 R
33 -5 R 34 -4 R 33 -5 R 33 -4 R 34 -5 R 33 -4 R 33 -4 R 34 -4 R 33 -3 R
34 -2 R 33 -2 R 33 -1 R 34 0 R 33 1 R 33 2 R 34 4 R 33 5 R 33 6 R 34 7 R
33 10 R 34 11 R 33 13 R 33 15 R 34 17 R 33 19 R 33 21 R 34 24 R 33 26 R
33 28 R 34 31 R 33 34 R 33 37 R 34 40 R 33 43 R 34 46 R 33 49 R 33 52 R
34 56 R 33 59 R 33 63 R 34 67 R 33 71 R 33 74 R 34 79 R 33 83 R 34 86 R
33 92 R 33 95 R 34 100 R 33 105 R 33 110 R 34 114 R 33 119 R 33 124 R
34 130 R 33 134 R 34 140 R 33 145 R 33 151 R 34 156 R 33 162 R 33 168 R
34 174 R 33 180 R 1 11 R D 0.000 0.000 0.718 setrgbcolor 2721 1408 M
14 111 R 28 233 R 29 228 R 29 223 R 28 218 R 29 213 R 28 208 R 29 202 R
29 198 R 28 193 R 29 188 R 28 183 R 29 179 R 29 174 R 28 169 R 29 165 R
28 160 R 29 156 R 29 152 R 28 148 R 29 143 R 28 139 R 29 135 R 29 131 R
28 127 R 29 123 R 28 120 R 29 115 R 29 112 R 28 109 R 29 104 R 28 101 R
29 98 R 29 94 R 28 91 R 29 88 R 28 84 R 29 81 R 28 78 R 29 76 R 29 72 R
28 69 R 29 66 R 28 64 R 29 60 R 29 59 R 28 55 R 29 53 R 28 50 R 29 48 R
29 46 R 28 43 R 29 41 R 28 39 R 29 37 R 29 34 R 28 33 R 29 31 R 28 28 R
29 27 R 29 26 R 28 23 R 29 22 R 28 20 R 29 19 R 29 17 R 28 16 R 29 14 R
28 13 R 29 12 R 29 11 R 28 9 R 29 9 R 28 7 R 29 7 R 29 6 R 28 5 R 29 4 R
28 3 R 29 3 R 29 3 R 28 1 R 29 2 R 28 1 R 29 0 R 29 1 R 28 0 R 29 0 R 28 0 R
29 -1 R 29 0 R 28 0 R 29 0 R 28 1 R 29 0 R 28 1 R 29 1 R 29 2 R 28 2 R
29 3 R 28 3 R 29 4 R 29 5 R 28 6 R 29 6 R 28 8 R 29 8 R 29 10 R 28 10 R
29 12 R 28 13 R 29 14 R 29 15 R 28 17 R 29 19 R 28 19 R 29 22 R 29 23 R
28 25 R 29 26 R 28 29 R 29 30 R 29 32 R 28 34 R 29 36 R 28 39 R 29 40 R
29 43 R 28 45 R 29 47 R 28 50 R 29 52 R 29 55 R 28 57 R 29 60 R 28 63 R
29 66 R 29 68 R 28 71 R 29 74 R 28 77 R 29 80 R 29 84 R 28 86 R 29 90 R
28 93 R 29 96 R 29 100 R 28 103 R 29 107 R 28 110 R 29 115 R 28 117 R
29 122 R 29 125 R 28 129 R 29 134 R 28 137 R 29 141 R 29 145 R 13 73 R D
0.000 0.000 0.557 setrgbcolor 2677 1408 M 20 156 R 24 193 R 23 190 R
24 185 R 24 183 R 24 178 R 24 175 R 24 172 R 23 168 R 24 165 R 24 162 R
24 158 R 24 155 R 23 151 R 24 149 R 24 145 R 24 142 R 24 139 R 24 136 R
23 133 R 24 130 R 24 127 R 24 124 R 24 121 R 24 118 R 23 115 R 24 113 R
24 109 R 24 107 R 24 105 R 24 101 R 23 99 R 24 97 R 24 94 R 24 91 R 24 89 R
24 86 R 23 84 R 24 82 R 24 79 R 24 77 R 24 75 R 24 72 R 23 70 R 24 68 R
24 66 R 24 64 R 24 61 R 24 60 R 23 58 R 24 55 R 24 54 R 24 52 R 24 50 R
24 48 R 23 46 R 24 44 R 24 43 R 24 41 R 24 40 R 24 37 R 23 37 R 24 34 R
24 33 R 24 32 R 24 30 R 24 29 R 23 27 R 24 26 R 24 25 R 24 23 R 24 22 R
23 21 R 24 20 R 24 19 R 24 17 R 24 16 R 24 16 R 23 14 R 24 13 R 24 13 R
24 11 R 24 11 R 24 10 R 23 9 R 24 8 R 24 8 R 24 6 R 24 6 R 24 6 R 23 5 R
24 4 R 24 4 R 24 3 R 24 3 R 24 3 R 23 2 R 24 1 R 24 2 R 24 1 R 24 0 R 24 1 R
23 0 R 24 1 R 24 0 R 24 0 R 24 0 R 24 0 R 23 0 R 24 0 R 24 0 R 24 0 R 24 0 R
24 1 R 23 1 R 24 1 R 24 1 R 24 2 R 24 2 R 24 2 R 23 3 R 24 4 R 24 4 R 24 4 R
24 5 R 23 5 R 24 7 R 24 6 R 24 8 R 24 8 R 24 9 R 23 10 R 24 11 R 24 11 R
24 13 R 24 13 R 24 15 R 23 15 R 24 16 R 24 18 R 24 19 R 24 19 R 24 21 R
23 23 R 24 23 R 24 25 R 24 26 R 24 27 R 24 29 R 23 30 R 24 32 R 24 33 R
24 35 R 24 36 R 24 38 R 23 39 R 24 41 R 24 43 R 24 44 R 24 47 R 24 48 R
23 50 R 24 51 R 24 54 R 24 56 R 24 57 R 24 60 R 23 61 R 24 64 R 24 66 R
24 68 R 24 70 R 24 72 R 23 74 R 24 77 R 24 79 R 24 82 R 24 84 R 24 86 R
23 88 R 24 92 R 24 93 R 24 96 R 24 99 R 23 102 R 24 104 R 24 106 R 24 110 R
24 112 R 24 115 R 23 118 R 24 120 R 17 90 R D 0.000 0.000 0.400 setrgbcolor
2641 1408 M 18 143 R 19 154 R 19 152 R 19 149 R 19 147 R 19 146 R 19 142 R
19 141 R 19 138 R 19 136 R 19 134 R 19 132 R 19 130 R 19 128 R 19 125 R
20 124 R 19 121 R 19 119 R 19 118 R 19 115 R 19 113 R 19 111 R 19 110 R
19 107 R 19 106 R 19 103 R 19 102 R 19 100 R 19 98 R 19 96 R 19 94 R 20 92 R
19 91 R 19 89 R 19 87 R 19 86 R 19 83 R 19 82 R 19 81 R 19 78 R 19 78 R
19 75 R 19 74 R 19 72 R 19 71 R 19 69 R 20 67 R 19 66 R 19 65 R 19 63 R
19 61 R 19 60 R 19 59 R 19 57 R 19 56 R 19 54 R 19 53 R 19 52 R 19 51 R
19 49 R 19 47 R 19 47 R 20 45 R 19 44 R 19 43 R 19 41 R 19 41 R 19 39 R
19 38 R 19 37 R 19 36 R 19 34 R 19 34 R 19 32 R 19 32 R 19 30 R 19 29 R
20 29 R 19 27 R 19 27 R 19 25 R 19 25 R 19 23 R 19 23 R 19 22 R 19 21 R
19 20 R 19 19 R 19 19 R 19 17 R 19 17 R 19 16 R 19 16 R 20 15 R 19 14 R
19 13 R 19 13 R 19 11 R 19 12 R 19 11 R 19 10 R 19 9 R 19 9 R 19 9 R 19 7 R
19 8 R 19 7 R 19 6 R 20 6 R 19 6 R 19 5 R 19 4 R 19 4 R 19 4 R 19 4 R 19 3 R
19 3 R 19 2 R 19 3 R 19 2 R 19 1 R 19 2 R 19 1 R 19 1 R 20 1 R 19 1 R 19 0 R
19 1 R 19 0 R 19 0 R 19 1 R 19 0 R 19 0 R 19 0 R 19 0 R 19 0 R 19 0 R 19 0 R
19 0 R 20 0 R 19 0 R 19 1 R 19 0 R 19 1 R 19 1 R 19 1 R 19 1 R 19 2 R 19 1 R
19 2 R 19 2 R 19 3 R 19 3 R 19 3 R 19 3 R 20 4 R 19 4 R 19 5 R 19 5 R 19 5 R
19 6 R 19 6 R 19 7 R 19 7 R 19 8 R 19 8 R 19 9 R 19 9 R 19 10 R 19 11 R
20 11 R 19 12 R 19 12 R 19 14 R 19 13 R 19 15 R 19 15 R 19 16 R 19 17 R
19 17 R 19 19 R 19 19 R 19 20 R 19 21 R 19 21 R 19 23 R 20 23 R 19 24 R
19 26 R 19 26 R 19 27 R 19 28 R 19 29 R 19 30 R 19 31 R 19 33 R 19 33 R
19 34 R 19 36 R 19 36 R 19 38 R 19 39 R 20 40 R 19 41 R 19 43 R 19 43 R
19 45 R 19 46 R 19 48 R 19 48 R 19 50 R 19 52 R 19 53 R 19 54 R 19 55 R
19 57 R 19 58 R 20 60 R 19 61 R 19 63 R 19 64 R 19 65 R 19 67 R 19 69 R
19 70 R 19 72 R 19 73 R 19 75 R 19 77 R 19 78 R 19 80 R 19 82 R 19 83 R
20 85 R 19 86 R 19 89 R 19 90 R 19 92 R 19 94 R 19 95 R 19 98 R 8 42 R D
0.000 0.000 0.239 setrgbcolor 5132 1408 M 19 4107 R 72 2230 R 41 -6337 R D
0.000 0.000 0.082 setrgbcolor 5037 1408 M 52 3913 R 67 2666 R 67 335 R
66 -1958 R 67 -4199 R 7 -757 R D 0.000 0.000 0.000 setrgbcolor 4969 1408 M
39 2259 R 62 2628 R 62 1592 R 62 578 R 62 -418 R 62 -1394 R 62 -2351 R
54 -2894 R D 4692 1408 M 45 1212 R 57 1388 R 57 1193 R 57 1001 R 57 813 R
58 630 R 57 449 R 57 273 R 57 99 R 57 -70 R 58 -236 R 57 -400 R 57 -559 R
57 -715 R 57 -868 R 57 -1018 R 58 -1166 R 57 -1309 R 28 -717 R D 4494 1408 M
33 661 R 52 997 R 53 907 R 52 819 R 53 731 R 52 646 R 52 563 R 53 480 R
52 400 R 53 322 R 52 245 R 53 169 R 52 95 R 52 22 R 53 -48 R 52 -117 R
53 -186 R 52 -251 R 53 -317 R 52 -381 R 52 -443 R 53 -503 R 52 -564 R
53 -621 R 52 -678 R 53 -734 R 52 -787 R 52 -841 R 34 -586 R D 3797 1408 M
44 486 R 47 515 R 48 490 R 48 465 R 47 441 R 48 417 R 48 394 R 47 372 R
48 349 R 48 328 R 47 307 R 48 286 R 47 267 R 48 247 R 48 228 R 47 209 R
48 192 R 48 174 R 47 156 R 48 141 R 48 124 R 47 108 R 48 94 R 48 78 R
47 65 R 48 50 R 48 38 R 47 24 R 48 12 R 48 0 R 47 -11 R 48 -23 R 48 -33 R
47 -44 R 48 -53 R 48 -63 R 47 -71 R 48 -80 R 48 -89 R 47 -96 R 48 -103 R
48 -110 R 47 -116 R 48 -123 R 48 -128 R 47 -133 R 48 -138 R 48 -142 R
47 -147 R 48 -150 R 48 -153 R 47 -156 R 48 -159 R 48 -160 R 47 -162 R
48 -164 R 48 -164 R 47 -165 R 48 -165 R 48 -164 R 47 -164 R 48 -163 R
48 -162 R 47 -159 R 48 -158 R 48 -155 R 47 -152 R 48 -149 R 47 -145 R
48 -141 R 48 -137 R 47 -133 R 48 -127 R 48 -121 R 47 -116 R 48 -110 R
48 -103 R 47 -97 R 48 -89 R 48 -82 R 47 -73 R 48 -66 R 48 -56 R 47 -48 R
48 -39 R 48 -29 R 47 -19 R 48 -8 R 48 2 R 47 13 R 48 25 R 48 36 R 47 48 R
48 61 R 48 73 R 47 86 R 48 100 R 48 114 R 47 127 R 48 142 R 48 157 R
47 172 R 48 187 R 48 203 R 47 219 R 48 235 R 48 252 R 47 269 R 48 286 R
48 304 R 47 322 R 48 340 R 48 359 R 47 377 R 48 398 R 48 416 R 47 437 R
48 457 R 48 477 R 47 498 R 48 520 R 48 541 R 47 562 R 48 585 R 46 597 R D
3446 1408 M 18 174 R 43 409 R 43 394 R 43 378 R 43 363 R 43 348 R 42 333 R
43 319 R 43 304 R 43 291 R 43 277 R 43 265 R 43 251 R 43 238 R 43 226 R
42 215 R 43 202 R 43 191 R 43 180 R 43 169 R 43 158 R 43 149 R 43 138 R
43 128 R 43 119 R 42 110 R 43 100 R 43 93 R 43 83 R 43 76 R 43 68 R 43 60 R
43 54 R 43 46 R 42 39 R 43 33 R 43 27 R 43 21 R 43 15 R 43 10 R 43 4 R
43 0 R 43 -5 R 43 -9 R 42 -13 R 43 -18 R 43 -20 R 43 -24 R 43 -28 R 43 -30 R
43 -32 R 43 -35 R 43 -37 R 42 -39 R 43 -40 R 43 -42 R 43 -42 R 43 -44 R
43 -44 R 43 -44 R 43 -45 R 43 -44 R 43 -44 R 42 -43 R 43 -43 R 43 -41 R
43 -40 R 43 -38 R 43 -36 R 43 -35 R 43 -32 R 43 -29 R 42 -26 R 43 -24 R
43 -20 R 43 -16 R 43 -13 R 43 -9 R 43 -5 R 43 0 R 43 5 R 43 9 R 42 15 R
43 20 R 43 26 R 43 32 R 43 37 R 43 45 R 43 50 R 43 58 R 43 64 R 42 72 R
43 79 R 43 87 R 43 95 R 43 103 R 43 111 R 43 121 R 43 129 R 43 138 R
43 147 R 42 157 R 43 166 R 43 177 R 43 187 R 43 197 R 43 208 R 43 218 R
43 230 R 43 241 R 42 253 R 43 264 R 43 277 R 43 288 R 43 302 R 7 51 R D
2873 1408 M 33 275 R 39 312 R 38 303 R 38 293 R 38 284 R 38 274 R 38 266 R
38 256 R 38 247 R 39 239 R 38 231 R 38 222 R 38 213 R 38 206 R 38 198 R
38 190 R 38 183 R 39 175 R 38 168 R 38 161 R 38 154 R 38 147 R 38 140 R
38 134 R 38 128 R 39 121 R 38 116 R 38 109 R 38 104 R 38 98 R 38 93 R
38 88 R 39 83 R 38 77 R 38 73 R 38 68 R 38 64 R 38 59 R 38 55 R 38 51 R
39 47 R 38 43 R 38 40 R 38 36 R 38 33 R 38 30 R 38 27 R 38 24 R 39 21 R
38 19 R 38 17 R 38 14 R 38 12 R 38 10 R 38 8 R 38 7 R 39 5 R 38 3 R 38 3 R
38 1 R 38 1 R 38 -1 R 38 0 R 39 -2 R 38 -1 R 38 -2 R 38 -2 R 38 -2 R 38 -2 R
38 -1 R 38 0 R 39 0 R 38 1 R 38 2 R 38 3 R 38 4 R 38 6 R 38 7 R 38 9 R
39 11 R 38 13 R 38 16 R 38 17 R 38 20 R 38 22 R 38 26 R 38 28 R 39 31 R
38 34 R 38 38 R 38 41 R 38 45 R 38 48 R 38 53 R 38 56 R 39 61 R 38 65 R
38 69 R 38 74 R 38 79 R 38 84 R 38 89 R 39 94 R 38 99 R 38 105 R 38 110 R
38 117 R 38 122 R 38 128 R 38 134 R 39 141 R 38 148 R 38 153 R 38 161 R
38 168 R 38 174 R 38 182 R 38 190 R 39 196 R 12 68 R D 2760 1408 M 27 220 R
34 270 R 33 264 R 33 256 R 34 249 R 33 242 R 33 236 R 34 228 R 33 222 R
34 215 R 33 209 R 33 203 R 34 196 R 33 190 R 33 184 R 34 179 R 33 172 R
33 166 R 34 161 R 33 156 R 34 150 R 33 144 R 33 139 R 34 134 R 33 129 R
33 124 R 34 119 R 33 115 R 33 110 R 34 105 R 33 100 R 33 97 R 34 92 R
33 87 R 34 84 R 33 80 R 33 76 R 34 72 R 33 68 R 33 65 R 34 61 R 33 58 R
33 54 R 34 52 R 33 48 R 34 45 R 33 42 R 33 40 R 34 36 R 33 34 R 33 32 R
34 29 R 33 27 R 33 24 R 34 23 R 33 20 R 34 18 R 33 17 R 33 15 R 34 13 R
33 11 R 33 10 R 34 9 R 33 7 R 33 7 R 34 5 R 33 4 R 34 3 R 33 3 R 33 2 R
34 1 R 33 0 R 33 1 R 34 0 R 33 -1 R 33 0 R 34 0 R 33 -1 R 34 0 R 33 0 R
33 0 R 34 1 R 33 2 R 33 2 R 34 3 R 33 3 R 33 5 R 34 5 R 33 7 R 34 8 R 33 9 R
33 11 R 34 12 R 33 14 R 33 15 R 34 17 R 33 19 R 33 22 R 34 23 R 33 25 R
34 28 R 33 30 R 33 32 R 34 35 R 33 37 R 33 41 R 34 43 R 33 46 R 33 49 R
34 52 R 33 56 R 33 59 R 34 62 R 33 65 R 34 70 R 33 73 R 33 76 R 34 81 R
33 84 R 33 89 R 34 93 R 33 97 R 33 101 R 34 106 R 33 111 R 34 115 R 33 119 R
33 125 R 34 129 R 33 135 R 33 140 R 34 144 R 33 151 R 33 155 R 34 161 R
33 167 R 33 171 R D 2659 1408 M 19 153 R 28 230 R 29 226 R 28 220 R 29 215 R
29 211 R 28 205 R 29 200 R 28 196 R 29 190 R 29 187 R 28 181 R 29 177 R
28 172 R 29 168 R 29 163 R 28 159 R 29 154 R 28 151 R 29 146 R 29 142 R
28 138 R 29 134 R 28 130 R 29 126 R 29 122 R 28 119 R 29 115 R 28 111 R
29 108 R 29 104 R 28 100 R 29 97 R 28 94 R 29 90 R 29 88 R 28 84 R 29 81 R
28 78 R 29 74 R 28 72 R 29 69 R 29 67 R 28 63 R 29 61 R 28 58 R 29 55 R
29 53 R 28 51 R 29 48 R 28 46 R 29 43 R 29 41 R 28 39 R 29 37 R 28 35 R
29 33 R 29 31 R 28 29 R 29 27 R 28 25 R 29 24 R 29 22 R 28 21 R 29 19 R
28 17 R 29 16 R 29 15 R 28 14 R 29 12 R 28 11 R 29 10 R 29 9 R 28 8 R 29 7 R
28 6 R 29 5 R 29 4 R 28 4 R 29 3 R 28 3 R 29 2 R 29 2 R 28 1 R 29 1 R 28 0 R
29 1 R 29 0 R 28 0 R 29 0 R 28 0 R 29 0 R 29 0 R 28 0 R 29 1 R 28 1 R 29 1 R
28 2 R 29 2 R 29 3 R 28 3 R 29 4 R 28 5 R 29 5 R 29 6 R 28 8 R 29 8 R 28 9 R
29 10 R 29 11 R 28 13 R 29 14 R 28 15 R 29 16 R 29 18 R 28 19 R 29 21 R
28 22 R 29 25 R 29 25 R 28 28 R 29 29 R 28 32 R 29 33 R 29 35 R 28 37 R
29 40 R 28 42 R 29 43 R 29 47 R 28 48 R 29 51 R 28 54 R 29 56 R 29 58 R
28 61 R 29 64 R 28 67 R 29 70 R 29 72 R 28 75 R 29 79 R 28 81 R 29 85 R
29 88 R 28 91 R 29 94 R 28 98 R 29 101 R 29 104 R 28 108 R 29 112 R 28 115 R
29 119 R 28 123 R 29 127 R 29 131 R 28 134 R 29 139 R 28 142 R 29 147 R
0 2 R D 2645 1408 M 4 29 R 24 194 R 24 191 R 24 188 R 23 183 R 24 181 R
24 177 R 24 173 R 24 170 R 24 166 R 23 163 R 24 160 R 24 157 R 24 153 R
24 150 R 23 147 R 24 144 R 24 141 R 24 137 R 24 135 R 24 131 R 23 129 R
24 125 R 24 123 R 24 120 R 24 117 R 24 114 R 23 112 R 24 108 R 24 106 R
24 103 R 24 101 R 24 98 R 23 96 R 24 93 R 24 90 R 24 88 R 24 86 R 24 83 R
23 81 R 24 78 R 24 76 R 24 74 R 24 72 R 24 69 R 23 68 R 24 65 R 24 63 R
24 61 R 24 59 R 24 57 R 23 55 R 24 54 R 24 51 R 24 49 R 24 48 R 24 46 R
23 44 R 24 42 R 24 41 R 24 39 R 24 38 R 24 35 R 23 35 R 24 33 R 24 31 R
24 30 R 24 28 R 24 27 R 23 26 R 24 25 R 24 23 R 24 22 R 24 21 R 23 19 R
24 19 R 24 17 R 24 16 R 24 15 R 24 15 R 23 13 R 24 12 R 24 12 R 24 10 R
24 10 R 24 9 R 23 8 R 24 7 R 24 7 R 24 6 R 24 6 R 24 5 R 23 4 R 24 4 R
24 3 R 24 3 R 24 2 R 24 2 R 23 2 R 24 1 R 24 1 R 24 1 R 24 1 R 24 0 R 23 1 R
24 0 R 24 0 R 24 0 R 24 0 R 24 0 R 23 0 R 24 0 R 24 0 R 24 1 R 24 0 R 24 1 R
23 1 R 24 2 R 24 1 R 24 2 R 24 3 R 24 3 R 23 3 R 24 4 R 24 4 R 24 5 R 24 6 R
23 6 R 24 7 R 24 7 R 24 9 R 24 9 R 24 10 R 23 10 R 24 12 R 24 12 R 24 14 R
24 14 R 24 15 R 23 17 R 24 17 R 24 19 R 24 20 R 24 20 R 24 23 R 23 23 R
24 25 R 24 25 R 24 28 R 24 28 R 24 30 R 23 32 R 24 33 R 24 34 R 24 36 R
24 38 R 24 39 R 23 41 R 24 43 R 24 44 R 24 46 R 24 48 R 24 50 R 23 51 R
24 54 R 24 55 R 24 57 R 24 59 R 24 62 R 23 63 R 24 66 R 24 67 R 24 70 R
24 72 R 24 74 R 23 76 R 24 79 R 24 81 R 24 83 R 24 86 R 24 88 R 23 91 R
24 93 R 24 96 R 24 98 R 24 101 R 23 104 R 24 106 R 24 109 R 24 111 R
24 115 R 24 117 R 23 120 R 20 105 R D 2634 1408 M 6 40 R 19 156 R 19 153 R
19 151 R 19 149 R 19 146 R 19 144 R 19 142 R 19 140 R 19 138 R 19 135 R
19 133 R 19 131 R 19 129 R 19 127 R 19 125 R 20 122 R 19 121 R 19 118 R
19 117 R 19 114 R 19 113 R 19 110 R 19 109 R 19 107 R 19 105 R 19 102 R
19 101 R 19 100 R 19 97 R 19 95 R 19 94 R 20 92 R 19 90 R 19 88 R 19 87 R
19 84 R 19 84 R 19 81 R 19 80 R 19 78 R 19 76 R 19 75 R 19 74 R 19 71 R
19 70 R 19 69 R 20 67 R 19 65 R 19 64 R 19 63 R 19 61 R 19 59 R 19 59 R
19 56 R 19 56 R 19 54 R 19 52 R 19 52 R 19 50 R 19 48 R 19 48 R 19 46 R
20 44 R 19 44 R 19 42 R 19 42 R 19 40 R 19 38 R 19 38 R 19 36 R 19 36 R
19 34 R 19 33 R 19 33 R 19 31 R 19 30 R 19 29 R 20 28 R 19 27 R 19 26 R
19 25 R 19 24 R 19 24 R 19 22 R 19 22 R 19 21 R 19 19 R 19 19 R 19 19 R
19 17 R 19 17 R 19 16 R 19 15 R 20 15 R 19 13 R 19 13 R 19 13 R 19 12 R
19 11 R 19 10 R 19 10 R 19 10 R 19 9 R 19 8 R 19 8 R 19 7 R 19 6 R 19 7 R
20 6 R 19 5 R 19 5 R 19 4 R 19 5 R 19 3 R 19 4 R 19 3 R 19 3 R 19 2 R 19 2 R
19 2 R 19 2 R 19 1 R 19 1 R 19 2 R 20 0 R 19 1 R 19 1 R 19 0 R 19 0 R 19 0 R
19 1 R 19 0 R 19 0 R 19 0 R 19 0 R 19 0 R 19 0 R 19 0 R 19 0 R 20 0 R 19 1 R
19 0 R 19 1 R 19 0 R 19 1 R 19 1 R 19 2 R 19 1 R 19 2 R 19 2 R 19 2 R 19 3 R
19 2 R 19 4 R 19 3 R 20 4 R 19 4 R 19 5 R 19 5 R 19 6 R 19 5 R 19 7 R 19 7 R
19 7 R 19 8 R 19 8 R 19 9 R 19 10 R 19 10 R 19 11 R 20 11 R 19 12 R 19 13 R
19 13 R 19 14 R 19 15 R 19 15 R 19 16 R 19 17 R 19 18 R 19 18 R 19 20 R
19 20 R 19 21 R 19 21 R 19 23 R 20 24 R 19 24 R 19 26 R 19 26 R 19 27 R
19 29 R 19 29 R 19 30 R 19 32 R 19 32 R 19 34 R 19 34 R 19 36 R 19 37 R
19 38 R 19 39 R 20 40 R 19 42 R 19 43 R 19 43 R 19 46 R 19 46 R 19 48 R
19 49 R 19 50 R 19 52 R 19 53 R 19 54 R 19 56 R 19 57 R 19 58 R 20 60 R
19 62 R 19 63 R 19 64 R 19 66 R 19 68 R 19 68 R 19 71 R 19 72 R 19 74 R
19 75 R 19 77 R 19 79 R 19 80 R 19 82 R 19 83 R 20 86 R 19 87 R 19 88 R
19 91 R 19 92 R 19 94 R 19 96 R 19 98 R 3 21 R D 5111 1408 M 40 5270 R
72 1351 R 70 -6621 R D 4992 1408 M 31 2090 R 66 3062 R 67 1616 R 67 203 R
66 -1186 R 67 -2544 R 56 -3241 R D 4904 1408 M 42 1916 R 62 2233 R 62 1593 R
62 965 R 62 351 R 62 -253 R 62 -845 R 62 -1424 R 62 -1992 R 61 -2544 R D
4555 1408 M 10 218 R 57 1221 R 57 1093 R 58 968 R 57 846 R 57 727 R 57 609 R
57 495 R 58 383 R 57 273 R 57 165 R 57 60 R 57 -42 R 58 -143 R 57 -242 R
57 -337 R 57 -432 R 57 -523 R 57 -613 R 58 -701 R 57 -787 R 57 -870 R
57 -952 R 57 -1032 R 20 -384 R D 4312 1408 M 5 81 R 53 854 R 52 792 R
52 732 R 53 673 R 52 615 R 53 559 R 52 503 R 53 450 R 52 396 R 52 345 R
53 294 R 52 244 R 53 197 R 52 149 R 53 102 R 52 58 R 52 14 R 53 -29 R
52 -71 R 53 -112 R 52 -152 R 53 -190 R 52 -228 R 52 -265 R 53 -301 R
52 -336 R 53 -370 R 52 -403 R 53 -435 R 52 -466 R 52 -496 R 53 -525 R
52 -554 R 53 -582 R 52 -608 R 53 -634 R 23 -301 R D 14190 1408 M 36 1827 R
52 2784 R 53 2844 R 52 2903 R 4 230 R D 3542 1408 M 13 133 R 47 473 R
48 452 R 48 431 R 47 411 R 48 392 R 48 372 R 47 354 R 48 336 R 48 318 R
47 300 R 48 284 R 48 267 R 47 251 R 48 235 R 48 220 R 47 205 R 48 191 R
47 177 R 48 163 R 48 151 R 47 137 R 48 125 R 48 113 R 47 102 R 48 90 R
48 80 R 47 69 R 48 59 R 48 49 R 47 41 R 48 31 R 48 23 R 47 15 R 48 8 R
48 0 R 47 -7 R 48 -14 R 48 -19 R 47 -26 R 48 -31 R 48 -36 R 47 -41 R
48 -45 R 48 -49 R 47 -53 R 48 -56 R 48 -59 R 47 -61 R 48 -64 R 48 -65 R
47 -67 R 48 -69 R 48 -69 R 47 -69 R 48 -70 R 48 -69 R 47 -69 R 48 -67 R
48 -67 R 47 -65 R 48 -63 R 48 -60 R 47 -58 R 48 -55 R 48 -52 R 47 -48 R
48 -44 R 48 -40 R 47 -35 R 48 -30 R 48 -24 R 47 -20 R 48 -13 R 47 -6 R
48 -1 R 48 7 R 47 14 R 48 22 R 48 30 R 47 38 R 48 46 R 48 56 R 47 64 R
48 74 R 48 84 R 47 95 R 48 104 R 48 116 R 47 127 R 48 138 R 48 150 R
47 162 R 48 174 R 48 188 R 47 200 R 48 213 R 48 228 R 47 241 R 48 255 R
48 270 R 47 285 R 48 301 R 48 315 R 47 332 R 48 348 R 48 364 R 42 345 R D
3219 1408 M 31 276 R 42 378 R 43 364 R 43 350 R 43 337 R 43 323 R 43 311 R
43 297 R 43 285 R 43 273 R 43 262 R 42 249 R 43 238 R 43 227 R 43 216 R
43 205 R 43 195 R 43 185 R 43 175 R 43 165 R 42 156 R 43 147 R 43 138 R
43 129 R 43 122 R 43 113 R 43 105 R 43 98 R 43 90 R 43 83 R 42 76 R 43 70 R
43 64 R 43 57 R 43 51 R 43 46 R 43 41 R 43 35 R 43 30 R 42 26 R 43 22 R
43 17 R 43 13 R 43 10 R 43 6 R 43 2 R 43 0 R 43 -3 R 43 -5 R 42 -8 R
43 -10 R 43 -11 R 43 -13 R 43 -15 R 43 -15 R 43 -17 R 43 -17 R 43 -18 R
42 -18 R 43 -17 R 43 -18 R 43 -17 R 43 -16 R 43 -16 R 43 -14 R 43 -13 R
43 -11 R 43 -9 R 42 -8 R 43 -5 R 43 -2 R 43 0 R 43 4 R 43 6 R 43 10 R
43 14 R 43 17 R 42 21 R 43 26 R 43 31 R 43 35 R 43 40 R 43 45 R 43 51 R
43 56 R 43 62 R 43 69 R 42 74 R 43 81 R 43 88 R 43 95 R 43 102 R 43 109 R
43 117 R 43 125 R 43 132 R 42 141 R 43 150 R 43 158 R 43 167 R 43 176 R
43 186 R 43 195 R 43 205 R 43 215 R 43 225 R 42 235 R 43 246 R 19 117 R D
2786 1408 M 6 51 R 38 315 R 38 305 R 38 296 R 39 287 R 38 277 R 38 268 R
38 260 R 38 251 R 38 242 R 38 234 R 38 226 R 39 217 R 38 210 R 38 202 R
38 194 R 38 187 R 38 179 R 38 172 R 38 165 R 39 159 R 38 151 R 38 145 R
38 138 R 38 132 R 38 126 R 38 120 R 38 114 R 39 109 R 38 102 R 38 98 R
38 92 R 38 87 R 38 81 R 38 78 R 39 72 R 38 68 R 38 63 R 38 60 R 38 55 R
38 51 R 38 47 R 38 44 R 39 40 R 38 37 R 38 33 R 38 31 R 38 28 R 38 24 R
38 22 R 38 20 R 39 17 R 38 15 R 38 13 R 38 11 R 38 10 R 38 7 R 38 7 R 38 5 R
39 3 R 38 3 R 38 1 R 38 1 R 38 1 R 38 0 R 38 -1 R 39 -1 R 38 0 R 38 -1 R
38 0 R 38 0 R 38 0 R 38 2 R 38 2 R 39 3 R 38 4 R 38 5 R 38 7 R 38 8 R
38 10 R 38 12 R 38 14 R 39 16 R 38 18 R 38 20 R 38 23 R 38 26 R 38 29 R
38 31 R 38 35 R 39 38 R 38 41 R 38 45 R 38 48 R 38 53 R 38 56 R 38 61 R
38 64 R 39 69 R 38 74 R 38 78 R 38 83 R 38 88 R 38 93 R 38 99 R 39 104 R
38 109 R 38 115 R 38 121 R 38 126 R 38 133 R 38 139 R 38 146 R 39 152 R
38 158 R 38 166 R 38 172 R 38 180 R 38 186 R 38 194 R 14 76 R D 2712 1408 M
9 70 R 33 273 R 33 265 R 34 259 R 33 251 R 33 245 R 34 237 R 33 231 R
33 224 R 34 218 R 33 212 R 34 205 R 33 198 R 33 193 R 34 187 R 33 180 R
33 175 R 34 169 R 33 164 R 33 158 R 34 152 R 33 147 R 34 142 R 33 137 R
33 132 R 34 126 R 33 122 R 33 117 R 34 112 R 33 108 R 33 103 R 34 99 R
33 94 R 33 91 R 34 86 R 33 82 R 34 78 R 33 75 R 33 71 R 34 67 R 33 63 R
33 60 R 34 57 R 33 54 R 33 50 R 34 48 R 33 44 R 34 41 R 33 39 R 33 36 R
34 34 R 33 31 R 33 28 R 34 27 R 33 24 R 33 22 R 34 20 R 33 18 R 34 16 R
33 15 R 33 13 R 34 11 R 33 10 R 33 9 R 34 7 R 33 7 R 33 5 R 34 4 R 33 3 R
34 3 R 33 2 R 33 1 R 34 1 R 33 1 R 33 0 R 34 0 R 33 0 R 33 -1 R 34 0 R
33 0 R 34 1 R 33 1 R 33 1 R 34 2 R 33 2 R 33 3 R 34 4 R 33 5 R 33 6 R 34 7 R
33 8 R 34 10 R 33 11 R 33 13 R 34 14 R 33 15 R 33 18 R 34 20 R 33 21 R
33 24 R 34 25 R 33 28 R 34 30 R 33 33 R 33 35 R 34 38 R 33 41 R 33 43 R
34 47 R 33 49 R 33 53 R 34 55 R 33 59 R 33 63 R 34 65 R 33 70 R 34 73 R
33 77 R 33 80 R 34 85 R 33 89 R 33 93 R 34 97 R 33 101 R 33 106 R 34 110 R
33 115 R 34 120 R 33 124 R 33 130 R 34 134 R 33 139 R 33 145 R 34 150 R
33 155 R 33 160 R 34 167 R 30 160 R D 2648 1408 M 1 5 R 29 234 R 28 228 R
29 223 R 28 219 R 29 213 R 29 208 R 28 203 R 29 198 R 28 194 R 29 189 R
29 184 R 28 179 R 29 175 R 28 171 R 29 166 R 29 161 R 28 157 R 29 153 R
28 149 R 29 145 R 29 140 R 28 137 R 29 132 R 28 128 R 29 125 R 29 121 R
28 117 R 29 114 R 28 109 R 29 107 R 29 102 R 28 100 R 29 96 R 28 92 R
29 89 R 29 87 R 28 82 R 29 80 R 28 77 R 29 74 R 28 71 R 29 68 R 29 65 R
28 63 R 29 59 R 28 58 R 29 54 R 29 52 R 28 50 R 29 47 R 28 45 R 29 43 R
29 40 R 28 39 R 29 36 R 28 34 R 29 32 R 29 31 R 28 28 R 29 27 R 28 25 R
29 23 R 29 21 R 28 20 R 29 19 R 28 17 R 29 16 R 29 14 R 28 13 R 29 12 R
28 11 R 29 9 R 29 9 R 28 8 R 29 6 R 28 6 R 29 5 R 29 4 R 28 4 R 29 3 R
28 3 R 29 1 R 29 2 R 28 1 R 29 1 R 28 0 R 29 1 R 29 0 R 28 0 R 29 0 R 28 0 R
29 0 R 29 0 R 28 1 R 29 0 R 28 1 R 29 2 R 28 1 R 29 3 R 29 3 R 28 3 R 29 4 R
28 5 R 29 6 R 29 6 R 28 8 R 29 8 R 28 10 R 29 10 R 29 12 R 28 13 R 29 14 R
28 15 R 29 17 R 29 18 R 28 20 R 29 21 R 28 23 R 29 24 R 29 27 R 28 28 R
29 30 R 28 31 R 29 34 R 29 36 R 28 38 R 29 40 R 28 42 R 29 44 R 29 47 R
28 49 R 29 52 R 28 54 R 29 56 R 29 60 R 28 61 R 29 65 R 28 67 R 29 71 R
29 73 R 28 76 R 29 79 R 28 82 R 29 85 R 29 89 R 28 92 R 29 95 R 28 98 R
29 102 R 29 105 R 28 109 R 29 113 R 28 116 R 29 120 R 28 123 R 29 128 R
29 131 R 28 136 R 29 139 R 28 144 R 22 114 R D 2640 1408 M 9 73 R 24 194 R
24 190 R 24 186 R 23 183 R 24 179 R 24 176 R 24 173 R 24 169 R 24 165 R
23 163 R 24 159 R 24 155 R 24 153 R 24 149 R 23 146 R 24 143 R 24 140 R
24 137 R 24 134 R 24 131 R 23 128 R 24 125 R 24 122 R 24 119 R 24 116 R
24 114 R 23 110 R 24 108 R 24 106 R 24 102 R 24 101 R 24 97 R 23 95 R
24 92 R 24 90 R 24 88 R 24 85 R 24 82 R 23 81 R 24 78 R 24 75 R 24 74 R
24 71 R 24 69 R 23 67 R 24 65 R 24 62 R 24 61 R 24 59 R 24 56 R 23 55 R
24 53 R 24 51 R 24 49 R 24 47 R 24 45 R 23 44 R 24 42 R 24 41 R 24 38 R
24 37 R 24 36 R 23 34 R 24 33 R 24 31 R 24 29 R 24 28 R 24 27 R 23 26 R
24 24 R 24 23 R 24 22 R 24 20 R 23 20 R 24 18 R 24 17 R 24 16 R 24 15 R
24 14 R 23 13 R 24 12 R 24 12 R 24 10 R 24 10 R 24 8 R 23 8 R 24 8 R 24 6 R
24 6 R 24 6 R 24 4 R 23 5 R 24 3 R 24 4 R 24 2 R 24 3 R 24 2 R 23 1 R 24 2 R
24 1 R 24 0 R 24 1 R 24 0 R 23 1 R 24 0 R 24 0 R 24 0 R 24 0 R 24 0 R 23 0 R
24 0 R 24 0 R 24 1 R 24 0 R 24 1 R 23 1 R 24 2 R 24 2 R 24 2 R 24 2 R 24 3 R
23 4 R 24 4 R 24 4 R 24 5 R 24 6 R 23 6 R 24 7 R 24 8 R 24 8 R 24 9 R
24 10 R 23 11 R 24 12 R 24 12 R 24 14 R 24 14 R 24 16 R 23 17 R 24 17 R
24 19 R 24 20 R 24 21 R 24 22 R 23 24 R 24 25 R 24 26 R 24 27 R 24 29 R
24 30 R 23 32 R 24 33 R 24 35 R 24 36 R 24 38 R 24 40 R 23 41 R 24 43 R
24 44 R 24 46 R 24 48 R 24 50 R 23 52 R 24 54 R 24 55 R 24 58 R 24 60 R
24 61 R 23 64 R 24 65 R 24 68 R 24 70 R 24 73 R 24 74 R 23 77 R 24 79 R
24 81 R 24 84 R 24 86 R 24 88 R 23 91 R 24 94 R 24 96 R 24 99 R 24 101 R
23 104 R 24 106 R 24 109 R 24 112 R 24 115 R 24 118 R 23 120 R 17 88 R D
2633 1408 M 7 49 R 19 156 R 19 153 R 19 151 R 19 148 R 19 146 R 19 144 R
19 142 R 19 140 R 19 137 R 19 135 R 19 133 R 19 131 R 19 129 R 19 127 R
19 124 R 20 123 R 19 120 R 19 119 R 19 116 R 19 115 R 19 112 R 19 110 R
19 109 R 19 106 R 19 105 R 19 103 R 19 101 R 19 99 R 19 97 R 19 95 R 19 94 R
20 92 R 19 89 R 19 89 R 19 86 R 19 85 R 19 83 R 19 81 R 19 80 R 19 78 R
19 76 R 19 75 R 19 73 R 19 72 R 19 70 R 19 68 R 20 67 R 19 66 R 19 63 R
19 63 R 19 61 R 19 59 R 19 58 R 19 57 R 19 55 R 19 54 R 19 53 R 19 51 R
19 50 R 19 49 R 19 47 R 19 46 R 20 45 R 19 43 R 19 42 R 19 42 R 19 39 R
19 39 R 19 38 R 19 36 R 19 36 R 19 34 R 19 33 R 19 32 R 19 31 R 19 30 R
19 29 R 20 28 R 19 27 R 19 26 R 19 25 R 19 25 R 19 23 R 19 22 R 19 22 R
19 20 R 19 20 R 19 19 R 19 19 R 19 17 R 19 17 R 19 16 R 19 15 R 20 14 R
19 14 R 19 13 R 19 12 R 19 12 R 19 11 R 19 11 R 19 10 R 19 9 R 19 9 R 19 8 R
19 8 R 19 7 R 19 7 R 19 6 R 20 6 R 19 5 R 19 5 R 19 5 R 19 4 R 19 3 R 19 4 R
19 3 R 19 3 R 19 2 R 19 2 R 19 2 R 19 2 R 19 1 R 19 2 R 19 1 R 20 0 R 19 1 R
19 1 R 19 0 R 19 0 R 19 0 R 19 1 R 19 0 R 19 0 R 19 0 R 19 0 R 19 0 R 19 0 R
19 0 R 19 0 R 20 0 R 19 1 R 19 0 R 19 1 R 19 0 R 19 1 R 19 1 R 19 2 R 19 1 R
19 2 R 19 2 R 19 2 R 19 3 R 19 3 R 19 3 R 19 3 R 20 4 R 19 4 R 19 5 R 19 5 R
19 6 R 19 6 R 19 6 R 19 7 R 19 7 R 19 8 R 19 9 R 19 9 R 19 9 R 19 10 R
19 11 R 20 12 R 19 12 R 19 12 R 19 13 R 19 14 R 19 15 R 19 16 R 19 16 R
19 17 R 19 17 R 19 19 R 19 19 R 19 20 R 19 21 R 19 22 R 19 23 R 20 24 R
19 24 R 19 26 R 19 26 R 19 28 R 19 28 R 19 29 R 19 31 R 19 31 R 19 33 R
19 33 R 19 35 R 19 35 R 19 37 R 19 38 R 19 40 R 20 40 R 19 41 R 19 43 R
19 44 R 19 45 R 19 47 R 19 48 R 19 49 R 19 50 R 19 52 R 19 53 R 19 54 R
19 56 R 19 57 R 19 59 R 20 60 R 19 61 R 19 63 R 19 65 R 19 66 R 19 67 R
19 69 R 19 71 R 19 72 R 19 73 R 19 76 R 19 77 R 19 78 R 19 81 R 19 82 R
19 83 R 20 86 R 19 87 R 19 89 R 19 90 R 19 92 R 19 95 R 19 96 R 19 97 R
3 18 R D 5040 1408 M 40 3276 R 71 3183 R 72 453 R 71 -2221 R 69 -4691 R D
4840 1408 M 49 1832 R 67 2033 R 67 1526 R 66 1028 R 67 542 R 67 68 R
66 -397 R 67 -853 R 67 -1297 R 67 -1732 R 66 -2156 R 15 -594 R D 4695 1408 M
3 66 R 62 1664 R 62 1429 R 62 1198 R 62 972 R 62 752 R 62 536 R 62 324 R
62 117 R 62 -84 R 62 -283 R 62 -477 R 62 -666 R 62 -851 R 62 -1032 R
62 -1209 R 62 -1383 R 42 -1073 R D 4143 1408 M 22 316 R 57 783 R 57 729 R
57 675 R 57 622 R 58 572 R 57 523 R 57 473 R 57 427 R 57 381 R 58 337 R
57 292 R 57 251 R 57 209 R 57 169 R 58 131 R 57 92 R 57 56 R 57 21 R
57 -15 R 58 -47 R 57 -80 R 57 -112 R 57 -141 R 57 -171 R 57 -200 R 58 -226 R
57 -253 R 57 -278 R 57 -303 R 57 -325 R 58 -349 R 57 -369 R 57 -391 R
57 -410 R 57 -428 R 58 -447 R 57 -463 R 57 -479 R 57 -495 R 57 -508 R
58 -522 R 5 -47 R D 11978 1408 M 22 581 R 57 1569 R 57 1620 R 58 1672 R
57 1725 R 57 1778 R 51 1643 R D 3806 1408 M 39 450 R 53 569 R 52 539 R
53 509 R 52 479 R 52 451 R 53 423 R 52 395 R 53 370 R 52 343 R 53 318 R
52 294 R 52 270 R 53 247 R 52 225 R 53 203 R 52 181 R 53 162 R 52 141 R
52 122 R 53 103 R 52 86 R 53 68 R 52 51 R 53 35 R 52 20 R 52 4 R 53 -9 R
52 -24 R 53 -36 R 52 -50 R 53 -61 R 52 -73 R 52 -83 R 53 -94 R 52 -104 R
53 -112 R 52 -122 R 53 -129 R 52 -137 R 52 -144 R 53 -151 R 52 -156 R
53 -162 R 52 -166 R 53 -171 R 52 -175 R 52 -177 R 53 -181 R 52 -182 R
53 -185 R 52 -185 R 53 -187 R 52 -186 R 52 -186 R 53 -185 R 52 -184 R
53 -182 R 52 -179 R 53 -177 R 52 -173 R 52 -169 R 53 -165 R 52 -160 R
53 -155 R 52 -149 R 52 -143 R 53 -136 R 52 -129 R 53 -121 R 52 -113 R
53 -105 R 52 -95 R 52 -85 R 53 -76 R 52 -65 R 53 -54 R 52 -43 R 53 -30 R
52 -18 R 52 -6 R 53 8 R 52 21 R 53 36 R 52 51 R 53 65 R 52 81 R 52 97 R
53 114 R 52 130 R 53 147 R 52 166 R 53 183 R 52 203 R 52 221 R 53 241 R
52 260 R 53 282 R 52 302 R 53 323 R 52 345 R 52 367 R 53 390 R 52 412 R
53 436 R 52 460 R 53 484 R 52 509 R 52 534 R 53 559 R 52 586 R 53 611 R
52 639 R 53 666 R 24 326 R D 3068 1408 M 10 85 R 48 412 R 47 395 R 48 379 R
48 363 R 47 348 R 48 333 R 48 318 R 47 304 R 48 290 R 48 276 R 47 263 R
48 249 R 48 237 R 47 225 R 48 212 R 48 201 R 47 189 R 48 178 R 48 168 R
47 157 R 48 147 R 48 137 R 47 128 R 48 119 R 48 109 R 47 102 R 48 93 R
47 85 R 48 78 R 48 71 R 47 64 R 48 57 R 48 51 R 47 45 R 48 39 R 48 34 R
47 29 R 48 24 R 48 20 R 47 16 R 48 12 R 48 8 R 47 6 R 48 2 R 48 0 R 47 -2 R
48 -4 R 48 -6 R 47 -7 R 48 -8 R 48 -9 R 47 -9 R 48 -9 R 48 -10 R 47 -8 R
48 -8 R 48 -7 R 47 -5 R 48 -4 R 48 -2 R 47 1 R 48 3 R 48 6 R 47 9 R 48 13 R
48 16 R 47 21 R 48 25 R 48 29 R 47 35 R 48 40 R 48 45 R 47 51 R 48 58 R
48 63 R 47 71 R 48 77 R 48 85 R 47 92 R 48 101 R 48 108 R 47 117 R 48 126 R
47 134 R 48 144 R 48 154 R 47 164 R 48 174 R 48 184 R 47 195 R 48 206 R
48 218 R 47 229 R 48 241 R 48 253 R 24 140 R D 2877 1408 M 29 246 R 43 352 R
43 340 R 43 328 R 43 315 R 43 304 R 43 293 R 43 281 R 43 270 R 42 260 R
43 249 R 43 238 R 43 229 R 43 218 R 43 209 R 43 200 R 43 190 R 43 181 R
43 173 R 42 163 R 43 156 R 43 147 R 43 140 R 43 131 R 43 125 R 43 117 R
43 110 R 43 103 R 42 96 R 43 90 R 43 84 R 43 78 R 43 73 R 43 66 R 43 62 R
43 56 R 43 52 R 43 46 R 42 43 R 43 38 R 43 34 R 43 30 R 43 27 R 43 23 R
43 20 R 43 17 R 43 14 R 42 12 R 43 10 R 43 7 R 43 6 R 43 3 R 43 3 R 43 1 R
43 0 R 43 -1 R 43 -2 R 42 -2 R 43 -2 R 43 -2 R 43 -2 R 43 -2 R 43 -1 R
43 0 R 43 1 R 43 2 R 42 4 R 43 5 R 43 7 R 43 9 R 43 12 R 43 14 R 43 16 R
43 20 R 43 22 R 43 26 R 42 30 R 43 33 R 43 37 R 43 42 R 43 45 R 43 51 R
43 55 R 43 60 R 43 65 R 42 70 R 43 76 R 43 82 R 43 88 R 43 94 R 43 101 R
43 107 R 43 114 R 43 121 R 43 128 R 42 136 R 43 143 R 43 151 R 43 160 R
43 167 R 43 176 R 43 185 R 43 193 R 43 203 R 42 212 R 43 221 R 10 59 R D
2686 1408 M 30 241 R 38 305 R 38 296 R 38 286 R 38 278 R 38 268 R 39 260 R
38 252 R 38 243 R 38 235 R 38 227 R 38 219 R 38 211 R 38 203 R 39 196 R
38 189 R 38 181 R 38 174 R 38 167 R 38 161 R 38 154 R 38 147 R 39 141 R
38 134 R 38 129 R 38 122 R 38 117 R 38 111 R 38 105 R 38 101 R 39 94 R
38 90 R 38 85 R 38 80 R 38 75 R 38 71 R 38 66 R 39 62 R 38 58 R 38 54 R
38 50 R 38 47 R 38 43 R 38 39 R 38 37 R 39 33 R 38 30 R 38 27 R 38 25 R
38 22 R 38 19 R 38 17 R 38 16 R 39 13 R 38 11 R 38 10 R 38 8 R 38 6 R 38 5 R
38 4 R 38 4 R 39 2 R 38 1 R 38 1 R 38 1 R 38 0 R 38 0 R 38 0 R 39 0 R 38 0 R
38 1 R 38 1 R 38 2 R 38 2 R 38 4 R 38 5 R 39 6 R 38 7 R 38 9 R 38 11 R
38 12 R 38 14 R 38 16 R 38 19 R 39 21 R 38 23 R 38 26 R 38 29 R 38 32 R
38 35 R 38 38 R 38 41 R 39 45 R 38 48 R 38 52 R 38 56 R 38 61 R 38 64 R
38 68 R 38 73 R 39 78 R 38 83 R 38 87 R 38 92 R 38 98 R 38 102 R 38 108 R
39 114 R 38 120 R 38 125 R 38 131 R 38 138 R 38 144 R 38 150 R 38 156 R
39 164 R 38 170 R 38 177 R 38 185 R 38 191 R 18 95 R D 2659 1408 M 28 227 R
34 266 R 33 260 R 33 253 R 34 245 R 33 240 R 33 232 R 34 226 R 33 219 R
33 213 R 34 207 R 33 201 R 34 194 R 33 189 R 33 182 R 34 177 R 33 171 R
33 165 R 34 160 R 33 155 R 33 149 R 34 144 R 33 138 R 34 134 R 33 129 R
33 124 R 34 119 R 33 114 R 33 110 R 34 105 R 33 101 R 33 97 R 34 92 R
33 88 R 33 84 R 34 81 R 33 76 R 34 73 R 33 69 R 33 66 R 34 62 R 33 58 R
33 56 R 34 52 R 33 49 R 33 46 R 34 44 R 33 40 R 34 38 R 33 35 R 33 33 R
34 30 R 33 28 R 33 26 R 34 23 R 33 21 R 33 20 R 34 18 R 33 15 R 34 15 R
33 12 R 33 11 R 34 10 R 33 8 R 33 8 R 34 6 R 33 5 R 33 4 R 34 3 R 33 3 R
34 2 R 33 1 R 33 1 R 34 0 R 33 1 R 33 0 R 34 0 R 33 0 R 33 0 R 34 0 R 33 1 R
34 1 R 33 1 R 33 2 R 34 3 R 33 3 R 33 5 R 34 5 R 33 6 R 33 7 R 34 9 R
33 10 R 34 11 R 33 13 R 33 15 R 34 16 R 33 18 R 33 20 R 34 21 R 33 24 R
33 26 R 34 28 R 33 31 R 34 33 R 33 36 R 33 38 R 34 41 R 33 43 R 33 47 R
34 50 R 33 52 R 33 56 R 34 60 R 33 62 R 33 66 R 34 70 R 33 73 R 34 77 R
33 81 R 33 85 R 34 88 R 33 93 R 33 97 R 34 102 R 33 106 R 33 110 R 34 115 R
33 119 R 34 125 R 33 129 R 33 134 R 34 139 R 33 145 R 33 149 R 34 155 R
33 161 R 33 166 R 29 150 R D 2637 1408 M 12 95 R 29 232 R 28 226 R 29 221 R
28 216 R 29 211 R 29 206 R 28 201 R 29 196 R 28 192 R 29 186 R 29 183 R
28 177 R 29 173 R 28 169 R 29 164 R 29 160 R 28 155 R 29 151 R 28 147 R
29 143 R 29 139 R 28 135 R 29 131 R 28 127 R 29 123 R 29 119 R 28 116 R
29 112 R 28 109 R 29 105 R 29 101 R 28 98 R 29 95 R 28 91 R 29 88 R 29 85 R
28 82 R 29 78 R 28 76 R 29 73 R 28 70 R 29 67 R 29 64 R 28 62 R 29 58 R
28 57 R 29 53 R 29 52 R 28 49 R 29 46 R 28 44 R 29 42 R 29 40 R 28 37 R
29 36 R 28 33 R 29 32 R 29 30 R 28 28 R 29 26 R 28 24 R 29 23 R 29 21 R
28 19 R 29 18 R 28 17 R 29 15 R 29 14 R 28 13 R 29 11 R 28 11 R 29 9 R
29 8 R 28 8 R 29 6 R 28 6 R 29 4 R 29 5 R 28 3 R 29 3 R 28 2 R 29 2 R 29 1 R
28 1 R 29 1 R 28 0 R 29 1 R 29 0 R 28 0 R 29 0 R 28 0 R 29 0 R 29 0 R 28 1 R
29 1 R 28 1 R 29 1 R 28 2 R 29 3 R 29 3 R 28 3 R 29 5 R 28 5 R 29 6 R 29 6 R
28 8 R 29 9 R 28 9 R 29 11 R 29 12 R 28 13 R 29 15 R 28 16 R 29 17 R 29 18 R
28 20 R 29 22 R 28 23 R 29 25 R 29 27 R 28 29 R 29 30 R 28 32 R 29 34 R
29 37 R 28 38 R 29 41 R 28 42 R 29 45 R 29 48 R 28 49 R 29 53 R 28 54 R
29 57 R 29 60 R 28 63 R 29 65 R 28 68 R 29 71 R 29 74 R 28 77 R 29 79 R
28 83 R 29 86 R 29 90 R 28 92 R 29 96 R 28 99 R 29 103 R 29 106 R 28 110 R
29 113 R 28 117 R 29 121 R 28 124 R 29 129 R 29 132 R 28 136 R 29 141 R
28 144 R 15 79 R D 2634 1408 M 15 118 R 24 193 R 24 189 R 24 185 R 23 182 R
24 179 R 24 175 R 24 171 R 24 168 R 24 165 R 23 162 R 24 158 R 24 155 R
24 152 R 24 148 R 23 145 R 24 143 R 24 139 R 24 136 R 24 133 R 24 130 R
23 127 R 24 124 R 24 122 R 24 118 R 24 116 R 24 113 R 23 110 R 24 107 R
24 105 R 24 102 R 24 99 R 24 97 R 23 95 R 24 91 R 24 90 R 24 87 R 24 84 R
24 82 R 23 80 R 24 77 R 24 76 R 24 72 R 24 71 R 24 69 R 23 66 R 24 64 R
24 63 R 24 60 R 24 58 R 24 56 R 23 55 R 24 52 R 24 51 R 24 48 R 24 47 R
24 45 R 23 44 R 24 41 R 24 40 R 24 39 R 24 37 R 24 35 R 23 33 R 24 33 R
24 30 R 24 30 R 24 28 R 24 26 R 23 25 R 24 24 R 24 23 R 24 22 R 24 20 R
23 19 R 24 18 R 24 17 R 24 16 R 24 15 R 24 14 R 23 12 R 24 12 R 24 12 R
24 10 R 24 9 R 24 9 R 23 8 R 24 7 R 24 6 R 24 6 R 24 6 R 24 4 R 23 4 R
24 4 R 24 3 R 24 3 R 24 2 R 24 2 R 23 1 R 24 2 R 24 1 R 24 0 R 24 1 R 24 0 R
23 1 R 24 0 R 24 0 R 24 0 R 24 0 R 24 0 R 23 0 R 24 0 R 24 0 R 24 1 R 24 1 R
24 1 R 23 1 R 24 1 R 24 2 R 24 2 R 24 3 R 24 3 R 23 3 R 24 4 R 24 5 R 24 5 R
24 6 R 23 6 R 24 7 R 24 8 R 24 9 R 24 9 R 24 10 R 23 11 R 24 12 R 24 13 R
24 13 R 24 15 R 24 16 R 23 16 R 24 18 R 24 19 R 24 20 R 24 21 R 24 23 R
23 24 R 24 25 R 24 26 R 24 28 R 24 29 R 24 30 R 23 32 R 24 34 R 24 35 R
24 36 R 24 38 R 24 40 R 23 41 R 24 43 R 24 45 R 24 47 R 24 48 R 24 50 R
23 52 R 24 54 R 24 56 R 24 58 R 24 60 R 24 62 R 23 64 R 24 66 R 24 68 R
24 70 R 24 73 R 24 74 R 23 77 R 24 80 R 24 81 R 24 84 R 24 87 R 24 89 R
23 91 R 24 94 R 24 96 R 24 99 R 24 102 R 23 104 R 24 107 R 24 110 R 24 112 R
24 115 R 24 118 R 23 121 R 13 70 R D 2632 1408 M 8 59 R 19 155 R 19 153 R
19 150 R 19 149 R 19 146 R 19 144 R 19 141 R 19 140 R 19 137 R 19 135 R
19 133 R 19 131 R 19 128 R 19 127 R 19 124 R 20 123 R 19 120 R 19 118 R
19 117 R 19 114 R 19 112 R 19 110 R 19 109 R 19 106 R 19 105 R 19 102 R
19 101 R 19 99 R 19 97 R 19 95 R 19 94 R 20 91 R 19 90 R 19 88 R 19 87 R
19 84 R 19 83 R 19 82 R 19 79 R 19 78 R 19 76 R 19 75 R 19 73 R 19 72 R
19 69 R 19 69 R 20 67 R 19 65 R 19 64 R 19 62 R 19 61 R 19 59 R 19 58 R
19 57 R 19 55 R 19 54 R 19 53 R 19 51 R 19 49 R 19 49 R 19 47 R 19 46 R
20 45 R 19 43 R 19 43 R 19 41 R 19 39 R 19 39 R 19 38 R 19 36 R 19 35 R
19 34 R 19 34 R 19 32 R 19 31 R 19 30 R 19 29 R 20 27 R 19 27 R 19 26 R
19 26 R 19 24 R 19 23 R 19 22 R 19 22 R 19 20 R 19 20 R 19 19 R 19 18 R
19 18 R 19 16 R 19 16 R 19 15 R 20 15 R 19 14 R 19 13 R 19 12 R 19 12 R
19 11 R 19 10 R 19 10 R 19 10 R 19 8 R 19 9 R 19 7 R 19 7 R 19 7 R 19 6 R
20 6 R 19 5 R 19 5 R 19 5 R 19 4 R 19 4 R 19 3 R 19 3 R 19 3 R 19 2 R 19 2 R
19 2 R 19 2 R 19 1 R 19 2 R 19 1 R 20 0 R 19 1 R 19 1 R 19 0 R 19 0 R 19 1 R
19 0 R 19 0 R 19 0 R 19 0 R 19 0 R 19 0 R 19 0 R 19 0 R 19 0 R 20 0 R 19 1 R
19 0 R 19 1 R 19 0 R 19 1 R 19 1 R 19 2 R 19 1 R 19 2 R 19 2 R 19 2 R 19 3 R
19 3 R 19 3 R 19 3 R 20 4 R 19 5 R 19 4 R 19 5 R 19 6 R 19 6 R 19 6 R 19 7 R
19 8 R 19 8 R 19 8 R 19 9 R 19 10 R 19 10 R 19 11 R 20 11 R 19 12 R 19 13 R
19 13 R 19 14 R 19 15 R 19 15 R 19 17 R 19 16 R 19 18 R 19 19 R 19 19 R
19 20 R 19 21 R 19 22 R 19 23 R 20 24 R 19 24 R 19 26 R 19 26 R 19 28 R
19 28 R 19 29 R 19 31 R 19 31 R 19 33 R 19 33 R 19 35 R 19 36 R 19 37 R
19 38 R 19 39 R 20 40 R 19 42 R 19 43 R 19 44 R 19 45 R 19 47 R 19 47 R
19 49 R 19 51 R 19 52 R 19 53 R 19 54 R 19 56 R 19 57 R 19 59 R 20 60 R
19 62 R 19 63 R 19 64 R 19 66 R 19 68 R 19 69 R 19 70 R 19 72 R 19 74 R
19 76 R 19 77 R 19 78 R 19 81 R 19 82 R 19 83 R 20 86 R 19 87 R 19 89 R
19 90 R 19 93 R 19 94 R 19 96 R 19 98 R 2 14 R D 4998 1408 M 10 761 R
72 3855 R 71 2055 R 72 293 R 71 -1434 R 72 -3118 R 35 -2412 R D 4755 1408 M
1 35 R 66 1995 R 67 1650 R 67 1315 R 67 986 R 66 664 R 67 351 R 67 44 R
66 -257 R 67 -550 R 67 -836 R 67 -1116 R 66 -1389 R 67 -1657 R 43 -1235 R D
4579 1408 M 57 1288 R 62 1238 R 62 1080 R 62 927 R 62 777 R 62 630 R
62 486 R 62 347 R 62 210 R 62 75 R 62 -54 R 62 -183 R 62 -307 R 62 -428 R
62 -547 R 62 -664 R 62 -776 R 62 -887 R 62 -994 R 62 -1099 R 57 -1119 R D
3934 1408 M 2 15 R 57 695 R 57 651 R 57 611 R 58 570 R 57 532 R 57 493 R
57 455 R 57 420 R 58 385 R 57 350 R 57 317 R 57 285 R 57 254 R 58 223 R
57 194 R 57 165 R 57 138 R 57 111 R 58 85 R 57 60 R 57 37 R 57 13 R 57 -9 R
58 -31 R 57 -51 R 57 -71 R 57 -90 R 57 -108 R 57 -125 R 58 -142 R 57 -157 R
57 -172 R 57 -187 R 57 -199 R 58 -212 R 57 -224 R 57 -235 R 57 -245 R
57 -254 R 58 -263 R 57 -271 R 57 -278 R 57 -285 R 57 -290 R 58 -295 R
57 -300 R 57 -303 R 57 -306 R 57 -308 R 58 -309 R 57 -311 R 57 -310 R
57 -309 R 57 -308 R 18 -101 R D 9813 1408 M 14 131 R 57 569 R 57 603 R
57 635 R 58 670 R 57 704 R 57 738 R 57 775 R 57 810 R 57 847 R 58 884 R
57 921 R 57 960 R 57 999 R 18 342 R D 3581 1408 M 2 16 R 53 533 R 52 506 R
52 482 R 53 456 R 52 432 R 53 409 R 52 386 R 53 363 R 52 341 R 52 320 R
53 300 R 52 279 R 53 260 R 52 241 R 53 222 R 52 205 R 52 187 R 53 171 R
52 155 R 53 139 R 52 124 R 53 110 R 52 95 R 52 82 R 53 70 R 52 57 R 53 45 R
52 34 R 53 23 R 52 13 R 52 3 R 53 -7 R 52 -15 R 53 -23 R 52 -31 R 53 -38 R
52 -45 R 52 -51 R 53 -57 R 52 -62 R 53 -67 R 52 -71 R 53 -75 R 52 -78 R
52 -81 R 53 -83 R 52 -85 R 53 -87 R 52 -87 R 53 -88 R 52 -88 R 52 -87 R
53 -87 R 52 -85 R 53 -83 R 52 -81 R 53 -78 R 52 -75 R 52 -71 R 53 -67 R
52 -62 R 53 -57 R 52 -52 R 53 -46 R 52 -39 R 52 -32 R 53 -25 R 52 -18 R
53 -9 R 52 -1 R 52 9 R 53 18 R 52 28 R 53 38 R 52 49 R 53 60 R 52 72 R
52 84 R 53 97 R 52 109 R 53 123 R 52 137 R 53 151 R 52 166 R 52 180 R
53 197 R 52 212 R 53 228 R 52 246 R 53 262 R 52 280 R 52 298 R 53 316 R
52 336 R 53 354 R 52 375 R 53 394 R 52 415 R 52 436 R 15 133 R D 2937 1408 M
46 382 R 47 390 R 48 374 R 48 358 R 47 344 R 48 330 R 48 315 R 47 302 R
48 288 R 48 274 R 47 262 R 48 250 R 48 237 R 47 225 R 48 213 R 48 202 R
47 191 R 48 181 R 48 170 R 47 160 R 48 150 R 48 140 R 47 132 R 48 122 R
48 114 R 47 106 R 48 98 R 48 90 R 47 83 R 48 76 R 47 69 R 48 62 R 48 57 R
47 50 R 48 45 R 48 40 R 47 35 R 48 30 R 48 26 R 47 22 R 48 18 R 48 14 R
47 12 R 48 8 R 48 6 R 47 4 R 48 2 R 48 0 R 47 -2 R 48 -2 R 48 -4 R 47 -3 R
48 -4 R 48 -4 R 47 -4 R 48 -3 R 48 -2 R 47 -1 R 48 1 R 48 2 R 47 5 R 48 7 R
48 10 R 47 12 R 48 16 R 48 20 R 47 23 R 48 28 R 48 31 R 47 37 R 48 41 R
48 47 R 47 52 R 48 59 R 48 64 R 47 71 R 48 77 R 48 84 R 47 92 R 48 99 R
48 107 R 47 115 R 48 124 R 48 132 R 47 141 R 48 151 R 47 160 R 48 170 R
48 180 R 47 190 R 48 201 R 48 212 R 47 223 R 48 235 R 48 247 R 16 92 R D
2798 1408 M 23 192 R 43 350 R 42 337 R 43 325 R 43 314 R 43 303 R 43 291 R
43 280 R 43 269 R 43 259 R 43 248 R 42 239 R 43 228 R 43 219 R 43 209 R
43 199 R 43 191 R 43 182 R 43 173 R 43 165 R 43 157 R 42 148 R 43 141 R
43 133 R 43 126 R 43 118 R 43 112 R 43 105 R 43 98 R 43 92 R 42 86 R 43 80 R
43 74 R 43 69 R 43 64 R 43 58 R 43 54 R 43 49 R 43 44 R 43 40 R 42 37 R
43 32 R 43 29 R 43 25 R 43 22 R 43 19 R 43 17 R 43 14 R 43 11 R 42 10 R
43 7 R 43 6 R 43 4 R 43 2 R 43 2 R 43 1 R 43 0 R 43 -1 R 43 -1 R 42 -1 R
43 -1 R 43 0 R 43 0 R 43 1 R 43 1 R 43 3 R 43 4 R 43 6 R 42 7 R 43 10 R
43 11 R 43 14 R 43 16 R 43 20 R 43 22 R 43 25 R 43 29 R 43 32 R 42 36 R
43 40 R 43 45 R 43 48 R 43 53 R 43 59 R 43 63 R 43 68 R 43 74 R 42 79 R
43 85 R 43 91 R 43 98 R 43 103 R 43 111 R 43 117 R 43 124 R 43 132 R
43 139 R 42 146 R 43 155 R 43 162 R 43 171 R 43 179 R 43 188 R 43 197 R
43 206 R 43 215 R 27 148 R D 2667 1408 M 11 84 R 38 309 R 38 300 R 38 290 R
38 281 R 38 273 R 38 264 R 39 255 R 38 247 R 38 239 R 38 230 R 38 223 R
38 215 R 38 207 R 38 199 R 39 192 R 38 185 R 38 177 R 38 171 R 38 164 R
38 157 R 38 150 R 38 144 R 39 138 R 38 131 R 38 126 R 38 120 R 38 114 R
38 108 R 38 103 R 38 98 R 39 92 R 38 87 R 38 83 R 38 78 R 38 73 R 38 69 R
38 64 R 39 60 R 38 57 R 38 52 R 38 48 R 38 45 R 38 42 R 38 38 R 38 35 R
39 32 R 38 28 R 38 27 R 38 23 R 38 21 R 38 19 R 38 16 R 38 14 R 39 13 R
38 10 R 38 9 R 38 8 R 38 6 R 38 5 R 38 4 R 38 2 R 39 2 R 38 2 R 38 0 R
38 1 R 38 0 R 38 0 R 38 0 R 39 0 R 38 0 R 38 1 R 38 2 R 38 2 R 38 3 R 38 4 R
38 5 R 39 7 R 38 8 R 38 9 R 38 11 R 38 14 R 38 15 R 38 17 R 38 19 R 39 22 R
38 24 R 38 27 R 38 30 R 38 33 R 38 36 R 38 39 R 38 42 R 39 46 R 38 50 R
38 54 R 38 57 R 38 62 R 38 65 R 38 70 R 38 75 R 39 79 R 38 84 R 38 89 R
38 94 R 38 99 R 38 104 R 38 110 R 39 116 R 38 121 R 38 127 R 38 134 R
38 139 R 38 146 R 38 152 R 38 159 R 39 165 R 38 172 R 38 180 R 38 186 R
38 194 R 5 30 R D 2649 1408 M 5 33 R 33 272 R 34 264 R 33 257 R 33 251 R
34 243 R 33 237 R 33 230 R 34 224 R 33 218 R 33 211 R 34 204 R 33 199 R
34 193 R 33 186 R 33 181 R 34 175 R 33 169 R 33 164 R 34 158 R 33 153 R
33 148 R 34 142 R 33 137 R 34 132 R 33 128 R 33 122 R 34 118 R 33 113 R
33 108 R 34 104 R 33 100 R 33 95 R 34 92 R 33 87 R 33 83 R 34 79 R 33 76 R
34 71 R 33 69 R 33 64 R 34 61 R 33 58 R 33 55 R 34 51 R 33 49 R 33 45 R
34 43 R 33 39 R 34 37 R 33 35 R 33 32 R 34 30 R 33 27 R 33 25 R 34 23 R
33 21 R 33 19 R 34 17 R 33 16 R 34 13 R 33 13 R 33 11 R 34 9 R 33 8 R 33 7 R
34 6 R 33 5 R 33 4 R 34 3 R 33 2 R 34 2 R 33 1 R 33 1 R 34 0 R 33 1 R 33 0 R
34 0 R 33 0 R 33 0 R 34 0 R 33 1 R 34 1 R 33 2 R 33 2 R 34 3 R 33 3 R 33 5 R
34 5 R 33 7 R 33 7 R 34 9 R 33 10 R 34 12 R 33 13 R 33 15 R 34 17 R 33 18 R
33 20 R 34 22 R 33 25 R 33 26 R 34 29 R 33 31 R 34 33 R 33 36 R 33 39 R
34 42 R 33 44 R 33 47 R 34 50 R 33 54 R 33 56 R 34 60 R 33 63 R 33 67 R
34 70 R 33 74 R 34 78 R 33 81 R 33 86 R 34 89 R 33 94 R 33 98 R 34 102 R
33 107 R 33 111 R 34 116 R 33 120 R 34 125 R 33 130 R 33 135 R 34 140 R
33 146 R 33 150 R 34 156 R 33 161 R 33 167 R 23 119 R D 2635 1408 M 14 112 R
29 230 R 28 226 R 29 221 R 28 215 R 29 211 R 29 206 R 28 200 R 29 196 R
28 191 R 29 187 R 29 182 R 28 177 R 29 172 R 28 169 R 29 163 R 29 160 R
28 155 R 29 151 R 28 147 R 29 142 R 29 139 R 28 134 R 29 131 R 28 127 R
29 123 R 29 119 R 28 115 R 29 112 R 28 108 R 29 105 R 29 101 R 28 98 R
29 94 R 28 91 R 29 88 R 29 85 R 28 82 R 29 78 R 28 76 R 29 72 R 28 70 R
29 67 R 29 64 R 28 61 R 29 59 R 28 56 R 29 54 R 29 51 R 28 48 R 29 47 R
28 44 R 29 41 R 29 40 R 28 38 R 29 35 R 28 33 R 29 32 R 29 29 R 28 28 R
29 26 R 28 24 R 29 23 R 29 21 R 28 19 R 29 18 R 28 17 R 29 15 R 29 14 R
28 12 R 29 12 R 28 10 R 29 10 R 29 8 R 28 7 R 29 6 R 28 6 R 29 5 R 29 4 R
28 3 R 29 3 R 28 2 R 29 2 R 29 1 R 28 1 R 29 1 R 28 0 R 29 1 R 29 0 R 28 0 R
29 0 R 28 0 R 29 0 R 29 0 R 28 1 R 29 1 R 28 1 R 29 1 R 28 2 R 29 3 R 29 3 R
28 4 R 29 4 R 28 5 R 29 6 R 29 7 R 28 8 R 29 8 R 28 10 R 29 11 R 29 12 R
28 13 R 29 15 R 28 15 R 29 18 R 29 18 R 28 20 R 29 22 R 28 24 R 29 25 R
29 26 R 28 29 R 29 30 R 28 33 R 29 34 R 29 36 R 28 39 R 29 41 R 28 42 R
29 46 R 29 47 R 28 50 R 29 52 R 28 55 R 29 57 R 29 60 R 28 63 R 29 65 R
28 68 R 29 71 R 29 74 R 28 77 R 29 80 R 28 83 R 29 86 R 29 90 R 28 92 R
29 96 R 28 100 R 29 102 R 29 107 R 28 110 R 29 113 R 28 117 R 29 121 R
28 125 R 29 128 R 29 133 R 28 136 R 29 141 R 28 144 R 14 73 R D 2633 1408 M
16 126 R 24 193 R 24 189 R 24 185 R 23 182 R 24 178 R 24 175 R 24 171 R
24 168 R 24 165 R 23 161 R 24 158 R 24 155 R 24 152 R 24 148 R 23 145 R
24 142 R 24 139 R 24 136 R 24 133 R 24 130 R 23 127 R 24 124 R 24 121 R
24 119 R 24 115 R 24 113 R 23 110 R 24 107 R 24 105 R 24 102 R 24 99 R
24 97 R 23 94 R 24 92 R 24 89 R 24 87 R 24 84 R 24 82 R 23 80 R 24 77 R
24 75 R 24 73 R 24 71 R 24 68 R 23 67 R 24 64 R 24 62 R 24 60 R 24 58 R
24 56 R 23 55 R 24 52 R 24 50 R 24 49 R 24 47 R 24 45 R 23 43 R 24 42 R
24 40 R 24 38 R 24 37 R 24 35 R 23 34 R 24 32 R 24 30 R 24 30 R 24 28 R
24 26 R 23 25 R 24 24 R 24 23 R 24 21 R 24 21 R 23 19 R 24 18 R 24 17 R
24 15 R 24 15 R 24 14 R 23 13 R 24 12 R 24 11 R 24 10 R 24 9 R 24 9 R 23 8 R
24 7 R 24 7 R 24 5 R 24 6 R 24 4 R 23 4 R 24 4 R 24 3 R 24 3 R 24 2 R 24 2 R
23 2 R 24 1 R 24 1 R 24 0 R 24 1 R 24 0 R 23 1 R 24 0 R 24 0 R 24 0 R 24 0 R
24 0 R 23 0 R 24 0 R 24 0 R 24 1 R 24 1 R 24 1 R 23 1 R 24 1 R 24 2 R 24 2 R
24 3 R 24 3 R 23 4 R 24 4 R 24 4 R 24 5 R 24 6 R 23 7 R 24 7 R 24 7 R 24 9 R
24 9 R 24 10 R 23 11 R 24 12 R 24 13 R 24 14 R 24 14 R 24 16 R 23 17 R
24 18 R 24 19 R 24 20 R 24 21 R 24 23 R 23 23 R 24 25 R 24 27 R 24 27 R
24 30 R 24 30 R 23 32 R 24 34 R 24 35 R 24 36 R 24 38 R 24 40 R 23 41 R
24 44 R 24 44 R 24 47 R 24 48 R 24 51 R 23 52 R 24 54 R 24 56 R 24 58 R
24 59 R 24 62 R 23 64 R 24 66 R 24 69 R 24 70 R 24 73 R 24 74 R 23 77 R
24 80 R 24 82 R 24 84 R 24 86 R 24 89 R 23 92 R 24 93 R 24 97 R 24 99 R
24 102 R 23 104 R 24 107 R 24 109 R 24 113 R 24 115 R 24 118 R 23 121 R
12 67 R D 2632 1408 M 8 60 R 19 155 R 19 153 R 19 151 R 19 148 R 19 146 R
19 144 R 19 142 R 19 139 R 19 137 R 19 135 R 19 133 R 19 131 R 19 129 R
19 126 R 19 125 R 20 122 R 19 120 R 19 118 R 19 117 R 19 114 R 19 112 R
19 111 R 19 108 R 19 106 R 19 105 R 19 102 R 19 101 R 19 99 R 19 97 R
19 95 R 19 94 R 20 91 R 19 90 R 19 88 R 19 87 R 19 84 R 19 83 R 19 81 R
19 80 R 19 78 R 19 76 R 19 75 R 19 73 R 19 71 R 19 70 R 19 68 R 20 67 R
19 66 R 19 63 R 19 63 R 19 61 R 19 59 R 19 58 R 19 57 R 19 55 R 19 54 R
19 52 R 19 51 R 19 50 R 19 48 R 19 48 R 19 46 R 20 44 R 19 44 R 19 42 R
19 41 R 19 40 R 19 38 R 19 38 R 19 36 R 19 36 R 19 34 R 19 33 R 19 32 R
19 31 R 19 30 R 19 29 R 20 28 R 19 27 R 19 26 R 19 25 R 19 24 R 19 23 R
19 23 R 19 21 R 19 21 R 19 19 R 19 19 R 19 19 R 19 17 R 19 17 R 19 15 R
19 16 R 20 14 R 19 14 R 19 13 R 19 12 R 19 12 R 19 11 R 19 10 R 19 10 R
19 10 R 19 8 R 19 9 R 19 7 R 19 7 R 19 7 R 19 6 R 20 6 R 19 5 R 19 5 R
19 5 R 19 4 R 19 4 R 19 3 R 19 3 R 19 3 R 19 2 R 19 2 R 19 2 R 19 2 R 19 1 R
19 2 R 19 1 R 20 0 R 19 1 R 19 1 R 19 0 R 19 0 R 19 1 R 19 0 R 19 0 R 19 0 R
19 0 R 19 0 R 19 0 R 19 0 R 19 0 R 19 0 R 20 0 R 19 1 R 19 0 R 19 1 R 19 0 R
19 1 R 19 1 R 19 2 R 19 1 R 19 2 R 19 2 R 19 2 R 19 3 R 19 3 R 19 3 R 19 4 R
20 3 R 19 5 R 19 4 R 19 5 R 19 6 R 19 6 R 19 6 R 19 7 R 19 8 R 19 8 R 19 8 R
19 9 R 19 10 R 19 10 R 19 11 R 20 11 R 19 12 R 19 13 R 19 13 R 19 14 R
19 15 R 19 15 R 19 17 R 19 17 R 19 17 R 19 19 R 19 19 R 19 20 R 19 21 R
19 22 R 19 23 R 20 24 R 19 24 R 19 26 R 19 26 R 19 28 R 19 28 R 19 30 R
19 30 R 19 32 R 19 32 R 19 34 R 19 34 R 19 36 R 19 37 R 19 38 R 19 39 R
20 41 R 19 41 R 19 43 R 19 44 R 19 45 R 19 47 R 19 48 R 19 49 R 19 50 R
19 52 R 19 53 R 19 55 R 19 55 R 19 58 R 19 58 R 20 60 R 19 62 R 19 63 R
19 64 R 19 66 R 19 68 R 19 69 R 19 71 R 19 72 R 19 74 R 19 75 R 19 77 R
19 79 R 19 80 R 19 82 R 19 84 R 20 85 R 19 87 R 19 89 R 19 91 R 19 92 R
19 95 R 19 96 R 19 98 R 2 13 R D 4880 1408 M 57 2353 R 71 2236 R 72 1512 R
71 806 R 72 115 R 71 -562 R 72 -1221 R 71 -1863 R 72 -2495 R 20 -881 R D
4504 1408 M 51 1054 R 67 1224 R 67 1075 R 67 932 R 66 790 R 67 652 R
67 519 R 67 389 R 66 261 R 67 138 R 67 17 R 66 -100 R 67 -215 R 67 -326 R
67 -434 R 66 -538 R 67 -642 R 67 -741 R 67 -838 R 66 -931 R 67 -1023 R
67 -1111 R 8 -152 R D 4245 1408 M 20 309 R 62 923 R 62 847 R 62 774 R
62 703 R 62 632 R 61 565 R 62 498 R 62 434 R 62 371 R 62 310 R 62 250 R
62 193 R 62 137 R 62 83 R 62 30 R 62 -22 R 62 -71 R 62 -119 R 62 -166 R
62 -211 R 62 -254 R 62 -297 R 62 -337 R 62 -377 R 62 -415 R 62 -451 R
62 -486 R 62 -520 R 62 -552 R 62 -584 R 61 -613 R 62 -642 R 62 -669 R
24 -273 R D 13238 1408 M 11 410 R 62 2523 R 62 2597 R 62 2671 R 53 2387 R D
3460 1408 M 18 181 R 58 545 R 57 517 R 57 489 R 57 462 R 57 436 R 57 410 R
58 386 R 57 362 R 57 338 R 57 316 R 57 294 R 58 272 R 57 253 R 57 232 R
57 213 R 57 195 R 58 177 R 57 160 R 57 143 R 57 128 R 57 112 R 58 98 R
57 84 R 57 71 R 57 59 R 57 46 R 58 35 R 57 25 R 57 14 R 57 6 R 57 -4 R
58 -12 R 57 -19 R 57 -26 R 57 -32 R 57 -38 R 57 -44 R 58 -47 R 57 -52 R
57 -55 R 57 -57 R 57 -60 R 58 -61 R 57 -62 R 57 -62 R 57 -62 R 57 -62 R
58 -59 R 57 -58 R 57 -56 R 57 -52 R 57 -48 R 58 -44 R 57 -39 R 57 -34 R
57 -28 R 57 -21 R 58 -15 R 57 -6 R 57 2 R 57 10 R 57 20 R 57 30 R 58 40 R
57 51 R 57 63 R 57 74 R 57 88 R 58 100 R 57 115 R 57 128 R 57 144 R 57 159 R
58 174 R 57 191 R 57 208 R 57 226 R 57 243 R 58 262 R 57 282 R 57 300 R
57 321 R 57 342 R 58 363 R 57 385 R 57 406 R 2 17 R D 3153 1408 M 11 92 R
52 460 R 53 441 R 52 420 R 52 400 R 53 382 R 52 362 R 53 345 R 52 327 R
53 309 R 52 293 R 52 277 R 53 261 R 52 245 R 53 230 R 52 216 R 53 202 R
52 189 R 52 175 R 53 163 R 52 150 R 53 139 R 52 127 R 53 116 R 52 106 R
52 96 R 53 87 R 52 77 R 53 68 R 52 61 R 53 52 R 52 45 R 52 38 R 53 32 R
52 25 R 53 20 R 52 15 R 53 9 R 52 5 R 52 2 R 53 -3 R 52 -5 R 53 -9 R
52 -10 R 53 -13 R 52 -14 R 52 -15 R 53 -16 R 52 -16 R 53 -16 R 52 -15 R
53 -14 R 52 -13 R 52 -11 R 53 -9 R 52 -7 R 53 -3 R 52 0 R 53 4 R 52 8 R
52 12 R 53 18 R 52 23 R 53 29 R 52 35 R 53 42 R 52 49 R 52 56 R 53 64 R
52 73 R 53 80 R 52 90 R 53 100 R 52 109 R 52 119 R 53 130 R 52 140 R
53 153 R 52 164 R 52 176 R 53 188 R 52 202 R 53 215 R 52 228 R 53 243 R
52 257 R 52 272 R 53 287 R 26 152 R D 2764 1408 M 28 231 R 48 384 R 47 370 R
48 355 R 48 340 R 47 327 R 48 314 R 48 300 R 47 287 R 48 275 R 48 262 R
47 250 R 48 238 R 48 227 R 47 215 R 48 205 R 48 193 R 47 184 R 48 173 R
48 164 R 47 154 R 48 145 R 48 136 R 47 127 R 48 119 R 48 111 R 47 103 R
48 95 R 48 89 R 47 81 R 48 75 R 48 68 R 47 62 R 48 57 R 47 50 R 48 46 R
48 41 R 47 36 R 48 31 R 48 28 R 47 23 R 48 20 R 48 17 R 47 14 R 48 11 R
48 9 R 47 6 R 48 5 R 48 3 R 47 2 R 48 1 R 48 0 R 47 -1 R 48 0 R 48 -1 R
47 0 R 48 0 R 48 2 R 47 2 R 48 5 R 48 5 R 47 8 R 48 11 R 48 12 R 47 16 R
48 19 R 48 22 R 47 27 R 48 30 R 48 34 R 47 39 R 48 44 R 48 48 R 47 55 R
48 59 R 48 66 R 47 72 R 48 79 R 48 85 R 47 92 R 48 100 R 48 107 R 47 115 R
48 124 R 48 131 R 47 141 R 48 149 R 48 159 R 47 168 R 48 178 R 47 188 R
48 199 R 48 209 R 47 220 R 48 231 R 48 242 R 7 38 R D 2700 1408 M 35 283 R
43 342 R 43 329 R 43 319 R 42 307 R 43 296 R 43 285 R 43 274 R 43 264 R
43 254 R 43 244 R 43 233 R 43 225 R 42 214 R 43 206 R 43 196 R 43 188 R
43 179 R 43 171 R 43 162 R 43 154 R 43 147 R 43 139 R 42 132 R 43 124 R
43 117 R 43 111 R 43 104 R 43 98 R 43 91 R 43 85 R 43 80 R 42 74 R 43 69 R
43 63 R 43 59 R 43 54 R 43 49 R 43 45 R 43 41 R 43 37 R 43 33 R 42 29 R
43 26 R 43 23 R 43 20 R 43 17 R 43 15 R 43 13 R 43 10 R 43 8 R 42 7 R 43 5 R
43 3 R 43 3 R 43 2 R 43 0 R 43 1 R 43 0 R 43 0 R 43 -1 R 42 1 R 43 0 R
43 2 R 43 2 R 43 3 R 43 5 R 43 6 R 43 7 R 43 10 R 42 12 R 43 14 R 43 16 R
43 19 R 43 22 R 43 25 R 43 28 R 43 32 R 43 35 R 43 40 R 42 43 R 43 48 R
43 52 R 43 57 R 43 61 R 43 67 R 43 72 R 43 78 R 43 83 R 42 89 R 43 95 R
43 101 R 43 108 R 43 115 R 43 121 R 43 128 R 43 136 R 43 143 R 43 151 R
42 159 R 43 167 R 43 175 R 43 183 R 43 193 R 43 201 R 43 210 R 42 215 R D
2646 1408 M 32 259 R 38 303 R 38 293 R 38 285 R 38 276 R 38 267 R 38 258 R
39 250 R 38 242 R 38 234 R 38 225 R 38 218 R 38 210 R 38 203 R 38 195 R
39 187 R 38 181 R 38 173 R 38 167 R 38 160 R 38 153 R 38 147 R 38 140 R
39 135 R 38 128 R 38 122 R 38 117 R 38 111 R 38 105 R 38 100 R 38 95 R
39 90 R 38 85 R 38 80 R 38 75 R 38 71 R 38 67 R 38 62 R 39 58 R 38 54 R
38 51 R 38 46 R 38 44 R 38 39 R 38 37 R 38 33 R 39 31 R 38 27 R 38 25 R
38 22 R 38 20 R 38 18 R 38 15 R 38 14 R 39 12 R 38 9 R 38 9 R 38 6 R 38 6 R
38 4 R 38 4 R 38 2 R 39 2 R 38 1 R 38 0 R 38 1 R 38 0 R 38 0 R 38 0 R 39 0 R
38 1 R 38 1 R 38 2 R 38 2 R 38 4 R 38 4 R 38 6 R 39 7 R 38 9 R 38 10 R
38 12 R 38 14 R 38 16 R 38 18 R 38 20 R 39 23 R 38 25 R 38 28 R 38 31 R
38 34 R 38 37 R 38 41 R 38 44 R 39 47 R 38 51 R 38 55 R 38 59 R 38 63 R
38 67 R 38 72 R 38 76 R 39 81 R 38 86 R 38 91 R 38 95 R 38 101 R 38 107 R
38 112 R 39 117 R 38 123 R 38 130 R 38 135 R 38 141 R 38 148 R 38 155 R
38 161 R 39 167 R 38 175 R 38 181 R 38 189 R 30 155 R D 2638 1408 M 16 122 R
33 269 R 34 262 R 33 254 R 33 248 R 34 241 R 33 235 R 33 228 R 34 221 R
33 215 R 33 209 R 34 203 R 33 196 R 34 191 R 33 184 R 33 179 R 34 173 R
33 168 R 33 161 R 34 157 R 33 151 R 33 146 R 34 140 R 33 136 R 34 130 R
33 126 R 33 121 R 34 116 R 33 112 R 33 107 R 34 102 R 33 99 R 33 94 R
34 90 R 33 86 R 33 82 R 34 78 R 33 74 R 34 71 R 33 67 R 33 63 R 34 61 R
33 56 R 33 54 R 34 51 R 33 47 R 33 45 R 34 41 R 33 40 R 34 36 R 33 34 R
33 31 R 34 29 R 33 27 R 33 24 R 34 23 R 33 20 R 33 19 R 34 16 R 33 15 R
34 14 R 33 12 R 33 10 R 34 9 R 33 8 R 33 6 R 34 6 R 33 5 R 33 3 R 34 3 R
33 3 R 34 1 R 33 1 R 33 1 R 34 1 R 33 0 R 33 0 R 34 0 R 33 0 R 33 0 R 34 0 R
33 1 R 34 1 R 33 2 R 33 2 R 34 3 R 33 4 R 33 5 R 34 6 R 33 6 R 33 8 R
34 10 R 33 10 R 34 12 R 33 14 R 33 15 R 34 17 R 33 18 R 33 21 R 34 23 R
33 25 R 33 26 R 34 30 R 33 31 R 34 34 R 33 37 R 33 39 R 34 42 R 33 45 R
33 48 R 34 51 R 33 54 R 33 57 R 34 61 R 33 64 R 33 67 R 34 71 R 33 75 R
34 78 R 33 83 R 33 86 R 34 90 R 33 95 R 33 98 R 34 104 R 33 107 R 33 112 R
34 117 R 33 121 R 34 126 R 33 131 R 33 136 R 34 141 R 33 147 R 33 151 R
34 157 R 33 162 R 33 168 R 16 84 R D 2633 1408 M 16 129 R 29 231 R 28 225 R
29 220 R 28 215 R 29 211 R 29 205 R 28 200 R 29 196 R 28 190 R 29 186 R
29 182 R 28 177 R 29 172 R 28 168 R 29 163 R 29 159 R 28 155 R 29 151 R
28 146 R 29 142 R 29 139 R 28 134 R 29 130 R 28 127 R 29 122 R 29 119 R
28 115 R 29 112 R 28 108 R 29 104 R 29 101 R 28 97 R 29 95 R 28 91 R 29 87 R
29 85 R 28 81 R 29 78 R 28 76 R 29 72 R 28 69 R 29 67 R 29 64 R 28 61 R
29 59 R 28 56 R 29 53 R 29 51 R 28 48 R 29 47 R 28 43 R 29 42 R 29 40 R
28 37 R 29 35 R 28 33 R 29 32 R 29 29 R 28 28 R 29 26 R 28 24 R 29 22 R
29 21 R 28 19 R 29 18 R 28 17 R 29 15 R 29 14 R 28 12 R 29 12 R 28 10 R
29 9 R 29 8 R 28 7 R 29 7 R 28 5 R 29 5 R 29 4 R 28 3 R 29 3 R 28 2 R 29 2 R
29 1 R 28 1 R 29 1 R 28 0 R 29 1 R 29 0 R 28 0 R 29 0 R 28 0 R 29 0 R 29 0 R
28 1 R 29 1 R 28 1 R 29 1 R 28 2 R 29 3 R 29 3 R 28 4 R 29 4 R 28 5 R 29 6 R
29 7 R 28 8 R 29 9 R 28 10 R 29 10 R 29 13 R 28 13 R 29 14 R 28 16 R 29 18 R
29 18 R 28 21 R 29 21 R 28 24 R 29 25 R 29 27 R 28 28 R 29 31 R 28 33 R
29 34 R 29 36 R 28 39 R 29 41 R 28 43 R 29 45 R 29 47 R 28 50 R 29 53 R
28 55 R 29 57 R 29 60 R 28 63 R 29 65 R 28 69 R 29 71 R 29 74 R 28 77 R
29 80 R 28 83 R 29 87 R 29 89 R 28 93 R 29 96 R 28 100 R 29 103 R 29 106 R
28 110 R 29 114 R 28 117 R 29 121 R 28 125 R 29 129 R 29 132 R 28 137 R
29 140 R 28 145 R 12 66 R D 2632 1408 M 17 135 R 24 193 R 24 188 R 24 185 R
23 182 R 24 178 R 24 175 R 24 171 R 24 168 R 24 164 R 23 161 R 24 158 R
24 155 R 24 151 R 24 148 R 23 145 R 24 142 R 24 139 R 24 136 R 24 133 R
24 130 R 23 126 R 24 124 R 24 121 R 24 119 R 24 115 R 24 113 R 23 110 R
24 107 R 24 104 R 24 102 R 24 99 R 24 97 R 23 94 R 24 92 R 24 89 R 24 86 R
24 85 R 24 82 R 23 79 R 24 77 R 24 75 R 24 73 R 24 71 R 24 68 R 23 66 R
24 64 R 24 62 R 24 60 R 24 58 R 24 57 R 23 54 R 24 52 R 24 50 R 24 49 R
24 47 R 24 45 R 23 43 R 24 41 R 24 40 R 24 39 R 24 36 R 24 35 R 23 34 R
24 32 R 24 31 R 24 29 R 24 28 R 24 26 R 23 25 R 24 24 R 24 23 R 24 21 R
24 20 R 23 19 R 24 18 R 24 17 R 24 16 R 24 15 R 24 13 R 23 13 R 24 12 R
24 11 R 24 10 R 24 10 R 24 8 R 23 8 R 24 7 R 24 7 R 24 6 R 24 5 R 24 4 R
23 5 R 24 3 R 24 3 R 24 3 R 24 2 R 24 2 R 23 2 R 24 1 R 24 1 R 24 0 R 24 1 R
24 0 R 23 1 R 24 0 R 24 0 R 24 0 R 24 0 R 24 0 R 23 0 R 24 0 R 24 0 R 24 1 R
24 1 R 24 1 R 23 1 R 24 1 R 24 2 R 24 2 R 24 3 R 24 3 R 23 4 R 24 4 R 24 4 R
24 6 R 24 5 R 23 7 R 24 7 R 24 8 R 24 8 R 24 10 R 24 10 R 23 11 R 24 12 R
24 12 R 24 14 R 24 15 R 24 16 R 23 16 R 24 18 R 24 19 R 24 20 R 24 22 R
24 22 R 23 24 R 24 25 R 24 27 R 24 27 R 24 29 R 24 31 R 23 32 R 24 34 R
24 35 R 24 36 R 24 38 R 24 40 R 23 42 R 24 43 R 24 45 R 24 46 R 24 49 R
24 50 R 23 52 R 24 54 R 24 56 R 24 58 R 24 60 R 24 62 R 23 64 R 24 66 R
24 69 R 24 70 R 24 73 R 24 75 R 23 77 R 24 79 R 24 82 R 24 84 R 24 87 R
24 89 R 23 91 R 24 94 R 24 97 R 24 99 R 24 102 R 23 104 R 24 107 R 24 110 R
24 112 R 24 115 R 24 118 R 23 121 R 12 64 R D 2632 1408 M 8 62 R 19 155 R
19 153 R 19 151 R 19 148 R 19 146 R 19 144 R 19 141 R 19 140 R 19 137 R
19 135 R 19 133 R 19 130 R 19 129 R 19 126 R 19 125 R 20 122 R 19 120 R
19 119 R 19 116 R 19 114 R 19 112 R 19 111 R 19 108 R 19 106 R 19 105 R
19 103 R 19 100 R 19 99 R 19 97 R 19 95 R 19 94 R 20 91 R 19 90 R 19 88 R
19 86 R 19 85 R 19 83 R 19 81 R 19 80 R 19 78 R 19 76 R 19 74 R 19 73 R
19 72 R 19 70 R 19 68 R 20 67 R 19 65 R 19 64 R 19 62 R 19 61 R 19 60 R
19 58 R 19 56 R 19 55 R 19 54 R 19 53 R 19 51 R 19 49 R 19 49 R 19 47 R
19 46 R 20 45 R 19 43 R 19 42 R 19 41 R 19 40 R 19 39 R 19 37 R 19 37 R
19 35 R 19 34 R 19 33 R 19 32 R 19 31 R 19 30 R 19 29 R 20 28 R 19 27 R
19 26 R 19 25 R 19 24 R 19 23 R 19 23 R 19 21 R 19 21 R 19 20 R 19 19 R
19 18 R 19 17 R 19 17 R 19 16 R 19 15 R 20 14 R 19 14 R 19 13 R 19 12 R
19 12 R 19 11 R 19 11 R 19 9 R 19 10 R 19 8 R 19 9 R 19 7 R 19 8 R 19 6 R
19 6 R 20 6 R 19 5 R 19 5 R 19 5 R 19 4 R 19 4 R 19 3 R 19 3 R 19 3 R 19 2 R
19 2 R 19 2 R 19 2 R 19 1 R 19 2 R 19 1 R 20 0 R 19 1 R 19 1 R 19 0 R 19 0 R
19 1 R 19 0 R 19 0 R 19 0 R 19 0 R 19 0 R 19 0 R 19 0 R 19 0 R 19 0 R 20 0 R
19 1 R 19 0 R 19 1 R 19 0 R 19 1 R 19 1 R 19 2 R 19 1 R 19 2 R 19 2 R 19 2 R
19 3 R 19 3 R 19 3 R 19 4 R 20 3 R 19 5 R 19 4 R 19 6 R 19 5 R 19 6 R 19 6 R
19 7 R 19 8 R 19 8 R 19 8 R 19 9 R 19 10 R 19 10 R 19 11 R 20 11 R 19 12 R
19 13 R 19 13 R 19 14 R 19 15 R 19 16 R 19 16 R 19 17 R 19 17 R 19 19 R
19 19 R 19 21 R 19 21 R 19 22 R 19 22 R 20 24 R 19 25 R 19 25 R 19 27 R
19 27 R 19 28 R 19 30 R 19 30 R 19 32 R 19 32 R 19 34 R 19 35 R 19 35 R
19 37 R 19 38 R 19 40 R 20 40 R 19 42 R 19 42 R 19 44 R 19 46 R 19 46 R
19 48 R 19 49 R 19 51 R 19 51 R 19 53 R 19 55 R 19 56 R 19 57 R 19 59 R
20 60 R 19 61 R 19 63 R 19 65 R 19 66 R 19 68 R 19 69 R 19 70 R 19 72 R
19 74 R 19 76 R 19 77 R 19 78 R 19 81 R 19 82 R 19 83 R 20 86 R 19 87 R
19 89 R 19 91 R 19 92 R 19 94 R 19 96 R 19 98 R 2 13 R D 4637 1408 M
14 351 R 71 1680 R 72 1427 R 71 1180 R 72 939 R 71 705 R 72 476 R 71 253 R
72 36 R 71 -176 R 72 -382 R 71 -581 R 72 -778 R 71 -969 R 72 -1153 R
71 -1332 R 72 -1509 R 7 -167 R D 4035 1408 M 53 693 R 67 810 R 67 747 R
67 685 R 66 626 R 67 568 R 67 512 R 66 458 R 67 405 R 67 354 R 67 306 R
66 257 R 67 212 R 67 167 R 67 124 R 66 83 R 67 44 R 67 5 R 66 -31 R 67 -66 R
67 -100 R 67 -133 R 66 -163 R 67 -192 R 67 -221 R 67 -247 R 66 -272 R
67 -296 R 67 -318 R 66 -339 R 67 -360 R 67 -377 R 67 -395 R 66 -411 R
67 -426 R 67 -438 R 66 -451 R 67 -462 R 67 -471 R 67 -480 R 55 -407 R D
10824 1408 M 4 62 R 66 1144 R 67 1200 R 67 1257 R 67 1316 R 66 1374 R
67 1435 R 67 1495 R 55 1305 R D 3687 1408 M 20 216 R 62 645 R 62 606 R
62 568 R 62 531 R 62 495 R 62 461 R 62 428 R 62 395 R 62 363 R 62 333 R
62 304 R 62 275 R 62 247 R 62 222 R 61 195 R 62 172 R 62 148 R 62 125 R
62 103 R 62 83 R 62 63 R 62 45 R 62 26 R 62 10 R 62 -7 R 62 -22 R 62 -36 R
62 -50 R 62 -62 R 62 -74 R 62 -84 R 62 -95 R 62 -103 R 62 -112 R 62 -120 R
62 -125 R 62 -132 R 62 -136 R 62 -141 R 61 -144 R 62 -146 R 62 -148 R
62 -148 R 62 -149 R 62 -148 R 62 -146 R 62 -143 R 62 -141 R 62 -137 R
62 -132 R 62 -126 R 62 -120 R 62 -113 R 62 -106 R 62 -96 R 62 -88 R 62 -77 R
62 -66 R 62 -55 R 62 -42 R 62 -29 R 62 -16 R 62 -1 R 61 15 R 62 30 R 62 48 R
62 65 R 62 83 R 62 102 R 62 122 R 62 142 R 62 163 R 62 185 R 62 208 R
62 231 R 62 255 R 62 280 R 62 305 R 62 331 R 62 358 R 62 385 R 62 414 R
62 442 R 62 472 R 62 503 R 62 533 R 62 565 R 62 597 R 49 511 R D 2995 1408 M
26 225 R 57 478 R 57 455 R 57 433 R 58 411 R 57 391 R 57 369 R 57 350 R
57 331 R 58 311 R 57 294 R 57 275 R 57 259 R 57 242 R 57 226 R 58 210 R
57 196 R 57 181 R 57 167 R 57 154 R 58 141 R 57 129 R 57 117 R 57 106 R
57 95 R 58 85 R 57 76 R 57 66 R 57 58 R 57 50 R 58 43 R 57 36 R 57 29 R
57 23 R 57 18 R 58 13 R 57 9 R 57 5 R 57 2 R 57 -1 R 58 -4 R 57 -5 R 57 -6 R
57 -7 R 57 -7 R 57 -7 R 58 -6 R 57 -5 R 57 -3 R 57 -1 R 57 3 R 58 5 R
57 10 R 57 14 R 57 18 R 57 24 R 58 30 R 57 37 R 57 43 R 57 51 R 57 58 R
58 67 R 57 76 R 57 85 R 57 95 R 57 106 R 58 116 R 57 128 R 57 140 R 57 152 R
57 165 R 57 178 R 58 192 R 57 206 R 57 222 R 57 236 R 57 253 R 58 269 R
57 285 R 57 303 R 2 14 R D 2831 1408 M 18 147 R 53 430 R 52 411 R 52 394 R
53 376 R 52 359 R 53 342 R 52 327 R 53 310 R 52 295 R 52 280 R 53 266 R
52 251 R 53 237 R 52 224 R 53 211 R 52 199 R 52 186 R 53 174 R 52 163 R
53 151 R 52 141 R 53 131 R 52 121 R 52 111 R 53 102 R 52 93 R 53 86 R
52 77 R 53 69 R 52 62 R 52 56 R 53 49 R 52 43 R 53 37 R 52 32 R 53 28 R
52 22 R 52 19 R 53 15 R 52 11 R 53 9 R 52 6 R 53 3 R 52 2 R 52 1 R 53 -1 R
52 -1 R 53 -2 R 52 -2 R 53 -1 R 52 0 R 52 1 R 53 2 R 52 4 R 53 7 R 52 9 R
53 13 R 52 15 R 52 20 R 53 24 R 52 28 R 53 34 R 52 39 R 53 44 R 52 50 R
52 57 R 53 64 R 52 71 R 53 79 R 52 86 R 53 95 R 52 103 R 52 113 R 53 122 R
52 132 R 53 141 R 52 153 R 53 163 R 52 175 R 52 186 R 53 199 R 52 210 R
53 224 R 52 237 R 52 250 R 53 264 R 22 122 R D 2675 1408 M 22 175 R 47 382 R
48 367 R 48 353 R 47 339 R 48 326 R 48 312 R 47 300 R 48 286 R 48 275 R
47 262 R 48 250 R 48 238 R 47 228 R 48 216 R 48 205 R 47 195 R 48 185 R
48 175 R 47 165 R 48 155 R 48 147 R 47 138 R 48 129 R 48 121 R 47 113 R
48 105 R 48 97 R 47 91 R 48 83 R 48 77 R 47 71 R 48 64 R 48 59 R 47 53 R
48 48 R 47 43 R 48 38 R 48 34 R 47 29 R 48 26 R 48 22 R 47 18 R 48 16 R
48 13 R 47 10 R 48 8 R 48 6 R 47 5 R 48 3 R 48 1 R 47 1 R 48 1 R 48 0 R
47 0 R 48 0 R 48 1 R 47 1 R 48 2 R 48 4 R 47 6 R 48 7 R 48 9 R 47 12 R
48 15 R 48 17 R 47 21 R 48 24 R 48 28 R 47 32 R 48 36 R 48 41 R 47 46 R
48 51 R 48 56 R 47 62 R 48 68 R 48 74 R 47 81 R 48 88 R 48 94 R 47 102 R
48 110 R 48 117 R 47 125 R 48 134 R 48 143 R 47 152 R 48 160 R 48 171 R
47 180 R 48 190 R 47 200 R 48 211 R 48 222 R 47 234 R 39 202 R D 2653 1408 M
39 310 R 43 339 R 43 327 R 43 316 R 43 304 R 42 294 R 43 283 R 43 272 R
43 262 R 43 252 R 43 242 R 43 232 R 43 223 R 43 214 R 42 204 R 43 195 R
43 187 R 43 178 R 43 170 R 43 162 R 43 154 R 43 146 R 43 138 R 43 131 R
42 124 R 43 118 R 43 110 R 43 104 R 43 97 R 43 92 R 43 85 R 43 80 R 43 74 R
42 69 R 43 64 R 43 59 R 43 54 R 43 49 R 43 46 R 43 41 R 43 37 R 43 33 R
43 30 R 42 27 R 43 23 R 43 20 R 43 18 R 43 15 R 43 13 R 43 10 R 43 9 R
43 7 R 42 5 R 43 4 R 43 3 R 43 2 R 43 1 R 43 1 R 43 0 R 43 0 R 43 0 R 43 0 R
42 1 R 43 1 R 43 2 R 43 3 R 43 5 R 43 6 R 43 7 R 43 9 R 43 12 R 42 13 R
43 16 R 43 19 R 43 21 R 43 24 R 43 28 R 43 31 R 43 35 R 43 38 R 43 42 R
42 47 R 43 51 R 43 55 R 43 61 R 43 65 R 43 71 R 43 76 R 43 81 R 43 88 R
42 93 R 43 100 R 43 105 R 43 113 R 43 119 R 43 126 R 43 134 R 43 141 R
43 148 R 43 156 R 42 164 R 43 172 R 43 181 R 43 189 R 43 198 R 43 207 R
43 216 R 11 59 R D 2636 1408 M 4 27 R 38 309 R 38 300 R 38 291 R 38 282 R
38 273 R 38 265 R 38 256 R 39 248 R 38 239 R 38 232 R 38 223 R 38 216 R
38 208 R 38 200 R 38 193 R 39 186 R 38 179 R 38 172 R 38 165 R 38 158 R
38 151 R 38 146 R 38 138 R 39 133 R 38 127 R 38 121 R 38 115 R 38 110 R
38 104 R 38 98 R 38 94 R 39 89 R 38 83 R 38 79 R 38 75 R 38 70 R 38 65 R
38 61 R 39 58 R 38 53 R 38 50 R 38 46 R 38 42 R 38 39 R 38 36 R 38 33 R
39 30 R 38 27 R 38 24 R 38 22 R 38 19 R 38 17 R 38 15 R 38 13 R 39 12 R
38 9 R 38 8 R 38 7 R 38 5 R 38 4 R 38 3 R 38 2 R 39 2 R 38 1 R 38 0 R 38 1 R
38 0 R 38 0 R 38 0 R 39 0 R 38 1 R 38 1 R 38 2 R 38 3 R 38 4 R 38 4 R 38 6 R
39 8 R 38 9 R 38 10 R 38 12 R 38 15 R 38 16 R 38 18 R 38 21 R 39 23 R
38 26 R 38 29 R 38 31 R 38 35 R 38 37 R 38 41 R 38 45 R 39 48 R 38 51 R
38 56 R 38 60 R 38 63 R 38 68 R 38 73 R 38 77 R 39 81 R 38 87 R 38 91 R
38 97 R 38 102 R 38 107 R 38 113 R 39 118 R 38 124 R 38 130 R 38 137 R
38 142 R 38 149 R 38 155 R 38 162 R 39 169 R 38 175 R 38 183 R 38 190 R
23 124 R D 2633 1408 M 21 162 R 33 267 R 34 261 R 33 253 R 33 247 R 34 240 R
33 234 R 33 226 R 34 221 R 33 214 R 33 208 R 34 201 R 33 196 R 34 189 R
33 184 R 33 178 R 34 172 R 33 167 R 33 161 R 34 155 R 33 151 R 33 145 R
34 140 R 33 134 R 34 130 R 33 125 R 33 120 R 34 116 R 33 111 R 33 106 R
34 102 R 33 98 R 33 94 R 34 89 R 33 85 R 33 82 R 34 77 R 33 74 R 34 70 R
33 67 R 33 63 R 34 60 R 33 56 R 33 53 R 34 51 R 33 47 R 33 44 R 34 41 R
33 39 R 34 36 R 33 34 R 33 31 R 34 28 R 33 27 R 33 24 R 34 22 R 33 20 R
33 19 R 34 16 R 33 15 R 34 13 R 33 12 R 33 10 R 34 9 R 33 8 R 33 6 R 34 6 R
33 4 R 33 4 R 34 3 R 33 2 R 34 1 R 33 1 R 33 1 R 34 1 R 33 0 R 33 0 R 34 0 R
33 0 R 33 0 R 34 0 R 33 1 R 34 2 R 33 1 R 33 3 R 34 3 R 33 4 R 33 5 R 34 5 R
33 7 R 33 8 R 34 10 R 33 10 R 34 12 R 33 14 R 33 16 R 34 17 R 33 19 R
33 20 R 34 23 R 33 25 R 33 27 R 34 30 R 33 32 R 34 34 R 33 37 R 33 39 R
34 43 R 33 45 R 33 48 R 34 51 R 33 54 R 33 58 R 34 61 R 33 64 R 33 68 R
34 71 R 33 75 R 34 79 R 33 83 R 33 86 R 34 91 R 33 95 R 33 99 R 34 103 R
33 108 R 33 113 R 34 117 R 33 121 R 34 127 R 33 131 R 33 137 R 34 141 R
33 147 R 33 152 R 34 157 R 33 163 R 33 169 R 13 68 R D 2632 1408 M 17 137 R
29 231 R 28 225 R 29 220 R 28 215 R 29 210 R 29 205 R 28 200 R 29 195 R
28 191 R 29 185 R 29 182 R 28 176 R 29 172 R 28 168 R 29 163 R 29 159 R
28 155 R 29 150 R 28 147 R 29 142 R 29 138 R 28 134 R 29 130 R 28 127 R
29 122 R 29 119 R 28 115 R 29 111 R 28 108 R 29 104 R 29 101 R 28 97 R
29 94 R 28 91 R 29 88 R 29 84 R 28 81 R 29 79 R 28 75 R 29 72 R 28 69 R
29 67 R 29 64 R 28 61 R 29 58 R 28 56 R 29 53 R 29 51 R 28 49 R 29 46 R
28 44 R 29 41 R 29 40 R 28 37 R 29 35 R 28 33 R 29 32 R 29 29 R 28 28 R
29 25 R 28 24 R 29 23 R 29 21 R 28 19 R 29 18 R 28 16 R 29 15 R 29 14 R
28 13 R 29 11 R 28 10 R 29 9 R 29 8 R 28 8 R 29 6 R 28 5 R 29 5 R 29 4 R
28 3 R 29 3 R 28 2 R 29 2 R 29 1 R 28 1 R 29 1 R 28 0 R 29 1 R 29 0 R 28 0 R
29 0 R 28 0 R 29 0 R 29 0 R 28 1 R 29 1 R 28 1 R 29 1 R 28 2 R 29 3 R 29 3 R
28 4 R 29 4 R 28 5 R 29 7 R 29 6 R 28 8 R 29 9 R 28 10 R 29 11 R 29 12 R
28 13 R 29 15 R 28 16 R 29 17 R 29 19 R 28 20 R 29 22 R 28 23 R 29 26 R
29 26 R 28 29 R 29 31 R 28 32 R 29 35 R 29 36 R 28 39 R 29 41 R 28 43 R
29 45 R 29 48 R 28 50 R 29 52 R 28 55 R 29 57 R 29 61 R 28 62 R 29 66 R
28 68 R 29 72 R 29 74 R 28 77 R 29 80 R 28 83 R 29 87 R 29 89 R 28 93 R
29 96 R 28 100 R 29 103 R 29 106 R 28 111 R 29 113 R 28 118 R 29 121 R
28 125 R 29 128 R 29 133 R 28 137 R 29 140 R 28 145 R 12 63 R D 2631 1408 M
18 139 R 24 192 R 24 189 R 24 185 R 23 182 R 24 178 R 24 174 R 24 171 R
24 168 R 24 164 R 23 161 R 24 158 R 24 155 R 24 151 R 24 148 R 23 145 R
24 142 R 24 139 R 24 136 R 24 132 R 24 130 R 23 127 R 24 124 R 24 121 R
24 118 R 24 115 R 24 113 R 23 110 R 24 107 R 24 104 R 24 102 R 24 99 R
24 97 R 23 94 R 24 91 R 24 89 R 24 87 R 24 84 R 24 82 R 23 80 R 24 77 R
24 75 R 24 72 R 24 71 R 24 68 R 23 66 R 24 64 R 24 62 R 24 60 R 24 58 R
24 57 R 23 54 R 24 52 R 24 50 R 24 49 R 24 46 R 24 45 R 23 44 R 24 41 R
24 40 R 24 38 R 24 37 R 24 35 R 23 33 R 24 33 R 24 30 R 24 29 R 24 28 R
24 27 R 23 25 R 24 24 R 24 22 R 24 21 R 24 21 R 23 19 R 24 18 R 24 16 R
24 16 R 24 15 R 24 14 R 23 12 R 24 12 R 24 11 R 24 11 R 24 9 R 24 9 R 23 7 R
24 8 R 24 6 R 24 6 R 24 5 R 24 5 R 23 4 R 24 3 R 24 3 R 24 3 R 24 2 R 24 2 R
23 2 R 24 1 R 24 1 R 24 1 R 24 0 R 24 0 R 23 1 R 24 0 R 24 0 R 24 0 R 24 0 R
24 0 R 23 0 R 24 0 R 24 0 R 24 1 R 24 1 R 24 1 R 23 1 R 24 1 R 24 2 R 24 2 R
24 3 R 24 3 R 23 4 R 24 4 R 24 4 R 24 6 R 24 5 R 23 7 R 24 7 R 24 8 R 24 8 R
24 10 R 24 10 R 23 11 R 24 12 R 24 13 R 24 13 R 24 15 R 24 16 R 23 17 R
24 18 R 24 19 R 24 20 R 24 21 R 24 23 R 23 23 R 24 26 R 24 26 R 24 28 R
24 29 R 24 31 R 23 32 R 24 33 R 24 35 R 24 37 R 24 38 R 24 40 R 23 41 R
24 44 R 24 44 R 24 47 R 24 49 R 24 50 R 23 52 R 24 54 R 24 56 R 24 58 R
24 60 R 24 62 R 23 64 R 24 66 R 24 69 R 24 70 R 24 73 R 24 75 R 23 77 R
24 79 R 24 82 R 24 84 R 24 87 R 24 89 R 23 91 R 24 94 R 24 97 R 24 99 R
24 102 R 23 104 R 24 107 R 24 110 R 24 113 R 24 115 R 24 118 R 23 121 R
12 62 R D 2632 1408 M 8 63 R 19 155 R 19 153 R 19 150 R 19 149 R 19 146 R
19 143 R 19 142 R 19 139 R 19 138 R 19 135 R 19 132 R 19 131 R 19 129 R
19 126 R 19 124 R 20 123 R 19 120 R 19 118 R 19 117 R 19 114 R 19 112 R
19 110 R 19 109 R 19 106 R 19 104 R 19 103 R 19 101 R 19 99 R 19 97 R
19 95 R 19 93 R 20 92 R 19 90 R 19 88 R 19 86 R 19 84 R 19 83 R 19 82 R
19 79 R 19 78 R 19 76 R 19 75 R 19 73 R 19 71 R 19 70 R 19 68 R 20 67 R
19 66 R 19 63 R 19 63 R 19 60 R 19 60 R 19 58 R 19 56 R 19 56 R 19 53 R
19 53 R 19 51 R 19 50 R 19 48 R 19 47 R 19 46 R 20 45 R 19 43 R 19 42 R
19 41 R 19 40 R 19 39 R 19 37 R 19 37 R 19 35 R 19 34 R 19 33 R 19 32 R
19 31 R 19 30 R 19 29 R 20 28 R 19 27 R 19 26 R 19 25 R 19 24 R 19 23 R
19 23 R 19 21 R 19 21 R 19 20 R 19 19 R 19 18 R 19 17 R 19 17 R 19 16 R
19 15 R 20 14 R 19 14 R 19 13 R 19 12 R 19 12 R 19 11 R 19 11 R 19 9 R
19 10 R 19 8 R 19 9 R 19 7 R 19 8 R 19 6 R 19 6 R 20 6 R 19 5 R 19 5 R
19 5 R 19 4 R 19 4 R 19 3 R 19 3 R 19 3 R 19 2 R 19 2 R 19 2 R 19 2 R 19 1 R
19 2 R 19 1 R 20 0 R 19 1 R 19 1 R 19 0 R 19 0 R 19 1 R 19 0 R 19 0 R 19 0 R
19 0 R 19 0 R 19 0 R 19 0 R 19 0 R 19 0 R 20 0 R 19 1 R 19 0 R 19 1 R 19 0 R
19 1 R 19 1 R 19 2 R 19 1 R 19 2 R 19 2 R 19 2 R 19 3 R 19 3 R 19 3 R 19 4 R
20 3 R 19 5 R 19 4 R 19 6 R 19 5 R 19 6 R 19 7 R 19 6 R 19 8 R 19 8 R 19 8 R
19 9 R 19 10 R 19 10 R 19 11 R 20 11 R 19 12 R 19 13 R 19 13 R 19 14 R
19 15 R 19 16 R 19 16 R 19 17 R 19 18 R 19 18 R 19 19 R 19 21 R 19 21 R
19 22 R 19 22 R 20 24 R 19 25 R 19 25 R 19 27 R 19 27 R 19 29 R 19 29 R
19 30 R 19 32 R 19 32 R 19 34 R 19 35 R 19 36 R 19 36 R 19 39 R 19 39 R
20 40 R 19 42 R 19 43 R 19 44 R 19 45 R 19 46 R 19 48 R 19 49 R 19 51 R
19 52 R 19 53 R 19 54 R 19 56 R 19 57 R 19 59 R 20 60 R 19 62 R 19 63 R
19 64 R 19 66 R 19 68 R 19 69 R 19 70 R 19 73 R 19 73 R 19 76 R 19 77 R
19 79 R 19 80 R 19 82 R 19 84 R 20 85 R 19 87 R 19 89 R 19 91 R 19 92 R
19 95 R 19 96 R 19 98 R 2 12 R D
%%PageTrailer
end
restore
showpage
%%PageResources: font Helvetica
%%Trailer
restore
%%Pages: 1
%%DocumentNeededResources: font Helvetica
%%EOF
