%!PS-Adobe-3.0
%%BoundingBox: 54 360 558 720
%%Title: Graphics produced by IDL
%%For: daxia@JiangHu, /home/daxia/work/subhalo_model
%%Creator: IDL Version 6.0 (linux x86 m32)
%%CreationDate: Thu Aug 21 11:39:03 2008
%%DocumentData: Clean7bit
%%Requirements: color
%%LanguageLevel: 1
%%PageOrder: Ascend
%%Pages: (atend)
%%DocumentNeededResources: (atend)
%%EndComments
%%BeginProlog
save
%+ prolog.ps -- Prolog for IDL generated PostScript files
%+ Copyright (c) 1988-2003 Research Systems, Inc. All Rights Reserved.
%v 4
/$IDL_DICT 40 dict def $IDL_DICT begin /bdef { bind def } bind def /C
{currentpoint newpath moveto} bdef /CP {currentpoint} bdef /D {currentpoint
stroke moveto} bdef /F {closepath fill} bdef /K { setgray } bdef /M {moveto}
bdef /N {rmoveto} bdef /P {lineto} bdef /R {rlineto} bdef /S {gsave show
grestore} bdef /X {currentpoint pop} bdef /Z {gsave currentpoint lineto 20
setlinewidth 1 setlinecap stroke grestore} bdef /L0 {[] 0 setdash} bdef /L1
{[40 100] 0 setdash} bdef /L2 {[200 200] 0 setdash} bdef /L3 {[200 100 50
100] 0 setdash} bdef /L4 {[300 100 50 100 50 100 50 100] 0 setdash} bdef /L5
{[400 200] 0 setdash} bdef /STDFONT { findfont exch scalefont setfont } bdef
/ISOFONT { findfont dup length dict begin { 1 index /FID ne {def} {pop pop}
ifelse } forall /Encoding ISOLatin1Encoding def currentdict end /idltmpfont
exch definefont exch scalefont setfont } bdef /ISOBULLET { gsave /Helvetica
findfont exch scalefont setfont (\267) show currentpoint grestore moveto}
bdef end 2.5 setmiterlimit
%%EndProlog
%%Page: 0 1
%%PageRequirements: color
%%PageResources: (atend)
%%PageOrientation: Portrait
%%PageBoundingBox: 54 360 558 720
%%BeginPageSetup
save
$IDL_DICT begin 54 360 translate 0.0283465 dup scale
%%IncludeResource: font Helvetica
423.333 /Helvetica STDFONT
%%EndPageSetup
10 setlinewidth L0 0.000 0.000 0.000 setrgbcolor 2220 1408 M 14894 0 R D
2816 1408 M 0 212 R D 2582 985 M 210 0 R D 2886 1067 M 0 12 R 12 23 R
11 12 R 24 11 R 46 0 R 24 -11 R 11 -12 R 12 -23 R 0 -24 R -12 -23 R
-23 -35 R -117 -117 R 164 0 R D 5199 1408 M 0 212 R D 5176 1125 M -36 -11 R
-23 -35 R -12 -59 R 0 -35 R 12 -58 R 23 -35 R 36 -12 R 23 0 R 35 12 R
23 35 R 12 58 R 0 35 R -12 59 R -23 35 R -35 11 R -23 0 R D 7582 1408 M
0 212 R D 7500 1067 M 0 12 R 12 23 R 12 12 R 23 11 R 47 0 R 23 -11 R
12 -12 R 11 -23 R 0 -24 R -11 -23 R -24 -35 R -117 -117 R 164 0 R D
9965 1408 M 0 212 R D 9988 1125 M -117 -163 R 176 0 R D 9988 1125 M 0 -245 R
D 12348 1408 M 0 212 R D 12406 1090 M -11 24 R -35 11 R -24 0 R -35 -11 R
-23 -35 R -12 -59 R 0 -58 R 12 -47 R 23 -23 R 35 -12 R 12 0 R 35 12 R
23 23 R 12 35 R 0 12 R -12 35 R -23 23 R -35 12 R -12 0 R -35 -12 R
-23 -23 R -12 -35 R D 14731 1408 M 0 212 R D 14696 1125 M -35 -11 R
-12 -24 R 0 -23 R 12 -23 R 23 -12 R 47 -12 R 35 -11 R 23 -24 R 12 -23 R
0 -35 R -12 -24 R -11 -11 R -35 -12 R -47 0 R -35 12 R -12 11 R -11 24 R
0 35 R 11 23 R 24 24 R 35 11 R 46 12 R 24 12 R 11 23 R 0 23 R -11 24 R
-35 11 R -47 0 R D 17114 1408 M 0 212 R D 16939 1079 M 23 11 R 35 35 R
0 -245 R D 17208 1125 M -35 -11 R -24 -35 R -12 -59 R 0 -35 R 12 -58 R
24 -35 R 35 -12 R 23 0 R 35 12 R 23 35 R 12 58 R 0 35 R -12 59 R -23 35 R
-35 11 R -23 0 R D 2220 1408 M 0 106 R D 3412 1408 M 0 106 R D 4007 1408 M
0 106 R D 4603 1408 M 0 106 R D 5795 1408 M 0 106 R D 6390 1408 M 0 106 R D
6986 1408 M 0 106 R D 8178 1408 M 0 106 R D 8773 1408 M 0 106 R D
9369 1408 M 0 106 R D 10561 1408 M 0 106 R D 11156 1408 M 0 106 R D
11752 1408 M 0 106 R D 12944 1408 M 0 106 R D 13540 1408 M 0 106 R D
14135 1408 M 0 106 R D 15327 1408 M 0 106 R D 15923 1408 M 0 106 R D
16518 1408 M 0 106 R D 2220 11996 M 14894 0 R D 2816 11996 M 0 -212 R D
5199 11996 M 0 -212 R D 7582 11996 M 0 -212 R D 9965 11996 M 0 -212 R D
12348 11996 M 0 -212 R D 14731 11996 M 0 -212 R D 17114 11996 M 0 -212 R D
2220 11996 M 0 -106 R D 3412 11996 M 0 -106 R D 4007 11996 M 0 -106 R D
4603 11996 M 0 -106 R D 5795 11996 M 0 -106 R D 6390 11996 M 0 -106 R D
6986 11996 M 0 -106 R D 8178 11996 M 0 -106 R D 8773 11996 M 0 -106 R D
9369 11996 M 0 -106 R D 10561 11996 M 0 -106 R D 11156 11996 M 0 -106 R D
11752 11996 M 0 -106 R D 12944 11996 M 0 -106 R D 13540 11996 M 0 -106 R D
14135 11996 M 0 -106 R D 15327 11996 M 0 -106 R D 15923 11996 M 0 -106 R D
16518 11996 M 0 -106 R D 2220 1408 M 0 10588 R D 2220 1408 M 298 0 R D
1373 1513 M 210 0 R D 1700 1607 M 24 11 R 35 35 R 0 -245 R D 1969 1653 M
-35 -11 R -24 -35 R -11 -59 R 0 -35 R 11 -58 R 24 -35 R 35 -12 R 23 0 R
35 12 R 24 35 R 11 58 R 0 35 R -11 59 R -24 35 R -35 11 R -23 0 R D
2220 2820 M 298 0 R D 1607 2784 M 210 0 R D 1957 2924 M -35 -11 R -12 -24 R
0 -23 R 12 -23 R 24 -12 R 46 -12 R 35 -11 R 24 -24 R 11 -23 R 0 -35 R
-11 -24 R -12 -11 R -35 -12 R -47 0 R -35 12 R -12 11 R -11 24 R 0 35 R
11 23 R 24 24 R 35 11 R 47 12 R 23 12 R 12 23 R 0 23 R -12 24 R -35 11 R
-47 0 R D 2220 4232 M 298 0 R D 1607 4196 M 210 0 R D 2051 4301 M -12 23 R
-35 12 R -23 0 R -35 -12 R -24 -35 R -12 -58 R 0 -58 R 12 -47 R 24 -24 R
35 -11 R 11 0 R 35 11 R 24 24 R 11 35 R 0 12 R -11 35 R -24 23 R -35 12 R
-11 0 R -35 -12 R -24 -23 R -12 -35 R D 2220 5643 M 298 0 R D 1607 5608 M
210 0 R D 2016 5748 M -117 -164 R 175 0 R D 2016 5748 M 0 -246 R D
2220 7055 M 298 0 R D 1607 7019 M 210 0 R D 1910 7101 M 0 12 R 12 23 R
12 12 R 23 12 R 47 0 R 23 -12 R 12 -12 R 12 -23 R 0 -24 R -12 -23 R
-23 -35 R -117 -117 R 163 0 R D 2220 8467 M 298 0 R D 1969 8571 M -35 -11 R
-24 -35 R -11 -59 R 0 -35 R 11 -58 R 24 -35 R 35 -12 R 23 0 R 35 12 R
24 35 R 11 58 R 0 35 R -11 59 R -24 35 R -35 11 R -23 0 R D 2220 9878 M
298 0 R D 1910 9925 M 0 11 R 12 24 R 12 11 R 23 12 R 47 0 R 23 -12 R
12 -11 R 12 -24 R 0 -23 R -12 -23 R -23 -35 R -117 -117 R 163 0 R D
2220 11290 M 298 0 R D 2016 11395 M -117 -164 R 175 0 R D 2016 11395 M
0 -246 R D 2220 1761 M 149 0 R D 2220 2114 M 149 0 R D 2220 2467 M 149 0 R D
2220 3173 M 149 0 R D 2220 3526 M 149 0 R D 2220 3879 M 149 0 R D
2220 4584 M 149 0 R D 2220 4937 M 149 0 R D 2220 5290 M 149 0 R D
2220 5996 M 149 0 R D 2220 6349 M 149 0 R D 2220 6702 M 149 0 R D
2220 7408 M 149 0 R D 2220 7761 M 149 0 R D 2220 8114 M 149 0 R D
2220 8820 M 149 0 R D 2220 9173 M 149 0 R D 2220 9526 M 149 0 R D
2220 10231 M 149 0 R D 2220 10584 M 149 0 R D 2220 10937 M 149 0 R D
2220 11643 M 149 0 R D 2220 11996 M 149 0 R D 17114 1408 M 0 10588 R D
17114 1408 M -298 0 R D 17114 2820 M -298 0 R D 17114 4232 M -298 0 R D
17114 5643 M -298 0 R D 17114 7055 M -298 0 R D 17114 8467 M -298 0 R D
17114 9878 M -298 0 R D 17114 11290 M -298 0 R D 17114 1761 M -149 0 R D
17114 2114 M -149 0 R D 17114 2467 M -149 0 R D 17114 3173 M -149 0 R D
17114 3526 M -149 0 R D 17114 3879 M -149 0 R D 17114 4584 M -149 0 R D
17114 4937 M -149 0 R D 17114 5290 M -149 0 R D 17114 5996 M -149 0 R D
17114 6349 M -149 0 R D 17114 6702 M -149 0 R D 17114 7408 M -149 0 R D
17114 7761 M -149 0 R D 17114 8114 M -149 0 R D 17114 8820 M -149 0 R D
17114 9173 M -149 0 R D 17114 9526 M -149 0 R D 17114 10231 M -149 0 R D
17114 10584 M -149 0 R D 17114 10937 M -149 0 R D 17114 11643 M -149 0 R D
17114 11996 M -149 0 R D L2 2220 8467 M 596 0 R 1191 0 R 1192 0 R 1191 0 R
1192 0 R 1191 0 R 1192 0 R 1191 0 R 1192 0 R 1192 0 R 1191 0 R 1192 0 R
1191 0 R D L0 5207 1408 M 16 2800 R 3 -2800 R D
0.149 0.000 0.000 setrgbcolor 5137 1408 M 19 4280 R 67 1927 R 36 -6207 R D
0.298 0.000 0.000 setrgbcolor 5107 1408 M 25 3689 R 62 3353 R 62 -2428 R
35 -4614 R D 0.447 0.000 0.000 setrgbcolor 4986 1408 M 37 2296 R 57 2601 R
57 1581 R 57 577 R 57 -407 R 58 -1375 R 57 -2326 R 51 -2947 R D
0.596 0.000 0.000 setrgbcolor 4897 1408 M 49 2129 R 53 1852 R 52 1410 R
53 978 R 52 551 R 52 132 R 53 -280 R 52 -685 R 53 -1083 R 52 -1475 R
53 -1859 R 38 -1670 R D 0.745 0.000 0.000 setrgbcolor 4542 1408 M 13 290 R
48 1002 R 48 916 R 47 832 R 48 749 R 48 669 R 47 588 R 48 510 R 48 434 R
47 358 R 48 283 R 48 211 R 47 139 R 48 69 R 48 0 R 47 -67 R 48 -134 R
48 -200 R 47 -263 R 48 -326 R 48 -387 R 47 -448 R 48 -507 R 48 -565 R
47 -623 R 48 -678 R 48 -732 R 47 -787 R 48 -838 R 26 -495 R D
0.894 0.000 0.000 setrgbcolor 4295 1408 M 27 436 R 43 671 R 43 632 R
43 592 R 43 554 R 42 516 R 43 480 R 43 443 R 43 407 R 43 372 R 43 338 R
43 303 R 43 271 R 43 238 R 42 206 R 43 174 R 43 144 R 43 114 R 43 84 R
43 55 R 43 26 R 43 -2 R 43 -28 R 43 -56 R 42 -82 R 43 -108 R 43 -132 R
43 -158 R 43 -181 R 43 -205 R 43 -228 R 43 -251 R 43 -273 R 42 -294 R
43 -315 R 43 -336 R 43 -355 R 43 -376 R 43 -394 R 43 -413 R 43 -431 R
43 -448 R 43 -466 R 42 -482 R 43 -499 R 43 -514 R 2 -29 R D 13937 1408 M
36 1712 R 43 2130 R 43 2170 R 43 2208 R 43 2248 R 2 120 R D
0.953 0.090 0.000 setrgbcolor 3519 1408 M 36 344 R 38 369 R 38 356 R
38 344 R 38 330 R 38 318 R 38 306 R 38 294 R 39 282 R 38 270 R 38 260 R
38 248 R 38 237 R 38 227 R 38 216 R 39 206 R 38 195 R 38 187 R 38 176 R
38 167 R 38 158 R 38 149 R 38 140 R 39 132 R 38 123 R 38 115 R 38 107 R
38 100 R 38 92 R 38 84 R 38 78 R 39 70 R 38 64 R 38 58 R 38 50 R 38 45 R
38 39 R 38 33 R 38 28 R 39 22 R 38 17 R 38 13 R 38 7 R 38 3 R 38 -2 R
38 -6 R 39 -10 R 38 -13 R 38 -18 R 38 -20 R 38 -24 R 38 -27 R 38 -30 R
38 -33 R 39 -35 R 38 -38 R 38 -40 R 38 -42 R 38 -43 R 38 -45 R 38 -47 R
38 -48 R 39 -49 R 38 -49 R 38 -51 R 38 -51 R 38 -51 R 38 -52 R 38 -52 R
38 -51 R 39 -51 R 38 -51 R 38 -50 R 38 -49 R 38 -48 R 38 -46 R 38 -46 R
38 -44 R 39 -42 R 38 -40 R 38 -38 R 38 -36 R 38 -33 R 38 -31 R 38 -28 R
39 -25 R 38 -22 R 38 -19 R 38 -16 R 38 -11 R 38 -8 R 38 -4 R 38 0 R 39 4 R
38 9 R 38 13 R 38 18 R 38 23 R 38 29 R 38 33 R 38 39 R 39 44 R 38 51 R
38 56 R 38 62 R 38 68 R 38 75 R 38 82 R 38 88 R 39 95 R 38 102 R 38 110 R
38 116 R 38 125 R 38 132 R 38 140 R 39 148 R 38 156 R 38 164 R 38 173 R
38 182 R 38 190 R 38 200 R 38 208 R 39 218 R 38 227 R 38 237 R 38 247 R
38 257 R 38 266 R 38 277 R 38 288 R 31 242 R D 0.788 0.247 0.000 setrgbcolor
3202 1408 M 19 174 R 33 297 R 34 288 R 33 280 R 33 272 R 34 263 R 33 256 R
34 247 R 33 240 R 33 232 R 34 225 R 33 217 R 33 210 R 34 203 R 33 195 R
33 189 R 34 182 R 33 176 R 33 169 R 34 162 R 33 156 R 34 150 R 33 144 R
33 138 R 34 132 R 33 126 R 33 121 R 34 115 R 33 110 R 33 105 R 34 100 R
33 94 R 34 90 R 33 85 R 33 81 R 34 75 R 33 72 R 33 67 R 34 63 R 33 59 R
33 55 R 34 51 R 33 47 R 34 44 R 33 40 R 33 37 R 34 34 R 33 30 R 33 28 R
34 24 R 33 22 R 33 19 R 34 16 R 33 14 R 34 12 R 33 9 R 33 7 R 34 5 R 33 3 R
33 2 R 34 -1 R 33 -2 R 33 -3 R 34 -5 R 33 -6 R 34 -7 R 33 -8 R 33 -10 R
34 -10 R 33 -10 R 33 -12 R 34 -12 R 33 -12 R 33 -13 R 34 -12 R 33 -13 R
34 -13 R 33 -13 R 33 -12 R 34 -12 R 33 -12 R 33 -11 R 34 -10 R 33 -10 R
33 -8 R 34 -8 R 33 -6 R 34 -6 R 33 -4 R 33 -3 R 34 -1 R 33 1 R 33 2 R 34 4 R
33 6 R 33 8 R 34 10 R 33 13 R 33 15 R 34 17 R 33 20 R 34 22 R 33 26 R
33 28 R 34 31 R 33 34 R 33 38 R 34 40 R 33 44 R 33 48 R 34 51 R 33 55 R
34 59 R 33 63 R 33 66 R 34 71 R 33 75 R 33 79 R 34 84 R 33 88 R 33 93 R
34 98 R 33 102 R 34 108 R 33 112 R 33 117 R 34 123 R 33 128 R 33 134 R
34 139 R 33 145 R 33 150 R 34 156 R 33 163 R 34 168 R 33 174 R 33 181 R
34 187 R 33 194 R 3 24 R D 0.624 0.404 0.000 setrgbcolor 2779 1408 M
13 100 R 29 236 R 28 230 R 29 225 R 28 220 R 29 215 R 29 209 R 28 204 R
29 200 R 28 194 R 29 190 R 29 184 R 28 180 R 29 175 R 28 171 R 29 166 R
29 161 R 28 157 R 29 153 R 28 148 R 29 144 R 29 140 R 28 135 R 29 132 R
28 128 R 29 123 R 29 120 R 28 116 R 29 112 R 28 109 R 29 104 R 29 102 R
28 97 R 29 95 R 28 91 R 29 87 R 28 85 R 29 81 R 29 78 R 28 75 R 29 71 R
28 69 R 29 67 R 29 63 R 28 60 R 29 58 R 28 55 R 29 53 R 29 50 R 28 47 R
29 45 R 28 43 R 29 41 R 29 38 R 28 36 R 29 34 R 28 33 R 29 30 R 29 28 R
28 26 R 29 25 R 28 23 R 29 21 R 29 20 R 28 18 R 29 16 R 28 15 R 29 14 R
29 13 R 28 11 R 29 10 R 28 9 R 29 8 R 29 7 R 28 6 R 29 6 R 28 4 R 29 4 R
29 3 R 28 2 R 29 2 R 28 1 R 29 1 R 29 1 R 28 0 R 29 0 R 28 -1 R 29 0 R
29 -1 R 28 0 R 29 0 R 28 -1 R 29 0 R 28 0 R 29 0 R 29 1 R 28 1 R 29 2 R
28 2 R 29 3 R 29 3 R 28 4 R 29 5 R 28 6 R 29 6 R 29 8 R 28 8 R 29 10 R
28 11 R 29 12 R 29 13 R 28 14 R 29 16 R 28 17 R 29 19 R 29 21 R 28 22 R
29 23 R 28 26 R 29 27 R 29 29 R 28 31 R 29 33 R 28 35 R 29 37 R 29 39 R
28 42 R 29 44 R 28 46 R 29 48 R 29 51 R 28 53 R 29 57 R 28 58 R 29 62 R
29 64 R 28 67 R 29 69 R 28 73 R 29 76 R 29 79 R 28 82 R 29 85 R 28 88 R
29 92 R 29 95 R 28 98 R 29 102 R 28 105 R 29 109 R 28 113 R 29 117 R
29 120 R 28 124 R 29 128 R 28 131 R 29 136 R 29 140 R 28 144 R 29 148 R
0 2 R D 0.463 0.561 0.000 setrgbcolor 2709 1408 M 12 97 R 23 195 R 24 191 R
24 187 R 24 184 R 24 181 R 24 177 R 23 173 R 24 170 R 24 166 R 24 164 R
24 159 R 23 157 R 24 153 R 24 150 R 24 146 R 24 144 R 24 140 R 23 137 R
24 134 R 24 131 R 24 128 R 24 125 R 24 122 R 23 120 R 24 116 R 24 114 R
24 110 R 24 108 R 24 106 R 23 102 R 24 100 R 24 97 R 24 95 R 24 92 R 24 90 R
23 87 R 24 84 R 24 83 R 24 80 R 24 77 R 24 75 R 23 73 R 24 71 R 24 69 R
24 66 R 24 64 R 24 62 R 23 61 R 24 58 R 24 56 R 24 54 R 24 52 R 24 50 R
23 49 R 24 46 R 24 45 R 24 43 R 24 42 R 24 39 R 23 38 R 24 37 R 24 35 R
24 33 R 24 32 R 24 30 R 23 29 R 24 28 R 24 26 R 24 25 R 24 23 R 23 22 R
24 21 R 24 20 R 24 19 R 24 17 R 24 17 R 23 15 R 24 15 R 24 13 R 24 13 R
24 11 R 24 11 R 23 10 R 24 9 R 24 8 R 24 7 R 24 7 R 24 6 R 23 6 R 24 5 R
24 4 R 24 4 R 24 3 R 24 3 R 23 2 R 24 2 R 24 2 R 24 1 R 24 1 R 24 1 R 23 0 R
24 1 R 24 0 R 24 0 R 24 0 R 24 0 R 23 0 R 24 -1 R 24 0 R 24 0 R 24 1 R
24 0 R 23 0 R 24 1 R 24 1 R 24 2 R 24 1 R 24 2 R 23 3 R 24 2 R 24 4 R 24 3 R
24 5 R 23 5 R 24 5 R 24 6 R 24 7 R 24 8 R 24 8 R 23 9 R 24 10 R 24 10 R
24 12 R 24 12 R 24 14 R 23 14 R 24 16 R 24 16 R 24 18 R 24 18 R 24 20 R
23 21 R 24 22 R 24 24 R 24 25 R 24 26 R 24 27 R 23 29 R 24 31 R 24 31 R
24 34 R 24 34 R 24 37 R 23 38 R 24 39 R 24 41 R 24 43 R 24 45 R 24 47 R
23 48 R 24 50 R 24 52 R 24 54 R 24 56 R 24 58 R 23 59 R 24 62 R 24 64 R
24 66 R 24 69 R 24 70 R 23 73 R 24 74 R 24 78 R 24 79 R 24 82 R 24 84 R
23 87 R 24 89 R 24 91 R 24 95 R 24 96 R 23 100 R 24 101 R 24 105 R 24 107 R
24 110 R 24 113 R 23 115 R 24 119 R 24 121 R 14 76 R D
0.298 0.718 0.000 setrgbcolor 2648 1408 M 11 89 R 19 155 R 19 153 R 19 150 R
19 149 R 19 146 R 19 143 R 19 142 R 19 139 R 19 137 R 19 135 R 19 132 R
19 131 R 19 128 R 19 127 R 20 124 R 19 122 R 19 120 R 19 118 R 19 116 R
19 114 R 19 112 R 19 110 R 19 108 R 19 107 R 19 104 R 19 102 R 19 101 R
19 98 R 19 97 R 19 95 R 20 93 R 19 91 R 19 90 R 19 88 R 19 86 R 19 84 R
19 83 R 19 81 R 19 79 R 19 78 R 19 76 R 19 74 R 19 73 R 19 71 R 19 69 R
20 69 R 19 66 R 19 65 R 19 64 R 19 62 R 19 60 R 19 59 R 19 58 R 19 56 R
19 55 R 19 54 R 19 52 R 19 51 R 19 49 R 19 48 R 19 47 R 20 46 R 19 44 R
19 43 R 19 42 R 19 41 R 19 40 R 19 38 R 19 37 R 19 36 R 19 35 R 19 34 R
19 33 R 19 32 R 19 30 R 19 30 R 20 29 R 19 27 R 19 27 R 19 26 R 19 25 R
19 24 R 19 23 R 19 22 R 19 21 R 19 20 R 19 20 R 19 19 R 19 18 R 19 17 R
19 16 R 19 16 R 20 15 R 19 14 R 19 13 R 19 13 R 19 12 R 19 12 R 19 11 R
19 10 R 19 10 R 19 9 R 19 8 R 19 8 R 19 8 R 19 7 R 19 6 R 20 7 R 19 5 R
19 5 R 19 5 R 19 4 R 19 4 R 19 4 R 19 3 R 19 3 R 19 3 R 19 2 R 19 2 R 19 2 R
19 2 R 19 1 R 19 1 R 20 1 R 19 1 R 19 0 R 19 1 R 19 0 R 19 0 R 19 1 R 19 0 R
19 0 R 19 0 R 19 0 R 19 0 R 19 0 R 19 0 R 19 0 R 20 0 R 19 0 R 19 1 R 19 0 R
19 1 R 19 1 R 19 1 R 19 1 R 19 1 R 19 2 R 19 2 R 19 2 R 19 2 R 19 3 R 19 3 R
19 3 R 20 4 R 19 4 R 19 5 R 19 4 R 19 6 R 19 5 R 19 7 R 19 6 R 19 7 R 19 8 R
19 8 R 19 9 R 19 9 R 19 10 R 19 10 R 20 11 R 19 12 R 19 12 R 19 13 R 19 14 R
19 14 R 19 15 R 19 16 R 19 17 R 19 17 R 19 18 R 19 19 R 19 20 R 19 20 R
19 22 R 19 22 R 20 23 R 19 24 R 19 25 R 19 26 R 19 27 R 19 28 R 19 29 R
19 30 R 19 31 R 19 32 R 19 33 R 19 34 R 19 35 R 19 37 R 19 37 R 19 39 R
20 40 R 19 40 R 19 43 R 19 43 R 19 45 R 19 46 R 19 47 R 19 48 R 19 50 R
19 51 R 19 52 R 19 54 R 19 55 R 19 57 R 19 58 R 20 59 R 19 61 R 19 62 R
19 64 R 19 65 R 19 67 R 19 69 R 19 69 R 19 72 R 19 73 R 19 75 R 19 76 R
19 78 R 19 79 R 19 82 R 19 82 R 20 85 R 19 86 R 19 88 R 19 90 R 19 92 R
19 93 R 19 96 R 19 97 R 12 63 R D 0.133 0.875 0.000 setrgbcolor 5165 1408 M
58 4999 R 11 -4999 R D 0.000 0.969 0.059 setrgbcolor 5104 1408 M 52 5715 R
67 932 R 66 -5497 R 6 -1150 R D 0.000 0.812 0.212 setrgbcolor 5061 1408 M
9 956 R 62 4473 R 62 1621 R 62 -1174 R 62 -3917 R 18 -1959 R D
0.000 0.651 0.361 setrgbcolor 4893 1408 M 15 714 R 57 2276 R 58 1764 R
57 1259 R 57 765 R 57 279 R 57 -197 R 58 -665 R 57 -1124 R 57 -1575 R
57 -2017 R 34 -1479 R D 0.000 0.494 0.514 setrgbcolor 4769 1408 M 20 656 R
52 1562 R 53 1337 R 52 1116 R 53 897 R 52 683 R 53 474 R 52 266 R 52 64 R
53 -135 R 52 -331 R 53 -523 R 52 -712 R 53 -898 R 52 -1079 R 52 -1259 R
53 -1434 R 22 -684 R D 0.000 0.333 0.667 setrgbcolor 4282 1408 M 35 568 R
48 725 R 47 678 R 48 631 R 48 585 R 47 540 R 48 497 R 48 453 R 47 411 R
48 369 R 48 329 R 47 289 R 48 251 R 48 212 R 47 175 R 48 138 R 48 103 R
47 67 R 48 34 R 48 0 R 47 -33 R 48 -65 R 48 -95 R 47 -126 R 48 -156 R
48 -185 R 47 -214 R 48 -240 R 48 -268 R 47 -294 R 48 -319 R 48 -345 R
47 -368 R 48 -392 R 48 -415 R 47 -437 R 48 -459 R 48 -480 R 47 -500 R
48 -519 R 48 -539 R 47 -557 R 4 -49 R D 13738 1408 M 16 725 R 48 2234 R
47 2280 R 48 2327 R 48 2375 R 12 647 R D 0.000 0.176 0.816 setrgbcolor
3968 1408 M 11 134 R 43 531 R 43 505 R 42 482 R 43 457 R 43 434 R 43 412 R
43 388 R 43 367 R 43 345 R 43 324 R 43 303 R 43 282 R 42 263 R 43 243 R
43 224 R 43 206 R 43 187 R 43 170 R 43 152 R 43 135 R 43 118 R 42 102 R
43 86 R 43 71 R 43 56 R 43 41 R 43 27 R 43 12 R 43 0 R 43 -14 R 43 -27 R
42 -39 R 43 -51 R 43 -63 R 43 -74 R 43 -86 R 43 -96 R 43 -106 R 43 -116 R
43 -125 R 42 -135 R 43 -144 R 43 -152 R 43 -161 R 43 -168 R 43 -176 R
43 -183 R 43 -190 R 43 -197 R 43 -202 R 42 -209 R 43 -214 R 43 -219 R
43 -224 R 43 -229 R 43 -233 R 43 -237 R 43 -240 R 43 -244 R 42 -247 R
43 -249 R 43 -252 R 43 -254 R 43 -256 R 43 -257 R 43 -258 R 43 -260 R
43 -259 R 34 -211 R D 10150 1408 M 6 69 R 43 518 R 42 537 R 43 558 R
43 578 R 43 599 R 43 620 R 43 640 R 43 662 R 43 684 R 43 705 R 42 728 R
43 750 R 43 772 R 43 795 R 43 818 R 28 555 R D 0.000 0.020 0.969 setrgbcolor
3188 1408 M 23 208 R 39 336 R 38 325 R 38 315 R 38 304 R 38 293 R 38 283 R
38 273 R 38 263 R 39 253 R 38 244 R 38 234 R 38 225 R 38 216 R 38 208 R
38 198 R 38 190 R 39 182 R 38 174 R 38 166 R 38 158 R 38 151 R 38 143 R
38 136 R 39 129 R 38 122 R 38 115 R 38 109 R 38 103 R 38 96 R 38 91 R
38 84 R 39 79 R 38 73 R 38 69 R 38 63 R 38 58 R 38 53 R 38 48 R 38 45 R
39 39 R 38 36 R 38 32 R 38 28 R 38 24 R 38 21 R 38 18 R 38 14 R 39 12 R
38 9 R 38 6 R 38 3 R 38 2 R 38 -1 R 38 -3 R 39 -4 R 38 -7 R 38 -7 R 38 -9 R
38 -10 R 38 -12 R 38 -12 R 38 -12 R 39 -13 R 38 -14 R 38 -14 R 38 -14 R
38 -13 R 38 -14 R 38 -12 R 38 -13 R 39 -11 R 38 -11 R 38 -10 R 38 -8 R
38 -7 R 38 -5 R 38 -4 R 38 -2 R 39 1 R 38 2 R 38 5 R 38 7 R 38 10 R 38 12 R
38 16 R 38 19 R 39 22 R 38 25 R 38 29 R 38 33 R 38 36 R 38 41 R 38 45 R
39 49 R 38 54 R 38 58 R 38 63 R 38 68 R 38 73 R 38 79 R 38 84 R 39 89 R
38 95 R 38 101 R 38 107 R 38 113 R 38 120 R 38 126 R 38 133 R 39 139 R
38 147 R 38 153 R 38 161 R 38 168 R 38 175 R 38 184 R 38 191 R 39 199 R
38 207 R 38 216 R 19 116 R D 0.000 0.000 0.875 setrgbcolor 2955 1408 M
32 272 R 34 278 R 33 271 R 34 263 R 33 255 R 33 248 R 34 241 R 33 233 R
33 227 R 34 220 R 33 212 R 33 206 R 34 200 R 33 193 R 34 187 R 33 180 R
33 174 R 34 168 R 33 163 R 33 156 R 34 150 R 33 145 R 33 140 R 34 134 R
33 129 R 33 123 R 34 119 R 33 113 R 34 109 R 33 104 R 33 99 R 34 95 R
33 90 R 33 86 R 34 81 R 33 78 R 33 73 R 34 70 R 33 65 R 34 62 R 33 59 R
33 54 R 34 52 R 33 48 R 33 45 R 34 42 R 33 39 R 33 36 R 34 33 R 33 30 R
34 28 R 33 26 R 33 23 R 34 21 R 33 18 R 33 17 R 34 15 R 33 12 R 33 11 R
34 10 R 33 8 R 34 6 R 33 5 R 33 4 R 34 2 R 33 2 R 33 1 R 34 0 R 33 -1 R
33 -2 R 34 -2 R 33 -2 R 34 -3 R 33 -3 R 33 -4 R 34 -3 R 33 -3 R 33 -3 R
34 -3 R 33 -2 R 33 -2 R 34 -1 R 33 -1 R 34 0 R 33 1 R 33 2 R 34 3 R 33 4 R
33 6 R 34 7 R 33 8 R 33 10 R 34 11 R 33 14 R 34 15 R 33 17 R 33 19 R 34 22 R
33 23 R 33 26 R 34 29 R 33 31 R 33 33 R 34 37 R 33 39 R 33 42 R 34 45 R
33 49 R 34 52 R 33 55 R 33 58 R 34 62 R 33 66 R 33 69 R 34 73 R 33 77 R
33 82 R 34 85 R 33 89 R 34 94 R 33 98 R 33 103 R 34 108 R 33 112 R 33 117 R
34 122 R 33 126 R 33 132 R 34 137 R 33 143 R 34 148 R 33 153 R 33 159 R
34 165 R 33 170 R 33 176 R 7 40 R D 0.000 0.000 0.718 setrgbcolor
2706 1408 M 29 234 R 28 230 R 29 225 R 29 220 R 28 215 R 29 209 R 28 205 R
29 200 R 29 194 R 28 190 R 29 186 R 28 180 R 29 176 R 29 171 R 28 167 R
29 163 R 28 158 R 29 153 R 29 150 R 28 145 R 29 141 R 28 137 R 29 132 R
29 129 R 28 125 R 29 121 R 28 118 R 29 113 R 29 110 R 28 107 R 29 102 R
28 100 R 29 96 R 29 92 R 28 89 R 29 86 R 28 83 R 29 80 R 28 76 R 29 74 R
29 71 R 28 67 R 29 65 R 28 62 R 29 60 R 29 57 R 28 54 R 29 52 R 28 49 R
29 47 R 29 44 R 28 43 R 29 40 R 28 37 R 29 36 R 29 34 R 28 32 R 29 29 R
28 28 R 29 26 R 29 25 R 28 23 R 29 21 R 28 19 R 29 18 R 29 17 R 28 15 R
29 14 R 28 13 R 29 11 R 29 10 R 28 9 R 29 9 R 28 7 R 29 6 R 29 5 R 28 5 R
29 4 R 28 3 R 29 3 R 29 2 R 28 2 R 29 1 R 28 1 R 29 0 R 29 1 R 28 0 R 29 0 R
28 0 R 29 -1 R 29 0 R 28 0 R 29 1 R 28 0 R 29 1 R 28 1 R 29 1 R 29 2 R
28 3 R 29 3 R 28 4 R 29 4 R 29 5 R 28 6 R 29 7 R 28 8 R 29 9 R 29 10 R
28 11 R 29 12 R 28 13 R 29 15 R 29 16 R 28 18 R 29 19 R 28 20 R 29 22 R
29 24 R 28 25 R 29 28 R 28 29 R 29 31 R 29 33 R 28 35 R 29 37 R 28 39 R
29 41 R 29 44 R 28 46 R 29 48 R 28 50 R 29 54 R 29 55 R 28 59 R 29 61 R
28 63 R 29 67 R 29 69 R 28 72 R 29 75 R 28 79 R 29 81 R 29 84 R 28 88 R
29 91 R 28 94 R 29 97 R 29 101 R 28 105 R 29 108 R 28 111 R 29 116 R
28 119 R 29 123 R 29 126 R 28 131 R 29 134 R 28 139 R 29 142 R 29 147 R
3 18 R D 0.000 0.000 0.557 setrgbcolor 2669 1408 M 4 25 R 24 195 R 24 192 R
23 188 R 24 184 R 24 181 R 24 177 R 24 174 R 24 170 R 23 167 R 24 164 R
24 160 R 24 157 R 24 154 R 23 151 R 24 147 R 24 144 R 24 141 R 24 138 R
24 135 R 23 131 R 24 129 R 24 126 R 24 123 R 24 120 R 24 117 R 23 115 R
24 111 R 24 109 R 24 106 R 24 103 R 24 101 R 23 98 R 24 96 R 24 93 R 24 90 R
24 89 R 24 85 R 23 83 R 24 81 R 24 79 R 24 76 R 24 74 R 24 71 R 23 70 R
24 67 R 24 65 R 24 63 R 24 61 R 24 59 R 23 57 R 24 55 R 24 53 R 24 52 R
24 49 R 24 48 R 23 45 R 24 44 R 24 42 R 24 41 R 24 39 R 24 37 R 23 36 R
24 34 R 24 33 R 24 31 R 24 30 R 24 28 R 23 27 R 24 26 R 24 24 R 24 23 R
24 22 R 23 20 R 24 20 R 24 18 R 24 17 R 24 16 R 24 15 R 23 14 R 24 14 R
24 12 R 24 11 R 24 10 R 24 10 R 23 9 R 24 8 R 24 7 R 24 7 R 24 6 R 24 5 R
23 5 R 24 4 R 24 4 R 24 3 R 24 3 R 24 2 R 23 2 R 24 1 R 24 2 R 24 1 R 24 1 R
24 0 R 23 0 R 24 1 R 24 0 R 24 0 R 24 0 R 24 0 R 23 0 R 24 0 R 24 0 R 24 0 R
24 1 R 24 0 R 23 1 R 24 1 R 24 2 R 24 2 R 24 2 R 24 2 R 23 3 R 24 4 R 24 4 R
24 4 R 24 5 R 23 6 R 24 6 R 24 7 R 24 8 R 24 9 R 24 9 R 23 10 R 24 11 R
24 12 R 24 12 R 24 14 R 24 15 R 23 15 R 24 17 R 24 18 R 24 19 R 24 20 R
24 21 R 23 22 R 24 24 R 24 25 R 24 26 R 24 28 R 24 29 R 23 31 R 24 32 R
24 33 R 24 35 R 24 37 R 24 38 R 23 40 R 24 41 R 24 43 R 24 45 R 24 47 R
24 48 R 23 51 R 24 52 R 24 54 R 24 56 R 24 58 R 24 60 R 23 62 R 24 64 R
24 66 R 24 68 R 24 71 R 24 73 R 23 75 R 24 77 R 24 80 R 24 81 R 24 85 R
24 86 R 23 90 R 24 91 R 24 94 R 24 97 R 24 99 R 23 102 R 24 105 R 24 107 R
24 110 R 24 113 R 24 115 R 23 119 R 24 121 R 12 63 R D
0.000 0.000 0.400 setrgbcolor 2640 1408 M 19 156 R 19 154 R 19 151 R
19 150 R 19 147 R 19 145 R 19 142 R 19 141 R 19 138 R 19 136 R 19 133 R
19 132 R 19 130 R 19 127 R 19 125 R 20 124 R 19 121 R 19 119 R 19 117 R
19 115 R 19 113 R 19 111 R 19 109 R 19 108 R 19 105 R 19 103 R 19 102 R
19 100 R 19 97 R 19 96 R 19 94 R 20 93 R 19 90 R 19 89 R 19 87 R 19 85 R
19 84 R 19 82 R 19 80 R 19 79 R 19 76 R 19 76 R 19 73 R 19 72 R 19 71 R
19 69 R 20 67 R 19 66 R 19 65 R 19 62 R 19 62 R 19 60 R 19 58 R 19 57 R
19 56 R 19 54 R 19 53 R 19 52 R 19 50 R 19 49 R 19 48 R 19 46 R 20 45 R
19 44 R 19 43 R 19 41 R 19 41 R 19 39 R 19 38 R 19 36 R 19 36 R 19 35 R
19 33 R 19 33 R 19 31 R 19 30 R 19 29 R 20 29 R 19 27 R 19 26 R 19 26 R
19 24 R 19 24 R 19 22 R 19 22 R 19 21 R 19 20 R 19 19 R 19 19 R 19 18 R
19 16 R 19 17 R 19 15 R 20 15 R 19 14 R 19 13 R 19 12 R 19 12 R 19 12 R
19 10 R 19 10 R 19 10 R 19 9 R 19 8 R 19 8 R 19 7 R 19 7 R 19 7 R 20 5 R
19 6 R 19 5 R 19 5 R 19 4 R 19 4 R 19 3 R 19 3 R 19 3 R 19 3 R 19 2 R 19 2 R
19 2 R 19 1 R 19 1 R 19 1 R 20 1 R 19 1 R 19 0 R 19 1 R 19 0 R 19 0 R 19 1 R
19 0 R 19 0 R 19 0 R 19 0 R 19 0 R 19 0 R 19 0 R 19 0 R 20 0 R 19 1 R 19 0 R
19 0 R 19 1 R 19 1 R 19 1 R 19 1 R 19 2 R 19 1 R 19 2 R 19 3 R 19 2 R 19 3 R
19 3 R 19 3 R 20 4 R 19 4 R 19 5 R 19 5 R 19 5 R 19 6 R 19 7 R 19 6 R 19 8 R
19 7 R 19 9 R 19 9 R 19 9 R 19 10 R 19 11 R 20 11 R 19 12 R 19 12 R 19 13 R
19 14 R 19 15 R 19 15 R 19 16 R 19 17 R 19 18 R 19 18 R 19 19 R 19 20 R
19 21 R 19 21 R 19 23 R 20 23 R 19 25 R 19 25 R 19 26 R 19 27 R 19 29 R
19 29 R 19 30 R 19 31 R 19 33 R 19 33 R 19 34 R 19 36 R 19 36 R 19 38 R
19 39 R 20 40 R 19 42 R 19 42 R 19 44 R 19 45 R 19 46 R 19 47 R 19 49 R
19 50 R 19 52 R 19 53 R 19 54 R 19 55 R 19 57 R 19 58 R 20 60 R 19 61 R
19 63 R 19 64 R 19 66 R 19 67 R 19 69 R 19 70 R 19 72 R 19 73 R 19 75 R
19 77 R 19 78 R 19 80 R 19 82 R 19 83 R 20 85 R 19 87 R 19 89 R 19 90 R
19 92 R 19 94 R 19 96 R 19 97 R 7 37 R D 0.000 0.000 0.239 setrgbcolor
5113 1408 M 38 5182 R 72 1411 R 67 -6593 R D 0.000 0.000 0.082 setrgbcolor
4996 1408 M 27 1848 R 66 3212 R 67 1695 R 67 211 R 66 -1243 R 67 -2667 R
50 -3056 R D 0.000 0.000 0.000 setrgbcolor 4911 1408 M 35 1666 R 62 2342 R
62 1670 R 62 1012 R 62 367 R 62 -266 R 62 -885 R 62 -1493 R 62 -2089 R
53 -2324 R D 4569 1408 M 53 1170 R 57 1145 R 58 1014 R 57 887 R 57 761 R
57 639 R 57 519 R 58 401 R 57 286 R 57 173 R 57 63 R 57 -44 R 58 -150 R
57 -253 R 57 -354 R 57 -453 R 57 -549 R 57 -644 R 58 -735 R 57 -826 R
57 -913 R 57 -1000 R 57 -1083 R 2 -54 R D 4331 1408 M 39 649 R 52 829 R
52 765 R 53 705 R 52 643 R 53 585 R 52 527 R 53 470 R 52 415 R 52 361 R
53 308 R 52 256 R 53 206 R 52 156 R 53 108 R 52 60 R 52 15 R 53 -31 R
52 -74 R 53 -117 R 52 -159 R 53 -200 R 52 -240 R 52 -278 R 53 -316 R
52 -353 R 53 -389 R 52 -423 R 53 -457 R 52 -490 R 52 -522 R 53 -553 R
52 -582 R 53 -612 R 52 -641 R 49 -621 R D 13966 1408 M 50 2825 R 53 3033 R
52 3101 R 26 1629 R D 3566 1408 M 36 372 R 48 467 R 48 446 R 47 425 R
48 405 R 48 385 R 47 366 R 48 348 R 48 329 R 47 311 R 48 294 R 48 276 R
47 260 R 48 244 R 48 228 R 47 213 R 48 198 R 47 184 R 48 170 R 48 156 R
47 142 R 48 130 R 48 118 R 47 106 R 48 94 R 48 82 R 47 73 R 48 61 R 48 52 R
47 42 R 48 33 R 48 24 R 47 16 R 48 8 R 48 0 R 47 -7 R 48 -15 R 48 -20 R
47 -27 R 48 -33 R 48 -38 R 47 -43 R 48 -48 R 48 -52 R 47 -56 R 48 -59 R
48 -63 R 47 -66 R 48 -68 R 48 -70 R 47 -72 R 48 -73 R 48 -75 R 47 -75 R
48 -75 R 48 -76 R 47 -75 R 48 -75 R 48 -73 R 47 -72 R 48 -70 R 48 -68 R
47 -66 R 48 -63 R 48 -60 R 47 -56 R 48 -53 R 48 -48 R 47 -44 R 48 -40 R
48 -34 R 47 -28 R 48 -23 R 47 -16 R 48 -10 R 48 -3 R 47 3 R 48 12 R 48 19 R
47 28 R 48 36 R 48 44 R 47 54 R 48 64 R 48 73 R 47 83 R 48 94 R 48 105 R
47 116 R 48 127 R 48 139 R 47 151 R 48 163 R 48 176 R 47 189 R 48 203 R
48 216 R 47 231 R 48 244 R 48 260 R 47 274 R 48 290 R 48 305 R 47 321 R
48 337 R 48 355 R 47 370 R 48 389 R 17 147 R D 3240 1408 M 10 91 R 42 388 R
43 373 R 43 359 R 43 345 R 43 331 R 43 318 R 43 305 R 43 293 R 43 280 R
43 268 R 42 255 R 43 245 R 43 232 R 43 222 R 43 211 R 43 200 R 43 190 R
43 180 R 43 169 R 42 161 R 43 151 R 43 142 R 43 133 R 43 125 R 43 117 R
43 108 R 43 101 R 43 93 R 43 86 R 42 79 R 43 72 R 43 65 R 43 60 R 43 53 R
43 47 R 43 42 R 43 37 R 43 31 R 42 27 R 43 22 R 43 18 R 43 14 R 43 10 R
43 6 R 43 3 R 43 0 R 43 -3 R 43 -5 R 42 -9 R 43 -10 R 43 -12 R 43 -14 R
43 -16 R 43 -16 R 43 -18 R 43 -19 R 43 -19 R 42 -19 R 43 -20 R 43 -19 R
43 -19 R 43 -18 R 43 -18 R 43 -16 R 43 -15 R 43 -14 R 43 -12 R 42 -10 R
43 -8 R 43 -5 R 43 -3 R 43 1 R 43 3 R 43 7 R 43 10 R 43 14 R 42 18 R 43 22 R
43 27 R 43 31 R 43 36 R 43 42 R 43 47 R 43 52 R 43 58 R 43 64 R 42 70 R
43 77 R 43 83 R 43 91 R 43 97 R 43 105 R 43 112 R 43 120 R 43 129 R 42 136 R
43 145 R 43 153 R 43 162 R 43 172 R 43 180 R 43 191 R 43 200 R 43 209 R
43 221 R 42 230 R 43 241 R 43 252 R 9 59 R D 2793 1408 M 37 307 R 38 308 R
38 298 R 39 289 R 38 279 R 38 271 R 38 261 R 38 253 R 38 244 R 38 236 R
38 227 R 39 220 R 38 211 R 38 203 R 38 196 R 38 188 R 38 181 R 38 174 R
38 166 R 39 160 R 38 152 R 38 146 R 38 140 R 38 133 R 38 127 R 38 121 R
38 115 R 39 110 R 38 103 R 38 99 R 38 93 R 38 87 R 38 83 R 38 78 R 39 73 R
38 69 R 38 64 R 38 60 R 38 56 R 38 51 R 38 48 R 38 45 R 39 40 R 38 38 R
38 34 R 38 30 R 38 28 R 38 26 R 38 22 R 38 20 R 39 18 R 38 15 R 38 13 R
38 12 R 38 9 R 38 8 R 38 6 R 38 5 R 39 4 R 38 3 R 38 1 R 38 1 R 38 1 R
38 0 R 38 -1 R 39 -1 R 38 0 R 38 -1 R 38 -1 R 38 0 R 38 1 R 38 1 R 38 2 R
39 2 R 38 4 R 38 5 R 38 7 R 38 8 R 38 10 R 38 11 R 38 13 R 39 16 R 38 18 R
38 20 R 38 23 R 38 25 R 38 28 R 38 31 R 38 34 R 39 38 R 38 40 R 38 45 R
38 48 R 38 51 R 38 56 R 38 60 R 38 64 R 39 69 R 38 73 R 38 77 R 38 83 R
38 87 R 38 92 R 38 98 R 39 103 R 38 109 R 38 114 R 38 120 R 38 126 R
38 132 R 38 138 R 38 145 R 39 151 R 38 158 R 38 165 R 38 171 R 38 179 R
38 186 R 38 193 R 19 103 R D 2716 1408 M 5 38 R 33 273 R 33 267 R 34 259 R
33 253 R 33 245 R 34 239 R 33 231 R 33 226 R 34 218 R 33 213 R 34 205 R
33 200 R 33 194 R 34 187 R 33 181 R 33 176 R 34 170 R 33 164 R 33 159 R
34 153 R 33 147 R 34 143 R 33 137 R 33 132 R 34 128 R 33 122 R 33 117 R
34 113 R 33 109 R 33 103 R 34 100 R 33 95 R 33 90 R 34 87 R 33 83 R 34 78 R
33 75 R 33 71 R 34 68 R 33 64 R 33 60 R 34 57 R 33 54 R 33 51 R 34 47 R
33 45 R 34 42 R 33 39 R 33 36 R 34 34 R 33 31 R 33 29 R 34 27 R 33 24 R
33 22 R 34 20 R 33 19 R 34 16 R 33 15 R 33 13 R 34 11 R 33 11 R 33 8 R
34 8 R 33 6 R 33 5 R 34 5 R 33 3 R 34 3 R 33 2 R 33 1 R 34 1 R 33 1 R 33 0 R
34 0 R 33 0 R 33 -1 R 34 0 R 33 0 R 34 1 R 33 0 R 33 2 R 34 1 R 33 3 R
33 3 R 34 4 R 33 4 R 33 6 R 34 7 R 33 8 R 34 10 R 33 11 R 33 12 R 34 14 R
33 16 R 33 17 R 34 20 R 33 21 R 33 23 R 34 26 R 33 27 R 34 30 R 33 33 R
33 35 R 34 38 R 33 40 R 33 43 R 34 46 R 33 50 R 33 52 R 34 55 R 33 59 R
33 62 R 34 66 R 33 69 R 34 72 R 33 77 R 33 80 R 34 85 R 33 88 R 33 93 R
34 96 R 33 102 R 33 105 R 34 110 R 33 115 R 34 119 R 33 124 R 33 129 R
34 134 R 33 139 R 33 144 R 34 150 R 33 155 R 33 160 R 34 166 R 33 171 R
0 2 R D 2649 1408 M 29 232 R 28 229 R 29 223 R 28 218 R 29 214 R 29 208 R
28 203 R 29 199 R 28 194 R 29 189 R 29 184 R 28 179 R 29 175 R 28 171 R
29 166 R 29 162 R 28 157 R 29 153 R 28 149 R 29 145 R 29 140 R 28 137 R
29 133 R 28 128 R 29 125 R 29 121 R 28 117 R 29 114 R 28 110 R 29 106 R
29 103 R 28 99 R 29 96 R 28 93 R 29 89 R 29 86 R 28 83 R 29 80 R 28 77 R
29 74 R 28 71 R 29 68 R 29 66 R 28 62 R 29 60 R 28 57 R 29 55 R 29 52 R
28 50 R 29 47 R 28 45 R 29 43 R 29 40 R 28 39 R 29 36 R 28 34 R 29 33 R
29 30 R 28 28 R 29 27 R 28 25 R 29 23 R 29 22 R 28 20 R 29 19 R 28 17 R
29 15 R 29 15 R 28 13 R 29 12 R 28 11 R 29 9 R 29 9 R 28 7 R 29 7 R 28 6 R
29 5 R 29 4 R 28 4 R 29 3 R 28 2 R 29 2 R 29 2 R 28 1 R 29 1 R 28 0 R 29 1 R
29 0 R 28 0 R 29 0 R 28 0 R 29 0 R 29 0 R 28 1 R 29 0 R 28 1 R 29 2 R 28 1 R
29 3 R 29 3 R 28 3 R 29 4 R 28 5 R 29 6 R 29 6 R 28 8 R 29 8 R 28 9 R
29 11 R 29 11 R 28 13 R 29 14 R 28 16 R 29 16 R 29 19 R 28 19 R 29 22 R
28 22 R 29 25 R 29 26 R 28 28 R 29 30 R 28 32 R 29 33 R 29 36 R 28 38 R
29 40 R 28 42 R 29 44 R 29 47 R 28 49 R 29 52 R 28 54 R 29 56 R 29 59 R
28 62 R 29 65 R 28 67 R 29 70 R 29 73 R 28 76 R 29 79 R 28 83 R 29 85 R
29 88 R 28 92 R 29 95 R 28 98 R 29 102 R 29 105 R 28 109 R 29 113 R 28 116 R
29 120 R 28 123 R 29 128 R 29 131 R 28 135 R 29 140 R 28 143 R 22 117 R D
2640 1408 M 9 70 R 24 193 R 24 190 R 24 187 R 23 183 R 24 179 R 24 176 R
24 173 R 24 169 R 24 166 R 23 162 R 24 159 R 24 156 R 24 152 R 24 150 R
23 146 R 24 143 R 24 140 R 24 137 R 24 134 R 24 131 R 23 128 R 24 125 R
24 122 R 24 119 R 24 116 R 24 114 R 23 111 R 24 108 R 24 105 R 24 103 R
24 100 R 24 97 R 23 95 R 24 93 R 24 90 R 24 87 R 24 85 R 24 83 R 23 80 R
24 78 R 24 76 R 24 74 R 24 71 R 24 69 R 23 67 R 24 65 R 24 62 R 24 61 R
24 59 R 24 56 R 23 55 R 24 53 R 24 51 R 24 49 R 24 47 R 24 46 R 23 44 R
24 42 R 24 40 R 24 39 R 24 37 R 24 36 R 23 34 R 24 32 R 24 31 R 24 30 R
24 28 R 24 27 R 23 25 R 24 25 R 24 23 R 24 21 R 24 21 R 23 19 R 24 19 R
24 17 R 24 16 R 24 15 R 24 14 R 23 13 R 24 12 R 24 11 R 24 11 R 24 9 R
24 9 R 23 8 R 24 8 R 24 6 R 24 6 R 24 6 R 24 4 R 23 5 R 24 3 R 24 4 R 24 2 R
24 3 R 24 2 R 23 1 R 24 2 R 24 1 R 24 0 R 24 1 R 24 0 R 23 1 R 24 0 R 24 0 R
24 0 R 24 0 R 24 0 R 23 0 R 24 0 R 24 0 R 24 1 R 24 0 R 24 1 R 23 1 R 24 2 R
24 2 R 24 2 R 24 2 R 24 3 R 23 4 R 24 4 R 24 4 R 24 5 R 24 6 R 23 6 R 24 7 R
24 8 R 24 8 R 24 9 R 24 10 R 23 11 R 24 12 R 24 12 R 24 14 R 24 14 R 24 16 R
23 16 R 24 18 R 24 19 R 24 20 R 24 21 R 24 22 R 23 23 R 24 25 R 24 26 R
24 28 R 24 29 R 24 30 R 23 32 R 24 33 R 24 35 R 24 36 R 24 38 R 24 39 R
23 41 R 24 43 R 24 45 R 24 46 R 24 48 R 24 50 R 23 52 R 24 53 R 24 56 R
24 57 R 24 60 R 24 61 R 23 64 R 24 66 R 24 68 R 24 70 R 24 72 R 24 74 R
23 77 R 24 79 R 24 81 R 24 84 R 24 86 R 24 88 R 23 91 R 24 94 R 24 96 R
24 99 R 24 101 R 23 104 R 24 106 R 24 109 R 24 112 R 24 115 R 24 118 R
23 120 R 17 89 R D 2633 1408 M 7 49 R 19 155 R 19 153 R 19 151 R 19 149 R
19 146 R 19 144 R 19 142 R 19 139 R 19 138 R 19 135 R 19 133 R 19 131 R
19 129 R 19 126 R 19 125 R 20 122 R 19 121 R 19 118 R 19 117 R 19 114 R
19 112 R 19 111 R 19 108 R 19 107 R 19 105 R 19 102 R 19 101 R 19 99 R
19 98 R 19 95 R 19 93 R 20 92 R 19 90 R 19 88 R 19 87 R 19 85 R 19 83 R
19 81 R 19 80 R 19 78 R 19 76 R 19 75 R 19 73 R 19 72 R 19 70 R 19 68 R
20 67 R 19 65 R 19 64 R 19 63 R 19 61 R 19 59 R 19 58 R 19 57 R 19 55 R
19 54 R 19 53 R 19 51 R 19 50 R 19 48 R 19 48 R 19 46 R 20 44 R 19 44 R
19 42 R 19 41 R 19 40 R 19 39 R 19 38 R 19 36 R 19 35 R 19 35 R 19 33 R
19 32 R 19 31 R 19 30 R 19 29 R 20 28 R 19 27 R 19 26 R 19 25 R 19 24 R
19 24 R 19 22 R 19 22 R 19 20 R 19 20 R 19 19 R 19 19 R 19 17 R 19 17 R
19 16 R 19 15 R 20 14 R 19 14 R 19 13 R 19 12 R 19 12 R 19 11 R 19 11 R
19 10 R 19 9 R 19 9 R 19 8 R 19 8 R 19 7 R 19 7 R 19 6 R 20 6 R 19 5 R
19 5 R 19 5 R 19 4 R 19 3 R 19 4 R 19 3 R 19 3 R 19 2 R 19 2 R 19 2 R 19 2 R
19 1 R 19 2 R 19 1 R 20 0 R 19 1 R 19 1 R 19 0 R 19 0 R 19 0 R 19 1 R 19 0 R
19 0 R 19 0 R 19 0 R 19 0 R 19 0 R 19 0 R 19 0 R 20 0 R 19 1 R 19 0 R 19 1 R
19 0 R 19 1 R 19 1 R 19 2 R 19 1 R 19 2 R 19 2 R 19 2 R 19 3 R 19 3 R 19 3 R
19 3 R 20 4 R 19 4 R 19 5 R 19 5 R 19 6 R 19 6 R 19 6 R 19 7 R 19 7 R 19 8 R
19 9 R 19 9 R 19 9 R 19 10 R 19 11 R 20 11 R 19 12 R 19 13 R 19 13 R 19 14 R
19 15 R 19 16 R 19 16 R 19 17 R 19 17 R 19 19 R 19 19 R 19 20 R 19 21 R
19 22 R 19 23 R 20 24 R 19 24 R 19 26 R 19 26 R 19 27 R 19 29 R 19 29 R
19 31 R 19 31 R 19 32 R 19 34 R 19 35 R 19 35 R 19 37 R 19 38 R 19 39 R
20 41 R 19 41 R 19 43 R 19 44 R 19 45 R 19 47 R 19 47 R 19 49 R 19 51 R
19 51 R 19 54 R 19 54 R 19 56 R 19 57 R 19 58 R 20 61 R 19 61 R 19 63 R
19 64 R 19 66 R 19 68 R 19 69 R 19 70 R 19 73 R 19 73 R 19 76 R 19 77 R
19 78 R 19 80 R 19 82 R 19 84 R 20 85 R 19 87 R 19 89 R 19 91 R 19 92 R
19 94 R 19 96 R 19 98 R 3 18 R D 5067 1408 M 13 1521 R 71 4658 R 72 661 R
71 -3248 R 36 -3592 R D 4902 1408 M 54 2385 R 67 2231 R 66 1506 R 67 794 R
67 99 R 66 -582 R 67 -1248 R 67 -1901 R 67 -2539 R 15 -745 R D 4781 1408 M
41 1357 R 62 1751 R 62 1421 R 62 1099 R 62 783 R 62 475 R 62 172 R 62 -124 R
62 -415 R 62 -698 R 62 -977 R 62 -1249 R 62 -1516 R 62 -1776 R 9 -303 R D
4305 1408 M 31 509 R 57 889 R 58 818 R 57 748 R 57 680 R 57 613 R 57 548 R
58 485 R 57 422 R 57 362 R 57 303 R 57 246 R 58 189 R 57 135 R 57 82 R
57 30 R 57 -21 R 58 -70 R 57 -118 R 57 -165 R 57 -209 R 57 -254 R 57 -296 R
58 -338 R 57 -378 R 57 -417 R 57 -454 R 57 -491 R 58 -527 R 57 -561 R
57 -593 R 57 -626 R 57 -656 R 58 -686 R 15 -199 R D 13104 1408 M 40 1971 R
57 2900 R 57 2977 R 52 2740 R D 3997 1408 M 6 74 R 52 662 R 52 623 R
53 585 R 52 549 R 53 513 R 52 478 R 53 445 R 52 411 R 52 378 R 53 347 R
52 316 R 53 287 R 52 257 R 53 229 R 52 201 R 52 174 R 53 148 R 52 123 R
53 98 R 52 74 R 53 51 R 52 29 R 52 6 R 53 -14 R 52 -34 R 53 -55 R 52 -73 R
53 -92 R 52 -109 R 52 -126 R 53 -142 R 52 -158 R 53 -173 R 52 -188 R
53 -201 R 52 -214 R 52 -226 R 53 -238 R 52 -250 R 53 -259 R 52 -270 R
53 -279 R 52 -288 R 52 -295 R 53 -303 R 52 -310 R 53 -316 R 52 -322 R
53 -326 R 52 -331 R 52 -335 R 53 -338 R 52 -340 R 53 -343 R 16 -110 R D
10177 1408 M 12 157 R 52 739 R 53 774 R 52 809 R 53 844 R 52 880 R 53 917 R
52 954 R 52 991 R 53 1029 R 52 1068 R 53 1106 R 14 320 R D 3213 1408 M
8 67 R 48 428 R 47 411 R 48 393 R 48 376 R 47 360 R 48 344 R 48 328 R
47 313 R 48 298 R 48 283 R 47 269 R 48 254 R 48 242 R 47 228 R 48 216 R
48 203 R 47 190 R 48 180 R 48 168 R 47 156 R 48 146 R 48 136 R 47 126 R
48 116 R 47 107 R 48 98 R 48 89 R 47 81 R 48 73 R 48 66 R 47 58 R 48 51 R
48 45 R 47 39 R 48 32 R 48 27 R 47 21 R 48 17 R 48 12 R 47 8 R 48 3 R 48 0 R
47 -3 R 48 -6 R 48 -9 R 47 -12 R 48 -13 R 48 -16 R 47 -16 R 48 -18 R
48 -18 R 47 -19 R 48 -20 R 48 -19 R 47 -18 R 48 -18 R 48 -17 R 47 -15 R
48 -13 R 48 -12 R 47 -9 R 48 -7 R 48 -3 R 47 0 R 48 3 R 48 7 R 47 11 R
48 16 R 48 21 R 47 26 R 48 31 R 48 37 R 47 43 R 48 50 R 48 56 R 47 63 R
48 70 R 48 78 R 47 85 R 48 94 R 47 103 R 48 111 R 48 120 R 47 130 R 48 139 R
48 150 R 47 159 R 48 171 R 48 181 R 47 192 R 48 204 R 48 216 R 47 228 R
48 240 R 48 253 R 47 266 R 44 257 R D 2973 1408 M 19 164 R 43 362 R 43 349 R
43 336 R 43 324 R 43 312 R 43 300 R 42 288 R 43 277 R 43 265 R 43 255 R
43 243 R 43 233 R 43 223 R 43 213 R 43 203 R 43 194 R 42 184 R 43 175 R
43 166 R 43 158 R 43 149 R 43 141 R 43 133 R 43 125 R 43 118 R 42 110 R
43 104 R 43 97 R 43 90 R 43 84 R 43 77 R 43 72 R 43 66 R 43 61 R 43 55 R
42 50 R 43 46 R 43 41 R 43 36 R 43 33 R 43 28 R 43 25 R 43 21 R 43 19 R
42 15 R 43 12 R 43 10 R 43 7 R 43 5 R 43 3 R 43 2 R 43 0 R 43 -2 R 43 -2 R
42 -4 R 43 -4 R 43 -4 R 43 -5 R 43 -4 R 43 -5 R 43 -4 R 43 -3 R 43 -3 R
42 -1 R 43 0 R 43 1 R 43 3 R 43 5 R 43 7 R 43 10 R 43 12 R 43 14 R 43 18 R
42 21 R 43 24 R 43 28 R 43 32 R 43 36 R 43 40 R 43 44 R 43 50 R 43 54 R
42 59 R 43 64 R 43 70 R 43 76 R 43 82 R 43 87 R 43 94 R 43 101 R 43 108 R
43 114 R 42 122 R 43 129 R 43 137 R 43 144 R 43 153 R 43 160 R 43 170 R
43 178 R 43 186 R 42 196 R 43 205 R 43 215 R 43 224 R 17 97 R D 2711 1408 M
5 37 R 38 312 R 38 303 R 38 293 R 38 285 R 38 275 R 39 267 R 38 258 R
38 249 R 38 241 R 38 233 R 38 224 R 38 217 R 38 209 R 39 201 R 38 193 R
38 187 R 38 179 R 38 171 R 38 165 R 38 159 R 38 151 R 39 145 R 38 139 R
38 132 R 38 126 R 38 121 R 38 114 R 38 109 R 38 104 R 39 98 R 38 92 R
38 88 R 38 83 R 38 78 R 38 73 R 38 69 R 39 65 R 38 60 R 38 56 R 38 53 R
38 48 R 38 45 R 38 41 R 38 38 R 39 35 R 38 32 R 38 28 R 38 26 R 38 24 R
38 20 R 38 19 R 38 16 R 39 14 R 38 12 R 38 11 R 38 8 R 38 8 R 38 6 R 38 4 R
38 4 R 39 2 R 38 2 R 38 1 R 38 1 R 38 0 R 38 0 R 38 -1 R 39 0 R 38 0 R
38 1 R 38 1 R 38 1 R 38 2 R 38 3 R 38 4 R 39 6 R 38 6 R 38 8 R 38 10 R
38 11 R 38 14 R 38 15 R 38 17 R 39 20 R 38 22 R 38 25 R 38 28 R 38 30 R
38 33 R 38 37 R 38 39 R 39 44 R 38 46 R 38 51 R 38 54 R 38 58 R 38 63 R
38 67 R 38 71 R 39 75 R 38 81 R 38 85 R 38 90 R 38 95 R 38 101 R 38 106 R
39 111 R 38 117 R 38 123 R 38 129 R 38 135 R 38 141 R 38 148 R 38 154 R
39 161 R 38 168 R 38 174 R 38 182 R 38 188 R 34 179 R D 2672 1408 M 15 122 R
34 270 R 33 262 R 33 256 R 34 249 R 33 242 R 33 236 R 34 229 R 33 222 R
33 216 R 34 209 R 33 203 R 34 197 R 33 191 R 33 185 R 34 179 R 33 174 R
33 167 R 34 163 R 33 156 R 33 151 R 34 146 R 33 141 R 34 136 R 33 130 R
33 126 R 34 121 R 33 116 R 33 111 R 34 107 R 33 103 R 33 98 R 34 94 R
33 90 R 33 85 R 34 82 R 33 78 R 34 74 R 33 70 R 33 67 R 34 63 R 33 60 R
33 57 R 34 53 R 33 50 R 33 47 R 34 45 R 33 41 R 34 39 R 33 36 R 33 33 R
34 31 R 33 29 R 33 26 R 34 24 R 33 22 R 33 21 R 34 18 R 33 16 R 34 15 R
33 13 R 33 11 R 34 10 R 33 9 R 33 8 R 34 6 R 33 6 R 33 4 R 34 3 R 33 3 R
34 2 R 33 2 R 33 1 R 34 0 R 33 1 R 33 0 R 34 0 R 33 0 R 33 0 R 34 0 R 33 0 R
34 1 R 33 2 R 33 1 R 34 3 R 33 3 R 33 4 R 34 5 R 33 6 R 33 7 R 34 8 R
33 10 R 34 11 R 33 12 R 33 14 R 34 16 R 33 17 R 33 20 R 34 21 R 33 23 R
33 26 R 34 27 R 33 30 R 34 33 R 33 34 R 33 38 R 34 40 R 33 43 R 33 46 R
34 49 R 33 52 R 33 55 R 34 58 R 33 62 R 33 65 R 34 69 R 33 72 R 34 76 R
33 80 R 33 84 R 34 88 R 33 92 R 33 96 R 34 100 R 33 105 R 33 110 R 34 113 R
33 119 R 34 123 R 33 128 R 33 133 R 34 138 R 33 144 R 33 148 R 34 154 R
33 159 R 33 165 R 34 170 R 3 21 R D 2639 1408 M 10 74 R 29 232 R 28 226 R
29 222 R 28 216 R 29 212 R 29 206 R 28 202 R 29 197 R 28 192 R 29 187 R
29 183 R 28 178 R 29 173 R 28 169 R 29 165 R 29 160 R 28 156 R 29 151 R
28 148 R 29 143 R 29 139 R 28 136 R 29 131 R 28 127 R 29 124 R 29 120 R
28 116 R 29 112 R 28 109 R 29 105 R 29 102 R 28 98 R 29 95 R 28 92 R 29 88 R
29 85 R 28 82 R 29 79 R 28 76 R 29 73 R 28 70 R 29 68 R 29 64 R 28 62 R
29 59 R 28 56 R 29 54 R 29 52 R 28 49 R 29 47 R 28 44 R 29 42 R 29 40 R
28 38 R 29 35 R 28 34 R 29 32 R 29 30 R 28 28 R 29 26 R 28 24 R 29 23 R
29 21 R 28 20 R 29 18 R 28 17 R 29 15 R 29 14 R 28 13 R 29 12 R 28 10 R
29 9 R 29 9 R 28 7 R 29 7 R 28 5 R 29 5 R 29 4 R 28 4 R 29 3 R 28 2 R 29 2 R
29 1 R 28 1 R 29 1 R 28 0 R 29 1 R 29 0 R 28 0 R 29 0 R 28 0 R 29 0 R 29 0 R
28 1 R 29 0 R 28 2 R 29 1 R 28 2 R 29 2 R 29 3 R 28 4 R 29 4 R 28 5 R 29 6 R
29 7 R 28 8 R 29 8 R 28 10 R 29 11 R 29 11 R 28 13 R 29 15 R 28 15 R 29 18 R
29 18 R 28 20 R 29 22 R 28 23 R 29 25 R 29 26 R 28 29 R 29 30 R 28 32 R
29 34 R 29 36 R 28 39 R 29 40 R 28 43 R 29 45 R 29 47 R 28 49 R 29 52 R
28 55 R 29 57 R 29 60 R 28 62 R 29 65 R 28 68 R 29 71 R 29 73 R 28 77 R
29 80 R 28 82 R 29 86 R 29 89 R 28 93 R 29 95 R 28 99 R 29 103 R 29 106 R
28 109 R 29 113 R 28 117 R 29 121 R 28 124 R 29 128 R 29 132 R 28 136 R
29 141 R 28 144 R 17 87 R D 2635 1408 M 14 107 R 24 193 R 24 189 R 24 186 R
23 182 R 24 179 R 24 175 R 24 172 R 24 168 R 24 165 R 23 162 R 24 158 R
24 156 R 24 152 R 24 148 R 23 146 R 24 142 R 24 140 R 24 136 R 24 133 R
24 130 R 23 128 R 24 124 R 24 121 R 24 119 R 24 116 R 24 113 R 23 110 R
24 108 R 24 105 R 24 102 R 24 99 R 24 97 R 23 95 R 24 92 R 24 89 R 24 87 R
24 85 R 24 82 R 23 80 R 24 78 R 24 75 R 24 73 R 24 71 R 24 69 R 23 66 R
24 64 R 24 63 R 24 60 R 24 58 R 24 57 R 23 54 R 24 53 R 24 50 R 24 49 R
24 47 R 24 45 R 23 44 R 24 41 R 24 41 R 24 38 R 24 37 R 24 35 R 23 34 R
24 32 R 24 31 R 24 29 R 24 28 R 24 27 R 23 25 R 24 24 R 24 23 R 24 22 R
24 20 R 23 19 R 24 18 R 24 17 R 24 16 R 24 15 R 24 14 R 23 13 R 24 12 R
24 11 R 24 10 R 24 10 R 24 8 R 23 8 R 24 8 R 24 6 R 24 6 R 24 5 R 24 5 R
23 4 R 24 4 R 24 3 R 24 3 R 24 2 R 24 2 R 23 1 R 24 2 R 24 1 R 24 0 R 24 1 R
24 0 R 23 1 R 24 0 R 24 0 R 24 0 R 24 0 R 24 0 R 23 0 R 24 0 R 24 0 R 24 1 R
24 1 R 24 0 R 23 2 R 24 1 R 24 2 R 24 2 R 24 3 R 24 3 R 23 3 R 24 4 R 24 5 R
24 5 R 24 6 R 23 6 R 24 7 R 24 8 R 24 8 R 24 10 R 24 10 R 23 11 R 24 11 R
24 13 R 24 14 R 24 14 R 24 16 R 23 17 R 24 17 R 24 19 R 24 20 R 24 22 R
24 22 R 23 24 R 24 25 R 24 26 R 24 28 R 24 29 R 24 30 R 23 32 R 24 33 R
24 35 R 24 37 R 24 38 R 24 39 R 23 42 R 24 43 R 24 44 R 24 47 R 24 48 R
24 50 R 23 52 R 24 54 R 24 56 R 24 58 R 24 60 R 24 61 R 23 64 R 24 66 R
24 68 R 24 71 R 24 72 R 24 75 R 23 77 R 24 79 R 24 82 R 24 83 R 24 87 R
24 89 R 23 91 R 24 94 R 24 96 R 24 99 R 24 101 R 23 105 R 24 106 R 24 110 R
24 112 R 24 115 R 24 118 R 23 121 R 14 74 R D 2632 1408 M 8 56 R 19 156 R
19 153 R 19 150 R 19 149 R 19 146 R 19 144 R 19 141 R 19 140 R 19 137 R
19 135 R 19 133 R 19 131 R 19 129 R 19 126 R 19 125 R 20 122 R 19 120 R
19 119 R 19 116 R 19 114 R 19 113 R 19 110 R 19 108 R 19 107 R 19 104 R
19 103 R 19 101 R 19 99 R 19 97 R 19 95 R 19 94 R 20 91 R 19 90 R 19 88 R
19 87 R 19 84 R 19 83 R 19 82 R 19 79 R 19 78 R 19 76 R 19 75 R 19 73 R
19 72 R 19 70 R 19 68 R 20 67 R 19 65 R 19 64 R 19 62 R 19 61 R 19 60 R
19 58 R 19 56 R 19 56 R 19 53 R 19 53 R 19 51 R 19 50 R 19 48 R 19 48 R
19 46 R 20 44 R 19 44 R 19 42 R 19 41 R 19 40 R 19 39 R 19 37 R 19 37 R
19 35 R 19 34 R 19 33 R 19 32 R 19 31 R 19 30 R 19 29 R 20 28 R 19 27 R
19 26 R 19 25 R 19 24 R 19 24 R 19 22 R 19 22 R 19 20 R 19 20 R 19 19 R
19 18 R 19 18 R 19 16 R 19 16 R 19 15 R 20 15 R 19 13 R 19 13 R 19 13 R
19 12 R 19 11 R 19 10 R 19 10 R 19 9 R 19 9 R 19 8 R 19 8 R 19 7 R 19 7 R
19 6 R 20 6 R 19 5 R 19 5 R 19 5 R 19 4 R 19 4 R 19 3 R 19 3 R 19 3 R 19 2 R
19 2 R 19 2 R 19 2 R 19 1 R 19 2 R 19 1 R 20 0 R 19 1 R 19 1 R 19 0 R 19 0 R
19 1 R 19 0 R 19 0 R 19 0 R 19 0 R 19 0 R 19 0 R 19 0 R 19 0 R 19 0 R 20 0 R
19 1 R 19 0 R 19 1 R 19 0 R 19 1 R 19 1 R 19 2 R 19 1 R 19 2 R 19 2 R 19 2 R
19 3 R 19 3 R 19 3 R 19 3 R 20 4 R 19 5 R 19 4 R 19 5 R 19 6 R 19 6 R 19 6 R
19 7 R 19 8 R 19 8 R 19 8 R 19 9 R 19 10 R 19 10 R 19 10 R 20 12 R 19 12 R
19 13 R 19 13 R 19 14 R 19 15 R 19 15 R 19 16 R 19 17 R 19 18 R 19 19 R
19 19 R 19 20 R 19 21 R 19 22 R 19 23 R 20 23 R 19 25 R 19 25 R 19 27 R
19 27 R 19 29 R 19 29 R 19 31 R 19 31 R 19 33 R 19 33 R 19 35 R 19 36 R
19 36 R 19 39 R 19 39 R 20 40 R 19 42 R 19 42 R 19 44 R 19 46 R 19 46 R
19 48 R 19 49 R 19 50 R 19 52 R 19 53 R 19 55 R 19 55 R 19 58 R 19 58 R
20 60 R 19 62 R 19 63 R 19 64 R 19 66 R 19 68 R 19 69 R 19 71 R 19 72 R
19 74 R 19 75 R 19 77 R 19 79 R 19 80 R 19 82 R 19 84 R 20 85 R 19 87 R
19 89 R 19 91 R 19 92 R 19 94 R 19 96 R 19 98 R 2 15 R D 4799 1408 M
66 2184 R 72 1890 R 71 1419 R 72 959 R 71 510 R 72 73 R 71 -355 R 72 -773 R
71 -1180 R 72 -1578 R 71 -1967 R 36 -1182 R D 4341 1408 M 14 243 R 67 1094 R
67 988 R 66 887 R 67 787 R 67 691 R 67 597 R 66 506 R 67 417 R 67 332 R
67 247 R 66 167 R 67 87 R 67 11 R 66 -63 R 67 -136 R 67 -205 R 67 -273 R
66 -339 R 67 -401 R 67 -463 R 67 -523 R 66 -579 R 67 -634 R 67 -687 R
66 -738 R 67 -788 R 67 -834 R 29 -391 R D 12886 1408 M 10 495 R 67 3508 R
67 3613 R 52 2972 R D 4041 1408 M 38 502 R 62 772 R 62 717 R 62 662 R
62 609 R 62 558 R 62 508 R 62 461 R 62 413 R 61 368 R 62 324 R 62 281 R
62 240 R 62 200 R 62 161 R 62 124 R 62 87 R 62 53 R 62 19 R 62 -14 R
62 -45 R 62 -75 R 62 -103 R 62 -132 R 62 -158 R 62 -183 R 62 -208 R
62 -231 R 62 -253 R 62 -274 R 62 -293 R 62 -313 R 62 -329 R 62 -347 R
61 -361 R 62 -376 R 62 -389 R 62 -401 R 62 -413 R 62 -422 R 62 -431 R
62 -439 R 62 -445 R 58 -424 R D 10302 1408 M 35 575 R 62 1076 R 62 1132 R
62 1188 R 62 1244 R 62 1302 R 61 1360 R 62 1419 R 54 1292 R D 3254 1408 M
53 485 R 57 498 R 57 473 R 57 447 R 58 424 R 57 400 R 57 377 R 57 356 R
57 334 R 57 313 R 58 293 R 57 274 R 57 255 R 57 237 R 57 220 R 58 203 R
57 187 R 57 171 R 57 156 R 57 142 R 58 128 R 57 115 R 57 102 R 57 91 R
57 79 R 58 68 R 57 59 R 57 48 R 57 40 R 57 31 R 58 24 R 57 16 R 57 9 R
57 4 R 57 -3 R 58 -7 R 57 -11 R 57 -16 R 57 -19 R 57 -21 R 57 -24 R 58 -26 R
57 -26 R 57 -27 R 57 -28 R 57 -26 R 58 -26 R 57 -23 R 57 -22 R 57 -19 R
57 -15 R 58 -12 R 57 -7 R 57 -2 R 57 3 R 57 9 R 58 16 R 57 23 R 57 30 R
57 39 R 57 47 R 58 57 R 57 67 R 57 77 R 57 88 R 57 99 R 57 112 R 58 124 R
57 137 R 57 150 R 57 165 R 57 180 R 58 195 R 57 210 R 57 228 R 57 244 R
57 261 R 58 279 R 57 298 R 57 317 R 57 337 R 15 97 R D 3001 1408 M 5 42 R
53 450 R 52 430 R 53 411 R 52 392 R 53 373 R 52 356 R 52 338 R 53 322 R
52 304 R 53 289 R 52 273 R 53 258 R 52 244 R 52 229 R 53 215 R 52 202 R
53 189 R 52 176 R 53 164 R 52 153 R 52 141 R 53 131 R 52 120 R 53 110 R
52 101 R 53 91 R 52 83 R 52 74 R 53 67 R 52 59 R 53 52 R 52 45 R 53 39 R
52 33 R 52 28 R 53 22 R 52 18 R 53 14 R 52 10 R 53 6 R 52 4 R 52 1 R 53 -2 R
52 -3 R 53 -5 R 52 -6 R 53 -6 R 52 -7 R 52 -7 R 53 -6 R 52 -5 R 53 -4 R
52 -2 R 53 0 R 52 3 R 52 5 R 53 8 R 52 13 R 53 16 R 52 21 R 53 25 R 52 31 R
52 37 R 53 42 R 52 49 R 53 56 R 52 62 R 53 71 R 52 78 R 52 87 R 53 95 R
52 105 R 53 114 R 52 124 R 53 134 R 52 145 R 52 157 R 53 167 R 52 179 R
53 192 R 52 204 R 52 218 R 53 231 R 52 244 R 53 259 R 52 273 R 25 137 R D
2719 1408 M 25 206 R 48 384 R 48 368 R 47 355 R 48 340 R 48 327 R 47 313 R
48 299 R 48 287 R 47 275 R 48 262 R 48 250 R 47 238 R 48 227 R 48 216 R
47 204 R 48 195 R 48 184 R 47 173 R 48 165 R 48 154 R 47 146 R 48 136 R
48 128 R 47 120 R 48 112 R 48 104 R 47 96 R 48 89 R 48 82 R 47 76 R 48 69 R
48 63 R 47 58 R 48 52 R 47 46 R 48 42 R 48 37 R 47 32 R 48 29 R 48 24 R
47 21 R 48 18 R 48 15 R 47 11 R 48 10 R 48 7 R 47 6 R 48 3 R 48 3 R 47 1 R
48 1 R 48 0 R 47 -1 R 48 0 R 48 0 R 47 1 R 48 2 R 48 2 R 47 4 R 48 6 R
48 8 R 47 10 R 48 12 R 48 16 R 47 18 R 48 22 R 48 25 R 47 29 R 48 34 R
48 38 R 47 42 R 48 48 R 48 53 R 47 58 R 48 64 R 48 71 R 47 76 R 48 84 R
48 90 R 47 98 R 48 105 R 48 112 R 47 121 R 48 129 R 48 138 R 47 146 R
48 156 R 48 165 R 47 175 R 48 184 R 47 195 R 48 206 R 48 216 R 47 227 R
48 239 R 20 105 R D 2676 1408 M 16 126 R 43 346 R 43 334 R 43 323 R 43 312 R
42 300 R 43 289 R 43 279 R 43 268 R 43 258 R 43 248 R 43 238 R 43 228 R
43 219 R 42 209 R 43 200 R 43 192 R 43 182 R 43 175 R 43 166 R 43 158 R
43 150 R 43 142 R 43 135 R 42 128 R 43 120 R 43 114 R 43 107 R 43 100 R
43 95 R 43 88 R 43 83 R 43 76 R 42 72 R 43 66 R 43 61 R 43 56 R 43 52 R
43 47 R 43 43 R 43 38 R 43 35 R 43 32 R 42 28 R 43 24 R 43 22 R 43 19 R
43 16 R 43 13 R 43 12 R 43 9 R 43 8 R 42 6 R 43 4 R 43 3 R 43 2 R 43 2 R
43 0 R 43 1 R 43 0 R 43 0 R 43 0 R 42 0 R 43 1 R 43 2 R 43 3 R 43 4 R 43 5 R
43 7 R 43 8 R 43 11 R 42 12 R 43 15 R 43 18 R 43 20 R 43 23 R 43 27 R
43 29 R 43 34 R 43 37 R 43 41 R 42 45 R 43 49 R 43 54 R 43 59 R 43 64 R
43 68 R 43 75 R 43 79 R 43 86 R 42 91 R 43 98 R 43 103 R 43 111 R 43 117 R
43 124 R 43 131 R 43 138 R 43 146 R 43 154 R 42 162 R 43 170 R 43 178 R
43 186 R 43 196 R 43 204 R 43 213 R 25 131 R D 2641 1408 M 37 299 R 38 301 R
38 292 R 38 284 R 38 274 R 38 266 R 38 257 R 39 249 R 38 241 R 38 232 R
38 225 R 38 217 R 38 209 R 38 201 R 38 194 R 39 187 R 38 179 R 38 173 R
38 166 R 38 159 R 38 152 R 38 146 R 38 140 R 39 133 R 38 128 R 38 121 R
38 116 R 38 110 R 38 105 R 38 99 R 38 95 R 39 89 R 38 84 R 38 80 R 38 74 R
38 71 R 38 66 R 38 62 R 39 57 R 38 54 R 38 50 R 38 46 R 38 43 R 38 39 R
38 37 R 38 33 R 39 30 R 38 27 R 38 25 R 38 22 R 38 19 R 38 18 R 38 15 R
38 13 R 39 12 R 38 9 R 38 8 R 38 7 R 38 5 R 38 5 R 38 3 R 38 2 R 39 2 R
38 1 R 38 0 R 38 1 R 38 0 R 38 0 R 38 0 R 39 0 R 38 1 R 38 1 R 38 2 R 38 3 R
38 3 R 38 5 R 38 6 R 39 7 R 38 9 R 38 10 R 38 12 R 38 14 R 38 16 R 38 19 R
38 20 R 39 23 R 38 26 R 38 28 R 38 31 R 38 35 R 38 37 R 38 41 R 38 44 R
39 48 R 38 51 R 38 55 R 38 60 R 38 63 R 38 68 R 38 72 R 38 76 R 39 82 R
38 86 R 38 91 R 38 96 R 38 102 R 38 106 R 38 113 R 39 118 R 38 124 R
38 129 R 38 136 R 38 142 R 38 148 R 38 155 R 38 162 R 39 168 R 38 175 R
38 182 R 38 190 R 26 138 R D 2636 1408 M 18 143 R 33 268 R 34 261 R 33 254 R
33 247 R 34 241 R 33 234 R 33 227 R 34 221 R 33 215 R 33 208 R 34 202 R
33 196 R 34 190 R 33 184 R 33 179 R 34 172 R 33 167 R 33 162 R 34 156 R
33 150 R 33 146 R 34 140 R 33 135 R 34 130 R 33 126 R 33 120 R 34 116 R
33 111 R 33 107 R 34 102 R 33 98 R 33 94 R 34 90 R 33 85 R 33 82 R 34 78 R
33 74 R 34 70 R 33 67 R 33 63 R 34 60 R 33 57 R 33 53 R 34 51 R 33 47 R
33 44 R 34 42 R 33 39 R 34 36 R 33 34 R 33 31 R 34 29 R 33 26 R 33 25 R
34 22 R 33 20 R 33 19 R 34 16 R 33 15 R 34 13 R 33 12 R 33 11 R 34 9 R
33 7 R 33 7 R 34 5 R 33 5 R 33 4 R 34 2 R 33 3 R 34 1 R 33 1 R 33 1 R 34 1 R
33 0 R 33 0 R 34 0 R 33 0 R 33 0 R 34 0 R 33 1 R 34 1 R 33 2 R 33 3 R 34 3 R
33 4 R 33 4 R 34 6 R 33 7 R 33 8 R 34 9 R 33 11 R 34 12 R 33 13 R 33 16 R
34 17 R 33 19 R 33 20 R 34 23 R 33 25 R 33 27 R 34 29 R 33 32 R 34 34 R
33 37 R 33 40 R 34 42 R 33 45 R 33 48 R 34 51 R 33 54 R 33 57 R 34 61 R
33 64 R 33 68 R 34 71 R 33 75 R 34 78 R 33 83 R 33 86 R 34 91 R 33 95 R
33 99 R 34 103 R 33 108 R 33 112 R 34 117 R 33 121 R 34 127 R 33 131 R
33 136 R 34 141 R 33 147 R 33 152 R 34 157 R 33 162 R 33 169 R 14 75 R D
2632 1408 M 17 134 R 29 230 R 28 225 R 29 220 R 28 215 R 29 210 R 29 205 R
28 201 R 29 195 R 28 191 R 29 186 R 29 181 R 28 177 R 29 172 R 28 168 R
29 163 R 29 159 R 28 155 R 29 150 R 28 147 R 29 142 R 29 138 R 28 134 R
29 130 R 28 127 R 29 122 R 29 119 R 28 115 R 29 112 R 28 107 R 29 105 R
29 101 R 28 97 R 29 94 R 28 91 R 29 88 R 29 84 R 28 81 R 29 78 R 28 76 R
29 72 R 28 69 R 29 67 R 29 64 R 28 61 R 29 58 R 28 56 R 29 54 R 29 51 R
28 48 R 29 46 R 28 44 R 29 42 R 29 39 R 28 37 R 29 36 R 28 33 R 29 31 R
29 30 R 28 27 R 29 26 R 28 24 R 29 23 R 29 20 R 28 20 R 29 18 R 28 16 R
29 15 R 29 14 R 28 12 R 29 12 R 28 10 R 29 9 R 29 8 R 28 8 R 29 6 R 28 5 R
29 5 R 29 4 R 28 3 R 29 3 R 28 2 R 29 2 R 29 1 R 28 1 R 29 1 R 28 0 R 29 1 R
29 0 R 28 0 R 29 0 R 28 0 R 29 0 R 29 0 R 28 1 R 29 1 R 28 1 R 29 1 R 28 2 R
29 3 R 29 3 R 28 4 R 29 4 R 28 5 R 29 6 R 29 7 R 28 8 R 29 9 R 28 10 R
29 11 R 29 12 R 28 13 R 29 15 R 28 15 R 29 18 R 29 19 R 28 20 R 29 22 R
28 23 R 29 25 R 29 27 R 28 29 R 29 30 R 28 33 R 29 34 R 29 37 R 28 39 R
29 40 R 28 43 R 29 45 R 29 48 R 28 50 R 29 52 R 28 55 R 29 58 R 29 60 R
28 63 R 29 65 R 28 69 R 29 71 R 29 74 R 28 77 R 29 80 R 28 83 R 29 87 R
29 89 R 28 93 R 29 96 R 28 100 R 29 103 R 29 106 R 28 110 R 29 114 R
28 117 R 29 122 R 28 124 R 29 129 R 29 133 R 28 136 R 29 141 R 28 145 R
12 64 R D 2632 1408 M 17 137 R 24 192 R 24 189 R 24 185 R 23 182 R 24 178 R
24 174 R 24 172 R 24 167 R 24 165 R 23 161 R 24 158 R 24 154 R 24 152 R
24 148 R 23 145 R 24 142 R 24 139 R 24 135 R 24 133 R 24 130 R 23 127 R
24 124 R 24 121 R 24 118 R 24 115 R 24 113 R 23 110 R 24 107 R 24 104 R
24 102 R 24 99 R 24 97 R 23 94 R 24 91 R 24 90 R 24 86 R 24 84 R 24 82 R
23 80 R 24 77 R 24 75 R 24 73 R 24 70 R 24 69 R 23 66 R 24 64 R 24 62 R
24 60 R 24 58 R 24 56 R 23 54 R 24 52 R 24 51 R 24 48 R 24 47 R 24 45 R
23 43 R 24 42 R 24 40 R 24 38 R 24 37 R 24 35 R 23 33 R 24 32 R 24 31 R
24 29 R 24 28 R 24 26 R 23 25 R 24 24 R 24 23 R 24 21 R 24 20 R 23 20 R
24 17 R 24 17 R 24 16 R 24 15 R 24 14 R 23 12 R 24 12 R 24 11 R 24 11 R
24 9 R 24 8 R 23 8 R 24 7 R 24 7 R 24 6 R 24 5 R 24 5 R 23 4 R 24 3 R 24 3 R
24 3 R 24 2 R 24 2 R 23 2 R 24 1 R 24 1 R 24 1 R 24 0 R 24 0 R 23 1 R 24 0 R
24 0 R 24 0 R 24 0 R 24 0 R 23 0 R 24 0 R 24 0 R 24 1 R 24 1 R 24 1 R 23 1 R
24 1 R 24 2 R 24 2 R 24 3 R 24 3 R 23 4 R 24 4 R 24 4 R 24 6 R 24 5 R 23 7 R
24 7 R 24 8 R 24 8 R 24 10 R 24 10 R 23 11 R 24 12 R 24 13 R 24 13 R 24 15 R
24 16 R 23 17 R 24 17 R 24 19 R 24 21 R 24 21 R 24 22 R 23 24 R 24 25 R
24 27 R 24 28 R 24 29 R 24 30 R 23 32 R 24 34 R 24 35 R 24 37 R 24 38 R
24 40 R 23 41 R 24 43 R 24 45 R 24 47 R 24 48 R 24 51 R 23 52 R 24 54 R
24 56 R 24 58 R 24 60 R 24 62 R 23 64 R 24 66 R 24 68 R 24 71 R 24 72 R
24 75 R 23 77 R 24 80 R 24 82 R 24 84 R 24 86 R 24 89 R 23 92 R 24 94 R
24 96 R 24 100 R 24 101 R 23 105 R 24 107 R 24 109 R 24 113 R 24 115 R
24 118 R 23 121 R 12 63 R D 2632 1408 M 8 62 R 19 156 R 19 152 R 19 151 R
19 148 R 19 146 R 19 144 R 19 142 R 19 139 R 19 137 R 19 135 R 19 133 R
19 131 R 19 128 R 19 127 R 19 124 R 20 123 R 19 120 R 19 118 R 19 116 R
19 114 R 19 113 R 19 110 R 19 108 R 19 107 R 19 104 R 19 103 R 19 101 R
19 98 R 19 97 R 19 96 R 19 93 R 20 92 R 19 89 R 19 88 R 19 87 R 19 84 R
19 83 R 19 81 R 19 80 R 19 78 R 19 76 R 19 75 R 19 73 R 19 71 R 19 70 R
19 68 R 20 67 R 19 65 R 19 64 R 19 62 R 19 61 R 19 60 R 19 58 R 19 56 R
19 55 R 19 54 R 19 53 R 19 51 R 19 50 R 19 48 R 19 47 R 19 46 R 20 45 R
19 43 R 19 42 R 19 41 R 19 40 R 19 39 R 19 37 R 19 37 R 19 35 R 19 34 R
19 33 R 19 32 R 19 31 R 19 30 R 19 29 R 20 28 R 19 27 R 19 26 R 19 25 R
19 24 R 19 23 R 19 23 R 19 21 R 19 21 R 19 20 R 19 19 R 19 18 R 19 17 R
19 17 R 19 16 R 19 15 R 20 14 R 19 14 R 19 13 R 19 12 R 19 12 R 19 11 R
19 11 R 19 9 R 19 10 R 19 8 R 19 9 R 19 7 R 19 8 R 19 6 R 19 6 R 20 6 R
19 5 R 19 5 R 19 5 R 19 4 R 19 4 R 19 3 R 19 3 R 19 3 R 19 2 R 19 2 R 19 2 R
19 2 R 19 1 R 19 2 R 19 1 R 20 0 R 19 1 R 19 1 R 19 0 R 19 0 R 19 1 R 19 0 R
19 0 R 19 0 R 19 0 R 19 0 R 19 0 R 19 0 R 19 0 R 19 0 R 20 0 R 19 1 R 19 0 R
19 1 R 19 0 R 19 1 R 19 1 R 19 2 R 19 1 R 19 2 R 19 2 R 19 2 R 19 3 R 19 3 R
19 3 R 19 4 R 20 3 R 19 5 R 19 4 R 19 6 R 19 5 R 19 6 R 19 6 R 19 7 R 19 8 R
19 8 R 19 8 R 19 9 R 19 10 R 19 10 R 19 11 R 20 11 R 19 12 R 19 13 R 19 13 R
19 14 R 19 15 R 19 16 R 19 16 R 19 17 R 19 18 R 19 18 R 19 19 R 19 21 R
19 21 R 19 22 R 19 22 R 20 24 R 19 25 R 19 25 R 19 27 R 19 27 R 19 28 R
19 30 R 19 30 R 19 32 R 19 32 R 19 34 R 19 35 R 19 35 R 19 37 R 19 38 R
19 40 R 20 40 R 19 42 R 19 43 R 19 44 R 19 45 R 19 46 R 19 48 R 19 49 R
19 51 R 19 51 R 19 54 R 19 54 R 19 56 R 19 57 R 19 59 R 20 60 R 19 61 R
19 64 R 19 64 R 19 66 R 19 68 R 19 69 R 19 70 R 19 73 R 19 73 R 19 76 R
19 77 R 19 79 R 19 80 R 19 82 R 19 84 R 20 85 R 19 87 R 19 89 R 19 91 R
19 92 R 19 95 R 19 96 R 19 98 R 2 12 R D 4705 1408 M 17 514 R 72 1857 R
71 1535 R 72 1223 R 71 918 R 72 620 R 71 330 R 72 46 R 71 -229 R 72 -498 R
71 -761 R 72 -1016 R 71 -1266 R 72 -1508 R 71 -1745 R 0 -20 R D 4158 1408 M
64 899 R 67 873 R 66 798 R 67 725 R 67 655 R 66 586 R 67 519 R 67 455 R
67 392 R 66 332 R 67 273 R 67 216 R 67 161 R 66 108 R 67 57 R 67 7 R
66 -41 R 67 -87 R 67 -132 R 67 -174 R 66 -215 R 67 -255 R 67 -293 R
67 -329 R 66 -363 R 67 -397 R 67 -428 R 66 -458 R 67 -486 R 67 -514 R
67 -538 R 66 -562 R 67 -584 R 67 -605 R 62 -595 R D 11253 1408 M 42 1119 R
66 1892 R 67 1971 R 67 2052 R 67 2134 R 42 1420 R D 3825 1408 M 6 72 R
62 703 R 62 657 R 62 614 R 62 572 R 62 531 R 62 492 R 62 453 R 62 415 R
62 380 R 62 345 R 62 311 R 62 279 R 61 247 R 62 217 R 62 188 R 62 159 R
62 132 R 62 107 R 62 81 R 62 57 R 62 34 R 62 13 R 62 -9 R 62 -29 R 62 -47 R
62 -66 R 62 -83 R 62 -99 R 62 -114 R 62 -128 R 62 -142 R 62 -154 R 62 -165 R
62 -176 R 62 -185 R 62 -194 R 62 -202 R 61 -208 R 62 -214 R 62 -219 R
62 -223 R 62 -227 R 62 -228 R 62 -230 R 62 -230 R 62 -230 R 62 -228 R
62 -226 R 62 -223 R 62 -219 R 62 -213 R 62 -208 R 62 -201 R 62 -193 R
62 -185 R 62 -175 R 62 -164 R 62 -153 R 62 -141 R 62 -128 R 62 -113 R
61 -99 R 62 -83 R 62 -66 R 62 -48 R 62 -30 R 62 -10 R 62 10 R 62 31 R
62 54 R 62 77 R 62 101 R 62 125 R 62 152 R 62 178 R 62 205 R 62 234 R
62 264 R 62 294 R 62 324 R 62 357 R 62 390 R 62 423 R 62 458 R 62 494 R
62 529 R 61 567 R 62 605 R 62 644 R 62 684 R 62 724 R 62 766 R 62 807 R
62 851 R 6 89 R D 3084 1408 M 51 447 R 57 479 R 58 455 R 57 432 R 57 410 R
57 388 R 57 366 R 58 346 R 57 326 R 57 307 R 57 288 R 57 270 R 57 253 R
58 235 R 57 219 R 57 204 R 57 188 R 57 174 R 58 159 R 57 146 R 57 134 R
57 121 R 57 109 R 58 98 R 57 87 R 57 78 R 57 67 R 57 59 R 58 50 R 57 43 R
57 35 R 57 28 R 57 22 R 58 16 R 57 11 R 57 7 R 57 2 R 57 -2 R 58 -4 R
57 -7 R 57 -9 R 57 -11 R 57 -11 R 57 -12 R 58 -12 R 57 -11 R 57 -11 R
57 -8 R 57 -6 R 58 -4 R 57 0 R 57 3 R 57 8 R 57 12 R 58 18 R 57 23 R 57 30 R
57 36 R 57 44 R 58 52 R 57 61 R 57 69 R 57 78 R 57 89 R 58 99 R 57 110 R
57 122 R 57 133 R 57 146 R 57 160 R 58 172 R 57 187 R 57 202 R 57 216 R
57 232 R 58 249 R 57 265 R 57 282 R 57 300 R 42 239 R D 2888 1408 M 14 116 R
52 437 R 52 418 R 53 399 R 52 382 R 53 364 R 52 347 R 53 330 R 52 314 R
52 298 R 53 283 R 52 267 R 53 254 R 52 239 R 53 225 R 52 212 R 52 199 R
53 187 R 52 174 R 53 163 R 52 152 R 53 141 R 52 130 R 52 120 R 53 111 R
52 102 R 53 92 R 52 84 R 53 76 R 52 69 R 52 61 R 53 54 R 52 48 R 53 42 R
52 36 R 53 30 R 52 26 R 52 22 R 53 17 R 52 13 R 53 10 R 52 7 R 53 5 R 52 2 R
52 1 R 53 -1 R 52 -2 R 53 -3 R 52 -3 R 53 -2 R 52 -3 R 52 -1 R 53 0 R 52 1 R
53 4 R 52 6 R 53 8 R 52 12 R 52 16 R 53 19 R 52 24 R 53 28 R 52 33 R 53 39 R
52 45 R 52 51 R 53 57 R 52 65 R 53 71 R 52 80 R 53 87 R 52 97 R 52 105 R
53 114 R 52 124 R 53 133 R 52 145 R 53 155 R 52 166 R 52 178 R 53 189 R
52 202 R 53 215 R 52 227 R 52 241 R 53 255 R 52 269 R 15 83 R D 2689 1408 M
8 61 R 47 387 R 48 372 R 48 359 R 47 344 R 48 330 R 48 317 R 47 304 R
48 290 R 48 279 R 47 266 R 48 254 R 48 242 R 47 230 R 48 220 R 48 209 R
47 198 R 48 187 R 48 178 R 47 167 R 48 159 R 48 149 R 47 140 R 48 131 R
48 123 R 47 115 R 48 107 R 48 100 R 47 92 R 48 85 R 48 79 R 47 72 R 48 66 R
48 60 R 47 54 R 48 49 R 47 44 R 48 39 R 48 35 R 47 30 R 48 27 R 48 23 R
47 19 R 48 16 R 48 14 R 47 10 R 48 9 R 48 6 R 47 5 R 48 3 R 48 2 R 47 1 R
48 1 R 48 0 R 47 0 R 48 0 R 48 0 R 47 1 R 48 3 R 48 3 R 47 5 R 48 7 R 48 9 R
47 11 R 48 14 R 48 17 R 47 20 R 48 23 R 48 27 R 47 32 R 48 35 R 48 40 R
47 45 R 48 50 R 48 55 R 47 61 R 48 67 R 48 73 R 47 80 R 48 86 R 48 93 R
47 101 R 48 108 R 48 116 R 47 124 R 48 133 R 48 141 R 47 150 R 48 159 R
48 169 R 47 178 R 48 189 R 47 199 R 48 209 R 48 221 R 47 231 R 48 243 R
0 1 R D 2661 1408 M 31 253 R 43 341 R 43 329 R 43 318 R 43 307 R 42 296 R
43 285 R 43 274 R 43 264 R 43 254 R 43 244 R 43 234 R 43 224 R 43 216 R
42 205 R 43 197 R 43 189 R 43 179 R 43 171 R 43 163 R 43 155 R 43 148 R
43 139 R 43 133 R 42 125 R 43 118 R 43 112 R 43 104 R 43 99 R 43 92 R
43 87 R 43 80 R 43 75 R 42 70 R 43 64 R 43 60 R 43 54 R 43 51 R 43 45 R
43 42 R 43 38 R 43 33 R 43 31 R 42 27 R 43 23 R 43 21 R 43 18 R 43 15 R
43 13 R 43 11 R 43 9 R 43 7 R 42 6 R 43 4 R 43 3 R 43 2 R 43 1 R 43 1 R
43 0 R 43 0 R 43 0 R 43 0 R 42 1 R 43 1 R 43 2 R 43 3 R 43 4 R 43 6 R 43 7 R
43 9 R 43 11 R 42 13 R 43 16 R 43 18 R 43 21 R 43 24 R 43 28 R 43 30 R
43 34 R 43 38 R 43 42 R 42 47 R 43 50 R 43 55 R 43 60 R 43 65 R 43 70 R
43 75 R 43 81 R 43 87 R 42 93 R 43 99 R 43 105 R 43 112 R 43 119 R 43 125 R
43 133 R 43 140 R 43 148 R 43 155 R 42 164 R 43 171 R 43 180 R 43 189 R
43 197 R 43 206 R 43 215 R 15 80 R D 2638 1408 M 2 15 R 38 309 R 38 301 R
38 291 R 38 283 R 38 273 R 38 265 R 38 257 R 39 248 R 38 240 R 38 232 R
38 224 R 38 216 R 38 208 R 38 201 R 38 193 R 39 186 R 38 179 R 38 172 R
38 165 R 38 159 R 38 151 R 38 146 R 38 139 R 39 133 R 38 127 R 38 121 R
38 115 R 38 110 R 38 104 R 38 99 R 38 94 R 39 89 R 38 84 R 38 79 R 38 75 R
38 70 R 38 65 R 38 62 R 39 57 R 38 54 R 38 49 R 38 46 R 38 43 R 38 39 R
38 36 R 38 33 R 39 30 R 38 27 R 38 24 R 38 22 R 38 20 R 38 17 R 38 15 R
38 13 R 39 11 R 38 10 R 38 8 R 38 6 R 38 6 R 38 4 R 38 3 R 38 2 R 39 2 R
38 1 R 38 0 R 38 1 R 38 0 R 38 0 R 38 0 R 39 0 R 38 1 R 38 1 R 38 2 R 38 3 R
38 4 R 38 4 R 38 6 R 39 8 R 38 8 R 38 11 R 38 12 R 38 14 R 38 16 R 38 19 R
38 20 R 39 24 R 38 25 R 38 29 R 38 31 R 38 35 R 38 37 R 38 41 R 38 45 R
39 48 R 38 51 R 38 56 R 38 59 R 38 64 R 38 68 R 38 72 R 38 77 R 39 81 R
38 87 R 38 91 R 38 97 R 38 101 R 38 107 R 38 113 R 39 118 R 38 124 R
38 130 R 38 136 R 38 143 R 38 148 R 38 156 R 38 161 R 39 169 R 38 176 R
38 182 R 38 190 R 24 128 R D 2634 1408 M 20 156 R 33 267 R 34 261 R 33 254 R
33 247 R 34 240 R 33 234 R 33 227 R 34 220 R 33 215 R 33 208 R 34 201 R
33 196 R 34 190 R 33 184 R 33 178 R 34 172 R 33 167 R 33 161 R 34 155 R
33 151 R 33 145 R 34 140 R 33 135 R 34 130 R 33 125 R 33 120 R 34 116 R
33 111 R 33 106 R 34 103 R 33 97 R 33 94 R 34 89 R 33 86 R 33 81 R 34 78 R
33 74 R 34 70 R 33 67 R 33 63 R 34 60 R 33 56 R 33 54 R 34 50 R 33 47 R
33 44 R 34 42 R 33 38 R 34 36 R 33 34 R 33 31 R 34 29 R 33 26 R 33 25 R
34 22 R 33 20 R 33 18 R 34 17 R 33 15 R 34 13 R 33 12 R 33 10 R 34 9 R
33 8 R 33 6 R 34 6 R 33 4 R 33 4 R 34 3 R 33 2 R 34 1 R 33 1 R 33 1 R 34 1 R
33 0 R 33 0 R 34 0 R 33 0 R 33 0 R 34 0 R 33 1 R 34 2 R 33 1 R 33 3 R 34 3 R
33 4 R 33 4 R 34 6 R 33 7 R 33 8 R 34 9 R 33 11 R 34 12 R 33 14 R 33 15 R
34 17 R 33 19 R 33 21 R 34 23 R 33 25 R 33 27 R 34 29 R 33 32 R 34 34 R
33 37 R 33 40 R 34 42 R 33 45 R 33 48 R 34 51 R 33 55 R 33 57 R 34 61 R
33 64 R 33 68 R 34 71 R 33 75 R 34 79 R 33 83 R 33 86 R 34 91 R 33 95 R
33 99 R 34 103 R 33 108 R 33 112 R 34 117 R 33 122 R 34 126 R 33 132 R
33 136 R 34 142 R 33 146 R 33 152 R 34 158 R 33 162 R 33 169 R 13 70 R D
2632 1408 M 17 136 R 29 230 R 28 226 R 29 220 R 28 215 R 29 209 R 29 206 R
28 200 R 29 195 R 28 191 R 29 186 R 29 181 R 28 177 R 29 172 R 28 167 R
29 164 R 29 159 R 28 154 R 29 151 R 28 146 R 29 142 R 29 138 R 28 134 R
29 131 R 28 126 R 29 122 R 29 119 R 28 115 R 29 112 R 28 107 R 29 105 R
29 101 R 28 97 R 29 94 R 28 91 R 29 87 R 29 85 R 28 81 R 29 78 R 28 75 R
29 73 R 28 69 R 29 67 R 29 63 R 28 62 R 29 58 R 28 56 R 29 53 R 29 51 R
28 49 R 29 46 R 28 43 R 29 42 R 29 39 R 28 38 R 29 35 R 28 33 R 29 31 R
29 30 R 28 27 R 29 26 R 28 24 R 29 23 R 29 21 R 28 19 R 29 18 R 28 16 R
29 15 R 29 14 R 28 13 R 29 11 R 28 10 R 29 9 R 29 8 R 28 8 R 29 6 R 28 5 R
29 5 R 29 4 R 28 3 R 29 3 R 28 2 R 29 2 R 29 1 R 28 1 R 29 1 R 28 0 R 29 1 R
29 0 R 28 0 R 29 0 R 28 0 R 29 0 R 29 0 R 28 1 R 29 1 R 28 1 R 29 1 R 28 2 R
29 3 R 29 3 R 28 4 R 29 4 R 28 5 R 29 6 R 29 7 R 28 8 R 29 9 R 28 10 R
29 11 R 29 12 R 28 13 R 29 15 R 28 16 R 29 17 R 29 19 R 28 20 R 29 22 R
28 23 R 29 25 R 29 27 R 28 29 R 29 31 R 28 32 R 29 35 R 29 36 R 28 39 R
29 41 R 28 43 R 29 45 R 29 47 R 28 50 R 29 53 R 28 55 R 29 57 R 29 60 R
28 63 R 29 66 R 28 68 R 29 71 R 29 74 R 28 78 R 29 80 R 28 83 R 29 86 R
29 90 R 28 93 R 29 96 R 28 100 R 29 103 R 29 106 R 28 110 R 29 114 R
28 117 R 29 121 R 28 125 R 29 129 R 29 133 R 28 136 R 29 141 R 28 145 R
12 63 R D 2631 1408 M 18 139 R 24 192 R 24 188 R 24 185 R 23 182 R 24 178 R
24 175 R 24 171 R 24 168 R 24 164 R 23 161 R 24 158 R 24 154 R 24 152 R
24 148 R 23 145 R 24 142 R 24 139 R 24 135 R 24 133 R 24 130 R 23 127 R
24 123 R 24 121 R 24 119 R 24 115 R 24 112 R 23 110 R 24 107 R 24 105 R
24 102 R 24 99 R 24 96 R 23 94 R 24 92 R 24 89 R 24 87 R 24 84 R 24 82 R
23 79 R 24 78 R 24 74 R 24 73 R 24 71 R 24 68 R 23 66 R 24 64 R 24 62 R
24 60 R 24 58 R 24 56 R 23 54 R 24 53 R 24 50 R 24 49 R 24 46 R 24 45 R
23 43 R 24 42 R 24 40 R 24 38 R 24 37 R 24 35 R 23 33 R 24 32 R 24 31 R
24 29 R 24 28 R 24 26 R 23 26 R 24 23 R 24 23 R 24 21 R 24 21 R 23 19 R
24 18 R 24 16 R 24 16 R 24 15 R 24 14 R 23 12 R 24 12 R 24 11 R 24 11 R
24 9 R 24 9 R 23 7 R 24 7 R 24 7 R 24 6 R 24 5 R 24 5 R 23 4 R 24 3 R 24 3 R
24 3 R 24 2 R 24 2 R 23 2 R 24 1 R 24 1 R 24 1 R 24 0 R 24 0 R 23 1 R 24 0 R
24 0 R 24 0 R 24 0 R 24 0 R 23 0 R 24 0 R 24 0 R 24 1 R 24 1 R 24 1 R 23 1 R
24 1 R 24 2 R 24 2 R 24 3 R 24 3 R 23 4 R 24 4 R 24 4 R 24 6 R 24 5 R 23 7 R
24 7 R 24 8 R 24 8 R 24 10 R 24 10 R 23 11 R 24 12 R 24 13 R 24 13 R 24 15 R
24 16 R 23 17 R 24 18 R 24 19 R 24 20 R 24 21 R 24 23 R 23 23 R 24 25 R
24 27 R 24 28 R 24 29 R 24 30 R 23 32 R 24 34 R 24 35 R 24 37 R 24 38 R
24 40 R 23 41 R 24 43 R 24 45 R 24 47 R 24 49 R 24 50 R 23 52 R 24 54 R
24 56 R 24 58 R 24 60 R 24 62 R 23 64 R 24 66 R 24 68 R 24 71 R 24 73 R
24 75 R 23 77 R 24 79 R 24 82 R 24 84 R 24 87 R 24 89 R 23 91 R 24 94 R
24 97 R 24 99 R 24 102 R 23 104 R 24 107 R 24 110 R 24 112 R 24 116 R
24 118 R 23 121 R 12 62 R D 2632 1408 M 8 63 R 19 155 R 19 153 R 19 150 R
19 149 R 19 146 R 19 143 R 19 142 R 19 139 R 19 137 R 19 135 R 19 133 R
19 131 R 19 129 R 19 126 R 19 124 R 20 123 R 19 120 R 19 118 R 19 116 R
19 115 R 19 112 R 19 110 R 19 109 R 19 106 R 19 104 R 19 103 R 19 101 R
19 99 R 19 97 R 19 95 R 19 93 R 20 92 R 19 89 R 19 89 R 19 86 R 19 84 R
19 83 R 19 81 R 19 80 R 19 78 R 19 76 R 19 75 R 19 73 R 19 71 R 19 70 R
19 68 R 20 67 R 19 65 R 19 64 R 19 63 R 19 60 R 19 60 R 19 58 R 19 56 R
19 56 R 19 53 R 19 53 R 19 51 R 19 50 R 19 48 R 19 47 R 19 46 R 20 45 R
19 43 R 19 42 R 19 41 R 19 40 R 19 39 R 19 37 R 19 37 R 19 35 R 19 34 R
19 33 R 19 32 R 19 31 R 19 30 R 19 29 R 20 28 R 19 27 R 19 26 R 19 25 R
19 24 R 19 23 R 19 23 R 19 21 R 19 21 R 19 20 R 19 19 R 19 18 R 19 17 R
19 17 R 19 16 R 19 15 R 20 14 R 19 14 R 19 13 R 19 12 R 19 12 R 19 11 R
19 11 R 19 9 R 19 10 R 19 8 R 19 9 R 19 7 R 19 8 R 19 6 R 19 6 R 20 6 R
19 5 R 19 5 R 19 5 R 19 4 R 19 4 R 19 3 R 19 3 R 19 3 R 19 2 R 19 2 R 19 2 R
19 2 R 19 1 R 19 2 R 19 1 R 20 0 R 19 1 R 19 1 R 19 0 R 19 0 R 19 1 R 19 0 R
19 0 R 19 0 R 19 0 R 19 0 R 19 0 R 19 0 R 19 0 R 19 0 R 20 0 R 19 1 R 19 0 R
19 1 R 19 0 R 19 1 R 19 1 R 19 2 R 19 1 R 19 2 R 19 2 R 19 2 R 19 3 R 19 3 R
19 3 R 19 4 R 20 3 R 19 5 R 19 4 R 19 6 R 19 5 R 19 6 R 19 6 R 19 7 R 19 8 R
19 8 R 19 8 R 19 9 R 19 10 R 19 10 R 19 11 R 20 11 R 19 12 R 19 13 R 19 13 R
19 14 R 19 15 R 19 16 R 19 16 R 19 17 R 19 18 R 19 18 R 19 19 R 19 21 R
19 21 R 19 22 R 19 22 R 20 24 R 19 25 R 19 25 R 19 27 R 19 27 R 19 29 R
19 29 R 19 30 R 19 32 R 19 32 R 19 34 R 19 35 R 19 36 R 19 36 R 19 39 R
19 39 R 20 40 R 19 42 R 19 43 R 19 44 R 19 45 R 19 46 R 19 48 R 19 49 R
19 51 R 19 52 R 19 53 R 19 54 R 19 56 R 19 57 R 19 59 R 20 60 R 19 62 R
19 63 R 19 64 R 19 66 R 19 68 R 19 69 R 19 70 R 19 73 R 19 73 R 19 76 R
19 77 R 19 79 R 19 80 R 19 82 R 19 84 R 20 85 R 19 87 R 19 89 R 19 91 R
19 92 R 19 95 R 19 96 R 19 98 R 2 12 R D 4428 1408 M 8 149 R 72 1292 R
71 1148 R 72 1007 R 71 871 R 72 738 R 71 609 R 72 484 R 71 362 R 72 245 R
71 129 R 72 19 R 71 -90 R 72 -194 R 71 -296 R 72 -394 R 71 -489 R 72 -582 R
71 -671 R 72 -756 R 71 -840 R 72 -921 R 71 -997 R 55 -823 R D 13798 1408 M
4 216 R 71 4994 R 72 5128 R 3 250 R D 3700 1408 M 55 585 R 66 675 R 67 630 R
67 586 R 67 543 R 66 502 R 67 463 R 67 424 R 67 388 R 66 352 R 67 317 R
67 285 R 66 253 R 67 222 R 67 193 R 67 165 R 66 139 R 67 113 R 67 88 R
67 66 R 66 43 R 67 23 R 67 3 R 66 -16 R 67 -34 R 67 -49 R 67 -65 R 66 -79 R
67 -92 R 67 -104 R 67 -115 R 66 -125 R 67 -133 R 67 -141 R 66 -148 R
67 -153 R 67 -158 R 67 -161 R 66 -163 R 67 -165 R 67 -165 R 66 -164 R
67 -162 R 67 -159 R 67 -156 R 66 -150 R 67 -144 R 67 -137 R 67 -129 R
66 -120 R 67 -110 R 67 -98 R 66 -86 R 67 -73 R 67 -58 R 67 -43 R 66 -26 R
67 -9 R 67 10 R 67 30 R 66 50 R 67 72 R 67 95 R 66 119 R 67 143 R 67 169 R
67 197 R 66 224 R 67 254 R 67 283 R 67 315 R 66 346 R 67 380 R 67 415 R
66 449 R 67 486 R 67 523 R 67 561 R 66 601 R 67 640 R 67 683 R 34 375 R D
3358 1408 M 39 373 R 62 562 R 62 530 R 62 499 R 62 469 R 62 440 R 62 413 R
62 386 R 62 359 R 62 335 R 62 310 R 62 286 R 62 264 R 62 243 R 62 221 R
62 201 R 62 183 R 62 163 R 62 147 R 62 129 R 61 114 R 62 98 R 62 84 R
62 70 R 62 58 R 62 45 R 62 34 R 62 24 R 62 14 R 62 5 R 62 -4 R 62 -11 R
62 -17 R 62 -24 R 62 -29 R 62 -33 R 62 -37 R 62 -41 R 62 -42 R 62 -44 R
62 -45 R 62 -46 R 62 -44 R 62 -44 R 62 -41 R 61 -39 R 62 -35 R 62 -30 R
62 -26 R 62 -21 R 62 -14 R 62 -7 R 62 1 R 62 10 R 62 18 R 62 29 R 62 39 R
62 50 R 62 63 R 62 75 R 62 89 R 62 103 R 62 118 R 62 134 R 62 150 R 62 168 R
62 185 R 62 203 R 62 223 R 61 243 R 62 263 R 62 285 R 62 307 R 62 330 R
62 353 R 62 378 R 59 386 R D 2838 1408 M 11 89 R 57 473 R 58 451 R 57 429 R
57 408 R 57 388 R 57 368 R 58 348 R 57 330 R 57 312 R 57 294 R 57 277 R
58 260 R 57 244 R 57 229 R 57 213 R 57 199 R 57 185 R 58 172 R 57 158 R
57 147 R 57 134 R 57 122 R 58 112 R 57 101 R 57 92 R 57 82 R 57 73 R 58 65 R
57 56 R 57 50 R 57 42 R 57 36 R 58 31 R 57 24 R 57 20 R 57 16 R 57 11 R
58 9 R 57 5 R 57 3 R 57 1 R 57 -1 R 58 -1 R 57 -2 R 57 -2 R 57 -1 R 57 -1 R
57 1 R 58 4 R 57 5 R 57 9 R 57 12 R 57 16 R 58 21 R 57 25 R 57 31 R 57 37 R
57 43 R 58 50 R 57 58 R 57 65 R 57 74 R 57 83 R 58 92 R 57 101 R 57 112 R
57 123 R 57 134 R 58 146 R 57 158 R 57 171 R 57 184 R 57 198 R 57 212 R
58 227 R 57 242 R 57 257 R 57 274 R 57 291 R 15 81 R D 2740 1408 M 4 26 R
53 430 R 52 412 R 53 394 R 52 377 R 52 360 R 53 344 R 52 328 R 53 312 R
52 297 R 53 282 R 52 268 R 52 253 R 53 240 R 52 227 R 53 214 R 52 201 R
53 189 R 52 178 R 52 166 R 53 155 R 52 144 R 53 134 R 52 125 R 53 115 R
52 105 R 52 97 R 53 89 R 52 81 R 53 73 R 52 66 R 53 59 R 52 52 R 52 47 R
53 40 R 52 36 R 53 30 R 52 26 R 53 22 R 52 17 R 52 15 R 53 11 R 52 8 R
53 6 R 52 4 R 53 2 R 52 1 R 52 1 R 53 -1 R 52 0 R 53 0 R 52 0 R 53 1 R
52 3 R 52 4 R 53 7 R 52 9 R 53 11 R 52 15 R 53 19 R 52 22 R 52 26 R 53 32 R
52 36 R 53 42 R 52 47 R 53 54 R 52 60 R 52 66 R 53 75 R 52 81 R 53 90 R
52 98 R 53 107 R 52 115 R 52 126 R 53 135 R 52 145 R 53 155 R 52 167 R
53 178 R 52 190 R 52 201 R 53 214 R 52 227 R 53 240 R 52 253 R 52 267 R
2 12 R D 2654 1408 M 43 341 R 47 375 R 48 360 R 48 346 R 47 333 R 48 319 R
48 307 R 47 293 R 48 281 R 48 269 R 47 256 R 48 245 R 48 234 R 47 222 R
48 211 R 48 201 R 47 190 R 48 181 R 48 170 R 47 161 R 48 152 R 48 143 R
47 134 R 48 126 R 48 117 R 47 110 R 48 102 R 48 95 R 47 87 R 48 81 R 48 75 R
47 68 R 48 62 R 48 56 R 47 51 R 48 46 R 47 41 R 48 37 R 48 32 R 47 28 R
48 24 R 48 21 R 47 18 R 48 14 R 48 12 R 47 10 R 48 7 R 48 6 R 47 4 R 48 2 R
48 2 R 47 0 R 48 1 R 48 0 R 47 0 R 48 0 R 48 1 R 47 2 R 48 3 R 48 4 R 47 6 R
48 8 R 48 10 R 47 13 R 48 15 R 48 19 R 47 22 R 48 25 R 48 29 R 47 33 R
48 38 R 48 43 R 47 47 R 48 52 R 48 58 R 47 64 R 48 70 R 48 76 R 47 83 R
48 89 R 48 97 R 47 104 R 48 112 R 48 119 R 47 128 R 48 137 R 48 145 R
47 154 R 48 163 R 48 173 R 47 183 R 48 193 R 47 203 R 48 214 R 48 225 R
47 236 R 25 133 R D 2643 1408 M 6 47 R 43 347 R 43 335 R 43 324 R 43 313 R
43 301 R 42 291 R 43 280 R 43 270 R 43 259 R 43 249 R 43 240 R 43 230 R
43 220 R 43 211 R 42 202 R 43 194 R 43 184 R 43 176 R 43 168 R 43 160 R
43 152 R 43 144 R 43 137 R 43 129 R 42 122 R 43 116 R 43 109 R 43 102 R
43 96 R 43 91 R 43 84 R 43 78 R 43 73 R 42 68 R 43 63 R 43 57 R 43 53 R
43 49 R 43 44 R 43 41 R 43 36 R 43 32 R 43 30 R 42 25 R 43 23 R 43 20 R
43 17 R 43 15 R 43 12 R 43 10 R 43 8 R 43 7 R 42 5 R 43 4 R 43 2 R 43 2 R
43 1 R 43 1 R 43 0 R 43 0 R 43 0 R 43 0 R 42 1 R 43 1 R 43 3 R 43 3 R 43 5 R
43 6 R 43 8 R 43 9 R 43 12 R 42 14 R 43 16 R 43 19 R 43 22 R 43 25 R 43 28 R
43 32 R 43 35 R 43 39 R 43 43 R 42 48 R 43 51 R 43 57 R 43 61 R 43 66 R
43 72 R 43 76 R 43 83 R 43 88 R 42 94 R 43 101 R 43 107 R 43 113 R 43 121 R
43 127 R 43 135 R 43 142 R 43 149 R 43 157 R 42 166 R 43 173 R 43 182 R
43 191 R 43 199 R 43 208 R 43 217 R 4 24 R D 2634 1408 M 6 44 R 38 309 R
38 299 R 38 291 R 38 281 R 38 273 R 38 264 R 38 256 R 39 247 R 38 239 R
38 231 R 38 223 R 38 215 R 38 208 R 38 200 R 38 192 R 39 186 R 38 178 R
38 171 R 38 165 R 38 158 R 38 151 R 38 145 R 38 138 R 39 133 R 38 126 R
38 121 R 38 115 R 38 109 R 38 104 R 38 98 R 38 94 R 39 88 R 38 83 R 38 79 R
38 74 R 38 70 R 38 65 R 38 61 R 39 57 R 38 54 R 38 49 R 38 46 R 38 42 R
38 39 R 38 36 R 38 32 R 39 30 R 38 27 R 38 24 R 38 22 R 38 19 R 38 17 R
38 15 R 38 13 R 39 11 R 38 9 R 38 8 R 38 7 R 38 5 R 38 4 R 38 3 R 38 3 R
39 1 R 38 1 R 38 0 R 38 1 R 38 0 R 38 0 R 38 0 R 39 0 R 38 1 R 38 1 R 38 2 R
38 3 R 38 4 R 38 5 R 38 6 R 39 7 R 38 9 R 38 11 R 38 12 R 38 14 R 38 17 R
38 18 R 38 21 R 39 23 R 38 26 R 38 29 R 38 31 R 38 35 R 38 38 R 38 41 R
38 45 R 39 48 R 38 52 R 38 55 R 38 60 R 38 64 R 38 68 R 38 73 R 38 77 R
39 82 R 38 86 R 38 92 R 38 97 R 38 102 R 38 107 R 38 113 R 39 118 R 38 125 R
38 130 R 38 137 R 38 142 R 38 149 R 38 156 R 38 162 R 39 169 R 38 176 R
38 183 R 38 190 R 22 117 R D 2632 1408 M 22 170 R 33 268 R 34 260 R 33 253 R
33 247 R 34 240 R 33 233 R 33 226 R 34 221 R 33 213 R 33 208 R 34 201 R
33 196 R 34 189 R 33 184 R 33 177 R 34 172 R 33 167 R 33 160 R 34 156 R
33 150 R 33 145 R 34 140 R 33 134 R 34 130 R 33 125 R 33 120 R 34 115 R
33 111 R 33 106 R 34 102 R 33 98 R 33 93 R 34 89 R 33 86 R 33 81 R 34 77 R
33 74 R 34 70 R 33 67 R 33 63 R 34 59 R 33 57 R 33 53 R 34 50 R 33 47 R
33 44 R 34 41 R 33 39 R 34 36 R 33 33 R 33 31 R 34 29 R 33 26 R 33 25 R
34 22 R 33 20 R 33 18 R 34 17 R 33 14 R 34 13 R 33 12 R 33 10 R 34 9 R
33 8 R 33 6 R 34 6 R 33 4 R 33 4 R 34 3 R 33 2 R 34 1 R 33 1 R 33 1 R 34 1 R
33 0 R 33 0 R 34 0 R 33 0 R 33 0 R 34 1 R 33 0 R 34 2 R 33 1 R 33 3 R 34 3 R
33 4 R 33 5 R 34 5 R 33 7 R 33 8 R 34 10 R 33 11 R 34 12 R 33 14 R 33 15 R
34 17 R 33 19 R 33 21 R 34 23 R 33 25 R 33 27 R 34 29 R 33 32 R 34 35 R
33 37 R 33 39 R 34 43 R 33 45 R 33 48 R 34 51 R 33 55 R 33 57 R 34 61 R
33 64 R 33 68 R 34 72 R 33 75 R 34 79 R 33 82 R 33 87 R 34 91 R 33 95 R
33 99 R 34 104 R 33 108 R 33 112 R 34 117 R 33 122 R 34 127 R 33 131 R
33 137 R 34 141 R 33 147 R 33 152 R 34 158 R 33 163 R 33 168 R 12 65 R D
2631 1408 M 18 139 R 29 230 R 28 225 R 29 220 R 28 215 R 29 210 R 29 205 R
28 200 R 29 195 R 28 191 R 29 186 R 29 181 R 28 177 R 29 172 R 28 167 R
29 164 R 29 158 R 28 155 R 29 151 R 28 146 R 29 142 R 29 138 R 28 134 R
29 130 R 28 126 R 29 123 R 29 119 R 28 115 R 29 111 R 28 108 R 29 104 R
29 101 R 28 97 R 29 94 R 28 91 R 29 87 R 29 85 R 28 81 R 29 78 R 28 75 R
29 72 R 28 70 R 29 66 R 29 64 R 28 61 R 29 59 R 28 55 R 29 54 R 29 51 R
28 48 R 29 46 R 28 44 R 29 41 R 29 40 R 28 37 R 29 35 R 28 34 R 29 31 R
29 29 R 28 28 R 29 25 R 28 25 R 29 22 R 29 21 R 28 19 R 29 18 R 28 16 R
29 15 R 29 14 R 28 13 R 29 11 R 28 10 R 29 9 R 29 8 R 28 8 R 29 6 R 28 5 R
29 5 R 29 4 R 28 3 R 29 3 R 28 2 R 29 2 R 29 1 R 28 1 R 29 1 R 28 0 R 29 1 R
29 0 R 28 0 R 29 0 R 28 0 R 29 0 R 29 0 R 28 1 R 29 1 R 28 1 R 29 1 R 28 2 R
29 3 R 29 3 R 28 4 R 29 4 R 28 6 R 29 6 R 29 6 R 28 8 R 29 9 R 28 10 R
29 11 R 29 12 R 28 13 R 29 15 R 28 16 R 29 17 R 29 19 R 28 20 R 29 22 R
28 24 R 29 25 R 29 27 R 28 28 R 29 31 R 28 32 R 29 35 R 29 36 R 28 39 R
29 41 R 28 43 R 29 45 R 29 48 R 28 50 R 29 52 R 28 55 R 29 58 R 29 60 R
28 63 R 29 65 R 28 69 R 29 71 R 29 74 R 28 77 R 29 80 R 28 84 R 29 86 R
29 90 R 28 93 R 29 96 R 28 99 R 29 103 R 29 107 R 28 110 R 29 114 R 28 117 R
29 121 R 28 125 R 29 129 R 29 133 R 28 136 R 29 141 R 28 145 R 12 62 R D
2631 1408 M 18 140 R 24 192 R 24 189 R 24 185 R 23 181 R 24 178 R 24 175 R
24 171 R 24 168 R 24 164 R 23 161 R 24 158 R 24 154 R 24 152 R 24 148 R
23 145 R 24 142 R 24 138 R 24 136 R 24 133 R 24 130 R 23 126 R 24 124 R
24 121 R 24 118 R 24 116 R 24 112 R 23 110 R 24 107 R 24 105 R 24 101 R
24 99 R 24 97 R 23 94 R 24 92 R 24 89 R 24 86 R 24 84 R 24 82 R 23 80 R
24 77 R 24 75 R 24 73 R 24 70 R 24 68 R 23 67 R 24 64 R 24 62 R 24 60 R
24 58 R 24 56 R 23 54 R 24 52 R 24 50 R 24 49 R 24 47 R 24 44 R 23 44 R
24 41 R 24 40 R 24 38 R 24 37 R 24 35 R 23 34 R 24 32 R 24 30 R 24 29 R
24 28 R 24 27 R 23 25 R 24 24 R 24 22 R 24 22 R 24 20 R 23 19 R 24 18 R
24 16 R 24 16 R 24 15 R 24 14 R 23 13 R 24 11 R 24 11 R 24 11 R 24 9 R
24 9 R 23 7 R 24 8 R 24 6 R 24 6 R 24 5 R 24 5 R 23 4 R 24 3 R 24 3 R 24 3 R
24 2 R 24 2 R 23 2 R 24 1 R 24 1 R 24 1 R 24 0 R 24 0 R 23 1 R 24 0 R 24 0 R
24 0 R 24 0 R 24 0 R 23 0 R 24 0 R 24 0 R 24 1 R 24 1 R 24 1 R 23 1 R 24 1 R
24 2 R 24 2 R 24 3 R 24 3 R 23 4 R 24 4 R 24 4 R 24 6 R 24 5 R 23 7 R 24 7 R
24 8 R 24 8 R 24 10 R 24 10 R 23 11 R 24 12 R 24 13 R 24 13 R 24 15 R
24 16 R 23 17 R 24 18 R 24 19 R 24 20 R 24 21 R 24 23 R 23 24 R 24 25 R
24 26 R 24 28 R 24 29 R 24 31 R 23 32 R 24 33 R 24 35 R 24 37 R 24 38 R
24 40 R 23 41 R 24 44 R 24 45 R 24 46 R 24 49 R 24 50 R 23 52 R 24 54 R
24 56 R 24 58 R 24 60 R 24 62 R 23 64 R 24 67 R 24 68 R 24 70 R 24 73 R
24 75 R 23 77 R 24 80 R 24 81 R 24 85 R 24 86 R 24 89 R 23 92 R 24 94 R
24 96 R 24 99 R 24 102 R 23 105 R 24 107 R 24 109 R 24 113 R 24 115 R
24 118 R 23 121 R 12 62 R D 2632 1408 M 8 63 R 19 155 R 19 153 R 19 151 R
19 148 R 19 146 R 19 144 R 19 141 R 19 140 R 19 137 R 19 135 R 19 133 R
19 130 R 19 129 R 19 126 R 19 125 R 20 122 R 19 120 R 19 118 R 19 117 R
19 114 R 19 112 R 19 110 R 19 109 R 19 106 R 19 105 R 19 102 R 19 101 R
19 99 R 19 97 R 19 95 R 19 93 R 20 92 R 19 90 R 19 88 R 19 86 R 19 85 R
19 82 R 19 82 R 19 79 R 19 78 R 19 76 R 19 75 R 19 73 R 19 71 R 19 70 R
19 69 R 20 66 R 19 66 R 19 63 R 19 63 R 19 61 R 19 59 R 19 58 R 19 56 R
19 56 R 19 53 R 19 53 R 19 51 R 19 50 R 19 48 R 19 47 R 19 46 R 20 45 R
19 43 R 19 43 R 19 41 R 19 39 R 19 39 R 19 37 R 19 37 R 19 35 R 19 34 R
19 33 R 19 32 R 19 31 R 19 30 R 19 29 R 20 28 R 19 27 R 19 26 R 19 25 R
19 24 R 19 24 R 19 22 R 19 21 R 19 21 R 19 20 R 19 19 R 19 18 R 19 17 R
19 17 R 19 16 R 19 15 R 20 14 R 19 14 R 19 13 R 19 12 R 19 12 R 19 11 R
19 11 R 19 9 R 19 10 R 19 8 R 19 9 R 19 7 R 19 8 R 19 6 R 19 6 R 20 6 R
19 5 R 19 5 R 19 5 R 19 4 R 19 4 R 19 3 R 19 3 R 19 3 R 19 2 R 19 2 R 19 2 R
19 2 R 19 1 R 19 2 R 19 1 R 20 0 R 19 1 R 19 1 R 19 0 R 19 0 R 19 1 R 19 0 R
19 0 R 19 0 R 19 0 R 19 0 R 19 0 R 19 0 R 19 0 R 19 0 R 20 0 R 19 1 R 19 0 R
19 1 R 19 0 R 19 1 R 19 1 R 19 2 R 19 1 R 19 2 R 19 2 R 19 2 R 19 3 R 19 3 R
19 3 R 19 4 R 20 3 R 19 5 R 19 4 R 19 6 R 19 5 R 19 6 R 19 7 R 19 6 R 19 8 R
19 8 R 19 8 R 19 9 R 19 10 R 19 10 R 19 11 R 20 11 R 19 12 R 19 13 R 19 13 R
19 14 R 19 15 R 19 16 R 19 16 R 19 17 R 19 18 R 19 18 R 19 19 R 19 21 R
19 21 R 19 22 R 19 22 R 20 24 R 19 25 R 19 25 R 19 27 R 19 27 R 19 29 R
19 29 R 19 30 R 19 32 R 19 32 R 19 34 R 19 35 R 19 36 R 19 37 R 19 38 R
19 39 R 20 40 R 19 42 R 19 43 R 19 44 R 19 45 R 19 46 R 19 48 R 19 49 R
19 51 R 19 52 R 19 53 R 19 54 R 19 56 R 19 57 R 19 59 R 20 60 R 19 62 R
19 63 R 19 64 R 19 66 R 19 68 R 19 69 R 19 71 R 19 72 R 19 74 R 19 75 R
19 77 R 19 79 R 19 80 R 19 82 R 19 84 R 20 85 R 19 87 R 19 89 R 19 91 R
19 93 R 19 94 R 19 96 R 19 98 R 2 12 R D 3928 1408 M 8 93 R 71 854 R
72 788 R 71 725 R 72 663 R 71 604 R 72 546 R 71 491 R 72 438 R 71 387 R
72 336 R 71 290 R 72 243 R 71 200 R 72 157 R 71 117 R 72 78 R 71 41 R 72 6 R
71 -28 R 72 -60 R 71 -90 R 72 -119 R 71 -146 R 72 -172 R 71 -196 R 72 -218 R
71 -239 R 72 -258 R 71 -276 R 72 -292 R 71 -307 R 72 -320 R 71 -332 R
72 -342 R 71 -351 R 72 -357 R 71 -364 R 72 -367 R 71 -371 R 72 -371 R
71 -371 R 72 -369 R 71 -366 R 71 -361 R 2 -14 R D 9373 1408 M 68 596 R
71 687 R 72 744 R 71 802 R 72 860 R 71 920 R 72 981 R 71 1044 R 72 1109 R
71 1173 R 72 1240 R 23 432 R D 3159 1408 M 62 544 R 67 561 R 66 528 R
67 496 R 67 465 R 67 435 R 66 406 R 67 379 R 67 351 R 66 326 R 67 302 R
67 277 R 67 254 R 66 233 R 67 212 R 67 191 R 67 173 R 66 154 R 67 138 R
67 121 R 66 105 R 67 91 R 67 78 R 67 65 R 66 53 R 67 42 R 67 32 R 67 23 R
66 15 R 67 7 R 67 1 R 66 -4 R 67 -10 R 67 -13 R 67 -17 R 66 -19 R 67 -20 R
67 -20 R 67 -21 R 66 -19 R 67 -17 R 67 -14 R 66 -10 R 67 -6 R 67 -1 R 67 6 R
66 13 R 67 21 R 67 30 R 66 39 R 67 50 R 67 61 R 67 73 R 66 87 R 67 100 R
67 114 R 67 130 R 66 147 R 67 164 R 67 181 R 66 201 R 67 220 R 67 241 R
67 262 R 66 285 R 67 307 R 67 331 R 67 356 R 52 302 R D 2938 1408 M 26 225 R
62 513 R 62 487 R 61 461 R 62 436 R 62 412 R 62 388 R 62 365 R 62 343 R
62 322 R 62 301 R 62 281 R 62 261 R 62 243 R 62 225 R 62 208 R 62 192 R
62 175 R 62 161 R 62 146 R 62 132 R 62 119 R 62 107 R 62 94 R 62 84 R
62 73 R 62 64 R 61 54 R 62 46 R 62 38 R 62 31 R 62 25 R 62 18 R 62 13 R
62 9 R 62 5 R 62 2 R 62 -1 R 62 -3 R 62 -5 R 62 -5 R 62 -5 R 62 -4 R 62 -3 R
62 -2 R 62 1 R 62 5 R 62 8 R 62 12 R 62 18 R 62 23 R 62 30 R 61 36 R 62 44 R
62 53 R 62 61 R 62 71 R 62 81 R 62 91 R 62 103 R 62 115 R 62 128 R 62 141 R
62 155 R 62 170 R 62 184 R 62 201 R 62 217 R 62 234 R 62 252 R 62 270 R
62 290 R 62 308 R 47 255 R D 2702 1408 M 33 270 R 57 454 R 57 433 R 57 413 R
58 394 R 57 374 R 57 355 R 57 336 R 57 319 R 58 302 R 57 285 R 57 268 R
57 253 R 57 237 R 58 222 R 57 208 R 57 194 R 57 181 R 57 167 R 57 156 R
58 143 R 57 132 R 57 120 R 57 110 R 57 101 R 58 90 R 57 82 R 57 72 R 57 65 R
57 57 R 58 50 R 57 44 R 57 37 R 57 31 R 57 26 R 58 21 R 57 18 R 57 13 R
57 10 R 57 7 R 58 4 R 57 3 R 57 1 R 57 1 R 57 0 R 58 -1 R 57 1 R 57 1 R
57 3 R 57 4 R 57 7 R 58 10 R 57 14 R 57 17 R 57 21 R 57 26 R 58 31 R 57 37 R
57 43 R 57 50 R 57 57 R 58 64 R 57 73 R 57 81 R 57 90 R 57 100 R 58 109 R
57 120 R 57 131 R 57 143 R 57 154 R 58 167 R 57 179 R 57 193 R 57 206 R
57 221 R 57 235 R 58 251 R 57 266 R 57 283 R 27 142 R D 2668 1408 M 24 200 R
52 418 R 53 400 R 52 384 R 53 366 R 52 351 R 52 335 R 53 319 R 52 304 R
53 289 R 52 275 R 53 261 R 52 248 R 52 234 R 53 221 R 52 208 R 53 197 R
52 184 R 53 173 R 52 162 R 52 152 R 53 141 R 52 131 R 53 121 R 52 112 R
53 104 R 52 95 R 52 86 R 53 79 R 52 72 R 53 64 R 52 58 R 53 52 R 52 45 R
52 40 R 53 35 R 52 30 R 53 25 R 52 21 R 53 18 R 52 14 R 52 11 R 53 9 R
52 6 R 53 4 R 52 3 R 53 1 R 52 1 R 52 0 R 53 0 R 52 0 R 53 1 R 52 2 R 53 3 R
52 5 R 52 6 R 53 10 R 52 12 R 53 15 R 52 19 R 53 23 R 52 27 R 52 31 R
53 37 R 52 41 R 53 48 R 52 53 R 53 60 R 52 67 R 52 74 R 53 82 R 52 89 R
53 98 R 52 106 R 53 115 R 52 124 R 52 135 R 53 144 R 52 154 R 53 166 R
52 176 R 53 188 R 52 200 R 52 212 R 53 225 R 52 238 R 53 251 R 52 265 R
5 27 R D 2639 1408 M 10 82 R 48 383 R 47 369 R 48 355 R 48 341 R 47 328 R
48 314 R 48 302 R 47 289 R 48 276 R 48 265 R 47 252 R 48 241 R 48 230 R
47 218 R 48 208 R 48 197 R 47 187 R 48 177 R 48 168 R 47 158 R 48 149 R
48 140 R 47 131 R 48 124 R 48 115 R 47 107 R 48 100 R 48 92 R 47 86 R
48 79 R 48 73 R 47 66 R 48 60 R 48 55 R 47 50 R 48 45 R 47 39 R 48 36 R
48 31 R 47 27 R 48 23 R 48 20 R 47 17 R 48 14 R 48 11 R 47 9 R 48 7 R 48 5 R
47 3 R 48 3 R 48 1 R 47 1 R 48 0 R 48 0 R 47 0 R 48 0 R 48 1 R 47 3 R 48 3 R
48 5 R 47 6 R 48 8 R 48 11 R 47 13 R 48 17 R 48 19 R 47 22 R 48 26 R 48 31 R
47 34 R 48 39 R 48 43 R 47 48 R 48 54 R 48 59 R 47 65 R 48 72 R 48 77 R
47 84 R 48 91 R 48 98 R 47 106 R 48 113 R 48 121 R 47 130 R 48 138 R
48 147 R 47 155 R 48 166 R 48 174 R 47 185 R 48 195 R 47 205 R 48 216 R
48 227 R 47 238 R 16 84 R D 2635 1408 M 14 111 R 43 345 R 43 333 R 43 321 R
43 311 R 43 299 R 42 288 R 43 278 R 43 268 R 43 257 R 43 248 R 43 237 R
43 228 R 43 219 R 43 209 R 42 200 R 43 192 R 43 183 R 43 174 R 43 167 R
43 158 R 43 151 R 43 142 R 43 136 R 43 128 R 42 121 R 43 115 R 43 107 R
43 102 R 43 95 R 43 89 R 43 83 R 43 78 R 43 72 R 42 67 R 43 62 R 43 57 R
43 52 R 43 48 R 43 43 R 43 40 R 43 36 R 43 32 R 43 28 R 42 26 R 43 22 R
43 20 R 43 16 R 43 15 R 43 12 R 43 9 R 43 8 R 43 7 R 42 5 R 43 3 R 43 3 R
43 1 R 43 1 R 43 1 R 43 0 R 43 0 R 43 0 R 43 0 R 42 1 R 43 2 R 43 2 R 43 4 R
43 5 R 43 6 R 43 8 R 43 10 R 43 12 R 42 14 R 43 17 R 43 19 R 43 22 R 43 26 R
43 28 R 43 32 R 43 36 R 43 39 R 43 44 R 42 48 R 43 52 R 43 57 R 43 62 R
43 67 R 43 72 R 43 77 R 43 83 R 43 89 R 42 95 R 43 101 R 43 108 R 43 114 R
43 121 R 43 128 R 43 136 R 43 142 R 43 151 R 43 158 R 42 166 R 43 174 R
43 183 R 43 192 R 43 200 R 43 209 R 42 217 R D 2632 1408 M 8 57 R 38 308 R
38 299 R 38 290 R 38 282 R 38 272 R 38 264 R 38 255 R 39 247 R 38 238 R
38 231 R 38 223 R 38 214 R 38 208 R 38 199 R 38 193 R 39 185 R 38 178 R
38 171 R 38 164 R 38 157 R 38 151 R 38 145 R 38 138 R 39 132 R 38 127 R
38 120 R 38 115 R 38 109 R 38 103 R 38 99 R 38 93 R 39 88 R 38 83 R 38 79 R
38 74 R 38 69 R 38 65 R 38 61 R 39 57 R 38 53 R 38 50 R 38 45 R 38 42 R
38 39 R 38 36 R 38 32 R 39 30 R 38 27 R 38 24 R 38 21 R 38 19 R 38 17 R
38 15 R 38 13 R 39 11 R 38 10 R 38 8 R 38 6 R 38 5 R 38 4 R 38 3 R 38 3 R
39 1 R 38 1 R 38 1 R 38 0 R 38 0 R 38 0 R 38 0 R 39 0 R 38 1 R 38 1 R 38 2 R
38 3 R 38 4 R 38 5 R 38 6 R 39 7 R 38 9 R 38 11 R 38 12 R 38 15 R 38 16 R
38 19 R 38 21 R 39 23 R 38 26 R 38 29 R 38 31 R 38 35 R 38 38 R 38 41 R
38 45 R 39 48 R 38 52 R 38 56 R 38 60 R 38 64 R 38 68 R 38 73 R 38 77 R
39 82 R 38 87 R 38 91 R 38 97 R 38 102 R 38 108 R 38 113 R 39 119 R 38 124 R
38 131 R 38 136 R 38 143 R 38 149 R 38 156 R 38 162 R 39 169 R 38 176 R
38 183 R 38 191 R 21 112 R D 2632 1408 M 22 177 R 33 267 R 34 260 R 33 253 R
33 246 R 34 240 R 33 233 R 33 227 R 34 220 R 33 213 R 33 208 R 34 201 R
33 195 R 34 189 R 33 184 R 33 177 R 34 172 R 33 166 R 33 161 R 34 155 R
33 150 R 33 145 R 34 140 R 33 134 R 34 130 R 33 124 R 33 120 R 34 116 R
33 110 R 33 106 R 34 102 R 33 98 R 33 93 R 34 89 R 33 85 R 33 82 R 34 77 R
33 74 R 34 70 R 33 66 R 33 63 R 34 59 R 33 57 R 33 53 R 34 50 R 33 47 R
33 44 R 34 41 R 33 39 R 34 36 R 33 33 R 33 31 R 34 29 R 33 26 R 33 24 R
34 22 R 33 20 R 33 18 R 34 17 R 33 15 R 34 13 R 33 11 R 33 10 R 34 9 R
33 8 R 33 6 R 34 6 R 33 4 R 33 4 R 34 3 R 33 2 R 34 1 R 33 2 R 33 0 R 34 1 R
33 0 R 33 0 R 34 0 R 33 0 R 33 0 R 34 1 R 33 0 R 34 2 R 33 1 R 33 3 R 34 3 R
33 4 R 33 5 R 34 6 R 33 7 R 33 8 R 34 9 R 33 11 R 34 12 R 33 14 R 33 15 R
34 17 R 33 19 R 33 21 R 34 23 R 33 25 R 33 27 R 34 30 R 33 32 R 34 34 R
33 37 R 33 40 R 34 42 R 33 46 R 33 48 R 34 51 R 33 55 R 33 57 R 34 61 R
33 64 R 33 68 R 34 72 R 33 75 R 34 79 R 33 83 R 33 87 R 34 90 R 33 95 R
33 100 R 34 103 R 33 108 R 33 113 R 34 117 R 33 122 R 34 127 R 33 131 R
33 137 R 34 142 R 33 146 R 33 153 R 34 157 R 33 163 R 33 169 R 12 62 R D
2631 1408 M 18 140 R 29 231 R 28 225 R 29 219 R 28 215 R 29 210 R 29 205 R
28 200 R 29 195 R 28 191 R 29 186 R 29 181 R 28 177 R 29 172 R 28 167 R
29 163 R 29 159 R 28 155 R 29 150 R 28 146 R 29 143 R 29 138 R 28 134 R
29 130 R 28 126 R 29 122 R 29 119 R 28 115 R 29 111 R 28 108 R 29 104 R
29 101 R 28 98 R 29 94 R 28 90 R 29 88 R 29 84 R 28 81 R 29 78 R 28 76 R
29 72 R 28 69 R 29 67 R 29 63 R 28 61 R 29 59 R 28 56 R 29 53 R 29 51 R
28 48 R 29 46 R 28 44 R 29 42 R 29 39 R 28 37 R 29 35 R 28 34 R 29 31 R
29 29 R 28 28 R 29 26 R 28 24 R 29 22 R 29 21 R 28 19 R 29 18 R 28 16 R
29 15 R 29 14 R 28 13 R 29 11 R 28 10 R 29 9 R 29 8 R 28 8 R 29 6 R 28 5 R
29 5 R 29 4 R 28 3 R 29 3 R 28 2 R 29 2 R 29 1 R 28 1 R 29 1 R 28 0 R 29 1 R
29 0 R 28 0 R 29 0 R 28 0 R 29 0 R 29 0 R 28 1 R 29 1 R 28 1 R 29 1 R 28 2 R
29 3 R 29 3 R 28 4 R 29 4 R 28 6 R 29 6 R 29 6 R 28 8 R 29 9 R 28 10 R
29 11 R 29 12 R 28 13 R 29 15 R 28 16 R 29 17 R 29 19 R 28 20 R 29 22 R
28 24 R 29 25 R 29 27 R 28 28 R 29 31 R 28 33 R 29 34 R 29 37 R 28 38 R
29 41 R 28 43 R 29 45 R 29 48 R 28 50 R 29 52 R 28 55 R 29 58 R 29 60 R
28 63 R 29 66 R 28 68 R 29 71 R 29 74 R 28 77 R 29 81 R 28 83 R 29 86 R
29 90 R 28 93 R 29 96 R 28 100 R 29 103 R 29 106 R 28 110 R 29 114 R
28 118 R 29 121 R 28 125 R 29 128 R 29 133 R 28 137 R 29 141 R 28 144 R
12 62 R D 2631 1408 M 18 141 R 24 192 R 24 188 R 24 185 R 23 182 R 24 178 R
24 174 R 24 172 R 24 167 R 24 165 R 23 161 R 24 157 R 24 155 R 24 151 R
24 148 R 23 145 R 24 142 R 24 139 R 24 136 R 24 132 R 24 130 R 23 127 R
24 124 R 24 121 R 24 118 R 24 115 R 24 113 R 23 109 R 24 107 R 24 105 R
24 102 R 24 99 R 24 96 R 23 94 R 24 92 R 24 89 R 24 87 R 24 84 R 24 82 R
23 79 R 24 77 R 24 75 R 24 73 R 24 70 R 24 69 R 23 66 R 24 64 R 24 62 R
24 60 R 24 58 R 24 56 R 23 54 R 24 52 R 24 50 R 24 49 R 24 47 R 24 45 R
23 43 R 24 41 R 24 40 R 24 38 R 24 37 R 24 35 R 23 34 R 24 32 R 24 30 R
24 30 R 24 27 R 24 27 R 23 25 R 24 24 R 24 22 R 24 22 R 24 20 R 23 19 R
24 18 R 24 16 R 24 16 R 24 15 R 24 14 R 23 13 R 24 11 R 24 11 R 24 11 R
24 9 R 24 9 R 23 7 R 24 8 R 24 6 R 24 6 R 24 5 R 24 5 R 23 4 R 24 3 R 24 3 R
24 3 R 24 2 R 24 2 R 23 2 R 24 1 R 24 1 R 24 1 R 24 0 R 24 0 R 23 1 R 24 0 R
24 0 R 24 0 R 24 0 R 24 0 R 23 0 R 24 0 R 24 0 R 24 1 R 24 1 R 24 1 R 23 1 R
24 1 R 24 2 R 24 2 R 24 3 R 24 3 R 23 4 R 24 4 R 24 4 R 24 6 R 24 5 R 23 7 R
24 7 R 24 8 R 24 8 R 24 10 R 24 10 R 23 11 R 24 12 R 24 13 R 24 13 R 24 15 R
24 16 R 23 17 R 24 18 R 24 19 R 24 20 R 24 21 R 24 23 R 23 24 R 24 25 R
24 26 R 24 28 R 24 29 R 24 31 R 23 32 R 24 33 R 24 35 R 24 37 R 24 38 R
24 40 R 23 42 R 24 43 R 24 45 R 24 46 R 24 49 R 24 50 R 23 52 R 24 54 R
24 56 R 24 58 R 24 60 R 24 62 R 23 64 R 24 67 R 24 68 R 24 70 R 24 73 R
24 75 R 23 77 R 24 80 R 24 82 R 24 84 R 24 86 R 24 89 R 23 92 R 24 94 R
24 97 R 24 99 R 24 101 R 23 105 R 24 107 R 24 110 R 24 112 R 24 115 R
24 119 R 23 121 R 11 61 R D 2631 1408 M 9 63 R 19 155 R 19 153 R 19 151 R
19 148 R 19 146 R 19 144 R 19 141 R 19 140 R 19 137 R 19 135 R 19 133 R
19 130 R 19 129 R 19 126 R 19 125 R 20 122 R 19 120 R 19 119 R 19 116 R
19 114 R 19 112 R 19 110 R 19 109 R 19 106 R 19 105 R 19 102 R 19 101 R
19 99 R 19 97 R 19 95 R 19 93 R 20 92 R 19 90 R 19 88 R 19 86 R 19 85 R
19 82 R 19 82 R 19 79 R 19 78 R 19 76 R 19 75 R 19 73 R 19 71 R 19 70 R
19 69 R 20 66 R 19 66 R 19 63 R 19 63 R 19 61 R 19 59 R 19 58 R 19 56 R
19 56 R 19 53 R 19 53 R 19 51 R 19 50 R 19 48 R 19 47 R 19 46 R 20 45 R
19 43 R 19 43 R 19 41 R 19 39 R 19 39 R 19 38 R 19 36 R 19 35 R 19 34 R
19 33 R 19 32 R 19 31 R 19 30 R 19 29 R 20 28 R 19 27 R 19 26 R 19 25 R
19 24 R 19 24 R 19 22 R 19 21 R 19 21 R 19 20 R 19 19 R 19 18 R 19 17 R
19 17 R 19 16 R 19 15 R 20 14 R 19 14 R 19 13 R 19 12 R 19 12 R 19 11 R
19 11 R 19 9 R 19 10 R 19 8 R 19 9 R 19 7 R 19 8 R 19 6 R 19 6 R 20 6 R
19 5 R 19 5 R 19 5 R 19 4 R 19 4 R 19 3 R 19 3 R 19 3 R 19 2 R 19 2 R 19 2 R
19 2 R 19 1 R 19 2 R 19 1 R 20 0 R 19 1 R 19 1 R 19 0 R 19 0 R 19 1 R 19 0 R
19 0 R 19 0 R 19 0 R 19 0 R 19 0 R 19 0 R 19 0 R 19 0 R 20 0 R 19 1 R 19 0 R
19 1 R 19 0 R 19 1 R 19 1 R 19 2 R 19 1 R 19 2 R 19 2 R 19 2 R 19 3 R 19 3 R
19 3 R 19 4 R 20 3 R 19 5 R 19 4 R 19 6 R 19 5 R 19 6 R 19 7 R 19 6 R 19 8 R
19 8 R 19 8 R 19 9 R 19 10 R 19 10 R 19 11 R 20 11 R 19 12 R 19 13 R 19 13 R
19 14 R 19 15 R 19 16 R 19 16 R 19 17 R 19 18 R 19 18 R 19 20 R 19 20 R
19 21 R 19 22 R 19 22 R 20 24 R 19 25 R 19 25 R 19 27 R 19 27 R 19 29 R
19 29 R 19 30 R 19 32 R 19 32 R 19 34 R 19 35 R 19 36 R 19 37 R 19 38 R
19 39 R 20 40 R 19 42 R 19 43 R 19 44 R 19 45 R 19 46 R 19 48 R 19 49 R
19 51 R 19 52 R 19 53 R 19 54 R 19 56 R 19 57 R 19 59 R 20 60 R 19 62 R
19 63 R 19 64 R 19 66 R 19 68 R 19 69 R 19 71 R 19 72 R 19 74 R 19 75 R
19 77 R 19 79 R 19 80 R 19 82 R 19 84 R 20 85 R 19 87 R 19 89 R 19 91 R
19 93 R 19 94 R 19 96 R 19 98 R 2 12 R D
%%PageTrailer
end
restore
showpage
%%PageResources: font Helvetica
%%Trailer
restore
%%Pages: 1
%%DocumentNeededResources: font Helvetica
%%EOF
