%!PS-Adobe-3.0 EPSF-3.0
%%BoundingBox: 0 0 566 708
%%Title: Graphics produced by IDL
%%For: daxia@Lserver, /home/daxia/work/phoenix
%%Creator: IDL Version 7.0 (linux x86_64 m64)
%%CreationDate: Sat Apr  9 11:54:19 2011
%%DocumentData: Clean7bit
%%Requirements: color
%%LanguageLevel: 1
%%PageOrder: Ascend
%%Pages: (atend)
%%DocumentNeededResources: (atend)
%%EndComments
%%BeginProlog
%+ prolog.ps -- Prolog for IDL generated PostScript files
%+ Copyright (c) 1988-2007 ITT Visual Information Solutions. All Rights Reserved.
%v 5
/$IDL_DICT 40 dict def $IDL_DICT begin /bdef { bind def } bind def /C
{currentpoint newpath moveto} bdef /CP {currentpoint} bdef /D {currentpoint
stroke moveto} bdef /F {closepath fill} bdef /K { setgray } bdef /M {moveto}
bdef /N {rmoveto} bdef /P {lineto} bdef /R {rlineto} bdef /S {gsave show
grestore} bdef /X {currentpoint pop} bdef /Z {gsave currentpoint lineto 20
setlinewidth 1 setlinecap stroke grestore} bdef /L0 {[] 0 setdash} bdef /L1
{[40 100] 0 setdash} bdef /L2 {[200 200] 0 setdash} bdef /L3 {[200 100 50
100] 0 setdash} bdef /L4 {[300 100 50 100 50 100 50 100] 0 setdash} bdef /L5
{[400 200] 0 setdash} bdef /STDFONT { findfont exch scalefont setfont } bdef
/ISOFONT { findfont dup length dict begin { 1 index /FID ne {def} {pop pop}
ifelse } forall /Encoding ISOLatin1Encoding def currentdict end /idltmpfont
exch definefont exch scalefont setfont } bdef /ISOBULLET { gsave /Helvetica
findfont exch scalefont setfont (\267) show currentpoint grestore moveto}
bdef /MITERLIMIT { 2.5 setmiterlimit } bdef end
%%EndProlog
%%Page: 0 1
%%PageRequirements: color
%%PageResources: (atend)
%%PageOrientation: Portrait
%%PageBoundingBox: 0 0 566 708
%%BeginPageSetup
$IDL_DICT begin 0.0283465 dup scale MITERLIMIT
%%IncludeResource: font Helvetica
423.333 /Helvetica STDFONT
%%EndPageSetup
0.000 0.000 0.000 setrgbcolor gsave 10777 352 translate 0 0 M -411.48 0 N
(m/M) show grestore gsave 888 12852 translate 0 0 M 90 rotate -828.887 0 N
(N\(>m/M\)) show grestore 40 setlinewidth L0 2220 19719 M 4279 0 R D
2542 19719 M 0 183 R D gsave 2542 19191 translate 0 0 M -58.8433 0 N
( ) show grestore 3612 19719 M 0 183 R D gsave 3612 19191 translate 0 0 M
-58.8433 0 N
( ) show grestore 4681 19719 M 0 183 R D gsave 4681 19191 translate 0 0 M
-58.8433 0 N
( ) show grestore 5751 19719 M 0 183 R D gsave 5751 19191 translate 0 0 M
-58.8433 0 N
( ) show grestore 2220 19719 M 0 91 R D 2305 19719 M 0 91 R D 2376 19719 M
0 91 R D 2438 19719 M 0 91 R D 2493 19719 M 0 91 R D 2864 19719 M 0 91 R D
3052 19719 M 0 91 R D 3186 19719 M 0 91 R D 3290 19719 M 0 91 R D
3374 19719 M 0 91 R D 3446 19719 M 0 91 R D 3508 19719 M 0 91 R D
3563 19719 M 0 91 R D 3934 19719 M 0 91 R D 4122 19719 M 0 91 R D
4256 19719 M 0 91 R D 4359 19719 M 0 91 R D 4444 19719 M 0 91 R D
4516 19719 M 0 91 R D 4578 19719 M 0 91 R D 4632 19719 M 0 91 R D
5003 19719 M 0 91 R D 5192 19719 M 0 91 R D 5325 19719 M 0 91 R D
5429 19719 M 0 91 R D 5514 19719 M 0 91 R D 5585 19719 M 0 91 R D
5647 19719 M 0 91 R D 5702 19719 M 0 91 R D 6073 19719 M 0 91 R D
6261 19719 M 0 91 R D 6395 19719 M 0 91 R D 6499 19719 M 0 91 R D
2220 24296 M 4279 0 R D 2542 24296 M 0 -183 R D 3612 24296 M 0 -183 R D
4681 24296 M 0 -183 R D 5751 24296 M 0 -183 R D 2220 24296 M 0 -91 R D
2305 24296 M 0 -91 R D 2376 24296 M 0 -91 R D 2438 24296 M 0 -91 R D
2493 24296 M 0 -91 R D 2864 24296 M 0 -91 R D 3052 24296 M 0 -91 R D
3186 24296 M 0 -91 R D 3290 24296 M 0 -91 R D 3374 24296 M 0 -91 R D
3446 24296 M 0 -91 R D 3508 24296 M 0 -91 R D 3563 24296 M 0 -91 R D
3934 24296 M 0 -91 R D 4122 24296 M 0 -91 R D 4256 24296 M 0 -91 R D
4359 24296 M 0 -91 R D 4444 24296 M 0 -91 R D 4516 24296 M 0 -91 R D
4578 24296 M 0 -91 R D 4632 24296 M 0 -91 R D 5003 24296 M 0 -91 R D
5192 24296 M 0 -91 R D 5325 24296 M 0 -91 R D 5429 24296 M 0 -91 R D
5514 24296 M 0 -91 R D 5585 24296 M 0 -91 R D 5647 24296 M 0 -91 R D
5702 24296 M 0 -91 R D 6073 24296 M 0 -91 R D 6261 24296 M 0 -91 R D
6395 24296 M 0 -91 R D 6499 24296 M 0 -91 R D 2220 19719 M 0 4577 R D
2220 20101 M 171 0 R D gsave 2109 19960 translate 0 0 M -235.373 0 N
(1) show grestore 2220 21372 M 171 0 R D gsave 2109 21231 translate 0 0 M
-470.747 0 N
(10) show grestore 2220 22643 M 171 0 R D gsave 2109 22502 translate 0 0 M
-706.12 0 N
(100) show grestore 2220 23914 M 171 0 R D gsave 2109 23773 translate 0 0 M
-941.493 0 N
(1000) show grestore 2220 19719 M 86 0 R D 2220 19819 M 86 0 R D
2220 19904 M 86 0 R D 2220 19978 M 86 0 R D 2220 20043 M 86 0 R D
2220 20484 M 86 0 R D 2220 20707 M 86 0 R D 2220 20866 M 86 0 R D
2220 20989 M 86 0 R D 2220 21090 M 86 0 R D 2220 21175 M 86 0 R D
2220 21249 M 86 0 R D 2220 21314 M 86 0 R D 2220 21754 M 86 0 R D
2220 21978 M 86 0 R D 2220 22137 M 86 0 R D 2220 22260 M 86 0 R D
2220 22361 M 86 0 R D 2220 22446 M 86 0 R D 2220 22520 M 86 0 R D
2220 22585 M 86 0 R D 2220 23025 M 86 0 R D 2220 23249 M 86 0 R D
2220 23408 M 86 0 R D 2220 23531 M 86 0 R D 2220 23632 M 86 0 R D
2220 23717 M 86 0 R D 2220 23790 M 86 0 R D 2220 23855 M 86 0 R D
2220 24296 M 86 0 R D 6499 19719 M 0 4577 R D 6499 20101 M -172 0 R D
6499 21372 M -172 0 R D 6499 22643 M -172 0 R D 6499 23914 M -172 0 R D
6499 19719 M -86 0 R D 6499 19819 M -86 0 R D 6499 19904 M -86 0 R D
6499 19978 M -86 0 R D 6499 20043 M -86 0 R D 6499 20484 M -86 0 R D
6499 20707 M -86 0 R D 6499 20866 M -86 0 R D 6499 20989 M -86 0 R D
6499 21090 M -86 0 R D 6499 21175 M -86 0 R D 6499 21249 M -86 0 R D
6499 21314 M -86 0 R D 6499 21754 M -86 0 R D 6499 21978 M -86 0 R D
6499 22137 M -86 0 R D 6499 22260 M -86 0 R D 6499 22361 M -86 0 R D
6499 22446 M -86 0 R D 6499 22520 M -86 0 R D 6499 22585 M -86 0 R D
6499 23025 M -86 0 R D 6499 23249 M -86 0 R D 6499 23408 M -86 0 R D
6499 23531 M -86 0 R D 6499 23632 M -86 0 R D 6499 23717 M -86 0 R D
6499 23790 M -86 0 R D 6499 23855 M -86 0 R D 6499 24296 M -86 0 R D
1.000 0.000 0.706 setrgbcolor 2542 23611 M 428 -526 R 428 -532 R 428 -613 R
427 -423 R 428 -528 R 428 -888 R 428 0 R D 0.506 0.000 0.000 setrgbcolor
2542 23589 M 428 -470 R 428 -499 R 428 -700 R 427 -606 R 428 -607 R
428 -223 R D 0.000 0.549 0.000 setrgbcolor 2542 23542 M 428 -459 R
428 -486 R 428 -503 R 427 -722 R 428 -888 R 428 -383 R 428 0 R D
0.000 0.514 1.000 setrgbcolor 2542 22743 M 428 -338 R 428 -709 R 428 -606 R
427 -383 R 428 -606 R D 1.000 0.349 0.000 setrgbcolor 2542 21726 M
428 -477 R 428 -383 R 428 -382 R 427 0 R D 0.000 0.000 0.000 setrgbcolor
gsave 5429 23531 translate 0 0 M
(pha2) show grestore 6499 19719 M 4278 0 R D 6821 19719 M 0 183 R D
gsave 6821 19191 translate 0 0 M -58.8433 0 N
( ) show grestore 7890 19719 M 0 183 R D gsave 7890 19191 translate 0 0 M
-58.8433 0 N
( ) show grestore 8960 19719 M 0 183 R D gsave 8960 19191 translate 0 0 M
-58.8433 0 N
( ) show grestore 10029 19719 M 0 183 R D gsave 10029 19191 translate 0 0 M
-58.8433 0 N
( ) show grestore 6499 19719 M 0 91 R D 6583 19719 M 0 91 R D 6655 19719 M
0 91 R D 6717 19719 M 0 91 R D 6772 19719 M 0 91 R D 7143 19719 M 0 91 R D
7331 19719 M 0 91 R D 7465 19719 M 0 91 R D 7568 19719 M 0 91 R D
7653 19719 M 0 91 R D 7725 19719 M 0 91 R D 7787 19719 M 0 91 R D
7841 19719 M 0 91 R D 8212 19719 M 0 91 R D 8401 19719 M 0 91 R D
8534 19719 M 0 91 R D 8638 19719 M 0 91 R D 8723 19719 M 0 91 R D
8794 19719 M 0 91 R D 8856 19719 M 0 91 R D 8911 19719 M 0 91 R D
9282 19719 M 0 91 R D 9470 19719 M 0 91 R D 9604 19719 M 0 91 R D
9707 19719 M 0 91 R D 9792 19719 M 0 91 R D 9864 19719 M 0 91 R D
9926 19719 M 0 91 R D 9981 19719 M 0 91 R D 10351 19719 M 0 91 R D
10540 19719 M 0 91 R D 10673 19719 M 0 91 R D 10777 19719 M 0 91 R D
6499 24296 M 4278 0 R D 6821 24296 M 0 -183 R D 7890 24296 M 0 -183 R D
8960 24296 M 0 -183 R D 10029 24296 M 0 -183 R D 6499 24296 M 0 -91 R D
6583 24296 M 0 -91 R D 6655 24296 M 0 -91 R D 6717 24296 M 0 -91 R D
6772 24296 M 0 -91 R D 7143 24296 M 0 -91 R D 7331 24296 M 0 -91 R D
7465 24296 M 0 -91 R D 7568 24296 M 0 -91 R D 7653 24296 M 0 -91 R D
7725 24296 M 0 -91 R D 7787 24296 M 0 -91 R D 7841 24296 M 0 -91 R D
8212 24296 M 0 -91 R D 8401 24296 M 0 -91 R D 8534 24296 M 0 -91 R D
8638 24296 M 0 -91 R D 8723 24296 M 0 -91 R D 8794 24296 M 0 -91 R D
8856 24296 M 0 -91 R D 8911 24296 M 0 -91 R D 9282 24296 M 0 -91 R D
9470 24296 M 0 -91 R D 9604 24296 M 0 -91 R D 9707 24296 M 0 -91 R D
9792 24296 M 0 -91 R D 9864 24296 M 0 -91 R D 9926 24296 M 0 -91 R D
9981 24296 M 0 -91 R D 10351 24296 M 0 -91 R D 10540 24296 M 0 -91 R D
10673 24296 M 0 -91 R D 10777 24296 M 0 -91 R D 6499 19719 M 0 4577 R D
6499 20101 M 171 0 R D gsave 6388 19960 translate 0 0 M -117.687 0 N
( ) show grestore 6499 21372 M 171 0 R D gsave 6388 21231 translate 0 0 M
-117.687 0 N
( ) show grestore 6499 22643 M 171 0 R D gsave 6388 22502 translate 0 0 M
-117.687 0 N
( ) show grestore 6499 23914 M 171 0 R D gsave 6388 23773 translate 0 0 M
-117.687 0 N
( ) show grestore 6499 19719 M 85 0 R D 6499 19819 M 85 0 R D 6499 19904 M
85 0 R D 6499 19978 M 85 0 R D 6499 20043 M 85 0 R D 6499 20484 M 85 0 R D
6499 20707 M 85 0 R D 6499 20866 M 85 0 R D 6499 20989 M 85 0 R D
6499 21090 M 85 0 R D 6499 21175 M 85 0 R D 6499 21249 M 85 0 R D
6499 21314 M 85 0 R D 6499 21754 M 85 0 R D 6499 21978 M 85 0 R D
6499 22137 M 85 0 R D 6499 22260 M 85 0 R D 6499 22361 M 85 0 R D
6499 22446 M 85 0 R D 6499 22520 M 85 0 R D 6499 22585 M 85 0 R D
6499 23025 M 85 0 R D 6499 23249 M 85 0 R D 6499 23408 M 85 0 R D
6499 23531 M 85 0 R D 6499 23632 M 85 0 R D 6499 23717 M 85 0 R D
6499 23790 M 85 0 R D 6499 23855 M 85 0 R D 6499 24296 M 85 0 R D
10777 19719 M 0 4577 R D 10777 20101 M -171 0 R D 10777 21372 M -171 0 R D
10777 22643 M -171 0 R D 10777 23914 M -171 0 R D 10777 19719 M -85 0 R D
10777 19819 M -85 0 R D 10777 19904 M -85 0 R D 10777 19978 M -85 0 R D
10777 20043 M -85 0 R D 10777 20484 M -85 0 R D 10777 20707 M -85 0 R D
10777 20866 M -85 0 R D 10777 20989 M -85 0 R D 10777 21090 M -85 0 R D
10777 21175 M -85 0 R D 10777 21249 M -85 0 R D 10777 21314 M -85 0 R D
10777 21754 M -85 0 R D 10777 21978 M -85 0 R D 10777 22137 M -85 0 R D
10777 22260 M -85 0 R D 10777 22361 M -85 0 R D 10777 22446 M -85 0 R D
10777 22520 M -85 0 R D 10777 22585 M -85 0 R D 10777 23025 M -85 0 R D
10777 23249 M -85 0 R D 10777 23408 M -85 0 R D 10777 23531 M -85 0 R D
10777 23632 M -85 0 R D 10777 23717 M -85 0 R D 10777 23790 M -85 0 R D
10777 23855 M -85 0 R D 10777 24296 M -85 0 R D
1.000 0.000 0.706 setrgbcolor 6821 23463 M 427 -435 R 428 -530 R 428 -620 R
428 -453 R 428 -559 R 428 -765 R 428 0 R D 0.506 0.000 0.000 setrgbcolor
6821 23416 M 427 -396 R 428 -473 R 428 -740 R 428 -493 R 428 -448 R
428 -159 R D 0.000 0.549 0.000 setrgbcolor 6821 23374 M 427 -351 R
428 -438 R 428 -506 R 428 -904 R 428 -1074 R 428 0 R 428 0 R D
0.000 0.514 1.000 setrgbcolor 6821 21878 M 427 0 R 428 -361 R 428 -342 R
428 -309 R 428 -765 R D 0.000 0.000 0.000 setrgbcolor
gsave 9707 23531 translate 0 0 M
(pha4) show grestore 10777 19719 M 4279 0 R D 11099 19719 M 0 183 R D
gsave 11099 19191 translate 0 0 M -58.8433 0 N
( ) show grestore 12169 19719 M 0 183 R D gsave 12169 19191 translate 0 0 M
-58.8433 0 N
( ) show grestore 13238 19719 M 0 183 R D gsave 13238 19191 translate 0 0 M
-58.8433 0 N
( ) show grestore 14308 19719 M 0 183 R D gsave 14308 19191 translate 0 0 M
-58.8433 0 N
( ) show grestore 10777 19719 M 0 91 R D 10862 19719 M 0 91 R D
10933 19719 M 0 91 R D 10995 19719 M 0 91 R D 11050 19719 M 0 91 R D
11421 19719 M 0 91 R D 11609 19719 M 0 91 R D 11743 19719 M 0 91 R D
11847 19719 M 0 91 R D 11931 19719 M 0 91 R D 12003 19719 M 0 91 R D
12065 19719 M 0 91 R D 12120 19719 M 0 91 R D 12491 19719 M 0 91 R D
12679 19719 M 0 91 R D 12813 19719 M 0 91 R D 12916 19719 M 0 91 R D
13001 19719 M 0 91 R D 13073 19719 M 0 91 R D 13135 19719 M 0 91 R D
13189 19719 M 0 91 R D 13560 19719 M 0 91 R D 13749 19719 M 0 91 R D
13882 19719 M 0 91 R D 13986 19719 M 0 91 R D 14071 19719 M 0 91 R D
14142 19719 M 0 91 R D 14204 19719 M 0 91 R D 14259 19719 M 0 91 R D
14630 19719 M 0 91 R D 14818 19719 M 0 91 R D 14952 19719 M 0 91 R D
15056 19719 M 0 91 R D 10777 24296 M 4279 0 R D 11099 24296 M 0 -183 R D
12169 24296 M 0 -183 R D 13238 24296 M 0 -183 R D 14308 24296 M 0 -183 R D
10777 24296 M 0 -91 R D 10862 24296 M 0 -91 R D 10933 24296 M 0 -91 R D
10995 24296 M 0 -91 R D 11050 24296 M 0 -91 R D 11421 24296 M 0 -91 R D
11609 24296 M 0 -91 R D 11743 24296 M 0 -91 R D 11847 24296 M 0 -91 R D
11931 24296 M 0 -91 R D 12003 24296 M 0 -91 R D 12065 24296 M 0 -91 R D
12120 24296 M 0 -91 R D 12491 24296 M 0 -91 R D 12679 24296 M 0 -91 R D
12813 24296 M 0 -91 R D 12916 24296 M 0 -91 R D 13001 24296 M 0 -91 R D
13073 24296 M 0 -91 R D 13135 24296 M 0 -91 R D 13189 24296 M 0 -91 R D
13560 24296 M 0 -91 R D 13749 24296 M 0 -91 R D 13882 24296 M 0 -91 R D
13986 24296 M 0 -91 R D 14071 24296 M 0 -91 R D 14142 24296 M 0 -91 R D
14204 24296 M 0 -91 R D 14259 24296 M 0 -91 R D 14630 24296 M 0 -91 R D
14818 24296 M 0 -91 R D 14952 24296 M 0 -91 R D 15056 24296 M 0 -91 R D
10777 19719 M 0 4577 R D 10777 20101 M 171 0 R D
gsave 10666 19960 translate 0 0 M -117.687 0 N
( ) show grestore 10777 21372 M 171 0 R D gsave 10666 21231 translate 0 0 M
-117.687 0 N
( ) show grestore 10777 22643 M 171 0 R D gsave 10666 22502 translate 0 0 M
-117.687 0 N
( ) show grestore 10777 23914 M 171 0 R D gsave 10666 23773 translate 0 0 M
-117.687 0 N
( ) show grestore 10777 19719 M 86 0 R D 10777 19819 M 86 0 R D
10777 19904 M 86 0 R D 10777 19978 M 86 0 R D 10777 20043 M 86 0 R D
10777 20484 M 86 0 R D 10777 20707 M 86 0 R D 10777 20866 M 86 0 R D
10777 20989 M 86 0 R D 10777 21090 M 86 0 R D 10777 21175 M 86 0 R D
10777 21249 M 86 0 R D 10777 21314 M 86 0 R D 10777 21754 M 86 0 R D
10777 21978 M 86 0 R D 10777 22137 M 86 0 R D 10777 22260 M 86 0 R D
10777 22361 M 86 0 R D 10777 22446 M 86 0 R D 10777 22520 M 86 0 R D
10777 22585 M 86 0 R D 10777 23025 M 86 0 R D 10777 23249 M 86 0 R D
10777 23408 M 86 0 R D 10777 23531 M 86 0 R D 10777 23632 M 86 0 R D
10777 23717 M 86 0 R D 10777 23790 M 86 0 R D 10777 23855 M 86 0 R D
10777 24296 M 86 0 R D 15056 19719 M 0 4577 R D 15056 20101 M -172 0 R D
15056 21372 M -172 0 R D 15056 22643 M -172 0 R D 15056 23914 M -172 0 R D
15056 19719 M -86 0 R D 15056 19819 M -86 0 R D 15056 19904 M -86 0 R D
15056 19978 M -86 0 R D 15056 20043 M -86 0 R D 15056 20484 M -86 0 R D
15056 20707 M -86 0 R D 15056 20866 M -86 0 R D 15056 20989 M -86 0 R D
15056 21090 M -86 0 R D 15056 21175 M -86 0 R D 15056 21249 M -86 0 R D
15056 21314 M -86 0 R D 15056 21754 M -86 0 R D 15056 21978 M -86 0 R D
15056 22137 M -86 0 R D 15056 22260 M -86 0 R D 15056 22361 M -86 0 R D
15056 22446 M -86 0 R D 15056 22520 M -86 0 R D 15056 22585 M -86 0 R D
15056 23025 M -86 0 R D 15056 23249 M -86 0 R D 15056 23408 M -86 0 R D
15056 23531 M -86 0 R D 15056 23632 M -86 0 R D 15056 23717 M -86 0 R D
15056 23790 M -86 0 R D 15056 23855 M -86 0 R D 15056 24296 M -86 0 R D
1.000 0.000 0.706 setrgbcolor 11099 23901 M 428 -514 R 428 -502 R 428 -593 R
427 -437 R 428 -606 R 428 -542 R 428 -223 R D 0.000 0.549 0.000 setrgbcolor
11099 23363 M 428 -468 R 428 -490 R 428 -409 R 427 -438 R 428 -851 R D
0.000 0.514 1.000 setrgbcolor 11099 22859 M 428 -536 R 428 -542 R 428 -532 R
427 -542 R 428 -606 R D 0.000 0.000 0.000 setrgbcolor
gsave 13986 23531 translate 0 0 M
(phb2) show grestore 15056 19719 M 4278 0 R D 15378 19719 M 0 183 R D
gsave 15378 19191 translate 0 0 M -58.8433 0 N
( ) show grestore 16447 19719 M 0 183 R D gsave 16447 19191 translate 0 0 M
-58.8433 0 N
( ) show grestore 17517 19719 M 0 183 R D gsave 17517 19191 translate 0 0 M
-58.8433 0 N
( ) show grestore 18586 19719 M 0 183 R D gsave 18586 19191 translate 0 0 M
-58.8433 0 N
( ) show grestore 15056 19719 M 0 91 R D 15140 19719 M 0 91 R D
15212 19719 M 0 91 R D 15274 19719 M 0 91 R D 15329 19719 M 0 91 R D
15700 19719 M 0 91 R D 15888 19719 M 0 91 R D 16022 19719 M 0 91 R D
16125 19719 M 0 91 R D 16210 19719 M 0 91 R D 16282 19719 M 0 91 R D
16344 19719 M 0 91 R D 16398 19719 M 0 91 R D 16769 19719 M 0 91 R D
16958 19719 M 0 91 R D 17091 19719 M 0 91 R D 17195 19719 M 0 91 R D
17280 19719 M 0 91 R D 17351 19719 M 0 91 R D 17413 19719 M 0 91 R D
17468 19719 M 0 91 R D 17839 19719 M 0 91 R D 18027 19719 M 0 91 R D
18161 19719 M 0 91 R D 18264 19719 M 0 91 R D 18349 19719 M 0 91 R D
18421 19719 M 0 91 R D 18483 19719 M 0 91 R D 18538 19719 M 0 91 R D
18908 19719 M 0 91 R D 19097 19719 M 0 91 R D 19230 19719 M 0 91 R D
19334 19719 M 0 91 R D 15056 24296 M 4278 0 R D 15378 24296 M 0 -183 R D
16447 24296 M 0 -183 R D 17517 24296 M 0 -183 R D 18586 24296 M 0 -183 R D
15056 24296 M 0 -91 R D 15140 24296 M 0 -91 R D 15212 24296 M 0 -91 R D
15274 24296 M 0 -91 R D 15329 24296 M 0 -91 R D 15700 24296 M 0 -91 R D
15888 24296 M 0 -91 R D 16022 24296 M 0 -91 R D 16125 24296 M 0 -91 R D
16210 24296 M 0 -91 R D 16282 24296 M 0 -91 R D 16344 24296 M 0 -91 R D
16398 24296 M 0 -91 R D 16769 24296 M 0 -91 R D 16958 24296 M 0 -91 R D
17091 24296 M 0 -91 R D 17195 24296 M 0 -91 R D 17280 24296 M 0 -91 R D
17351 24296 M 0 -91 R D 17413 24296 M 0 -91 R D 17468 24296 M 0 -91 R D
17839 24296 M 0 -91 R D 18027 24296 M 0 -91 R D 18161 24296 M 0 -91 R D
18264 24296 M 0 -91 R D 18349 24296 M 0 -91 R D 18421 24296 M 0 -91 R D
18483 24296 M 0 -91 R D 18538 24296 M 0 -91 R D 18908 24296 M 0 -91 R D
19097 24296 M 0 -91 R D 19230 24296 M 0 -91 R D 19334 24296 M 0 -91 R D
15056 19719 M 0 4577 R D 15056 20101 M 171 0 R D
gsave 14945 19960 translate 0 0 M -117.687 0 N
( ) show grestore 15056 21372 M 171 0 R D gsave 14945 21231 translate 0 0 M
-117.687 0 N
( ) show grestore 15056 22643 M 171 0 R D gsave 14945 22502 translate 0 0 M
-117.687 0 N
( ) show grestore 15056 23914 M 171 0 R D gsave 14945 23773 translate 0 0 M
-117.687 0 N
( ) show grestore 15056 19719 M 85 0 R D 15056 19819 M 85 0 R D
15056 19904 M 85 0 R D 15056 19978 M 85 0 R D 15056 20043 M 85 0 R D
15056 20484 M 85 0 R D 15056 20707 M 85 0 R D 15056 20866 M 85 0 R D
15056 20989 M 85 0 R D 15056 21090 M 85 0 R D 15056 21175 M 85 0 R D
15056 21249 M 85 0 R D 15056 21314 M 85 0 R D 15056 21754 M 85 0 R D
15056 21978 M 85 0 R D 15056 22137 M 85 0 R D 15056 22260 M 85 0 R D
15056 22361 M 85 0 R D 15056 22446 M 85 0 R D 15056 22520 M 85 0 R D
15056 22585 M 85 0 R D 15056 23025 M 85 0 R D 15056 23249 M 85 0 R D
15056 23408 M 85 0 R D 15056 23531 M 85 0 R D 15056 23632 M 85 0 R D
15056 23717 M 85 0 R D 15056 23790 M 85 0 R D 15056 23855 M 85 0 R D
15056 24296 M 85 0 R D 19334 19719 M 0 4577 R D 19334 20101 M -171 0 R D
19334 21372 M -171 0 R D 19334 22643 M -171 0 R D 19334 23914 M -171 0 R D
19334 19719 M -85 0 R D 19334 19819 M -85 0 R D 19334 19904 M -85 0 R D
19334 19978 M -85 0 R D 19334 20043 M -85 0 R D 19334 20484 M -85 0 R D
19334 20707 M -85 0 R D 19334 20866 M -85 0 R D 19334 20989 M -85 0 R D
19334 21090 M -85 0 R D 19334 21175 M -85 0 R D 19334 21249 M -85 0 R D
19334 21314 M -85 0 R D 19334 21754 M -85 0 R D 19334 21978 M -85 0 R D
19334 22137 M -85 0 R D 19334 22260 M -85 0 R D 19334 22361 M -85 0 R D
19334 22446 M -85 0 R D 19334 22520 M -85 0 R D 19334 22585 M -85 0 R D
19334 23025 M -85 0 R D 19334 23249 M -85 0 R D 19334 23408 M -85 0 R D
19334 23531 M -85 0 R D 19334 23632 M -85 0 R D 19334 23717 M -85 0 R D
19334 23790 M -85 0 R D 19334 23855 M -85 0 R D 19334 24296 M -85 0 R D
1.000 0.000 0.706 setrgbcolor 15378 23766 M 427 -448 R 428 -514 R 428 -555 R
428 -394 R 428 -606 R 428 -542 R 428 -223 R D 0.506 0.000 0.000 setrgbcolor
15378 23151 M 427 -376 R 428 -396 R 428 -625 R 428 -329 R 428 -559 R
428 -382 R D 0.000 0.549 0.000 setrgbcolor 15378 22916 M 427 -191 R
428 -337 R 428 -325 R 428 -432 R 428 -642 R 428 -505 R D
0.000 0.000 0.000 setrgbcolor gsave 18264 23531 translate 0 0 M
(phb4) show grestore 2220 15141 M 4279 0 R D 2542 15141 M 0 183 R D
gsave 2542 14613 translate 0 0 M -58.8433 0 N
( ) show grestore 3612 15141 M 0 183 R D gsave 3612 14613 translate 0 0 M
-58.8433 0 N
( ) show grestore 4681 15141 M 0 183 R D gsave 4681 14613 translate 0 0 M
-58.8433 0 N
( ) show grestore 5751 15141 M 0 183 R D gsave 5751 14613 translate 0 0 M
-58.8433 0 N
( ) show grestore 2220 15141 M 0 91 R D 2305 15141 M 0 91 R D 2376 15141 M
0 91 R D 2438 15141 M 0 91 R D 2493 15141 M 0 91 R D 2864 15141 M 0 91 R D
3052 15141 M 0 91 R D 3186 15141 M 0 91 R D 3290 15141 M 0 91 R D
3374 15141 M 0 91 R D 3446 15141 M 0 91 R D 3508 15141 M 0 91 R D
3563 15141 M 0 91 R D 3934 15141 M 0 91 R D 4122 15141 M 0 91 R D
4256 15141 M 0 91 R D 4359 15141 M 0 91 R D 4444 15141 M 0 91 R D
4516 15141 M 0 91 R D 4578 15141 M 0 91 R D 4632 15141 M 0 91 R D
5003 15141 M 0 91 R D 5192 15141 M 0 91 R D 5325 15141 M 0 91 R D
5429 15141 M 0 91 R D 5514 15141 M 0 91 R D 5585 15141 M 0 91 R D
5647 15141 M 0 91 R D 5702 15141 M 0 91 R D 6073 15141 M 0 91 R D
6261 15141 M 0 91 R D 6395 15141 M 0 91 R D 6499 15141 M 0 91 R D
2220 19719 M 4279 0 R D 2542 19719 M 0 -184 R D 3612 19719 M 0 -184 R D
4681 19719 M 0 -184 R D 5751 19719 M 0 -184 R D 2220 19719 M 0 -92 R D
2305 19719 M 0 -92 R D 2376 19719 M 0 -92 R D 2438 19719 M 0 -92 R D
2493 19719 M 0 -92 R D 2864 19719 M 0 -92 R D 3052 19719 M 0 -92 R D
3186 19719 M 0 -92 R D 3290 19719 M 0 -92 R D 3374 19719 M 0 -92 R D
3446 19719 M 0 -92 R D 3508 19719 M 0 -92 R D 3563 19719 M 0 -92 R D
3934 19719 M 0 -92 R D 4122 19719 M 0 -92 R D 4256 19719 M 0 -92 R D
4359 19719 M 0 -92 R D 4444 19719 M 0 -92 R D 4516 19719 M 0 -92 R D
4578 19719 M 0 -92 R D 4632 19719 M 0 -92 R D 5003 19719 M 0 -92 R D
5192 19719 M 0 -92 R D 5325 19719 M 0 -92 R D 5429 19719 M 0 -92 R D
5514 19719 M 0 -92 R D 5585 19719 M 0 -92 R D 5647 19719 M 0 -92 R D
5702 19719 M 0 -92 R D 6073 19719 M 0 -92 R D 6261 19719 M 0 -92 R D
6395 19719 M 0 -92 R D 6499 19719 M 0 -92 R D 2220 15141 M 0 4578 R D
2220 15523 M 171 0 R D gsave 2109 15383 translate 0 0 M -235.373 0 N
(1) show grestore 2220 16794 M 171 0 R D gsave 2109 16654 translate 0 0 M
-470.747 0 N
(10) show grestore 2220 18065 M 171 0 R D gsave 2109 17924 translate 0 0 M
-706.12 0 N
(100) show grestore 2220 19336 M 171 0 R D gsave 2109 19195 translate 0 0 M
-941.493 0 N
(1000) show grestore 2220 15141 M 86 0 R D 2220 15242 M 86 0 R D
2220 15327 M 86 0 R D 2220 15400 M 86 0 R D 2220 15465 M 86 0 R D
2220 15906 M 86 0 R D 2220 16130 M 86 0 R D 2220 16289 M 86 0 R D
2220 16412 M 86 0 R D 2220 16512 M 86 0 R D 2220 16597 M 86 0 R D
2220 16671 M 86 0 R D 2220 16736 M 86 0 R D 2220 17177 M 86 0 R D
2220 17401 M 86 0 R D 2220 17559 M 86 0 R D 2220 17683 M 86 0 R D
2220 17783 M 86 0 R D 2220 17868 M 86 0 R D 2220 17942 M 86 0 R D
2220 18007 M 86 0 R D 2220 18448 M 86 0 R D 2220 18671 M 86 0 R D
2220 18830 M 86 0 R D 2220 18953 M 86 0 R D 2220 19054 M 86 0 R D
2220 19139 M 86 0 R D 2220 19213 M 86 0 R D 2220 19278 M 86 0 R D
2220 19719 M 86 0 R D 6499 15141 M 0 4578 R D 6499 15523 M -172 0 R D
6499 16794 M -172 0 R D 6499 18065 M -172 0 R D 6499 19336 M -172 0 R D
6499 15141 M -86 0 R D 6499 15242 M -86 0 R D 6499 15327 M -86 0 R D
6499 15400 M -86 0 R D 6499 15465 M -86 0 R D 6499 15906 M -86 0 R D
6499 16130 M -86 0 R D 6499 16289 M -86 0 R D 6499 16412 M -86 0 R D
6499 16512 M -86 0 R D 6499 16597 M -86 0 R D 6499 16671 M -86 0 R D
6499 16736 M -86 0 R D 6499 17177 M -86 0 R D 6499 17401 M -86 0 R D
6499 17559 M -86 0 R D 6499 17683 M -86 0 R D 6499 17783 M -86 0 R D
6499 17868 M -86 0 R D 6499 17942 M -86 0 R D 6499 18007 M -86 0 R D
6499 18448 M -86 0 R D 6499 18671 M -86 0 R D 6499 18830 M -86 0 R D
6499 18953 M -86 0 R D 6499 19054 M -86 0 R D 6499 19139 M -86 0 R D
6499 19213 M -86 0 R D 6499 19278 M -86 0 R D 6499 19719 M -86 0 R D
1.000 0.000 0.706 setrgbcolor 2542 19298 M 428 -495 R 428 -500 R 428 -578 R
427 -548 R 428 -580 R 428 -185 R 428 -123 R 428 -766 R D
0.506 0.000 0.000 setrgbcolor 2542 18806 M 428 -559 R 428 -512 R 428 -681 R
427 -765 R 428 -766 R D 0.000 0.549 0.000 setrgbcolor 2542 18548 M
428 -547 R 428 -470 R 428 -354 R 427 -765 R 428 -506 R D
0.000 0.514 1.000 setrgbcolor 2542 18726 M 428 -460 R 428 -521 R 428 -423 R
427 -475 R 428 -335 R 428 -382 R 428 -607 R D 0.000 0.000 0.000 setrgbcolor
gsave 5429 18953 translate 0 0 M
(phc2) show grestore 6499 15141 M 4278 0 R D 6821 15141 M 0 183 R D
gsave 6821 14613 translate 0 0 M -58.8433 0 N
( ) show grestore 7890 15141 M 0 183 R D gsave 7890 14613 translate 0 0 M
-58.8433 0 N
( ) show grestore 8960 15141 M 0 183 R D gsave 8960 14613 translate 0 0 M
-58.8433 0 N
( ) show grestore 10029 15141 M 0 183 R D gsave 10029 14613 translate 0 0 M
-58.8433 0 N
( ) show grestore 6499 15141 M 0 91 R D 6583 15141 M 0 91 R D 6655 15141 M
0 91 R D 6717 15141 M 0 91 R D 6772 15141 M 0 91 R D 7143 15141 M 0 91 R D
7331 15141 M 0 91 R D 7465 15141 M 0 91 R D 7568 15141 M 0 91 R D
7653 15141 M 0 91 R D 7725 15141 M 0 91 R D 7787 15141 M 0 91 R D
7841 15141 M 0 91 R D 8212 15141 M 0 91 R D 8401 15141 M 0 91 R D
8534 15141 M 0 91 R D 8638 15141 M 0 91 R D 8723 15141 M 0 91 R D
8794 15141 M 0 91 R D 8856 15141 M 0 91 R D 8911 15141 M 0 91 R D
9282 15141 M 0 91 R D 9470 15141 M 0 91 R D 9604 15141 M 0 91 R D
9707 15141 M 0 91 R D 9792 15141 M 0 91 R D 9864 15141 M 0 91 R D
9926 15141 M 0 91 R D 9981 15141 M 0 91 R D 10351 15141 M 0 91 R D
10540 15141 M 0 91 R D 10673 15141 M 0 91 R D 10777 15141 M 0 91 R D
6499 19719 M 4278 0 R D 6821 19719 M 0 -184 R D 7890 19719 M 0 -184 R D
8960 19719 M 0 -184 R D 10029 19719 M 0 -184 R D 6499 19719 M 0 -92 R D
6583 19719 M 0 -92 R D 6655 19719 M 0 -92 R D 6717 19719 M 0 -92 R D
6772 19719 M 0 -92 R D 7143 19719 M 0 -92 R D 7331 19719 M 0 -92 R D
7465 19719 M 0 -92 R D 7568 19719 M 0 -92 R D 7653 19719 M 0 -92 R D
7725 19719 M 0 -92 R D 7787 19719 M 0 -92 R D 7841 19719 M 0 -92 R D
8212 19719 M 0 -92 R D 8401 19719 M 0 -92 R D 8534 19719 M 0 -92 R D
8638 19719 M 0 -92 R D 8723 19719 M 0 -92 R D 8794 19719 M 0 -92 R D
8856 19719 M 0 -92 R D 8911 19719 M 0 -92 R D 9282 19719 M 0 -92 R D
9470 19719 M 0 -92 R D 9604 19719 M 0 -92 R D 9707 19719 M 0 -92 R D
9792 19719 M 0 -92 R D 9864 19719 M 0 -92 R D 9926 19719 M 0 -92 R D
9981 19719 M 0 -92 R D 10351 19719 M 0 -92 R D 10540 19719 M 0 -92 R D
10673 19719 M 0 -92 R D 10777 19719 M 0 -92 R D 6499 15141 M 0 4578 R D
6499 15523 M 171 0 R D gsave 6388 15383 translate 0 0 M -117.687 0 N
( ) show grestore 6499 16794 M 171 0 R D gsave 6388 16654 translate 0 0 M
-117.687 0 N
( ) show grestore 6499 18065 M 171 0 R D gsave 6388 17924 translate 0 0 M
-117.687 0 N
( ) show grestore 6499 19336 M 171 0 R D gsave 6388 19195 translate 0 0 M
-117.687 0 N
( ) show grestore 6499 15141 M 85 0 R D 6499 15242 M 85 0 R D 6499 15327 M
85 0 R D 6499 15400 M 85 0 R D 6499 15465 M 85 0 R D 6499 15906 M 85 0 R D
6499 16130 M 85 0 R D 6499 16289 M 85 0 R D 6499 16412 M 85 0 R D
6499 16512 M 85 0 R D 6499 16597 M 85 0 R D 6499 16671 M 85 0 R D
6499 16736 M 85 0 R D 6499 17177 M 85 0 R D 6499 17401 M 85 0 R D
6499 17559 M 85 0 R D 6499 17683 M 85 0 R D 6499 17783 M 85 0 R D
6499 17868 M 85 0 R D 6499 17942 M 85 0 R D 6499 18007 M 85 0 R D
6499 18448 M 85 0 R D 6499 18671 M 85 0 R D 6499 18830 M 85 0 R D
6499 18953 M 85 0 R D 6499 19054 M 85 0 R D 6499 19139 M 85 0 R D
6499 19213 M 85 0 R D 6499 19278 M 85 0 R D 6499 19719 M 85 0 R D
10777 15141 M 0 4578 R D 10777 15523 M -171 0 R D 10777 16794 M -171 0 R D
10777 18065 M -171 0 R D 10777 19336 M -171 0 R D 10777 15141 M -85 0 R D
10777 15242 M -85 0 R D 10777 15327 M -85 0 R D 10777 15400 M -85 0 R D
10777 15465 M -85 0 R D 10777 15906 M -85 0 R D 10777 16130 M -85 0 R D
10777 16289 M -85 0 R D 10777 16412 M -85 0 R D 10777 16512 M -85 0 R D
10777 16597 M -85 0 R D 10777 16671 M -85 0 R D 10777 16736 M -85 0 R D
10777 17177 M -85 0 R D 10777 17401 M -85 0 R D 10777 17559 M -85 0 R D
10777 17683 M -85 0 R D 10777 17783 M -85 0 R D 10777 17868 M -85 0 R D
10777 17942 M -85 0 R D 10777 18007 M -85 0 R D 10777 18448 M -85 0 R D
10777 18671 M -85 0 R D 10777 18830 M -85 0 R D 10777 18953 M -85 0 R D
10777 19054 M -85 0 R D 10777 19139 M -85 0 R D 10777 19213 M -85 0 R D
10777 19278 M -85 0 R D 10777 19719 M -85 0 R D
1.000 0.000 0.706 setrgbcolor 6821 19185 M 427 -466 R 428 -492 R 428 -482 R
428 -626 R 428 -607 R 428 -100 R 428 -123 R 427 -766 R D
0.506 0.000 0.000 setrgbcolor 6821 18633 M 427 -458 R 428 -515 R 428 -541 R
428 -522 R 428 -1074 R D 0.000 0.549 0.000 setrgbcolor 6821 18081 M
427 -254 R 428 -374 R 428 -473 R 428 -383 R 428 -1074 R D
0.000 0.514 1.000 setrgbcolor 6821 17660 M 427 0 R 428 -259 R 428 -462 R
428 -527 R 428 -889 R 428 0 R D 0.000 0.000 0.000 setrgbcolor
gsave 9707 18953 translate 0 0 M
(phc4) show grestore 10777 15141 M 4279 0 R D 11099 15141 M 0 183 R D
gsave 11099 14613 translate 0 0 M -58.8433 0 N
( ) show grestore 12169 15141 M 0 183 R D gsave 12169 14613 translate 0 0 M
-58.8433 0 N
( ) show grestore 13238 15141 M 0 183 R D gsave 13238 14613 translate 0 0 M
-58.8433 0 N
( ) show grestore 14308 15141 M 0 183 R D gsave 14308 14613 translate 0 0 M
-58.8433 0 N
( ) show grestore 10777 15141 M 0 91 R D 10862 15141 M 0 91 R D
10933 15141 M 0 91 R D 10995 15141 M 0 91 R D 11050 15141 M 0 91 R D
11421 15141 M 0 91 R D 11609 15141 M 0 91 R D 11743 15141 M 0 91 R D
11847 15141 M 0 91 R D 11931 15141 M 0 91 R D 12003 15141 M 0 91 R D
12065 15141 M 0 91 R D 12120 15141 M 0 91 R D 12491 15141 M 0 91 R D
12679 15141 M 0 91 R D 12813 15141 M 0 91 R D 12916 15141 M 0 91 R D
13001 15141 M 0 91 R D 13073 15141 M 0 91 R D 13135 15141 M 0 91 R D
13189 15141 M 0 91 R D 13560 15141 M 0 91 R D 13749 15141 M 0 91 R D
13882 15141 M 0 91 R D 13986 15141 M 0 91 R D 14071 15141 M 0 91 R D
14142 15141 M 0 91 R D 14204 15141 M 0 91 R D 14259 15141 M 0 91 R D
14630 15141 M 0 91 R D 14818 15141 M 0 91 R D 14952 15141 M 0 91 R D
15056 15141 M 0 91 R D 10777 19719 M 4279 0 R D 11099 19719 M 0 -184 R D
12169 19719 M 0 -184 R D 13238 19719 M 0 -184 R D 14308 19719 M 0 -184 R D
10777 19719 M 0 -92 R D 10862 19719 M 0 -92 R D 10933 19719 M 0 -92 R D
10995 19719 M 0 -92 R D 11050 19719 M 0 -92 R D 11421 19719 M 0 -92 R D
11609 19719 M 0 -92 R D 11743 19719 M 0 -92 R D 11847 19719 M 0 -92 R D
11931 19719 M 0 -92 R D 12003 19719 M 0 -92 R D 12065 19719 M 0 -92 R D
12120 19719 M 0 -92 R D 12491 19719 M 0 -92 R D 12679 19719 M 0 -92 R D
12813 19719 M 0 -92 R D 12916 19719 M 0 -92 R D 13001 19719 M 0 -92 R D
13073 19719 M 0 -92 R D 13135 19719 M 0 -92 R D 13189 19719 M 0 -92 R D
13560 19719 M 0 -92 R D 13749 19719 M 0 -92 R D 13882 19719 M 0 -92 R D
13986 19719 M 0 -92 R D 14071 19719 M 0 -92 R D 14142 19719 M 0 -92 R D
14204 19719 M 0 -92 R D 14259 19719 M 0 -92 R D 14630 19719 M 0 -92 R D
14818 19719 M 0 -92 R D 14952 19719 M 0 -92 R D 15056 19719 M 0 -92 R D
10777 15141 M 0 4578 R D 10777 15523 M 171 0 R D
gsave 10666 15383 translate 0 0 M -117.687 0 N
( ) show grestore 10777 16794 M 171 0 R D gsave 10666 16654 translate 0 0 M
-117.687 0 N
( ) show grestore 10777 18065 M 171 0 R D gsave 10666 17924 translate 0 0 M
-117.687 0 N
( ) show grestore 10777 19336 M 171 0 R D gsave 10666 19195 translate 0 0 M
-117.687 0 N
( ) show grestore 10777 15141 M 86 0 R D 10777 15242 M 86 0 R D
10777 15327 M 86 0 R D 10777 15400 M 86 0 R D 10777 15465 M 86 0 R D
10777 15906 M 86 0 R D 10777 16130 M 86 0 R D 10777 16289 M 86 0 R D
10777 16412 M 86 0 R D 10777 16512 M 86 0 R D 10777 16597 M 86 0 R D
10777 16671 M 86 0 R D 10777 16736 M 86 0 R D 10777 17177 M 86 0 R D
10777 17401 M 86 0 R D 10777 17559 M 86 0 R D 10777 17683 M 86 0 R D
10777 17783 M 86 0 R D 10777 17868 M 86 0 R D 10777 17942 M 86 0 R D
10777 18007 M 86 0 R D 10777 18448 M 86 0 R D 10777 18671 M 86 0 R D
10777 18830 M 86 0 R D 10777 18953 M 86 0 R D 10777 19054 M 86 0 R D
10777 19139 M 86 0 R D 10777 19213 M 86 0 R D 10777 19278 M 86 0 R D
10777 19719 M 86 0 R D 15056 15141 M 0 4578 R D 15056 15523 M -172 0 R D
15056 16794 M -172 0 R D 15056 18065 M -172 0 R D 15056 19336 M -172 0 R D
15056 15141 M -86 0 R D 15056 15242 M -86 0 R D 15056 15327 M -86 0 R D
15056 15400 M -86 0 R D 15056 15465 M -86 0 R D 15056 15906 M -86 0 R D
15056 16130 M -86 0 R D 15056 16289 M -86 0 R D 15056 16412 M -86 0 R D
15056 16512 M -86 0 R D 15056 16597 M -86 0 R D 15056 16671 M -86 0 R D
15056 16736 M -86 0 R D 15056 17177 M -86 0 R D 15056 17401 M -86 0 R D
15056 17559 M -86 0 R D 15056 17683 M -86 0 R D 15056 17783 M -86 0 R D
15056 17868 M -86 0 R D 15056 17942 M -86 0 R D 15056 18007 M -86 0 R D
15056 18448 M -86 0 R D 15056 18671 M -86 0 R D 15056 18830 M -86 0 R D
15056 18953 M -86 0 R D 15056 19054 M -86 0 R D 15056 19139 M -86 0 R D
15056 19213 M -86 0 R D 15056 19278 M -86 0 R D 15056 19719 M -86 0 R D
1.000 0.000 0.706 setrgbcolor 11099 19339 M 428 -490 R 428 -485 R 428 -581 R
427 -506 R 428 -430 R 428 -435 R 428 -282 R D 0.506 0.000 0.000 setrgbcolor
11099 19313 M 428 -500 R 428 -411 R 428 -503 R 427 -556 R 428 -448 R
428 -483 R 428 -282 R 428 -607 R D 0.000 0.549 0.000 setrgbcolor
11099 19004 M 428 -486 R 428 -475 R 428 -406 R 427 -460 R 428 -665 R
428 -382 R 428 -607 R D 0.000 0.514 1.000 setrgbcolor 11099 17921 M
428 -376 R 428 -527 R 428 -729 R 427 -766 R D 0.000 0.000 0.000 setrgbcolor
gsave 13986 18953 translate 0 0 M
(phd2) show grestore 15056 15141 M 4278 0 R D 15378 15141 M 0 183 R D
gsave 15378 14613 translate 0 0 M -58.8433 0 N
( ) show grestore 16447 15141 M 0 183 R D gsave 16447 14613 translate 0 0 M
-58.8433 0 N
( ) show grestore 17517 15141 M 0 183 R D gsave 17517 14613 translate 0 0 M
-58.8433 0 N
( ) show grestore 18586 15141 M 0 183 R D gsave 18586 14613 translate 0 0 M
-58.8433 0 N
( ) show grestore 15056 15141 M 0 91 R D 15140 15141 M 0 91 R D
15212 15141 M 0 91 R D 15274 15141 M 0 91 R D 15329 15141 M 0 91 R D
15700 15141 M 0 91 R D 15888 15141 M 0 91 R D 16022 15141 M 0 91 R D
16125 15141 M 0 91 R D 16210 15141 M 0 91 R D 16282 15141 M 0 91 R D
16344 15141 M 0 91 R D 16398 15141 M 0 91 R D 16769 15141 M 0 91 R D
16958 15141 M 0 91 R D 17091 15141 M 0 91 R D 17195 15141 M 0 91 R D
17280 15141 M 0 91 R D 17351 15141 M 0 91 R D 17413 15141 M 0 91 R D
17468 15141 M 0 91 R D 17839 15141 M 0 91 R D 18027 15141 M 0 91 R D
18161 15141 M 0 91 R D 18264 15141 M 0 91 R D 18349 15141 M 0 91 R D
18421 15141 M 0 91 R D 18483 15141 M 0 91 R D 18538 15141 M 0 91 R D
18908 15141 M 0 91 R D 19097 15141 M 0 91 R D 19230 15141 M 0 91 R D
19334 15141 M 0 91 R D 15056 19719 M 4278 0 R D 15378 19719 M 0 -184 R D
16447 19719 M 0 -184 R D 17517 19719 M 0 -184 R D 18586 19719 M 0 -184 R D
15056 19719 M 0 -92 R D 15140 19719 M 0 -92 R D 15212 19719 M 0 -92 R D
15274 19719 M 0 -92 R D 15329 19719 M 0 -92 R D 15700 19719 M 0 -92 R D
15888 19719 M 0 -92 R D 16022 19719 M 0 -92 R D 16125 19719 M 0 -92 R D
16210 19719 M 0 -92 R D 16282 19719 M 0 -92 R D 16344 19719 M 0 -92 R D
16398 19719 M 0 -92 R D 16769 19719 M 0 -92 R D 16958 19719 M 0 -92 R D
17091 19719 M 0 -92 R D 17195 19719 M 0 -92 R D 17280 19719 M 0 -92 R D
17351 19719 M 0 -92 R D 17413 19719 M 0 -92 R D 17468 19719 M 0 -92 R D
17839 19719 M 0 -92 R D 18027 19719 M 0 -92 R D 18161 19719 M 0 -92 R D
18264 19719 M 0 -92 R D 18349 19719 M 0 -92 R D 18421 19719 M 0 -92 R D
18483 19719 M 0 -92 R D 18538 19719 M 0 -92 R D 18908 19719 M 0 -92 R D
19097 19719 M 0 -92 R D 19230 19719 M 0 -92 R D 19334 19719 M 0 -92 R D
15056 15141 M 0 4578 R D 15056 15523 M 171 0 R D
gsave 14945 15383 translate 0 0 M -117.687 0 N
( ) show grestore 15056 16794 M 171 0 R D gsave 14945 16654 translate 0 0 M
-117.687 0 N
( ) show grestore 15056 18065 M 171 0 R D gsave 14945 17924 translate 0 0 M
-117.687 0 N
( ) show grestore 15056 19336 M 171 0 R D gsave 14945 19195 translate 0 0 M
-117.687 0 N
( ) show grestore 15056 15141 M 85 0 R D 15056 15242 M 85 0 R D
15056 15327 M 85 0 R D 15056 15400 M 85 0 R D 15056 15465 M 85 0 R D
15056 15906 M 85 0 R D 15056 16130 M 85 0 R D 15056 16289 M 85 0 R D
15056 16412 M 85 0 R D 15056 16512 M 85 0 R D 15056 16597 M 85 0 R D
15056 16671 M 85 0 R D 15056 16736 M 85 0 R D 15056 17177 M 85 0 R D
15056 17401 M 85 0 R D 15056 17559 M 85 0 R D 15056 17683 M 85 0 R D
15056 17783 M 85 0 R D 15056 17868 M 85 0 R D 15056 17942 M 85 0 R D
15056 18007 M 85 0 R D 15056 18448 M 85 0 R D 15056 18671 M 85 0 R D
15056 18830 M 85 0 R D 15056 18953 M 85 0 R D 15056 19054 M 85 0 R D
15056 19139 M 85 0 R D 15056 19213 M 85 0 R D 15056 19278 M 85 0 R D
15056 19719 M 85 0 R D 19334 15141 M 0 4578 R D 19334 15523 M -171 0 R D
19334 16794 M -171 0 R D 19334 18065 M -171 0 R D 19334 19336 M -171 0 R D
19334 15141 M -85 0 R D 19334 15242 M -85 0 R D 19334 15327 M -85 0 R D
19334 15400 M -85 0 R D 19334 15465 M -85 0 R D 19334 15906 M -85 0 R D
19334 16130 M -85 0 R D 19334 16289 M -85 0 R D 19334 16412 M -85 0 R D
19334 16512 M -85 0 R D 19334 16597 M -85 0 R D 19334 16671 M -85 0 R D
19334 16736 M -85 0 R D 19334 17177 M -85 0 R D 19334 17401 M -85 0 R D
19334 17559 M -85 0 R D 19334 17683 M -85 0 R D 19334 17783 M -85 0 R D
19334 17868 M -85 0 R D 19334 17942 M -85 0 R D 19334 18007 M -85 0 R D
19334 18448 M -85 0 R D 19334 18671 M -85 0 R D 19334 18830 M -85 0 R D
19334 18953 M -85 0 R D 19334 19054 M -85 0 R D 19334 19139 M -85 0 R D
19334 19213 M -85 0 R D 19334 19278 M -85 0 R D 19334 19719 M -85 0 R D
1.000 0.000 0.706 setrgbcolor 15378 19188 M 427 -416 R 428 -487 R 428 -602 R
428 -429 R 428 -407 R 428 -558 R 428 -159 R D 0.506 0.000 0.000 setrgbcolor
15378 19162 M 427 -404 R 428 -427 R 428 -455 R 428 -533 R 428 -549 R
428 -505 R 428 -159 R 427 -607 R D 0.000 0.549 0.000 setrgbcolor
15378 18684 M 427 -285 R 428 -398 R 428 -402 R 428 -545 R 428 -642 R
428 -506 R 428 -383 R D 0.000 0.000 0.000 setrgbcolor
gsave 18264 18953 translate 0 0 M
(phd4) show grestore 2220 10563 M 4279 0 R D 2542 10563 M 0 183 R D
gsave 2542 10035 translate 0 0 M -58.8433 0 N
( ) show grestore 3612 10563 M 0 183 R D gsave 3612 10035 translate 0 0 M
-58.8433 0 N
( ) show grestore 4681 10563 M 0 183 R D gsave 4681 10035 translate 0 0 M
-58.8433 0 N
( ) show grestore 5751 10563 M 0 183 R D gsave 5751 10035 translate 0 0 M
-58.8433 0 N
( ) show grestore 2220 10563 M 0 92 R D 2305 10563 M 0 92 R D 2376 10563 M
0 92 R D 2438 10563 M 0 92 R D 2493 10563 M 0 92 R D 2864 10563 M 0 92 R D
3052 10563 M 0 92 R D 3186 10563 M 0 92 R D 3290 10563 M 0 92 R D
3374 10563 M 0 92 R D 3446 10563 M 0 92 R D 3508 10563 M 0 92 R D
3563 10563 M 0 92 R D 3934 10563 M 0 92 R D 4122 10563 M 0 92 R D
4256 10563 M 0 92 R D 4359 10563 M 0 92 R D 4444 10563 M 0 92 R D
4516 10563 M 0 92 R D 4578 10563 M 0 92 R D 4632 10563 M 0 92 R D
5003 10563 M 0 92 R D 5192 10563 M 0 92 R D 5325 10563 M 0 92 R D
5429 10563 M 0 92 R D 5514 10563 M 0 92 R D 5585 10563 M 0 92 R D
5647 10563 M 0 92 R D 5702 10563 M 0 92 R D 6073 10563 M 0 92 R D
6261 10563 M 0 92 R D 6395 10563 M 0 92 R D 6499 10563 M 0 92 R D
2220 15141 M 4279 0 R D 2542 15141 M 0 -183 R D 3612 15141 M 0 -183 R D
4681 15141 M 0 -183 R D 5751 15141 M 0 -183 R D 2220 15141 M 0 -92 R D
2305 15141 M 0 -92 R D 2376 15141 M 0 -92 R D 2438 15141 M 0 -92 R D
2493 15141 M 0 -92 R D 2864 15141 M 0 -92 R D 3052 15141 M 0 -92 R D
3186 15141 M 0 -92 R D 3290 15141 M 0 -92 R D 3374 15141 M 0 -92 R D
3446 15141 M 0 -92 R D 3508 15141 M 0 -92 R D 3563 15141 M 0 -92 R D
3934 15141 M 0 -92 R D 4122 15141 M 0 -92 R D 4256 15141 M 0 -92 R D
4359 15141 M 0 -92 R D 4444 15141 M 0 -92 R D 4516 15141 M 0 -92 R D
4578 15141 M 0 -92 R D 4632 15141 M 0 -92 R D 5003 15141 M 0 -92 R D
5192 15141 M 0 -92 R D 5325 15141 M 0 -92 R D 5429 15141 M 0 -92 R D
5514 15141 M 0 -92 R D 5585 15141 M 0 -92 R D 5647 15141 M 0 -92 R D
5702 15141 M 0 -92 R D 6073 15141 M 0 -92 R D 6261 15141 M 0 -92 R D
6395 15141 M 0 -92 R D 6499 15141 M 0 -92 R D 2220 10563 M 0 4578 R D
2220 10946 M 171 0 R D gsave 2109 10805 translate 0 0 M -235.373 0 N
(1) show grestore 2220 12217 M 171 0 R D gsave 2109 12076 translate 0 0 M
-470.747 0 N
(10) show grestore 2220 13488 M 171 0 R D gsave 2109 13347 translate 0 0 M
-706.12 0 N
(100) show grestore 2220 14758 M 171 0 R D gsave 2109 14618 translate 0 0 M
-941.493 0 N
(1000) show grestore 2220 10563 M 86 0 R D 2220 10664 M 86 0 R D
2220 10749 M 86 0 R D 2220 10823 M 86 0 R D 2220 10888 M 86 0 R D
2220 11328 M 86 0 R D 2220 11552 M 86 0 R D 2220 11711 M 86 0 R D
2220 11834 M 86 0 R D 2220 11935 M 86 0 R D 2220 12020 M 86 0 R D
2220 12094 M 86 0 R D 2220 12159 M 86 0 R D 2220 12599 M 86 0 R D
2220 12823 M 86 0 R D 2220 12982 M 86 0 R D 2220 13105 M 86 0 R D
2220 13206 M 86 0 R D 2220 13291 M 86 0 R D 2220 13364 M 86 0 R D
2220 13429 M 86 0 R D 2220 13870 M 86 0 R D 2220 14094 M 86 0 R D
2220 14253 M 86 0 R D 2220 14376 M 86 0 R D 2220 14476 M 86 0 R D
2220 14562 M 86 0 R D 2220 14635 M 86 0 R D 2220 14700 M 86 0 R D
2220 15141 M 86 0 R D 6499 10563 M 0 4578 R D 6499 10946 M -172 0 R D
6499 12217 M -172 0 R D 6499 13488 M -172 0 R D 6499 14758 M -172 0 R D
6499 10563 M -86 0 R D 6499 10664 M -86 0 R D 6499 10749 M -86 0 R D
6499 10823 M -86 0 R D 6499 10888 M -86 0 R D 6499 11328 M -86 0 R D
6499 11552 M -86 0 R D 6499 11711 M -86 0 R D 6499 11834 M -86 0 R D
6499 11935 M -86 0 R D 6499 12020 M -86 0 R D 6499 12094 M -86 0 R D
6499 12159 M -86 0 R D 6499 12599 M -86 0 R D 6499 12823 M -86 0 R D
6499 12982 M -86 0 R D 6499 13105 M -86 0 R D 6499 13206 M -86 0 R D
6499 13291 M -86 0 R D 6499 13364 M -86 0 R D 6499 13429 M -86 0 R D
6499 13870 M -86 0 R D 6499 14094 M -86 0 R D 6499 14253 M -86 0 R D
6499 14376 M -86 0 R D 6499 14476 M -86 0 R D 6499 14562 M -86 0 R D
6499 14635 M -86 0 R D 6499 14700 M -86 0 R D 6499 15141 M -86 0 R D
1.000 0.000 0.706 setrgbcolor 2542 14626 M 428 -525 R 428 -486 R 428 -391 R
427 -420 R 428 -645 R 428 -325 R 428 -888 R D 0.506 0.000 0.000 setrgbcolor
2542 14498 M 428 -534 R 428 -529 R 428 -481 R 427 -413 R 428 -324 R
428 -665 R 428 -224 R 428 -382 R D 0.000 0.549 0.000 setrgbcolor
2542 14274 M 428 -534 R 428 -465 R 428 -510 R 427 -548 R 428 -506 R
428 -765 R D 0.000 0.514 1.000 setrgbcolor 2542 13661 M 428 -411 R
428 -446 R 428 -710 R 427 -260 R 428 -506 R 428 -382 R 428 0 R D
0.000 0.000 0.000 setrgbcolor gsave 5429 14376 translate 0 0 M
(phe2) show grestore 6499 10563 M 4278 0 R D 6821 10563 M 0 183 R D
gsave 6821 10035 translate 0 0 M -58.8433 0 N
( ) show grestore 7890 10563 M 0 183 R D gsave 7890 10035 translate 0 0 M
-58.8433 0 N
( ) show grestore 8960 10563 M 0 183 R D gsave 8960 10035 translate 0 0 M
-58.8433 0 N
( ) show grestore 10029 10563 M 0 183 R D gsave 10029 10035 translate 0 0 M
-58.8433 0 N
( ) show grestore 6499 10563 M 0 92 R D 6583 10563 M 0 92 R D 6655 10563 M
0 92 R D 6717 10563 M 0 92 R D 6772 10563 M 0 92 R D 7143 10563 M 0 92 R D
7331 10563 M 0 92 R D 7465 10563 M 0 92 R D 7568 10563 M 0 92 R D
7653 10563 M 0 92 R D 7725 10563 M 0 92 R D 7787 10563 M 0 92 R D
7841 10563 M 0 92 R D 8212 10563 M 0 92 R D 8401 10563 M 0 92 R D
8534 10563 M 0 92 R D 8638 10563 M 0 92 R D 8723 10563 M 0 92 R D
8794 10563 M 0 92 R D 8856 10563 M 0 92 R D 8911 10563 M 0 92 R D
9282 10563 M 0 92 R D 9470 10563 M 0 92 R D 9604 10563 M 0 92 R D
9707 10563 M 0 92 R D 9792 10563 M 0 92 R D 9864 10563 M 0 92 R D
9926 10563 M 0 92 R D 9981 10563 M 0 92 R D 10351 10563 M 0 92 R D
10540 10563 M 0 92 R D 10673 10563 M 0 92 R D 10777 10563 M 0 92 R D
6499 15141 M 4278 0 R D 6821 15141 M 0 -183 R D 7890 15141 M 0 -183 R D
8960 15141 M 0 -183 R D 10029 15141 M 0 -183 R D 6499 15141 M 0 -92 R D
6583 15141 M 0 -92 R D 6655 15141 M 0 -92 R D 6717 15141 M 0 -92 R D
6772 15141 M 0 -92 R D 7143 15141 M 0 -92 R D 7331 15141 M 0 -92 R D
7465 15141 M 0 -92 R D 7568 15141 M 0 -92 R D 7653 15141 M 0 -92 R D
7725 15141 M 0 -92 R D 7787 15141 M 0 -92 R D 7841 15141 M 0 -92 R D
8212 15141 M 0 -92 R D 8401 15141 M 0 -92 R D 8534 15141 M 0 -92 R D
8638 15141 M 0 -92 R D 8723 15141 M 0 -92 R D 8794 15141 M 0 -92 R D
8856 15141 M 0 -92 R D 8911 15141 M 0 -92 R D 9282 15141 M 0 -92 R D
9470 15141 M 0 -92 R D 9604 15141 M 0 -92 R D 9707 15141 M 0 -92 R D
9792 15141 M 0 -92 R D 9864 15141 M 0 -92 R D 9926 15141 M 0 -92 R D
9981 15141 M 0 -92 R D 10351 15141 M 0 -92 R D 10540 15141 M 0 -92 R D
10673 15141 M 0 -92 R D 10777 15141 M 0 -92 R D 6499 10563 M 0 4578 R D
6499 10946 M 171 0 R D gsave 6388 10805 translate 0 0 M -117.687 0 N
( ) show grestore 6499 12217 M 171 0 R D gsave 6388 12076 translate 0 0 M
-117.687 0 N
( ) show grestore 6499 13488 M 171 0 R D gsave 6388 13347 translate 0 0 M
-117.687 0 N
( ) show grestore 6499 14758 M 171 0 R D gsave 6388 14618 translate 0 0 M
-117.687 0 N
( ) show grestore 6499 10563 M 85 0 R D 6499 10664 M 85 0 R D 6499 10749 M
85 0 R D 6499 10823 M 85 0 R D 6499 10888 M 85 0 R D 6499 11328 M 85 0 R D
6499 11552 M 85 0 R D 6499 11711 M 85 0 R D 6499 11834 M 85 0 R D
6499 11935 M 85 0 R D 6499 12020 M 85 0 R D 6499 12094 M 85 0 R D
6499 12159 M 85 0 R D 6499 12599 M 85 0 R D 6499 12823 M 85 0 R D
6499 12982 M 85 0 R D 6499 13105 M 85 0 R D 6499 13206 M 85 0 R D
6499 13291 M 85 0 R D 6499 13364 M 85 0 R D 6499 13429 M 85 0 R D
6499 13870 M 85 0 R D 6499 14094 M 85 0 R D 6499 14253 M 85 0 R D
6499 14376 M 85 0 R D 6499 14476 M 85 0 R D 6499 14562 M 85 0 R D
6499 14635 M 85 0 R D 6499 14700 M 85 0 R D 6499 15141 M 85 0 R D
10777 10563 M 0 4578 R D 10777 10946 M -171 0 R D 10777 12217 M -171 0 R D
10777 13488 M -171 0 R D 10777 14758 M -171 0 R D 10777 10563 M -85 0 R D
10777 10664 M -85 0 R D 10777 10749 M -85 0 R D 10777 10823 M -85 0 R D
10777 10888 M -85 0 R D 10777 11328 M -85 0 R D 10777 11552 M -85 0 R D
10777 11711 M -85 0 R D 10777 11834 M -85 0 R D 10777 11935 M -85 0 R D
10777 12020 M -85 0 R D 10777 12094 M -85 0 R D 10777 12159 M -85 0 R D
10777 12599 M -85 0 R D 10777 12823 M -85 0 R D 10777 12982 M -85 0 R D
10777 13105 M -85 0 R D 10777 13206 M -85 0 R D 10777 13291 M -85 0 R D
10777 13364 M -85 0 R D 10777 13429 M -85 0 R D 10777 13870 M -85 0 R D
10777 14094 M -85 0 R D 10777 14253 M -85 0 R D 10777 14376 M -85 0 R D
10777 14476 M -85 0 R D 10777 14562 M -85 0 R D 10777 14635 M -85 0 R D
10777 14700 M -85 0 R D 10777 15141 M -85 0 R D
1.000 0.000 0.706 setrgbcolor 6821 14497 M 427 -484 R 428 -444 R 428 -464 R
428 -405 R 428 -483 R 428 -506 R 428 -765 R D 0.506 0.000 0.000 setrgbcolor
6821 14327 M 427 -451 R 428 -453 R 428 -455 R 428 -492 R 428 -456 R
428 -468 R 428 -606 R D 0.000 0.549 0.000 setrgbcolor 6821 14108 M
427 -419 R 428 -512 R 428 -412 R 428 -496 R 428 -435 R 428 -506 R D
0.000 0.514 1.000 setrgbcolor 6821 12804 M 427 0 R 428 -82 R 428 -405 R
428 -606 R 428 -765 R 428 0 R D 0.000 0.000 0.000 setrgbcolor
gsave 9707 14376 translate 0 0 M
(phe4) show grestore 10777 10563 M 4279 0 R D 11099 10563 M 0 183 R D
gsave 11099 10035 translate 0 0 M -58.8433 0 N
( ) show grestore 12169 10563 M 0 183 R D gsave 12169 10035 translate 0 0 M
-58.8433 0 N
( ) show grestore 13238 10563 M 0 183 R D gsave 13238 10035 translate 0 0 M
-58.8433 0 N
( ) show grestore 14308 10563 M 0 183 R D gsave 14308 10035 translate 0 0 M
-58.8433 0 N
( ) show grestore 10777 10563 M 0 92 R D 10862 10563 M 0 92 R D
10933 10563 M 0 92 R D 10995 10563 M 0 92 R D 11050 10563 M 0 92 R D
11421 10563 M 0 92 R D 11609 10563 M 0 92 R D 11743 10563 M 0 92 R D
11847 10563 M 0 92 R D 11931 10563 M 0 92 R D 12003 10563 M 0 92 R D
12065 10563 M 0 92 R D 12120 10563 M 0 92 R D 12491 10563 M 0 92 R D
12679 10563 M 0 92 R D 12813 10563 M 0 92 R D 12916 10563 M 0 92 R D
13001 10563 M 0 92 R D 13073 10563 M 0 92 R D 13135 10563 M 0 92 R D
13189 10563 M 0 92 R D 13560 10563 M 0 92 R D 13749 10563 M 0 92 R D
13882 10563 M 0 92 R D 13986 10563 M 0 92 R D 14071 10563 M 0 92 R D
14142 10563 M 0 92 R D 14204 10563 M 0 92 R D 14259 10563 M 0 92 R D
14630 10563 M 0 92 R D 14818 10563 M 0 92 R D 14952 10563 M 0 92 R D
15056 10563 M 0 92 R D 10777 15141 M 4279 0 R D 11099 15141 M 0 -183 R D
12169 15141 M 0 -183 R D 13238 15141 M 0 -183 R D 14308 15141 M 0 -183 R D
10777 15141 M 0 -92 R D 10862 15141 M 0 -92 R D 10933 15141 M 0 -92 R D
10995 15141 M 0 -92 R D 11050 15141 M 0 -92 R D 11421 15141 M 0 -92 R D
11609 15141 M 0 -92 R D 11743 15141 M 0 -92 R D 11847 15141 M 0 -92 R D
11931 15141 M 0 -92 R D 12003 15141 M 0 -92 R D 12065 15141 M 0 -92 R D
12120 15141 M 0 -92 R D 12491 15141 M 0 -92 R D 12679 15141 M 0 -92 R D
12813 15141 M 0 -92 R D 12916 15141 M 0 -92 R D 13001 15141 M 0 -92 R D
13073 15141 M 0 -92 R D 13135 15141 M 0 -92 R D 13189 15141 M 0 -92 R D
13560 15141 M 0 -92 R D 13749 15141 M 0 -92 R D 13882 15141 M 0 -92 R D
13986 15141 M 0 -92 R D 14071 15141 M 0 -92 R D 14142 15141 M 0 -92 R D
14204 15141 M 0 -92 R D 14259 15141 M 0 -92 R D 14630 15141 M 0 -92 R D
14818 15141 M 0 -92 R D 14952 15141 M 0 -92 R D 15056 15141 M 0 -92 R D
10777 10563 M 0 4578 R D 10777 10946 M 171 0 R D
gsave 10666 10805 translate 0 0 M -117.687 0 N
( ) show grestore 10777 12217 M 171 0 R D gsave 10666 12076 translate 0 0 M
-117.687 0 N
( ) show grestore 10777 13488 M 171 0 R D gsave 10666 13347 translate 0 0 M
-117.687 0 N
( ) show grestore 10777 14758 M 171 0 R D gsave 10666 14618 translate 0 0 M
-117.687 0 N
( ) show grestore 10777 10563 M 86 0 R D 10777 10664 M 86 0 R D
10777 10749 M 86 0 R D 10777 10823 M 86 0 R D 10777 10888 M 86 0 R D
10777 11328 M 86 0 R D 10777 11552 M 86 0 R D 10777 11711 M 86 0 R D
10777 11834 M 86 0 R D 10777 11935 M 86 0 R D 10777 12020 M 86 0 R D
10777 12094 M 86 0 R D 10777 12159 M 86 0 R D 10777 12599 M 86 0 R D
10777 12823 M 86 0 R D 10777 12982 M 86 0 R D 10777 13105 M 86 0 R D
10777 13206 M 86 0 R D 10777 13291 M 86 0 R D 10777 13364 M 86 0 R D
10777 13429 M 86 0 R D 10777 13870 M 86 0 R D 10777 14094 M 86 0 R D
10777 14253 M 86 0 R D 10777 14376 M 86 0 R D 10777 14476 M 86 0 R D
10777 14562 M 86 0 R D 10777 14635 M 86 0 R D 10777 14700 M 86 0 R D
10777 15141 M 86 0 R D 15056 10563 M 0 4578 R D 15056 10946 M -172 0 R D
15056 12217 M -172 0 R D 15056 13488 M -172 0 R D 15056 14758 M -172 0 R D
15056 10563 M -86 0 R D 15056 10664 M -86 0 R D 15056 10749 M -86 0 R D
15056 10823 M -86 0 R D 15056 10888 M -86 0 R D 15056 11328 M -86 0 R D
15056 11552 M -86 0 R D 15056 11711 M -86 0 R D 15056 11834 M -86 0 R D
15056 11935 M -86 0 R D 15056 12020 M -86 0 R D 15056 12094 M -86 0 R D
15056 12159 M -86 0 R D 15056 12599 M -86 0 R D 15056 12823 M -86 0 R D
15056 12982 M -86 0 R D 15056 13105 M -86 0 R D 15056 13206 M -86 0 R D
15056 13291 M -86 0 R D 15056 13364 M -86 0 R D 15056 13429 M -86 0 R D
15056 13870 M -86 0 R D 15056 14094 M -86 0 R D 15056 14253 M -86 0 R D
15056 14376 M -86 0 R D 15056 14476 M -86 0 R D 15056 14562 M -86 0 R D
15056 14635 M -86 0 R D 15056 14700 M -86 0 R D 15056 15141 M -86 0 R D
1.000 0.000 0.706 setrgbcolor 11099 14592 M 428 -496 R 428 -508 R 428 -483 R
427 -479 R 428 -691 R 428 -989 R 428 0 R 428 0 R D
0.506 0.000 0.000 setrgbcolor 11099 14511 M 428 -540 R 428 -512 R 428 -477 R
427 -306 R 428 -459 R 428 -889 R 428 -382 R D 0.000 0.549 0.000 setrgbcolor
11099 14210 M 428 -537 R 428 -526 R 428 -425 R 427 -628 R D
0.000 0.514 1.000 setrgbcolor 11099 13574 M 428 -458 R 428 -714 R 428 -467 R
427 -224 R 428 -765 R 428 0 R D 0.000 0.000 0.000 setrgbcolor
gsave 13986 14376 translate 0 0 M
(phf2) show grestore 15056 10563 M 4278 0 R D 15378 10563 M 0 183 R D
gsave 15378 10035 translate 0 0 M -58.8433 0 N
( ) show grestore 16447 10563 M 0 183 R D gsave 16447 10035 translate 0 0 M
-58.8433 0 N
( ) show grestore 17517 10563 M 0 183 R D gsave 17517 10035 translate 0 0 M
-58.8433 0 N
( ) show grestore 18586 10563 M 0 183 R D gsave 18586 10035 translate 0 0 M
-58.8433 0 N
( ) show grestore 15056 10563 M 0 92 R D 15140 10563 M 0 92 R D
15212 10563 M 0 92 R D 15274 10563 M 0 92 R D 15329 10563 M 0 92 R D
15700 10563 M 0 92 R D 15888 10563 M 0 92 R D 16022 10563 M 0 92 R D
16125 10563 M 0 92 R D 16210 10563 M 0 92 R D 16282 10563 M 0 92 R D
16344 10563 M 0 92 R D 16398 10563 M 0 92 R D 16769 10563 M 0 92 R D
16958 10563 M 0 92 R D 17091 10563 M 0 92 R D 17195 10563 M 0 92 R D
17280 10563 M 0 92 R D 17351 10563 M 0 92 R D 17413 10563 M 0 92 R D
17468 10563 M 0 92 R D 17839 10563 M 0 92 R D 18027 10563 M 0 92 R D
18161 10563 M 0 92 R D 18264 10563 M 0 92 R D 18349 10563 M 0 92 R D
18421 10563 M 0 92 R D 18483 10563 M 0 92 R D 18538 10563 M 0 92 R D
18908 10563 M 0 92 R D 19097 10563 M 0 92 R D 19230 10563 M 0 92 R D
19334 10563 M 0 92 R D 15056 15141 M 4278 0 R D 15378 15141 M 0 -183 R D
16447 15141 M 0 -183 R D 17517 15141 M 0 -183 R D 18586 15141 M 0 -183 R D
15056 15141 M 0 -92 R D 15140 15141 M 0 -92 R D 15212 15141 M 0 -92 R D
15274 15141 M 0 -92 R D 15329 15141 M 0 -92 R D 15700 15141 M 0 -92 R D
15888 15141 M 0 -92 R D 16022 15141 M 0 -92 R D 16125 15141 M 0 -92 R D
16210 15141 M 0 -92 R D 16282 15141 M 0 -92 R D 16344 15141 M 0 -92 R D
16398 15141 M 0 -92 R D 16769 15141 M 0 -92 R D 16958 15141 M 0 -92 R D
17091 15141 M 0 -92 R D 17195 15141 M 0 -92 R D 17280 15141 M 0 -92 R D
17351 15141 M 0 -92 R D 17413 15141 M 0 -92 R D 17468 15141 M 0 -92 R D
17839 15141 M 0 -92 R D 18027 15141 M 0 -92 R D 18161 15141 M 0 -92 R D
18264 15141 M 0 -92 R D 18349 15141 M 0 -92 R D 18421 15141 M 0 -92 R D
18483 15141 M 0 -92 R D 18538 15141 M 0 -92 R D 18908 15141 M 0 -92 R D
19097 15141 M 0 -92 R D 19230 15141 M 0 -92 R D 19334 15141 M 0 -92 R D
15056 10563 M 0 4578 R D 15056 10946 M 171 0 R D
gsave 14945 10805 translate 0 0 M -117.687 0 N
( ) show grestore 15056 12217 M 171 0 R D gsave 14945 12076 translate 0 0 M
-117.687 0 N
( ) show grestore 15056 13488 M 171 0 R D gsave 14945 13347 translate 0 0 M
-117.687 0 N
( ) show grestore 15056 14758 M 171 0 R D gsave 14945 14618 translate 0 0 M
-117.687 0 N
( ) show grestore 15056 10563 M 85 0 R D 15056 10664 M 85 0 R D
15056 10749 M 85 0 R D 15056 10823 M 85 0 R D 15056 10888 M 85 0 R D
15056 11328 M 85 0 R D 15056 11552 M 85 0 R D 15056 11711 M 85 0 R D
15056 11834 M 85 0 R D 15056 11935 M 85 0 R D 15056 12020 M 85 0 R D
15056 12094 M 85 0 R D 15056 12159 M 85 0 R D 15056 12599 M 85 0 R D
15056 12823 M 85 0 R D 15056 12982 M 85 0 R D 15056 13105 M 85 0 R D
15056 13206 M 85 0 R D 15056 13291 M 85 0 R D 15056 13364 M 85 0 R D
15056 13429 M 85 0 R D 15056 13870 M 85 0 R D 15056 14094 M 85 0 R D
15056 14253 M 85 0 R D 15056 14376 M 85 0 R D 15056 14476 M 85 0 R D
15056 14562 M 85 0 R D 15056 14635 M 85 0 R D 15056 14700 M 85 0 R D
15056 15141 M 85 0 R D 19334 10563 M 0 4578 R D 19334 10946 M -171 0 R D
19334 12217 M -171 0 R D 19334 13488 M -171 0 R D 19334 14758 M -171 0 R D
19334 10563 M -85 0 R D 19334 10664 M -85 0 R D 19334 10749 M -85 0 R D
19334 10823 M -85 0 R D 19334 10888 M -85 0 R D 19334 11328 M -85 0 R D
19334 11552 M -85 0 R D 19334 11711 M -85 0 R D 19334 11834 M -85 0 R D
19334 11935 M -85 0 R D 19334 12020 M -85 0 R D 19334 12094 M -85 0 R D
19334 12159 M -85 0 R D 19334 12599 M -85 0 R D 19334 12823 M -85 0 R D
19334 12982 M -85 0 R D 19334 13105 M -85 0 R D 19334 13206 M -85 0 R D
19334 13291 M -85 0 R D 19334 13364 M -85 0 R D 19334 13429 M -85 0 R D
19334 13870 M -85 0 R D 19334 14094 M -85 0 R D 19334 14253 M -85 0 R D
19334 14376 M -85 0 R D 19334 14476 M -85 0 R D 19334 14562 M -85 0 R D
19334 14635 M -85 0 R D 19334 14700 M -85 0 R D 19334 15141 M -85 0 R D
1.000 0.000 0.706 setrgbcolor 15378 14475 M 427 -454 R 428 -481 R 428 -424 R
428 -517 R 428 -664 R 428 -989 R 428 0 R 427 0 R D
0.506 0.000 0.000 setrgbcolor 15378 14364 M 427 -464 R 428 -515 R 428 -477 R
428 -232 R 428 -459 R 428 -889 R 428 -382 R D 0.000 0.549 0.000 setrgbcolor
15378 13980 M 427 -401 R 428 -421 R 428 -458 R 428 -541 R 428 -1213 R D
0.000 0.514 1.000 setrgbcolor 15378 12892 M 427 0 R 428 -382 R 428 -293 R
428 -665 R 428 -224 R D 0.000 0.000 0.000 setrgbcolor
gsave 18264 14376 translate 0 0 M
(phf4) show grestore 2220 5986 M 4279 0 R D 2542 5986 M 0 183 R D
gsave 2542 5458 translate 0 0 M -58.8433 0 N
( ) show grestore 3612 5986 M 0 183 R D gsave 3612 5458 translate 0 0 M
-58.8433 0 N
( ) show grestore 4681 5986 M 0 183 R D gsave 4681 5458 translate 0 0 M
-58.8433 0 N
( ) show grestore 5751 5986 M 0 183 R D gsave 5751 5458 translate 0 0 M
-58.8433 0 N
( ) show grestore 2220 5986 M 0 91 R D 2305 5986 M 0 91 R D 2376 5986 M
0 91 R D 2438 5986 M 0 91 R D 2493 5986 M 0 91 R D 2864 5986 M 0 91 R D
3052 5986 M 0 91 R D 3186 5986 M 0 91 R D 3290 5986 M 0 91 R D 3374 5986 M
0 91 R D 3446 5986 M 0 91 R D 3508 5986 M 0 91 R D 3563 5986 M 0 91 R D
3934 5986 M 0 91 R D 4122 5986 M 0 91 R D 4256 5986 M 0 91 R D 4359 5986 M
0 91 R D 4444 5986 M 0 91 R D 4516 5986 M 0 91 R D 4578 5986 M 0 91 R D
4632 5986 M 0 91 R D 5003 5986 M 0 91 R D 5192 5986 M 0 91 R D 5325 5986 M
0 91 R D 5429 5986 M 0 91 R D 5514 5986 M 0 91 R D 5585 5986 M 0 91 R D
5647 5986 M 0 91 R D 5702 5986 M 0 91 R D 6073 5986 M 0 91 R D 6261 5986 M
0 91 R D 6395 5986 M 0 91 R D 6499 5986 M 0 91 R D 2220 10563 M 4279 0 R D
2542 10563 M 0 -183 R D 3612 10563 M 0 -183 R D 4681 10563 M 0 -183 R D
5751 10563 M 0 -183 R D 2220 10563 M 0 -91 R D 2305 10563 M 0 -91 R D
2376 10563 M 0 -91 R D 2438 10563 M 0 -91 R D 2493 10563 M 0 -91 R D
2864 10563 M 0 -91 R D 3052 10563 M 0 -91 R D 3186 10563 M 0 -91 R D
3290 10563 M 0 -91 R D 3374 10563 M 0 -91 R D 3446 10563 M 0 -91 R D
3508 10563 M 0 -91 R D 3563 10563 M 0 -91 R D 3934 10563 M 0 -91 R D
4122 10563 M 0 -91 R D 4256 10563 M 0 -91 R D 4359 10563 M 0 -91 R D
4444 10563 M 0 -91 R D 4516 10563 M 0 -91 R D 4578 10563 M 0 -91 R D
4632 10563 M 0 -91 R D 5003 10563 M 0 -91 R D 5192 10563 M 0 -91 R D
5325 10563 M 0 -91 R D 5429 10563 M 0 -91 R D 5514 10563 M 0 -91 R D
5585 10563 M 0 -91 R D 5647 10563 M 0 -91 R D 5702 10563 M 0 -91 R D
6073 10563 M 0 -91 R D 6261 10563 M 0 -91 R D 6395 10563 M 0 -91 R D
6499 10563 M 0 -91 R D 2220 5986 M 0 4577 R D 2220 6368 M 171 0 R D
gsave 2109 6227 translate 0 0 M -235.373 0 N
(1) show grestore 2220 7639 M 171 0 R D gsave 2109 7498 translate 0 0 M
-470.747 0 N
(10) show grestore 2220 8910 M 171 0 R D gsave 2109 8769 translate 0 0 M
-706.12 0 N
(100) show grestore 2220 10181 M 171 0 R D gsave 2109 10040 translate 0 0 M
-941.493 0 N
(1000) show grestore 2220 5986 M 86 0 R D 2220 6086 M 86 0 R D 2220 6171 M
86 0 R D 2220 6245 M 86 0 R D 2220 6310 M 86 0 R D 2220 6751 M 86 0 R D
2220 6975 M 86 0 R D 2220 7133 M 86 0 R D 2220 7257 M 86 0 R D 2220 7357 M
86 0 R D 2220 7442 M 86 0 R D 2220 7516 M 86 0 R D 2220 7581 M 86 0 R D
2220 8022 M 86 0 R D 2220 8245 M 86 0 R D 2220 8404 M 86 0 R D 2220 8527 M
86 0 R D 2220 8628 M 86 0 R D 2220 8713 M 86 0 R D 2220 8787 M 86 0 R D
2220 8852 M 86 0 R D 2220 9292 M 86 0 R D 2220 9516 M 86 0 R D 2220 9675 M
86 0 R D 2220 9798 M 86 0 R D 2220 9899 M 86 0 R D 2220 9984 M 86 0 R D
2220 10058 M 86 0 R D 2220 10123 M 86 0 R D 2220 10563 M 86 0 R D
6499 5986 M 0 4577 R D 6499 6368 M -172 0 R D 6499 7639 M -172 0 R D
6499 8910 M -172 0 R D 6499 10181 M -172 0 R D 6499 5986 M -86 0 R D
6499 6086 M -86 0 R D 6499 6171 M -86 0 R D 6499 6245 M -86 0 R D
6499 6310 M -86 0 R D 6499 6751 M -86 0 R D 6499 6975 M -86 0 R D
6499 7133 M -86 0 R D 6499 7257 M -86 0 R D 6499 7357 M -86 0 R D
6499 7442 M -86 0 R D 6499 7516 M -86 0 R D 6499 7581 M -86 0 R D
6499 8022 M -86 0 R D 6499 8245 M -86 0 R D 6499 8404 M -86 0 R D
6499 8527 M -86 0 R D 6499 8628 M -86 0 R D 6499 8713 M -86 0 R D
6499 8787 M -86 0 R D 6499 8852 M -86 0 R D 6499 9292 M -86 0 R D
6499 9516 M -86 0 R D 6499 9675 M -86 0 R D 6499 9798 M -86 0 R D
6499 9899 M -86 0 R D 6499 9984 M -86 0 R D 6499 10058 M -86 0 R D
6499 10123 M -86 0 R D 6499 10563 M -86 0 R D 1.000 0.000 0.706 setrgbcolor
2542 10257 M 428 -479 R 428 -453 R 428 -449 R 427 -500 R 428 -354 R
428 -580 R 428 -85 R 428 -989 R D 0.506 0.000 0.000 setrgbcolor 2542 9936 M
428 -478 R 428 -476 R 428 -477 R 427 -573 R 428 -675 R 428 -282 R 428 -224 R
428 -383 R D 0.000 0.549 0.000 setrgbcolor 2542 9609 M 428 -443 R 428 -520 R
428 -524 R 427 -483 R 428 -506 R D 0.000 0.514 1.000 setrgbcolor 2542 8713 M
428 -352 R 428 -536 R 428 -383 R 427 -1074 R 428 0 R D
0.000 0.000 0.000 setrgbcolor gsave 5429 9798 translate 0 0 M
(phg2) show grestore 6499 5986 M 4278 0 R D 6821 5986 M 0 183 R D
gsave 6821 5458 translate 0 0 M -58.8433 0 N
( ) show grestore 7890 5986 M 0 183 R D gsave 7890 5458 translate 0 0 M
-58.8433 0 N
( ) show grestore 8960 5986 M 0 183 R D gsave 8960 5458 translate 0 0 M
-58.8433 0 N
( ) show grestore 10029 5986 M 0 183 R D gsave 10029 5458 translate 0 0 M
-58.8433 0 N
( ) show grestore 6499 5986 M 0 91 R D 6583 5986 M 0 91 R D 6655 5986 M
0 91 R D 6717 5986 M 0 91 R D 6772 5986 M 0 91 R D 7143 5986 M 0 91 R D
7331 5986 M 0 91 R D 7465 5986 M 0 91 R D 7568 5986 M 0 91 R D 7653 5986 M
0 91 R D 7725 5986 M 0 91 R D 7787 5986 M 0 91 R D 7841 5986 M 0 91 R D
8212 5986 M 0 91 R D 8401 5986 M 0 91 R D 8534 5986 M 0 91 R D 8638 5986 M
0 91 R D 8723 5986 M 0 91 R D 8794 5986 M 0 91 R D 8856 5986 M 0 91 R D
8911 5986 M 0 91 R D 9282 5986 M 0 91 R D 9470 5986 M 0 91 R D 9604 5986 M
0 91 R D 9707 5986 M 0 91 R D 9792 5986 M 0 91 R D 9864 5986 M 0 91 R D
9926 5986 M 0 91 R D 9981 5986 M 0 91 R D 10351 5986 M 0 91 R D 10540 5986 M
0 91 R D 10673 5986 M 0 91 R D 10777 5986 M 0 91 R D 6499 10563 M 4278 0 R D
6821 10563 M 0 -183 R D 7890 10563 M 0 -183 R D 8960 10563 M 0 -183 R D
10029 10563 M 0 -183 R D 6499 10563 M 0 -91 R D 6583 10563 M 0 -91 R D
6655 10563 M 0 -91 R D 6717 10563 M 0 -91 R D 6772 10563 M 0 -91 R D
7143 10563 M 0 -91 R D 7331 10563 M 0 -91 R D 7465 10563 M 0 -91 R D
7568 10563 M 0 -91 R D 7653 10563 M 0 -91 R D 7725 10563 M 0 -91 R D
7787 10563 M 0 -91 R D 7841 10563 M 0 -91 R D 8212 10563 M 0 -91 R D
8401 10563 M 0 -91 R D 8534 10563 M 0 -91 R D 8638 10563 M 0 -91 R D
8723 10563 M 0 -91 R D 8794 10563 M 0 -91 R D 8856 10563 M 0 -91 R D
8911 10563 M 0 -91 R D 9282 10563 M 0 -91 R D 9470 10563 M 0 -91 R D
9604 10563 M 0 -91 R D 9707 10563 M 0 -91 R D 9792 10563 M 0 -91 R D
9864 10563 M 0 -91 R D 9926 10563 M 0 -91 R D 9981 10563 M 0 -91 R D
10351 10563 M 0 -91 R D 10540 10563 M 0 -91 R D 10673 10563 M 0 -91 R D
10777 10563 M 0 -91 R D 6499 5986 M 0 4577 R D 6499 6368 M 171 0 R D
gsave 6388 6227 translate 0 0 M -117.687 0 N
( ) show grestore 6499 7639 M 171 0 R D gsave 6388 7498 translate 0 0 M
-117.687 0 N
( ) show grestore 6499 8910 M 171 0 R D gsave 6388 8769 translate 0 0 M
-117.687 0 N
( ) show grestore 6499 10181 M 171 0 R D gsave 6388 10040 translate 0 0 M
-117.687 0 N
( ) show grestore 6499 5986 M 85 0 R D 6499 6086 M 85 0 R D 6499 6171 M
85 0 R D 6499 6245 M 85 0 R D 6499 6310 M 85 0 R D 6499 6751 M 85 0 R D
6499 6975 M 85 0 R D 6499 7133 M 85 0 R D 6499 7257 M 85 0 R D 6499 7357 M
85 0 R D 6499 7442 M 85 0 R D 6499 7516 M 85 0 R D 6499 7581 M 85 0 R D
6499 8022 M 85 0 R D 6499 8245 M 85 0 R D 6499 8404 M 85 0 R D 6499 8527 M
85 0 R D 6499 8628 M 85 0 R D 6499 8713 M 85 0 R D 6499 8787 M 85 0 R D
6499 8852 M 85 0 R D 6499 9292 M 85 0 R D 6499 9516 M 85 0 R D 6499 9675 M
85 0 R D 6499 9798 M 85 0 R D 6499 9899 M 85 0 R D 6499 9984 M 85 0 R D
6499 10058 M 85 0 R D 6499 10123 M 85 0 R D 6499 10563 M 85 0 R D
10777 5986 M 0 4577 R D 10777 6368 M -171 0 R D 10777 7639 M -171 0 R D
10777 8910 M -171 0 R D 10777 10181 M -171 0 R D 10777 5986 M -85 0 R D
10777 6086 M -85 0 R D 10777 6171 M -85 0 R D 10777 6245 M -85 0 R D
10777 6310 M -85 0 R D 10777 6751 M -85 0 R D 10777 6975 M -85 0 R D
10777 7133 M -85 0 R D 10777 7257 M -85 0 R D 10777 7357 M -85 0 R D
10777 7442 M -85 0 R D 10777 7516 M -85 0 R D 10777 7581 M -85 0 R D
10777 8022 M -85 0 R D 10777 8245 M -85 0 R D 10777 8404 M -85 0 R D
10777 8527 M -85 0 R D 10777 8628 M -85 0 R D 10777 8713 M -85 0 R D
10777 8787 M -85 0 R D 10777 8852 M -85 0 R D 10777 9292 M -85 0 R D
10777 9516 M -85 0 R D 10777 9675 M -85 0 R D 10777 9798 M -85 0 R D
10777 9899 M -85 0 R D 10777 9984 M -85 0 R D 10777 10058 M -85 0 R D
10777 10123 M -85 0 R D 10777 10563 M -85 0 R D
1.000 0.000 0.706 setrgbcolor 6821 10144 M 427 -420 R 428 -460 R 428 -477 R
428 -426 R 428 -462 R 428 -457 R 428 -85 R 427 -989 R D
0.506 0.000 0.000 setrgbcolor 6821 9721 M 427 -378 R 428 -444 R 428 -430 R
428 -685 R 428 -651 R 428 -158 R 428 -224 R 427 -383 R D
0.000 0.549 0.000 setrgbcolor 6821 8516 M 427 0 R 428 -98 R 428 -396 R
428 -441 R 428 -448 R D 0.000 0.000 0.000 setrgbcolor
gsave 9707 9798 translate 0 0 M
(phg4) show grestore 10777 5986 M 4279 0 R D 11099 5986 M 0 183 R D
gsave 11099 5458 translate 0 0 M -352.04 0 N
(10) show X 192.937 M
%%IncludeResource: font Helvetica
262.467 /Helvetica STDFONT
(-5) show grestore
%%IncludeResource: font Helvetica
423.333 /Helvetica STDFONT 12169 5986 M 0 183 R D
gsave 12169 5458 translate 0 0 M -352.04 0 N
(10) show X 192.937 M
%%IncludeResource: font Helvetica
262.467 /Helvetica STDFONT
(-4) show grestore
%%IncludeResource: font Helvetica
423.333 /Helvetica STDFONT 13238 5986 M 0 183 R D
gsave 13238 5458 translate 0 0 M -352.04 0 N
(10) show X 192.937 M
%%IncludeResource: font Helvetica
262.467 /Helvetica STDFONT
(-3) show grestore
%%IncludeResource: font Helvetica
423.333 /Helvetica STDFONT 14308 5986 M 0 183 R D
gsave 14308 5458 translate 0 0 M -352.04 0 N
(10) show X 192.937 M
%%IncludeResource: font Helvetica
262.467 /Helvetica STDFONT
(-2) show grestore
%%IncludeResource: font Helvetica
423.333 /Helvetica STDFONT 10777 5986 M 0 91 R D 10862 5986 M 0 91 R D
10933 5986 M 0 91 R D 10995 5986 M 0 91 R D 11050 5986 M 0 91 R D
11421 5986 M 0 91 R D 11609 5986 M 0 91 R D 11743 5986 M 0 91 R D
11847 5986 M 0 91 R D 11931 5986 M 0 91 R D 12003 5986 M 0 91 R D
12065 5986 M 0 91 R D 12120 5986 M 0 91 R D 12491 5986 M 0 91 R D
12679 5986 M 0 91 R D 12813 5986 M 0 91 R D 12916 5986 M 0 91 R D
13001 5986 M 0 91 R D 13073 5986 M 0 91 R D 13135 5986 M 0 91 R D
13189 5986 M 0 91 R D 13560 5986 M 0 91 R D 13749 5986 M 0 91 R D
13882 5986 M 0 91 R D 13986 5986 M 0 91 R D 14071 5986 M 0 91 R D
14142 5986 M 0 91 R D 14204 5986 M 0 91 R D 14259 5986 M 0 91 R D
14630 5986 M 0 91 R D 14818 5986 M 0 91 R D 14952 5986 M 0 91 R D
15056 5986 M 0 91 R D 10777 10563 M 4279 0 R D 11099 10563 M 0 -183 R D
12169 10563 M 0 -183 R D 13238 10563 M 0 -183 R D 14308 10563 M 0 -183 R D
10777 10563 M 0 -91 R D 10862 10563 M 0 -91 R D 10933 10563 M 0 -91 R D
10995 10563 M 0 -91 R D 11050 10563 M 0 -91 R D 11421 10563 M 0 -91 R D
11609 10563 M 0 -91 R D 11743 10563 M 0 -91 R D 11847 10563 M 0 -91 R D
11931 10563 M 0 -91 R D 12003 10563 M 0 -91 R D 12065 10563 M 0 -91 R D
12120 10563 M 0 -91 R D 12491 10563 M 0 -91 R D 12679 10563 M 0 -91 R D
12813 10563 M 0 -91 R D 12916 10563 M 0 -91 R D 13001 10563 M 0 -91 R D
13073 10563 M 0 -91 R D 13135 10563 M 0 -91 R D 13189 10563 M 0 -91 R D
13560 10563 M 0 -91 R D 13749 10563 M 0 -91 R D 13882 10563 M 0 -91 R D
13986 10563 M 0 -91 R D 14071 10563 M 0 -91 R D 14142 10563 M 0 -91 R D
14204 10563 M 0 -91 R D 14259 10563 M 0 -91 R D 14630 10563 M 0 -91 R D
14818 10563 M 0 -91 R D 14952 10563 M 0 -91 R D 15056 10563 M 0 -91 R D
10777 5986 M 0 4577 R D 10777 6368 M 171 0 R D
gsave 10666 6227 translate 0 0 M -117.687 0 N
( ) show grestore 10777 7639 M 171 0 R D gsave 10666 7498 translate 0 0 M
-117.687 0 N
( ) show grestore 10777 8910 M 171 0 R D gsave 10666 8769 translate 0 0 M
-117.687 0 N
( ) show grestore 10777 10181 M 171 0 R D gsave 10666 10040 translate 0 0 M
-117.687 0 N
( ) show grestore 10777 5986 M 86 0 R D 10777 6086 M 86 0 R D 10777 6171 M
86 0 R D 10777 6245 M 86 0 R D 10777 6310 M 86 0 R D 10777 6751 M 86 0 R D
10777 6975 M 86 0 R D 10777 7133 M 86 0 R D 10777 7257 M 86 0 R D
10777 7357 M 86 0 R D 10777 7442 M 86 0 R D 10777 7516 M 86 0 R D
10777 7581 M 86 0 R D 10777 8022 M 86 0 R D 10777 8245 M 86 0 R D
10777 8404 M 86 0 R D 10777 8527 M 86 0 R D 10777 8628 M 86 0 R D
10777 8713 M 86 0 R D 10777 8787 M 86 0 R D 10777 8852 M 86 0 R D
10777 9292 M 86 0 R D 10777 9516 M 86 0 R D 10777 9675 M 86 0 R D
10777 9798 M 86 0 R D 10777 9899 M 86 0 R D 10777 9984 M 86 0 R D
10777 10058 M 86 0 R D 10777 10123 M 86 0 R D 10777 10563 M 86 0 R D
15056 5986 M 0 4577 R D 15056 6368 M -172 0 R D 15056 7639 M -172 0 R D
15056 8910 M -172 0 R D 15056 10181 M -172 0 R D 15056 5986 M -86 0 R D
15056 6086 M -86 0 R D 15056 6171 M -86 0 R D 15056 6245 M -86 0 R D
15056 6310 M -86 0 R D 15056 6751 M -86 0 R D 15056 6975 M -86 0 R D
15056 7133 M -86 0 R D 15056 7257 M -86 0 R D 15056 7357 M -86 0 R D
15056 7442 M -86 0 R D 15056 7516 M -86 0 R D 15056 7581 M -86 0 R D
15056 8022 M -86 0 R D 15056 8245 M -86 0 R D 15056 8404 M -86 0 R D
15056 8527 M -86 0 R D 15056 8628 M -86 0 R D 15056 8713 M -86 0 R D
15056 8787 M -86 0 R D 15056 8852 M -86 0 R D 15056 9292 M -86 0 R D
15056 9516 M -86 0 R D 15056 9675 M -86 0 R D 15056 9798 M -86 0 R D
15056 9899 M -86 0 R D 15056 9984 M -86 0 R D 15056 10058 M -86 0 R D
15056 10123 M -86 0 R D 15056 10563 M -86 0 R D
1.000 0.000 0.706 setrgbcolor 11099 10077 M 428 -445 R 428 -573 R 428 -543 R
427 -494 R 428 -580 R 428 -691 R 428 -383 R D 0.000 0.549 0.000 setrgbcolor
11099 9595 M 428 -450 R 428 -490 R 428 -691 R 427 -383 R D
0.000 0.514 1.000 setrgbcolor 11099 9115 M 428 -443 R 428 -740 R 428 -416 R
427 -259 R 428 -506 R 428 0 R D 0.000 0.000 0.000 setrgbcolor
gsave 13986 9798 translate 0 0 M
(phh2) show grestore 15056 5986 M 4278 0 R D 15378 5986 M 0 183 R D
gsave 15378 5458 translate 0 0 M -352.04 0 N
(10) show X 192.937 M
%%IncludeResource: font Helvetica
262.467 /Helvetica STDFONT
(-5) show grestore
%%IncludeResource: font Helvetica
423.333 /Helvetica STDFONT 16447 5986 M 0 183 R D
gsave 16447 5458 translate 0 0 M -352.04 0 N
(10) show X 192.937 M
%%IncludeResource: font Helvetica
262.467 /Helvetica STDFONT
(-4) show grestore
%%IncludeResource: font Helvetica
423.333 /Helvetica STDFONT 17517 5986 M 0 183 R D
gsave 17517 5458 translate 0 0 M -352.04 0 N
(10) show X 192.937 M
%%IncludeResource: font Helvetica
262.467 /Helvetica STDFONT
(-3) show grestore
%%IncludeResource: font Helvetica
423.333 /Helvetica STDFONT 18586 5986 M 0 183 R D
gsave 18586 5458 translate 0 0 M -352.04 0 N
(10) show X 192.937 M
%%IncludeResource: font Helvetica
262.467 /Helvetica STDFONT
(-2) show grestore
%%IncludeResource: font Helvetica
423.333 /Helvetica STDFONT 15056 5986 M 0 91 R D 15140 5986 M 0 91 R D
15212 5986 M 0 91 R D 15274 5986 M 0 91 R D 15329 5986 M 0 91 R D
15700 5986 M 0 91 R D 15888 5986 M 0 91 R D 16022 5986 M 0 91 R D
16125 5986 M 0 91 R D 16210 5986 M 0 91 R D 16282 5986 M 0 91 R D
16344 5986 M 0 91 R D 16398 5986 M 0 91 R D 16769 5986 M 0 91 R D
16958 5986 M 0 91 R D 17091 5986 M 0 91 R D 17195 5986 M 0 91 R D
17280 5986 M 0 91 R D 17351 5986 M 0 91 R D 17413 5986 M 0 91 R D
17468 5986 M 0 91 R D 17839 5986 M 0 91 R D 18027 5986 M 0 91 R D
18161 5986 M 0 91 R D 18264 5986 M 0 91 R D 18349 5986 M 0 91 R D
18421 5986 M 0 91 R D 18483 5986 M 0 91 R D 18538 5986 M 0 91 R D
18908 5986 M 0 91 R D 19097 5986 M 0 91 R D 19230 5986 M 0 91 R D
19334 5986 M 0 91 R D 15056 10563 M 4278 0 R D 15378 10563 M 0 -183 R D
16447 10563 M 0 -183 R D 17517 10563 M 0 -183 R D 18586 10563 M 0 -183 R D
15056 10563 M 0 -91 R D 15140 10563 M 0 -91 R D 15212 10563 M 0 -91 R D
15274 10563 M 0 -91 R D 15329 10563 M 0 -91 R D 15700 10563 M 0 -91 R D
15888 10563 M 0 -91 R D 16022 10563 M 0 -91 R D 16125 10563 M 0 -91 R D
16210 10563 M 0 -91 R D 16282 10563 M 0 -91 R D 16344 10563 M 0 -91 R D
16398 10563 M 0 -91 R D 16769 10563 M 0 -91 R D 16958 10563 M 0 -91 R D
17091 10563 M 0 -91 R D 17195 10563 M 0 -91 R D 17280 10563 M 0 -91 R D
17351 10563 M 0 -91 R D 17413 10563 M 0 -91 R D 17468 10563 M 0 -91 R D
17839 10563 M 0 -91 R D 18027 10563 M 0 -91 R D 18161 10563 M 0 -91 R D
18264 10563 M 0 -91 R D 18349 10563 M 0 -91 R D 18421 10563 M 0 -91 R D
18483 10563 M 0 -91 R D 18538 10563 M 0 -91 R D 18908 10563 M 0 -91 R D
19097 10563 M 0 -91 R D 19230 10563 M 0 -91 R D 19334 10563 M 0 -91 R D
15056 5986 M 0 4577 R D 15056 6368 M 171 0 R D
gsave 14945 6227 translate 0 0 M -117.687 0 N
( ) show grestore 15056 7639 M 171 0 R D gsave 14945 7498 translate 0 0 M
-117.687 0 N
( ) show grestore 15056 8910 M 171 0 R D gsave 14945 8769 translate 0 0 M
-117.687 0 N
( ) show grestore 15056 10181 M 171 0 R D gsave 14945 10040 translate 0 0 M
-117.687 0 N
( ) show grestore 15056 5986 M 85 0 R D 15056 6086 M 85 0 R D 15056 6171 M
85 0 R D 15056 6245 M 85 0 R D 15056 6310 M 85 0 R D 15056 6751 M 85 0 R D
15056 6975 M 85 0 R D 15056 7133 M 85 0 R D 15056 7257 M 85 0 R D
15056 7357 M 85 0 R D 15056 7442 M 85 0 R D 15056 7516 M 85 0 R D
15056 7581 M 85 0 R D 15056 8022 M 85 0 R D 15056 8245 M 85 0 R D
15056 8404 M 85 0 R D 15056 8527 M 85 0 R D 15056 8628 M 85 0 R D
15056 8713 M 85 0 R D 15056 8787 M 85 0 R D 15056 8852 M 85 0 R D
15056 9292 M 85 0 R D 15056 9516 M 85 0 R D 15056 9675 M 85 0 R D
15056 9798 M 85 0 R D 15056 9899 M 85 0 R D 15056 9984 M 85 0 R D
15056 10058 M 85 0 R D 15056 10123 M 85 0 R D 15056 10563 M 85 0 R D
19334 5986 M 0 4577 R D 19334 6368 M -171 0 R D 19334 7639 M -171 0 R D
19334 8910 M -171 0 R D 19334 10181 M -171 0 R D 19334 5986 M -85 0 R D
19334 6086 M -85 0 R D 19334 6171 M -85 0 R D 19334 6245 M -85 0 R D
19334 6310 M -85 0 R D 19334 6751 M -85 0 R D 19334 6975 M -85 0 R D
19334 7133 M -85 0 R D 19334 7257 M -85 0 R D 19334 7357 M -85 0 R D
19334 7442 M -85 0 R D 19334 7516 M -85 0 R D 19334 7581 M -85 0 R D
19334 8022 M -85 0 R D 19334 8245 M -85 0 R D 19334 8404 M -85 0 R D
19334 8527 M -85 0 R D 19334 8628 M -85 0 R D 19334 8713 M -85 0 R D
19334 8787 M -85 0 R D 19334 8852 M -85 0 R D 19334 9292 M -85 0 R D
19334 9516 M -85 0 R D 19334 9675 M -85 0 R D 19334 9798 M -85 0 R D
19334 9899 M -85 0 R D 19334 9984 M -85 0 R D 19334 10058 M -85 0 R D
19334 10123 M -85 0 R D 19334 10563 M -85 0 R D
1.000 0.000 0.706 setrgbcolor 15378 9982 M 427 -403 R 428 -568 R 428 -567 R
428 -480 R 428 -607 R 428 -606 R 428 -383 R D 0.000 0.549 0.000 setrgbcolor
15378 9096 M 427 -181 R 428 -388 R 428 -628 R 428 -383 R 428 -1148 R D
0.000 0.514 1.000 setrgbcolor 15378 8122 M 427 0 R 428 -223 R 428 -457 R
428 -309 R 428 -382 R 428 -383 R D 0.000 0.000 0.000 setrgbcolor
gsave 18264 9798 translate 0 0 M
(phh4) show grestore 2220 1408 M 4279 0 R D 2542 1408 M 0 183 R D
gsave 2542 880 translate 0 0 M -352.04 0 N
(10) show X 192.937 M
%%IncludeResource: font Helvetica
262.467 /Helvetica STDFONT
(-5) show grestore
%%IncludeResource: font Helvetica
423.333 /Helvetica STDFONT 3612 1408 M 0 183 R D
gsave 3612 880 translate 0 0 M -352.04 0 N
(10) show X 192.937 M
%%IncludeResource: font Helvetica
262.467 /Helvetica STDFONT
(-4) show grestore
%%IncludeResource: font Helvetica
423.333 /Helvetica STDFONT 4681 1408 M 0 183 R D
gsave 4681 880 translate 0 0 M -352.04 0 N
(10) show X 192.937 M
%%IncludeResource: font Helvetica
262.467 /Helvetica STDFONT
(-3) show grestore
%%IncludeResource: font Helvetica
423.333 /Helvetica STDFONT 5751 1408 M 0 183 R D
gsave 5751 880 translate 0 0 M -352.04 0 N
(10) show X 192.937 M
%%IncludeResource: font Helvetica
262.467 /Helvetica STDFONT
(-2) show grestore
%%IncludeResource: font Helvetica
423.333 /Helvetica STDFONT 2220 1408 M 0 92 R D 2305 1408 M 0 92 R D
2376 1408 M 0 92 R D 2438 1408 M 0 92 R D 2493 1408 M 0 92 R D 2864 1408 M
0 92 R D 3052 1408 M 0 92 R D 3186 1408 M 0 92 R D 3290 1408 M 0 92 R D
3374 1408 M 0 92 R D 3446 1408 M 0 92 R D 3508 1408 M 0 92 R D 3563 1408 M
0 92 R D 3934 1408 M 0 92 R D 4122 1408 M 0 92 R D 4256 1408 M 0 92 R D
4359 1408 M 0 92 R D 4444 1408 M 0 92 R D 4516 1408 M 0 92 R D 4578 1408 M
0 92 R D 4632 1408 M 0 92 R D 5003 1408 M 0 92 R D 5192 1408 M 0 92 R D
5325 1408 M 0 92 R D 5429 1408 M 0 92 R D 5514 1408 M 0 92 R D 5585 1408 M
0 92 R D 5647 1408 M 0 92 R D 5702 1408 M 0 92 R D 6073 1408 M 0 92 R D
6261 1408 M 0 92 R D 6395 1408 M 0 92 R D 6499 1408 M 0 92 R D 2220 5986 M
4279 0 R D 2542 5986 M 0 -183 R D 3612 5986 M 0 -183 R D 4681 5986 M
0 -183 R D 5751 5986 M 0 -183 R D 2220 5986 M 0 -92 R D 2305 5986 M 0 -92 R
D 2376 5986 M 0 -92 R D 2438 5986 M 0 -92 R D 2493 5986 M 0 -92 R D
2864 5986 M 0 -92 R D 3052 5986 M 0 -92 R D 3186 5986 M 0 -92 R D
3290 5986 M 0 -92 R D 3374 5986 M 0 -92 R D 3446 5986 M 0 -92 R D
3508 5986 M 0 -92 R D 3563 5986 M 0 -92 R D 3934 5986 M 0 -92 R D
4122 5986 M 0 -92 R D 4256 5986 M 0 -92 R D 4359 5986 M 0 -92 R D
4444 5986 M 0 -92 R D 4516 5986 M 0 -92 R D 4578 5986 M 0 -92 R D
4632 5986 M 0 -92 R D 5003 5986 M 0 -92 R D 5192 5986 M 0 -92 R D
5325 5986 M 0 -92 R D 5429 5986 M 0 -92 R D 5514 5986 M 0 -92 R D
5585 5986 M 0 -92 R D 5647 5986 M 0 -92 R D 5702 5986 M 0 -92 R D
6073 5986 M 0 -92 R D 6261 5986 M 0 -92 R D 6395 5986 M 0 -92 R D
6499 5986 M 0 -92 R D 2220 1408 M 0 4578 R D 2220 1791 M 171 0 R D
gsave 2109 1650 translate 0 0 M -235.373 0 N
(1) show grestore 2220 3062 M 171 0 R D gsave 2109 2921 translate 0 0 M
-470.747 0 N
(10) show grestore 2220 4332 M 171 0 R D gsave 2109 4192 translate 0 0 M
-706.12 0 N
(100) show grestore 2220 5603 M 171 0 R D gsave 2109 5462 translate 0 0 M
-941.493 0 N
(1000) show grestore 2220 1408 M 86 0 R D 2220 1509 M 86 0 R D 2220 1594 M
86 0 R D 2220 1668 M 86 0 R D 2220 1733 M 86 0 R D 2220 2173 M 86 0 R D
2220 2397 M 86 0 R D 2220 2556 M 86 0 R D 2220 2679 M 86 0 R D 2220 2780 M
86 0 R D 2220 2865 M 86 0 R D 2220 2938 M 86 0 R D 2220 3003 M 86 0 R D
2220 3444 M 86 0 R D 2220 3668 M 86 0 R D 2220 3827 M 86 0 R D 2220 3950 M
86 0 R D 2220 4050 M 86 0 R D 2220 4135 M 86 0 R D 2220 4209 M 86 0 R D
2220 4274 M 86 0 R D 2220 4715 M 86 0 R D 2220 4939 M 86 0 R D 2220 5097 M
86 0 R D 2220 5221 M 86 0 R D 2220 5321 M 86 0 R D 2220 5406 M 86 0 R D
2220 5480 M 86 0 R D 2220 5545 M 86 0 R D 2220 5986 M 86 0 R D 6499 1408 M
0 4578 R D 6499 1791 M -172 0 R D 6499 3062 M -172 0 R D 6499 4332 M
-172 0 R D 6499 5603 M -172 0 R D 6499 1408 M -86 0 R D 6499 1509 M -86 0 R
D 6499 1594 M -86 0 R D 6499 1668 M -86 0 R D 6499 1733 M -86 0 R D
6499 2173 M -86 0 R D 6499 2397 M -86 0 R D 6499 2556 M -86 0 R D
6499 2679 M -86 0 R D 6499 2780 M -86 0 R D 6499 2865 M -86 0 R D
6499 2938 M -86 0 R D 6499 3003 M -86 0 R D 6499 3444 M -86 0 R D
6499 3668 M -86 0 R D 6499 3827 M -86 0 R D 6499 3950 M -86 0 R D
6499 4050 M -86 0 R D 6499 4135 M -86 0 R D 6499 4209 M -86 0 R D
6499 4274 M -86 0 R D 6499 4715 M -86 0 R D 6499 4939 M -86 0 R D
6499 5097 M -86 0 R D 6499 5221 M -86 0 R D 6499 5321 M -86 0 R D
6499 5406 M -86 0 R D 6499 5480 M -86 0 R D 6499 5545 M -86 0 R D
6499 5986 M -86 0 R D 1.000 0.000 0.706 setrgbcolor 2542 5497 M 428 -472 R
428 -527 R 428 -594 R 427 -657 R 428 -382 R 428 -186 R 428 -888 R D
0.506 0.000 0.000 setrgbcolor 2542 5508 M 428 -476 R 428 -483 R 428 -446 R
427 -687 R 428 -478 R 428 -765 R 428 -382 R D 0.000 0.549 0.000 setrgbcolor
2542 5051 M 428 -470 R 428 -531 R 428 -483 R 427 -361 R 428 -650 R
428 -765 R D 0.000 0.514 1.000 setrgbcolor 2542 4298 M 428 -419 R 428 -558 R
428 -642 R D 0.000 0.000 0.000 setrgbcolor gsave 5429 5221 translate 0 0 M
(phi2) show grestore 6499 1408 M 4278 0 R D 6821 1408 M 0 183 R D
gsave 6821 880 translate 0 0 M -352.04 0 N
(10) show X 192.937 M
%%IncludeResource: font Helvetica
262.467 /Helvetica STDFONT
(-5) show grestore
%%IncludeResource: font Helvetica
423.333 /Helvetica STDFONT 7890 1408 M 0 183 R D
gsave 7890 880 translate 0 0 M -352.04 0 N
(10) show X 192.937 M
%%IncludeResource: font Helvetica
262.467 /Helvetica STDFONT
(-4) show grestore
%%IncludeResource: font Helvetica
423.333 /Helvetica STDFONT 8960 1408 M 0 183 R D
gsave 8960 880 translate 0 0 M -352.04 0 N
(10) show X 192.937 M
%%IncludeResource: font Helvetica
262.467 /Helvetica STDFONT
(-3) show grestore
%%IncludeResource: font Helvetica
423.333 /Helvetica STDFONT 10029 1408 M 0 183 R D
gsave 10029 880 translate 0 0 M -352.04 0 N
(10) show X 192.937 M
%%IncludeResource: font Helvetica
262.467 /Helvetica STDFONT
(-2) show grestore
%%IncludeResource: font Helvetica
423.333 /Helvetica STDFONT 6499 1408 M 0 92 R D 6583 1408 M 0 92 R D
6655 1408 M 0 92 R D 6717 1408 M 0 92 R D 6772 1408 M 0 92 R D 7143 1408 M
0 92 R D 7331 1408 M 0 92 R D 7465 1408 M 0 92 R D 7568 1408 M 0 92 R D
7653 1408 M 0 92 R D 7725 1408 M 0 92 R D 7787 1408 M 0 92 R D 7841 1408 M
0 92 R D 8212 1408 M 0 92 R D 8401 1408 M 0 92 R D 8534 1408 M 0 92 R D
8638 1408 M 0 92 R D 8723 1408 M 0 92 R D 8794 1408 M 0 92 R D 8856 1408 M
0 92 R D 8911 1408 M 0 92 R D 9282 1408 M 0 92 R D 9470 1408 M 0 92 R D
9604 1408 M 0 92 R D 9707 1408 M 0 92 R D 9792 1408 M 0 92 R D 9864 1408 M
0 92 R D 9926 1408 M 0 92 R D 9981 1408 M 0 92 R D 10351 1408 M 0 92 R D
10540 1408 M 0 92 R D 10673 1408 M 0 92 R D 10777 1408 M 0 92 R D
6499 5986 M 4278 0 R D 6821 5986 M 0 -183 R D 7890 5986 M 0 -183 R D
8960 5986 M 0 -183 R D 10029 5986 M 0 -183 R D 6499 5986 M 0 -92 R D
6583 5986 M 0 -92 R D 6655 5986 M 0 -92 R D 6717 5986 M 0 -92 R D
6772 5986 M 0 -92 R D 7143 5986 M 0 -92 R D 7331 5986 M 0 -92 R D
7465 5986 M 0 -92 R D 7568 5986 M 0 -92 R D 7653 5986 M 0 -92 R D
7725 5986 M 0 -92 R D 7787 5986 M 0 -92 R D 7841 5986 M 0 -92 R D
8212 5986 M 0 -92 R D 8401 5986 M 0 -92 R D 8534 5986 M 0 -92 R D
8638 5986 M 0 -92 R D 8723 5986 M 0 -92 R D 8794 5986 M 0 -92 R D
8856 5986 M 0 -92 R D 8911 5986 M 0 -92 R D 9282 5986 M 0 -92 R D
9470 5986 M 0 -92 R D 9604 5986 M 0 -92 R D 9707 5986 M 0 -92 R D
9792 5986 M 0 -92 R D 9864 5986 M 0 -92 R D 9926 5986 M 0 -92 R D
9981 5986 M 0 -92 R D 10351 5986 M 0 -92 R D 10540 5986 M 0 -92 R D
10673 5986 M 0 -92 R D 10777 5986 M 0 -92 R D 6499 1408 M 0 4578 R D
6499 1791 M 171 0 R D gsave 6388 1650 translate 0 0 M -117.687 0 N
( ) show grestore 6499 3062 M 171 0 R D gsave 6388 2921 translate 0 0 M
-117.687 0 N
( ) show grestore 6499 4332 M 171 0 R D gsave 6388 4192 translate 0 0 M
-117.687 0 N
( ) show grestore 6499 5603 M 171 0 R D gsave 6388 5462 translate 0 0 M
-117.687 0 N
( ) show grestore 6499 1408 M 85 0 R D 6499 1509 M 85 0 R D 6499 1594 M
85 0 R D 6499 1668 M 85 0 R D 6499 1733 M 85 0 R D 6499 2173 M 85 0 R D
6499 2397 M 85 0 R D 6499 2556 M 85 0 R D 6499 2679 M 85 0 R D 6499 2780 M
85 0 R D 6499 2865 M 85 0 R D 6499 2938 M 85 0 R D 6499 3003 M 85 0 R D
6499 3444 M 85 0 R D 6499 3668 M 85 0 R D 6499 3827 M 85 0 R D 6499 3950 M
85 0 R D 6499 4050 M 85 0 R D 6499 4135 M 85 0 R D 6499 4209 M 85 0 R D
6499 4274 M 85 0 R D 6499 4715 M 85 0 R D 6499 4939 M 85 0 R D 6499 5097 M
85 0 R D 6499 5221 M 85 0 R D 6499 5321 M 85 0 R D 6499 5406 M 85 0 R D
6499 5480 M 85 0 R D 6499 5545 M 85 0 R D 6499 5986 M 85 0 R D 10777 1408 M
0 4578 R D 10777 1791 M -171 0 R D 10777 3062 M -171 0 R D 10777 4332 M
-171 0 R D 10777 5603 M -171 0 R D 10777 1408 M -85 0 R D 10777 1509 M
-85 0 R D 10777 1594 M -85 0 R D 10777 1668 M -85 0 R D 10777 1733 M -85 0 R
D 10777 2173 M -85 0 R D 10777 2397 M -85 0 R D 10777 2556 M -85 0 R D
10777 2679 M -85 0 R D 10777 2780 M -85 0 R D 10777 2865 M -85 0 R D
10777 2938 M -85 0 R D 10777 3003 M -85 0 R D 10777 3444 M -85 0 R D
10777 3668 M -85 0 R D 10777 3827 M -85 0 R D 10777 3950 M -85 0 R D
10777 4050 M -85 0 R D 10777 4135 M -85 0 R D 10777 4209 M -85 0 R D
10777 4274 M -85 0 R D 10777 4715 M -85 0 R D 10777 4939 M -85 0 R D
10777 5097 M -85 0 R D 10777 5221 M -85 0 R D 10777 5321 M -85 0 R D
10777 5406 M -85 0 R D 10777 5480 M -85 0 R D 10777 5545 M -85 0 R D
10777 5986 M -85 0 R D 1.000 0.000 0.706 setrgbcolor 6821 5376 M 427 -388 R
428 -490 R 428 -571 R 428 -813 R 428 -334 R 428 -224 R 428 -765 R D
0.506 0.000 0.000 setrgbcolor 6821 5400 M 427 -419 R 428 -463 R 428 -458 R
428 -563 R 428 -717 R 428 -607 R D 0.000 0.549 0.000 setrgbcolor 6821 4845 M
427 -445 R 428 -461 R 428 -442 R 428 -335 R 428 -483 R D
0.000 0.000 0.000 setrgbcolor gsave 9707 5221 translate 0 0 M
(phi4) show grestore 1.000 0.000 0.706 setrgbcolor 13344 3697 M 86 0 R
85 0 R 86 0 R 85 0 R 86 0 R 86 0 R 85 0 R 86 0 R 85 0 R D
0.506 0.000 0.000 setrgbcolor 13344 3239 M 86 0 R 85 0 R 86 0 R 85 0 R
86 0 R 86 0 R 85 0 R 86 0 R 85 0 R D 0.000 0.549 0.000 setrgbcolor
13344 2781 M 86 0 R 85 0 R 86 0 R 85 0 R 86 0 R 86 0 R 85 0 R 86 0 R 85 0 R
D 0.000 0.514 1.000 setrgbcolor 13344 2324 M 86 0 R 85 0 R 86 0 R 85 0 R
86 0 R 86 0 R 85 0 R 86 0 R 85 0 R D 1.000 0.349 0.000 setrgbcolor
13344 1866 M 86 0 R 85 0 R 86 0 R 85 0 R 86 0 R 86 0 R 85 0 R 86 0 R 85 0 R
D 1.000 0.000 0.706 setrgbcolor gsave 14200 3504 translate 0 0 M
(a=1.000) show grestore 0.506 0.000 0.000 setrgbcolor
gsave 14200 3046 translate 0 0 M
(a=0.781) show grestore 0.000 0.549 0.000 setrgbcolor
gsave 14200 2588 translate 0 0 M
(a=0.547) show grestore 0.000 0.514 1.000 setrgbcolor
gsave 14200 2130 translate 0 0 M
(a=0.343) show grestore 1.000 0.349 0.000 setrgbcolor
gsave 14200 1673 translate 0 0 M
(a=0.193) show grestore
%%PageTrailer
end
%%PageResources: font Helvetica
%%Trailer
%%Pages: 1
%%DocumentNeededResources: font Helvetica
%%EOF
