%!PS-Adobe-3.0 EPSF-3.0
%%BoundingBox: 0 0 566 708
%%Title: Graphics produced by IDL
%%For: daxia@Lserver, /home/daxia/work/phoenix
%%Creator: IDL Version 7.0 (linux x86_64 m64)
%%CreationDate: Sat Apr  9 11:54:19 2011
%%DocumentData: Clean7bit
%%Requirements: color
%%LanguageLevel: 1
%%PageOrder: Ascend
%%Pages: (atend)
%%DocumentNeededResources: (atend)
%%EndComments
%%BeginProlog
%+ prolog.ps -- Prolog for IDL generated PostScript files
%+ Copyright (c) 1988-2007 ITT Visual Information Solutions. All Rights Reserved.
%v 5
/$IDL_DICT 40 dict def $IDL_DICT begin /bdef { bind def } bind def /C
{currentpoint newpath moveto} bdef /CP {currentpoint} bdef /D {currentpoint
stroke moveto} bdef /F {closepath fill} bdef /K { setgray } bdef /M {moveto}
bdef /N {rmoveto} bdef /P {lineto} bdef /R {rlineto} bdef /S {gsave show
grestore} bdef /X {currentpoint pop} bdef /Z {gsave currentpoint lineto 20
setlinewidth 1 setlinecap stroke grestore} bdef /L0 {[] 0 setdash} bdef /L1
{[40 100] 0 setdash} bdef /L2 {[200 200] 0 setdash} bdef /L3 {[200 100 50
100] 0 setdash} bdef /L4 {[300 100 50 100 50 100 50 100] 0 setdash} bdef /L5
{[400 200] 0 setdash} bdef /STDFONT { findfont exch scalefont setfont } bdef
/ISOFONT { findfont dup length dict begin { 1 index /FID ne {def} {pop pop}
ifelse } forall /Encoding ISOLatin1Encoding def currentdict end /idltmpfont
exch definefont exch scalefont setfont } bdef /ISOBULLET { gsave /Helvetica
findfont exch scalefont setfont (\267) show currentpoint grestore moveto}
bdef /MITERLIMIT { 2.5 setmiterlimit } bdef end
%%EndProlog
%%Page: 0 1
%%PageRequirements: color
%%PageResources: (atend)
%%PageOrientation: Portrait
%%PageBoundingBox: 0 0 566 708
%%BeginPageSetup
$IDL_DICT begin 0.0283465 dup scale MITERLIMIT
%%IncludeResource: font Helvetica
423.333 /Helvetica STDFONT
%%EndPageSetup
0.000 0.000 0.000 setrgbcolor gsave 10777 352 translate 0 0 M -420.603 0 N
(r/R) show X -101.051 M
%%IncludeResource: font Helvetica
262.467 /Helvetica STDFONT
(vir) show grestore
%%IncludeResource: font Helvetica
423.333 /Helvetica STDFONT gsave 888 12852 translate 0 0 M 90 rotate
-838.009 0 N
(N\(<r/R) show X -101.051 M
%%IncludeResource: font Helvetica
262.467 /Helvetica STDFONT
(vir) show X 0 M
%%IncludeResource: font Helvetica
423.333 /Helvetica STDFONT
(\)) show grestore 40 setlinewidth L0 2220 19719 M 4279 0 R D 3980 19719 M
0 183 R D gsave 3980 19191 translate 0 0 M -58.8433 0 N
( ) show grestore 6499 19719 M 0 183 R D gsave 6499 19191 translate 0 0 M
-58.8433 0 N
( ) show grestore 2220 19719 M 0 91 R D 2664 19719 M 0 91 R D 2978 19719 M
0 91 R D 3222 19719 M 0 91 R D 3422 19719 M 0 91 R D 3590 19719 M 0 91 R D
3736 19719 M 0 91 R D 3865 19719 M 0 91 R D 4738 19719 M 0 91 R D
5182 19719 M 0 91 R D 5496 19719 M 0 91 R D 5741 19719 M 0 91 R D
5940 19719 M 0 91 R D 6109 19719 M 0 91 R D 6255 19719 M 0 91 R D
6383 19719 M 0 91 R D 2220 24296 M 4279 0 R D 3980 24296 M 0 -183 R D
6499 24296 M 0 -183 R D 2220 24296 M 0 -91 R D 2664 24296 M 0 -91 R D
2978 24296 M 0 -91 R D 3222 24296 M 0 -91 R D 3422 24296 M 0 -91 R D
3590 24296 M 0 -91 R D 3736 24296 M 0 -91 R D 3865 24296 M 0 -91 R D
4738 24296 M 0 -91 R D 5182 24296 M 0 -91 R D 5496 24296 M 0 -91 R D
5741 24296 M 0 -91 R D 5940 24296 M 0 -91 R D 6109 24296 M 0 -91 R D
6255 24296 M 0 -91 R D 6383 24296 M 0 -91 R D 2220 19719 M 0 4577 R D
2220 19719 M 171 0 R D gsave 2109 19719 translate 0 0 M -235.373 0 N
(1) show grestore 2220 20876 M 171 0 R D gsave 2109 20735 translate 0 0 M
-470.747 0 N
(10) show grestore 2220 22034 M 171 0 R D gsave 2109 21893 translate 0 0 M
-706.12 0 N
(100) show grestore 2220 23191 M 171 0 R D gsave 2109 23051 translate 0 0 M
-941.493 0 N
(1000) show grestore 2220 20067 M 86 0 R D 2220 20271 M 86 0 R D
2220 20415 M 86 0 R D 2220 20528 M 86 0 R D 2220 20619 M 86 0 R D
2220 20697 M 86 0 R D 2220 20764 M 86 0 R D 2220 20823 M 86 0 R D
2220 21225 M 86 0 R D 2220 21429 M 86 0 R D 2220 21573 M 86 0 R D
2220 21685 M 86 0 R D 2220 21777 M 86 0 R D 2220 21854 M 86 0 R D
2220 21922 M 86 0 R D 2220 21981 M 86 0 R D 2220 22382 M 86 0 R D
2220 22586 M 86 0 R D 2220 22731 M 86 0 R D 2220 22843 M 86 0 R D
2220 22935 M 86 0 R D 2220 23012 M 86 0 R D 2220 23079 M 86 0 R D
2220 23138 M 86 0 R D 2220 23540 M 86 0 R D 2220 23744 M 86 0 R D
2220 23888 M 86 0 R D 2220 24001 M 86 0 R D 2220 24092 M 86 0 R D
2220 24170 M 86 0 R D 2220 24237 M 86 0 R D 2220 24296 M 86 0 R D
6499 19719 M 0 4577 R D 6499 19719 M -172 0 R D 6499 20876 M -172 0 R D
6499 22034 M -172 0 R D 6499 23191 M -172 0 R D 6499 20067 M -86 0 R D
6499 20271 M -86 0 R D 6499 20415 M -86 0 R D 6499 20528 M -86 0 R D
6499 20619 M -86 0 R D 6499 20697 M -86 0 R D 6499 20764 M -86 0 R D
6499 20823 M -86 0 R D 6499 21225 M -86 0 R D 6499 21429 M -86 0 R D
6499 21573 M -86 0 R D 6499 21685 M -86 0 R D 6499 21777 M -86 0 R D
6499 21854 M -86 0 R D 6499 21922 M -86 0 R D 6499 21981 M -86 0 R D
6499 22382 M -86 0 R D 6499 22586 M -86 0 R D 6499 22731 M -86 0 R D
6499 22843 M -86 0 R D 6499 22935 M -86 0 R D 6499 23012 M -86 0 R D
6499 23079 M -86 0 R D 6499 23138 M -86 0 R D 6499 23540 M -86 0 R D
6499 23744 M -86 0 R D 6499 23888 M -86 0 R D 6499 24001 M -86 0 R D
6499 24092 M -86 0 R D 6499 24170 M -86 0 R D 6499 24237 M -86 0 R D
6499 24296 M -86 0 R D 1.000 0.000 0.706 setrgbcolor 2469 19719 M 504 348 R
504 809 R 503 585 R 504 746 R 504 550 R 503 541 R 504 417 R 503 315 R D
0.506 0.000 0.000 setrgbcolor 2973 19719 M 504 900 R 503 580 R 504 697 R
504 675 R 503 553 R 504 500 R 503 368 R D 0.000 0.549 0.000 setrgbcolor
3477 19719 M 503 696 R 504 1145 R 504 606 R 503 677 R 504 584 R 503 475 R D
0.000 0.514 1.000 setrgbcolor 3980 20067 M 504 348 R 504 728 R 503 590 R
504 688 R 503 542 R D 1.000 0.349 0.000 setrgbcolor 5491 19719 M 504 1104 R
503 512 R D 0.000 0.000 0.000 setrgbcolor gsave 2464 23540 translate 0 0 M
(pha2) show grestore 6499 19719 M 4278 0 R D 8259 19719 M 0 183 R D
gsave 8259 19191 translate 0 0 M -58.8433 0 N
( ) show grestore 10777 19719 M 0 183 R D gsave 10777 19191 translate 0 0 M
-58.8433 0 N
( ) show grestore 6499 19719 M 0 91 R D 6942 19719 M 0 91 R D 7257 19719 M
0 91 R D 7501 19719 M 0 91 R D 7700 19719 M 0 91 R D 7869 19719 M 0 91 R D
8015 19719 M 0 91 R D 8144 19719 M 0 91 R D 9017 19719 M 0 91 R D
9460 19719 M 0 91 R D 9775 19719 M 0 91 R D 10019 19719 M 0 91 R D
10218 19719 M 0 91 R D 10387 19719 M 0 91 R D 10533 19719 M 0 91 R D
10662 19719 M 0 91 R D 6499 24296 M 4278 0 R D 8259 24296 M 0 -183 R D
10777 24296 M 0 -183 R D 6499 24296 M 0 -91 R D 6942 24296 M 0 -91 R D
7257 24296 M 0 -91 R D 7501 24296 M 0 -91 R D 7700 24296 M 0 -91 R D
7869 24296 M 0 -91 R D 8015 24296 M 0 -91 R D 8144 24296 M 0 -91 R D
9017 24296 M 0 -91 R D 9460 24296 M 0 -91 R D 9775 24296 M 0 -91 R D
10019 24296 M 0 -91 R D 10218 24296 M 0 -91 R D 10387 24296 M 0 -91 R D
10533 24296 M 0 -91 R D 10662 24296 M 0 -91 R D 6499 19719 M 0 4577 R D
6499 19719 M 171 0 R D gsave 6388 19719 translate 0 0 M -117.687 0 N
( ) show grestore 6499 20876 M 171 0 R D gsave 6388 20735 translate 0 0 M
-117.687 0 N
( ) show grestore 6499 22034 M 171 0 R D gsave 6388 21893 translate 0 0 M
-117.687 0 N
( ) show grestore 6499 23191 M 171 0 R D gsave 6388 23051 translate 0 0 M
-117.687 0 N
( ) show grestore 6499 20067 M 85 0 R D 6499 20271 M 85 0 R D 6499 20415 M
85 0 R D 6499 20528 M 85 0 R D 6499 20619 M 85 0 R D 6499 20697 M 85 0 R D
6499 20764 M 85 0 R D 6499 20823 M 85 0 R D 6499 21225 M 85 0 R D
6499 21429 M 85 0 R D 6499 21573 M 85 0 R D 6499 21685 M 85 0 R D
6499 21777 M 85 0 R D 6499 21854 M 85 0 R D 6499 21922 M 85 0 R D
6499 21981 M 85 0 R D 6499 22382 M 85 0 R D 6499 22586 M 85 0 R D
6499 22731 M 85 0 R D 6499 22843 M 85 0 R D 6499 22935 M 85 0 R D
6499 23012 M 85 0 R D 6499 23079 M 85 0 R D 6499 23138 M 85 0 R D
6499 23540 M 85 0 R D 6499 23744 M 85 0 R D 6499 23888 M 85 0 R D
6499 24001 M 85 0 R D 6499 24092 M 85 0 R D 6499 24170 M 85 0 R D
6499 24237 M 85 0 R D 6499 24296 M 85 0 R D 10777 19719 M 0 4577 R D
10777 19719 M -171 0 R D 10777 20876 M -171 0 R D 10777 22034 M -171 0 R D
10777 23191 M -171 0 R D 10777 20067 M -85 0 R D 10777 20271 M -85 0 R D
10777 20415 M -85 0 R D 10777 20528 M -85 0 R D 10777 20619 M -85 0 R D
10777 20697 M -85 0 R D 10777 20764 M -85 0 R D 10777 20823 M -85 0 R D
10777 21225 M -85 0 R D 10777 21429 M -85 0 R D 10777 21573 M -85 0 R D
10777 21685 M -85 0 R D 10777 21777 M -85 0 R D 10777 21854 M -85 0 R D
10777 21922 M -85 0 R D 10777 21981 M -85 0 R D 10777 22382 M -85 0 R D
10777 22586 M -85 0 R D 10777 22731 M -85 0 R D 10777 22843 M -85 0 R D
10777 22935 M -85 0 R D 10777 23012 M -85 0 R D 10777 23079 M -85 0 R D
10777 23138 M -85 0 R D 10777 23540 M -85 0 R D 10777 23744 M -85 0 R D
10777 23888 M -85 0 R D 10777 24001 M -85 0 R D 10777 24092 M -85 0 R D
10777 24170 M -85 0 R D 10777 24237 M -85 0 R D 10777 24296 M -85 0 R D
1.000 0.000 0.706 setrgbcolor 8259 20271 M 503 954 R 504 535 R 504 637 R
503 445 R 504 374 R D 0.506 0.000 0.000 setrgbcolor 8259 19719 M 503 1045 R
504 647 R 504 602 R 503 626 R 504 416 R D 0.000 0.549 0.000 setrgbcolor
8259 20271 M 503 257 R 504 615 R 504 682 R 503 594 R 504 526 R D
0.000 0.514 1.000 setrgbcolor 9266 19719 M 504 348 R 503 697 R 504 573 R D
0.000 0.000 0.000 setrgbcolor gsave 6743 23540 translate 0 0 M
(pha4) show grestore 10777 19719 M 4279 0 R D 12537 19719 M 0 183 R D
gsave 12537 19191 translate 0 0 M -58.8433 0 N
( ) show grestore 15056 19719 M 0 183 R D gsave 15056 19191 translate 0 0 M
-58.8433 0 N
( ) show grestore 10777 19719 M 0 91 R D 11221 19719 M 0 91 R D
11535 19719 M 0 91 R D 11779 19719 M 0 91 R D 11979 19719 M 0 91 R D
12147 19719 M 0 91 R D 12293 19719 M 0 91 R D 12422 19719 M 0 91 R D
13295 19719 M 0 91 R D 13739 19719 M 0 91 R D 14053 19719 M 0 91 R D
14298 19719 M 0 91 R D 14497 19719 M 0 91 R D 14666 19719 M 0 91 R D
14812 19719 M 0 91 R D 14940 19719 M 0 91 R D 10777 24296 M 4279 0 R D
12537 24296 M 0 -183 R D 15056 24296 M 0 -183 R D 10777 24296 M 0 -91 R D
11221 24296 M 0 -91 R D 11535 24296 M 0 -91 R D 11779 24296 M 0 -91 R D
11979 24296 M 0 -91 R D 12147 24296 M 0 -91 R D 12293 24296 M 0 -91 R D
12422 24296 M 0 -91 R D 13295 24296 M 0 -91 R D 13739 24296 M 0 -91 R D
14053 24296 M 0 -91 R D 14298 24296 M 0 -91 R D 14497 24296 M 0 -91 R D
14666 24296 M 0 -91 R D 14812 24296 M 0 -91 R D 14940 24296 M 0 -91 R D
10777 19719 M 0 4577 R D 10777 19719 M 171 0 R D
gsave 10666 19719 translate 0 0 M -117.687 0 N
( ) show grestore 10777 20876 M 171 0 R D gsave 10666 20735 translate 0 0 M
-117.687 0 N
( ) show grestore 10777 22034 M 171 0 R D gsave 10666 21893 translate 0 0 M
-117.687 0 N
( ) show grestore 10777 23191 M 171 0 R D gsave 10666 23051 translate 0 0 M
-117.687 0 N
( ) show grestore 10777 20067 M 86 0 R D 10777 20271 M 86 0 R D
10777 20415 M 86 0 R D 10777 20528 M 86 0 R D 10777 20619 M 86 0 R D
10777 20697 M 86 0 R D 10777 20764 M 86 0 R D 10777 20823 M 86 0 R D
10777 21225 M 86 0 R D 10777 21429 M 86 0 R D 10777 21573 M 86 0 R D
10777 21685 M 86 0 R D 10777 21777 M 86 0 R D 10777 21854 M 86 0 R D
10777 21922 M 86 0 R D 10777 21981 M 86 0 R D 10777 22382 M 86 0 R D
10777 22586 M 86 0 R D 10777 22731 M 86 0 R D 10777 22843 M 86 0 R D
10777 22935 M 86 0 R D 10777 23012 M 86 0 R D 10777 23079 M 86 0 R D
10777 23138 M 86 0 R D 10777 23540 M 86 0 R D 10777 23744 M 86 0 R D
10777 23888 M 86 0 R D 10777 24001 M 86 0 R D 10777 24092 M 86 0 R D
10777 24170 M 86 0 R D 10777 24237 M 86 0 R D 10777 24296 M 86 0 R D
15056 19719 M 0 4577 R D 15056 19719 M -172 0 R D 15056 20876 M -172 0 R D
15056 22034 M -172 0 R D 15056 23191 M -172 0 R D 15056 20067 M -86 0 R D
15056 20271 M -86 0 R D 15056 20415 M -86 0 R D 15056 20528 M -86 0 R D
15056 20619 M -86 0 R D 15056 20697 M -86 0 R D 15056 20764 M -86 0 R D
15056 20823 M -86 0 R D 15056 21225 M -86 0 R D 15056 21429 M -86 0 R D
15056 21573 M -86 0 R D 15056 21685 M -86 0 R D 15056 21777 M -86 0 R D
15056 21854 M -86 0 R D 15056 21922 M -86 0 R D 15056 21981 M -86 0 R D
15056 22382 M -86 0 R D 15056 22586 M -86 0 R D 15056 22731 M -86 0 R D
15056 22843 M -86 0 R D 15056 22935 M -86 0 R D 15056 23012 M -86 0 R D
15056 23079 M -86 0 R D 15056 23138 M -86 0 R D 15056 23540 M -86 0 R D
15056 23744 M -86 0 R D 15056 23888 M -86 0 R D 15056 24001 M -86 0 R D
15056 24092 M -86 0 R D 15056 24170 M -86 0 R D 15056 24237 M -86 0 R D
15056 24296 M -86 0 R D 1.000 0.000 0.706 setrgbcolor 11026 19719 M
504 900 R 504 654 R 503 574 R 504 641 R 504 504 R 503 494 R 504 426 R
503 347 R D 0.000 0.549 0.000 setrgbcolor 12034 20067 M 503 461 R 504 697 R
504 772 R 503 654 R 504 528 R 503 516 R D 0.000 0.514 1.000 setrgbcolor
12537 19719 M 504 348 R 504 978 R 503 732 R 504 699 R 503 578 R D
0.000 0.000 0.000 setrgbcolor gsave 11021 23540 translate 0 0 M
(phb2) show grestore 15056 19719 M 4278 0 R D 16816 19719 M 0 183 R D
gsave 16816 19191 translate 0 0 M -58.8433 0 N
( ) show grestore 19334 19719 M 0 183 R D gsave 19334 19191 translate 0 0 M
-58.8433 0 N
( ) show grestore 15056 19719 M 0 91 R D 15499 19719 M 0 91 R D
15814 19719 M 0 91 R D 16058 19719 M 0 91 R D 16257 19719 M 0 91 R D
16426 19719 M 0 91 R D 16572 19719 M 0 91 R D 16701 19719 M 0 91 R D
17574 19719 M 0 91 R D 18017 19719 M 0 91 R D 18332 19719 M 0 91 R D
18576 19719 M 0 91 R D 18775 19719 M 0 91 R D 18944 19719 M 0 91 R D
19090 19719 M 0 91 R D 19219 19719 M 0 91 R D 15056 24296 M 4278 0 R D
16816 24296 M 0 -183 R D 19334 24296 M 0 -183 R D 15056 24296 M 0 -91 R D
15499 24296 M 0 -91 R D 15814 24296 M 0 -91 R D 16058 24296 M 0 -91 R D
16257 24296 M 0 -91 R D 16426 24296 M 0 -91 R D 16572 24296 M 0 -91 R D
16701 24296 M 0 -91 R D 17574 24296 M 0 -91 R D 18017 24296 M 0 -91 R D
18332 24296 M 0 -91 R D 18576 24296 M 0 -91 R D 18775 24296 M 0 -91 R D
18944 24296 M 0 -91 R D 19090 24296 M 0 -91 R D 19219 24296 M 0 -91 R D
15056 19719 M 0 4577 R D 15056 19719 M 171 0 R D
gsave 14945 19719 translate 0 0 M -117.687 0 N
( ) show grestore 15056 20876 M 171 0 R D gsave 14945 20735 translate 0 0 M
-117.687 0 N
( ) show grestore 15056 22034 M 171 0 R D gsave 14945 21893 translate 0 0 M
-117.687 0 N
( ) show grestore 15056 23191 M 171 0 R D gsave 14945 23051 translate 0 0 M
-117.687 0 N
( ) show grestore 15056 20067 M 85 0 R D 15056 20271 M 85 0 R D
15056 20415 M 85 0 R D 15056 20528 M 85 0 R D 15056 20619 M 85 0 R D
15056 20697 M 85 0 R D 15056 20764 M 85 0 R D 15056 20823 M 85 0 R D
15056 21225 M 85 0 R D 15056 21429 M 85 0 R D 15056 21573 M 85 0 R D
15056 21685 M 85 0 R D 15056 21777 M 85 0 R D 15056 21854 M 85 0 R D
15056 21922 M 85 0 R D 15056 21981 M 85 0 R D 15056 22382 M 85 0 R D
15056 22586 M 85 0 R D 15056 22731 M 85 0 R D 15056 22843 M 85 0 R D
15056 22935 M 85 0 R D 15056 23012 M 85 0 R D 15056 23079 M 85 0 R D
15056 23138 M 85 0 R D 15056 23540 M 85 0 R D 15056 23744 M 85 0 R D
15056 23888 M 85 0 R D 15056 24001 M 85 0 R D 15056 24092 M 85 0 R D
15056 24170 M 85 0 R D 15056 24237 M 85 0 R D 15056 24296 M 85 0 R D
19334 19719 M 0 4577 R D 19334 19719 M -171 0 R D 19334 20876 M -171 0 R D
19334 22034 M -171 0 R D 19334 23191 M -171 0 R D 19334 20067 M -85 0 R D
19334 20271 M -85 0 R D 19334 20415 M -85 0 R D 19334 20528 M -85 0 R D
19334 20619 M -85 0 R D 19334 20697 M -85 0 R D 19334 20764 M -85 0 R D
19334 20823 M -85 0 R D 19334 21225 M -85 0 R D 19334 21429 M -85 0 R D
19334 21573 M -85 0 R D 19334 21685 M -85 0 R D 19334 21777 M -85 0 R D
19334 21854 M -85 0 R D 19334 21922 M -85 0 R D 19334 21981 M -85 0 R D
19334 22382 M -85 0 R D 19334 22586 M -85 0 R D 19334 22731 M -85 0 R D
19334 22843 M -85 0 R D 19334 22935 M -85 0 R D 19334 23012 M -85 0 R D
19334 23079 M -85 0 R D 19334 23138 M -85 0 R D 19334 23540 M -85 0 R D
19334 23744 M -85 0 R D 19334 23888 M -85 0 R D 19334 24001 M -85 0 R D
19334 24092 M -85 0 R D 19334 24170 M -85 0 R D 19334 24237 M -85 0 R D
19334 24296 M -85 0 R D 1.000 0.000 0.706 setrgbcolor 16312 20067 M
504 348 R 503 922 R 504 671 R 504 552 R 503 466 R 504 419 R D
0.506 0.000 0.000 setrgbcolor 16816 19719 M 503 809 R 504 348 R 504 630 R
503 619 R 504 423 R D 0.000 0.549 0.000 setrgbcolor 17319 20067 M 504 461 R
504 552 R 503 635 R 504 568 R D 0.000 0.000 0.000 setrgbcolor
gsave 15300 23540 translate 0 0 M
(phb4) show grestore 2220 15141 M 4279 0 R D 3980 15141 M 0 183 R D
gsave 3980 14613 translate 0 0 M -58.8433 0 N
( ) show grestore 6499 15141 M 0 183 R D gsave 6499 14613 translate 0 0 M
-58.8433 0 N
( ) show grestore 2220 15141 M 0 91 R D 2664 15141 M 0 91 R D 2978 15141 M
0 91 R D 3222 15141 M 0 91 R D 3422 15141 M 0 91 R D 3590 15141 M 0 91 R D
3736 15141 M 0 91 R D 3865 15141 M 0 91 R D 4738 15141 M 0 91 R D
5182 15141 M 0 91 R D 5496 15141 M 0 91 R D 5741 15141 M 0 91 R D
5940 15141 M 0 91 R D 6109 15141 M 0 91 R D 6255 15141 M 0 91 R D
6383 15141 M 0 91 R D 2220 19719 M 4279 0 R D 3980 19719 M 0 -184 R D
6499 19719 M 0 -184 R D 2220 19719 M 0 -92 R D 2664 19719 M 0 -92 R D
2978 19719 M 0 -92 R D 3222 19719 M 0 -92 R D 3422 19719 M 0 -92 R D
3590 19719 M 0 -92 R D 3736 19719 M 0 -92 R D 3865 19719 M 0 -92 R D
4738 19719 M 0 -92 R D 5182 19719 M 0 -92 R D 5496 19719 M 0 -92 R D
5741 19719 M 0 -92 R D 5940 19719 M 0 -92 R D 6109 19719 M 0 -92 R D
6255 19719 M 0 -92 R D 6383 19719 M 0 -92 R D 2220 15141 M 0 4578 R D
2220 15141 M 171 0 R D gsave 2109 15141 translate 0 0 M -235.373 0 N
(1) show grestore 2220 16299 M 171 0 R D gsave 2109 16158 translate 0 0 M
-470.747 0 N
(10) show grestore 2220 17456 M 171 0 R D gsave 2109 17315 translate 0 0 M
-706.12 0 N
(100) show grestore 2220 18614 M 171 0 R D gsave 2109 18473 translate 0 0 M
-941.493 0 N
(1000) show grestore 2220 15489 M 86 0 R D 2220 15693 M 86 0 R D
2220 15838 M 86 0 R D 2220 15950 M 86 0 R D 2220 16042 M 86 0 R D
2220 16119 M 86 0 R D 2220 16186 M 86 0 R D 2220 16246 M 86 0 R D
2220 16647 M 86 0 R D 2220 16851 M 86 0 R D 2220 16996 M 86 0 R D
2220 17108 M 86 0 R D 2220 17199 M 86 0 R D 2220 17277 M 86 0 R D
2220 17344 M 86 0 R D 2220 17403 M 86 0 R D 2220 17805 M 86 0 R D
2220 18009 M 86 0 R D 2220 18153 M 86 0 R D 2220 18265 M 86 0 R D
2220 18357 M 86 0 R D 2220 18435 M 86 0 R D 2220 18502 M 86 0 R D
2220 18561 M 86 0 R D 2220 18962 M 86 0 R D 2220 19166 M 86 0 R D
2220 19311 M 86 0 R D 2220 19423 M 86 0 R D 2220 19515 M 86 0 R D
2220 19592 M 86 0 R D 2220 19659 M 86 0 R D 2220 19719 M 86 0 R D
6499 15141 M 0 4578 R D 6499 15141 M -172 0 R D 6499 16299 M -172 0 R D
6499 17456 M -172 0 R D 6499 18614 M -172 0 R D 6499 15489 M -86 0 R D
6499 15693 M -86 0 R D 6499 15838 M -86 0 R D 6499 15950 M -86 0 R D
6499 16042 M -86 0 R D 6499 16119 M -86 0 R D 6499 16186 M -86 0 R D
6499 16246 M -86 0 R D 6499 16647 M -86 0 R D 6499 16851 M -86 0 R D
6499 16996 M -86 0 R D 6499 17108 M -86 0 R D 6499 17199 M -86 0 R D
6499 17277 M -86 0 R D 6499 17344 M -86 0 R D 6499 17403 M -86 0 R D
6499 17805 M -86 0 R D 6499 18009 M -86 0 R D 6499 18153 M -86 0 R D
6499 18265 M -86 0 R D 6499 18357 M -86 0 R D 6499 18435 M -86 0 R D
6499 18502 M -86 0 R D 6499 18561 M -86 0 R D 6499 18962 M -86 0 R D
6499 19166 M -86 0 R D 6499 19311 M -86 0 R D 6499 19423 M -86 0 R D
6499 19515 M -86 0 R D 6499 19592 M -86 0 R D 6499 19659 M -86 0 R D
6499 19719 M -86 0 R D 1.000 0.000 0.706 setrgbcolor 2973 15141 M 504 978 R
503 864 R 504 663 R 504 665 R 503 562 R 504 472 R 503 348 R D
0.506 0.000 0.000 setrgbcolor 2220 15141 M 249 0 R 504 0 R 504 552 R
503 872 R 504 533 R 504 601 R 503 599 R 504 500 R 503 448 R D
0.000 0.549 0.000 setrgbcolor 3477 15141 M 503 809 R 504 585 R 504 673 R
503 656 R 504 543 R 503 489 R D 0.000 0.514 1.000 setrgbcolor 3980 15838 M
504 112 R 504 1148 R 503 619 R 504 561 R 503 498 R D
0.000 0.000 0.000 setrgbcolor gsave 2464 18962 translate 0 0 M
(phc2) show grestore 6499 15141 M 4278 0 R D 8259 15141 M 0 183 R D
gsave 8259 14613 translate 0 0 M -58.8433 0 N
( ) show grestore 10777 15141 M 0 183 R D gsave 10777 14613 translate 0 0 M
-58.8433 0 N
( ) show grestore 6499 15141 M 0 91 R D 6942 15141 M 0 91 R D 7257 15141 M
0 91 R D 7501 15141 M 0 91 R D 7700 15141 M 0 91 R D 7869 15141 M 0 91 R D
8015 15141 M 0 91 R D 8144 15141 M 0 91 R D 9017 15141 M 0 91 R D
9460 15141 M 0 91 R D 9775 15141 M 0 91 R D 10019 15141 M 0 91 R D
10218 15141 M 0 91 R D 10387 15141 M 0 91 R D 10533 15141 M 0 91 R D
10662 15141 M 0 91 R D 6499 19719 M 4278 0 R D 8259 19719 M 0 -184 R D
10777 19719 M 0 -184 R D 6499 19719 M 0 -92 R D 6942 19719 M 0 -92 R D
7257 19719 M 0 -92 R D 7501 19719 M 0 -92 R D 7700 19719 M 0 -92 R D
7869 19719 M 0 -92 R D 8015 19719 M 0 -92 R D 8144 19719 M 0 -92 R D
9017 19719 M 0 -92 R D 9460 19719 M 0 -92 R D 9775 19719 M 0 -92 R D
10019 19719 M 0 -92 R D 10218 19719 M 0 -92 R D 10387 19719 M 0 -92 R D
10533 19719 M 0 -92 R D 10662 19719 M 0 -92 R D 6499 15141 M 0 4578 R D
6499 15141 M 171 0 R D gsave 6388 15141 translate 0 0 M -117.687 0 N
( ) show grestore 6499 16299 M 171 0 R D gsave 6388 16158 translate 0 0 M
-117.687 0 N
( ) show grestore 6499 17456 M 171 0 R D gsave 6388 17315 translate 0 0 M
-117.687 0 N
( ) show grestore 6499 18614 M 171 0 R D gsave 6388 18473 translate 0 0 M
-117.687 0 N
( ) show grestore 6499 15489 M 85 0 R D 6499 15693 M 85 0 R D 6499 15838 M
85 0 R D 6499 15950 M 85 0 R D 6499 16042 M 85 0 R D 6499 16119 M 85 0 R D
6499 16186 M 85 0 R D 6499 16246 M 85 0 R D 6499 16647 M 85 0 R D
6499 16851 M 85 0 R D 6499 16996 M 85 0 R D 6499 17108 M 85 0 R D
6499 17199 M 85 0 R D 6499 17277 M 85 0 R D 6499 17344 M 85 0 R D
6499 17403 M 85 0 R D 6499 17805 M 85 0 R D 6499 18009 M 85 0 R D
6499 18153 M 85 0 R D 6499 18265 M 85 0 R D 6499 18357 M 85 0 R D
6499 18435 M 85 0 R D 6499 18502 M 85 0 R D 6499 18561 M 85 0 R D
6499 18962 M 85 0 R D 6499 19166 M 85 0 R D 6499 19311 M 85 0 R D
6499 19423 M 85 0 R D 6499 19515 M 85 0 R D 6499 19592 M 85 0 R D
6499 19659 M 85 0 R D 6499 19719 M 85 0 R D 10777 15141 M 0 4578 R D
10777 15141 M -171 0 R D 10777 16299 M -171 0 R D 10777 17456 M -171 0 R D
10777 18614 M -171 0 R D 10777 15489 M -85 0 R D 10777 15693 M -85 0 R D
10777 15838 M -85 0 R D 10777 15950 M -85 0 R D 10777 16042 M -85 0 R D
10777 16119 M -85 0 R D 10777 16186 M -85 0 R D 10777 16246 M -85 0 R D
10777 16647 M -85 0 R D 10777 16851 M -85 0 R D 10777 16996 M -85 0 R D
10777 17108 M -85 0 R D 10777 17199 M -85 0 R D 10777 17277 M -85 0 R D
10777 17344 M -85 0 R D 10777 17403 M -85 0 R D 10777 17805 M -85 0 R D
10777 18009 M -85 0 R D 10777 18153 M -85 0 R D 10777 18265 M -85 0 R D
10777 18357 M -85 0 R D 10777 18435 M -85 0 R D 10777 18502 M -85 0 R D
10777 18561 M -85 0 R D 10777 18962 M -85 0 R D 10777 19166 M -85 0 R D
10777 19311 M -85 0 R D 10777 19423 M -85 0 R D 10777 19515 M -85 0 R D
10777 19592 M -85 0 R D 10777 19659 M -85 0 R D 10777 19719 M -85 0 R D
1.000 0.000 0.706 setrgbcolor 8259 15950 M 503 440 R 504 697 R 504 720 R
503 573 R 504 434 R D 0.506 0.000 0.000 setrgbcolor 8762 15489 M 504 630 R
504 1018 R 503 509 R 504 547 R D 0.000 0.549 0.000 setrgbcolor 9266 15141 M
504 1205 R 503 597 R 504 528 R D 0.000 0.514 1.000 setrgbcolor 9266 15141 M
504 901 R 503 493 R 504 552 R D 0.000 0.000 0.000 setrgbcolor
gsave 6743 18962 translate 0 0 M
(phc4) show grestore 10777 15141 M 4279 0 R D 12537 15141 M 0 183 R D
gsave 12537 14613 translate 0 0 M -58.8433 0 N
( ) show grestore 15056 15141 M 0 183 R D gsave 15056 14613 translate 0 0 M
-58.8433 0 N
( ) show grestore 10777 15141 M 0 91 R D 11221 15141 M 0 91 R D
11535 15141 M 0 91 R D 11779 15141 M 0 91 R D 11979 15141 M 0 91 R D
12147 15141 M 0 91 R D 12293 15141 M 0 91 R D 12422 15141 M 0 91 R D
13295 15141 M 0 91 R D 13739 15141 M 0 91 R D 14053 15141 M 0 91 R D
14298 15141 M 0 91 R D 14497 15141 M 0 91 R D 14666 15141 M 0 91 R D
14812 15141 M 0 91 R D 14940 15141 M 0 91 R D 10777 19719 M 4279 0 R D
12537 19719 M 0 -184 R D 15056 19719 M 0 -184 R D 10777 19719 M 0 -92 R D
11221 19719 M 0 -92 R D 11535 19719 M 0 -92 R D 11779 19719 M 0 -92 R D
11979 19719 M 0 -92 R D 12147 19719 M 0 -92 R D 12293 19719 M 0 -92 R D
12422 19719 M 0 -92 R D 13295 19719 M 0 -92 R D 13739 19719 M 0 -92 R D
14053 19719 M 0 -92 R D 14298 19719 M 0 -92 R D 14497 19719 M 0 -92 R D
14666 19719 M 0 -92 R D 14812 19719 M 0 -92 R D 14940 19719 M 0 -92 R D
10777 15141 M 0 4578 R D 10777 15141 M 171 0 R D
gsave 10666 15141 translate 0 0 M -117.687 0 N
( ) show grestore 10777 16299 M 171 0 R D gsave 10666 16158 translate 0 0 M
-117.687 0 N
( ) show grestore 10777 17456 M 171 0 R D gsave 10666 17315 translate 0 0 M
-117.687 0 N
( ) show grestore 10777 18614 M 171 0 R D gsave 10666 18473 translate 0 0 M
-117.687 0 N
( ) show grestore 10777 15489 M 86 0 R D 10777 15693 M 86 0 R D
10777 15838 M 86 0 R D 10777 15950 M 86 0 R D 10777 16042 M 86 0 R D
10777 16119 M 86 0 R D 10777 16186 M 86 0 R D 10777 16246 M 86 0 R D
10777 16647 M 86 0 R D 10777 16851 M 86 0 R D 10777 16996 M 86 0 R D
10777 17108 M 86 0 R D 10777 17199 M 86 0 R D 10777 17277 M 86 0 R D
10777 17344 M 86 0 R D 10777 17403 M 86 0 R D 10777 17805 M 86 0 R D
10777 18009 M 86 0 R D 10777 18153 M 86 0 R D 10777 18265 M 86 0 R D
10777 18357 M 86 0 R D 10777 18435 M 86 0 R D 10777 18502 M 86 0 R D
10777 18561 M 86 0 R D 10777 18962 M 86 0 R D 10777 19166 M 86 0 R D
10777 19311 M 86 0 R D 10777 19423 M 86 0 R D 10777 19515 M 86 0 R D
10777 19592 M 86 0 R D 10777 19659 M 86 0 R D 10777 19719 M 86 0 R D
15056 15141 M 0 4578 R D 15056 15141 M -172 0 R D 15056 16299 M -172 0 R D
15056 17456 M -172 0 R D 15056 18614 M -172 0 R D 15056 15489 M -86 0 R D
15056 15693 M -86 0 R D 15056 15838 M -86 0 R D 15056 15950 M -86 0 R D
15056 16042 M -86 0 R D 15056 16119 M -86 0 R D 15056 16186 M -86 0 R D
15056 16246 M -86 0 R D 15056 16647 M -86 0 R D 15056 16851 M -86 0 R D
15056 16996 M -86 0 R D 15056 17108 M -86 0 R D 15056 17199 M -86 0 R D
15056 17277 M -86 0 R D 15056 17344 M -86 0 R D 15056 17403 M -86 0 R D
15056 17805 M -86 0 R D 15056 18009 M -86 0 R D 15056 18153 M -86 0 R D
15056 18265 M -86 0 R D 15056 18357 M -86 0 R D 15056 18435 M -86 0 R D
15056 18502 M -86 0 R D 15056 18561 M -86 0 R D 15056 18962 M -86 0 R D
15056 19166 M -86 0 R D 15056 19311 M -86 0 R D 15056 19423 M -86 0 R D
15056 19515 M -86 0 R D 15056 19592 M -86 0 R D 15056 19659 M -86 0 R D
15056 19719 M -86 0 R D 1.000 0.000 0.706 setrgbcolor 10777 15665 M
249 173 R 504 461 R 504 460 R 503 610 R 504 628 R 504 543 R 503 473 R
504 397 R 503 293 R D 0.506 0.000 0.000 setrgbcolor 11530 15489 M 504 901 R
503 593 R 504 737 R 504 598 R 503 529 R 504 420 R 503 365 R D
0.000 0.549 0.000 setrgbcolor 12034 15489 M 503 630 R 504 851 R 504 750 R
503 617 R 504 527 R 503 463 R D 0.000 0.514 1.000 setrgbcolor 13041 15489 M
504 553 R 503 523 R 504 562 R 503 606 R D 0.000 0.000 0.000 setrgbcolor
gsave 11021 18962 translate 0 0 M
(phd2) show grestore 15056 15141 M 4278 0 R D 16816 15141 M 0 183 R D
gsave 16816 14613 translate 0 0 M -58.8433 0 N
( ) show grestore 19334 15141 M 0 183 R D gsave 19334 14613 translate 0 0 M
-58.8433 0 N
( ) show grestore 15056 15141 M 0 91 R D 15499 15141 M 0 91 R D
15814 15141 M 0 91 R D 16058 15141 M 0 91 R D 16257 15141 M 0 91 R D
16426 15141 M 0 91 R D 16572 15141 M 0 91 R D 16701 15141 M 0 91 R D
17574 15141 M 0 91 R D 18017 15141 M 0 91 R D 18332 15141 M 0 91 R D
18576 15141 M 0 91 R D 18775 15141 M 0 91 R D 18944 15141 M 0 91 R D
19090 15141 M 0 91 R D 19219 15141 M 0 91 R D 15056 19719 M 4278 0 R D
16816 19719 M 0 -184 R D 19334 19719 M 0 -184 R D 15056 19719 M 0 -92 R D
15499 19719 M 0 -92 R D 15814 19719 M 0 -92 R D 16058 19719 M 0 -92 R D
16257 19719 M 0 -92 R D 16426 19719 M 0 -92 R D 16572 19719 M 0 -92 R D
16701 19719 M 0 -92 R D 17574 19719 M 0 -92 R D 18017 19719 M 0 -92 R D
18332 19719 M 0 -92 R D 18576 19719 M 0 -92 R D 18775 19719 M 0 -92 R D
18944 19719 M 0 -92 R D 19090 19719 M 0 -92 R D 19219 19719 M 0 -92 R D
15056 15141 M 0 4578 R D 15056 15141 M 171 0 R D
gsave 14945 15141 translate 0 0 M -117.687 0 N
( ) show grestore 15056 16299 M 171 0 R D gsave 14945 16158 translate 0 0 M
-117.687 0 N
( ) show grestore 15056 17456 M 171 0 R D gsave 14945 17315 translate 0 0 M
-117.687 0 N
( ) show grestore 15056 18614 M 171 0 R D gsave 14945 18473 translate 0 0 M
-117.687 0 N
( ) show grestore 15056 15489 M 85 0 R D 15056 15693 M 85 0 R D
15056 15838 M 85 0 R D 15056 15950 M 85 0 R D 15056 16042 M 85 0 R D
15056 16119 M 85 0 R D 15056 16186 M 85 0 R D 15056 16246 M 85 0 R D
15056 16647 M 85 0 R D 15056 16851 M 85 0 R D 15056 16996 M 85 0 R D
15056 17108 M 85 0 R D 15056 17199 M 85 0 R D 15056 17277 M 85 0 R D
15056 17344 M 85 0 R D 15056 17403 M 85 0 R D 15056 17805 M 85 0 R D
15056 18009 M 85 0 R D 15056 18153 M 85 0 R D 15056 18265 M 85 0 R D
15056 18357 M 85 0 R D 15056 18435 M 85 0 R D 15056 18502 M 85 0 R D
15056 18561 M 85 0 R D 15056 18962 M 85 0 R D 15056 19166 M 85 0 R D
15056 19311 M 85 0 R D 15056 19423 M 85 0 R D 15056 19515 M 85 0 R D
15056 19592 M 85 0 R D 15056 19659 M 85 0 R D 15056 19719 M 85 0 R D
19334 15141 M 0 4578 R D 19334 15141 M -171 0 R D 19334 16299 M -171 0 R D
19334 17456 M -171 0 R D 19334 18614 M -171 0 R D 19334 15489 M -85 0 R D
19334 15693 M -85 0 R D 19334 15838 M -85 0 R D 19334 15950 M -85 0 R D
19334 16042 M -85 0 R D 19334 16119 M -85 0 R D 19334 16186 M -85 0 R D
19334 16246 M -85 0 R D 19334 16647 M -85 0 R D 19334 16851 M -85 0 R D
19334 16996 M -85 0 R D 19334 17108 M -85 0 R D 19334 17199 M -85 0 R D
19334 17277 M -85 0 R D 19334 17344 M -85 0 R D 19334 17403 M -85 0 R D
19334 17805 M -85 0 R D 19334 18009 M -85 0 R D 19334 18153 M -85 0 R D
19334 18265 M -85 0 R D 19334 18357 M -85 0 R D 19334 18435 M -85 0 R D
19334 18502 M -85 0 R D 19334 18561 M -85 0 R D 19334 18962 M -85 0 R D
19334 19166 M -85 0 R D 19334 19311 M -85 0 R D 19334 19423 M -85 0 R D
19334 19515 M -85 0 R D 19334 19592 M -85 0 R D 19334 19659 M -85 0 R D
19334 19719 M -85 0 R D 1.000 0.000 0.706 setrgbcolor 16312 15141 M
504 978 R 503 732 R 504 590 R 504 535 R 503 487 R 504 351 R D
0.506 0.000 0.000 setrgbcolor 16816 15141 M 503 1105 R 504 900 R 504 556 R
503 499 R 504 443 R D 0.000 0.549 0.000 setrgbcolor 16312 15141 M 504 348 R
503 349 R 504 461 R 504 600 R 503 640 R 504 481 R D
0.000 0.000 0.000 setrgbcolor gsave 15300 18962 translate 0 0 M
(phd4) show grestore 2220 10563 M 4279 0 R D 3980 10563 M 0 183 R D
gsave 3980 10035 translate 0 0 M -58.8433 0 N
( ) show grestore 6499 10563 M 0 183 R D gsave 6499 10035 translate 0 0 M
-58.8433 0 N
( ) show grestore 2220 10563 M 0 92 R D 2664 10563 M 0 92 R D 2978 10563 M
0 92 R D 3222 10563 M 0 92 R D 3422 10563 M 0 92 R D 3590 10563 M 0 92 R D
3736 10563 M 0 92 R D 3865 10563 M 0 92 R D 4738 10563 M 0 92 R D
5182 10563 M 0 92 R D 5496 10563 M 0 92 R D 5741 10563 M 0 92 R D
5940 10563 M 0 92 R D 6109 10563 M 0 92 R D 6255 10563 M 0 92 R D
6383 10563 M 0 92 R D 2220 15141 M 4279 0 R D 3980 15141 M 0 -183 R D
6499 15141 M 0 -183 R D 2220 15141 M 0 -92 R D 2664 15141 M 0 -92 R D
2978 15141 M 0 -92 R D 3222 15141 M 0 -92 R D 3422 15141 M 0 -92 R D
3590 15141 M 0 -92 R D 3736 15141 M 0 -92 R D 3865 15141 M 0 -92 R D
4738 15141 M 0 -92 R D 5182 15141 M 0 -92 R D 5496 15141 M 0 -92 R D
5741 15141 M 0 -92 R D 5940 15141 M 0 -92 R D 6109 15141 M 0 -92 R D
6255 15141 M 0 -92 R D 6383 15141 M 0 -92 R D 2220 10563 M 0 4578 R D
2220 10563 M 171 0 R D gsave 2109 10563 translate 0 0 M -235.373 0 N
(1) show grestore 2220 11721 M 171 0 R D gsave 2109 11580 translate 0 0 M
-470.747 0 N
(10) show grestore 2220 12879 M 171 0 R D gsave 2109 12738 translate 0 0 M
-706.12 0 N
(100) show grestore 2220 14036 M 171 0 R D gsave 2109 13895 translate 0 0 M
-941.493 0 N
(1000) show grestore 2220 10912 M 86 0 R D 2220 11116 M 86 0 R D
2220 11260 M 86 0 R D 2220 11372 M 86 0 R D 2220 11464 M 86 0 R D
2220 11542 M 86 0 R D 2220 11609 M 86 0 R D 2220 11668 M 86 0 R D
2220 12069 M 86 0 R D 2220 12273 M 86 0 R D 2220 12418 M 86 0 R D
2220 12530 M 86 0 R D 2220 12622 M 86 0 R D 2220 12699 M 86 0 R D
2220 12766 M 86 0 R D 2220 12826 M 86 0 R D 2220 13227 M 86 0 R D
2220 13431 M 86 0 R D 2220 13576 M 86 0 R D 2220 13688 M 86 0 R D
2220 13779 M 86 0 R D 2220 13857 M 86 0 R D 2220 13924 M 86 0 R D
2220 13983 M 86 0 R D 2220 14385 M 86 0 R D 2220 14589 M 86 0 R D
2220 14733 M 86 0 R D 2220 14845 M 86 0 R D 2220 14937 M 86 0 R D
2220 15015 M 86 0 R D 2220 15082 M 86 0 R D 2220 15141 M 86 0 R D
6499 10563 M 0 4578 R D 6499 10563 M -172 0 R D 6499 11721 M -172 0 R D
6499 12879 M -172 0 R D 6499 14036 M -172 0 R D 6499 10912 M -86 0 R D
6499 11116 M -86 0 R D 6499 11260 M -86 0 R D 6499 11372 M -86 0 R D
6499 11464 M -86 0 R D 6499 11542 M -86 0 R D 6499 11609 M -86 0 R D
6499 11668 M -86 0 R D 6499 12069 M -86 0 R D 6499 12273 M -86 0 R D
6499 12418 M -86 0 R D 6499 12530 M -86 0 R D 6499 12622 M -86 0 R D
6499 12699 M -86 0 R D 6499 12766 M -86 0 R D 6499 12826 M -86 0 R D
6499 13227 M -86 0 R D 6499 13431 M -86 0 R D 6499 13576 M -86 0 R D
6499 13688 M -86 0 R D 6499 13779 M -86 0 R D 6499 13857 M -86 0 R D
6499 13924 M -86 0 R D 6499 13983 M -86 0 R D 6499 14385 M -86 0 R D
6499 14589 M -86 0 R D 6499 14733 M -86 0 R D 6499 14845 M -86 0 R D
6499 14937 M -86 0 R D 6499 15015 M -86 0 R D 6499 15082 M -86 0 R D
6499 15141 M -86 0 R D 1.000 0.000 0.706 setrgbcolor 2469 10563 M 504 697 R
504 857 R 503 505 R 504 634 R 504 536 R 503 454 R 504 409 R 503 362 R D
0.506 0.000 0.000 setrgbcolor 3477 11116 M 503 872 R 504 791 R 504 617 R
503 557 R 504 497 R 503 426 R D 0.000 0.549 0.000 setrgbcolor 3477 10563 M
503 1481 R 504 626 R 504 598 R 503 531 R 504 485 R 503 406 R D
0.000 0.514 1.000 setrgbcolor 4484 11116 M 504 605 R 503 697 R 504 626 R
503 626 R D 0.000 0.000 0.000 setrgbcolor gsave 2464 14385 translate 0 0 M
(phe2) show grestore 6499 10563 M 4278 0 R D 8259 10563 M 0 183 R D
gsave 8259 10035 translate 0 0 M -58.8433 0 N
( ) show grestore 10777 10563 M 0 183 R D gsave 10777 10035 translate 0 0 M
-58.8433 0 N
( ) show grestore 6499 10563 M 0 92 R D 6942 10563 M 0 92 R D 7257 10563 M
0 92 R D 7501 10563 M 0 92 R D 7700 10563 M 0 92 R D 7869 10563 M 0 92 R D
8015 10563 M 0 92 R D 8144 10563 M 0 92 R D 9017 10563 M 0 92 R D
9460 10563 M 0 92 R D 9775 10563 M 0 92 R D 10019 10563 M 0 92 R D
10218 10563 M 0 92 R D 10387 10563 M 0 92 R D 10533 10563 M 0 92 R D
10662 10563 M 0 92 R D 6499 15141 M 4278 0 R D 8259 15141 M 0 -183 R D
10777 15141 M 0 -183 R D 6499 15141 M 0 -92 R D 6942 15141 M 0 -92 R D
7257 15141 M 0 -92 R D 7501 15141 M 0 -92 R D 7700 15141 M 0 -92 R D
7869 15141 M 0 -92 R D 8015 15141 M 0 -92 R D 8144 15141 M 0 -92 R D
9017 15141 M 0 -92 R D 9460 15141 M 0 -92 R D 9775 15141 M 0 -92 R D
10019 15141 M 0 -92 R D 10218 15141 M 0 -92 R D 10387 15141 M 0 -92 R D
10533 15141 M 0 -92 R D 10662 15141 M 0 -92 R D 6499 10563 M 0 4578 R D
6499 10563 M 171 0 R D gsave 6388 10563 translate 0 0 M -117.687 0 N
( ) show grestore 6499 11721 M 171 0 R D gsave 6388 11580 translate 0 0 M
-117.687 0 N
( ) show grestore 6499 12879 M 171 0 R D gsave 6388 12738 translate 0 0 M
-117.687 0 N
( ) show grestore 6499 14036 M 171 0 R D gsave 6388 13895 translate 0 0 M
-117.687 0 N
( ) show grestore 6499 10912 M 85 0 R D 6499 11116 M 85 0 R D 6499 11260 M
85 0 R D 6499 11372 M 85 0 R D 6499 11464 M 85 0 R D 6499 11542 M 85 0 R D
6499 11609 M 85 0 R D 6499 11668 M 85 0 R D 6499 12069 M 85 0 R D
6499 12273 M 85 0 R D 6499 12418 M 85 0 R D 6499 12530 M 85 0 R D
6499 12622 M 85 0 R D 6499 12699 M 85 0 R D 6499 12766 M 85 0 R D
6499 12826 M 85 0 R D 6499 13227 M 85 0 R D 6499 13431 M 85 0 R D
6499 13576 M 85 0 R D 6499 13688 M 85 0 R D 6499 13779 M 85 0 R D
6499 13857 M 85 0 R D 6499 13924 M 85 0 R D 6499 13983 M 85 0 R D
6499 14385 M 85 0 R D 6499 14589 M 85 0 R D 6499 14733 M 85 0 R D
6499 14845 M 85 0 R D 6499 14937 M 85 0 R D 6499 15015 M 85 0 R D
6499 15082 M 85 0 R D 6499 15141 M 85 0 R D 10777 10563 M 0 4578 R D
10777 10563 M -171 0 R D 10777 11721 M -171 0 R D 10777 12879 M -171 0 R D
10777 14036 M -171 0 R D 10777 10912 M -85 0 R D 10777 11116 M -85 0 R D
10777 11260 M -85 0 R D 10777 11372 M -85 0 R D 10777 11464 M -85 0 R D
10777 11542 M -85 0 R D 10777 11609 M -85 0 R D 10777 11668 M -85 0 R D
10777 12069 M -85 0 R D 10777 12273 M -85 0 R D 10777 12418 M -85 0 R D
10777 12530 M -85 0 R D 10777 12622 M -85 0 R D 10777 12699 M -85 0 R D
10777 12766 M -85 0 R D 10777 12826 M -85 0 R D 10777 13227 M -85 0 R D
10777 13431 M -85 0 R D 10777 13576 M -85 0 R D 10777 13688 M -85 0 R D
10777 13779 M -85 0 R D 10777 13857 M -85 0 R D 10777 13924 M -85 0 R D
10777 13983 M -85 0 R D 10777 14385 M -85 0 R D 10777 14589 M -85 0 R D
10777 14733 M -85 0 R D 10777 14845 M -85 0 R D 10777 14937 M -85 0 R D
10777 15015 M -85 0 R D 10777 15082 M -85 0 R D 10777 15141 M -85 0 R D
1.000 0.000 0.706 setrgbcolor 8259 11116 M 503 978 R 504 685 R 504 582 R
503 457 R 504 437 R D 0.506 0.000 0.000 setrgbcolor 8259 10912 M 503 552 R
504 775 R 504 764 R 503 547 R 504 473 R D 0.000 0.549 0.000 setrgbcolor
8259 10912 M 503 204 R 504 737 R 504 646 R 503 556 R 504 544 R D
0.000 0.514 1.000 setrgbcolor 9266 10563 M 504 349 R 503 809 R 504 535 R D
0.000 0.000 0.000 setrgbcolor gsave 6743 14385 translate 0 0 M
(phe4) show grestore 10777 10563 M 4279 0 R D 12537 10563 M 0 183 R D
gsave 12537 10035 translate 0 0 M -58.8433 0 N
( ) show grestore 15056 10563 M 0 183 R D gsave 15056 10035 translate 0 0 M
-58.8433 0 N
( ) show grestore 10777 10563 M 0 92 R D 11221 10563 M 0 92 R D
11535 10563 M 0 92 R D 11779 10563 M 0 92 R D 11979 10563 M 0 92 R D
12147 10563 M 0 92 R D 12293 10563 M 0 92 R D 12422 10563 M 0 92 R D
13295 10563 M 0 92 R D 13739 10563 M 0 92 R D 14053 10563 M 0 92 R D
14298 10563 M 0 92 R D 14497 10563 M 0 92 R D 14666 10563 M 0 92 R D
14812 10563 M 0 92 R D 14940 10563 M 0 92 R D 10777 15141 M 4279 0 R D
12537 15141 M 0 -183 R D 15056 15141 M 0 -183 R D 10777 15141 M 0 -92 R D
11221 15141 M 0 -92 R D 11535 15141 M 0 -92 R D 11779 15141 M 0 -92 R D
11979 15141 M 0 -92 R D 12147 15141 M 0 -92 R D 12293 15141 M 0 -92 R D
12422 15141 M 0 -92 R D 13295 15141 M 0 -92 R D 13739 15141 M 0 -92 R D
14053 15141 M 0 -92 R D 14298 15141 M 0 -92 R D 14497 15141 M 0 -92 R D
14666 15141 M 0 -92 R D 14812 15141 M 0 -92 R D 14940 15141 M 0 -92 R D
10777 10563 M 0 4578 R D 10777 10563 M 171 0 R D
gsave 10666 10563 translate 0 0 M -117.687 0 N
( ) show grestore 10777 11721 M 171 0 R D gsave 10666 11580 translate 0 0 M
-117.687 0 N
( ) show grestore 10777 12879 M 171 0 R D gsave 10666 12738 translate 0 0 M
-117.687 0 N
( ) show grestore 10777 14036 M 171 0 R D gsave 10666 13895 translate 0 0 M
-117.687 0 N
( ) show grestore 10777 10912 M 86 0 R D 10777 11116 M 86 0 R D
10777 11260 M 86 0 R D 10777 11372 M 86 0 R D 10777 11464 M 86 0 R D
10777 11542 M 86 0 R D 10777 11609 M 86 0 R D 10777 11668 M 86 0 R D
10777 12069 M 86 0 R D 10777 12273 M 86 0 R D 10777 12418 M 86 0 R D
10777 12530 M 86 0 R D 10777 12622 M 86 0 R D 10777 12699 M 86 0 R D
10777 12766 M 86 0 R D 10777 12826 M 86 0 R D 10777 13227 M 86 0 R D
10777 13431 M 86 0 R D 10777 13576 M 86 0 R D 10777 13688 M 86 0 R D
10777 13779 M 86 0 R D 10777 13857 M 86 0 R D 10777 13924 M 86 0 R D
10777 13983 M 86 0 R D 10777 14385 M 86 0 R D 10777 14589 M 86 0 R D
10777 14733 M 86 0 R D 10777 14845 M 86 0 R D 10777 14937 M 86 0 R D
10777 15015 M 86 0 R D 10777 15082 M 86 0 R D 10777 15141 M 86 0 R D
15056 10563 M 0 4578 R D 15056 10563 M -172 0 R D 15056 11721 M -172 0 R D
15056 12879 M -172 0 R D 15056 14036 M -172 0 R D 15056 10912 M -86 0 R D
15056 11116 M -86 0 R D 15056 11260 M -86 0 R D 15056 11372 M -86 0 R D
15056 11464 M -86 0 R D 15056 11542 M -86 0 R D 15056 11609 M -86 0 R D
15056 11668 M -86 0 R D 15056 12069 M -86 0 R D 15056 12273 M -86 0 R D
15056 12418 M -86 0 R D 15056 12530 M -86 0 R D 15056 12622 M -86 0 R D
15056 12699 M -86 0 R D 15056 12766 M -86 0 R D 15056 12826 M -86 0 R D
15056 13227 M -86 0 R D 15056 13431 M -86 0 R D 15056 13576 M -86 0 R D
15056 13688 M -86 0 R D 15056 13779 M -86 0 R D 15056 13857 M -86 0 R D
15056 13924 M -86 0 R D 15056 13983 M -86 0 R D 15056 14385 M -86 0 R D
15056 14589 M -86 0 R D 15056 14733 M -86 0 R D 15056 14845 M -86 0 R D
15056 14937 M -86 0 R D 15056 15015 M -86 0 R D 15056 15082 M -86 0 R D
15056 15141 M -86 0 R D 1.000 0.000 0.706 setrgbcolor 11026 10912 M
504 348 R 504 697 R 503 621 R 504 610 R 504 588 R 503 486 R 504 397 R
503 324 R D 0.506 0.000 0.000 setrgbcolor 12034 11116 M 503 928 R 504 835 R
504 652 R 503 519 R 504 458 R 503 387 R D 0.000 0.549 0.000 setrgbcolor
12034 10912 M 503 697 R 504 664 R 504 644 R 503 641 R 504 552 R 503 451 R D
0.000 0.514 1.000 setrgbcolor 13041 11116 M 504 900 R 503 646 R 504 592 R
503 648 R D 0.000 0.000 0.000 setrgbcolor gsave 11021 14385 translate 0 0 M
(phf2) show grestore 15056 10563 M 4278 0 R D 16816 10563 M 0 183 R D
gsave 16816 10035 translate 0 0 M -58.8433 0 N
( ) show grestore 19334 10563 M 0 183 R D gsave 19334 10035 translate 0 0 M
-58.8433 0 N
( ) show grestore 15056 10563 M 0 92 R D 15499 10563 M 0 92 R D
15814 10563 M 0 92 R D 16058 10563 M 0 92 R D 16257 10563 M 0 92 R D
16426 10563 M 0 92 R D 16572 10563 M 0 92 R D 16701 10563 M 0 92 R D
17574 10563 M 0 92 R D 18017 10563 M 0 92 R D 18332 10563 M 0 92 R D
18576 10563 M 0 92 R D 18775 10563 M 0 92 R D 18944 10563 M 0 92 R D
19090 10563 M 0 92 R D 19219 10563 M 0 92 R D 15056 15141 M 4278 0 R D
16816 15141 M 0 -183 R D 19334 15141 M 0 -183 R D 15056 15141 M 0 -92 R D
15499 15141 M 0 -92 R D 15814 15141 M 0 -92 R D 16058 15141 M 0 -92 R D
16257 15141 M 0 -92 R D 16426 15141 M 0 -92 R D 16572 15141 M 0 -92 R D
16701 15141 M 0 -92 R D 17574 15141 M 0 -92 R D 18017 15141 M 0 -92 R D
18332 15141 M 0 -92 R D 18576 15141 M 0 -92 R D 18775 15141 M 0 -92 R D
18944 15141 M 0 -92 R D 19090 15141 M 0 -92 R D 19219 15141 M 0 -92 R D
15056 10563 M 0 4578 R D 15056 10563 M 171 0 R D
gsave 14945 10563 translate 0 0 M -117.687 0 N
( ) show grestore 15056 11721 M 171 0 R D gsave 14945 11580 translate 0 0 M
-117.687 0 N
( ) show grestore 15056 12879 M 171 0 R D gsave 14945 12738 translate 0 0 M
-117.687 0 N
( ) show grestore 15056 14036 M 171 0 R D gsave 14945 13895 translate 0 0 M
-117.687 0 N
( ) show grestore 15056 10912 M 85 0 R D 15056 11116 M 85 0 R D
15056 11260 M 85 0 R D 15056 11372 M 85 0 R D 15056 11464 M 85 0 R D
15056 11542 M 85 0 R D 15056 11609 M 85 0 R D 15056 11668 M 85 0 R D
15056 12069 M 85 0 R D 15056 12273 M 85 0 R D 15056 12418 M 85 0 R D
15056 12530 M 85 0 R D 15056 12622 M 85 0 R D 15056 12699 M 85 0 R D
15056 12766 M 85 0 R D 15056 12826 M 85 0 R D 15056 13227 M 85 0 R D
15056 13431 M 85 0 R D 15056 13576 M 85 0 R D 15056 13688 M 85 0 R D
15056 13779 M 85 0 R D 15056 13857 M 85 0 R D 15056 13924 M 85 0 R D
15056 13983 M 85 0 R D 15056 14385 M 85 0 R D 15056 14589 M 85 0 R D
15056 14733 M 85 0 R D 15056 14845 M 85 0 R D 15056 14937 M 85 0 R D
15056 15015 M 85 0 R D 15056 15082 M 85 0 R D 15056 15141 M 85 0 R D
19334 10563 M 0 4578 R D 19334 10563 M -171 0 R D 19334 11721 M -171 0 R D
19334 12879 M -171 0 R D 19334 14036 M -171 0 R D 19334 10912 M -85 0 R D
19334 11116 M -85 0 R D 19334 11260 M -85 0 R D 19334 11372 M -85 0 R D
19334 11464 M -85 0 R D 19334 11542 M -85 0 R D 19334 11609 M -85 0 R D
19334 11668 M -85 0 R D 19334 12069 M -85 0 R D 19334 12273 M -85 0 R D
19334 12418 M -85 0 R D 19334 12530 M -85 0 R D 19334 12622 M -85 0 R D
19334 12699 M -85 0 R D 19334 12766 M -85 0 R D 19334 12826 M -85 0 R D
19334 13227 M -85 0 R D 19334 13431 M -85 0 R D 19334 13576 M -85 0 R D
19334 13688 M -85 0 R D 19334 13779 M -85 0 R D 19334 13857 M -85 0 R D
19334 13924 M -85 0 R D 19334 13983 M -85 0 R D 19334 14385 M -85 0 R D
19334 14589 M -85 0 R D 19334 14733 M -85 0 R D 19334 14845 M -85 0 R D
19334 14937 M -85 0 R D 19334 15015 M -85 0 R D 19334 15082 M -85 0 R D
19334 15141 M -85 0 R D 1.000 0.000 0.706 setrgbcolor 16816 10912 M
503 1013 R 504 774 R 504 562 R 503 493 R 504 398 R D
0.506 0.000 0.000 setrgbcolor 16816 10912 M 503 756 R 504 588 R 504 623 R
503 570 R 504 486 R D 0.000 0.549 0.000 setrgbcolor 16816 10563 M 503 349 R
504 809 R 504 585 R 503 592 R 504 526 R D 0.000 0.514 1.000 setrgbcolor
17823 10563 M 504 697 R 503 553 R 504 523 R D 0.000 0.000 0.000 setrgbcolor
gsave 15300 14385 translate 0 0 M
(phf4) show grestore 2220 5986 M 4279 0 R D 3980 5986 M 0 183 R D
gsave 3980 5458 translate 0 0 M -58.8433 0 N
( ) show grestore 6499 5986 M 0 183 R D gsave 6499 5458 translate 0 0 M
-58.8433 0 N
( ) show grestore 2220 5986 M 0 91 R D 2664 5986 M 0 91 R D 2978 5986 M
0 91 R D 3222 5986 M 0 91 R D 3422 5986 M 0 91 R D 3590 5986 M 0 91 R D
3736 5986 M 0 91 R D 3865 5986 M 0 91 R D 4738 5986 M 0 91 R D 5182 5986 M
0 91 R D 5496 5986 M 0 91 R D 5741 5986 M 0 91 R D 5940 5986 M 0 91 R D
6109 5986 M 0 91 R D 6255 5986 M 0 91 R D 6383 5986 M 0 91 R D 2220 10563 M
4279 0 R D 3980 10563 M 0 -183 R D 6499 10563 M 0 -183 R D 2220 10563 M
0 -91 R D 2664 10563 M 0 -91 R D 2978 10563 M 0 -91 R D 3222 10563 M 0 -91 R
D 3422 10563 M 0 -91 R D 3590 10563 M 0 -91 R D 3736 10563 M 0 -91 R D
3865 10563 M 0 -91 R D 4738 10563 M 0 -91 R D 5182 10563 M 0 -91 R D
5496 10563 M 0 -91 R D 5741 10563 M 0 -91 R D 5940 10563 M 0 -91 R D
6109 10563 M 0 -91 R D 6255 10563 M 0 -91 R D 6383 10563 M 0 -91 R D
2220 5986 M 0 4577 R D 2220 5986 M 171 0 R D gsave 2109 5986 translate 0 0 M
-235.373 0 N
(1) show grestore 2220 7143 M 171 0 R D gsave 2109 7003 translate 0 0 M
-470.747 0 N
(10) show grestore 2220 8301 M 171 0 R D gsave 2109 8160 translate 0 0 M
-706.12 0 N
(100) show grestore 2220 9459 M 171 0 R D gsave 2109 9318 translate 0 0 M
-941.493 0 N
(1000) show grestore 2220 6334 M 86 0 R D 2220 6538 M 86 0 R D 2220 6683 M
86 0 R D 2220 6795 M 86 0 R D 2220 6887 M 86 0 R D 2220 6964 M 86 0 R D
2220 7031 M 86 0 R D 2220 7090 M 86 0 R D 2220 7492 M 86 0 R D 2220 7696 M
86 0 R D 2220 7840 M 86 0 R D 2220 7953 M 86 0 R D 2220 8044 M 86 0 R D
2220 8122 M 86 0 R D 2220 8189 M 86 0 R D 2220 8248 M 86 0 R D 2220 8649 M
86 0 R D 2220 8853 M 86 0 R D 2220 8998 M 86 0 R D 2220 9110 M 86 0 R D
2220 9202 M 86 0 R D 2220 9279 M 86 0 R D 2220 9346 M 86 0 R D 2220 9406 M
86 0 R D 2220 9807 M 86 0 R D 2220 10011 M 86 0 R D 2220 10156 M 86 0 R D
2220 10268 M 86 0 R D 2220 10359 M 86 0 R D 2220 10437 M 86 0 R D
2220 10504 M 86 0 R D 2220 10563 M 86 0 R D 6499 5986 M 0 4577 R D
6499 5986 M -172 0 R D 6499 7143 M -172 0 R D 6499 8301 M -172 0 R D
6499 9459 M -172 0 R D 6499 6334 M -86 0 R D 6499 6538 M -86 0 R D
6499 6683 M -86 0 R D 6499 6795 M -86 0 R D 6499 6887 M -86 0 R D
6499 6964 M -86 0 R D 6499 7031 M -86 0 R D 6499 7090 M -86 0 R D
6499 7492 M -86 0 R D 6499 7696 M -86 0 R D 6499 7840 M -86 0 R D
6499 7953 M -86 0 R D 6499 8044 M -86 0 R D 6499 8122 M -86 0 R D
6499 8189 M -86 0 R D 6499 8248 M -86 0 R D 6499 8649 M -86 0 R D
6499 8853 M -86 0 R D 6499 8998 M -86 0 R D 6499 9110 M -86 0 R D
6499 9202 M -86 0 R D 6499 9279 M -86 0 R D 6499 9346 M -86 0 R D
6499 9406 M -86 0 R D 6499 9807 M -86 0 R D 6499 10011 M -86 0 R D
6499 10156 M -86 0 R D 6499 10268 M -86 0 R D 6499 10359 M -86 0 R D
6499 10437 M -86 0 R D 6499 10504 M -86 0 R D 6499 10563 M -86 0 R D
1.000 0.000 0.706 setrgbcolor 2469 5986 M 504 809 R 504 721 R 503 553 R
504 678 R 504 558 R 503 510 R 504 435 R 439 313 R D
0.506 0.000 0.000 setrgbcolor 3477 6538 M 503 809 R 504 737 R 504 640 R
503 567 R 504 520 R 503 449 R D 0.000 0.549 0.000 setrgbcolor 3477 6334 M
503 204 R 504 653 R 504 674 R 503 609 R 504 587 R 503 592 R D
0.000 0.514 1.000 setrgbcolor 4484 5986 M 504 552 R 503 605 R 504 722 R
503 501 R D 0.000 0.000 0.000 setrgbcolor gsave 2464 9807 translate 0 0 M
(phg2) show grestore 6499 5986 M 4278 0 R D 8259 5986 M 0 183 R D
gsave 8259 5458 translate 0 0 M -58.8433 0 N
( ) show grestore 10777 5986 M 0 183 R D gsave 10777 5458 translate 0 0 M
-58.8433 0 N
( ) show grestore 6499 5986 M 0 91 R D 6942 5986 M 0 91 R D 7257 5986 M
0 91 R D 7501 5986 M 0 91 R D 7700 5986 M 0 91 R D 7869 5986 M 0 91 R D
8015 5986 M 0 91 R D 8144 5986 M 0 91 R D 9017 5986 M 0 91 R D 9460 5986 M
0 91 R D 9775 5986 M 0 91 R D 10019 5986 M 0 91 R D 10218 5986 M 0 91 R D
10387 5986 M 0 91 R D 10533 5986 M 0 91 R D 10662 5986 M 0 91 R D
6499 10563 M 4278 0 R D 8259 10563 M 0 -183 R D 10777 10563 M 0 -183 R D
6499 10563 M 0 -91 R D 6942 10563 M 0 -91 R D 7257 10563 M 0 -91 R D
7501 10563 M 0 -91 R D 7700 10563 M 0 -91 R D 7869 10563 M 0 -91 R D
8015 10563 M 0 -91 R D 8144 10563 M 0 -91 R D 9017 10563 M 0 -91 R D
9460 10563 M 0 -91 R D 9775 10563 M 0 -91 R D 10019 10563 M 0 -91 R D
10218 10563 M 0 -91 R D 10387 10563 M 0 -91 R D 10533 10563 M 0 -91 R D
10662 10563 M 0 -91 R D 6499 5986 M 0 4577 R D 6499 5986 M 171 0 R D
gsave 6388 5986 translate 0 0 M -117.687 0 N
( ) show grestore 6499 7143 M 171 0 R D gsave 6388 7003 translate 0 0 M
-117.687 0 N
( ) show grestore 6499 8301 M 171 0 R D gsave 6388 8160 translate 0 0 M
-117.687 0 N
( ) show grestore 6499 9459 M 171 0 R D gsave 6388 9318 translate 0 0 M
-117.687 0 N
( ) show grestore 6499 6334 M 85 0 R D 6499 6538 M 85 0 R D 6499 6683 M
85 0 R D 6499 6795 M 85 0 R D 6499 6887 M 85 0 R D 6499 6964 M 85 0 R D
6499 7031 M 85 0 R D 6499 7090 M 85 0 R D 6499 7492 M 85 0 R D 6499 7696 M
85 0 R D 6499 7840 M 85 0 R D 6499 7953 M 85 0 R D 6499 8044 M 85 0 R D
6499 8122 M 85 0 R D 6499 8189 M 85 0 R D 6499 8248 M 85 0 R D 6499 8649 M
85 0 R D 6499 8853 M 85 0 R D 6499 8998 M 85 0 R D 6499 9110 M 85 0 R D
6499 9202 M 85 0 R D 6499 9279 M 85 0 R D 6499 9346 M 85 0 R D 6499 9406 M
85 0 R D 6499 9807 M 85 0 R D 6499 10011 M 85 0 R D 6499 10156 M 85 0 R D
6499 10268 M 85 0 R D 6499 10359 M 85 0 R D 6499 10437 M 85 0 R D
6499 10504 M 85 0 R D 6499 10563 M 85 0 R D 10777 5986 M 0 4577 R D
10777 5986 M -171 0 R D 10777 7143 M -171 0 R D 10777 8301 M -171 0 R D
10777 9459 M -171 0 R D 10777 6334 M -85 0 R D 10777 6538 M -85 0 R D
10777 6683 M -85 0 R D 10777 6795 M -85 0 R D 10777 6887 M -85 0 R D
10777 6964 M -85 0 R D 10777 7031 M -85 0 R D 10777 7090 M -85 0 R D
10777 7492 M -85 0 R D 10777 7696 M -85 0 R D 10777 7840 M -85 0 R D
10777 7953 M -85 0 R D 10777 8044 M -85 0 R D 10777 8122 M -85 0 R D
10777 8189 M -85 0 R D 10777 8248 M -85 0 R D 10777 8649 M -85 0 R D
10777 8853 M -85 0 R D 10777 8998 M -85 0 R D 10777 9110 M -85 0 R D
10777 9202 M -85 0 R D 10777 9279 M -85 0 R D 10777 9346 M -85 0 R D
10777 9406 M -85 0 R D 10777 9807 M -85 0 R D 10777 10011 M -85 0 R D
10777 10156 M -85 0 R D 10777 10268 M -85 0 R D 10777 10359 M -85 0 R D
10777 10437 M -85 0 R D 10777 10504 M -85 0 R D 10777 10563 M -85 0 R D
1.000 0.000 0.706 setrgbcolor 7251 6334 M 504 204 R 504 426 R 503 640 R
504 692 R 504 495 R 503 486 R 504 413 R D 0.506 0.000 0.000 setrgbcolor
8762 6538 M 504 809 R 504 606 R 503 626 R 504 461 R D
0.000 0.549 0.000 setrgbcolor 9266 5986 M 504 697 R 503 552 R 504 707 R D
0.000 0.000 0.000 setrgbcolor gsave 6743 9807 translate 0 0 M
(phg4) show grestore 10777 5986 M 4279 0 R D 12537 5986 M 0 183 R D
gsave 12537 5458 translate 0 0 M -294.217 0 N
(0.1) show grestore 15056 5986 M 0 183 R D gsave 15056 5458 translate 0 0 M
-294.217 0 N
(1.0) show grestore 10777 5986 M 0 91 R D 11221 5986 M 0 91 R D 11535 5986 M
0 91 R D 11779 5986 M 0 91 R D 11979 5986 M 0 91 R D 12147 5986 M 0 91 R D
12293 5986 M 0 91 R D 12422 5986 M 0 91 R D 13295 5986 M 0 91 R D
13739 5986 M 0 91 R D 14053 5986 M 0 91 R D 14298 5986 M 0 91 R D
14497 5986 M 0 91 R D 14666 5986 M 0 91 R D 14812 5986 M 0 91 R D
14940 5986 M 0 91 R D 10777 10563 M 4279 0 R D 12537 10563 M 0 -183 R D
15056 10563 M 0 -183 R D 10777 10563 M 0 -91 R D 11221 10563 M 0 -91 R D
11535 10563 M 0 -91 R D 11779 10563 M 0 -91 R D 11979 10563 M 0 -91 R D
12147 10563 M 0 -91 R D 12293 10563 M 0 -91 R D 12422 10563 M 0 -91 R D
13295 10563 M 0 -91 R D 13739 10563 M 0 -91 R D 14053 10563 M 0 -91 R D
14298 10563 M 0 -91 R D 14497 10563 M 0 -91 R D 14666 10563 M 0 -91 R D
14812 10563 M 0 -91 R D 14940 10563 M 0 -91 R D 10777 5986 M 0 4577 R D
10777 5986 M 171 0 R D gsave 10666 5986 translate 0 0 M -117.687 0 N
( ) show grestore 10777 7143 M 171 0 R D gsave 10666 7003 translate 0 0 M
-117.687 0 N
( ) show grestore 10777 8301 M 171 0 R D gsave 10666 8160 translate 0 0 M
-117.687 0 N
( ) show grestore 10777 9459 M 171 0 R D gsave 10666 9318 translate 0 0 M
-117.687 0 N
( ) show grestore 10777 6334 M 86 0 R D 10777 6538 M 86 0 R D 10777 6683 M
86 0 R D 10777 6795 M 86 0 R D 10777 6887 M 86 0 R D 10777 6964 M 86 0 R D
10777 7031 M 86 0 R D 10777 7090 M 86 0 R D 10777 7492 M 86 0 R D
10777 7696 M 86 0 R D 10777 7840 M 86 0 R D 10777 7953 M 86 0 R D
10777 8044 M 86 0 R D 10777 8122 M 86 0 R D 10777 8189 M 86 0 R D
10777 8248 M 86 0 R D 10777 8649 M 86 0 R D 10777 8853 M 86 0 R D
10777 8998 M 86 0 R D 10777 9110 M 86 0 R D 10777 9202 M 86 0 R D
10777 9279 M 86 0 R D 10777 9346 M 86 0 R D 10777 9406 M 86 0 R D
10777 9807 M 86 0 R D 10777 10011 M 86 0 R D 10777 10156 M 86 0 R D
10777 10268 M 86 0 R D 10777 10359 M 86 0 R D 10777 10437 M 86 0 R D
10777 10504 M 86 0 R D 10777 10563 M 86 0 R D 15056 5986 M 0 4577 R D
15056 5986 M -172 0 R D 15056 7143 M -172 0 R D 15056 8301 M -172 0 R D
15056 9459 M -172 0 R D 15056 6334 M -86 0 R D 15056 6538 M -86 0 R D
15056 6683 M -86 0 R D 15056 6795 M -86 0 R D 15056 6887 M -86 0 R D
15056 6964 M -86 0 R D 15056 7031 M -86 0 R D 15056 7090 M -86 0 R D
15056 7492 M -86 0 R D 15056 7696 M -86 0 R D 15056 7840 M -86 0 R D
15056 7953 M -86 0 R D 15056 8044 M -86 0 R D 15056 8122 M -86 0 R D
15056 8189 M -86 0 R D 15056 8248 M -86 0 R D 15056 8649 M -86 0 R D
15056 8853 M -86 0 R D 15056 8998 M -86 0 R D 15056 9110 M -86 0 R D
15056 9202 M -86 0 R D 15056 9279 M -86 0 R D 15056 9346 M -86 0 R D
15056 9406 M -86 0 R D 15056 9807 M -86 0 R D 15056 10011 M -86 0 R D
15056 10156 M -86 0 R D 15056 10268 M -86 0 R D 15056 10359 M -86 0 R D
15056 10437 M -86 0 R D 15056 10504 M -86 0 R D 15056 10563 M -86 0 R D
1.000 0.000 0.706 setrgbcolor 10777 6161 M 249 173 R 504 461 R 504 644 R
503 661 R 504 622 R 504 532 R 503 455 R 504 417 R 503 314 R D
0.000 0.549 0.000 setrgbcolor 12034 5986 M 503 901 R 504 629 R 504 732 R
503 604 R 504 552 R 503 473 R D 0.000 0.514 1.000 setrgbcolor 13041 6334 M
504 809 R 503 481 R 504 877 R 503 677 R D 0.000 0.000 0.000 setrgbcolor
gsave 11021 9807 translate 0 0 M
(phh2) show grestore 15056 5986 M 4278 0 R D 16816 5986 M 0 183 R D
gsave 16816 5458 translate 0 0 M -294.217 0 N
(0.1) show grestore 19334 5986 M 0 183 R D gsave 19334 5458 translate 0 0 M
-294.217 0 N
(1.0) show grestore 15056 5986 M 0 91 R D 15499 5986 M 0 91 R D 15814 5986 M
0 91 R D 16058 5986 M 0 91 R D 16257 5986 M 0 91 R D 16426 5986 M 0 91 R D
16572 5986 M 0 91 R D 16701 5986 M 0 91 R D 17574 5986 M 0 91 R D
18017 5986 M 0 91 R D 18332 5986 M 0 91 R D 18576 5986 M 0 91 R D
18775 5986 M 0 91 R D 18944 5986 M 0 91 R D 19090 5986 M 0 91 R D
19219 5986 M 0 91 R D 15056 10563 M 4278 0 R D 16816 10563 M 0 -183 R D
19334 10563 M 0 -183 R D 15056 10563 M 0 -91 R D 15499 10563 M 0 -91 R D
15814 10563 M 0 -91 R D 16058 10563 M 0 -91 R D 16257 10563 M 0 -91 R D
16426 10563 M 0 -91 R D 16572 10563 M 0 -91 R D 16701 10563 M 0 -91 R D
17574 10563 M 0 -91 R D 18017 10563 M 0 -91 R D 18332 10563 M 0 -91 R D
18576 10563 M 0 -91 R D 18775 10563 M 0 -91 R D 18944 10563 M 0 -91 R D
19090 10563 M 0 -91 R D 19219 10563 M 0 -91 R D 15056 5986 M 0 4577 R D
15056 5986 M 171 0 R D gsave 14945 5986 translate 0 0 M -117.687 0 N
( ) show grestore 15056 7143 M 171 0 R D gsave 14945 7003 translate 0 0 M
-117.687 0 N
( ) show grestore 15056 8301 M 171 0 R D gsave 14945 8160 translate 0 0 M
-117.687 0 N
( ) show grestore 15056 9459 M 171 0 R D gsave 14945 9318 translate 0 0 M
-117.687 0 N
( ) show grestore 15056 6334 M 85 0 R D 15056 6538 M 85 0 R D 15056 6683 M
85 0 R D 15056 6795 M 85 0 R D 15056 6887 M 85 0 R D 15056 6964 M 85 0 R D
15056 7031 M 85 0 R D 15056 7090 M 85 0 R D 15056 7492 M 85 0 R D
15056 7696 M 85 0 R D 15056 7840 M 85 0 R D 15056 7953 M 85 0 R D
15056 8044 M 85 0 R D 15056 8122 M 85 0 R D 15056 8189 M 85 0 R D
15056 8248 M 85 0 R D 15056 8649 M 85 0 R D 15056 8853 M 85 0 R D
15056 8998 M 85 0 R D 15056 9110 M 85 0 R D 15056 9202 M 85 0 R D
15056 9279 M 85 0 R D 15056 9346 M 85 0 R D 15056 9406 M 85 0 R D
15056 9807 M 85 0 R D 15056 10011 M 85 0 R D 15056 10156 M 85 0 R D
15056 10268 M 85 0 R D 15056 10359 M 85 0 R D 15056 10437 M 85 0 R D
15056 10504 M 85 0 R D 15056 10563 M 85 0 R D 19334 5986 M 0 4577 R D
19334 5986 M -171 0 R D 19334 7143 M -171 0 R D 19334 8301 M -171 0 R D
19334 9459 M -171 0 R D 19334 6334 M -85 0 R D 19334 6538 M -85 0 R D
19334 6683 M -85 0 R D 19334 6795 M -85 0 R D 19334 6887 M -85 0 R D
19334 6964 M -85 0 R D 19334 7031 M -85 0 R D 19334 7090 M -85 0 R D
19334 7492 M -85 0 R D 19334 7696 M -85 0 R D 19334 7840 M -85 0 R D
19334 7953 M -85 0 R D 19334 8044 M -85 0 R D 19334 8122 M -85 0 R D
19334 8189 M -85 0 R D 19334 8248 M -85 0 R D 19334 8649 M -85 0 R D
19334 8853 M -85 0 R D 19334 8998 M -85 0 R D 19334 9110 M -85 0 R D
19334 9202 M -85 0 R D 19334 9279 M -85 0 R D 19334 9346 M -85 0 R D
19334 9406 M -85 0 R D 19334 9807 M -85 0 R D 19334 10011 M -85 0 R D
19334 10156 M -85 0 R D 19334 10268 M -85 0 R D 19334 10359 M -85 0 R D
19334 10437 M -85 0 R D 19334 10504 M -85 0 R D 19334 10563 M -85 0 R D
1.000 0.000 0.706 setrgbcolor 16312 5986 M 504 901 R 503 914 R 504 543 R
504 511 R 503 460 R 504 326 R D 0.000 0.549 0.000 setrgbcolor 17319 6538 M
504 605 R 504 267 R 503 572 R 504 488 R D 0.000 0.514 1.000 setrgbcolor
15808 5986 M 504 0 R 504 0 R 503 0 R 504 0 R 504 348 R 503 461 R 504 789 R D
0.000 0.000 0.000 setrgbcolor gsave 15300 9807 translate 0 0 M
(phh4) show grestore 2220 1408 M 4279 0 R D 3980 1408 M 0 183 R D
gsave 3980 880 translate 0 0 M -294.217 0 N
(0.1) show grestore 6499 1408 M 0 183 R D gsave 6499 880 translate 0 0 M
-294.217 0 N
(1.0) show grestore 2220 1408 M 0 92 R D 2664 1408 M 0 92 R D 2978 1408 M
0 92 R D 3222 1408 M 0 92 R D 3422 1408 M 0 92 R D 3590 1408 M 0 92 R D
3736 1408 M 0 92 R D 3865 1408 M 0 92 R D 4738 1408 M 0 92 R D 5182 1408 M
0 92 R D 5496 1408 M 0 92 R D 5741 1408 M 0 92 R D 5940 1408 M 0 92 R D
6109 1408 M 0 92 R D 6255 1408 M 0 92 R D 6383 1408 M 0 92 R D 2220 5986 M
4279 0 R D 3980 5986 M 0 -183 R D 6499 5986 M 0 -183 R D 2220 5986 M 0 -92 R
D 2664 5986 M 0 -92 R D 2978 5986 M 0 -92 R D 3222 5986 M 0 -92 R D
3422 5986 M 0 -92 R D 3590 5986 M 0 -92 R D 3736 5986 M 0 -92 R D
3865 5986 M 0 -92 R D 4738 5986 M 0 -92 R D 5182 5986 M 0 -92 R D
5496 5986 M 0 -92 R D 5741 5986 M 0 -92 R D 5940 5986 M 0 -92 R D
6109 5986 M 0 -92 R D 6255 5986 M 0 -92 R D 6383 5986 M 0 -92 R D
2220 1408 M 0 4578 R D 2220 1408 M 171 0 R D gsave 2109 1408 translate 0 0 M
-235.373 0 N
(1) show grestore 2220 2566 M 171 0 R D gsave 2109 2425 translate 0 0 M
-470.747 0 N
(10) show grestore 2220 3723 M 171 0 R D gsave 2109 3583 translate 0 0 M
-706.12 0 N
(100) show grestore 2220 4881 M 171 0 R D gsave 2109 4740 translate 0 0 M
-941.493 0 N
(1000) show grestore 2220 1757 M 86 0 R D 2220 1960 M 86 0 R D 2220 2105 M
86 0 R D 2220 2217 M 86 0 R D 2220 2309 M 86 0 R D 2220 2386 M 86 0 R D
2220 2454 M 86 0 R D 2220 2513 M 86 0 R D 2220 2914 M 86 0 R D 2220 3118 M
86 0 R D 2220 3263 M 86 0 R D 2220 3375 M 86 0 R D 2220 3467 M 86 0 R D
2220 3544 M 86 0 R D 2220 3611 M 86 0 R D 2220 3670 M 86 0 R D 2220 4072 M
86 0 R D 2220 4276 M 86 0 R D 2220 4420 M 86 0 R D 2220 4533 M 86 0 R D
2220 4624 M 86 0 R D 2220 4702 M 86 0 R D 2220 4769 M 86 0 R D 2220 4828 M
86 0 R D 2220 5230 M 86 0 R D 2220 5433 M 86 0 R D 2220 5578 M 86 0 R D
2220 5690 M 86 0 R D 2220 5782 M 86 0 R D 2220 5859 M 86 0 R D 2220 5927 M
86 0 R D 2220 5986 M 86 0 R D 6499 1408 M 0 4578 R D 6499 1408 M -172 0 R D
6499 2566 M -172 0 R D 6499 3723 M -172 0 R D 6499 4881 M -172 0 R D
6499 1757 M -86 0 R D 6499 1960 M -86 0 R D 6499 2105 M -86 0 R D
6499 2217 M -86 0 R D 6499 2309 M -86 0 R D 6499 2386 M -86 0 R D
6499 2454 M -86 0 R D 6499 2513 M -86 0 R D 6499 2914 M -86 0 R D
6499 3118 M -86 0 R D 6499 3263 M -86 0 R D 6499 3375 M -86 0 R D
6499 3467 M -86 0 R D 6499 3544 M -86 0 R D 6499 3611 M -86 0 R D
6499 3670 M -86 0 R D 6499 4072 M -86 0 R D 6499 4276 M -86 0 R D
6499 4420 M -86 0 R D 6499 4533 M -86 0 R D 6499 4624 M -86 0 R D
6499 4702 M -86 0 R D 6499 4769 M -86 0 R D 6499 4828 M -86 0 R D
6499 5230 M -86 0 R D 6499 5433 M -86 0 R D 6499 5578 M -86 0 R D
6499 5690 M -86 0 R D 6499 5782 M -86 0 R D 6499 5859 M -86 0 R D
6499 5927 M -86 0 R D 6499 5986 M -86 0 R D 1.000 0.000 0.706 setrgbcolor
2469 1757 M 504 629 R 504 599 R 503 530 R 504 564 R 504 567 R 503 476 R
504 420 R 503 337 R D 0.506 0.000 0.000 setrgbcolor 2973 1757 M 504 629 R
503 732 R 504 676 R 504 647 R 503 535 R 504 480 R 503 398 R D
0.000 0.549 0.000 setrgbcolor 3980 1960 M 504 1002 R 504 643 R 503 638 R
504 638 R 503 517 R D 0.000 0.514 1.000 setrgbcolor 4484 1757 M 504 552 R
503 792 R 504 642 R 503 652 R D 0.000 0.000 0.000 setrgbcolor
gsave 2464 5230 translate 0 0 M
(phi2) show grestore 6499 1408 M 4278 0 R D 8259 1408 M 0 183 R D
gsave 8259 880 translate 0 0 M -294.217 0 N
(0.1) show grestore 10777 1408 M 0 183 R D gsave 10777 880 translate 0 0 M
-294.217 0 N
(1.0) show grestore 6499 1408 M 0 92 R D 6942 1408 M 0 92 R D 7257 1408 M
0 92 R D 7501 1408 M 0 92 R D 7700 1408 M 0 92 R D 7869 1408 M 0 92 R D
8015 1408 M 0 92 R D 8144 1408 M 0 92 R D 9017 1408 M 0 92 R D 9460 1408 M
0 92 R D 9775 1408 M 0 92 R D 10019 1408 M 0 92 R D 10218 1408 M 0 92 R D
10387 1408 M 0 92 R D 10533 1408 M 0 92 R D 10662 1408 M 0 92 R D
6499 5986 M 4278 0 R D 8259 5986 M 0 -183 R D 10777 5986 M 0 -183 R D
6499 5986 M 0 -92 R D 6942 5986 M 0 -92 R D 7257 5986 M 0 -92 R D
7501 5986 M 0 -92 R D 7700 5986 M 0 -92 R D 7869 5986 M 0 -92 R D
8015 5986 M 0 -92 R D 8144 5986 M 0 -92 R D 9017 5986 M 0 -92 R D
9460 5986 M 0 -92 R D 9775 5986 M 0 -92 R D 10019 5986 M 0 -92 R D
10218 5986 M 0 -92 R D 10387 5986 M 0 -92 R D 10533 5986 M 0 -92 R D
10662 5986 M 0 -92 R D 6499 1408 M 0 4578 R D 6499 1408 M 171 0 R D
gsave 6388 1408 translate 0 0 M -117.687 0 N
( ) show grestore 6499 2566 M 171 0 R D gsave 6388 2425 translate 0 0 M
-117.687 0 N
( ) show grestore 6499 3723 M 171 0 R D gsave 6388 3583 translate 0 0 M
-117.687 0 N
( ) show grestore 6499 4881 M 171 0 R D gsave 6388 4740 translate 0 0 M
-117.687 0 N
( ) show grestore 6499 1757 M 85 0 R D 6499 1960 M 85 0 R D 6499 2105 M
85 0 R D 6499 2217 M 85 0 R D 6499 2309 M 85 0 R D 6499 2386 M 85 0 R D
6499 2454 M 85 0 R D 6499 2513 M 85 0 R D 6499 2914 M 85 0 R D 6499 3118 M
85 0 R D 6499 3263 M 85 0 R D 6499 3375 M 85 0 R D 6499 3467 M 85 0 R D
6499 3544 M 85 0 R D 6499 3611 M 85 0 R D 6499 3670 M 85 0 R D 6499 4072 M
85 0 R D 6499 4276 M 85 0 R D 6499 4420 M 85 0 R D 6499 4533 M 85 0 R D
6499 4624 M 85 0 R D 6499 4702 M 85 0 R D 6499 4769 M 85 0 R D 6499 4828 M
85 0 R D 6499 5230 M 85 0 R D 6499 5433 M 85 0 R D 6499 5578 M 85 0 R D
6499 5690 M 85 0 R D 6499 5782 M 85 0 R D 6499 5859 M 85 0 R D 6499 5927 M
85 0 R D 6499 5986 M 85 0 R D 10777 1408 M 0 4578 R D 10777 1408 M -171 0 R
D 10777 2566 M -171 0 R D 10777 3723 M -171 0 R D 10777 4881 M -171 0 R D
10777 1757 M -85 0 R D 10777 1960 M -85 0 R D 10777 2105 M -85 0 R D
10777 2217 M -85 0 R D 10777 2309 M -85 0 R D 10777 2386 M -85 0 R D
10777 2454 M -85 0 R D 10777 2513 M -85 0 R D 10777 2914 M -85 0 R D
10777 3118 M -85 0 R D 10777 3263 M -85 0 R D 10777 3375 M -85 0 R D
10777 3467 M -85 0 R D 10777 3544 M -85 0 R D 10777 3611 M -85 0 R D
10777 3670 M -85 0 R D 10777 4072 M -85 0 R D 10777 4276 M -85 0 R D
10777 4420 M -85 0 R D 10777 4533 M -85 0 R D 10777 4624 M -85 0 R D
10777 4702 M -85 0 R D 10777 4769 M -85 0 R D 10777 4828 M -85 0 R D
10777 5230 M -85 0 R D 10777 5433 M -85 0 R D 10777 5578 M -85 0 R D
10777 5690 M -85 0 R D 10777 5782 M -85 0 R D 10777 5859 M -85 0 R D
10777 5927 M -85 0 R D 10777 5986 M -85 0 R D 1.000 0.000 0.706 setrgbcolor
7251 1408 M 504 349 R 504 697 R 503 508 R 504 680 R 504 584 R 503 522 R
504 382 R D 0.506 0.000 0.000 setrgbcolor 7755 1408 M 504 697 R 503 630 R
504 740 R 504 568 R 503 572 R 504 447 R D 0.000 0.549 0.000 setrgbcolor
8762 1757 M 504 697 R 504 348 R 503 890 R 504 545 R D
0.000 0.000 0.000 setrgbcolor gsave 6743 5230 translate 0 0 M
(phi4) show grestore 1.000 0.000 0.706 setrgbcolor 13344 3697 M 86 0 R
85 0 R 86 0 R 85 0 R 86 0 R 86 0 R 85 0 R 86 0 R 85 0 R D
0.506 0.000 0.000 setrgbcolor 13344 3239 M 86 0 R 85 0 R 86 0 R 85 0 R
86 0 R 86 0 R 85 0 R 86 0 R 85 0 R D 0.000 0.549 0.000 setrgbcolor
13344 2781 M 86 0 R 85 0 R 86 0 R 85 0 R 86 0 R 86 0 R 85 0 R 86 0 R 85 0 R
D 0.000 0.514 1.000 setrgbcolor 13344 2324 M 86 0 R 85 0 R 86 0 R 85 0 R
86 0 R 86 0 R 85 0 R 86 0 R 85 0 R D 1.000 0.349 0.000 setrgbcolor
13344 1866 M 86 0 R 85 0 R 86 0 R 85 0 R 86 0 R 86 0 R 85 0 R 86 0 R 85 0 R
D 1.000 0.000 0.706 setrgbcolor gsave 14200 3504 translate 0 0 M
(a=1.000) show grestore 0.506 0.000 0.000 setrgbcolor
gsave 14200 3046 translate 0 0 M
(a=0.781) show grestore 0.000 0.549 0.000 setrgbcolor
gsave 14200 2588 translate 0 0 M
(a=0.547) show grestore 0.000 0.514 1.000 setrgbcolor
gsave 14200 2130 translate 0 0 M
(a=0.343) show grestore 1.000 0.349 0.000 setrgbcolor
gsave 14200 1673 translate 0 0 M
(a=0.193) show grestore
%%PageTrailer
end
%%PageResources: font Helvetica
%%Trailer
%%Pages: 1
%%DocumentNeededResources: font Helvetica
%%EOF
