%!PS-Adobe-3.0 EPSF-3.0
%%BoundingBox: 0 0 566 708
%%Title: Graphics produced by IDL
%%For: daxia@Lserver, /home/daxia/work/phoenix
%%Creator: IDL Version 7.0 (linux x86_64 m64)
%%CreationDate: Sat Apr  9 11:54:19 2011
%%DocumentData: Clean7bit
%%Requirements: color
%%LanguageLevel: 1
%%PageOrder: Ascend
%%Pages: (atend)
%%DocumentNeededResources: (atend)
%%EndComments
%%BeginProlog
%+ prolog.ps -- Prolog for IDL generated PostScript files
%+ Copyright (c) 1988-2007 ITT Visual Information Solutions. All Rights Reserved.
%v 5
/$IDL_DICT 40 dict def $IDL_DICT begin /bdef { bind def } bind def /C
{currentpoint newpath moveto} bdef /CP {currentpoint} bdef /D {currentpoint
stroke moveto} bdef /F {closepath fill} bdef /K { setgray } bdef /M {moveto}
bdef /N {rmoveto} bdef /P {lineto} bdef /R {rlineto} bdef /S {gsave show
grestore} bdef /X {currentpoint pop} bdef /Z {gsave currentpoint lineto 20
setlinewidth 1 setlinecap stroke grestore} bdef /L0 {[] 0 setdash} bdef /L1
{[40 100] 0 setdash} bdef /L2 {[200 200] 0 setdash} bdef /L3 {[200 100 50
100] 0 setdash} bdef /L4 {[300 100 50 100 50 100 50 100] 0 setdash} bdef /L5
{[400 200] 0 setdash} bdef /STDFONT { findfont exch scalefont setfont } bdef
/ISOFONT { findfont dup length dict begin { 1 index /FID ne {def} {pop pop}
ifelse } forall /Encoding ISOLatin1Encoding def currentdict end /idltmpfont
exch definefont exch scalefont setfont } bdef /ISOBULLET { gsave /Helvetica
findfont exch scalefont setfont (\267) show currentpoint grestore moveto}
bdef /MITERLIMIT { 2.5 setmiterlimit } bdef end
%%EndProlog
%%Page: 0 1
%%PageRequirements: color
%%PageResources: (atend)
%%PageOrientation: Portrait
%%PageBoundingBox: 0 0 566 708
%%BeginPageSetup
$IDL_DICT begin 0.0283465 dup scale MITERLIMIT
%%IncludeResource: font Helvetica
423.333 /Helvetica STDFONT
%%EndPageSetup
0.000 0.000 0.000 setrgbcolor gsave 10777 352 translate 0 0 M -1369.55 0 N
(V) show X -101.051 M
%%IncludeResource: font Helvetica
262.467 /Helvetica STDFONT
(max,sub) show X 0 M
%%IncludeResource: font Helvetica
423.333 /Helvetica STDFONT
(/V) show X -101.051 M
%%IncludeResource: font Helvetica
262.467 /Helvetica STDFONT
(max,host) show grestore
%%IncludeResource: font Helvetica
423.333 /Helvetica STDFONT gsave 888 12852 translate 0 0 M 90 rotate
-1786.96 0 N
(N\(>V) show X -101.051 M
%%IncludeResource: font Helvetica
262.467 /Helvetica STDFONT
(max,sub) show X 0 M
%%IncludeResource: font Helvetica
423.333 /Helvetica STDFONT
(/V) show X -101.051 M
%%IncludeResource: font Helvetica
262.467 /Helvetica STDFONT
(max,host) show X 0 M
%%IncludeResource: font Helvetica
423.333 /Helvetica STDFONT
(\)) show grestore 40 setlinewidth L0 2220 19719 M 4279 0 R D 2714 19719 M
0 183 R D gsave 2714 19191 translate 0 0 M -58.8433 0 N
( ) show grestore 4942 19719 M 0 183 R D gsave 4942 19191 translate 0 0 M
-58.8433 0 N
( ) show grestore 2220 19719 M 0 91 R D 2369 19719 M 0 91 R D 2498 19719 M
0 91 R D 2612 19719 M 0 91 R D 3385 19719 M 0 91 R D 3777 19719 M 0 91 R D
4055 19719 M 0 91 R D 4271 19719 M 0 91 R D 4448 19719 M 0 91 R D
4597 19719 M 0 91 R D 4726 19719 M 0 91 R D 4840 19719 M 0 91 R D
5612 19719 M 0 91 R D 6004 19719 M 0 91 R D 6283 19719 M 0 91 R D
6499 19719 M 0 91 R D 2220 24296 M 4279 0 R D 2714 24296 M 0 -183 R D
4942 24296 M 0 -183 R D 2220 24296 M 0 -91 R D 2369 24296 M 0 -91 R D
2498 24296 M 0 -91 R D 2612 24296 M 0 -91 R D 3385 24296 M 0 -91 R D
3777 24296 M 0 -91 R D 4055 24296 M 0 -91 R D 4271 24296 M 0 -91 R D
4448 24296 M 0 -91 R D 4597 24296 M 0 -91 R D 4726 24296 M 0 -91 R D
4840 24296 M 0 -91 R D 5612 24296 M 0 -91 R D 6004 24296 M 0 -91 R D
6283 24296 M 0 -91 R D 6499 24296 M 0 -91 R D 2220 19719 M 0 4577 R D
2220 20660 M 171 0 R D gsave 2109 20519 translate 0 0 M -470.747 0 N
(10) show grestore 2220 22007 M 171 0 R D gsave 2109 21867 translate 0 0 M
-706.12 0 N
(100) show grestore 2220 23354 M 171 0 R D gsave 2109 23214 translate 0 0 M
-941.493 0 N
(1000) show grestore 2220 19719 M 86 0 R D 2220 19956 M 86 0 R D
2220 20124 M 86 0 R D 2220 20255 M 86 0 R D 2220 20361 M 86 0 R D
2220 20451 M 86 0 R D 2220 20530 M 86 0 R D 2220 20599 M 86 0 R D
2220 21066 M 86 0 R D 2220 21303 M 86 0 R D 2220 21471 M 86 0 R D
2220 21602 M 86 0 R D 2220 21708 M 86 0 R D 2220 21799 M 86 0 R D
2220 21877 M 86 0 R D 2220 21946 M 86 0 R D 2220 22413 M 86 0 R D
2220 22650 M 86 0 R D 2220 22818 M 86 0 R D 2220 22949 M 86 0 R D
2220 23056 M 86 0 R D 2220 23146 M 86 0 R D 2220 23224 M 86 0 R D
2220 23293 M 86 0 R D 2220 23760 M 86 0 R D 2220 23997 M 86 0 R D
2220 24166 M 86 0 R D 2220 24296 M 86 0 R D 6499 19719 M 0 4577 R D
6499 20660 M -172 0 R D 6499 22007 M -172 0 R D 6499 23354 M -172 0 R D
6499 19719 M -86 0 R D 6499 19956 M -86 0 R D 6499 20124 M -86 0 R D
6499 20255 M -86 0 R D 6499 20361 M -86 0 R D 6499 20451 M -86 0 R D
6499 20530 M -86 0 R D 6499 20599 M -86 0 R D 6499 21066 M -86 0 R D
6499 21303 M -86 0 R D 6499 21471 M -86 0 R D 6499 21602 M -86 0 R D
6499 21708 M -86 0 R D 6499 21799 M -86 0 R D 6499 21877 M -86 0 R D
6499 21946 M -86 0 R D 6499 22413 M -86 0 R D 6499 22650 M -86 0 R D
6499 22818 M -86 0 R D 6499 22949 M -86 0 R D 6499 23056 M -86 0 R D
6499 23146 M -86 0 R D 6499 23224 M -86 0 R D 6499 23293 M -86 0 R D
6499 23760 M -86 0 R D 6499 23997 M -86 0 R D 6499 24166 M -86 0 R D
6499 24296 M -86 0 R D 1.000 0.000 0.706 setrgbcolor 3388 24296 M 83 -146 R
379 -739 R 378 -736 R 378 -806 R 379 -865 R 378 -643 R 232 -643 R D
0.506 0.000 0.000 setrgbcolor 3323 24296 M 148 -254 R 379 -717 R 378 -711 R
378 -767 R 379 -1033 R 378 -858 R 140 -238 R D 0.000 0.549 0.000 setrgbcolor
3232 24296 M 239 -376 R 379 -661 R 378 -653 R 378 -722 R 379 -737 R
378 -1428 R 0 -1 R D 0.000 0.514 1.000 setrgbcolor 2714 23091 M 379 -11 R
378 -203 R 379 -453 R 378 -570 R 378 -733 R 379 -760 R 231 -643 R D
1.000 0.349 0.000 setrgbcolor 2714 21196 M 379 0 R 378 0 R 379 -102 R
378 -564 R 378 -406 R 379 -405 R D 0.000 0.000 0.000 setrgbcolor
gsave 5334 23293 translate 0 0 M
(pha2) show grestore 6499 19719 M 4278 0 R D 6993 19719 M 0 183 R D
gsave 6993 19191 translate 0 0 M -58.8433 0 N
( ) show grestore 9220 19719 M 0 183 R D gsave 9220 19191 translate 0 0 M
-58.8433 0 N
( ) show grestore 6499 19719 M 0 91 R D 6648 19719 M 0 91 R D 6777 19719 M
0 91 R D 6891 19719 M 0 91 R D 7663 19719 M 0 91 R D 8056 19719 M 0 91 R D
8334 19719 M 0 91 R D 8550 19719 M 0 91 R D 8726 19719 M 0 91 R D
8875 19719 M 0 91 R D 9004 19719 M 0 91 R D 9118 19719 M 0 91 R D
9891 19719 M 0 91 R D 10283 19719 M 0 91 R D 10561 19719 M 0 91 R D
10777 19719 M 0 91 R D 6499 24296 M 4278 0 R D 6993 24296 M 0 -183 R D
9220 24296 M 0 -183 R D 6499 24296 M 0 -91 R D 6648 24296 M 0 -91 R D
6777 24296 M 0 -91 R D 6891 24296 M 0 -91 R D 7663 24296 M 0 -91 R D
8056 24296 M 0 -91 R D 8334 24296 M 0 -91 R D 8550 24296 M 0 -91 R D
8726 24296 M 0 -91 R D 8875 24296 M 0 -91 R D 9004 24296 M 0 -91 R D
9118 24296 M 0 -91 R D 9891 24296 M 0 -91 R D 10283 24296 M 0 -91 R D
10561 24296 M 0 -91 R D 10777 24296 M 0 -91 R D 6499 19719 M 0 4577 R D
6499 20660 M 171 0 R D gsave 6388 20519 translate 0 0 M -117.687 0 N
( ) show grestore 6499 22007 M 171 0 R D gsave 6388 21867 translate 0 0 M
-117.687 0 N
( ) show grestore 6499 23354 M 171 0 R D gsave 6388 23214 translate 0 0 M
-117.687 0 N
( ) show grestore 6499 19719 M 85 0 R D 6499 19956 M 85 0 R D 6499 20124 M
85 0 R D 6499 20255 M 85 0 R D 6499 20361 M 85 0 R D 6499 20451 M 85 0 R D
6499 20530 M 85 0 R D 6499 20599 M 85 0 R D 6499 21066 M 85 0 R D
6499 21303 M 85 0 R D 6499 21471 M 85 0 R D 6499 21602 M 85 0 R D
6499 21708 M 85 0 R D 6499 21799 M 85 0 R D 6499 21877 M 85 0 R D
6499 21946 M 85 0 R D 6499 22413 M 85 0 R D 6499 22650 M 85 0 R D
6499 22818 M 85 0 R D 6499 22949 M 85 0 R D 6499 23056 M 85 0 R D
6499 23146 M 85 0 R D 6499 23224 M 85 0 R D 6499 23293 M 85 0 R D
6499 23760 M 85 0 R D 6499 23997 M 85 0 R D 6499 24166 M 85 0 R D
6499 24296 M 85 0 R D 10777 19719 M 0 4577 R D 10777 20660 M -171 0 R D
10777 22007 M -171 0 R D 10777 23354 M -171 0 R D 10777 19719 M -85 0 R D
10777 19956 M -85 0 R D 10777 20124 M -85 0 R D 10777 20255 M -85 0 R D
10777 20361 M -85 0 R D 10777 20451 M -85 0 R D 10777 20530 M -85 0 R D
10777 20599 M -85 0 R D 10777 21066 M -85 0 R D 10777 21303 M -85 0 R D
10777 21471 M -85 0 R D 10777 21602 M -85 0 R D 10777 21708 M -85 0 R D
10777 21799 M -85 0 R D 10777 21877 M -85 0 R D 10777 21946 M -85 0 R D
10777 22413 M -85 0 R D 10777 22650 M -85 0 R D 10777 22818 M -85 0 R D
10777 22949 M -85 0 R D 10777 23056 M -85 0 R D 10777 23146 M -85 0 R D
10777 23224 M -85 0 R D 10777 23293 M -85 0 R D 10777 23760 M -85 0 R D
10777 23997 M -85 0 R D 10777 24166 M -85 0 R D 10777 24296 M -85 0 R D
1.000 0.000 0.706 setrgbcolor 6993 23382 M 378 -2 R 379 -81 R 378 -428 R
378 -526 R 379 -656 R 378 -832 R 379 -733 R 189 -406 R D
0.506 0.000 0.000 setrgbcolor 6993 23195 M 378 -1 R 379 -57 R 378 -327 R
378 -496 R 379 -701 R 378 -846 R 379 -643 R 189 -406 R D
0.000 0.549 0.000 setrgbcolor 6993 23068 M 378 0 R 379 -12 R 378 -216 R
378 -460 R 379 -681 R 378 -764 R 284 -1217 R D 0.000 0.514 1.000 setrgbcolor
6993 21196 M 378 0 R 379 0 R 378 0 R 378 -75 R 379 -591 R 378 -275 R
379 -536 R D 0.000 0.000 0.000 setrgbcolor gsave 9612 23293 translate 0 0 M
(pha4) show grestore 10777 19719 M 4279 0 R D 11271 19719 M 0 183 R D
gsave 11271 19191 translate 0 0 M -58.8433 0 N
( ) show grestore 13499 19719 M 0 183 R D gsave 13499 19191 translate 0 0 M
-58.8433 0 N
( ) show grestore 10777 19719 M 0 91 R D 10926 19719 M 0 91 R D
11055 19719 M 0 91 R D 11169 19719 M 0 91 R D 11942 19719 M 0 91 R D
12334 19719 M 0 91 R D 12612 19719 M 0 91 R D 12828 19719 M 0 91 R D
13005 19719 M 0 91 R D 13154 19719 M 0 91 R D 13283 19719 M 0 91 R D
13397 19719 M 0 91 R D 14169 19719 M 0 91 R D 14561 19719 M 0 91 R D
14840 19719 M 0 91 R D 15056 19719 M 0 91 R D 10777 24296 M 4279 0 R D
11271 24296 M 0 -183 R D 13499 24296 M 0 -183 R D 10777 24296 M 0 -91 R D
10926 24296 M 0 -91 R D 11055 24296 M 0 -91 R D 11169 24296 M 0 -91 R D
11942 24296 M 0 -91 R D 12334 24296 M 0 -91 R D 12612 24296 M 0 -91 R D
12828 24296 M 0 -91 R D 13005 24296 M 0 -91 R D 13154 24296 M 0 -91 R D
13283 24296 M 0 -91 R D 13397 24296 M 0 -91 R D 14169 24296 M 0 -91 R D
14561 24296 M 0 -91 R D 14840 24296 M 0 -91 R D 15056 24296 M 0 -91 R D
10777 19719 M 0 4577 R D 10777 20660 M 171 0 R D
gsave 10666 20519 translate 0 0 M -117.687 0 N
( ) show grestore 10777 22007 M 171 0 R D gsave 10666 21867 translate 0 0 M
-117.687 0 N
( ) show grestore 10777 23354 M 171 0 R D gsave 10666 23214 translate 0 0 M
-117.687 0 N
( ) show grestore 10777 19719 M 86 0 R D 10777 19956 M 86 0 R D
10777 20124 M 86 0 R D 10777 20255 M 86 0 R D 10777 20361 M 86 0 R D
10777 20451 M 86 0 R D 10777 20530 M 86 0 R D 10777 20599 M 86 0 R D
10777 21066 M 86 0 R D 10777 21303 M 86 0 R D 10777 21471 M 86 0 R D
10777 21602 M 86 0 R D 10777 21708 M 86 0 R D 10777 21799 M 86 0 R D
10777 21877 M 86 0 R D 10777 21946 M 86 0 R D 10777 22413 M 86 0 R D
10777 22650 M 86 0 R D 10777 22818 M 86 0 R D 10777 22949 M 86 0 R D
10777 23056 M 86 0 R D 10777 23146 M 86 0 R D 10777 23224 M 86 0 R D
10777 23293 M 86 0 R D 10777 23760 M 86 0 R D 10777 23997 M 86 0 R D
10777 24166 M 86 0 R D 10777 24296 M 86 0 R D 15056 19719 M 0 4577 R D
15056 20660 M -172 0 R D 15056 22007 M -172 0 R D 15056 23354 M -172 0 R D
15056 19719 M -86 0 R D 15056 19956 M -86 0 R D 15056 20124 M -86 0 R D
15056 20255 M -86 0 R D 15056 20361 M -86 0 R D 15056 20451 M -86 0 R D
15056 20530 M -86 0 R D 15056 20599 M -86 0 R D 15056 21066 M -86 0 R D
15056 21303 M -86 0 R D 15056 21471 M -86 0 R D 15056 21602 M -86 0 R D
15056 21708 M -86 0 R D 15056 21799 M -86 0 R D 15056 21877 M -86 0 R D
15056 21946 M -86 0 R D 15056 22413 M -86 0 R D 15056 22650 M -86 0 R D
15056 22818 M -86 0 R D 15056 22949 M -86 0 R D 15056 23056 M -86 0 R D
15056 23146 M -86 0 R D 15056 23224 M -86 0 R D 15056 23293 M -86 0 R D
15056 23760 M -86 0 R D 15056 23997 M -86 0 R D 15056 24166 M -86 0 R D
15056 24296 M -86 0 R D 1.000 0.000 0.706 setrgbcolor 12038 24296 M
369 -716 R 378 -747 R 378 -781 R 379 -833 R 378 -858 R 379 -405 R 139 -238 R
D 0.000 0.549 0.000 setrgbcolor 11271 24154 M 379 -115 R 378 -394 R
379 -629 R 378 -745 R 378 -705 R 379 -500 R 378 -1347 R D
0.000 0.514 1.000 setrgbcolor 11271 23197 M 379 -21 R 378 -220 R 379 -564 R
378 -684 R 378 -614 R 379 -970 R 378 -168 R D 0.000 0.000 0.000 setrgbcolor
gsave 13891 23293 translate 0 0 M
(phb2) show grestore 15056 19719 M 4278 0 R D 15550 19719 M 0 183 R D
gsave 15550 19191 translate 0 0 M -58.8433 0 N
( ) show grestore 17777 19719 M 0 183 R D gsave 17777 19191 translate 0 0 M
-58.8433 0 N
( ) show grestore 15056 19719 M 0 91 R D 15205 19719 M 0 91 R D
15334 19719 M 0 91 R D 15448 19719 M 0 91 R D 16220 19719 M 0 91 R D
16613 19719 M 0 91 R D 16891 19719 M 0 91 R D 17107 19719 M 0 91 R D
17283 19719 M 0 91 R D 17432 19719 M 0 91 R D 17561 19719 M 0 91 R D
17675 19719 M 0 91 R D 18448 19719 M 0 91 R D 18840 19719 M 0 91 R D
19118 19719 M 0 91 R D 19334 19719 M 0 91 R D 15056 24296 M 4278 0 R D
15550 24296 M 0 -183 R D 17777 24296 M 0 -183 R D 15056 24296 M 0 -91 R D
15205 24296 M 0 -91 R D 15334 24296 M 0 -91 R D 15448 24296 M 0 -91 R D
16220 24296 M 0 -91 R D 16613 24296 M 0 -91 R D 16891 24296 M 0 -91 R D
17107 24296 M 0 -91 R D 17283 24296 M 0 -91 R D 17432 24296 M 0 -91 R D
17561 24296 M 0 -91 R D 17675 24296 M 0 -91 R D 18448 24296 M 0 -91 R D
18840 24296 M 0 -91 R D 19118 24296 M 0 -91 R D 19334 24296 M 0 -91 R D
15056 19719 M 0 4577 R D 15056 20660 M 171 0 R D
gsave 14945 20519 translate 0 0 M -117.687 0 N
( ) show grestore 15056 22007 M 171 0 R D gsave 14945 21867 translate 0 0 M
-117.687 0 N
( ) show grestore 15056 23354 M 171 0 R D gsave 14945 23214 translate 0 0 M
-117.687 0 N
( ) show grestore 15056 19719 M 85 0 R D 15056 19956 M 85 0 R D
15056 20124 M 85 0 R D 15056 20255 M 85 0 R D 15056 20361 M 85 0 R D
15056 20451 M 85 0 R D 15056 20530 M 85 0 R D 15056 20599 M 85 0 R D
15056 21066 M 85 0 R D 15056 21303 M 85 0 R D 15056 21471 M 85 0 R D
15056 21602 M 85 0 R D 15056 21708 M 85 0 R D 15056 21799 M 85 0 R D
15056 21877 M 85 0 R D 15056 21946 M 85 0 R D 15056 22413 M 85 0 R D
15056 22650 M 85 0 R D 15056 22818 M 85 0 R D 15056 22949 M 85 0 R D
15056 23056 M 85 0 R D 15056 23146 M 85 0 R D 15056 23224 M 85 0 R D
15056 23293 M 85 0 R D 15056 23760 M 85 0 R D 15056 23997 M 85 0 R D
15056 24166 M 85 0 R D 15056 24296 M 85 0 R D 19334 19719 M 0 4577 R D
19334 20660 M -171 0 R D 19334 22007 M -171 0 R D 19334 23354 M -171 0 R D
19334 19719 M -85 0 R D 19334 19956 M -85 0 R D 19334 20124 M -85 0 R D
19334 20255 M -85 0 R D 19334 20361 M -85 0 R D 19334 20451 M -85 0 R D
19334 20530 M -85 0 R D 19334 20599 M -85 0 R D 19334 21066 M -85 0 R D
19334 21303 M -85 0 R D 19334 21471 M -85 0 R D 19334 21602 M -85 0 R D
19334 21708 M -85 0 R D 19334 21799 M -85 0 R D 19334 21877 M -85 0 R D
19334 21946 M -85 0 R D 19334 22413 M -85 0 R D 19334 22650 M -85 0 R D
19334 22818 M -85 0 R D 19334 22949 M -85 0 R D 19334 23056 M -85 0 R D
19334 23146 M -85 0 R D 19334 23224 M -85 0 R D 19334 23293 M -85 0 R D
19334 23760 M -85 0 R D 19334 23997 M -85 0 R D 19334 24166 M -85 0 R D
19334 24296 M -85 0 R D 1.000 0.000 0.706 setrgbcolor 15550 23650 M 378 -2 R
379 -88 R 378 -399 R 378 -590 R 379 -652 R 378 -853 R 379 -705 R 378 -405 R
140 -238 R D 0.506 0.000 0.000 setrgbcolor 15550 22606 M 378 0 R 379 0 R
378 -51 R 378 -338 R 379 -539 R 378 -743 R 379 -680 R 215 -537 R D
0.000 0.549 0.000 setrgbcolor 15550 22297 M 378 0 R 379 0 R 378 -15 R
378 -263 R 379 -361 R 378 -439 R 379 -768 R 378 -732 R D
0.000 0.000 0.000 setrgbcolor gsave 18169 23293 translate 0 0 M
(phb4) show grestore 2220 15141 M 4279 0 R D 2714 15141 M 0 183 R D
gsave 2714 14613 translate 0 0 M -58.8433 0 N
( ) show grestore 4942 15141 M 0 183 R D gsave 4942 14613 translate 0 0 M
-58.8433 0 N
( ) show grestore 2220 15141 M 0 91 R D 2369 15141 M 0 91 R D 2498 15141 M
0 91 R D 2612 15141 M 0 91 R D 3385 15141 M 0 91 R D 3777 15141 M 0 91 R D
4055 15141 M 0 91 R D 4271 15141 M 0 91 R D 4448 15141 M 0 91 R D
4597 15141 M 0 91 R D 4726 15141 M 0 91 R D 4840 15141 M 0 91 R D
5612 15141 M 0 91 R D 6004 15141 M 0 91 R D 6283 15141 M 0 91 R D
6499 15141 M 0 91 R D 2220 19719 M 4279 0 R D 2714 19719 M 0 -184 R D
4942 19719 M 0 -184 R D 2220 19719 M 0 -92 R D 2369 19719 M 0 -92 R D
2498 19719 M 0 -92 R D 2612 19719 M 0 -92 R D 3385 19719 M 0 -92 R D
3777 19719 M 0 -92 R D 4055 19719 M 0 -92 R D 4271 19719 M 0 -92 R D
4448 19719 M 0 -92 R D 4597 19719 M 0 -92 R D 4726 19719 M 0 -92 R D
4840 19719 M 0 -92 R D 5612 19719 M 0 -92 R D 6004 19719 M 0 -92 R D
6283 19719 M 0 -92 R D 6499 19719 M 0 -92 R D 2220 15141 M 0 4578 R D
2220 16083 M 171 0 R D gsave 2109 15942 translate 0 0 M -470.747 0 N
(10) show grestore 2220 17430 M 171 0 R D gsave 2109 17289 translate 0 0 M
-706.12 0 N
(100) show grestore 2220 18777 M 171 0 R D gsave 2109 18636 translate 0 0 M
-941.493 0 N
(1000) show grestore 2220 15141 M 86 0 R D 2220 15378 M 86 0 R D
2220 15546 M 86 0 R D 2220 15677 M 86 0 R D 2220 15784 M 86 0 R D
2220 15874 M 86 0 R D 2220 15952 M 86 0 R D 2220 16021 M 86 0 R D
2220 16488 M 86 0 R D 2220 16725 M 86 0 R D 2220 16894 M 86 0 R D
2220 17024 M 86 0 R D 2220 17131 M 86 0 R D 2220 17221 M 86 0 R D
2220 17299 M 86 0 R D 2220 17368 M 86 0 R D 2220 17835 M 86 0 R D
2220 18072 M 86 0 R D 2220 18241 M 86 0 R D 2220 18371 M 86 0 R D
2220 18478 M 86 0 R D 2220 18568 M 86 0 R D 2220 18646 M 86 0 R D
2220 18715 M 86 0 R D 2220 19182 M 86 0 R D 2220 19420 M 86 0 R D
2220 19588 M 86 0 R D 2220 19719 M 86 0 R D 6499 15141 M 0 4578 R D
6499 16083 M -172 0 R D 6499 17430 M -172 0 R D 6499 18777 M -172 0 R D
6499 15141 M -86 0 R D 6499 15378 M -86 0 R D 6499 15546 M -86 0 R D
6499 15677 M -86 0 R D 6499 15784 M -86 0 R D 6499 15874 M -86 0 R D
6499 15952 M -86 0 R D 6499 16021 M -86 0 R D 6499 16488 M -86 0 R D
6499 16725 M -86 0 R D 6499 16894 M -86 0 R D 6499 17024 M -86 0 R D
6499 17131 M -86 0 R D 6499 17221 M -86 0 R D 6499 17299 M -86 0 R D
6499 17368 M -86 0 R D 6499 17835 M -86 0 R D 6499 18072 M -86 0 R D
6499 18241 M -86 0 R D 6499 18371 M -86 0 R D 6499 18478 M -86 0 R D
6499 18568 M -86 0 R D 6499 18646 M -86 0 R D 6499 18715 M -86 0 R D
6499 19182 M -86 0 R D 6499 19420 M -86 0 R D 6499 19588 M -86 0 R D
6499 19719 M -86 0 R D 1.000 0.000 0.706 setrgbcolor 3549 19718 M 301 -576 R
378 -757 R 378 -815 R 379 -885 R 378 -664 R 379 -344 R 215 -537 R D
0.506 0.000 0.000 setrgbcolor 3260 19718 M 211 -291 R 379 -720 R 378 -758 R
378 -869 R 379 -942 R 268 -998 R D 0.000 0.549 0.000 setrgbcolor
2714 19369 M 379 -75 R 378 -314 R 379 -624 R 378 -721 R 378 -727 R
379 -588 R 378 -774 R 379 -405 R D 0.000 0.514 1.000 setrgbcolor
2714 18967 M 379 -19 R 378 -263 R 379 -544 R 378 -595 R 378 -783 R
379 -484 R 378 -602 R 379 -536 R D 0.000 0.000 0.000 setrgbcolor
gsave 5334 18715 translate 0 0 M
(phc2) show grestore 6499 15141 M 4278 0 R D 6993 15141 M 0 183 R D
gsave 6993 14613 translate 0 0 M -58.8433 0 N
( ) show grestore 9220 15141 M 0 183 R D gsave 9220 14613 translate 0 0 M
-58.8433 0 N
( ) show grestore 6499 15141 M 0 91 R D 6648 15141 M 0 91 R D 6777 15141 M
0 91 R D 6891 15141 M 0 91 R D 7663 15141 M 0 91 R D 8056 15141 M 0 91 R D
8334 15141 M 0 91 R D 8550 15141 M 0 91 R D 8726 15141 M 0 91 R D
8875 15141 M 0 91 R D 9004 15141 M 0 91 R D 9118 15141 M 0 91 R D
9891 15141 M 0 91 R D 10283 15141 M 0 91 R D 10561 15141 M 0 91 R D
10777 15141 M 0 91 R D 6499 19719 M 4278 0 R D 6993 19719 M 0 -184 R D
9220 19719 M 0 -184 R D 6499 19719 M 0 -92 R D 6648 19719 M 0 -92 R D
6777 19719 M 0 -92 R D 6891 19719 M 0 -92 R D 7663 19719 M 0 -92 R D
8056 19719 M 0 -92 R D 8334 19719 M 0 -92 R D 8550 19719 M 0 -92 R D
8726 19719 M 0 -92 R D 8875 19719 M 0 -92 R D 9004 19719 M 0 -92 R D
9118 19719 M 0 -92 R D 9891 19719 M 0 -92 R D 10283 19719 M 0 -92 R D
10561 19719 M 0 -92 R D 10777 19719 M 0 -92 R D 6499 15141 M 0 4578 R D
6499 16083 M 171 0 R D gsave 6388 15942 translate 0 0 M -117.687 0 N
( ) show grestore 6499 17430 M 171 0 R D gsave 6388 17289 translate 0 0 M
-117.687 0 N
( ) show grestore 6499 18777 M 171 0 R D gsave 6388 18636 translate 0 0 M
-117.687 0 N
( ) show grestore 6499 15141 M 85 0 R D 6499 15378 M 85 0 R D 6499 15546 M
85 0 R D 6499 15677 M 85 0 R D 6499 15784 M 85 0 R D 6499 15874 M 85 0 R D
6499 15952 M 85 0 R D 6499 16021 M 85 0 R D 6499 16488 M 85 0 R D
6499 16725 M 85 0 R D 6499 16894 M 85 0 R D 6499 17024 M 85 0 R D
6499 17131 M 85 0 R D 6499 17221 M 85 0 R D 6499 17299 M 85 0 R D
6499 17368 M 85 0 R D 6499 17835 M 85 0 R D 6499 18072 M 85 0 R D
6499 18241 M 85 0 R D 6499 18371 M 85 0 R D 6499 18478 M 85 0 R D
6499 18568 M 85 0 R D 6499 18646 M 85 0 R D 6499 18715 M 85 0 R D
6499 19182 M 85 0 R D 6499 19420 M 85 0 R D 6499 19588 M 85 0 R D
6499 19719 M 85 0 R D 10777 15141 M 0 4578 R D 10777 16083 M -171 0 R D
10777 17430 M -171 0 R D 10777 18777 M -171 0 R D 10777 15141 M -85 0 R D
10777 15378 M -85 0 R D 10777 15546 M -85 0 R D 10777 15677 M -85 0 R D
10777 15784 M -85 0 R D 10777 15874 M -85 0 R D 10777 15952 M -85 0 R D
10777 16021 M -85 0 R D 10777 16488 M -85 0 R D 10777 16725 M -85 0 R D
10777 16894 M -85 0 R D 10777 17024 M -85 0 R D 10777 17131 M -85 0 R D
10777 17221 M -85 0 R D 10777 17299 M -85 0 R D 10777 17368 M -85 0 R D
10777 17835 M -85 0 R D 10777 18072 M -85 0 R D 10777 18241 M -85 0 R D
10777 18371 M -85 0 R D 10777 18478 M -85 0 R D 10777 18568 M -85 0 R D
10777 18646 M -85 0 R D 10777 18715 M -85 0 R D 10777 19182 M -85 0 R D
10777 19420 M -85 0 R D 10777 19588 M -85 0 R D 10777 19719 M -85 0 R D
1.000 0.000 0.706 setrgbcolor 6993 19010 M 378 -1 R 379 -46 R 378 -334 R
378 -568 R 379 -655 R 378 -787 R 379 -598 R 378 -344 R 379 -536 R D
0.506 0.000 0.000 setrgbcolor 6993 18287 M 378 0 R 379 -11 R 378 -215 R
378 -576 R 379 -780 R 378 -469 R 276 -1096 R D 0.000 0.549 0.000 setrgbcolor
6993 17447 M 378 0 R 379 0 R 378 -23 R 378 -303 R 379 -396 R 378 -704 R
379 -643 R D 0.000 0.514 1.000 setrgbcolor 6993 17000 M 378 0 R 379 0 R
378 0 R 378 -121 R 379 -421 R 378 -674 R 379 -643 R 0 -1 R D
0.000 0.000 0.000 setrgbcolor gsave 9612 18715 translate 0 0 M
(phc4) show grestore 10777 15141 M 4279 0 R D 11271 15141 M 0 183 R D
gsave 11271 14613 translate 0 0 M -58.8433 0 N
( ) show grestore 13499 15141 M 0 183 R D gsave 13499 14613 translate 0 0 M
-58.8433 0 N
( ) show grestore 10777 15141 M 0 91 R D 10926 15141 M 0 91 R D
11055 15141 M 0 91 R D 11169 15141 M 0 91 R D 11942 15141 M 0 91 R D
12334 15141 M 0 91 R D 12612 15141 M 0 91 R D 12828 15141 M 0 91 R D
13005 15141 M 0 91 R D 13154 15141 M 0 91 R D 13283 15141 M 0 91 R D
13397 15141 M 0 91 R D 14169 15141 M 0 91 R D 14561 15141 M 0 91 R D
14840 15141 M 0 91 R D 15056 15141 M 0 91 R D 10777 19719 M 4279 0 R D
11271 19719 M 0 -184 R D 13499 19719 M 0 -184 R D 10777 19719 M 0 -92 R D
10926 19719 M 0 -92 R D 11055 19719 M 0 -92 R D 11169 19719 M 0 -92 R D
11942 19719 M 0 -92 R D 12334 19719 M 0 -92 R D 12612 19719 M 0 -92 R D
12828 19719 M 0 -92 R D 13005 19719 M 0 -92 R D 13154 19719 M 0 -92 R D
13283 19719 M 0 -92 R D 13397 19719 M 0 -92 R D 14169 19719 M 0 -92 R D
14561 19719 M 0 -92 R D 14840 19719 M 0 -92 R D 15056 19719 M 0 -92 R D
10777 15141 M 0 4578 R D 10777 16083 M 171 0 R D
gsave 10666 15942 translate 0 0 M -117.687 0 N
( ) show grestore 10777 17430 M 171 0 R D gsave 10666 17289 translate 0 0 M
-117.687 0 N
( ) show grestore 10777 18777 M 171 0 R D gsave 10666 18636 translate 0 0 M
-117.687 0 N
( ) show grestore 10777 15141 M 86 0 R D 10777 15378 M 86 0 R D
10777 15546 M 86 0 R D 10777 15677 M 86 0 R D 10777 15784 M 86 0 R D
10777 15874 M 86 0 R D 10777 15952 M 86 0 R D 10777 16021 M 86 0 R D
10777 16488 M 86 0 R D 10777 16725 M 86 0 R D 10777 16894 M 86 0 R D
10777 17024 M 86 0 R D 10777 17131 M 86 0 R D 10777 17221 M 86 0 R D
10777 17299 M 86 0 R D 10777 17368 M 86 0 R D 10777 17835 M 86 0 R D
10777 18072 M 86 0 R D 10777 18241 M 86 0 R D 10777 18371 M 86 0 R D
10777 18478 M 86 0 R D 10777 18568 M 86 0 R D 10777 18646 M 86 0 R D
10777 18715 M 86 0 R D 10777 19182 M 86 0 R D 10777 19420 M 86 0 R D
10777 19588 M 86 0 R D 10777 19719 M 86 0 R D 15056 15141 M 0 4578 R D
15056 16083 M -172 0 R D 15056 17430 M -172 0 R D 15056 18777 M -172 0 R D
15056 15141 M -86 0 R D 15056 15378 M -86 0 R D 15056 15546 M -86 0 R D
15056 15677 M -86 0 R D 15056 15784 M -86 0 R D 15056 15874 M -86 0 R D
15056 15952 M -86 0 R D 15056 16021 M -86 0 R D 15056 16488 M -86 0 R D
15056 16725 M -86 0 R D 15056 16894 M -86 0 R D 15056 17024 M -86 0 R D
15056 17131 M -86 0 R D 15056 17221 M -86 0 R D 15056 17299 M -86 0 R D
15056 17368 M -86 0 R D 15056 17835 M -86 0 R D 15056 18072 M -86 0 R D
15056 18241 M -86 0 R D 15056 18371 M -86 0 R D 15056 18478 M -86 0 R D
15056 18568 M -86 0 R D 15056 18646 M -86 0 R D 15056 18715 M -86 0 R D
15056 19182 M -86 0 R D 15056 19420 M -86 0 R D 15056 19588 M -86 0 R D
15056 19719 M -86 0 R D 1.000 0.000 0.706 setrgbcolor 12092 19718 M
315 -586 R 378 -724 R 378 -745 R 379 -882 R 378 -545 R 379 -690 R 378 -405 R
D 0.506 0.000 0.000 setrgbcolor 12019 19718 M 9 -14 R 379 -682 R 378 -706 R
378 -673 R 379 -898 R 378 -556 R 379 -643 R 189 -406 R D
0.000 0.549 0.000 setrgbcolor 11746 19718 M 282 -331 R 379 -644 R 378 -692 R
378 -670 R 379 -636 R 378 -961 R 379 -643 R 0 -1 R D
0.000 0.514 1.000 setrgbcolor 11271 17754 M 379 0 R 378 -17 R 379 -236 R
378 -454 R 378 -530 R 379 -840 R D 0.000 0.000 0.000 setrgbcolor
gsave 13891 18715 translate 0 0 M
(phd2) show grestore 15056 15141 M 4278 0 R D 15550 15141 M 0 183 R D
gsave 15550 14613 translate 0 0 M -58.8433 0 N
( ) show grestore 17777 15141 M 0 183 R D gsave 17777 14613 translate 0 0 M
-58.8433 0 N
( ) show grestore 15056 15141 M 0 91 R D 15205 15141 M 0 91 R D
15334 15141 M 0 91 R D 15448 15141 M 0 91 R D 16220 15141 M 0 91 R D
16613 15141 M 0 91 R D 16891 15141 M 0 91 R D 17107 15141 M 0 91 R D
17283 15141 M 0 91 R D 17432 15141 M 0 91 R D 17561 15141 M 0 91 R D
17675 15141 M 0 91 R D 18448 15141 M 0 91 R D 18840 15141 M 0 91 R D
19118 15141 M 0 91 R D 19334 15141 M 0 91 R D 15056 19719 M 4278 0 R D
15550 19719 M 0 -184 R D 17777 19719 M 0 -184 R D 15056 19719 M 0 -92 R D
15205 19719 M 0 -92 R D 15334 19719 M 0 -92 R D 15448 19719 M 0 -92 R D
16220 19719 M 0 -92 R D 16613 19719 M 0 -92 R D 16891 19719 M 0 -92 R D
17107 19719 M 0 -92 R D 17283 19719 M 0 -92 R D 17432 19719 M 0 -92 R D
17561 19719 M 0 -92 R D 17675 19719 M 0 -92 R D 18448 19719 M 0 -92 R D
18840 19719 M 0 -92 R D 19118 19719 M 0 -92 R D 19334 19719 M 0 -92 R D
15056 15141 M 0 4578 R D 15056 16083 M 171 0 R D
gsave 14945 15942 translate 0 0 M -117.687 0 N
( ) show grestore 15056 17430 M 171 0 R D gsave 14945 17289 translate 0 0 M
-117.687 0 N
( ) show grestore 15056 18777 M 171 0 R D gsave 14945 18636 translate 0 0 M
-117.687 0 N
( ) show grestore 15056 15141 M 85 0 R D 15056 15378 M 85 0 R D
15056 15546 M 85 0 R D 15056 15677 M 85 0 R D 15056 15784 M 85 0 R D
15056 15874 M 85 0 R D 15056 15952 M 85 0 R D 15056 16021 M 85 0 R D
15056 16488 M 85 0 R D 15056 16725 M 85 0 R D 15056 16894 M 85 0 R D
15056 17024 M 85 0 R D 15056 17131 M 85 0 R D 15056 17221 M 85 0 R D
15056 17299 M 85 0 R D 15056 17368 M 85 0 R D 15056 17835 M 85 0 R D
15056 18072 M 85 0 R D 15056 18241 M 85 0 R D 15056 18371 M 85 0 R D
15056 18478 M 85 0 R D 15056 18568 M 85 0 R D 15056 18646 M 85 0 R D
15056 18715 M 85 0 R D 15056 19182 M 85 0 R D 15056 19420 M 85 0 R D
15056 19588 M 85 0 R D 15056 19719 M 85 0 R D 19334 15141 M 0 4578 R D
19334 16083 M -171 0 R D 19334 17430 M -171 0 R D 19334 18777 M -171 0 R D
19334 15141 M -85 0 R D 19334 15378 M -85 0 R D 19334 15546 M -85 0 R D
19334 15677 M -85 0 R D 19334 15784 M -85 0 R D 19334 15874 M -85 0 R D
19334 15952 M -85 0 R D 19334 16021 M -85 0 R D 19334 16488 M -85 0 R D
19334 16725 M -85 0 R D 19334 16894 M -85 0 R D 19334 17024 M -85 0 R D
19334 17131 M -85 0 R D 19334 17221 M -85 0 R D 19334 17299 M -85 0 R D
19334 17368 M -85 0 R D 19334 17835 M -85 0 R D 19334 18072 M -85 0 R D
19334 18241 M -85 0 R D 19334 18371 M -85 0 R D 19334 18478 M -85 0 R D
19334 18568 M -85 0 R D 19334 18646 M -85 0 R D 19334 18715 M -85 0 R D
19334 19182 M -85 0 R D 19334 19420 M -85 0 R D 19334 19588 M -85 0 R D
19334 19719 M -85 0 R D 1.000 0.000 0.706 setrgbcolor 15550 19010 M 378 -1 R
379 -47 R 378 -344 R 378 -530 R 379 -688 R 378 -736 R 379 -475 R 378 -643 R
379 -405 R D 0.506 0.000 0.000 setrgbcolor 15550 18812 M 378 -1 R 379 -23 R
378 -227 R 378 -512 R 379 -543 R 378 -761 R 379 -662 R 378 -705 R 140 -238 R
D 0.000 0.549 0.000 setrgbcolor 15550 18086 M 378 0 R 379 -2 R 378 -27 R
378 -349 R 379 -513 R 378 -553 R 379 -965 R 378 -536 R 0 -1 R D
0.000 0.000 0.000 setrgbcolor gsave 18169 18715 translate 0 0 M
(phd4) show grestore 2220 10563 M 4279 0 R D 2714 10563 M 0 183 R D
gsave 2714 10035 translate 0 0 M -58.8433 0 N
( ) show grestore 4942 10563 M 0 183 R D gsave 4942 10035 translate 0 0 M
-58.8433 0 N
( ) show grestore 2220 10563 M 0 92 R D 2369 10563 M 0 92 R D 2498 10563 M
0 92 R D 2612 10563 M 0 92 R D 3385 10563 M 0 92 R D 3777 10563 M 0 92 R D
4055 10563 M 0 92 R D 4271 10563 M 0 92 R D 4448 10563 M 0 92 R D
4597 10563 M 0 92 R D 4726 10563 M 0 92 R D 4840 10563 M 0 92 R D
5612 10563 M 0 92 R D 6004 10563 M 0 92 R D 6283 10563 M 0 92 R D
6499 10563 M 0 92 R D 2220 15141 M 4279 0 R D 2714 15141 M 0 -183 R D
4942 15141 M 0 -183 R D 2220 15141 M 0 -92 R D 2369 15141 M 0 -92 R D
2498 15141 M 0 -92 R D 2612 15141 M 0 -92 R D 3385 15141 M 0 -92 R D
3777 15141 M 0 -92 R D 4055 15141 M 0 -92 R D 4271 15141 M 0 -92 R D
4448 15141 M 0 -92 R D 4597 15141 M 0 -92 R D 4726 15141 M 0 -92 R D
4840 15141 M 0 -92 R D 5612 15141 M 0 -92 R D 6004 15141 M 0 -92 R D
6283 15141 M 0 -92 R D 6499 15141 M 0 -92 R D 2220 10563 M 0 4578 R D
2220 11505 M 171 0 R D gsave 2109 11364 translate 0 0 M -470.747 0 N
(10) show grestore 2220 12852 M 171 0 R D gsave 2109 12711 translate 0 0 M
-706.12 0 N
(100) show grestore 2220 14199 M 171 0 R D gsave 2109 14058 translate 0 0 M
-941.493 0 N
(1000) show grestore 2220 10563 M 86 0 R D 2220 10801 M 86 0 R D
2220 10969 M 86 0 R D 2220 11099 M 86 0 R D 2220 11206 M 86 0 R D
2220 11296 M 86 0 R D 2220 11374 M 86 0 R D 2220 11443 M 86 0 R D
2220 11910 M 86 0 R D 2220 12148 M 86 0 R D 2220 12316 M 86 0 R D
2220 12447 M 86 0 R D 2220 12553 M 86 0 R D 2220 12643 M 86 0 R D
2220 12722 M 86 0 R D 2220 12790 M 86 0 R D 2220 13258 M 86 0 R D
2220 13495 M 86 0 R D 2220 13663 M 86 0 R D 2220 13794 M 86 0 R D
2220 13900 M 86 0 R D 2220 13991 M 86 0 R D 2220 14069 M 86 0 R D
2220 14138 M 86 0 R D 2220 14605 M 86 0 R D 2220 14842 M 86 0 R D
2220 15010 M 86 0 R D 2220 15141 M 86 0 R D 6499 10563 M 0 4578 R D
6499 11505 M -172 0 R D 6499 12852 M -172 0 R D 6499 14199 M -172 0 R D
6499 10563 M -86 0 R D 6499 10801 M -86 0 R D 6499 10969 M -86 0 R D
6499 11099 M -86 0 R D 6499 11206 M -86 0 R D 6499 11296 M -86 0 R D
6499 11374 M -86 0 R D 6499 11443 M -86 0 R D 6499 11910 M -86 0 R D
6499 12148 M -86 0 R D 6499 12316 M -86 0 R D 6499 12447 M -86 0 R D
6499 12553 M -86 0 R D 6499 12643 M -86 0 R D 6499 12722 M -86 0 R D
6499 12790 M -86 0 R D 6499 13258 M -86 0 R D 6499 13495 M -86 0 R D
6499 13663 M -86 0 R D 6499 13794 M -86 0 R D 6499 13900 M -86 0 R D
6499 13991 M -86 0 R D 6499 14069 M -86 0 R D 6499 14138 M -86 0 R D
6499 14605 M -86 0 R D 6499 14842 M -86 0 R D 6499 15010 M -86 0 R D
6499 15141 M -86 0 R D 1.000 0.000 0.706 setrgbcolor 3495 15140 M 355 -685 R
378 -756 R 378 -735 R 379 -648 R 378 -614 R 379 -901 R D
0.506 0.000 0.000 setrgbcolor 3418 15140 M 53 -84 R 379 -722 R 378 -712 R
378 -812 R 379 -746 R 378 -503 R 379 -998 R D 0.000 0.549 0.000 setrgbcolor
3128 15140 M 343 -532 R 379 -696 R 378 -770 R 378 -650 R 379 -790 R
378 -603 R 215 -536 R D 0.000 0.514 1.000 setrgbcolor 2714 13776 M 379 -5 R
378 -99 R 379 -400 R 378 -522 R 378 -622 R 379 -754 R 378 -405 R 189 -406 R
D 0.000 0.000 0.000 setrgbcolor gsave 5334 14138 translate 0 0 M
(phe2) show grestore 6499 10563 M 4278 0 R D 6993 10563 M 0 183 R D
gsave 6993 10035 translate 0 0 M -58.8433 0 N
( ) show grestore 9220 10563 M 0 183 R D gsave 9220 10035 translate 0 0 M
-58.8433 0 N
( ) show grestore 6499 10563 M 0 92 R D 6648 10563 M 0 92 R D 6777 10563 M
0 92 R D 6891 10563 M 0 92 R D 7663 10563 M 0 92 R D 8056 10563 M 0 92 R D
8334 10563 M 0 92 R D 8550 10563 M 0 92 R D 8726 10563 M 0 92 R D
8875 10563 M 0 92 R D 9004 10563 M 0 92 R D 9118 10563 M 0 92 R D
9891 10563 M 0 92 R D 10283 10563 M 0 92 R D 10561 10563 M 0 92 R D
10777 10563 M 0 92 R D 6499 15141 M 4278 0 R D 6993 15141 M 0 -183 R D
9220 15141 M 0 -183 R D 6499 15141 M 0 -92 R D 6648 15141 M 0 -92 R D
6777 15141 M 0 -92 R D 6891 15141 M 0 -92 R D 7663 15141 M 0 -92 R D
8056 15141 M 0 -92 R D 8334 15141 M 0 -92 R D 8550 15141 M 0 -92 R D
8726 15141 M 0 -92 R D 8875 15141 M 0 -92 R D 9004 15141 M 0 -92 R D
9118 15141 M 0 -92 R D 9891 15141 M 0 -92 R D 10283 15141 M 0 -92 R D
10561 15141 M 0 -92 R D 10777 15141 M 0 -92 R D 6499 10563 M 0 4578 R D
6499 11505 M 171 0 R D gsave 6388 11364 translate 0 0 M -117.687 0 N
( ) show grestore 6499 12852 M 171 0 R D gsave 6388 12711 translate 0 0 M
-117.687 0 N
( ) show grestore 6499 14199 M 171 0 R D gsave 6388 14058 translate 0 0 M
-117.687 0 N
( ) show grestore 6499 10563 M 85 0 R D 6499 10801 M 85 0 R D 6499 10969 M
85 0 R D 6499 11099 M 85 0 R D 6499 11206 M 85 0 R D 6499 11296 M 85 0 R D
6499 11374 M 85 0 R D 6499 11443 M 85 0 R D 6499 11910 M 85 0 R D
6499 12148 M 85 0 R D 6499 12316 M 85 0 R D 6499 12447 M 85 0 R D
6499 12553 M 85 0 R D 6499 12643 M 85 0 R D 6499 12722 M 85 0 R D
6499 12790 M 85 0 R D 6499 13258 M 85 0 R D 6499 13495 M 85 0 R D
6499 13663 M 85 0 R D 6499 13794 M 85 0 R D 6499 13900 M 85 0 R D
6499 13991 M 85 0 R D 6499 14069 M 85 0 R D 6499 14138 M 85 0 R D
6499 14605 M 85 0 R D 6499 14842 M 85 0 R D 6499 15010 M 85 0 R D
6499 15141 M 85 0 R D 10777 10563 M 0 4578 R D 10777 11505 M -171 0 R D
10777 12852 M -171 0 R D 10777 14199 M -171 0 R D 10777 10563 M -85 0 R D
10777 10801 M -85 0 R D 10777 10969 M -85 0 R D 10777 11099 M -85 0 R D
10777 11206 M -85 0 R D 10777 11296 M -85 0 R D 10777 11374 M -85 0 R D
10777 11443 M -85 0 R D 10777 11910 M -85 0 R D 10777 12148 M -85 0 R D
10777 12316 M -85 0 R D 10777 12447 M -85 0 R D 10777 12553 M -85 0 R D
10777 12643 M -85 0 R D 10777 12722 M -85 0 R D 10777 12790 M -85 0 R D
10777 13258 M -85 0 R D 10777 13495 M -85 0 R D 10777 13663 M -85 0 R D
10777 13794 M -85 0 R D 10777 13900 M -85 0 R D 10777 13991 M -85 0 R D
10777 14069 M -85 0 R D 10777 14138 M -85 0 R D 10777 14605 M -85 0 R D
10777 14842 M -85 0 R D 10777 15010 M -85 0 R D 10777 15141 M -85 0 R D
1.000 0.000 0.706 setrgbcolor 6993 14454 M 378 -2 R 379 -100 R 378 -421 R
378 -564 R 379 -645 R 378 -501 R 379 -778 R 378 -880 R D
0.506 0.000 0.000 setrgbcolor 6993 14184 M 378 -1 R 379 -37 R 378 -319 R
378 -535 R 379 -640 R 378 -660 R 379 -549 R 378 -880 R D
0.000 0.549 0.000 setrgbcolor 6993 13690 M 378 0 R 379 -7 R 378 -250 R
378 -509 R 379 -608 R 378 -574 R 379 -773 R 378 -406 R D
0.000 0.514 1.000 setrgbcolor 6993 12128 M 378 0 R 379 0 R 378 0 R 378 0 R
379 -162 R 378 -670 R 379 -733 R D 0.000 0.000 0.000 setrgbcolor
gsave 9612 14138 translate 0 0 M
(phe4) show grestore 10777 10563 M 4279 0 R D 11271 10563 M 0 183 R D
gsave 11271 10035 translate 0 0 M -58.8433 0 N
( ) show grestore 13499 10563 M 0 183 R D gsave 13499 10035 translate 0 0 M
-58.8433 0 N
( ) show grestore 10777 10563 M 0 92 R D 10926 10563 M 0 92 R D
11055 10563 M 0 92 R D 11169 10563 M 0 92 R D 11942 10563 M 0 92 R D
12334 10563 M 0 92 R D 12612 10563 M 0 92 R D 12828 10563 M 0 92 R D
13005 10563 M 0 92 R D 13154 10563 M 0 92 R D 13283 10563 M 0 92 R D
13397 10563 M 0 92 R D 14169 10563 M 0 92 R D 14561 10563 M 0 92 R D
14840 10563 M 0 92 R D 15056 10563 M 0 92 R D 10777 15141 M 4279 0 R D
11271 15141 M 0 -183 R D 13499 15141 M 0 -183 R D 10777 15141 M 0 -92 R D
10926 15141 M 0 -92 R D 11055 15141 M 0 -92 R D 11169 15141 M 0 -92 R D
11942 15141 M 0 -92 R D 12334 15141 M 0 -92 R D 12612 15141 M 0 -92 R D
12828 15141 M 0 -92 R D 13005 15141 M 0 -92 R D 13154 15141 M 0 -92 R D
13283 15141 M 0 -92 R D 13397 15141 M 0 -92 R D 14169 15141 M 0 -92 R D
14561 15141 M 0 -92 R D 14840 15141 M 0 -92 R D 15056 15141 M 0 -92 R D
10777 10563 M 0 4578 R D 10777 11505 M 171 0 R D
gsave 10666 11364 translate 0 0 M -117.687 0 N
( ) show grestore 10777 12852 M 171 0 R D gsave 10666 12711 translate 0 0 M
-117.687 0 N
( ) show grestore 10777 14199 M 171 0 R D gsave 10666 14058 translate 0 0 M
-117.687 0 N
( ) show grestore 10777 10563 M 86 0 R D 10777 10801 M 86 0 R D
10777 10969 M 86 0 R D 10777 11099 M 86 0 R D 10777 11206 M 86 0 R D
10777 11296 M 86 0 R D 10777 11374 M 86 0 R D 10777 11443 M 86 0 R D
10777 11910 M 86 0 R D 10777 12148 M 86 0 R D 10777 12316 M 86 0 R D
10777 12447 M 86 0 R D 10777 12553 M 86 0 R D 10777 12643 M 86 0 R D
10777 12722 M 86 0 R D 10777 12790 M 86 0 R D 10777 13258 M 86 0 R D
10777 13495 M 86 0 R D 10777 13663 M 86 0 R D 10777 13794 M 86 0 R D
10777 13900 M 86 0 R D 10777 13991 M 86 0 R D 10777 14069 M 86 0 R D
10777 14138 M 86 0 R D 10777 14605 M 86 0 R D 10777 14842 M 86 0 R D
10777 15010 M 86 0 R D 10777 15141 M 86 0 R D 15056 10563 M 0 4578 R D
15056 11505 M -172 0 R D 15056 12852 M -172 0 R D 15056 14199 M -172 0 R D
15056 10563 M -86 0 R D 15056 10801 M -86 0 R D 15056 10969 M -86 0 R D
15056 11099 M -86 0 R D 15056 11206 M -86 0 R D 15056 11296 M -86 0 R D
15056 11374 M -86 0 R D 15056 11443 M -86 0 R D 15056 11910 M -86 0 R D
15056 12148 M -86 0 R D 15056 12316 M -86 0 R D 15056 12447 M -86 0 R D
15056 12553 M -86 0 R D 15056 12643 M -86 0 R D 15056 12722 M -86 0 R D
15056 12790 M -86 0 R D 15056 13258 M -86 0 R D 15056 13495 M -86 0 R D
15056 13663 M -86 0 R D 15056 13794 M -86 0 R D 15056 13900 M -86 0 R D
15056 13991 M -86 0 R D 15056 14069 M -86 0 R D 15056 14138 M -86 0 R D
15056 14605 M -86 0 R D 15056 14842 M -86 0 R D 15056 15010 M -86 0 R D
15056 15141 M -86 0 R D 1.000 0.000 0.706 setrgbcolor 12052 15140 M
355 -673 R 378 -745 R 378 -778 R 379 -759 R 378 -742 R 259 -880 R D
0.506 0.000 0.000 setrgbcolor 11935 15140 M 93 -152 R 379 -685 R 378 -789 R
378 -792 R 379 -594 R 378 -567 R 379 -998 R D 0.000 0.549 0.000 setrgbcolor
11612 15140 M 38 -21 R 378 -539 R 379 -654 R 378 -686 R 378 -759 R
379 -823 R 378 -1095 R D 0.000 0.514 1.000 setrgbcolor 11271 14077 M
379 -35 R 378 -296 R 379 -594 R 378 -639 R 378 -901 R 379 -316 R 378 -495 R
140 -238 R D 0.000 0.000 0.000 setrgbcolor gsave 13891 14138 translate 0 0 M
(phf2) show grestore 15056 10563 M 4278 0 R D 15550 10563 M 0 183 R D
gsave 15550 10035 translate 0 0 M -58.8433 0 N
( ) show grestore 17777 10563 M 0 183 R D gsave 17777 10035 translate 0 0 M
-58.8433 0 N
( ) show grestore 15056 10563 M 0 92 R D 15205 10563 M 0 92 R D
15334 10563 M 0 92 R D 15448 10563 M 0 92 R D 16220 10563 M 0 92 R D
16613 10563 M 0 92 R D 16891 10563 M 0 92 R D 17107 10563 M 0 92 R D
17283 10563 M 0 92 R D 17432 10563 M 0 92 R D 17561 10563 M 0 92 R D
17675 10563 M 0 92 R D 18448 10563 M 0 92 R D 18840 10563 M 0 92 R D
19118 10563 M 0 92 R D 19334 10563 M 0 92 R D 15056 15141 M 4278 0 R D
15550 15141 M 0 -183 R D 17777 15141 M 0 -183 R D 15056 15141 M 0 -92 R D
15205 15141 M 0 -92 R D 15334 15141 M 0 -92 R D 15448 15141 M 0 -92 R D
16220 15141 M 0 -92 R D 16613 15141 M 0 -92 R D 16891 15141 M 0 -92 R D
17107 15141 M 0 -92 R D 17283 15141 M 0 -92 R D 17432 15141 M 0 -92 R D
17561 15141 M 0 -92 R D 17675 15141 M 0 -92 R D 18448 15141 M 0 -92 R D
18840 15141 M 0 -92 R D 19118 15141 M 0 -92 R D 19334 15141 M 0 -92 R D
15056 10563 M 0 4578 R D 15056 11505 M 171 0 R D
gsave 14945 11364 translate 0 0 M -117.687 0 N
( ) show grestore 15056 12852 M 171 0 R D gsave 14945 12711 translate 0 0 M
-117.687 0 N
( ) show grestore 15056 14199 M 171 0 R D gsave 14945 14058 translate 0 0 M
-117.687 0 N
( ) show grestore 15056 10563 M 85 0 R D 15056 10801 M 85 0 R D
15056 10969 M 85 0 R D 15056 11099 M 85 0 R D 15056 11206 M 85 0 R D
15056 11296 M 85 0 R D 15056 11374 M 85 0 R D 15056 11443 M 85 0 R D
15056 11910 M 85 0 R D 15056 12148 M 85 0 R D 15056 12316 M 85 0 R D
15056 12447 M 85 0 R D 15056 12553 M 85 0 R D 15056 12643 M 85 0 R D
15056 12722 M 85 0 R D 15056 12790 M 85 0 R D 15056 13258 M 85 0 R D
15056 13495 M 85 0 R D 15056 13663 M 85 0 R D 15056 13794 M 85 0 R D
15056 13900 M 85 0 R D 15056 13991 M 85 0 R D 15056 14069 M 85 0 R D
15056 14138 M 85 0 R D 15056 14605 M 85 0 R D 15056 14842 M 85 0 R D
15056 15010 M 85 0 R D 15056 15141 M 85 0 R D 19334 10563 M 0 4578 R D
19334 11505 M -171 0 R D 19334 12852 M -171 0 R D 19334 14199 M -171 0 R D
19334 10563 M -85 0 R D 19334 10801 M -85 0 R D 19334 10969 M -85 0 R D
19334 11099 M -85 0 R D 19334 11206 M -85 0 R D 19334 11296 M -85 0 R D
19334 11374 M -85 0 R D 19334 11443 M -85 0 R D 19334 11910 M -85 0 R D
19334 12148 M -85 0 R D 19334 12316 M -85 0 R D 19334 12447 M -85 0 R D
19334 12553 M -85 0 R D 19334 12643 M -85 0 R D 19334 12722 M -85 0 R D
19334 12790 M -85 0 R D 19334 13258 M -85 0 R D 19334 13495 M -85 0 R D
19334 13663 M -85 0 R D 19334 13794 M -85 0 R D 19334 13900 M -85 0 R D
19334 13991 M -85 0 R D 19334 14069 M -85 0 R D 19334 14138 M -85 0 R D
19334 14605 M -85 0 R D 19334 14842 M -85 0 R D 19334 15010 M -85 0 R D
19334 15141 M -85 0 R D 1.000 0.000 0.706 setrgbcolor 15550 14334 M 378 -1 R
379 -60 R 378 -329 R 378 -549 R 379 -611 R 378 -636 R 379 -774 R 252 -811 R
D 0.506 0.000 0.000 setrgbcolor 15550 14082 M 378 -2 R 379 -24 R 378 -297 R
378 -563 R 379 -633 R 378 -477 R 379 -643 R 378 -880 R D
0.000 0.549 0.000 setrgbcolor 15550 13487 M 378 0 R 379 -4 R 378 -95 R
378 -480 R 379 -550 R 378 -853 R 379 -536 R D 0.000 0.514 1.000 setrgbcolor
15550 12221 M 378 0 R 379 0 R 378 0 R 378 -73 R 379 -446 R 378 -496 R
379 -643 R D 0.000 0.000 0.000 setrgbcolor gsave 18169 14138 translate 0 0 M
(phf4) show grestore 2220 5986 M 4279 0 R D 2714 5986 M 0 183 R D
gsave 2714 5458 translate 0 0 M -58.8433 0 N
( ) show grestore 4942 5986 M 0 183 R D gsave 4942 5458 translate 0 0 M
-58.8433 0 N
( ) show grestore 2220 5986 M 0 91 R D 2369 5986 M 0 91 R D 2498 5986 M
0 91 R D 2612 5986 M 0 91 R D 3385 5986 M 0 91 R D 3777 5986 M 0 91 R D
4055 5986 M 0 91 R D 4271 5986 M 0 91 R D 4448 5986 M 0 91 R D 4597 5986 M
0 91 R D 4726 5986 M 0 91 R D 4840 5986 M 0 91 R D 5612 5986 M 0 91 R D
6004 5986 M 0 91 R D 6283 5986 M 0 91 R D 6499 5986 M 0 91 R D 2220 10563 M
4279 0 R D 2714 10563 M 0 -183 R D 4942 10563 M 0 -183 R D 2220 10563 M
0 -91 R D 2369 10563 M 0 -91 R D 2498 10563 M 0 -91 R D 2612 10563 M 0 -91 R
D 3385 10563 M 0 -91 R D 3777 10563 M 0 -91 R D 4055 10563 M 0 -91 R D
4271 10563 M 0 -91 R D 4448 10563 M 0 -91 R D 4597 10563 M 0 -91 R D
4726 10563 M 0 -91 R D 4840 10563 M 0 -91 R D 5612 10563 M 0 -91 R D
6004 10563 M 0 -91 R D 6283 10563 M 0 -91 R D 6499 10563 M 0 -91 R D
2220 5986 M 0 4577 R D 2220 6927 M 171 0 R D gsave 2109 6787 translate 0 0 M
-470.747 0 N
(10) show grestore 2220 8275 M 171 0 R D gsave 2109 8134 translate 0 0 M
-706.12 0 N
(100) show grestore 2220 9622 M 171 0 R D gsave 2109 9481 translate 0 0 M
-941.493 0 N
(1000) show grestore 2220 5986 M 86 0 R D 2220 6223 M 86 0 R D 2220 6391 M
86 0 R D 2220 6522 M 86 0 R D 2220 6628 M 86 0 R D 2220 6719 M 86 0 R D
2220 6797 M 86 0 R D 2220 6866 M 86 0 R D 2220 7333 M 86 0 R D 2220 7570 M
86 0 R D 2220 7738 M 86 0 R D 2220 7869 M 86 0 R D 2220 7976 M 86 0 R D
2220 8066 M 86 0 R D 2220 8144 M 86 0 R D 2220 8213 M 86 0 R D 2220 8680 M
86 0 R D 2220 8917 M 86 0 R D 2220 9086 M 86 0 R D 2220 9216 M 86 0 R D
2220 9323 M 86 0 R D 2220 9413 M 86 0 R D 2220 9491 M 86 0 R D 2220 9560 M
86 0 R D 2220 10027 M 86 0 R D 2220 10264 M 86 0 R D 2220 10433 M 86 0 R D
2220 10563 M 86 0 R D 6499 5986 M 0 4577 R D 6499 6927 M -172 0 R D
6499 8275 M -172 0 R D 6499 9622 M -172 0 R D 6499 5986 M -86 0 R D
6499 6223 M -86 0 R D 6499 6391 M -86 0 R D 6499 6522 M -86 0 R D
6499 6628 M -86 0 R D 6499 6719 M -86 0 R D 6499 6797 M -86 0 R D
6499 6866 M -86 0 R D 6499 7333 M -86 0 R D 6499 7570 M -86 0 R D
6499 7738 M -86 0 R D 6499 7869 M -86 0 R D 6499 7976 M -86 0 R D
6499 8066 M -86 0 R D 6499 8144 M -86 0 R D 6499 8213 M -86 0 R D
6499 8680 M -86 0 R D 6499 8917 M -86 0 R D 6499 9086 M -86 0 R D
6499 9216 M -86 0 R D 6499 9323 M -86 0 R D 6499 9413 M -86 0 R D
6499 9491 M -86 0 R D 6499 9560 M -86 0 R D 6499 10027 M -86 0 R D
6499 10264 M -86 0 R D 6499 10433 M -86 0 R D 6499 10563 M -86 0 R D
1.000 0.000 0.706 setrgbcolor 3638 10563 M 212 -393 R 378 -738 R 378 -665 R
379 -772 R 378 -662 R 379 -705 R 378 -405 R D 0.506 0.000 0.000 setrgbcolor
3508 10563 M 342 -588 R 378 -694 R 378 -739 R 379 -709 R 378 -906 R
379 -704 R 378 -237 R D 0.000 0.549 0.000 setrgbcolor 2714 9851 M 379 -6 R
378 -95 R 379 -360 R 378 -644 R 378 -617 R 379 -796 R 378 -705 R D
0.000 0.514 1.000 setrgbcolor 2714 8351 M 379 0 R 378 -10 R 379 -162 R
378 -412 R 378 -602 R 379 -774 R 189 -406 R D 0.000 0.000 0.000 setrgbcolor
gsave 5334 9560 translate 0 0 M
(phg2) show grestore 6499 5986 M 4278 0 R D 6993 5986 M 0 183 R D
gsave 6993 5458 translate 0 0 M -58.8433 0 N
( ) show grestore 9220 5986 M 0 183 R D gsave 9220 5458 translate 0 0 M
-58.8433 0 N
( ) show grestore 6499 5986 M 0 91 R D 6648 5986 M 0 91 R D 6777 5986 M
0 91 R D 6891 5986 M 0 91 R D 7663 5986 M 0 91 R D 8056 5986 M 0 91 R D
8334 5986 M 0 91 R D 8550 5986 M 0 91 R D 8726 5986 M 0 91 R D 8875 5986 M
0 91 R D 9004 5986 M 0 91 R D 9118 5986 M 0 91 R D 9891 5986 M 0 91 R D
10283 5986 M 0 91 R D 10561 5986 M 0 91 R D 10777 5986 M 0 91 R D
6499 10563 M 4278 0 R D 6993 10563 M 0 -183 R D 9220 10563 M 0 -183 R D
6499 10563 M 0 -91 R D 6648 10563 M 0 -91 R D 6777 10563 M 0 -91 R D
6891 10563 M 0 -91 R D 7663 10563 M 0 -91 R D 8056 10563 M 0 -91 R D
8334 10563 M 0 -91 R D 8550 10563 M 0 -91 R D 8726 10563 M 0 -91 R D
8875 10563 M 0 -91 R D 9004 10563 M 0 -91 R D 9118 10563 M 0 -91 R D
9891 10563 M 0 -91 R D 10283 10563 M 0 -91 R D 10561 10563 M 0 -91 R D
10777 10563 M 0 -91 R D 6499 5986 M 0 4577 R D 6499 6927 M 171 0 R D
gsave 6388 6787 translate 0 0 M -117.687 0 N
( ) show grestore 6499 8275 M 171 0 R D gsave 6388 8134 translate 0 0 M
-117.687 0 N
( ) show grestore 6499 9622 M 171 0 R D gsave 6388 9481 translate 0 0 M
-117.687 0 N
( ) show grestore 6499 5986 M 85 0 R D 6499 6223 M 85 0 R D 6499 6391 M
85 0 R D 6499 6522 M 85 0 R D 6499 6628 M 85 0 R D 6499 6719 M 85 0 R D
6499 6797 M 85 0 R D 6499 6866 M 85 0 R D 6499 7333 M 85 0 R D 6499 7570 M
85 0 R D 6499 7738 M 85 0 R D 6499 7869 M 85 0 R D 6499 7976 M 85 0 R D
6499 8066 M 85 0 R D 6499 8144 M 85 0 R D 6499 8213 M 85 0 R D 6499 8680 M
85 0 R D 6499 8917 M 85 0 R D 6499 9086 M 85 0 R D 6499 9216 M 85 0 R D
6499 9323 M 85 0 R D 6499 9413 M 85 0 R D 6499 9491 M 85 0 R D 6499 9560 M
85 0 R D 6499 10027 M 85 0 R D 6499 10264 M 85 0 R D 6499 10433 M 85 0 R D
6499 10563 M 85 0 R D 10777 5986 M 0 4577 R D 10777 6927 M -171 0 R D
10777 8275 M -171 0 R D 10777 9622 M -171 0 R D 10777 5986 M -85 0 R D
10777 6223 M -85 0 R D 10777 6391 M -85 0 R D 10777 6522 M -85 0 R D
10777 6628 M -85 0 R D 10777 6719 M -85 0 R D 10777 6797 M -85 0 R D
10777 6866 M -85 0 R D 10777 7333 M -85 0 R D 10777 7570 M -85 0 R D
10777 7738 M -85 0 R D 10777 7869 M -85 0 R D 10777 7976 M -85 0 R D
10777 8066 M -85 0 R D 10777 8144 M -85 0 R D 10777 8213 M -85 0 R D
10777 8680 M -85 0 R D 10777 8917 M -85 0 R D 10777 9086 M -85 0 R D
10777 9216 M -85 0 R D 10777 9323 M -85 0 R D 10777 9413 M -85 0 R D
10777 9491 M -85 0 R D 10777 9560 M -85 0 R D 10777 10027 M -85 0 R D
10777 10264 M -85 0 R D 10777 10433 M -85 0 R D 10777 10563 M -85 0 R D
1.000 0.000 0.706 setrgbcolor 6993 9891 M 378 0 R 379 -12 R 378 -200 R
378 -528 R 379 -549 R 378 -688 R 379 -611 R 378 -584 R 379 -733 R D
0.506 0.000 0.000 setrgbcolor 6993 9135 M 378 0 R 379 0 R 378 -21 R
378 -248 R 379 -552 R 378 -654 R 379 -733 R 378 -704 R 379 -237 R D
0.000 0.549 0.000 setrgbcolor 6993 7857 M 378 0 R 379 0 R 378 0 R 378 0 R
379 -197 R 378 -536 R 379 -602 R D 0.000 0.000 0.000 setrgbcolor
gsave 9612 9560 translate 0 0 M
(phg4) show grestore 10777 5986 M 4279 0 R D 11271 5986 M 0 183 R D
gsave 11271 5458 translate 0 0 M -411.903 0 N
(0.01) show grestore 13499 5986 M 0 183 R D gsave 13499 5458 translate 0 0 M
-411.903 0 N
(0.10) show grestore 10777 5986 M 0 91 R D 10926 5986 M 0 91 R D
11055 5986 M 0 91 R D 11169 5986 M 0 91 R D 11942 5986 M 0 91 R D
12334 5986 M 0 91 R D 12612 5986 M 0 91 R D 12828 5986 M 0 91 R D
13005 5986 M 0 91 R D 13154 5986 M 0 91 R D 13283 5986 M 0 91 R D
13397 5986 M 0 91 R D 14169 5986 M 0 91 R D 14561 5986 M 0 91 R D
14840 5986 M 0 91 R D 15056 5986 M 0 91 R D 10777 10563 M 4279 0 R D
11271 10563 M 0 -183 R D 13499 10563 M 0 -183 R D 10777 10563 M 0 -91 R D
10926 10563 M 0 -91 R D 11055 10563 M 0 -91 R D 11169 10563 M 0 -91 R D
11942 10563 M 0 -91 R D 12334 10563 M 0 -91 R D 12612 10563 M 0 -91 R D
12828 10563 M 0 -91 R D 13005 10563 M 0 -91 R D 13154 10563 M 0 -91 R D
13283 10563 M 0 -91 R D 13397 10563 M 0 -91 R D 14169 10563 M 0 -91 R D
14561 10563 M 0 -91 R D 14840 10563 M 0 -91 R D 15056 10563 M 0 -91 R D
10777 5986 M 0 4577 R D 10777 6927 M 171 0 R D
gsave 10666 6787 translate 0 0 M -117.687 0 N
( ) show grestore 10777 8275 M 171 0 R D gsave 10666 8134 translate 0 0 M
-117.687 0 N
( ) show grestore 10777 9622 M 171 0 R D gsave 10666 9481 translate 0 0 M
-117.687 0 N
( ) show grestore 10777 5986 M 86 0 R D 10777 6223 M 86 0 R D 10777 6391 M
86 0 R D 10777 6522 M 86 0 R D 10777 6628 M 86 0 R D 10777 6719 M 86 0 R D
10777 6797 M 86 0 R D 10777 6866 M 86 0 R D 10777 7333 M 86 0 R D
10777 7570 M 86 0 R D 10777 7738 M 86 0 R D 10777 7869 M 86 0 R D
10777 7976 M 86 0 R D 10777 8066 M 86 0 R D 10777 8144 M 86 0 R D
10777 8213 M 86 0 R D 10777 8680 M 86 0 R D 10777 8917 M 86 0 R D
10777 9086 M 86 0 R D 10777 9216 M 86 0 R D 10777 9323 M 86 0 R D
10777 9413 M 86 0 R D 10777 9491 M 86 0 R D 10777 9560 M 86 0 R D
10777 10027 M 86 0 R D 10777 10264 M 86 0 R D 10777 10433 M 86 0 R D
10777 10563 M 86 0 R D 15056 5986 M 0 4577 R D 15056 6927 M -172 0 R D
15056 8275 M -172 0 R D 15056 9622 M -172 0 R D 15056 5986 M -86 0 R D
15056 6223 M -86 0 R D 15056 6391 M -86 0 R D 15056 6522 M -86 0 R D
15056 6628 M -86 0 R D 15056 6719 M -86 0 R D 15056 6797 M -86 0 R D
15056 6866 M -86 0 R D 15056 7333 M -86 0 R D 15056 7570 M -86 0 R D
15056 7738 M -86 0 R D 15056 7869 M -86 0 R D 15056 7976 M -86 0 R D
15056 8066 M -86 0 R D 15056 8144 M -86 0 R D 15056 8213 M -86 0 R D
15056 8680 M -86 0 R D 15056 8917 M -86 0 R D 15056 9086 M -86 0 R D
15056 9216 M -86 0 R D 15056 9323 M -86 0 R D 15056 9413 M -86 0 R D
15056 9491 M -86 0 R D 15056 9560 M -86 0 R D 15056 10027 M -86 0 R D
15056 10264 M -86 0 R D 15056 10433 M -86 0 R D 15056 10563 M -86 0 R D
1.000 0.000 0.706 setrgbcolor 12107 10563 M 300 -561 R 378 -699 R 378 -784 R
379 -766 R 378 -770 R 379 -760 R 139 -238 R D 0.000 0.549 0.000 setrgbcolor
11271 10323 M 379 -76 R 378 -323 R 379 -608 R 378 -678 R 378 -735 R
379 -822 R 276 -1096 R D 0.000 0.514 1.000 setrgbcolor 11271 9297 M 379 -5 R
378 -121 R 379 -414 R 378 -613 R 378 -729 R 379 -618 R 378 -574 R 379 -237 R
D 0.000 0.000 0.000 setrgbcolor gsave 13891 9560 translate 0 0 M
(phh2) show grestore 15056 5986 M 4278 0 R D 15550 5986 M 0 183 R D
gsave 15550 5458 translate 0 0 M -411.903 0 N
(0.01) show grestore 17777 5986 M 0 183 R D gsave 17777 5458 translate 0 0 M
-411.903 0 N
(0.10) show grestore 15056 5986 M 0 91 R D 15205 5986 M 0 91 R D
15334 5986 M 0 91 R D 15448 5986 M 0 91 R D 16220 5986 M 0 91 R D
16613 5986 M 0 91 R D 16891 5986 M 0 91 R D 17107 5986 M 0 91 R D
17283 5986 M 0 91 R D 17432 5986 M 0 91 R D 17561 5986 M 0 91 R D
17675 5986 M 0 91 R D 18448 5986 M 0 91 R D 18840 5986 M 0 91 R D
19118 5986 M 0 91 R D 19334 5986 M 0 91 R D 15056 10563 M 4278 0 R D
15550 10563 M 0 -183 R D 17777 10563 M 0 -183 R D 15056 10563 M 0 -91 R D
15205 10563 M 0 -91 R D 15334 10563 M 0 -91 R D 15448 10563 M 0 -91 R D
16220 10563 M 0 -91 R D 16613 10563 M 0 -91 R D 16891 10563 M 0 -91 R D
17107 10563 M 0 -91 R D 17283 10563 M 0 -91 R D 17432 10563 M 0 -91 R D
17561 10563 M 0 -91 R D 17675 10563 M 0 -91 R D 18448 10563 M 0 -91 R D
18840 10563 M 0 -91 R D 19118 10563 M 0 -91 R D 19334 10563 M 0 -91 R D
15056 5986 M 0 4577 R D 15056 6927 M 171 0 R D
gsave 14945 6787 translate 0 0 M -117.687 0 N
( ) show grestore 15056 8275 M 171 0 R D gsave 14945 8134 translate 0 0 M
-117.687 0 N
( ) show grestore 15056 9622 M 171 0 R D gsave 14945 9481 translate 0 0 M
-117.687 0 N
( ) show grestore 15056 5986 M 85 0 R D 15056 6223 M 85 0 R D 15056 6391 M
85 0 R D 15056 6522 M 85 0 R D 15056 6628 M 85 0 R D 15056 6719 M 85 0 R D
15056 6797 M 85 0 R D 15056 6866 M 85 0 R D 15056 7333 M 85 0 R D
15056 7570 M 85 0 R D 15056 7738 M 85 0 R D 15056 7869 M 85 0 R D
15056 7976 M 85 0 R D 15056 8066 M 85 0 R D 15056 8144 M 85 0 R D
15056 8213 M 85 0 R D 15056 8680 M 85 0 R D 15056 8917 M 85 0 R D
15056 9086 M 85 0 R D 15056 9216 M 85 0 R D 15056 9323 M 85 0 R D
15056 9413 M 85 0 R D 15056 9491 M 85 0 R D 15056 9560 M 85 0 R D
15056 10027 M 85 0 R D 15056 10264 M 85 0 R D 15056 10433 M 85 0 R D
15056 10563 M 85 0 R D 19334 5986 M 0 4577 R D 19334 6927 M -171 0 R D
19334 8275 M -171 0 R D 19334 9622 M -171 0 R D 19334 5986 M -85 0 R D
19334 6223 M -85 0 R D 19334 6391 M -85 0 R D 19334 6522 M -85 0 R D
19334 6628 M -85 0 R D 19334 6719 M -85 0 R D 19334 6797 M -85 0 R D
19334 6866 M -85 0 R D 19334 7333 M -85 0 R D 19334 7570 M -85 0 R D
19334 7738 M -85 0 R D 19334 7869 M -85 0 R D 19334 7976 M -85 0 R D
19334 8066 M -85 0 R D 19334 8144 M -85 0 R D 19334 8213 M -85 0 R D
19334 8680 M -85 0 R D 19334 8917 M -85 0 R D 19334 9086 M -85 0 R D
19334 9216 M -85 0 R D 19334 9323 M -85 0 R D 19334 9413 M -85 0 R D
19334 9491 M -85 0 R D 19334 9560 M -85 0 R D 19334 10027 M -85 0 R D
19334 10264 M -85 0 R D 19334 10433 M -85 0 R D 19334 10563 M -85 0 R D
1.000 0.000 0.706 setrgbcolor 15550 9834 M 378 -1 R 379 -32 R 378 -261 R
378 -500 R 379 -679 R 378 -718 R 379 -777 R 258 -881 R D
0.000 0.549 0.000 setrgbcolor 15550 8471 M 378 0 R 379 0 R 378 -12 R
378 -208 R 379 -591 R 378 -677 R 379 -997 R D 0.000 0.514 1.000 setrgbcolor
15550 7440 M 378 0 R 379 0 R 378 0 R 378 -51 R 379 -406 R 378 -592 R
379 -405 R 378 0 R D 0.000 0.000 0.000 setrgbcolor
gsave 18169 9560 translate 0 0 M
(phh4) show grestore 2220 1408 M 4279 0 R D 2714 1408 M 0 183 R D
gsave 2714 880 translate 0 0 M -411.903 0 N
(0.01) show grestore 4942 1408 M 0 183 R D gsave 4942 880 translate 0 0 M
-411.903 0 N
(0.10) show grestore 2220 1408 M 0 92 R D 2369 1408 M 0 92 R D 2498 1408 M
0 92 R D 2612 1408 M 0 92 R D 3385 1408 M 0 92 R D 3777 1408 M 0 92 R D
4055 1408 M 0 92 R D 4271 1408 M 0 92 R D 4448 1408 M 0 92 R D 4597 1408 M
0 92 R D 4726 1408 M 0 92 R D 4840 1408 M 0 92 R D 5612 1408 M 0 92 R D
6004 1408 M 0 92 R D 6283 1408 M 0 92 R D 6499 1408 M 0 92 R D 2220 5986 M
4279 0 R D 2714 5986 M 0 -183 R D 4942 5986 M 0 -183 R D 2220 5986 M 0 -92 R
D 2369 5986 M 0 -92 R D 2498 5986 M 0 -92 R D 2612 5986 M 0 -92 R D
3385 5986 M 0 -92 R D 3777 5986 M 0 -92 R D 4055 5986 M 0 -92 R D
4271 5986 M 0 -92 R D 4448 5986 M 0 -92 R D 4597 5986 M 0 -92 R D
4726 5986 M 0 -92 R D 4840 5986 M 0 -92 R D 5612 5986 M 0 -92 R D
6004 5986 M 0 -92 R D 6283 5986 M 0 -92 R D 6499 5986 M 0 -92 R D
2220 1408 M 0 4578 R D 2220 2350 M 171 0 R D gsave 2109 2209 translate 0 0 M
-470.747 0 N
(10) show grestore 2220 3697 M 171 0 R D gsave 2109 3556 translate 0 0 M
-706.12 0 N
(100) show grestore 2220 5044 M 171 0 R D gsave 2109 4903 translate 0 0 M
-941.493 0 N
(1000) show grestore 2220 1408 M 86 0 R D 2220 1645 M 86 0 R D 2220 1814 M
86 0 R D 2220 1944 M 86 0 R D 2220 2051 M 86 0 R D 2220 2141 M 86 0 R D
2220 2219 M 86 0 R D 2220 2288 M 86 0 R D 2220 2755 M 86 0 R D 2220 2993 M
86 0 R D 2220 3161 M 86 0 R D 2220 3291 M 86 0 R D 2220 3398 M 86 0 R D
2220 3488 M 86 0 R D 2220 3566 M 86 0 R D 2220 3635 M 86 0 R D 2220 4102 M
86 0 R D 2220 4340 M 86 0 R D 2220 4508 M 86 0 R D 2220 4639 M 86 0 R D
2220 4745 M 86 0 R D 2220 4835 M 86 0 R D 2220 4914 M 86 0 R D 2220 4982 M
86 0 R D 2220 5450 M 86 0 R D 2220 5687 M 86 0 R D 2220 5855 M 86 0 R D
2220 5986 M 86 0 R D 6499 1408 M 0 4578 R D 6499 2350 M -172 0 R D
6499 3697 M -172 0 R D 6499 5044 M -172 0 R D 6499 1408 M -86 0 R D
6499 1645 M -86 0 R D 6499 1814 M -86 0 R D 6499 1944 M -86 0 R D
6499 2051 M -86 0 R D 6499 2141 M -86 0 R D 6499 2219 M -86 0 R D
6499 2288 M -86 0 R D 6499 2755 M -86 0 R D 6499 2993 M -86 0 R D
6499 3161 M -86 0 R D 6499 3291 M -86 0 R D 6499 3398 M -86 0 R D
6499 3488 M -86 0 R D 6499 3566 M -86 0 R D 6499 3635 M -86 0 R D
6499 4102 M -86 0 R D 6499 4340 M -86 0 R D 6499 4508 M -86 0 R D
6499 4639 M -86 0 R D 6499 4745 M -86 0 R D 6499 4835 M -86 0 R D
6499 4914 M -86 0 R D 6499 4982 M -86 0 R D 6499 5450 M -86 0 R D
6499 5687 M -86 0 R D 6499 5855 M -86 0 R D 6499 5986 M -86 0 R D
1.000 0.000 0.706 setrgbcolor 3524 5985 M 326 -642 R 378 -765 R 378 -799 R
379 -870 R 378 -621 R 259 -880 R D 0.506 0.000 0.000 setrgbcolor 3524 5985 M
326 -620 R 378 -718 R 378 -737 R 379 -680 R 378 -880 R 379 -942 R D
0.000 0.549 0.000 setrgbcolor 2855 5985 M 238 -96 R 378 -435 R 379 -660 R
378 -689 R 378 -727 R 379 -653 R 378 -674 R 232 -643 R D
0.000 0.514 1.000 setrgbcolor 2714 4481 M 379 -1 R 378 -69 R 379 -367 R
378 -556 R 378 -794 R 379 -750 R 215 -536 R D 0.000 0.000 0.000 setrgbcolor
gsave 5334 4982 translate 0 0 M
(phi2) show grestore 6499 1408 M 4278 0 R D 6993 1408 M 0 183 R D
gsave 6993 880 translate 0 0 M -411.903 0 N
(0.01) show grestore 9220 1408 M 0 183 R D gsave 9220 880 translate 0 0 M
-411.903 0 N
(0.10) show grestore 6499 1408 M 0 92 R D 6648 1408 M 0 92 R D 6777 1408 M
0 92 R D 6891 1408 M 0 92 R D 7663 1408 M 0 92 R D 8056 1408 M 0 92 R D
8334 1408 M 0 92 R D 8550 1408 M 0 92 R D 8726 1408 M 0 92 R D 8875 1408 M
0 92 R D 9004 1408 M 0 92 R D 9118 1408 M 0 92 R D 9891 1408 M 0 92 R D
10283 1408 M 0 92 R D 10561 1408 M 0 92 R D 10777 1408 M 0 92 R D
6499 5986 M 4278 0 R D 6993 5986 M 0 -183 R D 9220 5986 M 0 -183 R D
6499 5986 M 0 -92 R D 6648 5986 M 0 -92 R D 6777 5986 M 0 -92 R D
6891 5986 M 0 -92 R D 7663 5986 M 0 -92 R D 8056 5986 M 0 -92 R D
8334 5986 M 0 -92 R D 8550 5986 M 0 -92 R D 8726 5986 M 0 -92 R D
8875 5986 M 0 -92 R D 9004 5986 M 0 -92 R D 9118 5986 M 0 -92 R D
9891 5986 M 0 -92 R D 10283 5986 M 0 -92 R D 10561 5986 M 0 -92 R D
10777 5986 M 0 -92 R D 6499 1408 M 0 4578 R D 6499 2350 M 171 0 R D
gsave 6388 2209 translate 0 0 M -117.687 0 N
( ) show grestore 6499 3697 M 171 0 R D gsave 6388 3556 translate 0 0 M
-117.687 0 N
( ) show grestore 6499 5044 M 171 0 R D gsave 6388 4903 translate 0 0 M
-117.687 0 N
( ) show grestore 6499 1408 M 85 0 R D 6499 1645 M 85 0 R D 6499 1814 M
85 0 R D 6499 1944 M 85 0 R D 6499 2051 M 85 0 R D 6499 2141 M 85 0 R D
6499 2219 M 85 0 R D 6499 2288 M 85 0 R D 6499 2755 M 85 0 R D 6499 2993 M
85 0 R D 6499 3161 M 85 0 R D 6499 3291 M 85 0 R D 6499 3398 M 85 0 R D
6499 3488 M 85 0 R D 6499 3566 M 85 0 R D 6499 3635 M 85 0 R D 6499 4102 M
85 0 R D 6499 4340 M 85 0 R D 6499 4508 M 85 0 R D 6499 4639 M 85 0 R D
6499 4745 M 85 0 R D 6499 4835 M 85 0 R D 6499 4914 M 85 0 R D 6499 4982 M
85 0 R D 6499 5450 M 85 0 R D 6499 5687 M 85 0 R D 6499 5855 M 85 0 R D
6499 5986 M 85 0 R D 10777 1408 M 0 4578 R D 10777 2350 M -171 0 R D
10777 3697 M -171 0 R D 10777 5044 M -171 0 R D 10777 1408 M -85 0 R D
10777 1645 M -85 0 R D 10777 1814 M -85 0 R D 10777 1944 M -85 0 R D
10777 2051 M -85 0 R D 10777 2141 M -85 0 R D 10777 2219 M -85 0 R D
10777 2288 M -85 0 R D 10777 2755 M -85 0 R D 10777 2993 M -85 0 R D
10777 3161 M -85 0 R D 10777 3291 M -85 0 R D 10777 3398 M -85 0 R D
10777 3488 M -85 0 R D 10777 3566 M -85 0 R D 10777 3635 M -85 0 R D
10777 4102 M -85 0 R D 10777 4340 M -85 0 R D 10777 4508 M -85 0 R D
10777 4639 M -85 0 R D 10777 4745 M -85 0 R D 10777 4835 M -85 0 R D
10777 4914 M -85 0 R D 10777 4982 M -85 0 R D 10777 5450 M -85 0 R D
10777 5687 M -85 0 R D 10777 5855 M -85 0 R D 10777 5986 M -85 0 R D
1.000 0.000 0.706 setrgbcolor 6993 5334 M 378 -2 R 379 -63 R 378 -376 R
378 -555 R 379 -723 R 378 -890 R 379 -584 R 243 -733 R D
0.506 0.000 0.000 setrgbcolor 6993 5254 M 378 0 R 379 -30 R 378 -261 R
378 -562 R 379 -633 R 378 -685 R 379 -795 R 378 -880 R D
0.000 0.549 0.000 setrgbcolor 6993 4295 M 378 0 R 379 0 R 378 -106 R
378 -464 R 379 -536 R 378 -529 R 379 -846 R 189 -406 R D
0.000 0.000 0.000 setrgbcolor gsave 9612 4982 translate 0 0 M
(phi4) show grestore 1.000 0.000 0.706 setrgbcolor 13344 3697 M 86 0 R
85 0 R 86 0 R 85 0 R 86 0 R 86 0 R 85 0 R 86 0 R 85 0 R D
0.506 0.000 0.000 setrgbcolor 13344 3239 M 86 0 R 85 0 R 86 0 R 85 0 R
86 0 R 86 0 R 85 0 R 86 0 R 85 0 R D 0.000 0.549 0.000 setrgbcolor
13344 2781 M 86 0 R 85 0 R 86 0 R 85 0 R 86 0 R 86 0 R 85 0 R 86 0 R 85 0 R
D 0.000 0.514 1.000 setrgbcolor 13344 2324 M 86 0 R 85 0 R 86 0 R 85 0 R
86 0 R 86 0 R 85 0 R 86 0 R 85 0 R D 1.000 0.349 0.000 setrgbcolor
13344 1866 M 86 0 R 85 0 R 86 0 R 85 0 R 86 0 R 86 0 R 85 0 R 86 0 R 85 0 R
D 1.000 0.000 0.706 setrgbcolor gsave 14200 3504 translate 0 0 M
(a=1.000) show grestore 0.506 0.000 0.000 setrgbcolor
gsave 14200 3046 translate 0 0 M
(a=0.781) show grestore 0.000 0.549 0.000 setrgbcolor
gsave 14200 2588 translate 0 0 M
(a=0.547) show grestore 0.000 0.514 1.000 setrgbcolor
gsave 14200 2130 translate 0 0 M
(a=0.343) show grestore 1.000 0.349 0.000 setrgbcolor
gsave 14200 1673 translate 0 0 M
(a=0.193) show grestore
%%PageTrailer
end
%%PageResources: font Helvetica
%%Trailer
%%Pages: 1
%%DocumentNeededResources: font Helvetica
%%EOF
