%!PS-Adobe-3.0 EPSF-3.0
%%BoundingBox: 0 0 566 708
%%Title: Graphics produced by IDL
%%For: daxia@Lserver, /home/daxia/work/phoenix
%%Creator: IDL Version 7.0 (linux x86_64 m64)
%%CreationDate: Sat Apr  9 11:54:19 2011
%%DocumentData: Clean7bit
%%Requirements: color
%%LanguageLevel: 1
%%PageOrder: Ascend
%%Pages: (atend)
%%DocumentNeededResources: (atend)
%%EndComments
%%BeginProlog
%+ prolog.ps -- Prolog for IDL generated PostScript files
%+ Copyright (c) 1988-2007 ITT Visual Information Solutions. All Rights Reserved.
%v 5
/$IDL_DICT 40 dict def $IDL_DICT begin /bdef { bind def } bind def /C
{currentpoint newpath moveto} bdef /CP {currentpoint} bdef /D {currentpoint
stroke moveto} bdef /F {closepath fill} bdef /K { setgray } bdef /M {moveto}
bdef /N {rmoveto} bdef /P {lineto} bdef /R {rlineto} bdef /S {gsave show
grestore} bdef /X {currentpoint pop} bdef /Z {gsave currentpoint lineto 20
setlinewidth 1 setlinecap stroke grestore} bdef /L0 {[] 0 setdash} bdef /L1
{[40 100] 0 setdash} bdef /L2 {[200 200] 0 setdash} bdef /L3 {[200 100 50
100] 0 setdash} bdef /L4 {[300 100 50 100 50 100 50 100] 0 setdash} bdef /L5
{[400 200] 0 setdash} bdef /STDFONT { findfont exch scalefont setfont } bdef
/ISOFONT { findfont dup length dict begin { 1 index /FID ne {def} {pop pop}
ifelse } forall /Encoding ISOLatin1Encoding def currentdict end /idltmpfont
exch definefont exch scalefont setfont } bdef /ISOBULLET { gsave /Helvetica
findfont exch scalefont setfont (\267) show currentpoint grestore moveto}
bdef /MITERLIMIT { 2.5 setmiterlimit } bdef end
%%EndProlog
%%Page: 0 1
%%PageRequirements: color
%%PageResources: (atend)
%%PageOrientation: Portrait
%%PageBoundingBox: 0 0 566 708
%%BeginPageSetup
$IDL_DICT begin 0.0283465 dup scale MITERLIMIT
%%IncludeResource: font Helvetica
423.333 /Helvetica STDFONT
%%EndPageSetup
0.000 0.000 0.000 setrgbcolor gsave 10777 352 translate 0 0 M -420.603 0 N
(r/R) show X -101.051 M
%%IncludeResource: font Helvetica
262.467 /Helvetica STDFONT
(vir) show grestore
%%IncludeResource: font Helvetica
423.333 /Helvetica STDFONT gsave 888 12852 translate 0 0 M 90 rotate
-679.259 0 N
(n\(r/R) show X -101.051 M
%%IncludeResource: font Helvetica
262.467 /Helvetica STDFONT
(vir) show X 0 M
%%IncludeResource: font Helvetica
423.333 /Helvetica STDFONT
(\)) show grestore 40 setlinewidth L0 2220 19719 M 4279 0 R D 3980 19719 M
0 183 R D gsave 3980 19191 translate 0 0 M -58.8433 0 N
( ) show grestore 6499 19719 M 0 183 R D gsave 6499 19191 translate 0 0 M
-58.8433 0 N
( ) show grestore 2220 19719 M 0 91 R D 2664 19719 M 0 91 R D 2978 19719 M
0 91 R D 3222 19719 M 0 91 R D 3422 19719 M 0 91 R D 3590 19719 M 0 91 R D
3736 19719 M 0 91 R D 3865 19719 M 0 91 R D 4738 19719 M 0 91 R D
5182 19719 M 0 91 R D 5496 19719 M 0 91 R D 5741 19719 M 0 91 R D
5940 19719 M 0 91 R D 6109 19719 M 0 91 R D 6255 19719 M 0 91 R D
6383 19719 M 0 91 R D 2220 24296 M 4279 0 R D 3980 24296 M 0 -183 R D
6499 24296 M 0 -183 R D 2220 24296 M 0 -91 R D 2664 24296 M 0 -91 R D
2978 24296 M 0 -91 R D 3222 24296 M 0 -91 R D 3422 24296 M 0 -91 R D
3590 24296 M 0 -91 R D 3736 24296 M 0 -91 R D 3865 24296 M 0 -91 R D
4738 24296 M 0 -91 R D 5182 24296 M 0 -91 R D 5496 24296 M 0 -91 R D
5741 24296 M 0 -91 R D 5940 24296 M 0 -91 R D 6109 24296 M 0 -91 R D
6255 24296 M 0 -91 R D 6383 24296 M 0 -91 R D 2220 19719 M 0 4577 R D
2220 20660 M 171 0 R D gsave 2109 20519 translate 0 0 M -470.747 0 N
(10) show grestore 2220 22007 M 171 0 R D gsave 2109 21867 translate 0 0 M
-706.12 0 N
(100) show grestore 2220 23354 M 171 0 R D gsave 2109 23214 translate 0 0 M
-941.493 0 N
(1000) show grestore 2220 19719 M 86 0 R D 2220 19956 M 86 0 R D
2220 20124 M 86 0 R D 2220 20255 M 86 0 R D 2220 20361 M 86 0 R D
2220 20451 M 86 0 R D 2220 20530 M 86 0 R D 2220 20599 M 86 0 R D
2220 21066 M 86 0 R D 2220 21303 M 86 0 R D 2220 21471 M 86 0 R D
2220 21602 M 86 0 R D 2220 21708 M 86 0 R D 2220 21799 M 86 0 R D
2220 21877 M 86 0 R D 2220 21946 M 86 0 R D 2220 22413 M 86 0 R D
2220 22650 M 86 0 R D 2220 22818 M 86 0 R D 2220 22949 M 86 0 R D
2220 23056 M 86 0 R D 2220 23146 M 86 0 R D 2220 23224 M 86 0 R D
2220 23293 M 86 0 R D 2220 23760 M 86 0 R D 2220 23997 M 86 0 R D
2220 24166 M 86 0 R D 2220 24296 M 86 0 R D 6499 19719 M 0 4577 R D
6499 20660 M -172 0 R D 6499 22007 M -172 0 R D 6499 23354 M -172 0 R D
6499 19719 M -86 0 R D 6499 19956 M -86 0 R D 6499 20124 M -86 0 R D
6499 20255 M -86 0 R D 6499 20361 M -86 0 R D 6499 20451 M -86 0 R D
6499 20530 M -86 0 R D 6499 20599 M -86 0 R D 6499 21066 M -86 0 R D
6499 21303 M -86 0 R D 6499 21471 M -86 0 R D 6499 21602 M -86 0 R D
6499 21708 M -86 0 R D 6499 21799 M -86 0 R D 6499 21877 M -86 0 R D
6499 21946 M -86 0 R D 6499 22413 M -86 0 R D 6499 22650 M -86 0 R D
6499 22818 M -86 0 R D 6499 22949 M -86 0 R D 6499 23056 M -86 0 R D
6499 23146 M -86 0 R D 6499 23224 M -86 0 R D 6499 23293 M -86 0 R D
6499 23760 M -86 0 R D 6499 23997 M -86 0 R D 6499 24166 M -86 0 R D
6499 24296 M -86 0 R D 1.000 0.000 0.706 setrgbcolor 3477 20767 M 503 1006 R
504 520 R 504 665 R 503 504 R 504 308 R 503 -253 R D
0.506 0.000 0.000 setrgbcolor 2971 19718 M 2 1 R 504 880 R 503 573 R
504 952 R 504 591 R 503 638 R 504 408 R 503 -198 R D
0.000 0.549 0.000 setrgbcolor 3980 20857 M 504 745 R 504 772 R 503 751 R
504 554 R 503 -108 R D 0.000 0.514 1.000 setrgbcolor 3477 19719 M 503 0 R
504 405 R 504 942 R 503 818 R 504 700 R 503 -18 R D
1.000 0.349 0.000 setrgbcolor 5491 20255 M 504 196 R 503 362 R D
0.000 0.000 0.000 setrgbcolor gsave 2464 23354 translate 0 0 M
(pha2) show grestore 6499 19719 M 4278 0 R D 8259 19719 M 0 183 R D
gsave 8259 19191 translate 0 0 M -58.8433 0 N
( ) show grestore 10777 19719 M 0 183 R D gsave 10777 19191 translate 0 0 M
-58.8433 0 N
( ) show grestore 6499 19719 M 0 91 R D 6942 19719 M 0 91 R D 7257 19719 M
0 91 R D 7501 19719 M 0 91 R D 7700 19719 M 0 91 R D 7869 19719 M 0 91 R D
8015 19719 M 0 91 R D 8144 19719 M 0 91 R D 9017 19719 M 0 91 R D
9460 19719 M 0 91 R D 9775 19719 M 0 91 R D 10019 19719 M 0 91 R D
10218 19719 M 0 91 R D 10387 19719 M 0 91 R D 10533 19719 M 0 91 R D
10662 19719 M 0 91 R D 6499 24296 M 4278 0 R D 8259 24296 M 0 -183 R D
10777 24296 M 0 -183 R D 6499 24296 M 0 -91 R D 6942 24296 M 0 -91 R D
7257 24296 M 0 -91 R D 7501 24296 M 0 -91 R D 7700 24296 M 0 -91 R D
7869 24296 M 0 -91 R D 8015 24296 M 0 -91 R D 8144 24296 M 0 -91 R D
9017 24296 M 0 -91 R D 9460 24296 M 0 -91 R D 9775 24296 M 0 -91 R D
10019 24296 M 0 -91 R D 10218 24296 M 0 -91 R D 10387 24296 M 0 -91 R D
10533 24296 M 0 -91 R D 10662 24296 M 0 -91 R D 6499 19719 M 0 4577 R D
6499 20660 M 171 0 R D gsave 6388 20519 translate 0 0 M -117.687 0 N
( ) show grestore 6499 22007 M 171 0 R D gsave 6388 21867 translate 0 0 M
-117.687 0 N
( ) show grestore 6499 23354 M 171 0 R D gsave 6388 23214 translate 0 0 M
-117.687 0 N
( ) show grestore 6499 19719 M 85 0 R D 6499 19956 M 85 0 R D 6499 20124 M
85 0 R D 6499 20255 M 85 0 R D 6499 20361 M 85 0 R D 6499 20451 M 85 0 R D
6499 20530 M 85 0 R D 6499 20599 M 85 0 R D 6499 21066 M 85 0 R D
6499 21303 M 85 0 R D 6499 21471 M 85 0 R D 6499 21602 M 85 0 R D
6499 21708 M 85 0 R D 6499 21799 M 85 0 R D 6499 21877 M 85 0 R D
6499 21946 M 85 0 R D 6499 22413 M 85 0 R D 6499 22650 M 85 0 R D
6499 22818 M 85 0 R D 6499 22949 M 85 0 R D 6499 23056 M 85 0 R D
6499 23146 M 85 0 R D 6499 23224 M 85 0 R D 6499 23293 M 85 0 R D
6499 23760 M 85 0 R D 6499 23997 M 85 0 R D 6499 24166 M 85 0 R D
6499 24296 M 85 0 R D 10777 19719 M 0 4577 R D 10777 20660 M -171 0 R D
10777 22007 M -171 0 R D 10777 23354 M -171 0 R D 10777 19719 M -85 0 R D
10777 19956 M -85 0 R D 10777 20124 M -85 0 R D 10777 20255 M -85 0 R D
10777 20361 M -85 0 R D 10777 20451 M -85 0 R D 10777 20530 M -85 0 R D
10777 20599 M -85 0 R D 10777 21066 M -85 0 R D 10777 21303 M -85 0 R D
10777 21471 M -85 0 R D 10777 21602 M -85 0 R D 10777 21708 M -85 0 R D
10777 21799 M -85 0 R D 10777 21877 M -85 0 R D 10777 21946 M -85 0 R D
10777 22413 M -85 0 R D 10777 22650 M -85 0 R D 10777 22818 M -85 0 R D
10777 22949 M -85 0 R D 10777 23056 M -85 0 R D 10777 23146 M -85 0 R D
10777 23224 M -85 0 R D 10777 23293 M -85 0 R D 10777 23760 M -85 0 R D
10777 23997 M -85 0 R D 10777 24166 M -85 0 R D 10777 24296 M -85 0 R D
1.000 0.000 0.706 setrgbcolor 7971 19718 M 288 537 R 503 1008 R 504 649 R
504 535 R 503 376 R 504 -144 R D 0.506 0.000 0.000 setrgbcolor 8072 19718 M
187 238 R 503 643 R 504 842 R 504 763 R 503 491 R 504 -159 R D
0.000 0.549 0.000 setrgbcolor 7755 19719 M 1 -1 R D 8510 19718 M 252 406 R
504 1139 R 504 683 R 503 611 R 504 -57 R D 0.000 0.514 1.000 setrgbcolor
9770 20124 M 503 536 R 504 0 R D 0.000 0.000 0.000 setrgbcolor
gsave 6743 23354 translate 0 0 M
(pha4) show grestore 10777 19719 M 4279 0 R D 12537 19719 M 0 183 R D
gsave 12537 19191 translate 0 0 M -58.8433 0 N
( ) show grestore 15056 19719 M 0 183 R D gsave 15056 19191 translate 0 0 M
-58.8433 0 N
( ) show grestore 10777 19719 M 0 91 R D 11221 19719 M 0 91 R D
11535 19719 M 0 91 R D 11779 19719 M 0 91 R D 11979 19719 M 0 91 R D
12147 19719 M 0 91 R D 12293 19719 M 0 91 R D 12422 19719 M 0 91 R D
13295 19719 M 0 91 R D 13739 19719 M 0 91 R D 14053 19719 M 0 91 R D
14298 19719 M 0 91 R D 14497 19719 M 0 91 R D 14666 19719 M 0 91 R D
14812 19719 M 0 91 R D 14940 19719 M 0 91 R D 10777 24296 M 4279 0 R D
12537 24296 M 0 -183 R D 15056 24296 M 0 -183 R D 10777 24296 M 0 -91 R D
11221 24296 M 0 -91 R D 11535 24296 M 0 -91 R D 11779 24296 M 0 -91 R D
11979 24296 M 0 -91 R D 12147 24296 M 0 -91 R D 12293 24296 M 0 -91 R D
12422 24296 M 0 -91 R D 13295 24296 M 0 -91 R D 13739 24296 M 0 -91 R D
14053 24296 M 0 -91 R D 14298 24296 M 0 -91 R D 14497 24296 M 0 -91 R D
14666 24296 M 0 -91 R D 14812 24296 M 0 -91 R D 14940 24296 M 0 -91 R D
10777 19719 M 0 4577 R D 10777 20660 M 171 0 R D
gsave 10666 20519 translate 0 0 M -117.687 0 N
( ) show grestore 10777 22007 M 171 0 R D gsave 10666 21867 translate 0 0 M
-117.687 0 N
( ) show grestore 10777 23354 M 171 0 R D gsave 10666 23214 translate 0 0 M
-117.687 0 N
( ) show grestore 10777 19719 M 86 0 R D 10777 19956 M 86 0 R D
10777 20124 M 86 0 R D 10777 20255 M 86 0 R D 10777 20361 M 86 0 R D
10777 20451 M 86 0 R D 10777 20530 M 86 0 R D 10777 20599 M 86 0 R D
10777 21066 M 86 0 R D 10777 21303 M 86 0 R D 10777 21471 M 86 0 R D
10777 21602 M 86 0 R D 10777 21708 M 86 0 R D 10777 21799 M 86 0 R D
10777 21877 M 86 0 R D 10777 21946 M 86 0 R D 10777 22413 M 86 0 R D
10777 22650 M 86 0 R D 10777 22818 M 86 0 R D 10777 22949 M 86 0 R D
10777 23056 M 86 0 R D 10777 23146 M 86 0 R D 10777 23224 M 86 0 R D
10777 23293 M 86 0 R D 10777 23760 M 86 0 R D 10777 23997 M 86 0 R D
10777 24166 M 86 0 R D 10777 24296 M 86 0 R D 15056 19719 M 0 4577 R D
15056 20660 M -172 0 R D 15056 22007 M -172 0 R D 15056 23354 M -172 0 R D
15056 19719 M -86 0 R D 15056 19956 M -86 0 R D 15056 20124 M -86 0 R D
15056 20255 M -86 0 R D 15056 20361 M -86 0 R D 15056 20451 M -86 0 R D
15056 20530 M -86 0 R D 15056 20599 M -86 0 R D 15056 21066 M -86 0 R D
15056 21303 M -86 0 R D 15056 21471 M -86 0 R D 15056 21602 M -86 0 R D
15056 21708 M -86 0 R D 15056 21799 M -86 0 R D 15056 21877 M -86 0 R D
15056 21946 M -86 0 R D 15056 22413 M -86 0 R D 15056 22650 M -86 0 R D
15056 22818 M -86 0 R D 15056 22949 M -86 0 R D 15056 23056 M -86 0 R D
15056 23146 M -86 0 R D 15056 23224 M -86 0 R D 15056 23293 M -86 0 R D
15056 23760 M -86 0 R D 15056 23997 M -86 0 R D 15056 24166 M -86 0 R D
15056 24296 M -86 0 R D 1.000 0.000 0.706 setrgbcolor 11026 19719 M
504 732 R 504 768 R 503 752 R 504 639 R 504 547 R 503 484 R 504 420 R
503 -226 R D 0.000 0.549 0.000 setrgbcolor 12034 19719 M 503 811 R 504 896 R
504 748 R 503 637 R 504 607 R 503 -39 R D 0.000 0.514 1.000 setrgbcolor
12854 19718 M 187 238 R 504 1191 R 503 878 R 504 601 R 503 107 R D
0.000 0.000 0.000 setrgbcolor gsave 11021 23354 translate 0 0 M
(phb2) show grestore 15056 19719 M 4278 0 R D 16816 19719 M 0 183 R D
gsave 16816 19191 translate 0 0 M -58.8433 0 N
( ) show grestore 19334 19719 M 0 183 R D gsave 19334 19191 translate 0 0 M
-58.8433 0 N
( ) show grestore 15056 19719 M 0 91 R D 15499 19719 M 0 91 R D
15814 19719 M 0 91 R D 16058 19719 M 0 91 R D 16257 19719 M 0 91 R D
16426 19719 M 0 91 R D 16572 19719 M 0 91 R D 16701 19719 M 0 91 R D
17574 19719 M 0 91 R D 18017 19719 M 0 91 R D 18332 19719 M 0 91 R D
18576 19719 M 0 91 R D 18775 19719 M 0 91 R D 18944 19719 M 0 91 R D
19090 19719 M 0 91 R D 19219 19719 M 0 91 R D 15056 24296 M 4278 0 R D
16816 24296 M 0 -183 R D 19334 24296 M 0 -183 R D 15056 24296 M 0 -91 R D
15499 24296 M 0 -91 R D 15814 24296 M 0 -91 R D 16058 24296 M 0 -91 R D
16257 24296 M 0 -91 R D 16426 24296 M 0 -91 R D 16572 24296 M 0 -91 R D
16701 24296 M 0 -91 R D 17574 24296 M 0 -91 R D 18017 24296 M 0 -91 R D
18332 24296 M 0 -91 R D 18576 24296 M 0 -91 R D 18775 24296 M 0 -91 R D
18944 24296 M 0 -91 R D 19090 24296 M 0 -91 R D 19219 24296 M 0 -91 R D
15056 19719 M 0 4577 R D 15056 20660 M 171 0 R D
gsave 14945 20519 translate 0 0 M -117.687 0 N
( ) show grestore 15056 22007 M 171 0 R D gsave 14945 21867 translate 0 0 M
-117.687 0 N
( ) show grestore 15056 23354 M 171 0 R D gsave 14945 23214 translate 0 0 M
-117.687 0 N
( ) show grestore 15056 19719 M 85 0 R D 15056 19956 M 85 0 R D
15056 20124 M 85 0 R D 15056 20255 M 85 0 R D 15056 20361 M 85 0 R D
15056 20451 M 85 0 R D 15056 20530 M 85 0 R D 15056 20599 M 85 0 R D
15056 21066 M 85 0 R D 15056 21303 M 85 0 R D 15056 21471 M 85 0 R D
15056 21602 M 85 0 R D 15056 21708 M 85 0 R D 15056 21799 M 85 0 R D
15056 21877 M 85 0 R D 15056 21946 M 85 0 R D 15056 22413 M 85 0 R D
15056 22650 M 85 0 R D 15056 22818 M 85 0 R D 15056 22949 M 85 0 R D
15056 23056 M 85 0 R D 15056 23146 M 85 0 R D 15056 23224 M 85 0 R D
15056 23293 M 85 0 R D 15056 23760 M 85 0 R D 15056 23997 M 85 0 R D
15056 24166 M 85 0 R D 15056 24296 M 85 0 R D 19334 19719 M 0 4577 R D
19334 20660 M -171 0 R D 19334 22007 M -171 0 R D 19334 23354 M -171 0 R D
19334 19719 M -85 0 R D 19334 19956 M -85 0 R D 19334 20124 M -85 0 R D
19334 20255 M -85 0 R D 19334 20361 M -85 0 R D 19334 20451 M -85 0 R D
19334 20530 M -85 0 R D 19334 20599 M -85 0 R D 19334 21066 M -85 0 R D
19334 21303 M -85 0 R D 19334 21471 M -85 0 R D 19334 21602 M -85 0 R D
19334 21708 M -85 0 R D 19334 21799 M -85 0 R D 19334 21877 M -85 0 R D
19334 21946 M -85 0 R D 19334 22413 M -85 0 R D 19334 22650 M -85 0 R D
19334 22818 M -85 0 R D 19334 22949 M -85 0 R D 19334 23056 M -85 0 R D
19334 23146 M -85 0 R D 19334 23224 M -85 0 R D 19334 23293 M -85 0 R D
19334 23760 M -85 0 R D 19334 23997 M -85 0 R D 19334 24166 M -85 0 R D
19334 24296 M -85 0 R D 1.000 0.000 0.706 setrgbcolor 16506 19718 M
310 643 R 503 1192 R 504 494 R 504 581 R 503 516 R 504 -185 R D
0.506 0.000 0.000 setrgbcolor 16816 19719 M 503 642 R 504 299 R 504 987 R
503 378 R 504 0 R D 0.000 0.549 0.000 setrgbcolor 17319 19956 M 504 299 R
504 892 R 503 521 R 504 186 R D 0.000 0.000 0.000 setrgbcolor
gsave 15300 23354 translate 0 0 M
(phb4) show grestore 2220 15141 M 4279 0 R D 3980 15141 M 0 183 R D
gsave 3980 14613 translate 0 0 M -58.8433 0 N
( ) show grestore 6499 15141 M 0 183 R D gsave 6499 14613 translate 0 0 M
-58.8433 0 N
( ) show grestore 2220 15141 M 0 91 R D 2664 15141 M 0 91 R D 2978 15141 M
0 91 R D 3222 15141 M 0 91 R D 3422 15141 M 0 91 R D 3590 15141 M 0 91 R D
3736 15141 M 0 91 R D 3865 15141 M 0 91 R D 4738 15141 M 0 91 R D
5182 15141 M 0 91 R D 5496 15141 M 0 91 R D 5741 15141 M 0 91 R D
5940 15141 M 0 91 R D 6109 15141 M 0 91 R D 6255 15141 M 0 91 R D
6383 15141 M 0 91 R D 2220 19719 M 4279 0 R D 3980 19719 M 0 -184 R D
6499 19719 M 0 -184 R D 2220 19719 M 0 -92 R D 2664 19719 M 0 -92 R D
2978 19719 M 0 -92 R D 3222 19719 M 0 -92 R D 3422 19719 M 0 -92 R D
3590 19719 M 0 -92 R D 3736 19719 M 0 -92 R D 3865 19719 M 0 -92 R D
4738 19719 M 0 -92 R D 5182 19719 M 0 -92 R D 5496 19719 M 0 -92 R D
5741 19719 M 0 -92 R D 5940 19719 M 0 -92 R D 6109 19719 M 0 -92 R D
6255 19719 M 0 -92 R D 6383 19719 M 0 -92 R D 2220 15141 M 0 4578 R D
2220 16083 M 171 0 R D gsave 2109 15942 translate 0 0 M -470.747 0 N
(10) show grestore 2220 17430 M 171 0 R D gsave 2109 17289 translate 0 0 M
-706.12 0 N
(100) show grestore 2220 18777 M 171 0 R D gsave 2109 18636 translate 0 0 M
-941.493 0 N
(1000) show grestore 2220 15141 M 86 0 R D 2220 15378 M 86 0 R D
2220 15546 M 86 0 R D 2220 15677 M 86 0 R D 2220 15784 M 86 0 R D
2220 15874 M 86 0 R D 2220 15952 M 86 0 R D 2220 16021 M 86 0 R D
2220 16488 M 86 0 R D 2220 16725 M 86 0 R D 2220 16894 M 86 0 R D
2220 17024 M 86 0 R D 2220 17131 M 86 0 R D 2220 17221 M 86 0 R D
2220 17299 M 86 0 R D 2220 17368 M 86 0 R D 2220 17835 M 86 0 R D
2220 18072 M 86 0 R D 2220 18241 M 86 0 R D 2220 18371 M 86 0 R D
2220 18478 M 86 0 R D 2220 18568 M 86 0 R D 2220 18646 M 86 0 R D
2220 18715 M 86 0 R D 2220 19182 M 86 0 R D 2220 19420 M 86 0 R D
2220 19588 M 86 0 R D 2220 19719 M 86 0 R D 6499 15141 M 0 4578 R D
6499 16083 M -172 0 R D 6499 17430 M -172 0 R D 6499 18777 M -172 0 R D
6499 15141 M -86 0 R D 6499 15378 M -86 0 R D 6499 15546 M -86 0 R D
6499 15677 M -86 0 R D 6499 15784 M -86 0 R D 6499 15874 M -86 0 R D
6499 15952 M -86 0 R D 6499 16021 M -86 0 R D 6499 16488 M -86 0 R D
6499 16725 M -86 0 R D 6499 16894 M -86 0 R D 6499 17024 M -86 0 R D
6499 17131 M -86 0 R D 6499 17221 M -86 0 R D 6499 17299 M -86 0 R D
6499 17368 M -86 0 R D 6499 17835 M -86 0 R D 6499 18072 M -86 0 R D
6499 18241 M -86 0 R D 6499 18371 M -86 0 R D 6499 18478 M -86 0 R D
6499 18568 M -86 0 R D 6499 18646 M -86 0 R D 6499 18715 M -86 0 R D
6499 19182 M -86 0 R D 6499 19420 M -86 0 R D 6499 19588 M -86 0 R D
6499 19719 M -86 0 R D 1.000 0.000 0.706 setrgbcolor 2973 15546 M 504 690 R
503 875 R 504 756 R 504 671 R 503 587 R 504 376 R 503 -222 R D
0.506 0.000 0.000 setrgbcolor 3477 15952 M 503 441 R 504 748 R 504 723 R
503 611 R 504 468 R 503 -13 R D 0.000 0.549 0.000 setrgbcolor 3477 15378 M
503 168 R 504 942 R 504 853 R 503 706 R 504 506 R 503 -6 R D
0.000 0.514 1.000 setrgbcolor 3728 15140 M 252 406 R 504 812 R 504 837 R
503 660 R 504 600 R 503 -70 R D 0.000 0.000 0.000 setrgbcolor
gsave 2464 18777 translate 0 0 M
(phc2) show grestore 6499 15141 M 4278 0 R D 8259 15141 M 0 183 R D
gsave 8259 14613 translate 0 0 M -58.8433 0 N
( ) show grestore 10777 15141 M 0 183 R D gsave 10777 14613 translate 0 0 M
-58.8433 0 N
( ) show grestore 6499 15141 M 0 91 R D 6942 15141 M 0 91 R D 7257 15141 M
0 91 R D 7501 15141 M 0 91 R D 7700 15141 M 0 91 R D 7869 15141 M 0 91 R D
8015 15141 M 0 91 R D 8144 15141 M 0 91 R D 9017 15141 M 0 91 R D
9460 15141 M 0 91 R D 9775 15141 M 0 91 R D 10019 15141 M 0 91 R D
10218 15141 M 0 91 R D 10387 15141 M 0 91 R D 10533 15141 M 0 91 R D
10662 15141 M 0 91 R D 6499 19719 M 4278 0 R D 8259 19719 M 0 -184 R D
10777 19719 M 0 -184 R D 6499 19719 M 0 -92 R D 6942 19719 M 0 -92 R D
7257 19719 M 0 -92 R D 7501 19719 M 0 -92 R D 7700 19719 M 0 -92 R D
7869 19719 M 0 -92 R D 8015 19719 M 0 -92 R D 8144 19719 M 0 -92 R D
9017 19719 M 0 -92 R D 9460 19719 M 0 -92 R D 9775 19719 M 0 -92 R D
10019 19719 M 0 -92 R D 10218 19719 M 0 -92 R D 10387 19719 M 0 -92 R D
10533 19719 M 0 -92 R D 10662 19719 M 0 -92 R D 6499 15141 M 0 4578 R D
6499 16083 M 171 0 R D gsave 6388 15942 translate 0 0 M -117.687 0 N
( ) show grestore 6499 17430 M 171 0 R D gsave 6388 17289 translate 0 0 M
-117.687 0 N
( ) show grestore 6499 18777 M 171 0 R D gsave 6388 18636 translate 0 0 M
-117.687 0 N
( ) show grestore 6499 15141 M 85 0 R D 6499 15378 M 85 0 R D 6499 15546 M
85 0 R D 6499 15677 M 85 0 R D 6499 15784 M 85 0 R D 6499 15874 M 85 0 R D
6499 15952 M 85 0 R D 6499 16021 M 85 0 R D 6499 16488 M 85 0 R D
6499 16725 M 85 0 R D 6499 16894 M 85 0 R D 6499 17024 M 85 0 R D
6499 17131 M 85 0 R D 6499 17221 M 85 0 R D 6499 17299 M 85 0 R D
6499 17368 M 85 0 R D 6499 17835 M 85 0 R D 6499 18072 M 85 0 R D
6499 18241 M 85 0 R D 6499 18371 M 85 0 R D 6499 18478 M 85 0 R D
6499 18568 M 85 0 R D 6499 18646 M 85 0 R D 6499 18715 M 85 0 R D
6499 19182 M 85 0 R D 6499 19420 M 85 0 R D 6499 19588 M 85 0 R D
6499 19719 M 85 0 R D 10777 15141 M 0 4578 R D 10777 16083 M -171 0 R D
10777 17430 M -171 0 R D 10777 18777 M -171 0 R D 10777 15141 M -85 0 R D
10777 15378 M -85 0 R D 10777 15546 M -85 0 R D 10777 15677 M -85 0 R D
10777 15784 M -85 0 R D 10777 15874 M -85 0 R D 10777 15952 M -85 0 R D
10777 16021 M -85 0 R D 10777 16488 M -85 0 R D 10777 16725 M -85 0 R D
10777 16894 M -85 0 R D 10777 17024 M -85 0 R D 10777 17131 M -85 0 R D
10777 17221 M -85 0 R D 10777 17299 M -85 0 R D 10777 17368 M -85 0 R D
10777 17835 M -85 0 R D 10777 18072 M -85 0 R D 10777 18241 M -85 0 R D
10777 18371 M -85 0 R D 10777 18478 M -85 0 R D 10777 18568 M -85 0 R D
10777 18646 M -85 0 R D 10777 18715 M -85 0 R D 10777 19182 M -85 0 R D
10777 19420 M -85 0 R D 10777 19588 M -85 0 R D 10777 19719 M -85 0 R D
1.000 0.000 0.706 setrgbcolor 7755 15141 M 504 405 R 503 812 R 504 956 R
504 686 R 503 509 R 504 -153 R D 0.506 0.000 0.000 setrgbcolor 8762 15677 M
504 867 R 504 525 R 503 685 R 504 13 R D 0.000 0.549 0.000 setrgbcolor
9266 15784 M 504 452 R 503 788 R 504 -225 R D 0.000 0.514 1.000 setrgbcolor
9770 16021 M 503 337 R 504 186 R D 0.000 0.000 0.000 setrgbcolor
gsave 6743 18777 translate 0 0 M
(phc4) show grestore 10777 15141 M 4279 0 R D 12537 15141 M 0 183 R D
gsave 12537 14613 translate 0 0 M -58.8433 0 N
( ) show grestore 15056 15141 M 0 183 R D gsave 15056 14613 translate 0 0 M
-58.8433 0 N
( ) show grestore 10777 15141 M 0 91 R D 11221 15141 M 0 91 R D
11535 15141 M 0 91 R D 11779 15141 M 0 91 R D 11979 15141 M 0 91 R D
12147 15141 M 0 91 R D 12293 15141 M 0 91 R D 12422 15141 M 0 91 R D
13295 15141 M 0 91 R D 13739 15141 M 0 91 R D 14053 15141 M 0 91 R D
14298 15141 M 0 91 R D 14497 15141 M 0 91 R D 14666 15141 M 0 91 R D
14812 15141 M 0 91 R D 14940 15141 M 0 91 R D 10777 19719 M 4279 0 R D
12537 19719 M 0 -184 R D 15056 19719 M 0 -184 R D 10777 19719 M 0 -92 R D
11221 19719 M 0 -92 R D 11535 19719 M 0 -92 R D 11779 19719 M 0 -92 R D
11979 19719 M 0 -92 R D 12147 19719 M 0 -92 R D 12293 19719 M 0 -92 R D
12422 19719 M 0 -92 R D 13295 19719 M 0 -92 R D 13739 19719 M 0 -92 R D
14053 19719 M 0 -92 R D 14298 19719 M 0 -92 R D 14497 19719 M 0 -92 R D
14666 19719 M 0 -92 R D 14812 19719 M 0 -92 R D 14940 19719 M 0 -92 R D
10777 15141 M 0 4578 R D 10777 16083 M 171 0 R D
gsave 10666 15942 translate 0 0 M -117.687 0 N
( ) show grestore 10777 17430 M 171 0 R D gsave 10666 17289 translate 0 0 M
-117.687 0 N
( ) show grestore 10777 18777 M 171 0 R D gsave 10666 18636 translate 0 0 M
-117.687 0 N
( ) show grestore 10777 15141 M 86 0 R D 10777 15378 M 86 0 R D
10777 15546 M 86 0 R D 10777 15677 M 86 0 R D 10777 15784 M 86 0 R D
10777 15874 M 86 0 R D 10777 15952 M 86 0 R D 10777 16021 M 86 0 R D
10777 16488 M 86 0 R D 10777 16725 M 86 0 R D 10777 16894 M 86 0 R D
10777 17024 M 86 0 R D 10777 17131 M 86 0 R D 10777 17221 M 86 0 R D
10777 17299 M 86 0 R D 10777 17368 M 86 0 R D 10777 17835 M 86 0 R D
10777 18072 M 86 0 R D 10777 18241 M 86 0 R D 10777 18371 M 86 0 R D
10777 18478 M 86 0 R D 10777 18568 M 86 0 R D 10777 18646 M 86 0 R D
10777 18715 M 86 0 R D 10777 19182 M 86 0 R D 10777 19420 M 86 0 R D
10777 19588 M 86 0 R D 10777 19719 M 86 0 R D 15056 15141 M 0 4578 R D
15056 16083 M -172 0 R D 15056 17430 M -172 0 R D 15056 18777 M -172 0 R D
15056 15141 M -86 0 R D 15056 15378 M -86 0 R D 15056 15546 M -86 0 R D
15056 15677 M -86 0 R D 15056 15784 M -86 0 R D 15056 15874 M -86 0 R D
15056 15952 M -86 0 R D 15056 16021 M -86 0 R D 15056 16488 M -86 0 R D
15056 16725 M -86 0 R D 15056 16894 M -86 0 R D 15056 17024 M -86 0 R D
15056 17131 M -86 0 R D 15056 17221 M -86 0 R D 15056 17299 M -86 0 R D
15056 17368 M -86 0 R D 15056 17835 M -86 0 R D 15056 18072 M -86 0 R D
15056 18241 M -86 0 R D 15056 18371 M -86 0 R D 15056 18478 M -86 0 R D
15056 18568 M -86 0 R D 15056 18646 M -86 0 R D 15056 18715 M -86 0 R D
15056 19182 M -86 0 R D 15056 19420 M -86 0 R D 15056 19588 M -86 0 R D
15056 19719 M -86 0 R D 1.000 0.000 0.706 setrgbcolor 10777 15144 M
249 402 R 504 406 R 504 733 R 503 861 R 504 612 R 504 561 R 503 444 R
504 324 R 503 -297 R D 0.506 0.000 0.000 setrgbcolor 11528 15140 M 2 1 R
504 1252 R 503 718 R 504 831 R 504 584 R 503 505 R 504 361 R 503 -150 R D
0.000 0.549 0.000 setrgbcolor 12034 15677 M 503 461 R 504 1040 R 504 744 R
503 650 R 504 507 R 503 -86 R D 0.000 0.514 1.000 setrgbcolor 13041 15546 M
504 238 R 503 642 R 504 705 R 503 209 R D 0.000 0.000 0.000 setrgbcolor
gsave 11021 18777 translate 0 0 M
(phd2) show grestore 15056 15141 M 4278 0 R D 16816 15141 M 0 183 R D
gsave 16816 14613 translate 0 0 M -58.8433 0 N
( ) show grestore 19334 15141 M 0 183 R D gsave 19334 14613 translate 0 0 M
-58.8433 0 N
( ) show grestore 15056 15141 M 0 91 R D 15499 15141 M 0 91 R D
15814 15141 M 0 91 R D 16058 15141 M 0 91 R D 16257 15141 M 0 91 R D
16426 15141 M 0 91 R D 16572 15141 M 0 91 R D 16701 15141 M 0 91 R D
17574 15141 M 0 91 R D 18017 15141 M 0 91 R D 18332 15141 M 0 91 R D
18576 15141 M 0 91 R D 18775 15141 M 0 91 R D 18944 15141 M 0 91 R D
19090 15141 M 0 91 R D 19219 15141 M 0 91 R D 15056 19719 M 4278 0 R D
16816 19719 M 0 -184 R D 19334 19719 M 0 -184 R D 15056 19719 M 0 -92 R D
15499 19719 M 0 -92 R D 15814 19719 M 0 -92 R D 16058 19719 M 0 -92 R D
16257 19719 M 0 -92 R D 16426 19719 M 0 -92 R D 16572 19719 M 0 -92 R D
16701 19719 M 0 -92 R D 17574 19719 M 0 -92 R D 18017 19719 M 0 -92 R D
18332 19719 M 0 -92 R D 18576 19719 M 0 -92 R D 18775 19719 M 0 -92 R D
18944 19719 M 0 -92 R D 19090 19719 M 0 -92 R D 19219 19719 M 0 -92 R D
15056 15141 M 0 4578 R D 15056 16083 M 171 0 R D
gsave 14945 15942 translate 0 0 M -117.687 0 N
( ) show grestore 15056 17430 M 171 0 R D gsave 14945 17289 translate 0 0 M
-117.687 0 N
( ) show grestore 15056 18777 M 171 0 R D gsave 14945 18636 translate 0 0 M
-117.687 0 N
( ) show grestore 15056 15141 M 85 0 R D 15056 15378 M 85 0 R D
15056 15546 M 85 0 R D 15056 15677 M 85 0 R D 15056 15784 M 85 0 R D
15056 15874 M 85 0 R D 15056 15952 M 85 0 R D 15056 16021 M 85 0 R D
15056 16488 M 85 0 R D 15056 16725 M 85 0 R D 15056 16894 M 85 0 R D
15056 17024 M 85 0 R D 15056 17131 M 85 0 R D 15056 17221 M 85 0 R D
15056 17299 M 85 0 R D 15056 17368 M 85 0 R D 15056 17835 M 85 0 R D
15056 18072 M 85 0 R D 15056 18241 M 85 0 R D 15056 18371 M 85 0 R D
15056 18478 M 85 0 R D 15056 18568 M 85 0 R D 15056 18646 M 85 0 R D
15056 18715 M 85 0 R D 15056 19182 M 85 0 R D 15056 19420 M 85 0 R D
15056 19588 M 85 0 R D 15056 19719 M 85 0 R D 19334 15141 M 0 4578 R D
19334 16083 M -171 0 R D 19334 17430 M -171 0 R D 19334 18777 M -171 0 R D
19334 15141 M -85 0 R D 19334 15378 M -85 0 R D 19334 15546 M -85 0 R D
19334 15677 M -85 0 R D 19334 15784 M -85 0 R D 19334 15874 M -85 0 R D
19334 15952 M -85 0 R D 19334 16021 M -85 0 R D 19334 16488 M -85 0 R D
19334 16725 M -85 0 R D 19334 16894 M -85 0 R D 19334 17024 M -85 0 R D
19334 17131 M -85 0 R D 19334 17221 M -85 0 R D 19334 17299 M -85 0 R D
19334 17368 M -85 0 R D 19334 17835 M -85 0 R D 19334 18072 M -85 0 R D
19334 18241 M -85 0 R D 19334 18371 M -85 0 R D 19334 18478 M -85 0 R D
19334 18568 M -85 0 R D 19334 18646 M -85 0 R D 19334 18715 M -85 0 R D
19334 19182 M -85 0 R D 19334 19420 M -85 0 R D 19334 19588 M -85 0 R D
19334 19719 M -85 0 R D 1.000 0.000 0.706 setrgbcolor 16312 15141 M
504 997 R 503 811 R 504 582 R 504 526 R 503 432 R 504 -234 R D
0.506 0.000 0.000 setrgbcolor 16816 15677 M 503 867 R 504 694 R 504 509 R
503 531 R 504 -92 R D 0.000 0.549 0.000 setrgbcolor 16312 15141 M 504 0 R
503 237 R 504 705 R 504 964 R 503 494 R 504 -19 R D
0.000 0.000 0.000 setrgbcolor gsave 15300 18777 translate 0 0 M
(phd4) show grestore 2220 10563 M 4279 0 R D 3980 10563 M 0 183 R D
gsave 3980 10035 translate 0 0 M -58.8433 0 N
( ) show grestore 6499 10563 M 0 183 R D gsave 6499 10035 translate 0 0 M
-58.8433 0 N
( ) show grestore 2220 10563 M 0 92 R D 2664 10563 M 0 92 R D 2978 10563 M
0 92 R D 3222 10563 M 0 92 R D 3422 10563 M 0 92 R D 3590 10563 M 0 92 R D
3736 10563 M 0 92 R D 3865 10563 M 0 92 R D 4738 10563 M 0 92 R D
5182 10563 M 0 92 R D 5496 10563 M 0 92 R D 5741 10563 M 0 92 R D
5940 10563 M 0 92 R D 6109 10563 M 0 92 R D 6255 10563 M 0 92 R D
6383 10563 M 0 92 R D 2220 15141 M 4279 0 R D 3980 15141 M 0 -183 R D
6499 15141 M 0 -183 R D 2220 15141 M 0 -92 R D 2664 15141 M 0 -92 R D
2978 15141 M 0 -92 R D 3222 15141 M 0 -92 R D 3422 15141 M 0 -92 R D
3590 15141 M 0 -92 R D 3736 15141 M 0 -92 R D 3865 15141 M 0 -92 R D
4738 15141 M 0 -92 R D 5182 15141 M 0 -92 R D 5496 15141 M 0 -92 R D
5741 15141 M 0 -92 R D 5940 15141 M 0 -92 R D 6109 15141 M 0 -92 R D
6255 15141 M 0 -92 R D 6383 15141 M 0 -92 R D 2220 10563 M 0 4578 R D
2220 11505 M 171 0 R D gsave 2109 11364 translate 0 0 M -470.747 0 N
(10) show grestore 2220 12852 M 171 0 R D gsave 2109 12711 translate 0 0 M
-706.12 0 N
(100) show grestore 2220 14199 M 171 0 R D gsave 2109 14058 translate 0 0 M
-941.493 0 N
(1000) show grestore 2220 10563 M 86 0 R D 2220 10801 M 86 0 R D
2220 10969 M 86 0 R D 2220 11099 M 86 0 R D 2220 11206 M 86 0 R D
2220 11296 M 86 0 R D 2220 11374 M 86 0 R D 2220 11443 M 86 0 R D
2220 11910 M 86 0 R D 2220 12148 M 86 0 R D 2220 12316 M 86 0 R D
2220 12447 M 86 0 R D 2220 12553 M 86 0 R D 2220 12643 M 86 0 R D
2220 12722 M 86 0 R D 2220 12790 M 86 0 R D 2220 13258 M 86 0 R D
2220 13495 M 86 0 R D 2220 13663 M 86 0 R D 2220 13794 M 86 0 R D
2220 13900 M 86 0 R D 2220 13991 M 86 0 R D 2220 14069 M 86 0 R D
2220 14138 M 86 0 R D 2220 14605 M 86 0 R D 2220 14842 M 86 0 R D
2220 15010 M 86 0 R D 2220 15141 M 86 0 R D 6499 10563 M 0 4578 R D
6499 11505 M -172 0 R D 6499 12852 M -172 0 R D 6499 14199 M -172 0 R D
6499 10563 M -86 0 R D 6499 10801 M -86 0 R D 6499 10969 M -86 0 R D
6499 11099 M -86 0 R D 6499 11206 M -86 0 R D 6499 11296 M -86 0 R D
6499 11374 M -86 0 R D 6499 11443 M -86 0 R D 6499 11910 M -86 0 R D
6499 12148 M -86 0 R D 6499 12316 M -86 0 R D 6499 12447 M -86 0 R D
6499 12553 M -86 0 R D 6499 12643 M -86 0 R D 6499 12722 M -86 0 R D
6499 12790 M -86 0 R D 6499 13258 M -86 0 R D 6499 13495 M -86 0 R D
6499 13663 M -86 0 R D 6499 13794 M -86 0 R D 6499 13900 M -86 0 R D
6499 13991 M -86 0 R D 6499 14069 M -86 0 R D 6499 14138 M -86 0 R D
6499 14605 M -86 0 R D 6499 14842 M -86 0 R D 6499 15010 M -86 0 R D
6499 15141 M -86 0 R D 1.000 0.000 0.706 setrgbcolor 2627 10563 M 346 880 R
504 598 R 503 709 R 504 659 R 504 512 R 503 445 R 504 401 R 503 -139 R D
0.506 0.000 0.000 setrgbcolor 3140 10563 M 337 811 R 503 864 R 504 670 R
504 653 R 503 604 R 504 488 R 503 -138 R D 0.000 0.549 0.000 setrgbcolor
3140 10563 M 337 811 R 503 565 R 504 883 R 504 554 R 503 572 R 504 482 R
503 -137 R D 0.000 0.514 1.000 setrgbcolor 4484 10563 M 504 1317 R 503 643 R
504 702 R 503 79 R D 0.000 0.000 0.000 setrgbcolor
gsave 2464 14199 translate 0 0 M
(phe2) show grestore 6499 10563 M 4278 0 R D 8259 10563 M 0 183 R D
gsave 8259 10035 translate 0 0 M -58.8433 0 N
( ) show grestore 10777 10563 M 0 183 R D gsave 10777 10035 translate 0 0 M
-58.8433 0 N
( ) show grestore 6499 10563 M 0 92 R D 6942 10563 M 0 92 R D 7257 10563 M
0 92 R D 7501 10563 M 0 92 R D 7700 10563 M 0 92 R D 7869 10563 M 0 92 R D
8015 10563 M 0 92 R D 8144 10563 M 0 92 R D 9017 10563 M 0 92 R D
9460 10563 M 0 92 R D 9775 10563 M 0 92 R D 10019 10563 M 0 92 R D
10218 10563 M 0 92 R D 10387 10563 M 0 92 R D 10533 10563 M 0 92 R D
10662 10563 M 0 92 R D 6499 15141 M 4278 0 R D 8259 15141 M 0 -183 R D
10777 15141 M 0 -183 R D 6499 15141 M 0 -92 R D 6942 15141 M 0 -92 R D
7257 15141 M 0 -92 R D 7501 15141 M 0 -92 R D 7700 15141 M 0 -92 R D
7869 15141 M 0 -92 R D 8015 15141 M 0 -92 R D 8144 15141 M 0 -92 R D
9017 15141 M 0 -92 R D 9460 15141 M 0 -92 R D 9775 15141 M 0 -92 R D
10019 15141 M 0 -92 R D 10218 15141 M 0 -92 R D 10387 15141 M 0 -92 R D
10533 15141 M 0 -92 R D 10662 15141 M 0 -92 R D 6499 10563 M 0 4578 R D
6499 11505 M 171 0 R D gsave 6388 11364 translate 0 0 M -117.687 0 N
( ) show grestore 6499 12852 M 171 0 R D gsave 6388 12711 translate 0 0 M
-117.687 0 N
( ) show grestore 6499 14199 M 171 0 R D gsave 6388 14058 translate 0 0 M
-117.687 0 N
( ) show grestore 6499 10563 M 85 0 R D 6499 10801 M 85 0 R D 6499 10969 M
85 0 R D 6499 11099 M 85 0 R D 6499 11206 M 85 0 R D 6499 11296 M 85 0 R D
6499 11374 M 85 0 R D 6499 11443 M 85 0 R D 6499 11910 M 85 0 R D
6499 12148 M 85 0 R D 6499 12316 M 85 0 R D 6499 12447 M 85 0 R D
6499 12553 M 85 0 R D 6499 12643 M 85 0 R D 6499 12722 M 85 0 R D
6499 12790 M 85 0 R D 6499 13258 M 85 0 R D 6499 13495 M 85 0 R D
6499 13663 M 85 0 R D 6499 13794 M 85 0 R D 6499 13900 M 85 0 R D
6499 13991 M 85 0 R D 6499 14069 M 85 0 R D 6499 14138 M 85 0 R D
6499 14605 M 85 0 R D 6499 14842 M 85 0 R D 6499 15010 M 85 0 R D
6499 15141 M 85 0 R D 10777 10563 M 0 4578 R D 10777 11505 M -171 0 R D
10777 12852 M -171 0 R D 10777 14199 M -171 0 R D 10777 10563 M -85 0 R D
10777 10801 M -85 0 R D 10777 10969 M -85 0 R D 10777 11099 M -85 0 R D
10777 11206 M -85 0 R D 10777 11296 M -85 0 R D 10777 11374 M -85 0 R D
10777 11443 M -85 0 R D 10777 11910 M -85 0 R D 10777 12148 M -85 0 R D
10777 12316 M -85 0 R D 10777 12447 M -85 0 R D 10777 12553 M -85 0 R D
10777 12643 M -85 0 R D 10777 12722 M -85 0 R D 10777 12790 M -85 0 R D
10777 13258 M -85 0 R D 10777 13495 M -85 0 R D 10777 13663 M -85 0 R D
10777 13794 M -85 0 R D 10777 13900 M -85 0 R D 10777 13991 M -85 0 R D
10777 14069 M -85 0 R D 10777 14138 M -85 0 R D 10777 14605 M -85 0 R D
10777 14842 M -85 0 R D 10777 15010 M -85 0 R D 10777 15141 M -85 0 R D
1.000 0.000 0.706 setrgbcolor 8259 11702 M 503 465 R 504 708 R 504 558 R
503 447 R 504 -33 R D 0.506 0.000 0.000 setrgbcolor 8072 10563 M 187 238 R
503 495 R 504 1162 R 504 708 R 503 482 R 504 -61 R D
0.000 0.549 0.000 setrgbcolor 8259 10563 M 503 536 R 504 811 R 504 592 R
503 664 R 504 -17 R D 0.000 0.514 1.000 setrgbcolor 9460 10563 M 310 643 R
503 237 R 504 215 R D 0.000 0.000 0.000 setrgbcolor
gsave 6743 14199 translate 0 0 M
(phe4) show grestore 10777 10563 M 4279 0 R D 12537 10563 M 0 183 R D
gsave 12537 10035 translate 0 0 M -58.8433 0 N
( ) show grestore 15056 10563 M 0 183 R D gsave 15056 10035 translate 0 0 M
-58.8433 0 N
( ) show grestore 10777 10563 M 0 92 R D 11221 10563 M 0 92 R D
11535 10563 M 0 92 R D 11779 10563 M 0 92 R D 11979 10563 M 0 92 R D
12147 10563 M 0 92 R D 12293 10563 M 0 92 R D 12422 10563 M 0 92 R D
13295 10563 M 0 92 R D 13739 10563 M 0 92 R D 14053 10563 M 0 92 R D
14298 10563 M 0 92 R D 14497 10563 M 0 92 R D 14666 10563 M 0 92 R D
14812 10563 M 0 92 R D 14940 10563 M 0 92 R D 10777 15141 M 4279 0 R D
12537 15141 M 0 -183 R D 15056 15141 M 0 -183 R D 10777 15141 M 0 -92 R D
11221 15141 M 0 -92 R D 11535 15141 M 0 -92 R D 11779 15141 M 0 -92 R D
11979 15141 M 0 -92 R D 12147 15141 M 0 -92 R D 12293 15141 M 0 -92 R D
12422 15141 M 0 -92 R D 13295 15141 M 0 -92 R D 13739 15141 M 0 -92 R D
14053 15141 M 0 -92 R D 14298 15141 M 0 -92 R D 14497 15141 M 0 -92 R D
14666 15141 M 0 -92 R D 14812 15141 M 0 -92 R D 14940 15141 M 0 -92 R D
10777 10563 M 0 4578 R D 10777 11505 M 171 0 R D
gsave 10666 11364 translate 0 0 M -117.687 0 N
( ) show grestore 10777 12852 M 171 0 R D gsave 10666 12711 translate 0 0 M
-117.687 0 N
( ) show grestore 10777 14199 M 171 0 R D gsave 10666 14058 translate 0 0 M
-117.687 0 N
( ) show grestore 10777 10563 M 86 0 R D 10777 10801 M 86 0 R D
10777 10969 M 86 0 R D 10777 11099 M 86 0 R D 10777 11206 M 86 0 R D
10777 11296 M 86 0 R D 10777 11374 M 86 0 R D 10777 11443 M 86 0 R D
10777 11910 M 86 0 R D 10777 12148 M 86 0 R D 10777 12316 M 86 0 R D
10777 12447 M 86 0 R D 10777 12553 M 86 0 R D 10777 12643 M 86 0 R D
10777 12722 M 86 0 R D 10777 12790 M 86 0 R D 10777 13258 M 86 0 R D
10777 13495 M 86 0 R D 10777 13663 M 86 0 R D 10777 13794 M 86 0 R D
10777 13900 M 86 0 R D 10777 13991 M 86 0 R D 10777 14069 M 86 0 R D
10777 14138 M 86 0 R D 10777 14605 M 86 0 R D 10777 14842 M 86 0 R D
10777 15010 M 86 0 R D 10777 15141 M 86 0 R D 15056 10563 M 0 4578 R D
15056 11505 M -172 0 R D 15056 12852 M -172 0 R D 15056 14199 M -172 0 R D
15056 10563 M -86 0 R D 15056 10801 M -86 0 R D 15056 10969 M -86 0 R D
15056 11099 M -86 0 R D 15056 11206 M -86 0 R D 15056 11296 M -86 0 R D
15056 11374 M -86 0 R D 15056 11443 M -86 0 R D 15056 11910 M -86 0 R D
15056 12148 M -86 0 R D 15056 12316 M -86 0 R D 15056 12447 M -86 0 R D
15056 12553 M -86 0 R D 15056 12643 M -86 0 R D 15056 12722 M -86 0 R D
15056 12790 M -86 0 R D 15056 13258 M -86 0 R D 15056 13495 M -86 0 R D
15056 13663 M -86 0 R D 15056 13794 M -86 0 R D 15056 13900 M -86 0 R D
15056 13991 M -86 0 R D 15056 14069 M -86 0 R D 15056 14138 M -86 0 R D
15056 14605 M -86 0 R D 15056 14842 M -86 0 R D 15056 15010 M -86 0 R D
15056 15141 M -86 0 R D 1.000 0.000 0.706 setrgbcolor 11242 10563 M
288 536 R 504 867 R 503 694 R 504 716 R 504 544 R 503 484 R 504 325 R
503 -209 R D 0.506 0.000 0.000 setrgbcolor 11781 10563 M 253 406 R
503 1332 R 504 780 R 504 641 R 503 506 R 504 449 R 503 -208 R D
0.000 0.549 0.000 setrgbcolor 11847 10563 M 187 238 R 503 901 R 504 628 R
504 790 R 503 619 R 504 580 R 503 -152 R D 0.000 0.514 1.000 setrgbcolor
12537 10563 M 504 733 R 504 745 R 503 736 R 504 618 R 503 257 R D
0.000 0.000 0.000 setrgbcolor gsave 11021 14199 translate 0 0 M
(phf2) show grestore 15056 10563 M 4278 0 R D 16816 10563 M 0 183 R D
gsave 16816 10035 translate 0 0 M -58.8433 0 N
( ) show grestore 19334 10563 M 0 183 R D gsave 19334 10035 translate 0 0 M
-58.8433 0 N
( ) show grestore 15056 10563 M 0 92 R D 15499 10563 M 0 92 R D
15814 10563 M 0 92 R D 16058 10563 M 0 92 R D 16257 10563 M 0 92 R D
16426 10563 M 0 92 R D 16572 10563 M 0 92 R D 16701 10563 M 0 92 R D
17574 10563 M 0 92 R D 18017 10563 M 0 92 R D 18332 10563 M 0 92 R D
18576 10563 M 0 92 R D 18775 10563 M 0 92 R D 18944 10563 M 0 92 R D
19090 10563 M 0 92 R D 19219 10563 M 0 92 R D 15056 15141 M 4278 0 R D
16816 15141 M 0 -183 R D 19334 15141 M 0 -183 R D 15056 15141 M 0 -92 R D
15499 15141 M 0 -92 R D 15814 15141 M 0 -92 R D 16058 15141 M 0 -92 R D
16257 15141 M 0 -92 R D 16426 15141 M 0 -92 R D 16572 15141 M 0 -92 R D
16701 15141 M 0 -92 R D 17574 15141 M 0 -92 R D 18017 15141 M 0 -92 R D
18332 15141 M 0 -92 R D 18576 15141 M 0 -92 R D 18775 15141 M 0 -92 R D
18944 15141 M 0 -92 R D 19090 15141 M 0 -92 R D 19219 15141 M 0 -92 R D
15056 10563 M 0 4578 R D 15056 11505 M 171 0 R D
gsave 14945 11364 translate 0 0 M -117.687 0 N
( ) show grestore 15056 12852 M 171 0 R D gsave 14945 12711 translate 0 0 M
-117.687 0 N
( ) show grestore 15056 14199 M 171 0 R D gsave 14945 14058 translate 0 0 M
-117.687 0 N
( ) show grestore 15056 10563 M 85 0 R D 15056 10801 M 85 0 R D
15056 10969 M 85 0 R D 15056 11099 M 85 0 R D 15056 11206 M 85 0 R D
15056 11296 M 85 0 R D 15056 11374 M 85 0 R D 15056 11443 M 85 0 R D
15056 11910 M 85 0 R D 15056 12148 M 85 0 R D 15056 12316 M 85 0 R D
15056 12447 M 85 0 R D 15056 12553 M 85 0 R D 15056 12643 M 85 0 R D
15056 12722 M 85 0 R D 15056 12790 M 85 0 R D 15056 13258 M 85 0 R D
15056 13495 M 85 0 R D 15056 13663 M 85 0 R D 15056 13794 M 85 0 R D
15056 13900 M 85 0 R D 15056 13991 M 85 0 R D 15056 14069 M 85 0 R D
15056 14138 M 85 0 R D 15056 14605 M 85 0 R D 15056 14842 M 85 0 R D
15056 15010 M 85 0 R D 15056 15141 M 85 0 R D 19334 10563 M 0 4578 R D
19334 11505 M -171 0 R D 19334 12852 M -171 0 R D 19334 14199 M -171 0 R D
19334 10563 M -85 0 R D 19334 10801 M -85 0 R D 19334 10969 M -85 0 R D
19334 11099 M -85 0 R D 19334 11206 M -85 0 R D 19334 11296 M -85 0 R D
19334 11374 M -85 0 R D 19334 11443 M -85 0 R D 19334 11910 M -85 0 R D
19334 12148 M -85 0 R D 19334 12316 M -85 0 R D 19334 12447 M -85 0 R D
19334 12553 M -85 0 R D 19334 12643 M -85 0 R D 19334 12722 M -85 0 R D
19334 12790 M -85 0 R D 19334 13258 M -85 0 R D 19334 13495 M -85 0 R D
19334 13663 M -85 0 R D 19334 13794 M -85 0 R D 19334 13900 M -85 0 R D
19334 13991 M -85 0 R D 19334 14069 M -85 0 R D 19334 14138 M -85 0 R D
19334 14605 M -85 0 R D 19334 14842 M -85 0 R D 19334 15010 M -85 0 R D
19334 15141 M -85 0 R D 1.000 0.000 0.706 setrgbcolor 16816 11099 M
503 1049 R 504 544 R 504 706 R 503 410 R 504 -172 R D
0.506 0.000 0.000 setrgbcolor 16816 11099 M 503 406 R 504 825 R 504 698 R
503 540 R 504 -99 R D 0.000 0.549 0.000 setrgbcolor 17132 10563 M 187 238 R
504 811 R 504 689 R 503 735 R 504 -161 R D 0.000 0.514 1.000 setrgbcolor
17823 10563 M 504 238 R 503 811 R 504 168 R D 0.000 0.000 0.000 setrgbcolor
gsave 15300 14199 translate 0 0 M
(phf4) show grestore 2220 5986 M 4279 0 R D 3980 5986 M 0 183 R D
gsave 3980 5458 translate 0 0 M -58.8433 0 N
( ) show grestore 6499 5986 M 0 183 R D gsave 6499 5458 translate 0 0 M
-58.8433 0 N
( ) show grestore 2220 5986 M 0 91 R D 2664 5986 M 0 91 R D 2978 5986 M
0 91 R D 3222 5986 M 0 91 R D 3422 5986 M 0 91 R D 3590 5986 M 0 91 R D
3736 5986 M 0 91 R D 3865 5986 M 0 91 R D 4738 5986 M 0 91 R D 5182 5986 M
0 91 R D 5496 5986 M 0 91 R D 5741 5986 M 0 91 R D 5940 5986 M 0 91 R D
6109 5986 M 0 91 R D 6255 5986 M 0 91 R D 6383 5986 M 0 91 R D 2220 10563 M
4279 0 R D 3980 10563 M 0 -183 R D 6499 10563 M 0 -183 R D 2220 10563 M
0 -91 R D 2664 10563 M 0 -91 R D 2978 10563 M 0 -91 R D 3222 10563 M 0 -91 R
D 3422 10563 M 0 -91 R D 3590 10563 M 0 -91 R D 3736 10563 M 0 -91 R D
3865 10563 M 0 -91 R D 4738 10563 M 0 -91 R D 5182 10563 M 0 -91 R D
5496 10563 M 0 -91 R D 5741 10563 M 0 -91 R D 5940 10563 M 0 -91 R D
6109 10563 M 0 -91 R D 6255 10563 M 0 -91 R D 6383 10563 M 0 -91 R D
2220 5986 M 0 4577 R D 2220 6927 M 171 0 R D gsave 2109 6787 translate 0 0 M
-470.747 0 N
(10) show grestore 2220 8275 M 171 0 R D gsave 2109 8134 translate 0 0 M
-706.12 0 N
(100) show grestore 2220 9622 M 171 0 R D gsave 2109 9481 translate 0 0 M
-941.493 0 N
(1000) show grestore 2220 5986 M 86 0 R D 2220 6223 M 86 0 R D 2220 6391 M
86 0 R D 2220 6522 M 86 0 R D 2220 6628 M 86 0 R D 2220 6719 M 86 0 R D
2220 6797 M 86 0 R D 2220 6866 M 86 0 R D 2220 7333 M 86 0 R D 2220 7570 M
86 0 R D 2220 7738 M 86 0 R D 2220 7869 M 86 0 R D 2220 7976 M 86 0 R D
2220 8066 M 86 0 R D 2220 8144 M 86 0 R D 2220 8213 M 86 0 R D 2220 8680 M
86 0 R D 2220 8917 M 86 0 R D 2220 9086 M 86 0 R D 2220 9216 M 86 0 R D
2220 9323 M 86 0 R D 2220 9413 M 86 0 R D 2220 9491 M 86 0 R D 2220 9560 M
86 0 R D 2220 10027 M 86 0 R D 2220 10264 M 86 0 R D 2220 10433 M 86 0 R D
2220 10563 M 86 0 R D 6499 5986 M 0 4577 R D 6499 6927 M -172 0 R D
6499 8275 M -172 0 R D 6499 9622 M -172 0 R D 6499 5986 M -86 0 R D
6499 6223 M -86 0 R D 6499 6391 M -86 0 R D 6499 6522 M -86 0 R D
6499 6628 M -86 0 R D 6499 6719 M -86 0 R D 6499 6797 M -86 0 R D
6499 6866 M -86 0 R D 6499 7333 M -86 0 R D 6499 7570 M -86 0 R D
6499 7738 M -86 0 R D 6499 7869 M -86 0 R D 6499 7976 M -86 0 R D
6499 8066 M -86 0 R D 6499 8144 M -86 0 R D 6499 8213 M -86 0 R D
6499 8680 M -86 0 R D 6499 8917 M -86 0 R D 6499 9086 M -86 0 R D
6499 9216 M -86 0 R D 6499 9323 M -86 0 R D 6499 9413 M -86 0 R D
6499 9491 M -86 0 R D 6499 9560 M -86 0 R D 6499 10027 M -86 0 R D
6499 10264 M -86 0 R D 6499 10433 M -86 0 R D 6499 10563 M -86 0 R D
1.000 0.000 0.706 setrgbcolor 2469 6223 M 504 643 R 504 549 R 503 854 R
504 614 R 504 637 R 503 475 R 504 406 R 503 -153 R D
0.506 0.000 0.000 setrgbcolor 3224 5985 M 253 406 R 503 1235 R 504 518 R
504 751 R 503 593 R 504 539 R 503 -85 R D 0.000 0.549 0.000 setrgbcolor
3475 5985 M 2 1 R 503 237 R 504 858 R 504 914 R 503 576 R 504 749 R 503 35 R
D 0.000 0.514 1.000 setrgbcolor 4678 5985 M 310 643 R 503 610 R 504 543 R
503 51 R D 0.000 0.000 0.000 setrgbcolor gsave 2464 9622 translate 0 0 M
(phg2) show grestore 6499 5986 M 4278 0 R D 8259 5986 M 0 183 R D
gsave 8259 5458 translate 0 0 M -58.8433 0 N
( ) show grestore 10777 5986 M 0 183 R D gsave 10777 5458 translate 0 0 M
-58.8433 0 N
( ) show grestore 6499 5986 M 0 91 R D 6942 5986 M 0 91 R D 7257 5986 M
0 91 R D 7501 5986 M 0 91 R D 7700 5986 M 0 91 R D 7869 5986 M 0 91 R D
8015 5986 M 0 91 R D 8144 5986 M 0 91 R D 9017 5986 M 0 91 R D 9460 5986 M
0 91 R D 9775 5986 M 0 91 R D 10019 5986 M 0 91 R D 10218 5986 M 0 91 R D
10387 5986 M 0 91 R D 10533 5986 M 0 91 R D 10662 5986 M 0 91 R D
6499 10563 M 4278 0 R D 8259 10563 M 0 -183 R D 10777 10563 M 0 -183 R D
6499 10563 M 0 -91 R D 6942 10563 M 0 -91 R D 7257 10563 M 0 -91 R D
7501 10563 M 0 -91 R D 7700 10563 M 0 -91 R D 7869 10563 M 0 -91 R D
8015 10563 M 0 -91 R D 8144 10563 M 0 -91 R D 9017 10563 M 0 -91 R D
9460 10563 M 0 -91 R D 9775 10563 M 0 -91 R D 10019 10563 M 0 -91 R D
10218 10563 M 0 -91 R D 10387 10563 M 0 -91 R D 10533 10563 M 0 -91 R D
10662 10563 M 0 -91 R D 6499 5986 M 0 4577 R D 6499 6927 M 171 0 R D
gsave 6388 6787 translate 0 0 M -117.687 0 N
( ) show grestore 6499 8275 M 171 0 R D gsave 6388 8134 translate 0 0 M
-117.687 0 N
( ) show grestore 6499 9622 M 171 0 R D gsave 6388 9481 translate 0 0 M
-117.687 0 N
( ) show grestore 6499 5986 M 85 0 R D 6499 6223 M 85 0 R D 6499 6391 M
85 0 R D 6499 6522 M 85 0 R D 6499 6628 M 85 0 R D 6499 6719 M 85 0 R D
6499 6797 M 85 0 R D 6499 6866 M 85 0 R D 6499 7333 M 85 0 R D 6499 7570 M
85 0 R D 6499 7738 M 85 0 R D 6499 7869 M 85 0 R D 6499 7976 M 85 0 R D
6499 8066 M 85 0 R D 6499 8144 M 85 0 R D 6499 8213 M 85 0 R D 6499 8680 M
85 0 R D 6499 8917 M 85 0 R D 6499 9086 M 85 0 R D 6499 9216 M 85 0 R D
6499 9323 M 85 0 R D 6499 9413 M 85 0 R D 6499 9491 M 85 0 R D 6499 9560 M
85 0 R D 6499 10027 M 85 0 R D 6499 10264 M 85 0 R D 6499 10433 M 85 0 R D
6499 10563 M 85 0 R D 10777 5986 M 0 4577 R D 10777 6927 M -171 0 R D
10777 8275 M -171 0 R D 10777 9622 M -171 0 R D 10777 5986 M -85 0 R D
10777 6223 M -85 0 R D 10777 6391 M -85 0 R D 10777 6522 M -85 0 R D
10777 6628 M -85 0 R D 10777 6719 M -85 0 R D 10777 6797 M -85 0 R D
10777 6866 M -85 0 R D 10777 7333 M -85 0 R D 10777 7570 M -85 0 R D
10777 7738 M -85 0 R D 10777 7869 M -85 0 R D 10777 7976 M -85 0 R D
10777 8066 M -85 0 R D 10777 8144 M -85 0 R D 10777 8213 M -85 0 R D
10777 8680 M -85 0 R D 10777 8917 M -85 0 R D 10777 9086 M -85 0 R D
10777 9216 M -85 0 R D 10777 9323 M -85 0 R D 10777 9413 M -85 0 R D
10777 9491 M -85 0 R D 10777 9560 M -85 0 R D 10777 10027 M -85 0 R D
10777 10264 M -85 0 R D 10777 10433 M -85 0 R D 10777 10563 M -85 0 R D
1.000 0.000 0.706 setrgbcolor 7251 5986 M 504 237 R 504 299 R 503 1272 R
504 542 R 504 533 R 503 455 R 504 -60 R D 0.506 0.000 0.000 setrgbcolor
8475 5985 M 287 537 R 504 941 R 504 513 R 503 652 R 504 -75 R D
0.000 0.549 0.000 setrgbcolor 9266 6223 M 504 -237 R 503 1403 R 504 0 R D
0.000 0.000 0.000 setrgbcolor gsave 6743 9622 translate 0 0 M
(phg4) show grestore 10777 5986 M 4279 0 R D 12537 5986 M 0 183 R D
gsave 12537 5458 translate 0 0 M -294.217 0 N
(0.1) show grestore 15056 5986 M 0 183 R D gsave 15056 5458 translate 0 0 M
-294.217 0 N
(1.0) show grestore 10777 5986 M 0 91 R D 11221 5986 M 0 91 R D 11535 5986 M
0 91 R D 11779 5986 M 0 91 R D 11979 5986 M 0 91 R D 12147 5986 M 0 91 R D
12293 5986 M 0 91 R D 12422 5986 M 0 91 R D 13295 5986 M 0 91 R D
13739 5986 M 0 91 R D 14053 5986 M 0 91 R D 14298 5986 M 0 91 R D
14497 5986 M 0 91 R D 14666 5986 M 0 91 R D 14812 5986 M 0 91 R D
14940 5986 M 0 91 R D 10777 10563 M 4279 0 R D 12537 10563 M 0 -183 R D
15056 10563 M 0 -183 R D 10777 10563 M 0 -91 R D 11221 10563 M 0 -91 R D
11535 10563 M 0 -91 R D 11779 10563 M 0 -91 R D 11979 10563 M 0 -91 R D
12147 10563 M 0 -91 R D 12293 10563 M 0 -91 R D 12422 10563 M 0 -91 R D
13295 10563 M 0 -91 R D 13739 10563 M 0 -91 R D 14053 10563 M 0 -91 R D
14298 10563 M 0 -91 R D 14497 10563 M 0 -91 R D 14666 10563 M 0 -91 R D
14812 10563 M 0 -91 R D 14940 10563 M 0 -91 R D 10777 5986 M 0 4577 R D
10777 6927 M 171 0 R D gsave 10666 6787 translate 0 0 M -117.687 0 N
( ) show grestore 10777 8275 M 171 0 R D gsave 10666 8134 translate 0 0 M
-117.687 0 N
( ) show grestore 10777 9622 M 171 0 R D gsave 10666 9481 translate 0 0 M
-117.687 0 N
( ) show grestore 10777 5986 M 86 0 R D 10777 6223 M 86 0 R D 10777 6391 M
86 0 R D 10777 6522 M 86 0 R D 10777 6628 M 86 0 R D 10777 6719 M 86 0 R D
10777 6797 M 86 0 R D 10777 6866 M 86 0 R D 10777 7333 M 86 0 R D
10777 7570 M 86 0 R D 10777 7738 M 86 0 R D 10777 7869 M 86 0 R D
10777 7976 M 86 0 R D 10777 8066 M 86 0 R D 10777 8144 M 86 0 R D
10777 8213 M 86 0 R D 10777 8680 M 86 0 R D 10777 8917 M 86 0 R D
10777 9086 M 86 0 R D 10777 9216 M 86 0 R D 10777 9323 M 86 0 R D
10777 9413 M 86 0 R D 10777 9491 M 86 0 R D 10777 9560 M 86 0 R D
10777 10027 M 86 0 R D 10777 10264 M 86 0 R D 10777 10433 M 86 0 R D
10777 10563 M 86 0 R D 15056 5986 M 0 4577 R D 15056 6927 M -172 0 R D
15056 8275 M -172 0 R D 15056 9622 M -172 0 R D 15056 5986 M -86 0 R D
15056 6223 M -86 0 R D 15056 6391 M -86 0 R D 15056 6522 M -86 0 R D
15056 6628 M -86 0 R D 15056 6719 M -86 0 R D 15056 6797 M -86 0 R D
15056 6866 M -86 0 R D 15056 7333 M -86 0 R D 15056 7570 M -86 0 R D
15056 7738 M -86 0 R D 15056 7869 M -86 0 R D 15056 7976 M -86 0 R D
15056 8066 M -86 0 R D 15056 8144 M -86 0 R D 15056 8213 M -86 0 R D
15056 8680 M -86 0 R D 15056 8917 M -86 0 R D 15056 9086 M -86 0 R D
15056 9216 M -86 0 R D 15056 9323 M -86 0 R D 15056 9413 M -86 0 R D
15056 9491 M -86 0 R D 15056 9560 M -86 0 R D 15056 10027 M -86 0 R D
15056 10264 M -86 0 R D 15056 10433 M -86 0 R D 15056 10563 M -86 0 R D
1.000 0.000 0.706 setrgbcolor 11242 5985 M 288 537 R 504 1008 R 503 656 R
504 701 R 504 484 R 503 473 R 504 376 R 503 -271 R D
0.000 0.549 0.000 setrgbcolor 12034 6223 M 503 496 R 504 989 R 504 638 R
503 629 R 504 625 R 503 -75 R D 0.000 0.514 1.000 setrgbcolor 13041 6391 M
504 690 R 503 764 R 504 929 R 503 89 R D 0.000 0.000 0.000 setrgbcolor
gsave 11021 9622 translate 0 0 M
(phh2) show grestore 15056 5986 M 4278 0 R D 16816 5986 M 0 183 R D
gsave 16816 5458 translate 0 0 M -294.217 0 N
(0.1) show grestore 19334 5986 M 0 183 R D gsave 19334 5458 translate 0 0 M
-294.217 0 N
(1.0) show grestore 15056 5986 M 0 91 R D 15499 5986 M 0 91 R D 15814 5986 M
0 91 R D 16058 5986 M 0 91 R D 16257 5986 M 0 91 R D 16426 5986 M 0 91 R D
16572 5986 M 0 91 R D 16701 5986 M 0 91 R D 17574 5986 M 0 91 R D
18017 5986 M 0 91 R D 18332 5986 M 0 91 R D 18576 5986 M 0 91 R D
18775 5986 M 0 91 R D 18944 5986 M 0 91 R D 19090 5986 M 0 91 R D
19219 5986 M 0 91 R D 15056 10563 M 4278 0 R D 16816 10563 M 0 -183 R D
19334 10563 M 0 -183 R D 15056 10563 M 0 -91 R D 15499 10563 M 0 -91 R D
15814 10563 M 0 -91 R D 16058 10563 M 0 -91 R D 16257 10563 M 0 -91 R D
16426 10563 M 0 -91 R D 16572 10563 M 0 -91 R D 16701 10563 M 0 -91 R D
17574 10563 M 0 -91 R D 18017 10563 M 0 -91 R D 18332 10563 M 0 -91 R D
18576 10563 M 0 -91 R D 18775 10563 M 0 -91 R D 18944 10563 M 0 -91 R D
19090 10563 M 0 -91 R D 19219 10563 M 0 -91 R D 15056 5986 M 0 4577 R D
15056 6927 M 171 0 R D gsave 14945 6787 translate 0 0 M -117.687 0 N
( ) show grestore 15056 8275 M 171 0 R D gsave 14945 8134 translate 0 0 M
-117.687 0 N
( ) show grestore 15056 9622 M 171 0 R D gsave 14945 9481 translate 0 0 M
-117.687 0 N
( ) show grestore 15056 5986 M 85 0 R D 15056 6223 M 85 0 R D 15056 6391 M
85 0 R D 15056 6522 M 85 0 R D 15056 6628 M 85 0 R D 15056 6719 M 85 0 R D
15056 6797 M 85 0 R D 15056 6866 M 85 0 R D 15056 7333 M 85 0 R D
15056 7570 M 85 0 R D 15056 7738 M 85 0 R D 15056 7869 M 85 0 R D
15056 7976 M 85 0 R D 15056 8066 M 85 0 R D 15056 8144 M 85 0 R D
15056 8213 M 85 0 R D 15056 8680 M 85 0 R D 15056 8917 M 85 0 R D
15056 9086 M 85 0 R D 15056 9216 M 85 0 R D 15056 9323 M 85 0 R D
15056 9413 M 85 0 R D 15056 9491 M 85 0 R D 15056 9560 M 85 0 R D
15056 10027 M 85 0 R D 15056 10264 M 85 0 R D 15056 10433 M 85 0 R D
15056 10563 M 85 0 R D 19334 5986 M 0 4577 R D 19334 6927 M -171 0 R D
19334 8275 M -171 0 R D 19334 9622 M -171 0 R D 19334 5986 M -85 0 R D
19334 6223 M -85 0 R D 19334 6391 M -85 0 R D 19334 6522 M -85 0 R D
19334 6628 M -85 0 R D 19334 6719 M -85 0 R D 19334 6797 M -85 0 R D
19334 6866 M -85 0 R D 19334 7333 M -85 0 R D 19334 7570 M -85 0 R D
19334 7738 M -85 0 R D 19334 7869 M -85 0 R D 19334 7976 M -85 0 R D
19334 8066 M -85 0 R D 19334 8144 M -85 0 R D 19334 8213 M -85 0 R D
19334 8680 M -85 0 R D 19334 8917 M -85 0 R D 19334 9086 M -85 0 R D
19334 9216 M -85 0 R D 19334 9323 M -85 0 R D 19334 9413 M -85 0 R D
19334 9491 M -85 0 R D 19334 9560 M -85 0 R D 19334 10027 M -85 0 R D
19334 10264 M -85 0 R D 19334 10433 M -85 0 R D 19334 10563 M -85 0 R D
1.000 0.000 0.706 setrgbcolor 16312 6391 M 504 592 R 503 898 R 504 500 R
504 546 R 503 388 R 504 -301 R D 0.000 0.549 0.000 setrgbcolor 16816 5986 M
503 0 R 504 941 R 504 311 R 503 811 R 504 -296 R D
0.000 0.514 1.000 setrgbcolor 18140 5985 M 187 238 R 503 574 R 504 186 R D
0.000 0.000 0.000 setrgbcolor gsave 15300 9622 translate 0 0 M
(phh4) show grestore 2220 1408 M 4279 0 R D 3980 1408 M 0 183 R D
gsave 3980 880 translate 0 0 M -294.217 0 N
(0.1) show grestore 6499 1408 M 0 183 R D gsave 6499 880 translate 0 0 M
-294.217 0 N
(1.0) show grestore 2220 1408 M 0 92 R D 2664 1408 M 0 92 R D 2978 1408 M
0 92 R D 3222 1408 M 0 92 R D 3422 1408 M 0 92 R D 3590 1408 M 0 92 R D
3736 1408 M 0 92 R D 3865 1408 M 0 92 R D 4738 1408 M 0 92 R D 5182 1408 M
0 92 R D 5496 1408 M 0 92 R D 5741 1408 M 0 92 R D 5940 1408 M 0 92 R D
6109 1408 M 0 92 R D 6255 1408 M 0 92 R D 6383 1408 M 0 92 R D 2220 5986 M
4279 0 R D 3980 5986 M 0 -183 R D 6499 5986 M 0 -183 R D 2220 5986 M 0 -92 R
D 2664 5986 M 0 -92 R D 2978 5986 M 0 -92 R D 3222 5986 M 0 -92 R D
3422 5986 M 0 -92 R D 3590 5986 M 0 -92 R D 3736 5986 M 0 -92 R D
3865 5986 M 0 -92 R D 4738 5986 M 0 -92 R D 5182 5986 M 0 -92 R D
5496 5986 M 0 -92 R D 5741 5986 M 0 -92 R D 5940 5986 M 0 -92 R D
6109 5986 M 0 -92 R D 6255 5986 M 0 -92 R D 6383 5986 M 0 -92 R D
2220 1408 M 0 4578 R D 2220 2350 M 171 0 R D gsave 2109 2209 translate 0 0 M
-470.747 0 N
(10) show grestore 2220 3697 M 171 0 R D gsave 2109 3556 translate 0 0 M
-706.12 0 N
(100) show grestore 2220 5044 M 171 0 R D gsave 2109 4903 translate 0 0 M
-941.493 0 N
(1000) show grestore 2220 1408 M 86 0 R D 2220 1645 M 86 0 R D 2220 1814 M
86 0 R D 2220 1944 M 86 0 R D 2220 2051 M 86 0 R D 2220 2141 M 86 0 R D
2220 2219 M 86 0 R D 2220 2288 M 86 0 R D 2220 2755 M 86 0 R D 2220 2993 M
86 0 R D 2220 3161 M 86 0 R D 2220 3291 M 86 0 R D 2220 3398 M 86 0 R D
2220 3488 M 86 0 R D 2220 3566 M 86 0 R D 2220 3635 M 86 0 R D 2220 4102 M
86 0 R D 2220 4340 M 86 0 R D 2220 4508 M 86 0 R D 2220 4639 M 86 0 R D
2220 4745 M 86 0 R D 2220 4835 M 86 0 R D 2220 4914 M 86 0 R D 2220 4982 M
86 0 R D 2220 5450 M 86 0 R D 2220 5687 M 86 0 R D 2220 5855 M 86 0 R D
2220 5986 M 86 0 R D 6499 1408 M 0 4578 R D 6499 2350 M -172 0 R D
6499 3697 M -172 0 R D 6499 5044 M -172 0 R D 6499 1408 M -86 0 R D
6499 1645 M -86 0 R D 6499 1814 M -86 0 R D 6499 1944 M -86 0 R D
6499 2051 M -86 0 R D 6499 2141 M -86 0 R D 6499 2219 M -86 0 R D
6499 2288 M -86 0 R D 6499 2755 M -86 0 R D 6499 2993 M -86 0 R D
6499 3161 M -86 0 R D 6499 3291 M -86 0 R D 6499 3398 M -86 0 R D
6499 3488 M -86 0 R D 6499 3566 M -86 0 R D 6499 3635 M -86 0 R D
6499 4102 M -86 0 R D 6499 4340 M -86 0 R D 6499 4508 M -86 0 R D
6499 4639 M -86 0 R D 6499 4745 M -86 0 R D 6499 4835 M -86 0 R D
6499 4914 M -86 0 R D 6499 4982 M -86 0 R D 6499 5450 M -86 0 R D
6499 5687 M -86 0 R D 6499 5855 M -86 0 R D 6499 5986 M -86 0 R D
1.000 0.000 0.706 setrgbcolor 2469 1645 M 504 574 R 504 774 R 503 520 R
504 741 R 504 550 R 503 443 R 504 418 R 503 -228 R D
0.506 0.000 0.000 setrgbcolor 2973 1645 M 504 574 R 503 970 R 504 832 R
504 584 R 503 567 R 504 479 R 503 -150 R D 0.000 0.549 0.000 setrgbcolor
3980 2456 M 504 556 R 504 741 R 503 708 R 504 663 R 503 -2 R D
0.000 0.514 1.000 setrgbcolor 4484 1408 M 504 998 R 503 811 R 504 721 R
503 79 R D 0.000 0.000 0.000 setrgbcolor gsave 2464 5044 translate 0 0 M
(phi2) show grestore 6499 1408 M 4278 0 R D 8259 1408 M 0 183 R D
gsave 8259 880 translate 0 0 M -294.217 0 N
(0.1) show grestore 10777 1408 M 0 183 R D gsave 10777 880 translate 0 0 M
-294.217 0 N
(1.0) show grestore 6499 1408 M 0 92 R D 6942 1408 M 0 92 R D 7257 1408 M
0 92 R D 7501 1408 M 0 92 R D 7700 1408 M 0 92 R D 7869 1408 M 0 92 R D
8015 1408 M 0 92 R D 8144 1408 M 0 92 R D 9017 1408 M 0 92 R D 9460 1408 M
0 92 R D 9775 1408 M 0 92 R D 10019 1408 M 0 92 R D 10218 1408 M 0 92 R D
10387 1408 M 0 92 R D 10533 1408 M 0 92 R D 10662 1408 M 0 92 R D
6499 5986 M 4278 0 R D 8259 5986 M 0 -183 R D 10777 5986 M 0 -183 R D
6499 5986 M 0 -92 R D 6942 5986 M 0 -92 R D 7257 5986 M 0 -92 R D
7501 5986 M 0 -92 R D 7700 5986 M 0 -92 R D 7869 5986 M 0 -92 R D
8015 5986 M 0 -92 R D 8144 5986 M 0 -92 R D 9017 5986 M 0 -92 R D
9460 5986 M 0 -92 R D 9775 5986 M 0 -92 R D 10019 5986 M 0 -92 R D
10218 5986 M 0 -92 R D 10387 5986 M 0 -92 R D 10533 5986 M 0 -92 R D
10662 5986 M 0 -92 R D 6499 1408 M 0 4578 R D 6499 2350 M 171 0 R D
gsave 6388 2209 translate 0 0 M -117.687 0 N
( ) show grestore 6499 3697 M 171 0 R D gsave 6388 3556 translate 0 0 M
-117.687 0 N
( ) show grestore 6499 5044 M 171 0 R D gsave 6388 4903 translate 0 0 M
-117.687 0 N
( ) show grestore 6499 1408 M 85 0 R D 6499 1645 M 85 0 R D 6499 1814 M
85 0 R D 6499 1944 M 85 0 R D 6499 2051 M 85 0 R D 6499 2141 M 85 0 R D
6499 2219 M 85 0 R D 6499 2288 M 85 0 R D 6499 2755 M 85 0 R D 6499 2993 M
85 0 R D 6499 3161 M 85 0 R D 6499 3291 M 85 0 R D 6499 3398 M 85 0 R D
6499 3488 M 85 0 R D 6499 3566 M 85 0 R D 6499 3635 M 85 0 R D 6499 4102 M
85 0 R D 6499 4340 M 85 0 R D 6499 4508 M 85 0 R D 6499 4639 M 85 0 R D
6499 4745 M 85 0 R D 6499 4835 M 85 0 R D 6499 4914 M 85 0 R D 6499 4982 M
85 0 R D 6499 5450 M 85 0 R D 6499 5687 M 85 0 R D 6499 5855 M 85 0 R D
6499 5986 M 85 0 R D 10777 1408 M 0 4578 R D 10777 2350 M -171 0 R D
10777 3697 M -171 0 R D 10777 5044 M -171 0 R D 10777 1408 M -85 0 R D
10777 1645 M -85 0 R D 10777 1814 M -85 0 R D 10777 1944 M -85 0 R D
10777 2051 M -85 0 R D 10777 2141 M -85 0 R D 10777 2219 M -85 0 R D
10777 2288 M -85 0 R D 10777 2755 M -85 0 R D 10777 2993 M -85 0 R D
10777 3161 M -85 0 R D 10777 3291 M -85 0 R D 10777 3398 M -85 0 R D
10777 3488 M -85 0 R D 10777 3566 M -85 0 R D 10777 3635 M -85 0 R D
10777 4102 M -85 0 R D 10777 4340 M -85 0 R D 10777 4508 M -85 0 R D
10777 4639 M -85 0 R D 10777 4745 M -85 0 R D 10777 4835 M -85 0 R D
10777 4914 M -85 0 R D 10777 4982 M -85 0 R D 10777 5450 M -85 0 R D
10777 5687 M -85 0 R D 10777 5855 M -85 0 R D 10777 5986 M -85 0 R D
1.000 0.000 0.706 setrgbcolor 7755 1408 M 504 811 R 503 942 R 504 564 R
504 652 R 503 434 R 504 -180 R D 0.506 0.000 0.000 setrgbcolor 7971 1408 M
288 536 R 503 811 R 504 750 R 504 699 R 503 587 R 504 -218 R D
0.000 0.549 0.000 setrgbcolor 8510 1408 M 252 406 R 504 0 R 504 1269 R
503 637 R 504 130 R D 0.000 0.000 0.000 setrgbcolor
gsave 6743 5044 translate 0 0 M
(phi4) show grestore 1.000 0.000 0.706 setrgbcolor 13344 3697 M 86 0 R
85 0 R 86 0 R 85 0 R 86 0 R 86 0 R 85 0 R 86 0 R 85 0 R D
0.506 0.000 0.000 setrgbcolor 13344 3239 M 86 0 R 85 0 R 86 0 R 85 0 R
86 0 R 86 0 R 85 0 R 86 0 R 85 0 R D 0.000 0.549 0.000 setrgbcolor
13344 2781 M 86 0 R 85 0 R 86 0 R 85 0 R 86 0 R 86 0 R 85 0 R 86 0 R 85 0 R
D 0.000 0.514 1.000 setrgbcolor 13344 2324 M 86 0 R 85 0 R 86 0 R 85 0 R
86 0 R 86 0 R 85 0 R 86 0 R 85 0 R D 1.000 0.349 0.000 setrgbcolor
13344 1866 M 86 0 R 85 0 R 86 0 R 85 0 R 86 0 R 86 0 R 85 0 R 86 0 R 85 0 R
D 1.000 0.000 0.706 setrgbcolor gsave 14200 3504 translate 0 0 M
(a=1.000) show grestore 0.506 0.000 0.000 setrgbcolor
gsave 14200 3046 translate 0 0 M
(a=0.781) show grestore 0.000 0.549 0.000 setrgbcolor
gsave 14200 2588 translate 0 0 M
(a=0.547) show grestore 0.000 0.514 1.000 setrgbcolor
gsave 14200 2130 translate 0 0 M
(a=0.343) show grestore 1.000 0.349 0.000 setrgbcolor
gsave 14200 1673 translate 0 0 M
(a=0.193) show grestore
%%PageTrailer
end
%%PageResources: font Helvetica
%%Trailer
%%Pages: 1
%%DocumentNeededResources: font Helvetica
%%EOF
