%!PS-Adobe-3.0 EPSF-3.0
%%BoundingBox: 0 0 425 340
%%Title: Graphics produced by IDL
%%For: jlgan@aida119, /home/jlgan/work/subhalo_model
%%Creator: IDL Version 7.0 (linux x86_64 m64)
%%CreationDate: Mon Jun  1 00:54:05 2009
%%DocumentData: Clean7bit
%%Requirements: color
%%LanguageLevel: 1
%%PageOrder: Ascend
%%Pages: (atend)
%%DocumentNeededResources: (atend)
%%EndComments
%%BeginProlog
%+ prolog.ps -- Prolog for IDL generated PostScript files
%+ Copyright (c) 1988-2007 ITT Visual Information Solutions. All Rights Reserved.
%v 5
/$IDL_DICT 40 dict def $IDL_DICT begin /bdef { bind def } bind def /C
{currentpoint newpath moveto} bdef /CP {currentpoint} bdef /D {currentpoint
stroke moveto} bdef /F {closepath fill} bdef /K { setgray } bdef /M {moveto}
bdef /N {rmoveto} bdef /P {lineto} bdef /R {rlineto} bdef /S {gsave show
grestore} bdef /X {currentpoint pop} bdef /Z {gsave currentpoint lineto 20
setlinewidth 1 setlinecap stroke grestore} bdef /L0 {[] 0 setdash} bdef /L1
{[40 100] 0 setdash} bdef /L2 {[200 200] 0 setdash} bdef /L3 {[200 100 50
100] 0 setdash} bdef /L4 {[300 100 50 100 50 100 50 100] 0 setdash} bdef /L5
{[400 200] 0 setdash} bdef /STDFONT { findfont exch scalefont setfont } bdef
/ISOFONT { findfont dup length dict begin { 1 index /FID ne {def} {pop pop}
ifelse } forall /Encoding ISOLatin1Encoding def currentdict end /idltmpfont
exch definefont exch scalefont setfont } bdef /ISOBULLET { gsave /Helvetica
findfont exch scalefont setfont (\267) show currentpoint grestore moveto}
bdef /MITERLIMIT { 2.5 setmiterlimit } bdef end
%%EndProlog
%%Page: 0 1
%%PageRequirements: color
%%PageResources: (atend)
%%PageOrientation: Portrait
%%PageBoundingBox: 0 0 425 340
%%BeginPageSetup
$IDL_DICT begin 0.0283465 dup scale MITERLIMIT
%%IncludeResource: font Helvetica
423.333 /Helvetica STDFONT
%%EndPageSetup
20 setlinewidth L0 0.000 0.000 0.000 setrgbcolor 2664 1690 M 11537 0 R D
2664 1690 M 0 378 R D 30 setlinewidth 2286 1351 M -43 -15 R -28 -42 R
-14 -70 R 0 -42 R 14 -70 R 28 -42 R 43 -14 R 28 0 R 42 14 R 28 42 R 14 70 R
0 42 R -14 70 R -28 42 R -42 15 R -28 0 R D 2510 1084 M -14 -14 R 14 -14 R
14 14 R -14 14 R D 2706 1351 M -42 -15 R -28 -42 R -14 -70 R 0 -42 R
14 -70 R 28 -42 R 42 -14 R 28 0 R 42 14 R 28 42 R 14 70 R 0 42 R -14 70 R
-28 42 R -42 15 R -28 0 R D 2944 1294 M 29 14 R 42 43 R 0 -295 R D
20 setlinewidth 4840 1690 M 0 378 R D 30 setlinewidth 4462 1351 M -42 -15 R
-28 -42 R -14 -70 R 0 -42 R 14 -70 R 28 -42 R 42 -14 R 28 0 R 42 14 R
28 42 R 14 70 R 0 42 R -14 70 R -28 42 R -42 15 R -28 0 R D 4686 1084 M
-14 -14 R 14 -14 R 14 14 R -14 14 R D 4840 1294 M 28 14 R 43 43 R 0 -295 R D
5163 1351 M -42 -15 R -28 -42 R -14 -70 R 0 -42 R 14 -70 R 28 -42 R 42 -14 R
28 0 R 42 14 R 28 42 R 14 70 R 0 42 R -14 70 R -28 42 R -42 15 R -28 0 R D
20 setlinewidth 7017 1690 M 0 378 R D 30 setlinewidth 6596 1294 M 28 14 R
42 43 R 0 -295 R D 6863 1084 M -15 -14 R 15 -14 R 14 14 R -14 14 R D
7059 1351 M -42 -15 R -28 -42 R -14 -70 R 0 -42 R 14 -70 R 28 -42 R 42 -14 R
28 0 R 42 14 R 28 42 R 14 70 R 0 42 R -14 70 R -28 42 R -42 15 R -28 0 R D
7339 1351 M -42 -15 R -28 -42 R -14 -70 R 0 -42 R 14 -70 R 28 -42 R 42 -14 R
28 0 R 42 14 R 28 42 R 14 70 R 0 42 R -14 70 R -28 42 R -42 15 R -28 0 R D
20 setlinewidth 9193 1690 M 0 378 R D 30 setlinewidth 8632 1294 M 28 14 R
42 43 R 0 -295 R D 8955 1351 M -42 -15 R -28 -42 R -14 -70 R 0 -42 R
14 -70 R 28 -42 R 42 -14 R 28 0 R 42 14 R 28 42 R 14 70 R 0 42 R -14 70 R
-28 42 R -42 15 R -28 0 R D 9179 1084 M -14 -14 R 14 -14 R 14 14 R -14 14 R
D 9375 1351 M -42 -15 R -28 -42 R -14 -70 R 0 -42 R 14 -70 R 28 -42 R
42 -14 R 28 0 R 42 14 R 28 42 R 15 70 R 0 42 R -15 70 R -28 42 R -42 15 R
-28 0 R D 9656 1351 M -42 -15 R -28 -42 R -14 -70 R 0 -42 R 14 -70 R
28 -42 R 42 -14 R 28 0 R 42 14 R 28 42 R 14 70 R 0 42 R -14 70 R -28 42 R
-42 15 R -28 0 R D 20 setlinewidth 11369 1690 M 0 378 R D 30 setlinewidth
10668 1294 M 28 14 R 42 43 R 0 -295 R D 10991 1351 M -42 -15 R -28 -42 R
-14 -70 R 0 -42 R 14 -70 R 28 -42 R 42 -14 R 28 0 R 42 14 R 28 42 R 14 70 R
0 42 R -14 70 R -28 42 R -42 15 R -28 0 R D 11271 1351 M -42 -15 R -28 -42 R
-14 -70 R 0 -42 R 14 -70 R 28 -42 R 42 -14 R 28 0 R 42 14 R 28 42 R 14 70 R
0 42 R -14 70 R -28 42 R -42 15 R -28 0 R D 11496 1084 M -14 -14 R 14 -14 R
14 14 R -14 14 R D 11692 1351 M -42 -15 R -28 -42 R -14 -70 R 0 -42 R
14 -70 R 28 -42 R 42 -14 R 28 0 R 42 14 R 28 42 R 14 70 R 0 42 R -14 70 R
-28 42 R -42 15 R -28 0 R D 11972 1351 M -42 -15 R -28 -42 R -14 -70 R
0 -42 R 14 -70 R 28 -42 R 42 -14 R 28 0 R 42 14 R 28 42 R 14 70 R 0 42 R
-14 70 R -28 42 R -42 15 R -28 0 R D 20 setlinewidth 13546 1690 M 0 378 R D
30 setlinewidth 12704 1294 M 29 14 R 42 43 R 0 -295 R D 13027 1351 M
-42 -15 R -28 -42 R -14 -70 R 0 -42 R 14 -70 R 28 -42 R 42 -14 R 28 0 R
42 14 R 28 42 R 14 70 R 0 42 R -14 70 R -28 42 R -42 15 R -28 0 R D
13307 1351 M -42 -15 R -28 -42 R -14 -70 R 0 -42 R 14 -70 R 28 -42 R
42 -14 R 28 0 R 42 14 R 29 42 R 14 70 R 0 42 R -14 70 R -29 42 R -42 15 R
-28 0 R D 13588 1351 M -42 -15 R -28 -42 R -14 -70 R 0 -42 R 14 -70 R
28 -42 R 42 -14 R 28 0 R 42 14 R 28 42 R 14 70 R 0 42 R -14 70 R -28 42 R
-42 15 R -28 0 R D 13812 1084 M -14 -14 R 14 -14 R 14 14 R -14 14 R D
14008 1351 M -42 -15 R -28 -42 R -14 -70 R 0 -42 R 14 -70 R 28 -42 R
42 -14 R 28 0 R 43 14 R 28 42 R 14 70 R 0 42 R -14 70 R -28 42 R -43 15 R
-28 0 R D 14289 1351 M -42 -15 R -28 -42 R -14 -70 R 0 -42 R 14 -70 R
28 -42 R 42 -14 R 28 0 R 42 14 R 28 42 R 14 70 R 0 42 R -14 70 R -28 42 R
-42 15 R -28 0 R D 20 setlinewidth 3319 1690 M 0 189 R D 3702 1690 M 0 189 R
D 3974 1690 M 0 189 R D 4185 1690 M 0 189 R D 4358 1690 M 0 189 R D
4503 1690 M 0 189 R D 4629 1690 M 0 189 R D 4741 1690 M 0 189 R D
5496 1690 M 0 189 R D 5879 1690 M 0 189 R D 6151 1690 M 0 189 R D
6362 1690 M 0 189 R D 6534 1690 M 0 189 R D 6680 1690 M 0 189 R D
6806 1690 M 0 189 R D 6917 1690 M 0 189 R D 7672 1690 M 0 189 R D
8055 1690 M 0 189 R D 8327 1690 M 0 189 R D 8538 1690 M 0 189 R D
8710 1690 M 0 189 R D 8856 1690 M 0 189 R D 8982 1690 M 0 189 R D
9093 1690 M 0 189 R D 9848 1690 M 0 189 R D 10231 1690 M 0 189 R D
10503 1690 M 0 189 R D 10714 1690 M 0 189 R D 10887 1690 M 0 189 R D
11032 1690 M 0 189 R D 11158 1690 M 0 189 R D 11270 1690 M 0 189 R D
12025 1690 M 0 189 R D 12408 1690 M 0 189 R D 12680 1690 M 0 189 R D
12891 1690 M 0 189 R D 13063 1690 M 0 189 R D 13209 1690 M 0 189 R D
13335 1690 M 0 189 R D 13446 1690 M 0 189 R D 14201 1690 M 0 189 R D
30 setlinewidth 7724 703 M 0 -196 R D 7724 619 M 14 42 R 28 28 R 29 14 R
42 0 R D 8061 661 M -28 28 R -28 14 R -42 0 R -28 -14 R -28 -28 R -14 -42 R
0 -28 R 14 -42 R 28 -28 R 28 -14 R 42 0 R 28 14 R 28 28 R D 8383 857 M
-252 -462 R D 8468 801 M 0 -294 R D 8608 703 M -140 -140 R D 8524 619 M
98 -112 R D 8706 703 M 0 -308 R D 8706 661 M 28 28 R 28 14 R 42 0 R 28 -14 R
28 -28 R 14 -42 R 0 -28 R -14 -42 R -28 -28 R -28 -14 R -42 0 R -28 14 R
-28 28 R D 9127 661 M -29 28 R -28 14 R -42 0 R -28 -14 R -28 -28 R
-14 -42 R 0 -28 R 14 -42 R 28 -28 R 28 -14 R 42 0 R 28 14 R 29 28 R D
20 setlinewidth 2664 11155 M 11537 0 R D 2664 11155 M 0 -378 R D
4840 11155 M 0 -378 R D 7017 11155 M 0 -378 R D 9193 11155 M 0 -378 R D
11369 11155 M 0 -378 R D 13546 11155 M 0 -378 R D 3319 11155 M 0 -189 R D
3702 11155 M 0 -189 R D 3974 11155 M 0 -189 R D 4185 11155 M 0 -189 R D
4358 11155 M 0 -189 R D 4503 11155 M 0 -189 R D 4629 11155 M 0 -189 R D
4741 11155 M 0 -189 R D 5496 11155 M 0 -189 R D 5879 11155 M 0 -189 R D
6151 11155 M 0 -189 R D 6362 11155 M 0 -189 R D 6534 11155 M 0 -189 R D
6680 11155 M 0 -189 R D 6806 11155 M 0 -189 R D 6917 11155 M 0 -189 R D
7672 11155 M 0 -189 R D 8055 11155 M 0 -189 R D 8327 11155 M 0 -189 R D
8538 11155 M 0 -189 R D 8710 11155 M 0 -189 R D 8856 11155 M 0 -189 R D
8982 11155 M 0 -189 R D 9093 11155 M 0 -189 R D 9848 11155 M 0 -189 R D
10231 11155 M 0 -189 R D 10503 11155 M 0 -189 R D 10714 11155 M 0 -189 R D
10887 11155 M 0 -189 R D 11032 11155 M 0 -189 R D 11158 11155 M 0 -189 R D
11270 11155 M 0 -189 R D 12025 11155 M 0 -189 R D 12408 11155 M 0 -189 R D
12680 11155 M 0 -189 R D 12891 11155 M 0 -189 R D 13063 11155 M 0 -189 R D
13209 11155 M 0 -189 R D 13335 11155 M 0 -189 R D 13446 11155 M 0 -189 R D
14201 11155 M 0 -189 R D 2664 1690 M 0 9465 R D 2664 1690 M 462 0 R D
30 setlinewidth 1867 1928 M 28 14 R 42 42 R 0 -294 R D 2189 1984 M -42 -14 R
-28 -42 R -14 -70 R 0 -42 R 14 -70 R 28 -42 R 42 -14 R 28 0 R 42 14 R
28 42 R 14 70 R 0 42 R -14 70 R -28 42 R -42 14 R -28 0 R D 2427 2085 M
-26 -9 R -18 -26 R -8 -43 R 0 -26 R 8 -44 R 18 -26 R 26 -8 R 17 0 R 26 8 R
17 26 R 9 44 R 0 26 R -9 43 R -17 26 R -26 9 R -17 0 R D 20 setlinewidth
2664 3529 M 462 0 R D 30 setlinewidth 1867 3598 M 28 14 R 42 43 R 0 -295 R D
2189 3655 M -42 -15 R -28 -42 R -14 -70 R 0 -42 R 14 -70 R 28 -42 R 42 -14 R
28 0 R 42 14 R 28 42 R 14 70 R 0 42 R -14 70 R -28 42 R -42 15 R -28 0 R D
2401 3721 M 17 8 R 26 26 R 0 -182 R D 20 setlinewidth 2664 5368 M 462 0 R D
30 setlinewidth 1867 5438 M 28 14 R 42 42 R 0 -295 R D 2189 5494 M -42 -14 R
-28 -42 R -14 -70 R 0 -42 R 14 -70 R 28 -43 R 42 -14 R 28 0 R 42 14 R
28 43 R 14 70 R 0 42 R -14 70 R -28 42 R -42 14 R -28 0 R D 2383 5551 M
0 9 R 9 17 R 9 9 R 17 9 R 35 0 R 17 -9 R 9 -9 R 8 -17 R 0 -17 R -8 -18 R
-18 -26 R -86 -86 R 121 0 R D 20 setlinewidth 2664 7208 M 462 0 R D
30 setlinewidth 1867 7277 M 28 14 R 42 42 R 0 -294 R D 2189 7333 M -42 -14 R
-28 -42 R -14 -70 R 0 -42 R 14 -70 R 28 -42 R 42 -14 R 28 0 R 42 14 R
28 42 R 14 70 R 0 42 R -14 70 R -28 42 R -42 14 R -28 0 R D 2392 7434 M
95 0 R -52 -69 R 26 0 R 18 -9 R 8 -9 R 9 -26 R 0 -17 R -9 -26 R -17 -17 R
-26 -9 R -26 0 R -26 9 R -9 8 R -8 18 R D 20 setlinewidth 2664 9047 M
462 0 R D 30 setlinewidth 1867 9117 M 28 14 R 42 42 R 0 -295 R D 2189 9173 M
-42 -14 R -28 -42 R -14 -71 R 0 -42 R 14 -70 R 28 -42 R 42 -14 R 28 0 R
42 14 R 28 42 R 14 70 R 0 42 R -14 71 R -28 42 R -42 14 R -28 0 R D
2461 9274 M -86 -122 R 130 0 R D 2461 9274 M 0 -183 R D 20 setlinewidth
2664 10886 M 462 0 R D 30 setlinewidth 1867 10956 M 28 14 R 42 42 R 0 -294 R
D 2189 11012 M -42 -14 R -28 -42 R -14 -70 R 0 -42 R 14 -70 R 28 -42 R
42 -14 R 28 0 R 42 14 R 28 42 R 14 70 R 0 42 R -14 70 R -28 42 R -42 14 R
-28 0 R D 2479 11113 M -87 0 R -9 -78 R 9 8 R 26 9 R 26 0 R 26 -9 R 17 -17 R
9 -26 R 0 -17 R -9 -26 R -17 -18 R -26 -8 R -26 0 R -26 8 R -9 9 R -8 17 R D
20 setlinewidth 2664 2243 M 231 0 R D 2664 2567 M 231 0 R D 2664 2797 M
231 0 R D 2664 2975 M 231 0 R D 2664 3121 M 231 0 R D 2664 3244 M 231 0 R D
2664 3351 M 231 0 R D 2664 3445 M 231 0 R D 2664 4083 M 231 0 R D
2664 4407 M 231 0 R D 2664 4636 M 231 0 R D 2664 4815 M 231 0 R D
2664 4960 M 231 0 R D 2664 5083 M 231 0 R D 2664 5190 M 231 0 R D
2664 5284 M 231 0 R D 2664 5922 M 231 0 R D 2664 6246 M 231 0 R D
2664 6476 M 231 0 R D 2664 6654 M 231 0 R D 2664 6800 M 231 0 R D
2664 6923 M 231 0 R D 2664 7029 M 231 0 R D 2664 7124 M 231 0 R D
2664 7761 M 231 0 R D 2664 8085 M 231 0 R D 2664 8315 M 231 0 R D
2664 8493 M 231 0 R D 2664 8639 M 231 0 R D 2664 8762 M 231 0 R D
2664 8869 M 231 0 R D 2664 8963 M 231 0 R D 2664 9601 M 231 0 R D
2664 9925 M 231 0 R D 2664 10155 M 231 0 R D 2664 10333 M 231 0 R D
2664 10478 M 231 0 R D 2664 10602 M 231 0 R D 2664 10708 M 231 0 R D
2664 10802 M 231 0 R D 30 setlinewidth 1271 5742 M 0 253 R D 1285 6093 M
0 168 R -28 0 R -28 -14 R -14 -14 R -14 -28 R 0 -42 R 14 -28 R 28 -28 R
42 -14 R 28 0 R 42 14 R 28 28 R 14 28 R 0 42 R -14 28 R -28 28 R D
1046 6458 M 28 -29 R 42 -28 R 57 -28 R 70 -14 R 56 0 R 70 14 R 70 28 R
42 28 R 28 29 R D 1201 6556 M 196 0 R D 1285 6556 M -42 14 R -28 28 R
-14 28 R 0 42 R D 1243 6892 M -28 -28 R -14 -28 R 0 -42 R 14 -28 R 28 -28 R
42 -14 R 28 0 R 42 14 R 28 28 R 14 28 R 0 42 R -14 28 R -28 28 R D
1046 6976 M 28 28 R 42 28 R 57 28 R 70 14 R 56 0 R 70 -14 R 70 -28 R
42 -28 R 28 -28 R D 20 setlinewidth 14201 1690 M 0 9465 R D 14201 1690 M
-462 0 R D 14201 3529 M -462 0 R D 14201 5368 M -462 0 R D 14201 7208 M
-462 0 R D 14201 9047 M -462 0 R D 14201 10886 M -462 0 R D 14201 2243 M
-231 0 R D 14201 2567 M -231 0 R D 14201 2797 M -231 0 R D 14201 2975 M
-231 0 R D 14201 3121 M -231 0 R D 14201 3244 M -231 0 R D 14201 3351 M
-231 0 R D 14201 3445 M -231 0 R D 14201 4083 M -231 0 R D 14201 4407 M
-231 0 R D 14201 4636 M -231 0 R D 14201 4815 M -231 0 R D 14201 4960 M
-231 0 R D 14201 5083 M -231 0 R D 14201 5190 M -231 0 R D 14201 5284 M
-231 0 R D 14201 5922 M -231 0 R D 14201 6246 M -231 0 R D 14201 6476 M
-231 0 R D 14201 6654 M -231 0 R D 14201 6800 M -231 0 R D 14201 6923 M
-231 0 R D 14201 7029 M -231 0 R D 14201 7124 M -231 0 R D 14201 7761 M
-231 0 R D 14201 8085 M -231 0 R D 14201 8315 M -231 0 R D 14201 8493 M
-231 0 R D 14201 8639 M -231 0 R D 14201 8762 M -231 0 R D 14201 8869 M
-231 0 R D 14201 8963 M -231 0 R D 14201 9601 M -231 0 R D 14201 9925 M
-231 0 R D 14201 10155 M -231 0 R D 14201 10333 M -231 0 R D 14201 10478 M
-231 0 R D 14201 10602 M -231 0 R D 14201 10708 M -231 0 R D 14201 10802 M
-231 0 R D 2664 7698 M 686 -5 R 396 -6 R 282 -6 R 218 -5 R 179 -6 R 152 -6 R
132 -6 R 117 -6 R 106 -5 R 95 -6 R 88 -6 R 81 -6 R 75 -6 R 71 -5 R 66 -6 R
63 -6 R 59 -6 R 57 -6 R 54 -6 R 51 -6 R 49 -6 R 48 -5 R 45 -6 R 44 -6 R
42 -6 R 41 -6 R 40 -6 R 39 -6 R 37 -6 R 36 -6 R 36 -6 R 34 -6 R 34 -6 R
32 -6 R 32 -6 R 32 -6 R 30 -6 R 30 -6 R 29 -6 R 29 -6 R 28 -7 R 28 -6 R
27 -6 R 27 -6 R 26 -6 R 26 -6 R 25 -6 R 25 -6 R 25 -7 R 24 -6 R 24 -6 R
23 -6 R 23 -6 R 23 -7 R 23 -6 R 22 -6 R 22 -6 R 22 -7 R 21 -6 R 21 -6 R
21 -6 R 21 -7 R 20 -6 R 21 -6 R 20 -7 R 19 -6 R 20 -6 R 19 -7 R 20 -6 R
19 -6 R 19 -7 R 18 -6 R 19 -7 R 18 -6 R 18 -6 R 18 -7 R 18 -6 R 18 -7 R
18 -6 R 17 -7 R 17 -6 R 18 -7 R 17 -6 R 17 -7 R 16 -6 R 17 -7 R 17 -6 R
16 -7 R 17 -6 R 16 -7 R 16 -6 R 16 -7 R 16 -7 R 16 -6 R 16 -7 R 15 -7 R
16 -6 R 15 -7 R 16 -6 R 15 -7 R 15 -7 R 15 -7 R 15 -6 R 15 -7 R 15 -7 R
15 -6 R 15 -7 R 14 -7 R 15 -7 R 14 -7 R 15 -6 R 14 -7 R 15 -7 R 14 -7 R
14 -7 R 14 -7 R 14 -6 R 14 -7 R 14 -7 R 14 -7 R 14 -7 R 14 -7 R 14 -7 R
13 -7 R 14 -7 R 13 -7 R 14 -7 R 13 -7 R 14 -7 R 13 -7 R 14 -7 R 13 -7 R
13 -7 R 13 -7 R 13 -7 R 13 -7 R 14 -8 R 13 -7 R 13 -7 R 12 -7 R 13 -7 R
13 -7 R 13 -8 R 13 -7 R 13 -7 R 12 -7 R 13 -8 R 13 -7 R 12 -7 R 13 -8 R
12 -7 R 13 -7 R 12 -8 R 13 -7 R 12 -8 R 13 -7 R 12 -7 R 12 -8 R 12 -7 R
13 -8 R 12 -7 R 12 -8 R 12 -7 R 13 -8 R 12 -7 R 12 -8 R 12 -8 R 12 -7 R
12 -8 R 12 -8 R 12 -7 R 12 -8 R 12 -8 R 12 -7 R 11 -8 R 12 -8 R 12 -8 R
12 -8 R 12 -7 R 11 -8 R 12 -8 R 12 -8 R 12 -8 R 11 -8 R 12 -8 R 11 -8 R
12 -8 R 12 -8 R 11 -8 R 12 -8 R 11 -8 R 12 -8 R 11 -8 R 12 -8 R 11 -9 R
12 -8 R 11 -8 R 12 -8 R 11 -9 R 11 -8 R 12 -8 R 11 -9 R 11 -8 R 12 -8 R
11 -9 R 11 -8 R 12 -9 R 11 -8 R 11 -9 R 11 -9 R 12 -8 R 11 -9 R 11 -8 R
11 -9 R 11 -9 R 11 -9 R 12 -8 R 11 -9 R 11 -9 R 11 -9 R 11 -9 R 11 -9 R
11 -9 R 11 -9 R 11 -9 R 11 -9 R 11 -9 R 11 -9 R 11 -9 R 11 -10 R 11 -9 R
11 -9 R 11 -10 R 11 -9 R 11 -9 R 11 -10 R 11 -9 R 11 -10 R 10 -10 R 11 -9 R
11 -10 R 11 -10 R 11 -9 R 11 -10 R 10 -10 R 11 -10 R 11 -10 R 11 -10 R
11 -10 R 10 -10 R 11 -10 R 11 -11 R 11 -10 R 10 -10 R 11 -11 R 11 -10 R
11 -10 R 10 -11 R 11 -11 R 11 -10 R 10 -11 R 11 -11 R 11 -11 R 10 -11 R
11 -11 R 11 -11 R 10 -11 R 11 -11 R 11 -11 R 10 -12 R 11 -11 R 11 -12 R
10 -11 R 11 -12 R 10 -11 R 11 -12 R 11 -12 R 10 -12 R 11 -12 R 10 -12 R
11 -13 R 10 -12 R 11 -12 R 10 -13 R 11 -13 R 10 -12 R 11 -13 R 11 -11 R
10 -9 R 11 -8 R 10 -9 R 11 -9 R 10 -9 R 10 -9 R 11 -9 R 10 -9 R 11 -8 R
10 -9 R 11 -9 R 10 -9 R 11 -9 R 10 -9 R 11 -8 R 10 -9 R 10 -9 R 11 -9 R
10 -9 R 11 -8 R 10 -9 R 11 -9 R 10 -9 R 10 -9 R 11 -8 R 10 -9 R 11 -9 R
10 -9 R 10 -9 R 11 -8 R 10 -9 R 10 -9 R 11 -9 R 10 -8 R 11 -9 R 10 -9 R
10 -9 R 11 -8 R 10 -9 R 10 -9 R 11 -9 R 10 -8 R 10 -9 R 11 -9 R 10 -8 R
10 -9 R 11 -9 R 10 -9 R 10 -8 R 10 -9 R 11 -9 R 10 -8 R 10 -9 R 11 -9 R
10 -9 R 10 -8 R 10 -9 R 11 -9 R 10 -8 R 10 -9 R 11 -9 R 10 -8 R 10 -9 R
10 -9 R 11 -8 R 10 -9 R 10 -9 R 10 -8 R 11 -9 R 10 -9 R 10 -8 R 10 -9 R
11 -9 R 10 -8 R 10 -9 R 10 -9 R 11 -8 R 10 -9 R 10 -9 R 10 -8 R 11 -9 R
10 -9 R 10 -8 R 10 -9 R 10 -8 R 11 -9 R 10 -9 R 10 -8 R 10 -9 R 10 -9 R
11 -8 R 10 -9 R 10 -8 R 10 -9 R 10 -9 R 11 -8 R 10 -9 R 10 -9 R 10 -8 R
10 -9 R 11 -8 R 10 -9 R 10 -9 R 10 -8 R 10 -9 R 10 -8 R 11 -9 R 10 -9 R
10 -8 R 10 -9 R 10 -8 R 11 -9 R 10 -9 R 10 -8 R 10 -9 R 10 -8 R 10 -9 R
10 -8 R 11 -9 R 10 -9 R 10 -8 R 10 -9 R 10 -8 R 10 -9 R 11 -9 R 10 -8 R
10 -9 R 10 -8 R 10 -9 R 10 -8 R 10 -9 R 11 -9 R 10 -8 R 10 -9 R 10 -8 R
10 -9 R 10 -8 R 10 -9 R 10 -8 R 11 -9 R 10 -9 R 10 -8 R 10 -9 R 10 -8 R
10 -9 R 10 -8 R 10 -9 R 11 -8 R 10 -9 R 10 -9 R 10 -8 R 10 -9 R 10 -8 R
10 -9 R 10 -8 R 11 -9 R 10 -8 R 10 -9 R 10 -9 R 10 -8 R 10 -9 R 10 -8 R
10 -9 R 10 -8 R 10 -9 R 11 -8 R 10 -9 R 10 -8 R 10 -9 R 10 -8 R 10 -9 R
10 -9 R 10 -8 R 10 -9 R 10 -8 R 11 -9 R 10 -8 R 10 -9 R 10 -8 R 10 -9 R
10 -8 R 10 -9 R 10 -8 R 10 -9 R 10 -8 R 10 -9 R 11 -8 R 10 -9 R 10 -9 R
10 -8 R 10 -9 R 10 -8 R 10 -9 R 10 -8 R 10 -9 R 10 -8 R 10 -9 R 10 -8 R
11 -9 R 10 -8 R 10 -9 R 10 -8 R 10 -9 R 10 -8 R 10 -9 R 10 -8 R 10 -9 R
10 -8 R 10 -9 R 10 -8 R 10 -9 R 10 -8 R D L1 2664 8810 M 754 -3 R 419 -2 R
291 -2 R 226 -3 R 183 -2 R 156 -3 R 135 -2 R 119 -3 R 108 -3 R 97 -2 R
89 -3 R 83 -2 R 77 -3 R 72 -3 R 67 -3 R 64 -2 R 61 -3 R 57 -3 R 55 -3 R
52 -2 R 51 -3 R 48 -3 R 47 -3 R 44 -3 R 44 -3 R 42 -3 R 40 -3 R 40 -3 R
38 -3 R 37 -3 R 37 -3 R 35 -3 R 35 -3 R 33 -3 R 33 -3 R 32 -4 R 32 -3 R
31 -3 R 30 -3 R 29 -4 R 30 -3 R 28 -3 R 28 -4 R 28 -3 R 27 -3 R 27 -4 R
26 -3 R 26 -4 R 25 -3 R 25 -4 R 25 -3 R 24 -4 R 24 -4 R 24 -3 R 24 -4 R
23 -3 R 23 -4 R 22 -4 R 23 -4 R 22 -3 R 22 -4 R 21 -4 R 22 -4 R 21 -4 R
21 -4 R 20 -4 R 21 -4 R 20 -4 R 21 -4 R 19 -4 R 20 -4 R 20 -4 R 19 -4 R
20 -4 R 19 -4 R 19 -4 R 19 -5 R 18 -4 R 19 -4 R 18 -4 R 19 -5 R 18 -4 R
18 -4 R 18 -5 R 18 -4 R 17 -5 R 18 -4 R 17 -5 R 18 -4 R 17 -5 R 17 -4 R
17 -5 R 17 -4 R 17 -5 R 16 -5 R 17 -4 R 17 -5 R 16 -5 R 16 -5 R 17 -4 R
16 -5 R 16 -5 R 16 -5 R 16 -5 R 16 -5 R 16 -5 R 16 -5 R 15 -5 R 16 -5 R
15 -5 R 16 -5 R 15 -5 R 16 -5 R 15 -6 R 15 -5 R 15 -5 R 15 -5 R 15 -6 R
15 -5 R 15 -5 R 15 -6 R 15 -5 R 15 -5 R 15 -6 R 14 -5 R 15 -6 R 15 -5 R
14 -6 R 15 -5 R 14 -6 R 14 -6 R 15 -5 R 14 -6 R 14 -6 R 15 -5 R 14 -6 R
14 -6 R 14 -6 R 14 -6 R 14 -6 R 14 -5 R 14 -6 R 14 -6 R 14 -6 R 14 -6 R
13 -6 R 14 -6 R 14 -7 R 14 -6 R 13 -6 R 14 -6 R 14 -6 R 13 -6 R 14 -7 R
13 -6 R 14 -6 R 13 -7 R 14 -6 R 13 -6 R 13 -7 R 14 -6 R 13 -7 R 13 -6 R
14 -7 R 13 -6 R 13 -7 R 13 -6 R 14 -7 R 13 -7 R 13 -6 R 13 -7 R 13 -7 R
13 -7 R 13 -6 R 13 -7 R 13 -7 R 13 -7 R 13 -7 R 13 -7 R 13 -7 R 13 -7 R
13 -7 R 13 -7 R 13 -7 R 12 -7 R 13 -7 R 13 -8 R 13 -7 R 12 -7 R 13 -7 R
13 -8 R 13 -7 R 12 -7 R 13 -8 R 13 -7 R 12 -8 R 13 -7 R 12 -8 R 13 -7 R
13 -8 R 12 -7 R 13 -8 R 12 -8 R 13 -7 R 12 -8 R 13 -8 R 12 -8 R 13 -8 R
12 -7 R 13 -8 R 12 -8 R 13 -8 R 12 -8 R 12 -8 R 13 -8 R 12 -9 R 12 -8 R
13 -8 R 12 -8 R 12 -8 R 13 -9 R 12 -8 R 12 -8 R 13 -9 R 12 -8 R 12 -9 R
12 -8 R 13 -9 R 12 -8 R 12 -9 R 12 -9 R 12 -8 R 13 -9 R 12 -9 R 12 -9 R
12 -8 R 12 -9 R 12 -9 R 13 -9 R 12 -9 R 12 -9 R 12 -10 R 12 -9 R 12 -9 R
12 -9 R 12 -10 R 12 -9 R 12 -9 R 13 -10 R 12 -9 R 12 -10 R 12 -9 R 12 -10 R
12 -10 R 12 -9 R 12 -10 R 12 -10 R 12 -10 R 12 -10 R 12 -10 R 12 -10 R
12 -10 R 12 -10 R 12 -11 R 11 -10 R 12 -10 R 12 -11 R 12 -10 R 12 -11 R
12 -10 R 12 -11 R 12 -11 R 12 -10 R 12 -11 R 12 -11 R 12 -11 R 11 -11 R
12 -12 R 12 -11 R 12 -11 R 12 -11 R 12 -12 R 12 -11 R 11 -12 R 12 -12 R
12 -12 R 12 -11 R 12 -12 R 12 -12 R 11 -13 R 12 -12 R 12 -12 R 12 -13 R
12 -12 R 11 -13 R 12 -12 R 12 -13 R 12 -13 R 12 -13 R 11 -13 R 12 -14 R
12 -13 R 12 -14 R 11 -13 R 12 -14 R 12 -14 R 12 -14 R 12 -14 R 11 -15 R
12 -14 R 12 -15 R 11 -14 R 12 -11 R 12 -10 R 12 -10 R 11 -10 R 12 -10 R
12 -10 R 12 -10 R 11 -9 R 12 -10 R 12 -10 R 11 -10 R 12 -10 R 12 -10 R
11 -10 R 12 -10 R 12 -10 R 12 -9 R 11 -10 R 12 -10 R 12 -10 R 11 -10 R
12 -10 R 12 -10 R 11 -10 R 12 -9 R 12 -10 R 11 -10 R 12 -10 R 12 -10 R
11 -10 R 12 -10 R 12 -9 R 11 -10 R 12 -10 R 11 -10 R 12 -10 R 12 -10 R
11 -9 R 12 -10 R 12 -10 R 11 -10 R 12 -10 R 12 -10 R 11 -9 R 12 -10 R
11 -10 R 12 -10 R 12 -10 R 11 -9 R 12 -10 R 11 -10 R 12 -10 R 12 -10 R
11 -10 R 12 -9 R 12 -10 R 11 -10 R 12 -10 R 11 -10 R 12 -9 R 12 -10 R
11 -10 R 12 -10 R 11 -10 R 12 -9 R 11 -10 R 12 -10 R 12 -10 R 11 -10 R
12 -9 R 11 -10 R 12 -10 R 12 -10 R 11 -9 R 12 -10 R 11 -10 R 12 -10 R
11 -10 R 12 -9 R 12 -10 R 11 -10 R 12 -10 R 11 -9 R 12 -10 R 11 -10 R
12 -10 R 12 -10 R 11 -9 R 12 -10 R 11 -10 R 12 -10 R 11 -9 R 12 -10 R
11 -10 R 12 -10 R 12 -10 R 11 -9 R 12 -10 R 11 -10 R 12 -10 R 11 -9 R
12 -10 R 11 -10 R 12 -10 R 12 -9 R 11 -10 R 12 -10 R 11 -10 R 12 -9 R
11 -10 R 12 -10 R 11 -10 R 12 -9 R 11 -10 R 12 -10 R 11 -10 R 12 -9 R
12 -10 R 11 -10 R 12 -10 R 11 -9 R 12 -10 R 11 -10 R 12 -10 R 11 -9 R
12 -10 R 11 -10 R 12 -10 R 11 -9 R 12 -10 R 11 -10 R 12 -10 R 11 -9 R
12 -10 R 11 -10 R 12 -9 R 12 -10 R 11 -10 R 12 -10 R 11 -9 R 12 -10 R
11 -10 R 12 -10 R 11 -9 R 12 -10 R 11 -10 R 12 -10 R 11 -9 R 12 -10 R
11 -10 R 12 -9 R 11 -10 R 12 -10 R 11 -10 R 12 -9 R 11 -10 R 12 -10 R
11 -10 R 12 -9 R 11 -10 R 12 -10 R 11 -10 R 12 -9 R 11 -10 R 12 -10 R
11 -9 R 12 -10 R 11 -10 R 12 -10 R 11 -9 R 12 -10 R 11 -10 R 12 -9 R
11 -10 R 12 -10 R 11 -10 R 12 -9 R 11 -10 R 12 -10 R 11 -10 R 12 -9 R
11 -10 R 12 -10 R 11 -9 R 12 -10 R 11 -10 R 12 -10 R 11 -9 R D L2
2664 9925 M 818 -1 R 437 -1 R 301 -1 R 231 -1 R 187 -1 R 159 -1 R 137 -1 R
122 -1 R 109 -1 R 99 -2 R 91 -1 R 84 -1 R 78 -1 R 73 -1 R 68 -1 R 65 -2 R
62 -1 R 59 -1 R 55 -1 R 54 -2 R 51 -1 R 50 -1 R 47 -1 R 46 -2 R 44 -1 R
43 -1 R 42 -2 R 40 -1 R 39 -2 R 38 -1 R 38 -1 R 36 -2 R 35 -1 R 35 -2 R
34 -1 R 33 -2 R 32 -1 R 32 -2 R 31 -2 R 30 -1 R 30 -2 R 30 -1 R 29 -2 R
28 -2 R 28 -1 R 28 -2 R 27 -2 R 27 -2 R 26 -1 R 26 -2 R 26 -2 R 25 -2 R
25 -2 R 25 -1 R 24 -2 R 24 -2 R 24 -2 R 24 -2 R 23 -2 R 23 -2 R 23 -2 R
22 -2 R 23 -2 R 22 -2 R 22 -2 R 21 -2 R 22 -2 R 21 -3 R 21 -2 R 21 -2 R
21 -2 R 21 -3 R 20 -2 R 20 -2 R 20 -2 R 20 -3 R 20 -2 R 20 -3 R 19 -2 R
20 -2 R 19 -3 R 19 -2 R 19 -3 R 19 -3 R 19 -2 R 19 -3 R 18 -2 R 19 -3 R
18 -3 R 18 -2 R 18 -3 R 18 -3 R 18 -3 R 18 -3 R 18 -2 R 17 -3 R 18 -3 R
18 -3 R 17 -3 R 17 -3 R 17 -3 R 18 -3 R 17 -3 R 17 -3 R 17 -3 R 17 -4 R
16 -3 R 17 -3 R 17 -3 R 16 -4 R 17 -3 R 16 -3 R 17 -4 R 16 -3 R 16 -3 R
17 -4 R 16 -3 R 16 -4 R 16 -3 R 16 -4 R 16 -4 R 16 -3 R 16 -4 R 16 -4 R
15 -3 R 16 -4 R 16 -4 R 15 -4 R 16 -4 R 16 -4 R 15 -4 R 15 -4 R 16 -4 R
15 -4 R 16 -4 R 15 -4 R 15 -4 R 15 -4 R 16 -4 R 15 -5 R 15 -4 R 15 -4 R
15 -5 R 15 -4 R 15 -4 R 15 -5 R 15 -4 R 15 -5 R 15 -4 R 14 -5 R 15 -5 R
15 -4 R 15 -5 R 14 -5 R 15 -5 R 15 -4 R 14 -5 R 15 -5 R 15 -5 R 14 -5 R
15 -5 R 14 -5 R 15 -5 R 14 -5 R 14 -5 R 15 -5 R 14 -6 R 15 -5 R 14 -5 R
14 -6 R 15 -5 R 14 -5 R 14 -6 R 14 -5 R 15 -6 R 14 -5 R 14 -6 R 14 -5 R
14 -6 R 14 -6 R 14 -6 R 15 -5 R 14 -6 R 14 -6 R 14 -6 R 14 -6 R 14 -6 R
14 -6 R 14 -6 R 14 -6 R 14 -6 R 14 -6 R 13 -7 R 14 -6 R 14 -6 R 14 -6 R
14 -7 R 14 -6 R 14 -7 R 13 -6 R 14 -7 R 14 -6 R 14 -7 R 14 -7 R 13 -6 R
14 -7 R 14 -7 R 14 -7 R 13 -6 R 14 -7 R 14 -7 R 13 -7 R 14 -7 R 14 -7 R
13 -7 R 14 -8 R 14 -7 R 13 -7 R 14 -7 R 13 -8 R 14 -7 R 13 -7 R 14 -8 R
14 -7 R 13 -8 R 14 -8 R 13 -7 R 14 -8 R 13 -8 R 14 -7 R 13 -8 R 14 -8 R
13 -8 R 14 -8 R 13 -8 R 14 -8 R 13 -8 R 13 -8 R 14 -8 R 13 -9 R 14 -8 R
13 -8 R 14 -9 R 13 -8 R 13 -9 R 14 -8 R 13 -9 R 13 -8 R 14 -9 R 13 -9 R
14 -8 R 13 -9 R 13 -9 R 14 -9 R 13 -9 R 13 -9 R 14 -9 R 13 -10 R 13 -9 R
13 -9 R 14 -9 R 13 -10 R 13 -9 R 14 -10 R 13 -9 R 13 -10 R 13 -10 R 14 -9 R
13 -10 R 13 -10 R 13 -10 R 14 -10 R 13 -10 R 13 -10 R 13 -10 R 14 -11 R
13 -10 R 13 -10 R 13 -11 R 14 -10 R 13 -11 R 13 -11 R 13 -10 R 13 -11 R
13 -11 R 14 -11 R 13 -11 R 13 -11 R 13 -12 R 13 -11 R 14 -11 R 13 -12 R
13 -11 R 13 -12 R 13 -12 R 13 -12 R 13 -12 R 14 -12 R 13 -12 R 13 -12 R
13 -12 R 13 -13 R 13 -12 R 13 -13 R 14 -13 R 13 -12 R 13 -13 R 13 -13 R
13 -14 R 13 -13 R 13 -13 R 13 -14 R 13 -14 R 14 -14 R 13 -14 R 13 -14 R
13 -14 R 13 -14 R 13 -15 R 13 -14 R 13 -15 R 13 -15 R 13 -15 R 13 -16 R
14 -15 R 13 -16 R 13 -16 R 13 -16 R 13 -16 R 13 -17 R 13 -16 R 13 -17 R
13 -14 R 13 -11 R 13 -11 R 13 -11 R 13 -11 R 13 -11 R 13 -11 R 13 -11 R
13 -11 R 14 -11 R 13 -11 R 13 -11 R 13 -11 R 13 -11 R 13 -11 R 13 -11 R
13 -11 R 13 -11 R 13 -11 R 13 -11 R 13 -11 R 13 -11 R 13 -11 R 13 -11 R
13 -11 R 13 -11 R 13 -11 R 13 -11 R 13 -11 R 13 -11 R 13 -11 R 13 -11 R
13 -11 R 13 -11 R 13 -11 R 13 -11 R 13 -11 R 13 -11 R 13 -11 R 13 -11 R
13 -11 R 13 -11 R 13 -11 R 13 -11 R 13 -11 R 13 -11 R 13 -11 R 13 -11 R
13 -11 R 13 -11 R 13 -11 R 13 -11 R 13 -11 R 13 -11 R 13 -11 R 13 -11 R
13 -11 R 13 -11 R 13 -11 R 13 -11 R 13 -11 R 13 -11 R 13 -10 R 13 -11 R
13 -11 R 13 -11 R 13 -11 R 13 -11 R 13 -11 R 13 -11 R 13 -11 R 13 -11 R
13 -11 R 13 -11 R 13 -11 R 13 -11 R 13 -11 R 13 -11 R 13 -11 R 13 -11 R
12 -11 R 13 -11 R 13 -11 R 13 -11 R 13 -11 R 13 -11 R 13 -11 R 13 -11 R
13 -11 R 13 -10 R 13 -11 R 13 -11 R 13 -11 R 13 -11 R 13 -11 R 13 -11 R
13 -11 R 13 -11 R 13 -11 R 13 -11 R 13 -11 R 13 -11 R 13 -11 R 13 -11 R
13 -11 R 13 -11 R 12 -11 R 13 -11 R 13 -11 R 13 -11 R 13 -10 R 13 -11 R
13 -11 R 13 -11 R 13 -11 R 13 -11 R 13 -11 R 13 -11 R 13 -11 R 13 -11 R
13 -11 R 13 -11 R 13 -11 R 13 -11 R 13 -11 R 13 -11 R 12 -11 R 13 -11 R
13 -10 R 13 -11 R 13 -11 R 13 -11 R 13 -11 R 13 -11 R 13 -11 R 13 -11 R
13 -11 R 13 -11 R 13 -11 R 13 -11 R 13 -11 R 13 -11 R 13 -11 R 13 -11 R
12 -10 R 13 -11 R 13 -11 R 13 -11 R 13 -11 R 13 -11 R 13 -11 R 13 -11 R
13 -11 R 13 -11 R 13 -11 R 13 -11 R 13 -11 R 13 -11 R 13 -11 R 13 -11 R
12 -10 R 13 -11 R 13 -11 R 13 -11 R 13 -11 R 13 -11 R 13 -11 R 13 -11 R D L3
2664 11046 M 878 -1 R 453 0 R 309 -1 R 235 0 R 191 0 R 161 -1 R 140 0 R
123 -1 R 111 0 R 100 -1 R 92 0 R 86 -1 R 79 0 R 74 -1 R 70 0 R 66 -1 R
62 0 R 60 -1 R 57 0 R 54 -1 R 53 0 R 50 -1 R 48 -1 R 47 0 R 45 -1 R 44 0 R
43 -1 R 41 0 R 40 -1 R 39 -1 R 38 0 R 37 -1 R 37 -1 R 35 0 R 35 -1 R 34 -1 R
33 0 R 33 -1 R 32 -1 R 31 -1 R 31 0 R 30 -1 R 30 -1 R 30 -1 R 29 0 R 28 -1 R
28 -1 R 28 -1 R 27 -1 R 27 0 R 27 -1 R 26 -1 R 26 -1 R 25 -1 R 26 -1 R
25 -1 R 25 -1 R 24 0 R 24 -1 R 24 -1 R 24 -1 R 23 -1 R 24 -1 R 23 -1 R
23 -1 R 22 -1 R 23 -1 R 22 -2 R 22 -1 R 22 -1 R 22 -1 R 21 -1 R 22 -1 R
21 -1 R 21 -2 R 21 -1 R 21 -1 R 21 -1 R 20 -1 R 21 -2 R 20 -1 R 20 -1 R
20 -2 R 20 -1 R 20 -1 R 19 -2 R 20 -1 R 19 -1 R 20 -2 R 19 -1 R 19 -2 R
19 -1 R 19 -2 R 19 -1 R 19 -2 R 19 -1 R 18 -2 R 19 -2 R 18 -1 R 19 -2 R
18 -1 R 18 -2 R 18 -2 R 18 -2 R 18 -1 R 18 -2 R 18 -2 R 18 -2 R 18 -2 R
17 -1 R 18 -2 R 18 -2 R 17 -2 R 18 -2 R 17 -2 R 17 -2 R 18 -2 R 17 -2 R
17 -2 R 17 -3 R 17 -2 R 17 -2 R 17 -2 R 17 -2 R 17 -3 R 17 -2 R 17 -2 R
17 -2 R 16 -3 R 17 -2 R 17 -3 R 16 -2 R 17 -3 R 16 -2 R 17 -3 R 16 -2 R
17 -3 R 16 -2 R 16 -3 R 17 -3 R 16 -3 R 16 -2 R 16 -3 R 17 -3 R 16 -3 R
16 -3 R 16 -3 R 16 -3 R 16 -3 R 16 -3 R 16 -3 R 16 -3 R 16 -3 R 16 -3 R
16 -3 R 15 -4 R 16 -3 R 16 -3 R 16 -3 R 16 -4 R 15 -3 R 16 -4 R 16 -3 R
15 -4 R 16 -3 R 16 -4 R 15 -4 R 16 -3 R 15 -4 R 16 -4 R 15 -4 R 16 -3 R
15 -4 R 16 -4 R 15 -4 R 16 -4 R 15 -4 R 16 -4 R 15 -4 R 15 -5 R 16 -4 R
15 -4 R 15 -4 R 16 -5 R 15 -4 R 15 -4 R 15 -5 R 16 -4 R 15 -5 R 15 -5 R
15 -4 R 16 -5 R 15 -5 R 15 -4 R 15 -5 R 15 -5 R 15 -5 R 15 -5 R 16 -5 R
15 -5 R 15 -5 R 15 -5 R 15 -5 R 15 -6 R 15 -5 R 15 -5 R 15 -6 R 15 -5 R
15 -6 R 15 -5 R 15 -6 R 15 -5 R 15 -6 R 15 -6 R 15 -6 R 15 -5 R 15 -6 R
15 -6 R 14 -6 R 15 -6 R 15 -6 R 15 -6 R 15 -7 R 15 -6 R 15 -6 R 15 -6 R
14 -7 R 15 -6 R 15 -7 R 15 -6 R 15 -7 R 15 -7 R 14 -6 R 15 -7 R 15 -7 R
15 -7 R 14 -7 R 15 -7 R 15 -7 R 15 -7 R 14 -7 R 15 -7 R 15 -7 R 15 -8 R
14 -7 R 15 -8 R 15 -7 R 15 -8 R 14 -7 R 15 -8 R 15 -8 R 14 -7 R 15 -8 R
15 -8 R 14 -8 R 15 -8 R 15 -8 R 14 -8 R 15 -9 R 15 -8 R 14 -8 R 15 -9 R
15 -8 R 14 -9 R 15 -8 R 15 -9 R 14 -9 R 15 -8 R 14 -9 R 15 -9 R 15 -9 R
14 -9 R 15 -9 R 14 -9 R 15 -10 R 15 -9 R 14 -9 R 15 -10 R 14 -10 R 15 -9 R
15 -10 R 14 -10 R 15 -9 R 14 -10 R 15 -10 R 14 -10 R 15 -11 R 15 -10 R
14 -10 R 15 -11 R 14 -10 R 15 -11 R 14 -10 R 15 -11 R 14 -11 R 15 -11 R
14 -11 R 15 -11 R 14 -11 R 15 -11 R 14 -12 R 15 -11 R 15 -12 R 14 -12 R
15 -11 R 14 -12 R 15 -12 R 14 -12 R 15 -13 R 14 -12 R 15 -12 R 14 -13 R
15 -13 R 14 -12 R 15 -13 R 14 -13 R 15 -13 R 14 -14 R 15 -13 R 14 -14 R
15 -13 R 14 -14 R 14 -14 R 15 -14 R 14 -14 R 15 -15 R 14 -14 R 15 -15 R
14 -15 R 15 -15 R 14 -15 R 15 -16 R 14 -15 R 15 -16 R 14 -16 R 15 -16 R
14 -17 R 14 -16 R 15 -17 R 14 -17 R 15 -17 R 14 -18 R 15 -18 R 14 -18 R
15 -18 R 14 -19 R 15 -18 R 14 -20 R 14 -18 R 15 -13 R 14 -12 R 15 -12 R
14 -12 R 15 -12 R 14 -13 R 15 -12 R 14 -12 R 14 -12 R 15 -12 R 14 -13 R
15 -12 R 14 -12 R 15 -12 R 14 -12 R 14 -13 R 15 -12 R 14 -12 R 15 -12 R
14 -12 R 15 -13 R 14 -12 R 14 -12 R 15 -12 R 14 -12 R 15 -12 R 14 -13 R
15 -12 R 14 -12 R 14 -12 R 15 -12 R 14 -13 R 15 -12 R 14 -12 R 14 -12 R
15 -12 R 14 -13 R 15 -12 R 14 -12 R 15 -12 R 14 -12 R 14 -12 R 15 -13 R
14 -12 R 15 -12 R 14 -12 R 14 -12 R 15 -12 R 14 -13 R 15 -12 R 14 -12 R
14 -12 R 15 -12 R 14 -13 R 15 -12 R 14 -12 R 14 -12 R 15 -12 R 14 -12 R
15 -13 R 14 -12 R 14 -12 R 15 -12 R 14 -12 R 15 -12 R 14 -13 R 14 -12 R
15 -12 R 14 -12 R 15 -12 R 14 -12 R 14 -13 R 15 -12 R 14 -12 R 15 -12 R
14 -12 R 14 -12 R 15 -13 R 14 -12 R 15 -12 R 14 -12 R 14 -12 R 15 -12 R
14 -13 R 15 -12 R 14 -12 R 14 -12 R 15 -12 R 14 -12 R 15 -13 R 14 -12 R
14 -12 R 15 -12 R 14 -12 R 14 -12 R 15 -13 R 14 -12 R 15 -12 R 14 -12 R
14 -12 R 15 -12 R 14 -13 R 15 -12 R 14 -12 R 14 -12 R 15 -12 R 14 -12 R
15 -12 R 14 -13 R 14 -12 R 15 -12 R 14 -12 R 14 -12 R 15 -12 R 14 -13 R
15 -12 R 14 -12 R 14 -12 R 15 -12 R 14 -12 R 15 -13 R 14 -12 R 14 -12 R
15 -12 R 14 -12 R 14 -12 R 15 -12 R 14 -13 R 15 -12 R 14 -12 R 14 -12 R
15 -12 R 14 -12 R 15 -13 R 14 -12 R 14 -12 R 15 -12 R 14 -12 R 14 -12 R
15 -13 R 14 -12 R 15 -12 R 14 -12 R 14 -12 R 15 -12 R 14 -12 R 15 -13 R
14 -12 R 14 -12 R 15 -12 R 11 -10 R D
%%PageTrailer
end
%%PageResources: font Helvetica
%%Trailer
%%Pages: 1
%%DocumentNeededResources: font Helvetica
%%EOF
