%!PS-Adobe-3.0 EPSF-3.0
%%BoundingBox: 0 0 453 396
%%Title: Graphics produced by IDL
%%For: jlgan@aida119, /home/jlgan/work/subhalo_model
%%Creator: IDL Version 7.0 (linux x86_64 m64)
%%CreationDate: Mon May 18 15:06:56 2009
%%DocumentData: Clean7bit
%%Requirements: color
%%LanguageLevel: 1
%%PageOrder: Ascend
%%Pages: (atend)
%%DocumentNeededResources: (atend)
%%EndComments
%%BeginProlog
%+ prolog.ps -- Prolog for IDL generated PostScript files
%+ Copyright (c) 1988-2007 ITT Visual Information Solutions. All Rights Reserved.
%v 5
/$IDL_DICT 40 dict def $IDL_DICT begin /bdef { bind def } bind def /C
{currentpoint newpath moveto} bdef /CP {currentpoint} bdef /D {currentpoint
stroke moveto} bdef /F {closepath fill} bdef /K { setgray } bdef /M {moveto}
bdef /N {rmoveto} bdef /P {lineto} bdef /R {rlineto} bdef /S {gsave show
grestore} bdef /X {currentpoint pop} bdef /Z {gsave currentpoint lineto 20
setlinewidth 1 setlinecap stroke grestore} bdef /L0 {[] 0 setdash} bdef /L1
{[40 100] 0 setdash} bdef /L2 {[200 200] 0 setdash} bdef /L3 {[200 100 50
100] 0 setdash} bdef /L4 {[300 100 50 100 50 100 50 100] 0 setdash} bdef /L5
{[400 200] 0 setdash} bdef /STDFONT { findfont exch scalefont setfont } bdef
/ISOFONT { findfont dup length dict begin { 1 index /FID ne {def} {pop pop}
ifelse } forall /Encoding ISOLatin1Encoding def currentdict end /idltmpfont
exch definefont exch scalefont setfont } bdef /ISOBULLET { gsave /Helvetica
findfont exch scalefont setfont (\267) show currentpoint grestore moveto}
bdef /MITERLIMIT { 2.5 setmiterlimit } bdef end
%%EndProlog
%%Page: 0 1
%%PageRequirements: color
%%PageResources: (atend)
%%PageOrientation: Portrait
%%PageBoundingBox: 0 0 453 396
%%BeginPageSetup
$IDL_DICT begin 0.0283465 dup scale MITERLIMIT
%%IncludeResource: font Helvetica
423.333 /Helvetica STDFONT
%%EndPageSetup
30 setlinewidth L0 0.000 0.000 0.000 setrgbcolor 8333 1297 M 0 -198 R
12 -35 R 23 -12 R 24 0 R D 8298 1216 M 82 0 R D 8649 1344 M -211 -385 R D
8882 1239 M -11 23 R -24 24 R -23 11 R -47 0 R -23 -11 R -24 -24 R -11 -23 R
-12 -35 R 0 -58 R 12 -36 R 11 -23 R 24 -23 R 23 -12 R 47 0 R 23 12 R 24 23 R
11 23 R 0 36 R -58 0 R D 8941 1216 M 70 -164 R 70 164 R D 9011 1052 M
-24 -58 R -23 -24 R -23 -11 R -12 0 R D 9151 1216 M 0 -164 R D 9151 1146 M
12 35 R 23 23 R 23 12 R 35 0 R D 1536 7165 M -11 -23 R 0 -35 R 11 -24 R
24 -23 R 35 -12 R 35 0 R 35 12 R 11 12 R 12 23 R 0 35 R -12 23 R D
1606 7048 M 0 94 R D 1396 7329 M 23 -24 R 35 -23 R 47 -23 R 59 -12 R 46 0 R
59 12 R 58 23 R 35 23 R 24 24 R D 1443 7422 M 198 0 R 35 12 R 12 23 R 0 24 R
D 1525 7387 M 0 82 R D 1396 7539 M 23 23 R 35 24 R 47 23 R 59 12 R 46 0 R
59 -12 R 58 -23 R 35 -24 R 24 -23 R D 20 setlinewidth 3020 8052 M 4957 0 R D
3471 8052 M 0 182 R D 30 setlinewidth 3494 7769 M -117 -163 R 176 0 R D
3494 7769 M 0 -245 R D 20 setlinewidth 4372 8052 M 0 182 R D 30 setlinewidth
4430 7734 M -11 24 R -35 11 R -24 0 R -35 -11 R -23 -35 R -12 -59 R 0 -58 R
12 -47 R 23 -23 R 35 -12 R 12 0 R 35 12 R 23 23 R 12 35 R 0 12 R -12 35 R
-23 23 R -35 12 R -12 0 R -35 -12 R -23 -23 R -12 -35 R D 20 setlinewidth
5273 8052 M 0 182 R D 30 setlinewidth 5238 7769 M -35 -11 R -12 -24 R
0 -23 R 12 -23 R 24 -12 R 46 -12 R 35 -11 R 24 -24 R 11 -23 R 0 -35 R
-11 -24 R -12 -11 R -35 -12 R -47 0 R -35 12 R -12 11 R -11 24 R 0 35 R
11 23 R 24 24 R 35 11 R 47 12 R 23 12 R 12 23 R 0 23 R -12 24 R -35 11 R
-47 0 R D 20 setlinewidth 6175 8052 M 0 182 R D 30 setlinewidth 5999 7723 M
24 11 R 35 35 R 0 -245 R D 6268 7769 M -35 -11 R -23 -35 R -12 -59 R 0 -35 R
12 -58 R 23 -35 R 35 -12 R 23 0 R 35 12 R 24 35 R 11 58 R 0 35 R -11 59 R
-24 35 R -35 11 R -23 0 R D 20 setlinewidth 7076 8052 M 0 182 R D
30 setlinewidth 6901 7723 M 23 11 R 35 35 R 0 -245 R D 7111 7711 M 0 12 R
12 23 R 11 12 R 24 11 R 46 0 R 24 -11 R 11 -12 R 12 -23 R 0 -24 R -12 -23 R
-23 -35 R -117 -117 R 164 0 R D 20 setlinewidth 7977 8052 M 0 182 R D
30 setlinewidth 7802 7723 M 23 11 R 35 35 R 0 -245 R D 8117 7769 M
-117 -163 R 176 0 R D 8117 7769 M 0 -245 R D 20 setlinewidth 3020 8052 M
0 91 R D 3245 8052 M 0 91 R D 3696 8052 M 0 91 R D 3921 8052 M 0 91 R D
4147 8052 M 0 91 R D 4597 8052 M 0 91 R D 4823 8052 M 0 91 R D 5048 8052 M
0 91 R D 5499 8052 M 0 91 R D 5724 8052 M 0 91 R D 5949 8052 M 0 91 R D
6400 8052 M 0 91 R D 6625 8052 M 0 91 R D 6850 8052 M 0 91 R D 7301 8052 M
0 91 R D 7526 8052 M 0 91 R D 7752 8052 M 0 91 R D 3020 12596 M 4957 0 R D
3471 12596 M 0 -182 R D 4372 12596 M 0 -182 R D 5273 12596 M 0 -182 R D
6175 12596 M 0 -182 R D 7076 12596 M 0 -182 R D 7977 12596 M 0 -182 R D
3020 12596 M 0 -91 R D 3245 12596 M 0 -91 R D 3696 12596 M 0 -91 R D
3921 12596 M 0 -91 R D 4147 12596 M 0 -91 R D 4597 12596 M 0 -91 R D
4823 12596 M 0 -91 R D 5048 12596 M 0 -91 R D 5499 12596 M 0 -91 R D
5724 12596 M 0 -91 R D 5949 12596 M 0 -91 R D 6400 12596 M 0 -91 R D
6625 12596 M 0 -91 R D 6850 12596 M 0 -91 R D 7301 12596 M 0 -91 R D
7526 12596 M 0 -91 R D 7752 12596 M 0 -91 R D 3020 8052 M 0 4544 R D
3020 8855 M 198 0 R D 30 setlinewidth 1951 8959 M -35 -12 R -23 -35 R
-12 -58 R 0 -35 R 12 -58 R 23 -36 R 35 -11 R 23 0 R 35 11 R 24 36 R 11 58 R
0 35 R -11 58 R -24 35 R -35 12 R -23 0 R D 2138 8737 M -12 -12 R 12 -11 R
12 11 R -12 12 R D 2266 8912 M 24 12 R 35 35 R 0 -245 R D 2477 8901 M 0 11 R
11 24 R 12 11 R 24 12 R 46 0 R 24 -12 R 11 -11 R 12 -24 R 0 -23 R -12 -23 R
-23 -35 R -117 -117 R 164 0 R D 2839 8959 M -117 0 R -12 -105 R 12 12 R
35 11 R 35 0 R 35 -11 R 24 -24 R 11 -35 R 0 -23 R -11 -35 R -24 -24 R
-35 -11 R -35 0 R -35 11 R -12 12 R -11 24 R D 20 setlinewidth 3020 9844 M
198 0 R D 30 setlinewidth 1951 9949 M -35 -12 R -23 -35 R -12 -58 R 0 -35 R
12 -59 R 23 -35 R 35 -11 R 23 0 R 35 11 R 24 35 R 11 59 R 0 35 R -11 58 R
-24 35 R -35 12 R -23 0 R D 2138 9727 M -12 -12 R 12 -11 R 12 11 R -12 12 R
D 2266 9902 M 24 12 R 35 35 R 0 -245 R D 2488 9949 M 129 0 R -70 -94 R
35 0 R 23 -11 R 12 -12 R 12 -35 R 0 -23 R -12 -35 R -23 -24 R -35 -11 R
-35 0 R -36 11 R -11 12 R -12 23 R D 2769 9949 M -35 -12 R -24 -35 R
-11 -58 R 0 -35 R 11 -59 R 24 -35 R 35 -11 R 23 0 R 35 11 R 24 35 R 11 59 R
0 35 R -11 58 R -24 35 R -35 12 R -23 0 R D 20 setlinewidth 3020 10834 M
198 0 R D 30 setlinewidth 1951 10939 M -35 -12 R -23 -35 R -12 -58 R 0 -35 R
12 -59 R 23 -35 R 35 -12 R 23 0 R 35 12 R 24 35 R 11 59 R 0 35 R -11 58 R
-24 35 R -35 12 R -23 0 R D 2138 10717 M -12 -12 R 12 -12 R 12 12 R -12 12 R
D 2266 10892 M 24 12 R 35 35 R 0 -246 R D 2488 10939 M 129 0 R -70 -94 R
35 0 R 23 -11 R 12 -12 R 12 -35 R 0 -23 R -12 -36 R -23 -23 R -35 -12 R
-35 0 R -36 12 R -11 12 R -12 23 R D 2839 10939 M -117 0 R -12 -105 R
12 11 R 35 12 R 35 0 R 35 -12 R 24 -23 R 11 -35 R 0 -23 R -11 -36 R
-24 -23 R -35 -12 R -35 0 R -35 12 R -12 12 R -11 23 R D 20 setlinewidth
3020 11824 M 198 0 R D 30 setlinewidth 1951 11929 M -35 -12 R -23 -35 R
-12 -59 R 0 -35 R 12 -58 R 23 -35 R 35 -12 R 23 0 R 35 12 R 24 35 R 11 58 R
0 35 R -11 59 R -24 35 R -35 12 R -23 0 R D 2138 11707 M -12 -12 R 12 -12 R
12 12 R -12 12 R D 2266 11882 M 24 12 R 35 35 R 0 -246 R D 2582 11929 M
-117 -164 R 175 0 R D 2582 11929 M 0 -246 R D 2769 11929 M -35 -12 R
-24 -35 R -11 -59 R 0 -35 R 11 -58 R 24 -35 R 35 -12 R 23 0 R 35 12 R
24 35 R 11 58 R 0 35 R -11 59 R -24 35 R -35 12 R -23 0 R D 20 setlinewidth
3020 8063 M 99 0 R D 3020 8261 M 99 0 R D 3020 8459 M 99 0 R D 3020 8657 M
99 0 R D 3020 9053 M 99 0 R D 3020 9251 M 99 0 R D 3020 9448 M 99 0 R D
3020 9646 M 99 0 R D 3020 10042 M 99 0 R D 3020 10240 M 99 0 R D
3020 10438 M 99 0 R D 3020 10636 M 99 0 R D 3020 11032 M 99 0 R D
3020 11230 M 99 0 R D 3020 11428 M 99 0 R D 3020 11626 M 99 0 R D
3020 12022 M 99 0 R D 3020 12220 M 99 0 R D 3020 12418 M 99 0 R D
7977 8052 M 0 4544 R D 7977 8855 M -198 0 R D 7977 9844 M -198 0 R D
7977 10834 M -198 0 R D 7977 11824 M -198 0 R D 7977 8063 M -99 0 R D
7977 8261 M -99 0 R D 7977 8459 M -99 0 R D 7977 8657 M -99 0 R D
7977 9053 M -99 0 R D 7977 9251 M -99 0 R D 7977 9448 M -99 0 R D
7977 9646 M -99 0 R D 7977 10042 M -99 0 R D 7977 10240 M -99 0 R D
7977 10438 M -99 0 R D 7977 10636 M -99 0 R D 7977 11032 M -99 0 R D
7977 11230 M -99 0 R D 7977 11428 M -99 0 R D 7977 11626 M -99 0 R D
7977 12022 M -99 0 R D 7977 12220 M -99 0 R D 7977 12418 M -99 0 R D
30 setlinewidth 3121 10756 M 24 -26 R 20 -5 R 13 -5 R 10 -5 R 8 -4 R 5 -4 R
5 -2 R 3 2 R 3 10 R 2 12 R 3 16 R 2 7 R 3 4 R 3 0 R 5 -2 R 7 -2 R 13 -2 R
22 -4 R 42 141 R 81 -6 R 129 -7 R 118 127 R 42 135 R 14 -2 R 33 -3 R 8 -1 R
16 -3 R 3 0 R 13 -4 R 3 -1 R 4 -1 R 3 0 R 3 4 R 3 3 R 3 8 R 2 3 R 7 101 R
6 -893 R 8 -1 R 13 -1 R 25 -2 R 47 -1 R 103 -2 R 142 -1026 R 113 -2 R
31 52 R 28 -1 R 16 -1 R 6 0 R 7 -1 R 5 0 R 5 -1 R 5 0 R 3 -1 R 4 1 R 3 2 R
2 0 R 3 3 R 2 0 R 2 1 R 8 10 R 7 -1 R 11 -1 R 18 -1 R 35 0 R 76 -1 R
129 -43 R 124 -1 R 95 159 R 12 0 R 7 -1 R 28 -4 R 4 0 R 7 0 R 4 0 R 4 -1 R
3 1 R 3 3 R 3 -4 R 2 -2 R 2 1 R 3 1 R 4 0 R 5 0 R 8 -1 R 14 0 R 24 -1 R
47 -138 R 114 1 R 144 0 R 118 84 R 28 0 R 29 0 R 14 0 R 7 0 R 8 -1 R 4 0 R
6 0 R 5 0 R 4 0 R 4 0 R 3 1 R 3 2 R 2 -4 R 3 -3 R 2 1 R 3 1 R 3 0 R 6 0 R
8 -1 R 14 0 R 25 -1 R 48 -99 R 113 1 R 147 0 R 119 1 R 33 30 R 30 0 R 14 0 R
6 0 R 9 0 R 5 0 R 5 0 R 5 0 R 4 0 R 4 0 R 3 1 R 3 2 R 3 -4 R 2 -3 R 2 0 R
3 1 R 3 0 R 5 0 R 8 -1 R 13 0 R 23 0 R 44 -1 R 110 2 R 145 50 R 123 1 R
16 12 R 75 -2 R 14 0 R 6 0 R 5 0 R 5 0 R 5 0 R 4 0 R 3 0 R 3 2 R 3 -2 R
3 0 R 2 -2 R 2 1 R 3 1 R 5 0 R 6 -1 R 10 0 R 18 0 R 31 -1 R 67 1 R 125 0 R
155 -7 R 119 5 R 17 0 R 21 -1 R 5 0 R 13 0 R 3 233 R 5 0 R 4 0 R 4 0 R 3 1 R
3 2 R 2 -3 R 2 -3 R 3 1 R 2 1 R 4 0 R 5 -1 R 9 0 R 14 0 R 26 -1 R 50 0 R
109 1 R 145 1 R 119 1 R D 5308 11674 M 0 -163 R D 5308 11628 M 35 35 R
24 11 R 35 0 R 23 -11 R 12 -35 R 0 -117 R D 5437 11628 M 35 35 R 23 11 R
35 0 R 24 -11 R 11 -35 R 0 -117 R D 5846 11803 M -211 -386 R D 5916 11756 M
0 -245 R D 5916 11756 M 93 -245 R 94 245 R 0 -245 R D 6196 11651 M 211 0 R D
6196 11581 M 211 0 R D 6559 11756 M -36 -11 R -23 -36 R -12 -58 R 0 -35 R
12 -58 R 23 -35 R 36 -12 R 23 0 R 35 12 R 23 35 R 12 58 R 0 35 R -12 58 R
-23 36 R -35 11 R -23 0 R D 6745 11534 M -11 -11 R 11 -12 R 12 12 R -12 11 R
D 6909 11756 M -35 -11 R -23 -36 R -12 -58 R 0 -35 R 12 -58 R 23 -35 R
35 -12 R 23 0 R 35 12 R 24 35 R 12 58 R 0 35 R -12 58 R -24 36 R -35 11 R
-23 0 R D 7143 11756 M -35 -11 R -24 -36 R -11 -58 R 0 -35 R 11 -58 R
24 -35 R 35 -12 R 23 0 R 35 12 R 24 35 R 11 58 R 0 35 R -11 58 R -24 36 R
-35 11 R -23 0 R D 7376 11756 M -35 -11 R -23 -36 R -12 -58 R 0 -35 R
12 -58 R 23 -35 R 35 -12 R 24 0 R 35 12 R 23 35 R 12 58 R 0 35 R -12 58 R
-23 36 R -35 11 R -24 0 R D 7575 11709 M 23 12 R 35 35 R 0 -245 R D
50 setlinewidth L1 0.000 0.000 0.541 setrgbcolor 3121 10756 M 24 -5 R
21 -5 R 15 -5 R 10 -5 R 8 -4 R 6 -4 R 5 -2 R 3 1 R 3 8 R 3 11 R 2 18 R 3 8 R
2 3 R 3 1 R 5 -2 R 8 -2 R 12 -2 R 21 -3 R 40 -4 R 76 -5 R 106 -5 R 97 -2 R
95 -5 R 13 -1 R 60 -6 R 8 -1 R 12 -2 R 3 -1 R 6 -1 R 4 -1 R 4 -1 R 4 0 R
3 3 R 2 4 R 3 7 R 2 2 R 2 3 R 3 0 R 4 0 R 7 -1 R 10 -1 R 17 -1 R 31 -2 R
67 -1 R 121 -2 R 93 -1 R 98 -2 R 26 0 R 27 -1 R 26 -1 R 15 -1 R 6 0 R 5 -1 R
6 0 R 4 -1 R 5 0 R 3 0 R 4 0 R 3 3 R 2 -2 R 3 1 R 2 1 R 3 2 R 3 0 R 5 -1 R
7 0 R 12 -1 R 22 -1 R 41 -1 R 98 1 R 133 -1 R 114 -1 R 37 0 R 25 -1 R 28 0 R
13 0 R 6 -1 R 7 0 R 5 0 R 5 0 R 5 0 R 4 -1 R 4 0 R 3 1 R 2 4 R 3 -4 R 2 -3 R
3 1 R 2 1 R 4 0 R 5 0 R 8 -1 R 14 0 R 24 -1 R 47 0 R 104 1 R 114 -1 R
135 2 R 15 0 R 66 -2 R 17 -1 R 3 0 R 9 -1 R 4 0 R 4 0 R 3 1 R 3 2 R 2 -5 R
3 -2 R 2 1 R 3 1 R 3 0 R 5 -1 R 8 0 R 12 0 R 22 -1 R 42 0 R 104 1 R 117 1 R
122 1 R 41 -1 R 20 0 R 14 0 R 19 0 R 7 0 R 15 0 R 3 0 R 12 -1 R 3 0 R 4 -1 R
3 1 R 3 3 R 2 -6 R 3 -2 R 2 0 R 3 1 R 3 0 R 4 0 R 8 0 R 11 -1 R 20 0 R
39 0 R 93 1 R 113 1 R 103 -1 R 112 5 R 17 0 R 18 0 R 5 0 R 10 0 R 4 0 R
5 0 R 4 0 R 4 0 R 3 0 R 3 3 R 3 -6 R 2 -3 R 2 1 R 3 0 R 3 1 R 6 -1 R 7 0 R
13 -1 R 23 0 R 45 0 R 103 1 R 114 1 R 134 2 R 24 0 R 29 -1 R 27 0 R 15 0 R
6 0 R 5 0 R 5 0 R 5 0 R 5 0 R 3 0 R 4 1 R 2 2 R 3 -5 R 3 -2 R 2 0 R 3 1 R
3 0 R 5 0 R 7 0 R 12 -1 R 21 0 R 40 0 R 101 2 R 134 -1 R 114 0 R 58 0 R
43 0 R 18 -1 R D 20 setlinewidth L0 0.000 0.000 0.000 setrgbcolor
9577 8052 M 4957 0 R D 9577 8052 M 0 182 R D 30 setlinewidth 9495 7711 M
0 12 R 12 23 R 12 12 R 23 11 R 47 0 R 23 -11 R 12 -12 R 12 -23 R 0 -24 R
-12 -23 R -24 -35 R -116 -117 R 163 0 R D 20 setlinewidth 10403 8052 M
0 182 R D 30 setlinewidth 10427 7769 M -117 -163 R 175 0 R D 10427 7769 M
0 -245 R D 20 setlinewidth 11229 8052 M 0 182 R D 30 setlinewidth
11288 7734 M -12 24 R -35 11 R -23 0 R -35 -11 R -24 -35 R -11 -59 R 0 -58 R
11 -47 R 24 -23 R 35 -12 R 11 0 R 35 12 R 24 23 R 12 35 R 0 12 R -12 35 R
-24 23 R -35 12 R -11 0 R -35 -12 R -24 -23 R -11 -35 R D 20 setlinewidth
12056 8052 M 0 182 R D 30 setlinewidth 12021 7769 M -36 -11 R -11 -24 R
0 -23 R 11 -23 R 24 -12 R 47 -12 R 35 -11 R 23 -24 R 12 -23 R 0 -35 R
-12 -24 R -12 -11 R -35 -12 R -46 0 R -36 12 R -11 11 R -12 24 R 0 35 R
12 23 R 23 24 R 35 11 R 47 12 R 23 12 R 12 23 R 0 23 R -12 24 R -35 11 R
-46 0 R D 20 setlinewidth 12882 8052 M 0 182 R D 30 setlinewidth
12706 7723 M 24 11 R 35 35 R 0 -245 R D 12975 7769 M -35 -11 R -23 -35 R
-12 -59 R 0 -35 R 12 -58 R 23 -35 R 35 -12 R 24 0 R 35 12 R 23 35 R 12 58 R
0 35 R -12 59 R -23 35 R -35 11 R -24 0 R D 20 setlinewidth 13708 8052 M
0 182 R D 30 setlinewidth 13533 7723 M 23 11 R 35 35 R 0 -245 R D
13743 7711 M 0 12 R 12 23 R 11 12 R 24 11 R 46 0 R 24 -11 R 11 -12 R
12 -23 R 0 -24 R -12 -23 R -23 -35 R -117 -117 R 164 0 R D 20 setlinewidth
14534 8052 M 0 182 R D 30 setlinewidth 14359 7723 M 23 11 R 35 35 R 0 -245 R
D 14674 7769 M -117 -163 R 176 0 R D 14674 7769 M 0 -245 R D 20 setlinewidth
9784 8052 M 0 91 R D 9990 8052 M 0 91 R D 10197 8052 M 0 91 R D 10610 8052 M
0 91 R D 10816 8052 M 0 91 R D 11023 8052 M 0 91 R D 11436 8052 M 0 91 R D
11642 8052 M 0 91 R D 11849 8052 M 0 91 R D 12262 8052 M 0 91 R D
12469 8052 M 0 91 R D 12675 8052 M 0 91 R D 13088 8052 M 0 91 R D
13295 8052 M 0 91 R D 13501 8052 M 0 91 R D 13914 8052 M 0 91 R D
14121 8052 M 0 91 R D 14328 8052 M 0 91 R D 9577 12596 M 4957 0 R D
9577 12596 M 0 -182 R D 10403 12596 M 0 -182 R D 11229 12596 M 0 -182 R D
12056 12596 M 0 -182 R D 12882 12596 M 0 -182 R D 13708 12596 M 0 -182 R D
14534 12596 M 0 -182 R D 9784 12596 M 0 -91 R D 9990 12596 M 0 -91 R D
10197 12596 M 0 -91 R D 10610 12596 M 0 -91 R D 10816 12596 M 0 -91 R D
11023 12596 M 0 -91 R D 11436 12596 M 0 -91 R D 11642 12596 M 0 -91 R D
11849 12596 M 0 -91 R D 12262 12596 M 0 -91 R D 12469 12596 M 0 -91 R D
12675 12596 M 0 -91 R D 13088 12596 M 0 -91 R D 13295 12596 M 0 -91 R D
13501 12596 M 0 -91 R D 13914 12596 M 0 -91 R D 14121 12596 M 0 -91 R D
14328 12596 M 0 -91 R D 9577 8052 M 0 4544 R D 9577 8414 M 198 0 R D
30 setlinewidth 8742 8518 M -35 -11 R -24 -35 R -11 -59 R 0 -35 R 11 -58 R
24 -35 R 35 -12 R 23 0 R 35 12 R 23 35 R 12 58 R 0 35 R -12 59 R -23 35 R
-35 11 R -23 0 R D 8929 8296 M -12 -11 R 12 -12 R 11 12 R -11 11 R D
9162 8518 M -117 0 R -11 -105 R 11 12 R 36 12 R 35 0 R 35 -12 R 23 -23 R
12 -36 R 0 -23 R -12 -35 R -23 -23 R -35 -12 R -35 0 R -36 12 R -11 11 R
-12 24 R D 9326 8518 M -35 -11 R -24 -35 R -11 -59 R 0 -35 R 11 -58 R
24 -35 R 35 -12 R 23 0 R 35 12 R 24 35 R 11 58 R 0 35 R -11 59 R -24 35 R
-35 11 R -23 0 R D 20 setlinewidth 9577 9459 M 198 0 R D 30 setlinewidth
8742 9564 M -35 -12 R -24 -35 R -11 -58 R 0 -35 R 11 -59 R 24 -35 R 35 -12 R
23 0 R 35 12 R 23 35 R 12 59 R 0 35 R -12 58 R -23 35 R -35 12 R -23 0 R D
8929 9342 M -12 -12 R 12 -12 R 11 12 R -11 12 R D 9162 9564 M -117 0 R
-11 -105 R 11 11 R 36 12 R 35 0 R 35 -12 R 23 -23 R 12 -35 R 0 -24 R
-12 -35 R -23 -23 R -35 -12 R -35 0 R -36 12 R -11 12 R -12 23 R D
9267 9505 M 0 12 R 12 23 R 12 12 R 23 12 R 47 0 R 23 -12 R 12 -12 R 12 -23 R
0 -23 R -12 -24 R -23 -35 R -117 -117 R 163 0 R D 20 setlinewidth
9577 10505 M 198 0 R D 30 setlinewidth 8742 10609 M -35 -12 R -24 -35 R
-11 -58 R 0 -35 R 11 -58 R 24 -36 R 35 -11 R 23 0 R 35 11 R 23 36 R 12 58 R
0 35 R -12 58 R -23 35 R -35 12 R -23 0 R D 8929 10387 M -12 -12 R 12 -11 R
11 11 R -11 12 R D 9162 10609 M -117 0 R -11 -105 R 11 12 R 36 11 R 35 0 R
35 -11 R 23 -24 R 12 -35 R 0 -23 R -12 -35 R -23 -24 R -35 -11 R -35 0 R
-36 11 R -11 12 R -12 24 R D 9373 10609 M -117 -163 R 175 0 R D 9373 10609 M
0 -245 R D 20 setlinewidth 9577 11550 M 198 0 R D 30 setlinewidth
8742 11655 M -35 -12 R -24 -35 R -11 -59 R 0 -35 R 11 -58 R 24 -35 R
35 -12 R 23 0 R 35 12 R 23 35 R 12 58 R 0 35 R -12 59 R -23 35 R -35 12 R
-23 0 R D 8929 11433 M -12 -12 R 12 -12 R 11 12 R -11 12 R D 9162 11655 M
-117 0 R -11 -106 R 11 12 R 36 12 R 35 0 R 35 -12 R 23 -23 R 12 -35 R
0 -24 R -12 -35 R -23 -23 R -35 -12 R -35 0 R -36 12 R -11 12 R -12 23 R D
9408 11619 M -12 24 R -35 12 R -23 0 R -35 -12 R -24 -35 R -12 -59 R 0 -58 R
12 -47 R 24 -23 R 35 -12 R 11 0 R 35 12 R 24 23 R 11 35 R 0 12 R -11 35 R
-24 23 R -35 12 R -11 0 R -35 -12 R -24 -23 R -12 -35 R D 20 setlinewidth
9577 12595 M 198 0 R D 30 setlinewidth 8742 12595 M -35 -12 R -24 -35 R
-11 -58 R 0 -35 R 11 -59 R 24 -35 R 35 -11 R 23 0 R 35 11 R 23 35 R 12 59 R
0 35 R -12 58 R -23 35 R -35 12 R -23 0 R D 8929 12373 M -12 -12 R 12 -11 R
11 11 R -11 12 R D 9162 12595 M -117 0 R -11 -105 R 11 12 R 36 11 R 35 0 R
35 -11 R 23 -24 R 12 -35 R 0 -23 R -12 -35 R -23 -24 R -35 -11 R -35 0 R
-36 11 R -11 12 R -12 23 R D 9314 12595 M -35 -12 R -12 -23 R 0 -23 R
12 -24 R 24 -11 R 46 -12 R 35 -12 R 24 -23 R 11 -24 R 0 -35 R -11 -23 R
-12 -12 R -35 -11 R -47 0 R -35 11 R -12 12 R -11 23 R 0 35 R 11 24 R
24 23 R 35 12 R 47 12 R 23 11 R 12 24 R 0 23 R -12 23 R -35 12 R -47 0 R D
20 setlinewidth 9577 8152 M 99 0 R D 9577 8675 M 99 0 R D 9577 8936 M 99 0 R
D 9577 9198 M 99 0 R D 9577 9721 M 99 0 R D 9577 9982 M 99 0 R D
9577 10243 M 99 0 R D 9577 10766 M 99 0 R D 9577 11027 M 99 0 R D
9577 11289 M 99 0 R D 9577 11811 M 99 0 R D 9577 12073 M 99 0 R D
9577 12334 M 99 0 R D 14534 8052 M 0 4544 R D 14534 8414 M -198 0 R D
14534 9459 M -198 0 R D 14534 10505 M -198 0 R D 14534 11550 M -198 0 R D
14534 12595 M -198 0 R D 14534 8152 M -99 0 R D 14534 8675 M -99 0 R D
14534 8936 M -99 0 R D 14534 9198 M -99 0 R D 14534 9721 M -99 0 R D
14534 9982 M -99 0 R D 14534 10243 M -99 0 R D 14534 10766 M -99 0 R D
14534 11027 M -99 0 R D 14534 11289 M -99 0 R D 14534 11811 M -99 0 R D
14534 12073 M -99 0 R D 14534 12334 M -99 0 R D 30 setlinewidth 9653 9448 M
21 -34 R 20 -5 R 16 0 R 12 8 R 12 18 R 11 22 R 9 11 R 11 1565 R 14 -1 R
18 -3 R 28 -5 R 44 -8 R 76 -171 R 76 -14 R 13 56 R 49 -10 R 17 -3 R 17 235 R
14 -1 R 12 3 R 12 8 R 10 12 R 10 7 R 10 2 R 13 0 R 17 -1 R 25 -4 R 40 17 R
66 -7 R 87 -11 R 15 -43 R 31 -4 R 19 -2 R 18 -2 R 14 0 R 13 -396 R 12 4 R
10 8 R 11 4 R 14 3 R 15 -1 R 20 -2 R 31 -2 R 50 -4 R 88 161 R 31 -2 R
16 -1 R 46 -4 R 18 -2 R 19 -66 R 15 -1 R 13 2 R 13 3 R 11 6 R 11 2 R 10 2 R
13 0 R 18 -1 R 25 -1 R 40 -3 R 65 -4 R 127 96 R 12 -1 R 31 -2 R 17 -52 R
16 0 R 14 1 R 13 2 R 11 5 R 11 2 R 11 1 R 13 0 R 18 0 R 26 -2 R 40 -2 R
67 -3 R 129 194 R 13 0 R 31 -2 R 19 -1 R 16 0 R 14 1 R 13 -287 R 12 3 R
11 2 R 11 1 R 13 0 R 19 0 R 26 -1 R 41 -2 R 68 -3 R 131 -8 R 15 83 R 26 -1 R
20 -1 R 18 0 R 15 0 R 13 3 R 13 0 R 8 2 R 13 2 R 12 1 R 16 0 R 23 -1 R
34 -2 R 55 35 R 96 -3 R 36 -1 R 20 -1 R 32 -1 R 23 -1 R 22 -1 R 18 -30 R
15 0 R 14 3 R 13 -1 R 10 2 R 11 1 R 12 1 R 16 0 R 21 -1 R 33 -1 R 52 -2 R
90 -2 R 48 -2 R 37 -8 R 17 0 R 25 -1 R 21 0 R 18 -1 R 15 0 R 14 2 R 13 -1 R
11 2 R 10 1 R 12 1 R 16 -1 R 21 0 R 32 -1 R 51 -1 R 87 4 R 55 -1 R 33 -1 R
17 0 R 26 -1 R 21 0 R 19 -1 R 15 0 R 14 2 R 13 -1 R 11 1 R 11 1 R 12 131 R
15 0 R 20 0 R 31 -1 R 49 -1 R 83 -2 R 65 -1 R 37 -1 R 17 -1 R 25 0 R 20 7 R
18 0 R 15 0 R 13 2 R 13 -1 R 10 0 R 10 1 R 12 1 R 16 0 R 21 -1 R 32 -1 R
52 -1 R 90 -2 R 48 0 R D 12091 11605 M 0 -164 R D 12091 11558 M 35 35 R
23 12 R 35 0 R 23 -12 R 12 -35 R 0 -117 R D 12219 11558 M 35 35 R 24 12 R
35 0 R 23 -12 R 12 -35 R 0 -117 R D 12628 11733 M -210 -385 R D
12698 11686 M 0 -245 R D 12698 11686 M 94 -245 R 93 245 R 0 -245 R D
12979 11581 M 210 0 R D 12979 11511 M 210 0 R D 13341 11686 M -35 -11 R
-24 -35 R -11 -59 R 0 -35 R 11 -58 R 24 -35 R 35 -12 R 23 0 R 35 12 R
24 35 R 11 58 R 0 35 R -11 59 R -24 35 R -35 11 R -23 0 R D 13528 11464 M
-12 -11 R 12 -12 R 11 12 R -11 11 R D 13691 11686 M -35 -11 R -23 -35 R
-12 -59 R 0 -35 R 12 -58 R 23 -35 R 35 -12 R 24 0 R 35 12 R 23 35 R 12 58 R
0 35 R -12 59 R -23 35 R -35 11 R -24 0 R D 13925 11686 M -35 -11 R
-23 -35 R -12 -59 R 0 -35 R 12 -58 R 23 -35 R 35 -12 R 23 0 R 35 12 R
24 35 R 12 58 R 0 35 R -12 59 R -24 35 R -35 11 R -23 0 R D 14159 11686 M
-35 -11 R -24 -35 R -11 -59 R 0 -35 R 11 -58 R 24 -35 R 35 -12 R 23 0 R
35 12 R 24 35 R 11 58 R 0 35 R -11 59 R -24 35 R -35 11 R -23 0 R D
14346 11686 M 128 0 R -70 -93 R 35 0 R 24 -12 R 11 -11 R 12 -35 R 0 -24 R
-12 -35 R -23 -23 R -35 -12 R -35 0 R -35 12 R -12 11 R -12 24 R D
50 setlinewidth L1 0.000 0.000 0.541 setrgbcolor 9653 9448 M 20 -6 R 21 -6 R
17 -2 R 13 7 R 12 16 R 11 22 R 10 11 R 10 5 R 13 1 R 18 -2 R 26 -4 R 41 -6 R
69 -9 R 92 1 R 93 0 R 43 0 R 36 -3 R 39 -7 R 15 -2 R 14 1 R 13 6 R 11 8 R
11 10 R 9 5 R 11 2 R 14 0 R 20 -2 R 29 -3 R 46 -9 R 55 1 R 100 0 R 92 0 R
41 -3 R 38 -4 R 20 -1 R 18 -2 R 15 0 R 13 2 R 12 4 R 11 8 R 10 3 R 10 2 R
13 1 R 17 -1 R 25 -2 R 40 -2 R 66 -14 R 66 0 R 108 0 R 53 1 R 40 -5 R
42 -5 R 14 -1 R 14 1 R 13 3 R 11 2 R 10 4 R 9 2 R 12 1 R 14 0 R 20 -1 R
30 -1 R 41 -5 R 54 0 R 99 0 R 92 1 R 38 0 R 34 1 R 35 -2 R 15 -1 R 15 0 R
13 2 R 12 1 R 10 3 R 10 2 R 11 1 R 13 0 R 18 -1 R 27 -1 R 43 0 R 45 0 R
95 0 R 94 0 R 54 0 R 35 2 R 37 -2 R 15 -1 R 14 1 R 13 2 R 12 -1 R 10 2 R
10 1 R 11 1 R 13 1 R 19 -1 R 28 -1 R 38 -1 R 73 -1 R 113 0 R 75 0 R 42 3 R
50 -3 R 15 0 R 16 -1 R 13 1 R 12 2 R 12 0 R 10 0 R 10 1 R 12 1 R 16 0 R
23 -1 R 35 -1 R 50 6 R 54 0 R 104 1 R 59 0 R 44 -1 R 48 -1 R 17 -1 R 17 0 R
14 0 R 13 2 R 12 -2 R 10 1 R 10 1 R 11 1 R 14 0 R 18 -1 R 28 0 R 43 2 R
41 0 R 93 1 R 95 0 R 54 0 R 36 2 R 38 -2 R 15 0 R 14 0 R 13 2 R 11 -2 R
11 1 R 9 0 R 11 1 R 14 0 R 19 0 R 28 -1 R 45 0 R 43 0 R 86 0 R D
20 setlinewidth L0 0.000 0.000 0.000 setrgbcolor 3020 2108 M 4957 0 R D
3471 2108 M 0 182 R D 30 setlinewidth 3494 1825 M -117 -163 R 176 0 R D
3494 1825 M 0 -245 R D 20 setlinewidth 4372 2108 M 0 182 R D 30 setlinewidth
4430 1790 M -11 24 R -35 11 R -24 0 R -35 -11 R -23 -35 R -12 -59 R 0 -58 R
12 -47 R 23 -23 R 35 -12 R 12 0 R 35 12 R 23 23 R 12 35 R 0 12 R -12 35 R
-23 23 R -35 12 R -12 0 R -35 -12 R -23 -23 R -12 -35 R D 20 setlinewidth
5273 2108 M 0 182 R D 30 setlinewidth 5238 1825 M -35 -11 R -12 -24 R
0 -23 R 12 -23 R 24 -12 R 46 -12 R 35 -11 R 24 -24 R 11 -23 R 0 -35 R
-11 -24 R -12 -11 R -35 -12 R -47 0 R -35 12 R -12 11 R -11 24 R 0 35 R
11 23 R 24 24 R 35 11 R 47 12 R 23 12 R 12 23 R 0 23 R -12 24 R -35 11 R
-47 0 R D 20 setlinewidth 6175 2108 M 0 182 R D 30 setlinewidth 5999 1779 M
24 11 R 35 35 R 0 -245 R D 6268 1825 M -35 -11 R -23 -35 R -12 -59 R 0 -35 R
12 -58 R 23 -35 R 35 -12 R 23 0 R 35 12 R 24 35 R 11 58 R 0 35 R -11 59 R
-24 35 R -35 11 R -23 0 R D 20 setlinewidth 7076 2108 M 0 182 R D
30 setlinewidth 6901 1779 M 23 11 R 35 35 R 0 -245 R D 7111 1767 M 0 12 R
12 23 R 11 12 R 24 11 R 46 0 R 24 -11 R 11 -12 R 12 -23 R 0 -24 R -12 -23 R
-23 -35 R -117 -117 R 164 0 R D 20 setlinewidth 7977 2108 M 0 182 R D
30 setlinewidth 7802 1779 M 23 11 R 35 35 R 0 -245 R D 8117 1825 M
-117 -163 R 176 0 R D 8117 1825 M 0 -245 R D 20 setlinewidth 3020 2108 M
0 91 R D 3245 2108 M 0 91 R D 3696 2108 M 0 91 R D 3921 2108 M 0 91 R D
4147 2108 M 0 91 R D 4597 2108 M 0 91 R D 4823 2108 M 0 91 R D 5048 2108 M
0 91 R D 5499 2108 M 0 91 R D 5724 2108 M 0 91 R D 5949 2108 M 0 91 R D
6400 2108 M 0 91 R D 6625 2108 M 0 91 R D 6850 2108 M 0 91 R D 7301 2108 M
0 91 R D 7526 2108 M 0 91 R D 7752 2108 M 0 91 R D 3020 6652 M 4957 0 R D
3471 6652 M 0 -182 R D 4372 6652 M 0 -182 R D 5273 6652 M 0 -182 R D
6175 6652 M 0 -182 R D 7076 6652 M 0 -182 R D 7977 6652 M 0 -182 R D
3020 6652 M 0 -91 R D 3245 6652 M 0 -91 R D 3696 6652 M 0 -91 R D
3921 6652 M 0 -91 R D 4147 6652 M 0 -91 R D 4597 6652 M 0 -91 R D
4823 6652 M 0 -91 R D 5048 6652 M 0 -91 R D 5499 6652 M 0 -91 R D
5724 6652 M 0 -91 R D 5949 6652 M 0 -91 R D 6400 6652 M 0 -91 R D
6625 6652 M 0 -91 R D 6850 6652 M 0 -91 R D 7301 6652 M 0 -91 R D
7526 6652 M 0 -91 R D 7752 6652 M 0 -91 R D 3020 2108 M 0 4544 R D
3020 2382 M 198 0 R D 30 setlinewidth 2185 2487 M -35 -12 R -24 -35 R
-11 -58 R 0 -35 R 11 -59 R 24 -35 R 35 -12 R 23 0 R 35 12 R 23 35 R 12 59 R
0 35 R -12 58 R -23 35 R -35 12 R -23 0 R D 2372 2265 M -12 -12 R 12 -12 R
11 12 R -11 12 R D 2617 2405 M -12 -35 R -23 -23 R -35 -12 R -12 0 R
-35 12 R -23 23 R -12 35 R 0 12 R 12 35 R 23 23 R 35 12 R 12 0 R 35 -12 R
23 -23 R 12 -47 R 0 -58 R -12 -59 R -23 -35 R -35 -12 R -23 0 R -36 12 R
-11 23 R D 2710 2428 M 0 12 R 12 23 R 12 12 R 23 12 R 47 0 R 23 -12 R
12 -12 R 12 -23 R 0 -23 R -12 -24 R -23 -35 R -117 -117 R 163 0 R D
20 setlinewidth 3020 3065 M 198 0 R D 30 setlinewidth 2185 3170 M -35 -12 R
-24 -35 R -11 -58 R 0 -35 R 11 -59 R 24 -35 R 35 -11 R 23 0 R 35 11 R
23 35 R 12 59 R 0 35 R -12 58 R -23 35 R -35 12 R -23 0 R D 2372 2948 M
-12 -12 R 12 -11 R 11 11 R -11 12 R D 2617 3088 M -12 -35 R -23 -23 R
-35 -12 R -12 0 R -35 12 R -23 23 R -12 35 R 0 12 R 12 35 R 23 23 R 35 12 R
12 0 R 35 -12 R 23 -23 R 12 -47 R 0 -58 R -12 -59 R -23 -35 R -35 -11 R
-23 0 R -36 11 R -11 24 R D 2816 3170 M -117 -164 R 175 0 R D 2816 3170 M
0 -245 R D 20 setlinewidth 3020 3749 M 198 0 R D 30 setlinewidth 2185 3853 M
-35 -11 R -24 -36 R -11 -58 R 0 -35 R 11 -58 R 24 -35 R 35 -12 R 23 0 R
35 12 R 23 35 R 12 58 R 0 35 R -12 58 R -23 36 R -35 11 R -23 0 R D
2372 3631 M -12 -11 R 12 -12 R 11 12 R -11 11 R D 2617 3771 M -12 -35 R
-23 -23 R -35 -12 R -12 0 R -35 12 R -23 23 R -12 35 R 0 12 R 12 35 R
23 24 R 35 11 R 12 0 R 35 -11 R 23 -24 R 12 -47 R 0 -58 R -12 -58 R
-23 -35 R -35 -12 R -23 0 R -36 12 R -11 23 R D 2851 3818 M -12 24 R
-35 11 R -23 0 R -35 -11 R -24 -36 R -12 -58 R 0 -58 R 12 -47 R 24 -23 R
35 -12 R 11 0 R 35 12 R 24 23 R 11 35 R 0 12 R -11 35 R -24 23 R -35 12 R
-11 0 R -35 -12 R -24 -23 R -12 -35 R D 20 setlinewidth 3020 4432 M 198 0 R
D 30 setlinewidth 2185 4536 M -35 -11 R -24 -35 R -11 -59 R 0 -35 R 11 -58 R
24 -35 R 35 -12 R 23 0 R 35 12 R 23 35 R 12 58 R 0 35 R -12 59 R -23 35 R
-35 11 R -23 0 R D 2372 4314 M -12 -11 R 12 -12 R 11 12 R -11 11 R D
2617 4455 M -12 -35 R -23 -24 R -35 -11 R -12 0 R -35 11 R -23 24 R -12 35 R
0 11 R 12 35 R 23 24 R 35 11 R 12 0 R 35 -11 R 23 -24 R 12 -46 R 0 -59 R
-12 -58 R -23 -35 R -35 -12 R -23 0 R -36 12 R -11 23 R D 2757 4536 M
-35 -11 R -12 -24 R 0 -23 R 12 -23 R 24 -12 R 46 -12 R 35 -11 R 24 -24 R
11 -23 R 0 -35 R -11 -24 R -12 -11 R -35 -12 R -47 0 R -35 12 R -12 11 R
-11 24 R 0 35 R 11 23 R 24 24 R 35 11 R 47 12 R 23 12 R 12 23 R 0 23 R
-12 24 R -35 11 R -47 0 R D 20 setlinewidth 3020 5115 M 198 0 R D
30 setlinewidth 2150 5173 M 23 12 R 35 35 R 0 -246 R D 2372 4998 M -12 -12 R
12 -12 R 11 12 R -11 12 R D 2535 5220 M -35 -12 R -23 -35 R -12 -58 R
0 -36 R 12 -58 R 23 -35 R 35 -12 R 24 0 R 35 12 R 23 35 R 12 58 R 0 36 R
-12 58 R -23 35 R -35 12 R -24 0 R D 2769 5220 M -35 -12 R -24 -35 R
-11 -58 R 0 -36 R 11 -58 R 24 -35 R 35 -12 R 23 0 R 35 12 R 24 35 R 11 58 R
0 36 R -11 58 R -24 35 R -35 12 R -23 0 R D 20 setlinewidth 3020 5798 M
198 0 R D 30 setlinewidth 2150 5856 M 23 12 R 35 35 R 0 -245 R D 2372 5681 M
-12 -12 R 12 -11 R 11 11 R -11 12 R D 2535 5903 M -35 -12 R -23 -35 R
-12 -58 R 0 -35 R 12 -59 R 23 -35 R 35 -11 R 24 0 R 35 11 R 23 35 R 12 59 R
0 35 R -12 58 R -23 35 R -35 12 R -24 0 R D 2710 5844 M 0 12 R 12 24 R
12 11 R 23 12 R 47 0 R 23 -12 R 12 -11 R 12 -24 R 0 -23 R -12 -24 R
-23 -35 R -117 -116 R 163 0 R D 20 setlinewidth 3020 6482 M 198 0 R D
30 setlinewidth 2150 6539 M 23 12 R 35 35 R 0 -245 R D 2372 6364 M -12 -12 R
12 -11 R 11 11 R -11 12 R D 2535 6586 M -35 -12 R -23 -35 R -12 -58 R
0 -35 R 12 -58 R 23 -36 R 35 -11 R 24 0 R 35 11 R 23 36 R 12 58 R 0 35 R
-12 58 R -23 35 R -35 12 R -24 0 R D 2816 6586 M -117 -163 R 175 0 R D
2816 6586 M 0 -245 R D 20 setlinewidth 3020 2211 M 99 0 R D 3020 2553 M
99 0 R D 3020 2724 M 99 0 R D 3020 2895 M 99 0 R D 3020 3236 M 99 0 R D
3020 3407 M 99 0 R D 3020 3578 M 99 0 R D 3020 3919 M 99 0 R D 3020 4090 M
99 0 R D 3020 4261 M 99 0 R D 3020 4603 M 99 0 R D 3020 4773 M 99 0 R D
3020 4944 M 99 0 R D 3020 5286 M 99 0 R D 3020 5457 M 99 0 R D 3020 5628 M
99 0 R D 3020 5969 M 99 0 R D 3020 6140 M 99 0 R D 3020 6311 M 99 0 R D
3020 6652 M 99 0 R D 7977 2108 M 0 4544 R D 7977 2382 M -198 0 R D
7977 3065 M -198 0 R D 7977 3749 M -198 0 R D 7977 4432 M -198 0 R D
7977 5115 M -198 0 R D 7977 5798 M -198 0 R D 7977 6482 M -198 0 R D
7977 2211 M -99 0 R D 7977 2553 M -99 0 R D 7977 2724 M -99 0 R D
7977 2895 M -99 0 R D 7977 3236 M -99 0 R D 7977 3407 M -99 0 R D
7977 3578 M -99 0 R D 7977 3919 M -99 0 R D 7977 4090 M -99 0 R D
7977 4261 M -99 0 R D 7977 4603 M -99 0 R D 7977 4773 M -99 0 R D
7977 4944 M -99 0 R D 7977 5286 M -99 0 R D 7977 5457 M -99 0 R D
7977 5628 M -99 0 R D 7977 5969 M -99 0 R D 7977 6140 M -99 0 R D
7977 6311 M -99 0 R D 7977 6652 M -99 0 R D 30 setlinewidth 3020 3752 M
15 -4 R 103 240 R 96 826 R 65 123 R 67 15 R 72 -60 R 83 -184 R 97 -211 R
108 -40 R 90 164 R 72 170 R 56 101 R 56 -7 R 63 -108 R 83 -148 R 85 -186 R
88 29 R 81 270 R 47 141 R 49 42 R 50 -55 R 56 -151 R 68 -218 R 74 -137 R
64 133 R 58 276 R 39 113 R 40 -1 R 44 -111 R 57 -230 R 59 -161 R 52 -15 R
51 223 R 38 218 R 33 96 R 34 -25 R 37 -113 R 52 -260 R 52 -203 R 50 86 R
47 334 R 27 140 R 28 17 R 30 -97 R 37 -222 R 41 -246 R 42 -74 R 42 283 R
25 227 R 26 98 R 24 -46 R 27 -160 R 35 -263 R 36 -179 R 32 96 R 25 251 R
19 184 R 21 68 R 21 -54 R 23 -154 R 29 -229 R 32 -156 R 30 122 R 23 242 R
17 122 R 18 21 R 19 -69 R 23 -168 R 25 -164 R 28 -72 R 27 154 R 17 154 R
18 75 R 16 -15 R 19 -82 R 25 -152 R 24 -117 R 25 25 R 23 182 R 15 93 R
15 23 R 16 -44 R 19 -100 R 22 -129 R 24 -107 R 20 76 R 19 165 R 14 72 R
14 3 R 16 -57 R 19 -115 R 20 -114 R 23 -36 R 21 136 R 14 113 R 13 50 R
14 -19 R 15 -73 R 22 -133 R 20 -91 R 18 26 R 18 155 R 12 87 R 13 25 R
13 -37 R 16 -86 R 19 -187 R 20 -74 R 17 75 R 16 149 R 11 69 R 12 4 R
12 -53 R 17 -104 R 17 -108 R 19 -42 R 18 129 R 12 109 R 11 49 R 11 -16 R
13 -67 R 18 -120 R 17 -92 R 16 13 R 16 145 R 10 87 R 11 29 R 11 -29 R
12 -76 R 20 -135 R 18 -61 R 15 82 R 13 234 R 10 55 R 10 -5 R 12 -52 R
14 -100 R 15 -91 R 16 -15 R 15 127 R 10 88 R 9 34 R 10 -20 R 12 -65 R
16 -115 R 16 -72 R 13 48 R 13 132 R 9 65 R 9 8 R 10 -40 R 13 -84 R 13 -93 R
15 -46 R 15 93 R 9 103 R 10 52 R 8 -8 R 10 -53 R 14 -98 R 13 -82 R 15 0 R
13 129 R 8 76 R D 5308 5456 M 0 -164 R D 5308 5409 M 35 35 R 24 12 R 35 0 R
23 -12 R 12 -35 R 0 -117 R D 5437 5409 M 35 35 R 23 12 R 35 0 R 24 -12 R
11 -35 R 0 -117 R D 5846 5584 M -211 -385 R D 5916 5537 M 0 -245 R D
5916 5537 M 93 -245 R 94 245 R 0 -245 R D 6196 5432 M 211 0 R D 6196 5362 M
211 0 R D 6559 5537 M -36 -11 R -23 -35 R -12 -59 R 0 -35 R 12 -58 R
23 -35 R 36 -12 R 23 0 R 35 12 R 23 35 R 12 58 R 0 35 R -12 59 R -23 35 R
-35 11 R -23 0 R D 6745 5315 M -11 -11 R 11 -12 R 12 12 R -12 11 R D
6909 5537 M -35 -11 R -23 -35 R -12 -59 R 0 -35 R 12 -58 R 23 -35 R 35 -12 R
23 0 R 35 12 R 24 35 R 12 58 R 0 35 R -12 59 R -24 35 R -35 11 R -23 0 R D
7084 5479 M 0 12 R 12 23 R 12 12 R 23 11 R 47 0 R 23 -11 R 12 -12 R 12 -23 R
0 -24 R -12 -23 R -24 -35 R -116 -117 R 163 0 R D 7470 5537 M -117 -245 R D
7306 5537 M 164 0 R D 7704 5537 M -117 -245 R D 7540 5537 M 164 0 R D
50 setlinewidth L1 0.000 0.000 0.541 setrgbcolor 3020 3757 M 25 -3 R
112 217 R 93 341 R 72 175 R 72 31 R 81 -94 R 100 -218 R 142 -341 R 147 -97 R
60 160 R 69 291 R 57 173 R 56 46 R 63 -70 R 76 -180 R 114 -322 R 120 -159 R
48 100 R 65 299 R 46 185 R 46 70 R 51 -43 R 59 -147 R 84 -274 R 110 -246 R
43 52 R 58 270 R 41 211 R 40 96 R 42 -23 R 49 -125 R 65 -238 R 80 -261 R
51 -24 R 57 251 R 40 237 R 37 103 R 36 -24 R 42 -122 R 57 -230 R 69 -250 R
44 -23 R 55 278 R 31 202 R 31 84 R 31 -27 R 37 -119 R 50 -221 R 61 -234 R
37 -19 R 47 253 R 29 197 R 28 80 R 27 -25 R 33 -110 R 45 -204 R 54 -217 R
34 -19 R 42 235 R 26 175 R 24 71 R 25 -22 R 29 -97 R 40 -179 R 50 -195 R
32 -19 R 35 181 R 24 166 R 23 70 R 23 -15 R 27 -77 R 36 -143 R 45 -168 R
34 -21 R 26 114 R 23 139 R 22 72 R 20 1 R 24 -49 R 31 -97 R 43 -143 R
45 -32 R 20 76 R 21 112 R 21 64 R 19 5 R 22 -37 R 28 -77 R 43 -127 R
43 -36 R 19 60 R 21 101 R 20 62 R 18 7 R 21 -32 R 26 -67 R 41 -111 R
41 -44 R 18 45 R 23 104 R 17 56 R 18 11 R 20 -26 R 24 -58 R 30 -81 R D
20 setlinewidth L0 0.000 0.000 0.000 setrgbcolor 9577 2108 M 4957 0 R D
10028 2108 M 0 182 R D 30 setlinewidth 10051 1825 M -117 -163 R 176 0 R D
10051 1825 M 0 -245 R D 20 setlinewidth 10929 2108 M 0 182 R D
30 setlinewidth 10987 1790 M -11 24 R -35 11 R -24 0 R -35 -11 R -23 -35 R
-12 -59 R 0 -58 R 12 -47 R 23 -23 R 35 -12 R 12 0 R 35 12 R 23 23 R 12 35 R
0 12 R -12 35 R -23 23 R -35 12 R -12 0 R -35 -12 R -23 -23 R -12 -35 R D
20 setlinewidth 11830 2108 M 0 182 R D 30 setlinewidth 11795 1825 M
-35 -11 R -12 -24 R 0 -23 R 12 -23 R 24 -12 R 46 -12 R 35 -11 R 24 -24 R
11 -23 R 0 -35 R -11 -24 R -12 -11 R -35 -12 R -47 0 R -35 12 R -12 11 R
-11 24 R 0 35 R 11 23 R 24 24 R 35 11 R 47 12 R 23 12 R 12 23 R 0 23 R
-12 24 R -35 11 R -47 0 R D 20 setlinewidth 12732 2108 M 0 182 R D
30 setlinewidth 12556 1779 M 24 11 R 35 35 R 0 -245 R D 12825 1825 M
-35 -11 R -23 -35 R -12 -59 R 0 -35 R 12 -58 R 23 -35 R 35 -12 R 23 0 R
35 12 R 24 35 R 11 58 R 0 35 R -11 59 R -24 35 R -35 11 R -23 0 R D
20 setlinewidth 13633 2108 M 0 182 R D 30 setlinewidth 13458 1779 M 23 11 R
35 35 R 0 -245 R D 13668 1767 M 0 12 R 12 23 R 11 12 R 24 11 R 46 0 R
24 -11 R 11 -12 R 12 -23 R 0 -24 R -12 -23 R -23 -35 R -117 -117 R 164 0 R D
20 setlinewidth 14534 2108 M 0 182 R D 30 setlinewidth 14359 1779 M 23 11 R
35 35 R 0 -245 R D 14674 1825 M -117 -163 R 176 0 R D 14674 1825 M 0 -245 R
D 20 setlinewidth 9577 2108 M 0 91 R D 9802 2108 M 0 91 R D 10253 2108 M
0 91 R D 10478 2108 M 0 91 R D 10704 2108 M 0 91 R D 11154 2108 M 0 91 R D
11380 2108 M 0 91 R D 11605 2108 M 0 91 R D 12056 2108 M 0 91 R D
12281 2108 M 0 91 R D 12506 2108 M 0 91 R D 12957 2108 M 0 91 R D
13182 2108 M 0 91 R D 13407 2108 M 0 91 R D 13858 2108 M 0 91 R D
14083 2108 M 0 91 R D 14309 2108 M 0 91 R D 9577 6652 M 4957 0 R D
10028 6652 M 0 -182 R D 10929 6652 M 0 -182 R D 11830 6652 M 0 -182 R D
12732 6652 M 0 -182 R D 13633 6652 M 0 -182 R D 14534 6652 M 0 -182 R D
9577 6652 M 0 -91 R D 9802 6652 M 0 -91 R D 10253 6652 M 0 -91 R D
10478 6652 M 0 -91 R D 10704 6652 M 0 -91 R D 11154 6652 M 0 -91 R D
11380 6652 M 0 -91 R D 11605 6652 M 0 -91 R D 12056 6652 M 0 -91 R D
12281 6652 M 0 -91 R D 12506 6652 M 0 -91 R D 12957 6652 M 0 -91 R D
13182 6652 M 0 -91 R D 13407 6652 M 0 -91 R D 13858 6652 M 0 -91 R D
14083 6652 M 0 -91 R D 14309 6652 M 0 -91 R D 9577 2108 M 0 4544 R D
9577 2332 M 198 0 R D 30 setlinewidth 8742 2437 M -35 -12 R -24 -35 R
-11 -58 R 0 -36 R 11 -58 R 24 -35 R 35 -12 R 23 0 R 35 12 R 23 35 R 12 58 R
0 36 R -12 58 R -23 35 R -35 12 R -23 0 R D 8929 2215 M -12 -12 R 12 -12 R
11 12 R -11 12 R D 9139 2437 M -117 -164 R 175 0 R D 9139 2437 M 0 -246 R D
9396 2437 M -117 0 R -12 -105 R 12 11 R 35 12 R 35 0 R 35 -12 R 24 -23 R
11 -35 R 0 -24 R -11 -35 R -24 -23 R -35 -12 R -35 0 R -35 12 R -12 12 R
-11 23 R D 20 setlinewidth 9577 2994 M 198 0 R D 30 setlinewidth 8742 3098 M
-35 -11 R -24 -35 R -11 -59 R 0 -35 R 11 -58 R 24 -35 R 35 -12 R 23 0 R
35 12 R 23 35 R 12 58 R 0 35 R -12 59 R -23 35 R -35 11 R -23 0 R D
8929 2876 M -12 -11 R 12 -12 R 11 12 R -11 11 R D 9162 3098 M -117 0 R
-11 -105 R 11 12 R 36 12 R 35 0 R 35 -12 R 23 -23 R 12 -35 R 0 -24 R
-12 -35 R -23 -23 R -35 -12 R -35 0 R -36 12 R -11 11 R -12 24 R D
9326 3098 M -35 -11 R -24 -35 R -11 -59 R 0 -35 R 11 -58 R 24 -35 R 35 -12 R
23 0 R 35 12 R 24 35 R 11 58 R 0 35 R -11 59 R -24 35 R -35 11 R -23 0 R D
20 setlinewidth 9577 3656 M 198 0 R D 30 setlinewidth 8742 3760 M -35 -11 R
-24 -35 R -11 -59 R 0 -35 R 11 -58 R 24 -35 R 35 -12 R 23 0 R 35 12 R
23 35 R 12 58 R 0 35 R -12 59 R -23 35 R -35 11 R -23 0 R D 8929 3538 M
-12 -11 R 12 -12 R 11 12 R -11 11 R D 9162 3760 M -117 0 R -11 -105 R
11 12 R 36 11 R 35 0 R 35 -11 R 23 -24 R 12 -35 R 0 -23 R -12 -35 R
-23 -23 R -35 -12 R -35 0 R -36 12 R -11 11 R -12 24 R D 9396 3760 M
-117 0 R -12 -105 R 12 12 R 35 11 R 35 0 R 35 -11 R 24 -24 R 11 -35 R
0 -23 R -11 -35 R -24 -23 R -35 -12 R -35 0 R -35 12 R -12 11 R -11 24 R D
20 setlinewidth 9577 4317 M 198 0 R D 30 setlinewidth 8742 4422 M -35 -12 R
-24 -35 R -11 -58 R 0 -35 R 11 -59 R 24 -35 R 35 -11 R 23 0 R 35 11 R
23 35 R 12 59 R 0 35 R -12 58 R -23 35 R -35 12 R -23 0 R D 8929 4200 M
-12 -12 R 12 -11 R 11 11 R -11 12 R D 9174 4387 M -12 23 R -35 12 R -23 0 R
-35 -12 R -24 -35 R -11 -58 R 0 -59 R 11 -46 R 24 -24 R 35 -11 R 12 0 R
35 11 R 23 24 R 12 35 R 0 11 R -12 36 R -23 23 R -35 12 R -12 0 R -35 -12 R
-24 -23 R -11 -36 R D 9326 4422 M -35 -12 R -24 -35 R -11 -58 R 0 -35 R
11 -59 R 24 -35 R 35 -11 R 23 0 R 35 11 R 24 35 R 11 59 R 0 35 R -11 58 R
-24 35 R -35 12 R -23 0 R D 20 setlinewidth 9577 4979 M 198 0 R D
30 setlinewidth 8742 5084 M -35 -12 R -24 -35 R -11 -58 R 0 -35 R 11 -59 R
24 -35 R 35 -12 R 23 0 R 35 12 R 23 35 R 12 59 R 0 35 R -12 58 R -23 35 R
-35 12 R -23 0 R D 8929 4862 M -12 -12 R 12 -12 R 11 12 R -11 12 R D
9174 5049 M -12 23 R -35 12 R -23 0 R -35 -12 R -24 -35 R -11 -58 R 0 -59 R
11 -46 R 24 -24 R 35 -12 R 12 0 R 35 12 R 23 24 R 12 35 R 0 11 R -12 35 R
-23 24 R -35 11 R -12 0 R -35 -11 R -24 -24 R -11 -35 R D 9396 5084 M
-117 0 R -12 -105 R 12 11 R 35 12 R 35 0 R 35 -12 R 24 -23 R 11 -35 R
0 -23 R -11 -35 R -24 -24 R -35 -12 R -35 0 R -35 12 R -12 12 R -11 23 R D
20 setlinewidth 9577 5641 M 198 0 R D 30 setlinewidth 8742 5746 M -35 -12 R
-24 -35 R -11 -59 R 0 -35 R 11 -58 R 24 -35 R 35 -12 R 23 0 R 35 12 R
23 35 R 12 58 R 0 35 R -12 59 R -23 35 R -35 12 R -23 0 R D 8929 5524 M
-12 -12 R 12 -12 R 11 12 R -11 12 R D 9186 5746 M -117 -246 R D 9022 5746 M
164 0 R D 9326 5746 M -35 -12 R -24 -35 R -11 -59 R 0 -35 R 11 -58 R
24 -35 R 35 -12 R 23 0 R 35 12 R 24 35 R 11 58 R 0 35 R -11 59 R -24 35 R
-35 12 R -23 0 R D 20 setlinewidth 9577 6303 M 198 0 R D 30 setlinewidth
8742 6407 M -35 -11 R -24 -35 R -11 -59 R 0 -35 R 11 -58 R 24 -35 R 35 -12 R
23 0 R 35 12 R 23 35 R 12 58 R 0 35 R -12 59 R -23 35 R -35 11 R -23 0 R D
8929 6185 M -12 -11 R 12 -12 R 11 12 R -11 11 R D 9186 6407 M -117 -245 R D
9022 6407 M 164 0 R D 9396 6407 M -117 0 R -12 -105 R 12 12 R 35 12 R 35 0 R
35 -12 R 24 -23 R 11 -35 R 0 -24 R -11 -35 R -24 -23 R -35 -12 R -35 0 R
-35 12 R -12 11 R -11 24 R D 20 setlinewidth 9577 2200 M 99 0 R D
9577 2464 M 99 0 R D 9577 2597 M 99 0 R D 9577 2729 M 99 0 R D 9577 2862 M
99 0 R D 9577 3126 M 99 0 R D 9577 3259 M 99 0 R D 9577 3391 M 99 0 R D
9577 3523 M 99 0 R D 9577 3788 M 99 0 R D 9577 3920 M 99 0 R D 9577 4053 M
99 0 R D 9577 4185 M 99 0 R D 9577 4450 M 99 0 R D 9577 4582 M 99 0 R D
9577 4715 M 99 0 R D 9577 4847 M 99 0 R D 9577 5112 M 99 0 R D 9577 5244 M
99 0 R D 9577 5376 M 99 0 R D 9577 5509 M 99 0 R D 9577 5773 M 99 0 R D
9577 5906 M 99 0 R D 9577 6038 M 99 0 R D 9577 6171 M 99 0 R D 9577 6435 M
99 0 R D 9577 6568 M 99 0 R D 14534 2108 M 0 4544 R D 14534 2332 M -198 0 R
D 14534 2994 M -198 0 R D 14534 3656 M -198 0 R D 14534 4317 M -198 0 R D
14534 4979 M -198 0 R D 14534 5641 M -198 0 R D 14534 6303 M -198 0 R D
14534 2200 M -99 0 R D 14534 2464 M -99 0 R D 14534 2597 M -99 0 R D
14534 2729 M -99 0 R D 14534 2862 M -99 0 R D 14534 3126 M -99 0 R D
14534 3259 M -99 0 R D 14534 3391 M -99 0 R D 14534 3523 M -99 0 R D
14534 3788 M -99 0 R D 14534 3920 M -99 0 R D 14534 4053 M -99 0 R D
14534 4185 M -99 0 R D 14534 4450 M -99 0 R D 14534 4582 M -99 0 R D
14534 4715 M -99 0 R D 14534 4847 M -99 0 R D 14534 5112 M -99 0 R D
14534 5244 M -99 0 R D 14534 5376 M -99 0 R D 14534 5509 M -99 0 R D
14534 5773 M -99 0 R D 14534 5906 M -99 0 R D 14534 6038 M -99 0 R D
14534 6171 M -99 0 R D 14534 6435 M -99 0 R D 14534 6568 M -99 0 R D
30 setlinewidth 9678 4116 M 46 -155 R 37 -76 R 24 54 R 22 308 R 20 650 R
18 951 R 16 266 R 20 49 R 25 -110 R 35 -243 R 53 -415 R 85 -699 R 28 -228 R
25 -202 R 32 -269 R 18 -167 R 17 -133 R 14 -52 R 12 114 R 11 460 R 11 683 R
17 401 R 15 -78 R 17 -183 R 26 -304 R 40 -468 R 38 -793 R 13 -145 R
13 -160 R 12 -140 R 9 -112 R 8 -58 R 7 54 R 7 298 R 6 481 R 10 284 R
10 -44 R 10 -100 R 15 -160 R 24 -231 R 40 -367 R 9 -44 R 10 -108 R 10 -102 R
7 -87 R 7 -56 R 5 8 R 6 153 R 4 281 R 5 199 R 4 59 R 5 -8 R 7 -46 R 10 -75 R
16 -106 R 25 -155 R 26 -156 R 8 -52 R 9 -60 R 7 -57 R 6 -47 R 5 -24 R 5 27 R
4 124 R 4 77 R 4 75 R 4 16 R 5 -11 R 6 -29 R 10 -43 R 16 -59 R 26 -87 R
16 -55 R 8 -28 R 9 -34 R 7 -30 R 6 -27 R 4 -16 R 5 7 R 4 58 R 3 85 R 4 48 R
3 12 R 5 -4 R 5 -14 R 9 -20 R 13 -29 R 22 -42 R 26 -48 R 6 -12 R 8 -18 R
6 -16 R 6 -40 R 5 -7 R 4 10 R 4 40 R 3 42 R 3 20 R 4 4 R 4 -4 R 6 -8 R
10 -13 R 14 -17 R 25 -25 R 17 -17 R 7 -8 R 7 -9 R 6 -9 R 6 -8 R 5 -6 R 4 1 R
4 16 R 3 26 R 4 17 R 3 5 R 4 -1 R 5 -4 R 7 -6 R 12 -9 R 19 -12 R 33 -20 R
4 -3 R 11 -8 R 6 -4 R 5 29 R 4 -1 R 4 6 R 3 15 R 3 12 R 4 5 R 3 0 R 5 -2 R
6 -3 R 10 -5 R 17 -7 R 27 -10 R 7 -2 R 9 -4 R 7 -3 R 6 -3 R 5 -3 R 5 -1 R
3 3 R 4 8 R 3 9 R 3 4 R 4 0 R 4 -1 R 7 -2 R 9 -3 R 16 -5 R 26 -6 R 9 -2 R
7 -2 R 7 -2 R 7 -2 R 5 -2 R 4 -1 R 4 0 R 4 4 R 3 7 R 3 4 R 4 1 R 3 0 R
6 -1 R 7 83 R 12 -3 R 20 -3 R 23 -4 R 6 -1 R 7 -2 R 6 -1 R 5 -1 R 4 -1 R
3 2 R 4 3 R 3 4 R 3 2 R 3 0 R 5 0 R 6 -2 R 9 -1 R 15 -2 R 25 -3 R 8 -1 R
7 -1 R 6 -1 R 6 -1 R 5 -1 R 5 -1 R 3 1 R 4 2 R 3 4 R 3 1 R 3 1 R 4 -1 R
5 0 R 8 -1 R 13 -2 R 21 -2 R 18 -2 R 7 -1 R 7 7 R 5 -1 R 5 -1 R 5 0 R 3 1 R
4 1 R 3 3 R 3 1 R 3 1 R 4 -1 R 6 0 R 8 -1 R 13 -2 R 23 -1 R 14 -2 R 7 0 R
7 -1 R 6 -1 R 5 0 R 4 -1 R 4 1 R 3 1 R 3 3 R 3 1 R 4 0 R 3 0 R 6 -1 R 8 0 R
12 -1 R 21 -2 R 19 -1 R 7 -1 R 7 0 R 6 -1 R 5 0 R 4 -1 R 3 1 R 4 1 R 3 2 R
3 1 R 4 0 R 4 0 R 6 -1 R 9 -1 R 15 -1 R 24 -1 R 9 13 R 8 -1 R 7 0 R 6 -1 R
5 0 R 4 0 R 3 0 R 4 1 R 3 2 R 3 0 R 4 0 R 4 0 R 6 0 R 10 -1 R 15 -1 R
25 -1 R 8 -1 R 8 0 R 6 -1 R 6 0 R 5 -1 R 4 0 R 4 1 R 3 1 R 3 1 R 3 1 R 4 0 R
4 0 R 7 -1 R 9 -1 R 15 0 R 27 -2 R 6 0 R 6 -1 R 7 0 R 6 0 R 5 -1 R 4 0 R
4 0 R 3 1 R 3 2 R 3 0 R 3 1 R 4 -1 R 6 0 R 8 -1 R 13 0 R 22 1 R 16 -1 R
7 0 R 7 -1 R 6 0 R 5 -1 R 4 0 R 4 1 R 3 0 R 3 2 R 3 0 R 3 1 R 4 0 R 6 -1 R
8 0 R 13 -1 R 22 -1 R 16 -1 R 6 0 R 7 -1 R 6 0 R 5 0 R 4 -1 R 4 1 R 4 0 R
3 2 R 3 0 R 3 1 R 4 0 R 5 -1 R 8 0 R 13 -1 R 21 -1 R 18 -1 R 7 0 R 7 -1 R
6 0 R 5 0 R 4 0 R 4 0 R 3 1 R 3 1 R 3 0 R 4 1 R 4 -1 R 6 0 R 9 -1 R 15 0 R
25 -15 R 8 0 R 8 -1 R 7 0 R 6 0 R 4 -1 R 4 0 R 4 1 R 3 0 R 4 1 R 3 1 R 3 0 R
4 0 R 6 -1 R 10 0 R 14 -1 R 25 -1 R 8 0 R 8 -1 R 7 0 R 6 0 R 4 -1 R 4 0 R
4 1 R 4 0 R 3 1 R 3 1 R 3 0 R 4 0 R 6 -1 R 10 0 R 14 -1 R 25 -1 R 8 0 R
8 -1 R 6 0 R 6 0 R 5 -1 R 4 0 R 4 1 R 3 0 R 4 1 R 3 1 R 3 0 R 4 0 R 6 -1 R
9 0 R 14 -1 R 24 -1 R 10 -28 R 7 0 R 6 0 R 6 -1 R 5 0 R 4 0 R 4 0 R 4 1 R
3 1 R 3 1 R 3 0 R 3 0 R 5 0 R 8 -1 R 12 -1 R 19 0 R 23 -1 R 5 -1 R 7 0 R
6 0 R 4 -1 R 5 0 R 3 1 R 4 0 R 3 1 R 2 1 R 3 0 R 4 0 R 6 0 R 8 -1 R 13 -1 R
21 0 R 16 -1 R 7 0 R 6 -1 R 6 0 R 5 0 R 4 0 R 4 0 R 3 0 R 4 1 R 2 1 R 3 0 R
4 0 R 6 0 R 7 -1 R 12 0 R 21 -1 R 19 -1 R 6 0 R 7 0 R 6 -1 R 5 20 R 4 0 R
4 1 R 3 0 R 3 1 R 3 1 R 3 0 R 4 0 R 5 0 R 8 -1 R 12 -1 R 21 0 R 17 -1 R
6 0 R 7 -1 R 6 0 R 5 0 R 4 0 R 3 0 R 4 0 R 3 1 R 3 1 R 3 0 R 4 0 R 5 0 R
8 -1 R 13 0 R 21 -1 R 15 -1 R 7 0 R 7 0 R 6 -1 R 5 0 R 4 0 R 3 0 R 4 1 R
3 1 R 2 0 R 3 0 R 4 0 R 6 0 R 8 0 R 12 -1 R 22 -1 R 15 -1 R 7 0 R 6 0 R
6 0 R 5 -1 R 4 0 R 4 1 R 3 0 R 3 1 R 3 0 R 3 1 R 4 0 R 5 -1 R 8 0 R 12 -1 R
20 -92 R 16 0 R 6 0 R 7 -1 R 5 0 R 5 0 R 4 0 R 3 0 R 4 0 R 3 1 R 2 1 R 3 0 R
4 0 R 5 0 R 7 -1 R 11 0 R 18 -1 R 23 -1 R 5 0 R 7 0 R 5 -1 R 5 0 R 3 0 R
4 1 R 3 0 R 3 0 R 3 1 R 3 0 R 4 0 R 5 0 R 9 -1 R 13 0 R 23 -1 R 9 -1 R 7 0 R
7 0 R 5 0 R 5 -1 R 4 0 R 3 0 R 4 1 R 2 1 R 3 0 R 3 1 R 4 -1 R 4 0 R 8 0 R
11 -1 R 19 0 R 21 -1 R 5 0 R 7 -1 R 6 0 R 4 0 R 4 0 R 3 0 R 3 0 R 3 1 R D
11865 6424 M 0 -163 R D 11865 6377 M 35 35 R 24 12 R 35 0 R 23 -12 R
12 -35 R 0 -116 R D 11994 6377 M 35 35 R 23 12 R 35 0 R 24 -12 R 11 -35 R
0 -116 R D 12403 6553 M -211 -386 R D 12473 6506 M 0 -245 R D 12473 6506 M
93 -245 R 94 245 R 0 -245 R D 12753 6401 M 211 0 R D 12753 6331 M 211 0 R D
13116 6506 M -36 -12 R -23 -35 R -12 -58 R 0 -35 R 12 -59 R 23 -35 R
36 -11 R 23 0 R 35 11 R 23 35 R 12 59 R 0 35 R -12 58 R -23 35 R -35 12 R
-23 0 R D 13302 6284 M -11 -12 R 11 -11 R 12 11 R -12 12 R D 13466 6506 M
-35 -12 R -23 -35 R -12 -58 R 0 -35 R 12 -59 R 23 -35 R 35 -11 R 23 0 R
35 11 R 24 35 R 12 59 R 0 35 R -12 58 R -24 35 R -35 12 R -23 0 R D
13688 6506 M -35 -12 R -12 -23 R 0 -23 R 12 -24 R 23 -12 R 47 -11 R 35 -12 R
24 -23 R 11 -24 R 0 -35 R -11 -23 R -12 -12 R -35 -11 R -47 0 R -35 11 R
-12 12 R -11 23 R 0 35 R 11 24 R 24 23 R 35 12 R 46 11 R 24 12 R 12 24 R
0 23 R -12 23 R -35 12 R -47 0 R D 13898 6459 M 24 12 R 35 35 R 0 -245 R D
14249 6424 M -12 -35 R -23 -23 R -35 -12 R -12 0 R -35 12 R -23 23 R
-12 35 R 0 12 R 12 35 R 23 23 R 35 12 R 12 0 R 35 -12 R 23 -23 R 12 -47 R
0 -58 R -12 -59 R -23 -35 R -35 -11 R -24 0 R -35 11 R -11 24 R D
50 setlinewidth L1 0.000 0.000 0.541 setrgbcolor 9678 4116 M 57 -180 R
35 -64 R 24 63 R 22 323 R 20 633 R 19 543 R 18 202 R 21 24 R 27 -100 R
39 -208 R 60 -350 R 98 -579 R 34 -197 R 21 -121 R 35 -210 R 25 -147 R
21 -123 R 17 -83 R 15 -6 R 14 165 R 12 466 R 12 531 R 11 225 R 12 40 R
16 -66 R 21 -148 R 32 -242 R 53 -381 R 54 -389 R 11 -87 R 26 -192 R
14 -112 R 14 -99 R 11 -55 R 9 30 R 9 222 R 8 393 R 7 286 R 7 92 R 9 -4 R
12 -66 R 17 -115 R 26 -179 R 43 -276 R 26 -168 R 11 -70 R 15 -105 R 13 -88 R
14 -101 R 8 -43 R 7 8 R 7 127 R 6 242 R 6 182 R 6 60 R 6 1 R 9 -34 R
13 -61 R 19 -91 R 32 -138 R 43 -186 R 7 -33 R 14 -66 R 9 -46 R 8 -38 R
7 -17 R 6 30 R 6 111 R 5 127 R 4 64 R 6 16 R 6 -9 R 9 -24 R 13 -39 R
21 -56 R 34 -87 R 17 -42 R 8 -22 R 12 -34 R 10 -28 R 9 -26 R 7 -19 R 7 -4 R
5 35 R 5 73 R 5 59 R 4 20 R 5 2 R 6 -8 R 10 -17 R 14 -24 R 23 -35 R 40 -57 R
6 -9 R 21 -34 R 7 -13 R 8 -13 R 6 -7 R 6 8 R 5 33 R 4 41 R 4 20 R 5 6 R
5 -2 R 8 -8 R 11 -11 R 18 -17 R 29 -25 R 26 -22 R 7 -7 R 10 -9 R 9 -9 R
8 -8 R 6 -6 R 5 0 R 5 12 R 5 24 R 4 19 R 4 6 R 5 1 R 6 -3 R 9 -6 R 14 -8 R
22 -13 R 39 -20 R 6 -3 R 19 -12 R 7 -4 R 7 -5 R 6 -2 R 5 3 R 5 12 R 4 15 R
4 8 R 5 2 R 5 -1 R 7 -3 R 11 -4 R 16 -7 R 28 -9 R 29 -10 R 7 -3 R 10 -4 R
8 -3 R 8 -3 R 6 -2 R 5 0 R 5 7 R 4 10 R 4 7 R 4 2 R 5 0 R 7 -2 R 9 -3 R
15 -4 R 24 -6 R 42 -10 R 4 -1 R 16 -5 R 6 -2 R 7 -1 R 5 0 R 5 3 R 4 7 R
4 6 R 4 2 R 5 0 R 6 -1 R 9 -2 R 13 -3 R 22 -4 R 38 -7 R 6 -1 R 19 -4 R
7 -1 R 7 -2 R 5 0 R 5 1 R 5 4 R 4 5 R 4 3 R 4 1 R 5 0 R 7 -2 R 11 -1 R
16 -3 R 28 -4 R 28 -4 R 7 -1 R 9 -1 R 9 -2 R 7 -1 R 6 -1 R 5 0 R 5 3 R 4 4 R
4 3 R 4 1 R 5 0 R 7 -1 R 9 -1 R 15 -2 R 24 -3 R 43 -5 R 4 -1 R 15 -2 R
6 -1 R 6 -1 R 5 1 R 5 2 R 4 3 R 4 3 R 4 1 R 5 0 R 6 -1 R 10 -1 R 14 -2 R
24 -2 R 41 -5 R 5 0 R 15 -2 R 7 -1 R 6 -1 R 5 1 R 5 1 R 4 3 R 4 2 R 4 1 R
5 0 R 6 0 R 8 -1 R 14 -1 R 21 -2 R 38 -4 R 5 0 R 19 -2 R 7 -1 R 7 -1 R 5 0 R
5 0 R 5 2 R 4 3 R 4 2 R 4 0 R 5 0 R 7 -1 R 10 -1 R 16 -1 R 27 -2 R 31 -3 R
6 0 R 11 -1 R 8 -1 R 6 -1 R 6 0 R 5 0 R 5 2 R 4 2 R 4 2 R 4 1 R 5 0 R 6 -1 R
10 -1 R 16 -1 R 25 -2 R 36 -3 R 5 0 R 13 -2 R 7 0 R 6 -1 R 6 0 R 4 1 R 5 1 R
4 3 R 4 1 R 4 0 R 6 0 R 8 -1 R 12 -1 R 19 -2 R 33 -2 R 9 -1 R 12 0 R 9 -1 R
9 -1 R 7 0 R 6 -1 R 5 0 R 4 1 R 5 2 R 4 2 R 3 1 R 5 0 R 6 -1 R 9 0 R 13 -1 R
22 -2 R 38 -2 R 5 -1 R 18 -1 R 7 -1 R 7 0 R 5 -1 R 5 1 R 5 1 R 4 2 R 3 1 R
5 1 R 5 0 R 7 -1 R 10 -1 R 16 -1 R 27 -2 R 28 -1 R 7 -1 R 10 -1 R 8 0 R
7 -1 R 6 0 R 5 0 R 4 1 R 5 2 R 3 2 R 4 0 R 5 0 R 6 0 R 10 -1 R 14 -1 R
23 -1 R 41 -3 R 4 -1 R 16 -1 R 6 0 R 6 -1 R 5 0 R 5 1 R 4 2 R 4 1 R 4 1 R
5 0 R 6 0 R 8 -1 R 13 -1 R 20 -1 R 36 -2 R 6 -1 R 20 -1 R 7 -1 R 7 0 R 5 0 R
5 0 R 5 1 R 4 2 R 4 1 R 4 1 R 5 0 R 6 -1 R 9 -1 R 15 0 R 24 -2 R 42 -3 R
4 0 R 14 -1 R 7 -1 R 5 0 R 5 0 R 5 1 R 4 2 R 4 1 R 4 1 R 5 0 R 6 -1 R 9 0 R
14 -1 R 22 -2 R 40 -2 R 5 0 R 16 -1 R 7 -1 R 6 0 R 5 0 R 5 0 R 4 1 R 4 2 R
4 1 R 4 0 R 6 0 R 8 -1 R 12 -1 R 20 -1 R 33 -2 R 7 0 R 18 -1 R 7 -1 R 8 0 R
6 -1 R 6 0 R 5 1 R 3 1 R D
%%PageTrailer
end
%%PageResources: font Helvetica
%%Trailer
%%Pages: 1
%%DocumentNeededResources: font Helvetica
%%EOF
