%!PS-Adobe-3.0 EPSF-3.0
%%BoundingBox: 0 0 283 226
%%Title: Graphics produced by IDL
%%For: dacia@linux-4r0t, /home/dacia/work/subhalo_model
%%Creator: IDL Version 7.0 (linux x86_64 m64)
%%CreationDate: Mon Oct 26 14:26:12 2009
%%DocumentData: Clean7bit
%%Requirements: color
%%LanguageLevel: 1
%%PageOrder: Ascend
%%Pages: (atend)
%%DocumentNeededResources: (atend)
%%EndComments
%%BeginProlog
%+ prolog.ps -- Prolog for IDL generated PostScript files
%+ Copyright (c) 1988-2007 ITT Visual Information Solutions. All Rights Reserved.
%v 5
/$IDL_DICT 40 dict def $IDL_DICT begin /bdef { bind def } bind def /C
{currentpoint newpath moveto} bdef /CP {currentpoint} bdef /D {currentpoint
stroke moveto} bdef /F {closepath fill} bdef /K { setgray } bdef /M {moveto}
bdef /N {rmoveto} bdef /P {lineto} bdef /R {rlineto} bdef /S {gsave show
grestore} bdef /X {currentpoint pop} bdef /Z {gsave currentpoint lineto 20
setlinewidth 1 setlinecap stroke grestore} bdef /L0 {[] 0 setdash} bdef /L1
{[40 100] 0 setdash} bdef /L2 {[200 200] 0 setdash} bdef /L3 {[200 100 50
100] 0 setdash} bdef /L4 {[300 100 50 100 50 100 50 100] 0 setdash} bdef /L5
{[400 200] 0 setdash} bdef /STDFONT { findfont exch scalefont setfont } bdef
/ISOFONT { findfont dup length dict begin { 1 index /FID ne {def} {pop pop}
ifelse } forall /Encoding ISOLatin1Encoding def currentdict end /idltmpfont
exch definefont exch scalefont setfont } bdef /ISOBULLET { gsave /Helvetica
findfont exch scalefont setfont (\267) show currentpoint grestore moveto}
bdef /MITERLIMIT { 2.5 setmiterlimit } bdef end
%%EndProlog
%%Page: 0 1
%%PageRequirements: color
%%PageResources: (atend)
%%PageOrientation: Portrait
%%PageBoundingBox: 0 0 283 226
%%BeginPageSetup
$IDL_DICT begin 0.0283465 dup scale MITERLIMIT
%%IncludeResource: font Helvetica
423.333 /Helvetica STDFONT
%%EndPageSetup
40 setlinewidth L0 0.000 0.000 0.000 setrgbcolor 2100 1600 M 7400 0 R D
2100 1600 M 0 246 R D gsave 2100 840 translate 0 0 M 1.44 dup scale
-294.217 0 N
(0.0) show grestore 3580 1600 M 0 246 R D gsave 3580 840 translate 0 0 M
1.44 dup scale -294.217 0 N
(0.2) show grestore 5060 1600 M 0 246 R D gsave 5060 840 translate 0 0 M
1.44 dup scale -294.217 0 N
(0.4) show grestore 6540 1600 M 0 246 R D gsave 6540 840 translate 0 0 M
1.44 dup scale -294.217 0 N
(0.6) show grestore 8020 1600 M 0 246 R D gsave 8020 840 translate 0 0 M
1.44 dup scale -294.217 0 N
(0.8) show grestore 9500 1600 M 0 246 R D gsave 9500 840 translate 0 0 M
1.44 dup scale -294.217 0 N
(1.0) show grestore 2470 1600 M 0 123 R D 2840 1600 M 0 123 R D 3210 1600 M
0 123 R D 3950 1600 M 0 123 R D 4320 1600 M 0 123 R D 4690 1600 M 0 123 R D
5430 1600 M 0 123 R D 5800 1600 M 0 123 R D 6170 1600 M 0 123 R D
6910 1600 M 0 123 R D 7280 1600 M 0 123 R D 7650 1600 M 0 123 R D
8390 1600 M 0 123 R D 8760 1600 M 0 123 R D 9130 1600 M 0 123 R D
gsave 5800 181 translate 0 0 M 1.44 dup scale -92.9217 0 N
%%IncludeResource: font Symbol
423.333 /Symbol STDFONT
(e) show
%%IncludeResource: font Helvetica
423.333 /Helvetica STDFONT grestore 2100 7760 M 7400 0 R D 2100 7760 M
0 -246 R D 3580 7760 M 0 -246 R D 5060 7760 M 0 -246 R D 6540 7760 M
0 -246 R D 8020 7760 M 0 -246 R D 9500 7760 M 0 -246 R D 2470 7760 M
0 -123 R D 2840 7760 M 0 -123 R D 3210 7760 M 0 -123 R D 3950 7760 M
0 -123 R D 4320 7760 M 0 -123 R D 4690 7760 M 0 -123 R D 5430 7760 M
0 -123 R D 5800 7760 M 0 -123 R D 6170 7760 M 0 -123 R D 6910 7760 M
0 -123 R D 7280 7760 M 0 -123 R D 7650 7760 M 0 -123 R D 8390 7760 M
0 -123 R D 8760 7760 M 0 -123 R D 9130 7760 M 0 -123 R D 2100 1600 M
0 6160 R D 2100 1600 M 296 0 R D gsave 1940 1600 translate 0 0 M
1.44 dup scale -588.433 0 N
(0.0) show grestore 2100 3525 M 296 0 R D gsave 1940 3322 translate 0 0 M
1.44 dup scale -588.433 0 N
(0.5) show grestore 2100 5450 M 296 0 R D gsave 1940 5247 translate 0 0 M
1.44 dup scale -588.433 0 N
(1.0) show grestore 2100 7375 M 296 0 R D gsave 1940 7172 translate 0 0 M
1.44 dup scale -588.433 0 N
(1.5) show grestore 2100 1985 M 148 0 R D 2100 2370 M 148 0 R D 2100 2755 M
148 0 R D 2100 3140 M 148 0 R D 2100 3910 M 148 0 R D 2100 4295 M 148 0 R D
2100 4680 M 148 0 R D 2100 5065 M 148 0 R D 2100 5835 M 148 0 R D
2100 6220 M 148 0 R D 2100 6605 M 148 0 R D 2100 6990 M 148 0 R D
2100 7760 M 148 0 R D gsave 614 4680 translate 0 0 M 90 rotate
1.44 dup scale -351.578 0 N
(p\() show
%%IncludeResource: font Symbol
423.333 /Symbol STDFONT
(e) show
%%IncludeResource: font Helvetica
423.333 /Helvetica STDFONT
(\)) show grestore 9500 1600 M 0 6160 R D 9500 1600 M -296 0 R D 9500 3525 M
-296 0 R D 9500 5450 M -296 0 R D 9500 7375 M -296 0 R D 9500 1985 M
-148 0 R D 9500 2370 M -148 0 R D 9500 2755 M -148 0 R D 9500 3140 M
-148 0 R D 9500 3910 M -148 0 R D 9500 4295 M -148 0 R D 9500 4680 M
-148 0 R D 9500 5065 M -148 0 R D 9500 5835 M -148 0 R D 9500 6220 M
-148 0 R D 9500 6605 M -148 0 R D 9500 6990 M -148 0 R D 9500 7760 M
-148 0 R D 2100 1600 M 74 162 R 74 200 R 74 213 R 74 218 R 74 221 R 74 221 R
74 219 R 74 217 R 74 212 R 74 208 R 74 204 R 74 197 R 74 193 R 74 186 R
74 180 R 74 173 R 74 168 R 74 160 R 74 154 R 74 148 R 74 140 R 74 134 R
74 127 R 74 121 R 74 113 R 74 107 R 74 101 R 74 94 R 74 88 R 74 81 R 74 75 R
74 69 R 74 62 R 74 57 R 74 51 R 74 45 R 74 39 R 74 34 R 74 28 R 74 24 R
74 17 R 74 13 R 74 8 R 74 3 R 74 -2 R 74 -6 R 74 -11 R 74 -15 R 74 -19 R
74 -24 R 74 -27 R 74 -31 R 74 -35 R 74 -38 R 74 -41 R 74 -45 R 74 -48 R
74 -51 R 74 -54 R 74 -57 R 74 -59 R 74 -62 R 74 -64 R 74 -66 R 74 -69 R
74 -70 R 74 -73 R 74 -74 R 74 -76 R 74 -77 R 74 -79 R 74 -80 R 74 -81 R
74 -82 R 74 -83 R 74 -84 R 74 -85 R 74 -85 R 74 -86 R 74 -86 R 74 -87 R
74 -87 R 74 -87 R 74 -87 R 74 -87 R 74 -86 R 74 -87 R 74 -86 R 74 -86 R
74 -85 R 74 -85 R 74 -84 R 74 -83 R 74 -83 R 74 -82 R 74 -81 R 74 -79 R
74 -79 R 74 -78 R 73 -75 R D
%%PageTrailer
end
%%PageResources: font Helvetica
%%+ font Symbol
%%Trailer
%%Pages: 1
%%DocumentNeededResources: font Helvetica
%%+ font Symbol
%%EOF
