%!PS-Adobe-3.0 EPSF-3.0
%%BoundingBox: 0 0 340 283
%%Title: Graphics produced by IDL
%%For: jlgan@aida119, /home/jlgan/work/subhalo_model
%%Creator: IDL Version 7.1 (linux x86_64 m64)
%%CreationDate: Thu Jul 30 14:28:04 2009
%%DocumentData: Clean7bit
%%Requirements: color
%%LanguageLevel: 1
%%PageOrder: Ascend
%%Pages: (atend)
%%DocumentNeededResources: (atend)
%%EndComments
%%BeginProlog
%+ prolog.ps -- Prolog for IDL generated PostScript files
%+ Copyright (c) 1988-2009 ITT Visual Information Solutions. All Rights Reserved.
%v 5
/$IDL_DICT 40 dict def $IDL_DICT begin /bdef { bind def } bind def /C
{currentpoint newpath moveto} bdef /CP {currentpoint} bdef /D {currentpoint
stroke moveto} bdef /F {closepath fill} bdef /K { setgray } bdef /M {moveto}
bdef /N {rmoveto} bdef /P {lineto} bdef /R {rlineto} bdef /S {gsave show
grestore} bdef /X {currentpoint pop} bdef /Z {gsave currentpoint lineto 20
setlinewidth 1 setlinecap stroke grestore} bdef /L0 {[] 0 setdash} bdef /L1
{[40 100] 0 setdash} bdef /L2 {[200 200] 0 setdash} bdef /L3 {[200 100 50
100] 0 setdash} bdef /L4 {[300 100 50 100 50 100 50 100] 0 setdash} bdef /L5
{[400 200] 0 setdash} bdef /STDFONT { findfont exch scalefont setfont } bdef
/ISOFONT { findfont dup length dict begin { 1 index /FID ne {def} {pop pop}
ifelse } forall /Encoding ISOLatin1Encoding def currentdict end /idltmpfont
exch definefont exch scalefont setfont } bdef /ISOBULLET { gsave /Helvetica
findfont exch scalefont setfont (\267) show currentpoint grestore moveto}
bdef /MITERLIMIT { 2.5 setmiterlimit } bdef end
%%EndProlog
%%Page: 0 1
%%PageRequirements: color
%%PageResources: (atend)
%%PageOrientation: Portrait
%%PageBoundingBox: 0 0 340 283
%%BeginPageSetup
$IDL_DICT begin 0.0283465 dup scale MITERLIMIT
%%IncludeResource: font Helvetica
423.333 /Helvetica STDFONT
%%EndPageSetup
40 setlinewidth L0 0.000 0.000 0.000 setrgbcolor 2664 1690 M 8537 0 R D
2664 1690 M 0 298 R D gsave 2664 1056 translate 0 0 M 1.2 dup scale
-294.217 0 N
(0.6) show grestore 4798 1690 M 0 298 R D gsave 4798 1056 translate 0 0 M
1.2 dup scale -294.217 0 N
(0.7) show grestore 6932 1690 M 0 298 R D gsave 6932 1056 translate 0 0 M
1.2 dup scale -294.217 0 N
(0.8) show grestore 9067 1690 M 0 298 R D gsave 9067 1056 translate 0 0 M
1.2 dup scale -294.217 0 N
(0.9) show grestore 11201 1690 M 0 298 R D gsave 11201 1056 translate 0 0 M
1.2 dup scale -294.217 0 N
(1.0) show grestore 2877 1690 M 0 149 R D 3091 1690 M 0 149 R D 3304 1690 M
0 149 R D 3518 1690 M 0 149 R D 3731 1690 M 0 149 R D 3945 1690 M 0 149 R D
4158 1690 M 0 149 R D 4371 1690 M 0 149 R D 4585 1690 M 0 149 R D
5012 1690 M 0 149 R D 5225 1690 M 0 149 R D 5439 1690 M 0 149 R D
5652 1690 M 0 149 R D 5865 1690 M 0 149 R D 6079 1690 M 0 149 R D
6292 1690 M 0 149 R D 6506 1690 M 0 149 R D 6719 1690 M 0 149 R D
7146 1690 M 0 149 R D 7359 1690 M 0 149 R D 7573 1690 M 0 149 R D
7786 1690 M 0 149 R D 8000 1690 M 0 149 R D 8213 1690 M 0 149 R D
8426 1690 M 0 149 R D 8640 1690 M 0 149 R D 8853 1690 M 0 149 R D
9280 1690 M 0 149 R D 9494 1690 M 0 149 R D 9707 1690 M 0 149 R D
9920 1690 M 0 149 R D 10134 1690 M 0 149 R D 10347 1690 M 0 149 R D
10561 1690 M 0 149 R D 10774 1690 M 0 149 R D 10987 1690 M 0 149 R D
gsave 6932 507 translate 0 0 M 1.2 dup scale -127.635 0 N
%%IncludeResource: font Symbol
423.333 /Symbol STDFONT
(h) show
%%IncludeResource: font Helvetica
423.333 /Helvetica STDFONT grestore 2664 9155 M 8537 0 R D 2664 9155 M
0 -298 R D 4798 9155 M 0 -298 R D 6932 9155 M 0 -298 R D 9067 9155 M
0 -298 R D 11201 9155 M 0 -298 R D 2877 9155 M 0 -149 R D 3091 9155 M
0 -149 R D 3304 9155 M 0 -149 R D 3518 9155 M 0 -149 R D 3731 9155 M
0 -149 R D 3945 9155 M 0 -149 R D 4158 9155 M 0 -149 R D 4371 9155 M
0 -149 R D 4585 9155 M 0 -149 R D 5012 9155 M 0 -149 R D 5225 9155 M
0 -149 R D 5439 9155 M 0 -149 R D 5652 9155 M 0 -149 R D 5865 9155 M
0 -149 R D 6079 9155 M 0 -149 R D 6292 9155 M 0 -149 R D 6506 9155 M
0 -149 R D 6719 9155 M 0 -149 R D 7146 9155 M 0 -149 R D 7359 9155 M
0 -149 R D 7573 9155 M 0 -149 R D 7786 9155 M 0 -149 R D 8000 9155 M
0 -149 R D 8213 9155 M 0 -149 R D 8426 9155 M 0 -149 R D 8640 9155 M
0 -149 R D 8853 9155 M 0 -149 R D 9280 9155 M 0 -149 R D 9494 9155 M
0 -149 R D 9707 9155 M 0 -149 R D 9920 9155 M 0 -149 R D 10134 9155 M
0 -149 R D 10347 9155 M 0 -149 R D 10561 9155 M 0 -149 R D 10774 9155 M
0 -149 R D 10987 9155 M 0 -149 R D 2664 1690 M 0 7465 R D 2664 2890 M
342 0 R D gsave 2531 2721 translate 0 0 M 1.2 dup scale -588.433 0 N
(0.5) show grestore 2664 4143 M 342 0 R D gsave 2531 3974 translate 0 0 M
1.2 dup scale -588.433 0 N
(0.6) show grestore 2664 5396 M 342 0 R D gsave 2531 5227 translate 0 0 M
1.2 dup scale -588.433 0 N
(0.7) show grestore 2664 6649 M 342 0 R D gsave 2531 6480 translate 0 0 M
1.2 dup scale -588.433 0 N
(0.8) show grestore 2664 7902 M 342 0 R D gsave 2531 7733 translate 0 0 M
1.2 dup scale -588.433 0 N
(0.9) show grestore 2664 9155 M 342 0 R D gsave 2531 8860 translate 0 0 M
1.2 dup scale -588.433 0 N
(1.0) show grestore 2664 1762 M 171 0 R D 2664 1887 M 171 0 R D 2664 2012 M
171 0 R D 2664 2138 M 171 0 R D 2664 2263 M 171 0 R D 2664 2388 M 171 0 R D
2664 2514 M 171 0 R D 2664 2639 M 171 0 R D 2664 2764 M 171 0 R D
2664 3015 M 171 0 R D 2664 3140 M 171 0 R D 2664 3266 M 171 0 R D
2664 3391 M 171 0 R D 2664 3516 M 171 0 R D 2664 3641 M 171 0 R D
2664 3767 M 171 0 R D 2664 3892 M 171 0 R D 2664 4017 M 171 0 R D
2664 4268 M 171 0 R D 2664 4393 M 171 0 R D 2664 4519 M 171 0 R D
2664 4644 M 171 0 R D 2664 4769 M 171 0 R D 2664 4895 M 171 0 R D
2664 5020 M 171 0 R D 2664 5145 M 171 0 R D 2664 5271 M 171 0 R D
2664 5521 M 171 0 R D 2664 5646 M 171 0 R D 2664 5772 M 171 0 R D
2664 5897 M 171 0 R D 2664 6022 M 171 0 R D 2664 6148 M 171 0 R D
2664 6273 M 171 0 R D 2664 6398 M 171 0 R D 2664 6524 M 171 0 R D
2664 6774 M 171 0 R D 2664 6900 M 171 0 R D 2664 7025 M 171 0 R D
2664 7150 M 171 0 R D 2664 7276 M 171 0 R D 2664 7401 M 171 0 R D
2664 7526 M 171 0 R D 2664 7651 M 171 0 R D 2664 7777 M 171 0 R D
2664 8027 M 171 0 R D 2664 8153 M 171 0 R D 2664 8278 M 171 0 R D
2664 8403 M 171 0 R D 2664 8529 M 171 0 R D 2664 8654 M 171 0 R D
2664 8779 M 171 0 R D 2664 8905 M 171 0 R D 2664 9030 M 171 0 R D
gsave 1425 5422 translate 0 0 M 90 rotate 1.2 dup scale -316.018 0 N
%%IncludeResource: font Symbol
423.333 /Symbol STDFONT
(e) show X -95.92 M
%%IncludeResource: font Helvetica
262.467 /Helvetica STDFONT
(max) show grestore
%%IncludeResource: font Helvetica
423.333 /Helvetica STDFONT 11201 1690 M 0 7465 R D 11201 2890 M -342 0 R D
11201 4143 M -342 0 R D 11201 5396 M -342 0 R D 11201 6649 M -342 0 R D
11201 7902 M -342 0 R D 11201 9155 M -342 0 R D 11201 1762 M -171 0 R D
11201 1887 M -171 0 R D 11201 2012 M -171 0 R D 11201 2138 M -171 0 R D
11201 2263 M -171 0 R D 11201 2388 M -171 0 R D 11201 2514 M -171 0 R D
11201 2639 M -171 0 R D 11201 2764 M -171 0 R D 11201 3015 M -171 0 R D
11201 3140 M -171 0 R D 11201 3266 M -171 0 R D 11201 3391 M -171 0 R D
11201 3516 M -171 0 R D 11201 3641 M -171 0 R D 11201 3767 M -171 0 R D
11201 3892 M -171 0 R D 11201 4017 M -171 0 R D 11201 4268 M -171 0 R D
11201 4393 M -171 0 R D 11201 4519 M -171 0 R D 11201 4644 M -171 0 R D
11201 4769 M -171 0 R D 11201 4895 M -171 0 R D 11201 5020 M -171 0 R D
11201 5145 M -171 0 R D 11201 5271 M -171 0 R D 11201 5521 M -171 0 R D
11201 5646 M -171 0 R D 11201 5772 M -171 0 R D 11201 5897 M -171 0 R D
11201 6022 M -171 0 R D 11201 6148 M -171 0 R D 11201 6273 M -171 0 R D
11201 6398 M -171 0 R D 11201 6524 M -171 0 R D 11201 6774 M -171 0 R D
11201 6900 M -171 0 R D 11201 7025 M -171 0 R D 11201 7150 M -171 0 R D
11201 7276 M -171 0 R D 11201 7401 M -171 0 R D 11201 7526 M -171 0 R D
11201 7651 M -171 0 R D 11201 7777 M -171 0 R D 11201 8027 M -171 0 R D
11201 8153 M -171 0 R D 11201 8278 M -171 0 R D 11201 8403 M -171 0 R D
11201 8529 M -171 0 R D 11201 8654 M -171 0 R D 11201 8779 M -171 0 R D
11201 8905 M -171 0 R D 11201 9030 M -171 0 R D 2664 1690 M 213 1012 R
214 802 R 213 663 R 214 562 R 213 486 R 214 424 R 213 373 R 213 331 R
214 296 R 213 264 R 214 238 R 213 213 R 214 193 R 213 175 R 213 157 R
214 143 R 213 129 R 214 117 R 213 106 R 213 96 R 214 86 R 213 78 R 214 71 R
213 63 R 214 57 R 213 51 R 213 45 R 214 40 R 213 36 R 214 31 R 213 27 R
214 23 R 213 19 R 213 17 R 214 13 R 213 11 R 214 8 R 213 5 R 213 3 R 213 0 R
D gsave 6932 6649 translate 0 0 M 1.2 dup scale
(M=10) show X 192.937 M
%%IncludeResource: font Helvetica
262.467 /Helvetica STDFONT
(12) show X 0 M
%%IncludeResource: font Helvetica
423.333 /Helvetica STDFONT
(M) show X -101.051 M
%%IncludeResource: font Helvetica
262.467 /Helvetica STDFONT
(sun) show grestore
%%IncludeResource: font Helvetica
423.333 /Helvetica STDFONT gsave 6932 6227 translate 0 0 M 1.2 dup scale
(c=8.5) show grestore
%%PageTrailer
end
%%PageResources: font Helvetica
%%+ font Symbol
%%Trailer
%%Pages: 1
%%DocumentNeededResources: font Helvetica
%%+ font Symbol
%%EOF
