%!PS-Adobe-3.0 EPSF-3.0
%%BoundingBox: 0 0 425 311
%%Title: Graphics produced by IDL
%%For: jlgan@aida119, /home/jlgan/work/subhalo_model
%%Creator: IDL Version 7.0 (linux x86_64 m64)
%%CreationDate: Wed Apr 15 12:26:24 2009
%%DocumentData: Clean7bit
%%Requirements: color
%%LanguageLevel: 1
%%PageOrder: Ascend
%%Pages: (atend)
%%DocumentNeededResources: (atend)
%%EndComments
%%BeginProlog
%+ prolog.ps -- Prolog for IDL generated PostScript files
%+ Copyright (c) 1988-2007 ITT Visual Information Solutions. All Rights Reserved.
%v 5
/$IDL_DICT 40 dict def $IDL_DICT begin /bdef { bind def } bind def /C
{currentpoint newpath moveto} bdef /CP {currentpoint} bdef /D {currentpoint
stroke moveto} bdef /F {closepath fill} bdef /K { setgray } bdef /M {moveto}
bdef /N {rmoveto} bdef /P {lineto} bdef /R {rlineto} bdef /S {gsave show
grestore} bdef /X {currentpoint pop} bdef /Z {gsave currentpoint lineto 20
setlinewidth 1 setlinecap stroke grestore} bdef /L0 {[] 0 setdash} bdef /L1
{[40 100] 0 setdash} bdef /L2 {[200 200] 0 setdash} bdef /L3 {[200 100 50
100] 0 setdash} bdef /L4 {[300 100 50 100 50 100 50 100] 0 setdash} bdef /L5
{[400 200] 0 setdash} bdef /STDFONT { findfont exch scalefont setfont } bdef
/ISOFONT { findfont dup length dict begin { 1 index /FID ne {def} {pop pop}
ifelse } forall /Encoding ISOLatin1Encoding def currentdict end /idltmpfont
exch definefont exch scalefont setfont } bdef /ISOBULLET { gsave /Helvetica
findfont exch scalefont setfont (\267) show currentpoint grestore moveto}
bdef /MITERLIMIT { 2.5 setmiterlimit } bdef end
%%EndProlog
%%Page: 0 1
%%PageRequirements: color
%%PageResources: (atend)
%%PageOrientation: Portrait
%%PageBoundingBox: 0 0 425 311
%%BeginPageSetup
$IDL_DICT begin 0.0283465 dup scale MITERLIMIT
%%IncludeResource: font Helvetica
423.333 /Helvetica STDFONT
%%EndPageSetup
20 setlinewidth L0 0.000 0.000 0.000 setrgbcolor 2886 1830 M 11248 0 R D
2886 1830 M 0 331 R D 30 setlinewidth 2856 1463 M -46 -15 R -30 -46 R
-15 -76 R 0 -45 R 15 -76 R 30 -46 R 46 -15 R 30 0 R 46 15 R 30 46 R 15 76 R
0 45 R -15 76 R -30 46 R -46 15 R -30 0 R D 20 setlinewidth 5136 1830 M
0 331 R D 30 setlinewidth 5029 1387 M 0 15 R 16 31 R 15 15 R 30 15 R 61 0 R
30 -15 R 15 -15 R 16 -31 R 0 -30 R -16 -30 R -30 -46 R -152 -152 R 213 0 R D
20 setlinewidth 7385 1830 M 0 331 R D 30 setlinewidth 7416 1463 M
-152 -213 R 228 0 R D 7416 1463 M 0 -319 R D 20 setlinewidth 9635 1830 M
0 331 R D 30 setlinewidth 9711 1417 M -15 31 R -46 15 R -30 0 R -46 -15 R
-30 -46 R -15 -76 R 0 -76 R 15 -60 R 30 -31 R 46 -15 R 15 0 R 46 15 R
30 31 R 15 45 R 0 15 R -15 46 R -30 30 R -46 16 R -15 0 R -46 -16 R
-30 -30 R -15 -46 R D 20 setlinewidth 11885 1830 M 0 331 R D 30 setlinewidth
11839 1463 M -46 -15 R -15 -31 R 0 -30 R 15 -30 R 31 -15 R 61 -16 R 45 -15 R
31 -30 R 15 -31 R 0 -45 R -15 -31 R -16 -15 R -45 -15 R -61 0 R -46 15 R
-15 15 R -15 31 R 0 45 R 15 31 R 31 30 R 45 15 R 61 16 R 30 15 R 16 30 R
0 30 R -16 31 R -45 15 R -61 0 R D 20 setlinewidth 14134 1830 M 0 331 R D
30 setlinewidth 13906 1402 M 31 15 R 45 46 R 0 -319 R D 14256 1463 M
-46 -15 R -30 -46 R -15 -76 R 0 -45 R 15 -76 R 30 -46 R 46 -15 R 30 0 R
46 15 R 30 46 R 15 76 R 0 45 R -15 76 R -30 46 R -46 15 R -30 0 R D
20 setlinewidth 3448 1830 M 0 166 R D 4011 1830 M 0 166 R D 4573 1830 M
0 166 R D 5698 1830 M 0 166 R D 6261 1830 M 0 166 R D 6823 1830 M 0 166 R D
7948 1830 M 0 166 R D 8510 1830 M 0 166 R D 9073 1830 M 0 166 R D
10197 1830 M 0 166 R D 10760 1830 M 0 166 R D 11322 1830 M 0 166 R D
12447 1830 M 0 166 R D 13009 1830 M 0 166 R D 13572 1830 M 0 166 R D
30 setlinewidth 7508 868 M 0 -258 R 15 -46 R 30 -15 R 31 0 R D 7462 762 M
106 0 R D 7660 868 M 15 -15 R 15 15 R -15 15 R -15 -15 R D 7675 762 M
0 -213 R D 7796 762 M 0 -213 R D 7796 701 M 46 46 R 30 15 R 46 0 R 30 -15 R
15 -46 R 0 -152 R D 7963 701 M 46 46 R 30 15 R 46 0 R 30 -15 R 15 -46 R
0 -152 R D 8237 671 M 182 0 R 0 30 R -15 30 R -15 16 R -31 15 R -45 0 R
-31 -15 R -30 -31 R -15 -45 R 0 -31 R 15 -45 R 30 -31 R 31 -15 R 45 0 R
31 15 R 30 31 R D 8768 929 M -273 -501 R D 9072 792 M -15 31 R -30 30 R
-31 15 R -61 0 R -30 -15 R -30 -30 R -15 -31 R -16 -45 R 0 -76 R 16 -46 R
15 -30 R 30 -31 R 30 -15 R 61 0 R 31 15 R 30 31 R 15 30 R 0 46 R -76 0 R D
9148 762 M 91 -213 R 91 213 R D 9239 549 M -30 -76 R -30 -30 R -31 -15 R
-15 0 R D 9422 762 M 0 -213 R D 9422 671 M 15 45 R 30 31 R 30 15 R 46 0 R D
20 setlinewidth 2886 10085 M 11248 0 R D 2886 10085 M 0 -330 R D
5136 10085 M 0 -330 R D 7385 10085 M 0 -330 R D 9635 10085 M 0 -330 R D
11885 10085 M 0 -330 R D 14134 10085 M 0 -330 R D 3448 10085 M 0 -165 R D
4011 10085 M 0 -165 R D 4573 10085 M 0 -165 R D 5698 10085 M 0 -165 R D
6261 10085 M 0 -165 R D 6823 10085 M 0 -165 R D 7948 10085 M 0 -165 R D
8510 10085 M 0 -165 R D 9073 10085 M 0 -165 R D 10197 10085 M 0 -165 R D
10760 10085 M 0 -165 R D 11322 10085 M 0 -165 R D 12447 10085 M 0 -165 R D
13009 10085 M 0 -165 R D 13572 10085 M 0 -165 R D 2886 1830 M 0 8255 R D
2886 1830 M 450 0 R D 30 setlinewidth 2104 2149 M -46 -15 R -30 -45 R
-15 -76 R 0 -46 R 15 -76 R 30 -45 R 46 -16 R 30 0 R 46 16 R 30 45 R 15 76 R
0 46 R -15 76 R -30 45 R -46 15 R -30 0 R D 2347 1861 M -15 -15 R 15 -16 R
15 16 R -15 15 R D 2560 2149 M -46 -15 R -30 -45 R -16 -76 R 0 -46 R
16 -76 R 30 -45 R 46 -16 R 30 0 R 45 16 R 31 45 R 15 76 R 0 46 R -15 76 R
-31 45 R -45 15 R -30 0 R D 20 setlinewidth 2886 3481 M 450 0 R D
30 setlinewidth 2104 3617 M -46 -15 R -30 -45 R -15 -76 R 0 -46 R 15 -76 R
30 -46 R 46 -15 R 30 0 R 46 15 R 30 46 R 15 76 R 0 46 R -15 76 R -30 45 R
-46 15 R -30 0 R D 2347 3329 M -15 -16 R 15 -15 R 15 15 R -15 16 R D
2484 3541 M 0 16 R 15 30 R 15 15 R 30 15 R 61 0 R 30 -15 R 16 -15 R 15 -30 R
0 -31 R -15 -30 R -31 -46 R -152 -152 R 213 0 R D 20 setlinewidth
2886 5132 M 450 0 R D 30 setlinewidth 2104 5268 M -46 -15 R -30 -46 R
-15 -76 R 0 -45 R 15 -76 R 30 -46 R 46 -15 R 30 0 R 46 15 R 30 46 R 15 76 R
0 45 R -15 76 R -30 46 R -46 15 R -30 0 R D 2347 4980 M -15 -16 R 15 -15 R
15 15 R -15 16 R D 2620 5268 M -152 -212 R 228 0 R D 2620 5268 M 0 -319 R D
20 setlinewidth 2886 6783 M 450 0 R D 30 setlinewidth 2104 6919 M -46 -15 R
-30 -46 R -15 -76 R 0 -45 R 15 -76 R 30 -46 R 46 -15 R 30 0 R 46 15 R
30 46 R 15 76 R 0 45 R -15 76 R -30 46 R -46 15 R -30 0 R D 2347 6630 M
-15 -15 R 15 -15 R 15 15 R -15 15 R D 2666 6873 M -15 31 R -46 15 R -30 0 R
-46 -15 R -30 -46 R -15 -76 R 0 -76 R 15 -60 R 30 -31 R 46 -15 R 15 0 R
45 15 R 31 31 R 15 45 R 0 15 R -15 46 R -31 30 R -45 16 R -15 0 R -46 -16 R
-30 -30 R -15 -46 R D 20 setlinewidth 2886 8434 M 450 0 R D 30 setlinewidth
2104 8570 M -46 -15 R -30 -46 R -15 -76 R 0 -45 R 15 -76 R 30 -46 R 46 -15 R
30 0 R 46 15 R 30 46 R 15 76 R 0 45 R -15 76 R -30 46 R -46 15 R -30 0 R D
2347 8281 M -15 -15 R 15 -15 R 15 15 R -15 15 R D 2544 8570 M -45 -15 R
-15 -31 R 0 -30 R 15 -30 R 30 -16 R 61 -15 R 45 -15 R 31 -30 R 15 -31 R
0 -45 R -15 -31 R -15 -15 R -46 -15 R -61 0 R -45 15 R -15 15 R -16 31 R
0 45 R 16 31 R 30 30 R 46 15 R 60 15 R 31 16 R 15 30 R 0 30 R -15 31 R
-46 15 R -61 0 R D 20 setlinewidth 2886 10085 M 450 0 R D 30 setlinewidth
2058 10023 M 31 15 R 45 46 R 0 -319 R D 2347 9795 M -15 -15 R 15 -15 R
15 15 R -15 15 R D 2560 10084 M -46 -16 R -30 -45 R -16 -76 R 0 -46 R
16 -76 R 30 -45 R 46 -15 R 30 0 R 45 15 R 31 45 R 15 76 R 0 46 R -15 76 R
-31 45 R -45 16 R -30 0 R D 20 setlinewidth 2886 2243 M 225 0 R D
2886 2656 M 225 0 R D 2886 3069 M 225 0 R D 2886 3894 M 225 0 R D
2886 4307 M 225 0 R D 2886 4719 M 225 0 R D 2886 5545 M 225 0 R D
2886 5958 M 225 0 R D 2886 6370 M 225 0 R D 2886 7196 M 225 0 R D
2886 7609 M 225 0 R D 2886 8021 M 225 0 R D 2886 8847 M 225 0 R D
2886 9259 M 225 0 R D 2886 9672 M 225 0 R D 30 setlinewidth 1230 5031 M
16 15 R -16 15 R -15 -15 R 15 -15 R D 1337 5046 M 273 0 R 46 -15 R 15 -30 R
0 -31 R D 1170 5274 M 30 -30 R 46 -31 R 60 -30 R 76 -15 R 61 0 R 76 15 R
76 30 R 46 31 R 30 30 R D 1230 5396 M 259 0 R 45 15 R 15 30 R 0 31 R D
1337 5350 M 0 106 R D 1170 5548 M 30 30 R 46 30 R 60 31 R 76 15 R 61 0 R
76 -15 R 76 -31 R 46 -30 R 30 -30 R D 1170 6018 M 501 -273 R D 1230 6125 M
16 15 R -16 15 R -15 -15 R 15 -15 R D 1337 6140 M 273 0 R 46 -15 R 15 -31 R
0 -30 R D 1170 6368 M 30 -31 R 46 -30 R 60 -30 R 76 -16 R 61 0 R 76 16 R
76 30 R 46 30 R 30 31 R D 1230 6550 M 16 -46 R 45 -30 R 76 -15 R 46 0 R
76 15 R 45 30 R 15 46 R 0 30 R -15 46 R -45 30 R -76 16 R -46 0 R -76 -16 R
-45 -30 R -16 -46 R 0 -30 R D 1170 6763 M 30 30 R 46 30 R 60 31 R 76 15 R
61 0 R 76 -15 R 76 -31 R 46 -30 R 30 -30 R D 20 setlinewidth 14134 1830 M
0 8255 R D 14134 1830 M -450 0 R D 14134 3481 M -450 0 R D 14134 5132 M
-450 0 R D 14134 6783 M -450 0 R D 14134 8434 M -450 0 R D 14134 10085 M
-450 0 R D 14134 2243 M -225 0 R D 14134 2656 M -225 0 R D 14134 3069 M
-225 0 R D 14134 3894 M -225 0 R D 14134 4307 M -225 0 R D 14134 4719 M
-225 0 R D 14134 5545 M -225 0 R D 14134 5958 M -225 0 R D 14134 6370 M
-225 0 R D 14134 7196 M -225 0 R D 14134 7609 M -225 0 R D 14134 8021 M
-225 0 R D 14134 8847 M -225 0 R D 14134 9259 M -225 0 R D 14134 9672 M
-225 0 R D 0.000 0.000 1.000 setrgbcolor 2887 10084 M 127 -64 R 364 -219 R
203 -169 R 137 -160 R 108 -180 R 102 -249 R 91 -304 R 79 -275 R 75 -227 R
91 -214 R 117 -218 R 164 -239 R 251 -306 R 413 -439 R 707 -683 R 115 -110 R
120 -118 R 56 -57 R 194 -225 R 55 -79 R 68 -118 R 53 -123 R 47 -144 R
43 -194 R 39 -238 R 38 -248 R 35 -201 R 40 -196 R 54 -207 R 76 -238 R
119 -299 R 206 -419 R 27 -52 R 64 -125 R 13 -28 R 47 -119 R 12 -37 R
16 -57 R 12 -57 R 10 -66 R 10 -87 R 10 -147 R 5 -131 R 5 -108 R 5 -54 R
5 -18 R D 50 setlinewidth 2887 10084 M 127 -64 R 365 -219 R 203 -168 R
136 -156 R 108 -175 R 102 -235 R 91 -271 R 78 -231 R 76 -181 R 90 -165 R
118 -163 R 164 -175 R 250 -218 R 412 -310 R 808 -558 R 259 -177 R 80 -56 R
264 -203 R 67 -61 R 91 -97 R 73 -97 R 63 -108 R 55 -132 R 52 -162 R
51 -173 R 45 -128 R 47 -100 R 60 -98 R 82 -104 R 123 -126 R 199 -175 R
371 -294 R 79 -62 R 43 -35 R 142 -124 R 41 -42 R 50 -60 R 40 -59 R 34 -64 R
32 -77 R 28 -89 R 28 -84 R 25 -61 R 28 -50 R 36 -50 R 51 -53 R 77 -66 R
125 -90 R 238 -155 R 31 -21 R 54 -40 R 33 -28 R 32 -30 R 27 -31 R 22 -32 R
20 -38 R 19 -42 R 18 -41 R 16 -29 R 18 -23 R 23 -23 R 32 -23 R 48 -27 R
78 -36 R 138 -57 R 22 -9 R 83 -37 R 20 -10 R 25 -15 R 21 -15 R 17 -15 R
15 -17 R 14 -19 R 13 -18 R 12 -14 R 12 -11 R 15 -9 R 21 -10 R 29 -11 R
47 -13 R 78 -19 R 124 -29 R 16 -4 R 35 -10 R 19 -6 R 21 -9 R 14 -7 R 13 -8 R
12 -10 R 10 -9 R 10 -7 R 10 -5 R 12 -5 R 17 -5 R 24 -5 R 37 -6 R 62 -8 R
115 -15 R 30 -4 R 15 -3 R 21 -3 R 17 -4 R 15 -4 R 12 -4 R 11 -4 R 10 -5 R
10 -5 R 9 -3 R 10 -3 R 13 -2 R 17 -3 R 27 -3 R 42 -3 R 74 -5 R 59 -5 R
17 -1 R 35 -3 R 16 -1 R 18 -2 R 14 -2 R 12 -2 R 10 -3 R 10 -3 R 9 -2 R
8 -2 R 8 -1 R 11 -2 R 14 -1 R 20 -1 R 32 -2 R 54 -3 R 98 -3 R 17 -1 R
29 -2 R 17 0 R 16 -2 R 14 -1 R 12 -1 R 10 -1 R 10 -2 R 8 -1 R 8 -1 R 8 -1 R
10 -1 R 12 -1 R 18 0 R 29 -1 R 48 -2 R 86 -2 R 31 0 R 11 -1 R 43 -1 R 12 0 R
14 -1 R 12 -1 R 10 -1 R 9 0 R 8 -1 R 8 -1 R 8 0 R 9 -1 R 13 0 R 19 -1 R
29 0 R 48 -1 R 86 -1 R 25 -1 R 12 0 R 42 -1 R 12 0 R 14 0 R 12 -1 R 10 0 R
9 -1 R 8 0 R 8 -1 R 7 0 R 10 0 R 12 -1 R 18 0 R 27 0 R 45 -1 R 81 -1 R
14 0 R 61 0 R 11 -1 R 16 0 R 13 0 R 12 0 R 9 -1 R 9 0 R 8 0 R 8 -1 R 8 0 R
8 0 R 13 0 R 17 0 R 27 -1 R 45 0 R 80 0 R 14 0 R 61 -1 R 11 0 R 17 0 R
13 0 R 11 0 R 10 -1 R 10 0 R 8 0 R 7 0 R 8 0 R 9 -1 R 14 0 R 19 0 R 30 0 R
51 0 R 92 -1 R 36 0 R 11 0 R 22 0 R 13 0 R 12 0 R 10 0 R 10 -1 R 8 0 R 8 0 R
8 0 R 8 0 R 11 0 R 16 0 R 23 0 R 38 -1 R 65 0 R 59 0 R 14 0 R 33 0 R 15 0 R
15 0 R 13 0 R 10 0 R 9 -1 R 9 0 R 8 0 R 7 0 R 8 0 R 10 0 R 13 0 R 20 0 R
32 0 R 52 0 R 98 -1 R 15 0 R 24 0 R 15 0 R 15 0 R 12 0 R 10 0 R 10 0 R 8 0 R
7 0 R D 80 setlinewidth 2887 10084 M 127 -64 R 364 -218 R 203 -167 R
137 -155 R 108 -172 R 101 -227 R 91 -257 R 79 -212 R 75 -162 R 91 -146 R
117 -140 R 164 -151 R 250 -186 R 410 -263 R 810 -477 R 387 -225 R 124 -75 R
90 -57 R 135 -94 R 97 -76 R 91 -86 R 76 -92 R 65 -101 R 59 -125 R 55 -143 R
52 -132 R 47 -93 R 53 -75 R 68 -74 R 95 -80 R 146 -98 R 237 -139 R
461 -250 R 117 -63 R 63 -35 R 105 -64 R 64 -43 R 64 -49 R 54 -51 R 44 -55 R
41 -63 R 37 -72 R 33 -64 R 31 -48 R 33 -37 R 42 -35 R 56 -36 R 84 -41 R
132 -55 R 229 -85 R 193 -70 R 117 -45 R 45 -19 R 55 -25 R 45 -25 R 39 -27 R
33 -27 R 30 -33 R 28 -32 R 24 -25 R 22 -18 R 27 -16 R 36 -15 R 49 -16 R
74 -19 R 119 -27 R 214 -43 R 114 -23 R 41 -9 R 66 -15 R 44 -11 R 42 -13 R
35 -12 R 29 -14 R 27 -15 R 25 -17 R 22 -13 R 20 -9 R 23 -8 R 30 -7 R 40 -8 R
61 -9 R 97 -13 R 169 -19 R 126 -14 R 51 -7 R 30 -3 R 70 -10 R 36 -6 R
35 -6 R 28 -7 R 26 -9 R 24 -9 R 21 -7 R 19 -6 R 21 -4 R 25 -4 R 35 -5 R
52 -5 R 81 -6 R 137 -10 R 226 -15 R 46 -4 R 36 -3 R 38 -3 R 32 -4 R 27 -4 R
24 -5 R 22 -5 R 20 -5 R 18 -3 R 20 -3 R 22 -2 R 34 -3 R 48 -3 R 77 -3 R
128 -6 R 250 -11 R 25 -1 R 46 -3 R 34 -2 R 29 -3 R 24 -2 R 23 -3 R 20 -4 R
18 -2 R 17 -2 R 20 -2 R 26 -1 R 37 -2 R 55 -2 R 90 -3 R 156 -5 R 13 -1 R D
30 setlinewidth 0.000 0.000 0.000 setrgbcolor 9850 9472 M 0 -213 R D
9850 9411 M 46 46 R 30 15 R 46 0 R 30 -15 R 16 -46 R 0 -152 R D 10018 9411 M
45 46 R 30 15 R 46 0 R 30 -15 R 16 -46 R 0 -152 R D 10412 9639 M -30 -30 R
-30 -46 R -31 -61 R -15 -75 R 0 -61 R 15 -76 R 31 -76 R 30 -46 R 30 -30 R D
10595 9578 M -46 -15 R -30 -45 R -15 -76 R 0 -46 R 15 -76 R 30 -45 R
46 -16 R 30 0 R 46 16 R 30 45 R 15 76 R 0 46 R -15 76 R -30 45 R -46 15 R
-30 0 R D 10807 9639 M 31 -30 R 30 -46 R 31 -61 R 15 -75 R 0 -61 R -15 -76 R
-31 -76 R -30 -46 R -31 -30 R D 11278 9639 M -273 -501 R D 11369 9578 M
0 -319 R D 11369 9578 M 122 -319 R 121 319 R 0 -319 R D 11840 9639 M
-30 -30 R -30 -46 R -31 -61 R -15 -75 R 0 -61 R 15 -76 R 31 -76 R 30 -46 R
30 -30 R D 12023 9578 M -46 -15 R -30 -45 R -16 -76 R 0 -46 R 16 -76 R
30 -45 R 46 -16 R 30 0 R 45 16 R 31 45 R 15 76 R 0 46 R -15 76 R -31 45 R
-45 15 R -30 0 R D 12235 9639 M 31 -30 R 30 -46 R 30 -61 R 16 -75 R 0 -61 R
-16 -76 R -30 -76 R -30 -46 R -31 -30 R D 12463 9442 M 273 0 R D
12463 9351 M 273 0 R D 12934 9578 M -46 -15 R -30 -45 R -15 -76 R 0 -46 R
15 -76 R 30 -45 R 46 -16 R 30 0 R 46 16 R 30 45 R 15 76 R 0 46 R -15 76 R
-30 45 R -46 15 R -30 0 R D 13177 9290 M -15 -15 R 15 -16 R 15 16 R -15 15 R
D 13344 9518 M 30 15 R 46 45 R 0 -319 R D 12357 8999 M -31 15 R -45 0 R
-31 -15 R -30 -30 R -15 -46 R 0 -45 R 15 -46 R 15 -15 R 31 -15 R 45 0 R
31 15 R D 12205 8908 M 121 0 R D 12463 8984 M 273 0 R D 12463 8893 M 273 0 R
D 12934 9121 M -46 -15 R -30 -46 R -15 -76 R 0 -45 R 15 -76 R 30 -46 R
46 -15 R 30 0 R 46 15 R 30 46 R 15 76 R 0 45 R -15 76 R -30 46 R -46 15 R
-30 0 R D 13177 8832 M -15 -15 R 15 -15 R 15 15 R -15 15 R D 13481 9121 M
-152 0 R -15 -137 R 15 15 R 45 15 R 46 0 R 46 -15 R 30 -30 R 15 -46 R
0 -30 R -15 -46 R -30 -30 R -46 -15 R -46 0 R -45 15 R -15 15 R -16 31 R D
11354 8663 M -121 -319 R D 11354 8663 M 122 -319 R D 11278 8451 M 152 0 R D
11552 8526 M 273 0 R D 11552 8435 M 273 0 R D 11977 8602 M 30 16 R 46 45 R
0 -319 R D 12281 8359 M -15 -15 R -16 15 R 16 16 R 15 -16 R 0 -45 R
-15 -31 R -16 -15 R D 12402 8587 M 0 15 R 15 31 R 16 15 R 30 15 R 61 0 R
30 -15 R 15 -15 R 16 -31 R 0 -30 R -16 -30 R -30 -46 R -152 -152 R 213 0 R D
12736 8359 M -15 -15 R -15 15 R 15 16 R 15 -16 R 0 -45 R -15 -31 R -15 -15 R
D 12858 8587 M 0 15 R 15 31 R 15 15 R 31 15 R 60 0 R 31 -15 R 15 -15 R
15 -31 R 0 -30 R -15 -30 R -30 -46 R -152 -152 R 212 0 R D 13177 8375 M
-15 -16 R 15 -15 R 15 15 R -15 16 R D 13481 8663 M -152 0 R -15 -137 R
15 16 R 45 15 R 46 0 R 46 -15 R 30 -31 R 15 -45 R 0 -31 R -15 -45 R
-30 -31 R -46 -15 R -46 0 R -45 15 R -15 16 R -16 30 R D
%%PageTrailer
end
%%PageResources: font Helvetica
%%Trailer
%%Pages: 1
%%DocumentNeededResources: font Helvetica
%%EOF
