%!PS-Adobe-3.0 EPSF-3.0
%%BoundingBox: 0 0 510 411
%%Title: Graphics produced by IDL
%%For: jlgan@aida119, /home/jlgan/work/subhalo_model
%%Creator: IDL Version 7.1 (linux x86_64 m64)
%%CreationDate: Mon Aug 17 12:20:53 2009
%%DocumentData: Clean7bit
%%Requirements: color
%%LanguageLevel: 1
%%PageOrder: Ascend
%%Pages: (atend)
%%DocumentNeededResources: (atend)
%%EndComments
%%BeginProlog
%+ prolog.ps -- Prolog for IDL generated PostScript files
%+ Copyright (c) 1988-2009 ITT Visual Information Solutions. All Rights Reserved.
%v 5
/$IDL_DICT 40 dict def $IDL_DICT begin /bdef { bind def } bind def /C
{currentpoint newpath moveto} bdef /CP {currentpoint} bdef /D {currentpoint
stroke moveto} bdef /F {closepath fill} bdef /K { setgray } bdef /M {moveto}
bdef /N {rmoveto} bdef /P {lineto} bdef /R {rlineto} bdef /S {gsave show
grestore} bdef /X {currentpoint pop} bdef /Z {gsave currentpoint lineto 20
setlinewidth 1 setlinecap stroke grestore} bdef /L0 {[] 0 setdash} bdef /L1
{[40 100] 0 setdash} bdef /L2 {[200 200] 0 setdash} bdef /L3 {[200 100 50
100] 0 setdash} bdef /L4 {[300 100 50 100 50 100 50 100] 0 setdash} bdef /L5
{[400 200] 0 setdash} bdef /STDFONT { findfont exch scalefont setfont } bdef
/ISOFONT { findfont dup length dict begin { 1 index /FID ne {def} {pop pop}
ifelse } forall /Encoding ISOLatin1Encoding def currentdict end /idltmpfont
exch definefont exch scalefont setfont } bdef /ISOBULLET { gsave /Helvetica
findfont exch scalefont setfont (\267) show currentpoint grestore moveto}
bdef /MITERLIMIT { 2.5 setmiterlimit } bdef end
%%EndProlog
%%Page: 0 1
%%PageRequirements: color
%%PageResources: (atend)
%%PageOrientation: Portrait
%%PageBoundingBox: 0 0 510 411
%%BeginPageSetup
$IDL_DICT begin 0.0283465 dup scale MITERLIMIT
%%IncludeResource: font Helvetica
423.333 /Helvetica STDFONT
%%EndPageSetup
0.000 0.000 0.000 setrgbcolor gsave 1800 10699 translate 0 0 M 90 rotate
-611.293 0 N
(j\(t\)/j\(0\)) show grestore 40 setlinewidth L0 2940 7602 M 6117 0 R D
2940 7602 M 0 248 R D gsave 2940 7074 translate 0 0 M -58.8433 0 N
( ) show grestore 3812 7602 M 0 248 R D gsave 3812 7074 translate 0 0 M
-58.8433 0 N
( ) show grestore 4685 7602 M 0 248 R D gsave 4685 7074 translate 0 0 M
-58.8433 0 N
( ) show grestore 5557 7602 M 0 248 R D gsave 5557 7074 translate 0 0 M
-58.8433 0 N
( ) show grestore 6430 7602 M 0 248 R D gsave 6430 7074 translate 0 0 M
-58.8433 0 N
( ) show grestore 7302 7602 M 0 248 R D gsave 7302 7074 translate 0 0 M
-58.8433 0 N
( ) show grestore 8174 7602 M 0 248 R D gsave 8174 7074 translate 0 0 M
-58.8433 0 N
( ) show grestore 9047 7602 M 0 248 R D gsave 9047 7074 translate 0 0 M
-58.8433 0 N
( ) show grestore 3115 7602 M 0 124 R D 3289 7602 M 0 124 R D 3464 7602 M
0 124 R D 3638 7602 M 0 124 R D 3987 7602 M 0 124 R D 4161 7602 M 0 124 R D
4336 7602 M 0 124 R D 4510 7602 M 0 124 R D 4859 7602 M 0 124 R D
5034 7602 M 0 124 R D 5208 7602 M 0 124 R D 5383 7602 M 0 124 R D
5732 7602 M 0 124 R D 5906 7602 M 0 124 R D 6081 7602 M 0 124 R D
6255 7602 M 0 124 R D 6604 7602 M 0 124 R D 6779 7602 M 0 124 R D
6953 7602 M 0 124 R D 7127 7602 M 0 124 R D 7476 7602 M 0 124 R D
7651 7602 M 0 124 R D 7825 7602 M 0 124 R D 8000 7602 M 0 124 R D
8349 7602 M 0 124 R D 8523 7602 M 0 124 R D 8698 7602 M 0 124 R D
8872 7602 M 0 124 R D 2940 13796 M 6117 0 R D 2940 13796 M 0 -248 R D
3812 13796 M 0 -248 R D 4685 13796 M 0 -248 R D 5557 13796 M 0 -248 R D
6430 13796 M 0 -248 R D 7302 13796 M 0 -248 R D 8174 13796 M 0 -248 R D
9047 13796 M 0 -248 R D 3115 13796 M 0 -124 R D 3289 13796 M 0 -124 R D
3464 13796 M 0 -124 R D 3638 13796 M 0 -124 R D 3987 13796 M 0 -124 R D
4161 13796 M 0 -124 R D 4336 13796 M 0 -124 R D 4510 13796 M 0 -124 R D
4859 13796 M 0 -124 R D 5034 13796 M 0 -124 R D 5208 13796 M 0 -124 R D
5383 13796 M 0 -124 R D 5732 13796 M 0 -124 R D 5906 13796 M 0 -124 R D
6081 13796 M 0 -124 R D 6255 13796 M 0 -124 R D 6604 13796 M 0 -124 R D
6779 13796 M 0 -124 R D 6953 13796 M 0 -124 R D 7127 13796 M 0 -124 R D
7476 13796 M 0 -124 R D 7651 13796 M 0 -124 R D 7825 13796 M 0 -124 R D
8000 13796 M 0 -124 R D 8349 13796 M 0 -124 R D 8523 13796 M 0 -124 R D
8698 13796 M 0 -124 R D 8872 13796 M 0 -124 R D 2940 7602 M 0 6194 R D
2940 7897 M 245 0 R D gsave 2829 7756 translate 0 0 M -588.433 0 N
(0.0) show grestore 2940 9077 M 245 0 R D gsave 2829 8936 translate 0 0 M
-588.433 0 N
(0.2) show grestore 2940 10257 M 245 0 R D gsave 2829 10116 translate 0 0 M
-588.433 0 N
(0.4) show grestore 2940 11436 M 245 0 R D gsave 2829 11296 translate 0 0 M
-588.433 0 N
(0.6) show grestore 2940 12616 M 245 0 R D gsave 2829 12475 translate 0 0 M
-588.433 0 N
(0.8) show grestore 2940 13796 M 245 0 R D gsave 2829 13550 translate 0 0 M
-588.433 0 N
(1.0) show grestore 2940 7602 M 122 0 R D 2940 8192 M 122 0 R D 2940 8487 M
122 0 R D 2940 8782 M 122 0 R D 2940 9372 M 122 0 R D 2940 9667 M 122 0 R D
2940 9962 M 122 0 R D 2940 10552 M 122 0 R D 2940 10847 M 122 0 R D
2940 11142 M 122 0 R D 2940 11731 M 122 0 R D 2940 12026 M 122 0 R D
2940 12321 M 122 0 R D 2940 12911 M 122 0 R D 2940 13206 M 122 0 R D
2940 13501 M 122 0 R D 9057 7602 M 0 6194 R D 9057 7897 M -245 0 R D
9057 9077 M -245 0 R D 9057 10257 M -245 0 R D 9057 11436 M -245 0 R D
9057 12616 M -245 0 R D 9057 13796 M -245 0 R D 9057 7602 M -122 0 R D
9057 8192 M -122 0 R D 9057 8487 M -122 0 R D 9057 8782 M -122 0 R D
9057 9372 M -122 0 R D 9057 9667 M -122 0 R D 9057 9962 M -122 0 R D
9057 10552 M -122 0 R D 9057 10847 M -122 0 R D 9057 11142 M -122 0 R D
9057 11731 M -122 0 R D 9057 12026 M -122 0 R D 9057 12321 M -122 0 R D
9057 12911 M -122 0 R D 9057 13206 M -122 0 R D 9057 13501 M -122 0 R D
2940 13796 M 35 -83 R 70 -202 R 36 -143 R 33 -178 R 30 -194 R 25 -157 R
24 -129 R 29 -124 R 37 -130 R 50 -151 R 70 -190 R 70 -182 R 69 -178 R
70 -186 R 44 -135 R 23 -82 R 20 -95 R 19 -109 R 17 -124 R 15 -106 R 14 -85 R
15 -74 R 19 -77 R 26 -86 R 38 -114 R 60 -167 R 45 -128 R 15 -48 R 17 -58 R
14 -56 R 12 -59 R 11 -70 R 10 -69 R 9 -53 R 8 -42 R 10 -40 R 12 -42 R
18 -48 R 27 -67 R 43 -100 R 13 -31 R 13 -34 R 11 -32 R 9 -32 R 8 -34 R
8 -38 R 6 -32 R 6 -25 R 6 -19 R 8 -19 R 11 -20 R 15 -25 R 23 -35 R 24 -35 R
11 -16 R 10 -16 R 7 -15 R 7 -15 R 6 -17 R 6 -16 R 5 -12 R 5 -9 R 6 -7 R
7 -7 R 11 -9 R 15 -11 R 26 -15 R 10 -7 R 10 -7 R 8 -6 R 6 -5 R 6 -6 R 5 -7 R
5 -5 R 5 -3 R 4 -3 R 6 -3 R 8 -3 R 11 -3 R 18 -5 R 25 -7 R 8 -3 R 8 -2 R
7 -3 R 5 -3 R 6 -3 R 4 -3 R 5 -1 R 4 -2 R 5 -1 R 8 -2 R 10 -2 R 16 -2 R
26 -4 R 8 -1 R 8 -2 R 7 -1 R 5 -2 R 5 -1 R 5 -2 R 4 -1 R 5 -1 R 5 -1 R
6 -1 R 10 -1 R 14 -1 R 24 -2 R 9 -1 R 8 -1 R 7 -1 R 6 -1 R 6 -1 R 5 -1 R
4 -1 R 4 -1 R 4 0 R 5 -1 R 7 -1 R 11 0 R 16 -2 R 27 -1 R 7 -1 R 7 -1 R 6 0 R
5 -1 R 5 -1 R 4 -1 R 4 0 R 4 -1 R 6 0 R 7 -1 R 10 0 R 16 -1 R 25 -2 R 8 0 R
7 -1 R 6 0 R 6 -1 R 5 -1 R 4 0 R 4 -1 R 4 0 R 5 -1 R 7 0 R 9 -1 R 15 0 R
23 -2 R 8 0 R 9 -1 R 6 0 R 6 -1 R 4 0 R 5 -1 R 4 0 R 4 -1 R 4 0 R 5 -1 R
8 0 R 11 -1 R 16 0 R 21 -1 R 8 -1 R 8 0 R 6 -1 R 5 0 R 5 -1 R 4 0 R 4 -1 R
4 0 R 5 -1 R 7 0 R 9 -1 R 15 0 R 24 -1 R 8 -1 R 7 0 R 7 -1 R 5 0 R 5 -1 R
5 0 R 4 -1 R 3 0 R 5 0 R 5 -1 R 8 0 R 12 -1 R 18 -1 R 15 0 R 9 -1 R 7 0 R
6 -1 R 5 0 R 5 -1 R 4 0 R 5 -1 R 4 0 R 4 0 R 7 -1 R 9 0 R 14 -1 R 23 -1 R
8 0 R 8 -1 R 6 0 R 6 0 R 5 -1 R 4 -1 R 4 0 R 4 0 R 4 -1 R 6 0 R 7 -1 R
11 0 R 17 -1 R 18 -1 R 8 0 R 7 0 R 6 -1 R 5 0 R 5 -1 R 4 0 R 4 -1 R 4 0 R
5 0 R 6 -1 R 10 0 R 13 -1 R 23 -1 R 8 0 R 8 -1 R 6 0 R 6 0 R 5 -1 R 4 0 R
4 -1 R 3 0 R 5 -1 R 5 0 R 7 0 R 11 -1 R 17 -1 R 18 0 R 8 -1 R 7 0 R 6 -1 R
5 0 R 4 -1 R 5 0 R 4 0 R 3 -1 R 5 0 R 6 -1 R 9 0 R 14 -1 R 22 -1 R 8 0 R
8 0 R 6 -1 R 6 0 R 5 -1 R 4 0 R 4 -1 R 3 0 R 4 0 R 6 -1 R 7 0 R 10 -1 R
17 0 R 18 -1 R 8 0 R 7 -1 R 6 0 R 5 -1 R 4 0 R 4 -1 R 4 0 R 4 0 R 5 -1 R
6 0 R 9 -1 R 13 0 R 22 -1 R 8 0 R 8 -1 R 6 0 R 5 -1 R 5 0 R 5 -1 R 3 0 R
4 0 R 4 -1 R 5 0 R 7 0 R 10 -1 R 17 -1 R 18 0 R 7 -1 R 7 0 R 6 -1 R 5 0 R
5 0 R 4 -1 R 4 0 R 3 -1 R 5 0 R 6 0 R 9 -1 R 13 0 R 22 -1 R 8 -1 R 7 0 R
6 0 R 6 -1 R 4 0 R 5 -1 R 3 0 R 4 -1 R 4 0 R 5 0 R 7 -1 R 10 0 R 16 -1 R
18 -1 R 8 0 R 7 0 R 5 -1 R 5 0 R 5 -1 R 4 0 R 3 -1 R 4 0 R 5 0 R 6 -1 R
8 0 R 13 -1 R 22 -1 R 8 0 R 7 0 R 6 -1 R 5 0 R 5 0 R 4 -1 R 4 0 R 3 -1 R
4 0 R 5 0 R 7 -1 R 10 0 R 16 -1 R 18 -1 R 7 0 R 7 0 R 6 -1 R 5 0 R 4 -1 R
4 0 R 4 -1 R 3 0 R 5 0 R 6 -1 R 8 0 R 13 -1 R 21 -1 R 8 0 R 8 0 R 6 -1 R
5 0 R 4 -1 R 5 0 R 3 0 R 4 -1 R 3 0 R 5 0 R 7 -1 R 10 0 R 16 -1 R 18 -1 R
7 0 R 7 -1 R 5 0 R 5 0 R 4 -1 R 4 0 R 4 -1 R 3 0 R 5 0 R 6 -1 R 8 0 R
13 -1 R 21 -1 R 7 0 R 8 0 R 6 -1 R 5 0 R 4 0 R 4 -1 R 4 0 R 3 -1 R 4 0 R
5 0 R 7 -1 R 10 0 R 15 -1 R 18 -1 R 7 0 R 7 0 R 5 -1 R 5 0 R 4 -1 R 4 0 R
4 -1 R 3 0 R 4 0 R 6 -1 R 9 0 R 12 -1 R 21 0 R 7 -1 R 7 0 R 6 -1 R 5 0 R
5 0 R 4 -1 R 3 0 R 4 -1 R 4 0 R 4 0 R 7 -1 R 10 0 R 15 -1 R 18 -1 R 7 0 R
6 0 R 6 -1 R 4 0 R 4 0 R 4 -1 R 4 0 R 3 -1 R 5 0 R 5 0 R 9 -1 R 12 0 R
20 -1 R 8 -1 R 7 0 R 6 0 R 5 -1 R 4 0 R 4 -1 R 4 0 R 3 0 R 4 -1 R 5 0 R
6 0 R 10 -1 R 14 -1 R 18 0 R 7 -1 R 7 0 R 5 0 R 4 -1 R 5 0 R 3 -1 R 4 0 R
3 0 R 5 -1 R 5 0 R 8 -1 R 13 0 R 20 -1 R 7 0 R 7 -1 R 6 0 R 5 0 R 4 -1 R
4 0 R 4 -1 R 3 0 R 4 0 R 4 -1 R 7 0 R 9 -1 R 15 0 R 17 -1 R 7 0 R 7 -1 R
5 0 R 4 0 R 4 -1 R 4 0 R 4 -1 R 3 0 R 4 0 R 6 -1 R 8 0 R 12 -1 R 20 -1 R
7 0 R 7 0 R 6 -1 R 5 0 R 4 0 R 4 -1 R 3 0 R 3 -1 R 4 0 R 5 0 R 6 -1 R 9 0 R
15 -1 R 17 -1 R 7 0 R 6 0 R 5 -1 R 5 0 R 4 0 R 4 -1 R 3 0 R 4 -1 R 4 0 R
5 0 R 8 -1 R 12 0 R 20 -1 R 7 0 R 7 -1 R 5 0 R 5 0 R 4 -1 R 4 0 R 4 -1 R
3 0 R 3 0 R 5 -1 R 6 0 R 9 -1 R 14 0 R 18 -1 R 7 0 R 6 -1 R 5 0 R 4 0 R
4 -1 R 4 0 R 3 -1 R 4 0 R 4 0 R 5 -1 R 8 0 R 12 -1 R 19 -1 R 7 0 R 7 0 R
6 -1 R 4 0 R 4 0 R 4 -1 R 4 0 R 3 -1 R 3 0 R 5 0 R 6 -1 R 9 0 R 14 -1 R
17 0 R 7 -1 R 6 0 R 5 0 R 4 -1 R 4 0 R 4 -1 R 3 0 R 4 0 R 4 -1 R 5 0 R 8 0 R
11 -1 R 19 -1 R 7 0 R 7 -1 R 6 0 R 4 0 R 4 -1 R 4 0 R 3 -1 R 4 0 R 3 0 R
4 -1 R 6 0 R 9 0 R 14 -1 R 18 -1 R 6 0 R 6 0 R 5 -1 R 4 0 R 4 -1 R 4 0 R
3 0 R 3 -1 R 4 0 R 6 0 R 7 -1 R 12 0 R 19 -1 R 6 0 R 7 -1 R 5 0 R 5 0 R
4 -1 R 4 0 R 3 -1 R 3 0 R 4 0 R 4 -1 R 6 0 R 9 -1 R 13 0 R 18 -1 R 6 0 R
6 -1 R 5 0 R 4 0 R 4 -1 R 3 0 R 4 -1 R 3 0 R 4 0 R 5 -1 R 7 0 R 12 -1 R
18 0 R 7 -1 R 7 0 R 5 0 R 5 -1 R 4 0 R 3 -1 R 4 0 R 3 0 R 3 -1 R 4 0 R 6 0 R
9 -1 R 13 0 R 18 -1 R 6 0 R 6 -1 R 4 0 R 4 0 R 4 -1 R 4 0 R 3 -1 R 3 0 R
4 0 R 5 -1 R 7 0 R 12 -1 R 18 0 R 7 -1 R 6 0 R 6 0 R 4 -1 R 4 0 R 4 -1 R
3 0 R 3 0 R 3 -1 R 4 0 R 6 0 R 9 -1 R 13 0 R 17 -1 R 6 0 R 6 -1 R 5 0 R
4 -1 R 4 0 R 3 0 R 3 -1 R 3 0 R 4 0 R 5 -1 R 7 0 R 11 -1 R 19 0 R 6 -1 R
7 0 R 5 0 R 4 -1 R 4 0 R 4 -1 R 3 0 R 3 0 R 3 -1 R 4 0 R 6 0 R 8 -1 R 13 0 R
18 -1 R 6 0 R 5 -1 R 5 0 R 4 0 R 4 -1 R 3 0 R 3 -1 R 3 0 R 4 0 R 5 -1 R
7 0 R 11 -1 R D 10497 7602 M 6117 0 R D 11319 7602 M 0 248 R D
gsave 11319 7074 translate 0 0 M -58.8433 0 N
( ) show grestore 12605 7602 M 0 248 R D gsave 12605 7074 translate 0 0 M
-58.8433 0 N
( ) show grestore 13890 7602 M 0 248 R D gsave 13890 7074 translate 0 0 M
-58.8433 0 N
( ) show grestore 15175 7602 M 0 248 R D gsave 15175 7074 translate 0 0 M
-58.8433 0 N
( ) show grestore 16461 7602 M 0 248 R D gsave 16461 7074 translate 0 0 M
-58.8433 0 N
( ) show grestore 10548 7602 M 0 124 R D 10805 7602 M 0 124 R D 11062 7602 M
0 124 R D 11576 7602 M 0 124 R D 11833 7602 M 0 124 R D 12090 7602 M 0 124 R
D 12347 7602 M 0 124 R D 12862 7602 M 0 124 R D 13119 7602 M 0 124 R D
13376 7602 M 0 124 R D 13633 7602 M 0 124 R D 14147 7602 M 0 124 R D
14404 7602 M 0 124 R D 14661 7602 M 0 124 R D 14918 7602 M 0 124 R D
15433 7602 M 0 124 R D 15690 7602 M 0 124 R D 15947 7602 M 0 124 R D
16204 7602 M 0 124 R D 10497 13796 M 6117 0 R D 11319 13796 M 0 -248 R D
12605 13796 M 0 -248 R D 13890 13796 M 0 -248 R D 15175 13796 M 0 -248 R D
16461 13796 M 0 -248 R D 10548 13796 M 0 -124 R D 10805 13796 M 0 -124 R D
11062 13796 M 0 -124 R D 11576 13796 M 0 -124 R D 11833 13796 M 0 -124 R D
12090 13796 M 0 -124 R D 12347 13796 M 0 -124 R D 12862 13796 M 0 -124 R D
13119 13796 M 0 -124 R D 13376 13796 M 0 -124 R D 13633 13796 M 0 -124 R D
14147 13796 M 0 -124 R D 14404 13796 M 0 -124 R D 14661 13796 M 0 -124 R D
14918 13796 M 0 -124 R D 15433 13796 M 0 -124 R D 15690 13796 M 0 -124 R D
15947 13796 M 0 -124 R D 16204 13796 M 0 -124 R D 10497 7602 M 0 6194 R D
10497 8015 M 245 0 R D gsave 10386 7874 translate 0 0 M -964.777 0 N
(-0.04) show grestore 10497 8841 M 245 0 R D
gsave 10386 8700 translate 0 0 M -964.777 0 N
(-0.02) show grestore 10497 9667 M 245 0 R D
gsave 10386 9526 translate 0 0 M -823.807 0 N
(0.00) show grestore 10497 10493 M 245 0 R D
gsave 10386 10352 translate 0 0 M -823.807 0 N
(0.02) show grestore 10497 11318 M 245 0 R D
gsave 10386 11178 translate 0 0 M -823.807 0 N
(0.04) show grestore 10497 12144 M 245 0 R D
gsave 10386 12004 translate 0 0 M -823.807 0 N
(0.06) show grestore 10497 12970 M 245 0 R D
gsave 10386 12829 translate 0 0 M -823.807 0 N
(0.08) show grestore 10497 13796 M 245 0 R D
gsave 10386 13550 translate 0 0 M -823.807 0 N
(0.10) show grestore 10497 7602 M 122 0 R D 10497 7809 M 122 0 R D
10497 8221 M 122 0 R D 10497 8428 M 122 0 R D 10497 8634 M 122 0 R D
10497 9047 M 122 0 R D 10497 9254 M 122 0 R D 10497 9460 M 122 0 R D
10497 9873 M 122 0 R D 10497 10080 M 122 0 R D 10497 10286 M 122 0 R D
10497 10699 M 122 0 R D 10497 10906 M 122 0 R D 10497 11112 M 122 0 R D
10497 11525 M 122 0 R D 10497 11731 M 122 0 R D 10497 11938 M 122 0 R D
10497 12351 M 122 0 R D 10497 12557 M 122 0 R D 10497 12764 M 122 0 R D
10497 13177 M 122 0 R D 10497 13383 M 122 0 R D 10497 13590 M 122 0 R D
16614 7602 M 0 6194 R D 16614 8015 M -245 0 R D 16614 8841 M -245 0 R D
16614 9667 M -245 0 R D 16614 10493 M -245 0 R D 16614 11318 M -245 0 R D
16614 12144 M -245 0 R D 16614 12970 M -245 0 R D 16614 13796 M -245 0 R D
16614 7602 M -122 0 R D 16614 7809 M -122 0 R D 16614 8221 M -122 0 R D
16614 8428 M -122 0 R D 16614 8634 M -122 0 R D 16614 9047 M -122 0 R D
16614 9254 M -122 0 R D 16614 9460 M -122 0 R D 16614 9873 M -122 0 R D
16614 10080 M -122 0 R D 16614 10286 M -122 0 R D 16614 10699 M -122 0 R D
16614 10906 M -122 0 R D 16614 11112 M -122 0 R D 16614 11525 M -122 0 R D
16614 11731 M -122 0 R D 16614 11938 M -122 0 R D 16614 12351 M -122 0 R D
16614 12557 M -122 0 R D 16614 12764 M -122 0 R D 16614 13177 M -122 0 R D
16614 13383 M -122 0 R D 16614 13590 M -122 0 R D 10497 13794 M 260 -5 R
90 -2 R 86 -3 R 70 -2 R 60 -3 R 57 -3 R 50 -3 R 48 -2 R 47 -3 R 57 -2 R
76 -2 R 108 -3 R 167 -4 R 270 -5 R 100 -3 R 94 -2 R 78 -2 R 65 -3 R 59 -3 R
54 -3 R 47 -3 R 44 -2 R 49 -2 R 62 -2 R 85 -3 R 124 -3 R 194 -4 R 258 -6 R
89 -2 R 84 -2 R 70 -2 R 59 -3 R 56 -3 R 50 -3 R 47 -3 R 46 -2 R 56 -2 R
75 -3 R 107 -2 R 164 -4 R 266 -6 R 99 -2 R 93 -2 R 77 -3 R 65 -2 R 58 -3 R
53 -3 R 46 -3 R 44 -2 R 48 -2 R 62 -2 R 82 -3 R 122 -3 R 191 -4 R 260 -6 R
86 -2 R 83 -2 R 69 -2 R 58 -3 R 55 -3 R 49 -3 R 47 -3 R 45 -2 R 56 -2 R
74 -2 R 105 -3 R 162 -4 R D gsave 1800 4505 translate 0 0 M 90 rotate
-1735.24 0 N
([dj\(t\)/dt]/[dj\(t=0\)/dt]) show grestore 2940 1408 M 6117 0 R D
2940 1408 M 0 248 R D gsave 2940 880 translate 0 0 M -117.687 0 N
(0) show grestore 3812 1408 M 0 248 R D gsave 3812 880 translate 0 0 M
-117.687 0 N
(5) show grestore 4685 1408 M 0 248 R D gsave 4685 880 translate 0 0 M
-235.373 0 N
(10) show grestore 5557 1408 M 0 248 R D gsave 5557 880 translate 0 0 M
-235.373 0 N
(15) show grestore 6430 1408 M 0 248 R D gsave 6430 880 translate 0 0 M
-235.373 0 N
(20) show grestore 7302 1408 M 0 248 R D gsave 7302 880 translate 0 0 M
-235.373 0 N
(25) show grestore 8174 1408 M 0 248 R D gsave 8174 880 translate 0 0 M
-235.373 0 N
(30) show grestore 9047 1408 M 0 248 R D gsave 9047 880 translate 0 0 M
-235.373 0 N
(35) show grestore 3115 1408 M 0 124 R D 3289 1408 M 0 124 R D 3464 1408 M
0 124 R D 3638 1408 M 0 124 R D 3987 1408 M 0 124 R D 4161 1408 M 0 124 R D
4336 1408 M 0 124 R D 4510 1408 M 0 124 R D 4859 1408 M 0 124 R D
5034 1408 M 0 124 R D 5208 1408 M 0 124 R D 5383 1408 M 0 124 R D
5732 1408 M 0 124 R D 5906 1408 M 0 124 R D 6081 1408 M 0 124 R D
6255 1408 M 0 124 R D 6604 1408 M 0 124 R D 6779 1408 M 0 124 R D
6953 1408 M 0 124 R D 7127 1408 M 0 124 R D 7476 1408 M 0 124 R D
7651 1408 M 0 124 R D 7825 1408 M 0 124 R D 8000 1408 M 0 124 R D
8349 1408 M 0 124 R D 8523 1408 M 0 124 R D 8698 1408 M 0 124 R D
8872 1408 M 0 124 R D 2940 7602 M 6117 0 R D 2940 7602 M 0 -248 R D
3812 7602 M 0 -248 R D 4685 7602 M 0 -248 R D 5557 7602 M 0 -248 R D
6430 7602 M 0 -248 R D 7302 7602 M 0 -248 R D 8174 7602 M 0 -248 R D
9047 7602 M 0 -248 R D 3115 7602 M 0 -124 R D 3289 7602 M 0 -124 R D
3464 7602 M 0 -124 R D 3638 7602 M 0 -124 R D 3987 7602 M 0 -124 R D
4161 7602 M 0 -124 R D 4336 7602 M 0 -124 R D 4510 7602 M 0 -124 R D
4859 7602 M 0 -124 R D 5034 7602 M 0 -124 R D 5208 7602 M 0 -124 R D
5383 7602 M 0 -124 R D 5732 7602 M 0 -124 R D 5906 7602 M 0 -124 R D
6081 7602 M 0 -124 R D 6255 7602 M 0 -124 R D 6604 7602 M 0 -124 R D
6779 7602 M 0 -124 R D 6953 7602 M 0 -124 R D 7127 7602 M 0 -124 R D
7476 7602 M 0 -124 R D 7651 7602 M 0 -124 R D 7825 7602 M 0 -124 R D
8000 7602 M 0 -124 R D 8349 7602 M 0 -124 R D 8523 7602 M 0 -124 R D
8698 7602 M 0 -124 R D 8872 7602 M 0 -124 R D 2940 1408 M 0 6194 R D
2940 1590 M 245 0 R D gsave 2829 1449 translate 0 0 M -588.433 0 N
(0.0) show grestore 2940 2501 M 245 0 R D gsave 2829 2360 translate 0 0 M
-588.433 0 N
(0.5) show grestore 2940 3411 M 245 0 R D gsave 2829 3270 translate 0 0 M
-588.433 0 N
(1.0) show grestore 2940 4322 M 245 0 R D gsave 2829 4181 translate 0 0 M
-588.433 0 N
(1.5) show grestore 2940 5232 M 245 0 R D gsave 2829 5091 translate 0 0 M
-588.433 0 N
(2.0) show grestore 2940 6142 M 245 0 R D gsave 2829 6002 translate 0 0 M
-588.433 0 N
(2.5) show grestore 2940 7053 M 245 0 R D gsave 2829 6912 translate 0 0 M
-588.433 0 N
(3.0) show grestore 2940 1408 M 122 0 R D 2940 1772 M 122 0 R D 2940 1954 M
122 0 R D 2940 2136 M 122 0 R D 2940 2319 M 122 0 R D 2940 2683 M 122 0 R D
2940 2865 M 122 0 R D 2940 3047 M 122 0 R D 2940 3229 M 122 0 R D
2940 3593 M 122 0 R D 2940 3775 M 122 0 R D 2940 3957 M 122 0 R D
2940 4139 M 122 0 R D 2940 4504 M 122 0 R D 2940 4686 M 122 0 R D
2940 4868 M 122 0 R D 2940 5050 M 122 0 R D 2940 5414 M 122 0 R D
2940 5596 M 122 0 R D 2940 5778 M 122 0 R D 2940 5960 M 122 0 R D
2940 6325 M 122 0 R D 2940 6507 M 122 0 R D 2940 6689 M 122 0 R D
2940 6871 M 122 0 R D 2940 7235 M 122 0 R D 2940 7417 M 122 0 R D
2940 7599 M 122 0 R D 9057 1408 M 0 6194 R D 9057 1590 M -245 0 R D
9057 2501 M -245 0 R D 9057 3411 M -245 0 R D 9057 4322 M -245 0 R D
9057 5232 M -245 0 R D 9057 6142 M -245 0 R D 9057 7053 M -245 0 R D
9057 1408 M -122 0 R D 9057 1772 M -122 0 R D 9057 1954 M -122 0 R D
9057 2136 M -122 0 R D 9057 2319 M -122 0 R D 9057 2683 M -122 0 R D
9057 2865 M -122 0 R D 9057 3047 M -122 0 R D 9057 3229 M -122 0 R D
9057 3593 M -122 0 R D 9057 3775 M -122 0 R D 9057 3957 M -122 0 R D
9057 4139 M -122 0 R D 9057 4504 M -122 0 R D 9057 4686 M -122 0 R D
9057 4868 M -122 0 R D 9057 5050 M -122 0 R D 9057 5414 M -122 0 R D
9057 5596 M -122 0 R D 9057 5778 M -122 0 R D 9057 5960 M -122 0 R D
9057 6325 M -122 0 R D 9057 6507 M -122 0 R D 9057 6689 M -122 0 R D
9057 6871 M -122 0 R D 9057 7235 M -122 0 R D 9057 7417 M -122 0 R D
9057 7599 M -122 0 R D 2940 3411 M 35 295 R 70 889 R 36 871 R 33 1042 R
30 380 R 25 -485 R 24 -790 R 29 -732 R 37 -539 R 50 -347 R 70 -194 R
70 -68 R 69 26 R 70 240 R 44 478 R 23 552 R 20 929 R 19 1096 R 17 548 R
15 -470 R 14 -947 R 15 -854 R 19 -643 R 26 -423 R 38 -255 R 60 -85 R
45 158 R 15 187 R 17 441 R 14 671 R 12 897 R 11 822 R 10 -14 R 9 -768 R
8 -891 R 10 -751 R 12 -540 R 18 -354 R 27 -204 R 43 -5 R 13 96 R 13 243 R
11 396 R 9 571 R 8 627 R 8 266 R 6 -433 R 6 -773 R 6 -652 R 8 -483 R
11 -326 R 15 -207 R 23 -101 R 24 36 R 11 89 R 10 177 R 7 262 R 7 311 R
6 209 R 6 -154 R 5 -452 R 5 -404 R 6 -309 R 7 -212 R 11 -136 R 15 -77 R
26 -20 R 10 23 R 10 54 R 8 84 R 6 111 R 6 102 R 5 5 R 5 -132 R 5 -180 R
4 -144 R 6 -99 R 8 -62 R 11 -39 R 18 -17 R 25 17 R 8 23 R 8 47 R 7 65 R
5 57 R 6 16 R 4 -55 R 5 -89 R 4 -72 R 5 -50 R 8 -33 R 10 -22 R 16 -11 R
26 7 R 8 11 R 8 25 R 7 36 R 5 40 R 5 22 R 5 -19 R 4 -48 R 5 -42 R 5 -32 R
6 -22 R 10 -15 R 14 -9 R 24 1 R 9 5 R 8 12 R 7 20 R 6 28 R 6 27 R 5 5 R
4 -20 R 4 -29 R 4 -24 R 5 -18 R 7 -15 R 11 -10 R 16 -4 R 27 6 R 7 6 R 7 14 R
6 21 R 5 23 R 5 11 R 4 -10 R 4 -21 R 4 -19 R 6 -17 R 7 -12 R 10 -9 R 16 -4 R
25 4 R 8 5 R 7 10 R 6 16 R 6 20 R 5 16 R 4 -2 R 4 -17 R 4 -17 R 5 -15 R
7 -12 R 9 -8 R 15 -4 R 23 1 R 8 3 R 9 7 R 6 12 R 6 17 R 4 17 R 5 10 R 4 -7 R
4 -16 R 4 -15 R 5 -13 R 8 -10 R 11 -7 R 16 -2 R 21 2 R 8 5 R 8 8 R 6 13 R
5 18 R 5 17 R 4 0 R 4 -13 R 4 -16 R 5 -14 R 7 -10 R 9 -8 R 15 -3 R 24 1 R
8 3 R 7 7 R 7 11 R 5 15 R 5 18 R 5 8 R 4 -8 R 3 -14 R 5 -15 R 5 -12 R 8 -8 R
12 -6 R 18 -2 R 15 2 R 9 5 R 7 7 R 6 12 R 5 17 R 5 16 R 4 3 R 5 -12 R
4 -15 R 4 -13 R 7 -11 R 9 -7 R 14 -4 R 23 1 R 8 2 R 8 6 R 6 10 R 6 15 R
5 18 R 4 10 R 4 -6 R 4 -13 R 4 -15 R 6 -12 R 7 -9 R 11 -6 R 17 -2 R 18 2 R
8 4 R 7 8 R 6 12 R 5 16 R 5 16 R 4 3 R 4 -12 R 4 -14 R 5 -14 R 6 -10 R
10 -7 R 13 -4 R 23 1 R 8 3 R 8 6 R 6 9 R 6 15 R 5 17 R 4 10 R 4 -5 R 3 -14 R
5 -14 R 5 -12 R 7 -9 R 11 -5 R 17 -3 R 18 3 R 8 4 R 7 7 R 6 12 R 5 16 R
4 16 R 5 3 R 4 -12 R 3 -14 R 5 -13 R 6 -10 R 9 -7 R 14 -4 R 22 1 R 8 2 R
8 6 R 6 10 R 6 14 R 5 17 R 4 10 R 4 -5 R 3 -13 R 4 -14 R 6 -12 R 7 -9 R
10 -6 R 17 -2 R 18 3 R 8 4 R 7 7 R 6 12 R 5 16 R 4 16 R 4 2 R 4 -11 R
4 -14 R 5 -13 R 6 -11 R 9 -7 R 13 -3 R 22 0 R 8 3 R 8 6 R 6 9 R 5 15 R
5 17 R 5 10 R 3 -5 R 4 -13 R 4 -14 R 5 -12 R 7 -9 R 10 -6 R 17 -2 R 18 3 R
7 3 R 7 8 R 6 12 R 5 16 R 5 16 R 4 2 R 4 -11 R 3 -14 R 5 -13 R 6 -10 R
9 -7 R 13 -4 R 22 0 R 8 3 R 7 6 R 6 10 R 6 14 R 4 17 R 5 10 R 3 -4 R 4 -13 R
4 -15 R 5 -12 R 7 -9 R 10 -5 R 16 -3 R 18 3 R 8 4 R 7 7 R 5 12 R 5 16 R
5 16 R 4 3 R 3 -11 R 4 -15 R 5 -13 R 6 -10 R 8 -7 R 13 -4 R 22 0 R 8 3 R
7 6 R 6 10 R 5 14 R 5 17 R 4 11 R 4 -5 R 3 -13 R 4 -14 R 5 -13 R 7 -8 R
10 -6 R 16 -3 R 18 3 R 7 4 R 7 7 R 6 12 R 5 16 R 4 16 R 4 3 R 4 -11 R
3 -14 R 5 -14 R 6 -10 R 8 -7 R 13 -4 R 21 0 R 8 3 R 8 6 R 6 10 R 5 14 R
4 18 R 5 10 R 3 -4 R 4 -14 R 3 -14 R 5 -12 R 7 -9 R 10 -6 R 16 -3 R 18 3 R
7 4 R 7 8 R 5 11 R 5 17 R 4 16 R 4 3 R 4 -12 R 3 -14 R 5 -13 R 6 -11 R
8 -7 R 13 -4 R 21 1 R 7 2 R 8 6 R 6 10 R 5 14 R 4 18 R 4 11 R 4 -5 R 3 -13 R
4 -15 R 5 -12 R 7 -9 R 10 -6 R 15 -3 R 18 3 R 7 4 R 7 8 R 5 12 R 5 16 R
4 17 R 4 2 R 4 -11 R 3 -15 R 4 -13 R 6 -11 R 9 -7 R 12 -4 R 21 1 R 7 2 R
7 6 R 6 10 R 5 15 R 5 17 R 4 11 R 3 -4 R 4 -13 R 4 -15 R 4 -13 R 7 -9 R
10 -6 R 15 -2 R 18 2 R 7 4 R 6 8 R 6 12 R 4 17 R 4 16 R 4 3 R 4 -12 R
3 -14 R 5 -14 R 5 -10 R 9 -8 R 12 -4 R 20 1 R 8 3 R 7 6 R 6 9 R 5 15 R
4 18 R 4 11 R 4 -4 R 3 -14 R 4 -15 R 5 -12 R 6 -10 R 10 -6 R 14 -2 R 18 2 R
7 4 R 7 8 R 5 12 R 4 17 R 5 17 R 3 3 R 4 -12 R 3 -15 R 5 -13 R 5 -11 R
8 -8 R 13 -4 R 20 1 R 7 3 R 7 6 R 6 10 R 5 14 R 4 18 R 4 12 R 4 -5 R 3 -13 R
4 -15 R 4 -13 R 7 -9 R 9 -7 R 15 -2 R 17 3 R 7 4 R 7 8 R 5 12 R 4 17 R
4 16 R 4 3 R 4 -11 R 3 -15 R 4 -14 R 6 -11 R 8 -7 R 12 -5 R 20 1 R 7 3 R
7 6 R 6 10 R 5 14 R 4 19 R 4 11 R 3 -4 R 3 -14 R 4 -15 R 5 -12 R 6 -10 R
9 -6 R 15 -3 R 17 3 R 7 4 R 6 8 R 5 12 R 5 17 R 4 17 R 4 3 R 3 -12 R 4 -15 R
4 -14 R 5 -11 R 8 -7 R 12 -4 R 20 0 R 7 3 R 7 6 R 5 10 R 5 15 R 4 18 R
4 12 R 4 -4 R 3 -14 R 3 -15 R 5 -13 R 6 -10 R 9 -6 R 14 -3 R 18 3 R 7 4 R
6 8 R 5 13 R 4 17 R 4 17 R 4 2 R 3 -11 R 4 -15 R 4 -14 R 5 -11 R 8 -8 R
12 -4 R 19 0 R 7 3 R 7 6 R 6 10 R 4 15 R 4 19 R 4 12 R 4 -5 R 3 -14 R
3 -15 R 5 -13 R 6 -9 R 9 -7 R 14 -3 R 17 3 R 7 4 R 6 9 R 5 12 R 4 17 R
4 17 R 4 3 R 3 -12 R 4 -15 R 4 -14 R 5 -11 R 8 -8 R 11 -4 R 19 1 R 7 2 R
7 7 R 6 10 R 4 14 R 4 19 R 4 12 R 3 -4 R 4 -14 R 3 -15 R 4 -13 R 6 -10 R
9 -7 R 14 -3 R 18 3 R 6 5 R 6 8 R 5 13 R 4 17 R 4 17 R 4 3 R 3 -12 R 3 -16 R
4 -14 R 6 -11 R 7 -8 R 12 -4 R 19 1 R 6 3 R 7 6 R 5 10 R 5 15 R 4 19 R
4 12 R 3 -4 R 3 -14 R 4 -16 R 4 -13 R 6 -10 R 9 -6 R 13 -3 R 18 3 R 6 4 R
6 8 R 5 13 R 4 17 R 4 18 R 3 3 R 4 -12 R 3 -16 R 4 -14 R 5 -12 R 7 -7 R
12 -5 R 18 1 R 7 3 R 7 6 R 5 10 R 5 15 R 4 19 R 3 13 R 4 -4 R 3 -14 R
3 -16 R 4 -13 R 6 -10 R 9 -7 R 13 -3 R 18 3 R 6 4 R 6 9 R 4 13 R 4 17 R
4 18 R 4 2 R 3 -12 R 3 -16 R 4 -14 R 5 -11 R 7 -8 R 12 -5 R 18 1 R 7 3 R
6 6 R 6 11 R 4 15 R 4 19 R 4 12 R 3 -4 R 3 -14 R 3 -16 R 4 -13 R 6 -10 R
9 -7 R 13 -3 R 17 3 R 6 4 R 6 9 R 5 13 R 4 18 R 4 17 R 3 3 R 3 -12 R 3 -16 R
4 -15 R 5 -11 R 7 -8 R 11 -4 R 19 0 R 6 3 R 7 7 R 5 10 R 4 15 R 4 19 R
4 13 R 3 -4 R 3 -14 R 3 -16 R 4 -14 R 6 -10 R 8 -7 R 13 -3 R 18 3 R 6 5 R
5 8 R 5 14 R 4 17 R 4 18 R 3 3 R 3 -12 R 3 -16 R 4 -15 R 5 -12 R 7 -8 R
11 -7 R D 10497 1408 M 6117 0 R D 11319 1408 M 0 248 R D
gsave 11319 880 translate 0 0 M -411.903 0 N
(33.0) show grestore 12605 1408 M 0 248 R D gsave 12605 880 translate 0 0 M
-411.903 0 N
(33.5) show grestore 13890 1408 M 0 248 R D gsave 13890 880 translate 0 0 M
-411.903 0 N
(34.0) show grestore 15175 1408 M 0 248 R D gsave 15175 880 translate 0 0 M
-411.903 0 N
(34.5) show grestore 16461 1408 M 0 248 R D gsave 16461 880 translate 0 0 M
-411.903 0 N
(35.0) show grestore 10548 1408 M 0 124 R D 10805 1408 M 0 124 R D
11062 1408 M 0 124 R D 11576 1408 M 0 124 R D 11833 1408 M 0 124 R D
12090 1408 M 0 124 R D 12347 1408 M 0 124 R D 12862 1408 M 0 124 R D
13119 1408 M 0 124 R D 13376 1408 M 0 124 R D 13633 1408 M 0 124 R D
14147 1408 M 0 124 R D 14404 1408 M 0 124 R D 14661 1408 M 0 124 R D
14918 1408 M 0 124 R D 15433 1408 M 0 124 R D 15690 1408 M 0 124 R D
15947 1408 M 0 124 R D 16204 1408 M 0 124 R D 10497 7602 M 6117 0 R D
11319 7602 M 0 -248 R D 12605 7602 M 0 -248 R D 13890 7602 M 0 -248 R D
15175 7602 M 0 -248 R D 16461 7602 M 0 -248 R D 10548 7602 M 0 -124 R D
10805 7602 M 0 -124 R D 11062 7602 M 0 -124 R D 11576 7602 M 0 -124 R D
11833 7602 M 0 -124 R D 12090 7602 M 0 -124 R D 12347 7602 M 0 -124 R D
12862 7602 M 0 -124 R D 13119 7602 M 0 -124 R D 13376 7602 M 0 -124 R D
13633 7602 M 0 -124 R D 14147 7602 M 0 -124 R D 14404 7602 M 0 -124 R D
14661 7602 M 0 -124 R D 14918 7602 M 0 -124 R D 15433 7602 M 0 -124 R D
15690 7602 M 0 -124 R D 15947 7602 M 0 -124 R D 16204 7602 M 0 -124 R D
10497 1408 M 0 6194 R D 10497 1971 M 245 0 R D
gsave 10386 1830 translate 0 0 M -588.433 0 N
(0.0) show grestore 10497 3097 M 245 0 R D gsave 10386 2957 translate 0 0 M
-588.433 0 N
(0.2) show grestore 10497 4224 M 245 0 R D gsave 10386 4083 translate 0 0 M
-588.433 0 N
(0.4) show grestore 10497 5350 M 245 0 R D gsave 10386 5209 translate 0 0 M
-588.433 0 N
(0.6) show grestore 10497 6476 M 245 0 R D gsave 10386 6335 translate 0 0 M
-588.433 0 N
(0.8) show grestore 10497 7602 M 245 0 R D gsave 10386 7356 translate 0 0 M
-588.433 0 N
(1.0) show grestore 10497 1408 M 122 0 R D 10497 1690 M 122 0 R D
10497 2253 M 122 0 R D 10497 2534 M 122 0 R D 10497 2816 M 122 0 R D
10497 3379 M 122 0 R D 10497 3660 M 122 0 R D 10497 3942 M 122 0 R D
10497 4505 M 122 0 R D 10497 4787 M 122 0 R D 10497 5068 M 122 0 R D
10497 5631 M 122 0 R D 10497 5913 M 122 0 R D 10497 6194 M 122 0 R D
10497 6757 M 122 0 R D 10497 7039 M 122 0 R D 10497 7321 M 122 0 R D
16614 1408 M 0 6194 R D 16614 1971 M -245 0 R D 16614 3097 M -245 0 R D
16614 4224 M -245 0 R D 16614 5350 M -245 0 R D 16614 6476 M -245 0 R D
16614 7602 M -245 0 R D 16614 1408 M -122 0 R D 16614 1690 M -122 0 R D
16614 2253 M -122 0 R D 16614 2534 M -122 0 R D 16614 2816 M -122 0 R D
16614 3379 M -122 0 R D 16614 3660 M -122 0 R D 16614 3942 M -122 0 R D
16614 4505 M -122 0 R D 16614 4787 M -122 0 R D 16614 5068 M -122 0 R D
16614 5631 M -122 0 R D 16614 5913 M -122 0 R D 16614 6194 M -122 0 R D
16614 6757 M -122 0 R D 16614 7039 M -122 0 R D 16614 7321 M -122 0 R D
10497 2087 M 260 10 R 90 13 R 86 27 R 70 39 R 60 54 R 57 55 R 50 8 R
48 -37 R 47 -49 R 57 -44 R 76 -35 R 108 -25 R 167 -14 R 270 2 R 100 9 R
94 20 R 78 32 R 65 46 R 59 59 R 54 40 R 47 -13 R 44 -44 R 49 -48 R 62 -42 R
85 -31 R 124 -22 R 194 -9 R 258 10 R 89 13 R 84 27 R 70 40 R 59 54 R 56 55 R
50 9 R 47 -38 R 46 -49 R 56 -45 R 75 -35 R 107 -25 R 164 -14 R 266 2 R
99 9 R 93 20 R 77 31 R 65 47 R 58 60 R 53 40 R 46 -12 R 44 -44 R 48 -49 R
62 -43 R 82 -31 R 122 -22 R 191 -9 R 260 10 R 86 13 R 83 27 R 69 40 R
58 55 R 55 55 R 49 9 R 47 -38 R 45 -49 R 56 -46 R 74 -35 R 105 -25 R
162 -24 R D
%%PageTrailer
end
%%PageResources: font Helvetica
%%Trailer
%%Pages: 1
%%DocumentNeededResources: font Helvetica
%%EOF
