%!PS-Adobe-3.0 EPSF-3.0
%%BoundingBox: 0 0 255 226
%%Title: Graphics produced by IDL
%%For: dacia@Lserver, /home/dacia/work/subhalo_model
%%Creator: IDL Version 7.0 (linux x86_64 m64)
%%CreationDate: Thu Nov 19 16:24:53 2009
%%DocumentData: Clean7bit
%%Requirements: color
%%LanguageLevel: 1
%%PageOrder: Ascend
%%Pages: (atend)
%%DocumentNeededResources: (atend)
%%EndComments
%%BeginProlog
%+ prolog.ps -- Prolog for IDL generated PostScript files
%+ Copyright (c) 1988-2007 ITT Visual Information Solutions. All Rights Reserved.
%v 5
/$IDL_DICT 40 dict def $IDL_DICT begin /bdef { bind def } bind def /C
{currentpoint newpath moveto} bdef /CP {currentpoint} bdef /D {currentpoint
stroke moveto} bdef /F {closepath fill} bdef /K { setgray } bdef /M {moveto}
bdef /N {rmoveto} bdef /P {lineto} bdef /R {rlineto} bdef /S {gsave show
grestore} bdef /X {currentpoint pop} bdef /Z {gsave currentpoint lineto 20
setlinewidth 1 setlinecap stroke grestore} bdef /L0 {[] 0 setdash} bdef /L1
{[40 100] 0 setdash} bdef /L2 {[200 200] 0 setdash} bdef /L3 {[200 100 50
100] 0 setdash} bdef /L4 {[300 100 50 100 50 100 50 100] 0 setdash} bdef /L5
{[400 200] 0 setdash} bdef /STDFONT { findfont exch scalefont setfont } bdef
/ISOFONT { findfont dup length dict begin { 1 index /FID ne {def} {pop pop}
ifelse } forall /Encoding ISOLatin1Encoding def currentdict end /idltmpfont
exch definefont exch scalefont setfont } bdef /ISOBULLET { gsave /Helvetica
findfont exch scalefont setfont (\267) show currentpoint grestore moveto}
bdef /MITERLIMIT { 2.5 setmiterlimit } bdef end
%%EndProlog
%%Page: 0 1
%%PageRequirements: color
%%PageResources: (atend)
%%PageOrientation: Portrait
%%PageBoundingBox: 0 0 255 226
%%BeginPageSetup
$IDL_DICT begin 0.0283465 dup scale MITERLIMIT
%%IncludeResource: font Helvetica
423.333 /Helvetica STDFONT
%%EndPageSetup
40 setlinewidth L0 0.000 0.000 0.000 setrgbcolor 1800 1440 M 7020 0 R D
1800 1440 M 0 253 R D gsave 1800 806 translate 0 0 M 1.2 dup scale
-117.687 0 N
(0) show grestore 2880 1440 M 0 253 R D gsave 2880 806 translate 0 0 M
1.2 dup scale -117.687 0 N
(2) show grestore 3960 1440 M 0 253 R D gsave 3960 806 translate 0 0 M
1.2 dup scale -117.687 0 N
(4) show grestore 5040 1440 M 0 253 R D gsave 5040 806 translate 0 0 M
1.2 dup scale -117.687 0 N
(6) show grestore 6120 1440 M 0 253 R D gsave 6120 806 translate 0 0 M
1.2 dup scale -117.687 0 N
(8) show grestore 7200 1440 M 0 253 R D gsave 7200 806 translate 0 0 M
1.2 dup scale -235.373 0 N
(10) show grestore 8280 1440 M 0 253 R D gsave 8280 806 translate 0 0 M
1.2 dup scale -235.373 0 N
(12) show grestore 2070 1440 M 0 126 R D 2340 1440 M 0 126 R D 2610 1440 M
0 126 R D 3150 1440 M 0 126 R D 3420 1440 M 0 126 R D 3690 1440 M 0 126 R D
4230 1440 M 0 126 R D 4500 1440 M 0 126 R D 4770 1440 M 0 126 R D
5310 1440 M 0 126 R D 5580 1440 M 0 126 R D 5850 1440 M 0 126 R D
6390 1440 M 0 126 R D 6660 1440 M 0 126 R D 6930 1440 M 0 126 R D
7470 1440 M 0 126 R D 7740 1440 M 0 126 R D 8010 1440 M 0 126 R D
8551 1440 M 0 126 R D gsave 5310 257 translate 0 0 M 1.2 dup scale
-576.368 0 N
(t / Gyr) show grestore 1800 7760 M 7020 0 R D 1800 7760 M 0 -253 R D
2880 7760 M 0 -253 R D 3960 7760 M 0 -253 R D 5040 7760 M 0 -253 R D
6120 7760 M 0 -253 R D 7200 7760 M 0 -253 R D 8280 7760 M 0 -253 R D
2070 7760 M 0 -126 R D 2340 7760 M 0 -126 R D 2610 7760 M 0 -126 R D
3150 7760 M 0 -126 R D 3420 7760 M 0 -126 R D 3690 7760 M 0 -126 R D
4230 7760 M 0 -126 R D 4500 7760 M 0 -126 R D 4770 7760 M 0 -126 R D
5310 7760 M 0 -126 R D 5580 7760 M 0 -126 R D 5850 7760 M 0 -126 R D
6390 7760 M 0 -126 R D 6660 7760 M 0 -126 R D 6930 7760 M 0 -126 R D
7470 7760 M 0 -126 R D 7740 7760 M 0 -126 R D 8010 7760 M 0 -126 R D
8551 7760 M 0 -126 R D 1800 1440 M 0 6320 R D 1800 2704 M 281 0 R D
gsave 1667 2535 translate 0 0 M 1.2 dup scale -588.433 0 N
(0.2) show grestore 1800 3968 M 281 0 R D gsave 1667 3799 translate 0 0 M
1.2 dup scale -588.433 0 N
(0.4) show grestore 1800 5232 M 281 0 R D gsave 1667 5063 translate 0 0 M
1.2 dup scale -588.433 0 N
(0.6) show grestore 1800 6496 M 281 0 R D gsave 1667 6327 translate 0 0 M
1.2 dup scale -588.433 0 N
(0.8) show grestore 1800 7760 M 281 0 R D gsave 1667 7464 translate 0 0 M
1.2 dup scale -588.433 0 N
(1.0) show grestore 1800 1756 M 140 0 R D 1800 2072 M 140 0 R D 1800 2388 M
140 0 R D 1800 3020 M 140 0 R D 1800 3336 M 140 0 R D 1800 3652 M 140 0 R D
1800 4284 M 140 0 R D 1800 4600 M 140 0 R D 1800 4916 M 140 0 R D
1800 5548 M 140 0 R D 1800 5864 M 140 0 R D 1800 6180 M 140 0 R D
1800 6812 M 140 0 R D 1800 7128 M 140 0 R D 1800 7444 M 140 0 R D
gsave 561 4600 translate 0 0 M 90 rotate 1.2 dup scale -869.95 0 N
(m\(t\)/m\(0\)) show grestore 8820 1440 M 0 6320 R D 8820 2704 M -281 0 R D
8820 3968 M -281 0 R D 8820 5232 M -281 0 R D 8820 6496 M -281 0 R D
8820 7760 M -281 0 R D 8820 1756 M -140 0 R D 8820 2072 M -140 0 R D
8820 2388 M -140 0 R D 8820 3020 M -140 0 R D 8820 3336 M -140 0 R D
8820 3652 M -140 0 R D 8820 4284 M -140 0 R D 8820 4600 M -140 0 R D
8820 4916 M -140 0 R D 8820 5548 M -140 0 R D 8820 5864 M -140 0 R D
8820 6180 M -140 0 R D 8820 6812 M -140 0 R D 8820 7128 M -140 0 R D
8820 7444 M -140 0 R D 30 setlinewidth 0.000 0.000 1.000 setrgbcolor
1800 7760 M 54 -13 R 108 -32 R 108 -49 R 107 -399 R 56 -442 R 54 -757 R
29 -589 R 43 -870 R 40 -500 R 34 -208 R 50 -137 R 67 -66 R 69 -25 R 81 -19 R
106 -14 R 108 -11 R 108 -9 R 108 -8 R 108 -7 R 108 -6 R 108 -6 R 108 -6 R
108 -6 R 108 -6 R 108 -6 R 108 -7 R 108 -8 R 108 -9 R 108 -11 R 108 -18 R
108 -36 R 80 -60 R 46 -82 R 49 -240 R 41 -293 R 38 -205 R 36 -86 R 43 -39 R
41 -20 R 76 -16 R 96 -11 R 108 -7 R 108 -5 R 109 -3 R 108 -4 R 108 -3 R
108 -3 R 108 -2 R 108 -3 R 108 -3 R 108 -4 R 108 -5 R 108 -6 R 108 -12 R
83 -22 R 43 -27 R 43 -62 R 39 -111 R 20 -62 R 29 -65 R 32 -34 R 40 -19 R
52 -10 R 74 -7 R 108 -5 R 108 -3 R 108 -2 R 108 -2 R 108 -2 R 108 -1 R
108 -2 R 108 -1 R 108 -2 R 108 -2 R 108 -2 R 108 -5 R 108 -9 R 43 -8 R
45 -22 R 39 -46 R 34 -56 R 32 -35 R 32 -16 R 41 -8 R 54 -6 R 79 -3 R 77 -3 R
D 70 setlinewidth 1800 7760 M 54 -13 R 108 -32 R 108 -48 R 108 -396 R
44 -241 R 45 -554 R 36 -675 R 47 -1021 R 42 -624 R 40 -271 R 48 -120 R
43 -60 R 53 -37 R 84 -33 R 98 -20 R 108 -14 R 108 -10 R 108 -8 R 108 -8 R
108 -7 R 108 -7 R 108 -8 R 108 -7 R 108 -9 R 108 -9 R 108 -13 R 108 -22 R
108 -48 R 61 -63 R 43 -102 R 40 -203 R 37 -296 R 32 -222 R 30 -112 R
35 -54 R 44 -29 R 62 -16 R 75 -10 R 108 -8 R 108 -5 R 108 -5 R 108 -3 R
108 -3 R 108 -3 R 108 -4 R 108 -4 R 108 -6 R 108 -9 R 93 -19 R 39 -19 R
37 -41 R 35 -87 R 31 -112 R 29 -76 R 28 -32 R 35 -17 R 45 -10 R 65 -6 R
100 -4 R 108 -3 R 108 -2 R 108 -2 R 108 -2 R 108 -1 R 108 -2 R 108 -3 R
108 -3 R 108 -10 R 35 -7 R 36 -16 R 33 -36 R 30 -54 R 28 -42 R 26 -18 R
31 -10 R 42 -6 R 58 -4 R 91 -3 R 108 -2 R 108 -1 R 108 -1 R 108 -1 R
108 -1 R 108 -2 R 108 -1 R 108 -3 R 65 -5 R 37 -4 R 34 -10 R 32 -22 R
28 -30 R 27 -21 R 26 -10 R 31 -5 R 42 -2 R 14 -1 R D 110 setlinewidth
1800 7760 M 54 -13 R 108 -33 R 108 -47 R 108 -394 R 55 -428 R 39 -530 R
47 -932 R 41 -855 R 39 -505 R 39 -234 R 49 -94 R 46 -34 R 47 -29 R 56 -18 R
70 -16 R 108 -16 R 108 -12 R 108 -10 R 108 -8 R 108 -9 R 108 -8 R 108 -9 R
108 -9 R 108 -13 R 108 -20 R 108 -45 R 63 -59 R 39 -85 R 35 -163 R 34 -284 R
29 -280 R 28 -163 R 28 -72 R 34 -36 R 47 -21 R 68 -13 R 101 -9 R 108 -6 R
108 -4 R 108 -5 R 108 -4 R 108 -4 R 108 -5 R 108 -10 R 78 -16 R 37 -17 R
32 -33 R 29 -71 R 27 -108 R 23 -87 R 23 -43 R 25 -21 R 34 -12 R 46 -7 R
70 -4 R 96 -3 R 108 -3 R 108 -2 R 108 -1 R 108 -3 R 108 -2 R 108 -6 R
40 -5 R 34 -8 R 28 -16 R 28 -35 R 24 -51 R 23 -40 R 21 -18 R 26 -10 R
34 -5 R 48 -4 R 74 -3 R 108 -2 R 108 -2 R 108 -1 R 108 -2 R 108 -2 R
108 -3 R 53 -3 R 33 -4 R 29 -7 R 27 -14 R 25 -22 R 21 -17 R 20 -8 R 23 -2 R
29 -1 R 40 0 R 60 0 R 96 0 R 108 0 R 108 0 R 108 0 R 108 0 R 108 0 R 77 0 R
30 0 R 31 0 R 27 -2 R 25 -8 R 22 -7 R 21 -4 R 22 0 R 27 0 R 37 0 R 54 0 R
86 0 R 13 0 R D 30 setlinewidth 6263 6609 M 66 0 R 67 0 R 66 0 R 67 0 R
66 0 R 67 0 R 66 0 R 66 0 R 67 0 R D 70 setlinewidth 6263 6171 M 66 0 R
67 0 R 66 0 R 67 0 R 66 0 R 67 0 R 66 0 R 66 0 R 67 0 R D 110 setlinewidth
6263 5734 M 66 0 R 67 0 R 66 0 R 67 0 R 66 0 R 67 0 R 66 0 R 66 0 R 67 0 R D
gsave 6927 6464 translate 0 0 M 1.2 dup scale
(3.0) show grestore gsave 6927 6027 translate 0 0 M 1.2 dup scale
(4.0) show grestore gsave 6927 5590 translate 0 0 M 1.2 dup scale
(5.0) show grestore gsave 6263 6882 translate 0 0 M 1.2 dup scale
(ln) show
%%IncludeResource: font Symbol
423.333 /Symbol STDFONT
(L) show
%%IncludeResource: font Helvetica
423.333 /Helvetica STDFONT
(=) show grestore
%%PageTrailer
end
%%PageResources: font Helvetica
%%+ font Symbol
%%Trailer
%%Pages: 1
%%DocumentNeededResources: font Helvetica
%%+ font Symbol
%%EOF
