%!PS-Adobe-3.0 EPSF-3.0
%%BoundingBox: 0 0 453 396
%%Title: Graphics produced by IDL
%%For: jlgan@aida119, /home/jlgan/work/subhalo_model
%%Creator: IDL Version 7.0 (linux x86_64 m64)
%%CreationDate: Wed Apr 29 23:10:29 2009
%%DocumentData: Clean7bit
%%Requirements: color
%%LanguageLevel: 1
%%PageOrder: Ascend
%%Pages: (atend)
%%DocumentNeededResources: (atend)
%%EndComments
%%BeginProlog
%+ prolog.ps -- Prolog for IDL generated PostScript files
%+ Copyright (c) 1988-2007 ITT Visual Information Solutions. All Rights Reserved.
%v 5
/$IDL_DICT 40 dict def $IDL_DICT begin /bdef { bind def } bind def /C
{currentpoint newpath moveto} bdef /CP {currentpoint} bdef /D {currentpoint
stroke moveto} bdef /F {closepath fill} bdef /K { setgray } bdef /M {moveto}
bdef /N {rmoveto} bdef /P {lineto} bdef /R {rlineto} bdef /S {gsave show
grestore} bdef /X {currentpoint pop} bdef /Z {gsave currentpoint lineto 20
setlinewidth 1 setlinecap stroke grestore} bdef /L0 {[] 0 setdash} bdef /L1
{[40 100] 0 setdash} bdef /L2 {[200 200] 0 setdash} bdef /L3 {[200 100 50
100] 0 setdash} bdef /L4 {[300 100 50 100 50 100 50 100] 0 setdash} bdef /L5
{[400 200] 0 setdash} bdef /STDFONT { findfont exch scalefont setfont } bdef
/ISOFONT { findfont dup length dict begin { 1 index /FID ne {def} {pop pop}
ifelse } forall /Encoding ISOLatin1Encoding def currentdict end /idltmpfont
exch definefont exch scalefont setfont } bdef /ISOBULLET { gsave /Helvetica
findfont exch scalefont setfont (\267) show currentpoint grestore moveto}
bdef /MITERLIMIT { 2.5 setmiterlimit } bdef end
%%EndProlog
%%Page: 0 1
%%PageRequirements: color
%%PageResources: (atend)
%%PageOrientation: Portrait
%%PageBoundingBox: 0 0 453 396
%%BeginPageSetup
$IDL_DICT begin 0.0283465 dup scale MITERLIMIT
%%IncludeResource: font Helvetica
423.333 /Helvetica STDFONT
%%EndPageSetup
30 setlinewidth L0 0.000 0.000 0.000 setrgbcolor 8333 1297 M 0 -198 R
12 -35 R 23 -12 R 24 0 R D 8298 1216 M 82 0 R D 8649 1344 M -211 -385 R D
8882 1239 M -11 23 R -24 24 R -23 11 R -47 0 R -23 -11 R -24 -24 R -11 -23 R
-12 -35 R 0 -58 R 12 -36 R 11 -23 R 24 -23 R 23 -12 R 47 0 R 23 12 R 24 23 R
11 23 R 0 36 R -58 0 R D 8941 1216 M 70 -164 R 70 164 R D 9011 1052 M
-24 -58 R -23 -24 R -23 -11 R -12 0 R D 9151 1216 M 0 -164 R D 9151 1146 M
12 35 R 23 23 R 23 12 R 35 0 R D 1536 7165 M -11 -23 R 0 -35 R 11 -24 R
24 -23 R 35 -12 R 35 0 R 35 12 R 11 12 R 12 23 R 0 35 R -12 23 R D
1606 7048 M 0 94 R D 1396 7329 M 23 -24 R 35 -23 R 47 -23 R 59 -12 R 46 0 R
59 12 R 58 23 R 35 23 R 24 24 R D 1443 7422 M 198 0 R 35 12 R 12 23 R 0 24 R
D 1525 7387 M 0 82 R D 1396 7539 M 23 23 R 35 24 R 47 23 R 59 12 R 46 0 R
59 -12 R 58 -23 R 35 -24 R 24 -23 R D 20 setlinewidth 3020 8052 M 4957 0 R D
3471 8052 M 0 182 R D 30 setlinewidth 3494 7769 M -117 -163 R 176 0 R D
3494 7769 M 0 -245 R D 20 setlinewidth 4372 8052 M 0 182 R D 30 setlinewidth
4430 7734 M -11 24 R -35 11 R -24 0 R -35 -11 R -23 -35 R -12 -59 R 0 -58 R
12 -47 R 23 -23 R 35 -12 R 12 0 R 35 12 R 23 23 R 12 35 R 0 12 R -12 35 R
-23 23 R -35 12 R -12 0 R -35 -12 R -23 -23 R -12 -35 R D 20 setlinewidth
5273 8052 M 0 182 R D 30 setlinewidth 5238 7769 M -35 -11 R -12 -24 R
0 -23 R 12 -23 R 24 -12 R 46 -12 R 35 -11 R 24 -24 R 11 -23 R 0 -35 R
-11 -24 R -12 -11 R -35 -12 R -47 0 R -35 12 R -12 11 R -11 24 R 0 35 R
11 23 R 24 24 R 35 11 R 47 12 R 23 12 R 12 23 R 0 23 R -12 24 R -35 11 R
-47 0 R D 20 setlinewidth 6175 8052 M 0 182 R D 30 setlinewidth 5999 7723 M
24 11 R 35 35 R 0 -245 R D 6268 7769 M -35 -11 R -23 -35 R -12 -59 R 0 -35 R
12 -58 R 23 -35 R 35 -12 R 23 0 R 35 12 R 24 35 R 11 58 R 0 35 R -11 59 R
-24 35 R -35 11 R -23 0 R D 20 setlinewidth 7076 8052 M 0 182 R D
30 setlinewidth 6901 7723 M 23 11 R 35 35 R 0 -245 R D 7111 7711 M 0 12 R
12 23 R 11 12 R 24 11 R 46 0 R 24 -11 R 11 -12 R 12 -23 R 0 -24 R -12 -23 R
-23 -35 R -117 -117 R 164 0 R D 20 setlinewidth 7977 8052 M 0 182 R D
30 setlinewidth 7802 7723 M 23 11 R 35 35 R 0 -245 R D 8117 7769 M
-117 -163 R 176 0 R D 8117 7769 M 0 -245 R D 20 setlinewidth 3020 8052 M
0 91 R D 3245 8052 M 0 91 R D 3696 8052 M 0 91 R D 3921 8052 M 0 91 R D
4147 8052 M 0 91 R D 4597 8052 M 0 91 R D 4823 8052 M 0 91 R D 5048 8052 M
0 91 R D 5499 8052 M 0 91 R D 5724 8052 M 0 91 R D 5949 8052 M 0 91 R D
6400 8052 M 0 91 R D 6625 8052 M 0 91 R D 6850 8052 M 0 91 R D 7301 8052 M
0 91 R D 7526 8052 M 0 91 R D 7752 8052 M 0 91 R D 3020 12596 M 4957 0 R D
3471 12596 M 0 -182 R D 4372 12596 M 0 -182 R D 5273 12596 M 0 -182 R D
6175 12596 M 0 -182 R D 7076 12596 M 0 -182 R D 7977 12596 M 0 -182 R D
3020 12596 M 0 -91 R D 3245 12596 M 0 -91 R D 3696 12596 M 0 -91 R D
3921 12596 M 0 -91 R D 4147 12596 M 0 -91 R D 4597 12596 M 0 -91 R D
4823 12596 M 0 -91 R D 5048 12596 M 0 -91 R D 5499 12596 M 0 -91 R D
5724 12596 M 0 -91 R D 5949 12596 M 0 -91 R D 6400 12596 M 0 -91 R D
6625 12596 M 0 -91 R D 6850 12596 M 0 -91 R D 7301 12596 M 0 -91 R D
7526 12596 M 0 -91 R D 7752 12596 M 0 -91 R D 3020 8052 M 0 4544 R D
3020 9363 M 198 0 R D 30 setlinewidth 1619 9468 M -116 0 R -12 -105 R
12 11 R 35 12 R 35 0 R 35 -12 R 23 -23 R 12 -35 R 0 -24 R -12 -35 R
-23 -23 R -35 -12 R -35 0 R -35 12 R -12 12 R -12 23 R D 1736 9246 M
-11 -12 R 11 -12 R 12 12 R -12 12 R D 1900 9468 M -35 -12 R -24 -35 R
-11 -58 R 0 -36 R 11 -58 R 24 -35 R 35 -12 R 23 0 R 35 12 R 24 35 R 11 58 R
0 36 R -11 58 R -24 35 R -35 12 R -23 0 R D 2087 9421 M 163 -164 R D
2250 9421 M -163 -164 R D 2355 9421 M 24 12 R 35 35 R 0 -246 R D 2624 9468 M
-35 -12 R -23 -35 R -12 -58 R 0 -36 R 12 -58 R 23 -35 R 35 -12 R 24 0 R
35 12 R 23 35 R 12 58 R 0 36 R -12 58 R -23 35 R -35 12 R -24 0 R D
2880 9552 M -72 -152 R D 2779 9552 M 101 0 R D 20 setlinewidth 3020 10679 M
198 0 R D 30 setlinewidth 1514 10737 M 24 12 R 35 35 R 0 -246 R D
1736 10562 M -11 -12 R 11 -12 R 12 12 R -12 12 R D 1900 10784 M -35 -12 R
-24 -35 R -11 -58 R 0 -36 R 11 -58 R 24 -35 R 35 -12 R 23 0 R 35 12 R
24 35 R 11 58 R 0 36 R -11 58 R -24 35 R -35 12 R -23 0 R D 2087 10737 M
163 -164 R D 2250 10737 M -163 -164 R D 2355 10737 M 24 12 R 35 35 R
0 -246 R D 2624 10784 M -35 -12 R -23 -35 R -12 -58 R 0 -36 R 12 -58 R
23 -35 R 35 -12 R 24 0 R 35 12 R 23 35 R 12 58 R 0 36 R -12 58 R -23 35 R
-35 12 R -24 0 R D 2815 10868 M -22 -7 R -7 -15 R 0 -14 R 7 -15 R 15 -7 R
29 -7 R 21 -8 R 15 -14 R 7 -14 R 0 -22 R -7 -15 R -7 -7 R -22 -7 R -29 0 R
-22 7 R -7 7 R -7 15 R 0 22 R 7 14 R 15 14 R 21 8 R 29 7 R 15 7 R 7 15 R
0 14 R -7 15 R -22 7 R -29 0 R D 20 setlinewidth 3020 11995 M 198 0 R D
30 setlinewidth 1514 12053 M 24 12 R 35 35 R 0 -246 R D 1736 11878 M
-11 -12 R 11 -12 R 12 12 R -12 12 R D 1970 12100 M -117 0 R -12 -106 R
12 12 R 35 12 R 35 0 R 35 -12 R 24 -23 R 11 -35 R 0 -24 R -11 -35 R
-24 -23 R -35 -12 R -35 0 R -35 12 R -12 12 R -11 23 R D 2087 12053 M
163 -164 R D 2250 12053 M -163 -164 R D 2355 12053 M 24 12 R 35 35 R
0 -246 R D 2624 12100 M -35 -12 R -23 -35 R -12 -59 R 0 -35 R 12 -58 R
23 -35 R 35 -12 R 24 0 R 35 12 R 23 35 R 12 58 R 0 35 R -12 59 R -23 35 R
-35 12 R -24 0 R D 2815 12184 M -22 -7 R -7 -15 R 0 -14 R 7 -15 R 15 -7 R
29 -7 R 21 -8 R 15 -14 R 7 -14 R 0 -22 R -7 -15 R -7 -7 R -22 -7 R -29 0 R
-22 7 R -7 7 R -7 15 R 0 22 R 7 14 R 15 14 R 21 8 R 29 7 R 15 7 R 7 15 R
0 14 R -7 15 R -22 7 R -29 0 R D 20 setlinewidth 3020 8310 M 99 0 R D
3020 8574 M 99 0 R D 3020 8837 M 99 0 R D 3020 9100 M 99 0 R D 3020 9626 M
99 0 R D 3020 9890 M 99 0 R D 3020 10153 M 99 0 R D 3020 10416 M 99 0 R D
3020 10942 M 99 0 R D 3020 11206 M 99 0 R D 3020 11469 M 99 0 R D
3020 11732 M 99 0 R D 3020 12258 M 99 0 R D 3020 12521 M 99 0 R D
7977 8052 M 0 4544 R D 7977 9363 M -198 0 R D 7977 10679 M -198 0 R D
7977 11995 M -198 0 R D 7977 8310 M -99 0 R D 7977 8574 M -99 0 R D
7977 8837 M -99 0 R D 7977 9100 M -99 0 R D 7977 9626 M -99 0 R D
7977 9890 M -99 0 R D 7977 10153 M -99 0 R D 7977 10416 M -99 0 R D
7977 10942 M -99 0 R D 7977 11206 M -99 0 R D 7977 11469 M -99 0 R D
7977 11732 M -99 0 R D 7977 12258 M -99 0 R D 7977 12521 M -99 0 R D
30 setlinewidth 3121 12596 M 26 -18 R 19 -28 R 14 -41 R 9 -59 R 8 -89 R
5 -140 R 4 -226 R 3 -326 R 3 -502 R 3 -585 R 2 -456 R 3 -243 R 2 -154 R
4 -94 R 5 -51 R 9 -23 R 14 -7 R 25 -1 R 49 0 R 93 0 R 130 0 R 101 0 R 11 0 R
39 0 R 12 -3 R 3 -1 R 13 -27 R 3 -20 R 4 -56 R 3 -95 R 3 -154 R 2 -207 R
3 -186 R 2 -100 R 6 -92 R 7 -11 R 8 -1 R 15 0 R 26 0 R 51 0 R 112 0 R
131 0 R 80 0 R 20 0 R 19 0 R 6 0 R 7 0 R 5 0 R 5 -2 R 4 -7 R 3 -21 R 3 -42 R
3 -70 R 3 -78 R 2 -56 R 6 -52 R 6 -7 R 7 -1 R 11 0 R 20 0 R 37 0 R 85 0 R
126 0 R 112 0 R 12 0 R 60 0 R 8 0 R 4 0 R 16 0 R 3 0 R 7 -3 R 3 -9 R 3 -19 R
3 -30 R 2 -30 R 3 -19 R 2 -10 R 3 -5 R 5 -1 R 6 0 R 11 0 R 18 0 R 32 0 R
69 0 R 126 0 R 119 0 R 67 0 R 30 0 R 14 0 R 7 0 R 7 0 R 5 0 R 6 0 R 5 0 R
4 0 R 4 -1 R 3 -6 R 3 -12 R 3 -14 R 2 -9 R 3 -5 R 3 -1 R 4 0 R 6 0 R 10 0 R
16 0 R 30 0 R 59 0 R 122 0 R 144 0 R 79 0 R 29 0 R 15 0 R 7 0 R 5 0 R 8 0 R
5 0 R 5 0 R 4 0 R 3 -1 R 3 -3 R 3 -7 R 3 -6 R 2 -3 R 3 -1 R 4 0 R 5 0 R
8 0 R 12 0 R 23 0 R 42 0 R 103 0 R 137 0 R 115 0 R 32 0 R 27 0 R 14 0 R
7 0 R 6 0 R 5 0 R 6 0 R 4 0 R 4 0 R 4 0 R 3 0 R 3 -3 R 2 -3 R 3 -2 R 2 -2 R
2 0 R 4 0 R 5 0 R 8 0 R 13 0 R 24 0 R 46 0 R 114 0 R 132 0 R 109 0 R 23 0 R
4 0 R 11 0 R 3 0 R 5 0 R 4 0 R 3 0 R 3 0 R 2 -2 R 3 -1 R 2 -1 R 2 0 R 3 0 R
5 0 R 6 0 R 11 0 R 19 0 R 34 0 R 76 0 R 121 0 R 108 0 R 15 0 R 56 0 R 18 0 R
4 0 R 7 0 R 4 0 R 5 0 R 3 0 R 3 0 R 3 -1 R 2 -1 R 3 -1 R 2 0 R 2 0 R 4 0 R
5 0 R 7 0 R 12 0 R 23 0 R 42 0 R 109 0 R 125 0 R D 50 setlinewidth L1
0.000 0.000 0.541 setrgbcolor 3121 12596 M 23 -16 R 20 -27 R 14 -38 R
9 -55 R 8 -83 R 5 -127 R 5 -203 R 3 -299 R 3 -453 R 2 -590 R 3 -519 R
2 -280 R 2 -164 R 4 -103 R 5 -58 R 7 -27 R 13 -10 R 22 -2 R 42 0 R 82 0 R
125 0 R 114 0 R 26 0 R 29 0 R 10 0 R 28 0 R 5 -1 R 11 -7 R 4 -6 R 5 -16 R
4 -30 R 4 -57 R 3 -99 R 3 -160 R 2 -205 R 3 -175 R 2 -94 R 2 -55 R 4 -30 R
5 -13 R 7 -2 R 13 0 R 22 0 R 44 0 R 95 0 R 108 0 R 110 0 R 38 0 R 19 0 R
12 0 R 15 0 R 7 0 R 16 0 R 3 0 R 12 -2 R 3 -3 R 4 -12 R 3 -27 R 3 -50 R
2 -76 R 3 -71 R 2 -45 R 2 -26 R 3 -15 R 4 -6 R 7 -2 R 10 0 R 17 0 R 32 0 R
71 0 R 116 0 R 104 0 R 106 0 R 26 0 R 13 0 R 7 0 R 4 0 R 6 0 R 4 0 R 5 -2 R
3 -5 R 3 -13 R 3 -22 R 2 -30 R 3 -27 R 2 -14 R 3 -8 R 3 -3 R 5 0 R 7 0 R
13 0 R 22 0 R 42 0 R 97 0 R 115 0 R 113 0 R 29 0 R 19 0 R 10 0 R 29 0 R
5 0 R 11 0 R 4 0 R 5 0 R 4 0 R 4 0 R 3 -6 R 3 -10 R 2 -13 R 2 -10 R 3 -5 R
2 -3 R 4 0 R 5 0 R 7 0 R 13 0 R 24 0 R 45 0 R 98 0 R 129 0 R 117 0 R 28 0 R
25 0 R 14 0 R 6 0 R 5 0 R 5 0 R 5 0 R 4 0 R 3 0 R 3 -1 R 3 -5 R 2 -6 R
3 -4 R 2 -3 R 2 0 R 4 0 R 5 0 R 8 0 R 13 0 R 24 0 R 47 0 R 98 0 R 131 0 R
119 0 R 16 0 R 8 0 R 39 0 R 9 0 R 4 0 R 5 0 R 4 0 R 3 0 R 3 0 R 3 -2 R
2 -3 R 3 -3 R 2 -1 R 2 0 R 4 0 R 5 0 R 7 0 R 13 0 R 22 0 R 44 0 R 98 0 R
114 0 R 106 0 R 36 0 R 15 0 R 16 0 R 8 0 R 22 0 R 5 0 R 7 0 R 5 0 R 4 0 R
4 0 R 3 0 R 3 0 R 3 -1 R 2 -2 R 3 -1 R 2 0 R 3 0 R 4 0 R 6 0 R 10 0 R 16 0 R
30 0 R 65 0 R 115 0 R 102 0 R 95 0 R 26 0 R 25 0 R 15 0 R 5 0 R 5 0 R 5 0 R
5 0 R 4 0 R 3 0 R 3 0 R 3 -1 R 2 -1 R 2 0 R 3 0 R 2 0 R 4 0 R 6 0 R 9 0 R
15 0 R 27 0 R 56 0 R 93 0 R D 20 setlinewidth L0
0.000 0.000 0.000 setrgbcolor 9577 8052 M 4957 0 R D 10028 8052 M 0 182 R D
30 setlinewidth 10051 7769 M -117 -163 R 176 0 R D 10051 7769 M 0 -245 R D
20 setlinewidth 10929 8052 M 0 182 R D 30 setlinewidth 10987 7734 M -11 24 R
-35 11 R -24 0 R -35 -11 R -23 -35 R -12 -59 R 0 -58 R 12 -47 R 23 -23 R
35 -12 R 12 0 R 35 12 R 23 23 R 12 35 R 0 12 R -12 35 R -23 23 R -35 12 R
-12 0 R -35 -12 R -23 -23 R -12 -35 R D 20 setlinewidth 11830 8052 M 0 182 R
D 30 setlinewidth 11795 7769 M -35 -11 R -12 -24 R 0 -23 R 12 -23 R 24 -12 R
46 -12 R 35 -11 R 24 -24 R 11 -23 R 0 -35 R -11 -24 R -12 -11 R -35 -12 R
-47 0 R -35 12 R -12 11 R -11 24 R 0 35 R 11 23 R 24 24 R 35 11 R 47 12 R
23 12 R 12 23 R 0 23 R -12 24 R -35 11 R -47 0 R D 20 setlinewidth
12732 8052 M 0 182 R D 30 setlinewidth 12556 7723 M 24 11 R 35 35 R 0 -245 R
D 12825 7769 M -35 -11 R -23 -35 R -12 -59 R 0 -35 R 12 -58 R 23 -35 R
35 -12 R 23 0 R 35 12 R 24 35 R 11 58 R 0 35 R -11 59 R -24 35 R -35 11 R
-23 0 R D 20 setlinewidth 13633 8052 M 0 182 R D 30 setlinewidth
13458 7723 M 23 11 R 35 35 R 0 -245 R D 13668 7711 M 0 12 R 12 23 R 11 12 R
24 11 R 46 0 R 24 -11 R 11 -12 R 12 -23 R 0 -24 R -12 -23 R -23 -35 R
-117 -117 R 164 0 R D 20 setlinewidth 14534 8052 M 0 182 R D 30 setlinewidth
14359 7723 M 23 11 R 35 35 R 0 -245 R D 14674 7769 M -117 -163 R 176 0 R D
14674 7769 M 0 -245 R D 20 setlinewidth 9577 8052 M 0 91 R D 9802 8052 M
0 91 R D 10253 8052 M 0 91 R D 10478 8052 M 0 91 R D 10704 8052 M 0 91 R D
11154 8052 M 0 91 R D 11380 8052 M 0 91 R D 11605 8052 M 0 91 R D
12056 8052 M 0 91 R D 12281 8052 M 0 91 R D 12506 8052 M 0 91 R D
12957 8052 M 0 91 R D 13182 8052 M 0 91 R D 13407 8052 M 0 91 R D
13858 8052 M 0 91 R D 14083 8052 M 0 91 R D 14309 8052 M 0 91 R D
9577 12596 M 4957 0 R D 10028 12596 M 0 -182 R D 10929 12596 M 0 -182 R D
11830 12596 M 0 -182 R D 12732 12596 M 0 -182 R D 13633 12596 M 0 -182 R D
14534 12596 M 0 -182 R D 9577 12596 M 0 -91 R D 9802 12596 M 0 -91 R D
10253 12596 M 0 -91 R D 10478 12596 M 0 -91 R D 10704 12596 M 0 -91 R D
11154 12596 M 0 -91 R D 11380 12596 M 0 -91 R D 11605 12596 M 0 -91 R D
12056 12596 M 0 -91 R D 12281 12596 M 0 -91 R D 12506 12596 M 0 -91 R D
12957 12596 M 0 -91 R D 13182 12596 M 0 -91 R D 13407 12596 M 0 -91 R D
13858 12596 M 0 -91 R D 14083 12596 M 0 -91 R D 14309 12596 M 0 -91 R D
9577 8052 M 0 4544 R D 9577 9425 M 198 0 R D 30 setlinewidth 8176 9530 M
-116 0 R -12 -106 R 12 12 R 35 12 R 35 0 R 35 -12 R 23 -23 R 12 -35 R
0 -24 R -12 -35 R -23 -23 R -35 -12 R -35 0 R -35 12 R -12 12 R -12 23 R D
8293 9308 M -11 -12 R 11 -12 R 12 12 R -12 12 R D 8457 9530 M -35 -12 R
-24 -35 R -11 -59 R 0 -35 R 11 -58 R 24 -35 R 35 -12 R 23 0 R 35 12 R
24 35 R 11 58 R 0 35 R -11 59 R -24 35 R -35 12 R -23 0 R D 8644 9483 M
163 -164 R D 8807 9483 M -163 -164 R D 8912 9483 M 24 12 R 35 35 R 0 -246 R
D 9181 9530 M -35 -12 R -23 -35 R -12 -59 R 0 -35 R 12 -58 R 23 -35 R
35 -12 R 24 0 R 35 12 R 23 35 R 12 58 R 0 35 R -12 59 R -23 35 R -35 12 R
-24 0 R D 9372 9614 M -22 -8 R -7 -14 R 0 -14 R 7 -15 R 15 -7 R 29 -7 R
21 -8 R 15 -14 R 7 -15 R 0 -21 R -7 -15 R -7 -7 R -22 -7 R -29 0 R -22 7 R
-7 7 R -7 15 R 0 21 R 7 15 R 15 14 R 21 8 R 29 7 R 15 7 R 7 15 R 0 14 R
-7 14 R -22 8 R -29 0 R D 20 setlinewidth 9577 10810 M 198 0 R D
30 setlinewidth 8071 10868 M 24 11 R 35 35 R 0 -245 R D 8293 10692 M
-11 -11 R 11 -12 R 12 12 R -12 11 R D 8457 10914 M -35 -11 R -24 -35 R
-11 -59 R 0 -35 R 11 -58 R 24 -35 R 35 -12 R 23 0 R 35 12 R 24 35 R 11 58 R
0 35 R -11 59 R -24 35 R -35 11 R -23 0 R D 8644 10868 M 163 -164 R D
8807 10868 M -163 -164 R D 8912 10868 M 24 11 R 35 35 R 0 -245 R D
9181 10914 M -35 -11 R -23 -35 R -12 -59 R 0 -35 R 12 -58 R 23 -35 R
35 -12 R 24 0 R 35 12 R 23 35 R 12 58 R 0 35 R -12 59 R -23 35 R -35 11 R
-24 0 R D 9430 10948 M -7 -22 R -15 -14 R -21 -7 R -8 0 R -21 7 R -15 14 R
-7 22 R 0 7 R 7 22 R 15 14 R 21 8 R 8 0 R 21 -8 R 15 -14 R 7 -29 R 0 -36 R
-7 -36 R -15 -22 R -21 -7 R -15 0 R -22 7 R -7 14 R D 20 setlinewidth
9577 12195 M 198 0 R D 30 setlinewidth 8071 12253 M 24 11 R 35 35 R 0 -245 R
D 8293 12077 M -11 -11 R 11 -12 R 12 12 R -12 11 R D 8527 12299 M -117 0 R
-12 -105 R 12 12 R 35 12 R 35 0 R 35 -12 R 24 -23 R 11 -35 R 0 -24 R
-11 -35 R -24 -23 R -35 -12 R -35 0 R -35 12 R -12 11 R -11 24 R D
8644 12253 M 163 -164 R D 8807 12253 M -163 -164 R D 8912 12253 M 24 11 R
35 35 R 0 -245 R D 9181 12299 M -35 -11 R -23 -35 R -12 -59 R 0 -35 R
12 -58 R 23 -35 R 35 -12 R 24 0 R 35 12 R 23 35 R 12 58 R 0 35 R -12 59 R
-23 35 R -35 11 R -24 0 R D 9430 12333 M -7 -22 R -15 -14 R -21 -8 R -8 0 R
-21 8 R -15 14 R -7 22 R 0 7 R 7 22 R 15 14 R 21 8 R 8 0 R 21 -8 R 15 -14 R
7 -29 R 0 -36 R -7 -36 R -15 -22 R -21 -7 R -15 0 R -22 7 R -7 14 R D
20 setlinewidth 9577 8317 M 99 0 R D 9577 8594 M 99 0 R D 9577 8871 M 99 0 R
D 9577 9148 M 99 0 R D 9577 9702 M 99 0 R D 9577 9979 M 99 0 R D
9577 10256 M 99 0 R D 9577 10533 M 99 0 R D 9577 11087 M 99 0 R D
9577 11364 M 99 0 R D 9577 11641 M 99 0 R D 9577 11918 M 99 0 R D
9577 12472 M 99 0 R D 14534 8052 M 0 4544 R D 14534 9425 M -198 0 R D
14534 10810 M -198 0 R D 14534 12195 M -198 0 R D 14534 8317 M -99 0 R D
14534 8594 M -99 0 R D 14534 8871 M -99 0 R D 14534 9148 M -99 0 R D
14534 9702 M -99 0 R D 14534 9979 M -99 0 R D 14534 10256 M -99 0 R D
14534 10533 M -99 0 R D 14534 11087 M -99 0 R D 14534 11364 M -99 0 R D
14534 11641 M -99 0 R D 14534 11918 M -99 0 R D 14534 12472 M -99 0 R D
30 setlinewidth 9678 12596 M 36 -63 R 25 -104 R 17 -167 R 12 -255 R
11 -411 R 10 -606 R 9 -548 R 8 -340 R 9 -185 R 11 -100 R 16 -46 R 22 -13 R
37 -1 R 63 0 R 125 0 R 165 0 R 17 0 R 57 0 R 11 0 R 31 -24 R 11 -44 R
12 -106 R 10 -200 R 10 -244 R 8 -183 R 9 -89 R 18 -49 R 18 -2 R 25 0 R
42 0 R 73 0 R 164 0 R 94 0 R 42 0 R 9 0 R 32 0 R 11 0 R 13 -8 R 10 -37 R
9 -87 R 9 -115 R 8 -88 R 7 -42 R 9 -16 R 12 -3 R 17 0 R 26 0 R 43 0 R 77 0 R
140 0 R 24 0 R 24 0 R 22 0 R 10 0 R 32 0 R 8 0 R 11 0 R 9 -2 R 7 -14 R
7 -39 R 6 -57 R 5 -47 R 6 -29 R 6 -14 R 7 -5 R 11 0 R 16 0 R 27 0 R 45 0 R
90 0 R 124 0 R 14 0 R 9 0 R 16 0 R 10 0 R 10 0 R 8 -2 R 7 -10 R 7 -22 R
6 -26 R 5 -18 R 6 -8 R 6 -1 R 9 0 R 13 0 R 20 0 R 34 0 R 62 0 R 120 0 R
36 0 R 26 0 R 14 0 R 11 0 R 12 0 R 12 0 R 10 0 R 8 0 R 8 -1 R 7 -9 R 6 -13 R
5 -10 R 6 -5 R 6 0 R 8 0 R 12 0 R 18 0 R 30 0 R 53 0 R 115 0 R 66 0 R 33 0 R
8 0 R 25 0 R 9 0 R 9 0 R 8 0 R 7 -1 R 7 -6 R 5 -7 R 6 -3 R 5 -1 R 7 0 R
10 0 R 15 0 R 23 0 R 40 0 R 74 0 R 119 0 R 17 0 R 30 0 R 9 0 R 30 0 R 8 0 R
10 0 R 8 0 R 7 0 R 6 -2 R 6 -5 R 5 -2 R 6 0 R 7 0 R 9 0 R 14 0 R 21 0 R
37 0 R 66 0 R 117 0 R 31 0 R 35 0 R 12 0 R 12 0 R 12 0 R 11 0 R 9 0 R 7 0 R
7 0 R 7 -2 R 5 -3 R 6 -1 R 5 0 R 7 0 R 10 0 R 15 0 R 23 0 R 40 0 R 75 0 R
129 0 R 11 0 R 47 0 R 5 0 R 19 0 R 8 0 R 8 0 R 7 0 R 6 0 R 6 -2 R 5 -1 R
6 0 R 6 0 R 10 0 R 14 0 R 22 0 R 38 0 R 69 0 R 116 0 R D 50 setlinewidth L1
0.000 0.000 0.541 setrgbcolor 9678 12596 M 33 -56 R 24 -94 R 18 -151 R
13 -235 R 10 -362 R 10 -571 R 8 -584 R 8 -398 R 8 -211 R 10 -119 R 14 -59 R
19 -22 R 32 -2 R 52 0 R 77 0 R 87 0 R 123 0 R 61 0 R 22 0 R 21 0 R 15 0 R
18 0 R 17 -7 R 14 -22 R 12 -54 R 10 -111 R 10 -202 R 8 -238 R 8 -178 R
8 -88 R 9 -43 R 13 -12 R 17 -1 R 28 0 R 45 0 R 83 0 R 129 0 R 69 0 R 89 0 R
15 0 R 24 0 R 15 0 R 15 0 R 13 -4 R 11 -22 R 9 -65 R 9 -106 R 9 -103 R
8 -51 R 8 -22 R 11 -4 R 16 0 R 23 0 R 39 0 R 67 0 R 127 0 R 70 0 R 71 0 R
15 0 R 63 0 R 9 0 R 19 0 R 12 0 R 11 -5 R 10 -22 R 9 -49 R 8 -51 R 8 -32 R
8 -14 R 9 -4 R 14 0 R 20 0 R 32 0 R 54 0 R 104 0 R 98 0 R 113 0 R 22 0 R
13 0 R 28 0 R 14 0 R 14 0 R 11 -1 R 10 -7 R 9 -20 R 8 -27 R 8 -19 R 8 -7 R
9 -1 R 12 0 R 17 0 R 27 0 R 46 0 R 82 0 R 122 0 R 134 0 R 18 0 R 15 0 R
17 0 R 16 0 R 15 0 R 12 0 R 10 0 R 9 -6 R 9 -14 R 8 -13 R 8 -4 R 8 0 R
12 0 R 15 0 R 25 0 R 39 0 R 70 0 R 124 0 R 135 0 R 16 0 R 47 0 R 11 0 R
17 0 R 13 0 R 12 0 R 10 0 R 9 -3 R 8 -9 R 8 -6 R 8 -1 R 8 0 R 12 0 R 17 0 R
26 0 R 42 0 R 77 0 R 135 0 R 128 0 R 15 0 R 31 0 R 14 0 R 16 0 R 13 0 R
10 0 R 10 0 R 9 -2 R 8 -6 R 8 -2 R 7 0 R 10 0 R 13 0 R 19 0 R 31 0 R 51 0 R
98 0 R 94 0 R 24 0 R D 20 setlinewidth L0 0.000 0.000 0.000 setrgbcolor
3020 2108 M 4957 0 R D 3471 2108 M 0 182 R D 30 setlinewidth 3494 1825 M
-117 -163 R 176 0 R D 3494 1825 M 0 -245 R D 20 setlinewidth 4372 2108 M
0 182 R D 30 setlinewidth 4430 1790 M -11 24 R -35 11 R -24 0 R -35 -11 R
-23 -35 R -12 -59 R 0 -58 R 12 -47 R 23 -23 R 35 -12 R 12 0 R 35 12 R
23 23 R 12 35 R 0 12 R -12 35 R -23 23 R -35 12 R -12 0 R -35 -12 R
-23 -23 R -12 -35 R D 20 setlinewidth 5273 2108 M 0 182 R D 30 setlinewidth
5238 1825 M -35 -11 R -12 -24 R 0 -23 R 12 -23 R 24 -12 R 46 -12 R 35 -11 R
24 -24 R 11 -23 R 0 -35 R -11 -24 R -12 -11 R -35 -12 R -47 0 R -35 12 R
-12 11 R -11 24 R 0 35 R 11 23 R 24 24 R 35 11 R 47 12 R 23 12 R 12 23 R
0 23 R -12 24 R -35 11 R -47 0 R D 20 setlinewidth 6175 2108 M 0 182 R D
30 setlinewidth 5999 1779 M 24 11 R 35 35 R 0 -245 R D 6268 1825 M -35 -11 R
-23 -35 R -12 -59 R 0 -35 R 12 -58 R 23 -35 R 35 -12 R 23 0 R 35 12 R
24 35 R 11 58 R 0 35 R -11 59 R -24 35 R -35 11 R -23 0 R D 20 setlinewidth
7076 2108 M 0 182 R D 30 setlinewidth 6901 1779 M 23 11 R 35 35 R 0 -245 R D
7111 1767 M 0 12 R 12 23 R 11 12 R 24 11 R 46 0 R 24 -11 R 11 -12 R 12 -23 R
0 -24 R -12 -23 R -23 -35 R -117 -117 R 164 0 R D 20 setlinewidth
7977 2108 M 0 182 R D 30 setlinewidth 7802 1779 M 23 11 R 35 35 R 0 -245 R D
8117 1825 M -117 -163 R 176 0 R D 8117 1825 M 0 -245 R D 20 setlinewidth
3020 2108 M 0 91 R D 3245 2108 M 0 91 R D 3696 2108 M 0 91 R D 3921 2108 M
0 91 R D 4147 2108 M 0 91 R D 4597 2108 M 0 91 R D 4823 2108 M 0 91 R D
5048 2108 M 0 91 R D 5499 2108 M 0 91 R D 5724 2108 M 0 91 R D 5949 2108 M
0 91 R D 6400 2108 M 0 91 R D 6625 2108 M 0 91 R D 6850 2108 M 0 91 R D
7301 2108 M 0 91 R D 7526 2108 M 0 91 R D 7752 2108 M 0 91 R D 3020 6652 M
4957 0 R D 3471 6652 M 0 -182 R D 4372 6652 M 0 -182 R D 5273 6652 M
0 -182 R D 6175 6652 M 0 -182 R D 7076 6652 M 0 -182 R D 7977 6652 M
0 -182 R D 3020 6652 M 0 -91 R D 3245 6652 M 0 -91 R D 3696 6652 M 0 -91 R D
3921 6652 M 0 -91 R D 4147 6652 M 0 -91 R D 4597 6652 M 0 -91 R D
4823 6652 M 0 -91 R D 5048 6652 M 0 -91 R D 5499 6652 M 0 -91 R D
5724 6652 M 0 -91 R D 5949 6652 M 0 -91 R D 6400 6652 M 0 -91 R D
6625 6652 M 0 -91 R D 6850 6652 M 0 -91 R D 7301 6652 M 0 -91 R D
7526 6652 M 0 -91 R D 7752 6652 M 0 -91 R D 3020 2108 M 0 4544 R D
3020 2598 M 198 0 R D 30 setlinewidth 1619 2703 M -116 0 R -12 -106 R
12 12 R 35 12 R 35 0 R 35 -12 R 23 -23 R 12 -35 R 0 -24 R -12 -35 R
-23 -23 R -35 -12 R -35 0 R -35 12 R -12 12 R -12 23 R D 1736 2481 M
-11 -12 R 11 -12 R 12 12 R -12 12 R D 1900 2703 M -35 -12 R -24 -35 R
-11 -59 R 0 -35 R 11 -58 R 24 -35 R 35 -12 R 23 0 R 35 12 R 24 35 R 11 58 R
0 35 R -11 59 R -24 35 R -35 12 R -23 0 R D 2087 2656 M 163 -164 R D
2250 2656 M -163 -164 R D 2355 2656 M 24 12 R 35 35 R 0 -246 R D 2624 2703 M
-35 -12 R -23 -35 R -12 -59 R 0 -35 R 12 -58 R 23 -35 R 35 -12 R 24 0 R
35 12 R 23 35 R 12 58 R 0 35 R -12 59 R -23 35 R -35 12 R -24 0 R D
2815 2787 M -22 -7 R -7 -15 R 0 -14 R 7 -15 R 15 -7 R 29 -7 R 21 -8 R
15 -14 R 7 -15 R 0 -21 R -7 -15 R -7 -7 R -22 -7 R -29 0 R -22 7 R -7 7 R
-7 15 R 0 21 R 7 15 R 15 14 R 21 8 R 29 7 R 15 7 R 7 15 R 0 14 R -7 15 R
-22 7 R -29 0 R D 20 setlinewidth 3020 3401 M 198 0 R D 30 setlinewidth
1514 3459 M 24 12 R 35 35 R 0 -246 R D 1736 3284 M -11 -12 R 11 -12 R
12 12 R -12 12 R D 1900 3506 M -35 -12 R -24 -35 R -11 -59 R 0 -35 R
11 -58 R 24 -35 R 35 -12 R 23 0 R 35 12 R 24 35 R 11 58 R 0 35 R -11 59 R
-24 35 R -35 12 R -23 0 R D 2087 3459 M 163 -164 R D 2250 3459 M -163 -164 R
D 2355 3459 M 24 12 R 35 35 R 0 -246 R D 2624 3506 M -35 -12 R -23 -35 R
-12 -59 R 0 -35 R 12 -58 R 23 -35 R 35 -12 R 24 0 R 35 12 R 23 35 R 12 58 R
0 35 R -12 59 R -23 35 R -35 12 R -24 0 R D 2873 3539 M -7 -22 R -15 -14 R
-21 -7 R -8 0 R -21 7 R -15 14 R -7 22 R 0 7 R 7 22 R 15 14 R 21 8 R 8 0 R
21 -8 R 15 -14 R 7 -29 R 0 -36 R -7 -36 R -15 -22 R -21 -7 R -15 0 R -22 7 R
-7 15 R D 20 setlinewidth 3020 4204 M 198 0 R D 30 setlinewidth 1514 4262 M
24 12 R 35 35 R 0 -246 R D 1736 4087 M -11 -12 R 11 -12 R 12 12 R -12 12 R D
1970 4309 M -117 0 R -12 -106 R 12 12 R 35 12 R 35 0 R 35 -12 R 24 -23 R
11 -35 R 0 -24 R -11 -35 R -24 -23 R -35 -12 R -35 0 R -35 12 R -12 12 R
-11 23 R D 2087 4262 M 163 -164 R D 2250 4262 M -163 -164 R D 2355 4262 M
24 12 R 35 35 R 0 -246 R D 2624 4309 M -35 -12 R -23 -35 R -12 -59 R 0 -35 R
12 -58 R 23 -35 R 35 -12 R 24 0 R 35 12 R 23 35 R 12 58 R 0 35 R -12 59 R
-23 35 R -35 12 R -24 0 R D 2873 4342 M -7 -22 R -15 -14 R -21 -7 R -8 0 R
-21 7 R -15 14 R -7 22 R 0 7 R 7 22 R 15 14 R 21 8 R 8 0 R 21 -8 R 15 -14 R
7 -29 R 0 -36 R -7 -36 R -15 -22 R -21 -7 R -15 0 R -22 7 R -7 15 R D
20 setlinewidth 3020 5007 M 198 0 R D 30 setlinewidth 1491 5053 M 0 12 R
12 23 R 11 12 R 24 12 R 46 0 R 24 -12 R 11 -12 R 12 -23 R 0 -24 R -12 -23 R
-23 -35 R -117 -117 R 164 0 R D 1736 4890 M -11 -12 R 11 -12 R 12 12 R
-12 12 R D 1900 5112 M -35 -12 R -24 -35 R -11 -59 R 0 -35 R 11 -58 R
24 -35 R 35 -12 R 23 0 R 35 12 R 24 35 R 11 58 R 0 35 R -11 59 R -24 35 R
-35 12 R -23 0 R D 2087 5065 M 163 -164 R D 2250 5065 M -163 -164 R D
2355 5065 M 24 12 R 35 35 R 0 -246 R D 2624 5112 M -35 -12 R -23 -35 R
-12 -59 R 0 -35 R 12 -58 R 23 -35 R 35 -12 R 24 0 R 35 12 R 23 35 R 12 58 R
0 35 R -12 59 R -23 35 R -35 12 R -24 0 R D 2873 5145 M -7 -22 R -15 -14 R
-21 -7 R -8 0 R -21 7 R -15 14 R -7 22 R 0 7 R 7 22 R 15 14 R 21 8 R 8 0 R
21 -8 R 15 -14 R 7 -29 R 0 -36 R -7 -36 R -15 -22 R -21 -7 R -15 0 R -22 7 R
-7 14 R D 20 setlinewidth 3020 5810 M 198 0 R D 30 setlinewidth 1491 5856 M
0 12 R 12 23 R 11 12 R 24 12 R 46 0 R 24 -12 R 11 -12 R 12 -23 R 0 -24 R
-12 -23 R -23 -35 R -117 -117 R 164 0 R D 1736 5693 M -11 -12 R 11 -12 R
12 12 R -12 12 R D 1970 5915 M -117 0 R -12 -106 R 12 12 R 35 12 R 35 0 R
35 -12 R 24 -23 R 11 -35 R 0 -24 R -11 -35 R -24 -23 R -35 -12 R -35 0 R
-35 12 R -12 12 R -11 23 R D 2087 5868 M 163 -164 R D 2250 5868 M
-163 -164 R D 2355 5868 M 24 11 R 35 36 R 0 -246 R D 2624 5915 M -35 -12 R
-23 -35 R -12 -59 R 0 -35 R 12 -58 R 23 -35 R 35 -12 R 24 0 R 35 12 R
23 35 R 12 58 R 0 35 R -12 59 R -23 35 R -35 12 R -24 0 R D 2873 5948 M
-7 -22 R -15 -14 R -21 -7 R -8 0 R -21 7 R -15 14 R -7 22 R 0 7 R 7 22 R
15 14 R 21 8 R 8 0 R 21 -8 R 15 -14 R 7 -29 R 0 -36 R -7 -36 R -15 -22 R
-21 -7 R -15 0 R -22 7 R -7 14 R D 20 setlinewidth 3020 6613 M 198 0 R D
30 setlinewidth 1503 6651 M 128 0 R -70 -93 R 35 0 R 23 -12 R 12 -12 R
12 -35 R 0 -23 R -12 -35 R -23 -24 R -35 -11 R -35 0 R -35 11 R -12 12 R
-12 23 R D 1736 6429 M -11 -12 R 11 -11 R 12 11 R -12 12 R D 1900 6651 M
-35 -12 R -24 -35 R -11 -58 R 0 -35 R 11 -59 R 24 -35 R 35 -11 R 23 0 R
35 11 R 24 35 R 11 59 R 0 35 R -11 58 R -24 35 R -35 12 R -23 0 R D
2087 6604 M 163 -163 R D 2250 6604 M -163 -163 R D 2355 6604 M 24 12 R
35 35 R 0 -245 R D 2624 6651 M -35 -12 R -23 -35 R -12 -58 R 0 -35 R
12 -59 R 23 -35 R 35 -11 R 24 0 R 35 11 R 23 35 R 12 59 R 0 35 R -12 58 R
-23 35 R -35 12 R -24 0 R D 2873 6685 M -7 -22 R -15 -15 R -21 -7 R -8 0 R
-21 7 R -15 15 R -7 22 R 0 7 R 7 21 R 15 15 R 21 7 R 8 0 R 21 -7 R 15 -15 R
7 -28 R 0 -37 R -7 -36 R -15 -21 R -21 -8 R -15 0 R -22 8 R -7 14 R D
20 setlinewidth 3020 2116 M 99 0 R D 3020 2277 M 99 0 R D 3020 2437 M 99 0 R
D 3020 2759 M 99 0 R D 3020 2919 M 99 0 R D 3020 3080 M 99 0 R D 3020 3240 M
99 0 R D 3020 3562 M 99 0 R D 3020 3722 M 99 0 R D 3020 3883 M 99 0 R D
3020 4043 M 99 0 R D 3020 4365 M 99 0 R D 3020 4525 M 99 0 R D 3020 4686 M
99 0 R D 3020 4846 M 99 0 R D 3020 5168 M 99 0 R D 3020 5328 M 99 0 R D
3020 5489 M 99 0 R D 3020 5649 M 99 0 R D 3020 5971 M 99 0 R D 3020 6131 M
99 0 R D 3020 6292 M 99 0 R D 3020 6452 M 99 0 R D 7977 2108 M 0 4544 R D
7977 2598 M -198 0 R D 7977 3401 M -198 0 R D 7977 4204 M -198 0 R D
7977 5007 M -198 0 R D 7977 5810 M -198 0 R D 7977 6613 M -198 0 R D
7977 2116 M -99 0 R D 7977 2277 M -99 0 R D 7977 2437 M -99 0 R D
7977 2759 M -99 0 R D 7977 2919 M -99 0 R D 7977 3080 M -99 0 R D
7977 3240 M -99 0 R D 7977 3562 M -99 0 R D 7977 3722 M -99 0 R D
7977 3883 M -99 0 R D 7977 4043 M -99 0 R D 7977 4365 M -99 0 R D
7977 4525 M -99 0 R D 7977 4686 M -99 0 R D 7977 4846 M -99 0 R D
7977 5168 M -99 0 R D 7977 5328 M -99 0 R D 7977 5489 M -99 0 R D
7977 5649 M -99 0 R D 7977 5971 M -99 0 R D 7977 6131 M -99 0 R D
7977 6292 M -99 0 R D 7977 6452 M -99 0 R D 30 setlinewidth 3031 6652 M
22 -275 R 28 -112 R 38 -15 R 57 0 R 89 0 R 102 0 R 35 0 R 37 0 R 31 -29 R
26 -137 R 24 -338 R 21 -575 R 19 -490 R 18 -269 R 19 -104 R 24 -14 R 33 0 R
48 0 R 75 0 R 127 0 R 31 0 R 37 0 R 30 0 R 25 -18 R 23 -145 R 22 -298 R
10 -150 R 19 -184 R 19 -48 R 23 -1 R 30 0 R 44 0 R 68 0 R 111 0 R 36 0 R
40 0 R 34 0 R 29 0 R 24 -4 R 22 -95 R 21 -184 R 19 -132 R 18 -32 R 21 -1 R
27 0 R 39 0 R 59 0 R 95 0 R 63 0 R 38 0 R 36 0 R 30 0 R 26 0 R 23 -20 R
21 -109 R 18 -102 R 17 -37 R 19 -1 R 25 0 R 33 0 R 49 0 R 78 0 R 131 0 R
30 0 R 33 0 R 28 0 R 23 0 R 22 -41 R 20 -88 R 19 -53 R 23 -3 R 23 0 R 32 0 R
46 0 R 71 0 R 120 0 R 32 0 R 37 0 R 30 0 R 26 0 R 22 -3 R 21 -50 R 18 -64 R
18 -26 R 18 0 R 23 0 R 31 0 R 46 0 R 72 0 R 120 0 R 31 0 R 35 0 R 29 0 R
25 0 R 22 -3 R 20 -45 R 18 -51 R 16 -19 R 19 -1 R 23 0 R 31 0 R 46 0 R
72 0 R 122 0 R 29 0 R 34 0 R 28 0 R 23 0 R 21 -7 R 20 -44 R 16 -38 R
16 -13 R 18 -1 R 24 0 R 32 0 R 48 0 R 76 0 R 109 0 R 29 0 R 33 0 R 27 0 R
23 0 R 20 -7 R 19 -36 R 16 -26 R 16 -6 R 18 0 R 23 0 R 31 0 R 47 0 R D
50 setlinewidth L1 0.000 0.000 0.541 setrgbcolor 3024 6652 M 3 -73 R
20 -289 R 27 -120 R 35 -17 R 53 0 R 69 0 R 136 0 R 93 0 R 64 0 R 61 -1 R
27 -61 R 25 -203 R 24 -452 R 21 -564 R 20 -397 R 19 -160 R 22 -43 R 30 -1 R
41 0 R 64 0 R 59 0 R 125 0 R 61 0 R 58 0 R 33 0 R 28 -3 R 24 -79 R 23 -249 R
20 -293 R 19 -177 R 18 -51 R 23 -2 R 31 0 R 44 0 R 69 0 R 62 0 R 116 0 R
68 0 R 41 0 R 27 0 R 23 -14 R 23 -121 R 20 -183 R 19 -115 R 18 -26 R 22 0 R
29 0 R 42 0 R 64 0 R 104 0 R 62 0 R 57 0 R 38 0 R 30 0 R 25 0 R 22 -28 R
21 -113 R 18 -100 R 17 -40 R 19 -1 R 25 0 R 33 0 R 49 0 R 66 0 R 100 0 R
83 0 R 43 0 R 28 0 R 24 0 R 22 -21 R 20 -84 R 17 -67 R 17 -22 R 19 0 R
24 0 R 34 0 R 50 0 R 80 0 R 68 0 R 101 0 R 30 0 R 28 0 R 24 0 R 21 -16 R
20 -64 R 17 -50 R 16 -16 R 19 0 R 25 0 R 33 0 R 51 0 R 81 0 R 71 0 R 72 0 R
35 0 R 30 0 R 24 0 R 22 -3 R 20 -42 R 18 -49 R 17 -22 R 18 -1 R 23 0 R
30 0 R 46 0 R 71 0 R 121 0 R 34 0 R 35 0 R 30 0 R 26 0 R 21 -1 R 21 -27 R
18 -42 R 17 -19 R 18 0 R 21 0 R 29 0 R 41 0 R 65 0 R 34 0 R D
20 setlinewidth L0 0.000 0.000 0.000 setrgbcolor 9577 2108 M 4957 0 R D
10028 2108 M 0 182 R D 30 setlinewidth 10051 1825 M -117 -163 R 176 0 R D
10051 1825 M 0 -245 R D 20 setlinewidth 10929 2108 M 0 182 R D
30 setlinewidth 10987 1790 M -11 24 R -35 11 R -24 0 R -35 -11 R -23 -35 R
-12 -59 R 0 -58 R 12 -47 R 23 -23 R 35 -12 R 12 0 R 35 12 R 23 23 R 12 35 R
0 12 R -12 35 R -23 23 R -35 12 R -12 0 R -35 -12 R -23 -23 R -12 -35 R D
20 setlinewidth 11830 2108 M 0 182 R D 30 setlinewidth 11795 1825 M
-35 -11 R -12 -24 R 0 -23 R 12 -23 R 24 -12 R 46 -12 R 35 -11 R 24 -24 R
11 -23 R 0 -35 R -11 -24 R -12 -11 R -35 -12 R -47 0 R -35 12 R -12 11 R
-11 24 R 0 35 R 11 23 R 24 24 R 35 11 R 47 12 R 23 12 R 12 23 R 0 23 R
-12 24 R -35 11 R -47 0 R D 20 setlinewidth 12732 2108 M 0 182 R D
30 setlinewidth 12556 1779 M 24 11 R 35 35 R 0 -245 R D 12825 1825 M
-35 -11 R -23 -35 R -12 -59 R 0 -35 R 12 -58 R 23 -35 R 35 -12 R 23 0 R
35 12 R 24 35 R 11 58 R 0 35 R -11 59 R -24 35 R -35 11 R -23 0 R D
20 setlinewidth 13633 2108 M 0 182 R D 30 setlinewidth 13458 1779 M 23 11 R
35 35 R 0 -245 R D 13668 1767 M 0 12 R 12 23 R 11 12 R 24 11 R 46 0 R
24 -11 R 11 -12 R 12 -23 R 0 -24 R -12 -23 R -23 -35 R -117 -117 R 164 0 R D
20 setlinewidth 14534 2108 M 0 182 R D 30 setlinewidth 14359 1779 M 23 11 R
35 35 R 0 -245 R D 14674 1825 M -117 -163 R 176 0 R D 14674 1825 M 0 -245 R
D 20 setlinewidth 9577 2108 M 0 91 R D 9802 2108 M 0 91 R D 10253 2108 M
0 91 R D 10478 2108 M 0 91 R D 10704 2108 M 0 91 R D 11154 2108 M 0 91 R D
11380 2108 M 0 91 R D 11605 2108 M 0 91 R D 12056 2108 M 0 91 R D
12281 2108 M 0 91 R D 12506 2108 M 0 91 R D 12957 2108 M 0 91 R D
13182 2108 M 0 91 R D 13407 2108 M 0 91 R D 13858 2108 M 0 91 R D
14083 2108 M 0 91 R D 14309 2108 M 0 91 R D 9577 6652 M 4957 0 R D
10028 6652 M 0 -182 R D 10929 6652 M 0 -182 R D 11830 6652 M 0 -182 R D
12732 6652 M 0 -182 R D 13633 6652 M 0 -182 R D 14534 6652 M 0 -182 R D
9577 6652 M 0 -91 R D 9802 6652 M 0 -91 R D 10253 6652 M 0 -91 R D
10478 6652 M 0 -91 R D 10704 6652 M 0 -91 R D 11154 6652 M 0 -91 R D
11380 6652 M 0 -91 R D 11605 6652 M 0 -91 R D 12056 6652 M 0 -91 R D
12281 6652 M 0 -91 R D 12506 6652 M 0 -91 R D 12957 6652 M 0 -91 R D
13182 6652 M 0 -91 R D 13407 6652 M 0 -91 R D 13858 6652 M 0 -91 R D
14083 6652 M 0 -91 R D 14309 6652 M 0 -91 R D 9577 2108 M 0 4544 R D
9577 2930 M 198 0 R D 30 setlinewidth 8398 2977 M 0 11 R 12 24 R 12 11 R
23 12 R 47 0 R 23 -12 R 12 -11 R 12 -24 R 0 -23 R -12 -23 R -23 -35 R
-117 -117 R 163 0 R D 8644 2988 M 163 -163 R D 8807 2988 M -163 -163 R D
8912 2988 M 24 12 R 35 35 R 0 -245 R D 9181 3035 M -35 -12 R -23 -35 R
-12 -58 R 0 -35 R 12 -59 R 23 -35 R 35 -11 R 24 0 R 35 11 R 23 35 R 12 59 R
0 35 R -12 58 R -23 35 R -35 12 R -24 0 R D 9430 3069 M -7 -22 R -15 -15 R
-21 -7 R -8 0 R -21 7 R -15 15 R -7 22 R 0 7 R 7 21 R 15 15 R 21 7 R 8 0 R
21 -7 R 15 -15 R 7 -28 R 0 -37 R -7 -36 R -15 -21 R -21 -8 R -15 0 R -22 8 R
-7 14 R D 20 setlinewidth 9577 3754 M 198 0 R D 30 setlinewidth 8504 3859 M
-117 -164 R 175 0 R D 8504 3859 M 0 -245 R D 8644 3812 M 163 -163 R D
8807 3812 M -163 -163 R D 8912 3812 M 24 12 R 35 35 R 0 -245 R D 9181 3859 M
-35 -12 R -23 -35 R -12 -58 R 0 -35 R 12 -59 R 23 -35 R 35 -11 R 24 0 R
35 11 R 23 35 R 12 59 R 0 35 R -12 58 R -23 35 R -35 12 R -24 0 R D
9430 3892 M -7 -21 R -15 -15 R -21 -7 R -8 0 R -21 7 R -15 15 R -7 21 R
0 8 R 7 21 R 15 15 R 21 7 R 8 0 R 21 -7 R 15 -15 R 7 -29 R 0 -36 R -7 -36 R
-15 -22 R -21 -7 R -15 0 R -22 7 R -7 15 R D 20 setlinewidth 9577 4578 M
198 0 R D 30 setlinewidth 8539 4648 M -12 23 R -35 12 R -24 0 R -35 -12 R
-23 -35 R -12 -58 R 0 -59 R 12 -46 R 23 -24 R 35 -12 R 12 0 R 35 12 R
24 24 R 11 35 R 0 11 R -11 35 R -24 24 R -35 11 R -12 0 R -35 -11 R
-23 -24 R -12 -35 R D 8644 4636 M 163 -163 R D 8807 4636 M -163 -163 R D
8912 4636 M 24 12 R 35 35 R 0 -246 R D 9181 4683 M -35 -12 R -23 -35 R
-12 -58 R 0 -35 R 12 -59 R 23 -35 R 35 -12 R 24 0 R 35 12 R 23 35 R 12 59 R
0 35 R -12 58 R -23 35 R -35 12 R -24 0 R D 9430 4716 M -7 -21 R -15 -15 R
-21 -7 R -8 0 R -21 7 R -15 15 R -7 21 R 0 8 R 7 21 R 15 15 R 21 7 R 8 0 R
21 -7 R 15 -15 R 7 -29 R 0 -36 R -7 -36 R -15 -22 R -21 -7 R -15 0 R -22 7 R
-7 15 R D 20 setlinewidth 9577 5402 M 198 0 R D 30 setlinewidth 8445 5507 M
-35 -12 R -12 -23 R 0 -24 R 12 -23 R 23 -12 R 47 -11 R 35 -12 R 24 -23 R
11 -24 R 0 -35 R -11 -23 R -12 -12 R -35 -12 R -47 0 R -35 12 R -12 12 R
-11 23 R 0 35 R 11 24 R 24 23 R 35 12 R 47 11 R 23 12 R 12 23 R 0 24 R
-12 23 R -35 12 R -47 0 R D 8644 5460 M 163 -164 R D 8807 5460 M -163 -164 R
D 8912 5460 M 24 12 R 35 35 R 0 -246 R D 9181 5507 M -35 -12 R -23 -35 R
-12 -58 R 0 -35 R 12 -59 R 23 -35 R 35 -12 R 24 0 R 35 12 R 23 35 R 12 59 R
0 35 R -12 58 R -23 35 R -35 12 R -24 0 R D 9430 5540 M -7 -21 R -15 -15 R
-21 -7 R -8 0 R -21 7 R -15 15 R -7 21 R 0 7 R 7 22 R 15 15 R 21 7 R 8 0 R
21 -7 R 15 -15 R 7 -29 R 0 -36 R -7 -36 R -15 -22 R -21 -7 R -15 0 R -22 7 R
-7 15 R D 20 setlinewidth 9577 6226 M 198 0 R D 30 setlinewidth 8277 6284 M
23 12 R 36 35 R 0 -246 R D 8499 6284 M 164 -164 R D 8663 6284 M -164 -164 R
D 8768 6284 M 23 12 R 35 35 R 0 -246 R D 9037 6331 M -35 -12 R -24 -35 R
-12 -58 R 0 -36 R 12 -58 R 24 -35 R 35 -12 R 23 0 R 35 12 R 23 35 R 12 58 R
0 36 R -12 58 R -23 35 R -35 12 R -23 0 R D 9213 6386 M 14 7 R 22 22 R
0 -152 R D 9379 6415 M -21 -7 R -15 -22 R -7 -36 R 0 -22 R 7 -36 R 15 -22 R
21 -7 R 15 0 R 21 7 R 15 22 R 7 36 R 0 22 R -7 36 R -15 22 R -21 7 R -15 0 R
D 20 setlinewidth 9577 2313 M 99 0 R D 9577 2519 M 99 0 R D 9577 2725 M
99 0 R D 9577 3136 M 99 0 R D 9577 3342 M 99 0 R D 9577 3548 M 99 0 R D
9577 3960 M 99 0 R D 9577 4166 M 99 0 R D 9577 4372 M 99 0 R D 9577 4784 M
99 0 R D 9577 4990 M 99 0 R D 9577 5196 M 99 0 R D 9577 5608 M 99 0 R D
9577 5814 M 99 0 R D 9577 6020 M 99 0 R D 9577 6432 M 99 0 R D 9577 6638 M
99 0 R D 14534 2108 M 0 4544 R D 14534 2930 M -198 0 R D 14534 3754 M
-198 0 R D 14534 4578 M -198 0 R D 14534 5402 M -198 0 R D 14534 6226 M
-198 0 R D 14534 2313 M -99 0 R D 14534 2519 M -99 0 R D 14534 2725 M
-99 0 R D 14534 3136 M -99 0 R D 14534 3342 M -99 0 R D 14534 3548 M -99 0 R
D 14534 3960 M -99 0 R D 14534 4166 M -99 0 R D 14534 4372 M -99 0 R D
14534 4784 M -99 0 R D 14534 4990 M -99 0 R D 14534 5196 M -99 0 R D
14534 5608 M -99 0 R D 14534 5814 M -99 0 R D 14534 6020 M -99 0 R D
14534 6432 M -99 0 R D 14534 6638 M -99 0 R D 30 setlinewidth 9678 6652 M
43 -91 R 25 -139 R 18 -223 R 13 -318 R 12 -515 R 10 -619 R 11 -482 R
9 -246 R 11 -141 R 15 -74 R 21 -30 R 32 -5 R 53 0 R 98 0 R 147 0 R 13 0 R
23 -1 R 15 -9 R 14 -27 R 12 -56 R 10 -105 R 9 -185 R 8 -238 R 8 -197 R
14 -144 R 13 -31 R 15 -4 R 23 0 R 38 0 R 67 0 R 132 0 R 17 0 R 13 0 R 14 0 R
11 -2 R 10 -15 R 9 -42 R 8 -81 R 7 -98 R 7 -77 R 12 -56 R 12 -9 R 14 0 R
22 0 R 36 0 R 64 0 R 91 0 R 12 0 R 27 0 R 11 0 R 13 0 R 10 -1 R 9 -8 R
8 -23 R 7 -41 R 6 -40 R 6 -27 R 7 -14 R 7 -5 R 10 0 R 15 0 R 24 0 R 40 0 R
74 0 R 38 0 R 28 0 R 7 0 R 25 0 R 9 0 R 10 0 R 7 -6 R 8 -14 R 6 -19 R
6 -16 R 6 -8 R 7 -2 R 8 0 R 12 0 R 19 0 R 30 0 R 53 0 R 104 0 R 15 0 R
11 0 R 11 0 R 10 0 R 8 0 R 7 -4 R 7 -9 R 6 -9 R 5 -5 R 6 -1 R 8 0 R 10 0 R
16 0 R 24 0 R 42 0 R 81 0 R 21 0 R 16 0 R 10 0 R 19 0 R 11 0 R 11 0 R 9 0 R
7 0 R 7 -2 R 7 -6 R 6 -4 R 5 -1 R 7 0 R 8 0 R 12 0 R 18 0 R 30 0 R 53 0 R
103 0 R 12 0 R 9 0 R 10 0 R 9 0 R 7 0 R 6 0 R 6 -2 R 5 -3 R 5 -3 R 4 0 R
6 -1 R 6 0 R 10 0 R 15 0 R 24 0 R 42 0 R 70 0 R 16 0 R 8 0 R 10 0 R 9 0 R
7 0 R 6 0 R 6 0 R 5 -2 R 5 -1 R 5 -1 R 5 0 R 6 0 R 10 0 R 14 0 R 24 0 R
41 0 R 79 0 R 15 0 R 8 0 R 10 0 R 8 0 R 6 0 R 6 0 R 6 0 R 4 -2 R 5 0 R 5 0 R
5 0 R 8 0 R 12 0 R 19 0 R 31 0 R 56 0 R 15 0 R 17 0 R 7 0 R 27 0 R 6 0 R
9 0 R 7 0 R 5 0 R 6 0 R 5 -1 R 4 0 R 5 0 R 5 0 R 8 0 R 11 0 R 16 0 R 28 0 R
50 0 R 28 0 R 26 0 R 9 0 R 10 0 R 9 0 R 8 0 R 7 0 R 6 0 R 5 0 R 4 -1 R 5 0 R
4 0 R 5 0 R 6 0 R 9 0 R 12 0 R 21 0 R 36 0 R 71 0 R 10 0 R 8 0 R 11 0 R
8 0 R 8 0 R 6 0 R 6 0 R 5 0 R 4 -1 R 5 0 R 4 0 R 5 0 R 6 0 R 10 0 R 14 0 R
25 0 R 43 0 R 39 0 R 15 0 R 6 0 R 23 0 R 6 0 R 8 0 R 6 0 R 5 0 R 5 0 R 5 0 R
4 0 R 4 0 R 5 0 R 7 0 R 10 0 R 15 0 R 25 0 R 46 0 R 30 0 R 24 0 R 10 0 R
9 0 R 9 0 R 7 0 R 7 0 R 5 0 R 5 0 R 5 -1 R 4 0 R 4 0 R 5 0 R 6 0 R 9 0 R
13 0 R 22 0 R 38 0 R 66 0 R 14 0 R 7 0 R 9 0 R 8 0 R 6 0 R 5 0 R 5 0 R 5 0 R
4 0 R 4 0 R 5 0 R 6 0 R 9 0 R 13 0 R 22 0 R 38 0 R 65 0 R D 50 setlinewidth
L1 0.000 0.000 0.541 setrgbcolor 9678 6652 M 37 -73 R 25 -121 R 19 -192 R
13 -278 R 12 -441 R 10 -617 R 11 -573 R 9 -310 R 11 -163 R 13 -90 R 18 -41 R
28 -10 R 45 0 R 79 0 R 134 0 R 25 0 R 14 0 R 42 -1 R 11 -5 R 16 -19 R
12 -41 R 10 -79 R 10 -143 R 8 -222 R 8 -216 R 7 -140 R 8 -74 R 9 -37 R
13 -12 R 18 -1 R 29 0 R 49 0 R 97 0 R 71 0 R 14 0 R 24 0 R 12 0 R 14 0 R
11 -4 R 10 -19 R 8 -46 R 8 -83 R 6 -94 R 7 -68 R 6 -36 R 8 -18 R 10 -7 R
14 0 R 23 0 R 37 0 R 68 0 R 114 0 R 17 0 R 11 0 R 13 0 R 11 0 R 9 -4 R
8 -16 R 7 -32 R 7 -41 R 6 -33 R 6 -17 R 6 -8 R 9 -2 R 13 0 R 19 0 R 31 0 R
56 0 R 115 0 R 10 0 R 26 0 R 10 0 R 11 0 R 10 0 R 8 -3 R 7 -11 R 6 -18 R
6 -16 R 6 -9 R 6 -4 R 7 0 R 11 0 R 15 0 R 25 0 R 42 0 R 83 0 R 49 0 R 23 0 R
7 0 R 26 0 R 8 0 R 9 0 R 8 -1 R 7 -5 R 6 -9 R 6 -8 R 6 -3 R 6 -1 R 8 0 R
11 0 R 18 0 R 29 0 R 50 0 R 105 0 R 10 0 R 37 0 R 8 0 R 11 0 R 9 0 R 8 0 R
7 -1 R 6 -4 R 6 -4 R 5 -3 R 6 0 R 7 0 R 10 0 R 15 0 R 24 0 R 39 0 R 78 0 R
55 0 R 24 0 R 7 0 R 22 0 R 9 0 R 9 0 R 7 0 R 7 -1 R 6 -2 R 6 -3 R 5 0 R
6 0 R 8 0 R 11 0 R 17 0 R 28 0 R 49 0 R 101 0 R 10 0 R 41 0 R 7 0 R 12 0 R
9 0 R 7 0 R 7 0 R 7 -2 R 5 -1 R 6 -1 R 5 0 R 8 0 R 10 0 R 15 0 R 25 0 R
42 0 R 86 0 R 37 0 R 15 0 R 10 0 R 17 0 R 11 0 R 10 0 R 9 0 R 7 0 R 7 0 R
6 -1 R 6 -1 R 5 0 R 6 0 R 7 0 R 11 0 R 16 0 R 27 0 R 45 0 R 95 0 R 20 0 R
14 0 R 14 0 R 12 0 R 12 0 R 10 0 R 9 0 R 7 0 R 7 0 R 6 0 R 6 -1 R 5 0 R
6 0 R 8 0 R 11 0 R 16 0 R 27 0 R 47 0 R 97 0 R 15 0 R 17 0 R 10 0 R 16 0 R
11 0 R 10 0 R 8 0 R 7 0 R 7 0 R 6 -1 R 5 0 R 6 0 R 6 0 R 8 0 R 11 0 R 18 0 R
28 0 R 51 0 R 105 0 R 13 0 R 14 0 R 12 0 R 11 0 R 10 0 R 9 0 R 7 0 R 7 0 R
6 0 R 6 -1 R 5 0 R 6 0 R 8 0 R 11 0 R 16 0 R 28 0 R 47 0 R 99 0 R 33 0 R
29 0 R 10 0 R D
%%PageTrailer
end
%%PageResources: font Helvetica
%%Trailer
%%Pages: 1
%%DocumentNeededResources: font Helvetica
%%EOF
