%!PS-Adobe-3.0 EPSF-3.0
%%BoundingBox: 0 0 255 340
%%Title: Graphics produced by IDL
%%For: dacia@Lserver, /home/dacia/work/subhalo_model
%%Creator: IDL Version 7.0 (linux x86_64 m64)
%%CreationDate: Thu Nov 19 16:24:53 2009
%%DocumentData: Clean7bit
%%Requirements: color
%%LanguageLevel: 1
%%PageOrder: Ascend
%%Pages: (atend)
%%DocumentNeededResources: (atend)
%%EndComments
%%BeginProlog
%+ prolog.ps -- Prolog for IDL generated PostScript files
%+ Copyright (c) 1988-2007 ITT Visual Information Solutions. All Rights Reserved.
%v 5
/$IDL_DICT 40 dict def $IDL_DICT begin /bdef { bind def } bind def /C
{currentpoint newpath moveto} bdef /CP {currentpoint} bdef /D {currentpoint
stroke moveto} bdef /F {closepath fill} bdef /K { setgray } bdef /M {moveto}
bdef /N {rmoveto} bdef /P {lineto} bdef /R {rlineto} bdef /S {gsave show
grestore} bdef /X {currentpoint pop} bdef /Z {gsave currentpoint lineto 20
setlinewidth 1 setlinecap stroke grestore} bdef /L0 {[] 0 setdash} bdef /L1
{[40 100] 0 setdash} bdef /L2 {[200 200] 0 setdash} bdef /L3 {[200 100 50
100] 0 setdash} bdef /L4 {[300 100 50 100 50 100 50 100] 0 setdash} bdef /L5
{[400 200] 0 setdash} bdef /STDFONT { findfont exch scalefont setfont } bdef
/ISOFONT { findfont dup length dict begin { 1 index /FID ne {def} {pop pop}
ifelse } forall /Encoding ISOLatin1Encoding def currentdict end /idltmpfont
exch definefont exch scalefont setfont } bdef /ISOBULLET { gsave /Helvetica
findfont exch scalefont setfont (\267) show currentpoint grestore moveto}
bdef /MITERLIMIT { 2.5 setmiterlimit } bdef end
%%EndProlog
%%Page: 0 1
%%PageRequirements: color
%%PageResources: (atend)
%%PageOrientation: Portrait
%%PageBoundingBox: 0 0 255 340
%%BeginPageSetup
$IDL_DICT begin 0.0283465 dup scale MITERLIMIT
%%IncludeResource: font Helvetica
423.333 /Helvetica STDFONT
%%EndPageSetup
0.000 0.000 0.000 setrgbcolor gsave 5265 282 translate 0 0 M 1.2 dup scale
-576.368 0 N
(t / Gyr) show grestore 40 setlinewidth L0 1800 6584 M 6930 0 R D
1800 6584 M 0 207 R D gsave 1800 5950 translate 0 0 M 1.2 dup scale
-58.8433 0 N
( ) show grestore 2866 6584 M 0 207 R D gsave 2866 5950 translate 0 0 M
1.2 dup scale -58.8433 0 N
( ) show grestore 3932 6584 M 0 207 R D gsave 3932 5950 translate 0 0 M
1.2 dup scale -58.8433 0 N
( ) show grestore 4999 6584 M 0 207 R D gsave 4999 5950 translate 0 0 M
1.2 dup scale -58.8433 0 N
( ) show grestore 6065 6584 M 0 207 R D gsave 6065 5950 translate 0 0 M
1.2 dup scale -58.8433 0 N
( ) show grestore 7131 6584 M 0 207 R D gsave 7131 5950 translate 0 0 M
1.2 dup scale -58.8433 0 N
( ) show grestore 8197 6584 M 0 207 R D gsave 8197 5950 translate 0 0 M
1.2 dup scale -58.8433 0 N
( ) show grestore 2067 6584 M 0 104 R D 2333 6584 M 0 104 R D 2600 6584 M
0 104 R D 3133 6584 M 0 104 R D 3399 6584 M 0 104 R D 3666 6584 M 0 104 R D
4199 6584 M 0 104 R D 4466 6584 M 0 104 R D 4732 6584 M 0 104 R D
5265 6584 M 0 104 R D 5532 6584 M 0 104 R D 5798 6584 M 0 104 R D
6332 6584 M 0 104 R D 6598 6584 M 0 104 R D 6865 6584 M 0 104 R D
7398 6584 M 0 104 R D 7664 6584 M 0 104 R D 7931 6584 M 0 104 R D
8464 6584 M 0 104 R D 1800 11760 M 6930 0 R D 1800 11760 M 0 -207 R D
2866 11760 M 0 -207 R D 3932 11760 M 0 -207 R D 4999 11760 M 0 -207 R D
6065 11760 M 0 -207 R D 7131 11760 M 0 -207 R D 8197 11760 M 0 -207 R D
2067 11760 M 0 -103 R D 2333 11760 M 0 -103 R D 2600 11760 M 0 -103 R D
3133 11760 M 0 -103 R D 3399 11760 M 0 -103 R D 3666 11760 M 0 -103 R D
4199 11760 M 0 -103 R D 4466 11760 M 0 -103 R D 4732 11760 M 0 -103 R D
5265 11760 M 0 -103 R D 5532 11760 M 0 -103 R D 5798 11760 M 0 -103 R D
6332 11760 M 0 -103 R D 6598 11760 M 0 -103 R D 6865 11760 M 0 -103 R D
7398 11760 M 0 -103 R D 7664 11760 M 0 -103 R D 7931 11760 M 0 -103 R D
8464 11760 M 0 -103 R D 1800 6584 M 0 5176 R D 1800 7619 M 277 0 R D
gsave 1667 7450 translate 0 0 M 1.2 dup scale -588.433 0 N
(0.2) show grestore 1800 8654 M 277 0 R D gsave 1667 8486 translate 0 0 M
1.2 dup scale -588.433 0 N
(0.4) show grestore 1800 9690 M 277 0 R D gsave 1667 9521 translate 0 0 M
1.2 dup scale -588.433 0 N
(0.6) show grestore 1800 10725 M 277 0 R D gsave 1667 10556 translate 0 0 M
1.2 dup scale -588.433 0 N
(0.8) show grestore 1800 11760 M 277 0 R D gsave 1667 11464 translate 0 0 M
1.2 dup scale -588.433 0 N
(1.0) show grestore 1800 6843 M 139 0 R D 1800 7102 M 139 0 R D 1800 7360 M
139 0 R D 1800 7878 M 139 0 R D 1800 8137 M 139 0 R D 1800 8396 M 139 0 R D
1800 8913 M 139 0 R D 1800 9172 M 139 0 R D 1800 9431 M 139 0 R D
1800 9948 M 139 0 R D 1800 10207 M 139 0 R D 1800 10466 M 139 0 R D
1800 10984 M 139 0 R D 1800 11243 M 139 0 R D 1800 11501 M 139 0 R D
gsave 561 9172 translate 0 0 M 90 rotate 1.2 dup scale -869.95 0 N
(m\(t\)/m\(0\)) show grestore 8730 6584 M 0 5176 R D 8730 7619 M -277 0 R D
8730 8654 M -277 0 R D 8730 9690 M -277 0 R D 8730 10725 M -277 0 R D
8730 11760 M -277 0 R D 8730 6843 M -139 0 R D 8730 7102 M -139 0 R D
8730 7360 M -139 0 R D 8730 7878 M -139 0 R D 8730 8137 M -139 0 R D
8730 8396 M -139 0 R D 8730 8913 M -139 0 R D 8730 9172 M -139 0 R D
8730 9431 M -139 0 R D 8730 9948 M -139 0 R D 8730 10207 M -139 0 R D
8730 10466 M -139 0 R D 8730 10984 M -139 0 R D 8730 11243 M -139 0 R D
8730 11501 M -139 0 R D 30 setlinewidth 0.000 0.000 1.000 setrgbcolor
1800 11760 M 53 -3 R 107 -8 R 107 -11 R 106 -99 R 55 -111 R 50 -211 R
47 -319 R 40 -291 R 38 -189 R 43 -98 R 41 -54 R 63 -50 R 100 -25 R 107 -8 R
107 -6 R 106 -5 R 107 -5 R 107 -3 R 106 -4 R 107 -4 R 106 -3 R 107 -5 R
107 -4 R 106 -7 R 107 -14 R 107 -50 R 34 -48 R 36 -90 R 32 -160 R 29 -237 R
28 -234 R 26 -135 R 28 -79 R 37 -50 R 50 -29 R 60 -19 R 91 -15 R 107 -8 R
106 -9 R 107 -8 R 106 -8 R 107 -30 R 26 -17 R 28 -25 R 32 -76 R 19 -101 R
18 -161 R 18 -174 R 16 -106 R 17 -59 R 21 -37 R 30 -21 R 33 -9 R 45 -10 R
71 -10 R 107 -14 R 74 -16 R 10 -4 R 33 -20 R 14 -18 R 14 -31 R 12 -51 R
10 -88 R 10 -115 R 10 -97 R 8 -55 R 10 -35 R 14 -22 R 19 -15 R 29 -10 R
49 -9 R 58 -10 R 11 -2 R 17 -5 R 12 -6 R 10 -7 R 9 -11 R 7 -16 R 6 -25 R
6 -42 R 5 -65 R 5 -77 R 5 -51 R 5 -27 R 5 -18 R 9 -11 R 12 -8 R 20 -6 R
36 -7 R 12 -4 R 4 -1 R 8 -5 R 4 -4 R 2 -4 R 3 -8 R 2 -9 R 2 -14 R 1 -20 R
1 -31 R 2 -42 R 0 -19 R 1 -10 R D 70 setlinewidth 1800 11760 M 53 -10 R
107 -27 R 107 -40 R 105 -327 R 55 -362 R 53 -605 R 47 -811 R 40 -584 R
38 -305 R 36 -137 R 55 -91 R 73 -46 R 80 -23 R 106 -15 R 107 -10 R 107 -8 R
106 -6 R 107 -6 R 106 -6 R 107 -5 R 107 -5 R 106 -6 R 107 -6 R 107 -6 R
106 -7 R 107 -8 R 106 -10 R 107 -19 R 107 -52 R 49 -57 R 45 -113 R 41 -210 R
37 -226 R 34 -139 R 35 -60 R 42 -31 R 56 -17 R 81 -12 R 107 -8 R 107 -4 R
106 -4 R 107 -3 R 106 -3 R 107 -3 R 107 -3 R 106 -2 R 107 -4 R 107 -5 R
106 -8 R 90 -15 R 40 -18 R 38 -38 R 35 -80 R 32 -91 R 30 -57 R 29 -25 R
37 -13 R 49 -7 R 71 -5 R 94 -3 R 106 -3 R 107 -1 R 107 -2 R 106 -2 R
107 -1 R 107 -2 R 106 -2 R 107 -3 R 106 -7 R 37 -6 R 37 -12 R 34 -28 R
30 -45 R 26 -37 R 25 -19 R 29 -10 R 38 -5 R 53 -4 R 80 -2 R 106 -2 R
107 -2 R 106 -1 R 107 -1 R 107 -1 R 106 -1 R 107 -1 R 107 -2 R 36 -3 R D
110 setlinewidth 1800 11760 M 53 -30 R 107 -75 R 81 -149 R 58 -297 R
29 -169 R 19 -114 R 22 -160 R 21 -251 R 56 -924 R 17 -350 R 52 -1155 R
42 -599 R 40 -221 R 32 -69 R 51 -47 R 68 -26 R 98 -15 R 107 -10 R 106 -6 R
107 -5 R 107 -4 R 100 0 R 107 -3 R 106 -2 R 107 -3 R 107 -2 R 106 -3 R
107 -2 R 107 -2 R 106 -3 R 107 -2 R 106 -3 R 107 -3 R 107 -3 R 106 -4 R
107 -5 R 107 -6 R 106 -10 R 107 -20 R 59 -25 R 48 -45 R 46 -86 R 40 -81 R
38 -44 R 40 -20 R 50 -12 R 68 -8 R 99 -5 R 107 -4 R 106 -2 R 107 -2 R
106 -2 R 107 -1 R 107 -2 R 106 -1 R 107 -1 R 107 -1 R 106 -1 R 107 -1 R
106 -1 R 107 -1 R 107 -1 R 106 -1 R 107 -1 R 107 -2 R 106 -1 R 107 -2 R
94 -4 R 47 -5 R 48 -9 R 42 -12 R 36 -4 R 36 0 R 42 0 R 55 0 R 76 0 R 107 0 R
107 0 R 106 0 R 107 0 R 106 0 R 107 0 R 107 0 R 7 0 R D 40 setlinewidth
0.000 0.000 0.000 setrgbcolor 1800 1408 M 6930 0 R D 1800 1408 M 0 207 R D
gsave 1800 774 translate 0 0 M 1.2 dup scale -117.687 0 N
(0) show grestore 2866 1408 M 0 207 R D gsave 2866 774 translate 0 0 M
1.2 dup scale -117.687 0 N
(2) show grestore 3932 1408 M 0 207 R D gsave 3932 774 translate 0 0 M
1.2 dup scale -117.687 0 N
(4) show grestore 4999 1408 M 0 207 R D gsave 4999 774 translate 0 0 M
1.2 dup scale -117.687 0 N
(6) show grestore 6065 1408 M 0 207 R D gsave 6065 774 translate 0 0 M
1.2 dup scale -117.687 0 N
(8) show grestore 7131 1408 M 0 207 R D gsave 7131 774 translate 0 0 M
1.2 dup scale -235.373 0 N
(10) show grestore 8197 1408 M 0 207 R D gsave 8197 774 translate 0 0 M
1.2 dup scale -235.373 0 N
(12) show grestore 2067 1408 M 0 104 R D 2333 1408 M 0 104 R D 2600 1408 M
0 104 R D 3133 1408 M 0 104 R D 3399 1408 M 0 104 R D 3666 1408 M 0 104 R D
4199 1408 M 0 104 R D 4466 1408 M 0 104 R D 4732 1408 M 0 104 R D
5265 1408 M 0 104 R D 5532 1408 M 0 104 R D 5798 1408 M 0 104 R D
6332 1408 M 0 104 R D 6598 1408 M 0 104 R D 6865 1408 M 0 104 R D
7398 1408 M 0 104 R D 7664 1408 M 0 104 R D 7931 1408 M 0 104 R D
8464 1408 M 0 104 R D 1800 6584 M 6930 0 R D 1800 6584 M 0 -207 R D
2866 6584 M 0 -207 R D 3932 6584 M 0 -207 R D 4999 6584 M 0 -207 R D
6065 6584 M 0 -207 R D 7131 6584 M 0 -207 R D 8197 6584 M 0 -207 R D
2067 6584 M 0 -103 R D 2333 6584 M 0 -103 R D 2600 6584 M 0 -103 R D
3133 6584 M 0 -103 R D 3399 6584 M 0 -103 R D 3666 6584 M 0 -103 R D
4199 6584 M 0 -103 R D 4466 6584 M 0 -103 R D 4732 6584 M 0 -103 R D
5265 6584 M 0 -103 R D 5532 6584 M 0 -103 R D 5798 6584 M 0 -103 R D
6332 6584 M 0 -103 R D 6598 6584 M 0 -103 R D 6865 6584 M 0 -103 R D
7398 6584 M 0 -103 R D 7664 6584 M 0 -103 R D 7931 6584 M 0 -103 R D
8464 6584 M 0 -103 R D 1800 1408 M 0 5176 R D 1800 2122 M 277 0 R D
gsave 1667 1953 translate 0 0 M 1.2 dup scale -588.433 0 N
(0.2) show grestore 1800 2836 M 277 0 R D gsave 1667 2667 translate 0 0 M
1.2 dup scale -588.433 0 N
(0.4) show grestore 1800 3550 M 277 0 R D gsave 1667 3381 translate 0 0 M
1.2 dup scale -588.433 0 N
(0.6) show grestore 1800 4264 M 277 0 R D gsave 1667 4095 translate 0 0 M
1.2 dup scale -588.433 0 N
(0.8) show grestore 1800 4978 M 277 0 R D gsave 1667 4809 translate 0 0 M
1.2 dup scale -588.433 0 N
(1.0) show grestore 1800 5692 M 277 0 R D gsave 1667 5523 translate 0 0 M
1.2 dup scale -588.433 0 N
(1.2) show grestore 1800 6406 M 277 0 R D gsave 1667 6237 translate 0 0 M
1.2 dup scale -588.433 0 N
(1.4) show grestore 1800 1586 M 139 0 R D 1800 1765 M 139 0 R D 1800 1943 M
139 0 R D 1800 2300 M 139 0 R D 1800 2479 M 139 0 R D 1800 2657 M 139 0 R D
1800 3014 M 139 0 R D 1800 3193 M 139 0 R D 1800 3371 M 139 0 R D
1800 3728 M 139 0 R D 1800 3907 M 139 0 R D 1800 4085 M 139 0 R D
1800 4442 M 139 0 R D 1800 4621 M 139 0 R D 1800 4799 M 139 0 R D
1800 5156 M 139 0 R D 1800 5335 M 139 0 R D 1800 5513 M 139 0 R D
1800 5870 M 139 0 R D 1800 6049 M 139 0 R D 1800 6227 M 139 0 R D
1800 6584 M 139 0 R D gsave 561 3996 translate 0 0 M 90 rotate 1.2 dup scale
-620.416 0 N
(r\(t\)/R) show X -101.051 M
%%IncludeResource: font Helvetica
262.467 /Helvetica STDFONT
(vir) show grestore
%%IncludeResource: font Helvetica
423.333 /Helvetica STDFONT 8730 1408 M 0 5176 R D 8730 2122 M -277 0 R D
8730 2836 M -277 0 R D 8730 3550 M -277 0 R D 8730 4264 M -277 0 R D
8730 4978 M -277 0 R D 8730 5692 M -277 0 R D 8730 6406 M -277 0 R D
8730 1586 M -139 0 R D 8730 1765 M -139 0 R D 8730 1943 M -139 0 R D
8730 2300 M -139 0 R D 8730 2479 M -139 0 R D 8730 2657 M -139 0 R D
8730 3014 M -139 0 R D 8730 3193 M -139 0 R D 8730 3371 M -139 0 R D
8730 3728 M -139 0 R D 8730 3907 M -139 0 R D 8730 4085 M -139 0 R D
8730 4442 M -139 0 R D 8730 4621 M -139 0 R D 8730 4799 M -139 0 R D
8730 5156 M -139 0 R D 8730 5335 M -139 0 R D 8730 5513 M -139 0 R D
8730 5870 M -139 0 R D 8730 6049 M -139 0 R D 8730 6227 M -139 0 R D
8730 6584 M -139 0 R D 30 setlinewidth 0.000 0.000 1.000 setrgbcolor
1800 4978 M 14 -61 R 14 -62 R 14 -63 R 14 -64 R 14 -65 R 13 -67 R 14 -67 R
14 -68 R 14 -70 R 14 -70 R 14 -71 R 14 -73 R 14 -75 R 14 -76 R 14 -77 R
14 -78 R 13 -79 R 14 -80 R 14 -81 R 14 -84 R 14 -84 R 14 -86 R 14 -87 R
14 -87 R 14 -88 R 14 -89 R 14 -89 R 13 -90 R 14 -89 R 14 -89 R 14 -87 R
14 -84 R 14 -79 R 14 -72 R 14 -64 R 14 -51 R 14 -37 R 14 -19 R 13 1 R
14 18 R 14 34 R 14 48 R 14 59 R 14 66 R 14 71 R 14 74 R 14 76 R 14 77 R
14 78 R 14 76 R 13 76 R 14 75 R 14 74 R 14 72 R 14 70 R 14 68 R 14 68 R
14 65 R 14 65 R 14 63 R 14 61 R 13 59 R 14 57 R 14 55 R 14 54 R 14 53 R
14 52 R 14 50 R 14 48 R 14 46 R 14 44 R 14 43 R 13 42 R 14 41 R 14 39 R
14 38 R 14 37 R 14 34 R 14 33 R 14 32 R 14 30 R 14 30 R 14 28 R 13 27 R
14 26 R 14 23 R 14 23 R 14 21 R 14 20 R 14 20 R 14 18 R 14 16 R 14 15 R
14 14 R 13 12 R 14 11 R 14 11 R 14 9 R 14 8 R 14 7 R 14 5 R 14 3 R 14 3 R
14 2 R 14 0 R 13 0 R 14 -2 R 14 -3 R 14 -5 R 14 -6 R 14 -7 R 14 -8 R 14 -9 R
14 -11 R 14 -12 R 14 -13 R 13 -15 R 14 -16 R 14 -17 R 14 -18 R 14 -19 R
14 -21 R 14 -22 R 14 -24 R 14 -25 R 14 -27 R 14 -27 R 13 -29 R 14 -30 R
14 -31 R 14 -34 R 14 -35 R 14 -36 R 14 -38 R 14 -39 R 14 -40 R 14 -42 R
14 -43 R 14 -46 R 13 -47 R 14 -49 R 14 -51 R 14 -52 R 14 -53 R 14 -55 R
14 -57 R 14 -60 R 14 -62 R 14 -63 R 14 -65 R 13 -67 R 14 -69 R 14 -71 R
14 -74 R 14 -77 R 14 -79 R 14 -81 R 14 -82 R 14 -84 R 14 -86 R 14 -88 R
13 -91 R 14 -92 R 14 -94 R 14 -92 R 14 -91 R 14 -85 R 14 -76 R 14 -60 R
14 -37 R 14 -6 R 14 22 R 13 46 R 14 63 R 14 72 R 14 76 R 14 78 R 14 77 R
14 76 R 14 73 R 14 71 R 14 68 R 14 65 R 13 62 R 14 59 R 14 55 R 14 53 R
14 49 R 14 46 R 14 43 R 14 41 R 14 39 R 14 36 R 14 32 R 13 28 R 14 27 R
14 24 R 14 21 R 14 20 R 14 17 R 14 15 R 14 10 R 14 8 R 14 6 R 14 3 R 13 1 R
14 0 R 14 -4 R 14 -7 R 14 -10 R 14 -13 R 14 -15 R 14 -17 R 14 -19 R 14 -22 R
14 -25 R 13 -28 R 14 -32 R 14 -35 R 14 -37 R 14 -40 R 14 -42 R 14 -45 R
14 -49 R 14 -54 R 14 -57 R 14 -61 R 13 -63 R 14 -67 R 14 -69 R 14 -73 R
14 -78 R 14 -83 R 14 -88 R 14 -90 R 14 -94 R 14 -96 R 14 -94 R 14 -87 R
13 -64 R 14 -23 R 14 26 R 14 60 R 14 74 R 14 77 R 14 75 R 14 72 R 14 66 R
14 61 R 14 55 R 13 49 R 14 44 R 14 38 R 14 33 R 14 28 R 14 22 R 14 18 R
14 12 R 14 6 R 14 -1 R 14 -5 R 13 -9 R 14 -13 R 14 -18 R 14 -22 R 14 -28 R
14 -35 R 14 -42 R 14 -48 R 14 -53 R 14 -59 R 14 -66 R 13 -74 R 14 -81 R
14 -88 R 14 -95 R 14 -97 R 14 -86 R 14 -33 R 14 43 R 14 73 R 14 72 R 14 64 R
13 55 R 14 44 R 14 34 R 14 23 R 14 15 R 14 4 R 14 -6 R 14 -15 R 14 -25 R
14 -35 R 14 -47 R 13 -59 R 14 -70 R 14 -84 R 14 -94 R 14 -79 R 14 28 R
14 61 R 14 45 R 14 27 R 14 8 R 14 -10 R 13 -29 R 14 -49 R 14 -71 R D
70 setlinewidth 1800 4978 M 10 -44 R 10 -45 R 10 -45 R 10 -45 R 10 -46 R
11 -47 R 10 -48 R 10 -48 R 10 -48 R 10 -49 R 10 -50 R 10 -50 R 10 -51 R
10 -51 R 10 -52 R 10 -53 R 10 -53 R 11 -55 R 10 -54 R 10 -56 R 10 -56 R
10 -56 R 10 -58 R 10 -57 R 10 -59 R 10 -59 R 10 -60 R 10 -61 R 11 -62 R
10 -62 R 10 -62 R 10 -63 R 10 -64 R 10 -64 R 10 -64 R 10 -64 R 10 -65 R
10 -65 R 10 -65 R 10 -65 R 11 -64 R 10 -64 R 10 -62 R 10 -61 R 10 -58 R
10 -56 R 10 -51 R 10 -46 R 10 -40 R 10 -33 R 10 -25 R 11 -16 R 10 -5 R
10 5 R 10 15 R 10 23 R 10 31 R 10 38 R 10 44 R 10 48 R 10 51 R 10 54 R
11 56 R 10 56 R 10 58 R 10 58 R 10 58 R 10 59 R 10 58 R 10 58 R 10 57 R
10 56 R 10 56 R 10 56 R 11 55 R 10 54 R 10 53 R 10 52 R 10 52 R 10 51 R
10 50 R 10 49 R 10 48 R 10 48 R 10 46 R 11 46 R 10 45 R 10 44 R 10 44 R
10 42 R 10 42 R 10 42 R 10 40 R 10 40 R 10 39 R 10 38 R 10 37 R 11 37 R
10 36 R 10 35 R 10 35 R 10 33 R 10 34 R 10 32 R 10 32 R 10 31 R 10 30 R
10 30 R 11 29 R 10 28 R 10 28 R 10 27 R 10 27 R 10 26 R 10 25 R 10 25 R
10 24 R 10 23 R 10 23 R 10 22 R 11 21 R 10 21 R 10 21 R 10 19 R 10 20 R
10 18 R 10 18 R 10 18 R 10 16 R 10 17 R 10 15 R 11 16 R 10 14 R 10 14 R
10 14 R 10 13 R 10 13 R 10 11 R 10 12 R 10 11 R 10 10 R 10 10 R 11 9 R
10 9 R 10 8 R 10 8 R 10 7 R 10 7 R 10 6 R 10 6 R 10 5 R 10 5 R 10 4 R 10 4 R
11 3 R 10 3 R 10 2 R 10 2 R 10 1 R 10 0 R 10 1 R 10 -1 R 10 -1 R 10 -1 R
10 -2 R 11 -2 R 10 -3 R 10 -3 R 10 -3 R 10 -5 R 10 -5 R 10 -5 R 10 -6 R
10 -6 R 10 -7 R 10 -7 R 10 -8 R 11 -8 R 10 -9 R 10 -9 R 10 -10 R 10 -11 R
10 -11 R 10 -12 R 10 -12 R 10 -12 R 10 -13 R 10 -14 R 11 -14 R 10 -14 R
10 -16 R 10 -15 R 10 -17 R 10 -17 R 10 -18 R 10 -18 R 10 -18 R 10 -19 R
10 -20 R 10 -20 R 11 -21 R 10 -22 R 10 -22 R 10 -23 R 10 -24 R 10 -24 R
10 -25 R 10 -25 R 10 -26 R 10 -26 R 10 -27 R 11 -28 R 10 -29 R 10 -29 R
10 -30 R 10 -31 R 10 -31 R 10 -32 R 10 -33 R 10 -33 R 10 -34 R 10 -35 R
11 -35 R 10 -37 R 10 -37 R 10 -37 R 10 -39 R 10 -39 R 10 -40 R 10 -41 R
10 -41 R 10 -43 R 10 -43 R 10 -44 R 11 -45 R 10 -46 R 10 -47 R 10 -47 R
10 -48 R 10 -49 R 10 -50 R 10 -51 R 10 -52 R 10 -53 R 10 -54 R 11 -55 R
10 -56 R 10 -56 R 10 -57 R 10 -58 R 10 -59 R 10 -59 R 10 -60 R 10 -61 R
10 -62 R 10 -61 R 10 -62 R 11 -62 R 10 -62 R 10 -61 R 10 -59 R 10 -58 R
10 -54 R 10 -50 R 10 -45 R 10 -38 R 10 -29 R 10 -19 R 11 -8 R 10 3 R 10 14 R
10 25 R 10 34 R 10 41 R 10 46 R 10 51 R 10 54 R 10 55 R 10 57 R 10 58 R
11 58 R 10 58 R 10 57 R 10 57 R 10 57 R 10 56 R 10 55 R 10 54 R 10 53 R
10 52 R 10 51 R 11 50 R 10 49 R 10 49 R 10 47 R 10 46 R 10 45 R 10 43 R
10 43 R 10 42 R 10 41 R 10 41 R 11 39 R 10 38 R 10 38 R 10 36 R 10 35 R
10 35 R 10 33 R 10 33 R 10 31 R 10 31 R 10 30 R 10 29 R 11 29 R 10 27 R
10 27 R 10 25 R 10 25 R 10 24 R 10 23 R 10 23 R 10 21 R 10 21 R 10 21 R
11 19 R 10 18 R 10 18 R 10 17 R 10 16 R 10 15 R 10 15 R 10 14 R 10 13 R
10 12 R 10 12 R 10 11 R 11 10 R 10 9 R 10 9 R 10 8 R 10 7 R 10 6 R 10 6 R
10 5 R 10 4 R 10 4 R 10 3 R 11 2 R 10 1 R 10 1 R 10 -1 R 10 -1 R 10 -1 R
10 -2 R 10 -3 R 10 -4 R 10 -4 R 10 -5 R 10 -6 R 11 -7 R 10 -8 R 10 -8 R
10 -9 R 10 -9 R 10 -11 R 10 -11 R 10 -11 R 10 -13 R 10 -13 R 10 -15 R
11 -15 R 10 -15 R 10 -17 R 10 -17 R 10 -18 R 10 -19 R 10 -19 R 10 -20 R
10 -22 R 10 -22 R 10 -23 R 10 -23 R 11 -25 R 10 -25 R 10 -26 R 10 -27 R
10 -28 R 10 -29 R 10 -29 R 10 -31 R 10 -31 R 10 -33 R 10 -33 R 11 -35 R
10 -35 R 10 -36 R 10 -37 R 10 -37 R 10 -39 R 10 -40 R 10 -42 R 10 -42 R
10 -43 R 10 -45 R 11 -45 R 10 -46 R 10 -47 R 10 -49 R 10 -49 R 10 -51 R
10 -52 R 10 -53 R 10 -54 R 10 -56 R 10 -56 R 10 -58 R 11 -58 R 10 -59 R
10 -60 R 10 -60 R 10 -62 R 10 -61 R 10 -62 R 10 -61 R 10 -60 R 10 -58 R
10 -55 R 11 -50 R 10 -43 R 10 -35 R 10 -24 R 10 -12 R 10 2 R 10 14 R 10 27 R
10 37 R 10 45 R 10 50 R 10 54 R 11 56 R 10 58 R 10 59 R 10 59 R 10 59 R
10 59 R 10 57 R 10 57 R 10 56 R 10 55 R 10 54 R 11 52 R 10 52 R 10 50 R
10 49 R 10 48 R 10 46 R 10 45 R 10 45 R 10 42 R 10 42 R 10 41 R 10 40 R
11 38 R 10 38 R 10 36 R 10 35 R 10 33 R 10 33 R 10 32 R 10 31 R 10 29 R
10 29 R 10 28 R 11 27 R 10 26 R 10 24 R 10 24 R 10 23 R 10 21 R 10 21 R
10 20 R 10 19 R 10 18 R 10 18 R 11 16 R 10 15 R 10 14 R 10 14 R 10 12 R
10 12 R 10 10 R 10 10 R 10 10 R 10 8 R 10 7 R 10 7 R 11 5 R 10 4 R 10 4 R
10 3 R 10 2 R 10 1 R 10 0 R 10 0 R 10 -2 R 10 -2 R 10 -3 R 11 -4 R 10 -5 R
10 -6 R 10 -7 R 10 -8 R 10 -8 R 10 -10 R 10 -10 R 10 -11 R 10 -12 R 10 -13 R
10 -14 R 11 -15 R 10 -16 R 10 -16 R 10 -18 R 10 -18 R 10 -19 R 10 -21 R
10 -21 R 10 -22 R 10 -24 R 10 -24 R 11 -25 R 10 -27 R 10 -27 R 10 -28 R
10 -30 R 10 -30 R 10 -31 R 10 -32 R 10 -34 R 10 -35 R 10 -36 R 10 -37 R
11 -38 R 10 -39 R 10 -40 R 10 -42 R 10 -42 R 10 -44 R 10 -46 R 10 -46 R
10 -49 R 10 -49 R 10 -50 R 11 -52 R 10 -53 R 10 -54 R 10 -55 R 10 -56 R
10 -57 R 10 -59 R 10 -60 R 10 -60 R 10 -61 R 10 -62 R 11 -61 R 10 -60 R
10 -59 R 10 -56 R 10 -51 R 10 -44 R 10 -35 R 10 -24 R 10 -10 R 10 6 R
10 19 R 10 32 R 11 41 R 10 49 R 10 53 R 10 57 R 10 59 R 10 59 R 10 60 R
10 60 R 10 59 R 10 58 R 10 57 R 11 56 R 10 55 R 10 54 R 10 52 R 10 51 R
10 50 R 10 48 R 10 47 R 10 46 R 10 44 R 10 43 R 10 42 R 11 40 R 10 39 R
10 38 R 10 36 R 10 36 R 10 35 R 10 33 R 10 32 R 10 31 R 10 30 R 10 28 R
11 27 R 10 26 R 10 26 R 10 24 R 10 23 R 10 22 R 10 21 R 10 20 R 10 19 R
10 18 R 10 16 R 10 16 R 11 14 R 10 14 R 10 13 R 10 12 R 10 10 R 10 10 R
10 9 R 10 8 R 10 7 R 10 5 R 10 5 R 11 4 R 10 3 R 10 2 R 10 1 R 10 0 R
10 -1 R 10 -1 R 10 -3 R 10 -4 R 10 -5 R 10 -6 R 11 -7 R 10 -8 R 10 -8 R
10 -10 R 10 -10 R 10 -12 R 10 -13 R 10 -14 R 10 -14 R 10 -16 R 10 -17 R
10 -18 R 11 -19 R 10 -19 R 10 -21 R 10 -22 R 10 -23 R 10 -24 R 10 -25 R
10 -27 R 10 -27 R 10 -29 R 10 -30 R 11 -30 R 10 -32 R 10 -33 R 10 -34 R
10 -36 R 10 -37 R 10 -38 R 10 -40 R 10 -41 R 10 -42 R 10 -43 R 10 -45 R
11 -45 R 10 -47 R 10 -49 R 10 -50 R 10 -51 R 10 -53 R D 110 setlinewidth
1800 4978 M 12 -54 R 13 -54 R 12 -55 R 12 -57 R 12 -57 R 13 -57 R 12 -59 R
12 -60 R 13 -60 R 12 -61 R 12 -62 R 12 -63 R 13 -64 R 12 -65 R 12 -66 R
13 -67 R 12 -68 R 12 -69 R 12 -70 R 13 -70 R 12 -72 R 12 -73 R 13 -74 R
12 -75 R 12 -75 R 12 -77 R 13 -77 R 12 -78 R 12 -78 R 13 -79 R 12 -79 R
12 -80 R 12 -79 R 13 -78 R 12 -76 R 12 -74 R 13 -71 R 12 -66 R 12 -60 R
12 -52 R 13 -41 R 12 -29 R 12 -13 R 13 1 R 12 16 R 12 30 R 13 42 R 12 51 R
12 60 R 12 64 R 13 69 R 12 71 R 12 73 R 13 75 R 12 75 R 12 74 R 12 75 R
13 74 R 12 73 R 12 73 R 13 72 R 12 70 R 12 70 R 12 68 R 13 68 R 12 66 R
12 66 R 13 64 R 12 63 R 12 62 R 12 61 R 13 59 R 12 59 R 12 58 R 13 56 R
12 56 R 12 54 R 12 54 R 13 52 R 12 51 R 12 51 R 13 49 R 12 49 R 12 47 R
12 47 R 13 46 R 12 44 R 12 44 R 13 43 R 12 42 R 12 41 R 12 40 R 13 40 R
12 39 R 12 38 R 13 37 R 12 36 R 12 35 R 12 35 R 13 34 R 12 33 R 12 32 R
13 32 R 12 31 R 12 30 R 12 30 R 13 29 R 12 28 R 12 28 R 13 27 R 12 26 R
12 26 R 12 25 R 13 24 R 12 24 R 12 23 R 13 22 R 12 22 R 12 22 R 12 20 R
13 20 R 12 20 R 12 19 R 13 18 R 12 18 R 12 17 R 12 17 R 13 16 R 12 16 R
12 15 R 13 14 R 12 14 R 12 13 R 13 13 R 12 12 R 12 12 R 12 12 R 13 10 R
12 10 R 12 10 R 13 9 R 12 9 R 12 8 R 12 7 R 13 7 R 12 7 R 12 6 R 13 5 R
12 5 R 12 5 R 12 4 R 13 3 R 12 3 R 12 3 R 13 2 R 12 1 R 12 1 R 12 0 R 13 0 R
12 0 R 12 -1 R 13 -2 R 12 -2 R 12 -3 R 12 -3 R 13 -4 R 12 -4 R 12 -4 R
13 -6 R 12 -5 R 12 -6 R 12 -7 R 13 -7 R 12 -8 R 12 -9 R 13 -8 R 12 -10 R
12 -9 R 12 -11 R 13 -11 R 12 -11 R 12 -12 R 13 -13 R 12 -13 R 12 -13 R
12 -14 R 13 -15 R 12 -15 R 12 -16 R 13 -16 R 12 -17 R 12 -18 R 12 -18 R
13 -18 R 12 -19 R 12 -20 R 13 -20 R 12 -21 R 12 -22 R 12 -22 R 13 -23 R
12 -23 R 12 -24 R 13 -25 R 12 -25 R 12 -26 R 12 -26 R 13 -28 R 12 -27 R
12 -29 R 13 -29 R 12 -30 R 12 -31 R 13 -31 R 12 -32 R 12 -32 R 12 -34 R
13 -34 R 12 -35 R 12 -36 R 13 -36 R 12 -38 R 12 -38 R 12 -39 R 13 -39 R
12 -41 R 12 -42 R 13 -42 R 12 -44 R 12 -44 R 12 -45 R 13 -46 R 12 -47 R
12 -48 R 13 -48 R 12 -50 R 12 -51 R 12 -52 R 13 -53 R 12 -54 R 12 -54 R
13 -56 R 12 -57 R 12 -58 R 12 -60 R 13 -60 R 12 -61 R 12 -63 R 13 -63 R
12 -65 R 12 -66 R 12 -67 R 13 -69 R 12 -69 R 12 -71 R 13 -71 R 12 -72 R
12 -73 R 12 -74 R 13 -75 R 12 -76 R 12 -75 R 13 -76 R 12 -75 R 12 -74 R
12 -73 R 13 -69 R 12 -65 R 12 -59 R 13 -51 R 12 -41 R 12 -28 R 12 -12 R
13 2 R 12 16 R 12 32 R 13 43 R 12 53 R 12 60 R 12 66 R 13 69 R 12 72 R
12 74 R 13 74 R 12 75 R 12 74 R 12 74 R 13 73 R 12 73 R 12 72 R 13 71 R
12 69 R 12 69 R 12 67 R 13 66 R 12 66 R 12 64 R 13 63 R 12 61 R 12 61 R
13 59 R 12 58 R 12 57 R 12 56 R 13 55 R 12 53 R 12 53 R 13 52 R 12 50 R
12 49 R 12 49 R 13 47 R 12 47 R 12 45 R 13 45 R 12 43 R 12 43 R 12 41 R
13 41 R 12 40 R 12 39 R 13 38 R 12 37 R 12 36 R 12 36 R 13 34 R 12 34 R
12 32 R 13 32 R 12 32 R 12 30 R 12 30 R 13 29 R 12 28 R 12 27 R 13 27 R
12 26 R 12 25 R 12 24 R 13 24 R 12 23 R 12 23 R 13 21 R 12 21 R 12 21 R
12 19 R 13 19 R 12 19 R 12 17 R 13 18 R 12 16 R 12 16 R 12 15 R 13 15 R
12 13 R 12 14 R 13 12 R 12 13 R 12 11 R 12 11 R 13 10 R 12 10 R 12 9 R
13 8 R 12 8 R 12 8 R 12 6 R 13 6 R 12 6 R 12 5 R 13 4 R 12 4 R 12 3 R 12 3 R
13 2 R 12 1 R 12 1 R 13 0 R 12 0 R 12 -1 R 12 -1 R 13 -2 R 12 -3 R 12 -3 R
13 -4 R 12 -4 R 12 -5 R 13 -6 R 12 -6 R 12 -7 R 12 -7 R 13 -8 R 12 -8 R
12 -9 R 13 -10 R 12 -10 R 12 -11 R 12 -12 R 13 -12 R 12 -13 R 12 -13 R
13 -14 R 12 -14 R 12 -16 R 12 -15 R 13 -17 R 12 -17 R 12 -18 R 13 -18 R
12 -19 R 12 -20 R 12 -20 R 13 -21 R 12 -22 R 12 -23 R 13 -23 R 12 -23 R
12 -25 R 12 -25 R 13 -26 R 12 -27 R 12 -27 R 13 -28 R 12 -29 R 12 -30 R
12 -30 R 13 -32 R 12 -32 R 12 -32 R 13 -34 R 12 -35 R 12 -35 R 12 -37 R
13 -37 R 12 -38 R 12 -38 R 13 -40 R 12 -41 R 12 -42 R 12 -42 R 13 -44 R
12 -44 R 12 -46 R 13 -46 R 12 -48 R 12 -48 R 12 -50 R 13 -50 R 12 -52 R
12 -53 R 13 -53 R 12 -55 R 12 -56 R 12 -57 R 13 -58 R 12 -60 R 12 -60 R
13 -62 R 12 -63 R 12 -64 R 12 -65 R 13 -66 R 12 -68 R 12 -69 R 13 -70 R
12 -71 R 12 -72 R 13 -73 R 12 -73 R 12 -74 R 12 -75 R 13 -74 R 12 -75 R
12 -74 R 13 -72 R 12 -70 R 12 -66 R 12 -61 R 13 -53 R 12 -43 R 12 -32 R
13 -18 R 12 -2 R 12 13 R 12 28 R 13 41 R 12 50 R 12 59 R 13 65 R 12 68 R
12 72 R 12 73 R 13 74 R 12 75 R 12 74 R 13 74 R 12 74 R 12 73 R 12 71 R
13 71 R 12 70 R 12 69 R 13 67 R 12 67 R 12 65 R 12 63 R 13 63 R 12 62 R
12 60 R 13 60 R 12 58 R 12 57 R 12 56 R 13 54 R 12 54 R 12 52 R 13 52 R
12 50 R 12 49 R 12 49 R 13 47 R 12 46 R 12 45 R 13 44 R 12 43 R 12 43 R
12 41 R 13 41 R 12 39 R 12 39 R 13 37 R 12 37 R 12 36 R 12 35 R 13 34 R
12 33 R 12 33 R 13 32 R 12 30 R 12 30 R 12 29 R 13 29 R 12 27 R 12 27 R
13 26 R 12 26 R 12 24 R 12 24 R 13 23 R 12 23 R 12 22 R 13 21 R 12 20 R
12 20 R 13 19 R 12 18 R 12 18 R 12 17 R 13 16 R 12 16 R 12 15 R 13 14 R
12 14 R D 30 setlinewidth 6263 10682 M 66 0 R 67 0 R 66 0 R 67 0 R 66 0 R
67 0 R 66 0 R 66 0 R 67 0 R D 70 setlinewidth 6263 10209 M 66 0 R 67 0 R
66 0 R 67 0 R 66 0 R 67 0 R 66 0 R 66 0 R 67 0 R D 110 setlinewidth
6263 9735 M 66 0 R 67 0 R 66 0 R 67 0 R 66 0 R 67 0 R 66 0 R 66 0 R 67 0 R D
gsave 6927 10515 translate 0 0 M 1.2 dup scale
(A=1) show grestore gsave 6927 10042 translate 0 0 M 1.2 dup scale
(A=3.5) show grestore gsave 6927 9569 translate 0 0 M 1.2 dup scale
(A=10) show grestore gsave 6318 10966 translate 0 0 M 1.2 dup scale
(M1) show grestore
%%PageTrailer
end
%%PageResources: font Helvetica
%%Trailer
%%Pages: 1
%%DocumentNeededResources: font Helvetica
%%EOF
