%!PS-Adobe-3.0 EPSF-3.0
%%BoundingBox: 0 0 510 192
%%Title: Graphics produced by IDL
%%For: dacia@Lserver, /home/dacia/work/subhalo_model
%%Creator: IDL Version 7.0 (linux x86_64 m64)
%%CreationDate: Thu Nov 19 17:24:44 2009
%%DocumentData: Clean7bit
%%Requirements: color
%%LanguageLevel: 1
%%PageOrder: Ascend
%%Pages: (atend)
%%DocumentNeededResources: (atend)
%%EndComments
%%BeginProlog
%+ prolog.ps -- Prolog for IDL generated PostScript files
%+ Copyright (c) 1988-2007 ITT Visual Information Solutions. All Rights Reserved.
%v 5
/$IDL_DICT 40 dict def $IDL_DICT begin /bdef { bind def } bind def /C
{currentpoint newpath moveto} bdef /CP {currentpoint} bdef /D {currentpoint
stroke moveto} bdef /F {closepath fill} bdef /K { setgray } bdef /M {moveto}
bdef /N {rmoveto} bdef /P {lineto} bdef /R {rlineto} bdef /S {gsave show
grestore} bdef /X {currentpoint pop} bdef /Z {gsave currentpoint lineto 20
setlinewidth 1 setlinecap stroke grestore} bdef /L0 {[] 0 setdash} bdef /L1
{[40 100] 0 setdash} bdef /L2 {[200 200] 0 setdash} bdef /L3 {[200 100 50
100] 0 setdash} bdef /L4 {[300 100 50 100 50 100 50 100] 0 setdash} bdef /L5
{[400 200] 0 setdash} bdef /STDFONT { findfont exch scalefont setfont } bdef
/ISOFONT { findfont dup length dict begin { 1 index /FID ne {def} {pop pop}
ifelse } forall /Encoding ISOLatin1Encoding def currentdict end /idltmpfont
exch definefont exch scalefont setfont } bdef /ISOBULLET { gsave /Helvetica
findfont exch scalefont setfont (\267) show currentpoint grestore moveto}
bdef /MITERLIMIT { 2.5 setmiterlimit } bdef end
%%EndProlog
%%Page: 0 1
%%PageRequirements: color
%%PageResources: (atend)
%%PageOrientation: Portrait
%%PageBoundingBox: 0 0 510 192
%%BeginPageSetup
$IDL_DICT begin 0.0283465 dup scale MITERLIMIT
%%IncludeResource: font Helvetica
423.333 /Helvetica STDFONT
%%EndPageSetup
0.000 0.000 0.000 setrgbcolor gsave 9360 163 translate 0 0 M 1.2 dup scale
-576.368 0 N
(t / Gyr) show grestore 40 setlinewidth L0 1224 1360 M 4752 0 R D
1224 1360 M 0 189 R D gsave 1224 726 translate 0 0 M 1.2 dup scale
-117.687 0 N
(0) show grestore 1955 1360 M 0 189 R D gsave 1955 726 translate 0 0 M
1.2 dup scale -117.687 0 N
(2) show grestore 2686 1360 M 0 189 R D gsave 2686 726 translate 0 0 M
1.2 dup scale -117.687 0 N
(4) show grestore 3417 1360 M 0 189 R D gsave 3417 726 translate 0 0 M
1.2 dup scale -117.687 0 N
(6) show grestore 4149 1360 M 0 189 R D gsave 4149 726 translate 0 0 M
1.2 dup scale -117.687 0 N
(8) show grestore 4880 1360 M 0 189 R D gsave 4880 726 translate 0 0 M
1.2 dup scale -235.373 0 N
(10) show grestore 5611 1360 M 0 189 R D gsave 5611 726 translate 0 0 M
1.2 dup scale -235.373 0 N
(12) show grestore 1407 1360 M 0 95 R D 1590 1360 M 0 95 R D 1772 1360 M
0 95 R D 2138 1360 M 0 95 R D 2321 1360 M 0 95 R D 2503 1360 M 0 95 R D
2869 1360 M 0 95 R D 3052 1360 M 0 95 R D 3235 1360 M 0 95 R D 3600 1360 M
0 95 R D 3783 1360 M 0 95 R D 3966 1360 M 0 95 R D 4331 1360 M 0 95 R D
4514 1360 M 0 95 R D 4697 1360 M 0 95 R D 5062 1360 M 0 95 R D 5245 1360 M
0 95 R D 5428 1360 M 0 95 R D 5794 1360 M 0 95 R D 5976 1360 M 0 95 R D
1224 6096 M 4752 0 R D 1224 6096 M 0 -189 R D 1955 6096 M 0 -189 R D
2686 6096 M 0 -189 R D 3417 6096 M 0 -189 R D 4149 6096 M 0 -189 R D
4880 6096 M 0 -189 R D 5611 6096 M 0 -189 R D 1407 6096 M 0 -95 R D
1590 6096 M 0 -95 R D 1772 6096 M 0 -95 R D 2138 6096 M 0 -95 R D
2321 6096 M 0 -95 R D 2503 6096 M 0 -95 R D 2869 6096 M 0 -95 R D
3052 6096 M 0 -95 R D 3235 6096 M 0 -95 R D 3600 6096 M 0 -95 R D
3783 6096 M 0 -95 R D 3966 6096 M 0 -95 R D 4331 6096 M 0 -95 R D
4514 6096 M 0 -95 R D 4697 6096 M 0 -95 R D 5062 6096 M 0 -95 R D
5245 6096 M 0 -95 R D 5428 6096 M 0 -95 R D 5794 6096 M 0 -95 R D
5976 6096 M 0 -95 R D 1224 1360 M 0 4736 R D 1224 2307 M 190 0 R D
gsave 1091 2138 translate 0 0 M 1.2 dup scale -588.433 0 N
(0.2) show grestore 1224 3254 M 190 0 R D gsave 1091 3085 translate 0 0 M
1.2 dup scale -588.433 0 N
(0.4) show grestore 1224 4202 M 190 0 R D gsave 1091 4033 translate 0 0 M
1.2 dup scale -588.433 0 N
(0.6) show grestore 1224 5149 M 190 0 R D gsave 1091 4980 translate 0 0 M
1.2 dup scale -588.433 0 N
(0.8) show grestore 1224 6096 M 190 0 R D gsave 1091 5800 translate 0 0 M
1.2 dup scale -588.433 0 N
(1.0) show grestore 1224 1597 M 95 0 R D 1224 1834 M 95 0 R D 1224 2070 M
95 0 R D 1224 2544 M 95 0 R D 1224 2781 M 95 0 R D 1224 3018 M 95 0 R D
1224 3491 M 95 0 R D 1224 3728 M 95 0 R D 1224 3965 M 95 0 R D 1224 4438 M
95 0 R D 1224 4675 M 95 0 R D 1224 4912 M 95 0 R D 1224 5386 M 95 0 R D
1224 5622 M 95 0 R D 1224 5859 M 95 0 R D 5976 1360 M 0 4736 R D 5976 2307 M
-190 0 R D 5976 3254 M -190 0 R D 5976 4202 M -190 0 R D 5976 5149 M
-190 0 R D 5976 6096 M -190 0 R D 5976 1597 M -95 0 R D 5976 1834 M -95 0 R
D 5976 2070 M -95 0 R D 5976 2544 M -95 0 R D 5976 2781 M -95 0 R D
5976 3018 M -95 0 R D 5976 3491 M -95 0 R D 5976 3728 M -95 0 R D
5976 3965 M -95 0 R D 5976 4438 M -95 0 R D 5976 4675 M -95 0 R D
5976 4912 M -95 0 R D 5976 5386 M -95 0 R D 5976 5622 M -95 0 R D
5976 5859 M -95 0 R D 30 setlinewidth 0.000 0.000 1.000 setrgbcolor
1224 6096 M 37 -3 R 73 -7 R 73 -10 R 73 -91 R 37 -101 R 35 -193 R 32 -292 R
27 -266 R 27 -174 R 29 -89 R 28 -50 R 43 -45 R 69 -23 R 73 -8 R 73 -5 R
74 -5 R 73 -4 R 73 -3 R 73 -4 R 73 -3 R 73 -3 R 73 -4 R 73 -5 R 73 -5 R
74 -14 R 73 -45 R 24 -44 R 24 -83 R 22 -145 R 20 -218 R 19 -214 R 18 -123 R
19 -73 R 25 -46 R 35 -26 R 41 -17 R 62 -14 R 73 -7 R 73 -9 R 73 -6 R 74 -8 R
73 -28 R 17 -15 R 20 -23 R 22 -70 R 13 -92 R 12 -148 R 12 -159 R 11 -96 R
12 -54 R 14 -34 R 21 -19 R 22 -9 R 31 -9 R 49 -9 R 73 -13 R 51 -15 R 7 -3 R
23 -19 R 10 -16 R 9 -29 R 8 -46 R 7 -81 R 7 -104 R 6 -90 R 6 -50 R 7 -32 R
9 -20 R 13 -13 R 21 -10 R 33 -8 R 40 -10 R 7 -1 R 12 -5 R 8 -5 R 7 -7 R
6 -9 R 5 -15 R 4 -24 R 4 -37 R 4 -60 R 3 -71 R 4 -46 R 3 -25 R 4 -16 R
6 -11 R 8 -7 R 14 -5 R 24 -7 R 9 -3 R 2 -1 R 6 -5 R 2 -3 R 2 -4 R 2 -7 R
1 -9 R 1 -12 R 2 -18 R 0 -29 R 1 -38 R 1 -18 R 0 -9 R D 70 setlinewidth
1224 6096 M 37 -10 R 73 -24 R 73 -36 R 72 -299 R 38 -332 R 36 -554 R
32 -741 R 28 -535 R 26 -279 R 25 -125 R 37 -84 R 51 -42 R 54 -20 R 73 -14 R
73 -9 R 73 -8 R 73 -6 R 74 -5 R 73 -5 R 73 -5 R 73 -5 R 73 -5 R 73 -5 R
73 -6 R 73 -6 R 73 -8 R 74 -9 R 73 -18 R 73 -47 R 34 -52 R 30 -103 R
29 -193 R 25 -207 R 24 -126 R 23 -55 R 29 -28 R 39 -17 R 55 -10 R 73 -8 R
73 -4 R 74 -3 R 73 -3 R 73 -2 R 73 -3 R 73 -3 R 73 -2 R 73 -4 R 73 -4 R
73 -8 R 62 -13 R 27 -16 R 26 -35 R 25 -73 R 21 -84 R 21 -52 R 20 -22 R
25 -12 R 34 -7 R 49 -5 R 64 -3 R 73 -2 R 73 -1 R 73 -2 R 73 -1 R 73 -2 R
74 -1 R 73 -2 R 73 -3 R 73 -7 R 25 -5 R 25 -11 R 23 -25 R 21 -42 R 18 -33 R
17 -18 R 20 -9 R 26 -5 R 37 -3 R 54 -3 R 73 -1 R 73 -2 R 73 0 R 74 -1 R
73 -1 R 73 -1 R 73 -2 R 73 -2 R 25 -2 R D 110 setlinewidth 1224 6096 M
37 -27 R 73 -70 R 55 -136 R 40 -271 R 20 -155 R 13 -105 R 15 -145 R
14 -230 R 39 -846 R 11 -320 R 36 -1057 R 29 -548 R 27 -202 R 22 -63 R
35 -43 R 47 -24 R 67 -14 R 73 -9 R 73 -6 R 73 -4 R 74 -4 R 69 0 R 73 -2 R
73 -2 R 73 -3 R 73 -2 R 73 -2 R 73 -2 R 73 -3 R 73 -2 R 74 -2 R 73 -3 R
73 -2 R 73 -3 R 73 -4 R 73 -4 R 73 -6 R 73 -8 R 74 -19 R 40 -23 R 33 -42 R
32 -78 R 27 -74 R 26 -40 R 28 -19 R 34 -10 R 46 -7 R 68 -6 R 73 -3 R 73 -2 R
74 -2 R 73 -2 R 73 -1 R 73 -1 R 73 -1 R 73 -1 R 73 -1 R 73 -1 R 74 -1 R
73 -1 R 73 -1 R 73 -1 R 73 -1 R 73 -1 R 73 -1 R 73 -1 R 73 -2 R 65 -4 R
32 -4 R 33 -8 R 29 -11 R 25 -4 R 24 0 R 29 0 R 38 0 R 52 0 R 73 0 R 73 0 R
74 0 R 73 0 R 73 0 R 73 0 R 73 0 R 5 0 R D 0.000 0.000 0.000 setrgbcolor
gsave 3600 6324 translate 0 0 M 1.1 dup scale -869.95 0 N
(m\(t\)/m\(0\)) show grestore 40 setlinewidth 6984 1360 M 4752 0 R D
6984 1360 M 0 189 R D gsave 6984 726 translate 0 0 M 1.2 dup scale
-117.687 0 N
(0) show grestore 7715 1360 M 0 189 R D gsave 7715 726 translate 0 0 M
1.2 dup scale -117.687 0 N
(2) show grestore 8446 1360 M 0 189 R D gsave 8446 726 translate 0 0 M
1.2 dup scale -117.687 0 N
(4) show grestore 9177 1360 M 0 189 R D gsave 9177 726 translate 0 0 M
1.2 dup scale -117.687 0 N
(6) show grestore 9909 1360 M 0 189 R D gsave 9909 726 translate 0 0 M
1.2 dup scale -117.687 0 N
(8) show grestore 10640 1360 M 0 189 R D gsave 10640 726 translate 0 0 M
1.2 dup scale -235.373 0 N
(10) show grestore 11371 1360 M 0 189 R D gsave 11371 726 translate 0 0 M
1.2 dup scale -235.373 0 N
(12) show grestore 7167 1360 M 0 95 R D 7350 1360 M 0 95 R D 7532 1360 M
0 95 R D 7898 1360 M 0 95 R D 8081 1360 M 0 95 R D 8264 1360 M 0 95 R D
8629 1360 M 0 95 R D 8812 1360 M 0 95 R D 8995 1360 M 0 95 R D 9360 1360 M
0 95 R D 9543 1360 M 0 95 R D 9726 1360 M 0 95 R D 10091 1360 M 0 95 R D
10274 1360 M 0 95 R D 10457 1360 M 0 95 R D 10823 1360 M 0 95 R D
11005 1360 M 0 95 R D 11188 1360 M 0 95 R D 11554 1360 M 0 95 R D
11736 1360 M 0 95 R D 6984 6096 M 4752 0 R D 6984 6096 M 0 -189 R D
7715 6096 M 0 -189 R D 8446 6096 M 0 -189 R D 9177 6096 M 0 -189 R D
9909 6096 M 0 -189 R D 10640 6096 M 0 -189 R D 11371 6096 M 0 -189 R D
7167 6096 M 0 -95 R D 7350 6096 M 0 -95 R D 7532 6096 M 0 -95 R D
7898 6096 M 0 -95 R D 8081 6096 M 0 -95 R D 8264 6096 M 0 -95 R D
8629 6096 M 0 -95 R D 8812 6096 M 0 -95 R D 8995 6096 M 0 -95 R D
9360 6096 M 0 -95 R D 9543 6096 M 0 -95 R D 9726 6096 M 0 -95 R D
10091 6096 M 0 -95 R D 10274 6096 M 0 -95 R D 10457 6096 M 0 -95 R D
10823 6096 M 0 -95 R D 11005 6096 M 0 -95 R D 11188 6096 M 0 -95 R D
11554 6096 M 0 -95 R D 11736 6096 M 0 -95 R D 6984 1360 M 0 4736 R D
6984 2027 M 190 0 R D gsave 6851 1858 translate 0 0 M 1.2 dup scale
-588.433 0 N
(0.2) show grestore 6984 2694 M 190 0 R D gsave 6851 2525 translate 0 0 M
1.2 dup scale -588.433 0 N
(0.4) show grestore 6984 3361 M 190 0 R D gsave 6851 3192 translate 0 0 M
1.2 dup scale -588.433 0 N
(0.6) show grestore 6984 4028 M 190 0 R D gsave 6851 3859 translate 0 0 M
1.2 dup scale -588.433 0 N
(0.8) show grestore 6984 4695 M 190 0 R D gsave 6851 4526 translate 0 0 M
1.2 dup scale -588.433 0 N
(1.0) show grestore 6984 5362 M 190 0 R D gsave 6851 5193 translate 0 0 M
1.2 dup scale -588.433 0 N
(1.2) show grestore 6984 6029 M 190 0 R D gsave 6851 5800 translate 0 0 M
1.2 dup scale -588.433 0 N
(1.4) show grestore 6984 1527 M 95 0 R D 6984 1694 M 95 0 R D 6984 1860 M
95 0 R D 6984 2194 M 95 0 R D 6984 2361 M 95 0 R D 6984 2527 M 95 0 R D
6984 2861 M 95 0 R D 6984 3028 M 95 0 R D 6984 3194 M 95 0 R D 6984 3528 M
95 0 R D 6984 3695 M 95 0 R D 6984 3861 M 95 0 R D 6984 4195 M 95 0 R D
6984 4362 M 95 0 R D 6984 4528 M 95 0 R D 6984 4862 M 95 0 R D 6984 5029 M
95 0 R D 6984 5195 M 95 0 R D 6984 5529 M 95 0 R D 6984 5696 M 95 0 R D
6984 5863 M 95 0 R D 11736 1360 M 0 4736 R D 11736 2027 M -190 0 R D
11736 2694 M -190 0 R D 11736 3361 M -190 0 R D 11736 4028 M -190 0 R D
11736 4695 M -190 0 R D 11736 5362 M -190 0 R D 11736 6029 M -190 0 R D
11736 1527 M -95 0 R D 11736 1694 M -95 0 R D 11736 1860 M -95 0 R D
11736 2194 M -95 0 R D 11736 2361 M -95 0 R D 11736 2527 M -95 0 R D
11736 2861 M -95 0 R D 11736 3028 M -95 0 R D 11736 3194 M -95 0 R D
11736 3528 M -95 0 R D 11736 3695 M -95 0 R D 11736 3861 M -95 0 R D
11736 4195 M -95 0 R D 11736 4362 M -95 0 R D 11736 4528 M -95 0 R D
11736 4862 M -95 0 R D 11736 5029 M -95 0 R D 11736 5195 M -95 0 R D
11736 5529 M -95 0 R D 11736 5696 M -95 0 R D 11736 5863 M -95 0 R D
30 setlinewidth 0.000 0.000 1.000 setrgbcolor 6984 4695 M 10 -56 R 9 -58 R
10 -59 R 9 -60 R 10 -61 R 9 -62 R 10 -63 R 9 -64 R 10 -65 R 9 -65 R 10 -67 R
10 -68 R 9 -70 R 10 -71 R 9 -72 R 10 -72 R 9 -74 R 10 -75 R 9 -76 R 10 -78 R
9 -79 R 10 -81 R 9 -81 R 10 -81 R 10 -82 R 9 -83 R 10 -84 R 9 -83 R 10 -84 R
9 -83 R 10 -81 R 9 -78 R 10 -74 R 9 -68 R 10 -59 R 9 -48 R 10 -35 R 10 -18 R
9 1 R 10 17 R 9 32 R 10 45 R 9 55 R 10 62 R 9 66 R 10 69 R 9 72 R 10 72 R
9 72 R 10 71 R 10 71 R 9 70 R 10 69 R 9 67 R 10 66 R 9 64 R 10 63 R 9 61 R
10 60 R 9 59 R 10 57 R 9 55 R 10 54 R 10 51 R 9 51 R 10 49 R 9 48 R 10 47 R
9 45 R 10 43 R 9 42 R 10 40 R 9 39 R 10 38 R 9 37 R 10 35 R 10 34 R 9 32 R
10 31 R 9 30 R 10 28 R 9 28 R 10 27 R 9 25 R 10 23 R 9 22 R 10 21 R 9 20 R
10 19 R 10 18 R 9 17 R 10 16 R 9 14 R 10 12 R 9 12 R 10 10 R 9 10 R 10 9 R
9 7 R 10 7 R 9 4 R 10 4 R 10 2 R 9 2 R 10 0 R 9 0 R 10 -2 R 9 -3 R 10 -5 R
9 -5 R 10 -7 R 9 -7 R 10 -9 R 9 -10 R 10 -11 R 10 -12 R 9 -14 R 10 -15 R
9 -16 R 10 -17 R 9 -18 R 10 -19 R 9 -21 R 10 -22 R 9 -24 R 10 -24 R 9 -26 R
10 -27 R 10 -28 R 9 -29 R 10 -31 R 9 -33 R 10 -34 R 9 -35 R 10 -37 R 9 -37 R
10 -39 R 9 -41 R 10 -43 R 9 -44 R 10 -46 R 10 -47 R 9 -48 R 10 -50 R 9 -52 R
10 -53 R 9 -56 R 10 -58 R 9 -59 R 10 -61 R 9 -62 R 10 -64 R 9 -67 R 10 -69 R
10 -72 R 9 -74 R 10 -75 R 9 -77 R 10 -79 R 9 -80 R 10 -82 R 9 -85 R 10 -87 R
9 -87 R 10 -86 R 9 -85 R 10 -80 R 10 -71 R 9 -55 R 10 -35 R 9 -6 R 10 21 R
9 43 R 10 59 R 9 67 R 10 71 R 9 73 R 10 72 R 9 71 R 10 68 R 9 67 R 10 63 R
10 61 R 9 57 R 10 55 R 9 52 R 10 49 R 9 46 R 10 43 R 9 41 R 10 38 R 9 36 R
10 34 R 9 30 R 10 27 R 10 24 R 9 22 R 10 21 R 9 18 R 10 16 R 9 14 R 10 10 R
9 7 R 10 5 R 9 3 R 10 1 R 9 0 R 10 -4 R 10 -6 R 9 -9 R 10 -12 R 9 -14 R
10 -17 R 9 -18 R 10 -20 R 9 -23 R 10 -27 R 9 -30 R 10 -32 R 9 -35 R 10 -37 R
10 -39 R 9 -42 R 10 -46 R 9 -50 R 10 -54 R 9 -57 R 10 -59 R 9 -62 R 10 -65 R
9 -68 R 10 -73 R 9 -78 R 10 -81 R 10 -85 R 9 -88 R 10 -89 R 9 -88 R 10 -81 R
9 -60 R 10 -21 R 9 24 R 10 55 R 9 70 R 10 72 R 9 70 R 10 67 R 10 62 R 9 57 R
10 51 R 9 46 R 10 41 R 9 36 R 10 31 R 9 25 R 10 21 R 9 17 R 10 11 R 9 6 R
10 -1 R 10 -4 R 9 -9 R 10 -13 R 9 -16 R 10 -21 R 9 -26 R 10 -33 R 9 -39 R
10 -44 R 9 -50 R 10 -55 R 9 -62 R 10 -69 R 10 -76 R 9 -82 R 10 -88 R 9 -91 R
10 -80 R 9 -31 R 10 40 R 9 68 R 10 67 R 9 60 R 10 51 R 9 41 R 10 32 R
10 22 R 9 14 R 10 4 R 9 -6 R 10 -14 R 9 -24 R 10 -33 R 9 -43 R 10 -55 R
9 -66 R 10 -78 R 9 -88 R 10 -74 R 10 26 R 9 57 R 10 43 R 9 25 R 10 7 R
9 -9 R 10 -27 R 9 -46 R 10 -67 R D 70 setlinewidth 6984 4695 M 7 -41 R
7 -41 R 7 -42 R 7 -43 R 7 -43 R 7 -44 R 6 -44 R 7 -45 R 7 -46 R 7 -45 R
7 -47 R 7 -47 R 7 -47 R 7 -48 R 7 -49 R 7 -49 R 7 -50 R 7 -50 R 6 -51 R
7 -52 R 7 -53 R 7 -52 R 7 -54 R 7 -54 R 7 -55 R 7 -55 R 7 -56 R 7 -57 R
7 -57 R 7 -58 R 6 -59 R 7 -59 R 7 -59 R 7 -60 R 7 -60 R 7 -60 R 7 -60 R
7 -61 R 7 -61 R 7 -60 R 7 -61 R 7 -59 R 6 -58 R 7 -57 R 7 -55 R 7 -51 R
7 -48 R 7 -43 R 7 -38 R 7 -30 R 7 -24 R 7 -14 R 7 -5 R 7 5 R 7 13 R 6 22 R
7 29 R 7 36 R 7 40 R 7 45 R 7 48 R 7 50 R 7 52 R 7 53 R 7 54 R 7 54 R 7 55 R
6 54 R 7 55 R 7 54 R 7 53 R 7 53 R 7 52 R 7 52 R 7 51 R 7 51 R 7 49 R 7 49 R
7 49 R 6 47 R 7 47 R 7 46 R 7 45 R 7 44 R 7 44 R 7 43 R 7 42 R 7 41 R 7 40 R
7 40 R 7 40 R 6 38 R 7 38 R 7 37 R 7 37 R 7 35 R 7 35 R 7 34 R 7 34 R 7 33 R
7 32 R 7 32 R 7 31 R 6 30 R 7 30 R 7 29 R 7 28 R 7 28 R 7 27 R 7 26 R 7 26 R
7 26 R 7 25 R 7 24 R 7 23 R 6 24 R 7 22 R 7 22 R 7 21 R 7 20 R 7 20 R 7 20 R
7 19 R 7 19 R 7 18 R 7 17 R 7 17 R 6 16 R 7 16 R 7 15 R 7 15 R 7 14 R 7 13 R
7 14 R 7 12 R 7 13 R 7 11 R 7 11 R 7 11 R 6 10 R 7 10 R 7 9 R 7 8 R 7 9 R
7 8 R 7 7 R 7 7 R 7 6 R 7 6 R 7 5 R 7 5 R 6 4 R 7 4 R 7 4 R 7 3 R 7 2 R
7 2 R 7 2 R 7 1 R 7 1 R 7 0 R 7 0 R 7 -1 R 6 -1 R 7 -2 R 7 -2 R 7 -3 R
7 -3 R 7 -3 R 7 -4 R 7 -5 R 7 -5 R 7 -5 R 7 -6 R 7 -6 R 6 -7 R 7 -8 R 7 -7 R
7 -8 R 7 -9 R 7 -10 R 7 -9 R 7 -11 R 7 -10 R 7 -12 R 7 -11 R 7 -12 R 6 -13 R
7 -13 R 7 -14 R 7 -14 R 7 -15 R 7 -16 R 7 -15 R 7 -17 R 7 -17 R 7 -17 R
7 -18 R 7 -18 R 6 -19 R 7 -20 R 7 -20 R 7 -21 R 7 -22 R 7 -22 R 7 -22 R
7 -23 R 7 -24 R 7 -24 R 7 -25 R 7 -25 R 6 -26 R 7 -27 R 7 -27 R 7 -28 R
7 -29 R 7 -29 R 7 -30 R 7 -30 R 7 -31 R 7 -32 R 7 -33 R 7 -33 R 6 -34 R
7 -34 R 7 -36 R 7 -36 R 7 -36 R 7 -38 R 7 -38 R 7 -38 R 7 -40 R 7 -40 R
7 -42 R 7 -42 R 6 -43 R 7 -43 R 7 -44 R 7 -46 R 7 -45 R 7 -47 R 7 -48 R
7 -48 R 7 -50 R 7 -50 R 7 -51 R 7 -52 R 7 -53 R 6 -54 R 7 -54 R 7 -54 R
7 -56 R 7 -56 R 7 -57 R 7 -57 R 7 -58 R 7 -58 R 7 -58 R 7 -58 R 7 -56 R
6 -56 R 7 -53 R 7 -51 R 7 -47 R 7 -43 R 7 -35 R 7 -27 R 7 -18 R 7 -7 R 7 3 R
7 13 R 7 24 R 6 31 R 7 38 R 7 44 R 7 47 R 7 50 R 7 52 R 7 53 R 7 54 R 7 54 R
7 54 R 7 54 R 7 53 R 6 53 R 7 52 R 7 52 R 7 50 R 7 50 R 7 48 R 7 48 R 7 47 R
7 46 R 7 45 R 7 44 R 7 43 R 6 42 R 7 41 R 7 40 R 7 39 R 7 39 R 7 38 R 7 36 R
7 36 R 7 35 R 7 34 R 7 33 R 7 32 R 6 31 R 7 31 R 7 29 R 7 29 R 7 28 R 7 27 R
7 27 R 7 26 R 7 24 R 7 24 R 7 23 R 7 23 R 6 21 R 7 21 R 7 21 R 7 19 R 7 19 R
7 18 R 7 17 R 7 17 R 7 16 R 7 15 R 7 14 R 7 13 R 6 13 R 7 13 R 7 11 R 7 11 R
7 11 R 7 9 R 7 9 R 7 8 R 7 7 R 7 7 R 7 6 R 7 5 R 6 5 R 7 4 R 7 3 R 7 3 R
7 2 R 7 1 R 7 0 R 7 0 R 7 -1 R 7 -1 R 7 -2 R 7 -3 R 6 -3 R 7 -4 R 7 -5 R
7 -6 R 7 -6 R 7 -7 R 7 -8 R 7 -8 R 7 -9 R 7 -10 R 7 -10 R 7 -11 R 6 -12 R
7 -12 R 7 -13 R 7 -14 R 7 -15 R 7 -16 R 7 -16 R 7 -16 R 7 -18 R 7 -18 R
7 -19 R 7 -20 R 6 -20 R 7 -22 R 7 -22 R 7 -23 R 7 -24 R 7 -24 R 7 -25 R
7 -26 R 7 -27 R 7 -28 R 7 -28 R 7 -30 R 6 -30 R 7 -31 R 7 -32 R 7 -33 R
7 -34 R 7 -34 R 7 -36 R 7 -36 R 7 -37 R 7 -39 R 7 -39 R 7 -41 R 6 -41 R
7 -43 R 7 -43 R 7 -44 R 7 -45 R 7 -46 R 7 -48 R 7 -48 R 7 -50 R 7 -51 R
7 -52 R 7 -52 R 6 -54 R 7 -54 R 7 -55 R 7 -56 R 7 -57 R 7 -57 R 7 -58 R
7 -58 R 7 -57 R 7 -56 R 7 -54 R 7 -51 R 7 -47 R 6 -40 R 7 -33 R 7 -22 R
7 -11 R 7 1 R 7 14 R 7 25 R 7 35 R 7 41 R 7 47 R 7 50 R 7 53 R 6 54 R 7 55 R
7 56 R 7 55 R 7 54 R 7 54 R 7 53 R 7 53 R 7 51 R 7 50 R 7 49 R 7 48 R 6 47 R
7 46 R 7 45 R 7 43 R 7 42 R 7 41 R 7 41 R 7 39 R 7 38 R 7 37 R 7 36 R 7 35 R
6 33 R 7 33 R 7 31 R 7 31 R 7 30 R 7 28 R 7 28 R 7 27 R 7 26 R 7 26 R 7 24 R
7 23 R 6 22 R 7 21 R 7 20 R 7 20 R 7 18 R 7 18 R 7 17 R 7 16 R 7 15 R 7 15 R
7 13 R 7 12 R 6 12 R 7 11 R 7 10 R 7 9 R 7 9 R 7 7 R 7 7 R 7 6 R 7 5 R 7 4 R
7 4 R 7 2 R 6 2 R 7 1 R 7 1 R 7 -1 R 7 -1 R 7 -2 R 7 -3 R 7 -4 R 7 -5 R
7 -6 R 7 -6 R 7 -7 R 6 -8 R 7 -9 R 7 -9 R 7 -10 R 7 -12 R 7 -12 R 7 -13 R
7 -14 R 7 -15 R 7 -15 R 7 -17 R 7 -17 R 6 -18 R 7 -19 R 7 -20 R 7 -20 R
7 -22 R 7 -23 R 7 -24 R 7 -25 R 7 -25 R 7 -26 R 7 -28 R 7 -28 R 6 -29 R
7 -30 R 7 -32 R 7 -32 R 7 -34 R 7 -35 R 7 -35 R 7 -37 R 7 -37 R 7 -39 R
7 -40 R 7 -41 R 6 -42 R 7 -44 R 7 -45 R 7 -46 R 7 -47 R 7 -48 R 7 -50 R
7 -50 R 7 -51 R 7 -53 R 7 -54 R 7 -54 R 6 -56 R 7 -57 R 7 -57 R 7 -57 R
7 -57 R 7 -57 R 7 -55 R 7 -52 R 7 -48 R 7 -41 R 7 -33 R 7 -22 R 6 -9 R 7 5 R
7 18 R 7 30 R 7 39 R 7 45 R 7 50 R 7 53 R 7 55 R 7 56 R 7 55 R 7 56 R 6 55 R
7 55 R 7 53 R 7 53 R 7 51 R 7 50 R 7 49 R 7 47 R 7 47 R 7 45 R 7 44 R 7 43 R
6 41 R 7 40 R 7 39 R 7 38 R 7 36 R 7 35 R 7 35 R 7 33 R 7 32 R 7 31 R 7 30 R
7 29 R 7 28 R 6 27 R 7 25 R 7 24 R 7 24 R 7 22 R 7 22 R 7 21 R 7 19 R 7 19 R
7 18 R 7 16 R 7 16 R 6 14 R 7 14 R 7 13 R 7 12 R 7 11 R 7 10 R 7 9 R 7 8 R
7 8 R 7 6 R 7 5 R 7 5 R 6 3 R 7 3 R 7 2 R 7 1 R 7 0 R 7 -1 R 7 -1 R 7 -3 R
7 -4 R 7 -5 R 7 -5 R 7 -6 R 6 -8 R 7 -8 R 7 -9 R 7 -10 R 7 -10 R 7 -12 R
7 -13 R 7 -14 R 7 -15 R 7 -16 R 7 -16 R 7 -18 R 6 -18 R 7 -19 R 7 -21 R
7 -21 R 7 -23 R 7 -23 R 7 -25 R 7 -26 R 7 -27 R 7 -27 R 7 -29 R 7 -30 R
6 -31 R 7 -32 R 7 -33 R 7 -35 R 7 -35 R 7 -37 R 7 -39 R 7 -39 R 7 -40 R
7 -42 R 7 -42 R 7 -44 R 6 -45 R 7 -47 R 7 -48 R 7 -50 R D 110 setlinewidth
6984 4695 M 8 -50 R 9 -51 R 8 -51 R 9 -53 R 8 -53 R 9 -54 R 8 -55 R 8 -56 R
9 -56 R 8 -57 R 9 -58 R 8 -59 R 9 -60 R 8 -60 R 8 -62 R 9 -63 R 8 -63 R
9 -64 R 8 -65 R 9 -67 R 8 -67 R 8 -68 R 9 -69 R 8 -69 R 9 -71 R 8 -71 R
9 -73 R 8 -72 R 8 -74 R 9 -74 R 8 -74 R 9 -74 R 8 -73 R 9 -73 R 8 -72 R
8 -69 R 9 -66 R 8 -62 R 9 -56 R 8 -49 R 9 -38 R 8 -27 R 8 -12 R 9 1 R 8 15 R
9 28 R 8 39 R 8 48 R 9 56 R 8 60 R 9 64 R 8 67 R 9 68 R 8 69 R 8 70 R 9 70 R
8 70 R 9 69 R 8 69 R 9 67 R 8 67 R 8 66 R 9 65 R 8 64 R 9 63 R 8 63 R 9 61 R
8 60 R 8 59 R 9 58 R 8 56 R 9 56 R 8 55 R 9 54 R 8 53 R 8 51 R 9 51 R 8 50 R
9 49 R 8 48 R 9 47 R 8 46 R 8 46 R 9 44 R 8 44 R 9 42 R 8 42 R 9 41 R 8 40 R
8 39 R 9 39 R 8 38 R 9 37 R 8 36 R 8 35 R 9 35 R 8 34 R 9 33 R 8 32 R 9 32 R
8 31 R 8 30 R 9 30 R 8 29 R 9 28 R 8 28 R 9 27 R 8 26 R 8 26 R 9 25 R 8 25 R
9 23 R 8 24 R 9 22 R 8 23 R 8 21 R 9 21 R 8 21 R 9 20 R 8 19 R 9 19 R 8 18 R
8 18 R 9 17 R 8 17 R 9 16 R 8 15 R 9 15 R 8 15 R 8 14 R 9 13 R 8 13 R 9 13 R
8 12 R 9 11 R 8 11 R 8 11 R 9 10 R 8 9 R 9 9 R 8 9 R 9 8 R 8 7 R 8 7 R 9 7 R
8 6 R 9 6 R 8 5 R 8 5 R 9 4 R 8 3 R 9 4 R 8 2 R 9 3 R 8 2 R 8 1 R 9 1 R
8 0 R 9 0 R 8 -1 R 9 -1 R 8 -1 R 8 -2 R 9 -2 R 8 -3 R 9 -4 R 8 -4 R 9 -4 R
8 -5 R 8 -5 R 9 -6 R 8 -6 R 9 -7 R 8 -7 R 9 -8 R 8 -8 R 8 -9 R 9 -9 R
8 -10 R 9 -10 R 8 -11 R 9 -11 R 8 -12 R 8 -12 R 9 -13 R 8 -13 R 9 -13 R
8 -15 R 9 -14 R 8 -15 R 8 -16 R 9 -17 R 8 -17 R 9 -17 R 8 -18 R 8 -18 R
9 -19 R 8 -20 R 9 -20 R 8 -21 R 9 -21 R 8 -22 R 8 -22 R 9 -23 R 8 -24 R
9 -24 R 8 -24 R 9 -26 R 8 -26 R 8 -27 R 9 -27 R 8 -28 R 9 -28 R 8 -29 R
9 -30 R 8 -31 R 8 -31 R 9 -32 R 8 -33 R 9 -33 R 8 -34 R 9 -35 R 8 -36 R
8 -36 R 9 -37 R 8 -38 R 9 -39 R 8 -40 R 9 -40 R 8 -42 R 8 -42 R 9 -43 R
8 -43 R 9 -45 R 8 -46 R 9 -47 R 8 -47 R 8 -49 R 9 -49 R 8 -50 R 9 -51 R
8 -52 R 8 -54 R 9 -54 R 8 -55 R 9 -57 R 8 -57 R 9 -58 R 8 -60 R 8 -60 R
9 -62 R 8 -63 R 9 -64 R 8 -65 R 9 -65 R 8 -67 R 8 -68 R 9 -68 R 8 -69 R
9 -70 R 8 -71 R 9 -70 R 8 -71 R 8 -70 R 9 -69 R 8 -68 R 9 -65 R 8 -60 R
9 -55 R 8 -48 R 8 -38 R 9 -26 R 8 -12 R 9 2 R 8 15 R 9 29 R 8 41 R 8 50 R
9 56 R 8 61 R 9 65 R 8 67 R 9 69 R 8 69 R 8 70 R 9 69 R 8 70 R 9 68 R 8 68 R
8 67 R 9 66 R 8 65 R 9 64 R 8 63 R 9 62 R 8 61 R 8 60 R 9 59 R 8 57 R 9 57 R
8 55 R 9 54 R 8 53 R 8 53 R 9 51 R 8 50 R 9 49 R 8 49 R 9 47 R 8 46 R 8 45 R
9 44 R 8 44 R 9 42 R 8 42 R 9 41 R 8 39 R 8 39 R 9 38 R 8 37 R 9 37 R 8 35 R
9 35 R 8 34 R 8 33 R 9 32 R 8 31 R 9 31 R 8 30 R 9 29 R 8 29 R 8 27 R 9 27 R
8 27 R 9 25 R 8 25 R 9 24 R 8 24 R 8 23 R 9 22 R 8 22 R 9 21 R 8 20 R 8 19 R
9 19 R 8 19 R 9 17 R 8 18 R 9 16 R 8 16 R 8 16 R 9 14 R 8 15 R 9 13 R 8 13 R
9 12 R 8 12 R 8 12 R 9 10 R 8 11 R 9 9 R 8 9 R 9 9 R 8 8 R 8 7 R 9 7 R 8 6 R
9 6 R 8 5 R 9 5 R 8 4 R 8 3 R 9 3 R 8 2 R 9 2 R 8 2 R 9 1 R 8 0 R 8 -1 R
9 0 R 8 -2 R 9 -2 R 8 -2 R 9 -3 R 8 -4 R 8 -4 R 9 -4 R 8 -5 R 9 -6 R 8 -7 R
8 -6 R 9 -8 R 8 -8 R 9 -8 R 8 -9 R 9 -10 R 8 -10 R 8 -11 R 9 -11 R 8 -12 R
9 -12 R 8 -13 R 9 -14 R 8 -14 R 8 -15 R 9 -15 R 8 -16 R 9 -17 R 8 -17 R
9 -18 R 8 -18 R 8 -19 R 9 -20 R 8 -20 R 9 -21 R 8 -22 R 9 -22 R 8 -23 R
8 -23 R 9 -25 R 8 -24 R 9 -26 R 8 -27 R 9 -27 R 8 -27 R 8 -29 R 9 -29 R
8 -30 R 9 -30 R 8 -32 R 9 -32 R 8 -33 R 8 -34 R 9 -35 R 8 -36 R 9 -36 R
8 -37 R 8 -38 R 9 -39 R 8 -40 R 9 -41 R 8 -41 R 9 -43 R 8 -43 R 8 -44 R
9 -46 R 8 -46 R 9 -47 R 8 -48 R 9 -50 R 8 -50 R 8 -51 R 9 -52 R 8 -54 R
9 -54 R 8 -55 R 9 -57 R 8 -58 R 8 -58 R 9 -60 R 8 -61 R 9 -62 R 8 -63 R
9 -64 R 8 -66 R 8 -66 R 9 -68 R 8 -68 R 9 -68 R 8 -70 R 9 -69 R 8 -70 R
8 -70 R 9 -68 R 8 -68 R 9 -65 R 8 -62 R 9 -57 R 8 -50 R 8 -40 R 9 -29 R
8 -17 R 9 -3 R 8 13 R 8 26 R 9 38 R 8 47 R 9 55 R 8 61 R 9 64 R 8 67 R
8 68 R 9 69 R 8 70 R 9 69 R 8 70 R 9 68 R 8 68 R 8 67 R 9 67 R 8 65 R 9 64 R
8 63 R 9 62 R 8 61 R 8 59 R 9 59 R 8 58 R 9 56 R 8 56 R 9 54 R 8 53 R 8 52 R
9 51 R 8 50 R 9 49 R 8 48 R 9 47 R 8 47 R 8 45 R 9 44 R 8 43 R 9 42 R 8 41 R
9 41 R 8 39 R 8 39 R 9 38 R 8 37 R 9 36 R 8 35 R 8 34 R 9 34 R 8 32 R 9 32 R
8 31 R 9 31 R 8 29 R 8 29 R 9 28 R 8 27 R 9 27 R 8 26 R 9 25 R 8 24 R 8 24 R
9 23 R 8 22 R 9 22 R 8 21 R 9 20 R 8 20 R 8 19 R 9 18 R 8 18 R 9 17 R 8 17 R
9 15 R 8 16 R 8 14 R 9 15 R 8 13 R 9 13 R D 0.000 0.000 0.000 setrgbcolor
gsave 9360 6324 translate 0 0 M 1.1 dup scale -620.416 0 N
(r\(t\)/R) show X -101.051 M
%%IncludeResource: font Helvetica
262.467 /Helvetica STDFONT
(vir) show grestore
%%IncludeResource: font Helvetica
423.333 /Helvetica STDFONT 40 setlinewidth 12744 1360 M 4752 0 R D
12744 1360 M 0 189 R D gsave 12744 726 translate 0 0 M 1.2 dup scale
-117.687 0 N
(0) show grestore 13475 1360 M 0 189 R D gsave 13475 726 translate 0 0 M
1.2 dup scale -117.687 0 N
(2) show grestore 14206 1360 M 0 189 R D gsave 14206 726 translate 0 0 M
1.2 dup scale -117.687 0 N
(4) show grestore 14938 1360 M 0 189 R D gsave 14938 726 translate 0 0 M
1.2 dup scale -117.687 0 N
(6) show grestore 15669 1360 M 0 189 R D gsave 15669 726 translate 0 0 M
1.2 dup scale -117.687 0 N
(8) show grestore 16400 1360 M 0 189 R D gsave 16400 726 translate 0 0 M
1.2 dup scale -235.373 0 N
(10) show grestore 17131 1360 M 0 189 R D gsave 17131 726 translate 0 0 M
1.2 dup scale -235.373 0 N
(12) show grestore 12927 1360 M 0 95 R D 13110 1360 M 0 95 R D 13292 1360 M
0 95 R D 13658 1360 M 0 95 R D 13841 1360 M 0 95 R D 14024 1360 M 0 95 R D
14389 1360 M 0 95 R D 14572 1360 M 0 95 R D 14755 1360 M 0 95 R D
15120 1360 M 0 95 R D 15303 1360 M 0 95 R D 15486 1360 M 0 95 R D
15851 1360 M 0 95 R D 16034 1360 M 0 95 R D 16217 1360 M 0 95 R D
16583 1360 M 0 95 R D 16765 1360 M 0 95 R D 16948 1360 M 0 95 R D
17314 1360 M 0 95 R D 17497 1360 M 0 95 R D 12744 6096 M 4752 0 R D
12744 6096 M 0 -189 R D 13475 6096 M 0 -189 R D 14206 6096 M 0 -189 R D
14938 6096 M 0 -189 R D 15669 6096 M 0 -189 R D 16400 6096 M 0 -189 R D
17131 6096 M 0 -189 R D 12927 6096 M 0 -95 R D 13110 6096 M 0 -95 R D
13292 6096 M 0 -95 R D 13658 6096 M 0 -95 R D 13841 6096 M 0 -95 R D
14024 6096 M 0 -95 R D 14389 6096 M 0 -95 R D 14572 6096 M 0 -95 R D
14755 6096 M 0 -95 R D 15120 6096 M 0 -95 R D 15303 6096 M 0 -95 R D
15486 6096 M 0 -95 R D 15851 6096 M 0 -95 R D 16034 6096 M 0 -95 R D
16217 6096 M 0 -95 R D 16583 6096 M 0 -95 R D 16765 6096 M 0 -95 R D
16948 6096 M 0 -95 R D 17314 6096 M 0 -95 R D 17497 6096 M 0 -95 R D
12744 1360 M 0 4736 R D 12744 2307 M 190 0 R D
gsave 12611 2138 translate 0 0 M 1.2 dup scale -588.433 0 N
(0.2) show grestore 12744 3254 M 190 0 R D gsave 12611 3085 translate 0 0 M
1.2 dup scale -588.433 0 N
(0.4) show grestore 12744 4202 M 190 0 R D gsave 12611 4033 translate 0 0 M
1.2 dup scale -588.433 0 N
(0.6) show grestore 12744 5149 M 190 0 R D gsave 12611 4980 translate 0 0 M
1.2 dup scale -588.433 0 N
(0.8) show grestore 12744 6096 M 190 0 R D gsave 12611 5800 translate 0 0 M
1.2 dup scale -588.433 0 N
(1.0) show grestore 12744 1597 M 95 0 R D 12744 1834 M 95 0 R D 12744 2070 M
95 0 R D 12744 2544 M 95 0 R D 12744 2781 M 95 0 R D 12744 3018 M 95 0 R D
12744 3491 M 95 0 R D 12744 3728 M 95 0 R D 12744 3965 M 95 0 R D
12744 4438 M 95 0 R D 12744 4675 M 95 0 R D 12744 4912 M 95 0 R D
12744 5386 M 95 0 R D 12744 5622 M 95 0 R D 12744 5859 M 95 0 R D
17496 1360 M 0 4736 R D 17496 2307 M -190 0 R D 17496 3254 M -190 0 R D
17496 4202 M -190 0 R D 17496 5149 M -190 0 R D 17496 6096 M -190 0 R D
17496 1597 M -95 0 R D 17496 1834 M -95 0 R D 17496 2070 M -95 0 R D
17496 2544 M -95 0 R D 17496 2781 M -95 0 R D 17496 3018 M -95 0 R D
17496 3491 M -95 0 R D 17496 3728 M -95 0 R D 17496 3965 M -95 0 R D
17496 4438 M -95 0 R D 17496 4675 M -95 0 R D 17496 4912 M -95 0 R D
17496 5386 M -95 0 R D 17496 5622 M -95 0 R D 17496 5859 M -95 0 R D
30 setlinewidth 0.000 0.000 1.000 setrgbcolor 12744 6096 M 37 -21 R 73 -47 R
73 -58 R 73 -83 R 37 -64 R 35 -85 R 32 -108 R 27 -101 R 27 -82 R 29 -70 R
28 -52 R 43 -62 R 69 -78 R 73 -69 R 74 -63 R 73 -59 R 73 -58 R 73 -56 R
73 -56 R 73 -55 R 73 -54 R 73 -55 R 73 -56 R 74 -58 R 73 -66 R 73 -88 R
24 -41 R 24 -55 R 22 -70 R 20 -87 R 19 -90 R 18 -68 R 19 -57 R 25 -57 R
35 -62 R 41 -59 R 62 -79 R 73 -85 R 74 -81 R 73 -79 R 73 -80 R 73 -92 R
18 -28 R 19 -37 R 22 -57 R 13 -50 R 12 -64 R 13 -70 R 11 -55 R 11 -45 R
15 -44 R 20 -48 R 23 -45 R 31 -52 R 48 -74 R 73 -104 R 51 -75 R 7 -12 R
23 -42 R 10 -23 R 9 -28 R 8 -31 R 7 -38 R 7 -46 R 7 -44 R 5 -34 R 7 -31 R
10 -33 R 13 -35 R 20 -44 R 33 -59 R 40 -64 R 7 -12 R 12 -20 R 9 -16 R
6 -15 R 6 -15 R 5 -16 R 5 -17 R 3 -20 R 4 -25 R 3 -31 R 4 -28 R 3 -22 R
4 -21 R 6 -21 R 8 -23 R 14 -27 R 25 -38 R 8 -13 R 2 -4 R 6 -10 R 2 -6 R
2 -5 R 2 -5 R 1 -6 R 2 -6 R 1 -7 R 1 -8 R 0 -13 R 1 -11 R 0 -12 R D
70 setlinewidth 12744 6096 M 37 -21 R 73 -47 R 73 -58 R 73 -80 R 37 -60 R
36 -81 R 32 -88 R 28 -71 R 26 -52 R 25 -35 R 37 -38 R 51 -38 R 54 -32 R
73 -36 R 73 -32 R 73 -30 R 74 -21 R 73 0 R 73 0 R 73 0 R 73 0 R 73 0 R
73 0 R 73 -8 R 73 -29 R 74 -29 R 73 -31 R 73 -36 R 73 -47 R 34 -30 R
30 -36 R 29 -45 R 25 -42 R 24 -32 R 23 -24 R 29 -21 R 39 -21 R 55 -22 R
73 -25 R 74 -21 R 73 -20 R 73 -20 R 73 -20 R 73 -19 R 73 -19 R 73 -19 R
73 -20 R 73 -21 R 74 -23 R 61 -27 R 27 -15 R 26 -20 R 25 -25 R 21 -23 R
21 -18 R 20 -12 R 25 -12 R 34 -12 R 49 -13 R 64 -13 R 73 -14 R 73 -13 R
73 -13 R 73 -13 R 74 -12 R 73 -13 R 73 -13 R 73 -14 R 73 -18 R 25 -8 R
25 -11 R 24 -13 R 20 -14 R 18 -10 R 17 -8 R 21 -7 R 26 -6 R 36 -7 R 54 -7 R
73 -9 R 73 -8 R 74 -7 R 73 -8 R 73 -7 R 73 -8 R 73 -7 R 73 -9 R 25 -5 R D
110 setlinewidth 12744 6096 M 37 -21 R 73 -47 R 56 -42 R 39 -35 R 20 -19 R
13 -15 R 15 -17 R 15 -19 R 38 -57 R 12 -20 R 35 -62 R 29 -38 R 27 -24 R
22 -13 R 35 -14 R 47 -13 R 67 -13 R 73 -12 R 73 -10 R 74 -6 R 73 0 R 69 0 R
73 0 R 73 0 R 73 0 R 73 0 R 73 0 R 73 0 R 73 0 R 74 0 R 73 0 R 73 0 R 73 0 R
73 0 R 73 0 R 73 -9 R 73 -9 R 74 -11 R 73 -14 R 40 -10 R 33 -12 R 32 -14 R
27 -10 R 27 -7 R 27 -4 R 34 -4 R 46 -3 R 68 -4 R 73 -3 R 74 -2 R 73 -3 R
73 0 R 73 0 R 73 0 R 73 0 R 73 0 R 73 0 R 74 0 R 73 0 R 73 0 R 73 0 R 73 0 R
73 0 R 73 -1 R 73 -2 R 73 -3 R 74 -2 R 64 -3 R 33 -3 R 32 -2 R 29 -3 R
25 -2 R 24 -2 R 29 -1 R 38 -2 R 52 -1 R 73 -1 R 74 -2 R 73 -1 R 73 0 R
73 0 R 73 0 R 73 0 R 5 0 R D 0.000 0.000 0.000 setrgbcolor
gsave 15120 6324 translate 0 0 M 1.1 dup scale -611.293 0 N
(j\(t\)/j\(0\)) show grestore 30 setlinewidth 0.000 0.000 1.000 setrgbcolor
3682 5102 M 72 0 R 73 0 R 73 0 R 72 0 R 73 0 R 73 0 R 72 0 R 73 0 R 73 0 R D
70 setlinewidth 3682 4633 M 72 0 R 73 0 R 73 0 R 72 0 R 73 0 R 73 0 R 72 0 R
73 0 R 73 0 R D 110 setlinewidth 3682 4164 M 72 0 R 73 0 R 73 0 R 72 0 R
73 0 R 73 0 R 72 0 R 73 0 R 73 0 R D gsave 4409 4970 translate 0 0 M
1.2 dup scale
(A=1) show grestore gsave 4409 4500 translate 0 0 M 1.2 dup scale
(A=3.5) show grestore gsave 4409 4031 translate 0 0 M 1.2 dup scale
(A=10) show grestore gsave 3827 5443 translate 0 0 M 1.2 dup scale
(M1) show grestore
%%PageTrailer
end
%%PageResources: font Helvetica
%%Trailer
%%Pages: 1
%%DocumentNeededResources: font Helvetica
%%EOF
