%!PS-Adobe-3.0 EPSF-3.0
%%BoundingBox: 0 0 453 396
%%Title: Graphics produced by IDL
%%For: jlgan@aida119, /home/jlgan/work/subhalo_model
%%Creator: IDL Version 7.0 (linux x86_64 m64)
%%CreationDate: Thu Apr 30 13:13:31 2009
%%DocumentData: Clean7bit
%%Requirements: color
%%LanguageLevel: 1
%%PageOrder: Ascend
%%Pages: (atend)
%%DocumentNeededResources: (atend)
%%EndComments
%%BeginProlog
%+ prolog.ps -- Prolog for IDL generated PostScript files
%+ Copyright (c) 1988-2007 ITT Visual Information Solutions. All Rights Reserved.
%v 5
/$IDL_DICT 40 dict def $IDL_DICT begin /bdef { bind def } bind def /C
{currentpoint newpath moveto} bdef /CP {currentpoint} bdef /D {currentpoint
stroke moveto} bdef /F {closepath fill} bdef /K { setgray } bdef /M {moveto}
bdef /N {rmoveto} bdef /P {lineto} bdef /R {rlineto} bdef /S {gsave show
grestore} bdef /X {currentpoint pop} bdef /Z {gsave currentpoint lineto 20
setlinewidth 1 setlinecap stroke grestore} bdef /L0 {[] 0 setdash} bdef /L1
{[40 100] 0 setdash} bdef /L2 {[200 200] 0 setdash} bdef /L3 {[200 100 50
100] 0 setdash} bdef /L4 {[300 100 50 100 50 100 50 100] 0 setdash} bdef /L5
{[400 200] 0 setdash} bdef /STDFONT { findfont exch scalefont setfont } bdef
/ISOFONT { findfont dup length dict begin { 1 index /FID ne {def} {pop pop}
ifelse } forall /Encoding ISOLatin1Encoding def currentdict end /idltmpfont
exch definefont exch scalefont setfont } bdef /ISOBULLET { gsave /Helvetica
findfont exch scalefont setfont (\267) show currentpoint grestore moveto}
bdef /MITERLIMIT { 2.5 setmiterlimit } bdef end
%%EndProlog
%%Page: 0 1
%%PageRequirements: color
%%PageResources: (atend)
%%PageOrientation: Portrait
%%PageBoundingBox: 0 0 453 396
%%BeginPageSetup
$IDL_DICT begin 0.0283465 dup scale MITERLIMIT
%%IncludeResource: font Helvetica
423.333 /Helvetica STDFONT
%%EndPageSetup
30 setlinewidth L0 0.000 0.000 0.000 setrgbcolor 8333 1297 M 0 -198 R
12 -35 R 23 -12 R 24 0 R D 8298 1216 M 82 0 R D 8649 1344 M -211 -385 R D
8882 1239 M -11 23 R -24 24 R -23 11 R -47 0 R -23 -11 R -24 -24 R -11 -23 R
-12 -35 R 0 -58 R 12 -36 R 11 -23 R 24 -23 R 23 -12 R 47 0 R 23 12 R 24 23 R
11 23 R 0 36 R -58 0 R D 8941 1216 M 70 -164 R 70 164 R D 9011 1052 M
-24 -58 R -23 -24 R -23 -11 R -12 0 R D 9151 1216 M 0 -164 R D 9151 1146 M
12 35 R 23 23 R 23 12 R 35 0 R D 1536 7165 M -11 -23 R 0 -35 R 11 -24 R
24 -23 R 35 -12 R 35 0 R 35 12 R 11 12 R 12 23 R 0 35 R -12 23 R D
1606 7048 M 0 94 R D 1396 7329 M 23 -24 R 35 -23 R 47 -23 R 59 -12 R 46 0 R
59 12 R 58 23 R 35 23 R 24 24 R D 1443 7422 M 198 0 R 35 12 R 12 23 R 0 24 R
D 1525 7387 M 0 82 R D 1396 7539 M 23 23 R 35 24 R 47 23 R 59 12 R 46 0 R
59 -12 R 58 -23 R 35 -24 R 24 -23 R D 20 setlinewidth 3020 8052 M 4957 0 R D
3471 8052 M 0 182 R D 30 setlinewidth 3494 7769 M -117 -163 R 176 0 R D
3494 7769 M 0 -245 R D 20 setlinewidth 4372 8052 M 0 182 R D 30 setlinewidth
4430 7734 M -11 24 R -35 11 R -24 0 R -35 -11 R -23 -35 R -12 -59 R 0 -58 R
12 -47 R 23 -23 R 35 -12 R 12 0 R 35 12 R 23 23 R 12 35 R 0 12 R -12 35 R
-23 23 R -35 12 R -12 0 R -35 -12 R -23 -23 R -12 -35 R D 20 setlinewidth
5273 8052 M 0 182 R D 30 setlinewidth 5238 7769 M -35 -11 R -12 -24 R
0 -23 R 12 -23 R 24 -12 R 46 -12 R 35 -11 R 24 -24 R 11 -23 R 0 -35 R
-11 -24 R -12 -11 R -35 -12 R -47 0 R -35 12 R -12 11 R -11 24 R 0 35 R
11 23 R 24 24 R 35 11 R 47 12 R 23 12 R 12 23 R 0 23 R -12 24 R -35 11 R
-47 0 R D 20 setlinewidth 6175 8052 M 0 182 R D 30 setlinewidth 5999 7723 M
24 11 R 35 35 R 0 -245 R D 6268 7769 M -35 -11 R -23 -35 R -12 -59 R 0 -35 R
12 -58 R 23 -35 R 35 -12 R 23 0 R 35 12 R 24 35 R 11 58 R 0 35 R -11 59 R
-24 35 R -35 11 R -23 0 R D 20 setlinewidth 7076 8052 M 0 182 R D
30 setlinewidth 6901 7723 M 23 11 R 35 35 R 0 -245 R D 7111 7711 M 0 12 R
12 23 R 11 12 R 24 11 R 46 0 R 24 -11 R 11 -12 R 12 -23 R 0 -24 R -12 -23 R
-23 -35 R -117 -117 R 164 0 R D 20 setlinewidth 7977 8052 M 0 182 R D
30 setlinewidth 7802 7723 M 23 11 R 35 35 R 0 -245 R D 8117 7769 M
-117 -163 R 176 0 R D 8117 7769 M 0 -245 R D 20 setlinewidth 3020 8052 M
0 91 R D 3245 8052 M 0 91 R D 3696 8052 M 0 91 R D 3921 8052 M 0 91 R D
4147 8052 M 0 91 R D 4597 8052 M 0 91 R D 4823 8052 M 0 91 R D 5048 8052 M
0 91 R D 5499 8052 M 0 91 R D 5724 8052 M 0 91 R D 5949 8052 M 0 91 R D
6400 8052 M 0 91 R D 6625 8052 M 0 91 R D 6850 8052 M 0 91 R D 7301 8052 M
0 91 R D 7526 8052 M 0 91 R D 7752 8052 M 0 91 R D 3020 12596 M 4957 0 R D
3471 12596 M 0 -182 R D 4372 12596 M 0 -182 R D 5273 12596 M 0 -182 R D
6175 12596 M 0 -182 R D 7076 12596 M 0 -182 R D 7977 12596 M 0 -182 R D
3020 12596 M 0 -91 R D 3245 12596 M 0 -91 R D 3696 12596 M 0 -91 R D
3921 12596 M 0 -91 R D 4147 12596 M 0 -91 R D 4597 12596 M 0 -91 R D
4823 12596 M 0 -91 R D 5048 12596 M 0 -91 R D 5499 12596 M 0 -91 R D
5724 12596 M 0 -91 R D 5949 12596 M 0 -91 R D 6400 12596 M 0 -91 R D
6625 12596 M 0 -91 R D 6850 12596 M 0 -91 R D 7301 12596 M 0 -91 R D
7526 12596 M 0 -91 R D 7752 12596 M 0 -91 R D 3020 8052 M 0 4544 R D
3020 8968 M 198 0 R D 30 setlinewidth 2582 9073 M -117 -164 R 175 0 R D
2582 9073 M 0 -245 R D 2769 9073 M -35 -12 R -24 -35 R -11 -58 R 0 -35 R
11 -59 R 24 -35 R 35 -11 R 23 0 R 35 11 R 24 35 R 11 59 R 0 35 R -11 58 R
-24 35 R -35 12 R -23 0 R D 20 setlinewidth 3020 9939 M 198 0 R D
30 setlinewidth 2617 10008 M -12 24 R -35 11 R -23 0 R -35 -11 R -24 -35 R
-11 -59 R 0 -58 R 11 -47 R 24 -23 R 35 -12 R 12 0 R 35 12 R 23 23 R 12 35 R
0 12 R -12 35 R -23 23 R -35 12 R -12 0 R -35 -12 R -24 -23 R -11 -35 R D
2769 10043 M -35 -11 R -24 -35 R -11 -59 R 0 -35 R 11 -58 R 24 -35 R
35 -12 R 23 0 R 35 12 R 24 35 R 11 58 R 0 35 R -11 59 R -24 35 R -35 11 R
-23 0 R D 20 setlinewidth 3020 10909 M 198 0 R D 30 setlinewidth
2524 11014 M -36 -12 R -11 -23 R 0 -24 R 11 -23 R 24 -12 R 47 -11 R 35 -12 R
23 -23 R 12 -24 R 0 -35 R -12 -23 R -12 -12 R -35 -12 R -46 0 R -36 12 R
-11 12 R -12 23 R 0 35 R 12 24 R 23 23 R 35 12 R 47 11 R 23 12 R 12 23 R
0 24 R -12 23 R -35 12 R -46 0 R D 2769 11014 M -35 -12 R -24 -35 R
-11 -58 R 0 -35 R 11 -59 R 24 -35 R 35 -12 R 23 0 R 35 12 R 24 35 R 11 59 R
0 35 R -11 58 R -24 35 R -35 12 R -23 0 R D 20 setlinewidth 3020 11880 M
198 0 R D 30 setlinewidth 2266 11937 M 24 12 R 35 35 R 0 -245 R D
2535 11984 M -35 -12 R -23 -35 R -12 -58 R 0 -35 R 12 -59 R 23 -35 R
35 -11 R 24 0 R 35 11 R 23 35 R 12 59 R 0 35 R -12 58 R -23 35 R -35 12 R
-24 0 R D 2769 11984 M -35 -12 R -24 -35 R -11 -58 R 0 -35 R 11 -59 R
24 -35 R 35 -11 R 23 0 R 35 11 R 24 35 R 11 59 R 0 35 R -11 58 R -24 35 R
-35 12 R -23 0 R D 20 setlinewidth 3020 8241 M 99 0 R D 3020 8483 M 99 0 R D
3020 8726 M 99 0 R D 3020 9211 M 99 0 R D 3020 9454 M 99 0 R D 3020 9696 M
99 0 R D 3020 10181 M 99 0 R D 3020 10424 M 99 0 R D 3020 10667 M 99 0 R D
3020 11152 M 99 0 R D 3020 11394 M 99 0 R D 3020 11637 M 99 0 R D
3020 12122 M 99 0 R D 3020 12365 M 99 0 R D 7977 8052 M 0 4544 R D
7977 8968 M -198 0 R D 7977 9939 M -198 0 R D 7977 10909 M -198 0 R D
7977 11880 M -198 0 R D 7977 8241 M -99 0 R D 7977 8483 M -99 0 R D
7977 8726 M -99 0 R D 7977 9211 M -99 0 R D 7977 9454 M -99 0 R D
7977 9696 M -99 0 R D 7977 10181 M -99 0 R D 7977 10424 M -99 0 R D
7977 10667 M -99 0 R D 7977 11152 M -99 0 R D 7977 11394 M -99 0 R D
7977 11637 M -99 0 R D 7977 12122 M -99 0 R D 7977 12365 M -99 0 R D
30 setlinewidth 3121 10676 M 39 -743 R 31 -695 R 23 -523 R 19 -396 R
18 -213 R 15 44 R 15 220 R 16 338 R 21 463 R 28 608 R 42 772 R 67 885 R
116 597 R 112 -478 R 21 -212 R 72 -1012 R 26 -487 R 27 -571 R 22 -493 R
20 -407 R 18 -243 R 17 15 R 15 207 R 16 324 R 20 451 R 28 594 R 41 756 R
64 893 R 109 722 R 176 -781 R 23 -288 R 45 -690 R 30 -563 R 27 -563 R
22 -485 R 20 -393 R 19 -195 R 16 61 R 16 230 R 17 350 R 22 482 R 31 632 R
45 800 R 73 909 R 126 595 R 108 -417 R 25 -221 R 75 -967 R 30 -509 R
30 -598 R 25 -528 R 22 -441 R 20 -306 R 18 -45 R 17 184 R 27 501 R 25 542 R
33 662 R 51 840 R 81 922 R 144 442 R 97 -515 R 30 -292 R 50 -654 R 34 -559 R
32 -601 R 27 -550 R 22 -463 R 21 -353 R 19 -111 R 18 147 R 16 282 R 20 410 R
27 552 R 37 710 R 57 884 R 94 902 R 175 45 R 57 -434 R 22 -233 R 73 -1047 R
29 -523 R 28 -583 R 24 -497 R 21 -403 R 20 -208 R 17 56 R 17 232 R 18 354 R
23 488 R 32 641 R 47 813 R 75 935 R 131 652 R 129 -484 R 25 -224 R
80 -1049 R 29 -503 R 31 -601 R 25 -527 R 22 -440 R 20 -299 R 18 -37 R
18 189 R 17 312 R 21 439 R 28 584 R 41 745 R 64 904 R 107 826 R 211 -659 R D
50 setlinewidth L1 0.000 0.000 0.541 setrgbcolor 3121 10676 M 35 -675 R
31 -690 R 23 -546 R 19 -407 R 17 -257 R 15 -5 R 14 195 R 15 311 R 19 439 R
25 590 R 38 772 R 58 980 R 100 1054 R 34 159 R D 3783 12596 M 16 -32 R
70 -586 R 54 -681 R 62 -1069 R 25 -530 R 25 -559 R 20 -474 R 18 -386 R
17 -202 R 14 46 R 14 217 R 16 334 R 19 465 R 28 622 R 40 814 R 65 1009 R
64 688 R 70 324 R D 4612 12596 M 32 -88 R 95 -906 R 50 -756 R 60 -1171 R
21 -479 R 20 -491 R 19 -395 R 17 -226 R 15 26 R 14 208 R 15 325 R 19 454 R
27 608 R 39 796 R 62 997 R 107 1037 R 37 61 R D 5443 12596 M 140 -1092 R
19 -280 R 57 -990 R 25 -518 R 24 -562 R 20 -476 R 18 -389 R 17 -211 R
15 39 R 14 214 R 16 330 R 19 461 R 27 617 R 40 806 R 63 1005 R 76 789 R
63 257 R D 6279 12596 M 45 -147 R 81 -782 R 56 -811 R 64 -1273 R 20 -461 R
20 -478 R 18 -380 R 17 -192 R 15 55 R 14 220 R 15 337 R 20 469 R 27 627 R
41 819 R 66 1013 R 61 642 R 73 342 R D 7116 12596 M 36 -98 R 93 -887 R
51 -767 R 60 -1178 R 21 -477 R 21 -490 R 18 -394 R 17 -223 R 15 28 R
14 209 R 15 325 R 19 454 R 27 609 R 39 797 R 62 997 R 107 1033 R 30 62 R D
20 setlinewidth L0 0.000 0.000 0.000 setrgbcolor 9577 8052 M 4957 0 R D
10028 8052 M 0 182 R D 30 setlinewidth 10051 7769 M -117 -163 R 176 0 R D
10051 7769 M 0 -245 R D 20 setlinewidth 10929 8052 M 0 182 R D
30 setlinewidth 10987 7734 M -11 24 R -35 11 R -24 0 R -35 -11 R -23 -35 R
-12 -59 R 0 -58 R 12 -47 R 23 -23 R 35 -12 R 12 0 R 35 12 R 23 23 R 12 35 R
0 12 R -12 35 R -23 23 R -35 12 R -12 0 R -35 -12 R -23 -23 R -12 -35 R D
20 setlinewidth 11830 8052 M 0 182 R D 30 setlinewidth 11795 7769 M
-35 -11 R -12 -24 R 0 -23 R 12 -23 R 24 -12 R 46 -12 R 35 -11 R 24 -24 R
11 -23 R 0 -35 R -11 -24 R -12 -11 R -35 -12 R -47 0 R -35 12 R -12 11 R
-11 24 R 0 35 R 11 23 R 24 24 R 35 11 R 47 12 R 23 12 R 12 23 R 0 23 R
-12 24 R -35 11 R -47 0 R D 20 setlinewidth 12732 8052 M 0 182 R D
30 setlinewidth 12556 7723 M 24 11 R 35 35 R 0 -245 R D 12825 7769 M
-35 -11 R -23 -35 R -12 -59 R 0 -35 R 12 -58 R 23 -35 R 35 -12 R 23 0 R
35 12 R 24 35 R 11 58 R 0 35 R -11 59 R -24 35 R -35 11 R -23 0 R D
20 setlinewidth 13633 8052 M 0 182 R D 30 setlinewidth 13458 7723 M 23 11 R
35 35 R 0 -245 R D 13668 7711 M 0 12 R 12 23 R 11 12 R 24 11 R 46 0 R
24 -11 R 11 -12 R 12 -23 R 0 -24 R -12 -23 R -23 -35 R -117 -117 R 164 0 R D
20 setlinewidth 14534 8052 M 0 182 R D 30 setlinewidth 14359 7723 M 23 11 R
35 35 R 0 -245 R D 14674 7769 M -117 -163 R 176 0 R D 14674 7769 M 0 -245 R
D 20 setlinewidth 9577 8052 M 0 91 R D 9802 8052 M 0 91 R D 10253 8052 M
0 91 R D 10478 8052 M 0 91 R D 10704 8052 M 0 91 R D 11154 8052 M 0 91 R D
11380 8052 M 0 91 R D 11605 8052 M 0 91 R D 12056 8052 M 0 91 R D
12281 8052 M 0 91 R D 12506 8052 M 0 91 R D 12957 8052 M 0 91 R D
13182 8052 M 0 91 R D 13407 8052 M 0 91 R D 13858 8052 M 0 91 R D
14083 8052 M 0 91 R D 14309 8052 M 0 91 R D 9577 12596 M 4957 0 R D
10028 12596 M 0 -182 R D 10929 12596 M 0 -182 R D 11830 12596 M 0 -182 R D
12732 12596 M 0 -182 R D 13633 12596 M 0 -182 R D 14534 12596 M 0 -182 R D
9577 12596 M 0 -91 R D 9802 12596 M 0 -91 R D 10253 12596 M 0 -91 R D
10478 12596 M 0 -91 R D 10704 12596 M 0 -91 R D 11154 12596 M 0 -91 R D
11380 12596 M 0 -91 R D 11605 12596 M 0 -91 R D 12056 12596 M 0 -91 R D
12281 12596 M 0 -91 R D 12506 12596 M 0 -91 R D 12957 12596 M 0 -91 R D
13182 12596 M 0 -91 R D 13407 12596 M 0 -91 R D 13858 12596 M 0 -91 R D
14083 12596 M 0 -91 R D 14309 12596 M 0 -91 R D 9577 8052 M 0 4544 R D
9577 8947 M 198 0 R D 30 setlinewidth 9034 8993 M 0 12 R 11 23 R 12 12 R
24 12 R 46 0 R 24 -12 R 11 -12 R 12 -23 R 0 -23 R -12 -24 R -23 -35 R
-117 -117 R 164 0 R D 9326 9052 M -35 -12 R -24 -35 R -11 -58 R 0 -35 R
11 -59 R 24 -35 R 35 -12 R 23 0 R 35 12 R 24 35 R 11 59 R 0 35 R -11 58 R
-24 35 R -35 12 R -23 0 R D 20 setlinewidth 9577 10015 M 198 0 R D
30 setlinewidth 9139 10120 M -117 -164 R 175 0 R D 9139 10120 M 0 -246 R D
9326 10120 M -35 -12 R -24 -35 R -11 -58 R 0 -35 R 11 -59 R 24 -35 R
35 -12 R 23 0 R 35 12 R 24 35 R 11 59 R 0 35 R -11 58 R -24 35 R -35 12 R
-23 0 R D 20 setlinewidth 9577 11083 M 198 0 R D 30 setlinewidth
9174 11153 M -12 23 R -35 12 R -23 0 R -35 -12 R -24 -35 R -11 -59 R 0 -58 R
11 -47 R 24 -23 R 35 -12 R 12 0 R 35 12 R 23 23 R 12 35 R 0 12 R -12 35 R
-23 23 R -35 12 R -12 0 R -35 -12 R -24 -23 R -11 -35 R D 9326 11188 M
-35 -12 R -24 -35 R -11 -59 R 0 -35 R 11 -58 R 24 -35 R 35 -12 R 23 0 R
35 12 R 24 35 R 11 58 R 0 35 R -11 59 R -24 35 R -35 12 R -23 0 R D
20 setlinewidth 9577 12151 M 198 0 R D 30 setlinewidth 9081 12256 M
-36 -12 R -11 -24 R 0 -23 R 11 -23 R 24 -12 R 47 -12 R 35 -11 R 23 -24 R
12 -23 R 0 -35 R -12 -23 R -12 -12 R -35 -12 R -46 0 R -36 12 R -11 12 R
-12 23 R 0 35 R 12 23 R 23 24 R 35 11 R 47 12 R 23 12 R 12 23 R 0 23 R
-12 24 R -35 12 R -46 0 R D 9326 12256 M -35 -12 R -24 -35 R -11 -59 R
0 -35 R 11 -58 R 24 -35 R 35 -12 R 23 0 R 35 12 R 24 35 R 11 58 R 0 35 R
-11 59 R -24 35 R -35 12 R -23 0 R D 20 setlinewidth 9577 8146 M 99 0 R D
9577 8413 M 99 0 R D 9577 8680 M 99 0 R D 9577 9214 M 99 0 R D 9577 9481 M
99 0 R D 9577 9748 M 99 0 R D 9577 10282 M 99 0 R D 9577 10549 M 99 0 R D
9577 10816 M 99 0 R D 9577 11350 M 99 0 R D 9577 11617 M 99 0 R D
9577 11884 M 99 0 R D 9577 12418 M 99 0 R D 14534 8052 M 0 4544 R D
14534 8947 M -198 0 R D 14534 10015 M -198 0 R D 14534 11083 M -198 0 R D
14534 12151 M -198 0 R D 14534 8146 M -99 0 R D 14534 8413 M -99 0 R D
14534 8680 M -99 0 R D 14534 9214 M -99 0 R D 14534 9481 M -99 0 R D
14534 9748 M -99 0 R D 14534 10282 M -99 0 R D 14534 10549 M -99 0 R D
14534 10816 M -99 0 R D 14534 11350 M -99 0 R D 14534 11617 M -99 0 R D
14534 11884 M -99 0 R D 14534 12418 M -99 0 R D 30 setlinewidth 9678 10638 M
26 -575 R 19 -503 R 14 -394 R 9 -310 R 8 -243 R 5 -190 R 4 -149 R 3 -105 R
3 -74 R 3 -26 R 2 26 R 3 57 R 2 88 R 4 129 R 5 192 R 9 289 R 14 445 R
25 689 R 49 1015 R 93 1059 R 130 -54 R 101 -1328 R 11 -234 R 39 -990 R
12 -368 R 3 -102 R 13 -445 R 3 -103 R 4 -139 R 3 -107 R 3 -82 R 2 -40 R
3 15 R 2 52 R 6 222 R 7 227 R 8 293 R 15 466 R 26 713 R 51 1058 R 112 1053 R
131 -526 R 80 -1324 R 20 -501 R 19 -548 R 6 -161 R 7 -251 R 5 -160 R
5 -171 R 4 -145 R 3 -123 R 3 -100 R 3 -69 R 3 -18 R 2 31 R 6 180 R 6 205 R
7 240 R 11 381 R 20 587 R 37 891 R 85 1256 R 126 364 R 112 -1083 R 12 -207 R
60 -1372 R 8 -223 R 4 -125 R 16 -497 R 3 -104 R 7 -251 R 3 -107 R 3 -95 R
3 -60 R 2 -4 R 3 40 R 2 69 R 3 103 R 5 153 R 6 228 R 11 346 R 18 538 R
32 821 R 69 1189 R 126 778 R 119 -703 R 67 -1093 R 30 -680 R 14 -396 R
7 -202 R 7 -191 R 5 -181 R 6 -187 R 5 -169 R 4 -150 R 4 -125 R 3 -105 R
3 -69 R 3 -16 R 2 34 R 3 64 R 3 96 R 4 143 R 6 212 R 10 322 R 16 497 R
30 764 R 59 1127 R 122 1039 R 144 -614 R 79 -1245 R 29 -692 R 15 -415 R
7 -206 R 5 -152 R 8 -247 R 5 -164 R 5 -165 R 4 -138 R 3 -117 R 3 -92 R
3 -48 R 3 11 R 2 54 R 3 83 R 4 112 R 5 178 R 8 265 R 12 405 R 23 628 R
42 953 R 103 1360 R 137 201 R 115 -1208 R 32 -598 R 27 -669 R 14 -386 R
7 -197 R 6 -214 R 5 -161 R 6 -185 R 4 -166 R 4 -149 R 4 -125 R 3 -102 R
3 -76 R 2 -25 R 3 26 R 2 56 R 2 87 R 4 118 R 5 188 R 8 282 R 13 436 R
24 674 R 46 1008 R 114 1241 R 132 -379 R 109 -1916 R 23 -659 R 4 -138 R
11 -342 R 3 -133 R 5 -165 R 4 -132 R 3 -113 R 3 -86 R 2 -49 R 3 4 R 2 45 R
2 72 R 3 106 R 5 158 R 6 238 R 11 362 R 19 562 R 34 853 R 76 1204 R
121 475 R 108 -965 R 15 -247 R 56 -1273 R 18 -569 R 4 -137 R 7 -246 R
4 -148 R 5 -153 R 3 -126 R 3 -105 R 3 -80 R 2 -38 R 3 19 R 2 54 R 2 82 R
4 121 R 5 180 R 7 271 R 12 418 R 23 647 R 42 966 R 109 1225 R 125 -378 R D
50 setlinewidth L1 0.000 0.000 0.541 setrgbcolor 9678 10638 M 23 -511 R
20 -503 R 14 -405 R 9 -320 R 8 -252 R 5 -197 R 5 -154 R 3 -111 R 3 -81 R
2 -38 R 3 16 R 2 54 R 2 81 R 4 120 R 5 177 R 7 267 R 13 408 R 22 633 R
42 964 R 82 1138 R 125 402 R 114 -957 R 26 -431 R 29 -572 R 10 -228 R
28 -748 R 5 -157 R 11 -369 R 4 -123 R 5 -185 R 4 -145 R 4 -127 R 3 -105 R
3 -79 R 2 -35 R 3 18 R 2 53 R 2 83 R 4 120 R 5 179 R 7 269 R 13 412 R
22 639 R 44 972 R 95 1240 R 108 266 R 110 -898 R 38 -625 R 19 -384 R
12 -279 R 15 -372 R 7 -187 R 16 -496 R 3 -105 R 12 -390 R 3 -112 R 4 -144 R
3 -112 R 3 -88 R 2 -54 R 3 -1 R 2 41 R 2 69 R 3 102 R 4 150 R 7 225 R
10 342 R 17 529 R 32 813 R 71 1219 R 116 783 R 104 -415 R 106 -1627 R
26 -644 R 13 -395 R 7 -193 R 4 -155 R 6 -179 R 4 -167 R 5 -150 R 3 -127 R
3 -107 R 3 -80 R 2 -38 R 3 16 R 2 53 R 3 80 R 3 119 R 5 176 R 7 264 R
13 406 R 22 628 R 42 957 R 97 1277 R 115 248 R 113 -1022 R 29 -498 R
19 -404 R 10 -225 R 29 -778 R 5 -155 R 11 -352 R 4 -127 R 5 -179 R 4 -145 R
4 -126 R 3 -112 R 3 -74 R 2 -29 R 2 24 R 3 54 R 2 84 R 4 124 R 5 180 R
7 275 R 13 422 R 24 654 R 45 993 R 98 1217 R 129 105 R 117 -1349 R 28 -580 R
25 -628 R 14 -418 R 6 -187 R 5 -164 R 5 -175 R 5 -163 R 4 -145 R 3 -123 R
3 -101 R 3 -73 R 2 -26 R 3 25 R 2 54 R 2 85 R 4 125 R 5 186 R 8 279 R
13 429 R 24 665 R 47 1008 R 98 1194 R 131 59 R 119 -1464 R 16 -330 R
8 -180 R 39 -1082 R 9 -267 R 4 -139 R 5 -173 R 4 -144 R 3 -124 R 3 -102 R
3 -76 R 2 -28 R 3 24 R 2 54 R 2 85 R 4 113 R 5 181 R 7 269 R 13 415 R
22 642 R 44 976 R 98 1244 R 114 211 R 106 -947 R 36 -615 R 15 -304 R
16 -373 R 8 -203 R 22 -636 R 5 -148 R 7 -263 R 5 -149 R 4 -162 R 4 -137 R
3 -115 R 3 -92 R 3 -61 R 2 -5 R 3 39 R 2 66 R 3 99 R 4 146 R 6 217 R
10 329 R 16 511 R 30 786 R 65 1179 R 115 885 R 102 -286 R 95 -1237 R
26 -563 R 25 -628 R 15 -433 R 5 -183 R 5 -165 R 5 -173 R 5 -160 R 4 -140 R
3 -118 R 3 -95 R 3 -65 R 2 -13 R 2 32 R 3 61 R 2 93 R 4 136 R 6 203 R
9 306 R 15 474 R 27 730 R 56 1101 R 93 983 R D 20 setlinewidth L0
0.000 0.000 0.000 setrgbcolor 3020 2108 M 4957 0 R D 3471 2108 M 0 182 R D
30 setlinewidth 3494 1825 M -117 -163 R 176 0 R D 3494 1825 M 0 -245 R D
20 setlinewidth 4372 2108 M 0 182 R D 30 setlinewidth 4430 1790 M -11 24 R
-35 11 R -24 0 R -35 -11 R -23 -35 R -12 -59 R 0 -58 R 12 -47 R 23 -23 R
35 -12 R 12 0 R 35 12 R 23 23 R 12 35 R 0 12 R -12 35 R -23 23 R -35 12 R
-12 0 R -35 -12 R -23 -23 R -12 -35 R D 20 setlinewidth 5273 2108 M 0 182 R
D 30 setlinewidth 5238 1825 M -35 -11 R -12 -24 R 0 -23 R 12 -23 R 24 -12 R
46 -12 R 35 -11 R 24 -24 R 11 -23 R 0 -35 R -11 -24 R -12 -11 R -35 -12 R
-47 0 R -35 12 R -12 11 R -11 24 R 0 35 R 11 23 R 24 24 R 35 11 R 47 12 R
23 12 R 12 23 R 0 23 R -12 24 R -35 11 R -47 0 R D 20 setlinewidth
6175 2108 M 0 182 R D 30 setlinewidth 5999 1779 M 24 11 R 35 35 R 0 -245 R D
6268 1825 M -35 -11 R -23 -35 R -12 -59 R 0 -35 R 12 -58 R 23 -35 R 35 -12 R
23 0 R 35 12 R 24 35 R 11 58 R 0 35 R -11 59 R -24 35 R -35 11 R -23 0 R D
20 setlinewidth 7076 2108 M 0 182 R D 30 setlinewidth 6901 1779 M 23 11 R
35 35 R 0 -245 R D 7111 1767 M 0 12 R 12 23 R 11 12 R 24 11 R 46 0 R
24 -11 R 11 -12 R 12 -23 R 0 -24 R -12 -23 R -23 -35 R -117 -117 R 164 0 R D
20 setlinewidth 7977 2108 M 0 182 R D 30 setlinewidth 7802 1779 M 23 11 R
35 35 R 0 -245 R D 8117 1825 M -117 -163 R 176 0 R D 8117 1825 M 0 -245 R D
20 setlinewidth 3020 2108 M 0 91 R D 3245 2108 M 0 91 R D 3696 2108 M 0 91 R
D 3921 2108 M 0 91 R D 4147 2108 M 0 91 R D 4597 2108 M 0 91 R D 4823 2108 M
0 91 R D 5048 2108 M 0 91 R D 5499 2108 M 0 91 R D 5724 2108 M 0 91 R D
5949 2108 M 0 91 R D 6400 2108 M 0 91 R D 6625 2108 M 0 91 R D 6850 2108 M
0 91 R D 7301 2108 M 0 91 R D 7526 2108 M 0 91 R D 7752 2108 M 0 91 R D
3020 6652 M 4957 0 R D 3471 6652 M 0 -182 R D 4372 6652 M 0 -182 R D
5273 6652 M 0 -182 R D 6175 6652 M 0 -182 R D 7076 6652 M 0 -182 R D
7977 6652 M 0 -182 R D 3020 6652 M 0 -91 R D 3245 6652 M 0 -91 R D
3696 6652 M 0 -91 R D 3921 6652 M 0 -91 R D 4147 6652 M 0 -91 R D
4597 6652 M 0 -91 R D 4823 6652 M 0 -91 R D 5048 6652 M 0 -91 R D
5499 6652 M 0 -91 R D 5724 6652 M 0 -91 R D 5949 6652 M 0 -91 R D
6400 6652 M 0 -91 R D 6625 6652 M 0 -91 R D 6850 6652 M 0 -91 R D
7301 6652 M 0 -91 R D 7526 6652 M 0 -91 R D 7752 6652 M 0 -91 R D
3020 2108 M 0 4544 R D 3020 2913 M 198 0 R D 30 setlinewidth 2477 2959 M
0 12 R 11 23 R 12 12 R 24 12 R 46 0 R 24 -12 R 11 -12 R 12 -23 R 0 -23 R
-12 -24 R -23 -35 R -117 -117 R 164 0 R D 2769 3018 M -35 -12 R -24 -35 R
-11 -59 R 0 -35 R 11 -58 R 24 -35 R 35 -12 R 23 0 R 35 12 R 24 35 R 11 58 R
0 35 R -11 59 R -24 35 R -35 12 R -23 0 R D 20 setlinewidth 3020 4174 M
198 0 R D 30 setlinewidth 2582 4278 M -117 -163 R 175 0 R D 2582 4278 M
0 -245 R D 2769 4278 M -35 -12 R -24 -35 R -11 -58 R 0 -35 R 11 -58 R
24 -36 R 35 -11 R 23 0 R 35 11 R 24 36 R 11 58 R 0 35 R -11 58 R -24 35 R
-35 12 R -23 0 R D 20 setlinewidth 3020 5434 M 198 0 R D 30 setlinewidth
2617 5504 M -12 23 R -35 12 R -23 0 R -35 -12 R -24 -35 R -11 -58 R 0 -59 R
11 -47 R 24 -23 R 35 -12 R 12 0 R 35 12 R 23 23 R 12 35 R 0 12 R -12 35 R
-23 24 R -35 11 R -12 0 R -35 -11 R -24 -24 R -11 -35 R D 2769 5539 M
-35 -12 R -24 -35 R -11 -58 R 0 -35 R 11 -59 R 24 -35 R 35 -12 R 23 0 R
35 12 R 24 35 R 11 59 R 0 35 R -11 58 R -24 35 R -35 12 R -23 0 R D
20 setlinewidth 3020 2283 M 99 0 R D 3020 2598 M 99 0 R D 3020 3228 M 99 0 R
D 3020 3543 M 99 0 R D 3020 3858 M 99 0 R D 3020 4489 M 99 0 R D 3020 4804 M
99 0 R D 3020 5119 M 99 0 R D 3020 5749 M 99 0 R D 3020 6064 M 99 0 R D
3020 6380 M 99 0 R D 7977 2108 M 0 4544 R D 7977 2913 M -198 0 R D
7977 4174 M -198 0 R D 7977 5434 M -198 0 R D 7977 2283 M -99 0 R D
7977 2598 M -99 0 R D 7977 3228 M -99 0 R D 7977 3543 M -99 0 R D
7977 3858 M -99 0 R D 7977 4489 M -99 0 R D 7977 4804 M -99 0 R D
7977 5119 M -99 0 R D 7977 5749 M -99 0 R D 7977 6064 M -99 0 R D
7977 6380 M -99 0 R D 30 setlinewidth 3121 4892 M 36 -764 R 25 -603 R
17 -466 R 12 -345 R 11 -264 R 10 -156 R 9 7 R 8 131 R 9 208 R 11 298 R
16 414 R 22 562 R 37 766 R 63 951 R 125 783 R 165 -986 R 17 -234 R
57 -1034 R 11 -263 R 31 -753 R 11 -303 R 12 -292 R 10 -213 R 10 -68 R 8 83 R
9 168 R 18 473 R 18 451 R 25 597 R 42 808 R 73 968 R 164 324 R 94 -979 R
42 -757 R 9 -196 R 32 -772 R 11 -315 R 13 -351 R 10 -272 R 9 -204 R 9 -70 R
8 76 R 7 155 R 9 235 R 12 330 R 17 454 R 26 620 R 43 808 R 77 862 R
140 -94 R 24 -248 R 24 -343 R 22 -418 R 10 -208 R 32 -867 R 8 -250 R
11 -365 R 9 -295 R 7 -250 R 7 -196 R 6 -96 R 5 29 R 6 120 R 6 183 R 7 262 R
11 370 R 16 514 R 27 711 R 45 883 R 90 650 R 124 -1319 R 14 -341 R 9 -242 R
16 -449 R 10 -338 R 10 -327 R 8 -277 R 7 -230 R 7 -161 R 6 -38 R 5 79 R
6 146 R 6 218 R 9 308 R 13 433 R 20 603 R 34 807 R 62 889 R 120 -65 R
36 -483 R 26 -507 R 14 -316 R 11 -282 R 12 -356 R 12 -360 R 10 -333 R
8 -290 R 8 -241 R 7 -182 R 6 -70 R 5 58 R 6 132 R 6 200 R 8 281 R 12 400 R
18 557 R 30 760 R 53 900 R 115 329 R 66 -786 R 33 -682 R 8 -196 R 25 -731 R
9 -277 R 9 -323 R 8 -261 R 7 -214 R 7 -130 R 5 -3 R 6 100 R 5 164 R 7 239 R
10 337 R 15 472 R 23 656 R 40 851 R 74 830 R 119 -498 R 17 -263 R 30 -611 R
9 -192 R 30 -837 R 8 -259 R 10 -334 R 8 -269 R 7 -223 R 6 -149 R 6 -22 R
5 87 R 6 154 R 7 225 R 9 319 R 14 446 R 21 622 R 37 822 R 66 869 R
117 -199 R 31 -425 R 35 -682 R 12 -301 R 12 -319 R 12 -367 R 11 -342 R
9 -308 R 7 -258 R 7 -211 R 7 -127 R 5 2 R 6 101 R 5 165 R 7 239 R 10 337 R
15 472 R 23 656 R 40 848 R 75 814 R 129 -707 R 11 -202 R 47 -1070 R 5 -163 R
19 -605 R 8 -269 R 8 -266 R 7 -214 R 6 -135 R 6 -9 R 5 94 R 6 159 R 6 230 R
10 326 R 14 456 R 22 635 R 38 832 R 69 847 R 116 -332 R D 50 setlinewidth L1
0.000 0.000 0.541 setrgbcolor 3121 4892 M 33 -684 R 24 -599 R 18 -479 R
13 -367 R 10 -274 R 10 -187 R 8 -31 R 8 106 R 8 185 R 10 269 R 14 375 R
19 516 R 32 709 R 52 925 R 77 845 R 87 355 R 123 -478 R 61 -711 R 22 -344 R
21 -384 R 15 -319 R 18 -396 R 17 -428 R 14 -377 R 12 -332 R 10 -277 R
10 -203 R 8 -62 R 8 82 R 8 164 R 9 243 R 13 341 R 17 471 R 28 646 R 45 858 R
83 976 R 129 317 R 69 -389 R 89 -1155 R 15 -279 R 24 -520 R 15 -369 R
15 -391 R 13 -346 R 11 -292 R 9 -236 R 9 -125 R 9 34 R 8 146 R 8 215 R
11 305 R 16 422 R 23 578 R 39 784 R 67 953 R 127 625 R 70 -238 R 71 -698 R
15 -210 R 63 -1180 R 9 -201 R 19 -489 R 12 -337 R 11 -302 R 10 -247 R
9 -154 R 8 -4 R 8 114 R 8 186 R 9 269 R 14 373 R 20 513 R 32 703 R 54 901 R
104 879 R 98 -48 R 113 -1132 R 22 -373 R 13 -241 R 28 -625 R 14 -341 R
14 -372 R 11 -316 R 10 -264 R 9 -191 R 8 -53 R 8 85 R 8 162 R 9 239 R
12 336 R 17 463 R 27 636 R 46 840 R 82 943 R 122 246 R 134 -1267 R 18 -330 R
15 -290 R 17 -374 R 16 -388 R 15 -374 R 12 -332 R 10 -277 R 9 -220 R 9 -99 R
8 52 R 8 148 R 8 219 R 12 310 R 15 427 R 25 588 R 39 791 R 70 943 R
124 508 R 135 -1005 R 16 -237 R 47 -873 R 11 -251 R 17 -416 R 13 -360 R
12 -320 R 10 -265 R 9 -198 R 8 -64 R 8 76 R 8 155 R 8 228 R 12 324 R
17 447 R 26 615 R 42 819 R 77 943 R 135 308 R 128 -1232 R 15 -262 R
31 -619 R 14 -326 R 16 -396 R 13 -349 R 10 -300 R 10 -247 R 9 -160 R 8 -14 R
8 107 R 7 180 R 10 259 R 13 362 R 19 497 R 31 682 R 51 880 R 98 890 R
94 37 R 24 -116 R D 20 setlinewidth L0 0.000 0.000 0.000 setrgbcolor
9577 2108 M 4957 0 R D 10028 2108 M 0 182 R D 30 setlinewidth 10051 1825 M
-117 -163 R 176 0 R D 10051 1825 M 0 -245 R D 20 setlinewidth 10929 2108 M
0 182 R D 30 setlinewidth 10987 1790 M -11 24 R -35 11 R -24 0 R -35 -11 R
-23 -35 R -12 -59 R 0 -58 R 12 -47 R 23 -23 R 35 -12 R 12 0 R 35 12 R
23 23 R 12 35 R 0 12 R -12 35 R -23 23 R -35 12 R -12 0 R -35 -12 R
-23 -23 R -12 -35 R D 20 setlinewidth 11830 2108 M 0 182 R D 30 setlinewidth
11795 1825 M -35 -11 R -12 -24 R 0 -23 R 12 -23 R 24 -12 R 46 -12 R 35 -11 R
24 -24 R 11 -23 R 0 -35 R -11 -24 R -12 -11 R -35 -12 R -47 0 R -35 12 R
-12 11 R -11 24 R 0 35 R 11 23 R 24 24 R 35 11 R 47 12 R 23 12 R 12 23 R
0 23 R -12 24 R -35 11 R -47 0 R D 20 setlinewidth 12732 2108 M 0 182 R D
30 setlinewidth 12556 1779 M 24 11 R 35 35 R 0 -245 R D 12825 1825 M
-35 -11 R -23 -35 R -12 -59 R 0 -35 R 12 -58 R 23 -35 R 35 -12 R 23 0 R
35 12 R 24 35 R 11 58 R 0 35 R -11 59 R -24 35 R -35 11 R -23 0 R D
20 setlinewidth 13633 2108 M 0 182 R D 30 setlinewidth 13458 1779 M 23 11 R
35 35 R 0 -245 R D 13668 1767 M 0 12 R 12 23 R 11 12 R 24 11 R 46 0 R
24 -11 R 11 -12 R 12 -23 R 0 -24 R -12 -23 R -23 -35 R -117 -117 R 164 0 R D
20 setlinewidth 14534 2108 M 0 182 R D 30 setlinewidth 14359 1779 M 23 11 R
35 35 R 0 -245 R D 14674 1825 M -117 -163 R 176 0 R D 14674 1825 M 0 -245 R
D 20 setlinewidth 9577 2108 M 0 91 R D 9802 2108 M 0 91 R D 10253 2108 M
0 91 R D 10478 2108 M 0 91 R D 10704 2108 M 0 91 R D 11154 2108 M 0 91 R D
11380 2108 M 0 91 R D 11605 2108 M 0 91 R D 12056 2108 M 0 91 R D
12281 2108 M 0 91 R D 12506 2108 M 0 91 R D 12957 2108 M 0 91 R D
13182 2108 M 0 91 R D 13407 2108 M 0 91 R D 13858 2108 M 0 91 R D
14083 2108 M 0 91 R D 14309 2108 M 0 91 R D 9577 6652 M 4957 0 R D
10028 6652 M 0 -182 R D 10929 6652 M 0 -182 R D 11830 6652 M 0 -182 R D
12732 6652 M 0 -182 R D 13633 6652 M 0 -182 R D 14534 6652 M 0 -182 R D
9577 6652 M 0 -91 R D 9802 6652 M 0 -91 R D 10253 6652 M 0 -91 R D
10478 6652 M 0 -91 R D 10704 6652 M 0 -91 R D 11154 6652 M 0 -91 R D
11380 6652 M 0 -91 R D 11605 6652 M 0 -91 R D 12056 6652 M 0 -91 R D
12281 6652 M 0 -91 R D 12506 6652 M 0 -91 R D 12957 6652 M 0 -91 R D
13182 6652 M 0 -91 R D 13407 6652 M 0 -91 R D 13858 6652 M 0 -91 R D
14083 6652 M 0 -91 R D 14309 6652 M 0 -91 R D 9577 2108 M 0 4544 R D
9577 2554 M 198 0 R D 30 setlinewidth 9057 2612 M 24 12 R 35 35 R 0 -245 R D
9326 2659 M -35 -12 R -24 -35 R -11 -58 R 0 -35 R 11 -59 R 24 -35 R 35 -11 R
23 0 R 35 11 R 24 35 R 11 59 R 0 35 R -11 58 R -24 35 R -35 12 R -23 0 R D
20 setlinewidth 9577 3347 M 198 0 R D 30 setlinewidth 9034 3393 M 0 12 R
11 23 R 12 12 R 24 12 R 46 0 R 24 -12 R 11 -12 R 12 -23 R 0 -24 R -12 -23 R
-23 -35 R -117 -117 R 164 0 R D 9326 3452 M -35 -12 R -24 -35 R -11 -59 R
0 -35 R 11 -58 R 24 -35 R 35 -12 R 23 0 R 35 12 R 24 35 R 11 58 R 0 35 R
-11 59 R -24 35 R -35 12 R -23 0 R D 20 setlinewidth 9577 4140 M 198 0 R D
30 setlinewidth 9045 4244 M 129 0 R -70 -93 R 35 0 R 23 -12 R 12 -12 R
12 -35 R 0 -23 R -12 -35 R -23 -23 R -35 -12 R -35 0 R -36 12 R -11 11 R
-12 24 R D 9326 4244 M -35 -11 R -24 -36 R -11 -58 R 0 -35 R 11 -58 R
24 -35 R 35 -12 R 23 0 R 35 12 R 24 35 R 11 58 R 0 35 R -11 58 R -24 36 R
-35 11 R -23 0 R D 20 setlinewidth 9577 4932 M 198 0 R D 30 setlinewidth
9139 5037 M -117 -164 R 175 0 R D 9139 5037 M 0 -246 R D 9326 5037 M
-35 -12 R -24 -35 R -11 -58 R 0 -35 R 11 -59 R 24 -35 R 35 -12 R 23 0 R
35 12 R 24 35 R 11 59 R 0 35 R -11 58 R -24 35 R -35 12 R -23 0 R D
20 setlinewidth 9577 5725 M 198 0 R D 30 setlinewidth 9162 5829 M -117 0 R
-11 -105 R 11 12 R 36 12 R 35 0 R 35 -12 R 23 -23 R 12 -35 R 0 -24 R
-12 -35 R -23 -23 R -35 -12 R -35 0 R -36 12 R -11 11 R -12 24 R D
9326 5829 M -35 -11 R -24 -35 R -11 -59 R 0 -35 R 11 -58 R 24 -35 R 35 -12 R
23 0 R 35 12 R 24 35 R 11 58 R 0 35 R -11 59 R -24 35 R -35 11 R -23 0 R D
20 setlinewidth 9577 6518 M 198 0 R D 30 setlinewidth 9174 6587 M -12 23 R
-35 12 R -23 0 R -35 -12 R -24 -35 R -11 -58 R 0 -58 R 11 -47 R 24 -24 R
35 -11 R 12 0 R 35 11 R 23 24 R 12 35 R 0 12 R -12 35 R -23 23 R -35 12 R
-12 0 R -35 -12 R -24 -23 R -11 -35 R D 9326 6622 M -35 -12 R -24 -35 R
-11 -58 R 0 -35 R 11 -59 R 24 -35 R 35 -11 R 23 0 R 35 11 R 24 35 R 11 59 R
0 35 R -11 58 R -24 35 R -35 12 R -23 0 R D 20 setlinewidth 9577 2158 M
99 0 R D 9577 2237 M 99 0 R D 9577 2317 M 99 0 R D 9577 2396 M 99 0 R D
9577 2475 M 99 0 R D 9577 2634 M 99 0 R D 9577 2713 M 99 0 R D 9577 2792 M
99 0 R D 9577 2871 M 99 0 R D 9577 2951 M 99 0 R D 9577 3030 M 99 0 R D
9577 3109 M 99 0 R D 9577 3188 M 99 0 R D 9577 3268 M 99 0 R D 9577 3426 M
99 0 R D 9577 3506 M 99 0 R D 9577 3585 M 99 0 R D 9577 3664 M 99 0 R D
9577 3743 M 99 0 R D 9577 3823 M 99 0 R D 9577 3902 M 99 0 R D 9577 3981 M
99 0 R D 9577 4060 M 99 0 R D 9577 4219 M 99 0 R D 9577 4298 M 99 0 R D
9577 4377 M 99 0 R D 9577 4457 M 99 0 R D 9577 4536 M 99 0 R D 9577 4615 M
99 0 R D 9577 4694 M 99 0 R D 9577 4774 M 99 0 R D 9577 4853 M 99 0 R D
9577 5012 M 99 0 R D 9577 5091 M 99 0 R D 9577 5170 M 99 0 R D 9577 5249 M
99 0 R D 9577 5329 M 99 0 R D 9577 5408 M 99 0 R D 9577 5487 M 99 0 R D
9577 5566 M 99 0 R D 9577 5646 M 99 0 R D 9577 5804 M 99 0 R D 9577 5883 M
99 0 R D 9577 5963 M 99 0 R D 9577 6042 M 99 0 R D 9577 6121 M 99 0 R D
9577 6200 M 99 0 R D 9577 6280 M 99 0 R D 9577 6359 M 99 0 R D 9577 6438 M
99 0 R D 9577 6597 M 99 0 R D 14534 2108 M 0 4544 R D 14534 2554 M -198 0 R
D 14534 3347 M -198 0 R D 14534 4140 M -198 0 R D 14534 4932 M -198 0 R D
14534 5725 M -198 0 R D 14534 6518 M -198 0 R D 14534 2158 M -99 0 R D
14534 2237 M -99 0 R D 14534 2317 M -99 0 R D 14534 2396 M -99 0 R D
14534 2475 M -99 0 R D 14534 2634 M -99 0 R D 14534 2713 M -99 0 R D
14534 2792 M -99 0 R D 14534 2871 M -99 0 R D 14534 2951 M -99 0 R D
14534 3030 M -99 0 R D 14534 3109 M -99 0 R D 14534 3188 M -99 0 R D
14534 3268 M -99 0 R D 14534 3426 M -99 0 R D 14534 3506 M -99 0 R D
14534 3585 M -99 0 R D 14534 3664 M -99 0 R D 14534 3743 M -99 0 R D
14534 3823 M -99 0 R D 14534 3902 M -99 0 R D 14534 3981 M -99 0 R D
14534 4060 M -99 0 R D 14534 4219 M -99 0 R D 14534 4298 M -99 0 R D
14534 4377 M -99 0 R D 14534 4457 M -99 0 R D 14534 4536 M -99 0 R D
14534 4615 M -99 0 R D 14534 4694 M -99 0 R D 14534 4774 M -99 0 R D
14534 4853 M -99 0 R D 14534 5012 M -99 0 R D 14534 5091 M -99 0 R D
14534 5170 M -99 0 R D 14534 5249 M -99 0 R D 14534 5329 M -99 0 R D
14534 5408 M -99 0 R D 14534 5487 M -99 0 R D 14534 5566 M -99 0 R D
14534 5646 M -99 0 R D 14534 5804 M -99 0 R D 14534 5883 M -99 0 R D
14534 5963 M -99 0 R D 14534 6042 M -99 0 R D 14534 6121 M -99 0 R D
14534 6200 M -99 0 R D 14534 6280 M -99 0 R D 14534 6359 M -99 0 R D
14534 6438 M -99 0 R D 14534 6597 M -99 0 R D 30 setlinewidth 9678 5857 M
43 -1092 R 25 -753 R 18 -578 R 13 -408 R 12 -310 R 10 -120 R 11 94 R 9 209 R
11 310 R 15 426 R 21 566 R 32 741 R 53 871 R 98 606 R 147 -1352 R 13 -281 R
23 -546 R 15 -408 R 14 -421 R 12 -369 R 10 -308 R 9 -242 R 8 -108 R 8 60 R
14 325 R 13 381 R 15 421 R 23 574 R 38 700 R 67 608 R 132 -971 R 17 -354 R
13 -301 R 14 -376 R 11 -344 R 10 -305 R 9 -254 R 8 -192 R 7 -69 R 7 65 R
12 307 R 12 346 R 14 388 R 22 528 R 36 639 R 64 513 R 91 -543 R 12 -192 R
27 -537 R 11 -273 R 13 -339 R 10 -302 R 9 -270 R 8 -212 R 7 -141 R 6 -16 R
6 88 R 7 150 R 7 216 R 10 298 R 15 400 R 24 525 R 40 585 R 74 209 R
38 -329 R 28 -444 R 7 -141 R 25 -605 R 9 -248 R 10 -272 R 7 -220 R 8 -172 R
6 -71 R 6 50 R 6 120 R 7 180 R 8 241 R 12 341 R 19 452 R 30 561 R 53 485 R
104 -766 R 15 -295 R 11 -261 R 11 -304 R 10 -271 R 8 -232 R 7 -193 R
7 -109 R 6 7 R 5 95 R 6 151 R 8 215 R 10 297 R 16 398 R 24 519 R 42 554 R
81 28 R 21 -215 R 16 -227 R 10 -175 R 19 -407 R 11 -271 R 11 -290 R 9 -253 R
7 -211 R 7 -164 R 7 -68 R 6 48 R 5 115 R 7 173 R 8 243 R 12 331 R 18 443 R
30 548 R 53 472 R 103 -770 R 12 -238 R 9 -222 R 10 -280 R 9 -262 R 7 -233 R
6 -195 R 6 -151 R 5 -67 R 5 40 R 4 105 R 6 157 R 6 220 R 10 304 R 15 408 R
24 507 R 42 435 R 70 -474 R 16 -310 R 8 -197 R 10 -278 R 9 -261 R 7 -234 R
6 -195 R 6 -155 R 5 -73 R 5 35 R 5 103 R 5 153 R 6 216 R 10 298 R 14 401 R
24 502 R 41 449 R 79 -580 R 15 -330 R 8 -216 R 10 -279 R 8 -244 R 6 -211 R
6 -173 R 6 -110 R 4 -8 R 5 76 R 5 127 R 5 184 R 8 256 R 12 347 R 19 456 R
31 505 R 56 140 R 15 -125 R 17 -235 R 7 -119 R 27 -615 R 6 -200 R 9 -261 R
7 -214 R 5 -179 R 6 -125 R 5 -27 R 4 65 R 5 117 R 5 172 R 8 240 R 11 328 R
16 435 R 28 508 R 50 287 R 28 -174 R 26 -383 R 9 -210 R 10 -237 R 9 -266 R
8 -254 R 7 -226 R 6 -190 R 5 -151 R 4 -75 R 5 26 R 4 96 R 5 143 R 6 204 R
9 283 R 12 381 R 21 487 R 36 466 R 71 -371 R 10 -203 R 8 -169 R 11 -286 R
8 -256 R 8 -246 R 6 -213 R 6 -178 R 5 -129 R 4 -38 R 5 54 R 4 107 R 5 159 R
6 224 R 10 309 R 14 413 R 25 500 R 43 357 R 39 -234 R 15 -231 R 6 -122 R
23 -561 R 6 -199 R 8 -252 R 6 -206 R 5 -172 R 5 -121 R 5 -26 R 4 61 R
4 111 R 5 165 R 7 230 R 10 316 R 15 423 R 25 501 R 46 314 R 30 -189 R
24 -388 R 10 -210 R 9 -238 R 9 -260 R 7 -246 R 7 -217 R 5 -181 R 5 -140 R
5 -57 R 4 40 R 4 99 R 5 148 R 6 209 R 9 289 R 13 389 R 22 487 R 38 422 R
66 -483 R 14 -309 R 7 -189 R 9 -268 R 8 -243 R 6 -217 R 5 -180 R 5 -139 R
5 -56 R 4 42 R 4 98 R 5 149 R 6 209 R 9 290 R 13 389 R 22 487 R 38 420 R
65 -465 R D 50 setlinewidth L1 0.000 0.000 0.541 setrgbcolor 9678 5857 M
37 -924 R 25 -762 R 19 -604 R 13 -440 R 12 -343 R 10 -192 R 11 33 R 9 193 R
11 281 R 13 390 R 18 525 R 28 693 R 45 861 R 79 803 R 134 -499 R 25 -349 R
14 -242 R 42 -917 R 11 -312 R 16 -448 R 12 -391 R 10 -338 R 10 -278 R
8 -181 R 8 -18 R 7 116 R 8 192 R 9 275 R 13 377 R 18 503 R 29 661 R 49 749 R
97 309 R 71 -713 R 14 -241 R 24 -510 R 12 -315 R 14 -375 R 11 -343 R
10 -302 R 8 -250 R 8 -182 R 6 -51 R 7 78 R 6 149 R 8 221 R 10 306 R 14 415 R
23 553 R 37 675 R 68 545 R 114 -929 R 17 -347 R 11 -263 R 13 -348 R
11 -319 R 9 -285 R 8 -237 R 7 -184 R 7 -75 R 6 54 R 6 129 R 6 193 R 9 269 R
13 368 R 19 494 R 31 626 R 56 600 R 115 -591 R 10 -185 R 26 -548 R 10 -264 R
11 -324 R 10 -284 R 8 -243 R 7 -196 R 6 -110 R 6 12 R 6 101 R 6 161 R
7 229 R 11 309 R 15 425 R 25 561 R 42 637 R 83 225 R 49 -488 R 23 -397 R
7 -146 R 26 -636 R 8 -245 R 9 -278 R 8 -224 R 7 -183 R 6 -82 R 6 42 R
6 119 R 6 177 R 8 249 R 11 342 R 18 461 R 29 591 R 50 598 R 105 -343 R
10 -146 R 37 -757 R 8 -201 R 11 -320 R 9 -272 R 8 -234 R 7 -191 R 6 -112 R
6 6 R 5 95 R 6 152 R 7 218 R 10 302 R 15 407 R 24 541 R 39 624 R 78 279 R
55 -517 R 24 -426 R 7 -152 R 22 -541 R 9 -253 R 9 -270 R 7 -219 R 7 -176 R
6 -83 R 6 38 R 5 116 R 6 172 R 8 243 R 11 333 R 17 449 R 28 580 R 49 594 R
101 -274 R 10 -136 R 41 -812 R 7 -183 R 12 -321 R 9 -267 R 7 -230 R 7 -187 R
7 -114 R 5 18 R 6 100 R 5 157 R 8 224 R 10 308 R 15 417 R 25 549 R 42 615 R
86 137 R 37 -403 R 15 -235 R 10 -193 R 17 -391 R 11 -279 R 10 -295 R
9 -260 R 7 -218 R 7 -174 R 6 -84 R 6 35 R 5 106 R 6 165 R 7 233 R 11 321 R
16 434 R 27 565 R 45 602 R 95 -91 R 20 -255 R 14 -217 R 14 -279 R 12 -275 R
12 -301 R 10 -291 R 9 -263 R 7 -220 R 7 -177 R 6 -91 R 6 31 R 5 113 R
6 167 R 8 235 R 11 324 R 16 438 R 27 568 R 47 596 R 97 -165 R 15 -203 R
17 -285 R 10 -193 R 16 -369 R 11 -283 R 10 -289 R 8 -252 R 7 -211 R 7 -163 R
6 -64 R 5 50 R 6 116 R 6 175 R 8 246 R 11 337 R 18 456 R 28 581 R 51 572 R
105 -453 R 13 -217 R 14 -270 R 12 -273 R 11 -302 R 10 -288 R 9 -258 R
7 -216 R 7 -173 R 6 -82 R 6 36 R 5 114 R 6 169 R 8 237 R 11 327 R 16 442 R
28 570 R 47 589 R 99 -244 R 33 -534 R 29 -668 R 10 -287 R D
%%PageTrailer
end
%%PageResources: font Helvetica
%%Trailer
%%Pages: 1
%%DocumentNeededResources: font Helvetica
%%EOF
