%!PS-Adobe-3.0 EPSF-3.0
%%BoundingBox: 0 0 510 765
%%Title: Graphics produced by IDL
%%For: jlgan@aida119, /home/jlgan/work/subhalo_model
%%Creator: IDL Version 7.0 (linux x86_64 m64)
%%CreationDate: Sat Jun  6 00:48:39 2009
%%DocumentData: Clean7bit
%%Requirements: color
%%LanguageLevel: 1
%%PageOrder: Ascend
%%Pages: (atend)
%%DocumentNeededResources: (atend)
%%EndComments
%%BeginProlog
%+ prolog.ps -- Prolog for IDL generated PostScript files
%+ Copyright (c) 1988-2007 ITT Visual Information Solutions. All Rights Reserved.
%v 5
/$IDL_DICT 40 dict def $IDL_DICT begin /bdef { bind def } bind def /C
{currentpoint newpath moveto} bdef /CP {currentpoint} bdef /D {currentpoint
stroke moveto} bdef /F {closepath fill} bdef /K { setgray } bdef /M {moveto}
bdef /N {rmoveto} bdef /P {lineto} bdef /R {rlineto} bdef /S {gsave show
grestore} bdef /X {currentpoint pop} bdef /Z {gsave currentpoint lineto 20
setlinewidth 1 setlinecap stroke grestore} bdef /L0 {[] 0 setdash} bdef /L1
{[40 100] 0 setdash} bdef /L2 {[200 200] 0 setdash} bdef /L3 {[200 100 50
100] 0 setdash} bdef /L4 {[300 100 50 100 50 100 50 100] 0 setdash} bdef /L5
{[400 200] 0 setdash} bdef /STDFONT { findfont exch scalefont setfont } bdef
/ISOFONT { findfont dup length dict begin { 1 index /FID ne {def} {pop pop}
ifelse } forall /Encoding ISOLatin1Encoding def currentdict end /idltmpfont
exch definefont exch scalefont setfont } bdef /ISOBULLET { gsave /Helvetica
findfont exch scalefont setfont (\267) show currentpoint grestore moveto}
bdef /MITERLIMIT { 2.5 setmiterlimit } bdef end
%%EndProlog
%%Page: 0 1
%%PageRequirements: color
%%PageResources: (atend)
%%PageOrientation: Portrait
%%PageBoundingBox: 0 0 510 765
%%BeginPageSetup
$IDL_DICT begin 0.0283465 dup scale MITERLIMIT
%%IncludeResource: font Helvetica
423.333 /Helvetica STDFONT
%%EndPageSetup
0.000 0.000 0.000 setrgbcolor gsave 9777 892 translate 0 0 M 1.5 dup scale
-799.677 0 N
(time/Gyr) show grestore gsave 1428 13852 translate 0 0 M 90 rotate
1.5 dup scale -677.579 0 N
(r) show X -101.051 M
%%IncludeResource: font Helvetica
262.467 /Helvetica STDFONT
(apo) show X 0 M
%%IncludeResource: font Helvetica
423.333 /Helvetica STDFONT
(/kpc) show grestore 40 setlinewidth L0 2760 21859 M 3958 0 R D 2760 21859 M
0 155 R D gsave 2760 21331 translate 0 0 M -294.217 0 N
(0.0) show grestore 3356 21859 M 0 155 R D gsave 3356 21331 translate 0 0 M
-294.217 0 N
(0.5) show grestore 3952 21859 M 0 155 R D gsave 3952 21331 translate 0 0 M
-294.217 0 N
(1.0) show grestore 4548 21859 M 0 155 R D gsave 4548 21331 translate 0 0 M
-294.217 0 N
(1.5) show grestore 5144 21859 M 0 155 R D gsave 5144 21331 translate 0 0 M
-294.217 0 N
(2.0) show grestore 5740 21859 M 0 155 R D gsave 5740 21331 translate 0 0 M
-294.217 0 N
(2.5) show grestore 6336 21859 M 0 155 R D gsave 6336 21331 translate 0 0 M
-294.217 0 N
(3.0) show grestore 2879 21859 M 0 77 R D 2998 21859 M 0 77 R D 3118 21859 M
0 77 R D 3237 21859 M 0 77 R D 3475 21859 M 0 77 R D 3594 21859 M 0 77 R D
3714 21859 M 0 77 R D 3833 21859 M 0 77 R D 4071 21859 M 0 77 R D
4191 21859 M 0 77 R D 4310 21859 M 0 77 R D 4429 21859 M 0 77 R D
4667 21859 M 0 77 R D 4787 21859 M 0 77 R D 4906 21859 M 0 77 R D
5025 21859 M 0 77 R D 5263 21859 M 0 77 R D 5383 21859 M 0 77 R D
5502 21859 M 0 77 R D 5621 21859 M 0 77 R D 5859 21859 M 0 77 R D
5979 21859 M 0 77 R D 6098 21859 M 0 77 R D 6217 21859 M 0 77 R D
6455 21859 M 0 77 R D 6575 21859 M 0 77 R D 6694 21859 M 0 77 R D
2760 25756 M 3958 0 R D 2760 25756 M 0 -156 R D 3356 25756 M 0 -156 R D
3952 25756 M 0 -156 R D 4548 25756 M 0 -156 R D 5144 25756 M 0 -156 R D
5740 25756 M 0 -156 R D 6336 25756 M 0 -156 R D 2879 25756 M 0 -78 R D
2998 25756 M 0 -78 R D 3118 25756 M 0 -78 R D 3237 25756 M 0 -78 R D
3475 25756 M 0 -78 R D 3594 25756 M 0 -78 R D 3714 25756 M 0 -78 R D
3833 25756 M 0 -78 R D 4071 25756 M 0 -78 R D 4191 25756 M 0 -78 R D
4310 25756 M 0 -78 R D 4429 25756 M 0 -78 R D 4667 25756 M 0 -78 R D
4787 25756 M 0 -78 R D 4906 25756 M 0 -78 R D 5025 25756 M 0 -78 R D
5263 25756 M 0 -78 R D 5383 25756 M 0 -78 R D 5502 25756 M 0 -78 R D
5621 25756 M 0 -78 R D 5859 25756 M 0 -78 R D 5979 25756 M 0 -78 R D
6098 25756 M 0 -78 R D 6217 25756 M 0 -78 R D 6455 25756 M 0 -78 R D
6575 25756 M 0 -78 R D 6694 25756 M 0 -78 R D 2760 21859 M 0 3897 R D
2760 23440 M 79 0 R D 2760 24774 M 79 0 R D 2760 25721 M 79 0 R D
6718 21859 M 0 3897 R D 6718 23440 M -79 0 R D 6718 24774 M -79 0 R D
6718 25721 M -79 0 R D 2760 25723 M 238 0 R 266 -1 R 144 -1 R 102 -2 R
73 -4 R 54 -6 R 39 -11 R 30 -19 R 22 -38 R 18 -78 R 13 -151 R 11 -324 R
10 -652 R 10 -774 R 9 -384 R 10 -160 R 12 -75 R 18 -37 R 27 -18 R 45 -9 R
78 -4 R 154 -2 R 293 -1 R 462 0 R 615 0 R 439 0 R 155 0 R 43 0 R 214 -3 R
26 -1 R 13 -1 R 64 -14 R 6 -5 R 17 -27 R 9 -37 R 9 -84 R 8 -183 R 7 -310 R
7 -280 R D 7798 21859 M 3958 0 R D 7798 21859 M 0 155 R D
gsave 7798 21331 translate 0 0 M -294.217 0 N
(0.0) show grestore 8679 21859 M 0 155 R D gsave 8679 21331 translate 0 0 M
-294.217 0 N
(0.5) show grestore 9560 21859 M 0 155 R D gsave 9560 21331 translate 0 0 M
-294.217 0 N
(1.0) show grestore 10441 21859 M 0 155 R D
gsave 10441 21331 translate 0 0 M -294.217 0 N
(1.5) show grestore 11322 21859 M 0 155 R D
gsave 11322 21331 translate 0 0 M -294.217 0 N
(2.0) show grestore 7974 21859 M 0 77 R D 8151 21859 M 0 77 R D 8327 21859 M
0 77 R D 8503 21859 M 0 77 R D 8855 21859 M 0 77 R D 9032 21859 M 0 77 R D
9208 21859 M 0 77 R D 9384 21859 M 0 77 R D 9736 21859 M 0 77 R D
9913 21859 M 0 77 R D 10089 21859 M 0 77 R D 10265 21859 M 0 77 R D
10618 21859 M 0 77 R D 10794 21859 M 0 77 R D 10970 21859 M 0 77 R D
11146 21859 M 0 77 R D 11499 21859 M 0 77 R D 11675 21859 M 0 77 R D
7798 25756 M 3958 0 R D 7798 25756 M 0 -156 R D 8679 25756 M 0 -156 R D
9560 25756 M 0 -156 R D 10441 25756 M 0 -156 R D 11322 25756 M 0 -156 R D
7974 25756 M 0 -78 R D 8151 25756 M 0 -78 R D 8327 25756 M 0 -78 R D
8503 25756 M 0 -78 R D 8855 25756 M 0 -78 R D 9032 25756 M 0 -78 R D
9208 25756 M 0 -78 R D 9384 25756 M 0 -78 R D 9736 25756 M 0 -78 R D
9913 25756 M 0 -78 R D 10089 25756 M 0 -78 R D 10265 25756 M 0 -78 R D
10618 25756 M 0 -78 R D 10794 25756 M 0 -78 R D 10970 25756 M 0 -78 R D
11146 25756 M 0 -78 R D 11499 25756 M 0 -78 R D 11675 25756 M 0 -78 R D
7798 21859 M 0 3897 R D 7798 23080 M 158 0 R D
gsave 7687 22939 translate 0 0 M -706.12 0 N
(100) show grestore 7798 22101 M 79 0 R D 7798 22396 M 79 0 R D 7798 22652 M
79 0 R D 7798 22878 M 79 0 R D 7798 24408 M 79 0 R D 7798 25184 M 79 0 R D
7798 25735 M 79 0 R D 11756 21859 M 0 3897 R D 11756 23080 M -158 0 R D
11756 22101 M -79 0 R D 11756 22396 M -79 0 R D 11756 22652 M -79 0 R D
11756 22878 M -79 0 R D 11756 24408 M -79 0 R D 11756 25184 M -79 0 R D
11756 25735 M -79 0 R D 7798 25737 M 353 0 R 394 -1 R 212 -1 R 150 -2 R
108 -3 R 79 -5 R 59 -9 R 43 -16 R 33 -30 R 26 -63 R 19 -120 R 15 -248 R
15 -532 R 14 -765 R 14 -444 R 13 -185 R 17 -86 R 24 -42 R 36 -21 R 58 -10 R
103 -5 R 202 -1 R 389 -1 R 521 1 R 394 0 R 65 0 R 174 -1 R 73 -2 R 20 -1 R
52 -5 R 13 -3 R 16 -6 R 11 -8 R 11 -14 R 10 -26 R 8 -50 R 7 -101 R 7 -226 R
6 -396 R 6 -352 R D 12836 21859 M 3958 0 R D 12836 21859 M 0 155 R D
gsave 12836 21331 translate 0 0 M -294.217 0 N
(0.0) show grestore 13378 21859 M 0 155 R D
gsave 13378 21331 translate 0 0 M -294.217 0 N
(0.2) show grestore 13920 21859 M 0 155 R D
gsave 13920 21331 translate 0 0 M -294.217 0 N
(0.4) show grestore 14462 21859 M 0 155 R D
gsave 14462 21331 translate 0 0 M -294.217 0 N
(0.6) show grestore 15005 21859 M 0 155 R D
gsave 15005 21331 translate 0 0 M -294.217 0 N
(0.8) show grestore 15547 21859 M 0 155 R D
gsave 15547 21331 translate 0 0 M -294.217 0 N
(1.0) show grestore 16089 21859 M 0 155 R D
gsave 16089 21331 translate 0 0 M -294.217 0 N
(1.2) show grestore 16631 21859 M 0 155 R D
gsave 16631 21331 translate 0 0 M -294.217 0 N
(1.4) show grestore 12972 21859 M 0 77 R D 13107 21859 M 0 77 R D
13243 21859 M 0 77 R D 13514 21859 M 0 77 R D 13649 21859 M 0 77 R D
13785 21859 M 0 77 R D 14056 21859 M 0 77 R D 14191 21859 M 0 77 R D
14327 21859 M 0 77 R D 14598 21859 M 0 77 R D 14734 21859 M 0 77 R D
14869 21859 M 0 77 R D 15140 21859 M 0 77 R D 15276 21859 M 0 77 R D
15411 21859 M 0 77 R D 15682 21859 M 0 77 R D 15818 21859 M 0 77 R D
15953 21859 M 0 77 R D 16224 21859 M 0 77 R D 16360 21859 M 0 77 R D
16495 21859 M 0 77 R D 16766 21859 M 0 77 R D 12836 25756 M 3958 0 R D
12836 25756 M 0 -156 R D 13378 25756 M 0 -156 R D 13920 25756 M 0 -156 R D
14462 25756 M 0 -156 R D 15005 25756 M 0 -156 R D 15547 25756 M 0 -156 R D
16089 25756 M 0 -156 R D 16631 25756 M 0 -156 R D 12972 25756 M 0 -78 R D
13107 25756 M 0 -78 R D 13243 25756 M 0 -78 R D 13514 25756 M 0 -78 R D
13649 25756 M 0 -78 R D 13785 25756 M 0 -78 R D 14056 25756 M 0 -78 R D
14191 25756 M 0 -78 R D 14327 25756 M 0 -78 R D 14598 25756 M 0 -78 R D
14734 25756 M 0 -78 R D 14869 25756 M 0 -78 R D 15140 25756 M 0 -78 R D
15276 25756 M 0 -78 R D 15411 25756 M 0 -78 R D 15682 25756 M 0 -78 R D
15818 25756 M 0 -78 R D 15953 25756 M 0 -78 R D 16224 25756 M 0 -78 R D
16360 25756 M 0 -78 R D 16495 25756 M 0 -78 R D 16766 25756 M 0 -78 R D
12836 21859 M 0 3897 R D 12836 23413 M 158 0 R D
gsave 12725 23272 translate 0 0 M -706.12 0 N
(100) show grestore 12836 21877 M 79 0 R D 12836 22251 M 79 0 R D
12836 22557 M 79 0 R D 12836 22815 M 79 0 R D 12836 23039 M 79 0 R D
12836 23237 M 79 0 R D 12836 24576 M 79 0 R D 12836 25256 M 79 0 R D
12836 25738 M 79 0 R D 16794 21859 M 0 3897 R D 16794 23413 M -158 0 R D
16794 21877 M -79 0 R D 16794 22251 M -79 0 R D 16794 22557 M -79 0 R D
16794 22815 M -79 0 R D 16794 23039 M -79 0 R D 16794 23237 M -79 0 R D
16794 24576 M -79 0 R D 16794 25256 M -79 0 R D 16794 25738 M -79 0 R D
12836 25739 M 542 0 R 609 -1 R 326 -1 R 229 -2 R 166 -4 R 122 -5 R 90 -10 R
67 -18 R 50 -34 R 38 -67 R 30 -132 R 23 -261 R 21 -574 R 22 -1054 R
20 -840 R 20 -380 R 24 -181 R 33 -82 R 50 -36 R 83 -13 R 149 -3 R 308 1 R
337 1 R 189 0 R 76 -1 R 52 0 R 21 -1 R 28 -2 R 15 -2 R 12 -5 R 7 -7 R 4 -8 R
2 -11 R 1 -10 R 2 -19 R 0 -3 R 0 -2 R 0 -2 R 1 -8 R 0 -11 R 0 -3 R 0 -1 R
1 -1 R 0 -1 R D gsave 17280 22950 translate 0 0 M 90 rotate
(bs0rs1) show grestore 2760 16881 M 3958 0 R D 2760 16881 M 0 156 R D
gsave 2760 16353 translate 0 0 M -117.687 0 N
(0) show grestore 3566 16881 M 0 156 R D gsave 3566 16353 translate 0 0 M
-117.687 0 N
(1) show grestore 4372 16881 M 0 156 R D gsave 4372 16353 translate 0 0 M
-117.687 0 N
(2) show grestore 5179 16881 M 0 156 R D gsave 5179 16353 translate 0 0 M
-117.687 0 N
(3) show grestore 5985 16881 M 0 156 R D gsave 5985 16353 translate 0 0 M
-117.687 0 N
(4) show grestore 2841 16881 M 0 78 R D 2921 16881 M 0 78 R D 3002 16881 M
0 78 R D 3083 16881 M 0 78 R D 3163 16881 M 0 78 R D 3244 16881 M 0 78 R D
3324 16881 M 0 78 R D 3405 16881 M 0 78 R D 3486 16881 M 0 78 R D
3647 16881 M 0 78 R D 3728 16881 M 0 78 R D 3808 16881 M 0 78 R D
3889 16881 M 0 78 R D 3969 16881 M 0 78 R D 4050 16881 M 0 78 R D
4131 16881 M 0 78 R D 4211 16881 M 0 78 R D 4292 16881 M 0 78 R D
4453 16881 M 0 78 R D 4534 16881 M 0 78 R D 4614 16881 M 0 78 R D
4695 16881 M 0 78 R D 4776 16881 M 0 78 R D 4856 16881 M 0 78 R D
4937 16881 M 0 78 R D 5017 16881 M 0 78 R D 5098 16881 M 0 78 R D
5259 16881 M 0 78 R D 5340 16881 M 0 78 R D 5421 16881 M 0 78 R D
5501 16881 M 0 78 R D 5582 16881 M 0 78 R D 5662 16881 M 0 78 R D
5743 16881 M 0 78 R D 5824 16881 M 0 78 R D 5904 16881 M 0 78 R D
6065 16881 M 0 78 R D 6146 16881 M 0 78 R D 6227 16881 M 0 78 R D
6307 16881 M 0 78 R D 6388 16881 M 0 78 R D 6469 16881 M 0 78 R D
6549 16881 M 0 78 R D 6630 16881 M 0 78 R D 6710 16881 M 0 78 R D
2760 20779 M 3958 0 R D 2760 20779 M 0 -156 R D 3566 20779 M 0 -156 R D
4372 20779 M 0 -156 R D 5179 20779 M 0 -156 R D 5985 20779 M 0 -156 R D
2841 20779 M 0 -78 R D 2921 20779 M 0 -78 R D 3002 20779 M 0 -78 R D
3083 20779 M 0 -78 R D 3163 20779 M 0 -78 R D 3244 20779 M 0 -78 R D
3324 20779 M 0 -78 R D 3405 20779 M 0 -78 R D 3486 20779 M 0 -78 R D
3647 20779 M 0 -78 R D 3728 20779 M 0 -78 R D 3808 20779 M 0 -78 R D
3889 20779 M 0 -78 R D 3969 20779 M 0 -78 R D 4050 20779 M 0 -78 R D
4131 20779 M 0 -78 R D 4211 20779 M 0 -78 R D 4292 20779 M 0 -78 R D
4453 20779 M 0 -78 R D 4534 20779 M 0 -78 R D 4614 20779 M 0 -78 R D
4695 20779 M 0 -78 R D 4776 20779 M 0 -78 R D 4856 20779 M 0 -78 R D
4937 20779 M 0 -78 R D 5017 20779 M 0 -78 R D 5098 20779 M 0 -78 R D
5259 20779 M 0 -78 R D 5340 20779 M 0 -78 R D 5421 20779 M 0 -78 R D
5501 20779 M 0 -78 R D 5582 20779 M 0 -78 R D 5662 20779 M 0 -78 R D
5743 20779 M 0 -78 R D 5824 20779 M 0 -78 R D 5904 20779 M 0 -78 R D
6065 20779 M 0 -78 R D 6146 20779 M 0 -78 R D 6227 20779 M 0 -78 R D
6307 20779 M 0 -78 R D 6388 20779 M 0 -78 R D 6469 20779 M 0 -78 R D
6549 20779 M 0 -78 R D 6630 20779 M 0 -78 R D 6710 20779 M 0 -78 R D
2760 16881 M 0 3898 R D 2760 16883 M 158 0 R D
gsave 2649 16881 translate 0 0 M -706.12 0 N
(100) show grestore 2760 18816 M 79 0 R D 2760 19946 M 79 0 R D 2760 20748 M
79 0 R D 6718 16881 M 0 3898 R D 6718 16883 M -158 0 R D 6718 18816 M
-79 0 R D 6718 19946 M -79 0 R D 6718 20748 M -79 0 R D 2760 20751 M 161 0 R
180 -1 R 98 -1 R 68 -2 R 50 -3 R 36 -5 R 27 -9 R 20 -17 R 15 -32 R 12 -66 R
8 -128 R 8 -274 R 7 -553 R 7 -655 R 6 -326 R 6 -135 R 9 -64 R 12 -32 R
18 -15 R 30 -7 R 54 -4 R 103 -1 R 199 -1 R 312 0 R 416 0 R 297 0 R 105 0 R
29 0 R 145 -3 R 17 -1 R 9 -1 R 43 -11 R 4 -4 R 12 -23 R 6 -32 R 6 -71 R
5 -155 R 5 -263 R 5 -237 R 4 -109 R 5 -50 R 6 -25 R 10 -13 R 15 -6 R 24 -3 R
44 -2 R 89 0 R 168 0 R 248 0 R 241 0 R 173 -1 R 34 0 R 35 0 R 40 -1 R
22 -1 R 9 -1 R 8 -2 R 8 -3 R 9 -6 R 6 -10 R 5 -20 R 5 -43 R 4 -92 R 4 -122 R
4 -85 R D gsave 3600 26190 translate 0 0 M
(m/M=0.05) show grestore 7798 16881 M 3958 0 R D 7798 16881 M 0 156 R D
gsave 7798 16353 translate 0 0 M -294.217 0 N
(0.0) show grestore 8495 16881 M 0 156 R D gsave 8495 16353 translate 0 0 M
-294.217 0 N
(0.5) show grestore 9193 16881 M 0 156 R D gsave 9193 16353 translate 0 0 M
-294.217 0 N
(1.0) show grestore 9890 16881 M 0 156 R D gsave 9890 16353 translate 0 0 M
-294.217 0 N
(1.5) show grestore 10587 16881 M 0 156 R D
gsave 10587 16353 translate 0 0 M -294.217 0 N
(2.0) show grestore 11285 16881 M 0 156 R D
gsave 11285 16353 translate 0 0 M -294.217 0 N
(2.5) show grestore 7938 16881 M 0 78 R D 8077 16881 M 0 78 R D 8216 16881 M
0 78 R D 8356 16881 M 0 78 R D 8635 16881 M 0 78 R D 8774 16881 M 0 78 R D
8914 16881 M 0 78 R D 9053 16881 M 0 78 R D 9332 16881 M 0 78 R D
9472 16881 M 0 78 R D 9611 16881 M 0 78 R D 9751 16881 M 0 78 R D
10030 16881 M 0 78 R D 10169 16881 M 0 78 R D 10308 16881 M 0 78 R D
10448 16881 M 0 78 R D 10727 16881 M 0 78 R D 10866 16881 M 0 78 R D
11006 16881 M 0 78 R D 11145 16881 M 0 78 R D 11424 16881 M 0 78 R D
11564 16881 M 0 78 R D 11703 16881 M 0 78 R D 7798 20779 M 3958 0 R D
7798 20779 M 0 -156 R D 8495 20779 M 0 -156 R D 9193 20779 M 0 -156 R D
9890 20779 M 0 -156 R D 10587 20779 M 0 -156 R D 11285 20779 M 0 -156 R D
7938 20779 M 0 -78 R D 8077 20779 M 0 -78 R D 8216 20779 M 0 -78 R D
8356 20779 M 0 -78 R D 8635 20779 M 0 -78 R D 8774 20779 M 0 -78 R D
8914 20779 M 0 -78 R D 9053 20779 M 0 -78 R D 9332 20779 M 0 -78 R D
9472 20779 M 0 -78 R D 9611 20779 M 0 -78 R D 9751 20779 M 0 -78 R D
10030 20779 M 0 -78 R D 10169 20779 M 0 -78 R D 10308 20779 M 0 -78 R D
10448 20779 M 0 -78 R D 10727 20779 M 0 -78 R D 10866 20779 M 0 -78 R D
11006 20779 M 0 -78 R D 11145 20779 M 0 -78 R D 11424 20779 M 0 -78 R D
11564 20779 M 0 -78 R D 11703 20779 M 0 -78 R D 7798 16881 M 0 3898 R D
7798 18601 M 158 0 R D gsave 7687 18460 translate 0 0 M -706.12 0 N
(100) show grestore 7798 17173 M 79 0 R D 7798 17521 M 79 0 R D 7798 17805 M
79 0 R D 7798 18045 M 79 0 R D 7798 18253 M 79 0 R D 7798 18437 M 79 0 R D
7798 19681 M 79 0 R D 7798 20313 M 79 0 R D 7798 20762 M 79 0 R D
11756 16881 M 0 3898 R D 11756 18601 M -158 0 R D 11756 17173 M -79 0 R D
11756 17521 M -79 0 R D 11756 17805 M -79 0 R D 11756 18045 M -79 0 R D
11756 18253 M -79 0 R D 11756 18437 M -79 0 R D 11756 19681 M -79 0 R D
11756 20313 M -79 0 R D 11756 20762 M -79 0 R D 7798 20763 M 279 0 R
312 -1 R 168 -1 R 118 -1 R 86 -3 R 63 -4 R 46 -7 R 35 -13 R 26 -25 R
20 -50 R 15 -99 R 12 -201 R 12 -433 R 11 -622 R 11 -362 R 11 -150 R 13 -70 R
19 -34 R 28 -17 R 47 -8 R 81 -4 R 160 -2 R 307 0 R 413 1 R 311 0 R 52 0 R
138 -1 R 58 -2 R 16 0 R 41 -4 R 10 -3 R 12 -5 R 9 -6 R 9 -12 R 8 -21 R
6 -40 R 6 -83 R 5 -184 R 5 -322 R 4 -286 R 5 -138 R 5 -67 R 7 -33 R 11 -16 R
16 -8 R 28 -4 R 52 -1 R 105 0 R 206 0 R 171 0 R 46 0 R 44 -1 R 18 0 R
25 -1 R 7 -1 R 7 -1 R 3 -1 R 15 -11 R 2 -6 R 4 -16 R 3 -27 R 2 -56 R
2 -126 R 3 -213 R D gsave 8820 26190 translate 0 0 M
(m/M=0.10) show grestore 12836 16881 M 3958 0 R D 12836 16881 M 0 156 R D
gsave 12836 16353 translate 0 0 M -294.217 0 N
(0.0) show grestore 13378 16881 M 0 156 R D
gsave 13378 16353 translate 0 0 M -294.217 0 N
(0.2) show grestore 13920 16881 M 0 156 R D
gsave 13920 16353 translate 0 0 M -294.217 0 N
(0.4) show grestore 14462 16881 M 0 156 R D
gsave 14462 16353 translate 0 0 M -294.217 0 N
(0.6) show grestore 15005 16881 M 0 156 R D
gsave 15005 16353 translate 0 0 M -294.217 0 N
(0.8) show grestore 15547 16881 M 0 156 R D
gsave 15547 16353 translate 0 0 M -294.217 0 N
(1.0) show grestore 16089 16881 M 0 156 R D
gsave 16089 16353 translate 0 0 M -294.217 0 N
(1.2) show grestore 16631 16881 M 0 156 R D
gsave 16631 16353 translate 0 0 M -294.217 0 N
(1.4) show grestore 12972 16881 M 0 78 R D 13107 16881 M 0 78 R D
13243 16881 M 0 78 R D 13514 16881 M 0 78 R D 13649 16881 M 0 78 R D
13785 16881 M 0 78 R D 14056 16881 M 0 78 R D 14191 16881 M 0 78 R D
14327 16881 M 0 78 R D 14598 16881 M 0 78 R D 14734 16881 M 0 78 R D
14869 16881 M 0 78 R D 15140 16881 M 0 78 R D 15276 16881 M 0 78 R D
15411 16881 M 0 78 R D 15682 16881 M 0 78 R D 15818 16881 M 0 78 R D
15953 16881 M 0 78 R D 16224 16881 M 0 78 R D 16360 16881 M 0 78 R D
16495 16881 M 0 78 R D 16766 16881 M 0 78 R D 12836 20779 M 3958 0 R D
12836 20779 M 0 -156 R D 13378 20779 M 0 -156 R D 13920 20779 M 0 -156 R D
14462 20779 M 0 -156 R D 15005 20779 M 0 -156 R D 15547 20779 M 0 -156 R D
16089 20779 M 0 -156 R D 16631 20779 M 0 -156 R D 12972 20779 M 0 -78 R D
13107 20779 M 0 -78 R D 13243 20779 M 0 -78 R D 13514 20779 M 0 -78 R D
13649 20779 M 0 -78 R D 13785 20779 M 0 -78 R D 14056 20779 M 0 -78 R D
14191 20779 M 0 -78 R D 14327 20779 M 0 -78 R D 14598 20779 M 0 -78 R D
14734 20779 M 0 -78 R D 14869 20779 M 0 -78 R D 15140 20779 M 0 -78 R D
15276 20779 M 0 -78 R D 15411 20779 M 0 -78 R D 15682 20779 M 0 -78 R D
15818 20779 M 0 -78 R D 15953 20779 M 0 -78 R D 16224 20779 M 0 -78 R D
16360 20779 M 0 -78 R D 16495 20779 M 0 -78 R D 16766 20779 M 0 -78 R D
12836 16881 M 0 3898 R D 12836 18436 M 158 0 R D
gsave 12725 18295 translate 0 0 M -706.12 0 N
(100) show grestore 12836 16899 M 79 0 R D 12836 17273 M 79 0 R D
12836 17579 M 79 0 R D 12836 17838 M 79 0 R D 12836 18061 M 79 0 R D
12836 18259 M 79 0 R D 12836 19598 M 79 0 R D 12836 20278 M 79 0 R D
12836 20760 M 79 0 R D 16794 16881 M 0 3898 R D 16794 18436 M -158 0 R D
16794 16899 M -79 0 R D 16794 17273 M -79 0 R D 16794 17579 M -79 0 R D
16794 17838 M -79 0 R D 16794 18061 M -79 0 R D 16794 18259 M -79 0 R D
16794 19598 M -79 0 R D 16794 20278 M -79 0 R D 16794 20760 M -79 0 R D
12836 20762 M 542 -1 R 609 0 R 326 -2 R 229 -2 R 166 -3 R 122 -6 R 90 -10 R
67 -18 R 50 -34 R 38 -67 R 30 -132 R 23 -260 R 21 -575 R 22 -1054 R
20 -840 R 20 -380 R 24 -181 R 33 -82 R 50 -35 R 83 -14 R 149 -2 R 308 1 R
337 0 R 189 0 R 76 0 R 52 -1 R 21 -1 R 28 -1 R 15 -3 R 12 -4 R 7 -8 R 4 -8 R
2 -11 R 1 -10 R 2 -19 R 0 -3 R 0 -2 R 0 -1 R 1 -9 R 0 -11 R 0 -2 R 0 -2 R
1 -1 R 0 -1 R D gsave 14040 26190 translate 0 0 M
(m/M=0.20) show grestore gsave 17280 18090 translate 0 0 M 90 rotate
(bs0rs0.5) show grestore 2760 11903 M 3958 0 R D 2760 11903 M 0 156 R D
gsave 2760 11375 translate 0 0 M -117.687 0 N
(0) show grestore 3702 11903 M 0 156 R D gsave 3702 11375 translate 0 0 M
-117.687 0 N
(5) show grestore 4645 11903 M 0 156 R D gsave 4645 11375 translate 0 0 M
-235.373 0 N
(10) show grestore 5587 11903 M 0 156 R D gsave 5587 11375 translate 0 0 M
-235.373 0 N
(15) show grestore 6530 11903 M 0 156 R D gsave 6530 11375 translate 0 0 M
-235.373 0 N
(20) show grestore 2949 11903 M 0 78 R D 3137 11903 M 0 78 R D 3326 11903 M
0 78 R D 3514 11903 M 0 78 R D 3891 11903 M 0 78 R D 4079 11903 M 0 78 R D
4268 11903 M 0 78 R D 4456 11903 M 0 78 R D 4833 11903 M 0 78 R D
5022 11903 M 0 78 R D 5210 11903 M 0 78 R D 5399 11903 M 0 78 R D
5776 11903 M 0 78 R D 5964 11903 M 0 78 R D 6153 11903 M 0 78 R D
6341 11903 M 0 78 R D 6718 11903 M 0 78 R D 2760 15801 M 3958 0 R D
2760 15801 M 0 -156 R D 3702 15801 M 0 -156 R D 4645 15801 M 0 -156 R D
5587 15801 M 0 -156 R D 6530 15801 M 0 -156 R D 2949 15801 M 0 -78 R D
3137 15801 M 0 -78 R D 3326 15801 M 0 -78 R D 3514 15801 M 0 -78 R D
3891 15801 M 0 -78 R D 4079 15801 M 0 -78 R D 4268 15801 M 0 -78 R D
4456 15801 M 0 -78 R D 4833 15801 M 0 -78 R D 5022 15801 M 0 -78 R D
5210 15801 M 0 -78 R D 5399 15801 M 0 -78 R D 5776 15801 M 0 -78 R D
5964 15801 M 0 -78 R D 6153 15801 M 0 -78 R D 6341 15801 M 0 -78 R D
6718 15801 M 0 -78 R D 2760 11903 M 0 3898 R D 2760 12344 M 158 0 R D
gsave 2649 12203 translate 0 0 M -706.12 0 N
(100) show grestore 2760 12083 M 79 0 R D 2760 14059 M 79 0 R D 2760 15062 M
79 0 R D 2760 15774 M 79 0 R D 6718 11903 M 0 3898 R D 6718 12344 M -158 0 R
D 6718 12083 M -79 0 R D 6718 14059 M -79 0 R D 6718 15062 M -79 0 R D
6718 15774 M -79 0 R D 2760 15776 M 38 0 R 42 -1 R 23 -1 R 16 -1 R 11 -3 R
9 -4 R 6 -8 R 5 -15 R 3 -29 R 3 -58 R 2 -114 R 2 -243 R 1 -491 R 2 -582 R
1 -289 R 2 -120 R 2 -57 R 3 -27 R 4 -14 R 7 -6 R 12 -4 R 25 -1 R 46 -1 R
73 0 R 97 1 R 70 -1 R 24 0 R 7 0 R 34 -2 R 4 -1 R 2 -1 R 10 -10 R 1 -4 R
3 -20 R 1 -28 R 2 -63 R 1 -138 R 1 -233 R 1 -210 R 1 -97 R 1 -45 R 2 -22 R
2 -11 R 4 -6 R 5 -2 R 11 -2 R 20 0 R 40 0 R 58 0 R 56 0 R 40 -1 R 8 0 R
8 0 R 10 -1 R 5 -1 R 2 -1 R 2 -1 R 2 -3 R 2 -5 R 1 -9 R 2 -18 R 1 -38 R
1 -81 R 1 -109 R 0 -76 R 1 -34 R 1 -17 R 2 -8 R 2 -5 R 3 -2 R 6 -1 R 10 0 R
22 0 R 38 -1 R 54 1 R 44 -1 R 12 0 R 11 0 R 4 0 R 11 0 R 4 -1 R 1 0 R 4 -3 R
1 -1 R 3 -9 R 0 -13 R 1 -29 R 1 -48 R 1 -44 R 1 -20 R 1 -10 R 1 -5 R 2 -2 R
2 -2 R 4 0 R 8 0 R 15 -1 R 32 0 R 46 0 R 44 0 R 36 0 R 6 0 R 5 -1 R 1 0 R
4 0 R 2 0 R 2 -1 R 1 -1 R 1 -3 R 2 -6 R 1 -12 R 0 -22 R 1 -22 R 1 -10 R
1 -5 R 1 -2 R 1 -2 R 3 0 R 4 0 R 7 -1 R 13 0 R 32 0 R 44 0 R 42 0 R 35 0 R
7 0 R 5 -1 R 1 0 R 4 0 R 1 0 R 2 0 R 1 -1 R 2 -1 R 1 -4 R 1 -6 R 0 -11 R
1 -9 R 1 -5 R 1 -2 R 1 -1 R 1 -1 R 3 0 R 3 0 R 7 0 R 13 0 R 31 0 R 44 0 R
41 0 R 35 -1 R 6 0 R 5 0 R 1 0 R 5 0 R 1 0 R 2 0 R 1 -1 R 1 0 R 1 -2 R
1 -4 R 1 -5 R 0 -5 R 1 -2 R 1 -1 R 1 0 R 2 0 R 2 0 R 4 -1 R 8 0 R 14 0 R
31 0 R 44 0 R 41 0 R 29 0 R 9 0 R 3 0 R 2 0 R 2 0 R 2 0 R 1 0 R 2 0 R 1 0 R
1 -1 R 1 -1 R 1 -2 R 1 -2 R 1 -2 R 0 -2 R 1 0 R 1 0 R 2 -1 R 2 0 R 4 0 R
7 0 R 13 0 R 30 0 R 43 0 R 42 0 R 34 0 R 4 0 R 4 0 R 2 0 R 4 0 R 1 0 R 3 0 R
1 -1 R 1 0 R 1 0 R 1 -1 R 1 -1 R 0 -2 R 1 -1 R 1 0 R 1 0 R 1 0 R 2 0 R 3 0 R
6 0 R 10 0 R 22 -1 R 37 0 R 49 0 R 34 0 R 7 0 R 4 0 R 10 0 R 4 0 R 1 0 R
4 0 R 1 0 R 1 0 R 1 0 R 1 0 R 1 -1 R 1 -1 R 1 -1 R 1 0 R 1 0 R 2 0 R 3 0 R
4 0 R 8 0 R 17 0 R 33 0 R 45 0 R 39 0 R 12 0 R 10 0 R 8 0 R 4 0 R 2 0 R
2 0 R 1 0 R 2 0 R 2 0 R 1 0 R 1 -1 R 1 0 R 1 0 R 1 0 R 1 0 R 0 -1 R 1 0 R
1 0 R 2 0 R 2 0 R 4 0 R 7 0 R 13 0 R 31 0 R 43 0 R 41 0 R 33 -1 R 4 0 R
3 0 R 4 0 R 2 0 R 2 0 R 2 0 R 1 0 R 1 0 R 1 0 R 1 0 R 1 0 R 1 0 R 1 0 R
0 -1 R 1 0 R 1 0 R 2 0 R 2 0 R 4 0 R 6 0 R 13 0 R 31 0 R 42 0 R 41 0 R
35 0 R 4 0 R 3 0 R 6 0 R 1 0 R 2 0 R 1 0 R 2 0 R 1 -1 R 1 0 R 1 0 R 1 0 R
1 0 R 1 0 R 1 -1 R 1 0 R 2 0 R 3 0 R 5 0 R 9 0 R 18 0 R 35 0 R 47 0 R 37 0 R
4 0 R 21 0 R 7 0 R 1 0 R 3 0 R 1 0 R 1 0 R 1 0 R 1 0 R 1 0 R 1 0 R 1 0 R
1 0 R 1 0 R 2 0 R 2 0 R 4 0 R 7 0 R 13 0 R 30 0 R 43 0 R 41 0 R 34 -1 R
3 0 R 3 0 R 4 0 R 2 0 R 2 0 R 2 0 R 1 0 R 2 0 R 1 0 R 1 0 R 1 0 R 1 0 R
1 0 R 1 0 R 1 0 R 1 0 R 3 0 R 3 0 R 7 0 R 13 0 R 30 0 R 43 0 R 41 0 R
34 -1 R 4 0 R 3 0 R 4 0 R 2 0 R 2 0 R 2 0 R 1 0 R 1 0 R 2 0 R 1 0 R 1 0 R
1 0 R 1 0 R 2 0 R 1 0 R 2 0 R 4 0 R 7 0 R 12 0 R 31 0 R 42 0 R 41 0 R
35 -1 R 8 0 R 7 0 R 3 0 R D 7798 11903 M 3958 0 R D 7798 11903 M 0 156 R D
gsave 7798 11375 translate 0 0 M -117.687 0 N
(0) show grestore 8740 11903 M 0 156 R D gsave 8740 11375 translate 0 0 M
-117.687 0 N
(5) show grestore 9683 11903 M 0 156 R D gsave 9683 11375 translate 0 0 M
-235.373 0 N
(10) show grestore 10625 11903 M 0 156 R D gsave 10625 11375 translate 0 0 M
-235.373 0 N
(15) show grestore 11568 11903 M 0 156 R D gsave 11568 11375 translate 0 0 M
-235.373 0 N
(20) show grestore 7987 11903 M 0 78 R D 8175 11903 M 0 78 R D 8364 11903 M
0 78 R D 8552 11903 M 0 78 R D 8929 11903 M 0 78 R D 9117 11903 M 0 78 R D
9306 11903 M 0 78 R D 9494 11903 M 0 78 R D 9871 11903 M 0 78 R D
10060 11903 M 0 78 R D 10248 11903 M 0 78 R D 10437 11903 M 0 78 R D
10814 11903 M 0 78 R D 11002 11903 M 0 78 R D 11191 11903 M 0 78 R D
11379 11903 M 0 78 R D 11756 11903 M 0 78 R D 7798 15801 M 3958 0 R D
7798 15801 M 0 -156 R D 8740 15801 M 0 -156 R D 9683 15801 M 0 -156 R D
10625 15801 M 0 -156 R D 11568 15801 M 0 -156 R D 7987 15801 M 0 -78 R D
8175 15801 M 0 -78 R D 8364 15801 M 0 -78 R D 8552 15801 M 0 -78 R D
8929 15801 M 0 -78 R D 9117 15801 M 0 -78 R D 9306 15801 M 0 -78 R D
9494 15801 M 0 -78 R D 9871 15801 M 0 -78 R D 10060 15801 M 0 -78 R D
10248 15801 M 0 -78 R D 10437 15801 M 0 -78 R D 10814 15801 M 0 -78 R D
11002 15801 M 0 -78 R D 11191 15801 M 0 -78 R D 11379 15801 M 0 -78 R D
11756 15801 M 0 -78 R D 7798 11903 M 0 3898 R D 7798 14229 M 158 0 R D
gsave 7687 14088 translate 0 0 M -706.12 0 N
(100) show grestore 7798 12419 M 79 0 R D 7798 12875 M 79 0 R D 7798 13199 M
79 0 R D 7798 13450 M 79 0 R D 7798 13655 M 79 0 R D 7798 13828 M 79 0 R D
7798 13978 M 79 0 R D 7798 14111 M 79 0 R D 7798 15009 M 79 0 R D
7798 15465 M 79 0 R D 7798 15789 M 79 0 R D 11756 11903 M 0 3898 R D
11756 14229 M -158 0 R D 11756 12419 M -79 0 R D 11756 12875 M -79 0 R D
11756 13199 M -79 0 R D 11756 13450 M -79 0 R D 11756 13655 M -79 0 R D
11756 13828 M -79 0 R D 11756 13978 M -79 0 R D 11756 14111 M -79 0 R D
11756 15009 M -79 0 R D 11756 15465 M -79 0 R D 11756 15789 M -79 0 R D
7798 15790 M 38 0 R 42 -1 R 23 -1 R 16 -1 R 11 -1 R 9 -3 R 6 -5 R 5 -10 R
3 -18 R 3 -36 R 2 -71 R 2 -146 R 1 -312 R 2 -449 R 1 -261 R 2 -108 R 1 -51 R
3 -25 R 4 -12 R 6 -6 R 11 -3 R 22 -1 R 41 0 R 56 1 R 42 -1 R 7 0 R 19 0 R
7 -1 R 3 -1 R 5 -3 R 1 -1 R 2 -4 R 1 -5 R 2 -8 R 1 -15 R 1 -29 R 0 -60 R
1 -133 R 1 -232 R 0 -207 R 1 -100 R 1 -47 R 1 -24 R 1 -12 R 2 -6 R 4 -2 R
7 -2 R 14 0 R 28 0 R 23 0 R 6 0 R 6 0 R 3 0 R 3 -1 R 1 -1 R 1 -1 R 2 -8 R
1 -5 R 0 -11 R 1 -19 R 0 -41 R 0 -91 R 1 -154 R 0 -131 R 0 -63 R 0 -31 R
1 -15 R 0 -8 R 1 -3 R 2 -2 R 4 -1 R 6 0 R 15 0 R 21 0 R 4 0 R 5 0 R 3 0 R
1 -1 R 1 -1 R 1 0 R 1 -4 R 0 -3 R 0 -6 R 0 -6 R 0 -8 R 0 -11 R 1 -11 R
0 -20 R 0 -3 R 0 -3 R 0 -14 R 0 -63 R 1 -205 R 2 -121 R 1 -53 R 2 -22 R
2 -8 R 2 -3 R 2 -1 R 2 0 R 2 0 R 2 0 R 1 -1 R 2 0 R 1 0 R 1 0 R 6 0 R 1 -1 R
9 0 R 3 -1 R 4 0 R 2 0 R 7 -1 R 9 -1 R 10 -1 R 47 -4 R 24 -2 R 118 -11 R
590 -52 R 2340 -188 R D 12836 11903 M 3958 0 R D 12836 11903 M 0 156 R D
gsave 12836 11375 translate 0 0 M -294.217 0 N
(0.0) show grestore 13378 11903 M 0 156 R D
gsave 13378 11375 translate 0 0 M -294.217 0 N
(0.2) show grestore 13920 11903 M 0 156 R D
gsave 13920 11375 translate 0 0 M -294.217 0 N
(0.4) show grestore 14462 11903 M 0 156 R D
gsave 14462 11375 translate 0 0 M -294.217 0 N
(0.6) show grestore 15005 11903 M 0 156 R D
gsave 15005 11375 translate 0 0 M -294.217 0 N
(0.8) show grestore 15547 11903 M 0 156 R D
gsave 15547 11375 translate 0 0 M -294.217 0 N
(1.0) show grestore 16089 11903 M 0 156 R D
gsave 16089 11375 translate 0 0 M -294.217 0 N
(1.2) show grestore 16631 11903 M 0 156 R D
gsave 16631 11375 translate 0 0 M -294.217 0 N
(1.4) show grestore 12972 11903 M 0 78 R D 13107 11903 M 0 78 R D
13243 11903 M 0 78 R D 13514 11903 M 0 78 R D 13649 11903 M 0 78 R D
13785 11903 M 0 78 R D 14056 11903 M 0 78 R D 14191 11903 M 0 78 R D
14327 11903 M 0 78 R D 14598 11903 M 0 78 R D 14734 11903 M 0 78 R D
14869 11903 M 0 78 R D 15140 11903 M 0 78 R D 15276 11903 M 0 78 R D
15411 11903 M 0 78 R D 15682 11903 M 0 78 R D 15818 11903 M 0 78 R D
15953 11903 M 0 78 R D 16224 11903 M 0 78 R D 16360 11903 M 0 78 R D
16495 11903 M 0 78 R D 16766 11903 M 0 78 R D 12836 15801 M 3958 0 R D
12836 15801 M 0 -156 R D 13378 15801 M 0 -156 R D 13920 15801 M 0 -156 R D
14462 15801 M 0 -156 R D 15005 15801 M 0 -156 R D 15547 15801 M 0 -156 R D
16089 15801 M 0 -156 R D 16631 15801 M 0 -156 R D 12972 15801 M 0 -78 R D
13107 15801 M 0 -78 R D 13243 15801 M 0 -78 R D 13514 15801 M 0 -78 R D
13649 15801 M 0 -78 R D 13785 15801 M 0 -78 R D 14056 15801 M 0 -78 R D
14191 15801 M 0 -78 R D 14327 15801 M 0 -78 R D 14598 15801 M 0 -78 R D
14734 15801 M 0 -78 R D 14869 15801 M 0 -78 R D 15140 15801 M 0 -78 R D
15276 15801 M 0 -78 R D 15411 15801 M 0 -78 R D 15682 15801 M 0 -78 R D
15818 15801 M 0 -78 R D 15953 15801 M 0 -78 R D 16224 15801 M 0 -78 R D
16360 15801 M 0 -78 R D 16495 15801 M 0 -78 R D 16766 15801 M 0 -78 R D
12836 11903 M 0 3898 R D 12836 13458 M 158 0 R D
gsave 12725 13317 translate 0 0 M -706.12 0 N
(100) show grestore 12836 11921 M 79 0 R D 12836 12296 M 79 0 R D
12836 12601 M 79 0 R D 12836 12860 M 79 0 R D 12836 13084 M 79 0 R D
12836 13281 M 79 0 R D 12836 14620 M 79 0 R D 12836 15300 M 79 0 R D
12836 15783 M 79 0 R D 16794 11903 M 0 3898 R D 16794 13458 M -158 0 R D
16794 11921 M -79 0 R D 16794 12296 M -79 0 R D 16794 12601 M -79 0 R D
16794 12860 M -79 0 R D 16794 13084 M -79 0 R D 16794 13281 M -79 0 R D
16794 14620 M -79 0 R D 16794 15300 M -79 0 R D 16794 15783 M -79 0 R D
12836 15784 M 542 0 R 609 -1 R 326 -1 R 229 -2 R 166 -4 R 122 -5 R 90 -10 R
67 -18 R 50 -34 R 38 -67 R 30 -132 R 23 -261 R 21 -574 R 22 -1054 R
20 -840 R 20 -381 R 24 -180 R 33 -83 R 50 -35 R 83 -13 R 149 -3 R 308 1 R
337 1 R 189 0 R 76 -1 R 52 -1 R 21 0 R 28 -2 R 15 -2 R 12 -5 R 7 -7 R 4 -8 R
2 -11 R 1 -10 R 2 -19 R 0 -3 R 0 -2 R 0 -2 R 1 -8 R 0 -12 R 0 -2 R 0 -2 R
1 0 R 0 -2 R D gsave 17280 13230 translate 0 0 M 90 rotate
(bs0rs0) show grestore gsave 1800 26190 translate 0 0 M
(M0mt) show grestore gsave 1800 25838 translate 0 0 M
(2.5mlr) show grestore
%%PageTrailer
end
%%PageResources: font Helvetica
%%Trailer
%%Pages: 1
%%DocumentNeededResources: font Helvetica
%%EOF
