%!PS-Adobe-3.0 EPSF-3.0
%%BoundingBox: 0 0 510 765
%%Title: Graphics produced by IDL
%%For: jlgan@aida119, /home/jlgan/work/subhalo_model
%%Creator: IDL Version 7.0 (linux x86_64 m64)
%%CreationDate: Sat Jun  6 01:09:38 2009
%%DocumentData: Clean7bit
%%Requirements: color
%%LanguageLevel: 1
%%PageOrder: Ascend
%%Pages: (atend)
%%DocumentNeededResources: (atend)
%%EndComments
%%BeginProlog
%+ prolog.ps -- Prolog for IDL generated PostScript files
%+ Copyright (c) 1988-2007 ITT Visual Information Solutions. All Rights Reserved.
%v 5
/$IDL_DICT 40 dict def $IDL_DICT begin /bdef { bind def } bind def /C
{currentpoint newpath moveto} bdef /CP {currentpoint} bdef /D {currentpoint
stroke moveto} bdef /F {closepath fill} bdef /K { setgray } bdef /M {moveto}
bdef /N {rmoveto} bdef /P {lineto} bdef /R {rlineto} bdef /S {gsave show
grestore} bdef /X {currentpoint pop} bdef /Z {gsave currentpoint lineto 20
setlinewidth 1 setlinecap stroke grestore} bdef /L0 {[] 0 setdash} bdef /L1
{[40 100] 0 setdash} bdef /L2 {[200 200] 0 setdash} bdef /L3 {[200 100 50
100] 0 setdash} bdef /L4 {[300 100 50 100 50 100 50 100] 0 setdash} bdef /L5
{[400 200] 0 setdash} bdef /STDFONT { findfont exch scalefont setfont } bdef
/ISOFONT { findfont dup length dict begin { 1 index /FID ne {def} {pop pop}
ifelse } forall /Encoding ISOLatin1Encoding def currentdict end /idltmpfont
exch definefont exch scalefont setfont } bdef /ISOBULLET { gsave /Helvetica
findfont exch scalefont setfont (\267) show currentpoint grestore moveto}
bdef /MITERLIMIT { 2.5 setmiterlimit } bdef end
%%EndProlog
%%Page: 0 1
%%PageRequirements: color
%%PageResources: (atend)
%%PageOrientation: Portrait
%%PageBoundingBox: 0 0 510 765
%%BeginPageSetup
$IDL_DICT begin 0.0283465 dup scale MITERLIMIT
%%IncludeResource: font Helvetica
423.333 /Helvetica STDFONT
%%EndPageSetup
0.000 0.000 0.000 setrgbcolor gsave 9777 892 translate 0 0 M 1.5 dup scale
-799.677 0 N
(time/Gyr) show grestore gsave 1428 13852 translate 0 0 M 90 rotate
1.5 dup scale -677.579 0 N
(r) show X -101.051 M
%%IncludeResource: font Helvetica
262.467 /Helvetica STDFONT
(apo) show X 0 M
%%IncludeResource: font Helvetica
423.333 /Helvetica STDFONT
(/kpc) show grestore 40 setlinewidth L0 2760 21859 M 3958 0 R D 2760 21859 M
0 155 R D gsave 2760 21331 translate 0 0 M -117.687 0 N
(0) show grestore 3306 21859 M 0 155 R D gsave 3306 21331 translate 0 0 M
-117.687 0 N
(2) show grestore 3853 21859 M 0 155 R D gsave 3853 21331 translate 0 0 M
-117.687 0 N
(4) show grestore 4399 21859 M 0 155 R D gsave 4399 21331 translate 0 0 M
-117.687 0 N
(6) show grestore 4945 21859 M 0 155 R D gsave 4945 21331 translate 0 0 M
-117.687 0 N
(8) show grestore 5492 21859 M 0 155 R D gsave 5492 21331 translate 0 0 M
-235.373 0 N
(10) show grestore 6038 21859 M 0 155 R D gsave 6038 21331 translate 0 0 M
-235.373 0 N
(12) show grestore 6584 21859 M 0 155 R D gsave 6584 21331 translate 0 0 M
-235.373 0 N
(14) show grestore 2897 21859 M 0 77 R D 3033 21859 M 0 77 R D 3170 21859 M
0 77 R D 3443 21859 M 0 77 R D 3580 21859 M 0 77 R D 3716 21859 M 0 77 R D
3989 21859 M 0 77 R D 4126 21859 M 0 77 R D 4262 21859 M 0 77 R D
4536 21859 M 0 77 R D 4672 21859 M 0 77 R D 4809 21859 M 0 77 R D
5082 21859 M 0 77 R D 5219 21859 M 0 77 R D 5355 21859 M 0 77 R D
5628 21859 M 0 77 R D 5765 21859 M 0 77 R D 5901 21859 M 0 77 R D
6175 21859 M 0 77 R D 6311 21859 M 0 77 R D 6448 21859 M 0 77 R D
2760 25756 M 3958 0 R D 2760 25756 M 0 -156 R D 3306 25756 M 0 -156 R D
3853 25756 M 0 -156 R D 4399 25756 M 0 -156 R D 4945 25756 M 0 -156 R D
5492 25756 M 0 -156 R D 6038 25756 M 0 -156 R D 6584 25756 M 0 -156 R D
2897 25756 M 0 -78 R D 3033 25756 M 0 -78 R D 3170 25756 M 0 -78 R D
3443 25756 M 0 -78 R D 3580 25756 M 0 -78 R D 3716 25756 M 0 -78 R D
3989 25756 M 0 -78 R D 4126 25756 M 0 -78 R D 4262 25756 M 0 -78 R D
4536 25756 M 0 -78 R D 4672 25756 M 0 -78 R D 4809 25756 M 0 -78 R D
5082 25756 M 0 -78 R D 5219 25756 M 0 -78 R D 5355 25756 M 0 -78 R D
5628 25756 M 0 -78 R D 5765 25756 M 0 -78 R D 5901 25756 M 0 -78 R D
6175 25756 M 0 -78 R D 6311 25756 M 0 -78 R D 6448 25756 M 0 -78 R D
2760 21859 M 0 3897 R D 2760 23493 M 158 0 R D
gsave 2649 23352 translate 0 0 M -706.12 0 N
(100) show grestore 2760 21882 M 79 0 R D 2760 22368 M 79 0 R D 2760 22789 M
79 0 R D 2760 23161 M 79 0 R D 2760 25679 M 79 0 R D 6718 21859 M 0 3897 R D
6718 23493 M -158 0 R D 6718 21882 M -79 0 R D 6718 22368 M -79 0 R D
6718 22789 M -79 0 R D 6718 23161 M -79 0 R D 6718 25679 M -79 0 R D
2760 25715 M 4 -26 R 4 0 R 8 2 R 20 3 R 42 7 R 133 17 R 235 7 R 280 -68 R
254 -192 R 241 -356 R 142 -278 R 120 -226 R 99 11 R 105 20 R 182 -12 R
168 -104 R 161 -239 R 125 -297 R 90 -243 R 79 -113 R 81 26 R 103 16 R
115 -45 R 111 -147 R 108 -278 R 69 -235 R 57 -172 R 59 -18 R 61 26 R 80 3 R
83 -70 R 79 -177 R 69 -249 R 47 -186 R 49 -102 R 46 17 R 61 23 R D
gsave 17280 22950 translate 0 0 M 90 rotate
(bs0rs) show grestore 7798 21859 M 3958 0 R D 7798 21859 M 0 155 R D
gsave 7798 21331 translate 0 0 M -117.687 0 N
(0) show grestore 8369 21859 M 0 155 R D gsave 8369 21331 translate 0 0 M
-117.687 0 N
(2) show grestore 8940 21859 M 0 155 R D gsave 8940 21331 translate 0 0 M
-117.687 0 N
(4) show grestore 9512 21859 M 0 155 R D gsave 9512 21331 translate 0 0 M
-117.687 0 N
(6) show grestore 10083 21859 M 0 155 R D gsave 10083 21331 translate 0 0 M
-117.687 0 N
(8) show grestore 10654 21859 M 0 155 R D gsave 10654 21331 translate 0 0 M
-235.373 0 N
(10) show grestore 11225 21859 M 0 155 R D gsave 11225 21331 translate 0 0 M
-235.373 0 N
(12) show grestore 7941 21859 M 0 77 R D 8084 21859 M 0 77 R D 8226 21859 M
0 77 R D 8512 21859 M 0 77 R D 8655 21859 M 0 77 R D 8798 21859 M 0 77 R D
9083 21859 M 0 77 R D 9226 21859 M 0 77 R D 9369 21859 M 0 77 R D
9654 21859 M 0 77 R D 9797 21859 M 0 77 R D 9940 21859 M 0 77 R D
10226 21859 M 0 77 R D 10368 21859 M 0 77 R D 10511 21859 M 0 77 R D
10797 21859 M 0 77 R D 10940 21859 M 0 77 R D 11082 21859 M 0 77 R D
11368 21859 M 0 77 R D 11511 21859 M 0 77 R D 11654 21859 M 0 77 R D
7798 25756 M 3958 0 R D 7798 25756 M 0 -156 R D 8369 25756 M 0 -156 R D
8940 25756 M 0 -156 R D 9512 25756 M 0 -156 R D 10083 25756 M 0 -156 R D
10654 25756 M 0 -156 R D 11225 25756 M 0 -156 R D 7941 25756 M 0 -78 R D
8084 25756 M 0 -78 R D 8226 25756 M 0 -78 R D 8512 25756 M 0 -78 R D
8655 25756 M 0 -78 R D 8798 25756 M 0 -78 R D 9083 25756 M 0 -78 R D
9226 25756 M 0 -78 R D 9369 25756 M 0 -78 R D 9654 25756 M 0 -78 R D
9797 25756 M 0 -78 R D 9940 25756 M 0 -78 R D 10226 25756 M 0 -78 R D
10368 25756 M 0 -78 R D 10511 25756 M 0 -78 R D 10797 25756 M 0 -78 R D
10940 25756 M 0 -78 R D 11082 25756 M 0 -78 R D 11368 25756 M 0 -78 R D
11511 25756 M 0 -78 R D 11654 25756 M 0 -78 R D 7798 21859 M 0 3897 R D
7798 24415 M 158 0 R D gsave 7687 24275 translate 0 0 M -706.12 0 N
(100) show grestore 7798 22216 M 79 0 R D 7798 22741 M 79 0 R D 7798 23149 M
79 0 R D 7798 23482 M 79 0 R D 7798 23764 M 79 0 R D 7798 24008 M 79 0 R D
7798 24223 M 79 0 R D 7798 25682 M 79 0 R D 11756 21859 M 0 3897 R D
11756 24415 M -158 0 R D 11756 22216 M -79 0 R D 11756 22741 M -79 0 R D
11756 23149 M -79 0 R D 11756 23482 M -79 0 R D 11756 23764 M -79 0 R D
11756 24008 M -79 0 R D 11756 24223 M -79 0 R D 11756 25682 M -79 0 R D
7798 25731 M 1 3 R 1 3 R 1 1 R 4 -4 R 7 -10 R 27 -32 R 56 4 R 247 14 R
257 -12 R 271 -66 R 263 -156 R 200 -198 R 141 -169 R 114 -73 R 120 14 R
143 3 R 177 -40 R 170 -120 R 162 -231 R 93 -181 R 81 -137 R 76 14 R 77 7 R
114 -28 R 108 -104 R 104 -221 R 65 -206 R 55 -184 R 45 -14 R 47 11 R
68 -14 R 70 -90 R 65 -206 R 46 -236 R 35 -210 R 31 -59 R 31 15 R 42 -8 R
40 -74 R 41 -198 R 32 -267 R 22 -228 R 20 -92 R D
gsave 3600 26190 translate 0 0 M
(m/M=0.05) show grestore gsave 17280 18090 translate 0 0 M 90 rotate
(bs0rs1) show grestore 12836 21859 M 3958 0 R D 12836 21859 M 0 155 R D
gsave 12836 21331 translate 0 0 M -117.687 0 N
(0) show grestore 13782 21859 M 0 155 R D gsave 13782 21331 translate 0 0 M
-235.373 0 N
(10) show grestore 14728 21859 M 0 155 R D gsave 14728 21331 translate 0 0 M
-235.373 0 N
(20) show grestore 15674 21859 M 0 155 R D gsave 15674 21331 translate 0 0 M
-235.373 0 N
(30) show grestore 16620 21859 M 0 155 R D gsave 16620 21331 translate 0 0 M
-235.373 0 N
(40) show grestore 12931 21859 M 0 77 R D 13025 21859 M 0 77 R D
13120 21859 M 0 77 R D 13214 21859 M 0 77 R D 13309 21859 M 0 77 R D
13404 21859 M 0 77 R D 13498 21859 M 0 77 R D 13593 21859 M 0 77 R D
13687 21859 M 0 77 R D 13877 21859 M 0 77 R D 13971 21859 M 0 77 R D
14066 21859 M 0 77 R D 14161 21859 M 0 77 R D 14255 21859 M 0 77 R D
14350 21859 M 0 77 R D 14444 21859 M 0 77 R D 14539 21859 M 0 77 R D
14634 21859 M 0 77 R D 14823 21859 M 0 77 R D 14917 21859 M 0 77 R D
15012 21859 M 0 77 R D 15107 21859 M 0 77 R D 15201 21859 M 0 77 R D
15296 21859 M 0 77 R D 15390 21859 M 0 77 R D 15485 21859 M 0 77 R D
15580 21859 M 0 77 R D 15769 21859 M 0 77 R D 15863 21859 M 0 77 R D
15958 21859 M 0 77 R D 16053 21859 M 0 77 R D 16147 21859 M 0 77 R D
16242 21859 M 0 77 R D 16336 21859 M 0 77 R D 16431 21859 M 0 77 R D
16526 21859 M 0 77 R D 16715 21859 M 0 77 R D 12836 25756 M 3958 0 R D
12836 25756 M 0 -156 R D 13782 25756 M 0 -156 R D 14728 25756 M 0 -156 R D
15674 25756 M 0 -156 R D 16620 25756 M 0 -156 R D 12931 25756 M 0 -78 R D
13025 25756 M 0 -78 R D 13120 25756 M 0 -78 R D 13214 25756 M 0 -78 R D
13309 25756 M 0 -78 R D 13404 25756 M 0 -78 R D 13498 25756 M 0 -78 R D
13593 25756 M 0 -78 R D 13687 25756 M 0 -78 R D 13877 25756 M 0 -78 R D
13971 25756 M 0 -78 R D 14066 25756 M 0 -78 R D 14161 25756 M 0 -78 R D
14255 25756 M 0 -78 R D 14350 25756 M 0 -78 R D 14444 25756 M 0 -78 R D
14539 25756 M 0 -78 R D 14634 25756 M 0 -78 R D 14823 25756 M 0 -78 R D
14917 25756 M 0 -78 R D 15012 25756 M 0 -78 R D 15107 25756 M 0 -78 R D
15201 25756 M 0 -78 R D 15296 25756 M 0 -78 R D 15390 25756 M 0 -78 R D
15485 25756 M 0 -78 R D 15580 25756 M 0 -78 R D 15769 25756 M 0 -78 R D
15863 25756 M 0 -78 R D 15958 25756 M 0 -78 R D 16053 25756 M 0 -78 R D
16147 25756 M 0 -78 R D 16242 25756 M 0 -78 R D 16336 25756 M 0 -78 R D
16431 25756 M 0 -78 R D 16526 25756 M 0 -78 R D 16715 25756 M 0 -78 R D
12836 21859 M 0 3897 R D 12836 23532 M 158 0 R D
gsave 12725 23391 translate 0 0 M -470.747 0 N
(10) show grestore 12836 25228 M 158 0 R D gsave 12725 25087 translate 0 0 M
-706.12 0 N
(100) show grestore 12836 22346 M 79 0 R D 12836 22645 M 79 0 R D
12836 22857 M 79 0 R D 12836 23021 M 79 0 R D 12836 23155 M 79 0 R D
12836 23269 M 79 0 R D 12836 23367 M 79 0 R D 12836 23454 M 79 0 R D
12836 24042 M 79 0 R D 12836 24341 M 79 0 R D 12836 24553 M 79 0 R D
12836 24717 M 79 0 R D 12836 24851 M 79 0 R D 12836 24965 M 79 0 R D
12836 25063 M 79 0 R D 12836 25150 M 79 0 R D 12836 25738 M 79 0 R D
16794 21859 M 0 3897 R D 16794 23532 M -158 0 R D 16794 25228 M -158 0 R D
16794 22346 M -79 0 R D 16794 22645 M -79 0 R D 16794 22857 M -79 0 R D
16794 23021 M -79 0 R D 16794 23155 M -79 0 R D 16794 23269 M -79 0 R D
16794 23367 M -79 0 R D 16794 23454 M -79 0 R D 16794 24042 M -79 0 R D
16794 24341 M -79 0 R D 16794 24553 M -79 0 R D 16794 24717 M -79 0 R D
16794 24851 M -79 0 R D 16794 24965 M -79 0 R D 16794 25063 M -79 0 R D
16794 25150 M -79 0 R D 16794 25738 M -79 0 R D 12836 25746 M 2 -6 R 1 0 R
2 1 R 7 1 R 15 1 R 46 4 R 82 2 R 96 -16 R 88 -45 R 84 -83 R 49 -65 R
41 -53 R 35 3 R 36 5 R 63 -3 R 59 -24 R 55 -56 R 44 -70 R 31 -57 R 27 -26 R
28 6 R 36 4 R 40 -10 R 38 -35 R 37 -65 R 24 -55 R 20 -40 R 21 -4 R 21 6 R
27 1 R 29 -17 R 28 -41 R 23 -58 R 17 -44 R 17 -23 R 16 4 R 21 5 R 21 -6 R
21 -25 R 20 -47 R 14 -42 R 13 -29 R 13 -6 R 13 5 R 16 3 R 18 -9 R 17 -27 R
16 -43 R 10 -26 R 11 -16 R 11 0 R 14 5 R 13 0 R 14 -12 R 14 -24 R 12 -25 R
9 -17 R 10 -7 R 10 1 R 14 3 R 14 -3 R 12 -14 R 12 -22 R 9 -16 R 8 -9 R
9 -2 R 11 3 R 11 1 R 11 -5 R 11 -15 R 11 -20 R 8 -13 R 8 -8 R 8 0 R 11 3 R
10 0 R 11 -7 R 10 -17 R 9 -18 R 7 -12 R 8 -5 R 8 1 R 10 3 R 11 -3 R 9 -11 R
10 -20 R 6 -14 R 7 -10 R 8 -2 R 8 2 R 8 2 R 9 -4 R 9 -13 R 9 -21 R 7 -14 R
6 -6 R 7 -1 R 9 3 R 8 1 R 8 -8 R 8 -17 R 7 -18 R 6 -12 R 6 -4 R 7 1 R 8 3 R
9 -2 R 7 -11 R 8 -21 R 6 -14 R 5 -9 R 6 -2 R 7 3 R 6 2 R 8 -4 R 7 -13 R
8 -22 R 5 -13 R 5 -6 R 5 0 R 8 3 R 6 0 R 7 -7 R 7 -18 R 5 -16 R 5 -12 R
5 -4 R 5 2 R 7 3 R 7 -2 R 6 -11 R 7 -20 R 4 -14 R 5 -8 R 4 -2 R 6 2 R 5 3 R
7 -4 R 6 -13 R 6 -21 R 4 -12 R 4 -6 R 5 0 R 6 4 R 5 0 R 6 -7 R 5 -17 R
5 -16 R 4 -11 R 4 -3 R 5 2 R 5 2 R 6 -2 R 5 -11 R 6 -18 R 3 -13 R 4 -7 R
4 -1 R 5 2 R 5 2 R 5 -4 R 5 -13 R 4 -17 R 4 -11 R 3 -6 R 4 0 R 5 3 R 5 0 R
5 -6 R 4 -14 R 4 -16 R 4 -10 R 3 -3 R 4 0 R 5 4 R 5 -2 R 5 -11 R 4 -18 R
4 -11 R 3 -6 R 3 -1 R 5 3 R 4 1 R 4 -4 R 4 -13 R 4 -15 R 3 -10 R 3 -5 R
4 1 R 4 3 R 4 0 R 4 -7 R 4 -14 R 3 -13 R 4 -9 R 3 -3 R 3 2 R 4 2 R 4 -1 R
4 -9 R 4 -17 R 3 -10 R 3 -6 R 3 -1 R 3 3 R 4 1 R 4 -3 R 4 -11 R 3 -15 R
3 -9 R 2 -4 R 3 0 R 4 2 R 4 1 R 3 -5 R 4 -13 R 3 -12 R 3 -9 R 2 -3 R 3 1 R
4 3 R 4 -1 R 3 -9 R 4 -14 R 2 -10 R 3 -5 R 2 -1 R 3 2 R 3 1 R 4 -2 R 3 -10 R
3 -13 R 3 -9 R 2 -5 R 3 0 R 3 2 R 3 1 R 3 -3 R 4 -11 R 2 -12 R 3 -8 R 2 -4 R
3 1 R 3 2 R 3 0 R 3 -6 R 4 -12 R 2 -10 R 2 -6 R 2 -2 R 3 1 R 3 2 R 3 -1 R
3 -8 R 3 -13 R 3 -8 R 2 -5 R 2 -1 R 3 2 R 3 2 R 3 -3 R 3 -9 R 2 -12 R 2 -7 R
2 -4 R 3 0 R 3 2 R 2 1 R 3 -4 R 3 -11 R 2 -10 R 3 -7 R 2 -2 R 2 1 R 3 2 R
3 -1 R 3 -7 R 3 -12 R 2 -8 R 2 -4 R 2 -1 R 2 2 R 3 1 R 3 -2 R 2 -8 R 3 -11 R
2 -7 R 2 -4 R 2 0 R 2 2 R 3 1 R 2 -4 R 3 -9 R 2 -10 R 2 -6 R 2 -3 R 2 0 R
3 3 R 3 -1 R 2 -5 R 3 -10 R 1 -8 R 2 -6 R 2 -1 R 2 1 R 3 2 R 3 -1 R 2 -7 R
3 -11 R 1 -7 R 2 -4 R 2 0 R 2 1 R 3 2 R 2 -2 R 3 -8 R 2 -10 R 1 -6 R 2 -3 R
2 -1 R 3 2 R 2 1 R 2 -3 R 3 -9 R 1 -9 R 2 -6 R 2 -2 R 2 1 R 3 2 R 2 -1 R
2 -5 R 2 -10 R 2 -7 R 2 -4 R 2 -1 R 2 1 R 2 2 R 2 -1 R 2 -7 R 3 -10 R 1 -6 R
2 -3 R 2 -1 R 2 2 R 2 1 R 2 -2 R 2 -8 R 2 -9 R 2 -5 R 2 -3 R 1 0 R 3 2 R
2 0 R 2 -4 R 2 -8 R 2 -8 R 1 -4 R 2 -2 R 2 1 R 2 2 R 2 -1 R 2 -5 R 2 -9 R
2 -7 R 1 -3 R 2 -1 R 2 1 R 2 1 R 2 -1 R 2 -6 R 2 -9 R 2 -6 R 1 -3 R 2 0 R
2 2 R 2 0 R 2 -2 R 2 -8 R 2 -8 R 1 -5 R 2 -2 R 1 1 R 3 2 R 2 -1 R 2 -4 R
2 -9 R 1 -6 R 1 -4 R 2 -1 R 2 1 R 2 1 R 2 -1 R 2 -5 R 2 -9 R 1 -6 R 1 -3 R
2 0 R 2 2 R 2 0 R 2 -2 R 2 -7 R 1 -7 R 2 -6 R 1 -1 R 2 0 R 2 2 R 2 -1 R
2 -4 R 2 -9 R 1 -5 R 1 -4 R 2 -1 R 1 1 R 2 2 R 2 -1 R 2 -6 R 2 -8 R 1 -5 R
2 -3 R 1 0 R 2 1 R 2 1 R 2 -2 R 1 -7 R 2 -7 R 1 -5 R 2 -1 R 1 0 R 2 2 R
2 -1 R 2 -4 R 2 -8 R 1 -6 R 1 -3 R 2 0 R 1 1 R 2 1 R 2 -1 R 1 -5 R 2 -9 R
2 -4 R 1 -3 R 1 0 R 2 2 R 2 0 R 1 -2 R 2 -7 R 2 -6 R 1 -5 R 1 -1 R 2 0 R
2 2 R 1 0 R 2 -4 R 2 -8 R 1 -5 R 1 -3 R 1 -1 R 2 1 R 2 1 R 1 -1 R 2 -5 R
2 -7 R 1 -5 R 1 -2 R 1 -1 R 2 2 R 2 0 R 1 -1 R 2 -6 R 1 -7 R 2 -5 R 1 -1 R
1 0 R 2 2 R 2 0 R 1 -4 R 2 -8 R 1 -5 R 1 -3 R 2 0 R 1 0 R 2 2 R 1 -1 R
2 -5 R 2 -7 R 1 -5 R 1 -2 R 1 0 R 2 1 R 1 1 R 2 -2 R 1 -6 R 2 -6 R 1 -4 R
1 -2 R 1 0 R 2 1 R 2 1 R 1 -3 R 2 -7 R 1 -5 R 1 -4 R 1 -1 R 2 1 R 1 1 R
2 0 R 1 -4 R 2 -7 R 1 -5 R 1 -3 R 1 -1 R 2 1 R 1 1 R 2 0 R 1 -5 R 2 -7 R
1 -5 R 1 -2 R 1 0 R 2 1 R 1 1 R 2 -2 R 1 -6 R 1 -6 R 2 -4 R 1 -1 R 1 0 R
2 2 R 1 -1 R 2 -4 R 1 -6 R 1 -5 R 1 -3 R 1 0 R 2 1 R 1 1 R 2 -1 R 1 -5 R
1 -7 R 1 -4 R 2 -2 R 1 0 R 1 1 R 2 1 R 1 -2 R 2 -6 R 1 -6 R 1 -3 R 1 -2 R
1 1 R 2 1 R 1 0 R 2 -4 R 1 -7 R 1 -4 R 1 -2 R 1 -1 R 1 1 R 2 1 R 1 -1 R
2 -5 R 1 -6 R 1 -4 R 1 -2 R 1 1 R 1 1 R 2 0 R 1 -2 R 2 -5 R 1 -5 R 1 -4 R
1 -1 R 1 0 R 2 1 R 1 0 R 1 -3 R 2 -7 R 1 -4 R 1 -2 R 1 -1 R 1 1 R 1 1 R
2 -1 R 1 -4 R 1 -6 R 1 -4 R 1 -2 R 1 0 R 2 1 R 1 1 R 1 -2 R 2 -5 R 1 -5 R
1 -4 R 1 -1 R 1 0 R 1 1 R 2 0 R 1 -3 R 1 -6 R 1 -4 R 1 -2 R 1 -1 R 1 1 R
2 1 R 1 -1 R 1 -4 R 2 -6 R 1 -4 R 1 -2 R 1 0 R 1 2 R 1 0 R 2 -2 R 1 -5 R
1 -5 R 1 -3 R 1 -1 R 1 0 R 2 1 R 1 0 R 1 -4 R 1 -6 R 1 -3 R 1 -3 R 1 0 R
1 1 R 1 1 R 2 -1 R 1 -4 R 1 -6 R 1 -3 R 1 -2 R 1 0 R 1 1 R 1 0 R 2 -1 R
1 -5 R 1 -5 R 1 -3 R 1 -2 R 1 1 R 1 1 R 2 0 R 1 -3 R 1 -5 R 1 -5 R 1 -2 R
1 -1 R 1 0 R 1 1 R 1 0 R 2 -3 R 1 -6 R 1 -4 R 1 -2 R 1 0 R 1 1 R 1 0 R
1 -1 R 1 -5 R 1 -5 R 1 -3 R 1 -1 R 1 0 R 2 1 R 1 0 R 1 -3 R 1 -5 R 1 -4 R
1 -3 R 1 0 R 1 0 R 1 1 R 1 0 R 1 -3 R 2 -6 R 0 -4 R 1 -2 R 1 0 R 1 1 R 1 0 R
2 0 R 1 -4 R 1 -6 R 1 -3 R 1 -2 R 2 1 R 1 0 R 1 -1 R 1 -5 R 1 -5 R 1 -3 R
1 -1 R 1 0 R 1 1 R 1 0 R 1 -2 R 1 -6 R 1 -4 R 1 -2 R 1 -1 R 1 1 R 1 1 R
1 -1 R 1 -4 R 2 -5 R 0 -4 R 1 -2 R 1 1 R 1 0 R 1 1 R 1 -1 R 2 -4 R 0 -6 R
1 -3 R 1 -1 R 1 0 R 1 1 R 1 0 R 1 -2 R 2 -5 R 0 -5 R 1 -2 R 1 -1 R 1 0 R
1 1 R 1 0 R 1 -4 R 2 -5 R 0 -4 R 1 -2 R 1 0 R 1 1 R 1 0 R 1 0 R 1 -4 R
1 -5 R 1 -4 R 1 -1 R 1 0 R 1 1 R 1 0 R 1 -1 R 1 -5 R 1 -4 R 1 -3 R 0 -2 R
1 0 R D 16260 22111 M 1 2 R 1 0 R 2 -2 R 1 -5 R 0 -4 R 1 -3 R 1 -1 R 1 0 R
1 2 R 1 -1 R 1 -2 R 1 -5 R 1 -4 R 1 -2 R 0 -1 R 1 1 R 1 1 R 2 -1 R 1 -3 R
1 -6 R 0 -2 R 1 -2 R 1 0 R 1 1 R 1 1 R 1 -2 R 1 -5 R 1 -3 R 1 -3 R 1 -1 R
2 2 R 1 -1 R 1 -3 R 1 -5 R 1 -3 R 0 -2 R 1 0 R 1 0 R 1 1 R 1 -1 R 1 -3 R
1 -5 R 1 -3 R 1 -1 R 1 1 R 1 0 R 1 -1 R 1 -5 R 1 -4 R 1 -3 R 1 0 R 1 0 R
1 1 R 1 0 R 1 -3 R 1 -5 R 0 -3 R 1 -2 R 1 0 R 1 0 R 1 1 R 1 -1 R 1 -3 R
0 -1 R 1 -5 R 4 -20 R 21 -88 R 106 60 R 105 55 R 36 10 R 12 0 R D
gsave 17280 13230 translate 0 0 M 90 rotate
(bs00) show grestore 2760 16881 M 3958 0 R D 2760 16881 M 0 156 R D
gsave 2760 16353 translate 0 0 M -117.687 0 N
(0) show grestore 3266 16881 M 0 156 R D gsave 3266 16353 translate 0 0 M
-117.687 0 N
(2) show grestore 3773 16881 M 0 156 R D gsave 3773 16353 translate 0 0 M
-117.687 0 N
(4) show grestore 4279 16881 M 0 156 R D gsave 4279 16353 translate 0 0 M
-117.687 0 N
(6) show grestore 4786 16881 M 0 156 R D gsave 4786 16353 translate 0 0 M
-117.687 0 N
(8) show grestore 5292 16881 M 0 156 R D gsave 5292 16353 translate 0 0 M
-235.373 0 N
(10) show grestore 5798 16881 M 0 156 R D gsave 5798 16353 translate 0 0 M
-235.373 0 N
(12) show grestore 6305 16881 M 0 156 R D gsave 6305 16353 translate 0 0 M
-235.373 0 N
(14) show grestore 2887 16881 M 0 78 R D 3013 16881 M 0 78 R D 3140 16881 M
0 78 R D 3393 16881 M 0 78 R D 3520 16881 M 0 78 R D 3646 16881 M 0 78 R D
3899 16881 M 0 78 R D 4026 16881 M 0 78 R D 4153 16881 M 0 78 R D
4406 16881 M 0 78 R D 4532 16881 M 0 78 R D 4659 16881 M 0 78 R D
4912 16881 M 0 78 R D 5039 16881 M 0 78 R D 5165 16881 M 0 78 R D
5419 16881 M 0 78 R D 5545 16881 M 0 78 R D 5672 16881 M 0 78 R D
5925 16881 M 0 78 R D 6052 16881 M 0 78 R D 6178 16881 M 0 78 R D
6431 16881 M 0 78 R D 6558 16881 M 0 78 R D 6684 16881 M 0 78 R D
2760 20779 M 3958 0 R D 2760 20779 M 0 -156 R D 3266 20779 M 0 -156 R D
3773 20779 M 0 -156 R D 4279 20779 M 0 -156 R D 4786 20779 M 0 -156 R D
5292 20779 M 0 -156 R D 5798 20779 M 0 -156 R D 6305 20779 M 0 -156 R D
2887 20779 M 0 -78 R D 3013 20779 M 0 -78 R D 3140 20779 M 0 -78 R D
3393 20779 M 0 -78 R D 3520 20779 M 0 -78 R D 3646 20779 M 0 -78 R D
3899 20779 M 0 -78 R D 4026 20779 M 0 -78 R D 4153 20779 M 0 -78 R D
4406 20779 M 0 -78 R D 4532 20779 M 0 -78 R D 4659 20779 M 0 -78 R D
4912 20779 M 0 -78 R D 5039 20779 M 0 -78 R D 5165 20779 M 0 -78 R D
5419 20779 M 0 -78 R D 5545 20779 M 0 -78 R D 5672 20779 M 0 -78 R D
5925 20779 M 0 -78 R D 6052 20779 M 0 -78 R D 6178 20779 M 0 -78 R D
6431 20779 M 0 -78 R D 6558 20779 M 0 -78 R D 6684 20779 M 0 -78 R D
2760 16881 M 0 3898 R D 2760 17280 M 158 0 R D
gsave 2649 17139 translate 0 0 M -235.373 0 N
(1) show grestore 2760 18789 M 158 0 R D gsave 2649 18648 translate 0 0 M
-470.747 0 N
(10) show grestore 2760 20298 M 158 0 R D gsave 2649 20157 translate 0 0 M
-706.12 0 N
(100) show grestore 2760 16945 M 79 0 R D 2760 17046 M 79 0 R D 2760 17134 M
79 0 R D 2760 17211 M 79 0 R D 2760 17734 M 79 0 R D 2760 18000 M 79 0 R D
2760 18189 M 79 0 R D 2760 18335 M 79 0 R D 2760 18454 M 79 0 R D
2760 18555 M 79 0 R D 2760 18643 M 79 0 R D 2760 18720 M 79 0 R D
2760 19243 M 79 0 R D 2760 19509 M 79 0 R D 2760 19697 M 79 0 R D
2760 19844 M 79 0 R D 2760 19963 M 79 0 R D 2760 20064 M 79 0 R D
2760 20152 M 79 0 R D 2760 20229 M 79 0 R D 2760 20752 M 79 0 R D
6718 16881 M 0 3898 R D 6718 17280 M -158 0 R D 6718 18789 M -158 0 R D
6718 20298 M -158 0 R D 6718 16945 M -79 0 R D 6718 17046 M -79 0 R D
6718 17134 M -79 0 R D 6718 17211 M -79 0 R D 6718 17734 M -79 0 R D
6718 18000 M -79 0 R D 6718 18189 M -79 0 R D 6718 18335 M -79 0 R D
6718 18454 M -79 0 R D 6718 18555 M -79 0 R D 6718 18643 M -79 0 R D
6718 18720 M -79 0 R D 6718 19243 M -79 0 R D 6718 19509 M -79 0 R D
6718 19697 M -79 0 R D 6718 19844 M -79 0 R D 6718 19963 M -79 0 R D
6718 20064 M -79 0 R D 6718 20152 M -79 0 R D 6718 20229 M -79 0 R D
6718 20752 M -79 0 R D 2760 20770 M 1 1 R 1 1 R 1 0 R 3 -1 R 6 -4 R 24 -11 R
50 1 R 219 5 R 228 -4 R 240 -24 R 233 -56 R 177 -71 R 125 -60 R 102 -27 R
106 5 R 127 1 R 157 -14 R 150 -43 R 144 -83 R 82 -65 R 72 -49 R 68 5 R
68 2 R 101 -9 R 96 -38 R 92 -79 R 58 -74 R 48 -66 R 40 -5 R 42 4 R 60 -5 R
62 -32 R 58 -74 R 41 -85 R 31 -75 R 27 -21 R 28 5 R 36 -3 R 36 -26 R
37 -71 R 28 -96 R 20 -82 R 17 -33 R 18 9 R 26 -2 R 24 -31 R 22 -77 R
17 -97 R 13 -87 R 11 -31 R 11 12 R 15 3 R 16 -24 R 15 -70 R 13 -108 R
8 -90 R 7 -46 R 7 16 R 9 9 R 10 -9 R 10 -47 R 11 -106 R 6 -95 R 5 -83 R
5 5 R 4 14 R 8 8 R 7 -22 R 8 -72 R 6 -106 R 4 -91 R 3 -50 R 4 15 R 5 16 R
5 -1 R 5 -36 R 6 -96 R 3 -95 R 3 -80 R 3 -18 R 3 16 R 4 12 R 4 -12 R 4 -58 R
4 -122 R 3 -81 R 2 -41 R 3 12 R 3 16 R 3 -3 R 3 -40 R 3 -95 R 2 -81 R
2 -59 R 2 -9 R 2 15 R 2 10 R 3 -13 R 2 -59 R 3 -85 R 1 -67 R 2 -35 R 1 7 R
2 13 R 2 1 R 2 -26 R 1 -16 R 0 -10 R 1 -8 R 0 -4 R 0 -5 R 0 -2 R 0 -1 R
0 -2 R 0 -7 R 1 -27 R 2 -50 R 1 -10 R 1 -7 R 0 -2 R 1 0 R 0 -1 R D
gsave 3600 26190 translate 0 0 M
(m/M=0.05) show grestore gsave 17280 8370 translate 0 0 M 90 rotate
(bs0rs0) show grestore gsave 1800 26190 translate 0 0 M
(M0mt) show grestore gsave 1800 25838 translate 0 0 M
(2.5mlr) show grestore
%%PageTrailer
end
%%PageResources: font Helvetica
%%Trailer
%%Pages: 1
%%DocumentNeededResources: font Helvetica
%%EOF
