%!PS-Adobe-3.0 EPSF-3.0
%%BoundingBox: 0 0 510 765
%%Title: Graphics produced by IDL
%%For: jlgan@aida119, /home/jlgan/work/subhalo_model
%%Creator: IDL Version 7.0 (linux x86_64 m64)
%%CreationDate: Sat Jun  6 00:48:39 2009
%%DocumentData: Clean7bit
%%Requirements: color
%%LanguageLevel: 1
%%PageOrder: Ascend
%%Pages: (atend)
%%DocumentNeededResources: (atend)
%%EndComments
%%BeginProlog
%+ prolog.ps -- Prolog for IDL generated PostScript files
%+ Copyright (c) 1988-2007 ITT Visual Information Solutions. All Rights Reserved.
%v 5
/$IDL_DICT 40 dict def $IDL_DICT begin /bdef { bind def } bind def /C
{currentpoint newpath moveto} bdef /CP {currentpoint} bdef /D {currentpoint
stroke moveto} bdef /F {closepath fill} bdef /K { setgray } bdef /M {moveto}
bdef /N {rmoveto} bdef /P {lineto} bdef /R {rlineto} bdef /S {gsave show
grestore} bdef /X {currentpoint pop} bdef /Z {gsave currentpoint lineto 20
setlinewidth 1 setlinecap stroke grestore} bdef /L0 {[] 0 setdash} bdef /L1
{[40 100] 0 setdash} bdef /L2 {[200 200] 0 setdash} bdef /L3 {[200 100 50
100] 0 setdash} bdef /L4 {[300 100 50 100 50 100 50 100] 0 setdash} bdef /L5
{[400 200] 0 setdash} bdef /STDFONT { findfont exch scalefont setfont } bdef
/ISOFONT { findfont dup length dict begin { 1 index /FID ne {def} {pop pop}
ifelse } forall /Encoding ISOLatin1Encoding def currentdict end /idltmpfont
exch definefont exch scalefont setfont } bdef /ISOBULLET { gsave /Helvetica
findfont exch scalefont setfont (\267) show currentpoint grestore moveto}
bdef /MITERLIMIT { 2.5 setmiterlimit } bdef end
%%EndProlog
%%Page: 0 1
%%PageRequirements: color
%%PageResources: (atend)
%%PageOrientation: Portrait
%%PageBoundingBox: 0 0 510 765
%%BeginPageSetup
$IDL_DICT begin 0.0283465 dup scale MITERLIMIT
%%IncludeResource: font Helvetica
423.333 /Helvetica STDFONT
%%EndPageSetup
0.000 0.000 0.000 setrgbcolor gsave 9777 892 translate 0 0 M 1.5 dup scale
-799.677 0 N
(time/Gyr) show grestore gsave 1428 13852 translate 0 0 M 90 rotate
1.5 dup scale -677.579 0 N
(r) show X -101.051 M
%%IncludeResource: font Helvetica
262.467 /Helvetica STDFONT
(apo) show X 0 M
%%IncludeResource: font Helvetica
423.333 /Helvetica STDFONT
(/kpc) show grestore 40 setlinewidth L0 2760 21859 M 3958 0 R D 2760 21859 M
0 155 R D gsave 2760 21331 translate 0 0 M -117.687 0 N
(0) show grestore 3350 21859 M 0 155 R D gsave 3350 21331 translate 0 0 M
-117.687 0 N
(1) show grestore 3939 21859 M 0 155 R D gsave 3939 21331 translate 0 0 M
-117.687 0 N
(2) show grestore 4528 21859 M 0 155 R D gsave 4528 21331 translate 0 0 M
-117.687 0 N
(3) show grestore 5118 21859 M 0 155 R D gsave 5118 21331 translate 0 0 M
-117.687 0 N
(4) show grestore 5707 21859 M 0 155 R D gsave 5707 21331 translate 0 0 M
-117.687 0 N
(5) show grestore 6297 21859 M 0 155 R D gsave 6297 21331 translate 0 0 M
-117.687 0 N
(6) show grestore 2819 21859 M 0 77 R D 2878 21859 M 0 77 R D 2937 21859 M
0 77 R D 2996 21859 M 0 77 R D 3055 21859 M 0 77 R D 3114 21859 M 0 77 R D
3173 21859 M 0 77 R D 3232 21859 M 0 77 R D 3291 21859 M 0 77 R D
3408 21859 M 0 77 R D 3467 21859 M 0 77 R D 3526 21859 M 0 77 R D
3585 21859 M 0 77 R D 3644 21859 M 0 77 R D 3703 21859 M 0 77 R D
3762 21859 M 0 77 R D 3821 21859 M 0 77 R D 3880 21859 M 0 77 R D
3998 21859 M 0 77 R D 4057 21859 M 0 77 R D 4116 21859 M 0 77 R D
4175 21859 M 0 77 R D 4234 21859 M 0 77 R D 4293 21859 M 0 77 R D
4352 21859 M 0 77 R D 4411 21859 M 0 77 R D 4470 21859 M 0 77 R D
4587 21859 M 0 77 R D 4646 21859 M 0 77 R D 4705 21859 M 0 77 R D
4764 21859 M 0 77 R D 4823 21859 M 0 77 R D 4882 21859 M 0 77 R D
4941 21859 M 0 77 R D 5000 21859 M 0 77 R D 5059 21859 M 0 77 R D
5177 21859 M 0 77 R D 5236 21859 M 0 77 R D 5295 21859 M 0 77 R D
5354 21859 M 0 77 R D 5413 21859 M 0 77 R D 5472 21859 M 0 77 R D
5531 21859 M 0 77 R D 5589 21859 M 0 77 R D 5648 21859 M 0 77 R D
5766 21859 M 0 77 R D 5825 21859 M 0 77 R D 5884 21859 M 0 77 R D
5943 21859 M 0 77 R D 6002 21859 M 0 77 R D 6061 21859 M 0 77 R D
6120 21859 M 0 77 R D 6179 21859 M 0 77 R D 6238 21859 M 0 77 R D
6356 21859 M 0 77 R D 6415 21859 M 0 77 R D 6474 21859 M 0 77 R D
6533 21859 M 0 77 R D 6592 21859 M 0 77 R D 6650 21859 M 0 77 R D
6709 21859 M 0 77 R D 2760 25756 M 3958 0 R D 2760 25756 M 0 -156 R D
3350 25756 M 0 -156 R D 3939 25756 M 0 -156 R D 4528 25756 M 0 -156 R D
5118 25756 M 0 -156 R D 5707 25756 M 0 -156 R D 6297 25756 M 0 -156 R D
2819 25756 M 0 -78 R D 2878 25756 M 0 -78 R D 2937 25756 M 0 -78 R D
2996 25756 M 0 -78 R D 3055 25756 M 0 -78 R D 3114 25756 M 0 -78 R D
3173 25756 M 0 -78 R D 3232 25756 M 0 -78 R D 3291 25756 M 0 -78 R D
3408 25756 M 0 -78 R D 3467 25756 M 0 -78 R D 3526 25756 M 0 -78 R D
3585 25756 M 0 -78 R D 3644 25756 M 0 -78 R D 3703 25756 M 0 -78 R D
3762 25756 M 0 -78 R D 3821 25756 M 0 -78 R D 3880 25756 M 0 -78 R D
3998 25756 M 0 -78 R D 4057 25756 M 0 -78 R D 4116 25756 M 0 -78 R D
4175 25756 M 0 -78 R D 4234 25756 M 0 -78 R D 4293 25756 M 0 -78 R D
4352 25756 M 0 -78 R D 4411 25756 M 0 -78 R D 4470 25756 M 0 -78 R D
4587 25756 M 0 -78 R D 4646 25756 M 0 -78 R D 4705 25756 M 0 -78 R D
4764 25756 M 0 -78 R D 4823 25756 M 0 -78 R D 4882 25756 M 0 -78 R D
4941 25756 M 0 -78 R D 5000 25756 M 0 -78 R D 5059 25756 M 0 -78 R D
5177 25756 M 0 -78 R D 5236 25756 M 0 -78 R D 5295 25756 M 0 -78 R D
5354 25756 M 0 -78 R D 5413 25756 M 0 -78 R D 5472 25756 M 0 -78 R D
5531 25756 M 0 -78 R D 5589 25756 M 0 -78 R D 5648 25756 M 0 -78 R D
5766 25756 M 0 -78 R D 5825 25756 M 0 -78 R D 5884 25756 M 0 -78 R D
5943 25756 M 0 -78 R D 6002 25756 M 0 -78 R D 6061 25756 M 0 -78 R D
6120 25756 M 0 -78 R D 6179 25756 M 0 -78 R D 6238 25756 M 0 -78 R D
6356 25756 M 0 -78 R D 6415 25756 M 0 -78 R D 6474 25756 M 0 -78 R D
6533 25756 M 0 -78 R D 6592 25756 M 0 -78 R D 6650 25756 M 0 -78 R D
6709 25756 M 0 -78 R D 2760 21859 M 0 3897 R D 2760 23022 M 79 0 R D
2760 24645 M 79 0 R D 6718 21859 M 0 3897 R D 6718 23022 M -79 0 R D
6718 24645 M -79 0 R D 2760 25716 M 118 -3 R 141 -11 R 79 -14 R 56 -24 R
43 -46 R 30 -81 R 25 -163 R 23 -368 R 21 -587 R 20 -492 R 18 -221 R
21 -109 R 28 -57 R 41 -30 R 63 -16 R 104 -8 R 193 -4 R 380 1 R 454 1 R
322 -4 R 37 -1 R 68 -6 R 21 -3 R 47 -14 R 26 -18 R 24 -35 R 19 -67 R
18 -150 R 17 -293 R 16 -337 R 15 -170 R 15 -76 R 20 -39 R 28 -21 R 42 -12 R
68 -6 R 121 -3 R 274 1 R 322 1 R 181 -1 R 29 -1 R 58 -4 R 18 -2 R 32 -7 R
22 -10 R 20 -19 R 17 -39 R 15 -84 R D 7798 21859 M 3958 0 R D 7798 21859 M
0 155 R D gsave 7798 21331 translate 0 0 M -294.217 0 N
(0.0) show grestore 8403 21859 M 0 155 R D gsave 8403 21331 translate 0 0 M
-294.217 0 N
(0.5) show grestore 9007 21859 M 0 155 R D gsave 9007 21331 translate 0 0 M
-294.217 0 N
(1.0) show grestore 9612 21859 M 0 155 R D gsave 9612 21331 translate 0 0 M
-294.217 0 N
(1.5) show grestore 10217 21859 M 0 155 R D
gsave 10217 21331 translate 0 0 M -294.217 0 N
(2.0) show grestore 10821 21859 M 0 155 R D
gsave 10821 21331 translate 0 0 M -294.217 0 N
(2.5) show grestore 11426 21859 M 0 155 R D
gsave 11426 21331 translate 0 0 M -294.217 0 N
(3.0) show grestore 7919 21859 M 0 77 R D 8040 21859 M 0 77 R D 8161 21859 M
0 77 R D 8282 21859 M 0 77 R D 8524 21859 M 0 77 R D 8645 21859 M 0 77 R D
8766 21859 M 0 77 R D 8886 21859 M 0 77 R D 9128 21859 M 0 77 R D
9249 21859 M 0 77 R D 9370 21859 M 0 77 R D 9491 21859 M 0 77 R D
9733 21859 M 0 77 R D 9854 21859 M 0 77 R D 9975 21859 M 0 77 R D
10096 21859 M 0 77 R D 10338 21859 M 0 77 R D 10459 21859 M 0 77 R D
10580 21859 M 0 77 R D 10700 21859 M 0 77 R D 10942 21859 M 0 77 R D
11063 21859 M 0 77 R D 11184 21859 M 0 77 R D 11305 21859 M 0 77 R D
11547 21859 M 0 77 R D 11668 21859 M 0 77 R D 7798 25756 M 3958 0 R D
7798 25756 M 0 -156 R D 8403 25756 M 0 -156 R D 9007 25756 M 0 -156 R D
9612 25756 M 0 -156 R D 10217 25756 M 0 -156 R D 10821 25756 M 0 -156 R D
11426 25756 M 0 -156 R D 7919 25756 M 0 -78 R D 8040 25756 M 0 -78 R D
8161 25756 M 0 -78 R D 8282 25756 M 0 -78 R D 8524 25756 M 0 -78 R D
8645 25756 M 0 -78 R D 8766 25756 M 0 -78 R D 8886 25756 M 0 -78 R D
9128 25756 M 0 -78 R D 9249 25756 M 0 -78 R D 9370 25756 M 0 -78 R D
9491 25756 M 0 -78 R D 9733 25756 M 0 -78 R D 9854 25756 M 0 -78 R D
9975 25756 M 0 -78 R D 10096 25756 M 0 -78 R D 10338 25756 M 0 -78 R D
10459 25756 M 0 -78 R D 10580 25756 M 0 -78 R D 10700 25756 M 0 -78 R D
10942 25756 M 0 -78 R D 11063 25756 M 0 -78 R D 11184 25756 M 0 -78 R D
11305 25756 M 0 -78 R D 11547 25756 M 0 -78 R D 11668 25756 M 0 -78 R D
7798 21859 M 0 3897 R D 7798 22319 M 158 0 R D
gsave 7687 22178 translate 0 0 M -706.12 0 N
(100) show grestore 7798 22056 M 79 0 R D 7798 24050 M 79 0 R D 7798 25063 M
79 0 R D 11756 21859 M 0 3897 R D 11756 22319 M -158 0 R D 11756 22056 M
-79 0 R D 11756 24050 M -79 0 R D 11756 25063 M -79 0 R D 7798 25731 M
242 -3 R 290 -10 R 161 -13 R 115 -22 R 88 -41 R 62 -75 R 50 -144 R 45 -326 R
42 -578 R 40 -551 R 37 -264 R 42 -126 R 55 -65 R 77 -35 R 120 -18 R 198 -9 R
363 -1 R 690 4 R 534 -2 R 54 -2 R 140 -9 R 26 -3 R 91 -26 R 31 -22 R
33 -51 R 28 -99 R 25 -217 R 24 -386 R 22 -377 R 21 -185 R 24 -88 R D
12836 21859 M 3958 0 R D 12836 21859 M 0 155 R D
gsave 12836 21331 translate 0 0 M -294.217 0 N
(0.0) show grestore 13732 21859 M 0 155 R D
gsave 13732 21331 translate 0 0 M -294.217 0 N
(0.5) show grestore 14628 21859 M 0 155 R D
gsave 14628 21331 translate 0 0 M -294.217 0 N
(1.0) show grestore 15524 21859 M 0 155 R D
gsave 15524 21331 translate 0 0 M -294.217 0 N
(1.5) show grestore 16420 21859 M 0 155 R D
gsave 16420 21331 translate 0 0 M -294.217 0 N
(2.0) show grestore 13015 21859 M 0 77 R D 13194 21859 M 0 77 R D
13374 21859 M 0 77 R D 13553 21859 M 0 77 R D 13911 21859 M 0 77 R D
14090 21859 M 0 77 R D 14270 21859 M 0 77 R D 14449 21859 M 0 77 R D
14807 21859 M 0 77 R D 14986 21859 M 0 77 R D 15165 21859 M 0 77 R D
15345 21859 M 0 77 R D 15703 21859 M 0 77 R D 15882 21859 M 0 77 R D
16061 21859 M 0 77 R D 16241 21859 M 0 77 R D 16599 21859 M 0 77 R D
16778 21859 M 0 77 R D 12836 25756 M 3958 0 R D 12836 25756 M 0 -156 R D
13732 25756 M 0 -156 R D 14628 25756 M 0 -156 R D 15524 25756 M 0 -156 R D
16420 25756 M 0 -156 R D 13015 25756 M 0 -78 R D 13194 25756 M 0 -78 R D
13374 25756 M 0 -78 R D 13553 25756 M 0 -78 R D 13911 25756 M 0 -78 R D
14090 25756 M 0 -78 R D 14270 25756 M 0 -78 R D 14449 25756 M 0 -78 R D
14807 25756 M 0 -78 R D 14986 25756 M 0 -78 R D 15165 25756 M 0 -78 R D
15345 25756 M 0 -78 R D 15703 25756 M 0 -78 R D 15882 25756 M 0 -78 R D
16061 25756 M 0 -78 R D 16241 25756 M 0 -78 R D 16599 25756 M 0 -78 R D
16778 25756 M 0 -78 R D 12836 21859 M 0 3897 R D 12836 24053 M 158 0 R D
gsave 12725 23913 translate 0 0 M -706.12 0 N
(100) show grestore 12836 22062 M 79 0 R D 12836 22564 M 79 0 R D
12836 22920 M 79 0 R D 12836 23196 M 79 0 R D 12836 23421 M 79 0 R D
12836 23612 M 79 0 R D 12836 23777 M 79 0 R D 12836 23923 M 79 0 R D
12836 24911 M 79 0 R D 12836 25413 M 79 0 R D 16794 21859 M 0 3897 R D
16794 24053 M -158 0 R D 16794 22062 M -79 0 R D 16794 22564 M -79 0 R D
16794 22920 M -79 0 R D 16794 23196 M -79 0 R D 16794 23421 M -79 0 R D
16794 23612 M -79 0 R D 16794 23777 M -79 0 R D 16794 23923 M -79 0 R D
16794 24911 M -79 0 R D 16794 25413 M -79 0 R D 12836 25744 M 358 -3 R
432 -6 R 237 -9 R 170 -14 R 128 -27 R 94 -49 R 71 -92 R 65 -209 R 62 -416 R
59 -475 R 55 -262 R 58 -122 R 75 -62 R 107 -30 R 163 -12 R 272 -1 R 539 7 R
407 -1 R 49 -1 R 128 -8 R 29 -3 R 51 -11 R 25 -10 R 28 -21 R 23 -34 R
20 -62 R 17 -126 R 16 -294 R 16 -660 R 16 -809 R D
gsave 17280 22950 translate 0 0 M 90 rotate
(bs0rs1) show grestore 2760 16881 M 3958 0 R D 2760 16881 M 0 156 R D
gsave 2760 16353 translate 0 0 M -117.687 0 N
(0) show grestore 3675 16881 M 0 156 R D gsave 3675 16353 translate 0 0 M
-117.687 0 N
(2) show grestore 4589 16881 M 0 156 R D gsave 4589 16353 translate 0 0 M
-117.687 0 N
(4) show grestore 5503 16881 M 0 156 R D gsave 5503 16353 translate 0 0 M
-117.687 0 N
(6) show grestore 6418 16881 M 0 156 R D gsave 6418 16353 translate 0 0 M
-117.687 0 N
(8) show grestore 2989 16881 M 0 78 R D 3217 16881 M 0 78 R D 3446 16881 M
0 78 R D 3903 16881 M 0 78 R D 4132 16881 M 0 78 R D 4360 16881 M 0 78 R D
4818 16881 M 0 78 R D 5046 16881 M 0 78 R D 5275 16881 M 0 78 R D
5732 16881 M 0 78 R D 5961 16881 M 0 78 R D 6189 16881 M 0 78 R D
6647 16881 M 0 78 R D 2760 20779 M 3958 0 R D 2760 20779 M 0 -156 R D
3675 20779 M 0 -156 R D 4589 20779 M 0 -156 R D 5503 20779 M 0 -156 R D
6418 20779 M 0 -156 R D 2989 20779 M 0 -78 R D 3217 20779 M 0 -78 R D
3446 20779 M 0 -78 R D 3903 20779 M 0 -78 R D 4132 20779 M 0 -78 R D
4360 20779 M 0 -78 R D 4818 20779 M 0 -78 R D 5046 20779 M 0 -78 R D
5275 20779 M 0 -78 R D 5732 20779 M 0 -78 R D 5961 20779 M 0 -78 R D
6189 20779 M 0 -78 R D 6647 20779 M 0 -78 R D 2760 16881 M 0 3898 R D
2760 18530 M 79 0 R D 2760 19865 M 79 0 R D 6718 16881 M 0 3898 R D
6718 18530 M -79 0 R D 6718 19865 M -79 0 R D 2760 20746 M 92 -3 R 109 -9 R
61 -12 R 44 -19 R 33 -38 R 24 -67 R 19 -134 R 18 -302 R 16 -483 R 15 -404 R
14 -182 R 17 -90 R 22 -46 R 31 -25 R 49 -13 R 81 -7 R 149 -3 R 295 0 R
352 2 R 250 -4 R 29 -1 R 53 -5 R 16 -3 R 36 -11 R 20 -14 R 19 -29 R 15 -55 R
14 -123 R 13 -241 R 12 -277 R 12 -140 R 12 -63 R 15 -32 R 22 -17 R 32 -10 R
53 -5 R 94 -2 R 213 0 R 249 1 R 141 -1 R 22 -1 R 45 -3 R 14 -2 R 25 -5 R
17 -8 R 16 -16 R 12 -32 R 12 -69 R 11 -139 R 9 -152 R 9 -91 R 10 -44 R
12 -23 R 17 -12 R 24 -7 R 39 -3 R 68 -2 R 135 0 R 204 1 R 199 -2 R 19 -2 R
15 -1 R 18 -4 R 14 -7 R 13 -14 R 11 -29 R 10 -65 R 9 -97 R D
gsave 3600 26190 translate 0 0 M
(m/M=0.05) show grestore 7798 16881 M 3958 0 R D 7798 16881 M 0 156 R D
gsave 7798 16353 translate 0 0 M -117.687 0 N
(0) show grestore 8585 16881 M 0 156 R D gsave 8585 16353 translate 0 0 M
-117.687 0 N
(1) show grestore 9371 16881 M 0 156 R D gsave 9371 16353 translate 0 0 M
-117.687 0 N
(2) show grestore 10158 16881 M 0 156 R D gsave 10158 16353 translate 0 0 M
-117.687 0 N
(3) show grestore 10944 16881 M 0 156 R D gsave 10944 16353 translate 0 0 M
-117.687 0 N
(4) show grestore 11731 16881 M 0 156 R D gsave 11731 16353 translate 0 0 M
-117.687 0 N
(5) show grestore 7877 16881 M 0 78 R D 7955 16881 M 0 78 R D 8034 16881 M
0 78 R D 8113 16881 M 0 78 R D 8191 16881 M 0 78 R D 8270 16881 M 0 78 R D
8349 16881 M 0 78 R D 8427 16881 M 0 78 R D 8506 16881 M 0 78 R D
8663 16881 M 0 78 R D 8742 16881 M 0 78 R D 8821 16881 M 0 78 R D
8899 16881 M 0 78 R D 8978 16881 M 0 78 R D 9057 16881 M 0 78 R D
9135 16881 M 0 78 R D 9214 16881 M 0 78 R D 9293 16881 M 0 78 R D
9450 16881 M 0 78 R D 9529 16881 M 0 78 R D 9607 16881 M 0 78 R D
9686 16881 M 0 78 R D 9765 16881 M 0 78 R D 9843 16881 M 0 78 R D
9922 16881 M 0 78 R D 10001 16881 M 0 78 R D 10079 16881 M 0 78 R D
10237 16881 M 0 78 R D 10315 16881 M 0 78 R D 10394 16881 M 0 78 R D
10472 16881 M 0 78 R D 10551 16881 M 0 78 R D 10630 16881 M 0 78 R D
10708 16881 M 0 78 R D 10787 16881 M 0 78 R D 10866 16881 M 0 78 R D
11023 16881 M 0 78 R D 11102 16881 M 0 78 R D 11180 16881 M 0 78 R D
11259 16881 M 0 78 R D 11338 16881 M 0 78 R D 11416 16881 M 0 78 R D
11495 16881 M 0 78 R D 11574 16881 M 0 78 R D 11652 16881 M 0 78 R D
7798 20779 M 3958 0 R D 7798 20779 M 0 -156 R D 8585 20779 M 0 -156 R D
9371 20779 M 0 -156 R D 10158 20779 M 0 -156 R D 10944 20779 M 0 -156 R D
11731 20779 M 0 -156 R D 7877 20779 M 0 -78 R D 7955 20779 M 0 -78 R D
8034 20779 M 0 -78 R D 8113 20779 M 0 -78 R D 8191 20779 M 0 -78 R D
8270 20779 M 0 -78 R D 8349 20779 M 0 -78 R D 8427 20779 M 0 -78 R D
8506 20779 M 0 -78 R D 8663 20779 M 0 -78 R D 8742 20779 M 0 -78 R D
8821 20779 M 0 -78 R D 8899 20779 M 0 -78 R D 8978 20779 M 0 -78 R D
9057 20779 M 0 -78 R D 9135 20779 M 0 -78 R D 9214 20779 M 0 -78 R D
9293 20779 M 0 -78 R D 9450 20779 M 0 -78 R D 9529 20779 M 0 -78 R D
9607 20779 M 0 -78 R D 9686 20779 M 0 -78 R D 9765 20779 M 0 -78 R D
9843 20779 M 0 -78 R D 9922 20779 M 0 -78 R D 10001 20779 M 0 -78 R D
10079 20779 M 0 -78 R D 10237 20779 M 0 -78 R D 10315 20779 M 0 -78 R D
10394 20779 M 0 -78 R D 10472 20779 M 0 -78 R D 10551 20779 M 0 -78 R D
10630 20779 M 0 -78 R D 10708 20779 M 0 -78 R D 10787 20779 M 0 -78 R D
10866 20779 M 0 -78 R D 11023 20779 M 0 -78 R D 11102 20779 M 0 -78 R D
11180 20779 M 0 -78 R D 11259 20779 M 0 -78 R D 11338 20779 M 0 -78 R D
11416 20779 M 0 -78 R D 11495 20779 M 0 -78 R D 11574 20779 M 0 -78 R D
11652 20779 M 0 -78 R D 7798 16881 M 0 3898 R D 7798 18140 M 158 0 R D
gsave 7687 17999 translate 0 0 M -706.12 0 N
(100) show grestore 7798 17161 M 79 0 R D 7798 17456 M 79 0 R D 7798 17712 M
79 0 R D 7798 17938 M 79 0 R D 7798 19469 M 79 0 R D 7798 20246 M 79 0 R D
11756 16881 M 0 3898 R D 11756 18140 M -158 0 R D 11756 17161 M -79 0 R D
11756 17456 M -79 0 R D 11756 17712 M -79 0 R D 11756 17938 M -79 0 R D
11756 19469 M -79 0 R D 11756 20246 M -79 0 R D 7798 20759 M 157 -2 R
189 -8 R 105 -10 R 75 -17 R 57 -31 R 40 -57 R 32 -111 R 30 -250 R 27 -444 R
27 -423 R 24 -203 R 27 -96 R 35 -50 R 51 -27 R 77 -14 R 129 -6 R 237 -2 R
448 4 R 348 -2 R 35 -2 R 91 -6 R 17 -3 R 59 -20 R 20 -17 R 22 -39 R 18 -76 R
16 -166 R 15 -297 R 15 -289 R 14 -142 R 15 -68 R 20 -35 R 29 -19 R 43 -10 R
73 -4 R 131 1 R 209 3 R 109 -1 R 23 0 R 53 -4 R 11 -2 R 40 -13 R 12 -12 R
14 -26 R 11 -49 R 10 -108 R 10 -197 R 9 -203 R 9 -101 R 9 -48 R 12 -25 R
18 -14 R 26 -6 R 44 -3 R 78 0 R 147 2 R 56 1 R 17 -1 R 37 -1 R 8 -1 R
31 -8 R 8 -7 R 11 -15 R D gsave 8820 26190 translate 0 0 M
(m/M=0.10) show grestore 12836 16881 M 3958 0 R D 12836 16881 M 0 156 R D
gsave 12836 16353 translate 0 0 M -294.217 0 N
(0.0) show grestore 13683 16881 M 0 156 R D
gsave 13683 16353 translate 0 0 M -294.217 0 N
(0.5) show grestore 14530 16881 M 0 156 R D
gsave 14530 16353 translate 0 0 M -294.217 0 N
(1.0) show grestore 15377 16881 M 0 156 R D
gsave 15377 16353 translate 0 0 M -294.217 0 N
(1.5) show grestore 16224 16881 M 0 156 R D
gsave 16224 16353 translate 0 0 M -294.217 0 N
(2.0) show grestore 13006 16881 M 0 78 R D 13175 16881 M 0 78 R D
13344 16881 M 0 78 R D 13514 16881 M 0 78 R D 13853 16881 M 0 78 R D
14022 16881 M 0 78 R D 14191 16881 M 0 78 R D 14361 16881 M 0 78 R D
14700 16881 M 0 78 R D 14869 16881 M 0 78 R D 15039 16881 M 0 78 R D
15208 16881 M 0 78 R D 15547 16881 M 0 78 R D 15716 16881 M 0 78 R D
15886 16881 M 0 78 R D 16055 16881 M 0 78 R D 16394 16881 M 0 78 R D
16563 16881 M 0 78 R D 16733 16881 M 0 78 R D 12836 20779 M 3958 0 R D
12836 20779 M 0 -156 R D 13683 20779 M 0 -156 R D 14530 20779 M 0 -156 R D
15377 20779 M 0 -156 R D 16224 20779 M 0 -156 R D 13006 20779 M 0 -78 R D
13175 20779 M 0 -78 R D 13344 20779 M 0 -78 R D 13514 20779 M 0 -78 R D
13853 20779 M 0 -78 R D 14022 20779 M 0 -78 R D 14191 20779 M 0 -78 R D
14361 20779 M 0 -78 R D 14700 20779 M 0 -78 R D 14869 20779 M 0 -78 R D
15039 20779 M 0 -78 R D 15208 20779 M 0 -78 R D 15547 20779 M 0 -78 R D
15716 20779 M 0 -78 R D 15886 20779 M 0 -78 R D 16055 20779 M 0 -78 R D
16394 20779 M 0 -78 R D 16563 20779 M 0 -78 R D 16733 20779 M 0 -78 R D
12836 16881 M 0 3898 R D 12836 19283 M 158 0 R D
gsave 12725 19142 translate 0 0 M -706.12 0 N
(100) show grestore 12836 17534 M 79 0 R D 12836 17975 M 79 0 R D
12836 18287 M 79 0 R D 12836 18530 M 79 0 R D 12836 18728 M 79 0 R D
12836 18895 M 79 0 R D 12836 19041 M 79 0 R D 12836 19169 M 79 0 R D
12836 20036 M 79 0 R D 12836 20477 M 79 0 R D 16794 16881 M 0 3898 R D
16794 19283 M -158 0 R D 16794 17534 M -79 0 R D 16794 17975 M -79 0 R D
16794 18287 M -79 0 R D 16794 18530 M -79 0 R D 16794 18728 M -79 0 R D
16794 18895 M -79 0 R D 16794 19041 M -79 0 R D 16794 19169 M -79 0 R D
16794 20036 M -79 0 R D 16794 20477 M -79 0 R D 12836 20768 M 339 -2 R
408 -6 R 224 -8 R 161 -12 R 121 -24 R 89 -43 R 67 -81 R 62 -183 R 58 -366 R
55 -417 R 52 -230 R 55 -107 R 72 -54 R 100 -27 R 155 -11 R 256 0 R 511 6 R
384 -1 R 47 -1 R 121 -7 R 27 -3 R 48 -9 R 24 -9 R 27 -18 R 22 -30 R 18 -55 R
16 -110 R 15 -258 R 15 -581 R 15 -710 R 14 -358 R 16 -104 R 22 -12 R 35 4 R
63 4 R 56 0 R D gsave 14040 26190 translate 0 0 M
(m/M=0.20) show grestore gsave 17280 18090 translate 0 0 M 90 rotate
(bs0rs0.5) show grestore 2760 11903 M 3958 0 R D 2760 11903 M 0 156 R D
gsave 2760 11375 translate 0 0 M -117.687 0 N
(0) show grestore 3514 11903 M 0 156 R D gsave 3514 11375 translate 0 0 M
-117.687 0 N
(5) show grestore 4268 11903 M 0 156 R D gsave 4268 11375 translate 0 0 M
-235.373 0 N
(10) show grestore 5022 11903 M 0 156 R D gsave 5022 11375 translate 0 0 M
-235.373 0 N
(15) show grestore 5776 11903 M 0 156 R D gsave 5776 11375 translate 0 0 M
-235.373 0 N
(20) show grestore 6530 11903 M 0 156 R D gsave 6530 11375 translate 0 0 M
-235.373 0 N
(25) show grestore 2911 11903 M 0 78 R D 3062 11903 M 0 78 R D 3212 11903 M
0 78 R D 3363 11903 M 0 78 R D 3665 11903 M 0 78 R D 3816 11903 M 0 78 R D
3966 11903 M 0 78 R D 4117 11903 M 0 78 R D 4419 11903 M 0 78 R D
4569 11903 M 0 78 R D 4720 11903 M 0 78 R D 4871 11903 M 0 78 R D
5173 11903 M 0 78 R D 5323 11903 M 0 78 R D 5474 11903 M 0 78 R D
5625 11903 M 0 78 R D 5926 11903 M 0 78 R D 6077 11903 M 0 78 R D
6228 11903 M 0 78 R D 6379 11903 M 0 78 R D 6680 11903 M 0 78 R D
2760 15801 M 3958 0 R D 2760 15801 M 0 -156 R D 3514 15801 M 0 -156 R D
4268 15801 M 0 -156 R D 5022 15801 M 0 -156 R D 5776 15801 M 0 -156 R D
6530 15801 M 0 -156 R D 2911 15801 M 0 -78 R D 3062 15801 M 0 -78 R D
3212 15801 M 0 -78 R D 3363 15801 M 0 -78 R D 3665 15801 M 0 -78 R D
3816 15801 M 0 -78 R D 3966 15801 M 0 -78 R D 4117 15801 M 0 -78 R D
4419 15801 M 0 -78 R D 4569 15801 M 0 -78 R D 4720 15801 M 0 -78 R D
4871 15801 M 0 -78 R D 5173 15801 M 0 -78 R D 5323 15801 M 0 -78 R D
5474 15801 M 0 -78 R D 5625 15801 M 0 -78 R D 5926 15801 M 0 -78 R D
6077 15801 M 0 -78 R D 6228 15801 M 0 -78 R D 6379 15801 M 0 -78 R D
6680 15801 M 0 -78 R D 2760 11903 M 0 3898 R D 2760 12304 M 158 0 R D
gsave 2649 12164 translate 0 0 M -706.12 0 N
(100) show grestore 2760 12037 M 79 0 R D 2760 14065 M 79 0 R D 2760 15095 M
79 0 R D 6718 11903 M 0 3898 R D 6718 12304 M -158 0 R D 6718 12037 M
-79 0 R D 6718 14065 M -79 0 R D 6718 15095 M -79 0 R D 2760 15776 M 30 -3 R
36 -6 R 20 -10 R 15 -15 R 11 -28 R 8 -52 R 6 -104 R 6 -233 R 5 -373 R
5 -312 R 5 -140 R 5 -70 R 8 -36 R 10 -18 R 16 -11 R 27 -5 R 49 -2 R 97 0 R
116 1 R 83 -3 R 9 -1 R 18 -3 R 5 -2 R 12 -9 R 7 -11 R 6 -22 R 5 -43 R
4 -95 R 5 -186 R 4 -214 R 3 -108 R 4 -48 R 5 -25 R 8 -14 R 10 -7 R 18 -4 R
31 -1 R 70 0 R 82 1 R 46 -1 R 8 -1 R 15 -2 R 4 -2 R 8 -4 R 6 -6 R 5 -13 R
4 -24 R 4 -54 R 4 -106 R 3 -118 R 3 -70 R 3 -34 R 4 -18 R 6 -9 R 8 -5 R
13 -3 R 22 -1 R 44 -1 R 68 1 R 65 -1 R 7 -1 R 5 -2 R 5 -3 R 5 -5 R 4 -11 R
4 -23 R 3 -50 R 3 -75 R 3 -60 R 3 -28 R 3 -14 R 4 -8 R 6 -5 R 9 -2 R 16 -1 R
27 -1 R 59 1 R 51 0 R 9 0 R 7 -1 R 10 0 R 4 -1 R 8 -1 R 4 -2 R 5 -4 R 4 -7 R
3 -16 R 3 -35 R 3 -49 R 2 -35 R 3 -17 R 3 -9 R 4 -5 R 6 -3 R 9 -1 R 15 -1 R
28 0 R 62 0 R 55 0 R 5 -1 R 5 0 R 5 -1 R 5 -2 R 3 -3 R 4 -7 R 3 -17 R
2 -30 R 3 -32 R 3 -17 R 2 -8 R 4 -4 R 4 -3 R 8 -1 R 12 -1 R 20 0 R 47 0 R
46 0 R 18 0 R 5 0 R 11 0 R 4 0 R 5 -1 R 5 -1 R 3 -2 R 4 -5 R 3 -10 R 2 -21 R
3 -22 R 2 -14 R 2 -6 R 3 -4 R 5 -2 R 6 -2 R 10 0 R 17 0 R 34 0 R 51 0 R
28 0 R 5 0 R 10 -1 R 4 0 R 5 0 R 4 -1 R 4 -2 R 3 -3 R 3 -9 R 3 -16 R 2 -17 R
2 -9 R 2 -5 R 4 -3 R 4 -1 R 6 -1 R 11 0 R 18 0 R 38 0 R 50 0 R 16 0 R 5 0 R
11 -1 R 4 0 R 5 0 R 4 -1 R 4 -1 R 3 -2 R 3 -6 R 2 -12 R 2 -13 R 3 -9 R
2 -4 R 3 -3 R 4 -1 R 5 -1 R 10 0 R 15 -1 R 31 0 R 49 1 R 28 -1 R 5 0 R
10 0 R 4 0 R 4 0 R 5 -1 R 3 -1 R 3 -2 R 3 -6 R 2 -10 R 3 -11 R 2 -6 R 2 -3 R
3 -2 R 5 -1 R 6 -1 R 11 0 R 19 0 R 41 0 R 42 0 R 14 0 R 12 0 R 3 0 R 9 0 R
3 -1 R 4 -1 R 3 -2 R 3 -4 R 2 -9 R 2 -10 R 2 -5 R 3 -3 R 3 -1 R 4 -1 R
7 -1 R 10 0 R 19 0 R 40 0 R 41 0 R 14 0 R 12 0 R 3 0 R 9 0 R 3 -1 R 4 0 R
3 -2 R 2 -4 R 3 -7 R 2 -9 R 2 -5 R 3 -2 R 3 -2 R 4 0 R 6 -1 R 11 0 R 18 0 R
40 0 R 41 0 R 13 0 R 12 0 R 3 0 R 9 -1 R 3 0 R 3 -1 R 3 -1 R 3 -4 R 2 -6 R
2 -8 R 2 -4 R 3 -2 R 3 -2 R 4 0 R 6 -1 R 11 0 R 18 0 R 40 0 R 40 0 R 12 0 R
12 0 R 2 0 R 9 0 R 4 -1 R 3 0 R 3 -2 R 2 -3 R 3 -5 R 2 -7 R 2 -4 R 2 -3 R
3 -1 R 4 -1 R 5 0 R 10 0 R 16 0 R 32 0 R 46 0 R 16 0 R 5 0 R 10 0 R 3 0 R
5 -1 R 4 0 R 3 0 R 3 -1 R 3 -3 R 2 -5 R 2 -6 R 2 -5 R 2 -2 R 3 -1 R 4 -1 R
5 0 R 9 0 R 14 -1 R 29 0 R 46 0 R 22 0 R 5 0 R 10 0 R 3 0 R 5 0 R 3 0 R
4 -1 R 3 -1 R 2 -2 R 2 -5 R 2 -6 R 2 -4 R 3 -2 R 2 -1 R 4 -1 R 5 0 R 9 0 R
16 0 R 30 0 R 45 0 R 18 0 R 5 0 R 10 0 R 3 0 R 5 -1 R 3 0 R 4 0 R 3 -1 R
2 -3 R 2 -4 R 2 -6 R 2 -3 R 2 -2 R 3 -2 R 4 0 R 3 0 R D 7798 11903 M
3958 0 R D 7798 11903 M 0 156 R D gsave 7798 11375 translate 0 0 M
-117.687 0 N
(0) show grestore 8552 11903 M 0 156 R D gsave 8552 11375 translate 0 0 M
-117.687 0 N
(5) show grestore 9306 11903 M 0 156 R D gsave 9306 11375 translate 0 0 M
-235.373 0 N
(10) show grestore 10060 11903 M 0 156 R D gsave 10060 11375 translate 0 0 M
-235.373 0 N
(15) show grestore 10814 11903 M 0 156 R D gsave 10814 11375 translate 0 0 M
-235.373 0 N
(20) show grestore 11568 11903 M 0 156 R D gsave 11568 11375 translate 0 0 M
-235.373 0 N
(25) show grestore 7949 11903 M 0 78 R D 8100 11903 M 0 78 R D 8250 11903 M
0 78 R D 8401 11903 M 0 78 R D 8703 11903 M 0 78 R D 8854 11903 M 0 78 R D
9004 11903 M 0 78 R D 9155 11903 M 0 78 R D 9457 11903 M 0 78 R D
9607 11903 M 0 78 R D 9758 11903 M 0 78 R D 9909 11903 M 0 78 R D
10211 11903 M 0 78 R D 10361 11903 M 0 78 R D 10512 11903 M 0 78 R D
10663 11903 M 0 78 R D 10964 11903 M 0 78 R D 11115 11903 M 0 78 R D
11266 11903 M 0 78 R D 11417 11903 M 0 78 R D 11718 11903 M 0 78 R D
7798 15801 M 3958 0 R D 7798 15801 M 0 -156 R D 8552 15801 M 0 -156 R D
9306 15801 M 0 -156 R D 10060 15801 M 0 -156 R D 10814 15801 M 0 -156 R D
11568 15801 M 0 -156 R D 7949 15801 M 0 -78 R D 8100 15801 M 0 -78 R D
8250 15801 M 0 -78 R D 8401 15801 M 0 -78 R D 8703 15801 M 0 -78 R D
8854 15801 M 0 -78 R D 9004 15801 M 0 -78 R D 9155 15801 M 0 -78 R D
9457 15801 M 0 -78 R D 9607 15801 M 0 -78 R D 9758 15801 M 0 -78 R D
9909 15801 M 0 -78 R D 10211 15801 M 0 -78 R D 10361 15801 M 0 -78 R D
10512 15801 M 0 -78 R D 10663 15801 M 0 -78 R D 10964 15801 M 0 -78 R D
11115 15801 M 0 -78 R D 11266 15801 M 0 -78 R D 11417 15801 M 0 -78 R D
11718 15801 M 0 -78 R D 7798 11903 M 0 3898 R D 7798 13807 M 158 0 R D
gsave 7687 13666 translate 0 0 M -706.12 0 N
(100) show grestore 7798 12062 M 79 0 R D 7798 12479 M 79 0 R D 7798 12802 M
79 0 R D 7798 13067 M 79 0 R D 7798 13290 M 79 0 R D 7798 13483 M 79 0 R D
7798 13654 M 79 0 R D 7798 14811 M 79 0 R D 7798 15399 M 79 0 R D
11756 11903 M 0 3898 R D 11756 13807 M -158 0 R D 11756 12062 M -79 0 R D
11756 12479 M -79 0 R D 11756 12802 M -79 0 R D 11756 13067 M -79 0 R D
11756 13290 M -79 0 R D 11756 13483 M -79 0 R D 11756 13654 M -79 0 R D
11756 14811 M -79 0 R D 11756 15399 M -79 0 R D 7798 15787 M 30 -3 R 36 -5 R
20 -8 R 15 -12 R 11 -24 R 8 -44 R 6 -83 R 5 -189 R 6 -336 R 5 -320 R
4 -153 R 5 -73 R 7 -38 R 10 -20 R 15 -10 R 25 -5 R 45 -1 R 86 2 R 66 -1 R
7 -1 R 18 -5 R 3 -2 R 11 -15 R 4 -13 R 4 -30 R 4 -57 R 3 -126 R 3 -224 R
3 -218 R 2 -107 R 3 -52 R 4 -27 R 5 -14 R 9 -7 R 14 -3 R 25 0 R 40 2 R
21 0 R 4 0 R 10 -3 R 2 -1 R 8 -11 R 2 -8 R 3 -20 R 2 -38 R 2 -81 R 2 -149 R
2 -153 R 1 -77 R 2 -36 R 3 -19 R 3 -10 R 5 -5 R 8 -2 R 15 0 R 29 2 R 10 0 R
4 0 R 7 -2 R 1 0 R 6 -6 R 2 -5 R 2 -12 R 1 -21 R 2 -46 R 1 -89 R 1 -105 R
1 -55 R 2 -25 R 1 -13 R 3 -7 R 3 -3 R 5 -2 R 10 0 R 20 1 R 16 0 R 5 -1 R
1 0 R 5 -2 R 1 -2 R 2 -5 R 1 -9 R 2 -19 R 1 -40 R 1 -59 R 1 -49 R 0 -22 R
2 -12 R 1 -6 R 2 -3 R 3 -2 R 5 0 R 9 0 R 19 0 R 8 0 R 6 0 R 2 0 R 2 -1 R
2 0 R 2 -2 R 1 -3 R 1 -6 R 1 -14 R 1 -27 R 1 -34 R 1 -22 R 1 -10 R 1 -5 R
1 -3 R 2 -2 R 3 0 R 6 -1 R 9 0 R 21 1 R 4 0 R 2 0 R 3 -1 R 1 0 R 2 0 R
2 -1 R 1 -2 R 1 -3 R 1 -6 R 1 -13 R 1 -19 R 1 -14 R 0 -6 R 1 -4 R 1 -1 R
2 -1 R 2 -1 R 4 0 R 8 0 R 14 0 R 12 0 R 5 0 R 2 0 R 1 0 R 2 0 R 1 -1 R
1 -1 R 1 -1 R 1 -4 R 1 -8 R 1 -11 R 1 -7 R 0 -3 R 1 -2 R 1 -1 R 2 -1 R 3 0 R
4 0 R 7 0 R 16 0 R 8 0 R 5 0 R 2 0 R 2 0 R 2 0 R 1 -1 R 1 0 R 1 -1 R 1 -2 R
1 -5 R 1 -6 R 0 -4 R 1 -2 R 1 -2 R 1 0 R 2 0 R 2 -1 R 4 0 R 8 0 R 17 0 R
6 0 R 5 0 R 1 0 R 3 0 R 2 0 R 1 0 R 1 0 R 1 -1 R 1 -1 R 1 -3 R 1 -4 R 0 -2 R
1 -2 R 1 0 R 1 -1 R 1 0 R 3 0 R 4 0 R 8 0 R 17 0 R 5 0 R 4 0 R 2 0 R 3 0 R
2 0 R 1 0 R 1 0 R 1 -1 R 1 0 R 1 -2 R 1 -2 R 0 -2 R 1 -1 R 1 -1 R 1 0 R
1 0 R 2 0 R 4 0 R 7 0 R 12 0 R 16 0 R 2 0 R 1 0 R 4 0 R 1 0 R 1 0 R 1 -1 R
1 0 R 1 -1 R 1 -2 R 0 -1 R 1 -1 R 1 0 R 1 0 R 2 -1 R 2 0 R 4 0 R 7 0 R
14 0 R 10 0 R 5 0 R 1 0 R 2 0 R 2 0 R 1 0 R 1 0 R 1 0 R 1 0 R 1 -1 R 1 -1 R
0 -1 R 1 -1 R 1 0 R 1 0 R 1 0 R 3 0 R 4 0 R 7 0 R 14 0 R 10 0 R 4 0 R 2 0 R
2 0 R 1 0 R 2 0 R 1 0 R 1 0 R 1 -1 R 1 -1 R 1 -1 R 1 0 R 0 -1 R 1 0 R 2 0 R
2 0 R 4 0 R 7 0 R 15 0 R 9 0 R 5 0 R 2 0 R 1 0 R 2 0 R 1 0 R 1 0 R 1 0 R
1 0 R 1 -1 R 1 -1 R 1 0 R 1 -1 R 1 0 R 2 0 R 2 0 R 4 0 R 7 0 R 16 0 R 7 0 R
5 0 R 2 0 R 2 0 R 1 0 R 2 0 R 1 0 R 1 0 R 1 0 R 0 -1 R 1 0 R 1 -1 R 1 0 R
1 0 R 2 0 R 2 0 R 4 0 R 6 0 R 13 0 R 14 0 R 3 0 R 1 0 R 3 0 R 1 0 R 2 0 R
1 0 R 1 0 R 1 -1 R 1 -1 R 1 0 R 1 0 R 2 0 R 2 0 R 3 0 R 6 0 R 11 0 R 19 0 R
2 0 R 1 0 R 4 0 R 1 0 R 1 0 R 1 0 R 1 0 R 0 -1 R 1 0 R 1 -1 R 1 0 R 1 0 R
2 0 R 3 0 R 4 0 R 8 0 R 17 0 R 3 0 R 3 0 R 2 0 R 3 0 R 1 0 R 2 0 R 1 0 R
2 0 R 1 0 R 1 -1 R 1 0 R 1 0 R 1 -1 R 1 0 R 2 0 R 2 0 R 4 0 R 6 0 R 13 0 R
13 0 R 3 0 R 2 0 R 2 0 R 1 0 R 2 0 R 1 0 R 1 0 R 1 0 R 1 -1 R 1 0 R 1 0 R
1 0 R 2 0 R 2 0 R 4 0 R 6 0 R 14 0 R 12 0 R 4 0 R 1 0 R 2 0 R 1 0 R 2 0 R
1 0 R 1 0 R 1 -1 R 1 0 R 1 0 R 1 -1 R 1 0 R 2 0 R 2 0 R 4 0 R 6 0 R 13 0 R
14 0 R 3 0 R 1 0 R 4 0 R 2 0 R 1 0 R 1 0 R 1 0 R 1 -1 R 1 0 R 1 0 R 2 0 R
2 0 R 3 0 R 7 0 R 12 0 R 18 0 R 3 0 R 1 0 R 2 0 R 1 0 R 1 0 R 1 0 R 1 0 R
0 -1 R 1 0 R 1 0 R 1 0 R 1 0 R 1 0 R 3 0 R 4 0 R 8 0 R 16 0 R 5 0 R 5 0 R
1 0 R 4 0 R 1 0 R 1 0 R 1 0 R 1 0 R 1 0 R 1 -1 R 1 0 R 1 0 R 0 -1 R 2 0 R
1 0 R 3 0 R 4 0 R 7 0 R 15 0 R 7 0 R 5 0 R 2 0 R 2 0 R 1 0 R 2 0 R 1 0 R
1 0 R 1 0 R 1 0 R 1 -1 R 1 0 R 1 0 R 2 0 R 2 0 R 4 0 R 8 0 R 14 0 R 8 0 R
5 0 R 2 0 R 2 0 R 1 0 R 2 0 R 1 0 R 1 0 R 1 0 R 1 -1 R 1 0 R 1 0 R 1 0 R
2 0 R 2 0 R 4 0 R 7 0 R 15 0 R 8 0 R 5 0 R 2 0 R 2 0 R 1 0 R 1 0 R 2 0 R
1 0 R 1 -1 R 1 0 R 1 0 R 1 0 R 1 0 R 2 -1 R 2 0 R 4 0 R 7 1 R 14 -1 R 10 1 R
4 0 R 2 -1 R 1 0 R 2 0 R 1 0 R 1 0 R 1 0 R 1 0 R 1 0 R 1 0 R 1 -1 R 1 0 R
1 0 R 1 0 R 3 0 R 3 0 R 7 0 R 13 0 R 12 0 R 4 0 R 2 0 R 1 0 R 2 0 R 1 0 R
1 0 R 1 0 R 1 0 R 1 0 R 1 -1 R 1 0 R 1 0 R 2 0 R 2 0 R 4 0 R 7 0 R 13 0 R
12 0 R 4 0 R 1 0 R 2 0 R 1 0 R 2 0 R 1 0 R 1 0 R 1 0 R 1 -1 R 1 0 R 1 0 R
1 0 R 2 0 R 2 0 R 3 0 R 7 0 R 12 0 R 15 0 R 2 0 R 2 0 R 2 0 R 1 0 R 2 0 R
1 0 R 1 0 R 1 0 R 0 -1 R 1 0 R 1 0 R 1 0 R 1 0 R 2 0 R 3 0 R 4 0 R 9 0 R
18 0 R 2 0 R 5 0 R 2 0 R 2 0 R 1 0 R 1 0 R 1 0 R 1 0 R 1 -1 R 1 0 R 1 0 R
1 0 R 1 -1 R 1 0 R 1 0 R 3 0 R 4 0 R 8 0 R 16 0 R 5 0 R 5 0 R 1 0 R 3 0 R
1 0 R 2 0 R 1 0 R 1 0 R 1 0 R 1 0 R 1 -1 R 1 0 R 1 0 R 2 0 R 2 0 R 4 0 R
8 0 R 16 0 R 5 0 R 5 0 R 2 0 R 3 0 R 1 0 R 1 0 R 2 0 R 1 0 R 1 0 R 1 -1 R
1 0 R 1 0 R 1 0 R 2 0 R 2 0 R 4 0 R 8 0 R 17 0 R 4 0 R 3 0 R 2 0 R 3 0 R
1 0 R 2 0 R 1 0 R 1 0 R 1 0 R 1 0 R 1 -1 R 1 0 R 1 0 R 2 0 R 1 0 R 3 0 R
5 0 R 8 0 R 18 0 R 4 0 R 2 0 R 4 0 R 1 0 R 2 0 R 1 0 R 1 0 R 1 0 R 1 -1 R
1 0 R 1 0 R 1 0 R 2 0 R 2 0 R 3 0 R 6 0 R 11 0 R 18 0 R 2 0 R 1 0 R 4 0 R
1 0 R 1 0 R 1 0 R 1 0 R 0 -1 R 1 0 R 1 0 R 1 0 R 1 0 R 2 0 R 2 0 R 4 0 R
7 0 R 14 0 R 9 0 R 5 0 R 1 0 R 2 0 R 2 0 R 1 0 R 1 0 R 1 0 R 1 -1 R 1 0 R
1 0 R 1 0 R 1 -1 R 2 0 R 2 0 R 4 0 R 6 0 R 14 0 R 11 0 R 4 0 R 2 0 R 1 0 R
2 0 R 1 0 R 1 0 R 1 0 R 1 0 R 1 0 R 1 0 R 1 0 R 1 -1 R 1 0 R 1 0 R 2 0 R
4 0 R 6 0 R 13 0 R 14 0 R 2 0 R 1 0 R 4 0 R 1 0 R 2 0 R 1 0 R 1 0 R 1 0 R
1 0 R 1 -1 R 1 0 R 1 0 R 2 0 R 4 0 R 6 0 R 12 0 R 18 1 R 4 0 R 1 0 R 1 0 R
1 0 R 1 0 R D 10682 11994 M 1 0 R 1 -1 R 1 0 R 1 0 R 1 0 R 1 0 R 1 0 R 3 0 R
5 0 R 8 0 R 18 0 R 1 0 R 9 0 R 1 0 R 2 0 R 1 0 R 1 0 R 1 0 R 1 -1 R 1 0 R
1 0 R 1 0 R 2 0 R 2 0 R 3 0 R 6 0 R 12 0 R 18 0 R 3 0 R 1 0 R 2 0 R 1 0 R
1 0 R 1 0 R 1 0 R 1 0 R 0 -1 R 1 0 R 1 0 R 1 0 R 1 0 R 2 0 R 4 0 R 6 0 R
13 0 R 14 0 R 2 0 R 1 0 R 4 0 R 1 0 R 1 0 R 1 0 R 1 0 R 1 0 R 1 0 R 0 -1 R
1 0 R 1 0 R 1 0 R 1 0 R 2 0 R 4 0 R 6 0 R 11 0 R 18 0 R 4 0 R 1 0 R 2 0 R
1 0 R 1 0 R 1 0 R 1 0 R 1 0 R 0 -1 R 1 0 R 1 0 R 2 0 R 2 0 R 5 0 R 7 0 R
16 0 R 5 0 R 5 0 R 1 0 R 4 0 R 1 0 R 1 0 R 1 0 R 1 0 R 1 0 R 1 0 R 1 -1 R
1 0 R 1 0 R 2 0 R 3 0 R 4 0 R 7 0 R 17 0 R 4 0 R 5 0 R 1 0 R 4 0 R 1 0 R
1 0 R 1 0 R 1 0 R 1 0 R 1 0 R 0 -1 R 1 0 R 1 0 R 1 0 R 2 0 R 2 0 R 4 0 R
8 0 R 15 0 R 7 0 R 4 0 R 2 0 R 3 0 R 1 0 R 1 0 R 1 0 R 1 0 R 1 0 R 1 -1 R
1 0 R 1 0 R 1 0 R 2 0 R 2 0 R 4 0 R 7 0 R 15 0 R 8 0 R 5 0 R 1 0 R 2 0 R
2 0 R 1 0 R 1 0 R 1 0 R 1 0 R 1 -1 R 1 0 R 1 0 R 1 0 R 2 0 R 2 0 R 4 0 R
7 0 R 13 0 R 11 0 R 4 0 R 2 0 R 1 0 R 2 0 R 1 0 R 1 0 R 1 0 R 1 0 R 1 -1 R
1 0 R 1 0 R 1 0 R 2 0 R 2 0 R 4 0 R 7 0 R 14 0 R 9 0 R 5 0 R 1 0 R 2 0 R
2 0 R 1 0 R 1 0 R 1 0 R 1 -1 R 1 0 R 1 0 R 1 0 R 1 0 R 2 0 R 2 0 R 4 0 R
6 0 R 13 0 R 12 0 R 4 0 R 2 0 R 1 0 R 1 0 R 2 0 R 1 0 R 1 0 R 1 -1 R 1 0 R
1 0 R 1 0 R 1 0 R 1 0 R 3 0 R 3 0 R 6 0 R 12 0 R 18 0 R 3 0 R 1 0 R 2 0 R
1 0 R 1 0 R 1 0 R 0 -1 R 1 0 R 1 0 R 1 0 R 1 0 R 2 0 R 2 0 R 4 0 R 6 0 R
14 0 R 10 0 R 5 0 R 1 0 R 2 0 R 1 0 R 2 0 R 1 0 R 1 0 R 1 0 R 0 -1 R 1 0 R
1 0 R 1 0 R 1 0 R 2 0 R 2 0 R 4 0 R 7 0 R 14 0 R 9 0 R 4 0 R 2 0 R 2 0 R
1 0 R 1 0 R 2 0 R 1 0 R 1 -1 R 1 0 R 1 0 R 1 0 R 1 0 R 1 0 R 2 0 R 4 0 R
7 0 R 13 0 R 11 0 R 4 0 R 2 0 R 1 0 R 2 0 R 1 0 R 1 0 R 1 0 R 1 0 R 1 -1 R
1 0 R 1 0 R 1 0 R 2 0 R 2 0 R 3 0 R 7 0 R 12 0 R 15 0 R D 12836 11903 M
3958 0 R D 12836 11903 M 0 156 R D gsave 12836 11375 translate 0 0 M
-294.217 0 N
(0.0) show grestore 13683 11903 M 0 156 R D
gsave 13683 11375 translate 0 0 M -294.217 0 N
(0.5) show grestore 14530 11903 M 0 156 R D
gsave 14530 11375 translate 0 0 M -294.217 0 N
(1.0) show grestore 15377 11903 M 0 156 R D
gsave 15377 11375 translate 0 0 M -294.217 0 N
(1.5) show grestore 16224 11903 M 0 156 R D
gsave 16224 11375 translate 0 0 M -294.217 0 N
(2.0) show grestore 13006 11903 M 0 78 R D 13175 11903 M 0 78 R D
13344 11903 M 0 78 R D 13514 11903 M 0 78 R D 13853 11903 M 0 78 R D
14022 11903 M 0 78 R D 14191 11903 M 0 78 R D 14361 11903 M 0 78 R D
14700 11903 M 0 78 R D 14869 11903 M 0 78 R D 15039 11903 M 0 78 R D
15208 11903 M 0 78 R D 15547 11903 M 0 78 R D 15716 11903 M 0 78 R D
15886 11903 M 0 78 R D 16055 11903 M 0 78 R D 16394 11903 M 0 78 R D
16563 11903 M 0 78 R D 16733 11903 M 0 78 R D 12836 15801 M 3958 0 R D
12836 15801 M 0 -156 R D 13683 15801 M 0 -156 R D 14530 15801 M 0 -156 R D
15377 15801 M 0 -156 R D 16224 15801 M 0 -156 R D 13006 15801 M 0 -78 R D
13175 15801 M 0 -78 R D 13344 15801 M 0 -78 R D 13514 15801 M 0 -78 R D
13853 15801 M 0 -78 R D 14022 15801 M 0 -78 R D 14191 15801 M 0 -78 R D
14361 15801 M 0 -78 R D 14700 15801 M 0 -78 R D 14869 15801 M 0 -78 R D
15039 15801 M 0 -78 R D 15208 15801 M 0 -78 R D 15547 15801 M 0 -78 R D
15716 15801 M 0 -78 R D 15886 15801 M 0 -78 R D 16055 15801 M 0 -78 R D
16394 15801 M 0 -78 R D 16563 15801 M 0 -78 R D 16733 15801 M 0 -78 R D
12836 11903 M 0 3898 R D 12836 14305 M 158 0 R D
gsave 12725 14165 translate 0 0 M -706.12 0 N
(100) show grestore 12836 12557 M 79 0 R D 12836 12997 M 79 0 R D
12836 13310 M 79 0 R D 12836 13552 M 79 0 R D 12836 13750 M 79 0 R D
12836 13918 M 79 0 R D 12836 14063 M 79 0 R D 12836 14191 M 79 0 R D
12836 15059 M 79 0 R D 12836 15499 M 79 0 R D 16794 11903 M 0 3898 R D
16794 14305 M -158 0 R D 16794 12557 M -79 0 R D 16794 12997 M -79 0 R D
16794 13310 M -79 0 R D 16794 13552 M -79 0 R D 16794 13750 M -79 0 R D
16794 13918 M -79 0 R D 16794 14063 M -79 0 R D 16794 14191 M -79 0 R D
16794 15059 M -79 0 R D 16794 15499 M -79 0 R D 12836 15790 M 339 -2 R
408 -6 R 224 -7 R 161 -13 R 121 -24 R 89 -43 R 67 -81 R 62 -183 R 58 -365 R
55 -417 R 52 -231 R 55 -106 R 72 -55 R 100 -26 R 155 -11 R 256 -1 R 511 6 R
384 -1 R 47 -1 R 121 -6 R 27 -3 R 48 -10 R 24 -9 R 27 -18 R 22 -30 R
18 -54 R 16 -111 R 15 -258 R 15 -580 R 15 -711 R 14 -358 R 16 -103 R
22 -13 R 35 5 R 63 3 R 56 1 R D gsave 17280 13230 translate 0 0 M 90 rotate
(bs0rs0) show grestore gsave 1800 26190 translate 0 0 M
(M0mt) show grestore gsave 1800 25838 translate 0 0 M
(2.5mlr) show grestore
%%PageTrailer
end
%%PageResources: font Helvetica
%%Trailer
%%Pages: 1
%%DocumentNeededResources: font Helvetica
%%EOF
