%!PS-Adobe-3.0 EPSF-3.0
%%BoundingBox: 0 0 510 765
%%Title: Graphics produced by IDL
%%For: jlgan@aida119, /home/jlgan/work/subhalo_model
%%Creator: IDL Version 7.0 (linux x86_64 m64)
%%CreationDate: Sat Jun  6 00:48:39 2009
%%DocumentData: Clean7bit
%%Requirements: color
%%LanguageLevel: 1
%%PageOrder: Ascend
%%Pages: (atend)
%%DocumentNeededResources: (atend)
%%EndComments
%%BeginProlog
%+ prolog.ps -- Prolog for IDL generated PostScript files
%+ Copyright (c) 1988-2007 ITT Visual Information Solutions. All Rights Reserved.
%v 5
/$IDL_DICT 40 dict def $IDL_DICT begin /bdef { bind def } bind def /C
{currentpoint newpath moveto} bdef /CP {currentpoint} bdef /D {currentpoint
stroke moveto} bdef /F {closepath fill} bdef /K { setgray } bdef /M {moveto}
bdef /N {rmoveto} bdef /P {lineto} bdef /R {rlineto} bdef /S {gsave show
grestore} bdef /X {currentpoint pop} bdef /Z {gsave currentpoint lineto 20
setlinewidth 1 setlinecap stroke grestore} bdef /L0 {[] 0 setdash} bdef /L1
{[40 100] 0 setdash} bdef /L2 {[200 200] 0 setdash} bdef /L3 {[200 100 50
100] 0 setdash} bdef /L4 {[300 100 50 100 50 100 50 100] 0 setdash} bdef /L5
{[400 200] 0 setdash} bdef /STDFONT { findfont exch scalefont setfont } bdef
/ISOFONT { findfont dup length dict begin { 1 index /FID ne {def} {pop pop}
ifelse } forall /Encoding ISOLatin1Encoding def currentdict end /idltmpfont
exch definefont exch scalefont setfont } bdef /ISOBULLET { gsave /Helvetica
findfont exch scalefont setfont (\267) show currentpoint grestore moveto}
bdef /MITERLIMIT { 2.5 setmiterlimit } bdef end
%%EndProlog
%%Page: 0 1
%%PageRequirements: color
%%PageResources: (atend)
%%PageOrientation: Portrait
%%PageBoundingBox: 0 0 510 765
%%BeginPageSetup
$IDL_DICT begin 0.0283465 dup scale MITERLIMIT
%%IncludeResource: font Helvetica
423.333 /Helvetica STDFONT
%%EndPageSetup
0.000 0.000 0.000 setrgbcolor gsave 9777 892 translate 0 0 M 1.5 dup scale
-799.677 0 N
(time/Gyr) show grestore gsave 1428 13852 translate 0 0 M 90 rotate
1.5 dup scale -677.579 0 N
(r) show X -101.051 M
%%IncludeResource: font Helvetica
262.467 /Helvetica STDFONT
(apo) show X 0 M
%%IncludeResource: font Helvetica
423.333 /Helvetica STDFONT
(/kpc) show grestore 40 setlinewidth L0 2760 21859 M 3958 0 R D 2760 21859 M
0 155 R D gsave 2760 21331 translate 0 0 M -117.687 0 N
(0) show grestore 3351 21859 M 0 155 R D gsave 3351 21331 translate 0 0 M
-117.687 0 N
(2) show grestore 3941 21859 M 0 155 R D gsave 3941 21331 translate 0 0 M
-117.687 0 N
(4) show grestore 4532 21859 M 0 155 R D gsave 4532 21331 translate 0 0 M
-117.687 0 N
(6) show grestore 5122 21859 M 0 155 R D gsave 5122 21331 translate 0 0 M
-117.687 0 N
(8) show grestore 5713 21859 M 0 155 R D gsave 5713 21331 translate 0 0 M
-235.373 0 N
(10) show grestore 6303 21859 M 0 155 R D gsave 6303 21331 translate 0 0 M
-235.373 0 N
(12) show grestore 2908 21859 M 0 77 R D 3055 21859 M 0 77 R D 3203 21859 M
0 77 R D 3498 21859 M 0 77 R D 3646 21859 M 0 77 R D 3793 21859 M 0 77 R D
4089 21859 M 0 77 R D 4236 21859 M 0 77 R D 4384 21859 M 0 77 R D
4679 21859 M 0 77 R D 4827 21859 M 0 77 R D 4974 21859 M 0 77 R D
5270 21859 M 0 77 R D 5417 21859 M 0 77 R D 5565 21859 M 0 77 R D
5860 21859 M 0 77 R D 6008 21859 M 0 77 R D 6155 21859 M 0 77 R D
6451 21859 M 0 77 R D 6598 21859 M 0 77 R D 2760 25756 M 3958 0 R D
2760 25756 M 0 -156 R D 3351 25756 M 0 -156 R D 3941 25756 M 0 -156 R D
4532 25756 M 0 -156 R D 5122 25756 M 0 -156 R D 5713 25756 M 0 -156 R D
6303 25756 M 0 -156 R D 2908 25756 M 0 -78 R D 3055 25756 M 0 -78 R D
3203 25756 M 0 -78 R D 3498 25756 M 0 -78 R D 3646 25756 M 0 -78 R D
3793 25756 M 0 -78 R D 4089 25756 M 0 -78 R D 4236 25756 M 0 -78 R D
4384 25756 M 0 -78 R D 4679 25756 M 0 -78 R D 4827 25756 M 0 -78 R D
4974 25756 M 0 -78 R D 5270 25756 M 0 -78 R D 5417 25756 M 0 -78 R D
5565 25756 M 0 -78 R D 5860 25756 M 0 -78 R D 6008 25756 M 0 -78 R D
6155 25756 M 0 -78 R D 6451 25756 M 0 -78 R D 6598 25756 M 0 -78 R D
2760 21859 M 0 3897 R D 2760 23658 M 158 0 R D
gsave 2649 23517 translate 0 0 M -706.12 0 N
(100) show grestore 2760 21859 M 79 0 R D 2760 22297 M 79 0 R D 2760 22655 M
79 0 R D 2760 22958 M 79 0 R D 2760 23220 M 79 0 R D 2760 23451 M 79 0 R D
2760 25019 M 79 0 R D 6718 21859 M 0 3897 R D 6718 23658 M -158 0 R D
6718 21859 M -79 0 R D 6718 22297 M -79 0 R D 6718 22655 M -79 0 R D
6718 22958 M -79 0 R D 6718 23220 M -79 0 R D 6718 23451 M -79 0 R D
6718 25019 M -79 0 R D 2760 25737 M 59 -18 R 159 -83 R 138 -157 R 113 -180 R
108 -139 R 100 -70 R 120 -32 R 151 -5 R 216 12 R 199 -1 R 119 -22 R
103 -57 R 93 -121 R 90 -207 R 63 -146 R 63 -92 R 72 -48 R 87 -15 R 120 9 R
175 9 R 79 -18 R 70 -52 R 60 -112 R 60 -209 R 43 -163 R 42 -106 R 46 -54 R
55 -17 R 75 9 R 109 15 R 54 -13 R 46 -45 R 40 -101 R 42 -212 R 29 -181 R
29 -122 R 29 -59 R 36 -18 R 47 9 R 68 19 R 37 -8 R 32 -38 R 27 -92 R
25 -184 R 21 -197 R 19 -143 R 19 -68 R 23 -25 R 29 7 R 42 22 R 29 1 R
23 -27 R 19 -73 R 18 -160 R D 7798 21859 M 3958 0 R D 7798 21859 M 0 155 R D
gsave 7798 21331 translate 0 0 M -117.687 0 N
(0) show grestore 8843 21859 M 0 155 R D gsave 8843 21331 translate 0 0 M
-117.687 0 N
(2) show grestore 9889 21859 M 0 155 R D gsave 9889 21331 translate 0 0 M
-117.687 0 N
(4) show grestore 10934 21859 M 0 155 R D gsave 10934 21331 translate 0 0 M
-117.687 0 N
(6) show grestore 8059 21859 M 0 77 R D 8321 21859 M 0 77 R D 8582 21859 M
0 77 R D 9105 21859 M 0 77 R D 9366 21859 M 0 77 R D 9627 21859 M 0 77 R D
10150 21859 M 0 77 R D 10411 21859 M 0 77 R D 10673 21859 M 0 77 R D
11195 21859 M 0 77 R D 11456 21859 M 0 77 R D 11718 21859 M 0 77 R D
7798 25756 M 3958 0 R D 7798 25756 M 0 -156 R D 8843 25756 M 0 -156 R D
9889 25756 M 0 -156 R D 10934 25756 M 0 -156 R D 8059 25756 M 0 -78 R D
8321 25756 M 0 -78 R D 8582 25756 M 0 -78 R D 9105 25756 M 0 -78 R D
9366 25756 M 0 -78 R D 9627 25756 M 0 -78 R D 10150 25756 M 0 -78 R D
10411 25756 M 0 -78 R D 10673 25756 M 0 -78 R D 11195 25756 M 0 -78 R D
11456 25756 M 0 -78 R D 11718 25756 M 0 -78 R D 7798 21859 M 0 3897 R D
7798 24096 M 158 0 R D gsave 7687 23955 translate 0 0 M -706.12 0 N
(100) show grestore 7798 22225 M 79 0 R D 7798 22672 M 79 0 R D 7798 23019 M
79 0 R D 7798 23302 M 79 0 R D 7798 23542 M 79 0 R D 7798 23749 M 79 0 R D
7798 23932 M 79 0 R D 7798 25173 M 79 0 R D 11756 21859 M 0 3897 R D
11756 24096 M -158 0 R D 11756 22225 M -79 0 R D 11756 22672 M -79 0 R D
11756 23019 M -79 0 R D 11756 23302 M -79 0 R D 11756 23542 M -79 0 R D
11756 23749 M -79 0 R D 11756 23932 M -79 0 R D 11756 25173 M -79 0 R D
7798 25741 M 105 -21 R 285 -99 R 243 -189 R 199 -235 R 163 -182 R 162 -109 R
188 -41 R 227 5 R 322 19 R 200 -8 R 159 -35 R 134 -80 R 117 -161 R
105 -269 R 83 -259 R 82 -189 R 81 -70 R 97 5 R 131 30 R 125 -3 R 66 -34 R
59 -84 R 51 -168 R 46 -312 R 38 -348 R 36 -282 R 34 -90 R 39 19 R 53 45 R
53 3 R 25 -35 R 24 -88 R 19 -175 R 19 -363 R D 12836 21859 M 3958 0 R D
12836 21859 M 0 155 R D gsave 12836 21331 translate 0 0 M -117.687 0 N
(0) show grestore 13660 21859 M 0 155 R D gsave 13660 21331 translate 0 0 M
-117.687 0 N
(1) show grestore 14484 21859 M 0 155 R D gsave 14484 21331 translate 0 0 M
-117.687 0 N
(2) show grestore 15308 21859 M 0 155 R D gsave 15308 21331 translate 0 0 M
-117.687 0 N
(3) show grestore 16132 21859 M 0 155 R D gsave 16132 21331 translate 0 0 M
-117.687 0 N
(4) show grestore 12918 21859 M 0 77 R D 13001 21859 M 0 77 R D
13083 21859 M 0 77 R D 13166 21859 M 0 77 R D 13248 21859 M 0 77 R D
13330 21859 M 0 77 R D 13413 21859 M 0 77 R D 13495 21859 M 0 77 R D
13578 21859 M 0 77 R D 13742 21859 M 0 77 R D 13825 21859 M 0 77 R D
13907 21859 M 0 77 R D 13990 21859 M 0 77 R D 14072 21859 M 0 77 R D
14154 21859 M 0 77 R D 14237 21859 M 0 77 R D 14319 21859 M 0 77 R D
14402 21859 M 0 77 R D 14566 21859 M 0 77 R D 14649 21859 M 0 77 R D
14731 21859 M 0 77 R D 14813 21859 M 0 77 R D 14896 21859 M 0 77 R D
14978 21859 M 0 77 R D 15061 21859 M 0 77 R D 15143 21859 M 0 77 R D
15225 21859 M 0 77 R D 15390 21859 M 0 77 R D 15473 21859 M 0 77 R D
15555 21859 M 0 77 R D 15637 21859 M 0 77 R D 15720 21859 M 0 77 R D
15802 21859 M 0 77 R D 15885 21859 M 0 77 R D 15967 21859 M 0 77 R D
16049 21859 M 0 77 R D 16214 21859 M 0 77 R D 16296 21859 M 0 77 R D
16379 21859 M 0 77 R D 16461 21859 M 0 77 R D 16544 21859 M 0 77 R D
16626 21859 M 0 77 R D 16708 21859 M 0 77 R D 16791 21859 M 0 77 R D
12836 25756 M 3958 0 R D 12836 25756 M 0 -156 R D 13660 25756 M 0 -156 R D
14484 25756 M 0 -156 R D 15308 25756 M 0 -156 R D 16132 25756 M 0 -156 R D
12918 25756 M 0 -78 R D 13001 25756 M 0 -78 R D 13083 25756 M 0 -78 R D
13166 25756 M 0 -78 R D 13248 25756 M 0 -78 R D 13330 25756 M 0 -78 R D
13413 25756 M 0 -78 R D 13495 25756 M 0 -78 R D 13578 25756 M 0 -78 R D
13742 25756 M 0 -78 R D 13825 25756 M 0 -78 R D 13907 25756 M 0 -78 R D
13990 25756 M 0 -78 R D 14072 25756 M 0 -78 R D 14154 25756 M 0 -78 R D
14237 25756 M 0 -78 R D 14319 25756 M 0 -78 R D 14402 25756 M 0 -78 R D
14566 25756 M 0 -78 R D 14649 25756 M 0 -78 R D 14731 25756 M 0 -78 R D
14813 25756 M 0 -78 R D 14896 25756 M 0 -78 R D 14978 25756 M 0 -78 R D
15061 25756 M 0 -78 R D 15143 25756 M 0 -78 R D 15225 25756 M 0 -78 R D
15390 25756 M 0 -78 R D 15473 25756 M 0 -78 R D 15555 25756 M 0 -78 R D
15637 25756 M 0 -78 R D 15720 25756 M 0 -78 R D 15802 25756 M 0 -78 R D
15885 25756 M 0 -78 R D 15967 25756 M 0 -78 R D 16049 25756 M 0 -78 R D
16214 25756 M 0 -78 R D 16296 25756 M 0 -78 R D 16379 25756 M 0 -78 R D
16461 25756 M 0 -78 R D 16544 25756 M 0 -78 R D 16626 25756 M 0 -78 R D
16708 25756 M 0 -78 R D 16791 25756 M 0 -78 R D 12836 21859 M 0 3897 R D
12836 22149 M 158 0 R D gsave 12725 22008 translate 0 0 M -470.747 0 N
(10) show grestore 12836 24613 M 158 0 R D gsave 12725 24472 translate 0 0 M
-706.12 0 N
(100) show grestore 12836 21910 M 79 0 R D 12836 22036 M 79 0 R D
12836 22890 M 79 0 R D 12836 23324 M 79 0 R D 12836 23632 M 79 0 R D
12836 23871 M 79 0 R D 12836 24066 M 79 0 R D 12836 24231 M 79 0 R D
12836 24374 M 79 0 R D 12836 24500 M 79 0 R D 12836 25354 M 79 0 R D
16794 21859 M 0 3897 R D 16794 22149 M -158 0 R D 16794 24613 M -158 0 R D
16794 21910 M -79 0 R D 16794 22036 M -79 0 R D 16794 22890 M -79 0 R D
16794 23324 M -79 0 R D 16794 23632 M -79 0 R D 16794 23871 M -79 0 R D
16794 24066 M -79 0 R D 16794 24231 M -79 0 R D 16794 24374 M -79 0 R D
16794 24500 M -79 0 R D 16794 25354 M -79 0 R D 12836 25745 M 165 -19 R
461 -95 R 377 -176 R 308 -243 R 249 -224 R 247 -136 R 252 2 R 306 25 R
499 -30 R 109 -38 R 130 -95 R 107 -172 R 98 -320 R 79 -413 R 69 -358 R
69 43 R 70 23 R 85 -62 R 15 -33 R 21 -82 R 17 -128 R 17 -319 R 7 -278 R
4 -267 R 9 -437 R D gsave 17280 22950 translate 0 0 M 90 rotate
(bs0rs1) show grestore 2760 16881 M 3958 0 R D 2760 16881 M 0 156 R D
gsave 2760 16353 translate 0 0 M -117.687 0 N
(0) show grestore 3308 16881 M 0 156 R D gsave 3308 16353 translate 0 0 M
-117.687 0 N
(2) show grestore 3856 16881 M 0 156 R D gsave 3856 16353 translate 0 0 M
-117.687 0 N
(4) show grestore 4404 16881 M 0 156 R D gsave 4404 16353 translate 0 0 M
-117.687 0 N
(6) show grestore 4952 16881 M 0 156 R D gsave 4952 16353 translate 0 0 M
-117.687 0 N
(8) show grestore 5500 16881 M 0 156 R D gsave 5500 16353 translate 0 0 M
-235.373 0 N
(10) show grestore 6048 16881 M 0 156 R D gsave 6048 16353 translate 0 0 M
-235.373 0 N
(12) show grestore 6596 16881 M 0 156 R D gsave 6596 16353 translate 0 0 M
-235.373 0 N
(14) show grestore 2897 16881 M 0 78 R D 3034 16881 M 0 78 R D 3171 16881 M
0 78 R D 3445 16881 M 0 78 R D 3582 16881 M 0 78 R D 3719 16881 M 0 78 R D
3993 16881 M 0 78 R D 4130 16881 M 0 78 R D 4267 16881 M 0 78 R D
4541 16881 M 0 78 R D 4678 16881 M 0 78 R D 4815 16881 M 0 78 R D
5089 16881 M 0 78 R D 5226 16881 M 0 78 R D 5363 16881 M 0 78 R D
5637 16881 M 0 78 R D 5774 16881 M 0 78 R D 5911 16881 M 0 78 R D
6185 16881 M 0 78 R D 6322 16881 M 0 78 R D 6459 16881 M 0 78 R D
2760 20779 M 3958 0 R D 2760 20779 M 0 -156 R D 3308 20779 M 0 -156 R D
3856 20779 M 0 -156 R D 4404 20779 M 0 -156 R D 4952 20779 M 0 -156 R D
5500 20779 M 0 -156 R D 6048 20779 M 0 -156 R D 6596 20779 M 0 -156 R D
2897 20779 M 0 -78 R D 3034 20779 M 0 -78 R D 3171 20779 M 0 -78 R D
3445 20779 M 0 -78 R D 3582 20779 M 0 -78 R D 3719 20779 M 0 -78 R D
3993 20779 M 0 -78 R D 4130 20779 M 0 -78 R D 4267 20779 M 0 -78 R D
4541 20779 M 0 -78 R D 4678 20779 M 0 -78 R D 4815 20779 M 0 -78 R D
5089 20779 M 0 -78 R D 5226 20779 M 0 -78 R D 5363 20779 M 0 -78 R D
5637 20779 M 0 -78 R D 5774 20779 M 0 -78 R D 5911 20779 M 0 -78 R D
6185 20779 M 0 -78 R D 6322 20779 M 0 -78 R D 6459 20779 M 0 -78 R D
2760 16881 M 0 3898 R D 2760 19197 M 158 0 R D
gsave 2649 19056 translate 0 0 M -706.12 0 N
(100) show grestore 2760 17415 M 79 0 R D 2760 17840 M 79 0 R D 2760 18171 M
79 0 R D 2760 18441 M 79 0 R D 2760 18669 M 79 0 R D 2760 18866 M 79 0 R D
2760 19041 M 79 0 R D 2760 20223 M 79 0 R D 6718 16881 M 0 3898 R D
6718 19197 M -158 0 R D 6718 17415 M -79 0 R D 6718 17840 M -79 0 R D
6718 18171 M -79 0 R D 6718 18441 M -79 0 R D 6718 18669 M -79 0 R D
6718 18866 M -79 0 R D 6718 19041 M -79 0 R D 6718 20223 M -79 0 R D
2760 20764 M 55 -13 R 147 -63 R 128 -118 R 105 -136 R 101 -105 R 93 -52 R
111 -25 R 140 -3 R 200 8 R 184 0 R 112 -17 R 95 -43 R 86 -91 R 83 -156 R
60 -110 R 58 -69 R 66 -37 R 81 -11 R 111 7 R 163 6 R 74 -13 R 64 -39 R
56 -84 R 56 -158 R 40 -123 R 39 -80 R 42 -41 R 52 -13 R 69 7 R 101 11 R
50 -10 R 43 -34 R 37 -76 R 38 -159 R 28 -137 R 26 -92 R 28 -44 R 33 -14 R
43 7 R 64 14 R 34 -6 R 29 -28 R 26 -70 R 23 -139 R 19 -148 R 18 -108 R
18 -51 R 21 -19 R 27 5 R 39 17 R 27 0 R 21 -20 R 18 -55 R 16 -120 R
14 -155 R 11 -111 R 12 -62 R 13 -28 R 17 -2 R 23 15 R 30 9 R 14 -16 R
13 -48 R 11 -108 R 10 -149 R 8 -108 R 8 -62 R 9 -29 R 11 -4 R 16 11 R
24 13 R 10 -9 R 9 -34 R 9 -82 R D gsave 3600 26190 translate 0 0 M
(m/M=0.05) show grestore 7798 16881 M 3958 0 R D 7798 16881 M 0 156 R D
gsave 7798 16353 translate 0 0 M -117.687 0 N
(0) show grestore 8810 16881 M 0 156 R D gsave 8810 16353 translate 0 0 M
-117.687 0 N
(2) show grestore 9822 16881 M 0 156 R D gsave 9822 16353 translate 0 0 M
-117.687 0 N
(4) show grestore 10834 16881 M 0 156 R D gsave 10834 16353 translate 0 0 M
-117.687 0 N
(6) show grestore 8051 16881 M 0 78 R D 8304 16881 M 0 78 R D 8557 16881 M
0 78 R D 9063 16881 M 0 78 R D 9316 16881 M 0 78 R D 9569 16881 M 0 78 R D
10075 16881 M 0 78 R D 10328 16881 M 0 78 R D 10581 16881 M 0 78 R D
11087 16881 M 0 78 R D 11340 16881 M 0 78 R D 11593 16881 M 0 78 R D
7798 20779 M 3958 0 R D 7798 20779 M 0 -156 R D 8810 20779 M 0 -156 R D
9822 20779 M 0 -156 R D 10834 20779 M 0 -156 R D 8051 20779 M 0 -78 R D
8304 20779 M 0 -78 R D 8557 20779 M 0 -78 R D 9063 20779 M 0 -78 R D
9316 20779 M 0 -78 R D 9569 20779 M 0 -78 R D 10075 20779 M 0 -78 R D
10328 20779 M 0 -78 R D 10581 20779 M 0 -78 R D 11087 20779 M 0 -78 R D
11340 20779 M 0 -78 R D 11593 20779 M 0 -78 R D 7798 16881 M 0 3898 R D
7798 17103 M 158 0 R D gsave 7687 16962 translate 0 0 M -470.747 0 N
(10) show grestore 7798 19613 M 158 0 R D gsave 7687 19473 translate 0 0 M
-706.12 0 N
(100) show grestore 7798 16988 M 79 0 R D 7798 17858 M 79 0 R D 7798 18301 M
79 0 R D 7798 18614 M 79 0 R D 7798 18858 M 79 0 R D 7798 19056 M 79 0 R D
7798 19224 M 79 0 R D 7798 19370 M 79 0 R D 7798 19498 M 79 0 R D
7798 20369 M 79 0 R D 11756 16881 M 0 3898 R D 11756 17103 M -158 0 R D
11756 19613 M -158 0 R D 11756 16988 M -79 0 R D 11756 17858 M -79 0 R D
11756 18301 M -79 0 R D 11756 18614 M -79 0 R D 11756 18858 M -79 0 R D
11756 19056 M -79 0 R D 11756 19224 M -79 0 R D 11756 19370 M -79 0 R D
11756 19498 M -79 0 R D 11756 20369 M -79 0 R D 7798 20768 M 101 -15 R
277 -70 R 235 -132 R 192 -165 R 159 -127 R 157 -77 R 181 -29 R 220 4 R
312 13 R 194 -6 R 153 -24 R 130 -56 R 114 -114 R 101 -188 R 80 -182 R
79 -132 R 79 -49 R 94 3 R 127 21 R 121 -2 R 63 -24 R 58 -59 R 49 -118 R
45 -219 R 36 -244 R 35 -198 R 33 -63 R 38 13 R 51 32 R 52 2 R 24 -25 R
23 -61 R 19 -123 R 17 -255 R 15 -354 R 12 -316 R 12 -144 R 14 30 R 17 51 R
27 6 R 6 -21 R 7 -62 R 6 -110 R 5 -242 R D gsave 8820 26190 translate 0 0 M
(m/M=0.10) show grestore 12836 16881 M 3958 0 R D 12836 16881 M 0 156 R D
gsave 12836 16353 translate 0 0 M -117.687 0 N
(0) show grestore 13660 16881 M 0 156 R D gsave 13660 16353 translate 0 0 M
-117.687 0 N
(1) show grestore 14484 16881 M 0 156 R D gsave 14484 16353 translate 0 0 M
-117.687 0 N
(2) show grestore 15308 16881 M 0 156 R D gsave 15308 16353 translate 0 0 M
-117.687 0 N
(3) show grestore 16132 16881 M 0 156 R D gsave 16132 16353 translate 0 0 M
-117.687 0 N
(4) show grestore 12918 16881 M 0 78 R D 13001 16881 M 0 78 R D
13083 16881 M 0 78 R D 13166 16881 M 0 78 R D 13248 16881 M 0 78 R D
13330 16881 M 0 78 R D 13413 16881 M 0 78 R D 13495 16881 M 0 78 R D
13578 16881 M 0 78 R D 13742 16881 M 0 78 R D 13825 16881 M 0 78 R D
13907 16881 M 0 78 R D 13990 16881 M 0 78 R D 14072 16881 M 0 78 R D
14154 16881 M 0 78 R D 14237 16881 M 0 78 R D 14319 16881 M 0 78 R D
14402 16881 M 0 78 R D 14566 16881 M 0 78 R D 14649 16881 M 0 78 R D
14731 16881 M 0 78 R D 14813 16881 M 0 78 R D 14896 16881 M 0 78 R D
14978 16881 M 0 78 R D 15061 16881 M 0 78 R D 15143 16881 M 0 78 R D
15225 16881 M 0 78 R D 15390 16881 M 0 78 R D 15473 16881 M 0 78 R D
15555 16881 M 0 78 R D 15637 16881 M 0 78 R D 15720 16881 M 0 78 R D
15802 16881 M 0 78 R D 15885 16881 M 0 78 R D 15967 16881 M 0 78 R D
16049 16881 M 0 78 R D 16214 16881 M 0 78 R D 16296 16881 M 0 78 R D
16379 16881 M 0 78 R D 16461 16881 M 0 78 R D 16544 16881 M 0 78 R D
16626 16881 M 0 78 R D 16708 16881 M 0 78 R D 16791 16881 M 0 78 R D
12836 20779 M 3958 0 R D 12836 20779 M 0 -156 R D 13660 20779 M 0 -156 R D
14484 20779 M 0 -156 R D 15308 20779 M 0 -156 R D 16132 20779 M 0 -156 R D
12918 20779 M 0 -78 R D 13001 20779 M 0 -78 R D 13083 20779 M 0 -78 R D
13166 20779 M 0 -78 R D 13248 20779 M 0 -78 R D 13330 20779 M 0 -78 R D
13413 20779 M 0 -78 R D 13495 20779 M 0 -78 R D 13578 20779 M 0 -78 R D
13742 20779 M 0 -78 R D 13825 20779 M 0 -78 R D 13907 20779 M 0 -78 R D
13990 20779 M 0 -78 R D 14072 20779 M 0 -78 R D 14154 20779 M 0 -78 R D
14237 20779 M 0 -78 R D 14319 20779 M 0 -78 R D 14402 20779 M 0 -78 R D
14566 20779 M 0 -78 R D 14649 20779 M 0 -78 R D 14731 20779 M 0 -78 R D
14813 20779 M 0 -78 R D 14896 20779 M 0 -78 R D 14978 20779 M 0 -78 R D
15061 20779 M 0 -78 R D 15143 20779 M 0 -78 R D 15225 20779 M 0 -78 R D
15390 20779 M 0 -78 R D 15473 20779 M 0 -78 R D 15555 20779 M 0 -78 R D
15637 20779 M 0 -78 R D 15720 20779 M 0 -78 R D 15802 20779 M 0 -78 R D
15885 20779 M 0 -78 R D 15967 20779 M 0 -78 R D 16049 20779 M 0 -78 R D
16214 20779 M 0 -78 R D 16296 20779 M 0 -78 R D 16379 20779 M 0 -78 R D
16461 20779 M 0 -78 R D 16544 20779 M 0 -78 R D 16626 20779 M 0 -78 R D
16708 20779 M 0 -78 R D 16791 20779 M 0 -78 R D 12836 16881 M 0 3898 R D
12836 17171 M 158 0 R D gsave 12725 17030 translate 0 0 M -470.747 0 N
(10) show grestore 12836 19635 M 158 0 R D gsave 12725 19494 translate 0 0 M
-706.12 0 N
(100) show grestore 12836 16932 M 79 0 R D 12836 17058 M 79 0 R D
12836 17913 M 79 0 R D 12836 18347 M 79 0 R D 12836 18654 M 79 0 R D
12836 18893 M 79 0 R D 12836 19088 M 79 0 R D 12836 19253 M 79 0 R D
12836 19396 M 79 0 R D 12836 19522 M 79 0 R D 12836 20377 M 79 0 R D
16794 16881 M 0 3898 R D 16794 17171 M -158 0 R D 16794 19635 M -158 0 R D
16794 16932 M -79 0 R D 16794 17058 M -79 0 R D 16794 17913 M -79 0 R D
16794 18347 M -79 0 R D 16794 18654 M -79 0 R D 16794 18893 M -79 0 R D
16794 19088 M -79 0 R D 16794 19253 M -79 0 R D 16794 19396 M -79 0 R D
16794 19522 M -79 0 R D 16794 20377 M -79 0 R D 12836 20768 M 165 -19 R
461 -96 R 377 -176 R 308 -243 R 249 -223 R 247 -136 R 252 1 R 306 25 R
499 -29 R 109 -39 R 130 -94 R 107 -173 R 98 -319 R 79 -414 R 69 -357 R
69 43 R 70 23 R 85 -63 R 15 -32 R 21 -82 R 17 -129 R 17 -318 R 7 -278 R
4 -267 R 9 -437 R D gsave 14040 26190 translate 0 0 M
(m/M=0.20) show grestore gsave 17280 18090 translate 0 0 M 90 rotate
(bs0rs0.5) show grestore 2760 11903 M 3958 0 R D 2760 11903 M 0 156 R D
gsave 2760 11375 translate 0 0 M -117.687 0 N
(0) show grestore 3606 11903 M 0 156 R D gsave 3606 11375 translate 0 0 M
-117.687 0 N
(5) show grestore 4452 11903 M 0 156 R D gsave 4452 11375 translate 0 0 M
-235.373 0 N
(10) show grestore 5298 11903 M 0 156 R D gsave 5298 11375 translate 0 0 M
-235.373 0 N
(15) show grestore 6144 11903 M 0 156 R D gsave 6144 11375 translate 0 0 M
-235.373 0 N
(20) show grestore 2929 11903 M 0 78 R D 3099 11903 M 0 78 R D 3268 11903 M
0 78 R D 3437 11903 M 0 78 R D 3775 11903 M 0 78 R D 3945 11903 M 0 78 R D
4114 11903 M 0 78 R D 4283 11903 M 0 78 R D 4621 11903 M 0 78 R D
4791 11903 M 0 78 R D 4960 11903 M 0 78 R D 5129 11903 M 0 78 R D
5468 11903 M 0 78 R D 5637 11903 M 0 78 R D 5806 11903 M 0 78 R D
5975 11903 M 0 78 R D 6314 11903 M 0 78 R D 6483 11903 M 0 78 R D
6652 11903 M 0 78 R D 2760 15801 M 3958 0 R D 2760 15801 M 0 -156 R D
3606 15801 M 0 -156 R D 4452 15801 M 0 -156 R D 5298 15801 M 0 -156 R D
6144 15801 M 0 -156 R D 2929 15801 M 0 -78 R D 3099 15801 M 0 -78 R D
3268 15801 M 0 -78 R D 3437 15801 M 0 -78 R D 3775 15801 M 0 -78 R D
3945 15801 M 0 -78 R D 4114 15801 M 0 -78 R D 4283 15801 M 0 -78 R D
4621 15801 M 0 -78 R D 4791 15801 M 0 -78 R D 4960 15801 M 0 -78 R D
5129 15801 M 0 -78 R D 5468 15801 M 0 -78 R D 5637 15801 M 0 -78 R D
5806 15801 M 0 -78 R D 5975 15801 M 0 -78 R D 6314 15801 M 0 -78 R D
6483 15801 M 0 -78 R D 6652 15801 M 0 -78 R D 2760 11903 M 0 3898 R D
2760 12251 M 158 0 R D gsave 2649 12111 translate 0 0 M -235.373 0 N
(1) show grestore 2760 13692 M 158 0 R D gsave 2649 13551 translate 0 0 M
-470.747 0 N
(10) show grestore 2760 15132 M 158 0 R D gsave 2649 14992 translate 0 0 M
-706.12 0 N
(100) show grestore 2760 11932 M 79 0 R D 2760 12028 M 79 0 R D 2760 12112 M
79 0 R D 2760 12186 M 79 0 R D 2760 12685 M 79 0 R D 2760 12939 M 79 0 R D
2760 13119 M 79 0 R D 2760 13258 M 79 0 R D 2760 13372 M 79 0 R D
2760 13469 M 79 0 R D 2760 13552 M 79 0 R D 2760 13626 M 79 0 R D
2760 14126 M 79 0 R D 2760 14379 M 79 0 R D 2760 14559 M 79 0 R D
2760 14699 M 79 0 R D 2760 14813 M 79 0 R D 2760 14909 M 79 0 R D
2760 14993 M 79 0 R D 2760 15067 M 79 0 R D 2760 15566 M 79 0 R D
6718 11903 M 0 3898 R D 6718 12251 M -158 0 R D 6718 13692 M -158 0 R D
6718 15132 M -158 0 R D 6718 11932 M -79 0 R D 6718 12028 M -79 0 R D
6718 12112 M -79 0 R D 6718 12186 M -79 0 R D 6718 12685 M -79 0 R D
6718 12939 M -79 0 R D 6718 13119 M -79 0 R D 6718 13258 M -79 0 R D
6718 13372 M -79 0 R D 6718 13469 M -79 0 R D 6718 13552 M -79 0 R D
6718 13626 M -79 0 R D 6718 14126 M -79 0 R D 6718 14379 M -79 0 R D
6718 14559 M -79 0 R D 6718 14699 M -79 0 R D 6718 14813 M -79 0 R D
6718 14909 M -79 0 R D 6718 14993 M -79 0 R D 6718 15067 M -79 0 R D
6718 15566 M -79 0 R D 2760 15795 M 34 -6 R 91 -26 R 79 -50 R 65 -58 R
62 -44 R 57 -22 R 69 -11 R 86 -1 R 124 4 R 114 -1 R 69 -7 R 59 -18 R
53 -38 R 51 -66 R 37 -47 R 36 -29 R 41 -16 R 50 -4 R 68 3 R 101 3 R 45 -6 R
40 -17 R 35 -35 R 34 -67 R 25 -52 R 24 -34 R 26 -17 R 32 -5 R 42 3 R 63 4 R
31 -4 R 26 -14 R 23 -33 R 24 -67 R 17 -58 R 16 -39 R 17 -18 R 21 -6 R 27 3 R
39 6 R 21 -3 R 18 -12 R 16 -29 R 14 -59 R 12 -63 R 11 -45 R 11 -22 R 13 -8 R
17 2 R 23 7 R 18 1 R 13 -9 R 10 -23 R 11 -51 R 8 -65 R 7 -47 R 7 -27 R
8 -11 R 11 -1 R 14 6 R 19 4 R 8 -7 R 8 -20 R 7 -46 R 6 -63 R 5 -45 R 5 -26 R
6 -13 R 7 -2 R 9 5 R 15 6 R 6 -4 R 6 -15 R 5 -34 R 5 -64 R 4 -44 R 3 -26 R
4 -12 R 5 -4 R 7 3 R 10 6 R 6 0 R 5 -6 R 4 -20 R 4 -43 R 3 -50 R 3 -35 R
3 -16 R 3 -6 R 5 0 R 6 4 R 9 3 R 4 -3 R 3 -13 R 3 -30 R 3 -44 R 2 -32 R
2 -18 R 3 -8 R 3 -2 R 5 1 R 6 4 R 4 1 R 4 -3 R 3 -12 R 2 -28 R 2 -37 R
2 -26 R 2 -11 R 3 -6 R 3 0 R 4 1 R 7 4 R 2 -1 R 3 -5 R 2 -12 R 3 -30 R
2 -26 R 1 -15 R 2 -8 R 2 -2 R 3 0 R 5 2 R 5 1 R 3 -1 R 2 -6 R 2 -16 R
2 -23 R 1 -17 R 2 -9 R 2 -5 R 2 -1 R 3 0 R 4 2 R 4 1 R 2 -1 R 3 -5 R 1 -12 R
2 -21 R 2 -13 R 1 -7 R 2 -3 R 2 -1 R 3 1 R 4 1 R 3 0 R 3 0 R 2 -4 R 1 -10 R
2 -17 R 1 -11 R 2 -5 R 1 -2 R 2 -1 R 3 1 R 5 1 R 2 0 R 2 -1 R 2 -3 R 2 -9 R
1 -12 R 2 -10 R 1 -4 R 2 -2 R 2 0 R 2 0 R 5 1 R 2 0 R 2 0 R 2 -3 R 2 -8 R
1 -10 R 1 -8 R 2 -3 R 1 -2 R 2 0 R 3 0 R 4 1 R 2 0 R 2 0 R 2 -3 R 1 -6 R
2 -9 R 1 -7 R 1 -3 R 2 -1 R 2 0 R 2 0 R 4 0 R 2 1 R 2 -1 R 2 -2 R 2 -5 R
1 -9 R 1 -5 R 1 -3 R 2 -1 R 2 0 R 2 0 R 4 1 R 2 0 R 2 -1 R 2 -2 R 1 -5 R
2 -7 R 1 -5 R 1 -2 R 1 -1 R 2 0 R 3 0 R 4 0 R 2 1 R 2 -1 R 1 -1 R 2 -5 R
1 -6 R 1 -5 R 1 -2 R 1 -1 R 2 0 R 3 0 R 3 0 R 2 0 R 2 0 R 2 -1 R 1 -4 R
2 -6 R 1 -4 R 1 -3 R 1 0 R 2 -1 R 2 0 R 4 1 R 2 0 R 2 0 R 1 -1 R 2 -4 R
1 -5 R 1 -5 R 1 -2 R 2 -1 R 1 0 R 2 0 R 4 1 R 2 0 R 2 0 R 1 -2 R 2 -3 R
1 -5 R 1 -3 R 1 -3 R 1 -1 R 2 0 R 2 0 R 3 0 R 3 1 R 2 -1 R 1 -1 R 2 -2 R
1 -5 R 1 -4 R 1 -2 R 1 -1 R 2 0 R 2 0 R 2 0 R 4 0 R 2 0 R 1 -1 R 1 -2 R
2 -5 R 1 -4 R 1 -2 R 1 -1 R 2 0 R 2 0 R 3 1 R 2 0 R 2 0 R 1 -1 R 2 -3 R
1 -5 R 1 -3 R 1 -2 R 1 0 R 2 -1 R 2 0 R 3 1 R 2 0 R 2 0 R 2 -1 R 1 -3 R
1 -4 R 1 -3 R 1 -2 R 1 -1 R 2 0 R 1 0 R 3 0 R 3 1 R 2 -1 R 1 0 R 2 -3 R
1 -4 R 1 -3 R 1 -2 R 1 0 R 1 -1 R 2 0 R 3 0 R 3 1 R 2 0 R 1 -1 R 1 -2 R
2 -4 R 1 -3 R 0 -2 R 2 -1 R 1 0 R 2 0 R 3 0 R 3 0 R 1 0 R 2 -1 R 1 -2 R
1 -4 R 1 -3 R 1 -1 R 1 -1 R 1 -1 R 2 0 R 3 1 R 3 0 R 2 0 R 1 -1 R 1 -2 R
1 -4 R 1 -3 R 1 -1 R 1 -1 R 2 -1 R 1 0 R 3 1 R 3 0 R 2 0 R 1 -1 R 1 -2 R
1 -4 R 1 -3 R 1 -1 R 2 -1 R 1 0 R 2 0 R 3 0 R 2 0 R 2 0 R 1 -1 R 1 -2 R
1 -4 R 1 -3 R 1 -1 R 1 -1 R 2 0 R 2 0 R 2 0 R 3 1 R 1 -1 R 2 0 R 1 -2 R
1 -4 R 1 -3 R 1 -2 R 1 0 R 1 0 R 2 0 R 3 0 R 2 0 R 2 0 R 1 -1 R 1 -2 R
2 -4 R 1 -2 R 0 -2 R 1 -1 R 2 0 R 2 0 R 2 1 R 3 0 R 1 0 R 2 -1 R 1 -2 R
1 -4 R 1 -3 R 1 -1 R 1 -1 R 1 0 R 2 0 R 3 0 R 2 0 R 2 0 R 1 0 R 1 -2 R
1 -4 R 1 -3 R 1 -1 R 1 -1 R 1 0 R 2 0 R 3 0 R 2 0 R 2 0 R 1 0 R 1 -2 R
1 -4 R 1 -3 R 1 -1 R 1 -1 R 1 0 R 2 0 R 3 0 R 2 0 R 1 0 R 2 0 R 1 -2 R
1 -4 R 1 -3 R 1 -1 R 1 -1 R 1 0 R 2 0 R 3 0 R 2 0 R 1 0 R 1 -1 R 2 -1 R
1 -4 R 1 -3 R 0 -1 R 1 -1 R 2 0 R 1 0 R 3 0 R 2 0 R 2 0 R 1 0 R 1 -2 R
1 -4 R 1 -3 R 1 -1 R 1 -1 R 1 0 R 2 0 R 3 0 R 2 0 R 1 0 R 1 0 R 2 -2 R
1 -4 R 1 -3 R 0 -1 R 1 -1 R 2 0 R 1 0 R 3 0 R 2 0 R 2 0 R 1 0 R 1 -2 R
1 -4 R 1 -3 R 1 -1 R 1 -1 R 1 0 R 1 0 R 3 0 R 2 1 R 2 -1 R 1 0 R 1 -2 R
1 -4 R 1 -2 R 1 -2 R 1 0 R 1 -1 R 2 0 R 2 1 R 2 0 R 2 0 R 1 -1 R 1 -2 R
1 -4 R 1 -2 R 1 -2 R 1 0 R 1 0 R 2 0 R 2 0 R 2 0 R 1 0 R 2 -1 R 1 -1 R
1 -4 R 1 -3 R 0 -1 R 1 -1 R 2 0 R 1 0 R 3 0 R 2 0 R 1 0 R 1 0 R 1 -2 R
1 -4 R 1 -2 R 1 -2 R 1 0 R 1 0 R 2 0 R 2 0 R 2 0 R 2 0 R 1 -1 R 1 -1 R
1 -4 R 1 -3 R 1 -1 R 2 -1 R 1 0 R 3 1 R 2 0 R 1 0 R 1 -1 R 1 -2 R 1 -3 R
1 -3 R 1 -1 R 1 -1 R 1 0 R 2 0 R 2 1 R 2 0 R 1 0 R 2 -1 R 1 -2 R 1 -3 R
0 -3 R 1 -1 R 1 0 R 1 -1 R 2 1 R 2 0 R 2 0 R 2 0 R 1 -1 R 1 -1 R 1 -4 R
1 -2 R 0 -1 R 1 -1 R 1 0 R 2 0 R 2 0 R 2 0 R 2 0 R 1 0 R 1 -2 R 1 -3 R
1 -3 R 0 -1 R 1 -1 R 1 0 R 2 0 R 2 1 R 2 0 R 2 0 R 1 -1 R 1 -2 R 1 -3 R
0 -2 R 1 -1 R 1 -1 R 1 0 R 2 0 R 2 0 R 2 0 R 1 0 R 1 0 R 1 -2 R 1 -3 R
1 -2 R 1 -2 R 1 0 R 1 0 R 2 0 R 2 0 R 2 0 R 1 0 R 1 -1 R 1 -1 R 1 -3 R
1 -3 R 1 -1 R 1 0 R 1 -1 R 1 1 R 2 0 R 2 0 R 2 0 R 1 -1 R 1 -1 R 1 -3 R
0 -3 R 1 -1 R 1 0 R 1 -1 R 2 0 R 2 1 R 2 0 R 1 0 R 1 -1 R 1 -1 R 1 -4 R
1 -2 R 1 -1 R 2 -1 R 1 0 R 2 1 R 2 0 R 2 0 R 1 -1 R 1 -1 R 1 -4 R 0 -2 R
1 -1 R 1 0 R 1 -1 R 1 0 R 3 1 R 2 0 R 1 0 R 1 -1 R 1 -2 R 1 -3 R 1 -2 R
0 -1 R 1 0 R 1 -1 R 2 0 R 2 1 R 2 0 R 1 0 R 1 -1 R 1 -1 R 1 -3 R 1 -2 R
0 -2 R 1 0 R 1 -1 R 1 0 R 3 1 R 2 0 R 1 0 R 1 -1 R 1 -1 R 1 -3 R 1 -3 R
0 -1 R 1 0 R 1 0 R 2 0 R 2 0 R 2 0 R 1 0 R 1 -1 R 1 -1 R 1 -3 R 1 -2 R
0 -2 R 1 0 R 1 0 R 2 0 R 2 0 R 2 0 R 1 0 R 1 0 R 1 -2 R 1 -3 R 0 -2 R 1 -1 R
1 -1 R 1 0 R 1 0 R 3 0 R 2 0 R 1 0 R 1 0 R 1 -2 R 0 -3 R 1 -2 R 1 -1 R
1 -1 R 1 0 R 1 0 R 2 0 R 2 0 R 1 0 R 1 0 R 1 -2 R 1 -3 R 1 -2 R 0 -1 R
1 -1 R 1 0 R 2 0 R 2 0 R 2 1 R 1 -1 R 1 0 R 1 -2 R 1 -2 R 0 -3 R 1 -1 R
1 0 R 1 -1 R 1 0 R 2 1 R 2 0 R 1 0 R 1 -1 R 1 -1 R 1 -3 R 1 -2 R 0 -2 R
1 0 R 1 0 R 1 0 R 2 0 R 3 0 R 1 0 R 1 -1 R 1 -1 R 0 -3 R 1 -2 R 1 -2 R 1 0 R
1 0 R 1 0 R 2 0 R 2 0 R 1 0 R D 6213 12637 M 1 -1 R 1 -1 R 1 -3 R 0 -2 R
1 -1 R 1 -1 R 1 0 R 1 0 R 2 0 R 2 0 R 1 0 R 1 0 R 1 -2 R 1 -3 R 1 -2 R
0 -1 R 1 -1 R 1 0 R 1 0 R 2 0 R 2 0 R 1 0 R 1 0 R 1 -2 R 1 -3 R 1 -2 R
0 -1 R 1 -1 R 1 0 R 1 0 R 2 0 R 2 0 R 1 0 R 1 0 R 1 -2 R 1 -3 R 1 -2 R
0 -1 R 1 -1 R 1 0 R 1 0 R 2 0 R 2 1 R 1 -1 R 1 0 R 1 -2 R 1 -3 R 0 -2 R
1 -1 R 1 -1 R 1 0 R 1 0 R 2 0 R 2 1 R 1 -1 R 1 0 R 1 -1 R 1 -3 R 0 -2 R
1 -2 R 0 -1 R 1 0 R 2 0 R 1 0 R 3 1 R 1 0 R 1 -1 R 0 -1 R 1 -4 R 1 -2 R
1 -1 R 0 -1 R 1 0 R 2 0 R 2 1 R 1 0 R 1 0 R 1 -1 R 1 -1 R 1 -4 R 1 -2 R
0 -1 R 1 -1 R 1 0 R 1 0 R 2 1 R 2 0 R 1 0 R 1 -1 R 1 -2 R 0 -2 R 1 -3 R
1 -1 R 0 -1 R 1 0 R 1 0 R 2 0 R 2 1 R 1 0 R 1 -1 R 1 -2 R 1 -3 R 1 -2 R
0 -1 R 1 -1 R 1 0 R 1 0 R 2 0 R 2 0 R 1 0 R 1 0 R 0 -2 R 1 -3 R 1 -2 R
0 -1 R 1 -1 R 1 0 R 1 0 R 2 0 R 2 0 R 1 0 R 1 0 R 1 -2 R 0 -3 R 1 -2 R
1 -1 R 0 -1 R 1 0 R 1 0 R 2 0 R 2 0 R 1 0 R 1 -1 R 1 -1 R 1 -3 R 0 -3 R
1 -1 R 1 0 R 1 -1 R 1 0 R 2 1 R 1 0 R 1 0 R 1 -1 R 1 -1 R 1 -4 R 0 -2 R
1 -1 R 1 -1 R 1 0 R 1 0 R 2 0 R 1 0 R 1 0 R 1 0 R 1 -2 R 0 -1 R 1 -2 R
0 -2 R 1 -1 R 0 -1 R 1 0 R 1 0 R 2 0 R 2 0 R 1 0 R 1 -1 R 1 -1 R 0 -2 R
1 -1 R 0 -1 R 0 -3 R 2 -6 R 2 -9 R 2 -12 R 7 -28 R 31 -146 R 16 -75 R
79 -279 R 1 -1 R 1 -1 R D 7798 11903 M 3958 0 R D 7798 11903 M 0 156 R D
gsave 7798 11375 translate 0 0 M -117.687 0 N
(0) show grestore 8808 11903 M 0 156 R D gsave 8808 11375 translate 0 0 M
-117.687 0 N
(2) show grestore 9817 11903 M 0 156 R D gsave 9817 11375 translate 0 0 M
-117.687 0 N
(4) show grestore 10827 11903 M 0 156 R D gsave 10827 11375 translate 0 0 M
-117.687 0 N
(6) show grestore 8050 11903 M 0 78 R D 8303 11903 M 0 78 R D 8555 11903 M
0 78 R D 9060 11903 M 0 78 R D 9312 11903 M 0 78 R D 9565 11903 M 0 78 R D
10070 11903 M 0 78 R D 10322 11903 M 0 78 R D 10574 11903 M 0 78 R D
11079 11903 M 0 78 R D 11332 11903 M 0 78 R D 11584 11903 M 0 78 R D
7798 15801 M 3958 0 R D 7798 15801 M 0 -156 R D 8808 15801 M 0 -156 R D
9817 15801 M 0 -156 R D 10827 15801 M 0 -156 R D 8050 15801 M 0 -78 R D
8303 15801 M 0 -78 R D 8555 15801 M 0 -78 R D 9060 15801 M 0 -78 R D
9312 15801 M 0 -78 R D 9565 15801 M 0 -78 R D 10070 15801 M 0 -78 R D
10322 15801 M 0 -78 R D 10574 15801 M 0 -78 R D 11079 15801 M 0 -78 R D
11332 15801 M 0 -78 R D 11584 15801 M 0 -78 R D 7798 11903 M 0 3898 R D
7798 13106 M 158 0 R D gsave 7687 12965 translate 0 0 M -470.747 0 N
(10) show grestore 7798 14947 M 158 0 R D gsave 7687 14806 translate 0 0 M
-706.12 0 N
(100) show grestore 7798 12143 M 79 0 R D 7798 12373 M 79 0 R D 7798 12552 M
79 0 R D 7798 12697 M 79 0 R D 7798 12821 M 79 0 R D 7798 12927 M 79 0 R D
7798 13021 M 79 0 R D 7798 13660 M 79 0 R D 7798 13984 M 79 0 R D
7798 14214 M 79 0 R D 7798 14392 M 79 0 R D 7798 14538 M 79 0 R D
7798 14661 M 79 0 R D 7798 14768 M 79 0 R D 7798 14862 M 79 0 R D
7798 15501 M 79 0 R D 11756 11903 M 0 3898 R D 11756 13106 M -158 0 R D
11756 14947 M -158 0 R D 11756 12143 M -79 0 R D 11756 12373 M -79 0 R D
11756 12552 M -79 0 R D 11756 12697 M -79 0 R D 11756 12821 M -79 0 R D
11756 12927 M -79 0 R D 11756 13021 M -79 0 R D 11756 13660 M -79 0 R D
11756 13984 M -79 0 R D 11756 14214 M -79 0 R D 11756 14392 M -79 0 R D
11756 14538 M -79 0 R D 11756 14661 M -79 0 R D 11756 14768 M -79 0 R D
11756 14862 M -79 0 R D 11756 15501 M -79 0 R D 7798 15793 M 101 -11 R
276 -51 R 235 -97 R 191 -121 R 158 -93 R 157 -56 R 181 -22 R 219 3 R
312 10 R 193 -4 R 153 -19 R 130 -41 R 113 -83 R 101 -138 R 80 -133 R
79 -97 R 79 -36 R 94 2 R 126 15 R 120 -1 R 64 -18 R 58 -43 R 48 -86 R
45 -160 R 36 -180 R 35 -145 R 33 -46 R 38 9 R 51 24 R 51 1 R 25 -18 R
22 -45 R 19 -90 R 18 -187 R 15 -259 R 12 -232 R 12 -105 R 13 21 R 17 38 R
27 5 R 6 -16 R 7 -45 R 6 -81 R 5 -178 R 5 -587 R 2 -283 R 1 -107 R 1 -63 R D
12836 11903 M 3958 0 R D 12836 11903 M 0 156 R D
gsave 12836 11375 translate 0 0 M -117.687 0 N
(0) show grestore 13660 11903 M 0 156 R D gsave 13660 11375 translate 0 0 M
-117.687 0 N
(1) show grestore 14484 11903 M 0 156 R D gsave 14484 11375 translate 0 0 M
-117.687 0 N
(2) show grestore 15308 11903 M 0 156 R D gsave 15308 11375 translate 0 0 M
-117.687 0 N
(3) show grestore 16132 11903 M 0 156 R D gsave 16132 11375 translate 0 0 M
-117.687 0 N
(4) show grestore 12918 11903 M 0 78 R D 13001 11903 M 0 78 R D
13083 11903 M 0 78 R D 13166 11903 M 0 78 R D 13248 11903 M 0 78 R D
13330 11903 M 0 78 R D 13413 11903 M 0 78 R D 13495 11903 M 0 78 R D
13578 11903 M 0 78 R D 13742 11903 M 0 78 R D 13825 11903 M 0 78 R D
13907 11903 M 0 78 R D 13990 11903 M 0 78 R D 14072 11903 M 0 78 R D
14154 11903 M 0 78 R D 14237 11903 M 0 78 R D 14319 11903 M 0 78 R D
14402 11903 M 0 78 R D 14566 11903 M 0 78 R D 14649 11903 M 0 78 R D
14731 11903 M 0 78 R D 14813 11903 M 0 78 R D 14896 11903 M 0 78 R D
14978 11903 M 0 78 R D 15061 11903 M 0 78 R D 15143 11903 M 0 78 R D
15225 11903 M 0 78 R D 15390 11903 M 0 78 R D 15473 11903 M 0 78 R D
15555 11903 M 0 78 R D 15637 11903 M 0 78 R D 15720 11903 M 0 78 R D
15802 11903 M 0 78 R D 15885 11903 M 0 78 R D 15967 11903 M 0 78 R D
16049 11903 M 0 78 R D 16214 11903 M 0 78 R D 16296 11903 M 0 78 R D
16379 11903 M 0 78 R D 16461 11903 M 0 78 R D 16544 11903 M 0 78 R D
16626 11903 M 0 78 R D 16708 11903 M 0 78 R D 16791 11903 M 0 78 R D
12836 15801 M 3958 0 R D 12836 15801 M 0 -156 R D 13660 15801 M 0 -156 R D
14484 15801 M 0 -156 R D 15308 15801 M 0 -156 R D 16132 15801 M 0 -156 R D
12918 15801 M 0 -78 R D 13001 15801 M 0 -78 R D 13083 15801 M 0 -78 R D
13166 15801 M 0 -78 R D 13248 15801 M 0 -78 R D 13330 15801 M 0 -78 R D
13413 15801 M 0 -78 R D 13495 15801 M 0 -78 R D 13578 15801 M 0 -78 R D
13742 15801 M 0 -78 R D 13825 15801 M 0 -78 R D 13907 15801 M 0 -78 R D
13990 15801 M 0 -78 R D 14072 15801 M 0 -78 R D 14154 15801 M 0 -78 R D
14237 15801 M 0 -78 R D 14319 15801 M 0 -78 R D 14402 15801 M 0 -78 R D
14566 15801 M 0 -78 R D 14649 15801 M 0 -78 R D 14731 15801 M 0 -78 R D
14813 15801 M 0 -78 R D 14896 15801 M 0 -78 R D 14978 15801 M 0 -78 R D
15061 15801 M 0 -78 R D 15143 15801 M 0 -78 R D 15225 15801 M 0 -78 R D
15390 15801 M 0 -78 R D 15473 15801 M 0 -78 R D 15555 15801 M 0 -78 R D
15637 15801 M 0 -78 R D 15720 15801 M 0 -78 R D 15802 15801 M 0 -78 R D
15885 15801 M 0 -78 R D 15967 15801 M 0 -78 R D 16049 15801 M 0 -78 R D
16214 15801 M 0 -78 R D 16296 15801 M 0 -78 R D 16379 15801 M 0 -78 R D
16461 15801 M 0 -78 R D 16544 15801 M 0 -78 R D 16626 15801 M 0 -78 R D
16708 15801 M 0 -78 R D 16791 15801 M 0 -78 R D 12836 11903 M 0 3898 R D
12836 12193 M 158 0 R D gsave 12725 12053 translate 0 0 M -470.747 0 N
(10) show grestore 12836 14657 M 158 0 R D gsave 12725 14517 translate 0 0 M
-706.12 0 N
(100) show grestore 12836 11955 M 79 0 R D 12836 12081 M 79 0 R D
12836 12935 M 79 0 R D 12836 13369 M 79 0 R D 12836 13677 M 79 0 R D
12836 13916 M 79 0 R D 12836 14111 M 79 0 R D 12836 14276 M 79 0 R D
12836 14419 M 79 0 R D 12836 14545 M 79 0 R D 12836 15399 M 79 0 R D
16794 11903 M 0 3898 R D 16794 12193 M -158 0 R D 16794 14657 M -158 0 R D
16794 11955 M -79 0 R D 16794 12081 M -79 0 R D 16794 12935 M -79 0 R D
16794 13369 M -79 0 R D 16794 13677 M -79 0 R D 16794 13916 M -79 0 R D
16794 14111 M -79 0 R D 16794 14276 M -79 0 R D 16794 14419 M -79 0 R D
16794 14545 M -79 0 R D 16794 15399 M -79 0 R D 12836 15790 M 165 -19 R
461 -95 R 377 -176 R 308 -243 R 249 -224 R 247 -136 R 252 2 R 306 24 R
499 -29 R 109 -38 R 130 -95 R 107 -173 R 98 -319 R 79 -414 R 69 -357 R
69 43 R 70 23 R 85 -62 R 15 -33 R 21 -82 R 17 -129 R 17 -318 R 7 -278 R
4 -267 R 9 -437 R D gsave 17280 13230 translate 0 0 M 90 rotate
(bs0rs0) show grestore gsave 1800 26190 translate 0 0 M
(M0mt) show grestore gsave 1800 25838 translate 0 0 M
(2.5mlr) show grestore
%%PageTrailer
end
%%PageResources: font Helvetica
%%Trailer
%%Pages: 1
%%DocumentNeededResources: font Helvetica
%%EOF
