%!PS-Adobe-3.0 EPSF-3.0
%%BoundingBox: 0 0 510 708
%%Title: Graphics produced by IDL
%%For: jlgan@aida119, /home/jlgan/work/subhalo_model
%%Creator: IDL Version 7.0 (linux x86_64 m64)
%%CreationDate: Tue Mar 10 17:11:39 2009
%%DocumentData: Clean7bit
%%Requirements: color
%%LanguageLevel: 1
%%PageOrder: Ascend
%%Pages: (atend)
%%DocumentNeededResources: (atend)
%%EndComments
%%BeginProlog
%+ prolog.ps -- Prolog for IDL generated PostScript files
%+ Copyright (c) 1988-2007 ITT Visual Information Solutions. All Rights Reserved.
%v 5
/$IDL_DICT 40 dict def $IDL_DICT begin /bdef { bind def } bind def /C
{currentpoint newpath moveto} bdef /CP {currentpoint} bdef /D {currentpoint
stroke moveto} bdef /F {closepath fill} bdef /K { setgray } bdef /M {moveto}
bdef /N {rmoveto} bdef /P {lineto} bdef /R {rlineto} bdef /S {gsave show
grestore} bdef /X {currentpoint pop} bdef /Z {gsave currentpoint lineto 20
setlinewidth 1 setlinecap stroke grestore} bdef /L0 {[] 0 setdash} bdef /L1
{[40 100] 0 setdash} bdef /L2 {[200 200] 0 setdash} bdef /L3 {[200 100 50
100] 0 setdash} bdef /L4 {[300 100 50 100 50 100 50 100] 0 setdash} bdef /L5
{[400 200] 0 setdash} bdef /STDFONT { findfont exch scalefont setfont } bdef
/ISOFONT { findfont dup length dict begin { 1 index /FID ne {def} {pop pop}
ifelse } forall /Encoding ISOLatin1Encoding def currentdict end /idltmpfont
exch definefont exch scalefont setfont } bdef /ISOBULLET { gsave /Helvetica
findfont exch scalefont setfont (\267) show currentpoint grestore moveto}
bdef /MITERLIMIT { 2.5 setmiterlimit } bdef end
%%EndProlog
%%Page: 0 1
%%PageRequirements: color
%%PageResources: (atend)
%%PageOrientation: Portrait
%%PageBoundingBox: 0 0 510 708
%%BeginPageSetup
$IDL_DICT begin 0.0283465 dup scale MITERLIMIT
%%IncludeResource: font Helvetica
423.333 /Helvetica STDFONT
%%EndPageSetup
20 setlinewidth L0 0.000 0.000 0.000 setrgbcolor 8697 696 M 0 -278 R
17 -50 R 33 -16 R 32 0 R D 8648 581 M 115 0 R D 8861 696 M 16 -17 R 17 17 R
-17 16 R -16 -16 R D 8877 581 M 0 -229 R D 9008 581 M 0 -229 R D 9008 516 M
49 49 R 33 16 R 49 0 R 33 -16 R 16 -49 R 0 -164 R D 9188 516 M 49 49 R
33 16 R 49 0 R 33 -16 R 16 -49 R 0 -164 R D 9483 483 M 196 0 R 0 33 R
-16 32 R -17 17 R -32 16 R -50 0 R -32 -16 R -33 -33 R -16 -49 R 0 -33 R
16 -49 R 33 -33 R 32 -16 R 50 0 R 32 16 R 33 33 R D 10055 761 M -294 -540 R
D 10382 614 M -16 33 R -33 32 R -32 17 R -66 0 R -33 -17 R -32 -32 R
-17 -33 R -16 -49 R 0 -82 R 16 -49 R 17 -33 R 32 -33 R 33 -16 R 66 0 R
32 16 R 33 33 R 16 33 R 0 49 R -81 0 R D 10464 581 M 98 -229 R 98 229 R D
10562 352 M -32 -82 R -33 -32 R -33 -17 R -16 0 R D 10759 581 M 0 -229 R D
10759 483 M 16 49 R 33 33 R 32 16 R 49 0 R D 3120 18574 M 5757 0 R D
3120 18574 M 0 229 R D 4737 18574 M 0 229 R D 6354 18574 M 0 229 R D
7971 18574 M 0 229 R D 3524 18574 M 0 115 R D 3929 18574 M 0 115 R D
4333 18574 M 0 115 R D 5141 18574 M 0 115 R D 5546 18574 M 0 115 R D
5950 18574 M 0 115 R D 6758 18574 M 0 115 R D 7163 18574 M 0 115 R D
7567 18574 M 0 115 R D 8375 18574 M 0 115 R D 8780 18574 M 0 115 R D
3120 24296 M 5757 0 R D 3120 24296 M 0 -229 R D 4737 24296 M 0 -229 R D
6354 24296 M 0 -229 R D 7971 24296 M 0 -229 R D 3524 24296 M 0 -114 R D
3929 24296 M 0 -114 R D 4333 24296 M 0 -114 R D 5141 24296 M 0 -114 R D
5546 24296 M 0 -114 R D 5950 24296 M 0 -114 R D 6758 24296 M 0 -114 R D
7163 24296 M 0 -114 R D 7567 24296 M 0 -114 R D 8375 24296 M 0 -114 R D
8780 24296 M 0 -114 R D 3120 18574 M 0 5722 R D 3120 19401 M 230 0 R D
2051 19506 M -35 -12 R -23 -35 R -12 -58 R 0 -35 R 12 -59 R 23 -35 R
35 -12 R 23 0 R 35 12 R 24 35 R 11 59 R 0 35 R -11 58 R -24 35 R -35 12 R
-23 0 R D 2238 19284 M -12 -12 R 12 -12 R 12 12 R -12 12 R D 2402 19506 M
-36 -12 R -23 -35 R -12 -58 R 0 -35 R 12 -59 R 23 -35 R 36 -12 R 23 0 R
35 12 R 23 35 R 12 59 R 0 35 R -12 58 R -23 35 R -35 12 R -23 0 R D
2635 19506 M -35 -12 R -23 -35 R -12 -58 R 0 -35 R 12 -59 R 23 -35 R
35 -12 R 24 0 R 35 12 R 23 35 R 12 59 R 0 35 R -12 58 R -23 35 R -35 12 R
-24 0 R D 2834 19459 M 23 12 R 35 35 R 0 -246 R D 3120 21033 M 230 0 R D
2051 21137 M -35 -11 R -23 -35 R -12 -59 R 0 -35 R 12 -58 R 23 -35 R
35 -12 R 23 0 R 35 12 R 24 35 R 11 58 R 0 35 R -11 59 R -24 35 R -35 11 R
-23 0 R D 2238 20915 M -12 -11 R 12 -12 R 12 12 R -12 11 R D 2402 21137 M
-36 -11 R -23 -35 R -12 -59 R 0 -35 R 12 -58 R 23 -35 R 36 -12 R 23 0 R
35 12 R 23 35 R 12 58 R 0 35 R -12 59 R -23 35 R -35 11 R -23 0 R D
2600 21091 M 24 11 R 35 35 R 0 -245 R D 2869 21137 M -35 -11 R -24 -35 R
-11 -59 R 0 -35 R 11 -58 R 24 -35 R 35 -12 R 23 0 R 35 12 R 24 35 R 11 58 R
0 35 R -11 59 R -24 35 R -35 11 R -23 0 R D 3120 22665 M 230 0 R D
2051 22769 M -35 -12 R -23 -35 R -12 -58 R 0 -35 R 12 -59 R 23 -35 R
35 -11 R 23 0 R 35 11 R 24 35 R 11 59 R 0 35 R -11 58 R -24 35 R -35 12 R
-23 0 R D 2238 22547 M -12 -12 R 12 -11 R 12 11 R -12 12 R D 2366 22722 M
24 12 R 35 35 R 0 -245 R D 2635 22769 M -35 -12 R -23 -35 R -12 -58 R
0 -35 R 12 -59 R 23 -35 R 35 -11 R 24 0 R 35 11 R 23 35 R 12 59 R 0 35 R
-12 58 R -23 35 R -35 12 R -24 0 R D 2869 22769 M -35 -12 R -24 -35 R
-11 -58 R 0 -35 R 11 -59 R 24 -35 R 35 -11 R 23 0 R 35 11 R 24 35 R 11 59 R
0 35 R -11 58 R -24 35 R -35 12 R -23 0 R D 3120 24296 M 230 0 R D
2016 24248 M 23 12 R 35 35 R 0 -245 R D 2238 24073 M -12 -12 R 12 -11 R
12 11 R -12 12 R D 2402 24295 M -36 -12 R -23 -35 R -12 -58 R 0 -35 R
12 -59 R 23 -35 R 36 -11 R 23 0 R 35 11 R 23 35 R 12 59 R 0 35 R -12 58 R
-23 35 R -35 12 R -23 0 R D 2635 24295 M -35 -12 R -23 -35 R -12 -58 R
0 -35 R 12 -59 R 23 -35 R 35 -11 R 24 0 R 35 11 R 23 35 R 12 59 R 0 35 R
-12 58 R -23 35 R -35 12 R -24 0 R D 2869 24295 M -35 -12 R -24 -35 R
-11 -58 R 0 -35 R 11 -59 R 24 -35 R 35 -11 R 23 0 R 35 11 R 24 35 R 11 59 R
0 35 R -11 58 R -24 35 R -35 12 R -23 0 R D 3120 18752 M 115 0 R D
3120 18910 M 115 0 R D 3120 19039 M 115 0 R D 3120 19149 M 115 0 R D
3120 19243 M 115 0 R D 3120 19327 M 115 0 R D 3120 19892 M 115 0 R D
3120 20180 M 115 0 R D 3120 20384 M 115 0 R D 3120 20542 M 115 0 R D
3120 20671 M 115 0 R D 3120 20780 M 115 0 R D 3120 20875 M 115 0 R D
3120 20958 M 115 0 R D 3120 21524 M 115 0 R D 3120 21811 M 115 0 R D
3120 22015 M 115 0 R D 3120 22173 M 115 0 R D 3120 22303 M 115 0 R D
3120 22412 M 115 0 R D 3120 22506 M 115 0 R D 3120 22590 M 115 0 R D
3120 23156 M 115 0 R D 3120 23443 M 115 0 R D 3120 23647 M 115 0 R D
3120 23805 M 115 0 R D 3120 23934 M 115 0 R D 3120 24043 M 115 0 R D
3120 24138 M 115 0 R D 3120 24221 M 115 0 R D 1461 20477 M 164 0 R D
1508 20477 M -35 35 R -12 23 R 0 35 R 12 24 R 35 12 R 117 0 R D 1508 20606 M
-35 35 R -12 23 R 0 35 R 12 23 R 35 12 R 117 0 R D 1332 20909 M 24 -23 R
35 -23 R 47 -24 R 58 -11 R 47 0 R 58 11 R 59 24 R 35 23 R 23 23 R D
1379 21003 M 199 0 R 35 11 R 12 24 R 0 23 R D 1461 20968 M 0 82 R D
1332 21120 M 24 23 R 35 23 R 47 24 R 58 11 R 47 0 R 58 -11 R 59 -24 R
35 -23 R 23 -23 R D 1332 21482 M 386 -210 R D 1461 21552 M 164 0 R D
1508 21552 M -35 35 R -12 23 R 0 35 R 12 24 R 35 11 R 117 0 R D 1508 21680 M
-35 36 R -12 23 R 0 35 R 12 23 R 35 12 R 117 0 R D 1332 21984 M 24 -23 R
35 -23 R 47 -24 R 58 -12 R 47 0 R 58 12 R 59 24 R 35 23 R 23 23 R D
1379 22124 M 12 -35 R 35 -23 R 58 -12 R 35 0 R 59 12 R 35 23 R 12 35 R
0 24 R -12 35 R -35 23 R -59 12 R -35 0 R -58 -12 R -35 -23 R -12 -35 R
0 -24 R D 1332 22288 M 24 23 R 35 24 R 47 23 R 58 12 R 47 0 R 58 -12 R
59 -23 R 35 -24 R 23 -23 R D 8877 18574 M 0 5722 R D 8877 19401 M -230 0 R D
8877 21033 M -230 0 R D 8877 22665 M -230 0 R D 8877 24296 M -230 0 R D
8877 18752 M -115 0 R D 8877 18910 M -115 0 R D 8877 19039 M -115 0 R D
8877 19149 M -115 0 R D 8877 19243 M -115 0 R D 8877 19327 M -115 0 R D
8877 19892 M -115 0 R D 8877 20180 M -115 0 R D 8877 20384 M -115 0 R D
8877 20542 M -115 0 R D 8877 20671 M -115 0 R D 8877 20780 M -115 0 R D
8877 20875 M -115 0 R D 8877 20958 M -115 0 R D 8877 21524 M -115 0 R D
8877 21811 M -115 0 R D 8877 22015 M -115 0 R D 8877 22173 M -115 0 R D
8877 22303 M -115 0 R D 8877 22412 M -115 0 R D 8877 22506 M -115 0 R D
8877 22590 M -115 0 R D 8877 23156 M -115 0 R D 8877 23443 M -115 0 R D
8877 23647 M -115 0 R D 8877 23805 M -115 0 R D 8877 23934 M -115 0 R D
8877 24043 M -115 0 R D 8877 24138 M -115 0 R D 8877 24221 M -115 0 R D
3120 24296 M 92 -2 R 88 -2 R 83 -4 R 77 -4 R 70 -6 R 62 -8 R 53 -9 R
47 -11 R 40 -14 R 34 -16 R 29 -18 R 25 -20 R 23 -22 R 20 -23 R 18 -24 R
16 -25 R 16 -25 R 15 -25 R 14 -24 R 15 -24 R 14 -22 R 15 -21 R 15 -20 R
16 -18 R 16 -16 R 18 -15 R 18 -13 R 20 -11 R 22 -10 R 22 -8 R 25 -8 R
25 -6 R 27 -5 R 29 -4 R 29 -4 R 31 -2 R 31 -3 R 31 -2 R 32 -1 R 31 -2 R
31 -1 R 30 -1 R 29 -1 R 28 0 R 28 -1 R 26 0 R 25 -1 R 25 0 R 23 -1 R 22 0 R
21 0 R 21 0 R 19 -1 R 19 0 R 18 0 R 18 0 R 17 0 R 16 0 R 16 -1 R 15 0 R
15 0 R 14 0 R 15 0 R 14 0 R 13 0 R 14 -1 R 13 0 R 14 0 R 13 0 R 13 0 R
13 0 R 13 0 R 13 0 R 13 0 R 13 0 R 13 -1 R 14 0 R 14 0 R 14 0 R 14 0 R
14 0 R 15 0 R 16 0 R 16 -1 R 16 0 R 17 0 R 18 0 R 18 0 R 19 0 R 20 -1 R
21 0 R 22 0 R 24 0 R 24 -1 R 26 0 R 27 -1 R 29 0 R 31 -1 R 32 0 R 33 -1 R
35 -1 R 36 -2 R 36 -2 R 37 -2 R 37 -3 R 36 -4 R 34 -5 R 32 -6 R 30 -9 R
26 -11 R 24 -13 R 20 -17 R 18 -20 R 15 -23 R 14 -27 R 12 -28 R 11 -30 R
10 -31 R 9 -31 R 9 -30 R 8 -30 R 9 -27 R 8 -26 R 9 -24 R 10 -22 R 9 -19 R
11 -16 R 11 -15 R 11 -12 R 13 -10 R 12 -9 R 14 -7 R 14 -6 R 15 -4 R 15 -4 R
15 -3 R 15 -3 R 14 -2 R 15 -2 R 14 -1 R 14 -1 R 14 -1 R 12 -1 R 13 -1 R
11 -1 R 11 0 R 11 -1 R 10 0 R 10 -1 R 9 0 R 8 0 R 9 -1 R 8 0 R 7 0 R 8 -1 R
7 0 R 7 0 R 6 0 R 7 0 R 6 -1 R 6 0 R 6 0 R 6 0 R 6 0 R 6 -1 R 5 0 R 6 0 R
5 0 R 6 0 R 5 0 R 6 -1 R 5 0 R 6 0 R 6 0 R 5 0 R 6 0 R 6 -1 R 6 0 R 6 0 R
6 0 R 7 0 R 6 0 R 7 -1 R 8 0 R 7 0 R 8 0 R 8 -1 R 9 0 R 9 0 R 9 -1 R 10 0 R
11 0 R 11 -1 R 12 -1 R 13 0 R 14 -1 R 14 -1 R 16 -1 R 16 -1 R 17 -2 R
18 -2 R 18 -3 R 19 -4 R 18 -5 R 18 -6 R 17 -9 R 15 -13 R 14 -16 R 12 -22 R
11 -26 R 9 -32 R 8 -36 R 7 -38 R 7 -40 R 6 -40 R 5 -38 R 6 -36 R 6 -32 R
5 -30 R 7 -25 R 6 -22 R 7 -19 R 7 -15 R 8 -13 R 8 -10 R 9 -8 R 9 -6 R 9 -5 R
9 -4 R 8 -3 R 9 -3 R 8 -2 R 8 -2 R 8 -1 R 7 -1 R 7 -2 R 6 0 R 6 -1 R 6 -1 R
5 -1 R 5 0 R 5 -1 R 5 0 R 4 -1 R 4 0 R 4 0 R 3 -1 R 4 0 R 3 0 R 3 -1 R 3 0 R
3 0 R 3 0 R 3 -1 R 3 0 R 3 0 R 2 0 R 3 0 R 2 -1 R 3 0 R 3 0 R 2 0 R 3 0 R
2 -1 R 3 0 R 2 0 R 3 0 R 3 0 R 2 -1 R 3 0 R 3 0 R 3 0 R 3 -1 R 3 0 R 3 0 R
3 0 R 4 -1 R 3 0 R 4 0 R 4 -1 R 4 0 R 5 0 R 4 -1 R 5 0 R 6 -1 R 6 -1 R 6 0 R
7 -1 R 7 -1 R 8 -1 R 9 -2 R 9 -1 R 10 -2 R 11 -3 R 11 -4 R 11 -5 R 12 -7 R
11 -11 R 10 -15 R 10 -22 R 8 -30 R 7 -39 R 6 -46 R 5 -52 R 5 -53 R 4 -51 R
4 -46 R 4 -41 R 4 -35 R 5 -30 R 5 -24 R 5 -20 R 6 -16 R 6 -13 R 7 -9 R
6 -8 R 6 -5 R 7 -5 R 6 -3 R 6 -3 R 5 -3 R 5 -2 R 5 -1 R 4 -2 R 4 -1 R 3 -1 R
4 -1 R 3 0 R 3 -1 R 2 -1 R 3 0 R 2 -1 R 2 0 R 2 -1 R 2 0 R 2 -1 R 2 0 R
2 0 R 1 -1 R 2 0 R 1 0 R 2 -1 R 1 0 R 2 0 R 1 0 R 2 -1 R 1 0 R 1 0 R 2 -1 R
1 0 R 1 0 R 1 0 R 2 -1 R 1 0 R 1 0 R 2 0 R 1 -1 R 2 0 R 1 0 R 2 0 R 1 -1 R
2 0 R 1 0 R 2 -1 R 2 0 R 2 0 R 2 -1 R 2 0 R 2 -1 R 2 0 R 3 -1 R 3 0 R 3 -1 R
3 -1 R 3 0 R 4 -1 R 5 -1 R 4 -2 R 5 -1 R 6 -2 R 6 -2 R 7 -3 R 8 -4 R 8 -6 R
8 -8 R 9 -12 R 8 -18 R 7 -29 R 6 -41 R 5 -55 R 5 -66 R 3 -69 R 3 -65 R
3 -55 R 4 -45 R 4 -36 R 4 -28 R 4 -21 R 5 -15 R 6 -10 R 5 -7 R 5 -4 R 6 -2 R
5 -1 R 4 -1 R 4 -1 R 4 0 R 3 -1 R 3 0 R 3 0 R 3 0 R 2 0 R 2 0 R 2 0 R 1 0 R
2 0 R 1 0 R 2 0 R 1 0 R 1 0 R 1 0 R 1 0 R 1 0 R 1 0 R 1 0 R 1 0 R 1 0 R
1 0 R 1 0 R 1 0 R 1 0 R 1 0 R 1 0 R 1 0 R 1 0 R 1 0 R 1 0 R 1 0 R 1 0 R
1 0 R 1 0 R 1 0 R 1 0 R 1 0 R 1 0 R 1 0 R 2 0 R 1 0 R 1 0 R 1 0 R 2 0 R
1 0 R 2 0 R 2 0 R 2 0 R 2 0 R 2 0 R 3 0 R 3 0 R 3 0 R 4 -1 R 4 0 R 5 -1 R
6 -1 R 6 -2 R 6 -4 R 7 -7 R 7 -14 R 7 -28 R 5 -46 R 4 -69 R 4 -86 R 2 -85 R
3 -71 R 3 -55 R 3 -42 R 4 -30 R 4 -21 R 4 -11 R 5 -5 R 5 0 R 5 0 R 4 0 R
4 0 R 4 0 R 3 0 R 3 0 R 2 0 R 2 0 R 2 0 R 1 0 R 2 0 R 1 0 R 1 0 R 1 0 R
1 0 R 1 0 R 1 0 R 1 0 R 1 0 R 1 0 R 1 0 R 1 0 R 1 0 R 1 0 R 1 0 R 1 0 R
1 0 R 1 0 R 1 0 R 1 0 R 1 0 R 1 0 R 1 0 R 1 0 R 1 0 R 1 0 R 1 0 R 1 0 R
1 0 R 1 0 R 1 0 R 2 0 R 1 0 R 1 0 R 2 0 R 2 0 R 2 0 R 2 0 R 3 0 R 3 0 R
3 0 R 4 0 R 5 0 R 5 0 R 5 0 R 6 -5 R 6 -19 R 6 -40 R 4 -72 R 3 -101 R
2 -101 R 3 -80 R 2 -58 R 3 -41 R 4 -28 R 4 -13 R 4 -1 R 5 0 R 4 0 R 4 0 R
4 0 R 3 0 R 2 0 R 3 0 R 2 0 R 1 0 R 2 0 R 1 0 R 1 0 R 1 0 R 1 0 R 1 0 R
1 0 R 1 0 R 1 0 R 1 0 R 1 0 R 1 0 R 1 0 R 1 0 R 1 0 R 1 0 R 1 0 R 1 0 R
1 0 R 1 0 R 1 0 R 1 0 R 1 0 R 1 0 R 1 0 R 1 0 R 1 0 R 1 0 R 1 0 R 2 0 R
1 0 R 2 0 R 2 0 R 2 0 R 3 0 R 3 0 R 3 0 R 4 0 R 5 0 R 5 0 R 6 -6 R 5 -32 R
4 -70 R 3 -110 R 2 -115 R 2 -88 R 2 -60 R 3 -41 R 3 -22 R 5 -2 R 4 0 R 4 0 R
4 0 R 4 0 R 3 0 R 2 0 R 2 0 R 2 0 R 1 0 R 1 0 R 2 0 R 1 0 R 1 0 R 1 0 R
1 0 R 1 0 R 1 0 R 1 0 R 1 0 R 1 0 R 1 0 R 1 0 R 1 0 R 1 0 R 1 0 R 1 0 R
1 0 R 1 0 R 1 0 R 1 0 R 1 0 R 1 0 R 1 0 R 2 0 R 1 0 R 1 0 R 2 0 R 2 0 R
2 0 R 3 0 R 3 0 R 4 0 R 5 0 R 5 0 R 4 -8 R 5 -47 R 3 -96 R 2 -129 R 2 -106 R
2 -74 R 2 -48 R 4 -26 R 3 -2 R 5 0 R 4 0 R 4 0 R 3 0 R 3 0 R 2 0 R 2 0 R
1 0 R 1 0 R 2 0 R 1 0 R 1 0 R 1 0 R 1 0 R 1 0 R 1 0 R 1 0 R 1 0 R 1 0 R
1 0 R 1 0 R 1 0 R 1 0 R 1 0 R 1 0 R 1 0 R 1 0 R 1 0 R 1 0 R 1 0 R 1 0 R
1 0 R 2 0 R 1 0 R 2 0 R 2 0 R 2 0 R 3 0 R 3 0 R 4 0 R 5 0 R 4 -1 R 5 -37 R
3 -90 R 2 -132 R 1 -113 R 2 -78 R 3 -50 R 3 -21 R 3 0 R 4 0 R 5 0 R 3 0 R
3 0 R 3 0 R 2 0 R 1 0 R 2 0 R 1 0 R 1 0 R 1 0 R 1 0 R 1 0 R 1 0 R 1 0 R
1 0 R 1 0 R 1 0 R 1 0 R 1 0 R 1 0 R 1 0 R 1 0 R 1 0 R 1 0 R 1 0 R 1 0 R
1 0 R 1 0 R 1 0 R 1 0 R 1 0 R 1 0 R 2 0 R 2 0 R 2 0 R 3 0 R 3 0 R D
10677 18574 M 5757 0 R D 10677 18574 M 0 229 R D 12294 18574 M 0 229 R D
13911 18574 M 0 229 R D 15528 18574 M 0 229 R D 11081 18574 M 0 115 R D
11486 18574 M 0 115 R D 11890 18574 M 0 115 R D 12698 18574 M 0 115 R D
13103 18574 M 0 115 R D 13507 18574 M 0 115 R D 14315 18574 M 0 115 R D
14720 18574 M 0 115 R D 15124 18574 M 0 115 R D 15932 18574 M 0 115 R D
16337 18574 M 0 115 R D 10677 24296 M 5757 0 R D 10677 24296 M 0 -229 R D
12294 24296 M 0 -229 R D 13911 24296 M 0 -229 R D 15528 24296 M 0 -229 R D
11081 24296 M 0 -114 R D 11486 24296 M 0 -114 R D 11890 24296 M 0 -114 R D
12698 24296 M 0 -114 R D 13103 24296 M 0 -114 R D 13507 24296 M 0 -114 R D
14315 24296 M 0 -114 R D 14720 24296 M 0 -114 R D 15124 24296 M 0 -114 R D
15932 24296 M 0 -114 R D 16337 24296 M 0 -114 R D 10677 18574 M 0 5722 R D
10677 19587 M 230 0 R D 9842 19691 M -35 -11 R -24 -35 R -11 -59 R 0 -35 R
11 -58 R 24 -35 R 35 -12 R 23 0 R 35 12 R 23 35 R 12 58 R 0 35 R -12 59 R
-23 35 R -35 11 R -23 0 R D 10029 19469 M -12 -11 R 12 -12 R 11 12 R
-11 11 R D 10192 19691 M -35 -11 R -23 -35 R -12 -59 R 0 -35 R 12 -58 R
23 -35 R 35 -12 R 24 0 R 35 12 R 23 35 R 12 58 R 0 35 R -12 59 R -23 35 R
-35 11 R -24 0 R D 10391 19645 M 23 11 R 35 35 R 0 -245 R D 10677 21941 M
230 0 R D 9842 22046 M -35 -12 R -24 -35 R -11 -58 R 0 -35 R 11 -59 R
24 -35 R 35 -11 R 23 0 R 35 11 R 23 35 R 12 59 R 0 35 R -12 58 R -23 35 R
-35 12 R -23 0 R D 10029 21824 M -12 -12 R 12 -11 R 11 11 R -11 12 R D
10157 21999 M 24 12 R 35 35 R 0 -245 R D 10426 22046 M -35 -12 R -24 -35 R
-11 -58 R 0 -35 R 11 -59 R 24 -35 R 35 -11 R 23 0 R 35 11 R 24 35 R 11 59 R
0 35 R -11 58 R -24 35 R -35 12 R -23 0 R D 10677 24296 M 230 0 R D
9807 24248 M 23 12 R 35 35 R 0 -245 R D 10029 24073 M -12 -12 R 12 -11 R
11 11 R -11 12 R D 10192 24295 M -35 -12 R -23 -35 R -12 -58 R 0 -35 R
12 -59 R 23 -35 R 35 -11 R 24 0 R 35 11 R 23 35 R 12 59 R 0 35 R -12 58 R
-23 35 R -35 12 R -24 0 R D 10426 24295 M -35 -12 R -24 -35 R -11 -58 R
0 -35 R 11 -59 R 24 -35 R 35 -11 R 23 0 R 35 11 R 24 35 R 11 59 R 0 35 R
-11 58 R -24 35 R -35 12 R -23 0 R D 10677 18650 M 115 0 R D 10677 18878 M
115 0 R D 10677 19064 M 115 0 R D 10677 19222 M 115 0 R D 10677 19359 M
115 0 R D 10677 19479 M 115 0 R D 10677 20296 M 115 0 R D 10677 20710 M
115 0 R D 10677 21004 M 115 0 R D 10677 21233 M 115 0 R D 10677 21419 M
115 0 R D 10677 21577 M 115 0 R D 10677 21713 M 115 0 R D 10677 21834 M
115 0 R D 10677 22650 M 115 0 R D 10677 23065 M 115 0 R D 10677 23359 M
115 0 R D 10677 23587 M 115 0 R D 10677 23774 M 115 0 R D 10677 23931 M
115 0 R D 10677 24068 M 115 0 R D 10677 24188 M 115 0 R D 9170 20722 M
12 12 R -12 12 R -12 -12 R 12 -12 R D 9252 20734 M 210 0 R 35 -12 R 12 -23 R
0 -23 R D 9123 20909 M 23 -23 R 36 -23 R 46 -24 R 59 -11 R 46 0 R 59 11 R
58 24 R 35 23 R 24 23 R D 9170 21003 M 198 0 R 36 11 R 11 24 R 0 23 R D
9252 20968 M 0 82 R D 9123 21120 M 23 23 R 36 23 R 46 24 R 59 11 R 46 0 R
59 -11 R 58 -24 R 35 -23 R 24 -23 R D 9123 21482 M 386 -210 R D 9170 21564 M
12 11 R -12 12 R -12 -12 R 12 -11 R D 9252 21575 M 210 0 R 35 -11 R 12 -24 R
0 -23 R D 9123 21751 M 23 -24 R 36 -23 R 46 -24 R 59 -11 R 46 0 R 59 11 R
58 24 R 35 23 R 24 24 R D 9170 21891 M 12 -35 R 35 -24 R 58 -11 R 35 0 R
58 11 R 36 24 R 11 35 R 0 23 R -11 35 R -36 24 R -58 11 R -35 0 R -58 -11 R
-35 -24 R -12 -35 R 0 -23 R D 9123 22054 M 23 24 R 36 23 R 46 23 R 59 12 R
46 0 R 59 -12 R 58 -23 R 35 -23 R 24 -24 R D 16434 18574 M 0 5722 R D
16434 19587 M -230 0 R D 16434 21941 M -230 0 R D 16434 24296 M -230 0 R D
16434 18650 M -115 0 R D 16434 18878 M -115 0 R D 16434 19064 M -115 0 R D
16434 19222 M -115 0 R D 16434 19359 M -115 0 R D 16434 19479 M -115 0 R D
16434 20296 M -115 0 R D 16434 20710 M -115 0 R D 16434 21004 M -115 0 R D
16434 21233 M -115 0 R D 16434 21419 M -115 0 R D 16434 21577 M -115 0 R D
16434 21713 M -115 0 R D 16434 21834 M -115 0 R D 16434 22650 M -115 0 R D
16434 23065 M -115 0 R D 16434 23359 M -115 0 R D 16434 23587 M -115 0 R D
16434 23774 M -115 0 R D 16434 23931 M -115 0 R D 16434 24068 M -115 0 R D
16434 24188 M -115 0 R D 10677 24296 M 92 -8 R 88 -8 R 83 -9 R 77 -9 R
70 -9 R 62 -10 R 53 -9 R 47 -10 R 40 -10 R 34 -10 R 29 -10 R 25 -10 R
23 -10 R 20 -10 R 18 -10 R 16 -10 R 16 -9 R 15 -10 R 14 -9 R 15 -10 R
14 -9 R 15 -9 R 15 -9 R 16 -8 R 16 -9 R 18 -9 R 18 -8 R 20 -8 R 22 -9 R
22 -8 R 25 -8 R 25 -8 R 27 -8 R 29 -8 R 29 -8 R 31 -7 R 31 -8 R 31 -7 R
32 -7 R 31 -7 R 31 -7 R 30 -6 R 29 -7 R 28 -6 R 28 -5 R 26 -6 R 25 -5 R
25 -5 R 23 -4 R 22 -5 R 21 -4 R 21 -4 R 19 -4 R 19 -4 R 18 -4 R 18 -3 R
17 -4 R 16 -3 R 16 -3 R 15 -3 R 15 -3 R 14 -3 R 15 -3 R 14 -3 R 13 -3 R
14 -2 R 13 -3 R 14 -3 R 13 -2 R 13 -3 R 13 -3 R 13 -2 R 13 -3 R 13 -2 R
13 -3 R 13 -3 R 14 -3 R 14 -2 R 14 -3 R 14 -3 R 14 -3 R 15 -3 R 16 -3 R
16 -4 R 16 -3 R 17 -3 R 18 -4 R 18 -4 R 19 -4 R 20 -4 R 21 -4 R 22 -5 R
24 -5 R 24 -5 R 26 -6 R 27 -6 R 29 -6 R 31 -7 R 32 -7 R 33 -7 R 35 -9 R
36 -8 R 36 -10 R 37 -10 R 37 -10 R 36 -11 R 34 -12 R 32 -12 R 30 -12 R
26 -13 R 24 -14 R 20 -13 R 18 -14 R 15 -14 R 14 -14 R 12 -14 R 11 -14 R
10 -14 R 9 -13 R 9 -13 R 8 -13 R 9 -13 R 8 -13 R 9 -12 R 10 -12 R 9 -11 R
11 -12 R 11 -11 R 11 -11 R 13 -11 R 12 -11 R 14 -10 R 14 -11 R 15 -10 R
15 -9 R 15 -10 R 15 -9 R 14 -9 R 15 -8 R 14 -8 R 14 -8 R 14 -7 R 12 -7 R
13 -7 R 11 -6 R 11 -6 R 11 -5 R 10 -5 R 10 -5 R 9 -5 R 8 -5 R 9 -4 R 8 -4 R
7 -4 R 8 -4 R 7 -3 R 7 -4 R 6 -3 R 7 -3 R 6 -4 R 6 -3 R 6 -3 R 6 -3 R 6 -3 R
6 -3 R 5 -3 R 6 -2 R 5 -3 R 6 -3 R 5 -3 R 6 -3 R 5 -2 R 6 -3 R 6 -3 R 5 -3 R
6 -3 R 6 -3 R 6 -3 R 6 -3 R 6 -4 R 7 -3 R 6 -3 R 7 -4 R 8 -4 R 7 -4 R 8 -4 R
8 -4 R 9 -4 R 9 -5 R 9 -5 R 10 -6 R 11 -5 R 11 -7 R 12 -6 R 13 -7 R 14 -8 R
14 -8 R 16 -9 R 16 -10 R 17 -11 R 18 -11 R 18 -13 R 19 -14 R 18 -14 R
18 -16 R 17 -16 R 15 -18 R 14 -19 R 12 -19 R 11 -19 R 9 -20 R 8 -20 R
7 -20 R 7 -19 R 6 -19 R 5 -18 R 6 -18 R 6 -17 R 5 -17 R 7 -16 R 6 -16 R
7 -15 R 7 -15 R 8 -14 R 8 -14 R 9 -13 R 9 -13 R 9 -13 R 9 -11 R 8 -11 R
9 -11 R 8 -10 R 8 -9 R 8 -8 R 7 -8 R 7 -8 R 6 -7 R 6 -6 R 6 -6 R 5 -5 R
5 -6 R 5 -4 R 5 -5 R 4 -4 R 4 -4 R 4 -4 R 3 -4 R 4 -4 R 3 -3 R 3 -3 R 3 -3 R
3 -3 R 3 -3 R 3 -3 R 3 -3 R 3 -3 R 2 -2 R 3 -3 R 2 -3 R 3 -2 R 3 -3 R 2 -2 R
3 -3 R 2 -2 R 3 -3 R 2 -3 R 3 -2 R 3 -3 R 2 -3 R 3 -2 R 3 -3 R 3 -3 R 3 -3 R
3 -3 R 3 -4 R 3 -3 R 4 -3 R 3 -4 R 4 -4 R 4 -4 R 4 -4 R 5 -5 R 4 -5 R 5 -5 R
6 -6 R 6 -6 R 6 -7 R 7 -8 R 7 -8 R 8 -9 R 9 -10 R 9 -11 R 10 -13 R 11 -14 R
11 -15 R 11 -17 R 12 -20 R 11 -21 R 10 -23 R 10 -25 R 8 -26 R 7 -28 R
6 -27 R 5 -27 R 5 -27 R 4 -25 R 4 -24 R 4 -23 R 4 -21 R 5 -21 R 5 -20 R
5 -18 R 6 -18 R 6 -17 R 7 -16 R 6 -15 R 6 -13 R 7 -13 R 6 -11 R 6 -11 R
5 -9 R 5 -9 R 5 -8 R 4 -7 R 4 -6 R 3 -6 R 4 -5 R 3 -5 R 3 -4 R 2 -4 R 3 -4 R
2 -4 R 2 -3 R 2 -3 R 2 -3 R 2 -3 R 2 -3 R 2 -2 R 1 -3 R 2 -2 R 1 -2 R 2 -3 R
1 -2 R 2 -2 R 1 -2 R 2 -2 R 1 -2 R 1 -2 R 2 -2 R 1 -2 R 1 -2 R 1 -2 R 2 -2 R
1 -2 R 1 -2 R 2 -2 R 1 -2 R 2 -2 R 1 -2 R 2 -2 R 1 -3 R 2 -2 R 1 -3 R 2 -2 R
2 -3 R 2 -3 R 2 -3 R 2 -3 R 2 -3 R 2 -4 R 3 -4 R 3 -4 R 3 -5 R 3 -5 R 3 -5 R
4 -7 R 5 -6 R 4 -8 R 5 -9 R 6 -10 R 6 -11 R 7 -13 R 8 -15 R 8 -18 R 8 -20 R
9 -23 R 8 -27 R 7 -30 R 6 -33 R 5 -34 R 5 -34 R 3 -33 R 3 -29 R 3 -28 R
4 -25 R 4 -24 R 4 -22 R 4 -20 R 5 -19 R 6 -17 R 5 -16 R 5 -14 R 6 -12 R
5 -11 R 4 -10 R 4 -8 R 4 -7 R 3 -7 R 3 -5 R 3 -5 R 3 -5 R 2 -4 R 2 -3 R
2 -4 R 1 -3 R 2 -2 R 1 -3 R 2 -2 R 1 -3 R 1 -2 R 1 -2 R 1 -2 R 1 -1 R 1 -2 R
1 -2 R 1 -1 R 1 -2 R 1 -1 R 1 -2 R 1 -1 R 0 -1 R 1 -2 R 1 -1 R 1 -1 R 0 -2 R
1 -1 R 1 -1 R 1 -2 R 1 -1 R 0 -1 R 1 -2 R 1 -1 R 1 -2 R 1 -1 R 1 -2 R 0 -1 R
1 -2 R 1 -2 R 1 -1 R 1 -2 R 2 -2 R 1 -2 R 1 -2 R 1 -3 R 2 -2 R 1 -3 R 2 -3 R
2 -3 R 2 -4 R 2 -4 R 2 -4 R 3 -5 R 3 -6 R 3 -7 R 4 -7 R 4 -9 R 5 -10 R
6 -13 R 6 -15 R 6 -18 R 7 -22 R 7 -27 R 7 -32 R 5 -37 R 4 -41 R 4 -39 R
2 -36 R 3 -31 R 3 -28 R 3 -25 R 4 -23 R 4 -20 R 4 -19 R 5 -16 R 5 -14 R
5 -12 R 4 -10 R 4 -8 R 4 -8 R 3 -6 R 3 -5 R 2 -4 R 2 -4 R 2 -4 R 1 -2 R
2 -3 R 1 -3 R 1 -2 R 1 -2 R 1 -1 R 1 -2 R 1 -2 R 1 -1 R 1 -1 R 0 -2 R 1 -1 R
1 -1 R 0 -1 R 1 -1 R 1 -1 R 0 -1 R 1 -1 R 0 -1 R 1 -1 R 0 -1 R 1 -1 R 0 -1 R
1 -1 R 1 -1 R 0 -1 R 1 -1 R 0 -1 R 1 -1 R 0 -1 R 1 -1 R 0 -1 R 1 -1 R 1 -1 R
0 -1 R 1 -1 R 1 -1 R 0 -1 R 1 -2 R 1 -1 R 1 -2 R 0 -1 R 1 -2 R 1 -2 R 1 -2 R
2 -2 R 1 -2 R 1 -3 R 2 -3 R 2 -3 R 2 -4 R 2 -4 R 3 -6 R 3 -6 R 3 -7 R 4 -9 R
5 -10 R 5 -14 R 5 -17 R 6 -22 R 6 -29 R 6 -36 R 4 -43 R 3 -42 R 2 -37 R
3 -31 R 2 -27 R 3 -23 R 4 -21 R 4 -17 R 4 -15 R 5 -13 R 4 -11 R 4 -8 R
4 -7 R 3 -6 R 2 -4 R 3 -4 R 2 -4 R 1 -2 R 2 -3 R 1 -2 R 1 -2 R 1 -1 R 1 -2 R
1 -1 R 0 -1 R 1 -1 R 1 -1 R 0 -1 R 1 -1 R 0 -1 R 1 -1 R 1 -1 R 0 -1 R 1 -1 R
0 -1 R 1 0 R 0 -1 R 1 -1 R 0 -1 R 1 0 R 0 -1 R 0 -1 R 1 0 R 0 -1 R 1 0 R
0 -1 R 1 -1 R 0 -1 R 1 0 R 0 -1 R 0 -1 R 1 0 R 0 -1 R 1 -1 R 0 -1 R 1 -1 R
1 -1 R 0 -1 R 1 -1 R 1 -1 R 0 -1 R 1 -2 R 1 -1 R 1 -2 R 1 -2 R 2 -2 R 1 -3 R
2 -2 R 2 -4 R 2 -4 R 3 -5 R 3 -6 R 3 -7 R 4 -9 R 5 -12 R 5 -17 R 6 -22 R
5 -30 R 4 -38 R 3 -41 R 2 -33 R 2 -28 R 2 -22 R 3 -19 R 3 -16 R 5 -13 R
4 -12 R 4 -9 R 4 -7 R 4 -5 R 3 -5 R 2 -3 R 2 -3 R 2 -2 R 1 -2 R 1 -2 R
2 -1 R 0 -2 R 1 -1 R 1 -1 R 1 -1 R 1 -1 R 0 -1 R 1 0 R 0 -1 R 1 0 R 0 -1 R
1 0 R 0 -1 R 1 -1 R 0 -1 R 1 0 R 0 -1 R 1 0 R 0 -1 R 1 -1 R 1 -1 R 0 -1 R
1 0 R 0 -1 R 1 0 R 0 -1 R 1 0 R 0 -1 R 1 -1 R 1 -1 R 0 -1 R 1 0 R 0 -1 R
1 -1 R 1 -1 R 1 -1 R 0 -1 R 1 -2 R 2 -1 R 1 -2 R 1 -2 R 2 -2 R 2 -3 R 2 -3 R
3 -5 R 3 -5 R 4 -7 R 5 -10 R 5 -13 R 4 -19 R 5 -27 R 3 -32 R 2 -30 R 2 -23 R
2 -18 R 2 -15 R 4 -12 R 3 -10 R 5 -8 R 4 -6 R 4 -5 R 3 -4 R 3 -3 R 2 -2 R
2 -2 R 1 -2 R 1 -1 R 2 -1 R 1 -1 R 1 -1 R 1 -1 R 1 -1 R 1 -1 R 1 0 R 0 -1 R
1 0 R 0 -1 R 1 0 R 0 -1 R 1 0 R 0 -1 R 1 0 R 1 -1 R 1 -1 R 1 0 R 0 -1 R
1 0 R 0 -1 R 1 0 R 0 -1 R 1 0 R 0 -1 R 1 0 R 0 -1 R 1 0 R 1 -1 R 1 -1 R
1 -1 R D 16049 18881 M 1 -1 R 2 -1 R 1 -2 R 2 -2 R 2 -2 R 2 -2 R 3 -4 R
3 -4 R 4 -6 R 5 -8 R 4 -12 R 5 -17 R 3 -22 R 2 -22 R 1 -15 R 2 -13 R 3 -9 R
3 -8 R 3 -7 R 4 -5 R 5 -4 R 3 -3 R 3 -2 R 3 -2 R 2 -1 R 1 -1 R 2 -1 R 1 -1 R
1 0 R 1 -1 R 1 0 R 0 -1 R 1 0 R 1 0 R 0 -1 R 1 0 R 1 0 R 0 -1 R 1 0 R 1 0 R
0 -1 R 1 0 R 0 -1 R 1 0 R 1 0 R 0 -1 R 1 0 R 1 0 R 0 -1 R 1 0 R 1 -1 R 1 0 R
1 -1 R 1 0 R 1 -1 R 1 0 R 1 -1 R 1 -1 R 1 -1 R 2 -1 R 2 -1 R 2 -2 R 3 -2 R
3 -2 R D 3120 12852 M 5757 0 R D 3120 12852 M 0 229 R D 4737 12852 M 0 229 R
D 6354 12852 M 0 229 R D 7971 12852 M 0 229 R D 3524 12852 M 0 115 R D
3929 12852 M 0 115 R D 4333 12852 M 0 115 R D 5141 12852 M 0 115 R D
5546 12852 M 0 115 R D 5950 12852 M 0 115 R D 6758 12852 M 0 115 R D
7163 12852 M 0 115 R D 7567 12852 M 0 115 R D 8375 12852 M 0 115 R D
8780 12852 M 0 115 R D 3120 18574 M 5757 0 R D 3120 18574 M 0 -229 R D
4737 18574 M 0 -229 R D 6354 18574 M 0 -229 R D 7971 18574 M 0 -229 R D
3524 18574 M 0 -114 R D 3929 18574 M 0 -114 R D 4333 18574 M 0 -114 R D
5141 18574 M 0 -114 R D 5546 18574 M 0 -114 R D 5950 18574 M 0 -114 R D
6758 18574 M 0 -114 R D 7163 18574 M 0 -114 R D 7567 18574 M 0 -114 R D
8375 18574 M 0 -114 R D 8780 18574 M 0 -114 R D 3120 12852 M 0 5722 R D
3120 13048 M 230 0 R D 1287 13012 M 210 0 R D 1591 13094 M 0 12 R 12 23 R
11 12 R 24 11 R 46 0 R 24 -11 R 11 -12 R 12 -23 R 0 -24 R -12 -23 R
-23 -35 R -117 -117 R 164 0 R D 1836 12930 M -11 -11 R 11 -12 R 12 12 R
-12 11 R D 2000 13152 M -35 -11 R -24 -35 R -11 -59 R 0 -35 R 11 -58 R
24 -35 R 35 -12 R 23 0 R 35 12 R 24 35 R 11 58 R 0 35 R -11 59 R -24 35 R
-35 11 R -23 0 R D 2187 13106 M 163 -164 R D 2350 13106 M -163 -164 R D
2455 13106 M 24 11 R 35 35 R 0 -245 R D 2724 13152 M -35 -11 R -23 -35 R
-12 -59 R 0 -35 R 12 -58 R 23 -35 R 35 -12 R 24 0 R 35 12 R 23 35 R 12 58 R
0 35 R -12 59 R -23 35 R -35 11 R -24 0 R D 2966 13236 M -73 0 R -7 -65 R
7 8 R 22 7 R 22 0 R 21 -7 R 15 -15 R 7 -22 R 0 -14 R -7 -22 R -15 -14 R
-21 -8 R -22 0 R -22 8 R -7 7 R -7 14 R D 3120 14511 M 230 0 R D
1287 14476 M 210 0 R D 1614 14569 M 24 12 R 35 35 R 0 -245 R D 1836 14394 M
-11 -12 R 11 -11 R 12 11 R -12 12 R D 2070 14616 M -117 0 R -12 -105 R
12 11 R 35 12 R 35 0 R 35 -12 R 24 -23 R 11 -35 R 0 -23 R -11 -35 R
-24 -24 R -35 -11 R -35 0 R -35 11 R -12 12 R -11 23 R D 2187 14569 M
163 -163 R D 2350 14569 M -163 -163 R D 2455 14569 M 24 12 R 35 35 R
0 -245 R D 2724 14616 M -35 -12 R -23 -35 R -12 -58 R 0 -35 R 12 -59 R
23 -35 R 35 -11 R 24 0 R 35 11 R 23 35 R 12 59 R 0 35 R -12 58 R -23 35 R
-35 12 R -24 0 R D 2966 14700 M -73 0 R -7 -65 R 7 7 R 22 7 R 22 0 R 21 -7 R
15 -14 R 7 -22 R 0 -14 R -7 -22 R -15 -15 R -21 -7 R -22 0 R -22 7 R -7 8 R
-7 14 R D 3120 15975 M 230 0 R D 1287 15939 M 210 0 R D 1614 16033 M 24 12 R
35 35 R 0 -246 R D 1836 15858 M -11 -12 R 11 -12 R 12 12 R -12 12 R D
2000 16080 M -35 -12 R -24 -35 R -11 -59 R 0 -35 R 11 -58 R 24 -35 R
35 -12 R 23 0 R 35 12 R 24 35 R 11 58 R 0 35 R -11 59 R -24 35 R -35 12 R
-23 0 R D 2187 16033 M 163 -164 R D 2350 16033 M -163 -164 R D 2455 16033 M
24 12 R 35 35 R 0 -246 R D 2724 16080 M -35 -12 R -23 -35 R -12 -59 R
0 -35 R 12 -58 R 23 -35 R 35 -12 R 24 0 R 35 12 R 23 35 R 12 58 R 0 35 R
-12 59 R -23 35 R -35 12 R -24 0 R D 2966 16164 M -73 0 R -7 -65 R 7 7 R
22 7 R 22 0 R 21 -7 R 15 -15 R 7 -21 R 0 -15 R -7 -21 R -15 -15 R -21 -7 R
-22 0 R -22 7 R -7 7 R -7 15 R D 3120 17439 M 230 0 R D 1287 17403 M 210 0 R
D 1719 17543 M -116 0 R -12 -105 R 12 12 R 35 12 R 35 0 R 35 -12 R 23 -24 R
12 -35 R 0 -23 R -12 -35 R -23 -23 R -35 -12 R -35 0 R -35 12 R -12 11 R
-12 24 R D 1836 17321 M -11 -11 R 11 -12 R 12 12 R -12 11 R D 2000 17543 M
-35 -11 R -24 -35 R -11 -59 R 0 -35 R 11 -58 R 24 -35 R 35 -12 R 23 0 R
35 12 R 24 35 R 11 58 R 0 35 R -11 59 R -24 35 R -35 11 R -23 0 R D
2187 17497 M 163 -164 R D 2350 17497 M -163 -164 R D 2455 17497 M 24 11 R
35 35 R 0 -245 R D 2724 17543 M -35 -11 R -23 -35 R -12 -59 R 0 -35 R
12 -58 R 23 -35 R 35 -12 R 24 0 R 35 12 R 23 35 R 12 58 R 0 35 R -12 59 R
-23 35 R -35 11 R -24 0 R D 2951 17627 M -72 -101 R 108 0 R D 2951 17627 M
0 -151 R D 3120 13340 M 115 0 R D 3120 13633 M 115 0 R D 3120 13926 M
115 0 R D 3120 14219 M 115 0 R D 3120 14804 M 115 0 R D 3120 15097 M 115 0 R
D 3120 15390 M 115 0 R D 3120 15682 M 115 0 R D 3120 16268 M 115 0 R D
3120 16561 M 115 0 R D 3120 16853 M 115 0 R D 3120 17146 M 115 0 R D
3120 17731 M 115 0 R D 3120 18024 M 115 0 R D 3120 18317 M 115 0 R D
826 15135 M 0 140 R -24 0 R -23 -12 R -12 -11 R -12 -24 R 0 -35 R 12 -23 R
23 -24 R 36 -11 R 23 0 R 35 11 R 23 24 R 12 23 R 0 35 R -12 24 R -23 23 R D
755 15357 M 164 0 R D 802 15357 M -35 35 R -12 23 R 0 35 R 12 24 R 35 11 R
117 0 R D 826 15567 M 0 140 R -24 0 R -23 -11 R -12 -12 R -12 -23 R 0 -36 R
12 -23 R 23 -23 R 36 -12 R 23 0 R 35 12 R 23 23 R 12 23 R 0 36 R -12 23 R
-23 23 R D 755 15789 M 164 0 R D 826 15789 M -36 12 R -23 23 R -12 23 R
0 36 R D 755 16069 M 199 0 R 35 -11 R 12 -12 R 11 -23 R 0 -35 R -11 -24 R D
790 16069 M -23 -23 R -12 -23 R 0 -35 R 12 -24 R 23 -23 R 36 -12 R 23 0 R
35 12 R 23 23 R 12 24 R 0 35 R -12 23 R -23 23 R D 755 16140 M 164 70 R
-164 70 R D 919 16210 M 58 -24 R 24 -23 R 11 -23 R 0 -12 R D 8877 12852 M
0 5722 R D 8877 13048 M -230 0 R D 8877 14511 M -230 0 R D 8877 15975 M
-230 0 R D 8877 17439 M -230 0 R D 8877 13340 M -115 0 R D 8877 13633 M
-115 0 R D 8877 13926 M -115 0 R D 8877 14219 M -115 0 R D 8877 14804 M
-115 0 R D 8877 15097 M -115 0 R D 8877 15390 M -115 0 R D 8877 15682 M
-115 0 R D 8877 16268 M -115 0 R D 8877 16561 M -115 0 R D 8877 16853 M
-115 0 R D 8877 17146 M -115 0 R D 8877 17731 M -115 0 R D 8877 18024 M
-115 0 R D 8877 18317 M -115 0 R D 3120 18574 M 92 -5 R 88 -7 R 83 -8 R
77 -10 R 70 -11 R 62 -13 R 53 -15 R 47 -18 R 40 -19 R 34 -21 R 29 -23 R
25 -25 R 23 -26 R 20 -26 R 18 -27 R 16 -28 R 16 -27 R 15 -26 R 14 -26 R
15 -25 R 14 -24 R 15 -22 R 15 -22 R 16 -20 R 16 -19 R 18 -17 R 18 -17 R
20 -15 R 22 -13 R 22 -13 R 25 -12 R 25 -10 R 27 -10 R 29 -8 R 29 -8 R
31 -6 R 31 -6 R 31 -6 R 32 -4 R 31 -4 R 31 -4 R 30 -3 R 29 -2 R 28 -3 R
28 -2 R 26 -1 R 25 -2 R 25 -1 R 23 -2 R 22 -1 R 21 -1 R 21 0 R 19 -1 R
19 -1 R 18 0 R 18 -1 R 17 -1 R 16 0 R 16 0 R 15 -1 R 15 0 R 14 -1 R 15 0 R
14 0 R 13 -1 R 14 0 R 13 0 R 14 -1 R 13 0 R 13 0 R 13 -1 R 13 0 R 13 0 R
13 0 R 13 -1 R 13 0 R 14 0 R 14 -1 R 14 0 R 14 0 R 14 -1 R 15 0 R 16 -1 R
16 0 R 16 0 R 17 -1 R 18 -1 R 18 0 R 19 -1 R 20 -1 R 21 -1 R 22 -1 R 24 -1 R
24 -1 R 26 -2 R 27 -2 R 29 -2 R 31 -2 R 32 -3 R 33 -4 R 35 -4 R 36 -6 R
36 -6 R 37 -8 R 37 -10 R 36 -11 R 34 -14 R 32 -16 R 30 -20 R 26 -23 R
24 -26 R 20 -29 R 18 -33 R 15 -35 R 14 -37 R 12 -38 R 11 -39 R 10 -38 R
9 -38 R 9 -36 R 8 -35 R 9 -34 R 8 -31 R 9 -29 R 10 -27 R 9 -25 R 11 -23 R
11 -20 R 11 -19 R 13 -18 R 12 -15 R 14 -14 R 14 -12 R 15 -11 R 15 -9 R
15 -8 R 15 -8 R 14 -6 R 15 -5 R 14 -4 R 14 -4 R 14 -4 R 12 -3 R 13 -2 R
11 -2 R 11 -2 R 11 -2 R 10 -1 R 10 -1 R 9 -1 R 8 -1 R 9 -1 R 8 -1 R 7 -1 R
8 0 R 7 -1 R 7 -1 R 6 0 R 7 -1 R 6 0 R 6 0 R 6 -1 R 6 0 R 6 -1 R 6 0 R 5 0 R
6 -1 R 5 0 R 6 0 R 5 -1 R 6 0 R 5 0 R 6 -1 R 6 0 R 5 0 R 6 -1 R 6 0 R 6 -1 R
6 0 R 6 0 R 7 -1 R 6 0 R 7 -1 R 8 -1 R 7 0 R 8 -1 R 8 -1 R 9 -1 R 9 -1 R
9 -1 R 10 -1 R 11 -2 R 11 -2 R 12 -2 R 13 -2 R 14 -3 R 14 -4 R 16 -5 R
16 -5 R 17 -7 R 18 -9 R 18 -10 R 19 -14 R 18 -16 R 18 -20 R 17 -25 R
15 -30 R 14 -35 R 12 -41 R 11 -45 R 9 -48 R 8 -50 R 7 -51 R 7 -50 R 6 -47 R
5 -45 R 6 -42 R 6 -39 R 5 -35 R 7 -32 R 6 -28 R 7 -26 R 7 -23 R 8 -20 R
8 -17 R 9 -16 R 9 -13 R 9 -11 R 9 -9 R 8 -8 R 9 -7 R 8 -5 R 8 -4 R 8 -4 R
7 -3 R 7 -3 R 6 -2 R 6 -2 R 6 -1 R 5 -2 R 5 -1 R 5 -1 R 5 -1 R 4 -1 R 4 0 R
4 -1 R 3 0 R 4 -1 R 3 0 R 3 -1 R 3 0 R 3 0 R 3 -1 R 3 0 R 3 0 R 3 -1 R 2 0 R
3 0 R 2 0 R 3 -1 R 3 0 R 2 0 R 3 0 R 2 -1 R 3 0 R 2 0 R 3 0 R 3 -1 R 2 0 R
3 0 R 3 0 R 3 -1 R 3 0 R 3 0 R 3 -1 R 3 0 R 4 -1 R 3 0 R 4 -1 R 4 0 R 4 -1 R
5 -1 R 4 -1 R 5 -1 R 6 -1 R 6 -2 R 6 -2 R 7 -2 R 7 -3 R 8 -4 R 9 -4 R 9 -6 R
10 -7 R 11 -10 R 11 -12 R 11 -17 R 12 -21 R 11 -27 R 10 -34 R 10 -43 R
8 -49 R 7 -56 R 6 -59 R 5 -58 R 5 -56 R 4 -51 R 4 -46 R 4 -41 R 4 -37 R
5 -32 R 5 -28 R 5 -24 R 6 -20 R 6 -17 R 7 -14 R 6 -11 R 6 -9 R 7 -8 R 6 -5 R
6 -5 R 5 -4 R 5 -2 R 5 -3 R 4 -1 R 4 -2 R 3 -1 R 4 -1 R 3 -1 R 3 0 R 2 -1 R
3 0 R 2 -1 R 2 0 R 2 0 R 2 -1 R 2 0 R 2 0 R 2 0 R 1 -1 R 2 0 R 1 0 R 2 0 R
1 0 R 2 0 R 1 -1 R 2 0 R 1 0 R 1 0 R 2 0 R 1 0 R 1 0 R 1 0 R 2 -1 R 1 0 R
1 0 R 2 0 R 1 0 R 2 0 R 1 0 R 2 0 R 1 -1 R 2 0 R 1 0 R 2 0 R 2 0 R 2 -1 R
2 0 R 2 0 R 2 -1 R 2 0 R 3 -1 R 3 0 R 3 -1 R 3 -1 R 3 -1 R 4 -1 R 5 -2 R
4 -2 R 5 -2 R 6 -4 R 6 -5 R 7 -6 R 8 -9 R 8 -12 R 8 -17 R 9 -23 R 8 -32 R
7 -41 R 6 -51 R 5 -56 R 5 -57 R 3 -53 R 3 -46 R 3 -40 R 4 -35 R 4 -28 R
4 -25 R 4 -20 R 5 -16 R 6 -13 R 5 -10 R 5 -7 R 6 -6 R 5 -4 R 4 -3 R 4 -2 R
4 -2 R 3 -1 R 3 -1 R 3 0 R 3 -1 R 2 0 R 2 -1 R 2 0 R 1 0 R 2 -1 R 1 0 R
2 0 R 1 0 R 1 0 R 1 0 R 1 0 R 1 -1 R 1 0 R 1 0 R 1 0 R 1 0 R 1 0 R 1 0 R
1 0 R 1 0 R 1 0 R 1 0 R 1 0 R 1 0 R 1 0 R 1 0 R 1 -1 R 1 0 R 1 0 R 1 0 R
1 0 R 1 0 R 1 0 R 1 0 R 1 0 R 2 0 R 1 0 R 1 -1 R 1 0 R 2 0 R 1 0 R 2 0 R
2 -1 R 2 0 R 2 0 R 2 -1 R 3 -1 R 3 -1 R 3 -1 R 4 -2 R 4 -2 R 5 -3 R 6 -5 R
6 -7 R 6 -10 R 7 -16 R 7 -23 R 7 -33 R 5 -44 R 4 -51 R 4 -51 R 2 -44 R
3 -36 R 3 -29 R 3 -24 R 4 -20 R 4 -15 R 4 -12 R 5 -8 R 5 -6 R 5 -5 R 4 -3 R
4 -2 R 4 -1 R 3 -1 R 3 -1 R 2 0 R 2 0 R 2 -1 R 1 0 R 2 0 R 1 0 R 1 0 R 1 0 R
1 -1 R 1 0 R 1 0 R 1 0 R 1 0 R 1 0 R 1 0 R 1 0 R 1 0 R 1 0 R 1 0 R 1 0 R
1 0 R 1 0 R 1 0 R 1 0 R 1 0 R 1 0 R 1 0 R 1 0 R 1 0 R 0 -1 R 1 0 R 1 0 R
1 0 R 1 0 R 1 0 R 1 0 R 2 0 R 1 0 R 1 0 R 2 -1 R 2 0 R 2 0 R 2 -1 R 3 -1 R
3 -1 R 3 -1 R 4 -2 R 5 -3 R 5 -5 R 5 -8 R 6 -13 R 6 -21 R 6 -31 R 4 -41 R
3 -42 R 2 -36 R 3 -27 R 2 -22 R 3 -17 R 4 -13 R 4 -10 R 4 -6 R 5 -5 R 4 -3 R
4 -2 R 4 -1 R 3 -1 R 2 -1 R 3 0 R 2 0 R 1 0 R 2 -1 R 1 0 R 1 0 R 1 0 R 1 0 R
1 0 R 1 0 R 1 0 R 1 0 R 1 0 R 1 0 R 1 0 R 1 0 R 1 0 R 1 0 R 1 0 R 1 0 R
1 0 R 1 0 R 1 0 R 1 0 R 1 0 R 1 0 R 1 0 R 1 0 R 1 -1 R 1 0 R 1 0 R 1 0 R
2 0 R 1 0 R 2 0 R 2 -1 R 2 0 R 3 -1 R 3 -1 R 3 -1 R 4 -2 R 5 -4 R 5 -7 R
6 -11 R 5 -20 R 4 -28 R 3 -32 R 2 -26 R 2 -20 R 2 -14 R 3 -11 R 3 -9 R
5 -5 R 4 -4 R 4 -3 R 4 -1 R 4 -1 R 3 -1 R 2 0 R 2 0 R 2 0 R 1 0 R 1 0 R
2 0 R 1 -1 R 1 0 R 1 0 R 1 0 R 1 0 R 1 0 R 1 0 R 1 0 R 1 0 R 1 0 R 1 0 R
1 0 R 1 0 R 1 0 R 1 0 R 1 0 R 1 0 R 1 0 R 1 0 R 1 0 R 1 0 R 1 0 R 2 0 R
1 0 R 1 0 R 2 0 R 2 -1 R 2 0 R 3 -1 R 3 -1 R 4 -1 R 5 -3 R 5 -5 R 4 -8 R
5 -16 R 3 -20 R 2 -20 R 2 -14 R 2 -10 R 2 -8 R 4 -6 R 3 -4 R 5 -2 R 4 -2 R
4 -1 R 3 0 R 3 0 R 2 -1 R 2 0 R 1 0 R 1 0 R 2 0 R 1 0 R 1 0 R 1 0 R 1 0 R
1 0 R 1 0 R 1 0 R 1 0 R 1 0 R 1 0 R 1 0 R 1 0 R 1 0 R 1 0 R 1 0 R 1 0 R
1 0 R 1 0 R 1 0 R 1 0 R 1 0 R 1 0 R 2 0 R 1 0 R 2 0 R 2 -1 R 2 0 R 3 0 R
3 -1 R 4 -1 R 5 -3 R 4 -4 R 5 -9 R 3 -12 R 2 -12 R 1 -9 R 2 -6 R 3 -5 R
3 -3 R 3 -2 R 4 -2 R 5 -1 R 3 0 R 3 0 R 3 0 R 2 0 R 1 -1 R 2 0 R 1 0 R 1 0 R
1 0 R 1 0 R 1 0 R 1 0 R 1 0 R 1 0 R 1 0 R 1 0 R 1 0 R 1 0 R 1 0 R 1 0 R
1 0 R 1 0 R 1 0 R 1 0 R 1 0 R 1 0 R 1 0 R 1 0 R 1 0 R 1 0 R 1 0 R 2 0 R
2 0 R 2 0 R 3 0 R 3 -1 R D 10677 12852 M 5757 0 R D 10677 12852 M 0 229 R D
12294 12852 M 0 229 R D 13911 12852 M 0 229 R D 15528 12852 M 0 229 R D
11081 12852 M 0 115 R D 11486 12852 M 0 115 R D 11890 12852 M 0 115 R D
12698 12852 M 0 115 R D 13103 12852 M 0 115 R D 13507 12852 M 0 115 R D
14315 12852 M 0 115 R D 14720 12852 M 0 115 R D 15124 12852 M 0 115 R D
15932 12852 M 0 115 R D 16337 12852 M 0 115 R D 10677 18574 M 5757 0 R D
10677 18574 M 0 -229 R D 12294 18574 M 0 -229 R D 13911 18574 M 0 -229 R D
15528 18574 M 0 -229 R D 11081 18574 M 0 -114 R D 11486 18574 M 0 -114 R D
11890 18574 M 0 -114 R D 12698 18574 M 0 -114 R D 13103 18574 M 0 -114 R D
13507 18574 M 0 -114 R D 14315 18574 M 0 -114 R D 14720 18574 M 0 -114 R D
15124 18574 M 0 -114 R D 15932 18574 M 0 -114 R D 16337 18574 M 0 -114 R D
10677 12852 M 0 5722 R D 10677 13510 M 230 0 R D 10262 13615 M -117 0 R
-11 -105 R 11 11 R 36 12 R 35 0 R 35 -12 R 23 -23 R 12 -35 R 0 -24 R
-12 -35 R -23 -23 R -35 -12 R -35 0 R -36 12 R -11 12 R -12 23 R D
10426 13615 M -35 -12 R -24 -35 R -11 -58 R 0 -36 R 11 -58 R 24 -35 R
35 -12 R 23 0 R 35 12 R 24 35 R 11 58 R 0 36 R -11 58 R -24 35 R -35 12 R
-23 0 R D 10677 14470 M 230 0 R D 9923 14528 M 24 12 R 35 35 R 0 -246 R D
10192 14575 M -35 -12 R -23 -35 R -12 -58 R 0 -35 R 12 -59 R 23 -35 R
35 -12 R 24 0 R 35 12 R 23 35 R 12 59 R 0 35 R -12 58 R -23 35 R -35 12 R
-24 0 R D 10426 14575 M -35 -12 R -24 -35 R -11 -58 R 0 -35 R 11 -59 R
24 -35 R 35 -12 R 23 0 R 35 12 R 24 35 R 11 59 R 0 35 R -11 58 R -24 35 R
-35 12 R -23 0 R D 10677 15430 M 230 0 R D 9923 15488 M 24 12 R 35 35 R
0 -245 R D 10262 15535 M -117 0 R -11 -105 R 11 12 R 36 11 R 35 0 R 35 -11 R
23 -24 R 12 -35 R 0 -23 R -12 -35 R -23 -24 R -35 -11 R -35 0 R -36 11 R
-11 12 R -12 23 R D 10426 15535 M -35 -12 R -24 -35 R -11 -58 R 0 -35 R
11 -59 R 24 -35 R 35 -11 R 23 0 R 35 11 R 24 35 R 11 59 R 0 35 R -11 58 R
-24 35 R -35 12 R -23 0 R D 10677 16391 M 230 0 R D 9900 16437 M 0 11 R
12 24 R 11 11 R 24 12 R 47 0 R 23 -12 R 12 -11 R 11 -24 R 0 -23 R -11 -23 R
-24 -35 R -117 -117 R 164 0 R D 10192 16495 M -35 -12 R -23 -35 R -12 -58 R
0 -35 R 12 -58 R 23 -36 R 35 -11 R 24 0 R 35 11 R 23 36 R 12 58 R 0 35 R
-12 58 R -23 35 R -35 12 R -24 0 R D 10426 16495 M -35 -12 R -24 -35 R
-11 -58 R 0 -35 R 11 -58 R 24 -36 R 35 -11 R 23 0 R 35 11 R 24 36 R 11 58 R
0 35 R -11 58 R -24 35 R -35 12 R -23 0 R D 10677 17351 M 230 0 R D
9900 17397 M 0 12 R 12 23 R 11 12 R 24 11 R 47 0 R 23 -11 R 12 -12 R
11 -23 R 0 -24 R -11 -23 R -24 -35 R -117 -117 R 164 0 R D 10262 17455 M
-117 0 R -11 -105 R 11 12 R 36 12 R 35 0 R 35 -12 R 23 -24 R 12 -35 R
0 -23 R -12 -35 R -23 -23 R -35 -12 R -35 0 R -36 12 R -11 11 R -12 24 R D
10426 17455 M -35 -11 R -24 -35 R -11 -59 R 0 -35 R 11 -58 R 24 -35 R
35 -12 R 23 0 R 35 12 R 24 35 R 11 58 R 0 35 R -11 59 R -24 35 R -35 11 R
-23 0 R D 10677 18311 M 230 0 R D 9912 18416 M 128 0 R -70 -94 R 35 0 R
24 -12 R 11 -11 R 12 -35 R 0 -24 R -12 -35 R -23 -23 R -35 -12 R -35 0 R
-35 12 R -12 12 R -12 23 R D 10192 18416 M -35 -12 R -23 -35 R -12 -59 R
0 -35 R 12 -58 R 23 -35 R 35 -12 R 24 0 R 35 12 R 23 35 R 12 58 R 0 35 R
-12 59 R -23 35 R -35 12 R -24 0 R D 10426 18416 M -35 -12 R -24 -35 R
-11 -59 R 0 -35 R 11 -58 R 24 -35 R 35 -12 R 23 0 R 35 12 R 24 35 R 11 58 R
0 35 R -11 59 R -24 35 R -35 12 R -23 0 R D 10677 12934 M 115 0 R D
10677 13126 M 115 0 R D 10677 13318 M 115 0 R D 10677 13702 M 115 0 R D
10677 13894 M 115 0 R D 10677 14086 M 115 0 R D 10677 14278 M 115 0 R D
10677 14662 M 115 0 R D 10677 14854 M 115 0 R D 10677 15046 M 115 0 R D
10677 15238 M 115 0 R D 10677 15622 M 115 0 R D 10677 15815 M 115 0 R D
10677 16007 M 115 0 R D 10677 16199 M 115 0 R D 10677 16583 M 115 0 R D
10677 16775 M 115 0 R D 10677 16967 M 115 0 R D 10677 17159 M 115 0 R D
10677 17543 M 115 0 R D 10677 17735 M 115 0 R D 10677 17927 M 115 0 R D
10677 18119 M 115 0 R D 10677 18503 M 115 0 R D 9368 14369 M 164 71 R
-164 70 R D 9240 14662 M 23 -24 R 35 -23 R 47 -24 R 59 -11 R 46 0 R 59 11 R
58 24 R 35 23 R 24 24 R D 9287 14755 M 198 0 R 35 12 R 12 23 R 0 23 R D
9368 14720 M 0 82 R D 9240 14872 M 23 23 R 35 24 R 47 23 R 59 12 R 46 0 R
59 -12 R 58 -23 R 35 -24 R 24 -23 R D 9240 15234 M 386 -210 R D 9240 15386 M
23 -23 R 35 -24 R 47 -23 R 59 -12 R 46 0 R 59 12 R 58 23 R 35 24 R 24 23 R D
9287 15468 M 245 0 R D 9368 15585 M 117 -117 R D 9439 15514 M 93 82 R D
9368 15666 M 258 0 R D 9404 15666 M -24 24 R -12 23 R 0 35 R 12 24 R 24 23 R
35 12 R 23 0 R 35 -12 R 23 -23 R 12 -24 R 0 -35 R -12 -23 R -23 -24 R D
9404 16017 M -24 -23 R -12 -24 R 0 -35 R 12 -23 R 24 -24 R 35 -11 R 23 0 R
35 11 R 23 24 R 12 23 R 0 35 R -12 24 R -23 23 R D 9240 16286 M 386 -211 R D
9345 16519 M -23 -11 R -24 -24 R -11 -23 R 0 -47 R 11 -23 R 24 -24 R
23 -11 R 35 -12 R 59 0 R 35 12 R 23 11 R 23 24 R 12 23 R 0 47 R -12 23 R
-23 24 R -23 11 R -35 0 R 0 -58 R D 9368 16578 M 164 70 R -164 70 R D
9532 16648 M 58 -24 R 24 -23 R 12 -23 R 0 -12 R D 9368 16788 M 164 0 R D
9439 16788 M -35 12 R -24 23 R -12 23 R 0 36 R D 9240 16928 M 23 24 R
35 23 R 47 23 R 59 12 R 46 0 R 59 -12 R 58 -23 R 35 -23 R 24 -24 R D
16434 12852 M 0 5722 R D 16434 13510 M -230 0 R D 16434 14470 M -230 0 R D
16434 15430 M -230 0 R D 16434 16391 M -230 0 R D 16434 17351 M -230 0 R D
16434 18311 M -230 0 R D 16434 12934 M -115 0 R D 16434 13126 M -115 0 R D
16434 13318 M -115 0 R D 16434 13702 M -115 0 R D 16434 13894 M -115 0 R D
16434 14086 M -115 0 R D 16434 14278 M -115 0 R D 16434 14662 M -115 0 R D
16434 14854 M -115 0 R D 16434 15046 M -115 0 R D 16434 15238 M -115 0 R D
16434 15622 M -115 0 R D 16434 15815 M -115 0 R D 16434 16007 M -115 0 R D
16434 16199 M -115 0 R D 16434 16583 M -115 0 R D 16434 16775 M -115 0 R D
16434 16967 M -115 0 R D 16434 17159 M -115 0 R D 16434 17543 M -115 0 R D
16434 17735 M -115 0 R D 16434 17927 M -115 0 R D 16434 18119 M -115 0 R D
16434 18503 M -115 0 R D 10677 15426 M 92 217 R 88 235 R 83 250 R 77 262 R
70 270 R 62 272 R 53 266 R 47 254 R 40 237 R 34 212 R 29 185 R 25 154 R
23 122 R 20 89 R 18 57 R 16 26 R 16 -2 R 15 -28 R 14 -52 R 15 -73 R 14 -92 R
15 -108 R 15 -122 R 16 -136 R 16 -146 R 18 -157 R 18 -166 R 20 -173 R
22 -178 R 22 -182 R 25 -185 R 25 -186 R 27 -185 R 29 -182 R 29 -179 R
31 -172 R 31 -166 R 31 -159 R 32 -150 R 31 -141 R 31 -132 R 30 -123 R
29 -115 R 28 -105 R 28 -98 R 26 -90 R 25 -82 R 25 -76 R 23 -69 R 22 -64 R
21 -58 R 21 -53 R 19 -48 R 19 -44 R 18 -41 R 18 -36 R 17 -33 R 16 -31 R
16 -27 R 15 -24 R 15 -22 R 14 -19 R 15 -17 R 14 -15 R 13 -13 R 14 -11 R
13 -9 R 14 -6 R 13 -5 R 13 -4 R 13 -1 R 13 1 R 13 2 R 13 4 R 13 6 R 13 8 R
14 10 R 14 12 R 14 15 R 14 16 R 14 19 R 15 21 R 16 25 R 16 27 R 16 30 R
17 34 R 18 38 R 18 41 R 19 46 R 20 52 R 21 56 R 22 63 R 24 70 R 24 77 R
26 86 R 27 95 R 29 106 R 31 118 R 32 131 R 33 146 R 35 161 R 36 180 R
36 197 R 37 217 R 37 235 R 36 252 R 34 266 R 32 276 R 30 278 R 26 273 R
24 260 R 20 236 R 18 207 R 15 170 R 14 129 R 12 87 R 11 46 R 10 6 R 9 -29 R
9 -59 R 8 -86 R 9 -108 R 8 -127 R 9 -142 R 10 -155 R 9 -167 R 11 -176 R
11 -185 R 11 -191 R 13 -195 R 12 -198 R 14 -198 R 14 -196 R 15 -192 R
15 -187 R 15 -180 R 15 -171 R 14 -161 R 15 -152 R 14 -142 R 14 -131 R
14 -122 R 12 -112 R 13 -103 R 11 -94 R 11 -86 R 11 -79 R 10 -73 R 10 -65 R
9 -61 R 8 -54 R 9 -50 R 8 -46 R 7 -41 R 8 -37 R 7 -34 R 7 -31 R 6 -27 R
7 -25 R 6 -22 R 6 -20 R 6 -17 R 6 -14 R 6 -13 R 6 -10 R 5 -9 R 6 -6 R 5 -5 R
6 -2 R 5 -1 R 6 2 R 5 3 R 6 5 R 6 7 R 5 10 R 6 11 R 6 14 R 6 16 R 6 19 R
6 21 R 7 24 R 6 27 R 7 31 R 8 34 R 7 37 R 8 42 R 8 47 R 9 52 R 9 58 R 9 64 R
10 71 R 11 79 R 11 88 R 12 98 R 13 110 R 14 123 R 14 137 R 16 153 R 16 171 R
17 190 R 18 211 R 18 232 R 19 254 R 18 271 R 18 285 R 17 292 R 15 287 R
14 271 R 12 239 R 11 196 R 9 143 R 8 84 R 7 27 R 7 -27 R 6 -70 R 5 -105 R
6 -130 R 6 -151 R 5 -166 R 7 -178 R 6 -190 R 7 -198 R 7 -206 R 8 -211 R
8 -213 R 9 -213 R 9 -209 R 9 -203 R 9 -195 R 8 -184 R 9 -173 R 8 -160 R
8 -148 R 8 -136 R 7 -124 R 7 -113 R 6 -102 R 6 -94 R 6 -84 R 5 -76 R 5 -69 R
5 -63 R 5 -57 R 4 -51 R 4 -47 R 4 -42 R 3 -38 R 4 -34 R 3 -31 R 3 -28 R
3 -25 R 3 -23 R 3 -19 R 3 -18 R 3 -15 R 3 -13 R 2 -11 R 3 -9 R 2 -7 R 3 -6 R
3 -3 R 2 -2 R 3 0 R 2 2 R 3 4 R 2 5 R 3 7 R 3 10 R 2 11 R 3 13 R 3 16 R
3 18 R 3 20 R 3 23 R 3 26 R 3 29 R 4 33 R 3 36 R 4 41 R 4 45 R 4 50 R 5 56 R
4 63 R 5 70 R 6 78 R 6 88 R 6 98 R 7 111 R 7 125 R 8 141 R 9 159 R 9 180 R
10 203 R 11 227 R 11 253 R 11 276 R 12 296 R 11 306 R 10 301 R 10 276 R
8 228 R 7 160 R 6 77 R 5 -5 R 5 -74 R 4 -122 R 4 -152 R 4 -170 R 4 -183 R
5 -195 R 5 -206 R 5 -216 R 6 -223 R 6 -228 R 7 -227 R 6 -222 R 6 -212 R
7 -200 R 6 -184 R 6 -169 R 5 -153 R 5 -138 R 5 -124 R 4 -110 R 4 -99 R
3 -88 R 4 -78 R 3 -70 R 3 -63 R 2 -56 R 3 -51 R 2 -45 R 2 -41 R 2 -36 R
2 -33 R 2 -30 R 2 -26 R 2 -24 R 1 -21 R 2 -19 R 1 -17 R 2 -14 R 1 -13 R
2 -11 R 1 -9 R 2 -7 R 1 -6 R 1 -5 R 2 -3 R 1 -1 R 1 0 R 1 1 R 2 3 R 1 5 R
1 6 R 2 8 R 1 9 R 2 11 R 1 13 R 2 14 R 1 17 R 2 19 R 1 22 R 2 24 R 2 27 R
2 30 R 2 34 R 2 37 R 2 42 R 2 47 R 3 52 R 3 59 R 3 66 R 3 75 R 3 84 R 4 95 R
5 109 R 4 124 R 5 141 R 6 162 R 6 186 R 7 212 R 8 241 R 8 271 R 8 297 R
9 312 R 8 311 R 7 278 R 6 210 R 5 110 R 5 -3 R 3 -94 R 3 -142 R 3 -165 R
4 -178 R 4 -191 R 4 -206 R 4 -222 R 5 -235 R 6 -241 R 5 -238 R 5 -229 R
6 -214 R 5 -194 R 4 -173 R 4 -153 R 4 -134 R 3 -117 R 3 -103 R 3 -89 R
3 -79 R 2 -69 R 2 -61 R 2 -54 R 1 -47 R 2 -43 R 1 -37 R 2 -34 R 1 -30 R
1 -27 R 1 -24 R 1 -21 R 1 -19 R 1 -17 R 1 -15 R 1 -13 R 1 -12 R 1 -10 R
1 -8 R 1 -8 R 0 -5 R 1 -5 R 1 -4 R 1 -2 R 0 -1 R 1 0 R 1 2 R 1 2 R 1 4 R
0 4 R 1 6 R 1 8 R 1 9 R 1 10 R 1 11 R 0 14 R 1 15 R 1 17 R 1 19 R 1 21 R
2 24 R 1 27 R 1 30 R 1 33 R 2 37 R 1 42 R 2 47 R 2 53 R 2 60 R 2 68 R 2 77 R
3 89 R 3 102 R 3 117 R 4 136 R 4 159 R 5 184 R 6 214 R 6 247 R 6 281 R
7 307 R 7 316 R 7 294 R 5 220 R 4 99 R 4 -42 R 2 -127 R 3 -155 R 3 -166 R
3 -181 R 4 -202 R 4 -225 R 4 -243 R 5 -250 R 5 -243 R 5 -226 R 4 -203 R
4 -176 R 4 -153 R 3 -130 R 3 -111 R 2 -94 R 2 -82 R 2 -70 R 1 -60 R 2 -53 R
1 -46 R 1 -41 R 1 -36 R 1 -31 R 1 -28 R 1 -25 R 1 -22 R 1 -20 R 0 -17 R
1 -16 R 1 -14 R 0 -12 R 1 -11 R 1 -9 R 0 -8 R 1 -7 R 0 -6 R 1 -5 R 0 -4 R
1 -3 R 0 -2 R 1 -1 R 1 1 R 0 2 R 1 3 R 0 4 R 1 4 R 0 6 R 1 7 R 0 7 R 1 10 R
1 10 R 0 12 R 1 13 R 1 15 R 0 16 R 1 19 R 1 20 R 1 24 R 0 25 R 1 29 R 1 33 R
1 37 R 2 41 R 1 47 R 1 53 R 2 61 R 2 69 R 2 81 R 2 93 R 3 109 R 3 127 R
3 151 R 4 178 R 5 210 R 5 245 R 5 281 R 6 307 R 6 308 R 6 257 R 4 142 R
3 -20 R 2 -120 R 3 -141 R 2 -154 R 3 -175 R 4 -206 R 4 -235 R 4 -252 R
5 -250 R 4 -233 R 4 -206 R 4 -175 R 3 -147 R 2 -122 R 3 -102 R 2 -86 R
1 -72 R 2 -62 R 1 -52 R 1 -46 R 1 -39 R 1 -35 R 1 -30 R 0 -26 R 1 -24 R
1 -21 R 0 -18 R 1 -16 R 0 -15 R 1 -13 R 0 -11 R 1 -10 R 0 -9 R 1 -8 R 0 -6 R
0 -6 R 1 -5 R 0 -4 R 1 -3 R 0 -2 R 0 -2 R 1 -1 R 0 1 R 1 2 R 0 2 R 1 3 R
0 4 R 0 4 R 1 6 R 0 6 R 1 7 R 0 9 R 0 9 R 1 11 R 0 12 R 1 13 R 0 15 R 1 17 R
1 19 R 0 21 R 1 23 R 1 27 R 0 29 R 1 34 R 1 38 R 1 43 R 1 50 R 2 56 R 1 66 R
2 77 R 2 89 R 2 106 R 3 125 R 3 150 R 3 179 R 4 213 R 5 251 R 5 285 R
6 301 R 5 273 R 4 176 R 3 15 R 2 -99 R 2 -121 R 2 -139 R 3 -169 R 3 -208 R
5 -241 R 4 -254 R 4 -244 R 4 -218 R 4 -184 R 3 -151 R 2 -124 R 2 -101 R
2 -84 R 1 -69 R 1 -59 R 2 -49 R 0 -42 R 1 -37 R 1 -31 R 1 -28 R 0 -24 R
1 -21 R 0 -19 R 1 -17 R 0 -14 R 1 -13 R 0 -12 R 1 -10 R 0 -9 R 0 -8 R 1 -7 R
0 -6 R 0 -5 R 1 -4 R 0 -4 R 0 -3 R 1 -2 R 0 -2 R 0 -1 R 1 1 R 0 1 R 0 1 R
1 3 R 0 3 R 0 3 R 0 5 R 1 5 R 0 6 R 0 6 R 1 8 R 0 9 R 1 10 R 0 11 R 0 12 R
1 14 R 0 15 R 1 17 R 0 19 R 1 22 R 0 24 R 1 27 R 1 31 R 1 35 R 0 40 R 1 46 R
2 53 R 1 62 R 1 72 R 2 85 R 2 101 R 2 122 R 3 145 R 3 176 R 4 211 R 5 248 R
5 279 R 4 285 R 5 234 R 3 118 R 2 -47 R 2 -89 R 2 -113 R 2 -147 R 4 -190 R
3 -230 R 5 -251 R 4 -245 R 4 -217 R 3 -182 R 3 -147 R 2 -119 R 2 -96 R
1 -78 R 1 -65 R 2 -54 R 1 -45 R 0 -39 R 1 -33 R 1 -29 R 0 -25 R 1 -22 R
0 -19 R 1 -17 R 0 -15 R 1 -13 R 0 -12 R 0 -10 R 1 -9 R 0 -8 R 0 -8 R D
16035 12904 M 1 -6 R 0 -5 R 0 -5 R 0 -4 R 1 -3 R 0 -3 R 0 -2 R 0 -1 R 1 -1 R
0 1 R 1 2 R 0 2 R 0 2 R 0 4 R 1 4 R 0 4 R 0 6 R 1 6 R 0 6 R 0 8 R 0 9 R
1 10 R 0 11 R 0 12 R 1 14 R 0 15 R 1 17 R 0 19 R 1 22 R 0 24 R 1 27 R 1 32 R
0 35 R 1 41 R 1 48 R 1 55 R 2 64 R 1 76 R 2 91 R 2 108 R 2 131 R 3 159 R
3 191 R 4 228 R 5 260 R 4 273 R 5 239 R 3 144 R 2 -13 R 1 -63 R 2 -97 R
3 -136 R 3 -184 R 3 -226 R 4 -247 R 5 -241 R 3 -210 R 3 -174 R 3 -140 R
2 -111 R 1 -90 R 2 -73 R 1 -60 R 1 -50 R 1 -42 R 1 -35 R 0 -31 R 1 -27 R
0 -23 R 1 -20 R 0 -17 R 1 -16 R 0 -14 R 1 -12 R 0 -11 R 0 -9 R 0 -9 R 1 -7 R
0 -6 R 0 -6 R 1 -5 R 0 -4 R 0 -4 R 0 -3 R 1 -2 R 0 -2 R 0 -1 R 0 -1 R 1 1 R
0 2 R 0 2 R 1 2 R 0 4 R 0 3 R 0 5 R 1 5 R 0 6 R 0 6 R 0 7 R 1 9 R 0 9 R
0 10 R 1 12 R 0 13 R 0 14 R 1 17 R 0 18 R 1 20 R 0 23 R 1 26 R 0 30 R 1 34 R
1 39 R 1 45 R 1 52 R 1 62 R 1 72 R 2 87 R 2 104 R 2 125 R 3 152 R 3 184 R D
3120 7130 M 5757 0 R D 3120 7130 M 0 229 R D 4737 7130 M 0 229 R D
6354 7130 M 0 229 R D 7971 7130 M 0 229 R D 3524 7130 M 0 115 R D
3929 7130 M 0 115 R D 4333 7130 M 0 115 R D 5141 7130 M 0 115 R D
5546 7130 M 0 115 R D 5950 7130 M 0 115 R D 6758 7130 M 0 115 R D
7163 7130 M 0 115 R D 7567 7130 M 0 115 R D 8375 7130 M 0 115 R D
8780 7130 M 0 115 R D 3120 12852 M 5757 0 R D 3120 12852 M 0 -229 R D
4737 12852 M 0 -229 R D 6354 12852 M 0 -229 R D 7971 12852 M 0 -229 R D
3524 12852 M 0 -114 R D 3929 12852 M 0 -114 R D 4333 12852 M 0 -114 R D
5141 12852 M 0 -114 R D 5546 12852 M 0 -114 R D 5950 12852 M 0 -114 R D
6758 12852 M 0 -114 R D 7163 12852 M 0 -114 R D 7567 12852 M 0 -114 R D
8375 12852 M 0 -114 R D 8780 12852 M 0 -114 R D 3120 7130 M 0 5722 R D
3120 7909 M 230 0 R D 2834 7966 M 23 12 R 35 35 R 0 -245 R D 3120 10056 M
230 0 R D 2600 10114 M 24 11 R 35 35 R 0 -245 R D 2869 10160 M -35 -11 R
-24 -35 R -11 -59 R 0 -35 R 11 -58 R 24 -35 R 35 -12 R 23 0 R 35 12 R
24 35 R 11 58 R 0 35 R -11 59 R -24 35 R -35 11 R -23 0 R D 3120 12203 M
230 0 R D 2366 12261 M 24 12 R 35 35 R 0 -246 R D 2635 12308 M -35 -12 R
-23 -35 R -12 -58 R 0 -36 R 12 -58 R 23 -35 R 35 -12 R 24 0 R 35 12 R
23 35 R 12 58 R 0 36 R -12 58 R -23 35 R -35 12 R -24 0 R D 2869 12308 M
-35 -12 R -24 -35 R -11 -58 R 0 -36 R 11 -58 R 24 -35 R 35 -12 R 23 0 R
35 12 R 24 35 R 11 58 R 0 36 R -11 58 R -24 35 R -35 12 R -23 0 R D
3120 7262 M 115 0 R D 3120 7432 M 115 0 R D 3120 7576 M 115 0 R D
3120 7700 M 115 0 R D 3120 7810 M 115 0 R D 3120 8555 M 115 0 R D
3120 8933 M 115 0 R D 3120 9201 M 115 0 R D 3120 9409 M 115 0 R D
3120 9579 M 115 0 R D 3120 9723 M 115 0 R D 3120 9848 M 115 0 R D
3120 9958 M 115 0 R D 3120 10702 M 115 0 R D 3120 11080 M 115 0 R D
3120 11349 M 115 0 R D 3120 11557 M 115 0 R D 3120 11727 M 115 0 R D
3120 11871 M 115 0 R D 3120 11995 M 115 0 R D 3120 12105 M 115 0 R D
3120 12850 M 115 0 R D 1811 9273 M 164 0 R D 1882 9273 M -35 11 R -24 24 R
-12 23 R 0 35 R D 1683 9506 M 23 -23 R 35 -24 R 47 -23 R 59 -12 R 46 0 R
59 12 R 58 23 R 35 24 R 24 23 R D 1730 9600 M 198 0 R 35 11 R 12 24 R 0 23 R
D 1811 9565 M 0 81 R D 1683 9717 M 23 23 R 35 23 R 47 24 R 59 11 R 46 0 R
59 -11 R 58 -24 R 35 -23 R 24 -23 R D 1683 10079 M 386 -211 R D 1730 10149 M
245 0 R D 1811 10266 M 117 -117 R D 1882 10196 M 93 81 R D 1811 10347 M
258 0 R D 1847 10347 M -24 24 R -12 23 R 0 35 R 12 24 R 24 23 R 35 12 R
23 0 R 35 -12 R 23 -23 R 12 -24 R 0 -35 R -12 -23 R -23 -24 R D 1847 10698 M
-24 -23 R -12 -24 R 0 -35 R 12 -23 R 24 -24 R 35 -11 R 23 0 R 35 11 R
23 24 R 12 23 R 0 35 R -12 24 R -23 23 R D 8877 7130 M 0 5722 R D
8877 7909 M -230 0 R D 8877 10056 M -230 0 R D 8877 12203 M -230 0 R D
8877 7262 M -115 0 R D 8877 7432 M -115 0 R D 8877 7576 M -115 0 R D
8877 7700 M -115 0 R D 8877 7810 M -115 0 R D 8877 8555 M -115 0 R D
8877 8933 M -115 0 R D 8877 9201 M -115 0 R D 8877 9409 M -115 0 R D
8877 9579 M -115 0 R D 8877 9723 M -115 0 R D 8877 9848 M -115 0 R D
8877 9958 M -115 0 R D 8877 10702 M -115 0 R D 8877 11080 M -115 0 R D
8877 11349 M -115 0 R D 8877 11557 M -115 0 R D 8877 11727 M -115 0 R D
8877 11871 M -115 0 R D 8877 11995 M -115 0 R D 8877 12105 M -115 0 R D
8877 12850 M -115 0 R D 3120 12852 M 92 -74 R 88 -83 R 83 -92 R 77 -101 R
70 -107 R 62 -113 R 53 -115 R 47 -114 R 40 -112 R 34 -106 R 29 -99 R
25 -88 R 23 -78 R 20 -66 R 18 -52 R 16 -39 R 16 -27 R 15 -13 R 14 -2 R
15 10 R 14 20 R 15 29 R 15 37 R 16 43 R 16 49 R 18 54 R 18 57 R 20 59 R
22 61 R 22 61 R 25 61 R 25 59 R 27 57 R 29 55 R 29 52 R 31 49 R 31 45 R
31 41 R 32 37 R 31 34 R 31 31 R 30 27 R 29 24 R 28 21 R 28 19 R 26 17 R
25 15 R 25 13 R 23 11 R 22 11 R 21 9 R 21 7 R 19 7 R 19 7 R 18 5 R 18 5 R
17 4 R 16 4 R 16 3 R 15 3 R 15 2 R 14 2 R 15 2 R 14 1 R 13 2 R 14 0 R 13 1 R
14 1 R 13 0 R 13 0 R 13 0 R 13 -1 R 13 0 R 13 -1 R 13 -1 R 13 -2 R 14 -1 R
14 -2 R 14 -2 R 14 -3 R 14 -3 R 15 -3 R 16 -4 R 16 -4 R 16 -5 R 17 -5 R
18 -6 R 18 -6 R 19 -8 R 20 -9 R 21 -9 R 22 -11 R 24 -13 R 24 -15 R 26 -16 R
27 -20 R 29 -22 R 31 -26 R 32 -30 R 33 -35 R 35 -41 R 36 -48 R 36 -55 R
37 -64 R 37 -74 R 36 -83 R 34 -93 R 32 -102 R 30 -111 R 26 -116 R 24 -119 R
20 -119 R 18 -114 R 15 -106 R 14 -94 R 12 -80 R 11 -63 R 10 -46 R 9 -27 R
9 -10 R 8 7 R 9 20 R 8 33 R 9 44 R 10 51 R 9 58 R 11 61 R 11 65 R 11 65 R
13 66 R 12 63 R 14 62 R 14 58 R 15 55 R 15 51 R 15 46 R 15 42 R 14 38 R
15 34 R 14 29 R 14 27 R 14 23 R 12 20 R 13 18 R 11 16 R 11 13 R 11 12 R
10 11 R 10 9 R 9 8 R 8 7 R 9 6 R 8 6 R 7 4 R 8 5 R 7 3 R 7 3 R 6 3 R 7 3 R
6 2 R 6 2 R 6 1 R 6 1 R 6 1 R 6 1 R 5 1 R 6 0 R 5 0 R 6 0 R 5 0 R 6 -1 R
5 -1 R 6 -1 R 6 -1 R 5 -1 R 6 -2 R 6 -2 R 6 -2 R 6 -2 R 6 -3 R 7 -3 R 6 -4 R
7 -4 R 8 -5 R 7 -5 R 8 -6 R 8 -6 R 9 -8 R 9 -9 R 9 -10 R 10 -11 R 11 -14 R
11 -15 R 12 -18 R 13 -21 R 14 -24 R 14 -29 R 16 -34 R 16 -40 R 17 -47 R
18 -57 R 18 -67 R 19 -78 R 18 -92 R 18 -105 R 17 -118 R 15 -131 R 14 -138 R
12 -142 R 11 -138 R 9 -126 R 8 -108 R 7 -83 R 7 -54 R 6 -25 R 5 4 R 6 27 R
6 46 R 5 60 R 7 71 R 6 77 R 7 80 R 7 80 R 8 79 R 8 75 R 9 71 R 9 65 R 9 59 R
9 53 R 8 46 R 9 41 R 8 35 R 8 31 R 8 26 R 7 23 R 7 19 R 6 17 R 6 14 R 6 13 R
5 10 R 5 9 R 5 8 R 5 7 R 4 6 R 4 6 R 4 4 R 3 4 R 4 4 R 3 3 R 3 2 R 3 3 R
3 2 R 3 1 R 3 2 R 3 1 R 3 1 R 2 1 R 3 0 R 2 1 R 3 0 R 3 0 R 2 0 R 3 0 R
2 -1 R 3 0 R 2 -1 R 3 -1 R 3 -1 R 2 -2 R 3 -1 R 3 -2 R 3 -2 R 3 -2 R 3 -3 R
3 -3 R 3 -4 R 4 -4 R 3 -4 R 4 -5 R 4 -6 R 4 -7 R 5 -8 R 4 -8 R 5 -11 R
6 -12 R 6 -14 R 6 -17 R 7 -20 R 7 -23 R 8 -29 R 9 -35 R 9 -42 R 10 -52 R
11 -63 R 11 -78 R 11 -95 R 12 -115 R 11 -137 R 10 -158 R 10 -176 R 8 -185 R
7 -178 R 6 -152 R 5 -109 R 5 -56 R 4 -3 R 4 39 R 4 71 R 4 92 R 5 104 R
5 108 R 5 107 R 6 103 R 6 96 R 7 87 R 6 76 R 6 66 R 7 57 R 6 47 R 6 40 R
5 33 R 5 28 R 5 22 R 4 19 R 4 16 R 3 13 R 4 12 R 3 9 R 3 8 R 2 7 R 3 6 R
2 5 R 2 4 R 2 4 R 2 3 R 2 3 R 2 2 R 2 3 R 1 1 R 2 2 R 1 1 R 2 1 R 1 1 R
2 1 R 1 1 R 2 0 R 1 1 R 1 0 R 2 0 R 1 0 R 1 0 R 1 0 R 2 -1 R 1 0 R 1 -1 R
2 -1 R 1 -1 R 2 -1 R 1 -1 R 2 -2 R 1 -1 R 2 -2 R 1 -3 R 2 -2 R 2 -3 R 2 -3 R
2 -4 R 2 -5 R 2 -5 R 2 -5 R 3 -7 R 3 -8 R 3 -9 R 3 -12 R 3 -13 R 4 -16 R
5 -19 R 4 -24 R 5 -29 R 6 -36 R 6 -47 R 7 -58 R 8 -75 R 8 -97 R 8 -124 R
9 -156 R 8 -194 R 7 -227 R 6 -244 R 5 -226 R 5 -162 R 3 -69 R 3 21 R 3 85 R
4 125 R 4 143 R 4 149 R 4 144 R 5 134 R 6 118 R 5 102 R 5 84 R 6 69 R 5 56 R
4 43 R 4 35 R 4 28 R 3 22 R 3 18 R 3 14 R 3 12 R 2 10 R 2 8 R 2 6 R 1 6 R
2 5 R 1 4 R 2 3 R 1 3 R 1 3 R 1 2 R 1 2 R 1 1 R 1 2 R 1 1 R 1 1 R 1 1 R
1 1 R 1 0 R 1 1 R 1 1 R 1 0 R 1 0 R 1 0 R 1 0 R 1 -1 R 1 0 R 1 -1 R 1 -1 R
1 0 R 1 -1 R 1 -1 R 0 -2 R 1 -1 R 1 -2 R 1 -2 R 1 -2 R 2 -2 R 1 -3 R 1 -3 R
1 -4 R 2 -4 R 1 -5 R 2 -6 R 2 -7 R 2 -8 R 2 -10 R 2 -12 R 3 -15 R 3 -19 R
3 -23 R 4 -29 R 4 -38 R 5 -49 R 6 -65 R 6 -88 R 6 -118 R 7 -159 R 7 -212 R
7 -269 R 5 -311 R 4 -291 R 4 -179 R 2 -23 R 3 95 R 3 161 R 3 189 R 4 192 R
4 182 R 4 161 R 5 136 R 5 110 R 5 86 R 4 65 R 4 50 R 4 37 R 3 28 R 3 22 R
2 17 R 2 13 R 2 11 R 1 8 R 2 7 R 1 6 R 1 5 R 1 4 R 1 3 R 1 3 R 1 3 R 1 2 R
1 1 R 0 2 R 1 1 R 1 1 R 0 1 R 1 1 R 1 1 R 0 1 R 1 0 R 0 1 R 1 0 R 1 0 R
1 0 R 1 0 R 1 0 R 1 -1 R 1 -1 R 1 -1 R 1 -1 R 0 -1 R 1 -1 R 1 -2 R 0 -1 R
1 -2 R 1 -2 R 1 -2 R 0 -3 R 1 -3 R 1 -4 R 1 -4 R 2 -6 R 1 -6 R 1 -7 R 2 -9 R
2 -11 R 2 -14 R 2 -18 R 3 -22 R 3 -29 R 3 -39 R 4 -51 R 5 -71 R 5 -99 R
5 -140 R 6 -198 R 6 -274 R 6 -354 R 4 -378 R 3 -247 R 2 -22 R 3 138 R
2 214 R 3 237 R 4 230 R 4 206 R 4 172 R 5 135 R 4 101 R 4 74 R 4 53 R 3 39 R
2 28 R 3 21 R 2 15 R 1 13 R 2 9 R 1 8 R 1 6 R 1 5 R 1 4 R 1 3 R 0 3 R 1 2 R
1 2 R 0 2 R 1 2 R 0 1 R 1 1 R 0 1 R 1 1 R 1 1 R 0 1 R 1 0 R 0 1 R 1 0 R
1 0 R 1 0 R 1 0 R 0 -1 R 1 -1 R 1 -1 R 0 -1 R 1 -1 R 0 -1 R 1 -1 R 0 -2 R
1 -2 R 1 -1 R 0 -3 R 1 -2 R 1 -3 R 0 -4 R 1 -4 R 1 -5 R 1 -6 R 1 -7 R 2 -9 R
1 -11 R 2 -14 R 2 -18 R 2 -24 R 3 -31 R 3 -43 R 3 -60 R 4 -85 R 5 -122 R
5 -181 R 6 -263 R 5 -369 R 4 -438 R 3 -316 R 2 -29 R 2 173 R 2 258 R 3 276 R
3 259 R 5 223 R 4 176 R 4 130 R 4 93 R 4 64 R 3 44 R 2 31 R 2 23 R 2 16 R
1 13 R 1 9 R 2 8 R 0 6 R 1 4 R 1 4 R 1 4 R 0 2 R 1 2 R 0 2 R 1 2 R 0 1 R
1 2 R 0 1 R 1 0 R 0 1 R 0 1 R 1 0 R 0 1 R 1 1 R 1 0 R 1 0 R 1 0 R 0 -1 R
1 0 R 0 -1 R 1 -1 R 0 -1 R 1 -1 R 0 -1 R 0 -1 R 1 -1 R 0 -2 R 1 -1 R 0 -2 R
1 -3 R 0 -3 R 1 -3 R 1 -4 R 1 -5 R 0 -5 R 1 -7 R 2 -9 R 1 -11 R 1 -15 R
2 -18 R 2 -25 R 2 -33 R 3 -46 R 3 -65 R 4 -95 R 5 -142 R 5 -213 R 4 -318 R
5 -438 R 3 -448 R 2 -173 R 2 124 R 2 264 R 2 304 R 4 293 R 3 253 R 5 200 R
4 145 R 4 101 R 3 67 R 3 46 R 2 31 R 2 23 R 1 16 R 1 12 R 2 9 R 1 7 R 0 6 R
1 4 R 1 4 R 0 3 R 1 2 R 0 2 R 1 2 R 0 2 R 1 1 R 0 1 R 0 1 R 1 1 R 0 1 R
1 0 R 0 1 R 0 1 R 1 0 R 1 0 R 1 0 R 1 -1 R 0 -1 R 1 0 R 0 -1 R 0 -1 R 1 -1 R
0 -1 R 0 -1 R 1 -2 R 0 -1 R 1 -2 R 0 -2 R 1 -3 R 0 -3 R 1 -3 R 1 -5 R 0 -5 R
1 -7 R 1 -8 R 1 -10 R 2 -12 R 1 -17 R 2 -22 R D 8498 9203 M 2 -31 R 2 -41 R
3 -60 R 3 -87 R 4 -130 R 5 -199 R 4 -301 R 5 -430 R 3 -477 R 2 -219 R
1 112 R 2 276 R 3 323 R 3 309 R 3 266 R 4 207 R 5 148 R 3 100 R 3 66 R
3 44 R 2 30 R 1 21 R 2 15 R 1 12 R 1 8 R 1 7 R 1 5 R 0 4 R 1 4 R 0 3 R 1 2 R
0 2 R 1 2 R 0 1 R 1 1 R 0 1 R 0 1 R 0 1 R 1 1 R 0 1 R 1 0 R 0 1 R 1 0 R
1 0 R 1 0 R 0 -1 R 1 -1 R 0 -1 R 1 -1 R 0 -1 R 0 -1 R 1 -1 R 0 -2 R 0 -1 R
1 -2 R 0 -2 R 1 -3 R 0 -2 R 1 -4 R 0 -4 R 1 -5 R 1 -7 R 1 -8 R 1 -9 R
1 -13 R 1 -17 R 2 -22 R 2 -30 R 2 -41 R 3 -60 R 3 -88 R D 10677 7130 M
5757 0 R D 10677 7130 M 0 229 R D 10654 6847 M -35 -11 R -24 -35 R -11 -59 R
0 -35 R 11 -58 R 24 -35 R 35 -12 R 23 0 R 35 12 R 24 35 R 11 58 R 0 35 R
-11 59 R -24 35 R -35 11 R -23 0 R D 12294 7130 M 0 229 R D 12212 6789 M
0 12 R 12 23 R 12 12 R 23 11 R 47 0 R 23 -11 R 12 -12 R 12 -23 R 0 -24 R
-12 -23 R -24 -35 R -116 -117 R 163 0 R D 13911 7130 M 0 229 R D
13935 6847 M -117 -163 R 175 0 R D 13935 6847 M 0 -245 R D 15528 7130 M
0 229 R D 15587 6812 M -12 24 R -35 11 R -24 0 R -35 -11 R -23 -35 R
-12 -59 R 0 -58 R 12 -47 R 23 -23 R 35 -12 R 12 0 R 35 12 R 24 23 R 11 35 R
0 12 R -11 35 R -24 23 R -35 12 R -12 0 R -35 -12 R -23 -23 R -12 -35 R D
11081 7130 M 0 115 R D 11486 7130 M 0 115 R D 11890 7130 M 0 115 R D
12698 7130 M 0 115 R D 13103 7130 M 0 115 R D 13507 7130 M 0 115 R D
14315 7130 M 0 115 R D 14720 7130 M 0 115 R D 15124 7130 M 0 115 R D
15932 7130 M 0 115 R D 16337 7130 M 0 115 R D 10677 12852 M 5757 0 R D
10677 12852 M 0 -229 R D 12294 12852 M 0 -229 R D 13911 12852 M 0 -229 R D
15528 12852 M 0 -229 R D 11081 12852 M 0 -114 R D 11486 12852 M 0 -114 R D
11890 12852 M 0 -114 R D 12698 12852 M 0 -114 R D 13103 12852 M 0 -114 R D
13507 12852 M 0 -114 R D 14315 12852 M 0 -114 R D 14720 12852 M 0 -114 R D
15124 12852 M 0 -114 R D 15932 12852 M 0 -114 R D 16337 12852 M 0 -114 R D
10677 7130 M 0 5722 R D 10677 7641 M 230 0 R D 10075 7746 M -35 -12 R
-23 -35 R -12 -58 R 0 -36 R 12 -58 R 23 -35 R 35 -12 R 24 0 R 35 12 R
23 35 R 12 58 R 0 36 R -12 58 R -23 35 R -35 12 R -24 0 R D 10262 7524 M
-11 -12 R 11 -12 R 12 12 R -12 12 R D 10496 7746 M -117 0 R -12 -105 R
12 11 R 35 12 R 35 0 R 35 -12 R 24 -23 R 11 -35 R 0 -24 R -11 -35 R
-24 -23 R -35 -12 R -35 0 R -35 12 R -12 12 R -11 23 R D 10677 8663 M
230 0 R D 10075 8767 M -35 -11 R -23 -35 R -12 -59 R 0 -35 R 12 -58 R
23 -35 R 35 -12 R 24 0 R 35 12 R 23 35 R 12 58 R 0 35 R -12 59 R -23 35 R
-35 11 R -24 0 R D 10262 8545 M -11 -11 R 11 -12 R 12 12 R -12 11 R D
10508 8732 M -12 24 R -35 11 R -23 0 R -35 -11 R -24 -35 R -12 -59 R 0 -58 R
12 -47 R 24 -23 R 35 -12 R 11 0 R 35 12 R 24 23 R 11 35 R 0 12 R -11 35 R
-24 23 R -35 12 R -11 0 R -35 -12 R -24 -23 R -12 -35 R D 10677 9685 M
230 0 R D 10075 9789 M -35 -11 R -23 -36 R -12 -58 R 0 -35 R 12 -58 R
23 -35 R 35 -12 R 24 0 R 35 12 R 23 35 R 12 58 R 0 35 R -12 58 R -23 36 R
-35 11 R -24 0 R D 10262 9567 M -11 -11 R 11 -12 R 12 12 R -12 11 R D
10519 9789 M -116 -245 R D 10356 9789 M 163 0 R D 10677 10706 M 230 0 R D
10075 10811 M -35 -12 R -23 -35 R -12 -58 R 0 -35 R 12 -59 R 23 -35 R
35 -11 R 24 0 R 35 11 R 23 35 R 12 59 R 0 35 R -12 58 R -23 35 R -35 12 R
-24 0 R D 10262 10589 M -11 -12 R 11 -11 R 12 11 R -12 12 R D 10414 10811 M
-35 -12 R -12 -23 R 0 -23 R 12 -24 R 24 -12 R 46 -11 R 35 -12 R 24 -23 R
11 -24 R 0 -35 R -11 -23 R -12 -12 R -35 -11 R -47 0 R -35 11 R -12 12 R
-11 23 R 0 35 R 11 24 R 24 23 R 35 12 R 47 11 R 23 12 R 12 24 R 0 23 R
-12 23 R -35 12 R -47 0 R D 10677 11728 M 230 0 R D 10075 11833 M -35 -12 R
-23 -35 R -12 -58 R 0 -35 R 12 -59 R 23 -35 R 35 -12 R 24 0 R 35 12 R
23 35 R 12 59 R 0 35 R -12 58 R -23 35 R -35 12 R -24 0 R D 10262 11611 M
-11 -12 R 11 -12 R 12 12 R -12 12 R D 10508 11751 M -12 -35 R -23 -23 R
-35 -12 R -12 0 R -35 12 R -24 23 R -11 35 R 0 12 R 11 35 R 24 23 R 35 12 R
12 0 R 35 -12 R 23 -23 R 12 -47 R 0 -58 R -12 -59 R -23 -35 R -35 -12 R
-24 0 R -35 12 R -12 23 R D 10677 12750 M 230 0 R D 10040 12804 M 24 12 R
35 35 R 0 -245 R D 10262 12629 M -11 -12 R 11 -11 R 12 11 R -12 12 R D
10426 12851 M -35 -12 R -24 -35 R -11 -58 R 0 -35 R 11 -59 R 24 -35 R
35 -11 R 23 0 R 35 11 R 24 35 R 11 59 R 0 35 R -11 58 R -24 35 R -35 12 R
-23 0 R D 10677 7130 M 115 0 R D 10677 7232 M 115 0 R D 10677 7335 M 115 0 R
D 10677 7437 M 115 0 R D 10677 7539 M 115 0 R D 10677 7743 M 115 0 R D
10677 7845 M 115 0 R D 10677 7948 M 115 0 R D 10677 8050 M 115 0 R D
10677 8152 M 115 0 R D 10677 8254 M 115 0 R D 10677 8356 M 115 0 R D
10677 8459 M 115 0 R D 10677 8561 M 115 0 R D 10677 8765 M 115 0 R D
10677 8867 M 115 0 R D 10677 8969 M 115 0 R D 10677 9072 M 115 0 R D
10677 9174 M 115 0 R D 10677 9276 M 115 0 R D 10677 9378 M 115 0 R D
10677 9480 M 115 0 R D 10677 9582 M 115 0 R D 10677 9787 M 115 0 R D
10677 9889 M 115 0 R D 10677 9991 M 115 0 R D 10677 10093 M 115 0 R D
10677 10196 M 115 0 R D 10677 10298 M 115 0 R D 10677 10400 M 115 0 R D
10677 10502 M 115 0 R D 10677 10604 M 115 0 R D 10677 10809 M 115 0 R D
10677 10911 M 115 0 R D 10677 11013 M 115 0 R D 10677 11115 M 115 0 R D
10677 11217 M 115 0 R D 10677 11319 M 115 0 R D 10677 11422 M 115 0 R D
10677 11524 M 115 0 R D 10677 11626 M 115 0 R D 10677 11830 M 115 0 R D
10677 11933 M 115 0 R D 10677 12035 M 115 0 R D 10677 12137 M 115 0 R D
10677 12239 M 115 0 R D 10677 12341 M 115 0 R D 10677 12443 M 115 0 R D
10677 12546 M 115 0 R D 10677 12648 M 115 0 R D 10677 12852 M 115 0 R D
9497 9804 M -12 -23 R 0 -35 R 12 -24 R 23 -23 R 35 -12 R 35 0 R 36 12 R
11 12 R 12 23 R 0 35 R -12 23 R D 9567 9687 M 0 94 R D 9357 9968 M 23 -24 R
35 -23 R 47 -23 R 58 -12 R 47 0 R 59 12 R 58 23 R 35 23 R 23 24 R D
9404 10061 M 198 0 R 35 12 R 12 23 R 0 24 R D 9485 10026 M 0 82 R D
9357 10178 M 23 23 R 35 24 R 47 23 R 58 12 R 47 0 R 59 -12 R 58 -23 R
35 -24 R 23 -23 R D 16434 7130 M 0 5722 R D 16434 7641 M -230 0 R D
16434 8663 M -230 0 R D 16434 9685 M -230 0 R D 16434 10706 M -230 0 R D
16434 11728 M -230 0 R D 16434 12750 M -230 0 R D 16434 7130 M -115 0 R D
16434 7232 M -115 0 R D 16434 7335 M -115 0 R D 16434 7437 M -115 0 R D
16434 7539 M -115 0 R D 16434 7743 M -115 0 R D 16434 7845 M -115 0 R D
16434 7948 M -115 0 R D 16434 8050 M -115 0 R D 16434 8152 M -115 0 R D
16434 8254 M -115 0 R D 16434 8356 M -115 0 R D 16434 8459 M -115 0 R D
16434 8561 M -115 0 R D 16434 8765 M -115 0 R D 16434 8867 M -115 0 R D
16434 8969 M -115 0 R D 16434 9072 M -115 0 R D 16434 9174 M -115 0 R D
16434 9276 M -115 0 R D 16434 9378 M -115 0 R D 16434 9480 M -115 0 R D
16434 9582 M -115 0 R D 16434 9787 M -115 0 R D 16434 9889 M -115 0 R D
16434 9991 M -115 0 R D 16434 10093 M -115 0 R D 16434 10196 M -115 0 R D
16434 10298 M -115 0 R D 16434 10400 M -115 0 R D 16434 10502 M -115 0 R D
16434 10604 M -115 0 R D 16434 10809 M -115 0 R D 16434 10911 M -115 0 R D
16434 11013 M -115 0 R D 16434 11115 M -115 0 R D 16434 11217 M -115 0 R D
16434 11319 M -115 0 R D 16434 11422 M -115 0 R D 16434 11524 M -115 0 R D
16434 11626 M -115 0 R D 16434 11830 M -115 0 R D 16434 11933 M -115 0 R D
16434 12035 M -115 0 R D 16434 12137 M -115 0 R D 16434 12239 M -115 0 R D
16434 12341 M -115 0 R D 16434 12443 M -115 0 R D 16434 12546 M -115 0 R D
16434 12648 M -115 0 R D 16434 12852 M -115 0 R D 10677 7641 M 92 3 R
88 10 R 83 18 R 77 29 R 70 40 R 62 53 R 53 68 R 47 82 R 40 98 R 34 112 R
29 126 R 25 138 R 23 148 R 20 157 R 18 162 R 16 165 R 16 165 R 15 164 R
14 160 R 15 154 R 14 148 R 15 139 R 15 130 R 16 120 R 16 109 R 18 100 R
18 88 R 20 77 R 22 67 R 22 56 R 25 46 R 25 36 R 27 27 R 29 18 R 29 10 R
31 3 R 31 -4 R 31 -9 R 32 -14 R 31 -17 R 31 -21 R 30 -23 R 29 -24 R 28 -26 R
28 -26 R 26 -27 R 25 -27 R 25 -26 R 23 -26 R 22 -26 R 21 -25 R 21 -24 R
19 -24 R 19 -23 R 18 -23 R 18 -22 R 17 -21 R 16 -21 R 16 -20 R 15 -20 R
15 -19 R 14 -19 R 15 -19 R 14 -18 R 13 -18 R 14 -18 R 13 -17 R 14 -18 R
13 -17 R 13 -17 R 13 -17 R 13 -17 R 13 -17 R 13 -17 R 13 -17 R 13 -18 R
14 -17 R 14 -18 R 14 -18 R 14 -18 R 14 -18 R 15 -19 R 16 -19 R 16 -20 R
16 -20 R 17 -20 R 18 -22 R 18 -21 R 19 -23 R 20 -23 R 21 -23 R 22 -25 R
24 -24 R 24 -26 R 26 -26 R 27 -26 R 29 -26 R 31 -26 R 32 -25 R 33 -23 R
35 -21 R 36 -17 R 36 -12 R 37 -5 R 37 5 R 36 16 R 34 31 R 32 49 R 30 70 R
26 93 R 24 120 R 20 147 R 18 174 R 15 199 R 14 221 R 12 240 R 11 254 R
10 261 R 9 264 R 9 263 R 8 256 R 9 246 R 8 234 R 9 123 R 10 0 R 9 0 R 11 0 R
11 0 R 11 0 R 13 0 R 12 0 R 14 0 R 14 0 R 15 0 R 15 0 R 15 0 R 15 0 R 14 0 R
15 0 R 14 0 R 14 0 R 14 0 R 12 0 R 13 0 R 11 0 R 11 0 R 11 0 R 10 0 R 10 0 R
9 0 R 8 0 R 9 0 R 8 0 R 7 0 R 8 0 R 7 0 R 7 0 R 6 0 R 7 0 R 6 0 R 6 0 R
6 0 R 6 0 R 6 0 R 6 0 R 5 0 R 6 0 R 5 0 R 6 0 R 5 0 R 6 0 R 5 0 R 6 0 R
6 0 R 5 0 R 6 0 R 6 0 R 6 0 R 6 0 R 6 0 R 7 -6 R 6 -28 R 7 -29 R 8 -29 R
7 -31 R 8 -31 R 8 -32 R 9 -33 R 9 -34 R 9 -35 R 10 -36 R 11 -37 R 11 -38 R
12 -38 R 13 -37 R 14 -37 R 14 -35 R 16 -32 R 16 -27 R 17 -20 R 18 -7 R
18 7 R 19 30 R 18 59 R 18 97 R 17 146 R 15 206 R 14 87 R 12 0 R 11 0 R 9 0 R
8 0 R 7 0 R 7 0 R 6 0 R 5 0 R 6 0 R 6 0 R 5 0 R 7 0 R 6 0 R 7 0 R 7 0 R
8 0 R 8 0 R 9 0 R 9 0 R 9 0 R 9 0 R 8 0 R 9 0 R 8 0 R 8 0 R 8 0 R 7 0 R
7 0 R 6 0 R 6 0 R 6 0 R 5 0 R 5 0 R 5 0 R 5 0 R 4 0 R 4 0 R 4 0 R 3 0 R
4 0 R 3 0 R 3 0 R 3 0 R 3 0 R 3 0 R 3 0 R 3 0 R 3 0 R 2 0 R 3 0 R 2 0 R
3 0 R 3 0 R 2 0 R 3 0 R 2 0 R 3 0 R 2 0 R 3 0 R 3 0 R 2 0 R 3 0 R 3 0 R
3 0 R 3 0 R 3 0 R 3 0 R 3 0 R 4 0 R 3 0 R 4 0 R 4 0 R 4 0 R 5 0 R 4 0 R
5 0 R 6 0 R 6 0 R 6 0 R 7 0 R 7 0 R 8 0 R 9 0 R 9 0 R 10 0 R 11 0 R 11 0 R
11 0 R 12 0 R 11 0 R 10 0 R 10 0 R 8 0 R 7 0 R 6 0 R 5 0 R 5 0 R 4 0 R 4 0 R
4 0 R 4 0 R 5 0 R 5 0 R 5 0 R 6 0 R 6 0 R 7 0 R 6 0 R 6 0 R 7 0 R 6 0 R
6 0 R 5 0 R 5 0 R 5 0 R 4 0 R 4 0 R 3 0 R 4 0 R 3 0 R 3 0 R 2 0 R 3 0 R
2 0 R 2 0 R 2 0 R 2 0 R 2 0 R 2 0 R 2 0 R 1 0 R 2 0 R 1 0 R 2 0 R 1 0 R
2 0 R 1 0 R 2 0 R 1 0 R 1 0 R 2 0 R 1 0 R 1 0 R 1 0 R 2 0 R 1 0 R 1 0 R
2 0 R 1 0 R 2 0 R 1 0 R 2 0 R 1 0 R 2 0 R 1 0 R 2 0 R 2 0 R 2 0 R 2 0 R
2 0 R 2 0 R 2 0 R 3 0 R 3 0 R 3 0 R 3 0 R 3 0 R 4 0 R 5 0 R 4 0 R 5 0 R
6 0 R 6 0 R 7 0 R 8 0 R 8 0 R 8 0 R 9 0 R 8 0 R 7 0 R 6 0 R 5 0 R 5 0 R
3 0 R 3 0 R 3 0 R 4 0 R 4 0 R 4 0 R 4 0 R 5 0 R 6 0 R 5 0 R 5 0 R 6 0 R
5 0 R 4 0 R 4 0 R 4 0 R 3 0 R 3 0 R 3 0 R 3 0 R 2 0 R 2 0 R 2 0 R 1 0 R
2 0 R 1 0 R 2 0 R 1 0 R 1 0 R 1 0 R 1 0 R 1 0 R 1 0 R 1 0 R 1 0 R 1 0 R
1 0 R 1 0 R 1 0 R 1 0 R 1 0 R 1 0 R 1 0 R 1 0 R 1 0 R 1 0 R 1 0 R 1 0 R
1 0 R 1 0 R 1 0 R 1 0 R 1 0 R 1 0 R 1 0 R 2 0 R 1 0 R 1 0 R 1 0 R 2 0 R
1 0 R 2 0 R 2 0 R 2 0 R 2 0 R 2 0 R 3 0 R 3 0 R 3 0 R 4 0 R 4 0 R 5 0 R
6 0 R 6 0 R 6 0 R 7 0 R 7 0 R 7 0 R 5 0 R 4 0 R 4 0 R 2 0 R 3 0 R 3 0 R
3 0 R 4 0 R 4 0 R 4 0 R 5 0 R 5 0 R 5 0 R 4 0 R 4 0 R 4 0 R 3 0 R 3 0 R
2 0 R 2 0 R 2 0 R 1 0 R 2 0 R 1 0 R 1 0 R 1 0 R 1 0 R 1 0 R 1 0 R 1 0 R
1 0 R 1 0 R 1 0 R 1 0 R 1 0 R 1 0 R 1 0 R 1 0 R 1 0 R 1 0 R 1 0 R 1 0 R
1 0 R 1 0 R 1 0 R 1 0 R 1 0 R 1 0 R 1 0 R 1 0 R 1 0 R 1 0 R 1 0 R 2 0 R
1 0 R 1 0 R 2 0 R 2 0 R 2 0 R 2 0 R 3 0 R 3 0 R 3 0 R 4 0 R 5 0 R 5 0 R
5 0 R 6 0 R 6 0 R 6 0 R 4 0 R 3 0 R 2 0 R 3 0 R 2 0 R 3 0 R 4 0 R 4 0 R
4 0 R 5 0 R 4 0 R 4 0 R 4 0 R 3 0 R 2 0 R 3 0 R 2 0 R 1 0 R 2 0 R 1 0 R
1 0 R 1 0 R 1 0 R 1 0 R 1 0 R 1 0 R 1 0 R 1 0 R 1 0 R 1 0 R 1 0 R 1 0 R
1 0 R 1 0 R 1 0 R 1 0 R 1 0 R 1 0 R 1 0 R 1 0 R 1 0 R 1 0 R 1 0 R 1 0 R
1 0 R 1 0 R 1 0 R 2 0 R 1 0 R 2 0 R 2 0 R 2 0 R 3 0 R 3 0 R 3 0 R 4 0 R
5 0 R 5 0 R 6 0 R 5 0 R 4 0 R 3 0 R 2 0 R 2 0 R 2 0 R 3 0 R 3 0 R 5 0 R
4 0 R 4 0 R 4 0 R 4 0 R 3 0 R 2 0 R 2 0 R 2 0 R 1 0 R 1 0 R 2 0 R 1 0 R
1 0 R 1 0 R 1 0 R 1 0 R 1 0 R 1 0 R 1 0 R 1 0 R 1 0 R 1 0 R 1 0 R 1 0 R
1 0 R 1 0 R 1 0 R 1 0 R 1 0 R 1 0 R 1 0 R 1 0 R 1 0 R 2 0 R 1 0 R 1 0 R
2 0 R 2 0 R 2 0 R 3 0 R 3 0 R 4 0 R 5 0 R 5 0 R 4 0 R 5 0 R 3 0 R 2 0 R
2 0 R 2 0 R 2 0 R 4 0 R 3 0 R 5 0 R 4 0 R 4 0 R 3 0 R 3 0 R 2 0 R 2 0 R
1 0 R 1 0 R 2 0 R 1 0 R 1 0 R 1 0 R 1 0 R 1 0 R 1 0 R 1 0 R 1 0 R 1 0 R
1 0 R 1 0 R 1 0 R 1 0 R 1 0 R 1 0 R 1 0 R 1 0 R 1 0 R 1 0 R 1 0 R 1 0 R
1 0 R 2 0 R 1 0 R 2 0 R 2 0 R 2 0 R 3 0 R 3 0 R 4 0 R 5 0 R 4 0 R 5 0 R
3 0 R 2 0 R 1 0 R 2 0 R 3 0 R 3 0 R 3 0 R 4 0 R 5 0 R 3 0 R 3 0 R 3 0 R
2 0 R 1 0 R 2 0 R 1 0 R 1 0 R 1 0 R 1 0 R 1 0 R 1 0 R 1 0 R 1 0 R 1 0 R
1 0 R 1 0 R 1 0 R 1 0 R 1 0 R 1 0 R 1 0 R 1 0 R 1 0 R 1 0 R 1 0 R 1 0 R
1 0 R 1 0 R 1 0 R 1 0 R 2 0 R 2 0 R 2 0 R 3 0 R 3 0 R D 3120 1408 M 5757 0 R
D 3120 1408 M 0 229 R D 3097 1125 M -35 -11 R -24 -35 R -11 -59 R 0 -35 R
11 -58 R 24 -35 R 35 -12 R 23 0 R 35 12 R 24 35 R 11 58 R 0 35 R -11 59 R
-24 35 R -35 11 R -23 0 R D 4737 1408 M 0 229 R D 4655 1067 M 0 12 R 12 23 R
12 12 R 23 11 R 47 0 R 23 -11 R 12 -12 R 12 -23 R 0 -24 R -12 -23 R
-24 -35 R -116 -117 R 163 0 R D 6354 1408 M 0 229 R D 6378 1125 M
-117 -163 R 175 0 R D 6378 1125 M 0 -245 R D 7971 1408 M 0 229 R D
8030 1090 M -12 24 R -35 11 R -24 0 R -35 -11 R -23 -35 R -12 -59 R 0 -58 R
12 -47 R 23 -23 R 35 -12 R 12 0 R 35 12 R 24 23 R 11 35 R 0 12 R -11 35 R
-24 23 R -35 12 R -12 0 R -35 -12 R -23 -23 R -12 -35 R D 3524 1408 M
0 115 R D 3929 1408 M 0 115 R D 4333 1408 M 0 115 R D 5141 1408 M 0 115 R D
5546 1408 M 0 115 R D 5950 1408 M 0 115 R D 6758 1408 M 0 115 R D
7163 1408 M 0 115 R D 7567 1408 M 0 115 R D 8375 1408 M 0 115 R D
8780 1408 M 0 115 R D 3120 7130 M 5757 0 R D 3120 7130 M 0 -229 R D
4737 7130 M 0 -229 R D 6354 7130 M 0 -229 R D 7971 7130 M 0 -229 R D
3524 7130 M 0 -114 R D 3929 7130 M 0 -114 R D 4333 7130 M 0 -114 R D
5141 7130 M 0 -114 R D 5546 7130 M 0 -114 R D 5950 7130 M 0 -114 R D
6758 7130 M 0 -114 R D 7163 7130 M 0 -114 R D 7567 7130 M 0 -114 R D
8375 7130 M 0 -114 R D 8780 7130 M 0 -114 R D 3120 1408 M 0 5722 R D
3120 1498 M 230 0 R D 2834 1607 M 23 11 R 35 35 R 0 -245 R D 3120 3669 M
230 0 R D 2600 3727 M 24 11 R 35 36 R 0 -246 R D 2869 3774 M -35 -12 R
-24 -35 R -11 -59 R 0 -35 R 11 -58 R 24 -35 R 35 -12 R 23 0 R 35 12 R
24 35 R 11 58 R 0 35 R -11 59 R -24 35 R -35 12 R -23 0 R D 3120 5840 M
230 0 R D 2366 5898 M 24 11 R 35 35 R 0 -245 R D 2635 5944 M -35 -11 R
-23 -35 R -12 -59 R 0 -35 R 12 -58 R 23 -35 R 35 -12 R 24 0 R 35 12 R
23 35 R 12 58 R 0 35 R -12 59 R -23 35 R -35 11 R -24 0 R D 2869 5944 M
-35 -11 R -24 -35 R -11 -59 R 0 -35 R 11 -58 R 24 -35 R 35 -12 R 23 0 R
35 12 R 24 35 R 11 58 R 0 35 R -11 59 R -24 35 R -35 11 R -23 0 R D
3120 2152 M 115 0 R D 3120 2534 M 115 0 R D 3120 2805 M 115 0 R D
3120 3015 M 115 0 R D 3120 3187 M 115 0 R D 3120 3333 M 115 0 R D
3120 3459 M 115 0 R D 3120 3570 M 115 0 R D 3120 4322 M 115 0 R D
3120 4705 M 115 0 R D 3120 4976 M 115 0 R D 3120 5186 M 115 0 R D
3120 5358 M 115 0 R D 3120 5504 M 115 0 R D 3120 5629 M 115 0 R D
3120 5741 M 115 0 R D 3120 6493 M 115 0 R D 3120 6876 M 115 0 R D
1811 3344 M 164 0 R D 1882 3344 M -35 12 R -24 23 R -12 24 R 0 35 R D
1967 3563 M 101 0 R D 1988 3563 M -14 -15 R -7 -14 R 0 -22 R 7 -15 R
14 -14 R 22 -7 R 15 0 R 21 7 R 15 14 R 7 15 R 0 22 R -7 14 R -15 15 R D
1967 3620 M 159 0 R D 1988 3620 M -14 15 R -7 14 R 0 22 R 7 14 R 14 15 R
22 7 R 15 0 R 21 -7 R 15 -15 R 7 -14 R 0 -22 R -7 -14 R -15 -15 R D
1967 3787 M 7 -15 R 14 -14 R 22 -7 R 15 0 R 21 7 R 15 14 R 7 15 R 0 21 R
-7 15 R -15 14 R -21 8 R -15 0 R -22 -8 R -14 -14 R -7 -15 R 0 -21 R D
1683 3990 M 23 -23 R 35 -23 R 47 -24 R 59 -11 R 46 0 R 59 11 R 58 24 R
35 23 R 24 23 R D 1730 4084 M 198 0 R 35 12 R 12 23 R 0 23 R D 1811 4049 M
0 82 R D 1683 4201 M 23 23 R 35 23 R 47 24 R 59 11 R 46 0 R 59 -11 R
58 -24 R 35 -23 R 24 -23 R D 1683 4563 M 386 -210 R D 1730 4633 M 245 0 R D
1811 4750 M 117 -117 R D 1882 4680 M 93 82 R D 1811 4832 M 258 0 R D
1847 4832 M -24 23 R -12 23 R 0 35 R 12 24 R 24 23 R 35 12 R 23 0 R 35 -12 R
23 -23 R 12 -24 R 0 -35 R -12 -23 R -23 -23 R D 1847 5182 M -24 -23 R
-12 -24 R 0 -35 R 12 -23 R 24 -23 R 35 -12 R 23 0 R 35 12 R 23 23 R 12 23 R
0 35 R -12 24 R -23 23 R D 8877 1408 M 0 5722 R D 8877 1498 M -230 0 R D
8877 3669 M -230 0 R D 8877 5840 M -230 0 R D 8877 2152 M -115 0 R D
8877 2534 M -115 0 R D 8877 2805 M -115 0 R D 8877 3015 M -115 0 R D
8877 3187 M -115 0 R D 8877 3333 M -115 0 R D 8877 3459 M -115 0 R D
8877 3570 M -115 0 R D 8877 4322 M -115 0 R D 8877 4705 M -115 0 R D
8877 4976 M -115 0 R D 8877 5186 M -115 0 R D 8877 5358 M -115 0 R D
8877 5504 M -115 0 R D 8877 5629 M -115 0 R D 8877 5741 M -115 0 R D
8877 6493 M -115 0 R D 8877 6876 M -115 0 R D 3120 7084 M 92 -10 R 88 -12 R
83 -15 R 77 -18 R 70 -21 R 62 -24 R 53 -28 R 47 -31 R 40 -35 R 34 -38 R
29 -41 R 25 -43 R 23 -44 R 20 -46 R 18 -46 R 16 -46 R 16 -45 R 15 -45 R
14 -43 R 15 -41 R 14 -39 R 15 -38 R 15 -35 R 16 -33 R 16 -31 R 18 -29 R
18 -26 R 20 -25 R 22 -21 R 22 -20 R 25 -18 R 25 -15 R 27 -14 R 29 -11 R
29 -10 R 31 -8 R 31 -7 R 31 -5 R 32 -5 R 31 -3 R 31 -2 R 30 -2 R 29 -1 R
28 -1 R 28 0 R 26 0 R 25 0 R 25 0 R 23 1 R 22 0 R 21 1 R 21 1 R 19 1 R
19 1 R 18 0 R 18 1 R 17 1 R 16 1 R 16 1 R 15 1 R 15 0 R 14 1 R 15 1 R 14 1 R
13 1 R 14 0 R 13 1 R 14 1 R 13 1 R 13 0 R 13 1 R 13 1 R 13 1 R 13 0 R 13 1 R
13 1 R 14 0 R 14 1 R 14 1 R 14 0 R 14 1 R 15 1 R 16 0 R 16 1 R 16 0 R 17 1 R
18 0 R 18 1 R 19 0 R 20 1 R 21 0 R 22 0 R 24 0 R 24 0 R 26 -1 R 27 0 R
29 -2 R 31 -1 R 32 -2 R 33 -3 R 35 -4 R 36 -6 R 36 -6 R 37 -9 R 37 -11 R
36 -14 R 34 -17 R 32 -21 R 30 -26 R 26 -30 R 24 -35 R 20 -41 R 18 -45 R
15 -51 R 14 -55 R 12 -59 R 11 -63 R 10 -66 R 9 -69 R 9 -73 R 8 -80 R 9 -89 R
8 -115 R 9 -166 R 10 -27 R 9 -26 R 11 -23 R 11 -21 R 11 -19 R 13 -18 R
12 -15 R 14 -14 R 14 -13 R 15 -11 R 15 -9 R 15 -8 R 15 -8 R 14 -6 R 15 -5 R
14 -5 R 14 -4 R 14 -3 R 12 -3 R 13 -3 R 11 -2 R 11 -2 R 11 -1 R 10 -2 R
10 -1 R 9 -1 R 8 -1 R 9 -1 R 8 -1 R 7 -1 R 8 0 R 7 -1 R 7 -1 R 6 0 R 7 -1 R
6 0 R 6 0 R 6 -1 R 6 0 R 6 -1 R 6 0 R 5 0 R 6 -1 R 5 0 R 6 0 R 5 -1 R 6 0 R
5 0 R 6 -1 R 6 0 R 5 0 R 6 -1 R 6 0 R 6 -1 R 6 0 R 6 -1 R 7 31 R 6 42 R
7 25 R 8 19 R 7 16 R 8 14 R 8 13 R 9 12 R 9 11 R 9 10 R 10 9 R 11 8 R 11 8 R
12 7 R 13 6 R 14 5 R 14 4 R 16 2 R 16 -1 R 17 -3 R 18 -8 R 18 -12 R 19 -19 R
18 -29 R 18 -42 R 17 -65 R 15 -117 R 14 -152 R 12 -42 R 11 -47 R 9 -52 R
8 -54 R 7 -56 R 7 -56 R 6 -54 R 5 -52 R 6 -49 R 6 -46 R 5 -43 R 7 -39 R
6 -36 R 7 -33 R 7 -30 R 8 -27 R 8 -23 R 9 -21 R 9 -17 R 9 -16 R 9 -13 R
8 -11 R 9 -9 R 8 -7 R 8 -7 R 8 -5 R 7 -4 R 7 -4 R 6 -3 R 6 -3 R 6 -2 R
5 -2 R 5 -2 R 5 -1 R 5 -1 R 4 -1 R 4 -1 R 4 -1 R 3 -1 R 4 -1 R 3 0 R 3 -1 R
3 0 R 3 -1 R 3 0 R 3 -1 R 3 0 R 3 -1 R 2 0 R 3 0 R 2 -1 R 3 0 R 3 0 R 2 -1 R
3 0 R 2 -1 R 3 0 R 2 0 R 3 -1 R 3 0 R 2 0 R 3 -1 R 3 0 R 3 -1 R 3 0 R 3 -1 R
3 0 R 3 -1 R 4 -1 R 3 0 R 4 -1 R 4 -1 R 4 -1 R 5 -1 R 4 -2 R 5 -1 R 6 -2 R
6 -3 R 6 -2 R 7 -4 R 7 -4 R 8 -5 R 9 -7 R 9 -8 R 10 -11 R 11 -15 R 11 -19 R
11 -25 R 12 -33 R 11 -44 R 10 -57 R 10 -72 R 8 -91 R 7 -109 R 6 -125 R
5 -138 R 5 -147 R 4 -154 R 4 -159 R 4 -163 R 4 -168 R 5 -174 R 5 -178 R
5 -96 R 6 0 R 6 0 R 7 0 R 6 0 R 6 0 R 7 0 R 6 0 R 6 0 R 5 0 R 5 0 R 5 0 R
4 0 R 4 0 R 3 0 R 4 0 R 3 0 R 3 0 R 2 0 R 3 0 R 2 0 R 2 0 R 2 0 R 2 0 R
2 0 R 2 0 R 2 0 R 1 0 R 2 0 R 1 0 R 2 0 R 1 0 R 2 0 R 1 0 R 2 0 R 1 0 R
1 0 R 2 0 R 1 0 R 1 0 R 1 0 R 2 0 R 1 0 R 1 0 R 2 0 R 1 0 R 2 0 R 1 0 R
2 0 R 1 0 R 2 0 R 1 0 R 2 0 R 2 0 R 2 0 R 2 0 R 2 0 R 2 0 R 2 0 R 3 0 R
3 0 R 3 0 R 3 0 R 3 0 R 4 0 R 5 0 R 4 0 R 5 0 R 6 0 R 6 0 R 7 0 R 8 0 R
8 0 R 8 0 R 9 0 R 8 0 R 7 0 R 6 0 R 5 0 R 5 0 R 3 0 R 3 0 R 3 0 R 4 0 R
4 0 R 4 0 R 4 0 R 5 0 R 6 0 R 5 0 R 5 0 R 6 0 R 5 0 R 4 0 R 4 0 R 4 0 R
3 0 R 3 0 R 3 0 R 3 0 R 2 0 R 2 0 R 2 0 R 1 0 R 2 0 R 1 0 R 2 0 R 1 0 R
1 0 R 1 0 R 1 0 R 1 0 R 1 0 R 1 0 R 1 0 R 1 0 R 1 0 R 1 0 R 1 0 R 1 0 R
1 0 R 1 0 R 1 0 R 1 0 R 1 0 R 1 0 R 1 0 R 1 0 R 1 0 R 1 0 R 1 0 R 1 0 R
1 0 R 1 0 R 1 0 R 2 0 R 1 0 R 1 0 R 1 0 R 2 0 R 1 0 R 2 0 R 2 0 R 2 0 R
2 0 R 2 0 R 3 0 R 3 0 R 3 0 R 4 0 R 4 0 R 5 0 R 6 0 R 6 0 R 6 0 R 7 0 R
7 0 R 7 0 R 5 0 R 4 0 R 4 0 R 2 0 R 3 0 R 3 0 R 3 0 R 4 0 R 4 0 R 4 0 R
5 0 R 5 0 R 5 0 R 4 0 R 4 0 R 4 0 R 3 0 R 3 0 R 2 0 R 2 0 R 2 0 R 1 0 R
2 0 R 1 0 R 1 0 R 1 0 R 1 0 R 1 0 R 1 0 R 1 0 R 1 0 R 1 0 R 1 0 R 1 0 R
1 0 R 1 0 R 1 0 R 1 0 R 1 0 R 1 0 R 1 0 R 1 0 R 1 0 R 1 0 R 1 0 R 1 0 R
1 0 R 1 0 R 1 0 R 1 0 R 1 0 R 1 0 R 1 0 R 2 0 R 1 0 R 1 0 R 2 0 R 2 0 R
2 0 R 2 0 R 3 0 R 3 0 R 3 0 R 4 0 R 5 0 R 5 0 R 5 0 R 6 0 R 6 0 R 6 0 R
4 0 R 3 0 R 2 0 R 3 0 R 2 0 R 3 0 R 4 0 R 4 0 R 4 0 R 5 0 R 4 0 R 4 0 R
4 0 R 3 0 R 2 0 R 3 0 R 2 0 R 1 0 R 2 0 R 1 0 R 1 0 R 1 0 R 1 0 R 1 0 R
1 0 R 1 0 R 1 0 R 1 0 R 1 0 R 1 0 R 1 0 R 1 0 R 1 0 R 1 0 R 1 0 R 1 0 R
1 0 R 1 0 R 1 0 R 1 0 R 1 0 R 1 0 R 1 0 R 1 0 R 1 0 R 1 0 R 1 0 R 2 0 R
1 0 R 2 0 R 2 0 R 2 0 R 3 0 R 3 0 R 3 0 R 4 0 R 5 0 R 5 0 R 6 0 R 5 0 R
4 0 R 3 0 R 2 0 R 2 0 R 2 0 R 3 0 R 3 0 R 5 0 R 4 0 R 4 0 R 4 0 R 4 0 R
3 0 R 2 0 R 2 0 R 2 0 R 1 0 R 1 0 R 2 0 R 1 0 R 1 0 R 1 0 R 1 0 R 1 0 R
1 0 R 1 0 R 1 0 R 1 0 R 1 0 R 1 0 R 1 0 R 1 0 R 1 0 R 1 0 R 1 0 R 1 0 R
1 0 R 1 0 R 1 0 R 1 0 R 1 0 R 2 0 R 1 0 R 1 0 R 2 0 R 2 0 R 2 0 R 3 0 R
3 0 R 4 0 R 5 0 R 5 0 R 4 0 R 5 0 R 3 0 R 2 0 R 2 0 R 2 0 R 2 0 R 4 0 R
3 0 R 5 0 R 4 0 R 4 0 R 3 0 R 3 0 R 2 0 R 2 0 R 1 0 R 1 0 R 2 0 R 1 0 R
1 0 R 1 0 R 1 0 R 1 0 R 1 0 R 1 0 R 1 0 R 1 0 R 1 0 R 1 0 R 1 0 R 1 0 R
1 0 R 1 0 R 1 0 R 1 0 R 1 0 R 1 0 R 1 0 R 1 0 R 1 0 R 2 0 R 1 0 R 2 0 R
2 0 R 2 0 R 3 0 R 3 0 R 4 0 R 5 0 R 4 0 R 5 0 R 3 0 R 2 0 R 1 0 R 2 0 R
3 0 R 3 0 R 3 0 R 4 0 R 5 0 R 3 0 R 3 0 R 3 0 R 2 0 R 1 0 R 2 0 R 1 0 R
1 0 R 1 0 R 1 0 R 1 0 R 1 0 R 1 0 R 1 0 R 1 0 R 1 0 R 1 0 R 1 0 R 1 0 R
1 0 R 1 0 R 1 0 R 1 0 R 1 0 R 1 0 R 1 0 R 1 0 R 1 0 R 1 0 R 1 0 R 1 0 R
2 0 R 2 0 R 2 0 R 3 0 R 3 0 R D 10677 1408 M 5722 0 R D 10685 1408 M 0 229 R
D 10218 985 M 210 0 R D 10521 1067 M 0 12 R 12 23 R 12 12 R 23 11 R 47 0 R
23 -11 R 12 -12 R 12 -23 R 0 -24 R -12 -23 R -23 -35 R -117 -117 R 163 0 R D
10814 1125 M -36 -11 R -23 -35 R -12 -59 R 0 -35 R 12 -58 R 23 -35 R
36 -12 R 23 0 R 35 12 R 23 35 R 12 58 R 0 35 R -12 59 R -23 35 R -35 11 R
-23 0 R D 11047 1125 M -35 -11 R -23 -35 R -12 -59 R 0 -35 R 12 -58 R
23 -35 R 35 -12 R 24 0 R 35 12 R 23 35 R 12 58 R 0 35 R -12 59 R -23 35 R
-35 11 R -24 0 R D 12112 1408 M 0 229 R D 11644 985 M 211 0 R D 11971 1079 M
24 11 R 35 35 R 0 -245 R D 12240 1125 M -35 -11 R -23 -35 R -12 -59 R
0 -35 R 12 -58 R 23 -35 R 35 -12 R 23 0 R 36 12 R 23 35 R 12 58 R 0 35 R
-12 59 R -23 35 R -36 11 R -23 0 R D 12474 1125 M -35 -11 R -24 -35 R
-11 -59 R 0 -35 R 11 -58 R 24 -35 R 35 -12 R 23 0 R 35 12 R 24 35 R 11 58 R
0 35 R -11 59 R -24 35 R -35 11 R -23 0 R D 13538 1408 M 0 229 R D
13515 1125 M -35 -11 R -24 -35 R -11 -59 R 0 -35 R 11 -58 R 24 -35 R
35 -12 R 23 0 R 35 12 R 24 35 R 11 58 R 0 35 R -11 59 R -24 35 R -35 11 R
-23 0 R D 14965 1408 M 0 229 R D 14673 1079 M 23 11 R 35 35 R 0 -245 R D
14941 1125 M -35 -11 R -23 -35 R -12 -59 R 0 -35 R 12 -58 R 23 -35 R
35 -12 R 24 0 R 35 12 R 23 35 R 12 58 R 0 35 R -12 59 R -23 35 R -35 11 R
-24 0 R D 15175 1125 M -35 -11 R -23 -35 R -12 -59 R 0 -35 R 12 -58 R
23 -35 R 35 -12 R 23 0 R 35 12 R 24 35 R 11 58 R 0 35 R -11 59 R -24 35 R
-35 11 R -23 0 R D 16391 1408 M 0 229 R D 16076 1067 M 0 12 R 11 23 R
12 12 R 23 11 R 47 0 R 24 -11 R 11 -12 R 12 -23 R 0 -24 R -12 -23 R
-23 -35 R -117 -117 R 164 0 R D 16368 1125 M -35 -11 R -24 -35 R -11 -59 R
0 -35 R 11 -58 R 24 -35 R 35 -12 R 23 0 R 35 12 R 24 35 R 11 58 R 0 35 R
-11 59 R -24 35 R -35 11 R -23 0 R D 16601 1125 M -35 -11 R -23 -35 R
-12 -59 R 0 -35 R 12 -58 R 23 -35 R 35 -12 R 24 0 R 35 12 R 23 35 R 12 58 R
0 35 R -12 59 R -23 35 R -35 11 R -24 0 R D 10828 1408 M 0 115 R D
10970 1408 M 0 115 R D 11113 1408 M 0 115 R D 11256 1408 M 0 115 R D
11398 1408 M 0 115 R D 11541 1408 M 0 115 R D 11684 1408 M 0 115 R D
11826 1408 M 0 115 R D 11969 1408 M 0 115 R D 12254 1408 M 0 115 R D
12397 1408 M 0 115 R D 12540 1408 M 0 115 R D 12682 1408 M 0 115 R D
12825 1408 M 0 115 R D 12967 1408 M 0 115 R D 13110 1408 M 0 115 R D
13253 1408 M 0 115 R D 13395 1408 M 0 115 R D 13681 1408 M 0 115 R D
13823 1408 M 0 115 R D 13966 1408 M 0 115 R D 14109 1408 M 0 115 R D
14251 1408 M 0 115 R D 14394 1408 M 0 115 R D 14537 1408 M 0 115 R D
14679 1408 M 0 115 R D 14822 1408 M 0 115 R D 15107 1408 M 0 115 R D
15250 1408 M 0 115 R D 15393 1408 M 0 115 R D 15535 1408 M 0 115 R D
15678 1408 M 0 115 R D 15821 1408 M 0 115 R D 15963 1408 M 0 115 R D
16106 1408 M 0 115 R D 16249 1408 M 0 115 R D 10677 7130 M 5722 0 R D
10685 7130 M 0 -229 R D 12112 7130 M 0 -229 R D 13538 7130 M 0 -229 R D
14965 7130 M 0 -229 R D 16391 7130 M 0 -229 R D 10828 7130 M 0 -114 R D
10970 7130 M 0 -114 R D 11113 7130 M 0 -114 R D 11256 7130 M 0 -114 R D
11398 7130 M 0 -114 R D 11541 7130 M 0 -114 R D 11684 7130 M 0 -114 R D
11826 7130 M 0 -114 R D 11969 7130 M 0 -114 R D 12254 7130 M 0 -114 R D
12397 7130 M 0 -114 R D 12540 7130 M 0 -114 R D 12682 7130 M 0 -114 R D
12825 7130 M 0 -114 R D 12967 7130 M 0 -114 R D 13110 7130 M 0 -114 R D
13253 7130 M 0 -114 R D 13395 7130 M 0 -114 R D 13681 7130 M 0 -114 R D
13823 7130 M 0 -114 R D 13966 7130 M 0 -114 R D 14109 7130 M 0 -114 R D
14251 7130 M 0 -114 R D 14394 7130 M 0 -114 R D 14537 7130 M 0 -114 R D
14679 7130 M 0 -114 R D 14822 7130 M 0 -114 R D 15107 7130 M 0 -114 R D
15250 7130 M 0 -114 R D 15393 7130 M 0 -114 R D 15535 7130 M 0 -114 R D
15678 7130 M 0 -114 R D 15821 7130 M 0 -114 R D 15963 7130 M 0 -114 R D
16106 7130 M 0 -114 R D 16249 7130 M 0 -114 R D 10677 1408 M 0 5722 R D
10677 1416 M 229 0 R D 9596 1513 M 211 0 R D 9900 1595 M 0 12 R 12 23 R
11 12 R 24 11 R 47 0 R 23 -11 R 12 -12 R 11 -23 R 0 -24 R -11 -23 R
-24 -35 R -117 -117 R 164 0 R D 10192 1653 M -35 -11 R -23 -35 R -12 -59 R
0 -35 R 12 -58 R 23 -35 R 35 -12 R 24 0 R 35 12 R 23 35 R 12 58 R 0 35 R
-12 59 R -23 35 R -35 11 R -24 0 R D 10426 1653 M -35 -11 R -24 -35 R
-11 -59 R 0 -35 R 11 -58 R 24 -35 R 35 -12 R 23 0 R 35 12 R 24 35 R 11 58 R
0 35 R -11 59 R -24 35 R -35 11 R -23 0 R D 10677 2843 M 229 0 R D
9596 2807 M 211 0 R D 9923 2900 M 24 12 R 35 35 R 0 -245 R D 10192 2947 M
-35 -12 R -23 -35 R -12 -58 R 0 -35 R 12 -58 R 23 -36 R 35 -11 R 24 0 R
35 11 R 23 36 R 12 58 R 0 35 R -12 58 R -23 35 R -35 12 R -24 0 R D
10426 2947 M -35 -12 R -24 -35 R -11 -58 R 0 -35 R 11 -58 R 24 -36 R
35 -11 R 23 0 R 35 11 R 24 36 R 11 58 R 0 35 R -11 58 R -24 35 R -35 12 R
-23 0 R D 10677 4269 M 229 0 R D 10426 4374 M -35 -12 R -24 -35 R -11 -58 R
0 -36 R 11 -58 R 24 -35 R 35 -12 R 23 0 R 35 12 R 24 35 R 11 58 R 0 36 R
-11 58 R -24 35 R -35 12 R -23 0 R D 10677 5696 M 229 0 R D 9923 5753 M
24 12 R 35 35 R 0 -245 R D 10192 5800 M -35 -11 R -23 -36 R -12 -58 R
0 -35 R 12 -58 R 23 -35 R 35 -12 R 24 0 R 35 12 R 23 35 R 12 58 R 0 35 R
-12 58 R -23 36 R -35 11 R -24 0 R D 10426 5800 M -35 -11 R -24 -36 R
-11 -58 R 0 -35 R 11 -58 R 24 -35 R 35 -12 R 23 0 R 35 12 R 24 35 R 11 58 R
0 35 R -11 58 R -24 36 R -35 11 R -23 0 R D 10677 7122 M 229 0 R D
9900 7071 M 0 11 R 12 24 R 11 11 R 24 12 R 47 0 R 23 -12 R 12 -11 R 11 -24 R
0 -23 R -11 -23 R -24 -35 R -117 -117 R 164 0 R D 10192 7129 M -35 -12 R
-23 -35 R -12 -58 R 0 -35 R 12 -59 R 23 -35 R 35 -11 R 24 0 R 35 11 R
23 35 R 12 59 R 0 35 R -12 58 R -23 35 R -35 12 R -24 0 R D 10426 7129 M
-35 -12 R -24 -35 R -11 -58 R 0 -35 R 11 -59 R 24 -35 R 35 -11 R 23 0 R
35 11 R 24 35 R 11 59 R 0 35 R -11 58 R -24 35 R -35 12 R -23 0 R D
10677 1559 M 115 0 R D 10677 1701 M 115 0 R D 10677 1844 M 115 0 R D
10677 1987 M 115 0 R D 10677 2129 M 115 0 R D 10677 2272 M 115 0 R D
10677 2415 M 115 0 R D 10677 2557 M 115 0 R D 10677 2700 M 115 0 R D
10677 2985 M 115 0 R D 10677 3128 M 115 0 R D 10677 3271 M 115 0 R D
10677 3413 M 115 0 R D 10677 3556 M 115 0 R D 10677 3699 M 115 0 R D
10677 3841 M 115 0 R D 10677 3984 M 115 0 R D 10677 4126 M 115 0 R D
10677 4412 M 115 0 R D 10677 4554 M 115 0 R D 10677 4697 M 115 0 R D
10677 4840 M 115 0 R D 10677 4982 M 115 0 R D 10677 5125 M 115 0 R D
10677 5268 M 115 0 R D 10677 5410 M 115 0 R D 10677 5553 M 115 0 R D
10677 5838 M 115 0 R D 10677 5981 M 115 0 R D 10677 6124 M 115 0 R D
10677 6266 M 115 0 R D 10677 6409 M 115 0 R D 10677 6552 M 115 0 R D
10677 6694 M 115 0 R D 10677 6837 M 115 0 R D 10677 6980 M 115 0 R D
16399 1408 M 0 5722 R D 16399 1416 M -229 0 R D 16399 2843 M -229 0 R D
16399 4269 M -229 0 R D 16399 5696 M -229 0 R D 16399 7122 M -229 0 R D
16399 1559 M -114 0 R D 16399 1701 M -114 0 R D 16399 1844 M -114 0 R D
16399 1987 M -114 0 R D 16399 2129 M -114 0 R D 16399 2272 M -114 0 R D
16399 2415 M -114 0 R D 16399 2557 M -114 0 R D 16399 2700 M -114 0 R D
16399 2985 M -114 0 R D 16399 3128 M -114 0 R D 16399 3271 M -114 0 R D
16399 3413 M -114 0 R D 16399 3556 M -114 0 R D 16399 3699 M -114 0 R D
16399 3841 M -114 0 R D 16399 3984 M -114 0 R D 16399 4126 M -114 0 R D
16399 4412 M -114 0 R D 16399 4554 M -114 0 R D 16399 4697 M -114 0 R D
16399 4840 M -114 0 R D 16399 4982 M -114 0 R D 16399 5125 M -114 0 R D
16399 5268 M -114 0 R D 16399 5410 M -114 0 R D 16399 5553 M -114 0 R D
16399 5838 M -114 0 R D 16399 5981 M -114 0 R D 16399 6124 M -114 0 R D
16399 6266 M -114 0 R D 16399 6409 M -114 0 R D 16399 6552 M -114 0 R D
16399 6694 M -114 0 R D 16399 6837 M -114 0 R D 16399 6980 M -114 0 R D
16399 4269 M -220 121 R -234 114 R -243 104 R -246 92 R -241 78 R -233 62 R
-218 46 R -200 33 R -183 20 R -164 10 R -146 1 R -131 -5 R -118 -11 R
-106 -14 R -96 -19 R -89 -21 R -82 -23 R -78 -27 R -74 -28 R -70 -31 R
-69 -33 R -68 -36 R -66 -39 R -67 -43 R -66 -46 R -66 -50 R -67 -53 R
-66 -59 R -66 -62 R -66 -66 R -64 -71 R -62 -73 R -61 -77 R -57 -78 R
-53 -80 R -50 -80 R -45 -79 R -40 -78 R -35 -75 R -30 -73 R -26 -68 R
-22 -65 R -17 -61 R -14 -57 R -11 -53 R -7 -49 R -6 -45 R -3 -42 R -1 -38 R
0 -36 R 1 -33 R 3 -30 R 4 -28 R 4 -26 R 5 -24 R 6 -23 R 6 -21 R 7 -19 R
7 -18 R 8 -17 R 8 -16 R 8 -15 R 9 -15 R 9 -13 R 9 -12 R 9 -12 R 10 -12 R
10 -10 R 11 -10 R 10 -10 R 11 -9 R 12 -8 R 12 -9 R 12 -7 R 13 -7 R 13 -7 R
13 -6 R 15 -6 R 15 -6 R 16 -5 R 16 -4 R 17 -4 R 19 -3 R 19 -3 R 21 -1 R
22 -1 R 23 0 R 25 1 R 27 2 R 29 4 R 31 5 R 33 7 R 36 10 R 40 12 R 42 15 R
47 20 R 50 23 R 55 28 R 59 35 R 64 40 R 69 49 R 73 56 R 77 65 R 79 74 R
81 83 R 80 90 R 77 96 R 73 100 R 66 102 R 58 99 R 50 96 R 41 90 R 32 84 R
26 76 R 19 70 R 14 64 R 10 59 R 7 54 R 4 51 R 1 48 R -1 47 R -2 45 R -5 45 R
-6 45 R -7 46 R -10 46 R -12 46 R -13 47 R -16 48 R -17 47 R -19 48 R
-21 46 R -23 46 R -23 44 R -25 41 R -25 39 R -25 36 R -25 32 R -24 30 R
-23 26 R -23 24 R -21 21 R -21 18 R -19 16 R -18 13 R -17 12 R -16 10 R
-15 9 R -14 7 R -13 6 R -12 6 R -12 4 R -11 4 R -10 3 R -10 2 R -9 2 R
-9 1 R -8 1 R -9 1 R -7 0 R -8 0 R -7 -1 R -7 0 R -7 -1 R -6 -1 R -6 -2 R
-7 -1 R -6 -2 R -5 -3 R -6 -2 R -6 -3 R -5 -3 R -6 -3 R -5 -3 R -6 -4 R
-5 -4 R -6 -4 R -5 -5 R -5 -5 R -5 -6 R -6 -6 R -5 -7 R -5 -7 R -5 -8 R
-5 -9 R -5 -9 R -5 -11 R -5 -12 R -5 -13 R -5 -14 R -5 -16 R -4 -18 R
-3 -20 R -4 -22 R -2 -26 R -2 -28 R 0 -32 R 2 -36 R 3 -40 R 6 -45 R 8 -50 R
13 -54 R 16 -58 R 20 -61 R 24 -63 R 27 -62 R 30 -59 R 32 -55 R 32 -49 R
32 -43 R 30 -37 R 28 -31 R 27 -26 R 25 -22 R 24 -20 R 24 -17 R 23 -16 R
24 -15 R 24 -14 R 25 -13 R 26 -13 R 28 -12 R 27 -11 R 29 -10 R 29 -10 R
29 -8 R 28 -7 R 27 -6 R 26 -4 R 25 -3 R 22 -3 R 20 -1 R 19 0 R 17 0 R 14 1 R
14 2 R 11 1 R 11 2 R 9 2 R 8 2 R 8 3 R 6 2 R 6 2 R 5 3 R 5 2 R 5 3 R 3 2 R
4 2 R 3 3 R 3 2 R 3 2 R 2 3 R 2 2 R 2 2 R 2 3 R 2 2 R 2 2 R 1 3 R 1 2 R
1 2 R 2 3 R 1 2 R 0 2 R 1 3 R 1 2 R 0 3 R 1 3 R 0 2 R 0 3 R 1 3 R 0 3 R
0 3 R -1 3 R 0 4 R -1 3 R -1 4 R -1 4 R -1 4 R -1 5 R -2 5 R -3 5 R -3 5 R
-3 6 R -4 7 R -5 7 R -6 8 R -7 8 R -8 10 R -10 10 R -12 11 R -15 12 R
-17 14 R -21 15 R -24 15 R -28 17 R -33 16 R -36 17 R -39 15 R -40 13 R
-39 11 R -37 7 R -33 5 R -28 3 R -25 1 R -21 -1 R -20 -1 R -18 -2 R -18 -3 R
-18 -3 R -18 -4 R -19 -5 R -20 -5 R -19 -6 R -19 -7 R -19 -7 R -17 -7 R
-16 -8 R -14 -7 R -12 -7 R -11 -6 R -9 -7 R -7 -5 R -7 -5 R -5 -5 R -4 -4 R
-4 -4 R -3 -3 R -3 -4 R -2 -2 R -2 -3 R -1 -3 R -2 -2 R -1 -2 R -1 -2 R
-1 -2 R 0 -1 R -1 -2 R 0 -2 R 0 -1 R -1 -2 R 0 -1 R 0 -1 R 0 -1 R 0 -2 R
0 -1 R 0 -1 R 0 -1 R 0 -1 R 0 -1 R 1 -1 R 0 -1 R 0 -1 R 1 -1 R 0 -1 R 1 -1 R
0 -1 R 1 -1 R 0 -1 R 1 -1 R 1 -1 R 1 -1 R 1 -1 R 1 -1 R 1 -1 R 1 -1 R 2 -2 R
2 -1 R 1 -1 R 2 -1 R 3 -1 R 3 -2 R 3 -1 R 3 -1 R 4 -2 R 5 -1 R 6 -1 R 7 -2 R
7 -1 R 10 -1 R 11 0 R 13 0 R 16 0 R 19 2 R 22 3 R 25 4 R 27 7 R 28 8 R
26 9 R 24 10 R 19 10 R 16 9 R 12 8 R 11 7 R 10 8 R 10 8 R 10 9 R 10 10 R
11 11 R 10 11 R 10 11 R 9 11 R 8 11 R 7 9 R 5 8 R 4 8 R 4 6 R 2 5 R 2 4 R
2 4 R 1 4 R 1 2 R 0 3 R 1 2 R 0 2 R 0 1 R 0 2 R 0 1 R 0 1 R 0 1 R 0 1 R
0 1 R 0 1 R -1 1 R 0 1 R 0 1 R -1 1 R 0 1 R -1 0 R 0 1 R -1 1 R -1 1 R
-1 0 R -1 1 R -1 0 R -1 1 R -1 0 R -1 0 R -1 0 R -1 0 R -1 0 R -1 0 R -1 0 R
-2 0 R -1 0 R -2 0 R -2 0 R -2 -1 R -3 -1 R -3 -1 R -4 -1 R -5 -2 R -5 -2 R
-6 -4 R -8 -4 R -10 -6 R -11 -8 R -13 -10 R -14 -12 R -16 -15 R -14 -15 R
-13 -15 R -10 -13 R -6 -11 R -5 -8 R -5 -8 R -4 -9 R -4 -9 R -4 -10 R
-4 -11 R -4 -12 R -3 -11 R -3 -11 R -2 -9 R -2 -8 R 0 -6 R -1 -5 R 0 -4 R
0 -3 R 0 -3 R 0 -2 R 0 -1 R 1 -2 R 0 -1 R 0 -1 R 0 -1 R 1 -1 R 0 -1 R 1 -1 R
0 -1 R 1 0 R 0 -1 R 1 0 R 0 -1 R 1 0 R 1 0 R 1 0 R 1 0 R 1 0 R 1 0 R 1 0 R
1 1 R 1 0 R 1 1 R 1 0 R 1 1 R 1 1 R 1 1 R 2 2 R 2 2 R 2 2 R 2 3 R 3 4 R
4 5 R 4 7 R 6 9 R 5 11 R 7 14 R 6 15 R 5 16 R 4 13 R 1 10 R 1 7 R 1 7 R
1 7 R 0 9 R 0 9 R 0 10 R -1 10 R -1 9 R -1 8 R -1 6 R -1 5 R -1 4 R -1 2 R
-1 2 R 0 2 R -1 1 R 0 1 R -1 1 R 0 1 R -1 0 R 0 1 R -1 0 R 0 1 R -1 0 R
0 1 R -1 0 R -1 0 R -1 0 R -1 0 R 0 -1 R -1 0 R 0 -1 R -1 0 R 0 -1 R -1 0 R
0 -1 R -1 -1 R 0 -1 R -1 -1 R 0 -1 R -1 -2 R -1 -2 R -1 -3 R -1 -4 R -1 -5 R
-1 -7 R -1 -8 R -1 -11 R 0 -13 R 0 -14 R 1 -11 R 1 -8 R 1 -6 R 2 -6 R 1 -6 R
2 -6 R 3 -8 R 3 -8 R 4 -8 R 3 -7 R 3 -5 R 2 -4 R 2 -3 R 1 -2 R 1 -1 R 1 -1 R
1 -1 R 0 -1 R 1 0 R 1 -1 R 1 0 R 0 -1 R 1 0 R 1 0 R 1 0 R 0 1 R 1 0 R 0 1 R
0 1 R 1 0 R 0 1 R 0 1 R 0 1 R 0 1 R 0 1 R 0 2 R 0 1 R 0 3 R 0 3 R -1 5 R
-1 5 R -2 8 R -2 9 R -4 11 R -4 10 R -3 7 R -3 5 R -2 4 R -3 4 R -3 5 R
-5 6 R -4 6 R -5 6 R -5 5 R -4 3 R -3 3 R -2 2 R -2 1 R -1 1 R -1 1 R -1 0 R
-1 1 R -1 0 R -1 0 R -1 0 R -1 -1 R 0 -1 R 0 -1 R 0 -1 R 0 -1 R 0 -1 R
0 -1 R 1 -1 R 0 -1 R 1 -2 R 1 -2 R 1 -3 R 3 -4 R 3 -6 R 4 -6 R 5 -8 R 6 -7 R
5 -6 R 4 -4 R 3 -2 R 4 -3 R 4 -3 R 5 -4 R 6 -4 R 6 -4 R 5 -3 R 5 -2 R 3 -2 R
2 -1 R 2 0 R 1 -1 R 1 0 R 1 0 R 1 0 R 1 0 R 1 0 R 0 1 R 1 0 R 0 1 R 0 1 R
-1 0 R 0 1 R 0 1 R -1 0 R 0 1 R -1 1 R 0 1 R -1 1 R -2 2 R -2 2 R -3 3 R D
406 24463 M 0 -213 R D 406 24402 M 45 45 R 31 16 R 45 0 R 30 -16 R 16 -45 R
0 -152 R D 573 24402 M 45 45 R 31 16 R 45 0 R 31 -16 R 15 -45 R 0 -152 R D
861 24569 M 0 -319 R D 983 24463 M 0 -213 R D 983 24372 M 15 45 R 30 30 R
31 16 R 45 0 R D 1180 24432 M 274 0 R D 1180 24341 M 274 0 R D 1606 24508 M
30 15 R 45 46 R 0 -319 R D 1894 24280 M -15 -15 R 15 -15 R 15 15 R -15 15 R
D 2092 24569 M -46 -15 R -15 -31 R 0 -30 R 15 -30 R 30 -16 R 61 -15 R
46 -15 R 30 -30 R 15 -31 R 0 -45 R -15 -31 R -15 -15 R -46 -15 R -60 0 R
-46 15 R -15 15 R -15 31 R 0 45 R 15 31 R 30 30 R 46 15 R 61 15 R 30 16 R
15 30 R 0 30 R -15 31 R -46 15 R -60 0 R D 2365 24508 M 30 15 R 46 46 R
0 -319 R D
%%PageTrailer
end
%%PageResources: font Helvetica
%%Trailer
%%Pages: 1
%%DocumentNeededResources: font Helvetica
%%EOF
