%!PS-Adobe-3.0 EPSF-3.0
%%BoundingBox: 0 0 510 629
%%Title: Graphics produced by IDL
%%For: jlgan@aida119, /home/jlgan/work/subhalo_model
%%Creator: IDL Version 7.0 (linux x86_64 m64)
%%CreationDate: Tue Apr  7 17:53:13 2009
%%DocumentData: Clean7bit
%%Requirements: color
%%LanguageLevel: 1
%%PageOrder: Ascend
%%Pages: (atend)
%%DocumentNeededResources: (atend)
%%EndComments
%%BeginProlog
%+ prolog.ps -- Prolog for IDL generated PostScript files
%+ Copyright (c) 1988-2007 ITT Visual Information Solutions. All Rights Reserved.
%v 5
/$IDL_DICT 40 dict def $IDL_DICT begin /bdef { bind def } bind def /C
{currentpoint newpath moveto} bdef /CP {currentpoint} bdef /D {currentpoint
stroke moveto} bdef /F {closepath fill} bdef /K { setgray } bdef /M {moveto}
bdef /N {rmoveto} bdef /P {lineto} bdef /R {rlineto} bdef /S {gsave show
grestore} bdef /X {currentpoint pop} bdef /Z {gsave currentpoint lineto 20
setlinewidth 1 setlinecap stroke grestore} bdef /L0 {[] 0 setdash} bdef /L1
{[40 100] 0 setdash} bdef /L2 {[200 200] 0 setdash} bdef /L3 {[200 100 50
100] 0 setdash} bdef /L4 {[300 100 50 100 50 100 50 100] 0 setdash} bdef /L5
{[400 200] 0 setdash} bdef /STDFONT { findfont exch scalefont setfont } bdef
/ISOFONT { findfont dup length dict begin { 1 index /FID ne {def} {pop pop}
ifelse } forall /Encoding ISOLatin1Encoding def currentdict end /idltmpfont
exch definefont exch scalefont setfont } bdef /ISOBULLET { gsave /Helvetica
findfont exch scalefont setfont (\267) show currentpoint grestore moveto}
bdef /MITERLIMIT { 2.5 setmiterlimit } bdef end
%%EndProlog
%%Page: 0 1
%%PageRequirements: color
%%PageResources: (atend)
%%PageOrientation: Portrait
%%PageBoundingBox: 0 0 510 629
%%BeginPageSetup
$IDL_DICT begin 0.0283465 dup scale MITERLIMIT
%%IncludeResource: font Helvetica
423.333 /Helvetica STDFONT
%%EndPageSetup
30 setlinewidth L0 0.000 0.000 0.000 setrgbcolor 9292 516 M 0 -164 R D
9292 446 M 12 35 R 23 23 R 24 12 R 35 0 R D 9631 644 M -210 -385 R D
9701 597 M 0 -245 R D 9818 516 M -117 -117 R D 9748 446 M 82 -94 R D
9900 516 M 0 -257 R D 9900 481 M 23 23 R 24 12 R 35 0 R 23 -12 R 23 -23 R
12 -35 R 0 -24 R -12 -35 R -23 -23 R -23 -12 R -35 0 R -24 12 R -23 23 R D
10250 481 M -23 23 R -23 12 R -35 0 R -24 -12 R -23 -23 R -12 -35 R 0 -24 R
12 -35 R 23 -23 R 24 -12 R 35 0 R 23 12 R 23 23 R D 725 10967 M 163 0 R D
795 10967 M -35 12 R -24 23 R -11 24 R 0 35 R D 596 11306 M 386 -210 R D
643 11376 M 245 0 R D 725 11493 M 116 -117 R D 795 11423 M 93 82 R D
725 11575 M 257 0 R D 760 11575 M -24 23 R -11 24 R 0 35 R 11 23 R 24 23 R
35 12 R 23 0 R 35 -12 R 23 -23 R 12 -23 R 0 -35 R -12 -24 R -23 -23 R D
760 11925 M -24 -23 R -11 -23 R 0 -35 R 11 -24 R 24 -23 R 35 -12 R 23 0 R
35 12 R 23 23 R 12 24 R 0 35 R -12 23 R -23 23 R D 20 setlinewidth
2220 16474 M 5022 0 R D 2227 16474 M 0 201 R D 3479 16474 M 0 201 R D
4731 16474 M 0 201 R D 5983 16474 M 0 201 R D 7235 16474 M 0 201 R D
2477 16474 M 0 101 R D 2728 16474 M 0 101 R D 2978 16474 M 0 101 R D
3229 16474 M 0 101 R D 3729 16474 M 0 101 R D 3980 16474 M 0 101 R D
4230 16474 M 0 101 R D 4481 16474 M 0 101 R D 4981 16474 M 0 101 R D
5232 16474 M 0 101 R D 5482 16474 M 0 101 R D 5733 16474 M 0 101 R D
6234 16474 M 0 101 R D 6484 16474 M 0 101 R D 6734 16474 M 0 101 R D
6985 16474 M 0 101 R D 2220 21496 M 5022 0 R D 2227 21496 M 0 -201 R D
3479 21496 M 0 -201 R D 4731 21496 M 0 -201 R D 5983 21496 M 0 -201 R D
7235 21496 M 0 -201 R D 2477 21496 M 0 -100 R D 2728 21496 M 0 -100 R D
2978 21496 M 0 -100 R D 3229 21496 M 0 -100 R D 3729 21496 M 0 -100 R D
3980 21496 M 0 -100 R D 4230 21496 M 0 -100 R D 4481 21496 M 0 -100 R D
4981 21496 M 0 -100 R D 5232 21496 M 0 -100 R D 5482 21496 M 0 -100 R D
5733 21496 M 0 -100 R D 6234 21496 M 0 -100 R D 6484 21496 M 0 -100 R D
6734 21496 M 0 -100 R D 6985 21496 M 0 -100 R D 2220 16474 M 0 5022 R D
2220 16481 M 201 0 R D 30 setlinewidth 1139 16579 M 211 0 R D 1466 16673 M
24 11 R 35 35 R 0 -245 R D 1735 16719 M -35 -11 R -23 -35 R -12 -59 R
0 -35 R 12 -58 R 23 -35 R 35 -12 R 24 0 R 35 12 R 23 35 R 12 58 R 0 35 R
-12 59 R -23 35 R -35 11 R -24 0 R D 1969 16719 M -35 -11 R -24 -35 R
-11 -59 R 0 -35 R 11 -58 R 24 -35 R 35 -12 R 23 0 R 35 12 R 24 35 R 11 58 R
0 35 R -11 59 R -24 35 R -35 11 R -23 0 R D 20 setlinewidth 2220 17733 M
201 0 R D 30 setlinewidth 1373 17697 M 210 0 R D 1805 17838 M -117 0 R
-11 -105 R 11 11 R 36 12 R 35 0 R 35 -12 R 23 -23 R 12 -35 R 0 -24 R
-12 -35 R -23 -23 R -35 -12 R -35 0 R -36 12 R -11 12 R -12 23 R D
1969 17838 M -35 -12 R -24 -35 R -11 -58 R 0 -36 R 11 -58 R 24 -35 R
35 -12 R 23 0 R 35 12 R 24 35 R 11 58 R 0 36 R -11 58 R -24 35 R -35 12 R
-23 0 R D 20 setlinewidth 2220 18985 M 201 0 R D 30 setlinewidth
1969 19090 M -35 -12 R -24 -35 R -11 -58 R 0 -36 R 11 -58 R 24 -35 R
35 -12 R 23 0 R 35 12 R 24 35 R 11 58 R 0 36 R -11 58 R -24 35 R -35 12 R
-23 0 R D 20 setlinewidth 2220 20237 M 201 0 R D 30 setlinewidth
1805 20342 M -117 0 R -11 -105 R 11 11 R 36 12 R 35 0 R 35 -12 R 23 -23 R
12 -35 R 0 -24 R -12 -35 R -23 -23 R -35 -12 R -35 0 R -36 12 R -11 12 R
-12 23 R D 1969 20342 M -35 -12 R -24 -35 R -11 -58 R 0 -36 R 11 -58 R
24 -35 R 35 -12 R 23 0 R 35 12 R 24 35 R 11 58 R 0 36 R -11 58 R -24 35 R
-35 12 R -23 0 R D 20 setlinewidth 2220 21489 M 201 0 R D 30 setlinewidth
1466 21448 M 24 12 R 35 35 R 0 -245 R D 1735 21495 M -35 -12 R -23 -35 R
-12 -58 R 0 -35 R 12 -59 R 23 -35 R 35 -11 R 24 0 R 35 11 R 23 35 R 12 59 R
0 35 R -12 58 R -23 35 R -35 12 R -24 0 R D 1969 21495 M -35 -12 R -24 -35 R
-11 -58 R 0 -35 R 11 -59 R 24 -35 R 35 -11 R 23 0 R 35 11 R 24 35 R 11 59 R
0 35 R -11 58 R -24 35 R -35 12 R -23 0 R D 20 setlinewidth 2220 16731 M
101 0 R D 2220 16982 M 101 0 R D 2220 17232 M 101 0 R D 2220 17483 M 101 0 R
D 2220 17983 M 101 0 R D 2220 18234 M 101 0 R D 2220 18484 M 101 0 R D
2220 18735 M 101 0 R D 2220 19236 M 101 0 R D 2220 19486 M 101 0 R D
2220 19736 M 101 0 R D 2220 19987 M 101 0 R D 2220 20488 M 101 0 R D
2220 20738 M 101 0 R D 2220 20988 M 101 0 R D 2220 21239 M 101 0 R D
7242 16474 M 0 5022 R D 7242 16481 M -201 0 R D 7242 17733 M -201 0 R D
7242 18985 M -201 0 R D 7242 20237 M -201 0 R D 7242 21489 M -201 0 R D
7242 16731 M -100 0 R D 7242 16982 M -100 0 R D 7242 17232 M -100 0 R D
7242 17483 M -100 0 R D 7242 17983 M -100 0 R D 7242 18234 M -100 0 R D
7242 18484 M -100 0 R D 7242 18735 M -100 0 R D 7242 19236 M -100 0 R D
7242 19486 M -100 0 R D 7242 19736 M -100 0 R D 7242 19987 M -100 0 R D
7242 20488 M -100 0 R D 7242 20738 M -100 0 R D 7242 20988 M -100 0 R D
7242 21239 M -100 0 R D 7242 19541 M -1130 -3067 R D 4951 21496 M
-1641 -5022 R D 3700 16474 M 1305 3746 R -2785 1171 R D
0.208 0.208 0.208 setrgbcolor 4706 18985 M 1 5 R 0 2 R 1 2 R 0 1 R 1 1 R
0 1 R 1 1 R 0 1 R 1 0 R 0 1 R 1 1 R 1 1 R 1 1 R 1 1 R 1 1 R 1 1 R 1 0 R
0 1 R 1 0 R 1 0 R 0 1 R 1 0 R 1 0 R 1 1 R 1 0 R 1 0 R 1 1 R 1 0 R 1 0 R
1 0 R 1 0 R 1 0 R 1 0 R 1 0 R 1 0 R 1 0 R 1 0 R 1 0 R 0 -1 R 1 0 R 1 0 R
1 0 R 0 -1 R 1 0 R 1 0 R 1 -1 R 1 0 R 1 -1 R 1 0 R 0 -1 R 1 0 R 0 -1 R 1 0 R
0 -1 R 1 0 R 0 -1 R 1 0 R 0 -1 R 1 0 R 0 -1 R 1 -1 R 1 -1 R 0 -1 R 1 -1 R
0 -1 R 1 -1 R 0 -2 R 1 -2 R 0 -5 R D 4706 18985 M 1 -5 R 0 -2 R 1 -1 R
0 -2 R 1 -1 R 0 -1 R 1 -1 R 1 -1 R 0 -1 R 1 -1 R 1 -1 R 1 -1 R 1 -1 R 1 -1 R
1 0 R 0 -1 R 1 0 R 1 -1 R 1 0 R 1 -1 R 1 0 R 1 0 R 0 -1 R 1 0 R 1 0 R 1 0 R
1 -1 R 1 0 R 1 0 R 1 0 R 1 0 R 1 0 R 1 0 R 1 0 R 1 0 R 1 0 R 0 1 R 1 0 R
1 0 R 1 0 R 1 1 R 1 0 R 1 0 R 0 1 R 1 0 R 1 0 R 0 1 R 1 0 R 1 1 R 1 0 R
0 1 R 1 0 R 0 1 R 1 0 R 0 1 R 1 0 R 0 1 R 1 0 R 0 1 R 1 1 R 0 1 R 1 0 R
0 1 R 1 1 R 0 1 R 1 2 R 0 1 R 1 2 R 0 5 R D 0.000 0.000 0.000 setrgbcolor
4731 18985 M Z 30 setlinewidth 5625 17473 M -117 -164 R 175 0 R D
5625 17473 M 0 -246 R D 5882 17473 M -117 0 R -12 -105 R 12 11 R 35 12 R
35 0 R 35 -12 R 23 -23 R 12 -35 R 0 -23 R -12 -36 R -23 -23 R -35 -12 R
-35 0 R -35 12 R -12 12 R -12 23 R D 5998 17251 M -11 -12 R 11 -12 R 12 12 R
-12 12 R D 6162 17473 M -35 -12 R -23 -35 R -12 -58 R 0 -35 R 12 -59 R
23 -35 R 35 -12 R 23 0 R 35 12 R 24 35 R 12 59 R 0 35 R -12 58 R -24 35 R
-35 12 R -23 0 R D 6501 17414 M -12 24 R -23 23 R -24 12 R -46 0 R -24 -12 R
-23 -23 R -12 -24 R -11 -35 R 0 -58 R 11 -35 R 12 -24 R 23 -23 R 24 -12 R
46 0 R 24 12 R 23 23 R 12 24 R 0 35 R -59 0 R D 6559 17391 M 70 -164 R
71 164 R D 6629 17227 M -23 -58 R -23 -23 R -24 -12 R -11 0 R D 6770 17391 M
0 -164 R D 6770 17321 M 11 35 R 24 23 R 23 12 R 35 0 R D 5566 17121 M
-35 -12 R -12 -23 R 0 -24 R 12 -23 R 23 -12 R 47 -11 R 35 -12 R 24 -23 R
11 -24 R 0 -35 R -11 -23 R -12 -12 R -35 -12 R -47 0 R -35 12 R -12 12 R
-11 23 R 0 35 R 11 24 R 24 23 R 35 12 R 47 11 R 23 12 R 12 23 R 0 24 R
-12 23 R -35 12 R -47 0 R D 5765 16899 M -12 -12 R 12 -12 R 11 12 R -11 12 R
D 5893 17074 M 24 12 R 35 35 R 0 -246 R D 6092 16969 M 140 0 R 0 23 R
-12 24 R -11 11 R -24 12 R -35 0 R -23 -12 R -23 -23 R -12 -35 R 0 -23 R
12 -36 R 23 -23 R 23 -12 R 35 0 R 24 12 R 23 23 R D 6372 17121 M -35 -12 R
-23 -35 R -12 -58 R 0 -35 R 12 -59 R 23 -35 R 35 -12 R 24 0 R 35 12 R
23 35 R 12 59 R 0 35 R -12 58 R -23 35 R -35 12 R -24 0 R D 6594 17121 M
-35 -12 R -11 -23 R 0 -24 R 11 -23 R 24 -12 R 46 -11 R 35 -12 R 24 -23 R
12 -24 R 0 -35 R -12 -23 R -12 -12 R -35 -12 R -47 0 R -35 12 R -11 12 R
-12 23 R 0 35 R 12 24 R 23 23 R 35 12 R 47 11 R 23 12 R 12 23 R 0 24 R
-12 23 R -35 12 R -47 0 R D 6781 17121 M 0 -246 R D 6781 17121 M 94 -246 R
93 246 R 0 -246 R D 7121 16862 M -8 14 R -21 8 R -22 0 R -22 -8 R -7 -14 R
7 -15 R 15 -7 R 36 -7 R 14 -7 R 8 -15 R 0 -7 R -8 -14 R -21 -8 R -22 0 R
-22 8 R -7 14 R D 7171 16884 M 0 -73 R 8 -21 R 14 -8 R 22 0 R 14 8 R 22 21 R
D 7251 16884 M 0 -102 R D 7309 16884 M 0 -102 R D 7309 16855 M 21 21 R
15 8 R 22 0 R 14 -8 R 7 -21 R 0 -73 R D 20 setlinewidth 7258 16474 M
5022 0 R D 7265 16474 M 0 201 R D 8517 16474 M 0 201 R D 9769 16474 M
0 201 R D 11021 16474 M 0 201 R D 12273 16474 M 0 201 R D 7515 16474 M
0 101 R D 7766 16474 M 0 101 R D 8016 16474 M 0 101 R D 8267 16474 M 0 101 R
D 8767 16474 M 0 101 R D 9018 16474 M 0 101 R D 9268 16474 M 0 101 R D
9519 16474 M 0 101 R D 10019 16474 M 0 101 R D 10270 16474 M 0 101 R D
10520 16474 M 0 101 R D 10771 16474 M 0 101 R D 11272 16474 M 0 101 R D
11522 16474 M 0 101 R D 11772 16474 M 0 101 R D 12023 16474 M 0 101 R D
7258 21496 M 5022 0 R D 7265 21496 M 0 -201 R D 8517 21496 M 0 -201 R D
9769 21496 M 0 -201 R D 11021 21496 M 0 -201 R D 12273 21496 M 0 -201 R D
7515 21496 M 0 -100 R D 7766 21496 M 0 -100 R D 8016 21496 M 0 -100 R D
8267 21496 M 0 -100 R D 8767 21496 M 0 -100 R D 9018 21496 M 0 -100 R D
9268 21496 M 0 -100 R D 9519 21496 M 0 -100 R D 10019 21496 M 0 -100 R D
10270 21496 M 0 -100 R D 10520 21496 M 0 -100 R D 10771 21496 M 0 -100 R D
11272 21496 M 0 -100 R D 11522 21496 M 0 -100 R D 11772 21496 M 0 -100 R D
12023 21496 M 0 -100 R D 7258 16474 M 0 5022 R D 7258 16481 M 201 0 R D
7258 17733 M 201 0 R D 7258 18985 M 201 0 R D 7258 20237 M 201 0 R D
7258 21489 M 201 0 R D 7258 16731 M 101 0 R D 7258 16982 M 101 0 R D
7258 17232 M 101 0 R D 7258 17483 M 101 0 R D 7258 17983 M 101 0 R D
7258 18234 M 101 0 R D 7258 18484 M 101 0 R D 7258 18735 M 101 0 R D
7258 19236 M 101 0 R D 7258 19486 M 101 0 R D 7258 19736 M 101 0 R D
7258 19987 M 101 0 R D 7258 20488 M 101 0 R D 7258 20738 M 101 0 R D
7258 20988 M 101 0 R D 7258 21239 M 101 0 R D 12280 16474 M 0 5022 R D
12280 16481 M -201 0 R D 12280 17733 M -201 0 R D 12280 18985 M -201 0 R D
12280 20237 M -201 0 R D 12280 21489 M -201 0 R D 12280 16731 M -100 0 R D
12280 16982 M -100 0 R D 12280 17232 M -100 0 R D 12280 17483 M -100 0 R D
12280 17983 M -100 0 R D 12280 18234 M -100 0 R D 12280 18484 M -100 0 R D
12280 18735 M -100 0 R D 12280 19236 M -100 0 R D 12280 19486 M -100 0 R D
12280 19736 M -100 0 R D 12280 19987 M -100 0 R D 12280 20488 M -100 0 R D
12280 20738 M -100 0 R D 12280 20988 M -100 0 R D 12280 21239 M -100 0 R D
12280 20220 M -2593 1276 R D 0.208 0.208 0.208 setrgbcolor 9744 18985 M
1 5 R 0 2 R 1 2 R 0 1 R 1 1 R 0 1 R 1 1 R 0 1 R 1 0 R 0 1 R 1 1 R 1 1 R
1 1 R 1 1 R 1 1 R 1 1 R 1 0 R 0 1 R 1 0 R 1 0 R 0 1 R 1 0 R 1 0 R 1 1 R
1 0 R 1 0 R 1 1 R 1 0 R 1 0 R 1 0 R 1 0 R 1 0 R 1 0 R 1 0 R 1 0 R 1 0 R
1 0 R 1 0 R 0 -1 R 1 0 R 1 0 R 1 0 R 0 -1 R 1 0 R 1 0 R 1 -1 R 1 0 R 1 -1 R
1 0 R 0 -1 R 1 0 R 0 -1 R 1 0 R 0 -1 R 1 0 R 0 -1 R 1 0 R 0 -1 R 1 0 R
0 -1 R 1 -1 R 1 -1 R 0 -1 R 1 -1 R 0 -1 R 1 -1 R 0 -2 R 1 -2 R 0 -5 R D
9744 18985 M 1 -5 R 0 -2 R 1 -1 R 0 -2 R 1 -1 R 0 -1 R 1 -1 R 1 -1 R 0 -1 R
1 -1 R 1 -1 R 1 -1 R 1 -1 R 1 -1 R 1 0 R 0 -1 R 1 0 R 1 -1 R 1 0 R 1 -1 R
1 0 R 1 0 R 0 -1 R 1 0 R 1 0 R 1 0 R 1 -1 R 1 0 R 1 0 R 1 0 R 1 0 R 1 0 R
1 0 R 1 0 R 1 0 R 1 0 R 0 1 R 1 0 R 1 0 R 1 0 R 1 1 R 1 0 R 1 0 R 0 1 R
1 0 R 1 0 R 0 1 R 1 0 R 1 1 R 1 0 R 0 1 R 1 0 R 0 1 R 1 0 R 0 1 R 1 0 R
0 1 R 1 0 R 0 1 R 1 1 R 0 1 R 1 0 R 0 1 R 1 1 R 0 1 R 1 2 R 0 1 R 1 2 R
0 5 R D 0.000 0.000 0.000 setrgbcolor 9769 18985 M Z 30 setlinewidth
10663 17473 M -117 -164 R 175 0 R D 10663 17473 M 0 -246 R D 10920 17473 M
-117 0 R -12 -105 R 12 11 R 35 12 R 35 0 R 35 -12 R 23 -23 R 12 -35 R
0 -23 R -12 -36 R -23 -23 R -35 -12 R -35 0 R -35 12 R -12 12 R -12 23 R D
11036 17251 M -11 -12 R 11 -12 R 12 12 R -12 12 R D 11200 17473 M -35 -12 R
-23 -35 R -12 -58 R 0 -35 R 12 -59 R 23 -35 R 35 -12 R 23 0 R 35 12 R
24 35 R 12 59 R 0 35 R -12 58 R -24 35 R -35 12 R -23 0 R D 11539 17414 M
-12 24 R -23 23 R -24 12 R -46 0 R -24 -12 R -23 -23 R -12 -24 R -11 -35 R
0 -58 R 11 -35 R 12 -24 R 23 -23 R 24 -12 R 46 0 R 24 12 R 23 23 R 12 24 R
0 35 R -59 0 R D 11597 17391 M 70 -164 R 71 164 R D 11667 17227 M -23 -58 R
-23 -23 R -24 -12 R -11 0 R D 11808 17391 M 0 -164 R D 11808 17321 M 11 35 R
24 23 R 23 12 R 35 0 R D 10581 17074 M 23 12 R 35 35 R 0 -246 R D
10803 16899 M -12 -12 R 12 -12 R 11 12 R -11 12 R D 10966 17121 M -35 -12 R
-23 -35 R -12 -58 R 0 -35 R 12 -59 R 23 -35 R 35 -12 R 24 0 R 35 12 R
23 35 R 12 59 R 0 35 R -12 58 R -23 35 R -35 12 R -24 0 R D 11130 16969 M
140 0 R 0 23 R -12 24 R -11 11 R -24 12 R -35 0 R -23 -12 R -23 -23 R
-12 -35 R 0 -23 R 12 -36 R 23 -23 R 23 -12 R 35 0 R 24 12 R 23 23 R D
11375 17074 M 24 12 R 35 35 R 0 -246 R D 11609 17074 M 23 12 R 35 35 R
0 -246 R D 11819 17121 M 0 -246 R D 11819 17121 M 94 -246 R 93 246 R
0 -246 R D 12159 16862 M -8 14 R -21 8 R -22 0 R -22 -8 R -7 -14 R 7 -15 R
15 -7 R 36 -7 R 14 -7 R 8 -15 R 0 -7 R -8 -14 R -21 -8 R -22 0 R -22 8 R
-7 14 R D 12209 16884 M 0 -73 R 8 -21 R 14 -8 R 22 0 R 14 8 R 22 21 R D
12289 16884 M 0 -102 R D 12347 16884 M 0 -102 R D 12347 16855 M 21 21 R
15 8 R 22 0 R 14 -8 R 7 -21 R 0 -73 R D 20 setlinewidth 12296 16474 M
5022 0 R D 12303 16474 M 0 201 R D 13555 16474 M 0 201 R D 14807 16474 M
0 201 R D 16059 16474 M 0 201 R D 17311 16474 M 0 201 R D 12553 16474 M
0 101 R D 12804 16474 M 0 101 R D 13054 16474 M 0 101 R D 13305 16474 M
0 101 R D 13805 16474 M 0 101 R D 14056 16474 M 0 101 R D 14306 16474 M
0 101 R D 14557 16474 M 0 101 R D 15057 16474 M 0 101 R D 15308 16474 M
0 101 R D 15558 16474 M 0 101 R D 15809 16474 M 0 101 R D 16310 16474 M
0 101 R D 16560 16474 M 0 101 R D 16810 16474 M 0 101 R D 17061 16474 M
0 101 R D 12296 21496 M 5022 0 R D 12303 21496 M 0 -201 R D 13555 21496 M
0 -201 R D 14807 21496 M 0 -201 R D 16059 21496 M 0 -201 R D 17311 21496 M
0 -201 R D 12553 21496 M 0 -100 R D 12804 21496 M 0 -100 R D 13054 21496 M
0 -100 R D 13305 21496 M 0 -100 R D 13805 21496 M 0 -100 R D 14056 21496 M
0 -100 R D 14306 21496 M 0 -100 R D 14557 21496 M 0 -100 R D 15057 21496 M
0 -100 R D 15308 21496 M 0 -100 R D 15558 21496 M 0 -100 R D 15809 21496 M
0 -100 R D 16310 21496 M 0 -100 R D 16560 21496 M 0 -100 R D 16810 21496 M
0 -100 R D 17061 21496 M 0 -100 R D 12296 16474 M 0 5022 R D 12296 16481 M
201 0 R D 12296 17733 M 201 0 R D 12296 18985 M 201 0 R D 12296 20237 M
201 0 R D 12296 21489 M 201 0 R D 12296 16731 M 101 0 R D 12296 16982 M
101 0 R D 12296 17232 M 101 0 R D 12296 17483 M 101 0 R D 12296 17983 M
101 0 R D 12296 18234 M 101 0 R D 12296 18484 M 101 0 R D 12296 18735 M
101 0 R D 12296 19236 M 101 0 R D 12296 19486 M 101 0 R D 12296 19736 M
101 0 R D 12296 19987 M 101 0 R D 12296 20488 M 101 0 R D 12296 20738 M
101 0 R D 12296 20988 M 101 0 R D 12296 21239 M 101 0 R D 17318 16474 M
0 5022 R D 17318 16481 M -201 0 R D 17318 17733 M -201 0 R D 17318 18985 M
-201 0 R D 17318 20237 M -201 0 R D 17318 21489 M -201 0 R D 17318 16731 M
-100 0 R D 17318 16982 M -100 0 R D 17318 17232 M -100 0 R D 17318 17483 M
-100 0 R D 17318 17983 M -100 0 R D 17318 18234 M -100 0 R D 17318 18484 M
-100 0 R D 17318 18735 M -100 0 R D 17318 19236 M -100 0 R D 17318 19486 M
-100 0 R D 17318 19736 M -100 0 R D 17318 19987 M -100 0 R D 17318 20488 M
-100 0 R D 17318 20738 M -100 0 R D 17318 20988 M -100 0 R D 17318 21239 M
-100 0 R D 13844 21496 M -1548 -844 R D 12296 20123 M 1962 -3649 R D
15009 16474 M 1032 5022 R D 15899 21496 M -1486 -5022 R D 13425 16474 M
-224 5022 R D 16274 21496 M 1044 -1356 R D 17318 18234 M -5022 -263 R D
0.208 0.208 0.208 setrgbcolor 14782 18985 M 1 5 R 0 2 R 1 2 R 0 1 R 1 1 R
0 1 R 1 1 R 0 1 R 1 0 R 0 1 R 1 1 R 1 1 R 1 1 R 1 1 R 1 1 R 1 1 R 1 0 R
0 1 R 1 0 R 1 0 R 0 1 R 1 0 R 1 0 R 1 1 R 1 0 R 1 0 R 1 1 R 1 0 R 1 0 R
1 0 R 1 0 R 1 0 R 1 0 R 1 0 R 1 0 R 1 0 R 1 0 R 1 0 R 0 -1 R 1 0 R 1 0 R
1 0 R 0 -1 R 1 0 R 1 0 R 1 -1 R 1 0 R 1 -1 R 1 0 R 0 -1 R 1 0 R 0 -1 R 1 0 R
0 -1 R 1 0 R 0 -1 R 1 0 R 0 -1 R 1 0 R 0 -1 R 1 -1 R 1 -1 R 0 -1 R 1 -1 R
0 -1 R 1 -1 R 0 -2 R 1 -2 R 0 -5 R D 14782 18985 M 1 -5 R 0 -2 R 1 -1 R
0 -2 R 1 -1 R 0 -1 R 1 -1 R 1 -1 R 0 -1 R 1 -1 R 1 -1 R 1 -1 R 1 -1 R 1 -1 R
1 0 R 0 -1 R 1 0 R 1 -1 R 1 0 R 1 -1 R 1 0 R 1 0 R 0 -1 R 1 0 R 1 0 R 1 0 R
1 -1 R 1 0 R 1 0 R 1 0 R 1 0 R 1 0 R 1 0 R 1 0 R 1 0 R 1 0 R 0 1 R 1 0 R
1 0 R 1 0 R 1 1 R 1 0 R 1 0 R 0 1 R 1 0 R 1 0 R 0 1 R 1 0 R 1 1 R 1 0 R
0 1 R 1 0 R 0 1 R 1 0 R 0 1 R 1 0 R 0 1 R 1 0 R 0 1 R 1 1 R 0 1 R 1 0 R
0 1 R 1 1 R 0 1 R 1 2 R 0 1 R 1 2 R 0 5 R D 0.000 0.000 0.000 setrgbcolor
14807 18985 M Z 30 setlinewidth 15619 17426 M 23 12 R 35 35 R 0 -246 R D
15934 17473 M -117 -164 R 176 0 R D 15934 17473 M 0 -246 R D 16074 17251 M
-11 -12 R 11 -12 R 12 12 R -12 12 R D 16332 17473 M -117 -246 R D
16168 17473 M 164 0 R D 16577 17414 M -12 24 R -23 23 R -24 12 R -46 0 R
-24 -12 R -23 -23 R -12 -24 R -11 -35 R 0 -58 R 11 -35 R 12 -24 R 23 -23 R
24 -12 R 46 0 R 24 12 R 23 23 R 12 24 R 0 35 R -59 0 R D 16635 17391 M
70 -164 R 71 164 R D 16705 17227 M -23 -58 R -23 -23 R -24 -12 R -11 0 R D
16846 17391 M 0 -164 R D 16846 17321 M 11 35 R 24 23 R 23 12 R 35 0 R D
15595 17062 M 0 12 R 12 23 R 12 12 R 23 12 R 47 0 R 23 -12 R 12 -12 R
12 -23 R 0 -23 R -12 -24 R -23 -35 R -117 -117 R 163 0 R D 15841 16899 M
-12 -12 R 12 -12 R 11 12 R -11 12 R D 16004 17121 M -35 -12 R -23 -35 R
-12 -58 R 0 -35 R 12 -59 R 23 -35 R 35 -12 R 24 0 R 35 12 R 23 35 R 12 59 R
0 35 R -12 58 R -23 35 R -35 12 R -24 0 R D 16168 16969 M 140 0 R 0 23 R
-12 24 R -11 11 R -24 12 R -35 0 R -23 -12 R -23 -23 R -12 -35 R 0 -23 R
12 -36 R 23 -23 R 23 -12 R 35 0 R 24 12 R 23 23 R D 16413 17074 M 24 12 R
35 35 R 0 -246 R D 16647 17074 M 23 12 R 35 35 R 0 -246 R D 16857 17121 M
0 -246 R D 16857 17121 M 94 -246 R 93 246 R 0 -246 R D 17197 16862 M -8 14 R
-21 8 R -22 0 R -22 -8 R -7 -14 R 7 -15 R 15 -7 R 36 -7 R 14 -7 R 8 -15 R
0 -7 R -8 -14 R -21 -8 R -22 0 R -22 8 R -7 14 R D 17247 16884 M 0 -73 R
8 -21 R 14 -8 R 22 0 R 14 8 R 22 21 R D 17327 16884 M 0 -102 R D
17385 16884 M 0 -102 R D 17385 16855 M 21 21 R 15 8 R 22 0 R 14 -8 R 7 -21 R
0 -73 R D 17575 17853 M 245 -93 R D 17575 17853 M 245 94 R D 17738 17795 M
0 117 R D 17680 18005 M 0 211 R D 17750 18005 M 0 211 R D 17575 18368 M
11 -35 R 35 -24 R 59 -12 R 35 0 R 58 12 R 35 24 R 12 35 R 0 23 R -12 35 R
-35 23 R -58 12 R -35 0 R -59 -12 R -35 -23 R -11 -35 R 0 -23 R D
17797 18555 M 11 -12 R 12 12 R -12 11 R -11 -11 R D 17621 18683 M -11 23 R
-35 35 R 245 0 R D 20 setlinewidth 2220 11452 M 5022 0 R D 2227 11452 M
0 201 R D 3479 11452 M 0 201 R D 4731 11452 M 0 201 R D 5983 11452 M 0 201 R
D 7235 11452 M 0 201 R D 2477 11452 M 0 101 R D 2728 11452 M 0 101 R D
2978 11452 M 0 101 R D 3229 11452 M 0 101 R D 3729 11452 M 0 101 R D
3980 11452 M 0 101 R D 4230 11452 M 0 101 R D 4481 11452 M 0 101 R D
4981 11452 M 0 101 R D 5232 11452 M 0 101 R D 5482 11452 M 0 101 R D
5733 11452 M 0 101 R D 6234 11452 M 0 101 R D 6484 11452 M 0 101 R D
6734 11452 M 0 101 R D 6985 11452 M 0 101 R D 2220 16474 M 5022 0 R D
2227 16474 M 0 -201 R D 3479 16474 M 0 -201 R D 4731 16474 M 0 -201 R D
5983 16474 M 0 -201 R D 7235 16474 M 0 -201 R D 2477 16474 M 0 -100 R D
2728 16474 M 0 -100 R D 2978 16474 M 0 -100 R D 3229 16474 M 0 -100 R D
3729 16474 M 0 -100 R D 3980 16474 M 0 -100 R D 4230 16474 M 0 -100 R D
4481 16474 M 0 -100 R D 4981 16474 M 0 -100 R D 5232 16474 M 0 -100 R D
5482 16474 M 0 -100 R D 5733 16474 M 0 -100 R D 6234 16474 M 0 -100 R D
6484 16474 M 0 -100 R D 6734 16474 M 0 -100 R D 6985 16474 M 0 -100 R D
2220 11452 M 0 5022 R D 2220 11459 M 201 0 R D 30 setlinewidth 1139 11557 M
211 0 R D 1466 11651 M 24 11 R 35 35 R 0 -245 R D 1735 11697 M -35 -11 R
-23 -35 R -12 -59 R 0 -35 R 12 -58 R 23 -35 R 35 -12 R 24 0 R 35 12 R
23 35 R 12 58 R 0 35 R -12 59 R -23 35 R -35 11 R -24 0 R D 1969 11697 M
-35 -11 R -24 -35 R -11 -59 R 0 -35 R 11 -58 R 24 -35 R 35 -12 R 23 0 R
35 12 R 24 35 R 11 58 R 0 35 R -11 59 R -24 35 R -35 11 R -23 0 R D
20 setlinewidth 2220 12711 M 201 0 R D 30 setlinewidth 1373 12675 M 210 0 R
D 1805 12816 M -117 0 R -11 -105 R 11 11 R 36 12 R 35 0 R 35 -12 R 23 -23 R
12 -35 R 0 -24 R -12 -35 R -23 -23 R -35 -12 R -35 0 R -36 12 R -11 12 R
-12 23 R D 1969 12816 M -35 -12 R -24 -35 R -11 -58 R 0 -36 R 11 -58 R
24 -35 R 35 -12 R 23 0 R 35 12 R 24 35 R 11 58 R 0 36 R -11 58 R -24 35 R
-35 12 R -23 0 R D 20 setlinewidth 2220 13963 M 201 0 R D 30 setlinewidth
1969 14068 M -35 -12 R -24 -35 R -11 -58 R 0 -36 R 11 -58 R 24 -35 R
35 -12 R 23 0 R 35 12 R 24 35 R 11 58 R 0 36 R -11 58 R -24 35 R -35 12 R
-23 0 R D 20 setlinewidth 2220 15215 M 201 0 R D 30 setlinewidth
1805 15320 M -117 0 R -11 -105 R 11 11 R 36 12 R 35 0 R 35 -12 R 23 -23 R
12 -35 R 0 -24 R -12 -35 R -23 -23 R -35 -12 R -35 0 R -36 12 R -11 12 R
-12 23 R D 1969 15320 M -35 -12 R -24 -35 R -11 -58 R 0 -36 R 11 -58 R
24 -35 R 35 -12 R 23 0 R 35 12 R 24 35 R 11 58 R 0 36 R -11 58 R -24 35 R
-35 12 R -23 0 R D 20 setlinewidth 2220 16467 M 201 0 R D 30 setlinewidth
1466 16426 M 24 12 R 35 35 R 0 -245 R D 1735 16473 M -35 -12 R -23 -35 R
-12 -58 R 0 -35 R 12 -59 R 23 -35 R 35 -11 R 24 0 R 35 11 R 23 35 R 12 59 R
0 35 R -12 58 R -23 35 R -35 12 R -24 0 R D 1969 16473 M -35 -12 R -24 -35 R
-11 -58 R 0 -35 R 11 -59 R 24 -35 R 35 -11 R 23 0 R 35 11 R 24 35 R 11 59 R
0 35 R -11 58 R -24 35 R -35 12 R -23 0 R D 20 setlinewidth 2220 11709 M
101 0 R D 2220 11960 M 101 0 R D 2220 12210 M 101 0 R D 2220 12461 M 101 0 R
D 2220 12961 M 101 0 R D 2220 13212 M 101 0 R D 2220 13462 M 101 0 R D
2220 13713 M 101 0 R D 2220 14214 M 101 0 R D 2220 14464 M 101 0 R D
2220 14714 M 101 0 R D 2220 14965 M 101 0 R D 2220 15466 M 101 0 R D
2220 15716 M 101 0 R D 2220 15966 M 101 0 R D 2220 16217 M 101 0 R D
7242 11452 M 0 5022 R D 7242 11459 M -201 0 R D 7242 12711 M -201 0 R D
7242 13963 M -201 0 R D 7242 15215 M -201 0 R D 7242 16467 M -201 0 R D
7242 11709 M -100 0 R D 7242 11960 M -100 0 R D 7242 12210 M -100 0 R D
7242 12461 M -100 0 R D 7242 12961 M -100 0 R D 7242 13212 M -100 0 R D
7242 13462 M -100 0 R D 7242 13713 M -100 0 R D 7242 14214 M -100 0 R D
7242 14464 M -100 0 R D 7242 14714 M -100 0 R D 7242 14965 M -100 0 R D
7242 15466 M -100 0 R D 7242 15716 M -100 0 R D 7242 15966 M -100 0 R D
7242 16217 M -100 0 R D 3915 16474 M -166 -5022 R D 7242 16030 M -5022 385 R
D 2360 11452 M 2903 5022 R D 0.208 0.208 0.208 setrgbcolor 4706 13963 M
1 5 R 0 2 R 1 2 R 0 1 R 1 1 R 0 1 R 1 1 R 0 1 R 1 0 R 0 1 R 1 1 R 1 1 R
1 1 R 1 1 R 1 1 R 1 1 R 1 0 R 0 1 R 1 0 R 1 0 R 0 1 R 1 0 R 1 0 R 1 1 R
1 0 R 1 0 R 1 1 R 1 0 R 1 0 R 1 0 R 1 0 R 1 0 R 1 0 R 1 0 R 1 0 R 1 0 R
1 0 R 1 0 R 0 -1 R 1 0 R 1 0 R 1 0 R 0 -1 R 1 0 R 1 0 R 1 -1 R 1 0 R 1 -1 R
1 0 R 0 -1 R 1 0 R 0 -1 R 1 0 R 0 -1 R 1 0 R 0 -1 R 1 0 R 0 -1 R 1 0 R
0 -1 R 1 -1 R 1 -1 R 0 -1 R 1 -1 R 0 -1 R 1 -1 R 0 -2 R 1 -2 R 0 -5 R D
4706 13963 M 1 -5 R 0 -2 R 1 -1 R 0 -2 R 1 -1 R 0 -1 R 1 -1 R 1 -1 R 0 -1 R
1 -1 R 1 -1 R 1 -1 R 1 -1 R 1 -1 R 1 0 R 0 -1 R 1 0 R 1 -1 R 1 0 R 1 -1 R
1 0 R 1 0 R 0 -1 R 1 0 R 1 0 R 1 0 R 1 -1 R 1 0 R 1 0 R 1 0 R 1 0 R 1 0 R
1 0 R 1 0 R 1 0 R 1 0 R 0 1 R 1 0 R 1 0 R 1 0 R 1 1 R 1 0 R 1 0 R 0 1 R
1 0 R 1 0 R 0 1 R 1 0 R 1 1 R 1 0 R 0 1 R 1 0 R 0 1 R 1 0 R 0 1 R 1 0 R
0 1 R 1 0 R 0 1 R 1 1 R 0 1 R 1 0 R 0 1 R 1 1 R 0 1 R 1 2 R 0 1 R 1 2 R
0 5 R D 0.000 0.000 0.000 setrgbcolor 4731 13963 M Z 30 setlinewidth
5660 12369 M -12 -35 R -23 -23 R -35 -12 R -12 0 R -35 12 R -24 23 R
-11 35 R 0 12 R 11 35 R 24 23 R 35 12 R 12 0 R 35 -12 R 23 -23 R 12 -47 R
0 -58 R -12 -59 R -23 -35 R -35 -12 R -24 0 R -35 12 R -12 23 R D
5765 12229 M -12 -12 R 12 -12 R 11 12 R -11 12 R D 5870 12392 M 0 12 R
12 23 R 11 12 R 24 12 R 46 0 R 24 -12 R 11 -12 R 12 -23 R 0 -23 R -12 -24 R
-23 -35 R -117 -117 R 164 0 R D 6162 12451 M -35 -12 R -23 -35 R -12 -58 R
0 -35 R 12 -59 R 23 -35 R 35 -12 R 23 0 R 35 12 R 24 35 R 12 59 R 0 35 R
-12 58 R -24 35 R -35 12 R -23 0 R D 6501 12392 M -12 24 R -23 23 R -24 12 R
-46 0 R -24 -12 R -23 -23 R -12 -24 R -11 -35 R 0 -58 R 11 -35 R 12 -24 R
23 -23 R 24 -12 R 46 0 R 24 12 R 23 23 R 12 24 R 0 35 R -59 0 R D
6559 12369 M 70 -164 R 71 164 R D 6629 12205 M -23 -58 R -23 -23 R -24 -12 R
-11 0 R D 6770 12369 M 0 -164 R D 6770 12299 M 11 35 R 24 23 R 23 12 R
35 0 R D 5543 12052 M 23 12 R 35 35 R 0 -246 R D 5765 11877 M -12 -12 R
12 -12 R 11 12 R -11 12 R D 5928 12099 M -35 -12 R -23 -35 R -12 -58 R
0 -35 R 12 -59 R 23 -35 R 35 -12 R 24 0 R 35 12 R 23 35 R 12 59 R 0 35 R
-12 58 R -23 35 R -35 12 R -24 0 R D 6092 11947 M 140 0 R 0 23 R -12 24 R
-11 11 R -24 12 R -35 0 R -23 -12 R -23 -23 R -12 -35 R 0 -23 R 12 -36 R
23 -23 R 23 -12 R 35 0 R 24 12 R 23 23 R D 6372 12099 M -35 -12 R -23 -35 R
-12 -58 R 0 -35 R 12 -59 R 23 -35 R 35 -12 R 24 0 R 35 12 R 23 35 R 12 59 R
0 35 R -12 58 R -23 35 R -35 12 R -24 0 R D 6571 12052 M 23 12 R 35 35 R
0 -246 R D 6781 12099 M 0 -246 R D 6781 12099 M 94 -246 R 93 246 R 0 -246 R
D 7121 11840 M -8 14 R -21 8 R -22 0 R -22 -8 R -7 -14 R 7 -15 R 15 -7 R
36 -7 R 14 -7 R 8 -15 R 0 -7 R -8 -14 R -21 -8 R -22 0 R -22 8 R -7 14 R D
7171 11862 M 0 -73 R 8 -21 R 14 -8 R 22 0 R 14 8 R 22 21 R D 7251 11862 M
0 -102 R D 7309 11862 M 0 -102 R D 7309 11833 M 21 21 R 15 8 R 22 0 R
14 -8 R 7 -21 R 0 -73 R D 20 setlinewidth 7258 11452 M 5022 0 R D
7265 11452 M 0 201 R D 8517 11452 M 0 201 R D 9769 11452 M 0 201 R D
11021 11452 M 0 201 R D 12273 11452 M 0 201 R D 7515 11452 M 0 101 R D
7766 11452 M 0 101 R D 8016 11452 M 0 101 R D 8267 11452 M 0 101 R D
8767 11452 M 0 101 R D 9018 11452 M 0 101 R D 9268 11452 M 0 101 R D
9519 11452 M 0 101 R D 10019 11452 M 0 101 R D 10270 11452 M 0 101 R D
10520 11452 M 0 101 R D 10771 11452 M 0 101 R D 11272 11452 M 0 101 R D
11522 11452 M 0 101 R D 11772 11452 M 0 101 R D 12023 11452 M 0 101 R D
7258 16474 M 5022 0 R D 7265 16474 M 0 -201 R D 8517 16474 M 0 -201 R D
9769 16474 M 0 -201 R D 11021 16474 M 0 -201 R D 12273 16474 M 0 -201 R D
7515 16474 M 0 -100 R D 7766 16474 M 0 -100 R D 8016 16474 M 0 -100 R D
8267 16474 M 0 -100 R D 8767 16474 M 0 -100 R D 9018 16474 M 0 -100 R D
9268 16474 M 0 -100 R D 9519 16474 M 0 -100 R D 10019 16474 M 0 -100 R D
10270 16474 M 0 -100 R D 10520 16474 M 0 -100 R D 10771 16474 M 0 -100 R D
11272 16474 M 0 -100 R D 11522 16474 M 0 -100 R D 11772 16474 M 0 -100 R D
12023 16474 M 0 -100 R D 7258 11452 M 0 5022 R D 7258 11459 M 201 0 R D
7258 12711 M 201 0 R D 7258 13963 M 201 0 R D 7258 15215 M 201 0 R D
7258 16467 M 201 0 R D 7258 11709 M 101 0 R D 7258 11960 M 101 0 R D
7258 12210 M 101 0 R D 7258 12461 M 101 0 R D 7258 12961 M 101 0 R D
7258 13212 M 101 0 R D 7258 13462 M 101 0 R D 7258 13713 M 101 0 R D
7258 14214 M 101 0 R D 7258 14464 M 101 0 R D 7258 14714 M 101 0 R D
7258 14965 M 101 0 R D 7258 15466 M 101 0 R D 7258 15716 M 101 0 R D
7258 15966 M 101 0 R D 7258 16217 M 101 0 R D 12280 11452 M 0 5022 R D
12280 11459 M -201 0 R D 12280 12711 M -201 0 R D 12280 13963 M -201 0 R D
12280 15215 M -201 0 R D 12280 16467 M -201 0 R D 12280 11709 M -100 0 R D
12280 11960 M -100 0 R D 12280 12210 M -100 0 R D 12280 12461 M -100 0 R D
12280 12961 M -100 0 R D 12280 13212 M -100 0 R D 12280 13462 M -100 0 R D
12280 13713 M -100 0 R D 12280 14214 M -100 0 R D 12280 14464 M -100 0 R D
12280 14714 M -100 0 R D 12280 14965 M -100 0 R D 12280 15466 M -100 0 R D
12280 15716 M -100 0 R D 12280 15966 M -100 0 R D 12280 16217 M -100 0 R D
12155 16474 M 125 -332 R D 12280 12961 M -1587 -1509 R D 9875 11452 M
-2470 2002 R 2183 2400 R 1547 -2029 R -1634 -665 R -16 964 R 179 -305 R
-436 516 R 926 657 R 1075 -743 R 203 -990 R 192 -112 R 128 1554 R
-3149 923 R 2284 -2949 R -1554 316 R D 0.208 0.208 0.208 setrgbcolor
9744 13963 M 1 5 R 0 2 R 1 2 R 0 1 R 1 1 R 0 1 R 1 1 R 0 1 R 1 0 R 0 1 R
1 1 R 1 1 R 1 1 R 1 1 R 1 1 R 1 1 R 1 0 R 0 1 R 1 0 R 1 0 R 0 1 R 1 0 R
1 0 R 1 1 R 1 0 R 1 0 R 1 1 R 1 0 R 1 0 R 1 0 R 1 0 R 1 0 R 1 0 R 1 0 R
1 0 R 1 0 R 1 0 R 1 0 R 0 -1 R 1 0 R 1 0 R 1 0 R 0 -1 R 1 0 R 1 0 R 1 -1 R
1 0 R 1 -1 R 1 0 R 0 -1 R 1 0 R 0 -1 R 1 0 R 0 -1 R 1 0 R 0 -1 R 1 0 R
0 -1 R 1 0 R 0 -1 R 1 -1 R 1 -1 R 0 -1 R 1 -1 R 0 -1 R 1 -1 R 0 -2 R 1 -2 R
0 -5 R D 9744 13963 M 1 -5 R 0 -2 R 1 -1 R 0 -2 R 1 -1 R 0 -1 R 1 -1 R
1 -1 R 0 -1 R 1 -1 R 1 -1 R 1 -1 R 1 -1 R 1 -1 R 1 0 R 0 -1 R 1 0 R 1 -1 R
1 0 R 1 -1 R 1 0 R 1 0 R 0 -1 R 1 0 R 1 0 R 1 0 R 1 -1 R 1 0 R 1 0 R 1 0 R
1 0 R 1 0 R 1 0 R 1 0 R 1 0 R 1 0 R 0 1 R 1 0 R 1 0 R 1 0 R 1 1 R 1 0 R
1 0 R 0 1 R 1 0 R 1 0 R 0 1 R 1 0 R 1 1 R 1 0 R 0 1 R 1 0 R 0 1 R 1 0 R
0 1 R 1 0 R 0 1 R 1 0 R 0 1 R 1 1 R 0 1 R 1 0 R 0 1 R 1 1 R 0 1 R 1 2 R
0 1 R 1 2 R 0 5 R D 0.000 0.000 0.000 setrgbcolor 9769 13963 M Z
30 setlinewidth 10581 12404 M 23 12 R 35 35 R 0 -246 R D 10814 12404 M
24 12 R 35 35 R 0 -246 R D 11036 12229 M -11 -12 R 11 -12 R 12 12 R -12 12 R
D 11142 12392 M 0 12 R 11 23 R 12 12 R 23 12 R 47 0 R 23 -12 R 12 -12 R
12 -23 R 0 -23 R -12 -24 R -23 -35 R -117 -117 R 164 0 R D 11539 12392 M
-12 24 R -23 23 R -24 12 R -46 0 R -24 -12 R -23 -23 R -12 -24 R -11 -35 R
0 -58 R 11 -35 R 12 -24 R 23 -23 R 24 -12 R 46 0 R 24 12 R 23 23 R 12 24 R
0 35 R -59 0 R D 11597 12369 M 70 -164 R 71 164 R D 11667 12205 M -23 -58 R
-23 -23 R -24 -12 R -11 0 R D 11808 12369 M 0 -164 R D 11808 12299 M 11 35 R
24 23 R 23 12 R 35 0 R D 10581 12052 M 23 12 R 35 35 R 0 -246 R D
10803 11877 M -12 -12 R 12 -12 R 11 12 R -11 12 R D 11013 12099 M
-117 -164 R 176 0 R D 11013 12099 M 0 -246 R D 11130 11947 M 140 0 R 0 23 R
-12 24 R -11 11 R -24 12 R -35 0 R -23 -12 R -23 -23 R -12 -35 R 0 -23 R
12 -36 R 23 -23 R 23 -12 R 35 0 R 24 12 R 23 23 R D 11375 12052 M 24 12 R
35 35 R 0 -246 R D 11609 12052 M 23 12 R 35 35 R 0 -246 R D 11819 12099 M
0 -246 R D 11819 12099 M 94 -246 R 93 246 R 0 -246 R D 12159 11840 M -8 14 R
-21 8 R -22 0 R -22 -8 R -7 -14 R 7 -15 R 15 -7 R 36 -7 R 14 -7 R 8 -15 R
0 -7 R -8 -14 R -21 -8 R -22 0 R -22 8 R -7 14 R D 12209 11862 M 0 -73 R
8 -21 R 14 -8 R 22 0 R 14 8 R 22 21 R D 12289 11862 M 0 -102 R D
12347 11862 M 0 -102 R D 12347 11833 M 21 21 R 15 8 R 22 0 R 14 -8 R 7 -21 R
0 -73 R D 20 setlinewidth 12296 11452 M 5022 0 R D 12303 11452 M 0 201 R D
13555 11452 M 0 201 R D 14807 11452 M 0 201 R D 16059 11452 M 0 201 R D
17311 11452 M 0 201 R D 12553 11452 M 0 101 R D 12804 11452 M 0 101 R D
13054 11452 M 0 101 R D 13305 11452 M 0 101 R D 13805 11452 M 0 101 R D
14056 11452 M 0 101 R D 14306 11452 M 0 101 R D 14557 11452 M 0 101 R D
15057 11452 M 0 101 R D 15308 11452 M 0 101 R D 15558 11452 M 0 101 R D
15809 11452 M 0 101 R D 16310 11452 M 0 101 R D 16560 11452 M 0 101 R D
16810 11452 M 0 101 R D 17061 11452 M 0 101 R D 12296 16474 M 5022 0 R D
12303 16474 M 0 -201 R D 13555 16474 M 0 -201 R D 14807 16474 M 0 -201 R D
16059 16474 M 0 -201 R D 17311 16474 M 0 -201 R D 12553 16474 M 0 -100 R D
12804 16474 M 0 -100 R D 13054 16474 M 0 -100 R D 13305 16474 M 0 -100 R D
13805 16474 M 0 -100 R D 14056 16474 M 0 -100 R D 14306 16474 M 0 -100 R D
14557 16474 M 0 -100 R D 15057 16474 M 0 -100 R D 15308 16474 M 0 -100 R D
15558 16474 M 0 -100 R D 15809 16474 M 0 -100 R D 16310 16474 M 0 -100 R D
16560 16474 M 0 -100 R D 16810 16474 M 0 -100 R D 17061 16474 M 0 -100 R D
12296 11452 M 0 5022 R D 12296 11459 M 201 0 R D 12296 12711 M 201 0 R D
12296 13963 M 201 0 R D 12296 15215 M 201 0 R D 12296 16467 M 201 0 R D
12296 11709 M 101 0 R D 12296 11960 M 101 0 R D 12296 12210 M 101 0 R D
12296 12461 M 101 0 R D 12296 12961 M 101 0 R D 12296 13212 M 101 0 R D
12296 13462 M 101 0 R D 12296 13713 M 101 0 R D 12296 14214 M 101 0 R D
12296 14464 M 101 0 R D 12296 14714 M 101 0 R D 12296 14965 M 101 0 R D
12296 15466 M 101 0 R D 12296 15716 M 101 0 R D 12296 15966 M 101 0 R D
12296 16217 M 101 0 R D 17318 11452 M 0 5022 R D 17318 11459 M -201 0 R D
17318 12711 M -201 0 R D 17318 13963 M -201 0 R D 17318 15215 M -201 0 R D
17318 16467 M -201 0 R D 17318 11709 M -100 0 R D 17318 11960 M -100 0 R D
17318 12210 M -100 0 R D 17318 12461 M -100 0 R D 17318 12961 M -100 0 R D
17318 13212 M -100 0 R D 17318 13462 M -100 0 R D 17318 13713 M -100 0 R D
17318 14214 M -100 0 R D 17318 14464 M -100 0 R D 17318 14714 M -100 0 R D
17318 14965 M -100 0 R D 17318 15466 M -100 0 R D 17318 15716 M -100 0 R D
17318 15966 M -100 0 R D 17318 16217 M -100 0 R D 17318 15821 M -883 653 R D
14529 16474 M 326 -3746 R -370 3746 R D 14321 16474 M -2025 -3906 R D
0.208 0.208 0.208 setrgbcolor 14782 13963 M 1 5 R 0 2 R 1 2 R 0 1 R 1 1 R
0 1 R 1 1 R 0 1 R 1 0 R 0 1 R 1 1 R 1 1 R 1 1 R 1 1 R 1 1 R 1 1 R 1 0 R
0 1 R 1 0 R 1 0 R 0 1 R 1 0 R 1 0 R 1 1 R 1 0 R 1 0 R 1 1 R 1 0 R 1 0 R
1 0 R 1 0 R 1 0 R 1 0 R 1 0 R 1 0 R 1 0 R 1 0 R 1 0 R 0 -1 R 1 0 R 1 0 R
1 0 R 0 -1 R 1 0 R 1 0 R 1 -1 R 1 0 R 1 -1 R 1 0 R 0 -1 R 1 0 R 0 -1 R 1 0 R
0 -1 R 1 0 R 0 -1 R 1 0 R 0 -1 R 1 0 R 0 -1 R 1 -1 R 1 -1 R 0 -1 R 1 -1 R
0 -1 R 1 -1 R 0 -2 R 1 -2 R 0 -5 R D 14782 13963 M 1 -5 R 0 -2 R 1 -1 R
0 -2 R 1 -1 R 0 -1 R 1 -1 R 1 -1 R 0 -1 R 1 -1 R 1 -1 R 1 -1 R 1 -1 R 1 -1 R
1 0 R 0 -1 R 1 0 R 1 -1 R 1 0 R 1 -1 R 1 0 R 1 0 R 0 -1 R 1 0 R 1 0 R 1 0 R
1 -1 R 1 0 R 1 0 R 1 0 R 1 0 R 1 0 R 1 0 R 1 0 R 1 0 R 1 0 R 0 1 R 1 0 R
1 0 R 1 0 R 1 1 R 1 0 R 1 0 R 0 1 R 1 0 R 1 0 R 0 1 R 1 0 R 1 1 R 1 0 R
0 1 R 1 0 R 0 1 R 1 0 R 0 1 R 1 0 R 0 1 R 1 0 R 0 1 R 1 1 R 0 1 R 1 0 R
0 1 R 1 1 R 0 1 R 1 2 R 0 1 R 1 2 R 0 5 R D 0.000 0.000 0.000 setrgbcolor
14807 13963 M Z 30 setlinewidth 15701 12451 M -117 -164 R 175 0 R D
15701 12451 M 0 -246 R D 15958 12451 M -117 0 R -12 -105 R 12 11 R 35 12 R
35 0 R 35 -12 R 23 -23 R 12 -35 R 0 -23 R -12 -36 R -23 -23 R -35 -12 R
-35 0 R -35 12 R -12 12 R -12 23 R D 16074 12229 M -11 -12 R 11 -12 R
12 12 R -12 12 R D 16238 12451 M -35 -12 R -23 -35 R -12 -58 R 0 -35 R
12 -59 R 23 -35 R 35 -12 R 23 0 R 35 12 R 24 35 R 12 59 R 0 35 R -12 58 R
-24 35 R -35 12 R -23 0 R D 16577 12392 M -12 24 R -23 23 R -24 12 R -46 0 R
-24 -12 R -23 -23 R -12 -24 R -11 -35 R 0 -58 R 11 -35 R 12 -24 R 23 -23 R
24 -12 R 46 0 R 24 12 R 23 23 R 12 24 R 0 35 R -59 0 R D 16635 12369 M
70 -164 R 71 164 R D 16705 12205 M -23 -58 R -23 -23 R -24 -12 R -11 0 R D
16846 12369 M 0 -164 R D 16846 12299 M 11 35 R 24 23 R 23 12 R 35 0 R D
15724 12099 M -117 0 R -12 -105 R 12 11 R 35 12 R 35 0 R 35 -12 R 24 -23 R
11 -35 R 0 -23 R -11 -36 R -24 -23 R -35 -12 R -35 0 R -35 12 R -12 12 R
-11 23 R D 15841 11877 M -12 -12 R 12 -12 R 11 12 R -11 12 R D 15946 12040 M
0 12 R 12 23 R 11 12 R 24 12 R 46 0 R 24 -12 R 11 -12 R 12 -23 R 0 -23 R
-12 -24 R -23 -35 R -117 -117 R 164 0 R D 16168 11947 M 140 0 R 0 23 R
-12 24 R -11 11 R -24 12 R -35 0 R -23 -12 R -23 -23 R -12 -35 R 0 -23 R
12 -36 R 23 -23 R 23 -12 R 35 0 R 24 12 R 23 23 R D 16413 12052 M 24 12 R
35 35 R 0 -246 R D 16682 12099 M -35 -12 R -23 -35 R -12 -58 R 0 -35 R
12 -59 R 23 -35 R 35 -12 R 23 0 R 35 12 R 24 35 R 12 59 R 0 35 R -12 58 R
-24 35 R -35 12 R -23 0 R D 16857 12099 M 0 -246 R D 16857 12099 M 94 -246 R
93 246 R 0 -246 R D 17197 11840 M -8 14 R -21 8 R -22 0 R -22 -8 R -7 -14 R
7 -15 R 15 -7 R 36 -7 R 14 -7 R 8 -15 R 0 -7 R -8 -14 R -21 -8 R -22 0 R
-22 8 R -7 14 R D 17247 11862 M 0 -73 R 8 -21 R 14 -8 R 22 0 R 14 8 R
22 21 R D 17327 11862 M 0 -102 R D 17385 11862 M 0 -102 R D 17385 11833 M
21 21 R 15 8 R 22 0 R 14 -8 R 7 -21 R 0 -73 R D 17575 12969 M 245 -93 R D
17575 12969 M 245 94 R D 17738 12911 M 0 117 R D 17680 13121 M 0 211 R D
17750 13121 M 0 211 R D 17621 13449 M -11 23 R -35 35 R 245 0 R D
17797 13671 M 11 -12 R 12 12 R -12 11 R -11 -11 R D 17575 13834 M 11 -35 R
35 -23 R 59 -12 R 35 0 R 58 12 R 35 23 R 12 35 R 0 23 R -12 36 R -35 23 R
-58 12 R -35 0 R -59 -12 R -35 -23 R -11 -36 R 0 -23 R D 20 setlinewidth
2220 6430 M 5022 0 R D 2227 6430 M 0 201 R D 3479 6430 M 0 201 R D
4731 6430 M 0 201 R D 5983 6430 M 0 201 R D 7235 6430 M 0 201 R D
2477 6430 M 0 101 R D 2728 6430 M 0 101 R D 2978 6430 M 0 101 R D
3229 6430 M 0 101 R D 3729 6430 M 0 101 R D 3980 6430 M 0 101 R D
4230 6430 M 0 101 R D 4481 6430 M 0 101 R D 4981 6430 M 0 101 R D
5232 6430 M 0 101 R D 5482 6430 M 0 101 R D 5733 6430 M 0 101 R D
6234 6430 M 0 101 R D 6484 6430 M 0 101 R D 6734 6430 M 0 101 R D
6985 6430 M 0 101 R D 2220 11452 M 5022 0 R D 2227 11452 M 0 -201 R D
3479 11452 M 0 -201 R D 4731 11452 M 0 -201 R D 5983 11452 M 0 -201 R D
7235 11452 M 0 -201 R D 2477 11452 M 0 -100 R D 2728 11452 M 0 -100 R D
2978 11452 M 0 -100 R D 3229 11452 M 0 -100 R D 3729 11452 M 0 -100 R D
3980 11452 M 0 -100 R D 4230 11452 M 0 -100 R D 4481 11452 M 0 -100 R D
4981 11452 M 0 -100 R D 5232 11452 M 0 -100 R D 5482 11452 M 0 -100 R D
5733 11452 M 0 -100 R D 6234 11452 M 0 -100 R D 6484 11452 M 0 -100 R D
6734 11452 M 0 -100 R D 6985 11452 M 0 -100 R D 2220 6430 M 0 5022 R D
2220 6437 M 201 0 R D 30 setlinewidth 1139 6535 M 211 0 R D 1466 6629 M
24 11 R 35 35 R 0 -245 R D 1735 6675 M -35 -11 R -23 -35 R -12 -59 R 0 -35 R
12 -58 R 23 -35 R 35 -12 R 24 0 R 35 12 R 23 35 R 12 58 R 0 35 R -12 59 R
-23 35 R -35 11 R -24 0 R D 1969 6675 M -35 -11 R -24 -35 R -11 -59 R
0 -35 R 11 -58 R 24 -35 R 35 -12 R 23 0 R 35 12 R 24 35 R 11 58 R 0 35 R
-11 59 R -24 35 R -35 11 R -23 0 R D 20 setlinewidth 2220 7689 M 201 0 R D
30 setlinewidth 1373 7653 M 210 0 R D 1805 7794 M -117 0 R -11 -105 R
11 11 R 36 12 R 35 0 R 35 -12 R 23 -23 R 12 -35 R 0 -24 R -12 -35 R
-23 -23 R -35 -12 R -35 0 R -36 12 R -11 12 R -12 23 R D 1969 7794 M
-35 -12 R -24 -35 R -11 -58 R 0 -36 R 11 -58 R 24 -35 R 35 -12 R 23 0 R
35 12 R 24 35 R 11 58 R 0 36 R -11 58 R -24 35 R -35 12 R -23 0 R D
20 setlinewidth 2220 8941 M 201 0 R D 30 setlinewidth 1969 9046 M -35 -12 R
-24 -35 R -11 -58 R 0 -36 R 11 -58 R 24 -35 R 35 -12 R 23 0 R 35 12 R
24 35 R 11 58 R 0 36 R -11 58 R -24 35 R -35 12 R -23 0 R D 20 setlinewidth
2220 10193 M 201 0 R D 30 setlinewidth 1805 10298 M -117 0 R -11 -105 R
11 11 R 36 12 R 35 0 R 35 -12 R 23 -23 R 12 -35 R 0 -24 R -12 -35 R
-23 -23 R -35 -12 R -35 0 R -36 12 R -11 12 R -12 23 R D 1969 10298 M
-35 -12 R -24 -35 R -11 -58 R 0 -36 R 11 -58 R 24 -35 R 35 -12 R 23 0 R
35 12 R 24 35 R 11 58 R 0 36 R -11 58 R -24 35 R -35 12 R -23 0 R D
20 setlinewidth 2220 11445 M 201 0 R D 30 setlinewidth 1466 11404 M 24 12 R
35 35 R 0 -245 R D 1735 11451 M -35 -12 R -23 -35 R -12 -58 R 0 -35 R
12 -59 R 23 -35 R 35 -11 R 24 0 R 35 11 R 23 35 R 12 59 R 0 35 R -12 58 R
-23 35 R -35 12 R -24 0 R D 1969 11451 M -35 -12 R -24 -35 R -11 -58 R
0 -35 R 11 -59 R 24 -35 R 35 -11 R 23 0 R 35 11 R 24 35 R 11 59 R 0 35 R
-11 58 R -24 35 R -35 12 R -23 0 R D 20 setlinewidth 2220 6687 M 101 0 R D
2220 6938 M 101 0 R D 2220 7188 M 101 0 R D 2220 7439 M 101 0 R D
2220 7939 M 101 0 R D 2220 8190 M 101 0 R D 2220 8440 M 101 0 R D
2220 8691 M 101 0 R D 2220 9192 M 101 0 R D 2220 9442 M 101 0 R D
2220 9692 M 101 0 R D 2220 9943 M 101 0 R D 2220 10444 M 101 0 R D
2220 10694 M 101 0 R D 2220 10944 M 101 0 R D 2220 11195 M 101 0 R D
7242 6430 M 0 5022 R D 7242 6437 M -201 0 R D 7242 7689 M -201 0 R D
7242 8941 M -201 0 R D 7242 10193 M -201 0 R D 7242 11445 M -201 0 R D
7242 6687 M -100 0 R D 7242 6938 M -100 0 R D 7242 7188 M -100 0 R D
7242 7439 M -100 0 R D 7242 7939 M -100 0 R D 7242 8190 M -100 0 R D
7242 8440 M -100 0 R D 7242 8691 M -100 0 R D 7242 9192 M -100 0 R D
7242 9442 M -100 0 R D 7242 9692 M -100 0 R D 7242 9943 M -100 0 R D
7242 10444 M -100 0 R D 7242 10694 M -100 0 R D 7242 10944 M -100 0 R D
7242 11195 M -100 0 R D 2220 8199 M 1613 -1769 R D 6027 6430 M -153 5022 R D
5053 11452 M -1180 -5022 R D 3739 6430 M 990 5022 R D 5671 11452 M
67 -5022 R D 4291 6430 M -1469 5022 R D 4268 11452 M 2846 -5022 R D
6517 6430 M -3438 5022 R D 2220 10351 M 1752 -3921 R D
0.208 0.208 0.208 setrgbcolor 4706 8941 M 1 5 R 0 2 R 1 2 R 0 1 R 1 1 R
0 1 R 1 1 R 0 1 R 1 0 R 0 1 R 1 1 R 1 1 R 1 1 R 1 1 R 1 1 R 1 1 R 1 0 R
1 1 R 1 0 R 0 1 R 1 0 R 1 0 R 1 1 R 1 0 R 1 0 R 1 1 R 1 0 R 1 0 R 1 0 R
1 0 R 1 0 R 1 0 R 1 0 R 1 0 R 1 0 R 1 0 R 1 0 R 0 -1 R 1 0 R 1 0 R 1 0 R
0 -1 R 1 0 R 1 0 R 1 -1 R 1 0 R 0 -1 R 1 0 R 1 0 R 0 -1 R 1 0 R 0 -1 R 1 0 R
0 -1 R 1 0 R 0 -1 R 1 0 R 0 -1 R 1 0 R 0 -1 R 1 -1 R 1 -1 R 0 -1 R 1 -1 R
0 -1 R 1 -1 R 0 -2 R 1 -2 R 0 -5 R D 4706 8941 M 1 -5 R 0 -2 R 1 -1 R 0 -2 R
1 -1 R 0 -1 R 1 -1 R 1 -1 R 0 -1 R 1 -1 R 1 -1 R 1 -1 R 1 -1 R 1 -1 R 1 0 R
0 -1 R 1 0 R 1 -1 R 1 0 R 1 -1 R 1 0 R 1 0 R 0 -1 R 1 0 R 1 0 R 1 0 R 1 -1 R
1 0 R 1 0 R 1 0 R 1 0 R 1 0 R 1 0 R 1 0 R 1 0 R 1 0 R 0 1 R 1 0 R 1 0 R
1 0 R 1 1 R 1 0 R 1 0 R 0 1 R 1 0 R 1 0 R 0 1 R 1 0 R 1 1 R 1 0 R 0 1 R
1 0 R 0 1 R 1 0 R 0 1 R 1 0 R 0 1 R 1 0 R 0 1 R 1 1 R 0 1 R 1 0 R 0 1 R
1 1 R 0 1 R 1 2 R 0 1 R 1 2 R 0 5 R D 0.000 0.000 0.000 setrgbcolor
4731 8941 M Z 30 setlinewidth 5543 7382 M 23 12 R 35 35 R 0 -246 R D
5776 7382 M 24 12 R 35 35 R 0 -246 R D 5998 7207 M -11 -12 R 11 -12 R
12 12 R -12 12 R D 6162 7429 M -35 -12 R -23 -35 R -12 -58 R 0 -35 R
12 -59 R 23 -35 R 35 -12 R 23 0 R 35 12 R 24 35 R 12 59 R 0 35 R -12 58 R
-24 35 R -35 12 R -23 0 R D 6501 7370 M -12 24 R -23 23 R -24 12 R -46 0 R
-24 -12 R -23 -23 R -12 -24 R -11 -35 R 0 -58 R 11 -35 R 12 -24 R 23 -23 R
24 -12 R 46 0 R 24 12 R 23 23 R 12 24 R 0 35 R -59 0 R D 6559 7347 M
70 -164 R 71 164 R D 6629 7183 M -23 -58 R -23 -23 R -24 -12 R -11 0 R D
6770 7347 M 0 -164 R D 6770 7277 M 11 35 R 24 23 R 23 12 R 35 0 R D
5543 7030 M 23 12 R 35 35 R 0 -246 R D 5765 6855 M -12 -12 R 12 -12 R
11 12 R -11 12 R D 5928 7077 M -35 -12 R -23 -35 R -12 -58 R 0 -35 R
12 -59 R 23 -35 R 35 -12 R 24 0 R 35 12 R 23 35 R 12 59 R 0 35 R -12 58 R
-23 35 R -35 12 R -24 0 R D 6092 6925 M 140 0 R 0 23 R -12 24 R -11 11 R
-24 12 R -35 0 R -23 -12 R -23 -23 R -12 -35 R 0 -23 R 12 -36 R 23 -23 R
23 -12 R 35 0 R 24 12 R 23 23 R D 6372 7077 M -35 -12 R -23 -35 R -12 -58 R
0 -35 R 12 -59 R 23 -35 R 35 -12 R 24 0 R 35 12 R 23 35 R 12 59 R 0 35 R
-12 58 R -23 35 R -35 12 R -24 0 R D 6571 7030 M 23 12 R 35 35 R 0 -246 R D
6781 7077 M 0 -246 R D 6781 7077 M 94 -246 R 93 246 R 0 -246 R D 7121 6818 M
-8 14 R -21 8 R -22 0 R -22 -8 R -7 -14 R 7 -15 R 15 -7 R 36 -7 R 14 -7 R
8 -15 R 0 -7 R -8 -14 R -21 -8 R -22 0 R -22 8 R -7 14 R D 7171 6840 M
0 -73 R 8 -21 R 14 -8 R 22 0 R 14 8 R 22 21 R D 7251 6840 M 0 -102 R D
7309 6840 M 0 -102 R D 7309 6811 M 21 21 R 15 8 R 22 0 R 14 -8 R 7 -21 R
0 -73 R D 20 setlinewidth 7258 6430 M 5022 0 R D 7265 6430 M 0 201 R D
8517 6430 M 0 201 R D 9769 6430 M 0 201 R D 11021 6430 M 0 201 R D
12273 6430 M 0 201 R D 7515 6430 M 0 101 R D 7766 6430 M 0 101 R D
8016 6430 M 0 101 R D 8267 6430 M 0 101 R D 8767 6430 M 0 101 R D
9018 6430 M 0 101 R D 9268 6430 M 0 101 R D 9519 6430 M 0 101 R D
10019 6430 M 0 101 R D 10270 6430 M 0 101 R D 10520 6430 M 0 101 R D
10771 6430 M 0 101 R D 11272 6430 M 0 101 R D 11522 6430 M 0 101 R D
11772 6430 M 0 101 R D 12023 6430 M 0 101 R D 7258 11452 M 5022 0 R D
7265 11452 M 0 -201 R D 8517 11452 M 0 -201 R D 9769 11452 M 0 -201 R D
11021 11452 M 0 -201 R D 12273 11452 M 0 -201 R D 7515 11452 M 0 -100 R D
7766 11452 M 0 -100 R D 8016 11452 M 0 -100 R D 8267 11452 M 0 -100 R D
8767 11452 M 0 -100 R D 9018 11452 M 0 -100 R D 9268 11452 M 0 -100 R D
9519 11452 M 0 -100 R D 10019 11452 M 0 -100 R D 10270 11452 M 0 -100 R D
10520 11452 M 0 -100 R D 10771 11452 M 0 -100 R D 11272 11452 M 0 -100 R D
11522 11452 M 0 -100 R D 11772 11452 M 0 -100 R D 12023 11452 M 0 -100 R D
7258 6430 M 0 5022 R D 7258 6437 M 201 0 R D 7258 7689 M 201 0 R D
7258 8941 M 201 0 R D 7258 10193 M 201 0 R D 7258 11445 M 201 0 R D
7258 6687 M 101 0 R D 7258 6938 M 101 0 R D 7258 7188 M 101 0 R D
7258 7439 M 101 0 R D 7258 7939 M 101 0 R D 7258 8190 M 101 0 R D
7258 8440 M 101 0 R D 7258 8691 M 101 0 R D 7258 9192 M 101 0 R D
7258 9442 M 101 0 R D 7258 9692 M 101 0 R D 7258 9943 M 101 0 R D
7258 10444 M 101 0 R D 7258 10694 M 101 0 R D 7258 10944 M 101 0 R D
7258 11195 M 101 0 R D 12280 6430 M 0 5022 R D 12280 6437 M -201 0 R D
12280 7689 M -201 0 R D 12280 8941 M -201 0 R D 12280 10193 M -201 0 R D
12280 11445 M -201 0 R D 12280 6687 M -100 0 R D 12280 6938 M -100 0 R D
12280 7188 M -100 0 R D 12280 7439 M -100 0 R D 12280 7939 M -100 0 R D
12280 8190 M -100 0 R D 12280 8440 M -100 0 R D 12280 8691 M -100 0 R D
12280 9192 M -100 0 R D 12280 9442 M -100 0 R D 12280 9692 M -100 0 R D
12280 9943 M -100 0 R D 12280 10444 M -100 0 R D 12280 10694 M -100 0 R D
12280 10944 M -100 0 R D 12280 11195 M -100 0 R D 7264 11452 M -6 -2 R D
7258 9361 M 3904 -2931 R D 8169 6430 M -911 247 R D
0.208 0.208 0.208 setrgbcolor 9744 8941 M 1 5 R 0 2 R 1 2 R 0 1 R 1 1 R
0 1 R 1 1 R 0 1 R 1 0 R 0 1 R 1 1 R 1 1 R 1 1 R 1 1 R 1 1 R 1 1 R 1 0 R
1 1 R 1 0 R 0 1 R 1 0 R 1 0 R 1 1 R 1 0 R 1 0 R 1 1 R 1 0 R 1 0 R 1 0 R
1 0 R 1 0 R 1 0 R 1 0 R 1 0 R 1 0 R 1 0 R 1 0 R 0 -1 R 1 0 R 1 0 R 1 0 R
0 -1 R 1 0 R 1 0 R 1 -1 R 1 0 R 0 -1 R 1 0 R 1 0 R 0 -1 R 1 0 R 0 -1 R 1 0 R
0 -1 R 1 0 R 0 -1 R 1 0 R 0 -1 R 1 0 R 0 -1 R 1 -1 R 1 -1 R 0 -1 R 1 -1 R
0 -1 R 1 -1 R 0 -2 R 1 -2 R 0 -5 R D 9744 8941 M 1 -5 R 0 -2 R 1 -1 R 0 -2 R
1 -1 R 0 -1 R 1 -1 R 1 -1 R 0 -1 R 1 -1 R 1 -1 R 1 -1 R 1 -1 R 1 -1 R 1 0 R
0 -1 R 1 0 R 1 -1 R 1 0 R 1 -1 R 1 0 R 1 0 R 0 -1 R 1 0 R 1 0 R 1 0 R 1 -1 R
1 0 R 1 0 R 1 0 R 1 0 R 1 0 R 1 0 R 1 0 R 1 0 R 1 0 R 0 1 R 1 0 R 1 0 R
1 0 R 1 1 R 1 0 R 1 0 R 0 1 R 1 0 R 1 0 R 0 1 R 1 0 R 1 1 R 1 0 R 0 1 R
1 0 R 0 1 R 1 0 R 0 1 R 1 0 R 0 1 R 1 0 R 0 1 R 1 1 R 0 1 R 1 0 R 0 1 R
1 1 R 0 1 R 1 2 R 0 1 R 1 2 R 0 5 R D 0.000 0.000 0.000 setrgbcolor
9769 8941 M Z 30 setlinewidth 10581 7382 M 23 12 R 35 35 R 0 -246 R D
10943 7429 M -117 -246 R D 10779 7429 M 164 0 R D 11036 7207 M -11 -12 R
11 -12 R 12 12 R -12 12 R D 11282 7347 M -12 -35 R -23 -23 R -35 -12 R
-12 0 R -35 12 R -23 23 R -12 35 R 0 12 R 12 35 R 23 23 R 35 12 R 12 0 R
35 -12 R 23 -23 R 12 -47 R 0 -58 R -12 -59 R -23 -35 R -35 -12 R -24 0 R
-35 12 R -11 23 R D 11539 7370 M -12 24 R -23 23 R -24 12 R -46 0 R
-24 -12 R -23 -23 R -12 -24 R -11 -35 R 0 -58 R 11 -35 R 12 -24 R 23 -23 R
24 -12 R 46 0 R 24 12 R 23 23 R 12 24 R 0 35 R -59 0 R D 11597 7347 M
70 -164 R 71 164 R D 11667 7183 M -23 -58 R -23 -23 R -24 -12 R -11 0 R D
11808 7347 M 0 -164 R D 11808 7277 M 11 35 R 24 23 R 23 12 R 35 0 R D
10581 7030 M 23 12 R 35 35 R 0 -246 R D 10803 6855 M -12 -12 R 12 -12 R
11 12 R -11 12 R D 10966 7077 M -35 -12 R -23 -35 R -12 -58 R 0 -35 R
12 -59 R 23 -35 R 35 -12 R 24 0 R 35 12 R 23 35 R 12 59 R 0 35 R -12 58 R
-23 35 R -35 12 R -24 0 R D 11130 6925 M 140 0 R 0 23 R -12 24 R -11 11 R
-24 12 R -35 0 R -23 -12 R -23 -23 R -12 -35 R 0 -23 R 12 -36 R 23 -23 R
23 -12 R 35 0 R 24 12 R 23 23 R D 11410 7077 M -35 -12 R -23 -35 R -12 -58 R
0 -35 R 12 -59 R 23 -35 R 35 -12 R 24 0 R 35 12 R 23 35 R 12 59 R 0 35 R
-12 58 R -23 35 R -35 12 R -24 0 R D 11609 7030 M 23 12 R 35 35 R 0 -246 R D
11819 7077 M 0 -246 R D 11819 7077 M 94 -246 R 93 246 R 0 -246 R D
12159 6818 M -8 14 R -21 8 R -22 0 R -22 -8 R -7 -14 R 7 -15 R 15 -7 R
36 -7 R 14 -7 R 8 -15 R 0 -7 R -8 -14 R -21 -8 R -22 0 R -22 8 R -7 14 R D
12209 6840 M 0 -73 R 8 -21 R 14 -8 R 22 0 R 14 8 R 22 21 R D 12289 6840 M
0 -102 R D 12347 6840 M 0 -102 R D 12347 6811 M 21 21 R 15 8 R 22 0 R
14 -8 R 7 -21 R 0 -73 R D 20 setlinewidth 12296 6430 M 5022 0 R D
12303 6430 M 0 201 R D 13555 6430 M 0 201 R D 14807 6430 M 0 201 R D
16059 6430 M 0 201 R D 17311 6430 M 0 201 R D 12553 6430 M 0 101 R D
12804 6430 M 0 101 R D 13054 6430 M 0 101 R D 13305 6430 M 0 101 R D
13805 6430 M 0 101 R D 14056 6430 M 0 101 R D 14306 6430 M 0 101 R D
14557 6430 M 0 101 R D 15057 6430 M 0 101 R D 15308 6430 M 0 101 R D
15558 6430 M 0 101 R D 15809 6430 M 0 101 R D 16310 6430 M 0 101 R D
16560 6430 M 0 101 R D 16810 6430 M 0 101 R D 17061 6430 M 0 101 R D
12296 11452 M 5022 0 R D 12303 11452 M 0 -201 R D 13555 11452 M 0 -201 R D
14807 11452 M 0 -201 R D 16059 11452 M 0 -201 R D 17311 11452 M 0 -201 R D
12553 11452 M 0 -100 R D 12804 11452 M 0 -100 R D 13054 11452 M 0 -100 R D
13305 11452 M 0 -100 R D 13805 11452 M 0 -100 R D 14056 11452 M 0 -100 R D
14306 11452 M 0 -100 R D 14557 11452 M 0 -100 R D 15057 11452 M 0 -100 R D
15308 11452 M 0 -100 R D 15558 11452 M 0 -100 R D 15809 11452 M 0 -100 R D
16310 11452 M 0 -100 R D 16560 11452 M 0 -100 R D 16810 11452 M 0 -100 R D
17061 11452 M 0 -100 R D 12296 6430 M 0 5022 R D 12296 6437 M 201 0 R D
12296 7689 M 201 0 R D 12296 8941 M 201 0 R D 12296 10193 M 201 0 R D
12296 11445 M 201 0 R D 12296 6687 M 101 0 R D 12296 6938 M 101 0 R D
12296 7188 M 101 0 R D 12296 7439 M 101 0 R D 12296 7939 M 101 0 R D
12296 8190 M 101 0 R D 12296 8440 M 101 0 R D 12296 8691 M 101 0 R D
12296 9192 M 101 0 R D 12296 9442 M 101 0 R D 12296 9692 M 101 0 R D
12296 9943 M 101 0 R D 12296 10444 M 101 0 R D 12296 10694 M 101 0 R D
12296 10944 M 101 0 R D 12296 11195 M 101 0 R D 17318 6430 M 0 5022 R D
17318 6437 M -201 0 R D 17318 7689 M -201 0 R D 17318 8941 M -201 0 R D
17318 10193 M -201 0 R D 17318 11445 M -201 0 R D 17318 6687 M -100 0 R D
17318 6938 M -100 0 R D 17318 7188 M -100 0 R D 17318 7439 M -100 0 R D
17318 7939 M -100 0 R D 17318 8190 M -100 0 R D 17318 8440 M -100 0 R D
17318 8691 M -100 0 R D 17318 9192 M -100 0 R D 17318 9442 M -100 0 R D
17318 9692 M -100 0 R D 17318 9943 M -100 0 R D 17318 10444 M -100 0 R D
17318 10694 M -100 0 R D 17318 10944 M -100 0 R D 17318 11195 M -100 0 R D
16322 6430 M -3742 5022 R D 12296 9557 M 5022 1519 R D 17318 10303 M
-2959 1032 R -612 -3890 R 1949 2327 R -1317 -1246 R 413 404 R 630 24 R
-660 1167 R -309 483 R 2503 -1834 R -2023 2682 R D 14931 11452 M
1938 -4348 R -2406 -674 R D 13827 6430 M -1108 4204 R 167 -2846 R
2078 -227 R D 0.208 0.208 0.208 setrgbcolor 14782 8941 M 1 5 R 0 2 R 1 2 R
0 1 R 1 1 R 0 1 R 1 1 R 0 1 R 1 0 R 0 1 R 1 1 R 1 1 R 1 1 R 1 1 R 1 1 R
1 1 R 1 0 R 1 1 R 1 0 R 0 1 R 1 0 R 1 0 R 1 1 R 1 0 R 1 0 R 1 1 R 1 0 R
1 0 R 1 0 R 1 0 R 1 0 R 1 0 R 1 0 R 1 0 R 1 0 R 1 0 R 1 0 R 0 -1 R 1 0 R
1 0 R 1 0 R 0 -1 R 1 0 R 1 0 R 1 -1 R 1 0 R 0 -1 R 1 0 R 1 0 R 0 -1 R 1 0 R
0 -1 R 1 0 R 0 -1 R 1 0 R 0 -1 R 1 0 R 0 -1 R 1 0 R 0 -1 R 1 -1 R 1 -1 R
0 -1 R 1 -1 R 0 -1 R 1 -1 R 0 -2 R 1 -2 R 0 -5 R D 14782 8941 M 1 -5 R
0 -2 R 1 -1 R 0 -2 R 1 -1 R 0 -1 R 1 -1 R 1 -1 R 0 -1 R 1 -1 R 1 -1 R 1 -1 R
1 -1 R 1 -1 R 1 0 R 0 -1 R 1 0 R 1 -1 R 1 0 R 1 -1 R 1 0 R 1 0 R 0 -1 R
1 0 R 1 0 R 1 0 R 1 -1 R 1 0 R 1 0 R 1 0 R 1 0 R 1 0 R 1 0 R 1 0 R 1 0 R
1 0 R 0 1 R 1 0 R 1 0 R 1 0 R 1 1 R 1 0 R 1 0 R 0 1 R 1 0 R 1 0 R 0 1 R
1 0 R 1 1 R 1 0 R 0 1 R 1 0 R 0 1 R 1 0 R 0 1 R 1 0 R 0 1 R 1 0 R 0 1 R
1 1 R 0 1 R 1 0 R 0 1 R 1 1 R 0 1 R 1 2 R 0 1 R 1 2 R 0 5 R D
0.000 0.000 0.000 setrgbcolor 14807 8941 M Z 30 setlinewidth 15736 7347 M
-12 -35 R -23 -23 R -35 -12 R -12 0 R -35 12 R -24 23 R -11 35 R 0 12 R
11 35 R 24 23 R 35 12 R 12 0 R 35 -12 R 23 -23 R 12 -47 R 0 -58 R -12 -59 R
-23 -35 R -35 -12 R -24 0 R -35 12 R -12 23 R D 15841 7207 M -12 -12 R
12 -12 R 11 12 R -11 12 R D 16051 7429 M -117 -164 R 176 0 R D 16051 7429 M
0 -246 R D 16191 7429 M 129 0 R -70 -94 R 35 0 R 23 -11 R 12 -12 R 12 -35 R
0 -23 R -12 -36 R -24 -23 R -35 -12 R -35 0 R -35 12 R -11 12 R -12 23 R D
16577 7370 M -12 24 R -23 23 R -24 12 R -46 0 R -24 -12 R -23 -23 R
-12 -24 R -11 -35 R 0 -58 R 11 -35 R 12 -24 R 23 -23 R 24 -12 R 46 0 R
24 12 R 23 23 R 12 24 R 0 35 R -59 0 R D 16635 7347 M 70 -164 R 71 164 R D
16705 7183 M -23 -58 R -23 -23 R -24 -12 R -11 0 R D 16846 7347 M 0 -164 R D
16846 7277 M 11 35 R 24 23 R 23 12 R 35 0 R D 15619 7030 M 23 12 R 35 35 R
0 -246 R D 15841 6855 M -12 -12 R 12 -12 R 11 12 R -11 12 R D 16004 7077 M
-35 -12 R -23 -35 R -12 -58 R 0 -35 R 12 -59 R 23 -35 R 35 -12 R 24 0 R
35 12 R 23 35 R 12 59 R 0 35 R -12 58 R -23 35 R -35 12 R -24 0 R D
16168 6925 M 140 0 R 0 23 R -12 24 R -11 11 R -24 12 R -35 0 R -23 -12 R
-23 -23 R -12 -35 R 0 -23 R 12 -36 R 23 -23 R 23 -12 R 35 0 R 24 12 R
23 23 R D 16448 7077 M -35 -12 R -23 -35 R -12 -58 R 0 -35 R 12 -59 R
23 -35 R 35 -12 R 24 0 R 35 12 R 23 35 R 12 59 R 0 35 R -12 58 R -23 35 R
-35 12 R -24 0 R D 16647 7030 M 23 12 R 35 35 R 0 -246 R D 16857 7077 M
0 -246 R D 16857 7077 M 94 -246 R 93 246 R 0 -246 R D 17197 6818 M -8 14 R
-21 8 R -22 0 R -22 -8 R -7 -14 R 7 -15 R 15 -7 R 36 -7 R 14 -7 R 8 -15 R
0 -7 R -8 -14 R -21 -8 R -22 0 R -22 8 R -7 14 R D 17247 6840 M 0 -73 R
8 -21 R 14 -8 R 22 0 R 14 8 R 22 21 R D 17327 6840 M 0 -102 R D 17385 6840 M
0 -102 R D 17385 6811 M 21 21 R 15 8 R 22 0 R 14 -8 R 7 -21 R 0 -73 R D
17575 8085 M 245 -93 R D 17575 8085 M 245 94 R D 17738 8027 M 0 117 R D
17680 8237 M 0 211 R D 17750 8237 M 0 211 R D 17633 8541 M -12 0 R -23 12 R
-12 12 R -11 23 R 0 47 R 11 23 R 12 12 R 23 11 R 24 0 R 23 -11 R 35 -24 R
117 -117 R 0 164 R D 17797 8787 M 11 -12 R 12 12 R -12 11 R -11 -11 R D
17575 9020 M 0 -117 R 105 -11 R -12 11 R -12 35 R 0 35 R 12 36 R 23 23 R
36 12 R 23 0 R 35 -12 R 23 -23 R 12 -36 R 0 -35 R -12 -35 R -11 -11 R
-24 -12 R D 20 setlinewidth 2220 1408 M 5022 0 R D 2227 1408 M 0 201 R D
30 setlinewidth 1760 985 M 210 0 R D 2087 1079 M 23 11 R 35 35 R 0 -245 R D
2356 1125 M -35 -11 R -24 -35 R -12 -59 R 0 -35 R 12 -58 R 24 -35 R 35 -12 R
23 0 R 35 12 R 23 35 R 12 58 R 0 35 R -12 59 R -23 35 R -35 11 R -23 0 R D
2589 1125 M -35 -11 R -23 -35 R -12 -59 R 0 -35 R 12 -58 R 23 -35 R 35 -12 R
24 0 R 35 12 R 23 35 R 12 58 R 0 35 R -12 59 R -23 35 R -35 11 R -24 0 R D
20 setlinewidth 3479 1408 M 0 201 R D 30 setlinewidth 3129 985 M 210 0 R D
3561 1125 M -117 0 R -12 -105 R 12 12 R 35 12 R 35 0 R 35 -12 R 24 -23 R
11 -35 R 0 -24 R -11 -35 R -24 -23 R -35 -12 R -35 0 R -35 12 R -12 11 R
-11 24 R D 3724 1125 M -35 -11 R -23 -35 R -12 -59 R 0 -35 R 12 -58 R
23 -35 R 35 -12 R 24 0 R 35 12 R 23 35 R 12 58 R 0 35 R -12 59 R -23 35 R
-35 11 R -24 0 R D 20 setlinewidth 4731 1408 M 0 201 R D 30 setlinewidth
4708 1125 M -35 -11 R -24 -35 R -11 -59 R 0 -35 R 11 -58 R 24 -35 R 35 -12 R
23 0 R 35 12 R 24 35 R 11 58 R 0 35 R -11 59 R -24 35 R -35 11 R -23 0 R D
20 setlinewidth 5983 1408 M 0 201 R D 30 setlinewidth 5913 1125 M -117 0 R
-12 -105 R 12 12 R 35 12 R 35 0 R 35 -12 R 24 -23 R 11 -35 R 0 -24 R
-11 -35 R -24 -23 R -35 -12 R -35 0 R -35 12 R -12 11 R -11 24 R D
6077 1125 M -35 -11 R -24 -35 R -12 -59 R 0 -35 R 12 -58 R 24 -35 R 35 -12 R
23 0 R 35 12 R 23 35 R 12 58 R 0 35 R -12 59 R -23 35 R -35 11 R -23 0 R D
20 setlinewidth 7235 1408 M 0 201 R D 30 setlinewidth 6943 1079 M 23 11 R
35 35 R 0 -245 R D 7212 1125 M -35 -11 R -24 -35 R -11 -59 R 0 -35 R
11 -58 R 24 -35 R 35 -12 R 23 0 R 35 12 R 24 35 R 11 58 R 0 35 R -11 59 R
-24 35 R -35 11 R -23 0 R D 7445 1125 M -35 -11 R -23 -35 R -12 -59 R
0 -35 R 12 -58 R 23 -35 R 35 -12 R 24 0 R 35 12 R 23 35 R 12 58 R 0 35 R
-12 59 R -23 35 R -35 11 R -24 0 R D 20 setlinewidth 2477 1408 M 0 101 R D
2728 1408 M 0 101 R D 2978 1408 M 0 101 R D 3229 1408 M 0 101 R D
3729 1408 M 0 101 R D 3980 1408 M 0 101 R D 4230 1408 M 0 101 R D
4481 1408 M 0 101 R D 4981 1408 M 0 101 R D 5232 1408 M 0 101 R D
5482 1408 M 0 101 R D 5733 1408 M 0 101 R D 6234 1408 M 0 101 R D
6484 1408 M 0 101 R D 6734 1408 M 0 101 R D 6985 1408 M 0 101 R D
2220 6430 M 5022 0 R D 2227 6430 M 0 -201 R D 3479 6430 M 0 -201 R D
4731 6430 M 0 -201 R D 5983 6430 M 0 -201 R D 7235 6430 M 0 -201 R D
2477 6430 M 0 -100 R D 2728 6430 M 0 -100 R D 2978 6430 M 0 -100 R D
3229 6430 M 0 -100 R D 3729 6430 M 0 -100 R D 3980 6430 M 0 -100 R D
4230 6430 M 0 -100 R D 4481 6430 M 0 -100 R D 4981 6430 M 0 -100 R D
5232 6430 M 0 -100 R D 5482 6430 M 0 -100 R D 5733 6430 M 0 -100 R D
6234 6430 M 0 -100 R D 6484 6430 M 0 -100 R D 6734 6430 M 0 -100 R D
6985 6430 M 0 -100 R D 2220 1408 M 0 5022 R D 2220 1415 M 201 0 R D
30 setlinewidth 1139 1513 M 211 0 R D 1466 1607 M 24 11 R 35 35 R 0 -245 R D
1735 1653 M -35 -11 R -23 -35 R -12 -59 R 0 -35 R 12 -58 R 23 -35 R 35 -12 R
24 0 R 35 12 R 23 35 R 12 58 R 0 35 R -12 59 R -23 35 R -35 11 R -24 0 R D
1969 1653 M -35 -11 R -24 -35 R -11 -59 R 0 -35 R 11 -58 R 24 -35 R 35 -12 R
23 0 R 35 12 R 24 35 R 11 58 R 0 35 R -11 59 R -24 35 R -35 11 R -23 0 R D
20 setlinewidth 2220 2667 M 201 0 R D 30 setlinewidth 1373 2631 M 210 0 R D
1805 2772 M -117 0 R -11 -105 R 11 11 R 36 12 R 35 0 R 35 -12 R 23 -23 R
12 -35 R 0 -24 R -12 -35 R -23 -23 R -35 -12 R -35 0 R -36 12 R -11 12 R
-12 23 R D 1969 2772 M -35 -12 R -24 -35 R -11 -58 R 0 -36 R 11 -58 R
24 -35 R 35 -12 R 23 0 R 35 12 R 24 35 R 11 58 R 0 36 R -11 58 R -24 35 R
-35 12 R -23 0 R D 20 setlinewidth 2220 3919 M 201 0 R D 30 setlinewidth
1969 4024 M -35 -12 R -24 -35 R -11 -58 R 0 -36 R 11 -58 R 24 -35 R 35 -12 R
23 0 R 35 12 R 24 35 R 11 58 R 0 36 R -11 58 R -24 35 R -35 12 R -23 0 R D
20 setlinewidth 2220 5171 M 201 0 R D 30 setlinewidth 1805 5276 M -117 0 R
-11 -105 R 11 11 R 36 12 R 35 0 R 35 -12 R 23 -23 R 12 -35 R 0 -24 R
-12 -35 R -23 -23 R -35 -12 R -35 0 R -36 12 R -11 12 R -12 23 R D
1969 5276 M -35 -12 R -24 -35 R -11 -58 R 0 -36 R 11 -58 R 24 -35 R 35 -12 R
23 0 R 35 12 R 24 35 R 11 58 R 0 36 R -11 58 R -24 35 R -35 12 R -23 0 R D
20 setlinewidth 2220 6423 M 201 0 R D 30 setlinewidth 1466 6382 M 24 12 R
35 35 R 0 -245 R D 1735 6429 M -35 -12 R -23 -35 R -12 -58 R 0 -35 R
12 -59 R 23 -35 R 35 -11 R 24 0 R 35 11 R 23 35 R 12 59 R 0 35 R -12 58 R
-23 35 R -35 12 R -24 0 R D 1969 6429 M -35 -12 R -24 -35 R -11 -58 R
0 -35 R 11 -59 R 24 -35 R 35 -11 R 23 0 R 35 11 R 24 35 R 11 59 R 0 35 R
-11 58 R -24 35 R -35 12 R -23 0 R D 20 setlinewidth 2220 1665 M 101 0 R D
2220 1916 M 101 0 R D 2220 2166 M 101 0 R D 2220 2417 M 101 0 R D
2220 2917 M 101 0 R D 2220 3168 M 101 0 R D 2220 3418 M 101 0 R D
2220 3669 M 101 0 R D 2220 4170 M 101 0 R D 2220 4420 M 101 0 R D
2220 4670 M 101 0 R D 2220 4921 M 101 0 R D 2220 5422 M 101 0 R D
2220 5672 M 101 0 R D 2220 5922 M 101 0 R D 2220 6173 M 101 0 R D
7242 1408 M 0 5022 R D 7242 1415 M -201 0 R D 7242 2667 M -201 0 R D
7242 3919 M -201 0 R D 7242 5171 M -201 0 R D 7242 6423 M -201 0 R D
7242 1665 M -100 0 R D 7242 1916 M -100 0 R D 7242 2166 M -100 0 R D
7242 2417 M -100 0 R D 7242 2917 M -100 0 R D 7242 3168 M -100 0 R D
7242 3418 M -100 0 R D 7242 3669 M -100 0 R D 7242 4170 M -100 0 R D
7242 4420 M -100 0 R D 7242 4670 M -100 0 R D 7242 4921 M -100 0 R D
7242 5422 M -100 0 R D 7242 5672 M -100 0 R D 7242 5922 M -100 0 R D
7242 6173 M -100 0 R D 7242 5234 M -4057 1196 R D 2220 4795 M 5022 -2480 R D
6727 1408 M -4507 1839 R D 7242 1474 M -84 -66 R D 2309 1408 M 4933 4594 R D
0.208 0.208 0.208 setrgbcolor 4706 3919 M 1 5 R 0 2 R 1 2 R 0 1 R 1 1 R
0 1 R 1 1 R 0 1 R 1 0 R 0 1 R 1 1 R 1 1 R 1 1 R 1 1 R 1 1 R 1 1 R 1 0 R
1 1 R 1 0 R 0 1 R 1 0 R 1 0 R 1 1 R 1 0 R 1 0 R 1 1 R 1 0 R 1 0 R 1 0 R
1 0 R 1 0 R 1 0 R 1 0 R 1 0 R 1 0 R 1 0 R 1 0 R 0 -1 R 1 0 R 1 0 R 1 0 R
0 -1 R 1 0 R 1 0 R 1 -1 R 1 0 R 0 -1 R 1 0 R 1 0 R 0 -1 R 1 0 R 0 -1 R 1 0 R
0 -1 R 1 0 R 0 -1 R 1 0 R 0 -1 R 1 0 R 0 -1 R 1 -1 R 1 -1 R 0 -1 R 1 -1 R
0 -1 R 1 -1 R 0 -2 R 1 -2 R 0 -5 R D 4706 3919 M 1 -5 R 0 -2 R 1 -1 R 0 -2 R
1 -1 R 0 -1 R 1 -1 R 1 -1 R 0 -1 R 1 -1 R 1 -1 R 1 -1 R 1 -1 R 1 -1 R 1 0 R
0 -1 R 1 0 R 1 -1 R 1 0 R 1 -1 R 1 0 R 1 0 R 0 -1 R 1 0 R 1 0 R 1 0 R 1 -1 R
1 0 R 1 0 R 1 0 R 1 0 R 1 0 R 1 0 R 1 0 R 1 0 R 1 0 R 0 1 R 1 0 R 1 0 R
1 0 R 1 1 R 1 0 R 1 0 R 0 1 R 1 0 R 1 0 R 0 1 R 1 0 R 1 1 R 1 0 R 0 1 R
1 0 R 0 1 R 1 0 R 0 1 R 1 0 R 0 1 R 1 0 R 0 1 R 1 1 R 0 1 R 1 0 R 0 1 R
1 1 R 0 1 R 1 2 R 0 1 R 1 2 R 0 5 R D 0.000 0.000 0.000 setrgbcolor
4731 3919 M Z 30 setlinewidth 5543 2360 M 23 12 R 35 35 R 0 -246 R D
5753 2348 M 0 12 R 12 23 R 11 12 R 24 12 R 47 0 R 23 -12 R 12 -12 R 11 -23 R
0 -23 R -11 -24 R -24 -35 R -117 -117 R 164 0 R D 5998 2185 M -11 -12 R
11 -12 R 12 12 R -12 12 R D 6209 2407 M -117 -164 R 175 0 R D 6209 2407 M
0 -246 R D 6501 2348 M -12 24 R -23 23 R -24 12 R -46 0 R -24 -12 R
-23 -23 R -12 -24 R -11 -35 R 0 -58 R 11 -35 R 12 -24 R 23 -23 R 24 -12 R
46 0 R 24 12 R 23 23 R 12 24 R 0 35 R -59 0 R D 6559 2325 M 70 -164 R
71 164 R D 6629 2161 M -23 -58 R -23 -23 R -24 -12 R -11 0 R D 6770 2325 M
0 -164 R D 6770 2255 M 11 35 R 24 23 R 23 12 R 35 0 R D 5543 2008 M 23 12 R
35 35 R 0 -246 R D 5765 1833 M -12 -12 R 12 -12 R 11 12 R -11 12 R D
5928 2055 M -35 -12 R -23 -35 R -12 -58 R 0 -35 R 12 -59 R 23 -35 R 35 -12 R
24 0 R 35 12 R 23 35 R 12 59 R 0 35 R -12 58 R -23 35 R -35 12 R -24 0 R D
6092 1903 M 140 0 R 0 23 R -12 24 R -11 11 R -24 12 R -35 0 R -23 -12 R
-23 -23 R -12 -35 R 0 -23 R 12 -36 R 23 -23 R 23 -12 R 35 0 R 24 12 R
23 23 R D 6372 2055 M -35 -12 R -23 -35 R -12 -58 R 0 -35 R 12 -59 R
23 -35 R 35 -12 R 24 0 R 35 12 R 23 35 R 12 59 R 0 35 R -12 58 R -23 35 R
-35 12 R -24 0 R D 6571 2008 M 23 12 R 35 35 R 0 -246 R D 6781 2055 M
0 -246 R D 6781 2055 M 94 -246 R 93 246 R 0 -246 R D 7121 1796 M -8 14 R
-21 8 R -22 0 R -22 -8 R -7 -14 R 7 -15 R 15 -7 R 36 -7 R 14 -7 R 8 -15 R
0 -7 R -8 -14 R -21 -8 R -22 0 R -22 8 R -7 14 R D 7171 1818 M 0 -73 R
8 -21 R 14 -8 R 22 0 R 14 8 R 22 21 R D 7251 1818 M 0 -102 R D 7309 1818 M
0 -102 R D 7309 1789 M 21 21 R 15 8 R 22 0 R 14 -8 R 7 -21 R 0 -73 R D
20 setlinewidth 7258 1408 M 5022 0 R D 7265 1408 M 0 201 R D 30 setlinewidth
6798 985 M 210 0 R D 7125 1079 M 23 11 R 35 35 R 0 -245 R D 7394 1125 M
-35 -11 R -24 -35 R -12 -59 R 0 -35 R 12 -58 R 24 -35 R 35 -12 R 23 0 R
35 12 R 23 35 R 12 58 R 0 35 R -12 59 R -23 35 R -35 11 R -23 0 R D
7627 1125 M -35 -11 R -23 -35 R -12 -59 R 0 -35 R 12 -58 R 23 -35 R 35 -12 R
24 0 R 35 12 R 23 35 R 12 58 R 0 35 R -12 59 R -23 35 R -35 11 R -24 0 R D
20 setlinewidth 8517 1408 M 0 201 R D 30 setlinewidth 8167 985 M 210 0 R D
8599 1125 M -117 0 R -12 -105 R 12 12 R 35 12 R 35 0 R 35 -12 R 24 -23 R
11 -35 R 0 -24 R -11 -35 R -24 -23 R -35 -12 R -35 0 R -35 12 R -12 11 R
-11 24 R D 8762 1125 M -35 -11 R -23 -35 R -12 -59 R 0 -35 R 12 -58 R
23 -35 R 35 -12 R 24 0 R 35 12 R 23 35 R 12 58 R 0 35 R -12 59 R -23 35 R
-35 11 R -24 0 R D 20 setlinewidth 9769 1408 M 0 201 R D 30 setlinewidth
9746 1125 M -35 -11 R -24 -35 R -11 -59 R 0 -35 R 11 -58 R 24 -35 R 35 -12 R
23 0 R 35 12 R 24 35 R 11 58 R 0 35 R -11 59 R -24 35 R -35 11 R -23 0 R D
20 setlinewidth 11021 1408 M 0 201 R D 30 setlinewidth 10951 1125 M -117 0 R
-12 -105 R 12 12 R 35 12 R 35 0 R 35 -12 R 24 -23 R 11 -35 R 0 -24 R
-11 -35 R -24 -23 R -35 -12 R -35 0 R -35 12 R -12 11 R -11 24 R D
11115 1125 M -35 -11 R -24 -35 R -12 -59 R 0 -35 R 12 -58 R 24 -35 R
35 -12 R 23 0 R 35 12 R 23 35 R 12 58 R 0 35 R -12 59 R -23 35 R -35 11 R
-23 0 R D 20 setlinewidth 12273 1408 M 0 201 R D 30 setlinewidth
11981 1079 M 23 11 R 35 35 R 0 -245 R D 12250 1125 M -35 -11 R -24 -35 R
-11 -59 R 0 -35 R 11 -58 R 24 -35 R 35 -12 R 23 0 R 35 12 R 24 35 R 11 58 R
0 35 R -11 59 R -24 35 R -35 11 R -23 0 R D 12483 1125 M -35 -11 R -23 -35 R
-12 -59 R 0 -35 R 12 -58 R 23 -35 R 35 -12 R 24 0 R 35 12 R 23 35 R 12 58 R
0 35 R -12 59 R -23 35 R -35 11 R -24 0 R D 20 setlinewidth 7515 1408 M
0 101 R D 7766 1408 M 0 101 R D 8016 1408 M 0 101 R D 8267 1408 M 0 101 R D
8767 1408 M 0 101 R D 9018 1408 M 0 101 R D 9268 1408 M 0 101 R D
9519 1408 M 0 101 R D 10019 1408 M 0 101 R D 10270 1408 M 0 101 R D
10520 1408 M 0 101 R D 10771 1408 M 0 101 R D 11272 1408 M 0 101 R D
11522 1408 M 0 101 R D 11772 1408 M 0 101 R D 12023 1408 M 0 101 R D
7258 6430 M 5022 0 R D 7265 6430 M 0 -201 R D 8517 6430 M 0 -201 R D
9769 6430 M 0 -201 R D 11021 6430 M 0 -201 R D 12273 6430 M 0 -201 R D
7515 6430 M 0 -100 R D 7766 6430 M 0 -100 R D 8016 6430 M 0 -100 R D
8267 6430 M 0 -100 R D 8767 6430 M 0 -100 R D 9018 6430 M 0 -100 R D
9268 6430 M 0 -100 R D 9519 6430 M 0 -100 R D 10019 6430 M 0 -100 R D
10270 6430 M 0 -100 R D 10520 6430 M 0 -100 R D 10771 6430 M 0 -100 R D
11272 6430 M 0 -100 R D 11522 6430 M 0 -100 R D 11772 6430 M 0 -100 R D
12023 6430 M 0 -100 R D 7258 1408 M 0 5022 R D 7258 1415 M 201 0 R D
7258 2667 M 201 0 R D 7258 3919 M 201 0 R D 7258 5171 M 201 0 R D
7258 6423 M 201 0 R D 7258 1665 M 101 0 R D 7258 1916 M 101 0 R D
7258 2166 M 101 0 R D 7258 2417 M 101 0 R D 7258 2917 M 101 0 R D
7258 3168 M 101 0 R D 7258 3418 M 101 0 R D 7258 3669 M 101 0 R D
7258 4170 M 101 0 R D 7258 4420 M 101 0 R D 7258 4670 M 101 0 R D
7258 4921 M 101 0 R D 7258 5422 M 101 0 R D 7258 5672 M 101 0 R D
7258 5922 M 101 0 R D 7258 6173 M 101 0 R D 12280 1408 M 0 5022 R D
12280 1415 M -201 0 R D 12280 2667 M -201 0 R D 12280 3919 M -201 0 R D
12280 5171 M -201 0 R D 12280 6423 M -201 0 R D 12280 1665 M -100 0 R D
12280 1916 M -100 0 R D 12280 2166 M -100 0 R D 12280 2417 M -100 0 R D
12280 2917 M -100 0 R D 12280 3168 M -100 0 R D 12280 3418 M -100 0 R D
12280 3669 M -100 0 R D 12280 4170 M -100 0 R D 12280 4420 M -100 0 R D
12280 4670 M -100 0 R D 12280 4921 M -100 0 R D 12280 5422 M -100 0 R D
12280 5672 M -100 0 R D 12280 5922 M -100 0 R D 12280 6173 M -100 0 R D
8953 6430 M -1695 -2760 R D 10922 1408 M 1358 514 R D
0.208 0.208 0.208 setrgbcolor 9744 3919 M 1 5 R 0 2 R 1 2 R 0 1 R 1 1 R
0 1 R 1 1 R 0 1 R 1 0 R 0 1 R 1 1 R 1 1 R 1 1 R 1 1 R 1 1 R 1 1 R 1 0 R
1 1 R 1 0 R 0 1 R 1 0 R 1 0 R 1 1 R 1 0 R 1 0 R 1 1 R 1 0 R 1 0 R 1 0 R
1 0 R 1 0 R 1 0 R 1 0 R 1 0 R 1 0 R 1 0 R 1 0 R 0 -1 R 1 0 R 1 0 R 1 0 R
0 -1 R 1 0 R 1 0 R 1 -1 R 1 0 R 0 -1 R 1 0 R 1 0 R 0 -1 R 1 0 R 0 -1 R 1 0 R
0 -1 R 1 0 R 0 -1 R 1 0 R 0 -1 R 1 0 R 0 -1 R 1 -1 R 1 -1 R 0 -1 R 1 -1 R
0 -1 R 1 -1 R 0 -2 R 1 -2 R 0 -5 R D 9744 3919 M 1 -5 R 0 -2 R 1 -1 R 0 -2 R
1 -1 R 0 -1 R 1 -1 R 1 -1 R 0 -1 R 1 -1 R 1 -1 R 1 -1 R 1 -1 R 1 -1 R 1 0 R
0 -1 R 1 0 R 1 -1 R 1 0 R 1 -1 R 1 0 R 1 0 R 0 -1 R 1 0 R 1 0 R 1 0 R 1 -1 R
1 0 R 1 0 R 1 0 R 1 0 R 1 0 R 1 0 R 1 0 R 1 0 R 1 0 R 0 1 R 1 0 R 1 0 R
1 0 R 1 1 R 1 0 R 1 0 R 0 1 R 1 0 R 1 0 R 0 1 R 1 0 R 1 1 R 1 0 R 0 1 R
1 0 R 0 1 R 1 0 R 0 1 R 1 0 R 0 1 R 1 0 R 0 1 R 1 1 R 0 1 R 1 0 R 0 1 R
1 1 R 0 1 R 1 2 R 0 1 R 1 2 R 0 5 R D 0.000 0.000 0.000 setrgbcolor
9769 3919 M Z 30 setlinewidth 10663 2407 M -117 -164 R 175 0 R D
10663 2407 M 0 -246 R D 10920 2407 M -117 0 R -12 -105 R 12 11 R 35 12 R
35 0 R 35 -12 R 23 -23 R 12 -35 R 0 -23 R -12 -36 R -23 -23 R -35 -12 R
-35 0 R -35 12 R -12 12 R -12 23 R D 11036 2185 M -11 -12 R 11 -12 R 12 12 R
-12 12 R D 11200 2407 M -35 -12 R -23 -35 R -12 -58 R 0 -35 R 12 -59 R
23 -35 R 35 -12 R 23 0 R 35 12 R 24 35 R 12 59 R 0 35 R -12 58 R -24 35 R
-35 12 R -23 0 R D 11539 2348 M -12 24 R -23 23 R -24 12 R -46 0 R -24 -12 R
-23 -23 R -12 -24 R -11 -35 R 0 -58 R 11 -35 R 12 -24 R 23 -23 R 24 -12 R
46 0 R 24 12 R 23 23 R 12 24 R 0 35 R -59 0 R D 11597 2325 M 70 -164 R
71 164 R D 11667 2161 M -23 -58 R -23 -23 R -24 -12 R -11 0 R D 11808 2325 M
0 -164 R D 11808 2255 M 11 35 R 24 23 R 23 12 R 35 0 R D 10569 2055 M
129 0 R -70 -94 R 35 0 R 23 -11 R 12 -12 R 11 -35 R 0 -23 R -11 -36 R
-24 -23 R -35 -12 R -35 0 R -35 12 R -12 12 R -11 23 R D 10803 1833 M
-12 -12 R 12 -12 R 11 12 R -11 12 R D 11036 2055 M -116 0 R -12 -105 R
12 11 R 35 12 R 35 0 R 35 -12 R 23 -23 R 12 -35 R 0 -23 R -12 -36 R
-23 -23 R -35 -12 R -35 0 R -35 12 R -12 12 R -12 23 R D 11130 1903 M
140 0 R 0 23 R -12 24 R -11 11 R -24 12 R -35 0 R -23 -12 R -23 -23 R
-12 -35 R 0 -23 R 12 -36 R 23 -23 R 23 -12 R 35 0 R 24 12 R 23 23 R D
11375 2008 M 24 12 R 35 35 R 0 -246 R D 11644 2055 M -35 -12 R -23 -35 R
-12 -58 R 0 -35 R 12 -59 R 23 -35 R 35 -12 R 23 0 R 35 12 R 24 35 R 12 59 R
0 35 R -12 58 R -24 35 R -35 12 R -23 0 R D 11819 2055 M 0 -246 R D
11819 2055 M 94 -246 R 93 246 R 0 -246 R D 12159 1796 M -8 14 R -21 8 R
-22 0 R -22 -8 R -7 -14 R 7 -15 R 15 -7 R 36 -7 R 14 -7 R 8 -15 R 0 -7 R
-8 -14 R -21 -8 R -22 0 R -22 8 R -7 14 R D 12209 1818 M 0 -73 R 8 -21 R
14 -8 R 22 0 R 14 8 R 22 21 R D 12289 1818 M 0 -102 R D 12347 1818 M
0 -102 R D 12347 1789 M 21 21 R 15 8 R 22 0 R 14 -8 R 7 -21 R 0 -73 R D
20 setlinewidth 12296 1408 M 5022 0 R D 12303 1408 M 0 201 R D
30 setlinewidth 11836 985 M 210 0 R D 12163 1079 M 23 11 R 35 35 R 0 -245 R
D 12432 1125 M -35 -11 R -24 -35 R -12 -59 R 0 -35 R 12 -58 R 24 -35 R
35 -12 R 23 0 R 35 12 R 23 35 R 12 58 R 0 35 R -12 59 R -23 35 R -35 11 R
-23 0 R D 12665 1125 M -35 -11 R -23 -35 R -12 -59 R 0 -35 R 12 -58 R
23 -35 R 35 -12 R 24 0 R 35 12 R 23 35 R 12 58 R 0 35 R -12 59 R -23 35 R
-35 11 R -24 0 R D 20 setlinewidth 13555 1408 M 0 201 R D 30 setlinewidth
13205 985 M 210 0 R D 13637 1125 M -117 0 R -12 -105 R 12 12 R 35 12 R
35 0 R 35 -12 R 24 -23 R 11 -35 R 0 -24 R -11 -35 R -24 -23 R -35 -12 R
-35 0 R -35 12 R -12 11 R -11 24 R D 13800 1125 M -35 -11 R -23 -35 R
-12 -59 R 0 -35 R 12 -58 R 23 -35 R 35 -12 R 24 0 R 35 12 R 23 35 R 12 58 R
0 35 R -12 59 R -23 35 R -35 11 R -24 0 R D 20 setlinewidth 14807 1408 M
0 201 R D 30 setlinewidth 14784 1125 M -35 -11 R -24 -35 R -11 -59 R 0 -35 R
11 -58 R 24 -35 R 35 -12 R 23 0 R 35 12 R 24 35 R 11 58 R 0 35 R -11 59 R
-24 35 R -35 11 R -23 0 R D 20 setlinewidth 16059 1408 M 0 201 R D
30 setlinewidth 15989 1125 M -117 0 R -12 -105 R 12 12 R 35 12 R 35 0 R
35 -12 R 24 -23 R 11 -35 R 0 -24 R -11 -35 R -24 -23 R -35 -12 R -35 0 R
-35 12 R -12 11 R -11 24 R D 16153 1125 M -35 -11 R -24 -35 R -12 -59 R
0 -35 R 12 -58 R 24 -35 R 35 -12 R 23 0 R 35 12 R 23 35 R 12 58 R 0 35 R
-12 59 R -23 35 R -35 11 R -23 0 R D 20 setlinewidth 17311 1408 M 0 201 R D
30 setlinewidth 17019 1079 M 23 11 R 35 35 R 0 -245 R D 17288 1125 M
-35 -11 R -24 -35 R -11 -59 R 0 -35 R 11 -58 R 24 -35 R 35 -12 R 23 0 R
35 12 R 24 35 R 11 58 R 0 35 R -11 59 R -24 35 R -35 11 R -23 0 R D
17521 1125 M -35 -11 R -23 -35 R -12 -59 R 0 -35 R 12 -58 R 23 -35 R
35 -12 R 24 0 R 35 12 R 23 35 R 12 58 R 0 35 R -12 59 R -23 35 R -35 11 R
-24 0 R D 20 setlinewidth 12553 1408 M 0 101 R D 12804 1408 M 0 101 R D
13054 1408 M 0 101 R D 13305 1408 M 0 101 R D 13805 1408 M 0 101 R D
14056 1408 M 0 101 R D 14306 1408 M 0 101 R D 14557 1408 M 0 101 R D
15057 1408 M 0 101 R D 15308 1408 M 0 101 R D 15558 1408 M 0 101 R D
15809 1408 M 0 101 R D 16310 1408 M 0 101 R D 16560 1408 M 0 101 R D
16810 1408 M 0 101 R D 17061 1408 M 0 101 R D 12296 6430 M 5022 0 R D
12303 6430 M 0 -201 R D 13555 6430 M 0 -201 R D 14807 6430 M 0 -201 R D
16059 6430 M 0 -201 R D 17311 6430 M 0 -201 R D 12553 6430 M 0 -100 R D
12804 6430 M 0 -100 R D 13054 6430 M 0 -100 R D 13305 6430 M 0 -100 R D
13805 6430 M 0 -100 R D 14056 6430 M 0 -100 R D 14306 6430 M 0 -100 R D
14557 6430 M 0 -100 R D 15057 6430 M 0 -100 R D 15308 6430 M 0 -100 R D
15558 6430 M 0 -100 R D 15809 6430 M 0 -100 R D 16310 6430 M 0 -100 R D
16560 6430 M 0 -100 R D 16810 6430 M 0 -100 R D 17061 6430 M 0 -100 R D
12296 1408 M 0 5022 R D 12296 1415 M 201 0 R D 12296 2667 M 201 0 R D
12296 3919 M 201 0 R D 12296 5171 M 201 0 R D 12296 6423 M 201 0 R D
12296 1665 M 101 0 R D 12296 1916 M 101 0 R D 12296 2166 M 101 0 R D
12296 2417 M 101 0 R D 12296 2917 M 101 0 R D 12296 3168 M 101 0 R D
12296 3418 M 101 0 R D 12296 3669 M 101 0 R D 12296 4170 M 101 0 R D
12296 4420 M 101 0 R D 12296 4670 M 101 0 R D 12296 4921 M 101 0 R D
12296 5422 M 101 0 R D 12296 5672 M 101 0 R D 12296 5922 M 101 0 R D
12296 6173 M 101 0 R D 17318 1408 M 0 5022 R D 17318 1415 M -201 0 R D
17318 2667 M -201 0 R D 17318 3919 M -201 0 R D 17318 5171 M -201 0 R D
17318 6423 M -201 0 R D 17318 1665 M -100 0 R D 17318 1916 M -100 0 R D
17318 2166 M -100 0 R D 17318 2417 M -100 0 R D 17318 2917 M -100 0 R D
17318 3168 M -100 0 R D 17318 3418 M -100 0 R D 17318 3669 M -100 0 R D
17318 4170 M -100 0 R D 17318 4420 M -100 0 R D 17318 4670 M -100 0 R D
17318 4921 M -100 0 R D 17318 5422 M -100 0 R D 17318 5672 M -100 0 R D
17318 5922 M -100 0 R D 17318 6173 M -100 0 R D 14127 6430 M -395 -1052 R
67 -1474 R 1249 -883 R 53 2479 R -231 -4092 R D 14702 1408 M -2261 5022 R D
15050 6430 M 2268 -729 R D 17318 2395 M -1402 -987 R D 17264 1408 M 54 35 R
D 15720 6430 M 1598 -1003 R D 0.208 0.208 0.208 setrgbcolor 14782 3919 M
1 5 R 0 2 R 1 2 R 0 1 R 1 1 R 0 1 R 1 1 R 0 1 R 1 0 R 0 1 R 1 1 R 1 1 R
1 1 R 1 1 R 1 1 R 1 1 R 1 0 R 1 1 R 1 0 R 0 1 R 1 0 R 1 0 R 1 1 R 1 0 R
1 0 R 1 1 R 1 0 R 1 0 R 1 0 R 1 0 R 1 0 R 1 0 R 1 0 R 1 0 R 1 0 R 1 0 R
1 0 R 0 -1 R 1 0 R 1 0 R 1 0 R 0 -1 R 1 0 R 1 0 R 1 -1 R 1 0 R 0 -1 R 1 0 R
1 0 R 0 -1 R 1 0 R 0 -1 R 1 0 R 0 -1 R 1 0 R 0 -1 R 1 0 R 0 -1 R 1 0 R
0 -1 R 1 -1 R 1 -1 R 0 -1 R 1 -1 R 0 -1 R 1 -1 R 0 -2 R 1 -2 R 0 -5 R D
14782 3919 M 1 -5 R 0 -2 R 1 -1 R 0 -2 R 1 -1 R 0 -1 R 1 -1 R 1 -1 R 0 -1 R
1 -1 R 1 -1 R 1 -1 R 1 -1 R 1 -1 R 1 0 R 0 -1 R 1 0 R 1 -1 R 1 0 R 1 -1 R
1 0 R 1 0 R 0 -1 R 1 0 R 1 0 R 1 0 R 1 -1 R 1 0 R 1 0 R 1 0 R 1 0 R 1 0 R
1 0 R 1 0 R 1 0 R 1 0 R 0 1 R 1 0 R 1 0 R 1 0 R 1 1 R 1 0 R 1 0 R 0 1 R
1 0 R 1 0 R 0 1 R 1 0 R 1 1 R 1 0 R 0 1 R 1 0 R 0 1 R 1 0 R 0 1 R 1 0 R
0 1 R 1 0 R 0 1 R 1 1 R 0 1 R 1 0 R 0 1 R 1 1 R 0 1 R 1 2 R 0 1 R 1 2 R
0 5 R D 0.000 0.000 0.000 setrgbcolor 14807 3919 M Z 30 setlinewidth
15595 2348 M 0 12 R 12 23 R 12 12 R 23 12 R 47 0 R 23 -12 R 12 -12 R
12 -23 R 0 -23 R -12 -24 R -23 -35 R -117 -117 R 163 0 R D 15969 2325 M
-11 -35 R -24 -23 R -35 -12 R -11 0 R -36 12 R -23 23 R -12 35 R 0 12 R
12 35 R 23 23 R 36 12 R 11 0 R 35 -12 R 24 -23 R 11 -47 R 0 -58 R -11 -59 R
-24 -35 R -35 -12 R -23 0 R -35 12 R -12 23 R D 16074 2185 M -11 -12 R
11 -12 R 12 12 R -12 12 R D 16191 2407 M 129 0 R -70 -94 R 35 0 R 23 -11 R
12 -12 R 12 -35 R 0 -23 R -12 -36 R -24 -23 R -35 -12 R -35 0 R -35 12 R
-11 12 R -12 23 R D 16577 2348 M -12 24 R -23 23 R -24 12 R -46 0 R
-24 -12 R -23 -23 R -12 -24 R -11 -35 R 0 -58 R 11 -35 R 12 -24 R 23 -23 R
24 -12 R 46 0 R 24 12 R 23 23 R 12 24 R 0 35 R -59 0 R D 16635 2325 M
70 -164 R 71 164 R D 16705 2161 M -23 -58 R -23 -23 R -24 -12 R -11 0 R D
16846 2325 M 0 -164 R D 16846 2255 M 11 35 R 24 23 R 23 12 R 35 0 R D
15619 2008 M 23 12 R 35 35 R 0 -246 R D 15841 1833 M -12 -12 R 12 -12 R
11 12 R -11 12 R D 16004 2055 M -35 -12 R -23 -35 R -12 -58 R 0 -35 R
12 -59 R 23 -35 R 35 -12 R 24 0 R 35 12 R 23 35 R 12 59 R 0 35 R -12 58 R
-23 35 R -35 12 R -24 0 R D 16168 1903 M 140 0 R 0 23 R -12 24 R -11 11 R
-24 12 R -35 0 R -23 -12 R -23 -23 R -12 -35 R 0 -23 R 12 -36 R 23 -23 R
23 -12 R 35 0 R 24 12 R 23 23 R D 16448 2055 M -35 -12 R -23 -35 R -12 -58 R
0 -35 R 12 -59 R 23 -35 R 35 -12 R 24 0 R 35 12 R 23 35 R 12 59 R 0 35 R
-12 58 R -23 35 R -35 12 R -24 0 R D 16647 2008 M 23 12 R 35 35 R 0 -246 R D
16857 2055 M 0 -246 R D 16857 2055 M 94 -246 R 93 246 R 0 -246 R D
17197 1796 M -8 14 R -21 8 R -22 0 R -22 -8 R -7 -14 R 7 -15 R 15 -7 R
36 -7 R 14 -7 R 8 -15 R 0 -7 R -8 -14 R -21 -8 R -22 0 R -22 8 R -7 14 R D
17247 1818 M 0 -73 R 8 -21 R 14 -8 R 22 0 R 14 8 R 22 21 R D 17327 1818 M
0 -102 R D 17385 1818 M 0 -102 R D 17385 1789 M 21 21 R 15 8 R 22 0 R
14 -8 R 7 -21 R 0 -73 R D 17575 3201 M 245 -93 R D 17575 3201 M 245 94 R D
17738 3143 M 0 117 R D 17680 3353 M 0 211 R D 17750 3353 M 0 211 R D
17621 3681 M -11 23 R -35 35 R 245 0 R D 17575 3949 M 11 -35 R 35 -23 R
59 -12 R 35 0 R 58 12 R 35 23 R 12 35 R 0 24 R -12 35 R -35 23 R -58 12 R
-35 0 R -59 -12 R -35 -23 R -11 -35 R 0 -24 R D 17797 4136 M 11 -11 R
12 11 R -12 12 R -11 -12 R D 5336 21340 M -35 -12 R -23 -35 R -12 -58 R
0 -35 R 12 -59 R 23 -35 R 35 -12 R 24 0 R 35 12 R 23 35 R 12 59 R 0 35 R
-12 58 R -23 35 R -35 12 R -24 0 R D 5523 21118 M -11 -12 R 11 -12 R 12 12 R
-12 12 R D 5687 21340 M -35 -12 R -24 -35 R -11 -58 R 0 -35 R 11 -59 R
24 -35 R 35 -12 R 23 0 R 35 12 R 24 35 R 11 59 R 0 35 R -11 58 R -24 35 R
-35 12 R -23 0 R D 5991 21340 M -117 0 R -12 -105 R 12 11 R 35 12 R 35 0 R
35 -12 R 23 -23 R 12 -35 R 0 -24 R -12 -35 R -23 -23 R -35 -12 R -35 0 R
-35 12 R -12 12 R -12 23 R D 6154 21340 M -35 -12 R -23 -35 R -12 -58 R
0 -35 R 12 -59 R 23 -35 R 35 -12 R 24 0 R 35 12 R 23 35 R 12 59 R 0 35 R
-12 58 R -23 35 R -35 12 R -24 0 R D 9871 21340 M -35 -12 R -24 -35 R
-12 -58 R 0 -35 R 12 -59 R 24 -35 R 35 -12 R 23 0 R 35 12 R 23 35 R 12 59 R
0 35 R -12 58 R -23 35 R -35 12 R -23 0 R D 10058 21118 M -12 -12 R 12 -12 R
11 12 R -11 12 R D 10186 21293 M 23 12 R 35 35 R 0 -246 R D 10525 21340 M
-117 0 R -12 -105 R 12 11 R 35 12 R 35 0 R 35 -12 R 24 -23 R 11 -35 R
0 -24 R -11 -35 R -24 -23 R -35 -12 R -35 0 R -35 12 R -12 12 R -11 23 R D
10688 21340 M -35 -12 R -23 -35 R -12 -58 R 0 -35 R 12 -59 R 23 -35 R
35 -12 R 24 0 R 35 12 R 23 35 R 12 59 R 0 35 R -12 58 R -23 35 R -35 12 R
-24 0 R D 14405 21340 M -35 -12 R -24 -35 R -11 -58 R 0 -35 R 11 -59 R
24 -35 R 35 -12 R 23 0 R 35 12 R 24 35 R 11 59 R 0 35 R -11 58 R -24 35 R
-35 12 R -23 0 R D 14592 21118 M -12 -12 R 12 -12 R 11 12 R -11 12 R D
14697 21281 M 0 12 R 12 23 R 11 12 R 24 12 R 46 0 R 24 -12 R 11 -12 R
12 -23 R 0 -23 R -12 -24 R -23 -35 R -117 -117 R 164 0 R D 15059 21340 M
-117 0 R -11 -105 R 11 11 R 35 12 R 35 0 R 35 -12 R 24 -23 R 11 -35 R
0 -24 R -11 -35 R -24 -23 R -35 -12 R -35 0 R -35 12 R -11 12 R -12 23 R D
15223 21340 M -35 -12 R -24 -35 R -11 -58 R 0 -35 R 11 -59 R 24 -35 R
35 -12 R 23 0 R 35 12 R 23 35 R 12 59 R 0 35 R -12 58 R -23 35 R -35 12 R
-23 0 R D
%%PageTrailer
end
%%PageResources: font Helvetica
%%Trailer
%%Pages: 1
%%DocumentNeededResources: font Helvetica
%%EOF
