%!PS-Adobe-3.0 EPSF-3.0
%%BoundingBox: 0 0 510 566
%%Title: Graphics produced by IDL
%%For: jlgan@aida119, /home/jlgan/work/subhalo_model
%%Creator: IDL Version 7.1 (linux x86_64 m64)
%%CreationDate: Mon Aug 17 17:33:18 2009
%%DocumentData: Clean7bit
%%Requirements: color
%%LanguageLevel: 1
%%PageOrder: Ascend
%%Pages: (atend)
%%DocumentNeededResources: (atend)
%%EndComments
%%BeginProlog
%+ prolog.ps -- Prolog for IDL generated PostScript files
%+ Copyright (c) 1988-2009 ITT Visual Information Solutions. All Rights Reserved.
%v 5
/$IDL_DICT 40 dict def $IDL_DICT begin /bdef { bind def } bind def /C
{currentpoint newpath moveto} bdef /CP {currentpoint} bdef /D {currentpoint
stroke moveto} bdef /F {closepath fill} bdef /K { setgray } bdef /M {moveto}
bdef /N {rmoveto} bdef /P {lineto} bdef /R {rlineto} bdef /S {gsave show
grestore} bdef /X {currentpoint pop} bdef /Z {gsave currentpoint lineto 20
setlinewidth 1 setlinecap stroke grestore} bdef /L0 {[] 0 setdash} bdef /L1
{[40 100] 0 setdash} bdef /L2 {[200 200] 0 setdash} bdef /L3 {[200 100 50
100] 0 setdash} bdef /L4 {[300 100 50 100 50 100 50 100] 0 setdash} bdef /L5
{[400 200] 0 setdash} bdef /STDFONT { findfont exch scalefont setfont } bdef
/ISOFONT { findfont dup length dict begin { 1 index /FID ne {def} {pop pop}
ifelse } forall /Encoding ISOLatin1Encoding def currentdict end /idltmpfont
exch definefont exch scalefont setfont } bdef /ISOBULLET { gsave /Helvetica
findfont exch scalefont setfont (\267) show currentpoint grestore moveto}
bdef /MITERLIMIT { 2.5 setmiterlimit } bdef end
%%EndProlog
%%Page: 0 1
%%PageRequirements: color
%%PageResources: (atend)
%%PageOrientation: Portrait
%%PageBoundingBox: 0 0 510 566
%%BeginPageSetup
$IDL_DICT begin 0.0283465 dup scale MITERLIMIT
%%IncludeResource: font Helvetica
423.333 /Helvetica STDFONT
%%EndPageSetup
0.000 0.000 0.000 setrgbcolor gsave 9777 176 translate 0 0 M 1.2 dup scale
-576.368 0 N
(t [Gyr]) show grestore 40 setlinewidth L0 3120 13333 M 5757 0 R D
3120 13333 M 0 239 R D gsave 3120 12700 translate 0 0 M 1.2 dup scale
-58.8433 0 N
( ) show grestore 4168 13333 M 0 239 R D gsave 4168 12700 translate 0 0 M
1.2 dup scale -58.8433 0 N
( ) show grestore 5216 13333 M 0 239 R D gsave 5216 12700 translate 0 0 M
1.2 dup scale -58.8433 0 N
( ) show grestore 6264 13333 M 0 239 R D gsave 6264 12700 translate 0 0 M
1.2 dup scale -58.8433 0 N
( ) show grestore 7312 13333 M 0 239 R D gsave 7312 12700 translate 0 0 M
1.2 dup scale -58.8433 0 N
( ) show grestore 8360 13333 M 0 239 R D gsave 8360 12700 translate 0 0 M
1.2 dup scale -58.8433 0 N
( ) show grestore 3382 13333 M 0 120 R D 3644 13333 M 0 120 R D 3906 13333 M
0 120 R D 4430 13333 M 0 120 R D 4692 13333 M 0 120 R D 4954 13333 M 0 120 R
D 5478 13333 M 0 120 R D 5740 13333 M 0 120 R D 6002 13333 M 0 120 R D
6526 13333 M 0 120 R D 6788 13333 M 0 120 R D 7050 13333 M 0 120 R D
7574 13333 M 0 120 R D 7836 13333 M 0 120 R D 8098 13333 M 0 120 R D
8621 13333 M 0 120 R D 3120 19296 M 5757 0 R D 3120 19296 M 0 -238 R D
4168 19296 M 0 -238 R D 5216 19296 M 0 -238 R D 6264 19296 M 0 -238 R D
7312 19296 M 0 -238 R D 8360 19296 M 0 -238 R D 3382 19296 M 0 -119 R D
3644 19296 M 0 -119 R D 3906 19296 M 0 -119 R D 4430 19296 M 0 -119 R D
4692 19296 M 0 -119 R D 4954 19296 M 0 -119 R D 5478 19296 M 0 -119 R D
5740 19296 M 0 -119 R D 6002 19296 M 0 -119 R D 6526 19296 M 0 -119 R D
6788 19296 M 0 -119 R D 7050 19296 M 0 -119 R D 7574 19296 M 0 -119 R D
7836 19296 M 0 -119 R D 8098 19296 M 0 -119 R D 8621 19296 M 0 -119 R D
3120 13333 M 0 5963 R D 3120 14305 M 230 0 R D
gsave 2987 14136 translate 0 0 M 1.2 dup scale -823.807 0 N
(0.80) show grestore 3120 15553 M 230 0 R D gsave 2987 15384 translate 0 0 M
1.2 dup scale -823.807 0 N
(0.85) show grestore 3120 16801 M 230 0 R D gsave 2987 16632 translate 0 0 M
1.2 dup scale -823.807 0 N
(0.90) show grestore 3120 18048 M 230 0 R D gsave 2987 17879 translate 0 0 M
1.2 dup scale -823.807 0 N
(0.95) show grestore 3120 19296 M 230 0 R D gsave 2987 19000 translate 0 0 M
1.2 dup scale -823.807 0 N
(1.00) show grestore 3120 13557 M 115 0 R D 3120 13806 M 115 0 R D
3120 14056 M 115 0 R D 3120 14555 M 115 0 R D 3120 14804 M 115 0 R D
3120 15054 M 115 0 R D 3120 15304 M 115 0 R D 3120 15803 M 115 0 R D
3120 16052 M 115 0 R D 3120 16302 M 115 0 R D 3120 16551 M 115 0 R D
3120 17050 M 115 0 R D 3120 17300 M 115 0 R D 3120 17549 M 115 0 R D
3120 17799 M 115 0 R D 3120 18298 M 115 0 R D 3120 18547 M 115 0 R D
3120 18797 M 115 0 R D 3120 19047 M 115 0 R D 8877 13333 M 0 5963 R D
8877 14305 M -230 0 R D 8877 15553 M -230 0 R D 8877 16801 M -230 0 R D
8877 18048 M -230 0 R D 8877 19296 M -230 0 R D 8877 13557 M -115 0 R D
8877 13806 M -115 0 R D 8877 14056 M -115 0 R D 8877 14555 M -115 0 R D
8877 14804 M -115 0 R D 8877 15054 M -115 0 R D 8877 15304 M -115 0 R D
8877 15803 M -115 0 R D 8877 16052 M -115 0 R D 8877 16302 M -115 0 R D
8877 16551 M -115 0 R D 8877 17050 M -115 0 R D 8877 17300 M -115 0 R D
8877 17549 M -115 0 R D 8877 17799 M -115 0 R D 8877 18298 M -115 0 R D
8877 18547 M -115 0 R D 8877 18797 M -115 0 R D 8877 19047 M -115 0 R D
3120 19296 M 524 0 R 1048 0 R 1048 -131 R 1048 -427 R 537 -313 R 485 -946 R
302 -1131 R 340 -1920 R 189 -805 R 57 -122 R 76 -101 R 54 -43 R 40 -20 R
9 -4 R D 10677 13333 M 5757 0 R D 10677 13333 M 0 239 R D
gsave 10677 12700 translate 0 0 M 1.2 dup scale -58.8433 0 N
( ) show grestore 11725 13333 M 0 239 R D gsave 11725 12700 translate 0 0 M
1.2 dup scale -58.8433 0 N
( ) show grestore 12773 13333 M 0 239 R D gsave 12773 12700 translate 0 0 M
1.2 dup scale -58.8433 0 N
( ) show grestore 13821 13333 M 0 239 R D gsave 13821 12700 translate 0 0 M
1.2 dup scale -58.8433 0 N
( ) show grestore 14869 13333 M 0 239 R D gsave 14869 12700 translate 0 0 M
1.2 dup scale -58.8433 0 N
( ) show grestore 15917 13333 M 0 239 R D gsave 15917 12700 translate 0 0 M
1.2 dup scale -58.8433 0 N
( ) show grestore 10939 13333 M 0 120 R D 11201 13333 M 0 120 R D
11463 13333 M 0 120 R D 11987 13333 M 0 120 R D 12249 13333 M 0 120 R D
12511 13333 M 0 120 R D 13035 13333 M 0 120 R D 13297 13333 M 0 120 R D
13559 13333 M 0 120 R D 14083 13333 M 0 120 R D 14345 13333 M 0 120 R D
14607 13333 M 0 120 R D 15131 13333 M 0 120 R D 15393 13333 M 0 120 R D
15655 13333 M 0 120 R D 16178 13333 M 0 120 R D 10677 19296 M 5757 0 R D
10677 19296 M 0 -238 R D 11725 19296 M 0 -238 R D 12773 19296 M 0 -238 R D
13821 19296 M 0 -238 R D 14869 19296 M 0 -238 R D 15917 19296 M 0 -238 R D
10939 19296 M 0 -119 R D 11201 19296 M 0 -119 R D 11463 19296 M 0 -119 R D
11987 19296 M 0 -119 R D 12249 19296 M 0 -119 R D 12511 19296 M 0 -119 R D
13035 19296 M 0 -119 R D 13297 19296 M 0 -119 R D 13559 19296 M 0 -119 R D
14083 19296 M 0 -119 R D 14345 19296 M 0 -119 R D 14607 19296 M 0 -119 R D
15131 19296 M 0 -119 R D 15393 19296 M 0 -119 R D 15655 19296 M 0 -119 R D
16178 19296 M 0 -119 R D 10677 13333 M 0 5963 R D 10677 14522 M 230 0 R D
gsave 10544 14353 translate 0 0 M 1.2 dup scale -588.433 0 N
(0.2) show grestore 10677 15715 M 230 0 R D
gsave 10544 15546 translate 0 0 M 1.2 dup scale -588.433 0 N
(0.4) show grestore 10677 16909 M 230 0 R D
gsave 10544 16740 translate 0 0 M 1.2 dup scale -588.433 0 N
(0.6) show grestore 10677 18103 M 230 0 R D
gsave 10544 17934 translate 0 0 M 1.2 dup scale -588.433 0 N
(0.8) show grestore 10677 19296 M 230 0 R D
gsave 10544 19000 translate 0 0 M 1.2 dup scale -588.433 0 N
(1.0) show grestore 10677 13627 M 115 0 R D 10677 13925 M 115 0 R D
10677 14223 M 115 0 R D 10677 14820 M 115 0 R D 10677 15119 M 115 0 R D
10677 15417 M 115 0 R D 10677 16014 M 115 0 R D 10677 16312 M 115 0 R D
10677 16611 M 115 0 R D 10677 17207 M 115 0 R D 10677 17506 M 115 0 R D
10677 17804 M 115 0 R D 10677 18401 M 115 0 R D 10677 18699 M 115 0 R D
10677 18998 M 115 0 R D 16434 13333 M 0 5963 R D 16434 14522 M -230 0 R D
16434 15715 M -230 0 R D 16434 16909 M -230 0 R D 16434 18103 M -230 0 R D
16434 19296 M -230 0 R D 16434 13627 M -115 0 R D 16434 13925 M -115 0 R D
16434 14223 M -115 0 R D 16434 14820 M -115 0 R D 16434 15119 M -115 0 R D
16434 15417 M -115 0 R D 16434 16014 M -115 0 R D 16434 16312 M -115 0 R D
16434 16611 M -115 0 R D 16434 17207 M -115 0 R D 16434 17506 M -115 0 R D
16434 17804 M -115 0 R D 16434 18401 M -115 0 R D 16434 18699 M -115 0 R D
16434 18998 M -115 0 R D 10677 19296 M 524 -182 R 1048 -393 R 1048 -458 R
1048 -611 R 537 -456 R 485 -634 R 302 -640 R 340 -1302 R 189 -957 R
57 -162 R 76 -116 R 54 -37 R 40 -13 R 9 -2 R D 3120 7371 M 5757 0 R D
3120 7371 M 0 238 R D gsave 3120 6737 translate 0 0 M 1.2 dup scale
-58.8433 0 N
( ) show grestore 4168 7371 M 0 238 R D gsave 4168 6737 translate 0 0 M
1.2 dup scale -58.8433 0 N
( ) show grestore 5216 7371 M 0 238 R D gsave 5216 6737 translate 0 0 M
1.2 dup scale -58.8433 0 N
( ) show grestore 6264 7371 M 0 238 R D gsave 6264 6737 translate 0 0 M
1.2 dup scale -58.8433 0 N
( ) show grestore 7312 7371 M 0 238 R D gsave 7312 6737 translate 0 0 M
1.2 dup scale -58.8433 0 N
( ) show grestore 8360 7371 M 0 238 R D gsave 8360 6737 translate 0 0 M
1.2 dup scale -58.8433 0 N
( ) show grestore 3382 7371 M 0 119 R D 3644 7371 M 0 119 R D 3906 7371 M
0 119 R D 4430 7371 M 0 119 R D 4692 7371 M 0 119 R D 4954 7371 M 0 119 R D
5478 7371 M 0 119 R D 5740 7371 M 0 119 R D 6002 7371 M 0 119 R D
6526 7371 M 0 119 R D 6788 7371 M 0 119 R D 7050 7371 M 0 119 R D
7574 7371 M 0 119 R D 7836 7371 M 0 119 R D 8098 7371 M 0 119 R D
8621 7371 M 0 119 R D 3120 13333 M 5757 0 R D 3120 13333 M 0 -238 R D
4168 13333 M 0 -238 R D 5216 13333 M 0 -238 R D 6264 13333 M 0 -238 R D
7312 13333 M 0 -238 R D 8360 13333 M 0 -238 R D 3382 13333 M 0 -119 R D
3644 13333 M 0 -119 R D 3906 13333 M 0 -119 R D 4430 13333 M 0 -119 R D
4692 13333 M 0 -119 R D 4954 13333 M 0 -119 R D 5478 13333 M 0 -119 R D
5740 13333 M 0 -119 R D 6002 13333 M 0 -119 R D 6526 13333 M 0 -119 R D
6788 13333 M 0 -119 R D 7050 13333 M 0 -119 R D 7574 13333 M 0 -119 R D
7836 13333 M 0 -119 R D 8098 13333 M 0 -119 R D 8621 13333 M 0 -119 R D
3120 7371 M 0 5962 R D 3120 8456 M 230 0 R D gsave 2987 8287 translate 0 0 M
1.2 dup scale -588.433 0 N
(0.2) show grestore 3120 9675 M 230 0 R D gsave 2987 9506 translate 0 0 M
1.2 dup scale -588.433 0 N
(0.4) show grestore 3120 10895 M 230 0 R D gsave 2987 10726 translate 0 0 M
1.2 dup scale -588.433 0 N
(0.6) show grestore 3120 12114 M 230 0 R D gsave 2987 11945 translate 0 0 M
1.2 dup scale -588.433 0 N
(0.8) show grestore 3120 13333 M 230 0 R D gsave 2987 13038 translate 0 0 M
1.2 dup scale -588.433 0 N
(1.0) show grestore 3120 7541 M 115 0 R D 3120 7846 M 115 0 R D 3120 8151 M
115 0 R D 3120 8761 M 115 0 R D 3120 9066 M 115 0 R D 3120 9370 M 115 0 R D
3120 9980 M 115 0 R D 3120 10285 M 115 0 R D 3120 10590 M 115 0 R D
3120 11199 M 115 0 R D 3120 11504 M 115 0 R D 3120 11809 M 115 0 R D
3120 12419 M 115 0 R D 3120 12724 M 115 0 R D 3120 13029 M 115 0 R D
8877 7371 M 0 5962 R D 8877 8456 M -230 0 R D 8877 9675 M -230 0 R D
8877 10895 M -230 0 R D 8877 12114 M -230 0 R D 8877 13333 M -230 0 R D
8877 7541 M -115 0 R D 8877 7846 M -115 0 R D 8877 8151 M -115 0 R D
8877 8761 M -115 0 R D 8877 9066 M -115 0 R D 8877 9370 M -115 0 R D
8877 9980 M -115 0 R D 8877 10285 M -115 0 R D 8877 10590 M -115 0 R D
8877 11199 M -115 0 R D 8877 11504 M -115 0 R D 8877 11809 M -115 0 R D
8877 12419 M -115 0 R D 8877 12724 M -115 0 R D 8877 13029 M -115 0 R D
3120 13333 M 524 -407 R 1048 -900 R 1048 -1034 R 1048 -1195 R 537 -681 R
485 -634 R 302 -369 R 340 -323 R 189 -155 R 57 -53 R 76 -81 R 54 -65 R
40 -52 R 9 -13 R D 10677 7371 M 5757 0 R D 10677 7371 M 0 238 R D
gsave 10677 6737 translate 0 0 M 1.2 dup scale -58.8433 0 N
( ) show grestore 11725 7371 M 0 238 R D gsave 11725 6737 translate 0 0 M
1.2 dup scale -58.8433 0 N
( ) show grestore 12773 7371 M 0 238 R D gsave 12773 6737 translate 0 0 M
1.2 dup scale -58.8433 0 N
( ) show grestore 13821 7371 M 0 238 R D gsave 13821 6737 translate 0 0 M
1.2 dup scale -58.8433 0 N
( ) show grestore 14869 7371 M 0 238 R D gsave 14869 6737 translate 0 0 M
1.2 dup scale -58.8433 0 N
( ) show grestore 15917 7371 M 0 238 R D gsave 15917 6737 translate 0 0 M
1.2 dup scale -58.8433 0 N
( ) show grestore 10939 7371 M 0 119 R D 11201 7371 M 0 119 R D 11463 7371 M
0 119 R D 11987 7371 M 0 119 R D 12249 7371 M 0 119 R D 12511 7371 M 0 119 R
D 13035 7371 M 0 119 R D 13297 7371 M 0 119 R D 13559 7371 M 0 119 R D
14083 7371 M 0 119 R D 14345 7371 M 0 119 R D 14607 7371 M 0 119 R D
15131 7371 M 0 119 R D 15393 7371 M 0 119 R D 15655 7371 M 0 119 R D
16178 7371 M 0 119 R D 10677 13333 M 5757 0 R D 10677 13333 M 0 -238 R D
11725 13333 M 0 -238 R D 12773 13333 M 0 -238 R D 13821 13333 M 0 -238 R D
14869 13333 M 0 -238 R D 15917 13333 M 0 -238 R D 10939 13333 M 0 -119 R D
11201 13333 M 0 -119 R D 11463 13333 M 0 -119 R D 11987 13333 M 0 -119 R D
12249 13333 M 0 -119 R D 12511 13333 M 0 -119 R D 13035 13333 M 0 -119 R D
13297 13333 M 0 -119 R D 13559 13333 M 0 -119 R D 14083 13333 M 0 -119 R D
14345 13333 M 0 -119 R D 14607 13333 M 0 -119 R D 15131 13333 M 0 -119 R D
15393 13333 M 0 -119 R D 15655 13333 M 0 -119 R D 16178 13333 M 0 -119 R D
10677 7371 M 0 5962 R D 10677 8056 M 230 0 R D
gsave 10544 7887 translate 0 0 M 1.2 dup scale -235.373 0 N
(2) show grestore 10677 8967 M 230 0 R D gsave 10544 8798 translate 0 0 M
1.2 dup scale -235.373 0 N
(4) show grestore 10677 9878 M 230 0 R D gsave 10544 9709 translate 0 0 M
1.2 dup scale -235.373 0 N
(6) show grestore 10677 10790 M 230 0 R D gsave 10544 10621 translate 0 0 M
1.2 dup scale -235.373 0 N
(8) show grestore 10677 11701 M 230 0 R D gsave 10544 11532 translate 0 0 M
1.2 dup scale -470.747 0 N
(10) show grestore 10677 12612 M 230 0 R D gsave 10544 12443 translate 0 0 M
1.2 dup scale -470.747 0 N
(12) show grestore 10677 7372 M 115 0 R D 10677 7600 M 115 0 R D
10677 7828 M 115 0 R D 10677 8283 M 115 0 R D 10677 8511 M 115 0 R D
10677 8739 M 115 0 R D 10677 9195 M 115 0 R D 10677 9423 M 115 0 R D
10677 9650 M 115 0 R D 10677 10106 M 115 0 R D 10677 10334 M 115 0 R D
10677 10562 M 115 0 R D 10677 11017 M 115 0 R D 10677 11245 M 115 0 R D
10677 11473 M 115 0 R D 10677 11929 M 115 0 R D 10677 12157 M 115 0 R D
10677 12385 M 115 0 R D 10677 12840 M 115 0 R D 10677 13068 M 115 0 R D
10677 13296 M 115 0 R D 16434 7371 M 0 5962 R D 16434 8056 M -230 0 R D
16434 8967 M -230 0 R D 16434 9878 M -230 0 R D 16434 10790 M -230 0 R D
16434 11701 M -230 0 R D 16434 12612 M -230 0 R D 16434 7372 M -115 0 R D
16434 7600 M -115 0 R D 16434 7828 M -115 0 R D 16434 8283 M -115 0 R D
16434 8511 M -115 0 R D 16434 8739 M -115 0 R D 16434 9195 M -115 0 R D
16434 9423 M -115 0 R D 16434 9650 M -115 0 R D 16434 10106 M -115 0 R D
16434 10334 M -115 0 R D 16434 10562 M -115 0 R D 16434 11017 M -115 0 R D
16434 11245 M -115 0 R D 16434 11473 M -115 0 R D 16434 11929 M -115 0 R D
16434 12157 M -115 0 R D 16434 12385 M -115 0 R D 16434 12840 M -115 0 R D
16434 13068 M -115 0 R D 16434 13296 M -115 0 R D 10677 7600 M 524 23 R
1048 66 R 1048 140 R 1048 334 R 537 443 R 485 964 R 302 1502 R 340 2261 R
189 -1660 R 57 -1438 R 76 -1707 R 54 -752 R 40 -341 R 9 -64 R D 3120 1408 M
5757 0 R D 3120 1408 M 0 239 R D gsave 3120 774 translate 0 0 M
1.2 dup scale -294.217 0 N
(0.0) show grestore 4168 1408 M 0 239 R D gsave 4168 774 translate 0 0 M
1.2 dup scale -294.217 0 N
(0.2) show grestore 5216 1408 M 0 239 R D gsave 5216 774 translate 0 0 M
1.2 dup scale -294.217 0 N
(0.4) show grestore 6264 1408 M 0 239 R D gsave 6264 774 translate 0 0 M
1.2 dup scale -294.217 0 N
(0.6) show grestore 7312 1408 M 0 239 R D gsave 7312 774 translate 0 0 M
1.2 dup scale -294.217 0 N
(0.8) show grestore 8360 1408 M 0 239 R D gsave 8360 774 translate 0 0 M
1.2 dup scale -294.217 0 N
(1.0) show grestore 3382 1408 M 0 119 R D 3644 1408 M 0 119 R D 3906 1408 M
0 119 R D 4430 1408 M 0 119 R D 4692 1408 M 0 119 R D 4954 1408 M 0 119 R D
5478 1408 M 0 119 R D 5740 1408 M 0 119 R D 6002 1408 M 0 119 R D
6526 1408 M 0 119 R D 6788 1408 M 0 119 R D 7050 1408 M 0 119 R D
7574 1408 M 0 119 R D 7836 1408 M 0 119 R D 8098 1408 M 0 119 R D
8621 1408 M 0 119 R D 3120 7371 M 5757 0 R D 3120 7371 M 0 -239 R D
4168 7371 M 0 -239 R D 5216 7371 M 0 -239 R D 6264 7371 M 0 -239 R D
7312 7371 M 0 -239 R D 8360 7371 M 0 -239 R D 3382 7371 M 0 -119 R D
3644 7371 M 0 -119 R D 3906 7371 M 0 -119 R D 4430 7371 M 0 -119 R D
4692 7371 M 0 -119 R D 4954 7371 M 0 -119 R D 5478 7371 M 0 -119 R D
5740 7371 M 0 -119 R D 6002 7371 M 0 -119 R D 6526 7371 M 0 -119 R D
6788 7371 M 0 -119 R D 7050 7371 M 0 -119 R D 7574 7371 M 0 -119 R D
7836 7371 M 0 -119 R D 8098 7371 M 0 -119 R D 8621 7371 M 0 -119 R D
3120 1408 M 0 5963 R D 3120 1667 M 230 0 R D gsave 2987 1498 translate 0 0 M
1.2 dup scale -470.747 0 N
(17) show grestore 3120 3230 M 230 0 R D gsave 2987 3061 translate 0 0 M
1.2 dup scale -470.747 0 N
(18) show grestore 3120 4792 M 230 0 R D gsave 2987 4623 translate 0 0 M
1.2 dup scale -470.747 0 N
(19) show grestore 3120 6355 M 230 0 R D gsave 2987 6186 translate 0 0 M
1.2 dup scale -470.747 0 N
(20) show grestore 3120 1511 M 115 0 R D 3120 1823 M 115 0 R D 3120 1979 M
115 0 R D 3120 2136 M 115 0 R D 3120 2292 M 115 0 R D 3120 2448 M 115 0 R D
3120 2605 M 115 0 R D 3120 2761 M 115 0 R D 3120 2917 M 115 0 R D
3120 3073 M 115 0 R D 3120 3386 M 115 0 R D 3120 3542 M 115 0 R D
3120 3698 M 115 0 R D 3120 3855 M 115 0 R D 3120 4011 M 115 0 R D
3120 4167 M 115 0 R D 3120 4324 M 115 0 R D 3120 4480 M 115 0 R D
3120 4636 M 115 0 R D 3120 4949 M 115 0 R D 3120 5105 M 115 0 R D
3120 5261 M 115 0 R D 3120 5417 M 115 0 R D 3120 5574 M 115 0 R D
3120 5730 M 115 0 R D 3120 5886 M 115 0 R D 3120 6043 M 115 0 R D
3120 6199 M 115 0 R D 3120 6511 M 115 0 R D 3120 6668 M 115 0 R D
3120 6824 M 115 0 R D 3120 6980 M 115 0 R D 3120 7136 M 115 0 R D
3120 7293 M 115 0 R D 8877 1408 M 0 5963 R D 8877 1667 M -230 0 R D
8877 3230 M -230 0 R D 8877 4792 M -230 0 R D 8877 6355 M -230 0 R D
8877 1511 M -115 0 R D 8877 1823 M -115 0 R D 8877 1979 M -115 0 R D
8877 2136 M -115 0 R D 8877 2292 M -115 0 R D 8877 2448 M -115 0 R D
8877 2605 M -115 0 R D 8877 2761 M -115 0 R D 8877 2917 M -115 0 R D
8877 3073 M -115 0 R D 8877 3386 M -115 0 R D 8877 3542 M -115 0 R D
8877 3698 M -115 0 R D 8877 3855 M -115 0 R D 8877 4011 M -115 0 R D
8877 4167 M -115 0 R D 8877 4324 M -115 0 R D 8877 4480 M -115 0 R D
8877 4636 M -115 0 R D 8877 4949 M -115 0 R D 8877 5105 M -115 0 R D
8877 5261 M -115 0 R D 8877 5417 M -115 0 R D 8877 5574 M -115 0 R D
8877 5730 M -115 0 R D 8877 5886 M -115 0 R D 8877 6043 M -115 0 R D
8877 6199 M -115 0 R D 8877 6511 M -115 0 R D 8877 6668 M -115 0 R D
8877 6824 M -115 0 R D 8877 6980 M -115 0 R D 8877 7136 M -115 0 R D
8877 7293 M -115 0 R D 3124 7370 M 520 -107 R 1048 -270 R 1048 -379 R
1048 -599 R 537 -483 R 485 -643 R 302 -549 R 340 -718 R 189 -513 R 57 -224 R
76 -418 R 54 -440 R 40 -476 R 9 -143 R D 10677 1408 M 5757 0 R D
10677 1408 M 0 239 R D gsave 10677 774 translate 0 0 M 1.2 dup scale
-294.217 0 N
(0.0) show grestore 11725 1408 M 0 239 R D gsave 11725 774 translate 0 0 M
1.2 dup scale -294.217 0 N
(0.2) show grestore 12773 1408 M 0 239 R D gsave 12773 774 translate 0 0 M
1.2 dup scale -294.217 0 N
(0.4) show grestore 13821 1408 M 0 239 R D gsave 13821 774 translate 0 0 M
1.2 dup scale -294.217 0 N
(0.6) show grestore 14869 1408 M 0 239 R D gsave 14869 774 translate 0 0 M
1.2 dup scale -294.217 0 N
(0.8) show grestore 15917 1408 M 0 239 R D gsave 15917 774 translate 0 0 M
1.2 dup scale -294.217 0 N
(1.0) show grestore 10939 1408 M 0 119 R D 11201 1408 M 0 119 R D
11463 1408 M 0 119 R D 11987 1408 M 0 119 R D 12249 1408 M 0 119 R D
12511 1408 M 0 119 R D 13035 1408 M 0 119 R D 13297 1408 M 0 119 R D
13559 1408 M 0 119 R D 14083 1408 M 0 119 R D 14345 1408 M 0 119 R D
14607 1408 M 0 119 R D 15131 1408 M 0 119 R D 15393 1408 M 0 119 R D
15655 1408 M 0 119 R D 16178 1408 M 0 119 R D 10677 7371 M 5757 0 R D
10677 7371 M 0 -239 R D 11725 7371 M 0 -239 R D 12773 7371 M 0 -239 R D
13821 7371 M 0 -239 R D 14869 7371 M 0 -239 R D 15917 7371 M 0 -239 R D
10939 7371 M 0 -119 R D 11201 7371 M 0 -119 R D 11463 7371 M 0 -119 R D
11987 7371 M 0 -119 R D 12249 7371 M 0 -119 R D 12511 7371 M 0 -119 R D
13035 7371 M 0 -119 R D 13297 7371 M 0 -119 R D 13559 7371 M 0 -119 R D
14083 7371 M 0 -119 R D 14345 7371 M 0 -119 R D 14607 7371 M 0 -119 R D
15131 7371 M 0 -119 R D 15393 7371 M 0 -119 R D 15655 7371 M 0 -119 R D
16178 7371 M 0 -119 R D 10677 1408 M 0 5963 R D 10677 3346 M 230 0 R D
gsave 10544 3177 translate 0 0 M 1.2 dup scale -823.807 0 N
(0.01) show grestore 10677 5358 M 230 0 R D gsave 10544 5190 translate 0 0 M
1.2 dup scale -823.807 0 N
(0.10) show grestore 10677 7371 M 230 0 R D gsave 10544 7075 translate 0 0 M
1.2 dup scale -823.807 0 N
(1.00) show grestore 10677 1940 M 115 0 R D 10677 2294 M 115 0 R D
10677 2545 M 115 0 R D 10677 2740 M 115 0 R D 10677 2900 M 115 0 R D
10677 3034 M 115 0 R D 10677 3151 M 115 0 R D 10677 3254 M 115 0 R D
10677 3952 M 115 0 R D 10677 4306 M 115 0 R D 10677 4558 M 115 0 R D
10677 4753 M 115 0 R D 10677 4912 M 115 0 R D 10677 5047 M 115 0 R D
10677 5163 M 115 0 R D 10677 5266 M 115 0 R D 10677 5964 M 115 0 R D
10677 6319 M 115 0 R D 10677 6570 M 115 0 R D 10677 6765 M 115 0 R D
10677 6924 M 115 0 R D 10677 7059 M 115 0 R D 10677 7176 M 115 0 R D
10677 7279 M 115 0 R D 16434 1408 M 0 5963 R D 16434 3346 M -230 0 R D
16434 5358 M -230 0 R D 16434 7371 M -230 0 R D 16434 1940 M -115 0 R D
16434 2294 M -115 0 R D 16434 2545 M -115 0 R D 16434 2740 M -115 0 R D
16434 2900 M -115 0 R D 16434 3034 M -115 0 R D 16434 3151 M -115 0 R D
16434 3254 M -115 0 R D 16434 3952 M -115 0 R D 16434 4306 M -115 0 R D
16434 4558 M -115 0 R D 16434 4753 M -115 0 R D 16434 4912 M -115 0 R D
16434 5047 M -115 0 R D 16434 5163 M -115 0 R D 16434 5266 M -115 0 R D
16434 5964 M -115 0 R D 16434 6319 M -115 0 R D 16434 6570 M -115 0 R D
16434 6765 M -115 0 R D 16434 6924 M -115 0 R D 16434 7059 M -115 0 R D
16434 7176 M -115 0 R D 16434 7279 M -115 0 R D 10677 1408 M 524 111 R
1048 273 R 1048 381 R 1048 605 R 537 498 R 485 664 R 302 595 R 340 961 R
189 578 R 57 204 R 76 345 R 54 327 R 40 327 R 8 93 R D
%%PageTrailer
end
%%PageResources: font Helvetica
%%Trailer
%%Pages: 1
%%DocumentNeededResources: font Helvetica
%%EOF
