%!PS-Adobe-3.0 EPSF-3.0
%%BoundingBox: 0 0 510 566
%%Title: Graphics produced by IDL
%%For: jlgan@aida119, /home/jlgan/work/subhalo_model
%%Creator: IDL Version 7.1 (linux x86_64 m64)
%%CreationDate: Mon Aug 17 17:33:18 2009
%%DocumentData: Clean7bit
%%Requirements: color
%%LanguageLevel: 1
%%PageOrder: Ascend
%%Pages: (atend)
%%DocumentNeededResources: (atend)
%%EndComments
%%BeginProlog
%+ prolog.ps -- Prolog for IDL generated PostScript files
%+ Copyright (c) 1988-2009 ITT Visual Information Solutions. All Rights Reserved.
%v 5
/$IDL_DICT 40 dict def $IDL_DICT begin /bdef { bind def } bind def /C
{currentpoint newpath moveto} bdef /CP {currentpoint} bdef /D {currentpoint
stroke moveto} bdef /F {closepath fill} bdef /K { setgray } bdef /M {moveto}
bdef /N {rmoveto} bdef /P {lineto} bdef /R {rlineto} bdef /S {gsave show
grestore} bdef /X {currentpoint pop} bdef /Z {gsave currentpoint lineto 20
setlinewidth 1 setlinecap stroke grestore} bdef /L0 {[] 0 setdash} bdef /L1
{[40 100] 0 setdash} bdef /L2 {[200 200] 0 setdash} bdef /L3 {[200 100 50
100] 0 setdash} bdef /L4 {[300 100 50 100 50 100 50 100] 0 setdash} bdef /L5
{[400 200] 0 setdash} bdef /STDFONT { findfont exch scalefont setfont } bdef
/ISOFONT { findfont dup length dict begin { 1 index /FID ne {def} {pop pop}
ifelse } forall /Encoding ISOLatin1Encoding def currentdict end /idltmpfont
exch definefont exch scalefont setfont } bdef /ISOBULLET { gsave /Helvetica
findfont exch scalefont setfont (\267) show currentpoint grestore moveto}
bdef /MITERLIMIT { 2.5 setmiterlimit } bdef end
%%EndProlog
%%Page: 0 1
%%PageRequirements: color
%%PageResources: (atend)
%%PageOrientation: Portrait
%%PageBoundingBox: 0 0 510 566
%%BeginPageSetup
$IDL_DICT begin 0.0283465 dup scale MITERLIMIT
%%IncludeResource: font Helvetica
423.333 /Helvetica STDFONT
%%EndPageSetup
0.000 0.000 0.000 setrgbcolor gsave 9777 176 translate 0 0 M 1.2 dup scale
-576.368 0 N
(t [Gyr]) show grestore 40 setlinewidth L0 3120 13333 M 5757 0 R D
3120 13333 M 0 239 R D gsave 3120 12700 translate 0 0 M 1.2 dup scale
-58.8433 0 N
( ) show grestore 4079 13333 M 0 239 R D gsave 4079 12700 translate 0 0 M
1.2 dup scale -58.8433 0 N
( ) show grestore 5038 13333 M 0 239 R D gsave 5038 12700 translate 0 0 M
1.2 dup scale -58.8433 0 N
( ) show grestore 5997 13333 M 0 239 R D gsave 5997 12700 translate 0 0 M
1.2 dup scale -58.8433 0 N
( ) show grestore 6956 13333 M 0 239 R D gsave 6956 12700 translate 0 0 M
1.2 dup scale -58.8433 0 N
( ) show grestore 7915 13333 M 0 239 R D gsave 7915 12700 translate 0 0 M
1.2 dup scale -58.8433 0 N
( ) show grestore 8874 13333 M 0 239 R D gsave 8874 12700 translate 0 0 M
1.2 dup scale -58.8433 0 N
( ) show grestore 3312 13333 M 0 120 R D 3504 13333 M 0 120 R D 3696 13333 M
0 120 R D 3887 13333 M 0 120 R D 4271 13333 M 0 120 R D 4463 13333 M 0 120 R
D 4655 13333 M 0 120 R D 4846 13333 M 0 120 R D 5230 13333 M 0 120 R D
5422 13333 M 0 120 R D 5614 13333 M 0 120 R D 5805 13333 M 0 120 R D
6189 13333 M 0 120 R D 6381 13333 M 0 120 R D 6573 13333 M 0 120 R D
6764 13333 M 0 120 R D 7148 13333 M 0 120 R D 7340 13333 M 0 120 R D
7532 13333 M 0 120 R D 7724 13333 M 0 120 R D 8107 13333 M 0 120 R D
8299 13333 M 0 120 R D 8491 13333 M 0 120 R D 8683 13333 M 0 120 R D
3120 19296 M 5757 0 R D 3120 19296 M 0 -238 R D 4079 19296 M 0 -238 R D
5038 19296 M 0 -238 R D 5997 19296 M 0 -238 R D 6956 19296 M 0 -238 R D
7915 19296 M 0 -238 R D 8874 19296 M 0 -238 R D 3312 19296 M 0 -119 R D
3504 19296 M 0 -119 R D 3696 19296 M 0 -119 R D 3887 19296 M 0 -119 R D
4271 19296 M 0 -119 R D 4463 19296 M 0 -119 R D 4655 19296 M 0 -119 R D
4846 19296 M 0 -119 R D 5230 19296 M 0 -119 R D 5422 19296 M 0 -119 R D
5614 19296 M 0 -119 R D 5805 19296 M 0 -119 R D 6189 19296 M 0 -119 R D
6381 19296 M 0 -119 R D 6573 19296 M 0 -119 R D 6764 19296 M 0 -119 R D
7148 19296 M 0 -119 R D 7340 19296 M 0 -119 R D 7532 19296 M 0 -119 R D
7724 19296 M 0 -119 R D 8107 19296 M 0 -119 R D 8299 19296 M 0 -119 R D
8491 19296 M 0 -119 R D 8683 19296 M 0 -119 R D 3120 13333 M 0 5963 R D
3120 14524 M 230 0 R D gsave 2987 14355 translate 0 0 M 1.2 dup scale
-588.433 0 N
(0.2) show grestore 3120 15717 M 230 0 R D gsave 2987 15548 translate 0 0 M
1.2 dup scale -588.433 0 N
(0.4) show grestore 3120 16910 M 230 0 R D gsave 2987 16741 translate 0 0 M
1.2 dup scale -588.433 0 N
(0.6) show grestore 3120 18103 M 230 0 R D gsave 2987 17934 translate 0 0 M
1.2 dup scale -588.433 0 N
(0.8) show grestore 3120 19296 M 230 0 R D gsave 2987 19000 translate 0 0 M
1.2 dup scale -588.433 0 N
(1.0) show grestore 3120 13630 M 115 0 R D 3120 13928 M 115 0 R D
3120 14226 M 115 0 R D 3120 14822 M 115 0 R D 3120 15121 M 115 0 R D
3120 15419 M 115 0 R D 3120 16015 M 115 0 R D 3120 16314 M 115 0 R D
3120 16612 M 115 0 R D 3120 17208 M 115 0 R D 3120 17507 M 115 0 R D
3120 17805 M 115 0 R D 3120 18401 M 115 0 R D 3120 18700 M 115 0 R D
3120 18998 M 115 0 R D 8877 13333 M 0 5963 R D 8877 14524 M -230 0 R D
8877 15717 M -230 0 R D 8877 16910 M -230 0 R D 8877 18103 M -230 0 R D
8877 19296 M -230 0 R D 8877 13630 M -115 0 R D 8877 13928 M -115 0 R D
8877 14226 M -115 0 R D 8877 14822 M -115 0 R D 8877 15121 M -115 0 R D
8877 15419 M -115 0 R D 8877 16015 M -115 0 R D 8877 16314 M -115 0 R D
8877 16612 M -115 0 R D 8877 17208 M -115 0 R D 8877 17507 M -115 0 R D
8877 17805 M -115 0 R D 8877 18401 M -115 0 R D 8877 18700 M -115 0 R D
8877 18998 M -115 0 R D 3120 19296 M 19 0 R 39 0 R 38 -110 R 19 -130 R
26 -306 R 12 -263 R 14 -465 R 14 -840 R 9 -736 R 8 -781 R 9 -612 R 8 -306 R
9 -158 R 11 -95 R 15 -60 R 24 -46 R 37 -65 R 10 -31 R 10 -50 R 8 -76 R
6 -114 R 7 -163 R 6 -144 R 5 -88 R 6 -44 R 6 -26 R 9 -14 R 12 -9 R 20 -7 R
31 -9 R 10 -4 R 10 -7 R 8 -13 R 6 -21 R 7 -33 R 5 -36 R 5 -24 R 5 -13 R
5 -9 R 7 -5 R 9 -2 R 14 -1 R 22 0 R 23 0 R 11 -1 R 9 -1 R 8 -3 R 6 -5 R
6 -8 R 6 -8 R 5 -5 R 5 -2 R 5 -1 R 8 0 R 10 0 R 16 0 R 26 0 R 16 0 R 9 0 R
9 0 R 8 0 R 6 -1 R 6 -3 R 5 -2 R 5 -1 R 5 -1 R 6 0 R 8 0 R 11 0 R 18 0 R
28 0 R 11 0 R 10 0 R 8 0 R 7 0 R 6 0 R 6 -1 R 5 -1 R 5 0 R 5 0 R 6 0 R 9 0 R
12 0 R 19 0 R 32 0 R 8 0 R 9 0 R 8 0 R 6 0 R 6 -1 R 6 0 R 5 0 R 5 0 R 5 0 R
8 0 R 10 0 R 16 0 R 26 0 R 15 0 R 10 0 R 9 0 R 7 0 R 6 0 R 6 -1 R 5 0 R
5 0 R 5 0 R 6 0 R 8 0 R 11 0 R 17 0 R 29 0 R 11 0 R 9 0 R 9 0 R 7 0 R 6 0 R
6 0 R 5 0 R 5 0 R 5 0 R 6 0 R 8 0 R 12 0 R 19 0 R 32 0 R 8 0 R 9 0 R 8 0 R
7 0 R 6 0 R 5 0 R 5 0 R 5 0 R 5 0 R 8 0 R 10 0 R 16 0 R 25 0 R 16 0 R 9 0 R
9 0 R 8 0 R 6 0 R 6 0 R 5 0 R 5 0 R 5 0 R 6 0 R 7 0 R 11 0 R 17 0 R 28 0 R
12 0 R 9 0 R 9 0 R 7 0 R 6 0 R 6 0 R 5 0 R 5 0 R 5 0 R 6 0 R 8 0 R 12 0 R
18 0 R 30 0 R 9 0 R 10 0 R 8 0 R 6 0 R 6 0 R 6 0 R 5 0 R 4 0 R 5 0 R 7 0 R
9 0 R 13 0 R 21 0 R 26 0 R 9 0 R 9 0 R 8 0 R 6 0 R 6 0 R 5 0 R 6 0 R 4 0 R
6 0 R 7 0 R 11 0 R 16 0 R 26 0 R 14 0 R 10 0 R 9 0 R 7 0 R 6 0 R 6 0 R 5 0 R
5 0 R 5 0 R 6 0 R 7 0 R 12 0 R 17 0 R 28 0 R 11 0 R 10 0 R 8 0 R 7 0 R 6 0 R
6 0 R 5 0 R 4 0 R 5 0 R 7 0 R 8 0 R 12 0 R 18 0 R 31 0 R 9 0 R 9 0 R 8 0 R
6 0 R 6 0 R 6 0 R 4 0 R 5 0 R 5 0 R 7 0 R 10 0 R 14 0 R 22 0 R 20 0 R 10 0 R
9 0 R 8 0 R 6 0 R 6 0 R 5 0 R 6 0 R 4 0 R 6 0 R 7 0 R 10 0 R 15 0 R 25 0 R
16 0 R 10 0 R 9 0 R 7 0 R 6 0 R 6 0 R 6 0 R 5 0 R 4 0 R 6 0 R 7 0 R 11 0 R
16 0 R 27 0 R 13 0 R 10 0 R 8 0 R 8 0 R 6 0 R 5 0 R 6 0 R 4 0 R 5 0 R 6 0 R
8 0 R 11 0 R 17 0 R 29 0 R 10 0 R 10 0 R 8 0 R 7 0 R 6 0 R 6 0 R 5 0 R 4 0 R
5 0 R 6 0 R 9 0 R 12 0 R 18 0 R 31 0 R 9 0 R 9 0 R 8 0 R 6 0 R 6 0 R 5 -1 R
5 0 R 5 0 R 6 0 R 7 0 R 10 0 R 15 0 R 25 0 R 16 0 R 9 0 R 9 0 R 8 0 R 6 0 R
6 0 R 5 0 R 5 0 R 5 0 R 5 0 R 8 0 R 10 0 R 16 0 R 27 0 R 13 0 R 10 0 R 8 0 R
7 0 R 7 0 R 5 0 R 5 0 R 5 0 R 5 0 R 6 0 R 8 0 R 11 0 R 17 0 R 28 0 R 10 0 R
10 0 R 8 0 R 7 0 R 6 0 R 6 0 R 5 0 R 5 0 R 5 0 R 6 0 R 8 0 R 11 0 R 19 0 R
30 0 R 9 0 R 9 0 R 8 0 R 6 0 R 6 0 R 6 0 R 4 0 R 5 0 R 5 0 R 6 0 R 9 0 R
13 0 R 21 0 R 26 0 R 9 0 R 9 0 R 7 0 R 6 0 R 6 0 R 6 0 R 5 0 R 4 0 R 6 0 R
7 0 R 10 0 R 16 0 R 25 0 R 15 0 R 9 0 R 9 0 R 7 0 R 7 0 R 5 0 R 6 0 R 4 0 R
5 0 R 6 0 R 7 0 R 11 0 R 16 0 R 27 0 R 12 0 R 10 0 R 9 0 R 7 0 R 6 0 R 5 0 R
5 0 R 5 0 R 5 0 R 6 0 R 8 0 R 11 0 R 17 0 R 28 0 R 10 0 R 10 0 R 8 0 R 7 0 R
6 0 R 6 0 R 4 0 R 5 0 R 5 0 R 6 0 R 8 0 R 12 0 R 18 0 R 31 0 R 8 0 R 9 0 R
8 0 R 7 0 R 5 0 R 6 0 R 4 0 R 5 0 R 5 0 R 6 0 R 9 0 R 13 0 R 21 0 R 25 0 R
9 0 R 9 0 R 7 0 R 7 0 R 6 0 R 5 0 R 5 0 R 4 0 R 6 0 R 7 0 R 10 0 R 15 0 R
25 0 R 16 0 R 9 0 R 9 0 R 7 0 R 6 0 R 6 0 R 5 0 R 5 0 R 5 0 R 5 0 R 8 0 R
10 0 R 16 0 R 26 0 R 13 0 R 10 0 R 9 0 R 7 0 R 6 0 R 5 0 R 6 0 R 4 0 R 5 0 R
6 0 R 7 0 R 11 0 R 17 0 R 27 0 R 11 0 R 10 0 R 8 0 R 7 0 R 6 0 R 6 0 R 5 0 R
5 0 R 4 0 R 6 0 R 8 0 R 11 0 R 18 0 R 28 0 R 10 0 R 9 0 R 8 0 R 7 0 R 6 0 R
6 0 R 4 0 R 5 0 R 5 0 R 6 0 R 8 0 R 12 0 R 19 0 R 31 0 R 8 0 R 9 0 R 8 0 R
6 0 R 6 0 R 5 0 R 5 0 R 4 0 R 6 0 R 7 0 R 10 0 R 15 0 R 25 0 R 15 0 R 10 0 R
8 0 R 8 0 R 6 0 R 6 0 R 5 0 R 5 0 R 4 0 R 6 0 R 7 0 R 10 0 R 16 0 R 26 0 R
13 0 R 10 0 R 9 0 R 7 0 R 6 0 R 5 0 R 5 0 R 5 0 R 5 0 R 6 0 R 7 0 R 11 0 R
16 0 R 27 0 R 12 0 R 9 0 R 9 0 R 7 0 R 5 0 R 6 0 R 5 0 R 5 0 R 5 0 R 5 0 R
8 0 R 11 0 R 17 0 R 28 0 R 10 0 R 9 0 R 9 0 R 6 0 R 6 0 R 6 0 R 5 0 R 5 0 R
4 0 R 6 0 R 8 0 R 12 0 R 17 0 R 30 0 R 9 0 R 9 0 R 8 0 R 6 0 R 6 0 R 6 0 R
4 0 R 5 0 R 5 0 R 6 0 R 8 0 R 13 0 R 20 0 R 29 0 R 8 0 R 9 0 R 7 0 R 6 0 R
6 0 R 5 0 R 5 0 R 4 0 R 6 0 R 7 0 R D 10677 13333 M 5757 0 R D 10677 13333 M
0 239 R D gsave 10677 12700 translate 0 0 M 1.2 dup scale -58.8433 0 N
( ) show grestore 11636 13333 M 0 239 R D gsave 11636 12700 translate 0 0 M
1.2 dup scale -58.8433 0 N
( ) show grestore 12595 13333 M 0 239 R D gsave 12595 12700 translate 0 0 M
1.2 dup scale -58.8433 0 N
( ) show grestore 13554 13333 M 0 239 R D gsave 13554 12700 translate 0 0 M
1.2 dup scale -58.8433 0 N
( ) show grestore 14513 13333 M 0 239 R D gsave 14513 12700 translate 0 0 M
1.2 dup scale -58.8433 0 N
( ) show grestore 15472 13333 M 0 239 R D gsave 15472 12700 translate 0 0 M
1.2 dup scale -58.8433 0 N
( ) show grestore 16431 13333 M 0 239 R D gsave 16431 12700 translate 0 0 M
1.2 dup scale -58.8433 0 N
( ) show grestore 10869 13333 M 0 120 R D 11061 13333 M 0 120 R D
11253 13333 M 0 120 R D 11444 13333 M 0 120 R D 11828 13333 M 0 120 R D
12020 13333 M 0 120 R D 12212 13333 M 0 120 R D 12403 13333 M 0 120 R D
12787 13333 M 0 120 R D 12979 13333 M 0 120 R D 13171 13333 M 0 120 R D
13362 13333 M 0 120 R D 13746 13333 M 0 120 R D 13938 13333 M 0 120 R D
14130 13333 M 0 120 R D 14321 13333 M 0 120 R D 14705 13333 M 0 120 R D
14897 13333 M 0 120 R D 15089 13333 M 0 120 R D 15281 13333 M 0 120 R D
15664 13333 M 0 120 R D 15856 13333 M 0 120 R D 16048 13333 M 0 120 R D
16240 13333 M 0 120 R D 10677 19296 M 5757 0 R D 10677 19296 M 0 -238 R D
11636 19296 M 0 -238 R D 12595 19296 M 0 -238 R D 13554 19296 M 0 -238 R D
14513 19296 M 0 -238 R D 15472 19296 M 0 -238 R D 16431 19296 M 0 -238 R D
10869 19296 M 0 -119 R D 11061 19296 M 0 -119 R D 11253 19296 M 0 -119 R D
11444 19296 M 0 -119 R D 11828 19296 M 0 -119 R D 12020 19296 M 0 -119 R D
12212 19296 M 0 -119 R D 12403 19296 M 0 -119 R D 12787 19296 M 0 -119 R D
12979 19296 M 0 -119 R D 13171 19296 M 0 -119 R D 13362 19296 M 0 -119 R D
13746 19296 M 0 -119 R D 13938 19296 M 0 -119 R D 14130 19296 M 0 -119 R D
14321 19296 M 0 -119 R D 14705 19296 M 0 -119 R D 14897 19296 M 0 -119 R D
15089 19296 M 0 -119 R D 15281 19296 M 0 -119 R D 15664 19296 M 0 -119 R D
15856 19296 M 0 -119 R D 16048 19296 M 0 -119 R D 16240 19296 M 0 -119 R D
10677 13333 M 0 5963 R D 10677 14767 M 230 0 R D
gsave 10544 14598 translate 0 0 M 1.2 dup scale -588.433 0 N
(0.4) show grestore 10677 16277 M 230 0 R D
gsave 10544 16108 translate 0 0 M 1.2 dup scale -588.433 0 N
(0.6) show grestore 10677 17786 M 230 0 R D
gsave 10544 17617 translate 0 0 M 1.2 dup scale -588.433 0 N
(0.8) show grestore 10677 19296 M 230 0 R D
gsave 10544 19000 translate 0 0 M 1.2 dup scale -588.433 0 N
(1.0) show grestore 10677 13635 M 115 0 R D 10677 14012 M 115 0 R D
10677 14389 M 115 0 R D 10677 15144 M 115 0 R D 10677 15522 M 115 0 R D
10677 15899 M 115 0 R D 10677 16654 M 115 0 R D 10677 17031 M 115 0 R D
10677 17409 M 115 0 R D 10677 18164 M 115 0 R D 10677 18541 M 115 0 R D
10677 18919 M 115 0 R D 16434 13333 M 0 5963 R D 16434 14767 M -230 0 R D
16434 16277 M -230 0 R D 16434 17786 M -230 0 R D 16434 19296 M -230 0 R D
16434 13635 M -115 0 R D 16434 14012 M -115 0 R D 16434 14389 M -115 0 R D
16434 15144 M -115 0 R D 16434 15522 M -115 0 R D 16434 15899 M -115 0 R D
16434 16654 M -115 0 R D 16434 17031 M -115 0 R D 16434 17409 M -115 0 R D
16434 18164 M -115 0 R D 16434 18541 M -115 0 R D 16434 18919 M -115 0 R D
10677 19296 M 19 -231 R 39 -496 R 38 -577 R 19 -339 R 26 -564 R 12 -358 R
14 -502 R 14 -723 R 9 -516 R 8 -378 R 9 -230 R 8 -119 R 9 -82 R 11 -77 R
15 -86 R 24 -111 R 37 -157 R 10 -41 R 10 -41 R 8 -35 R 6 -29 R 7 -24 R
6 -17 R 5 -10 R 6 -8 R 6 -7 R 9 -9 R 12 -10 R 20 -14 R 31 -22 R 10 -7 R
10 -7 R 8 -6 R 6 -5 R 7 -5 R 5 -4 R 5 -3 R 5 -2 R 5 -1 R 7 -2 R 9 -2 R
14 -3 R 22 -3 R 23 -4 R 11 -2 R 9 -2 R 8 -2 R 6 -1 R 6 -1 R 6 -1 R 5 -1 R
5 -1 R 5 0 R 8 -1 R 10 -1 R 16 -1 R 26 -1 R 16 -1 R 9 -1 R 9 0 R 8 -1 R
6 0 R 6 -1 R 5 0 R 5 -1 R 5 0 R 6 0 R 8 -1 R 11 0 R 18 0 R 28 -1 R 11 -1 R
10 0 R 8 0 R 7 -1 R 6 0 R 6 0 R 5 0 R 5 -1 R 5 0 R 6 0 R 9 0 R 12 0 R
19 -1 R 32 0 R 8 -1 R 9 0 R 8 0 R 6 0 R 6 0 R 6 -1 R 5 0 R 5 0 R 5 0 R 8 0 R
10 0 R 16 -1 R 26 0 R 15 0 R 10 0 R 9 -1 R 7 0 R 6 0 R 6 0 R 5 0 R 5 0 R
5 0 R 6 -1 R 8 0 R 11 0 R 17 0 R 29 -1 R 11 0 R 9 0 R 9 0 R 7 0 R 6 0 R
6 0 R 5 -1 R 5 0 R 5 0 R 6 0 R 8 0 R 12 0 R 19 0 R 32 -1 R 8 0 R 9 0 R 8 0 R
7 0 R 6 -1 R 5 0 R 5 0 R 5 0 R 5 0 R 8 0 R 10 0 R 16 0 R 25 -1 R 16 0 R
9 0 R 9 0 R 8 0 R 6 0 R 6 -1 R 5 0 R 5 0 R 5 0 R 6 0 R 7 0 R 11 0 R 17 -1 R
28 0 R 12 0 R 9 0 R 9 0 R 7 0 R 6 -1 R 6 0 R 5 0 R 5 0 R 5 0 R 6 0 R 8 0 R
12 0 R 18 -1 R 30 0 R 9 0 R 10 0 R 8 0 R 6 0 R 6 -1 R 6 0 R 5 0 R 4 0 R
5 0 R 7 0 R 9 0 R 13 0 R 21 -1 R 26 0 R 9 0 R 9 0 R 8 0 R 6 0 R 6 0 R 5 -1 R
6 0 R 4 0 R 6 0 R 7 0 R 11 0 R 16 0 R 26 -1 R 14 0 R 10 0 R 9 0 R 7 0 R
6 0 R 6 0 R 5 -1 R 5 0 R 5 0 R 6 0 R 7 0 R 12 0 R 17 0 R 28 -1 R 11 0 R
10 0 R 8 0 R 7 0 R 6 0 R 6 0 R 5 0 R 4 -1 R 5 0 R 7 0 R 8 0 R 12 0 R 18 0 R
31 -1 R 9 0 R 9 0 R 8 0 R 6 0 R 6 0 R 6 0 R 4 0 R 5 0 R 5 -1 R 7 0 R 10 0 R
14 0 R 22 0 R 20 0 R 10 -1 R 9 0 R 8 0 R 6 0 R 6 0 R 5 0 R 6 0 R 4 0 R 6 0 R
7 -1 R 10 0 R 15 0 R 25 0 R 16 0 R 10 0 R 9 -1 R 7 0 R 6 0 R 6 0 R 6 0 R
5 0 R 4 0 R 6 0 R 7 0 R 11 -1 R 16 0 R 27 0 R 13 0 R 10 0 R 8 0 R 8 -1 R
6 0 R 5 0 R 6 0 R 4 0 R 5 0 R 6 0 R 8 0 R 11 0 R 17 -1 R 29 0 R 10 0 R
10 0 R 8 0 R 7 0 R 6 0 R 6 -1 R 5 0 R 4 0 R 5 0 R 6 0 R 9 0 R 12 0 R 18 0 R
31 -1 R 9 0 R 9 0 R 8 0 R 6 0 R 6 0 R 5 0 R 5 -1 R 5 0 R 6 0 R 7 0 R 10 0 R
15 0 R 25 0 R 16 -1 R 9 0 R 9 0 R 8 0 R 6 0 R 6 0 R 5 0 R 5 0 R 5 -1 R 5 0 R
8 0 R 10 0 R 16 0 R 27 0 R 13 0 R 10 -1 R 8 0 R 7 0 R 7 0 R 5 0 R 5 0 R
5 0 R 5 0 R 6 0 R 8 -1 R 11 0 R 17 0 R 28 0 R 10 0 R 10 0 R 8 -1 R 7 0 R
6 0 R 6 0 R 5 0 R 5 0 R 5 0 R 6 0 R 8 0 R 11 -1 R 19 0 R 30 0 R 9 0 R 9 0 R
8 0 R 6 -1 R 6 0 R 6 0 R 4 0 R 5 0 R 5 0 R 6 0 R 9 0 R 13 0 R 21 -1 R 26 0 R
9 0 R 9 0 R 7 0 R 6 0 R 6 0 R 6 -1 R 5 0 R 4 0 R 6 0 R 7 0 R 10 0 R 16 0 R
25 -1 R 15 0 R 9 0 R 9 0 R 7 0 R 7 0 R 5 0 R 6 0 R 4 -1 R 5 0 R 6 0 R 7 0 R
11 0 R 16 0 R 27 0 R 12 -1 R 10 0 R 9 0 R 7 0 R 6 0 R 5 0 R 5 0 R 5 0 R
5 0 R 6 -1 R 8 0 R 11 0 R 17 0 R 28 0 R 10 0 R 10 0 R 8 -1 R 7 0 R 6 0 R
6 0 R 4 0 R 5 0 R 5 0 R 6 0 R 8 0 R 12 -1 R 18 0 R 31 0 R 8 0 R 9 0 R 8 0 R
7 -1 R 5 0 R 6 0 R 4 0 R 5 0 R 5 0 R 6 0 R 9 0 R 13 0 R 21 -1 R 25 0 R 9 0 R
9 0 R 7 0 R 7 0 R 6 0 R 5 -1 R 5 0 R 4 0 R 6 0 R 7 0 R 10 0 R 15 0 R 25 -1 R
16 0 R 9 0 R 9 0 R 7 0 R 6 0 R 6 0 R 5 0 R 5 -1 R 5 0 R 5 0 R 8 0 R 10 0 R
16 0 R 26 0 R 13 -1 R 10 0 R 9 0 R 7 0 R 6 0 R 5 0 R 6 0 R 4 0 R 5 0 R 6 0 R
7 -1 R 11 0 R 17 0 R 27 0 R 11 0 R 10 0 R 8 -1 R 7 0 R 6 0 R 6 0 R 5 0 R
5 0 R 4 0 R 6 0 R 8 0 R 11 -1 R 18 0 R 28 0 R 10 0 R 9 0 R 8 0 R 7 0 R
6 -1 R 6 0 R 4 0 R 5 0 R 5 0 R 6 0 R 8 0 R 12 0 R 19 -1 R 31 0 R 8 0 R 9 0 R
8 0 R 6 0 R 6 0 R 5 -1 R 5 0 R 4 0 R 6 0 R 7 0 R 10 0 R 15 0 R 25 0 R
15 -1 R 10 0 R 8 0 R 8 0 R 6 0 R 6 0 R 5 0 R 5 0 R 4 -1 R 6 0 R 7 0 R 10 0 R
16 0 R 26 0 R 13 0 R 10 -1 R 9 0 R 7 0 R 6 0 R 5 0 R 5 0 R 5 0 R 5 0 R 6 0 R
7 0 R 11 -1 R 16 0 R 27 0 R 12 0 R 9 0 R 9 0 R 7 -1 R 5 0 R 6 0 R 5 0 R
5 0 R 5 0 R 5 0 R 8 0 R 11 0 R 17 -1 R 28 0 R 10 0 R 9 0 R 9 0 R 6 0 R 6 0 R
6 -1 R 5 0 R 5 0 R 4 0 R 6 0 R 8 0 R 12 0 R 17 0 R 30 -1 R 9 0 R 9 0 R 8 0 R
6 0 R 6 0 R 6 0 R 4 0 R 5 -1 R 5 0 R 6 0 R 8 0 R 13 0 R 20 0 R 29 -1 R 8 0 R
9 0 R 7 0 R 6 0 R 6 0 R 5 0 R 5 0 R 4 0 R 6 0 R 7 -1 R D 3120 7371 M
5757 0 R D 3120 7371 M 0 238 R D gsave 3120 6737 translate 0 0 M
1.2 dup scale -58.8433 0 N
( ) show grestore 4079 7371 M 0 238 R D gsave 4079 6737 translate 0 0 M
1.2 dup scale -58.8433 0 N
( ) show grestore 5038 7371 M 0 238 R D gsave 5038 6737 translate 0 0 M
1.2 dup scale -58.8433 0 N
( ) show grestore 5997 7371 M 0 238 R D gsave 5997 6737 translate 0 0 M
1.2 dup scale -58.8433 0 N
( ) show grestore 6956 7371 M 0 238 R D gsave 6956 6737 translate 0 0 M
1.2 dup scale -58.8433 0 N
( ) show grestore 7915 7371 M 0 238 R D gsave 7915 6737 translate 0 0 M
1.2 dup scale -58.8433 0 N
( ) show grestore 8874 7371 M 0 238 R D gsave 8874 6737 translate 0 0 M
1.2 dup scale -58.8433 0 N
( ) show grestore 3312 7371 M 0 119 R D 3504 7371 M 0 119 R D 3696 7371 M
0 119 R D 3887 7371 M 0 119 R D 4271 7371 M 0 119 R D 4463 7371 M 0 119 R D
4655 7371 M 0 119 R D 4846 7371 M 0 119 R D 5230 7371 M 0 119 R D
5422 7371 M 0 119 R D 5614 7371 M 0 119 R D 5805 7371 M 0 119 R D
6189 7371 M 0 119 R D 6381 7371 M 0 119 R D 6573 7371 M 0 119 R D
6764 7371 M 0 119 R D 7148 7371 M 0 119 R D 7340 7371 M 0 119 R D
7532 7371 M 0 119 R D 7724 7371 M 0 119 R D 8107 7371 M 0 119 R D
8299 7371 M 0 119 R D 8491 7371 M 0 119 R D 8683 7371 M 0 119 R D
3120 13333 M 5757 0 R D 3120 13333 M 0 -238 R D 4079 13333 M 0 -238 R D
5038 13333 M 0 -238 R D 5997 13333 M 0 -238 R D 6956 13333 M 0 -238 R D
7915 13333 M 0 -238 R D 8874 13333 M 0 -238 R D 3312 13333 M 0 -119 R D
3504 13333 M 0 -119 R D 3696 13333 M 0 -119 R D 3887 13333 M 0 -119 R D
4271 13333 M 0 -119 R D 4463 13333 M 0 -119 R D 4655 13333 M 0 -119 R D
4846 13333 M 0 -119 R D 5230 13333 M 0 -119 R D 5422 13333 M 0 -119 R D
5614 13333 M 0 -119 R D 5805 13333 M 0 -119 R D 6189 13333 M 0 -119 R D
6381 13333 M 0 -119 R D 6573 13333 M 0 -119 R D 6764 13333 M 0 -119 R D
7148 13333 M 0 -119 R D 7340 13333 M 0 -119 R D 7532 13333 M 0 -119 R D
7724 13333 M 0 -119 R D 8107 13333 M 0 -119 R D 8299 13333 M 0 -119 R D
8491 13333 M 0 -119 R D 8683 13333 M 0 -119 R D 3120 7371 M 0 5962 R D
3120 8257 M 230 0 R D gsave 2987 8088 translate 0 0 M 1.2 dup scale
-588.433 0 N
(0.2) show grestore 3120 9526 M 230 0 R D gsave 2987 9357 translate 0 0 M
1.2 dup scale -588.433 0 N
(0.4) show grestore 3120 10795 M 230 0 R D gsave 2987 10626 translate 0 0 M
1.2 dup scale -588.433 0 N
(0.6) show grestore 3120 12064 M 230 0 R D gsave 2987 11895 translate 0 0 M
1.2 dup scale -588.433 0 N
(0.8) show grestore 3120 13333 M 230 0 R D gsave 2987 13038 translate 0 0 M
1.2 dup scale -588.433 0 N
(1.0) show grestore 3120 7622 M 115 0 R D 3120 7940 M 115 0 R D 3120 8574 M
115 0 R D 3120 8892 M 115 0 R D 3120 9209 M 115 0 R D 3120 9843 M 115 0 R D
3120 10161 M 115 0 R D 3120 10478 M 115 0 R D 3120 11113 M 115 0 R D
3120 11430 M 115 0 R D 3120 11747 M 115 0 R D 3120 12382 M 115 0 R D
3120 12699 M 115 0 R D 3120 13016 M 115 0 R D 8877 7371 M 0 5962 R D
8877 8257 M -230 0 R D 8877 9526 M -230 0 R D 8877 10795 M -230 0 R D
8877 12064 M -230 0 R D 8877 13333 M -230 0 R D 8877 7622 M -115 0 R D
8877 7940 M -115 0 R D 8877 8574 M -115 0 R D 8877 8892 M -115 0 R D
8877 9209 M -115 0 R D 8877 9843 M -115 0 R D 8877 10161 M -115 0 R D
8877 10478 M -115 0 R D 8877 11113 M -115 0 R D 8877 11430 M -115 0 R D
8877 11747 M -115 0 R D 8877 12382 M -115 0 R D 8877 12699 M -115 0 R D
8877 13016 M -115 0 R D 3120 13333 M 19 -424 R 39 -937 R 38 -1075 R
19 -594 R 26 -872 R 12 -458 R 14 -512 R 14 -491 R 9 -225 R 8 -110 R 9 33 R
8 126 R 9 163 R 11 198 R 15 207 R 24 136 R 37 -237 R 10 -165 R 10 -201 R
8 -188 R 6 -157 R 7 -109 R 6 -11 R 5 69 R 6 109 R 6 147 R 9 182 R 12 205 R
20 169 R 31 -107 R 10 -126 R 10 -176 R 8 -176 R 6 -158 R 7 -124 R 5 -48 R
5 33 R 5 80 R 5 120 R 7 156 R 9 188 R 14 203 R 22 121 R 23 -129 R 11 -141 R
9 -173 R 8 -171 R 6 -149 R 6 -113 R 6 -31 R 5 53 R 5 94 R 5 131 R 8 167 R
10 196 R 16 193 R 26 41 R 16 -135 R 9 -147 R 9 -173 R 8 -167 R 6 -141 R
6 -98 R 5 -11 R 5 64 R 5 101 R 6 138 R 8 173 R 11 200 R 18 180 R 28 -34 R
11 -119 R 10 -160 R 8 -172 R 7 -162 R 6 -133 R 6 -78 R 5 10 R 5 73 R 5 106 R
6 145 R 9 178 R 12 202 R 19 163 R 32 -131 R 8 -123 R 9 -173 R 8 -169 R
6 -146 R 6 -111 R 6 -29 R 5 54 R 5 94 R 5 131 R 8 166 R 10 195 R 16 192 R
26 38 R 15 -132 R 10 -146 R 9 -173 R 7 -165 R 6 -140 R 6 -98 R 5 -12 R
5 62 R 5 101 R 6 137 R 8 172 R 11 198 R 17 182 R 29 -26 R 11 -119 R 9 -159 R
9 -172 R 7 -161 R 6 -134 R 6 -81 R 5 8 R 5 71 R 5 107 R 6 144 R 8 178 R
12 201 R 19 164 R 32 -124 R 8 -122 R 9 -172 R 8 -168 R 7 -148 R 6 -112 R
5 -33 R 5 51 R 5 92 R 5 129 R 8 165 R 10 193 R 16 194 R 25 51 R 16 -131 R
9 -144 R 9 -172 R 8 -165 R 6 -142 R 6 -102 R 5 -16 R 5 60 R 5 98 R 6 135 R
7 170 R 11 197 R 17 185 R 28 -6 R 12 -122 R 9 -154 R 9 -172 R 7 -163 R
6 -135 R 6 -88 R 5 1 R 5 68 R 5 104 R 6 141 R 8 175 R 12 200 R 18 172 R
30 -84 R 9 -115 R 10 -168 R 8 -170 R 6 -154 R 6 -124 R 6 -56 R 5 27 R 4 77 R
5 114 R 7 151 R 9 183 R 13 201 R 21 137 R 26 -142 R 9 -132 R 9 -171 R
8 -167 R 6 -144 R 6 -108 R 5 -25 R 6 56 R 4 94 R 6 132 R 7 166 R 11 195 R
16 190 R 26 27 R 14 -128 R 10 -147 R 9 -172 R 7 -164 R 6 -138 R 6 -96 R
5 -11 R 5 63 R 5 100 R 6 136 R 7 171 R 12 198 R 17 181 R 28 -29 R 11 -116 R
10 -158 R 8 -171 R 7 -160 R 6 -133 R 6 -81 R 5 6 R 4 70 R 5 106 R 7 143 R
8 176 R 12 201 R 18 165 R 31 -115 R 9 -120 R 9 -170 R 8 -168 R 6 -148 R
6 -116 R 6 -38 R 4 39 R 5 83 R 5 121 R 7 157 R 10 187 R 14 199 R 22 103 R
20 -120 R 10 -137 R 9 -169 R 8 -167 R 6 -148 R 6 -113 R 5 -35 R 6 49 R
4 91 R 6 127 R 7 162 R 10 192 R 15 194 R 25 60 R 16 -128 R 10 -141 R
9 -171 R 7 -165 R 6 -142 R 6 -105 R 6 -21 R 5 57 R 4 96 R 6 132 R 7 167 R
11 195 R 16 187 R 27 16 R 13 -125 R 10 -149 R 8 -170 R 8 -163 R 6 -137 R
5 -94 R 6 -8 R 4 63 R 5 100 R 6 137 R 8 171 R 11 198 R 17 179 R 29 -38 R
10 -112 R 10 -158 R 8 -171 R 7 -159 R 6 -132 R 6 -79 R 5 7 R 4 71 R 5 106 R
6 143 R 9 176 R 12 200 R 18 163 R 31 -121 R 9 -120 R 9 -170 R 8 -167 R
6 -147 R 6 -113 R 5 -35 R 5 49 R 5 90 R 6 127 R 7 162 R 10 191 R 15 194 R
25 61 R 16 -127 R 9 -141 R 9 -169 R 8 -165 R 6 -143 R 6 -105 R 5 -22 R
5 56 R 5 95 R 5 131 R 8 166 R 10 194 R 16 188 R 27 21 R 13 -124 R 10 -147 R
8 -170 R 7 -163 R 7 -137 R 5 -96 R 5 -11 R 5 62 R 5 99 R 6 135 R 8 170 R
11 197 R 17 180 R 28 -24 R 10 -115 R 10 -155 R 8 -170 R 7 -160 R 6 -133 R
6 -84 R 5 3 R 5 69 R 5 104 R 6 140 R 8 174 R 11 199 R 19 169 R 30 -94 R
9 -115 R 9 -167 R 8 -168 R 6 -151 R 6 -121 R 6 -51 R 4 29 R 5 77 R 5 114 R
6 150 R 9 182 R 13 200 R 21 133 R 26 -137 R 9 -131 R 9 -170 R 7 -165 R
6 -144 R 6 -109 R 6 -28 R 5 52 R 4 93 R 6 128 R 7 163 R 10 193 R 16 190 R
25 43 R 15 -125 R 9 -143 R 9 -169 R 7 -164 R 7 -139 R 5 -102 R 6 -18 R
4 58 R 5 96 R 6 132 R 7 167 R 11 194 R 16 186 R 27 6 R 12 -120 R 10 -149 R
9 -169 R 7 -162 R 6 -135 R 5 -93 R 5 -8 R 5 63 R 5 99 R 6 136 R 8 170 R
11 197 R 17 178 R 28 -36 R 10 -109 R 10 -157 R 8 -169 R 7 -159 R 6 -132 R
6 -81 R 4 5 R 5 69 R 5 104 R 6 141 R 8 174 R 12 199 R 18 166 R 31 -103 R
8 -116 R 9 -166 R 8 -167 R 7 -150 R 5 -118 R 6 -46 R 4 31 R 5 77 R 5 114 R
6 151 R 9 182 R 13 199 R 21 129 R 25 -132 R 9 -132 R 9 -168 R 7 -165 R
7 -145 R 6 -110 R 5 -30 R 5 50 R 4 91 R 6 127 R 7 162 R 10 190 R 15 192 R
25 52 R 16 -124 R 9 -140 R 9 -168 R 7 -164 R 6 -141 R 6 -104 R 5 -22 R
5 55 R 5 94 R 5 130 R 8 165 R 10 193 R 16 187 R 26 23 R 13 -121 R 10 -145 R
9 -169 R 7 -162 R 6 -137 R 5 -98 R 6 -13 R 4 59 R 5 97 R 6 133 R 7 168 R
11 195 R 17 182 R 27 -9 R 11 -115 R 10 -151 R 8 -168 R 7 -160 R 6 -134 R
6 -90 R 5 -4 R 5 64 R 4 100 R 6 137 R 8 170 R 11 197 R 18 175 R 28 -51 R
10 -107 R 9 -160 R 8 -168 R 7 -157 R 6 -129 R 6 -75 R 4 10 R 5 71 R 5 106 R
6 142 R 8 175 R 12 198 R 19 160 R 31 -132 R 8 -119 R 9 -170 R 8 -164 R
6 -143 R 6 -109 R 5 -29 R 5 50 R 4 91 R 6 127 R 7 161 R 10 191 R 15 191 R
25 50 R 15 -123 R 10 -140 R 8 -168 R 8 -163 R 6 -140 R 6 -104 R 5 -22 R
5 55 R 4 93 R 6 129 R 7 164 R 10 193 R 16 187 R 26 25 R 13 -120 R 10 -144 R
9 -168 R 7 -162 R 6 -137 R 5 -99 R 5 -15 R 5 59 R 5 96 R 6 131 R 7 167 R
11 193 R 16 184 R 27 -1 R 12 -115 R 9 -149 R 9 -168 R 7 -160 R 5 -134 R
6 -93 R 5 -8 R 5 62 R 5 99 R 5 134 R 8 169 R 11 195 R 17 178 R 28 -31 R
10 -108 R 9 -154 R 9 -168 R 6 -158 R 6 -132 R 6 -84 R 5 2 R 5 66 R 4 102 R
6 138 R 8 172 R 12 196 R 17 170 R 30 -78 R 9 -111 R 9 -162 R 8 -167 R
6 -152 R 6 -124 R 6 -60 R 4 21 R 5 74 R 5 110 R 6 145 R 8 178 R 13 198 R
20 145 R 29 -152 R 8 -125 R 9 -169 R 7 -162 R 6 -139 R 6 -102 R 5 -21 R
5 55 R 4 94 R 6 129 R 7 164 R D 10677 7371 M 5757 0 R D 10677 7371 M 0 238 R
D gsave 10677 6737 translate 0 0 M 1.2 dup scale -58.8433 0 N
( ) show grestore 11636 7371 M 0 238 R D gsave 11636 6737 translate 0 0 M
1.2 dup scale -58.8433 0 N
( ) show grestore 12595 7371 M 0 238 R D gsave 12595 6737 translate 0 0 M
1.2 dup scale -58.8433 0 N
( ) show grestore 13554 7371 M 0 238 R D gsave 13554 6737 translate 0 0 M
1.2 dup scale -58.8433 0 N
( ) show grestore 14513 7371 M 0 238 R D gsave 14513 6737 translate 0 0 M
1.2 dup scale -58.8433 0 N
( ) show grestore 15472 7371 M 0 238 R D gsave 15472 6737 translate 0 0 M
1.2 dup scale -58.8433 0 N
( ) show grestore 16431 7371 M 0 238 R D gsave 16431 6737 translate 0 0 M
1.2 dup scale -58.8433 0 N
( ) show grestore 10869 7371 M 0 119 R D 11061 7371 M 0 119 R D 11253 7371 M
0 119 R D 11444 7371 M 0 119 R D 11828 7371 M 0 119 R D 12020 7371 M 0 119 R
D 12212 7371 M 0 119 R D 12403 7371 M 0 119 R D 12787 7371 M 0 119 R D
12979 7371 M 0 119 R D 13171 7371 M 0 119 R D 13362 7371 M 0 119 R D
13746 7371 M 0 119 R D 13938 7371 M 0 119 R D 14130 7371 M 0 119 R D
14321 7371 M 0 119 R D 14705 7371 M 0 119 R D 14897 7371 M 0 119 R D
15089 7371 M 0 119 R D 15281 7371 M 0 119 R D 15664 7371 M 0 119 R D
15856 7371 M 0 119 R D 16048 7371 M 0 119 R D 16240 7371 M 0 119 R D
10677 13333 M 5757 0 R D 10677 13333 M 0 -238 R D 11636 13333 M 0 -238 R D
12595 13333 M 0 -238 R D 13554 13333 M 0 -238 R D 14513 13333 M 0 -238 R D
15472 13333 M 0 -238 R D 16431 13333 M 0 -238 R D 10869 13333 M 0 -119 R D
11061 13333 M 0 -119 R D 11253 13333 M 0 -119 R D 11444 13333 M 0 -119 R D
11828 13333 M 0 -119 R D 12020 13333 M 0 -119 R D 12212 13333 M 0 -119 R D
12403 13333 M 0 -119 R D 12787 13333 M 0 -119 R D 12979 13333 M 0 -119 R D
13171 13333 M 0 -119 R D 13362 13333 M 0 -119 R D 13746 13333 M 0 -119 R D
13938 13333 M 0 -119 R D 14130 13333 M 0 -119 R D 14321 13333 M 0 -119 R D
14705 13333 M 0 -119 R D 14897 13333 M 0 -119 R D 15089 13333 M 0 -119 R D
15281 13333 M 0 -119 R D 15664 13333 M 0 -119 R D 15856 13333 M 0 -119 R D
16048 13333 M 0 -119 R D 16240 13333 M 0 -119 R D 10677 7371 M 0 5962 R D
10677 8584 M 230 0 R D gsave 10544 8415 translate 0 0 M 1.2 dup scale
-235.373 0 N
(1) show grestore 10677 9799 M 230 0 R D gsave 10544 9630 translate 0 0 M
1.2 dup scale -235.373 0 N
(2) show grestore 10677 11013 M 230 0 R D gsave 10544 10844 translate 0 0 M
1.2 dup scale -235.373 0 N
(3) show grestore 10677 12227 M 230 0 R D gsave 10544 12058 translate 0 0 M
1.2 dup scale -235.373 0 N
(4) show grestore 10677 7491 M 115 0 R D 10677 7613 M 115 0 R D 10677 7734 M
115 0 R D 10677 7855 M 115 0 R D 10677 7977 M 115 0 R D 10677 8098 M 115 0 R
D 10677 8220 M 115 0 R D 10677 8341 M 115 0 R D 10677 8463 M 115 0 R D
10677 8706 M 115 0 R D 10677 8827 M 115 0 R D 10677 8948 M 115 0 R D
10677 9070 M 115 0 R D 10677 9191 M 115 0 R D 10677 9313 M 115 0 R D
10677 9434 M 115 0 R D 10677 9556 M 115 0 R D 10677 9677 M 115 0 R D
10677 9920 M 115 0 R D 10677 10041 M 115 0 R D 10677 10163 M 115 0 R D
10677 10284 M 115 0 R D 10677 10406 M 115 0 R D 10677 10527 M 115 0 R D
10677 10649 M 115 0 R D 10677 10770 M 115 0 R D 10677 10892 M 115 0 R D
10677 11134 M 115 0 R D 10677 11256 M 115 0 R D 10677 11377 M 115 0 R D
10677 11499 M 115 0 R D 10677 11620 M 115 0 R D 10677 11742 M 115 0 R D
10677 11863 M 115 0 R D 10677 11984 M 115 0 R D 10677 12106 M 115 0 R D
10677 12349 M 115 0 R D 10677 12470 M 115 0 R D 10677 12592 M 115 0 R D
10677 12713 M 115 0 R D 10677 12835 M 115 0 R D 10677 12956 M 115 0 R D
10677 13077 M 115 0 R D 10677 13199 M 115 0 R D 10677 13320 M 115 0 R D
16434 7371 M 0 5962 R D 16434 8584 M -230 0 R D 16434 9799 M -230 0 R D
16434 11013 M -230 0 R D 16434 12227 M -230 0 R D 16434 7491 M -115 0 R D
16434 7613 M -115 0 R D 16434 7734 M -115 0 R D 16434 7855 M -115 0 R D
16434 7977 M -115 0 R D 16434 8098 M -115 0 R D 16434 8220 M -115 0 R D
16434 8341 M -115 0 R D 16434 8463 M -115 0 R D 16434 8706 M -115 0 R D
16434 8827 M -115 0 R D 16434 8948 M -115 0 R D 16434 9070 M -115 0 R D
16434 9191 M -115 0 R D 16434 9313 M -115 0 R D 16434 9434 M -115 0 R D
16434 9556 M -115 0 R D 16434 9677 M -115 0 R D 16434 9920 M -115 0 R D
16434 10041 M -115 0 R D 16434 10163 M -115 0 R D 16434 10284 M -115 0 R D
16434 10406 M -115 0 R D 16434 10527 M -115 0 R D 16434 10649 M -115 0 R D
16434 10770 M -115 0 R D 16434 10892 M -115 0 R D 16434 11134 M -115 0 R D
16434 11256 M -115 0 R D 16434 11377 M -115 0 R D 16434 11499 M -115 0 R D
16434 11620 M -115 0 R D 16434 11742 M -115 0 R D 16434 11863 M -115 0 R D
16434 11984 M -115 0 R D 16434 12106 M -115 0 R D 16434 12349 M -115 0 R D
16434 12470 M -115 0 R D 16434 12592 M -115 0 R D 16434 12713 M -115 0 R D
16434 12835 M -115 0 R D 16434 12956 M -115 0 R D 16434 13077 M -115 0 R D
16434 13199 M -115 0 R D 16434 13320 M -115 0 R D 10677 8584 M 19 62 R
39 172 R 38 302 R 19 279 R 26 685 R 12 612 R 14 1200 R 14 1437 R 9 -415 R
8 -1775 R 9 -1677 R 8 -859 R 9 -384 R 11 -201 R 15 -113 R 24 -68 R 37 -41 R
10 0 R 10 8 R 8 1 R 6 -27 R 7 -75 R 6 -91 R 5 -70 R 6 -42 R 6 -26 R 9 -17 R
12 -10 R 20 -6 R 31 -2 R 10 0 R 10 3 R 8 3 R 6 1 R 7 -5 R 5 -13 R 5 -13 R
5 -11 R 5 -9 R 7 -5 R 9 -4 R 14 -2 R 22 0 R 23 0 R 11 1 R 9 1 R 8 1 R 6 1 R
6 -1 R 6 -3 R 5 -5 R 5 -3 R 5 -2 R 8 -1 R 10 -1 R 16 0 R 26 0 R 16 0 R 9 1 R
9 0 R 8 1 R 6 1 R 6 0 R 5 -2 R 5 -1 R 5 -1 R 6 -1 R 8 -1 R 11 0 R 18 0 R
28 0 R 11 0 R 10 0 R 8 1 R 7 0 R 6 1 R 6 0 R 5 -1 R 5 -1 R 5 0 R 6 -1 R
9 0 R 12 0 R 19 0 R 32 0 R 8 0 R 9 0 R 8 1 R 6 0 R 6 0 R 6 0 R 5 0 R 5 -1 R
5 0 R 8 0 R 10 -1 R 16 0 R 26 0 R 15 0 R 10 0 R 9 1 R 7 0 R 6 0 R 6 1 R
5 0 R 5 -1 R 5 0 R 6 0 R 8 -1 R 11 0 R 17 0 R 29 0 R 11 0 R 9 0 R 9 1 R
7 0 R 6 0 R 6 0 R 5 0 R 5 0 R 5 0 R 6 -1 R 8 0 R 12 0 R 19 0 R 32 0 R 8 0 R
9 0 R 8 1 R 7 0 R 6 0 R 5 0 R 5 0 R 5 0 R 5 -1 R 8 0 R 10 0 R 16 0 R 25 0 R
16 0 R 9 0 R 9 0 R 8 1 R 6 0 R 6 0 R 5 0 R 5 0 R 5 0 R 6 -1 R 7 0 R 11 0 R
17 0 R 28 0 R 12 0 R 9 0 R 9 0 R 7 1 R 6 0 R 6 0 R 5 0 R 5 0 R 5 0 R 6 -1 R
8 0 R 12 0 R 18 0 R 30 0 R 9 0 R 10 0 R 8 0 R 6 1 R 6 0 R 6 0 R 5 0 R 4 0 R
5 -1 R 7 0 R 9 0 R 13 0 R 21 0 R 26 0 R 9 0 R 9 0 R 8 0 R 6 1 R 6 0 R 5 0 R
6 0 R 4 0 R 6 -1 R 7 0 R 11 0 R 16 0 R 26 0 R 14 0 R 10 0 R 9 0 R 7 0 R
6 1 R 6 0 R 5 0 R 5 0 R 5 0 R 6 -1 R 7 0 R 12 0 R 17 0 R 28 0 R 11 0 R
10 0 R 8 0 R 7 0 R 6 1 R 6 0 R 5 0 R 4 0 R 5 -1 R 7 0 R 8 0 R 12 0 R 18 0 R
31 0 R 9 0 R 9 0 R 8 0 R 6 1 R 6 0 R 6 0 R 4 0 R 5 0 R 5 -1 R 7 0 R 10 0 R
14 0 R 22 0 R 20 0 R 10 0 R 9 0 R 8 0 R 6 1 R 6 0 R 5 0 R 6 0 R 4 0 R 6 -1 R
7 0 R 10 0 R 15 0 R 25 0 R 16 0 R 10 0 R 9 0 R 7 0 R 6 1 R 6 0 R 6 0 R 5 0 R
4 0 R 6 -1 R 7 0 R 11 0 R 16 0 R 27 0 R 13 0 R 10 0 R 8 0 R 8 0 R 6 1 R
5 0 R 6 0 R 4 0 R 5 0 R 6 -1 R 8 0 R 11 0 R 17 0 R 29 0 R 10 0 R 10 0 R
8 0 R 7 0 R 6 1 R 6 0 R 5 0 R 4 0 R 5 -1 R 6 0 R 9 0 R 12 0 R 18 0 R 31 0 R
9 0 R 9 0 R 8 0 R 6 1 R 6 0 R 5 0 R 5 0 R 5 0 R 6 -1 R 7 0 R 10 0 R 15 0 R
25 0 R 16 0 R 9 0 R 9 0 R 8 0 R 6 1 R 6 0 R 5 0 R 5 0 R 5 0 R 5 -1 R 8 0 R
10 0 R 16 0 R 27 0 R 13 0 R 10 0 R 8 0 R 7 0 R 7 1 R 5 0 R 5 0 R 5 0 R
5 -1 R 6 0 R 8 0 R 11 0 R 17 0 R 28 0 R 10 0 R 10 0 R 8 0 R 7 0 R 6 1 R
6 0 R 5 0 R 5 0 R 5 -1 R 6 0 R 8 0 R 11 0 R 19 0 R 30 0 R 9 0 R 9 0 R 8 0 R
6 0 R 6 1 R 6 0 R 4 0 R 5 0 R 5 -1 R 6 0 R 9 0 R 13 0 R 21 0 R 26 0 R 9 0 R
9 0 R 7 0 R 6 1 R 6 0 R 6 0 R 5 0 R 4 0 R 6 -1 R 7 0 R 10 0 R 16 0 R 25 0 R
15 0 R 9 0 R 9 0 R 7 0 R 7 1 R 5 0 R 6 0 R 4 0 R 5 0 R 6 -1 R 7 0 R 11 0 R
16 0 R 27 0 R 12 0 R 10 0 R 9 0 R 7 0 R 6 1 R 5 0 R 5 0 R 5 0 R 5 -1 R 6 0 R
8 0 R 11 0 R 17 0 R 28 0 R 10 0 R 10 0 R 8 0 R 7 0 R 6 1 R 6 0 R 4 0 R 5 0 R
5 -1 R 6 0 R 8 0 R 12 0 R 18 0 R 31 0 R 8 0 R 9 0 R 8 0 R 7 1 R 5 0 R 6 0 R
4 0 R 5 0 R 5 -1 R 6 0 R 9 0 R 13 0 R 21 0 R 25 0 R 9 0 R 9 0 R 7 0 R 7 1 R
6 0 R 5 0 R 5 0 R 4 0 R 6 -1 R 7 0 R 10 0 R 15 0 R 25 0 R 16 0 R 9 0 R 9 0 R
7 0 R 6 1 R 6 0 R 5 0 R 5 0 R 5 0 R 5 -1 R 8 0 R 10 0 R 16 0 R 26 0 R 13 0 R
10 0 R 9 0 R 7 0 R 6 1 R 5 0 R 6 0 R 4 0 R 5 -1 R 6 0 R 7 0 R 11 0 R 17 0 R
27 0 R 11 0 R 10 0 R 8 0 R 7 0 R 6 1 R 6 0 R 5 0 R 5 0 R 4 -1 R 6 0 R 8 0 R
11 0 R 18 0 R 28 0 R 10 0 R 9 0 R 8 0 R 7 0 R 6 1 R 6 0 R 4 0 R 5 0 R 5 -1 R
6 0 R 8 0 R 12 0 R 19 0 R 31 0 R 8 0 R 9 0 R 8 0 R 6 1 R 6 0 R 5 0 R 5 0 R
4 0 R 6 -1 R 7 0 R 10 0 R 15 0 R 25 0 R 15 0 R 10 0 R 8 0 R 8 0 R 6 1 R
6 0 R 5 0 R 5 0 R 4 0 R 6 -1 R 7 0 R 10 0 R 16 0 R 26 0 R 13 0 R 10 0 R
9 0 R 7 0 R 6 1 R 5 0 R 5 0 R 5 0 R 5 -1 R 6 0 R 7 0 R 11 0 R 16 0 R 27 0 R
12 0 R 9 0 R 9 0 R 7 0 R 5 1 R 6 0 R 5 0 R 5 0 R 5 -1 R 5 0 R 8 0 R 11 0 R
17 0 R 28 0 R 10 0 R 9 0 R 9 0 R 6 0 R 6 1 R 6 0 R 5 0 R 5 0 R 4 -1 R 6 0 R
8 0 R 12 0 R 17 0 R 30 0 R 9 0 R 9 0 R 8 0 R 6 0 R 6 1 R 6 0 R 4 0 R 5 0 R
5 -1 R 6 0 R 8 0 R 13 0 R 20 0 R 29 0 R 8 0 R 9 0 R 7 0 R 6 1 R 6 0 R 5 0 R
5 0 R 4 0 R 6 -1 R 7 0 R D 3120 1408 M 5757 0 R D 3120 1408 M 0 239 R D
gsave 3120 774 translate 0 0 M 1.2 dup scale -117.687 0 N
(0) show grestore 4079 1408 M 0 239 R D gsave 4079 774 translate 0 0 M
1.2 dup scale -117.687 0 N
(5) show grestore 5038 1408 M 0 239 R D gsave 5038 774 translate 0 0 M
1.2 dup scale -235.373 0 N
(10) show grestore 5997 1408 M 0 239 R D gsave 5997 774 translate 0 0 M
1.2 dup scale -235.373 0 N
(15) show grestore 6956 1408 M 0 239 R D gsave 6956 774 translate 0 0 M
1.2 dup scale -235.373 0 N
(20) show grestore 7915 1408 M 0 239 R D gsave 7915 774 translate 0 0 M
1.2 dup scale -235.373 0 N
(25) show grestore 8874 1408 M 0 239 R D gsave 8874 774 translate 0 0 M
1.2 dup scale -235.373 0 N
(30) show grestore 3312 1408 M 0 119 R D 3504 1408 M 0 119 R D 3696 1408 M
0 119 R D 3887 1408 M 0 119 R D 4271 1408 M 0 119 R D 4463 1408 M 0 119 R D
4655 1408 M 0 119 R D 4846 1408 M 0 119 R D 5230 1408 M 0 119 R D
5422 1408 M 0 119 R D 5614 1408 M 0 119 R D 5805 1408 M 0 119 R D
6189 1408 M 0 119 R D 6381 1408 M 0 119 R D 6573 1408 M 0 119 R D
6764 1408 M 0 119 R D 7148 1408 M 0 119 R D 7340 1408 M 0 119 R D
7532 1408 M 0 119 R D 7724 1408 M 0 119 R D 8107 1408 M 0 119 R D
8299 1408 M 0 119 R D 8491 1408 M 0 119 R D 8683 1408 M 0 119 R D
3120 7371 M 5757 0 R D 3120 7371 M 0 -239 R D 4079 7371 M 0 -239 R D
5038 7371 M 0 -239 R D 5997 7371 M 0 -239 R D 6956 7371 M 0 -239 R D
7915 7371 M 0 -239 R D 8874 7371 M 0 -239 R D 3312 7371 M 0 -119 R D
3504 7371 M 0 -119 R D 3696 7371 M 0 -119 R D 3887 7371 M 0 -119 R D
4271 7371 M 0 -119 R D 4463 7371 M 0 -119 R D 4655 7371 M 0 -119 R D
4846 7371 M 0 -119 R D 5230 7371 M 0 -119 R D 5422 7371 M 0 -119 R D
5614 7371 M 0 -119 R D 5805 7371 M 0 -119 R D 6189 7371 M 0 -119 R D
6381 7371 M 0 -119 R D 6573 7371 M 0 -119 R D 6764 7371 M 0 -119 R D
7148 7371 M 0 -119 R D 7340 7371 M 0 -119 R D 7532 7371 M 0 -119 R D
7724 7371 M 0 -119 R D 8107 7371 M 0 -119 R D 8299 7371 M 0 -119 R D
8491 7371 M 0 -119 R D 8683 7371 M 0 -119 R D 3120 1408 M 0 5963 R D
3120 2371 M 230 0 R D gsave 2987 2202 translate 0 0 M 1.2 dup scale
-235.373 0 N
(5) show grestore 3120 3968 M 230 0 R D gsave 2987 3800 translate 0 0 M
1.2 dup scale -470.747 0 N
(10) show grestore 3120 5566 M 230 0 R D gsave 2987 5397 translate 0 0 M
1.2 dup scale -470.747 0 N
(15) show grestore 3120 7163 M 230 0 R D gsave 2987 6994 translate 0 0 M
1.2 dup scale -470.747 0 N
(20) show grestore 3120 1413 M 115 0 R D 3120 1732 M 115 0 R D 3120 2052 M
115 0 R D 3120 2691 M 115 0 R D 3120 3010 M 115 0 R D 3120 3330 M 115 0 R D
3120 3649 M 115 0 R D 3120 4288 M 115 0 R D 3120 4607 M 115 0 R D
3120 4927 M 115 0 R D 3120 5246 M 115 0 R D 3120 5885 M 115 0 R D
3120 6205 M 115 0 R D 3120 6524 M 115 0 R D 3120 6844 M 115 0 R D
8877 1408 M 0 5963 R D 8877 2371 M -230 0 R D 8877 3968 M -230 0 R D
8877 5566 M -230 0 R D 8877 7163 M -230 0 R D 8877 1413 M -115 0 R D
8877 1732 M -115 0 R D 8877 2052 M -115 0 R D 8877 2691 M -115 0 R D
8877 3010 M -115 0 R D 8877 3330 M -115 0 R D 8877 3649 M -115 0 R D
8877 4288 M -115 0 R D 8877 4607 M -115 0 R D 8877 4927 M -115 0 R D
8877 5246 M -115 0 R D 8877 5885 M -115 0 R D 8877 6205 M -115 0 R D
8877 6524 M -115 0 R D 8877 6844 M -115 0 R D 3120 7370 M 19 -21 R 39 -55 R
38 -78 R 19 -53 R 26 -97 R 12 -67 R 14 -95 R 14 -129 R 9 -1787 R 8 -1615 R
9 -834 R 8 -275 R 9 -88 R 11 -21 R 15 4 R 24 -2 R 37 -102 R 10 -67 R
10 -98 R 8 -123 R 6 -143 R 7 -149 R 6 -63 R 5 30 R 6 57 R 6 67 R 9 68 R
12 62 R 20 45 R 31 -27 R 10 -34 R 10 -56 R 8 -67 R 6 -71 R 7 -66 R 5 -12 R
5 47 R 5 75 R 5 81 R 7 79 R 9 73 R 14 62 R 22 31 R 23 -34 R 11 -40 R 9 -55 R
8 -63 R 6 -63 R 6 -41 R 6 10 R 5 68 R 5 76 R 5 75 R 8 70 R 10 66 R 16 55 R
26 10 R 16 -35 R 9 -44 R 9 -62 R 8 -72 R 6 -68 R 6 -28 R 5 20 R 5 65 R
5 71 R 6 69 R 8 70 R 11 65 R 18 50 R 28 -9 R 11 -33 R 10 -50 R 8 -64 R
7 -74 R 6 -73 R 6 -39 R 5 24 R 5 59 R 5 64 R 6 70 R 9 69 R 12 64 R 19 43 R
32 -34 R 8 -36 R 9 -59 R 8 -71 R 6 -77 R 6 -68 R 6 -11 R 5 78 R 5 61 R
5 68 R 8 70 R 10 67 R 16 54 R 26 10 R 15 -35 R 10 -44 R 9 -62 R 7 -72 R
6 -77 R 6 -65 R 5 -1 R 5 50 R 5 62 R 6 69 R 8 70 R 11 66 R 17 50 R 29 -7 R
11 -32 R 9 -50 R 9 -64 R 7 -74 R 6 -78 R 6 -56 R 5 11 R 5 52 R 5 64 R 6 70 R
8 70 R 12 63 R 19 44 R 32 -32 R 8 -36 R 9 -58 R 8 -70 R 7 -77 R 6 -75 R
5 -22 R 5 41 R 5 60 R 5 68 R 8 70 R 10 67 R 16 55 R 25 13 R 16 -34 R 9 -43 R
9 -61 R 8 -71 R 6 -78 R 6 -70 R 5 -10 R 5 45 R 5 62 R 6 69 R 7 70 R 11 66 R
17 52 R 28 -2 R 12 -33 R 9 -47 R 9 -63 R 7 -74 R 6 -78 R 6 -62 R 5 2 R
5 50 R 5 64 R 6 70 R 8 69 R 12 65 R 18 46 R 30 -21 R 9 -33 R 10 -55 R
8 -67 R 6 -76 R 6 -78 R 6 -41 R 5 22 R 4 53 R 5 66 R 7 70 R 9 69 R 13 62 R
21 36 R 26 -38 R 9 -39 R 9 -59 R 8 -71 R 6 -77 R 6 -73 R 5 -18 R 6 41 R
4 61 R 6 69 R 7 70 R 11 67 R 16 54 R 26 7 R 14 -35 R 10 -44 R 9 -62 R
7 -72 R 6 -78 R 6 -67 R 5 -8 R 5 47 R 5 63 R 6 69 R 7 70 R 12 66 R 17 50 R
28 -8 R 11 -32 R 10 -49 R 8 -64 R 7 -74 R 6 -78 R 6 -59 R 5 6 R 4 50 R
5 65 R 7 70 R 8 69 R 12 65 R 18 44 R 31 -30 R 9 -35 R 9 -58 R 8 -69 R
6 -77 R 6 -76 R 6 -29 R 4 31 R 5 56 R 5 67 R 7 71 R 10 67 R 14 59 R 22 27 R
20 -31 R 10 -40 R 9 -58 R 8 -69 R 6 -77 R 6 -76 R 5 -27 R 6 38 R 4 60 R
6 68 R 7 71 R 10 67 R 15 56 R 25 15 R 16 -34 R 10 -42 R 9 -60 R 7 -71 R
6 -78 R 6 -71 R 6 -17 R 5 43 R 4 62 R 6 69 R 7 70 R 11 67 R 16 53 R 27 4 R
13 -34 R 10 -46 R 8 -61 R 8 -73 R 6 -77 R 5 -67 R 6 -6 R 4 47 R 5 63 R
6 69 R 8 70 R 11 66 R 17 49 R 29 -9 R 10 -31 R 10 -50 R 8 -64 R 7 -75 R
6 -78 R 6 -58 R 5 6 R 4 52 R 5 64 R 6 70 R 9 70 R 12 64 R 18 44 R 31 -32 R
9 -35 R 9 -59 R 8 -69 R 6 -77 R 6 -76 R 5 -27 R 5 38 R 5 60 R 6 68 R 7 71 R
10 67 R 15 56 R 25 16 R 16 -34 R 9 -42 R 9 -60 R 8 -71 R 6 -77 R 6 -73 R
5 -17 R 5 42 R 5 62 R 5 69 R 8 70 R 10 67 R 16 53 R 27 6 R 13 -34 R 10 -45 R
8 -61 R 7 -73 R 7 -77 R 5 -68 R 5 -9 R 5 47 R 5 63 R 6 69 R 8 70 R 11 66 R
17 50 R 28 -6 R 10 -32 R 10 -48 R 8 -64 R 7 -74 R 6 -78 R 6 -61 R 5 3 R
5 50 R 5 64 R 6 70 R 8 70 R 11 65 R 19 46 R 30 -25 R 9 -33 R 9 -56 R 8 -68 R
6 -76 R 6 -78 R 6 -39 R 4 23 R 5 54 R 5 67 R 6 70 R 9 69 R 13 61 R 21 36 R
26 -37 R 9 -39 R 9 -59 R 7 -70 R 6 -78 R 6 -73 R 6 -23 R 5 41 R 4 60 R
6 69 R 7 70 R 10 67 R 16 55 R 25 11 R 15 -33 R 9 -44 R 9 -60 R 7 -72 R
7 -77 R 5 -71 R 6 -14 R 4 44 R 5 62 R 6 69 R 7 71 R 11 66 R 16 52 R 27 2 R
12 -33 R 10 -46 R 9 -62 R 7 -72 R 6 -78 R 5 -66 R 5 -7 R 5 48 R 5 63 R
6 70 R 8 70 R 11 65 R 17 50 R 28 -9 R 10 -31 R 10 -49 R 8 -64 R 7 -74 R
6 -79 R 6 -60 R 4 5 R 5 50 R 5 65 R 6 70 R 8 70 R 12 64 R 18 46 R 31 -27 R
8 -34 R 9 -57 R 8 -68 R 7 -77 R 5 -77 R 6 -36 R 4 25 R 5 54 R 5 67 R 6 70 R
9 69 R 13 61 R 21 34 R 25 -35 R 9 -39 R 9 -59 R 7 -70 R 7 -77 R 6 -75 R
5 -24 R 5 39 R 4 60 R 6 69 R 7 71 R 10 67 R 15 55 R 25 14 R 16 -33 R 9 -43 R
9 -60 R 7 -71 R 6 -77 R 6 -72 R 5 -18 R 5 43 R 5 61 R 5 69 R 8 71 R 10 66 R
16 54 R 26 6 R 13 -33 R 10 -45 R 9 -61 R 7 -72 R 6 -77 R 5 -69 R 6 -12 R
4 46 R 5 63 R 6 69 R 7 71 R 11 66 R 17 51 R 27 -2 R 11 -32 R 10 -47 R
8 -63 R 7 -73 R 6 -77 R 6 -66 R 5 -3 R 5 48 R 4 64 R 6 70 R 8 70 R 11 66 R
18 48 R 28 -13 R 10 -30 R 9 -52 R 8 -64 R 7 -75 R 6 -79 R 6 -56 R 4 9 R
5 52 R 5 65 R 6 70 R 8 70 R 12 64 R 19 43 R 31 -35 R 8 -36 R 9 -60 R 8 -70 R
6 -77 R 6 -75 R 5 -23 R 5 39 R 4 61 R 6 69 R 7 70 R 10 67 R 15 56 R 25 13 R
15 -33 R 10 -43 R 8 -59 R 8 -72 R 6 -77 R 6 -73 R 5 -17 R 5 42 R 4 62 R
6 69 R 7 71 R 10 66 R 16 54 R 26 7 R 13 -33 R 10 -44 R 9 -61 R 7 -72 R
6 -78 R 5 -70 R 5 -12 R 5 45 R 5 62 R 6 70 R 7 70 R 11 67 R 16 52 R 27 0 R
12 -32 R 9 -47 R 9 -61 R 7 -73 R 5 -78 R 6 -67 R 5 -6 R 5 47 R 5 63 R 5 70 R
8 70 R 11 66 R 17 50 R 28 -8 R 10 -30 R 9 -49 R 9 -63 R 6 -74 R 6 -79 R
6 -62 R 5 2 R 5 50 R 4 64 R 6 70 R 8 70 R 12 65 R 17 47 R 30 -21 R 9 -32 R
9 -53 R 8 -67 R 6 -76 R 6 -79 R 6 -46 R 4 17 R 5 54 R 5 66 R 6 70 R 8 70 R
13 62 R 20 40 R 29 -42 R 8 -38 R 9 -61 R 7 -71 R 6 -77 R 6 -73 R 5 -16 R
5 43 R 4 61 R 6 70 R 7 70 R D 10677 1408 M 5757 0 R D 10677 1408 M 0 239 R D
gsave 10677 774 translate 0 0 M 1.2 dup scale -117.687 0 N
(0) show grestore 11636 1408 M 0 239 R D gsave 11636 774 translate 0 0 M
1.2 dup scale -117.687 0 N
(5) show grestore 12595 1408 M 0 239 R D gsave 12595 774 translate 0 0 M
1.2 dup scale -235.373 0 N
(10) show grestore 13554 1408 M 0 239 R D gsave 13554 774 translate 0 0 M
1.2 dup scale -235.373 0 N
(15) show grestore 14513 1408 M 0 239 R D gsave 14513 774 translate 0 0 M
1.2 dup scale -235.373 0 N
(20) show grestore 15472 1408 M 0 239 R D gsave 15472 774 translate 0 0 M
1.2 dup scale -235.373 0 N
(25) show grestore 16431 1408 M 0 239 R D gsave 16431 774 translate 0 0 M
1.2 dup scale -235.373 0 N
(30) show grestore 10869 1408 M 0 119 R D 11061 1408 M 0 119 R D
11253 1408 M 0 119 R D 11444 1408 M 0 119 R D 11828 1408 M 0 119 R D
12020 1408 M 0 119 R D 12212 1408 M 0 119 R D 12403 1408 M 0 119 R D
12787 1408 M 0 119 R D 12979 1408 M 0 119 R D 13171 1408 M 0 119 R D
13362 1408 M 0 119 R D 13746 1408 M 0 119 R D 13938 1408 M 0 119 R D
14130 1408 M 0 119 R D 14321 1408 M 0 119 R D 14705 1408 M 0 119 R D
14897 1408 M 0 119 R D 15089 1408 M 0 119 R D 15281 1408 M 0 119 R D
15664 1408 M 0 119 R D 15856 1408 M 0 119 R D 16048 1408 M 0 119 R D
16240 1408 M 0 119 R D 10677 7371 M 5757 0 R D 10677 7371 M 0 -239 R D
11636 7371 M 0 -239 R D 12595 7371 M 0 -239 R D 13554 7371 M 0 -239 R D
14513 7371 M 0 -239 R D 15472 7371 M 0 -239 R D 16431 7371 M 0 -239 R D
10869 7371 M 0 -119 R D 11061 7371 M 0 -119 R D 11253 7371 M 0 -119 R D
11444 7371 M 0 -119 R D 11828 7371 M 0 -119 R D 12020 7371 M 0 -119 R D
12212 7371 M 0 -119 R D 12403 7371 M 0 -119 R D 12787 7371 M 0 -119 R D
12979 7371 M 0 -119 R D 13171 7371 M 0 -119 R D 13362 7371 M 0 -119 R D
13746 7371 M 0 -119 R D 13938 7371 M 0 -119 R D 14130 7371 M 0 -119 R D
14321 7371 M 0 -119 R D 14705 7371 M 0 -119 R D 14897 7371 M 0 -119 R D
15089 7371 M 0 -119 R D 15281 7371 M 0 -119 R D 15664 7371 M 0 -119 R D
15856 7371 M 0 -119 R D 16048 7371 M 0 -119 R D 16240 7371 M 0 -119 R D
10677 1408 M 0 5963 R D 10677 2875 M 230 0 R D
gsave 10544 2706 translate 0 0 M 1.2 dup scale -1059.18 0 N
(0.001) show grestore 10677 4374 M 230 0 R D
gsave 10544 4205 translate 0 0 M 1.2 dup scale -1059.18 0 N
(0.010) show grestore 10677 5872 M 230 0 R D
gsave 10544 5703 translate 0 0 M 1.2 dup scale -1059.18 0 N
(0.100) show grestore 10677 7371 M 230 0 R D
gsave 10544 7075 translate 0 0 M 1.2 dup scale -1059.18 0 N
(1.000) show grestore 10677 1828 M 115 0 R D 10677 2092 M 115 0 R D
10677 2279 M 115 0 R D 10677 2424 M 115 0 R D 10677 2543 M 115 0 R D
10677 2643 M 115 0 R D 10677 2730 M 115 0 R D 10677 2807 M 115 0 R D
10677 3326 M 115 0 R D 10677 3590 M 115 0 R D 10677 3777 M 115 0 R D
10677 3923 M 115 0 R D 10677 4041 M 115 0 R D 10677 4142 M 115 0 R D
10677 4228 M 115 0 R D 10677 4305 M 115 0 R D 10677 4825 M 115 0 R D
10677 5089 M 115 0 R D 10677 5276 M 115 0 R D 10677 5421 M 115 0 R D
10677 5540 M 115 0 R D 10677 5640 M 115 0 R D 10677 5727 M 115 0 R D
10677 5804 M 115 0 R D 10677 6323 M 115 0 R D 10677 6587 M 115 0 R D
10677 6774 M 115 0 R D 10677 6920 M 115 0 R D 10677 7038 M 115 0 R D
10677 7139 M 115 0 R D 10677 7226 M 115 0 R D 10677 7302 M 115 0 R D
16434 1408 M 0 5963 R D 16434 2875 M -230 0 R D 16434 4374 M -230 0 R D
16434 5872 M -230 0 R D 16434 7371 M -230 0 R D 16434 1828 M -115 0 R D
16434 2092 M -115 0 R D 16434 2279 M -115 0 R D 16434 2424 M -115 0 R D
16434 2543 M -115 0 R D 16434 2643 M -115 0 R D 16434 2730 M -115 0 R D
16434 2807 M -115 0 R D 16434 3326 M -115 0 R D 16434 3590 M -115 0 R D
16434 3777 M -115 0 R D 16434 3923 M -115 0 R D 16434 4041 M -115 0 R D
16434 4142 M -115 0 R D 16434 4228 M -115 0 R D 16434 4305 M -115 0 R D
16434 4825 M -115 0 R D 16434 5089 M -115 0 R D 16434 5276 M -115 0 R D
16434 5421 M -115 0 R D 16434 5540 M -115 0 R D 16434 5640 M -115 0 R D
16434 5727 M -115 0 R D 16434 5804 M -115 0 R D 16434 6323 M -115 0 R D
16434 6587 M -115 0 R D 16434 6774 M -115 0 R D 16434 6920 M -115 0 R D
16434 7038 M -115 0 R D 16434 7139 M -115 0 R D 16434 7226 M -115 0 R D
16434 7302 M -115 0 R D 10677 5366 M 19 83 R 39 203 R 38 276 R 19 182 R
26 333 R 12 223 R 14 308 R 14 393 R 6 3 R D 10867 7370 M 8 -244 R 9 -434 R
8 -382 R 9 -300 R 11 -273 R 15 -273 R 24 -245 R 37 239 R 10 140 R 10 146 R
8 113 R 6 50 R 7 -84 R 6 -224 R 5 -258 R 6 -225 R 6 -220 R 9 -223 R
12 -251 R 20 -282 R 31 153 R 10 148 R 10 167 R 8 143 R 6 103 R 7 25 R
5 -106 R 5 -192 R 5 -208 R 5 -227 R 7 -228 R 9 -232 R 14 -265 R 22 -226 R
23 237 R 11 178 R 9 176 R 8 150 R 6 107 R 6 35 R 6 -110 R 5 -219 R 5 -215 R
5 -200 R 8 -192 R 10 -225 R 16 -279 R 26 -80 R 16 229 R 9 187 R 9 197 R
8 192 R 6 133 R 6 42 R 5 -117 R 5 -199 R 5 -186 R 6 -176 R 8 -201 R
11 -238 R 18 -287 R 28 67 R 11 183 R 10 198 R 8 198 R 7 197 R 6 159 R 6 30 R
5 -112 R 5 -163 R 5 -155 R 6 -182 R 9 -208 R 12 -250 R 19 -282 R 32 236 R
8 165 R 9 203 R 8 200 R 6 193 R 6 135 R 6 -24 R 5 -115 R 5 -144 R 5 -174 R
8 -200 R 10 -232 R 16 -285 R 26 -75 R 15 229 R 10 191 R 9 203 R 7 201 R
6 192 R 6 139 R 5 -27 R 5 -121 R 5 -149 R 6 -180 R 8 -204 R 11 -241 R
17 -289 R 29 52 R 11 188 R 9 200 R 9 202 R 7 201 R 6 191 R 6 119 R 5 -44 R
5 -119 R 5 -156 R 6 -185 R 8 -210 R 12 -252 R 19 -284 R 32 227 R 8 165 R
9 205 R 8 202 R 7 197 R 6 175 R 5 36 R 5 -97 R 5 -141 R 5 -174 R 8 -199 R
10 -231 R 16 -284 R 25 -104 R 16 235 R 9 190 R 9 203 R 8 202 R 6 194 R
6 162 R 5 13 R 5 -104 R 5 -148 R 6 -178 R 7 -204 R 11 -238 R 17 -290 R
28 11 R 12 202 R 9 197 R 9 203 R 7 202 R 6 192 R 6 142 R 5 -13 R 5 -113 R
5 -154 R 6 -183 R 8 -209 R 12 -248 R 18 -289 R 30 158 R 9 168 R 10 205 R
8 202 R 6 200 R 6 186 R 6 91 R 5 -52 R 4 -124 R 5 -162 R 7 -191 R 9 -216 R
13 -263 R 21 -260 R 26 267 R 9 178 R 9 204 R 8 202 R 6 196 R 6 170 R 5 38 R
6 -95 R 4 -144 R 6 -177 R 7 -201 R 11 -235 R 16 -287 R 26 -56 R 14 222 R
10 193 R 9 204 R 7 202 R 6 192 R 6 156 R 5 13 R 5 -105 R 5 -150 R 6 -180 R
7 -206 R 12 -242 R 17 -291 R 28 57 R 11 185 R 10 201 R 8 203 R 7 201 R
6 192 R 6 134 R 5 -15 R 4 -116 R 5 -156 R 7 -185 R 8 -210 R 12 -251 R
18 -287 R 31 214 R 9 165 R 9 206 R 8 202 R 6 198 R 6 179 R 6 63 R 4 -69 R
5 -131 R 5 -168 R 7 -195 R 10 -222 R 14 -275 R 22 -207 R 20 235 R 10 191 R
9 203 R 8 203 R 6 197 R 6 177 R 5 59 R 6 -85 R 4 -141 R 6 -173 R 7 -199 R
10 -230 R 15 -284 R 25 -124 R 16 237 R 10 190 R 9 203 R 7 203 R 6 195 R
6 167 R 6 35 R 5 -97 R 4 -146 R 6 -178 R 7 -202 R 11 -237 R 16 -289 R
27 -32 R 13 214 R 10 195 R 8 203 R 8 202 R 6 192 R 5 154 R 6 13 R 4 -107 R
5 -151 R 6 -181 R 8 -206 R 11 -244 R 17 -291 R 29 74 R 10 177 R 10 202 R
8 203 R 7 202 R 6 191 R 6 132 R 5 -15 R 4 -117 R 5 -157 R 6 -185 R 9 -210 R
12 -253 R 18 -287 R 31 225 R 9 165 R 9 207 R 8 202 R 6 197 R 6 177 R 5 60 R
5 -85 R 5 -140 R 6 -174 R 7 -199 R 10 -230 R 15 -284 R 25 -126 R 16 236 R
9 190 R 9 204 R 8 202 R 6 195 R 6 168 R 5 38 R 5 -95 R 5 -146 R 5 -177 R
8 -202 R 10 -236 R 16 -290 R 27 -43 R 13 216 R 10 195 R 8 203 R 7 202 R
7 193 R 5 156 R 5 18 R 5 -105 R 5 -149 R 6 -181 R 8 -205 R 11 -242 R
17 -292 R 28 49 R 10 185 R 10 201 R 8 203 R 7 202 R 6 192 R 6 139 R 5 -7 R
5 -114 R 5 -155 R 6 -184 R 8 -210 R 11 -250 R 19 -290 R 30 178 R 9 167 R
9 206 R 8 202 R 6 199 R 6 185 R 6 87 R 4 -52 R 5 -124 R 5 -163 R 6 -191 R
9 -218 R 13 -266 R 21 -257 R 26 263 R 9 180 R 9 205 R 7 202 R 6 197 R
6 172 R 6 49 R 5 -90 R 4 -143 R 6 -176 R 7 -200 R 10 -233 R 16 -288 R
25 -89 R 15 228 R 9 192 R 9 203 R 7 202 R 7 195 R 5 164 R 6 31 R 4 -99 R
5 -147 R 6 -178 R 7 -204 R 11 -238 R 16 -291 R 27 -14 R 12 206 R 10 196 R
9 203 R 7 202 R 6 192 R 5 153 R 5 14 R 5 -107 R 5 -151 R 6 -181 R 8 -206 R
11 -244 R 17 -293 R 28 72 R 10 176 R 10 202 R 8 202 R 7 202 R 6 191 R
6 137 R 4 -10 R 5 -116 R 5 -155 R 6 -185 R 8 -210 R 12 -251 R 18 -290 R
31 195 R 8 165 R 9 206 R 8 202 R 7 199 R 5 183 R 6 80 R 4 -56 R 5 -124 R
5 -164 R 6 -192 R 9 -218 R 13 -268 R 21 -253 R 25 258 R 9 183 R 9 205 R
7 202 R 7 197 R 6 174 R 5 54 R 5 -88 R 4 -142 R 6 -174 R 7 -200 R 10 -232 R
15 -287 R 25 -109 R 16 231 R 9 191 R 9 203 R 7 203 R 6 195 R 6 167 R 5 39 R
5 -96 R 5 -145 R 5 -177 R 8 -202 R 10 -237 R 16 -290 R 26 -48 R 13 215 R
10 194 R 9 203 R 7 202 R 6 194 R 5 159 R 6 24 R 4 -102 R 5 -149 R 6 -179 R
7 -205 R 11 -240 R 17 -293 R 27 17 R 11 194 R 10 199 R 8 203 R 7 202 R
6 192 R 6 149 R 5 7 R 5 -109 R 4 -153 R 6 -182 R 8 -207 R 11 -246 R
18 -294 R 28 102 R 10 169 R 9 205 R 8 202 R 7 202 R 6 190 R 6 128 R 4 -20 R
5 -118 R 5 -157 R 6 -186 R 8 -212 R 12 -255 R 19 -288 R 31 248 R 8 164 R
9 206 R 8 202 R 6 197 R 6 173 R 5 52 R 5 -88 R 4 -142 R 6 -175 R 7 -201 R
10 -232 R 15 -287 R 25 -106 R 15 229 R 10 192 R 8 204 R 8 202 R 6 195 R
6 168 R 5 39 R 5 -95 R 4 -146 R 6 -176 R 7 -203 R 10 -236 R 16 -291 R
26 -53 R 13 216 R 10 194 R 9 203 R 7 202 R 6 194 R 5 161 R 5 27 R 5 -101 R
5 -148 R 6 -179 R 7 -204 R 11 -240 R 16 -293 R 27 1 R 12 198 R 9 198 R
9 203 R 7 202 R 5 192 R 6 153 R 5 15 R 5 -107 R 5 -151 R 5 -180 R 8 -207 R
11 -243 R 17 -295 R 28 62 R 10 177 R 9 203 R 9 202 R 6 202 R 6 192 R 6 141 R
5 -3 R 5 -113 R 4 -155 R 6 -183 R 8 -209 R 12 -249 R 17 -294 R 30 153 R
9 167 R 9 205 R 8 202 R 6 200 R 6 188 R 6 106 R 4 -39 R 5 -123 R 5 -161 R
6 -189 R 8 -215 R 13 -262 R 20 -277 R 29 288 R 8 169 R 9 205 R 7 202 R
6 195 R 6 167 R 5 37 R 5 -97 R 4 -145 R 6 -177 R 7 -203 R D
%%PageTrailer
end
%%PageResources: font Helvetica
%%Trailer
%%Pages: 1
%%DocumentNeededResources: font Helvetica
%%EOF
