#The Galaxy Luminosity Functions \phi(L)
#          		   All						 Central					 Satellite
#(1) 	   (2)		   (3)		   (4)		   (5)		   (6)		   (7)		   (8)		   (9)		   (10)
#logL 	   All 		   Red 		   Blue 	   All 		   Red		   Blue 	   All 		   Red		   Blue
 7.8 9.0324   3.3897 5.3944   2.6814 3.6379   2.0358 7.0216   3.2849 4.1403   2.6068 2.8813   1.9104 2.0108   1.6054 1.2542   0.9849 0.7566   1.0084
 7.9 7.5462   1.3850 4.5484   1.1735 2.9977   0.7789 4.8617   1.5245 2.4132   1.0153 2.4485   0.8946 2.6845   1.5813 2.1353   1.3264 0.5492   0.5109
 8.0 6.3651   0.8115 2.8845   0.5102 3.4806   0.6290 4.5706   0.8858 2.0541   0.5558 2.5166   0.6278 1.7945   0.8846 0.8305   0.5089 0.9640   0.5210
 8.1 6.0813   0.6498 2.5566   0.3424 3.5247   0.5074 4.4285   0.7806 1.7563   0.3504 2.6723   0.5992 1.6528   0.7226 0.8003   0.2809 0.8524   0.5526
 8.2 4.2781   0.4229 1.8413   0.2858 2.4368   0.2576 2.7779   0.5448 1.0132   0.2620 1.7647   0.3909 1.5002   0.5502 0.8281   0.3306 0.6721   0.3188
 8.3 4.9823   0.4415 1.8511   0.2813 3.1312   0.2737 3.4498   0.5347 1.0388   0.1995 2.4110   0.4263 1.5326   0.5281 0.8124   0.2851 0.7202   0.3201
 8.4 4.5373   0.3176 1.4754   0.1732 3.0620   0.2409 3.0877   0.4414 0.7873   0.1432 2.3004   0.3883 1.4496   0.4447 0.6881   0.1755 0.7615   0.3339
 8.5 4.7646   0.2712 1.4727   0.1820 3.2919   0.1862 3.2717   0.3598 0.8272   0.0833 2.4445   0.3416 1.4930   0.3578 0.6455   0.1481 0.8474   0.2594
 8.6 5.0611   0.1803 1.3903   0.1616 3.6708   0.2012 3.4916   0.3415 0.6852   0.0744 2.8064   0.3192 1.5695   0.3034 0.7051   0.1422 0.8644   0.2057
 8.7 4.9694   0.1665 1.5349   0.1161 3.4344   0.1741 3.1904   0.3180 0.6093   0.0819 2.5811   0.2763 1.7790   0.2697 0.9256   0.1269 0.8534   0.1816
 8.8 4.7649   0.1504 1.3059   0.1176 3.4589   0.1882 3.0336   0.3153 0.5235   0.0731 2.5102   0.2791 1.7313   0.2625 0.7825   0.1343 0.9488   0.1568
 8.9 4.2500   0.1426 1.2642   0.0785 2.9857   0.1575 2.7792   0.2663 0.5656   0.0578 2.2136   0.2340 1.4708   0.2005 0.6987   0.0876 0.7721   0.1348
 9.0 3.7151   0.1449 1.0853   0.0615 2.6298   0.1556 2.4177   0.2373 0.4832   0.0559 1.9345   0.1985 1.2974   0.1458 0.6021   0.0827 0.6953   0.0795
 9.1 3.4459   0.1257 1.0891   0.0444 2.3568   0.1293 2.2779   0.2120 0.5214   0.0585 1.7565   0.1743 1.1680   0.1280 0.5677   0.0704 0.6003   0.0713
 9.2 3.2127   0.1361 1.0609   0.0291 2.1518   0.1267 2.1378   0.1763 0.5271   0.0433 1.6106   0.1480 1.0749   0.0778 0.5337   0.0439 0.5412   0.0465
 9.3 2.8792   0.0998 1.0113   0.0308 1.8679   0.0993 1.9424   0.1626 0.5276   0.0440 1.4148   0.1316 0.9367   0.0924 0.4836   0.0505 0.4531   0.0507
 9.4 2.7471   0.0998 1.0501   0.0278 1.6970   0.0879 1.8702   0.1530 0.5831   0.0500 1.2870   0.1125 0.8770   0.0756 0.4670   0.0434 0.4100   0.0393
 9.5 2.6091   0.0972 1.0723   0.0296 1.5368   0.0783 1.8150   0.1525 0.6253   0.0520 1.1897   0.1094 0.7941   0.0729 0.4470   0.0362 0.3471   0.0430
 9.6 2.6861   0.0956 1.2200   0.0332 1.4660   0.0716 1.8920   0.1553 0.7424   0.0642 1.1496   0.0988 0.7940   0.0747 0.4776   0.0433 0.3164   0.0368
 9.7 2.4858   0.0875 1.2074   0.0339 1.2784   0.0616 1.7868   0.1444 0.7688   0.0662 1.0180   0.0856 0.6990   0.0697 0.4386   0.0419 0.2604   0.0315
 9.8 2.1931   0.0757 1.1136   0.0334 1.0795   0.0491 1.6238   0.1239 0.7524   0.0579 0.8713   0.0715 0.5693   0.0564 0.3611   0.0320 0.2082   0.0279
 9.9 1.8351   0.0654 0.9485   0.0274 0.8866   0.0428 1.4036   0.1038 0.6725   0.0489 0.7311   0.0593 0.4315   0.0450 0.2760   0.0269 0.1555   0.0205
10.0 1.5384   0.0557 0.8246   0.0255 0.7138   0.0340 1.1979   0.0884 0.6080   0.0452 0.5899   0.0465 0.3405   0.0383 0.2165   0.0241 0.1239   0.0160
10.1 1.2460   0.0444 0.6707   0.0210 0.5753   0.0265 0.9992   0.0702 0.5149   0.0364 0.4843   0.0366 0.2468   0.0297 0.1558   0.0186 0.0910   0.0124
10.2 0.9413   0.0320 0.5112   0.0160 0.4301   0.0182 0.7774   0.0525 0.4108   0.0274 0.3666   0.0272 0.1639   0.0229 0.1004   0.0133 0.0635   0.0105
10.3 0.6428   0.0226 0.3591   0.0123 0.2837   0.0120 0.5448   0.0353 0.3000   0.0190 0.2448   0.0177 0.0980   0.0141 0.0591   0.0080 0.0389   0.0067
10.4 0.3961   0.0137 0.2302   0.0084 0.1659   0.0065 0.3442   0.0209 0.1995   0.0121 0.1447   0.0098 0.0520   0.0081 0.0307   0.0046 0.0212   0.0039
10.5 0.2227   0.0075 0.1393   0.0053 0.0834   0.0030 0.1981   0.0104 0.1241   0.0067 0.0740   0.0044 0.0246   0.0035 0.0153   0.0020 0.0094   0.0018
10.6 0.1078   0.0028 0.0733   0.0030 0.0345   0.0010 0.0987   0.0042 0.0674   0.0036 0.0313   0.0011 0.0091   0.0018 0.0059   0.0009 0.0032   0.0011
10.7 0.0475   0.0010 0.0345   0.0012 0.0130   0.0011 0.0447   0.0012 0.0328   0.0013 0.0119   0.0006 0.0027   0.0008 0.0017   0.0003 0.0011   0.0006
10.8 0.0183   0.0011 0.0140   0.0006 0.0043   0.0010 0.0175   0.0010 0.0135   0.0006 0.0040   0.0009 0.0008   0.0003 0.0005   0.0001 0.0003   0.0002
10.9 0.0060   0.0006 0.0047   0.0003 0.0013   0.0004 0.0059   0.0005 0.0046   0.0003 0.0013   0.0004 0.0001   0.0001 0.0000   0.0000 0.0000   0.0001
11.0 0.0013   0.0002 0.0011   0.0002 0.0002   0.0001 0.0013   0.0002 0.0011   0.0002 0.0002   0.0001 0.0000   0.0000 0.0000   0.0000 0.0000   0.0000
