%!PS-Adobe-3.0 EPSF-3.0
%%BoundingBox: 0 0 481 198
%%Title: Graphics produced by IDL
%%For: jlgan@KASI, /home/jlgan/work/phoenix
%%Creator: IDL Version 7.0 (linux x86_64 m64)
%%CreationDate: Wed May  9 22:47:30 2012
%%DocumentData: Clean7bit
%%Requirements: color
%%LanguageLevel: 1
%%PageOrder: Ascend
%%Pages: (atend)
%%DocumentNeededResources: (atend)
%%EndComments
%%BeginProlog
%+ prolog.ps -- Prolog for IDL generated PostScript files
%+ Copyright (c) 1988-2007 ITT Visual Information Solutions. All Rights Reserved.
%v 5
/$IDL_DICT 40 dict def $IDL_DICT begin /bdef { bind def } bind def /C
{currentpoint newpath moveto} bdef /CP {currentpoint} bdef /D {currentpoint
stroke moveto} bdef /F {closepath fill} bdef /K { setgray } bdef /M {moveto}
bdef /N {rmoveto} bdef /P {lineto} bdef /R {rlineto} bdef /S {gsave show
grestore} bdef /X {currentpoint pop} bdef /Z {gsave currentpoint lineto 20
setlinewidth 1 setlinecap stroke grestore} bdef /L0 {[] 0 setdash} bdef /L1
{[40 100] 0 setdash} bdef /L2 {[200 200] 0 setdash} bdef /L3 {[200 100 50
100] 0 setdash} bdef /L4 {[300 100 50 100 50 100 50 100] 0 setdash} bdef /L5
{[400 200] 0 setdash} bdef /STDFONT { findfont exch scalefont setfont } bdef
/ISOFONT { findfont dup length dict begin { 1 index /FID ne {def} {pop pop}
ifelse } forall /Encoding ISOLatin1Encoding def currentdict end /idltmpfont
exch definefont exch scalefont setfont } bdef /ISOBULLET { gsave /Helvetica
findfont exch scalefont setfont (\267) show currentpoint grestore moveto}
bdef /MITERLIMIT { 2.5 setmiterlimit } bdef end
%%EndProlog
%%Page: 0 1
%%PageRequirements: color
%%PageResources: (atend)
%%PageOrientation: Portrait
%%PageBoundingBox: 0 0 481 198
%%BeginPageSetup
$IDL_DICT begin 0.0283465 dup scale MITERLIMIT
%%IncludeResource: font Helvetica
423.333 /Helvetica STDFONT
%%EndPageSetup
0.000 0.000 0.000 setrgbcolor gsave 888 3852 translate 0 0 M 90 rotate
-1576.07 0 N
(Number Fraction) show grestore 40 setlinewidth L0 2220 1408 M 4705 0 R D
2878 1408 M 0 196 R D gsave 2878 880 translate 0 0 M -352.04 0 N
(10) show X 192.937 M
%%IncludeResource: font Helvetica
262.467 /Helvetica STDFONT
(-2) show grestore
%%IncludeResource: font Helvetica
423.333 /Helvetica STDFONT 3819 1408 M 0 196 R D
gsave 3819 880 translate 0 0 M -352.04 0 N
(10) show X 192.937 M
%%IncludeResource: font Helvetica
262.467 /Helvetica STDFONT
(-1) show grestore
%%IncludeResource: font Helvetica
423.333 /Helvetica STDFONT 4760 1408 M 0 196 R D
gsave 4760 880 translate 0 0 M -117.687 0 N
(1) show grestore 5701 1408 M 0 196 R D gsave 5701 880 translate 0 0 M
-235.373 0 N
(10) show grestore 6642 1408 M 0 196 R D gsave 6642 880 translate 0 0 M
-308.339 0 N
(10) show X 192.937 M
%%IncludeResource: font Helvetica
262.467 /Helvetica STDFONT
(2) show grestore
%%IncludeResource: font Helvetica
423.333 /Helvetica STDFONT 2220 1408 M 0 98 R D 2386 1408 M 0 98 R D
2503 1408 M 0 98 R D 2595 1408 M 0 98 R D 2669 1408 M 0 98 R D 2732 1408 M
0 98 R D 2787 1408 M 0 98 R D 2835 1408 M 0 98 R D 3161 1408 M 0 98 R D
3327 1408 M 0 98 R D 3444 1408 M 0 98 R D 3535 1408 M 0 98 R D 3610 1408 M
0 98 R D 3673 1408 M 0 98 R D 3728 1408 M 0 98 R D 3776 1408 M 0 98 R D
4102 1408 M 0 98 R D 4268 1408 M 0 98 R D 4385 1408 M 0 98 R D 4476 1408 M
0 98 R D 4551 1408 M 0 98 R D 4614 1408 M 0 98 R D 4668 1408 M 0 98 R D
4717 1408 M 0 98 R D 5043 1408 M 0 98 R D 5209 1408 M 0 98 R D 5326 1408 M
0 98 R D 5417 1408 M 0 98 R D 5492 1408 M 0 98 R D 5555 1408 M 0 98 R D
5609 1408 M 0 98 R D 5658 1408 M 0 98 R D 5984 1408 M 0 98 R D 6150 1408 M
0 98 R D 6267 1408 M 0 98 R D 6358 1408 M 0 98 R D 6433 1408 M 0 98 R D
6496 1408 M 0 98 R D 6550 1408 M 0 98 R D 6598 1408 M 0 98 R D 6925 1408 M
0 98 R D gsave 4572 422 translate 0 0 M -1101.1 0 N
(R) show X -101.051 M
%%IncludeResource: font Helvetica
262.467 /Helvetica STDFONT
(spheroid) show X 0 M
%%IncludeResource: font Helvetica
423.333 /Helvetica STDFONT
(/R) show X -101.051 M
%%IncludeResource: font Helvetica
262.467 /Helvetica STDFONT
(disk) show grestore
%%IncludeResource: font Helvetica
423.333 /Helvetica STDFONT 2220 6296 M 4705 0 R D 2878 6296 M 0 -195 R D
3819 6296 M 0 -195 R D 4760 6296 M 0 -195 R D 5701 6296 M 0 -195 R D
6642 6296 M 0 -195 R D 2220 6296 M 0 -98 R D 2386 6296 M 0 -98 R D
2503 6296 M 0 -98 R D 2595 6296 M 0 -98 R D 2669 6296 M 0 -98 R D
2732 6296 M 0 -98 R D 2787 6296 M 0 -98 R D 2835 6296 M 0 -98 R D
3161 6296 M 0 -98 R D 3327 6296 M 0 -98 R D 3444 6296 M 0 -98 R D
3535 6296 M 0 -98 R D 3610 6296 M 0 -98 R D 3673 6296 M 0 -98 R D
3728 6296 M 0 -98 R D 3776 6296 M 0 -98 R D 4102 6296 M 0 -98 R D
4268 6296 M 0 -98 R D 4385 6296 M 0 -98 R D 4476 6296 M 0 -98 R D
4551 6296 M 0 -98 R D 4614 6296 M 0 -98 R D 4668 6296 M 0 -98 R D
4717 6296 M 0 -98 R D 5043 6296 M 0 -98 R D 5209 6296 M 0 -98 R D
5326 6296 M 0 -98 R D 5417 6296 M 0 -98 R D 5492 6296 M 0 -98 R D
5555 6296 M 0 -98 R D 5609 6296 M 0 -98 R D 5658 6296 M 0 -98 R D
5984 6296 M 0 -98 R D 6150 6296 M 0 -98 R D 6267 6296 M 0 -98 R D
6358 6296 M 0 -98 R D 6433 6296 M 0 -98 R D 6496 6296 M 0 -98 R D
6550 6296 M 0 -98 R D 6598 6296 M 0 -98 R D 6925 6296 M 0 -98 R D
2220 1408 M 0 4888 R D 2220 1408 M 188 0 R D gsave 2109 1408 translate 0 0 M
-823.807 0 N
(0.00) show grestore 2220 2694 M 188 0 R D gsave 2109 2554 translate 0 0 M
-823.807 0 N
(0.05) show grestore 2220 3981 M 188 0 R D gsave 2109 3840 translate 0 0 M
-823.807 0 N
(0.10) show grestore 2220 5267 M 188 0 R D gsave 2109 5126 translate 0 0 M
-823.807 0 N
(0.15) show grestore 2220 1665 M 94 0 R D 2220 1923 M 94 0 R D 2220 2180 M
94 0 R D 2220 2437 M 94 0 R D 2220 2952 M 94 0 R D 2220 3209 M 94 0 R D
2220 3466 M 94 0 R D 2220 3723 M 94 0 R D 2220 4238 M 94 0 R D 2220 4495 M
94 0 R D 2220 4752 M 94 0 R D 2220 5010 M 94 0 R D 2220 5524 M 94 0 R D
2220 5782 M 94 0 R D 2220 6039 M 94 0 R D 2220 6296 M 94 0 R D 6925 1408 M
0 4888 R D 6925 1408 M -188 0 R D 6925 2694 M -188 0 R D 6925 3981 M
-188 0 R D 6925 5267 M -188 0 R D 6925 1665 M -94 0 R D 6925 1923 M -94 0 R
D 6925 2180 M -94 0 R D 6925 2437 M -94 0 R D 6925 2952 M -94 0 R D
6925 3209 M -94 0 R D 6925 3466 M -94 0 R D 6925 3723 M -94 0 R D
6925 4238 M -94 0 R D 6925 4495 M -94 0 R D 6925 4752 M -94 0 R D
6925 5010 M -94 0 R D 6925 5524 M -94 0 R D 6925 5782 M -94 0 R D
6925 6039 M -94 0 R D 6925 6296 M -94 0 R D 3161 1417 M 45 0 R 40 0 R 44 0 R
0 5 R 40 0 R 45 0 R 0 13 R 40 0 R 44 0 R 0 -1 R 41 0 R 44 0 R 0 26 R 40 0 R
45 0 R 0 41 R 40 0 R 44 0 R 0 82 R 41 0 R 44 0 R 0 126 R 40 0 R 45 0 R
0 265 R 40 0 R 44 0 R 0 349 R 41 0 R 44 0 R 0 550 R 40 0 R 45 0 R 0 704 R
40 0 R 44 0 R 0 832 R 40 0 R 45 0 R 0 853 R 40 0 R 45 0 R 0 312 R 40 0 R
44 0 R 0 -623 R 40 0 R 45 0 R 0 -1000 R 40 0 R 45 0 R 0 -848 R 40 0 R 44 0 R
0 -668 R 40 0 R 45 0 R 0 -1000 R 40 0 R 45 0 R 0 -12 R 40 0 R 44 0 R 0 -3 R
40 0 R 45 0 R 0 -1 R 40 0 R 45 0 R 0 -7 R 40 0 R 44 0 R 40 0 R 45 0 R 0 -2 R
40 0 R 44 0 R 41 0 R 44 0 R 0 -2 R 40 0 R 45 0 R 0 1 R 40 0 R 44 0 R 41 0 R
D 6925 1408 M 4704 0 R D 7582 1408 M 0 196 R D
gsave 7582 880 translate 0 0 M -352.04 0 N
(10) show X 192.937 M
%%IncludeResource: font Helvetica
262.467 /Helvetica STDFONT
(-2) show grestore
%%IncludeResource: font Helvetica
423.333 /Helvetica STDFONT 8523 1408 M 0 196 R D
gsave 8523 880 translate 0 0 M -352.04 0 N
(10) show X 192.937 M
%%IncludeResource: font Helvetica
262.467 /Helvetica STDFONT
(-1) show grestore
%%IncludeResource: font Helvetica
423.333 /Helvetica STDFONT 9464 1408 M 0 196 R D
gsave 9464 880 translate 0 0 M -117.687 0 N
(1) show grestore 10405 1408 M 0 196 R D gsave 10405 880 translate 0 0 M
-235.373 0 N
(10) show grestore 11346 1408 M 0 196 R D gsave 11346 880 translate 0 0 M
-308.339 0 N
(10) show X 192.937 M
%%IncludeResource: font Helvetica
262.467 /Helvetica STDFONT
(2) show grestore
%%IncludeResource: font Helvetica
423.333 /Helvetica STDFONT 6925 1408 M 0 98 R D 7090 1408 M 0 98 R D
7208 1408 M 0 98 R D 7299 1408 M 0 98 R D 7374 1408 M 0 98 R D 7437 1408 M
0 98 R D 7491 1408 M 0 98 R D 7539 1408 M 0 98 R D 7866 1408 M 0 98 R D
8031 1408 M 0 98 R D 8149 1408 M 0 98 R D 8240 1408 M 0 98 R D 8315 1408 M
0 98 R D 8378 1408 M 0 98 R D 8432 1408 M 0 98 R D 8480 1408 M 0 98 R D
8807 1408 M 0 98 R D 8972 1408 M 0 98 R D 9090 1408 M 0 98 R D 9181 1408 M
0 98 R D 9256 1408 M 0 98 R D 9319 1408 M 0 98 R D 9373 1408 M 0 98 R D
9421 1408 M 0 98 R D 9748 1408 M 0 98 R D 9913 1408 M 0 98 R D 10031 1408 M
0 98 R D 10122 1408 M 0 98 R D 10196 1408 M 0 98 R D 10259 1408 M 0 98 R D
10314 1408 M 0 98 R D 10362 1408 M 0 98 R D 10688 1408 M 0 98 R D
10854 1408 M 0 98 R D 10972 1408 M 0 98 R D 11063 1408 M 0 98 R D
11137 1408 M 0 98 R D 11200 1408 M 0 98 R D 11255 1408 M 0 98 R D
11303 1408 M 0 98 R D 11629 1408 M 0 98 R D gsave 9277 422 translate 0 0 M
-1148.09 0 N
(M) show X -101.051 M
%%IncludeResource: font Helvetica
262.467 /Helvetica STDFONT
(spheroid) show X 0 M
%%IncludeResource: font Helvetica
423.333 /Helvetica STDFONT
(/M) show X -101.051 M
%%IncludeResource: font Helvetica
262.467 /Helvetica STDFONT
(disk) show grestore
%%IncludeResource: font Helvetica
423.333 /Helvetica STDFONT 6925 6296 M 4704 0 R D 7582 6296 M 0 -195 R D
8523 6296 M 0 -195 R D 9464 6296 M 0 -195 R D 10405 6296 M 0 -195 R D
11346 6296 M 0 -195 R D 6925 6296 M 0 -98 R D 7090 6296 M 0 -98 R D
7208 6296 M 0 -98 R D 7299 6296 M 0 -98 R D 7374 6296 M 0 -98 R D
7437 6296 M 0 -98 R D 7491 6296 M 0 -98 R D 7539 6296 M 0 -98 R D
7866 6296 M 0 -98 R D 8031 6296 M 0 -98 R D 8149 6296 M 0 -98 R D
8240 6296 M 0 -98 R D 8315 6296 M 0 -98 R D 8378 6296 M 0 -98 R D
8432 6296 M 0 -98 R D 8480 6296 M 0 -98 R D 8807 6296 M 0 -98 R D
8972 6296 M 0 -98 R D 9090 6296 M 0 -98 R D 9181 6296 M 0 -98 R D
9256 6296 M 0 -98 R D 9319 6296 M 0 -98 R D 9373 6296 M 0 -98 R D
9421 6296 M 0 -98 R D 9748 6296 M 0 -98 R D 9913 6296 M 0 -98 R D
10031 6296 M 0 -98 R D 10122 6296 M 0 -98 R D 10196 6296 M 0 -98 R D
10259 6296 M 0 -98 R D 10314 6296 M 0 -98 R D 10362 6296 M 0 -98 R D
10688 6296 M 0 -98 R D 10854 6296 M 0 -98 R D 10972 6296 M 0 -98 R D
11063 6296 M 0 -98 R D 11137 6296 M 0 -98 R D 11200 6296 M 0 -98 R D
11255 6296 M 0 -98 R D 11303 6296 M 0 -98 R D 11629 6296 M 0 -98 R D
6925 1408 M 0 4888 R D 6925 1408 M 188 0 R D gsave 6814 1408 translate 0 0 M
-117.687 0 N
( ) show grestore 6925 2694 M 188 0 R D gsave 6814 2554 translate 0 0 M
-117.687 0 N
( ) show grestore 6925 3981 M 188 0 R D gsave 6814 3840 translate 0 0 M
-117.687 0 N
( ) show grestore 6925 5267 M 188 0 R D gsave 6814 5126 translate 0 0 M
-117.687 0 N
( ) show grestore 6925 1665 M 94 0 R D 6925 1923 M 94 0 R D 6925 2180 M
94 0 R D 6925 2437 M 94 0 R D 6925 2952 M 94 0 R D 6925 3209 M 94 0 R D
6925 3466 M 94 0 R D 6925 3723 M 94 0 R D 6925 4238 M 94 0 R D 6925 4495 M
94 0 R D 6925 4752 M 94 0 R D 6925 5010 M 94 0 R D 6925 5524 M 94 0 R D
6925 5782 M 94 0 R D 6925 6039 M 94 0 R D 6925 6296 M 94 0 R D 11629 1408 M
0 4888 R D 11629 1408 M -188 0 R D 11629 2694 M -188 0 R D 11629 3981 M
-188 0 R D 11629 5267 M -188 0 R D 11629 1665 M -94 0 R D 11629 1923 M
-94 0 R D 11629 2180 M -94 0 R D 11629 2437 M -94 0 R D 11629 2952 M -94 0 R
D 11629 3209 M -94 0 R D 11629 3466 M -94 0 R D 11629 3723 M -94 0 R D
11629 4238 M -94 0 R D 11629 4495 M -94 0 R D 11629 4752 M -94 0 R D
11629 5010 M -94 0 R D 11629 5524 M -94 0 R D 11629 5782 M -94 0 R D
11629 6039 M -94 0 R D 11629 6296 M -94 0 R D 7299 1481 M 68 0 R 0 42 R
58 0 R 67 0 R 0 110 R 58 0 R 68 0 R 0 176 R 58 0 R 67 0 R 0 216 R 58 0 R
68 0 R 0 291 R 57 0 R 68 0 R 0 307 R 58 0 R 67 0 R 0 274 R 58 0 R 68 0 R
0 228 R 58 0 R 67 0 R 0 266 R 58 0 R 68 0 R 0 14 R 58 0 R 67 0 R 0 -115 R
58 0 R 68 0 R 0 -199 R 58 0 R 67 0 R 0 -167 R 58 0 R 68 0 R 0 -38 R 58 0 R
67 0 R 0 81 R 58 0 R 68 0 R 0 36 R 58 0 R 67 0 R 0 -206 R 58 0 R 67 0 R
0 -633 R 58 0 R 68 0 R 0 -158 R 58 0 R 67 0 R 0 -114 R 58 0 R 68 0 R 0 -48 R
58 0 R 67 0 R 0 -87 R 58 0 R 68 0 R 0 -34 R 58 0 R 67 0 R 0 -57 R 58 0 R
68 0 R 0 -66 R 58 0 R 67 0 R 0 -35 R 58 0 R 68 0 R 0 -29 R 58 0 R 67 0 R
0 -44 R 58 0 R 68 0 R 0 -9 R 57 0 R 68 0 R 0 -20 R 58 0 R D 11629 1408 M
4705 0 R D 12287 1408 M 0 196 R D gsave 12287 880 translate 0 0 M
-352.04 0 N
(10) show X 192.937 M
%%IncludeResource: font Helvetica
262.467 /Helvetica STDFONT
(-2) show grestore
%%IncludeResource: font Helvetica
423.333 /Helvetica STDFONT 13228 1408 M 0 196 R D
gsave 13228 880 translate 0 0 M -352.04 0 N
(10) show X 192.937 M
%%IncludeResource: font Helvetica
262.467 /Helvetica STDFONT
(-1) show grestore
%%IncludeResource: font Helvetica
423.333 /Helvetica STDFONT 14169 1408 M 0 196 R D
gsave 14169 880 translate 0 0 M -117.687 0 N
(1) show grestore 15110 1408 M 0 196 R D gsave 15110 880 translate 0 0 M
-235.373 0 N
(10) show grestore 16051 1408 M 0 196 R D gsave 16051 880 translate 0 0 M
-308.339 0 N
(10) show X 192.937 M
%%IncludeResource: font Helvetica
262.467 /Helvetica STDFONT
(2) show grestore
%%IncludeResource: font Helvetica
423.333 /Helvetica STDFONT 11629 1408 M 0 98 R D 11795 1408 M 0 98 R D
11913 1408 M 0 98 R D 12004 1408 M 0 98 R D 12078 1408 M 0 98 R D
12141 1408 M 0 98 R D 12196 1408 M 0 98 R D 12244 1408 M 0 98 R D
12570 1408 M 0 98 R D 12736 1408 M 0 98 R D 12854 1408 M 0 98 R D
12945 1408 M 0 98 R D 13019 1408 M 0 98 R D 13082 1408 M 0 98 R D
13137 1408 M 0 98 R D 13185 1408 M 0 98 R D 13511 1408 M 0 98 R D
13677 1408 M 0 98 R D 13795 1408 M 0 98 R D 13886 1408 M 0 98 R D
13960 1408 M 0 98 R D 14023 1408 M 0 98 R D 14078 1408 M 0 98 R D
14126 1408 M 0 98 R D 14452 1408 M 0 98 R D 14618 1408 M 0 98 R D
14735 1408 M 0 98 R D 14827 1408 M 0 98 R D 14901 1408 M 0 98 R D
14964 1408 M 0 98 R D 15019 1408 M 0 98 R D 15067 1408 M 0 98 R D
15393 1408 M 0 98 R D 15559 1408 M 0 98 R D 15676 1408 M 0 98 R D
15768 1408 M 0 98 R D 15842 1408 M 0 98 R D 15905 1408 M 0 98 R D
15960 1408 M 0 98 R D 16008 1408 M 0 98 R D 16334 1408 M 0 98 R D
gsave 13982 422 translate 0 0 M -1301.13 0 N
(L) show X -101.051 M
%%IncludeResource: font Helvetica
262.467 /Helvetica STDFONT
(spheroid) show X 0 M
%%IncludeResource: font Helvetica
423.333 /Helvetica STDFONT
(/L) show X -101.051 M
%%IncludeResource: font Helvetica
262.467 /Helvetica STDFONT
(disk) show X 0 M
%%IncludeResource: font Helvetica
423.333 /Helvetica STDFONT
( \(r\)) show grestore 11629 6296 M 4705 0 R D 12287 6296 M 0 -195 R D
13228 6296 M 0 -195 R D 14169 6296 M 0 -195 R D 15110 6296 M 0 -195 R D
16051 6296 M 0 -195 R D 11629 6296 M 0 -98 R D 11795 6296 M 0 -98 R D
11913 6296 M 0 -98 R D 12004 6296 M 0 -98 R D 12078 6296 M 0 -98 R D
12141 6296 M 0 -98 R D 12196 6296 M 0 -98 R D 12244 6296 M 0 -98 R D
12570 6296 M 0 -98 R D 12736 6296 M 0 -98 R D 12854 6296 M 0 -98 R D
12945 6296 M 0 -98 R D 13019 6296 M 0 -98 R D 13082 6296 M 0 -98 R D
13137 6296 M 0 -98 R D 13185 6296 M 0 -98 R D 13511 6296 M 0 -98 R D
13677 6296 M 0 -98 R D 13795 6296 M 0 -98 R D 13886 6296 M 0 -98 R D
13960 6296 M 0 -98 R D 14023 6296 M 0 -98 R D 14078 6296 M 0 -98 R D
14126 6296 M 0 -98 R D 14452 6296 M 0 -98 R D 14618 6296 M 0 -98 R D
14735 6296 M 0 -98 R D 14827 6296 M 0 -98 R D 14901 6296 M 0 -98 R D
14964 6296 M 0 -98 R D 15019 6296 M 0 -98 R D 15067 6296 M 0 -98 R D
15393 6296 M 0 -98 R D 15559 6296 M 0 -98 R D 15676 6296 M 0 -98 R D
15768 6296 M 0 -98 R D 15842 6296 M 0 -98 R D 15905 6296 M 0 -98 R D
15960 6296 M 0 -98 R D 16008 6296 M 0 -98 R D 16334 6296 M 0 -98 R D
11629 1408 M 0 4888 R D 11629 1408 M 189 0 R D
gsave 11518 1408 translate 0 0 M -117.687 0 N
( ) show grestore 11629 2694 M 189 0 R D gsave 11518 2554 translate 0 0 M
-117.687 0 N
( ) show grestore 11629 3981 M 189 0 R D gsave 11518 3840 translate 0 0 M
-117.687 0 N
( ) show grestore 11629 5267 M 189 0 R D gsave 11518 5126 translate 0 0 M
-117.687 0 N
( ) show grestore 11629 1665 M 95 0 R D 11629 1923 M 95 0 R D 11629 2180 M
95 0 R D 11629 2437 M 95 0 R D 11629 2952 M 95 0 R D 11629 3209 M 95 0 R D
11629 3466 M 95 0 R D 11629 3723 M 95 0 R D 11629 4238 M 95 0 R D
11629 4495 M 95 0 R D 11629 4752 M 95 0 R D 11629 5010 M 95 0 R D
11629 5524 M 95 0 R D 11629 5782 M 95 0 R D 11629 6039 M 95 0 R D
11629 6296 M 95 0 R D 16334 1408 M 0 4888 R D 16334 1408 M -188 0 R D
16334 2694 M -188 0 R D 16334 3981 M -188 0 R D 16334 5267 M -188 0 R D
16334 1665 M -94 0 R D 16334 1923 M -94 0 R D 16334 2180 M -94 0 R D
16334 2437 M -94 0 R D 16334 2952 M -94 0 R D 16334 3209 M -94 0 R D
16334 3466 M -94 0 R D 16334 3723 M -94 0 R D 16334 4238 M -94 0 R D
16334 4495 M -94 0 R D 16334 4752 M -94 0 R D 16334 5010 M -94 0 R D
16334 5524 M -94 0 R D 16334 5782 M -94 0 R D 16334 6039 M -94 0 R D
16334 6296 M -94 0 R D 11629 1449 M 28 0 R 85 0 R 0 62 R 70 0 R 85 0 R
0 95 R 71 0 R 85 0 R 0 182 R 70 0 R 85 0 R 0 246 R 70 0 R 86 0 R 0 425 R
70 0 R 85 0 R 0 503 R 70 0 R 85 0 R 0 513 R 71 0 R 85 0 R 0 278 R 70 0 R
85 0 R 0 52 R 70 0 R 85 0 R 0 -315 R 71 0 R 85 0 R 0 -324 R 70 0 R 85 0 R
0 -16 R 71 0 R 85 0 R 0 107 R 70 0 R 85 0 R 0 119 R 70 0 R 85 0 R 0 -362 R
71 0 R 85 0 R 0 -456 R 70 0 R 85 0 R 0 -473 R 71 0 R 85 0 R 0 -170 R 70 0 R
85 0 R 0 -132 R 70 0 R 85 0 R 0 -70 R 71 0 R 85 0 R 0 -43 R 70 0 R 85 0 R
0 -79 R 70 0 R 85 0 R 0 -46 R 71 0 R 85 0 R 0 -32 R 70 0 R 85 0 R 0 -29 R
71 0 R 85 0 R 0 -10 R 70 0 R 85 0 R 0 -21 R 70 0 R 85 0 R 0 3 R 71 0 R D
%%PageTrailer
end
%%PageResources: font Helvetica
%%Trailer
%%Pages: 1
%%DocumentNeededResources: font Helvetica
%%EOF
