%!PS-Adobe-3.0 EPSF-3.0
%%BoundingBox: 0 0 453 311
%%Title: Graphics produced by IDL
%%For: jlgan@KASI, /home/jlgan/work/phoenix
%%Creator: IDL Version 7.0 (linux x86_64 m64)
%%CreationDate: Thu Mar  1 21:42:52 2012
%%DocumentData: Clean7bit
%%Requirements: color
%%LanguageLevel: 1
%%PageOrder: Ascend
%%Pages: (atend)
%%DocumentNeededResources: (atend)
%%EndComments
%%BeginProlog
%+ prolog.ps -- Prolog for IDL generated PostScript files
%+ Copyright (c) 1988-2007 ITT Visual Information Solutions. All Rights Reserved.
%v 5
/$IDL_DICT 40 dict def $IDL_DICT begin /bdef { bind def } bind def /C
{currentpoint newpath moveto} bdef /CP {currentpoint} bdef /D {currentpoint
stroke moveto} bdef /F {closepath fill} bdef /K { setgray } bdef /M {moveto}
bdef /N {rmoveto} bdef /P {lineto} bdef /R {rlineto} bdef /S {gsave show
grestore} bdef /X {currentpoint pop} bdef /Z {gsave currentpoint lineto 20
setlinewidth 1 setlinecap stroke grestore} bdef /L0 {[] 0 setdash} bdef /L1
{[40 100] 0 setdash} bdef /L2 {[200 200] 0 setdash} bdef /L3 {[200 100 50
100] 0 setdash} bdef /L4 {[300 100 50 100 50 100 50 100] 0 setdash} bdef /L5
{[400 200] 0 setdash} bdef /STDFONT { findfont exch scalefont setfont } bdef
/ISOFONT { findfont dup length dict begin { 1 index /FID ne {def} {pop pop}
ifelse } forall /Encoding ISOLatin1Encoding def currentdict end /idltmpfont
exch definefont exch scalefont setfont } bdef /ISOBULLET { gsave /Helvetica
findfont exch scalefont setfont (\267) show currentpoint grestore moveto}
bdef /MITERLIMIT { 2.5 setmiterlimit } bdef end
%%EndProlog
%%Page: 0 1
%%PageRequirements: color
%%PageResources: (atend)
%%PageOrientation: Portrait
%%PageBoundingBox: 0 0 453 311
%%BeginPageSetup
$IDL_DICT begin 0.0283465 dup scale MITERLIMIT
%%IncludeResource: font Helvetica
423.333 /Helvetica STDFONT
%%EndPageSetup
0.000 0.000 0.000 setrgbcolor gsave 8777 682 translate 0 0 M -576.368 0 N
(t / Gyr) show grestore gsave 1528 5852 translate 0 0 M 90 rotate
-1529.08 0 N
(Number of Pairs) show grestore 40 setlinewidth L0 2860 6182 M 5277 0 R D
3623 6182 M 0 151 R D gsave 3623 5654 translate 0 0 M -117.687 0 N
(2) show grestore 4403 6182 M 0 151 R D gsave 4403 5654 translate 0 0 M
-117.687 0 N
(4) show grestore 5183 6182 M 0 151 R D gsave 5183 5654 translate 0 0 M
-117.687 0 N
(6) show grestore 5962 6182 M 0 151 R D gsave 5962 5654 translate 0 0 M
-117.687 0 N
(8) show grestore 6742 6182 M 0 151 R D gsave 6742 5654 translate 0 0 M
-235.373 0 N
(10) show grestore 7522 6182 M 0 151 R D gsave 7522 5654 translate 0 0 M
-235.373 0 N
(12) show grestore 3038 6182 M 0 76 R D 3233 6182 M 0 76 R D 3428 6182 M
0 76 R D 3818 6182 M 0 76 R D 4013 6182 M 0 76 R D 4208 6182 M 0 76 R D
4598 6182 M 0 76 R D 4793 6182 M 0 76 R D 4988 6182 M 0 76 R D 5377 6182 M
0 76 R D 5572 6182 M 0 76 R D 5767 6182 M 0 76 R D 6157 6182 M 0 76 R D
6352 6182 M 0 76 R D 6547 6182 M 0 76 R D 6937 6182 M 0 76 R D 7132 6182 M
0 76 R D 7327 6182 M 0 76 R D 7716 6182 M 0 76 R D 7911 6182 M 0 76 R D
8106 6182 M 0 76 R D 2860 9966 M 5277 0 R D 3623 9966 M 0 -151 R D
4403 9966 M 0 -151 R D 5183 9966 M 0 -151 R D 5962 9966 M 0 -151 R D
6742 9966 M 0 -151 R D 7522 9966 M 0 -151 R D 3038 9966 M 0 -76 R D
3233 9966 M 0 -76 R D 3428 9966 M 0 -76 R D 3818 9966 M 0 -76 R D
4013 9966 M 0 -76 R D 4208 9966 M 0 -76 R D 4598 9966 M 0 -76 R D
4793 9966 M 0 -76 R D 4988 9966 M 0 -76 R D 5377 9966 M 0 -76 R D
5572 9966 M 0 -76 R D 5767 9966 M 0 -76 R D 6157 9966 M 0 -76 R D
6352 9966 M 0 -76 R D 6547 9966 M 0 -76 R D 6937 9966 M 0 -76 R D
7132 9966 M 0 -76 R D 7327 9966 M 0 -76 R D 7716 9966 M 0 -76 R D
7911 9966 M 0 -76 R D 8106 9966 M 0 -76 R D 2860 6182 M 0 3784 R D
2860 7012 M 211 0 R D gsave 2749 6871 translate 0 0 M -470.747 0 N
(10) show grestore 2860 8200 M 211 0 R D gsave 2749 8059 translate 0 0 M
-706.12 0 N
(100) show grestore 2860 9387 M 211 0 R D gsave 2749 9247 translate 0 0 M
-941.493 0 N
(1000) show grestore 2860 6182 M 106 0 R D 2860 6391 M 106 0 R D 2860 6540 M
106 0 R D 2860 6655 M 106 0 R D 2860 6749 M 106 0 R D 2860 6828 M 106 0 R D
2860 6897 M 106 0 R D 2860 6958 M 106 0 R D 2860 7370 M 106 0 R D
2860 7579 M 106 0 R D 2860 7727 M 106 0 R D 2860 7842 M 106 0 R D
2860 7936 M 106 0 R D 2860 8016 M 106 0 R D 2860 8085 M 106 0 R D
2860 8145 M 106 0 R D 2860 8557 M 106 0 R D 2860 8766 M 106 0 R D
2860 8915 M 106 0 R D 2860 9030 M 106 0 R D 2860 9124 M 106 0 R D
2860 9203 M 106 0 R D 2860 9272 M 106 0 R D 2860 9333 M 106 0 R D
2860 9745 M 106 0 R D 2860 9954 M 106 0 R D 8137 6182 M 0 3784 R D
8137 7012 M -211 0 R D 8137 8200 M -211 0 R D 8137 9387 M -211 0 R D
8137 6182 M -105 0 R D 8137 6391 M -105 0 R D 8137 6540 M -105 0 R D
8137 6655 M -105 0 R D 8137 6749 M -105 0 R D 8137 6828 M -105 0 R D
8137 6897 M -105 0 R D 8137 6958 M -105 0 R D 8137 7370 M -105 0 R D
8137 7579 M -105 0 R D 8137 7727 M -105 0 R D 8137 7842 M -105 0 R D
8137 7936 M -105 0 R D 8137 8016 M -105 0 R D 8137 8085 M -105 0 R D
8137 8145 M -105 0 R D 8137 8557 M -105 0 R D 8137 8766 M -105 0 R D
8137 8915 M -105 0 R D 8137 9030 M -105 0 R D 8137 9124 M -105 0 R D
8137 9203 M -105 0 R D 8137 9272 M -105 0 R D 8137 9333 M -105 0 R D
8137 9745 M -105 0 R D 8137 9954 M -105 0 R D 0.761 0.000 0.000 setrgbcolor
3330 6182 M 102 567 R 119 472 R 137 555 R 156 439 R 177 342 R 196 164 R
217 237 R 235 181 R 253 143 R 268 100 R 280 120 R 288 68 R 293 73 R 293 86 R
290 111 R 284 22 R 273 12 R 261 7 R 246 8 R 229 -8 R 210 36 R D
0.000 0.549 0.000 setrgbcolor 3432 6182 M 119 473 R 137 600 R 156 269 R
177 499 R 196 347 R 217 192 R 235 171 R 253 158 R 268 49 R 280 167 R
288 111 R 293 98 R 293 60 R 290 18 R 284 45 R 273 67 R 261 69 R 246 70 R
229 41 R 210 10 R D 0.000 0.000 1.000 setrgbcolor 3394 6182 M 38 209 R
119 506 R 137 324 R 156 264 R 177 425 R 196 206 R 217 207 R 235 177 R
253 147 R 268 156 R 280 117 R 288 50 R 293 -41 R 293 41 R 290 37 R 284 -35 R
273 64 R 261 50 R 246 5 R 229 64 R 210 3 R D 0.000 0.000 0.000 setrgbcolor
gsave 7522 6391 translate 0 0 M -658.283 0 N
(mC) show grestore 9417 6182 M 5277 0 R D 10180 6182 M 0 151 R D
gsave 10180 5654 translate 0 0 M -117.687 0 N
(2) show grestore 10960 6182 M 0 151 R D gsave 10960 5654 translate 0 0 M
-117.687 0 N
(4) show grestore 11740 6182 M 0 151 R D gsave 11740 5654 translate 0 0 M
-117.687 0 N
(6) show grestore 12519 6182 M 0 151 R D gsave 12519 5654 translate 0 0 M
-117.687 0 N
(8) show grestore 13299 6182 M 0 151 R D gsave 13299 5654 translate 0 0 M
-235.373 0 N
(10) show grestore 14079 6182 M 0 151 R D gsave 14079 5654 translate 0 0 M
-235.373 0 N
(12) show grestore 9595 6182 M 0 76 R D 9790 6182 M 0 76 R D 9985 6182 M
0 76 R D 10375 6182 M 0 76 R D 10570 6182 M 0 76 R D 10765 6182 M 0 76 R D
11155 6182 M 0 76 R D 11350 6182 M 0 76 R D 11545 6182 M 0 76 R D
11934 6182 M 0 76 R D 12129 6182 M 0 76 R D 12324 6182 M 0 76 R D
12714 6182 M 0 76 R D 12909 6182 M 0 76 R D 13104 6182 M 0 76 R D
13494 6182 M 0 76 R D 13689 6182 M 0 76 R D 13884 6182 M 0 76 R D
14273 6182 M 0 76 R D 14468 6182 M 0 76 R D 14663 6182 M 0 76 R D
9417 9966 M 5277 0 R D 10180 9966 M 0 -151 R D 10960 9966 M 0 -151 R D
11740 9966 M 0 -151 R D 12519 9966 M 0 -151 R D 13299 9966 M 0 -151 R D
14079 9966 M 0 -151 R D 9595 9966 M 0 -76 R D 9790 9966 M 0 -76 R D
9985 9966 M 0 -76 R D 10375 9966 M 0 -76 R D 10570 9966 M 0 -76 R D
10765 9966 M 0 -76 R D 11155 9966 M 0 -76 R D 11350 9966 M 0 -76 R D
11545 9966 M 0 -76 R D 11934 9966 M 0 -76 R D 12129 9966 M 0 -76 R D
12324 9966 M 0 -76 R D 12714 9966 M 0 -76 R D 12909 9966 M 0 -76 R D
13104 9966 M 0 -76 R D 13494 9966 M 0 -76 R D 13689 9966 M 0 -76 R D
13884 9966 M 0 -76 R D 14273 9966 M 0 -76 R D 14468 9966 M 0 -76 R D
14663 9966 M 0 -76 R D 9417 6182 M 0 3784 R D 9417 6182 M 211 0 R D
gsave 9306 6182 translate 0 0 M -235.373 0 N
(1) show grestore 9417 7389 M 211 0 R D gsave 9306 7248 translate 0 0 M
-470.747 0 N
(10) show grestore 9417 8596 M 211 0 R D gsave 9306 8455 translate 0 0 M
-706.12 0 N
(100) show grestore 9417 9803 M 211 0 R D gsave 9306 9662 translate 0 0 M
-941.493 0 N
(1000) show grestore 9417 6545 M 106 0 R D 9417 6758 M 106 0 R D 9417 6909 M
106 0 R D 9417 7026 M 106 0 R D 9417 7121 M 106 0 R D 9417 7202 M 106 0 R D
9417 7272 M 106 0 R D 9417 7334 M 106 0 R D 9417 7752 M 106 0 R D
9417 7965 M 106 0 R D 9417 8115 M 106 0 R D 9417 8232 M 106 0 R D
9417 8328 M 106 0 R D 9417 8409 M 106 0 R D 9417 8479 M 106 0 R D
9417 8540 M 106 0 R D 9417 8959 M 106 0 R D 9417 9171 M 106 0 R D
9417 9322 M 106 0 R D 9417 9439 M 106 0 R D 9417 9535 M 106 0 R D
9417 9616 M 106 0 R D 9417 9686 M 106 0 R D 9417 9747 M 106 0 R D
14694 6182 M 0 3784 R D 14694 6182 M -211 0 R D 14694 7389 M -211 0 R D
14694 8596 M -211 0 R D 14694 9803 M -211 0 R D 14694 6545 M -105 0 R D
14694 6758 M -105 0 R D 14694 6909 M -105 0 R D 14694 7026 M -105 0 R D
14694 7121 M -105 0 R D 14694 7202 M -105 0 R D 14694 7272 M -105 0 R D
14694 7334 M -105 0 R D 14694 7752 M -105 0 R D 14694 7965 M -105 0 R D
14694 8115 M -105 0 R D 14694 8232 M -105 0 R D 14694 8328 M -105 0 R D
14694 8409 M -105 0 R D 14694 8479 M -105 0 R D 14694 8540 M -105 0 R D
14694 8959 M -105 0 R D 14694 9171 M -105 0 R D 14694 9322 M -105 0 R D
14694 9439 M -105 0 R D 14694 9535 M -105 0 R D 14694 9616 M -105 0 R D
14694 9686 M -105 0 R D 14694 9747 M -105 0 R D
0.761 0.000 0.000 setrgbcolor 10108 6182 M 137 576 R 156 514 R 177 506 R
196 375 R 217 225 R 235 202 R 253 210 R 268 153 R 280 181 R 288 94 R
293 117 R 293 241 R 290 73 R 284 79 R 273 -7 R 261 34 R 246 62 R 229 73 R
210 26 R D 0.000 0.549 0.000 setrgbcolor 10401 6182 M 177 1020 R 196 237 R
217 526 R 235 257 R 253 223 R 268 176 R 280 43 R 288 222 R 293 251 R
293 -7 R 290 7 R 284 156 R 273 37 R 261 91 R 246 58 R 229 63 R 210 71 R D
0.000 0.000 1.000 setrgbcolor 10245 6182 M 156 576 R 177 268 R 196 539 R
217 304 R 235 40 R 253 323 R 268 279 R 280 115 R 288 95 R 293 87 R 293 66 R
290 9 R 284 89 R 273 35 R 261 2 R 246 79 R 229 -51 R 210 104 R D
0.000 0.000 0.000 setrgbcolor gsave 14079 6395 translate 0 0 M -940.647 0 N
(mVC) show grestore 2860 1738 M 5277 0 R D 3623 1738 M 0 151 R D
gsave 3623 1210 translate 0 0 M -117.687 0 N
(2) show grestore 4403 1738 M 0 151 R D gsave 4403 1210 translate 0 0 M
-117.687 0 N
(4) show grestore 5183 1738 M 0 151 R D gsave 5183 1210 translate 0 0 M
-117.687 0 N
(6) show grestore 5962 1738 M 0 151 R D gsave 5962 1210 translate 0 0 M
-117.687 0 N
(8) show grestore 6742 1738 M 0 151 R D gsave 6742 1210 translate 0 0 M
-235.373 0 N
(10) show grestore 7522 1738 M 0 151 R D gsave 7522 1210 translate 0 0 M
-235.373 0 N
(12) show grestore 3038 1738 M 0 76 R D 3233 1738 M 0 76 R D 3428 1738 M
0 76 R D 3818 1738 M 0 76 R D 4013 1738 M 0 76 R D 4208 1738 M 0 76 R D
4598 1738 M 0 76 R D 4793 1738 M 0 76 R D 4988 1738 M 0 76 R D 5377 1738 M
0 76 R D 5572 1738 M 0 76 R D 5767 1738 M 0 76 R D 6157 1738 M 0 76 R D
6352 1738 M 0 76 R D 6547 1738 M 0 76 R D 6937 1738 M 0 76 R D 7132 1738 M
0 76 R D 7327 1738 M 0 76 R D 7716 1738 M 0 76 R D 7911 1738 M 0 76 R D
8106 1738 M 0 76 R D 2860 5522 M 5277 0 R D 3623 5522 M 0 -151 R D
4403 5522 M 0 -151 R D 5183 5522 M 0 -151 R D 5962 5522 M 0 -151 R D
6742 5522 M 0 -151 R D 7522 5522 M 0 -151 R D 3038 5522 M 0 -76 R D
3233 5522 M 0 -76 R D 3428 5522 M 0 -76 R D 3818 5522 M 0 -76 R D
4013 5522 M 0 -76 R D 4208 5522 M 0 -76 R D 4598 5522 M 0 -76 R D
4793 5522 M 0 -76 R D 4988 5522 M 0 -76 R D 5377 5522 M 0 -76 R D
5572 5522 M 0 -76 R D 5767 5522 M 0 -76 R D 6157 5522 M 0 -76 R D
6352 5522 M 0 -76 R D 6547 5522 M 0 -76 R D 6937 5522 M 0 -76 R D
7132 5522 M 0 -76 R D 7327 5522 M 0 -76 R D 7716 5522 M 0 -76 R D
7911 5522 M 0 -76 R D 8106 5522 M 0 -76 R D 2860 1738 M 0 3784 R D
2860 1738 M 211 0 R D gsave 2749 1738 translate 0 0 M -235.373 0 N
(1) show grestore 2860 3248 M 211 0 R D gsave 2749 3108 translate 0 0 M
-470.747 0 N
(10) show grestore 2860 4759 M 211 0 R D gsave 2749 4618 translate 0 0 M
-706.12 0 N
(100) show grestore 2860 2193 M 106 0 R D 2860 2459 M 106 0 R D 2860 2647 M
106 0 R D 2860 2794 M 106 0 R D 2860 2913 M 106 0 R D 2860 3014 M 106 0 R D
2860 3102 M 106 0 R D 2860 3179 M 106 0 R D 2860 3703 M 106 0 R D
2860 3969 M 106 0 R D 2860 4158 M 106 0 R D 2860 4304 M 106 0 R D
2860 4424 M 106 0 R D 2860 4525 M 106 0 R D 2860 4612 M 106 0 R D
2860 4690 M 106 0 R D 2860 5214 M 106 0 R D 2860 5480 M 106 0 R D
8137 1738 M 0 3784 R D 8137 1738 M -211 0 R D 8137 3248 M -211 0 R D
8137 4759 M -211 0 R D 8137 2193 M -105 0 R D 8137 2459 M -105 0 R D
8137 2647 M -105 0 R D 8137 2794 M -105 0 R D 8137 2913 M -105 0 R D
8137 3014 M -105 0 R D 8137 3102 M -105 0 R D 8137 3179 M -105 0 R D
8137 3703 M -105 0 R D 8137 3969 M -105 0 R D 8137 4158 M -105 0 R D
8137 4304 M -105 0 R D 8137 4424 M -105 0 R D 8137 4525 M -105 0 R D
8137 4612 M -105 0 R D 8137 4690 M -105 0 R D 8137 5214 M -105 0 R D
8137 5480 M -105 0 R D 0.761 0.000 0.000 setrgbcolor 3844 1738 M 177 455 R
196 821 R 217 88 R 235 664 R 253 525 R 268 88 R 280 296 R 288 50 R 293 164 R
293 202 R 290 57 R 284 104 R 273 65 R 261 13 R 246 51 R 229 79 R 210 -23 R D
0.000 0.549 0.000 setrgbcolor 4021 1738 M 196 455 R 217 986 R 235 242 R
253 176 R 268 492 R 280 131 R 288 135 R 293 249 R 293 33 R 290 -85 R
284 145 R 273 181 R 261 -16 R 246 59 R 229 162 R 210 -16 R D
0.000 0.000 1.000 setrgbcolor 4021 2193 M 196 -455 R 217 1175 R 235 -119 R
253 627 R 268 248 R 280 66 R 288 256 R 293 79 R 293 221 R 290 133 R
284 -189 R 273 299 R 261 0 R 246 -89 R 229 11 R 210 -43 R D
0.000 0.000 0.000 setrgbcolor gsave 7522 2004 translate 0 0 M -658.283 0 N
(MC) show grestore 9417 1738 M 5277 0 R D 10180 1738 M 0 151 R D
gsave 10180 1210 translate 0 0 M -117.687 0 N
(2) show grestore 10960 1738 M 0 151 R D gsave 10960 1210 translate 0 0 M
-117.687 0 N
(4) show grestore 11740 1738 M 0 151 R D gsave 11740 1210 translate 0 0 M
-117.687 0 N
(6) show grestore 12519 1738 M 0 151 R D gsave 12519 1210 translate 0 0 M
-117.687 0 N
(8) show grestore 13299 1738 M 0 151 R D gsave 13299 1210 translate 0 0 M
-235.373 0 N
(10) show grestore 14079 1738 M 0 151 R D gsave 14079 1210 translate 0 0 M
-235.373 0 N
(12) show grestore 9595 1738 M 0 76 R D 9790 1738 M 0 76 R D 9985 1738 M
0 76 R D 10375 1738 M 0 76 R D 10570 1738 M 0 76 R D 10765 1738 M 0 76 R D
11155 1738 M 0 76 R D 11350 1738 M 0 76 R D 11545 1738 M 0 76 R D
11934 1738 M 0 76 R D 12129 1738 M 0 76 R D 12324 1738 M 0 76 R D
12714 1738 M 0 76 R D 12909 1738 M 0 76 R D 13104 1738 M 0 76 R D
13494 1738 M 0 76 R D 13689 1738 M 0 76 R D 13884 1738 M 0 76 R D
14273 1738 M 0 76 R D 14468 1738 M 0 76 R D 14663 1738 M 0 76 R D
9417 5522 M 5277 0 R D 10180 5522 M 0 -151 R D 10960 5522 M 0 -151 R D
11740 5522 M 0 -151 R D 12519 5522 M 0 -151 R D 13299 5522 M 0 -151 R D
14079 5522 M 0 -151 R D 9595 5522 M 0 -76 R D 9790 5522 M 0 -76 R D
9985 5522 M 0 -76 R D 10375 5522 M 0 -76 R D 10570 5522 M 0 -76 R D
10765 5522 M 0 -76 R D 11155 5522 M 0 -76 R D 11350 5522 M 0 -76 R D
11545 5522 M 0 -76 R D 11934 5522 M 0 -76 R D 12129 5522 M 0 -76 R D
12324 5522 M 0 -76 R D 12714 5522 M 0 -76 R D 12909 5522 M 0 -76 R D
13104 5522 M 0 -76 R D 13494 5522 M 0 -76 R D 13689 5522 M 0 -76 R D
13884 5522 M 0 -76 R D 14273 5522 M 0 -76 R D 14468 5522 M 0 -76 R D
14663 5522 M 0 -76 R D 9417 1738 M 0 3784 R D 9417 1738 M 211 0 R D
gsave 9306 1738 translate 0 0 M -235.373 0 N
(1) show grestore 9417 4307 M 211 0 R D gsave 9306 4167 translate 0 0 M
-470.747 0 N
(10) show grestore 9417 2512 M 106 0 R D 9417 2964 M 106 0 R D 9417 3285 M
106 0 R D 9417 3534 M 106 0 R D 9417 3737 M 106 0 R D 9417 3909 M 106 0 R D
9417 4058 M 106 0 R D 9417 4190 M 106 0 R D 9417 5081 M 106 0 R D
14694 1738 M 0 3784 R D 14694 1738 M -211 0 R D 14694 4307 M -211 0 R D
14694 2512 M -105 0 R D 14694 2964 M -105 0 R D 14694 3285 M -105 0 R D
14694 3534 M -105 0 R D 14694 3737 M -105 0 R D 14694 3909 M -105 0 R D
14694 4058 M -105 0 R D 14694 4190 M -105 0 R D 14694 5081 M -105 0 R D
0.761 0.000 0.000 setrgbcolor 11479 1738 M 268 774 R 280 773 R 288 773 R
293 -321 R 293 453 R 290 834 R 284 57 R 273 0 R 261 -118 R 246 411 R
229 -137 R 210 179 R D 0.000 0.549 0.000 setrgbcolor 11747 1738 M 280 0 R D
12608 2964 M 293 0 R 290 321 R 284 249 R 273 977 R 261 -321 R 246 642 R
229 -418 R 210 485 R D 0.000 0.000 1.000 setrgbcolor 12027 2512 M 288 -774 R
293 0 R 293 0 R 290 0 R 284 1226 R 273 0 R 261 1094 R 246 132 R 229 -453 R
210 -452 R D 0.000 0.000 0.000 setrgbcolor gsave 14079 2190 translate 0 0 M
-940.647 0 N
(MVC) show grestore 0.761 0.000 0.000 setrgbcolor 5499 8074 M 65 0 R 66 0 R
65 0 R 66 0 R 65 0 R 66 0 R 66 0 R 65 0 R 66 0 R D
0.000 0.549 0.000 setrgbcolor 5499 7630 M 65 0 R 66 0 R 65 0 R 66 0 R 65 0 R
66 0 R 66 0 R 65 0 R 66 0 R D 0.000 0.000 1.000 setrgbcolor 5499 7185 M
65 0 R 66 0 R 65 0 R 66 0 R 65 0 R 66 0 R 66 0 R 65 0 R 66 0 R D
0.761 0.000 0.000 setrgbcolor gsave 6154 7903 translate 0 0 M
(phi4) show grestore 0.000 0.549 0.000 setrgbcolor
gsave 6154 7459 translate 0 0 M
(phg4) show grestore 0.000 0.000 1.000 setrgbcolor
gsave 6154 7015 translate 0 0 M
(pha4) show grestore
%%PageTrailer
end
%%PageResources: font Helvetica
%%Trailer
%%Pages: 1
%%DocumentNeededResources: font Helvetica
%%EOF
