%!PS-Adobe-3.0 EPSF-3.0
%%BoundingBox: 0 0 311 255
%%Title: Graphics produced by IDL
%%For: daxia@Lserver, /home/daxia/work/subhalo_model
%%Creator: IDL Version 7.0 (linux x86_64 m64)
%%CreationDate: Fri Oct 29 15:44:01 2010
%%DocumentData: Clean7bit
%%Requirements: color
%%LanguageLevel: 1
%%PageOrder: Ascend
%%Pages: (atend)
%%DocumentNeededResources: (atend)
%%EndComments
%%BeginProlog
%+ prolog.ps -- Prolog for IDL generated PostScript files
%+ Copyright (c) 1988-2007 ITT Visual Information Solutions. All Rights Reserved.
%v 5
/$IDL_DICT 40 dict def $IDL_DICT begin /bdef { bind def } bind def /C
{currentpoint newpath moveto} bdef /CP {currentpoint} bdef /D {currentpoint
stroke moveto} bdef /F {closepath fill} bdef /K { setgray } bdef /M {moveto}
bdef /N {rmoveto} bdef /P {lineto} bdef /R {rlineto} bdef /S {gsave show
grestore} bdef /X {currentpoint pop} bdef /Z {gsave currentpoint lineto 20
setlinewidth 1 setlinecap stroke grestore} bdef /L0 {[] 0 setdash} bdef /L1
{[40 100] 0 setdash} bdef /L2 {[200 200] 0 setdash} bdef /L3 {[200 100 50
100] 0 setdash} bdef /L4 {[300 100 50 100 50 100 50 100] 0 setdash} bdef /L5
{[400 200] 0 setdash} bdef /STDFONT { findfont exch scalefont setfont } bdef
/ISOFONT { findfont dup length dict begin { 1 index /FID ne {def} {pop pop}
ifelse } forall /Encoding ISOLatin1Encoding def currentdict end /idltmpfont
exch definefont exch scalefont setfont } bdef /ISOBULLET { gsave /Helvetica
findfont exch scalefont setfont (\267) show currentpoint grestore moveto}
bdef /MITERLIMIT { 2.5 setmiterlimit } bdef end
%%EndProlog
%%Page: 0 1
%%PageRequirements: color
%%PageResources: (atend)
%%PageOrientation: Portrait
%%PageBoundingBox: 0 0 311 255
%%BeginPageSetup
$IDL_DICT begin 0.0283465 dup scale MITERLIMIT
%%IncludeResource: font Helvetica
423.333 /Helvetica STDFONT
%%EndPageSetup
40 setlinewidth L0 0.000 0.000 0.000 setrgbcolor 1540 1170 M 9020 0 R D
2964 1170 M 0 306 R D gsave 2964 642 translate 0 0 M -294.217 0 N
(0.2) show grestore 4863 1170 M 0 306 R D gsave 4863 642 translate 0 0 M
-294.217 0 N
(0.4) show grestore 6762 1170 M 0 306 R D gsave 6762 642 translate 0 0 M
-294.217 0 N
(0.6) show grestore 8661 1170 M 0 306 R D gsave 8661 642 translate 0 0 M
-294.217 0 N
(0.8) show grestore 10560 1170 M 0 306 R D gsave 10560 642 translate 0 0 M
-294.217 0 N
(1.0) show grestore 1540 1170 M 0 153 R D 2015 1170 M 0 153 R D 2489 1170 M
0 153 R D 3439 1170 M 0 153 R D 3914 1170 M 0 153 R D 4388 1170 M 0 153 R D
5338 1170 M 0 153 R D 5813 1170 M 0 153 R D 6287 1170 M 0 153 R D
7237 1170 M 0 153 R D 7712 1170 M 0 153 R D 8186 1170 M 0 153 R D
9136 1170 M 0 153 R D 9611 1170 M 0 153 R D 10085 1170 M 0 153 R D
gsave 6050 184 translate 0 0 M -1500.72 0 N
%%IncludeResource: font Symbol
423.333 /Symbol STDFONT
(e) show
%%IncludeResource: font Helvetica
423.333 /Helvetica STDFONT
( \(circularity\)) show grestore 1540 8820 M 9020 0 R D 2964 8820 M 0 -306 R
D 4863 8820 M 0 -306 R D 6762 8820 M 0 -306 R D 8661 8820 M 0 -306 R D
10560 8820 M 0 -306 R D 1540 8820 M 0 -153 R D 2015 8820 M 0 -153 R D
2489 8820 M 0 -153 R D 3439 8820 M 0 -153 R D 3914 8820 M 0 -153 R D
4388 8820 M 0 -153 R D 5338 8820 M 0 -153 R D 5813 8820 M 0 -153 R D
6287 8820 M 0 -153 R D 7237 8820 M 0 -153 R D 7712 8820 M 0 -153 R D
8186 8820 M 0 -153 R D 9136 8820 M 0 -153 R D 9611 8820 M 0 -153 R D
10085 8820 M 0 -153 R D 1540 1170 M 0 7650 R D 1540 2020 M 361 0 R D
gsave 1429 1879 translate 0 0 M -588.433 0 N
(0.2) show grestore 1540 3720 M 361 0 R D gsave 1429 3579 translate 0 0 M
-588.433 0 N
(0.4) show grestore 1540 5420 M 361 0 R D gsave 1429 5279 translate 0 0 M
-588.433 0 N
(0.6) show grestore 1540 7120 M 361 0 R D gsave 1429 6979 translate 0 0 M
-588.433 0 N
(0.8) show grestore 1540 8820 M 361 0 R D gsave 1429 8574 translate 0 0 M
-588.433 0 N
(1.0) show grestore 1540 1170 M 180 0 R D 1540 1595 M 180 0 R D 1540 2445 M
180 0 R D 1540 2870 M 180 0 R D 1540 3295 M 180 0 R D 1540 4145 M 180 0 R D
1540 4570 M 180 0 R D 1540 4995 M 180 0 R D 1540 5845 M 180 0 R D
1540 6270 M 180 0 R D 1540 6695 M 180 0 R D 1540 7545 M 180 0 R D
1540 7970 M 180 0 R D 1540 8395 M 180 0 R D gsave 508 4995 translate 0 0 M
90 rotate -1110.01 0 N
(T) show X -101.051 M
%%IncludeResource: font Helvetica
262.467 /Helvetica STDFONT
(df) show X 0 M
%%IncludeResource: font Helvetica
423.333 /Helvetica STDFONT
( / T) show X -101.051 M
%%IncludeResource: font Helvetica
262.467 /Helvetica STDFONT
(df) show X 0 M
%%IncludeResource: font Helvetica
423.333 /Helvetica STDFONT
(\() show
%%IncludeResource: font Symbol
423.333 /Symbol STDFONT
(e) show
%%IncludeResource: font Helvetica
423.333 /Helvetica STDFONT
(=1\)) show grestore 10560 1170 M 0 7650 R D 10560 2020 M -361 0 R D
10560 3720 M -361 0 R D 10560 5420 M -361 0 R D 10560 7120 M -361 0 R D
10560 8820 M -361 0 R D 10560 1170 M -180 0 R D 10560 1595 M -180 0 R D
10560 2445 M -180 0 R D 10560 2870 M -180 0 R D 10560 3295 M -180 0 R D
10560 4145 M -180 0 R D 10560 4570 M -180 0 R D 10560 4995 M -180 0 R D
10560 5845 M -180 0 R D 10560 6270 M -180 0 R D 10560 6695 M -180 0 R D
10560 7545 M -180 0 R D 10560 7970 M -180 0 R D 10560 8395 M -180 0 R D
2015 3286 M 111 -222 R -222 0 R 111 222 R D 3914 5535 M 111 -222 R -222 0 R
111 222 R D 5813 7455 M 111 -222 R -222 0 R 111 222 R D 7712 8313 M
111 -222 R -222 0 R 111 222 R D 9611 8588 M 111 -222 R -222 0 R 111 222 R D
10559 8709 M -110 0 R 55 111 R D 2015 2366 M 111 0 R 0 -222 R -222 0 R
0 222 R 222 0 R D 3914 3197 M 111 0 R 0 -222 R -222 0 R 0 222 R 222 0 R D
5813 4318 M 111 0 R 0 -222 R -222 0 R 0 222 R 222 0 R D 7712 5503 M 111 0 R
0 -222 R -222 0 R 0 222 R 222 0 R D 9611 6859 M 111 0 R 0 -222 R -222 0 R
0 222 R 222 0 R D 10559 8709 M -110 0 R 0 111 R D L2 2015 1857 M 1899 711 R
1899 1039 R 1899 1520 R 1899 2222 R 948 1469 R D L5 2015 3704 M 1899 1867 R
1899 1191 R 1899 928 R 1899 779 R 948 350 R D L0 7738 3585 M 111 -222 R
-222 0 R 111 222 R 111 -222 R -222 0 R 111 222 R D 7738 3034 M 111 0 R
0 -222 R -222 0 R 0 222 R 222 0 R -111 0 R D 7849 3034 M 0 -222 R -222 0 R
0 222 R 222 0 R D gsave 8143 3313 translate 0 0 M
(R) show X -101.051 M
%%IncludeResource: font Helvetica
262.467 /Helvetica STDFONT
(m) show X 192.937 M
(-1) show X 0 M
%%IncludeResource: font Helvetica
423.333 /Helvetica STDFONT
(=0.05) show grestore gsave 8143 2762 translate 0 0 M
(R) show X -101.051 M
%%IncludeResource: font Helvetica
262.467 /Helvetica STDFONT
(m) show X 192.937 M
(-1) show X 0 M
%%IncludeResource: font Helvetica
423.333 /Helvetica STDFONT
(=0.3) show grestore L5 7575 2303 M 106 0 R 105 0 R 106 0 R 105 0 R 106 0 R
105 0 R 106 0 R 105 0 R 106 0 R D L2 7575 1821 M 106 0 R 105 0 R 106 0 R
105 0 R 106 0 R 105 0 R 106 0 R 105 0 R 106 0 R D
gsave 8630 2142 translate 0 0 M
(C99) show grestore gsave 8630 1660 translate 0 0 M
(BK08) show grestore
%%PageTrailer
end
%%PageResources: font Helvetica
%%+ font Symbol
%%Trailer
%%Pages: 1
%%DocumentNeededResources: font Helvetica
%%+ font Symbol
%%EOF
