%!PS-Adobe-3.0 EPSF-3.0
%%BoundingBox: 0 0 283 255
%%Title: Graphics produced by IDL
%%For: dacia@Lserver, /home/dacia/work/subhalo_model
%%Creator: IDL Version 7.0 (linux x86_64 m64)
%%CreationDate: Tue May 11 14:25:31 2010
%%DocumentData: Clean7bit
%%Requirements: color
%%LanguageLevel: 1
%%PageOrder: Ascend
%%Pages: (atend)
%%DocumentNeededResources: (atend)
%%EndComments
%%BeginProlog
%+ prolog.ps -- Prolog for IDL generated PostScript files
%+ Copyright (c) 1988-2007 ITT Visual Information Solutions. All Rights Reserved.
%v 5
/$IDL_DICT 40 dict def $IDL_DICT begin /bdef { bind def } bind def /C
{currentpoint newpath moveto} bdef /CP {currentpoint} bdef /D {currentpoint
stroke moveto} bdef /F {closepath fill} bdef /K { setgray } bdef /M {moveto}
bdef /N {rmoveto} bdef /P {lineto} bdef /R {rlineto} bdef /S {gsave show
grestore} bdef /X {currentpoint pop} bdef /Z {gsave currentpoint lineto 20
setlinewidth 1 setlinecap stroke grestore} bdef /L0 {[] 0 setdash} bdef /L1
{[40 100] 0 setdash} bdef /L2 {[200 200] 0 setdash} bdef /L3 {[200 100 50
100] 0 setdash} bdef /L4 {[300 100 50 100 50 100 50 100] 0 setdash} bdef /L5
{[400 200] 0 setdash} bdef /STDFONT { findfont exch scalefont setfont } bdef
/ISOFONT { findfont dup length dict begin { 1 index /FID ne {def} {pop pop}
ifelse } forall /Encoding ISOLatin1Encoding def currentdict end /idltmpfont
exch definefont exch scalefont setfont } bdef /ISOBULLET { gsave /Helvetica
findfont exch scalefont setfont (\267) show currentpoint grestore moveto}
bdef /MITERLIMIT { 2.5 setmiterlimit } bdef end
%%EndProlog
%%Page: 0 1
%%PageRequirements: color
%%PageResources: (atend)
%%PageOrientation: Portrait
%%PageBoundingBox: 0 0 283 255
%%BeginPageSetup
$IDL_DICT begin 0.0283465 dup scale MITERLIMIT
%%IncludeResource: font Helvetica
423.333 /Helvetica STDFONT
%%EndPageSetup
40 setlinewidth L0 0.000 0.000 0.000 setrgbcolor 1800 1440 M 8000 0 R D
1800 1440 M 0 292 R D gsave 1800 801 translate 0 0 M 1.21 dup scale
-117.687 0 N
(0) show grestore 3402 1440 M 0 292 R D gsave 3402 801 translate 0 0 M
1.21 dup scale -117.687 0 N
(2) show grestore 5003 1440 M 0 292 R D gsave 5003 801 translate 0 0 M
1.21 dup scale -117.687 0 N
(4) show grestore 6605 1440 M 0 292 R D gsave 6605 801 translate 0 0 M
1.21 dup scale -117.687 0 N
(6) show grestore 8206 1440 M 0 292 R D gsave 8206 801 translate 0 0 M
1.21 dup scale -117.687 0 N
(8) show grestore 2200 1440 M 0 146 R D 2601 1440 M 0 146 R D 3001 1440 M
0 146 R D 3802 1440 M 0 146 R D 4202 1440 M 0 146 R D 4603 1440 M 0 146 R D
5404 1440 M 0 146 R D 5804 1440 M 0 146 R D 6204 1440 M 0 146 R D
7005 1440 M 0 146 R D 7406 1440 M 0 146 R D 7806 1440 M 0 146 R D
8607 1440 M 0 146 R D 9007 1440 M 0 146 R D 9408 1440 M 0 146 R D
gsave 5800 247 translate 0 0 M 1.21 dup scale -576.368 0 N
(t / Gyr) show grestore 1800 8730 M 8000 0 R D 1800 8730 M 0 -292 R D
3402 8730 M 0 -292 R D 5003 8730 M 0 -292 R D 6605 8730 M 0 -292 R D
8206 8730 M 0 -292 R D 2200 8730 M 0 -146 R D 2601 8730 M 0 -146 R D
3001 8730 M 0 -146 R D 3802 8730 M 0 -146 R D 4202 8730 M 0 -146 R D
4603 8730 M 0 -146 R D 5404 8730 M 0 -146 R D 5804 8730 M 0 -146 R D
6204 8730 M 0 -146 R D 7005 8730 M 0 -146 R D 7406 8730 M 0 -146 R D
7806 8730 M 0 -146 R D 8607 8730 M 0 -146 R D 9007 8730 M 0 -146 R D
9408 8730 M 0 -146 R D 1800 1440 M 0 7290 R D 1800 2823 M 320 0 R D
gsave 1666 2653 translate 0 0 M 1.21 dup scale -588.433 0 N
(0.2) show grestore 1800 4213 M 320 0 R D gsave 1666 4042 translate 0 0 M
1.21 dup scale -588.433 0 N
(0.4) show grestore 1800 5603 M 320 0 R D gsave 1666 5432 translate 0 0 M
1.21 dup scale -588.433 0 N
(0.6) show grestore 1800 6993 M 320 0 R D gsave 1666 6822 translate 0 0 M
1.21 dup scale -588.433 0 N
(0.8) show grestore 1800 8383 M 320 0 R D gsave 1666 8212 translate 0 0 M
1.21 dup scale -588.433 0 N
(1.0) show grestore 1800 1781 M 160 0 R D 1800 2128 M 160 0 R D 1800 2475 M
160 0 R D 1800 3170 M 160 0 R D 1800 3518 M 160 0 R D 1800 3865 M 160 0 R D
1800 4560 M 160 0 R D 1800 4908 M 160 0 R D 1800 5255 M 160 0 R D
1800 5950 M 160 0 R D 1800 6298 M 160 0 R D 1800 6645 M 160 0 R D
1800 7340 M 160 0 R D 1800 7688 M 160 0 R D 1800 8035 M 160 0 R D
1800 8730 M 160 0 R D gsave 551 5085 translate 0 0 M 90 rotate
1.21 dup scale -611.293 0 N
(j\(t\)/j\(0\)) show grestore 9800 1440 M 0 7290 R D 9800 2823 M -320 0 R D
9800 4213 M -320 0 R D 9800 5603 M -320 0 R D 9800 6993 M -320 0 R D
9800 8383 M -320 0 R D 9800 1781 M -160 0 R D 9800 2128 M -160 0 R D
9800 2475 M -160 0 R D 9800 3170 M -160 0 R D 9800 3518 M -160 0 R D
9800 3865 M -160 0 R D 9800 4560 M -160 0 R D 9800 4908 M -160 0 R D
9800 5255 M -160 0 R D 9800 5950 M -160 0 R D 9800 6298 M -160 0 R D
9800 6645 M -160 0 R D 9800 7340 M -160 0 R D 9800 7688 M -160 0 R D
9800 8035 M -160 0 R D 9800 8730 M -160 0 R D L2 1800 8383 M 801 -348 R
801 -1181 R 800 -904 R 801 -347 R 801 -973 R 801 -904 R 801 -1112 R
800 -833 R 801 -341 R 114 -1 R D 30 setlinewidth L0 1800 8383 M 80 -48 R
269 -185 R 190 -176 R 99 -121 R 130 -216 R 101 -225 R 96 -234 R 93 -212 R
90 -175 R 128 -208 R 140 -196 R 173 -218 R 216 -251 R 321 -355 R 320 -345 R
320 -379 R 45 -66 R 56 -91 R 68 -139 R 54 -148 R 51 -198 R 45 -230 R
40 -211 R 38 -189 R 46 -199 R 58 -219 R 64 -206 R 119 -331 R 122 -303 R
13 -32 R 44 -128 R 16 -58 R 15 -63 R 12 -67 R 10 -81 R 10 -117 R 9 -157 R
6 -118 R 4 -36 R 4 -13 R D 70 setlinewidth 1800 8383 M 80 -48 R 212 -141 R
166 -136 R 104 -105 R 108 -136 R 75 -116 R 97 -177 R 112 -212 R 102 -162 R
104 -129 R 131 -128 R 165 -133 R 193 -137 R 321 -206 R 320 -197 R 320 -193 R
321 -200 R 193 -138 R 147 -134 R 78 -94 R 75 -118 R 67 -124 R 57 -98 R
55 -76 R 63 -69 R 82 -70 R 110 -78 R 120 -74 R 146 -84 R 211 -115 R
261 -144 R 118 -71 R 73 -50 R 65 -52 R 55 -55 R 50 -64 R 46 -66 R 38 -51 R
37 -39 R 43 -35 R 55 -35 R 76 -38 R 113 -50 R 127 -51 R 259 -100 R 46 -19 R
67 -29 R 56 -28 R 47 -28 R 40 -30 R 38 -34 R 34 -30 R 32 -23 R 31 -16 R
38 -15 R 50 -16 R 72 -18 R 112 -24 R 185 -37 R 40 -8 R 84 -17 R 54 -12 R
47 -12 R 40 -12 R 35 -13 R 33 -13 R 28 -9 R 27 -7 R 29 -5 R 36 -5 R 48 -5 R
72 -7 R 112 -10 R 191 -15 R 39 -3 R 57 -5 R 48 -5 R 41 -5 R 34 -6 R 33 -5 R
29 -5 R 27 -4 R 26 -3 R 31 -3 R 41 -2 R 58 -3 R 61 -4 R D 110 setlinewidth
1800 8383 M 80 -48 R 254 -172 R 98 -80 R 63 -57 R 61 -61 R 49 -53 R 19 -23 R
18 -21 R 18 -22 R 24 -30 R 22 -29 R 45 -60 R 116 -157 R 101 -111 R 57 -48 R
101 -65 R 77 -38 R 73 -32 R 74 -28 R 94 -31 R 120 -37 R 163 -45 R 230 -59 R
321 -55 R 320 0 R 320 -22 R 321 -77 R 320 -82 R 206 -63 R 123 -47 R
113 -55 R 95 -55 R 89 -49 R 86 -37 R 84 -26 R 104 -24 R 137 -24 R 165 -25 R
221 -28 R 296 -36 R 320 -37 R 321 -37 R 320 -39 R 198 -28 R 122 -21 R
99 -20 R 94 -24 R 84 -21 R 80 -14 R 74 -8 R 89 -7 R 117 -7 R 164 -8 R
255 -11 R 320 -13 R 65 -3 R D 30 setlinewidth 2579 3552 M 68 0 R 68 0 R
68 0 R 69 0 R 68 0 R 68 0 R 68 0 R 69 0 R 68 0 R D 70 setlinewidth
2579 3018 M 68 0 R 68 0 R 68 0 R 69 0 R 68 0 R 68 0 R 68 0 R 69 0 R 68 0 R D
110 setlinewidth 2579 2484 M 68 0 R 68 0 R 68 0 R 69 0 R 68 0 R 68 0 R
68 0 R 69 0 R 68 0 R D gsave 3261 3395 translate 0 0 M 1.1 dup scale
(1) show grestore gsave 3261 2861 translate 0 0 M 1.1 dup scale
(3.5) show grestore gsave 3261 2327 translate 0 0 M 1.1 dup scale
(10) show grestore gsave 2783 3952 translate 0 0 M 1.1 dup scale
(A=) show grestore
%%PageTrailer
end
%%PageResources: font Helvetica
%%Trailer
%%Pages: 1
%%DocumentNeededResources: font Helvetica
%%EOF
