%!PS-Adobe-3.0 EPSF-3.0
%%BoundingBox: 0 0 453 368
%%Title: Graphics produced by IDL
%%For: dacia@Lserver, /home/dacia/work/subhalo_model
%%Creator: IDL Version 7.0 (linux x86_64 m64)
%%CreationDate: Tue May 11 14:25:31 2010
%%DocumentData: Clean7bit
%%Requirements: color
%%LanguageLevel: 1
%%PageOrder: Ascend
%%Pages: (atend)
%%DocumentNeededResources: (atend)
%%EndComments
%%BeginProlog
%+ prolog.ps -- Prolog for IDL generated PostScript files
%+ Copyright (c) 1988-2007 ITT Visual Information Solutions. All Rights Reserved.
%v 5
/$IDL_DICT 40 dict def $IDL_DICT begin /bdef { bind def } bind def /C
{currentpoint newpath moveto} bdef /CP {currentpoint} bdef /D {currentpoint
stroke moveto} bdef /F {closepath fill} bdef /K { setgray } bdef /M {moveto}
bdef /N {rmoveto} bdef /P {lineto} bdef /R {rlineto} bdef /S {gsave show
grestore} bdef /X {currentpoint pop} bdef /Z {gsave currentpoint lineto 20
setlinewidth 1 setlinecap stroke grestore} bdef /L0 {[] 0 setdash} bdef /L1
{[40 100] 0 setdash} bdef /L2 {[200 200] 0 setdash} bdef /L3 {[200 100 50
100] 0 setdash} bdef /L4 {[300 100 50 100 50 100 50 100] 0 setdash} bdef /L5
{[400 200] 0 setdash} bdef /STDFONT { findfont exch scalefont setfont } bdef
/ISOFONT { findfont dup length dict begin { 1 index /FID ne {def} {pop pop}
ifelse } forall /Encoding ISOLatin1Encoding def currentdict end /idltmpfont
exch definefont exch scalefont setfont } bdef /ISOBULLET { gsave /Helvetica
findfont exch scalefont setfont (\267) show currentpoint grestore moveto}
bdef /MITERLIMIT { 2.5 setmiterlimit } bdef end
%%EndProlog
%%Page: 0 1
%%PageRequirements: color
%%PageResources: (atend)
%%PageOrientation: Portrait
%%PageBoundingBox: 0 0 453 368
%%BeginPageSetup
$IDL_DICT begin 0.0283465 dup scale MITERLIMIT
%%IncludeResource: font Helvetica
423.333 /Helvetica STDFONT
%%EndPageSetup
0.000 0.000 0.000 setrgbcolor gsave 8950 176 translate 0 0 M 1.1 dup scale
-576.368 0 N
(t / Gyr) show grestore gsave 640 9907 translate 0 0 M 90 rotate
1.1 dup scale -869.95 0 N
(m\(t\)/m\(0\)) show grestore 40 setlinewidth L0 2220 7074 M 6730 0 R D
2220 7074 M 0 227 R D gsave 2220 6435 translate 0 0 M 1.21 dup scale
-58.8433 0 N
( ) show grestore 3637 7074 M 0 227 R D gsave 3637 6435 translate 0 0 M
1.21 dup scale -58.8433 0 N
( ) show grestore 5054 7074 M 0 227 R D gsave 5054 6435 translate 0 0 M
1.21 dup scale -58.8433 0 N
( ) show grestore 6471 7074 M 0 227 R D gsave 6471 6435 translate 0 0 M
1.21 dup scale -58.8433 0 N
( ) show grestore 7887 7074 M 0 227 R D gsave 7887 6435 translate 0 0 M
1.21 dup scale -58.8433 0 N
( ) show grestore 2574 7074 M 0 113 R D 2928 7074 M 0 113 R D 3283 7074 M
0 113 R D 3991 7074 M 0 113 R D 4345 7074 M 0 113 R D 4700 7074 M 0 113 R D
5408 7074 M 0 113 R D 5762 7074 M 0 113 R D 6116 7074 M 0 113 R D
6825 7074 M 0 113 R D 7179 7074 M 0 113 R D 7533 7074 M 0 113 R D
8242 7074 M 0 113 R D 8596 7074 M 0 113 R D 8950 7074 M 0 113 R D
2220 12740 M 6730 0 R D 2220 12740 M 0 -227 R D 3637 12740 M 0 -227 R D
5054 12740 M 0 -227 R D 6471 12740 M 0 -227 R D 7887 12740 M 0 -227 R D
2574 12740 M 0 -113 R D 2928 12740 M 0 -113 R D 3283 12740 M 0 -113 R D
3991 12740 M 0 -113 R D 4345 12740 M 0 -113 R D 4700 12740 M 0 -113 R D
5408 12740 M 0 -113 R D 5762 12740 M 0 -113 R D 6116 12740 M 0 -113 R D
6825 12740 M 0 -113 R D 7179 12740 M 0 -113 R D 7533 12740 M 0 -113 R D
8242 12740 M 0 -113 R D 8596 12740 M 0 -113 R D 8950 12740 M 0 -113 R D
2220 7074 M 0 5666 R D 2220 9790 M 269 0 R D gsave 2086 9619 translate 0 0 M
1.21 dup scale -588.433 0 N
(0.1) show grestore 2220 12623 M 269 0 R D gsave 2086 12442 translate 0 0 M
1.21 dup scale -588.433 0 N
(1.0) show grestore 2220 7810 M 135 0 R D 2220 8308 M 135 0 R D 2220 8662 M
135 0 R D 2220 8937 M 135 0 R D 2220 9161 M 135 0 R D 2220 9351 M 135 0 R D
2220 9515 M 135 0 R D 2220 9660 M 135 0 R D 2220 10643 M 135 0 R D
2220 11142 M 135 0 R D 2220 11495 M 135 0 R D 2220 11770 M 135 0 R D
2220 11994 M 135 0 R D 2220 12184 M 135 0 R D 2220 12348 M 135 0 R D
2220 12493 M 135 0 R D 8950 7074 M 0 5666 R D 8950 9790 M -269 0 R D
8950 12623 M -269 0 R D 8950 7810 M -135 0 R D 8950 8308 M -135 0 R D
8950 8662 M -135 0 R D 8950 8937 M -135 0 R D 8950 9161 M -135 0 R D
8950 9351 M -135 0 R D 8950 9515 M -135 0 R D 8950 9660 M -135 0 R D
8950 10643 M -135 0 R D 8950 11142 M -135 0 R D 8950 11495 M -135 0 R D
8950 11770 M -135 0 R D 8950 11994 M -135 0 R D 8950 12184 M -135 0 R D
8950 12348 M -135 0 R D 8950 12493 M -135 0 R D 30 setlinewidth 2220 12623 M
71 -1 R 142 -2 R 141 -2 R 142 -24 R 72 -28 R 67 -53 R 62 -86 R 53 -84 R
52 -58 R 57 -31 R 54 -17 R 83 -16 R 134 -9 R 142 -3 R 141 -2 R 142 -1 R
142 -2 R 142 -1 R 141 -1 R 142 -1 R 142 -2 R 141 -1 R 142 -2 R 142 -2 R
141 -5 R 142 -17 R 46 -16 R 47 -32 R 43 -58 R 39 -92 R 37 -98 R 34 -61 R
38 -36 R 48 -25 R 68 -13 R 78 -10 R 122 -7 R 141 -4 R 142 -5 R 142 -3 R
142 -4 R 141 -16 R 35 -8 R 37 -13 R 42 -40 R 26 -55 R 24 -93 R 24 -109 R
21 -71 R 22 -42 R 28 -27 R 40 -15 R 44 -7 R 60 -8 R 94 -8 R 142 -10 R
98 -12 R 14 -3 R 44 -16 R 19 -14 R 18 -25 R 15 -42 R 15 -76 R 13 -107 R
12 -98 R 12 -59 R 13 -40 R 18 -25 R 25 -17 R 39 -12 R 65 -11 R 77 -12 R
15 -3 R 22 -6 R 16 -7 R 13 -8 R 12 -14 R 10 -20 R 8 -33 R 8 -55 R 7 -93 R
6 -119 R 7 -85 R 6 -49 R 8 -33 R 11 -21 R 16 -14 R 27 -11 R 48 -15 R 16 -7 R
5 -2 R 10 -10 R 5 -8 R 3 -9 R 4 -14 R 3 -20 R 2 -28 R 2 -43 R 2 -71 R
2 -102 R 1 -48 R 1 -26 R D 70 setlinewidth 2220 12623 M 71 -3 R 142 -6 R
141 -10 R 141 -81 R 72 -97 R 71 -182 R 62 -295 R 53 -267 R 51 -166 R
48 -83 R 72 -58 R 98 -31 R 106 -15 R 141 -10 R 142 -7 R 142 -6 R 142 -4 R
141 -4 R 142 -4 R 142 -4 R 141 -4 R 142 -4 R 142 -4 R 141 -4 R 142 -5 R
142 -6 R 141 -7 R 142 -14 R 142 -39 R 66 -43 R 58 -92 R 56 -191 R 48 -245 R
47 -178 R 45 -86 R 56 -47 R 75 -27 R 108 -19 R 141 -13 R 142 -7 R 142 -6 R
141 -5 R 142 -5 R 142 -4 R 141 -5 R 142 -5 R 142 -6 R 141 -7 R 142 -15 R
120 -26 R 52 -31 R 51 -70 R 47 -161 R 42 -215 R 40 -154 R 39 -75 R 49 -41 R
65 -25 R 95 -15 R 124 -11 R 142 -9 R 141 -5 R 142 -6 R 69 -3 R D
110 setlinewidth 2220 12623 M 71 -7 R 142 -19 R 108 -36 R 77 -77 R 38 -45 R
26 -32 R 28 -46 R 28 -77 R 75 -329 R 22 -153 R 70 -702 R 55 -626 R 53 -345 R
43 -131 R 68 -98 R 90 -58 R 130 -35 R 142 -24 R 142 -15 R 141 -12 R
142 -10 R 134 0 R 141 -6 R 142 -6 R 142 -7 R 141 -5 R 142 -6 R 142 -7 R
141 -6 R 142 -6 R 142 -6 R 142 -7 R 141 -8 R 142 -8 R 142 -11 R 141 -13 R
142 -17 R 142 -25 R 141 -57 R 78 -75 R 65 -149 R 61 -341 R 54 -445 R
50 -329 R 53 -189 R 66 -122 R 90 -88 R 132 -71 R 142 -45 R 141 -33 R
142 -26 R 142 -23 R 141 -20 R 142 -17 R 142 -17 R 141 -17 R 142 -17 R
142 -16 R 142 -16 R 141 -15 R 142 -15 R 6 -1 R D 30 setlinewidth 2893 8491 M
67 0 R 68 0 R 67 0 R 67 0 R 68 0 R 67 0 R 67 0 R 67 0 R 68 0 R D
70 setlinewidth 2893 8037 M 67 0 R 68 0 R 67 0 R 67 0 R 68 0 R 67 0 R 67 0 R
67 0 R 68 0 R D 110 setlinewidth 2893 7584 M 67 0 R 68 0 R 67 0 R 67 0 R
68 0 R 67 0 R 67 0 R 67 0 R 68 0 R D gsave 3566 8399 translate 0 0 M
1.1 dup scale
(1) show grestore gsave 3566 7945 translate 0 0 M 1.1 dup scale
(3.5) show grestore gsave 3566 7492 translate 0 0 M 1.1 dup scale
(10) show grestore gsave 3566 8831 translate 0 0 M 1.1 dup scale -529.59 0 N
(A=) show grestore 40 setlinewidth 8950 7074 M 6730 0 R D 8950 7074 M
0 227 R D gsave 8950 6435 translate 0 0 M 1.21 dup scale -58.8433 0 N
( ) show grestore 10367 7074 M 0 227 R D gsave 10367 6435 translate 0 0 M
1.21 dup scale -58.8433 0 N
( ) show grestore 11784 7074 M 0 227 R D gsave 11784 6435 translate 0 0 M
1.21 dup scale -58.8433 0 N
( ) show grestore 13201 7074 M 0 227 R D gsave 13201 6435 translate 0 0 M
1.21 dup scale -58.8433 0 N
( ) show grestore 14618 7074 M 0 227 R D gsave 14618 6435 translate 0 0 M
1.21 dup scale -58.8433 0 N
( ) show grestore 9304 7074 M 0 113 R D 9659 7074 M 0 113 R D 10013 7074 M
0 113 R D 10721 7074 M 0 113 R D 11075 7074 M 0 113 R D 11430 7074 M 0 113 R
D 12138 7074 M 0 113 R D 12492 7074 M 0 113 R D 12846 7074 M 0 113 R D
13555 7074 M 0 113 R D 13909 7074 M 0 113 R D 14263 7074 M 0 113 R D
14972 7074 M 0 113 R D 15326 7074 M 0 113 R D 15680 7074 M 0 113 R D
8950 12740 M 6730 0 R D 8950 12740 M 0 -227 R D 10367 12740 M 0 -227 R D
11784 12740 M 0 -227 R D 13201 12740 M 0 -227 R D 14618 12740 M 0 -227 R D
9304 12740 M 0 -113 R D 9659 12740 M 0 -113 R D 10013 12740 M 0 -113 R D
10721 12740 M 0 -113 R D 11075 12740 M 0 -113 R D 11430 12740 M 0 -113 R D
12138 12740 M 0 -113 R D 12492 12740 M 0 -113 R D 12846 12740 M 0 -113 R D
13555 12740 M 0 -113 R D 13909 12740 M 0 -113 R D 14263 12740 M 0 -113 R D
14972 12740 M 0 -113 R D 15326 12740 M 0 -113 R D 15680 12740 M 0 -113 R D
8950 7074 M 0 5666 R D 8950 9790 M 269 0 R D gsave 8816 9619 translate 0 0 M
1.21 dup scale -117.687 0 N
( ) show grestore 8950 12623 M 269 0 R D gsave 8816 12442 translate 0 0 M
1.21 dup scale -117.687 0 N
( ) show grestore 8950 7810 M 135 0 R D 8950 8308 M 135 0 R D 8950 8662 M
135 0 R D 8950 8937 M 135 0 R D 8950 9161 M 135 0 R D 8950 9351 M 135 0 R D
8950 9515 M 135 0 R D 8950 9660 M 135 0 R D 8950 10643 M 135 0 R D
8950 11142 M 135 0 R D 8950 11495 M 135 0 R D 8950 11770 M 135 0 R D
8950 11994 M 135 0 R D 8950 12184 M 135 0 R D 8950 12348 M 135 0 R D
8950 12493 M 135 0 R D 15680 7074 M 0 5666 R D 15680 9790 M -269 0 R D
15680 12623 M -269 0 R D 15680 7810 M -134 0 R D 15680 8308 M -134 0 R D
15680 8662 M -134 0 R D 15680 8937 M -134 0 R D 15680 9161 M -134 0 R D
15680 9351 M -134 0 R D 15680 9515 M -134 0 R D 15680 9660 M -134 0 R D
15680 10643 M -134 0 R D 15680 11142 M -134 0 R D 15680 11495 M -134 0 R D
15680 11770 M -134 0 R D 15680 11994 M -134 0 R D 15680 12184 M -134 0 R D
15680 12348 M -134 0 R D 15680 12493 M -134 0 R D 30 setlinewidth
8950 12623 M 71 -3 R 142 -6 R 141 -10 R 141 -81 R 73 -97 R 71 -187 R
38 -167 R 56 -299 R 53 -211 R 45 -100 R 66 -70 R 87 -36 R 91 -13 R 106 -11 R
139 -8 R 141 -6 R 142 -5 R 142 -4 R 141 -4 R 142 -4 R 142 -3 R 142 -3 R
141 -4 R 142 -3 R 142 -4 R 141 -4 R 142 -5 R 142 -5 R 141 -7 R 142 -10 R
142 -21 R 104 -37 R 61 -52 R 64 -167 R 53 -239 R 51 -200 R 47 -95 R 56 -45 R
54 -24 R 100 -20 R 126 -13 R 142 -9 R 142 -6 R 141 -5 R 142 -4 R 142 -4 R
142 -3 R 141 -4 R 142 -4 R 142 -4 R 141 -5 R 142 -6 R 142 -8 R 141 -15 R
110 -30 R 57 -38 R 55 -90 R 52 -179 R 26 -114 R 38 -129 R 42 -76 R 52 -42 R
68 -25 R 85 -15 R D 70 setlinewidth 8950 12623 M 71 -3 R 142 -6 R 141 -9 R
141 -81 R 59 -52 R 58 -129 R 47 -177 R 62 -328 R 56 -254 R 52 -129 R
63 -63 R 56 -32 R 70 -20 R 111 -18 R 128 -12 R 141 -7 R 142 -6 R 142 -5 R
141 -4 R 142 -5 R 142 -4 R 141 -4 R 142 -4 R 142 -5 R 141 -6 R 142 -8 R
142 -13 R 141 -28 R 81 -40 R 56 -66 R 53 -144 R 48 -245 R 42 -223 R
40 -130 R 45 -68 R 59 -38 R 81 -22 R 98 -12 R 142 -12 R 141 -7 R 142 -6 R
142 -5 R 141 -5 R 142 -4 R 142 -5 R 142 -6 R 141 -8 R 142 -13 R 121 -28 R
51 -29 R 49 -63 R 46 -148 R 40 -220 R 39 -176 R 37 -85 R 45 -45 R 60 -27 R
85 -17 R 131 -14 R 142 -8 R 142 -6 R 141 -5 R 142 -5 R 142 -5 R 141 -5 R
58 -4 R D 110 setlinewidth 8950 12623 M 71 -3 R 142 -6 R 141 -9 R 142 -81 R
72 -94 R 52 -127 R 61 -261 R 53 -300 R 52 -220 R 51 -117 R 64 -50 R 61 -19 R
62 -16 R 73 -10 R 92 -9 R 142 -9 R 141 -7 R 142 -6 R 142 -5 R 142 -5 R
141 -5 R 142 -5 R 142 -5 R 141 -8 R 142 -12 R 142 -27 R 82 -37 R 51 -55 R
46 -113 R 44 -226 R 38 -273 R 37 -193 R 37 -95 R 45 -51 R 61 -29 R 89 -20 R
132 -13 R 142 -10 R 142 -6 R 141 -7 R 142 -7 R 142 -6 R 142 -8 R 141 -16 R
103 -25 R 48 -27 R 42 -56 R 39 -132 R 35 -227 R 30 -219 R 30 -126 R 34 -67 R
43 -38 R 61 -23 R 92 -14 R 126 -11 R 141 -10 R 142 -7 R 142 -6 R 142 -8 R
141 -9 R 142 -22 R 52 -17 R 44 -30 R 38 -61 R 36 -150 R 32 -257 R 30 -241 R
28 -128 R 34 -75 R 44 -46 R 63 -31 R 97 -25 R 141 -20 R 142 -14 R 14 -2 R D
30 setlinewidth 9623 8491 M 67 0 R 68 0 R 67 0 R 67 0 R 68 0 R 67 0 R 67 0 R
67 0 R 68 0 R D 70 setlinewidth 9623 8037 M 67 0 R 68 0 R 67 0 R 67 0 R
68 0 R 67 0 R 67 0 R 67 0 R 68 0 R D 110 setlinewidth 9623 7584 M 67 0 R
68 0 R 67 0 R 67 0 R 68 0 R 67 0 R 67 0 R 67 0 R 68 0 R D
gsave 10296 8399 translate 0 0 M 1.1 dup scale
(3) show grestore gsave 10296 7945 translate 0 0 M 1.1 dup scale
(4) show grestore gsave 10296 7492 translate 0 0 M 1.1 dup scale
(5) show grestore gsave 10296 8831 translate 0 0 M 1.1 dup scale -852.17 0 N
(ln) show
%%IncludeResource: font Symbol
423.333 /Symbol STDFONT
(L) show
%%IncludeResource: font Helvetica
423.333 /Helvetica STDFONT
(=) show grestore gsave 640 4241 translate 0 0 M 90 rotate 1.1 dup scale
-620.416 0 N
(r\(t\)/R) show X -101.051 M
%%IncludeResource: font Helvetica
262.467 /Helvetica STDFONT
(vir) show grestore
%%IncludeResource: font Helvetica
423.333 /Helvetica STDFONT 40 setlinewidth 2220 1408 M 6730 0 R D
2220 1408 M 0 227 R D gsave 2220 769 translate 0 0 M 1.21 dup scale
-117.687 0 N
(0) show grestore 3637 1408 M 0 227 R D gsave 3637 769 translate 0 0 M
1.21 dup scale -117.687 0 N
(2) show grestore 5054 1408 M 0 227 R D gsave 5054 769 translate 0 0 M
1.21 dup scale -117.687 0 N
(4) show grestore 6471 1408 M 0 227 R D gsave 6471 769 translate 0 0 M
1.21 dup scale -117.687 0 N
(6) show grestore 7887 1408 M 0 227 R D gsave 7887 769 translate 0 0 M
1.21 dup scale -117.687 0 N
(8) show grestore 2574 1408 M 0 113 R D 2928 1408 M 0 113 R D 3283 1408 M
0 113 R D 3991 1408 M 0 113 R D 4345 1408 M 0 113 R D 4700 1408 M 0 113 R D
5408 1408 M 0 113 R D 5762 1408 M 0 113 R D 6116 1408 M 0 113 R D
6825 1408 M 0 113 R D 7179 1408 M 0 113 R D 7533 1408 M 0 113 R D
8242 1408 M 0 113 R D 8596 1408 M 0 113 R D 8950 1408 M 0 113 R D
2220 7074 M 6730 0 R D 2220 7074 M 0 -227 R D 3637 7074 M 0 -227 R D
5054 7074 M 0 -227 R D 6471 7074 M 0 -227 R D 7887 7074 M 0 -227 R D
2574 7074 M 0 -113 R D 2928 7074 M 0 -113 R D 3283 7074 M 0 -113 R D
3991 7074 M 0 -113 R D 4345 7074 M 0 -113 R D 4700 7074 M 0 -113 R D
5408 7074 M 0 -113 R D 5762 7074 M 0 -113 R D 6116 7074 M 0 -113 R D
6825 7074 M 0 -113 R D 7179 7074 M 0 -113 R D 7533 7074 M 0 -113 R D
8242 7074 M 0 -113 R D 8596 7074 M 0 -113 R D 8950 7074 M 0 -113 R D
2220 1408 M 0 5666 R D 2220 2152 M 269 0 R D gsave 2086 1982 translate 0 0 M
1.21 dup scale -588.433 0 N
(0.2) show grestore 2220 2940 M 269 0 R D gsave 2086 2769 translate 0 0 M
1.21 dup scale -588.433 0 N
(0.4) show grestore 2220 3727 M 269 0 R D gsave 2086 3557 translate 0 0 M
1.21 dup scale -588.433 0 N
(0.6) show grestore 2220 4515 M 269 0 R D gsave 2086 4344 translate 0 0 M
1.21 dup scale -588.433 0 N
(0.8) show grestore 2220 5302 M 269 0 R D gsave 2086 5132 translate 0 0 M
1.21 dup scale -588.433 0 N
(1.0) show grestore 2220 6090 M 269 0 R D gsave 2086 5919 translate 0 0 M
1.21 dup scale -588.433 0 N
(1.2) show grestore 2220 6877 M 269 0 R D gsave 2086 6707 translate 0 0 M
1.21 dup scale -588.433 0 N
(1.4) show grestore 2220 1562 M 135 0 R D 2220 1758 M 135 0 R D 2220 1955 M
135 0 R D 2220 2349 M 135 0 R D 2220 2546 M 135 0 R D 2220 2743 M 135 0 R D
2220 3137 M 135 0 R D 2220 3333 M 135 0 R D 2220 3530 M 135 0 R D
2220 3924 M 135 0 R D 2220 4121 M 135 0 R D 2220 4318 M 135 0 R D
2220 4712 M 135 0 R D 2220 4908 M 135 0 R D 2220 5105 M 135 0 R D
2220 5499 M 135 0 R D 2220 5696 M 135 0 R D 2220 5893 M 135 0 R D
2220 6287 M 135 0 R D 2220 6483 M 135 0 R D 2220 6680 M 135 0 R D
2220 7074 M 135 0 R D 8950 1408 M 0 5666 R D 8950 2152 M -269 0 R D
8950 2940 M -269 0 R D 8950 3727 M -269 0 R D 8950 4515 M -269 0 R D
8950 5302 M -269 0 R D 8950 6090 M -269 0 R D 8950 6877 M -269 0 R D
8950 1562 M -135 0 R D 8950 1758 M -135 0 R D 8950 1955 M -135 0 R D
8950 2349 M -135 0 R D 8950 2546 M -135 0 R D 8950 2743 M -135 0 R D
8950 3137 M -135 0 R D 8950 3333 M -135 0 R D 8950 3530 M -135 0 R D
8950 3924 M -135 0 R D 8950 4121 M -135 0 R D 8950 4318 M -135 0 R D
8950 4712 M -135 0 R D 8950 4908 M -135 0 R D 8950 5105 M -135 0 R D
8950 5499 M -135 0 R D 8950 5696 M -135 0 R D 8950 5893 M -135 0 R D
8950 6287 M -135 0 R D 8950 6483 M -135 0 R D 8950 6680 M -135 0 R D
8950 7074 M -135 0 R D 30 setlinewidth 2220 5302 M 18 -67 R 19 -68 R
18 -69 R 19 -71 R 18 -72 R 19 -73 R 18 -75 R 19 -75 R 18 -76 R 19 -78 R
18 -79 R 19 -80 R 18 -83 R 19 -83 R 18 -85 R 19 -86 R 18 -87 R 19 -89 R
18 -90 R 19 -91 R 18 -94 R 19 -95 R 18 -95 R 19 -97 R 18 -97 R 19 -97 R
18 -99 R 19 -99 R 18 -98 R 19 -98 R 18 -96 R 18 -92 R 19 -88 R 18 -80 R
19 -70 R 18 -56 R 19 -41 R 18 -21 R 19 0 R 18 20 R 19 38 R 18 53 R 19 65 R
18 73 R 19 78 R 18 82 R 19 84 R 18 85 R 19 85 R 18 85 R 19 84 R 18 82 R
19 82 R 18 79 R 19 77 R 18 76 R 19 74 R 18 73 R 19 71 R 18 69 R 19 68 R
18 65 R 18 63 R 19 61 R 18 59 R 19 59 R 18 56 R 19 56 R 18 53 R 19 50 R
18 49 R 19 48 R 18 46 R 19 45 R 18 43 R 19 42 R 18 40 R 19 38 R 18 37 R
19 35 R 18 34 R 19 32 R 18 32 R 19 29 R 18 28 R 19 26 R 18 25 R 19 23 R
18 23 R 19 21 R 18 20 R 19 18 R 18 17 R 19 15 R 18 13 R 18 13 R 19 11 R
18 11 R 19 9 R 18 7 R 19 5 R 18 4 R 19 3 R 18 2 R 19 1 R 18 -1 R 19 -2 R
18 -3 R 19 -6 R 18 -7 R 19 -7 R 18 -9 R 19 -10 R 18 -12 R 19 -13 R 18 -15 R
19 -16 R 18 -18 R 19 -18 R 18 -20 R 19 -21 R 18 -23 R 19 -25 R 18 -26 R
19 -28 R 18 -29 R 18 -30 R 19 -32 R 18 -33 R 19 -35 R 18 -37 R 19 -38 R
18 -41 R 19 -41 R 18 -43 R 19 -44 R 18 -46 R 19 -48 R 18 -51 R 19 -52 R
18 -54 R 19 -56 R 18 -57 R 19 -59 R 18 -60 R 19 -64 R 18 -66 R 19 -68 R
18 -70 R 19 -72 R 18 -73 R 19 -76 R 18 -78 R 19 -82 R 18 -85 R 19 -87 R
18 -89 R 18 -91 R 19 -93 R 18 -94 R 19 -98 R 18 -100 R 19 -102 R 18 -103 R
19 -102 R 18 -100 R 19 -94 R 18 -84 R 19 -66 R 18 -40 R 19 -8 R 18 25 R
19 51 R 18 69 R 19 80 R 18 84 R 19 86 R 18 85 R 19 83 R 18 81 R 19 78 R
18 75 R 19 72 R 18 68 R 19 65 R 18 61 R 19 58 R 18 54 R 18 51 R 19 48 R
18 45 R 19 43 R 18 39 R 19 36 R 18 31 R 19 29 R 18 27 R 19 24 R 18 22 R
19 19 R 18 15 R 19 12 R 18 9 R 19 6 R 18 3 R 19 2 R 18 -1 R 19 -4 R 18 -7 R
19 -11 R 18 -15 R 19 -16 R 18 -19 R 19 -22 R 18 -24 R 19 -27 R 18 -31 R
19 -36 R 18 -38 R 18 -41 R 19 -43 R 18 -47 R 19 -50 R 18 -54 R 19 -59 R
18 -64 R 19 -66 R 18 -70 R 19 -74 R 18 -76 R 19 -81 R 18 -86 R 19 -92 R
18 -96 R 19 -100 R 18 -104 R 19 -105 R 18 -104 R 19 -95 R 18 -71 R 19 -25 R
18 28 R 19 66 R 18 81 R 19 86 R 18 83 R 19 79 R 18 73 R 19 67 R 18 60 R
19 55 R 18 48 R 18 43 R 19 36 R 18 30 R 19 25 R 18 19 R 19 14 R 18 6 R
19 0 R 18 -6 R 19 -10 R 18 -15 R 19 -19 R 18 -25 R 19 -31 R 18 -38 R
19 -47 R 18 -52 R 19 -59 R 18 -65 R 19 -73 R 18 -82 R 19 -89 R 18 -97 R
19 -104 R 18 -107 R 19 -95 R 18 -37 R 19 48 R 18 80 R 19 80 R 18 70 R
18 60 R 19 49 R 18 37 R 19 27 R 18 16 R 19 5 R 18 -7 R 19 -17 R 18 -28 R
19 -39 R 18 -51 R 19 -65 R 18 -78 R 19 -91 R 18 -104 R 19 -88 R 18 31 R
19 67 R 18 50 R 19 30 R 18 9 R 19 -11 R 18 -32 R 19 -54 R 18 -79 R D
70 setlinewidth 2220 5302 M 13 -48 R 14 -49 R 13 -50 R 14 -50 R 13 -51 R
13 -52 R 14 -52 R 13 -53 R 14 -54 R 13 -54 R 13 -55 R 14 -55 R 13 -56 R
14 -57 R 13 -57 R 13 -58 R 14 -59 R 13 -60 R 14 -60 R 13 -61 R 13 -62 R
14 -62 R 13 -64 R 14 -63 R 13 -65 R 14 -65 R 13 -67 R 13 -67 R 14 -67 R
13 -69 R 14 -69 R 13 -69 R 13 -70 R 14 -71 R 13 -71 R 14 -71 R 13 -71 R
13 -72 R 14 -72 R 13 -71 R 14 -71 R 13 -70 R 13 -69 R 14 -67 R 13 -65 R
14 -61 R 13 -56 R 13 -51 R 14 -44 R 13 -36 R 14 -28 R 13 -17 R 13 -6 R
14 6 R 13 16 R 14 25 R 13 35 R 13 42 R 14 48 R 13 53 R 14 56 R 13 60 R
13 61 R 14 63 R 13 63 R 14 64 R 13 65 R 14 64 R 13 64 R 13 64 R 14 63 R
13 62 R 14 62 R 13 61 R 13 61 R 14 59 R 13 59 R 14 58 R 13 57 R 13 56 R
14 55 R 13 54 R 14 53 R 13 53 R 13 51 R 14 51 R 13 49 R 14 49 R 13 48 R
13 47 R 14 46 R 13 46 R 14 45 R 13 44 R 13 42 R 14 42 R 13 42 R 14 40 R
13 40 R 13 38 R 14 38 R 13 38 R 14 37 R 13 35 R 13 36 R 14 34 R 13 33 R
14 33 R 13 32 R 13 31 R 14 31 R 13 30 R 14 29 R 13 29 R 14 28 R 13 27 R
13 26 R 14 26 R 13 25 R 14 24 R 13 24 R 13 23 R 14 23 R 13 21 R 14 22 R
13 20 R 13 20 R 14 19 R 13 19 R 14 18 R 13 17 R 13 17 R 14 16 R 13 15 R
14 15 R 13 15 R 13 14 R 14 13 R 13 12 R 14 12 R 13 11 R 13 11 R 14 11 R
13 9 R 14 9 R 13 9 R 13 8 R 14 8 R 13 6 R 14 7 R 13 5 R 13 5 R 14 5 R 13 4 R
14 4 R 13 3 R 14 2 R 13 2 R 13 2 R 14 0 R 13 1 R 14 -1 R 13 -1 R 13 -1 R
14 -2 R 13 -3 R 14 -2 R 13 -4 R 13 -4 R 14 -5 R 13 -5 R 14 -6 R 13 -7 R
13 -7 R 14 -7 R 13 -8 R 14 -9 R 13 -9 R 13 -10 R 14 -10 R 13 -11 R 14 -12 R
13 -12 R 13 -12 R 14 -14 R 13 -13 R 14 -15 R 13 -15 R 13 -15 R 14 -16 R
13 -17 R 14 -18 R 13 -18 R 13 -19 R 14 -19 R 13 -20 R 14 -20 R 13 -22 R
13 -21 R 14 -23 R 13 -23 R 14 -24 R 13 -25 R 14 -25 R 13 -26 R 13 -26 R
14 -28 R 13 -27 R 14 -29 R 13 -29 R 13 -30 R 14 -31 R 13 -32 R 14 -32 R
13 -33 R 13 -34 R 14 -34 R 13 -35 R 14 -36 R 13 -37 R 13 -37 R 14 -39 R
13 -39 R 14 -40 R 13 -41 R 13 -42 R 14 -42 R 13 -44 R 14 -44 R 13 -44 R
13 -46 R 14 -47 R 13 -48 R 14 -48 R 13 -50 R 13 -51 R 14 -51 R 13 -52 R
14 -53 R 13 -55 R 13 -55 R 14 -56 R 13 -57 R 14 -59 R 13 -59 R 14 -61 R
13 -61 R 13 -62 R 14 -63 R 13 -64 R 14 -65 R 13 -65 R 13 -67 R 14 -67 R
13 -68 R 14 -68 R 13 -68 R 13 -69 R 14 -68 R 13 -67 R 14 -65 R 13 -63 R
13 -60 R 14 -56 R 13 -50 R 14 -42 R 13 -32 R 13 -20 R 14 -9 R 13 3 R 14 16 R
13 28 R 13 37 R 14 45 R 13 51 R 14 56 R 13 59 R 13 61 R 14 63 R 13 64 R
14 64 R 13 64 R 13 63 R 14 63 R 13 62 R 14 62 R 13 61 R 13 59 R 14 59 R
13 57 R 14 57 R 13 55 R 14 54 R 13 54 R 13 51 R 14 51 R 13 50 R 14 48 R
13 47 R 13 47 R 14 45 R 13 44 R 14 44 R 13 42 R 13 41 R 14 41 R 13 38 R
14 38 R 13 37 R 13 36 R 14 35 R 13 34 R 14 33 R 13 32 R 13 32 R 14 30 R
13 29 R 14 28 R 13 28 R 13 26 R 14 26 R 13 24 R 14 24 R 13 24 R 13 22 R
14 21 R 13 21 R 14 19 R 13 18 R 13 18 R 14 17 R 13 16 R 14 15 R 13 15 R
13 14 R 14 13 R 13 12 R 14 11 R 13 10 R 14 9 R 13 9 R 13 8 R 14 7 R 13 6 R
14 6 R 13 5 R 13 4 R 14 3 R 13 2 R 14 2 R 13 0 R 13 0 R 14 -1 R 13 -2 R
14 -2 R 13 -3 R 13 -4 R 14 -5 R 13 -6 R 14 -7 R 13 -7 R 13 -8 R 14 -9 R
13 -10 R 14 -11 R 13 -11 R 13 -12 R 14 -13 R 13 -14 R 14 -15 R 13 -16 R
13 -16 R 14 -18 R 13 -18 R 14 -19 R 13 -19 R 13 -21 R 14 -21 R 13 -23 R
14 -23 R 13 -25 R 14 -25 R 13 -26 R 13 -27 R 14 -28 R 13 -29 R 14 -30 R
13 -30 R 13 -32 R 14 -32 R 13 -34 R 14 -35 R 13 -36 R 13 -37 R 14 -38 R
13 -38 R 14 -40 R 13 -41 R 13 -41 R 14 -43 R 13 -45 R 14 -45 R 13 -47 R
13 -47 R 14 -49 R 13 -50 R 14 -51 R 13 -52 R 13 -54 R 14 -54 R 13 -56 R
14 -58 R 13 -58 R 13 -60 R 14 -61 R 13 -63 R 14 -63 R 13 -64 R 13 -65 R
14 -66 R 13 -67 R 14 -68 R 13 -68 R 13 -68 R 14 -67 R 13 -66 R 14 -64 R
13 -60 R 14 -56 R 13 -48 R 13 -39 R 14 -26 R 13 -12 R 14 1 R 13 16 R 13 30 R
14 41 R 13 49 R 14 55 R 13 59 R 13 63 R 14 64 R 13 65 R 14 65 R 13 65 R
13 64 R 14 64 R 13 63 R 14 62 R 13 60 R 13 59 R 14 58 R 13 57 R 14 55 R
13 54 R 13 53 R 14 51 R 13 50 R 14 49 R 13 47 R 13 46 R 14 45 R 13 44 R
14 43 R 13 41 R 13 40 R 14 38 R 13 37 R 14 36 R 13 35 R 14 34 R 13 33 R
13 32 R 14 31 R 13 30 R 14 28 R 13 27 R 13 26 R 14 25 R 13 24 R 14 23 R
13 22 R 13 21 R 14 20 R 13 19 R 14 18 R 13 17 R 13 16 R 14 14 R 13 14 R
14 13 R 13 12 R 13 11 R 14 10 R 13 9 R 14 8 R 13 7 R 13 6 R 14 5 R 13 4 R
14 3 R 13 2 R 1 0 R D 110 setlinewidth 2220 5302 M 16 -59 R 17 -60 R
16 -61 R 16 -62 R 17 -63 R 16 -63 R 16 -65 R 17 -66 R 16 -66 R 16 -68 R
17 -68 R 16 -70 R 16 -70 R 17 -72 R 16 -73 R 16 -74 R 17 -75 R 16 -75 R
16 -77 R 17 -79 R 16 -79 R 16 -80 R 17 -81 R 16 -83 R 16 -83 R 17 -84 R
16 -86 R 16 -86 R 17 -86 R 16 -87 R 16 -88 R 16 -87 R 17 -87 R 16 -86 R
16 -85 R 17 -81 R 16 -79 R 16 -73 R 17 -66 R 16 -57 R 16 -45 R 17 -32 R
16 -14 R 16 1 R 17 17 R 16 33 R 16 46 R 17 58 R 16 65 R 16 71 R 17 76 R
16 79 R 16 80 R 17 82 R 16 83 R 16 82 R 17 82 R 16 82 R 16 81 R 17 80 R
16 79 R 16 78 R 17 77 R 16 75 R 16 75 R 17 73 R 16 72 R 16 71 R 17 70 R
16 68 R 16 67 R 17 66 R 16 65 R 16 63 R 17 63 R 16 61 R 16 60 R 17 59 R
16 58 R 16 56 R 17 56 R 16 54 R 16 54 R 17 52 R 16 52 R 16 50 R 17 49 R
16 49 R 16 47 R 17 46 R 16 46 R 16 44 R 16 44 R 17 43 R 16 42 R 16 40 R
17 40 R 16 39 R 16 38 R 17 38 R 16 36 R 16 36 R 17 35 R 16 35 R 16 33 R
17 33 R 16 31 R 16 32 R 17 30 R 16 30 R 16 29 R 17 28 R 16 28 R 16 26 R
17 26 R 16 26 R 16 25 R 17 24 R 16 24 R 16 22 R 17 23 R 16 21 R 16 21 R
17 20 R 16 20 R 16 19 R 17 18 R 16 18 R 16 17 R 17 17 R 16 16 R 16 15 R
17 15 R 16 14 R 16 14 R 17 13 R 16 12 R 16 12 R 17 11 R 16 11 R 16 10 R
17 9 R 16 9 R 16 8 R 17 8 R 16 7 R 16 7 R 17 6 R 16 6 R 16 4 R 16 5 R 17 4 R
16 3 R 16 3 R 17 2 R 16 1 R 16 1 R 17 1 R 16 0 R 16 -1 R 17 -1 R 16 -2 R
16 -2 R 17 -3 R 16 -4 R 16 -4 R 17 -4 R 16 -6 R 16 -5 R 17 -6 R 16 -7 R
16 -8 R 17 -8 R 16 -8 R 16 -9 R 17 -10 R 16 -10 R 16 -11 R 17 -12 R 16 -12 R
16 -12 R 17 -13 R 16 -14 R 16 -15 R 17 -15 R 16 -15 R 16 -16 R 17 -17 R
16 -17 R 16 -18 R 17 -19 R 16 -19 R 16 -20 R 17 -21 R 16 -21 R 16 -22 R
17 -22 R 16 -23 R 16 -24 R 17 -24 R 16 -26 R 16 -25 R 17 -27 R 16 -27 R
16 -28 R 17 -28 R 16 -29 R 16 -30 R 17 -31 R 16 -32 R 16 -32 R 16 -33 R
17 -33 R 16 -35 R 16 -35 R 17 -36 R 16 -37 R 16 -38 R 17 -39 R 16 -39 R
16 -40 R 17 -41 R 16 -42 R 16 -43 R 17 -44 R 16 -45 R 16 -46 R 17 -47 R
16 -48 R 16 -48 R 17 -50 R 16 -51 R 16 -51 R 17 -53 R 16 -54 R 16 -55 R
17 -56 R 16 -58 R 16 -58 R 17 -59 R 16 -60 R 16 -62 R 17 -63 R 16 -64 R
16 -65 R 17 -67 R 16 -68 R 16 -68 R 17 -71 R 16 -71 R 16 -73 R 17 -74 R
16 -75 R 16 -77 R 17 -78 R 16 -78 R 16 -80 R 17 -81 R 16 -82 R 16 -82 R
17 -83 R 16 -84 R 16 -83 R 17 -83 R 16 -82 R 16 -80 R 17 -76 R 16 -72 R
16 -65 R 17 -56 R 16 -45 R 16 -31 R 16 -14 R 17 2 R 16 19 R 16 34 R 17 48 R
16 59 R 16 66 R 17 72 R 16 77 R 16 79 R 17 81 R 16 82 R 16 82 R 17 83 R
16 81 R 16 81 R 17 80 R 16 80 R 16 78 R 17 76 R 16 76 R 16 74 R 17 73 R
16 72 R 16 71 R 17 69 R 16 68 R 16 67 R 17 65 R 16 64 R 16 63 R 17 62 R
16 60 R 16 60 R 17 58 R 16 57 R 16 55 R 17 55 R 16 53 R 16 52 R 17 52 R
16 50 R 16 49 R 17 48 R 16 47 R 16 46 R 17 45 R 16 43 R 16 43 R 17 42 R
16 41 R 16 40 R 17 39 R 16 38 R 16 37 R 17 37 R 16 35 R 16 34 R 16 34 R
17 33 R 16 32 R 16 31 R 17 30 R 16 29 R 16 29 R 17 27 R 16 27 R 16 27 R
17 25 R 16 25 R 16 24 R 17 23 R 16 22 R 16 22 R 17 21 R 16 20 R 16 20 R
17 19 R 16 18 R 16 17 R 17 17 R 16 16 R 16 15 R 17 15 R 16 14 R 16 14 R
17 12 R 16 12 R 16 12 R 17 10 R 16 10 R 16 9 R 17 9 R 16 8 R 16 8 R 17 6 R
16 7 R 16 5 R 17 5 R 16 4 R 16 3 R 17 3 R 16 2 R 16 2 R 17 1 R 16 0 R 16 0 R
17 -1 R 16 -2 R 16 -2 R 17 -3 R 16 -3 R 16 -4 R 17 -5 R 16 -6 R 16 -6 R
17 -7 R 16 -7 R 16 -8 R 16 -9 R 17 -9 R 16 -10 R 16 -11 R 17 -11 R 16 -12 R
16 -13 R 17 -13 R 16 -14 R 16 -15 R 17 -15 R 16 -16 R 16 -17 R 17 -18 R
16 -18 R 16 -19 R 17 -19 R 16 -21 R 16 -21 R 17 -21 R 16 -23 R 3 -5 R D
40 setlinewidth 8950 1408 M 6730 0 R D 8950 1408 M 0 227 R D
gsave 8950 769 translate 0 0 M 1.21 dup scale -117.687 0 N
(0) show grestore 10367 1408 M 0 227 R D gsave 10367 769 translate 0 0 M
1.21 dup scale -117.687 0 N
(2) show grestore 11784 1408 M 0 227 R D gsave 11784 769 translate 0 0 M
1.21 dup scale -117.687 0 N
(4) show grestore 13201 1408 M 0 227 R D gsave 13201 769 translate 0 0 M
1.21 dup scale -117.687 0 N
(6) show grestore 14618 1408 M 0 227 R D gsave 14618 769 translate 0 0 M
1.21 dup scale -117.687 0 N
(8) show grestore 9304 1408 M 0 113 R D 9659 1408 M 0 113 R D 10013 1408 M
0 113 R D 10721 1408 M 0 113 R D 11075 1408 M 0 113 R D 11430 1408 M 0 113 R
D 12138 1408 M 0 113 R D 12492 1408 M 0 113 R D 12846 1408 M 0 113 R D
13555 1408 M 0 113 R D 13909 1408 M 0 113 R D 14263 1408 M 0 113 R D
14972 1408 M 0 113 R D 15326 1408 M 0 113 R D 15680 1408 M 0 113 R D
8950 7074 M 6730 0 R D 8950 7074 M 0 -227 R D 10367 7074 M 0 -227 R D
11784 7074 M 0 -227 R D 13201 7074 M 0 -227 R D 14618 7074 M 0 -227 R D
9304 7074 M 0 -113 R D 9659 7074 M 0 -113 R D 10013 7074 M 0 -113 R D
10721 7074 M 0 -113 R D 11075 7074 M 0 -113 R D 11430 7074 M 0 -113 R D
12138 7074 M 0 -113 R D 12492 7074 M 0 -113 R D 12846 7074 M 0 -113 R D
13555 7074 M 0 -113 R D 13909 7074 M 0 -113 R D 14263 7074 M 0 -113 R D
14972 7074 M 0 -113 R D 15326 7074 M 0 -113 R D 15680 7074 M 0 -113 R D
8950 1408 M 0 5666 R D 8950 2152 M 269 0 R D gsave 8816 1982 translate 0 0 M
1.21 dup scale -117.687 0 N
( ) show grestore 8950 2940 M 269 0 R D gsave 8816 2769 translate 0 0 M
1.21 dup scale -117.687 0 N
( ) show grestore 8950 3727 M 269 0 R D gsave 8816 3557 translate 0 0 M
1.21 dup scale -117.687 0 N
( ) show grestore 8950 4515 M 269 0 R D gsave 8816 4344 translate 0 0 M
1.21 dup scale -117.687 0 N
( ) show grestore 8950 5302 M 269 0 R D gsave 8816 5132 translate 0 0 M
1.21 dup scale -117.687 0 N
( ) show grestore 8950 6090 M 269 0 R D gsave 8816 5919 translate 0 0 M
1.21 dup scale -117.687 0 N
( ) show grestore 8950 6877 M 269 0 R D gsave 8816 6707 translate 0 0 M
1.21 dup scale -117.687 0 N
( ) show grestore 8950 1562 M 135 0 R D 8950 1758 M 135 0 R D 8950 1955 M
135 0 R D 8950 2349 M 135 0 R D 8950 2546 M 135 0 R D 8950 2743 M 135 0 R D
8950 3137 M 135 0 R D 8950 3333 M 135 0 R D 8950 3530 M 135 0 R D
8950 3924 M 135 0 R D 8950 4121 M 135 0 R D 8950 4318 M 135 0 R D
8950 4712 M 135 0 R D 8950 4908 M 135 0 R D 8950 5105 M 135 0 R D
8950 5499 M 135 0 R D 8950 5696 M 135 0 R D 8950 5893 M 135 0 R D
8950 6287 M 135 0 R D 8950 6483 M 135 0 R D 8950 6680 M 135 0 R D
8950 7074 M 135 0 R D 15680 1408 M 0 5666 R D 15680 2152 M -269 0 R D
15680 2940 M -269 0 R D 15680 3727 M -269 0 R D 15680 4515 M -269 0 R D
15680 5302 M -269 0 R D 15680 6090 M -269 0 R D 15680 6877 M -269 0 R D
15680 1562 M -134 0 R D 15680 1758 M -134 0 R D 15680 1955 M -134 0 R D
15680 2349 M -134 0 R D 15680 2546 M -134 0 R D 15680 2743 M -134 0 R D
15680 3137 M -134 0 R D 15680 3333 M -134 0 R D 15680 3530 M -134 0 R D
15680 3924 M -134 0 R D 15680 4121 M -134 0 R D 15680 4318 M -134 0 R D
15680 4712 M -134 0 R D 15680 4908 M -134 0 R D 15680 5105 M -134 0 R D
15680 5499 M -134 0 R D 15680 5696 M -134 0 R D 15680 5893 M -134 0 R D
15680 6287 M -134 0 R D 15680 6483 M -134 0 R D 15680 6680 M -134 0 R D
15680 7074 M -134 0 R D 30 setlinewidth 8950 5302 M 15 -55 R 16 -56 R
15 -57 R 15 -58 R 15 -58 R 16 -60 R 15 -60 R 15 -61 R 16 -62 R 15 -62 R
15 -64 R 15 -64 R 16 -65 R 15 -66 R 15 -67 R 15 -68 R 16 -69 R 15 -70 R
15 -71 R 16 -72 R 15 -73 R 15 -73 R 15 -75 R 16 -76 R 15 -76 R 15 -78 R
15 -78 R 16 -79 R 15 -80 R 15 -80 R 16 -81 R 15 -81 R 15 -82 R 15 -82 R
16 -81 R 15 -81 R 15 -80 R 15 -78 R 16 -75 R 15 -71 R 15 -67 R 15 -59 R
16 -52 R 15 -41 R 15 -27 R 16 -14 R 15 -1 R 15 14 R 15 27 R 16 40 R 15 49 R
15 56 R 15 63 R 16 67 R 15 70 R 15 72 R 16 74 R 15 74 R 15 75 R 15 74 R
16 75 R 15 73 R 15 73 R 15 73 R 16 71 R 15 70 R 15 69 R 16 68 R 15 67 R
15 66 R 15 65 R 16 64 R 15 62 R 15 61 R 15 61 R 16 59 R 15 58 R 15 57 R
16 55 R 15 55 R 15 54 R 15 52 R 16 52 R 15 50 R 15 50 R 15 49 R 16 47 R
15 47 R 15 45 R 16 44 R 15 44 R 15 43 R 15 41 R 16 41 R 15 40 R 15 39 R
15 38 R 16 37 R 15 36 R 15 36 R 16 34 R 15 34 R 15 33 R 15 32 R 16 31 R
15 30 R 15 30 R 15 28 R 16 28 R 15 27 R 15 26 R 16 26 R 15 25 R 15 24 R
15 23 R 16 23 R 15 22 R 15 21 R 15 20 R 16 20 R 15 19 R 15 18 R 16 18 R
15 17 R 15 16 R 15 15 R 16 15 R 15 14 R 15 14 R 15 13 R 16 12 R 15 12 R
15 11 R 15 10 R 16 9 R 15 9 R 15 8 R 16 8 R 15 7 R 15 7 R 15 5 R 16 6 R
15 4 R 15 4 R 15 3 R 16 3 R 15 2 R 15 1 R 16 1 R 15 0 R 15 -1 R 15 -1 R
16 -2 R 15 -2 R 15 -3 R 15 -4 R 16 -4 R 15 -5 R 15 -6 R 16 -6 R 15 -7 R
15 -7 R 15 -9 R 16 -8 R 15 -10 R 15 -10 R 15 -11 R 16 -11 R 15 -12 R
15 -12 R 16 -14 R 15 -14 R 15 -15 R 15 -15 R 16 -16 R 15 -17 R 15 -17 R
15 -18 R 16 -19 R 15 -19 R 15 -21 R 16 -21 R 15 -21 R 15 -23 R 15 -23 R
16 -24 R 15 -24 R 15 -25 R 15 -27 R 16 -27 R 15 -27 R 15 -29 R 16 -29 R
15 -30 R 15 -31 R 15 -32 R 16 -32 R 15 -34 R 15 -34 R 15 -35 R 16 -36 R
15 -37 R 15 -38 R 16 -39 R 15 -39 R 15 -41 R 15 -41 R 16 -43 R 15 -43 R
15 -44 R 15 -46 R 16 -46 R 15 -47 R 15 -49 R 16 -49 R 15 -50 R 15 -51 R
15 -53 R 16 -54 R 15 -55 R 15 -55 R 15 -57 R 16 -58 R 15 -59 R 15 -60 R
15 -62 R 16 -63 R 15 -64 R 15 -65 R 16 -66 R 15 -68 R 15 -69 R 15 -69 R
16 -71 R 15 -72 R 15 -74 R 15 -74 R 16 -76 R 15 -76 R 15 -76 R 16 -77 R
15 -78 R 15 -77 R 15 -76 R 16 -76 R 15 -73 R 15 -69 R 15 -65 R 16 -58 R
15 -48 R 15 -37 R 16 -24 R 15 -10 R 15 7 R 15 22 R 16 35 R 15 46 R 15 55 R
15 63 R 16 66 R 15 70 R 15 73 R 16 73 R 15 74 R 15 74 R 15 74 R 16 73 R
15 73 R 15 71 R 15 71 R 16 69 R 15 68 R 15 67 R 16 66 R 15 64 R 15 63 R
15 61 R 16 60 R 15 60 R 15 57 R 15 57 R 16 55 R 15 54 R 15 53 R 16 51 R
15 50 R 15 49 R 15 48 R 16 47 R 15 46 R 15 44 R 15 43 R 16 42 R 15 41 R
15 40 R 16 39 R 15 38 R 15 36 R 15 36 R 16 35 R 15 33 R 15 33 R 15 31 R
16 31 R 15 29 R 15 29 R 16 27 R 15 27 R 15 26 R 15 25 R 16 23 R 15 23 R
15 22 R 15 21 R 16 20 R 15 19 R 15 18 R 16 17 R 15 17 R 15 15 R 15 15 R
16 13 R 15 13 R 15 12 R 15 11 R 16 10 R 15 9 R 15 9 R 15 7 R 16 7 R 15 5 R
15 5 R 16 4 R 15 3 R 15 3 R 15 1 R 16 1 R 15 -1 R 15 -1 R 15 -2 R 16 -3 R
15 -4 R 15 -5 R 16 -5 R 15 -6 R 15 -8 R 15 -8 R 16 -9 R 15 -10 R 15 -11 R
15 -12 R 16 -12 R 15 -14 R 15 -14 R 16 -15 R 15 -16 R 15 -17 R 15 -18 R
16 -20 R 15 -19 R 15 -21 R 15 -22 R 16 -22 R 15 -24 R 15 -24 R 16 -26 R
15 -27 R 15 -27 R 15 -29 R 16 -29 R 15 -31 R 15 -31 R 15 -32 R 16 -34 R
15 -34 R 15 -36 R 16 -37 R 15 -38 R 15 -38 R 15 -40 R 16 -41 R 15 -42 R
15 -43 R 15 -45 R 16 -46 R 15 -46 R 15 -49 R 16 -49 R 15 -50 R 15 -52 R
15 -53 R 16 -54 R 15 -55 R 15 -57 R 15 -59 R 16 -59 R 15 -61 R 15 -63 R
16 -63 R 15 -65 R 15 -66 R 15 -68 R 16 -69 R 15 -71 R 15 -72 R 15 -73 R
16 -74 R 15 -75 R 15 -76 R 16 -76 R 15 -77 R 15 -77 R 15 -75 R 16 -75 R
15 -71 R 15 -67 R 15 -60 R 16 -52 R 15 -40 R 15 -26 R 15 -9 R 16 8 R 15 24 R
15 39 R 16 50 R 15 59 R 15 66 R 15 69 R 16 73 R 15 74 R 15 75 R 15 75 R
16 75 R 15 74 R 15 73 R 16 73 R 15 70 R 15 70 R 15 68 R 16 67 R 10 44 R D
70 setlinewidth 8950 5302 M 13 -48 R 14 -49 R 13 -50 R 14 -50 R 13 -51 R
14 -52 R 13 -52 R 13 -53 R 14 -54 R 13 -54 R 14 -55 R 13 -55 R 13 -56 R
14 -57 R 13 -57 R 14 -58 R 13 -59 R 13 -60 R 14 -60 R 13 -61 R 14 -62 R
13 -63 R 13 -63 R 14 -64 R 13 -65 R 14 -65 R 13 -66 R 13 -68 R 14 -67 R
13 -69 R 14 -69 R 13 -70 R 13 -70 R 14 -71 R 13 -71 R 14 -71 R 13 -72 R
13 -73 R 14 -72 R 13 -72 R 14 -72 R 13 -70 R 13 -70 R 14 -68 R 13 -65 R
14 -63 R 13 -58 R 13 -53 R 14 -46 R 13 -38 R 14 -28 R 13 -19 R 14 -8 R
13 3 R 13 15 R 14 25 R 13 34 R 14 41 R 13 48 R 13 52 R 14 57 R 13 58 R
14 61 R 13 62 R 13 63 R 14 64 R 13 63 R 14 64 R 13 63 R 13 62 R 14 62 R
13 62 R 14 60 R 13 60 R 13 59 R 14 58 R 13 57 R 14 56 R 13 56 R 13 54 R
14 53 R 13 53 R 14 52 R 13 50 R 13 50 R 14 48 R 13 48 R 14 47 R 13 46 R
13 45 R 14 44 R 13 43 R 14 43 R 13 41 R 14 41 R 13 39 R 13 39 R 14 38 R
13 37 R 14 36 R 13 36 R 13 35 R 14 34 R 13 33 R 14 32 R 13 32 R 13 31 R
14 29 R 13 30 R 14 28 R 13 28 R 13 27 R 14 26 R 13 26 R 14 25 R 13 23 R
13 24 R 14 22 R 13 22 R 14 21 R 13 20 R 13 20 R 14 19 R 13 19 R 14 17 R
13 17 R 13 17 R 14 15 R 13 15 R 14 14 R 13 13 R 13 13 R 14 13 R 13 11 R
14 11 R 13 11 R 13 9 R 14 9 R 13 8 R 14 7 R 13 7 R 14 7 R 13 5 R 13 5 R
14 5 R 13 4 R 14 3 R 13 2 R 13 2 R 14 1 R 13 0 R 14 0 R 13 -1 R 13 -1 R
14 -2 R 13 -3 R 14 -3 R 13 -4 R 13 -5 R 14 -5 R 13 -6 R 14 -7 R 13 -7 R
13 -8 R 14 -9 R 13 -9 R 14 -9 R 13 -11 R 13 -11 R 14 -12 R 13 -13 R 14 -13 R
13 -14 R 13 -14 R 14 -16 R 13 -15 R 14 -17 R 13 -17 R 13 -18 R 14 -19 R
13 -20 R 14 -20 R 13 -21 R 14 -21 R 13 -22 R 13 -23 R 14 -24 R 13 -24 R
14 -25 R 13 -26 R 13 -27 R 14 -28 R 13 -28 R 14 -29 R 13 -30 R 13 -30 R
14 -32 R 13 -32 R 14 -32 R 13 -34 R 13 -35 R 14 -36 R 13 -36 R 14 -37 R
13 -38 R 13 -39 R 14 -40 R 13 -40 R 14 -42 R 13 -42 R 13 -44 R 14 -44 R
13 -45 R 14 -47 R 13 -47 R 13 -48 R 14 -49 R 13 -51 R 14 -51 R 13 -52 R
13 -53 R 14 -55 R 13 -56 R 14 -56 R 13 -58 R 13 -59 R 14 -60 R 13 -60 R
14 -62 R 13 -63 R 14 -64 R 13 -65 R 13 -66 R 14 -67 R 13 -67 R 14 -69 R
13 -68 R 13 -70 R 14 -69 R 13 -68 R 14 -68 R 13 -66 R 13 -63 R 14 -59 R
13 -54 R 14 -46 R 13 -37 R 13 -26 R 14 -13 R 13 2 R 14 15 R 13 27 R 13 38 R
14 47 R 13 52 R 14 58 R 13 61 R 13 63 R 14 64 R 13 65 R 14 65 R 13 65 R
13 64 R 14 63 R 13 63 R 14 62 R 13 60 R 13 60 R 14 58 R 13 58 R 14 55 R
13 55 R 14 54 R 13 52 R 13 51 R 14 50 R 13 49 R 14 47 R 13 46 R 13 45 R
14 44 R 13 43 R 14 42 R 13 41 R 13 40 R 14 38 R 13 38 R 14 36 R 13 35 R
13 34 R 14 33 R 13 32 R 14 32 R 13 30 R 13 29 R 14 28 R 13 28 R 14 26 R
13 25 R 13 24 R 14 23 R 13 22 R 14 22 R 13 20 R 13 20 R 14 19 R 13 18 R
14 17 R 13 16 R 13 15 R 14 14 R 13 13 R 14 12 R 13 12 R 13 10 R 14 10 R
13 9 R 14 9 R 13 7 R 14 6 R 13 5 R 13 5 R 14 3 R 13 3 R 14 2 R 13 1 R 13 1 R
14 -1 R 13 -1 R 14 -2 R 13 -4 R 13 -4 R 14 -5 R 13 -6 R 14 -6 R 13 -8 R
13 -8 R 14 -9 R 13 -10 R 14 -11 R 13 -12 R 13 -13 R 14 -14 R 13 -15 R
14 -15 R 13 -16 R 13 -17 R 14 -19 R 13 -18 R 14 -20 R 13 -21 R 13 -23 R
14 -23 R 13 -23 R 14 -25 R 13 -26 R 13 -27 R 14 -27 R 13 -29 R 14 -29 R
13 -31 R 13 -32 R 14 -33 R 13 -34 R 14 -35 R 13 -36 R 14 -37 R 13 -38 R
13 -39 R 14 -40 R 13 -42 R 14 -42 R 13 -44 R 13 -46 R 14 -46 R 13 -48 R
14 -48 R 13 -50 R 13 -51 R 14 -53 R 13 -53 R 14 -55 R 13 -57 R 13 -58 R
14 -59 R 13 -61 R 14 -61 R 13 -63 R 13 -64 R 14 -65 R 13 -66 R 14 -67 R
13 -68 R 13 -68 R 14 -68 R 13 -68 R 14 -67 R 13 -64 R 13 -61 R 14 -55 R
13 -48 R 14 -36 R 13 -24 R 13 -10 R 14 6 R 13 21 R 14 34 R 13 45 R 14 53 R
13 58 R 13 62 R 14 65 R 13 66 R 14 66 R 13 66 R 13 65 R 14 65 R 13 64 R
14 63 R 13 62 R 13 60 R 14 59 R 13 58 R 14 56 R 13 55 R 13 54 R 14 52 R
13 50 R 14 50 R 13 48 R 13 47 R 14 45 R 13 44 R 14 43 R 13 42 R 13 40 R
14 39 R 13 38 R 14 36 R 13 35 R 13 35 R 14 33 R 13 32 R 14 31 R 13 29 R
13 29 R 14 27 R 13 26 R 14 25 R 13 24 R 13 23 R 14 22 R 13 21 R 14 20 R
13 19 R 14 17 R 13 17 R 13 15 R 14 15 R 13 13 R 14 13 R 13 11 R 13 11 R
14 10 R 13 8 R 14 8 R 13 7 R 13 5 R 14 4 R 13 4 R 14 2 R 13 2 R 13 1 R
14 0 R 13 -1 R 14 -3 R 13 -3 R 13 -4 R 14 -6 R 13 -6 R 14 -7 R 13 -9 R
13 -9 R 14 -10 R 13 -11 R 14 -12 R 13 -13 R 13 -14 R 14 -16 R 13 -16 R
14 -18 R 13 -18 R 13 -20 R 14 -20 R 13 -21 R 14 -23 R 13 -23 R 14 -25 R
13 -26 R 13 -27 R 14 -29 R 13 -29 R 1 -3 R D 110 setlinewidth 8950 5302 M
12 -42 R 11 -42 R 12 -43 R 11 -43 R 12 -44 R 12 -44 R 11 -44 R 12 -46 R
11 -45 R 12 -47 R 11 -46 R 12 -47 R 12 -48 R 11 -48 R 12 -48 R 11 -49 R
12 -49 R 12 -50 R 11 -51 R 12 -51 R 11 -52 R 12 -52 R 12 -53 R 11 -54 R
12 -53 R 11 -55 R 12 -55 R 11 -55 R 12 -56 R 12 -57 R 11 -57 R 12 -58 R
11 -59 R 12 -59 R 12 -59 R 11 -60 R 12 -61 R 11 -61 R 12 -61 R 11 -61 R
12 -62 R 12 -62 R 11 -63 R 12 -63 R 11 -63 R 12 -63 R 12 -62 R 11 -62 R
12 -62 R 11 -61 R 12 -59 R 11 -58 R 12 -55 R 12 -53 R 11 -49 R 12 -45 R
11 -39 R 12 -34 R 12 -26 R 11 -18 R 12 -10 R 11 -2 R 12 6 R 11 15 R 12 22 R
12 30 R 11 34 R 12 40 R 11 43 R 12 46 R 12 48 R 11 50 R 12 52 R 11 52 R
12 53 R 11 53 R 12 53 R 12 53 R 11 53 R 12 53 R 11 52 R 12 51 R 12 51 R
11 51 R 12 49 R 11 49 R 12 49 R 11 47 R 12 47 R 12 46 R 11 45 R 12 45 R
11 43 R 12 43 R 12 43 R 11 41 R 12 41 R 11 40 R 12 39 R 11 38 R 12 38 R
12 37 R 11 36 R 12 35 R 11 34 R 12 34 R 12 33 R 11 33 R 12 31 R 11 32 R
12 30 R 11 30 R 12 29 R 12 29 R 11 28 R 12 27 R 11 26 R 12 25 R 12 25 R
11 24 R 12 24 R 11 23 R 12 23 R 11 22 R 12 21 R 12 21 R 11 20 R 12 19 R
11 18 R 12 18 R 12 18 R 11 16 R 12 16 R 11 16 R 12 15 R 11 15 R 12 14 R
12 13 R 11 13 R 12 12 R 11 11 R 12 11 R 12 10 R 11 9 R 12 9 R 11 9 R 12 8 R
11 7 R 12 7 R 12 7 R 11 5 R 12 6 R 11 4 R 12 4 R 12 3 R 11 2 R 12 3 R 11 1 R
12 1 R 11 1 R 12 0 R 12 -1 R 11 -1 R 12 -2 R 11 -2 R 12 -3 R 12 -4 R 11 -4 R
12 -5 R 11 -5 R 12 -6 R 11 -6 R 12 -7 R 12 -8 R 11 -8 R 12 -8 R 11 -10 R
12 -10 R 12 -11 R 11 -11 R 12 -12 R 11 -12 R 12 -13 R 11 -14 R 12 -14 R
12 -14 R 11 -15 R 12 -16 R 11 -17 R 12 -17 R 12 -18 R 11 -19 R 12 -19 R
11 -20 R 12 -20 R 11 -21 R 12 -22 R 12 -22 R 11 -23 R 12 -24 R 11 -24 R
12 -25 R 12 -26 R 11 -27 R 12 -27 R 11 -28 R 12 -29 R 11 -29 R 12 -30 R
12 -30 R 11 -32 R 12 -32 R 11 -33 R 12 -33 R 12 -35 R 11 -36 R 12 -36 R
11 -37 R 12 -38 R 11 -38 R 12 -39 R 12 -40 R 11 -41 R 12 -42 R 11 -42 R
12 -44 R 12 -45 R 11 -46 R 12 -47 R 11 -47 R 12 -48 R 11 -50 R 12 -50 R
12 -50 R 11 -52 R 12 -53 R 11 -53 R 12 -55 R 12 -56 R 11 -57 R 12 -58 R
11 -58 R 12 -59 R 11 -60 R 12 -61 R 12 -61 R 11 -61 R 12 -61 R 11 -61 R
12 -60 R 12 -59 R 11 -56 R 12 -53 R 11 -48 R 12 -42 R 11 -34 R 12 -24 R
12 -12 R 11 -1 R 12 12 R 11 23 R 12 32 R 12 40 R 11 46 R 12 50 R 11 52 R
12 55 R 11 56 R 12 56 R 12 57 R 11 56 R 12 55 R 11 55 R 12 55 R 12 53 R
11 53 R 12 51 R 11 50 R 12 49 R 11 49 R 12 47 R 12 46 R 11 45 R 12 43 R
11 42 R 12 42 R 12 40 R 11 39 R 12 38 R 11 38 R 12 36 R 11 35 R 12 35 R
12 33 R 11 32 R 12 31 R 11 30 R 12 29 R 12 28 R 11 27 R 12 26 R 11 26 R
12 24 R 11 24 R 12 23 R 12 21 R 11 21 R 12 20 R 11 19 R 12 18 R 12 16 R
11 17 R 12 15 R 11 15 R 12 14 R 11 13 R 12 12 R 12 11 R 11 11 R 12 9 R
11 9 R 12 7 R 12 7 R 11 6 R 12 5 R 11 5 R 12 4 R 11 3 R 12 2 R 12 1 R 11 1 R
12 -1 R 11 -1 R 12 -2 R 12 -4 R 11 -3 R 12 -5 R 11 -5 R 12 -7 R 11 -6 R
12 -8 R 12 -9 R 11 -9 R 12 -11 R 11 -11 R 12 -12 R 12 -14 R 11 -14 R
12 -14 R 11 -16 R 12 -16 R 11 -18 R 12 -18 R 12 -18 R 11 -20 R 12 -21 R
11 -22 R 12 -23 R 12 -24 R 11 -25 R 12 -26 R 11 -26 R 12 -28 R 11 -28 R
12 -29 R 12 -31 R 11 -31 R 12 -33 R 11 -33 R 12 -35 R 12 -36 R 11 -38 R
12 -38 R 11 -39 R 12 -40 R 11 -41 R 12 -42 R 12 -43 R 11 -44 R 12 -46 R
11 -47 R 12 -49 R 12 -50 R 11 -50 R 12 -53 R 11 -53 R 12 -54 R 11 -55 R
12 -57 R 12 -57 R 11 -59 R 12 -59 R 11 -60 R 12 -61 R 12 -60 R 11 -59 R
12 -57 R 11 -56 R 12 -50 R 11 -45 R 12 -35 R 12 -25 R 11 -12 R 12 2 R
11 17 R 12 29 R 12 38 R 11 47 R 12 51 R 11 54 R 12 56 R 11 58 R 12 58 R
12 57 R 11 58 R 12 56 R 11 55 R 12 55 R 12 53 R 11 52 R 12 51 R 11 49 R
12 48 R 11 47 R 12 45 R 12 45 R 11 43 R 12 41 R 11 41 R 12 38 R 12 38 R
11 37 R 12 35 R 11 34 R 12 33 R 11 32 R 12 31 R 12 30 R 11 29 R 12 27 R
11 26 R 12 25 R 12 23 R 11 23 R 12 22 R 11 21 R 12 20 R 11 19 R 12 18 R
12 17 R 11 16 R 12 14 R 11 14 R 12 12 R 12 11 R 11 11 R 12 9 R 11 9 R 12 8 R
11 7 R 12 6 R 12 5 R 11 4 R 12 3 R 11 1 R 12 1 R 12 0 R 11 -2 R 12 -2 R
11 -3 R 12 -3 R 11 -5 R 12 -6 R 12 -6 R 11 -8 R 12 -9 R 11 -10 R 12 -11 R
12 -12 R 11 -13 R 12 -14 R 11 -15 R 12 -16 R 11 -16 R 12 -18 R 12 -19 R
11 -19 R 12 -21 R 11 -23 R 12 -23 R 12 -25 R 11 -25 R 12 -27 R 11 -27 R
12 -29 R 11 -30 R 12 -30 R 12 -32 R 11 -34 R 12 -34 R 11 -36 R 12 -38 R
12 -39 R 11 -40 R 12 -41 R 11 -42 R 12 -44 R 11 -44 R 12 -46 R 12 -47 R
11 -49 R 12 -50 R 11 -51 R 12 -53 R 12 -54 R 11 -56 R 12 -57 R 11 -57 R
12 -59 R 11 -59 R 12 -60 R 12 -59 R 11 -59 R 12 -56 R 11 -54 R 12 -47 R
12 -40 R 11 -29 R 12 -15 R 11 -1 R 12 15 R 11 28 R 12 39 R 12 47 R 11 53 R
12 55 R 11 58 R 12 58 R 12 58 R 11 59 R 12 57 R 11 57 R 12 55 R 11 54 R
12 53 R 12 52 R 11 50 R 12 48 R 11 48 R 12 45 R 12 45 R 11 43 R 12 42 R
11 41 R 12 39 R 12 37 R 11 36 R 12 35 R 11 33 R 12 33 R 11 31 R 12 30 R
12 29 R 11 28 R 12 27 R 11 25 R 12 25 R 12 23 R 11 22 R 12 20 R 11 19 R
12 19 R 11 17 R 12 16 R 12 15 R 11 14 R 12 14 R 11 12 R 12 11 R 12 10 R
11 8 R D
%%PageTrailer
end
%%PageResources: font Helvetica
%%+ font Symbol
%%Trailer
%%Pages: 1
%%DocumentNeededResources: font Helvetica
%%+ font Symbol
%%EOF
