%!PS-Adobe-3.0 EPSF-3.0
%%BoundingBox: 0 0 510 170
%%Title: Graphics produced by IDL
%%For: dacia@Lserver, /home/dacia/work/subhalo_model
%%Creator: IDL Version 7.0 (linux x86_64 m64)
%%CreationDate: Tue May 11 14:25:31 2010
%%DocumentData: Clean7bit
%%Requirements: color
%%LanguageLevel: 1
%%PageOrder: Ascend
%%Pages: (atend)
%%DocumentNeededResources: (atend)
%%EndComments
%%BeginProlog
%+ prolog.ps -- Prolog for IDL generated PostScript files
%+ Copyright (c) 1988-2007 ITT Visual Information Solutions. All Rights Reserved.
%v 5
/$IDL_DICT 40 dict def $IDL_DICT begin /bdef { bind def } bind def /C
{currentpoint newpath moveto} bdef /CP {currentpoint} bdef /D {currentpoint
stroke moveto} bdef /F {closepath fill} bdef /K { setgray } bdef /M {moveto}
bdef /N {rmoveto} bdef /P {lineto} bdef /R {rlineto} bdef /S {gsave show
grestore} bdef /X {currentpoint pop} bdef /Z {gsave currentpoint lineto 20
setlinewidth 1 setlinecap stroke grestore} bdef /L0 {[] 0 setdash} bdef /L1
{[40 100] 0 setdash} bdef /L2 {[200 200] 0 setdash} bdef /L3 {[200 100 50
100] 0 setdash} bdef /L4 {[300 100 50 100 50 100 50 100] 0 setdash} bdef /L5
{[400 200] 0 setdash} bdef /STDFONT { findfont exch scalefont setfont } bdef
/ISOFONT { findfont dup length dict begin { 1 index /FID ne {def} {pop pop}
ifelse } forall /Encoding ISOLatin1Encoding def currentdict end /idltmpfont
exch definefont exch scalefont setfont } bdef /ISOBULLET { gsave /Helvetica
findfont exch scalefont setfont (\267) show currentpoint grestore moveto}
bdef /MITERLIMIT { 2.5 setmiterlimit } bdef end
%%EndProlog
%%Page: 0 1
%%PageRequirements: color
%%PageResources: (atend)
%%PageOrientation: Portrait
%%PageBoundingBox: 0 0 510 170
%%BeginPageSetup
$IDL_DICT begin 0.0283465 dup scale MITERLIMIT
%%IncludeResource: font Helvetica
423.333 /Helvetica STDFONT
%%EndPageSetup
0.000 0.000 0.000 setrgbcolor gsave 9360 158 translate 0 0 M 1.2 dup scale
-165.096 0 N
%%IncludeResource: font Symbol
423.333 /Symbol STDFONT
(m) show X -95.92 M
%%IncludeResource: font Helvetica
262.467 /Helvetica STDFONT
(i) show grestore
%%IncludeResource: font Helvetica
423.333 /Helvetica STDFONT gsave 573 3570 translate 0 0 M 90 rotate
1.2 dup scale -697.459 0 N
(T) show X -101.051 M
%%IncludeResource: font Helvetica
262.467 /Helvetica STDFONT
(df) show X 0 M
%%IncludeResource: font Helvetica
423.333 /Helvetica STDFONT
( /Gyr) show grestore 40 setlinewidth L0 1350 1320 M 4740 0 R D 1350 1320 M
0 180 R D gsave 1350 681 translate 0 0 M 1.21 dup scale -58.8433 0 N
( ) show grestore 2298 1320 M 0 180 R D gsave 2298 681 translate 0 0 M
1.21 dup scale -294.217 0 N
(0.1) show grestore 3246 1320 M 0 180 R D gsave 3246 681 translate 0 0 M
1.21 dup scale -58.8433 0 N
( ) show grestore 4194 1320 M 0 180 R D gsave 4194 681 translate 0 0 M
1.21 dup scale -294.217 0 N
(0.2) show grestore 5142 1320 M 0 180 R D gsave 5142 681 translate 0 0 M
1.21 dup scale -58.8433 0 N
( ) show grestore 6090 1320 M 0 180 R D gsave 6090 681 translate 0 0 M
1.21 dup scale -294.217 0 N
(0.3) show grestore 1540 1320 M 0 90 R D 1729 1320 M 0 90 R D 1919 1320 M
0 90 R D 2108 1320 M 0 90 R D 2488 1320 M 0 90 R D 2677 1320 M 0 90 R D
2867 1320 M 0 90 R D 3056 1320 M 0 90 R D 3436 1320 M 0 90 R D 3625 1320 M
0 90 R D 3815 1320 M 0 90 R D 4004 1320 M 0 90 R D 4384 1320 M 0 90 R D
4573 1320 M 0 90 R D 4763 1320 M 0 90 R D 4952 1320 M 0 90 R D 5332 1320 M
0 90 R D 5521 1320 M 0 90 R D 5711 1320 M 0 90 R D 5900 1320 M 0 90 R D
1350 5820 M 4740 0 R D 1350 5820 M 0 -180 R D 2298 5820 M 0 -180 R D
3246 5820 M 0 -180 R D 4194 5820 M 0 -180 R D 5142 5820 M 0 -180 R D
6090 5820 M 0 -180 R D 1540 5820 M 0 -90 R D 1729 5820 M 0 -90 R D
1919 5820 M 0 -90 R D 2108 5820 M 0 -90 R D 2488 5820 M 0 -90 R D
2677 5820 M 0 -90 R D 2867 5820 M 0 -90 R D 3056 5820 M 0 -90 R D
3436 5820 M 0 -90 R D 3625 5820 M 0 -90 R D 3815 5820 M 0 -90 R D
4004 5820 M 0 -90 R D 4384 5820 M 0 -90 R D 4573 5820 M 0 -90 R D
4763 5820 M 0 -90 R D 4952 5820 M 0 -90 R D 5332 5820 M 0 -90 R D
5521 5820 M 0 -90 R D 5711 5820 M 0 -90 R D 5900 5820 M 0 -90 R D
1350 1320 M 0 4500 R D 1350 2294 M 190 0 R D gsave 1216 2124 translate 0 0 M
1.21 dup scale -235.373 0 N
(2) show grestore 1350 3361 M 190 0 R D gsave 1216 3190 translate 0 0 M
1.21 dup scale -235.373 0 N
(4) show grestore 1350 4427 M 190 0 R D gsave 1216 4257 translate 0 0 M
1.21 dup scale -235.373 0 N
(6) show grestore 1350 5494 M 190 0 R D gsave 1216 5324 translate 0 0 M
1.21 dup scale -235.373 0 N
(8) show grestore 1350 1494 M 95 0 R D 1350 1761 M 95 0 R D 1350 2027 M
95 0 R D 1350 2561 M 95 0 R D 1350 2827 M 95 0 R D 1350 3094 M 95 0 R D
1350 3627 M 95 0 R D 1350 3894 M 95 0 R D 1350 4161 M 95 0 R D 1350 4694 M
95 0 R D 1350 4961 M 95 0 R D 1350 5227 M 95 0 R D 1350 5761 M 95 0 R D
6090 1320 M 0 4500 R D 6090 2294 M -190 0 R D 6090 3361 M -190 0 R D
6090 4427 M -190 0 R D 6090 5494 M -190 0 R D 6090 1494 M -95 0 R D
6090 1761 M -95 0 R D 6090 2027 M -95 0 R D 6090 2561 M -95 0 R D
6090 2827 M -95 0 R D 6090 3094 M -95 0 R D 6090 3627 M -95 0 R D
6090 3894 M -95 0 R D 6090 4161 M -95 0 R D 6090 4694 M -95 0 R D
6090 4961 M -95 0 R D 6090 5227 M -95 0 R D 6090 5761 M -95 0 R D L2
1350 5820 M 474 -1493 R 474 -732 R 569 -501 R 379 -221 R 948 -359 R
948 -215 R 948 -143 R D 80 setlinewidth L0 1350 4533 M 474 -1119 R
474 -573 R 569 -339 R 379 -131 R 948 -202 R 948 -71 R 948 -33 R D
40 setlinewidth 1443 5820 M 381 -1382 R 474 -966 R 569 -612 R 379 -157 R
948 -330 R 948 -211 R 948 -41 R D gsave 5711 5269 translate 0 0 M
1.2 dup scale -947.42 0 N
%%IncludeResource: font Symbol
423.333 /Symbol STDFONT
(e) show
%%IncludeResource: font Helvetica
423.333 /Helvetica STDFONT
(=0.3) show grestore 6990 1320 M 4740 0 R D 6990 1320 M 0 180 R D
gsave 6990 681 translate 0 0 M 1.21 dup scale -58.8433 0 N
( ) show grestore 7938 1320 M 0 180 R D gsave 7938 681 translate 0 0 M
1.21 dup scale -294.217 0 N
(0.1) show grestore 8886 1320 M 0 180 R D gsave 8886 681 translate 0 0 M
1.21 dup scale -58.8433 0 N
( ) show grestore 9834 1320 M 0 180 R D gsave 9834 681 translate 0 0 M
1.21 dup scale -294.217 0 N
(0.2) show grestore 10782 1320 M 0 180 R D gsave 10782 681 translate 0 0 M
1.21 dup scale -58.8433 0 N
( ) show grestore 11730 1320 M 0 180 R D gsave 11730 681 translate 0 0 M
1.21 dup scale -294.217 0 N
(0.3) show grestore 7180 1320 M 0 90 R D 7369 1320 M 0 90 R D 7559 1320 M
0 90 R D 7748 1320 M 0 90 R D 8128 1320 M 0 90 R D 8317 1320 M 0 90 R D
8507 1320 M 0 90 R D 8696 1320 M 0 90 R D 9076 1320 M 0 90 R D 9265 1320 M
0 90 R D 9455 1320 M 0 90 R D 9644 1320 M 0 90 R D 10024 1320 M 0 90 R D
10213 1320 M 0 90 R D 10403 1320 M 0 90 R D 10593 1320 M 0 90 R D
10972 1320 M 0 90 R D 11161 1320 M 0 90 R D 11351 1320 M 0 90 R D
11541 1320 M 0 90 R D 6990 5820 M 4740 0 R D 6990 5820 M 0 -180 R D
7938 5820 M 0 -180 R D 8886 5820 M 0 -180 R D 9834 5820 M 0 -180 R D
10782 5820 M 0 -180 R D 11730 5820 M 0 -180 R D 7180 5820 M 0 -90 R D
7369 5820 M 0 -90 R D 7559 5820 M 0 -90 R D 7748 5820 M 0 -90 R D
8128 5820 M 0 -90 R D 8317 5820 M 0 -90 R D 8507 5820 M 0 -90 R D
8696 5820 M 0 -90 R D 9076 5820 M 0 -90 R D 9265 5820 M 0 -90 R D
9455 5820 M 0 -90 R D 9644 5820 M 0 -90 R D 10024 5820 M 0 -90 R D
10213 5820 M 0 -90 R D 10403 5820 M 0 -90 R D 10593 5820 M 0 -90 R D
10972 5820 M 0 -90 R D 11161 5820 M 0 -90 R D 11351 5820 M 0 -90 R D
11541 5820 M 0 -90 R D 6990 1320 M 0 4500 R D 6990 1957 M 190 0 R D
gsave 6856 1786 translate 0 0 M 1.21 dup scale -235.373 0 N
(2) show grestore 6990 2686 M 190 0 R D gsave 6856 2516 translate 0 0 M
1.21 dup scale -235.373 0 N
(4) show grestore 6990 3416 M 190 0 R D gsave 6856 3245 translate 0 0 M
1.21 dup scale -235.373 0 N
(6) show grestore 6990 4145 M 190 0 R D gsave 6856 3975 translate 0 0 M
1.21 dup scale -235.373 0 N
(8) show grestore 6990 4875 M 190 0 R D gsave 6856 4704 translate 0 0 M
1.21 dup scale -470.747 0 N
(10) show grestore 6990 5604 M 190 0 R D gsave 6856 5434 translate 0 0 M
1.21 dup scale -470.747 0 N
(12) show grestore 6990 1410 M 95 0 R D 6990 1592 M 95 0 R D 6990 1774 M
95 0 R D 6990 2139 M 95 0 R D 6990 2321 M 95 0 R D 6990 2504 M 95 0 R D
6990 2869 M 95 0 R D 6990 3051 M 95 0 R D 6990 3233 M 95 0 R D 6990 3598 M
95 0 R D 6990 3780 M 95 0 R D 6990 3963 M 95 0 R D 6990 4328 M 95 0 R D
6990 4510 M 95 0 R D 6990 4692 M 95 0 R D 6990 5057 M 95 0 R D 6990 5239 M
95 0 R D 6990 5422 M 95 0 R D 6990 5787 M 95 0 R D 11730 1320 M 0 4500 R D
11730 1957 M -189 0 R D 11730 2686 M -189 0 R D 11730 3416 M -189 0 R D
11730 4145 M -189 0 R D 11730 4875 M -189 0 R D 11730 5604 M -189 0 R D
11730 1410 M -95 0 R D 11730 1592 M -95 0 R D 11730 1774 M -95 0 R D
11730 2139 M -95 0 R D 11730 2321 M -95 0 R D 11730 2504 M -95 0 R D
11730 2869 M -95 0 R D 11730 3051 M -95 0 R D 11730 3233 M -95 0 R D
11730 3598 M -95 0 R D 11730 3780 M -95 0 R D 11730 3963 M -95 0 R D
11730 4328 M -95 0 R D 11730 4510 M -95 0 R D 11730 4692 M -95 0 R D
11730 5057 M -95 0 R D 11730 5239 M -95 0 R D 11730 5422 M -95 0 R D
11730 5787 M -95 0 R D L2 6990 5820 M 474 -1493 R 474 -732 R 569 -501 R
379 -221 R 948 -359 R 948 -215 R 948 -143 R D 80 setlinewidth L0 6990 5057 M
474 -1236 R 474 -448 R 569 -411 R 379 -195 R 948 -239 R 948 -129 R 948 -39 R
D 40 setlinewidth 7055 5820 M 409 -1296 R 474 -628 R 569 -576 R 379 -225 R
948 -328 R 948 -250 R 948 -64 R D gsave 11351 5269 translate 0 0 M
1.2 dup scale -947.42 0 N
%%IncludeResource: font Symbol
423.333 /Symbol STDFONT
(e) show
%%IncludeResource: font Helvetica
423.333 /Helvetica STDFONT
(=0.5) show grestore 12630 1320 M 4740 0 R D 12630 1320 M 0 180 R D
gsave 12630 681 translate 0 0 M 1.21 dup scale -58.8433 0 N
( ) show grestore 13578 1320 M 0 180 R D gsave 13578 681 translate 0 0 M
1.21 dup scale -294.217 0 N
(0.1) show grestore 14526 1320 M 0 180 R D gsave 14526 681 translate 0 0 M
1.21 dup scale -58.8433 0 N
( ) show grestore 15474 1320 M 0 180 R D gsave 15474 681 translate 0 0 M
1.21 dup scale -294.217 0 N
(0.2) show grestore 16422 1320 M 0 180 R D gsave 16422 681 translate 0 0 M
1.21 dup scale -58.8433 0 N
( ) show grestore 17370 1320 M 0 180 R D gsave 17370 681 translate 0 0 M
1.21 dup scale -294.217 0 N
(0.3) show grestore 12820 1320 M 0 90 R D 13009 1320 M 0 90 R D 13199 1320 M
0 90 R D 13389 1320 M 0 90 R D 13768 1320 M 0 90 R D 13957 1320 M 0 90 R D
14147 1320 M 0 90 R D 14337 1320 M 0 90 R D 14716 1320 M 0 90 R D
14905 1320 M 0 90 R D 15095 1320 M 0 90 R D 15285 1320 M 0 90 R D
15664 1320 M 0 90 R D 15853 1320 M 0 90 R D 16043 1320 M 0 90 R D
16233 1320 M 0 90 R D 16612 1320 M 0 90 R D 16801 1320 M 0 90 R D
16991 1320 M 0 90 R D 17181 1320 M 0 90 R D 12630 5820 M 4740 0 R D
12630 5820 M 0 -180 R D 13578 5820 M 0 -180 R D 14526 5820 M 0 -180 R D
15474 5820 M 0 -180 R D 16422 5820 M 0 -180 R D 17370 5820 M 0 -180 R D
12820 5820 M 0 -90 R D 13009 5820 M 0 -90 R D 13199 5820 M 0 -90 R D
13389 5820 M 0 -90 R D 13768 5820 M 0 -90 R D 13957 5820 M 0 -90 R D
14147 5820 M 0 -90 R D 14337 5820 M 0 -90 R D 14716 5820 M 0 -90 R D
14905 5820 M 0 -90 R D 15095 5820 M 0 -90 R D 15285 5820 M 0 -90 R D
15664 5820 M 0 -90 R D 15853 5820 M 0 -90 R D 16043 5820 M 0 -90 R D
16233 5820 M 0 -90 R D 16612 5820 M 0 -90 R D 16801 5820 M 0 -90 R D
16991 5820 M 0 -90 R D 17181 5820 M 0 -90 R D 12630 1320 M 0 4500 R D
12630 2474 M 190 0 R D gsave 12496 2304 translate 0 0 M 1.21 dup scale
-235.373 0 N
(5) show grestore 12630 3722 M 190 0 R D gsave 12496 3551 translate 0 0 M
1.21 dup scale -470.747 0 N
(10) show grestore 12630 4969 M 190 0 R D gsave 12496 4798 translate 0 0 M
1.21 dup scale -470.747 0 N
(15) show grestore 12630 1477 M 95 0 R D 12630 1726 M 95 0 R D 12630 1975 M
95 0 R D 12630 2225 M 95 0 R D 12630 2724 M 95 0 R D 12630 2973 M 95 0 R D
12630 3223 M 95 0 R D 12630 3472 M 95 0 R D 12630 3971 M 95 0 R D
12630 4220 M 95 0 R D 12630 4470 M 95 0 R D 12630 4719 M 95 0 R D
12630 5218 M 95 0 R D 12630 5468 M 95 0 R D 12630 5717 M 95 0 R D
17370 1320 M 0 4500 R D 17370 2474 M -189 0 R D 17370 3722 M -189 0 R D
17370 4969 M -189 0 R D 17370 1477 M -95 0 R D 17370 1726 M -95 0 R D
17370 1975 M -95 0 R D 17370 2225 M -95 0 R D 17370 2724 M -95 0 R D
17370 2973 M -95 0 R D 17370 3223 M -95 0 R D 17370 3472 M -95 0 R D
17370 3971 M -95 0 R D 17370 4220 M -95 0 R D 17370 4470 M -95 0 R D
17370 4719 M -95 0 R D 17370 5218 M -95 0 R D 17370 5468 M -95 0 R D
17370 5717 M -95 0 R D L2 12630 5820 M 474 -1493 R 474 -732 R 569 -501 R
379 -221 R 948 -359 R 948 -215 R 948 -143 R D 80 setlinewidth L0
12630 4524 M 474 -917 R 474 -522 R 569 -261 R 379 -88 R 948 -220 R
948 -104 R 948 1 R D 40 setlinewidth 12630 5008 M 474 -1069 R 474 -658 R
569 -264 R 379 -122 R 948 -259 R 948 -146 R 948 -64 R D
gsave 16991 5269 translate 0 0 M 1.2 dup scale -947.42 0 N
%%IncludeResource: font Symbol
423.333 /Symbol STDFONT
(e) show
%%IncludeResource: font Helvetica
423.333 /Helvetica STDFONT
(=0.7) show grestore gsave 15120 4800 translate 0 0 M 1.1 dup scale
(Baryon) show grestore 15044 4380 M 74 0 R 74 0 R 74 0 R 74 0 R 74 0 R
74 0 R 75 0 R 74 0 R 74 0 R D 80 setlinewidth 15044 3939 M 74 0 R 74 0 R
74 0 R 74 0 R 74 0 R 74 0 R 75 0 R 74 0 R 74 0 R D 40 setlinewidth L2
15044 3498 M 74 0 R 74 0 R 74 0 R 74 0 R 74 0 R 74 0 R 75 0 R 74 0 R 74 0 R
D gsave 15785 4251 translate 0 0 M 1.1 dup scale
(0.05) show grestore gsave 15785 3809 translate 0 0 M 1.1 dup scale
(0.3) show grestore gsave 15785 3368 translate 0 0 M 1.1 dup scale
(BK08) show grestore
%%PageTrailer
end
%%PageResources: font Helvetica
%%+ font Symbol
%%Trailer
%%Pages: 1
%%DocumentNeededResources: font Helvetica
%%+ font Symbol
%%EOF
