%!PS-Adobe-3.0 EPSF-3.0
%%BoundingBox: 0 0 453 226
%%Title: Graphics produced by IDL
%%For: dacia@Lserver, /home/dacia/work/subhalo_model
%%Creator: IDL Version 7.0 (linux x86_64 m64)
%%CreationDate: Sun Jun 13 16:30:50 2010
%%DocumentData: Clean7bit
%%Requirements: color
%%LanguageLevel: 1
%%PageOrder: Ascend
%%Pages: (atend)
%%DocumentNeededResources: (atend)
%%EndComments
%%BeginProlog
%+ prolog.ps -- Prolog for IDL generated PostScript files
%+ Copyright (c) 1988-2007 ITT Visual Information Solutions. All Rights Reserved.
%v 5
/$IDL_DICT 40 dict def $IDL_DICT begin /bdef { bind def } bind def /C
{currentpoint newpath moveto} bdef /CP {currentpoint} bdef /D {currentpoint
stroke moveto} bdef /F {closepath fill} bdef /K { setgray } bdef /M {moveto}
bdef /N {rmoveto} bdef /P {lineto} bdef /R {rlineto} bdef /S {gsave show
grestore} bdef /X {currentpoint pop} bdef /Z {gsave currentpoint lineto 20
setlinewidth 1 setlinecap stroke grestore} bdef /L0 {[] 0 setdash} bdef /L1
{[40 100] 0 setdash} bdef /L2 {[200 200] 0 setdash} bdef /L3 {[200 100 50
100] 0 setdash} bdef /L4 {[300 100 50 100 50 100 50 100] 0 setdash} bdef /L5
{[400 200] 0 setdash} bdef /STDFONT { findfont exch scalefont setfont } bdef
/ISOFONT { findfont dup length dict begin { 1 index /FID ne {def} {pop pop}
ifelse } forall /Encoding ISOLatin1Encoding def currentdict end /idltmpfont
exch definefont exch scalefont setfont } bdef /ISOBULLET { gsave /Helvetica
findfont exch scalefont setfont (\267) show currentpoint grestore moveto}
bdef /MITERLIMIT { 2.5 setmiterlimit } bdef end
%%EndProlog
%%Page: 0 1
%%PageRequirements: color
%%PageResources: (atend)
%%PageOrientation: Portrait
%%PageBoundingBox: 0 0 453 226
%%BeginPageSetup
$IDL_DICT begin 0.0283465 dup scale MITERLIMIT
%%IncludeResource: font Helvetica
423.333 /Helvetica STDFONT
%%EndPageSetup
0.000 0.000 0.000 setrgbcolor gsave 8800 48 translate 0 0 M 1.2 dup scale
-411.48 0 N
(m/M) show grestore gsave 539 4520 translate 0 0 M 90 rotate 1.2 dup scale
-1164.17 0 N
(dN/dln\(m/M\)) show grestore 40 setlinewidth L0 1760 1280 M 7040 0 R D
2348 1280 M 0 259 R D gsave 2348 641 translate 0 0 M 1.21 dup scale
-352.04 0 N
(10) show X 192.937 M
%%IncludeResource: font Helvetica
262.467 /Helvetica STDFONT
(-4) show grestore
%%IncludeResource: font Helvetica
423.333 /Helvetica STDFONT 4303 1280 M 0 259 R D
gsave 4303 641 translate 0 0 M 1.21 dup scale -352.04 0 N
(10) show X 192.937 M
%%IncludeResource: font Helvetica
262.467 /Helvetica STDFONT
(-3) show grestore
%%IncludeResource: font Helvetica
423.333 /Helvetica STDFONT 6257 1280 M 0 259 R D
gsave 6257 641 translate 0 0 M 1.21 dup scale -352.04 0 N
(10) show X 192.937 M
%%IncludeResource: font Helvetica
262.467 /Helvetica STDFONT
(-2) show grestore
%%IncludeResource: font Helvetica
423.333 /Helvetica STDFONT 8212 1280 M 0 259 R D
gsave 8212 641 translate 0 0 M 1.21 dup scale -352.04 0 N
(10) show X 192.937 M
%%IncludeResource: font Helvetica
262.467 /Helvetica STDFONT
(-1) show grestore
%%IncludeResource: font Helvetica
423.333 /Helvetica STDFONT 1760 1280 M 0 130 R D 1915 1280 M 0 130 R D
2046 1280 M 0 130 R D 2159 1280 M 0 130 R D 2259 1280 M 0 130 R D
2937 1280 M 0 130 R D 3281 1280 M 0 130 R D 3525 1280 M 0 130 R D
3714 1280 M 0 130 R D 3869 1280 M 0 130 R D 4000 1280 M 0 130 R D
4113 1280 M 0 130 R D 4213 1280 M 0 130 R D 4891 1280 M 0 130 R D
5235 1280 M 0 130 R D 5480 1280 M 0 130 R D 5669 1280 M 0 130 R D
5824 1280 M 0 130 R D 5955 1280 M 0 130 R D 6068 1280 M 0 130 R D
6168 1280 M 0 130 R D 6846 1280 M 0 130 R D 7190 1280 M 0 130 R D
7434 1280 M 0 130 R D 7623 1280 M 0 130 R D 7778 1280 M 0 130 R D
7909 1280 M 0 130 R D 8022 1280 M 0 130 R D 8122 1280 M 0 130 R D
8800 1280 M 0 130 R D 1760 7760 M 7040 0 R D 2348 7760 M 0 -259 R D
4303 7760 M 0 -259 R D 6257 7760 M 0 -259 R D 8212 7760 M 0 -259 R D
1760 7760 M 0 -130 R D 1915 7760 M 0 -130 R D 2046 7760 M 0 -130 R D
2159 7760 M 0 -130 R D 2259 7760 M 0 -130 R D 2937 7760 M 0 -130 R D
3281 7760 M 0 -130 R D 3525 7760 M 0 -130 R D 3714 7760 M 0 -130 R D
3869 7760 M 0 -130 R D 4000 7760 M 0 -130 R D 4113 7760 M 0 -130 R D
4213 7760 M 0 -130 R D 4891 7760 M 0 -130 R D 5235 7760 M 0 -130 R D
5480 7760 M 0 -130 R D 5669 7760 M 0 -130 R D 5824 7760 M 0 -130 R D
5955 7760 M 0 -130 R D 6068 7760 M 0 -130 R D 6168 7760 M 0 -130 R D
6846 7760 M 0 -130 R D 7190 7760 M 0 -130 R D 7434 7760 M 0 -130 R D
7623 7760 M 0 -130 R D 7778 7760 M 0 -130 R D 7909 7760 M 0 -130 R D
8022 7760 M 0 -130 R D 8122 7760 M 0 -130 R D 8800 7760 M 0 -130 R D
1760 1280 M 0 6480 R D 1760 2164 M 282 0 R D gsave 1626 1994 translate 0 0 M
1.21 dup scale -704.08 0 N
(10) show X 192.937 M
%%IncludeResource: font Helvetica
262.467 /Helvetica STDFONT
(-1) show grestore
%%IncludeResource: font Helvetica
423.333 /Helvetica STDFONT 1760 3859 M 282 0 R D
gsave 1626 3689 translate 0 0 M 1.21 dup scale -235.373 0 N
(1) show grestore 1760 5554 M 282 0 R D gsave 1626 5384 translate 0 0 M
1.21 dup scale -470.747 0 N
(10) show grestore 1760 7250 M 282 0 R D gsave 1626 7079 translate 0 0 M
1.21 dup scale -616.678 0 N
(10) show X 192.937 M
%%IncludeResource: font Helvetica
262.467 /Helvetica STDFONT
(2) show grestore
%%IncludeResource: font Helvetica
423.333 /Helvetica STDFONT 1760 1489 M 141 0 R D 1760 1654 M 141 0 R D
1760 1788 M 141 0 R D 1760 1901 M 141 0 R D 1760 2000 M 141 0 R D
1760 2086 M 141 0 R D 1760 2674 M 141 0 R D 1760 2973 M 141 0 R D
1760 3185 M 141 0 R D 1760 3349 M 141 0 R D 1760 3483 M 141 0 R D
1760 3597 M 141 0 R D 1760 3695 M 141 0 R D 1760 3782 M 141 0 R D
1760 4370 M 141 0 R D 1760 4668 M 141 0 R D 1760 4880 M 141 0 R D
1760 5044 M 141 0 R D 1760 5178 M 141 0 R D 1760 5292 M 141 0 R D
1760 5390 M 141 0 R D 1760 5477 M 141 0 R D 1760 6065 M 141 0 R D
1760 6363 M 141 0 R D 1760 6575 M 141 0 R D 1760 6739 M 141 0 R D
1760 6874 M 141 0 R D 1760 6987 M 141 0 R D 1760 7085 M 141 0 R D
1760 7172 M 141 0 R D 1760 7760 M 141 0 R D 8800 1280 M 0 6480 R D
8800 2164 M -282 0 R D 8800 3859 M -282 0 R D 8800 5554 M -282 0 R D
8800 7250 M -282 0 R D 8800 1489 M -141 0 R D 8800 1654 M -141 0 R D
8800 1788 M -141 0 R D 8800 1901 M -141 0 R D 8800 2000 M -141 0 R D
8800 2086 M -141 0 R D 8800 2674 M -141 0 R D 8800 2973 M -141 0 R D
8800 3185 M -141 0 R D 8800 3349 M -141 0 R D 8800 3483 M -141 0 R D
8800 3597 M -141 0 R D 8800 3695 M -141 0 R D 8800 3782 M -141 0 R D
8800 4370 M -141 0 R D 8800 4668 M -141 0 R D 8800 4880 M -141 0 R D
8800 5044 M -141 0 R D 8800 5178 M -141 0 R D 8800 5292 M -141 0 R D
8800 5390 M -141 0 R D 8800 5477 M -141 0 R D 8800 6065 M -141 0 R D
8800 6363 M -141 0 R D 8800 6575 M -141 0 R D 8800 6739 M -141 0 R D
8800 6874 M -141 0 R D 8800 6987 M -141 0 R D 8800 7085 M -141 0 R D
8800 7172 M -141 0 R D 8800 7760 M -141 0 R D 2348 6407 M 587 -354 R
586 -387 R 586 -426 R 587 -442 R 586 -413 R 586 -439 R 587 -440 R 586 -376 R
586 -441 R 587 -436 R D L1 2348 7026 M 587 -425 R 586 -414 R 586 -450 R
587 -469 R 586 -422 R 586 -421 R 587 -515 R 586 -383 R 586 -333 R 587 -211 R
D L2 2348 6474 M 587 -401 R 586 -458 R 586 -413 R 587 -490 R 586 -349 R
586 -351 R 587 -502 R 586 -563 R 586 -165 R 587 -98 R D L3 2348 5957 M
587 -380 R 586 -482 R 586 -350 R 587 -398 R 586 -447 R 586 -309 R 587 -480 R
586 -482 R 586 -122 R 587 0 R D gsave 8212 6987 translate 0 0 M
1.1 dup scale -752.263 0 N
(MW) show grestore L0 8800 1280 M 7040 0 R D 9388 1280 M 0 259 R D
gsave 9388 641 translate 0 0 M 1.21 dup scale -352.04 0 N
(10) show X 192.937 M
%%IncludeResource: font Helvetica
262.467 /Helvetica STDFONT
(-4) show grestore
%%IncludeResource: font Helvetica
423.333 /Helvetica STDFONT 11343 1280 M 0 259 R D
gsave 11343 641 translate 0 0 M 1.21 dup scale -352.04 0 N
(10) show X 192.937 M
%%IncludeResource: font Helvetica
262.467 /Helvetica STDFONT
(-3) show grestore
%%IncludeResource: font Helvetica
423.333 /Helvetica STDFONT 13297 1280 M 0 259 R D
gsave 13297 641 translate 0 0 M 1.21 dup scale -352.04 0 N
(10) show X 192.937 M
%%IncludeResource: font Helvetica
262.467 /Helvetica STDFONT
(-2) show grestore
%%IncludeResource: font Helvetica
423.333 /Helvetica STDFONT 15252 1280 M 0 259 R D
gsave 15252 641 translate 0 0 M 1.21 dup scale -352.04 0 N
(10) show X 192.937 M
%%IncludeResource: font Helvetica
262.467 /Helvetica STDFONT
(-1) show grestore
%%IncludeResource: font Helvetica
423.333 /Helvetica STDFONT 8800 1280 M 0 130 R D 8955 1280 M 0 130 R D
9086 1280 M 0 130 R D 9199 1280 M 0 130 R D 9299 1280 M 0 130 R D
9977 1280 M 0 130 R D 10321 1280 M 0 130 R D 10565 1280 M 0 130 R D
10755 1280 M 0 130 R D 10909 1280 M 0 130 R D 11040 1280 M 0 130 R D
11153 1280 M 0 130 R D 11253 1280 M 0 130 R D 11931 1280 M 0 130 R D
12275 1280 M 0 130 R D 12520 1280 M 0 130 R D 12709 1280 M 0 130 R D
12864 1280 M 0 130 R D 12995 1280 M 0 130 R D 13108 1280 M 0 130 R D
13208 1280 M 0 130 R D 13886 1280 M 0 130 R D 14230 1280 M 0 130 R D
14474 1280 M 0 130 R D 14663 1280 M 0 130 R D 14818 1280 M 0 130 R D
14949 1280 M 0 130 R D 15062 1280 M 0 130 R D 15162 1280 M 0 130 R D
15840 1280 M 0 130 R D 8800 7760 M 7040 0 R D 9388 7760 M 0 -259 R D
11343 7760 M 0 -259 R D 13297 7760 M 0 -259 R D 15252 7760 M 0 -259 R D
8800 7760 M 0 -130 R D 8955 7760 M 0 -130 R D 9086 7760 M 0 -130 R D
9199 7760 M 0 -130 R D 9299 7760 M 0 -130 R D 9977 7760 M 0 -130 R D
10321 7760 M 0 -130 R D 10565 7760 M 0 -130 R D 10755 7760 M 0 -130 R D
10909 7760 M 0 -130 R D 11040 7760 M 0 -130 R D 11153 7760 M 0 -130 R D
11253 7760 M 0 -130 R D 11931 7760 M 0 -130 R D 12275 7760 M 0 -130 R D
12520 7760 M 0 -130 R D 12709 7760 M 0 -130 R D 12864 7760 M 0 -130 R D
12995 7760 M 0 -130 R D 13108 7760 M 0 -130 R D 13208 7760 M 0 -130 R D
13886 7760 M 0 -130 R D 14230 7760 M 0 -130 R D 14474 7760 M 0 -130 R D
14663 7760 M 0 -130 R D 14818 7760 M 0 -130 R D 14949 7760 M 0 -130 R D
15062 7760 M 0 -130 R D 15162 7760 M 0 -130 R D 15840 7760 M 0 -130 R D
8800 1280 M 0 6480 R D 8800 2164 M 282 0 R D gsave 8666 1994 translate 0 0 M
1.21 dup scale -117.687 0 N
( ) show grestore 8800 3859 M 282 0 R D gsave 8666 3689 translate 0 0 M
1.21 dup scale -117.687 0 N
( ) show grestore 8800 5554 M 282 0 R D gsave 8666 5384 translate 0 0 M
1.21 dup scale -117.687 0 N
( ) show grestore 8800 7250 M 282 0 R D gsave 8666 7079 translate 0 0 M
1.21 dup scale -117.687 0 N
( ) show grestore 8800 1489 M 141 0 R D 8800 1654 M 141 0 R D 8800 1788 M
141 0 R D 8800 1901 M 141 0 R D 8800 2000 M 141 0 R D 8800 2086 M 141 0 R D
8800 2674 M 141 0 R D 8800 2973 M 141 0 R D 8800 3185 M 141 0 R D
8800 3349 M 141 0 R D 8800 3483 M 141 0 R D 8800 3597 M 141 0 R D
8800 3695 M 141 0 R D 8800 3782 M 141 0 R D 8800 4370 M 141 0 R D
8800 4668 M 141 0 R D 8800 4880 M 141 0 R D 8800 5044 M 141 0 R D
8800 5178 M 141 0 R D 8800 5292 M 141 0 R D 8800 5390 M 141 0 R D
8800 5477 M 141 0 R D 8800 6065 M 141 0 R D 8800 6363 M 141 0 R D
8800 6575 M 141 0 R D 8800 6739 M 141 0 R D 8800 6874 M 141 0 R D
8800 6987 M 141 0 R D 8800 7085 M 141 0 R D 8800 7172 M 141 0 R D
8800 7760 M 141 0 R D 15840 1280 M 0 6480 R D 15840 2164 M -281 0 R D
15840 3859 M -281 0 R D 15840 5554 M -281 0 R D 15840 7250 M -281 0 R D
15840 1489 M -141 0 R D 15840 1654 M -141 0 R D 15840 1788 M -141 0 R D
15840 1901 M -141 0 R D 15840 2000 M -141 0 R D 15840 2086 M -141 0 R D
15840 2674 M -141 0 R D 15840 2973 M -141 0 R D 15840 3185 M -141 0 R D
15840 3349 M -141 0 R D 15840 3483 M -141 0 R D 15840 3597 M -141 0 R D
15840 3695 M -141 0 R D 15840 3782 M -141 0 R D 15840 4370 M -141 0 R D
15840 4668 M -141 0 R D 15840 4880 M -141 0 R D 15840 5044 M -141 0 R D
15840 5178 M -141 0 R D 15840 5292 M -141 0 R D 15840 5390 M -141 0 R D
15840 5477 M -141 0 R D 15840 6065 M -141 0 R D 15840 6363 M -141 0 R D
15840 6575 M -141 0 R D 15840 6739 M -141 0 R D 15840 6874 M -141 0 R D
15840 6987 M -141 0 R D 15840 7085 M -141 0 R D 15840 7172 M -141 0 R D
15840 7760 M -141 0 R D 9388 6970 M 587 -324 R 586 -379 R 586 -407 R
587 -426 R 586 -419 R 586 -422 R 587 -380 R 586 -461 R 586 -443 R 587 -392 R
D L1 9388 7481 M 587 -404 R 586 -425 R 586 -392 R 587 -435 R 586 -373 R
586 -497 R 587 -403 R 586 -350 R 586 -235 R 587 -303 R D L2 9388 7107 M
587 -396 R 586 -389 R 586 -444 R 587 -391 R 586 -448 R 586 -401 R 587 -436 R
586 -376 R 586 -533 R 587 -99 R D L3 9388 6772 M 587 -374 R 586 -418 R
586 -420 R 587 -428 R 586 -420 R 586 -359 R 587 -474 R 586 -319 R 586 -366 R
587 -177 R D gsave 15252 6987 translate 0 0 M 1.1 dup scale -1340.7 0 N
(Cluster) show grestore L0 9240 3252 M 76 0 R 77 0 R 77 0 R 77 0 R 77 0 R
77 0 R 77 0 R 77 0 R 77 0 R D L1 9240 2798 M 76 0 R 77 0 R 77 0 R 77 0 R
77 0 R 77 0 R 77 0 R 77 0 R 77 0 R D L2 9240 2344 M 76 0 R 77 0 R 77 0 R
77 0 R 77 0 R 77 0 R 77 0 R 77 0 R 77 0 R D L3 9240 1889 M 76 0 R 77 0 R
77 0 R 77 0 R 77 0 R 77 0 R 77 0 R 77 0 R 77 0 R D
gsave 10009 3102 translate 0 0 M 1.1 dup scale
(SIM) show grestore gsave 10009 2648 translate 0 0 M 1.1 dup scale
(A=1.) show grestore gsave 10009 2194 translate 0 0 M 1.1 dup scale
(A=3.5) show grestore gsave 10009 1740 translate 0 0 M 1.1 dup scale
(A=10.) show grestore
%%PageTrailer
end
%%PageResources: font Helvetica
%%Trailer
%%Pages: 1
%%DocumentNeededResources: font Helvetica
%%EOF
