%!PS-Adobe-3.0 EPSF-3.0
%%BoundingBox: 0 0 283 226
%%Title: Graphics produced by IDL
%%For: dacia@Lserver, /home/dacia/work/subhalo_model
%%Creator: IDL Version 7.0 (linux x86_64 m64)
%%CreationDate: Sun Jun 13 16:30:50 2010
%%DocumentData: Clean7bit
%%Requirements: color
%%LanguageLevel: 1
%%PageOrder: Ascend
%%Pages: (atend)
%%DocumentNeededResources: (atend)
%%EndComments
%%BeginProlog
%+ prolog.ps -- Prolog for IDL generated PostScript files
%+ Copyright (c) 1988-2007 ITT Visual Information Solutions. All Rights Reserved.
%v 5
/$IDL_DICT 40 dict def $IDL_DICT begin /bdef { bind def } bind def /C
{currentpoint newpath moveto} bdef /CP {currentpoint} bdef /D {currentpoint
stroke moveto} bdef /F {closepath fill} bdef /K { setgray } bdef /M {moveto}
bdef /N {rmoveto} bdef /P {lineto} bdef /R {rlineto} bdef /S {gsave show
grestore} bdef /X {currentpoint pop} bdef /Z {gsave currentpoint lineto 20
setlinewidth 1 setlinecap stroke grestore} bdef /L0 {[] 0 setdash} bdef /L1
{[40 100] 0 setdash} bdef /L2 {[200 200] 0 setdash} bdef /L3 {[200 100 50
100] 0 setdash} bdef /L4 {[300 100 50 100 50 100 50 100] 0 setdash} bdef /L5
{[400 200] 0 setdash} bdef /STDFONT { findfont exch scalefont setfont } bdef
/ISOFONT { findfont dup length dict begin { 1 index /FID ne {def} {pop pop}
ifelse } forall /Encoding ISOLatin1Encoding def currentdict end /idltmpfont
exch definefont exch scalefont setfont } bdef /ISOBULLET { gsave /Helvetica
findfont exch scalefont setfont (\267) show currentpoint grestore moveto}
bdef /MITERLIMIT { 2.5 setmiterlimit } bdef end
%%EndProlog
%%Page: 0 1
%%PageRequirements: color
%%PageResources: (atend)
%%PageOrientation: Portrait
%%PageBoundingBox: 0 0 283 226
%%BeginPageSetup
$IDL_DICT begin 0.0283465 dup scale MITERLIMIT
%%IncludeResource: font Helvetica
423.333 /Helvetica STDFONT
%%EndPageSetup
40 setlinewidth L0 0.000 0.000 0.000 setrgbcolor 2100 1360 M 7500 0 R D
3835 1360 M 0 256 R D gsave 3835 721 translate 0 0 M 1.21 dup scale
-294.217 0 N
(0.1) show grestore 9600 1360 M 0 256 R D gsave 9600 721 translate 0 0 M
1.21 dup scale -294.217 0 N
(1.0) show grestore 2100 1360 M 0 128 R D 2556 1360 M 0 128 R D 2942 1360 M
0 128 R D 3277 1360 M 0 128 R D 3572 1360 M 0 128 R D 5571 1360 M 0 128 R D
6586 1360 M 0 128 R D 7306 1360 M 0 128 R D 7865 1360 M 0 128 R D
8321 1360 M 0 128 R D 8707 1360 M 0 128 R D 9041 1360 M 0 128 R D
9336 1360 M 0 128 R D gsave 5850 167 translate 0 0 M 1.21 dup scale
-420.603 0 N
(r/R) show X -101.051 M
%%IncludeResource: font Helvetica
262.467 /Helvetica STDFONT
(vir) show grestore
%%IncludeResource: font Helvetica
423.333 /Helvetica STDFONT 2100 7760 M 7500 0 R D 3835 7760 M 0 -256 R D
9600 7760 M 0 -256 R D 2100 7760 M 0 -128 R D 2556 7760 M 0 -128 R D
2942 7760 M 0 -128 R D 3277 7760 M 0 -128 R D 3572 7760 M 0 -128 R D
5571 7760 M 0 -128 R D 6586 7760 M 0 -128 R D 7306 7760 M 0 -128 R D
7865 7760 M 0 -128 R D 8321 7760 M 0 -128 R D 8707 7760 M 0 -128 R D
9041 7760 M 0 -128 R D 9336 7760 M 0 -128 R D 2100 1360 M 0 6400 R D
2100 2665 M 300 0 R D gsave 1966 2495 translate 0 0 M 1.21 dup scale
-823.807 0 N
(0.01) show grestore 2100 5161 M 300 0 R D gsave 1966 4990 translate 0 0 M
1.21 dup scale -823.807 0 N
(0.10) show grestore 2100 7657 M 300 0 R D gsave 1966 7462 translate 0 0 M
1.21 dup scale -823.807 0 N
(1.00) show grestore 2100 1360 M 150 0 R D 2100 1672 M 150 0 R D 2100 1914 M
150 0 R D 2100 2111 M 150 0 R D 2100 2278 M 150 0 R D 2100 2423 M 150 0 R D
2100 2551 M 150 0 R D 2100 3416 M 150 0 R D 2100 3856 M 150 0 R D
2100 4168 M 150 0 R D 2100 4410 M 150 0 R D 2100 4607 M 150 0 R D
2100 4774 M 150 0 R D 2100 4919 M 150 0 R D 2100 5047 M 150 0 R D
2100 5912 M 150 0 R D 2100 6352 M 150 0 R D 2100 6663 M 150 0 R D
2100 6905 M 150 0 R D 2100 7103 M 150 0 R D 2100 7270 M 150 0 R D
2100 7415 M 150 0 R D 2100 7542 M 150 0 R D gsave 567 4560 translate 0 0 M
90 rotate 1.21 dup scale -1255.42 0 N
(N\(<r\)/N\(<R) show X -101.051 M
%%IncludeResource: font Helvetica
262.467 /Helvetica STDFONT
(vir) show X 0 M
%%IncludeResource: font Helvetica
423.333 /Helvetica STDFONT
(\)) show grestore 9600 1360 M 0 6400 R D 9600 2665 M -300 0 R D 9600 5161 M
-300 0 R D 9600 7657 M -300 0 R D 9600 1360 M -150 0 R D 9600 1672 M
-150 0 R D 9600 1914 M -150 0 R D 9600 2111 M -150 0 R D 9600 2278 M
-150 0 R D 9600 2423 M -150 0 R D 9600 2551 M -150 0 R D 9600 3416 M
-150 0 R D 9600 3856 M -150 0 R D 9600 4168 M -150 0 R D 9600 4410 M
-150 0 R D 9600 4607 M -150 0 R D 9600 4774 M -150 0 R D 9600 4919 M
-150 0 R D 9600 5047 M -150 0 R D 9600 5912 M -150 0 R D 9600 6352 M
-150 0 R D 9600 6663 M -150 0 R D 9600 6905 M -150 0 R D 9600 7103 M
-150 0 R D 9600 7270 M -150 0 R D 9600 7415 M -150 0 R D 9600 7542 M
-150 0 R D L5 2099 4368 M 1096 703 R 1281 717 R 1281 609 R 1281 505 R
1281 415 R 1280 339 R D L0 2955 1360 M 240 282 R 1281 1449 R 1281 1362 R
1281 1244 R 1281 1084 R 1280 875 R D 3195 4417 M 111 0 R 0 -222 R -222 0 R
0 222 R 222 0 R D 4476 5608 M 111 0 R 0 -222 R -222 0 R 0 222 R 222 0 R D
3195 4306 M 1281 1191 R D 5757 6799 M 111 0 R 0 -222 R -222 0 R 0 222 R
222 0 R D 4476 5497 M 1281 1191 R D 7038 7353 M 111 0 R 0 -222 R -222 0 R
0 222 R 222 0 R D 5757 6688 M 1281 554 R D 8319 7609 M 111 0 R 0 -222 R
-222 0 R 0 222 R 222 0 R D 7038 7242 M 1281 256 R D 9599 7546 M -110 0 R
0 214 R D 8319 7498 M 1280 158 R D L2 2895 1360 M 300 516 R 1281 1590 R
1281 1545 R 1281 1126 R 1281 851 R 1280 668 R D L1 2099 4913 M 1096 549 R
1281 570 R 1281 529 R 1281 461 R 1281 361 R 1280 273 R D L0 6537 3820 M
109 0 R 110 0 R 109 0 R 109 0 R 109 0 R 110 0 R 109 0 R 109 0 R 109 0 R D
7072 3931 M 111 0 R 0 -222 R -222 0 R 0 222 R 222 0 R -111 0 R D 7183 3931 M
0 -222 R -222 0 R 0 222 R 222 0 R D gsave 7629 3670 translate 0 0 M
1.1 dup scale
(MW) show grestore L5 6537 3309 M 109 0 R 110 0 R 109 0 R 109 0 R 109 0 R
110 0 R 109 0 R 109 0 R 109 0 R D L1 6537 2855 M 109 0 R 110 0 R 109 0 R
109 0 R 109 0 R 110 0 R 109 0 R 109 0 R 109 0 R D L2 6537 2400 M 109 0 R
110 0 R 109 0 R 109 0 R 109 0 R 110 0 R 109 0 R 109 0 R 109 0 R D L0
6537 1946 M 109 0 R 110 0 R 109 0 R 109 0 R 109 0 R 110 0 R 109 0 R 109 0 R
109 0 R D gsave 7629 3159 translate 0 0 M 1.1 dup scale
(DM) show grestore gsave 7629 2705 translate 0 0 M 1.1 dup scale
(Model) show grestore gsave 7629 2250 translate 0 0 M 1.1 dup scale
(Model) show grestore gsave 7629 1796 translate 0 0 M 1.1 dup scale
(SIM) show grestore
%%PageTrailer
end
%%PageResources: font Helvetica
%%Trailer
%%Pages: 1
%%DocumentNeededResources: font Helvetica
%%EOF
