%!PS-Adobe-3.0 EPSF-3.0
%%BoundingBox: 0 0 283 226
%%Title: Graphics produced by IDL
%%For: dacia@Lserver, /home/dacia/work/subhalo_model
%%Creator: IDL Version 7.0 (linux x86_64 m64)
%%CreationDate: Sun Jun 13 16:30:50 2010
%%DocumentData: Clean7bit
%%Requirements: color
%%LanguageLevel: 1
%%PageOrder: Ascend
%%Pages: (atend)
%%DocumentNeededResources: (atend)
%%EndComments
%%BeginProlog
%+ prolog.ps -- Prolog for IDL generated PostScript files
%+ Copyright (c) 1988-2007 ITT Visual Information Solutions. All Rights Reserved.
%v 5
/$IDL_DICT 40 dict def $IDL_DICT begin /bdef { bind def } bind def /C
{currentpoint newpath moveto} bdef /CP {currentpoint} bdef /D {currentpoint
stroke moveto} bdef /F {closepath fill} bdef /K { setgray } bdef /M {moveto}
bdef /N {rmoveto} bdef /P {lineto} bdef /R {rlineto} bdef /S {gsave show
grestore} bdef /X {currentpoint pop} bdef /Z {gsave currentpoint lineto 20
setlinewidth 1 setlinecap stroke grestore} bdef /L0 {[] 0 setdash} bdef /L1
{[40 100] 0 setdash} bdef /L2 {[200 200] 0 setdash} bdef /L3 {[200 100 50
100] 0 setdash} bdef /L4 {[300 100 50 100 50 100 50 100] 0 setdash} bdef /L5
{[400 200] 0 setdash} bdef /STDFONT { findfont exch scalefont setfont } bdef
/ISOFONT { findfont dup length dict begin { 1 index /FID ne {def} {pop pop}
ifelse } forall /Encoding ISOLatin1Encoding def currentdict end /idltmpfont
exch definefont exch scalefont setfont } bdef /ISOBULLET { gsave /Helvetica
findfont exch scalefont setfont (\267) show currentpoint grestore moveto}
bdef /MITERLIMIT { 2.5 setmiterlimit } bdef end
%%EndProlog
%%Page: 0 1
%%PageRequirements: color
%%PageResources: (atend)
%%PageOrientation: Portrait
%%PageBoundingBox: 0 0 283 226
%%BeginPageSetup
$IDL_DICT begin 0.0283465 dup scale MITERLIMIT
%%IncludeResource: font Helvetica
423.333 /Helvetica STDFONT
%%EndPageSetup
40 setlinewidth L0 0.000 0.000 0.000 setrgbcolor 2000 1440 M 7700 0 R D
2000 1440 M 0 253 R D gsave 2000 801 translate 0 0 M 1.21 dup scale
-305.858 0 N
(-20) show grestore 3925 1440 M 0 253 R D gsave 3925 801 translate 0 0 M
1.21 dup scale -305.858 0 N
(-15) show grestore 5850 1440 M 0 253 R D gsave 5850 801 translate 0 0 M
1.21 dup scale -305.858 0 N
(-10) show grestore 7775 1440 M 0 253 R D gsave 7775 801 translate 0 0 M
1.21 dup scale -188.172 0 N
(-5) show grestore 9700 1440 M 0 253 R D gsave 9700 801 translate 0 0 M
1.21 dup scale -117.687 0 N
(0) show grestore 2385 1440 M 0 126 R D 2770 1440 M 0 126 R D 3155 1440 M
0 126 R D 3540 1440 M 0 126 R D 4310 1440 M 0 126 R D 4695 1440 M 0 126 R D
5080 1440 M 0 126 R D 5465 1440 M 0 126 R D 6235 1440 M 0 126 R D
6620 1440 M 0 126 R D 7005 1440 M 0 126 R D 7390 1440 M 0 126 R D
8160 1440 M 0 126 R D 8545 1440 M 0 126 R D 8930 1440 M 0 126 R D
9315 1440 M 0 126 R D gsave 5850 247 translate 0 0 M 1.21 dup scale
-241.935 0 N
(M) show X -101.051 M
%%IncludeResource: font Helvetica
262.467 /Helvetica STDFONT
(v) show grestore
%%IncludeResource: font Helvetica
423.333 /Helvetica STDFONT 2000 7760 M 7700 0 R D 2000 7760 M 0 -253 R D
3925 7760 M 0 -253 R D 5850 7760 M 0 -253 R D 7775 7760 M 0 -253 R D
9700 7760 M 0 -253 R D 2385 7760 M 0 -126 R D 2770 7760 M 0 -126 R D
3155 7760 M 0 -126 R D 3540 7760 M 0 -126 R D 4310 7760 M 0 -126 R D
4695 7760 M 0 -126 R D 5080 7760 M 0 -126 R D 5465 7760 M 0 -126 R D
6235 7760 M 0 -126 R D 6620 7760 M 0 -126 R D 7005 7760 M 0 -126 R D
7390 7760 M 0 -126 R D 8160 7760 M 0 -126 R D 8545 7760 M 0 -126 R D
8930 7760 M 0 -126 R D 9315 7760 M 0 -126 R D 2000 1440 M 0 6320 R D
2000 1440 M 308 0 R D gsave 1866 1440 translate 0 0 M 1.21 dup scale
-235.373 0 N
(0) show grestore 2000 2610 M 308 0 R D gsave 1866 2440 translate 0 0 M
1.21 dup scale -470.747 0 N
(50) show grestore 2000 3781 M 308 0 R D gsave 1866 3610 translate 0 0 M
1.21 dup scale -706.12 0 N
(100) show grestore 2000 4951 M 308 0 R D gsave 1866 4781 translate 0 0 M
1.21 dup scale -706.12 0 N
(150) show grestore 2000 6121 M 308 0 R D gsave 1866 5951 translate 0 0 M
1.21 dup scale -706.12 0 N
(200) show grestore 2000 7292 M 308 0 R D gsave 1866 7121 translate 0 0 M
1.21 dup scale -706.12 0 N
(250) show grestore 2000 1674 M 154 0 R D 2000 1908 M 154 0 R D 2000 2142 M
154 0 R D 2000 2376 M 154 0 R D 2000 2844 M 154 0 R D 2000 3079 M 154 0 R D
2000 3313 M 154 0 R D 2000 3547 M 154 0 R D 2000 4015 M 154 0 R D
2000 4249 M 154 0 R D 2000 4483 M 154 0 R D 2000 4717 M 154 0 R D
2000 5185 M 154 0 R D 2000 5419 M 154 0 R D 2000 5653 M 154 0 R D
2000 5887 M 154 0 R D 2000 6356 M 154 0 R D 2000 6590 M 154 0 R D
2000 6824 M 154 0 R D 2000 7058 M 154 0 R D 2000 7526 M 154 0 R D
2000 7760 M 154 0 R D gsave 609 4600 translate 0 0 M 90 rotate
1.21 dup scale -623.57 0 N
(d / kpc) show grestore 9700 1440 M 0 6320 R D 9700 1440 M -308 0 R D
9700 2610 M -308 0 R D 9700 3781 M -308 0 R D 9700 4951 M -308 0 R D
9700 6121 M -308 0 R D 9700 7292 M -308 0 R D 9700 1674 M -154 0 R D
9700 1908 M -154 0 R D 9700 2142 M -154 0 R D 9700 2376 M -154 0 R D
9700 2844 M -154 0 R D 9700 3079 M -154 0 R D 9700 3313 M -154 0 R D
9700 3547 M -154 0 R D 9700 4015 M -154 0 R D 9700 4249 M -154 0 R D
9700 4483 M -154 0 R D 9700 4717 M -154 0 R D 9700 5185 M -154 0 R D
9700 5419 M -154 0 R D 9700 5653 M -154 0 R D 9700 5887 M -154 0 R D
9700 6356 M -154 0 R D 9700 6590 M -154 0 R D 9700 6824 M -154 0 R D
9700 7058 M -154 0 R D 9700 7526 M -154 0 R D 9700 7760 M -154 0 R D
7275 2955 M 111 0 R 0 -222 R -222 0 R 0 222 R 222 0 R D 8661 2558 M 111 0 R
0 -222 R -222 0 R 0 222 R 222 0 R D 6389 6794 M 111 0 R 0 -222 R -222 0 R
0 222 R 222 0 R D 7814 5086 M 111 0 R 0 -222 R -222 0 R 0 222 R 222 0 R D
6081 3915 M 111 0 R 0 -222 R -222 0 R 0 222 R 222 0 R D 8122 2581 M 111 0 R
0 -222 R -222 0 R 0 222 R 222 0 R D 6081 3400 M 111 0 R 0 -222 R -222 0 R
0 222 R 222 0 R D 4657 4781 M 111 0 R 0 -222 R -222 0 R 0 222 R 222 0 R D
7159 4781 M 111 0 R 0 -222 R -222 0 R 0 222 R 222 0 R D 2578 2698 M 111 0 R
0 -222 R -222 0 R 0 222 R 222 0 R D 5119 7520 M 111 0 R 0 -222 R -222 0 R
0 222 R 222 0 R D 5812 7005 M 111 0 R 0 -222 R -222 0 R 0 222 R 222 0 R D
7775 5249 M 111 0 R 0 -222 R -222 0 R 0 222 R 222 0 R D 3117 2909 M 111 0 R
0 -222 R -223 0 R 0 222 R 223 0 R D 3925 2113 M 111 0 R 0 -222 R -222 0 R
0 222 R 222 0 R D 5927 3400 M 111 0 R 0 -222 R -222 0 R 0 222 R 222 0 R D
9123 2089 M 111 0 R 0 -222 R -222 0 R 0 222 R 222 0 R D 6043 3564 M 111 0 R
0 -222 R -222 0 R 0 222 R 222 0 R D 7583 4032 M 111 0 R 0 -222 R -222 0 R
0 222 R 222 0 R D 8083 2300 M 111 0 R 0 -222 R -222 0 R 0 222 R 222 0 R D
6274 3096 M 111 0 R 0 -222 R -222 0 R 0 222 R 222 0 R D 8661 2440 M 111 0 R
0 -222 R -222 0 R 0 222 R 222 0 R D 7521 7760 M 23 -194 R 77 -610 R
77 -550 R 77 -495 R 77 -446 R 77 -401 R 77 -361 R 77 -325 R 77 -293 R
77 -264 R 77 -237 R 77 -214 R 77 -192 R 77 -173 R 77 -156 R 77 -141 R
77 -126 R 77 -114 R 77 -102 R 77 -93 R 77 -83 R 77 -75 R 77 -67 R 77 -60 R
77 -55 R 77 -49 R 77 -44 R 77 -40 R 77 -36 R D
%%PageTrailer
end
%%PageResources: font Helvetica
%%Trailer
%%Pages: 1
%%DocumentNeededResources: font Helvetica
%%EOF
