%!PS-Adobe-3.0 EPSF-3.0
%%BoundingBox: 0 0 510 170
%%Title: Graphics produced by IDL
%%For: dacia@Lserver, /home/dacia/work/subhalo_model
%%Creator: IDL Version 7.0 (linux x86_64 m64)
%%CreationDate: Wed Jan  6 11:09:19 2010
%%DocumentData: Clean7bit
%%Requirements: color
%%LanguageLevel: 1
%%PageOrder: Ascend
%%Pages: (atend)
%%DocumentNeededResources: (atend)
%%EndComments
%%BeginProlog
%+ prolog.ps -- Prolog for IDL generated PostScript files
%+ Copyright (c) 1988-2007 ITT Visual Information Solutions. All Rights Reserved.
%v 5
/$IDL_DICT 40 dict def $IDL_DICT begin /bdef { bind def } bind def /C
{currentpoint newpath moveto} bdef /CP {currentpoint} bdef /D {currentpoint
stroke moveto} bdef /F {closepath fill} bdef /K { setgray } bdef /M {moveto}
bdef /N {rmoveto} bdef /P {lineto} bdef /R {rlineto} bdef /S {gsave show
grestore} bdef /X {currentpoint pop} bdef /Z {gsave currentpoint lineto 20
setlinewidth 1 setlinecap stroke grestore} bdef /L0 {[] 0 setdash} bdef /L1
{[40 100] 0 setdash} bdef /L2 {[200 200] 0 setdash} bdef /L3 {[200 100 50
100] 0 setdash} bdef /L4 {[300 100 50 100 50 100 50 100] 0 setdash} bdef /L5
{[400 200] 0 setdash} bdef /STDFONT { findfont exch scalefont setfont } bdef
/ISOFONT { findfont dup length dict begin { 1 index /FID ne {def} {pop pop}
ifelse } forall /Encoding ISOLatin1Encoding def currentdict end /idltmpfont
exch definefont exch scalefont setfont } bdef /ISOBULLET { gsave /Helvetica
findfont exch scalefont setfont (\267) show currentpoint grestore moveto}
bdef /MITERLIMIT { 2.5 setmiterlimit } bdef end
%%EndProlog
%%Page: 0 1
%%PageRequirements: color
%%PageResources: (atend)
%%PageOrientation: Portrait
%%PageBoundingBox: 0 0 510 170
%%BeginPageSetup
$IDL_DICT begin 0.0283465 dup scale MITERLIMIT
%%IncludeResource: font Helvetica
423.333 /Helvetica STDFONT
%%EndPageSetup
0.000 0.000 0.000 setrgbcolor gsave 9360 158 translate 0 0 M 1.2 dup scale
-928.793 0 N
(m\(0\)/M\(0\)) show grestore gsave 573 3570 translate 0 0 M 90 rotate
1.2 dup scale -697.459 0 N
(T) show X -101.051 M
%%IncludeResource: font Helvetica
262.467 /Helvetica STDFONT
(df) show X 0 M
%%IncludeResource: font Helvetica
423.333 /Helvetica STDFONT
( /Gyr) show grestore 40 setlinewidth L0 1350 1320 M 4740 0 R D 1350 1320 M
0 180 R D gsave 1350 681 translate 0 0 M 1.21 dup scale -58.8433 0 N
( ) show grestore 2298 1320 M 0 180 R D gsave 2298 681 translate 0 0 M
1.21 dup scale -294.217 0 N
(0.1) show grestore 3246 1320 M 0 180 R D gsave 3246 681 translate 0 0 M
1.21 dup scale -58.8433 0 N
( ) show grestore 4194 1320 M 0 180 R D gsave 4194 681 translate 0 0 M
1.21 dup scale -294.217 0 N
(0.2) show grestore 5142 1320 M 0 180 R D gsave 5142 681 translate 0 0 M
1.21 dup scale -58.8433 0 N
( ) show grestore 6090 1320 M 0 180 R D gsave 6090 681 translate 0 0 M
1.21 dup scale -294.217 0 N
(0.3) show grestore 1540 1320 M 0 90 R D 1729 1320 M 0 90 R D 1919 1320 M
0 90 R D 2108 1320 M 0 90 R D 2488 1320 M 0 90 R D 2677 1320 M 0 90 R D
2867 1320 M 0 90 R D 3056 1320 M 0 90 R D 3436 1320 M 0 90 R D 3625 1320 M
0 90 R D 3815 1320 M 0 90 R D 4004 1320 M 0 90 R D 4384 1320 M 0 90 R D
4573 1320 M 0 90 R D 4763 1320 M 0 90 R D 4952 1320 M 0 90 R D 5332 1320 M
0 90 R D 5521 1320 M 0 90 R D 5711 1320 M 0 90 R D 5900 1320 M 0 90 R D
1350 5820 M 4740 0 R D 1350 5820 M 0 -180 R D 2298 5820 M 0 -180 R D
3246 5820 M 0 -180 R D 4194 5820 M 0 -180 R D 5142 5820 M 0 -180 R D
6090 5820 M 0 -180 R D 1540 5820 M 0 -90 R D 1729 5820 M 0 -90 R D
1919 5820 M 0 -90 R D 2108 5820 M 0 -90 R D 2488 5820 M 0 -90 R D
2677 5820 M 0 -90 R D 2867 5820 M 0 -90 R D 3056 5820 M 0 -90 R D
3436 5820 M 0 -90 R D 3625 5820 M 0 -90 R D 3815 5820 M 0 -90 R D
4004 5820 M 0 -90 R D 4384 5820 M 0 -90 R D 4573 5820 M 0 -90 R D
4763 5820 M 0 -90 R D 4952 5820 M 0 -90 R D 5332 5820 M 0 -90 R D
5521 5820 M 0 -90 R D 5711 5820 M 0 -90 R D 5900 5820 M 0 -90 R D
1350 1320 M 0 4500 R D 1350 2340 M 190 0 R D gsave 1216 2169 translate 0 0 M
1.21 dup scale -235.373 0 N
(2) show grestore 1350 3452 M 190 0 R D gsave 1216 3282 translate 0 0 M
1.21 dup scale -235.373 0 N
(4) show grestore 1350 4565 M 190 0 R D gsave 1216 4394 translate 0 0 M
1.21 dup scale -235.373 0 N
(6) show grestore 1350 5677 M 190 0 R D gsave 1216 5507 translate 0 0 M
1.21 dup scale -235.373 0 N
(8) show grestore 1350 1505 M 95 0 R D 1350 1783 M 95 0 R D 1350 2061 M
95 0 R D 1350 2618 M 95 0 R D 1350 2896 M 95 0 R D 1350 3174 M 95 0 R D
1350 3730 M 95 0 R D 1350 4008 M 95 0 R D 1350 4286 M 95 0 R D 1350 4843 M
95 0 R D 1350 5121 M 95 0 R D 1350 5399 M 95 0 R D 6090 1320 M 0 4500 R D
6090 2340 M -190 0 R D 6090 3452 M -190 0 R D 6090 4565 M -190 0 R D
6090 5677 M -190 0 R D 6090 1505 M -95 0 R D 6090 1783 M -95 0 R D
6090 2061 M -95 0 R D 6090 2618 M -95 0 R D 6090 2896 M -95 0 R D
6090 3174 M -95 0 R D 6090 3730 M -95 0 R D 6090 4008 M -95 0 R D
6090 4286 M -95 0 R D 6090 4843 M -95 0 R D 6090 5121 M -95 0 R D
6090 5399 M -95 0 R D L2 1350 5820 M 474 -1493 R 474 -732 R 569 -501 R
379 -221 R 948 -359 R 948 -215 R 948 -143 R D L1 1821 5820 M 3 -9 R
474 -766 R 569 -561 R 379 -261 R 948 -441 R 948 -280 R 948 -194 R D L3
1353 5820 M 471 -1195 R 474 -2156 R 569 -175 R 379 -77 R 948 -112 R
948 -30 R 948 38 R D gsave 5711 5269 translate 0 0 M 1.2 dup scale
-947.42 0 N
%%IncludeResource: font Symbol
423.333 /Symbol STDFONT
(e) show
%%IncludeResource: font Helvetica
423.333 /Helvetica STDFONT
(=0.3) show grestore L0 6990 1320 M 4740 0 R D 6990 1320 M 0 180 R D
gsave 6990 681 translate 0 0 M 1.21 dup scale -58.8433 0 N
( ) show grestore 7938 1320 M 0 180 R D gsave 7938 681 translate 0 0 M
1.21 dup scale -294.217 0 N
(0.1) show grestore 8886 1320 M 0 180 R D gsave 8886 681 translate 0 0 M
1.21 dup scale -58.8433 0 N
( ) show grestore 9834 1320 M 0 180 R D gsave 9834 681 translate 0 0 M
1.21 dup scale -294.217 0 N
(0.2) show grestore 10782 1320 M 0 180 R D gsave 10782 681 translate 0 0 M
1.21 dup scale -58.8433 0 N
( ) show grestore 11730 1320 M 0 180 R D gsave 11730 681 translate 0 0 M
1.21 dup scale -294.217 0 N
(0.3) show grestore 7180 1320 M 0 90 R D 7369 1320 M 0 90 R D 7559 1320 M
0 90 R D 7748 1320 M 0 90 R D 8128 1320 M 0 90 R D 8317 1320 M 0 90 R D
8507 1320 M 0 90 R D 8696 1320 M 0 90 R D 9076 1320 M 0 90 R D 9265 1320 M
0 90 R D 9455 1320 M 0 90 R D 9644 1320 M 0 90 R D 10024 1320 M 0 90 R D
10213 1320 M 0 90 R D 10403 1320 M 0 90 R D 10593 1320 M 0 90 R D
10972 1320 M 0 90 R D 11161 1320 M 0 90 R D 11351 1320 M 0 90 R D
11541 1320 M 0 90 R D 6990 5820 M 4740 0 R D 6990 5820 M 0 -180 R D
7938 5820 M 0 -180 R D 8886 5820 M 0 -180 R D 9834 5820 M 0 -180 R D
10782 5820 M 0 -180 R D 11730 5820 M 0 -180 R D 7180 5820 M 0 -90 R D
7369 5820 M 0 -90 R D 7559 5820 M 0 -90 R D 7748 5820 M 0 -90 R D
8128 5820 M 0 -90 R D 8317 5820 M 0 -90 R D 8507 5820 M 0 -90 R D
8696 5820 M 0 -90 R D 9076 5820 M 0 -90 R D 9265 5820 M 0 -90 R D
9455 5820 M 0 -90 R D 9644 5820 M 0 -90 R D 10024 5820 M 0 -90 R D
10213 5820 M 0 -90 R D 10403 5820 M 0 -90 R D 10593 5820 M 0 -90 R D
10972 5820 M 0 -90 R D 11161 5820 M 0 -90 R D 11351 5820 M 0 -90 R D
11541 5820 M 0 -90 R D 6990 1320 M 0 4500 R D 6990 1988 M 190 0 R D
gsave 6856 1818 translate 0 0 M 1.21 dup scale -235.373 0 N
(2) show grestore 6990 2749 M 190 0 R D gsave 6856 2578 translate 0 0 M
1.21 dup scale -235.373 0 N
(4) show grestore 6990 3509 M 190 0 R D gsave 6856 3339 translate 0 0 M
1.21 dup scale -235.373 0 N
(6) show grestore 6990 4270 M 190 0 R D gsave 6856 4100 translate 0 0 M
1.21 dup scale -235.373 0 N
(8) show grestore 6990 5031 M 190 0 R D gsave 6856 4861 translate 0 0 M
1.21 dup scale -470.747 0 N
(10) show grestore 6990 5792 M 190 0 R D gsave 6856 5522 translate 0 0 M
1.21 dup scale -470.747 0 N
(12) show grestore 6990 1417 M 95 0 R D 6990 1608 M 95 0 R D 6990 1798 M
95 0 R D 6990 2178 M 95 0 R D 6990 2368 M 95 0 R D 6990 2558 M 95 0 R D
6990 2939 M 95 0 R D 6990 3129 M 95 0 R D 6990 3319 M 95 0 R D 6990 3700 M
95 0 R D 6990 3890 M 95 0 R D 6990 4080 M 95 0 R D 6990 4460 M 95 0 R D
6990 4651 M 95 0 R D 6990 4841 M 95 0 R D 6990 5221 M 95 0 R D 6990 5411 M
95 0 R D 6990 5602 M 95 0 R D 11730 1320 M 0 4500 R D 11730 1988 M -189 0 R
D 11730 2749 M -189 0 R D 11730 3509 M -189 0 R D 11730 4270 M -189 0 R D
11730 5031 M -189 0 R D 11730 5792 M -189 0 R D 11730 1417 M -95 0 R D
11730 1608 M -95 0 R D 11730 1798 M -95 0 R D 11730 2178 M -95 0 R D
11730 2368 M -95 0 R D 11730 2558 M -95 0 R D 11730 2939 M -95 0 R D
11730 3129 M -95 0 R D 11730 3319 M -95 0 R D 11730 3700 M -95 0 R D
11730 3890 M -95 0 R D 11730 4080 M -95 0 R D 11730 4460 M -95 0 R D
11730 4651 M -95 0 R D 11730 4841 M -95 0 R D 11730 5221 M -95 0 R D
11730 5411 M -95 0 R D 11730 5602 M -95 0 R D L2 6990 5820 M 474 -1493 R
474 -732 R 569 -501 R 379 -221 R 948 -359 R 948 -215 R 948 -143 R D L1
7055 5820 M 409 -972 R 474 -606 R 569 -443 R 379 -205 R 948 -349 R
948 -221 R 948 -153 R D L3 6990 5714 M 474 -1309 R 474 -1801 R 569 -198 R
379 -89 R 948 -139 R 948 -64 R 948 -11 R D gsave 11351 5269 translate 0 0 M
1.2 dup scale -947.42 0 N
%%IncludeResource: font Symbol
423.333 /Symbol STDFONT
(e) show
%%IncludeResource: font Helvetica
423.333 /Helvetica STDFONT
(=0.5) show grestore L0 12630 1320 M 4740 0 R D 12630 1320 M 0 180 R D
gsave 12630 681 translate 0 0 M 1.21 dup scale -58.8433 0 N
( ) show grestore 13578 1320 M 0 180 R D gsave 13578 681 translate 0 0 M
1.21 dup scale -294.217 0 N
(0.1) show grestore 14526 1320 M 0 180 R D gsave 14526 681 translate 0 0 M
1.21 dup scale -58.8433 0 N
( ) show grestore 15474 1320 M 0 180 R D gsave 15474 681 translate 0 0 M
1.21 dup scale -294.217 0 N
(0.2) show grestore 16422 1320 M 0 180 R D gsave 16422 681 translate 0 0 M
1.21 dup scale -58.8433 0 N
( ) show grestore 17370 1320 M 0 180 R D gsave 17370 681 translate 0 0 M
1.21 dup scale -294.217 0 N
(0.3) show grestore 12820 1320 M 0 90 R D 13009 1320 M 0 90 R D 13199 1320 M
0 90 R D 13389 1320 M 0 90 R D 13768 1320 M 0 90 R D 13957 1320 M 0 90 R D
14147 1320 M 0 90 R D 14337 1320 M 0 90 R D 14716 1320 M 0 90 R D
14905 1320 M 0 90 R D 15095 1320 M 0 90 R D 15285 1320 M 0 90 R D
15664 1320 M 0 90 R D 15853 1320 M 0 90 R D 16043 1320 M 0 90 R D
16233 1320 M 0 90 R D 16612 1320 M 0 90 R D 16801 1320 M 0 90 R D
16991 1320 M 0 90 R D 17181 1320 M 0 90 R D 12630 5820 M 4740 0 R D
12630 5820 M 0 -180 R D 13578 5820 M 0 -180 R D 14526 5820 M 0 -180 R D
15474 5820 M 0 -180 R D 16422 5820 M 0 -180 R D 17370 5820 M 0 -180 R D
12820 5820 M 0 -90 R D 13009 5820 M 0 -90 R D 13199 5820 M 0 -90 R D
13389 5820 M 0 -90 R D 13768 5820 M 0 -90 R D 13957 5820 M 0 -90 R D
14147 5820 M 0 -90 R D 14337 5820 M 0 -90 R D 14716 5820 M 0 -90 R D
14905 5820 M 0 -90 R D 15095 5820 M 0 -90 R D 15285 5820 M 0 -90 R D
15664 5820 M 0 -90 R D 15853 5820 M 0 -90 R D 16043 5820 M 0 -90 R D
16233 5820 M 0 -90 R D 16612 5820 M 0 -90 R D 16801 5820 M 0 -90 R D
16991 5820 M 0 -90 R D 17181 5820 M 0 -90 R D 12630 1320 M 0 4500 R D
12630 2528 M 190 0 R D gsave 12496 2357 translate 0 0 M 1.21 dup scale
-235.373 0 N
(5) show grestore 12630 3828 M 190 0 R D gsave 12496 3658 translate 0 0 M
1.21 dup scale -470.747 0 N
(10) show grestore 12630 5129 M 190 0 R D gsave 12496 4959 translate 0 0 M
1.21 dup scale -470.747 0 N
(15) show grestore 12630 1487 M 95 0 R D 12630 1747 M 95 0 R D 12630 2008 M
95 0 R D 12630 2268 M 95 0 R D 12630 2788 M 95 0 R D 12630 3048 M 95 0 R D
12630 3308 M 95 0 R D 12630 3568 M 95 0 R D 12630 4089 M 95 0 R D
12630 4349 M 95 0 R D 12630 4609 M 95 0 R D 12630 4869 M 95 0 R D
12630 5389 M 95 0 R D 12630 5649 M 95 0 R D 17370 1320 M 0 4500 R D
17370 2528 M -189 0 R D 17370 3828 M -189 0 R D 17370 5129 M -189 0 R D
17370 1487 M -95 0 R D 17370 1747 M -95 0 R D 17370 2008 M -95 0 R D
17370 2268 M -95 0 R D 17370 2788 M -95 0 R D 17370 3048 M -95 0 R D
17370 3308 M -95 0 R D 17370 3568 M -95 0 R D 17370 4089 M -95 0 R D
17370 4349 M -95 0 R D 17370 4609 M -95 0 R D 17370 4869 M -95 0 R D
17370 5389 M -95 0 R D 17370 5649 M -95 0 R D L2 12630 5820 M 474 -1493 R
474 -732 R 569 -501 R 379 -221 R 948 -359 R 948 -215 R 948 -143 R D L1
12630 4845 M 474 -860 R 474 -461 R 569 -338 R 379 -157 R 948 -265 R
948 -168 R 948 -117 R D L3 12630 5212 M 474 -1227 R 474 -1464 R 569 -188 R
379 -86 R 948 -140 R 948 -77 R 948 -39 R D gsave 16991 5269 translate 0 0 M
1.2 dup scale -947.42 0 N
%%IncludeResource: font Symbol
423.333 /Symbol STDFONT
(e) show
%%IncludeResource: font Helvetica
423.333 /Helvetica STDFONT
(=0.7) show grestore L1 15044 4784 M 74 0 R 74 0 R 74 0 R 74 0 R 74 0 R
74 0 R 75 0 R 74 0 R 74 0 R D L2 15044 4343 M 74 0 R 74 0 R 74 0 R 74 0 R
74 0 R 74 0 R 75 0 R 74 0 R 74 0 R D L3 15044 3902 M 74 0 R 74 0 R 74 0 R
74 0 R 74 0 R 74 0 R 75 0 R 74 0 R 74 0 R D gsave 15785 4655 translate 0 0 M
1.1 dup scale
(J08) show grestore gsave 15785 4214 translate 0 0 M 1.1 dup scale
(BK08) show grestore gsave 15785 3773 translate 0 0 M 1.1 dup scale
(T03) show grestore
%%PageTrailer
end
%%PageResources: font Helvetica
%%+ font Symbol
%%Trailer
%%Pages: 1
%%DocumentNeededResources: font Helvetica
%%+ font Symbol
%%EOF
