\relax 
\@writefile{toc}{\contentsline {chapter}{\numberline {第一章\hspace  {0.3em}}引言}{1}{chapter.1}}
\@writefile{lof}{\addvspace {10\p@ }}
\@writefile{lot}{\addvspace {10\p@ }}
\newlabel{chap:introduction}{{一}{1}{引言\relax }{chapter.1}{}}
\@writefile{toc}{\contentsline {section}{\numberline {1.1}系统要求}{1}{section.1.1}}
\@writefile{toc}{\contentsline {section}{\numberline {1.2}下载与安装}{1}{section.1.2}}
\@writefile{toc}{\contentsline {section}{\numberline {1.3}宏包定制}{2}{section.1.3}}
\@writefile{toc}{\contentsline {section}{\numberline {1.4}问题反馈}{2}{section.1.4}}
\@setckpt{chapter/chap-intro}{
\setcounter{page}{3}
\setcounter{equation}{0}
\setcounter{enumi}{0}
\setcounter{enumii}{0}
\setcounter{enumiii}{0}
\setcounter{enumiv}{0}
\setcounter{footnote}{0}
\setcounter{mpfootnote}{0}
\setcounter{CTEX@sectiondepth}{2}
\setcounter{part}{0}
\setcounter{chapter}{1}
\setcounter{section}{4}
\setcounter{subsection}{0}
\setcounter{subsubsection}{0}
\setcounter{paragraph}{0}
\setcounter{subparagraph}{0}
\setcounter{figure}{0}
\setcounter{table}{0}
\setcounter{parentequation}{0}
\setcounter{NAT@ctr}{0}
\setcounter{Item}{0}
\setcounter{Hfootnote}{0}
\setcounter{algo}{0}
\setcounter{thm}{0}
\setcounter{defn}{0}
\setcounter{conj}{0}
\setcounter{exmp}{0}
\setcounter{rem}{0}
\setcounter{case}{0}
\setcounter{section@level}{1}
}
