\relax 
\@writefile{toc}{\contentsline {chapter}{\numberline {第六章\hspace  {0.3em}}从矮星系到星系团中次结构的分布}{75}{chapter.6}}
\@writefile{lof}{\addvspace {10\p@ }}
\@writefile{lot}{\addvspace {10\p@ }}
\newlabel{chap:cluster}{{六}{75}{从矮星系到星系团中次结构的分布\relax }{chapter.6}{}}
\@writefile{toc}{\contentsline {section}{\numberline {6.1}引言}{75}{section.6.1}}
\@writefile{toc}{\contentsline {section}{\numberline {6.2}主暗晕质量的影响}{75}{section.6.2}}
\@writefile{toc}{\contentsline {subsection}{\numberline {6.2.1}质量函数}{75}{subsection.6.2.1}}
\@writefile{lof}{\contentsline {figure}{\numberline {6.1}{\ignorespaces 次结构质量函数（SHMF）。两个面板中分别给出了银河系大小（MW）和 星系团大小（Cluster）暗晕中的次结构质量分布。实线是数值模拟的结果， 其它曲线为模型中使用不同质量损失率$A$预言的结果。}}{75}{figure.6.1}}
\newlabel{fig:mfunc_mlr}{{6.1}{75}{次结构质量函数（SHMF）。两个面板中分别给出了银河系大小（MW）和 星系团大小（Cluster）暗晕中的次结构质量分布。实线是数值模拟的结果， 其它曲线为模型中使用不同质量损失率$A$预言的结果。\relax }{figure.6.1}{}}
\@writefile{lof}{\contentsline {figure}{\numberline {6.2}{\ignorespaces 次结构质量函数对主暗晕质量的依赖性。实线是未演化的SHMF，其幅度与主暗晕质量无关； 其它曲线对应不同质量主暗晕的演化的SHMF，其幅度随着主暗晕质量的增加而提高。}}{76}{figure.6.2}}
\newlabel{fig:mfunc_cluster}{{6.2}{76}{次结构质量函数对主暗晕质量的依赖性。实线是未演化的SHMF，其幅度与主暗晕质量无关； 其它曲线对应不同质量主暗晕的演化的SHMF，其幅度随着主暗晕质量的增加而提高。\relax }{figure.6.2}{}}
\@writefile{toc}{\contentsline {subsection}{\numberline {6.2.2}径向分布}{77}{subsection.6.2.2}}
\@writefile{lof}{\contentsline {figure}{\numberline {6.3}{\ignorespaces 次结构径向分布对主暗晕质量的依赖性。主暗晕质量越小，其次结构分布越致密， 但这个依赖关系是微弱的。}}{77}{figure.6.3}}
\newlabel{fig:rfunc_cluster}{{6.3}{77}{次结构径向分布对主暗晕质量的依赖性。主暗晕质量越小，其次结构分布越致密， 但这个依赖关系是微弱的。\relax }{figure.6.3}{}}
\@writefile{toc}{\contentsline {section}{\numberline {6.3}暗晕占据分布}{77}{section.6.3}}
\@writefile{lof}{\contentsline {figure}{\numberline {6.4}{\ignorespaces 归一化后的暗晕占据分布的第二分量对主暗晕质量的依赖性。 该图说明，不同主暗晕中不同质量阈值以上的次结构均满足泊松分布。}}{78}{figure.6.4}}
\newlabel{fig:hod}{{6.4}{78}{归一化后的暗晕占据分布的第二分量对主暗晕质量的依赖性。 该图说明，不同主暗晕中不同质量阈值以上的次结构均满足泊松分布。\relax }{figure.6.4}{}}
\@writefile{toc}{\contentsline {section}{\numberline {6.4}小结}{78}{section.6.4}}
\@setckpt{chapter/cluster}{
\setcounter{page}{80}
\setcounter{equation}{1}
\setcounter{enumi}{2}
\setcounter{enumii}{0}
\setcounter{enumiii}{0}
\setcounter{enumiv}{0}
\setcounter{footnote}{0}
\setcounter{mpfootnote}{0}
\setcounter{CTEX@sectiondepth}{2}
\setcounter{part}{0}
\setcounter{chapter}{6}
\setcounter{section}{4}
\setcounter{subsection}{0}
\setcounter{subsubsection}{0}
\setcounter{paragraph}{0}
\setcounter{subparagraph}{0}
\setcounter{figure}{4}
\setcounter{table}{0}
\setcounter{parentequation}{17}
\setcounter{NAT@ctr}{0}
\setcounter{Item}{2}
\setcounter{Hfootnote}{5}
\setcounter{algo}{0}
\setcounter{thm}{0}
\setcounter{defn}{0}
\setcounter{conj}{0}
\setcounter{exmp}{0}
\setcounter{rem}{0}
\setcounter{case}{0}
\setcounter{section@level}{1}
}
