\relax 
\@writefile{toc}{\contentsline {chapter}{\numberline {第七章\hspace  {0.3em}}总结与展望}{81}{chapter.7}}
\@writefile{lof}{\addvspace {10\p@ }}
\@writefile{lot}{\addvspace {10\p@ }}
\newlabel{chap:conc}{{七}{81}{总结与展望\relax }{chapter.7}{}}
\@writefile{toc}{\contentsline {section}{\numberline {7.1}本文的结果}{81}{section.7.1}}
\@writefile{toc}{\contentsline {section}{\numberline {7.2}未来的工作}{82}{section.7.2}}
\@setckpt{chapter/conc}{
\setcounter{page}{83}
\setcounter{equation}{0}
\setcounter{enumi}{2}
\setcounter{enumii}{0}
\setcounter{enumiii}{0}
\setcounter{enumiv}{0}
\setcounter{footnote}{0}
\setcounter{mpfootnote}{0}
\setcounter{CTEX@sectiondepth}{2}
\setcounter{part}{0}
\setcounter{chapter}{7}
\setcounter{section}{2}
\setcounter{subsection}{0}
\setcounter{subsubsection}{0}
\setcounter{paragraph}{0}
\setcounter{subparagraph}{0}
\setcounter{figure}{0}
\setcounter{table}{0}
\setcounter{parentequation}{17}
\setcounter{NAT@ctr}{0}
\setcounter{Item}{2}
\setcounter{Hfootnote}{5}
\setcounter{algo}{0}
\setcounter{thm}{0}
\setcounter{defn}{0}
\setcounter{conj}{0}
\setcounter{exmp}{0}
\setcounter{rem}{0}
\setcounter{case}{0}
\setcounter{section@level}{1}
}
