\relax 
\@writefile{toc}{\contentsline {chapter}{\numberline {第四章\hspace  {0.3em}}动力摩擦时标的研究}{45}{chapter.4}}
\@writefile{lof}{\addvspace {10\p@ }}
\@writefile{lot}{\addvspace {10\p@ }}
\newlabel{chap:dft}{{四}{45}{动力摩擦时标的研究\relax }{chapter.4}{}}
\@writefile{toc}{\contentsline {section}{\numberline {4.1}引言}{45}{section.4.1}}
\@writefile{toc}{\contentsline {section}{\numberline {4.2}相关的参数}{46}{section.4.2}}
\@writefile{toc}{\contentsline {section}{\numberline {4.3}以前的结果}{47}{section.4.3}}
\newlabel{sec:tprior}{{4.3}{47}{以前的结果\relax }{section.4.3}{}}
\newlabel{eq:BT87}{{4.3}{47}{以前的结果\relax }{equation.4.3}{}}
\newlabel{eq:LC93}{{4.4}{47}{以前的结果\relax }{equation.4.4}{}}
\newlabel{eq:C99}{{4.5}{47}{以前的结果\relax }{equation.4.5}{}}
\newlabel{eq:J08}{{4.6}{48}{以前的结果\relax }{equation.4.6}{}}
\newlabel{eq:BK08}{{4.7}{48}{以前的结果\relax }{equation.4.7}{}}
\@writefile{toc}{\contentsline {section}{\numberline {4.4}模型检验}{48}{section.4.4}}
\@writefile{lof}{\contentsline {figure}{\numberline {4.1}{\ignorespaces Lacey \& Cole (1993, LC93), Taffoni et al. (2003, T03), Boylan-Kolchin et al. (2008, BK08) 和 Jiang et al. (2008, J08) 预言的并合次结构的动力磨擦时标。图中六个面板显示了$T_{\rm  df}$\hspace  {0.25em plus 0.125em minus 0.08em}\ignorespaces 对轨道圆度的依赖性，而每个面板显示了$T_{\rm  df}$\hspace  {0.25em plus 0.125em minus 0.08em}\ignorespaces 对次结构与主暗晕的初始质量比的依赖性。所有情况均采用$\eta =1.0$。 }}{49}{figure.4.1}}
\newlabel{fig:tprior}{{4.1}{49}{Lacey \& Cole (1993, LC93), Taffoni et al. (2003, T03), Boylan-Kolchin et al. (2008, BK08) 和 Jiang et al. (2008, J08) 预言的并合次结构的动力磨擦时标。图中六个面板显示了\dft 对轨道圆度的依赖性，而每个面板显示了\dft 对次结构与主暗晕的初始质量比的依赖性。所有情况均采用$\eta =1.0$。 \relax }{figure.4.1}{}}
\@writefile{toc}{\contentsline {section}{\numberline {4.5}模型解析}{49}{section.4.5}}
\newlabel{sec:interpret}{{4.5}{49}{模型解析\relax }{section.4.5}{}}
\@writefile{toc}{\contentsline {subsection}{\numberline {4.5.1}$T_{\rm  df}$\hspace  {0.25em plus 0.125em minus 0.08em}\ignorespaces 对潮汐剥离效率$A$的依赖性}{49}{subsection.4.5.1}}
\@writefile{lof}{\contentsline {figure}{\numberline {4.2}{\ignorespaces 对于刚体的次结构，其$T_{\rm  df}$\hspace  {0.25em plus 0.125em minus 0.08em}\ignorespaces 对次结构质量（左面板）与轨道圆度（右面板） 的依赖性，其中$T_{\rm  df}$\hspace  {0.25em plus 0.125em minus 0.08em}\ignorespaces 分别用其在$\rm  R_m=20$ 和 $\varepsilon =1$时的取值归一化。 模型中$A=0$意味着我们考虑的是一个刚体的次结构。显然，模型的预言（实线）与 LC93（点线）的一致。 }}{50}{figure.4.2}}
\newlabel{fig:tdep0}{{4.2}{50}{对于刚体的次结构，其\dft 对次结构质量（左面板）与轨道圆度（右面板） 的依赖性，其中\dft 分别用其在$\Rom =20$ 和 $\varepsilon =1$时的取值归一化。 模型中$A=0$意味着我们考虑的是一个刚体的次结构。显然，模型的预言（实线）与 LC93（点线）的一致。 \relax }{figure.4.2}{}}
\@writefile{lof}{\contentsline {figure}{\numberline {4.3}{\ignorespaces 模型（$A=0$，实线）和LC93（点线）预言的$T_{\rm  df}$\hspace  {0.25em plus 0.125em minus 0.08em}\ignorespaces 的比较。 我们的模型和LC93对所有轨道圆度的预言均符合的很好，尽管这里只给出 $\varepsilon =0.1, 0.5, 1.0$等三种情况。 }}{50}{figure.4.3}}
\newlabel{fig:tmlr0}{{4.3}{50}{模型（$A=0$，实线）和LC93（点线）预言的\dft 的比较。 我们的模型和LC93对所有轨道圆度的预言均符合的很好，尽管这里只给出 $\varepsilon =0.1, 0.5, 1.0$等三种情况。 \relax }{figure.4.3}{}}
\@writefile{lof}{\contentsline {figure}{\numberline {4.4}{\ignorespaces 模型预言的动力磨擦时标($T_{\rm  df}$\hspace  {0.25em plus 0.125em minus 0.08em}\ignorespaces )。粗细不同的实线显示了不同潮汐剥离效率 （$A=1, 2, 3$）的效应。 该图说明$T_{\rm  df}$\hspace  {0.25em plus 0.125em minus 0.08em}\ignorespaces 对 $A$的依赖性很明显。 }}{51}{figure.4.4}}
\newlabel{fig:tmlr}{{4.4}{51}{模型预言的动力磨擦时标(\dft )。粗细不同的实线显示了不同潮汐剥离效率 （$A=1, 2, 3$）的效应。 该图说明\dft 对 $A$的依赖性很明显。 \relax }{figure.4.4}{}}
\@writefile{lof}{\contentsline {figure}{\numberline {4.5}{\ignorespaces 次结构质量和角动量的演化（均用它们的初始值归一化），并作为潮汐剥离效率 $A$的函数显示。 轨道初始条件为$\rm  R_m^{-1}=0.1$， $\varepsilon =0.5$， $\eta =1.0$。该图说明强潮汐场 的作用减弱了动力磨擦的幅度，从而减缓了次结构角动量的损失。 }}{52}{figure.4.5}}
\newlabel{fig:mj}{{4.5}{52}{次结构质量和角动量的演化（均用它们的初始值归一化），并作为潮汐剥离效率 $A$的函数显示。 轨道初始条件为$\Rin =0.1$， $\varepsilon =0.5$， $\eta =1.0$。该图说明强潮汐场 的作用减弱了动力磨擦的幅度，从而减缓了次结构角动量的损失。 \relax }{figure.4.5}{}}
\@writefile{lof}{\contentsline {figure}{\numberline {4.6}{\ignorespaces 模型和BK08预言的次结构角动量演化的比较。粗细不同的实线是模型的预言 （$A=1, 2, 3$），虚线则是从BK08的图\hspace  {0.25em plus 0.125em minus 0.08em}\ignorespaces 1中得到的结果。该图说明BK08的模拟中其潮汐场 的强度应该比模型中$A=1$的潮汐场的强度高。 }}{52}{figure.4.6}}
\newlabel{fig:bk}{{4.6}{52}{模型和BK08预言的次结构角动量演化的比较。粗细不同的实线是模型的预言 （$A=1, 2, 3$），虚线则是从BK08的图~1中得到的结果。该图说明BK08的模拟中其潮汐场 的强度应该比模型中$A=1$的潮汐场的强度高。 \relax }{figure.4.6}{}}
\@writefile{toc}{\contentsline {subsection}{\numberline {4.5.2}$T_{\rm  df}$\hspace  {0.25em plus 0.125em minus 0.08em}\ignorespaces 对轨道圆度$\varepsilon $的依赖性}{53}{subsection.4.5.2}}
\@writefile{toc}{\contentsline {section}{\numberline {4.6}拟合库仑对数}{53}{section.4.6}}
\newlabel{sec:fitting_ld}{{4.6}{53}{拟合库仑对数\relax }{section.4.6}{}}
\@writefile{lof}{\contentsline {figure}{\numberline {4.7}{\ignorespaces 模型（$A=1$）和数值模拟预言的$T_{\rm  df}$\hspace  {0.25em plus 0.125em minus 0.08em}\ignorespaces 对轨道圆度依赖性的比较。 对于一个$\rm  R_m^{-1}=0.05$的次并合（三角形），模型显示的是幂率的依赖性，这与 C99 （长虚线）的结果相似；而对于$\rm  R_m^{-1}=0.3$的主并合（正方形），模型预言的是指数率的 依赖性，这与BK08（短虚线）的结果相近。}}{54}{figure.4.7}}
\newlabel{fig:tdep1}{{4.7}{54}{模型（$A=1$）和数值模拟预言的\dft 对轨道圆度依赖性的比较。 对于一个$\Rin =0.05$的次并合（三角形），模型显示的是幂率的依赖性，这与 C99 （长虚线）的结果相似；而对于$\Rin =0.3$的主并合（正方形），模型预言的是指数率的 依赖性，这与BK08（短虚线）的结果相近。\relax }{figure.4.7}{}}
\@writefile{toc}{\contentsline {subsection}{\numberline {4.6.1}模型说明}{54}{subsection.4.6.1}}
\newlabel{subsec:model12}{{4.6.1}{54}{模型说明\relax }{subsection.4.6.1}{}}
\@writefile{toc}{\contentsline {subsection}{\numberline {4.6.2}模型M1的结果}{55}{subsection.4.6.2}}
\@writefile{lof}{\contentsline {figure}{\numberline {4.8}{\ignorespaces 模型M1中，初始条件为$\rm  R_m^{-1}= 0.1$, $\varepsilon = 0.65$, $\eta = 1.0$时次结构的 角动量演化。$\qopname  \relax o{ln}\Lambda =- \qopname  \relax o{ln}\mu $ 。粗细不同的实线是模型的结果（$A=1, 3.5, 10$\hspace  {0.25em plus 0.125em minus 0.08em}\ignorespaces ）。 该图显示了潮汐剥离效率$A$的效应。虚线是BK08数值模拟的结果。}}{55}{figure.4.8}}
\newlabel{fig:badj1}{{4.8}{55}{模型M1中，初始条件为$\Rin = 0.1$, $\varepsilon = 0.65$, $\eta = 1.0$时次结构的 角动量演化。$\ln \Lambda =- \ln \mu $ 。粗细不同的实线是模型的结果（\AAA ）。 该图显示了潮汐剥离效率$A$的效应。虚线是BK08数值模拟的结果。\relax }{figure.4.8}{}}
\@writefile{lof}{\contentsline {figure}{\numberline {4.9}{\ignorespaces  类似图\hspace  {0.25em plus 0.125em minus 0.08em}\ignorespaces \ref  {fig:badj1}，但$A$的值固定为$3.5$（由次结构质量函数限制， 参见\S  \hspace  {0.25em plus 0.125em minus 0.08em}\ignorespaces \ref  {sec:mfunc_mw}）。该图显示了不同库仑对数取值的效应。值得注意的是, 模型M1预言的角动量演化在后期是平缓的。}}{56}{figure.4.9}}
\newlabel{fig:badj2}{{4.9}{56}{ 类似图~\ref {fig:badj1}，但$A$的值固定为$3.5$（由次结构质量函数限制， 参见\S ~\ref {sec:mfunc_mw}）。该图显示了不同库仑对数取值的效应。值得注意的是, 模型M1预言的角动量演化在后期是平缓的。\relax }{figure.4.9}{}}
\@writefile{toc}{\contentsline {subsection}{\numberline {4.6.3}模型M2的结果}{56}{subsection.4.6.3}}
\@writefile{lof}{\contentsline {figure}{\numberline {4.10}{\ignorespaces 模型M2中次结构的角动量演化（$A=3.5$\hspace  {0.25em plus 0.125em minus 0.08em}\ignorespaces {}）。在模型M2中，次结构经历两次近心点过程后潮汐 质量剥离被``关闭''。上方的面板中，初始条件为$\rm  R_m^{-1}= 0.1$, $\varepsilon = 0.65$， $\eta = 1.0$；下方的面板中，$\rm  R_m^{-1}= 0.05$, $\varepsilon = 0.46$, $\eta = 1.0$。两种形式的库仑对数，$\qopname  \relax o{ln}\Lambda =C$ 和 $\qopname  \relax o{ln}\Lambda =-\qopname  \relax o{ln}\mu +C$， 分别应用于左边和右边的面板中。 实线和虚线分别显示我们的模型和BK08的结果。该图说明当给定一个合适的$\qopname  \relax o{ln}\Lambda $时，模型可以 符合数值模拟的结果。}}{57}{figure.4.10}}
\newlabel{fig:goodj1}{{4.10}{57}{模型M2中次结构的角动量演化（\abest {}）。在模型M2中，次结构经历两次近心点过程后潮汐 质量剥离被``关闭''。上方的面板中，初始条件为$\Rin = 0.1$, $\varepsilon = 0.65$， $\eta = 1.0$；下方的面板中，$\Rin = 0.05$, $\varepsilon = 0.46$, $\eta = 1.0$。两种形式的库仑对数，$\ln \Lambda =C$ 和 $\ln \Lambda =-\ln \mu +C$， 分别应用于左边和右边的面板中。 实线和虚线分别显示我们的模型和BK08的结果。该图说明当给定一个合适的$\ln \Lambda $时，模型可以 符合数值模拟的结果。\relax }{figure.4.10}{}}
\@writefile{toc}{\contentsline {subsection}{\numberline {4.6.4}拟合库仑对数}{57}{subsection.4.6.4}}
\@writefile{lot}{\contentsline {table}{\numberline {4.1}{\ignorespaces 通过比较模型与数值模拟预言的$T_{\rm  df}$\hspace  {0.25em plus 0.125em minus 0.08em}\ignorespaces （误差$5\%$以内）拟合的库仑对数与相应的初始条件。 这里采用了两种形式的库仑对数：$\qopname  \relax o{ln}\Lambda =C(1)$ 和 $\qopname  \relax o{ln}\Lambda =-\qopname  \relax o{ln}\mu +C(2)$。 }}{58}{table.4.1}}
\newlabel{tab:ldconstant}{{4.1}{58}{通过比较模型与数值模拟预言的\dft （误差$5\%$以内）拟合的库仑对数与相应的初始条件。 这里采用了两种形式的库仑对数：$\ln \Lambda =C(1)$ 和 $\ln \Lambda =-\ln \mu +C(2)$。 \relax }{table.4.1}{}}
\newlabel{eq:fitting}{{4.8}{59}{拟合库仑对数\relax }{equation.4.8}{}}
\@writefile{toc}{\contentsline {section}{\numberline {4.7}检验拟合的库仑对数}{59}{section.4.7}}
\@writefile{lof}{\contentsline {figure}{\numberline {4.11}{\ignorespaces 模型M2中（实线），采用$A=3.5$\hspace  {0.25em plus 0.125em minus 0.08em}\ignorespaces {}和方程\hspace  {0.25em plus 0.125em minus 0.08em}\ignorespaces (\ref  {eq:fitting})给出的$\qopname  \relax o{ln}\Lambda =-\qopname  \relax o{ln}\mu +C$时 得到的动力磨擦时标，并与BK08的结果（虚线）比较。三个面板对应不同的轨道圆度：$\varepsilon =0.3, 0.5, 0.7$。另外$\eta = 1.0$。该图说明应用拟合的库仑对数预言的$T_{\rm  df}$\hspace  {0.25em plus 0.125em minus 0.08em}\ignorespaces 与数值模拟的结果符合得很好。}}{59}{figure.4.11}}
\newlabel{fig:tmerge}{{4.11}{59}{模型M2中（实线），采用\abest {}和方程~(\ref {eq:fitting})给出的$\ln \Lambda =-\ln \mu +C$时 得到的动力磨擦时标，并与BK08的结果（虚线）比较。三个面板对应不同的轨道圆度：$\varepsilon =0.3, 0.5, 0.7$。另外$\eta = 1.0$。该图说明应用拟合的库仑对数预言的\dft 与数值模拟的结果符合得很好。\relax }{figure.4.11}{}}
\@writefile{lof}{\contentsline {figure}{\numberline {4.12}{\ignorespaces 类似图\hspace  {0.25em plus 0.125em minus 0.08em}\ignorespaces \ref  {fig:tmerge}，但这里比较的是角动量的演化。}}{60}{figure.4.12}}
\newlabel{fig:goodj2}{{4.12}{60}{类似图~\ref {fig:tmerge}，但这里比较的是角动量的演化。\relax }{figure.4.12}{}}
\@writefile{toc}{\contentsline {section}{\numberline {4.8}小结}{60}{section.4.8}}
\@setckpt{chapter/dft}{
\setcounter{page}{62}
\setcounter{equation}{8}
\setcounter{enumi}{2}
\setcounter{enumii}{0}
\setcounter{enumiii}{0}
\setcounter{enumiv}{0}
\setcounter{footnote}{2}
\setcounter{mpfootnote}{0}
\setcounter{CTEX@sectiondepth}{2}
\setcounter{part}{0}
\setcounter{chapter}{4}
\setcounter{section}{8}
\setcounter{subsection}{0}
\setcounter{subsubsection}{0}
\setcounter{paragraph}{0}
\setcounter{subparagraph}{0}
\setcounter{figure}{12}
\setcounter{table}{1}
\setcounter{parentequation}{17}
\setcounter{NAT@ctr}{0}
\setcounter{Item}{2}
\setcounter{Hfootnote}{3}
\setcounter{algo}{0}
\setcounter{thm}{0}
\setcounter{defn}{0}
\setcounter{conj}{0}
\setcounter{exmp}{0}
\setcounter{rem}{0}
\setcounter{case}{0}
\setcounter{section@level}{1}
}
