\relax 
\@writefile{toc}{\contentsline {chapter}{\numberline {第三章\hspace  {0.3em}}暗晕次结构的动力学演化模型}{31}{chapter.3}}
\@writefile{lof}{\addvspace {10\p@ }}
\@writefile{lot}{\addvspace {10\p@ }}
\newlabel{chap:dynamics}{{三}{31}{暗晕次结构的动力学演化模型\relax }{chapter.3}{}}
\@writefile{toc}{\contentsline {section}{\numberline {3.1}引力势}{31}{section.3.1}}
\@writefile{toc}{\contentsline {subsection}{\numberline {3.1.1}一般结论}{31}{subsection.3.1.1}}
\newlabel{eq:gravity}{{3.1}{31}{一般结论\relax }{equation.3.1}{}}
\newlabel{eq:potential}{{3.2}{31}{一般结论\relax }{equation.3.2}{}}
\newlabel{eq:gravity1}{{3.3}{31}{一般结论\relax }{equation.3.3}{}}
\newlabel{eq:poission}{{3.4}{32}{一般结论\relax }{equation.3.4}{}}
\@writefile{toc}{\contentsline {subsection}{\numberline {3.1.2}星系暗晕}{32}{subsection.3.1.2}}
\@writefile{toc}{\contentsline {subsection}{\numberline {3.1.3}演化势}{33}{subsection.3.1.3}}
\@writefile{lof}{\contentsline {figure}{\numberline {3.1}{\ignorespaces 在暗晕质量增长的情况下，其质量轮廓，密度轮廓以及势场的演化。}}{33}{figure.3.1}}
\newlabel{fig:potential_t}{{3.1}{33}{在暗晕质量增长的情况下，其质量轮廓，密度轮廓以及势场的演化。\relax }{figure.3.1}{}}
\@writefile{toc}{\contentsline {section}{\numberline {3.2}动力磨擦}{34}{section.3.2}}
\newlabel{sec:dynamicalfriction}{{3.2}{34}{动力磨擦\relax }{section.3.2}{}}
\@writefile{toc}{\contentsline {subsection}{\numberline {3.2.1}动力磨擦的形成}{34}{subsection.3.2.1}}
\@writefile{lof}{\contentsline {figure}{\numberline {3.2}{\ignorespaces 物体运动过程中其环境物质的密度变化。等值线上的数字表示该位置物 质密度的相对增加值。物体沿$z$正方向运动，其后方的密度比前方增加的多 。图片来自Mulder 1983}}{34}{figure.3.2}}
\newlabel{fig:f_df}{{3.2}{34}{物体运动过程中其环境物质的密度变化。等值线上的数字表示该位置物 质密度的相对增加值。物体沿$z$正方向运动，其后方的密度比前方增加的多 。图片来自Mulder 1983\relax }{figure.3.2}{}}
\newlabel{eq:F_df_ori}{{3.8}{35}{动力磨擦的形成\relax }{equation.3.8}{}}
\newlabel{eq:F_df}{{3.9}{35}{动力磨擦的形成\relax }{equation.3.9}{}}
\@writefile{toc}{\contentsline {subsection}{\numberline {3.2.2}库仑对数}{36}{subsection.3.2.2}}
\newlabel{subsec:CL}{{3.2.2}{36}{库仑对数\relax }{subsection.3.2.2}{}}
\@writefile{toc}{\contentsline {section}{\numberline {3.3}次结构的轨道演化}{37}{section.3.3}}
\newlabel{sec:orbitalevolution}{{3.3}{37}{次结构的轨道演化\relax }{section.3.3}{}}
\@writefile{toc}{\contentsline {section}{\numberline {3.4}潮汐效应}{37}{section.3.4}}
\newlabel{sec:tidalforce}{{3.4}{37}{潮汐效应\relax }{section.3.4}{}}
\@writefile{toc}{\contentsline {subsection}{\numberline {3.4.1}潮汐半径与潮汐质量剥离}{38}{subsection.3.4.1}}
\newlabel{eq:r_t_orig}{{3.18}{38}{潮汐半径与潮汐质量剥离\relax }{equation.3.18}{}}
\newlabel{eq:r_t}{{3.19}{38}{潮汐半径与潮汐质量剥离\relax }{equation.3.19}{}}
\@writefile{lof}{\contentsline {figure}{\numberline {3.3}{\ignorespaces 两体相互绕转时，其周围势能等强度线的分布。图片来自BT87。}}{38}{figure.3.3}}
\newlabel{fig:isopotential}{{3.3}{38}{两体相互绕转时，其周围势能等强度线的分布。图片来自BT87。\relax }{figure.3.3}{}}
\newlabel{eq:strip}{{3.20}{39}{潮汐半径与潮汐质量剥离\relax }{equation.3.20}{}}
\newlabel{eq:Adef}{{3.21}{39}{潮汐半径与潮汐质量剥离\relax }{equation.3.21}{}}
\@writefile{toc}{\contentsline {subsection}{\numberline {3.4.2}潮汐加热}{39}{subsection.3.4.2}}
\newlabel{subsec:heating}{{3.4.2}{39}{潮汐加热\relax }{subsection.3.4.2}{}}
\@writefile{lof}{\contentsline {figure}{\numberline {3.4}{\ignorespaces 次结构受潮汐加热前后的密度轮廓。图中数值为次结 构受潮汐剥离后剩余的质量比率。次结构质量损失越多，潮汐加热 程度越大。}}{40}{figure.3.4}}
\newlabel{fig:heating}{{3.4}{40}{次结构受潮汐加热前后的密度轮廓。图中数值为次结 构受潮汐剥离后剩余的质量比率。次结构质量损失越多，潮汐加热 程度越大。\relax }{figure.3.4}{}}
\newlabel{eq:heating}{{3.22}{40}{潮汐加热\relax }{equation.3.22}{}}
\@writefile{toc}{\contentsline {section}{\numberline {3.5}次结构间的相互作用}{41}{section.3.5}}
\newlabel{sec:subsubinteraction}{{3.5}{41}{次结构间的相互作用\relax }{section.3.5}{}}
\@writefile{toc}{\contentsline {section}{\numberline {3.6}关于潮汐瓦解的讨论}{41}{section.3.6}}
\newlabel{sec:fate_discuss}{{3.6}{41}{关于潮汐瓦解的讨论\relax }{section.3.6}{}}
\@setckpt{chapter/dynamics}{
\setcounter{page}{44}
\setcounter{equation}{27}
\setcounter{enumi}{0}
\setcounter{enumii}{0}
\setcounter{enumiii}{0}
\setcounter{enumiv}{0}
\setcounter{footnote}{1}
\setcounter{mpfootnote}{0}
\setcounter{CTEX@sectiondepth}{2}
\setcounter{part}{0}
\setcounter{chapter}{3}
\setcounter{section}{6}
\setcounter{subsection}{0}
\setcounter{subsubsection}{0}
\setcounter{paragraph}{0}
\setcounter{subparagraph}{0}
\setcounter{figure}{4}
\setcounter{table}{0}
\setcounter{parentequation}{17}
\setcounter{NAT@ctr}{0}
\setcounter{Item}{0}
\setcounter{Hfootnote}{1}
\setcounter{algo}{0}
\setcounter{thm}{0}
\setcounter{defn}{0}
\setcounter{conj}{0}
\setcounter{exmp}{0}
\setcounter{rem}{0}
\setcounter{case}{0}
\setcounter{section@level}{1}
}
