\relax 
\@writefile{toc}{\contentsline {chapter}{\numberline {第五章\hspace  {0.3em}}银河系大小暗晕中次结构的分布}{63}{chapter.5}}
\@writefile{lof}{\addvspace {10\p@ }}
\@writefile{lot}{\addvspace {10\p@ }}
\newlabel{chap:MW}{{五}{63}{银河系大小暗晕中次结构的分布\relax }{chapter.5}{}}
\@writefile{toc}{\contentsline {section}{\numberline {5.1}引言}{63}{section.5.1}}
\@writefile{toc}{\contentsline {section}{\numberline {5.2}模型参量}{63}{section.5.2}}
\@writefile{toc}{\contentsline {subsection}{\numberline {5.2.1}宇宙学参数}{63}{subsection.5.2.1}}
\@writefile{toc}{\contentsline {subsection}{\numberline {5.2.2}暗晕的吸积历史}{64}{subsection.5.2.2}}
\@writefile{lof}{\contentsline {figure}{\numberline {5.1}{\ignorespaces 暗晕的质量吸积历史（MAH）：并合树中主前身暗晕的质量随时间的演化。 主暗晕在红移$z=0$的质量是$M(z=0)=1.77 \times 10^{12}M_{\odot }$。细线表示的是由 蒙特卡罗法产生的随机的$10$个MAHs；带误差棒的粗线表示的是$100$个MAHs的平均和 标准偏差。}}{64}{figure.5.1}}
\newlabel{fig:mhaloz}{{5.1}{64}{暗晕的质量吸积历史（MAH）：并合树中主前身暗晕的质量随时间的演化。 主暗晕在红移$z=0$的质量是$M(z=0)=1.77 \times 10^{12}M_{\odot }$。细线表示的是由 蒙特卡罗法产生的随机的$10$个MAHs；带误差棒的粗线表示的是$100$个MAHs的平均和 标准偏差。\relax }{figure.5.1}{}}
\@writefile{toc}{\contentsline {subsection}{\numberline {5.2.3}暗晕轮廓}{65}{subsection.5.2.3}}
\newlabel{eq:delta_c_mw}{{5.1}{65}{暗晕轮廓\relax }{equation.5.1}{}}
\newlabel{eq:c_mz}{{5.2}{65}{暗晕轮廓\relax }{equation.5.2}{}}
\@writefile{toc}{\contentsline {subsection}{\numberline {5.2.4}初始轨道分布}{65}{subsection.5.2.4}}
\@writefile{toc}{\contentsline {subsection}{\numberline {5.2.5}模型说明}{66}{subsection.5.2.5}}
\@writefile{lof}{\contentsline {figure}{\numberline {5.2}{\ignorespaces 模型M1中次结构质量和轨道半径的演化。初始条件为$\rm  R_m^{-1}= 0.05$， $\varepsilon = 0.5$ 和 $\eta = 1.0$。左面板中，$\qopname  \relax o{ln}\Lambda =- \qopname  \relax o{ln}\mu $， $A$是变化的；右面板中，$A=3.5$，$\qopname  \relax o{ln}\Lambda $是变化的。}}{66}{figure.5.2}}
\newlabel{fig:modelA}{{5.2}{66}{模型M1中次结构质量和轨道半径的演化。初始条件为$\Rin = 0.05$， $\varepsilon = 0.5$ 和 $\eta = 1.0$。左面板中，$\ln \Lambda =- \ln \mu $， $A$是变化的；右面板中，$A=3.5$，$\ln \Lambda $是变化的。\relax }{figure.5.2}{}}
\@writefile{toc}{\contentsline {subsection}{\numberline {5.2.6}模型特点}{67}{subsection.5.2.6}}
\@writefile{toc}{\contentsline {section}{\numberline {5.3}质量函数}{67}{section.5.3}}
\newlabel{sec:mfunc_mw}{{5.3}{67}{质量函数\relax }{section.5.3}{}}
\@writefile{lof}{\contentsline {figure}{\numberline {5.3}{\ignorespaces 银河系大小暗晕中的次结构质量函数（SHMF）。左面板中，实线给出的是模型M2的结果（$A=3.5$\hspace  {0.25em plus 0.125em minus 0.08em}\ignorespaces {}， 库仑对数由方程\hspace  {0.25em plus 0.125em minus 0.08em}\ignorespaces [\ref  {eq:fitting}]给定）；点虚线、长虚线分别是数值模拟得到的 未演化的和演化的SHMF；点线是从EPS并合树主分支得到的SHMF。 中间面板给出模型M1的结果， 并与数值模拟比较，同时$\qopname  \relax o{ln}\Lambda =-\qopname  \relax o{ln}\mu $，$A=1, 3.5, 10$\hspace  {0.25em plus 0.125em minus 0.08em}\ignorespaces ；而右边面板中， $\qopname  \relax o{ln}\Lambda =3, 4, 5$ ， $A=3.5$\hspace  {0.25em plus 0.125em minus 0.08em}\ignorespaces 。 }}{68}{figure.5.3}}
\newlabel{fig:mfunc_mw}{{5.3}{68}{银河系大小暗晕中的次结构质量函数（SHMF）。左面板中，实线给出的是模型M2的结果（\abest {}， 库仑对数由方程~[\ref {eq:fitting}]给定）；点虚线、长虚线分别是数值模拟得到的 未演化的和演化的SHMF；点线是从EPS并合树主分支得到的SHMF。 中间面板给出模型M1的结果， 并与数值模拟比较，同时$\ln \Lambda =-\ln \mu $，\AAA ；而右边面板中， $\ln \Lambda =3, 4, 5$ ， \abest 。 \relax }{figure.5.3}{}}
\@writefile{toc}{\contentsline {section}{\numberline {5.4}径向分布}{69}{section.5.4}}
\newlabel{sec:rfunc_mw}{{5.4}{69}{径向分布\relax }{section.5.4}{}}
\@writefile{lof}{\contentsline {figure}{\numberline {5.4}{\ignorespaces  类似图\hspace  {0.25em plus 0.125em minus 0.08em}\ignorespaces \ref  {sec:mfunc_mw}，但这里给出的是次结构径向数目分布。左边面板还给出 了银河中的伴星系分布（正方形）；阴影区域给出的是数值模拟得到的径向分布，其中上限是Via Lactea 的结果，下限是Aquarius的结果。}}{69}{figure.5.4}}
\newlabel{fig:rfunc_mw}{{5.4}{69}{ 类似图~\ref {sec:mfunc_mw}，但这里给出的是次结构径向数目分布。左边面板还给出 了银河中的伴星系分布（正方形）；阴影区域给出的是数值模拟得到的径向分布，其中上限是Via Lactea 的结果，下限是Aquarius的结果。\relax }{figure.5.4}{}}
\@writefile{lof}{\contentsline {figure}{\numberline {5.5}{\ignorespaces 次结构径向分布对次结构$z=0$时的质量、吸积时的质量和吸积时间（红移）的依赖关系。 左面板中的灰线给出的是Via Lactea数值模拟预言的分布。 }}{71}{figure.5.5}}
\newlabel{fig:rfunc_mczc_M2}{{5.5}{71}{次结构径向分布对次结构$z=0$时的质量、吸积时的质量和吸积时间（红移）的依赖关系。 左面板中的灰线给出的是Via Lactea数值模拟预言的分布。 \relax }{figure.5.5}{}}
\@writefile{toc}{\contentsline {section}{\numberline {5.5}关于径向分布的进一步讨论}{71}{section.5.5}}
\newlabel{sec:rfunc_discuss}{{5.5}{71}{关于径向分布的进一步讨论\relax }{section.5.5}{}}
\@writefile{toc}{\contentsline {section}{\numberline {5.6}小结}{72}{section.5.6}}
\@setckpt{chapter/MW}{
\setcounter{page}{74}
\setcounter{equation}{3}
\setcounter{enumi}{2}
\setcounter{enumii}{0}
\setcounter{enumiii}{0}
\setcounter{enumiv}{0}
\setcounter{footnote}{2}
\setcounter{mpfootnote}{0}
\setcounter{CTEX@sectiondepth}{2}
\setcounter{part}{0}
\setcounter{chapter}{5}
\setcounter{section}{6}
\setcounter{subsection}{0}
\setcounter{subsubsection}{0}
\setcounter{paragraph}{0}
\setcounter{subparagraph}{0}
\setcounter{figure}{5}
\setcounter{table}{0}
\setcounter{parentequation}{17}
\setcounter{NAT@ctr}{0}
\setcounter{Item}{2}
\setcounter{Hfootnote}{5}
\setcounter{algo}{0}
\setcounter{thm}{0}
\setcounter{defn}{0}
\setcounter{conj}{0}
\setcounter{exmp}{0}
\setcounter{rem}{0}
\setcounter{case}{0}
\setcounter{section@level}{1}
}
