%!PS-Adobe-3.0 EPSF-3.0
%%BoundingBox: 0 0 283 226
%%Title: Graphics produced by IDL
%%For: jlgan@Hserver, /home/jlgan/work/phoenix
%%Creator: IDL Version 7.1.1 (linux x86_64 m64)
%%CreationDate: Thu Nov 13 22:46:59 2014
%%DocumentData: Clean7bit
%%Requirements: color
%%LanguageLevel: 1
%%PageOrder: Ascend
%%Pages: (atend)
%%DocumentNeededResources: (atend)
%%EndComments
%%BeginProlog
%+ prolog.ps -- Prolog for IDL generated PostScript files
%+ Copyright (c) 1988-2009 ITT Visual Information Solutions. All Rights Reserved.
%v 5
/$IDL_DICT 40 dict def $IDL_DICT begin /bdef { bind def } bind def /C
{currentpoint newpath moveto} bdef /CP {currentpoint} bdef /D {currentpoint
stroke moveto} bdef /F {closepath fill} bdef /K { setgray } bdef /M {moveto}
bdef /N {rmoveto} bdef /P {lineto} bdef /R {rlineto} bdef /S {gsave show
grestore} bdef /X {currentpoint pop} bdef /Z {gsave currentpoint lineto 20
setlinewidth 1 setlinecap stroke grestore} bdef /L0 {[] 0 setdash} bdef /L1
{[40 100] 0 setdash} bdef /L2 {[200 200] 0 setdash} bdef /L3 {[200 100 50
100] 0 setdash} bdef /L4 {[300 100 50 100 50 100 50 100] 0 setdash} bdef /L5
{[400 200] 0 setdash} bdef /STDFONT { findfont exch scalefont setfont } bdef
/ISOFONT { findfont dup length dict begin { 1 index /FID ne {def} {pop pop}
ifelse } forall /Encoding ISOLatin1Encoding def currentdict end /idltmpfont
exch definefont exch scalefont setfont } bdef /ISOBULLET { gsave /Helvetica
findfont exch scalefont setfont (\267) show currentpoint grestore moveto}
bdef /MITERLIMIT { 2.5 setmiterlimit } bdef end
%%EndProlog
%%Page: 0 1
%%PageRequirements: color
%%PageResources: (atend)
%%PageOrientation: Portrait
%%PageBoundingBox: 0 0 283 226
%%BeginPageSetup
$IDL_DICT begin 0.0283465 dup scale MITERLIMIT
%%IncludeResource: font Helvetica
423.333 /Helvetica STDFONT
%%EndPageSetup
30 setlinewidth L0 0.000 0.000 0.000 setrgbcolor 2220 1408 M 7114 0 R D
2220 1408 M 0 177 R D gsave 2220 880 translate 0 0 M -188.172 0 N
(-4) show grestore 3999 1408 M 0 177 R D gsave 3999 880 translate 0 0 M
-188.172 0 N
(-2) show grestore 5777 1408 M 0 177 R D gsave 5777 880 translate 0 0 M
-117.687 0 N
(0) show grestore 7556 1408 M 0 177 R D gsave 7556 880 translate 0 0 M
-117.687 0 N
(2) show grestore 9334 1408 M 0 177 R D gsave 9334 880 translate 0 0 M
-117.687 0 N
(4) show grestore 2665 1408 M 0 88 R D 3109 1408 M 0 88 R D 3554 1408 M
0 88 R D 4443 1408 M 0 88 R D 4888 1408 M 0 88 R D 5332 1408 M 0 88 R D
6222 1408 M 0 88 R D 6666 1408 M 0 88 R D 7111 1408 M 0 88 R D 8000 1408 M
0 88 R D 8445 1408 M 0 88 R D 8889 1408 M 0 88 R D
gsave 5777 422 translate 0 0 M -870.585 0 N
(log[B / D]) show grestore 2220 7296 M 7114 0 R D 2220 7296 M 0 -177 R D
3999 7296 M 0 -177 R D 5777 7296 M 0 -177 R D 7556 7296 M 0 -177 R D
9334 7296 M 0 -177 R D 2665 7296 M 0 -88 R D 3109 7296 M 0 -88 R D
3554 7296 M 0 -88 R D 4443 7296 M 0 -88 R D 4888 7296 M 0 -88 R D
5332 7296 M 0 -88 R D 6222 7296 M 0 -88 R D 6666 7296 M 0 -88 R D
7111 7296 M 0 -88 R D 8000 7296 M 0 -88 R D 8445 7296 M 0 -88 R D
8889 7296 M 0 -88 R D 2220 1408 M 0 5888 R D 2220 2535 M 213 0 R D
gsave 2109 2394 translate 0 0 M -470.747 0 N
(10) show grestore 2220 4146 M 213 0 R D gsave 2109 4006 translate 0 0 M
-706.12 0 N
(100) show grestore 2220 5758 M 213 0 R D gsave 2109 5617 translate 0 0 M
-941.493 0 N
(1000) show grestore 2220 1408 M 107 0 R D 2220 1692 M 107 0 R D 2220 1893 M
107 0 R D 2220 2049 M 107 0 R D 2220 2177 M 107 0 R D 2220 2285 M 107 0 R D
2220 2378 M 107 0 R D 2220 2461 M 107 0 R D 2220 3020 M 107 0 R D
2220 3304 M 107 0 R D 2220 3505 M 107 0 R D 2220 3661 M 107 0 R D
2220 3789 M 107 0 R D 2220 3897 M 107 0 R D 2220 3990 M 107 0 R D
2220 4073 M 107 0 R D 2220 4632 M 107 0 R D 2220 4915 M 107 0 R D
2220 5117 M 107 0 R D 2220 5273 M 107 0 R D 2220 5400 M 107 0 R D
2220 5508 M 107 0 R D 2220 5602 M 107 0 R D 2220 5684 M 107 0 R D
2220 6243 M 107 0 R D 2220 6527 M 107 0 R D 2220 6728 M 107 0 R D
2220 6885 M 107 0 R D 2220 7012 M 107 0 R D 2220 7120 M 107 0 R D
2220 7214 M 107 0 R D 2220 7296 M 107 0 R D gsave 835 4352 translate 0 0 M
90 rotate -764.54 0 N
(Fraction) show grestore 9334 1408 M 0 5888 R D 9334 2535 M -213 0 R D
9334 4146 M -213 0 R D 9334 5758 M -213 0 R D 9334 1408 M -107 0 R D
9334 1692 M -107 0 R D 9334 1893 M -107 0 R D 9334 2049 M -107 0 R D
9334 2177 M -107 0 R D 9334 2285 M -107 0 R D 9334 2378 M -107 0 R D
9334 2461 M -107 0 R D 9334 3020 M -107 0 R D 9334 3304 M -107 0 R D
9334 3505 M -107 0 R D 9334 3661 M -107 0 R D 9334 3789 M -107 0 R D
9334 3897 M -107 0 R D 9334 3990 M -107 0 R D 9334 4073 M -107 0 R D
9334 4632 M -107 0 R D 9334 4915 M -107 0 R D 9334 5117 M -107 0 R D
9334 5273 M -107 0 R D 9334 5400 M -107 0 R D 9334 5508 M -107 0 R D
9334 5602 M -107 0 R D 9334 5684 M -107 0 R D 9334 6243 M -107 0 R D
9334 6527 M -107 0 R D 9334 6728 M -107 0 R D 9334 6885 M -107 0 R D
9334 7012 M -107 0 R D 9334 7120 M -107 0 R D 9334 7214 M -107 0 R D
9334 7296 M -107 0 R D 1.000 0.000 0.000 setrgbcolor 3109 1832 M 178 602 R
178 266 R 178 521 R 178 368 R 178 386 R 177 460 R 178 430 R 178 260 R
178 137 R 178 69 R 178 -48 R 178 -80 R 177 -113 R 178 -62 R 178 -146 R
178 -181 R 178 -209 R 178 -170 R 177 -252 R 178 -277 R 178 -162 R 178 -242 R
178 -142 R 178 44 R 178 136 R 177 90 R 178 -50 R 178 -111 R 178 -291 R
178 -45 R 178 -166 R 178 -73 R 177 -22 R 178 -11 R 178 207 R D L1
3109 1853 M 178 398 R 178 385 R 178 429 R 178 494 R 178 371 R 177 487 R
178 431 R 178 282 R 178 149 R 178 74 R 178 -42 R 178 -92 R 177 -126 R
178 -58 R 178 -140 R 178 -137 R 178 -216 R 178 -174 R 177 -233 R 178 -290 R
178 -137 R 178 -229 R 178 -226 R 178 -93 R 178 64 R 177 134 R 178 65 R
178 42 R 178 -124 R 178 -184 R 178 -190 R 178 -8 R 177 -110 R 178 151 R
178 -176 R D L2 3109 1482 M 178 598 R 178 171 R 178 598 R 178 538 R
178 446 R 177 535 R 178 461 R 178 312 R 178 186 R 178 82 R 178 -30 R
178 -93 R 177 -140 R 178 -116 R 178 -161 R 178 -123 R 178 -227 R 178 -139 R
177 -200 R 178 -255 R 178 -210 R 178 -191 R 178 -15 R 178 -291 R 178 -94 R
177 -124 R 178 -235 R 178 274 R 178 58 R 178 259 R 178 -129 R 178 -6 R
177 -160 R 178 127 R 178 -70 R D
%%PageTrailer
end
%%PageResources: font Helvetica
%%Trailer
%%Pages: 1
%%DocumentNeededResources: font Helvetica
%%EOF
