%!PS-Adobe-3.0 EPSF-3.0
%%BoundingBox: 0 0 510 453
%%Title: Graphics produced by IDL
%%For: jlgan@Hserver, /home/jlgan/work/phoenix
%%Creator: IDL Version 7.1.1 (linux x86_64 m64)
%%CreationDate: Fri Jul  4 10:46:08 2014
%%DocumentData: Clean7bit
%%Requirements: color
%%LanguageLevel: 1
%%PageOrder: Ascend
%%Pages: (atend)
%%DocumentNeededResources: (atend)
%%EndComments
%%BeginProlog
%+ prolog.ps -- Prolog for IDL generated PostScript files
%+ Copyright (c) 1988-2009 ITT Visual Information Solutions. All Rights Reserved.
%v 5
/$IDL_DICT 40 dict def $IDL_DICT begin /bdef { bind def } bind def /C
{currentpoint newpath moveto} bdef /CP {currentpoint} bdef /D {currentpoint
stroke moveto} bdef /F {closepath fill} bdef /K { setgray } bdef /M {moveto}
bdef /N {rmoveto} bdef /P {lineto} bdef /R {rlineto} bdef /S {gsave show
grestore} bdef /X {currentpoint pop} bdef /Z {gsave currentpoint lineto 20
setlinewidth 1 setlinecap stroke grestore} bdef /L0 {[] 0 setdash} bdef /L1
{[40 100] 0 setdash} bdef /L2 {[200 200] 0 setdash} bdef /L3 {[200 100 50
100] 0 setdash} bdef /L4 {[300 100 50 100 50 100 50 100] 0 setdash} bdef /L5
{[400 200] 0 setdash} bdef /STDFONT { findfont exch scalefont setfont } bdef
/ISOFONT { findfont dup length dict begin { 1 index /FID ne {def} {pop pop}
ifelse } forall /Encoding ISOLatin1Encoding def currentdict end /idltmpfont
exch definefont exch scalefont setfont } bdef /ISOBULLET { gsave /Helvetica
findfont exch scalefont setfont (\267) show currentpoint grestore moveto}
bdef /MITERLIMIT { 2.5 setmiterlimit } bdef end
%%EndProlog
%%Page: 0 1
%%PageRequirements: color
%%PageResources: (atend)
%%PageOrientation: Portrait
%%PageBoundingBox: 0 0 510 453
%%BeginPageSetup
$IDL_DICT begin 0.0283465 dup scale MITERLIMIT
%%IncludeResource: font Helvetica
423.333 /Helvetica STDFONT
%%EndPageSetup
0.000 0.000 0.000 setrgbcolor gsave 9777 352 translate 0 0 M -329.353 0 N
(B/T) show grestore gsave 888 8352 translate 0 0 M 90 rotate -1576.07 0 N
(Number Fraction) show grestore 30 setlinewidth L0 2220 10667 M 5038 0 R D
3187 10667 M 0 185 R D gsave 3187 10139 translate 0 0 M -58.8433 0 N
( ) show grestore 4205 10667 M 0 185 R D gsave 4205 10139 translate 0 0 M
-58.8433 0 N
( ) show grestore 5223 10667 M 0 185 R D gsave 5223 10139 translate 0 0 M
-58.8433 0 N
( ) show grestore 6240 10667 M 0 185 R D gsave 6240 10139 translate 0 0 M
-58.8433 0 N
( ) show grestore 7258 10667 M 0 185 R D gsave 7258 10139 translate 0 0 M
-58.8433 0 N
( ) show grestore 2424 10667 M 0 92 R D 2678 10667 M 0 92 R D 2933 10667 M
0 92 R D 3441 10667 M 0 92 R D 3696 10667 M 0 92 R D 3950 10667 M 0 92 R D
4459 10667 M 0 92 R D 4714 10667 M 0 92 R D 4968 10667 M 0 92 R D
5477 10667 M 0 92 R D 5731 10667 M 0 92 R D 5986 10667 M 0 92 R D
6495 10667 M 0 92 R D 6749 10667 M 0 92 R D 7004 10667 M 0 92 R D
2220 15296 M 5038 0 R D 3187 15296 M 0 -185 R D 4205 15296 M 0 -185 R D
5223 15296 M 0 -185 R D 6240 15296 M 0 -185 R D 7258 15296 M 0 -185 R D
2424 15296 M 0 -93 R D 2678 15296 M 0 -93 R D 2933 15296 M 0 -93 R D
3441 15296 M 0 -93 R D 3696 15296 M 0 -93 R D 3950 15296 M 0 -93 R D
4459 15296 M 0 -93 R D 4714 15296 M 0 -93 R D 4968 15296 M 0 -93 R D
5477 15296 M 0 -93 R D 5731 15296 M 0 -93 R D 5986 15296 M 0 -93 R D
6495 15296 M 0 -93 R D 6749 15296 M 0 -93 R D 7004 15296 M 0 -93 R D
2220 10667 M 0 4629 R D 2220 10667 M 202 0 R D
gsave 2109 10667 translate 0 0 M -588.433 0 N
(0.0) show grestore 2220 11854 M 202 0 R D gsave 2109 11713 translate 0 0 M
-588.433 0 N
(0.1) show grestore 2220 13041 M 202 0 R D gsave 2109 12900 translate 0 0 M
-588.433 0 N
(0.2) show grestore 2220 14228 M 202 0 R D gsave 2109 14087 translate 0 0 M
-588.433 0 N
(0.3) show grestore 2220 10785 M 101 0 R D 2220 10904 M 101 0 R D
2220 11023 M 101 0 R D 2220 11142 M 101 0 R D 2220 11260 M 101 0 R D
2220 11379 M 101 0 R D 2220 11498 M 101 0 R D 2220 11616 M 101 0 R D
2220 11735 M 101 0 R D 2220 11972 M 101 0 R D 2220 12091 M 101 0 R D
2220 12210 M 101 0 R D 2220 12329 M 101 0 R D 2220 12447 M 101 0 R D
2220 12566 M 101 0 R D 2220 12685 M 101 0 R D 2220 12803 M 101 0 R D
2220 12922 M 101 0 R D 2220 13159 M 101 0 R D 2220 13278 M 101 0 R D
2220 13397 M 101 0 R D 2220 13516 M 101 0 R D 2220 13634 M 101 0 R D
2220 13753 M 101 0 R D 2220 13872 M 101 0 R D 2220 13990 M 101 0 R D
2220 14109 M 101 0 R D 2220 14346 M 101 0 R D 2220 14465 M 101 0 R D
2220 14584 M 101 0 R D 2220 14703 M 101 0 R D 2220 14821 M 101 0 R D
2220 14940 M 101 0 R D 2220 15059 M 101 0 R D 2220 15177 M 101 0 R D
2220 15296 M 101 0 R D 7258 10667 M 0 4629 R D 7258 10667 M -201 0 R D
7258 11854 M -201 0 R D 7258 13041 M -201 0 R D 7258 14228 M -201 0 R D
7258 10785 M -101 0 R D 7258 10904 M -101 0 R D 7258 11023 M -101 0 R D
7258 11142 M -101 0 R D 7258 11260 M -101 0 R D 7258 11379 M -101 0 R D
7258 11498 M -101 0 R D 7258 11616 M -101 0 R D 7258 11735 M -101 0 R D
7258 11972 M -101 0 R D 7258 12091 M -101 0 R D 7258 12210 M -101 0 R D
7258 12329 M -101 0 R D 7258 12447 M -101 0 R D 7258 12566 M -101 0 R D
7258 12685 M -101 0 R D 7258 12803 M -101 0 R D 7258 12922 M -101 0 R D
7258 13159 M -101 0 R D 7258 13278 M -101 0 R D 7258 13397 M -101 0 R D
7258 13516 M -101 0 R D 7258 13634 M -101 0 R D 7258 13753 M -101 0 R D
7258 13872 M -101 0 R D 7258 13990 M -101 0 R D 7258 14109 M -101 0 R D
7258 14346 M -101 0 R D 7258 14465 M -101 0 R D 7258 14584 M -101 0 R D
7258 14703 M -101 0 R D 7258 14821 M -101 0 R D 7258 14940 M -101 0 R D
7258 15059 M -101 0 R D 7258 15177 M -101 0 R D 7258 15296 M -101 0 R D
0.761 0.000 0.000 setrgbcolor 2424 15296 M 0 -3746 R 254 0 R 255 0 R
0 -108 R 254 0 R 254 0 R 0 -133 R 255 0 R 254 0 R 0 -74 R 255 0 R 254 0 R
0 -62 R 255 0 R 254 0 R 0 -129 R 255 0 R 254 0 R 0 33 R 254 0 R 255 0 R
0 -79 R 254 0 R 255 0 R 254 0 R 255 0 R 0 378 R 254 0 R D L1
0.000 0.549 0.000 setrgbcolor 2424 15296 M 0 -3729 R 254 0 R 255 0 R
0 -108 R 254 0 R 254 0 R 0 -158 R 255 0 R 254 0 R 0 -37 R 255 0 R 254 0 R
0 -60 R 255 0 R 254 0 R 0 -157 R 255 0 R 254 0 R 0 43 R 254 0 R 255 0 R
0 -87 R 254 0 R 255 0 R 0 -32 R 254 0 R 255 0 R 0 385 R 254 0 R D L2
0.000 0.000 1.000 setrgbcolor 2424 15296 M 0 -3803 R 254 0 R 255 0 R
0 -105 R 254 0 R 254 0 R 0 -53 R 255 0 R 254 0 R 0 -193 R 255 0 R 254 0 R
0 -71 R 255 0 R 254 0 R 0 -35 R 255 0 R 254 0 R 254 0 R 255 0 R 0 -53 R
254 0 R 255 0 R 0 106 R 254 0 R 255 0 R 0 352 R 254 0 R D L0
0.000 0.000 0.000 setrgbcolor 7258 10667 M 5038 0 R D 8225 10667 M 0 185 R D
gsave 8225 10139 translate 0 0 M -58.8433 0 N
( ) show grestore 9243 10667 M 0 185 R D gsave 9243 10139 translate 0 0 M
-58.8433 0 N
( ) show grestore 10261 10667 M 0 185 R D gsave 10261 10139 translate 0 0 M
-58.8433 0 N
( ) show grestore 11278 10667 M 0 185 R D gsave 11278 10139 translate 0 0 M
-58.8433 0 N
( ) show grestore 12296 10667 M 0 185 R D gsave 12296 10139 translate 0 0 M
-58.8433 0 N
( ) show grestore 7462 10667 M 0 92 R D 7716 10667 M 0 92 R D 7971 10667 M
0 92 R D 8479 10667 M 0 92 R D 8734 10667 M 0 92 R D 8988 10667 M 0 92 R D
9497 10667 M 0 92 R D 9752 10667 M 0 92 R D 10006 10667 M 0 92 R D
10515 10667 M 0 92 R D 10769 10667 M 0 92 R D 11024 10667 M 0 92 R D
11533 10667 M 0 92 R D 11787 10667 M 0 92 R D 12042 10667 M 0 92 R D
7258 15296 M 5038 0 R D 8225 15296 M 0 -185 R D 9243 15296 M 0 -185 R D
10261 15296 M 0 -185 R D 11278 15296 M 0 -185 R D 12296 15296 M 0 -185 R D
7462 15296 M 0 -93 R D 7716 15296 M 0 -93 R D 7971 15296 M 0 -93 R D
8479 15296 M 0 -93 R D 8734 15296 M 0 -93 R D 8988 15296 M 0 -93 R D
9497 15296 M 0 -93 R D 9752 15296 M 0 -93 R D 10006 15296 M 0 -93 R D
10515 15296 M 0 -93 R D 10769 15296 M 0 -93 R D 11024 15296 M 0 -93 R D
11533 15296 M 0 -93 R D 11787 15296 M 0 -93 R D 12042 15296 M 0 -93 R D
7258 10667 M 0 4629 R D 7258 10667 M 202 0 R D
gsave 7147 10667 translate 0 0 M -117.687 0 N
( ) show grestore 7258 11854 M 202 0 R D gsave 7147 11713 translate 0 0 M
-117.687 0 N
( ) show grestore 7258 13041 M 202 0 R D gsave 7147 12900 translate 0 0 M
-117.687 0 N
( ) show grestore 7258 14228 M 202 0 R D gsave 7147 14087 translate 0 0 M
-117.687 0 N
( ) show grestore 7258 10785 M 101 0 R D 7258 10904 M 101 0 R D 7258 11023 M
101 0 R D 7258 11142 M 101 0 R D 7258 11260 M 101 0 R D 7258 11379 M 101 0 R
D 7258 11498 M 101 0 R D 7258 11616 M 101 0 R D 7258 11735 M 101 0 R D
7258 11972 M 101 0 R D 7258 12091 M 101 0 R D 7258 12210 M 101 0 R D
7258 12329 M 101 0 R D 7258 12447 M 101 0 R D 7258 12566 M 101 0 R D
7258 12685 M 101 0 R D 7258 12803 M 101 0 R D 7258 12922 M 101 0 R D
7258 13159 M 101 0 R D 7258 13278 M 101 0 R D 7258 13397 M 101 0 R D
7258 13516 M 101 0 R D 7258 13634 M 101 0 R D 7258 13753 M 101 0 R D
7258 13872 M 101 0 R D 7258 13990 M 101 0 R D 7258 14109 M 101 0 R D
7258 14346 M 101 0 R D 7258 14465 M 101 0 R D 7258 14584 M 101 0 R D
7258 14703 M 101 0 R D 7258 14821 M 101 0 R D 7258 14940 M 101 0 R D
7258 15059 M 101 0 R D 7258 15177 M 101 0 R D 7258 15296 M 101 0 R D
12296 10667 M 0 4629 R D 12296 10667 M -201 0 R D 12296 11854 M -201 0 R D
12296 13041 M -201 0 R D 12296 14228 M -201 0 R D 12296 10785 M -101 0 R D
12296 10904 M -101 0 R D 12296 11023 M -101 0 R D 12296 11142 M -101 0 R D
12296 11260 M -101 0 R D 12296 11379 M -101 0 R D 12296 11498 M -101 0 R D
12296 11616 M -101 0 R D 12296 11735 M -101 0 R D 12296 11972 M -101 0 R D
12296 12091 M -101 0 R D 12296 12210 M -101 0 R D 12296 12329 M -101 0 R D
12296 12447 M -101 0 R D 12296 12566 M -101 0 R D 12296 12685 M -101 0 R D
12296 12803 M -101 0 R D 12296 12922 M -101 0 R D 12296 13159 M -101 0 R D
12296 13278 M -101 0 R D 12296 13397 M -101 0 R D 12296 13516 M -101 0 R D
12296 13634 M -101 0 R D 12296 13753 M -101 0 R D 12296 13872 M -101 0 R D
12296 13990 M -101 0 R D 12296 14109 M -101 0 R D 12296 14346 M -101 0 R D
12296 14465 M -101 0 R D 12296 14584 M -101 0 R D 12296 14703 M -101 0 R D
12296 14821 M -101 0 R D 12296 14940 M -101 0 R D 12296 15059 M -101 0 R D
12296 15177 M -101 0 R D 12296 15296 M -101 0 R D
0.761 0.000 0.000 setrgbcolor 7462 15296 M 0 -3793 R 254 0 R 255 0 R
0 -206 R 254 0 R 254 0 R 0 -20 R 255 0 R 254 0 R 0 -66 R 255 0 R 254 0 R
0 -113 R 255 0 R 254 0 R 0 -62 R 255 0 R 254 0 R 0 -45 R 254 0 R 255 0 R
0 -15 R 254 0 R 255 0 R 0 -12 R 254 0 R 255 0 R 0 387 R 254 0 R D L1
0.000 0.549 0.000 setrgbcolor 7462 15296 M 0 -3772 R 254 0 R 255 0 R
0 -274 R 254 0 R 254 0 R 0 58 R 255 0 R 254 0 R 0 -94 R 255 0 R 254 0 R
0 -93 R 255 0 R 254 0 R 0 -79 R 255 0 R 254 0 R 0 -27 R 254 0 R 255 0 R
0 -47 R 254 0 R 255 0 R 0 39 R 254 0 R 255 0 R 0 325 R 254 0 R D L2
0.000 0.000 1.000 setrgbcolor 7462 15296 M 0 -3859 R 254 0 R 255 0 R 0 12 R
254 0 R 254 0 R 0 -273 R 255 0 R 254 0 R 0 25 R 255 0 R 254 0 R 0 -174 R
255 0 R 254 0 R 0 -13 R 255 0 R 254 0 R 0 -99 R 254 0 R 255 0 R 0 87 R
254 0 R 255 0 R 0 -174 R 254 0 R 255 0 R 0 584 R 254 0 R D L0
0.000 0.000 0.000 setrgbcolor 12296 10667 M 5038 0 R D 13263 10667 M 0 185 R
D gsave 13263 10139 translate 0 0 M -58.8433 0 N
( ) show grestore 14281 10667 M 0 185 R D gsave 14281 10139 translate 0 0 M
-58.8433 0 N
( ) show grestore 15299 10667 M 0 185 R D gsave 15299 10139 translate 0 0 M
-58.8433 0 N
( ) show grestore 16316 10667 M 0 185 R D gsave 16316 10139 translate 0 0 M
-58.8433 0 N
( ) show grestore 17334 10667 M 0 185 R D gsave 17334 10139 translate 0 0 M
-58.8433 0 N
( ) show grestore 12500 10667 M 0 92 R D 12754 10667 M 0 92 R D
13009 10667 M 0 92 R D 13517 10667 M 0 92 R D 13772 10667 M 0 92 R D
14026 10667 M 0 92 R D 14535 10667 M 0 92 R D 14790 10667 M 0 92 R D
15044 10667 M 0 92 R D 15553 10667 M 0 92 R D 15807 10667 M 0 92 R D
16062 10667 M 0 92 R D 16571 10667 M 0 92 R D 16825 10667 M 0 92 R D
17080 10667 M 0 92 R D 12296 15296 M 5038 0 R D 13263 15296 M 0 -185 R D
14281 15296 M 0 -185 R D 15299 15296 M 0 -185 R D 16316 15296 M 0 -185 R D
17334 15296 M 0 -185 R D 12500 15296 M 0 -93 R D 12754 15296 M 0 -93 R D
13009 15296 M 0 -93 R D 13517 15296 M 0 -93 R D 13772 15296 M 0 -93 R D
14026 15296 M 0 -93 R D 14535 15296 M 0 -93 R D 14790 15296 M 0 -93 R D
15044 15296 M 0 -93 R D 15553 15296 M 0 -93 R D 15807 15296 M 0 -93 R D
16062 15296 M 0 -93 R D 16571 15296 M 0 -93 R D 16825 15296 M 0 -93 R D
17080 15296 M 0 -93 R D 12296 10667 M 0 4629 R D 12296 10667 M 202 0 R D
gsave 12185 10667 translate 0 0 M -117.687 0 N
( ) show grestore 12296 11854 M 202 0 R D gsave 12185 11713 translate 0 0 M
-117.687 0 N
( ) show grestore 12296 13041 M 202 0 R D gsave 12185 12900 translate 0 0 M
-117.687 0 N
( ) show grestore 12296 14228 M 202 0 R D gsave 12185 14087 translate 0 0 M
-117.687 0 N
( ) show grestore 12296 10785 M 101 0 R D 12296 10904 M 101 0 R D
12296 11023 M 101 0 R D 12296 11142 M 101 0 R D 12296 11260 M 101 0 R D
12296 11379 M 101 0 R D 12296 11498 M 101 0 R D 12296 11616 M 101 0 R D
12296 11735 M 101 0 R D 12296 11972 M 101 0 R D 12296 12091 M 101 0 R D
12296 12210 M 101 0 R D 12296 12329 M 101 0 R D 12296 12447 M 101 0 R D
12296 12566 M 101 0 R D 12296 12685 M 101 0 R D 12296 12803 M 101 0 R D
12296 12922 M 101 0 R D 12296 13159 M 101 0 R D 12296 13278 M 101 0 R D
12296 13397 M 101 0 R D 12296 13516 M 101 0 R D 12296 13634 M 101 0 R D
12296 13753 M 101 0 R D 12296 13872 M 101 0 R D 12296 13990 M 101 0 R D
12296 14109 M 101 0 R D 12296 14346 M 101 0 R D 12296 14465 M 101 0 R D
12296 14584 M 101 0 R D 12296 14703 M 101 0 R D 12296 14821 M 101 0 R D
12296 14940 M 101 0 R D 12296 15059 M 101 0 R D 12296 15177 M 101 0 R D
12296 15296 M 101 0 R D 17334 10667 M 0 4629 R D 17334 10667 M -201 0 R D
17334 11854 M -201 0 R D 17334 13041 M -201 0 R D 17334 14228 M -201 0 R D
17334 10785 M -101 0 R D 17334 10904 M -101 0 R D 17334 11023 M -101 0 R D
17334 11142 M -101 0 R D 17334 11260 M -101 0 R D 17334 11379 M -101 0 R D
17334 11498 M -101 0 R D 17334 11616 M -101 0 R D 17334 11735 M -101 0 R D
17334 11972 M -101 0 R D 17334 12091 M -101 0 R D 17334 12210 M -101 0 R D
17334 12329 M -101 0 R D 17334 12447 M -101 0 R D 17334 12566 M -101 0 R D
17334 12685 M -101 0 R D 17334 12803 M -101 0 R D 17334 12922 M -101 0 R D
17334 13159 M -101 0 R D 17334 13278 M -101 0 R D 17334 13397 M -101 0 R D
17334 13516 M -101 0 R D 17334 13634 M -101 0 R D 17334 13753 M -101 0 R D
17334 13872 M -101 0 R D 17334 13990 M -101 0 R D 17334 14109 M -101 0 R D
17334 14346 M -101 0 R D 17334 14465 M -101 0 R D 17334 14584 M -101 0 R D
17334 14703 M -101 0 R D 17334 14821 M -101 0 R D 17334 14940 M -101 0 R D
17334 15059 M -101 0 R D 17334 15177 M -101 0 R D 17334 15296 M -101 0 R D
0.761 0.000 0.000 setrgbcolor 12500 15296 M 0 -3801 R 254 0 R 255 0 R
0 -155 R 254 0 R 254 0 R 0 -35 R 255 0 R 254 0 R 0 -61 R 255 0 R 254 0 R
0 -58 R 255 0 R 254 0 R 0 -85 R 255 0 R 254 0 R 0 -76 R 254 0 R 255 0 R
254 0 R 255 0 R 0 -20 R 254 0 R 255 0 R 0 251 R 254 0 R D L1
0.000 0.549 0.000 setrgbcolor 12500 15296 M 0 -3735 R 254 0 R 255 0 R
0 -282 R 254 0 R 254 0 R 0 33 R 255 0 R 254 0 R 0 -94 R 255 0 R 254 0 R
0 -53 R 255 0 R 254 0 R 0 -41 R 255 0 R 254 0 R 0 -98 R 254 0 R 255 0 R
0 37 R 254 0 R 255 0 R 0 -41 R 254 0 R 255 0 R 0 262 R 254 0 R D L2
0.000 0.000 1.000 setrgbcolor 12500 15296 M 0 -3967 R 254 0 R 255 0 R
0 163 R 254 0 R 254 0 R 0 -204 R 255 0 R 254 0 R 0 21 R 255 0 R 254 0 R
0 -72 R 255 0 R 254 0 R 0 -193 R 255 0 R 254 0 R 0 -21 R 254 0 R 255 0 R
0 -91 R 254 0 R 255 0 R 0 30 R 254 0 R 255 0 R 0 224 R 254 0 R D L0
0.000 0.000 0.000 setrgbcolor 2220 6037 M 5038 0 R D 3187 6037 M 0 186 R D
gsave 3187 5509 translate 0 0 M -58.8433 0 N
( ) show grestore 4205 6037 M 0 186 R D gsave 4205 5509 translate 0 0 M
-58.8433 0 N
( ) show grestore 5223 6037 M 0 186 R D gsave 5223 5509 translate 0 0 M
-58.8433 0 N
( ) show grestore 6240 6037 M 0 186 R D gsave 6240 5509 translate 0 0 M
-58.8433 0 N
( ) show grestore 7258 6037 M 0 186 R D gsave 7258 5509 translate 0 0 M
-58.8433 0 N
( ) show grestore 2424 6037 M 0 93 R D 2678 6037 M 0 93 R D 2933 6037 M
0 93 R D 3441 6037 M 0 93 R D 3696 6037 M 0 93 R D 3950 6037 M 0 93 R D
4459 6037 M 0 93 R D 4714 6037 M 0 93 R D 4968 6037 M 0 93 R D 5477 6037 M
0 93 R D 5731 6037 M 0 93 R D 5986 6037 M 0 93 R D 6495 6037 M 0 93 R D
6749 6037 M 0 93 R D 7004 6037 M 0 93 R D 2220 10667 M 5038 0 R D
3187 10667 M 0 -185 R D 4205 10667 M 0 -185 R D 5223 10667 M 0 -185 R D
6240 10667 M 0 -185 R D 7258 10667 M 0 -185 R D 2424 10667 M 0 -93 R D
2678 10667 M 0 -93 R D 2933 10667 M 0 -93 R D 3441 10667 M 0 -93 R D
3696 10667 M 0 -93 R D 3950 10667 M 0 -93 R D 4459 10667 M 0 -93 R D
4714 10667 M 0 -93 R D 4968 10667 M 0 -93 R D 5477 10667 M 0 -93 R D
5731 10667 M 0 -93 R D 5986 10667 M 0 -93 R D 6495 10667 M 0 -93 R D
6749 10667 M 0 -93 R D 7004 10667 M 0 -93 R D 2220 6037 M 0 4630 R D
2220 6037 M 202 0 R D gsave 2109 6037 translate 0 0 M -588.433 0 N
(0.0) show grestore 2220 7224 M 202 0 R D gsave 2109 7084 translate 0 0 M
-588.433 0 N
(0.1) show grestore 2220 8411 M 202 0 R D gsave 2109 8271 translate 0 0 M
-588.433 0 N
(0.2) show grestore 2220 9598 M 202 0 R D gsave 2109 9458 translate 0 0 M
-588.433 0 N
(0.3) show grestore 2220 6156 M 101 0 R D 2220 6275 M 101 0 R D 2220 6394 M
101 0 R D 2220 6512 M 101 0 R D 2220 6631 M 101 0 R D 2220 6750 M 101 0 R D
2220 6868 M 101 0 R D 2220 6987 M 101 0 R D 2220 7106 M 101 0 R D
2220 7343 M 101 0 R D 2220 7462 M 101 0 R D 2220 7581 M 101 0 R D
2220 7699 M 101 0 R D 2220 7818 M 101 0 R D 2220 7937 M 101 0 R D
2220 8055 M 101 0 R D 2220 8174 M 101 0 R D 2220 8293 M 101 0 R D
2220 8530 M 101 0 R D 2220 8649 M 101 0 R D 2220 8768 M 101 0 R D
2220 8886 M 101 0 R D 2220 9005 M 101 0 R D 2220 9124 M 101 0 R D
2220 9242 M 101 0 R D 2220 9361 M 101 0 R D 2220 9480 M 101 0 R D
2220 9717 M 101 0 R D 2220 9836 M 101 0 R D 2220 9955 M 101 0 R D
2220 10073 M 101 0 R D 2220 10192 M 101 0 R D 2220 10311 M 101 0 R D
2220 10429 M 101 0 R D 2220 10548 M 101 0 R D 2220 10667 M 101 0 R D
7258 6037 M 0 4630 R D 7258 6037 M -201 0 R D 7258 7224 M -201 0 R D
7258 8411 M -201 0 R D 7258 9598 M -201 0 R D 7258 6156 M -101 0 R D
7258 6275 M -101 0 R D 7258 6394 M -101 0 R D 7258 6512 M -101 0 R D
7258 6631 M -101 0 R D 7258 6750 M -101 0 R D 7258 6868 M -101 0 R D
7258 6987 M -101 0 R D 7258 7106 M -101 0 R D 7258 7343 M -101 0 R D
7258 7462 M -101 0 R D 7258 7581 M -101 0 R D 7258 7699 M -101 0 R D
7258 7818 M -101 0 R D 7258 7937 M -101 0 R D 7258 8055 M -101 0 R D
7258 8174 M -101 0 R D 7258 8293 M -101 0 R D 7258 8530 M -101 0 R D
7258 8649 M -101 0 R D 7258 8768 M -101 0 R D 7258 8886 M -101 0 R D
7258 9005 M -101 0 R D 7258 9124 M -101 0 R D 7258 9242 M -101 0 R D
7258 9361 M -101 0 R D 7258 9480 M -101 0 R D 7258 9717 M -101 0 R D
7258 9836 M -101 0 R D 7258 9955 M -101 0 R D 7258 10073 M -101 0 R D
7258 10192 M -101 0 R D 7258 10311 M -101 0 R D 7258 10429 M -101 0 R D
7258 10548 M -101 0 R D 7258 10667 M -101 0 R D
0.761 0.000 0.000 setrgbcolor 2424 10666 M 0 -3780 R 254 0 R 255 0 R
0 -169 R 254 0 R 254 0 R 0 -70 R 255 0 R 254 0 R 0 -23 R 255 0 R 254 0 R
0 -99 R 255 0 R 254 0 R 0 -42 R 255 0 R 254 0 R 0 -107 R 254 0 R 255 0 R
0 -8 R 254 0 R 255 0 R 0 18 R 254 0 R 255 0 R 0 550 R 254 0 R D L1
0.000 0.549 0.000 setrgbcolor 2424 10666 M 0 -3775 R 254 0 R 255 0 R
0 -154 R 254 0 R 254 0 R 0 -106 R 255 0 R 254 0 R 0 -56 R 255 0 R 254 0 R
0 -42 R 255 0 R 254 0 R 0 -31 R 255 0 R 254 0 R 0 -95 R 254 0 R 255 0 R
0 -36 R 254 0 R 255 0 R 0 39 R 254 0 R 255 0 R 0 568 R 254 0 R D L2
0.000 0.000 1.000 setrgbcolor 2424 10666 M 0 -3795 R 254 0 R 255 0 R
0 -212 R 254 0 R 254 0 R 0 31 R 255 0 R 254 0 R 0 71 R 255 0 R 254 0 R
0 -259 R 255 0 R 254 0 R 0 -71 R 255 0 R 254 0 R 0 -142 R 254 0 R 255 0 R
0 71 R 254 0 R 255 0 R 0 -39 R 254 0 R 255 0 R 0 495 R 254 0 R D L0
0.000 0.000 0.000 setrgbcolor 7258 6037 M 5038 0 R D 8225 6037 M 0 186 R D
gsave 8225 5509 translate 0 0 M -58.8433 0 N
( ) show grestore 9243 6037 M 0 186 R D gsave 9243 5509 translate 0 0 M
-58.8433 0 N
( ) show grestore 10261 6037 M 0 186 R D gsave 10261 5509 translate 0 0 M
-58.8433 0 N
( ) show grestore 11278 6037 M 0 186 R D gsave 11278 5509 translate 0 0 M
-58.8433 0 N
( ) show grestore 12296 6037 M 0 186 R D gsave 12296 5509 translate 0 0 M
-58.8433 0 N
( ) show grestore 7462 6037 M 0 93 R D 7716 6037 M 0 93 R D 7971 6037 M
0 93 R D 8479 6037 M 0 93 R D 8734 6037 M 0 93 R D 8988 6037 M 0 93 R D
9497 6037 M 0 93 R D 9752 6037 M 0 93 R D 10006 6037 M 0 93 R D 10515 6037 M
0 93 R D 10769 6037 M 0 93 R D 11024 6037 M 0 93 R D 11533 6037 M 0 93 R D
11787 6037 M 0 93 R D 12042 6037 M 0 93 R D 7258 10667 M 5038 0 R D
8225 10667 M 0 -185 R D 9243 10667 M 0 -185 R D 10261 10667 M 0 -185 R D
11278 10667 M 0 -185 R D 12296 10667 M 0 -185 R D 7462 10667 M 0 -93 R D
7716 10667 M 0 -93 R D 7971 10667 M 0 -93 R D 8479 10667 M 0 -93 R D
8734 10667 M 0 -93 R D 8988 10667 M 0 -93 R D 9497 10667 M 0 -93 R D
9752 10667 M 0 -93 R D 10006 10667 M 0 -93 R D 10515 10667 M 0 -93 R D
10769 10667 M 0 -93 R D 11024 10667 M 0 -93 R D 11533 10667 M 0 -93 R D
11787 10667 M 0 -93 R D 12042 10667 M 0 -93 R D 7258 6037 M 0 4630 R D
7258 6037 M 202 0 R D gsave 7147 6037 translate 0 0 M -117.687 0 N
( ) show grestore 7258 7224 M 202 0 R D gsave 7147 7084 translate 0 0 M
-117.687 0 N
( ) show grestore 7258 8411 M 202 0 R D gsave 7147 8271 translate 0 0 M
-117.687 0 N
( ) show grestore 7258 9598 M 202 0 R D gsave 7147 9458 translate 0 0 M
-117.687 0 N
( ) show grestore 7258 6156 M 101 0 R D 7258 6275 M 101 0 R D 7258 6394 M
101 0 R D 7258 6512 M 101 0 R D 7258 6631 M 101 0 R D 7258 6750 M 101 0 R D
7258 6868 M 101 0 R D 7258 6987 M 101 0 R D 7258 7106 M 101 0 R D
7258 7343 M 101 0 R D 7258 7462 M 101 0 R D 7258 7581 M 101 0 R D
7258 7699 M 101 0 R D 7258 7818 M 101 0 R D 7258 7937 M 101 0 R D
7258 8055 M 101 0 R D 7258 8174 M 101 0 R D 7258 8293 M 101 0 R D
7258 8530 M 101 0 R D 7258 8649 M 101 0 R D 7258 8768 M 101 0 R D
7258 8886 M 101 0 R D 7258 9005 M 101 0 R D 7258 9124 M 101 0 R D
7258 9242 M 101 0 R D 7258 9361 M 101 0 R D 7258 9480 M 101 0 R D
7258 9717 M 101 0 R D 7258 9836 M 101 0 R D 7258 9955 M 101 0 R D
7258 10073 M 101 0 R D 7258 10192 M 101 0 R D 7258 10311 M 101 0 R D
7258 10429 M 101 0 R D 7258 10548 M 101 0 R D 7258 10667 M 101 0 R D
12296 6037 M 0 4630 R D 12296 6037 M -201 0 R D 12296 7224 M -201 0 R D
12296 8411 M -201 0 R D 12296 9598 M -201 0 R D 12296 6156 M -101 0 R D
12296 6275 M -101 0 R D 12296 6394 M -101 0 R D 12296 6512 M -101 0 R D
12296 6631 M -101 0 R D 12296 6750 M -101 0 R D 12296 6868 M -101 0 R D
12296 6987 M -101 0 R D 12296 7106 M -101 0 R D 12296 7343 M -101 0 R D
12296 7462 M -101 0 R D 12296 7581 M -101 0 R D 12296 7699 M -101 0 R D
12296 7818 M -101 0 R D 12296 7937 M -101 0 R D 12296 8055 M -101 0 R D
12296 8174 M -101 0 R D 12296 8293 M -101 0 R D 12296 8530 M -101 0 R D
12296 8649 M -101 0 R D 12296 8768 M -101 0 R D 12296 8886 M -101 0 R D
12296 9005 M -101 0 R D 12296 9124 M -101 0 R D 12296 9242 M -101 0 R D
12296 9361 M -101 0 R D 12296 9480 M -101 0 R D 12296 9717 M -101 0 R D
12296 9836 M -101 0 R D 12296 9955 M -101 0 R D 12296 10073 M -101 0 R D
12296 10192 M -101 0 R D 12296 10311 M -101 0 R D 12296 10429 M -101 0 R D
12296 10548 M -101 0 R D 12296 10667 M -101 0 R D
0.761 0.000 0.000 setrgbcolor 7462 10666 M 0 -3682 R 254 0 R 255 0 R
0 -160 R 254 0 R 254 0 R 0 -74 R 255 0 R 254 0 R 0 -161 R 255 0 R 254 0 R
0 39 R 255 0 R 254 0 R 0 -160 R 255 0 R 254 0 R 0 -42 R 254 0 R 255 0 R
0 -104 R 254 0 R 255 0 R 0 3 R 254 0 R 255 0 R 0 374 R 254 0 R D L1
0.000 0.549 0.000 setrgbcolor 7462 10666 M 0 -3635 R 254 0 R 255 0 R
0 -185 R 254 0 R 254 0 R 0 -98 R 255 0 R 254 0 R 0 -150 R 255 0 R 254 0 R
0 39 R 255 0 R 254 0 R 0 -193 R 255 0 R 254 0 R 0 -30 R 254 0 R 255 0 R
0 -81 R 254 0 R 255 0 R 0 34 R 254 0 R 255 0 R 0 351 R 254 0 R D L2
0.000 0.000 1.000 setrgbcolor 7462 10666 M 0 -3787 R 254 0 R 255 0 R
0 -106 R 254 0 R 254 0 R 0 -20 R 255 0 R 254 0 R 0 -184 R 255 0 R 254 0 R
0 39 R 255 0 R 254 0 R 0 -87 R 255 0 R 254 0 R 0 -68 R 254 0 R 255 0 R
0 -154 R 254 0 R 255 0 R 0 -68 R 254 0 R 255 0 R 0 426 R 254 0 R D L0
0.000 0.000 0.000 setrgbcolor 12296 6037 M 5038 0 R D 13263 6037 M 0 186 R D
gsave 13263 5509 translate 0 0 M -58.8433 0 N
( ) show grestore 14281 6037 M 0 186 R D gsave 14281 5509 translate 0 0 M
-58.8433 0 N
( ) show grestore 15299 6037 M 0 186 R D gsave 15299 5509 translate 0 0 M
-58.8433 0 N
( ) show grestore 16316 6037 M 0 186 R D gsave 16316 5509 translate 0 0 M
-58.8433 0 N
( ) show grestore 17334 6037 M 0 186 R D gsave 17334 5509 translate 0 0 M
-58.8433 0 N
( ) show grestore 12500 6037 M 0 93 R D 12754 6037 M 0 93 R D 13009 6037 M
0 93 R D 13517 6037 M 0 93 R D 13772 6037 M 0 93 R D 14026 6037 M 0 93 R D
14535 6037 M 0 93 R D 14790 6037 M 0 93 R D 15044 6037 M 0 93 R D
15553 6037 M 0 93 R D 15807 6037 M 0 93 R D 16062 6037 M 0 93 R D
16571 6037 M 0 93 R D 16825 6037 M 0 93 R D 17080 6037 M 0 93 R D
12296 10667 M 5038 0 R D 13263 10667 M 0 -185 R D 14281 10667 M 0 -185 R D
15299 10667 M 0 -185 R D 16316 10667 M 0 -185 R D 17334 10667 M 0 -185 R D
12500 10667 M 0 -93 R D 12754 10667 M 0 -93 R D 13009 10667 M 0 -93 R D
13517 10667 M 0 -93 R D 13772 10667 M 0 -93 R D 14026 10667 M 0 -93 R D
14535 10667 M 0 -93 R D 14790 10667 M 0 -93 R D 15044 10667 M 0 -93 R D
15553 10667 M 0 -93 R D 15807 10667 M 0 -93 R D 16062 10667 M 0 -93 R D
16571 10667 M 0 -93 R D 16825 10667 M 0 -93 R D 17080 10667 M 0 -93 R D
12296 6037 M 0 4630 R D 12296 6037 M 202 0 R D
gsave 12185 6037 translate 0 0 M -117.687 0 N
( ) show grestore 12296 7224 M 202 0 R D gsave 12185 7084 translate 0 0 M
-117.687 0 N
( ) show grestore 12296 8411 M 202 0 R D gsave 12185 8271 translate 0 0 M
-117.687 0 N
( ) show grestore 12296 9598 M 202 0 R D gsave 12185 9458 translate 0 0 M
-117.687 0 N
( ) show grestore 12296 6156 M 101 0 R D 12296 6275 M 101 0 R D 12296 6394 M
101 0 R D 12296 6512 M 101 0 R D 12296 6631 M 101 0 R D 12296 6750 M 101 0 R
D 12296 6868 M 101 0 R D 12296 6987 M 101 0 R D 12296 7106 M 101 0 R D
12296 7343 M 101 0 R D 12296 7462 M 101 0 R D 12296 7581 M 101 0 R D
12296 7699 M 101 0 R D 12296 7818 M 101 0 R D 12296 7937 M 101 0 R D
12296 8055 M 101 0 R D 12296 8174 M 101 0 R D 12296 8293 M 101 0 R D
12296 8530 M 101 0 R D 12296 8649 M 101 0 R D 12296 8768 M 101 0 R D
12296 8886 M 101 0 R D 12296 9005 M 101 0 R D 12296 9124 M 101 0 R D
12296 9242 M 101 0 R D 12296 9361 M 101 0 R D 12296 9480 M 101 0 R D
12296 9717 M 101 0 R D 12296 9836 M 101 0 R D 12296 9955 M 101 0 R D
12296 10073 M 101 0 R D 12296 10192 M 101 0 R D 12296 10311 M 101 0 R D
12296 10429 M 101 0 R D 12296 10548 M 101 0 R D 12296 10667 M 101 0 R D
17334 6037 M 0 4630 R D 17334 6037 M -201 0 R D 17334 7224 M -201 0 R D
17334 8411 M -201 0 R D 17334 9598 M -201 0 R D 17334 6156 M -101 0 R D
17334 6275 M -101 0 R D 17334 6394 M -101 0 R D 17334 6512 M -101 0 R D
17334 6631 M -101 0 R D 17334 6750 M -101 0 R D 17334 6868 M -101 0 R D
17334 6987 M -101 0 R D 17334 7106 M -101 0 R D 17334 7343 M -101 0 R D
17334 7462 M -101 0 R D 17334 7581 M -101 0 R D 17334 7699 M -101 0 R D
17334 7818 M -101 0 R D 17334 7937 M -101 0 R D 17334 8055 M -101 0 R D
17334 8174 M -101 0 R D 17334 8293 M -101 0 R D 17334 8530 M -101 0 R D
17334 8649 M -101 0 R D 17334 8768 M -101 0 R D 17334 8886 M -101 0 R D
17334 9005 M -101 0 R D 17334 9124 M -101 0 R D 17334 9242 M -101 0 R D
17334 9361 M -101 0 R D 17334 9480 M -101 0 R D 17334 9717 M -101 0 R D
17334 9836 M -101 0 R D 17334 9955 M -101 0 R D 17334 10073 M -101 0 R D
17334 10192 M -101 0 R D 17334 10311 M -101 0 R D 17334 10429 M -101 0 R D
17334 10548 M -101 0 R D 17334 10667 M -101 0 R D
0.761 0.000 0.000 setrgbcolor 12500 10666 M 0 -3635 R 254 0 R 255 0 R
0 -339 R 254 0 R 254 0 R 0 -108 R 255 0 R 254 0 R 0 42 R 255 0 R 254 0 R
0 -80 R 255 0 R 254 0 R 0 -47 R 255 0 R 254 0 R 0 -61 R 254 0 R 255 0 R
0 -57 R 254 0 R 255 0 R 0 -42 R 254 0 R 255 0 R 0 527 R 254 0 R D L1
0.000 0.549 0.000 setrgbcolor 12500 10666 M 0 -3596 R 254 0 R 255 0 R
0 -352 R 254 0 R 254 0 R 0 -161 R 255 0 R 254 0 R 0 86 R 255 0 R 254 0 R
0 -63 R 255 0 R 254 0 R 0 -87 R 255 0 R 254 0 R 0 -40 R 254 0 R 255 0 R
0 -64 R 254 0 R 255 0 R 0 -63 R 254 0 R 255 0 R 0 565 R 254 0 R D L2
0.000 0.000 1.000 setrgbcolor 12500 10666 M 0 -3808 R 254 0 R 255 0 R
0 -282 R 254 0 R 254 0 R 0 128 R 255 0 R 254 0 R 0 -154 R 255 0 R 254 0 R
0 -154 R 255 0 R 254 0 R 0 129 R 255 0 R 254 0 R 0 -154 R 254 0 R 255 0 R
0 -26 R 254 0 R 255 0 R 0 51 R 254 0 R 255 0 R 0 359 R 254 0 R D L0
0.000 0.000 0.000 setrgbcolor 2220 1408 M 5038 0 R D 3187 1408 M 0 185 R D
gsave 3187 880 translate 0 0 M -294.217 0 N
(0.2) show grestore 4205 1408 M 0 185 R D gsave 4205 880 translate 0 0 M
-294.217 0 N
(0.4) show grestore 5223 1408 M 0 185 R D gsave 5223 880 translate 0 0 M
-294.217 0 N
(0.6) show grestore 6240 1408 M 0 185 R D gsave 6240 880 translate 0 0 M
-294.217 0 N
(0.8) show grestore 7258 1408 M 0 185 R D gsave 7258 880 translate 0 0 M
-294.217 0 N
(1.0) show grestore 2424 1408 M 0 93 R D 2678 1408 M 0 93 R D 2933 1408 M
0 93 R D 3441 1408 M 0 93 R D 3696 1408 M 0 93 R D 3950 1408 M 0 93 R D
4459 1408 M 0 93 R D 4714 1408 M 0 93 R D 4968 1408 M 0 93 R D 5477 1408 M
0 93 R D 5731 1408 M 0 93 R D 5986 1408 M 0 93 R D 6495 1408 M 0 93 R D
6749 1408 M 0 93 R D 7004 1408 M 0 93 R D 2220 6037 M 5038 0 R D 3187 6037 M
0 -185 R D 4205 6037 M 0 -185 R D 5223 6037 M 0 -185 R D 6240 6037 M
0 -185 R D 7258 6037 M 0 -185 R D 2424 6037 M 0 -92 R D 2678 6037 M 0 -92 R
D 2933 6037 M 0 -92 R D 3441 6037 M 0 -92 R D 3696 6037 M 0 -92 R D
3950 6037 M 0 -92 R D 4459 6037 M 0 -92 R D 4714 6037 M 0 -92 R D
4968 6037 M 0 -92 R D 5477 6037 M 0 -92 R D 5731 6037 M 0 -92 R D
5986 6037 M 0 -92 R D 6495 6037 M 0 -92 R D 6749 6037 M 0 -92 R D
7004 6037 M 0 -92 R D 2220 1408 M 0 4629 R D 2220 1408 M 202 0 R D
gsave 2109 1408 translate 0 0 M -588.433 0 N
(0.0) show grestore 2220 2595 M 202 0 R D gsave 2109 2454 translate 0 0 M
-588.433 0 N
(0.1) show grestore 2220 3782 M 202 0 R D gsave 2109 3641 translate 0 0 M
-588.433 0 N
(0.2) show grestore 2220 4969 M 202 0 R D gsave 2109 4828 translate 0 0 M
-588.433 0 N
(0.3) show grestore 2220 1527 M 101 0 R D 2220 1645 M 101 0 R D 2220 1764 M
101 0 R D 2220 1883 M 101 0 R D 2220 2002 M 101 0 R D 2220 2120 M 101 0 R D
2220 2239 M 101 0 R D 2220 2358 M 101 0 R D 2220 2476 M 101 0 R D
2220 2714 M 101 0 R D 2220 2832 M 101 0 R D 2220 2951 M 101 0 R D
2220 3070 M 101 0 R D 2220 3189 M 101 0 R D 2220 3307 M 101 0 R D
2220 3426 M 101 0 R D 2220 3545 M 101 0 R D 2220 3663 M 101 0 R D
2220 3901 M 101 0 R D 2220 4019 M 101 0 R D 2220 4138 M 101 0 R D
2220 4257 M 101 0 R D 2220 4376 M 101 0 R D 2220 4494 M 101 0 R D
2220 4613 M 101 0 R D 2220 4732 M 101 0 R D 2220 4850 M 101 0 R D
2220 5088 M 101 0 R D 2220 5207 M 101 0 R D 2220 5325 M 101 0 R D
2220 5444 M 101 0 R D 2220 5563 M 101 0 R D 2220 5681 M 101 0 R D
2220 5800 M 101 0 R D 2220 5919 M 101 0 R D 2220 6037 M 101 0 R D
7258 1408 M 0 4629 R D 7258 1408 M -201 0 R D 7258 2595 M -201 0 R D
7258 3782 M -201 0 R D 7258 4969 M -201 0 R D 7258 1527 M -101 0 R D
7258 1645 M -101 0 R D 7258 1764 M -101 0 R D 7258 1883 M -101 0 R D
7258 2002 M -101 0 R D 7258 2120 M -101 0 R D 7258 2239 M -101 0 R D
7258 2358 M -101 0 R D 7258 2476 M -101 0 R D 7258 2714 M -101 0 R D
7258 2832 M -101 0 R D 7258 2951 M -101 0 R D 7258 3070 M -101 0 R D
7258 3189 M -101 0 R D 7258 3307 M -101 0 R D 7258 3426 M -101 0 R D
7258 3545 M -101 0 R D 7258 3663 M -101 0 R D 7258 3901 M -101 0 R D
7258 4019 M -101 0 R D 7258 4138 M -101 0 R D 7258 4257 M -101 0 R D
7258 4376 M -101 0 R D 7258 4494 M -101 0 R D 7258 4613 M -101 0 R D
7258 4732 M -101 0 R D 7258 4850 M -101 0 R D 7258 5088 M -101 0 R D
7258 5207 M -101 0 R D 7258 5325 M -101 0 R D 7258 5444 M -101 0 R D
7258 5563 M -101 0 R D 7258 5681 M -101 0 R D 7258 5800 M -101 0 R D
7258 5919 M -101 0 R D 7258 6037 M -101 0 R D 0.761 0.000 0.000 setrgbcolor
2424 6037 M 0 -3715 R 254 0 R 255 0 R 0 -359 R 254 0 R 254 0 R 0 -109 R
255 0 R 254 0 R 0 -52 R 255 0 R 254 0 R 0 24 R 255 0 R 254 0 R 255 0 R
254 0 R 0 -77 R 254 0 R 255 0 R 0 -84 R 254 0 R 255 0 R 0 31 R 254 0 R
255 0 R 0 591 R 254 0 R D L1 0.000 0.549 0.000 setrgbcolor 2424 6037 M
0 -3711 R 254 0 R 255 0 R 0 -367 R 254 0 R 254 0 R 0 -96 R 255 0 R 254 0 R
0 -46 R 255 0 R 254 0 R 0 -8 R 255 0 R 254 0 R 0 58 R 255 0 R 254 0 R
0 -138 R 254 0 R 255 0 R 0 -54 R 254 0 R 255 0 R 0 25 R 254 0 R 255 0 R
0 584 R 254 0 R D L2 0.000 0.000 1.000 setrgbcolor 2424 6037 M 0 -3736 R
254 0 R 255 0 R 0 -313 R 254 0 R 254 0 R 0 -178 R 255 0 R 254 0 R 0 -90 R
255 0 R 254 0 R 0 201 R 255 0 R 254 0 R 0 -312 R 255 0 R 254 0 R 0 245 R
254 0 R 255 0 R 0 -245 R 254 0 R 255 0 R 0 67 R 254 0 R 255 0 R 0 625 R
254 0 R D L0 0.000 0.000 0.000 setrgbcolor 7258 1408 M 5038 0 R D
8225 1408 M 0 185 R D gsave 8225 880 translate 0 0 M -294.217 0 N
(0.2) show grestore 9243 1408 M 0 185 R D gsave 9243 880 translate 0 0 M
-294.217 0 N
(0.4) show grestore 10261 1408 M 0 185 R D gsave 10261 880 translate 0 0 M
-294.217 0 N
(0.6) show grestore 11278 1408 M 0 185 R D gsave 11278 880 translate 0 0 M
-294.217 0 N
(0.8) show grestore 12296 1408 M 0 185 R D gsave 12296 880 translate 0 0 M
-294.217 0 N
(1.0) show grestore 7462 1408 M 0 93 R D 7716 1408 M 0 93 R D 7971 1408 M
0 93 R D 8479 1408 M 0 93 R D 8734 1408 M 0 93 R D 8988 1408 M 0 93 R D
9497 1408 M 0 93 R D 9752 1408 M 0 93 R D 10006 1408 M 0 93 R D 10515 1408 M
0 93 R D 10769 1408 M 0 93 R D 11024 1408 M 0 93 R D 11533 1408 M 0 93 R D
11787 1408 M 0 93 R D 12042 1408 M 0 93 R D 7258 6037 M 5038 0 R D
8225 6037 M 0 -185 R D 9243 6037 M 0 -185 R D 10261 6037 M 0 -185 R D
11278 6037 M 0 -185 R D 12296 6037 M 0 -185 R D 7462 6037 M 0 -92 R D
7716 6037 M 0 -92 R D 7971 6037 M 0 -92 R D 8479 6037 M 0 -92 R D
8734 6037 M 0 -92 R D 8988 6037 M 0 -92 R D 9497 6037 M 0 -92 R D
9752 6037 M 0 -92 R D 10006 6037 M 0 -92 R D 10515 6037 M 0 -92 R D
10769 6037 M 0 -92 R D 11024 6037 M 0 -92 R D 11533 6037 M 0 -92 R D
11787 6037 M 0 -92 R D 12042 6037 M 0 -92 R D 7258 1408 M 0 4629 R D
7258 1408 M 202 0 R D gsave 7147 1408 translate 0 0 M -117.687 0 N
( ) show grestore 7258 2595 M 202 0 R D gsave 7147 2454 translate 0 0 M
-117.687 0 N
( ) show grestore 7258 3782 M 202 0 R D gsave 7147 3641 translate 0 0 M
-117.687 0 N
( ) show grestore 7258 4969 M 202 0 R D gsave 7147 4828 translate 0 0 M
-117.687 0 N
( ) show grestore 7258 1527 M 101 0 R D 7258 1645 M 101 0 R D 7258 1764 M
101 0 R D 7258 1883 M 101 0 R D 7258 2002 M 101 0 R D 7258 2120 M 101 0 R D
7258 2239 M 101 0 R D 7258 2358 M 101 0 R D 7258 2476 M 101 0 R D
7258 2714 M 101 0 R D 7258 2832 M 101 0 R D 7258 2951 M 101 0 R D
7258 3070 M 101 0 R D 7258 3189 M 101 0 R D 7258 3307 M 101 0 R D
7258 3426 M 101 0 R D 7258 3545 M 101 0 R D 7258 3663 M 101 0 R D
7258 3901 M 101 0 R D 7258 4019 M 101 0 R D 7258 4138 M 101 0 R D
7258 4257 M 101 0 R D 7258 4376 M 101 0 R D 7258 4494 M 101 0 R D
7258 4613 M 101 0 R D 7258 4732 M 101 0 R D 7258 4850 M 101 0 R D
7258 5088 M 101 0 R D 7258 5207 M 101 0 R D 7258 5325 M 101 0 R D
7258 5444 M 101 0 R D 7258 5563 M 101 0 R D 7258 5681 M 101 0 R D
7258 5800 M 101 0 R D 7258 5919 M 101 0 R D 7258 6037 M 101 0 R D
12296 1408 M 0 4629 R D 12296 1408 M -201 0 R D 12296 2595 M -201 0 R D
12296 3782 M -201 0 R D 12296 4969 M -201 0 R D 12296 1527 M -101 0 R D
12296 1645 M -101 0 R D 12296 1764 M -101 0 R D 12296 1883 M -101 0 R D
12296 2002 M -101 0 R D 12296 2120 M -101 0 R D 12296 2239 M -101 0 R D
12296 2358 M -101 0 R D 12296 2476 M -101 0 R D 12296 2714 M -101 0 R D
12296 2832 M -101 0 R D 12296 2951 M -101 0 R D 12296 3070 M -101 0 R D
12296 3189 M -101 0 R D 12296 3307 M -101 0 R D 12296 3426 M -101 0 R D
12296 3545 M -101 0 R D 12296 3663 M -101 0 R D 12296 3901 M -101 0 R D
12296 4019 M -101 0 R D 12296 4138 M -101 0 R D 12296 4257 M -101 0 R D
12296 4376 M -101 0 R D 12296 4494 M -101 0 R D 12296 4613 M -101 0 R D
12296 4732 M -101 0 R D 12296 4850 M -101 0 R D 12296 5088 M -101 0 R D
12296 5207 M -101 0 R D 12296 5325 M -101 0 R D 12296 5444 M -101 0 R D
12296 5563 M -101 0 R D 12296 5681 M -101 0 R D 12296 5800 M -101 0 R D
12296 5919 M -101 0 R D 12296 6037 M -101 0 R D
0.761 0.000 0.000 setrgbcolor 7462 6037 M 0 -3757 R 254 0 R 255 0 R 0 -239 R
254 0 R 254 0 R 0 -69 R 255 0 R 254 0 R 0 -94 R 255 0 R 254 0 R 0 -27 R
255 0 R 254 0 R 0 -64 R 255 0 R 254 0 R 0 -101 R 254 0 R 255 0 R 0 -10 R
254 0 R 255 0 R 0 72 R 254 0 R 255 0 R 0 394 R 254 0 R D L1
0.000 0.549 0.000 setrgbcolor 7462 6037 M 0 -3727 R 254 0 R 255 0 R 0 -237 R
254 0 R 254 0 R 0 -96 R 255 0 R 254 0 R 0 -108 R 255 0 R 254 0 R 0 -10 R
255 0 R 254 0 R 0 -63 R 255 0 R 254 0 R 0 -98 R 254 0 R 255 0 R 0 9 R
254 0 R 255 0 R 0 79 R 254 0 R 255 0 R 0 399 R 254 0 R D L2
0.000 0.000 1.000 setrgbcolor 7462 6037 M 0 -3846 R 254 0 R 255 0 R 0 -245 R
254 0 R 254 0 R 0 10 R 255 0 R 254 0 R 0 -49 R 255 0 R 254 0 R 0 -78 R
255 0 R 254 0 R 0 -69 R 255 0 R 254 0 R 0 -107 R 254 0 R 255 0 R 0 -69 R
254 0 R 255 0 R 0 49 R 254 0 R 255 0 R 0 382 R 254 0 R D L0
0.000 0.000 0.000 setrgbcolor 12296 1408 M 5038 0 R D 13263 1408 M 0 185 R D
gsave 13263 880 translate 0 0 M -294.217 0 N
(0.2) show grestore 14281 1408 M 0 185 R D gsave 14281 880 translate 0 0 M
-294.217 0 N
(0.4) show grestore 15299 1408 M 0 185 R D gsave 15299 880 translate 0 0 M
-294.217 0 N
(0.6) show grestore 16316 1408 M 0 185 R D gsave 16316 880 translate 0 0 M
-294.217 0 N
(0.8) show grestore 17334 1408 M 0 185 R D gsave 17334 880 translate 0 0 M
-294.217 0 N
(1.0) show grestore 12500 1408 M 0 93 R D 12754 1408 M 0 93 R D 13009 1408 M
0 93 R D 13517 1408 M 0 93 R D 13772 1408 M 0 93 R D 14026 1408 M 0 93 R D
14535 1408 M 0 93 R D 14790 1408 M 0 93 R D 15044 1408 M 0 93 R D
15553 1408 M 0 93 R D 15807 1408 M 0 93 R D 16062 1408 M 0 93 R D
16571 1408 M 0 93 R D 16825 1408 M 0 93 R D 17080 1408 M 0 93 R D
12296 6037 M 5038 0 R D 13263 6037 M 0 -185 R D 14281 6037 M 0 -185 R D
15299 6037 M 0 -185 R D 16316 6037 M 0 -185 R D 17334 6037 M 0 -185 R D
12500 6037 M 0 -92 R D 12754 6037 M 0 -92 R D 13009 6037 M 0 -92 R D
13517 6037 M 0 -92 R D 13772 6037 M 0 -92 R D 14026 6037 M 0 -92 R D
14535 6037 M 0 -92 R D 14790 6037 M 0 -92 R D 15044 6037 M 0 -92 R D
15553 6037 M 0 -92 R D 15807 6037 M 0 -92 R D 16062 6037 M 0 -92 R D
16571 6037 M 0 -92 R D 16825 6037 M 0 -92 R D 17080 6037 M 0 -92 R D
12296 1408 M 0 4629 R D 12296 1408 M 202 0 R D
gsave 12185 1408 translate 0 0 M -117.687 0 N
( ) show grestore 12296 2595 M 202 0 R D gsave 12185 2454 translate 0 0 M
-117.687 0 N
( ) show grestore 12296 3782 M 202 0 R D gsave 12185 3641 translate 0 0 M
-117.687 0 N
( ) show grestore 12296 4969 M 202 0 R D gsave 12185 4828 translate 0 0 M
-117.687 0 N
( ) show grestore 12296 1527 M 101 0 R D 12296 1645 M 101 0 R D 12296 1764 M
101 0 R D 12296 1883 M 101 0 R D 12296 2002 M 101 0 R D 12296 2120 M 101 0 R
D 12296 2239 M 101 0 R D 12296 2358 M 101 0 R D 12296 2476 M 101 0 R D
12296 2714 M 101 0 R D 12296 2832 M 101 0 R D 12296 2951 M 101 0 R D
12296 3070 M 101 0 R D 12296 3189 M 101 0 R D 12296 3307 M 101 0 R D
12296 3426 M 101 0 R D 12296 3545 M 101 0 R D 12296 3663 M 101 0 R D
12296 3901 M 101 0 R D 12296 4019 M 101 0 R D 12296 4138 M 101 0 R D
12296 4257 M 101 0 R D 12296 4376 M 101 0 R D 12296 4494 M 101 0 R D
12296 4613 M 101 0 R D 12296 4732 M 101 0 R D 12296 4850 M 101 0 R D
12296 5088 M 101 0 R D 12296 5207 M 101 0 R D 12296 5325 M 101 0 R D
12296 5444 M 101 0 R D 12296 5563 M 101 0 R D 12296 5681 M 101 0 R D
12296 5800 M 101 0 R D 12296 5919 M 101 0 R D 12296 6037 M 101 0 R D
17334 1408 M 0 4629 R D 17334 1408 M -201 0 R D 17334 2595 M -201 0 R D
17334 3782 M -201 0 R D 17334 4969 M -201 0 R D 17334 1527 M -101 0 R D
17334 1645 M -101 0 R D 17334 1764 M -101 0 R D 17334 1883 M -101 0 R D
17334 2002 M -101 0 R D 17334 2120 M -101 0 R D 17334 2239 M -101 0 R D
17334 2358 M -101 0 R D 17334 2476 M -101 0 R D 17334 2714 M -101 0 R D
17334 2832 M -101 0 R D 17334 2951 M -101 0 R D 17334 3070 M -101 0 R D
17334 3189 M -101 0 R D 17334 3307 M -101 0 R D 17334 3426 M -101 0 R D
17334 3545 M -101 0 R D 17334 3663 M -101 0 R D 17334 3901 M -101 0 R D
17334 4019 M -101 0 R D 17334 4138 M -101 0 R D 17334 4257 M -101 0 R D
17334 4376 M -101 0 R D 17334 4494 M -101 0 R D 17334 4613 M -101 0 R D
17334 4732 M -101 0 R D 17334 4850 M -101 0 R D 17334 5088 M -101 0 R D
17334 5207 M -101 0 R D 17334 5325 M -101 0 R D 17334 5444 M -101 0 R D
17334 5563 M -101 0 R D 17334 5681 M -101 0 R D 17334 5800 M -101 0 R D
17334 5919 M -101 0 R D 17334 6037 M -101 0 R D
0.761 0.000 0.000 setrgbcolor 12500 6037 M 0 -3774 R 254 0 R 255 0 R
0 -227 R 254 0 R 254 0 R 0 -119 R 255 0 R 254 0 R 0 -188 R 255 0 R 254 0 R
0 -4 R 255 0 R 254 0 R 0 -19 R 255 0 R 254 0 R 0 -43 R 254 0 R 255 0 R
0 11 R 254 0 R 255 0 R 0 70 R 254 0 R 255 0 R 0 719 R 254 0 R D L1
0.000 0.549 0.000 setrgbcolor 12500 6037 M 0 -3752 R 254 0 R 255 0 R
0 -226 R 254 0 R 254 0 R 0 -120 R 255 0 R 254 0 R 0 -196 R 255 0 R 254 0 R
0 -24 R 255 0 R 254 0 R 0 -11 R 255 0 R 254 0 R 0 -30 R 254 0 R 255 0 R
0 -17 R 254 0 R 255 0 R 0 74 R 254 0 R 255 0 R 0 812 R 254 0 R D L2
0.000 0.000 1.000 setrgbcolor 12500 6037 M 0 -3851 R 254 0 R 255 0 R
0 -234 R 254 0 R 254 0 R 0 -116 R 255 0 R 254 0 R 0 -156 R 255 0 R 254 0 R
0 68 R 255 0 R 254 0 R 0 -48 R 255 0 R 254 0 R 0 -88 R 254 0 R 255 0 R
0 107 R 254 0 R 255 0 R 0 59 R 254 0 R 255 0 R 0 388 R 254 0 R D
%%PageTrailer
end
%%PageResources: font Helvetica
%%Trailer
%%Pages: 1
%%DocumentNeededResources: font Helvetica
%%EOF
