%!PS-Adobe-3.0 EPSF-3.0
%%BoundingBox: 0 0 283 226
%%Title: Graphics produced by IDL
%%For: jlgan@Hserver, /home/jlgan/work/phoenix
%%Creator: IDL Version 7.1.1 (linux x86_64 m64)
%%CreationDate: Thu Oct  9 15:59:37 2014
%%DocumentData: Clean7bit
%%Requirements: color
%%LanguageLevel: 1
%%PageOrder: Ascend
%%Pages: (atend)
%%DocumentNeededResources: (atend)
%%EndComments
%%BeginProlog
%+ prolog.ps -- Prolog for IDL generated PostScript files
%+ Copyright (c) 1988-2009 ITT Visual Information Solutions. All Rights Reserved.
%v 5
/$IDL_DICT 40 dict def $IDL_DICT begin /bdef { bind def } bind def /C
{currentpoint newpath moveto} bdef /CP {currentpoint} bdef /D {currentpoint
stroke moveto} bdef /F {closepath fill} bdef /K { setgray } bdef /M {moveto}
bdef /N {rmoveto} bdef /P {lineto} bdef /R {rlineto} bdef /S {gsave show
grestore} bdef /X {currentpoint pop} bdef /Z {gsave currentpoint lineto 20
setlinewidth 1 setlinecap stroke grestore} bdef /L0 {[] 0 setdash} bdef /L1
{[40 100] 0 setdash} bdef /L2 {[200 200] 0 setdash} bdef /L3 {[200 100 50
100] 0 setdash} bdef /L4 {[300 100 50 100 50 100 50 100] 0 setdash} bdef /L5
{[400 200] 0 setdash} bdef /STDFONT { findfont exch scalefont setfont } bdef
/ISOFONT { findfont dup length dict begin { 1 index /FID ne {def} {pop pop}
ifelse } forall /Encoding ISOLatin1Encoding def currentdict end /idltmpfont
exch definefont exch scalefont setfont } bdef /ISOBULLET { gsave /Helvetica
findfont exch scalefont setfont (\267) show currentpoint grestore moveto}
bdef /MITERLIMIT { 2.5 setmiterlimit } bdef end
%%EndProlog
%%Page: 0 1
%%PageRequirements: color
%%PageResources: (atend)
%%PageOrientation: Portrait
%%PageBoundingBox: 0 0 283 226
%%BeginPageSetup
$IDL_DICT begin 0.0283465 dup scale MITERLIMIT
%%IncludeResource: font Helvetica
423.333 /Helvetica STDFONT
%%EndPageSetup
30 setlinewidth L0 0.000 0.000 0.000 setrgbcolor 2220 1408 M 7114 0 R D
3786 1408 M 0 177 R D gsave 3786 880 translate 0 0 M -294.217 0 N
(0.1) show grestore 6026 1408 M 0 177 R D gsave 6026 880 translate 0 0 M
-294.217 0 N
(1.0) show grestore 8265 1408 M 0 177 R D gsave 8265 880 translate 0 0 M
-411.903 0 N
(10.0) show grestore 2220 1408 M 0 88 R D 2614 1408 M 0 88 R D 2894 1408 M
0 88 R D 3111 1408 M 0 88 R D 3289 1408 M 0 88 R D 3439 1408 M 0 88 R D
3569 1408 M 0 88 R D 3683 1408 M 0 88 R D 4460 1408 M 0 88 R D 4854 1408 M
0 88 R D 5134 1408 M 0 88 R D 5351 1408 M 0 88 R D 5529 1408 M 0 88 R D
5679 1408 M 0 88 R D 5808 1408 M 0 88 R D 5923 1408 M 0 88 R D 6700 1408 M
0 88 R D 7094 1408 M 0 88 R D 7374 1408 M 0 88 R D 7591 1408 M 0 88 R D
7768 1408 M 0 88 R D 7918 1408 M 0 88 R D 8048 1408 M 0 88 R D 8163 1408 M
0 88 R D 8940 1408 M 0 88 R D 9334 1408 M 0 88 R D
gsave 5777 422 translate 0 0 M -701.074 0 N
(R / R) show X -101.051 M
%%IncludeResource: font Helvetica
262.467 /Helvetica STDFONT
(200) show grestore
%%IncludeResource: font Helvetica
423.333 /Helvetica STDFONT 2220 7296 M 7114 0 R D 3786 7296 M 0 -177 R D
6026 7296 M 0 -177 R D 8265 7296 M 0 -177 R D 2220 7296 M 0 -88 R D
2614 7296 M 0 -88 R D 2894 7296 M 0 -88 R D 3111 7296 M 0 -88 R D
3289 7296 M 0 -88 R D 3439 7296 M 0 -88 R D 3569 7296 M 0 -88 R D
3683 7296 M 0 -88 R D 4460 7296 M 0 -88 R D 4854 7296 M 0 -88 R D
5134 7296 M 0 -88 R D 5351 7296 M 0 -88 R D 5529 7296 M 0 -88 R D
5679 7296 M 0 -88 R D 5808 7296 M 0 -88 R D 5923 7296 M 0 -88 R D
6700 7296 M 0 -88 R D 7094 7296 M 0 -88 R D 7374 7296 M 0 -88 R D
7591 7296 M 0 -88 R D 7768 7296 M 0 -88 R D 7918 7296 M 0 -88 R D
8048 7296 M 0 -88 R D 8163 7296 M 0 -88 R D 8940 7296 M 0 -88 R D
9334 7296 M 0 -88 R D 2220 1408 M 0 5888 R D 2220 1408 M 213 0 R D
gsave 2109 1408 translate 0 0 M -588.433 0 N
(0.0) show grestore 2220 2274 M 213 0 R D gsave 2109 2133 translate 0 0 M
-588.433 0 N
(0.1) show grestore 2220 3140 M 213 0 R D gsave 2109 2999 translate 0 0 M
-588.433 0 N
(0.2) show grestore 2220 4006 M 213 0 R D gsave 2109 3865 translate 0 0 M
-588.433 0 N
(0.3) show grestore 2220 4872 M 213 0 R D gsave 2109 4731 translate 0 0 M
-588.433 0 N
(0.4) show grestore 2220 5737 M 213 0 R D gsave 2109 5597 translate 0 0 M
-588.433 0 N
(0.5) show grestore 2220 6603 M 213 0 R D gsave 2109 6463 translate 0 0 M
-588.433 0 N
(0.6) show grestore 2220 1495 M 107 0 R D 2220 1581 M 107 0 R D 2220 1668 M
107 0 R D 2220 1754 M 107 0 R D 2220 1841 M 107 0 R D 2220 1928 M 107 0 R D
2220 2014 M 107 0 R D 2220 2101 M 107 0 R D 2220 2187 M 107 0 R D
2220 2361 M 107 0 R D 2220 2447 M 107 0 R D 2220 2534 M 107 0 R D
2220 2620 M 107 0 R D 2220 2707 M 107 0 R D 2220 2793 M 107 0 R D
2220 2880 M 107 0 R D 2220 2967 M 107 0 R D 2220 3053 M 107 0 R D
2220 3226 M 107 0 R D 2220 3313 M 107 0 R D 2220 3400 M 107 0 R D
2220 3486 M 107 0 R D 2220 3573 M 107 0 R D 2220 3659 M 107 0 R D
2220 3746 M 107 0 R D 2220 3833 M 107 0 R D 2220 3919 M 107 0 R D
2220 4092 M 107 0 R D 2220 4179 M 107 0 R D 2220 4265 M 107 0 R D
2220 4352 M 107 0 R D 2220 4439 M 107 0 R D 2220 4525 M 107 0 R D
2220 4612 M 107 0 R D 2220 4698 M 107 0 R D 2220 4785 M 107 0 R D
2220 4958 M 107 0 R D 2220 5045 M 107 0 R D 2220 5131 M 107 0 R D
2220 5218 M 107 0 R D 2220 5305 M 107 0 R D 2220 5391 M 107 0 R D
2220 5478 M 107 0 R D 2220 5564 M 107 0 R D 2220 5651 M 107 0 R D
2220 5824 M 107 0 R D 2220 5911 M 107 0 R D 2220 5997 M 107 0 R D
2220 6084 M 107 0 R D 2220 6170 M 107 0 R D 2220 6257 M 107 0 R D
2220 6344 M 107 0 R D 2220 6430 M 107 0 R D 2220 6517 M 107 0 R D
2220 6690 M 107 0 R D 2220 6777 M 107 0 R D 2220 6863 M 107 0 R D
2220 6950 M 107 0 R D 2220 7036 M 107 0 R D 2220 7123 M 107 0 R D
2220 7209 M 107 0 R D 2220 7296 M 107 0 R D gsave 1188 4352 translate 0 0 M
90 rotate -1305.56 0 N
(Early Fraction) show grestore 9334 1408 M 0 5888 R D 9334 1408 M -213 0 R D
9334 2274 M -213 0 R D 9334 3140 M -213 0 R D 9334 4006 M -213 0 R D
9334 4872 M -213 0 R D 9334 5737 M -213 0 R D 9334 6603 M -213 0 R D
9334 1495 M -107 0 R D 9334 1581 M -107 0 R D 9334 1668 M -107 0 R D
9334 1754 M -107 0 R D 9334 1841 M -107 0 R D 9334 1928 M -107 0 R D
9334 2014 M -107 0 R D 9334 2101 M -107 0 R D 9334 2187 M -107 0 R D
9334 2361 M -107 0 R D 9334 2447 M -107 0 R D 9334 2534 M -107 0 R D
9334 2620 M -107 0 R D 9334 2707 M -107 0 R D 9334 2793 M -107 0 R D
9334 2880 M -107 0 R D 9334 2967 M -107 0 R D 9334 3053 M -107 0 R D
9334 3226 M -107 0 R D 9334 3313 M -107 0 R D 9334 3400 M -107 0 R D
9334 3486 M -107 0 R D 9334 3573 M -107 0 R D 9334 3659 M -107 0 R D
9334 3746 M -107 0 R D 9334 3833 M -107 0 R D 9334 3919 M -107 0 R D
9334 4092 M -107 0 R D 9334 4179 M -107 0 R D 9334 4265 M -107 0 R D
9334 4352 M -107 0 R D 9334 4439 M -107 0 R D 9334 4525 M -107 0 R D
9334 4612 M -107 0 R D 9334 4698 M -107 0 R D 9334 4785 M -107 0 R D
9334 4958 M -107 0 R D 9334 5045 M -107 0 R D 9334 5131 M -107 0 R D
9334 5218 M -107 0 R D 9334 5305 M -107 0 R D 9334 5391 M -107 0 R D
9334 5478 M -107 0 R D 9334 5564 M -107 0 R D 9334 5651 M -107 0 R D
9334 5824 M -107 0 R D 9334 5911 M -107 0 R D 9334 5997 M -107 0 R D
9334 6084 M -107 0 R D 9334 6170 M -107 0 R D 9334 6257 M -107 0 R D
9334 6344 M -107 0 R D 9334 6430 M -107 0 R D 9334 6517 M -107 0 R D
9334 6690 M -107 0 R D 9334 6777 M -107 0 R D 9334 6863 M -107 0 R D
9334 6950 M -107 0 R D 9334 7036 M -107 0 R D 9334 7123 M -107 0 R D
9334 7209 M -107 0 R D 9334 7296 M -107 0 R D
%%PageTrailer
end
%%PageResources: font Helvetica
%%Trailer
%%Pages: 1
%%DocumentNeededResources: font Helvetica
%%EOF
