%!PS-Adobe-3.0 EPSF-3.0
%%BoundingBox: 0 0 311 226
%%Title: Graphics produced by IDL
%%For: jlgan@Hserver, /home/jlgan/work/phoenix
%%Creator: IDL Version 7.1.1 (linux x86_64 m64)
%%CreationDate: Fri Oct 10 00:08:35 2014
%%DocumentData: Clean7bit
%%Requirements: color
%%LanguageLevel: 1
%%PageOrder: Ascend
%%Pages: (atend)
%%DocumentNeededResources: (atend)
%%EndComments
%%BeginProlog
%+ prolog.ps -- Prolog for IDL generated PostScript files
%+ Copyright (c) 1988-2009 ITT Visual Information Solutions. All Rights Reserved.
%v 5
/$IDL_DICT 40 dict def $IDL_DICT begin /bdef { bind def } bind def /C
{currentpoint newpath moveto} bdef /CP {currentpoint} bdef /D {currentpoint
stroke moveto} bdef /F {closepath fill} bdef /K { setgray } bdef /M {moveto}
bdef /N {rmoveto} bdef /P {lineto} bdef /R {rlineto} bdef /S {gsave show
grestore} bdef /X {currentpoint pop} bdef /Z {gsave currentpoint lineto 20
setlinewidth 1 setlinecap stroke grestore} bdef /L0 {[] 0 setdash} bdef /L1
{[40 100] 0 setdash} bdef /L2 {[200 200] 0 setdash} bdef /L3 {[200 100 50
100] 0 setdash} bdef /L4 {[300 100 50 100 50 100 50 100] 0 setdash} bdef /L5
{[400 200] 0 setdash} bdef /STDFONT { findfont exch scalefont setfont } bdef
/ISOFONT { findfont dup length dict begin { 1 index /FID ne {def} {pop pop}
ifelse } forall /Encoding ISOLatin1Encoding def currentdict end /idltmpfont
exch definefont exch scalefont setfont } bdef /ISOBULLET { gsave /Helvetica
findfont exch scalefont setfont (\267) show currentpoint grestore moveto}
bdef /MITERLIMIT { 2.5 setmiterlimit } bdef end
%%EndProlog
%%Page: 0 1
%%PageRequirements: color
%%PageResources: (atend)
%%PageOrientation: Portrait
%%PageBoundingBox: 0 0 311 226
%%BeginPageSetup
$IDL_DICT begin 0.0283465 dup scale MITERLIMIT
%%IncludeResource: font Helvetica
423.333 /Helvetica STDFONT
%%EndPageSetup
0.000 0.000 0.000 setrgbcolor gsave 6277 352 translate 0 0 M -258.657 0 N
(g-r) show grestore gsave 888 4352 translate 0 0 M 90 rotate -1576.07 0 N
(Number Fraction) show grestore 30 setlinewidth L0 2220 4352 M 4057 0 R D
3036 4352 M 0 88 R D gsave 3036 3824 translate 0 0 M -58.8433 0 N
( ) show grestore 3857 4352 M 0 88 R D gsave 3857 3824 translate 0 0 M
-58.8433 0 N
( ) show grestore 4677 4352 M 0 88 R D gsave 4677 3824 translate 0 0 M
-58.8433 0 N
( ) show grestore 5498 4352 M 0 88 R D gsave 5498 3824 translate 0 0 M
-58.8433 0 N
( ) show grestore 2421 4352 M 0 44 R D 2626 4352 M 0 44 R D 2831 4352 M
0 44 R D 3241 4352 M 0 44 R D 3447 4352 M 0 44 R D 3652 4352 M 0 44 R D
4062 4352 M 0 44 R D 4267 4352 M 0 44 R D 4472 4352 M 0 44 R D 4882 4352 M
0 44 R D 5087 4352 M 0 44 R D 5293 4352 M 0 44 R D 5703 4352 M 0 44 R D
5908 4352 M 0 44 R D 6113 4352 M 0 44 R D 2220 7296 M 4057 0 R D 3036 7296 M
0 -88 R D 3857 7296 M 0 -88 R D 4677 7296 M 0 -88 R D 5498 7296 M 0 -88 R D
2421 7296 M 0 -44 R D 2626 7296 M 0 -44 R D 2831 7296 M 0 -44 R D
3241 7296 M 0 -44 R D 3447 7296 M 0 -44 R D 3652 7296 M 0 -44 R D
4062 7296 M 0 -44 R D 4267 7296 M 0 -44 R D 4472 7296 M 0 -44 R D
4882 7296 M 0 -44 R D 5087 7296 M 0 -44 R D 5293 7296 M 0 -44 R D
5703 7296 M 0 -44 R D 5908 7296 M 0 -44 R D 6113 7296 M 0 -44 R D
2220 4352 M 0 2944 R D 2220 4352 M 122 0 R D gsave 2109 4352 translate 0 0 M
-588.433 0 N
(0.0) show grestore 2220 5107 M 122 0 R D gsave 2109 4966 translate 0 0 M
-588.433 0 N
(0.1) show grestore 2220 5862 M 122 0 R D gsave 2109 5721 translate 0 0 M
-588.433 0 N
(0.2) show grestore 2220 6617 M 122 0 R D gsave 2109 6476 translate 0 0 M
-588.433 0 N
(0.3) show grestore 2220 4428 M 61 0 R D 2220 4503 M 61 0 R D 2220 4579 M
61 0 R D 2220 4654 M 61 0 R D 2220 4729 M 61 0 R D 2220 4805 M 61 0 R D
2220 4880 M 61 0 R D 2220 4956 M 61 0 R D 2220 5031 M 61 0 R D 2220 5182 M
61 0 R D 2220 5258 M 61 0 R D 2220 5333 M 61 0 R D 2220 5409 M 61 0 R D
2220 5484 M 61 0 R D 2220 5560 M 61 0 R D 2220 5635 M 61 0 R D 2220 5711 M
61 0 R D 2220 5786 M 61 0 R D 2220 5937 M 61 0 R D 2220 6013 M 61 0 R D
2220 6088 M 61 0 R D 2220 6164 M 61 0 R D 2220 6239 M 61 0 R D 2220 6315 M
61 0 R D 2220 6390 M 61 0 R D 2220 6466 M 61 0 R D 2220 6541 M 61 0 R D
2220 6692 M 61 0 R D 2220 6768 M 61 0 R D 2220 6843 M 61 0 R D 2220 6919 M
61 0 R D 2220 6994 M 61 0 R D 2220 7070 M 61 0 R D 2220 7145 M 61 0 R D
2220 7221 M 61 0 R D 2220 7296 M 61 0 R D 6277 4352 M 0 2944 R D 6277 4352 M
-122 0 R D 6277 5107 M -122 0 R D 6277 5862 M -122 0 R D 6277 6617 M
-122 0 R D 6277 4428 M -61 0 R D 6277 4503 M -61 0 R D 6277 4579 M -61 0 R D
6277 4654 M -61 0 R D 6277 4729 M -61 0 R D 6277 4805 M -61 0 R D
6277 4880 M -61 0 R D 6277 4956 M -61 0 R D 6277 5031 M -61 0 R D
6277 5182 M -61 0 R D 6277 5258 M -61 0 R D 6277 5333 M -61 0 R D
6277 5409 M -61 0 R D 6277 5484 M -61 0 R D 6277 5560 M -61 0 R D
6277 5635 M -61 0 R D 6277 5711 M -61 0 R D 6277 5786 M -61 0 R D
6277 5937 M -61 0 R D 6277 6013 M -61 0 R D 6277 6088 M -61 0 R D
6277 6164 M -61 0 R D 6277 6239 M -61 0 R D 6277 6315 M -61 0 R D
6277 6390 M -61 0 R D 6277 6466 M -61 0 R D 6277 6541 M -61 0 R D
6277 6692 M -61 0 R D 6277 6768 M -61 0 R D 6277 6843 M -61 0 R D
6277 6919 M -61 0 R D 6277 6994 M -61 0 R D 6277 7070 M -61 0 R D
6277 7145 M -61 0 R D 6277 7221 M -61 0 R D 6277 7296 M -61 0 R D
0.255 0.255 0.255 setrgbcolor 2257 4380 M 98 0 R 0 21 R 98 0 R 98 0 R 0 28 R
98 0 R 98 0 R 0 398 R 98 0 R 98 0 R 0 720 R 98 0 R 98 0 R 0 -1055 R 97 0 R
98 0 R 0 168 R 98 0 R 98 0 R 0 265 R 98 0 R 98 0 R 0 -63 R 98 0 R 98 0 R
0 161 R 98 0 R 98 0 R 0 35 R 98 0 R 98 0 R 0 -63 R 98 0 R 98 0 R 0 168 R
98 0 R 98 0 R 0 -371 R 98 0 R 98 0 R 0 -237 R 98 0 R 98 0 R 0 -21 R 97 0 R
98 0 R 0 -7 R 98 0 R 98 0 R 0 21 R 98 0 R 98 0 R 0 -77 R 98 0 R 98 0 R
0 -70 R 98 0 R D 1.000 0.000 0.706 setrgbcolor 2257 4393 M 96 0 R 97 0 R
96 0 R 0 55 R 97 0 R 96 0 R 0 461 R 96 0 R 97 0 R 0 775 R 96 0 R 97 0 R
0 -1129 R 96 0 R 96 0 R 0 106 R 97 0 R 96 0 R 0 522 R 97 0 R 96 0 R 0 243 R
96 0 R 97 0 R 0 -263 R 96 0 R 97 0 R 0 -299 R 96 0 R 96 0 R 0 -10 R 97 0 R
96 0 R 0 -142 R 97 0 R 96 0 R 0 -102 R 96 0 R 97 0 R 0 -106 R 96 0 R 97 0 R
0 -56 R 96 0 R 96 0 R 0 56 R 97 0 R 96 0 R 0 -46 R 97 0 R 96 0 R 0 -35 R
96 0 R 97 0 R 0 -25 R 96 0 R D 0.506 0.000 0.000 setrgbcolor 2257 4369 M
97 0 R 0 42 R 98 0 R 97 0 R 0 4 R 97 0 R 98 0 R 0 418 R 97 0 R 97 0 R
0 982 R 98 0 R 97 0 R 0 -1250 R 97 0 R 98 0 R 0 222 R 97 0 R 97 0 R 0 485 R
98 0 R 97 0 R 0 4 R 97 0 R 98 0 R 0 -109 R 97 0 R 97 0 R 0 -259 R 98 0 R
97 0 R 0 -79 R 97 0 R 98 0 R 0 -59 R 97 0 R 97 0 R 0 -176 R 98 0 R 97 0 R
0 -125 R 97 0 R 98 0 R 0 -17 R 97 0 R 97 0 R 0 13 R 98 0 R 97 0 R 0 -59 R
97 0 R 98 0 R 0 9 R 97 0 R 97 0 R 0 -42 R 98 0 R D
1.000 0.349 0.000 setrgbcolor 2257 4401 M 97 0 R 0 39 R 98 0 R 97 0 R 0 13 R
97 0 R 97 0 R 0 424 R 98 0 R 97 0 R 0 609 R 97 0 R 97 0 R 0 -968 R 98 0 R
97 0 R 0 264 R 97 0 R 97 0 R 0 489 R 98 0 R 97 0 R 0 140 R 97 0 R 98 0 R
0 -195 R 97 0 R 97 0 R 0 -271 R 97 0 R 98 0 R 0 -137 R 97 0 R 97 0 R
0 -110 R 97 0 R 98 0 R 0 -163 R 97 0 R 97 0 R 0 3 R 98 0 R 97 0 R 0 -52 R
97 0 R 97 0 R 0 -13 R 98 0 R 97 0 R 0 -13 R 97 0 R 97 0 R 0 -49 R 98 0 R
97 0 R 0 -30 R 97 0 R D 0.000 0.549 0.000 setrgbcolor 2257 4364 M 98 0 R
0 11 R 97 0 R 98 0 R 0 28 R 98 0 R 97 0 R 0 261 R 98 0 R 98 0 R 0 1175 R
98 0 R 97 0 R 0 -1346 R 98 0 R 98 0 R 0 269 R 97 0 R 98 0 R 0 375 R 98 0 R
97 0 R 0 230 R 98 0 R 98 0 R 0 -199 R 98 0 R 97 0 R 0 -242 R 98 0 R 98 0 R
0 -35 R 97 0 R 98 0 R 0 -8 R 98 0 R 97 0 R 0 -242 R 98 0 R 98 0 R 0 -168 R
97 0 R 98 0 R 0 -23 R 98 0 R 98 0 R 0 31 R 97 0 R 98 0 R 0 -20 R 98 0 R
97 0 R 0 -19 R 98 0 R 98 0 R 0 -70 R 97 0 R D 0.000 0.514 1.000 setrgbcolor
2257 4373 M 95 0 R 0 10 R 95 0 R 96 0 R 0 61 R 95 0 R 95 0 R 0 236 R 95 0 R
95 0 R 0 922 R 95 0 R 96 0 R 0 -1148 R 95 0 R 95 0 R 0 103 R 95 0 R 95 0 R
0 420 R 95 0 R 96 0 R 0 184 R 95 0 R 95 0 R 0 -112 R 95 0 R 95 0 R 0 20 R
96 0 R 95 0 R 0 -215 R 95 0 R 95 0 R 0 317 R 95 0 R 95 0 R 0 -327 R 96 0 R
95 0 R 0 -256 R 95 0 R 95 0 R 0 -93 R 95 0 R 96 0 R 0 -30 R 95 0 R 95 0 R
0 102 R 95 0 R 95 0 R 0 -113 R 95 0 R 96 0 R 0 -51 R 95 0 R D
0.000 0.000 1.000 setrgbcolor 2257 4405 M 95 0 R 0 79 R 96 0 R 95 0 R 0 96 R
95 0 R 95 0 R 0 342 R 96 0 R 95 0 R 0 307 R 95 0 R 95 0 R 0 -702 R 96 0 R
95 0 R 0 79 R 95 0 R 95 0 R 0 351 R 96 0 R 95 0 R 0 140 R 95 0 R 96 0 R
0 193 R 95 0 R 95 0 R 0 -263 R 95 0 R 96 0 R 0 -131 R 95 0 R 95 0 R 0 -149 R
95 0 R 96 0 R 0 -106 R 95 0 R 95 0 R 0 -131 R 96 0 R 95 0 R 0 17 R 95 0 R
95 0 R 0 62 R 96 0 R 95 0 R 0 26 R 95 0 R 95 0 R 0 -70 R 96 0 R 95 0 R
0 -149 R 95 0 R D 0.588 0.000 0.588 setrgbcolor 2257 4405 M 95 0 R 0 21 R
96 0 R 95 0 R 0 118 R 96 0 R 95 0 R 0 369 R 96 0 R 95 0 R 0 434 R 95 0 R
96 0 R 0 -868 R 95 0 R 96 0 R 0 172 R 95 0 R 96 0 R 0 340 R 95 0 R 95 0 R
0 208 R 96 0 R 95 0 R 0 62 R 96 0 R 95 0 R 0 -213 R 96 0 R 95 0 R 0 -156 R
95 0 R 96 0 R 0 -90 R 95 0 R 96 0 R 0 -127 R 95 0 R 96 0 R 0 -102 R 95 0 R
95 0 R 0 -69 R 96 0 R 95 0 R 96 0 R 95 0 R 0 4 R 96 0 R 95 0 R 0 -33 R
95 0 R 96 0 R 0 -82 R 95 0 R D 0.000 1.000 1.000 setrgbcolor 2257 4520 M
99 0 R 0 -16 R 98 0 R 99 0 R 0 8 R 98 0 R 99 0 R 0 489 R 98 0 R 99 0 R
0 20 R 98 0 R 99 0 R 0 -562 R 98 0 R 99 0 R 0 156 R 98 0 R 99 0 R 0 197 R
98 0 R 99 0 R 0 373 R 99 0 R 98 0 R 0 -205 R 99 0 R 98 0 R 0 49 R 99 0 R
98 0 R 0 -135 R 99 0 R 98 0 R 0 -107 R 99 0 R 98 0 R 0 -33 R 99 0 R 98 0 R
0 -69 R 99 0 R 98 0 R 0 -87 R 99 0 R 99 0 R 0 37 R 98 0 R 99 0 R 0 78 R
98 0 R 99 0 R 0 -197 R 98 0 R 99 0 R 0 -148 R 98 0 R D
0.000 0.000 0.000 setrgbcolor gsave 4677 6768 translate 0 0 M
(z=0.00) show grestore 6277 4352 M 4057 0 R D 7093 4352 M 0 88 R D
gsave 7093 3824 translate 0 0 M -58.8433 0 N
( ) show grestore 7914 4352 M 0 88 R D gsave 7914 3824 translate 0 0 M
-58.8433 0 N
( ) show grestore 8734 4352 M 0 88 R D gsave 8734 3824 translate 0 0 M
-58.8433 0 N
( ) show grestore 9555 4352 M 0 88 R D gsave 9555 3824 translate 0 0 M
-58.8433 0 N
( ) show grestore 6478 4352 M 0 44 R D 6683 4352 M 0 44 R D 6888 4352 M
0 44 R D 7298 4352 M 0 44 R D 7504 4352 M 0 44 R D 7709 4352 M 0 44 R D
8119 4352 M 0 44 R D 8324 4352 M 0 44 R D 8529 4352 M 0 44 R D 8939 4352 M
0 44 R D 9144 4352 M 0 44 R D 9350 4352 M 0 44 R D 9760 4352 M 0 44 R D
9965 4352 M 0 44 R D 10170 4352 M 0 44 R D 6277 7296 M 4057 0 R D
7093 7296 M 0 -88 R D 7914 7296 M 0 -88 R D 8734 7296 M 0 -88 R D
9555 7296 M 0 -88 R D 6478 7296 M 0 -44 R D 6683 7296 M 0 -44 R D
6888 7296 M 0 -44 R D 7298 7296 M 0 -44 R D 7504 7296 M 0 -44 R D
7709 7296 M 0 -44 R D 8119 7296 M 0 -44 R D 8324 7296 M 0 -44 R D
8529 7296 M 0 -44 R D 8939 7296 M 0 -44 R D 9144 7296 M 0 -44 R D
9350 7296 M 0 -44 R D 9760 7296 M 0 -44 R D 9965 7296 M 0 -44 R D
10170 7296 M 0 -44 R D 6277 4352 M 0 2944 R D 6277 4352 M 122 0 R D
gsave 6166 4352 translate 0 0 M -117.687 0 N
( ) show grestore 6277 5107 M 122 0 R D gsave 6166 4966 translate 0 0 M
-117.687 0 N
( ) show grestore 6277 5862 M 122 0 R D gsave 6166 5721 translate 0 0 M
-117.687 0 N
( ) show grestore 6277 6617 M 122 0 R D gsave 6166 6476 translate 0 0 M
-117.687 0 N
( ) show grestore 6277 4428 M 61 0 R D 6277 4503 M 61 0 R D 6277 4579 M
61 0 R D 6277 4654 M 61 0 R D 6277 4729 M 61 0 R D 6277 4805 M 61 0 R D
6277 4880 M 61 0 R D 6277 4956 M 61 0 R D 6277 5031 M 61 0 R D 6277 5182 M
61 0 R D 6277 5258 M 61 0 R D 6277 5333 M 61 0 R D 6277 5409 M 61 0 R D
6277 5484 M 61 0 R D 6277 5560 M 61 0 R D 6277 5635 M 61 0 R D 6277 5711 M
61 0 R D 6277 5786 M 61 0 R D 6277 5937 M 61 0 R D 6277 6013 M 61 0 R D
6277 6088 M 61 0 R D 6277 6164 M 61 0 R D 6277 6239 M 61 0 R D 6277 6315 M
61 0 R D 6277 6390 M 61 0 R D 6277 6466 M 61 0 R D 6277 6541 M 61 0 R D
6277 6692 M 61 0 R D 6277 6768 M 61 0 R D 6277 6843 M 61 0 R D 6277 6919 M
61 0 R D 6277 6994 M 61 0 R D 6277 7070 M 61 0 R D 6277 7145 M 61 0 R D
6277 7221 M 61 0 R D 6277 7296 M 61 0 R D 10334 4352 M 0 2944 R D
10334 4352 M -122 0 R D 10334 5107 M -122 0 R D 10334 5862 M -122 0 R D
10334 6617 M -122 0 R D 10334 4428 M -61 0 R D 10334 4503 M -61 0 R D
10334 4579 M -61 0 R D 10334 4654 M -61 0 R D 10334 4729 M -61 0 R D
10334 4805 M -61 0 R D 10334 4880 M -61 0 R D 10334 4956 M -61 0 R D
10334 5031 M -61 0 R D 10334 5182 M -61 0 R D 10334 5258 M -61 0 R D
10334 5333 M -61 0 R D 10334 5409 M -61 0 R D 10334 5484 M -61 0 R D
10334 5560 M -61 0 R D 10334 5635 M -61 0 R D 10334 5711 M -61 0 R D
10334 5786 M -61 0 R D 10334 5937 M -61 0 R D 10334 6013 M -61 0 R D
10334 6088 M -61 0 R D 10334 6164 M -61 0 R D 10334 6239 M -61 0 R D
10334 6315 M -61 0 R D 10334 6390 M -61 0 R D 10334 6466 M -61 0 R D
10334 6541 M -61 0 R D 10334 6692 M -61 0 R D 10334 6768 M -61 0 R D
10334 6843 M -61 0 R D 10334 6919 M -61 0 R D 10334 6994 M -61 0 R D
10334 7070 M -61 0 R D 10334 7145 M -61 0 R D 10334 7221 M -61 0 R D
10334 7296 M -61 0 R D 0.255 0.255 0.255 setrgbcolor 7122 4360 M 85 0 R
0 45 R 86 0 R 86 0 R 0 37 R 85 0 R 86 0 R 0 135 R 86 0 R 86 0 R 0 1511 R
85 0 R 86 0 R 0 -1589 R 86 0 R 86 0 R 0 119 R 85 0 R 86 0 R 0 467 R 86 0 R
86 0 R 0 270 R 85 0 R 86 0 R 0 90 R 86 0 R 85 0 R 0 -377 R 86 0 R 86 0 R
0 -278 R 86 0 R 85 0 R 0 -213 R 86 0 R 86 0 R 0 -49 R 86 0 R 85 0 R 0 61 R
86 0 R 86 0 R 0 -12 R 86 0 R 85 0 R 0 -86 R 86 0 R 86 0 R 0 -102 R 85 0 R D
1.000 0.000 0.706 setrgbcolor 7179 4362 M 84 0 R 0 36 R 84 0 R 84 0 R 0 91 R
84 0 R 84 0 R 0 488 R 85 0 R 84 0 R 0 830 R 84 0 R 84 0 R 0 -1243 R 84 0 R
84 0 R 0 169 R 84 0 R 85 0 R 0 524 R 84 0 R 84 0 R 0 150 R 84 0 R 84 0 R
0 -124 R 84 0 R 85 0 R 0 -348 R 84 0 R 84 0 R 0 -303 R 84 0 R 84 0 R 0 -88 R
84 0 R 84 0 R 0 -36 R 85 0 R 84 0 R 0 98 R 84 0 R 84 0 R 0 -81 R 84 0 R
84 0 R 0 -36 R 84 0 R 85 0 R 0 -117 R 84 0 R D 0.506 0.000 0.000 setrgbcolor
7155 4361 M 85 0 R 0 20 R 85 0 R 86 0 R 0 81 R 85 0 R 85 0 R 0 290 R 85 0 R
85 0 R 0 1341 R 85 0 R 85 0 R 0 -1579 R 85 0 R 85 0 R 0 209 R 85 0 R 85 0 R
0 666 R 85 0 R 85 0 R 0 243 R 85 0 R 85 0 R 0 -382 R 85 0 R 85 0 R 0 -388 R
85 0 R 86 0 R 0 -197 R 85 0 R 85 0 R 0 -116 R 85 0 R 85 0 R 0 -72 R 85 0 R
85 0 R 0 52 R 85 0 R 85 0 R 0 -87 R 85 0 R 85 0 R 0 -9 R 85 0 R 85 0 R
0 -61 R 85 0 R D 1.000 0.349 0.000 setrgbcolor 7126 4359 M 85 0 R 0 24 R
85 0 R 85 0 R 0 68 R 85 0 R 84 0 R 0 186 R 85 0 R 85 0 R 0 1346 R 85 0 R
85 0 R 0 -1515 R 85 0 R 85 0 R 0 216 R 85 0 R 85 0 R 0 579 R 85 0 R 85 0 R
0 343 R 85 0 R 85 0 R 0 -185 R 85 0 R 85 0 R 0 -467 R 85 0 R 85 0 R 0 -295 R
85 0 R 85 0 R 0 -149 R 85 0 R 85 0 R 0 18 R 85 0 R 85 0 R 0 77 R 84 0 R
85 0 R 0 -55 R 85 0 R 85 0 R 0 -104 R 85 0 R 85 0 R 0 -68 R 85 0 R D
0.000 0.549 0.000 setrgbcolor 7119 4357 M 86 0 R 0 8 R 87 0 R 86 0 R 0 43 R
86 0 R 86 0 R 0 139 R 86 0 R 86 0 R 0 1616 R 86 0 R 86 0 R 0 -1651 R 86 0 R
86 0 R 0 150 R 86 0 R 86 0 R 0 737 R 86 0 R 86 0 R 0 313 R 86 0 R 86 0 R
0 -428 R 86 0 R 86 0 R 0 -331 R 86 0 R 86 0 R 0 -329 R 86 0 R 86 0 R 0 -58 R
86 0 R 86 0 R 0 -80 R 86 0 R 86 0 R 0 45 R 86 0 R 86 0 R 0 -27 R 86 0 R
86 0 R 0 -58 R 86 0 R 86 0 R 0 -81 R 87 0 R D 0.000 0.514 1.000 setrgbcolor
7102 4380 M 86 0 R 0 -22 R 87 0 R 86 0 R 0 96 R 86 0 R 87 0 R 0 164 R 86 0 R
87 0 R 0 1407 R 86 0 R 86 0 R 0 -1515 R 87 0 R 86 0 R 0 57 R 86 0 R 87 0 R
0 412 R 86 0 R 86 0 R 0 452 R 87 0 R 86 0 R 0 -34 R 86 0 R 87 0 R 0 -164 R
86 0 R 87 0 R 0 -452 R 86 0 R 86 0 R 0 -197 R 87 0 R 86 0 R 0 11 R 86 0 R
87 0 R 0 -11 R 86 0 R 86 0 R 0 -74 R 87 0 R 86 0 R 0 6 R 87 0 R 86 0 R
0 -153 R 86 0 R D 0.000 0.000 1.000 setrgbcolor 7120 4357 M 84 0 R 0 79 R
83 0 R 84 0 R 0 204 R 84 0 R 84 0 R 0 218 R 84 0 R 84 0 R 0 926 R 84 0 R
84 0 R 0 -1293 R 83 0 R 84 0 R 0 64 R 84 0 R 84 0 R 0 159 R 84 0 R 84 0 R
0 372 R 84 0 R 84 0 R 0 178 R 84 0 R 83 0 R 0 -149 R 84 0 R 84 0 R 0 -203 R
84 0 R 84 0 R 0 -218 R 84 0 R 84 0 R 0 -45 R 84 0 R 84 0 R 0 5 R 83 0 R
84 0 R 0 -5 R 84 0 R 84 0 R 0 -34 R 84 0 R 84 0 R 0 -203 R 84 0 R D
0.588 0.000 0.588 setrgbcolor 7076 4363 M 86 0 R 0 21 R 85 0 R 86 0 R 0 94 R
85 0 R 86 0 R 0 298 R 85 0 R 86 0 R 0 1088 R 85 0 R 86 0 R 0 -1324 R 85 0 R
86 0 R 0 -11 R 86 0 R 85 0 R 0 186 R 86 0 R 85 0 R 0 405 R 86 0 R 85 0 R
0 315 R 86 0 R 85 0 R 0 -172 R 86 0 R 85 0 R 0 -371 R 86 0 R 86 0 R 0 -274 R
85 0 R 86 0 R 0 3 R 85 0 R 86 0 R 0 37 R 85 0 R 86 0 R 0 -27 R 85 0 R 86 0 R
0 -21 R 85 0 R 86 0 R 0 -223 R 85 0 R D 0.000 1.000 1.000 setrgbcolor
7039 4357 M 89 0 R 0 332 R 89 0 R 88 0 R 0 114 R 89 0 R 89 0 R 0 -89 R
89 0 R 89 0 R 0 851 R 88 0 R 89 0 R 0 -1068 R 89 0 R 89 0 R 0 -19 R 89 0 R
88 0 R 0 96 R 89 0 R 89 0 R 0 276 R 89 0 R 89 0 R 0 283 R 89 0 R 88 0 R
0 58 R 89 0 R 89 0 R 0 -201 R 89 0 R 89 0 R 0 -217 R 88 0 R 89 0 R 0 -61 R
89 0 R 89 0 R 0 128 R 89 0 R 88 0 R 0 -53 R 89 0 R 89 0 R 0 -220 R 89 0 R
89 0 R 0 -201 R 88 0 R D 0.000 0.000 0.000 setrgbcolor
gsave 8734 6768 translate 0 0 M
(z=0.09) show grestore 2220 1408 M 4057 0 R D 3036 1408 M 0 88 R D
gsave 3036 880 translate 0 0 M -294.217 0 N
(0.2) show grestore 3857 1408 M 0 88 R D gsave 3857 880 translate 0 0 M
-294.217 0 N
(0.4) show grestore 4677 1408 M 0 88 R D gsave 4677 880 translate 0 0 M
-294.217 0 N
(0.6) show grestore 5498 1408 M 0 88 R D gsave 5498 880 translate 0 0 M
-294.217 0 N
(0.8) show grestore 2421 1408 M 0 44 R D 2626 1408 M 0 44 R D 2831 1408 M
0 44 R D 3241 1408 M 0 44 R D 3447 1408 M 0 44 R D 3652 1408 M 0 44 R D
4062 1408 M 0 44 R D 4267 1408 M 0 44 R D 4472 1408 M 0 44 R D 4882 1408 M
0 44 R D 5087 1408 M 0 44 R D 5293 1408 M 0 44 R D 5703 1408 M 0 44 R D
5908 1408 M 0 44 R D 6113 1408 M 0 44 R D 2220 4352 M 4057 0 R D 3036 4352 M
0 -88 R D 3857 4352 M 0 -88 R D 4677 4352 M 0 -88 R D 5498 4352 M 0 -88 R D
2421 4352 M 0 -44 R D 2626 4352 M 0 -44 R D 2831 4352 M 0 -44 R D
3241 4352 M 0 -44 R D 3447 4352 M 0 -44 R D 3652 4352 M 0 -44 R D
4062 4352 M 0 -44 R D 4267 4352 M 0 -44 R D 4472 4352 M 0 -44 R D
4882 4352 M 0 -44 R D 5087 4352 M 0 -44 R D 5293 4352 M 0 -44 R D
5703 4352 M 0 -44 R D 5908 4352 M 0 -44 R D 6113 4352 M 0 -44 R D
2220 1408 M 0 2944 R D 2220 1408 M 122 0 R D gsave 2109 1408 translate 0 0 M
-588.433 0 N
(0.0) show grestore 2220 2163 M 122 0 R D gsave 2109 2022 translate 0 0 M
-588.433 0 N
(0.1) show grestore 2220 2918 M 122 0 R D gsave 2109 2777 translate 0 0 M
-588.433 0 N
(0.2) show grestore 2220 3673 M 122 0 R D gsave 2109 3532 translate 0 0 M
-588.433 0 N
(0.3) show grestore 2220 1484 M 61 0 R D 2220 1559 M 61 0 R D 2220 1635 M
61 0 R D 2220 1710 M 61 0 R D 2220 1785 M 61 0 R D 2220 1861 M 61 0 R D
2220 1936 M 61 0 R D 2220 2012 M 61 0 R D 2220 2087 M 61 0 R D 2220 2238 M
61 0 R D 2220 2314 M 61 0 R D 2220 2389 M 61 0 R D 2220 2465 M 61 0 R D
2220 2540 M 61 0 R D 2220 2616 M 61 0 R D 2220 2691 M 61 0 R D 2220 2767 M
61 0 R D 2220 2842 M 61 0 R D 2220 2993 M 61 0 R D 2220 3069 M 61 0 R D
2220 3144 M 61 0 R D 2220 3220 M 61 0 R D 2220 3295 M 61 0 R D 2220 3371 M
61 0 R D 2220 3446 M 61 0 R D 2220 3522 M 61 0 R D 2220 3597 M 61 0 R D
2220 3748 M 61 0 R D 2220 3824 M 61 0 R D 2220 3899 M 61 0 R D 2220 3975 M
61 0 R D 2220 4050 M 61 0 R D 2220 4126 M 61 0 R D 2220 4201 M 61 0 R D
2220 4277 M 61 0 R D 2220 4352 M 61 0 R D 6277 1408 M 0 2944 R D 6277 1408 M
-122 0 R D 6277 2163 M -122 0 R D 6277 2918 M -122 0 R D 6277 3673 M
-122 0 R D 6277 1484 M -61 0 R D 6277 1559 M -61 0 R D 6277 1635 M -61 0 R D
6277 1710 M -61 0 R D 6277 1785 M -61 0 R D 6277 1861 M -61 0 R D
6277 1936 M -61 0 R D 6277 2012 M -61 0 R D 6277 2087 M -61 0 R D
6277 2238 M -61 0 R D 6277 2314 M -61 0 R D 6277 2389 M -61 0 R D
6277 2465 M -61 0 R D 6277 2540 M -61 0 R D 6277 2616 M -61 0 R D
6277 2691 M -61 0 R D 6277 2767 M -61 0 R D 6277 2842 M -61 0 R D
6277 2993 M -61 0 R D 6277 3069 M -61 0 R D 6277 3144 M -61 0 R D
6277 3220 M -61 0 R D 6277 3295 M -61 0 R D 6277 3371 M -61 0 R D
6277 3446 M -61 0 R D 6277 3522 M -61 0 R D 6277 3597 M -61 0 R D
6277 3748 M -61 0 R D 6277 3824 M -61 0 R D 6277 3899 M -61 0 R D
6277 3975 M -61 0 R D 6277 4050 M -61 0 R D 6277 4126 M -61 0 R D
6277 4201 M -61 0 R D 6277 4277 M -61 0 R D 6277 4352 M -61 0 R D
0.255 0.255 0.255 setrgbcolor 3849 1442 M 82 0 R 0 401 R 82 0 R 82 0 R
0 1621 R 82 0 R 83 0 R 0 -1579 R 82 0 R 82 0 R 0 767 R 82 0 R 82 0 R 0 -50 R
82 0 R 82 0 R 0 -450 R 83 0 R 82 0 R 0 -389 R 82 0 R 82 0 R 0 -132 R 82 0 R
82 0 R 0 -32 R 83 0 R 82 0 R 0 26 R 82 0 R 82 0 R 0 -6 R 82 0 R 82 0 R
0 -75 R 83 0 R 82 0 R 0 -104 R 82 0 R D 1.000 0.000 0.706 setrgbcolor
3850 1477 M 83 0 R 0 526 R 82 0 R 83 0 R 0 1249 R 82 0 R 82 0 R 0 -1334 R
83 0 R 82 0 R 0 638 R 82 0 R 83 0 R 0 -35 R 82 0 R 83 0 R 0 -314 R 82 0 R
82 0 R 0 -350 R 83 0 R 82 0 R 0 -235 R 83 0 R 82 0 R 0 -16 R 82 0 R 83 0 R
0 21 R 82 0 R 82 0 R 0 -26 R 83 0 R 82 0 R 0 -16 R 83 0 R 82 0 R 0 -154 R
82 0 R D 0.506 0.000 0.000 setrgbcolor 3848 1448 M 83 0 R 0 372 R 82 0 R
83 0 R 0 1762 R 82 0 R 82 0 R 0 -1598 R 83 0 R 82 0 R 0 859 R 82 0 R 83 0 R
0 -243 R 82 0 R 83 0 R 0 -544 R 82 0 R 82 0 R 0 -342 R 83 0 R 82 0 R
0 -113 R 83 0 R 82 0 R 0 -55 R 82 0 R 83 0 R 0 6 R 82 0 R 82 0 R 0 14 R
83 0 R 82 0 R 0 -46 R 83 0 R 82 0 R 0 -91 R 82 0 R D
1.000 0.349 0.000 setrgbcolor 3853 1442 M 82 0 R 0 440 R 82 0 R 82 0 R
0 1471 R 81 0 R 82 0 R 0 -1423 R 82 0 R 82 0 R 0 842 R 82 0 R 82 0 R
0 -142 R 82 0 R 82 0 R 0 -506 R 82 0 R 81 0 R 0 -352 R 82 0 R 82 0 R
0 -215 R 82 0 R 82 0 R 0 23 R 82 0 R 82 0 R 0 51 R 82 0 R 82 0 R 0 -33 R
81 0 R 82 0 R 0 -46 R 82 0 R 82 0 R 0 -114 R 82 0 R D
0.000 0.549 0.000 setrgbcolor 3853 1454 M 82 0 R 0 285 R 82 0 R 82 0 R
0 1801 R 82 0 R 82 0 R 0 -1483 R 82 0 R 83 0 R 0 867 R 82 0 R 82 0 R
0 -343 R 82 0 R 82 0 R 0 -533 R 82 0 R 82 0 R 0 -338 R 82 0 R 82 0 R
0 -129 R 83 0 R 82 0 R 0 -40 R 82 0 R 82 0 R 0 8 R 82 0 R 82 0 R 0 25 R
82 0 R 82 0 R 0 -38 R 82 0 R 82 0 R 0 -109 R 83 0 R D
0.000 0.514 1.000 setrgbcolor 3850 1463 M 83 0 R 0 533 R 82 0 R 82 0 R
0 1273 R 82 0 R 83 0 R 0 -1438 R 82 0 R 82 0 R 0 655 R 83 0 R 82 0 R 0 113 R
82 0 R 83 0 R 0 -321 R 82 0 R 82 0 R 0 -437 R 82 0 R 83 0 R 0 -228 R 82 0 R
82 0 R 0 -17 R 83 0 R 82 0 R 0 85 R 82 0 R 83 0 R 0 -108 R 82 0 R 82 0 R
0 35 R 82 0 R 83 0 R 0 -180 R 82 0 R D 0.000 0.000 1.000 setrgbcolor
3856 1781 M 80 0 R 0 530 R 80 0 R 81 0 R 0 503 R 80 0 R 80 0 R 0 -1100 R
81 0 R 80 0 R 0 334 R 80 0 R 81 0 R 0 320 R 80 0 R 80 0 R 0 -90 R 81 0 R
80 0 R 0 -350 R 80 0 R 81 0 R 0 -202 R 80 0 R 80 0 R 0 -80 R 81 0 R 80 0 R
0 60 R 80 0 R 81 0 R 0 10 R 80 0 R 80 0 R 0 36 R 81 0 R 80 0 R 0 -277 R
81 0 R D 0.588 0.000 0.588 setrgbcolor 3849 1591 M 81 0 R 0 694 R 82 0 R
82 0 R 0 647 R 82 0 R 82 0 R 0 -1169 R 81 0 R 82 0 R 0 351 R 82 0 R 82 0 R
0 330 R 82 0 R 81 0 R 0 -139 R 82 0 R 82 0 R 0 -381 R 82 0 R 81 0 R 0 -217 R
82 0 R 82 0 R 0 -73 R 82 0 R 82 0 R 0 52 R 81 0 R 82 0 R 0 43 R 82 0 R
82 0 R 0 -24 R 82 0 R 81 0 R 0 -263 R 82 0 R D 0.000 1.000 1.000 setrgbcolor
3848 1903 M 83 0 R 0 392 R 83 0 R 83 0 R 0 209 R 83 0 R 82 0 R 0 -865 R
83 0 R 83 0 R 0 276 R 83 0 R 83 0 R 0 251 R 83 0 R 82 0 R 0 182 R 83 0 R
83 0 R 0 -300 R 83 0 R 83 0 R 0 -244 R 82 0 R 83 0 R 0 -68 R 83 0 R 83 0 R
0 87 R 83 0 R 82 0 R 0 87 R 83 0 R 83 0 R 0 -171 R 83 0 R 83 0 R 0 -308 R
82 0 R D 0.000 0.000 0.000 setrgbcolor gsave 4677 3824 translate 0 0 M
(z=0.46) show grestore 6277 1408 M 4057 0 R D 7093 1408 M 0 88 R D
gsave 7093 880 translate 0 0 M -294.217 0 N
(0.2) show grestore 7914 1408 M 0 88 R D gsave 7914 880 translate 0 0 M
-294.217 0 N
(0.4) show grestore 8734 1408 M 0 88 R D gsave 8734 880 translate 0 0 M
-294.217 0 N
(0.6) show grestore 9555 1408 M 0 88 R D gsave 9555 880 translate 0 0 M
-294.217 0 N
(0.8) show grestore 6478 1408 M 0 44 R D 6683 1408 M 0 44 R D 6888 1408 M
0 44 R D 7298 1408 M 0 44 R D 7504 1408 M 0 44 R D 7709 1408 M 0 44 R D
8119 1408 M 0 44 R D 8324 1408 M 0 44 R D 8529 1408 M 0 44 R D 8939 1408 M
0 44 R D 9144 1408 M 0 44 R D 9350 1408 M 0 44 R D 9760 1408 M 0 44 R D
9965 1408 M 0 44 R D 10170 1408 M 0 44 R D 6277 4352 M 4057 0 R D
7093 4352 M 0 -88 R D 7914 4352 M 0 -88 R D 8734 4352 M 0 -88 R D
9555 4352 M 0 -88 R D 6478 4352 M 0 -44 R D 6683 4352 M 0 -44 R D
6888 4352 M 0 -44 R D 7298 4352 M 0 -44 R D 7504 4352 M 0 -44 R D
7709 4352 M 0 -44 R D 8119 4352 M 0 -44 R D 8324 4352 M 0 -44 R D
8529 4352 M 0 -44 R D 8939 4352 M 0 -44 R D 9144 4352 M 0 -44 R D
9350 4352 M 0 -44 R D 9760 4352 M 0 -44 R D 9965 4352 M 0 -44 R D
10170 4352 M 0 -44 R D 6277 1408 M 0 2944 R D 6277 1408 M 122 0 R D
gsave 6166 1408 translate 0 0 M -117.687 0 N
( ) show grestore 6277 2163 M 122 0 R D gsave 6166 2022 translate 0 0 M
-117.687 0 N
( ) show grestore 6277 2918 M 122 0 R D gsave 6166 2777 translate 0 0 M
-117.687 0 N
( ) show grestore 6277 3673 M 122 0 R D gsave 6166 3532 translate 0 0 M
-117.687 0 N
( ) show grestore 6277 1484 M 61 0 R D 6277 1559 M 61 0 R D 6277 1635 M
61 0 R D 6277 1710 M 61 0 R D 6277 1785 M 61 0 R D 6277 1861 M 61 0 R D
6277 1936 M 61 0 R D 6277 2012 M 61 0 R D 6277 2087 M 61 0 R D 6277 2238 M
61 0 R D 6277 2314 M 61 0 R D 6277 2389 M 61 0 R D 6277 2465 M 61 0 R D
6277 2540 M 61 0 R D 6277 2616 M 61 0 R D 6277 2691 M 61 0 R D 6277 2767 M
61 0 R D 6277 2842 M 61 0 R D 6277 2993 M 61 0 R D 6277 3069 M 61 0 R D
6277 3144 M 61 0 R D 6277 3220 M 61 0 R D 6277 3295 M 61 0 R D 6277 3371 M
61 0 R D 6277 3446 M 61 0 R D 6277 3522 M 61 0 R D 6277 3597 M 61 0 R D
6277 3748 M 61 0 R D 6277 3824 M 61 0 R D 6277 3899 M 61 0 R D 6277 3975 M
61 0 R D 6277 4050 M 61 0 R D 6277 4126 M 61 0 R D 6277 4201 M 61 0 R D
6277 4277 M 61 0 R D 6277 4352 M 61 0 R D 10334 1408 M 0 2944 R D
10334 1408 M -122 0 R D 10334 2163 M -122 0 R D 10334 2918 M -122 0 R D
10334 3673 M -122 0 R D 10334 1484 M -61 0 R D 10334 1559 M -61 0 R D
10334 1635 M -61 0 R D 10334 1710 M -61 0 R D 10334 1785 M -61 0 R D
10334 1861 M -61 0 R D 10334 1936 M -61 0 R D 10334 2012 M -61 0 R D
10334 2087 M -61 0 R D 10334 2238 M -61 0 R D 10334 2314 M -61 0 R D
10334 2389 M -61 0 R D 10334 2465 M -61 0 R D 10334 2540 M -61 0 R D
10334 2616 M -61 0 R D 10334 2691 M -61 0 R D 10334 2767 M -61 0 R D
10334 2842 M -61 0 R D 10334 2993 M -61 0 R D 10334 3069 M -61 0 R D
10334 3144 M -61 0 R D 10334 3220 M -61 0 R D 10334 3295 M -61 0 R D
10334 3371 M -61 0 R D 10334 3446 M -61 0 R D 10334 3522 M -61 0 R D
10334 3597 M -61 0 R D 10334 3748 M -61 0 R D 10334 3824 M -61 0 R D
10334 3899 M -61 0 R D 10334 3975 M -61 0 R D 10334 4050 M -61 0 R D
10334 4126 M -61 0 R D 10334 4201 M -61 0 R D 10334 4277 M -61 0 R D
10334 4352 M -61 0 R D 0.255 0.255 0.255 setrgbcolor 8479 2014 M 79 0 R
0 627 R 80 0 R 80 0 R 0 -288 R 80 0 R 80 0 R 0 -425 R 79 0 R 80 0 R 0 -262 R
80 0 R 80 0 R 0 -80 R 80 0 R 79 0 R 0 -18 R 80 0 R 80 0 R 0 45 R 80 0 R
79 0 R 0 -41 R 80 0 R 80 0 R 0 -49 R 80 0 R 80 0 R 0 -98 R 79 0 R D
1.000 0.000 0.706 setrgbcolor 8479 1846 M 80 0 R 0 645 R 79 0 R 80 0 R
0 -148 R 79 0 R 80 0 R 0 -281 R 80 0 R 79 0 R 0 -321 R 80 0 R 79 0 R
0 -139 R 80 0 R 80 0 R 0 11 R 79 0 R 80 0 R 0 11 R 79 0 R 80 0 R 0 -70 R
80 0 R 79 0 R 0 22 R 80 0 R 79 0 R 0 -147 R 80 0 R D
0.506 0.000 0.000 setrgbcolor 8477 2160 M 79 0 R 0 521 R 79 0 R 79 0 R
0 -256 R 79 0 R 79 0 R 0 -499 R 79 0 R 79 0 R 0 -243 R 79 0 R 79 0 R
0 -107 R 79 0 R 79 0 R 0 -24 R 80 0 R 79 0 R 0 4 R 79 0 R 79 0 R 0 -22 R
79 0 R 79 0 R 0 -16 R 79 0 R 79 0 R 0 -89 R 79 0 R D
1.000 0.349 0.000 setrgbcolor 8478 2025 M 79 0 R 0 585 R 79 0 R 80 0 R
0 -194 R 79 0 R 79 0 R 0 -448 R 80 0 R 79 0 R 0 -285 R 79 0 R 80 0 R
0 -106 R 79 0 R 79 0 R 0 15 R 80 0 R 79 0 R 0 22 R 79 0 R 80 0 R 0 -38 R
79 0 R 79 0 R 0 -42 R 80 0 R 79 0 R 0 -101 R 79 0 R D
0.000 0.549 0.000 setrgbcolor 8477 2241 M 79 0 R 0 505 R 79 0 R 80 0 R
0 -363 R 79 0 R 79 0 R 0 -446 R 79 0 R 79 0 R 0 -281 R 80 0 R 79 0 R
0 -109 R 79 0 R 79 0 R 0 -5 R 79 0 R 79 0 R 0 28 R 80 0 R 79 0 R 0 -31 R
79 0 R 79 0 R 0 -19 R 79 0 R 79 0 R 0 -93 R 80 0 R D
0.000 0.514 1.000 setrgbcolor 8477 1814 M 79 0 R 0 655 R 79 0 R 80 0 R
0 -46 R 79 0 R 79 0 R 0 -390 R 79 0 R 79 0 R 0 -291 R 79 0 R 79 0 R 0 -138 R
80 0 R 79 0 R 0 6 R 79 0 R 79 0 R 0 33 R 79 0 R 79 0 R 0 -75 R 80 0 R 79 0 R
0 6 R 79 0 R 79 0 R 0 -133 R 79 0 R D 0.000 0.000 1.000 setrgbcolor
8479 1499 M 80 0 R 0 534 R 81 0 R 80 0 R 0 387 R 80 0 R 80 0 R 0 -262 R
81 0 R 80 0 R 0 -291 R 80 0 R 80 0 R 0 -146 R 81 0 R 80 0 R 0 -4 R 80 0 R
80 0 R 0 34 R 80 0 R 81 0 R 0 -59 R 80 0 R 80 0 R 0 -24 R 80 0 R 81 0 R
0 -242 R 80 0 R D 0.588 0.000 0.588 setrgbcolor 8476 1554 M 79 0 R 0 611 R
79 0 R 79 0 R 0 242 R 78 0 R 79 0 R 0 -312 R 79 0 R 79 0 R 0 -240 R 79 0 R
78 0 R 0 -177 R 79 0 R 79 0 R 0 -22 R 79 0 R 78 0 R 0 79 R 79 0 R 79 0 R
0 -21 R 79 0 R 79 0 R 0 -63 R 78 0 R 79 0 R 0 -206 R 79 0 R D
0.000 1.000 1.000 setrgbcolor 8478 1451 M 79 0 R 0 256 R 79 0 R 79 0 R
0 514 R 80 0 R 79 0 R 0 66 R 79 0 R 79 0 R 0 -261 R 80 0 R 79 0 R 0 -194 R
79 0 R 79 0 R 0 -62 R 80 0 R 79 0 R 0 95 R 79 0 R 80 0 R 0 -18 R 79 0 R
79 0 R 0 -125 R 79 0 R 80 0 R 0 -280 R 79 0 R D
0.000 0.000 0.000 setrgbcolor gsave 8734 3824 translate 0 0 M
(z=1.17) show grestore
%%PageTrailer
end
%%PageResources: font Helvetica
%%Trailer
%%Pages: 1
%%DocumentNeededResources: font Helvetica
%%EOF
