%!PS-Adobe-3.0 EPSF-3.0
%%BoundingBox: 0 0 283 226
%%Title: Graphics produced by IDL
%%For: jlgan@KASI, /home/jlgan/work/phoenix
%%Creator: IDL Version 7.0 (linux x86_64 m64)
%%CreationDate: Thu Jan 12 18:24:42 2012
%%DocumentData: Clean7bit
%%Requirements: color
%%LanguageLevel: 1
%%PageOrder: Ascend
%%Pages: (atend)
%%DocumentNeededResources: (atend)
%%EndComments
%%BeginProlog
%+ prolog.ps -- Prolog for IDL generated PostScript files
%+ Copyright (c) 1988-2007 ITT Visual Information Solutions. All Rights Reserved.
%v 5
/$IDL_DICT 40 dict def $IDL_DICT begin /bdef { bind def } bind def /C
{currentpoint newpath moveto} bdef /CP {currentpoint} bdef /D {currentpoint
stroke moveto} bdef /F {closepath fill} bdef /K { setgray } bdef /M {moveto}
bdef /N {rmoveto} bdef /P {lineto} bdef /R {rlineto} bdef /S {gsave show
grestore} bdef /X {currentpoint pop} bdef /Z {gsave currentpoint lineto 20
setlinewidth 1 setlinecap stroke grestore} bdef /L0 {[] 0 setdash} bdef /L1
{[40 100] 0 setdash} bdef /L2 {[200 200] 0 setdash} bdef /L3 {[200 100 50
100] 0 setdash} bdef /L4 {[300 100 50 100 50 100 50 100] 0 setdash} bdef /L5
{[400 200] 0 setdash} bdef /STDFONT { findfont exch scalefont setfont } bdef
/ISOFONT { findfont dup length dict begin { 1 index /FID ne {def} {pop pop}
ifelse } forall /Encoding ISOLatin1Encoding def currentdict end /idltmpfont
exch definefont exch scalefont setfont } bdef /ISOBULLET { gsave /Helvetica
findfont exch scalefont setfont (\267) show currentpoint grestore moveto}
bdef /MITERLIMIT { 2.5 setmiterlimit } bdef end
%%EndProlog
%%Page: 0 1
%%PageRequirements: color
%%PageResources: (atend)
%%PageOrientation: Portrait
%%PageBoundingBox: 0 0 283 226
%%BeginPageSetup
$IDL_DICT begin 0.0283465 dup scale MITERLIMIT
%%IncludeResource: font Helvetica
423.333 /Helvetica STDFONT
%%EndPageSetup
40 setlinewidth L0 0.000 0.000 0.000 setrgbcolor 2220 1408 M 7114 0 R D
2786 1408 M 0 236 R D gsave 2786 880 translate 0 0 M -117.687 0 N
(2) show grestore 3917 1408 M 0 236 R D gsave 3917 880 translate 0 0 M
-117.687 0 N
(4) show grestore 5048 1408 M 0 236 R D gsave 5048 880 translate 0 0 M
-117.687 0 N
(6) show grestore 6179 1408 M 0 236 R D gsave 6179 880 translate 0 0 M
-117.687 0 N
(8) show grestore 7310 1408 M 0 236 R D gsave 7310 880 translate 0 0 M
-235.373 0 N
(10) show grestore 8441 1408 M 0 236 R D gsave 8441 880 translate 0 0 M
-235.373 0 N
(12) show grestore 2220 1408 M 0 118 R D 2503 1408 M 0 118 R D 3068 1408 M
0 118 R D 3351 1408 M 0 118 R D 3634 1408 M 0 118 R D 4199 1408 M 0 118 R D
4482 1408 M 0 118 R D 4765 1408 M 0 118 R D 5330 1408 M 0 118 R D
5613 1408 M 0 118 R D 5896 1408 M 0 118 R D 6461 1408 M 0 118 R D
6744 1408 M 0 118 R D 7027 1408 M 0 118 R D 7592 1408 M 0 118 R D
7875 1408 M 0 118 R D 8158 1408 M 0 118 R D 8723 1408 M 0 118 R D
9006 1408 M 0 118 R D 9289 1408 M 0 118 R D 2220 7296 M 7114 0 R D
2786 7296 M 0 -235 R D 3917 7296 M 0 -235 R D 5048 7296 M 0 -235 R D
6179 7296 M 0 -235 R D 7310 7296 M 0 -235 R D 8441 7296 M 0 -235 R D
2220 7296 M 0 -118 R D 2503 7296 M 0 -118 R D 3068 7296 M 0 -118 R D
3351 7296 M 0 -118 R D 3634 7296 M 0 -118 R D 4199 7296 M 0 -118 R D
4482 7296 M 0 -118 R D 4765 7296 M 0 -118 R D 5330 7296 M 0 -118 R D
5613 7296 M 0 -118 R D 5896 7296 M 0 -118 R D 6461 7296 M 0 -118 R D
6744 7296 M 0 -118 R D 7027 7296 M 0 -118 R D 7592 7296 M 0 -118 R D
7875 7296 M 0 -118 R D 8158 7296 M 0 -118 R D 8723 7296 M 0 -118 R D
9006 7296 M 0 -118 R D 9289 7296 M 0 -118 R D 2220 1408 M 0 5888 R D
2220 1408 M 285 0 R D gsave 2109 1408 translate 0 0 M -823.807 0 N
(0.01) show grestore 2220 4292 M 285 0 R D gsave 2109 4152 translate 0 0 M
-823.807 0 N
(0.10) show grestore 2220 7177 M 285 0 R D gsave 2109 7036 translate 0 0 M
-823.807 0 N
(1.00) show grestore 2220 2276 M 142 0 R D 2220 2784 M 142 0 R D 2220 3145 M
142 0 R D 2220 3424 M 142 0 R D 2220 3652 M 142 0 R D 2220 3846 M 142 0 R D
2220 4013 M 142 0 R D 2220 4160 M 142 0 R D 2220 5161 M 142 0 R D
2220 5669 M 142 0 R D 2220 6029 M 142 0 R D 2220 6308 M 142 0 R D
2220 6537 M 142 0 R D 2220 6730 M 142 0 R D 2220 6897 M 142 0 R D
2220 7045 M 142 0 R D 9334 1408 M 0 5888 R D 9334 1408 M -285 0 R D
9334 4292 M -285 0 R D 9334 7177 M -285 0 R D 9334 2276 M -142 0 R D
9334 2784 M -142 0 R D 9334 3145 M -142 0 R D 9334 3424 M -142 0 R D
9334 3652 M -142 0 R D 9334 3846 M -142 0 R D 9334 4013 M -142 0 R D
9334 4160 M -142 0 R D 9334 5161 M -142 0 R D 9334 5669 M -142 0 R D
9334 6029 M -142 0 R D 9334 6308 M -142 0 R D 9334 6537 M -142 0 R D
9334 6730 M -142 0 R D 9334 6897 M -142 0 R D 9334 7045 M -142 0 R D
0.761 0.000 0.000 setrgbcolor 9333 7177 M -149 -9 R -155 -7 R -163 -20 R
-169 -18 R -176 -28 R -181 -20 R -187 -36 R -191 -34 R -197 -56 R -200 -68 R
-204 -43 R -207 -59 R -210 -93 R -211 -108 R -213 -188 R -213 -69 R
-212 -184 R -212 -35 R -210 -119 R -208 -96 R -205 -116 R -201 -147 R
-197 -83 R -192 -100 R -186 -154 R -181 -142 R -174 -144 R -168 -130 R
-160 -243 R -154 -605 R -146 -441 R -139 -355 R -131 -270 R -124 -288 R
-19 -1261 R D 0.000 0.549 0.000 setrgbcolor 9333 7177 M -149 11 R -155 -58 R
-163 -97 R -169 -102 R -176 -35 R -181 -156 R -187 -143 R -191 -62 R
-197 -111 R -200 -177 R -204 -155 R -207 -190 R -210 -69 R -211 -147 R
-213 -107 R -213 -84 R -212 -160 R -212 -160 R -210 -374 R -208 -497 R
-205 -244 R -201 -189 R -197 -56 R -192 -111 R -186 -95 R -181 -174 R
-174 -129 R -168 -172 R -160 -255 R -154 -134 R -146 -123 R -139 -94 R
-131 -73 R -124 -127 R -117 -197 R -110 -232 R -103 -432 R -15 -59 R D
0.000 0.000 1.000 setrgbcolor 9333 7177 M -149 -24 R -155 -30 R -163 -31 R
-169 -23 R -176 -36 R -181 -31 R -187 -33 R -191 -28 R -197 -41 R -200 -17 R
-204 -32 R -207 -34 R -210 -14 R -211 -25 R -213 -11 R -213 -15 R -212 -24 R
-212 -4 R -210 -26 R -208 -78 R -205 -103 R -201 -79 R -197 -224 R
-192 -320 R -186 -240 R -181 -284 R -174 -229 R -168 -254 R -160 -313 R
-154 -101 R -146 -141 R -139 -13 R -131 -100 R -124 -192 R -117 -274 R
-110 -239 R -103 -274 R -96 -269 R -90 -375 R -83 -482 R -77 -484 R
-35 -222 R D
%%PageTrailer
end
%%PageResources: font Helvetica
%%Trailer
%%Pages: 1
%%DocumentNeededResources: font Helvetica
%%EOF
