%!PS-Adobe-3.0 EPSF-3.0
%%BoundingBox: 0 0 510 453
%%Title: Graphics produced by IDL
%%For: jlgan@Hserver, /home/jlgan/work/phoenix
%%Creator: IDL Version 7.1.1 (linux x86_64 m64)
%%CreationDate: Fri Sep 26 17:45:41 2014
%%DocumentData: Clean7bit
%%Requirements: color
%%LanguageLevel: 1
%%PageOrder: Ascend
%%Pages: (atend)
%%DocumentNeededResources: (atend)
%%EndComments
%%BeginProlog
%+ prolog.ps -- Prolog for IDL generated PostScript files
%+ Copyright (c) 1988-2009 ITT Visual Information Solutions. All Rights Reserved.
%v 5
/$IDL_DICT 40 dict def $IDL_DICT begin /bdef { bind def } bind def /C
{currentpoint newpath moveto} bdef /CP {currentpoint} bdef /D {currentpoint
stroke moveto} bdef /F {closepath fill} bdef /K { setgray } bdef /M {moveto}
bdef /N {rmoveto} bdef /P {lineto} bdef /R {rlineto} bdef /S {gsave show
grestore} bdef /X {currentpoint pop} bdef /Z {gsave currentpoint lineto 20
setlinewidth 1 setlinecap stroke grestore} bdef /L0 {[] 0 setdash} bdef /L1
{[40 100] 0 setdash} bdef /L2 {[200 200] 0 setdash} bdef /L3 {[200 100 50
100] 0 setdash} bdef /L4 {[300 100 50 100 50 100 50 100] 0 setdash} bdef /L5
{[400 200] 0 setdash} bdef /STDFONT { findfont exch scalefont setfont } bdef
/ISOFONT { findfont dup length dict begin { 1 index /FID ne {def} {pop pop}
ifelse } forall /Encoding ISOLatin1Encoding def currentdict end /idltmpfont
exch definefont exch scalefont setfont } bdef /ISOBULLET { gsave /Helvetica
findfont exch scalefont setfont (\267) show currentpoint grestore moveto}
bdef /MITERLIMIT { 2.5 setmiterlimit } bdef end
%%EndProlog
%%Page: 0 1
%%PageRequirements: color
%%PageResources: (atend)
%%PageOrientation: Portrait
%%PageBoundingBox: 0 0 510 453
%%BeginPageSetup
$IDL_DICT begin 0.0283465 dup scale MITERLIMIT
%%IncludeResource: font Helvetica
423.333 /Helvetica STDFONT
%%EndPageSetup
0.000 0.000 0.000 setrgbcolor gsave 9777 352 translate 0 0 M -701.074 0 N
(R / R) show X -101.051 M
%%IncludeResource: font Helvetica
262.467 /Helvetica STDFONT
(200) show grestore
%%IncludeResource: font Helvetica
423.333 /Helvetica STDFONT gsave 888 8352 translate 0 0 M 90 rotate
-447.04 0 N
(B / T) show grestore 30 setlinewidth L0 2220 10667 M 5038 0 R D
3021 10667 M 0 139 R D gsave 3021 10139 translate 0 0 M -58.8433 0 N
( ) show grestore 4166 10667 M 0 139 R D gsave 4166 10139 translate 0 0 M
-58.8433 0 N
( ) show grestore 5312 10667 M 0 139 R D gsave 5312 10139 translate 0 0 M
-58.8433 0 N
( ) show grestore 6457 10667 M 0 139 R D gsave 6457 10139 translate 0 0 M
-58.8433 0 N
( ) show grestore 2220 10667 M 0 69 R D 2422 10667 M 0 69 R D 2565 10667 M
0 69 R D 2676 10667 M 0 69 R D 2767 10667 M 0 69 R D 2843 10667 M 0 69 R D
2910 10667 M 0 69 R D 2968 10667 M 0 69 R D 3366 10667 M 0 69 R D
3567 10667 M 0 69 R D 3710 10667 M 0 69 R D 3821 10667 M 0 69 R D
3912 10667 M 0 69 R D 3989 10667 M 0 69 R D 4055 10667 M 0 69 R D
4114 10667 M 0 69 R D 4511 10667 M 0 69 R D 4713 10667 M 0 69 R D
4856 10667 M 0 69 R D 4967 10667 M 0 69 R D 5058 10667 M 0 69 R D
5134 10667 M 0 69 R D 5201 10667 M 0 69 R D 5259 10667 M 0 69 R D
5657 10667 M 0 69 R D 5858 10667 M 0 69 R D 6002 10667 M 0 69 R D
6113 10667 M 0 69 R D 6203 10667 M 0 69 R D 6280 10667 M 0 69 R D
6346 10667 M 0 69 R D 6405 10667 M 0 69 R D 6802 10667 M 0 69 R D
7004 10667 M 0 69 R D 7147 10667 M 0 69 R D 7258 10667 M 0 69 R D
2220 15296 M 5038 0 R D 3021 15296 M 0 -139 R D 4166 15296 M 0 -139 R D
5312 15296 M 0 -139 R D 6457 15296 M 0 -139 R D 2220 15296 M 0 -69 R D
2422 15296 M 0 -69 R D 2565 15296 M 0 -69 R D 2676 15296 M 0 -69 R D
2767 15296 M 0 -69 R D 2843 15296 M 0 -69 R D 2910 15296 M 0 -69 R D
2968 15296 M 0 -69 R D 3366 15296 M 0 -69 R D 3567 15296 M 0 -69 R D
3710 15296 M 0 -69 R D 3821 15296 M 0 -69 R D 3912 15296 M 0 -69 R D
3989 15296 M 0 -69 R D 4055 15296 M 0 -69 R D 4114 15296 M 0 -69 R D
4511 15296 M 0 -69 R D 4713 15296 M 0 -69 R D 4856 15296 M 0 -69 R D
4967 15296 M 0 -69 R D 5058 15296 M 0 -69 R D 5134 15296 M 0 -69 R D
5201 15296 M 0 -69 R D 5259 15296 M 0 -69 R D 5657 15296 M 0 -69 R D
5858 15296 M 0 -69 R D 6002 15296 M 0 -69 R D 6113 15296 M 0 -69 R D
6203 15296 M 0 -69 R D 6280 15296 M 0 -69 R D 6346 15296 M 0 -69 R D
6405 15296 M 0 -69 R D 6802 15296 M 0 -69 R D 7004 15296 M 0 -69 R D
7147 15296 M 0 -69 R D 7258 15296 M 0 -69 R D 2220 10667 M 0 4629 R D
2220 11564 M 151 0 R D gsave 2109 11423 translate 0 0 M -588.433 0 N
(0.2) show grestore 2220 12509 M 151 0 R D gsave 2109 12368 translate 0 0 M
-588.433 0 N
(0.4) show grestore 2220 13454 M 151 0 R D gsave 2109 13313 translate 0 0 M
-588.433 0 N
(0.6) show grestore 2220 14399 M 151 0 R D gsave 2109 14258 translate 0 0 M
-588.433 0 N
(0.8) show grestore 2220 10856 M 76 0 R D 2220 11092 M 76 0 R D 2220 11328 M
76 0 R D 2220 11800 M 76 0 R D 2220 12037 M 76 0 R D 2220 12273 M 76 0 R D
2220 12745 M 76 0 R D 2220 12981 M 76 0 R D 2220 13218 M 76 0 R D
2220 13690 M 76 0 R D 2220 13926 M 76 0 R D 2220 14162 M 76 0 R D
2220 14635 M 76 0 R D 2220 14871 M 76 0 R D 2220 15107 M 76 0 R D
7258 10667 M 0 4629 R D 7258 11564 M -151 0 R D 7258 12509 M -151 0 R D
7258 13454 M -151 0 R D 7258 14399 M -151 0 R D 7258 10856 M -75 0 R D
7258 11092 M -75 0 R D 7258 11328 M -75 0 R D 7258 11800 M -75 0 R D
7258 12037 M -75 0 R D 7258 12273 M -75 0 R D 7258 12745 M -75 0 R D
7258 12981 M -75 0 R D 7258 13218 M -75 0 R D 7258 13690 M -75 0 R D
7258 13926 M -75 0 R D 7258 14162 M -75 0 R D 7258 14635 M -75 0 R D
7258 14871 M -75 0 R D 7258 15107 M -75 0 R D 4518 12534 M Z 4467 12821 M Z
4465 13611 M Z 4540 11556 M Z 4715 14226 M Z 4605 11919 M Z 4541 11892 M Z
4698 11599 M Z 4517 14967 M Z 4376 14638 M Z 4375 10816 M Z 4395 12853 M Z
4607 12336 M Z 4488 13417 M Z 4520 12053 M Z 4308 12782 M Z 4454 12684 M Z
4448 12863 M Z 4444 12917 M Z 4424 11187 M Z 4504 14540 M Z 4342 14267 M Z
4319 15100 M Z 4303 14743 M Z 4594 11454 M Z 4363 15260 M Z 4604 11444 M Z
4669 11648 M Z 4609 13624 M Z 4498 15237 M Z 4740 11683 M Z 4694 10911 M Z
4762 10919 M Z 4664 10788 M Z 4841 15106 M Z 4799 13224 M Z 4768 11126 M Z
4798 11918 M Z 4778 12648 M Z 4756 12886 M Z 4819 15253 M Z 4218 11173 M Z
4540 12249 M Z 4324 13392 M Z 4470 14340 M Z 4416 11905 M Z 4495 13075 M Z
4609 11617 M Z 4458 11775 M Z 4398 11964 M Z 4457 11022 M Z 4546 13283 M Z
4281 11539 M Z 4216 11215 M Z 4060 11801 M Z 4101 15000 M Z 4498 12619 M Z
4530 12551 M Z 4671 12268 M Z 4489 13891 M Z 4479 12576 M Z 4680 14495 M Z
4727 11539 M Z 4510 11199 M Z 4468 11438 M Z 4590 12199 M Z 4318 11371 M Z
4443 10760 M Z 4414 11668 M Z 4387 10905 M Z 4348 12085 M Z 4384 10966 M Z
4403 12360 M Z 4403 13469 M Z 4539 13078 M Z 4419 13292 M Z 4471 14195 M Z
4426 13239 M Z 4464 11035 M Z 4439 13892 M Z 4512 12334 M Z 4466 13772 M Z
4426 11525 M Z 4617 11205 M Z 4606 11437 M Z 4592 11400 M Z 4742 14526 M Z
4330 14335 M Z 4302 10900 M Z 4317 11470 M Z 4538 15031 M Z 4572 10941 M Z
4642 13444 M Z 4748 13233 M Z 4250 12201 M Z 4535 11297 M Z 3992 12372 M Z
4170 11275 M Z 4326 15119 M Z 4531 11273 M Z 4371 11910 M Z 4180 11407 M Z
4005 13606 M Z 4236 15233 M Z 4169 11187 M Z 4028 12361 M Z 4457 14805 M Z
4242 15273 M Z 4254 10967 M Z 4280 10861 M Z 4361 12238 M Z 4313 12828 M Z
4237 10741 M Z 4612 12024 M Z 4530 13174 M Z 4487 11701 M Z 4585 14803 M Z
4439 11110 M Z 4591 12172 M Z 4651 11381 M Z 4509 12244 M Z 4619 14847 M Z
4553 11014 M Z 4228 11444 M Z 4343 15267 M Z 4512 12541 M Z 4288 10818 M Z
4607 12484 M Z 4306 13692 M Z 4442 12246 M Z 4577 11103 M Z 4288 12599 M Z
4009 12968 M Z 4243 12003 M Z 4432 10714 M Z 4486 11538 M Z 4532 13188 M Z
4250 15001 M Z 4337 11482 M Z 4291 10720 M Z 4254 12002 M Z 4197 13331 M Z
4226 13687 M Z 4035 12170 M Z 4309 13796 M Z 4413 12771 M Z 4356 15294 M Z
4446 10996 M Z 4440 11348 M Z 4363 12331 M Z 4490 15290 M Z 4440 13308 M Z
4314 12104 M Z 4432 12743 M Z 4488 12172 M Z 4370 14804 M Z 4369 10891 M Z
4561 14006 M Z 4370 10761 M Z 4501 15278 M Z 4677 11832 M Z 4531 11620 M Z
4417 11214 M Z 4479 11935 M Z 4598 12473 M Z 4409 10942 M Z 4483 11127 M Z
4528 11049 M Z 4525 15054 M Z 4421 14683 M Z 4577 13751 M Z 4500 11666 M Z
4397 12047 M Z 4414 12135 M Z 4459 12514 M Z 4390 12748 M Z 4513 13605 M Z
4527 11948 M Z 4458 13111 M Z 4524 12778 M Z 4482 13111 M Z 4428 15035 M Z
4530 11684 M Z 4571 11571 M Z 4495 12994 M Z 4537 10892 M Z 4456 12220 M Z
4464 11011 M Z 4410 10758 M Z 4399 14587 M Z 4240 13124 M Z 4405 14047 M Z
4465 10870 M Z 4697 11227 M Z 4539 11458 M Z 4523 12710 M Z 4676 15150 M Z
4659 11009 M Z 4726 11716 M Z 4669 11800 M Z 4723 12795 M Z 4734 11103 M Z
4636 11051 M Z 4761 11296 M Z 4743 12286 M Z 4636 12663 M Z 4571 12302 M Z
4476 12251 M Z 4511 14551 M Z 4523 11335 M Z 4605 10953 M Z 4541 14413 M Z
4477 11267 M Z 4365 10854 M Z 4425 13575 M Z 4532 15057 M Z 4478 11530 M Z
4538 13691 M Z 4521 13229 M Z 4372 11582 M Z 4599 12346 M Z 4392 12644 M Z
4379 15213 M Z 4517 13139 M Z 4496 13516 M Z 4061 12069 M Z 4434 14563 M Z
4327 15241 M Z 4548 13758 M Z 4421 13755 M Z 4474 10669 M Z 4413 10968 M Z
4318 14225 M Z 4431 10735 M Z 4461 11911 M Z 4533 14780 M Z 4536 11312 M Z
4437 12483 M Z 4320 11914 M Z 4447 12114 M Z 4464 11037 M Z 4719 10985 M Z
4642 10918 M Z 4636 12188 M Z 4782 11060 M Z 4676 12609 M Z 4622 11386 M Z
4329 14425 M Z 4312 11890 M Z 4754 12330 M Z 4679 12345 M Z 4772 14543 M Z
4813 13161 M Z 4881 12449 M Z 4334 11844 M Z 4583 12248 M Z 4499 15120 M Z
4649 11988 M Z 4368 14953 M Z 4811 11485 M Z 4607 11159 M Z 4463 14612 M Z
4606 14488 M Z 4445 15295 M Z 4594 10841 M Z 4696 11357 M Z 4179 12825 M Z
4267 14498 M Z 4299 11807 M Z 4424 13574 M Z 4395 15212 M Z 4429 11900 M Z
4456 11412 M Z 4549 13076 M Z 4537 12364 M Z 4412 11804 M Z 4332 13682 M Z
4496 12031 M Z 4478 12548 M Z 4587 14531 M Z 4618 15070 M Z 4384 14568 M Z
4285 12098 M Z 4465 12243 M Z 4619 13734 M Z 4432 12254 M Z 4469 11718 M Z
4474 11090 M Z 4522 11775 M Z 4405 11014 M Z 4579 15146 M Z 4583 13968 M Z
4467 12586 M Z 4570 13236 M Z 4365 15195 M Z 4528 15041 M Z 4268 14564 M Z
4529 14665 M Z 4363 12989 M Z 4438 14053 M Z 4473 13896 M Z 4725 12441 M Z
4747 11270 M Z 4748 12539 M Z 4706 12190 M Z 4328 13234 M Z 4211 13167 M Z
4266 11354 M Z 4441 11707 M Z 4349 12355 M Z 4388 12101 M Z 4279 13515 M Z
4511 11720 M Z 4323 11562 M Z 4212 14916 M Z 4429 13522 M Z 4348 11721 M Z
4588 12270 M Z 4589 10701 M Z 4623 11173 M Z 4568 12811 M Z 4495 11274 M Z
4646 12393 M Z 4483 10672 M Z 4424 12656 M Z 4538 11031 M Z 4383 11888 M Z
4510 14978 M Z 4532 15243 M Z 4397 12227 M Z 4165 13404 M Z 4547 12430 M Z
4392 11345 M Z 4488 12921 M Z 4627 13968 M Z 4424 14075 M Z 4659 11380 M Z
4545 15149 M Z 4577 13341 M Z 4557 11910 M Z 4437 13880 M Z 4387 11226 M Z
4636 14135 M Z 4642 12274 M Z 4453 12159 M Z 4566 11388 M Z 4470 12129 M Z
4510 12784 M Z 4505 13439 M Z 4422 12248 M Z 4520 11931 M Z 4566 12847 M Z
4514 15214 M Z 4507 12336 M Z 4437 15012 M Z 4490 11252 M Z 4460 12495 M Z
4468 11560 M Z 4440 15253 M Z 4385 11826 M Z 4418 12347 M Z 4422 11140 M Z
4380 13971 M Z 4451 11770 M Z 4365 11540 M Z 4298 11128 M Z 4419 15033 M Z
4306 12561 M Z 4582 10682 M Z 4311 14513 M Z 4332 11331 M Z 4640 11142 M Z
4401 12126 M Z 4611 13620 M Z 4387 12358 M Z 4623 11459 M Z 4473 11019 M Z
4590 10686 M Z 4665 13585 M Z 4634 11025 M Z 4702 13148 M Z 4712 10685 M Z
4644 12009 M Z 4655 14224 M Z 4594 12190 M Z 4528 12142 M Z 4486 12570 M Z
4456 14449 M Z 4578 14666 M Z 7258 10667 M 5038 0 R D 8059 10667 M 0 139 R D
gsave 8059 10139 translate 0 0 M -58.8433 0 N
( ) show grestore 9204 10667 M 0 139 R D gsave 9204 10139 translate 0 0 M
-58.8433 0 N
( ) show grestore 10350 10667 M 0 139 R D gsave 10350 10139 translate 0 0 M
-58.8433 0 N
( ) show grestore 11495 10667 M 0 139 R D gsave 11495 10139 translate 0 0 M
-58.8433 0 N
( ) show grestore 7258 10667 M 0 69 R D 7460 10667 M 0 69 R D 7603 10667 M
0 69 R D 7714 10667 M 0 69 R D 7805 10667 M 0 69 R D 7881 10667 M 0 69 R D
7948 10667 M 0 69 R D 8006 10667 M 0 69 R D 8404 10667 M 0 69 R D
8605 10667 M 0 69 R D 8748 10667 M 0 69 R D 8859 10667 M 0 69 R D
8950 10667 M 0 69 R D 9027 10667 M 0 69 R D 9093 10667 M 0 69 R D
9152 10667 M 0 69 R D 9549 10667 M 0 69 R D 9751 10667 M 0 69 R D
9894 10667 M 0 69 R D 10005 10667 M 0 69 R D 10096 10667 M 0 69 R D
10172 10667 M 0 69 R D 10239 10667 M 0 69 R D 10297 10667 M 0 69 R D
10695 10667 M 0 69 R D 10896 10667 M 0 69 R D 11040 10667 M 0 69 R D
11151 10667 M 0 69 R D 11241 10667 M 0 69 R D 11318 10667 M 0 69 R D
11384 10667 M 0 69 R D 11443 10667 M 0 69 R D 11840 10667 M 0 69 R D
12042 10667 M 0 69 R D 12185 10667 M 0 69 R D 12296 10667 M 0 69 R D
7258 15296 M 5038 0 R D 8059 15296 M 0 -139 R D 9204 15296 M 0 -139 R D
10350 15296 M 0 -139 R D 11495 15296 M 0 -139 R D 7258 15296 M 0 -69 R D
7460 15296 M 0 -69 R D 7603 15296 M 0 -69 R D 7714 15296 M 0 -69 R D
7805 15296 M 0 -69 R D 7881 15296 M 0 -69 R D 7948 15296 M 0 -69 R D
8006 15296 M 0 -69 R D 8404 15296 M 0 -69 R D 8605 15296 M 0 -69 R D
8748 15296 M 0 -69 R D 8859 15296 M 0 -69 R D 8950 15296 M 0 -69 R D
9027 15296 M 0 -69 R D 9093 15296 M 0 -69 R D 9152 15296 M 0 -69 R D
9549 15296 M 0 -69 R D 9751 15296 M 0 -69 R D 9894 15296 M 0 -69 R D
10005 15296 M 0 -69 R D 10096 15296 M 0 -69 R D 10172 15296 M 0 -69 R D
10239 15296 M 0 -69 R D 10297 15296 M 0 -69 R D 10695 15296 M 0 -69 R D
10896 15296 M 0 -69 R D 11040 15296 M 0 -69 R D 11151 15296 M 0 -69 R D
11241 15296 M 0 -69 R D 11318 15296 M 0 -69 R D 11384 15296 M 0 -69 R D
11443 15296 M 0 -69 R D 11840 15296 M 0 -69 R D 12042 15296 M 0 -69 R D
12185 15296 M 0 -69 R D 12296 15296 M 0 -69 R D 7258 10667 M 0 4629 R D
7258 11564 M 151 0 R D gsave 7147 11423 translate 0 0 M -117.687 0 N
( ) show grestore 7258 12509 M 151 0 R D gsave 7147 12368 translate 0 0 M
-117.687 0 N
( ) show grestore 7258 13454 M 151 0 R D gsave 7147 13313 translate 0 0 M
-117.687 0 N
( ) show grestore 7258 14399 M 151 0 R D gsave 7147 14258 translate 0 0 M
-117.687 0 N
( ) show grestore 7258 10856 M 76 0 R D 7258 11092 M 76 0 R D 7258 11328 M
76 0 R D 7258 11800 M 76 0 R D 7258 12037 M 76 0 R D 7258 12273 M 76 0 R D
7258 12745 M 76 0 R D 7258 12981 M 76 0 R D 7258 13218 M 76 0 R D
7258 13690 M 76 0 R D 7258 13926 M 76 0 R D 7258 14162 M 76 0 R D
7258 14635 M 76 0 R D 7258 14871 M 76 0 R D 7258 15107 M 76 0 R D
12296 10667 M 0 4629 R D 12296 11564 M -151 0 R D 12296 12509 M -151 0 R D
12296 13454 M -151 0 R D 12296 14399 M -151 0 R D 12296 10856 M -75 0 R D
12296 11092 M -75 0 R D 12296 11328 M -75 0 R D 12296 11800 M -75 0 R D
12296 12037 M -75 0 R D 12296 12273 M -75 0 R D 12296 12745 M -75 0 R D
12296 12981 M -75 0 R D 12296 13218 M -75 0 R D 12296 13690 M -75 0 R D
12296 13926 M -75 0 R D 12296 14162 M -75 0 R D 12296 14635 M -75 0 R D
12296 14871 M -75 0 R D 12296 15107 M -75 0 R D 9814 12540 M Z 9809 13003 M
Z 9617 12008 M Z 9464 13369 M Z 9542 10735 M Z 9512 11549 M Z 9566 11901 M Z
9639 12936 M Z 9820 11047 M Z 9546 13217 M Z 9777 10860 M Z 9830 10765 M Z
9624 13283 M Z 9758 13923 M Z 9700 14481 M Z 9723 13743 M Z 9807 12633 M Z
9530 14991 M Z 9562 11633 M Z 9598 13330 M Z 9715 12526 M Z 9568 11527 M Z
9705 11229 M Z 9705 14255 M Z 9688 11988 M Z 9485 11617 M Z 9473 10735 M Z
9543 13560 M Z 9534 14506 M Z 9568 10976 M Z 9810 10867 M Z 9534 12114 M Z
9455 14795 M Z 9482 13947 M Z 9413 13173 M Z 9722 15119 M Z 9490 11200 M Z
9520 11686 M Z 9564 15265 M Z 9628 15117 M Z 9175 12185 M Z 9288 13085 M Z
9383 14405 M Z 9391 15094 M Z 9646 11615 M Z 9617 10991 M Z 9622 12376 M Z
9640 13172 M Z 9725 10985 M Z 9745 11629 M Z 9726 10837 M Z 9246 10732 M Z
9450 15278 M Z 9500 14337 M Z 9539 11078 M Z 9457 14171 M Z 9413 10895 M Z
9261 10762 M Z 9392 14722 M Z 9292 13490 M Z 9315 13021 M Z 9377 14008 M Z
9638 14210 M Z 9578 13096 M Z 9678 12850 M Z 9397 13256 M Z 9664 11743 M Z
9337 11176 M Z 9349 15251 M Z 9553 13750 M Z 9514 14411 M Z 9598 13548 M Z
9398 12420 M Z 9477 11257 M Z 9460 11587 M Z 9341 12744 M Z 9466 12989 M Z
9488 11399 M Z 9238 10729 M Z 9436 11815 M Z 9411 12665 M Z 9554 13277 M Z
9566 13582 M Z 9514 11145 M Z 9712 11731 M Z 9547 14500 M Z 10210 12883 M Z
9139 13325 M Z 9299 12295 M Z 9218 14869 M Z 9364 11389 M Z 9150 12980 M Z
9343 13113 M Z 9384 11408 M Z 9221 14585 M Z 9382 11454 M Z 9088 13899 M Z
9387 12553 M Z 9314 11240 M Z 9435 11876 M Z 9515 14713 M Z 9347 11144 M Z
9339 12783 M Z 9169 12171 M Z 9224 15133 M Z 9188 13472 M Z 9198 12438 M Z
9204 11015 M Z 9186 14397 M Z 9326 13370 M Z 9408 10962 M Z 9348 11533 M Z
9262 12838 M Z 9471 13547 M Z 9713 15150 M Z 9757 12792 M Z 9548 12275 M Z
9622 13797 M Z 9763 15287 M Z 9781 12620 M Z 9793 12164 M Z 9633 13390 M Z
9662 11629 M Z 9391 15260 M Z 9708 12032 M Z 9577 11753 M Z 9530 10916 M Z
9648 11897 M Z 9342 13249 M Z 9565 11061 M Z 9562 13484 M Z 9441 15018 M Z
9484 11297 M Z 9579 12557 M Z 9466 12660 M Z 9577 12220 M Z 9557 11114 M Z
9854 15088 M Z 9510 14111 M Z 9634 15153 M Z 9525 11755 M Z 9671 14757 M Z
9654 14926 M Z 9545 11076 M Z 9460 10740 M Z 9543 13360 M Z 9474 15267 M Z
9613 12874 M Z 9459 11709 M Z 9577 12820 M Z 9583 11951 M Z 9591 11472 M Z
9466 11722 M Z 9528 15295 M Z 9449 11573 M Z 9607 13026 M Z 9685 14978 M Z
9702 11348 M Z 9835 11870 M Z 9851 13238 M Z 9966 14433 M Z 10011 14475 M Z
10033 11851 M Z 9987 14919 M Z 10079 10676 M Z 10176 14028 M Z 10115 13521 M
Z 10135 12816 M Z 10091 15282 M Z 10133 11388 M Z 10139 13725 M Z
10135 12646 M Z 10080 14022 M Z 10066 12797 M Z 10180 12898 M Z
10154 11726 M Z 9994 11873 M Z 9990 14635 M Z 9957 13291 M Z 10006 13249 M Z
9925 11280 M Z 9895 11416 M Z 9924 10686 M Z 9985 13974 M Z 9912 13191 M Z
9883 12991 M Z 9911 13720 M Z 9956 11822 M Z 9833 11435 M Z 9802 15120 M Z
9745 12025 M Z 9770 11659 M Z 9759 11825 M Z 9739 13983 M Z 9755 10680 M Z
9860 11024 M Z 9944 11232 M Z 9841 10914 M Z 9814 11370 M Z 10055 11426 M Z
10065 10834 M Z 10054 11711 M Z 10051 13724 M Z 10029 15221 M Z
10040 11217 M Z 10081 11310 M Z 9649 12127 M Z 9755 14098 M Z 9377 11789 M Z
9329 11337 M Z 9534 12420 M Z 9623 14376 M Z 9648 13230 M Z 9518 11333 M Z
9474 14458 M Z 9490 13398 M Z 9534 12300 M Z 9562 12702 M Z 9586 14459 M Z
9464 11175 M Z 9407 15019 M Z 9437 11137 M Z 9934 11460 M Z 9770 11000 M Z
9643 12477 M Z 9753 11217 M Z 9893 11560 M Z 9694 12345 M Z 9955 10747 M Z
9925 15120 M Z 9976 14594 M Z 10073 15140 M Z 10052 12646 M Z 10048 13133 M
Z 10156 14470 M Z 10038 10986 M Z 10099 11257 M Z 10045 13928 M Z
10135 11356 M Z 10030 11912 M Z 10017 10846 M Z 9998 12843 M Z 10026 13611 M
Z 9970 14982 M Z 9972 11701 M Z 10002 11281 M Z 9989 12138 M Z 9997 11148 M
Z 9931 11133 M Z 9975 13327 M Z 10089 10906 M Z 9954 12967 M Z 10123 12406 M
Z 10128 13575 M Z 9954 12580 M Z 9969 12362 M Z 9810 11344 M Z 9961 13775 M
Z 9847 13188 M Z 9958 13561 M Z 9949 11699 M Z 9943 11325 M Z 10054 12945 M
Z 9973 10908 M Z 10025 14992 M Z 9931 12388 M Z 9932 12926 M Z 9939 15167 M
Z 10086 12021 M Z 10104 11316 M Z 10099 15288 M Z 10097 14677 M Z
10039 13484 M Z 10031 11148 M Z 10029 13882 M Z 10082 13541 M Z
10090 12914 M Z 10061 14116 M Z 10056 13216 M Z 10070 15213 M Z
10000 11533 M Z 10152 11405 M Z 10139 11999 M Z 10038 11524 M Z
10211 14519 M Z 10210 13361 M Z 10221 12114 M Z 10185 11650 M Z
10201 10923 M Z 9966 12108 M Z 10025 11926 M Z 10018 12449 M Z 10096 10702 M
Z 10116 11595 M Z 10118 15229 M Z 10137 13739 M Z 10082 10888 M Z
10136 13460 M Z 9942 13436 M Z 9956 13518 M Z 9905 14518 M Z 9844 13676 M Z
9839 12607 M Z 10097 11798 M Z 10087 12956 M Z 9981 11369 M Z 9922 11634 M Z
9920 11412 M Z 9938 12153 M Z 9943 12978 M Z 9897 14423 M Z 10119 12335 M Z
9992 11383 M Z 9953 14767 M Z 9925 13544 M Z 10068 12878 M Z 10120 11120 M Z
10127 13920 M Z 10070 13720 M Z 10108 12822 M Z 10130 12073 M Z
10076 12498 M Z 9936 11814 M Z 10064 13114 M Z 10145 12775 M Z 10030 12009 M
Z 10025 10787 M Z 10009 11087 M Z 9976 13680 M Z 9970 11911 M Z
10021 11493 M Z 10128 14016 M Z 9889 10674 M Z 9889 10810 M Z 10090 11386 M
Z 10123 11420 M Z 10130 10721 M Z 9812 13758 M Z 9860 12111 M Z 9591 12401 M
Z 9572 14019 M Z 9614 10699 M Z 9349 11397 M Z 9310 15200 M Z 9741 11663 M Z
9271 14912 M Z 9409 14195 M Z 9631 12756 M Z 9442 11155 M Z 9329 11612 M Z
9313 13117 M Z 9502 13009 M Z 9359 13441 M Z 9545 11426 M Z 9566 12059 M Z
9560 14188 M Z 9661 11205 M Z 9391 15171 M Z 9200 11473 M Z 9707 14204 M Z
9479 14373 M Z 9519 14083 M Z 9296 12273 M Z 9559 14022 M Z 9432 11989 M Z
9259 10815 M Z 9583 12653 M Z 9585 10725 M Z 9870 11570 M Z 9844 13437 M Z
9897 14417 M Z 9886 11493 M Z 9865 12689 M Z 9841 13179 M Z 9970 11889 M Z
9929 12870 M Z 9941 12674 M Z 9942 14131 M Z 9861 13415 M Z 9956 11068 M Z
10052 14127 M Z 9872 14105 M Z 9959 12436 M Z 9946 11157 M Z 9936 11922 M Z
9926 12558 M Z 9957 13004 M Z 9839 11303 M Z 9953 11358 M Z 10015 11295 M Z
10032 12619 M Z 9995 12852 M Z 9974 15232 M Z 9965 13006 M Z 9975 12924 M Z
9896 14320 M Z 9949 12421 M Z 9851 14032 M Z 9955 13748 M Z 9964 13913 M Z
9967 12658 M Z 9912 10857 M Z 9995 12863 M Z 9987 15048 M Z 9993 14435 M Z
10027 11146 M Z 10038 11235 M Z 10070 11462 M Z 9991 11764 M Z 9938 12034 M
Z 9491 12418 M Z 9540 11810 M Z 9456 14448 M Z 9462 13501 M Z 9632 12969 M Z
9380 10791 M Z 9519 14294 M Z 9248 13855 M Z 9335 10845 M Z 9305 12235 M Z
9407 13829 M Z 9402 11515 M Z 9402 11908 M Z 9414 14112 M Z 9540 11277 M Z
9567 11675 M Z 9327 11558 M Z 9247 11811 M Z 9448 11347 M Z 9398 12115 M Z
9368 11661 M Z 9345 13412 M Z 9449 12753 M Z 9420 12402 M Z 9549 15263 M Z
9567 13118 M Z 12296 10667 M 5038 0 R D 13097 10667 M 0 139 R D
gsave 13097 10139 translate 0 0 M -58.8433 0 N
( ) show grestore 14242 10667 M 0 139 R D gsave 14242 10139 translate 0 0 M
-58.8433 0 N
( ) show grestore 15388 10667 M 0 139 R D gsave 15388 10139 translate 0 0 M
-58.8433 0 N
( ) show grestore 16533 10667 M 0 139 R D gsave 16533 10139 translate 0 0 M
-58.8433 0 N
( ) show grestore 12296 10667 M 0 69 R D 12498 10667 M 0 69 R D
12641 10667 M 0 69 R D 12752 10667 M 0 69 R D 12843 10667 M 0 69 R D
12919 10667 M 0 69 R D 12986 10667 M 0 69 R D 13044 10667 M 0 69 R D
13442 10667 M 0 69 R D 13643 10667 M 0 69 R D 13786 10667 M 0 69 R D
13897 10667 M 0 69 R D 13988 10667 M 0 69 R D 14065 10667 M 0 69 R D
14131 10667 M 0 69 R D 14190 10667 M 0 69 R D 14587 10667 M 0 69 R D
14789 10667 M 0 69 R D 14932 10667 M 0 69 R D 15043 10667 M 0 69 R D
15134 10667 M 0 69 R D 15210 10667 M 0 69 R D 15277 10667 M 0 69 R D
15335 10667 M 0 69 R D 15733 10667 M 0 69 R D 15934 10667 M 0 69 R D
16078 10667 M 0 69 R D 16189 10667 M 0 69 R D 16279 10667 M 0 69 R D
16356 10667 M 0 69 R D 16422 10667 M 0 69 R D 16481 10667 M 0 69 R D
16878 10667 M 0 69 R D 17080 10667 M 0 69 R D 17223 10667 M 0 69 R D
17334 10667 M 0 69 R D 12296 15296 M 5038 0 R D 13097 15296 M 0 -139 R D
14242 15296 M 0 -139 R D 15388 15296 M 0 -139 R D 16533 15296 M 0 -139 R D
12296 15296 M 0 -69 R D 12498 15296 M 0 -69 R D 12641 15296 M 0 -69 R D
12752 15296 M 0 -69 R D 12843 15296 M 0 -69 R D 12919 15296 M 0 -69 R D
12986 15296 M 0 -69 R D 13044 15296 M 0 -69 R D 13442 15296 M 0 -69 R D
13643 15296 M 0 -69 R D 13786 15296 M 0 -69 R D 13897 15296 M 0 -69 R D
13988 15296 M 0 -69 R D 14065 15296 M 0 -69 R D 14131 15296 M 0 -69 R D
14190 15296 M 0 -69 R D 14587 15296 M 0 -69 R D 14789 15296 M 0 -69 R D
14932 15296 M 0 -69 R D 15043 15296 M 0 -69 R D 15134 15296 M 0 -69 R D
15210 15296 M 0 -69 R D 15277 15296 M 0 -69 R D 15335 15296 M 0 -69 R D
15733 15296 M 0 -69 R D 15934 15296 M 0 -69 R D 16078 15296 M 0 -69 R D
16189 15296 M 0 -69 R D 16279 15296 M 0 -69 R D 16356 15296 M 0 -69 R D
16422 15296 M 0 -69 R D 16481 15296 M 0 -69 R D 16878 15296 M 0 -69 R D
17080 15296 M 0 -69 R D 17223 15296 M 0 -69 R D 17334 15296 M 0 -69 R D
12296 10667 M 0 4629 R D 12296 11564 M 151 0 R D
gsave 12185 11423 translate 0 0 M -117.687 0 N
( ) show grestore 12296 12509 M 151 0 R D gsave 12185 12368 translate 0 0 M
-117.687 0 N
( ) show grestore 12296 13454 M 151 0 R D gsave 12185 13313 translate 0 0 M
-117.687 0 N
( ) show grestore 12296 14399 M 151 0 R D gsave 12185 14258 translate 0 0 M
-117.687 0 N
( ) show grestore 12296 10856 M 76 0 R D 12296 11092 M 76 0 R D
12296 11328 M 76 0 R D 12296 11800 M 76 0 R D 12296 12037 M 76 0 R D
12296 12273 M 76 0 R D 12296 12745 M 76 0 R D 12296 12981 M 76 0 R D
12296 13218 M 76 0 R D 12296 13690 M 76 0 R D 12296 13926 M 76 0 R D
12296 14162 M 76 0 R D 12296 14635 M 76 0 R D 12296 14871 M 76 0 R D
12296 15107 M 76 0 R D 17334 10667 M 0 4629 R D 17334 11564 M -151 0 R D
17334 12509 M -151 0 R D 17334 13454 M -151 0 R D 17334 14399 M -151 0 R D
17334 10856 M -75 0 R D 17334 11092 M -75 0 R D 17334 11328 M -75 0 R D
17334 11800 M -75 0 R D 17334 12037 M -75 0 R D 17334 12273 M -75 0 R D
17334 12745 M -75 0 R D 17334 12981 M -75 0 R D 17334 13218 M -75 0 R D
17334 13690 M -75 0 R D 17334 13926 M -75 0 R D 17334 14162 M -75 0 R D
17334 14635 M -75 0 R D 17334 14871 M -75 0 R D 17334 15107 M -75 0 R D
14317 13192 M Z 14501 11805 M Z 14498 13632 M Z 14575 13977 M Z
14567 13567 M Z 14494 11792 M Z 14489 12289 M Z 14669 10992 M Z
14565 13755 M Z 14617 11525 M Z 14580 11856 M Z 14520 11302 M Z
14581 12861 M Z 14677 15223 M Z 14564 11951 M Z 14832 11763 M Z
14914 11153 M Z 14951 13218 M Z 14920 14572 M Z 14837 13729 M Z
14925 15295 M Z 14645 13329 M Z 14571 13412 M Z 14573 11399 M Z
14496 13047 M Z 14303 12766 M Z 14512 11772 M Z 14648 12503 M Z
14416 12113 M Z 14719 11451 M Z 14665 13696 M Z 14742 11016 M Z
14483 12294 M Z 14520 11484 M Z 14578 11796 M Z 14555 12031 M Z
14545 13006 M Z 14706 12294 M Z 14542 12113 M Z 14511 11718 M Z
14282 14823 M Z 14423 11332 M Z 14419 13034 M Z 14431 12008 M Z
14462 12495 M Z 14617 15296 M Z 14494 13272 M Z 14581 11682 M Z
14486 12162 M Z 14386 13686 M Z 14534 14047 M Z 14645 11019 M Z
14680 10799 M Z 14507 13441 M Z 14614 14124 M Z 14529 12385 M Z
14534 13068 M Z 14593 12664 M Z 14618 11000 M Z 14661 11744 M Z
14416 10866 M Z 14542 12627 M Z 14442 15274 M Z 14563 15068 M Z
14679 12148 M Z 14542 11556 M Z 14642 13872 M Z 14607 14391 M Z
14577 13424 M Z 14662 12231 M Z 14692 11385 M Z 14792 11297 M Z
14642 11050 M Z 14594 13537 M Z 14682 10836 M Z 14682 14354 M Z
14636 12957 M Z 14639 12825 M Z 14689 12903 M Z 14645 11645 M Z
14726 14157 M Z 14662 13298 M Z 14804 15208 M Z 15046 15119 M Z
14735 11324 M Z 14747 11941 M Z 14779 11713 M Z 14821 15185 M Z
14921 15027 M Z 14964 11697 M Z 14222 13506 M Z 14281 13176 M Z
14319 12317 M Z 14435 13267 M Z 14489 11105 M Z 14331 12901 M Z
14603 11700 M Z 14578 11493 M Z 14185 10827 M Z 14214 11293 M Z
14453 14009 M Z 14593 12681 M Z 14250 15183 M Z 14346 14014 M Z
14377 11628 M Z 14413 14814 M Z 14407 12600 M Z 14375 10823 M Z
14367 11088 M Z 14386 10803 M Z 14338 11373 M Z 14382 10687 M Z
14298 15057 M Z 14422 11640 M Z 14295 11875 M Z 14121 12557 M Z
14348 11228 M Z 14459 10783 M Z 14352 11353 M Z 14687 11443 M Z
14444 14286 M Z 14318 11521 M Z 14286 12449 M Z 14265 12410 M Z
14526 14089 M Z 14467 11920 M Z 14463 10759 M Z 14385 12719 M Z
14559 13695 M Z 14435 11652 M Z 14490 11017 M Z 14961 15284 M Z
14980 12748 M Z 15018 11940 M Z 14779 12916 M Z 14770 14477 M Z
14775 10697 M Z 14908 11669 M Z 14963 12384 M Z 15010 10700 M Z
14926 13990 M Z 14790 11935 M Z 14744 14880 M Z 14749 11810 M Z
15024 11261 M Z 15011 13118 M Z 14855 11693 M Z 14930 14159 M Z
14898 11175 M Z 14890 13049 M Z 14952 12266 M Z 14716 12782 M Z
14866 11928 M Z 14799 13932 M Z 14823 10910 M Z 14870 12306 M Z
14849 11068 M Z 14859 13824 M Z 14935 13621 M Z 14950 12150 M Z
14711 11587 M Z 14890 12695 M Z 14753 13623 M Z 14831 12341 M Z
14972 14030 M Z 14795 11732 M Z 14784 13039 M Z 15082 10793 M Z
14971 13192 M Z 14973 12904 M Z 14970 14204 M Z 15062 15188 M Z
14880 12193 M Z 15079 10982 M Z 15049 11707 M Z 15092 14620 M Z
14957 12633 M Z 14768 12263 M Z 14928 14975 M Z 14521 14399 M Z
14403 11541 M Z 14548 12278 M Z 14482 11752 M Z 14675 11175 M Z
14587 13092 M Z 14569 12953 M Z 14646 14296 M Z 14559 11149 M Z
14650 11664 M Z 14346 12021 M Z 14498 14638 M Z 14555 11001 M Z
14517 11667 M Z 14584 12279 M Z 14579 13352 M Z 14657 11269 M Z
14658 13538 M Z 14671 12181 M Z 14684 11018 M Z 14722 11809 M Z
14704 12748 M Z 14692 11516 M Z 14798 14572 M Z 14651 14312 M Z
14410 11415 M Z 14927 11180 M Z 14931 14039 M Z 14932 13887 M Z
14928 12599 M Z 15021 11567 M Z 14955 12497 M Z 14936 11259 M Z
14759 10681 M Z 14810 11278 M Z 14563 11392 M Z 14849 12813 M Z
14699 15107 M Z 14917 15169 M Z 14888 14443 M Z 14853 13446 M Z
14775 10994 M Z 14861 12159 M Z 14854 12820 M Z 14940 10775 M Z
15065 15198 M Z 14974 12666 M Z 15069 10812 M Z 15001 10782 M Z
15120 11233 M Z 15027 12826 M Z 15063 12654 M Z 15037 12022 M Z
15049 12314 M Z 14904 11802 M Z 15010 12366 M Z 14830 11871 M Z
14961 11724 M Z 14950 13431 M Z 14826 11421 M Z 14908 11900 M Z
14649 13029 M Z 14533 11650 M Z 14595 11829 M Z 14511 15171 M Z
14453 12324 M Z 14447 11015 M Z 14405 11499 M Z 14436 10797 M Z
14554 12645 M Z 14512 13587 M Z 14480 10878 M Z 14617 13563 M Z
14577 12905 M Z 14486 15151 M Z 14669 12649 M Z 14667 11904 M Z
14803 13378 M Z 14729 13218 M Z 14731 14624 M Z 14815 13620 M Z
14780 14947 M Z 14845 13934 M Z 14829 12667 M Z 14914 12749 M Z
14885 15134 M Z 14822 12397 M Z 14780 10856 M Z 14833 11329 M Z
14857 15047 M Z 14687 15132 M Z 14760 12454 M Z 14774 11729 M Z
14786 13975 M Z 14700 13569 M Z 14823 15112 M Z 14724 13340 M Z
14725 12853 M Z 14706 13513 M Z 14676 11692 M Z 14752 13614 M Z
14788 12595 M Z 14622 11700 M Z 14797 12593 M Z 14711 10989 M Z
14493 13239 M Z 14598 12572 M Z 14692 13150 M Z 14573 11261 M Z
14712 11016 M Z 14698 10984 M Z 14506 15163 M Z 14614 12447 M Z
14549 13349 M Z 14725 14715 M Z 14575 12230 M Z 14718 11372 M Z
14396 11723 M Z 14504 10846 M Z 14574 15193 M Z 14589 12036 M Z
14380 13779 M Z 14503 12010 M Z 14581 14049 M Z 14777 14331 M Z
14609 13329 M Z 14796 12774 M Z 14765 11758 M Z 14769 12816 M Z
14950 15105 M Z 14615 10666 M Z 14780 11335 M Z 15017 15190 M Z
15014 14631 M Z 15022 11845 M Z 15012 15272 M Z 14903 13733 M Z
14989 11928 M Z 14764 11303 M Z 14879 12263 M Z 14907 12422 M Z
14880 15286 M Z 14885 12413 M Z 14843 12365 M Z 14912 11295 M Z
14848 12110 M Z 14794 12228 M Z 14990 13746 M Z 15020 14360 M Z
14997 12004 M Z 15055 11438 M Z 15076 11610 M Z 15155 11407 M Z
15159 13563 M Z 15165 13387 M Z 15122 12424 M Z 15145 15281 M Z
15145 13145 M Z 15130 14614 M Z 15150 15023 M Z 15144 14598 M Z
15161 11836 M Z 15119 14218 M Z 15203 11150 M Z 15095 15290 M Z
15101 14674 M Z 15063 11689 M Z 15171 13025 M Z 15165 13904 M Z
15197 13240 M Z 15137 12254 M Z 15124 10998 M Z 15148 11077 M Z
15030 12376 M Z 15033 13674 M Z 15038 11967 M Z 15028 13587 M Z
14939 11896 M Z 14842 13138 M Z 14874 12872 M Z 14624 12407 M Z
14608 14225 M Z 14737 15030 M Z 14651 14445 M Z 14679 10862 M Z
14788 15077 M Z 14812 14883 M Z 14579 10675 M Z 14766 14505 M Z
14437 11582 M Z 14445 11619 M Z 14392 14889 M Z 14594 12180 M Z
14516 12756 M Z 14741 11927 M Z 14444 11980 M Z 14615 14455 M Z
14716 11883 M Z 14704 11032 M Z 14753 11672 M Z 14689 11200 M Z
14706 14767 M Z 14698 11221 M Z 14844 11200 M Z 14554 12086 M Z
14466 11636 M Z 14783 13010 M Z 14558 11971 M Z 14358 12487 M Z
14390 14681 M Z 14674 12043 M Z 14445 10850 M Z 14674 11015 M Z
14466 11871 M Z 14538 12749 M Z 14501 11129 M Z 14534 11522 M Z
14626 13238 M Z 14597 14190 M Z 14712 13032 M Z 14650 11583 M Z
14755 14199 M Z 14772 10819 M Z 14744 10689 M Z 14828 13619 M Z
14680 10677 M Z 14591 11211 M Z 14652 12568 M Z 14625 13854 M Z
14873 14673 M Z 14741 11093 M Z 14923 11689 M Z 14896 13678 M Z
14468 13715 M Z 14506 13198 M Z 14532 13971 M Z 14428 11702 M Z
14679 10865 M Z 14684 10795 M Z 14839 14377 M Z 14609 13449 M Z
14977 15080 M Z 14918 13710 M Z 14936 13528 M Z 14949 15183 M Z
14744 14425 M Z 14910 12745 M Z 15066 12187 M Z 14995 12464 M Z
15013 13076 M Z 15096 13542 M Z 15084 12418 M Z 15082 11130 M Z
14865 15262 M Z 14748 15145 M Z 14820 15287 M Z 14658 14637 M Z
14978 12549 M Z 14775 14035 M Z 14886 13343 M Z 14888 11833 M Z
14814 11401 M Z 14844 13060 M Z 14703 14348 M Z 14658 12259 M Z
14789 10694 M Z 14833 14363 M Z 14855 11828 M Z 14899 14116 M Z
14915 10991 M Z 14920 12422 M Z 14870 12199 M Z 14711 11697 M Z
14678 11839 M Z 14665 12782 M Z 14474 15097 M Z 14631 10905 M Z
14564 11641 M Z 14634 11526 M Z 14544 13809 M Z 14509 14354 M Z
14518 12484 M Z 14528 13108 M Z 14518 10673 M Z 14602 15270 M Z
14306 15187 M Z 14525 10859 M Z 14566 10926 M Z 14593 12264 M Z
14673 13952 M Z 14407 14250 M Z 14606 13232 M Z 14589 11190 M Z
14574 11279 M Z 14601 14942 M Z 14704 14308 M Z 14398 12010 M Z
14675 12723 M Z 14535 13293 M Z 14442 11522 M Z 14613 10814 M Z
14562 11307 M Z 14641 11801 M Z 14450 12856 M Z 15176 13984 M Z
15132 13815 M Z 15102 14021 M Z 15099 13388 M Z 15033 12285 M Z
15001 11299 M Z 14596 11863 M Z 14978 11070 M Z 14973 10680 M Z
14965 10712 M Z 15032 15223 M Z 14703 11939 M Z 15003 13533 M Z
14883 12957 M Z 14603 12865 M Z 14932 11043 M Z 14804 11509 M Z
14675 10733 M Z 14686 12651 M Z 14786 11090 M Z 15037 13514 M Z
15038 12355 M Z 14873 12296 M Z 14748 12727 M Z 14852 13202 M Z
14758 11881 M Z 14750 14321 M Z 14519 14069 M Z 14641 15235 M Z
14615 12137 M Z 14677 13716 M Z 14555 15224 M Z 14586 11771 M Z
14552 14123 M Z 14500 11820 M Z 14497 12577 M Z 14588 12855 M Z
14567 12023 M Z 14490 11624 M Z 14585 12467 M Z 14524 12321 M Z
14679 10722 M Z 14489 10947 M Z 14367 13903 M Z 14606 12222 M Z
14633 11093 M Z 14678 13536 M Z 14703 11151 M Z 14688 10772 M Z
14563 11081 M Z 14635 13885 M Z 14522 12536 M Z 14722 12994 M Z
14454 10969 M Z 14706 14273 M Z 14511 11553 M Z 14741 10845 M Z
14735 11140 M Z 14582 12739 M Z 14431 10714 M Z 14489 12458 M Z
14596 11648 M Z 14606 13901 M Z 14558 14438 M Z 14639 12451 M Z
14497 15022 M Z 14463 11178 M Z 14579 14378 M Z 14588 11317 M Z
14794 13006 M Z 14474 15252 M Z 14471 14312 M Z 14729 14904 M Z
14514 12080 M Z 14604 11022 M Z 14455 11985 M Z 14495 12015 M Z
14675 11948 M Z 14442 12800 M Z 14684 11198 M Z 14734 12677 M Z
14634 12522 M Z 14470 13646 M Z 14438 11436 M Z 14651 13499 M Z
14629 13575 M Z 14673 10819 M Z 14586 12897 M Z 14620 11657 M Z
14388 10829 M Z 14505 12297 M Z 14589 11397 M Z 14352 12807 M Z
14463 12075 M Z 14658 14913 M Z 14537 13746 M Z 14589 12527 M Z
14428 12356 M Z 14337 14084 M Z 14593 13088 M Z 14424 12852 M Z
14466 14384 M Z 14506 11983 M Z 14568 11690 M Z 14518 11409 M Z
14354 12855 M Z 14533 11967 M Z 14527 12783 M Z 14625 12134 M Z
14361 14270 M Z 14907 14921 M Z 14898 11050 M Z 14402 13080 M Z 2220 6037 M
5038 0 R D 3021 6037 M 0 139 R D gsave 3021 5509 translate 0 0 M
-58.8433 0 N
( ) show grestore 4166 6037 M 0 139 R D gsave 4166 5509 translate 0 0 M
-58.8433 0 N
( ) show grestore 5312 6037 M 0 139 R D gsave 5312 5509 translate 0 0 M
-58.8433 0 N
( ) show grestore 6457 6037 M 0 139 R D gsave 6457 5509 translate 0 0 M
-58.8433 0 N
( ) show grestore 2220 6037 M 0 70 R D 2422 6037 M 0 70 R D 2565 6037 M
0 70 R D 2676 6037 M 0 70 R D 2767 6037 M 0 70 R D 2843 6037 M 0 70 R D
2910 6037 M 0 70 R D 2968 6037 M 0 70 R D 3366 6037 M 0 70 R D 3567 6037 M
0 70 R D 3710 6037 M 0 70 R D 3821 6037 M 0 70 R D 3912 6037 M 0 70 R D
3989 6037 M 0 70 R D 4055 6037 M 0 70 R D 4114 6037 M 0 70 R D 4511 6037 M
0 70 R D 4713 6037 M 0 70 R D 4856 6037 M 0 70 R D 4967 6037 M 0 70 R D
5058 6037 M 0 70 R D 5134 6037 M 0 70 R D 5201 6037 M 0 70 R D 5259 6037 M
0 70 R D 5657 6037 M 0 70 R D 5858 6037 M 0 70 R D 6002 6037 M 0 70 R D
6113 6037 M 0 70 R D 6203 6037 M 0 70 R D 6280 6037 M 0 70 R D 6346 6037 M
0 70 R D 6405 6037 M 0 70 R D 6802 6037 M 0 70 R D 7004 6037 M 0 70 R D
7147 6037 M 0 70 R D 7258 6037 M 0 70 R D 2220 10667 M 5038 0 R D
3021 10667 M 0 -139 R D 4166 10667 M 0 -139 R D 5312 10667 M 0 -139 R D
6457 10667 M 0 -139 R D 2220 10667 M 0 -70 R D 2422 10667 M 0 -70 R D
2565 10667 M 0 -70 R D 2676 10667 M 0 -70 R D 2767 10667 M 0 -70 R D
2843 10667 M 0 -70 R D 2910 10667 M 0 -70 R D 2968 10667 M 0 -70 R D
3366 10667 M 0 -70 R D 3567 10667 M 0 -70 R D 3710 10667 M 0 -70 R D
3821 10667 M 0 -70 R D 3912 10667 M 0 -70 R D 3989 10667 M 0 -70 R D
4055 10667 M 0 -70 R D 4114 10667 M 0 -70 R D 4511 10667 M 0 -70 R D
4713 10667 M 0 -70 R D 4856 10667 M 0 -70 R D 4967 10667 M 0 -70 R D
5058 10667 M 0 -70 R D 5134 10667 M 0 -70 R D 5201 10667 M 0 -70 R D
5259 10667 M 0 -70 R D 5657 10667 M 0 -70 R D 5858 10667 M 0 -70 R D
6002 10667 M 0 -70 R D 6113 10667 M 0 -70 R D 6203 10667 M 0 -70 R D
6280 10667 M 0 -70 R D 6346 10667 M 0 -70 R D 6405 10667 M 0 -70 R D
6802 10667 M 0 -70 R D 7004 10667 M 0 -70 R D 7147 10667 M 0 -70 R D
7258 10667 M 0 -70 R D 2220 6037 M 0 4630 R D 2220 6935 M 151 0 R D
gsave 2109 6794 translate 0 0 M -588.433 0 N
(0.2) show grestore 2220 7880 M 151 0 R D gsave 2109 7739 translate 0 0 M
-588.433 0 N
(0.4) show grestore 2220 8824 M 151 0 R D gsave 2109 8684 translate 0 0 M
-588.433 0 N
(0.6) show grestore 2220 9769 M 151 0 R D gsave 2109 9628 translate 0 0 M
-588.433 0 N
(0.8) show grestore 2220 6226 M 76 0 R D 2220 6463 M 76 0 R D 2220 6699 M
76 0 R D 2220 7171 M 76 0 R D 2220 7407 M 76 0 R D 2220 7644 M 76 0 R D
2220 8116 M 76 0 R D 2220 8352 M 76 0 R D 2220 8588 M 76 0 R D 2220 9061 M
76 0 R D 2220 9297 M 76 0 R D 2220 9533 M 76 0 R D 2220 10005 M 76 0 R D
2220 10242 M 76 0 R D 2220 10478 M 76 0 R D 7258 6037 M 0 4630 R D
7258 6935 M -151 0 R D 7258 7880 M -151 0 R D 7258 8824 M -151 0 R D
7258 9769 M -151 0 R D 7258 6226 M -75 0 R D 7258 6463 M -75 0 R D
7258 6699 M -75 0 R D 7258 7171 M -75 0 R D 7258 7407 M -75 0 R D
7258 7644 M -75 0 R D 7258 8116 M -75 0 R D 7258 8352 M -75 0 R D
7258 8588 M -75 0 R D 7258 9061 M -75 0 R D 7258 9297 M -75 0 R D
7258 9533 M -75 0 R D 7258 10005 M -75 0 R D 7258 10242 M -75 0 R D
7258 10478 M -75 0 R D 4960 6087 M Z 4955 7771 M Z 4464 8275 M Z 4791 9293 M
Z 4505 10392 M Z 4616 6060 M Z 4473 9739 M Z 4677 6443 M Z 4772 10025 M Z
4503 6067 M Z 4983 8632 M Z 5210 6767 M Z 5189 7036 M Z 5209 7757 M Z
4980 9281 M Z 5206 8218 M Z 5213 7057 M Z 5166 7105 M Z 5163 7783 M Z
5162 8856 M Z 5229 9933 M Z 4692 6270 M Z 4864 6858 M Z 4886 6512 M Z
4938 7946 M Z 4905 7010 M Z 4898 8636 M Z 4945 10136 M Z 4789 7224 M Z
4926 7258 M Z 4882 6730 M Z 4914 6359 M Z 4898 7862 M Z 4992 8679 M Z
4976 7341 M Z 4975 6341 M Z 4965 6710 M Z 4992 9236 M Z 5091 6601 M Z
4994 6075 M Z 5040 9661 M Z 5008 6681 M Z 4975 7067 M Z 5013 7319 M Z
4953 7509 M Z 4944 10372 M Z 4944 8889 M Z 4954 7145 M Z 4941 8581 M Z
4943 10609 M Z 5089 6716 M Z 4996 8228 M Z 4956 8197 M Z 5015 6419 M Z
4936 6384 M Z 4931 7318 M Z 4934 8520 M Z 4813 6452 M Z 4771 7228 M Z
4738 7736 M Z 4707 7519 M Z 4731 7864 M Z 4727 8321 M Z 4856 10564 M Z
4793 9201 M Z 4790 9210 M Z 4774 7669 M Z 4800 10001 M Z 4782 10578 M Z
4796 7507 M Z 4764 7443 M Z 4715 6464 M Z 4614 9561 M Z 5465 9042 M Z
5467 6614 M Z 5260 6303 M Z 5081 7337 M Z 5175 8078 M Z 4509 9074 M Z
4327 6690 M Z 4386 6145 M Z 4317 10291 M Z 4234 6156 M Z 4630 10064 M Z
4496 8547 M Z 4310 10633 M Z 4413 6403 M Z 4457 10655 M Z 4459 6370 M Z
4500 8180 M Z 4337 8741 M Z 4442 9698 M Z 4274 8329 M Z 4394 9203 M Z
4218 8149 M Z 4354 7625 M Z 4085 6794 M Z 4267 8846 M Z 4544 7143 M Z
4407 7346 M Z 4509 7306 M Z 4260 9081 M Z 4352 6956 M Z 4352 7103 M Z
4487 6504 M Z 4387 6141 M Z 4515 8364 M Z 4219 9483 M Z 4401 8157 M Z
4103 7655 M Z 4398 6991 M Z 4316 6964 M Z 5055 9023 M Z 4519 6817 M Z
4273 6672 M Z 4285 6432 M Z 4468 9798 M Z 5276 7157 M Z 5076 7501 M Z
5024 7018 M Z 5019 6937 M Z 5052 9739 M Z 5062 9326 M Z 5074 10536 M Z
5090 10475 M Z 5113 7888 M Z 5111 9674 M Z 5124 8477 M Z 5156 9695 M Z
5126 8209 M Z 4953 6615 M Z 4983 6920 M Z 4830 10591 M Z 4830 6047 M Z
4813 9492 M Z 4817 6500 M Z 4989 7015 M Z 5074 8063 M Z 4950 10344 M Z
5202 7621 M Z 5029 6167 M Z 5113 10588 M Z 5020 7289 M Z 5072 7909 M Z
5202 7672 M Z 5124 7602 M Z 5118 8880 M Z 4642 8053 M Z 4403 7314 M Z
5243 10631 M Z 4427 7447 M Z 4413 6204 M Z 4374 10643 M Z 4294 8413 M Z
4192 6118 M Z 4371 8414 M Z 4439 8551 M Z 4413 7807 M Z 4497 10194 M Z
4478 7924 M Z 4376 6890 M Z 4507 7423 M Z 4453 7119 M Z 5279 6161 M Z
5302 6726 M Z 5324 9279 M Z 5303 6371 M Z 5300 7491 M Z 5308 7079 M Z
5318 6894 M Z 5305 8163 M Z 5272 9976 M Z 5315 10260 M Z 5295 7549 M Z
5320 8099 M Z 5197 7761 M Z 5198 7572 M Z 4864 7174 M Z 5210 6361 M Z
5213 10382 M Z 5232 6418 M Z 5190 7101 M Z 4874 8093 M Z 5225 10420 M Z
4833 10383 M Z 4962 8465 M Z 4924 10152 M Z 4926 6850 M Z 4907 6851 M Z
4893 6432 M Z 4887 7364 M Z 4973 7534 M Z 4728 8319 M Z 5136 7919 M Z
4811 7103 M Z 4953 8132 M Z 4933 10131 M Z 4800 7906 M Z 4949 8756 M Z
4744 9317 M Z 4927 7605 M Z 4789 9297 M Z 4875 9180 M Z 4958 9281 M Z
4984 7012 M Z 4916 7489 M Z 4953 10083 M Z 4967 6301 M Z 4887 7502 M Z
4917 7645 M Z 4777 7141 M Z 4845 6651 M Z 4938 7970 M Z 4939 10569 M Z
4931 10623 M Z 4796 6190 M Z 4826 6460 M Z 4885 7715 M Z 4795 6675 M Z
5027 9622 M Z 4942 10625 M Z 5032 10588 M Z 4839 9305 M Z 4888 6401 M Z
4977 6975 M Z 4955 6190 M Z 5034 10108 M Z 4980 7700 M Z 4665 6092 M Z
4808 6534 M Z 4996 6154 M Z 4724 6574 M Z 4728 8184 M Z 4979 10564 M Z
4879 6420 M Z 4963 8916 M Z 5179 9698 M Z 4995 10569 M Z 4949 6478 M Z
5189 6885 M Z 4713 8566 M Z 4744 8097 M Z 4932 7566 M Z 4852 6155 M Z
4567 7751 M Z 4584 7702 M Z 4610 7064 M Z 4350 7366 M Z 4759 9040 M Z
4755 10037 M Z 4774 8150 M Z 5066 7832 M Z 4849 8803 M Z 4830 7337 M Z
5083 10662 M Z 4562 7558 M Z 4918 7546 M Z 4695 9139 M Z 4770 8367 M Z
4725 7838 M Z 4681 7440 M Z 4676 6999 M Z 4709 6663 M Z 4905 8465 M Z
5413 8695 M Z 4878 6209 M Z 4983 8212 M Z 4945 6272 M Z 5027 6778 M Z
5094 6261 M Z 5011 6191 M Z 5005 7703 M Z 4982 6493 M Z 4918 8356 M Z
4943 10535 M Z 4561 8738 M Z 4504 8291 M Z 4590 7144 M Z 4436 7131 M Z
4422 6333 M Z 4522 10346 M Z 4689 6880 M Z 4750 8311 M Z 5335 6492 M Z
4732 8346 M Z 5354 9533 M Z 5333 8062 M Z 5197 8266 M Z 4330 10178 M Z
4476 9313 M Z 4406 6396 M Z 4513 7868 M Z 4379 6128 M Z 4299 9291 M Z
4333 6796 M Z 4354 6324 M Z 4451 6087 M Z 4508 6800 M Z 4781 9647 M Z
4764 8849 M Z 4835 6295 M Z 4500 7764 M Z 4513 6347 M Z 4506 6657 M Z
4574 7876 M Z 4697 8785 M Z 4703 8340 M Z 4667 6548 M Z 4670 7770 M Z
5219 9633 M Z 4728 7621 M Z 4792 6713 M Z 4862 6671 M Z 4853 7824 M Z
4780 6662 M Z 4882 7693 M Z 4485 6315 M Z 4396 8097 M Z 4378 8801 M Z
4220 9139 M Z 4524 7529 M Z 4443 8185 M Z 4446 6391 M Z 4452 7629 M Z
4525 6779 M Z 4358 7767 M Z 4457 9148 M Z 4426 6325 M Z 4462 6360 M Z
4215 7572 M Z 4342 8637 M Z 4395 6987 M Z 4484 6454 M Z 4493 7971 M Z
4768 7727 M Z 4496 9136 M Z 4490 6867 M Z 4318 6363 M Z 4401 9622 M Z
4565 7292 M Z 4509 10480 M Z 4567 6390 M Z 4694 7691 M Z 4445 9762 M Z
4470 7488 M Z 4771 7282 M Z 4346 6735 M Z 4424 8929 M Z 4504 7913 M Z
4314 9645 M Z 4192 10098 M Z 4555 10048 M Z 4234 7881 M Z 5190 8940 M Z
4359 6104 M Z 4270 8021 M Z 4530 7171 M Z 4314 8866 M Z 4467 8159 M Z
4470 9108 M Z 4506 10395 M Z 4484 9026 M Z 4534 7052 M Z 4497 6070 M Z
4835 8077 M Z 4838 10502 M Z 4799 10050 M Z 4841 6181 M Z 4796 6500 M Z
4798 6377 M Z 5173 8125 M Z 4822 6845 M Z 5253 8165 M Z 5173 10560 M Z
5154 7648 M Z 4789 7460 M Z 5184 8725 M Z 5223 7808 M Z 5322 7285 M Z
5253 7642 M Z 5212 10592 M Z 5211 6616 M Z 5194 6962 M Z 5216 8518 M Z
5252 8401 M Z 5161 7619 M Z 5573 7055 M Z 4497 6685 M Z 4677 7641 M Z
4292 10323 M Z 4373 6663 M Z 4277 7963 M Z 4148 9395 M Z 5224 8072 M Z
4932 9281 M Z 4929 8346 M Z 4939 10547 M Z 5009 6832 M Z 4938 8965 M Z
5023 7896 M Z 5029 8528 M Z 4989 7900 M Z 5167 7625 M Z 5160 10016 M Z
5089 7876 M Z 5084 6162 M Z 5120 7865 M Z 5156 10240 M Z 5111 7394 M Z
5158 7131 M Z 5103 10255 M Z 5119 8018 M Z 5161 6051 M Z 5177 7471 M Z
5177 9810 M Z 5128 8073 M Z 5184 7121 M Z 5212 9133 M Z 5198 6634 M Z
5122 7601 M Z 5153 10394 M Z 5132 6834 M Z 5114 9624 M Z 5121 9095 M Z
5306 6422 M Z 5326 9793 M Z 4973 9038 M Z 5308 10297 M Z 5315 8258 M Z
5257 6361 M Z 5321 6857 M Z 5334 8031 M Z 5185 8165 M Z 5250 7337 M Z
5236 6108 M Z 5239 8865 M Z 4675 6820 M Z 4695 6189 M Z 4785 7669 M Z
4615 8783 M Z 4766 8120 M Z 4803 6541 M Z 4779 10107 M Z 5338 9894 M Z
5314 8608 M Z 5314 7657 M Z 5329 8937 M Z 5338 8085 M Z 5023 8366 M Z
5019 10291 M Z 5024 10555 M Z 4996 7566 M Z 5040 8855 M Z 5078 10580 M Z
5100 6405 M Z 5026 6451 M Z 5079 8790 M Z 5052 8130 M Z 5038 6316 M Z
5008 7527 M Z 5010 6450 M Z 4973 8508 M Z 5153 6623 M Z 5094 8563 M Z
5057 9796 M Z 5078 7430 M Z 5107 6106 M Z 5090 10657 M Z 5031 7284 M Z
5037 10167 M Z 5214 6631 M Z 5105 8966 M Z 5021 9910 M Z 5117 6442 M Z
5329 6350 M Z 5150 7522 M Z 5184 6765 M Z 5449 7176 M Z 5448 7701 M Z
5437 6479 M Z 5364 8452 M Z 5361 7120 M Z 5372 8095 M Z 4987 10627 M Z
5260 9866 M Z 5236 8029 M Z 5110 9794 M Z 5201 8475 M Z 4930 8867 M Z
4939 10283 M Z 4936 10138 M Z 4939 7629 M Z 4886 7798 M Z 4924 7012 M Z
4832 10101 M Z 5366 6313 M Z 4740 8818 M Z 4723 6554 M Z 4667 7857 M Z
4671 9123 M Z 4984 7895 M Z 5338 7632 M Z 4445 7793 M Z 4254 7086 M Z
4450 8493 M Z 4516 7823 M Z 4569 7399 M Z 4249 7627 M Z 4398 6146 M Z
4257 8283 M Z 4206 7543 M Z 4402 7717 M Z 4423 7176 M Z 5167 6445 M Z
5148 6896 M Z 5189 8494 M Z 5170 7217 M Z 5145 10614 M Z 4797 7086 M Z
5190 6715 M Z 5143 7143 M Z 4728 6641 M Z 4689 8923 M Z 5083 7136 M Z
5125 10434 M Z 5156 6304 M Z 5158 10406 M Z 5161 6779 M Z 5145 7366 M Z
5150 10106 M Z 5162 6920 M Z 5136 6364 M Z 5289 8177 M Z 5255 6089 M Z
5270 8846 M Z 4892 8177 M Z 4883 10519 M Z 4894 7044 M Z 4937 9207 M Z
4972 9474 M Z 4407 8594 M Z 4974 6519 M Z 4940 7066 M Z 4552 6704 M Z
4583 8949 M Z 4508 10156 M Z 4447 6428 M Z 4606 10026 M Z 4503 8101 M Z
4552 6040 M Z 4407 6732 M Z 5028 10554 M Z 4411 10480 M Z 4494 7724 M Z
4526 7444 M Z 4544 6874 M Z 4582 9491 M Z 4575 8456 M Z 4573 7405 M Z
4656 9376 M Z 4577 6176 M Z 4548 7931 M Z 5158 7079 M Z 5009 7387 M Z
5302 7986 M Z 4852 10192 M Z 4955 10323 M Z 5000 7494 M Z 4943 7492 M Z
4973 6578 M Z 4993 6674 M Z 4844 6651 M Z 4946 9226 M Z 4984 7319 M Z
4968 6798 M Z 5272 7018 M Z 4950 6077 M Z 4786 6715 M Z 4852 7818 M Z
4736 9254 M Z 4804 7116 M Z 4828 7454 M Z 4886 8085 M Z 4986 8549 M Z
5002 7003 M Z 4677 8165 M Z 4993 7126 M Z 4996 10518 M Z 4874 6392 M Z
4880 7145 M Z 4930 10249 M Z 4769 8216 M Z 4753 6095 M Z 4865 10624 M Z
4839 8092 M Z 4733 8681 M Z 4343 6971 M Z 5293 8596 M Z 5314 8788 M Z
4564 6593 M Z 4474 9652 M Z 4435 10522 M Z 4280 6375 M Z 4363 7510 M Z
4298 7507 M Z 4363 7521 M Z 4556 7859 M Z 4462 7705 M Z 4480 10575 M Z
4324 7147 M Z 5117 7493 M Z 4405 9046 M Z 4314 10527 M Z 4330 8272 M Z
4290 8658 M Z 4399 8703 M Z 5435 7944 M Z 4159 9979 M Z 4369 7675 M Z
4276 6629 M Z 4365 6776 M Z 4416 6681 M Z 4480 6718 M Z 5121 7989 M Z
5010 8062 M Z 5009 8390 M Z 5295 7727 M Z 4991 7514 M Z 5005 6947 M Z
5283 6901 M Z 5260 6179 M Z 5270 7100 M Z 5275 7966 M Z 5185 6549 M Z
5195 10396 M Z 5204 7517 M Z 5230 8918 M Z 5253 6105 M Z 5227 9120 M Z
5139 6125 M Z 5196 7259 M Z 4882 8469 M Z 5424 9357 M Z 5430 6407 M Z
5415 8505 M Z 5424 9445 M Z 5443 7148 M Z 5302 9252 M Z 4652 7269 M Z
5224 8553 M Z 4675 6293 M Z 4939 7575 M Z 4827 9286 M Z 4956 6041 M Z
5079 6794 M Z 5033 10104 M Z 5062 6911 M Z 5063 8076 M Z 4995 9920 M Z
4918 8643 M Z 5307 6781 M Z 4959 7140 M Z 5029 6618 M Z 5098 9210 M Z
5015 10634 M Z 5438 7687 M Z 4927 7603 M Z 4932 6845 M Z 5061 6812 M Z
4867 8338 M Z 4894 7355 M Z 5165 6135 M Z 4827 7868 M Z 4628 7459 M Z
4515 9123 M Z 4959 7945 M Z 4967 7596 M Z 4980 9898 M Z 4994 6908 M Z
4553 6260 M Z 5139 9999 M Z 4573 9054 M Z 4456 8872 M Z 4990 6815 M Z
4502 8159 M Z 4473 8257 M Z 4436 10337 M Z 4465 6782 M Z 4372 10666 M Z
4338 7367 M Z 4418 9104 M Z 4618 7939 M Z 4508 7899 M Z 4428 7899 M Z
4450 10380 M Z 4540 7593 M Z 4578 8756 M Z 4536 8867 M Z 4816 7822 M Z
4837 7525 M Z 4765 8982 M Z 4541 10466 M Z 4458 7313 M Z 4578 10108 M Z
4382 10039 M Z 4324 9446 M Z 4527 6658 M Z 4539 6732 M Z 4399 8219 M Z
4334 6237 M Z 4251 7256 M Z 4288 6390 M Z 4339 6753 M Z 4505 7591 M Z
4517 7820 M Z 5201 10120 M Z 5319 9332 M Z 4583 8332 M Z 4495 7499 M Z
7258 6037 M 5038 0 R D 8059 6037 M 0 139 R D gsave 8059 5509 translate 0 0 M
-58.8433 0 N
( ) show grestore 9204 6037 M 0 139 R D gsave 9204 5509 translate 0 0 M
-58.8433 0 N
( ) show grestore 10350 6037 M 0 139 R D gsave 10350 5509 translate 0 0 M
-58.8433 0 N
( ) show grestore 11495 6037 M 0 139 R D gsave 11495 5509 translate 0 0 M
-58.8433 0 N
( ) show grestore 7258 6037 M 0 70 R D 7460 6037 M 0 70 R D 7603 6037 M
0 70 R D 7714 6037 M 0 70 R D 7805 6037 M 0 70 R D 7881 6037 M 0 70 R D
7948 6037 M 0 70 R D 8006 6037 M 0 70 R D 8404 6037 M 0 70 R D 8605 6037 M
0 70 R D 8748 6037 M 0 70 R D 8859 6037 M 0 70 R D 8950 6037 M 0 70 R D
9027 6037 M 0 70 R D 9093 6037 M 0 70 R D 9152 6037 M 0 70 R D 9549 6037 M
0 70 R D 9751 6037 M 0 70 R D 9894 6037 M 0 70 R D 10005 6037 M 0 70 R D
10096 6037 M 0 70 R D 10172 6037 M 0 70 R D 10239 6037 M 0 70 R D
10297 6037 M 0 70 R D 10695 6037 M 0 70 R D 10896 6037 M 0 70 R D
11040 6037 M 0 70 R D 11151 6037 M 0 70 R D 11241 6037 M 0 70 R D
11318 6037 M 0 70 R D 11384 6037 M 0 70 R D 11443 6037 M 0 70 R D
11840 6037 M 0 70 R D 12042 6037 M 0 70 R D 12185 6037 M 0 70 R D
12296 6037 M 0 70 R D 7258 10667 M 5038 0 R D 8059 10667 M 0 -139 R D
9204 10667 M 0 -139 R D 10350 10667 M 0 -139 R D 11495 10667 M 0 -139 R D
7258 10667 M 0 -70 R D 7460 10667 M 0 -70 R D 7603 10667 M 0 -70 R D
7714 10667 M 0 -70 R D 7805 10667 M 0 -70 R D 7881 10667 M 0 -70 R D
7948 10667 M 0 -70 R D 8006 10667 M 0 -70 R D 8404 10667 M 0 -70 R D
8605 10667 M 0 -70 R D 8748 10667 M 0 -70 R D 8859 10667 M 0 -70 R D
8950 10667 M 0 -70 R D 9027 10667 M 0 -70 R D 9093 10667 M 0 -70 R D
9152 10667 M 0 -70 R D 9549 10667 M 0 -70 R D 9751 10667 M 0 -70 R D
9894 10667 M 0 -70 R D 10005 10667 M 0 -70 R D 10096 10667 M 0 -70 R D
10172 10667 M 0 -70 R D 10239 10667 M 0 -70 R D 10297 10667 M 0 -70 R D
10695 10667 M 0 -70 R D 10896 10667 M 0 -70 R D 11040 10667 M 0 -70 R D
11151 10667 M 0 -70 R D 11241 10667 M 0 -70 R D 11318 10667 M 0 -70 R D
11384 10667 M 0 -70 R D 11443 10667 M 0 -70 R D 11840 10667 M 0 -70 R D
12042 10667 M 0 -70 R D 12185 10667 M 0 -70 R D 12296 10667 M 0 -70 R D
7258 6037 M 0 4630 R D 7258 6935 M 151 0 R D gsave 7147 6794 translate 0 0 M
-117.687 0 N
( ) show grestore 7258 7880 M 151 0 R D gsave 7147 7739 translate 0 0 M
-117.687 0 N
( ) show grestore 7258 8824 M 151 0 R D gsave 7147 8684 translate 0 0 M
-117.687 0 N
( ) show grestore 7258 9769 M 151 0 R D gsave 7147 9628 translate 0 0 M
-117.687 0 N
( ) show grestore 7258 6226 M 76 0 R D 7258 6463 M 76 0 R D 7258 6699 M
76 0 R D 7258 7171 M 76 0 R D 7258 7407 M 76 0 R D 7258 7644 M 76 0 R D
7258 8116 M 76 0 R D 7258 8352 M 76 0 R D 7258 8588 M 76 0 R D 7258 9061 M
76 0 R D 7258 9297 M 76 0 R D 7258 9533 M 76 0 R D 7258 10005 M 76 0 R D
7258 10242 M 76 0 R D 7258 10478 M 76 0 R D 12296 6037 M 0 4630 R D
12296 6935 M -151 0 R D 12296 7880 M -151 0 R D 12296 8824 M -151 0 R D
12296 9769 M -151 0 R D 12296 6226 M -75 0 R D 12296 6463 M -75 0 R D
12296 6699 M -75 0 R D 12296 7171 M -75 0 R D 12296 7407 M -75 0 R D
12296 7644 M -75 0 R D 12296 8116 M -75 0 R D 12296 8352 M -75 0 R D
12296 8588 M -75 0 R D 12296 9061 M -75 0 R D 12296 9297 M -75 0 R D
12296 9533 M -75 0 R D 12296 10005 M -75 0 R D 12296 10242 M -75 0 R D
12296 10478 M -75 0 R D 9516 9003 M Z 9408 8944 M Z 9401 7164 M Z
9418 8699 M Z 9456 6174 M Z 9582 7842 M Z 9394 7739 M Z 9589 7565 M Z
9432 10369 M Z 9705 7032 M Z 9619 7063 M Z 9536 8353 M Z 9550 8380 M Z
9476 6898 M Z 9595 6387 M Z 9473 8635 M Z 9275 6939 M Z 9588 7440 M Z
9463 6493 M Z 9508 7071 M Z 9519 8585 M Z 9570 6820 M Z 9470 7367 M Z
9761 8562 M Z 9534 8613 M Z 9567 10569 M Z 9642 8797 M Z 9595 7657 M Z
9495 10547 M Z 9496 6800 M Z 9661 7008 M Z 9701 6066 M Z 9637 7192 M Z
9441 7893 M Z 9643 10545 M Z 9603 6365 M Z 9610 10435 M Z 9613 10451 M Z
9781 8381 M Z 9775 7017 M Z 9879 9899 M Z 9731 7409 M Z 9743 9942 M Z
9901 10658 M Z 9569 6458 M Z 9877 10188 M Z 9481 7014 M Z 9648 6044 M Z
9641 6252 M Z 9550 8555 M Z 9567 8726 M Z 9707 6053 M Z 9603 6265 M Z
9630 7731 M Z 9645 6855 M Z 9395 6439 M Z 9590 7609 M Z 9565 6298 M Z
9556 10665 M Z 9297 7022 M Z 9514 9385 M Z 9471 8268 M Z 9625 8276 M Z
9556 8530 M Z 9460 6683 M Z 9331 8860 M Z 9382 7775 M Z 9422 7872 M Z
9600 10635 M Z 9509 8449 M Z 9647 6225 M Z 9506 10257 M Z 9553 10488 M Z
9640 6068 M Z 9471 6461 M Z 9467 6405 M Z 9386 8235 M Z 9493 6781 M Z
9651 8198 M Z 9647 7646 M Z 9572 8934 M Z 9669 8062 M Z 9702 10025 M Z
9646 7603 M Z 9555 7999 M Z 9697 7587 M Z 9513 6399 M Z 9519 9437 M Z
9550 7242 M Z 9538 6154 M Z 9302 7327 M Z 9341 6865 M Z 9363 7168 M Z
9525 7684 M Z 9546 8024 M Z 9379 8026 M Z 9520 10441 M Z 9411 8477 M Z
9419 8186 M Z 9525 6182 M Z 9410 10439 M Z 9504 7527 M Z 9560 7979 M Z
9602 10557 M Z 9612 8888 M Z 9539 7335 M Z 9530 7737 M Z 9516 7519 M Z
9605 9915 M Z 9513 8694 M Z 9340 7102 M Z 9416 9566 M Z 9507 8313 M Z
9508 7265 M Z 9293 6428 M Z 9341 6560 M Z 9598 10584 M Z 9219 8128 M Z
9625 6515 M Z 9537 6699 M Z 9503 6331 M Z 9084 7708 M Z 9362 8311 M Z
9427 9596 M Z 9485 8144 M Z 9504 8517 M Z 9462 7361 M Z 9311 9133 M Z
9443 7427 M Z 9280 6121 M Z 9373 10179 M Z 9352 7079 M Z 9459 6776 M Z
9502 8011 M Z 9244 8366 M Z 9196 7884 M Z 9479 7450 M Z 9321 7475 M Z
9630 9121 M Z 8946 10622 M Z 9680 7848 M Z 9506 10447 M Z 9168 7693 M Z
9329 7691 M Z 9302 8787 M Z 9338 7593 M Z 9352 7438 M Z 9272 7073 M Z
9229 7792 M Z 9296 9870 M Z 9591 10440 M Z 9571 9036 M Z 9362 7064 M Z
9513 8306 M Z 9383 9311 M Z 9192 7791 M Z 9300 9593 M Z 9154 8603 M Z
9576 7170 M Z 9479 6072 M Z 9248 9046 M Z 9494 10233 M Z 9395 9946 M Z
9623 10302 M Z 9200 9679 M Z 9405 10610 M Z 10215 10447 M Z 9365 10465 M Z
9684 8577 M Z 9567 7117 M Z 9574 8208 M Z 9612 6099 M Z 9516 6603 M Z
9612 10568 M Z 9581 9005 M Z 9524 8635 M Z 9534 7966 M Z 9543 6104 M Z
9244 6398 M Z 9476 6200 M Z 9541 6975 M Z 9928 6400 M Z 9897 8735 M Z
9908 8181 M Z 9913 6687 M Z 10009 9629 M Z 10002 7864 M Z 10025 7969 M Z
10066 6383 M Z 9989 8469 M Z 10011 8926 M Z 9969 6848 M Z 10016 8076 M Z
10000 7560 M Z 10028 10439 M Z 9987 9403 M Z 9940 8670 M Z 9760 6797 M Z
9792 6347 M Z 9902 7545 M Z 9858 6212 M Z 9844 7109 M Z 9856 6780 M Z
9954 7242 M Z 9900 10469 M Z 9994 7334 M Z 9945 8838 M Z 10029 10259 M Z
10032 7716 M Z 9998 7701 M Z 9995 9196 M Z 10047 6993 M Z 9999 6473 M Z
9930 10187 M Z 9913 10105 M Z 9938 7231 M Z 9836 8799 M Z 9939 6686 M Z
9952 9876 M Z 9820 6173 M Z 10049 9172 M Z 9982 8854 M Z 9915 6797 M Z
10022 6507 M Z 9779 7364 M Z 9969 6490 M Z 9763 6765 M Z 9764 8302 M Z
9757 8822 M Z 9798 6819 M Z 9900 7874 M Z 9950 9710 M Z 9950 7221 M Z
9861 7239 M Z 9876 7961 M Z 10067 10172 M Z 10035 8931 M Z 10047 10129 M Z
10001 7284 M Z 9997 7453 M Z 9999 6689 M Z 10006 7104 M Z 9998 7997 M Z
10016 6357 M Z 10053 10147 M Z 9878 7333 M Z 9924 7847 M Z 9804 6490 M Z
10081 6504 M Z 9631 6517 M Z 9647 6865 M Z 9742 9718 M Z 9750 8404 M Z
9433 7645 M Z 9323 7547 M Z 9394 6239 M Z 9484 6792 M Z 9742 6529 M Z
9505 6891 M Z 9417 7583 M Z 9399 9626 M Z 9299 7571 M Z 9396 6365 M Z
9322 7564 M Z 9256 7918 M Z 9676 9288 M Z 9507 10601 M Z 9536 8808 M Z
9481 7795 M Z 9578 6385 M Z 9587 8248 M Z 9616 9913 M Z 9532 6543 M Z
9685 8655 M Z 9562 6999 M Z 9479 8479 M Z 9471 6940 M Z 9665 6473 M Z
9688 6201 M Z 9749 7053 M Z 9727 7778 M Z 9942 7615 M Z 9928 6408 M Z
9869 9113 M Z 9893 6624 M Z 9990 8539 M Z 10050 6986 M Z 9847 7729 M Z
9996 7050 M Z 10001 8843 M Z 10030 7161 M Z 10016 8170 M Z 10040 7815 M Z
9935 6257 M Z 9577 8709 M Z 9841 6564 M Z 9618 6469 M Z 9739 9072 M Z
9681 10457 M Z 9596 8140 M Z 9702 7923 M Z 9451 8982 M Z 9683 8225 M Z
9732 9526 M Z 9644 6460 M Z 9756 8087 M Z 9806 6479 M Z 9837 7608 M Z
9837 6510 M Z 9856 6425 M Z 9903 8149 M Z 9962 8832 M Z 9930 7910 M Z
9682 7306 M Z 9612 9713 M Z 9846 9366 M Z 9840 10631 M Z 9655 6861 M Z
9570 6153 M Z 9399 7514 M Z 9474 8428 M Z 9311 10422 M Z 9642 8528 M Z
9537 7836 M Z 9517 6156 M Z 9662 7879 M Z 9324 8564 M Z 9296 7313 M Z
9573 10083 M Z 9497 7635 M Z 9433 6789 M Z 9512 6829 M Z 9659 6119 M Z
9621 7806 M Z 9553 9095 M Z 9432 7518 M Z 9652 7026 M Z 9345 9517 M Z
9555 7104 M Z 9475 7579 M Z 9583 7656 M Z 9382 9696 M Z 9630 6854 M Z
9488 9289 M Z 9579 6370 M Z 9627 6889 M Z 9585 8822 M Z 9512 7160 M Z
9392 7083 M Z 9372 8645 M Z 9488 9272 M Z 9553 8245 M Z 9462 8186 M Z
9406 6515 M Z 9517 6930 M Z 9406 10028 M Z 9295 8610 M Z 9488 6273 M Z
9855 9959 M Z 9272 10078 M Z 9484 6822 M Z 9760 6738 M Z 9630 7661 M Z
9507 6777 M Z 9567 8349 M Z 9360 8421 M Z 9461 6344 M Z 9465 9090 M Z
9519 6407 M Z 9546 8949 M Z 9369 7329 M Z 9525 8805 M Z 9333 7965 M Z
9443 6743 M Z 9459 6429 M Z 9374 8760 M Z 9536 8934 M Z 9339 8462 M Z
9543 9544 M Z 9668 9343 M Z 9379 7871 M Z 9436 7929 M Z 9490 7358 M Z
9301 10132 M Z 9590 7044 M Z 9487 10652 M Z 9298 7509 M Z 9500 7741 M Z
9475 9912 M Z 9360 9711 M Z 9476 6420 M Z 9364 8518 M Z 9545 6199 M Z
9391 8507 M Z 9550 10033 M Z 9571 6892 M Z 9594 10103 M Z 9624 7677 M Z
9656 6126 M Z 9561 7871 M Z 9556 8737 M Z 9648 8167 M Z 9573 6555 M Z
9619 6270 M Z 9571 10645 M Z 9559 8089 M Z 9516 6244 M Z 9643 6219 M Z
9685 6636 M Z 9563 10416 M Z 9536 7551 M Z 9337 10150 M Z 9524 8400 M Z
9582 10448 M Z 9642 10160 M Z 9568 6679 M Z 9954 8069 M Z 9939 6286 M Z
9818 8892 M Z 9898 6352 M Z 9808 9394 M Z 9913 9286 M Z 9955 6876 M Z
9939 6443 M Z 9391 6040 M Z 9339 10531 M Z 9324 9618 M Z 9493 8967 M Z
9657 6048 M Z 9416 10629 M Z 9361 7493 M Z 9439 6512 M Z 9367 7238 M Z
9439 8864 M Z 9492 6277 M Z 9566 8136 M Z 9507 7798 M Z 9507 6274 M Z
9370 7299 M Z 9695 9553 M Z 9679 6842 M Z 9724 8681 M Z 9710 9960 M Z
9697 9464 M Z 9668 9486 M Z 9510 7714 M Z 9528 6306 M Z 9806 7169 M Z
9790 8433 M Z 9814 8221 M Z 9741 8984 M Z 9660 6426 M Z 9819 8805 M Z
9902 8425 M Z 9992 6157 M Z 10040 6527 M Z 9880 8980 M Z 9814 7811 M Z
9856 6989 M Z 9961 9834 M Z 9858 8981 M Z 9692 7038 M Z 9746 6904 M Z
9691 7103 M Z 9953 7398 M Z 9542 7356 M Z 9408 8295 M Z 9657 10603 M Z
9616 9814 M Z 9760 8488 M Z 9683 8010 M Z 9682 6720 M Z 9722 8730 M Z
9671 8417 M Z 9708 7893 M Z 9809 9505 M Z 9717 8753 M Z 9617 6063 M Z
9489 10579 M Z 9538 9129 M Z 9738 8298 M Z 9640 6379 M Z 9709 6511 M Z
9597 9114 M Z 9627 8005 M Z 9594 7611 M Z 9632 7741 M Z 9395 9417 M Z
9610 10231 M Z 10029 8187 M Z 9831 6993 M Z 9944 6811 M Z 9909 8350 M Z
9765 7696 M Z 9809 7214 M Z 9739 7343 M Z 10046 7124 M Z 10121 6809 M Z
10016 6508 M Z 10079 8661 M Z 9901 7487 M Z 9981 9206 M Z 9828 6630 M Z
9807 7048 M Z 9822 8200 M Z 10118 8600 M Z 10095 9881 M Z 10012 6617 M Z
10019 7908 M Z 10015 9612 M Z 9811 8952 M Z 10056 7077 M Z 10004 7954 M Z
9859 6967 M Z 9790 8420 M Z 9314 6841 M Z 9439 7181 M Z 9611 7807 M Z
9631 6122 M Z 9891 6110 M Z 9779 8624 M Z 9874 6500 M Z 9867 8265 M Z
9854 6153 M Z 9786 7118 M Z 9666 7754 M Z 9821 7547 M Z 9639 8086 M Z
9803 7948 M Z 9643 7798 M Z 9691 8191 M Z 9696 7096 M Z 9839 10186 M Z
9800 6633 M Z 9822 8436 M Z 9947 6764 M Z 9625 7557 M Z 9746 8861 M Z
9750 8362 M Z 9763 9913 M Z 9597 8612 M Z 9762 6606 M Z 9821 6075 M Z
9302 10374 M Z 9486 9890 M Z 9571 6645 M Z 9552 6251 M Z 9535 8522 M Z
9531 6495 M Z 9270 8891 M Z 9603 8457 M Z 9447 6771 M Z 9510 7034 M Z
9693 7234 M Z 9645 6792 M Z 9548 6332 M Z 9526 6044 M Z 9372 9250 M Z
9486 8575 M Z 9641 9138 M Z 9545 9446 M Z 9566 6327 M Z 9546 8663 M Z
9506 8738 M Z 9329 7534 M Z 9523 9094 M Z 9382 9559 M Z 9176 6497 M Z
9474 7454 M Z 9552 7803 M Z 9424 9596 M Z 9642 8862 M Z 9471 7880 M Z
9394 6581 M Z 9322 6422 M Z 9584 7736 M Z 9569 8163 M Z 9425 9138 M Z
9450 8146 M Z 9582 6980 M Z 9559 6945 M Z 9462 9142 M Z 9471 8705 M Z
9599 8709 M Z 9511 6518 M Z 9689 8636 M Z 9479 8202 M Z 9463 9223 M Z
9358 10281 M Z 9410 10610 M Z 9449 7099 M Z 9395 7586 M Z 9560 8465 M Z
9257 7676 M Z 9711 6491 M Z 9746 7793 M Z 9546 7161 M Z 9591 7755 M Z
9430 9261 M Z 9557 7625 M Z 9591 7072 M Z 9449 10648 M Z 9428 10258 M Z
9667 7186 M Z 9724 7874 M Z 9609 8773 M Z 9557 6903 M Z 9695 9085 M Z
9552 6564 M Z 9506 6642 M Z 9491 9434 M Z 9558 8537 M Z 9543 6539 M Z
9511 10055 M Z 9441 6840 M Z 9594 6598 M Z 9490 6123 M Z 9576 7702 M Z
9497 7134 M Z 9567 6459 M Z 9581 6067 M Z 9607 8034 M Z 9592 7035 M Z
9337 7253 M Z 9662 10597 M Z 9635 8085 M Z 9633 7777 M Z 9685 8921 M Z
9573 7640 M Z 9706 9572 M Z 9505 8358 M Z 9580 7202 M Z 9244 9171 M Z
9495 9245 M Z 9595 7474 M Z 9595 10003 M Z 9563 7939 M Z 9563 8174 M Z
9617 6595 M Z 9403 7145 M Z 9913 8572 M Z 9696 9481 M Z 9643 6292 M Z
9574 8707 M Z 9479 6078 M Z 9637 7088 M Z 9526 9598 M Z 9416 6575 M Z
9544 7420 M Z 9454 8682 M Z 9608 7319 M Z 9400 7665 M Z 9419 8538 M Z
9454 8863 M Z 9312 6731 M Z 9375 6288 M Z 9395 8329 M Z 12296 6037 M
5038 0 R D 13097 6037 M 0 139 R D gsave 13097 5509 translate 0 0 M
-58.8433 0 N
( ) show grestore 14242 6037 M 0 139 R D gsave 14242 5509 translate 0 0 M
-58.8433 0 N
( ) show grestore 15388 6037 M 0 139 R D gsave 15388 5509 translate 0 0 M
-58.8433 0 N
( ) show grestore 16533 6037 M 0 139 R D gsave 16533 5509 translate 0 0 M
-58.8433 0 N
( ) show grestore 12296 6037 M 0 70 R D 12498 6037 M 0 70 R D 12641 6037 M
0 70 R D 12752 6037 M 0 70 R D 12843 6037 M 0 70 R D 12919 6037 M 0 70 R D
12986 6037 M 0 70 R D 13044 6037 M 0 70 R D 13442 6037 M 0 70 R D
13643 6037 M 0 70 R D 13786 6037 M 0 70 R D 13897 6037 M 0 70 R D
13988 6037 M 0 70 R D 14065 6037 M 0 70 R D 14131 6037 M 0 70 R D
14190 6037 M 0 70 R D 14587 6037 M 0 70 R D 14789 6037 M 0 70 R D
14932 6037 M 0 70 R D 15043 6037 M 0 70 R D 15134 6037 M 0 70 R D
15210 6037 M 0 70 R D 15277 6037 M 0 70 R D 15335 6037 M 0 70 R D
15733 6037 M 0 70 R D 15934 6037 M 0 70 R D 16078 6037 M 0 70 R D
16189 6037 M 0 70 R D 16279 6037 M 0 70 R D 16356 6037 M 0 70 R D
16422 6037 M 0 70 R D 16481 6037 M 0 70 R D 16878 6037 M 0 70 R D
17080 6037 M 0 70 R D 17223 6037 M 0 70 R D 17334 6037 M 0 70 R D
12296 10667 M 5038 0 R D 13097 10667 M 0 -139 R D 14242 10667 M 0 -139 R D
15388 10667 M 0 -139 R D 16533 10667 M 0 -139 R D 12296 10667 M 0 -70 R D
12498 10667 M 0 -70 R D 12641 10667 M 0 -70 R D 12752 10667 M 0 -70 R D
12843 10667 M 0 -70 R D 12919 10667 M 0 -70 R D 12986 10667 M 0 -70 R D
13044 10667 M 0 -70 R D 13442 10667 M 0 -70 R D 13643 10667 M 0 -70 R D
13786 10667 M 0 -70 R D 13897 10667 M 0 -70 R D 13988 10667 M 0 -70 R D
14065 10667 M 0 -70 R D 14131 10667 M 0 -70 R D 14190 10667 M 0 -70 R D
14587 10667 M 0 -70 R D 14789 10667 M 0 -70 R D 14932 10667 M 0 -70 R D
15043 10667 M 0 -70 R D 15134 10667 M 0 -70 R D 15210 10667 M 0 -70 R D
15277 10667 M 0 -70 R D 15335 10667 M 0 -70 R D 15733 10667 M 0 -70 R D
15934 10667 M 0 -70 R D 16078 10667 M 0 -70 R D 16189 10667 M 0 -70 R D
16279 10667 M 0 -70 R D 16356 10667 M 0 -70 R D 16422 10667 M 0 -70 R D
16481 10667 M 0 -70 R D 16878 10667 M 0 -70 R D 17080 10667 M 0 -70 R D
17223 10667 M 0 -70 R D 17334 10667 M 0 -70 R D 12296 6037 M 0 4630 R D
12296 6935 M 151 0 R D gsave 12185 6794 translate 0 0 M -117.687 0 N
( ) show grestore 12296 7880 M 151 0 R D gsave 12185 7739 translate 0 0 M
-117.687 0 N
( ) show grestore 12296 8824 M 151 0 R D gsave 12185 8684 translate 0 0 M
-117.687 0 N
( ) show grestore 12296 9769 M 151 0 R D gsave 12185 9628 translate 0 0 M
-117.687 0 N
( ) show grestore 12296 6226 M 76 0 R D 12296 6463 M 76 0 R D 12296 6699 M
76 0 R D 12296 7171 M 76 0 R D 12296 7407 M 76 0 R D 12296 7644 M 76 0 R D
12296 8116 M 76 0 R D 12296 8352 M 76 0 R D 12296 8588 M 76 0 R D
12296 9061 M 76 0 R D 12296 9297 M 76 0 R D 12296 9533 M 76 0 R D
12296 10005 M 76 0 R D 12296 10242 M 76 0 R D 12296 10478 M 76 0 R D
17334 6037 M 0 4630 R D 17334 6935 M -151 0 R D 17334 7880 M -151 0 R D
17334 8824 M -151 0 R D 17334 9769 M -151 0 R D 17334 6226 M -75 0 R D
17334 6463 M -75 0 R D 17334 6699 M -75 0 R D 17334 7171 M -75 0 R D
17334 7407 M -75 0 R D 17334 7644 M -75 0 R D 17334 8116 M -75 0 R D
17334 8352 M -75 0 R D 17334 8588 M -75 0 R D 17334 9061 M -75 0 R D
17334 9297 M -75 0 R D 17334 9533 M -75 0 R D 17334 10005 M -75 0 R D
17334 10242 M -75 0 R D 17334 10478 M -75 0 R D 14593 7106 M Z 14709 8981 M
Z 14574 10106 M Z 14594 8049 M Z 14694 7234 M Z 14732 7199 M Z 14796 8695 M
Z 14763 6925 M Z 14599 6504 M Z 14509 8011 M Z 14719 6699 M Z 14753 7229 M Z
14736 9276 M Z 14500 6391 M Z 14725 7391 M Z 14369 7714 M Z 14570 9360 M Z
14568 7840 M Z 14453 8575 M Z 14420 10089 M Z 14388 10454 M Z 14533 7783 M Z
14321 9733 M Z 14563 8842 M Z 14566 7664 M Z 14596 9758 M Z 14488 6684 M Z
14465 6049 M Z 14586 6568 M Z 14465 8537 M Z 14564 6628 M Z 14546 7194 M Z
14584 7060 M Z 14569 6582 M Z 14433 10527 M Z 14629 8739 M Z 14667 6447 M Z
14759 8693 M Z 14422 9101 M Z 14523 9382 M Z 14615 8521 M Z 14469 8904 M Z
14646 7553 M Z 14689 7354 M Z 14389 6232 M Z 14385 6433 M Z 14394 9610 M Z
14536 10645 M Z 14484 7382 M Z 14467 10590 M Z 14343 6851 M Z 14295 10129 M
Z 14497 6458 M Z 14422 7554 M Z 14561 8256 M Z 14388 8405 M Z 14621 7486 M Z
14731 8569 M Z 14860 8512 M Z 14450 7005 M Z 14686 6604 M Z 14346 7752 M Z
14550 8831 M Z 14509 6387 M Z 14488 7096 M Z 14543 8906 M Z 14734 6723 M Z
14653 6083 M Z 14520 7778 M Z 14595 6801 M Z 14372 9190 M Z 14356 7059 M Z
14465 7727 M Z 14517 7720 M Z 14520 7449 M Z 14369 10441 M Z 14235 7132 M Z
14360 7181 M Z 14297 7126 M Z 14417 6163 M Z 14532 10260 M Z 14312 9016 M Z
14474 8654 M Z 14365 7276 M Z 14329 6471 M Z 14268 6724 M Z 14578 9907 M Z
14154 10286 M Z 14200 10607 M Z 14390 10261 M Z 14412 6883 M Z 14143 7091 M
Z 14578 8937 M Z 14370 9168 M Z 14518 8858 M Z 14445 7754 M Z 14413 9218 M Z
14482 6400 M Z 14303 6264 M Z 14339 8534 M Z 14356 6183 M Z 14480 6074 M Z
14305 7791 M Z 14296 7500 M Z 14359 8089 M Z 14474 7442 M Z 14441 6635 M Z
14150 8839 M Z 14358 7766 M Z 14311 8094 M Z 14345 7128 M Z 14443 10554 M Z
14646 8810 M Z 14663 8343 M Z 14683 8447 M Z 14573 7094 M Z 14392 7691 M Z
14607 8636 M Z 14598 7718 M Z 14532 7318 M Z 14536 6813 M Z 14482 6965 M Z
14514 7571 M Z 14316 9352 M Z 14629 10215 M Z 14697 7204 M Z 14614 7951 M Z
14495 6648 M Z 14551 8931 M Z 14499 10603 M Z 14445 8128 M Z 14545 7642 M Z
14638 7269 M Z 14689 7713 M Z 14525 7940 M Z 14633 7087 M Z 14646 6566 M Z
14584 7803 M Z 14542 6991 M Z 14348 7381 M Z 14488 10497 M Z 14414 7172 M Z
14383 10158 M Z 14259 8538 M Z 14423 6855 M Z 14206 10564 M Z 14717 8498 M Z
14602 7344 M Z 14512 7770 M Z 14481 6840 M Z 14417 7368 M Z 14418 8582 M Z
14491 10636 M Z 14477 7512 M Z 14443 7027 M Z 14426 8880 M Z 14543 10037 M Z
14590 10511 M Z 14503 10626 M Z 14510 10369 M Z 14460 8984 M Z 14304 8392 M
Z 14529 7800 M Z 14704 8327 M Z 14517 6694 M Z 14577 10016 M Z 14637 8200 M
Z 14638 9126 M Z 14608 9535 M Z 14663 7385 M Z 14637 9193 M Z 14592 6645 M Z
14675 6470 M Z 14696 8648 M Z 14599 6743 M Z 14549 9915 M Z 14568 7565 M Z
14354 10491 M Z 14469 10430 M Z 14399 6750 M Z 14340 9082 M Z 14476 7352 M Z
14399 6451 M Z 14536 7104 M Z 14341 10123 M Z 14624 8494 M Z 14613 7418 M Z
14154 6227 M Z 14350 6781 M Z 14350 6413 M Z 14664 9068 M Z 14577 7093 M Z
14544 7084 M Z 14488 8848 M Z 14589 6289 M Z 14596 6605 M Z 14611 6221 M Z
14751 7916 M Z 14585 7893 M Z 14573 8163 M Z 14551 7512 M Z 14465 8601 M Z
14532 7623 M Z 14409 9382 M Z 14618 9297 M Z 14523 7204 M Z 14473 10254 M Z
14182 7155 M Z 14553 8363 M Z 14470 7362 M Z 14605 7929 M Z 14558 9095 M Z
14607 7652 M Z 14471 10017 M Z 14523 8161 M Z 14467 7382 M Z 14389 9762 M Z
14516 8885 M Z 14367 9834 M Z 14457 7074 M Z 14435 8566 M Z 14457 9971 M Z
14483 7392 M Z 14884 7634 M Z 14779 10621 M Z 14699 6408 M Z 14835 7629 M Z
14775 6997 M Z 14934 7837 M Z 14856 7737 M Z 14997 6169 M Z 14906 8228 M Z
14938 8979 M Z 14850 6132 M Z 14807 9539 M Z 14972 6181 M Z 14896 7732 M Z
14837 9310 M Z 14858 6556 M Z 14852 8845 M Z 14828 7114 M Z 14877 7074 M Z
14972 9062 M Z 14930 6889 M Z 14916 7775 M Z 14757 7698 M Z 14416 6469 M Z
14621 9016 M Z 14643 6900 M Z 14630 10663 M Z 2220 1408 M 5038 0 R D
3021 1408 M 0 139 R D gsave 3021 880 translate 0 0 M -58.8433 0 N
( ) show grestore 4166 1408 M 0 139 R D gsave 4166 880 translate 0 0 M
-58.8433 0 N
( ) show grestore 5312 1408 M 0 139 R D gsave 5312 880 translate 0 0 M
-58.8433 0 N
( ) show grestore 6457 1408 M 0 139 R D gsave 6457 880 translate 0 0 M
-58.8433 0 N
( ) show grestore 2220 1408 M 0 70 R D 2422 1408 M 0 70 R D 2565 1408 M
0 70 R D 2676 1408 M 0 70 R D 2767 1408 M 0 70 R D 2843 1408 M 0 70 R D
2910 1408 M 0 70 R D 2968 1408 M 0 70 R D 3366 1408 M 0 70 R D 3567 1408 M
0 70 R D 3710 1408 M 0 70 R D 3821 1408 M 0 70 R D 3912 1408 M 0 70 R D
3989 1408 M 0 70 R D 4055 1408 M 0 70 R D 4114 1408 M 0 70 R D 4511 1408 M
0 70 R D 4713 1408 M 0 70 R D 4856 1408 M 0 70 R D 4967 1408 M 0 70 R D
5058 1408 M 0 70 R D 5134 1408 M 0 70 R D 5201 1408 M 0 70 R D 5259 1408 M
0 70 R D 5657 1408 M 0 70 R D 5858 1408 M 0 70 R D 6002 1408 M 0 70 R D
6113 1408 M 0 70 R D 6203 1408 M 0 70 R D 6280 1408 M 0 70 R D 6346 1408 M
0 70 R D 6405 1408 M 0 70 R D 6802 1408 M 0 70 R D 7004 1408 M 0 70 R D
7147 1408 M 0 70 R D 7258 1408 M 0 70 R D 2220 6037 M 5038 0 R D 3021 6037 M
0 -138 R D 4166 6037 M 0 -138 R D 5312 6037 M 0 -138 R D 6457 6037 M
0 -138 R D 2220 6037 M 0 -69 R D 2422 6037 M 0 -69 R D 2565 6037 M 0 -69 R D
2676 6037 M 0 -69 R D 2767 6037 M 0 -69 R D 2843 6037 M 0 -69 R D
2910 6037 M 0 -69 R D 2968 6037 M 0 -69 R D 3366 6037 M 0 -69 R D
3567 6037 M 0 -69 R D 3710 6037 M 0 -69 R D 3821 6037 M 0 -69 R D
3912 6037 M 0 -69 R D 3989 6037 M 0 -69 R D 4055 6037 M 0 -69 R D
4114 6037 M 0 -69 R D 4511 6037 M 0 -69 R D 4713 6037 M 0 -69 R D
4856 6037 M 0 -69 R D 4967 6037 M 0 -69 R D 5058 6037 M 0 -69 R D
5134 6037 M 0 -69 R D 5201 6037 M 0 -69 R D 5259 6037 M 0 -69 R D
5657 6037 M 0 -69 R D 5858 6037 M 0 -69 R D 6002 6037 M 0 -69 R D
6113 6037 M 0 -69 R D 6203 6037 M 0 -69 R D 6280 6037 M 0 -69 R D
6346 6037 M 0 -69 R D 6405 6037 M 0 -69 R D 6802 6037 M 0 -69 R D
7004 6037 M 0 -69 R D 7147 6037 M 0 -69 R D 7258 6037 M 0 -69 R D
2220 1408 M 0 4629 R D 2220 2306 M 151 0 R D gsave 2109 2165 translate 0 0 M
-588.433 0 N
(0.2) show grestore 2220 3250 M 151 0 R D gsave 2109 3110 translate 0 0 M
-588.433 0 N
(0.4) show grestore 2220 4195 M 151 0 R D gsave 2109 4054 translate 0 0 M
-588.433 0 N
(0.6) show grestore 2220 5140 M 151 0 R D gsave 2109 4999 translate 0 0 M
-588.433 0 N
(0.8) show grestore 2220 1597 M 76 0 R D 2220 1833 M 76 0 R D 2220 2069 M
76 0 R D 2220 2542 M 76 0 R D 2220 2778 M 76 0 R D 2220 3014 M 76 0 R D
2220 3487 M 76 0 R D 2220 3723 M 76 0 R D 2220 3959 M 76 0 R D 2220 4431 M
76 0 R D 2220 4668 M 76 0 R D 2220 4904 M 76 0 R D 2220 5376 M 76 0 R D
2220 5612 M 76 0 R D 2220 5848 M 76 0 R D 7258 1408 M 0 4629 R D 7258 2306 M
-151 0 R D 7258 3250 M -151 0 R D 7258 4195 M -151 0 R D 7258 5140 M
-151 0 R D 7258 1597 M -75 0 R D 7258 1833 M -75 0 R D 7258 2069 M -75 0 R D
7258 2542 M -75 0 R D 7258 2778 M -75 0 R D 7258 3014 M -75 0 R D
7258 3487 M -75 0 R D 7258 3723 M -75 0 R D 7258 3959 M -75 0 R D
7258 4431 M -75 0 R D 7258 4668 M -75 0 R D 7258 4904 M -75 0 R D
7258 5376 M -75 0 R D 7258 5612 M -75 0 R D 7258 5848 M -75 0 R D
4259 1481 M Z 4460 5691 M Z 4428 3495 M Z 4427 3714 M Z 4305 1645 M Z
4302 1716 M Z 4132 3740 M Z 4377 4100 M Z 4386 1821 M Z 4408 5040 M Z
4423 1471 M Z 4289 1420 M Z 4515 4335 M Z 4576 3074 M Z 4519 6023 M Z
4871 3554 M Z 4475 5209 M Z 4270 2892 M Z 4322 1951 M Z 4355 4284 M Z
4339 1713 M Z 4267 2359 M Z 4710 3811 M Z 4685 2736 M Z 4617 5773 M Z
4564 3707 M Z 4683 5568 M Z 4614 6024 M Z 4674 1546 M Z 4653 4395 M Z
4766 1612 M Z 4820 2499 M Z 4343 5755 M Z 4569 2788 M Z 4613 1725 M Z
4587 2410 M Z 4475 5094 M Z 4563 1703 M Z 4527 5643 M Z 4600 2009 M Z
4363 5989 M Z 4305 1533 M Z 4636 3638 M Z 4287 3748 M Z 4234 5487 M Z
4218 5617 M Z 4376 3213 M Z 4459 3809 M Z 4827 1852 M Z 4733 5819 M Z
4702 1794 M Z 4756 3913 M Z 4881 4116 M Z 4668 5401 M Z 4852 1930 M Z
4726 2260 M Z 4924 4391 M Z 4798 4266 M Z 4790 1552 M Z 4802 3050 M Z
4482 2522 M Z 4374 3755 M Z 4333 1503 M Z 4351 5076 M Z 4241 5339 M Z
4262 1724 M Z 4296 2118 M Z 4386 2665 M Z 4334 1782 M Z 4191 3849 M Z
4408 3116 M Z 4447 2840 M Z 4209 1661 M Z 4348 1716 M Z 4166 5433 M Z
4125 5988 M Z 4322 3318 M Z 4364 3387 M Z 4296 2692 M Z 4262 2437 M Z
4099 5122 M Z 4264 3606 M Z 4385 2901 M Z 4230 1854 M Z 4238 4445 M Z
4215 5009 M Z 4212 1698 M Z 4288 4590 M Z 4144 3090 M Z 4093 2951 M Z
4265 2834 M Z 4335 5398 M Z 4408 2059 M Z 4426 1881 M Z 4391 6012 M Z
4354 2911 M Z 4282 4116 M Z 4373 1456 M Z 4181 5645 M Z 4316 3201 M Z
4477 3526 M Z 4438 1907 M Z 4186 5695 M Z 4374 1425 M Z 4470 1474 M Z
4413 2323 M Z 4261 1627 M Z 4629 3590 M Z 4526 3014 M Z 4214 5526 M Z
4535 2656 M Z 4286 5868 M Z 4557 1786 M Z 4638 5886 M Z 4657 2779 M Z
4793 2853 M Z 4698 5931 M Z 4627 3731 M Z 4799 4124 M Z 4867 4764 M Z
4797 2715 M Z 4788 3997 M Z 4826 1493 M Z 5154 2184 M Z 5111 2248 M Z
5165 5034 M Z 5033 1747 M Z 5035 1937 M Z 4972 1670 M Z 5055 3896 M Z
5127 4307 M Z 5045 2083 M Z 5090 5904 M Z 5148 1614 M Z 4926 4621 M Z
4938 4181 M Z 4769 2109 M Z 5180 3906 M Z 5145 3162 M Z 5139 2250 M Z
5149 3360 M Z 5157 1643 M Z 5140 3354 M Z 5072 2579 M Z 5172 2987 M Z
5154 4288 M Z 5202 3120 M Z 5140 5071 M Z 5204 1418 M Z 5033 4147 M Z
4973 2207 M Z 5025 4598 M Z 4996 2938 M Z 4974 5878 M Z 5001 5222 M Z
5008 1755 M Z 4918 1578 M Z 4963 4421 M Z 5007 4563 M Z 4929 4030 M Z
4923 2305 M Z 4920 2618 M Z 5017 3332 M Z 5042 4388 M Z 5127 4757 M Z
5188 3707 M Z 5166 2930 M Z 5038 1605 M Z 5012 3647 M Z 5029 5880 M Z
4986 2971 M Z 5078 2078 M Z 5067 1637 M Z 4965 1732 M Z 5045 4143 M Z
5009 2421 M Z 5008 5753 M Z 4968 4900 M Z 5069 5257 M Z 5085 5900 M Z
5142 4881 M Z 5095 2317 M Z 4815 5834 M Z 4880 2326 M Z 4703 5920 M Z
4694 4016 M Z 4683 3695 M Z 4732 4082 M Z 4726 2786 M Z 4854 4016 M Z
4675 3071 M Z 4577 3204 M Z 4658 5089 M Z 4618 3272 M Z 4536 3341 M Z
4510 2297 M Z 4556 3147 M Z 4554 2038 M Z 4673 4563 M Z 4761 2116 M Z
4547 2913 M Z 4397 4618 M Z 4582 1631 M Z 4431 6022 M Z 4568 1436 M Z
4499 4286 M Z 4536 3804 M Z 4428 3060 M Z 4517 1705 M Z 4529 4145 M Z
4593 3209 M Z 4677 4135 M Z 4489 3243 M Z 4346 5701 M Z 4495 1601 M Z
4429 2300 M Z 4426 5278 M Z 4371 2015 M Z 4572 1802 M Z 4605 4006 M Z
4303 3576 M Z 4327 6026 M Z 4374 1575 M Z 4370 5273 M Z 4368 1859 M Z
4446 1821 M Z 4452 5877 M Z 4086 5434 M Z 4276 5194 M Z 4334 2845 M Z
4133 1449 M Z 4307 2565 M Z 4273 1873 M Z 4373 2113 M Z 4350 3233 M Z
4297 2432 M Z 4336 3393 M Z 4229 5802 M Z 4347 3417 M Z 4358 6011 M Z
4427 5687 M Z 4263 3945 M Z 4318 2350 M Z 4409 5828 M Z 4390 5065 M Z
4644 3297 M Z 4706 5586 M Z 4712 4112 M Z 4742 2744 M Z 4789 5044 M Z
4783 2603 M Z 4823 5569 M Z 4802 1565 M Z 4808 4461 M Z 4881 3896 M Z
4823 2108 M Z 4858 5690 M Z 4233 3362 M Z 4306 3942 M Z 4542 3407 M Z
4500 1649 M Z 4443 1880 M Z 4561 4416 M Z 4527 3896 M Z 4506 4571 M Z
4458 3550 M Z 4567 5669 M Z
%%PageTrailer
end
%%PageResources: font Helvetica
%%Trailer
%%Pages: 1
%%DocumentNeededResources: font Helvetica
%%EOF
