%!PS-Adobe-3.0 EPSF-3.0
%%BoundingBox: 0 0 283 226
%%Title: Graphics produced by IDL
%%For: jlgan@Hserver, /home/jlgan/work/phoenix
%%Creator: IDL Version 7.1.1 (linux x86_64 m64)
%%CreationDate: Mon Jan 28 15:15:53 2013
%%DocumentData: Clean7bit
%%Requirements: color
%%LanguageLevel: 1
%%PageOrder: Ascend
%%Pages: (atend)
%%DocumentNeededResources: (atend)
%%EndComments
%%BeginProlog
%+ prolog.ps -- Prolog for IDL generated PostScript files
%+ Copyright (c) 1988-2009 ITT Visual Information Solutions. All Rights Reserved.
%v 5
/$IDL_DICT 40 dict def $IDL_DICT begin /bdef { bind def } bind def /C
{currentpoint newpath moveto} bdef /CP {currentpoint} bdef /D {currentpoint
stroke moveto} bdef /F {closepath fill} bdef /K { setgray } bdef /M {moveto}
bdef /N {rmoveto} bdef /P {lineto} bdef /R {rlineto} bdef /S {gsave show
grestore} bdef /X {currentpoint pop} bdef /Z {gsave currentpoint lineto 20
setlinewidth 1 setlinecap stroke grestore} bdef /L0 {[] 0 setdash} bdef /L1
{[40 100] 0 setdash} bdef /L2 {[200 200] 0 setdash} bdef /L3 {[200 100 50
100] 0 setdash} bdef /L4 {[300 100 50 100 50 100 50 100] 0 setdash} bdef /L5
{[400 200] 0 setdash} bdef /STDFONT { findfont exch scalefont setfont } bdef
/ISOFONT { findfont dup length dict begin { 1 index /FID ne {def} {pop pop}
ifelse } forall /Encoding ISOLatin1Encoding def currentdict end /idltmpfont
exch definefont exch scalefont setfont } bdef /ISOBULLET { gsave /Helvetica
findfont exch scalefont setfont (\267) show currentpoint grestore moveto}
bdef /MITERLIMIT { 2.5 setmiterlimit } bdef end
%%EndProlog
%%Page: 0 1
%%PageRequirements: color
%%PageResources: (atend)
%%PageOrientation: Portrait
%%PageBoundingBox: 0 0 283 226
%%BeginPageSetup
$IDL_DICT begin 0.0283465 dup scale MITERLIMIT
%%IncludeResource: font Helvetica
423.333 /Helvetica STDFONT
%%EndPageSetup
40 setlinewidth L0 0.000 0.000 0.000 setrgbcolor 2220 1408 M 7114 0 R D
3643 1408 M 0 236 R D gsave 3643 880 translate 0 0 M -305.858 0 N
(-20) show grestore 5421 1408 M 0 236 R D gsave 5421 880 translate 0 0 M
-305.858 0 N
(-15) show grestore 7200 1408 M 0 236 R D gsave 7200 880 translate 0 0 M
-305.858 0 N
(-10) show grestore 8978 1408 M 0 236 R D gsave 8978 880 translate 0 0 M
-188.172 0 N
(-5) show grestore 2220 1408 M 0 118 R D 2576 1408 M 0 118 R D 2931 1408 M
0 118 R D 3287 1408 M 0 118 R D 3999 1408 M 0 118 R D 4354 1408 M 0 118 R D
4710 1408 M 0 118 R D 5066 1408 M 0 118 R D 5777 1408 M 0 118 R D
6133 1408 M 0 118 R D 6488 1408 M 0 118 R D 6844 1408 M 0 118 R D
7556 1408 M 0 118 R D 7911 1408 M 0 118 R D 8267 1408 M 0 118 R D
8623 1408 M 0 118 R D 9334 1408 M 0 118 R D gsave 5777 422 translate 0 0 M
-220.019 0 N
(M) show X -101.051 M
%%IncludeResource: font Helvetica
262.467 /Helvetica STDFONT
(r) show grestore
%%IncludeResource: font Helvetica
423.333 /Helvetica STDFONT 2220 7296 M 7114 0 R D 3643 7296 M 0 -235 R D
5421 7296 M 0 -235 R D 7200 7296 M 0 -235 R D 8978 7296 M 0 -235 R D
2220 7296 M 0 -118 R D 2576 7296 M 0 -118 R D 2931 7296 M 0 -118 R D
3287 7296 M 0 -118 R D 3999 7296 M 0 -118 R D 4354 7296 M 0 -118 R D
4710 7296 M 0 -118 R D 5066 7296 M 0 -118 R D 5777 7296 M 0 -118 R D
6133 7296 M 0 -118 R D 6488 7296 M 0 -118 R D 6844 7296 M 0 -118 R D
7556 7296 M 0 -118 R D 7911 7296 M 0 -118 R D 8267 7296 M 0 -118 R D
8623 7296 M 0 -118 R D 9334 7296 M 0 -118 R D 2220 1408 M 0 5888 R D
2220 1408 M 285 0 R D gsave 2109 1408 translate 0 0 M -588.433 0 N
(0.0) show grestore 2220 2918 M 285 0 R D gsave 2109 2777 translate 0 0 M
-588.433 0 N
(0.1) show grestore 2220 4428 M 285 0 R D gsave 2109 4287 translate 0 0 M
-588.433 0 N
(0.2) show grestore 2220 5937 M 285 0 R D gsave 2109 5796 translate 0 0 M
-588.433 0 N
(0.3) show grestore 2220 1559 M 142 0 R D 2220 1710 M 142 0 R D 2220 1861 M
142 0 R D 2220 2012 M 142 0 R D 2220 2163 M 142 0 R D 2220 2314 M 142 0 R D
2220 2465 M 142 0 R D 2220 2616 M 142 0 R D 2220 2767 M 142 0 R D
2220 3069 M 142 0 R D 2220 3220 M 142 0 R D 2220 3371 M 142 0 R D
2220 3522 M 142 0 R D 2220 3673 M 142 0 R D 2220 3824 M 142 0 R D
2220 3975 M 142 0 R D 2220 4126 M 142 0 R D 2220 4277 M 142 0 R D
2220 4579 M 142 0 R D 2220 4729 M 142 0 R D 2220 4880 M 142 0 R D
2220 5031 M 142 0 R D 2220 5182 M 142 0 R D 2220 5333 M 142 0 R D
2220 5484 M 142 0 R D 2220 5635 M 142 0 R D 2220 5786 M 142 0 R D
2220 6088 M 142 0 R D 2220 6239 M 142 0 R D 2220 6390 M 142 0 R D
2220 6541 M 142 0 R D 2220 6692 M 142 0 R D 2220 6843 M 142 0 R D
2220 6994 M 142 0 R D 2220 7145 M 142 0 R D 2220 7296 M 142 0 R D
gsave 1188 4352 translate 0 0 M 90 rotate -1576.07 0 N
(Number Fraction) show grestore 9334 1408 M 0 5888 R D 9334 1408 M -285 0 R
D 9334 2918 M -285 0 R D 9334 4428 M -285 0 R D 9334 5937 M -285 0 R D
9334 1559 M -142 0 R D 9334 1710 M -142 0 R D 9334 1861 M -142 0 R D
9334 2012 M -142 0 R D 9334 2163 M -142 0 R D 9334 2314 M -142 0 R D
9334 2465 M -142 0 R D 9334 2616 M -142 0 R D 9334 2767 M -142 0 R D
9334 3069 M -142 0 R D 9334 3220 M -142 0 R D 9334 3371 M -142 0 R D
9334 3522 M -142 0 R D 9334 3673 M -142 0 R D 9334 3824 M -142 0 R D
9334 3975 M -142 0 R D 9334 4126 M -142 0 R D 9334 4277 M -142 0 R D
9334 4579 M -142 0 R D 9334 4729 M -142 0 R D 9334 4880 M -142 0 R D
9334 5031 M -142 0 R D 9334 5182 M -142 0 R D 9334 5333 M -142 0 R D
9334 5484 M -142 0 R D 9334 5635 M -142 0 R D 9334 5786 M -142 0 R D
9334 6088 M -142 0 R D 9334 6239 M -142 0 R D 9334 6390 M -142 0 R D
9334 6541 M -142 0 R D 9334 6692 M -142 0 R D 9334 6843 M -142 0 R D
9334 6994 M -142 0 R D 9334 7145 M -142 0 R D 9334 7296 M -142 0 R D
4561 1410 M 710 0 R 0 284 R 710 0 R 710 0 R 0 2031 R 711 0 R 710 0 R
0 -2162 R 710 0 R 512 0 R D
%%PageTrailer
end
%%PageResources: font Helvetica
%%Trailer
%%Pages: 1
%%DocumentNeededResources: font Helvetica
%%EOF
