%!PS-Adobe-3.0 EPSF-3.0
%%BoundingBox: 0 0 283 453
%%Title: Graphics produced by IDL
%%For: jlgan@KASI, /home/jlgan/work/phoenix
%%Creator: IDL Version 7.0 (linux x86_64 m64)
%%CreationDate: Wed Apr  4 22:25:25 2012
%%DocumentData: Clean7bit
%%Requirements: color
%%LanguageLevel: 1
%%PageOrder: Ascend
%%Pages: (atend)
%%DocumentNeededResources: (atend)
%%EndComments
%%BeginProlog
%+ prolog.ps -- Prolog for IDL generated PostScript files
%+ Copyright (c) 1988-2007 ITT Visual Information Solutions. All Rights Reserved.
%v 5
/$IDL_DICT 40 dict def $IDL_DICT begin /bdef { bind def } bind def /C
{currentpoint newpath moveto} bdef /CP {currentpoint} bdef /D {currentpoint
stroke moveto} bdef /F {closepath fill} bdef /K { setgray } bdef /M {moveto}
bdef /N {rmoveto} bdef /P {lineto} bdef /R {rlineto} bdef /S {gsave show
grestore} bdef /X {currentpoint pop} bdef /Z {gsave currentpoint lineto 20
setlinewidth 1 setlinecap stroke grestore} bdef /L0 {[] 0 setdash} bdef /L1
{[40 100] 0 setdash} bdef /L2 {[200 200] 0 setdash} bdef /L3 {[200 100 50
100] 0 setdash} bdef /L4 {[300 100 50 100 50 100 50 100] 0 setdash} bdef /L5
{[400 200] 0 setdash} bdef /STDFONT { findfont exch scalefont setfont } bdef
/ISOFONT { findfont dup length dict begin { 1 index /FID ne {def} {pop pop}
ifelse } forall /Encoding ISOLatin1Encoding def currentdict end /idltmpfont
exch definefont exch scalefont setfont } bdef /ISOBULLET { gsave /Helvetica
findfont exch scalefont setfont (\267) show currentpoint grestore moveto}
bdef /MITERLIMIT { 2.5 setmiterlimit } bdef end
%%EndProlog
%%Page: 0 1
%%PageRequirements: color
%%PageResources: (atend)
%%PageOrientation: Portrait
%%PageBoundingBox: 0 0 283 453
%%BeginPageSetup
$IDL_DICT begin 0.0283465 dup scale MITERLIMIT
%%IncludeResource: font Helvetica
423.333 /Helvetica STDFONT
%%EndPageSetup
0.000 0.000 0.000 setrgbcolor gsave 5777 352 translate 0 0 M -1123.91 0 N
(R) show X -101.051 M
%%IncludeResource: font Helvetica
262.467 /Helvetica STDFONT
(spheroid) show X 0 M
%%IncludeResource: font Helvetica
423.333 /Helvetica STDFONT
( / R) show X -101.051 M
%%IncludeResource: font Helvetica
262.467 /Helvetica STDFONT
(vir) show grestore
%%IncludeResource: font Helvetica
423.333 /Helvetica STDFONT gsave 888 8352 translate 0 0 M 90 rotate
-1105.75 0 N
(Probalablity) show grestore 40 setlinewidth L0 2220 10667 M 7114 0 R D
2349 10667 M 0 185 R D gsave 2349 10139 translate 0 0 M -58.8433 0 N
( ) show grestore 5169 10667 M 0 185 R D gsave 5169 10139 translate 0 0 M
-58.8433 0 N
( ) show grestore 7989 10667 M 0 185 R D gsave 7989 10139 translate 0 0 M
-58.8433 0 N
( ) show grestore 2220 10667 M 0 92 R D 3198 10667 M 0 92 R D 3694 10667 M
0 92 R D 4047 10667 M 0 92 R D 4320 10667 M 0 92 R D 4543 10667 M 0 92 R D
4732 10667 M 0 92 R D 4896 10667 M 0 92 R D 5040 10667 M 0 92 R D
6018 10667 M 0 92 R D 6514 10667 M 0 92 R D 6867 10667 M 0 92 R D
7140 10667 M 0 92 R D 7363 10667 M 0 92 R D 7552 10667 M 0 92 R D
7715 10667 M 0 92 R D 7860 10667 M 0 92 R D 8838 10667 M 0 92 R D
9334 10667 M 0 92 R D 2220 15296 M 7114 0 R D 2349 15296 M 0 -185 R D
5169 15296 M 0 -185 R D 7989 15296 M 0 -185 R D 2220 15296 M 0 -93 R D
3198 15296 M 0 -93 R D 3694 15296 M 0 -93 R D 4047 15296 M 0 -93 R D
4320 15296 M 0 -93 R D 4543 15296 M 0 -93 R D 4732 15296 M 0 -93 R D
4896 15296 M 0 -93 R D 5040 15296 M 0 -93 R D 6018 15296 M 0 -93 R D
6514 15296 M 0 -93 R D 6867 15296 M 0 -93 R D 7140 15296 M 0 -93 R D
7363 15296 M 0 -93 R D 7552 15296 M 0 -93 R D 7715 15296 M 0 -93 R D
7860 15296 M 0 -93 R D 8838 15296 M 0 -93 R D 9334 15296 M 0 -93 R D
2220 10667 M 0 4629 R D 2220 10667 M 285 0 R D
gsave 2109 10667 translate 0 0 M -823.807 0 N
(0.00) show grestore 2220 11958 M 285 0 R D gsave 2109 11817 translate 0 0 M
-823.807 0 N
(0.05) show grestore 2220 13250 M 285 0 R D gsave 2109 13109 translate 0 0 M
-823.807 0 N
(0.10) show grestore 2220 14541 M 285 0 R D gsave 2109 14400 translate 0 0 M
-823.807 0 N
(0.15) show grestore 2220 10925 M 142 0 R D 2220 11183 M 142 0 R D
2220 11442 M 142 0 R D 2220 11700 M 142 0 R D 2220 12216 M 142 0 R D
2220 12475 M 142 0 R D 2220 12733 M 142 0 R D 2220 12991 M 142 0 R D
2220 13508 M 142 0 R D 2220 13766 M 142 0 R D 2220 14024 M 142 0 R D
2220 14283 M 142 0 R D 2220 14799 M 142 0 R D 2220 15058 M 142 0 R D
9334 10667 M 0 4629 R D 9334 10667 M -285 0 R D 9334 11958 M -285 0 R D
9334 13250 M -285 0 R D 9334 14541 M -285 0 R D 9334 10925 M -142 0 R D
9334 11183 M -142 0 R D 9334 11442 M -142 0 R D 9334 11700 M -142 0 R D
9334 12216 M -142 0 R D 9334 12475 M -142 0 R D 9334 12733 M -142 0 R D
9334 12991 M -142 0 R D 9334 13508 M -142 0 R D 9334 13766 M -142 0 R D
9334 14024 M -142 0 R D 9334 14283 M -142 0 R D 9334 14799 M -142 0 R D
9334 15058 M -142 0 R D 0.761 0.000 0.000 setrgbcolor 2220 10690 M 129 0 R
0 11 R 116 0 R 129 0 R 0 8 R 117 0 R 128 0 R 0 27 R 117 0 R 129 0 R 0 -15 R
116 0 R 129 0 R 0 19 R 117 0 R 128 0 R 0 45 R 117 0 R 129 0 R 0 61 R 116 0 R
129 0 R 0 80 R 117 0 R 128 0 R 0 126 R 117 0 R 129 0 R 0 205 R 116 0 R
129 0 R 0 391 R 116 0 R 129 0 R 0 442 R 117 0 R 129 0 R 0 565 R 116 0 R
129 0 R 0 878 R 116 0 R 129 0 R 0 512 R 117 0 R 128 0 R 0 240 R 117 0 R
129 0 R 0 -186 R 116 0 R 129 0 R 0 -672 R 117 0 R 128 0 R 0 -930 R 117 0 R
129 0 R 0 -897 R 116 0 R 129 0 R 0 -485 R 117 0 R 128 0 R 0 -292 R 117 0 R
129 0 R 0 -87 R 116 0 R 129 0 R 0 -19 R 116 0 R 129 0 R 0 -18 R 117 0 R
129 0 R 0 -17 R 116 0 R 129 0 R 0 -8 R 116 0 R 129 0 R 117 0 R 129 0 R
0 -3 R 116 0 R D 0.000 0.549 0.000 setrgbcolor 2220 10680 M 129 0 R 0 10 R
116 0 R 129 0 R 0 -3 R 117 0 R 128 0 R 0 12 R 117 0 R 129 0 R 0 18 R 116 0 R
129 0 R 0 17 R 117 0 R 128 0 R 0 47 R 117 0 R 129 0 R 0 71 R 116 0 R 129 0 R
0 119 R 117 0 R 128 0 R 0 187 R 117 0 R 129 0 R 0 305 R 116 0 R 129 0 R
0 466 R 116 0 R 129 0 R 0 560 R 117 0 R 129 0 R 0 937 R 116 0 R 129 0 R
0 1007 R 116 0 R 129 0 R 0 158 R 117 0 R 128 0 R 0 53 R 117 0 R 129 0 R
0 -901 R 116 0 R 129 0 R 0 -1345 R 117 0 R 128 0 R 0 -979 R 117 0 R 129 0 R
0 -389 R 116 0 R 129 0 R 0 -190 R 117 0 R 128 0 R 0 -102 R 117 0 R 129 0 R
0 -39 R 116 0 R 129 0 R 0 -21 R 116 0 R 129 0 R 0 -10 R 117 0 R 129 0 R
0 3 R 116 0 R 129 0 R 0 -4 R 116 0 R 129 0 R 117 0 R 129 0 R 116 0 R D
0.000 0.000 1.000 setrgbcolor 2220 10683 M 129 0 R 0 11 R 116 0 R 129 0 R
117 0 R 128 0 R 0 18 R 117 0 R 129 0 R 0 6 R 116 0 R 129 0 R 0 18 R 117 0 R
128 0 R 0 46 R 117 0 R 129 0 R 0 68 R 116 0 R 129 0 R 0 106 R 117 0 R
128 0 R 0 167 R 117 0 R 129 0 R 0 272 R 116 0 R 129 0 R 0 441 R 116 0 R
129 0 R 0 520 R 117 0 R 129 0 R 0 813 R 116 0 R 129 0 R 0 964 R 116 0 R
129 0 R 0 276 R 117 0 R 128 0 R 0 116 R 117 0 R 129 0 R 0 -663 R 116 0 R
129 0 R 0 -1121 R 117 0 R 128 0 R 0 -963 R 117 0 R 129 0 R 0 -558 R 116 0 R
129 0 R 0 -288 R 117 0 R 128 0 R 0 -166 R 117 0 R 129 0 R 0 -55 R 116 0 R
129 0 R 0 -20 R 116 0 R 129 0 R 0 -12 R 117 0 R 129 0 R 0 -5 R 116 0 R
129 0 R 0 -5 R 116 0 R 129 0 R 117 0 R 129 0 R 0 -1 R 116 0 R D
0.000 0.000 0.000 setrgbcolor 2220 6037 M 7114 0 R D 2349 6037 M 0 186 R D
gsave 2349 5509 translate 0 0 M -58.8433 0 N
( ) show grestore 5169 6037 M 0 186 R D gsave 5169 5509 translate 0 0 M
-58.8433 0 N
( ) show grestore 7989 6037 M 0 186 R D gsave 7989 5509 translate 0 0 M
-58.8433 0 N
( ) show grestore 2220 6037 M 0 93 R D 3198 6037 M 0 93 R D 3694 6037 M
0 93 R D 4047 6037 M 0 93 R D 4320 6037 M 0 93 R D 4543 6037 M 0 93 R D
4732 6037 M 0 93 R D 4896 6037 M 0 93 R D 5040 6037 M 0 93 R D 6018 6037 M
0 93 R D 6514 6037 M 0 93 R D 6867 6037 M 0 93 R D 7140 6037 M 0 93 R D
7363 6037 M 0 93 R D 7552 6037 M 0 93 R D 7715 6037 M 0 93 R D 7860 6037 M
0 93 R D 8838 6037 M 0 93 R D 9334 6037 M 0 93 R D 2220 10667 M 7114 0 R D
2349 10667 M 0 -185 R D 5169 10667 M 0 -185 R D 7989 10667 M 0 -185 R D
2220 10667 M 0 -93 R D 3198 10667 M 0 -93 R D 3694 10667 M 0 -93 R D
4047 10667 M 0 -93 R D 4320 10667 M 0 -93 R D 4543 10667 M 0 -93 R D
4732 10667 M 0 -93 R D 4896 10667 M 0 -93 R D 5040 10667 M 0 -93 R D
6018 10667 M 0 -93 R D 6514 10667 M 0 -93 R D 6867 10667 M 0 -93 R D
7140 10667 M 0 -93 R D 7363 10667 M 0 -93 R D 7552 10667 M 0 -93 R D
7715 10667 M 0 -93 R D 7860 10667 M 0 -93 R D 8838 10667 M 0 -93 R D
9334 10667 M 0 -93 R D 2220 6037 M 0 4630 R D 2220 6037 M 285 0 R D
gsave 2109 6037 translate 0 0 M -823.807 0 N
(0.00) show grestore 2220 7350 M 285 0 R D gsave 2109 7210 translate 0 0 M
-823.807 0 N
(0.05) show grestore 2220 8663 M 285 0 R D gsave 2109 8523 translate 0 0 M
-823.807 0 N
(0.10) show grestore 2220 9976 M 285 0 R D gsave 2109 9836 translate 0 0 M
-823.807 0 N
(0.15) show grestore 2220 6300 M 142 0 R D 2220 6563 M 142 0 R D 2220 6825 M
142 0 R D 2220 7088 M 142 0 R D 2220 7613 M 142 0 R D 2220 7876 M 142 0 R D
2220 8138 M 142 0 R D 2220 8401 M 142 0 R D 2220 8926 M 142 0 R D
2220 9189 M 142 0 R D 2220 9451 M 142 0 R D 2220 9714 M 142 0 R D
2220 10239 M 142 0 R D 2220 10501 M 142 0 R D 9334 6037 M 0 4630 R D
9334 6037 M -285 0 R D 9334 7350 M -285 0 R D 9334 8663 M -285 0 R D
9334 9976 M -285 0 R D 9334 6300 M -142 0 R D 9334 6563 M -142 0 R D
9334 6825 M -142 0 R D 9334 7088 M -142 0 R D 9334 7613 M -142 0 R D
9334 7876 M -142 0 R D 9334 8138 M -142 0 R D 9334 8401 M -142 0 R D
9334 8926 M -142 0 R D 9334 9189 M -142 0 R D 9334 9451 M -142 0 R D
9334 9714 M -142 0 R D 9334 10239 M -142 0 R D 9334 10501 M -142 0 R D
0.761 0.000 0.000 setrgbcolor 2220 6068 M 129 0 R 0 7 R 116 0 R 129 0 R
0 10 R 117 0 R 128 0 R 0 26 R 117 0 R 129 0 R 0 -15 R 116 0 R 129 0 R 0 42 R
117 0 R 128 0 R 0 28 R 117 0 R 129 0 R 0 67 R 116 0 R 129 0 R 0 46 R 117 0 R
128 0 R 0 126 R 117 0 R 129 0 R 0 207 R 116 0 R 129 0 R 0 411 R 116 0 R
129 0 R 0 549 R 117 0 R 129 0 R 0 682 R 116 0 R 129 0 R 0 651 R 116 0 R
129 0 R 0 415 R 117 0 R 128 0 R 0 410 R 117 0 R 129 0 R 0 -114 R 116 0 R
129 0 R 0 -798 R 117 0 R 128 0 R 0 -960 R 117 0 R 129 0 R 0 -924 R 116 0 R
129 0 R 0 -502 R 117 0 R 128 0 R 0 -229 R 117 0 R 129 0 R 0 -85 R 116 0 R
129 0 R 0 -31 R 116 0 R 129 0 R 0 -24 R 117 0 R 129 0 R 0 -14 R 116 0 R
129 0 R 0 -4 R 116 0 R 129 0 R 117 0 R 129 0 R 0 -2 R 116 0 R D
0.000 0.549 0.000 setrgbcolor 2220 6057 M 129 0 R 0 -5 R 116 0 R 129 0 R
0 17 R 117 0 R 128 0 R 0 -4 R 117 0 R 129 0 R 0 16 R 116 0 R 129 0 R 0 21 R
117 0 R 128 0 R 0 56 R 117 0 R 129 0 R 0 64 R 116 0 R 129 0 R 0 50 R 117 0 R
128 0 R 0 232 R 117 0 R 129 0 R 0 384 R 116 0 R 129 0 R 0 465 R 116 0 R
129 0 R 0 788 R 117 0 R 129 0 R 0 820 R 116 0 R 129 0 R 0 335 R 116 0 R
129 0 R 0 597 R 117 0 R 128 0 R 0 142 R 117 0 R 129 0 R 0 -878 R 116 0 R
129 0 R 0 -1221 R 117 0 R 128 0 R 0 -931 R 117 0 R 129 0 R 0 -557 R 116 0 R
129 0 R 0 -210 R 117 0 R 128 0 R 0 -119 R 117 0 R 129 0 R 0 -49 R 116 0 R
129 0 R 0 -13 R 116 0 R 129 0 R 0 -12 R 117 0 R 129 0 R 0 -5 R 116 0 R
129 0 R 0 -3 R 116 0 R 129 0 R 0 3 R 117 0 R 129 0 R 116 0 R D
0.000 0.000 1.000 setrgbcolor 2220 6062 M 129 0 R 116 0 R 129 0 R 0 15 R
117 0 R 128 0 R 0 9 R 117 0 R 129 0 R 0 2 R 116 0 R 129 0 R 0 31 R 117 0 R
128 0 R 0 42 R 117 0 R 129 0 R 0 66 R 116 0 R 129 0 R 0 49 R 117 0 R 128 0 R
0 183 R 117 0 R 129 0 R 0 303 R 116 0 R 129 0 R 0 440 R 116 0 R 129 0 R
0 679 R 117 0 R 129 0 R 0 756 R 116 0 R 129 0 R 0 480 R 116 0 R 129 0 R
0 513 R 117 0 R 128 0 R 0 265 R 117 0 R 129 0 R 0 -528 R 116 0 R 129 0 R
0 -1027 R 117 0 R 128 0 R 0 -944 R 117 0 R 129 0 R 0 -725 R 116 0 R 129 0 R
0 -344 R 117 0 R 128 0 R 0 -169 R 117 0 R 129 0 R 0 -66 R 116 0 R 129 0 R
0 -21 R 116 0 R 129 0 R 0 -18 R 117 0 R 129 0 R 0 -9 R 116 0 R 129 0 R
0 -3 R 116 0 R 129 0 R 0 1 R 117 0 R 129 0 R 0 -1 R 116 0 R D
0.000 0.000 0.000 setrgbcolor 2220 1408 M 7114 0 R D 2349 1408 M 0 185 R D
gsave 2349 880 translate 0 0 M -529.59 0 N
(0.001) show grestore 5169 1408 M 0 185 R D gsave 5169 880 translate 0 0 M
-529.59 0 N
(0.010) show grestore 7989 1408 M 0 185 R D gsave 7989 880 translate 0 0 M
-529.59 0 N
(0.100) show grestore 2220 1408 M 0 93 R D 3198 1408 M 0 93 R D 3694 1408 M
0 93 R D 4047 1408 M 0 93 R D 4320 1408 M 0 93 R D 4543 1408 M 0 93 R D
4732 1408 M 0 93 R D 4896 1408 M 0 93 R D 5040 1408 M 0 93 R D 6018 1408 M
0 93 R D 6514 1408 M 0 93 R D 6867 1408 M 0 93 R D 7140 1408 M 0 93 R D
7363 1408 M 0 93 R D 7552 1408 M 0 93 R D 7715 1408 M 0 93 R D 7860 1408 M
0 93 R D 8838 1408 M 0 93 R D 9334 1408 M 0 93 R D 2220 6037 M 7114 0 R D
2349 6037 M 0 -185 R D 5169 6037 M 0 -185 R D 7989 6037 M 0 -185 R D
2220 6037 M 0 -92 R D 3198 6037 M 0 -92 R D 3694 6037 M 0 -92 R D
4047 6037 M 0 -92 R D 4320 6037 M 0 -92 R D 4543 6037 M 0 -92 R D
4732 6037 M 0 -92 R D 4896 6037 M 0 -92 R D 5040 6037 M 0 -92 R D
6018 6037 M 0 -92 R D 6514 6037 M 0 -92 R D 6867 6037 M 0 -92 R D
7140 6037 M 0 -92 R D 7363 6037 M 0 -92 R D 7552 6037 M 0 -92 R D
7715 6037 M 0 -92 R D 7860 6037 M 0 -92 R D 8838 6037 M 0 -92 R D
9334 6037 M 0 -92 R D 2220 1408 M 0 4629 R D 2220 1408 M 285 0 R D
gsave 2109 1408 translate 0 0 M -823.807 0 N
(0.00) show grestore 2220 2737 M 285 0 R D gsave 2109 2596 translate 0 0 M
-823.807 0 N
(0.05) show grestore 2220 4065 M 285 0 R D gsave 2109 3925 translate 0 0 M
-823.807 0 N
(0.10) show grestore 2220 5394 M 285 0 R D gsave 2109 5253 translate 0 0 M
-823.807 0 N
(0.15) show grestore 2220 1674 M 142 0 R D 2220 1940 M 142 0 R D 2220 2205 M
142 0 R D 2220 2471 M 142 0 R D 2220 3002 M 142 0 R D 2220 3268 M 142 0 R D
2220 3534 M 142 0 R D 2220 3800 M 142 0 R D 2220 4331 M 142 0 R D
2220 4597 M 142 0 R D 2220 4863 M 142 0 R D 2220 5128 M 142 0 R D
2220 5660 M 142 0 R D 2220 5926 M 142 0 R D 9334 1408 M 0 4629 R D
9334 1408 M -285 0 R D 9334 2737 M -285 0 R D 9334 4065 M -285 0 R D
9334 5394 M -285 0 R D 9334 1674 M -142 0 R D 9334 1940 M -142 0 R D
9334 2205 M -142 0 R D 9334 2471 M -142 0 R D 9334 3002 M -142 0 R D
9334 3268 M -142 0 R D 9334 3534 M -142 0 R D 9334 3800 M -142 0 R D
9334 4331 M -142 0 R D 9334 4597 M -142 0 R D 9334 4863 M -142 0 R D
9334 5128 M -142 0 R D 9334 5660 M -142 0 R D 9334 5926 M -142 0 R D
0.761 0.000 0.000 setrgbcolor 2220 1432 M 129 0 R 0 13 R 116 0 R 129 0 R
0 8 R 117 0 R 128 0 R 0 10 R 117 0 R 129 0 R 0 2 R 116 0 R 129 0 R 0 32 R
117 0 R 128 0 R 0 43 R 117 0 R 129 0 R 0 43 R 116 0 R 129 0 R 0 91 R 117 0 R
128 0 R 0 135 R 117 0 R 129 0 R 0 283 R 116 0 R 129 0 R 0 439 R 116 0 R
129 0 R 0 641 R 117 0 R 129 0 R 0 634 R 116 0 R 129 0 R 0 581 R 116 0 R
129 0 R 0 548 R 117 0 R 128 0 R 0 342 R 117 0 R 129 0 R 0 -383 R 116 0 R
129 0 R 0 -928 R 117 0 R 128 0 R 0 -1028 R 117 0 R 129 0 R 0 -797 R 116 0 R
129 0 R 0 -393 R 117 0 R 128 0 R 0 -198 R 117 0 R 129 0 R 0 -75 R 116 0 R
129 0 R 0 -22 R 116 0 R 129 0 R 0 -20 R 117 0 R 129 0 R 0 -15 R 116 0 R
129 0 R 0 -3 R 116 0 R 129 0 R 0 -1 R 117 0 R 129 0 R 0 -4 R 116 0 R D
0.000 0.549 0.000 setrgbcolor 2220 1428 M 129 0 R 116 0 R 129 0 R 0 9 R
117 0 R 128 0 R 0 12 R 117 0 R 129 0 R 0 -6 R 116 0 R 129 0 R 0 49 R 117 0 R
128 0 R 0 41 R 117 0 R 129 0 R 0 66 R 116 0 R 129 0 R 0 119 R 117 0 R
128 0 R 0 237 R 117 0 R 129 0 R 0 252 R 116 0 R 129 0 R 0 614 R 116 0 R
129 0 R 0 860 R 117 0 R 129 0 R 0 561 R 116 0 R 129 0 R 0 712 R 116 0 R
129 0 R 0 429 R 117 0 R 128 0 R 0 -151 R 117 0 R 129 0 R 0 -935 R 116 0 R
129 0 R 0 -1129 R 117 0 R 128 0 R 0 -848 R 117 0 R 129 0 R 0 -426 R 116 0 R
129 0 R 0 -251 R 117 0 R 128 0 R 0 -139 R 117 0 R 129 0 R 0 -29 R 116 0 R
129 0 R 0 -26 R 116 0 R 129 0 R 0 -32 R 117 0 R 129 0 R 0 -6 R 116 0 R
129 0 R 116 0 R 129 0 R 0 6 R 117 0 R 129 0 R 0 -9 R 116 0 R D
0.000 0.000 1.000 setrgbcolor 2220 1431 M 129 0 R 0 10 R 116 0 R 129 0 R
0 8 R 117 0 R 128 0 R 0 10 R 117 0 R 129 0 R 0 1 R 116 0 R 129 0 R 0 35 R
117 0 R 128 0 R 0 43 R 117 0 R 129 0 R 0 49 R 116 0 R 129 0 R 0 98 R 117 0 R
128 0 R 0 161 R 117 0 R 129 0 R 0 275 R 116 0 R 129 0 R 0 483 R 116 0 R
129 0 R 0 696 R 117 0 R 129 0 R 0 615 R 116 0 R 129 0 R 0 615 R 116 0 R
129 0 R 0 517 R 117 0 R 128 0 R 0 219 R 117 0 R 129 0 R 0 -522 R 116 0 R
129 0 R 0 -979 R 117 0 R 128 0 R 0 -982 R 117 0 R 129 0 R 0 -704 R 116 0 R
129 0 R 0 -358 R 117 0 R 128 0 R 0 -183 R 117 0 R 129 0 R 0 -63 R 116 0 R
129 0 R 0 -23 R 116 0 R 129 0 R 0 -23 R 117 0 R 129 0 R 0 -13 R 116 0 R
129 0 R 0 -2 R 116 0 R 129 0 R 0 1 R 117 0 R 129 0 R 0 -5 R 116 0 R D
0.761 0.000 0.000 setrgbcolor 2931 4186 M 72 0 R 71 0 R 71 0 R 71 0 R 71 0 R
71 0 R 71 0 R 72 0 R 71 0 R D 0.000 0.549 0.000 setrgbcolor 2931 3769 M
72 0 R 71 0 R 71 0 R 71 0 R 71 0 R 71 0 R 71 0 R 72 0 R 71 0 R D
0.000 0.000 1.000 setrgbcolor 2931 3352 M 72 0 R 71 0 R 71 0 R 71 0 R 71 0 R
71 0 R 71 0 R 72 0 R 71 0 R D 0.761 0.000 0.000 setrgbcolor
gsave 3643 4002 translate 0 0 M
(satellite) show grestore 0.000 0.549 0.000 setrgbcolor
gsave 3643 3586 translate 0 0 M
(central) show grestore 0.000 0.000 1.000 setrgbcolor
gsave 3643 3169 translate 0 0 M
(all) show grestore
%%PageTrailer
end
%%PageResources: font Helvetica
%%Trailer
%%Pages: 1
%%DocumentNeededResources: font Helvetica
%%EOF
