%!PS-Adobe-3.0 EPSF-3.0
%%BoundingBox: 0 0 510 425
%%Title: Graphics produced by IDL
%%For: dacia@Lserver, /home/dacia/work/subhalo_model
%%Creator: IDL Version 7.0 (linux x86_64 m64)
%%CreationDate: Sun May  9 14:22:32 2010
%%DocumentData: Clean7bit
%%Requirements: color
%%LanguageLevel: 1
%%PageOrder: Ascend
%%Pages: (atend)
%%DocumentNeededResources: (atend)
%%EndComments
%%BeginProlog
%+ prolog.ps -- Prolog for IDL generated PostScript files
%+ Copyright (c) 1988-2007 ITT Visual Information Solutions. All Rights Reserved.
%v 5
/$IDL_DICT 40 dict def $IDL_DICT begin /bdef { bind def } bind def /C
{currentpoint newpath moveto} bdef /CP {currentpoint} bdef /D {currentpoint
stroke moveto} bdef /F {closepath fill} bdef /K { setgray } bdef /M {moveto}
bdef /N {rmoveto} bdef /P {lineto} bdef /R {rlineto} bdef /S {gsave show
grestore} bdef /X {currentpoint pop} bdef /Z {gsave currentpoint lineto 20
setlinewidth 1 setlinecap stroke grestore} bdef /L0 {[] 0 setdash} bdef /L1
{[40 100] 0 setdash} bdef /L2 {[200 200] 0 setdash} bdef /L3 {[200 100 50
100] 0 setdash} bdef /L4 {[300 100 50 100 50 100 50 100] 0 setdash} bdef /L5
{[400 200] 0 setdash} bdef /STDFONT { findfont exch scalefont setfont } bdef
/ISOFONT { findfont dup length dict begin { 1 index /FID ne {def} {pop pop}
ifelse } forall /Encoding ISOLatin1Encoding def currentdict end /idltmpfont
exch definefont exch scalefont setfont } bdef /ISOBULLET { gsave /Helvetica
findfont exch scalefont setfont (\267) show currentpoint grestore moveto}
bdef /MITERLIMIT { 2.5 setmiterlimit } bdef end
%%EndProlog
%%Page: 0 1
%%PageRequirements: color
%%PageResources: (atend)
%%PageOrientation: Portrait
%%PageBoundingBox: 0 0 510 425
%%BeginPageSetup
$IDL_DICT begin 0.0283465 dup scale MITERLIMIT
%%IncludeResource: font Helvetica
423.333 /Helvetica STDFONT
%%EndPageSetup
40 setlinewidth L0 0.000 0.000 0.000 setrgbcolor 1620 8550 M 6840 0 R D
1620 8550 M 0 228 R D gsave 1620 8022 translate 0 0 M -117.687 0 N
(0) show grestore 2988 8550 M 0 228 R D gsave 2988 8022 translate 0 0 M
-117.687 0 N
(1) show grestore 4356 8550 M 0 228 R D gsave 4356 8022 translate 0 0 M
-117.687 0 N
(2) show grestore 5724 8550 M 0 228 R D gsave 5724 8022 translate 0 0 M
-117.687 0 N
(3) show grestore 7092 8550 M 0 228 R D gsave 7092 8022 translate 0 0 M
-117.687 0 N
(4) show grestore 8460 8550 M 0 228 R D gsave 8460 8022 translate 0 0 M
-117.687 0 N
(5) show grestore 1757 8550 M 0 114 R D 1894 8550 M 0 114 R D 2030 8550 M
0 114 R D 2167 8550 M 0 114 R D 2304 8550 M 0 114 R D 2441 8550 M 0 114 R D
2578 8550 M 0 114 R D 2714 8550 M 0 114 R D 2851 8550 M 0 114 R D
3125 8550 M 0 114 R D 3262 8550 M 0 114 R D 3398 8550 M 0 114 R D
3535 8550 M 0 114 R D 3672 8550 M 0 114 R D 3809 8550 M 0 114 R D
3946 8550 M 0 114 R D 4082 8550 M 0 114 R D 4219 8550 M 0 114 R D
4493 8550 M 0 114 R D 4630 8550 M 0 114 R D 4766 8550 M 0 114 R D
4903 8550 M 0 114 R D 5040 8550 M 0 114 R D 5177 8550 M 0 114 R D
5314 8550 M 0 114 R D 5450 8550 M 0 114 R D 5587 8550 M 0 114 R D
5861 8550 M 0 114 R D 5998 8550 M 0 114 R D 6134 8550 M 0 114 R D
6271 8550 M 0 114 R D 6408 8550 M 0 114 R D 6545 8550 M 0 114 R D
6682 8550 M 0 114 R D 6818 8550 M 0 114 R D 6955 8550 M 0 114 R D
7229 8550 M 0 114 R D 7366 8550 M 0 114 R D 7502 8550 M 0 114 R D
7639 8550 M 0 114 R D 7776 8550 M 0 114 R D 7913 8550 M 0 114 R D
8050 8550 M 0 114 R D 8186 8550 M 0 114 R D 8323 8550 M 0 114 R D
gsave 5040 7564 translate 0 0 M -999.702 0 N
(redshift \(z\)) show grestore 1620 14250 M 6840 0 R D 1620 14250 M 0 -228 R
D 2988 14250 M 0 -228 R D 4356 14250 M 0 -228 R D 5724 14250 M 0 -228 R D
7092 14250 M 0 -228 R D 8460 14250 M 0 -228 R D 1757 14250 M 0 -114 R D
1894 14250 M 0 -114 R D 2030 14250 M 0 -114 R D 2167 14250 M 0 -114 R D
2304 14250 M 0 -114 R D 2441 14250 M 0 -114 R D 2578 14250 M 0 -114 R D
2714 14250 M 0 -114 R D 2851 14250 M 0 -114 R D 3125 14250 M 0 -114 R D
3262 14250 M 0 -114 R D 3398 14250 M 0 -114 R D 3535 14250 M 0 -114 R D
3672 14250 M 0 -114 R D 3809 14250 M 0 -114 R D 3946 14250 M 0 -114 R D
4082 14250 M 0 -114 R D 4219 14250 M 0 -114 R D 4493 14250 M 0 -114 R D
4630 14250 M 0 -114 R D 4766 14250 M 0 -114 R D 4903 14250 M 0 -114 R D
5040 14250 M 0 -114 R D 5177 14250 M 0 -114 R D 5314 14250 M 0 -114 R D
5450 14250 M 0 -114 R D 5587 14250 M 0 -114 R D 5861 14250 M 0 -114 R D
5998 14250 M 0 -114 R D 6134 14250 M 0 -114 R D 6271 14250 M 0 -114 R D
6408 14250 M 0 -114 R D 6545 14250 M 0 -114 R D 6682 14250 M 0 -114 R D
6818 14250 M 0 -114 R D 6955 14250 M 0 -114 R D 7229 14250 M 0 -114 R D
7366 14250 M 0 -114 R D 7502 14250 M 0 -114 R D 7639 14250 M 0 -114 R D
7776 14250 M 0 -114 R D 7913 14250 M 0 -114 R D 8050 14250 M 0 -114 R D
8186 14250 M 0 -114 R D 8323 14250 M 0 -114 R D 1620 8550 M 0 5700 R D
1620 9644 M 274 0 R D gsave 1509 9503 translate 0 0 M -588.433 0 N
(0.2) show grestore 1620 10796 M 274 0 R D gsave 1509 10655 translate 0 0 M
-588.433 0 N
(0.4) show grestore 1620 11947 M 274 0 R D gsave 1509 11806 translate 0 0 M
-588.433 0 N
(0.6) show grestore 1620 13099 M 274 0 R D gsave 1509 12958 translate 0 0 M
-588.433 0 N
(0.8) show grestore 1620 14250 M 274 0 R D gsave 1509 14004 translate 0 0 M
-588.433 0 N
(1.0) show grestore 1620 8780 M 137 0 R D 1620 9068 M 137 0 R D 1620 9356 M
137 0 R D 1620 9932 M 137 0 R D 1620 10220 M 137 0 R D 1620 10508 M 137 0 R
D 1620 11083 M 137 0 R D 1620 11371 M 137 0 R D 1620 11659 M 137 0 R D
1620 12235 M 137 0 R D 1620 12523 M 137 0 R D 1620 12811 M 137 0 R D
1620 13387 M 137 0 R D 1620 13674 M 137 0 R D 1620 13962 M 137 0 R D
gsave 588 11400 translate 0 0 M 90 rotate -1146.39 0 N
(M\(z\)/M\(z=0\)) show grestore 8460 8550 M 0 5700 R D 8460 9644 M -274 0 R
D 8460 10796 M -274 0 R D 8460 11947 M -274 0 R D 8460 13099 M -274 0 R D
8460 14250 M -274 0 R D 8460 8780 M -137 0 R D 8460 9068 M -137 0 R D
8460 9356 M -137 0 R D 8460 9932 M -137 0 R D 8460 10220 M -137 0 R D
8460 10508 M -137 0 R D 8460 11083 M -137 0 R D 8460 11371 M -137 0 R D
8460 11659 M -137 0 R D 8460 12235 M -137 0 R D 8460 12523 M -137 0 R D
8460 12811 M -137 0 R D 8460 13387 M -137 0 R D 8460 13674 M -137 0 R D
8460 13962 M -137 0 R D 1620 14250 M 94 -91 R 101 -96 R 107 -103 R
115 -489 R 123 -130 R 131 -120 R 140 -116 R 150 -135 R 160 -154 R 171 -153 R
183 -153 R 195 -169 R 209 -1070 R 223 -143 R 239 -161 R 255 -120 R
272 -143 R 292 -131 R 311 -367 R 333 -142 R 355 -161 R 380 -120 R 406 -169 R
434 -729 R 464 -36 R 496 -38 R 501 -162 R D 10260 8550 M 6840 0 R D
10260 8550 M 0 228 R D gsave 10260 8022 translate 0 0 M -117.687 0 N
(0) show grestore 11754 8550 M 0 228 R D gsave 11754 8022 translate 0 0 M
-235.373 0 N
(50) show grestore 13247 8550 M 0 228 R D gsave 13247 8022 translate 0 0 M
-353.06 0 N
(100) show grestore 14740 8550 M 0 228 R D gsave 14740 8022 translate 0 0 M
-353.06 0 N
(150) show grestore 16234 8550 M 0 228 R D gsave 16234 8022 translate 0 0 M
-353.06 0 N
(200) show grestore 10559 8550 M 0 114 R D 10857 8550 M 0 114 R D
11156 8550 M 0 114 R D 11455 8550 M 0 114 R D 12052 8550 M 0 114 R D
12351 8550 M 0 114 R D 12650 8550 M 0 114 R D 12948 8550 M 0 114 R D
13546 8550 M 0 114 R D 13844 8550 M 0 114 R D 14143 8550 M 0 114 R D
14442 8550 M 0 114 R D 15039 8550 M 0 114 R D 15338 8550 M 0 114 R D
15637 8550 M 0 114 R D 15935 8550 M 0 114 R D 16533 8550 M 0 114 R D
16831 8550 M 0 114 R D gsave 13680 7564 translate 0 0 M -458.682 0 N
(r/kpc) show grestore 10260 14250 M 6840 0 R D 10260 14250 M 0 -228 R D
11754 14250 M 0 -228 R D 13247 14250 M 0 -228 R D 14740 14250 M 0 -228 R D
16234 14250 M 0 -228 R D 10559 14250 M 0 -114 R D 10857 14250 M 0 -114 R D
11156 14250 M 0 -114 R D 11455 14250 M 0 -114 R D 12052 14250 M 0 -114 R D
12351 14250 M 0 -114 R D 12650 14250 M 0 -114 R D 12948 14250 M 0 -114 R D
13546 14250 M 0 -114 R D 13844 14250 M 0 -114 R D 14143 14250 M 0 -114 R D
14442 14250 M 0 -114 R D 15039 14250 M 0 -114 R D 15338 14250 M 0 -114 R D
15637 14250 M 0 -114 R D 15935 14250 M 0 -114 R D 16533 14250 M 0 -114 R D
16831 14250 M 0 -114 R D 10260 8550 M 0 5700 R D 10260 9638 M 274 0 R D
gsave 10149 9497 translate 0 0 M -588.433 0 N
(0.2) show grestore 10260 10783 M 274 0 R D
gsave 10149 10642 translate 0 0 M -588.433 0 N
(0.4) show grestore 10260 11928 M 274 0 R D
gsave 10149 11787 translate 0 0 M -588.433 0 N
(0.6) show grestore 10260 13073 M 274 0 R D
gsave 10149 12932 translate 0 0 M -588.433 0 N
(0.8) show grestore 10260 14218 M 274 0 R D
gsave 10149 14004 translate 0 0 M -588.433 0 N
(1.0) show grestore 10260 8779 M 137 0 R D 10260 9065 M 137 0 R D
10260 9352 M 137 0 R D 10260 9924 M 137 0 R D 10260 10210 M 137 0 R D
10260 10497 M 137 0 R D 10260 11069 M 137 0 R D 10260 11355 M 137 0 R D
10260 11642 M 137 0 R D 10260 12214 M 137 0 R D 10260 12500 M 137 0 R D
10260 12787 M 137 0 R D 10260 13359 M 137 0 R D 10260 13645 M 137 0 R D
10260 13932 M 137 0 R D gsave 9228 11400 translate 0 0 M 90 rotate
-1399.33 0 N
(M\(<r,z\)/M\(z=0\)) show grestore 17100 8550 M 0 5700 R D 17100 9638 M
-273 0 R D 17100 10783 M -273 0 R D 17100 11928 M -273 0 R D 17100 13073 M
-273 0 R D 17100 14218 M -273 0 R D 17100 8779 M -137 0 R D 17100 9065 M
-137 0 R D 17100 9352 M -137 0 R D 17100 9924 M -137 0 R D 17100 10210 M
-137 0 R D 17100 10497 M -137 0 R D 17100 11069 M -137 0 R D 17100 11355 M
-137 0 R D 17100 11642 M -137 0 R D 17100 12214 M -137 0 R D 17100 12500 M
-137 0 R D 17100 12787 M -137 0 R D 17100 13359 M -137 0 R D 17100 13645 M
-137 0 R D 17100 13932 M -137 0 R D 1.000 0.000 0.706 setrgbcolor
10428 8550 M 52 33 R 73 57 R 72 65 R 73 71 R 72 75 R 73 79 R 72 82 R 73 83 R
72 84 R 73 85 R 72 86 R 73 85 R 72 86 R 72 85 R 73 84 R 72 84 R 73 83 R
72 82 R 73 82 R 72 81 R 73 79 R 72 79 R 73 78 R 72 77 R 73 76 R 72 75 R
73 74 R 72 73 R 72 73 R 73 71 R 72 70 R 73 70 R 72 68 R 73 68 R 72 67 R
73 66 R 72 65 R 73 64 R 72 64 R 73 63 R 72 62 R 72 61 R 73 60 R 72 60 R
73 59 R 72 59 R 73 57 R 72 57 R 73 57 R 72 55 R 73 55 R 72 55 R 73 54 R
72 53 R 72 52 R 73 53 R 72 51 R 73 51 R 72 50 R 73 50 R 72 50 R 73 49 R
72 48 R 73 48 R 72 47 R 73 47 R 72 47 R 73 46 R 72 45 R 72 45 R 73 45 R
72 44 R 73 44 R 72 44 R 73 43 R 72 43 R 73 42 R 72 42 R 73 41 R 72 41 R
73 41 R 72 41 R 72 40 R 73 40 R 72 39 R 73 39 R 72 39 R 73 38 R 72 38 R
73 38 R 72 38 R 73 37 R 25 12 R D L1 0.506 0.000 0.000 setrgbcolor
10453 8550 M 24 12 R 71 44 R 71 52 R 71 58 R 72 62 R 71 66 R 71 69 R 71 70 R
72 73 R 71 73 R 71 75 R 71 75 R 71 76 R 72 75 R 71 76 R 71 76 R 71 75 R
72 75 R 71 75 R 71 74 R 71 74 R 72 73 R 71 72 R 71 72 R 71 71 R 71 71 R
72 70 R 71 69 R 71 68 R 71 68 R 72 67 R 71 67 R 71 65 R 71 65 R 71 65 R
72 63 R 71 63 R 71 63 R 71 61 R 72 61 R 71 61 R 71 59 R 71 60 R 71 58 R
72 58 R 71 57 R 71 57 R 71 56 R 72 56 R 71 54 R 71 55 R 71 54 R 72 53 R
71 53 R 71 52 R 71 52 R 71 51 R 72 51 R 71 50 R 71 50 R 71 49 R 72 49 R
71 49 R 71 48 R 71 47 R 71 47 R 72 47 R 71 46 R 71 46 R 71 46 R 72 45 R
71 44 R 71 45 R 71 44 R 71 43 R 72 43 R 71 43 R 71 42 R 71 43 R 72 41 R
71 42 R 71 41 R 71 40 R 72 41 R 71 40 R 71 40 R 71 39 R 71 39 R 72 39 R
71 39 R 71 38 R 71 38 R 72 38 R 70 36 R D L2 1.000 0.349 0.000 setrgbcolor
10484 8550 M 51 24 R 67 38 R 68 43 R 68 46 R 68 50 R 68 53 R 68 55 R 68 56 R
67 58 R 68 59 R 68 60 R 68 61 R 68 61 R 68 61 R 68 62 R 67 62 R 68 62 R
68 62 R 68 61 R 68 62 R 68 61 R 68 61 R 67 61 R 68 60 R 68 60 R 68 60 R
68 59 R 68 59 R 68 58 R 67 58 R 68 57 R 68 57 R 68 57 R 68 56 R 68 55 R
68 56 R 67 54 R 68 54 R 68 54 R 68 53 R 68 53 R 68 52 R 68 52 R 67 51 R
68 51 R 68 51 R 68 50 R 68 49 R 68 49 R 68 49 R 67 48 R 68 48 R 68 48 R
68 47 R 68 46 R 68 46 R 68 46 R 67 46 R 68 45 R 68 44 R 68 45 R 68 44 R
68 43 R 68 43 R 67 43 R 68 43 R 68 42 R 68 42 R 68 41 R 68 41 R 68 41 R
67 41 R 68 40 R 68 40 R 68 39 R 68 40 R 68 39 R 68 38 R 67 39 R 68 38 R
68 37 R 68 38 R 68 37 R 68 37 R 68 37 R 67 36 R 68 37 R 68 35 R 68 36 R
68 36 R 68 35 R 68 35 R 67 34 R 68 35 R 68 34 R 68 34 R D L3
0.000 0.549 0.000 setrgbcolor 10516 8550 M 11 4 R 65 29 R 66 33 R 66 37 R
66 40 R 66 42 R 66 44 R 66 47 R 65 47 R 66 49 R 66 50 R 66 51 R 66 52 R
66 52 R 66 53 R 65 53 R 66 54 R 66 53 R 66 54 R 66 54 R 66 54 R 66 54 R
66 54 R 65 53 R 66 54 R 66 53 R 66 53 R 66 53 R 66 53 R 66 52 R 65 52 R
66 52 R 66 52 R 66 51 R 66 51 R 66 51 R 66 50 R 65 50 R 66 50 R 66 49 R
66 49 R 66 49 R 66 48 R 66 48 R 66 48 R 65 47 R 66 47 R 66 47 R 66 46 R
66 46 R 66 46 R 66 45 R 65 45 R 66 45 R 66 44 R 66 44 R 66 43 R 66 44 R
66 43 R 65 42 R 66 43 R 66 42 R 66 42 R 66 41 R 66 41 R 66 41 R 66 41 R
65 40 R 66 40 R 66 40 R 66 39 R 66 40 R 66 39 R 66 38 R 65 39 R 66 38 R
66 38 R 66 37 R 66 38 R 66 37 R 66 36 R 65 37 R 66 36 R 66 37 R 66 35 R
66 36 R 66 35 R 66 36 R 66 35 R 65 34 R 66 35 R 66 34 R 66 34 R 66 34 R
66 34 R 66 33 R D L4 0.000 0.514 1.000 setrgbcolor 10551 8550 M 29 10 R
63 25 R 64 28 R 63 31 R 63 33 R 64 35 R 63 37 R 63 38 R 64 39 R 63 41 R
63 41 R 64 42 R 63 43 R 63 44 R 64 44 R 63 45 R 64 45 R 63 46 R 63 45 R
64 46 R 63 46 R 63 46 R 64 46 R 63 46 R 63 47 R 64 46 R 63 46 R 63 46 R
64 46 R 63 46 R 64 45 R 63 46 R 63 45 R 64 46 R 63 45 R 63 45 R 64 44 R
63 45 R 63 44 R 64 44 R 63 44 R 63 44 R 64 43 R 63 43 R 64 43 R 63 43 R
63 43 R 64 42 R 63 42 R 63 42 R 64 41 R 63 41 R 63 41 R 64 41 R 63 41 R
63 40 R 64 40 R 63 40 R 64 40 R 63 39 R 63 39 R 64 39 R 63 38 R 63 39 R
64 38 R 63 38 R 63 38 R 64 37 R 63 37 R 63 37 R 64 37 R 63 37 R 64 36 R
63 36 R 63 36 R 64 36 R 63 35 R 63 36 R 64 35 R 63 35 R 63 34 R 64 35 R
63 34 R 63 34 R 64 34 R 63 34 R 64 33 R 63 33 R 63 33 R 64 33 R 63 33 R
63 32 R 64 33 R 63 32 R 63 32 R D L5 0.000 0.000 1.000 setrgbcolor
10608 8550 M 38 11 R 55 17 R 54 19 R 55 21 R 55 21 R 54 23 R 55 23 R 55 24 R
54 25 R 55 25 R 55 26 R 54 26 R 55 27 R 55 27 R 54 28 R 55 28 R 55 28 R
55 28 R 54 28 R 55 29 R 55 29 R 54 29 R 55 29 R 55 29 R 54 29 R 55 29 R
55 29 R 54 29 R 55 29 R 55 29 R 54 29 R 55 29 R 55 29 R 54 28 R 55 29 R
55 29 R 55 28 R 54 29 R 55 28 R 55 28 R 54 29 R 55 28 R 55 28 R 54 28 R
55 27 R 55 28 R 54 27 R 55 28 R 55 27 R 54 27 R 55 27 R 55 27 R 54 27 R
55 26 R 55 27 R 55 26 R 54 26 R 55 27 R 55 26 R 54 25 R 55 26 R 55 26 R
54 25 R 55 25 R 55 26 R 54 25 R 55 25 R 55 24 R 54 25 R 55 24 R 55 25 R
55 24 R 54 24 R 55 24 R 55 24 R 54 24 R 55 24 R 55 23 R 54 24 R 55 23 R
55 23 R 54 23 R 55 23 R 55 23 R 54 22 R 55 23 R 55 23 R 54 22 R 55 22 R
55 22 R 55 22 R 54 22 R 55 22 R D L0 0.000 0.000 0.000 setrgbcolor
1620 1350 M 6840 0 R D 1620 1350 M 0 228 R D gsave 1620 822 translate 0 0 M
-117.687 0 N
(0) show grestore 3113 1350 M 0 228 R D gsave 3113 822 translate 0 0 M
-235.373 0 N
(50) show grestore 4607 1350 M 0 228 R D gsave 4607 822 translate 0 0 M
-353.06 0 N
(100) show grestore 6100 1350 M 0 228 R D gsave 6100 822 translate 0 0 M
-353.06 0 N
(150) show grestore 7594 1350 M 0 228 R D gsave 7594 822 translate 0 0 M
-353.06 0 N
(200) show grestore 1919 1350 M 0 114 R D 2217 1350 M 0 114 R D 2516 1350 M
0 114 R D 2815 1350 M 0 114 R D 3412 1350 M 0 114 R D 3711 1350 M 0 114 R D
4010 1350 M 0 114 R D 4308 1350 M 0 114 R D 4906 1350 M 0 114 R D
5204 1350 M 0 114 R D 5503 1350 M 0 114 R D 5802 1350 M 0 114 R D
6399 1350 M 0 114 R D 6698 1350 M 0 114 R D 6996 1350 M 0 114 R D
7295 1350 M 0 114 R D 7893 1350 M 0 114 R D 8191 1350 M 0 114 R D
gsave 5040 364 translate 0 0 M -458.682 0 N
(r/kpc) show grestore 1620 7050 M 6840 0 R D 1620 7050 M 0 -228 R D
3113 7050 M 0 -228 R D 4607 7050 M 0 -228 R D 6100 7050 M 0 -228 R D
7594 7050 M 0 -228 R D 1919 7050 M 0 -114 R D 2217 7050 M 0 -114 R D
2516 7050 M 0 -114 R D 2815 7050 M 0 -114 R D 3412 7050 M 0 -114 R D
3711 7050 M 0 -114 R D 4010 7050 M 0 -114 R D 4308 7050 M 0 -114 R D
4906 7050 M 0 -114 R D 5204 7050 M 0 -114 R D 5503 7050 M 0 -114 R D
5802 7050 M 0 -114 R D 6399 7050 M 0 -114 R D 6698 7050 M 0 -114 R D
6996 7050 M 0 -114 R D 7295 7050 M 0 -114 R D 7893 7050 M 0 -114 R D
8191 7050 M 0 -114 R D 1620 1350 M 0 5700 R D 1620 2438 M 274 0 R D
gsave 1509 2297 translate 0 0 M -588.433 0 N
(0.2) show grestore 1620 3583 M 274 0 R D gsave 1509 3442 translate 0 0 M
-588.433 0 N
(0.4) show grestore 1620 4728 M 274 0 R D gsave 1509 4587 translate 0 0 M
-588.433 0 N
(0.6) show grestore 1620 5873 M 274 0 R D gsave 1509 5732 translate 0 0 M
-588.433 0 N
(0.8) show grestore 1620 7018 M 274 0 R D gsave 1509 6804 translate 0 0 M
-588.433 0 N
(1.0) show grestore 1620 1579 M 137 0 R D 1620 1865 M 137 0 R D 1620 2151 M
137 0 R D 1620 2724 M 137 0 R D 1620 3010 M 137 0 R D 1620 3296 M 137 0 R D
1620 3869 M 137 0 R D 1620 4155 M 137 0 R D 1620 4441 M 137 0 R D
1620 5014 M 137 0 R D 1620 5300 M 137 0 R D 1620 5586 M 137 0 R D
1620 6159 M 137 0 R D 1620 6445 M 137 0 R D 1620 6731 M 137 0 R D
gsave 588 4200 translate 0 0 M 90 rotate -866.987 0 N
%%IncludeResource: font Symbol
423.333 /Symbol STDFONT
(r) show
%%IncludeResource: font Helvetica
423.333 /Helvetica STDFONT
(\(r,z\)/10) show X 192.937 M
%%IncludeResource: font Helvetica
262.467 /Helvetica STDFONT
(6) show grestore
%%IncludeResource: font Helvetica
423.333 /Helvetica STDFONT 8460 1350 M 0 5700 R D 8460 2438 M -274 0 R D
8460 3583 M -274 0 R D 8460 4728 M -274 0 R D 8460 5873 M -274 0 R D
8460 7018 M -274 0 R D 8460 1579 M -137 0 R D 8460 1865 M -137 0 R D
8460 2151 M -137 0 R D 8460 2724 M -137 0 R D 8460 3010 M -137 0 R D
8460 3296 M -137 0 R D 8460 3869 M -137 0 R D 8460 4155 M -137 0 R D
8460 4441 M -137 0 R D 8460 5014 M -137 0 R D 8460 5300 M -137 0 R D
8460 5586 M -137 0 R D 8460 6159 M -137 0 R D 8460 6445 M -137 0 R D
8460 6731 M -137 0 R D 1.000 0.000 0.706 setrgbcolor 2496 7050 M 69 -798 R
72 -685 R 73 -561 R 72 -465 R 73 -389 R 72 -328 R 73 -279 R 72 -239 R
73 -206 R 72 -178 R 73 -156 R 72 -136 R 73 -119 R 72 -106 R 73 -93 R
72 -84 R 72 -74 R 73 -67 R 72 -60 R 73 -54 R 72 -48 R 73 -45 R 72 -40 R
73 -36 R 72 -34 R 73 -30 R 72 -28 R 73 -26 R 72 -23 R 72 -22 R 73 -20 R
72 -19 R 73 -17 R 72 -16 R 73 -15 R 72 -13 R 73 -13 R 72 -12 R 73 -11 R
72 -11 R 73 -9 R 72 -9 R 72 -9 R 73 -8 R 72 -7 R 73 -8 R 72 -6 R 73 -7 R
72 -5 R 73 -6 R 72 -5 R 73 -5 R 72 -5 R 73 -4 R 72 -5 R 73 -4 R 72 -4 R
72 -3 R 73 -4 R 72 -3 R 73 -3 R 72 -3 R 73 -3 R 72 -2 R 73 -3 R 72 -2 R
73 -3 R 72 -2 R 73 -2 R 72 -2 R 72 -2 R 36 -1 R D L1
0.506 0.000 0.000 setrgbcolor 2443 7050 M 35 -444 R 71 -739 R 71 -603 R
71 -498 R 72 -416 R 71 -350 R 71 -298 R 71 -254 R 72 -220 R 71 -189 R
71 -166 R 71 -145 R 71 -127 R 72 -113 R 71 -99 R 71 -89 R 71 -80 R 72 -71 R
71 -64 R 71 -58 R 71 -52 R 71 -47 R 72 -43 R 71 -39 R 71 -36 R 71 -33 R
72 -30 R 71 -27 R 71 -26 R 71 -23 R 71 -22 R 72 -20 R 71 -18 R 71 -17 R
71 -16 R 72 -15 R 71 -14 R 71 -13 R 71 -12 R 72 -11 R 71 -10 R 71 -10 R
71 -10 R 71 -8 R 72 -8 R 71 -8 R 71 -7 R 71 -7 R 72 -7 R 71 -6 R 71 -5 R
71 -6 R 71 -5 R 72 -5 R 71 -4 R 71 -5 R 71 -4 R 72 -4 R 71 -4 R 71 -3 R
71 -4 R 71 -3 R 72 -3 R 71 -3 R 71 -3 R 71 -2 R 72 -3 R 71 -2 R 71 -3 R
71 -2 R 72 -2 R 71 -2 R 71 -2 R 71 -2 R 35 -1 R D L2
1.000 0.349 0.000 setrgbcolor 2361 7050 M 8 -118 R 68 -792 R 68 -644 R
68 -530 R 68 -440 R 68 -371 R 68 -314 R 67 -268 R 68 -231 R 68 -200 R
68 -174 R 68 -152 R 68 -134 R 68 -118 R 67 -106 R 68 -93 R 68 -84 R 68 -75 R
68 -67 R 68 -61 R 68 -55 R 67 -50 R 68 -46 R 68 -41 R 68 -38 R 68 -35 R
68 -32 R 68 -29 R 67 -27 R 68 -25 R 68 -23 R 68 -21 R 68 -20 R 68 -18 R
68 -17 R 67 -16 R 68 -15 R 68 -14 R 68 -12 R 68 -12 R 68 -12 R 68 -10 R
67 -10 R 68 -10 R 68 -8 R 68 -9 R 68 -7 R 68 -8 R 68 -7 R 67 -6 R 68 -6 R
68 -6 R 68 -6 R 68 -5 R 68 -5 R 68 -5 R 67 -4 R 68 -5 R 68 -4 R 68 -3 R
68 -4 R 68 -4 R 68 -3 R 67 -3 R 68 -3 R 68 -3 R 68 -3 R 68 -3 R 68 -2 R
68 -2 R 67 -3 R 68 -2 R 68 -2 R 68 -2 R 68 -2 R 68 -2 R 68 -2 R 33 -1 R D L3
0.000 0.549 0.000 setrgbcolor 2292 7050 M 55 -701 R 66 -677 R 66 -555 R
66 -459 R 66 -385 R 66 -326 R 66 -278 R 66 -238 R 65 -207 R 66 -180 R
66 -157 R 66 -139 R 66 -122 R 66 -109 R 66 -97 R 65 -87 R 66 -77 R 66 -71 R
66 -63 R 66 -57 R 66 -52 R 66 -48 R 65 -43 R 66 -39 R 66 -37 R 66 -33 R
66 -31 R 66 -28 R 66 -26 R 66 -24 R 65 -23 R 66 -20 R 66 -20 R 66 -18 R
66 -16 R 66 -16 R 66 -14 R 65 -14 R 66 -13 R 66 -12 R 66 -11 R 66 -11 R
66 -10 R 66 -9 R 65 -9 R 66 -8 R 66 -8 R 66 -7 R 66 -7 R 66 -7 R 66 -6 R
66 -6 R 65 -6 R 66 -5 R 66 -5 R 66 -5 R 66 -4 R 66 -5 R 66 -4 R 65 -4 R
66 -4 R 66 -3 R 66 -4 R 66 -3 R 66 -3 R 66 -3 R 65 -3 R 66 -3 R 66 -2 R
66 -3 R 66 -2 R 66 -3 R 66 -2 R 66 -2 R 65 -2 R 66 -2 R 66 -2 R 66 -2 R
66 -1 R 66 -2 R D L4 0.000 0.514 1.000 setrgbcolor 2219 7050 M 38 -524 R
63 -713 R 63 -578 R 64 -477 R 63 -397 R 63 -335 R 64 -285 R 63 -244 R
63 -211 R 64 -184 R 63 -161 R 63 -141 R 64 -125 R 63 -111 R 64 -99 R
63 -89 R 63 -80 R 64 -72 R 63 -64 R 63 -59 R 64 -54 R 63 -48 R 63 -45 R
64 -41 R 63 -37 R 63 -35 R 64 -31 R 63 -30 R 64 -27 R 63 -25 R 63 -23 R
64 -21 R 63 -21 R 63 -18 R 64 -18 R 63 -16 R 63 -15 R 64 -15 R 63 -13 R
63 -12 R 64 -12 R 63 -11 R 64 -11 R 63 -10 R 63 -9 R 64 -9 R 63 -8 R 63 -8 R
64 -7 R 63 -7 R 63 -7 R 64 -6 R 63 -6 R 63 -6 R 64 -5 R 63 -5 R 64 -5 R
63 -5 R 63 -4 R 64 -4 R 63 -4 R 63 -4 R 64 -4 R 63 -4 R 63 -3 R 64 -3 R
63 -3 R 63 -3 R 64 -3 R 63 -3 R 64 -2 R 63 -3 R 63 -2 R 64 -2 R 63 -3 R
63 -2 R 64 -2 R 63 -2 R 63 -2 R 64 -1 R 63 -2 R 63 -2 R 64 -1 R 31 -1 R D L5
0.000 0.000 1.000 setrgbcolor 2101 7050 M 14 -239 R 55 -779 R 55 -623 R
54 -508 R 55 -420 R 55 -352 R 54 -298 R 55 -254 R 55 -220 R 54 -190 R
55 -166 R 55 -146 R 54 -129 R 55 -115 R 55 -102 R 54 -91 R 55 -82 R 55 -74 R
54 -66 R 55 -61 R 55 -55 R 55 -50 R 54 -46 R 55 -42 R 55 -39 R 54 -35 R
55 -33 R 55 -30 R 54 -28 R 55 -26 R 55 -24 R 54 -23 R 55 -20 R 55 -20 R
54 -18 R 55 -17 R 55 -16 R 54 -15 R 55 -14 R 55 -13 R 55 -12 R 54 -12 R
55 -11 R 55 -10 R 54 -10 R 55 -9 R 55 -8 R 54 -9 R 55 -7 R 55 -8 R 54 -7 R
55 -6 R 55 -7 R 54 -6 R 55 -5 R 55 -6 R 55 -5 R 54 -5 R 55 -4 R 55 -5 R
54 -4 R 55 -4 R 55 -4 R 54 -4 R 55 -3 R 55 -4 R 54 -3 R 55 -3 R 55 -3 R
54 -3 R 55 -3 R 55 -2 R 54 -3 R 55 -2 R 55 -3 R 55 -2 R 54 -2 R 55 -2 R
55 -2 R 54 -2 R 55 -2 R 55 -2 R 54 -2 R 55 -1 R 55 -2 R 54 -1 R 27 -1 R D L0
0.000 0.000 0.000 setrgbcolor 10260 1350 M 6840 0 R D 10260 1350 M 0 228 R D
gsave 10260 822 translate 0 0 M -117.687 0 N
(0) show grestore 11754 1350 M 0 228 R D gsave 11754 822 translate 0 0 M
-235.373 0 N
(50) show grestore 13247 1350 M 0 228 R D gsave 13247 822 translate 0 0 M
-353.06 0 N
(100) show grestore 14740 1350 M 0 228 R D gsave 14740 822 translate 0 0 M
-353.06 0 N
(150) show grestore 16234 1350 M 0 228 R D gsave 16234 822 translate 0 0 M
-353.06 0 N
(200) show grestore 10559 1350 M 0 114 R D 10857 1350 M 0 114 R D
11156 1350 M 0 114 R D 11455 1350 M 0 114 R D 12052 1350 M 0 114 R D
12351 1350 M 0 114 R D 12650 1350 M 0 114 R D 12948 1350 M 0 114 R D
13546 1350 M 0 114 R D 13844 1350 M 0 114 R D 14143 1350 M 0 114 R D
14442 1350 M 0 114 R D 15039 1350 M 0 114 R D 15338 1350 M 0 114 R D
15637 1350 M 0 114 R D 15935 1350 M 0 114 R D 16533 1350 M 0 114 R D
16831 1350 M 0 114 R D gsave 13680 364 translate 0 0 M -458.682 0 N
(r/kpc) show grestore 10260 7050 M 6840 0 R D 10260 7050 M 0 -228 R D
11754 7050 M 0 -228 R D 13247 7050 M 0 -228 R D 14740 7050 M 0 -228 R D
16234 7050 M 0 -228 R D 10559 7050 M 0 -114 R D 10857 7050 M 0 -114 R D
11156 7050 M 0 -114 R D 11455 7050 M 0 -114 R D 12052 7050 M 0 -114 R D
12351 7050 M 0 -114 R D 12650 7050 M 0 -114 R D 12948 7050 M 0 -114 R D
13546 7050 M 0 -114 R D 13844 7050 M 0 -114 R D 14143 7050 M 0 -114 R D
14442 7050 M 0 -114 R D 15039 7050 M 0 -114 R D 15338 7050 M 0 -114 R D
15637 7050 M 0 -114 R D 15935 7050 M 0 -114 R D 16533 7050 M 0 -114 R D
16831 7050 M 0 -114 R D 10260 1350 M 0 5700 R D 10260 2438 M 274 0 R D
gsave 10149 2297 translate 0 0 M -588.433 0 N
(0.2) show grestore 10260 3583 M 274 0 R D gsave 10149 3442 translate 0 0 M
-588.433 0 N
(0.4) show grestore 10260 4728 M 274 0 R D gsave 10149 4587 translate 0 0 M
-588.433 0 N
(0.6) show grestore 10260 5873 M 274 0 R D gsave 10149 5732 translate 0 0 M
-588.433 0 N
(0.8) show grestore 10260 7018 M 274 0 R D gsave 10149 6804 translate 0 0 M
-588.433 0 N
(1.0) show grestore 10260 1579 M 137 0 R D 10260 1865 M 137 0 R D
10260 2151 M 137 0 R D 10260 2724 M 137 0 R D 10260 3010 M 137 0 R D
10260 3296 M 137 0 R D 10260 3869 M 137 0 R D 10260 4155 M 137 0 R D
10260 4441 M 137 0 R D 10260 5014 M 137 0 R D 10260 5300 M 137 0 R D
10260 5586 M 137 0 R D 10260 6159 M 137 0 R D 10260 6445 M 137 0 R D
10260 6731 M 137 0 R D gsave 9228 4200 translate 0 0 M 90 rotate
-997.162 0 N
(-) show
%%IncludeResource: font Symbol
423.333 /Symbol STDFONT
(f) show
%%IncludeResource: font Helvetica
423.333 /Helvetica STDFONT
(\(r,z\)/10) show X 192.937 M
%%IncludeResource: font Helvetica
262.467 /Helvetica STDFONT
(10) show grestore
%%IncludeResource: font Helvetica
423.333 /Helvetica STDFONT 17100 1350 M 0 5700 R D 17100 2438 M -273 0 R D
17100 3583 M -273 0 R D 17100 4728 M -273 0 R D 17100 5873 M -273 0 R D
17100 7018 M -273 0 R D 17100 1579 M -137 0 R D 17100 1865 M -137 0 R D
17100 2151 M -137 0 R D 17100 2724 M -137 0 R D 17100 3010 M -137 0 R D
17100 3296 M -137 0 R D 17100 3869 M -137 0 R D 17100 4155 M -137 0 R D
17100 4441 M -137 0 R D 17100 5014 M -137 0 R D 17100 5300 M -137 0 R D
17100 5586 M -137 0 R D 17100 6159 M -137 0 R D 17100 6445 M -137 0 R D
17100 6731 M -137 0 R D 1.000 0.000 0.706 setrgbcolor 10264 1350 M 72 827 R
72 700 R 72 582 R 73 488 R 72 413 R 73 350 R 72 297 R 73 255 R 72 218 R
73 188 R 72 161 R 73 139 R 72 119 R 73 103 R 72 88 R 72 76 R 73 64 R 72 55 R
73 47 R 72 39 R 73 32 R 72 27 R 73 21 R 72 17 R 73 13 R 72 9 R 73 6 R 72 3 R
73 1 R 72 -2 R 72 -4 R 73 -6 R 72 -8 R 73 -9 R 72 -10 R 73 -12 R 72 -12 R
73 -14 R 72 -14 R 73 -16 R 72 -15 R 73 -17 R 72 -17 R 72 -18 R 73 -17 R
72 -19 R 73 -18 R 72 -19 R 73 -20 R 72 -19 R 73 -20 R 72 -19 R 73 -20 R
72 -20 R 73 -20 R 72 -20 R 72 -20 R 73 -20 R 72 -21 R 73 -20 R 72 -20 R
73 -20 R 72 -20 R 73 -20 R 72 -20 R 73 -20 R 72 -20 R 73 -20 R 72 -19 R
73 -20 R 72 -19 R 72 -20 R 73 -19 R 72 -19 R 73 -19 R 72 -19 R 73 -19 R
72 -19 R 73 -19 R 72 -18 R 73 -18 R 72 -19 R 73 -18 R 72 -18 R 72 -18 R
73 -18 R 72 -17 R 73 -18 R 72 -17 R 73 -17 R 72 -17 R 73 -17 R 72 -17 R
73 -17 R 25 -6 R D L1 0.506 0.000 0.000 setrgbcolor 10266 1350 M 68 612 R
72 545 R 71 469 R 71 404 R 71 350 R 71 305 R 72 266 R 71 233 R 71 205 R
71 180 R 72 158 R 71 140 R 71 123 R 71 109 R 71 97 R 72 85 R 71 75 R 71 67 R
71 58 R 72 52 R 71 45 R 71 39 R 71 35 R 72 29 R 71 26 R 71 22 R 71 18 R
71 16 R 72 12 R 71 11 R 71 7 R 71 6 R 72 4 R 71 2 R 71 0 R 71 -1 R 71 -2 R
72 -4 R 71 -4 R 71 -6 R 71 -6 R 72 -8 R 71 -8 R 71 -9 R 71 -9 R 71 -10 R
72 -11 R 71 -11 R 71 -12 R 71 -12 R 72 -12 R 71 -12 R 71 -13 R 71 -14 R
72 -13 R 71 -14 R 71 -14 R 71 -14 R 71 -14 R 72 -14 R 71 -15 R 71 -14 R
71 -15 R 72 -14 R 71 -15 R 71 -15 R 71 -15 R 71 -15 R 72 -15 R 71 -15 R
71 -15 R 71 -15 R 72 -15 R 71 -15 R 71 -15 R 71 -15 R 71 -14 R 72 -15 R
71 -15 R 71 -15 R 71 -15 R 72 -14 R 71 -15 R 71 -15 R 71 -14 R 72 -15 R
71 -14 R 71 -14 R 71 -15 R 71 -14 R 72 -14 R 71 -14 R 71 -14 R 71 -14 R
72 -14 R 70 -14 R D L2 1.000 0.349 0.000 setrgbcolor 10268 1350 M 63 428 R
68 405 R 68 356 R 68 315 R 67 279 R 68 247 R 68 220 R 68 197 R 68 176 R
68 158 R 68 141 R 67 128 R 68 114 R 68 103 R 68 93 R 68 84 R 68 76 R 68 68 R
67 62 R 68 55 R 68 50 R 68 46 R 68 40 R 68 37 R 68 32 R 67 30 R 68 26 R
68 23 R 68 20 R 68 19 R 68 15 R 68 14 R 67 12 R 68 11 R 68 8 R 68 7 R 68 6 R
68 4 R 68 4 R 67 2 R 68 1 R 68 0 R 68 0 R 68 -2 R 68 -2 R 68 -2 R 67 -4 R
68 -4 R 68 -5 R 68 -5 R 68 -5 R 68 -6 R 68 -7 R 67 -6 R 68 -8 R 68 -7 R
68 -8 R 68 -8 R 68 -8 R 68 -9 R 67 -8 R 68 -9 R 68 -9 R 68 -10 R 68 -9 R
68 -10 R 68 -10 R 67 -9 R 68 -10 R 68 -10 R 68 -11 R 68 -10 R 68 -10 R
68 -10 R 67 -11 R 68 -10 R 68 -11 R 68 -10 R 68 -11 R 68 -11 R 68 -10 R
67 -11 R 68 -11 R 68 -10 R 68 -11 R 68 -11 R 68 -10 R 68 -11 R 67 -11 R
68 -10 R 68 -11 R 68 -11 R 68 -10 R 68 -11 R 68 -10 R 67 -11 R 68 -10 R
68 -11 R 68 -10 R D L3 0.000 0.549 0.000 setrgbcolor 10270 1350 M 59 307 R
66 312 R 66 280 R 66 251 R 65 228 R 66 205 R 66 187 R 66 169 R 66 154 R
66 140 R 66 128 R 65 117 R 66 107 R 66 98 R 66 90 R 66 82 R 66 75 R 66 70 R
65 63 R 66 59 R 66 53 R 66 49 R 66 46 R 66 41 R 66 38 R 66 35 R 65 32 R
66 30 R 66 27 R 66 24 R 66 22 R 66 21 R 66 18 R 65 17 R 66 15 R 66 14 R
66 12 R 66 11 R 66 10 R 66 9 R 65 7 R 66 7 R 66 6 R 66 5 R 66 3 R 66 4 R
66 2 R 66 2 R 65 1 R 66 1 R 66 0 R 66 -1 R 66 -1 R 66 -1 R 66 -2 R 65 -2 R
66 -3 R 66 -3 R 66 -3 R 66 -4 R 66 -4 R 66 -4 R 65 -5 R 66 -5 R 66 -5 R
66 -5 R 66 -5 R 66 -6 R 66 -6 R 66 -6 R 65 -6 R 66 -6 R 66 -6 R 66 -7 R
66 -7 R 66 -6 R 66 -7 R 65 -7 R 66 -7 R 66 -7 R 66 -8 R 66 -7 R 66 -7 R
66 -8 R 65 -7 R 66 -8 R 66 -7 R 66 -8 R 66 -8 R 66 -7 R 66 -8 R 66 -8 R
65 -8 R 66 -8 R 66 -7 R 66 -8 R 66 -8 R 66 -8 R 66 -8 R D L4
0.000 0.514 1.000 setrgbcolor 10273 1350 M 53 215 R 64 237 R 63 217 R
64 198 R 63 182 R 63 167 R 64 154 R 63 142 R 63 130 R 64 121 R 63 112 R
63 103 R 64 96 R 63 89 R 63 83 R 64 76 R 63 71 R 63 67 R 64 61 R 63 58 R
64 53 R 63 50 R 63 46 R 64 43 R 63 41 R 63 37 R 64 35 R 63 33 R 63 30 R
64 28 R 63 27 R 63 24 R 64 23 R 63 21 R 64 20 R 63 18 R 63 17 R 64 15 R
63 15 R 63 13 R 64 12 R 63 12 R 63 10 R 64 10 R 63 8 R 63 8 R 64 7 R 63 7 R
64 6 R 63 5 R 63 5 R 64 4 R 63 3 R 63 3 R 64 3 R 63 2 R 63 1 R 64 2 R 63 0 R
63 1 R 64 0 R 63 0 R 64 -1 R 63 0 R 63 -1 R 64 -2 R 63 -1 R 63 -2 R 64 -2 R
63 -3 R 63 -2 R 64 -3 R 63 -3 R 63 -3 R 64 -3 R 63 -3 R 64 -4 R 63 -3 R
63 -4 R 64 -4 R 63 -4 R 63 -4 R 64 -5 R 63 -4 R 63 -4 R 64 -5 R 63 -5 R
63 -4 R 64 -5 R 63 -5 R 64 -5 R 63 -5 R 63 -5 R 64 -5 R 63 -6 R 63 -5 R
64 -5 R 63 -6 R 63 -5 R D L5 0.000 0.000 1.000 setrgbcolor 10279 1350 M
39 116 R 54 151 R 55 140 R 55 130 R 55 120 R 54 112 R 55 104 R 55 97 R
54 90 R 55 84 R 55 79 R 54 73 R 55 69 R 55 64 R 54 60 R 55 57 R 55 52 R
54 50 R 55 47 R 55 43 R 54 42 R 55 38 R 55 37 R 55 34 R 54 32 R 55 30 R
55 29 R 54 26 R 55 26 R 55 23 R 54 23 R 55 21 R 55 19 R 54 19 R 55 17 R
55 17 R 54 15 R 55 15 R 55 13 R 54 13 R 55 12 R 55 12 R 55 10 R 54 10 R
55 9 R 55 9 R 54 8 R 55 7 R 55 7 R 54 7 R 55 6 R 55 5 R 54 6 R 55 4 R 55 5 R
54 4 R 55 3 R 55 3 R 54 3 R 55 3 R 55 2 R 55 2 R 54 2 R 55 2 R 55 1 R 54 1 R
55 1 R 55 1 R 54 0 R 55 0 R 55 0 R 54 0 R 55 0 R 55 0 R 54 -1 R 55 -1 R
55 -1 R 55 -1 R 54 -1 R 55 -1 R 55 -1 R 54 -2 R 55 -2 R 55 -1 R 54 -2 R
55 -2 R 55 -2 R 54 -2 R 55 -2 R 55 -3 R 54 -2 R 55 -2 R 55 -3 R 54 -2 R
55 -3 R 55 -2 R 55 -3 R 54 -3 R 55 -3 R D L0 1.000 0.000 0.706 setrgbcolor
4487 5919 M 106 0 R 106 0 R 106 0 R 105 0 R 106 0 R 106 0 R 106 0 R 106 0 R
105 0 R D L1 0.506 0.000 0.000 setrgbcolor 4487 5403 M 106 0 R 106 0 R
106 0 R 105 0 R 106 0 R 106 0 R 106 0 R 106 0 R 105 0 R D L2
1.000 0.349 0.000 setrgbcolor 4487 4888 M 106 0 R 106 0 R 106 0 R 105 0 R
106 0 R 106 0 R 106 0 R 106 0 R 105 0 R D L3 0.000 0.549 0.000 setrgbcolor
4487 4372 M 106 0 R 106 0 R 106 0 R 105 0 R 106 0 R 106 0 R 106 0 R 106 0 R
105 0 R D L4 0.000 0.514 1.000 setrgbcolor 4487 3857 M 106 0 R 106 0 R
106 0 R 105 0 R 106 0 R 106 0 R 106 0 R 106 0 R 105 0 R D L5
0.000 0.000 1.000 setrgbcolor 4487 3341 M 106 0 R 106 0 R 106 0 R 105 0 R
106 0 R 106 0 R 106 0 R 106 0 R 105 0 R D 1.000 0.000 0.706 setrgbcolor
gsave 5545 5737 translate 0 0 M
(z=0.00) show grestore 0.506 0.000 0.000 setrgbcolor
gsave 5545 5222 translate 0 0 M
(z=0.22) show grestore 1.000 0.349 0.000 setrgbcolor
gsave 5545 4706 translate 0 0 M
(z=0.49) show grestore 0.000 0.549 0.000 setrgbcolor
gsave 5545 4191 translate 0 0 M
(z=0.82) show grestore 0.000 0.514 1.000 setrgbcolor
gsave 5545 3675 translate 0 0 M
(z=1.22) show grestore 0.000 0.000 1.000 setrgbcolor
gsave 5545 3160 translate 0 0 M
(z=1.71) show grestore
%%PageTrailer
end
%%PageResources: font Helvetica
%%+ font Symbol
%%Trailer
%%Pages: 1
%%DocumentNeededResources: font Helvetica
%%+ font Symbol
%%EOF
