%!PS-Adobe-3.0 EPSF-3.0
%%BoundingBox: 0 0 510 425
%%Title: Graphics produced by IDL
%%For: daxia@Lserver, /home/daxia/work/phoenix
%%Creator: IDL Version 7.0 (linux x86_64 m64)
%%CreationDate: Sat Apr  9 12:15:02 2011
%%DocumentData: Clean7bit
%%Requirements: color
%%LanguageLevel: 1
%%PageOrder: Ascend
%%Pages: (atend)
%%DocumentNeededResources: (atend)
%%EndComments
%%BeginProlog
%+ prolog.ps -- Prolog for IDL generated PostScript files
%+ Copyright (c) 1988-2007 ITT Visual Information Solutions. All Rights Reserved.
%v 5
/$IDL_DICT 40 dict def $IDL_DICT begin /bdef { bind def } bind def /C
{currentpoint newpath moveto} bdef /CP {currentpoint} bdef /D {currentpoint
stroke moveto} bdef /F {closepath fill} bdef /K { setgray } bdef /M {moveto}
bdef /N {rmoveto} bdef /P {lineto} bdef /R {rlineto} bdef /S {gsave show
grestore} bdef /X {currentpoint pop} bdef /Z {gsave currentpoint lineto 20
setlinewidth 1 setlinecap stroke grestore} bdef /L0 {[] 0 setdash} bdef /L1
{[40 100] 0 setdash} bdef /L2 {[200 200] 0 setdash} bdef /L3 {[200 100 50
100] 0 setdash} bdef /L4 {[300 100 50 100 50 100 50 100] 0 setdash} bdef /L5
{[400 200] 0 setdash} bdef /STDFONT { findfont exch scalefont setfont } bdef
/ISOFONT { findfont dup length dict begin { 1 index /FID ne {def} {pop pop}
ifelse } forall /Encoding ISOLatin1Encoding def currentdict end /idltmpfont
exch definefont exch scalefont setfont } bdef /ISOBULLET { gsave /Helvetica
findfont exch scalefont setfont (\267) show currentpoint grestore moveto}
bdef /MITERLIMIT { 2.5 setmiterlimit } bdef end
%%EndProlog
%%Page: 0 1
%%PageRequirements: color
%%PageResources: (atend)
%%PageOrientation: Portrait
%%PageBoundingBox: 0 0 510 425
%%BeginPageSetup
$IDL_DICT begin 0.0283465 dup scale MITERLIMIT
%%IncludeResource: font Helvetica
423.333 /Helvetica STDFONT
%%EndPageSetup
0.000 0.000 0.000 setrgbcolor gsave 9777 352 translate 0 0 M -905.933 0 N
(a=1/\(1+z\)) show grestore gsave 888 7852 translate 0 0 M 90 rotate
-1029.12 0 N
(n\(z\)/n\(z=0\)) show grestore 40 setlinewidth L0 2220 10000 M 5038 0 R D
3187 10000 M 0 172 R D gsave 3187 9472 translate 0 0 M -58.8433 0 N
( ) show grestore 4205 10000 M 0 172 R D gsave 4205 9472 translate 0 0 M
-58.8433 0 N
( ) show grestore 5223 10000 M 0 172 R D gsave 5223 9472 translate 0 0 M
-58.8433 0 N
( ) show grestore 6240 10000 M 0 172 R D gsave 6240 9472 translate 0 0 M
-58.8433 0 N
( ) show grestore 7258 10000 M 0 172 R D gsave 7258 9472 translate 0 0 M
-58.8433 0 N
( ) show grestore 2424 10000 M 0 86 R D 2678 10000 M 0 86 R D 2933 10000 M
0 86 R D 3441 10000 M 0 86 R D 3696 10000 M 0 86 R D 3950 10000 M 0 86 R D
4459 10000 M 0 86 R D 4714 10000 M 0 86 R D 4968 10000 M 0 86 R D
5477 10000 M 0 86 R D 5731 10000 M 0 86 R D 5986 10000 M 0 86 R D
6495 10000 M 0 86 R D 6749 10000 M 0 86 R D 7004 10000 M 0 86 R D
2220 14296 M 5038 0 R D 3187 14296 M 0 -172 R D 4205 14296 M 0 -172 R D
5223 14296 M 0 -172 R D 6240 14296 M 0 -172 R D 7258 14296 M 0 -172 R D
2424 14296 M 0 -86 R D 2678 14296 M 0 -86 R D 2933 14296 M 0 -86 R D
3441 14296 M 0 -86 R D 3696 14296 M 0 -86 R D 3950 14296 M 0 -86 R D
4459 14296 M 0 -86 R D 4714 14296 M 0 -86 R D 4968 14296 M 0 -86 R D
5477 14296 M 0 -86 R D 5731 14296 M 0 -86 R D 5986 14296 M 0 -86 R D
6495 14296 M 0 -86 R D 6749 14296 M 0 -86 R D 7004 14296 M 0 -86 R D
2220 10000 M 0 4296 R D 2220 11058 M 202 0 R D
gsave 2109 10917 translate 0 0 M -588.433 0 N
(0.5) show grestore 2220 12137 M 202 0 R D gsave 2109 11996 translate 0 0 M
-588.433 0 N
(1.0) show grestore 2220 13217 M 202 0 R D gsave 2109 13076 translate 0 0 M
-588.433 0 N
(1.5) show grestore 2220 14296 M 202 0 R D gsave 2109 14050 translate 0 0 M
-588.433 0 N
(2.0) show grestore 2220 10194 M 101 0 R D 2220 10410 M 101 0 R D
2220 10626 M 101 0 R D 2220 10842 M 101 0 R D 2220 11274 M 101 0 R D
2220 11490 M 101 0 R D 2220 11706 M 101 0 R D 2220 11921 M 101 0 R D
2220 12353 M 101 0 R D 2220 12569 M 101 0 R D 2220 12785 M 101 0 R D
2220 13001 M 101 0 R D 2220 13433 M 101 0 R D 2220 13648 M 101 0 R D
2220 13864 M 101 0 R D 2220 14080 M 101 0 R D 7258 10000 M 0 4296 R D
7258 11058 M -201 0 R D 7258 12137 M -201 0 R D 7258 13217 M -201 0 R D
7258 14296 M -201 0 R D 7258 10194 M -101 0 R D 7258 10410 M -101 0 R D
7258 10626 M -101 0 R D 7258 10842 M -101 0 R D 7258 11274 M -101 0 R D
7258 11490 M -101 0 R D 7258 11706 M -101 0 R D 7258 11921 M -101 0 R D
7258 12353 M -101 0 R D 7258 12569 M -101 0 R D 7258 12785 M -101 0 R D
7258 13001 M -101 0 R D 7258 13433 M -101 0 R D 7258 13648 M -101 0 R D
7258 13864 M -101 0 R D 7258 14080 M -101 0 R D 2429 10000 M 5 4 R 22 43 R
25 80 R 26 133 R 27 194 R 30 253 R 31 297 R 34 329 R 35 344 R 38 333 R
40 320 R 42 279 R 45 249 R 47 203 R 50 167 R 52 128 R 55 88 R 58 66 R
61 39 R 63 13 R 66 -2 R 69 -18 R 72 -31 R 75 -38 R 78 -46 R 81 -52 R
84 -52 R 87 -57 R 89 -58 R 93 -56 R 95 -57 R 98 -54 R 100 -59 R 103 -60 R
106 -61 R 107 -63 R 110 -62 R 112 -71 R 114 -58 R 115 -44 R 117 -43 R
118 -43 R 119 -33 R 119 -34 R 121 -34 R 121 -34 R 121 -27 R 120 -28 R
121 -26 R 119 -23 R 118 -20 R 118 -21 R 115 -19 R 114 -17 R 111 -13 R
109 -14 R 106 -6 R 103 -10 R 99 19 R D L1 2516 10000 M 18 14 R 30 41 R
31 85 R 34 125 R 35 179 R 38 213 R 40 242 R 42 280 R 45 285 R 47 273 R
50 260 R 52 233 R 55 197 R 58 188 R 61 145 R 63 111 R 66 84 R 69 82 R
72 48 R 75 38 R 78 20 R 81 -17 R 84 -1 R 87 -21 R 89 -14 R 93 -22 R 95 -53 R
98 -24 R 100 -41 R 103 -58 R 106 -52 R 107 -54 R 110 -60 R 112 -60 R
114 -55 R 115 -41 R 117 -37 R 118 -45 R 119 -25 R 119 -45 R 121 -25 R
121 -39 R 121 -25 R 120 -32 R 121 -29 R 119 -29 R 118 -18 R 118 -28 R
115 -9 R 114 -16 R 111 -19 R 109 -18 R 106 -10 R 103 -12 R 99 28 R D L0
7258 10000 M 5038 0 R D 8225 10000 M 0 172 R D
gsave 8225 9472 translate 0 0 M -58.8433 0 N
( ) show grestore 9243 10000 M 0 172 R D gsave 9243 9472 translate 0 0 M
-58.8433 0 N
( ) show grestore 10261 10000 M 0 172 R D gsave 10261 9472 translate 0 0 M
-58.8433 0 N
( ) show grestore 11278 10000 M 0 172 R D gsave 11278 9472 translate 0 0 M
-58.8433 0 N
( ) show grestore 12296 10000 M 0 172 R D gsave 12296 9472 translate 0 0 M
-58.8433 0 N
( ) show grestore 7462 10000 M 0 86 R D 7716 10000 M 0 86 R D 7971 10000 M
0 86 R D 8479 10000 M 0 86 R D 8734 10000 M 0 86 R D 8988 10000 M 0 86 R D
9497 10000 M 0 86 R D 9752 10000 M 0 86 R D 10006 10000 M 0 86 R D
10515 10000 M 0 86 R D 10769 10000 M 0 86 R D 11024 10000 M 0 86 R D
11533 10000 M 0 86 R D 11787 10000 M 0 86 R D 12042 10000 M 0 86 R D
7258 14296 M 5038 0 R D 8225 14296 M 0 -172 R D 9243 14296 M 0 -172 R D
10261 14296 M 0 -172 R D 11278 14296 M 0 -172 R D 12296 14296 M 0 -172 R D
7462 14296 M 0 -86 R D 7716 14296 M 0 -86 R D 7971 14296 M 0 -86 R D
8479 14296 M 0 -86 R D 8734 14296 M 0 -86 R D 8988 14296 M 0 -86 R D
9497 14296 M 0 -86 R D 9752 14296 M 0 -86 R D 10006 14296 M 0 -86 R D
10515 14296 M 0 -86 R D 10769 14296 M 0 -86 R D 11024 14296 M 0 -86 R D
11533 14296 M 0 -86 R D 11787 14296 M 0 -86 R D 12042 14296 M 0 -86 R D
7258 10000 M 0 4296 R D 7258 11058 M 202 0 R D
gsave 7147 10917 translate 0 0 M -117.687 0 N
( ) show grestore 7258 12137 M 202 0 R D gsave 7147 11996 translate 0 0 M
-117.687 0 N
( ) show grestore 7258 13217 M 202 0 R D gsave 7147 13076 translate 0 0 M
-117.687 0 N
( ) show grestore 7258 14296 M 202 0 R D gsave 7147 14050 translate 0 0 M
-117.687 0 N
( ) show grestore 7258 10194 M 101 0 R D 7258 10410 M 101 0 R D 7258 10626 M
101 0 R D 7258 10842 M 101 0 R D 7258 11274 M 101 0 R D 7258 11490 M 101 0 R
D 7258 11706 M 101 0 R D 7258 11921 M 101 0 R D 7258 12353 M 101 0 R D
7258 12569 M 101 0 R D 7258 12785 M 101 0 R D 7258 13001 M 101 0 R D
7258 13433 M 101 0 R D 7258 13648 M 101 0 R D 7258 13864 M 101 0 R D
7258 14080 M 101 0 R D 12296 10000 M 0 4296 R D 12296 11058 M -201 0 R D
12296 12137 M -201 0 R D 12296 13217 M -201 0 R D 12296 14296 M -201 0 R D
12296 10194 M -101 0 R D 12296 10410 M -101 0 R D 12296 10626 M -101 0 R D
12296 10842 M -101 0 R D 12296 11274 M -101 0 R D 12296 11490 M -101 0 R D
12296 11706 M -101 0 R D 12296 11921 M -101 0 R D 12296 12353 M -101 0 R D
12296 12569 M -101 0 R D 12296 12785 M -101 0 R D 12296 13001 M -101 0 R D
12296 13433 M -101 0 R D 12296 13648 M -101 0 R D 12296 13864 M -101 0 R D
12296 14080 M -101 0 R D 7472 10000 M 22 35 R 25 73 R 26 125 R 27 187 R
30 248 R 31 303 R 34 338 R 35 354 R 38 355 R 40 330 R 42 295 R 45 261 R
47 213 R 50 182 R 52 133 R 55 98 R 58 66 R 61 38 R 63 18 R 66 -1 R 69 -25 R
72 -34 R 75 -47 R 78 -53 R 81 -60 R 84 -65 R 87 -68 R 89 -70 R 93 -71 R
95 -69 R 98 -65 R 100 -68 R 103 -67 R 106 -64 R 107 -56 R 110 -56 R
112 -49 R 114 -47 R 115 -44 R 117 -41 R 118 -41 R 119 -35 R 119 -33 R
121 -30 R 121 -29 R 121 -26 R 120 -23 R 121 -23 R 119 -25 R 118 -22 R
118 -18 R 115 -21 R 114 -20 R 111 -15 R 109 -20 R 106 -17 R 103 -15 R
99 18 R D L1 7566 10000 M 6 4 R 30 37 R 31 67 R 34 105 R 35 172 R 38 206 R
40 259 R 42 277 R 45 309 R 47 296 R 50 279 R 52 265 R 55 221 R 58 196 R
61 169 R 63 111 R 66 97 R 69 76 R 72 42 R 75 24 R 78 24 R 81 -18 R 84 -30 R
87 -33 R 89 -23 R 93 -39 R 95 -47 R 98 -59 R 100 -51 R 103 -64 R 106 -46 R
107 -50 R 110 -52 R 112 -48 R 114 -40 R 115 -46 R 117 -38 R 118 -45 R
119 -34 R 119 -25 R 121 -32 R 121 -29 R 121 -22 R 120 -25 R 121 -24 R
119 -20 R 118 -23 R 118 -28 R 115 -25 R 114 -21 R 111 -15 R 109 -22 R
106 -14 R 103 -17 R 99 6 R D L0 12296 10000 M 5038 0 R D 13263 10000 M
0 172 R D gsave 13263 9472 translate 0 0 M -58.8433 0 N
( ) show grestore 14281 10000 M 0 172 R D gsave 14281 9472 translate 0 0 M
-58.8433 0 N
( ) show grestore 15299 10000 M 0 172 R D gsave 15299 9472 translate 0 0 M
-58.8433 0 N
( ) show grestore 16316 10000 M 0 172 R D gsave 16316 9472 translate 0 0 M
-58.8433 0 N
( ) show grestore 17334 10000 M 0 172 R D gsave 17334 9472 translate 0 0 M
-58.8433 0 N
( ) show grestore 12500 10000 M 0 86 R D 12754 10000 M 0 86 R D
13009 10000 M 0 86 R D 13517 10000 M 0 86 R D 13772 10000 M 0 86 R D
14026 10000 M 0 86 R D 14535 10000 M 0 86 R D 14790 10000 M 0 86 R D
15044 10000 M 0 86 R D 15553 10000 M 0 86 R D 15807 10000 M 0 86 R D
16062 10000 M 0 86 R D 16571 10000 M 0 86 R D 16825 10000 M 0 86 R D
17080 10000 M 0 86 R D 12296 14296 M 5038 0 R D 13263 14296 M 0 -172 R D
14281 14296 M 0 -172 R D 15299 14296 M 0 -172 R D 16316 14296 M 0 -172 R D
17334 14296 M 0 -172 R D 12500 14296 M 0 -86 R D 12754 14296 M 0 -86 R D
13009 14296 M 0 -86 R D 13517 14296 M 0 -86 R D 13772 14296 M 0 -86 R D
14026 14296 M 0 -86 R D 14535 14296 M 0 -86 R D 14790 14296 M 0 -86 R D
15044 14296 M 0 -86 R D 15553 14296 M 0 -86 R D 15807 14296 M 0 -86 R D
16062 14296 M 0 -86 R D 16571 14296 M 0 -86 R D 16825 14296 M 0 -86 R D
17080 14296 M 0 -86 R D 12296 10000 M 0 4296 R D 12296 11058 M 202 0 R D
gsave 12185 10917 translate 0 0 M -117.687 0 N
( ) show grestore 12296 12137 M 202 0 R D gsave 12185 11996 translate 0 0 M
-117.687 0 N
( ) show grestore 12296 13217 M 202 0 R D gsave 12185 13076 translate 0 0 M
-117.687 0 N
( ) show grestore 12296 14296 M 202 0 R D gsave 12185 14050 translate 0 0 M
-117.687 0 N
( ) show grestore 12296 10194 M 101 0 R D 12296 10410 M 101 0 R D
12296 10626 M 101 0 R D 12296 10842 M 101 0 R D 12296 11274 M 101 0 R D
12296 11490 M 101 0 R D 12296 11706 M 101 0 R D 12296 11921 M 101 0 R D
12296 12353 M 101 0 R D 12296 12569 M 101 0 R D 12296 12785 M 101 0 R D
12296 13001 M 101 0 R D 12296 13433 M 101 0 R D 12296 13648 M 101 0 R D
12296 13864 M 101 0 R D 12296 14080 M 101 0 R D 17334 10000 M 0 4296 R D
17334 11058 M -201 0 R D 17334 12137 M -201 0 R D 17334 13217 M -201 0 R D
17334 14296 M -201 0 R D 17334 10194 M -101 0 R D 17334 10410 M -101 0 R D
17334 10626 M -101 0 R D 17334 10842 M -101 0 R D 17334 11274 M -101 0 R D
17334 11490 M -101 0 R D 17334 11706 M -101 0 R D 17334 11921 M -101 0 R D
17334 12353 M -101 0 R D 17334 12569 M -101 0 R D 17334 12785 M -101 0 R D
17334 13001 M -101 0 R D 17334 13433 M -101 0 R D 17334 13648 M -101 0 R D
17334 13864 M -101 0 R D 17334 14080 M -101 0 R D 12511 10000 M 21 29 R
25 61 R 26 99 R 27 151 R 30 202 R 31 241 R 34 281 R 35 296 R 38 301 R
40 293 R 42 268 R 45 240 R 47 207 R 50 174 R 52 143 R 55 111 R 58 82 R
61 55 R 63 36 R 66 17 R 69 2 R 72 -10 R 75 -20 R 78 -31 R 81 -36 R 84 -46 R
87 -43 R 89 -55 R 93 -60 R 95 -53 R 98 -52 R 100 -53 R 103 -51 R 106 -50 R
107 -43 R 110 -46 R 112 -42 R 114 -38 R 115 -38 R 117 -36 R 118 -37 R
119 -42 R 119 -37 R 121 -27 R 121 -25 R 121 -23 R 120 -22 R 121 -21 R
119 -18 R 118 -18 R 118 -16 R 115 -19 R 114 -14 R 111 -14 R 109 -13 R
106 -10 R 103 -10 R 99 17 R D L1 12604 10000 M 6 3 R 30 36 R 31 60 R 34 81 R
35 121 R 38 150 R 40 172 R 42 215 R 45 221 R 47 223 R 50 214 R 52 218 R
55 194 R 58 185 R 61 155 R 63 140 R 66 124 R 69 87 R 72 78 R 75 46 R 78 44 R
81 24 R 84 17 R 87 13 R 89 -19 R 93 -7 R 95 -23 R 98 -21 R 100 -27 R
103 -35 R 106 -32 R 107 -39 R 110 -29 R 112 -34 R 114 -28 R 115 -26 R
117 -31 R 118 -30 R 119 -47 R 119 -30 R 121 -26 R 121 -27 R 121 -20 R
120 -19 R 121 -27 R 119 -18 R 118 -15 R 118 -27 R 115 -12 R 114 -6 R
111 -21 R 109 -11 R 106 -10 R 103 -11 R 99 24 R D L0 2220 5704 M 5038 0 R D
3187 5704 M 0 172 R D gsave 3187 5176 translate 0 0 M -58.8433 0 N
( ) show grestore 4205 5704 M 0 172 R D gsave 4205 5176 translate 0 0 M
-58.8433 0 N
( ) show grestore 5223 5704 M 0 172 R D gsave 5223 5176 translate 0 0 M
-58.8433 0 N
( ) show grestore 6240 5704 M 0 172 R D gsave 6240 5176 translate 0 0 M
-58.8433 0 N
( ) show grestore 7258 5704 M 0 172 R D gsave 7258 5176 translate 0 0 M
-58.8433 0 N
( ) show grestore 2424 5704 M 0 86 R D 2678 5704 M 0 86 R D 2933 5704 M
0 86 R D 3441 5704 M 0 86 R D 3696 5704 M 0 86 R D 3950 5704 M 0 86 R D
4459 5704 M 0 86 R D 4714 5704 M 0 86 R D 4968 5704 M 0 86 R D 5477 5704 M
0 86 R D 5731 5704 M 0 86 R D 5986 5704 M 0 86 R D 6495 5704 M 0 86 R D
6749 5704 M 0 86 R D 7004 5704 M 0 86 R D 2220 10000 M 5038 0 R D
3187 10000 M 0 -172 R D 4205 10000 M 0 -172 R D 5223 10000 M 0 -172 R D
6240 10000 M 0 -172 R D 7258 10000 M 0 -172 R D 2424 10000 M 0 -86 R D
2678 10000 M 0 -86 R D 2933 10000 M 0 -86 R D 3441 10000 M 0 -86 R D
3696 10000 M 0 -86 R D 3950 10000 M 0 -86 R D 4459 10000 M 0 -86 R D
4714 10000 M 0 -86 R D 4968 10000 M 0 -86 R D 5477 10000 M 0 -86 R D
5731 10000 M 0 -86 R D 5986 10000 M 0 -86 R D 6495 10000 M 0 -86 R D
6749 10000 M 0 -86 R D 7004 10000 M 0 -86 R D 2220 5704 M 0 4296 R D
2220 6762 M 202 0 R D gsave 2109 6621 translate 0 0 M -588.433 0 N
(0.5) show grestore 2220 7841 M 202 0 R D gsave 2109 7700 translate 0 0 M
-588.433 0 N
(1.0) show grestore 2220 8921 M 202 0 R D gsave 2109 8780 translate 0 0 M
-588.433 0 N
(1.5) show grestore 2220 10000 M 202 0 R D gsave 2109 9754 translate 0 0 M
-588.433 0 N
(2.0) show grestore 2220 5898 M 101 0 R D 2220 6114 M 101 0 R D 2220 6330 M
101 0 R D 2220 6546 M 101 0 R D 2220 6978 M 101 0 R D 2220 7194 M 101 0 R D
2220 7410 M 101 0 R D 2220 7625 M 101 0 R D 2220 8057 M 101 0 R D
2220 8273 M 101 0 R D 2220 8489 M 101 0 R D 2220 8705 M 101 0 R D
2220 9137 M 101 0 R D 2220 9352 M 101 0 R D 2220 9568 M 101 0 R D
2220 9784 M 101 0 R D 7258 5704 M 0 4296 R D 7258 6762 M -201 0 R D
7258 7841 M -201 0 R D 7258 8921 M -201 0 R D 7258 10000 M -201 0 R D
7258 5898 M -101 0 R D 7258 6114 M -101 0 R D 7258 6330 M -101 0 R D
7258 6546 M -101 0 R D 7258 6978 M -101 0 R D 7258 7194 M -101 0 R D
7258 7410 M -101 0 R D 7258 7625 M -101 0 R D 7258 8057 M -101 0 R D
7258 8273 M -101 0 R D 7258 8489 M -101 0 R D 7258 8705 M -101 0 R D
7258 9137 M -101 0 R D 7258 9352 M -101 0 R D 7258 9568 M -101 0 R D
7258 9784 M -101 0 R D 2429 5704 M 5 4 R 22 40 R 25 82 R 26 131 R 27 189 R
30 250 R 31 301 R 34 330 R 35 347 R 38 338 R 40 322 R 42 295 R 45 247 R
47 207 R 50 171 R 52 130 R 55 92 R 58 64 R 61 32 R 63 16 R 66 -3 R 69 -19 R
72 -35 R 75 -44 R 78 -49 R 81 -51 R 84 -59 R 87 -58 R 89 -63 R 93 -61 R
95 -65 R 98 -64 R 100 -61 R 103 -61 R 106 -59 R 107 -58 R 110 -59 R
112 -54 R 114 -51 R 115 -45 R 117 -42 R 118 -39 R 119 -38 R 119 -31 R
121 -33 R 121 -29 R 121 -32 R 120 -32 R 121 -26 R 119 -26 R 118 -22 R
118 -18 R 115 -16 R 114 -15 R 111 -14 R 109 -15 R 106 -11 R 103 -9 R 99 16 R
D L1 2523 5704 M 11 7 R 30 40 R 31 77 R 34 110 R 35 173 R 38 207 R 40 235 R
42 275 R 45 282 R 47 284 R 50 280 R 52 255 R 55 240 R 58 187 R 61 178 R
63 142 R 66 100 R 69 75 R 72 45 R 75 27 R 78 17 R 81 -5 R 84 -15 R 87 -26 R
89 -27 R 93 -34 R 95 -44 R 98 -48 R 100 -50 R 103 -52 R 106 -67 R 107 -52 R
110 -50 R 112 -54 R 114 -49 R 115 -42 R 117 -53 R 118 -31 R 119 -45 R
119 -35 R 121 -22 R 121 -39 R 121 -39 R 120 -27 R 121 -37 R 119 -36 R
118 -27 R 118 -25 R 115 -12 R 114 -23 R 111 -15 R 109 -5 R 106 -23 R
103 -7 R 99 17 R D L0 7258 5704 M 5038 0 R D 8225 5704 M 0 172 R D
gsave 8225 5176 translate 0 0 M -58.8433 0 N
( ) show grestore 9243 5704 M 0 172 R D gsave 9243 5176 translate 0 0 M
-58.8433 0 N
( ) show grestore 10261 5704 M 0 172 R D gsave 10261 5176 translate 0 0 M
-58.8433 0 N
( ) show grestore 11278 5704 M 0 172 R D gsave 11278 5176 translate 0 0 M
-58.8433 0 N
( ) show grestore 12296 5704 M 0 172 R D gsave 12296 5176 translate 0 0 M
-58.8433 0 N
( ) show grestore 7462 5704 M 0 86 R D 7716 5704 M 0 86 R D 7971 5704 M
0 86 R D 8479 5704 M 0 86 R D 8734 5704 M 0 86 R D 8988 5704 M 0 86 R D
9497 5704 M 0 86 R D 9752 5704 M 0 86 R D 10006 5704 M 0 86 R D 10515 5704 M
0 86 R D 10769 5704 M 0 86 R D 11024 5704 M 0 86 R D 11533 5704 M 0 86 R D
11787 5704 M 0 86 R D 12042 5704 M 0 86 R D 7258 10000 M 5038 0 R D
8225 10000 M 0 -172 R D 9243 10000 M 0 -172 R D 10261 10000 M 0 -172 R D
11278 10000 M 0 -172 R D 12296 10000 M 0 -172 R D 7462 10000 M 0 -86 R D
7716 10000 M 0 -86 R D 7971 10000 M 0 -86 R D 8479 10000 M 0 -86 R D
8734 10000 M 0 -86 R D 8988 10000 M 0 -86 R D 9497 10000 M 0 -86 R D
9752 10000 M 0 -86 R D 10006 10000 M 0 -86 R D 10515 10000 M 0 -86 R D
10769 10000 M 0 -86 R D 11024 10000 M 0 -86 R D 11533 10000 M 0 -86 R D
11787 10000 M 0 -86 R D 12042 10000 M 0 -86 R D 7258 5704 M 0 4296 R D
7258 6762 M 202 0 R D gsave 7147 6621 translate 0 0 M -117.687 0 N
( ) show grestore 7258 7841 M 202 0 R D gsave 7147 7700 translate 0 0 M
-117.687 0 N
( ) show grestore 7258 8921 M 202 0 R D gsave 7147 8780 translate 0 0 M
-117.687 0 N
( ) show grestore 7258 10000 M 202 0 R D gsave 7147 9754 translate 0 0 M
-117.687 0 N
( ) show grestore 7258 5898 M 101 0 R D 7258 6114 M 101 0 R D 7258 6330 M
101 0 R D 7258 6546 M 101 0 R D 7258 6978 M 101 0 R D 7258 7194 M 101 0 R D
7258 7410 M 101 0 R D 7258 7625 M 101 0 R D 7258 8057 M 101 0 R D
7258 8273 M 101 0 R D 7258 8489 M 101 0 R D 7258 8705 M 101 0 R D
7258 9137 M 101 0 R D 7258 9352 M 101 0 R D 7258 9568 M 101 0 R D
7258 9784 M 101 0 R D 12296 5704 M 0 4296 R D 12296 6762 M -201 0 R D
12296 7841 M -201 0 R D 12296 8921 M -201 0 R D 12296 10000 M -201 0 R D
12296 5898 M -101 0 R D 12296 6114 M -101 0 R D 12296 6330 M -101 0 R D
12296 6546 M -101 0 R D 12296 6978 M -101 0 R D 12296 7194 M -101 0 R D
12296 7410 M -101 0 R D 12296 7625 M -101 0 R D 12296 8057 M -101 0 R D
12296 8273 M -101 0 R D 12296 8489 M -101 0 R D 12296 8705 M -101 0 R D
12296 9137 M -101 0 R D 12296 9352 M -101 0 R D 12296 9568 M -101 0 R D
12296 9784 M -101 0 R D 7462 5704 M 10 9 R 22 46 R 25 88 R 26 143 R 27 201 R
30 266 R 31 308 R 34 343 R 35 351 R 38 343 R 40 313 R 42 281 R 45 245 R
47 196 R 50 159 R 52 119 R 55 87 R 58 57 R 61 31 R 63 8 R 66 -12 R 69 -31 R
72 -36 R 75 -41 R 78 -52 R 81 -56 R 84 -61 R 87 -61 R 89 -62 R 93 -58 R
95 -59 R 98 -59 R 100 -62 R 103 -57 R 106 -56 R 107 -58 R 110 -57 R
112 -53 R 114 -52 R 115 -56 R 117 -49 R 118 -40 R 119 -39 R 119 -38 R
121 -37 R 121 -33 R 121 -30 R 120 -23 R 121 -18 R 119 -17 R 118 -19 R
118 -20 R 115 -16 R 114 -14 R 111 -13 R 109 -13 R 106 -10 R 103 -8 R 99 19 R
D L1 7548 5704 M 24 26 R 30 55 R 31 100 R 34 148 R 35 197 R 38 230 R
40 268 R 42 276 R 45 297 R 47 289 R 50 270 R 52 244 R 55 196 R 58 187 R
61 149 R 63 118 R 66 59 R 69 58 R 72 27 R 75 16 R 78 -3 R 81 -17 R 84 -31 R
87 -31 R 89 -31 R 93 -27 R 95 -39 R 98 -43 R 100 -47 R 103 -55 R 106 -49 R
107 -54 R 110 -61 R 112 -48 R 114 -43 R 115 -55 R 117 -61 R 118 -40 R
119 -39 R 119 -32 R 121 -36 R 121 -47 R 121 -26 R 120 -29 R 121 -19 R
119 -18 R 118 -23 R 118 -10 R 115 -20 R 114 -15 R 111 -8 R 109 -14 R
106 -13 R 103 -8 R 99 19 R D L0 12296 5704 M 5038 0 R D 13263 5704 M 0 172 R
D gsave 13263 5176 translate 0 0 M -58.8433 0 N
( ) show grestore 14281 5704 M 0 172 R D gsave 14281 5176 translate 0 0 M
-58.8433 0 N
( ) show grestore 15299 5704 M 0 172 R D gsave 15299 5176 translate 0 0 M
-58.8433 0 N
( ) show grestore 16316 5704 M 0 172 R D gsave 16316 5176 translate 0 0 M
-58.8433 0 N
( ) show grestore 17334 5704 M 0 172 R D gsave 17334 5176 translate 0 0 M
-58.8433 0 N
( ) show grestore 12500 5704 M 0 86 R D 12754 5704 M 0 86 R D 13009 5704 M
0 86 R D 13517 5704 M 0 86 R D 13772 5704 M 0 86 R D 14026 5704 M 0 86 R D
14535 5704 M 0 86 R D 14790 5704 M 0 86 R D 15044 5704 M 0 86 R D
15553 5704 M 0 86 R D 15807 5704 M 0 86 R D 16062 5704 M 0 86 R D
16571 5704 M 0 86 R D 16825 5704 M 0 86 R D 17080 5704 M 0 86 R D
12296 10000 M 5038 0 R D 13263 10000 M 0 -172 R D 14281 10000 M 0 -172 R D
15299 10000 M 0 -172 R D 16316 10000 M 0 -172 R D 17334 10000 M 0 -172 R D
12500 10000 M 0 -86 R D 12754 10000 M 0 -86 R D 13009 10000 M 0 -86 R D
13517 10000 M 0 -86 R D 13772 10000 M 0 -86 R D 14026 10000 M 0 -86 R D
14535 10000 M 0 -86 R D 14790 10000 M 0 -86 R D 15044 10000 M 0 -86 R D
15553 10000 M 0 -86 R D 15807 10000 M 0 -86 R D 16062 10000 M 0 -86 R D
16571 10000 M 0 -86 R D 16825 10000 M 0 -86 R D 17080 10000 M 0 -86 R D
12296 5704 M 0 4296 R D 12296 6762 M 202 0 R D
gsave 12185 6621 translate 0 0 M -117.687 0 N
( ) show grestore 12296 7841 M 202 0 R D gsave 12185 7700 translate 0 0 M
-117.687 0 N
( ) show grestore 12296 8921 M 202 0 R D gsave 12185 8780 translate 0 0 M
-117.687 0 N
( ) show grestore 12296 10000 M 202 0 R D gsave 12185 9754 translate 0 0 M
-117.687 0 N
( ) show grestore 12296 5898 M 101 0 R D 12296 6114 M 101 0 R D 12296 6330 M
101 0 R D 12296 6546 M 101 0 R D 12296 6978 M 101 0 R D 12296 7194 M 101 0 R
D 12296 7410 M 101 0 R D 12296 7625 M 101 0 R D 12296 8057 M 101 0 R D
12296 8273 M 101 0 R D 12296 8489 M 101 0 R D 12296 8705 M 101 0 R D
12296 9137 M 101 0 R D 12296 9352 M 101 0 R D 12296 9568 M 101 0 R D
12296 9784 M 101 0 R D 17334 5704 M 0 4296 R D 17334 6762 M -201 0 R D
17334 7841 M -201 0 R D 17334 8921 M -201 0 R D 17334 10000 M -201 0 R D
17334 5898 M -101 0 R D 17334 6114 M -101 0 R D 17334 6330 M -101 0 R D
17334 6546 M -101 0 R D 17334 6978 M -101 0 R D 17334 7194 M -101 0 R D
17334 7410 M -101 0 R D 17334 7625 M -101 0 R D 17334 8057 M -101 0 R D
17334 8273 M -101 0 R D 17334 8489 M -101 0 R D 17334 8705 M -101 0 R D
17334 9137 M -101 0 R D 17334 9352 M -101 0 R D 17334 9568 M -101 0 R D
17334 9784 M -101 0 R D 12510 5704 M 22 36 R 25 73 R 26 122 R 27 185 R
30 240 R 31 291 R 34 326 R 35 347 R 38 342 R 40 323 R 42 291 R 45 255 R
47 210 R 50 166 R 52 135 R 55 100 R 58 70 R 61 44 R 63 21 R 66 -2 R 69 -14 R
72 -30 R 75 -38 R 78 -47 R 81 -54 R 84 -55 R 87 -58 R 89 -63 R 93 -60 R
95 -66 R 98 -64 R 100 -60 R 103 -64 R 106 -58 R 107 -59 R 110 -58 R
112 -51 R 114 -49 R 115 -43 R 117 -42 R 118 -40 R 119 -38 R 119 -36 R
121 -36 R 121 -30 R 121 -29 R 120 -32 R 121 -24 R 119 -26 R 118 -26 R
118 -19 R 115 -17 R 114 -16 R 111 -15 R 109 -16 R 106 -13 R 103 -9 R 99 17 R
D L1 12602 5704 M 8 5 R 30 38 R 31 67 R 34 122 R 35 163 R 38 216 R 40 251 R
42 274 R 45 302 R 47 283 R 50 285 R 52 257 R 55 205 R 58 196 R 61 168 R
63 115 R 66 82 R 69 88 R 72 36 R 75 20 R 78 -10 R 81 -4 R 84 -8 R 87 -36 R
89 -35 R 93 -26 R 95 -55 R 98 -47 R 100 -57 R 103 -47 R 106 -51 R 107 -41 R
110 -65 R 112 -28 R 114 -48 R 115 -58 R 117 -29 R 118 -40 R 119 -27 R
119 -43 R 121 -44 R 121 -10 R 121 -31 R 120 -24 R 121 -34 R 119 -26 R
118 -20 R 118 -23 R 115 -21 R 114 -14 R 111 -15 R 109 -18 R 106 -15 R
103 -12 R 99 26 R D L0 2220 1408 M 5038 0 R D 3187 1408 M 0 172 R D
gsave 3187 880 translate 0 0 M -294.217 0 N
(0.2) show grestore 4205 1408 M 0 172 R D gsave 4205 880 translate 0 0 M
-294.217 0 N
(0.4) show grestore 5223 1408 M 0 172 R D gsave 5223 880 translate 0 0 M
-294.217 0 N
(0.6) show grestore 6240 1408 M 0 172 R D gsave 6240 880 translate 0 0 M
-294.217 0 N
(0.8) show grestore 7258 1408 M 0 172 R D gsave 7258 880 translate 0 0 M
-294.217 0 N
(1.0) show grestore 2424 1408 M 0 86 R D 2678 1408 M 0 86 R D 2933 1408 M
0 86 R D 3441 1408 M 0 86 R D 3696 1408 M 0 86 R D 3950 1408 M 0 86 R D
4459 1408 M 0 86 R D 4714 1408 M 0 86 R D 4968 1408 M 0 86 R D 5477 1408 M
0 86 R D 5731 1408 M 0 86 R D 5986 1408 M 0 86 R D 6495 1408 M 0 86 R D
6749 1408 M 0 86 R D 7004 1408 M 0 86 R D 2220 5704 M 5038 0 R D 3187 5704 M
0 -172 R D 4205 5704 M 0 -172 R D 5223 5704 M 0 -172 R D 6240 5704 M
0 -172 R D 7258 5704 M 0 -172 R D 2424 5704 M 0 -86 R D 2678 5704 M 0 -86 R
D 2933 5704 M 0 -86 R D 3441 5704 M 0 -86 R D 3696 5704 M 0 -86 R D
3950 5704 M 0 -86 R D 4459 5704 M 0 -86 R D 4714 5704 M 0 -86 R D
4968 5704 M 0 -86 R D 5477 5704 M 0 -86 R D 5731 5704 M 0 -86 R D
5986 5704 M 0 -86 R D 6495 5704 M 0 -86 R D 6749 5704 M 0 -86 R D
7004 5704 M 0 -86 R D 2220 1408 M 0 4296 R D 2220 2466 M 202 0 R D
gsave 2109 2325 translate 0 0 M -588.433 0 N
(0.5) show grestore 2220 3545 M 202 0 R D gsave 2109 3404 translate 0 0 M
-588.433 0 N
(1.0) show grestore 2220 4625 M 202 0 R D gsave 2109 4484 translate 0 0 M
-588.433 0 N
(1.5) show grestore 2220 5704 M 202 0 R D gsave 2109 5458 translate 0 0 M
-588.433 0 N
(2.0) show grestore 2220 1602 M 101 0 R D 2220 1818 M 101 0 R D 2220 2034 M
101 0 R D 2220 2250 M 101 0 R D 2220 2682 M 101 0 R D 2220 2898 M 101 0 R D
2220 3114 M 101 0 R D 2220 3329 M 101 0 R D 2220 3761 M 101 0 R D
2220 3977 M 101 0 R D 2220 4193 M 101 0 R D 2220 4409 M 101 0 R D
2220 4841 M 101 0 R D 2220 5056 M 101 0 R D 2220 5272 M 101 0 R D
2220 5488 M 101 0 R D 7258 1408 M 0 4296 R D 7258 2466 M -201 0 R D
7258 3545 M -201 0 R D 7258 4625 M -201 0 R D 7258 5704 M -201 0 R D
7258 1602 M -101 0 R D 7258 1818 M -101 0 R D 7258 2034 M -101 0 R D
7258 2250 M -101 0 R D 7258 2682 M -101 0 R D 7258 2898 M -101 0 R D
7258 3114 M -101 0 R D 7258 3329 M -101 0 R D 7258 3761 M -101 0 R D
7258 3977 M -101 0 R D 7258 4193 M -101 0 R D 7258 4409 M -101 0 R D
7258 4841 M -101 0 R D 7258 5056 M -101 0 R D 7258 5272 M -101 0 R D
7258 5488 M -101 0 R D 2441 1408 M 15 16 R 25 54 R 26 97 R 27 151 R 30 216 R
31 272 R 34 318 R 35 346 R 38 351 R 40 345 R 42 316 R 45 280 R 47 237 R
50 192 R 52 154 R 55 120 R 58 86 R 61 51 R 63 28 R 66 6 R 69 -6 R 72 -23 R
75 -39 R 78 -41 R 81 -53 R 84 -54 R 87 -63 R 89 -65 R 93 -62 R 95 -66 R
98 -65 R 100 -64 R 103 -63 R 106 -59 R 107 -58 R 110 -57 R 112 -52 R
114 -51 R 115 -50 R 117 -50 R 118 -53 R 119 -53 R 119 -45 R 121 -35 R
121 -30 R 121 -33 R 120 -29 R 121 -26 R 119 -25 R 118 -22 R 118 -22 R
115 -23 R 114 -15 R 111 -18 R 109 -15 R 106 -13 R 103 -14 R 99 13 R D L1
2549 1408 M 15 11 R 31 38 R 34 64 R 35 103 R 38 139 R 40 206 R 42 244 R
45 276 R 47 282 R 50 286 R 52 271 R 55 247 R 58 231 R 61 179 R 63 162 R
66 125 R 69 111 R 72 82 R 75 30 R 78 49 R 81 13 R 84 7 R 87 1 R 89 -26 R
93 -36 R 95 -38 R 98 -35 R 100 -30 R 103 -49 R 106 -53 R 107 -46 R 110 -42 R
112 -47 R 114 -45 R 115 -49 R 117 -54 R 118 -50 R 119 -52 R 119 -46 R
121 -32 R 121 -33 R 121 -27 R 120 -23 R 121 -23 R 119 -24 R 118 -22 R
118 -30 R 115 -22 R 114 -25 R 111 -6 R 109 -19 R 106 -22 R 103 -18 R 99 4 R
D L0 7258 1408 M 5038 0 R D 8225 1408 M 0 172 R D
gsave 8225 880 translate 0 0 M -294.217 0 N
(0.2) show grestore 9243 1408 M 0 172 R D gsave 9243 880 translate 0 0 M
-294.217 0 N
(0.4) show grestore 10261 1408 M 0 172 R D gsave 10261 880 translate 0 0 M
-294.217 0 N
(0.6) show grestore 11278 1408 M 0 172 R D gsave 11278 880 translate 0 0 M
-294.217 0 N
(0.8) show grestore 12296 1408 M 0 172 R D gsave 12296 880 translate 0 0 M
-294.217 0 N
(1.0) show grestore 7462 1408 M 0 86 R D 7716 1408 M 0 86 R D 7971 1408 M
0 86 R D 8479 1408 M 0 86 R D 8734 1408 M 0 86 R D 8988 1408 M 0 86 R D
9497 1408 M 0 86 R D 9752 1408 M 0 86 R D 10006 1408 M 0 86 R D 10515 1408 M
0 86 R D 10769 1408 M 0 86 R D 11024 1408 M 0 86 R D 11533 1408 M 0 86 R D
11787 1408 M 0 86 R D 12042 1408 M 0 86 R D 7258 5704 M 5038 0 R D
8225 5704 M 0 -172 R D 9243 5704 M 0 -172 R D 10261 5704 M 0 -172 R D
11278 5704 M 0 -172 R D 12296 5704 M 0 -172 R D 7462 5704 M 0 -86 R D
7716 5704 M 0 -86 R D 7971 5704 M 0 -86 R D 8479 5704 M 0 -86 R D
8734 5704 M 0 -86 R D 8988 5704 M 0 -86 R D 9497 5704 M 0 -86 R D
9752 5704 M 0 -86 R D 10006 5704 M 0 -86 R D 10515 5704 M 0 -86 R D
10769 5704 M 0 -86 R D 11024 5704 M 0 -86 R D 11533 5704 M 0 -86 R D
11787 5704 M 0 -86 R D 12042 5704 M 0 -86 R D 7258 1408 M 0 4296 R D
7258 2466 M 202 0 R D gsave 7147 2325 translate 0 0 M -117.687 0 N
( ) show grestore 7258 3545 M 202 0 R D gsave 7147 3404 translate 0 0 M
-117.687 0 N
( ) show grestore 7258 4625 M 202 0 R D gsave 7147 4484 translate 0 0 M
-117.687 0 N
( ) show grestore 7258 5704 M 202 0 R D gsave 7147 5458 translate 0 0 M
-117.687 0 N
( ) show grestore 7258 1602 M 101 0 R D 7258 1818 M 101 0 R D 7258 2034 M
101 0 R D 7258 2250 M 101 0 R D 7258 2682 M 101 0 R D 7258 2898 M 101 0 R D
7258 3114 M 101 0 R D 7258 3329 M 101 0 R D 7258 3761 M 101 0 R D
7258 3977 M 101 0 R D 7258 4193 M 101 0 R D 7258 4409 M 101 0 R D
7258 4841 M 101 0 R D 7258 5056 M 101 0 R D 7258 5272 M 101 0 R D
7258 5488 M 101 0 R D 12296 1408 M 0 4296 R D 12296 2466 M -201 0 R D
12296 3545 M -201 0 R D 12296 4625 M -201 0 R D 12296 5704 M -201 0 R D
12296 1602 M -101 0 R D 12296 1818 M -101 0 R D 12296 2034 M -101 0 R D
12296 2250 M -101 0 R D 12296 2682 M -101 0 R D 12296 2898 M -101 0 R D
12296 3114 M -101 0 R D 12296 3329 M -101 0 R D 12296 3761 M -101 0 R D
12296 3977 M -101 0 R D 12296 4193 M -101 0 R D 12296 4409 M -101 0 R D
12296 4841 M -101 0 R D 12296 5056 M -101 0 R D 12296 5272 M -101 0 R D
12296 5488 M -101 0 R D 7476 1408 M 18 22 R 25 59 R 26 105 R 27 163 R
30 224 R 31 278 R 34 321 R 35 342 R 38 347 R 40 330 R 42 306 R 45 262 R
47 226 R 50 187 R 52 144 R 55 110 R 58 76 R 61 48 R 63 27 R 66 4 R 69 -14 R
72 -32 R 75 -34 R 78 -48 R 81 -53 R 84 -59 R 87 -61 R 89 -64 R 93 -66 R
95 -66 R 98 -67 R 100 -68 R 103 -61 R 106 -56 R 107 -54 R 110 -51 R
112 -54 R 114 -50 R 115 -47 R 117 -47 R 118 -38 R 119 -38 R 119 -33 R
121 -33 R 121 -28 R 121 -29 R 120 -27 R 121 -25 R 119 -24 R 118 -21 R
118 -19 R 115 -18 R 114 -16 R 111 -15 R 109 -15 R 106 -13 R 103 -16 R
99 16 R D L1 7577 1408 M 25 26 R 31 50 R 34 95 R 35 137 R 38 180 R 40 232 R
42 256 R 45 285 R 47 287 R 50 272 R 52 265 R 55 239 R 58 204 R 61 148 R
63 139 R 66 98 R 69 91 R 72 52 R 75 38 R 78 19 R 81 -2 R 84 -15 R 87 -37 R
89 -25 R 93 -46 R 95 -37 R 98 -48 R 100 -47 R 103 -49 R 106 -45 R 107 -44 R
110 -49 R 112 -44 R 114 -45 R 115 -40 R 117 -50 R 118 -27 R 119 -42 R
119 -22 R 121 -32 R 121 -32 R 121 -32 R 120 -17 R 121 -32 R 119 -16 R
118 -18 R 118 -14 R 115 -17 R 114 -18 R 111 -3 R 109 -20 R 106 -16 R
103 -11 R 99 16 R D L0 12296 1408 M 5038 0 R D 13263 1408 M 0 172 R D
gsave 13263 880 translate 0 0 M -294.217 0 N
(0.2) show grestore 14281 1408 M 0 172 R D gsave 14281 880 translate 0 0 M
-294.217 0 N
(0.4) show grestore 15299 1408 M 0 172 R D gsave 15299 880 translate 0 0 M
-294.217 0 N
(0.6) show grestore 16316 1408 M 0 172 R D gsave 16316 880 translate 0 0 M
-294.217 0 N
(0.8) show grestore 17334 1408 M 0 172 R D gsave 17334 880 translate 0 0 M
-294.217 0 N
(1.0) show grestore 12500 1408 M 0 86 R D 12754 1408 M 0 86 R D 13009 1408 M
0 86 R D 13517 1408 M 0 86 R D 13772 1408 M 0 86 R D 14026 1408 M 0 86 R D
14535 1408 M 0 86 R D 14790 1408 M 0 86 R D 15044 1408 M 0 86 R D
15553 1408 M 0 86 R D 15807 1408 M 0 86 R D 16062 1408 M 0 86 R D
16571 1408 M 0 86 R D 16825 1408 M 0 86 R D 17080 1408 M 0 86 R D
12296 5704 M 5038 0 R D 13263 5704 M 0 -172 R D 14281 5704 M 0 -172 R D
15299 5704 M 0 -172 R D 16316 5704 M 0 -172 R D 17334 5704 M 0 -172 R D
12500 5704 M 0 -86 R D 12754 5704 M 0 -86 R D 13009 5704 M 0 -86 R D
13517 5704 M 0 -86 R D 13772 5704 M 0 -86 R D 14026 5704 M 0 -86 R D
14535 5704 M 0 -86 R D 14790 5704 M 0 -86 R D 15044 5704 M 0 -86 R D
15553 5704 M 0 -86 R D 15807 5704 M 0 -86 R D 16062 5704 M 0 -86 R D
16571 5704 M 0 -86 R D 16825 5704 M 0 -86 R D 17080 5704 M 0 -86 R D
12296 1408 M 0 4296 R D 12296 2466 M 202 0 R D
gsave 12185 2325 translate 0 0 M -117.687 0 N
( ) show grestore 12296 3545 M 202 0 R D gsave 12185 3404 translate 0 0 M
-117.687 0 N
( ) show grestore 12296 4625 M 202 0 R D gsave 12185 4484 translate 0 0 M
-117.687 0 N
( ) show grestore 12296 5704 M 202 0 R D gsave 12185 5458 translate 0 0 M
-117.687 0 N
( ) show grestore 12296 1602 M 101 0 R D 12296 1818 M 101 0 R D 12296 2034 M
101 0 R D 12296 2250 M 101 0 R D 12296 2682 M 101 0 R D 12296 2898 M 101 0 R
D 12296 3114 M 101 0 R D 12296 3329 M 101 0 R D 12296 3761 M 101 0 R D
12296 3977 M 101 0 R D 12296 4193 M 101 0 R D 12296 4409 M 101 0 R D
12296 4841 M 101 0 R D 12296 5056 M 101 0 R D 12296 5272 M 101 0 R D
12296 5488 M 101 0 R D 17334 1408 M 0 4296 R D 17334 2466 M -201 0 R D
17334 3545 M -201 0 R D 17334 4625 M -201 0 R D 17334 5704 M -201 0 R D
17334 1602 M -101 0 R D 17334 1818 M -101 0 R D 17334 2034 M -101 0 R D
17334 2250 M -101 0 R D 17334 2682 M -101 0 R D 17334 2898 M -101 0 R D
17334 3114 M -101 0 R D 17334 3329 M -101 0 R D 17334 3761 M -101 0 R D
17334 3977 M -101 0 R D 17334 4193 M -101 0 R D 17334 4409 M -101 0 R D
17334 4841 M -101 0 R D 17334 5056 M -101 0 R D 17334 5272 M -101 0 R D
17334 5488 M -101 0 R D 12535 1408 M 22 27 R 26 63 R 27 108 R 30 166 R
31 221 R 34 275 R 35 312 R 38 331 R 40 332 R 42 317 R 45 290 R 47 255 R
50 216 R 52 178 R 55 140 R 58 102 R 61 73 R 63 42 R 66 26 R 69 2 R 72 -13 R
75 -29 R 78 -37 R 81 -40 R 84 -48 R 87 -52 R 89 -53 R 93 -55 R 95 -59 R
98 -60 R 100 -63 R 103 -57 R 106 -52 R 107 -56 R 110 -50 R 112 -49 R
114 -48 R 115 -43 R 117 -45 R 118 -42 R 119 -35 R 119 -41 R 121 -41 R
121 -37 R 121 -37 R 120 -37 R 121 -28 R 119 -22 R 118 -22 R 118 -19 R
115 -17 R 114 -15 R 111 -17 R 109 -14 R 106 -9 R 103 -13 R 99 16 R D L1
12648 1408 M 23 16 R 34 46 R 35 88 R 38 132 R 40 173 R 42 226 R 45 249 R
47 276 R 50 276 R 52 267 R 55 247 R 58 221 R 61 203 R 63 177 R 66 117 R
69 120 R 72 76 R 75 59 R 78 25 R 81 15 R 84 15 R 87 -15 R 89 -7 R 93 -19 R
95 -26 R 98 -52 R 100 -32 R 103 -42 R 106 -46 R 107 -43 R 110 -26 R
112 -45 R 114 -39 R 115 -38 R 117 -30 R 118 -43 R 119 -32 R 119 -38 R
121 -40 R 121 -33 R 121 -46 R 120 -41 R 121 -26 R 119 -29 R 118 -23 R
118 -9 R 115 -25 R 114 -15 R 111 -5 R 109 -18 R 106 -10 R 103 -10 R 99 16 R
D
%%PageTrailer
end
%%PageResources: font Helvetica
%%Trailer
%%Pages: 1
%%DocumentNeededResources: font Helvetica
%%EOF
