%!PS-Adobe-3.0 EPSF-3.0
%%BoundingBox: 0 0 538 453
%%Title: Graphics produced by IDL
%%For: jlgan@aida119, /home/jlgan/work/subhalo_model
%%Creator: IDL Version 7.0 (linux x86_64 m64)
%%CreationDate: Wed Feb 25 23:44:19 2009
%%DocumentData: Clean7bit
%%Requirements: color
%%LanguageLevel: 1
%%PageOrder: Ascend
%%Pages: (atend)
%%DocumentNeededResources: (atend)
%%EndComments
%%BeginProlog
%+ prolog.ps -- Prolog for IDL generated PostScript files
%+ Copyright (c) 1988-2007 ITT Visual Information Solutions. All Rights Reserved.
%v 5
/$IDL_DICT 40 dict def $IDL_DICT begin /bdef { bind def } bind def /C
{currentpoint newpath moveto} bdef /CP {currentpoint} bdef /D {currentpoint
stroke moveto} bdef /F {closepath fill} bdef /K { setgray } bdef /M {moveto}
bdef /N {rmoveto} bdef /P {lineto} bdef /R {rlineto} bdef /S {gsave show
grestore} bdef /X {currentpoint pop} bdef /Z {gsave currentpoint lineto 20
setlinewidth 1 setlinecap stroke grestore} bdef /L0 {[] 0 setdash} bdef /L1
{[40 100] 0 setdash} bdef /L2 {[200 200] 0 setdash} bdef /L3 {[200 100 50
100] 0 setdash} bdef /L4 {[300 100 50 100 50 100 50 100] 0 setdash} bdef /L5
{[400 200] 0 setdash} bdef /STDFONT { findfont exch scalefont setfont } bdef
/ISOFONT { findfont dup length dict begin { 1 index /FID ne {def} {pop pop}
ifelse } forall /Encoding ISOLatin1Encoding def currentdict end /idltmpfont
exch definefont exch scalefont setfont } bdef /ISOBULLET { gsave /Helvetica
findfont exch scalefont setfont (\267) show currentpoint grestore moveto}
bdef /MITERLIMIT { 2.5 setmiterlimit } bdef end
%%EndProlog
%%Page: 0 1
%%PageRequirements: color
%%PageResources: (atend)
%%PageOrientation: Portrait
%%PageBoundingBox: 0 0 538 453
%%BeginPageSetup
$IDL_DICT begin 0.0283465 dup scale MITERLIMIT
%%IncludeResource: font Helvetica
423.333 /Helvetica STDFONT
%%EndPageSetup
20 setlinewidth L0 0.000 0.000 0.000 setrgbcolor 9696 1220 M 0 -164 R D
9696 1173 M 35 35 R 23 12 R 35 0 R 24 -12 R 11 -35 R 0 -117 R D 9824 1173 M
35 35 R 24 12 R 35 0 R 23 -12 R 12 -35 R 0 -117 R D 10128 1348 M -23 -23 R
-24 -35 R -23 -47 R -12 -58 R 0 -47 R 12 -59 R 23 -58 R 24 -35 R 23 -23 R D
10268 1301 M -35 -11 R -23 -35 R -12 -59 R 0 -35 R 12 -58 R 23 -35 R
35 -12 R 24 0 R 35 12 R 23 35 R 12 58 R 0 35 R -12 59 R -23 35 R -35 11 R
-24 0 R D 10432 1348 M 23 -23 R 24 -35 R 23 -47 R 12 -58 R 0 -47 R -12 -59 R
-23 -58 R -24 -35 R -23 -23 R D 10794 1348 M -210 -385 R D 10864 1301 M
0 -245 R D 10864 1301 M 94 -245 R 93 245 R 0 -245 R D 11226 1348 M -23 -23 R
-23 -35 R -24 -47 R -11 -58 R 0 -47 R 11 -59 R 24 -58 R 23 -35 R 23 -23 R D
11367 1301 M -35 -11 R -24 -35 R -11 -59 R 0 -35 R 11 -58 R 24 -35 R
35 -12 R 23 0 R 35 12 R 23 35 R 12 58 R 0 35 R -12 59 R -23 35 R -35 11 R
-23 0 R D 11530 1348 M 24 -23 R 23 -35 R 23 -47 R 12 -58 R 0 -47 R -12 -59 R
-23 -58 R -23 -35 R -24 -23 R D 2215 7079 M 163 0 R D 2261 7079 M -35 35 R
-11 24 R 0 35 R 11 23 R 35 12 R 117 0 R D 2261 7208 M -35 35 R -11 23 R
0 35 R 11 24 R 35 11 R 117 0 R D 2285 7418 M 0 140 R -24 0 R -23 -11 R
-12 -12 R -11 -23 R 0 -35 R 11 -24 R 24 -23 R 35 -12 R 23 0 R 35 12 R
23 23 R 12 24 R 0 35 R -12 23 R -23 23 R D 2215 7769 M 198 0 R 35 -12 R
12 -12 R 12 -23 R 0 -35 R -12 -24 R D 2250 7769 M -24 -24 R -11 -23 R
0 -35 R 11 -24 R 24 -23 R 35 -12 R 23 0 R 35 12 R 23 23 R 12 24 R 0 35 R
-12 23 R -23 24 R D 2285 7850 M 0 141 R -24 0 R -23 -12 R -12 -12 R
-11 -23 R 0 -35 R 11 -24 R 24 -23 R 35 -12 R 23 0 R 35 12 R 23 23 R 12 24 R
0 35 R -12 23 R -23 24 R D 2215 8072 M 163 0 R D 2285 8072 M -35 12 R
-24 23 R -11 24 R 0 35 R D 2133 8423 M 198 0 R 35 12 R 12 23 R 0 23 R D
2215 8388 M 0 82 R D 2133 8540 M 11 11 R -11 12 R -12 -12 R 12 -11 R D
2215 8551 M 163 0 R D 2215 8645 M 163 0 R D 2261 8645 M -35 35 R -11 23 R
0 35 R 11 24 R 35 11 R 117 0 R D 2261 8773 M -35 36 R -11 23 R 0 35 R
11 23 R 35 12 R 117 0 R D 2285 8984 M 0 140 R -24 0 R -23 -12 R -12 -11 R
-11 -24 R 0 -35 R 11 -23 R 24 -24 R 35 -11 R 23 0 R 35 11 R 23 24 R 12 23 R
0 35 R -12 24 R -23 23 R D 2086 9393 M 386 -211 R D 2191 9626 M -23 -11 R
-24 -24 R -11 -23 R 0 -47 R 11 -23 R 24 -23 R 23 -12 R 35 -12 R 59 0 R
35 12 R 23 12 R 23 23 R 12 23 R 0 47 R -12 23 R -23 24 R -23 11 R -35 0 R
0 -58 R D 2215 9685 M 163 70 R -163 70 R D 2378 9755 M 59 -23 R 23 -24 R
12 -23 R 0 -12 R D 2215 9895 M 163 0 R D 2285 9895 M -35 12 R -24 23 R
-11 24 R 0 35 R D 3710 10667 M 4130 0 R D 3710 10667 M 0 171 R D
4536 10667 M 0 171 R D 5362 10667 M 0 171 R D 6188 10667 M 0 171 R D
7014 10667 M 0 171 R D 7840 10667 M 0 171 R D 3875 10667 M 0 85 R D
4041 10667 M 0 85 R D 4206 10667 M 0 85 R D 4371 10667 M 0 85 R D
4701 10667 M 0 85 R D 4867 10667 M 0 85 R D 5032 10667 M 0 85 R D
5197 10667 M 0 85 R D 5527 10667 M 0 85 R D 5693 10667 M 0 85 R D
5858 10667 M 0 85 R D 6023 10667 M 0 85 R D 6354 10667 M 0 85 R D
6519 10667 M 0 85 R D 6684 10667 M 0 85 R D 6849 10667 M 0 85 R D
7180 10667 M 0 85 R D 7345 10667 M 0 85 R D 7510 10667 M 0 85 R D
7675 10667 M 0 85 R D 3710 14944 M 4130 0 R D 3710 14944 M 0 -171 R D
4536 14944 M 0 -171 R D 5362 14944 M 0 -171 R D 6188 14944 M 0 -171 R D
7014 14944 M 0 -171 R D 7840 14944 M 0 -171 R D 3875 14944 M 0 -85 R D
4041 14944 M 0 -85 R D 4206 14944 M 0 -85 R D 4371 14944 M 0 -85 R D
4701 14944 M 0 -85 R D 4867 14944 M 0 -85 R D 5032 14944 M 0 -85 R D
5197 14944 M 0 -85 R D 5527 14944 M 0 -85 R D 5693 14944 M 0 -85 R D
5858 14944 M 0 -85 R D 6023 14944 M 0 -85 R D 6354 14944 M 0 -85 R D
6519 14944 M 0 -85 R D 6684 14944 M 0 -85 R D 6849 14944 M 0 -85 R D
7180 14944 M 0 -85 R D 7345 14944 M 0 -85 R D 7510 14944 M 0 -85 R D
7675 14944 M 0 -85 R D 3710 10667 M 0 4277 R D 3710 11636 M 165 0 R D
3400 11682 M 0 12 R 12 23 R 12 12 R 23 11 R 47 0 R 23 -11 R 12 -12 R
12 -23 R 0 -24 R -12 -23 R -23 -35 R -117 -117 R 163 0 R D 3710 12693 M
165 0 R D 3506 12798 M -117 -164 R 175 0 R D 3506 12798 M 0 -246 R D
3710 13751 M 165 0 R D 3541 13820 M -12 24 R -35 11 R -23 0 R -35 -11 R
-24 -36 R -12 -58 R 0 -58 R 12 -47 R 24 -23 R 35 -12 R 11 0 R 35 12 R
24 23 R 11 35 R 0 12 R -11 35 R -24 23 R -35 12 R -11 0 R -35 -12 R
-24 -23 R -12 -35 R D 3710 14808 M 165 0 R D 3447 14913 M -35 -12 R
-12 -23 R 0 -24 R 12 -23 R 24 -12 R 46 -12 R 35 -11 R 24 -24 R 11 -23 R
0 -35 R -11 -23 R -12 -12 R -35 -12 R -47 0 R -35 12 R -12 12 R -11 23 R
0 35 R 11 23 R 24 24 R 35 11 R 47 12 R 23 12 R 12 23 R 0 24 R -12 23 R
-35 12 R -47 0 R D 3710 10843 M 83 0 R D 3710 11107 M 83 0 R D 3710 11372 M
83 0 R D 3710 11900 M 83 0 R D 3710 12165 M 83 0 R D 3710 12429 M 83 0 R D
3710 12958 M 83 0 R D 3710 13222 M 83 0 R D 3710 13486 M 83 0 R D
3710 14015 M 83 0 R D 3710 14279 M 83 0 R D 3710 14544 M 83 0 R D
7840 10667 M 0 4277 R D 7840 11636 M -165 0 R D 7840 12693 M -165 0 R D
7840 13751 M -165 0 R D 7840 14808 M -165 0 R D 7840 10843 M -82 0 R D
7840 11107 M -82 0 R D 7840 11372 M -82 0 R D 7840 11900 M -82 0 R D
7840 12165 M -82 0 R D 7840 12429 M -82 0 R D 7840 12958 M -82 0 R D
7840 13222 M -82 0 R D 7840 13486 M -82 0 R D 7840 14015 M -82 0 R D
7840 14279 M -82 0 R D 7840 14544 M -82 0 R D L1 3710 14944 M 413 -1419 R
413 -695 R 496 -477 R 330 -210 R 826 -341 R 826 -204 R 826 -137 R D L2
4120 14944 M 3 -8 R 413 -729 R 496 -533 R 330 -248 R 826 -419 R 826 -266 R
826 -185 R D L0 0.373 0.000 0.000 setrgbcolor 3710 13182 M 413 -1108 R
413 -380 R 496 -297 R 330 -141 R 826 -169 R 826 -22 R 826 -8 R D
50 setlinewidth 3798 14944 M 325 -1747 R 413 -1215 R 496 -361 R 330 -176 R
826 -279 R 826 -94 R 826 -13 R D 80 setlinewidth 3710 13197 M 413 -461 R
413 -365 R 496 -346 R 330 -188 R 826 -368 R 826 -344 R 826 -54 R D
110 setlinewidth 3710 11053 M 413 -1 R 413 0 R 496 1 R 330 0 R 826 1 R
826 -2 R 826 1 R D 20 setlinewidth 0.000 0.000 0.000 setrgbcolor
6329 14572 M -24 12 R -35 0 R -23 -12 R -24 -23 R -11 -35 R 0 -35 R 11 -35 R
12 -12 R 23 -12 R 35 0 R 24 12 R D 6212 14502 M 93 0 R D 6410 14560 M
211 0 R D 6410 14490 M 211 0 R D 6773 14666 M -36 -12 R -23 -35 R -12 -59 R
0 -35 R 12 -58 R 23 -35 R 36 -12 R 23 0 R 35 12 R 23 35 R 12 58 R 0 35 R
-12 59 R -23 35 R -35 12 R -23 0 R D 6959 14444 M -11 -12 R 11 -12 R 12 12 R
-12 12 R D 7076 14666 M 129 0 R -70 -94 R 35 0 R 23 -12 R 12 -11 R 12 -35 R
0 -24 R -12 -35 R -24 -23 R -35 -12 R -35 0 R -35 12 R -11 12 R -12 23 R D
8600 10667 M 4131 0 R D 8600 10667 M 0 171 R D 9426 10667 M 0 171 R D
10253 10667 M 0 171 R D 11079 10667 M 0 171 R D 11905 10667 M 0 171 R D
12731 10667 M 0 171 R D 8766 10667 M 0 85 R D 8931 10667 M 0 85 R D
9096 10667 M 0 85 R D 9261 10667 M 0 85 R D 9592 10667 M 0 85 R D
9757 10667 M 0 85 R D 9922 10667 M 0 85 R D 10087 10667 M 0 85 R D
10418 10667 M 0 85 R D 10583 10667 M 0 85 R D 10748 10667 M 0 85 R D
10913 10667 M 0 85 R D 11244 10667 M 0 85 R D 11409 10667 M 0 85 R D
11574 10667 M 0 85 R D 11739 10667 M 0 85 R D 12070 10667 M 0 85 R D
12235 10667 M 0 85 R D 12400 10667 M 0 85 R D 12566 10667 M 0 85 R D
8600 14944 M 4131 0 R D 8600 14944 M 0 -171 R D 9426 14944 M 0 -171 R D
10253 14944 M 0 -171 R D 11079 14944 M 0 -171 R D 11905 14944 M 0 -171 R D
12731 14944 M 0 -171 R D 8766 14944 M 0 -85 R D 8931 14944 M 0 -85 R D
9096 14944 M 0 -85 R D 9261 14944 M 0 -85 R D 9592 14944 M 0 -85 R D
9757 14944 M 0 -85 R D 9922 14944 M 0 -85 R D 10087 14944 M 0 -85 R D
10418 14944 M 0 -85 R D 10583 14944 M 0 -85 R D 10748 14944 M 0 -85 R D
10913 14944 M 0 -85 R D 11244 14944 M 0 -85 R D 11409 14944 M 0 -85 R D
11574 14944 M 0 -85 R D 11739 14944 M 0 -85 R D 12070 14944 M 0 -85 R D
12235 14944 M 0 -85 R D 12400 14944 M 0 -85 R D 12566 14944 M 0 -85 R D
8600 10667 M 0 4277 R D 8600 11302 M 166 0 R D 8291 11348 M 0 11 R 11 24 R
12 11 R 24 12 R 46 0 R 24 -12 R 11 -11 R 12 -24 R 0 -23 R -12 -23 R
-23 -35 R -117 -117 R 164 0 R D 8600 12025 M 166 0 R D 8396 12129 M
-117 -163 R 175 0 R D 8396 12129 M 0 -245 R D 8600 12748 M 166 0 R D
8431 12817 M -12 24 R -35 11 R -23 0 R -35 -11 R -24 -35 R -11 -59 R 0 -58 R
11 -47 R 24 -23 R 35 -12 R 12 0 R 35 12 R 23 23 R 12 35 R 0 12 R -12 35 R
-23 23 R -35 12 R -12 0 R -35 -12 R -24 -23 R -11 -35 R D 8600 13471 M
166 0 R D 8338 13575 M -36 -11 R -11 -24 R 0 -23 R 11 -23 R 24 -12 R
47 -12 R 35 -11 R 23 -24 R 12 -23 R 0 -35 R -12 -24 R -12 -11 R -35 -12 R
-46 0 R -36 12 R -11 11 R -12 24 R 0 35 R 12 23 R 23 24 R 35 11 R 47 12 R
23 12 R 12 23 R 0 23 R -12 24 R -35 11 R -46 0 R D 8600 14194 M 166 0 R D
8080 14252 M 24 12 R 35 35 R 0 -246 R D 8349 14299 M -35 -12 R -23 -35 R
-12 -59 R 0 -35 R 12 -58 R 23 -35 R 35 -12 R 24 0 R 35 12 R 23 35 R 12 58 R
0 35 R -12 59 R -23 35 R -35 12 R -24 0 R D 8600 14917 M 166 0 R D
8080 14896 M 24 12 R 35 35 R 0 -245 R D 8291 14885 M 0 11 R 11 24 R 12 11 R
24 12 R 46 0 R 24 -12 R 11 -11 R 12 -24 R 0 -23 R -12 -23 R -23 -35 R
-117 -117 R 164 0 R D 8600 10759 M 83 0 R D 8600 10940 M 83 0 R D
8600 11121 M 83 0 R D 8600 11482 M 83 0 R D 8600 11663 M 83 0 R D
8600 11844 M 83 0 R D 8600 12205 M 83 0 R D 8600 12386 M 83 0 R D
8600 12567 M 83 0 R D 8600 12929 M 83 0 R D 8600 13109 M 83 0 R D
8600 13290 M 83 0 R D 8600 13652 M 83 0 R D 8600 13832 M 83 0 R D
8600 14013 M 83 0 R D 8600 14375 M 83 0 R D 8600 14556 M 83 0 R D
8600 14736 M 83 0 R D 12731 10667 M 0 4277 R D 12731 11302 M -165 0 R D
12731 12025 M -165 0 R D 12731 12748 M -165 0 R D 12731 13471 M -165 0 R D
12731 14194 M -165 0 R D 12731 14917 M -165 0 R D 12731 10759 M -83 0 R D
12731 10940 M -83 0 R D 12731 11121 M -83 0 R D 12731 11482 M -83 0 R D
12731 11663 M -83 0 R D 12731 11844 M -83 0 R D 12731 12205 M -83 0 R D
12731 12386 M -83 0 R D 12731 12567 M -83 0 R D 12731 12929 M -83 0 R D
12731 13109 M -83 0 R D 12731 13290 M -83 0 R D 12731 13652 M -83 0 R D
12731 13832 M -83 0 R D 12731 14013 M -83 0 R D 12731 14375 M -83 0 R D
12731 14556 M -83 0 R D 12731 14736 M -83 0 R D L1 8600 14944 M 413 -1419 R
413 -695 R 496 -477 R 331 -210 R 826 -341 R 826 -204 R 825 -137 R D L2
8657 14944 M 356 -924 R 413 -575 R 496 -422 R 331 -195 R 826 -332 R
826 -209 R 825 -146 R D L0 0.373 0.000 0.000 setrgbcolor 8600 13143 M
413 -993 R 413 -505 R 496 -256 R 331 -129 R 826 -180 R 826 -75 R 825 -39 R D
50 setlinewidth 8600 14755 M 413 -1517 R 413 -1113 R 496 -554 R 331 -156 R
826 -249 R 826 -119 R 825 -61 R D 80 setlinewidth 8600 13920 M 413 -635 R
413 -514 R 496 -849 R 331 -220 R 826 -297 R 826 -214 R 825 -128 R D
110 setlinewidth 8600 10957 M 413 -2 R 413 -1 R 496 -8 R 331 0 R 826 -1 R
826 0 R 825 0 R D 20 setlinewidth 0.000 0.000 0.000 setrgbcolor
11219 14572 M -24 12 R -35 0 R -23 -12 R -23 -23 R -12 -35 R 0 -35 R
12 -35 R 11 -12 R 24 -12 R 35 0 R 23 12 R D 11102 14502 M 93 0 R D
11301 14560 M 210 0 R D 11301 14490 M 210 0 R D 11663 14666 M -35 -12 R
-24 -35 R -11 -59 R 0 -35 R 11 -58 R 24 -35 R 35 -12 R 23 0 R 35 12 R
24 35 R 11 58 R 0 35 R -11 59 R -24 35 R -35 12 R -23 0 R D 11850 14444 M
-12 -12 R 12 -12 R 11 12 R -11 12 R D 12083 14666 M -116 0 R -12 -106 R
12 12 R 35 12 R 35 0 R 35 -12 R 23 -23 R 12 -35 R 0 -24 R -12 -35 R
-23 -23 R -35 -12 R -35 0 R -35 12 R -12 12 R -12 23 R D 13491 10667 M
4130 0 R D 13491 10667 M 0 171 R D 14317 10667 M 0 171 R D 15143 10667 M
0 171 R D 15969 10667 M 0 171 R D 16795 10667 M 0 171 R D 17621 10667 M
0 171 R D 13656 10667 M 0 85 R D 13821 10667 M 0 85 R D 13986 10667 M 0 85 R
D 14152 10667 M 0 85 R D 14482 10667 M 0 85 R D 14647 10667 M 0 85 R D
14812 10667 M 0 85 R D 14978 10667 M 0 85 R D 15308 10667 M 0 85 R D
15473 10667 M 0 85 R D 15639 10667 M 0 85 R D 15804 10667 M 0 85 R D
16134 10667 M 0 85 R D 16299 10667 M 0 85 R D 16465 10667 M 0 85 R D
16630 10667 M 0 85 R D 16960 10667 M 0 85 R D 17125 10667 M 0 85 R D
17291 10667 M 0 85 R D 17456 10667 M 0 85 R D 13491 14944 M 4130 0 R D
13491 14944 M 0 -171 R D 14317 14944 M 0 -171 R D 15143 14944 M 0 -171 R D
15969 14944 M 0 -171 R D 16795 14944 M 0 -171 R D 17621 14944 M 0 -171 R D
13656 14944 M 0 -85 R D 13821 14944 M 0 -85 R D 13986 14944 M 0 -85 R D
14152 14944 M 0 -85 R D 14482 14944 M 0 -85 R D 14647 14944 M 0 -85 R D
14812 14944 M 0 -85 R D 14978 14944 M 0 -85 R D 15308 14944 M 0 -85 R D
15473 14944 M 0 -85 R D 15639 14944 M 0 -85 R D 15804 14944 M 0 -85 R D
16134 14944 M 0 -85 R D 16299 14944 M 0 -85 R D 16465 14944 M 0 -85 R D
16630 14944 M 0 -85 R D 16960 14944 M 0 -85 R D 17125 14944 M 0 -85 R D
17291 14944 M 0 -85 R D 17456 14944 M 0 -85 R D 13491 10667 M 0 4277 R D
13491 11278 M 165 0 R D 13310 11382 M -117 0 R -12 -105 R 12 12 R 35 11 R
35 0 R 35 -11 R 23 -24 R 12 -35 R 0 -23 R -12 -35 R -23 -23 R -35 -12 R
-35 0 R -35 12 R -12 11 R -12 24 R D 13491 11977 M 165 0 R D 12971 12035 M
23 11 R 35 35 R 0 -245 R D 13240 12081 M -36 -11 R -23 -35 R -12 -59 R
0 -35 R 12 -58 R 23 -35 R 36 -12 R 23 0 R 35 12 R 23 35 R 12 58 R 0 35 R
-12 59 R -23 35 R -35 11 R -23 0 R D 13491 12676 M 165 0 R D 12971 12734 M
23 11 R 35 35 R 0 -245 R D 13310 12780 M -117 0 R -12 -105 R 12 12 R 35 12 R
35 0 R 35 -12 R 23 -23 R 12 -35 R 0 -24 R -12 -35 R -23 -23 R -35 -12 R
-35 0 R -35 12 R -12 11 R -12 24 R D 13491 13375 M 165 0 R D 12947 13421 M
0 12 R 12 23 R 12 12 R 23 12 R 47 0 R 23 -12 R 12 -12 R 12 -23 R 0 -23 R
-12 -24 R -23 -35 R -117 -117 R 163 0 R D 13240 13480 M -36 -12 R -23 -35 R
-12 -59 R 0 -35 R 12 -58 R 23 -35 R 36 -12 R 23 0 R 35 12 R 23 35 R 12 58 R
0 35 R -12 59 R -23 35 R -35 12 R -23 0 R D 13491 14074 M 165 0 R D
12947 14120 M 0 12 R 12 23 R 12 12 R 23 12 R 47 0 R 23 -12 R 12 -12 R
12 -23 R 0 -23 R -12 -24 R -23 -35 R -117 -117 R 163 0 R D 13310 14179 M
-117 0 R -12 -105 R 12 11 R 35 12 R 35 0 R 35 -12 R 23 -23 R 12 -35 R
0 -24 R -12 -35 R -23 -23 R -35 -12 R -35 0 R -35 12 R -12 12 R -12 23 R D
13491 14773 M 165 0 R D 12959 14878 M 129 0 R -70 -94 R 35 0 R 23 -11 R
12 -12 R 11 -35 R 0 -23 R -11 -35 R -24 -24 R -35 -11 R -35 0 R -35 11 R
-12 12 R -11 23 R D 13240 14878 M -36 -12 R -23 -35 R -12 -58 R 0 -35 R
12 -59 R 23 -35 R 36 -11 R 23 0 R 35 11 R 23 35 R 12 59 R 0 35 R -12 58 R
-23 35 R -35 12 R -23 0 R D 13491 10718 M 82 0 R D 13491 10858 M 82 0 R D
13491 10998 M 82 0 R D 13491 11138 M 82 0 R D 13491 11417 M 82 0 R D
13491 11557 M 82 0 R D 13491 11697 M 82 0 R D 13491 11837 M 82 0 R D
13491 12117 M 82 0 R D 13491 12256 M 82 0 R D 13491 12396 M 82 0 R D
13491 12536 M 82 0 R D 13491 12816 M 82 0 R D 13491 12956 M 82 0 R D
13491 13095 M 82 0 R D 13491 13235 M 82 0 R D 13491 13515 M 82 0 R D
13491 13655 M 82 0 R D 13491 13795 M 82 0 R D 13491 13934 M 82 0 R D
13491 14214 M 82 0 R D 13491 14354 M 82 0 R D 13491 14494 M 82 0 R D
13491 14634 M 82 0 R D 13491 14913 M 82 0 R D 17621 10667 M 0 4277 R D
17621 11278 M -165 0 R D 17621 11977 M -165 0 R D 17621 12676 M -165 0 R D
17621 13375 M -165 0 R D 17621 14074 M -165 0 R D 17621 14773 M -165 0 R D
17621 10718 M -83 0 R D 17621 10858 M -83 0 R D 17621 10998 M -83 0 R D
17621 11138 M -83 0 R D 17621 11417 M -83 0 R D 17621 11557 M -83 0 R D
17621 11697 M -83 0 R D 17621 11837 M -83 0 R D 17621 12117 M -83 0 R D
17621 12256 M -83 0 R D 17621 12396 M -83 0 R D 17621 12536 M -83 0 R D
17621 12816 M -83 0 R D 17621 12956 M -83 0 R D 17621 13095 M -83 0 R D
17621 13235 M -83 0 R D 17621 13515 M -83 0 R D 17621 13655 M -83 0 R D
17621 13795 M -83 0 R D 17621 13934 M -83 0 R D 17621 14214 M -83 0 R D
17621 14354 M -83 0 R D 17621 14494 M -83 0 R D 17621 14634 M -83 0 R D
17621 14913 M -83 0 R D L1 13491 14944 M 413 -1419 R 413 -695 R 495 -477 R
331 -210 R 826 -341 R 826 -204 R 826 -137 R D L2 13491 12782 M 413 -524 R
413 -281 R 495 -205 R 331 -96 R 826 -161 R 826 -103 R 826 -71 R D L0
0.373 0.000 0.000 setrgbcolor 13491 12233 M 413 -540 R 413 -258 R 495 -173 R
331 -71 R 826 -116 R 826 -59 R 826 -38 R D 50 setlinewidth 13491 13025 M
413 -950 R 413 -456 R 495 -265 R 331 -103 R 826 -147 R 826 -74 R 826 -47 R D
80 setlinewidth 13491 13430 M 413 -1063 R 413 -500 R 495 -318 R 331 -144 R
826 -215 R 826 -118 R 826 -67 R D 110 setlinewidth 13491 14051 M 413 -1293 R
413 -619 R 495 -459 R 331 -138 R 826 -180 R 826 -286 R 826 -64 R D
20 setlinewidth 14021 14622 M 0 -245 R D 14115 14540 M 0 -163 R D
14115 14493 M 35 35 R 23 12 R 35 0 R 24 -12 R 11 -35 R 0 -116 R D
14395 14622 M -93 -245 R D 14395 14622 M 94 -245 R D 14547 14517 M 211 0 R D
14547 14447 M 211 0 R D 14851 14564 M 0 11 R 12 24 R 11 11 R 24 12 R 47 0 R
23 -12 R 12 -11 R 11 -24 R 0 -23 R -11 -24 R -24 -35 R -117 -116 R 164 0 R D
15096 14400 M -11 -12 R 11 -11 R 12 11 R -12 12 R D 15330 14622 M -117 0 R
-11 -105 R 11 11 R 35 12 R 35 0 R 35 -12 R 24 -23 R 11 -35 R 0 -23 R
-11 -35 R -24 -24 R -35 -11 R -35 0 R -35 11 R -11 12 R -12 23 R D
0.000 0.000 0.000 setrgbcolor 16109 14572 M -23 12 R -35 0 R -24 -12 R
-23 -23 R -12 -35 R 0 -35 R 12 -35 R 12 -12 R 23 -12 R 35 0 R 23 12 R D
15992 14502 M 94 0 R D 16191 14560 M 210 0 R D 16191 14490 M 210 0 R D
16518 14619 M 23 12 R 36 35 R 0 -246 R D 16740 14444 M -12 -12 R 12 -12 R
12 12 R -12 12 R D 16904 14666 M -35 -12 R -24 -35 R -11 -59 R 0 -35 R
11 -58 R 24 -35 R 35 -12 R 23 0 R 35 12 R 23 35 R 12 58 R 0 35 R -12 59 R
-23 35 R -35 12 R -23 0 R D 3710 6389 M 4130 0 R D 3710 6389 M 0 172 R D
4536 6389 M 0 172 R D 5362 6389 M 0 172 R D 6188 6389 M 0 172 R D
7014 6389 M 0 172 R D 7840 6389 M 0 172 R D 3875 6389 M 0 86 R D 4041 6389 M
0 86 R D 4206 6389 M 0 86 R D 4371 6389 M 0 86 R D 4701 6389 M 0 86 R D
4867 6389 M 0 86 R D 5032 6389 M 0 86 R D 5197 6389 M 0 86 R D 5527 6389 M
0 86 R D 5693 6389 M 0 86 R D 5858 6389 M 0 86 R D 6023 6389 M 0 86 R D
6354 6389 M 0 86 R D 6519 6389 M 0 86 R D 6684 6389 M 0 86 R D 6849 6389 M
0 86 R D 7180 6389 M 0 86 R D 7345 6389 M 0 86 R D 7510 6389 M 0 86 R D
7675 6389 M 0 86 R D 3710 10667 M 4130 0 R D 3710 10667 M 0 -171 R D
4536 10667 M 0 -171 R D 5362 10667 M 0 -171 R D 6188 10667 M 0 -171 R D
7014 10667 M 0 -171 R D 7840 10667 M 0 -171 R D 3875 10667 M 0 -86 R D
4041 10667 M 0 -86 R D 4206 10667 M 0 -86 R D 4371 10667 M 0 -86 R D
4701 10667 M 0 -86 R D 4867 10667 M 0 -86 R D 5032 10667 M 0 -86 R D
5197 10667 M 0 -86 R D 5527 10667 M 0 -86 R D 5693 10667 M 0 -86 R D
5858 10667 M 0 -86 R D 6023 10667 M 0 -86 R D 6354 10667 M 0 -86 R D
6519 10667 M 0 -86 R D 6684 10667 M 0 -86 R D 6849 10667 M 0 -86 R D
7180 10667 M 0 -86 R D 7345 10667 M 0 -86 R D 7510 10667 M 0 -86 R D
7675 10667 M 0 -86 R D 3710 6389 M 0 4278 R D 3710 7359 M 165 0 R D
3400 7405 M 0 11 R 12 24 R 12 11 R 23 12 R 47 0 R 23 -12 R 12 -11 R 12 -24 R
0 -23 R -12 -23 R -23 -35 R -117 -117 R 163 0 R D 3710 8416 M 165 0 R D
3506 8521 M -117 -164 R 175 0 R D 3506 8521 M 0 -246 R D 3710 9473 M 165 0 R
D 3541 9543 M -12 23 R -35 12 R -23 0 R -35 -12 R -24 -35 R -12 -58 R
0 -59 R 12 -46 R 24 -24 R 35 -11 R 11 0 R 35 11 R 24 24 R 11 35 R 0 11 R
-11 35 R -24 24 R -35 11 R -11 0 R -35 -11 R -24 -24 R -12 -35 R D
3710 10531 M 165 0 R D 3447 10635 M -35 -11 R -12 -24 R 0 -23 R 12 -23 R
24 -12 R 46 -12 R 35 -12 R 24 -23 R 11 -23 R 0 -35 R -11 -24 R -12 -11 R
-35 -12 R -47 0 R -35 12 R -12 11 R -11 24 R 0 35 R 11 23 R 24 23 R 35 12 R
47 12 R 23 12 R 12 23 R 0 23 R -12 24 R -35 11 R -47 0 R D 3710 6566 M
83 0 R D 3710 6830 M 83 0 R D 3710 7094 M 83 0 R D 3710 7623 M 83 0 R D
3710 7887 M 83 0 R D 3710 8152 M 83 0 R D 3710 8680 M 83 0 R D 3710 8945 M
83 0 R D 3710 9209 M 83 0 R D 3710 9738 M 83 0 R D 3710 10002 M 83 0 R D
3710 10266 M 83 0 R D 7840 6389 M 0 4278 R D 7840 7359 M -165 0 R D
7840 8416 M -165 0 R D 7840 9473 M -165 0 R D 7840 10531 M -165 0 R D
7840 6566 M -82 0 R D 7840 6830 M -82 0 R D 7840 7094 M -82 0 R D
7840 7623 M -82 0 R D 7840 7887 M -82 0 R D 7840 8152 M -82 0 R D
7840 8680 M -82 0 R D 7840 8945 M -82 0 R D 7840 9209 M -82 0 R D
7840 9738 M -82 0 R D 7840 10002 M -82 0 R D 7840 10266 M -82 0 R D L1
3710 10666 M 413 -1418 R 413 -696 R 496 -476 R 330 -210 R 826 -341 R
826 -205 R 826 -136 R D L2 4120 10666 M 3 -8 R 413 -728 R 496 -534 R
330 -247 R 826 -420 R 826 -265 R 826 -185 R D L0
0.380 0.639 0.000 setrgbcolor 3710 8867 M 413 -1085 R 413 -374 R 496 -312 R
330 -118 R 826 -170 R 826 -21 R 826 -7 R D 50 setlinewidth 3710 10271 M
413 -1940 R 413 -761 R 496 -334 R 330 -158 R 826 -250 R 826 -37 R 826 -9 R D
80 setlinewidth 3710 8722 M 413 -493 R 413 -377 R 496 -340 R 330 -185 R
826 -344 R 826 -180 R 826 -17 R D 110 setlinewidth 3710 6775 M 413 0 R
413 0 R 496 1 R 330 0 R 826 1 R 826 -2 R 826 1 R D 20 setlinewidth
0.000 0.000 0.000 setrgbcolor 6329 10295 M -24 11 R -35 0 R -23 -11 R
-24 -24 R -11 -35 R 0 -35 R 11 -35 R 12 -11 R 23 -12 R 35 0 R 24 12 R D
6212 10225 M 93 0 R D 6410 10283 M 211 0 R D 6410 10213 M 211 0 R D
6773 10388 M -36 -11 R -23 -35 R -12 -59 R 0 -35 R 12 -58 R 23 -35 R
36 -12 R 23 0 R 35 12 R 23 35 R 12 58 R 0 35 R -12 59 R -23 35 R -35 11 R
-23 0 R D 6959 10166 M -11 -11 R 11 -12 R 12 12 R -12 11 R D 7076 10388 M
129 0 R -70 -93 R 35 0 R 23 -12 R 12 -12 R 12 -35 R 0 -23 R -12 -35 R
-24 -23 R -35 -12 R -35 0 R -35 12 R -11 11 R -12 24 R D 8600 6389 M
4131 0 R D 8600 6389 M 0 172 R D 9426 6389 M 0 172 R D 10253 6389 M 0 172 R
D 11079 6389 M 0 172 R D 11905 6389 M 0 172 R D 12731 6389 M 0 172 R D
8766 6389 M 0 86 R D 8931 6389 M 0 86 R D 9096 6389 M 0 86 R D 9261 6389 M
0 86 R D 9592 6389 M 0 86 R D 9757 6389 M 0 86 R D 9922 6389 M 0 86 R D
10087 6389 M 0 86 R D 10418 6389 M 0 86 R D 10583 6389 M 0 86 R D
10748 6389 M 0 86 R D 10913 6389 M 0 86 R D 11244 6389 M 0 86 R D
11409 6389 M 0 86 R D 11574 6389 M 0 86 R D 11739 6389 M 0 86 R D
12070 6389 M 0 86 R D 12235 6389 M 0 86 R D 12400 6389 M 0 86 R D
12566 6389 M 0 86 R D 8600 10667 M 4131 0 R D 8600 10667 M 0 -171 R D
9426 10667 M 0 -171 R D 10253 10667 M 0 -171 R D 11079 10667 M 0 -171 R D
11905 10667 M 0 -171 R D 12731 10667 M 0 -171 R D 8766 10667 M 0 -86 R D
8931 10667 M 0 -86 R D 9096 10667 M 0 -86 R D 9261 10667 M 0 -86 R D
9592 10667 M 0 -86 R D 9757 10667 M 0 -86 R D 9922 10667 M 0 -86 R D
10087 10667 M 0 -86 R D 10418 10667 M 0 -86 R D 10583 10667 M 0 -86 R D
10748 10667 M 0 -86 R D 10913 10667 M 0 -86 R D 11244 10667 M 0 -86 R D
11409 10667 M 0 -86 R D 11574 10667 M 0 -86 R D 11739 10667 M 0 -86 R D
12070 10667 M 0 -86 R D 12235 10667 M 0 -86 R D 12400 10667 M 0 -86 R D
12566 10667 M 0 -86 R D 8600 6389 M 0 4278 R D 8600 7024 M 166 0 R D
8291 7070 M 0 12 R 11 23 R 12 12 R 24 12 R 46 0 R 24 -12 R 11 -12 R 12 -23 R
0 -23 R -12 -24 R -23 -35 R -117 -117 R 164 0 R D 8600 7747 M 166 0 R D
8396 7852 M -117 -164 R 175 0 R D 8396 7852 M 0 -245 R D 8600 8470 M 166 0 R
D 8431 8540 M -12 23 R -35 12 R -23 0 R -35 -12 R -24 -35 R -11 -58 R
0 -59 R 11 -46 R 24 -24 R 35 -11 R 12 0 R 35 11 R 23 24 R 12 35 R 0 11 R
-12 36 R -23 23 R -35 12 R -12 0 R -35 -12 R -24 -23 R -11 -36 R D
8600 9194 M 166 0 R D 8338 9298 M -36 -12 R -11 -23 R 0 -23 R 11 -24 R
24 -11 R 47 -12 R 35 -12 R 23 -23 R 12 -23 R 0 -35 R -12 -24 R -12 -12 R
-35 -11 R -46 0 R -36 11 R -11 12 R -12 24 R 0 35 R 12 23 R 23 23 R 35 12 R
47 12 R 23 11 R 12 24 R 0 23 R -12 23 R -35 12 R -46 0 R D 8600 9917 M
166 0 R D 8080 9975 M 24 11 R 35 35 R 0 -245 R D 8349 10021 M -35 -11 R
-23 -35 R -12 -59 R 0 -35 R 12 -58 R 23 -35 R 35 -12 R 24 0 R 35 12 R
23 35 R 12 58 R 0 35 R -12 59 R -23 35 R -35 11 R -24 0 R D 8600 10640 M
166 0 R D 8080 10619 M 24 12 R 35 35 R 0 -246 R D 8291 10607 M 0 12 R
11 23 R 12 12 R 24 12 R 46 0 R 24 -12 R 11 -12 R 12 -23 R 0 -23 R -12 -24 R
-23 -35 R -117 -117 R 164 0 R D 8600 6482 M 83 0 R D 8600 6663 M 83 0 R D
8600 6843 M 83 0 R D 8600 7205 M 83 0 R D 8600 7386 M 83 0 R D 8600 7567 M
83 0 R D 8600 7928 M 83 0 R D 8600 8109 M 83 0 R D 8600 8290 M 83 0 R D
8600 8651 M 83 0 R D 8600 8832 M 83 0 R D 8600 9013 M 83 0 R D 8600 9374 M
83 0 R D 8600 9555 M 83 0 R D 8600 9736 M 83 0 R D 8600 10097 M 83 0 R D
8600 10278 M 83 0 R D 8600 10459 M 83 0 R D 12731 6389 M 0 4278 R D
12731 7024 M -165 0 R D 12731 7747 M -165 0 R D 12731 8470 M -165 0 R D
12731 9194 M -165 0 R D 12731 9917 M -165 0 R D 12731 10640 M -165 0 R D
12731 6482 M -83 0 R D 12731 6663 M -83 0 R D 12731 6843 M -83 0 R D
12731 7205 M -83 0 R D 12731 7386 M -83 0 R D 12731 7567 M -83 0 R D
12731 7928 M -83 0 R D 12731 8109 M -83 0 R D 12731 8290 M -83 0 R D
12731 8651 M -83 0 R D 12731 8832 M -83 0 R D 12731 9013 M -83 0 R D
12731 9374 M -83 0 R D 12731 9555 M -83 0 R D 12731 9736 M -83 0 R D
12731 10097 M -83 0 R D 12731 10278 M -83 0 R D 12731 10459 M -83 0 R D L1
8600 10666 M 413 -1418 R 413 -696 R 496 -476 R 331 -210 R 826 -341 R
826 -205 R 825 -136 R D L2 8657 10666 M 356 -923 R 413 -576 R 496 -421 R
331 -196 R 826 -331 R 826 -210 R 825 -146 R D L0
0.380 0.639 0.000 setrgbcolor 8600 8815 M 413 -974 R 413 -483 R 496 -257 R
331 -117 R 826 -186 R 826 -68 R 825 -41 R D 50 setlinewidth 8600 9862 M
413 -1523 R 413 -712 R 496 -420 R 331 -138 R 826 -224 R 826 -91 R 825 -55 R
D 80 setlinewidth 8600 9335 M 413 -696 R 413 -563 R 496 -674 R 331 -149 R
826 -281 R 826 -158 R 825 -85 R D 110 setlinewidth 8600 6679 M 413 -2 R
413 -1 R 496 -1 R 331 -7 R 826 0 R 826 -1 R 825 0 R D 20 setlinewidth
0.000 0.000 0.000 setrgbcolor 11219 10295 M -24 11 R -35 0 R -23 -11 R
-23 -24 R -12 -35 R 0 -35 R 12 -35 R 11 -11 R 24 -12 R 35 0 R 23 12 R D
11102 10225 M 93 0 R D 11301 10283 M 210 0 R D 11301 10213 M 210 0 R D
11663 10388 M -35 -11 R -24 -35 R -11 -59 R 0 -35 R 11 -58 R 24 -35 R
35 -12 R 23 0 R 35 12 R 24 35 R 11 58 R 0 35 R -11 59 R -24 35 R -35 11 R
-23 0 R D 11850 10166 M -12 -11 R 12 -12 R 11 12 R -11 11 R D 12083 10388 M
-116 0 R -12 -105 R 12 12 R 35 11 R 35 0 R 35 -11 R 23 -24 R 12 -35 R
0 -23 R -12 -35 R -23 -23 R -35 -12 R -35 0 R -35 12 R -12 11 R -12 24 R D
13491 6389 M 4130 0 R D 13491 6389 M 0 172 R D 14317 6389 M 0 172 R D
15143 6389 M 0 172 R D 15969 6389 M 0 172 R D 16795 6389 M 0 172 R D
17621 6389 M 0 172 R D 13656 6389 M 0 86 R D 13821 6389 M 0 86 R D
13986 6389 M 0 86 R D 14152 6389 M 0 86 R D 14482 6389 M 0 86 R D
14647 6389 M 0 86 R D 14812 6389 M 0 86 R D 14978 6389 M 0 86 R D
15308 6389 M 0 86 R D 15473 6389 M 0 86 R D 15639 6389 M 0 86 R D
15804 6389 M 0 86 R D 16134 6389 M 0 86 R D 16299 6389 M 0 86 R D
16465 6389 M 0 86 R D 16630 6389 M 0 86 R D 16960 6389 M 0 86 R D
17125 6389 M 0 86 R D 17291 6389 M 0 86 R D 17456 6389 M 0 86 R D
13491 10667 M 4130 0 R D 13491 10667 M 0 -171 R D 14317 10667 M 0 -171 R D
15143 10667 M 0 -171 R D 15969 10667 M 0 -171 R D 16795 10667 M 0 -171 R D
17621 10667 M 0 -171 R D 13656 10667 M 0 -86 R D 13821 10667 M 0 -86 R D
13986 10667 M 0 -86 R D 14152 10667 M 0 -86 R D 14482 10667 M 0 -86 R D
14647 10667 M 0 -86 R D 14812 10667 M 0 -86 R D 14978 10667 M 0 -86 R D
15308 10667 M 0 -86 R D 15473 10667 M 0 -86 R D 15639 10667 M 0 -86 R D
15804 10667 M 0 -86 R D 16134 10667 M 0 -86 R D 16299 10667 M 0 -86 R D
16465 10667 M 0 -86 R D 16630 10667 M 0 -86 R D 16960 10667 M 0 -86 R D
17125 10667 M 0 -86 R D 17291 10667 M 0 -86 R D 17456 10667 M 0 -86 R D
13491 6389 M 0 4278 R D 13491 7000 M 165 0 R D 13310 7105 M -117 0 R
-12 -105 R 12 11 R 35 12 R 35 0 R 35 -12 R 23 -23 R 12 -35 R 0 -23 R
-12 -35 R -23 -24 R -35 -12 R -35 0 R -35 12 R -12 12 R -12 23 R D
13491 7699 M 165 0 R D 12971 7757 M 23 12 R 35 35 R 0 -245 R D 13240 7804 M
-36 -12 R -23 -35 R -12 -58 R 0 -35 R 12 -59 R 23 -35 R 36 -11 R 23 0 R
35 11 R 23 35 R 12 59 R 0 35 R -12 58 R -23 35 R -35 12 R -23 0 R D
13491 8399 M 165 0 R D 12971 8456 M 23 12 R 35 35 R 0 -245 R D 13310 8503 M
-117 0 R -12 -105 R 12 12 R 35 11 R 35 0 R 35 -11 R 23 -24 R 12 -35 R
0 -23 R -12 -35 R -23 -24 R -35 -11 R -35 0 R -35 11 R -12 12 R -12 24 R D
13491 9098 M 165 0 R D 12947 9144 M 0 12 R 12 23 R 12 12 R 23 11 R 47 0 R
23 -11 R 12 -12 R 12 -23 R 0 -24 R -12 -23 R -23 -35 R -117 -117 R 163 0 R D
13240 9202 M -36 -11 R -23 -35 R -12 -59 R 0 -35 R 12 -58 R 23 -35 R
36 -12 R 23 0 R 35 12 R 23 35 R 12 58 R 0 35 R -12 59 R -23 35 R -35 11 R
-23 0 R D 13491 9797 M 165 0 R D 12947 9843 M 0 12 R 12 23 R 12 12 R 23 11 R
47 0 R 23 -11 R 12 -12 R 12 -23 R 0 -24 R -12 -23 R -23 -35 R -117 -117 R
163 0 R D 13310 9901 M -117 0 R -12 -105 R 12 12 R 35 12 R 35 0 R 35 -12 R
23 -23 R 12 -35 R 0 -24 R -12 -35 R -23 -23 R -35 -12 R -35 0 R -35 12 R
-12 11 R -12 24 R D 13491 10496 M 165 0 R D 12959 10601 M 129 0 R -70 -94 R
35 0 R 23 -12 R 12 -11 R 11 -35 R 0 -24 R -11 -35 R -24 -23 R -35 -12 R
-35 0 R -35 12 R -12 12 R -11 23 R D 13240 10601 M -36 -12 R -23 -35 R
-12 -59 R 0 -35 R 12 -58 R 23 -35 R 36 -12 R 23 0 R 35 12 R 23 35 R 12 58 R
0 35 R -12 59 R -23 35 R -35 12 R -23 0 R D 13491 6441 M 82 0 R D
13491 6581 M 82 0 R D 13491 6721 M 82 0 R D 13491 6860 M 82 0 R D
13491 7140 M 82 0 R D 13491 7280 M 82 0 R D 13491 7420 M 82 0 R D
13491 7560 M 82 0 R D 13491 7839 M 82 0 R D 13491 7979 M 82 0 R D
13491 8119 M 82 0 R D 13491 8259 M 82 0 R D 13491 8538 M 82 0 R D
13491 8678 M 82 0 R D 13491 8818 M 82 0 R D 13491 8958 M 82 0 R D
13491 9238 M 82 0 R D 13491 9377 M 82 0 R D 13491 9517 M 82 0 R D
13491 9657 M 82 0 R D 13491 9937 M 82 0 R D 13491 10077 M 82 0 R D
13491 10216 M 82 0 R D 13491 10356 M 82 0 R D 13491 10636 M 82 0 R D
17621 6389 M 0 4278 R D 17621 7000 M -165 0 R D 17621 7699 M -165 0 R D
17621 8399 M -165 0 R D 17621 9098 M -165 0 R D 17621 9797 M -165 0 R D
17621 10496 M -165 0 R D 17621 6441 M -83 0 R D 17621 6581 M -83 0 R D
17621 6721 M -83 0 R D 17621 6860 M -83 0 R D 17621 7140 M -83 0 R D
17621 7280 M -83 0 R D 17621 7420 M -83 0 R D 17621 7560 M -83 0 R D
17621 7839 M -83 0 R D 17621 7979 M -83 0 R D 17621 8119 M -83 0 R D
17621 8259 M -83 0 R D 17621 8538 M -83 0 R D 17621 8678 M -83 0 R D
17621 8818 M -83 0 R D 17621 8958 M -83 0 R D 17621 9238 M -83 0 R D
17621 9377 M -83 0 R D 17621 9517 M -83 0 R D 17621 9657 M -83 0 R D
17621 9937 M -83 0 R D 17621 10077 M -83 0 R D 17621 10216 M -83 0 R D
17621 10356 M -83 0 R D 17621 10636 M -83 0 R D L1 13491 10666 M 413 -1418 R
413 -696 R 495 -476 R 331 -210 R 826 -341 R 826 -205 R 826 -136 R D L2
13491 8505 M 413 -524 R 413 -281 R 495 -206 R 331 -95 R 826 -162 R
826 -102 R 826 -71 R D L0 0.380 0.639 0.000 setrgbcolor 13491 7931 M
413 -526 R 413 -252 R 495 -169 R 331 -70 R 826 -116 R 826 -60 R 826 -38 R D
50 setlinewidth 13491 8355 M 413 -766 R 413 -346 R 495 -214 R 331 -84 R
826 -131 R 826 -68 R 826 -41 R D 80 setlinewidth 13491 8544 M 413 -773 R
413 -389 R 495 -252 R 331 -110 R 826 -169 R 826 -89 R 826 -49 R D
110 setlinewidth 13491 8669 M 413 -800 R 413 -437 R 495 -220 R 331 -94 R
826 -267 R 826 -92 R 826 -38 R D 20 setlinewidth 14021 10083 M 0 -246 R D
14115 10001 M 0 -164 R D 14115 9954 M 35 35 R 23 12 R 35 0 R 24 -12 R
11 -35 R 0 -117 R D 14395 10083 M -93 -246 R D 14395 10083 M 94 -246 R D
14547 9977 M 211 0 R D 14547 9907 M 211 0 R D 14851 10024 M 0 12 R 12 23 R
11 12 R 24 12 R 47 0 R 23 -12 R 12 -12 R 11 -23 R 0 -23 R -11 -24 R
-24 -35 R -117 -117 R 164 0 R D 15096 9861 M -11 -12 R 11 -12 R 12 12 R
-12 12 R D 15330 10083 M -117 0 R -11 -106 R 11 12 R 35 12 R 35 0 R 35 -12 R
24 -23 R 11 -35 R 0 -24 R -11 -35 R -24 -23 R -35 -12 R -35 0 R -35 12 R
-11 12 R -12 23 R D 15540 10048 M 0 -211 R D 15435 9942 M 211 0 R D
15739 10083 M 0 -246 R D 15833 10001 M 0 -164 R D 15833 9954 M 35 35 R
23 12 R 35 0 R 23 -12 R 12 -35 R 0 -117 R D 16055 10129 M 0 -385 R D
16066 10129 M 0 -385 R D 16055 10129 M 81 0 R D 16055 9744 M 81 0 R D
16218 10001 M 0 -164 R D 16218 9954 M 35 35 R 24 12 R 35 0 R 23 -12 R
12 -35 R 0 -117 R D 16347 9954 M 35 35 R 23 12 R 35 0 R 23 -12 R 12 -35 R
0 -117 R D 16650 10129 M -23 -23 R -23 -35 R -24 -47 R -11 -58 R 0 -47 R
11 -58 R 24 -59 R 23 -35 R 23 -23 R D 16791 10083 M -35 -12 R -24 -35 R
-11 -59 R 0 -35 R 11 -58 R 24 -35 R 35 -12 R 23 0 R 35 12 R 23 35 R 12 58 R
0 35 R -12 59 R -23 35 R -35 12 R -23 0 R D 16954 10129 M 24 -23 R 23 -35 R
23 -47 R 12 -58 R 0 -47 R -12 -58 R -23 -59 R -23 -35 R -24 -23 R D
17316 10129 M -210 -385 R D 17387 10001 M 0 -164 R D 17387 9954 M 35 35 R
23 12 R 35 0 R 23 -12 R 12 -35 R 0 -117 R D 17515 9954 M 35 35 R 23 12 R
36 0 R 23 -12 R 12 -35 R 0 -117 R D 17819 10129 M -24 -23 R -23 -35 R
-23 -47 R -12 -58 R 0 -47 R 12 -58 R 23 -59 R 23 -35 R 24 -23 R D
17912 10083 M 0 -199 R 12 -35 R 23 -12 R 24 0 R D 17877 10001 M 82 0 R D
18029 10129 M 24 -23 R 23 -35 R 23 -47 R 12 -58 R 0 -47 R -12 -58 R
-23 -59 R -23 -35 R -24 -23 R D 18263 10129 M 0 -385 R D 18275 10129 M
0 -385 R D 18193 10129 M 82 0 R D 18193 9744 M 82 0 R D
0.000 0.000 0.000 setrgbcolor 16109 10295 M -23 11 R -35 0 R -24 -11 R
-23 -24 R -12 -35 R 0 -35 R 12 -35 R 12 -11 R 23 -12 R 35 0 R 23 12 R D
15992 10225 M 94 0 R D 16191 10283 M 210 0 R D 16191 10213 M 210 0 R D
16518 10342 M 23 11 R 36 35 R 0 -245 R D 16740 10166 M -12 -11 R 12 -12 R
12 12 R -12 11 R D 16904 10388 M -35 -11 R -24 -35 R -11 -59 R 0 -35 R
11 -58 R 24 -35 R 35 -12 R 23 0 R 35 12 R 23 35 R 12 58 R 0 35 R -12 59 R
-23 35 R -35 11 R -23 0 R D 3710 2112 M 4130 0 R D 3710 2112 M 0 171 R D
3458 1886 M -28 -9 R -19 -28 R -9 -47 R 0 -28 R 9 -47 R 19 -28 R 28 -9 R
18 0 R 28 9 R 19 28 R 9 47 R 0 28 R -9 47 R -19 28 R -28 9 R -18 0 R D
3607 1708 M -9 -9 R 9 -9 R 10 9 R -10 9 R D 3738 1886 M -28 -9 R -19 -28 R
-9 -47 R 0 -28 R 9 -47 R 19 -28 R 28 -9 R 19 0 R 28 9 R 19 28 R 9 47 R
0 28 R -9 47 R -19 28 R -28 9 R -19 0 R D 3981 1886 M -93 0 R -10 -84 R
10 9 R 28 10 R 28 0 R 28 -10 R 19 -18 R 9 -29 R 0 -18 R -9 -28 R -19 -19 R
-28 -9 R -28 0 R -28 9 R -10 9 R -9 19 R D 4536 2112 M 0 171 R D 4284 1886 M
-28 -9 R -19 -28 R -9 -47 R 0 -28 R 9 -47 R 19 -28 R 28 -9 R 18 0 R 29 9 R
18 28 R 10 47 R 0 28 R -10 47 R -18 28 R -29 9 R -18 0 R D 4433 1708 M
-9 -9 R 9 -9 R 10 9 R -10 9 R D 4536 1849 M 19 9 R 28 28 R 0 -196 R D
4751 1886 M -28 -9 R -19 -28 R -9 -47 R 0 -28 R 9 -47 R 19 -28 R 28 -9 R
19 0 R 28 9 R 19 28 R 9 47 R 0 28 R -9 47 R -19 28 R -28 9 R -19 0 R D
5362 2112 M 0 171 R D 5110 1886 M -28 -9 R -19 -28 R -9 -47 R 0 -28 R
9 -47 R 19 -28 R 28 -9 R 19 0 R 28 9 R 18 28 R 10 47 R 0 28 R -10 47 R
-18 28 R -28 9 R -19 0 R D 5259 1708 M -9 -9 R 9 -9 R 10 9 R -10 9 R D
5362 1849 M 19 9 R 28 28 R 0 -196 R D 5633 1886 M -93 0 R -10 -84 R 10 9 R
28 10 R 28 0 R 28 -10 R 19 -18 R 9 -29 R 0 -18 R -9 -28 R -19 -19 R -28 -9 R
-28 0 R -28 9 R -10 9 R -9 19 R D 6188 2112 M 0 171 R D 5936 1886 M -28 -9 R
-19 -28 R -9 -47 R 0 -28 R 9 -47 R 19 -28 R 28 -9 R 19 0 R 28 9 R 18 28 R
10 47 R 0 28 R -10 47 R -18 28 R -28 9 R -19 0 R D 6085 1708 M -9 -9 R
9 -9 R 10 9 R -10 9 R D 6170 1839 M 0 10 R 9 18 R 9 10 R 19 9 R 37 0 R
19 -9 R 9 -10 R 10 -18 R 0 -19 R -10 -19 R -18 -28 R -94 -93 R 131 0 R D
6403 1886 M -28 -9 R -18 -28 R -10 -47 R 0 -28 R 10 -47 R 18 -28 R 28 -9 R
19 0 R 28 9 R 19 28 R 9 47 R 0 28 R -9 47 R -19 28 R -28 9 R -19 0 R D
7014 2112 M 0 171 R D 6762 1886 M -28 -9 R -19 -28 R -9 -47 R 0 -28 R
9 -47 R 19 -28 R 28 -9 R 19 0 R 28 9 R 18 28 R 10 47 R 0 28 R -10 47 R
-18 28 R -28 9 R -19 0 R D 6912 1708 M -10 -9 R 10 -9 R 9 9 R -9 9 R D
6996 1839 M 0 10 R 9 18 R 9 10 R 19 9 R 37 0 R 19 -9 R 9 -10 R 10 -18 R
0 -19 R -10 -19 R -18 -28 R -94 -93 R 131 0 R D 7285 1886 M -93 0 R -9 -84 R
9 9 R 28 10 R 28 0 R 28 -10 R 19 -18 R 9 -29 R 0 -18 R -9 -28 R -19 -19 R
-28 -9 R -28 0 R -28 9 R -9 9 R -10 19 R D 7840 2112 M 0 171 R D 7588 1886 M
-28 -9 R -19 -28 R -9 -47 R 0 -28 R 9 -47 R 19 -28 R 28 -9 R 19 0 R 28 9 R
18 28 R 10 47 R 0 28 R -10 47 R -18 28 R -28 9 R -19 0 R D 7738 1708 M
-10 -9 R 10 -9 R 9 9 R -9 9 R D 7831 1886 M 103 0 R -56 -75 R 28 0 R 19 -9 R
9 -9 R 9 -29 R 0 -18 R -9 -28 R -19 -19 R -28 -9 R -28 0 R -28 9 R -9 9 R
-10 19 R D 8055 1886 M -28 -9 R -18 -28 R -10 -47 R 0 -28 R 10 -47 R
18 -28 R 28 -9 R 19 0 R 28 9 R 19 28 R 9 47 R 0 28 R -9 47 R -19 28 R
-28 9 R -19 0 R D 3875 2112 M 0 86 R D 4041 2112 M 0 86 R D 4206 2112 M
0 86 R D 4371 2112 M 0 86 R D 4701 2112 M 0 86 R D 4867 2112 M 0 86 R D
5032 2112 M 0 86 R D 5197 2112 M 0 86 R D 5527 2112 M 0 86 R D 5693 2112 M
0 86 R D 5858 2112 M 0 86 R D 6023 2112 M 0 86 R D 6354 2112 M 0 86 R D
6519 2112 M 0 86 R D 6684 2112 M 0 86 R D 6849 2112 M 0 86 R D 7180 2112 M
0 86 R D 7345 2112 M 0 86 R D 7510 2112 M 0 86 R D 7675 2112 M 0 86 R D
3710 6389 M 4130 0 R D 3710 6389 M 0 -171 R D 4536 6389 M 0 -171 R D
5362 6389 M 0 -171 R D 6188 6389 M 0 -171 R D 7014 6389 M 0 -171 R D
7840 6389 M 0 -171 R D 3875 6389 M 0 -85 R D 4041 6389 M 0 -85 R D
4206 6389 M 0 -85 R D 4371 6389 M 0 -85 R D 4701 6389 M 0 -85 R D
4867 6389 M 0 -85 R D 5032 6389 M 0 -85 R D 5197 6389 M 0 -85 R D
5527 6389 M 0 -85 R D 5693 6389 M 0 -85 R D 5858 6389 M 0 -85 R D
6023 6389 M 0 -85 R D 6354 6389 M 0 -85 R D 6519 6389 M 0 -85 R D
6684 6389 M 0 -85 R D 6849 6389 M 0 -85 R D 7180 6389 M 0 -85 R D
7345 6389 M 0 -85 R D 7510 6389 M 0 -85 R D 7675 6389 M 0 -85 R D
3710 2112 M 0 4277 R D 3710 3081 M 165 0 R D 3400 3127 M 0 12 R 12 23 R
12 12 R 23 12 R 47 0 R 23 -12 R 12 -12 R 12 -23 R 0 -23 R -12 -24 R
-23 -35 R -117 -117 R 163 0 R D 3710 4139 M 165 0 R D 3506 4243 M
-117 -163 R 175 0 R D 3506 4243 M 0 -245 R D 3710 5196 M 165 0 R D
3541 5266 M -12 23 R -35 12 R -23 0 R -35 -12 R -24 -35 R -12 -59 R 0 -58 R
12 -47 R 24 -23 R 35 -12 R 11 0 R 35 12 R 24 23 R 11 35 R 0 12 R -11 35 R
-24 23 R -35 12 R -11 0 R -35 -12 R -24 -23 R -12 -35 R D 3710 6253 M
165 0 R D 3447 6358 M -35 -12 R -12 -23 R 0 -23 R 12 -24 R 24 -12 R 46 -11 R
35 -12 R 24 -23 R 11 -24 R 0 -35 R -11 -23 R -12 -12 R -35 -11 R -47 0 R
-35 11 R -12 12 R -11 23 R 0 35 R 11 24 R 24 23 R 35 12 R 47 11 R 23 12 R
12 24 R 0 23 R -12 23 R -35 12 R -47 0 R D 3710 2288 M 83 0 R D 3710 2553 M
83 0 R D 3710 2817 M 83 0 R D 3710 3346 M 83 0 R D 3710 3610 M 83 0 R D
3710 3874 M 83 0 R D 3710 4403 M 83 0 R D 3710 4667 M 83 0 R D 3710 4932 M
83 0 R D 3710 5460 M 83 0 R D 3710 5725 M 83 0 R D 3710 5989 M 83 0 R D
7840 2112 M 0 4277 R D 7840 3081 M -165 0 R D 7840 4139 M -165 0 R D
7840 5196 M -165 0 R D 7840 6253 M -165 0 R D 7840 2288 M -82 0 R D
7840 2553 M -82 0 R D 7840 2817 M -82 0 R D 7840 3346 M -82 0 R D
7840 3610 M -82 0 R D 7840 3874 M -82 0 R D 7840 4403 M -82 0 R D
7840 4667 M -82 0 R D 7840 4932 M -82 0 R D 7840 5460 M -82 0 R D
7840 5725 M -82 0 R D 7840 5989 M -82 0 R D L1 3710 6389 M 413 -1418 R
413 -696 R 496 -476 R 330 -211 R 826 -341 R 826 -204 R 826 -137 R D L2
4120 6389 M 3 -8 R 413 -729 R 496 -533 R 330 -247 R 826 -420 R 826 -266 R
826 -184 R D L0 0.000 0.098 0.890 setrgbcolor 3710 4117 M 413 -661 R
413 -222 R 496 -177 R 330 -91 R 826 -137 R 826 -81 R 826 -23 R D
50 setlinewidth 3710 5048 M 413 -1080 R 413 -572 R 496 -203 R 330 -97 R
826 -175 R 826 -107 R 826 -51 R D 80 setlinewidth 3710 4267 M 413 -352 R
413 -249 R 496 -216 R 330 -112 R 826 -205 R 826 -138 R 826 -95 R D
110 setlinewidth 3710 2498 M 413 0 R 413 0 R 496 0 R 330 0 R 826 0 R 826 0 R
826 0 R D 20 setlinewidth 0.000 0.000 0.000 setrgbcolor 6329 6017 M -24 12 R
-35 0 R -23 -12 R -24 -23 R -11 -35 R 0 -35 R 11 -35 R 12 -12 R 23 -11 R
35 0 R 24 11 R D 6212 5947 M 93 0 R D 6410 6006 M 211 0 R D 6410 5936 M
211 0 R D 6773 6111 M -36 -12 R -23 -35 R -12 -58 R 0 -35 R 12 -59 R
23 -35 R 36 -11 R 23 0 R 35 11 R 23 35 R 12 59 R 0 35 R -12 58 R -23 35 R
-35 12 R -23 0 R D 6959 5889 M -11 -12 R 11 -11 R 12 11 R -12 12 R D
7076 6111 M 129 0 R -70 -94 R 35 0 R 23 -11 R 12 -12 R 12 -35 R 0 -23 R
-12 -35 R -24 -24 R -35 -11 R -35 0 R -35 11 R -11 12 R -12 23 R D
8600 2112 M 4131 0 R D 8600 2112 M 0 171 R D 8348 1886 M -28 -9 R -19 -28 R
-9 -47 R 0 -28 R 9 -47 R 19 -28 R 28 -9 R 19 0 R 28 9 R 18 28 R 10 47 R
0 28 R -10 47 R -18 28 R -28 9 R -19 0 R D 8498 1708 M -10 -9 R 10 -9 R
9 9 R -9 9 R D 8628 1886 M -28 -9 R -18 -28 R -10 -47 R 0 -28 R 10 -47 R
18 -28 R 28 -9 R 19 0 R 28 9 R 19 28 R 9 47 R 0 28 R -9 47 R -19 28 R
-28 9 R -19 0 R D 8872 1886 M -94 0 R -9 -84 R 9 9 R 28 10 R 28 0 R 28 -10 R
19 -18 R 9 -29 R 0 -18 R -9 -28 R -19 -19 R -28 -9 R -28 0 R -28 9 R -9 9 R
-10 19 R D 9426 2112 M 0 171 R D 9174 1886 M -28 -9 R -19 -28 R -9 -47 R
0 -28 R 9 -47 R 19 -28 R 28 -9 R 19 0 R 28 9 R 19 28 R 9 47 R 0 28 R -9 47 R
-19 28 R -28 9 R -19 0 R D 9324 1708 M -10 -9 R 10 -9 R 9 9 R -9 9 R D
9426 1849 M 19 9 R 28 28 R 0 -196 R D 9641 1886 M -28 -9 R -18 -28 R
-10 -47 R 0 -28 R 10 -47 R 18 -28 R 28 -9 R 19 0 R 28 9 R 19 28 R 9 47 R
0 28 R -9 47 R -19 28 R -28 9 R -19 0 R D 10253 2112 M 0 171 R D
10000 1886 M -28 -9 R -19 -28 R -9 -47 R 0 -28 R 9 -47 R 19 -28 R 28 -9 R
19 0 R 28 9 R 19 28 R 9 47 R 0 28 R -9 47 R -19 28 R -28 9 R -19 0 R D
10150 1708 M -10 -9 R 10 -9 R 9 9 R -9 9 R D 10253 1849 M 18 9 R 28 28 R
0 -196 R D 10524 1886 M -94 0 R -9 -84 R 9 9 R 28 10 R 28 0 R 28 -10 R
19 -18 R 9 -29 R 0 -18 R -9 -28 R -19 -19 R -28 -9 R -28 0 R -28 9 R -9 9 R
-10 19 R D 11079 2112 M 0 171 R D 10826 1886 M -28 -9 R -18 -28 R -10 -47 R
0 -28 R 10 -47 R 18 -28 R 28 -9 R 19 0 R 28 9 R 19 28 R 9 47 R 0 28 R
-9 47 R -19 28 R -28 9 R -19 0 R D 10976 1708 M -10 -9 R 10 -9 R 9 9 R
-9 9 R D 11060 1839 M 0 10 R 9 18 R 10 10 R 18 9 R 38 0 R 18 -9 R 10 -10 R
9 -18 R 0 -19 R -9 -19 R -19 -28 R -93 -93 R 130 0 R D 11294 1886 M -28 -9 R
-19 -28 R -9 -47 R 0 -28 R 9 -47 R 19 -28 R 28 -9 R 18 0 R 28 9 R 19 28 R
9 47 R 0 28 R -9 47 R -19 28 R -28 9 R -18 0 R D 11905 2112 M 0 171 R D
11652 1886 M -28 -9 R -18 -28 R -10 -47 R 0 -28 R 10 -47 R 18 -28 R 28 -9 R
19 0 R 28 9 R 19 28 R 9 47 R 0 28 R -9 47 R -19 28 R -28 9 R -19 0 R D
11802 1708 M -9 -9 R 9 -9 R 9 9 R -9 9 R D 11886 1839 M 0 10 R 9 18 R
10 10 R 18 9 R 38 0 R 18 -9 R 10 -10 R 9 -18 R 0 -19 R -9 -19 R -19 -28 R
-93 -93 R 131 0 R D 12176 1886 M -94 0 R -9 -84 R 9 9 R 28 10 R 28 0 R
28 -10 R 19 -18 R 9 -29 R 0 -18 R -9 -28 R -19 -19 R -28 -9 R -28 0 R
-28 9 R -9 9 R -9 19 R D 12731 2112 M 0 171 R D 12478 1886 M -28 -9 R
-18 -28 R -10 -47 R 0 -28 R 10 -47 R 18 -28 R 28 -9 R 19 0 R 28 9 R 19 28 R
9 47 R 0 28 R -9 47 R -19 28 R -28 9 R -19 0 R D 12628 1708 M -9 -9 R 9 -9 R
9 9 R -9 9 R D 12721 1886 M 103 0 R -56 -75 R 28 0 R 19 -9 R 9 -9 R 10 -29 R
0 -18 R -10 -28 R -18 -19 R -29 -9 R -28 0 R -28 9 R -9 9 R -9 19 R D
12946 1886 M -28 -9 R -19 -28 R -9 -47 R 0 -28 R 9 -47 R 19 -28 R 28 -9 R
18 0 R 28 9 R 19 28 R 10 47 R 0 28 R -10 47 R -19 28 R -28 9 R -18 0 R D
8766 2112 M 0 86 R D 8931 2112 M 0 86 R D 9096 2112 M 0 86 R D 9261 2112 M
0 86 R D 9592 2112 M 0 86 R D 9757 2112 M 0 86 R D 9922 2112 M 0 86 R D
10087 2112 M 0 86 R D 10418 2112 M 0 86 R D 10583 2112 M 0 86 R D
10748 2112 M 0 86 R D 10913 2112 M 0 86 R D 11244 2112 M 0 86 R D
11409 2112 M 0 86 R D 11574 2112 M 0 86 R D 11739 2112 M 0 86 R D
12070 2112 M 0 86 R D 12235 2112 M 0 86 R D 12400 2112 M 0 86 R D
12566 2112 M 0 86 R D 8600 6389 M 4131 0 R D 8600 6389 M 0 -171 R D
9426 6389 M 0 -171 R D 10253 6389 M 0 -171 R D 11079 6389 M 0 -171 R D
11905 6389 M 0 -171 R D 12731 6389 M 0 -171 R D 8766 6389 M 0 -85 R D
8931 6389 M 0 -85 R D 9096 6389 M 0 -85 R D 9261 6389 M 0 -85 R D
9592 6389 M 0 -85 R D 9757 6389 M 0 -85 R D 9922 6389 M 0 -85 R D
10087 6389 M 0 -85 R D 10418 6389 M 0 -85 R D 10583 6389 M 0 -85 R D
10748 6389 M 0 -85 R D 10913 6389 M 0 -85 R D 11244 6389 M 0 -85 R D
11409 6389 M 0 -85 R D 11574 6389 M 0 -85 R D 11739 6389 M 0 -85 R D
12070 6389 M 0 -85 R D 12235 6389 M 0 -85 R D 12400 6389 M 0 -85 R D
12566 6389 M 0 -85 R D 8600 2112 M 0 4277 R D 8600 2747 M 166 0 R D
8291 2793 M 0 12 R 11 23 R 12 12 R 24 12 R 46 0 R 24 -12 R 11 -12 R 12 -23 R
0 -24 R -12 -23 R -23 -35 R -117 -117 R 164 0 R D 8600 3470 M 166 0 R D
8396 3575 M -117 -164 R 175 0 R D 8396 3575 M 0 -246 R D 8600 4193 M 166 0 R
D 8431 4263 M -12 23 R -35 12 R -23 0 R -35 -12 R -24 -35 R -11 -58 R
0 -59 R 11 -47 R 24 -23 R 35 -12 R 12 0 R 35 12 R 23 23 R 12 35 R 0 12 R
-12 35 R -23 24 R -35 11 R -12 0 R -35 -11 R -24 -24 R -11 -35 R D
8600 4916 M 166 0 R D 8338 5021 M -36 -12 R -11 -23 R 0 -24 R 11 -23 R
24 -12 R 47 -11 R 35 -12 R 23 -23 R 12 -24 R 0 -35 R -12 -23 R -12 -12 R
-35 -12 R -46 0 R -36 12 R -11 12 R -12 23 R 0 35 R 12 24 R 23 23 R 35 12 R
47 11 R 23 12 R 12 23 R 0 24 R -12 23 R -35 12 R -46 0 R D 8600 5639 M
166 0 R D 8080 5697 M 24 12 R 35 35 R 0 -245 R D 8349 5744 M -35 -12 R
-23 -35 R -12 -58 R 0 -35 R 12 -59 R 23 -35 R 35 -11 R 24 0 R 35 11 R
23 35 R 12 59 R 0 35 R -12 58 R -23 35 R -35 12 R -24 0 R D 8600 6362 M
166 0 R D 8080 6342 M 24 11 R 35 35 R 0 -245 R D 8291 6330 M 0 12 R 11 23 R
12 12 R 24 11 R 46 0 R 24 -11 R 11 -12 R 12 -23 R 0 -24 R -12 -23 R
-23 -35 R -117 -117 R 164 0 R D 8600 2205 M 83 0 R D 8600 2385 M 83 0 R D
8600 2566 M 83 0 R D 8600 2928 M 83 0 R D 8600 3108 M 83 0 R D 8600 3289 M
83 0 R D 8600 3651 M 83 0 R D 8600 3832 M 83 0 R D 8600 4012 M 83 0 R D
8600 4374 M 83 0 R D 8600 4555 M 83 0 R D 8600 4735 M 83 0 R D 8600 5097 M
83 0 R D 8600 5278 M 83 0 R D 8600 5459 M 83 0 R D 8600 5820 M 83 0 R D
8600 6001 M 83 0 R D 8600 6182 M 83 0 R D 12731 2112 M 0 4277 R D
12731 2747 M -165 0 R D 12731 3470 M -165 0 R D 12731 4193 M -165 0 R D
12731 4916 M -165 0 R D 12731 5639 M -165 0 R D 12731 6362 M -165 0 R D
12731 2205 M -83 0 R D 12731 2385 M -83 0 R D 12731 2566 M -83 0 R D
12731 2928 M -83 0 R D 12731 3108 M -83 0 R D 12731 3289 M -83 0 R D
12731 3651 M -83 0 R D 12731 3832 M -83 0 R D 12731 4012 M -83 0 R D
12731 4374 M -83 0 R D 12731 4555 M -83 0 R D 12731 4735 M -83 0 R D
12731 5097 M -83 0 R D 12731 5278 M -83 0 R D 12731 5459 M -83 0 R D
12731 5820 M -83 0 R D 12731 6001 M -83 0 R D 12731 6182 M -83 0 R D L1
8600 6389 M 413 -1418 R 413 -696 R 496 -476 R 331 -211 R 826 -341 R
826 -204 R 825 -137 R D L2 8657 6389 M 356 -924 R 413 -575 R 496 -421 R
331 -196 R 826 -331 R 826 -210 R 825 -146 R D L0
0.000 0.098 0.890 setrgbcolor 8600 4005 M 413 -503 R 413 -326 R 496 -158 R
331 -70 R 826 -116 R 826 -68 R 825 -31 R D 50 setlinewidth 8600 5007 M
413 -1049 R 413 -465 R 496 -299 R 331 -149 R 826 -145 R 826 -84 R 825 -48 R
D 80 setlinewidth 8600 4814 M 413 -508 R 413 -366 R 496 -606 R 331 -110 R
826 -170 R 826 -113 R 825 -78 R D 110 setlinewidth 8600 2395 M 413 5 R
413 -1 R 496 -1 R 331 0 R 826 -1 R 826 0 R 825 -1 R D 20 setlinewidth
0.000 0.000 0.000 setrgbcolor 11219 6017 M -24 12 R -35 0 R -23 -12 R
-23 -23 R -12 -35 R 0 -35 R 12 -35 R 11 -12 R 24 -11 R 35 0 R 23 11 R D
11102 5947 M 93 0 R D 11301 6006 M 210 0 R D 11301 5936 M 210 0 R D
11663 6111 M -35 -12 R -24 -35 R -11 -58 R 0 -35 R 11 -59 R 24 -35 R
35 -11 R 23 0 R 35 11 R 24 35 R 11 59 R 0 35 R -11 58 R -24 35 R -35 12 R
-23 0 R D 11850 5889 M -12 -12 R 12 -11 R 11 11 R -11 12 R D 12083 6111 M
-116 0 R -12 -105 R 12 11 R 35 12 R 35 0 R 35 -12 R 23 -23 R 12 -35 R
0 -23 R -12 -35 R -23 -24 R -35 -11 R -35 0 R -35 11 R -12 12 R -12 23 R D
13491 2112 M 4130 0 R D 13491 2112 M 0 171 R D 13238 1886 M -28 -9 R
-18 -28 R -10 -47 R 0 -28 R 10 -47 R 18 -28 R 28 -9 R 19 0 R 28 9 R 19 28 R
9 47 R 0 28 R -9 47 R -19 28 R -28 9 R -19 0 R D 13388 1708 M -9 -9 R 9 -9 R
9 9 R -9 9 R D 13519 1886 M -28 -9 R -19 -28 R -9 -47 R 0 -28 R 9 -47 R
19 -28 R 28 -9 R 18 0 R 29 9 R 18 28 R 10 47 R 0 28 R -10 47 R -18 28 R
-29 9 R -18 0 R D 13762 1886 M -94 0 R -9 -84 R 9 9 R 28 10 R 28 0 R
28 -10 R 19 -18 R 10 -29 R 0 -18 R -10 -28 R -19 -19 R -28 -9 R -28 0 R
-28 9 R -9 9 R -9 19 R D 14317 2112 M 0 171 R D 14064 1886 M -28 -9 R
-18 -28 R -10 -47 R 0 -28 R 10 -47 R 18 -28 R 28 -9 R 19 0 R 28 9 R 19 28 R
9 47 R 0 28 R -9 47 R -19 28 R -28 9 R -19 0 R D 14214 1708 M -9 -9 R 9 -9 R
9 9 R -9 9 R D 14317 1849 M 19 9 R 28 28 R 0 -196 R D 14532 1886 M -28 -9 R
-19 -28 R -9 -47 R 0 -28 R 9 -47 R 19 -28 R 28 -9 R 19 0 R 28 9 R 18 28 R
10 47 R 0 28 R -10 47 R -18 28 R -28 9 R -19 0 R D 15143 2112 M 0 171 R D
14891 1886 M -29 -9 R -18 -28 R -10 -47 R 0 -28 R 10 -47 R 18 -28 R 29 -9 R
18 0 R 28 9 R 19 28 R 9 47 R 0 28 R -9 47 R -19 28 R -28 9 R -18 0 R D
15040 1708 M -9 -9 R 9 -9 R 9 9 R -9 9 R D 15143 1849 M 19 9 R 28 28 R
0 -196 R D 15414 1886 M -94 0 R -9 -84 R 9 9 R 29 10 R 28 0 R 28 -10 R
18 -18 R 10 -29 R 0 -18 R -10 -28 R -18 -19 R -28 -9 R -28 0 R -29 9 R
-9 9 R -9 19 R D 15969 2112 M 0 171 R D 15717 1886 M -28 -9 R -19 -28 R
-10 -47 R 0 -28 R 10 -47 R 19 -28 R 28 -9 R 18 0 R 28 9 R 19 28 R 9 47 R
0 28 R -9 47 R -19 28 R -28 9 R -18 0 R D 15866 1708 M -9 -9 R 9 -9 R 9 9 R
-9 9 R D 15950 1839 M 0 10 R 10 18 R 9 10 R 19 9 R 37 0 R 19 -9 R 9 -10 R
9 -18 R 0 -19 R -9 -19 R -19 -28 R -93 -93 R 131 0 R D 16184 1886 M -28 -9 R
-19 -28 R -9 -47 R 0 -28 R 9 -47 R 19 -28 R 28 -9 R 19 0 R 28 9 R 18 28 R
10 47 R 0 28 R -10 47 R -18 28 R -28 9 R -19 0 R D 16795 2112 M 0 171 R D
16543 1886 M -28 -9 R -19 -28 R -9 -47 R 0 -28 R 9 -47 R 19 -28 R 28 -9 R
18 0 R 28 9 R 19 28 R 9 47 R 0 28 R -9 47 R -19 28 R -28 9 R -18 0 R D
16692 1708 M -9 -9 R 9 -9 R 10 9 R -10 9 R D 16776 1839 M 0 10 R 10 18 R
9 10 R 19 9 R 37 0 R 19 -9 R 9 -10 R 10 -18 R 0 -19 R -10 -19 R -19 -28 R
-93 -93 R 131 0 R D 17066 1886 M -93 0 R -10 -84 R 10 9 R 28 10 R 28 0 R
28 -10 R 18 -18 R 10 -29 R 0 -18 R -10 -28 R -18 -19 R -28 -9 R -28 0 R
-28 9 R -10 9 R -9 19 R D 17621 2112 M 0 171 R D 17369 1886 M -28 -9 R
-19 -28 R -9 -47 R 0 -28 R 9 -47 R 19 -28 R 28 -9 R 18 0 R 28 9 R 19 28 R
9 47 R 0 28 R -9 47 R -19 28 R -28 9 R -18 0 R D 17518 1708 M -9 -9 R 9 -9 R
10 9 R -10 9 R D 17612 1886 M 103 0 R -57 -75 R 29 0 R 18 -9 R 10 -9 R
9 -29 R 0 -18 R -9 -28 R -19 -19 R -28 -9 R -28 0 R -28 9 R -10 9 R -9 19 R
D 17836 1886 M -28 -9 R -19 -28 R -9 -47 R 0 -28 R 9 -47 R 19 -28 R 28 -9 R
19 0 R 28 9 R 19 28 R 9 47 R 0 28 R -9 47 R -19 28 R -28 9 R -19 0 R D
13656 2112 M 0 86 R D 13821 2112 M 0 86 R D 13986 2112 M 0 86 R D
14152 2112 M 0 86 R D 14482 2112 M 0 86 R D 14647 2112 M 0 86 R D
14812 2112 M 0 86 R D 14978 2112 M 0 86 R D 15308 2112 M 0 86 R D
15473 2112 M 0 86 R D 15639 2112 M 0 86 R D 15804 2112 M 0 86 R D
16134 2112 M 0 86 R D 16299 2112 M 0 86 R D 16465 2112 M 0 86 R D
16630 2112 M 0 86 R D 16960 2112 M 0 86 R D 17125 2112 M 0 86 R D
17291 2112 M 0 86 R D 17456 2112 M 0 86 R D 13491 6389 M 4130 0 R D
13491 6389 M 0 -171 R D 14317 6389 M 0 -171 R D 15143 6389 M 0 -171 R D
15969 6389 M 0 -171 R D 16795 6389 M 0 -171 R D 17621 6389 M 0 -171 R D
13656 6389 M 0 -85 R D 13821 6389 M 0 -85 R D 13986 6389 M 0 -85 R D
14152 6389 M 0 -85 R D 14482 6389 M 0 -85 R D 14647 6389 M 0 -85 R D
14812 6389 M 0 -85 R D 14978 6389 M 0 -85 R D 15308 6389 M 0 -85 R D
15473 6389 M 0 -85 R D 15639 6389 M 0 -85 R D 15804 6389 M 0 -85 R D
16134 6389 M 0 -85 R D 16299 6389 M 0 -85 R D 16465 6389 M 0 -85 R D
16630 6389 M 0 -85 R D 16960 6389 M 0 -85 R D 17125 6389 M 0 -85 R D
17291 6389 M 0 -85 R D 17456 6389 M 0 -85 R D 13491 2112 M 0 4277 R D
13491 2723 M 165 0 R D 13310 2828 M -117 0 R -12 -106 R 12 12 R 35 12 R
35 0 R 35 -12 R 23 -23 R 12 -35 R 0 -24 R -12 -35 R -23 -23 R -35 -12 R
-35 0 R -35 12 R -12 12 R -12 23 R D 13491 3422 M 165 0 R D 12971 3480 M
23 12 R 35 35 R 0 -246 R D 13240 3527 M -36 -12 R -23 -35 R -12 -58 R
0 -36 R 12 -58 R 23 -35 R 36 -12 R 23 0 R 35 12 R 23 35 R 12 58 R 0 36 R
-12 58 R -23 35 R -35 12 R -23 0 R D 13491 4121 M 165 0 R D 12971 4179 M
23 12 R 35 35 R 0 -246 R D 13310 4226 M -117 0 R -12 -105 R 12 11 R 35 12 R
35 0 R 35 -12 R 23 -23 R 12 -35 R 0 -23 R -12 -36 R -23 -23 R -35 -12 R
-35 0 R -35 12 R -12 12 R -12 23 R D 13491 4820 M 165 0 R D 12947 4867 M
0 11 R 12 24 R 12 11 R 23 12 R 47 0 R 23 -12 R 12 -11 R 12 -24 R 0 -23 R
-12 -24 R -23 -35 R -117 -116 R 163 0 R D 13240 4925 M -36 -12 R -23 -35 R
-12 -58 R 0 -35 R 12 -59 R 23 -35 R 36 -11 R 23 0 R 35 11 R 23 35 R 12 59 R
0 35 R -12 58 R -23 35 R -35 12 R -23 0 R D 13491 5520 M 165 0 R D
12947 5566 M 0 11 R 12 24 R 12 11 R 23 12 R 47 0 R 23 -12 R 12 -11 R
12 -24 R 0 -23 R -12 -23 R -23 -35 R -117 -117 R 163 0 R D 13310 5624 M
-117 0 R -12 -105 R 12 12 R 35 11 R 35 0 R 35 -11 R 23 -24 R 12 -35 R
0 -23 R -12 -35 R -23 -24 R -35 -11 R -35 0 R -35 11 R -12 12 R -12 23 R D
13491 6219 M 165 0 R D 12959 6323 M 129 0 R -70 -93 R 35 0 R 23 -12 R
12 -12 R 11 -35 R 0 -23 R -11 -35 R -24 -23 R -35 -12 R -35 0 R -35 12 R
-12 11 R -11 24 R D 13240 6323 M -36 -11 R -23 -36 R -12 -58 R 0 -35 R
12 -58 R 23 -35 R 36 -12 R 23 0 R 35 12 R 23 35 R 12 58 R 0 35 R -12 58 R
-23 36 R -35 11 R -23 0 R D 13491 2164 M 82 0 R D 13491 2303 M 82 0 R D
13491 2443 M 82 0 R D 13491 2583 M 82 0 R D 13491 2863 M 82 0 R D
13491 3003 M 82 0 R D 13491 3142 M 82 0 R D 13491 3282 M 82 0 R D
13491 3562 M 82 0 R D 13491 3702 M 82 0 R D 13491 3842 M 82 0 R D
13491 3981 M 82 0 R D 13491 4261 M 82 0 R D 13491 4401 M 82 0 R D
13491 4541 M 82 0 R D 13491 4681 M 82 0 R D 13491 4960 M 82 0 R D
13491 5100 M 82 0 R D 13491 5240 M 82 0 R D 13491 5380 M 82 0 R D
13491 5659 M 82 0 R D 13491 5799 M 82 0 R D 13491 5939 M 82 0 R D
13491 6079 M 82 0 R D 13491 6358 M 82 0 R D 17621 2112 M 0 4277 R D
17621 2723 M -165 0 R D 17621 3422 M -165 0 R D 17621 4121 M -165 0 R D
17621 4820 M -165 0 R D 17621 5520 M -165 0 R D 17621 6219 M -165 0 R D
17621 2164 M -83 0 R D 17621 2303 M -83 0 R D 17621 2443 M -83 0 R D
17621 2583 M -83 0 R D 17621 2863 M -83 0 R D 17621 3003 M -83 0 R D
17621 3142 M -83 0 R D 17621 3282 M -83 0 R D 17621 3562 M -83 0 R D
17621 3702 M -83 0 R D 17621 3842 M -83 0 R D 17621 3981 M -83 0 R D
17621 4261 M -83 0 R D 17621 4401 M -83 0 R D 17621 4541 M -83 0 R D
17621 4681 M -83 0 R D 17621 4960 M -83 0 R D 17621 5100 M -83 0 R D
17621 5240 M -83 0 R D 17621 5380 M -83 0 R D 17621 5659 M -83 0 R D
17621 5799 M -83 0 R D 17621 5939 M -83 0 R D 17621 6079 M -83 0 R D
17621 6358 M -83 0 R D L1 13491 6389 M 413 -1418 R 413 -696 R 495 -476 R
331 -211 R 826 -341 R 826 -204 R 826 -137 R D L2 13491 4227 M 413 -523 R
413 -281 R 495 -206 R 331 -95 R 826 -162 R 826 -102 R 826 -72 R D L0
0.000 0.098 0.890 setrgbcolor 13491 3392 M 413 -300 R 413 -153 R 495 -107 R
331 -49 R 826 -74 R 826 -40 R 826 -20 R D 50 setlinewidth 13491 3737 M
413 -471 R 413 -225 R 495 -143 R 331 -63 R 826 -96 R 826 -49 R 826 -26 R D
80 setlinewidth 13491 3936 M 413 -491 R 413 -264 R 495 -165 R 331 -80 R
826 -125 R 826 -70 R 826 -46 R D 110 setlinewidth 13491 4137 M 413 -572 R
413 -294 R 495 -222 R 331 -69 R 826 -111 R 826 -71 R 826 -68 R D
20 setlinewidth 14021 5543 M 0 -245 R D 14115 5462 M 0 -164 R D 14115 5415 M
35 35 R 23 12 R 35 0 R 24 -12 R 11 -35 R 0 -117 R D 14395 5543 M -93 -245 R
D 14395 5543 M 94 -245 R D 14547 5438 M 211 0 R D 14547 5368 M 211 0 R D
14851 5543 M 0 -245 R D 14945 5462 M 0 -164 R D 14945 5415 M 35 35 R 23 12 R
35 0 R 23 -12 R 12 -35 R 0 -117 R D 15167 5590 M 0 -385 R D 15178 5590 M
0 -385 R D 15167 5590 M 81 0 R D 15167 5205 M 81 0 R D 15330 5543 M 0 -245 R
D 15330 5543 M 94 -245 R 93 245 R 0 -245 R D 15692 5590 M -23 -23 R
-23 -35 R -24 -47 R -11 -58 R 0 -47 R 11 -59 R 24 -58 R 23 -35 R 23 -23 R D
15833 5543 M -36 -11 R -23 -35 R -12 -59 R 0 -35 R 12 -58 R 23 -35 R
36 -12 R 23 0 R 35 12 R 23 35 R 12 58 R 0 35 R -12 59 R -23 35 R -35 11 R
-23 0 R D 15996 5590 M 23 -23 R 24 -35 R 23 -47 R 12 -58 R 0 -47 R -12 -59 R
-23 -58 R -24 -35 R -23 -23 R D 16358 5590 M -210 -385 R D 16428 5462 M
0 -164 R D 16428 5415 M 35 35 R 24 12 R 35 0 R 23 -12 R 12 -35 R 0 -117 R D
16557 5415 M 35 35 R 23 12 R 35 0 R 24 -12 R 11 -35 R 0 -117 R D
16861 5590 M -24 -23 R -23 -35 R -23 -47 R -12 -58 R 0 -47 R 12 -59 R
23 -58 R 23 -35 R 24 -23 R D 16954 5543 M 0 -198 R 12 -35 R 23 -12 R 24 0 R
D 16919 5462 M 82 0 R D 17071 5590 M 23 -23 R 24 -35 R 23 -47 R 12 -58 R
0 -47 R -12 -59 R -23 -58 R -24 -35 R -23 -23 R D 17305 5590 M 0 -385 R D
17316 5590 M 0 -385 R D 17235 5590 M 81 0 R D 17235 5205 M 81 0 R D
0.000 0.000 0.000 setrgbcolor 16109 6017 M -23 12 R -35 0 R -24 -12 R
-23 -23 R -12 -35 R 0 -35 R 12 -35 R 12 -12 R 23 -11 R 35 0 R 23 11 R D
15992 5947 M 94 0 R D 16191 6006 M 210 0 R D 16191 5936 M 210 0 R D
16518 6064 M 23 12 R 36 35 R 0 -245 R D 16740 5889 M -12 -12 R 12 -11 R
12 11 R -12 12 R D 16904 6111 M -35 -12 R -24 -35 R -11 -58 R 0 -35 R
11 -59 R 24 -35 R 35 -11 R 23 0 R 35 11 R 23 35 R 12 59 R 0 35 R -12 58 R
-23 35 R -35 12 R -23 0 R D 3853 15568 M 0 -368 R D 3853 15393 M 35 35 R
35 17 R 52 0 R 35 -17 R 35 -35 R 18 -53 R 0 -35 R -18 -52 R -35 -35 R
-35 -18 R -52 0 R -35 18 R -35 35 R D 4361 15393 M -18 35 R -52 17 R -53 0 R
-52 -17 R -18 -35 R 18 -35 R 35 -18 R 87 -17 R 35 -18 R 18 -35 R 0 -17 R
-18 -35 R -52 -18 R -53 0 R -52 18 R -18 35 R D 4571 15568 M -52 -17 R
-35 -53 R -18 -88 R 0 -52 R 18 -88 R 35 -52 R 52 -18 R 35 0 R 53 18 R
35 52 R 17 88 R 0 52 R -17 88 R -35 53 R -53 17 R -35 0 R D 4834 15445 M
0 -245 R D 4834 15340 M 18 53 R 35 35 R 35 17 R 52 0 R D 5237 15393 M
-17 35 R -53 17 R -53 0 R -52 -17 R -18 -35 R 18 -35 R 35 -18 R 88 -17 R
35 -18 R 17 -35 R 0 -17 R -17 -35 R -53 -18 R -53 0 R -52 18 R -18 35 R D
%%PageTrailer
end
%%PageResources: font Helvetica
%%Trailer
%%Pages: 1
%%DocumentNeededResources: font Helvetica
%%EOF
