%!PS-Adobe-3.0 EPSF-3.0
%%BoundingBox: 0 0 283 226
%%Title: Graphics produced by IDL
%%For: jlgan@Hserver, /home/jlgan/work/phoenix
%%Creator: IDL Version 7.1.1 (linux x86_64 m64)
%%CreationDate: Sat Apr  5 19:06:25 2014
%%DocumentData: Clean7bit
%%Requirements: color
%%LanguageLevel: 1
%%PageOrder: Ascend
%%Pages: (atend)
%%DocumentNeededResources: (atend)
%%EndComments
%%BeginProlog
%+ prolog.ps -- Prolog for IDL generated PostScript files
%+ Copyright (c) 1988-2009 ITT Visual Information Solutions. All Rights Reserved.
%v 5
/$IDL_DICT 40 dict def $IDL_DICT begin /bdef { bind def } bind def /C
{currentpoint newpath moveto} bdef /CP {currentpoint} bdef /D {currentpoint
stroke moveto} bdef /F {closepath fill} bdef /K { setgray } bdef /M {moveto}
bdef /N {rmoveto} bdef /P {lineto} bdef /R {rlineto} bdef /S {gsave show
grestore} bdef /X {currentpoint pop} bdef /Z {gsave currentpoint lineto 20
setlinewidth 1 setlinecap stroke grestore} bdef /L0 {[] 0 setdash} bdef /L1
{[40 100] 0 setdash} bdef /L2 {[200 200] 0 setdash} bdef /L3 {[200 100 50
100] 0 setdash} bdef /L4 {[300 100 50 100 50 100 50 100] 0 setdash} bdef /L5
{[400 200] 0 setdash} bdef /STDFONT { findfont exch scalefont setfont } bdef
/ISOFONT { findfont dup length dict begin { 1 index /FID ne {def} {pop pop}
ifelse } forall /Encoding ISOLatin1Encoding def currentdict end /idltmpfont
exch definefont exch scalefont setfont } bdef /ISOBULLET { gsave /Helvetica
findfont exch scalefont setfont (\267) show currentpoint grestore moveto}
bdef /MITERLIMIT { 2.5 setmiterlimit } bdef end
%%EndProlog
%%Page: 0 1
%%PageRequirements: color
%%PageResources: (atend)
%%PageOrientation: Portrait
%%PageBoundingBox: 0 0 283 226
%%BeginPageSetup
$IDL_DICT begin 0.0283465 dup scale MITERLIMIT
%%IncludeResource: font Helvetica
423.333 /Helvetica STDFONT
%%EndPageSetup
40 setlinewidth L0 0.000 0.000 0.000 setrgbcolor 2220 1408 M 7114 0 R D
2389 1408 M 0 236 R D gsave 2389 880 translate 0 0 M -117.687 0 N
(8) show grestore 4083 1408 M 0 236 R D gsave 4083 880 translate 0 0 M
-117.687 0 N
(9) show grestore 5777 1408 M 0 236 R D gsave 5777 880 translate 0 0 M
-235.373 0 N
(10) show grestore 7471 1408 M 0 236 R D gsave 7471 880 translate 0 0 M
-235.373 0 N
(11) show grestore 9165 1408 M 0 236 R D gsave 9165 880 translate 0 0 M
-235.373 0 N
(12) show grestore 2220 1408 M 0 118 R D 2559 1408 M 0 118 R D 2728 1408 M
0 118 R D 2898 1408 M 0 118 R D 3067 1408 M 0 118 R D 3236 1408 M 0 118 R D
3406 1408 M 0 118 R D 3575 1408 M 0 118 R D 3744 1408 M 0 118 R D
3914 1408 M 0 118 R D 4253 1408 M 0 118 R D 4422 1408 M 0 118 R D
4591 1408 M 0 118 R D 4761 1408 M 0 118 R D 4930 1408 M 0 118 R D
5100 1408 M 0 118 R D 5269 1408 M 0 118 R D 5438 1408 M 0 118 R D
5608 1408 M 0 118 R D 5946 1408 M 0 118 R D 6116 1408 M 0 118 R D
6285 1408 M 0 118 R D 6455 1408 M 0 118 R D 6624 1408 M 0 118 R D
6793 1408 M 0 118 R D 6963 1408 M 0 118 R D 7132 1408 M 0 118 R D
7301 1408 M 0 118 R D 7640 1408 M 0 118 R D 7810 1408 M 0 118 R D
7979 1408 M 0 118 R D 8148 1408 M 0 118 R D 8318 1408 M 0 118 R D
8487 1408 M 0 118 R D 8657 1408 M 0 118 R D 8826 1408 M 0 118 R D
8995 1408 M 0 118 R D 9334 1408 M 0 118 R D gsave 5777 422 translate 0 0 M
-1239.34 0 N
(log) show X -101.051 M
%%IncludeResource: font Helvetica
262.467 /Helvetica STDFONT
(10) show X 0 M
%%IncludeResource: font Helvetica
423.333 /Helvetica STDFONT
(\(M) show X -101.051 M
%%IncludeResource: font Helvetica
262.467 /Helvetica STDFONT
(*) show X 0 M
%%IncludeResource: font Helvetica
423.333 /Helvetica STDFONT
( / M) show CP X -101.051 M
%%IncludeResource: font AvantGarde-Book
262.467 /AvantGarde-Book STDFONT
(O) show M X -58.3193 M
%%IncludeResource: font AvantGarde-Book
186.267 /AvantGarde-Book STDFONT
( \267) show X 0 M
%%IncludeResource: font Helvetica
423.333 /Helvetica STDFONT
(\)) show grestore 2220 7296 M 7114 0 R D 2389 7296 M 0 -235 R D 4083 7296 M
0 -235 R D 5777 7296 M 0 -235 R D 7471 7296 M 0 -235 R D 9165 7296 M
0 -235 R D 2220 7296 M 0 -118 R D 2559 7296 M 0 -118 R D 2728 7296 M
0 -118 R D 2898 7296 M 0 -118 R D 3067 7296 M 0 -118 R D 3236 7296 M
0 -118 R D 3406 7296 M 0 -118 R D 3575 7296 M 0 -118 R D 3744 7296 M
0 -118 R D 3914 7296 M 0 -118 R D 4253 7296 M 0 -118 R D 4422 7296 M
0 -118 R D 4591 7296 M 0 -118 R D 4761 7296 M 0 -118 R D 4930 7296 M
0 -118 R D 5100 7296 M 0 -118 R D 5269 7296 M 0 -118 R D 5438 7296 M
0 -118 R D 5608 7296 M 0 -118 R D 5946 7296 M 0 -118 R D 6116 7296 M
0 -118 R D 6285 7296 M 0 -118 R D 6455 7296 M 0 -118 R D 6624 7296 M
0 -118 R D 6793 7296 M 0 -118 R D 6963 7296 M 0 -118 R D 7132 7296 M
0 -118 R D 7301 7296 M 0 -118 R D 7640 7296 M 0 -118 R D 7810 7296 M
0 -118 R D 7979 7296 M 0 -118 R D 8148 7296 M 0 -118 R D 8318 7296 M
0 -118 R D 8487 7296 M 0 -118 R D 8657 7296 M 0 -118 R D 8826 7296 M
0 -118 R D 8995 7296 M 0 -118 R D 9334 7296 M 0 -118 R D 2220 1408 M
0 5888 R D 2220 2062 M 285 0 R D gsave 2109 1921 translate 0 0 M
-376.343 0 N
(-8) show grestore 2220 3516 M 285 0 R D gsave 2109 3375 translate 0 0 M
-376.343 0 N
(-6) show grestore 2220 4970 M 285 0 R D gsave 2109 4829 translate 0 0 M
-376.343 0 N
(-4) show grestore 2220 6424 M 285 0 R D gsave 2109 6283 translate 0 0 M
-376.343 0 N
(-2) show grestore 2220 1699 M 142 0 R D 2220 2426 M 142 0 R D 2220 2789 M
142 0 R D 2220 3153 M 142 0 R D 2220 3880 M 142 0 R D 2220 4243 M 142 0 R D
2220 4606 M 142 0 R D 2220 5333 M 142 0 R D 2220 5697 M 142 0 R D
2220 6060 M 142 0 R D 2220 6787 M 142 0 R D 2220 7151 M 142 0 R D
gsave 1400 4352 translate 0 0 M 90 rotate -2961.89 0 N
(log) show X -101.051 M
%%IncludeResource: font Helvetica
262.467 /Helvetica STDFONT
(10) show X 0 M
%%IncludeResource: font Helvetica
423.333 /Helvetica STDFONT
([) show
%%IncludeResource: font Symbol
423.333 /Symbol STDFONT
(f) show
%%IncludeResource: font Helvetica
423.333 /Helvetica STDFONT
(\(M) show X -101.051 M
%%IncludeResource: font Helvetica
262.467 /Helvetica STDFONT
(*) show X 0 M
%%IncludeResource: font Helvetica
423.333 /Helvetica STDFONT
(\) / \(h) show X 192.937 M
%%IncludeResource: font Helvetica
262.467 /Helvetica STDFONT
(3) show X 0 M
%%IncludeResource: font Helvetica
423.333 /Helvetica STDFONT
(Mpc) show X 192.937 M
%%IncludeResource: font Helvetica
262.467 /Helvetica STDFONT
(-3) show X 0 M
%%IncludeResource: font Helvetica
423.333 /Helvetica STDFONT
(log) show X -101.051 M
%%IncludeResource: font Helvetica
262.467 /Helvetica STDFONT
(10) show X 192.937 M
(-1) show X 0 M
%%IncludeResource: font Helvetica
423.333 /Helvetica STDFONT
(M) show X -101.051 M
%%IncludeResource: font Helvetica
262.467 /Helvetica STDFONT
(*) show X 0 M
%%IncludeResource: font Helvetica
423.333 /Helvetica STDFONT
(\)]) show grestore 9334 1408 M 0 5888 R D 9334 2062 M -285 0 R D
9334 3516 M -285 0 R D 9334 4970 M -285 0 R D 9334 6424 M -285 0 R D
9334 1699 M -142 0 R D 9334 2426 M -142 0 R D 9334 2789 M -142 0 R D
9334 3153 M -142 0 R D 9334 3880 M -142 0 R D 9334 4243 M -142 0 R D
9334 4606 M -142 0 R D 9334 5333 M -142 0 R D 9334 5697 M -142 0 R D
9334 6060 M -142 0 R D 9334 6787 M -142 0 R D 9334 7151 M -142 0 R D
2389 6951 M 339 -24 R 339 -26 R 339 -30 R 338 -37 R 339 -47 R 339 -65 R
339 -52 R 339 -5 R 338 -17 R 339 -35 R 339 -64 R 339 -110 R 338 -184 R
339 -280 R 339 -371 R 339 -504 R 338 -715 R 339 -1048 R 339 -1577 R
49 -352 R D L2 1.000 0.000 0.000 setrgbcolor 2389 7043 M 339 -48 R
339 -229 R 339 -55 R 338 26 R 339 -143 R 339 27 R 339 -142 R 339 91 R
338 -28 R 339 -206 R 339 -357 R 339 83 R 338 -307 R 339 -191 R 339 -542 R
339 -15 R 338 -316 R 339 -835 R 255 -2448 R D 8922 1408 M 243 1997 R D
%%PageTrailer
end
%%PageResources: font Helvetica
%%+ font Symbol
%%+ font AvantGarde-Book
%%Trailer
%%Pages: 1
%%DocumentNeededResources: font Helvetica
%%+ font Symbol
%%+ font AvantGarde-Book
%%EOF
