%!PS-Adobe-3.0 EPSF-3.0
%%BoundingBox: 0 0 283 226
%%Title: Graphics produced by IDL
%%For: jlgan@Hserver, /home/jlgan/work/phoenix
%%Creator: IDL Version 7.1.1 (linux x86_64 m64)
%%CreationDate: Wed Jul 16 15:32:36 2014
%%DocumentData: Clean7bit
%%Requirements: color
%%LanguageLevel: 1
%%PageOrder: Ascend
%%Pages: (atend)
%%DocumentNeededResources: (atend)
%%EndComments
%%BeginProlog
%+ prolog.ps -- Prolog for IDL generated PostScript files
%+ Copyright (c) 1988-2009 ITT Visual Information Solutions. All Rights Reserved.
%v 5
/$IDL_DICT 40 dict def $IDL_DICT begin /bdef { bind def } bind def /C
{currentpoint newpath moveto} bdef /CP {currentpoint} bdef /D {currentpoint
stroke moveto} bdef /F {closepath fill} bdef /K { setgray } bdef /M {moveto}
bdef /N {rmoveto} bdef /P {lineto} bdef /R {rlineto} bdef /S {gsave show
grestore} bdef /X {currentpoint pop} bdef /Z {gsave currentpoint lineto 20
setlinewidth 1 setlinecap stroke grestore} bdef /L0 {[] 0 setdash} bdef /L1
{[40 100] 0 setdash} bdef /L2 {[200 200] 0 setdash} bdef /L3 {[200 100 50
100] 0 setdash} bdef /L4 {[300 100 50 100 50 100 50 100] 0 setdash} bdef /L5
{[400 200] 0 setdash} bdef /STDFONT { findfont exch scalefont setfont } bdef
/ISOFONT { findfont dup length dict begin { 1 index /FID ne {def} {pop pop}
ifelse } forall /Encoding ISOLatin1Encoding def currentdict end /idltmpfont
exch definefont exch scalefont setfont } bdef /ISOBULLET { gsave /Helvetica
findfont exch scalefont setfont (\267) show currentpoint grestore moveto}
bdef /MITERLIMIT { 2.5 setmiterlimit } bdef end
%%EndProlog
%%Page: 0 1
%%PageRequirements: color
%%PageResources: (atend)
%%PageOrientation: Portrait
%%PageBoundingBox: 0 0 283 226
%%BeginPageSetup
$IDL_DICT begin 0.0283465 dup scale MITERLIMIT
%%IncludeResource: font Helvetica
423.333 /Helvetica STDFONT
%%EndPageSetup
30 setlinewidth L0 0.000 0.000 0.000 setrgbcolor 2220 1408 M 7114 0 R D
2220 1408 M 0 236 R D gsave 2220 880 translate 0 0 M -117.687 0 N
(8) show grestore 3955 1408 M 0 236 R D gsave 3955 880 translate 0 0 M
-117.687 0 N
(9) show grestore 5690 1408 M 0 236 R D gsave 5690 880 translate 0 0 M
-235.373 0 N
(10) show grestore 7425 1408 M 0 236 R D gsave 7425 880 translate 0 0 M
-235.373 0 N
(11) show grestore 9161 1408 M 0 236 R D gsave 9161 880 translate 0 0 M
-235.373 0 N
(12) show grestore 2394 1408 M 0 118 R D 2567 1408 M 0 118 R D 2741 1408 M
0 118 R D 2914 1408 M 0 118 R D 3088 1408 M 0 118 R D 3261 1408 M 0 118 R D
3435 1408 M 0 118 R D 3608 1408 M 0 118 R D 3782 1408 M 0 118 R D
4129 1408 M 0 118 R D 4302 1408 M 0 118 R D 4476 1408 M 0 118 R D
4649 1408 M 0 118 R D 4823 1408 M 0 118 R D 4996 1408 M 0 118 R D
5170 1408 M 0 118 R D 5343 1408 M 0 118 R D 5517 1408 M 0 118 R D
5864 1408 M 0 118 R D 6037 1408 M 0 118 R D 6211 1408 M 0 118 R D
6384 1408 M 0 118 R D 6558 1408 M 0 118 R D 6731 1408 M 0 118 R D
6905 1408 M 0 118 R D 7078 1408 M 0 118 R D 7252 1408 M 0 118 R D
7599 1408 M 0 118 R D 7772 1408 M 0 118 R D 7946 1408 M 0 118 R D
8119 1408 M 0 118 R D 8293 1408 M 0 118 R D 8466 1408 M 0 118 R D
8640 1408 M 0 118 R D 8814 1408 M 0 118 R D 8987 1408 M 0 118 R D
9334 1408 M 0 118 R D gsave 5777 422 translate 0 0 M -1506.41 0 N
(log[M) show X -101.051 M
%%IncludeResource: font Symbol
262.467 /Symbol STDFONT
(*) show X 0 M
%%IncludeResource: font Helvetica
423.333 /Helvetica STDFONT
( / \(h) show X 192.937 M
%%IncludeResource: font Helvetica
262.467 /Helvetica STDFONT
(-2) show X 0 M
%%IncludeResource: font Helvetica
423.333 /Helvetica STDFONT
(M) show CP X -101.051 M
%%IncludeResource: font AvantGarde-Book
262.467 /AvantGarde-Book STDFONT
(O) show M X -58.3193 M
%%IncludeResource: font AvantGarde-Book
186.267 /AvantGarde-Book STDFONT
( \267) show X 0 M
%%IncludeResource: font Helvetica
423.333 /Helvetica STDFONT
(\)]) show grestore 2220 7296 M 7114 0 R D 2220 7296 M 0 -235 R D
3955 7296 M 0 -235 R D 5690 7296 M 0 -235 R D 7425 7296 M 0 -235 R D
9161 7296 M 0 -235 R D 2394 7296 M 0 -118 R D 2567 7296 M 0 -118 R D
2741 7296 M 0 -118 R D 2914 7296 M 0 -118 R D 3088 7296 M 0 -118 R D
3261 7296 M 0 -118 R D 3435 7296 M 0 -118 R D 3608 7296 M 0 -118 R D
3782 7296 M 0 -118 R D 4129 7296 M 0 -118 R D 4302 7296 M 0 -118 R D
4476 7296 M 0 -118 R D 4649 7296 M 0 -118 R D 4823 7296 M 0 -118 R D
4996 7296 M 0 -118 R D 5170 7296 M 0 -118 R D 5343 7296 M 0 -118 R D
5517 7296 M 0 -118 R D 5864 7296 M 0 -118 R D 6037 7296 M 0 -118 R D
6211 7296 M 0 -118 R D 6384 7296 M 0 -118 R D 6558 7296 M 0 -118 R D
6731 7296 M 0 -118 R D 6905 7296 M 0 -118 R D 7078 7296 M 0 -118 R D
7252 7296 M 0 -118 R D 7599 7296 M 0 -118 R D 7772 7296 M 0 -118 R D
7946 7296 M 0 -118 R D 8119 7296 M 0 -118 R D 8293 7296 M 0 -118 R D
8466 7296 M 0 -118 R D 8640 7296 M 0 -118 R D 8814 7296 M 0 -118 R D
8987 7296 M 0 -118 R D 9334 7296 M 0 -118 R D 2220 1408 M 0 5888 R D
2220 1922 M 285 0 R D gsave 2109 1782 translate 0 0 M -704.08 0 N
(10) show X 192.937 M
%%IncludeResource: font Helvetica
262.467 /Helvetica STDFONT
(-8) show grestore
%%IncludeResource: font Helvetica
423.333 /Helvetica STDFONT 2220 3394 M 285 0 R D
gsave 2109 3254 translate 0 0 M -704.08 0 N
(10) show X 192.937 M
%%IncludeResource: font Helvetica
262.467 /Helvetica STDFONT
(-6) show grestore
%%IncludeResource: font Helvetica
423.333 /Helvetica STDFONT 2220 4866 M 285 0 R D
gsave 2109 4726 translate 0 0 M -704.08 0 N
(10) show X 192.937 M
%%IncludeResource: font Helvetica
262.467 /Helvetica STDFONT
(-4) show grestore
%%IncludeResource: font Helvetica
423.333 /Helvetica STDFONT 2220 6338 M 285 0 R D
gsave 2109 6198 translate 0 0 M -704.08 0 N
(10) show X 192.937 M
%%IncludeResource: font Helvetica
262.467 /Helvetica STDFONT
(-2) show grestore
%%IncludeResource: font Helvetica
423.333 /Helvetica STDFONT 2220 2658 M 142 0 R D 2220 4130 M 142 0 R D
2220 5602 M 142 0 R D 2220 7074 M 142 0 R D gsave 1072 4352 translate 0 0 M
90 rotate -2273.04 0 N
%%IncludeResource: font Symbol
423.333 /Symbol STDFONT
(f) show
%%IncludeResource: font Helvetica
423.333 /Helvetica STDFONT
(\(M) show X -101.051 M
%%IncludeResource: font Symbol
262.467 /Symbol STDFONT
(*) show X 0 M
%%IncludeResource: font Helvetica
423.333 /Helvetica STDFONT
(\) / \(h) show X 192.937 M
%%IncludeResource: font Helvetica
262.467 /Helvetica STDFONT
(3) show X 0 M
%%IncludeResource: font Helvetica
423.333 /Helvetica STDFONT
(Mpc) show X 192.937 M
%%IncludeResource: font Helvetica
262.467 /Helvetica STDFONT
(-3) show X 0 M
%%IncludeResource: font Helvetica
423.333 /Helvetica STDFONT
(log) show X 192.937 M
%%IncludeResource: font Helvetica
262.467 /Helvetica STDFONT
(-1) show X 0 M
%%IncludeResource: font Helvetica
423.333 /Helvetica STDFONT
(M) show X -101.051 M
%%IncludeResource: font Symbol
262.467 /Symbol STDFONT
(*) show X 0 M
%%IncludeResource: font Helvetica
423.333 /Helvetica STDFONT
(\)) show grestore 9334 1408 M 0 5888 R D 9334 1922 M -285 0 R D 9334 3394 M
-285 0 R D 9334 4866 M -285 0 R D 9334 6338 M -285 0 R D 9334 2658 M
-142 0 R D 9334 4130 M -142 0 R D 9334 5602 M -142 0 R D 9334 7074 M
-142 0 R D 40 setlinewidth L1 2220 6872 M 376 -26 R 376 -29 R 376 -34 R
376 -44 R 376 -58 R 376 -82 R 376 -13 R 376 -13 R 376 -32 R 375 -62 R
376 -114 R 376 -197 R 376 -312 R 376 -422 R 376 -593 R 376 -875 R
376 -1339 R 218 -1219 R D 10 setlinewidth L0 2220 6957 M 371 -59 R
370 -106 R 371 -403 R 371 215 R 370 -102 R 371 118 R 371 -273 R 370 130 R
371 -141 R 371 -420 R 370 153 R 371 -399 R 371 -385 R 370 -14 R 371 -388 R
370 -320 R 371 -846 R 371 -456 R D 40 setlinewidth 2220 6818 M 371 -160 R
370 -121 R 371 -78 R 371 -99 R 370 -157 R 371 -31 R 371 198 R 370 53 R
371 -130 R 371 439 R 370 -258 R 371 -484 R 371 -146 R 370 -409 R 371 -549 R
370 -272 R 371 -373 R 371 -973 R D 70 setlinewidth 2220 6679 M 371 -157 R
370 -144 R 371 45 R 371 104 R 370 -25 R 371 -97 R 371 -375 R 370 431 R
371 -107 R 371 60 R 370 -718 R 371 250 R 371 -288 R 370 -419 R 371 -314 R
370 -619 R 371 -587 R 371 -451 R D
%%PageTrailer
end
%%PageResources: font Helvetica
%%+ font Symbol
%%+ font AvantGarde-Book
%%Trailer
%%Pages: 1
%%DocumentNeededResources: font Helvetica
%%+ font Symbol
%%+ font AvantGarde-Book
%%EOF
