%!PS-Adobe-3.0 EPSF-3.0
%%BoundingBox: 0 0 283 226
%%Title: Graphics produced by IDL
%%For: jlgan@Hserver, /home/jlgan/work/phoenix
%%Creator: IDL Version 7.1.1 (linux x86_64 m64)
%%CreationDate: Fri Jun 13 18:15:03 2014
%%DocumentData: Clean7bit
%%Requirements: color
%%LanguageLevel: 1
%%PageOrder: Ascend
%%Pages: (atend)
%%DocumentNeededResources: (atend)
%%EndComments
%%BeginProlog
%+ prolog.ps -- Prolog for IDL generated PostScript files
%+ Copyright (c) 1988-2009 ITT Visual Information Solutions. All Rights Reserved.
%v 5
/$IDL_DICT 40 dict def $IDL_DICT begin /bdef { bind def } bind def /C
{currentpoint newpath moveto} bdef /CP {currentpoint} bdef /D {currentpoint
stroke moveto} bdef /F {closepath fill} bdef /K { setgray } bdef /M {moveto}
bdef /N {rmoveto} bdef /P {lineto} bdef /R {rlineto} bdef /S {gsave show
grestore} bdef /X {currentpoint pop} bdef /Z {gsave currentpoint lineto 20
setlinewidth 1 setlinecap stroke grestore} bdef /L0 {[] 0 setdash} bdef /L1
{[40 100] 0 setdash} bdef /L2 {[200 200] 0 setdash} bdef /L3 {[200 100 50
100] 0 setdash} bdef /L4 {[300 100 50 100 50 100 50 100] 0 setdash} bdef /L5
{[400 200] 0 setdash} bdef /STDFONT { findfont exch scalefont setfont } bdef
/ISOFONT { findfont dup length dict begin { 1 index /FID ne {def} {pop pop}
ifelse } forall /Encoding ISOLatin1Encoding def currentdict end /idltmpfont
exch definefont exch scalefont setfont } bdef /ISOBULLET { gsave /Helvetica
findfont exch scalefont setfont (\267) show currentpoint grestore moveto}
bdef /MITERLIMIT { 2.5 setmiterlimit } bdef end
%%EndProlog
%%Page: 0 1
%%PageRequirements: color
%%PageResources: (atend)
%%PageOrientation: Portrait
%%PageBoundingBox: 0 0 283 226
%%BeginPageSetup
$IDL_DICT begin 0.0283465 dup scale MITERLIMIT
%%IncludeResource: font Helvetica
423.333 /Helvetica STDFONT
%%EndPageSetup
30 setlinewidth L0 0.000 0.000 0.000 setrgbcolor 2220 1408 M 7114 0 R D
2639 1408 M 0 236 R D gsave 2639 880 translate 0 0 M -294.217 0 N
(8.0) show grestore 3685 1408 M 0 236 R D gsave 3685 880 translate 0 0 M
-294.217 0 N
(8.5) show grestore 4731 1408 M 0 236 R D gsave 4731 880 translate 0 0 M
-294.217 0 N
(9.0) show grestore 5777 1408 M 0 236 R D gsave 5777 880 translate 0 0 M
-294.217 0 N
(9.5) show grestore 6823 1408 M 0 236 R D gsave 6823 880 translate 0 0 M
-411.903 0 N
(10.0) show grestore 7869 1408 M 0 236 R D gsave 7869 880 translate 0 0 M
-411.903 0 N
(10.5) show grestore 8916 1408 M 0 236 R D gsave 8916 880 translate 0 0 M
-411.903 0 N
(11.0) show grestore 2220 1408 M 0 118 R D 2429 1408 M 0 118 R D 2848 1408 M
0 118 R D 3057 1408 M 0 118 R D 3266 1408 M 0 118 R D 3475 1408 M 0 118 R D
3894 1408 M 0 118 R D 4103 1408 M 0 118 R D 4312 1408 M 0 118 R D
4522 1408 M 0 118 R D 4940 1408 M 0 118 R D 5149 1408 M 0 118 R D
5359 1408 M 0 118 R D 5568 1408 M 0 118 R D 5986 1408 M 0 118 R D
6196 1408 M 0 118 R D 6405 1408 M 0 118 R D 6614 1408 M 0 118 R D
7032 1408 M 0 118 R D 7242 1408 M 0 118 R D 7451 1408 M 0 118 R D
7660 1408 M 0 118 R D 8079 1408 M 0 118 R D 8288 1408 M 0 118 R D
8497 1408 M 0 118 R D 8706 1408 M 0 118 R D 9125 1408 M 0 118 R D
9334 1408 M 0 118 R D gsave 5777 422 translate 0 0 M -1497.36 0 N
(log) show X -101.051 M
%%IncludeResource: font Helvetica
262.467 /Helvetica STDFONT
(10) show X 0 M
%%IncludeResource: font Helvetica
423.333 /Helvetica STDFONT
([L / \(h) show X 192.937 M
%%IncludeResource: font Helvetica
262.467 /Helvetica STDFONT
(-2) show X 0 M
%%IncludeResource: font Helvetica
423.333 /Helvetica STDFONT
( L) show CP X -101.051 M
%%IncludeResource: font AvantGarde-Book
262.467 /AvantGarde-Book STDFONT
(O) show M X -58.3193 M
%%IncludeResource: font AvantGarde-Book
186.267 /AvantGarde-Book STDFONT
( \267) show X 0 M
%%IncludeResource: font Helvetica
423.333 /Helvetica STDFONT
(\)]) show grestore 2220 7296 M 7114 0 R D 2639 7296 M 0 -235 R D
3685 7296 M 0 -235 R D 4731 7296 M 0 -235 R D 5777 7296 M 0 -235 R D
6823 7296 M 0 -235 R D 7869 7296 M 0 -235 R D 8916 7296 M 0 -235 R D
2220 7296 M 0 -118 R D 2429 7296 M 0 -118 R D 2848 7296 M 0 -118 R D
3057 7296 M 0 -118 R D 3266 7296 M 0 -118 R D 3475 7296 M 0 -118 R D
3894 7296 M 0 -118 R D 4103 7296 M 0 -118 R D 4312 7296 M 0 -118 R D
4522 7296 M 0 -118 R D 4940 7296 M 0 -118 R D 5149 7296 M 0 -118 R D
5359 7296 M 0 -118 R D 5568 7296 M 0 -118 R D 5986 7296 M 0 -118 R D
6196 7296 M 0 -118 R D 6405 7296 M 0 -118 R D 6614 7296 M 0 -118 R D
7032 7296 M 0 -118 R D 7242 7296 M 0 -118 R D 7451 7296 M 0 -118 R D
7660 7296 M 0 -118 R D 8079 7296 M 0 -118 R D 8288 7296 M 0 -118 R D
8497 7296 M 0 -118 R D 8706 7296 M 0 -118 R D 9125 7296 M 0 -118 R D
9334 7296 M 0 -118 R D 2220 1408 M 0 5888 R D 2220 2438 M 285 0 R D
gsave 2109 2297 translate 0 0 M -704.08 0 N
(10) show X 192.937 M
%%IncludeResource: font Helvetica
262.467 /Helvetica STDFONT
(-5) show grestore
%%IncludeResource: font Helvetica
423.333 /Helvetica STDFONT 2220 3471 M 285 0 R D
gsave 2109 3331 translate 0 0 M -704.08 0 N
(10) show X 192.937 M
%%IncludeResource: font Helvetica
262.467 /Helvetica STDFONT
(-4) show grestore
%%IncludeResource: font Helvetica
423.333 /Helvetica STDFONT 2220 4505 M 285 0 R D
gsave 2109 4365 translate 0 0 M -704.08 0 N
(10) show X 192.937 M
%%IncludeResource: font Helvetica
262.467 /Helvetica STDFONT
(-3) show grestore
%%IncludeResource: font Helvetica
423.333 /Helvetica STDFONT 2220 5539 M 285 0 R D
gsave 2109 5399 translate 0 0 M -704.08 0 N
(10) show X 192.937 M
%%IncludeResource: font Helvetica
262.467 /Helvetica STDFONT
(-2) show grestore
%%IncludeResource: font Helvetica
423.333 /Helvetica STDFONT 2220 6573 M 285 0 R D
gsave 2109 6433 translate 0 0 M -704.08 0 N
(10) show X 192.937 M
%%IncludeResource: font Helvetica
262.467 /Helvetica STDFONT
(-1) show grestore
%%IncludeResource: font Helvetica
423.333 /Helvetica STDFONT 2220 1715 M 142 0 R D 2220 1897 M 142 0 R D
2220 2026 M 142 0 R D 2220 2126 M 142 0 R D 2220 2208 M 142 0 R D
2220 2277 M 142 0 R D 2220 2337 M 142 0 R D 2220 2390 M 142 0 R D
2220 2749 M 142 0 R D 2220 2931 M 142 0 R D 2220 3060 M 142 0 R D
2220 3160 M 142 0 R D 2220 3242 M 142 0 R D 2220 3311 M 142 0 R D
2220 3371 M 142 0 R D 2220 3424 M 142 0 R D 2220 3783 M 142 0 R D
2220 3965 M 142 0 R D 2220 4094 M 142 0 R D 2220 4194 M 142 0 R D
2220 4276 M 142 0 R D 2220 4345 M 142 0 R D 2220 4405 M 142 0 R D
2220 4458 M 142 0 R D 2220 4817 M 142 0 R D 2220 4999 M 142 0 R D
2220 5128 M 142 0 R D 2220 5228 M 142 0 R D 2220 5310 M 142 0 R D
2220 5379 M 142 0 R D 2220 5439 M 142 0 R D 2220 5492 M 142 0 R D
2220 5851 M 142 0 R D 2220 6033 M 142 0 R D 2220 6162 M 142 0 R D
2220 6262 M 142 0 R D 2220 6344 M 142 0 R D 2220 6413 M 142 0 R D
2220 6473 M 142 0 R D 2220 6526 M 142 0 R D 2220 6885 M 142 0 R D
2220 7067 M 142 0 R D 2220 7196 M 142 0 R D 2220 7296 M 142 0 R D
gsave 1072 4352 translate 0 0 M 90 rotate -2055.87 0 N
%%IncludeResource: font Symbol
423.333 /Symbol STDFONT
(f) show
%%IncludeResource: font Helvetica
423.333 /Helvetica STDFONT
(\(L\) / \(h) show X 192.937 M
%%IncludeResource: font Helvetica
262.467 /Helvetica STDFONT
(3) show X 0 M
%%IncludeResource: font Helvetica
423.333 /Helvetica STDFONT
(Mpc) show X 192.937 M
%%IncludeResource: font Helvetica
262.467 /Helvetica STDFONT
(-3) show X 0 M
%%IncludeResource: font Helvetica
423.333 /Helvetica STDFONT
(log) show X 192.937 M
%%IncludeResource: font Helvetica
262.467 /Helvetica STDFONT
(-1) show X 0 M
%%IncludeResource: font Helvetica
423.333 /Helvetica STDFONT
(L\)) show grestore 9334 1408 M 0 5888 R D 9334 2438 M -285 0 R D
9334 3471 M -285 0 R D 9334 4505 M -285 0 R D 9334 5539 M -285 0 R D
9334 6573 M -285 0 R D 9334 1715 M -142 0 R D 9334 1897 M -142 0 R D
9334 2026 M -142 0 R D 9334 2126 M -142 0 R D 9334 2208 M -142 0 R D
9334 2277 M -142 0 R D 9334 2337 M -142 0 R D 9334 2390 M -142 0 R D
9334 2749 M -142 0 R D 9334 2931 M -142 0 R D 9334 3060 M -142 0 R D
9334 3160 M -142 0 R D 9334 3242 M -142 0 R D 9334 3311 M -142 0 R D
9334 3371 M -142 0 R D 9334 3424 M -142 0 R D 9334 3783 M -142 0 R D
9334 3965 M -142 0 R D 9334 4094 M -142 0 R D 9334 4194 M -142 0 R D
9334 4276 M -142 0 R D 9334 4345 M -142 0 R D 9334 4405 M -142 0 R D
9334 4458 M -142 0 R D 9334 4817 M -142 0 R D 9334 4999 M -142 0 R D
9334 5128 M -142 0 R D 9334 5228 M -142 0 R D 9334 5310 M -142 0 R D
9334 5379 M -142 0 R D 9334 5439 M -142 0 R D 9334 5492 M -142 0 R D
9334 5851 M -142 0 R D 9334 6033 M -142 0 R D 9334 6162 M -142 0 R D
9334 6262 M -142 0 R D 9334 6344 M -142 0 R D 9334 6413 M -142 0 R D
9334 6473 M -142 0 R D 9334 6526 M -142 0 R D 9334 6885 M -142 0 R D
9334 7067 M -142 0 R D 9334 7196 M -142 0 R D 9334 7296 M -142 0 R D L2
2220 6528 M 209 -81 R 210 -77 R 209 -20 R 209 -158 R 209 68 R 209 -42 R
210 22 R 209 28 R 209 -9 R 209 -19 R 210 -51 R 209 -60 R 209 -34 R 209 -32 R
210 -49 R 209 -21 R 209 -23 R 209 13 R 210 -35 R 209 -56 R 209 -80 R
209 -79 R 209 -95 R 210 -126 R 209 -171 R 209 -217 R 209 -259 R 210 -326 R
209 -368 R 209 -428 R 209 -501 R 210 -687 R D L0 2220 6316 M 71 0 R -71 0 R
0 355 R 71 0 R D 2358 6356 M 142 0 R -71 0 R 0 167 R -71 0 R 142 0 R D
2567 6309 M 143 0 R -71 0 R 0 115 R -72 0 R 143 0 R D 2777 6299 M 142 0 R
-71 0 R 0 97 R -71 0 R 142 0 R D 2986 6145 M 142 0 R -71 0 R 0 89 R -71 0 R
142 0 R D 3195 6219 M 142 0 R -71 0 R 0 80 R -71 0 R 142 0 R D 3404 6186 M
143 0 R -72 0 R 0 63 R -71 0 R 143 0 R D 3614 6214 M 142 0 R -71 0 R 0 51 R
-71 0 R 142 0 R D 3823 6251 M 142 0 R -71 0 R 0 32 R -71 0 R 142 0 R D
4032 6244 M 142 0 R -71 0 R 0 30 R -71 0 R 142 0 R D 4241 6226 M 143 0 R
-72 0 R 0 28 R -71 0 R 143 0 R D 4450 6174 M 143 0 R -71 0 R 0 30 R -72 0 R
143 0 R D 4660 6111 M 142 0 R -71 0 R 0 35 R -71 0 R 142 0 R D 4869 6078 M
142 0 R -71 0 R 0 33 R -71 0 R 142 0 R D 5078 6044 M 142 0 R -71 0 R 0 38 R
-71 0 R 142 0 R D 5287 5998 M 143 0 R -71 0 R 0 32 R -72 0 R 143 0 R D
5497 5977 M 142 0 R -71 0 R 0 32 R -71 0 R 142 0 R D 5706 5953 M 142 0 R
-71 0 R 0 33 R -71 0 R 142 0 R D 5915 5967 M 142 0 R -71 0 R 0 32 R -71 0 R
142 0 R D 6124 5932 M 143 0 R -71 0 R 0 32 R -72 0 R 143 0 R D 6334 5876 M
142 0 R -71 0 R 0 31 R -71 0 R 142 0 R D 6543 5796 M 142 0 R -71 0 R 0 32 R
-71 0 R 142 0 R D 6752 5716 M 142 0 R -71 0 R 0 33 R -71 0 R 142 0 R D
6961 5622 M 143 0 R -72 0 R 0 32 R -71 0 R 143 0 R D 7171 5497 M 142 0 R
-71 0 R 0 30 R -71 0 R 142 0 R D 7380 5325 M 142 0 R -71 0 R 0 31 R -71 0 R
142 0 R D 7589 5108 M 142 0 R -71 0 R 0 31 R -71 0 R 142 0 R D 7798 4850 M
143 0 R -72 0 R 0 30 R -71 0 R 143 0 R D 8007 4527 M 143 0 R -71 0 R 0 24 R
-72 0 R 143 0 R D 8217 4162 M 142 0 R -71 0 R 0 19 R -71 0 R 142 0 R D
8426 3715 M 142 0 R -71 0 R 0 54 R -71 0 R 142 0 R D 8635 3195 M 142 0 R
-71 0 R 0 90 R -71 0 R 142 0 R D 8844 2480 M 143 0 R -71 0 R 0 140 R -72 0 R
143 0 R D 0.761 0.000 0.000 setrgbcolor 2314 6256 M 440 -113 R 439 -97 R
440 -94 R 439 -92 R 440 -20 R 439 -36 R 440 -85 R 439 -204 R 440 -266 R
439 -314 R 440 -375 R 439 -499 R 440 -442 R 439 -395 R 439 -934 R D
2243 6227 M 143 0 R -72 0 R 0 57 R -71 0 R 143 0 R D 2683 6114 M 142 0 R
-71 0 R 0 58 R -71 0 R 142 0 R D 3122 5999 M 142 0 R -71 0 R 0 94 R -71 0 R
142 0 R D 3562 5910 M 142 0 R -71 0 R 0 85 R -71 0 R 142 0 R D 4001 5814 M
142 0 R -71 0 R 0 92 R -71 0 R 142 0 R D 4441 5805 M 142 0 R -71 0 R 0 70 R
-71 0 R 142 0 R D 4880 5757 M 142 0 R -71 0 R 0 93 R -71 0 R 142 0 R D
5320 5673 M 142 0 R -71 0 R 0 92 R -71 0 R 142 0 R D 5759 5447 M 142 0 R
-71 0 R 0 137 R -71 0 R 142 0 R D 6198 5191 M 143 0 R -71 0 R 0 117 R
-72 0 R 143 0 R D 6638 4868 M 142 0 R -71 0 R 0 135 R -71 0 R 142 0 R D
7077 4475 M 143 0 R -71 0 R 0 170 R -72 0 R 143 0 R D 7517 3898 M 142 0 R
-71 0 R 0 325 R -71 0 R 142 0 R D 7956 3484 M 143 0 R -71 0 R 0 270 R
-72 0 R 143 0 R D 8396 2961 M 142 0 R -71 0 R 0 526 R -71 0 R 142 0 R D
8835 1448 M 143 0 R -72 0 R 0 1685 R -71 0 R 143 0 R D
0.000 0.000 1.000 setrgbcolor 2314 6131 M 440 -24 R 439 -43 R 440 -53 R
439 -83 R 440 -65 R 439 -27 R 440 -10 R 439 -24 R 440 -147 R 439 -246 R
440 -415 R 439 -384 R 440 -459 R 439 -220 R 439 -517 R D 2243 5936 M 143 0 R
-72 0 R 0 390 R -71 0 R 143 0 R D 2683 5978 M 142 0 R -71 0 R 0 258 R
-71 0 R 142 0 R D 3122 5973 M 142 0 R -71 0 R 0 182 R -71 0 R 142 0 R D
3562 5938 M 142 0 R -71 0 R 0 147 R -71 0 R 142 0 R D 4001 5858 M 142 0 R
-71 0 R 0 140 R -71 0 R 142 0 R D 4441 5787 M 142 0 R -71 0 R 0 153 R
-71 0 R 142 0 R D 4880 5770 M 142 0 R -71 0 R 0 131 R -71 0 R 142 0 R D
5320 5762 M 142 0 R -71 0 R 0 128 R -71 0 R 142 0 R D 5759 5712 M 142 0 R
-71 0 R 0 180 R -71 0 R 142 0 R D 6198 5558 M 143 0 R -71 0 R 0 194 R
-72 0 R 143 0 R D 6638 5307 M 142 0 R -71 0 R 0 204 R -71 0 R 142 0 R D
7077 4854 M 143 0 R -71 0 R 0 280 R -72 0 R 143 0 R D 7517 4466 M 142 0 R
-71 0 R 0 288 R -71 0 R 142 0 R D 7956 3893 M 143 0 R -71 0 R 0 516 R
-72 0 R 143 0 R D 8396 3633 M 142 0 R -71 0 R 0 596 R -71 0 R 142 0 R D
8835 2670 M 143 0 R -72 0 R 0 1487 R -71 0 R 143 0 R D
0.761 0.000 0.000 setrgbcolor 2789 3763 M 71 0 R 71 0 R 72 0 R 71 0 R 71 0 R
71 0 R 71 0 R 71 0 R 71 0 R D 0.000 0.000 1.000 setrgbcolor 2789 3174 M
71 0 R 71 0 R 72 0 R 71 0 R 71 0 R 71 0 R 71 0 R 71 0 R 71 0 R D L2
0.000 0.000 0.000 setrgbcolor 2789 2586 M 71 0 R 71 0 R 72 0 R 71 0 R 71 0 R
71 0 R 71 0 R 71 0 R 71 0 R D 0.761 0.000 0.000 setrgbcolor
gsave 3501 3608 translate 0 0 M
(Ph2) show grestore 0.000 0.000 1.000 setrgbcolor
gsave 3501 3019 translate 0 0 M
(Ph4) show grestore 0.000 0.000 0.000 setrgbcolor
gsave 3501 2430 translate 0 0 M
(Yang2009) show grestore
%%PageTrailer
end
%%PageResources: font Helvetica
%%+ font Symbol
%%+ font AvantGarde-Book
%%Trailer
%%Pages: 1
%%DocumentNeededResources: font Helvetica
%%+ font Symbol
%%+ font AvantGarde-Book
%%EOF
