%!PS-Adobe-3.0 EPSF-3.0
%%BoundingBox: 0 0 510 198
%%Title: Graphics produced by IDL
%%For: jlgan@Hserver, /home/jlgan/work/phoenix
%%Creator: IDL Version 7.1.1 (linux x86_64 m64)
%%CreationDate: Mon Jun 23 17:51:41 2014
%%DocumentData: Clean7bit
%%Requirements: color
%%LanguageLevel: 1
%%PageOrder: Ascend
%%Pages: (atend)
%%DocumentNeededResources: (atend)
%%EndComments
%%BeginProlog
%+ prolog.ps -- Prolog for IDL generated PostScript files
%+ Copyright (c) 1988-2009 ITT Visual Information Solutions. All Rights Reserved.
%v 5
/$IDL_DICT 40 dict def $IDL_DICT begin /bdef { bind def } bind def /C
{currentpoint newpath moveto} bdef /CP {currentpoint} bdef /D {currentpoint
stroke moveto} bdef /F {closepath fill} bdef /K { setgray } bdef /M {moveto}
bdef /N {rmoveto} bdef /P {lineto} bdef /R {rlineto} bdef /S {gsave show
grestore} bdef /X {currentpoint pop} bdef /Z {gsave currentpoint lineto 20
setlinewidth 1 setlinecap stroke grestore} bdef /L0 {[] 0 setdash} bdef /L1
{[40 100] 0 setdash} bdef /L2 {[200 200] 0 setdash} bdef /L3 {[200 100 50
100] 0 setdash} bdef /L4 {[300 100 50 100 50 100 50 100] 0 setdash} bdef /L5
{[400 200] 0 setdash} bdef /STDFONT { findfont exch scalefont setfont } bdef
/ISOFONT { findfont dup length dict begin { 1 index /FID ne {def} {pop pop}
ifelse } forall /Encoding ISOLatin1Encoding def currentdict end /idltmpfont
exch definefont exch scalefont setfont } bdef /ISOBULLET { gsave /Helvetica
findfont exch scalefont setfont (\267) show currentpoint grestore moveto}
bdef /MITERLIMIT { 2.5 setmiterlimit } bdef end
%%EndProlog
%%Page: 0 1
%%PageRequirements: color
%%PageResources: (atend)
%%PageOrientation: Portrait
%%PageBoundingBox: 0 0 510 198
%%BeginPageSetup
$IDL_DICT begin 0.0283465 dup scale MITERLIMIT
%%IncludeResource: font Helvetica
423.333 /Helvetica STDFONT
%%EndPageSetup
0.000 0.000 0.000 setrgbcolor gsave 9777 352 translate 0 0 M -1497.36 0 N
(log) show X -101.051 M
%%IncludeResource: font Helvetica
262.467 /Helvetica STDFONT
(10) show X 0 M
%%IncludeResource: font Helvetica
423.333 /Helvetica STDFONT
([L / \(h) show X 192.937 M
%%IncludeResource: font Helvetica
262.467 /Helvetica STDFONT
(-2) show X 0 M
%%IncludeResource: font Helvetica
423.333 /Helvetica STDFONT
( L) show CP X -101.051 M
%%IncludeResource: font AvantGarde-Book
262.467 /AvantGarde-Book STDFONT
(O) show M X -58.3193 M
%%IncludeResource: font AvantGarde-Book
186.267 /AvantGarde-Book STDFONT
( \267) show X 0 M
%%IncludeResource: font Helvetica
423.333 /Helvetica STDFONT
(\)]) show grestore gsave 888 3852 translate 0 0 M 90 rotate -2055.87 0 N
%%IncludeResource: font Symbol
423.333 /Symbol STDFONT
(f) show
%%IncludeResource: font Helvetica
423.333 /Helvetica STDFONT
(\(L\) / \(h) show X 192.937 M
%%IncludeResource: font Helvetica
262.467 /Helvetica STDFONT
(3) show X 0 M
%%IncludeResource: font Helvetica
423.333 /Helvetica STDFONT
(Mpc) show X 192.937 M
%%IncludeResource: font Helvetica
262.467 /Helvetica STDFONT
(-3) show X 0 M
%%IncludeResource: font Helvetica
423.333 /Helvetica STDFONT
(log) show X 192.937 M
%%IncludeResource: font Helvetica
262.467 /Helvetica STDFONT
(-1) show X 0 M
%%IncludeResource: font Helvetica
423.333 /Helvetica STDFONT
(L\)) show grestore 30 setlinewidth L0 2220 1408 M 5038 0 R D 2765 1408 M
0 196 R D gsave 2765 880 translate 0 0 M -117.687 0 N
(8) show grestore 4126 1408 M 0 196 R D gsave 4126 880 translate 0 0 M
-117.687 0 N
(9) show grestore 5488 1408 M 0 196 R D gsave 5488 880 translate 0 0 M
-235.373 0 N
(10) show grestore 6850 1408 M 0 196 R D gsave 6850 880 translate 0 0 M
-235.373 0 N
(11) show grestore 2220 1408 M 0 98 R D 2356 1408 M 0 98 R D 2492 1408 M
0 98 R D 2629 1408 M 0 98 R D 2901 1408 M 0 98 R D 3037 1408 M 0 98 R D
3173 1408 M 0 98 R D 3309 1408 M 0 98 R D 3446 1408 M 0 98 R D 3582 1408 M
0 98 R D 3718 1408 M 0 98 R D 3854 1408 M 0 98 R D 3990 1408 M 0 98 R D
4263 1408 M 0 98 R D 4399 1408 M 0 98 R D 4535 1408 M 0 98 R D 4671 1408 M
0 98 R D 4807 1408 M 0 98 R D 4943 1408 M 0 98 R D 5079 1408 M 0 98 R D
5216 1408 M 0 98 R D 5352 1408 M 0 98 R D 5624 1408 M 0 98 R D 5760 1408 M
0 98 R D 5896 1408 M 0 98 R D 6033 1408 M 0 98 R D 6169 1408 M 0 98 R D
6305 1408 M 0 98 R D 6441 1408 M 0 98 R D 6577 1408 M 0 98 R D 6713 1408 M
0 98 R D 6986 1408 M 0 98 R D 7122 1408 M 0 98 R D 7258 1408 M 0 98 R D
2220 6296 M 5038 0 R D 2765 6296 M 0 -195 R D 4126 6296 M 0 -195 R D
5488 6296 M 0 -195 R D 6850 6296 M 0 -195 R D 2220 6296 M 0 -98 R D
2356 6296 M 0 -98 R D 2492 6296 M 0 -98 R D 2629 6296 M 0 -98 R D
2901 6296 M 0 -98 R D 3037 6296 M 0 -98 R D 3173 6296 M 0 -98 R D
3309 6296 M 0 -98 R D 3446 6296 M 0 -98 R D 3582 6296 M 0 -98 R D
3718 6296 M 0 -98 R D 3854 6296 M 0 -98 R D 3990 6296 M 0 -98 R D
4263 6296 M 0 -98 R D 4399 6296 M 0 -98 R D 4535 6296 M 0 -98 R D
4671 6296 M 0 -98 R D 4807 6296 M 0 -98 R D 4943 6296 M 0 -98 R D
5079 6296 M 0 -98 R D 5216 6296 M 0 -98 R D 5352 6296 M 0 -98 R D
5624 6296 M 0 -98 R D 5760 6296 M 0 -98 R D 5896 6296 M 0 -98 R D
6033 6296 M 0 -98 R D 6169 6296 M 0 -98 R D 6305 6296 M 0 -98 R D
6441 6296 M 0 -98 R D 6577 6296 M 0 -98 R D 6713 6296 M 0 -98 R D
6986 6296 M 0 -98 R D 7122 6296 M 0 -98 R D 7258 6296 M 0 -98 R D
2220 1408 M 0 4888 R D 2220 2263 M 202 0 R D gsave 2109 2122 translate 0 0 M
-704.08 0 N
(10) show X 192.937 M
%%IncludeResource: font Helvetica
262.467 /Helvetica STDFONT
(-5) show grestore
%%IncludeResource: font Helvetica
423.333 /Helvetica STDFONT 2220 3121 M 202 0 R D
gsave 2109 2980 translate 0 0 M -704.08 0 N
(10) show X 192.937 M
%%IncludeResource: font Helvetica
262.467 /Helvetica STDFONT
(-4) show grestore
%%IncludeResource: font Helvetica
423.333 /Helvetica STDFONT 2220 3979 M 202 0 R D
gsave 2109 3839 translate 0 0 M -704.08 0 N
(10) show X 192.937 M
%%IncludeResource: font Helvetica
262.467 /Helvetica STDFONT
(-3) show grestore
%%IncludeResource: font Helvetica
423.333 /Helvetica STDFONT 2220 4838 M 202 0 R D
gsave 2109 4697 translate 0 0 M -704.08 0 N
(10) show X 192.937 M
%%IncludeResource: font Helvetica
262.467 /Helvetica STDFONT
(-2) show grestore
%%IncludeResource: font Helvetica
423.333 /Helvetica STDFONT 2220 5696 M 202 0 R D
gsave 2109 5555 translate 0 0 M -704.08 0 N
(10) show X 192.937 M
%%IncludeResource: font Helvetica
262.467 /Helvetica STDFONT
(-1) show grestore
%%IncludeResource: font Helvetica
423.333 /Helvetica STDFONT 2220 1663 M 101 0 R D 2220 1814 M 101 0 R D
2220 1921 M 101 0 R D 2220 2004 M 101 0 R D 2220 2072 M 101 0 R D
2220 2130 M 101 0 R D 2220 2179 M 101 0 R D 2220 2223 M 101 0 R D
2220 2521 M 101 0 R D 2220 2672 M 101 0 R D 2220 2779 M 101 0 R D
2220 2863 M 101 0 R D 2220 2931 M 101 0 R D 2220 2988 M 101 0 R D
2220 3038 M 101 0 R D 2220 3082 M 101 0 R D 2220 3379 M 101 0 R D
2220 3531 M 101 0 R D 2220 3638 M 101 0 R D 2220 3721 M 101 0 R D
2220 3789 M 101 0 R D 2220 3846 M 101 0 R D 2220 3896 M 101 0 R D
2220 3940 M 101 0 R D 2220 4238 M 101 0 R D 2220 4389 M 101 0 R D
2220 4496 M 101 0 R D 2220 4579 M 101 0 R D 2220 4647 M 101 0 R D
2220 4705 M 101 0 R D 2220 4755 M 101 0 R D 2220 4798 M 101 0 R D
2220 5096 M 101 0 R D 2220 5247 M 101 0 R D 2220 5355 M 101 0 R D
2220 5438 M 101 0 R D 2220 5506 M 101 0 R D 2220 5563 M 101 0 R D
2220 5613 M 101 0 R D 2220 5657 M 101 0 R D 2220 5954 M 101 0 R D
2220 6106 M 101 0 R D 2220 6213 M 101 0 R D 2220 6296 M 101 0 R D
7258 1408 M 0 4888 R D 7258 2263 M -201 0 R D 7258 3121 M -201 0 R D
7258 3979 M -201 0 R D 7258 4838 M -201 0 R D 7258 5696 M -201 0 R D
7258 1663 M -101 0 R D 7258 1814 M -101 0 R D 7258 1921 M -101 0 R D
7258 2004 M -101 0 R D 7258 2072 M -101 0 R D 7258 2130 M -101 0 R D
7258 2179 M -101 0 R D 7258 2223 M -101 0 R D 7258 2521 M -101 0 R D
7258 2672 M -101 0 R D 7258 2779 M -101 0 R D 7258 2863 M -101 0 R D
7258 2931 M -101 0 R D 7258 2988 M -101 0 R D 7258 3038 M -101 0 R D
7258 3082 M -101 0 R D 7258 3379 M -101 0 R D 7258 3531 M -101 0 R D
7258 3638 M -101 0 R D 7258 3721 M -101 0 R D 7258 3789 M -101 0 R D
7258 3846 M -101 0 R D 7258 3896 M -101 0 R D 7258 3940 M -101 0 R D
7258 4238 M -101 0 R D 7258 4389 M -101 0 R D 7258 4496 M -101 0 R D
7258 4579 M -101 0 R D 7258 4647 M -101 0 R D 7258 4705 M -101 0 R D
7258 4755 M -101 0 R D 7258 4798 M -101 0 R D 7258 5096 M -101 0 R D
7258 5247 M -101 0 R D 7258 5355 M -101 0 R D 7258 5438 M -101 0 R D
7258 5506 M -101 0 R D 7258 5563 M -101 0 R D 7258 5613 M -101 0 R D
7258 5657 M -101 0 R D 7258 5954 M -101 0 R D 7258 6106 M -101 0 R D
7258 6213 M -101 0 R D 7258 6296 M -101 0 R D L2 2492 5658 M 137 -67 R
136 -63 R 136 -17 R 136 -131 R 136 56 R 136 -35 R 137 19 R 136 22 R 136 -7 R
136 -15 R 136 -43 R 136 -50 R 137 -28 R 136 -26 R 136 -41 R 136 -18 R
136 -19 R 136 11 R 136 -29 R 137 -47 R 136 -66 R 136 -66 R 136 -78 R
136 -105 R 136 -142 R 137 -180 R 136 -215 R 136 -271 R 136 -305 R 136 -356 R
136 -415 R 137 -571 R D L0 2442 5483 M 101 0 R -51 0 R 0 294 R -50 0 R
101 0 R D 2578 5516 M 101 0 R -50 0 R 0 138 R -51 0 R 101 0 R D 2714 5477 M
101 0 R -50 0 R 0 95 R -51 0 R 101 0 R D 2851 5469 M 100 0 R -50 0 R 0 80 R
-50 0 R 100 0 R D 2987 5341 M 100 0 R -50 0 R 0 74 R -50 0 R 100 0 R D
3123 5402 M 101 0 R -51 0 R 0 66 R -50 0 R 101 0 R D 3259 5374 M 101 0 R
-51 0 R 0 53 R -50 0 R 101 0 R D 3395 5398 M 101 0 R -50 0 R 0 42 R -51 0 R
101 0 R D 3531 5429 M 101 0 R -50 0 R 0 26 R -51 0 R 101 0 R D 3667 5423 M
101 0 R -50 0 R 0 25 R -51 0 R 101 0 R D 3804 5408 M 100 0 R -50 0 R 0 23 R
-50 0 R 100 0 R D 3940 5364 M 101 0 R -51 0 R 0 25 R -50 0 R 101 0 R D
4076 5312 M 101 0 R -51 0 R 0 29 R -50 0 R 101 0 R D 4212 5285 M 101 0 R
-50 0 R 0 27 R -51 0 R 101 0 R D 4348 5257 M 101 0 R -50 0 R 0 31 R -51 0 R
101 0 R D 4484 5219 M 101 0 R -50 0 R 0 26 R -51 0 R 101 0 R D 4621 5201 M
100 0 R -50 0 R 0 27 R -50 0 R 100 0 R D 4757 5181 M 101 0 R -51 0 R 0 28 R
-50 0 R 101 0 R D 4893 5193 M 101 0 R -51 0 R 0 26 R -50 0 R 101 0 R D
5029 5164 M 101 0 R -51 0 R 0 26 R -50 0 R 101 0 R D 5165 5117 M 101 0 R
-50 0 R 0 26 R -51 0 R 101 0 R D 5301 5051 M 101 0 R -50 0 R 0 26 R -51 0 R
101 0 R D 5438 4985 M 100 0 R -50 0 R 0 27 R -50 0 R 100 0 R D 5574 4906 M
101 0 R -51 0 R 0 27 R -50 0 R 101 0 R D 5710 4802 M 101 0 R -51 0 R 0 26 R
-50 0 R 101 0 R D 5846 4660 M 101 0 R -51 0 R 0 26 R -50 0 R 101 0 R D
5982 4479 M 101 0 R -50 0 R 0 26 R -51 0 R 101 0 R D 6118 4265 M 101 0 R
-50 0 R 0 25 R -51 0 R 101 0 R D 6255 3998 M 100 0 R -50 0 R 0 19 R -50 0 R
100 0 R D 6391 3694 M 100 0 R -50 0 R 0 16 R -50 0 R 100 0 R D 6527 3323 M
101 0 R -51 0 R 0 45 R -50 0 R 101 0 R D 6663 2891 M 101 0 R -51 0 R 0 75 R
-50 0 R 101 0 R D 6799 2298 M 101 0 R -50 0 R 0 116 R -51 0 R 101 0 R D
0.000 0.000 1.000 setrgbcolor 2554 5328 M 306 -21 R 307 -44 R 306 -43 R
306 -73 R 307 -52 R 306 -24 R 307 16 R 306 -94 R 307 -187 R 306 -315 R
306 -358 R 307 -374 R 306 -217 R 307 -463 R D 2503 5166 M 101 0 R -50 0 R
0 325 R -51 0 R 101 0 R D 2810 5203 M 101 0 R -51 0 R 0 209 R -50 0 R
101 0 R D 3116 5190 M 101 0 R -50 0 R 0 147 R -51 0 R 101 0 R D 3423 5158 M
100 0 R -50 0 R 0 124 R -50 0 R 100 0 R D 3729 5088 M 101 0 R -51 0 R
0 118 R -50 0 R 101 0 R D 4036 5035 M 100 0 R -50 0 R 0 119 R -50 0 R
100 0 R D 4342 5019 M 101 0 R -51 0 R 0 104 R -50 0 R 101 0 R D 4648 5020 M
101 0 R -50 0 R 0 134 R -51 0 R 101 0 R D 4955 4922 M 101 0 R -51 0 R
0 142 R -50 0 R 101 0 R D 5261 4703 M 101 0 R -50 0 R 0 205 R -51 0 R
101 0 R D 5568 4390 M 100 0 R -50 0 R 0 202 R -50 0 R 100 0 R D 5874 4026 M
101 0 R -51 0 R 0 213 R -50 0 R 101 0 R D 6180 3600 M 101 0 R -50 0 R
0 317 R -51 0 R 101 0 R D 6487 3303 M 101 0 R -51 0 R 0 478 R -50 0 R
101 0 R D 6793 2460 M 101 0 R -50 0 R 0 1238 R -51 0 R 101 0 R D
0.000 0.000 0.000 setrgbcolor gsave 6986 5696 translate 0 0 M -470.323 0 N
(All) show grestore 0.000 0.000 1.000 setrgbcolor 2623 2874 M 76 0 R 75 0 R
76 0 R 75 0 R 76 0 R 76 0 R 75 0 R 76 0 R 75 0 R D L2
0.000 0.000 0.000 setrgbcolor 2623 2386 M 76 0 R 75 0 R 76 0 R 75 0 R 76 0 R
76 0 R 75 0 R 76 0 R 75 0 R D 0.000 0.000 1.000 setrgbcolor
gsave 3379 2727 translate 0 0 M
(model cluster) show grestore 0.000 0.000 0.000 setrgbcolor
gsave 3379 2238 translate 0 0 M
(Yang2009) show grestore gsave 2623 1652 translate 0 0 M
(whole cluster) show grestore L0 7258 1408 M 5038 0 R D 7803 1408 M 0 196 R
D gsave 7803 880 translate 0 0 M -117.687 0 N
(8) show grestore 9164 1408 M 0 196 R D gsave 9164 880 translate 0 0 M
-117.687 0 N
(9) show grestore 10526 1408 M 0 196 R D gsave 10526 880 translate 0 0 M
-235.373 0 N
(10) show grestore 11888 1408 M 0 196 R D gsave 11888 880 translate 0 0 M
-235.373 0 N
(11) show grestore 7258 1408 M 0 98 R D 7394 1408 M 0 98 R D 7530 1408 M
0 98 R D 7667 1408 M 0 98 R D 7939 1408 M 0 98 R D 8075 1408 M 0 98 R D
8211 1408 M 0 98 R D 8347 1408 M 0 98 R D 8484 1408 M 0 98 R D 8620 1408 M
0 98 R D 8756 1408 M 0 98 R D 8892 1408 M 0 98 R D 9028 1408 M 0 98 R D
9301 1408 M 0 98 R D 9437 1408 M 0 98 R D 9573 1408 M 0 98 R D 9709 1408 M
0 98 R D 9845 1408 M 0 98 R D 9981 1408 M 0 98 R D 10117 1408 M 0 98 R D
10254 1408 M 0 98 R D 10390 1408 M 0 98 R D 10662 1408 M 0 98 R D
10798 1408 M 0 98 R D 10934 1408 M 0 98 R D 11071 1408 M 0 98 R D
11207 1408 M 0 98 R D 11343 1408 M 0 98 R D 11479 1408 M 0 98 R D
11615 1408 M 0 98 R D 11751 1408 M 0 98 R D 12024 1408 M 0 98 R D
12160 1408 M 0 98 R D 12296 1408 M 0 98 R D 7258 6296 M 5038 0 R D
7803 6296 M 0 -195 R D 9164 6296 M 0 -195 R D 10526 6296 M 0 -195 R D
11888 6296 M 0 -195 R D 7258 6296 M 0 -98 R D 7394 6296 M 0 -98 R D
7530 6296 M 0 -98 R D 7667 6296 M 0 -98 R D 7939 6296 M 0 -98 R D
8075 6296 M 0 -98 R D 8211 6296 M 0 -98 R D 8347 6296 M 0 -98 R D
8484 6296 M 0 -98 R D 8620 6296 M 0 -98 R D 8756 6296 M 0 -98 R D
8892 6296 M 0 -98 R D 9028 6296 M 0 -98 R D 9301 6296 M 0 -98 R D
9437 6296 M 0 -98 R D 9573 6296 M 0 -98 R D 9709 6296 M 0 -98 R D
9845 6296 M 0 -98 R D 9981 6296 M 0 -98 R D 10117 6296 M 0 -98 R D
10254 6296 M 0 -98 R D 10390 6296 M 0 -98 R D 10662 6296 M 0 -98 R D
10798 6296 M 0 -98 R D 10934 6296 M 0 -98 R D 11071 6296 M 0 -98 R D
11207 6296 M 0 -98 R D 11343 6296 M 0 -98 R D 11479 6296 M 0 -98 R D
11615 6296 M 0 -98 R D 11751 6296 M 0 -98 R D 12024 6296 M 0 -98 R D
12160 6296 M 0 -98 R D 12296 6296 M 0 -98 R D 7258 1408 M 0 4888 R D
7258 2263 M 202 0 R D gsave 7147 2122 translate 0 0 M -117.687 0 N
( ) show grestore 7258 3121 M 202 0 R D gsave 7147 2980 translate 0 0 M
-117.687 0 N
( ) show grestore 7258 3979 M 202 0 R D gsave 7147 3839 translate 0 0 M
-117.687 0 N
( ) show grestore 7258 4838 M 202 0 R D gsave 7147 4697 translate 0 0 M
-117.687 0 N
( ) show grestore 7258 5696 M 202 0 R D gsave 7147 5555 translate 0 0 M
-117.687 0 N
( ) show grestore 7258 1663 M 101 0 R D 7258 1814 M 101 0 R D 7258 1921 M
101 0 R D 7258 2004 M 101 0 R D 7258 2072 M 101 0 R D 7258 2130 M 101 0 R D
7258 2179 M 101 0 R D 7258 2223 M 101 0 R D 7258 2521 M 101 0 R D
7258 2672 M 101 0 R D 7258 2779 M 101 0 R D 7258 2863 M 101 0 R D
7258 2931 M 101 0 R D 7258 2988 M 101 0 R D 7258 3038 M 101 0 R D
7258 3082 M 101 0 R D 7258 3379 M 101 0 R D 7258 3531 M 101 0 R D
7258 3638 M 101 0 R D 7258 3721 M 101 0 R D 7258 3789 M 101 0 R D
7258 3846 M 101 0 R D 7258 3896 M 101 0 R D 7258 3940 M 101 0 R D
7258 4238 M 101 0 R D 7258 4389 M 101 0 R D 7258 4496 M 101 0 R D
7258 4579 M 101 0 R D 7258 4647 M 101 0 R D 7258 4705 M 101 0 R D
7258 4755 M 101 0 R D 7258 4798 M 101 0 R D 7258 5096 M 101 0 R D
7258 5247 M 101 0 R D 7258 5355 M 101 0 R D 7258 5438 M 101 0 R D
7258 5506 M 101 0 R D 7258 5563 M 101 0 R D 7258 5613 M 101 0 R D
7258 5657 M 101 0 R D 7258 5954 M 101 0 R D 7258 6106 M 101 0 R D
7258 6213 M 101 0 R D 7258 6296 M 101 0 R D 12296 1408 M 0 4888 R D
12296 2263 M -201 0 R D 12296 3121 M -201 0 R D 12296 3979 M -201 0 R D
12296 4838 M -201 0 R D 12296 5696 M -201 0 R D 12296 1663 M -101 0 R D
12296 1814 M -101 0 R D 12296 1921 M -101 0 R D 12296 2004 M -101 0 R D
12296 2072 M -101 0 R D 12296 2130 M -101 0 R D 12296 2179 M -101 0 R D
12296 2223 M -101 0 R D 12296 2521 M -101 0 R D 12296 2672 M -101 0 R D
12296 2779 M -101 0 R D 12296 2863 M -101 0 R D 12296 2931 M -101 0 R D
12296 2988 M -101 0 R D 12296 3038 M -101 0 R D 12296 3082 M -101 0 R D
12296 3379 M -101 0 R D 12296 3531 M -101 0 R D 12296 3638 M -101 0 R D
12296 3721 M -101 0 R D 12296 3789 M -101 0 R D 12296 3846 M -101 0 R D
12296 3896 M -101 0 R D 12296 3940 M -101 0 R D 12296 4238 M -101 0 R D
12296 4389 M -101 0 R D 12296 4496 M -101 0 R D 12296 4579 M -101 0 R D
12296 4647 M -101 0 R D 12296 4705 M -101 0 R D 12296 4755 M -101 0 R D
12296 4798 M -101 0 R D 12296 5096 M -101 0 R D 12296 5247 M -101 0 R D
12296 5355 M -101 0 R D 12296 5438 M -101 0 R D 12296 5506 M -101 0 R D
12296 5563 M -101 0 R D 12296 5613 M -101 0 R D 12296 5657 M -101 0 R D
12296 5954 M -101 0 R D 12296 6106 M -101 0 R D 12296 6213 M -101 0 R D
12296 6296 M -101 0 R D L2 7530 5564 M 137 -137 R 136 -23 R 136 -12 R
136 -173 R 136 80 R 136 -41 R 137 22 R 136 24 R 136 -34 R 136 -19 R
136 -32 R 136 -52 R 137 -22 R 136 -24 R 136 -36 R 136 -14 R 136 -11 R
136 15 R 136 -21 R 137 -36 R 136 -54 R 136 -59 R 136 -68 R 136 -93 R
136 -133 R 137 -171 R 136 -206 R 136 -260 R 136 -295 R 136 -349 R 136 -406 R
137 -564 R D L0 7480 5329 M 101 0 R -51 0 R 0 378 R -50 0 R 101 0 R D
7616 5287 M 101 0 R -50 0 R 0 242 R -51 0 R 101 0 R D 7752 5324 M 101 0 R
-50 0 R 0 146 R -51 0 R 101 0 R D 7889 5320 M 100 0 R -50 0 R 0 133 R
-50 0 R 100 0 R D 8025 5137 M 100 0 R -50 0 R 0 148 R -50 0 R 100 0 R D
8161 5237 M 101 0 R -51 0 R 0 116 R -50 0 R 101 0 R D 8297 5200 M 101 0 R
-51 0 R 0 108 R -50 0 R 101 0 R D 8433 5236 M 101 0 R -50 0 R 0 82 R -51 0 R
101 0 R D 8569 5265 M 101 0 R -50 0 R 0 74 R -51 0 R 101 0 R D 8705 5231 M
101 0 R -50 0 R 0 75 R -51 0 R 101 0 R D 8842 5211 M 100 0 R -50 0 R 0 77 R
-50 0 R 100 0 R D 8978 5181 M 101 0 R -51 0 R 0 72 R -50 0 R 101 0 R D
9114 5128 M 101 0 R -51 0 R 0 74 R -50 0 R 101 0 R D 9250 5108 M 101 0 R
-50 0 R 0 70 R -51 0 R 101 0 R D 9386 5089 M 101 0 R -50 0 R 0 61 R -51 0 R
101 0 R D 9522 5053 M 101 0 R -50 0 R 0 62 R -51 0 R 101 0 R D 9659 5039 M
100 0 R -50 0 R 0 61 R -50 0 R 100 0 R D 9795 5027 M 101 0 R -51 0 R 0 63 R
-50 0 R 101 0 R D 9931 5043 M 101 0 R -51 0 R 0 62 R -50 0 R 101 0 R D
10067 5023 M 101 0 R -51 0 R 0 60 R -50 0 R 101 0 R D 10203 4989 M 101 0 R
-50 0 R 0 57 R -51 0 R 101 0 R D 10339 4935 M 101 0 R -50 0 R 0 56 R -51 0 R
101 0 R D 10476 4876 M 100 0 R -50 0 R 0 56 R -50 0 R 100 0 R D 10612 4810 M
101 0 R -51 0 R 0 53 R -50 0 R 101 0 R D 10748 4718 M 101 0 R -51 0 R 0 50 R
-50 0 R 101 0 R D 10884 4586 M 101 0 R -51 0 R 0 49 R -50 0 R 101 0 R D
11020 4417 M 101 0 R -50 0 R 0 45 R -51 0 R 101 0 R D 11156 4214 M 101 0 R
-50 0 R 0 39 R -51 0 R 101 0 R D 11293 3958 M 100 0 R -50 0 R 0 32 R -50 0 R
100 0 R D 11429 3669 M 100 0 R -50 0 R 0 20 R -50 0 R 100 0 R D 11565 3308 M
101 0 R -51 0 R 0 42 R -50 0 R 101 0 R D 11701 2891 M 101 0 R -51 0 R 0 64 R
-50 0 R 101 0 R D 11837 2298 M 101 0 R -50 0 R 0 116 R -51 0 R 101 0 R D
0.000 0.000 1.000 setrgbcolor 7592 4817 M 306 -35 R 307 -51 R 306 -62 R
306 -46 R 307 -92 R 306 -49 R 307 -53 R 306 -98 R 307 -125 R 306 -280 R
306 -366 R 307 -250 R 306 -358 R 307 -1066 R D 7541 4604 M 101 0 R -50 0 R
0 425 R -51 0 R 101 0 R D 7848 4641 M 101 0 R -51 0 R 0 282 R -50 0 R
101 0 R D 8154 4639 M 101 0 R -50 0 R 0 183 R -51 0 R 101 0 R D 8461 4562 M
100 0 R -50 0 R 0 214 R -50 0 R 100 0 R D 8767 4532 M 101 0 R -51 0 R
0 183 R -50 0 R 101 0 R D 9074 4417 M 100 0 R -50 0 R 0 229 R -50 0 R
100 0 R D 9380 4403 M 101 0 R -51 0 R 0 158 R -50 0 R 101 0 R D 9686 4325 M
101 0 R -50 0 R 0 208 R -51 0 R 101 0 R D 9993 4209 M 101 0 R -51 0 R
0 245 R -50 0 R 101 0 R D 10299 4025 M 101 0 R -50 0 R 0 363 R -51 0 R
101 0 R D 10606 3807 M 100 0 R -50 0 R 0 237 R -50 0 R 100 0 R D
10912 3370 M 101 0 R -51 0 R 0 379 R -50 0 R 101 0 R D 11218 3096 M 101 0 R
-50 0 R 0 428 R -51 0 R 101 0 R D 11525 2625 M 101 0 R -51 0 R 0 654 R
-50 0 R 101 0 R D 11882 1408 M 0 1152 R -51 0 R 101 0 R D
0.000 0.000 0.000 setrgbcolor gsave 12024 5696 translate 0 0 M -1364.4 0 N
(Central) show grestore 12296 1408 M 5038 0 R D 12841 1408 M 0 196 R D
gsave 12841 880 translate 0 0 M -117.687 0 N
(8) show grestore 14202 1408 M 0 196 R D gsave 14202 880 translate 0 0 M
-117.687 0 N
(9) show grestore 15564 1408 M 0 196 R D gsave 15564 880 translate 0 0 M
-235.373 0 N
(10) show grestore 16926 1408 M 0 196 R D gsave 16926 880 translate 0 0 M
-235.373 0 N
(11) show grestore 12296 1408 M 0 98 R D 12432 1408 M 0 98 R D 12568 1408 M
0 98 R D 12705 1408 M 0 98 R D 12977 1408 M 0 98 R D 13113 1408 M 0 98 R D
13249 1408 M 0 98 R D 13385 1408 M 0 98 R D 13522 1408 M 0 98 R D
13658 1408 M 0 98 R D 13794 1408 M 0 98 R D 13930 1408 M 0 98 R D
14066 1408 M 0 98 R D 14339 1408 M 0 98 R D 14475 1408 M 0 98 R D
14611 1408 M 0 98 R D 14747 1408 M 0 98 R D 14883 1408 M 0 98 R D
15019 1408 M 0 98 R D 15155 1408 M 0 98 R D 15292 1408 M 0 98 R D
15428 1408 M 0 98 R D 15700 1408 M 0 98 R D 15836 1408 M 0 98 R D
15972 1408 M 0 98 R D 16109 1408 M 0 98 R D 16245 1408 M 0 98 R D
16381 1408 M 0 98 R D 16517 1408 M 0 98 R D 16653 1408 M 0 98 R D
16789 1408 M 0 98 R D 17062 1408 M 0 98 R D 17198 1408 M 0 98 R D
17334 1408 M 0 98 R D 12296 6296 M 5038 0 R D 12841 6296 M 0 -195 R D
14202 6296 M 0 -195 R D 15564 6296 M 0 -195 R D 16926 6296 M 0 -195 R D
12296 6296 M 0 -98 R D 12432 6296 M 0 -98 R D 12568 6296 M 0 -98 R D
12705 6296 M 0 -98 R D 12977 6296 M 0 -98 R D 13113 6296 M 0 -98 R D
13249 6296 M 0 -98 R D 13385 6296 M 0 -98 R D 13522 6296 M 0 -98 R D
13658 6296 M 0 -98 R D 13794 6296 M 0 -98 R D 13930 6296 M 0 -98 R D
14066 6296 M 0 -98 R D 14339 6296 M 0 -98 R D 14475 6296 M 0 -98 R D
14611 6296 M 0 -98 R D 14747 6296 M 0 -98 R D 14883 6296 M 0 -98 R D
15019 6296 M 0 -98 R D 15155 6296 M 0 -98 R D 15292 6296 M 0 -98 R D
15428 6296 M 0 -98 R D 15700 6296 M 0 -98 R D 15836 6296 M 0 -98 R D
15972 6296 M 0 -98 R D 16109 6296 M 0 -98 R D 16245 6296 M 0 -98 R D
16381 6296 M 0 -98 R D 16517 6296 M 0 -98 R D 16653 6296 M 0 -98 R D
16789 6296 M 0 -98 R D 17062 6296 M 0 -98 R D 17198 6296 M 0 -98 R D
17334 6296 M 0 -98 R D 12296 1408 M 0 4888 R D 12296 2263 M 202 0 R D
gsave 12185 2122 translate 0 0 M -117.687 0 N
( ) show grestore 12296 3121 M 202 0 R D gsave 12185 2980 translate 0 0 M
-117.687 0 N
( ) show grestore 12296 3979 M 202 0 R D gsave 12185 3839 translate 0 0 M
-117.687 0 N
( ) show grestore 12296 4838 M 202 0 R D gsave 12185 4697 translate 0 0 M
-117.687 0 N
( ) show grestore 12296 5696 M 202 0 R D gsave 12185 5555 translate 0 0 M
-117.687 0 N
( ) show grestore 12296 1663 M 101 0 R D 12296 1814 M 101 0 R D 12296 1921 M
101 0 R D 12296 2004 M 101 0 R D 12296 2072 M 101 0 R D 12296 2130 M 101 0 R
D 12296 2179 M 101 0 R D 12296 2223 M 101 0 R D 12296 2521 M 101 0 R D
12296 2672 M 101 0 R D 12296 2779 M 101 0 R D 12296 2863 M 101 0 R D
12296 2931 M 101 0 R D 12296 2988 M 101 0 R D 12296 3038 M 101 0 R D
12296 3082 M 101 0 R D 12296 3379 M 101 0 R D 12296 3531 M 101 0 R D
12296 3638 M 101 0 R D 12296 3721 M 101 0 R D 12296 3789 M 101 0 R D
12296 3846 M 101 0 R D 12296 3896 M 101 0 R D 12296 3940 M 101 0 R D
12296 4238 M 101 0 R D 12296 4389 M 101 0 R D 12296 4496 M 101 0 R D
12296 4579 M 101 0 R D 12296 4647 M 101 0 R D 12296 4705 M 101 0 R D
12296 4755 M 101 0 R D 12296 4798 M 101 0 R D 12296 5096 M 101 0 R D
12296 5247 M 101 0 R D 12296 5355 M 101 0 R D 12296 5438 M 101 0 R D
12296 5506 M 101 0 R D 12296 5563 M 101 0 R D 12296 5613 M 101 0 R D
12296 5657 M 101 0 R D 12296 5954 M 101 0 R D 12296 6106 M 101 0 R D
12296 6213 M 101 0 R D 12296 6296 M 101 0 R D 17334 1408 M 0 4888 R D
17334 2263 M -201 0 R D 17334 3121 M -201 0 R D 17334 3979 M -201 0 R D
17334 4838 M -201 0 R D 17334 5696 M -201 0 R D 17334 1663 M -101 0 R D
17334 1814 M -101 0 R D 17334 1921 M -101 0 R D 17334 2004 M -101 0 R D
17334 2072 M -101 0 R D 17334 2130 M -101 0 R D 17334 2179 M -101 0 R D
17334 2223 M -101 0 R D 17334 2521 M -101 0 R D 17334 2672 M -101 0 R D
17334 2779 M -101 0 R D 17334 2863 M -101 0 R D 17334 2931 M -101 0 R D
17334 2988 M -101 0 R D 17334 3038 M -101 0 R D 17334 3082 M -101 0 R D
17334 3379 M -101 0 R D 17334 3531 M -101 0 R D 17334 3638 M -101 0 R D
17334 3721 M -101 0 R D 17334 3789 M -101 0 R D 17334 3846 M -101 0 R D
17334 3896 M -101 0 R D 17334 3940 M -101 0 R D 17334 4238 M -101 0 R D
17334 4389 M -101 0 R D 17334 4496 M -101 0 R D 17334 4579 M -101 0 R D
17334 4647 M -101 0 R D 17334 4705 M -101 0 R D 17334 4755 M -101 0 R D
17334 4798 M -101 0 R D 17334 5096 M -101 0 R D 17334 5247 M -101 0 R D
17334 5355 M -101 0 R D 17334 5438 M -101 0 R D 17334 5506 M -101 0 R D
17334 5563 M -101 0 R D 17334 5613 M -101 0 R D 17334 5657 M -101 0 R D
17334 5954 M -101 0 R D 17334 6106 M -101 0 R D 17334 6213 M -101 0 R D
17334 6296 M -101 0 R D L2 12568 5098 M 137 108 R 136 -150 R 136 -31 R
136 -36 R 136 8 R 136 -21 R 137 11 R 136 19 R 136 46 R 136 -10 R 136 -60 R
136 -47 R 137 -39 R 136 -31 R 136 -52 R 136 -24 R 136 -37 R 136 0 R
136 -48 R 137 -76 R 136 -104 R 136 -88 R 136 -120 R 136 -152 R 136 -192 R
137 -236 R 136 -279 R 136 -371 R 136 -453 R 136 -454 R 135 -771 R D L0
12518 4501 M 101 0 R -51 0 R 0 816 R -50 0 R 101 0 R D 12654 4874 M 101 0 R
-50 0 R 0 504 R -51 0 R 101 0 R D 12790 4803 M 101 0 R -50 0 R 0 402 R
-51 0 R 101 0 R D 12927 4811 M 100 0 R -50 0 R 0 349 R -50 0 R 100 0 R D
13063 4819 M 100 0 R -50 0 R 0 286 R -50 0 R 100 0 R D 13199 4839 M 101 0 R
-51 0 R 0 268 R -50 0 R 101 0 R D 13335 4840 M 101 0 R -51 0 R 0 236 R
-50 0 R 101 0 R D 13471 4885 M 101 0 R -50 0 R 0 182 R -51 0 R 101 0 R D
13607 4926 M 101 0 R -50 0 R 0 146 R -51 0 R 101 0 R D 13743 4991 M 101 0 R
-50 0 R 0 114 R -51 0 R 101 0 R D 13880 4981 M 100 0 R -50 0 R 0 114 R
-50 0 R 100 0 R D 14016 4927 M 101 0 R -51 0 R 0 102 R -50 0 R 101 0 R D
14152 4890 M 101 0 R -51 0 R 0 84 R -50 0 R 101 0 R D 14288 4852 M 101 0 R
-50 0 R 0 82 R -51 0 R 101 0 R D 14424 4837 M 101 0 R -50 0 R 0 54 R -51 0 R
101 0 R D 14560 4775 M 101 0 R -50 0 R 0 73 R -51 0 R 101 0 R D 14697 4755 M
100 0 R -50 0 R 0 65 R -50 0 R 100 0 R D 14833 4716 M 101 0 R -51 0 R 0 69 R
-50 0 R 101 0 R D 14969 4715 M 101 0 R -51 0 R 0 70 R -50 0 R 101 0 R D
15105 4665 M 101 0 R -51 0 R 0 75 R -50 0 R 101 0 R D 15241 4589 M 101 0 R
-50 0 R 0 74 R -51 0 R 101 0 R D 15377 4483 M 101 0 R -50 0 R 0 78 R -51 0 R
101 0 R D 15514 4392 M 100 0 R -50 0 R 0 84 R -50 0 R 100 0 R D 15650 4268 M
101 0 R -51 0 R 0 91 R -50 0 R 101 0 R D 15786 4107 M 101 0 R -51 0 R
0 105 R -50 0 R 101 0 R D 15922 3914 M 101 0 R -51 0 R 0 108 R -50 0 R
101 0 R D 16058 3672 M 101 0 R -50 0 R 0 118 R -51 0 R 101 0 R D
16194 3399 M 101 0 R -50 0 R 0 107 R -51 0 R 101 0 R D 16331 3004 M 100 0 R
-50 0 R 0 149 R -50 0 R 100 0 R D 16467 2502 M 100 0 R -50 0 R 0 228 R
-50 0 R 100 0 R D 16603 2004 M 101 0 R -51 0 R 0 294 R -50 0 R 101 0 R D
16739 1408 M 101 0 R -51 0 R 0 255 R -50 0 R 101 0 R D 16875 1408 M 101 0 R
-50 0 R -51 0 R 101 0 R D 0.000 0.000 1.000 setrgbcolor 12630 5217 M
306 -18 R 307 -39 R 306 -39 R 306 -84 R 307 -39 R 306 -16 R 307 32 R
306 -94 R 307 -205 R 306 -326 R 306 -364 R 307 -427 R 306 -138 R 307 -649 R
D 12579 5067 M 101 0 R -50 0 R 0 299 R -51 0 R 101 0 R D 12886 5096 M
101 0 R -51 0 R 0 206 R -50 0 R 101 0 R D 13192 5082 M 101 0 R -50 0 R
0 155 R -51 0 R 101 0 R D 13499 5062 M 100 0 R -50 0 R 0 119 R -50 0 R
100 0 R D 13805 4964 M 101 0 R -51 0 R 0 147 R -50 0 R 101 0 R D
14112 4932 M 100 0 R -50 0 R 0 131 R -50 0 R 100 0 R D 14418 4914 M 101 0 R
-51 0 R 0 135 R -50 0 R 101 0 R D 14724 4939 M 101 0 R -50 0 R 0 150 R
-51 0 R 101 0 R D 15031 4835 M 101 0 R -51 0 R 0 169 R -50 0 R 101 0 R D
15337 4605 M 101 0 R -50 0 R 0 220 R -51 0 R 101 0 R D 15644 4255 M 100 0 R
-50 0 R 0 269 R -50 0 R 100 0 R D 15950 3879 M 101 0 R -51 0 R 0 292 R
-50 0 R 101 0 R D 16256 3329 M 101 0 R -50 0 R 0 538 R -51 0 R 101 0 R D
16563 3240 M 101 0 R -51 0 R 0 439 R -50 0 R 101 0 R D 16869 1508 M 101 0 R
-50 0 R 0 2606 R -51 0 R 101 0 R D 0.000 0.000 0.000 setrgbcolor
gsave 17062 5696 translate 0 0 M -1505.8 0 N
(Satellite) show grestore
%%PageTrailer
end
%%PageResources: font Helvetica
%%+ font Symbol
%%+ font AvantGarde-Book
%%Trailer
%%Pages: 1
%%DocumentNeededResources: font Helvetica
%%+ font Symbol
%%+ font AvantGarde-Book
%%EOF
