%!PS-Adobe-3.0 EPSF-3.0
%%BoundingBox: 0 0 510 198
%%Title: Graphics produced by IDL
%%For: jlgan@Hserver, /home/jlgan/work/phoenix
%%Creator: IDL Version 7.1.1 (linux x86_64 m64)
%%CreationDate: Tue Jul  1 11:41:02 2014
%%DocumentData: Clean7bit
%%Requirements: color
%%LanguageLevel: 1
%%PageOrder: Ascend
%%Pages: (atend)
%%DocumentNeededResources: (atend)
%%EndComments
%%BeginProlog
%+ prolog.ps -- Prolog for IDL generated PostScript files
%+ Copyright (c) 1988-2009 ITT Visual Information Solutions. All Rights Reserved.
%v 5
/$IDL_DICT 40 dict def $IDL_DICT begin /bdef { bind def } bind def /C
{currentpoint newpath moveto} bdef /CP {currentpoint} bdef /D {currentpoint
stroke moveto} bdef /F {closepath fill} bdef /K { setgray } bdef /M {moveto}
bdef /N {rmoveto} bdef /P {lineto} bdef /R {rlineto} bdef /S {gsave show
grestore} bdef /X {currentpoint pop} bdef /Z {gsave currentpoint lineto 20
setlinewidth 1 setlinecap stroke grestore} bdef /L0 {[] 0 setdash} bdef /L1
{[40 100] 0 setdash} bdef /L2 {[200 200] 0 setdash} bdef /L3 {[200 100 50
100] 0 setdash} bdef /L4 {[300 100 50 100 50 100 50 100] 0 setdash} bdef /L5
{[400 200] 0 setdash} bdef /STDFONT { findfont exch scalefont setfont } bdef
/ISOFONT { findfont dup length dict begin { 1 index /FID ne {def} {pop pop}
ifelse } forall /Encoding ISOLatin1Encoding def currentdict end /idltmpfont
exch definefont exch scalefont setfont } bdef /ISOBULLET { gsave /Helvetica
findfont exch scalefont setfont (\267) show currentpoint grestore moveto}
bdef /MITERLIMIT { 2.5 setmiterlimit } bdef end
%%EndProlog
%%Page: 0 1
%%PageRequirements: color
%%PageResources: (atend)
%%PageOrientation: Portrait
%%PageBoundingBox: 0 0 510 198
%%BeginPageSetup
$IDL_DICT begin 0.0283465 dup scale MITERLIMIT
%%IncludeResource: font Helvetica
423.333 /Helvetica STDFONT
%%EndPageSetup
0.000 0.000 0.000 setrgbcolor gsave 9777 6472 translate 0 0 M 1.25 dup scale
-971.584 0 N
(within R) show X -101.051 M
%%IncludeResource: font Helvetica
262.467 /Helvetica STDFONT
(200) show grestore
%%IncludeResource: font Helvetica
423.333 /Helvetica STDFONT gsave 9777 352 translate 0 0 M -1497.36 0 N
(log) show X -101.051 M
%%IncludeResource: font Helvetica
262.467 /Helvetica STDFONT
(10) show X 0 M
%%IncludeResource: font Helvetica
423.333 /Helvetica STDFONT
([L / \(h) show X 192.937 M
%%IncludeResource: font Helvetica
262.467 /Helvetica STDFONT
(-2) show X 0 M
%%IncludeResource: font Helvetica
423.333 /Helvetica STDFONT
( L) show CP X -101.051 M
%%IncludeResource: font AvantGarde-Book
262.467 /AvantGarde-Book STDFONT
(O) show M X -58.3193 M
%%IncludeResource: font AvantGarde-Book
186.267 /AvantGarde-Book STDFONT
( \267) show X 0 M
%%IncludeResource: font Helvetica
423.333 /Helvetica STDFONT
(\)]) show grestore gsave 888 3852 translate 0 0 M 90 rotate -2055.87 0 N
%%IncludeResource: font Symbol
423.333 /Symbol STDFONT
(f) show
%%IncludeResource: font Helvetica
423.333 /Helvetica STDFONT
(\(L\) / \(h) show X 192.937 M
%%IncludeResource: font Helvetica
262.467 /Helvetica STDFONT
(3) show X 0 M
%%IncludeResource: font Helvetica
423.333 /Helvetica STDFONT
(Mpc) show X 192.937 M
%%IncludeResource: font Helvetica
262.467 /Helvetica STDFONT
(-3) show X 0 M
%%IncludeResource: font Helvetica
423.333 /Helvetica STDFONT
(log) show X 192.937 M
%%IncludeResource: font Helvetica
262.467 /Helvetica STDFONT
(-1) show X 0 M
%%IncludeResource: font Helvetica
423.333 /Helvetica STDFONT
(L\)) show grestore 30 setlinewidth L0 2220 1408 M 5038 0 R D 2346 1408 M
0 196 R D gsave 2346 880 translate 0 0 M -117.687 0 N
(8) show grestore 3606 1408 M 0 196 R D gsave 3606 880 translate 0 0 M
-117.687 0 N
(9) show grestore 4865 1408 M 0 196 R D gsave 4865 880 translate 0 0 M
-235.373 0 N
(10) show grestore 6125 1408 M 0 196 R D gsave 6125 880 translate 0 0 M
-235.373 0 N
(11) show grestore 2220 1408 M 0 98 R D 2472 1408 M 0 98 R D 2598 1408 M
0 98 R D 2724 1408 M 0 98 R D 2850 1408 M 0 98 R D 2976 1408 M 0 98 R D
3102 1408 M 0 98 R D 3228 1408 M 0 98 R D 3354 1408 M 0 98 R D 3480 1408 M
0 98 R D 3731 1408 M 0 98 R D 3857 1408 M 0 98 R D 3983 1408 M 0 98 R D
4109 1408 M 0 98 R D 4235 1408 M 0 98 R D 4361 1408 M 0 98 R D 4487 1408 M
0 98 R D 4613 1408 M 0 98 R D 4739 1408 M 0 98 R D 4991 1408 M 0 98 R D
5117 1408 M 0 98 R D 5243 1408 M 0 98 R D 5369 1408 M 0 98 R D 5495 1408 M
0 98 R D 5621 1408 M 0 98 R D 5747 1408 M 0 98 R D 5873 1408 M 0 98 R D
5999 1408 M 0 98 R D 6250 1408 M 0 98 R D 6376 1408 M 0 98 R D 6502 1408 M
0 98 R D 6628 1408 M 0 98 R D 6754 1408 M 0 98 R D 6880 1408 M 0 98 R D
7006 1408 M 0 98 R D 7132 1408 M 0 98 R D 7258 1408 M 0 98 R D 2220 6296 M
5038 0 R D 2346 6296 M 0 -195 R D 3606 6296 M 0 -195 R D 4865 6296 M
0 -195 R D 6125 6296 M 0 -195 R D 2220 6296 M 0 -98 R D 2472 6296 M 0 -98 R
D 2598 6296 M 0 -98 R D 2724 6296 M 0 -98 R D 2850 6296 M 0 -98 R D
2976 6296 M 0 -98 R D 3102 6296 M 0 -98 R D 3228 6296 M 0 -98 R D
3354 6296 M 0 -98 R D 3480 6296 M 0 -98 R D 3731 6296 M 0 -98 R D
3857 6296 M 0 -98 R D 3983 6296 M 0 -98 R D 4109 6296 M 0 -98 R D
4235 6296 M 0 -98 R D 4361 6296 M 0 -98 R D 4487 6296 M 0 -98 R D
4613 6296 M 0 -98 R D 4739 6296 M 0 -98 R D 4991 6296 M 0 -98 R D
5117 6296 M 0 -98 R D 5243 6296 M 0 -98 R D 5369 6296 M 0 -98 R D
5495 6296 M 0 -98 R D 5621 6296 M 0 -98 R D 5747 6296 M 0 -98 R D
5873 6296 M 0 -98 R D 5999 6296 M 0 -98 R D 6250 6296 M 0 -98 R D
6376 6296 M 0 -98 R D 6502 6296 M 0 -98 R D 6628 6296 M 0 -98 R D
6754 6296 M 0 -98 R D 6880 6296 M 0 -98 R D 7006 6296 M 0 -98 R D
7132 6296 M 0 -98 R D 7258 6296 M 0 -98 R D 2220 1408 M 0 4888 R D
2220 2368 M 202 0 R D gsave 2109 2227 translate 0 0 M -704.08 0 N
(10) show X 192.937 M
%%IncludeResource: font Helvetica
262.467 /Helvetica STDFONT
(-4) show grestore
%%IncludeResource: font Helvetica
423.333 /Helvetica STDFONT 2220 3497 M 202 0 R D
gsave 2109 3357 translate 0 0 M -704.08 0 N
(10) show X 192.937 M
%%IncludeResource: font Helvetica
262.467 /Helvetica STDFONT
(-2) show grestore
%%IncludeResource: font Helvetica
423.333 /Helvetica STDFONT 2220 4627 M 202 0 R D
gsave 2109 4486 translate 0 0 M -616.678 0 N
(10) show X 192.937 M
%%IncludeResource: font Helvetica
262.467 /Helvetica STDFONT
(0) show grestore
%%IncludeResource: font Helvetica
423.333 /Helvetica STDFONT 2220 5757 M 202 0 R D
gsave 2109 5616 translate 0 0 M -616.678 0 N
(10) show X 192.937 M
%%IncludeResource: font Helvetica
262.467 /Helvetica STDFONT
(2) show grestore
%%IncludeResource: font Helvetica
423.333 /Helvetica STDFONT 2220 1803 M 101 0 R D 2220 2933 M 101 0 R D
2220 4062 M 101 0 R D 2220 5192 M 101 0 R D 7258 1408 M 0 4888 R D
7258 2368 M -201 0 R D 7258 3497 M -201 0 R D 7258 4627 M -201 0 R D
7258 5757 M -201 0 R D 7258 1803 M -101 0 R D 7258 2933 M -101 0 R D
7258 4062 M -101 0 R D 7258 5192 M -101 0 R D L1 2220 5564 M 126 -66 R
252 -127 R 252 -120 R 252 -107 R 252 -86 R 252 -64 R 251 -47 R 252 -43 R
252 -53 R 252 -77 R 252 -116 R 252 -177 R 252 -275 R 252 -429 R 252 -675 R
252 -1064 R D L0 2296 5486 M 100 0 R -50 0 R 0 23 R -50 0 R 100 0 R D
2548 5363 M 100 0 R -50 0 R 0 17 R -50 0 R 100 0 R D 2799 5244 M 101 0 R
-50 0 R 0 18 R -51 0 R 101 0 R D 3051 5134 M 101 0 R -50 0 R 0 26 R -51 0 R
101 0 R D 3303 5040 M 101 0 R -50 0 R 0 40 R -51 0 R 101 0 R D 3555 4970 M
101 0 R -50 0 R 0 48 R -51 0 R 101 0 R D 3807 4923 M 101 0 R -51 0 R 0 44 R
-50 0 R 101 0 R D 4059 4888 M 101 0 R -51 0 R 0 24 R -50 0 R 101 0 R D
4311 4849 M 101 0 R -51 0 R 0 -6 R -50 0 R 101 0 R D 4563 4792 M 101 0 R
-51 0 R 0 -46 R -50 0 R 101 0 R D 4815 4701 M 100 0 R -50 0 R 0 -98 R
-50 0 R 100 0 R D 5067 4557 M 100 0 R -50 0 R 0 -168 R -50 0 R 100 0 R D
5318 4328 M 101 0 R -50 0 R 0 -266 R -51 0 R 101 0 R D 5570 3966 M 101 0 R
-50 0 R 0 -410 R -51 0 R 101 0 R D 5822 3393 M 101 0 R -50 0 R 0 -627 R
-51 0 R 101 0 R D 6074 2484 M 101 0 R -50 0 R 0 -960 R -51 0 R 101 0 R D
2220 5459 M 124 -5 R 277 13 R 278 -43 R 277 -10 R 277 -53 R 278 13 R
277 25 R 277 -12 R 277 -136 R 278 -224 R 277 -291 R 277 -66 R 278 -1117 R
277 436 R 277 -1260 R 278 -193 R D 2294 5331 M 100 0 R -50 0 R 0 247 R
-50 0 R 100 0 R D 2571 5374 M 101 0 R -51 0 R 0 187 R -50 0 R 101 0 R D
2848 5348 M 101 0 R -50 0 R 0 152 R -51 0 R 101 0 R D 3126 5335 M 100 0 R
-50 0 R 0 157 R -50 0 R 100 0 R D 3403 5307 M 101 0 R -51 0 R 0 108 R
-50 0 R 101 0 R D 3680 5320 M 101 0 R -50 0 R 0 108 R -51 0 R 101 0 R D
3957 5356 M 101 0 R -50 0 R 0 86 R -51 0 R 101 0 R D 4235 5347 M 101 0 R
-51 0 R 0 80 R -50 0 R 101 0 R D 4512 5166 M 101 0 R -51 0 R 0 171 R -50 0 R
101 0 R D 4789 4939 M 101 0 R -50 0 R 0 176 R -51 0 R 101 0 R D 5067 4602 M
100 0 R -50 0 R 0 269 R -50 0 R 100 0 R D 5344 4540 M 101 0 R -51 0 R
0 259 R -50 0 R 101 0 R D 5621 2374 M 101 0 R -50 0 R 0 2357 R -51 0 R
101 0 R D 5899 3028 M 100 0 R -50 0 R 0 1922 R -50 0 R 100 0 R D 6176 1901 M
101 0 R -51 0 R 0 1656 R -50 0 R 101 0 R D 6453 1868 M 101 0 R -50 0 R
0 1335 R -51 0 R 101 0 R D 7258 1408 M 5038 0 R D 7384 1408 M 0 196 R D
gsave 7384 880 translate 0 0 M -117.687 0 N
(8) show grestore 8644 1408 M 0 196 R D gsave 8644 880 translate 0 0 M
-117.687 0 N
(9) show grestore 9903 1408 M 0 196 R D gsave 9903 880 translate 0 0 M
-235.373 0 N
(10) show grestore 11163 1408 M 0 196 R D gsave 11163 880 translate 0 0 M
-235.373 0 N
(11) show grestore 7258 1408 M 0 98 R D 7510 1408 M 0 98 R D 7636 1408 M
0 98 R D 7762 1408 M 0 98 R D 7888 1408 M 0 98 R D 8014 1408 M 0 98 R D
8140 1408 M 0 98 R D 8266 1408 M 0 98 R D 8392 1408 M 0 98 R D 8518 1408 M
0 98 R D 8769 1408 M 0 98 R D 8895 1408 M 0 98 R D 9021 1408 M 0 98 R D
9147 1408 M 0 98 R D 9273 1408 M 0 98 R D 9399 1408 M 0 98 R D 9525 1408 M
0 98 R D 9651 1408 M 0 98 R D 9777 1408 M 0 98 R D 10029 1408 M 0 98 R D
10155 1408 M 0 98 R D 10281 1408 M 0 98 R D 10407 1408 M 0 98 R D
10533 1408 M 0 98 R D 10659 1408 M 0 98 R D 10785 1408 M 0 98 R D
10911 1408 M 0 98 R D 11037 1408 M 0 98 R D 11288 1408 M 0 98 R D
11414 1408 M 0 98 R D 11540 1408 M 0 98 R D 11666 1408 M 0 98 R D
11792 1408 M 0 98 R D 11918 1408 M 0 98 R D 12044 1408 M 0 98 R D
12170 1408 M 0 98 R D 12296 1408 M 0 98 R D 7258 6296 M 5038 0 R D
7384 6296 M 0 -195 R D 8644 6296 M 0 -195 R D 9903 6296 M 0 -195 R D
11163 6296 M 0 -195 R D 7258 6296 M 0 -98 R D 7510 6296 M 0 -98 R D
7636 6296 M 0 -98 R D 7762 6296 M 0 -98 R D 7888 6296 M 0 -98 R D
8014 6296 M 0 -98 R D 8140 6296 M 0 -98 R D 8266 6296 M 0 -98 R D
8392 6296 M 0 -98 R D 8518 6296 M 0 -98 R D 8769 6296 M 0 -98 R D
8895 6296 M 0 -98 R D 9021 6296 M 0 -98 R D 9147 6296 M 0 -98 R D
9273 6296 M 0 -98 R D 9399 6296 M 0 -98 R D 9525 6296 M 0 -98 R D
9651 6296 M 0 -98 R D 9777 6296 M 0 -98 R D 10029 6296 M 0 -98 R D
10155 6296 M 0 -98 R D 10281 6296 M 0 -98 R D 10407 6296 M 0 -98 R D
10533 6296 M 0 -98 R D 10659 6296 M 0 -98 R D 10785 6296 M 0 -98 R D
10911 6296 M 0 -98 R D 11037 6296 M 0 -98 R D 11288 6296 M 0 -98 R D
11414 6296 M 0 -98 R D 11540 6296 M 0 -98 R D 11666 6296 M 0 -98 R D
11792 6296 M 0 -98 R D 11918 6296 M 0 -98 R D 12044 6296 M 0 -98 R D
12170 6296 M 0 -98 R D 12296 6296 M 0 -98 R D 7258 1408 M 0 4888 R D
7258 2368 M 202 0 R D gsave 7147 2227 translate 0 0 M -117.687 0 N
( ) show grestore 7258 3497 M 202 0 R D gsave 7147 3357 translate 0 0 M
-117.687 0 N
( ) show grestore 7258 4627 M 202 0 R D gsave 7147 4486 translate 0 0 M
-117.687 0 N
( ) show grestore 7258 5757 M 202 0 R D gsave 7147 5616 translate 0 0 M
-117.687 0 N
( ) show grestore 7258 1803 M 101 0 R D 7258 2933 M 101 0 R D 7258 4062 M
101 0 R D 7258 5192 M 101 0 R D 12296 1408 M 0 4888 R D 12296 2368 M
-201 0 R D 12296 3497 M -201 0 R D 12296 4627 M -201 0 R D 12296 5757 M
-201 0 R D 12296 1803 M -101 0 R D 12296 2933 M -101 0 R D 12296 4062 M
-101 0 R D 12296 5192 M -101 0 R D L1 1.000 0.000 0.000 setrgbcolor
7258 5449 M 126 -60 R 252 -123 R 252 -124 R 252 -118 R 252 -102 R 252 -69 R
251 -37 R 252 -22 R 252 -33 R 252 -65 R 252 -120 R 252 -207 R 252 -343 R
252 -562 R 252 -906 R 199 -1150 R D L0 7334 5369 M 100 0 R -50 0 R 0 33 R
-50 0 R 100 0 R D 7586 5257 M 100 0 R -50 0 R 0 12 R -50 0 R 100 0 R D
7837 5143 M 101 0 R -50 0 R 0 -4 R -51 0 R 101 0 R D 8089 5029 M 101 0 R
-50 0 R 0 -8 R -51 0 R 101 0 R D 8341 4923 M 101 0 R -50 0 R 0 5 R -51 0 R
101 0 R D 8593 4842 M 101 0 R -50 0 R 0 26 R -51 0 R 101 0 R D 8845 4797 M
101 0 R -51 0 R 0 38 R -50 0 R 101 0 R D 9097 4779 M 101 0 R -51 0 R 0 25 R
-50 0 R 101 0 R D 9349 4761 M 101 0 R -51 0 R 0 -7 R -50 0 R 101 0 R D
9601 4716 M 101 0 R -51 0 R 0 -51 R -50 0 R 101 0 R D 9853 4625 M 100 0 R
-50 0 R 0 -110 R -50 0 R 100 0 R D 10105 4457 M 100 0 R -50 0 R 0 -191 R
-50 0 R 100 0 R D 10356 4168 M 101 0 R -50 0 R 0 -307 R -51 0 R 101 0 R D
10608 3688 M 101 0 R -50 0 R 0 -480 R -51 0 R 101 0 R D 10860 2905 M 101 0 R
-50 0 R 0 -742 R -51 0 R 101 0 R D 11112 1641 M 101 0 R -50 0 R 0 -233 R D
7258 5445 M 124 -2 R 277 20 R 278 -41 R 277 -9 R 277 -52 R 278 13 R 277 25 R
277 -12 R 277 -136 R 278 -224 R 277 -291 R 277 -66 R 278 -1117 R 277 436 R
277 -1260 R 278 -193 R D 7332 5311 M 100 0 R -50 0 R 0 264 R -50 0 R 100 0 R
D 7609 5367 M 101 0 R -51 0 R 0 192 R -50 0 R 101 0 R D 7886 5346 M 101 0 R
-50 0 R 0 152 R -51 0 R 101 0 R D 8164 5334 M 100 0 R -50 0 R 0 158 R
-50 0 R 100 0 R D 8441 5307 M 101 0 R -51 0 R 0 108 R -50 0 R 101 0 R D
8718 5320 M 101 0 R -50 0 R 0 108 R -51 0 R 101 0 R D 8995 5356 M 101 0 R
-50 0 R 0 86 R -51 0 R 101 0 R D 9273 5347 M 101 0 R -51 0 R 0 80 R -50 0 R
101 0 R D 9550 5166 M 101 0 R -51 0 R 0 171 R -50 0 R 101 0 R D 9827 4939 M
101 0 R -50 0 R 0 176 R -51 0 R 101 0 R D 10105 4602 M 100 0 R -50 0 R
0 269 R -50 0 R 100 0 R D 10382 4540 M 101 0 R -51 0 R 0 259 R -50 0 R
101 0 R D 10659 2374 M 101 0 R -50 0 R 0 2357 R -51 0 R 101 0 R D
10937 3028 M 100 0 R -50 0 R 0 1922 R -50 0 R 100 0 R D 11214 1901 M 101 0 R
-51 0 R 0 1656 R -50 0 R 101 0 R D 11491 1868 M 101 0 R -50 0 R 0 1335 R
-51 0 R 101 0 R D 0.000 0.000 0.000 setrgbcolor 12296 1408 M 5038 0 R D
12422 1408 M 0 196 R D gsave 12422 880 translate 0 0 M -117.687 0 N
(8) show grestore 13682 1408 M 0 196 R D gsave 13682 880 translate 0 0 M
-117.687 0 N
(9) show grestore 14941 1408 M 0 196 R D gsave 14941 880 translate 0 0 M
-235.373 0 N
(10) show grestore 16201 1408 M 0 196 R D gsave 16201 880 translate 0 0 M
-235.373 0 N
(11) show grestore 12296 1408 M 0 98 R D 12548 1408 M 0 98 R D 12674 1408 M
0 98 R D 12800 1408 M 0 98 R D 12926 1408 M 0 98 R D 13052 1408 M 0 98 R D
13178 1408 M 0 98 R D 13304 1408 M 0 98 R D 13430 1408 M 0 98 R D
13556 1408 M 0 98 R D 13807 1408 M 0 98 R D 13933 1408 M 0 98 R D
14059 1408 M 0 98 R D 14185 1408 M 0 98 R D 14311 1408 M 0 98 R D
14437 1408 M 0 98 R D 14563 1408 M 0 98 R D 14689 1408 M 0 98 R D
14815 1408 M 0 98 R D 15067 1408 M 0 98 R D 15193 1408 M 0 98 R D
15319 1408 M 0 98 R D 15445 1408 M 0 98 R D 15571 1408 M 0 98 R D
15697 1408 M 0 98 R D 15823 1408 M 0 98 R D 15949 1408 M 0 98 R D
16075 1408 M 0 98 R D 16326 1408 M 0 98 R D 16452 1408 M 0 98 R D
16578 1408 M 0 98 R D 16704 1408 M 0 98 R D 16830 1408 M 0 98 R D
16956 1408 M 0 98 R D 17082 1408 M 0 98 R D 17208 1408 M 0 98 R D
17334 1408 M 0 98 R D 12296 6296 M 5038 0 R D 12422 6296 M 0 -195 R D
13682 6296 M 0 -195 R D 14941 6296 M 0 -195 R D 16201 6296 M 0 -195 R D
12296 6296 M 0 -98 R D 12548 6296 M 0 -98 R D 12674 6296 M 0 -98 R D
12800 6296 M 0 -98 R D 12926 6296 M 0 -98 R D 13052 6296 M 0 -98 R D
13178 6296 M 0 -98 R D 13304 6296 M 0 -98 R D 13430 6296 M 0 -98 R D
13556 6296 M 0 -98 R D 13807 6296 M 0 -98 R D 13933 6296 M 0 -98 R D
14059 6296 M 0 -98 R D 14185 6296 M 0 -98 R D 14311 6296 M 0 -98 R D
14437 6296 M 0 -98 R D 14563 6296 M 0 -98 R D 14689 6296 M 0 -98 R D
14815 6296 M 0 -98 R D 15067 6296 M 0 -98 R D 15193 6296 M 0 -98 R D
15319 6296 M 0 -98 R D 15445 6296 M 0 -98 R D 15571 6296 M 0 -98 R D
15697 6296 M 0 -98 R D 15823 6296 M 0 -98 R D 15949 6296 M 0 -98 R D
16075 6296 M 0 -98 R D 16326 6296 M 0 -98 R D 16452 6296 M 0 -98 R D
16578 6296 M 0 -98 R D 16704 6296 M 0 -98 R D 16830 6296 M 0 -98 R D
16956 6296 M 0 -98 R D 17082 6296 M 0 -98 R D 17208 6296 M 0 -98 R D
17334 6296 M 0 -98 R D 12296 1408 M 0 4888 R D 12296 2368 M 202 0 R D
gsave 12185 2227 translate 0 0 M -117.687 0 N
( ) show grestore 12296 3497 M 202 0 R D gsave 12185 3357 translate 0 0 M
-117.687 0 N
( ) show grestore 12296 4627 M 202 0 R D gsave 12185 4486 translate 0 0 M
-117.687 0 N
( ) show grestore 12296 5757 M 202 0 R D gsave 12185 5616 translate 0 0 M
-117.687 0 N
( ) show grestore 12296 1803 M 101 0 R D 12296 2933 M 101 0 R D 12296 4062 M
101 0 R D 12296 5192 M 101 0 R D 17334 1408 M 0 4888 R D 17334 2368 M
-201 0 R D 17334 3497 M -201 0 R D 17334 4627 M -201 0 R D 17334 5757 M
-201 0 R D 17334 1803 M -101 0 R D 17334 2933 M -101 0 R D 17334 4062 M
-101 0 R D 17334 5192 M -101 0 R D L1 0.000 0.000 1.000 setrgbcolor
12296 6097 M 126 -49 R 252 -99 R 252 -100 R 252 -100 R 252 -102 R 252 -103 R
251 -107 R 252 -111 R 252 -119 R 252 -131 R 252 -150 R 252 -181 R 252 -228 R
252 -305 R 252 -425 R 252 -617 R D L0 12372 6095 M 100 0 R -50 0 R 0 -104 R
-50 0 R 100 0 R D 12624 6001 M 100 0 R -50 0 R 0 -115 R -50 0 R 100 0 R D
12875 5906 M 101 0 R -50 0 R 0 -124 R -51 0 R 101 0 R D 13127 5811 M 101 0 R
-50 0 R 0 -136 R -51 0 R 101 0 R D 13379 5715 M 101 0 R -50 0 R 0 -148 R
-51 0 R 101 0 R D 13631 5618 M 101 0 R -50 0 R 0 -162 R -51 0 R 101 0 R D
13883 5520 M 101 0 R -51 0 R 0 -180 R -50 0 R 101 0 R D 14135 5418 M 101 0 R
-51 0 R 0 -202 R -50 0 R 101 0 R D 14387 5311 M 101 0 R -51 0 R 0 -231 R
-50 0 R 101 0 R D 14639 5197 M 101 0 R -51 0 R 0 -273 R -50 0 R 101 0 R D
14891 5071 M 100 0 R -50 0 R 0 -333 R -50 0 R 100 0 R D 15143 4927 M 100 0 R
-50 0 R 0 -424 R -50 0 R 100 0 R D 15394 4752 M 101 0 R -50 0 R 0 -562 R
-51 0 R 101 0 R D 15646 4531 M 101 0 R -50 0 R 0 -777 R -51 0 R 101 0 R D
15898 4234 M 101 0 R -50 0 R 0 -1111 R -51 0 R 101 0 R D 16150 3819 M
101 0 R -50 0 R 0 -1636 R -51 0 R 101 0 R D 12296 4475 M 124 -62 R
277 -456 R 278 -437 R 277 -925 R 277 144 R 278 -125 R 277 -191 R 277 -110 R
277 0 R 278 0 R 277 0 R 277 0 R 278 0 R 277 0 R 277 0 R 278 0 R D
12370 3696 M 100 0 R -50 0 R 0 1434 R -50 0 R 100 0 R D 12647 3142 M 101 0 R
-51 0 R 0 1630 R -50 0 R 101 0 R D 12924 2707 M 101 0 R -50 0 R 0 1625 R
-51 0 R 101 0 R D 13202 2048 M 100 0 R -50 0 R 0 1095 R -50 0 R 100 0 R D
13479 2739 M 101 0 R -51 0 R -50 0 R 101 0 R D 13756 2614 M 101 0 R -50 0 R
-51 0 R 101 0 R D 14033 2423 M 101 0 R -50 0 R -51 0 R 101 0 R D
14311 2313 M 101 0 R -51 0 R -50 0 R 101 0 R D 14588 2313 M 101 0 R -51 0 R
-50 0 R 101 0 R D 14865 2313 M 101 0 R -50 0 R -51 0 R 101 0 R D
15143 2313 M 100 0 R -50 0 R -50 0 R 100 0 R D 15420 2313 M 101 0 R -51 0 R
-50 0 R 101 0 R D 15697 2313 M 101 0 R -50 0 R -51 0 R 101 0 R D
15975 2313 M 100 0 R -50 0 R -50 0 R 100 0 R D 16252 2313 M 101 0 R -51 0 R
-50 0 R 101 0 R D 16529 2313 M 101 0 R -50 0 R -51 0 R 101 0 R D
%%PageTrailer
end
%%PageResources: font Helvetica
%%+ font Symbol
%%+ font AvantGarde-Book
%%Trailer
%%Pages: 1
%%DocumentNeededResources: font Helvetica
%%+ font Symbol
%%+ font AvantGarde-Book
%%EOF
