%!PS-Adobe-3.0 EPSF-3.0
%%BoundingBox: 0 0 481 226
%%Title: Graphics produced by IDL
%%For: jlgan@Hserver, /home/jlgan/work/phoenix
%%Creator: IDL Version 7.1.1 (linux x86_64 m64)
%%CreationDate: Tue Jun 10 16:36:56 2014
%%DocumentData: Clean7bit
%%Requirements: color
%%LanguageLevel: 1
%%PageOrder: Ascend
%%Pages: (atend)
%%DocumentNeededResources: (atend)
%%EndComments
%%BeginProlog
%+ prolog.ps -- Prolog for IDL generated PostScript files
%+ Copyright (c) 1988-2009 ITT Visual Information Solutions. All Rights Reserved.
%v 5
/$IDL_DICT 40 dict def $IDL_DICT begin /bdef { bind def } bind def /C
{currentpoint newpath moveto} bdef /CP {currentpoint} bdef /D {currentpoint
stroke moveto} bdef /F {closepath fill} bdef /K { setgray } bdef /M {moveto}
bdef /N {rmoveto} bdef /P {lineto} bdef /R {rlineto} bdef /S {gsave show
grestore} bdef /X {currentpoint pop} bdef /Z {gsave currentpoint lineto 20
setlinewidth 1 setlinecap stroke grestore} bdef /L0 {[] 0 setdash} bdef /L1
{[40 100] 0 setdash} bdef /L2 {[200 200] 0 setdash} bdef /L3 {[200 100 50
100] 0 setdash} bdef /L4 {[300 100 50 100 50 100 50 100] 0 setdash} bdef /L5
{[400 200] 0 setdash} bdef /STDFONT { findfont exch scalefont setfont } bdef
/ISOFONT { findfont dup length dict begin { 1 index /FID ne {def} {pop pop}
ifelse } forall /Encoding ISOLatin1Encoding def currentdict end /idltmpfont
exch definefont exch scalefont setfont } bdef /ISOBULLET { gsave /Helvetica
findfont exch scalefont setfont (\267) show currentpoint grestore moveto}
bdef /MITERLIMIT { 2.5 setmiterlimit } bdef end
%%EndProlog
%%Page: 0 1
%%PageRequirements: color
%%PageResources: (atend)
%%PageOrientation: Portrait
%%PageBoundingBox: 0 0 481 226
%%BeginPageSetup
$IDL_DICT begin 0.0283465 dup scale MITERLIMIT
%%IncludeResource: font Helvetica
423.333 /Helvetica STDFONT
%%EndPageSetup
0.000 0.000 0.000 setrgbcolor gsave 9277 352 translate 0 0 M -1652.34 0 N
(log) show X -101.051 M
%%IncludeResource: font Helvetica
262.467 /Helvetica STDFONT
(10) show X 0 M
%%IncludeResource: font Helvetica
423.333 /Helvetica STDFONT
([M) show X -101.051 M
%%IncludeResource: font Symbol
262.467 /Symbol STDFONT
(*) show X 0 M
%%IncludeResource: font Helvetica
423.333 /Helvetica STDFONT
( / \(h) show X 192.937 M
%%IncludeResource: font Helvetica
262.467 /Helvetica STDFONT
(-2) show X 0 M
%%IncludeResource: font Helvetica
423.333 /Helvetica STDFONT
(M) show CP X -101.051 M
%%IncludeResource: font AvantGarde-Book
262.467 /AvantGarde-Book STDFONT
(O) show M X -58.3193 M
%%IncludeResource: font AvantGarde-Book
186.267 /AvantGarde-Book STDFONT
( \267) show X 0 M
%%IncludeResource: font Helvetica
423.333 /Helvetica STDFONT
(\)]) show grestore gsave 888 4352 translate 0 0 M 90 rotate -2156.83 0 N
%%IncludeResource: font Symbol
423.333 /Symbol STDFONT
(f) show
%%IncludeResource: font Helvetica
423.333 /Helvetica STDFONT
(\(M) show X -101.051 M
%%IncludeResource: font Symbol
262.467 /Symbol STDFONT
(*) show X 0 M
%%IncludeResource: font Helvetica
423.333 /Helvetica STDFONT
(\) / \(h) show X 192.937 M
%%IncludeResource: font Helvetica
262.467 /Helvetica STDFONT
(3) show X 0 M
%%IncludeResource: font Helvetica
423.333 /Helvetica STDFONT
(Mpc) show X 192.937 M
%%IncludeResource: font Helvetica
262.467 /Helvetica STDFONT
(-3) show X 0 M
%%IncludeResource: font Helvetica
423.333 /Helvetica STDFONT
(lg) show X 192.937 M
%%IncludeResource: font Helvetica
262.467 /Helvetica STDFONT
(-1) show X 0 M
%%IncludeResource: font Helvetica
423.333 /Helvetica STDFONT
(M) show X -101.051 M
%%IncludeResource: font Symbol
262.467 /Symbol STDFONT
(*) show X 0 M
%%IncludeResource: font Helvetica
423.333 /Helvetica STDFONT
(\)) show grestore 30 setlinewidth L0 2220 1408 M 7057 0 R D 3887 1408 M
0 236 R D gsave 3887 880 translate 0 0 M -117.687 0 N
(9) show grestore 5572 1408 M 0 236 R D gsave 5572 880 translate 0 0 M
-235.373 0 N
(10) show grestore 7256 1408 M 0 236 R D gsave 7256 880 translate 0 0 M
-235.373 0 N
(11) show grestore 8940 1408 M 0 236 R D gsave 8940 880 translate 0 0 M
-235.373 0 N
(12) show grestore 2372 1408 M 0 118 R D 2540 1408 M 0 118 R D 2709 1408 M
0 118 R D 2877 1408 M 0 118 R D 3045 1408 M 0 118 R D 3214 1408 M 0 118 R D
3382 1408 M 0 118 R D 3551 1408 M 0 118 R D 3719 1408 M 0 118 R D
4056 1408 M 0 118 R D 4224 1408 M 0 118 R D 4393 1408 M 0 118 R D
4561 1408 M 0 118 R D 4730 1408 M 0 118 R D 4898 1408 M 0 118 R D
5066 1408 M 0 118 R D 5235 1408 M 0 118 R D 5403 1408 M 0 118 R D
5740 1408 M 0 118 R D 5909 1408 M 0 118 R D 6077 1408 M 0 118 R D
6245 1408 M 0 118 R D 6414 1408 M 0 118 R D 6582 1408 M 0 118 R D
6751 1408 M 0 118 R D 6919 1408 M 0 118 R D 7088 1408 M 0 118 R D
7424 1408 M 0 118 R D 7593 1408 M 0 118 R D 7761 1408 M 0 118 R D
7930 1408 M 0 118 R D 8098 1408 M 0 118 R D 8267 1408 M 0 118 R D
8435 1408 M 0 118 R D 8603 1408 M 0 118 R D 8772 1408 M 0 118 R D
9109 1408 M 0 118 R D 9277 1408 M 0 118 R D 2220 7296 M 7057 0 R D
3887 7296 M 0 -235 R D 5572 7296 M 0 -235 R D 7256 7296 M 0 -235 R D
8940 7296 M 0 -235 R D 2372 7296 M 0 -118 R D 2540 7296 M 0 -118 R D
2709 7296 M 0 -118 R D 2877 7296 M 0 -118 R D 3045 7296 M 0 -118 R D
3214 7296 M 0 -118 R D 3382 7296 M 0 -118 R D 3551 7296 M 0 -118 R D
3719 7296 M 0 -118 R D 4056 7296 M 0 -118 R D 4224 7296 M 0 -118 R D
4393 7296 M 0 -118 R D 4561 7296 M 0 -118 R D 4730 7296 M 0 -118 R D
4898 7296 M 0 -118 R D 5066 7296 M 0 -118 R D 5235 7296 M 0 -118 R D
5403 7296 M 0 -118 R D 5740 7296 M 0 -118 R D 5909 7296 M 0 -118 R D
6077 7296 M 0 -118 R D 6245 7296 M 0 -118 R D 6414 7296 M 0 -118 R D
6582 7296 M 0 -118 R D 6751 7296 M 0 -118 R D 6919 7296 M 0 -118 R D
7088 7296 M 0 -118 R D 7424 7296 M 0 -118 R D 7593 7296 M 0 -118 R D
7761 7296 M 0 -118 R D 7930 7296 M 0 -118 R D 8098 7296 M 0 -118 R D
8267 7296 M 0 -118 R D 8435 7296 M 0 -118 R D 8603 7296 M 0 -118 R D
8772 7296 M 0 -118 R D 9109 7296 M 0 -118 R D 9277 7296 M 0 -118 R D
2220 1408 M 0 5888 R D 2220 1622 M 282 0 R D gsave 2109 1481 translate 0 0 M
-704.08 0 N
(10) show X 192.937 M
%%IncludeResource: font Helvetica
262.467 /Helvetica STDFONT
(-8) show grestore
%%IncludeResource: font Helvetica
423.333 /Helvetica STDFONT 2220 3041 M 282 0 R D
gsave 2109 2900 translate 0 0 M -704.08 0 N
(10) show X 192.937 M
%%IncludeResource: font Helvetica
262.467 /Helvetica STDFONT
(-6) show grestore
%%IncludeResource: font Helvetica
423.333 /Helvetica STDFONT 2220 4460 M 282 0 R D
gsave 2109 4320 translate 0 0 M -704.08 0 N
(10) show X 192.937 M
%%IncludeResource: font Helvetica
262.467 /Helvetica STDFONT
(-4) show grestore
%%IncludeResource: font Helvetica
423.333 /Helvetica STDFONT 2220 5880 M 282 0 R D
gsave 2109 5739 translate 0 0 M -704.08 0 N
(10) show X 192.937 M
%%IncludeResource: font Helvetica
262.467 /Helvetica STDFONT
(-2) show grestore
%%IncludeResource: font Helvetica
423.333 /Helvetica STDFONT 2220 2331 M 141 0 R D 2220 3751 M 141 0 R D
2220 5170 M 141 0 R D 2220 6589 M 141 0 R D 9277 1408 M 0 5888 R D
9277 1622 M -282 0 R D 9277 3041 M -282 0 R D 9277 4460 M -282 0 R D
9277 5880 M -282 0 R D 9277 2331 M -141 0 R D 9277 3751 M -141 0 R D
9277 5170 M -141 0 R D 9277 6589 M -141 0 R D 2220 6394 M 94 0 R -94 0 R D
2429 6372 M 222 0 R -111 0 R 0 111 R 0 -222 R D 2766 6346 M 222 0 R -111 0 R
0 111 R 0 -222 R D 3103 6317 M 222 0 R -111 0 R 0 111 R 0 -222 R D
3440 6280 M 222 0 R -111 0 R 0 111 R 0 -222 R D 3776 6234 M 222 0 R -111 0 R
0 111 R 0 -222 R D 4113 6171 M 222 0 R -111 0 R 0 111 R 0 -222 R D
4450 6121 M 222 0 R -111 0 R 0 111 R 0 -222 R D 4787 6115 M 222 0 R -111 0 R
0 111 R 0 -222 R D 5124 6099 M 222 0 R -111 0 R 0 111 R 0 -222 R D
5461 6065 M 222 0 R -111 0 R 0 111 R 0 -222 R D 5798 6002 M 222 0 R -111 0 R
0 111 R 0 -222 R D 6134 5894 M 222 0 R -111 0 R 0 111 R 0 -222 R D
6471 5715 M 222 0 R -111 0 R 0 111 R 0 -222 R D 6808 5441 M 222 0 R -111 0 R
0 111 R 0 -222 R D 7145 5079 M 222 0 R -111 0 R 0 111 R 0 -222 R D
7482 4587 M 222 0 R -111 0 R 0 111 R 0 -222 R D 7819 3889 M 222 0 R -111 0 R
0 111 R 0 -222 R D 8156 2866 M 222 0 R -111 0 R 0 111 R 0 -222 R D
8603 1408 M 0 29 R 0 -29 R D 2220 6356 M 54 0 R -54 0 R D 2220 6429 M 54 0 R
D 2470 6336 M 141 0 R -71 0 R 0 68 R -70 0 R 141 0 R D 2806 6312 M 142 0 R
-71 0 R 0 65 R -71 0 R 142 0 R D 3143 6284 M 141 0 R -70 0 R 0 62 R -71 0 R
141 0 R D 3480 6249 M 141 0 R -70 0 R 0 60 R -71 0 R 141 0 R D 3817 6203 M
141 0 R -71 0 R 0 60 R -70 0 R 141 0 R D 4154 6138 M 141 0 R -71 0 R 0 63 R
-70 0 R 141 0 R D 4491 6087 M 141 0 R -71 0 R 0 64 R -70 0 R 141 0 R D
4827 6087 M 142 0 R -71 0 R 0 54 R -71 0 R 142 0 R D 5164 6074 M 141 0 R
-70 0 R 0 48 R -71 0 R 141 0 R D 5501 6043 M 141 0 R -70 0 R 0 42 R -71 0 R
141 0 R D 5838 5981 M 141 0 R -70 0 R 0 40 R -71 0 R 141 0 R D 6175 5874 M
141 0 R -71 0 R 0 40 R -70 0 R 141 0 R D 6512 5692 M 141 0 R -71 0 R 0 45 R
-70 0 R 141 0 R D 6849 5412 M 141 0 R -71 0 R 0 57 R -70 0 R 141 0 R D
7185 5042 M 142 0 R -71 0 R 0 71 R -71 0 R 142 0 R D 7522 4542 M 141 0 R
-70 0 R 0 84 R -71 0 R 141 0 R D 7859 3839 M 141 0 R -70 0 R 0 93 R -71 0 R
141 0 R D 8196 2752 M 141 0 R -70 0 R 0 197 R -71 0 R 141 0 R D 8603 1408 M
0 936 R -70 0 R 141 0 R D 8940 1408 M 0 923 R -70 0 R 141 0 R D
0.761 0.000 0.000 setrgbcolor 2220 6366 M 290 -64 R 384 -77 R 384 -89 R
384 -68 R 384 -39 R 384 -25 R 384 -49 R 384 -35 R 384 -169 R 384 -254 R
384 -410 R 384 -283 R 384 -287 R 384 -351 R 384 -450 R 384 -709 R D
2440 6274 M 141 0 R -71 0 R 0 56 R -70 0 R 141 0 R D 2824 6198 M 141 0 R
-71 0 R 0 54 R -70 0 R 141 0 R D 3208 6112 M 141 0 R -71 0 R 0 47 R -70 0 R
141 0 R D 3592 6031 M 141 0 R -71 0 R 0 74 R -70 0 R 141 0 R D 3976 6003 M
141 0 R -71 0 R 0 51 R -70 0 R 141 0 R D 4360 5983 M 141 0 R -71 0 R 0 41 R
-70 0 R 141 0 R D 4744 5917 M 141 0 R -71 0 R 0 76 R -70 0 R 141 0 R D
5128 5881 M 141 0 R -71 0 R 0 77 R -70 0 R 141 0 R D 5512 5699 M 141 0 R
-71 0 R 0 105 R -70 0 R 141 0 R D 5896 5447 M 141 0 R -71 0 R 0 99 R -70 0 R
141 0 R D 6279 4937 M 142 0 R -71 0 R 0 300 R -71 0 R 142 0 R D 6663 4682 M
142 0 R -71 0 R 0 244 R -71 0 R 142 0 R D 7047 4417 M 142 0 R -71 0 R
0 201 R -71 0 R 142 0 R D 7431 3984 M 142 0 R -71 0 R 0 364 R -71 0 R
142 0 R D 7815 3202 M 142 0 R -71 0 R 0 1027 R -71 0 R 142 0 R D 8199 2181 M
142 0 R -71 0 R 0 1652 R -71 0 R 142 0 R D 0.000 0.000 1.000 setrgbcolor
2220 6259 M 290 -10 R 384 -51 R 384 -43 R 384 -53 R 384 -40 R 384 -24 R
384 -8 R 384 -8 R 384 18 R 384 -135 R 384 -334 R 384 -299 R 384 -282 R
384 -204 R 384 -177 R 384 -889 R D 2440 6150 M 141 0 R -71 0 R 0 197 R
-70 0 R 141 0 R D 2824 6136 M 141 0 R -71 0 R 0 124 R -70 0 R 141 0 R D
3208 6090 M 141 0 R -71 0 R 0 129 R -70 0 R 141 0 R D 3592 6047 M 141 0 R
-71 0 R 0 110 R -70 0 R 141 0 R D 3976 6018 M 141 0 R -71 0 R 0 88 R -70 0 R
141 0 R D 4360 5979 M 141 0 R -71 0 R 0 118 R -70 0 R 141 0 R D 4744 5973 M
141 0 R -71 0 R 0 114 R -70 0 R 141 0 R D 5128 5965 M 141 0 R -71 0 R
0 113 R -70 0 R 141 0 R D 5512 5975 M 141 0 R -71 0 R 0 131 R -70 0 R
141 0 R D 5896 5846 M 141 0 R -71 0 R 0 119 R -70 0 R 141 0 R D 6279 5470 M
142 0 R -71 0 R 0 203 R -71 0 R 142 0 R D 6663 5157 M 142 0 R -71 0 R
0 229 R -71 0 R 142 0 R D 7047 4787 M 142 0 R -71 0 R 0 406 R -71 0 R
142 0 R D 7431 4594 M 142 0 R -71 0 R 0 384 R -71 0 R 142 0 R D 7815 4393 M
142 0 R -71 0 R 0 433 R -71 0 R 142 0 R D 8199 2537 M 142 0 R -71 0 R
0 2366 R -71 0 R 142 0 R D 0.000 0.000 0.000 setrgbcolor 3168 3763 M 222 0 R
-111 0 R 0 111 R 0 -222 R D 3168 3763 M 222 0 R -111 0 R 0 111 R 0 -222 R D
gsave 3984 3608 translate 0 0 M
(Li2009) show grestore 0.761 0.000 0.000 setrgbcolor 2926 3174 M 106 0 R
105 0 R 106 0 R 106 0 R 106 0 R 106 0 R 106 0 R 106 0 R 105 0 R D
0.000 0.000 1.000 setrgbcolor 2926 2586 M 106 0 R 105 0 R 106 0 R 106 0 R
106 0 R 106 0 R 106 0 R 106 0 R 105 0 R D 0.761 0.000 0.000 setrgbcolor
gsave 3984 3019 translate 0 0 M
(Ph2) show grestore 0.000 0.000 1.000 setrgbcolor
gsave 3984 2430 translate 0 0 M
(Ph4) show grestore 0.000 0.000 0.000 setrgbcolor
gsave 2926 1761 translate 0 0 M
(whole cluster) show grestore 9277 1408 M 7057 0 R D 10944 1408 M 0 236 R D
gsave 10944 880 translate 0 0 M -117.687 0 N
(9) show grestore 12629 1408 M 0 236 R D gsave 12629 880 translate 0 0 M
-235.373 0 N
(10) show grestore 14313 1408 M 0 236 R D gsave 14313 880 translate 0 0 M
-235.373 0 N
(11) show grestore 15997 1408 M 0 236 R D gsave 15997 880 translate 0 0 M
-235.373 0 N
(12) show grestore 9429 1408 M 0 118 R D 9597 1408 M 0 118 R D 9766 1408 M
0 118 R D 9934 1408 M 0 118 R D 10102 1408 M 0 118 R D 10271 1408 M 0 118 R
D 10439 1408 M 0 118 R D 10608 1408 M 0 118 R D 10776 1408 M 0 118 R D
11113 1408 M 0 118 R D 11281 1408 M 0 118 R D 11450 1408 M 0 118 R D
11618 1408 M 0 118 R D 11787 1408 M 0 118 R D 11955 1408 M 0 118 R D
12123 1408 M 0 118 R D 12292 1408 M 0 118 R D 12460 1408 M 0 118 R D
12797 1408 M 0 118 R D 12966 1408 M 0 118 R D 13134 1408 M 0 118 R D
13302 1408 M 0 118 R D 13471 1408 M 0 118 R D 13639 1408 M 0 118 R D
13808 1408 M 0 118 R D 13976 1408 M 0 118 R D 14145 1408 M 0 118 R D
14481 1408 M 0 118 R D 14650 1408 M 0 118 R D 14818 1408 M 0 118 R D
14987 1408 M 0 118 R D 15155 1408 M 0 118 R D 15324 1408 M 0 118 R D
15492 1408 M 0 118 R D 15660 1408 M 0 118 R D 15829 1408 M 0 118 R D
16166 1408 M 0 118 R D 16334 1408 M 0 118 R D 9277 7296 M 7057 0 R D
10944 7296 M 0 -235 R D 12629 7296 M 0 -235 R D 14313 7296 M 0 -235 R D
15997 7296 M 0 -235 R D 9429 7296 M 0 -118 R D 9597 7296 M 0 -118 R D
9766 7296 M 0 -118 R D 9934 7296 M 0 -118 R D 10102 7296 M 0 -118 R D
10271 7296 M 0 -118 R D 10439 7296 M 0 -118 R D 10608 7296 M 0 -118 R D
10776 7296 M 0 -118 R D 11113 7296 M 0 -118 R D 11281 7296 M 0 -118 R D
11450 7296 M 0 -118 R D 11618 7296 M 0 -118 R D 11787 7296 M 0 -118 R D
11955 7296 M 0 -118 R D 12123 7296 M 0 -118 R D 12292 7296 M 0 -118 R D
12460 7296 M 0 -118 R D 12797 7296 M 0 -118 R D 12966 7296 M 0 -118 R D
13134 7296 M 0 -118 R D 13302 7296 M 0 -118 R D 13471 7296 M 0 -118 R D
13639 7296 M 0 -118 R D 13808 7296 M 0 -118 R D 13976 7296 M 0 -118 R D
14145 7296 M 0 -118 R D 14481 7296 M 0 -118 R D 14650 7296 M 0 -118 R D
14818 7296 M 0 -118 R D 14987 7296 M 0 -118 R D 15155 7296 M 0 -118 R D
15324 7296 M 0 -118 R D 15492 7296 M 0 -118 R D 15660 7296 M 0 -118 R D
15829 7296 M 0 -118 R D 16166 7296 M 0 -118 R D 16334 7296 M 0 -118 R D
9277 1408 M 0 5888 R D 9277 1622 M 282 0 R D gsave 9166 1481 translate 0 0 M
-117.687 0 N
( ) show grestore 9277 3041 M 282 0 R D gsave 9166 2900 translate 0 0 M
-117.687 0 N
( ) show grestore 9277 4460 M 282 0 R D gsave 9166 4320 translate 0 0 M
-117.687 0 N
( ) show grestore 9277 5880 M 282 0 R D gsave 9166 5739 translate 0 0 M
-117.687 0 N
( ) show grestore 9277 2331 M 141 0 R D 9277 3751 M 141 0 R D 9277 5170 M
141 0 R D 9277 6589 M 141 0 R D 16334 1408 M 0 5888 R D 16334 1622 M
-282 0 R D 16334 3041 M -282 0 R D 16334 4460 M -282 0 R D 16334 5880 M
-282 0 R D 16334 2331 M -141 0 R D 16334 3751 M -141 0 R D 16334 5170 M
-141 0 R D 16334 6589 M -141 0 R D 11659 5802 M 222 0 R -111 0 R 0 111 R
0 -222 R 0 111 R 111 111 R -222 -222 R 111 111 R -111 111 R 222 -222 R D
11906 5814 M 222 0 R -111 0 R 0 111 R 0 -222 R 0 111 R 111 111 R -222 -222 R
111 111 R -111 111 R 222 -222 R D 12153 5819 M 222 0 R -111 0 R 0 111 R
0 -222 R 0 111 R 111 111 R -222 -222 R 111 111 R -111 111 R 222 -222 R D
12400 5812 M 222 0 R -111 0 R 0 111 R 0 -222 R 0 111 R 111 111 R -222 -222 R
111 111 R -111 111 R 222 -222 R D 12647 5791 M 222 0 R -111 0 R 0 111 R
0 -222 R 0 111 R 111 111 R -222 -222 R 111 111 R -111 111 R 222 -222 R D
12894 5748 M 222 0 R -111 0 R 0 111 R 0 -222 R 0 111 R 111 111 R -222 -222 R
111 111 R -111 111 R 222 -222 R D 13141 5675 M 222 0 R -111 0 R 0 111 R
0 -222 R 0 111 R 111 111 R -222 -222 R 111 111 R -111 111 R 222 -222 R D
13388 5561 M 222 0 R -111 0 R 0 111 R 0 -222 R 0 111 R 111 111 R -222 -222 R
111 111 R -111 111 R 222 -222 R D 13635 5388 M 222 0 R -111 0 R 0 111 R
0 -222 R 0 111 R 111 111 R -222 -222 R 111 111 R -111 111 R 222 -222 R D
13882 5134 M 222 0 R -111 0 R 0 111 R 0 -222 R 0 111 R 111 111 R -222 -222 R
111 111 R -111 111 R 222 -222 R D 14129 4764 M 222 0 R -111 0 R 0 111 R
0 -222 R 0 111 R 111 111 R -222 -222 R 111 111 R -111 111 R 222 -222 R D
14376 4234 M 222 0 R -111 0 R 0 111 R 0 -222 R 0 111 R 111 111 R -222 -222 R
111 111 R -111 111 R 222 -222 R D 14623 3478 M 222 0 R -111 0 R 0 111 R
0 -222 R 0 111 R 111 111 R -222 -222 R 111 111 R -111 111 R 222 -222 R D
14870 2405 M 222 0 R -111 0 R 0 111 R 0 -222 R 0 111 R 111 111 R -222 -222 R
111 111 R -111 111 R 222 -222 R D 11700 5713 M 141 0 R -71 0 R 0 182 R
-70 0 R 141 0 R D 11947 5732 M 141 0 R -71 0 R 0 167 R -70 0 R 141 0 R D
12194 5742 M 141 0 R -71 0 R 0 155 R -70 0 R 141 0 R D 12441 5740 M 141 0 R
-71 0 R 0 146 R -70 0 R 141 0 R D 12688 5719 M 141 0 R -71 0 R 0 143 R
-70 0 R 141 0 R D 12935 5674 M 141 0 R -71 0 R 0 146 R -70 0 R 141 0 R D
13182 5594 M 141 0 R -71 0 R 0 158 R -70 0 R 141 0 R D 13429 5464 M 141 0 R
-71 0 R 0 185 R -70 0 R 141 0 R D 13676 5266 M 141 0 R -71 0 R 0 230 R
-70 0 R 141 0 R D 13923 4972 M 141 0 R -71 0 R 0 302 R -70 0 R 141 0 R D
14170 4543 M 141 0 R -71 0 R 0 411 R -70 0 R 141 0 R D 14417 3925 M 141 0 R
-71 0 R 0 571 R -70 0 R 141 0 R D 14664 3042 M 141 0 R -71 0 R 0 805 R
-70 0 R 141 0 R D 14911 1787 M 141 0 R -71 0 R 0 1142 R -70 0 R 141 0 R D
15228 1408 M 0 225 R -70 0 R 141 0 R D 0.761 0.000 0.000 setrgbcolor
9277 6588 M 290 -62 R 384 -71 R 384 -88 R 384 -57 R 384 -20 R 384 -34 R
384 -9 R 384 -75 R 384 -206 R 384 -318 R 384 -349 R 384 -335 R 384 -491 R
384 -975 R 384 -1266 R 324 -824 R D 9497 6494 M 141 0 R -71 0 R 0 65 R
-70 0 R 141 0 R D 9881 6419 M 141 0 R -71 0 R 0 72 R -70 0 R 141 0 R D
10265 6342 M 141 0 R -71 0 R 0 49 R -70 0 R 141 0 R D 10649 6274 M 141 0 R
-71 0 R 0 71 R -70 0 R 141 0 R D 11033 6268 M 141 0 R -71 0 R 0 45 R -70 0 R
141 0 R D 11417 6235 M 141 0 R -71 0 R 0 42 R -70 0 R 141 0 R D 11801 6212 M
141 0 R -71 0 R 0 69 R -70 0 R 141 0 R D 12185 6124 M 141 0 R -71 0 R 0 96 R
-70 0 R 141 0 R D 12569 5878 M 141 0 R -71 0 R 0 176 R -70 0 R 141 0 R D
12953 5545 M 141 0 R -71 0 R 0 207 R -70 0 R 141 0 R D 13336 5176 M 142 0 R
-71 0 R 0 245 R -71 0 R 142 0 R D 13720 4747 M 142 0 R -71 0 R 0 434 R
-71 0 R 142 0 R D 14104 4107 M 142 0 R -71 0 R 0 732 R -71 0 R 142 0 R D
14488 2999 M 142 0 R -71 0 R 0 998 R -71 0 R 142 0 R D 14943 1408 M 0 1859 R
-71 0 R 142 0 R D 15327 1408 M 0 2613 R -71 0 R 142 0 R D
0.000 0.000 1.000 setrgbcolor 9277 6223 M 290 -5 R 384 3 R 384 -30 R
384 -54 R 384 -9 R 384 -33 R 384 10 R 384 42 R 384 12 R 384 -176 R
384 -307 R 384 -264 R 384 -323 R 384 -470 R 384 -685 R 288 -2526 R D
9497 6036 M 141 0 R -71 0 R 0 365 R -70 0 R 141 0 R D 9881 6093 M 141 0 R
-71 0 R 0 256 R -70 0 R 141 0 R D 10265 6074 M 141 0 R -71 0 R 0 233 R
-70 0 R 141 0 R D 10649 6024 M 141 0 R -71 0 R 0 227 R -70 0 R 141 0 R D
11033 6016 M 141 0 R -71 0 R 0 223 R -70 0 R 141 0 R D 11417 6010 M 141 0 R
-71 0 R 0 170 R -70 0 R 141 0 R D 11801 6038 M 141 0 R -71 0 R 0 134 R
-70 0 R 141 0 R D 12185 6084 M 141 0 R -71 0 R 0 127 R -70 0 R 141 0 R D
12569 6114 M 141 0 R -71 0 R 0 90 R -70 0 R 141 0 R D 12953 5906 M 141 0 R
-71 0 R 0 154 R -70 0 R 141 0 R D 13336 5596 M 142 0 R -71 0 R 0 160 R
-71 0 R 142 0 R D 13720 5282 M 142 0 R -71 0 R 0 260 R -71 0 R 142 0 R D
14104 4887 M 142 0 R -71 0 R 0 404 R -71 0 R 142 0 R D 14488 3879 M 142 0 R
-71 0 R 0 1480 R -71 0 R 142 0 R D 14872 2395 M 142 0 R -71 0 R 0 3079 R
-71 0 R 142 0 R D 15327 1408 M 0 1456 R -71 0 R 142 0 R D
0.000 0.000 0.000 setrgbcolor 10225 3763 M 222 0 R -111 0 R 0 111 R 0 -222 R
0 111 R 111 111 R -222 -222 R 111 111 R -111 111 R 222 -222 R D 10225 3763 M
222 0 R -111 0 R 0 111 R 0 -222 R 0 111 R 111 111 R -222 -222 R 111 111 R
-111 111 R 222 -222 R D gsave 11041 3608 translate 0 0 M
(Vulcani2011) show grestore 0.761 0.000 0.000 setrgbcolor 9983 3174 M
106 0 R 105 0 R 106 0 R 106 0 R 106 0 R 106 0 R 106 0 R 106 0 R 105 0 R D
0.000 0.000 1.000 setrgbcolor 9983 2586 M 106 0 R 105 0 R 106 0 R 106 0 R
106 0 R 106 0 R 106 0 R 106 0 R 105 0 R D 0.761 0.000 0.000 setrgbcolor
gsave 11041 3019 translate 0 0 M
(Ph2) show grestore 0.000 0.000 1.000 setrgbcolor
gsave 11041 2430 translate 0 0 M
(Ph4) show grestore 0.000 0.000 0.000 setrgbcolor
gsave 9983 1761 translate 0 0 M
(within R) show X -101.051 M
%%IncludeResource: font Helvetica
262.467 /Helvetica STDFONT
(200) show grestore
%%IncludeResource: font Helvetica
423.333 /Helvetica STDFONT
%%PageTrailer
end
%%PageResources: font Helvetica
%%+ font Symbol
%%+ font AvantGarde-Book
%%Trailer
%%Pages: 1
%%DocumentNeededResources: font Helvetica
%%+ font Symbol
%%+ font AvantGarde-Book
%%EOF
