%!PS-Adobe-3.0 EPSF-3.0
%%BoundingBox: 0 0 481 226
%%Title: Graphics produced by IDL
%%For: jlgan@Hserver, /home/jlgan/work/phoenix
%%Creator: IDL Version 7.1.1 (linux x86_64 m64)
%%CreationDate: Sat Jul  5 01:48:33 2014
%%DocumentData: Clean7bit
%%Requirements: color
%%LanguageLevel: 1
%%PageOrder: Ascend
%%Pages: (atend)
%%DocumentNeededResources: (atend)
%%EndComments
%%BeginProlog
%+ prolog.ps -- Prolog for IDL generated PostScript files
%+ Copyright (c) 1988-2009 ITT Visual Information Solutions. All Rights Reserved.
%v 5
/$IDL_DICT 40 dict def $IDL_DICT begin /bdef { bind def } bind def /C
{currentpoint newpath moveto} bdef /CP {currentpoint} bdef /D {currentpoint
stroke moveto} bdef /F {closepath fill} bdef /K { setgray } bdef /M {moveto}
bdef /N {rmoveto} bdef /P {lineto} bdef /R {rlineto} bdef /S {gsave show
grestore} bdef /X {currentpoint pop} bdef /Z {gsave currentpoint lineto 20
setlinewidth 1 setlinecap stroke grestore} bdef /L0 {[] 0 setdash} bdef /L1
{[40 100] 0 setdash} bdef /L2 {[200 200] 0 setdash} bdef /L3 {[200 100 50
100] 0 setdash} bdef /L4 {[300 100 50 100 50 100 50 100] 0 setdash} bdef /L5
{[400 200] 0 setdash} bdef /STDFONT { findfont exch scalefont setfont } bdef
/ISOFONT { findfont dup length dict begin { 1 index /FID ne {def} {pop pop}
ifelse } forall /Encoding ISOLatin1Encoding def currentdict end /idltmpfont
exch definefont exch scalefont setfont } bdef /ISOBULLET { gsave /Helvetica
findfont exch scalefont setfont (\267) show currentpoint grestore moveto}
bdef /MITERLIMIT { 2.5 setmiterlimit } bdef end
%%EndProlog
%%Page: 0 1
%%PageRequirements: color
%%PageResources: (atend)
%%PageOrientation: Portrait
%%PageBoundingBox: 0 0 481 226
%%BeginPageSetup
$IDL_DICT begin 0.0283465 dup scale MITERLIMIT
%%IncludeResource: font Helvetica
423.333 /Helvetica STDFONT
%%EndPageSetup
0.000 0.000 0.000 setrgbcolor gsave 9180 304 translate 0 0 M -1506.41 0 N
(log[M) show X -101.051 M
%%IncludeResource: font Symbol
262.467 /Symbol STDFONT
(*) show X 0 M
%%IncludeResource: font Helvetica
423.333 /Helvetica STDFONT
( / \(h) show X 192.937 M
%%IncludeResource: font Helvetica
262.467 /Helvetica STDFONT
(-2) show X 0 M
%%IncludeResource: font Helvetica
423.333 /Helvetica STDFONT
(M) show CP X -101.051 M
%%IncludeResource: font AvantGarde-Book
262.467 /AvantGarde-Book STDFONT
(O) show M X -58.3193 M
%%IncludeResource: font AvantGarde-Book
186.267 /AvantGarde-Book STDFONT
( \267) show X 0 M
%%IncludeResource: font Helvetica
423.333 /Helvetica STDFONT
(\)]) show grestore gsave 708 4328 translate 0 0 M 90 rotate -2273.04 0 N
%%IncludeResource: font Symbol
423.333 /Symbol STDFONT
(f) show
%%IncludeResource: font Helvetica
423.333 /Helvetica STDFONT
(\(M) show X -101.051 M
%%IncludeResource: font Symbol
262.467 /Symbol STDFONT
(*) show X 0 M
%%IncludeResource: font Helvetica
423.333 /Helvetica STDFONT
(\) / \(h) show X 192.937 M
%%IncludeResource: font Helvetica
262.467 /Helvetica STDFONT
(3) show X 0 M
%%IncludeResource: font Helvetica
423.333 /Helvetica STDFONT
(Mpc) show X 192.937 M
%%IncludeResource: font Helvetica
262.467 /Helvetica STDFONT
(-3) show X 0 M
%%IncludeResource: font Helvetica
423.333 /Helvetica STDFONT
(log) show X 192.937 M
%%IncludeResource: font Helvetica
262.467 /Helvetica STDFONT
(-1) show X 0 M
%%IncludeResource: font Helvetica
423.333 /Helvetica STDFONT
(M) show X -101.051 M
%%IncludeResource: font Symbol
262.467 /Symbol STDFONT
(*) show X 0 M
%%IncludeResource: font Helvetica
423.333 /Helvetica STDFONT
(\)) show grestore 30 setlinewidth L0 2040 1360 M 6460 0 R D 2686 1360 M
0 237 R D gsave 2686 832 translate 0 0 M -411.903 0 N
(10.0) show grestore 4301 1360 M 0 237 R D gsave 4301 832 translate 0 0 M
-411.903 0 N
(10.5) show grestore 5916 1360 M 0 237 R D gsave 5916 832 translate 0 0 M
-411.903 0 N
(11.0) show grestore 7531 1360 M 0 237 R D gsave 7531 832 translate 0 0 M
-411.903 0 N
(11.5) show grestore 2040 1360 M 0 119 R D 2363 1360 M 0 119 R D 3009 1360 M
0 119 R D 3332 1360 M 0 119 R D 3655 1360 M 0 119 R D 3978 1360 M 0 119 R D
4624 1360 M 0 119 R D 4947 1360 M 0 119 R D 5270 1360 M 0 119 R D
5593 1360 M 0 119 R D 6239 1360 M 0 119 R D 6562 1360 M 0 119 R D
6885 1360 M 0 119 R D 7208 1360 M 0 119 R D 7854 1360 M 0 119 R D
8177 1360 M 0 119 R D 8500 1360 M 0 119 R D 2040 7296 M 6460 0 R D
2686 7296 M 0 -237 R D 4301 7296 M 0 -237 R D 5916 7296 M 0 -237 R D
7531 7296 M 0 -237 R D 2040 7296 M 0 -119 R D 2363 7296 M 0 -119 R D
3009 7296 M 0 -119 R D 3332 7296 M 0 -119 R D 3655 7296 M 0 -119 R D
3978 7296 M 0 -119 R D 4624 7296 M 0 -119 R D 4947 7296 M 0 -119 R D
5270 7296 M 0 -119 R D 5593 7296 M 0 -119 R D 6239 7296 M 0 -119 R D
6562 7296 M 0 -119 R D 6885 7296 M 0 -119 R D 7208 7296 M 0 -119 R D
7854 7296 M 0 -119 R D 8177 7296 M 0 -119 R D 8500 7296 M 0 -119 R D
2040 1360 M 0 5936 R D 2040 2621 M 258 0 R D gsave 1929 2480 translate 0 0 M
-704.08 0 N
(10) show X 192.937 M
%%IncludeResource: font Helvetica
262.467 /Helvetica STDFONT
(-4) show grestore
%%IncludeResource: font Helvetica
423.333 /Helvetica STDFONT 2040 4105 M 258 0 R D
gsave 1929 3964 translate 0 0 M -704.08 0 N
(10) show X 192.937 M
%%IncludeResource: font Helvetica
262.467 /Helvetica STDFONT
(-2) show grestore
%%IncludeResource: font Helvetica
423.333 /Helvetica STDFONT 2040 5589 M 258 0 R D
gsave 1929 5448 translate 0 0 M -616.678 0 N
(10) show X 192.937 M
%%IncludeResource: font Helvetica
262.467 /Helvetica STDFONT
(0) show grestore
%%IncludeResource: font Helvetica
423.333 /Helvetica STDFONT 2040 7073 M 258 0 R D
gsave 1929 6932 translate 0 0 M -616.678 0 N
(10) show X 192.937 M
%%IncludeResource: font Helvetica
262.467 /Helvetica STDFONT
(2) show grestore
%%IncludeResource: font Helvetica
423.333 /Helvetica STDFONT 2040 1879 M 129 0 R D 2040 3363 M 129 0 R D
2040 4847 M 129 0 R D 2040 6331 M 129 0 R D 8500 1360 M 0 5936 R D
8500 2621 M -258 0 R D 8500 4105 M -258 0 R D 8500 5589 M -258 0 R D
8500 7073 M -258 0 R D 8500 1879 M -129 0 R D 8500 3363 M -129 0 R D
8500 4847 M -129 0 R D 8500 6331 M -129 0 R D 40 setlinewidth L1 2331 6545 M
404 -41 R 404 -54 R 404 -73 R 403 -98 R 404 -131 R 404 -175 R 404 -234 R
403 -313 R 404 -417 R 404 -556 R 404 -742 R 403 -991 R D 30 setlinewidth L0
2267 6453 M 129 0 R -65 0 R 0 185 R -64 0 R 129 0 R D 2670 6415 M 130 0 R
-65 0 R 0 179 R -65 0 R 130 0 R D 3074 6360 M 129 0 R -64 0 R 0 179 R
-65 0 R 129 0 R D 3478 6283 M 129 0 R -64 0 R 0 185 R -65 0 R 129 0 R D
3882 6177 M 129 0 R -65 0 R 0 198 R -64 0 R 129 0 R D 4286 6032 M 129 0 R
-65 0 R 0 223 R -64 0 R 129 0 R D 4689 5835 M 129 0 R -64 0 R 0 261 R
-65 0 R 129 0 R D 5093 5570 M 129 0 R -64 0 R 0 318 R -65 0 R 129 0 R D
5497 5212 M 129 0 R -65 0 R 0 401 R -64 0 R 129 0 R D 5901 4731 M 129 0 R
-65 0 R 0 518 R -64 0 R 129 0 R D 6304 4086 M 129 0 R -64 0 R 0 681 R
-65 0 R 129 0 R D 6708 3223 M 129 0 R -64 0 R 0 903 R -65 0 R 129 0 R D
7112 2069 M 129 0 R -65 0 R 0 1205 R -64 0 R 129 0 R D
0.761 0.000 0.000 setrgbcolor 2039 6545 M 249 -58 R 574 -223 R 575 -230 R
574 -223 R 574 -806 R 575 -1464 R 574 -381 R 574 -925 R 365 -875 R D
2223 6434 M 130 0 R -65 0 R 0 106 R -65 0 R 130 0 R D 2798 6115 M 129 0 R
-65 0 R 0 298 R -64 0 R 129 0 R D 3372 5845 M 129 0 R -64 0 R 0 378 R
-65 0 R 129 0 R D 3946 5743 M 130 0 R -65 0 R 0 137 R -65 0 R 130 0 R D
4521 3799 M 129 0 R -65 0 R 0 2411 R -64 0 R 129 0 R D 5095 2092 M 129 0 R
-64 0 R 0 2897 R -65 0 R 129 0 R D 5670 1569 M 129 0 R -65 0 R 0 3182 R
-64 0 R 129 0 R D 6308 1360 M 0 2563 R -64 0 R 129 0 R D 6883 1360 M
0 1155 R -65 0 R 129 0 R D 7457 1360 M 0 2898 R -64 0 R 129 0 R D
0.000 0.000 1.000 setrgbcolor 2039 6577 M 249 19 R 574 -50 R 575 -168 R
574 -306 R 574 -198 R 575 -238 R 574 -808 R 574 -736 R 575 -956 R
453 -1776 R D 2223 6549 M 130 0 R -65 0 R 0 94 R -65 0 R 130 0 R D
2798 6466 M 129 0 R -65 0 R 0 159 R -64 0 R 129 0 R D 3372 6275 M 129 0 R
-64 0 R 0 206 R -65 0 R 129 0 R D 3946 5897 M 130 0 R -65 0 R 0 349 R
-65 0 R 130 0 R D 4521 5677 M 129 0 R -65 0 R 0 395 R -64 0 R 129 0 R D
5095 5407 M 129 0 R -64 0 R 0 458 R -65 0 R 129 0 R D 5670 3275 M 129 0 R
-65 0 R 0 3105 R -64 0 R 129 0 R D 6244 2060 M 129 0 R -65 0 R 0 4065 R
-64 0 R 129 0 R D 6883 1360 M 0 4466 R -65 0 R 129 0 R D 7457 1360 M
0 2842 R -64 0 R 129 0 R D 1.000 0.000 0.706 setrgbcolor 2039 6512 M
249 40 R 574 -83 R 575 -223 R 574 -112 R 574 -447 R 575 -354 R 574 0 R
574 -3949 R 12 -24 R D 0.000 0.000 0.000 setrgbcolor
gsave 5270 7440 translate 0 0 M -1265.8 0 N
(within 0.6R) show X -101.051 M
%%IncludeResource: font Helvetica
262.467 /Helvetica STDFONT
(200) show grestore
%%IncludeResource: font Helvetica
423.333 /Helvetica STDFONT 0.761 0.000 0.000 setrgbcolor 2428 3022 M 77 0 R
78 0 R 77 0 R 78 0 R 77 0 R 78 0 R 77 0 R 78 0 R 77 0 R D
0.000 0.000 1.000 setrgbcolor 2428 2488 M 77 0 R 78 0 R 77 0 R 78 0 R 77 0 R
78 0 R 77 0 R 78 0 R 77 0 R D L1 0.000 0.000 0.000 setrgbcolor 2428 1954 M
77 0 R 78 0 R 77 0 R 78 0 R 77 0 R 78 0 R 77 0 R 78 0 R 77 0 R D
0.761 0.000 0.000 setrgbcolor gsave 3203 2865 translate 0 0 M
(Ph2) show grestore 0.000 0.000 1.000 setrgbcolor
gsave 3203 2331 translate 0 0 M
(Ph4) show grestore 0.000 0.000 0.000 setrgbcolor
gsave 3203 1797 translate 0 0 M
(WINGS,Vulcani2014) show grestore L0 9860 1360 M 6460 0 R D 10014 1360 M
0 237 R D gsave 10014 832 translate 0 0 M -117.687 0 N
(8) show grestore 11552 1360 M 0 237 R D gsave 11552 832 translate 0 0 M
-117.687 0 N
(9) show grestore 13090 1360 M 0 237 R D gsave 13090 832 translate 0 0 M
-235.373 0 N
(10) show grestore 14628 1360 M 0 237 R D gsave 14628 832 translate 0 0 M
-235.373 0 N
(11) show grestore 16166 1360 M 0 237 R D gsave 16166 832 translate 0 0 M
-235.373 0 N
(12) show grestore 9860 1360 M 0 119 R D 10168 1360 M 0 119 R D 10322 1360 M
0 119 R D 10475 1360 M 0 119 R D 10629 1360 M 0 119 R D 10783 1360 M 0 119 R
D 10937 1360 M 0 119 R D 11091 1360 M 0 119 R D 11244 1360 M 0 119 R D
11398 1360 M 0 119 R D 11706 1360 M 0 119 R D 11860 1360 M 0 119 R D
12013 1360 M 0 119 R D 12167 1360 M 0 119 R D 12321 1360 M 0 119 R D
12475 1360 M 0 119 R D 12629 1360 M 0 119 R D 12783 1360 M 0 119 R D
12936 1360 M 0 119 R D 13244 1360 M 0 119 R D 13398 1360 M 0 119 R D
13552 1360 M 0 119 R D 13705 1360 M 0 119 R D 13859 1360 M 0 119 R D
14013 1360 M 0 119 R D 14167 1360 M 0 119 R D 14321 1360 M 0 119 R D
14474 1360 M 0 119 R D 14782 1360 M 0 119 R D 14936 1360 M 0 119 R D
15090 1360 M 0 119 R D 15243 1360 M 0 119 R D 15397 1360 M 0 119 R D
15551 1360 M 0 119 R D 15705 1360 M 0 119 R D 15859 1360 M 0 119 R D
16013 1360 M 0 119 R D 16320 1360 M 0 119 R D 9860 7296 M 6460 0 R D
10014 7296 M 0 -237 R D 11552 7296 M 0 -237 R D 13090 7296 M 0 -237 R D
14628 7296 M 0 -237 R D 16166 7296 M 0 -237 R D 9860 7296 M 0 -119 R D
10168 7296 M 0 -119 R D 10322 7296 M 0 -119 R D 10475 7296 M 0 -119 R D
10629 7296 M 0 -119 R D 10783 7296 M 0 -119 R D 10937 7296 M 0 -119 R D
11091 7296 M 0 -119 R D 11244 7296 M 0 -119 R D 11398 7296 M 0 -119 R D
11706 7296 M 0 -119 R D 11860 7296 M 0 -119 R D 12013 7296 M 0 -119 R D
12167 7296 M 0 -119 R D 12321 7296 M 0 -119 R D 12475 7296 M 0 -119 R D
12629 7296 M 0 -119 R D 12783 7296 M 0 -119 R D 12936 7296 M 0 -119 R D
13244 7296 M 0 -119 R D 13398 7296 M 0 -119 R D 13552 7296 M 0 -119 R D
13705 7296 M 0 -119 R D 13859 7296 M 0 -119 R D 14013 7296 M 0 -119 R D
14167 7296 M 0 -119 R D 14321 7296 M 0 -119 R D 14474 7296 M 0 -119 R D
14782 7296 M 0 -119 R D 14936 7296 M 0 -119 R D 15090 7296 M 0 -119 R D
15243 7296 M 0 -119 R D 15397 7296 M 0 -119 R D 15551 7296 M 0 -119 R D
15705 7296 M 0 -119 R D 15859 7296 M 0 -119 R D 16013 7296 M 0 -119 R D
16320 7296 M 0 -119 R D 9860 1360 M 0 5936 R D 9860 1879 M 258 0 R D
gsave 9749 1738 translate 0 0 M -704.08 0 N
(10) show X 192.937 M
%%IncludeResource: font Helvetica
262.467 /Helvetica STDFONT
(-8) show grestore
%%IncludeResource: font Helvetica
423.333 /Helvetica STDFONT 9860 3363 M 258 0 R D
gsave 9749 3222 translate 0 0 M -704.08 0 N
(10) show X 192.937 M
%%IncludeResource: font Helvetica
262.467 /Helvetica STDFONT
(-6) show grestore
%%IncludeResource: font Helvetica
423.333 /Helvetica STDFONT 9860 4847 M 258 0 R D
gsave 9749 4706 translate 0 0 M -704.08 0 N
(10) show X 192.937 M
%%IncludeResource: font Helvetica
262.467 /Helvetica STDFONT
(-4) show grestore
%%IncludeResource: font Helvetica
423.333 /Helvetica STDFONT 9860 6331 M 258 0 R D
gsave 9749 6190 translate 0 0 M -704.08 0 N
(10) show X 192.937 M
%%IncludeResource: font Helvetica
262.467 /Helvetica STDFONT
(-2) show grestore
%%IncludeResource: font Helvetica
423.333 /Helvetica STDFONT 9860 2621 M 129 0 R D 9860 4105 M 129 0 R D
9860 5589 M 129 0 R D 9860 7073 M 129 0 R D 16320 1360 M 0 5936 R D
16320 1879 M -258 0 R D 16320 3363 M -258 0 R D 16320 4847 M -258 0 R D
16320 6331 M -258 0 R D 16320 2621 M -129 0 R D 16320 4105 M -129 0 R D
16320 5589 M -129 0 R D 16320 7073 M -129 0 R D 40 setlinewidth L1
10014 6869 M 308 -24 R 307 -27 R 308 -31 R 307 -37 R 308 -49 R 308 -65 R
307 -54 R 308 -5 R 308 -17 R 307 -36 R 308 -66 R 307 -112 R 308 -187 R
308 -287 R 307 -379 R 308 -514 R 307 -729 R 308 -1070 R 308 -1610 R
26 -210 R D 30 setlinewidth L0 9949 6828 M 129 0 R -64 0 R 0 77 R -65 0 R
129 0 R D 10257 6807 M 129 0 R -64 0 R 0 71 R -65 0 R 129 0 R D 10565 6783 M
129 0 R -65 0 R 0 67 R -64 0 R 129 0 R D 10872 6754 M 129 0 R -64 0 R 0 64 R
-65 0 R 129 0 R D 11180 6717 M 129 0 R -65 0 R 0 62 R -64 0 R 129 0 R D
11487 6668 M 130 0 R -65 0 R 0 63 R -65 0 R 130 0 R D 11795 6601 M 129 0 R
-64 0 R 0 66 R -65 0 R 129 0 R D 12103 6547 M 129 0 R -65 0 R 0 67 R -64 0 R
129 0 R D 12410 6547 M 129 0 R -64 0 R 0 57 R -65 0 R 129 0 R D 12718 6534 M
129 0 R -64 0 R 0 50 R -65 0 R 129 0 R D 13026 6501 M 129 0 R -65 0 R 0 44 R
-64 0 R 129 0 R D 13333 6437 M 129 0 R -64 0 R 0 42 R -65 0 R 129 0 R D
13641 6324 M 129 0 R -65 0 R 0 42 R -64 0 R 129 0 R D 13948 6134 M 130 0 R
-65 0 R 0 47 R -65 0 R 130 0 R D 14256 5841 M 129 0 R -64 0 R 0 60 R -65 0 R
129 0 R D 14564 5454 M 129 0 R -65 0 R 0 74 R -64 0 R 129 0 R D 14871 4932 M
129 0 R -64 0 R 0 88 R -65 0 R 129 0 R D 15179 4197 M 129 0 R -65 0 R 0 98 R
-64 0 R 129 0 R D 15487 3061 M 129 0 R -65 0 R 0 205 R -64 0 R 129 0 R D
15859 1360 M 0 1274 R -65 0 R 129 0 R D 16166 1360 M 0 1261 R -64 0 R
129 0 R D 0.761 0.000 0.000 setrgbcolor 9944 6941 M 337 -89 R 337 -77 R
338 -90 R 337 -64 R 338 -50 R 337 -28 R 338 -44 R 337 -26 R 337 -116 R
338 -243 R 337 -358 R 338 -347 R 337 -278 R 338 -266 R 337 -362 R 337 101 R
338 8 R 337 -239 R D 9879 6880 M 129 0 R -64 0 R 0 112 R -65 0 R 129 0 R D
10216 6794 M 130 0 R -65 0 R 0 107 R -65 0 R 130 0 R D 10554 6722 M 129 0 R
-65 0 R 0 98 R -64 0 R 129 0 R D 10891 6636 M 129 0 R -64 0 R 0 92 R -65 0 R
129 0 R D 11229 6539 M 129 0 R -65 0 R 0 147 R -64 0 R 129 0 R D
11566 6501 M 129 0 R -64 0 R 0 128 R -65 0 R 129 0 R D 11904 6484 M 129 0 R
-65 0 R 0 108 R -64 0 R 129 0 R D 12241 6429 M 129 0 R -64 0 R 0 127 R
-65 0 R 129 0 R D 12578 6411 M 130 0 R -65 0 R 0 115 R -65 0 R 130 0 R D
12916 6280 M 129 0 R -65 0 R 0 139 R -64 0 R 129 0 R D 13253 6063 M 129 0 R
-64 0 R 0 96 R -65 0 R 129 0 R D 13591 5681 M 129 0 R -65 0 R 0 136 R
-64 0 R 129 0 R D 13928 5215 M 129 0 R -64 0 R 0 315 R -65 0 R 129 0 R D
14266 4787 M 129 0 R -65 0 R 0 507 R -64 0 R 129 0 R D 14603 2643 M 129 0 R
-64 0 R 0 2445 R -65 0 R 129 0 R D 14940 1360 M 130 0 R -65 0 R 0 3393 R
-65 0 R 130 0 R D 15278 1360 M 129 0 R -65 0 R 0 3520 R -64 0 R 129 0 R D
15615 3350 M 129 0 R -64 0 R 0 1482 R -65 0 R 129 0 R D 15953 1360 M 129 0 R
-65 0 R 0 3366 R -64 0 R 129 0 R D 0.000 0.000 1.000 setrgbcolor 9944 6890 M
337 -32 R 337 -56 R 338 -47 R 337 -56 R 338 -49 R 337 -14 R 338 -13 R
337 -18 R 337 27 R 338 -81 R 337 -234 R 338 -388 R 337 -221 R 338 -302 R
337 -96 R 337 -195 R 338 -300 R 337 -371 R D 9879 6721 M 129 0 R -64 0 R
0 279 R -65 0 R 129 0 R D 10216 6721 M 130 0 R -65 0 R 0 233 R -65 0 R
130 0 R D 10554 6701 M 129 0 R -65 0 R 0 178 R -64 0 R 129 0 R D
10891 6648 M 129 0 R -64 0 R 0 187 R -65 0 R 129 0 R D 11229 6603 M 129 0 R
-65 0 R 0 170 R -64 0 R 129 0 R D 11566 6567 M 129 0 R -64 0 R 0 149 R
-65 0 R 129 0 R D 11904 6516 M 129 0 R -65 0 R 0 208 R -64 0 R 129 0 R D
12241 6500 M 129 0 R -64 0 R 0 212 R -65 0 R 129 0 R D 12578 6486 M 130 0 R
-65 0 R 0 206 R -65 0 R 130 0 R D 12916 6518 M 129 0 R -65 0 R 0 197 R
-64 0 R 129 0 R D 13253 6444 M 129 0 R -64 0 R 0 187 R -65 0 R 129 0 R D
13591 6121 M 129 0 R -65 0 R 0 317 R -64 0 R 129 0 R D 13928 5803 M 129 0 R
-64 0 R 0 217 R -65 0 R 129 0 R D 14266 5503 M 129 0 R -65 0 R 0 329 R
-64 0 R 129 0 R D 14603 5019 M 129 0 R -64 0 R 0 557 R -65 0 R 129 0 R D
14940 5122 M 130 0 R -65 0 R 0 306 R -65 0 R 130 0 R D 15278 1360 M 129 0 R
-65 0 R 0 4014 R -64 0 R 129 0 R D 15615 1360 M 129 0 R -64 0 R 0 3718 R
-65 0 R 129 0 R D 15953 1360 M 129 0 R -65 0 R 0 3396 R -64 0 R 129 0 R D
1.000 0.000 0.706 setrgbcolor 9944 7001 M 337 -35 R 337 -59 R 338 -60 R
337 -72 R 338 -56 R 337 28 R 338 -18 R 337 -30 R 337 14 R 338 -149 R
337 -219 R 338 -464 R 337 -189 R 338 -296 R 337 -223 R 337 -2707 R
274 -1106 R D 0.000 0.000 0.000 setrgbcolor gsave 13090 7440 translate 0 0 M
-1235.07 0 N
(whole cluster) show grestore 0.761 0.000 0.000 setrgbcolor 10248 3022 M
77 0 R 78 0 R 77 0 R 78 0 R 77 0 R 78 0 R 77 0 R 78 0 R 77 0 R D
0.000 0.000 1.000 setrgbcolor 10248 2488 M 77 0 R 78 0 R 77 0 R 78 0 R
77 0 R 78 0 R 77 0 R 78 0 R 77 0 R D L1 0.000 0.000 0.000 setrgbcolor
10248 1954 M 77 0 R 78 0 R 77 0 R 78 0 R 77 0 R 78 0 R 77 0 R 78 0 R 77 0 R
D 0.761 0.000 0.000 setrgbcolor gsave 11023 2865 translate 0 0 M
(Ph2) show grestore 0.000 0.000 1.000 setrgbcolor
gsave 11023 2331 translate 0 0 M
(Ph4) show grestore 0.000 0.000 0.000 setrgbcolor
gsave 11023 1797 translate 0 0 M
(SDSS,Li2009) show grestore
%%PageTrailer
end
%%PageResources: font Helvetica
%%+ font Symbol
%%+ font AvantGarde-Book
%%Trailer
%%Pages: 1
%%DocumentNeededResources: font Helvetica
%%+ font Symbol
%%+ font AvantGarde-Book
%%EOF
