%!PS-Adobe-3.0 EPSF-3.0
%%BoundingBox: 0 0 510 311
%%Title: Graphics produced by IDL
%%For: jlgan@Hserver, /home/jlgan/work/phoenix
%%Creator: IDL Version 7.1.1 (linux x86_64 m64)
%%CreationDate: Thu Oct  2 00:27:56 2014
%%DocumentData: Clean7bit
%%Requirements: color
%%LanguageLevel: 1
%%PageOrder: Ascend
%%Pages: (atend)
%%DocumentNeededResources: (atend)
%%EndComments
%%BeginProlog
%+ prolog.ps -- Prolog for IDL generated PostScript files
%+ Copyright (c) 1988-2009 ITT Visual Information Solutions. All Rights Reserved.
%v 5
/$IDL_DICT 40 dict def $IDL_DICT begin /bdef { bind def } bind def /C
{currentpoint newpath moveto} bdef /CP {currentpoint} bdef /D {currentpoint
stroke moveto} bdef /F {closepath fill} bdef /K { setgray } bdef /M {moveto}
bdef /N {rmoveto} bdef /P {lineto} bdef /R {rlineto} bdef /S {gsave show
grestore} bdef /X {currentpoint pop} bdef /Z {gsave currentpoint lineto 20
setlinewidth 1 setlinecap stroke grestore} bdef /L0 {[] 0 setdash} bdef /L1
{[40 100] 0 setdash} bdef /L2 {[200 200] 0 setdash} bdef /L3 {[200 100 50
100] 0 setdash} bdef /L4 {[300 100 50 100 50 100 50 100] 0 setdash} bdef /L5
{[400 200] 0 setdash} bdef /STDFONT { findfont exch scalefont setfont } bdef
/ISOFONT { findfont dup length dict begin { 1 index /FID ne {def} {pop pop}
ifelse } forall /Encoding ISOLatin1Encoding def currentdict end /idltmpfont
exch definefont exch scalefont setfont } bdef /ISOBULLET { gsave /Helvetica
findfont exch scalefont setfont (\267) show currentpoint grestore moveto}
bdef /MITERLIMIT { 2.5 setmiterlimit } bdef end
%%EndProlog
%%Page: 0 1
%%PageRequirements: color
%%PageResources: (atend)
%%PageOrientation: Portrait
%%PageBoundingBox: 0 0 510 311
%%BeginPageSetup
$IDL_DICT begin 0.0283465 dup scale MITERLIMIT
%%IncludeResource: font Helvetica
423.333 /Helvetica STDFONT
%%EndPageSetup
0.000 0.000 0.000 setrgbcolor gsave 9930 352 translate 0 0 M -1506.41 0 N
(log[M) show X -101.051 M
%%IncludeResource: font Symbol
262.467 /Symbol STDFONT
(*) show X 0 M
%%IncludeResource: font Helvetica
423.333 /Helvetica STDFONT
( / \(h) show X 192.937 M
%%IncludeResource: font Helvetica
262.467 /Helvetica STDFONT
(-2) show X 0 M
%%IncludeResource: font Helvetica
423.333 /Helvetica STDFONT
(M) show CP X -101.051 M
%%IncludeResource: font AvantGarde-Book
262.467 /AvantGarde-Book STDFONT
(O) show M X -58.3193 M
%%IncludeResource: font AvantGarde-Book
186.267 /AvantGarde-Book STDFONT
( \267) show X 0 M
%%IncludeResource: font Helvetica
423.333 /Helvetica STDFONT
(\)]) show grestore gsave 888 6094 translate 0 0 M 90 rotate -2273.04 0 N
%%IncludeResource: font Symbol
423.333 /Symbol STDFONT
(f) show
%%IncludeResource: font Helvetica
423.333 /Helvetica STDFONT
(\(M) show X -101.051 M
%%IncludeResource: font Symbol
262.467 /Symbol STDFONT
(*) show X 0 M
%%IncludeResource: font Helvetica
423.333 /Helvetica STDFONT
(\) / \(h) show X 192.937 M
%%IncludeResource: font Helvetica
262.467 /Helvetica STDFONT
(3) show X 0 M
%%IncludeResource: font Helvetica
423.333 /Helvetica STDFONT
(Mpc) show X 192.937 M
%%IncludeResource: font Helvetica
262.467 /Helvetica STDFONT
(-3) show X 0 M
%%IncludeResource: font Helvetica
423.333 /Helvetica STDFONT
(log) show X 192.937 M
%%IncludeResource: font Helvetica
262.467 /Helvetica STDFONT
(-1) show X 0 M
%%IncludeResource: font Helvetica
423.333 /Helvetica STDFONT
(M) show X -101.051 M
%%IncludeResource: font Symbol
262.467 /Symbol STDFONT
(*) show X 0 M
%%IncludeResource: font Helvetica
423.333 /Helvetica STDFONT
(\)) show grestore 30 setlinewidth L0 2220 6094 M 5140 0 R D 3434 6094 M
0 141 R D gsave 3434 5566 translate 0 0 M -58.8433 0 N
( ) show grestore 4661 6094 M 0 141 R D gsave 4661 5566 translate 0 0 M
-58.8433 0 N
( ) show grestore 5888 6094 M 0 141 R D gsave 5888 5566 translate 0 0 M
-58.8433 0 N
( ) show grestore 7115 6094 M 0 141 R D gsave 7115 5566 translate 0 0 M
-58.8433 0 N
( ) show grestore 2330 6094 M 0 70 R D 2453 6094 M 0 70 R D 2576 6094 M
0 70 R D 2698 6094 M 0 70 R D 2821 6094 M 0 70 R D 2944 6094 M 0 70 R D
3066 6094 M 0 70 R D 3189 6094 M 0 70 R D 3312 6094 M 0 70 R D 3557 6094 M
0 70 R D 3680 6094 M 0 70 R D 3803 6094 M 0 70 R D 3925 6094 M 0 70 R D
4048 6094 M 0 70 R D 4171 6094 M 0 70 R D 4293 6094 M 0 70 R D 4416 6094 M
0 70 R D 4539 6094 M 0 70 R D 4784 6094 M 0 70 R D 4907 6094 M 0 70 R D
5029 6094 M 0 70 R D 5152 6094 M 0 70 R D 5275 6094 M 0 70 R D 5397 6094 M
0 70 R D 5520 6094 M 0 70 R D 5643 6094 M 0 70 R D 5765 6094 M 0 70 R D
6011 6094 M 0 70 R D 6133 6094 M 0 70 R D 6256 6094 M 0 70 R D 6379 6094 M
0 70 R D 6501 6094 M 0 70 R D 6624 6094 M 0 70 R D 6747 6094 M 0 70 R D
6869 6094 M 0 70 R D 6992 6094 M 0 70 R D 7237 6094 M 0 70 R D 7360 6094 M
0 70 R D 2220 10780 M 5140 0 R D 3434 10780 M 0 -140 R D 4661 10780 M
0 -140 R D 5888 10780 M 0 -140 R D 7115 10780 M 0 -140 R D 2330 10780 M
0 -70 R D 2453 10780 M 0 -70 R D 2576 10780 M 0 -70 R D 2698 10780 M 0 -70 R
D 2821 10780 M 0 -70 R D 2944 10780 M 0 -70 R D 3066 10780 M 0 -70 R D
3189 10780 M 0 -70 R D 3312 10780 M 0 -70 R D 3557 10780 M 0 -70 R D
3680 10780 M 0 -70 R D 3803 10780 M 0 -70 R D 3925 10780 M 0 -70 R D
4048 10780 M 0 -70 R D 4171 10780 M 0 -70 R D 4293 10780 M 0 -70 R D
4416 10780 M 0 -70 R D 4539 10780 M 0 -70 R D 4784 10780 M 0 -70 R D
4907 10780 M 0 -70 R D 5029 10780 M 0 -70 R D 5152 10780 M 0 -70 R D
5275 10780 M 0 -70 R D 5397 10780 M 0 -70 R D 5520 10780 M 0 -70 R D
5643 10780 M 0 -70 R D 5765 10780 M 0 -70 R D 6011 10780 M 0 -70 R D
6133 10780 M 0 -70 R D 6256 10780 M 0 -70 R D 6379 10780 M 0 -70 R D
6501 10780 M 0 -70 R D 6624 10780 M 0 -70 R D 6747 10780 M 0 -70 R D
6869 10780 M 0 -70 R D 6992 10780 M 0 -70 R D 7237 10780 M 0 -70 R D
7360 10780 M 0 -70 R D 2220 6094 M 0 4686 R D 2220 6613 M 154 0 R D
gsave 2109 6472 translate 0 0 M -704.08 0 N
(10) show X 192.937 M
%%IncludeResource: font Helvetica
262.467 /Helvetica STDFONT
(-8) show grestore
%%IncludeResource: font Helvetica
423.333 /Helvetica STDFONT 2220 7655 M 154 0 R D
gsave 2109 7515 translate 0 0 M -704.08 0 N
(10) show X 192.937 M
%%IncludeResource: font Helvetica
262.467 /Helvetica STDFONT
(-6) show grestore
%%IncludeResource: font Helvetica
423.333 /Helvetica STDFONT 2220 8698 M 154 0 R D
gsave 2109 8557 translate 0 0 M -704.08 0 N
(10) show X 192.937 M
%%IncludeResource: font Helvetica
262.467 /Helvetica STDFONT
(-4) show grestore
%%IncludeResource: font Helvetica
423.333 /Helvetica STDFONT 2220 9740 M 154 0 R D
gsave 2109 9599 translate 0 0 M -704.08 0 N
(10) show X 192.937 M
%%IncludeResource: font Helvetica
262.467 /Helvetica STDFONT
(-2) show grestore
%%IncludeResource: font Helvetica
423.333 /Helvetica STDFONT 2220 7134 M 77 0 R D 2220 8177 M 77 0 R D
2220 9219 M 77 0 R D 2220 10261 M 77 0 R D 7360 6094 M 0 4686 R D
7360 6613 M -154 0 R D 7360 7655 M -154 0 R D 7360 8698 M -154 0 R D
7360 9740 M -154 0 R D 7360 7134 M -77 0 R D 7360 8177 M -77 0 R D
7360 9219 M -77 0 R D 7360 10261 M -77 0 R D
gsave 7115 10261 translate 0 0 M -1047.33 0 N
(z~0.0) show grestore 0.000 0.000 1.000 setrgbcolor 2220 8896 M 233 198 R
245 298 R 246 -408 R 245 118 R 245 -219 R 246 147 R 245 -134 R 246 -76 R
245 204 R 245 51 R 246 472 R 245 204 R 245 -132 R 246 -201 R 245 -266 R
245 -361 R 246 -513 R 245 -751 R 245 -1131 R 42 -302 R D 2220 8789 M 39 0 R
-39 0 R D 2220 8984 M 39 0 R D 2402 8517 M 102 0 R -51 0 R 0 1153 R -51 0 R
102 0 R D 2647 8725 M 103 0 R -52 0 R 0 1334 R -51 0 R 103 0 R D 2892 8367 M
103 0 R -51 0 R 0 1234 R -52 0 R 103 0 R D 3138 8568 M 103 0 R -52 0 R
0 1068 R -51 0 R 103 0 R D 3383 8449 M 103 0 R -52 0 R 0 869 R -51 0 R
103 0 R D 3628 8488 M 103 0 R -51 0 R 0 1083 R -52 0 R 103 0 R D 3874 8502 M
103 0 R -52 0 R 0 787 R -51 0 R 103 0 R D 4119 8670 M 103 0 R -51 0 R
0 301 R -52 0 R 103 0 R D 4364 8518 M 103 0 R -51 0 R 0 1012 R -52 0 R
103 0 R D 4610 8469 M 103 0 R -52 0 R 0 1213 R -51 0 R 103 0 R D 4855 8980 M
103 0 R -51 0 R 0 1134 R -52 0 R 103 0 R D 5101 9751 M 102 0 R -51 0 R
-51 0 R 102 0 R D 5346 9619 M 103 0 R -52 0 R -51 0 R 103 0 R D 5591 9418 M
103 0 R -51 0 R -52 0 R 103 0 R D 5837 9152 M 102 0 R -51 0 R -51 0 R
102 0 R D 6082 8791 M 103 0 R -52 0 R -51 0 R 103 0 R D 6327 8278 M 103 0 R
-51 0 R -52 0 R 103 0 R D 6573 7527 M 102 0 R -51 0 R -51 0 R 102 0 R D
6818 6396 M 103 0 R -52 0 R -51 0 R 103 0 R D 0.761 0.000 0.000 setrgbcolor
2220 9892 M 233 -43 R 245 -39 R 246 -60 R 245 -71 R 245 -38 R 246 -84 R
245 -9 R 246 -32 R 245 -32 R 245 -3 R 246 -43 R 245 -86 R 245 -230 R
246 -249 R 245 -35 R 245 -95 R 246 -366 R 245 -625 R 245 -603 R 246 -244 R D
2220 9861 M 39 0 R -39 0 R D 2220 9929 M 39 0 R D 2402 9813 M 102 0 R
-51 0 R 0 73 R -51 0 R 102 0 R D 2647 9774 M 103 0 R -52 0 R 0 71 R -51 0 R
103 0 R D 2892 9729 M 103 0 R -51 0 R 0 42 R -52 0 R 103 0 R D 3138 9654 M
103 0 R -52 0 R 0 50 R -51 0 R 103 0 R D 3383 9613 M 103 0 R -52 0 R 0 55 R
-51 0 R 103 0 R D 3628 9525 M 103 0 R -51 0 R 0 63 R -52 0 R 103 0 R D
3874 9495 M 103 0 R -52 0 R 0 105 R -51 0 R 103 0 R D 4119 9487 M 103 0 R
-51 0 R 0 58 R -52 0 R 103 0 R D 4364 9455 M 103 0 R -51 0 R 0 57 R -52 0 R
103 0 R D 4610 9437 M 103 0 R -52 0 R 0 88 R -51 0 R 103 0 R D 4855 9393 M
103 0 R -51 0 R 0 89 R -52 0 R 103 0 R D 5101 9276 M 102 0 R -51 0 R 0 152 R
-51 0 R 102 0 R D 5346 9027 M 103 0 R -52 0 R 0 190 R -51 0 R 103 0 R D
5591 8726 M 103 0 R -51 0 R 0 293 R -52 0 R 103 0 R D 5837 8684 M 102 0 R
-51 0 R 0 309 R -51 0 R 102 0 R D 6082 8669 M 103 0 R -52 0 R 0 147 R
-51 0 R 103 0 R D 6327 8181 M 103 0 R -51 0 R 0 392 R -52 0 R 103 0 R D
6573 7299 M 102 0 R -51 0 R 0 906 R -51 0 R 102 0 R D 6869 6094 M 0 2185 R
-51 0 R 103 0 R D 7115 6094 M 0 2937 R -52 0 R 103 0 R D
0.000 0.000 0.000 setrgbcolor 7360 6094 M 5140 0 R D 8575 6094 M 0 141 R D
gsave 8575 5566 translate 0 0 M -58.8433 0 N
( ) show grestore 9801 6094 M 0 141 R D gsave 9801 5566 translate 0 0 M
-58.8433 0 N
( ) show grestore 11028 6094 M 0 141 R D gsave 11028 5566 translate 0 0 M
-58.8433 0 N
( ) show grestore 12255 6094 M 0 141 R D gsave 12255 5566 translate 0 0 M
-58.8433 0 N
( ) show grestore 7470 6094 M 0 70 R D 7593 6094 M 0 70 R D 7716 6094 M
0 70 R D 7838 6094 M 0 70 R D 7961 6094 M 0 70 R D 8084 6094 M 0 70 R D
8207 6094 M 0 70 R D 8329 6094 M 0 70 R D 8452 6094 M 0 70 R D 8697 6094 M
0 70 R D 8820 6094 M 0 70 R D 8943 6094 M 0 70 R D 9065 6094 M 0 70 R D
9188 6094 M 0 70 R D 9311 6094 M 0 70 R D 9433 6094 M 0 70 R D 9556 6094 M
0 70 R D 9679 6094 M 0 70 R D 9924 6094 M 0 70 R D 10047 6094 M 0 70 R D
10169 6094 M 0 70 R D 10292 6094 M 0 70 R D 10415 6094 M 0 70 R D
10537 6094 M 0 70 R D 10660 6094 M 0 70 R D 10783 6094 M 0 70 R D
10905 6094 M 0 70 R D 11151 6094 M 0 70 R D 11273 6094 M 0 70 R D
11396 6094 M 0 70 R D 11519 6094 M 0 70 R D 11641 6094 M 0 70 R D
11764 6094 M 0 70 R D 11887 6094 M 0 70 R D 12009 6094 M 0 70 R D
12132 6094 M 0 70 R D 12377 6094 M 0 70 R D 12500 6094 M 0 70 R D
7360 10780 M 5140 0 R D 8575 10780 M 0 -140 R D 9801 10780 M 0 -140 R D
11028 10780 M 0 -140 R D 12255 10780 M 0 -140 R D 7470 10780 M 0 -70 R D
7593 10780 M 0 -70 R D 7716 10780 M 0 -70 R D 7838 10780 M 0 -70 R D
7961 10780 M 0 -70 R D 8084 10780 M 0 -70 R D 8207 10780 M 0 -70 R D
8329 10780 M 0 -70 R D 8452 10780 M 0 -70 R D 8697 10780 M 0 -70 R D
8820 10780 M 0 -70 R D 8943 10780 M 0 -70 R D 9065 10780 M 0 -70 R D
9188 10780 M 0 -70 R D 9311 10780 M 0 -70 R D 9433 10780 M 0 -70 R D
9556 10780 M 0 -70 R D 9679 10780 M 0 -70 R D 9924 10780 M 0 -70 R D
10047 10780 M 0 -70 R D 10169 10780 M 0 -70 R D 10292 10780 M 0 -70 R D
10415 10780 M 0 -70 R D 10537 10780 M 0 -70 R D 10660 10780 M 0 -70 R D
10783 10780 M 0 -70 R D 10905 10780 M 0 -70 R D 11151 10780 M 0 -70 R D
11273 10780 M 0 -70 R D 11396 10780 M 0 -70 R D 11519 10780 M 0 -70 R D
11641 10780 M 0 -70 R D 11764 10780 M 0 -70 R D 11887 10780 M 0 -70 R D
12009 10780 M 0 -70 R D 12132 10780 M 0 -70 R D 12377 10780 M 0 -70 R D
12500 10780 M 0 -70 R D 7360 6094 M 0 4686 R D 7360 6613 M 154 0 R D
gsave 7249 6472 translate 0 0 M -117.687 0 N
( ) show grestore 7360 7655 M 154 0 R D gsave 7249 7515 translate 0 0 M
-117.687 0 N
( ) show grestore 7360 8698 M 154 0 R D gsave 7249 8557 translate 0 0 M
-117.687 0 N
( ) show grestore 7360 9740 M 154 0 R D gsave 7249 9599 translate 0 0 M
-117.687 0 N
( ) show grestore 7360 7134 M 77 0 R D 7360 8177 M 77 0 R D 7360 9219 M
77 0 R D 7360 10261 M 77 0 R D 12500 6094 M 0 4686 R D 12500 6613 M -154 0 R
D 12500 7655 M -154 0 R D 12500 8698 M -154 0 R D 12500 9740 M -154 0 R D
12500 7134 M -77 0 R D 12500 8177 M -77 0 R D 12500 9219 M -77 0 R D
12500 10261 M -77 0 R D gsave 12255 10261 translate 0 0 M -1047.33 0 N
(z~0.3) show grestore 0.000 0.000 1.000 setrgbcolor 7360 8967 M 233 202 R
245 -269 R 246 -101 R 245 366 R 246 -260 R 245 116 R 245 102 R 246 -177 R
245 15 R 245 52 R 246 692 R 245 46 R 245 -132 R 246 -201 R 245 -266 R
245 -361 R 246 -513 R 245 -751 R 245 -1131 R 42 -302 R D 7360 8846 M 39 0 R
-39 0 R D 7360 9069 M 39 0 R D 7542 8632 M 103 0 R -52 0 R 0 1075 R -51 0 R
103 0 R D 7787 8440 M 103 0 R -52 0 R 0 919 R -51 0 R 103 0 R D 8032 8661 M
103 0 R -51 0 R 0 277 R -52 0 R 103 0 R D 8278 8667 M 103 0 R -52 0 R
0 996 R -51 0 R 103 0 R D 8523 8482 M 103 0 R -51 0 R 0 847 R -52 0 R
103 0 R D 8768 8471 M 103 0 R -51 0 R 0 1099 R -52 0 R 103 0 R D 9014 8799 M
103 0 R -52 0 R 0 648 R -51 0 R 103 0 R D 9259 8814 M 103 0 R -51 0 R
0 263 R -52 0 R 103 0 R D 9505 8873 M 102 0 R -51 0 R 0 177 R -51 0 R
102 0 R D 9750 8502 M 103 0 R -52 0 R 0 1022 R -51 0 R 103 0 R D 9995 9331 M
103 0 R -51 0 R 0 748 R -52 0 R 103 0 R D 10241 9751 M 102 0 R -51 0 R
-51 0 R 102 0 R D 10486 9619 M 103 0 R -52 0 R -51 0 R 103 0 R D
10731 9418 M 103 0 R -51 0 R -52 0 R 103 0 R D 10977 9152 M 102 0 R -51 0 R
-51 0 R 102 0 R D 11222 8791 M 103 0 R -52 0 R -51 0 R 103 0 R D
11467 8278 M 103 0 R -51 0 R -52 0 R 103 0 R D 11713 7527 M 102 0 R -51 0 R
-51 0 R 102 0 R D 11958 6396 M 103 0 R -52 0 R -51 0 R 103 0 R D
0.761 0.000 0.000 setrgbcolor 7360 10049 M 233 -56 R 245 -51 R 246 -66 R
245 -55 R 246 -61 R 245 -43 R 245 -37 R 246 -32 R 245 -31 R 245 -1 R
246 -46 R 245 -150 R 245 -365 R 246 -56 R 245 -48 R 245 -196 R 246 -329 R
245 -648 R 245 -389 R 231 -1295 R D 7360 10025 M 39 0 R -39 0 R D
7360 10078 M 39 0 R D 7542 9961 M 103 0 R -52 0 R 0 64 R -51 0 R 103 0 R D
7787 9917 M 103 0 R -52 0 R 0 50 R -51 0 R 103 0 R D 8032 9842 M 103 0 R
-51 0 R 0 69 R -52 0 R 103 0 R D 8278 9793 M 103 0 R -52 0 R 0 56 R -51 0 R
103 0 R D 8523 9723 M 103 0 R -51 0 R 0 74 R -52 0 R 103 0 R D 8768 9678 M
103 0 R -51 0 R 0 78 R -52 0 R 103 0 R D 9014 9638 M 103 0 R -52 0 R 0 85 R
-51 0 R 103 0 R D 9259 9609 M 103 0 R -51 0 R 0 77 R -52 0 R 103 0 R D
9505 9575 M 102 0 R -51 0 R 0 84 R -51 0 R 102 0 R D 9750 9581 M 103 0 R
-52 0 R 0 70 R -51 0 R 103 0 R D 9995 9521 M 103 0 R -51 0 R 0 97 R -52 0 R
103 0 R D 10241 9355 M 102 0 R -51 0 R 0 129 R -51 0 R 102 0 R D
10486 8899 M 103 0 R -52 0 R 0 311 R -51 0 R 103 0 R D 10731 8803 M 103 0 R
-51 0 R 0 392 R -52 0 R 103 0 R D 10977 8803 M 102 0 R -51 0 R 0 296 R
-51 0 R 102 0 R D 11222 8714 M 103 0 R -52 0 R 0 82 R -51 0 R 103 0 R D
11467 8244 M 103 0 R -51 0 R 0 365 R -52 0 R 103 0 R D 11713 7276 M 102 0 R
-51 0 R 0 1004 R -51 0 R 102 0 R D 11958 6210 M 103 0 R -52 0 R 0 2357 R
-51 0 R 103 0 R D 12255 6094 M 0 1944 R -52 0 R 103 0 R D
0.000 0.000 0.000 setrgbcolor 12500 6094 M 5140 0 R D 13715 6094 M 0 141 R D
gsave 13715 5566 translate 0 0 M -58.8433 0 N
( ) show grestore 14941 6094 M 0 141 R D gsave 14941 5566 translate 0 0 M
-58.8433 0 N
( ) show grestore 16168 6094 M 0 141 R D gsave 16168 5566 translate 0 0 M
-58.8433 0 N
( ) show grestore 17395 6094 M 0 141 R D gsave 17395 5566 translate 0 0 M
-58.8433 0 N
( ) show grestore 12611 6094 M 0 70 R D 12733 6094 M 0 70 R D 12856 6094 M
0 70 R D 12979 6094 M 0 70 R D 13101 6094 M 0 70 R D 13224 6094 M 0 70 R D
13347 6094 M 0 70 R D 13469 6094 M 0 70 R D 13592 6094 M 0 70 R D
13837 6094 M 0 70 R D 13960 6094 M 0 70 R D 14083 6094 M 0 70 R D
14205 6094 M 0 70 R D 14328 6094 M 0 70 R D 14451 6094 M 0 70 R D
14573 6094 M 0 70 R D 14696 6094 M 0 70 R D 14819 6094 M 0 70 R D
15064 6094 M 0 70 R D 15187 6094 M 0 70 R D 15309 6094 M 0 70 R D
15432 6094 M 0 70 R D 15555 6094 M 0 70 R D 15677 6094 M 0 70 R D
15800 6094 M 0 70 R D 15923 6094 M 0 70 R D 16045 6094 M 0 70 R D
16291 6094 M 0 70 R D 16413 6094 M 0 70 R D 16536 6094 M 0 70 R D
16659 6094 M 0 70 R D 16781 6094 M 0 70 R D 16904 6094 M 0 70 R D
17027 6094 M 0 70 R D 17149 6094 M 0 70 R D 17272 6094 M 0 70 R D
17518 6094 M 0 70 R D 17640 6094 M 0 70 R D 12500 10780 M 5140 0 R D
13715 10780 M 0 -140 R D 14941 10780 M 0 -140 R D 16168 10780 M 0 -140 R D
17395 10780 M 0 -140 R D 12611 10780 M 0 -70 R D 12733 10780 M 0 -70 R D
12856 10780 M 0 -70 R D 12979 10780 M 0 -70 R D 13101 10780 M 0 -70 R D
13224 10780 M 0 -70 R D 13347 10780 M 0 -70 R D 13469 10780 M 0 -70 R D
13592 10780 M 0 -70 R D 13837 10780 M 0 -70 R D 13960 10780 M 0 -70 R D
14083 10780 M 0 -70 R D 14205 10780 M 0 -70 R D 14328 10780 M 0 -70 R D
14451 10780 M 0 -70 R D 14573 10780 M 0 -70 R D 14696 10780 M 0 -70 R D
14819 10780 M 0 -70 R D 15064 10780 M 0 -70 R D 15187 10780 M 0 -70 R D
15309 10780 M 0 -70 R D 15432 10780 M 0 -70 R D 15555 10780 M 0 -70 R D
15677 10780 M 0 -70 R D 15800 10780 M 0 -70 R D 15923 10780 M 0 -70 R D
16045 10780 M 0 -70 R D 16291 10780 M 0 -70 R D 16413 10780 M 0 -70 R D
16536 10780 M 0 -70 R D 16659 10780 M 0 -70 R D 16781 10780 M 0 -70 R D
16904 10780 M 0 -70 R D 17027 10780 M 0 -70 R D 17149 10780 M 0 -70 R D
17272 10780 M 0 -70 R D 17518 10780 M 0 -70 R D 17640 10780 M 0 -70 R D
12500 6094 M 0 4686 R D 12500 6613 M 154 0 R D
gsave 12389 6472 translate 0 0 M -117.687 0 N
( ) show grestore 12500 7655 M 154 0 R D gsave 12389 7515 translate 0 0 M
-117.687 0 N
( ) show grestore 12500 8698 M 154 0 R D gsave 12389 8557 translate 0 0 M
-117.687 0 N
( ) show grestore 12500 9740 M 154 0 R D gsave 12389 9599 translate 0 0 M
-117.687 0 N
( ) show grestore 12500 7134 M 77 0 R D 12500 8177 M 77 0 R D 12500 9219 M
77 0 R D 12500 10261 M 77 0 R D 17640 6094 M 0 4686 R D 17640 6613 M
-154 0 R D 17640 7655 M -154 0 R D 17640 8698 M -154 0 R D 17640 9740 M
-154 0 R D 17640 7134 M -77 0 R D 17640 8177 M -77 0 R D 17640 9219 M
-77 0 R D 17640 10261 M -77 0 R D gsave 17395 10261 translate 0 0 M
-1047.33 0 N
(z~1.0) show grestore 0.000 0.000 1.000 setrgbcolor 12500 9040 M 233 -199 R
246 249 R 245 104 R 245 -9 R 246 -243 R 245 -146 R 245 349 R 246 -45 R
245 801 R 245 -158 R 246 87 R 245 -79 R 245 -132 R 246 -201 R 245 -266 R
245 -361 R 246 -513 R 245 -751 R 245 -1131 R 42 -302 R D 12500 8640 M 39 0 R
-39 0 R D 12500 9462 M 39 0 R D 12682 8687 M 103 0 R -52 0 R 0 308 R -51 0 R
103 0 R D 12927 8518 M 103 0 R -51 0 R 0 1144 R -52 0 R 103 0 R D
13172 8540 M 103 0 R -51 0 R 0 1308 R -52 0 R 103 0 R D 13418 8546 M 103 0 R
-52 0 R 0 1278 R -51 0 R 103 0 R D 13663 8523 M 103 0 R -51 0 R 0 839 R
-52 0 R 103 0 R D 13909 8686 M 102 0 R -51 0 R 0 220 R -51 0 R 102 0 R D
14154 8683 M 103 0 R -52 0 R 0 923 R -51 0 R 103 0 R D 14399 8471 M 103 0 R
-51 0 R 0 1257 R -52 0 R 103 0 R D 14645 9901 M 102 0 R -51 0 R -51 0 R
102 0 R D 14890 9344 M 103 0 R -52 0 R 0 798 R -51 0 R 103 0 R D
15135 9830 M 103 0 R -51 0 R -52 0 R 103 0 R D 15381 9751 M 102 0 R -51 0 R
-51 0 R 102 0 R D 15626 9619 M 103 0 R -52 0 R -51 0 R 103 0 R D
15871 9418 M 103 0 R -51 0 R -52 0 R 103 0 R D 16117 9152 M 102 0 R -51 0 R
-51 0 R 102 0 R D 16362 8791 M 103 0 R -52 0 R -51 0 R 103 0 R D
16607 8278 M 103 0 R -51 0 R -52 0 R 103 0 R D 16853 7527 M 103 0 R -52 0 R
-51 0 R 103 0 R D 17098 6396 M 103 0 R -52 0 R -51 0 R 103 0 R D
0.761 0.000 0.000 setrgbcolor 12500 10102 M 233 -58 R 246 -58 R 245 -57 R
245 -70 R 246 -43 R 245 -50 R 245 -35 R 246 -17 R 245 14 R 245 -25 R
246 -108 R 245 -315 R 245 -226 R 246 -10 R 245 -160 R 245 -129 R 246 -289 R
245 -549 R 245 -1263 R 69 -560 R D 12500 10077 M 39 0 R -39 0 R D
12500 10135 M 39 0 R D 12682 10006 M 103 0 R -52 0 R 0 76 R -51 0 R 103 0 R
D 12927 9943 M 103 0 R -51 0 R 0 85 R -52 0 R 103 0 R D 13172 9896 M 103 0 R
-51 0 R 0 65 R -52 0 R 103 0 R D 13418 9820 M 103 0 R -52 0 R 0 79 R -51 0 R
103 0 R D 13663 9785 M 103 0 R -51 0 R 0 62 R -52 0 R 103 0 R D 13909 9723 M
102 0 R -51 0 R 0 85 R -51 0 R 102 0 R D 14154 9699 M 103 0 R -52 0 R 0 65 R
-51 0 R 103 0 R D 14399 9664 M 103 0 R -51 0 R 0 100 R -52 0 R 103 0 R D
14645 9680 M 102 0 R -51 0 R 0 97 R -51 0 R 102 0 R D 14890 9645 M 103 0 R
-52 0 R 0 115 R -51 0 R 103 0 R D 15135 9535 M 103 0 R -51 0 R 0 119 R
-52 0 R 103 0 R D 15381 9209 M 102 0 R -51 0 R 0 142 R -51 0 R 102 0 R D
15626 8916 M 103 0 R -52 0 R 0 275 R -51 0 R 103 0 R D 15871 8889 M 103 0 R
-51 0 R 0 310 R -52 0 R 103 0 R D 16117 8730 M 102 0 R -51 0 R 0 308 R
-51 0 R 102 0 R D 16362 8669 M 103 0 R -52 0 R 0 172 R -51 0 R 103 0 R D
16607 8258 M 103 0 R -51 0 R 0 416 R -52 0 R 103 0 R D 16853 7326 M 103 0 R
-52 0 R 0 1183 R -51 0 R 103 0 R D 17149 6094 M 0 1335 R -51 0 R 103 0 R D
0.000 0.000 0.000 setrgbcolor 2220 1408 M 5140 0 R D 3434 1408 M 0 141 R D
gsave 3434 880 translate 0 0 M -117.687 0 N
(9) show grestore 4661 1408 M 0 141 R D gsave 4661 880 translate 0 0 M
-235.373 0 N
(10) show grestore 5888 1408 M 0 141 R D gsave 5888 880 translate 0 0 M
-235.373 0 N
(11) show grestore 7115 1408 M 0 141 R D gsave 7115 880 translate 0 0 M
-235.373 0 N
(12) show grestore 2330 1408 M 0 70 R D 2453 1408 M 0 70 R D 2576 1408 M
0 70 R D 2698 1408 M 0 70 R D 2821 1408 M 0 70 R D 2944 1408 M 0 70 R D
3066 1408 M 0 70 R D 3189 1408 M 0 70 R D 3312 1408 M 0 70 R D 3557 1408 M
0 70 R D 3680 1408 M 0 70 R D 3803 1408 M 0 70 R D 3925 1408 M 0 70 R D
4048 1408 M 0 70 R D 4171 1408 M 0 70 R D 4293 1408 M 0 70 R D 4416 1408 M
0 70 R D 4539 1408 M 0 70 R D 4784 1408 M 0 70 R D 4907 1408 M 0 70 R D
5029 1408 M 0 70 R D 5152 1408 M 0 70 R D 5275 1408 M 0 70 R D 5397 1408 M
0 70 R D 5520 1408 M 0 70 R D 5643 1408 M 0 70 R D 5765 1408 M 0 70 R D
6011 1408 M 0 70 R D 6133 1408 M 0 70 R D 6256 1408 M 0 70 R D 6379 1408 M
0 70 R D 6501 1408 M 0 70 R D 6624 1408 M 0 70 R D 6747 1408 M 0 70 R D
6869 1408 M 0 70 R D 6992 1408 M 0 70 R D 7237 1408 M 0 70 R D 7360 1408 M
0 70 R D 2220 6094 M 5140 0 R D 3434 6094 M 0 -141 R D 4661 6094 M 0 -141 R
D 5888 6094 M 0 -141 R D 7115 6094 M 0 -141 R D 2330 6094 M 0 -70 R D
2453 6094 M 0 -70 R D 2576 6094 M 0 -70 R D 2698 6094 M 0 -70 R D
2821 6094 M 0 -70 R D 2944 6094 M 0 -70 R D 3066 6094 M 0 -70 R D
3189 6094 M 0 -70 R D 3312 6094 M 0 -70 R D 3557 6094 M 0 -70 R D
3680 6094 M 0 -70 R D 3803 6094 M 0 -70 R D 3925 6094 M 0 -70 R D
4048 6094 M 0 -70 R D 4171 6094 M 0 -70 R D 4293 6094 M 0 -70 R D
4416 6094 M 0 -70 R D 4539 6094 M 0 -70 R D 4784 6094 M 0 -70 R D
4907 6094 M 0 -70 R D 5029 6094 M 0 -70 R D 5152 6094 M 0 -70 R D
5275 6094 M 0 -70 R D 5397 6094 M 0 -70 R D 5520 6094 M 0 -70 R D
5643 6094 M 0 -70 R D 5765 6094 M 0 -70 R D 6011 6094 M 0 -70 R D
6133 6094 M 0 -70 R D 6256 6094 M 0 -70 R D 6379 6094 M 0 -70 R D
6501 6094 M 0 -70 R D 6624 6094 M 0 -70 R D 6747 6094 M 0 -70 R D
6869 6094 M 0 -70 R D 6992 6094 M 0 -70 R D 7237 6094 M 0 -70 R D
7360 6094 M 0 -70 R D 2220 1408 M 0 4686 R D 2220 1927 M 154 0 R D
gsave 2109 1786 translate 0 0 M -704.08 0 N
(10) show X 192.937 M
%%IncludeResource: font Helvetica
262.467 /Helvetica STDFONT
(-8) show grestore
%%IncludeResource: font Helvetica
423.333 /Helvetica STDFONT 2220 2969 M 154 0 R D
gsave 2109 2828 translate 0 0 M -704.08 0 N
(10) show X 192.937 M
%%IncludeResource: font Helvetica
262.467 /Helvetica STDFONT
(-6) show grestore
%%IncludeResource: font Helvetica
423.333 /Helvetica STDFONT 2220 4012 M 154 0 R D
gsave 2109 3871 translate 0 0 M -704.08 0 N
(10) show X 192.937 M
%%IncludeResource: font Helvetica
262.467 /Helvetica STDFONT
(-4) show grestore
%%IncludeResource: font Helvetica
423.333 /Helvetica STDFONT 2220 5054 M 154 0 R D
gsave 2109 4913 translate 0 0 M -704.08 0 N
(10) show X 192.937 M
%%IncludeResource: font Helvetica
262.467 /Helvetica STDFONT
(-2) show grestore
%%IncludeResource: font Helvetica
423.333 /Helvetica STDFONT 2220 2448 M 77 0 R D 2220 3490 M 77 0 R D
2220 4533 M 77 0 R D 2220 5575 M 77 0 R D 7360 1408 M 0 4686 R D 7360 1927 M
-154 0 R D 7360 2969 M -154 0 R D 7360 4012 M -154 0 R D 7360 5054 M
-154 0 R D 7360 2448 M -77 0 R D 7360 3490 M -77 0 R D 7360 4533 M -77 0 R D
7360 5575 M -77 0 R D 0.000 0.000 1.000 setrgbcolor 2220 4480 M 233 -39 R
245 13 R 246 -49 R 245 -68 R 245 -89 R 246 139 R 245 97 R 246 36 R 245 67 R
245 -116 R 246 -140 R 245 -77 R 245 397 R 246 -442 R 245 140 R 245 -244 R
246 -500 R 245 -644 R 245 -1251 R 42 -302 R D 2220 4413 M 39 0 R -39 0 R D
2220 4552 M 39 0 R D 2402 4340 M 102 0 R -51 0 R 0 203 R -51 0 R 102 0 R D
2647 4375 M 103 0 R -52 0 R 0 157 R -51 0 R 103 0 R D 2892 4312 M 103 0 R
-51 0 R 0 187 R -52 0 R 103 0 R D 3138 4181 M 103 0 R -52 0 R 0 312 R
-51 0 R 103 0 R D 3383 4116 M 103 0 R -52 0 R 0 264 R -51 0 R 103 0 R D
3628 4273 M 103 0 R -51 0 R 0 228 R -52 0 R 103 0 R D 3874 4366 M 103 0 R
-52 0 R 0 236 R -51 0 R 103 0 R D 4119 4451 M 103 0 R -51 0 R 0 138 R
-52 0 R 103 0 R D 4364 4498 M 103 0 R -51 0 R 0 179 R -52 0 R 103 0 R D
4610 4354 M 103 0 R -52 0 R 0 234 R -51 0 R 103 0 R D 4855 4180 M 103 0 R
-51 0 R 0 301 R -52 0 R 103 0 R D 5101 3914 M 102 0 R -51 0 R 0 679 R
-51 0 R 102 0 R D 5346 4226 M 103 0 R -52 0 R 0 851 R -51 0 R 103 0 R D
5591 3811 M 103 0 R -51 0 R 0 796 R -52 0 R 103 0 R D 5837 4115 M 102 0 R
-51 0 R 0 467 R -51 0 R 102 0 R D 6082 4105 M 103 0 R -52 0 R -51 0 R
103 0 R D 6327 3567 M 103 0 R -51 0 R 0 77 R -52 0 R 103 0 R D 6573 2601 M
102 0 R -51 0 R 0 719 R -51 0 R 102 0 R D 6818 1710 M 103 0 R -52 0 R
-51 0 R 103 0 R D 0.761 0.000 0.000 setrgbcolor 2220 5473 M 233 -55 R
245 -50 R 246 -57 R 245 -51 R 245 -54 R 246 -31 R 245 -19 R 246 -14 R
245 -18 R 245 -48 R 246 -83 R 245 -157 R 245 -273 R 246 -297 R 245 -74 R
245 -163 R 246 -361 R 245 -482 R 245 -1222 R 203 -556 R D 2220 5438 M 39 0 R
-39 0 R D 2220 5515 M 39 0 R D 2402 5375 M 102 0 R -51 0 R 0 86 R -51 0 R
102 0 R D 2647 5325 M 103 0 R -52 0 R 0 86 R -51 0 R 103 0 R D 2892 5276 M
103 0 R -51 0 R 0 69 R -52 0 R 103 0 R D 3138 5218 M 103 0 R -52 0 R 0 85 R
-51 0 R 103 0 R D 3383 5159 M 103 0 R -52 0 R 0 94 R -51 0 R 103 0 R D
3628 5121 M 103 0 R -51 0 R 0 108 R -52 0 R 103 0 R D 3874 5118 M 103 0 R
-52 0 R 0 75 R -51 0 R 103 0 R D 4119 5101 M 103 0 R -51 0 R 0 82 R -52 0 R
103 0 R D 4364 5087 M 103 0 R -51 0 R 0 74 R -52 0 R 103 0 R D 4610 5027 M
103 0 R -52 0 R 0 98 R -51 0 R 103 0 R D 4855 4932 M 103 0 R -51 0 R 0 122 R
-52 0 R 103 0 R D 5101 4770 M 102 0 R -51 0 R 0 132 R -51 0 R 102 0 R D
5346 4480 M 103 0 R -52 0 R 0 165 R -51 0 R 103 0 R D 5591 4097 M 103 0 R
-51 0 R 0 338 R -52 0 R 103 0 R D 5837 4023 M 102 0 R -51 0 R 0 338 R
-51 0 R 102 0 R D 6082 3945 M 103 0 R -52 0 R 0 169 R -51 0 R 103 0 R D
6327 3511 M 103 0 R -51 0 R 0 313 R -52 0 R 103 0 R D 6573 2660 M 102 0 R
-51 0 R 0 1051 R -51 0 R 102 0 R D 6869 1408 M 0 1317 R -51 0 R 103 0 R D
7115 1408 M 0 1856 R -52 0 R 103 0 R D 0.000 0.000 0.000 setrgbcolor
7360 1408 M 5140 0 R D 8575 1408 M 0 141 R D gsave 8575 880 translate 0 0 M
-117.687 0 N
(9) show grestore 9801 1408 M 0 141 R D gsave 9801 880 translate 0 0 M
-235.373 0 N
(10) show grestore 11028 1408 M 0 141 R D gsave 11028 880 translate 0 0 M
-235.373 0 N
(11) show grestore 12255 1408 M 0 141 R D gsave 12255 880 translate 0 0 M
-235.373 0 N
(12) show grestore 7470 1408 M 0 70 R D 7593 1408 M 0 70 R D 7716 1408 M
0 70 R D 7838 1408 M 0 70 R D 7961 1408 M 0 70 R D 8084 1408 M 0 70 R D
8207 1408 M 0 70 R D 8329 1408 M 0 70 R D 8452 1408 M 0 70 R D 8697 1408 M
0 70 R D 8820 1408 M 0 70 R D 8943 1408 M 0 70 R D 9065 1408 M 0 70 R D
9188 1408 M 0 70 R D 9311 1408 M 0 70 R D 9433 1408 M 0 70 R D 9556 1408 M
0 70 R D 9679 1408 M 0 70 R D 9924 1408 M 0 70 R D 10047 1408 M 0 70 R D
10169 1408 M 0 70 R D 10292 1408 M 0 70 R D 10415 1408 M 0 70 R D
10537 1408 M 0 70 R D 10660 1408 M 0 70 R D 10783 1408 M 0 70 R D
10905 1408 M 0 70 R D 11151 1408 M 0 70 R D 11273 1408 M 0 70 R D
11396 1408 M 0 70 R D 11519 1408 M 0 70 R D 11641 1408 M 0 70 R D
11764 1408 M 0 70 R D 11887 1408 M 0 70 R D 12009 1408 M 0 70 R D
12132 1408 M 0 70 R D 12377 1408 M 0 70 R D 12500 1408 M 0 70 R D
7360 6094 M 5140 0 R D 8575 6094 M 0 -141 R D 9801 6094 M 0 -141 R D
11028 6094 M 0 -141 R D 12255 6094 M 0 -141 R D 7470 6094 M 0 -70 R D
7593 6094 M 0 -70 R D 7716 6094 M 0 -70 R D 7838 6094 M 0 -70 R D
7961 6094 M 0 -70 R D 8084 6094 M 0 -70 R D 8207 6094 M 0 -70 R D
8329 6094 M 0 -70 R D 8452 6094 M 0 -70 R D 8697 6094 M 0 -70 R D
8820 6094 M 0 -70 R D 8943 6094 M 0 -70 R D 9065 6094 M 0 -70 R D
9188 6094 M 0 -70 R D 9311 6094 M 0 -70 R D 9433 6094 M 0 -70 R D
9556 6094 M 0 -70 R D 9679 6094 M 0 -70 R D 9924 6094 M 0 -70 R D
10047 6094 M 0 -70 R D 10169 6094 M 0 -70 R D 10292 6094 M 0 -70 R D
10415 6094 M 0 -70 R D 10537 6094 M 0 -70 R D 10660 6094 M 0 -70 R D
10783 6094 M 0 -70 R D 10905 6094 M 0 -70 R D 11151 6094 M 0 -70 R D
11273 6094 M 0 -70 R D 11396 6094 M 0 -70 R D 11519 6094 M 0 -70 R D
11641 6094 M 0 -70 R D 11764 6094 M 0 -70 R D 11887 6094 M 0 -70 R D
12009 6094 M 0 -70 R D 12132 6094 M 0 -70 R D 12377 6094 M 0 -70 R D
12500 6094 M 0 -70 R D 7360 1408 M 0 4686 R D 7360 1927 M 154 0 R D
gsave 7249 1786 translate 0 0 M -117.687 0 N
( ) show grestore 7360 2969 M 154 0 R D gsave 7249 2828 translate 0 0 M
-117.687 0 N
( ) show grestore 7360 4012 M 154 0 R D gsave 7249 3871 translate 0 0 M
-117.687 0 N
( ) show grestore 7360 5054 M 154 0 R D gsave 7249 4913 translate 0 0 M
-117.687 0 N
( ) show grestore 7360 2448 M 77 0 R D 7360 3490 M 77 0 R D 7360 4533 M
77 0 R D 7360 5575 M 77 0 R D 12500 1408 M 0 4686 R D 12500 1927 M -154 0 R
D 12500 2969 M -154 0 R D 12500 4012 M -154 0 R D 12500 5054 M -154 0 R D
12500 2448 M -77 0 R D 12500 3490 M -77 0 R D 12500 4533 M -77 0 R D
12500 5575 M -77 0 R D 0.000 0.000 1.000 setrgbcolor 7360 4450 M 233 -36 R
245 0 R 246 -80 R 245 120 R 246 -59 R 245 -8 R 245 21 R 246 8 R 245 110 R
245 -85 R 246 -168 R 245 -198 R 245 271 R 246 117 R 245 -64 R 245 -359 R
246 -448 R 245 -751 R 245 -1131 R 42 -302 R D 7360 4383 M 39 0 R -39 0 R D
7360 4521 M 39 0 R D 7542 4315 M 103 0 R -52 0 R 0 199 R -51 0 R 103 0 R D
7787 4309 M 103 0 R -52 0 R 0 210 R -51 0 R 103 0 R D 8032 4169 M 103 0 R
-51 0 R 0 331 R -52 0 R 103 0 R D 8278 4096 M 103 0 R -52 0 R 0 717 R
-51 0 R 103 0 R D 8523 4030 M 103 0 R -51 0 R 0 730 R -52 0 R 103 0 R D
8768 4277 M 103 0 R -51 0 R 0 220 R -52 0 R 103 0 R D 9014 4274 M 103 0 R
-52 0 R 0 269 R -51 0 R 103 0 R D 9259 4312 M 103 0 R -51 0 R 0 209 R
-52 0 R 103 0 R D 9505 4423 M 102 0 R -51 0 R 0 206 R -51 0 R 102 0 R D
9750 4349 M 103 0 R -52 0 R 0 185 R -51 0 R 103 0 R D 9995 4209 M 103 0 R
-51 0 R 0 128 R -52 0 R 103 0 R D 10241 3899 M 102 0 R -51 0 R 0 352 R
-51 0 R 102 0 R D 10486 3899 M 103 0 R -52 0 R 0 893 R -51 0 R 103 0 R D
10731 4059 M 103 0 R -51 0 R 0 809 R -52 0 R 103 0 R D 10977 4199 M 102 0 R
-51 0 R 0 400 R -51 0 R 102 0 R D 11222 3901 M 103 0 R -52 0 R 0 278 R
-51 0 R 103 0 R D 11467 3592 M 103 0 R -51 0 R -52 0 R 103 0 R D
11713 2841 M 102 0 R -51 0 R -51 0 R 102 0 R D 11958 1710 M 103 0 R -52 0 R
-51 0 R 103 0 R D 0.761 0.000 0.000 setrgbcolor 7360 5404 M 233 -52 R
245 -48 R 246 -55 R 245 -51 R 246 -52 R 245 -20 R 245 -17 R 246 -15 R
245 3 R 245 -66 R 246 -96 R 245 -197 R 245 -262 R 246 -170 R 245 -134 R
245 -109 R 246 -366 R 245 -640 R 245 -856 R 147 -793 R D 7360 5362 M 39 0 R
-39 0 R D 7360 5452 M 39 0 R D 7542 5307 M 103 0 R -52 0 R 0 90 R -51 0 R
103 0 R D 7787 5256 M 103 0 R -52 0 R 0 97 R -51 0 R 103 0 R D 8032 5212 M
103 0 R -51 0 R 0 73 R -52 0 R 103 0 R D 8278 5155 M 103 0 R -52 0 R 0 86 R
-51 0 R 103 0 R D 8523 5095 M 103 0 R -51 0 R 0 103 R -52 0 R 103 0 R D
8768 5074 M 103 0 R -51 0 R 0 105 R -52 0 R 103 0 R D 9014 5075 M 103 0 R
-52 0 R 0 67 R -51 0 R 103 0 R D 9259 5055 M 103 0 R -51 0 R 0 77 R -52 0 R
103 0 R D 9505 5056 M 102 0 R -51 0 R 0 81 R -51 0 R 102 0 R D 9750 4972 M
103 0 R -52 0 R 0 118 R -51 0 R 103 0 R D 9995 4876 M 103 0 R -51 0 R
0 117 R -52 0 R 103 0 R D 10241 4670 M 102 0 R -51 0 R 0 135 R -51 0 R
102 0 R D 10486 4373 M 103 0 R -52 0 R 0 205 R -51 0 R 103 0 R D
10731 4096 M 103 0 R -51 0 R 0 419 R -52 0 R 103 0 R D 10977 4019 M 102 0 R
-51 0 R 0 306 R -51 0 R 102 0 R D 11222 3919 M 103 0 R -52 0 R 0 288 R
-51 0 R 103 0 R D 11467 3537 M 103 0 R -51 0 R 0 319 R -52 0 R 103 0 R D
11713 2625 M 102 0 R -51 0 R 0 864 R -51 0 R 102 0 R D 12009 1408 M 0 1767 R
-51 0 R 103 0 R D 12255 1408 M 0 1253 R -52 0 R 103 0 R D
0.000 0.000 0.000 setrgbcolor 12500 1408 M 5140 0 R D 13715 1408 M 0 141 R D
gsave 13715 880 translate 0 0 M -117.687 0 N
(9) show grestore 14941 1408 M 0 141 R D gsave 14941 880 translate 0 0 M
-235.373 0 N
(10) show grestore 16168 1408 M 0 141 R D gsave 16168 880 translate 0 0 M
-235.373 0 N
(11) show grestore 17395 1408 M 0 141 R D gsave 17395 880 translate 0 0 M
-235.373 0 N
(12) show grestore 12611 1408 M 0 70 R D 12733 1408 M 0 70 R D 12856 1408 M
0 70 R D 12979 1408 M 0 70 R D 13101 1408 M 0 70 R D 13224 1408 M 0 70 R D
13347 1408 M 0 70 R D 13469 1408 M 0 70 R D 13592 1408 M 0 70 R D
13837 1408 M 0 70 R D 13960 1408 M 0 70 R D 14083 1408 M 0 70 R D
14205 1408 M 0 70 R D 14328 1408 M 0 70 R D 14451 1408 M 0 70 R D
14573 1408 M 0 70 R D 14696 1408 M 0 70 R D 14819 1408 M 0 70 R D
15064 1408 M 0 70 R D 15187 1408 M 0 70 R D 15309 1408 M 0 70 R D
15432 1408 M 0 70 R D 15555 1408 M 0 70 R D 15677 1408 M 0 70 R D
15800 1408 M 0 70 R D 15923 1408 M 0 70 R D 16045 1408 M 0 70 R D
16291 1408 M 0 70 R D 16413 1408 M 0 70 R D 16536 1408 M 0 70 R D
16659 1408 M 0 70 R D 16781 1408 M 0 70 R D 16904 1408 M 0 70 R D
17027 1408 M 0 70 R D 17149 1408 M 0 70 R D 17272 1408 M 0 70 R D
17518 1408 M 0 70 R D 17640 1408 M 0 70 R D 12500 6094 M 5140 0 R D
13715 6094 M 0 -141 R D 14941 6094 M 0 -141 R D 16168 6094 M 0 -141 R D
17395 6094 M 0 -141 R D 12611 6094 M 0 -70 R D 12733 6094 M 0 -70 R D
12856 6094 M 0 -70 R D 12979 6094 M 0 -70 R D 13101 6094 M 0 -70 R D
13224 6094 M 0 -70 R D 13347 6094 M 0 -70 R D 13469 6094 M 0 -70 R D
13592 6094 M 0 -70 R D 13837 6094 M 0 -70 R D 13960 6094 M 0 -70 R D
14083 6094 M 0 -70 R D 14205 6094 M 0 -70 R D 14328 6094 M 0 -70 R D
14451 6094 M 0 -70 R D 14573 6094 M 0 -70 R D 14696 6094 M 0 -70 R D
14819 6094 M 0 -70 R D 15064 6094 M 0 -70 R D 15187 6094 M 0 -70 R D
15309 6094 M 0 -70 R D 15432 6094 M 0 -70 R D 15555 6094 M 0 -70 R D
15677 6094 M 0 -70 R D 15800 6094 M 0 -70 R D 15923 6094 M 0 -70 R D
16045 6094 M 0 -70 R D 16291 6094 M 0 -70 R D 16413 6094 M 0 -70 R D
16536 6094 M 0 -70 R D 16659 6094 M 0 -70 R D 16781 6094 M 0 -70 R D
16904 6094 M 0 -70 R D 17027 6094 M 0 -70 R D 17149 6094 M 0 -70 R D
17272 6094 M 0 -70 R D 17518 6094 M 0 -70 R D 17640 6094 M 0 -70 R D
12500 1408 M 0 4686 R D 12500 1927 M 154 0 R D
gsave 12389 1786 translate 0 0 M -117.687 0 N
( ) show grestore 12500 2969 M 154 0 R D gsave 12389 2828 translate 0 0 M
-117.687 0 N
( ) show grestore 12500 4012 M 154 0 R D gsave 12389 3871 translate 0 0 M
-117.687 0 N
( ) show grestore 12500 5054 M 154 0 R D gsave 12389 4913 translate 0 0 M
-117.687 0 N
( ) show grestore 12500 2448 M 77 0 R D 12500 3490 M 77 0 R D 12500 4533 M
77 0 R D 12500 5575 M 77 0 R D 17640 1408 M 0 4686 R D 17640 1927 M -154 0 R
D 17640 2969 M -154 0 R D 17640 4012 M -154 0 R D 17640 5054 M -154 0 R D
17640 2448 M -77 0 R D 17640 3490 M -77 0 R D 17640 4533 M -77 0 R D
17640 5575 M -77 0 R D 0.000 0.000 1.000 setrgbcolor 12500 4453 M 233 -101 R
246 51 R 245 -94 R 245 -12 R 246 66 R 245 -99 R 245 62 R 246 13 R 245 21 R
245 -76 R 246 88 R 245 136 R 245 194 R 246 -84 R 245 -236 R 245 -277 R
246 -513 R 245 -751 R 245 -1131 R 42 -302 R D 12500 4385 M 39 0 R -39 0 R D
12500 4532 M 39 0 R D 12682 4266 M 103 0 R -52 0 R 0 173 R -51 0 R 103 0 R D
12927 4276 M 103 0 R -51 0 R 0 255 R -52 0 R 103 0 R D 13172 4162 M 103 0 R
-51 0 R 0 295 R -52 0 R 103 0 R D 13418 4152 M 103 0 R -52 0 R 0 290 R
-51 0 R 103 0 R D 13663 3992 M 103 0 R -51 0 R 0 741 R -52 0 R 103 0 R D
13909 4139 M 102 0 R -51 0 R 0 251 R -51 0 R 102 0 R D 14154 4189 M 103 0 R
-52 0 R 0 274 R -51 0 R 103 0 R D 14399 4177 M 103 0 R -51 0 R 0 324 R
-52 0 R 103 0 R D 14645 4201 M 102 0 R -51 0 R 0 318 R -51 0 R 102 0 R D
14890 4172 M 103 0 R -52 0 R 0 223 R -51 0 R 103 0 R D 15135 3789 M 103 0 R
-51 0 R 0 1166 R -52 0 R 103 0 R D 15381 3974 M 102 0 R -51 0 R 0 1068 R
-51 0 R 102 0 R D 15626 4242 M 103 0 R -52 0 R 0 919 R -51 0 R 103 0 R D
15871 4277 M 103 0 R -51 0 R 0 683 R -52 0 R 103 0 R D 16117 4129 M 102 0 R
-51 0 R 0 505 R -51 0 R 102 0 R D 16362 4105 M 103 0 R -52 0 R -51 0 R
103 0 R D 16607 3592 M 103 0 R -51 0 R -52 0 R 103 0 R D 16853 2841 M
103 0 R -52 0 R -51 0 R 103 0 R D 17098 1710 M 103 0 R -52 0 R -51 0 R
103 0 R D 0.761 0.000 0.000 setrgbcolor 12500 5371 M 233 -57 R 246 -50 R
245 -52 R 245 -50 R 246 -46 R 245 -19 R 245 -24 R 246 10 R 245 -16 R
245 -63 R 246 -175 R 245 -233 R 245 -214 R 246 -86 R 245 38 R 245 -280 R
246 -358 R 245 -855 R 245 -872 R 69 -561 R D 12500 5335 M 39 0 R -39 0 R D
12500 5413 M 39 0 R D 12682 5277 M 103 0 R -52 0 R 0 74 R -51 0 R 103 0 R D
12927 5216 M 103 0 R -51 0 R 0 96 R -52 0 R 103 0 R D 13172 5172 M 103 0 R
-51 0 R 0 81 R -52 0 R 103 0 R D 13418 5124 M 103 0 R -52 0 R 0 76 R -51 0 R
103 0 R D 13663 5069 M 103 0 R -51 0 R 0 93 R -52 0 R 103 0 R D 13909 5052 M
102 0 R -51 0 R 0 89 R -51 0 R 102 0 R D 14154 5041 M 103 0 R -52 0 R 0 65 R
-51 0 R 103 0 R D 14399 5044 M 103 0 R -51 0 R 0 78 R -52 0 R 103 0 R D
14645 5017 M 102 0 R -51 0 R 0 100 R -51 0 R 102 0 R D 14890 4964 M 103 0 R
-52 0 R 0 79 R -51 0 R 103 0 R D 15135 4769 M 103 0 R -51 0 R 0 120 R
-52 0 R 103 0 R D 15381 4538 M 102 0 R -51 0 R 0 115 R -51 0 R 102 0 R D
15626 4292 M 103 0 R -52 0 R 0 180 R -51 0 R 103 0 R D 15871 3951 M 103 0 R
-51 0 R 0 690 R -52 0 R 103 0 R D 16117 4134 M 102 0 R -51 0 R 0 399 R
-51 0 R 102 0 R D 16362 3923 M 103 0 R -52 0 R 0 262 R -51 0 R 103 0 R D
16607 3535 M 103 0 R -51 0 R 0 322 R -52 0 R 103 0 R D 16853 2841 M 103 0 R
-52 0 R -51 0 R 103 0 R D 17149 1408 M 0 1340 R -51 0 R 103 0 R D
%%PageTrailer
end
%%PageResources: font Helvetica
%%+ font Symbol
%%+ font AvantGarde-Book
%%Trailer
%%Pages: 1
%%DocumentNeededResources: font Helvetica
%%+ font Symbol
%%+ font AvantGarde-Book
%%EOF
