%!PS-Adobe-3.0 EPSF-3.0
%%BoundingBox: 0 0 481 226
%%Title: Graphics produced by IDL
%%For: jlgan@Hserver, /home/jlgan/work/phoenix
%%Creator: IDL Version 7.1.1 (linux x86_64 m64)
%%CreationDate: Wed Jul 16 15:32:36 2014
%%DocumentData: Clean7bit
%%Requirements: color
%%LanguageLevel: 1
%%PageOrder: Ascend
%%Pages: (atend)
%%DocumentNeededResources: (atend)
%%EndComments
%%BeginProlog
%+ prolog.ps -- Prolog for IDL generated PostScript files
%+ Copyright (c) 1988-2009 ITT Visual Information Solutions. All Rights Reserved.
%v 5
/$IDL_DICT 40 dict def $IDL_DICT begin /bdef { bind def } bind def /C
{currentpoint newpath moveto} bdef /CP {currentpoint} bdef /D {currentpoint
stroke moveto} bdef /F {closepath fill} bdef /K { setgray } bdef /M {moveto}
bdef /N {rmoveto} bdef /P {lineto} bdef /R {rlineto} bdef /S {gsave show
grestore} bdef /X {currentpoint pop} bdef /Z {gsave currentpoint lineto 20
setlinewidth 1 setlinecap stroke grestore} bdef /L0 {[] 0 setdash} bdef /L1
{[40 100] 0 setdash} bdef /L2 {[200 200] 0 setdash} bdef /L3 {[200 100 50
100] 0 setdash} bdef /L4 {[300 100 50 100 50 100 50 100] 0 setdash} bdef /L5
{[400 200] 0 setdash} bdef /STDFONT { findfont exch scalefont setfont } bdef
/ISOFONT { findfont dup length dict begin { 1 index /FID ne {def} {pop pop}
ifelse } forall /Encoding ISOLatin1Encoding def currentdict end /idltmpfont
exch definefont exch scalefont setfont } bdef /ISOBULLET { gsave /Helvetica
findfont exch scalefont setfont (\267) show currentpoint grestore moveto}
bdef /MITERLIMIT { 2.5 setmiterlimit } bdef end
%%EndProlog
%%Page: 0 1
%%PageRequirements: color
%%PageResources: (atend)
%%PageOrientation: Portrait
%%PageBoundingBox: 0 0 481 226
%%BeginPageSetup
$IDL_DICT begin 0.0283465 dup scale MITERLIMIT
%%IncludeResource: font Helvetica
423.333 /Helvetica STDFONT
%%EndPageSetup
0.000 0.000 0.000 setrgbcolor gsave 9180 304 translate 0 0 M -1506.41 0 N
(log[M) show X -101.051 M
%%IncludeResource: font Symbol
262.467 /Symbol STDFONT
(*) show X 0 M
%%IncludeResource: font Helvetica
423.333 /Helvetica STDFONT
( / \(h) show X 192.937 M
%%IncludeResource: font Helvetica
262.467 /Helvetica STDFONT
(-2) show X 0 M
%%IncludeResource: font Helvetica
423.333 /Helvetica STDFONT
(M) show CP X -101.051 M
%%IncludeResource: font AvantGarde-Book
262.467 /AvantGarde-Book STDFONT
(O) show M X -58.3193 M
%%IncludeResource: font AvantGarde-Book
186.267 /AvantGarde-Book STDFONT
( \267) show X 0 M
%%IncludeResource: font Helvetica
423.333 /Helvetica STDFONT
(\)]) show grestore gsave 538 4328 translate 0 0 M 90 rotate -2273.04 0 N
%%IncludeResource: font Symbol
423.333 /Symbol STDFONT
(f) show
%%IncludeResource: font Helvetica
423.333 /Helvetica STDFONT
(\(M) show X -101.051 M
%%IncludeResource: font Symbol
262.467 /Symbol STDFONT
(*) show X 0 M
%%IncludeResource: font Helvetica
423.333 /Helvetica STDFONT
(\) / \(h) show X 192.937 M
%%IncludeResource: font Helvetica
262.467 /Helvetica STDFONT
(3) show X 0 M
%%IncludeResource: font Helvetica
423.333 /Helvetica STDFONT
(Mpc) show X 192.937 M
%%IncludeResource: font Helvetica
262.467 /Helvetica STDFONT
(-3) show X 0 M
%%IncludeResource: font Helvetica
423.333 /Helvetica STDFONT
(log) show X 192.937 M
%%IncludeResource: font Helvetica
262.467 /Helvetica STDFONT
(-1) show X 0 M
%%IncludeResource: font Helvetica
423.333 /Helvetica STDFONT
(M) show X -101.051 M
%%IncludeResource: font Symbol
262.467 /Symbol STDFONT
(*) show X 0 M
%%IncludeResource: font Helvetica
423.333 /Helvetica STDFONT
(\)) show grestore 30 setlinewidth L0 1870 1360 M 6800 0 R D 1870 1360 M
0 237 R D gsave 1870 832 translate 0 0 M -117.687 0 N
(8) show grestore 3529 1360 M 0 237 R D gsave 3529 832 translate 0 0 M
-117.687 0 N
(9) show grestore 5187 1360 M 0 237 R D gsave 5187 832 translate 0 0 M
-235.373 0 N
(10) show grestore 6846 1360 M 0 237 R D gsave 6846 832 translate 0 0 M
-235.373 0 N
(11) show grestore 8504 1360 M 0 237 R D gsave 8504 832 translate 0 0 M
-235.373 0 N
(12) show grestore 2036 1360 M 0 119 R D 2202 1360 M 0 119 R D 2368 1360 M
0 119 R D 2533 1360 M 0 119 R D 2699 1360 M 0 119 R D 2865 1360 M 0 119 R D
3031 1360 M 0 119 R D 3197 1360 M 0 119 R D 3363 1360 M 0 119 R D
3694 1360 M 0 119 R D 3860 1360 M 0 119 R D 4026 1360 M 0 119 R D
4192 1360 M 0 119 R D 4358 1360 M 0 119 R D 4524 1360 M 0 119 R D
4690 1360 M 0 119 R D 4855 1360 M 0 119 R D 5021 1360 M 0 119 R D
5353 1360 M 0 119 R D 5519 1360 M 0 119 R D 5685 1360 M 0 119 R D
5851 1360 M 0 119 R D 6016 1360 M 0 119 R D 6182 1360 M 0 119 R D
6348 1360 M 0 119 R D 6514 1360 M 0 119 R D 6680 1360 M 0 119 R D
7012 1360 M 0 119 R D 7177 1360 M 0 119 R D 7343 1360 M 0 119 R D
7509 1360 M 0 119 R D 7675 1360 M 0 119 R D 7841 1360 M 0 119 R D
8007 1360 M 0 119 R D 8173 1360 M 0 119 R D 8338 1360 M 0 119 R D
8670 1360 M 0 119 R D 1870 7296 M 6800 0 R D 1870 7296 M 0 -237 R D
3529 7296 M 0 -237 R D 5187 7296 M 0 -237 R D 6846 7296 M 0 -237 R D
8504 7296 M 0 -237 R D 2036 7296 M 0 -119 R D 2202 7296 M 0 -119 R D
2368 7296 M 0 -119 R D 2533 7296 M 0 -119 R D 2699 7296 M 0 -119 R D
2865 7296 M 0 -119 R D 3031 7296 M 0 -119 R D 3197 7296 M 0 -119 R D
3363 7296 M 0 -119 R D 3694 7296 M 0 -119 R D 3860 7296 M 0 -119 R D
4026 7296 M 0 -119 R D 4192 7296 M 0 -119 R D 4358 7296 M 0 -119 R D
4524 7296 M 0 -119 R D 4690 7296 M 0 -119 R D 4855 7296 M 0 -119 R D
5021 7296 M 0 -119 R D 5353 7296 M 0 -119 R D 5519 7296 M 0 -119 R D
5685 7296 M 0 -119 R D 5851 7296 M 0 -119 R D 6016 7296 M 0 -119 R D
6182 7296 M 0 -119 R D 6348 7296 M 0 -119 R D 6514 7296 M 0 -119 R D
6680 7296 M 0 -119 R D 7012 7296 M 0 -119 R D 7177 7296 M 0 -119 R D
7343 7296 M 0 -119 R D 7509 7296 M 0 -119 R D 7675 7296 M 0 -119 R D
7841 7296 M 0 -119 R D 8007 7296 M 0 -119 R D 8173 7296 M 0 -119 R D
8338 7296 M 0 -119 R D 8670 7296 M 0 -119 R D 1870 1360 M 0 5936 R D
1870 2621 M 272 0 R D gsave 1759 2480 translate 0 0 M -704.08 0 N
(10) show X 192.937 M
%%IncludeResource: font Helvetica
262.467 /Helvetica STDFONT
(-4) show grestore
%%IncludeResource: font Helvetica
423.333 /Helvetica STDFONT 1870 4105 M 272 0 R D
gsave 1759 3964 translate 0 0 M -704.08 0 N
(10) show X 192.937 M
%%IncludeResource: font Helvetica
262.467 /Helvetica STDFONT
(-2) show grestore
%%IncludeResource: font Helvetica
423.333 /Helvetica STDFONT 1870 5589 M 272 0 R D
gsave 1759 5448 translate 0 0 M -616.678 0 N
(10) show X 192.937 M
%%IncludeResource: font Helvetica
262.467 /Helvetica STDFONT
(0) show grestore
%%IncludeResource: font Helvetica
423.333 /Helvetica STDFONT 1870 7073 M 272 0 R D
gsave 1759 6932 translate 0 0 M -616.678 0 N
(10) show X 192.937 M
%%IncludeResource: font Helvetica
262.467 /Helvetica STDFONT
(2) show grestore
%%IncludeResource: font Helvetica
423.333 /Helvetica STDFONT 1870 1879 M 136 0 R D 1870 3363 M 136 0 R D
1870 4847 M 136 0 R D 1870 6331 M 136 0 R D 8670 1360 M 0 5936 R D
8670 2621 M -272 0 R D 8670 4105 M -272 0 R D 8670 5589 M -272 0 R D
8670 7073 M -272 0 R D 8670 1879 M -136 0 R D 8670 3363 M -136 0 R D
8670 4847 M -136 0 R D 8670 6331 M -136 0 R D 40 setlinewidth L1 1870 7138 M
387 -217 R 387 -214 R 387 -205 R 387 -184 R 387 -148 R 387 -100 R 387 -63 R
387 -55 R 387 -75 R 387 -118 R 387 -194 R 387 -323 R 387 -545 R 387 -922 R
387 -1571 R D 30 setlinewidth L0 1869 7121 M 69 0 R -68 0 R 0 30 R -1 0 R
69 0 R D 2189 6914 M 136 0 R -68 0 R 0 12 R -68 0 R 136 0 R D 2576 6707 M
136 0 R -68 0 R 0 2 R -68 0 R 136 0 R D 2963 6503 M 136 0 R -68 0 R 0 3 R
-68 0 R 136 0 R D 3350 6312 M 136 0 R -68 0 R 0 19 R -68 0 R 136 0 R D
3737 6150 M 136 0 R -68 0 R 0 47 R -68 0 R 136 0 R D 4124 6037 M 136 0 R
-68 0 R 0 68 R -68 0 R 136 0 R D 4511 5973 M 136 0 R -68 0 R 0 64 R -68 0 R
136 0 R D 4898 5930 M 136 0 R -68 0 R 0 35 R -68 0 R 136 0 R D 5285 5876 M
136 0 R -68 0 R 0 -8 R -68 0 R 136 0 R D 5672 5785 M 136 0 R -68 0 R 0 -65 R
-68 0 R 136 0 R D 6059 5629 M 136 0 R -68 0 R 0 -144 R -68 0 R 136 0 R D
6446 5360 M 136 0 R -68 0 R 0 -258 R -68 0 R 136 0 R D 6833 4898 M 136 0 R
-68 0 R 0 -433 R -68 0 R 136 0 R D 7220 4106 M 136 0 R -68 0 R 0 -712 R
-68 0 R 136 0 R D 7607 2751 M 136 0 R -68 0 R 0 -1173 R -68 0 R 136 0 R D
10 setlinewidth 1.000 0.000 0.706 setrgbcolor 1870 6880 M 412 -156 R
412 -41 R 412 -83 R 412 -94 R 412 -17 R 412 -43 R 412 -180 R 411 -108 R
412 -339 R 412 -403 R 412 -2771 R 412 -670 R 412 3217 R 242 -3832 R D
40 setlinewidth 1870 6929 M 412 -97 R 412 -84 R 412 -47 R 412 -62 R
412 -69 R 412 -9 R 412 -121 R 411 -186 R 412 -354 R 412 -708 R 412 -2547 R
412 2547 R 412 0 R 242 -3832 R D 70 setlinewidth 1870 6891 M 412 -57 R
412 -81 R 412 -83 R 412 -62 R 412 -124 R 412 -87 R 412 -224 R 411 104 R
412 -172 R 412 -559 R 412 0 R 412 -3571 R 213 -615 R D
0.000 0.000 0.000 setrgbcolor gsave 5270 7440 translate 0 0 M -971.584 0 N
(within R) show X -101.051 M
%%IncludeResource: font Helvetica
262.467 /Helvetica STDFONT
(200) show grestore
%%IncludeResource: font Helvetica
423.333 /Helvetica STDFONT 10 setlinewidth L1 2210 3438 M 82 0 R 81 0 R
82 0 R 81 0 R 82 0 R 82 0 R 81 0 R 82 0 R 81 0 R D L0 2210 2963 M 82 0 R
81 0 R 82 0 R 81 0 R 82 0 R 82 0 R 81 0 R 82 0 R 81 0 R D 40 setlinewidth
2210 2488 M 82 0 R 81 0 R 82 0 R 81 0 R 82 0 R 82 0 R 81 0 R 82 0 R 81 0 R D
70 setlinewidth 2210 2013 M 82 0 R 81 0 R 82 0 R 81 0 R 82 0 R 82 0 R 81 0 R
82 0 R 81 0 R D gsave 3026 3281 translate 0 0 M
(Popesso2006) show grestore gsave 3026 2806 translate 0 0 M
(0.1) show grestore gsave 3026 2331 translate 0 0 M
(1.0) show grestore gsave 3026 1856 translate 0 0 M
(10) show grestore 30 setlinewidth 9690 1360 M 6800 0 R D 9690 1360 M
0 237 R D gsave 9690 832 translate 0 0 M -117.687 0 N
(8) show grestore 11349 1360 M 0 237 R D gsave 11349 832 translate 0 0 M
-117.687 0 N
(9) show grestore 13007 1360 M 0 237 R D gsave 13007 832 translate 0 0 M
-235.373 0 N
(10) show grestore 14666 1360 M 0 237 R D gsave 14666 832 translate 0 0 M
-235.373 0 N
(11) show grestore 16324 1360 M 0 237 R D gsave 16324 832 translate 0 0 M
-235.373 0 N
(12) show grestore 9856 1360 M 0 119 R D 10022 1360 M 0 119 R D 10188 1360 M
0 119 R D 10354 1360 M 0 119 R D 10519 1360 M 0 119 R D 10685 1360 M 0 119 R
D 10851 1360 M 0 119 R D 11017 1360 M 0 119 R D 11183 1360 M 0 119 R D
11514 1360 M 0 119 R D 11680 1360 M 0 119 R D 11846 1360 M 0 119 R D
12012 1360 M 0 119 R D 12178 1360 M 0 119 R D 12344 1360 M 0 119 R D
12510 1360 M 0 119 R D 12675 1360 M 0 119 R D 12841 1360 M 0 119 R D
13173 1360 M 0 119 R D 13339 1360 M 0 119 R D 13505 1360 M 0 119 R D
13671 1360 M 0 119 R D 13836 1360 M 0 119 R D 14002 1360 M 0 119 R D
14168 1360 M 0 119 R D 14334 1360 M 0 119 R D 14500 1360 M 0 119 R D
14832 1360 M 0 119 R D 14997 1360 M 0 119 R D 15163 1360 M 0 119 R D
15329 1360 M 0 119 R D 15495 1360 M 0 119 R D 15661 1360 M 0 119 R D
15827 1360 M 0 119 R D 15993 1360 M 0 119 R D 16158 1360 M 0 119 R D
16490 1360 M 0 119 R D 9690 7296 M 6800 0 R D 9690 7296 M 0 -237 R D
11349 7296 M 0 -237 R D 13007 7296 M 0 -237 R D 14666 7296 M 0 -237 R D
16324 7296 M 0 -237 R D 9856 7296 M 0 -119 R D 10022 7296 M 0 -119 R D
10188 7296 M 0 -119 R D 10354 7296 M 0 -119 R D 10519 7296 M 0 -119 R D
10685 7296 M 0 -119 R D 10851 7296 M 0 -119 R D 11017 7296 M 0 -119 R D
11183 7296 M 0 -119 R D 11514 7296 M 0 -119 R D 11680 7296 M 0 -119 R D
11846 7296 M 0 -119 R D 12012 7296 M 0 -119 R D 12178 7296 M 0 -119 R D
12344 7296 M 0 -119 R D 12510 7296 M 0 -119 R D 12675 7296 M 0 -119 R D
12841 7296 M 0 -119 R D 13173 7296 M 0 -119 R D 13339 7296 M 0 -119 R D
13505 7296 M 0 -119 R D 13671 7296 M 0 -119 R D 13836 7296 M 0 -119 R D
14002 7296 M 0 -119 R D 14168 7296 M 0 -119 R D 14334 7296 M 0 -119 R D
14500 7296 M 0 -119 R D 14832 7296 M 0 -119 R D 14997 7296 M 0 -119 R D
15163 7296 M 0 -119 R D 15329 7296 M 0 -119 R D 15495 7296 M 0 -119 R D
15661 7296 M 0 -119 R D 15827 7296 M 0 -119 R D 15993 7296 M 0 -119 R D
16158 7296 M 0 -119 R D 16490 7296 M 0 -119 R D 9690 1360 M 0 5936 R D
9690 1879 M 272 0 R D gsave 9579 1738 translate 0 0 M -704.08 0 N
(10) show X 192.937 M
%%IncludeResource: font Helvetica
262.467 /Helvetica STDFONT
(-8) show grestore
%%IncludeResource: font Helvetica
423.333 /Helvetica STDFONT 9690 3363 M 272 0 R D
gsave 9579 3222 translate 0 0 M -704.08 0 N
(10) show X 192.937 M
%%IncludeResource: font Helvetica
262.467 /Helvetica STDFONT
(-6) show grestore
%%IncludeResource: font Helvetica
423.333 /Helvetica STDFONT 9690 4847 M 272 0 R D
gsave 9579 4706 translate 0 0 M -704.08 0 N
(10) show X 192.937 M
%%IncludeResource: font Helvetica
262.467 /Helvetica STDFONT
(-4) show grestore
%%IncludeResource: font Helvetica
423.333 /Helvetica STDFONT 9690 6331 M 272 0 R D
gsave 9579 6190 translate 0 0 M -704.08 0 N
(10) show X 192.937 M
%%IncludeResource: font Helvetica
262.467 /Helvetica STDFONT
(-2) show grestore
%%IncludeResource: font Helvetica
423.333 /Helvetica STDFONT 9690 2621 M 136 0 R D 9690 4105 M 136 0 R D
9690 5589 M 136 0 R D 9690 7073 M 136 0 R D 16490 1360 M 0 5936 R D
16490 1879 M -272 0 R D 16490 3363 M -272 0 R D 16490 4847 M -272 0 R D
16490 6331 M -272 0 R D 16490 2621 M -136 0 R D 16490 4105 M -136 0 R D
16490 5589 M -136 0 R D 16490 7073 M -136 0 R D 40 setlinewidth L1
9690 6869 M 359 -26 R 360 -30 R 359 -34 R 360 -44 R 359 -59 R 359 -83 R
360 -13 R 359 -13 R 359 -32 R 360 -63 R 359 -114 R 359 -199 R 360 -314 R
359 -426 R 359 -598 R 360 -882 R 359 -1350 R 208 -1229 R D 30 setlinewidth
L0 9690 6828 M 68 0 R -68 0 R 0 77 R 68 0 R D 9981 6805 M 136 0 R -68 0 R
0 71 R -68 0 R 136 0 R D 10341 6778 M 136 0 R -68 0 R 0 67 R -68 0 R 136 0 R
D 10700 6745 M 136 0 R -68 0 R 0 64 R -68 0 R 136 0 R D 11060 6702 M 136 0 R
-68 0 R 0 63 R -68 0 R 136 0 R D 11419 6643 M 136 0 R -68 0 R 0 64 R -68 0 R
136 0 R D 11778 6557 M 136 0 R -68 0 R 0 69 R -68 0 R 136 0 R D 12138 6549 M
136 0 R -68 0 R 0 60 R -68 0 R 136 0 R D 12497 6540 M 136 0 R -68 0 R 0 52 R
-68 0 R 136 0 R D 12856 6512 M 136 0 R -68 0 R 0 45 R -68 0 R 136 0 R D
13216 6450 M 136 0 R -68 0 R 0 42 R -68 0 R 136 0 R D 13575 6336 M 136 0 R
-68 0 R 0 42 R -68 0 R 136 0 R D 13934 6134 M 136 0 R -68 0 R 0 47 R -68 0 R
136 0 R D 14294 5813 M 136 0 R -68 0 R 0 61 R -68 0 R 136 0 R D 14653 5378 M
136 0 R -68 0 R 0 77 R -68 0 R 136 0 R D 15012 4773 M 136 0 R -68 0 R 0 90 R
-68 0 R 136 0 R D 15372 3883 M 136 0 R -68 0 R 0 103 R -68 0 R 136 0 R D
15799 1360 M 0 1487 R -68 0 R 136 0 R D 16158 1360 M 0 1261 R -68 0 R
136 0 R D 10 setlinewidth 1.000 0.000 0.706 setrgbcolor 9690 6894 M
354 -130 R 355 -66 R 354 -36 R 354 -137 R 355 -4 R 354 -57 R 354 -53 R
354 -80 R 355 -138 R 354 -11 R 354 -191 R 355 -375 R 354 -519 R 354 131 R
355 -354 R 354 0 R 354 -2648 R 164 -866 R D 40 setlinewidth 9690 7020 M
354 -110 R 355 -67 R 354 -90 R 354 -74 R 355 -21 R 354 -64 R 354 -63 R
354 -22 R 355 -95 R 354 -267 R 354 -249 R 355 -447 R 354 -354 R 354 0 R
355 -223 R 354 -1446 R 354 1669 R 279 -3737 R D 70 setlinewidth 9690 7139 M
354 -106 R 355 -73 R 354 -73 R 354 -60 R 355 -77 R 354 -135 R 354 -128 R
354 -116 R 355 12 R 354 -59 R 354 -231 R 355 -182 R 354 -683 R 354 -354 R
355 -650 R 354 650 R 354 -2648 R 164 -866 R D 0.000 0.000 0.000 setrgbcolor
gsave 13090 7440 translate 0 0 M -1235.07 0 N
(whole cluster) show grestore 10 setlinewidth L1 10030 3438 M 82 0 R 81 0 R
82 0 R 81 0 R 82 0 R 82 0 R 81 0 R 82 0 R 81 0 R D L0 10030 2963 M 82 0 R
81 0 R 82 0 R 81 0 R 82 0 R 82 0 R 81 0 R 82 0 R 81 0 R D 40 setlinewidth
10030 2488 M 82 0 R 81 0 R 82 0 R 81 0 R 82 0 R 82 0 R 81 0 R 82 0 R 81 0 R
D 70 setlinewidth 10030 2013 M 82 0 R 81 0 R 82 0 R 81 0 R 82 0 R 82 0 R
81 0 R 82 0 R 81 0 R D gsave 10846 3281 translate 0 0 M
(Li2009) show grestore gsave 10846 2806 translate 0 0 M
(0.1) show grestore gsave 10846 2331 translate 0 0 M
(1.0) show grestore gsave 10846 1856 translate 0 0 M
(10) show grestore
%%PageTrailer
end
%%PageResources: font Helvetica
%%+ font Symbol
%%+ font AvantGarde-Book
%%Trailer
%%Pages: 1
%%DocumentNeededResources: font Helvetica
%%+ font Symbol
%%+ font AvantGarde-Book
%%EOF
