%!PS-Adobe-3.0 EPSF-3.0
%%BoundingBox: 0 0 510 425
%%Title: Graphics produced by IDL
%%For: jlgan@Hserver, /home/jlgan/work/phoenix
%%Creator: IDL Version 7.1.1 (linux x86_64 m64)
%%CreationDate: Thu Oct  2 00:27:56 2014
%%DocumentData: Clean7bit
%%Requirements: color
%%LanguageLevel: 1
%%PageOrder: Ascend
%%Pages: (atend)
%%DocumentNeededResources: (atend)
%%EndComments
%%BeginProlog
%+ prolog.ps -- Prolog for IDL generated PostScript files
%+ Copyright (c) 1988-2009 ITT Visual Information Solutions. All Rights Reserved.
%v 5
/$IDL_DICT 40 dict def $IDL_DICT begin /bdef { bind def } bind def /C
{currentpoint newpath moveto} bdef /CP {currentpoint} bdef /D {currentpoint
stroke moveto} bdef /F {closepath fill} bdef /K { setgray } bdef /M {moveto}
bdef /N {rmoveto} bdef /P {lineto} bdef /R {rlineto} bdef /S {gsave show
grestore} bdef /X {currentpoint pop} bdef /Z {gsave currentpoint lineto 20
setlinewidth 1 setlinecap stroke grestore} bdef /L0 {[] 0 setdash} bdef /L1
{[40 100] 0 setdash} bdef /L2 {[200 200] 0 setdash} bdef /L3 {[200 100 50
100] 0 setdash} bdef /L4 {[300 100 50 100 50 100 50 100] 0 setdash} bdef /L5
{[400 200] 0 setdash} bdef /STDFONT { findfont exch scalefont setfont } bdef
/ISOFONT { findfont dup length dict begin { 1 index /FID ne {def} {pop pop}
ifelse } forall /Encoding ISOLatin1Encoding def currentdict end /idltmpfont
exch definefont exch scalefont setfont } bdef /ISOBULLET { gsave /Helvetica
findfont exch scalefont setfont (\267) show currentpoint grestore moveto}
bdef /MITERLIMIT { 2.5 setmiterlimit } bdef end
%%EndProlog
%%Page: 0 1
%%PageRequirements: color
%%PageResources: (atend)
%%PageOrientation: Portrait
%%PageBoundingBox: 0 0 510 425
%%BeginPageSetup
$IDL_DICT begin 0.0283465 dup scale MITERLIMIT
%%IncludeResource: font Helvetica
423.333 /Helvetica STDFONT
%%EndPageSetup
0.000 0.000 0.000 setrgbcolor gsave 9930 352 translate 0 0 M -1506.41 0 N
(log[M) show X -101.051 M
%%IncludeResource: font Symbol
262.467 /Symbol STDFONT
(*) show X 0 M
%%IncludeResource: font Helvetica
423.333 /Helvetica STDFONT
( / \(h) show X 192.937 M
%%IncludeResource: font Helvetica
262.467 /Helvetica STDFONT
(-2) show X 0 M
%%IncludeResource: font Helvetica
423.333 /Helvetica STDFONT
(M) show CP X -101.051 M
%%IncludeResource: font AvantGarde-Book
262.467 /AvantGarde-Book STDFONT
(O) show M X -58.3193 M
%%IncludeResource: font AvantGarde-Book
186.267 /AvantGarde-Book STDFONT
( \267) show X 0 M
%%IncludeResource: font Helvetica
423.333 /Helvetica STDFONT
(\)]) show grestore gsave 888 8054 translate 0 0 M 90 rotate -2273.04 0 N
%%IncludeResource: font Symbol
423.333 /Symbol STDFONT
(f) show
%%IncludeResource: font Helvetica
423.333 /Helvetica STDFONT
(\(M) show X -101.051 M
%%IncludeResource: font Symbol
262.467 /Symbol STDFONT
(*) show X 0 M
%%IncludeResource: font Helvetica
423.333 /Helvetica STDFONT
(\) / \(h) show X 192.937 M
%%IncludeResource: font Helvetica
262.467 /Helvetica STDFONT
(3) show X 0 M
%%IncludeResource: font Helvetica
423.333 /Helvetica STDFONT
(Mpc) show X 192.937 M
%%IncludeResource: font Helvetica
262.467 /Helvetica STDFONT
(-3) show X 0 M
%%IncludeResource: font Helvetica
423.333 /Helvetica STDFONT
(log) show X 192.937 M
%%IncludeResource: font Helvetica
262.467 /Helvetica STDFONT
(-1) show X 0 M
%%IncludeResource: font Helvetica
423.333 /Helvetica STDFONT
(M) show X -101.051 M
%%IncludeResource: font Symbol
262.467 /Symbol STDFONT
(*) show X 0 M
%%IncludeResource: font Helvetica
423.333 /Helvetica STDFONT
(\)) show grestore 30 setlinewidth L0 2220 10269 M 5140 0 R D 3434 10269 M
0 133 R D gsave 3434 9741 translate 0 0 M -58.8433 0 N
( ) show grestore 4661 10269 M 0 133 R D gsave 4661 9741 translate 0 0 M
-58.8433 0 N
( ) show grestore 5888 10269 M 0 133 R D gsave 5888 9741 translate 0 0 M
-58.8433 0 N
( ) show grestore 7115 10269 M 0 133 R D gsave 7115 9741 translate 0 0 M
-58.8433 0 N
( ) show grestore 2330 10269 M 0 67 R D 2453 10269 M 0 67 R D 2576 10269 M
0 67 R D 2698 10269 M 0 67 R D 2821 10269 M 0 67 R D 2944 10269 M 0 67 R D
3066 10269 M 0 67 R D 3189 10269 M 0 67 R D 3312 10269 M 0 67 R D
3557 10269 M 0 67 R D 3680 10269 M 0 67 R D 3803 10269 M 0 67 R D
3925 10269 M 0 67 R D 4048 10269 M 0 67 R D 4171 10269 M 0 67 R D
4293 10269 M 0 67 R D 4416 10269 M 0 67 R D 4539 10269 M 0 67 R D
4784 10269 M 0 67 R D 4907 10269 M 0 67 R D 5029 10269 M 0 67 R D
5152 10269 M 0 67 R D 5275 10269 M 0 67 R D 5397 10269 M 0 67 R D
5520 10269 M 0 67 R D 5643 10269 M 0 67 R D 5765 10269 M 0 67 R D
6011 10269 M 0 67 R D 6133 10269 M 0 67 R D 6256 10269 M 0 67 R D
6379 10269 M 0 67 R D 6501 10269 M 0 67 R D 6624 10269 M 0 67 R D
6747 10269 M 0 67 R D 6869 10269 M 0 67 R D 6992 10269 M 0 67 R D
7237 10269 M 0 67 R D 7360 10269 M 0 67 R D 2220 14700 M 5140 0 R D
3434 14700 M 0 -133 R D 4661 14700 M 0 -133 R D 5888 14700 M 0 -133 R D
7115 14700 M 0 -133 R D 2330 14700 M 0 -66 R D 2453 14700 M 0 -66 R D
2576 14700 M 0 -66 R D 2698 14700 M 0 -66 R D 2821 14700 M 0 -66 R D
2944 14700 M 0 -66 R D 3066 14700 M 0 -66 R D 3189 14700 M 0 -66 R D
3312 14700 M 0 -66 R D 3557 14700 M 0 -66 R D 3680 14700 M 0 -66 R D
3803 14700 M 0 -66 R D 3925 14700 M 0 -66 R D 4048 14700 M 0 -66 R D
4171 14700 M 0 -66 R D 4293 14700 M 0 -66 R D 4416 14700 M 0 -66 R D
4539 14700 M 0 -66 R D 4784 14700 M 0 -66 R D 4907 14700 M 0 -66 R D
5029 14700 M 0 -66 R D 5152 14700 M 0 -66 R D 5275 14700 M 0 -66 R D
5397 14700 M 0 -66 R D 5520 14700 M 0 -66 R D 5643 14700 M 0 -66 R D
5765 14700 M 0 -66 R D 6011 14700 M 0 -66 R D 6133 14700 M 0 -66 R D
6256 14700 M 0 -66 R D 6379 14700 M 0 -66 R D 6501 14700 M 0 -66 R D
6624 14700 M 0 -66 R D 6747 14700 M 0 -66 R D 6869 14700 M 0 -66 R D
6992 14700 M 0 -66 R D 7237 14700 M 0 -66 R D 7360 14700 M 0 -66 R D
2220 10269 M 0 4431 R D 2220 10671 M 154 0 R D
gsave 2109 10530 translate 0 0 M -704.08 0 N
(10) show X 192.937 M
%%IncludeResource: font Helvetica
262.467 /Helvetica STDFONT
(-6) show grestore
%%IncludeResource: font Helvetica
423.333 /Helvetica STDFONT 2220 11477 M 154 0 R D
gsave 2109 11336 translate 0 0 M -704.08 0 N
(10) show X 192.937 M
%%IncludeResource: font Helvetica
262.467 /Helvetica STDFONT
(-4) show grestore
%%IncludeResource: font Helvetica
423.333 /Helvetica STDFONT 2220 12283 M 154 0 R D
gsave 2109 12142 translate 0 0 M -704.08 0 N
(10) show X 192.937 M
%%IncludeResource: font Helvetica
262.467 /Helvetica STDFONT
(-2) show grestore
%%IncludeResource: font Helvetica
423.333 /Helvetica STDFONT 2220 13089 M 154 0 R D
gsave 2109 12949 translate 0 0 M -616.678 0 N
(10) show X 192.937 M
%%IncludeResource: font Helvetica
262.467 /Helvetica STDFONT
(0) show grestore
%%IncludeResource: font Helvetica
423.333 /Helvetica STDFONT 2220 13896 M 154 0 R D
gsave 2109 13755 translate 0 0 M -616.678 0 N
(10) show X 192.937 M
%%IncludeResource: font Helvetica
262.467 /Helvetica STDFONT
(2) show grestore
%%IncludeResource: font Helvetica
423.333 /Helvetica STDFONT 2220 11074 M 77 0 R D 2220 11880 M 77 0 R D
2220 12686 M 77 0 R D 2220 13493 M 77 0 R D 2220 14299 M 77 0 R D
7360 10269 M 0 4431 R D 7360 10671 M -154 0 R D 7360 11477 M -154 0 R D
7360 12283 M -154 0 R D 7360 13089 M -154 0 R D 7360 13896 M -154 0 R D
7360 11074 M -77 0 R D 7360 11880 M -77 0 R D 7360 12686 M -77 0 R D
7360 13493 M -77 0 R D 7360 14299 M -77 0 R D
gsave 7115 14280 translate 0 0 M -1047.33 0 N
(z~0.0) show grestore 0.000 0.000 1.000 setrgbcolor 2220 13156 M 233 -19 R
245 -54 R 246 29 R 245 -54 R 245 34 R 246 8 R 245 33 R 246 38 R 245 77 R
245 -119 R 246 -53 R 245 -83 R 245 282 R 246 -225 R 245 -176 R 245 -476 R
246 -669 R 245 -1106 R 37 -354 R D 2220 13091 M 39 0 R -39 0 R D
2220 13225 M 39 0 R D 2402 13078 M 102 0 R -51 0 R 0 119 R -51 0 R 102 0 R D
2647 12942 M 103 0 R -52 0 R 0 283 R -51 0 R 103 0 R D 2892 12960 M 103 0 R
-51 0 R 0 304 R -52 0 R 103 0 R D 3138 12917 M 103 0 R -52 0 R 0 283 R
-51 0 R 103 0 R D 3383 12909 M 103 0 R -52 0 R 0 367 R -51 0 R 103 0 R D
3628 13003 M 103 0 R -51 0 R 0 195 R -52 0 R 103 0 R D 3874 13011 M 103 0 R
-52 0 R 0 244 R -51 0 R 103 0 R D 4119 13067 M 103 0 R -51 0 R 0 207 R
-52 0 R 103 0 R D 4364 13157 M 103 0 R -51 0 R 0 183 R -52 0 R 103 0 R D
4610 13040 M 103 0 R -52 0 R 0 178 R -51 0 R 103 0 R D 4855 12995 M 103 0 R
-51 0 R 0 163 R -52 0 R 103 0 R D 5101 12771 M 102 0 R -51 0 R 0 444 R
-51 0 R 102 0 R D 5346 13094 M 103 0 R -52 0 R 0 362 R -51 0 R 103 0 R D
5591 12885 M 103 0 R -51 0 R 0 331 R -52 0 R 103 0 R D 5837 12847 M 102 0 R
-51 0 R 0 54 R -51 0 R 102 0 R D 6082 12398 M 103 0 R -52 0 R -51 0 R
103 0 R D 6327 11370 M 103 0 R -51 0 R 0 719 R -52 0 R 103 0 R D
6624 10269 M 0 1189 R -51 0 R 102 0 R D 0.761 0.000 0.000 setrgbcolor
2220 13919 M 233 -47 R 245 -40 R 246 -42 R 245 -33 R 245 -44 R 246 -20 R
245 -12 R 246 -8 R 245 -9 R 245 -38 R 246 -79 R 245 -135 R 245 -192 R
246 -167 R 245 -92 R 245 -369 R 246 -842 R 245 -1113 R 50 -368 R D
2220 13898 M 39 0 R -39 0 R D 2220 13946 M 39 0 R D 2402 13854 M 102 0 R
-51 0 R 0 36 R -51 0 R 102 0 R D 2647 13810 M 103 0 R -52 0 R 0 43 R -51 0 R
103 0 R D 2892 13774 M 103 0 R -51 0 R 0 32 R -52 0 R 103 0 R D 3138 13735 M
103 0 R -52 0 R 0 44 R -51 0 R 103 0 R D 3383 13698 M 103 0 R -52 0 R 0 31 R
-51 0 R 103 0 R D 3628 13672 M 103 0 R -51 0 R 0 41 R -52 0 R 103 0 R D
3874 13663 M 103 0 R -52 0 R 0 37 R -51 0 R 103 0 R D 4119 13657 M 103 0 R
-51 0 R 0 31 R -52 0 R 103 0 R D 4364 13642 M 103 0 R -51 0 R 0 43 R -52 0 R
103 0 R D 4610 13595 M 103 0 R -52 0 R 0 63 R -51 0 R 103 0 R D 4855 13515 M
103 0 R -51 0 R 0 64 R -52 0 R 103 0 R D 5101 13374 M 102 0 R -51 0 R 0 76 R
-51 0 R 102 0 R D 5346 13150 M 103 0 R -52 0 R 0 140 R -51 0 R 103 0 R D
5591 12959 M 103 0 R -51 0 R 0 188 R -52 0 R 103 0 R D 5837 12870 M 102 0 R
-51 0 R 0 183 R -51 0 R 102 0 R D 6082 12354 M 103 0 R -52 0 R 0 476 R
-51 0 R 103 0 R D 6327 11327 M 103 0 R -51 0 R 0 847 R -52 0 R 103 0 R D
6624 10269 M 0 1243 R -51 0 R 102 0 R D 6869 10269 M 0 89 R -51 0 R 103 0 R
D 7115 10269 M 0 3301 R -52 0 R 103 0 R D 0.000 0.000 0.000 setrgbcolor
7360 10269 M 5140 0 R D 8575 10269 M 0 133 R D
gsave 8575 9741 translate 0 0 M -58.8433 0 N
( ) show grestore 9801 10269 M 0 133 R D gsave 9801 9741 translate 0 0 M
-58.8433 0 N
( ) show grestore 11028 10269 M 0 133 R D gsave 11028 9741 translate 0 0 M
-58.8433 0 N
( ) show grestore 12255 10269 M 0 133 R D gsave 12255 9741 translate 0 0 M
-58.8433 0 N
( ) show grestore 7470 10269 M 0 67 R D 7593 10269 M 0 67 R D 7716 10269 M
0 67 R D 7838 10269 M 0 67 R D 7961 10269 M 0 67 R D 8084 10269 M 0 67 R D
8207 10269 M 0 67 R D 8329 10269 M 0 67 R D 8452 10269 M 0 67 R D
8697 10269 M 0 67 R D 8820 10269 M 0 67 R D 8943 10269 M 0 67 R D
9065 10269 M 0 67 R D 9188 10269 M 0 67 R D 9311 10269 M 0 67 R D
9433 10269 M 0 67 R D 9556 10269 M 0 67 R D 9679 10269 M 0 67 R D
9924 10269 M 0 67 R D 10047 10269 M 0 67 R D 10169 10269 M 0 67 R D
10292 10269 M 0 67 R D 10415 10269 M 0 67 R D 10537 10269 M 0 67 R D
10660 10269 M 0 67 R D 10783 10269 M 0 67 R D 10905 10269 M 0 67 R D
11151 10269 M 0 67 R D 11273 10269 M 0 67 R D 11396 10269 M 0 67 R D
11519 10269 M 0 67 R D 11641 10269 M 0 67 R D 11764 10269 M 0 67 R D
11887 10269 M 0 67 R D 12009 10269 M 0 67 R D 12132 10269 M 0 67 R D
12377 10269 M 0 67 R D 12500 10269 M 0 67 R D 7360 14700 M 5140 0 R D
8575 14700 M 0 -133 R D 9801 14700 M 0 -133 R D 11028 14700 M 0 -133 R D
12255 14700 M 0 -133 R D 7470 14700 M 0 -66 R D 7593 14700 M 0 -66 R D
7716 14700 M 0 -66 R D 7838 14700 M 0 -66 R D 7961 14700 M 0 -66 R D
8084 14700 M 0 -66 R D 8207 14700 M 0 -66 R D 8329 14700 M 0 -66 R D
8452 14700 M 0 -66 R D 8697 14700 M 0 -66 R D 8820 14700 M 0 -66 R D
8943 14700 M 0 -66 R D 9065 14700 M 0 -66 R D 9188 14700 M 0 -66 R D
9311 14700 M 0 -66 R D 9433 14700 M 0 -66 R D 9556 14700 M 0 -66 R D
9679 14700 M 0 -66 R D 9924 14700 M 0 -66 R D 10047 14700 M 0 -66 R D
10169 14700 M 0 -66 R D 10292 14700 M 0 -66 R D 10415 14700 M 0 -66 R D
10537 14700 M 0 -66 R D 10660 14700 M 0 -66 R D 10783 14700 M 0 -66 R D
10905 14700 M 0 -66 R D 11151 14700 M 0 -66 R D 11273 14700 M 0 -66 R D
11396 14700 M 0 -66 R D 11519 14700 M 0 -66 R D 11641 14700 M 0 -66 R D
11764 14700 M 0 -66 R D 11887 14700 M 0 -66 R D 12009 14700 M 0 -66 R D
12132 14700 M 0 -66 R D 12377 14700 M 0 -66 R D 12500 14700 M 0 -66 R D
7360 10269 M 0 4431 R D 7360 10671 M 154 0 R D
gsave 7249 10530 translate 0 0 M -117.687 0 N
( ) show grestore 7360 11477 M 154 0 R D gsave 7249 11336 translate 0 0 M
-117.687 0 N
( ) show grestore 7360 12283 M 154 0 R D gsave 7249 12142 translate 0 0 M
-117.687 0 N
( ) show grestore 7360 13089 M 154 0 R D gsave 7249 12949 translate 0 0 M
-117.687 0 N
( ) show grestore 7360 13896 M 154 0 R D gsave 7249 13755 translate 0 0 M
-117.687 0 N
( ) show grestore 7360 11074 M 77 0 R D 7360 11880 M 77 0 R D 7360 12686 M
77 0 R D 7360 13493 M 77 0 R D 7360 14299 M 77 0 R D 12500 10269 M 0 4431 R
D 12500 10671 M -154 0 R D 12500 11477 M -154 0 R D 12500 12283 M -154 0 R D
12500 13089 M -154 0 R D 12500 13896 M -154 0 R D 12500 11074 M -77 0 R D
12500 11880 M -77 0 R D 12500 12686 M -77 0 R D 12500 13493 M -77 0 R D
12500 14299 M -77 0 R D gsave 12255 14280 translate 0 0 M -1047.33 0 N
(z~0.3) show grestore 0.000 0.000 1.000 setrgbcolor 7360 13238 M 233 7 R
245 -4 R 246 -35 R 245 1 R 246 -42 R 245 36 R 245 13 R 246 7 R 245 58 R
245 -23 R 246 -38 R 245 -51 R 245 126 R 246 -160 R 245 -244 R 245 -374 R
246 -906 R 245 -1264 R 9 -76 R D 7360 13204 M 39 0 R -39 0 R D 7360 13272 M
39 0 R D 7542 13131 M 103 0 R -52 0 R 0 228 R -51 0 R 103 0 R D 7787 13080 M
103 0 R -52 0 R 0 321 R -51 0 R 103 0 R D 8032 13051 M 103 0 R -51 0 R
0 311 R -52 0 R 103 0 R D 8278 13064 M 103 0 R -52 0 R 0 285 R -51 0 R
103 0 R D 8523 12994 M 103 0 R -51 0 R 0 343 R -52 0 R 103 0 R D
8768 13134 M 103 0 R -51 0 R 0 135 R -52 0 R 103 0 R D 9014 13125 M 103 0 R
-52 0 R 0 177 R -51 0 R 103 0 R D 9259 13166 M 103 0 R -51 0 R 0 109 R
-52 0 R 103 0 R D 9505 13137 M 102 0 R -51 0 R 0 285 R -51 0 R 102 0 R D
9750 13130 M 103 0 R -52 0 R 0 251 R -51 0 R 103 0 R D 9995 13022 M 103 0 R
-51 0 R 0 391 R -52 0 R 103 0 R D 10241 12966 M 102 0 R -51 0 R 0 402 R
-51 0 R 102 0 R D 10486 13146 M 103 0 R -52 0 R 0 294 R -51 0 R 103 0 R D
10731 13037 M 103 0 R -51 0 R 0 192 R -52 0 R 103 0 R D 10977 12882 M
102 0 R -51 0 R 0 14 R -51 0 R 102 0 R D 11222 12273 M 103 0 R -52 0 R
0 484 R -51 0 R 103 0 R D 11467 11609 M 103 0 R -51 0 R -52 0 R 103 0 R D
11713 10345 M 102 0 R -51 0 R -51 0 R 102 0 R D
0.761 0.000 0.000 setrgbcolor 7360 13962 M 233 -43 R 245 -38 R 246 -44 R
245 -34 R 246 -43 R 245 -2 R 245 -15 R 246 -17 R 245 2 R 245 -47 R 246 -94 R
245 -150 R 245 -177 R 246 -98 R 245 -200 R 245 -359 R 246 -842 R 245 -842 R
245 -491 R 14 -159 R D 7360 13930 M 39 0 R -39 0 R D 7360 14000 M 39 0 R D
7542 13885 M 103 0 R -52 0 R 0 69 R -51 0 R 103 0 R D 7787 13851 M 103 0 R
-52 0 R 0 60 R -51 0 R 103 0 R D 8032 13801 M 103 0 R -51 0 R 0 71 R -52 0 R
103 0 R D 8278 13775 M 103 0 R -52 0 R 0 55 R -51 0 R 103 0 R D 8523 13720 M
103 0 R -51 0 R 0 81 R -52 0 R 103 0 R D 8768 13726 M 103 0 R -51 0 R 0 64 R
-52 0 R 103 0 R D 9014 13726 M 103 0 R -52 0 R 0 34 R -51 0 R 103 0 R D
9259 13677 M 103 0 R -51 0 R 0 99 R -52 0 R 103 0 R D 9505 13687 M 102 0 R
-51 0 R 0 81 R -51 0 R 102 0 R D 9750 13639 M 103 0 R -52 0 R 0 84 R -51 0 R
103 0 R D 9995 13520 M 103 0 R -51 0 R 0 134 R -52 0 R 103 0 R D
10241 13352 M 102 0 R -51 0 R 0 171 R -51 0 R 102 0 R D 10486 13147 M
103 0 R -52 0 R 0 226 R -51 0 R 103 0 R D 10731 13100 M 103 0 R -51 0 R
0 125 R -52 0 R 103 0 R D 10977 12840 M 102 0 R -51 0 R 0 244 R -51 0 R
102 0 R D 11222 12292 M 103 0 R -52 0 R 0 621 R -51 0 R 103 0 R D
11467 11305 M 103 0 R -51 0 R 0 913 R -52 0 R 103 0 R D 11764 10269 M
0 1791 R -51 0 R 102 0 R D 12009 10269 M 0 2651 R -51 0 R 103 0 R D
12255 10269 M 0 1440 R -52 0 R 103 0 R D 0.000 0.000 0.000 setrgbcolor
12500 10269 M 5140 0 R D 13715 10269 M 0 133 R D
gsave 13715 9741 translate 0 0 M -58.8433 0 N
( ) show grestore 14941 10269 M 0 133 R D gsave 14941 9741 translate 0 0 M
-58.8433 0 N
( ) show grestore 16168 10269 M 0 133 R D gsave 16168 9741 translate 0 0 M
-58.8433 0 N
( ) show grestore 17395 10269 M 0 133 R D gsave 17395 9741 translate 0 0 M
-58.8433 0 N
( ) show grestore 12611 10269 M 0 67 R D 12733 10269 M 0 67 R D
12856 10269 M 0 67 R D 12979 10269 M 0 67 R D 13101 10269 M 0 67 R D
13224 10269 M 0 67 R D 13347 10269 M 0 67 R D 13469 10269 M 0 67 R D
13592 10269 M 0 67 R D 13837 10269 M 0 67 R D 13960 10269 M 0 67 R D
14083 10269 M 0 67 R D 14205 10269 M 0 67 R D 14328 10269 M 0 67 R D
14451 10269 M 0 67 R D 14573 10269 M 0 67 R D 14696 10269 M 0 67 R D
14819 10269 M 0 67 R D 15064 10269 M 0 67 R D 15187 10269 M 0 67 R D
15309 10269 M 0 67 R D 15432 10269 M 0 67 R D 15555 10269 M 0 67 R D
15677 10269 M 0 67 R D 15800 10269 M 0 67 R D 15923 10269 M 0 67 R D
16045 10269 M 0 67 R D 16291 10269 M 0 67 R D 16413 10269 M 0 67 R D
16536 10269 M 0 67 R D 16659 10269 M 0 67 R D 16781 10269 M 0 67 R D
16904 10269 M 0 67 R D 17027 10269 M 0 67 R D 17149 10269 M 0 67 R D
17272 10269 M 0 67 R D 17518 10269 M 0 67 R D 17640 10269 M 0 67 R D
12500 14700 M 5140 0 R D 13715 14700 M 0 -133 R D 14941 14700 M 0 -133 R D
16168 14700 M 0 -133 R D 17395 14700 M 0 -133 R D 12611 14700 M 0 -66 R D
12733 14700 M 0 -66 R D 12856 14700 M 0 -66 R D 12979 14700 M 0 -66 R D
13101 14700 M 0 -66 R D 13224 14700 M 0 -66 R D 13347 14700 M 0 -66 R D
13469 14700 M 0 -66 R D 13592 14700 M 0 -66 R D 13837 14700 M 0 -66 R D
13960 14700 M 0 -66 R D 14083 14700 M 0 -66 R D 14205 14700 M 0 -66 R D
14328 14700 M 0 -66 R D 14451 14700 M 0 -66 R D 14573 14700 M 0 -66 R D
14696 14700 M 0 -66 R D 14819 14700 M 0 -66 R D 15064 14700 M 0 -66 R D
15187 14700 M 0 -66 R D 15309 14700 M 0 -66 R D 15432 14700 M 0 -66 R D
15555 14700 M 0 -66 R D 15677 14700 M 0 -66 R D 15800 14700 M 0 -66 R D
15923 14700 M 0 -66 R D 16045 14700 M 0 -66 R D 16291 14700 M 0 -66 R D
16413 14700 M 0 -66 R D 16536 14700 M 0 -66 R D 16659 14700 M 0 -66 R D
16781 14700 M 0 -66 R D 16904 14700 M 0 -66 R D 17027 14700 M 0 -66 R D
17149 14700 M 0 -66 R D 17272 14700 M 0 -66 R D 17518 14700 M 0 -66 R D
17640 14700 M 0 -66 R D 12500 10269 M 0 4431 R D 12500 10671 M 154 0 R D
gsave 12389 10530 translate 0 0 M -117.687 0 N
( ) show grestore 12500 11477 M 154 0 R D gsave 12389 11336 translate 0 0 M
-117.687 0 N
( ) show grestore 12500 12283 M 154 0 R D gsave 12389 12142 translate 0 0 M
-117.687 0 N
( ) show grestore 12500 13089 M 154 0 R D gsave 12389 12949 translate 0 0 M
-117.687 0 N
( ) show grestore 12500 13896 M 154 0 R D gsave 12389 13755 translate 0 0 M
-117.687 0 N
( ) show grestore 12500 11074 M 77 0 R D 12500 11880 M 77 0 R D
12500 12686 M 77 0 R D 12500 13493 M 77 0 R D 12500 14299 M 77 0 R D
17640 10269 M 0 4431 R D 17640 10671 M -154 0 R D 17640 11477 M -154 0 R D
17640 12283 M -154 0 R D 17640 13089 M -154 0 R D 17640 13896 M -154 0 R D
17640 11074 M -77 0 R D 17640 11880 M -77 0 R D 17640 12686 M -77 0 R D
17640 13493 M -77 0 R D 17640 14299 M -77 0 R D
gsave 17395 14280 translate 0 0 M -1047.33 0 N
(z~1.0) show grestore 0.000 0.000 1.000 setrgbcolor 12500 10269 M 39 0 R
-39 0 R 39 0 R D 12682 10269 M 103 0 R -52 0 R -51 0 R 103 0 R D
12927 10269 M 103 0 R -51 0 R -52 0 R 103 0 R D 13172 10269 M 103 0 R
-51 0 R -52 0 R 103 0 R D 13418 10269 M 103 0 R -52 0 R -51 0 R 103 0 R D
13663 10269 M 103 0 R -51 0 R -52 0 R 103 0 R D 13909 10269 M 102 0 R
-51 0 R -51 0 R 102 0 R D 14154 10269 M 103 0 R -52 0 R -51 0 R 103 0 R D
14399 10269 M 103 0 R -51 0 R -52 0 R 103 0 R D 14645 10269 M 102 0 R
-51 0 R -51 0 R 102 0 R D 14890 10269 M 103 0 R -52 0 R -51 0 R 103 0 R D
15135 10269 M 103 0 R -51 0 R -52 0 R 103 0 R D 15381 10269 M 102 0 R
-51 0 R -51 0 R 102 0 R D 15626 10269 M 103 0 R -52 0 R -51 0 R 103 0 R D
15871 10269 M 103 0 R -51 0 R -52 0 R 103 0 R D 16117 10269 M 102 0 R
-51 0 R -51 0 R 102 0 R D 16362 10269 M 103 0 R -52 0 R -51 0 R 103 0 R D
16607 10269 M 103 0 R -51 0 R -52 0 R 103 0 R D 16853 10269 M 103 0 R
-52 0 R -51 0 R 103 0 R D 17098 10269 M 103 0 R -52 0 R -51 0 R 103 0 R D
17343 10269 M 103 0 R -51 0 R -52 0 R 103 0 R D
0.761 0.000 0.000 setrgbcolor 12500 14124 M 233 -58 R 246 -30 R 245 -41 R
245 -56 R 246 -19 R 245 -28 R 245 7 R 246 -4 R 245 2 R 245 -47 R 246 -139 R
245 -148 R 245 -180 R 246 -180 R 245 -268 R 245 -416 R 246 -324 R 245 -878 R
104 -1048 R D 12500 14106 M 39 0 R -39 0 R D 12500 14149 M 39 0 R D
12682 14042 M 103 0 R -52 0 R 0 47 R -51 0 R 103 0 R D 12927 14010 M 103 0 R
-51 0 R 0 53 R -52 0 R 103 0 R D 13172 13961 M 103 0 R -51 0 R 0 68 R
-52 0 R 103 0 R D 13418 13903 M 103 0 R -52 0 R 0 72 R -51 0 R 103 0 R D
13663 13878 M 103 0 R -51 0 R 0 85 R -52 0 R 103 0 R D 13909 13837 M 102 0 R
-51 0 R 0 111 R -51 0 R 102 0 R D 14154 13852 M 103 0 R -52 0 R 0 95 R
-51 0 R 103 0 R D 14399 13855 M 103 0 R -51 0 R 0 79 R -52 0 R 103 0 R D
14645 13865 M 102 0 R -51 0 R 0 63 R -51 0 R 102 0 R D 14890 13805 M 103 0 R
-52 0 R 0 89 R -51 0 R 103 0 R D 15135 13624 M 103 0 R -51 0 R 0 173 R
-52 0 R 103 0 R D 15381 13495 M 102 0 R -51 0 R 0 135 R -51 0 R 102 0 R D
15626 13309 M 103 0 R -52 0 R 0 149 R -51 0 R 103 0 R D 15871 13158 M
103 0 R -51 0 R 0 89 R -52 0 R 103 0 R D 16117 12791 M 102 0 R -51 0 R
0 289 R -51 0 R 102 0 R D 16362 12157 M 103 0 R -52 0 R 0 724 R -51 0 R
103 0 R D 16607 11316 M 103 0 R -51 0 R 0 1757 R -52 0 R 103 0 R D
16904 10269 M 0 2507 R -51 0 R 103 0 R D 17149 10269 M 0 223 R -51 0 R
103 0 R D 0.000 0.000 0.000 setrgbcolor 2220 5839 M 5140 0 R D 3434 5839 M
0 133 R D gsave 3434 5311 translate 0 0 M -58.8433 0 N
( ) show grestore 4661 5839 M 0 133 R D gsave 4661 5311 translate 0 0 M
-58.8433 0 N
( ) show grestore 5888 5839 M 0 133 R D gsave 5888 5311 translate 0 0 M
-58.8433 0 N
( ) show grestore 7115 5839 M 0 133 R D gsave 7115 5311 translate 0 0 M
-58.8433 0 N
( ) show grestore 2330 5839 M 0 66 R D 2453 5839 M 0 66 R D 2576 5839 M
0 66 R D 2698 5839 M 0 66 R D 2821 5839 M 0 66 R D 2944 5839 M 0 66 R D
3066 5839 M 0 66 R D 3189 5839 M 0 66 R D 3312 5839 M 0 66 R D 3557 5839 M
0 66 R D 3680 5839 M 0 66 R D 3803 5839 M 0 66 R D 3925 5839 M 0 66 R D
4048 5839 M 0 66 R D 4171 5839 M 0 66 R D 4293 5839 M 0 66 R D 4416 5839 M
0 66 R D 4539 5839 M 0 66 R D 4784 5839 M 0 66 R D 4907 5839 M 0 66 R D
5029 5839 M 0 66 R D 5152 5839 M 0 66 R D 5275 5839 M 0 66 R D 5397 5839 M
0 66 R D 5520 5839 M 0 66 R D 5643 5839 M 0 66 R D 5765 5839 M 0 66 R D
6011 5839 M 0 66 R D 6133 5839 M 0 66 R D 6256 5839 M 0 66 R D 6379 5839 M
0 66 R D 6501 5839 M 0 66 R D 6624 5839 M 0 66 R D 6747 5839 M 0 66 R D
6869 5839 M 0 66 R D 6992 5839 M 0 66 R D 7237 5839 M 0 66 R D 7360 5839 M
0 66 R D 2220 10269 M 5140 0 R D 3434 10269 M 0 -132 R D 4661 10269 M
0 -132 R D 5888 10269 M 0 -132 R D 7115 10269 M 0 -132 R D 2330 10269 M
0 -66 R D 2453 10269 M 0 -66 R D 2576 10269 M 0 -66 R D 2698 10269 M 0 -66 R
D 2821 10269 M 0 -66 R D 2944 10269 M 0 -66 R D 3066 10269 M 0 -66 R D
3189 10269 M 0 -66 R D 3312 10269 M 0 -66 R D 3557 10269 M 0 -66 R D
3680 10269 M 0 -66 R D 3803 10269 M 0 -66 R D 3925 10269 M 0 -66 R D
4048 10269 M 0 -66 R D 4171 10269 M 0 -66 R D 4293 10269 M 0 -66 R D
4416 10269 M 0 -66 R D 4539 10269 M 0 -66 R D 4784 10269 M 0 -66 R D
4907 10269 M 0 -66 R D 5029 10269 M 0 -66 R D 5152 10269 M 0 -66 R D
5275 10269 M 0 -66 R D 5397 10269 M 0 -66 R D 5520 10269 M 0 -66 R D
5643 10269 M 0 -66 R D 5765 10269 M 0 -66 R D 6011 10269 M 0 -66 R D
6133 10269 M 0 -66 R D 6256 10269 M 0 -66 R D 6379 10269 M 0 -66 R D
6501 10269 M 0 -66 R D 6624 10269 M 0 -66 R D 6747 10269 M 0 -66 R D
6869 10269 M 0 -66 R D 6992 10269 M 0 -66 R D 7237 10269 M 0 -66 R D
7360 10269 M 0 -66 R D 2220 5839 M 0 4430 R D 2220 6724 M 154 0 R D
gsave 2109 6583 translate 0 0 M -704.08 0 N
(10) show X 192.937 M
%%IncludeResource: font Helvetica
262.467 /Helvetica STDFONT
(-6) show grestore
%%IncludeResource: font Helvetica
423.333 /Helvetica STDFONT 2220 7611 M 154 0 R D
gsave 2109 7470 translate 0 0 M -704.08 0 N
(10) show X 192.937 M
%%IncludeResource: font Helvetica
262.467 /Helvetica STDFONT
(-4) show grestore
%%IncludeResource: font Helvetica
423.333 /Helvetica STDFONT 2220 8498 M 154 0 R D
gsave 2109 8357 translate 0 0 M -704.08 0 N
(10) show X 192.937 M
%%IncludeResource: font Helvetica
262.467 /Helvetica STDFONT
(-2) show grestore
%%IncludeResource: font Helvetica
423.333 /Helvetica STDFONT 2220 9384 M 154 0 R D
gsave 2109 9244 translate 0 0 M -616.678 0 N
(10) show X 192.937 M
%%IncludeResource: font Helvetica
262.467 /Helvetica STDFONT
(0) show grestore
%%IncludeResource: font Helvetica
423.333 /Helvetica STDFONT 2220 6280 M 77 0 R D 2220 7167 M 77 0 R D
2220 8054 M 77 0 R D 2220 8941 M 77 0 R D 2220 9828 M 77 0 R D 7360 5839 M
0 4430 R D 7360 6724 M -154 0 R D 7360 7611 M -154 0 R D 7360 8498 M
-154 0 R D 7360 9384 M -154 0 R D 7360 6280 M -77 0 R D 7360 7167 M -77 0 R
D 7360 8054 M -77 0 R D 7360 8941 M -77 0 R D 7360 9828 M -77 0 R D
0.000 0.000 1.000 setrgbcolor 2220 8740 M 233 -85 R 245 64 R 246 -107 R
245 57 R 245 -50 R 246 36 R 245 59 R 246 -27 R 245 33 R 245 -35 R 246 -61 R
245 -90 R 245 -123 R 246 -161 R 245 -217 R 245 -343 R 246 -436 R 245 -640 R
197 -776 R D 2220 8657 M 39 0 R -39 0 R D 2220 8833 M 39 0 R D 2402 8480 M
102 0 R -51 0 R 0 351 R -51 0 R 102 0 R D 2647 8584 M 103 0 R -52 0 R
0 270 R -51 0 R 103 0 R D 2892 8488 M 103 0 R -51 0 R 0 248 R -52 0 R
103 0 R D 3138 8553 M 103 0 R -52 0 R 0 231 R -51 0 R 103 0 R D 3383 8507 M
103 0 R -52 0 R 0 224 R -51 0 R 103 0 R D 3628 8547 M 103 0 R -51 0 R
0 216 R -52 0 R 103 0 R D 3874 8595 M 103 0 R -52 0 R 0 238 R -51 0 R
103 0 R D 4119 8561 M 103 0 R -51 0 R 0 253 R -52 0 R 103 0 R D 4364 8615 M
103 0 R -51 0 R 0 209 R -52 0 R 103 0 R D 4610 8538 M 103 0 R -52 0 R
0 294 R -51 0 R 103 0 R D 4855 8537 M 103 0 R -51 0 R 0 174 R -52 0 R
103 0 R D 5101 8452 M 102 0 R -51 0 R 0 164 R -51 0 R 102 0 R D 5346 8363 M
103 0 R -52 0 R 0 95 R -51 0 R 103 0 R D 5591 8170 M 103 0 R -51 0 R 0 160 R
-52 0 R 103 0 R D 5837 7927 M 102 0 R -51 0 R 0 211 R -51 0 R 102 0 R D
6082 7690 M 103 0 R -52 0 R -51 0 R 103 0 R D 6327 7254 M 103 0 R -51 0 R
-52 0 R 103 0 R D 6573 6614 M 102 0 R -51 0 R -51 0 R 102 0 R D
0.761 0.000 0.000 setrgbcolor 2220 9599 M 233 -31 R 245 -46 R 246 -51 R
245 -50 R 245 -36 R 246 -49 R 245 -20 R 246 -19 R 245 -26 R 245 -15 R
246 -66 R 245 -99 R 245 -254 R 246 -396 R 245 -102 R 245 -377 R 246 -590 R
245 -758 R 197 -776 R D 2220 9566 M 39 0 R -39 0 R D 2220 9635 M 39 0 R D
2402 9534 M 102 0 R -51 0 R 0 67 R -51 0 R 102 0 R D 2647 9489 M 103 0 R
-52 0 R 0 65 R -51 0 R 103 0 R D 2892 9437 M 103 0 R -51 0 R 0 67 R -52 0 R
103 0 R D 3138 9376 M 103 0 R -52 0 R 0 91 R -51 0 R 103 0 R D 3383 9348 M
103 0 R -52 0 R 0 75 R -51 0 R 103 0 R D 3628 9301 M 103 0 R -51 0 R 0 70 R
-52 0 R 103 0 R D 3874 9275 M 103 0 R -52 0 R 0 82 R -51 0 R 103 0 R D
4119 9254 M 103 0 R -51 0 R 0 87 R -52 0 R 103 0 R D 4364 9244 M 103 0 R
-51 0 R 0 55 R -52 0 R 103 0 R D 4610 9209 M 103 0 R -52 0 R 0 95 R -51 0 R
103 0 R D 4855 9134 M 103 0 R -51 0 R 0 113 R -52 0 R 103 0 R D 5101 9025 M
102 0 R -51 0 R 0 132 R -51 0 R 102 0 R D 5346 8724 M 103 0 R -52 0 R
0 225 R -51 0 R 103 0 R D 5591 8183 M 103 0 R -51 0 R 0 517 R -52 0 R
103 0 R D 5837 8010 M 102 0 R -51 0 R 0 657 R -51 0 R 102 0 R D 6082 7552 M
103 0 R -52 0 R 0 820 R -51 0 R 103 0 R D 6327 7018 M 103 0 R -51 0 R
0 707 R -52 0 R 103 0 R D 6573 6614 M 102 0 R -51 0 R -51 0 R 102 0 R D
0.000 0.000 0.000 setrgbcolor 7360 5839 M 5140 0 R D 8575 5839 M 0 133 R D
gsave 8575 5311 translate 0 0 M -58.8433 0 N
( ) show grestore 9801 5839 M 0 133 R D gsave 9801 5311 translate 0 0 M
-58.8433 0 N
( ) show grestore 11028 5839 M 0 133 R D gsave 11028 5311 translate 0 0 M
-58.8433 0 N
( ) show grestore 12255 5839 M 0 133 R D gsave 12255 5311 translate 0 0 M
-58.8433 0 N
( ) show grestore 7470 5839 M 0 66 R D 7593 5839 M 0 66 R D 7716 5839 M
0 66 R D 7838 5839 M 0 66 R D 7961 5839 M 0 66 R D 8084 5839 M 0 66 R D
8207 5839 M 0 66 R D 8329 5839 M 0 66 R D 8452 5839 M 0 66 R D 8697 5839 M
0 66 R D 8820 5839 M 0 66 R D 8943 5839 M 0 66 R D 9065 5839 M 0 66 R D
9188 5839 M 0 66 R D 9311 5839 M 0 66 R D 9433 5839 M 0 66 R D 9556 5839 M
0 66 R D 9679 5839 M 0 66 R D 9924 5839 M 0 66 R D 10047 5839 M 0 66 R D
10169 5839 M 0 66 R D 10292 5839 M 0 66 R D 10415 5839 M 0 66 R D
10537 5839 M 0 66 R D 10660 5839 M 0 66 R D 10783 5839 M 0 66 R D
10905 5839 M 0 66 R D 11151 5839 M 0 66 R D 11273 5839 M 0 66 R D
11396 5839 M 0 66 R D 11519 5839 M 0 66 R D 11641 5839 M 0 66 R D
11764 5839 M 0 66 R D 11887 5839 M 0 66 R D 12009 5839 M 0 66 R D
12132 5839 M 0 66 R D 12377 5839 M 0 66 R D 12500 5839 M 0 66 R D
7360 10269 M 5140 0 R D 8575 10269 M 0 -132 R D 9801 10269 M 0 -132 R D
11028 10269 M 0 -132 R D 12255 10269 M 0 -132 R D 7470 10269 M 0 -66 R D
7593 10269 M 0 -66 R D 7716 10269 M 0 -66 R D 7838 10269 M 0 -66 R D
7961 10269 M 0 -66 R D 8084 10269 M 0 -66 R D 8207 10269 M 0 -66 R D
8329 10269 M 0 -66 R D 8452 10269 M 0 -66 R D 8697 10269 M 0 -66 R D
8820 10269 M 0 -66 R D 8943 10269 M 0 -66 R D 9065 10269 M 0 -66 R D
9188 10269 M 0 -66 R D 9311 10269 M 0 -66 R D 9433 10269 M 0 -66 R D
9556 10269 M 0 -66 R D 9679 10269 M 0 -66 R D 9924 10269 M 0 -66 R D
10047 10269 M 0 -66 R D 10169 10269 M 0 -66 R D 10292 10269 M 0 -66 R D
10415 10269 M 0 -66 R D 10537 10269 M 0 -66 R D 10660 10269 M 0 -66 R D
10783 10269 M 0 -66 R D 10905 10269 M 0 -66 R D 11151 10269 M 0 -66 R D
11273 10269 M 0 -66 R D 11396 10269 M 0 -66 R D 11519 10269 M 0 -66 R D
11641 10269 M 0 -66 R D 11764 10269 M 0 -66 R D 11887 10269 M 0 -66 R D
12009 10269 M 0 -66 R D 12132 10269 M 0 -66 R D 12377 10269 M 0 -66 R D
12500 10269 M 0 -66 R D 7360 5839 M 0 4430 R D 7360 6724 M 154 0 R D
gsave 7249 6583 translate 0 0 M -117.687 0 N
( ) show grestore 7360 7611 M 154 0 R D gsave 7249 7470 translate 0 0 M
-117.687 0 N
( ) show grestore 7360 8498 M 154 0 R D gsave 7249 8357 translate 0 0 M
-117.687 0 N
( ) show grestore 7360 9384 M 154 0 R D gsave 7249 9244 translate 0 0 M
-117.687 0 N
( ) show grestore 7360 6280 M 77 0 R D 7360 7167 M 77 0 R D 7360 8054 M
77 0 R D 7360 8941 M 77 0 R D 7360 9828 M 77 0 R D 12500 5839 M 0 4430 R D
12500 6724 M -154 0 R D 12500 7611 M -154 0 R D 12500 8498 M -154 0 R D
12500 9384 M -154 0 R D 12500 6280 M -77 0 R D 12500 7167 M -77 0 R D
12500 8054 M -77 0 R D 12500 8941 M -77 0 R D 12500 9828 M -77 0 R D
0.000 0.000 1.000 setrgbcolor 7360 8879 M 233 -58 R 245 -1 R 246 -31 R
245 63 R 246 -139 R 245 16 R 245 89 R 246 12 R 245 71 R 245 -47 R 246 -149 R
245 -142 R 245 -72 R 246 -267 R 245 -227 R 245 -307 R 246 -436 R 245 -640 R
197 -776 R D 7360 8712 M 39 0 R -39 0 R D 7360 9055 M 39 0 R D 7542 8669 M
103 0 R -52 0 R 0 304 R -51 0 R 103 0 R D 7787 8716 M 103 0 R -52 0 R
0 207 R -51 0 R 103 0 R D 8032 8672 M 103 0 R -51 0 R 0 234 R -52 0 R
103 0 R D 8278 8720 M 103 0 R -52 0 R 0 265 R -51 0 R 103 0 R D 8523 8581 M
103 0 R -51 0 R 0 264 R -52 0 R 103 0 R D 8768 8577 M 103 0 R -51 0 R
0 304 R -52 0 R 103 0 R D 9014 8629 M 103 0 R -52 0 R 0 379 R -51 0 R
103 0 R D 9259 8685 M 103 0 R -51 0 R 0 291 R -52 0 R 103 0 R D 9505 8769 M
102 0 R -51 0 R 0 264 R -51 0 R 102 0 R D 9750 8670 M 103 0 R -52 0 R
0 368 R -51 0 R 103 0 R D 9995 8565 M 103 0 R -51 0 R 0 280 R -52 0 R
103 0 R D 10241 8451 M 102 0 R -51 0 R 0 223 R -51 0 R 102 0 R D
10486 8346 M 103 0 R -52 0 R 0 290 R -51 0 R 103 0 R D 10731 8224 M 103 0 R
-51 0 R -52 0 R 103 0 R D 10977 7997 M 102 0 R -51 0 R -51 0 R 102 0 R D
11222 7690 M 103 0 R -52 0 R -51 0 R 103 0 R D 11467 7254 M 103 0 R -51 0 R
-52 0 R 103 0 R D 11713 6614 M 102 0 R -51 0 R -51 0 R 102 0 R D
0.761 0.000 0.000 setrgbcolor 7360 9746 M 233 -45 R 245 -42 R 246 -53 R
245 -36 R 246 -46 R 245 -51 R 245 -1 R 246 -25 R 245 -9 R 245 -23 R
246 -76 R 245 -161 R 245 -271 R 246 -311 R 245 2 R 245 -465 R 246 -559 R
245 -725 R 245 -863 R 20 -148 R D 7360 9677 M 39 0 R -39 0 R D 7360 9822 M
39 0 R D 7542 9631 M 103 0 R -52 0 R 0 141 R -51 0 R 103 0 R D 7787 9587 M
103 0 R -52 0 R 0 143 R -51 0 R 103 0 R D 8032 9532 M 103 0 R -51 0 R
0 147 R -52 0 R 103 0 R D 8278 9508 M 103 0 R -52 0 R 0 124 R -51 0 R
103 0 R D 8523 9457 M 103 0 R -51 0 R 0 134 R -52 0 R 103 0 R D 8768 9395 M
103 0 R -51 0 R 0 155 R -52 0 R 103 0 R D 9014 9394 M 103 0 R -52 0 R
0 156 R -51 0 R 103 0 R D 9259 9386 M 103 0 R -51 0 R 0 123 R -52 0 R
103 0 R D 9505 9350 M 102 0 R -51 0 R 0 176 R -51 0 R 102 0 R D 9750 9354 M
103 0 R -52 0 R 0 123 R -51 0 R 103 0 R D 9995 9279 M 103 0 R -51 0 R
0 119 R -52 0 R 103 0 R D 10241 9080 M 102 0 R -51 0 R 0 195 R -51 0 R
102 0 R D 10486 8797 M 103 0 R -52 0 R 0 219 R -51 0 R 103 0 R D
10731 8293 M 103 0 R -51 0 R 0 606 R -52 0 R 103 0 R D 10977 8250 M 102 0 R
-51 0 R 0 696 R -51 0 R 102 0 R D 11222 7606 M 103 0 R -52 0 R 0 1054 R
-51 0 R 103 0 R D 11467 6939 M 103 0 R -51 0 R 0 1270 R -52 0 R 103 0 R D
11713 6145 M 102 0 R -51 0 R 0 1408 R -51 0 R 102 0 R D 12009 5838 M
0 1151 R -51 0 R 103 0 R D 0.000 0.000 0.000 setrgbcolor 12500 5839 M
5140 0 R D 13715 5839 M 0 133 R D gsave 13715 5311 translate 0 0 M
-58.8433 0 N
( ) show grestore 14941 5839 M 0 133 R D gsave 14941 5311 translate 0 0 M
-58.8433 0 N
( ) show grestore 16168 5839 M 0 133 R D gsave 16168 5311 translate 0 0 M
-58.8433 0 N
( ) show grestore 17395 5839 M 0 133 R D gsave 17395 5311 translate 0 0 M
-58.8433 0 N
( ) show grestore 12611 5839 M 0 66 R D 12733 5839 M 0 66 R D 12856 5839 M
0 66 R D 12979 5839 M 0 66 R D 13101 5839 M 0 66 R D 13224 5839 M 0 66 R D
13347 5839 M 0 66 R D 13469 5839 M 0 66 R D 13592 5839 M 0 66 R D
13837 5839 M 0 66 R D 13960 5839 M 0 66 R D 14083 5839 M 0 66 R D
14205 5839 M 0 66 R D 14328 5839 M 0 66 R D 14451 5839 M 0 66 R D
14573 5839 M 0 66 R D 14696 5839 M 0 66 R D 14819 5839 M 0 66 R D
15064 5839 M 0 66 R D 15187 5839 M 0 66 R D 15309 5839 M 0 66 R D
15432 5839 M 0 66 R D 15555 5839 M 0 66 R D 15677 5839 M 0 66 R D
15800 5839 M 0 66 R D 15923 5839 M 0 66 R D 16045 5839 M 0 66 R D
16291 5839 M 0 66 R D 16413 5839 M 0 66 R D 16536 5839 M 0 66 R D
16659 5839 M 0 66 R D 16781 5839 M 0 66 R D 16904 5839 M 0 66 R D
17027 5839 M 0 66 R D 17149 5839 M 0 66 R D 17272 5839 M 0 66 R D
17518 5839 M 0 66 R D 17640 5839 M 0 66 R D 12500 10269 M 5140 0 R D
13715 10269 M 0 -132 R D 14941 10269 M 0 -132 R D 16168 10269 M 0 -132 R D
17395 10269 M 0 -132 R D 12611 10269 M 0 -66 R D 12733 10269 M 0 -66 R D
12856 10269 M 0 -66 R D 12979 10269 M 0 -66 R D 13101 10269 M 0 -66 R D
13224 10269 M 0 -66 R D 13347 10269 M 0 -66 R D 13469 10269 M 0 -66 R D
13592 10269 M 0 -66 R D 13837 10269 M 0 -66 R D 13960 10269 M 0 -66 R D
14083 10269 M 0 -66 R D 14205 10269 M 0 -66 R D 14328 10269 M 0 -66 R D
14451 10269 M 0 -66 R D 14573 10269 M 0 -66 R D 14696 10269 M 0 -66 R D
14819 10269 M 0 -66 R D 15064 10269 M 0 -66 R D 15187 10269 M 0 -66 R D
15309 10269 M 0 -66 R D 15432 10269 M 0 -66 R D 15555 10269 M 0 -66 R D
15677 10269 M 0 -66 R D 15800 10269 M 0 -66 R D 15923 10269 M 0 -66 R D
16045 10269 M 0 -66 R D 16291 10269 M 0 -66 R D 16413 10269 M 0 -66 R D
16536 10269 M 0 -66 R D 16659 10269 M 0 -66 R D 16781 10269 M 0 -66 R D
16904 10269 M 0 -66 R D 17027 10269 M 0 -66 R D 17149 10269 M 0 -66 R D
17272 10269 M 0 -66 R D 17518 10269 M 0 -66 R D 17640 10269 M 0 -66 R D
12500 5839 M 0 4430 R D 12500 6724 M 154 0 R D
gsave 12389 6583 translate 0 0 M -117.687 0 N
( ) show grestore 12500 7611 M 154 0 R D gsave 12389 7470 translate 0 0 M
-117.687 0 N
( ) show grestore 12500 8498 M 154 0 R D gsave 12389 8357 translate 0 0 M
-117.687 0 N
( ) show grestore 12500 9384 M 154 0 R D gsave 12389 9244 translate 0 0 M
-117.687 0 N
( ) show grestore 12500 6280 M 77 0 R D 12500 7167 M 77 0 R D 12500 8054 M
77 0 R D 12500 8941 M 77 0 R D 12500 9828 M 77 0 R D 17640 5839 M 0 4430 R D
17640 6724 M -154 0 R D 17640 7611 M -154 0 R D 17640 8498 M -154 0 R D
17640 9384 M -154 0 R D 17640 6280 M -77 0 R D 17640 7167 M -77 0 R D
17640 8054 M -77 0 R D 17640 8941 M -77 0 R D 17640 9828 M -77 0 R D
0.000 0.000 1.000 setrgbcolor 12500 8990 M 233 -49 R 246 -40 R 245 -17 R
245 -122 R 246 97 R 245 -58 R 245 152 R 246 -129 R 245 -1 R 245 -85 R
246 -76 R 245 -72 R 245 -107 R 246 -259 R 245 -227 R 245 -307 R 246 -436 R
245 -640 R 197 -776 R D 12500 8770 M 39 0 R -39 0 R D 12500 9217 M 39 0 R D
12682 8765 M 103 0 R -52 0 R 0 353 R -51 0 R 103 0 R D 12927 8787 M 103 0 R
-51 0 R 0 229 R -52 0 R 103 0 R D 13172 8721 M 103 0 R -51 0 R 0 327 R
-52 0 R 103 0 R D 13418 8719 M 103 0 R -52 0 R 0 87 R -51 0 R 103 0 R D
13663 8672 M 103 0 R -51 0 R 0 375 R -52 0 R 103 0 R D 13909 8648 M 102 0 R
-51 0 R 0 306 R -51 0 R 102 0 R D 14154 8705 M 103 0 R -52 0 R 0 495 R
-51 0 R 103 0 R D 14399 8562 M 103 0 R -51 0 R 0 524 R -52 0 R 103 0 R D
14645 8581 M 102 0 R -51 0 R 0 485 R -51 0 R 102 0 R D 14890 8479 M 103 0 R
-52 0 R 0 518 R -51 0 R 103 0 R D 15135 8455 M 103 0 R -51 0 R 0 413 R
-52 0 R 103 0 R D 15381 8410 M 102 0 R -51 0 R 0 361 R -51 0 R 102 0 R D
15626 8217 M 103 0 R -52 0 R 0 532 R -51 0 R 103 0 R D 15871 8224 M 103 0 R
-51 0 R -52 0 R 103 0 R D 16117 7997 M 102 0 R -51 0 R -51 0 R 102 0 R D
16362 7690 M 103 0 R -52 0 R -51 0 R 103 0 R D 16607 7254 M 103 0 R -51 0 R
-52 0 R 103 0 R D 16853 6614 M 103 0 R -52 0 R -51 0 R 103 0 R D
0.761 0.000 0.000 setrgbcolor 12500 9896 M 233 -56 R 246 -49 R 245 -48 R
245 -36 R 246 -57 R 245 -23 R 245 -8 R 246 -3 R 245 -6 R 245 -43 R
246 -121 R 245 -372 R 245 -140 R 246 -534 R 245 -156 R 245 -437 R 246 -553 R
245 -640 R 197 -776 R D 12500 9821 M 39 0 R -39 0 R D 12500 9978 M 39 0 R D
12682 9760 M 103 0 R -52 0 R 0 160 R -51 0 R 103 0 R D 12927 9703 M 103 0 R
-51 0 R 0 177 R -52 0 R 103 0 R D 13172 9665 M 103 0 R -51 0 R 0 157 R
-52 0 R 103 0 R D 13418 9635 M 103 0 R -52 0 R 0 143 R -51 0 R 103 0 R D
13663 9556 M 103 0 R -51 0 R 0 189 R -52 0 R 103 0 R D 13909 9552 M 102 0 R
-51 0 R 0 151 R -51 0 R 102 0 R D 14154 9533 M 103 0 R -52 0 R 0 172 R
-51 0 R 103 0 R D 14399 9531 M 103 0 R -51 0 R 0 170 R -52 0 R 103 0 R D
14645 9512 M 102 0 R -51 0 R 0 196 R -51 0 R 102 0 R D 14890 9470 M 103 0 R
-52 0 R 0 194 R -51 0 R 103 0 R D 15135 9344 M 103 0 R -51 0 R 0 203 R
-52 0 R 103 0 R D 15381 8739 M 102 0 R -51 0 R 0 670 R -51 0 R 102 0 R D
15626 8609 M 103 0 R -52 0 R 0 651 R -51 0 R 103 0 R D 15871 8043 M 103 0 R
-51 0 R 0 714 R -52 0 R 103 0 R D 16117 7752 M 102 0 R -51 0 R 0 984 R
-51 0 R 102 0 R D 16362 7455 M 103 0 R -52 0 R 0 703 R -51 0 R 103 0 R D
16607 7254 M 103 0 R -51 0 R -52 0 R 103 0 R D 16853 6614 M 103 0 R -52 0 R
-51 0 R 103 0 R D 0.000 0.000 0.000 setrgbcolor 2220 1408 M 5140 0 R D
3434 1408 M 0 133 R D gsave 3434 880 translate 0 0 M -117.687 0 N
(9) show grestore 4661 1408 M 0 133 R D gsave 4661 880 translate 0 0 M
-235.373 0 N
(10) show grestore 5888 1408 M 0 133 R D gsave 5888 880 translate 0 0 M
-235.373 0 N
(11) show grestore 7115 1408 M 0 133 R D gsave 7115 880 translate 0 0 M
-235.373 0 N
(12) show grestore 2330 1408 M 0 66 R D 2453 1408 M 0 66 R D 2576 1408 M
0 66 R D 2698 1408 M 0 66 R D 2821 1408 M 0 66 R D 2944 1408 M 0 66 R D
3066 1408 M 0 66 R D 3189 1408 M 0 66 R D 3312 1408 M 0 66 R D 3557 1408 M
0 66 R D 3680 1408 M 0 66 R D 3803 1408 M 0 66 R D 3925 1408 M 0 66 R D
4048 1408 M 0 66 R D 4171 1408 M 0 66 R D 4293 1408 M 0 66 R D 4416 1408 M
0 66 R D 4539 1408 M 0 66 R D 4784 1408 M 0 66 R D 4907 1408 M 0 66 R D
5029 1408 M 0 66 R D 5152 1408 M 0 66 R D 5275 1408 M 0 66 R D 5397 1408 M
0 66 R D 5520 1408 M 0 66 R D 5643 1408 M 0 66 R D 5765 1408 M 0 66 R D
6011 1408 M 0 66 R D 6133 1408 M 0 66 R D 6256 1408 M 0 66 R D 6379 1408 M
0 66 R D 6501 1408 M 0 66 R D 6624 1408 M 0 66 R D 6747 1408 M 0 66 R D
6869 1408 M 0 66 R D 6992 1408 M 0 66 R D 7237 1408 M 0 66 R D 7360 1408 M
0 66 R D 2220 5839 M 5140 0 R D 3434 5839 M 0 -133 R D 4661 5839 M 0 -133 R
D 5888 5839 M 0 -133 R D 7115 5839 M 0 -133 R D 2330 5839 M 0 -67 R D
2453 5839 M 0 -67 R D 2576 5839 M 0 -67 R D 2698 5839 M 0 -67 R D
2821 5839 M 0 -67 R D 2944 5839 M 0 -67 R D 3066 5839 M 0 -67 R D
3189 5839 M 0 -67 R D 3312 5839 M 0 -67 R D 3557 5839 M 0 -67 R D
3680 5839 M 0 -67 R D 3803 5839 M 0 -67 R D 3925 5839 M 0 -67 R D
4048 5839 M 0 -67 R D 4171 5839 M 0 -67 R D 4293 5839 M 0 -67 R D
4416 5839 M 0 -67 R D 4539 5839 M 0 -67 R D 4784 5839 M 0 -67 R D
4907 5839 M 0 -67 R D 5029 5839 M 0 -67 R D 5152 5839 M 0 -67 R D
5275 5839 M 0 -67 R D 5397 5839 M 0 -67 R D 5520 5839 M 0 -67 R D
5643 5839 M 0 -67 R D 5765 5839 M 0 -67 R D 6011 5839 M 0 -67 R D
6133 5839 M 0 -67 R D 6256 5839 M 0 -67 R D 6379 5839 M 0 -67 R D
6501 5839 M 0 -67 R D 6624 5839 M 0 -67 R D 6747 5839 M 0 -67 R D
6869 5839 M 0 -67 R D 6992 5839 M 0 -67 R D 7237 5839 M 0 -67 R D
7360 5839 M 0 -67 R D 2220 1408 M 0 4431 R D 2220 1899 M 154 0 R D
gsave 2109 1758 translate 0 0 M -704.08 0 N
(10) show X 192.937 M
%%IncludeResource: font Helvetica
262.467 /Helvetica STDFONT
(-8) show grestore
%%IncludeResource: font Helvetica
423.333 /Helvetica STDFONT 2220 2884 M 154 0 R D
gsave 2109 2743 translate 0 0 M -704.08 0 N
(10) show X 192.937 M
%%IncludeResource: font Helvetica
262.467 /Helvetica STDFONT
(-6) show grestore
%%IncludeResource: font Helvetica
423.333 /Helvetica STDFONT 2220 3870 M 154 0 R D
gsave 2109 3729 translate 0 0 M -704.08 0 N
(10) show X 192.937 M
%%IncludeResource: font Helvetica
262.467 /Helvetica STDFONT
(-4) show grestore
%%IncludeResource: font Helvetica
423.333 /Helvetica STDFONT 2220 4855 M 154 0 R D
gsave 2109 4715 translate 0 0 M -704.08 0 N
(10) show X 192.937 M
%%IncludeResource: font Helvetica
262.467 /Helvetica STDFONT
(-2) show grestore
%%IncludeResource: font Helvetica
423.333 /Helvetica STDFONT 2220 2391 M 77 0 R D 2220 3377 M 77 0 R D
2220 4363 M 77 0 R D 2220 5348 M 77 0 R D 7360 1408 M 0 4431 R D 7360 1899 M
-154 0 R D 7360 2884 M -154 0 R D 7360 3870 M -154 0 R D 7360 4855 M
-154 0 R D 7360 2391 M -77 0 R D 7360 3377 M -77 0 R D 7360 4363 M -77 0 R D
7360 5348 M -77 0 R D 0.000 0.000 1.000 setrgbcolor 2220 4151 M 233 78 R
245 -94 R 246 -45 R 245 180 R 245 -204 R 246 -70 R 245 127 R 246 61 R
245 10 R 245 108 R 246 103 R 245 102 R 245 140 R 246 -173 R 245 -175 R
245 -341 R 246 -485 R 245 -710 R 245 -1070 R 42 -285 R D 2220 4033 M 39 0 R
-39 0 R D 2220 4263 M 39 0 R D 2402 3860 M 102 0 R -51 0 R 0 739 R -51 0 R
102 0 R D 2647 4073 M 103 0 R -52 0 R 0 124 R -51 0 R 103 0 R D 2892 3975 M
103 0 R -51 0 R 0 230 R -52 0 R 103 0 R D 3138 3769 M 103 0 R -52 0 R
0 1003 R -51 0 R 103 0 R D 3383 3654 M 103 0 R -52 0 R 0 823 R -51 0 R
103 0 R D 3628 3816 M 103 0 R -51 0 R 0 360 R -52 0 R 103 0 R D 3874 3976 M
103 0 R -52 0 R 0 293 R -51 0 R 103 0 R D 4119 4097 M 103 0 R -51 0 R
0 174 R -52 0 R 103 0 R D 4364 4099 M 103 0 R -51 0 R 0 190 R -52 0 R
103 0 R D 4610 3880 M 103 0 R -52 0 R 0 843 R -51 0 R 103 0 R D 4855 3895 M
103 0 R -51 0 R 0 1020 R -52 0 R 103 0 R D 5101 3959 M 102 0 R -51 0 R
0 1096 R -51 0 R 102 0 R D 5346 4365 M 103 0 R -52 0 R 0 564 R -51 0 R
103 0 R D 5591 4241 M 103 0 R -51 0 R 0 465 R -52 0 R 103 0 R D 5837 4299 M
102 0 R -51 0 R -51 0 R 102 0 R D 6082 3958 M 103 0 R -52 0 R -51 0 R
103 0 R D 6327 3473 M 103 0 R -51 0 R -52 0 R 103 0 R D 6573 2763 M 102 0 R
-51 0 R -51 0 R 102 0 R D 6818 1693 M 103 0 R -52 0 R -51 0 R 103 0 R D
0.761 0.000 0.000 setrgbcolor 2220 5104 M 233 -51 R 245 -36 R 246 -56 R
245 -61 R 245 -49 R 246 -47 R 245 -18 R 246 -21 R 245 -23 R 245 -33 R
246 -45 R 245 -112 R 245 -230 R 246 -243 R 245 -64 R 245 -88 R 246 -334 R
245 -495 R 245 -692 R 221 -998 R D 2220 5048 M 39 0 R -39 0 R D 2220 5166 M
39 0 R D 2402 4988 M 102 0 R -51 0 R 0 129 R -51 0 R 102 0 R D 2647 4957 M
103 0 R -52 0 R 0 121 R -51 0 R 103 0 R D 2892 4900 M 103 0 R -51 0 R
0 122 R -52 0 R 103 0 R D 3138 4845 M 103 0 R -52 0 R 0 110 R -51 0 R
103 0 R D 3383 4789 M 103 0 R -52 0 R 0 124 R -51 0 R 103 0 R D 3628 4734 M
103 0 R -51 0 R 0 141 R -52 0 R 103 0 R D 3874 4693 M 103 0 R -52 0 R
0 185 R -51 0 R 103 0 R D 4119 4698 M 103 0 R -51 0 R 0 134 R -52 0 R
103 0 R D 4364 4676 M 103 0 R -51 0 R 0 132 R -52 0 R 103 0 R D 4610 4651 M
103 0 R -52 0 R 0 115 R -51 0 R 103 0 R D 4855 4593 M 103 0 R -51 0 R
0 142 R -52 0 R 103 0 R D 5101 4478 M 102 0 R -51 0 R 0 148 R -51 0 R
102 0 R D 5346 4218 M 103 0 R -52 0 R 0 209 R -51 0 R 103 0 R D 5591 3941 M
103 0 R -51 0 R 0 275 R -52 0 R 103 0 R D 5837 3853 M 102 0 R -51 0 R
0 323 R -51 0 R 102 0 R D 6082 3879 M 103 0 R -52 0 R 0 96 R -51 0 R 103 0 R
D 6327 3405 M 103 0 R -51 0 R 0 376 R -52 0 R 103 0 R D 6573 2594 M 102 0 R
-51 0 R 0 1008 R -51 0 R 102 0 R D 6869 1408 M 0 2067 R -51 0 R 103 0 R D
7115 1408 M 0 1756 R -52 0 R 103 0 R D 0.000 0.000 0.000 setrgbcolor
7360 1408 M 5140 0 R D 8575 1408 M 0 133 R D gsave 8575 880 translate 0 0 M
-117.687 0 N
(9) show grestore 9801 1408 M 0 133 R D gsave 9801 880 translate 0 0 M
-235.373 0 N
(10) show grestore 11028 1408 M 0 133 R D gsave 11028 880 translate 0 0 M
-235.373 0 N
(11) show grestore 12255 1408 M 0 133 R D gsave 12255 880 translate 0 0 M
-235.373 0 N
(12) show grestore 7470 1408 M 0 66 R D 7593 1408 M 0 66 R D 7716 1408 M
0 66 R D 7838 1408 M 0 66 R D 7961 1408 M 0 66 R D 8084 1408 M 0 66 R D
8207 1408 M 0 66 R D 8329 1408 M 0 66 R D 8452 1408 M 0 66 R D 8697 1408 M
0 66 R D 8820 1408 M 0 66 R D 8943 1408 M 0 66 R D 9065 1408 M 0 66 R D
9188 1408 M 0 66 R D 9311 1408 M 0 66 R D 9433 1408 M 0 66 R D 9556 1408 M
0 66 R D 9679 1408 M 0 66 R D 9924 1408 M 0 66 R D 10047 1408 M 0 66 R D
10169 1408 M 0 66 R D 10292 1408 M 0 66 R D 10415 1408 M 0 66 R D
10537 1408 M 0 66 R D 10660 1408 M 0 66 R D 10783 1408 M 0 66 R D
10905 1408 M 0 66 R D 11151 1408 M 0 66 R D 11273 1408 M 0 66 R D
11396 1408 M 0 66 R D 11519 1408 M 0 66 R D 11641 1408 M 0 66 R D
11764 1408 M 0 66 R D 11887 1408 M 0 66 R D 12009 1408 M 0 66 R D
12132 1408 M 0 66 R D 12377 1408 M 0 66 R D 12500 1408 M 0 66 R D
7360 5839 M 5140 0 R D 8575 5839 M 0 -133 R D 9801 5839 M 0 -133 R D
11028 5839 M 0 -133 R D 12255 5839 M 0 -133 R D 7470 5839 M 0 -67 R D
7593 5839 M 0 -67 R D 7716 5839 M 0 -67 R D 7838 5839 M 0 -67 R D
7961 5839 M 0 -67 R D 8084 5839 M 0 -67 R D 8207 5839 M 0 -67 R D
8329 5839 M 0 -67 R D 8452 5839 M 0 -67 R D 8697 5839 M 0 -67 R D
8820 5839 M 0 -67 R D 8943 5839 M 0 -67 R D 9065 5839 M 0 -67 R D
9188 5839 M 0 -67 R D 9311 5839 M 0 -67 R D 9433 5839 M 0 -67 R D
9556 5839 M 0 -67 R D 9679 5839 M 0 -67 R D 9924 5839 M 0 -67 R D
10047 5839 M 0 -67 R D 10169 5839 M 0 -67 R D 10292 5839 M 0 -67 R D
10415 5839 M 0 -67 R D 10537 5839 M 0 -67 R D 10660 5839 M 0 -67 R D
10783 5839 M 0 -67 R D 10905 5839 M 0 -67 R D 11151 5839 M 0 -67 R D
11273 5839 M 0 -67 R D 11396 5839 M 0 -67 R D 11519 5839 M 0 -67 R D
11641 5839 M 0 -67 R D 11764 5839 M 0 -67 R D 11887 5839 M 0 -67 R D
12009 5839 M 0 -67 R D 12132 5839 M 0 -67 R D 12377 5839 M 0 -67 R D
12500 5839 M 0 -67 R D 7360 1408 M 0 4431 R D 7360 1899 M 154 0 R D
gsave 7249 1758 translate 0 0 M -117.687 0 N
( ) show grestore 7360 2884 M 154 0 R D gsave 7249 2743 translate 0 0 M
-117.687 0 N
( ) show grestore 7360 3870 M 154 0 R D gsave 7249 3729 translate 0 0 M
-117.687 0 N
( ) show grestore 7360 4855 M 154 0 R D gsave 7249 4715 translate 0 0 M
-117.687 0 N
( ) show grestore 7360 2391 M 77 0 R D 7360 3377 M 77 0 R D 7360 4363 M
77 0 R D 7360 5348 M 77 0 R D 12500 1408 M 0 4431 R D 12500 1899 M -154 0 R
D 12500 2884 M -154 0 R D 12500 3870 M -154 0 R D 12500 4855 M -154 0 R D
12500 2391 M -77 0 R D 12500 3377 M -77 0 R D 12500 4363 M -77 0 R D
12500 5348 M -77 0 R D 0.000 0.000 1.000 setrgbcolor 7360 4202 M 233 76 R
245 -131 R 246 -9 R 245 -117 R 246 146 R 245 -60 R 245 132 R 246 -68 R
245 71 R 245 -136 R 246 -83 R 245 472 R 245 -45 R 246 101 R 245 -252 R
245 -341 R 246 -485 R 245 -710 R 245 -1070 R 42 -285 R D 7360 4108 M 39 0 R
-39 0 R D 7360 4291 M 39 0 R D 7542 3913 M 103 0 R -52 0 R 0 731 R -51 0 R
103 0 R D 7787 4054 M 103 0 R -52 0 R 0 185 R -51 0 R 103 0 R D 8032 4007 M
103 0 R -51 0 R 0 262 R -52 0 R 103 0 R D 8278 3895 M 103 0 R -52 0 R
0 252 R -51 0 R 103 0 R D 8523 3800 M 103 0 R -51 0 R 0 733 R -52 0 R
103 0 R D 8768 3978 M 103 0 R -51 0 R 0 259 R -52 0 R 103 0 R D 9014 4134 M
103 0 R -52 0 R 0 211 R -51 0 R 103 0 R D 9259 4014 M 103 0 R -51 0 R
0 314 R -52 0 R 103 0 R D 9505 4124 M 102 0 R -51 0 R 0 236 R -51 0 R
102 0 R D 9750 3964 M 103 0 R -52 0 R 0 283 R -51 0 R 103 0 R D 9995 3669 M
103 0 R -51 0 R 0 707 R -52 0 R 103 0 R D 10241 3933 M 102 0 R -51 0 R
0 1123 R -51 0 R 102 0 R D 10486 4014 M 103 0 R -52 0 R 0 873 R -51 0 R
103 0 R D 10731 4551 M 103 0 R -51 0 R -52 0 R 103 0 R D 10977 4299 M
102 0 R -51 0 R -51 0 R 102 0 R D 11222 3958 M 103 0 R -52 0 R -51 0 R
103 0 R D 11467 3473 M 103 0 R -51 0 R -52 0 R 103 0 R D 11713 2763 M
102 0 R -51 0 R -51 0 R 102 0 R D 11958 1693 M 103 0 R -52 0 R -51 0 R
103 0 R D 0.761 0.000 0.000 setrgbcolor 7360 5180 M 233 -49 R 245 -46 R
246 -59 R 245 -57 R 246 -56 R 245 -24 R 245 -36 R 246 -26 R 245 -6 R
245 -32 R 246 -52 R 245 -156 R 245 -201 R 246 -223 R 245 -36 R 245 -211 R
246 -296 R 245 -744 R 245 -937 R 125 -525 R D 7360 5129 M 39 0 R -39 0 R D
7360 5237 M 39 0 R D 7542 5076 M 103 0 R -52 0 R 0 109 R -51 0 R 103 0 R D
7787 5033 M 103 0 R -52 0 R 0 105 R -51 0 R 103 0 R D 8032 4965 M 103 0 R
-51 0 R 0 122 R -52 0 R 103 0 R D 8278 4918 M 103 0 R -52 0 R 0 102 R
-51 0 R 103 0 R D 8523 4848 M 103 0 R -51 0 R 0 130 R -52 0 R 103 0 R D
8768 4828 M 103 0 R -51 0 R 0 122 R -52 0 R 103 0 R D 9014 4780 M 103 0 R
-52 0 R 0 145 R -51 0 R 103 0 R D 9259 4760 M 103 0 R -51 0 R 0 134 R
-52 0 R 103 0 R D 9505 4764 M 102 0 R -51 0 R 0 114 R -51 0 R 102 0 R D
9750 4726 M 103 0 R -52 0 R 0 127 R -51 0 R 103 0 R D 9995 4679 M 103 0 R
-51 0 R 0 117 R -52 0 R 103 0 R D 10241 4512 M 102 0 R -51 0 R 0 138 R
-51 0 R 102 0 R D 10486 4234 M 103 0 R -52 0 R 0 292 R -51 0 R 103 0 R D
10731 3951 M 103 0 R -51 0 R 0 413 R -52 0 R 103 0 R D 10977 3991 M 102 0 R
-51 0 R 0 260 R -51 0 R 102 0 R D 11222 3837 M 103 0 R -52 0 R 0 145 R
-51 0 R 103 0 R D 11467 3440 M 103 0 R -51 0 R 0 347 R -52 0 R 103 0 R D
11713 2547 M 102 0 R -51 0 R 0 647 R -51 0 R 102 0 R D 12009 1408 M 0 1245 R
-51 0 R 103 0 R D 12255 1408 M 0 1185 R -52 0 R 103 0 R D
0.000 0.000 0.000 setrgbcolor 12500 1408 M 5140 0 R D 13715 1408 M 0 133 R D
gsave 13715 880 translate 0 0 M -117.687 0 N
(9) show grestore 14941 1408 M 0 133 R D gsave 14941 880 translate 0 0 M
-235.373 0 N
(10) show grestore 16168 1408 M 0 133 R D gsave 16168 880 translate 0 0 M
-235.373 0 N
(11) show grestore 17395 1408 M 0 133 R D gsave 17395 880 translate 0 0 M
-235.373 0 N
(12) show grestore 12611 1408 M 0 66 R D 12733 1408 M 0 66 R D 12856 1408 M
0 66 R D 12979 1408 M 0 66 R D 13101 1408 M 0 66 R D 13224 1408 M 0 66 R D
13347 1408 M 0 66 R D 13469 1408 M 0 66 R D 13592 1408 M 0 66 R D
13837 1408 M 0 66 R D 13960 1408 M 0 66 R D 14083 1408 M 0 66 R D
14205 1408 M 0 66 R D 14328 1408 M 0 66 R D 14451 1408 M 0 66 R D
14573 1408 M 0 66 R D 14696 1408 M 0 66 R D 14819 1408 M 0 66 R D
15064 1408 M 0 66 R D 15187 1408 M 0 66 R D 15309 1408 M 0 66 R D
15432 1408 M 0 66 R D 15555 1408 M 0 66 R D 15677 1408 M 0 66 R D
15800 1408 M 0 66 R D 15923 1408 M 0 66 R D 16045 1408 M 0 66 R D
16291 1408 M 0 66 R D 16413 1408 M 0 66 R D 16536 1408 M 0 66 R D
16659 1408 M 0 66 R D 16781 1408 M 0 66 R D 16904 1408 M 0 66 R D
17027 1408 M 0 66 R D 17149 1408 M 0 66 R D 17272 1408 M 0 66 R D
17518 1408 M 0 66 R D 17640 1408 M 0 66 R D 12500 5839 M 5140 0 R D
13715 5839 M 0 -133 R D 14941 5839 M 0 -133 R D 16168 5839 M 0 -133 R D
17395 5839 M 0 -133 R D 12611 5839 M 0 -67 R D 12733 5839 M 0 -67 R D
12856 5839 M 0 -67 R D 12979 5839 M 0 -67 R D 13101 5839 M 0 -67 R D
13224 5839 M 0 -67 R D 13347 5839 M 0 -67 R D 13469 5839 M 0 -67 R D
13592 5839 M 0 -67 R D 13837 5839 M 0 -67 R D 13960 5839 M 0 -67 R D
14083 5839 M 0 -67 R D 14205 5839 M 0 -67 R D 14328 5839 M 0 -67 R D
14451 5839 M 0 -67 R D 14573 5839 M 0 -67 R D 14696 5839 M 0 -67 R D
14819 5839 M 0 -67 R D 15064 5839 M 0 -67 R D 15187 5839 M 0 -67 R D
15309 5839 M 0 -67 R D 15432 5839 M 0 -67 R D 15555 5839 M 0 -67 R D
15677 5839 M 0 -67 R D 15800 5839 M 0 -67 R D 15923 5839 M 0 -67 R D
16045 5839 M 0 -67 R D 16291 5839 M 0 -67 R D 16413 5839 M 0 -67 R D
16536 5839 M 0 -67 R D 16659 5839 M 0 -67 R D 16781 5839 M 0 -67 R D
16904 5839 M 0 -67 R D 17027 5839 M 0 -67 R D 17149 5839 M 0 -67 R D
17272 5839 M 0 -67 R D 17518 5839 M 0 -67 R D 17640 5839 M 0 -67 R D
12500 1408 M 0 4431 R D 12500 1899 M 154 0 R D
gsave 12389 1758 translate 0 0 M -117.687 0 N
( ) show grestore 12500 2884 M 154 0 R D gsave 12389 2743 translate 0 0 M
-117.687 0 N
( ) show grestore 12500 3870 M 154 0 R D gsave 12389 3729 translate 0 0 M
-117.687 0 N
( ) show grestore 12500 4855 M 154 0 R D gsave 12389 4715 translate 0 0 M
-117.687 0 N
( ) show grestore 12500 2391 M 77 0 R D 12500 3377 M 77 0 R D 12500 4363 M
77 0 R D 12500 5348 M 77 0 R D 17640 1408 M 0 4431 R D 17640 1899 M -154 0 R
D 17640 2884 M -154 0 R D 17640 3870 M -154 0 R D 17640 4855 M -154 0 R D
17640 2391 M -77 0 R D 17640 3377 M -77 0 R D 17640 4363 M -77 0 R D
17640 5348 M -77 0 R D 0.000 0.000 1.000 setrgbcolor 12500 4289 M 233 -98 R
246 30 R 245 -103 R 245 22 R 246 -62 R 245 61 R 245 40 R 246 -59 R 245 136 R
245 -169 R 246 236 R 245 60 R 245 358 R 246 -298 R 245 -223 R 245 -262 R
246 -485 R 245 -710 R 245 -1070 R 42 -285 R D 12500 4211 M 39 0 R -39 0 R D
12500 4378 M 39 0 R D 12682 4104 M 103 0 R -52 0 R 0 175 R -51 0 R 103 0 R D
12927 4110 M 103 0 R -51 0 R 0 222 R -52 0 R 103 0 R D 13172 3990 M 103 0 R
-51 0 R 0 256 R -52 0 R 103 0 R D 13418 4043 M 103 0 R -52 0 R 0 193 R
-51 0 R 103 0 R D 13663 3922 M 103 0 R -51 0 R 0 311 R -52 0 R 103 0 R D
13909 3996 M 102 0 R -51 0 R 0 285 R -51 0 R 102 0 R D 14154 4015 M 103 0 R
-52 0 R 0 328 R -51 0 R 103 0 R D 14399 3968 M 103 0 R -51 0 R 0 303 R
-52 0 R 103 0 R D 14645 3961 M 102 0 R -51 0 R 0 590 R -51 0 R 102 0 R D
14890 3999 M 103 0 R -52 0 R 0 175 R -51 0 R 103 0 R D 15135 3733 M 103 0 R
-51 0 R 0 1180 R -52 0 R 103 0 R D 15381 3805 M 102 0 R -51 0 R 0 1156 R
-51 0 R 102 0 R D 15626 4741 M 103 0 R -52 0 R -51 0 R 103 0 R D
15871 4121 M 103 0 R -51 0 R 0 645 R -52 0 R 103 0 R D 16117 3981 M 102 0 R
-51 0 R 0 478 R -51 0 R 102 0 R D 16362 3958 M 103 0 R -52 0 R -51 0 R
103 0 R D 16607 3473 M 103 0 R -51 0 R -52 0 R 103 0 R D 16853 2763 M
103 0 R -52 0 R -51 0 R 103 0 R D 17098 1693 M 103 0 R -52 0 R -51 0 R
103 0 R D 0.761 0.000 0.000 setrgbcolor 12500 5268 M 233 -53 R 246 -52 R
245 -51 R 245 -58 R 246 -45 R 245 -34 R 245 -34 R 246 -2 R 245 0 R 245 -40 R
246 -131 R 245 -268 R 245 -201 R 246 -78 R 245 -167 R 245 -153 R 246 -304 R
245 -713 R 245 -945 R 69 -531 R D 12500 5228 M 39 0 R -39 0 R D 12500 5314 M
39 0 R D 12682 5166 M 103 0 R -52 0 R 0 99 R -51 0 R 103 0 R D 12927 5107 M
103 0 R -51 0 R 0 111 R -52 0 R 103 0 R D 13172 5062 M 103 0 R -51 0 R
0 99 R -52 0 R 103 0 R D 13418 5010 M 103 0 R -52 0 R 0 88 R -51 0 R 103 0 R
D 13663 4965 M 103 0 R -51 0 R 0 88 R -52 0 R 103 0 R D 13909 4924 M 102 0 R
-51 0 R 0 101 R -51 0 R 102 0 R D 14154 4898 M 103 0 R -52 0 R 0 86 R
-51 0 R 103 0 R D 14399 4890 M 103 0 R -51 0 R 0 98 R -52 0 R 103 0 R D
14645 4877 M 102 0 R -51 0 R 0 123 R -51 0 R 102 0 R D 14890 4843 M 103 0 R
-52 0 R 0 113 R -51 0 R 103 0 R D 15135 4702 M 103 0 R -51 0 R 0 132 R
-52 0 R 103 0 R D 15381 4431 M 102 0 R -51 0 R 0 137 R -51 0 R 102 0 R D
15626 4180 M 103 0 R -52 0 R 0 238 R -51 0 R 103 0 R D 15871 4077 M 103 0 R
-51 0 R 0 287 R -52 0 R 103 0 R D 16117 3904 M 102 0 R -51 0 R 0 300 R
-51 0 R 102 0 R D 16362 3809 M 103 0 R -52 0 R 0 184 R -51 0 R 103 0 R D
16607 3411 M 103 0 R -51 0 R 0 372 R -52 0 R 103 0 R D 16853 2520 M 103 0 R
-52 0 R 0 727 R -51 0 R 103 0 R D 17149 1408 M 0 1267 R -51 0 R 103 0 R D
%%PageTrailer
end
%%PageResources: font Helvetica
%%+ font Symbol
%%+ font AvantGarde-Book
%%Trailer
%%Pages: 1
%%DocumentNeededResources: font Helvetica
%%+ font Symbol
%%+ font AvantGarde-Book
%%EOF
