%!PS-Adobe-3.0 EPSF-3.0
%%BoundingBox: 0 0 510 198
%%Title: Graphics produced by IDL
%%For: jlgan@Hserver, /home/jlgan/work/phoenix
%%Creator: IDL Version 7.1.1 (linux x86_64 m64)
%%CreationDate: Mon Jun 23 17:51:41 2014
%%DocumentData: Clean7bit
%%Requirements: color
%%LanguageLevel: 1
%%PageOrder: Ascend
%%Pages: (atend)
%%DocumentNeededResources: (atend)
%%EndComments
%%BeginProlog
%+ prolog.ps -- Prolog for IDL generated PostScript files
%+ Copyright (c) 1988-2009 ITT Visual Information Solutions. All Rights Reserved.
%v 5
/$IDL_DICT 40 dict def $IDL_DICT begin /bdef { bind def } bind def /C
{currentpoint newpath moveto} bdef /CP {currentpoint} bdef /D {currentpoint
stroke moveto} bdef /F {closepath fill} bdef /K { setgray } bdef /M {moveto}
bdef /N {rmoveto} bdef /P {lineto} bdef /R {rlineto} bdef /S {gsave show
grestore} bdef /X {currentpoint pop} bdef /Z {gsave currentpoint lineto 20
setlinewidth 1 setlinecap stroke grestore} bdef /L0 {[] 0 setdash} bdef /L1
{[40 100] 0 setdash} bdef /L2 {[200 200] 0 setdash} bdef /L3 {[200 100 50
100] 0 setdash} bdef /L4 {[300 100 50 100 50 100 50 100] 0 setdash} bdef /L5
{[400 200] 0 setdash} bdef /STDFONT { findfont exch scalefont setfont } bdef
/ISOFONT { findfont dup length dict begin { 1 index /FID ne {def} {pop pop}
ifelse } forall /Encoding ISOLatin1Encoding def currentdict end /idltmpfont
exch definefont exch scalefont setfont } bdef /ISOBULLET { gsave /Helvetica
findfont exch scalefont setfont (\267) show currentpoint grestore moveto}
bdef /MITERLIMIT { 2.5 setmiterlimit } bdef end
%%EndProlog
%%Page: 0 1
%%PageRequirements: color
%%PageResources: (atend)
%%PageOrientation: Portrait
%%PageBoundingBox: 0 0 510 198
%%BeginPageSetup
$IDL_DICT begin 0.0283465 dup scale MITERLIMIT
%%IncludeResource: font Helvetica
423.333 /Helvetica STDFONT
%%EndPageSetup
30 setlinewidth L0 0.000 0.000 0.000 setrgbcolor 2580 1408 M 4318 0 R D
3600 1408 M 0 196 R D gsave 3600 880 translate 0 0 M -117.687 0 N
(8) show grestore 4631 1408 M 0 196 R D gsave 4631 880 translate 0 0 M
-117.687 0 N
(9) show grestore 5661 1408 M 0 196 R D gsave 5661 880 translate 0 0 M
-235.373 0 N
(10) show grestore 6692 1408 M 0 196 R D gsave 6692 880 translate 0 0 M
-235.373 0 N
(11) show grestore 2673 1408 M 0 98 R D 2776 1408 M 0 98 R D 2879 1408 M
0 98 R D 2982 1408 M 0 98 R D 3085 1408 M 0 98 R D 3188 1408 M 0 98 R D
3291 1408 M 0 98 R D 3394 1408 M 0 98 R D 3497 1408 M 0 98 R D 3703 1408 M
0 98 R D 3806 1408 M 0 98 R D 3909 1408 M 0 98 R D 4013 1408 M 0 98 R D
4116 1408 M 0 98 R D 4219 1408 M 0 98 R D 4322 1408 M 0 98 R D 4425 1408 M
0 98 R D 4528 1408 M 0 98 R D 4734 1408 M 0 98 R D 4837 1408 M 0 98 R D
4940 1408 M 0 98 R D 5043 1408 M 0 98 R D 5146 1408 M 0 98 R D 5249 1408 M
0 98 R D 5352 1408 M 0 98 R D 5455 1408 M 0 98 R D 5558 1408 M 0 98 R D
5764 1408 M 0 98 R D 5868 1408 M 0 98 R D 5971 1408 M 0 98 R D 6074 1408 M
0 98 R D 6177 1408 M 0 98 R D 6280 1408 M 0 98 R D 6383 1408 M 0 98 R D
6486 1408 M 0 98 R D 6589 1408 M 0 98 R D 6795 1408 M 0 98 R D 6898 1408 M
0 98 R D gsave 4739 422 translate 0 0 M -1506.41 0 N
(log[M) show X -101.051 M
%%IncludeResource: font Symbol
262.467 /Symbol STDFONT
(*) show X 0 M
%%IncludeResource: font Helvetica
423.333 /Helvetica STDFONT
( / \(h) show X 192.937 M
%%IncludeResource: font Helvetica
262.467 /Helvetica STDFONT
(-2) show X 0 M
%%IncludeResource: font Helvetica
423.333 /Helvetica STDFONT
(M) show CP X -101.051 M
%%IncludeResource: font AvantGarde-Book
262.467 /AvantGarde-Book STDFONT
(O) show M X -58.3193 M
%%IncludeResource: font AvantGarde-Book
186.267 /AvantGarde-Book STDFONT
( \267) show X 0 M
%%IncludeResource: font Helvetica
423.333 /Helvetica STDFONT
(\)]) show grestore 2580 6296 M 4318 0 R D 3600 6296 M 0 -195 R D
4631 6296 M 0 -195 R D 5661 6296 M 0 -195 R D 6692 6296 M 0 -195 R D
2673 6296 M 0 -98 R D 2776 6296 M 0 -98 R D 2879 6296 M 0 -98 R D
2982 6296 M 0 -98 R D 3085 6296 M 0 -98 R D 3188 6296 M 0 -98 R D
3291 6296 M 0 -98 R D 3394 6296 M 0 -98 R D 3497 6296 M 0 -98 R D
3703 6296 M 0 -98 R D 3806 6296 M 0 -98 R D 3909 6296 M 0 -98 R D
4013 6296 M 0 -98 R D 4116 6296 M 0 -98 R D 4219 6296 M 0 -98 R D
4322 6296 M 0 -98 R D 4425 6296 M 0 -98 R D 4528 6296 M 0 -98 R D
4734 6296 M 0 -98 R D 4837 6296 M 0 -98 R D 4940 6296 M 0 -98 R D
5043 6296 M 0 -98 R D 5146 6296 M 0 -98 R D 5249 6296 M 0 -98 R D
5352 6296 M 0 -98 R D 5455 6296 M 0 -98 R D 5558 6296 M 0 -98 R D
5764 6296 M 0 -98 R D 5868 6296 M 0 -98 R D 5971 6296 M 0 -98 R D
6074 6296 M 0 -98 R D 6177 6296 M 0 -98 R D 6280 6296 M 0 -98 R D
6383 6296 M 0 -98 R D 6486 6296 M 0 -98 R D 6589 6296 M 0 -98 R D
6795 6296 M 0 -98 R D 6898 6296 M 0 -98 R D 2580 1408 M 0 4888 R D
2580 2028 M 173 0 R D gsave 2469 1887 translate 0 0 M -470.747 0 N
(10) show grestore 2580 3213 M 173 0 R D gsave 2469 3072 translate 0 0 M
-706.12 0 N
(100) show grestore 2580 4398 M 173 0 R D gsave 2469 4257 translate 0 0 M
-941.493 0 N
(1000) show grestore 2580 5583 M 173 0 R D gsave 2469 5442 translate 0 0 M
-1176.87 0 N
(10000) show grestore 2580 1408 M 86 0 R D 2580 1556 M 86 0 R D 2580 1671 M
86 0 R D 2580 1765 M 86 0 R D 2580 1844 M 86 0 R D 2580 1913 M 86 0 R D
2580 1973 M 86 0 R D 2580 2384 M 86 0 R D 2580 2593 M 86 0 R D 2580 2741 M
86 0 R D 2580 2856 M 86 0 R D 2580 2950 M 86 0 R D 2580 3029 M 86 0 R D
2580 3098 M 86 0 R D 2580 3158 M 86 0 R D 2580 3569 M 86 0 R D 2580 3778 M
86 0 R D 2580 3926 M 86 0 R D 2580 4041 M 86 0 R D 2580 4135 M 86 0 R D
2580 4214 M 86 0 R D 2580 4283 M 86 0 R D 2580 4343 M 86 0 R D 2580 4754 M
86 0 R D 2580 4963 M 86 0 R D 2580 5111 M 86 0 R D 2580 5226 M 86 0 R D
2580 5320 M 86 0 R D 2580 5399 M 86 0 R D 2580 5468 M 86 0 R D 2580 5528 M
86 0 R D 2580 5939 M 86 0 R D 2580 6148 M 86 0 R D 2580 6296 M 86 0 R D
gsave 960 3852 translate 0 0 M 90 rotate -971.338 0 N
(dN/dlogM) show X -101.051 M
%%IncludeResource: font Symbol
262.467 /Symbol STDFONT
(*) show
%%IncludeResource: font Helvetica
262.467 /Helvetica STDFONT grestore
%%IncludeResource: font Helvetica
423.333 /Helvetica STDFONT 6898 1408 M 0 4888 R D 6898 2028 M -173 0 R D
6898 3213 M -173 0 R D 6898 4398 M -173 0 R D 6898 5583 M -173 0 R D
6898 1408 M -86 0 R D 6898 1556 M -86 0 R D 6898 1671 M -86 0 R D
6898 1765 M -86 0 R D 6898 1844 M -86 0 R D 6898 1913 M -86 0 R D
6898 1973 M -86 0 R D 6898 2384 M -86 0 R D 6898 2593 M -86 0 R D
6898 2741 M -86 0 R D 6898 2856 M -86 0 R D 6898 2950 M -86 0 R D
6898 3029 M -86 0 R D 6898 3098 M -86 0 R D 6898 3158 M -86 0 R D
6898 3569 M -86 0 R D 6898 3778 M -86 0 R D 6898 3926 M -86 0 R D
6898 4041 M -86 0 R D 6898 4135 M -86 0 R D 6898 4214 M -86 0 R D
6898 4283 M -86 0 R D 6898 4343 M -86 0 R D 6898 4754 M -86 0 R D
6898 4963 M -86 0 R D 6898 5111 M -86 0 R D 6898 5226 M -86 0 R D
6898 5320 M -86 0 R D 6898 5399 M -86 0 R D 6898 5468 M -86 0 R D
6898 5528 M -86 0 R D 6898 5939 M -86 0 R D 6898 6148 M -86 0 R D
6898 6296 M -86 0 R D L2 1.000 0.000 0.000 setrgbcolor 2580 5912 M 175 -55 R
243 -106 R 243 -154 R 244 -158 R 243 -148 R 243 -170 R 243 -167 R 243 -128 R
244 -126 R 243 -72 R 243 -59 R 243 -118 R 243 -490 R 243 -762 R 244 -612 R
243 -644 R D L0 2580 5942 M 177 -66 R 243 -116 R 244 -142 R 243 -153 R
244 -161 R 243 -172 R 244 -155 R 243 -135 R 244 -130 R 243 -62 R 244 -59 R
243 -83 R 244 -434 R 243 -705 R 244 -653 R 243 -774 R D L2
0.000 0.549 0.000 setrgbcolor 2580 5983 M 251 -57 R 259 -104 R 258 -141 R
258 -172 R 259 -135 R 258 -175 R 258 -142 R 259 -50 R 258 -80 R 259 7 R
258 -125 R 258 -362 R 259 -549 R 258 -629 R 259 -394 R 258 -607 R D L0
2580 6001 M 1 0 R 260 -64 R 260 -103 R 261 -152 R 260 -165 R 260 -140 R
261 -162 R 260 -139 R 260 -62 R 261 -47 R 260 -33 R 261 -96 R 260 -349 R
260 -543 R 261 -551 R 260 -524 R 260 -755 R D L2
0.000 0.000 1.000 setrgbcolor 2580 3511 M 111 50 R 230 -12 R 231 -37 R
230 -115 R 230 -50 R 231 -246 R 230 -167 R 230 -190 R 231 0 R 230 104 R
231 86 R 230 138 R 230 -536 R 231 79 R 230 -1001 R 230 565 R D L0
2580 3567 M 111 6 R 230 84 R 231 -185 R 230 -29 R 231 -15 R 230 -248 R
230 -108 R 231 -457 R 230 129 R 231 190 R 230 38 R 230 100 R 231 -273 R
230 -184 R 230 -436 R 231 0 R D L2 0.588 0.000 0.588 setrgbcolor 2580 3302 M
126 72 R 234 0 R 233 -111 R 234 -42 R 233 -220 R 233 -74 R 234 -86 R
233 -49 R 234 135 R 233 -319 R 234 130 R 233 54 R 233 -184 R 234 -1001 R D
L0 2580 3449 M 138 25 R 235 -28 R 236 -167 R 236 -42 R 235 -241 R 236 0 R
236 -74 R 235 -86 R 236 0 R 236 -103 R 235 103 R 236 -49 R 236 -263 R
236 -922 R D 0.000 0.000 0.000 setrgbcolor 7618 1408 M 4318 0 R D
7618 1408 M 0 196 R D gsave 7618 880 translate 0 0 M -117.687 0 N
(1) show grestore 8556 1408 M 0 196 R D gsave 8556 880 translate 0 0 M
-235.373 0 N
(10) show grestore 9495 1408 M 0 196 R D gsave 9495 880 translate 0 0 M
-353.06 0 N
(100) show grestore 10433 1408 M 0 196 R D gsave 10433 880 translate 0 0 M
-470.747 0 N
(1000) show grestore 11371 1408 M 0 196 R D gsave 11371 880 translate 0 0 M
-588.433 0 N
(10000) show grestore 7901 1408 M 0 98 R D 8066 1408 M 0 98 R D 8183 1408 M
0 98 R D 8274 1408 M 0 98 R D 8348 1408 M 0 98 R D 8411 1408 M 0 98 R D
8465 1408 M 0 98 R D 8513 1408 M 0 98 R D 8839 1408 M 0 98 R D 9004 1408 M
0 98 R D 9121 1408 M 0 98 R D 9212 1408 M 0 98 R D 9286 1408 M 0 98 R D
9349 1408 M 0 98 R D 9404 1408 M 0 98 R D 9452 1408 M 0 98 R D 9777 1408 M
0 98 R D 9942 1408 M 0 98 R D 10060 1408 M 0 98 R D 10150 1408 M 0 98 R D
10225 1408 M 0 98 R D 10288 1408 M 0 98 R D 10342 1408 M 0 98 R D
10390 1408 M 0 98 R D 10715 1408 M 0 98 R D 10881 1408 M 0 98 R D
10998 1408 M 0 98 R D 11089 1408 M 0 98 R D 11163 1408 M 0 98 R D
11226 1408 M 0 98 R D 11280 1408 M 0 98 R D 11328 1408 M 0 98 R D
11654 1408 M 0 98 R D 11819 1408 M 0 98 R D 11936 1408 M 0 98 R D
7618 6296 M 4318 0 R D 7618 6296 M 0 -195 R D 8556 6296 M 0 -195 R D
9495 6296 M 0 -195 R D 10433 6296 M 0 -195 R D 11371 6296 M 0 -195 R D
7901 6296 M 0 -98 R D 8066 6296 M 0 -98 R D 8183 6296 M 0 -98 R D
8274 6296 M 0 -98 R D 8348 6296 M 0 -98 R D 8411 6296 M 0 -98 R D
8465 6296 M 0 -98 R D 8513 6296 M 0 -98 R D 8839 6296 M 0 -98 R D
9004 6296 M 0 -98 R D 9121 6296 M 0 -98 R D 9212 6296 M 0 -98 R D
9286 6296 M 0 -98 R D 9349 6296 M 0 -98 R D 9404 6296 M 0 -98 R D
9452 6296 M 0 -98 R D 9777 6296 M 0 -98 R D 9942 6296 M 0 -98 R D
10060 6296 M 0 -98 R D 10150 6296 M 0 -98 R D 10225 6296 M 0 -98 R D
10288 6296 M 0 -98 R D 10342 6296 M 0 -98 R D 10390 6296 M 0 -98 R D
10715 6296 M 0 -98 R D 10881 6296 M 0 -98 R D 10998 6296 M 0 -98 R D
11089 6296 M 0 -98 R D 11163 6296 M 0 -98 R D 11226 6296 M 0 -98 R D
11280 6296 M 0 -98 R D 11328 6296 M 0 -98 R D 11654 6296 M 0 -98 R D
11819 6296 M 0 -98 R D 11936 6296 M 0 -98 R D 7618 1408 M 0 4888 R D
7618 1408 M 173 0 R D gsave 7507 1408 translate 0 0 M -588.433 0 N
(0.0) show grestore 7618 2297 M 173 0 R D gsave 7507 2156 translate 0 0 M
-588.433 0 N
(0.2) show grestore 7618 3185 M 173 0 R D gsave 7507 3045 translate 0 0 M
-588.433 0 N
(0.4) show grestore 7618 4074 M 173 0 R D gsave 7507 3933 translate 0 0 M
-588.433 0 N
(0.6) show grestore 7618 4963 M 173 0 R D gsave 7507 4822 translate 0 0 M
-588.433 0 N
(0.8) show grestore 7618 5852 M 173 0 R D gsave 7507 5711 translate 0 0 M
-588.433 0 N
(1.0) show grestore 7618 1630 M 86 0 R D 7618 1852 M 86 0 R D 7618 2075 M
86 0 R D 7618 2519 M 86 0 R D 7618 2741 M 86 0 R D 7618 2963 M 86 0 R D
7618 3408 M 86 0 R D 7618 3630 M 86 0 R D 7618 3852 M 86 0 R D 7618 4296 M
86 0 R D 7618 4519 M 86 0 R D 7618 4741 M 86 0 R D 7618 5185 M 86 0 R D
7618 5407 M 86 0 R D 7618 5629 M 86 0 R D 7618 6074 M 86 0 R D 7618 6296 M
86 0 R D 11936 1408 M 0 4888 R D 11936 1408 M -173 0 R D 11936 2297 M
-173 0 R D 11936 3185 M -173 0 R D 11936 4074 M -173 0 R D 11936 4963 M
-173 0 R D 11936 5852 M -173 0 R D 11936 1630 M -86 0 R D 11936 1852 M
-86 0 R D 11936 2075 M -86 0 R D 11936 2519 M -86 0 R D 11936 2741 M -86 0 R
D 11936 2963 M -86 0 R D 11936 3408 M -86 0 R D 11936 3630 M -86 0 R D
11936 3852 M -86 0 R D 11936 4296 M -86 0 R D 11936 4519 M -86 0 R D
11936 4741 M -86 0 R D 11936 5185 M -86 0 R D 11936 5407 M -86 0 R D
11936 5629 M -86 0 R D 11936 6074 M -86 0 R D 11936 6296 M -86 0 R D
1.000 0.000 0.000 setrgbcolor 7657 4053 M 4101 1798 R 178 0 R D
0.000 0.549 0.000 setrgbcolor 7657 4275 M 3981 1576 R 283 0 R 15 0 R D
0.000 0.000 1.000 setrgbcolor 7657 3072 M 2807 2658 R 282 67 R 165 0 R
118 12 R 90 6 R 75 6 R 63 12 R 54 6 R 48 0 R 43 0 R 39 7 R 35 0 R 33 6 R
30 0 R 28 0 R 26 0 R 25 0 R 23 0 R 22 0 R 21 0 R D
0.588 0.000 0.588 setrgbcolor 7657 3304 M 2391 2382 R 282 53 R 165 17 R
117 26 R 91 17 R 74 9 R 63 9 R 55 0 R 48 0 R 42 0 R 39 0 R 36 0 R 32 0 R
31 0 R 28 9 R 26 0 R 25 8 R 23 0 R 22 9 R 21 9 R D
0.000 0.000 0.000 setrgbcolor 12656 1408 M 4318 0 R D 13062 1408 M 0 196 R D
gsave 13062 880 translate 0 0 M -117.687 0 N
(2) show grestore 13800 1408 M 0 196 R D gsave 13800 880 translate 0 0 M
-117.687 0 N
(4) show grestore 14538 1408 M 0 196 R D gsave 14538 880 translate 0 0 M
-117.687 0 N
(6) show grestore 15276 1408 M 0 196 R D gsave 15276 880 translate 0 0 M
-117.687 0 N
(8) show grestore 16015 1408 M 0 196 R D gsave 16015 880 translate 0 0 M
-235.373 0 N
(10) show grestore 16753 1408 M 0 196 R D gsave 16753 880 translate 0 0 M
-235.373 0 N
(12) show grestore 12693 1408 M 0 98 R D 12878 1408 M 0 98 R D 13247 1408 M
0 98 R D 13431 1408 M 0 98 R D 13616 1408 M 0 98 R D 13985 1408 M 0 98 R D
14169 1408 M 0 98 R D 14354 1408 M 0 98 R D 14723 1408 M 0 98 R D
14907 1408 M 0 98 R D 15092 1408 M 0 98 R D 15461 1408 M 0 98 R D
15645 1408 M 0 98 R D 15830 1408 M 0 98 R D 16199 1408 M 0 98 R D
16384 1408 M 0 98 R D 16568 1408 M 0 98 R D 16937 1408 M 0 98 R D
12656 6296 M 4318 0 R D 13062 6296 M 0 -195 R D 13800 6296 M 0 -195 R D
14538 6296 M 0 -195 R D 15276 6296 M 0 -195 R D 16015 6296 M 0 -195 R D
16753 6296 M 0 -195 R D 12693 6296 M 0 -98 R D 12878 6296 M 0 -98 R D
13247 6296 M 0 -98 R D 13431 6296 M 0 -98 R D 13616 6296 M 0 -98 R D
13985 6296 M 0 -98 R D 14169 6296 M 0 -98 R D 14354 6296 M 0 -98 R D
14723 6296 M 0 -98 R D 14907 6296 M 0 -98 R D 15092 6296 M 0 -98 R D
15461 6296 M 0 -98 R D 15645 6296 M 0 -98 R D 15830 6296 M 0 -98 R D
16199 6296 M 0 -98 R D 16384 6296 M 0 -98 R D 16568 6296 M 0 -98 R D
16937 6296 M 0 -98 R D 12656 1408 M 0 4888 R D 12656 1408 M 173 0 R D
gsave 12545 1408 translate 0 0 M -588.433 0 N
(0.0) show grestore 12656 2297 M 173 0 R D gsave 12545 2156 translate 0 0 M
-588.433 0 N
(0.2) show grestore 12656 3185 M 173 0 R D gsave 12545 3045 translate 0 0 M
-588.433 0 N
(0.4) show grestore 12656 4074 M 173 0 R D gsave 12545 3933 translate 0 0 M
-588.433 0 N
(0.6) show grestore 12656 4963 M 173 0 R D gsave 12545 4822 translate 0 0 M
-588.433 0 N
(0.8) show grestore 12656 5852 M 173 0 R D gsave 12545 5711 translate 0 0 M
-588.433 0 N
(1.0) show grestore 12656 1630 M 86 0 R D 12656 1852 M 86 0 R D 12656 2075 M
86 0 R D 12656 2519 M 86 0 R D 12656 2741 M 86 0 R D 12656 2963 M 86 0 R D
12656 3408 M 86 0 R D 12656 3630 M 86 0 R D 12656 3852 M 86 0 R D
12656 4296 M 86 0 R D 12656 4519 M 86 0 R D 12656 4741 M 86 0 R D
12656 5185 M 86 0 R D 12656 5407 M 86 0 R D 12656 5629 M 86 0 R D
12656 6074 M 86 0 R D 12656 6296 M 86 0 R D 16974 1408 M 0 4888 R D
16974 1408 M -173 0 R D 16974 2297 M -173 0 R D 16974 3185 M -173 0 R D
16974 4074 M -173 0 R D 16974 4963 M -173 0 R D 16974 5852 M -173 0 R D
16974 1630 M -86 0 R D 16974 1852 M -86 0 R D 16974 2075 M -86 0 R D
16974 2519 M -86 0 R D 16974 2741 M -86 0 R D 16974 2963 M -86 0 R D
16974 3408 M -86 0 R D 16974 3630 M -86 0 R D 16974 3852 M -86 0 R D
16974 4296 M -86 0 R D 16974 4519 M -86 0 R D 16974 4741 M -86 0 R D
16974 5185 M -86 0 R D 16974 5407 M -86 0 R D 16974 5629 M -86 0 R D
16974 6074 M -86 0 R D 16974 6296 M -86 0 R D 1.000 0.000 0.000 setrgbcolor
12660 1586 M 213 198 R 214 102 R 214 224 R 213 232 R 214 120 R 214 256 R
213 124 R 214 266 R 214 279 R 213 168 R 214 305 R 214 126 R 213 291 R
214 314 R 214 286 R 213 259 R 214 219 R 214 268 R 213 134 R 214 95 R D
0.000 0.549 0.000 setrgbcolor 12660 1715 M 214 342 R 215 180 R 214 363 R
215 306 R 214 126 R 215 257 R 214 261 R 215 152 R 214 262 R 215 121 R
214 249 R 215 124 R 214 236 R 215 230 R 214 209 R 215 184 R 214 157 R
215 179 R 214 148 R 215 51 R D 0.000 0.000 1.000 setrgbcolor 12660 1498 M
213 89 R 214 39 R 214 147 R 213 218 R 214 64 R 214 147 R 213 96 R 214 192 R
214 141 R 213 58 R 214 173 R 214 102 R 213 102 R 214 263 R 214 282 R
213 294 R 214 359 R 214 550 R 213 570 R 214 468 R D
0.588 0.000 0.588 setrgbcolor 12660 1528 M 212 139 R 213 130 R 213 139 R
213 185 R 212 74 R 213 176 R 213 74 R 213 167 R 213 74 R 212 185 R 213 185 R
213 92 R 213 176 R 212 148 R 213 269 R 213 352 R 213 240 R 212 528 R
213 528 R 213 463 R D
%%PageTrailer
end
%%PageResources: font Helvetica
%%+ font Symbol
%%+ font AvantGarde-Book
%%Trailer
%%Pages: 1
%%DocumentNeededResources: font Helvetica
%%+ font Symbol
%%+ font AvantGarde-Book
%%EOF
