%!PS-Adobe-3.0 EPSF-3.0
%%BoundingBox: 0 0 481 226
%%Title: Graphics produced by IDL
%%For: jlgan@Hserver, /home/jlgan/work/phoenix
%%Creator: IDL Version 7.1.1 (linux x86_64 m64)
%%CreationDate: Mon Sep 29 10:56:36 2014
%%DocumentData: Clean7bit
%%Requirements: color
%%LanguageLevel: 1
%%PageOrder: Ascend
%%Pages: (atend)
%%DocumentNeededResources: (atend)
%%EndComments
%%BeginProlog
%+ prolog.ps -- Prolog for IDL generated PostScript files
%+ Copyright (c) 1988-2009 ITT Visual Information Solutions. All Rights Reserved.
%v 5
/$IDL_DICT 40 dict def $IDL_DICT begin /bdef { bind def } bind def /C
{currentpoint newpath moveto} bdef /CP {currentpoint} bdef /D {currentpoint
stroke moveto} bdef /F {closepath fill} bdef /K { setgray } bdef /M {moveto}
bdef /N {rmoveto} bdef /P {lineto} bdef /R {rlineto} bdef /S {gsave show
grestore} bdef /X {currentpoint pop} bdef /Z {gsave currentpoint lineto 20
setlinewidth 1 setlinecap stroke grestore} bdef /L0 {[] 0 setdash} bdef /L1
{[40 100] 0 setdash} bdef /L2 {[200 200] 0 setdash} bdef /L3 {[200 100 50
100] 0 setdash} bdef /L4 {[300 100 50 100 50 100 50 100] 0 setdash} bdef /L5
{[400 200] 0 setdash} bdef /STDFONT { findfont exch scalefont setfont } bdef
/ISOFONT { findfont dup length dict begin { 1 index /FID ne {def} {pop pop}
ifelse } forall /Encoding ISOLatin1Encoding def currentdict end /idltmpfont
exch definefont exch scalefont setfont } bdef /ISOBULLET { gsave /Helvetica
findfont exch scalefont setfont (\267) show currentpoint grestore moveto}
bdef /MITERLIMIT { 2.5 setmiterlimit } bdef end
%%EndProlog
%%Page: 0 1
%%PageRequirements: color
%%PageResources: (atend)
%%PageOrientation: Portrait
%%PageBoundingBox: 0 0 481 226
%%BeginPageSetup
$IDL_DICT begin 0.0283465 dup scale MITERLIMIT
%%IncludeResource: font Helvetica
423.333 /Helvetica STDFONT
%%EndPageSetup
0.000 0.000 0.000 setrgbcolor gsave 9180 304 translate 0 0 M -1506.41 0 N
(log[M) show X -101.051 M
%%IncludeResource: font Symbol
262.467 /Symbol STDFONT
(*) show X 0 M
%%IncludeResource: font Helvetica
423.333 /Helvetica STDFONT
( / \(h) show X 192.937 M
%%IncludeResource: font Helvetica
262.467 /Helvetica STDFONT
(-2) show X 0 M
%%IncludeResource: font Helvetica
423.333 /Helvetica STDFONT
(M) show CP X -101.051 M
%%IncludeResource: font AvantGarde-Book
262.467 /AvantGarde-Book STDFONT
(O) show M X -58.3193 M
%%IncludeResource: font AvantGarde-Book
186.267 /AvantGarde-Book STDFONT
( \267) show X 0 M
%%IncludeResource: font Helvetica
423.333 /Helvetica STDFONT
(\)]) show grestore gsave 538 4560 translate 0 0 M 90 rotate -2273.04 0 N
%%IncludeResource: font Symbol
423.333 /Symbol STDFONT
(f) show
%%IncludeResource: font Helvetica
423.333 /Helvetica STDFONT
(\(M) show X -101.051 M
%%IncludeResource: font Symbol
262.467 /Symbol STDFONT
(*) show X 0 M
%%IncludeResource: font Helvetica
423.333 /Helvetica STDFONT
(\) / \(h) show X 192.937 M
%%IncludeResource: font Helvetica
262.467 /Helvetica STDFONT
(3) show X 0 M
%%IncludeResource: font Helvetica
423.333 /Helvetica STDFONT
(Mpc) show X 192.937 M
%%IncludeResource: font Helvetica
262.467 /Helvetica STDFONT
(-3) show X 0 M
%%IncludeResource: font Helvetica
423.333 /Helvetica STDFONT
(log) show X 192.937 M
%%IncludeResource: font Helvetica
262.467 /Helvetica STDFONT
(-1) show X 0 M
%%IncludeResource: font Helvetica
423.333 /Helvetica STDFONT
(M) show X -101.051 M
%%IncludeResource: font Symbol
262.467 /Symbol STDFONT
(*) show X 0 M
%%IncludeResource: font Helvetica
423.333 /Helvetica STDFONT
(\)) show grestore 30 setlinewidth L0 1870 1360 M 6800 0 R D 1870 1360 M
0 192 R D gsave 1870 832 translate 0 0 M -117.687 0 N
(8) show grestore 3489 1360 M 0 192 R D gsave 3489 832 translate 0 0 M
-117.687 0 N
(9) show grestore 5108 1360 M 0 192 R D gsave 5108 832 translate 0 0 M
-235.373 0 N
(10) show grestore 6727 1360 M 0 192 R D gsave 6727 832 translate 0 0 M
-235.373 0 N
(11) show grestore 8346 1360 M 0 192 R D gsave 8346 832 translate 0 0 M
-235.373 0 N
(12) show grestore 2032 1360 M 0 96 R D 2194 1360 M 0 96 R D 2356 1360 M
0 96 R D 2518 1360 M 0 96 R D 2680 1360 M 0 96 R D 2841 1360 M 0 96 R D
3003 1360 M 0 96 R D 3165 1360 M 0 96 R D 3327 1360 M 0 96 R D 3651 1360 M
0 96 R D 3813 1360 M 0 96 R D 3975 1360 M 0 96 R D 4137 1360 M 0 96 R D
4299 1360 M 0 96 R D 4461 1360 M 0 96 R D 4622 1360 M 0 96 R D 4784 1360 M
0 96 R D 4946 1360 M 0 96 R D 5270 1360 M 0 96 R D 5432 1360 M 0 96 R D
5594 1360 M 0 96 R D 5756 1360 M 0 96 R D 5918 1360 M 0 96 R D 6080 1360 M
0 96 R D 6241 1360 M 0 96 R D 6403 1360 M 0 96 R D 6565 1360 M 0 96 R D
6889 1360 M 0 96 R D 7051 1360 M 0 96 R D 7213 1360 M 0 96 R D 7375 1360 M
0 96 R D 7537 1360 M 0 96 R D 7699 1360 M 0 96 R D 7861 1360 M 0 96 R D
8022 1360 M 0 96 R D 8184 1360 M 0 96 R D 8508 1360 M 0 96 R D 8670 1360 M
0 96 R D 1870 7760 M 6800 0 R D 1870 7760 M 0 -192 R D 3489 7760 M 0 -192 R
D 5108 7760 M 0 -192 R D 6727 7760 M 0 -192 R D 8346 7760 M 0 -192 R D
2032 7760 M 0 -96 R D 2194 7760 M 0 -96 R D 2356 7760 M 0 -96 R D
2518 7760 M 0 -96 R D 2680 7760 M 0 -96 R D 2841 7760 M 0 -96 R D
3003 7760 M 0 -96 R D 3165 7760 M 0 -96 R D 3327 7760 M 0 -96 R D
3651 7760 M 0 -96 R D 3813 7760 M 0 -96 R D 3975 7760 M 0 -96 R D
4137 7760 M 0 -96 R D 4299 7760 M 0 -96 R D 4461 7760 M 0 -96 R D
4622 7760 M 0 -96 R D 4784 7760 M 0 -96 R D 4946 7760 M 0 -96 R D
5270 7760 M 0 -96 R D 5432 7760 M 0 -96 R D 5594 7760 M 0 -96 R D
5756 7760 M 0 -96 R D 5918 7760 M 0 -96 R D 6080 7760 M 0 -96 R D
6241 7760 M 0 -96 R D 6403 7760 M 0 -96 R D 6565 7760 M 0 -96 R D
6889 7760 M 0 -96 R D 7051 7760 M 0 -96 R D 7213 7760 M 0 -96 R D
7375 7760 M 0 -96 R D 7537 7760 M 0 -96 R D 7699 7760 M 0 -96 R D
7861 7760 M 0 -96 R D 8022 7760 M 0 -96 R D 8184 7760 M 0 -96 R D
8508 7760 M 0 -96 R D 8670 7760 M 0 -96 R D 1870 1360 M 0 6400 R D
1870 1919 M 204 0 R D gsave 1759 1778 translate 0 0 M -704.08 0 N
(10) show X 192.937 M
%%IncludeResource: font Helvetica
262.467 /Helvetica STDFONT
(-8) show grestore
%%IncludeResource: font Helvetica
423.333 /Helvetica STDFONT 1870 3519 M 204 0 R D
gsave 1759 3378 translate 0 0 M -704.08 0 N
(10) show X 192.937 M
%%IncludeResource: font Helvetica
262.467 /Helvetica STDFONT
(-6) show grestore
%%IncludeResource: font Helvetica
423.333 /Helvetica STDFONT 1870 5119 M 204 0 R D
gsave 1759 4978 translate 0 0 M -704.08 0 N
(10) show X 192.937 M
%%IncludeResource: font Helvetica
262.467 /Helvetica STDFONT
(-4) show grestore
%%IncludeResource: font Helvetica
423.333 /Helvetica STDFONT 1870 6719 M 204 0 R D
gsave 1759 6578 translate 0 0 M -704.08 0 N
(10) show X 192.937 M
%%IncludeResource: font Helvetica
262.467 /Helvetica STDFONT
(-2) show grestore
%%IncludeResource: font Helvetica
423.333 /Helvetica STDFONT 1870 2719 M 102 0 R D 1870 4319 M 102 0 R D
1870 5919 M 102 0 R D 1870 7519 M 102 0 R D 8670 1360 M 0 6400 R D
8670 1919 M -204 0 R D 8670 3519 M -204 0 R D 8670 5119 M -204 0 R D
8670 6719 M -204 0 R D 8670 2719 M -102 0 R D 8670 4319 M -102 0 R D
8670 5919 M -102 0 R D 8670 7519 M -102 0 R D 1870 7299 M 259 -20 R
259 -22 R 259 -25 R 259 -28 R 259 -33 R 259 -41 R 259 -51 R 259 -67 R
259 -22 R 260 -5 R 259 -14 R 259 -25 R 259 -42 R 259 -66 R 259 -102 R
259 -153 R 259 -223 R 259 -285 R 259 -355 R 259 -458 R 259 -605 R 259 -818 R
259 -1126 R 223 -1353 R D 1869 7256 M 69 0 R -68 0 R 0 82 R -1 0 R 69 0 R D
2061 7238 M 136 0 R -68 0 R 0 78 R -68 0 R 136 0 R D 2320 7218 M 136 0 R
-68 0 R 0 74 R -68 0 R 136 0 R D 2579 7195 M 136 0 R -68 0 R 0 71 R -68 0 R
136 0 R D 2838 7168 M 136 0 R -68 0 R 0 69 R -68 0 R 136 0 R D 3097 7136 M
136 0 R -68 0 R 0 67 R -68 0 R 136 0 R D 3356 7095 M 136 0 R -68 0 R 0 67 R
-68 0 R 136 0 R D 3615 7043 M 136 0 R -68 0 R 0 69 R -68 0 R 136 0 R D
3874 6973 M 136 0 R -68 0 R 0 74 R -68 0 R 136 0 R D 4133 6954 M 136 0 R
-68 0 R 0 69 R -68 0 R 136 0 R D 4393 6953 M 136 0 R -68 0 R 0 61 R -68 0 R
136 0 R D 4652 6943 M 136 0 R -68 0 R 0 55 R -68 0 R 136 0 R D 4911 6920 M
136 0 R -68 0 R 0 50 R -68 0 R 136 0 R D 5170 6880 M 136 0 R -68 0 R 0 47 R
-68 0 R 136 0 R D 5429 6814 M 136 0 R -68 0 R 0 45 R -68 0 R 136 0 R D
5688 6712 M 136 0 R -68 0 R 0 45 R -68 0 R 136 0 R D 5947 6557 M 136 0 R
-68 0 R 0 49 R -68 0 R 136 0 R D 6206 6330 M 136 0 R -68 0 R 0 58 R -68 0 R
136 0 R D 6465 6038 M 136 0 R -68 0 R 0 71 R -68 0 R 136 0 R D 6724 5676 M
136 0 R -68 0 R 0 83 R -68 0 R 136 0 R D 6983 5212 M 136 0 R -68 0 R 0 94 R
-68 0 R 136 0 R D 7242 4602 M 136 0 R -68 0 R 0 103 R -68 0 R 136 0 R D
7501 3770 M 136 0 R -68 0 R 0 126 R -68 0 R 136 0 R D 7828 1360 M 0 1617 R
-68 0 R 136 0 R D 8087 1360 M 0 1363 R -68 0 R 136 0 R D 8346 1360 M
0 1359 R -68 0 R 136 0 R D L1 1.000 0.000 0.000 setrgbcolor 1869 7384 M
309 -66 R 324 -23 R 324 -80 R 323 -117 R 324 -22 R 324 -89 R 324 -62 R
324 -29 R 323 -12 R 324 -2 R 324 -24 R 324 -127 R 324 -134 R 324 -223 R
323 -460 R 324 -724 R 324 -241 R 324 241 R D L0 1869 7340 M 53 0 R -53 0 R D
1869 7430 M 53 0 R D 2110 7295 M 136 0 R -68 0 R 0 44 R -68 0 R 136 0 R D
2434 7241 M 136 0 R -68 0 R 0 101 R -68 0 R 136 0 R D 2758 7171 M 136 0 R
-68 0 R 0 83 R -68 0 R 136 0 R D 3081 7077 M 136 0 R -68 0 R 0 41 R -68 0 R
136 0 R D 3405 7056 M 136 0 R -68 0 R 0 40 R -68 0 R 136 0 R D 3729 6968 M
136 0 R -68 0 R 0 38 R -68 0 R 136 0 R D 4053 6904 M 136 0 R -68 0 R 0 42 R
-68 0 R 136 0 R D 4377 6874 M 136 0 R -68 0 R 0 43 R -68 0 R 136 0 R D
4700 6862 M 136 0 R -68 0 R 0 43 R -68 0 R 136 0 R D 5024 6860 M 136 0 R
-68 0 R 0 43 R -68 0 R 136 0 R D 5348 6835 M 136 0 R -68 0 R 0 45 R -68 0 R
136 0 R D 5672 6704 M 136 0 R -68 0 R 0 53 R -68 0 R 136 0 R D 5996 6562 M
136 0 R -68 0 R 0 66 R -68 0 R 136 0 R D 6320 6327 M 136 0 R -68 0 R 0 88 R
-68 0 R 136 0 R D 6643 5813 M 136 0 R -68 0 R 0 179 R -68 0 R 136 0 R D
6967 4754 M 136 0 R -68 0 R 0 623 R -68 0 R 136 0 R D 7291 1360 M 136 0 R
-68 0 R 0 3830 R -68 0 R 136 0 R D 7615 4754 M 136 0 R -68 0 R 0 623 R
-68 0 R 136 0 R D L2 0.000 0.000 1.000 setrgbcolor 2987 7172 M 162 -19 R
162 -38 R 162 -49 R 162 -19 R 162 -41 R 162 -30 R 162 -28 R 162 -7 R
162 -23 R 162 -14 R 161 -1 R 162 -22 R 162 8 R 162 -26 R 162 -26 R 162 -38 R
162 -43 R 162 -68 R 162 -83 R 162 -96 R 162 -128 R 161 -173 R 162 -183 R
162 -219 R 162 -277 R 162 -328 R 162 -332 R 162 -382 R 162 -492 R 162 -496 R
D L0 2919 7158 M 136 0 R -68 0 R 0 27 R -68 0 R 136 0 R D 3081 7140 M
136 0 R -68 0 R 0 26 R -68 0 R 136 0 R D 3243 7103 M 136 0 R -68 0 R 0 24 R
-68 0 R 136 0 R D 3405 7055 M 136 0 R -68 0 R 0 23 R -68 0 R 136 0 R D
3567 7037 M 136 0 R -68 0 R 0 21 R -68 0 R 136 0 R D 3729 6997 M 136 0 R
-68 0 R 0 19 R -68 0 R 136 0 R D 3891 6967 M 136 0 R -68 0 R 0 18 R -68 0 R
136 0 R D 4053 6938 M 136 0 R -68 0 R 0 19 R -68 0 R 136 0 R D 4215 6933 M
136 0 R -68 0 R 0 16 R -68 0 R 136 0 R D 4377 6911 M 136 0 R -68 0 R 0 14 R
-68 0 R 136 0 R D 4539 6898 M 136 0 R -68 0 R 0 12 R -68 0 R 136 0 R D
4700 6898 M 136 0 R -68 0 R 0 11 R -68 0 R 136 0 R D 4862 6876 M 136 0 R
-68 0 R 0 10 R -68 0 R 136 0 R D 5024 6885 M 136 0 R -68 0 R 0 9 R -68 0 R
136 0 R D 5186 6859 M 136 0 R -68 0 R 0 8 R -68 0 R 136 0 R D 5348 6834 M
136 0 R -68 0 R 0 7 R -68 0 R 136 0 R D 5510 6795 M 136 0 R -68 0 R 0 8 R
-68 0 R 136 0 R D 5672 6753 M 136 0 R -68 0 R 0 6 R -68 0 R 136 0 R D
5834 6685 M 136 0 R -68 0 R 0 6 R -68 0 R 136 0 R D 5996 6602 M 136 0 R
-68 0 R 0 7 R -68 0 R 136 0 R D 6158 6505 M 136 0 R -68 0 R 0 7 R -68 0 R
136 0 R D 6320 6377 M 136 0 R -68 0 R 0 7 R -68 0 R 136 0 R D 6481 6204 M
136 0 R -68 0 R 0 8 R -68 0 R 136 0 R D 6643 6021 M 136 0 R -68 0 R 0 9 R
-68 0 R 136 0 R D 6805 5800 M 136 0 R -68 0 R 0 13 R -68 0 R 136 0 R D
6967 5519 M 136 0 R -68 0 R 0 19 R -68 0 R 136 0 R D 7129 5185 M 136 0 R
-68 0 R 0 32 R -68 0 R 136 0 R D 7291 4844 M 136 0 R -68 0 R 0 51 R -68 0 R
136 0 R D 7453 4445 M 136 0 R -68 0 R 0 90 R -68 0 R 136 0 R D 7615 3915 M
136 0 R -68 0 R 0 160 R -68 0 R 136 0 R D 7777 3339 M 136 0 R -68 0 R
0 400 R -68 0 R 136 0 R D L3 0.000 0.549 0.000 setrgbcolor 3068 7073 M
162 14 R 162 13 R 162 -31 R 162 -26 R 162 -17 R 162 -23 R 162 -36 R 162 -6 R
162 -10 R 161 -27 R 162 -2 R 162 -9 R 162 -14 R 162 -1 R 162 -35 R 162 -43 R
162 -50 R 162 -68 R 162 -84 R 162 -104 R 161 -134 R 162 -167 R 162 -198 R
162 -224 R 162 -247 R 162 -276 R 162 -318 R 162 -365 R 162 -500 R 162 -360 R
162 -593 R D L0 3000 7033 M 136 0 R -68 0 R 0 80 R -68 0 R 136 0 R D
3162 7053 M 136 0 R -68 0 R 0 68 R -68 0 R 136 0 R D 3324 7070 M 136 0 R
-68 0 R 0 59 R -68 0 R 136 0 R D 3486 7042 M 136 0 R -68 0 R 0 53 R -68 0 R
136 0 R D 3648 7019 M 136 0 R -68 0 R 0 48 R -68 0 R 136 0 R D 3810 7005 M
136 0 R -68 0 R 0 43 R -68 0 R 136 0 R D 3972 6983 M 136 0 R -68 0 R 0 40 R
-68 0 R 136 0 R D 4134 6949 M 136 0 R -68 0 R 0 36 R -68 0 R 136 0 R D
4296 6945 M 136 0 R -68 0 R 0 32 R -68 0 R 136 0 R D 4458 6937 M 136 0 R
-68 0 R 0 28 R -68 0 R 136 0 R D 4619 6910 M 136 0 R -68 0 R 0 27 R -68 0 R
136 0 R D 4781 6910 M 136 0 R -68 0 R 0 24 R -68 0 R 136 0 R D 4943 6902 M
136 0 R -68 0 R 0 21 R -68 0 R 136 0 R D 5105 6889 M 136 0 R -68 0 R 0 20 R
-68 0 R 136 0 R D 5267 6889 M 136 0 R -68 0 R 0 18 R -68 0 R 136 0 R D
5429 6855 M 136 0 R -68 0 R 0 16 R -68 0 R 136 0 R D 5591 6812 M 136 0 R
-68 0 R 0 16 R -68 0 R 136 0 R D 5753 6763 M 136 0 R -68 0 R 0 14 R -68 0 R
136 0 R D 5915 6695 M 136 0 R -68 0 R 0 14 R -68 0 R 136 0 R D 6077 6611 M
136 0 R -68 0 R 0 14 R -68 0 R 136 0 R D 6239 6507 M 136 0 R -68 0 R 0 14 R
-68 0 R 136 0 R D 6400 6372 M 136 0 R -68 0 R 0 16 R -68 0 R 136 0 R D
6562 6205 M 136 0 R -68 0 R 0 17 R -68 0 R 136 0 R D 6724 6005 M 136 0 R
-68 0 R 0 20 R -68 0 R 136 0 R D 6886 5778 M 136 0 R -68 0 R 0 26 R -68 0 R
136 0 R D 7048 5528 M 136 0 R -68 0 R 0 32 R -68 0 R 136 0 R D 7210 5246 M
136 0 R -68 0 R 0 43 R -68 0 R 136 0 R D 7372 4920 M 136 0 R -68 0 R 0 61 R
-68 0 R 136 0 R D 7534 4537 M 136 0 R -68 0 R 0 95 R -68 0 R 136 0 R D
7696 3997 M 136 0 R -68 0 R 0 176 R -68 0 R 136 0 R D 7858 3586 M 136 0 R
-68 0 R 0 277 R -68 0 R 136 0 R D 8020 2817 M 136 0 R -68 0 R 0 629 R
-68 0 R 136 0 R D L4 0.588 0.000 0.588 setrgbcolor 3068 7072 M 162 17 R
162 -4 R 162 12 R 162 -29 R 162 -27 R 162 -21 R 162 -21 R 162 -26 R 162 -5 R
161 -31 R 162 -13 R 162 -6 R 162 -12 R 162 -9 R 162 -18 R 162 -44 R
162 -44 R 162 -57 R 162 -78 R 162 -83 R 161 -106 R 162 -130 R 162 -156 R
162 -158 R 162 -194 R 162 -192 R 162 -211 R 162 -262 R 162 -249 R 162 -284 R
162 -390 R 161 -316 R 162 -270 R D L0 3000 7029 M 136 0 R -68 0 R 0 86 R
-68 0 R 136 0 R D 3162 7051 M 136 0 R -68 0 R 0 75 R -68 0 R 136 0 R D
3324 7052 M 136 0 R -68 0 R 0 65 R -68 0 R 136 0 R D 3486 7069 M 136 0 R
-68 0 R 0 56 R -68 0 R 136 0 R D 3648 7042 M 136 0 R -68 0 R 0 51 R -68 0 R
136 0 R D 3810 7018 M 136 0 R -68 0 R 0 47 R -68 0 R 136 0 R D 3972 6999 M
136 0 R -68 0 R 0 42 R -68 0 R 136 0 R D 4134 6981 M 136 0 R -68 0 R 0 36 R
-68 0 R 136 0 R D 4296 6956 M 136 0 R -68 0 R 0 33 R -68 0 R 136 0 R D
4458 6953 M 136 0 R -68 0 R 0 30 R -68 0 R 136 0 R D 4619 6923 M 136 0 R
-68 0 R 0 27 R -68 0 R 136 0 R D 4781 6911 M 136 0 R -68 0 R 0 26 R -68 0 R
136 0 R D 4943 6907 M 136 0 R -68 0 R 0 22 R -68 0 R 136 0 R D 5105 6896 M
136 0 R -68 0 R 0 21 R -68 0 R 136 0 R D 5267 6888 M 136 0 R -68 0 R 0 19 R
-68 0 R 136 0 R D 5429 6870 M 136 0 R -68 0 R 0 18 R -68 0 R 136 0 R D
5591 6827 M 136 0 R -68 0 R 0 16 R -68 0 R 136 0 R D 5753 6783 M 136 0 R
-68 0 R 0 16 R -68 0 R 136 0 R D 5915 6727 M 136 0 R -68 0 R 0 14 R -68 0 R
136 0 R D 6077 6649 M 136 0 R -68 0 R 0 14 R -68 0 R 136 0 R D 6239 6565 M
136 0 R -68 0 R 0 15 R -68 0 R 136 0 R D 6400 6459 M 136 0 R -68 0 R 0 16 R
-68 0 R 136 0 R D 6562 6329 M 136 0 R -68 0 R 0 16 R -68 0 R 136 0 R D
6724 6171 M 136 0 R -68 0 R 0 19 R -68 0 R 136 0 R D 6886 6013 M 136 0 R
-68 0 R 0 20 R -68 0 R 136 0 R D 7048 5817 M 136 0 R -68 0 R 0 25 R -68 0 R
136 0 R D 7210 5621 M 136 0 R -68 0 R 0 31 R -68 0 R 136 0 R D 7372 5407 M
136 0 R -68 0 R 0 38 R -68 0 R 136 0 R D 7534 5139 M 136 0 R -68 0 R 0 50 R
-68 0 R 136 0 R D 7696 4881 M 136 0 R -68 0 R 0 68 R -68 0 R 136 0 R D
7858 4583 M 136 0 R -68 0 R 0 96 R -68 0 R 136 0 R D 8020 4160 M 136 0 R
-68 0 R 0 161 R -68 0 R 136 0 R D 8181 3808 M 136 0 R -68 0 R 0 235 R
-68 0 R 136 0 R D 8343 3422 M 136 0 R -68 0 R 0 466 R -68 0 R 136 0 R D
0.000 0.000 0.000 setrgbcolor 2278 4112 M 82 0 R 81 0 R 82 0 R 81 0 R 82 0 R
82 0 R 81 0 R 82 0 R 81 0 R D L1 1.000 0.000 0.000 setrgbcolor 2278 3536 M
82 0 R 81 0 R 82 0 R 81 0 R 82 0 R 82 0 R 81 0 R 82 0 R 81 0 R D L2
0.000 0.000 1.000 setrgbcolor 2278 2960 M 82 0 R 81 0 R 82 0 R 81 0 R 82 0 R
82 0 R 81 0 R 82 0 R 81 0 R D L3 0.000 0.549 0.000 setrgbcolor 2278 2384 M
82 0 R 81 0 R 82 0 R 81 0 R 82 0 R 82 0 R 81 0 R 82 0 R 81 0 R D L4
0.588 0.000 0.588 setrgbcolor 2278 1808 M 82 0 R 81 0 R 82 0 R 81 0 R 82 0 R
82 0 R 81 0 R 82 0 R 81 0 R D 0.000 0.000 0.000 setrgbcolor
gsave 3094 3943 translate 0 0 M
(Li2009) show grestore 1.000 0.000 0.000 setrgbcolor
gsave 3094 3367 translate 0 0 M
(Baldry2012) show grestore 0.000 0.000 1.000 setrgbcolor
gsave 3094 2791 translate 0 0 M
(Moustakas2013) show grestore 0.000 0.549 0.000 setrgbcolor
gsave 3094 2215 translate 0 0 M
(Bernardi2010) show grestore 0.588 0.000 0.588 setrgbcolor
gsave 3094 1639 translate 0 0 M
(Bernardi2013) show grestore 0.000 0.000 0.000 setrgbcolor
gsave 7310 7120 translate 0 0 M
(Field) show grestore L0 9690 1360 M 6800 0 R D 9690 1360 M 0 192 R D
gsave 9690 832 translate 0 0 M -117.687 0 N
(8) show grestore 11309 1360 M 0 192 R D gsave 11309 832 translate 0 0 M
-117.687 0 N
(9) show grestore 12928 1360 M 0 192 R D gsave 12928 832 translate 0 0 M
-235.373 0 N
(10) show grestore 14547 1360 M 0 192 R D gsave 14547 832 translate 0 0 M
-235.373 0 N
(11) show grestore 16166 1360 M 0 192 R D gsave 16166 832 translate 0 0 M
-235.373 0 N
(12) show grestore 9852 1360 M 0 96 R D 10014 1360 M 0 96 R D 10176 1360 M
0 96 R D 10338 1360 M 0 96 R D 10500 1360 M 0 96 R D 10662 1360 M 0 96 R D
10823 1360 M 0 96 R D 10985 1360 M 0 96 R D 11147 1360 M 0 96 R D
11471 1360 M 0 96 R D 11633 1360 M 0 96 R D 11795 1360 M 0 96 R D
11957 1360 M 0 96 R D 12119 1360 M 0 96 R D 12281 1360 M 0 96 R D
12443 1360 M 0 96 R D 12604 1360 M 0 96 R D 12766 1360 M 0 96 R D
13090 1360 M 0 96 R D 13252 1360 M 0 96 R D 13414 1360 M 0 96 R D
13576 1360 M 0 96 R D 13738 1360 M 0 96 R D 13900 1360 M 0 96 R D
14062 1360 M 0 96 R D 14223 1360 M 0 96 R D 14385 1360 M 0 96 R D
14709 1360 M 0 96 R D 14871 1360 M 0 96 R D 15033 1360 M 0 96 R D
15195 1360 M 0 96 R D 15357 1360 M 0 96 R D 15519 1360 M 0 96 R D
15681 1360 M 0 96 R D 15843 1360 M 0 96 R D 16004 1360 M 0 96 R D
16328 1360 M 0 96 R D 16490 1360 M 0 96 R D 9690 7760 M 6800 0 R D
9690 7760 M 0 -192 R D 11309 7760 M 0 -192 R D 12928 7760 M 0 -192 R D
14547 7760 M 0 -192 R D 16166 7760 M 0 -192 R D 9852 7760 M 0 -96 R D
10014 7760 M 0 -96 R D 10176 7760 M 0 -96 R D 10338 7760 M 0 -96 R D
10500 7760 M 0 -96 R D 10662 7760 M 0 -96 R D 10823 7760 M 0 -96 R D
10985 7760 M 0 -96 R D 11147 7760 M 0 -96 R D 11471 7760 M 0 -96 R D
11633 7760 M 0 -96 R D 11795 7760 M 0 -96 R D 11957 7760 M 0 -96 R D
12119 7760 M 0 -96 R D 12281 7760 M 0 -96 R D 12443 7760 M 0 -96 R D
12604 7760 M 0 -96 R D 12766 7760 M 0 -96 R D 13090 7760 M 0 -96 R D
13252 7760 M 0 -96 R D 13414 7760 M 0 -96 R D 13576 7760 M 0 -96 R D
13738 7760 M 0 -96 R D 13900 7760 M 0 -96 R D 14062 7760 M 0 -96 R D
14223 7760 M 0 -96 R D 14385 7760 M 0 -96 R D 14709 7760 M 0 -96 R D
14871 7760 M 0 -96 R D 15033 7760 M 0 -96 R D 15195 7760 M 0 -96 R D
15357 7760 M 0 -96 R D 15519 7760 M 0 -96 R D 15681 7760 M 0 -96 R D
15843 7760 M 0 -96 R D 16004 7760 M 0 -96 R D 16328 7760 M 0 -96 R D
16490 7760 M 0 -96 R D 9690 1360 M 0 6400 R D 9690 1983 M 204 0 R D
gsave 9579 1843 translate 0 0 M -704.08 0 N
(10) show X 192.937 M
%%IncludeResource: font Helvetica
262.467 /Helvetica STDFONT
(-4) show grestore
%%IncludeResource: font Helvetica
423.333 /Helvetica STDFONT 9690 3767 M 204 0 R D
gsave 9579 3626 translate 0 0 M -704.08 0 N
(10) show X 192.937 M
%%IncludeResource: font Helvetica
262.467 /Helvetica STDFONT
(-2) show grestore
%%IncludeResource: font Helvetica
423.333 /Helvetica STDFONT 9690 5551 M 204 0 R D
gsave 9579 5410 translate 0 0 M -616.678 0 N
(10) show X 192.937 M
%%IncludeResource: font Helvetica
262.467 /Helvetica STDFONT
(0) show grestore
%%IncludeResource: font Helvetica
423.333 /Helvetica STDFONT 9690 7335 M 204 0 R D
gsave 9579 7194 translate 0 0 M -616.678 0 N
(10) show X 192.937 M
%%IncludeResource: font Helvetica
262.467 /Helvetica STDFONT
(2) show grestore
%%IncludeResource: font Helvetica
423.333 /Helvetica STDFONT 9690 2875 M 102 0 R D 9690 4659 M 102 0 R D
9690 6443 M 102 0 R D 16490 1360 M 0 6400 R D 16490 1983 M -204 0 R D
16490 3767 M -204 0 R D 16490 5551 M -204 0 R D 16490 7335 M -204 0 R D
16490 2875 M -102 0 R D 16490 4659 M -102 0 R D 16490 6443 M -102 0 R D
12831 6590 M 196 -21 R 196 -40 R 195 -62 R 196 -93 R 196 -132 R 195 -186 R
196 -256 R 195 -348 R 196 -470 R 196 -631 R 195 -844 R 196 -1125 R D
12763 6500 M 136 0 R -68 0 R 0 183 R -68 0 R 136 0 R D 12959 6479 M 136 0 R
-68 0 R 0 179 R -68 0 R 136 0 R D 13155 6438 M 136 0 R -68 0 R 0 181 R
-68 0 R 136 0 R D 13350 6370 M 136 0 R -68 0 R 0 190 R -68 0 R 136 0 R D
13546 6266 M 136 0 R -68 0 R 0 209 R -68 0 R 136 0 R D 13742 6115 M 136 0 R
-68 0 R 0 241 R -68 0 R 136 0 R D 13937 5902 M 136 0 R -68 0 R 0 290 R
-68 0 R 136 0 R D 14133 5607 M 136 0 R -68 0 R 0 361 R -68 0 R 136 0 R D
14328 5203 M 136 0 R -68 0 R 0 463 R -68 0 R 136 0 R D 14524 4656 M 136 0 R
-68 0 R 0 604 R -68 0 R 136 0 R D 14720 3920 M 136 0 R -68 0 R 0 797 R
-68 0 R 136 0 R D 14915 2934 M 136 0 R -68 0 R 0 1059 R -68 0 R 136 0 R D
15111 1617 M 136 0 R -68 0 R 0 1412 R -68 0 R 136 0 R D L1
0.761 0.000 0.000 setrgbcolor 10180 7103 M 356 -41 R 356 -39 R 356 -38 R
356 -38 R 355 -39 R 356 -42 R 356 -49 R 356 -62 R 356 -86 R 356 -127 R
356 -195 R 356 -308 R 356 -497 R 356 -809 R 356 -1324 R D L0 10112 6802 M
136 0 R -68 0 R 0 604 R -68 0 R 136 0 R D 10468 6780 M 136 0 R -68 0 R
0 564 R -68 0 R 136 0 R D 10824 6760 M 136 0 R -68 0 R 0 524 R -68 0 R
136 0 R D 11180 6738 M 136 0 R -68 0 R 0 489 R -68 0 R 136 0 R D
11536 6716 M 136 0 R -68 0 R 0 455 R -68 0 R 136 0 R D 11891 6689 M 136 0 R
-68 0 R 0 427 R -68 0 R 136 0 R D 12247 6657 M 136 0 R -68 0 R 0 403 R
-68 0 R 136 0 R D 12603 6612 M 136 0 R -68 0 R 0 390 R -68 0 R 136 0 R D
12959 6548 M 136 0 R -68 0 R 0 388 R -68 0 R 136 0 R D 13315 6451 M 136 0 R
-68 0 R 0 403 R -68 0 R 136 0 R D 13671 6298 M 136 0 R -68 0 R 0 447 R
-68 0 R 136 0 R D 14027 6053 M 136 0 R -68 0 R 0 534 R -68 0 R 136 0 R D
14383 5659 M 136 0 R -68 0 R 0 686 R -68 0 R 136 0 R D 14739 5018 M 136 0 R
-68 0 R 0 945 R -68 0 R 136 0 R D 15095 3970 M 136 0 R -68 0 R 0 1374 R
-68 0 R 136 0 R D 15451 2241 M 136 0 R -68 0 R 0 2092 R -68 0 R 136 0 R D L2
0.000 0.549 0.000 setrgbcolor 11147 6964 M 351 -42 R 351 -43 R 351 -43 R
350 -44 R 351 -47 R 351 -53 R 351 -73 R 351 -122 R 350 -221 R 351 -272 R
351 -297 R 351 -702 R D L0 11079 6787 M 136 0 R -68 0 R 0 351 R -68 0 R
136 0 R D 11430 6758 M 136 0 R -68 0 R 0 324 R -68 0 R 136 0 R D
11781 6728 M 136 0 R -68 0 R 0 298 R -68 0 R 136 0 R D 12132 6699 M 136 0 R
-68 0 R 0 270 R -68 0 R 136 0 R D 12482 6668 M 136 0 R -68 0 R 0 244 R
-68 0 R 136 0 R D 12833 6635 M 136 0 R -68 0 R 0 217 R -68 0 R 136 0 R D
13184 6594 M 136 0 R -68 0 R 0 192 R -68 0 R 136 0 R D 13535 6532 M 136 0 R
-68 0 R 0 171 R -68 0 R 136 0 R D 13886 6416 M 136 0 R -68 0 R 0 158 R
-68 0 R 136 0 R D 14236 6204 M 136 0 R -68 0 R 0 143 R -68 0 R 136 0 R D
14587 5982 M 136 0 R -68 0 R 0 52 R -68 0 R 136 0 R D 14938 5664 M 136 0 R
-68 0 R 0 77 R -68 0 R 136 0 R D 15289 4849 M 136 0 R -68 0 R 0 286 R
-68 0 R 136 0 R D L3 0.000 0.000 1.000 setrgbcolor 10904 6787 M 353 -39 R
353 -41 R 353 -41 R 352 -44 R 353 -46 R 353 -51 R 352 -59 R 353 -71 R
353 -93 R 353 -129 R 352 -187 R 353 -283 R 353 -443 R 353 -706 R D L0
0.000 0.000 0.000 setrgbcolor 10098 3600 M 82 0 R 81 0 R 82 0 R 81 0 R
82 0 R 82 0 R 81 0 R 82 0 R 81 0 R D L1 0.761 0.000 0.000 setrgbcolor
10098 3024 M 82 0 R 81 0 R 82 0 R 81 0 R 82 0 R 82 0 R 81 0 R 82 0 R 81 0 R
D L2 0.000 0.549 0.000 setrgbcolor 10098 2448 M 82 0 R 81 0 R 82 0 R 81 0 R
82 0 R 82 0 R 81 0 R 82 0 R 81 0 R D L3 0.000 0.000 1.000 setrgbcolor
10098 1872 M 82 0 R 81 0 R 82 0 R 81 0 R 82 0 R 82 0 R 81 0 R 82 0 R 81 0 R
D 0.000 0.000 0.000 setrgbcolor gsave 10914 3431 translate 0 0 M
(Vulcani2014) show grestore 0.761 0.000 0.000 setrgbcolor
gsave 10914 2855 translate 0 0 M
(Giodini2012) show grestore 0.000 0.549 0.000 setrgbcolor
gsave 10914 2279 translate 0 0 M
(Yang2009) show grestore 0.000 0.000 1.000 setrgbcolor
gsave 10914 1703 translate 0 0 M
(Merluzzi2010) show grestore 0.000 0.000 0.000 setrgbcolor
gsave 15130 7120 translate 0 0 M
(Cluster) show grestore
%%PageTrailer
end
%%PageResources: font Helvetica
%%+ font Symbol
%%+ font AvantGarde-Book
%%Trailer
%%Pages: 1
%%DocumentNeededResources: font Helvetica
%%+ font Symbol
%%+ font AvantGarde-Book
%%EOF
