%!PS-Adobe-3.0 EPSF-3.0
%%BoundingBox: 0 0 510 198
%%Title: Graphics produced by IDL
%%For: jlgan@Hserver, /home/jlgan/work/phoenix
%%Creator: IDL Version 7.1.1 (linux x86_64 m64)
%%CreationDate: Tue Jul  1 11:41:02 2014
%%DocumentData: Clean7bit
%%Requirements: color
%%LanguageLevel: 1
%%PageOrder: Ascend
%%Pages: (atend)
%%DocumentNeededResources: (atend)
%%EndComments
%%BeginProlog
%+ prolog.ps -- Prolog for IDL generated PostScript files
%+ Copyright (c) 1988-2009 ITT Visual Information Solutions. All Rights Reserved.
%v 5
/$IDL_DICT 40 dict def $IDL_DICT begin /bdef { bind def } bind def /C
{currentpoint newpath moveto} bdef /CP {currentpoint} bdef /D {currentpoint
stroke moveto} bdef /F {closepath fill} bdef /K { setgray } bdef /M {moveto}
bdef /N {rmoveto} bdef /P {lineto} bdef /R {rlineto} bdef /S {gsave show
grestore} bdef /X {currentpoint pop} bdef /Z {gsave currentpoint lineto 20
setlinewidth 1 setlinecap stroke grestore} bdef /L0 {[] 0 setdash} bdef /L1
{[40 100] 0 setdash} bdef /L2 {[200 200] 0 setdash} bdef /L3 {[200 100 50
100] 0 setdash} bdef /L4 {[300 100 50 100 50 100 50 100] 0 setdash} bdef /L5
{[400 200] 0 setdash} bdef /STDFONT { findfont exch scalefont setfont } bdef
/ISOFONT { findfont dup length dict begin { 1 index /FID ne {def} {pop pop}
ifelse } forall /Encoding ISOLatin1Encoding def currentdict end /idltmpfont
exch definefont exch scalefont setfont } bdef /ISOBULLET { gsave /Helvetica
findfont exch scalefont setfont (\267) show currentpoint grestore moveto}
bdef /MITERLIMIT { 2.5 setmiterlimit } bdef end
%%EndProlog
%%Page: 0 1
%%PageRequirements: color
%%PageResources: (atend)
%%PageOrientation: Portrait
%%PageBoundingBox: 0 0 510 198
%%BeginPageSetup
$IDL_DICT begin 0.0283465 dup scale MITERLIMIT
%%IncludeResource: font Helvetica
423.333 /Helvetica STDFONT
%%EndPageSetup
0.000 0.000 0.000 setrgbcolor gsave 9777 6472 translate 0 0 M 1.25 dup scale
-1265.8 0 N
(within 0.6R) show X -101.051 M
%%IncludeResource: font Helvetica
262.467 /Helvetica STDFONT
(200) show grestore
%%IncludeResource: font Helvetica
423.333 /Helvetica STDFONT gsave 9777 352 translate 0 0 M -1506.41 0 N
(log[M) show X -101.051 M
%%IncludeResource: font Symbol
262.467 /Symbol STDFONT
(*) show X 0 M
%%IncludeResource: font Helvetica
423.333 /Helvetica STDFONT
( / \(h) show X 192.937 M
%%IncludeResource: font Helvetica
262.467 /Helvetica STDFONT
(-2) show X 0 M
%%IncludeResource: font Helvetica
423.333 /Helvetica STDFONT
(M) show CP X -101.051 M
%%IncludeResource: font AvantGarde-Book
262.467 /AvantGarde-Book STDFONT
(O) show M X -58.3193 M
%%IncludeResource: font AvantGarde-Book
186.267 /AvantGarde-Book STDFONT
( \267) show X 0 M
%%IncludeResource: font Helvetica
423.333 /Helvetica STDFONT
(\)]) show grestore gsave 888 3852 translate 0 0 M 90 rotate -2273.04 0 N
%%IncludeResource: font Symbol
423.333 /Symbol STDFONT
(f) show
%%IncludeResource: font Helvetica
423.333 /Helvetica STDFONT
(\(M) show X -101.051 M
%%IncludeResource: font Symbol
262.467 /Symbol STDFONT
(*) show X 0 M
%%IncludeResource: font Helvetica
423.333 /Helvetica STDFONT
(\) / \(h) show X 192.937 M
%%IncludeResource: font Helvetica
262.467 /Helvetica STDFONT
(3) show X 0 M
%%IncludeResource: font Helvetica
423.333 /Helvetica STDFONT
(Mpc) show X 192.937 M
%%IncludeResource: font Helvetica
262.467 /Helvetica STDFONT
(-3) show X 0 M
%%IncludeResource: font Helvetica
423.333 /Helvetica STDFONT
(log) show X 192.937 M
%%IncludeResource: font Helvetica
262.467 /Helvetica STDFONT
(-1) show X 0 M
%%IncludeResource: font Helvetica
423.333 /Helvetica STDFONT
(M) show X -101.051 M
%%IncludeResource: font Symbol
262.467 /Symbol STDFONT
(*) show X 0 M
%%IncludeResource: font Helvetica
423.333 /Helvetica STDFONT
(\)) show grestore 30 setlinewidth L0 2220 1408 M 5038 0 R D 2724 1408 M
0 196 R D gsave 2724 880 translate 0 0 M -411.903 0 N
(10.0) show grestore 3983 1408 M 0 196 R D gsave 3983 880 translate 0 0 M
-411.903 0 N
(10.5) show grestore 5243 1408 M 0 196 R D gsave 5243 880 translate 0 0 M
-411.903 0 N
(11.0) show grestore 6502 1408 M 0 196 R D gsave 6502 880 translate 0 0 M
-411.903 0 N
(11.5) show grestore 2220 1408 M 0 98 R D 2472 1408 M 0 98 R D 2976 1408 M
0 98 R D 3228 1408 M 0 98 R D 3480 1408 M 0 98 R D 3731 1408 M 0 98 R D
4235 1408 M 0 98 R D 4487 1408 M 0 98 R D 4739 1408 M 0 98 R D 4991 1408 M
0 98 R D 5495 1408 M 0 98 R D 5747 1408 M 0 98 R D 5999 1408 M 0 98 R D
6250 1408 M 0 98 R D 6754 1408 M 0 98 R D 7006 1408 M 0 98 R D 7258 1408 M
0 98 R D 2220 6296 M 5038 0 R D 2724 6296 M 0 -195 R D 3983 6296 M 0 -195 R
D 5243 6296 M 0 -195 R D 6502 6296 M 0 -195 R D 2220 6296 M 0 -98 R D
2472 6296 M 0 -98 R D 2976 6296 M 0 -98 R D 3228 6296 M 0 -98 R D
3480 6296 M 0 -98 R D 3731 6296 M 0 -98 R D 4235 6296 M 0 -98 R D
4487 6296 M 0 -98 R D 4739 6296 M 0 -98 R D 4991 6296 M 0 -98 R D
5495 6296 M 0 -98 R D 5747 6296 M 0 -98 R D 5999 6296 M 0 -98 R D
6250 6296 M 0 -98 R D 6754 6296 M 0 -98 R D 7006 6296 M 0 -98 R D
7258 6296 M 0 -98 R D 2220 1408 M 0 4888 R D 2220 2446 M 202 0 R D
gsave 2109 2305 translate 0 0 M -704.08 0 N
(10) show X 192.937 M
%%IncludeResource: font Helvetica
262.467 /Helvetica STDFONT
(-4) show grestore
%%IncludeResource: font Helvetica
423.333 /Helvetica STDFONT 2220 3668 M 202 0 R D
gsave 2109 3527 translate 0 0 M -704.08 0 N
(10) show X 192.937 M
%%IncludeResource: font Helvetica
262.467 /Helvetica STDFONT
(-2) show grestore
%%IncludeResource: font Helvetica
423.333 /Helvetica STDFONT 2220 4890 M 202 0 R D
gsave 2109 4749 translate 0 0 M -616.678 0 N
(10) show X 192.937 M
%%IncludeResource: font Helvetica
262.467 /Helvetica STDFONT
(0) show grestore
%%IncludeResource: font Helvetica
423.333 /Helvetica STDFONT 2220 6112 M 202 0 R D
gsave 2109 5971 translate 0 0 M -616.678 0 N
(10) show X 192.937 M
%%IncludeResource: font Helvetica
262.467 /Helvetica STDFONT
(2) show grestore
%%IncludeResource: font Helvetica
423.333 /Helvetica STDFONT 2220 1835 M 101 0 R D 2220 3057 M 101 0 R D
2220 4279 M 101 0 R D 2220 5501 M 101 0 R D 7258 1408 M 0 4888 R D
7258 2446 M -201 0 R D 7258 3668 M -201 0 R D 7258 4890 M -201 0 R D
7258 6112 M -201 0 R D 7258 1835 M -101 0 R D 7258 3057 M -101 0 R D
7258 4279 M -101 0 R D 7258 5501 M -101 0 R D L1 2447 5678 M 315 -34 R
315 -45 R 315 -60 R 315 -81 R 315 -108 R 315 -144 R 314 -192 R 315 -258 R
315 -343 R 315 -458 R 315 -611 R 315 -816 R D L0 2397 5602 M 101 0 R -51 0 R
0 152 R -50 0 R 101 0 R D 2712 5570 M 101 0 R -51 0 R 0 148 R -50 0 R
101 0 R D 3027 5525 M 100 0 R -50 0 R 0 148 R -50 0 R 100 0 R D 3342 5462 M
100 0 R -50 0 R 0 152 R -50 0 R 100 0 R D 3656 5375 M 101 0 R -50 0 R
0 163 R -51 0 R 101 0 R D 3971 5255 M 101 0 R -50 0 R 0 183 R -51 0 R
101 0 R D 4286 5093 M 101 0 R -50 0 R 0 215 R -51 0 R 101 0 R D 4601 4874 M
101 0 R -51 0 R 0 263 R -50 0 R 101 0 R D 4916 4580 M 101 0 R -51 0 R
0 330 R -50 0 R 101 0 R D 5231 4184 M 101 0 R -51 0 R 0 427 R -50 0 R
101 0 R D 5546 3653 M 100 0 R -50 0 R 0 560 R -50 0 R 100 0 R D 5861 2942 M
100 0 R -50 0 R 0 743 R -50 0 R 100 0 R D 6175 1992 M 101 0 R -50 0 R
0 992 R -51 0 R 101 0 R D 2220 5704 M 194 15 R 447 -41 R 448 -138 R
448 -252 R 448 -163 R 448 -196 R 448 -530 R 448 -537 R 448 -720 R
448 -1716 R D 2363 5681 M 101 0 R -50 0 R 0 77 R -51 0 R 101 0 R D
2811 5612 M 101 0 R -51 0 R 0 132 R -50 0 R 101 0 R D 3259 5456 M 101 0 R
-51 0 R 0 169 R -50 0 R 101 0 R D 3707 5144 M 101 0 R -51 0 R 0 287 R
-50 0 R 101 0 R D 4155 4962 M 101 0 R -51 0 R 0 326 R -50 0 R 101 0 R D
4603 4741 M 100 0 R -50 0 R 0 377 R -50 0 R 100 0 R D 5051 3389 M 100 0 R
-50 0 R 0 2020 R -50 0 R 100 0 R D 5499 2493 M 100 0 R -50 0 R 0 2737 R
-50 0 R 100 0 R D 5997 1408 M 0 3628 R -51 0 R 101 0 R D 6445 1408 M
0 2443 R -51 0 R 101 0 R D 7258 1408 M 5038 0 R D 7762 1408 M 0 196 R D
gsave 7762 880 translate 0 0 M -411.903 0 N
(10.0) show grestore 9021 1408 M 0 196 R D gsave 9021 880 translate 0 0 M
-411.903 0 N
(10.5) show grestore 10281 1408 M 0 196 R D gsave 10281 880 translate 0 0 M
-411.903 0 N
(11.0) show grestore 11540 1408 M 0 196 R D gsave 11540 880 translate 0 0 M
-411.903 0 N
(11.5) show grestore 7258 1408 M 0 98 R D 7510 1408 M 0 98 R D 8014 1408 M
0 98 R D 8266 1408 M 0 98 R D 8518 1408 M 0 98 R D 8769 1408 M 0 98 R D
9273 1408 M 0 98 R D 9525 1408 M 0 98 R D 9777 1408 M 0 98 R D 10029 1408 M
0 98 R D 10533 1408 M 0 98 R D 10785 1408 M 0 98 R D 11037 1408 M 0 98 R D
11288 1408 M 0 98 R D 11792 1408 M 0 98 R D 12044 1408 M 0 98 R D
12296 1408 M 0 98 R D 7258 6296 M 5038 0 R D 7762 6296 M 0 -195 R D
9021 6296 M 0 -195 R D 10281 6296 M 0 -195 R D 11540 6296 M 0 -195 R D
7258 6296 M 0 -98 R D 7510 6296 M 0 -98 R D 8014 6296 M 0 -98 R D
8266 6296 M 0 -98 R D 8518 6296 M 0 -98 R D 8769 6296 M 0 -98 R D
9273 6296 M 0 -98 R D 9525 6296 M 0 -98 R D 9777 6296 M 0 -98 R D
10029 6296 M 0 -98 R D 10533 6296 M 0 -98 R D 10785 6296 M 0 -98 R D
11037 6296 M 0 -98 R D 11288 6296 M 0 -98 R D 11792 6296 M 0 -98 R D
12044 6296 M 0 -98 R D 12296 6296 M 0 -98 R D 7258 1408 M 0 4888 R D
7258 2446 M 202 0 R D gsave 7147 2305 translate 0 0 M -117.687 0 N
( ) show grestore 7258 3668 M 202 0 R D gsave 7147 3527 translate 0 0 M
-117.687 0 N
( ) show grestore 7258 4890 M 202 0 R D gsave 7147 4749 translate 0 0 M
-117.687 0 N
( ) show grestore 7258 6112 M 202 0 R D gsave 7147 5971 translate 0 0 M
-117.687 0 N
( ) show grestore 7258 1835 M 101 0 R D 7258 3057 M 101 0 R D 7258 4279 M
101 0 R D 7258 5501 M 101 0 R D 12296 1408 M 0 4888 R D 12296 2446 M
-201 0 R D 12296 3668 M -201 0 R D 12296 4890 M -201 0 R D 12296 6112 M
-201 0 R D 12296 1835 M -101 0 R D 12296 3057 M -101 0 R D 12296 4279 M
-101 0 R D 12296 5501 M -101 0 R D L1 7485 5678 M 315 -34 R 315 -45 R
315 -60 R 315 -81 R 315 -108 R 315 -144 R 314 -192 R 315 -258 R 315 -343 R
315 -458 R 315 -611 R 315 -816 R D L0 7435 5602 M 101 0 R -51 0 R 0 152 R
-50 0 R 101 0 R D 7750 5570 M 101 0 R -51 0 R 0 148 R -50 0 R 101 0 R D
8065 5525 M 100 0 R -50 0 R 0 148 R -50 0 R 100 0 R D 8380 5462 M 100 0 R
-50 0 R 0 152 R -50 0 R 100 0 R D 8694 5375 M 101 0 R -50 0 R 0 163 R
-51 0 R 101 0 R D 9009 5255 M 101 0 R -50 0 R 0 183 R -51 0 R 101 0 R D
9324 5093 M 101 0 R -50 0 R 0 215 R -51 0 R 101 0 R D 9639 4874 M 101 0 R
-51 0 R 0 263 R -50 0 R 101 0 R D 9954 4580 M 101 0 R -51 0 R 0 330 R
-50 0 R 101 0 R D 10269 4184 M 101 0 R -51 0 R 0 427 R -50 0 R 101 0 R D
10584 3653 M 100 0 R -50 0 R 0 560 R -50 0 R 100 0 R D 10899 2942 M 100 0 R
-50 0 R 0 743 R -50 0 R 100 0 R D 11213 1992 M 101 0 R -50 0 R 0 992 R
-51 0 R 101 0 R D 1.000 0.000 0.000 setrgbcolor 7258 5704 M 194 15 R
447 -41 R 448 -138 R 448 -252 R 448 -163 R 448 -196 R 448 -530 R 448 -537 R
448 -720 R 448 -1716 R D 7401 5681 M 101 0 R -50 0 R 0 77 R -51 0 R 101 0 R
D 7849 5612 M 101 0 R -51 0 R 0 132 R -50 0 R 101 0 R D 8297 5456 M 101 0 R
-51 0 R 0 169 R -50 0 R 101 0 R D 8745 5144 M 101 0 R -51 0 R 0 287 R
-50 0 R 101 0 R D 9193 4962 M 101 0 R -51 0 R 0 326 R -50 0 R 101 0 R D
9641 4741 M 100 0 R -50 0 R 0 377 R -50 0 R 100 0 R D 10089 3389 M 100 0 R
-50 0 R 0 2020 R -50 0 R 100 0 R D 10537 2493 M 100 0 R -50 0 R 0 2737 R
-50 0 R 100 0 R D 11035 1408 M 0 3628 R -51 0 R 101 0 R D 11483 1408 M
0 2443 R -51 0 R 101 0 R D 0.000 0.000 0.000 setrgbcolor 12296 1408 M
5038 0 R D 12800 1408 M 0 196 R D gsave 12800 880 translate 0 0 M
-411.903 0 N
(10.0) show grestore 14059 1408 M 0 196 R D gsave 14059 880 translate 0 0 M
-411.903 0 N
(10.5) show grestore 15319 1408 M 0 196 R D gsave 15319 880 translate 0 0 M
-411.903 0 N
(11.0) show grestore 16578 1408 M 0 196 R D gsave 16578 880 translate 0 0 M
-411.903 0 N
(11.5) show grestore 12296 1408 M 0 98 R D 12548 1408 M 0 98 R D
13052 1408 M 0 98 R D 13304 1408 M 0 98 R D 13556 1408 M 0 98 R D
13807 1408 M 0 98 R D 14311 1408 M 0 98 R D 14563 1408 M 0 98 R D
14815 1408 M 0 98 R D 15067 1408 M 0 98 R D 15571 1408 M 0 98 R D
15823 1408 M 0 98 R D 16075 1408 M 0 98 R D 16326 1408 M 0 98 R D
16830 1408 M 0 98 R D 17082 1408 M 0 98 R D 17334 1408 M 0 98 R D
12296 6296 M 5038 0 R D 12800 6296 M 0 -195 R D 14059 6296 M 0 -195 R D
15319 6296 M 0 -195 R D 16578 6296 M 0 -195 R D 12296 6296 M 0 -98 R D
12548 6296 M 0 -98 R D 13052 6296 M 0 -98 R D 13304 6296 M 0 -98 R D
13556 6296 M 0 -98 R D 13807 6296 M 0 -98 R D 14311 6296 M 0 -98 R D
14563 6296 M 0 -98 R D 14815 6296 M 0 -98 R D 15067 6296 M 0 -98 R D
15571 6296 M 0 -98 R D 15823 6296 M 0 -98 R D 16075 6296 M 0 -98 R D
16326 6296 M 0 -98 R D 16830 6296 M 0 -98 R D 17082 6296 M 0 -98 R D
17334 6296 M 0 -98 R D 12296 1408 M 0 4888 R D 12296 2446 M 202 0 R D
gsave 12185 2305 translate 0 0 M -117.687 0 N
( ) show grestore 12296 3668 M 202 0 R D gsave 12185 3527 translate 0 0 M
-117.687 0 N
( ) show grestore 12296 4890 M 202 0 R D gsave 12185 4749 translate 0 0 M
-117.687 0 N
( ) show grestore 12296 6112 M 202 0 R D gsave 12185 5971 translate 0 0 M
-117.687 0 N
( ) show grestore 12296 1835 M 101 0 R D 12296 3057 M 101 0 R D 12296 4279 M
101 0 R D 12296 5501 M 101 0 R D 17334 1408 M 0 4888 R D 17334 2446 M
-201 0 R D 17334 3668 M -201 0 R D 17334 4890 M -201 0 R D 17334 6112 M
-201 0 R D 17334 1835 M -101 0 R D 17334 3057 M -101 0 R D 17334 4279 M
-101 0 R D 17334 5501 M -101 0 R D L1 12523 5678 M 315 -34 R 315 -45 R
315 -60 R 315 -81 R 315 -108 R 315 -144 R 314 -192 R 315 -258 R 315 -343 R
315 -458 R 315 -611 R 315 -816 R D L0 12473 5602 M 101 0 R -51 0 R 0 152 R
-50 0 R 101 0 R D 12788 5570 M 101 0 R -51 0 R 0 148 R -50 0 R 101 0 R D
13103 5525 M 100 0 R -50 0 R 0 148 R -50 0 R 100 0 R D 13418 5462 M 100 0 R
-50 0 R 0 152 R -50 0 R 100 0 R D 13732 5375 M 101 0 R -50 0 R 0 163 R
-51 0 R 101 0 R D 14047 5255 M 101 0 R -50 0 R 0 183 R -51 0 R 101 0 R D
14362 5093 M 101 0 R -50 0 R 0 215 R -51 0 R 101 0 R D 14677 4874 M 101 0 R
-51 0 R 0 263 R -50 0 R 101 0 R D 14992 4580 M 101 0 R -51 0 R 0 330 R
-50 0 R 101 0 R D 15307 4184 M 101 0 R -51 0 R 0 427 R -50 0 R 101 0 R D
15622 3653 M 100 0 R -50 0 R 0 560 R -50 0 R 100 0 R D 15937 2942 M 100 0 R
-50 0 R 0 743 R -50 0 R 100 0 R D 16251 1992 M 101 0 R -50 0 R 0 992 R
-51 0 R 101 0 R D 0.000 0.000 1.000 setrgbcolor 12296 3701 M 194 -14 R
447 -49 R 448 -75 R 448 -113 R 448 -172 R 448 -259 R 448 -391 R 448 -589 R
318 -631 R D 12439 3687 M 101 0 R -50 0 R -51 0 R 101 0 R D 12887 3638 M
101 0 R -51 0 R -50 0 R 101 0 R D 13335 3563 M 101 0 R -51 0 R -50 0 R
101 0 R D 13783 3450 M 101 0 R -51 0 R -50 0 R 101 0 R D 14231 3278 M
101 0 R -51 0 R -50 0 R 101 0 R D 14679 3019 M 100 0 R -50 0 R -50 0 R
100 0 R D 15127 2628 M 100 0 R -50 0 R -50 0 R 100 0 R D 15575 2039 M
100 0 R -50 0 R -50 0 R 100 0 R D
%%PageTrailer
end
%%PageResources: font Helvetica
%%+ font Symbol
%%+ font AvantGarde-Book
%%Trailer
%%Pages: 1
%%DocumentNeededResources: font Helvetica
%%+ font Symbol
%%+ font AvantGarde-Book
%%EOF
