%!PS-Adobe-3.0 EPSF-3.0
%%BoundingBox: 0 0 510 198
%%Title: Graphics produced by IDL
%%For: jlgan@Hserver, /home/jlgan/work/phoenix
%%Creator: IDL Version 7.1.1 (linux x86_64 m64)
%%CreationDate: Fri Jul 11 16:00:20 2014
%%DocumentData: Clean7bit
%%Requirements: color
%%LanguageLevel: 1
%%PageOrder: Ascend
%%Pages: (atend)
%%DocumentNeededResources: (atend)
%%EndComments
%%BeginProlog
%+ prolog.ps -- Prolog for IDL generated PostScript files
%+ Copyright (c) 1988-2009 ITT Visual Information Solutions. All Rights Reserved.
%v 5
/$IDL_DICT 40 dict def $IDL_DICT begin /bdef { bind def } bind def /C
{currentpoint newpath moveto} bdef /CP {currentpoint} bdef /D {currentpoint
stroke moveto} bdef /F {closepath fill} bdef /K { setgray } bdef /M {moveto}
bdef /N {rmoveto} bdef /P {lineto} bdef /R {rlineto} bdef /S {gsave show
grestore} bdef /X {currentpoint pop} bdef /Z {gsave currentpoint lineto 20
setlinewidth 1 setlinecap stroke grestore} bdef /L0 {[] 0 setdash} bdef /L1
{[40 100] 0 setdash} bdef /L2 {[200 200] 0 setdash} bdef /L3 {[200 100 50
100] 0 setdash} bdef /L4 {[300 100 50 100 50 100 50 100] 0 setdash} bdef /L5
{[400 200] 0 setdash} bdef /STDFONT { findfont exch scalefont setfont } bdef
/ISOFONT { findfont dup length dict begin { 1 index /FID ne {def} {pop pop}
ifelse } forall /Encoding ISOLatin1Encoding def currentdict end /idltmpfont
exch definefont exch scalefont setfont } bdef /ISOBULLET { gsave /Helvetica
findfont exch scalefont setfont (\267) show currentpoint grestore moveto}
bdef /MITERLIMIT { 2.5 setmiterlimit } bdef end
%%EndProlog
%%Page: 0 1
%%PageRequirements: color
%%PageResources: (atend)
%%PageOrientation: Portrait
%%PageBoundingBox: 0 0 510 198
%%BeginPageSetup
$IDL_DICT begin 0.0283465 dup scale MITERLIMIT
%%IncludeResource: font Helvetica
423.333 /Helvetica STDFONT
%%EndPageSetup
0.000 0.000 0.000 setrgbcolor gsave 9777 6472 translate 0 0 M 1.25 dup scale
-1235.07 0 N
(whole cluster) show grestore gsave 9777 352 translate 0 0 M -1506.41 0 N
(log[M) show X -101.051 M
%%IncludeResource: font Symbol
262.467 /Symbol STDFONT
(*) show X 0 M
%%IncludeResource: font Helvetica
423.333 /Helvetica STDFONT
( / \(h) show X 192.937 M
%%IncludeResource: font Helvetica
262.467 /Helvetica STDFONT
(-2) show X 0 M
%%IncludeResource: font Helvetica
423.333 /Helvetica STDFONT
(M) show CP X -101.051 M
%%IncludeResource: font AvantGarde-Book
262.467 /AvantGarde-Book STDFONT
(O) show M X -58.3193 M
%%IncludeResource: font AvantGarde-Book
186.267 /AvantGarde-Book STDFONT
( \267) show X 0 M
%%IncludeResource: font Helvetica
423.333 /Helvetica STDFONT
(\)]) show grestore gsave 888 3852 translate 0 0 M 90 rotate -2273.04 0 N
%%IncludeResource: font Symbol
423.333 /Symbol STDFONT
(f) show
%%IncludeResource: font Helvetica
423.333 /Helvetica STDFONT
(\(M) show X -101.051 M
%%IncludeResource: font Symbol
262.467 /Symbol STDFONT
(*) show X 0 M
%%IncludeResource: font Helvetica
423.333 /Helvetica STDFONT
(\) / \(h) show X 192.937 M
%%IncludeResource: font Helvetica
262.467 /Helvetica STDFONT
(3) show X 0 M
%%IncludeResource: font Helvetica
423.333 /Helvetica STDFONT
(Mpc) show X 192.937 M
%%IncludeResource: font Helvetica
262.467 /Helvetica STDFONT
(-3) show X 0 M
%%IncludeResource: font Helvetica
423.333 /Helvetica STDFONT
(log) show X 192.937 M
%%IncludeResource: font Helvetica
262.467 /Helvetica STDFONT
(-1) show X 0 M
%%IncludeResource: font Helvetica
423.333 /Helvetica STDFONT
(M) show X -101.051 M
%%IncludeResource: font Symbol
262.467 /Symbol STDFONT
(*) show X 0 M
%%IncludeResource: font Helvetica
423.333 /Helvetica STDFONT
(\)) show grestore 30 setlinewidth L0 2220 1408 M 5038 0 R D 3410 1408 M
0 196 R D gsave 3410 880 translate 0 0 M -117.687 0 N
(9) show grestore 4613 1408 M 0 196 R D gsave 4613 880 translate 0 0 M
-235.373 0 N
(10) show grestore 5815 1408 M 0 196 R D gsave 5815 880 translate 0 0 M
-235.373 0 N
(11) show grestore 7018 1408 M 0 196 R D gsave 7018 880 translate 0 0 M
-235.373 0 N
(12) show grestore 2328 1408 M 0 98 R D 2449 1408 M 0 98 R D 2569 1408 M
0 98 R D 2689 1408 M 0 98 R D 2809 1408 M 0 98 R D 2929 1408 M 0 98 R D
3050 1408 M 0 98 R D 3170 1408 M 0 98 R D 3290 1408 M 0 98 R D 3531 1408 M
0 98 R D 3651 1408 M 0 98 R D 3771 1408 M 0 98 R D 3891 1408 M 0 98 R D
4012 1408 M 0 98 R D 4132 1408 M 0 98 R D 4252 1408 M 0 98 R D 4372 1408 M
0 98 R D 4493 1408 M 0 98 R D 4733 1408 M 0 98 R D 4853 1408 M 0 98 R D
4974 1408 M 0 98 R D 5094 1408 M 0 98 R D 5214 1408 M 0 98 R D 5334 1408 M
0 98 R D 5455 1408 M 0 98 R D 5575 1408 M 0 98 R D 5695 1408 M 0 98 R D
5935 1408 M 0 98 R D 6056 1408 M 0 98 R D 6176 1408 M 0 98 R D 6296 1408 M
0 98 R D 6416 1408 M 0 98 R D 6537 1408 M 0 98 R D 6657 1408 M 0 98 R D
6777 1408 M 0 98 R D 6897 1408 M 0 98 R D 7138 1408 M 0 98 R D 7258 1408 M
0 98 R D 2220 6296 M 5038 0 R D 3410 6296 M 0 -195 R D 4613 6296 M 0 -195 R
D 5815 6296 M 0 -195 R D 7018 6296 M 0 -195 R D 2328 6296 M 0 -98 R D
2449 6296 M 0 -98 R D 2569 6296 M 0 -98 R D 2689 6296 M 0 -98 R D
2809 6296 M 0 -98 R D 2929 6296 M 0 -98 R D 3050 6296 M 0 -98 R D
3170 6296 M 0 -98 R D 3290 6296 M 0 -98 R D 3531 6296 M 0 -98 R D
3651 6296 M 0 -98 R D 3771 6296 M 0 -98 R D 3891 6296 M 0 -98 R D
4012 6296 M 0 -98 R D 4132 6296 M 0 -98 R D 4252 6296 M 0 -98 R D
4372 6296 M 0 -98 R D 4493 6296 M 0 -98 R D 4733 6296 M 0 -98 R D
4853 6296 M 0 -98 R D 4974 6296 M 0 -98 R D 5094 6296 M 0 -98 R D
5214 6296 M 0 -98 R D 5334 6296 M 0 -98 R D 5455 6296 M 0 -98 R D
5575 6296 M 0 -98 R D 5695 6296 M 0 -98 R D 5935 6296 M 0 -98 R D
6056 6296 M 0 -98 R D 6176 6296 M 0 -98 R D 6296 6296 M 0 -98 R D
6416 6296 M 0 -98 R D 6537 6296 M 0 -98 R D 6657 6296 M 0 -98 R D
6777 6296 M 0 -98 R D 6897 6296 M 0 -98 R D 7138 6296 M 0 -98 R D
7258 6296 M 0 -98 R D 2220 1408 M 0 4888 R D 2220 1618 M 202 0 R D
gsave 2109 1477 translate 0 0 M -704.08 0 N
(10) show X 192.937 M
%%IncludeResource: font Helvetica
262.467 /Helvetica STDFONT
(-7) show grestore
%%IncludeResource: font Helvetica
423.333 /Helvetica STDFONT 2220 2317 M 202 0 R D
gsave 2109 2176 translate 0 0 M -704.08 0 N
(10) show X 192.937 M
%%IncludeResource: font Helvetica
262.467 /Helvetica STDFONT
(-6) show grestore
%%IncludeResource: font Helvetica
423.333 /Helvetica STDFONT 2220 3015 M 202 0 R D
gsave 2109 2874 translate 0 0 M -704.08 0 N
(10) show X 192.937 M
%%IncludeResource: font Helvetica
262.467 /Helvetica STDFONT
(-5) show grestore
%%IncludeResource: font Helvetica
423.333 /Helvetica STDFONT 2220 3713 M 202 0 R D
gsave 2109 3572 translate 0 0 M -704.08 0 N
(10) show X 192.937 M
%%IncludeResource: font Helvetica
262.467 /Helvetica STDFONT
(-4) show grestore
%%IncludeResource: font Helvetica
423.333 /Helvetica STDFONT 2220 4411 M 202 0 R D
gsave 2109 4271 translate 0 0 M -704.08 0 N
(10) show X 192.937 M
%%IncludeResource: font Helvetica
262.467 /Helvetica STDFONT
(-3) show grestore
%%IncludeResource: font Helvetica
423.333 /Helvetica STDFONT 2220 5110 M 202 0 R D
gsave 2109 4969 translate 0 0 M -704.08 0 N
(10) show X 192.937 M
%%IncludeResource: font Helvetica
262.467 /Helvetica STDFONT
(-2) show grestore
%%IncludeResource: font Helvetica
423.333 /Helvetica STDFONT 2220 5808 M 202 0 R D
gsave 2109 5667 translate 0 0 M -704.08 0 N
(10) show X 192.937 M
%%IncludeResource: font Helvetica
262.467 /Helvetica STDFONT
(-1) show grestore
%%IncludeResource: font Helvetica
423.333 /Helvetica STDFONT 7258 1408 M 0 4888 R D 7258 1618 M -201 0 R D
7258 2317 M -201 0 R D 7258 3015 M -201 0 R D 7258 3713 M -201 0 R D
7258 4411 M -201 0 R D 7258 5110 M -201 0 R D 7258 5808 M -201 0 R D L1
2220 5614 M 229 -20 R 240 -25 R 240 -30 R 241 -35 R 240 -46 R 241 -61 R
240 -50 R 241 -5 R 240 -17 R 241 -33 R 240 -62 R 241 -106 R 240 -176 R
241 -270 R 240 -356 R 241 -484 R 240 -687 R 241 -1007 R 116 -736 R D L2
2449 5689 M 120 -91 R 120 12 R 120 -104 R 120 -41 R 121 -3 R 120 -40 R
120 -9 R 120 -21 R 121 30 R 120 -31 R 120 9 R 120 0 R 121 -49 R 120 -13 R
120 -23 R 120 -28 R 121 -7 R 120 -18 R 120 -7 R 120 -9 R 121 -13 R 120 -41 R
120 -58 R 120 -74 R 121 -84 R 120 -103 R 120 -128 R 120 -148 R 120 -166 R
121 -187 R 120 -204 R 120 -245 R 120 -311 R 121 -414 R D L0
0.761 0.000 0.000 setrgbcolor 2220 5662 M 197 -62 R 264 -72 R 263 -85 R
264 -60 R 264 -47 R 264 -27 R 264 -41 R 263 -24 R 264 -110 R 264 -228 R
264 -337 R 263 -327 R 264 -261 R 264 -251 R 264 -340 R 264 95 R 263 7 R
264 -224 R D 2366 5546 M 101 0 R -50 0 R 0 101 R -51 0 R 101 0 R D
2630 5478 M 101 0 R -50 0 R 0 92 R -51 0 R 101 0 R D 2894 5397 M 101 0 R
-51 0 R 0 87 R -50 0 R 101 0 R D 3158 5305 M 101 0 R -51 0 R 0 140 R -50 0 R
101 0 R D 3422 5270 M 100 0 R -50 0 R 0 121 R -50 0 R 100 0 R D 3685 5254 M
101 0 R -50 0 R 0 101 R -51 0 R 101 0 R D 3949 5202 M 101 0 R -50 0 R
0 120 R -51 0 R 101 0 R D 4213 5185 M 101 0 R -51 0 R 0 108 R -50 0 R
101 0 R D 4477 5062 M 100 0 R -50 0 R 0 131 R -50 0 R 100 0 R D 4740 4858 M
101 0 R -50 0 R 0 90 R -51 0 R 101 0 R D 5004 4498 M 101 0 R -50 0 R 0 128 R
-51 0 R 101 0 R D 5268 4060 M 101 0 R -51 0 R 0 296 R -50 0 R 101 0 R D
5532 3657 M 101 0 R -51 0 R 0 477 R -50 0 R 101 0 R D 5796 1639 M 100 0 R
-50 0 R 0 2301 R -50 0 R 100 0 R D 6059 1408 M 101 0 R -50 0 R 0 2217 R
-51 0 R 101 0 R D 6323 1408 M 101 0 R -50 0 R 0 2336 R -51 0 R 101 0 R D
6587 2305 M 101 0 R -51 0 R 0 1394 R -50 0 R 101 0 R D 6851 1408 M 100 0 R
-50 0 R 0 2191 R -50 0 R 100 0 R D 0.000 0.000 1.000 setrgbcolor 2220 5441 M
197 -26 R 264 -52 R 263 -45 R 264 -51 R 264 -47 R 264 -17 R 264 -18 R
263 -14 R 264 25 R 264 -75 R 264 -236 R 263 -345 R 264 -223 R 264 -293 R
264 -58 R 264 -240 R 263 -257 R 264 -287 R D 2366 5299 M 101 0 R -50 0 R
0 199 R -51 0 R 101 0 R D 2630 5271 M 101 0 R -50 0 R 0 162 R -51 0 R
101 0 R D 2894 5225 M 101 0 R -51 0 R 0 163 R -50 0 R 101 0 R D 3158 5175 M
101 0 R -51 0 R 0 162 R -50 0 R 101 0 R D 3422 5141 M 100 0 R -50 0 R
0 142 R -50 0 R 100 0 R D 3685 5110 M 101 0 R -50 0 R 0 164 R -51 0 R
101 0 R D 3949 5132 M 101 0 R -50 0 R 0 98 R -51 0 R 101 0 R D 4213 5102 M
101 0 R -51 0 R 0 125 R -50 0 R 101 0 R D 4477 5123 M 100 0 R -50 0 R
0 132 R -50 0 R 100 0 R D 4740 5057 M 101 0 R -50 0 R 0 116 R -51 0 R
101 0 R D 5004 4812 M 101 0 R -50 0 R 0 132 R -51 0 R 101 0 R D 5268 4418 M
101 0 R -51 0 R 0 209 R -50 0 R 101 0 R D 5532 4220 M 101 0 R -51 0 R
0 171 R -50 0 R 101 0 R D 5796 3783 M 100 0 R -50 0 R 0 374 R -50 0 R
100 0 R D 6059 3765 M 101 0 R -50 0 R 0 321 R -51 0 R 101 0 R D 6323 2682 M
101 0 R -50 0 R 0 1249 R -51 0 R 101 0 R D 6587 1408 M 101 0 R -51 0 R
0 2282 R -50 0 R 101 0 R D 6851 1408 M 100 0 R -50 0 R 0 2082 R -50 0 R
100 0 R D 0.000 0.000 0.000 setrgbcolor gsave 7018 5598 translate 0 0 M
-470.323 0 N
(All) show grestore 7258 1408 M 5038 0 R D 8448 1408 M 0 196 R D
gsave 8448 880 translate 0 0 M -117.687 0 N
(9) show grestore 9651 1408 M 0 196 R D gsave 9651 880 translate 0 0 M
-235.373 0 N
(10) show grestore 10853 1408 M 0 196 R D gsave 10853 880 translate 0 0 M
-235.373 0 N
(11) show grestore 12056 1408 M 0 196 R D gsave 12056 880 translate 0 0 M
-235.373 0 N
(12) show grestore 7366 1408 M 0 98 R D 7487 1408 M 0 98 R D 7607 1408 M
0 98 R D 7727 1408 M 0 98 R D 7847 1408 M 0 98 R D 7967 1408 M 0 98 R D
8088 1408 M 0 98 R D 8208 1408 M 0 98 R D 8328 1408 M 0 98 R D 8569 1408 M
0 98 R D 8689 1408 M 0 98 R D 8809 1408 M 0 98 R D 8929 1408 M 0 98 R D
9050 1408 M 0 98 R D 9170 1408 M 0 98 R D 9290 1408 M 0 98 R D 9410 1408 M
0 98 R D 9531 1408 M 0 98 R D 9771 1408 M 0 98 R D 9891 1408 M 0 98 R D
10012 1408 M 0 98 R D 10132 1408 M 0 98 R D 10252 1408 M 0 98 R D
10372 1408 M 0 98 R D 10493 1408 M 0 98 R D 10613 1408 M 0 98 R D
10733 1408 M 0 98 R D 10973 1408 M 0 98 R D 11094 1408 M 0 98 R D
11214 1408 M 0 98 R D 11334 1408 M 0 98 R D 11454 1408 M 0 98 R D
11575 1408 M 0 98 R D 11695 1408 M 0 98 R D 11815 1408 M 0 98 R D
11935 1408 M 0 98 R D 12176 1408 M 0 98 R D 12296 1408 M 0 98 R D
7258 6296 M 5038 0 R D 8448 6296 M 0 -195 R D 9651 6296 M 0 -195 R D
10853 6296 M 0 -195 R D 12056 6296 M 0 -195 R D 7366 6296 M 0 -98 R D
7487 6296 M 0 -98 R D 7607 6296 M 0 -98 R D 7727 6296 M 0 -98 R D
7847 6296 M 0 -98 R D 7967 6296 M 0 -98 R D 8088 6296 M 0 -98 R D
8208 6296 M 0 -98 R D 8328 6296 M 0 -98 R D 8569 6296 M 0 -98 R D
8689 6296 M 0 -98 R D 8809 6296 M 0 -98 R D 8929 6296 M 0 -98 R D
9050 6296 M 0 -98 R D 9170 6296 M 0 -98 R D 9290 6296 M 0 -98 R D
9410 6296 M 0 -98 R D 9531 6296 M 0 -98 R D 9771 6296 M 0 -98 R D
9891 6296 M 0 -98 R D 10012 6296 M 0 -98 R D 10132 6296 M 0 -98 R D
10252 6296 M 0 -98 R D 10372 6296 M 0 -98 R D 10493 6296 M 0 -98 R D
10613 6296 M 0 -98 R D 10733 6296 M 0 -98 R D 10973 6296 M 0 -98 R D
11094 6296 M 0 -98 R D 11214 6296 M 0 -98 R D 11334 6296 M 0 -98 R D
11454 6296 M 0 -98 R D 11575 6296 M 0 -98 R D 11695 6296 M 0 -98 R D
11815 6296 M 0 -98 R D 11935 6296 M 0 -98 R D 12176 6296 M 0 -98 R D
12296 6296 M 0 -98 R D 7258 1408 M 0 4888 R D 7258 1618 M 202 0 R D
gsave 7147 1477 translate 0 0 M -117.687 0 N
( ) show grestore 7258 2317 M 202 0 R D gsave 7147 2176 translate 0 0 M
-117.687 0 N
( ) show grestore 7258 3015 M 202 0 R D gsave 7147 2874 translate 0 0 M
-117.687 0 N
( ) show grestore 7258 3713 M 202 0 R D gsave 7147 3572 translate 0 0 M
-117.687 0 N
( ) show grestore 7258 4411 M 202 0 R D gsave 7147 4271 translate 0 0 M
-117.687 0 N
( ) show grestore 7258 5110 M 202 0 R D gsave 7147 4969 translate 0 0 M
-117.687 0 N
( ) show grestore 7258 5808 M 202 0 R D gsave 7147 5667 translate 0 0 M
-117.687 0 N
( ) show grestore 12296 1408 M 0 4888 R D 12296 1618 M -201 0 R D
12296 2317 M -201 0 R D 12296 3015 M -201 0 R D 12296 3713 M -201 0 R D
12296 4411 M -201 0 R D 12296 5110 M -201 0 R D 12296 5808 M -201 0 R D L1
7258 5614 M 229 -20 R 240 -25 R 240 -30 R 241 -35 R 240 -46 R 241 -61 R
240 -50 R 241 -5 R 240 -17 R 241 -33 R 240 -62 R 241 -106 R 240 -176 R
241 -270 R 240 -356 R 241 -484 R 240 -687 R 241 -1007 R 116 -736 R D L2
7487 5622 M 120 -235 R 120 127 R 120 -91 R 120 -47 R 121 -45 R 120 -10 R
120 -31 R 120 -17 R 121 17 R 120 -28 R 120 11 R 120 -12 R 121 -49 R 120 14 R
120 -27 R 120 -30 R 121 -5 R 120 -15 R 120 1 R 120 -8 R 121 -6 R 120 -37 R
120 -49 R 120 -66 R 121 -74 R 120 -93 R 120 -119 R 120 -139 R 120 -159 R
121 -181 R 120 -193 R 120 -240 R 120 -302 R 121 -414 R D L0
0.761 0.000 0.000 setrgbcolor 7258 5324 M 197 -66 R 264 -82 R 263 -80 R
264 -81 R 264 -63 R 264 -35 R 264 -91 R 263 12 R 264 -63 R 264 -148 R
264 -320 R 263 -318 R 264 -258 R 264 -227 R 264 -352 R 264 207 R 263 5 R
264 -96 R D 7404 5217 M 101 0 R -50 0 R 0 78 R -51 0 R 101 0 R D 7668 5135 M
101 0 R -50 0 R 0 78 R -51 0 R 101 0 R D 7932 5064 M 101 0 R -51 0 R 0 61 R
-50 0 R 101 0 R D 8196 4948 M 101 0 R -51 0 R 0 122 R -50 0 R 101 0 R D
8460 4871 M 100 0 R -50 0 R 0 145 R -50 0 R 100 0 R D 8723 4846 M 101 0 R
-50 0 R 0 129 R -51 0 R 101 0 R D 8987 4787 M 101 0 R -50 0 R 0 73 R -51 0 R
101 0 R D 9251 4773 M 101 0 R -51 0 R 0 119 R -50 0 R 101 0 R D 9515 4720 M
100 0 R -50 0 R 0 101 R -50 0 R 100 0 R D 9778 4563 M 101 0 R -50 0 R
0 117 R -51 0 R 101 0 R D 10042 4135 M 101 0 R -50 0 R 0 281 R -51 0 R
101 0 R D 10306 3866 M 101 0 R -51 0 R 0 210 R -50 0 R 101 0 R D
10570 3251 M 101 0 R -51 0 R 0 658 R -50 0 R 101 0 R D 10834 1408 M 100 0 R
-50 0 R 0 2335 R -50 0 R 100 0 R D 11097 1408 M 101 0 R -50 0 R 0 2073 R
-51 0 R 101 0 R D 11361 1408 M 101 0 R -50 0 R 0 2236 R -51 0 R 101 0 R D
11625 1408 M 101 0 R -51 0 R 0 2205 R -50 0 R 101 0 R D 11889 1408 M 100 0 R
-50 0 R 0 2191 R -50 0 R 100 0 R D 0.000 0.000 1.000 setrgbcolor 7258 5170 M
197 -26 R 264 -85 R 263 -60 R 264 -49 R 264 -78 R 264 -12 R 264 -61 R
263 -31 R 264 0 R 264 -68 R 264 -196 R 263 -479 R 264 -172 R 264 -208 R
264 -225 R 264 -125 R 263 20 R 264 -379 R D 7404 5003 M 101 0 R -50 0 R
0 237 R -51 0 R 101 0 R D 7668 4977 M 101 0 R -50 0 R 0 147 R -51 0 R
101 0 R D 7932 4900 M 101 0 R -51 0 R 0 174 R -50 0 R 101 0 R D 8196 4815 M
101 0 R -51 0 R 0 228 R -50 0 R 101 0 R D 8460 4764 M 100 0 R -50 0 R
0 188 R -50 0 R 100 0 R D 8723 4780 M 101 0 R -50 0 R 0 144 R -51 0 R
101 0 R D 8987 4743 M 101 0 R -50 0 R 0 104 R -51 0 R 101 0 R D 9251 4712 M
101 0 R -51 0 R 0 103 R -50 0 R 101 0 R D 9515 4680 M 100 0 R -50 0 R
0 156 R -50 0 R 100 0 R D 9778 4618 M 101 0 R -50 0 R 0 147 R -51 0 R
101 0 R D 10042 4429 M 101 0 R -50 0 R 0 136 R -51 0 R 101 0 R D
10306 3742 M 101 0 R -51 0 R 0 427 R -50 0 R 101 0 R D 10570 3568 M 101 0 R
-51 0 R 0 430 R -50 0 R 101 0 R D 10834 3286 M 100 0 R -50 0 R 0 519 R
-50 0 R 100 0 R D 11097 1408 M 101 0 R -50 0 R 0 2250 R -51 0 R 101 0 R D
11361 1408 M 101 0 R -50 0 R 0 2218 R -51 0 R 101 0 R D 11625 1408 M 101 0 R
-51 0 R 0 2198 R -50 0 R 101 0 R D 11889 1408 M 100 0 R -50 0 R 0 1873 R
-50 0 R 100 0 R D 0.000 0.000 0.000 setrgbcolor
gsave 12056 5598 translate 0 0 M -1364.4 0 N
(Central) show grestore 12296 1408 M 5038 0 R D 13486 1408 M 0 196 R D
gsave 13486 880 translate 0 0 M -117.687 0 N
(9) show grestore 14689 1408 M 0 196 R D gsave 14689 880 translate 0 0 M
-235.373 0 N
(10) show grestore 15891 1408 M 0 196 R D gsave 15891 880 translate 0 0 M
-235.373 0 N
(11) show grestore 17094 1408 M 0 196 R D gsave 17094 880 translate 0 0 M
-235.373 0 N
(12) show grestore 12404 1408 M 0 98 R D 12525 1408 M 0 98 R D 12645 1408 M
0 98 R D 12765 1408 M 0 98 R D 12885 1408 M 0 98 R D 13005 1408 M 0 98 R D
13126 1408 M 0 98 R D 13246 1408 M 0 98 R D 13366 1408 M 0 98 R D
13607 1408 M 0 98 R D 13727 1408 M 0 98 R D 13847 1408 M 0 98 R D
13967 1408 M 0 98 R D 14088 1408 M 0 98 R D 14208 1408 M 0 98 R D
14328 1408 M 0 98 R D 14448 1408 M 0 98 R D 14569 1408 M 0 98 R D
14809 1408 M 0 98 R D 14929 1408 M 0 98 R D 15050 1408 M 0 98 R D
15170 1408 M 0 98 R D 15290 1408 M 0 98 R D 15410 1408 M 0 98 R D
15531 1408 M 0 98 R D 15651 1408 M 0 98 R D 15771 1408 M 0 98 R D
16011 1408 M 0 98 R D 16132 1408 M 0 98 R D 16252 1408 M 0 98 R D
16372 1408 M 0 98 R D 16492 1408 M 0 98 R D 16613 1408 M 0 98 R D
16733 1408 M 0 98 R D 16853 1408 M 0 98 R D 16973 1408 M 0 98 R D
17214 1408 M 0 98 R D 17334 1408 M 0 98 R D 12296 6296 M 5038 0 R D
13486 6296 M 0 -195 R D 14689 6296 M 0 -195 R D 15891 6296 M 0 -195 R D
17094 6296 M 0 -195 R D 12404 6296 M 0 -98 R D 12525 6296 M 0 -98 R D
12645 6296 M 0 -98 R D 12765 6296 M 0 -98 R D 12885 6296 M 0 -98 R D
13005 6296 M 0 -98 R D 13126 6296 M 0 -98 R D 13246 6296 M 0 -98 R D
13366 6296 M 0 -98 R D 13607 6296 M 0 -98 R D 13727 6296 M 0 -98 R D
13847 6296 M 0 -98 R D 13967 6296 M 0 -98 R D 14088 6296 M 0 -98 R D
14208 6296 M 0 -98 R D 14328 6296 M 0 -98 R D 14448 6296 M 0 -98 R D
14569 6296 M 0 -98 R D 14809 6296 M 0 -98 R D 14929 6296 M 0 -98 R D
15050 6296 M 0 -98 R D 15170 6296 M 0 -98 R D 15290 6296 M 0 -98 R D
15410 6296 M 0 -98 R D 15531 6296 M 0 -98 R D 15651 6296 M 0 -98 R D
15771 6296 M 0 -98 R D 16011 6296 M 0 -98 R D 16132 6296 M 0 -98 R D
16252 6296 M 0 -98 R D 16372 6296 M 0 -98 R D 16492 6296 M 0 -98 R D
16613 6296 M 0 -98 R D 16733 6296 M 0 -98 R D 16853 6296 M 0 -98 R D
16973 6296 M 0 -98 R D 17214 6296 M 0 -98 R D 17334 6296 M 0 -98 R D
12296 1408 M 0 4888 R D 12296 1618 M 202 0 R D
gsave 12185 1477 translate 0 0 M -117.687 0 N
( ) show grestore 12296 2317 M 202 0 R D gsave 12185 2176 translate 0 0 M
-117.687 0 N
( ) show grestore 12296 3015 M 202 0 R D gsave 12185 2874 translate 0 0 M
-117.687 0 N
( ) show grestore 12296 3713 M 202 0 R D gsave 12185 3572 translate 0 0 M
-117.687 0 N
( ) show grestore 12296 4411 M 202 0 R D gsave 12185 4271 translate 0 0 M
-117.687 0 N
( ) show grestore 12296 5110 M 202 0 R D gsave 12185 4969 translate 0 0 M
-117.687 0 N
( ) show grestore 12296 5808 M 202 0 R D gsave 12185 5667 translate 0 0 M
-117.687 0 N
( ) show grestore 17334 1408 M 0 4888 R D 17334 1618 M -201 0 R D
17334 2317 M -201 0 R D 17334 3015 M -201 0 R D 17334 3713 M -201 0 R D
17334 4411 M -201 0 R D 17334 5110 M -201 0 R D 17334 5808 M -201 0 R D L1
12296 5614 M 229 -20 R 240 -25 R 240 -30 R 241 -35 R 240 -46 R 241 -61 R
240 -50 R 241 -5 R 240 -17 R 241 -33 R 240 -62 R 241 -106 R 240 -176 R
241 -270 R 240 -356 R 241 -484 R 240 -687 R 241 -1007 R 116 -736 R D L2
12525 5200 M 120 189 R 120 -176 R 120 -141 R 120 -23 R 121 96 R 120 -107 R
120 42 R 120 -29 R 121 55 R 120 -37 R 120 7 R 120 20 R 121 -50 R 120 -63 R
120 -14 R 120 -24 R 121 -12 R 120 -24 R 120 -26 R 120 -10 R 121 -33 R
120 -54 R 120 -83 R 120 -98 R 121 -124 R 120 -148 R 120 -173 R 120 -209 R
120 -232 R 121 -255 R 120 -347 R 120 -380 R D L0
0.761 0.000 0.000 setrgbcolor 12296 5542 M 197 -60 R 264 -69 R 263 -86 R
264 -51 R 264 -40 R 264 -24 R 264 -25 R 263 -35 R 264 -128 R 264 -272 R
264 -349 R 263 -333 R 264 -242 R 264 -271 R 264 -338 R 264 -59 R 263 8 R
92 -1760 R D 12442 5416 M 101 0 R -50 0 R 0 120 R -51 0 R 101 0 R D
12706 5356 M 101 0 R -50 0 R 0 105 R -51 0 R 101 0 R D 12970 5265 M 101 0 R
-51 0 R 0 114 R -50 0 R 101 0 R D 13234 5183 M 101 0 R -51 0 R 0 164 R
-50 0 R 101 0 R D 13498 5163 M 100 0 R -50 0 R 0 132 R -50 0 R 100 0 R D
13761 5161 M 101 0 R -50 0 R 0 94 R -51 0 R 101 0 R D 14025 5111 M 101 0 R
-50 0 R 0 138 R -51 0 R 101 0 R D 14289 5083 M 101 0 R -51 0 R 0 124 R
-50 0 R 101 0 R D 14553 4928 M 100 0 R -50 0 R 0 169 R -50 0 R 100 0 R D
14816 4683 M 101 0 R -50 0 R 0 125 R -51 0 R 101 0 R D 15080 4340 M 101 0 R
-50 0 R 0 115 R -51 0 R 101 0 R D 15344 3710 M 101 0 R -51 0 R 0 520 R
-50 0 R 101 0 R D 15608 3495 M 101 0 R -51 0 R 0 488 R -50 0 R 101 0 R D
15872 1408 M 100 0 R -50 0 R 0 2412 R -50 0 R 100 0 R D 16135 1408 M 101 0 R
-50 0 R 0 2104 R -51 0 R 101 0 R D 16399 1408 M 101 0 R -50 0 R 0 2086 R
-51 0 R 101 0 R D 16663 1408 M 101 0 R -51 0 R 0 2113 R -50 0 R 101 0 R D
0.000 0.000 1.000 setrgbcolor 12296 5281 M 197 -26 R 264 -31 R 263 -37 R
264 -52 R 264 -31 R 264 -19 R 264 1 R 263 -9 R 264 35 R 264 -78 R 264 -250 R
263 -305 R 264 -234 R 264 -320 R 264 -13 R 264 -270 R 263 -453 R 264 -186 R
D 12442 5146 M 101 0 R -50 0 R 0 189 R -51 0 R 101 0 R D 12706 5122 M
101 0 R -50 0 R 0 178 R -51 0 R 101 0 R D 12970 5090 M 101 0 R -51 0 R
0 171 R -50 0 R 101 0 R D 13234 5056 M 101 0 R -51 0 R 0 142 R -50 0 R
101 0 R D 13498 5009 M 100 0 R -50 0 R 0 168 R -50 0 R 100 0 R D
13761 4961 M 101 0 R -50 0 R 0 212 R -51 0 R 101 0 R D 14025 5025 M 101 0 R
-50 0 R 0 111 R -51 0 R 101 0 R D 14289 4993 M 101 0 R -51 0 R 0 150 R
-50 0 R 101 0 R D 14553 5022 M 100 0 R -50 0 R 0 159 R -50 0 R 100 0 R D
14816 4940 M 101 0 R -50 0 R 0 165 R -51 0 R 101 0 R D 15080 4681 M 101 0 R
-50 0 R 0 179 R -51 0 R 101 0 R D 15344 4309 M 101 0 R -51 0 R 0 278 R
-50 0 R 101 0 R D 15608 4126 M 101 0 R -51 0 R 0 204 R -50 0 R 101 0 R D
15872 3507 M 100 0 R -50 0 R 0 588 R -50 0 R 100 0 R D 16135 3692 M 101 0 R
-50 0 R 0 346 R -51 0 R 101 0 R D 16399 3126 M 101 0 R -50 0 R 0 697 R
-51 0 R 101 0 R D 16663 1408 M 101 0 R -51 0 R 0 2132 R -50 0 R 101 0 R D
16927 1408 M 100 0 R -50 0 R 0 2015 R -50 0 R 100 0 R D
0.000 0.000 0.000 setrgbcolor gsave 17094 5598 translate 0 0 M -1505.8 0 N
(Satellite) show grestore L1 2522 3363 M 76 0 R 76 0 R 75 0 R 76 0 R 75 0 R
76 0 R 75 0 R 76 0 R 76 0 R D L2 2522 2923 M 76 0 R 76 0 R 75 0 R 76 0 R
75 0 R 76 0 R 75 0 R 76 0 R 76 0 R D L0 0.761 0.000 0.000 setrgbcolor
2522 2483 M 76 0 R 76 0 R 75 0 R 76 0 R 75 0 R 76 0 R 75 0 R 76 0 R 76 0 R D
0.000 0.000 1.000 setrgbcolor 2522 2043 M 76 0 R 76 0 R 75 0 R 76 0 R 75 0 R
76 0 R 75 0 R 76 0 R 76 0 R D 0.000 0.000 0.000 setrgbcolor
gsave 3278 3216 translate 0 0 M
(Li2009) show grestore gsave 3278 2776 translate 0 0 M
(Yang2009) show grestore 0.761 0.000 0.000 setrgbcolor
gsave 3278 2336 translate 0 0 M
(Ph2) show grestore 0.000 0.000 1.000 setrgbcolor
gsave 3278 1896 translate 0 0 M
(Ph4) show grestore
%%PageTrailer
end
%%PageResources: font Helvetica
%%+ font Symbol
%%+ font AvantGarde-Book
%%Trailer
%%Pages: 1
%%DocumentNeededResources: font Helvetica
%%+ font Symbol
%%+ font AvantGarde-Book
%%EOF
