%!PS-Adobe-3.0 EPSF-3.0
%%BoundingBox: 0 0 510 311
%%Title: Graphics produced by IDL
%%For: jlgan@Hserver, /home/jlgan/work/phoenix
%%Creator: IDL Version 7.1.1 (linux x86_64 m64)
%%CreationDate: Wed Nov 12 16:51:37 2014
%%DocumentData: Clean7bit
%%Requirements: color
%%LanguageLevel: 1
%%PageOrder: Ascend
%%Pages: (atend)
%%DocumentNeededResources: (atend)
%%EndComments
%%BeginProlog
%+ prolog.ps -- Prolog for IDL generated PostScript files
%+ Copyright (c) 1988-2009 ITT Visual Information Solutions. All Rights Reserved.
%v 5
/$IDL_DICT 40 dict def $IDL_DICT begin /bdef { bind def } bind def /C
{currentpoint newpath moveto} bdef /CP {currentpoint} bdef /D {currentpoint
stroke moveto} bdef /F {closepath fill} bdef /K { setgray } bdef /M {moveto}
bdef /N {rmoveto} bdef /P {lineto} bdef /R {rlineto} bdef /S {gsave show
grestore} bdef /X {currentpoint pop} bdef /Z {gsave currentpoint lineto 20
setlinewidth 1 setlinecap stroke grestore} bdef /L0 {[] 0 setdash} bdef /L1
{[40 100] 0 setdash} bdef /L2 {[200 200] 0 setdash} bdef /L3 {[200 100 50
100] 0 setdash} bdef /L4 {[300 100 50 100 50 100 50 100] 0 setdash} bdef /L5
{[400 200] 0 setdash} bdef /STDFONT { findfont exch scalefont setfont } bdef
/ISOFONT { findfont dup length dict begin { 1 index /FID ne {def} {pop pop}
ifelse } forall /Encoding ISOLatin1Encoding def currentdict end /idltmpfont
exch definefont exch scalefont setfont } bdef /ISOBULLET { gsave /Helvetica
findfont exch scalefont setfont (\267) show currentpoint grestore moveto}
bdef /MITERLIMIT { 2.5 setmiterlimit } bdef end
%%EndProlog
%%Page: 0 1
%%PageRequirements: color
%%PageResources: (atend)
%%PageOrientation: Portrait
%%PageBoundingBox: 0 0 510 311
%%BeginPageSetup
$IDL_DICT begin 0.0283465 dup scale MITERLIMIT
%%IncludeResource: font Helvetica
423.333 /Helvetica STDFONT
%%EndPageSetup
0.000 0.000 0.000 setrgbcolor gsave 9930 352 translate 0 0 M -1472.54 0 N
(log[M) show X -101.051 M
%%IncludeResource: font Helvetica-Bold
262.467 /Helvetica-Bold STDFONT
(*) show X 0 M
%%IncludeResource: font Helvetica
423.333 /Helvetica STDFONT
( / \(h) show X 192.937 M
%%IncludeResource: font Helvetica
262.467 /Helvetica STDFONT
(-2) show X 0 M
%%IncludeResource: font Helvetica
423.333 /Helvetica STDFONT
(M) show CP X -101.051 M
%%IncludeResource: font AvantGarde-Book
262.467 /AvantGarde-Book STDFONT
(O) show M X -58.3193 M
%%IncludeResource: font AvantGarde-Book
186.267 /AvantGarde-Book STDFONT
( \267) show X 0 M
%%IncludeResource: font Helvetica
423.333 /Helvetica STDFONT
(\)]) show grestore gsave 888 5852 translate 0 0 M 90 rotate -2211.8 0 N
%%IncludeResource: font Symbol
423.333 /Symbol STDFONT
(f) show
%%IncludeResource: font Helvetica
423.333 /Helvetica STDFONT
(\(M) show X -101.051 M
%%IncludeResource: font Helvetica-Bold
262.467 /Helvetica-Bold STDFONT
(*) show X 0 M
%%IncludeResource: font Helvetica
423.333 /Helvetica STDFONT
(\) / \(h) show X 192.937 M
%%IncludeResource: font Helvetica
262.467 /Helvetica STDFONT
(3) show X 0 M
%%IncludeResource: font Helvetica
423.333 /Helvetica STDFONT
(Mpc) show X 192.937 M
%%IncludeResource: font Helvetica
262.467 /Helvetica STDFONT
(-3) show X 0 M
%%IncludeResource: font Helvetica
423.333 /Helvetica STDFONT
(log) show X 192.937 M
%%IncludeResource: font Helvetica
262.467 /Helvetica STDFONT
(-1) show X 0 M
%%IncludeResource: font Helvetica
423.333 /Helvetica STDFONT
(M) show X -101.051 M
%%IncludeResource: font Helvetica-Bold
262.467 /Helvetica-Bold STDFONT
(*) show X 0 M
%%IncludeResource: font Helvetica
423.333 /Helvetica STDFONT
(\)) show grestore gsave 4790 10560 translate 0 0 M -716.068 0 N
(z~z) show
%%IncludeResource: font Symbol
423.333 /Symbol STDFONT
(\273) show
%%IncludeResource: font Helvetica
423.333 /Helvetica STDFONT
(0.0) show grestore 30 setlinewidth L0 2220 5852 M 5140 0 R D 3434 5852 M
0 133 R D gsave 3434 5324 translate 0 0 M -58.8433 0 N
( ) show grestore 4661 5852 M 0 133 R D gsave 4661 5324 translate 0 0 M
-58.8433 0 N
( ) show grestore 5888 5852 M 0 133 R D gsave 5888 5324 translate 0 0 M
-58.8433 0 N
( ) show grestore 7115 5852 M 0 133 R D gsave 7115 5324 translate 0 0 M
-58.8433 0 N
( ) show grestore 2330 5852 M 0 67 R D 2453 5852 M 0 67 R D 2576 5852 M
0 67 R D 2698 5852 M 0 67 R D 2821 5852 M 0 67 R D 2944 5852 M 0 67 R D
3066 5852 M 0 67 R D 3189 5852 M 0 67 R D 3312 5852 M 0 67 R D 3557 5852 M
0 67 R D 3680 5852 M 0 67 R D 3803 5852 M 0 67 R D 3925 5852 M 0 67 R D
4048 5852 M 0 67 R D 4171 5852 M 0 67 R D 4293 5852 M 0 67 R D 4416 5852 M
0 67 R D 4539 5852 M 0 67 R D 4784 5852 M 0 67 R D 4907 5852 M 0 67 R D
5029 5852 M 0 67 R D 5152 5852 M 0 67 R D 5275 5852 M 0 67 R D 5397 5852 M
0 67 R D 5520 5852 M 0 67 R D 5643 5852 M 0 67 R D 5765 5852 M 0 67 R D
6011 5852 M 0 67 R D 6133 5852 M 0 67 R D 6256 5852 M 0 67 R D 6379 5852 M
0 67 R D 6501 5852 M 0 67 R D 6624 5852 M 0 67 R D 6747 5852 M 0 67 R D
6869 5852 M 0 67 R D 6992 5852 M 0 67 R D 7237 5852 M 0 67 R D 7360 5852 M
0 67 R D 2220 10296 M 5140 0 R D 3434 10296 M 0 -133 R D 4661 10296 M
0 -133 R D 5888 10296 M 0 -133 R D 7115 10296 M 0 -133 R D 2330 10296 M
0 -67 R D 2453 10296 M 0 -67 R D 2576 10296 M 0 -67 R D 2698 10296 M 0 -67 R
D 2821 10296 M 0 -67 R D 2944 10296 M 0 -67 R D 3066 10296 M 0 -67 R D
3189 10296 M 0 -67 R D 3312 10296 M 0 -67 R D 3557 10296 M 0 -67 R D
3680 10296 M 0 -67 R D 3803 10296 M 0 -67 R D 3925 10296 M 0 -67 R D
4048 10296 M 0 -67 R D 4171 10296 M 0 -67 R D 4293 10296 M 0 -67 R D
4416 10296 M 0 -67 R D 4539 10296 M 0 -67 R D 4784 10296 M 0 -67 R D
4907 10296 M 0 -67 R D 5029 10296 M 0 -67 R D 5152 10296 M 0 -67 R D
5275 10296 M 0 -67 R D 5397 10296 M 0 -67 R D 5520 10296 M 0 -67 R D
5643 10296 M 0 -67 R D 5765 10296 M 0 -67 R D 6011 10296 M 0 -67 R D
6133 10296 M 0 -67 R D 6256 10296 M 0 -67 R D 6379 10296 M 0 -67 R D
6501 10296 M 0 -67 R D 6624 10296 M 0 -67 R D 6747 10296 M 0 -67 R D
6869 10296 M 0 -67 R D 6992 10296 M 0 -67 R D 7237 10296 M 0 -67 R D
7360 10296 M 0 -67 R D 2220 5852 M 0 4444 R D 2220 6346 M 154 0 R D
gsave 2109 6206 translate 0 0 M -704.08 0 N
(10) show X 192.937 M
%%IncludeResource: font Helvetica
262.467 /Helvetica STDFONT
(-8) show grestore
%%IncludeResource: font Helvetica
423.333 /Helvetica STDFONT 2220 7339 M 154 0 R D
gsave 2109 7199 translate 0 0 M -704.08 0 N
(10) show X 192.937 M
%%IncludeResource: font Helvetica
262.467 /Helvetica STDFONT
(-6) show grestore
%%IncludeResource: font Helvetica
423.333 /Helvetica STDFONT 2220 8333 M 154 0 R D
gsave 2109 8192 translate 0 0 M -704.08 0 N
(10) show X 192.937 M
%%IncludeResource: font Helvetica
262.467 /Helvetica STDFONT
(-4) show grestore
%%IncludeResource: font Helvetica
423.333 /Helvetica STDFONT 2220 9326 M 154 0 R D
gsave 2109 9185 translate 0 0 M -704.08 0 N
(10) show X 192.937 M
%%IncludeResource: font Helvetica
262.467 /Helvetica STDFONT
(-2) show grestore
%%IncludeResource: font Helvetica
423.333 /Helvetica STDFONT 2220 6843 M 77 0 R D 2220 7836 M 77 0 R D
2220 8829 M 77 0 R D 2220 9822 M 77 0 R D 7360 5852 M 0 4444 R D 7360 6346 M
-154 0 R D 7360 7339 M -154 0 R D 7360 8333 M -154 0 R D 7360 9326 M
-154 0 R D 7360 6843 M -77 0 R D 7360 7836 M -77 0 R D 7360 8829 M -77 0 R D
7360 9822 M -77 0 R D 0.000 0.000 1.000 setrgbcolor 2220 9378 M 233 -28 R
245 -31 R 246 -47 R 245 -62 R 245 -38 R 246 -52 R 245 -53 R 246 -42 R
245 -84 R 245 -43 R 246 -66 R 245 18 R 245 -275 R 246 -492 R 245 -378 R
245 -469 R 246 -390 R 217 -994 R D 2220 9343 M 39 0 R -39 0 R D 2220 9416 M
39 0 R D 2402 9313 M 102 0 R -51 0 R 0 74 R -51 0 R 102 0 R D 2647 9289 M
103 0 R -52 0 R 0 60 R -51 0 R 103 0 R D 2892 9233 M 103 0 R -51 0 R 0 79 R
-52 0 R 103 0 R D 3138 9184 M 103 0 R -52 0 R 0 52 R -51 0 R 103 0 R D
3383 9144 M 103 0 R -52 0 R 0 56 R -51 0 R 103 0 R D 3628 9085 M 103 0 R
-51 0 R 0 71 R -52 0 R 103 0 R D 3874 9021 M 103 0 R -52 0 R 0 92 R -51 0 R
103 0 R D 4119 8981 M 103 0 R -51 0 R 0 88 R -52 0 R 103 0 R D 4364 8894 M
103 0 R -51 0 R 0 95 R -52 0 R 103 0 R D 4610 8865 M 103 0 R -52 0 R 0 65 R
-51 0 R 103 0 R D 4855 8745 M 103 0 R -51 0 R 0 175 R -52 0 R 103 0 R D
5101 8781 M 102 0 R -51 0 R 0 137 R -51 0 R 102 0 R D 5346 8408 M 103 0 R
-52 0 R 0 335 R -51 0 R 103 0 R D 5591 7666 M 103 0 R -51 0 R 0 834 R
-52 0 R 103 0 R D 5837 7189 M 102 0 R -51 0 R 0 1032 R -51 0 R 102 0 R D
6082 6632 M 103 0 R -52 0 R 0 1207 R -51 0 R 103 0 R D 6327 6046 M 103 0 R
-51 0 R 0 1600 R -52 0 R 103 0 R D 6869 5852 M 0 449 R -51 0 R 103 0 R D
0.761 0.000 0.000 setrgbcolor 2220 9239 M 233 -53 R 245 -100 R 246 -60 R
245 -70 R 245 -74 R 246 -44 R 245 -25 R 246 78 R 245 12 R 245 52 R 246 -45 R
245 -140 R 245 -157 R 246 -231 R 245 -344 R 245 -961 R 246 -209 R 245 -595 R
125 -421 R D 7062 5852 M 53 110 R D 2220 9196 M 39 0 R -39 0 R D 2220 9288 M
39 0 R D 2402 9139 M 102 0 R -51 0 R 0 94 R -51 0 R 102 0 R D 2647 9016 M
103 0 R -52 0 R 0 141 R -51 0 R 103 0 R D 2892 8972 M 103 0 R -51 0 R
0 107 R -52 0 R 103 0 R D 3138 8896 M 103 0 R -52 0 R 0 120 R -51 0 R
103 0 R D 3383 8811 M 103 0 R -52 0 R 0 142 R -51 0 R 103 0 R D 3628 8781 M
103 0 R -51 0 R 0 114 R -52 0 R 103 0 R D 3874 8744 M 103 0 R -52 0 R
0 139 R -51 0 R 103 0 R D 4119 8846 M 103 0 R -51 0 R 0 89 R -52 0 R 103 0 R
D 4364 8841 M 103 0 R -51 0 R 0 125 R -52 0 R 103 0 R D 4610 8893 M 103 0 R
-52 0 R 0 123 R -51 0 R 103 0 R D 4855 8856 M 103 0 R -51 0 R 0 109 R
-52 0 R 103 0 R D 5101 8671 M 102 0 R -51 0 R 0 198 R -51 0 R 102 0 R D
5346 8527 M 103 0 R -52 0 R 0 171 R -51 0 R 103 0 R D 5591 8033 M 103 0 R
-51 0 R 0 698 R -52 0 R 103 0 R D 5837 7456 M 102 0 R -51 0 R 0 1163 R
-51 0 R 102 0 R D 6082 6640 M 103 0 R -52 0 R 0 875 R -51 0 R 103 0 R D
6327 6025 M 103 0 R -51 0 R 0 1686 R -52 0 R 103 0 R D 6624 5852 M 0 1506 R
-51 0 R 102 0 R D 6869 5852 M 0 1189 R -51 0 R 103 0 R D 7115 5852 M
0 2921 R -52 0 R 103 0 R D 40 setlinewidth 0.000 0.000 1.000 setrgbcolor
2477 6696 M 62 0 R 61 0 R 62 0 R 62 0 R 61 0 R 62 0 R 62 0 R 61 0 R 62 0 R D
0.761 0.000 0.000 setrgbcolor 2477 6252 M 62 0 R 61 0 R 62 0 R 62 0 R 61 0 R
62 0 R 62 0 R 61 0 R 62 0 R D 0.000 0.000 1.000 setrgbcolor
gsave 3094 6611 translate 0 0 M
(Star-forming) show grestore 0.761 0.000 0.000 setrgbcolor
gsave 3094 6167 translate 0 0 M
(Quiescent) show grestore 0.000 0.000 0.000 setrgbcolor
gsave 2477 7185 translate 0 0 M
(Central) show grestore gsave 9930 10560 translate 0 0 M -716.068 0 N
(z~z) show
%%IncludeResource: font Symbol
423.333 /Symbol STDFONT
(\273) show
%%IncludeResource: font Helvetica
423.333 /Helvetica STDFONT
(0.3) show grestore 30 setlinewidth 7360 5852 M 5140 0 R D 8575 5852 M
0 133 R D gsave 8575 5324 translate 0 0 M -58.8433 0 N
( ) show grestore 9801 5852 M 0 133 R D gsave 9801 5324 translate 0 0 M
-58.8433 0 N
( ) show grestore 11028 5852 M 0 133 R D gsave 11028 5324 translate 0 0 M
-58.8433 0 N
( ) show grestore 12255 5852 M 0 133 R D gsave 12255 5324 translate 0 0 M
-58.8433 0 N
( ) show grestore 7470 5852 M 0 67 R D 7593 5852 M 0 67 R D 7716 5852 M
0 67 R D 7838 5852 M 0 67 R D 7961 5852 M 0 67 R D 8084 5852 M 0 67 R D
8207 5852 M 0 67 R D 8329 5852 M 0 67 R D 8452 5852 M 0 67 R D 8697 5852 M
0 67 R D 8820 5852 M 0 67 R D 8943 5852 M 0 67 R D 9065 5852 M 0 67 R D
9188 5852 M 0 67 R D 9311 5852 M 0 67 R D 9433 5852 M 0 67 R D 9556 5852 M
0 67 R D 9679 5852 M 0 67 R D 9924 5852 M 0 67 R D 10047 5852 M 0 67 R D
10169 5852 M 0 67 R D 10292 5852 M 0 67 R D 10415 5852 M 0 67 R D
10537 5852 M 0 67 R D 10660 5852 M 0 67 R D 10783 5852 M 0 67 R D
10905 5852 M 0 67 R D 11151 5852 M 0 67 R D 11273 5852 M 0 67 R D
11396 5852 M 0 67 R D 11519 5852 M 0 67 R D 11641 5852 M 0 67 R D
11764 5852 M 0 67 R D 11887 5852 M 0 67 R D 12009 5852 M 0 67 R D
12132 5852 M 0 67 R D 12377 5852 M 0 67 R D 12500 5852 M 0 67 R D
7360 10296 M 5140 0 R D 8575 10296 M 0 -133 R D 9801 10296 M 0 -133 R D
11028 10296 M 0 -133 R D 12255 10296 M 0 -133 R D 7470 10296 M 0 -67 R D
7593 10296 M 0 -67 R D 7716 10296 M 0 -67 R D 7838 10296 M 0 -67 R D
7961 10296 M 0 -67 R D 8084 10296 M 0 -67 R D 8207 10296 M 0 -67 R D
8329 10296 M 0 -67 R D 8452 10296 M 0 -67 R D 8697 10296 M 0 -67 R D
8820 10296 M 0 -67 R D 8943 10296 M 0 -67 R D 9065 10296 M 0 -67 R D
9188 10296 M 0 -67 R D 9311 10296 M 0 -67 R D 9433 10296 M 0 -67 R D
9556 10296 M 0 -67 R D 9679 10296 M 0 -67 R D 9924 10296 M 0 -67 R D
10047 10296 M 0 -67 R D 10169 10296 M 0 -67 R D 10292 10296 M 0 -67 R D
10415 10296 M 0 -67 R D 10537 10296 M 0 -67 R D 10660 10296 M 0 -67 R D
10783 10296 M 0 -67 R D 10905 10296 M 0 -67 R D 11151 10296 M 0 -67 R D
11273 10296 M 0 -67 R D 11396 10296 M 0 -67 R D 11519 10296 M 0 -67 R D
11641 10296 M 0 -67 R D 11764 10296 M 0 -67 R D 11887 10296 M 0 -67 R D
12009 10296 M 0 -67 R D 12132 10296 M 0 -67 R D 12377 10296 M 0 -67 R D
12500 10296 M 0 -67 R D 7360 5852 M 0 4444 R D 7360 6346 M 154 0 R D
gsave 7249 6206 translate 0 0 M -117.687 0 N
( ) show grestore 7360 7339 M 154 0 R D gsave 7249 7199 translate 0 0 M
-117.687 0 N
( ) show grestore 7360 8333 M 154 0 R D gsave 7249 8192 translate 0 0 M
-117.687 0 N
( ) show grestore 7360 9326 M 154 0 R D gsave 7249 9185 translate 0 0 M
-117.687 0 N
( ) show grestore 7360 6843 M 77 0 R D 7360 7836 M 77 0 R D 7360 8829 M
77 0 R D 7360 9822 M 77 0 R D 12500 5852 M 0 4444 R D 12500 6346 M -154 0 R
D 12500 7339 M -154 0 R D 12500 8333 M -154 0 R D 12500 9326 M -154 0 R D
12500 6843 M -77 0 R D 12500 7836 M -77 0 R D 12500 8829 M -77 0 R D
12500 9822 M -77 0 R D 0.000 0.000 1.000 setrgbcolor 7360 9510 M 233 -41 R
245 -40 R 246 -54 R 245 -54 R 246 -46 R 245 -43 R 245 -53 R 246 -80 R
245 -80 R 245 -14 R 246 -37 R 245 -97 R 245 -496 R 246 -766 R 245 -111 R
245 -566 R 246 -489 R 202 -591 R D 7360 9481 M 39 0 R -39 0 R D 7360 9545 M
39 0 R D 7542 9436 M 103 0 R -52 0 R 0 66 R -51 0 R 103 0 R D 7787 9399 M
103 0 R -52 0 R 0 59 R -51 0 R 103 0 R D 8032 9334 M 103 0 R -51 0 R 0 82 R
-52 0 R 103 0 R D 8278 9291 M 103 0 R -52 0 R 0 60 R -51 0 R 103 0 R D
8523 9235 M 103 0 R -51 0 R 0 79 R -52 0 R 103 0 R D 8768 9183 M 103 0 R
-51 0 R 0 98 R -52 0 R 103 0 R D 9014 9121 M 103 0 R -52 0 R 0 116 R -51 0 R
103 0 R D 9259 9074 M 103 0 R -51 0 R 0 51 R -52 0 R 103 0 R D 9505 8975 M
102 0 R -51 0 R 0 89 R -51 0 R 102 0 R D 9750 8980 M 103 0 R -52 0 R 0 51 R
-51 0 R 103 0 R D 9995 8902 M 103 0 R -51 0 R 0 131 R -52 0 R 103 0 R D
10241 8790 M 102 0 R -51 0 R 0 161 R -51 0 R 102 0 R D 10486 8113 M 103 0 R
-52 0 R 0 524 R -51 0 R 103 0 R D 10731 7370 M 103 0 R -51 0 R 0 477 R
-52 0 R 103 0 R D 10977 7056 M 102 0 R -51 0 R 0 884 R -51 0 R 102 0 R D
11222 6932 M 103 0 R -52 0 R -51 0 R 103 0 R D 11467 6443 M 103 0 R -51 0 R
-52 0 R 103 0 R D 0.761 0.000 0.000 setrgbcolor 7360 9426 M 233 -79 R
245 -72 R 246 -72 R 245 -74 R 246 -51 R 245 -48 R 245 0 R 246 46 R 245 -3 R
245 35 R 246 -69 R 245 -165 R 245 -228 R 246 -119 R 245 -180 R 245 -638 R
246 -479 R 245 -922 R 245 358 R 80 -814 R D 7360 9400 M 39 0 R -39 0 R D
7360 9462 M 39 0 R D 7542 9313 M 103 0 R -52 0 R 0 68 R -51 0 R 103 0 R D
7787 9230 M 103 0 R -52 0 R 0 90 R -51 0 R 103 0 R D 8032 9160 M 103 0 R
-51 0 R 0 86 R -52 0 R 103 0 R D 8278 9079 M 103 0 R -52 0 R 0 100 R -51 0 R
103 0 R D 8523 9032 M 103 0 R -51 0 R 0 93 R -52 0 R 103 0 R D 8768 8982 M
103 0 R -51 0 R 0 95 R -52 0 R 103 0 R D 9014 8960 M 103 0 R -52 0 R 0 141 R
-51 0 R 103 0 R D 9259 9031 M 103 0 R -51 0 R 0 91 R -52 0 R 103 0 R D
9505 9029 M 102 0 R -51 0 R 0 88 R -51 0 R 102 0 R D 9750 9051 M 103 0 R
-52 0 R 0 114 R -51 0 R 103 0 R D 9995 8986 M 103 0 R -51 0 R 0 106 R
-52 0 R 103 0 R D 10241 8811 M 102 0 R -51 0 R 0 126 R -51 0 R 102 0 R D
10486 8515 M 103 0 R -52 0 R 0 261 R -51 0 R 103 0 R D 10731 8395 M 103 0 R
-51 0 R 0 264 R -52 0 R 103 0 R D 10977 7927 M 102 0 R -51 0 R 0 840 R
-51 0 R 102 0 R D 11222 6969 M 103 0 R -52 0 R 0 1480 R -51 0 R 103 0 R D
11467 6294 M 103 0 R -51 0 R 0 1872 R -52 0 R 103 0 R D 11764 5852 M
0 1608 R -51 0 R 102 0 R D 12009 5852 M 0 2727 R -51 0 R 103 0 R D
12255 5852 M 0 703 R -52 0 R 103 0 R D 0.000 0.000 0.000 setrgbcolor
gsave 15070 10560 translate 0 0 M -716.068 0 N
(z~z) show
%%IncludeResource: font Symbol
423.333 /Symbol STDFONT
(\273) show
%%IncludeResource: font Helvetica
423.333 /Helvetica STDFONT
(1.0) show grestore 12500 5852 M 5140 0 R D 13715 5852 M 0 133 R D
gsave 13715 5324 translate 0 0 M -58.8433 0 N
( ) show grestore 14941 5852 M 0 133 R D gsave 14941 5324 translate 0 0 M
-58.8433 0 N
( ) show grestore 16168 5852 M 0 133 R D gsave 16168 5324 translate 0 0 M
-58.8433 0 N
( ) show grestore 17395 5852 M 0 133 R D gsave 17395 5324 translate 0 0 M
-58.8433 0 N
( ) show grestore 12611 5852 M 0 67 R D 12733 5852 M 0 67 R D 12856 5852 M
0 67 R D 12979 5852 M 0 67 R D 13101 5852 M 0 67 R D 13224 5852 M 0 67 R D
13347 5852 M 0 67 R D 13469 5852 M 0 67 R D 13592 5852 M 0 67 R D
13837 5852 M 0 67 R D 13960 5852 M 0 67 R D 14083 5852 M 0 67 R D
14205 5852 M 0 67 R D 14328 5852 M 0 67 R D 14451 5852 M 0 67 R D
14573 5852 M 0 67 R D 14696 5852 M 0 67 R D 14819 5852 M 0 67 R D
15064 5852 M 0 67 R D 15187 5852 M 0 67 R D 15309 5852 M 0 67 R D
15432 5852 M 0 67 R D 15555 5852 M 0 67 R D 15677 5852 M 0 67 R D
15800 5852 M 0 67 R D 15923 5852 M 0 67 R D 16045 5852 M 0 67 R D
16291 5852 M 0 67 R D 16413 5852 M 0 67 R D 16536 5852 M 0 67 R D
16659 5852 M 0 67 R D 16781 5852 M 0 67 R D 16904 5852 M 0 67 R D
17027 5852 M 0 67 R D 17149 5852 M 0 67 R D 17272 5852 M 0 67 R D
17518 5852 M 0 67 R D 17640 5852 M 0 67 R D 12500 10296 M 5140 0 R D
13715 10296 M 0 -133 R D 14941 10296 M 0 -133 R D 16168 10296 M 0 -133 R D
17395 10296 M 0 -133 R D 12611 10296 M 0 -67 R D 12733 10296 M 0 -67 R D
12856 10296 M 0 -67 R D 12979 10296 M 0 -67 R D 13101 10296 M 0 -67 R D
13224 10296 M 0 -67 R D 13347 10296 M 0 -67 R D 13469 10296 M 0 -67 R D
13592 10296 M 0 -67 R D 13837 10296 M 0 -67 R D 13960 10296 M 0 -67 R D
14083 10296 M 0 -67 R D 14205 10296 M 0 -67 R D 14328 10296 M 0 -67 R D
14451 10296 M 0 -67 R D 14573 10296 M 0 -67 R D 14696 10296 M 0 -67 R D
14819 10296 M 0 -67 R D 15064 10296 M 0 -67 R D 15187 10296 M 0 -67 R D
15309 10296 M 0 -67 R D 15432 10296 M 0 -67 R D 15555 10296 M 0 -67 R D
15677 10296 M 0 -67 R D 15800 10296 M 0 -67 R D 15923 10296 M 0 -67 R D
16045 10296 M 0 -67 R D 16291 10296 M 0 -67 R D 16413 10296 M 0 -67 R D
16536 10296 M 0 -67 R D 16659 10296 M 0 -67 R D 16781 10296 M 0 -67 R D
16904 10296 M 0 -67 R D 17027 10296 M 0 -67 R D 17149 10296 M 0 -67 R D
17272 10296 M 0 -67 R D 17518 10296 M 0 -67 R D 17640 10296 M 0 -67 R D
12500 5852 M 0 4444 R D 12500 6346 M 154 0 R D
gsave 12389 6206 translate 0 0 M -117.687 0 N
( ) show grestore 12500 7339 M 154 0 R D gsave 12389 7199 translate 0 0 M
-117.687 0 N
( ) show grestore 12500 8333 M 154 0 R D gsave 12389 8192 translate 0 0 M
-117.687 0 N
( ) show grestore 12500 9326 M 154 0 R D gsave 12389 9185 translate 0 0 M
-117.687 0 N
( ) show grestore 12500 6843 M 77 0 R D 12500 7836 M 77 0 R D 12500 8829 M
77 0 R D 12500 9822 M 77 0 R D 17640 5852 M 0 4444 R D 17640 6346 M -154 0 R
D 17640 7339 M -154 0 R D 17640 8333 M -154 0 R D 17640 9326 M -154 0 R D
17640 6843 M -77 0 R D 17640 7836 M -77 0 R D 17640 8829 M -77 0 R D
17640 9822 M -77 0 R D 0.000 0.000 1.000 setrgbcolor 12500 9446 M 233 -50 R
246 -51 R 245 -43 R 245 -65 R 246 -42 R 245 -61 R 245 -60 R 246 -57 R
245 -8 R 245 -12 R 246 -94 R 245 -629 R 245 -553 R 246 -192 R 245 -149 R
245 -448 R 246 -489 R 202 -591 R D 12500 9412 M 39 0 R -39 0 R D
12500 9486 M 39 0 R D 12682 9356 M 103 0 R -52 0 R 0 80 R -51 0 R 103 0 R D
12927 9301 M 103 0 R -51 0 R 0 88 R -52 0 R 103 0 R D 13172 9267 M 103 0 R
-51 0 R 0 70 R -52 0 R 103 0 R D 13418 9193 M 103 0 R -52 0 R 0 89 R -51 0 R
103 0 R D 13663 9161 M 103 0 R -51 0 R 0 68 R -52 0 R 103 0 R D 13909 9081 M
102 0 R -51 0 R 0 105 R -51 0 R 102 0 R D 14154 9032 M 103 0 R -52 0 R
0 85 R -51 0 R 103 0 R D 14399 8965 M 103 0 R -51 0 R 0 105 R -52 0 R
103 0 R D 14645 8946 M 102 0 R -51 0 R 0 127 R -51 0 R 102 0 R D
14890 8945 M 103 0 R -52 0 R 0 103 R -51 0 R 103 0 R D 15135 8849 M 103 0 R
-51 0 R 0 107 R -52 0 R 103 0 R D 15381 8068 M 102 0 R -51 0 R 0 411 R
-51 0 R 102 0 R D 15626 7721 M 103 0 R -52 0 R -51 0 R 103 0 R D
15871 7529 M 103 0 R -51 0 R -52 0 R 103 0 R D 16117 7067 M 102 0 R -51 0 R
0 626 R -51 0 R 102 0 R D 16362 6932 M 103 0 R -52 0 R -51 0 R 103 0 R D
16607 6443 M 103 0 R -51 0 R -52 0 R 103 0 R D 0.761 0.000 0.000 setrgbcolor
12500 9261 M 233 -76 R 246 -65 R 245 -79 R 245 -92 R 246 -9 R 245 -26 R
245 17 R 246 59 R 245 31 R 245 -2 R 246 -184 R 245 -161 R 245 -163 R
246 -120 R 245 -166 R 245 -582 R 246 -632 R 245 -720 R 86 -439 R D
12500 9238 M 39 0 R -39 0 R D 12500 9291 M 39 0 R D 12682 9146 M 103 0 R
-52 0 R 0 78 R -51 0 R 103 0 R D 12927 9088 M 103 0 R -51 0 R 0 64 R -52 0 R
103 0 R D 13172 9008 M 103 0 R -51 0 R 0 66 R -52 0 R 103 0 R D 13418 8911 M
103 0 R -52 0 R 0 76 R -51 0 R 103 0 R D 13663 8884 M 103 0 R -51 0 R
0 112 R -52 0 R 103 0 R D 13909 8875 M 102 0 R -51 0 R 0 79 R -51 0 R
102 0 R D 14154 8886 M 103 0 R -52 0 R 0 91 R -51 0 R 103 0 R D 14399 8933 M
103 0 R -51 0 R 0 114 R -52 0 R 103 0 R D 14645 8962 M 102 0 R -51 0 R
0 117 R -51 0 R 102 0 R D 14890 8949 M 103 0 R -52 0 R 0 140 R -51 0 R
103 0 R D 15135 8758 M 103 0 R -51 0 R 0 155 R -52 0 R 103 0 R D
15381 8594 M 102 0 R -51 0 R 0 160 R -51 0 R 102 0 R D 15626 8367 M 103 0 R
-52 0 R 0 288 R -51 0 R 103 0 R D 15871 8264 M 103 0 R -51 0 R 0 255 R
-52 0 R 103 0 R D 16117 7858 M 102 0 R -51 0 R 0 735 R -51 0 R 102 0 R D
16362 6967 M 103 0 R -52 0 R 0 1351 R -51 0 R 103 0 R D 16607 6158 M 103 0 R
-51 0 R 0 1707 R -52 0 R 103 0 R D 16904 5852 M 0 1559 R -51 0 R 103 0 R D
17149 5852 M 0 378 R -51 0 R 103 0 R D 0.000 0.000 0.000 setrgbcolor
2220 1408 M 5140 0 R D 3434 1408 M 0 133 R D gsave 3434 880 translate 0 0 M
-117.687 0 N
(9) show grestore 4661 1408 M 0 133 R D gsave 4661 880 translate 0 0 M
-235.373 0 N
(10) show grestore 5888 1408 M 0 133 R D gsave 5888 880 translate 0 0 M
-235.373 0 N
(11) show grestore 7115 1408 M 0 133 R D gsave 7115 880 translate 0 0 M
-235.373 0 N
(12) show grestore 2330 1408 M 0 67 R D 2453 1408 M 0 67 R D 2576 1408 M
0 67 R D 2698 1408 M 0 67 R D 2821 1408 M 0 67 R D 2944 1408 M 0 67 R D
3066 1408 M 0 67 R D 3189 1408 M 0 67 R D 3312 1408 M 0 67 R D 3557 1408 M
0 67 R D 3680 1408 M 0 67 R D 3803 1408 M 0 67 R D 3925 1408 M 0 67 R D
4048 1408 M 0 67 R D 4171 1408 M 0 67 R D 4293 1408 M 0 67 R D 4416 1408 M
0 67 R D 4539 1408 M 0 67 R D 4784 1408 M 0 67 R D 4907 1408 M 0 67 R D
5029 1408 M 0 67 R D 5152 1408 M 0 67 R D 5275 1408 M 0 67 R D 5397 1408 M
0 67 R D 5520 1408 M 0 67 R D 5643 1408 M 0 67 R D 5765 1408 M 0 67 R D
6011 1408 M 0 67 R D 6133 1408 M 0 67 R D 6256 1408 M 0 67 R D 6379 1408 M
0 67 R D 6501 1408 M 0 67 R D 6624 1408 M 0 67 R D 6747 1408 M 0 67 R D
6869 1408 M 0 67 R D 6992 1408 M 0 67 R D 7237 1408 M 0 67 R D 7360 1408 M
0 67 R D 2220 5852 M 5140 0 R D 3434 5852 M 0 -133 R D 4661 5852 M 0 -133 R
D 5888 5852 M 0 -133 R D 7115 5852 M 0 -133 R D 2330 5852 M 0 -67 R D
2453 5852 M 0 -67 R D 2576 5852 M 0 -67 R D 2698 5852 M 0 -67 R D
2821 5852 M 0 -67 R D 2944 5852 M 0 -67 R D 3066 5852 M 0 -67 R D
3189 5852 M 0 -67 R D 3312 5852 M 0 -67 R D 3557 5852 M 0 -67 R D
3680 5852 M 0 -67 R D 3803 5852 M 0 -67 R D 3925 5852 M 0 -67 R D
4048 5852 M 0 -67 R D 4171 5852 M 0 -67 R D 4293 5852 M 0 -67 R D
4416 5852 M 0 -67 R D 4539 5852 M 0 -67 R D 4784 5852 M 0 -67 R D
4907 5852 M 0 -67 R D 5029 5852 M 0 -67 R D 5152 5852 M 0 -67 R D
5275 5852 M 0 -67 R D 5397 5852 M 0 -67 R D 5520 5852 M 0 -67 R D
5643 5852 M 0 -67 R D 5765 5852 M 0 -67 R D 6011 5852 M 0 -67 R D
6133 5852 M 0 -67 R D 6256 5852 M 0 -67 R D 6379 5852 M 0 -67 R D
6501 5852 M 0 -67 R D 6624 5852 M 0 -67 R D 6747 5852 M 0 -67 R D
6869 5852 M 0 -67 R D 6992 5852 M 0 -67 R D 7237 5852 M 0 -67 R D
7360 5852 M 0 -67 R D 2220 1408 M 0 4444 R D 2220 1902 M 154 0 R D
gsave 2109 1762 translate 0 0 M -704.08 0 N
(10) show X 192.937 M
%%IncludeResource: font Helvetica
262.467 /Helvetica STDFONT
(-8) show grestore
%%IncludeResource: font Helvetica
423.333 /Helvetica STDFONT 2220 2895 M 154 0 R D
gsave 2109 2755 translate 0 0 M -704.08 0 N
(10) show X 192.937 M
%%IncludeResource: font Helvetica
262.467 /Helvetica STDFONT
(-6) show grestore
%%IncludeResource: font Helvetica
423.333 /Helvetica STDFONT 2220 3889 M 154 0 R D
gsave 2109 3748 translate 0 0 M -704.08 0 N
(10) show X 192.937 M
%%IncludeResource: font Helvetica
262.467 /Helvetica STDFONT
(-4) show grestore
%%IncludeResource: font Helvetica
423.333 /Helvetica STDFONT 2220 4882 M 154 0 R D
gsave 2109 4741 translate 0 0 M -704.08 0 N
(10) show X 192.937 M
%%IncludeResource: font Helvetica
262.467 /Helvetica STDFONT
(-2) show grestore
%%IncludeResource: font Helvetica
423.333 /Helvetica STDFONT 2220 2399 M 77 0 R D 2220 3392 M 77 0 R D
2220 4385 M 77 0 R D 2220 5378 M 77 0 R D 7360 1408 M 0 4444 R D 7360 1902 M
-154 0 R D 7360 2895 M -154 0 R D 7360 3889 M -154 0 R D 7360 4882 M
-154 0 R D 7360 2399 M -77 0 R D 7360 3392 M -77 0 R D 7360 4385 M -77 0 R D
7360 5378 M -77 0 R D 0.000 0.000 1.000 setrgbcolor 2220 4837 M 233 -58 R
245 -9 R 246 -52 R 245 -28 R 245 -46 R 246 -38 R 245 -5 R 246 -35 R
245 -69 R 245 -8 R 246 -62 R 245 -61 R 245 -178 R 246 -924 R 245 67 R
245 -420 R 246 -717 R 245 -653 R 24 -133 R D 2220 4792 M 39 0 R -39 0 R D
2220 4889 M 39 0 R D 2402 4718 M 102 0 R -51 0 R 0 122 R -51 0 R 102 0 R D
2647 4702 M 103 0 R -52 0 R 0 137 R -51 0 R 103 0 R D 2892 4665 M 103 0 R
-51 0 R 0 107 R -52 0 R 103 0 R D 3138 4614 M 103 0 R -52 0 R 0 152 R
-51 0 R 103 0 R D 3383 4591 M 103 0 R -52 0 R 0 107 R -51 0 R 103 0 R D
3628 4508 M 103 0 R -51 0 R 0 196 R -52 0 R 103 0 R D 3874 4518 M 103 0 R
-52 0 R 0 167 R -51 0 R 103 0 R D 4119 4496 M 103 0 R -51 0 R 0 141 R
-52 0 R 103 0 R D 4364 4411 M 103 0 R -51 0 R 0 172 R -52 0 R 103 0 R D
4610 4400 M 103 0 R -52 0 R 0 177 R -51 0 R 103 0 R D 4855 4349 M 103 0 R
-51 0 R 0 155 R -52 0 R 103 0 R D 5101 4282 M 102 0 R -51 0 R 0 168 R
-51 0 R 102 0 R D 5346 4117 M 103 0 R -52 0 R 0 142 R -51 0 R 103 0 R D
5591 2910 M 103 0 R -51 0 R 0 708 R -52 0 R 103 0 R D 5837 2738 M 102 0 R
-51 0 R 0 1186 R -51 0 R 102 0 R D 6082 2275 M 103 0 R -52 0 R 0 1272 R
-51 0 R 103 0 R D 6327 1611 M 103 0 R -51 0 R 0 1166 R -52 0 R 103 0 R D
6624 1408 M 0 905 R -51 0 R 102 0 R D 0.761 0.000 0.000 setrgbcolor
2220 5254 M 233 -56 R 245 -56 R 246 -51 R 245 -53 R 245 -50 R 246 -38 R
245 -13 R 246 -10 R 245 -17 R 245 -32 R 246 -93 R 245 -178 R 245 -278 R
246 -215 R 245 -359 R 245 -507 R 246 -862 R 245 32 R 137 -1010 R D
2220 5220 M 39 0 R -39 0 R D 2220 5294 M 39 0 R D 2402 5159 M 102 0 R
-51 0 R 0 78 R -51 0 R 102 0 R D 2647 5106 M 103 0 R -52 0 R 0 73 R -51 0 R
103 0 R D 2892 5061 M 103 0 R -51 0 R 0 61 R -52 0 R 103 0 R D 3138 5001 M
103 0 R -52 0 R 0 74 R -51 0 R 103 0 R D 3383 4945 M 103 0 R -52 0 R 0 85 R
-51 0 R 103 0 R D 3628 4909 M 103 0 R -51 0 R 0 82 R -52 0 R 103 0 R D
3874 4902 M 103 0 R -52 0 R 0 71 R -51 0 R 103 0 R D 4119 4889 M 103 0 R
-51 0 R 0 77 R -52 0 R 103 0 R D 4364 4875 M 103 0 R -51 0 R 0 70 R -52 0 R
103 0 R D 4610 4845 M 103 0 R -52 0 R 0 67 R -51 0 R 103 0 R D 4855 4728 M
103 0 R -51 0 R 0 113 R -52 0 R 103 0 R D 5101 4541 M 102 0 R -51 0 R
0 133 R -51 0 R 102 0 R D 5346 4218 M 103 0 R -52 0 R 0 221 R -51 0 R
103 0 R D 5591 3934 M 103 0 R -51 0 R 0 361 R -52 0 R 103 0 R D 5837 3225 M
102 0 R -51 0 R 0 1061 R -51 0 R 102 0 R D 6082 2519 M 103 0 R -52 0 R
0 1458 R -51 0 R 103 0 R D 6327 1619 M 103 0 R -51 0 R 0 1533 R -52 0 R
103 0 R D 6624 1408 M 0 2359 R -51 0 R 102 0 R D 6869 1408 M 0 427 R -51 0 R
103 0 R D 40 setlinewidth 0.000 0.000 1.000 setrgbcolor 2477 2252 M 62 0 R
61 0 R 62 0 R 62 0 R 61 0 R 62 0 R 62 0 R 61 0 R 62 0 R D
0.761 0.000 0.000 setrgbcolor 2477 1808 M 62 0 R 61 0 R 62 0 R 62 0 R 61 0 R
62 0 R 62 0 R 61 0 R 62 0 R D 0.000 0.000 1.000 setrgbcolor
gsave 3094 2167 translate 0 0 M
(Star-forming) show grestore 0.761 0.000 0.000 setrgbcolor
gsave 3094 1723 translate 0 0 M
(Quiescent) show grestore 0.000 0.000 0.000 setrgbcolor
gsave 2477 2741 translate 0 0 M
(Satellite) show grestore 30 setlinewidth 7360 1408 M 5140 0 R D 8575 1408 M
0 133 R D gsave 8575 880 translate 0 0 M -117.687 0 N
(9) show grestore 9801 1408 M 0 133 R D gsave 9801 880 translate 0 0 M
-235.373 0 N
(10) show grestore 11028 1408 M 0 133 R D gsave 11028 880 translate 0 0 M
-235.373 0 N
(11) show grestore 12255 1408 M 0 133 R D gsave 12255 880 translate 0 0 M
-235.373 0 N
(12) show grestore 7470 1408 M 0 67 R D 7593 1408 M 0 67 R D 7716 1408 M
0 67 R D 7838 1408 M 0 67 R D 7961 1408 M 0 67 R D 8084 1408 M 0 67 R D
8207 1408 M 0 67 R D 8329 1408 M 0 67 R D 8452 1408 M 0 67 R D 8697 1408 M
0 67 R D 8820 1408 M 0 67 R D 8943 1408 M 0 67 R D 9065 1408 M 0 67 R D
9188 1408 M 0 67 R D 9311 1408 M 0 67 R D 9433 1408 M 0 67 R D 9556 1408 M
0 67 R D 9679 1408 M 0 67 R D 9924 1408 M 0 67 R D 10047 1408 M 0 67 R D
10169 1408 M 0 67 R D 10292 1408 M 0 67 R D 10415 1408 M 0 67 R D
10537 1408 M 0 67 R D 10660 1408 M 0 67 R D 10783 1408 M 0 67 R D
10905 1408 M 0 67 R D 11151 1408 M 0 67 R D 11273 1408 M 0 67 R D
11396 1408 M 0 67 R D 11519 1408 M 0 67 R D 11641 1408 M 0 67 R D
11764 1408 M 0 67 R D 11887 1408 M 0 67 R D 12009 1408 M 0 67 R D
12132 1408 M 0 67 R D 12377 1408 M 0 67 R D 12500 1408 M 0 67 R D
7360 5852 M 5140 0 R D 8575 5852 M 0 -133 R D 9801 5852 M 0 -133 R D
11028 5852 M 0 -133 R D 12255 5852 M 0 -133 R D 7470 5852 M 0 -67 R D
7593 5852 M 0 -67 R D 7716 5852 M 0 -67 R D 7838 5852 M 0 -67 R D
7961 5852 M 0 -67 R D 8084 5852 M 0 -67 R D 8207 5852 M 0 -67 R D
8329 5852 M 0 -67 R D 8452 5852 M 0 -67 R D 8697 5852 M 0 -67 R D
8820 5852 M 0 -67 R D 8943 5852 M 0 -67 R D 9065 5852 M 0 -67 R D
9188 5852 M 0 -67 R D 9311 5852 M 0 -67 R D 9433 5852 M 0 -67 R D
9556 5852 M 0 -67 R D 9679 5852 M 0 -67 R D 9924 5852 M 0 -67 R D
10047 5852 M 0 -67 R D 10169 5852 M 0 -67 R D 10292 5852 M 0 -67 R D
10415 5852 M 0 -67 R D 10537 5852 M 0 -67 R D 10660 5852 M 0 -67 R D
10783 5852 M 0 -67 R D 10905 5852 M 0 -67 R D 11151 5852 M 0 -67 R D
11273 5852 M 0 -67 R D 11396 5852 M 0 -67 R D 11519 5852 M 0 -67 R D
11641 5852 M 0 -67 R D 11764 5852 M 0 -67 R D 11887 5852 M 0 -67 R D
12009 5852 M 0 -67 R D 12132 5852 M 0 -67 R D 12377 5852 M 0 -67 R D
12500 5852 M 0 -67 R D 7360 1408 M 0 4444 R D 7360 1902 M 154 0 R D
gsave 7249 1762 translate 0 0 M -117.687 0 N
( ) show grestore 7360 2895 M 154 0 R D gsave 7249 2755 translate 0 0 M
-117.687 0 N
( ) show grestore 7360 3889 M 154 0 R D gsave 7249 3748 translate 0 0 M
-117.687 0 N
( ) show grestore 7360 4882 M 154 0 R D gsave 7249 4741 translate 0 0 M
-117.687 0 N
( ) show grestore 7360 2399 M 77 0 R D 7360 3392 M 77 0 R D 7360 4385 M
77 0 R D 7360 5378 M 77 0 R D 12500 1408 M 0 4444 R D 12500 1902 M -154 0 R
D 12500 2895 M -154 0 R D 12500 3889 M -154 0 R D 12500 4882 M -154 0 R D
12500 2399 M -77 0 R D 12500 3392 M -77 0 R D 12500 4385 M -77 0 R D
12500 5378 M -77 0 R D 0.000 0.000 1.000 setrgbcolor 7360 4623 M 233 -19 R
245 -15 R 246 -42 R 245 -51 R 246 -61 R 245 -6 R 245 16 R 246 -12 R
245 -10 R 245 -78 R 246 -13 R 245 -112 R 245 -760 R 246 -131 R 245 -255 R
245 -586 R 246 -311 R 210 -769 R D 7360 4542 M 39 0 R -39 0 R D 7360 4708 M
39 0 R D 7542 4553 M 103 0 R -52 0 R 0 101 R -51 0 R 103 0 R D 7787 4499 M
103 0 R -52 0 R 0 180 R -51 0 R 103 0 R D 8032 4488 M 103 0 R -51 0 R
0 118 R -52 0 R 103 0 R D 8278 4390 M 103 0 R -52 0 R 0 212 R -51 0 R
103 0 R D 8523 4328 M 103 0 R -51 0 R 0 213 R -52 0 R 103 0 R D 8768 4349 M
103 0 R -51 0 R 0 160 R -52 0 R 103 0 R D 9014 4369 M 103 0 R -52 0 R
0 152 R -51 0 R 103 0 R D 9259 4355 M 103 0 R -51 0 R 0 157 R -52 0 R
103 0 R D 9505 4359 M 102 0 R -51 0 R 0 128 R -51 0 R 102 0 R D 9750 4265 M
103 0 R -52 0 R 0 160 R -51 0 R 103 0 R D 9995 4273 M 103 0 R -51 0 R
0 119 R -52 0 R 103 0 R D 10241 4067 M 102 0 R -51 0 R 0 305 R -51 0 R
102 0 R D 10486 3182 M 103 0 R -52 0 R 0 555 R -51 0 R 103 0 R D
10731 2952 M 103 0 R -51 0 R 0 754 R -52 0 R 103 0 R D 10977 2593 M 102 0 R
-51 0 R 0 963 R -51 0 R 102 0 R D 11222 2488 M 103 0 R -52 0 R -51 0 R
103 0 R D 11467 1644 M 103 0 R -51 0 R 0 1067 R -52 0 R 103 0 R D
0.761 0.000 0.000 setrgbcolor 7360 5200 M 233 -50 R 245 -52 R 246 -51 R
245 -48 R 246 -48 R 245 -30 R 245 -10 R 246 -14 R 245 -6 R 245 -44 R
246 -110 R 245 -204 R 245 -222 R 246 -327 R 245 -117 R 245 -750 R 246 -531 R
245 -201 R 173 -977 R D 7360 5163 M 39 0 R -39 0 R D 7360 5244 M 39 0 R D
7542 5107 M 103 0 R -52 0 R 0 85 R -51 0 R 103 0 R D 7787 5056 M 103 0 R
-52 0 R 0 84 R -51 0 R 103 0 R D 8032 5015 M 103 0 R -51 0 R 0 64 R -52 0 R
103 0 R D 8278 4959 M 103 0 R -52 0 R 0 80 R -51 0 R 103 0 R D 8523 4905 M
103 0 R -51 0 R 0 92 R -52 0 R 103 0 R D 8768 4879 M 103 0 R -51 0 R 0 85 R
-52 0 R 103 0 R D 9014 4883 M 103 0 R -52 0 R 0 57 R -51 0 R 103 0 R D
9259 4856 M 103 0 R -51 0 R 0 82 R -52 0 R 103 0 R D 9505 4845 M 102 0 R
-51 0 R 0 92 R -51 0 R 102 0 R D 9750 4801 M 103 0 R -52 0 R 0 91 R -51 0 R
103 0 R D 9995 4681 M 103 0 R -51 0 R 0 111 R -52 0 R 103 0 R D 10241 4476 M
102 0 R -51 0 R 0 113 R -51 0 R 102 0 R D 10486 4230 M 103 0 R -52 0 R
0 162 R -51 0 R 103 0 R D 10731 3617 M 103 0 R -51 0 R 0 735 R -52 0 R
103 0 R D 10977 3459 M 102 0 R -51 0 R 0 817 R -51 0 R 102 0 R D
11222 2359 M 103 0 R -52 0 R 0 1516 R -51 0 R 103 0 R D 11467 1706 M 103 0 R
-51 0 R 0 1760 R -52 0 R 103 0 R D 11764 1408 M 0 2286 R -51 0 R 102 0 R D
12009 1408 M 0 1181 R -51 0 R 103 0 R D 0.000 0.000 0.000 setrgbcolor
12500 1408 M 5140 0 R D 13715 1408 M 0 133 R D
gsave 13715 880 translate 0 0 M -117.687 0 N
(9) show grestore 14941 1408 M 0 133 R D gsave 14941 880 translate 0 0 M
-235.373 0 N
(10) show grestore 16168 1408 M 0 133 R D gsave 16168 880 translate 0 0 M
-235.373 0 N
(11) show grestore 17395 1408 M 0 133 R D gsave 17395 880 translate 0 0 M
-235.373 0 N
(12) show grestore 12611 1408 M 0 67 R D 12733 1408 M 0 67 R D 12856 1408 M
0 67 R D 12979 1408 M 0 67 R D 13101 1408 M 0 67 R D 13224 1408 M 0 67 R D
13347 1408 M 0 67 R D 13469 1408 M 0 67 R D 13592 1408 M 0 67 R D
13837 1408 M 0 67 R D 13960 1408 M 0 67 R D 14083 1408 M 0 67 R D
14205 1408 M 0 67 R D 14328 1408 M 0 67 R D 14451 1408 M 0 67 R D
14573 1408 M 0 67 R D 14696 1408 M 0 67 R D 14819 1408 M 0 67 R D
15064 1408 M 0 67 R D 15187 1408 M 0 67 R D 15309 1408 M 0 67 R D
15432 1408 M 0 67 R D 15555 1408 M 0 67 R D 15677 1408 M 0 67 R D
15800 1408 M 0 67 R D 15923 1408 M 0 67 R D 16045 1408 M 0 67 R D
16291 1408 M 0 67 R D 16413 1408 M 0 67 R D 16536 1408 M 0 67 R D
16659 1408 M 0 67 R D 16781 1408 M 0 67 R D 16904 1408 M 0 67 R D
17027 1408 M 0 67 R D 17149 1408 M 0 67 R D 17272 1408 M 0 67 R D
17518 1408 M 0 67 R D 17640 1408 M 0 67 R D 12500 5852 M 5140 0 R D
13715 5852 M 0 -133 R D 14941 5852 M 0 -133 R D 16168 5852 M 0 -133 R D
17395 5852 M 0 -133 R D 12611 5852 M 0 -67 R D 12733 5852 M 0 -67 R D
12856 5852 M 0 -67 R D 12979 5852 M 0 -67 R D 13101 5852 M 0 -67 R D
13224 5852 M 0 -67 R D 13347 5852 M 0 -67 R D 13469 5852 M 0 -67 R D
13592 5852 M 0 -67 R D 13837 5852 M 0 -67 R D 13960 5852 M 0 -67 R D
14083 5852 M 0 -67 R D 14205 5852 M 0 -67 R D 14328 5852 M 0 -67 R D
14451 5852 M 0 -67 R D 14573 5852 M 0 -67 R D 14696 5852 M 0 -67 R D
14819 5852 M 0 -67 R D 15064 5852 M 0 -67 R D 15187 5852 M 0 -67 R D
15309 5852 M 0 -67 R D 15432 5852 M 0 -67 R D 15555 5852 M 0 -67 R D
15677 5852 M 0 -67 R D 15800 5852 M 0 -67 R D 15923 5852 M 0 -67 R D
16045 5852 M 0 -67 R D 16291 5852 M 0 -67 R D 16413 5852 M 0 -67 R D
16536 5852 M 0 -67 R D 16659 5852 M 0 -67 R D 16781 5852 M 0 -67 R D
16904 5852 M 0 -67 R D 17027 5852 M 0 -67 R D 17149 5852 M 0 -67 R D
17272 5852 M 0 -67 R D 17518 5852 M 0 -67 R D 17640 5852 M 0 -67 R D
12500 1408 M 0 4444 R D 12500 1902 M 154 0 R D
gsave 12389 1762 translate 0 0 M -117.687 0 N
( ) show grestore 12500 2895 M 154 0 R D gsave 12389 2755 translate 0 0 M
-117.687 0 N
( ) show grestore 12500 3889 M 154 0 R D gsave 12389 3748 translate 0 0 M
-117.687 0 N
( ) show grestore 12500 4882 M 154 0 R D gsave 12389 4741 translate 0 0 M
-117.687 0 N
( ) show grestore 12500 2399 M 77 0 R D 12500 3392 M 77 0 R D 12500 4385 M
77 0 R D 12500 5378 M 77 0 R D 17640 1408 M 0 4444 R D 17640 1902 M -154 0 R
D 17640 2895 M -154 0 R D 17640 3889 M -154 0 R D 17640 4882 M -154 0 R D
17640 2399 M -77 0 R D 17640 3392 M -77 0 R D 17640 4385 M -77 0 R D
17640 5378 M -77 0 R D 0.000 0.000 1.000 setrgbcolor 12500 4455 M 233 -29 R
246 -54 R 245 34 R 245 -70 R 246 10 R 245 -35 R 245 -9 R 246 -40 R 245 28 R
245 -2 R 246 -139 R 245 -411 R 245 -392 R 246 -194 R 245 -252 R 245 -412 R
246 -292 R 211 -788 R D 12500 4403 M 39 0 R -39 0 R D 12500 4512 M 39 0 R D
12682 4340 M 103 0 R -52 0 R 0 173 R -51 0 R 103 0 R D 12927 4265 M 103 0 R
-51 0 R 0 215 R -52 0 R 103 0 R D 13172 4342 M 103 0 R -51 0 R 0 128 R
-52 0 R 103 0 R D 13418 4236 M 103 0 R -52 0 R 0 200 R -51 0 R 103 0 R D
13663 4286 M 103 0 R -51 0 R 0 119 R -52 0 R 103 0 R D 13909 4245 M 102 0 R
-51 0 R 0 131 R -51 0 R 102 0 R D 14154 4257 M 103 0 R -52 0 R 0 90 R
-51 0 R 103 0 R D 14399 4135 M 103 0 R -51 0 R 0 254 R -52 0 R 103 0 R D
14645 4170 M 102 0 R -51 0 R 0 239 R -51 0 R 102 0 R D 14890 4231 M 103 0 R
-52 0 R 0 114 R -51 0 R 103 0 R D 15135 4029 M 103 0 R -51 0 R 0 241 R
-52 0 R 103 0 R D 15381 3572 M 102 0 R -51 0 R 0 333 R -51 0 R 102 0 R D
15626 3209 M 103 0 R -52 0 R 0 275 R -51 0 R 103 0 R D 15871 2952 M 103 0 R
-51 0 R 0 401 R -52 0 R 103 0 R D 16117 2694 M 102 0 R -51 0 R 0 413 R
-51 0 R 102 0 R D 16362 2488 M 103 0 R -52 0 R -51 0 R 103 0 R D
16607 1606 M 103 0 R -51 0 R 0 1181 R -52 0 R 103 0 R D
0.761 0.000 0.000 setrgbcolor 12500 5017 M 233 -56 R 246 -50 R 245 -55 R
245 -50 R 246 -44 R 245 -34 R 245 -3 R 246 8 R 245 -16 R 245 -76 R
246 -172 R 245 -212 R 245 -206 R 246 -572 R 245 -347 R 245 -395 R 246 -384 R
216 -945 R D 12500 4986 M 39 0 R -39 0 R D 12500 5053 M 39 0 R D
12682 4928 M 103 0 R -52 0 R 0 67 R -51 0 R 103 0 R D 12927 4865 M 103 0 R
-51 0 R 0 92 R -52 0 R 103 0 R D 13172 4814 M 103 0 R -51 0 R 0 84 R -52 0 R
103 0 R D 13418 4769 M 103 0 R -52 0 R 0 74 R -51 0 R 103 0 R D 13663 4719 M
103 0 R -51 0 R 0 85 R -52 0 R 103 0 R D 13909 4690 M 102 0 R -51 0 R 0 77 R
-51 0 R 102 0 R D 14154 4693 M 103 0 R -52 0 R 0 64 R -51 0 R 103 0 R D
14399 4701 M 103 0 R -51 0 R 0 64 R -52 0 R 103 0 R D 14645 4674 M 102 0 R
-51 0 R 0 87 R -51 0 R 102 0 R D 14890 4603 M 103 0 R -52 0 R 0 76 R -51 0 R
103 0 R D 15135 4408 M 103 0 R -51 0 R 0 121 R -52 0 R 103 0 R D
15381 4195 M 102 0 R -51 0 R 0 124 R -51 0 R 102 0 R D 15626 3982 M 103 0 R
-52 0 R 0 138 R -51 0 R 103 0 R D 15871 3095 M 103 0 R -51 0 R 0 768 R
-52 0 R 103 0 R D 16117 2680 M 102 0 R -51 0 R 0 903 R -51 0 R 102 0 R D
16362 2235 M 103 0 R -52 0 R 0 1004 R -51 0 R 103 0 R D 16607 1652 M 103 0 R
-51 0 R 0 1401 R -52 0 R 103 0 R D
%%PageTrailer
end
%%PageResources: font Helvetica
%%+ font Symbol
%%+ font AvantGarde-Book
%%+ font Helvetica-Bold
%%Trailer
%%Pages: 1
%%DocumentNeededResources: font Helvetica
%%+ font Symbol
%%+ font AvantGarde-Book
%%+ font Helvetica-Bold
%%EOF
