%!PS-Adobe-3.0 EPSF-3.0
%%BoundingBox: 0 0 510 425
%%Title: Graphics produced by IDL
%%For: jlgan@Hserver, /home/jlgan/work/phoenix
%%Creator: IDL Version 7.1.1 (linux x86_64 m64)
%%CreationDate: Wed Nov 12 16:51:36 2014
%%DocumentData: Clean7bit
%%Requirements: color
%%LanguageLevel: 1
%%PageOrder: Ascend
%%Pages: (atend)
%%DocumentNeededResources: (atend)
%%EndComments
%%BeginProlog
%+ prolog.ps -- Prolog for IDL generated PostScript files
%+ Copyright (c) 1988-2009 ITT Visual Information Solutions. All Rights Reserved.
%v 5
/$IDL_DICT 40 dict def $IDL_DICT begin /bdef { bind def } bind def /C
{currentpoint newpath moveto} bdef /CP {currentpoint} bdef /D {currentpoint
stroke moveto} bdef /F {closepath fill} bdef /K { setgray } bdef /M {moveto}
bdef /N {rmoveto} bdef /P {lineto} bdef /R {rlineto} bdef /S {gsave show
grestore} bdef /X {currentpoint pop} bdef /Z {gsave currentpoint lineto 20
setlinewidth 1 setlinecap stroke grestore} bdef /L0 {[] 0 setdash} bdef /L1
{[40 100] 0 setdash} bdef /L2 {[200 200] 0 setdash} bdef /L3 {[200 100 50
100] 0 setdash} bdef /L4 {[300 100 50 100 50 100 50 100] 0 setdash} bdef /L5
{[400 200] 0 setdash} bdef /STDFONT { findfont exch scalefont setfont } bdef
/ISOFONT { findfont dup length dict begin { 1 index /FID ne {def} {pop pop}
ifelse } forall /Encoding ISOLatin1Encoding def currentdict end /idltmpfont
exch definefont exch scalefont setfont } bdef /ISOBULLET { gsave /Helvetica
findfont exch scalefont setfont (\267) show currentpoint grestore moveto}
bdef /MITERLIMIT { 2.5 setmiterlimit } bdef end
%%EndProlog
%%Page: 0 1
%%PageRequirements: color
%%PageResources: (atend)
%%PageOrientation: Portrait
%%PageBoundingBox: 0 0 510 425
%%BeginPageSetup
$IDL_DICT begin 0.0283465 dup scale MITERLIMIT
%%IncludeResource: font Helvetica
423.333 /Helvetica STDFONT
%%EndPageSetup
0.000 0.000 0.000 setrgbcolor gsave 9930 352 translate 0 0 M -1472.54 0 N
(log[M) show X -101.051 M
%%IncludeResource: font Helvetica-Bold
262.467 /Helvetica-Bold STDFONT
(*) show X 0 M
%%IncludeResource: font Helvetica
423.333 /Helvetica STDFONT
( / \(h) show X 192.937 M
%%IncludeResource: font Helvetica
262.467 /Helvetica STDFONT
(-2) show X 0 M
%%IncludeResource: font Helvetica
423.333 /Helvetica STDFONT
(M) show CP X -101.051 M
%%IncludeResource: font AvantGarde-Book
262.467 /AvantGarde-Book STDFONT
(O) show M X -58.3193 M
%%IncludeResource: font AvantGarde-Book
186.267 /AvantGarde-Book STDFONT
( \267) show X 0 M
%%IncludeResource: font Helvetica
423.333 /Helvetica STDFONT
(\)]) show grestore gsave 888 7852 translate 0 0 M 90 rotate -2211.8 0 N
%%IncludeResource: font Symbol
423.333 /Symbol STDFONT
(f) show
%%IncludeResource: font Helvetica
423.333 /Helvetica STDFONT
(\(M) show X -101.051 M
%%IncludeResource: font Helvetica-Bold
262.467 /Helvetica-Bold STDFONT
(*) show X 0 M
%%IncludeResource: font Helvetica
423.333 /Helvetica STDFONT
(\) / \(h) show X 192.937 M
%%IncludeResource: font Helvetica
262.467 /Helvetica STDFONT
(3) show X 0 M
%%IncludeResource: font Helvetica
423.333 /Helvetica STDFONT
(Mpc) show X 192.937 M
%%IncludeResource: font Helvetica
262.467 /Helvetica STDFONT
(-3) show X 0 M
%%IncludeResource: font Helvetica
423.333 /Helvetica STDFONT
(log) show X 192.937 M
%%IncludeResource: font Helvetica
262.467 /Helvetica STDFONT
(-1) show X 0 M
%%IncludeResource: font Helvetica
423.333 /Helvetica STDFONT
(M) show X -101.051 M
%%IncludeResource: font Helvetica-Bold
262.467 /Helvetica-Bold STDFONT
(*) show X 0 M
%%IncludeResource: font Helvetica
423.333 /Helvetica STDFONT
(\)) show grestore gsave 4790 14400 translate 0 0 M -716.068 0 N
(z~z) show
%%IncludeResource: font Symbol
423.333 /Symbol STDFONT
(\273) show
%%IncludeResource: font Helvetica
423.333 /Helvetica STDFONT
(0.0) show grestore 30 setlinewidth L0 2220 10000 M 5140 0 R D 3434 10000 M
0 129 R D gsave 3434 9472 translate 0 0 M -58.8433 0 N
( ) show grestore 4661 10000 M 0 129 R D gsave 4661 9472 translate 0 0 M
-58.8433 0 N
( ) show grestore 5888 10000 M 0 129 R D gsave 5888 9472 translate 0 0 M
-58.8433 0 N
( ) show grestore 7115 10000 M 0 129 R D gsave 7115 9472 translate 0 0 M
-58.8433 0 N
( ) show grestore 2330 10000 M 0 64 R D 2453 10000 M 0 64 R D 2576 10000 M
0 64 R D 2698 10000 M 0 64 R D 2821 10000 M 0 64 R D 2944 10000 M 0 64 R D
3066 10000 M 0 64 R D 3189 10000 M 0 64 R D 3312 10000 M 0 64 R D
3557 10000 M 0 64 R D 3680 10000 M 0 64 R D 3803 10000 M 0 64 R D
3925 10000 M 0 64 R D 4048 10000 M 0 64 R D 4171 10000 M 0 64 R D
4293 10000 M 0 64 R D 4416 10000 M 0 64 R D 4539 10000 M 0 64 R D
4784 10000 M 0 64 R D 4907 10000 M 0 64 R D 5029 10000 M 0 64 R D
5152 10000 M 0 64 R D 5275 10000 M 0 64 R D 5397 10000 M 0 64 R D
5520 10000 M 0 64 R D 5643 10000 M 0 64 R D 5765 10000 M 0 64 R D
6011 10000 M 0 64 R D 6133 10000 M 0 64 R D 6256 10000 M 0 64 R D
6379 10000 M 0 64 R D 6501 10000 M 0 64 R D 6624 10000 M 0 64 R D
6747 10000 M 0 64 R D 6869 10000 M 0 64 R D 6992 10000 M 0 64 R D
7237 10000 M 0 64 R D 7360 10000 M 0 64 R D 2220 14296 M 5140 0 R D
3434 14296 M 0 -129 R D 4661 14296 M 0 -129 R D 5888 14296 M 0 -129 R D
7115 14296 M 0 -129 R D 2330 14296 M 0 -64 R D 2453 14296 M 0 -64 R D
2576 14296 M 0 -64 R D 2698 14296 M 0 -64 R D 2821 14296 M 0 -64 R D
2944 14296 M 0 -64 R D 3066 14296 M 0 -64 R D 3189 14296 M 0 -64 R D
3312 14296 M 0 -64 R D 3557 14296 M 0 -64 R D 3680 14296 M 0 -64 R D
3803 14296 M 0 -64 R D 3925 14296 M 0 -64 R D 4048 14296 M 0 -64 R D
4171 14296 M 0 -64 R D 4293 14296 M 0 -64 R D 4416 14296 M 0 -64 R D
4539 14296 M 0 -64 R D 4784 14296 M 0 -64 R D 4907 14296 M 0 -64 R D
5029 14296 M 0 -64 R D 5152 14296 M 0 -64 R D 5275 14296 M 0 -64 R D
5397 14296 M 0 -64 R D 5520 14296 M 0 -64 R D 5643 14296 M 0 -64 R D
5765 14296 M 0 -64 R D 6011 14296 M 0 -64 R D 6133 14296 M 0 -64 R D
6256 14296 M 0 -64 R D 6379 14296 M 0 -64 R D 6501 14296 M 0 -64 R D
6624 14296 M 0 -64 R D 6747 14296 M 0 -64 R D 6869 14296 M 0 -64 R D
6992 14296 M 0 -64 R D 7237 14296 M 0 -64 R D 7360 14296 M 0 -64 R D
2220 10000 M 0 4296 R D 2220 10428 M 154 0 R D
gsave 2109 10287 translate 0 0 M -704.08 0 N
(10) show X 192.937 M
%%IncludeResource: font Helvetica
262.467 /Helvetica STDFONT
(-6) show grestore
%%IncludeResource: font Helvetica
423.333 /Helvetica STDFONT 2220 11288 M 154 0 R D
gsave 2109 11147 translate 0 0 M -704.08 0 N
(10) show X 192.937 M
%%IncludeResource: font Helvetica
262.467 /Helvetica STDFONT
(-4) show grestore
%%IncludeResource: font Helvetica
423.333 /Helvetica STDFONT 2220 12148 M 154 0 R D
gsave 2109 12007 translate 0 0 M -704.08 0 N
(10) show X 192.937 M
%%IncludeResource: font Helvetica
262.467 /Helvetica STDFONT
(-2) show grestore
%%IncludeResource: font Helvetica
423.333 /Helvetica STDFONT 2220 13008 M 154 0 R D
gsave 2109 12867 translate 0 0 M -616.678 0 N
(10) show X 192.937 M
%%IncludeResource: font Helvetica
262.467 /Helvetica STDFONT
(0) show grestore
%%IncludeResource: font Helvetica
423.333 /Helvetica STDFONT 2220 13868 M 154 0 R D
gsave 2109 13727 translate 0 0 M -616.678 0 N
(10) show X 192.937 M
%%IncludeResource: font Helvetica
262.467 /Helvetica STDFONT
(2) show grestore
%%IncludeResource: font Helvetica
423.333 /Helvetica STDFONT 2220 10858 M 77 0 R D 2220 11718 M 77 0 R D
2220 12578 M 77 0 R D 2220 13438 M 77 0 R D 7360 10000 M 0 4296 R D
7360 10428 M -154 0 R D 7360 11288 M -154 0 R D 7360 12148 M -154 0 R D
7360 13008 M -154 0 R D 7360 13868 M -154 0 R D 7360 10858 M -77 0 R D
7360 11718 M -77 0 R D 7360 12578 M -77 0 R D 7360 13438 M -77 0 R D
2220 12738 M 233 -23 R 245 31 R 246 -309 R 245 204 R 245 -253 R 246 86 R
245 -72 R 246 -223 R 245 -18 R 245 271 R 246 -328 R 245 135 R 245 -252 R
246 -106 R 245 -163 R 245 -253 R 246 -396 R 245 -622 R 245 1946 R 246 336 R
D 2220 10000 M 39 0 R -39 0 R D 2220 12872 M 39 0 R D 2402 12210 M 102 0 R
-51 0 R 0 629 R -51 0 R 102 0 R D 2647 10000 M 103 0 R -52 0 R 0 2886 R
-51 0 R 103 0 R D 2892 10000 M 103 0 R -51 0 R 0 2645 R -52 0 R 103 0 R D
3138 10000 M 103 0 R -52 0 R 0 2784 R -51 0 R 103 0 R D 3383 10000 M 103 0 R
-52 0 R 0 2587 R -51 0 R 103 0 R D 3628 10000 M 103 0 R -51 0 R 0 2672 R
-52 0 R 103 0 R D 3874 10000 M 103 0 R -52 0 R 0 2612 R -51 0 R 103 0 R D
4119 11921 M 103 0 R -51 0 R 0 363 R -52 0 R 103 0 R D 4364 11902 M 103 0 R
-51 0 R 0 364 R -52 0 R 103 0 R D 4610 10000 M 103 0 R -52 0 R 0 2627 R
-51 0 R 103 0 R D 4855 11845 M 103 0 R -51 0 R 0 364 R -52 0 R 103 0 R D
5101 10000 M 102 0 R -51 0 R 0 2442 R -51 0 R 102 0 R D 5346 11728 M 103 0 R
-52 0 R 0 363 R -51 0 R 103 0 R D 5591 11622 M 103 0 R -51 0 R 0 363 R
-52 0 R 103 0 R D 5837 11459 M 102 0 R -51 0 R 0 364 R -51 0 R 102 0 R D
6082 11206 M 103 0 R -52 0 R 0 364 R -51 0 R 103 0 R D 6327 10810 M 103 0 R
-51 0 R 0 364 R -52 0 R 103 0 R D 6573 10188 M 102 0 R -51 0 R 0 363 R
-51 0 R 102 0 R D 6818 10000 M 103 0 R -52 0 R 0 2652 R -51 0 R 103 0 R D
7063 10000 M 103 0 R -51 0 R 0 2860 R -52 0 R 103 0 R D L1
1.000 0.000 0.000 setrgbcolor 2220 13892 M 233 -50 R 245 -44 R 246 -42 R
245 -35 R 245 -49 R 246 -21 R 245 -11 R 246 -10 R 245 -12 R 245 -36 R
246 -91 R 245 -132 R 245 -211 R 246 -179 R 245 -431 R 245 -466 R 246 -745 R
245 -543 R 154 -784 R D L0 2220 13869 M 39 0 R -39 0 R D 2220 13922 M 39 0 R
D 2402 13823 M 102 0 R -51 0 R 0 38 R -51 0 R 102 0 R D 2647 13775 M 103 0 R
-52 0 R 0 46 R -51 0 R 103 0 R D 2892 13740 M 103 0 R -51 0 R 0 31 R -52 0 R
103 0 R D 3138 13697 M 103 0 R -52 0 R 0 47 R -51 0 R 103 0 R D 3383 13657 M
103 0 R -52 0 R 0 31 R -51 0 R 103 0 R D 3628 13630 M 103 0 R -51 0 R 0 42 R
-52 0 R 103 0 R D 3874 13618 M 103 0 R -52 0 R 0 44 R -51 0 R 103 0 R D
4119 13613 M 103 0 R -51 0 R 0 34 R -52 0 R 103 0 R D 4364 13597 M 103 0 R
-51 0 R 0 42 R -52 0 R 103 0 R D 4610 13550 M 103 0 R -52 0 R 0 65 R -51 0 R
103 0 R D 4855 13454 M 103 0 R -51 0 R 0 74 R -52 0 R 103 0 R D 5101 13327 M
102 0 R -51 0 R 0 64 R -51 0 R 102 0 R D 5346 13058 M 103 0 R -52 0 R
0 180 R -51 0 R 103 0 R D 5591 12868 M 103 0 R -51 0 R 0 201 R -52 0 R
103 0 R D 5837 11975 M 102 0 R -51 0 R 0 1127 R -51 0 R 102 0 R D
6082 11439 M 103 0 R -52 0 R 0 1267 R -51 0 R 103 0 R D 6327 10780 M 103 0 R
-51 0 R 0 1094 R -52 0 R 103 0 R D 6624 10000 M 0 1571 R -51 0 R 102 0 R D
0.000 0.000 0.000 setrgbcolor gsave 9930 14400 translate 0 0 M -716.068 0 N
(z~z) show
%%IncludeResource: font Symbol
423.333 /Symbol STDFONT
(\273) show
%%IncludeResource: font Helvetica
423.333 /Helvetica STDFONT
(0.3) show grestore 7360 10000 M 5140 0 R D 8575 10000 M 0 129 R D
gsave 8575 9472 translate 0 0 M -58.8433 0 N
( ) show grestore 9801 10000 M 0 129 R D gsave 9801 9472 translate 0 0 M
-58.8433 0 N
( ) show grestore 11028 10000 M 0 129 R D gsave 11028 9472 translate 0 0 M
-58.8433 0 N
( ) show grestore 12255 10000 M 0 129 R D gsave 12255 9472 translate 0 0 M
-58.8433 0 N
( ) show grestore 7470 10000 M 0 64 R D 7593 10000 M 0 64 R D 7716 10000 M
0 64 R D 7838 10000 M 0 64 R D 7961 10000 M 0 64 R D 8084 10000 M 0 64 R D
8207 10000 M 0 64 R D 8329 10000 M 0 64 R D 8452 10000 M 0 64 R D
8697 10000 M 0 64 R D 8820 10000 M 0 64 R D 8943 10000 M 0 64 R D
9065 10000 M 0 64 R D 9188 10000 M 0 64 R D 9311 10000 M 0 64 R D
9433 10000 M 0 64 R D 9556 10000 M 0 64 R D 9679 10000 M 0 64 R D
9924 10000 M 0 64 R D 10047 10000 M 0 64 R D 10169 10000 M 0 64 R D
10292 10000 M 0 64 R D 10415 10000 M 0 64 R D 10537 10000 M 0 64 R D
10660 10000 M 0 64 R D 10783 10000 M 0 64 R D 10905 10000 M 0 64 R D
11151 10000 M 0 64 R D 11273 10000 M 0 64 R D 11396 10000 M 0 64 R D
11519 10000 M 0 64 R D 11641 10000 M 0 64 R D 11764 10000 M 0 64 R D
11887 10000 M 0 64 R D 12009 10000 M 0 64 R D 12132 10000 M 0 64 R D
12377 10000 M 0 64 R D 12500 10000 M 0 64 R D 7360 14296 M 5140 0 R D
8575 14296 M 0 -129 R D 9801 14296 M 0 -129 R D 11028 14296 M 0 -129 R D
12255 14296 M 0 -129 R D 7470 14296 M 0 -64 R D 7593 14296 M 0 -64 R D
7716 14296 M 0 -64 R D 7838 14296 M 0 -64 R D 7961 14296 M 0 -64 R D
8084 14296 M 0 -64 R D 8207 14296 M 0 -64 R D 8329 14296 M 0 -64 R D
8452 14296 M 0 -64 R D 8697 14296 M 0 -64 R D 8820 14296 M 0 -64 R D
8943 14296 M 0 -64 R D 9065 14296 M 0 -64 R D 9188 14296 M 0 -64 R D
9311 14296 M 0 -64 R D 9433 14296 M 0 -64 R D 9556 14296 M 0 -64 R D
9679 14296 M 0 -64 R D 9924 14296 M 0 -64 R D 10047 14296 M 0 -64 R D
10169 14296 M 0 -64 R D 10292 14296 M 0 -64 R D 10415 14296 M 0 -64 R D
10537 14296 M 0 -64 R D 10660 14296 M 0 -64 R D 10783 14296 M 0 -64 R D
10905 14296 M 0 -64 R D 11151 14296 M 0 -64 R D 11273 14296 M 0 -64 R D
11396 14296 M 0 -64 R D 11519 14296 M 0 -64 R D 11641 14296 M 0 -64 R D
11764 14296 M 0 -64 R D 11887 14296 M 0 -64 R D 12009 14296 M 0 -64 R D
12132 14296 M 0 -64 R D 12377 14296 M 0 -64 R D 12500 14296 M 0 -64 R D
7360 10000 M 0 4296 R D 7360 10428 M 154 0 R D
gsave 7249 10287 translate 0 0 M -117.687 0 N
( ) show grestore 7360 11288 M 154 0 R D gsave 7249 11147 translate 0 0 M
-117.687 0 N
( ) show grestore 7360 12148 M 154 0 R D gsave 7249 12007 translate 0 0 M
-117.687 0 N
( ) show grestore 7360 13008 M 154 0 R D gsave 7249 12867 translate 0 0 M
-117.687 0 N
( ) show grestore 7360 13868 M 154 0 R D gsave 7249 13727 translate 0 0 M
-117.687 0 N
( ) show grestore 7360 10858 M 77 0 R D 7360 11718 M 77 0 R D 7360 12578 M
77 0 R D 7360 13438 M 77 0 R D 12500 10000 M 0 4296 R D 12500 10428 M
-154 0 R D 12500 11288 M -154 0 R D 12500 12148 M -154 0 R D 12500 13008 M
-154 0 R D 12500 13868 M -154 0 R D 12500 10858 M -77 0 R D 12500 11718 M
-77 0 R D 12500 12578 M -77 0 R D 12500 13438 M -77 0 R D 7360 13593 M
233 -80 R 245 -35 R 246 -111 R 245 21 R 246 -73 R 245 -51 R 245 -47 R
246 -27 R 245 -123 R 245 -10 R 246 -161 R 245 -400 R 245 -243 R 246 -296 R
245 -64 R 245 -352 R 246 -396 R 245 -349 R 245 653 R 150 -1449 R D
7360 13542 M 39 0 R -39 0 R D 7360 13655 M 39 0 R D 7542 13424 M 103 0 R
-52 0 R 0 177 R -51 0 R 103 0 R D 7787 13423 M 103 0 R -52 0 R 0 109 R
-51 0 R 103 0 R D 8032 13234 M 103 0 R -51 0 R 0 265 R -52 0 R 103 0 R D
8278 13297 M 103 0 R -52 0 R 0 182 R -51 0 R 103 0 R D 8523 13195 M 103 0 R
-51 0 R 0 241 R -52 0 R 103 0 R D 8768 13179 M 103 0 R -51 0 R 0 171 R
-52 0 R 103 0 R D 9014 13129 M 103 0 R -52 0 R 0 176 R -51 0 R 103 0 R D
9259 13056 M 103 0 R -51 0 R 0 269 R -52 0 R 103 0 R D 9505 12723 M 102 0 R
-51 0 R 0 688 R -51 0 R 102 0 R D 9750 12712 M 103 0 R -52 0 R 0 690 R
-51 0 R 103 0 R D 9995 12469 M 103 0 R -51 0 R 0 853 R -52 0 R 103 0 R D
10241 12064 M 102 0 R -51 0 R 0 863 R -51 0 R 102 0 R D 10486 11874 M
103 0 R -52 0 R 0 759 R -51 0 R 103 0 R D 10731 11957 M 103 0 R -51 0 R
-52 0 R 103 0 R D 10977 11596 M 102 0 R -51 0 R 0 593 R -51 0 R 102 0 R D
11222 11541 M 103 0 R -52 0 R -51 0 R 103 0 R D 11467 11145 M 103 0 R
-51 0 R -52 0 R 103 0 R D 11764 10000 M 0 1617 R -51 0 R 102 0 R D
12009 10000 M 0 3260 R -51 0 R 103 0 R D 12255 10000 M 0 1256 R -52 0 R
103 0 R D L1 1.000 0.000 0.000 setrgbcolor 7360 13906 M 233 -44 R 245 -38 R
246 -42 R 245 -41 R 246 -41 R 245 -2 R 245 -9 R 246 -17 R 245 4 R 245 -54 R
246 -105 R 245 -159 R 245 -312 R 246 -88 R 245 -754 R 245 -202 R 246 -663 R
245 -577 R 152 -762 R D L0 7360 13863 M 39 0 R -39 0 R D 7360 13954 M 39 0 R
D 7542 13822 M 103 0 R -52 0 R 0 81 R -51 0 R 103 0 R D 7787 13787 M 103 0 R
-52 0 R 0 74 R -51 0 R 103 0 R D 8032 13748 M 103 0 R -51 0 R 0 67 R -52 0 R
103 0 R D 8278 13708 M 103 0 R -52 0 R 0 65 R -51 0 R 103 0 R D 8523 13646 M
103 0 R -51 0 R 0 108 R -52 0 R 103 0 R D 8768 13654 M 103 0 R -51 0 R
0 88 R -52 0 R 103 0 R D 9014 13669 M 103 0 R -52 0 R 0 41 R -51 0 R 103 0 R
D 9259 13616 M 103 0 R -51 0 R 0 112 R -52 0 R 103 0 R D 9505 13634 M
102 0 R -51 0 R 0 85 R -51 0 R 102 0 R D 9750 13571 M 103 0 R -52 0 R
0 102 R -51 0 R 103 0 R D 9995 13439 M 103 0 R -51 0 R 0 156 R -52 0 R
103 0 R D 10241 13285 M 102 0 R -51 0 R 0 147 R -51 0 R 102 0 R D
10486 12658 M 103 0 R -52 0 R 0 777 R -51 0 R 103 0 R D 10731 12576 M
103 0 R -51 0 R 0 763 R -52 0 R 103 0 R D 10977 11587 M 102 0 R -51 0 R
0 1235 R -51 0 R 102 0 R D 11222 11308 M 103 0 R -52 0 R 0 1389 R -51 0 R
103 0 R D 11467 10757 M 103 0 R -51 0 R 0 1163 R -52 0 R 103 0 R D
11713 10042 M 102 0 R -51 0 R 0 1441 R -51 0 R 102 0 R D 40 setlinewidth
0.000 0.000 0.000 setrgbcolor 7617 10816 M 62 0 R 61 0 R 62 0 R 62 0 R
61 0 R 62 0 R 62 0 R 62 0 R 61 0 R D L1 1.000 0.000 0.000 setrgbcolor
7617 10387 M 62 0 R 61 0 R 62 0 R 62 0 R 61 0 R 62 0 R 62 0 R 62 0 R 61 0 R
D 0.000 0.000 0.000 setrgbcolor gsave 8234 10756 translate 0 0 M
(Central) show grestore 1.000 0.000 0.000 setrgbcolor
gsave 8234 10326 translate 0 0 M
(Satellite) show grestore 0.000 0.000 0.000 setrgbcolor
gsave 7617 11289 translate 0 0 M
([0,R) show X -101.051 M
%%IncludeResource: font Helvetica
262.467 /Helvetica STDFONT
(200) show X 0 M
%%IncludeResource: font Helvetica
423.333 /Helvetica STDFONT
(]) show grestore gsave 15070 14400 translate 0 0 M -716.068 0 N
(z~z) show
%%IncludeResource: font Symbol
423.333 /Symbol STDFONT
(\273) show
%%IncludeResource: font Helvetica
423.333 /Helvetica STDFONT
(1.0) show grestore 30 setlinewidth L0 12500 10000 M 5140 0 R D
13715 10000 M 0 129 R D gsave 13715 9472 translate 0 0 M -58.8433 0 N
( ) show grestore 14941 10000 M 0 129 R D gsave 14941 9472 translate 0 0 M
-58.8433 0 N
( ) show grestore 16168 10000 M 0 129 R D gsave 16168 9472 translate 0 0 M
-58.8433 0 N
( ) show grestore 17395 10000 M 0 129 R D gsave 17395 9472 translate 0 0 M
-58.8433 0 N
( ) show grestore 12611 10000 M 0 64 R D 12733 10000 M 0 64 R D
12856 10000 M 0 64 R D 12979 10000 M 0 64 R D 13101 10000 M 0 64 R D
13224 10000 M 0 64 R D 13347 10000 M 0 64 R D 13469 10000 M 0 64 R D
13592 10000 M 0 64 R D 13837 10000 M 0 64 R D 13960 10000 M 0 64 R D
14083 10000 M 0 64 R D 14205 10000 M 0 64 R D 14328 10000 M 0 64 R D
14451 10000 M 0 64 R D 14573 10000 M 0 64 R D 14696 10000 M 0 64 R D
14819 10000 M 0 64 R D 15064 10000 M 0 64 R D 15187 10000 M 0 64 R D
15309 10000 M 0 64 R D 15432 10000 M 0 64 R D 15555 10000 M 0 64 R D
15677 10000 M 0 64 R D 15800 10000 M 0 64 R D 15923 10000 M 0 64 R D
16045 10000 M 0 64 R D 16291 10000 M 0 64 R D 16413 10000 M 0 64 R D
16536 10000 M 0 64 R D 16659 10000 M 0 64 R D 16781 10000 M 0 64 R D
16904 10000 M 0 64 R D 17027 10000 M 0 64 R D 17149 10000 M 0 64 R D
17272 10000 M 0 64 R D 17518 10000 M 0 64 R D 17640 10000 M 0 64 R D
12500 14296 M 5140 0 R D 13715 14296 M 0 -129 R D 14941 14296 M 0 -129 R D
16168 14296 M 0 -129 R D 17395 14296 M 0 -129 R D 12611 14296 M 0 -64 R D
12733 14296 M 0 -64 R D 12856 14296 M 0 -64 R D 12979 14296 M 0 -64 R D
13101 14296 M 0 -64 R D 13224 14296 M 0 -64 R D 13347 14296 M 0 -64 R D
13469 14296 M 0 -64 R D 13592 14296 M 0 -64 R D 13837 14296 M 0 -64 R D
13960 14296 M 0 -64 R D 14083 14296 M 0 -64 R D 14205 14296 M 0 -64 R D
14328 14296 M 0 -64 R D 14451 14296 M 0 -64 R D 14573 14296 M 0 -64 R D
14696 14296 M 0 -64 R D 14819 14296 M 0 -64 R D 15064 14296 M 0 -64 R D
15187 14296 M 0 -64 R D 15309 14296 M 0 -64 R D 15432 14296 M 0 -64 R D
15555 14296 M 0 -64 R D 15677 14296 M 0 -64 R D 15800 14296 M 0 -64 R D
15923 14296 M 0 -64 R D 16045 14296 M 0 -64 R D 16291 14296 M 0 -64 R D
16413 14296 M 0 -64 R D 16536 14296 M 0 -64 R D 16659 14296 M 0 -64 R D
16781 14296 M 0 -64 R D 16904 14296 M 0 -64 R D 17027 14296 M 0 -64 R D
17149 14296 M 0 -64 R D 17272 14296 M 0 -64 R D 17518 14296 M 0 -64 R D
17640 14296 M 0 -64 R D 12500 10000 M 0 4296 R D 12500 10428 M 154 0 R D
gsave 12389 10287 translate 0 0 M -117.687 0 N
( ) show grestore 12500 11288 M 154 0 R D gsave 12389 11147 translate 0 0 M
-117.687 0 N
( ) show grestore 12500 12148 M 154 0 R D gsave 12389 12007 translate 0 0 M
-117.687 0 N
( ) show grestore 12500 13008 M 154 0 R D gsave 12389 12867 translate 0 0 M
-117.687 0 N
( ) show grestore 12500 13868 M 154 0 R D gsave 12389 13727 translate 0 0 M
-117.687 0 N
( ) show grestore 12500 10858 M 77 0 R D 12500 11718 M 77 0 R D
12500 12578 M 77 0 R D 12500 13438 M 77 0 R D 17640 10000 M 0 4296 R D
17640 10428 M -154 0 R D 17640 11288 M -154 0 R D 17640 12148 M -154 0 R D
17640 13008 M -154 0 R D 17640 13868 M -154 0 R D 17640 10858 M -77 0 R D
17640 11718 M -77 0 R D 17640 12578 M -77 0 R D 17640 13438 M -77 0 R D
12500 13732 M 233 -5 R 246 -31 R 245 -114 R 245 -145 R 246 -151 R 245 22 R
245 -107 R 246 -128 R 245 132 R 245 -206 R 246 -185 R 245 -583 R 245 -62 R
246 -212 R 245 -163 R 245 156 R 246 -77 R 245 -752 R 232 -1121 R D
12500 13609 M 39 0 R -39 0 R D 12500 13857 M 39 0 R D 12682 13659 M 103 0 R
-52 0 R 0 137 R -51 0 R 103 0 R D 12927 13617 M 103 0 R -51 0 R 0 159 R
-52 0 R 103 0 R D 13172 13442 M 103 0 R -51 0 R 0 281 R -52 0 R 103 0 R D
13418 13009 M 103 0 R -52 0 R 0 856 R -51 0 R 103 0 R D 13663 12716 M
103 0 R -51 0 R 0 1140 R -52 0 R 103 0 R D 13909 12915 M 102 0 R -51 0 R
0 785 R -51 0 R 102 0 R D 14154 12665 M 103 0 R -52 0 R 0 1072 R -51 0 R
103 0 R D 14399 12453 M 103 0 R -51 0 R 0 1241 R -52 0 R 103 0 R D
14645 12652 M 102 0 R -51 0 R 0 1107 R -51 0 R 102 0 R D 14890 12401 M
103 0 R -52 0 R 0 1195 R -51 0 R 103 0 R D 15135 12210 M 103 0 R -51 0 R
0 1207 R -52 0 R 103 0 R D 15381 11936 M 102 0 R -51 0 R 0 590 R -51 0 R
102 0 R D 15626 11850 M 103 0 R -52 0 R 0 637 R -51 0 R 103 0 R D
15871 11957 M 103 0 R -51 0 R -52 0 R 103 0 R D 16117 11794 M 102 0 R
-51 0 R -51 0 R 102 0 R D 16362 11137 M 103 0 R -52 0 R 0 1627 R -51 0 R
103 0 R D 16607 10780 M 103 0 R -51 0 R 0 2185 R -52 0 R 103 0 R D
16904 10000 M 0 2311 R -51 0 R 103 0 R D 17149 10000 M 0 1147 R -51 0 R
103 0 R D L1 1.000 0.000 0.000 setrgbcolor 12500 14101 M 233 -65 R 246 -36 R
245 -36 R 245 -50 R 246 -32 R 245 -25 R 245 21 R 246 -6 R 245 3 R 245 -58 R
246 -135 R 245 -168 R 245 -417 R 246 -837 R 245 -330 R 245 -209 R 246 -576 R
245 -623 R 130 -522 R D L0 12500 14068 M 39 0 R -39 0 R D 12500 14141 M
39 0 R D 12682 14019 M 103 0 R -52 0 R 0 34 R -51 0 R 103 0 R D
12927 13956 M 103 0 R -51 0 R 0 88 R -52 0 R 103 0 R D 13172 13915 M 103 0 R
-51 0 R 0 98 R -52 0 R 103 0 R D 13418 13864 M 103 0 R -52 0 R 0 101 R
-51 0 R 103 0 R D 13663 13820 M 103 0 R -51 0 R 0 124 R -52 0 R 103 0 R D
13909 13784 M 102 0 R -51 0 R 0 147 R -51 0 R 102 0 R D 14154 13811 M
103 0 R -52 0 R 0 134 R -51 0 R 103 0 R D 14399 13823 M 103 0 R -51 0 R
0 97 R -52 0 R 103 0 R D 14645 13841 M 102 0 R -51 0 R 0 68 R -51 0 R
102 0 R D 14890 13760 M 103 0 R -52 0 R 0 113 R -51 0 R 103 0 R D
15135 13577 M 103 0 R -51 0 R 0 210 R -52 0 R 103 0 R D 15381 13434 M
102 0 R -51 0 R 0 159 R -51 0 R 102 0 R D 15626 12508 M 103 0 R -52 0 R
0 1177 R -51 0 R 103 0 R D 15871 11658 M 103 0 R -51 0 R 0 1203 R -52 0 R
103 0 R D 16117 11522 M 102 0 R -51 0 R 0 816 R -51 0 R 102 0 R D
16362 11180 M 103 0 R -52 0 R 0 1082 R -51 0 R 103 0 R D 16607 11145 M
103 0 R -51 0 R -52 0 R 103 0 R D 16853 10522 M 103 0 R -52 0 R -51 0 R
103 0 R D 0.000 0.000 0.000 setrgbcolor 2220 5704 M 5140 0 R D 3434 5704 M
0 129 R D gsave 3434 5176 translate 0 0 M -58.8433 0 N
( ) show grestore 4661 5704 M 0 129 R D gsave 4661 5176 translate 0 0 M
-58.8433 0 N
( ) show grestore 5888 5704 M 0 129 R D gsave 5888 5176 translate 0 0 M
-58.8433 0 N
( ) show grestore 7115 5704 M 0 129 R D gsave 7115 5176 translate 0 0 M
-58.8433 0 N
( ) show grestore 2330 5704 M 0 64 R D 2453 5704 M 0 64 R D 2576 5704 M
0 64 R D 2698 5704 M 0 64 R D 2821 5704 M 0 64 R D 2944 5704 M 0 64 R D
3066 5704 M 0 64 R D 3189 5704 M 0 64 R D 3312 5704 M 0 64 R D 3557 5704 M
0 64 R D 3680 5704 M 0 64 R D 3803 5704 M 0 64 R D 3925 5704 M 0 64 R D
4048 5704 M 0 64 R D 4171 5704 M 0 64 R D 4293 5704 M 0 64 R D 4416 5704 M
0 64 R D 4539 5704 M 0 64 R D 4784 5704 M 0 64 R D 4907 5704 M 0 64 R D
5029 5704 M 0 64 R D 5152 5704 M 0 64 R D 5275 5704 M 0 64 R D 5397 5704 M
0 64 R D 5520 5704 M 0 64 R D 5643 5704 M 0 64 R D 5765 5704 M 0 64 R D
6011 5704 M 0 64 R D 6133 5704 M 0 64 R D 6256 5704 M 0 64 R D 6379 5704 M
0 64 R D 6501 5704 M 0 64 R D 6624 5704 M 0 64 R D 6747 5704 M 0 64 R D
6869 5704 M 0 64 R D 6992 5704 M 0 64 R D 7237 5704 M 0 64 R D 7360 5704 M
0 64 R D 2220 10000 M 5140 0 R D 3434 10000 M 0 -129 R D 4661 10000 M
0 -129 R D 5888 10000 M 0 -129 R D 7115 10000 M 0 -129 R D 2330 10000 M
0 -64 R D 2453 10000 M 0 -64 R D 2576 10000 M 0 -64 R D 2698 10000 M 0 -64 R
D 2821 10000 M 0 -64 R D 2944 10000 M 0 -64 R D 3066 10000 M 0 -64 R D
3189 10000 M 0 -64 R D 3312 10000 M 0 -64 R D 3557 10000 M 0 -64 R D
3680 10000 M 0 -64 R D 3803 10000 M 0 -64 R D 3925 10000 M 0 -64 R D
4048 10000 M 0 -64 R D 4171 10000 M 0 -64 R D 4293 10000 M 0 -64 R D
4416 10000 M 0 -64 R D 4539 10000 M 0 -64 R D 4784 10000 M 0 -64 R D
4907 10000 M 0 -64 R D 5029 10000 M 0 -64 R D 5152 10000 M 0 -64 R D
5275 10000 M 0 -64 R D 5397 10000 M 0 -64 R D 5520 10000 M 0 -64 R D
5643 10000 M 0 -64 R D 5765 10000 M 0 -64 R D 6011 10000 M 0 -64 R D
6133 10000 M 0 -64 R D 6256 10000 M 0 -64 R D 6379 10000 M 0 -64 R D
6501 10000 M 0 -64 R D 6624 10000 M 0 -64 R D 6747 10000 M 0 -64 R D
6869 10000 M 0 -64 R D 6992 10000 M 0 -64 R D 7237 10000 M 0 -64 R D
7360 10000 M 0 -64 R D 2220 5704 M 0 4296 R D 2220 6562 M 154 0 R D
gsave 2109 6421 translate 0 0 M -704.08 0 N
(10) show X 192.937 M
%%IncludeResource: font Helvetica
262.467 /Helvetica STDFONT
(-6) show grestore
%%IncludeResource: font Helvetica
423.333 /Helvetica STDFONT 2220 7422 M 154 0 R D
gsave 2109 7281 translate 0 0 M -704.08 0 N
(10) show X 192.937 M
%%IncludeResource: font Helvetica
262.467 /Helvetica STDFONT
(-4) show grestore
%%IncludeResource: font Helvetica
423.333 /Helvetica STDFONT 2220 8282 M 154 0 R D
gsave 2109 8141 translate 0 0 M -704.08 0 N
(10) show X 192.937 M
%%IncludeResource: font Helvetica
262.467 /Helvetica STDFONT
(-2) show grestore
%%IncludeResource: font Helvetica
423.333 /Helvetica STDFONT 2220 9142 M 154 0 R D
gsave 2109 9001 translate 0 0 M -616.678 0 N
(10) show X 192.937 M
%%IncludeResource: font Helvetica
262.467 /Helvetica STDFONT
(0) show grestore
%%IncludeResource: font Helvetica
423.333 /Helvetica STDFONT 2220 6132 M 77 0 R D 2220 6992 M 77 0 R D
2220 7852 M 77 0 R D 2220 8712 M 77 0 R D 2220 9572 M 77 0 R D 7360 5704 M
0 4296 R D 7360 6562 M -154 0 R D 7360 7422 M -154 0 R D 7360 8282 M
-154 0 R D 7360 9142 M -154 0 R D 7360 6132 M -77 0 R D 7360 6992 M -77 0 R
D 7360 7852 M -77 0 R D 7360 8712 M -77 0 R D 7360 9572 M -77 0 R D
2220 9160 M 233 -37 R 245 -46 R 246 -48 R 245 -52 R 245 -36 R 246 -53 R
245 -39 R 246 -15 R 245 -42 R 245 -24 R 246 -57 R 245 -78 R 245 -707 R
246 -310 R 245 -419 R 245 -239 R 246 -539 R 245 -623 R 23 -93 R D
2220 9112 M 39 0 R -39 0 R D 2220 9213 M 39 0 R D 2402 9068 M 102 0 R
-51 0 R 0 109 R -51 0 R 102 0 R D 2647 9031 M 103 0 R -52 0 R 0 91 R -51 0 R
103 0 R D 2892 8985 M 103 0 R -51 0 R 0 88 R -52 0 R 103 0 R D 3138 8909 M
103 0 R -52 0 R 0 137 R -51 0 R 103 0 R D 3383 8855 M 103 0 R -52 0 R
0 171 R -51 0 R 103 0 R D 3628 8812 M 103 0 R -51 0 R 0 152 R -52 0 R
103 0 R D 3874 8815 M 103 0 R -52 0 R 0 67 R -51 0 R 103 0 R D 4119 8795 M
103 0 R -51 0 R 0 79 R -52 0 R 103 0 R D 4364 8721 M 103 0 R -51 0 R 0 142 R
-52 0 R 103 0 R D 4610 8671 M 103 0 R -52 0 R 0 193 R -51 0 R 103 0 R D
4855 8631 M 103 0 R -51 0 R 0 160 R -52 0 R 103 0 R D 5101 8556 M 102 0 R
-51 0 R 0 155 R -51 0 R 102 0 R D 5346 7361 M 103 0 R -52 0 R 0 1130 R
-51 0 R 103 0 R D 5591 7038 M 103 0 R -51 0 R 0 1155 R -52 0 R 103 0 R D
5837 6809 M 102 0 R -51 0 R 0 777 R -51 0 R 102 0 R D 6082 6528 M 103 0 R
-52 0 R 0 860 R -51 0 R 103 0 R D 6327 6419 M 103 0 R -51 0 R -52 0 R
103 0 R D 6573 5796 M 102 0 R -51 0 R -51 0 R 102 0 R D L1
1.000 0.000 0.000 setrgbcolor 2220 9269 M 233 -36 R 245 -43 R 246 -51 R
245 -40 R 245 -37 R 246 -45 R 245 -14 R 246 -6 R 245 -30 R 245 -17 R
246 -52 R 245 -140 R 245 -214 R 246 -781 R 245 36 R 245 -507 R 246 -686 R
245 -810 R 23 -93 R D L0 2220 9238 M 39 0 R -39 0 R D 2220 9303 M 39 0 R D
2402 9198 M 102 0 R -51 0 R 0 69 R -51 0 R 102 0 R D 2647 9156 M 103 0 R
-52 0 R 0 69 R -51 0 R 103 0 R D 2892 9105 M 103 0 R -51 0 R 0 68 R -52 0 R
103 0 R D 3138 9057 M 103 0 R -52 0 R 0 83 R -51 0 R 103 0 R D 3383 9027 M
103 0 R -52 0 R 0 71 R -51 0 R 103 0 R D 3628 8983 M 103 0 R -51 0 R 0 67 R
-52 0 R 103 0 R D 3874 8955 M 103 0 R -52 0 R 0 96 R -51 0 R 103 0 R D
4119 8954 M 103 0 R -51 0 R 0 86 R -52 0 R 103 0 R D 4364 8925 M 103 0 R
-51 0 R 0 83 R -52 0 R 103 0 R D 4610 8888 M 103 0 R -52 0 R 0 124 R -51 0 R
103 0 R D 4855 8831 M 103 0 R -51 0 R 0 134 R -52 0 R 103 0 R D 5101 8675 M
102 0 R -51 0 R 0 166 R -51 0 R 102 0 R D 5346 8436 M 103 0 R -52 0 R
0 215 R -51 0 R 103 0 R D 5591 7130 M 103 0 R -51 0 R 0 1266 R -52 0 R
103 0 R D 5837 7104 M 102 0 R -51 0 R 0 1389 R -51 0 R 102 0 R D 6082 6573 M
103 0 R -52 0 R 0 1438 R -51 0 R 103 0 R D 6327 6044 M 103 0 R -51 0 R
0 1124 R -52 0 R 103 0 R D 6573 5796 M 102 0 R -51 0 R -51 0 R 102 0 R D
0.000 0.000 0.000 setrgbcolor 7360 5704 M 5140 0 R D 8575 5704 M 0 129 R D
gsave 8575 5176 translate 0 0 M -58.8433 0 N
( ) show grestore 9801 5704 M 0 129 R D gsave 9801 5176 translate 0 0 M
-58.8433 0 N
( ) show grestore 11028 5704 M 0 129 R D gsave 11028 5176 translate 0 0 M
-58.8433 0 N
( ) show grestore 12255 5704 M 0 129 R D gsave 12255 5176 translate 0 0 M
-58.8433 0 N
( ) show grestore 7470 5704 M 0 64 R D 7593 5704 M 0 64 R D 7716 5704 M
0 64 R D 7838 5704 M 0 64 R D 7961 5704 M 0 64 R D 8084 5704 M 0 64 R D
8207 5704 M 0 64 R D 8329 5704 M 0 64 R D 8452 5704 M 0 64 R D 8697 5704 M
0 64 R D 8820 5704 M 0 64 R D 8943 5704 M 0 64 R D 9065 5704 M 0 64 R D
9188 5704 M 0 64 R D 9311 5704 M 0 64 R D 9433 5704 M 0 64 R D 9556 5704 M
0 64 R D 9679 5704 M 0 64 R D 9924 5704 M 0 64 R D 10047 5704 M 0 64 R D
10169 5704 M 0 64 R D 10292 5704 M 0 64 R D 10415 5704 M 0 64 R D
10537 5704 M 0 64 R D 10660 5704 M 0 64 R D 10783 5704 M 0 64 R D
10905 5704 M 0 64 R D 11151 5704 M 0 64 R D 11273 5704 M 0 64 R D
11396 5704 M 0 64 R D 11519 5704 M 0 64 R D 11641 5704 M 0 64 R D
11764 5704 M 0 64 R D 11887 5704 M 0 64 R D 12009 5704 M 0 64 R D
12132 5704 M 0 64 R D 12377 5704 M 0 64 R D 12500 5704 M 0 64 R D
7360 10000 M 5140 0 R D 8575 10000 M 0 -129 R D 9801 10000 M 0 -129 R D
11028 10000 M 0 -129 R D 12255 10000 M 0 -129 R D 7470 10000 M 0 -64 R D
7593 10000 M 0 -64 R D 7716 10000 M 0 -64 R D 7838 10000 M 0 -64 R D
7961 10000 M 0 -64 R D 8084 10000 M 0 -64 R D 8207 10000 M 0 -64 R D
8329 10000 M 0 -64 R D 8452 10000 M 0 -64 R D 8697 10000 M 0 -64 R D
8820 10000 M 0 -64 R D 8943 10000 M 0 -64 R D 9065 10000 M 0 -64 R D
9188 10000 M 0 -64 R D 9311 10000 M 0 -64 R D 9433 10000 M 0 -64 R D
9556 10000 M 0 -64 R D 9679 10000 M 0 -64 R D 9924 10000 M 0 -64 R D
10047 10000 M 0 -64 R D 10169 10000 M 0 -64 R D 10292 10000 M 0 -64 R D
10415 10000 M 0 -64 R D 10537 10000 M 0 -64 R D 10660 10000 M 0 -64 R D
10783 10000 M 0 -64 R D 10905 10000 M 0 -64 R D 11151 10000 M 0 -64 R D
11273 10000 M 0 -64 R D 11396 10000 M 0 -64 R D 11519 10000 M 0 -64 R D
11641 10000 M 0 -64 R D 11764 10000 M 0 -64 R D 11887 10000 M 0 -64 R D
12009 10000 M 0 -64 R D 12132 10000 M 0 -64 R D 12377 10000 M 0 -64 R D
12500 10000 M 0 -64 R D 7360 5704 M 0 4296 R D 7360 6562 M 154 0 R D
gsave 7249 6421 translate 0 0 M -117.687 0 N
( ) show grestore 7360 7422 M 154 0 R D gsave 7249 7281 translate 0 0 M
-117.687 0 N
( ) show grestore 7360 8282 M 154 0 R D gsave 7249 8141 translate 0 0 M
-117.687 0 N
( ) show grestore 7360 9142 M 154 0 R D gsave 7249 9001 translate 0 0 M
-117.687 0 N
( ) show grestore 7360 6132 M 77 0 R D 7360 6992 M 77 0 R D 7360 7852 M
77 0 R D 7360 8712 M 77 0 R D 7360 9572 M 77 0 R D 12500 5704 M 0 4296 R D
12500 6562 M -154 0 R D 12500 7422 M -154 0 R D 12500 8282 M -154 0 R D
12500 9142 M -154 0 R D 12500 6132 M -77 0 R D 12500 6992 M -77 0 R D
12500 7852 M -77 0 R D 12500 8712 M -77 0 R D 12500 9572 M -77 0 R D
7360 9361 M 233 -52 R 245 -36 R 246 -57 R 245 -41 R 246 -54 R 245 -37 R
245 -40 R 246 -39 R 245 -17 R 245 -11 R 246 -72 R 245 -147 R 245 -879 R
246 63 R 245 -412 R 245 -357 R 246 -754 R 245 -623 R 23 -93 R D 7360 9336 M
39 0 R -39 0 R D 7360 9393 M 39 0 R D 7542 9272 M 103 0 R -52 0 R 0 73 R
-51 0 R 103 0 R D 7787 9232 M 103 0 R -52 0 R 0 82 R -51 0 R 103 0 R D
8032 9166 M 103 0 R -51 0 R 0 100 R -52 0 R 103 0 R D 8278 9146 M 103 0 R
-52 0 R 0 58 R -51 0 R 103 0 R D 8523 9079 M 103 0 R -51 0 R 0 84 R -52 0 R
103 0 R D 8768 9031 M 103 0 R -51 0 R 0 106 R -52 0 R 103 0 R D 9014 9013 M
103 0 R -52 0 R 0 62 R -51 0 R 103 0 R D 9259 8974 M 103 0 R -51 0 R 0 63 R
-52 0 R 103 0 R D 9505 8947 M 102 0 R -51 0 R 0 82 R -51 0 R 102 0 R D
9750 8926 M 103 0 R -52 0 R 0 103 R -51 0 R 103 0 R D 9995 8846 M 103 0 R
-51 0 R 0 119 R -52 0 R 103 0 R D 10241 8704 M 102 0 R -51 0 R 0 108 R
-51 0 R 102 0 R D 10486 7228 M 103 0 R -52 0 R 0 1302 R -51 0 R 103 0 R D
10731 7264 M 103 0 R -51 0 R 0 1355 R -52 0 R 103 0 R D 10977 6836 M 102 0 R
-51 0 R 0 1389 R -51 0 R 102 0 R D 11222 6463 M 103 0 R -52 0 R 0 1420 R
-51 0 R 103 0 R D 11467 6419 M 103 0 R -51 0 R -52 0 R 103 0 R D
11713 5796 M 102 0 R -51 0 R -51 0 R 102 0 R D L1
1.000 0.000 0.000 setrgbcolor 7360 9356 M 233 -39 R 245 -42 R 246 -48 R
245 -26 R 246 -44 R 245 -52 R 245 15 R 246 -15 R 245 7 R 245 -35 R 246 -78 R
245 -163 R 245 -229 R 246 -949 R 245 371 R 245 -838 R 246 -316 R 245 -778 R
109 -394 R D L0 7360 9240 M 39 0 R -39 0 R D 7360 9477 M 39 0 R D
7542 9207 M 103 0 R -52 0 R 0 220 R -51 0 R 103 0 R D 7787 9175 M 103 0 R
-52 0 R 0 200 R -51 0 R 103 0 R D 8032 9110 M 103 0 R -51 0 R 0 235 R
-52 0 R 103 0 R D 8278 9099 M 103 0 R -52 0 R 0 204 R -51 0 R 103 0 R D
8523 9054 M 103 0 R -51 0 R 0 207 R -52 0 R 103 0 R D 8768 8985 M 103 0 R
-51 0 R 0 241 R -52 0 R 103 0 R D 9014 9003 M 103 0 R -52 0 R 0 235 R
-51 0 R 103 0 R D 9259 8989 M 103 0 R -51 0 R 0 231 R -52 0 R 103 0 R D
9505 8994 M 102 0 R -51 0 R 0 235 R -51 0 R 102 0 R D 9750 8975 M 103 0 R
-52 0 R 0 204 R -51 0 R 103 0 R D 9995 8917 M 103 0 R -51 0 R 0 164 R
-52 0 R 103 0 R D 10241 8708 M 102 0 R -51 0 R 0 257 R -51 0 R 102 0 R D
10486 8479 M 103 0 R -52 0 R 0 257 R -51 0 R 103 0 R D 10731 7007 M 103 0 R
-51 0 R 0 1302 R -52 0 R 103 0 R D 10977 7303 M 102 0 R -51 0 R 0 1453 R
-51 0 R 102 0 R D 11222 6445 M 103 0 R -52 0 R 0 1492 R -51 0 R 103 0 R D
11467 5970 M 103 0 R -51 0 R 0 1811 R -52 0 R 103 0 R D 11764 5703 M
0 1297 R -51 0 R 102 0 R D 12009 5703 M 0 723 R -51 0 R 103 0 R D
40 setlinewidth 0.000 0.000 0.000 setrgbcolor 7617 6520 M 62 0 R 61 0 R
62 0 R 62 0 R 61 0 R 62 0 R 62 0 R 62 0 R 61 0 R D L1
1.000 0.000 0.000 setrgbcolor 7617 6091 M 62 0 R 61 0 R 62 0 R 62 0 R 61 0 R
62 0 R 62 0 R 62 0 R 61 0 R D 0.000 0.000 0.000 setrgbcolor
gsave 8234 6460 translate 0 0 M
(Central) show grestore 1.000 0.000 0.000 setrgbcolor
gsave 8234 6030 translate 0 0 M
(Satellite) show grestore 0.000 0.000 0.000 setrgbcolor
gsave 7617 6993 translate 0 0 M
([R) show X -101.051 M
%%IncludeResource: font Helvetica
262.467 /Helvetica STDFONT
(200) show X 0 M
%%IncludeResource: font Helvetica
423.333 /Helvetica STDFONT
(,3R) show X -101.051 M
%%IncludeResource: font Helvetica
262.467 /Helvetica STDFONT
(200) show X 0 M
%%IncludeResource: font Helvetica
423.333 /Helvetica STDFONT
(]) show grestore 30 setlinewidth L0 12500 5704 M 5140 0 R D 13715 5704 M
0 129 R D gsave 13715 5176 translate 0 0 M -58.8433 0 N
( ) show grestore 14941 5704 M 0 129 R D gsave 14941 5176 translate 0 0 M
-58.8433 0 N
( ) show grestore 16168 5704 M 0 129 R D gsave 16168 5176 translate 0 0 M
-58.8433 0 N
( ) show grestore 17395 5704 M 0 129 R D gsave 17395 5176 translate 0 0 M
-58.8433 0 N
( ) show grestore 12611 5704 M 0 64 R D 12733 5704 M 0 64 R D 12856 5704 M
0 64 R D 12979 5704 M 0 64 R D 13101 5704 M 0 64 R D 13224 5704 M 0 64 R D
13347 5704 M 0 64 R D 13469 5704 M 0 64 R D 13592 5704 M 0 64 R D
13837 5704 M 0 64 R D 13960 5704 M 0 64 R D 14083 5704 M 0 64 R D
14205 5704 M 0 64 R D 14328 5704 M 0 64 R D 14451 5704 M 0 64 R D
14573 5704 M 0 64 R D 14696 5704 M 0 64 R D 14819 5704 M 0 64 R D
15064 5704 M 0 64 R D 15187 5704 M 0 64 R D 15309 5704 M 0 64 R D
15432 5704 M 0 64 R D 15555 5704 M 0 64 R D 15677 5704 M 0 64 R D
15800 5704 M 0 64 R D 15923 5704 M 0 64 R D 16045 5704 M 0 64 R D
16291 5704 M 0 64 R D 16413 5704 M 0 64 R D 16536 5704 M 0 64 R D
16659 5704 M 0 64 R D 16781 5704 M 0 64 R D 16904 5704 M 0 64 R D
17027 5704 M 0 64 R D 17149 5704 M 0 64 R D 17272 5704 M 0 64 R D
17518 5704 M 0 64 R D 17640 5704 M 0 64 R D 12500 10000 M 5140 0 R D
13715 10000 M 0 -129 R D 14941 10000 M 0 -129 R D 16168 10000 M 0 -129 R D
17395 10000 M 0 -129 R D 12611 10000 M 0 -64 R D 12733 10000 M 0 -64 R D
12856 10000 M 0 -64 R D 12979 10000 M 0 -64 R D 13101 10000 M 0 -64 R D
13224 10000 M 0 -64 R D 13347 10000 M 0 -64 R D 13469 10000 M 0 -64 R D
13592 10000 M 0 -64 R D 13837 10000 M 0 -64 R D 13960 10000 M 0 -64 R D
14083 10000 M 0 -64 R D 14205 10000 M 0 -64 R D 14328 10000 M 0 -64 R D
14451 10000 M 0 -64 R D 14573 10000 M 0 -64 R D 14696 10000 M 0 -64 R D
14819 10000 M 0 -64 R D 15064 10000 M 0 -64 R D 15187 10000 M 0 -64 R D
15309 10000 M 0 -64 R D 15432 10000 M 0 -64 R D 15555 10000 M 0 -64 R D
15677 10000 M 0 -64 R D 15800 10000 M 0 -64 R D 15923 10000 M 0 -64 R D
16045 10000 M 0 -64 R D 16291 10000 M 0 -64 R D 16413 10000 M 0 -64 R D
16536 10000 M 0 -64 R D 16659 10000 M 0 -64 R D 16781 10000 M 0 -64 R D
16904 10000 M 0 -64 R D 17027 10000 M 0 -64 R D 17149 10000 M 0 -64 R D
17272 10000 M 0 -64 R D 17518 10000 M 0 -64 R D 17640 10000 M 0 -64 R D
12500 5704 M 0 4296 R D 12500 6562 M 154 0 R D
gsave 12389 6421 translate 0 0 M -117.687 0 N
( ) show grestore 12500 7422 M 154 0 R D gsave 12389 7281 translate 0 0 M
-117.687 0 N
( ) show grestore 12500 8282 M 154 0 R D gsave 12389 8141 translate 0 0 M
-117.687 0 N
( ) show grestore 12500 9142 M 154 0 R D gsave 12389 9001 translate 0 0 M
-117.687 0 N
( ) show grestore 12500 6132 M 77 0 R D 12500 6992 M 77 0 R D 12500 7852 M
77 0 R D 12500 8712 M 77 0 R D 12500 9572 M 77 0 R D 17640 5704 M 0 4296 R D
17640 6562 M -154 0 R D 17640 7422 M -154 0 R D 17640 8282 M -154 0 R D
17640 9142 M -154 0 R D 17640 6132 M -77 0 R D 17640 6992 M -77 0 R D
17640 7852 M -77 0 R D 17640 8712 M -77 0 R D 17640 9572 M -77 0 R D
12500 9570 M 233 -65 R 246 -50 R 245 -55 R 245 -66 R 246 -2 R 245 -60 R
245 -209 R 246 181 R 245 -37 R 245 42 R 246 -193 R 245 -545 R 245 -1012 R
246 56 R 245 -487 R 245 -253 R 246 -396 R 245 -623 R 23 -93 R D 12500 9536 M
39 0 R -39 0 R D 12500 9612 M 39 0 R D 12682 9464 M 103 0 R -52 0 R 0 82 R
-51 0 R 103 0 R D 12927 9399 M 103 0 R -51 0 R 0 112 R -52 0 R 103 0 R D
13172 9365 M 103 0 R -51 0 R 0 71 R -52 0 R 103 0 R D 13418 9297 M 103 0 R
-52 0 R 0 74 R -51 0 R 103 0 R D 13663 9284 M 103 0 R -51 0 R 0 97 R -52 0 R
103 0 R D 13909 9197 M 102 0 R -51 0 R 0 149 R -51 0 R 102 0 R D
14154 8492 M 103 0 R -52 0 R 0 1142 R -51 0 R 103 0 R D 14399 9150 M 103 0 R
-51 0 R 0 188 R -52 0 R 103 0 R D 14645 9158 M 102 0 R -51 0 R 0 98 R
-51 0 R 102 0 R D 14890 9192 M 103 0 R -52 0 R 0 113 R -51 0 R 103 0 R D
15135 8956 M 103 0 R -51 0 R 0 201 R -52 0 R 103 0 R D 15381 7877 M 102 0 R
-51 0 R 0 1268 R -51 0 R 102 0 R D 15626 7011 M 103 0 R -52 0 R 0 976 R
-51 0 R 103 0 R D 15871 6907 M 103 0 R -51 0 R 0 1296 R -52 0 R 103 0 R D
16117 7068 M 102 0 R -51 0 R -51 0 R 102 0 R D 16362 6815 M 103 0 R -52 0 R
-51 0 R 103 0 R D 16607 6419 M 103 0 R -51 0 R -52 0 R 103 0 R D
16853 5796 M 103 0 R -52 0 R -51 0 R 103 0 R D L1
1.000 0.000 0.000 setrgbcolor 12500 9474 M 233 -35 R 246 -58 R 245 -33 R
245 -29 R 246 -81 R 245 33 R 245 -23 R 246 21 R 245 -1 R 245 -71 R
246 -124 R 245 -283 R 245 -788 R 246 -626 R 245 288 R 245 -657 R 246 -588 R
245 -623 R 23 -93 R D L0 12500 9367 M 39 0 R -39 0 R D 12500 9584 M 39 0 R D
12682 9333 M 103 0 R -52 0 R 0 212 R -51 0 R 103 0 R D 12927 9252 M 103 0 R
-51 0 R 0 258 R -52 0 R 103 0 R D 13172 9230 M 103 0 R -51 0 R 0 236 R
-52 0 R 103 0 R D 13418 9201 M 103 0 R -52 0 R 0 235 R -51 0 R 103 0 R D
13663 9079 M 103 0 R -51 0 R 0 318 R -52 0 R 103 0 R D 13909 9140 M 102 0 R
-51 0 R 0 263 R -51 0 R 102 0 R D 14154 9153 M 103 0 R -52 0 R 0 190 R
-51 0 R 103 0 R D 14399 9159 M 103 0 R -51 0 R 0 220 R -52 0 R 103 0 R D
14645 9128 M 102 0 R -51 0 R 0 280 R -51 0 R 102 0 R D 14890 9079 M 103 0 R
-52 0 R 0 235 R -51 0 R 103 0 R D 15135 8912 M 103 0 R -51 0 R 0 321 R
-52 0 R 103 0 R D 15381 8263 M 102 0 R -51 0 R 0 1053 R -51 0 R 102 0 R D
15626 7210 M 103 0 R -52 0 R 0 1583 R -51 0 R 103 0 R D 15871 6939 M 103 0 R
-51 0 R 0 875 R -52 0 R 103 0 R D 16117 6768 M 102 0 R -51 0 R 0 1792 R
-51 0 R 102 0 R D 16362 6431 M 103 0 R -52 0 R 0 1152 R -51 0 R 103 0 R D
16607 6419 M 103 0 R -51 0 R -52 0 R 103 0 R D 16853 5796 M 103 0 R -52 0 R
-51 0 R 103 0 R D 0.000 0.000 0.000 setrgbcolor 2220 1408 M 5140 0 R D
3434 1408 M 0 129 R D gsave 3434 880 translate 0 0 M -58.8433 0 N
( ) show grestore 4661 1408 M 0 129 R D gsave 4661 880 translate 0 0 M
-58.8433 0 N
( ) show grestore 5888 1408 M 0 129 R D gsave 5888 880 translate 0 0 M
-58.8433 0 N
( ) show grestore 7115 1408 M 0 129 R D gsave 7115 880 translate 0 0 M
-58.8433 0 N
( ) show grestore 2330 1408 M 0 64 R D 2453 1408 M 0 64 R D 2576 1408 M
0 64 R D 2698 1408 M 0 64 R D 2821 1408 M 0 64 R D 2944 1408 M 0 64 R D
3066 1408 M 0 64 R D 3189 1408 M 0 64 R D 3312 1408 M 0 64 R D 3557 1408 M
0 64 R D 3680 1408 M 0 64 R D 3803 1408 M 0 64 R D 3925 1408 M 0 64 R D
4048 1408 M 0 64 R D 4171 1408 M 0 64 R D 4293 1408 M 0 64 R D 4416 1408 M
0 64 R D 4539 1408 M 0 64 R D 4784 1408 M 0 64 R D 4907 1408 M 0 64 R D
5029 1408 M 0 64 R D 5152 1408 M 0 64 R D 5275 1408 M 0 64 R D 5397 1408 M
0 64 R D 5520 1408 M 0 64 R D 5643 1408 M 0 64 R D 5765 1408 M 0 64 R D
6011 1408 M 0 64 R D 6133 1408 M 0 64 R D 6256 1408 M 0 64 R D 6379 1408 M
0 64 R D 6501 1408 M 0 64 R D 6624 1408 M 0 64 R D 6747 1408 M 0 64 R D
6869 1408 M 0 64 R D 6992 1408 M 0 64 R D 7237 1408 M 0 64 R D 7360 1408 M
0 64 R D 2220 5704 M 5140 0 R D 3434 5704 M 0 -129 R D 4661 5704 M 0 -129 R
D 5888 5704 M 0 -129 R D 7115 5704 M 0 -129 R D 2330 5704 M 0 -64 R D
2453 5704 M 0 -64 R D 2576 5704 M 0 -64 R D 2698 5704 M 0 -64 R D
2821 5704 M 0 -64 R D 2944 5704 M 0 -64 R D 3066 5704 M 0 -64 R D
3189 5704 M 0 -64 R D 3312 5704 M 0 -64 R D 3557 5704 M 0 -64 R D
3680 5704 M 0 -64 R D 3803 5704 M 0 -64 R D 3925 5704 M 0 -64 R D
4048 5704 M 0 -64 R D 4171 5704 M 0 -64 R D 4293 5704 M 0 -64 R D
4416 5704 M 0 -64 R D 4539 5704 M 0 -64 R D 4784 5704 M 0 -64 R D
4907 5704 M 0 -64 R D 5029 5704 M 0 -64 R D 5152 5704 M 0 -64 R D
5275 5704 M 0 -64 R D 5397 5704 M 0 -64 R D 5520 5704 M 0 -64 R D
5643 5704 M 0 -64 R D 5765 5704 M 0 -64 R D 6011 5704 M 0 -64 R D
6133 5704 M 0 -64 R D 6256 5704 M 0 -64 R D 6379 5704 M 0 -64 R D
6501 5704 M 0 -64 R D 6624 5704 M 0 -64 R D 6747 5704 M 0 -64 R D
6869 5704 M 0 -64 R D 6992 5704 M 0 -64 R D 7237 5704 M 0 -64 R D
7360 5704 M 0 -64 R D 2220 1408 M 0 4296 R D 2220 1884 M 154 0 R D
gsave 2109 1743 translate 0 0 M -704.08 0 N
(10) show X 192.937 M
%%IncludeResource: font Helvetica
262.467 /Helvetica STDFONT
(-8) show grestore
%%IncludeResource: font Helvetica
423.333 /Helvetica STDFONT 2220 2839 M 154 0 R D
gsave 2109 2699 translate 0 0 M -704.08 0 N
(10) show X 192.937 M
%%IncludeResource: font Helvetica
262.467 /Helvetica STDFONT
(-6) show grestore
%%IncludeResource: font Helvetica
423.333 /Helvetica STDFONT 2220 3795 M 154 0 R D
gsave 2109 3654 translate 0 0 M -704.08 0 N
(10) show X 192.937 M
%%IncludeResource: font Helvetica
262.467 /Helvetica STDFONT
(-4) show grestore
%%IncludeResource: font Helvetica
423.333 /Helvetica STDFONT 2220 4750 M 154 0 R D
gsave 2109 4610 translate 0 0 M -704.08 0 N
(10) show X 192.937 M
%%IncludeResource: font Helvetica
262.467 /Helvetica STDFONT
(-2) show grestore
%%IncludeResource: font Helvetica
423.333 /Helvetica STDFONT 2220 2362 M 77 0 R D 2220 3317 M 77 0 R D
2220 4273 M 77 0 R D 2220 5228 M 77 0 R D 7360 1408 M 0 4296 R D 7360 1884 M
-154 0 R D 7360 2839 M -154 0 R D 7360 3795 M -154 0 R D 7360 4750 M
-154 0 R D 7360 2362 M -77 0 R D 7360 3317 M -77 0 R D 7360 4273 M -77 0 R D
7360 5228 M -77 0 R D 2220 4787 M 233 -33 R 245 -43 R 246 -47 R 245 -65 R
245 -51 R 246 -41 R 245 -45 R 246 1 R 245 -37 R 245 8 R 246 -37 R 245 -48 R
245 -173 R 246 -333 R 245 -147 R 245 -1144 R 246 -44 R 245 -1066 R 10 -34 R
D 2220 4748 M 39 0 R -39 0 R D 2220 4830 M 39 0 R D 2402 4701 M 102 0 R
-51 0 R 0 106 R -51 0 R 102 0 R D 2647 4672 M 103 0 R -52 0 R 0 77 R -51 0 R
103 0 R D 2892 4616 M 103 0 R -51 0 R 0 96 R -52 0 R 103 0 R D 3138 4570 M
103 0 R -52 0 R 0 58 R -51 0 R 103 0 R D 3383 4491 M 103 0 R -52 0 R 0 114 R
-51 0 R 103 0 R D 3628 4473 M 103 0 R -51 0 R 0 68 R -52 0 R 103 0 R D
3874 4384 M 103 0 R -52 0 R 0 156 R -51 0 R 103 0 R D 4119 4417 M 103 0 R
-51 0 R 0 91 R -52 0 R 103 0 R D 4364 4401 M 103 0 R -51 0 R 0 50 R -52 0 R
103 0 R D 4610 4363 M 103 0 R -52 0 R 0 142 R -51 0 R 103 0 R D 4855 4340 M
103 0 R -51 0 R 0 114 R -52 0 R 103 0 R D 5101 4282 M 102 0 R -51 0 R
0 134 R -51 0 R 102 0 R D 5346 4066 M 103 0 R -52 0 R 0 220 R -51 0 R
103 0 R D 5591 3350 M 103 0 R -51 0 R 0 986 R -52 0 R 103 0 R D 5837 3163 M
102 0 R -51 0 R 0 1066 R -51 0 R 102 0 R D 6082 1677 M 103 0 R -52 0 R
0 1751 R -51 0 R 103 0 R D 6379 1408 M 0 2298 R -52 0 R 103 0 R D
6624 1408 M 0 1289 R -51 0 R 102 0 R D 6869 1408 M 0 1000 R -51 0 R 103 0 R
D L1 1.000 0.000 0.000 setrgbcolor 2220 4895 M 233 -58 R 245 -46 R 246 -48 R
245 -60 R 245 -45 R 246 -42 R 245 -11 R 246 -23 R 245 -53 R 245 -1 R
246 -83 R 245 -142 R 245 -270 R 246 -727 R 245 -334 R 245 -601 R 246 -614 R
245 56 R 59 -385 R D L0 2220 4831 M 39 0 R -39 0 R D 2220 4967 M 39 0 R D
2402 4763 M 102 0 R -51 0 R 0 148 R -51 0 R 102 0 R D 2647 4716 M 103 0 R
-52 0 R 0 150 R -51 0 R 103 0 R D 2892 4656 M 103 0 R -51 0 R 0 174 R
-52 0 R 103 0 R D 3138 4594 M 103 0 R -52 0 R 0 177 R -51 0 R 103 0 R D
3383 4558 M 103 0 R -52 0 R 0 160 R -51 0 R 103 0 R D 3628 4515 M 103 0 R
-51 0 R 0 161 R -52 0 R 103 0 R D 3874 4479 M 103 0 R -52 0 R 0 211 R
-51 0 R 103 0 R D 4119 4487 M 103 0 R -51 0 R 0 150 R -52 0 R 103 0 R D
4364 4379 M 103 0 R -51 0 R 0 259 R -52 0 R 103 0 R D 4610 4419 M 103 0 R
-52 0 R 0 178 R -51 0 R 103 0 R D 4855 4329 M 103 0 R -51 0 R 0 193 R
-52 0 R 103 0 R D 5101 4190 M 102 0 R -51 0 R 0 185 R -51 0 R 102 0 R D
5346 3849 M 103 0 R -52 0 R 0 329 R -51 0 R 103 0 R D 5591 2579 M 103 0 R
-51 0 R 0 1414 R -52 0 R 103 0 R D 5837 2177 M 102 0 R -51 0 R 0 1551 R
-51 0 R 102 0 R D 6082 1588 M 103 0 R -52 0 R 0 1526 R -51 0 R 103 0 R D
6379 1408 M 0 1043 R -52 0 R 103 0 R D 6624 1408 M 0 1859 R -51 0 R 102 0 R
D 6869 1408 M 0 146 R -51 0 R 103 0 R D 0.000 0.000 0.000 setrgbcolor
7360 1408 M 5140 0 R D 8575 1408 M 0 129 R D gsave 8575 880 translate 0 0 M
-58.8433 0 N
( ) show grestore 9801 1408 M 0 129 R D gsave 9801 880 translate 0 0 M
-58.8433 0 N
( ) show grestore 11028 1408 M 0 129 R D gsave 11028 880 translate 0 0 M
-58.8433 0 N
( ) show grestore 12255 1408 M 0 129 R D gsave 12255 880 translate 0 0 M
-58.8433 0 N
( ) show grestore 7470 1408 M 0 64 R D 7593 1408 M 0 64 R D 7716 1408 M
0 64 R D 7838 1408 M 0 64 R D 7961 1408 M 0 64 R D 8084 1408 M 0 64 R D
8207 1408 M 0 64 R D 8329 1408 M 0 64 R D 8452 1408 M 0 64 R D 8697 1408 M
0 64 R D 8820 1408 M 0 64 R D 8943 1408 M 0 64 R D 9065 1408 M 0 64 R D
9188 1408 M 0 64 R D 9311 1408 M 0 64 R D 9433 1408 M 0 64 R D 9556 1408 M
0 64 R D 9679 1408 M 0 64 R D 9924 1408 M 0 64 R D 10047 1408 M 0 64 R D
10169 1408 M 0 64 R D 10292 1408 M 0 64 R D 10415 1408 M 0 64 R D
10537 1408 M 0 64 R D 10660 1408 M 0 64 R D 10783 1408 M 0 64 R D
10905 1408 M 0 64 R D 11151 1408 M 0 64 R D 11273 1408 M 0 64 R D
11396 1408 M 0 64 R D 11519 1408 M 0 64 R D 11641 1408 M 0 64 R D
11764 1408 M 0 64 R D 11887 1408 M 0 64 R D 12009 1408 M 0 64 R D
12132 1408 M 0 64 R D 12377 1408 M 0 64 R D 12500 1408 M 0 64 R D
7360 5704 M 5140 0 R D 8575 5704 M 0 -129 R D 9801 5704 M 0 -129 R D
11028 5704 M 0 -129 R D 12255 5704 M 0 -129 R D 7470 5704 M 0 -64 R D
7593 5704 M 0 -64 R D 7716 5704 M 0 -64 R D 7838 5704 M 0 -64 R D
7961 5704 M 0 -64 R D 8084 5704 M 0 -64 R D 8207 5704 M 0 -64 R D
8329 5704 M 0 -64 R D 8452 5704 M 0 -64 R D 8697 5704 M 0 -64 R D
8820 5704 M 0 -64 R D 8943 5704 M 0 -64 R D 9065 5704 M 0 -64 R D
9188 5704 M 0 -64 R D 9311 5704 M 0 -64 R D 9433 5704 M 0 -64 R D
9556 5704 M 0 -64 R D 9679 5704 M 0 -64 R D 9924 5704 M 0 -64 R D
10047 5704 M 0 -64 R D 10169 5704 M 0 -64 R D 10292 5704 M 0 -64 R D
10415 5704 M 0 -64 R D 10537 5704 M 0 -64 R D 10660 5704 M 0 -64 R D
10783 5704 M 0 -64 R D 10905 5704 M 0 -64 R D 11151 5704 M 0 -64 R D
11273 5704 M 0 -64 R D 11396 5704 M 0 -64 R D 11519 5704 M 0 -64 R D
11641 5704 M 0 -64 R D 11764 5704 M 0 -64 R D 11887 5704 M 0 -64 R D
12009 5704 M 0 -64 R D 12132 5704 M 0 -64 R D 12377 5704 M 0 -64 R D
12500 5704 M 0 -64 R D 7360 1408 M 0 4296 R D 7360 1884 M 154 0 R D
gsave 7249 1743 translate 0 0 M -117.687 0 N
( ) show grestore 7360 2839 M 154 0 R D gsave 7249 2699 translate 0 0 M
-117.687 0 N
( ) show grestore 7360 3795 M 154 0 R D gsave 7249 3654 translate 0 0 M
-117.687 0 N
( ) show grestore 7360 4750 M 154 0 R D gsave 7249 4610 translate 0 0 M
-117.687 0 N
( ) show grestore 7360 2362 M 77 0 R D 7360 3317 M 77 0 R D 7360 4273 M
77 0 R D 7360 5228 M 77 0 R D 12500 1408 M 0 4296 R D 12500 1884 M -154 0 R
D 12500 2839 M -154 0 R D 12500 3795 M -154 0 R D 12500 4750 M -154 0 R D
12500 2362 M -77 0 R D 12500 3317 M -77 0 R D 12500 4273 M -77 0 R D
12500 5228 M -77 0 R D 7360 4945 M 233 -49 R 245 -49 R 246 -53 R 245 -69 R
246 -42 R 245 -40 R 245 -26 R 246 -31 R 245 -41 R 245 24 R 246 -43 R
245 -110 R 245 -402 R 246 -204 R 245 -68 R 245 -986 R 246 -287 R 195 -1061 R
D 7360 4900 M 39 0 R -39 0 R D 7360 4997 M 39 0 R D 7542 4851 M 103 0 R
-52 0 R 0 91 R -51 0 R 103 0 R D 7787 4811 M 103 0 R -52 0 R 0 72 R -51 0 R
103 0 R D 8032 4748 M 103 0 R -51 0 R 0 93 R -52 0 R 103 0 R D 8278 4685 M
103 0 R -52 0 R 0 80 R -51 0 R 103 0 R D 8523 4619 M 103 0 R -51 0 R 0 128 R
-52 0 R 103 0 R D 8768 4592 M 103 0 R -51 0 R 0 102 R -52 0 R 103 0 R D
9014 4553 M 103 0 R -52 0 R 0 128 R -51 0 R 103 0 R D 9259 4544 M 103 0 R
-51 0 R 0 84 R -52 0 R 103 0 R D 9505 4498 M 102 0 R -51 0 R 0 94 R -51 0 R
102 0 R D 9750 4513 M 103 0 R -52 0 R 0 113 R -51 0 R 103 0 R D 9995 4473 M
103 0 R -51 0 R 0 105 R -52 0 R 103 0 R D 10241 4351 M 102 0 R -51 0 R
0 130 R -51 0 R 102 0 R D 10486 3528 M 103 0 R -52 0 R 0 972 R -51 0 R
103 0 R D 10731 3326 M 103 0 R -51 0 R 0 969 R -52 0 R 103 0 R D
10977 3188 M 102 0 R -51 0 R 0 1108 R -51 0 R 102 0 R D 11222 1821 M 103 0 R
-52 0 R 0 1870 R -51 0 R 103 0 R D 11519 1408 M 0 2213 R -52 0 R 103 0 R D
11764 1408 M 0 707 R -51 0 R 102 0 R D L1 1.000 0.000 0.000 setrgbcolor
7360 4895 M 233 -45 R 245 -49 R 246 -53 R 245 -53 R 246 -51 R 245 -29 R
245 -12 R 246 -22 R 245 -28 R 245 -15 R 246 -107 R 245 -186 R 245 -508 R
246 -560 R 245 125 R 245 -937 R 246 -866 R 245 -39 R 10 -52 R D L0
7360 4836 M 39 0 R -39 0 R D 7360 4961 M 39 0 R D 7542 4782 M 103 0 R
-52 0 R 0 136 R -51 0 R 103 0 R D 7787 4726 M 103 0 R -52 0 R 0 150 R
-51 0 R 103 0 R D 8032 4668 M 103 0 R -51 0 R 0 161 R -52 0 R 103 0 R D
8278 4611 M 103 0 R -52 0 R 0 168 R -51 0 R 103 0 R D 8523 4572 M 103 0 R
-51 0 R 0 145 R -52 0 R 103 0 R D 8768 4562 M 103 0 R -51 0 R 0 105 R
-52 0 R 103 0 R D 9014 4528 M 103 0 R -52 0 R 0 149 R -51 0 R 103 0 R D
9259 4506 M 103 0 R -51 0 R 0 150 R -52 0 R 103 0 R D 9505 4443 M 102 0 R
-51 0 R 0 220 R -51 0 R 102 0 R D 9750 4473 M 103 0 R -52 0 R 0 131 R
-51 0 R 103 0 R D 9995 4312 M 103 0 R -51 0 R 0 237 R -52 0 R 103 0 R D
10241 4132 M 102 0 R -51 0 R 0 226 R -51 0 R 102 0 R D 10486 3159 M 103 0 R
-52 0 R 0 1156 R -51 0 R 103 0 R D 10731 2426 M 103 0 R -51 0 R 0 1502 R
-52 0 R 103 0 R D 10977 2547 M 102 0 R -51 0 R 0 1509 R -51 0 R 102 0 R D
11222 1578 M 103 0 R -52 0 R 0 1573 R -51 0 R 103 0 R D 11467 1499 M 103 0 R
-51 0 R -52 0 R 103 0 R D 11764 1408 M 0 1342 R -51 0 R 102 0 R D
12009 1408 M 0 146 R -51 0 R 103 0 R D 40 setlinewidth
0.000 0.000 0.000 setrgbcolor 7617 2224 M 62 0 R 61 0 R 62 0 R 62 0 R 61 0 R
62 0 R 62 0 R 62 0 R 61 0 R D L1 1.000 0.000 0.000 setrgbcolor 7617 1795 M
62 0 R 61 0 R 62 0 R 62 0 R 61 0 R 62 0 R 62 0 R 62 0 R 61 0 R D
0.000 0.000 0.000 setrgbcolor gsave 8234 2164 translate 0 0 M
(Central) show grestore 1.000 0.000 0.000 setrgbcolor
gsave 8234 1734 translate 0 0 M
(Satellite) show grestore 0.000 0.000 0.000 setrgbcolor
gsave 7617 2697 translate 0 0 M
([3R) show X -101.051 M
%%IncludeResource: font Helvetica
262.467 /Helvetica STDFONT
(200) show X 0 M
%%IncludeResource: font Helvetica
423.333 /Helvetica STDFONT
(,) show
%%IncludeResource: font Symbol
423.333 /Symbol STDFONT
(\245) show
%%IncludeResource: font Helvetica
423.333 /Helvetica STDFONT
(\)) show grestore 30 setlinewidth L0 12500 1408 M 5140 0 R D 13715 1408 M
0 129 R D gsave 13715 880 translate 0 0 M -58.8433 0 N
( ) show grestore 14941 1408 M 0 129 R D gsave 14941 880 translate 0 0 M
-58.8433 0 N
( ) show grestore 16168 1408 M 0 129 R D gsave 16168 880 translate 0 0 M
-58.8433 0 N
( ) show grestore 17395 1408 M 0 129 R D gsave 17395 880 translate 0 0 M
-58.8433 0 N
( ) show grestore 12611 1408 M 0 64 R D 12733 1408 M 0 64 R D 12856 1408 M
0 64 R D 12979 1408 M 0 64 R D 13101 1408 M 0 64 R D 13224 1408 M 0 64 R D
13347 1408 M 0 64 R D 13469 1408 M 0 64 R D 13592 1408 M 0 64 R D
13837 1408 M 0 64 R D 13960 1408 M 0 64 R D 14083 1408 M 0 64 R D
14205 1408 M 0 64 R D 14328 1408 M 0 64 R D 14451 1408 M 0 64 R D
14573 1408 M 0 64 R D 14696 1408 M 0 64 R D 14819 1408 M 0 64 R D
15064 1408 M 0 64 R D 15187 1408 M 0 64 R D 15309 1408 M 0 64 R D
15432 1408 M 0 64 R D 15555 1408 M 0 64 R D 15677 1408 M 0 64 R D
15800 1408 M 0 64 R D 15923 1408 M 0 64 R D 16045 1408 M 0 64 R D
16291 1408 M 0 64 R D 16413 1408 M 0 64 R D 16536 1408 M 0 64 R D
16659 1408 M 0 64 R D 16781 1408 M 0 64 R D 16904 1408 M 0 64 R D
17027 1408 M 0 64 R D 17149 1408 M 0 64 R D 17272 1408 M 0 64 R D
17518 1408 M 0 64 R D 17640 1408 M 0 64 R D 12500 5704 M 5140 0 R D
13715 5704 M 0 -129 R D 14941 5704 M 0 -129 R D 16168 5704 M 0 -129 R D
17395 5704 M 0 -129 R D 12611 5704 M 0 -64 R D 12733 5704 M 0 -64 R D
12856 5704 M 0 -64 R D 12979 5704 M 0 -64 R D 13101 5704 M 0 -64 R D
13224 5704 M 0 -64 R D 13347 5704 M 0 -64 R D 13469 5704 M 0 -64 R D
13592 5704 M 0 -64 R D 13837 5704 M 0 -64 R D 13960 5704 M 0 -64 R D
14083 5704 M 0 -64 R D 14205 5704 M 0 -64 R D 14328 5704 M 0 -64 R D
14451 5704 M 0 -64 R D 14573 5704 M 0 -64 R D 14696 5704 M 0 -64 R D
14819 5704 M 0 -64 R D 15064 5704 M 0 -64 R D 15187 5704 M 0 -64 R D
15309 5704 M 0 -64 R D 15432 5704 M 0 -64 R D 15555 5704 M 0 -64 R D
15677 5704 M 0 -64 R D 15800 5704 M 0 -64 R D 15923 5704 M 0 -64 R D
16045 5704 M 0 -64 R D 16291 5704 M 0 -64 R D 16413 5704 M 0 -64 R D
16536 5704 M 0 -64 R D 16659 5704 M 0 -64 R D 16781 5704 M 0 -64 R D
16904 5704 M 0 -64 R D 17027 5704 M 0 -64 R D 17149 5704 M 0 -64 R D
17272 5704 M 0 -64 R D 17518 5704 M 0 -64 R D 17640 5704 M 0 -64 R D
12500 1408 M 0 4296 R D 12500 1884 M 154 0 R D
gsave 12389 1743 translate 0 0 M -117.687 0 N
( ) show grestore 12500 2839 M 154 0 R D gsave 12389 2699 translate 0 0 M
-117.687 0 N
( ) show grestore 12500 3795 M 154 0 R D gsave 12389 3654 translate 0 0 M
-117.687 0 N
( ) show grestore 12500 4750 M 154 0 R D gsave 12389 4610 translate 0 0 M
-117.687 0 N
( ) show grestore 12500 2362 M 77 0 R D 12500 3317 M 77 0 R D 12500 4273 M
77 0 R D 12500 5228 M 77 0 R D 17640 1408 M 0 4296 R D 17640 1884 M -154 0 R
D 17640 2839 M -154 0 R D 17640 3795 M -154 0 R D 17640 4750 M -154 0 R D
17640 2362 M -77 0 R D 17640 3317 M -77 0 R D 17640 4273 M -77 0 R D
17640 5228 M -77 0 R D 12500 4906 M 233 -54 R 246 -52 R 245 -47 R 245 -70 R
246 -38 R 245 -48 R 245 -31 R 246 -15 R 245 17 R 245 -7 R 246 -126 R
245 -296 R 245 -182 R 246 -118 R 245 -47 R 245 -1077 R 246 -1216 R 59 -91 R
D 12500 4873 M 39 0 R -39 0 R D 12500 4944 M 39 0 R D 12682 4807 M 103 0 R
-52 0 R 0 89 R -51 0 R 103 0 R D 12927 4754 M 103 0 R -51 0 R 0 92 R -52 0 R
103 0 R D 13172 4717 M 103 0 R -51 0 R 0 72 R -52 0 R 103 0 R D 13418 4643 M
103 0 R -52 0 R 0 80 R -51 0 R 103 0 R D 13663 4602 M 103 0 R -51 0 R 0 86 R
-52 0 R 103 0 R D 13909 4547 M 102 0 R -51 0 R 0 101 R -51 0 R 102 0 R D
14154 4529 M 103 0 R -52 0 R 0 73 R -51 0 R 103 0 R D 14399 4500 M 103 0 R
-51 0 R 0 102 R -52 0 R 103 0 R D 14645 4520 M 102 0 R -51 0 R 0 96 R
-51 0 R 102 0 R D 14890 4499 M 103 0 R -52 0 R 0 123 R -51 0 R 103 0 R D
15135 4376 M 103 0 R -51 0 R 0 117 R -52 0 R 103 0 R D 15381 4054 M 102 0 R
-51 0 R 0 170 R -51 0 R 102 0 R D 15626 3808 M 103 0 R -52 0 R 0 297 R
-51 0 R 103 0 R D 15871 3715 M 103 0 R -51 0 R 0 248 R -52 0 R 103 0 R D
16117 3695 M 102 0 R -51 0 R 0 194 R -51 0 R 102 0 R D 16362 1829 M 103 0 R
-52 0 R 0 1772 R -51 0 R 103 0 R D 16607 1499 M 103 0 R -51 0 R -52 0 R
103 0 R D 16904 1408 M 0 658 R -51 0 R 103 0 R D L1
1.000 0.000 0.000 setrgbcolor 12500 4819 M 233 -51 R 246 -48 R 245 -49 R
245 -49 R 246 -34 R 245 -50 R 245 0 R 246 2 R 245 -14 R 245 -62 R 246 -193 R
245 -341 R 245 -233 R 246 -529 R 245 -733 R 245 -466 R 246 219 R 138 -780 R
D L0 12500 4771 M 39 0 R -39 0 R D 12500 4874 M 39 0 R D 12682 4708 M
103 0 R -52 0 R 0 120 R -51 0 R 103 0 R D 12927 4661 M 103 0 R -51 0 R
0 119 R -52 0 R 103 0 R D 13172 4605 M 103 0 R -51 0 R 0 132 R -52 0 R
103 0 R D 13418 4565 M 103 0 R -52 0 R 0 113 R -51 0 R 103 0 R D
13663 4538 M 103 0 R -51 0 R 0 100 R -52 0 R 103 0 R D 13909 4475 M 102 0 R
-51 0 R 0 126 R -51 0 R 102 0 R D 14154 4492 M 103 0 R -52 0 R 0 91 R
-51 0 R 103 0 R D 14399 4475 M 103 0 R -51 0 R 0 129 R -52 0 R 103 0 R D
14645 4443 M 102 0 R -51 0 R 0 166 R -51 0 R 102 0 R D 14890 4400 M 103 0 R
-52 0 R 0 128 R -51 0 R 103 0 R D 15135 4170 M 103 0 R -51 0 R 0 202 R
-52 0 R 103 0 R D 15381 3515 M 102 0 R -51 0 R 0 829 R -51 0 R 102 0 R D
15626 3319 M 103 0 R -52 0 R 0 757 R -51 0 R 103 0 R D 15871 2572 M 103 0 R
-51 0 R 0 1192 R -52 0 R 103 0 R D 16117 2030 M 102 0 R -51 0 R 0 811 R
-51 0 R 102 0 R D 16362 1969 M 103 0 R -52 0 R -51 0 R 103 0 R D
16659 1408 M 0 1814 R -52 0 R 103 0 R D
%%PageTrailer
end
%%PageResources: font Helvetica
%%+ font Symbol
%%+ font AvantGarde-Book
%%+ font Helvetica-Bold
%%Trailer
%%Pages: 1
%%DocumentNeededResources: font Helvetica
%%+ font Symbol
%%+ font AvantGarde-Book
%%+ font Helvetica-Bold
%%EOF
