%!PS-Adobe-3.0 EPSF-3.0
%%BoundingBox: 0 0 510 311
%%Title: Graphics produced by IDL
%%For: jlgan@Hserver, /home/jlgan/work/phoenix
%%Creator: IDL Version 7.1.1 (linux x86_64 m64)
%%CreationDate: Fri Jun 27 10:56:49 2014
%%DocumentData: Clean7bit
%%Requirements: color
%%LanguageLevel: 1
%%PageOrder: Ascend
%%Pages: (atend)
%%DocumentNeededResources: (atend)
%%EndComments
%%BeginProlog
%+ prolog.ps -- Prolog for IDL generated PostScript files
%+ Copyright (c) 1988-2009 ITT Visual Information Solutions. All Rights Reserved.
%v 5
/$IDL_DICT 40 dict def $IDL_DICT begin /bdef { bind def } bind def /C
{currentpoint newpath moveto} bdef /CP {currentpoint} bdef /D {currentpoint
stroke moveto} bdef /F {closepath fill} bdef /K { setgray } bdef /M {moveto}
bdef /N {rmoveto} bdef /P {lineto} bdef /R {rlineto} bdef /S {gsave show
grestore} bdef /X {currentpoint pop} bdef /Z {gsave currentpoint lineto 20
setlinewidth 1 setlinecap stroke grestore} bdef /L0 {[] 0 setdash} bdef /L1
{[40 100] 0 setdash} bdef /L2 {[200 200] 0 setdash} bdef /L3 {[200 100 50
100] 0 setdash} bdef /L4 {[300 100 50 100 50 100 50 100] 0 setdash} bdef /L5
{[400 200] 0 setdash} bdef /STDFONT { findfont exch scalefont setfont } bdef
/ISOFONT { findfont dup length dict begin { 1 index /FID ne {def} {pop pop}
ifelse } forall /Encoding ISOLatin1Encoding def currentdict end /idltmpfont
exch definefont exch scalefont setfont } bdef /ISOBULLET { gsave /Helvetica
findfont exch scalefont setfont (\267) show currentpoint grestore moveto}
bdef /MITERLIMIT { 2.5 setmiterlimit } bdef end
%%EndProlog
%%Page: 0 1
%%PageRequirements: color
%%PageResources: (atend)
%%PageOrientation: Portrait
%%PageBoundingBox: 0 0 510 311
%%BeginPageSetup
$IDL_DICT begin 0.0283465 dup scale MITERLIMIT
%%IncludeResource: font Helvetica
423.333 /Helvetica STDFONT
%%EndPageSetup
30 setlinewidth L0 0.000 0.000 0.000 setrgbcolor 2220 6402 M 5038 0 R D
3410 6402 M 0 134 R D gsave 3410 5874 translate 0 0 M -117.687 0 N
(9) show grestore 4613 6402 M 0 134 R D gsave 4613 5874 translate 0 0 M
-235.373 0 N
(10) show grestore 5815 6402 M 0 134 R D gsave 5815 5874 translate 0 0 M
-235.373 0 N
(11) show grestore 7018 6402 M 0 134 R D gsave 7018 5874 translate 0 0 M
-235.373 0 N
(12) show grestore 2328 6402 M 0 67 R D 2449 6402 M 0 67 R D 2569 6402 M
0 67 R D 2689 6402 M 0 67 R D 2809 6402 M 0 67 R D 2929 6402 M 0 67 R D
3050 6402 M 0 67 R D 3170 6402 M 0 67 R D 3290 6402 M 0 67 R D 3531 6402 M
0 67 R D 3651 6402 M 0 67 R D 3771 6402 M 0 67 R D 3891 6402 M 0 67 R D
4012 6402 M 0 67 R D 4132 6402 M 0 67 R D 4252 6402 M 0 67 R D 4372 6402 M
0 67 R D 4493 6402 M 0 67 R D 4733 6402 M 0 67 R D 4853 6402 M 0 67 R D
4974 6402 M 0 67 R D 5094 6402 M 0 67 R D 5214 6402 M 0 67 R D 5334 6402 M
0 67 R D 5455 6402 M 0 67 R D 5575 6402 M 0 67 R D 5695 6402 M 0 67 R D
5935 6402 M 0 67 R D 6056 6402 M 0 67 R D 6176 6402 M 0 67 R D 6296 6402 M
0 67 R D 6416 6402 M 0 67 R D 6537 6402 M 0 67 R D 6657 6402 M 0 67 R D
6777 6402 M 0 67 R D 6897 6402 M 0 67 R D 7138 6402 M 0 67 R D 7258 6402 M
0 67 R D 2220 9746 M 5038 0 R D 3410 9746 M 0 -134 R D 4613 9746 M 0 -134 R
D 5815 9746 M 0 -134 R D 7018 9746 M 0 -134 R D 2328 9746 M 0 -67 R D
2449 9746 M 0 -67 R D 2569 9746 M 0 -67 R D 2689 9746 M 0 -67 R D
2809 9746 M 0 -67 R D 2929 9746 M 0 -67 R D 3050 9746 M 0 -67 R D
3170 9746 M 0 -67 R D 3290 9746 M 0 -67 R D 3531 9746 M 0 -67 R D
3651 9746 M 0 -67 R D 3771 9746 M 0 -67 R D 3891 9746 M 0 -67 R D
4012 9746 M 0 -67 R D 4132 9746 M 0 -67 R D 4252 9746 M 0 -67 R D
4372 9746 M 0 -67 R D 4493 9746 M 0 -67 R D 4733 9746 M 0 -67 R D
4853 9746 M 0 -67 R D 4974 9746 M 0 -67 R D 5094 9746 M 0 -67 R D
5214 9746 M 0 -67 R D 5334 9746 M 0 -67 R D 5455 9746 M 0 -67 R D
5575 9746 M 0 -67 R D 5695 9746 M 0 -67 R D 5935 9746 M 0 -67 R D
6056 9746 M 0 -67 R D 6176 9746 M 0 -67 R D 6296 9746 M 0 -67 R D
6416 9746 M 0 -67 R D 6537 9746 M 0 -67 R D 6657 9746 M 0 -67 R D
6777 9746 M 0 -67 R D 6897 9746 M 0 -67 R D 7138 9746 M 0 -67 R D
7258 9746 M 0 -67 R D 2220 6402 M 0 3344 R D 2220 6546 M 202 0 R D
gsave 2109 6405 translate 0 0 M -704.08 0 N
(10) show X 192.937 M
%%IncludeResource: font Helvetica
262.467 /Helvetica STDFONT
(-7) show grestore
%%IncludeResource: font Helvetica
423.333 /Helvetica STDFONT 2220 7024 M 202 0 R D
gsave 2109 6883 translate 0 0 M -704.08 0 N
(10) show X 192.937 M
%%IncludeResource: font Helvetica
262.467 /Helvetica STDFONT
(-6) show grestore
%%IncludeResource: font Helvetica
423.333 /Helvetica STDFONT 2220 7501 M 202 0 R D
gsave 2109 7360 translate 0 0 M -704.08 0 N
(10) show X 192.937 M
%%IncludeResource: font Helvetica
262.467 /Helvetica STDFONT
(-5) show grestore
%%IncludeResource: font Helvetica
423.333 /Helvetica STDFONT 2220 7979 M 202 0 R D
gsave 2109 7838 translate 0 0 M -704.08 0 N
(10) show X 192.937 M
%%IncludeResource: font Helvetica
262.467 /Helvetica STDFONT
(-4) show grestore
%%IncludeResource: font Helvetica
423.333 /Helvetica STDFONT 2220 8457 M 202 0 R D
gsave 2109 8316 translate 0 0 M -704.08 0 N
(10) show X 192.937 M
%%IncludeResource: font Helvetica
262.467 /Helvetica STDFONT
(-3) show grestore
%%IncludeResource: font Helvetica
423.333 /Helvetica STDFONT 2220 8934 M 202 0 R D
gsave 2109 8794 translate 0 0 M -704.08 0 N
(10) show X 192.937 M
%%IncludeResource: font Helvetica
262.467 /Helvetica STDFONT
(-2) show grestore
%%IncludeResource: font Helvetica
423.333 /Helvetica STDFONT 2220 9412 M 202 0 R D
gsave 2109 9271 translate 0 0 M -704.08 0 N
(10) show X 192.937 M
%%IncludeResource: font Helvetica
262.467 /Helvetica STDFONT
(-1) show grestore
%%IncludeResource: font Helvetica
423.333 /Helvetica STDFONT 7258 6402 M 0 3344 R D 7258 6546 M -201 0 R D
7258 7024 M -201 0 R D 7258 7501 M -201 0 R D 7258 7979 M -201 0 R D
7258 8457 M -201 0 R D 7258 8934 M -201 0 R D 7258 9412 M -201 0 R D L1
2449 9331 M 120 -62 R 120 8 R 120 -71 R 120 -29 R 121 -2 R 120 -27 R
120 -6 R 120 -14 R 121 20 R 120 -21 R 120 6 R 120 0 R 121 -34 R 120 -8 R
120 -16 R 120 -19 R 121 -5 R 120 -12 R 120 -5 R 120 -6 R 121 -9 R 120 -28 R
120 -40 R 120 -50 R 121 -58 R 120 -70 R 120 -88 R 120 -101 R 120 -114 R
121 -128 R 120 -139 R 120 -168 R 120 -213 R 121 -283 R D L0 2398 9175 M
101 0 R -50 0 R 0 244 R -51 0 R 101 0 R D 2518 9214 M 101 0 R -50 0 R 0 98 R
-51 0 R 101 0 R D 2639 9240 M 100 0 R -50 0 R 0 67 R -50 0 R 100 0 R D
2759 9167 M 101 0 R -51 0 R 0 71 R -50 0 R 101 0 R D 2879 9149 M 101 0 R
-51 0 R 0 53 R -50 0 R 101 0 R D 2999 9152 M 101 0 R -50 0 R 0 44 R -51 0 R
101 0 R D 3120 9130 M 100 0 R -50 0 R 0 35 R -50 0 R 100 0 R D 3240 9127 M
101 0 R -51 0 R 0 29 R -50 0 R 101 0 R D 3360 9115 M 101 0 R -51 0 R 0 25 R
-50 0 R 101 0 R D 3480 9137 M 101 0 R -50 0 R 0 21 R -51 0 R 101 0 R D
3601 9116 M 100 0 R -50 0 R 0 22 R -50 0 R 100 0 R D 3721 9124 M 101 0 R
-51 0 R 0 18 R -50 0 R 101 0 R D 3841 9124 M 101 0 R -51 0 R 0 18 R -50 0 R
101 0 R D 3961 9089 M 101 0 R -50 0 R 0 20 R -51 0 R 101 0 R D 4082 9081 M
100 0 R -50 0 R 0 19 R -50 0 R 100 0 R D 4202 9065 M 101 0 R -51 0 R 0 20 R
-50 0 R 101 0 R D 4322 9048 M 101 0 R -51 0 R 0 16 R -50 0 R 101 0 R D
4442 9041 M 101 0 R -50 0 R 0 19 R -51 0 R 101 0 R D 4562 9030 M 101 0 R
-50 0 R 0 17 R -51 0 R 101 0 R D 4683 9025 M 100 0 R -50 0 R 0 17 R -50 0 R
100 0 R D 4803 9020 M 101 0 R -51 0 R 0 16 R -50 0 R 101 0 R D 4923 9011 M
101 0 R -50 0 R 0 16 R -51 0 R 101 0 R D 5043 8983 M 101 0 R -50 0 R 0 15 R
-51 0 R 101 0 R D 5164 8944 M 100 0 R -50 0 R 0 14 R -50 0 R 100 0 R D
5284 8894 M 101 0 R -51 0 R 0 13 R -50 0 R 101 0 R D 5404 8837 M 101 0 R
-50 0 R 0 12 R -51 0 R 101 0 R D 5524 8767 M 101 0 R -50 0 R 0 11 R -51 0 R
101 0 R D 5645 8680 M 100 0 R -50 0 R 0 10 R -50 0 R 100 0 R D 5765 8579 M
101 0 R -51 0 R 0 10 R -50 0 R 101 0 R D 5885 8466 M 101 0 R -51 0 R 0 8 R
-50 0 R 101 0 R D 6005 8338 M 101 0 R -50 0 R 0 8 R -51 0 R 101 0 R D
6126 8198 M 100 0 R -50 0 R 0 9 R -50 0 R 100 0 R D 6246 8029 M 101 0 R
-51 0 R 0 12 R -50 0 R 101 0 R D 6366 7809 M 101 0 R -51 0 R 0 26 R -50 0 R
101 0 R D 6486 7521 M 101 0 R -50 0 R 0 35 R -51 0 R 101 0 R D L1
1.000 0.000 0.000 setrgbcolor 2449 9269 M 120 -130 R 120 -75 R 120 -66 R
120 -66 R 121 -24 R 120 -13 R 120 38 R 120 -58 R 121 47 R 120 -19 R 120 6 R
120 27 R 121 -31 R 120 9 R 120 5 R 120 -15 R 121 15 R 120 -4 R 120 8 R
120 7 R 121 0 R 120 -20 R 120 -32 R 120 -47 R 121 -50 R 120 -61 R 120 -79 R
120 -90 R 120 -109 R 121 -121 R 120 -135 R 120 -166 R 120 -211 R 121 -288 R
D L0 2398 9034 M 101 0 R -50 0 R 0 343 R -51 0 R 101 0 R D 2518 9049 M
101 0 R -50 0 R 0 152 R -51 0 R 101 0 R D 2639 8991 M 100 0 R -50 0 R
0 127 R -50 0 R 100 0 R D 2759 8927 M 101 0 R -51 0 R 0 124 R -50 0 R
101 0 R D 2879 8865 M 101 0 R -51 0 R 0 117 R -50 0 R 101 0 R D 2999 8844 M
101 0 R -50 0 R 0 113 R -51 0 R 101 0 R D 3120 8857 M 100 0 R -50 0 R 0 70 R
-50 0 R 100 0 R D 3240 8901 M 101 0 R -51 0 R 0 60 R -50 0 R 101 0 R D
3360 8842 M 101 0 R -51 0 R 0 62 R -50 0 R 101 0 R D 3480 8891 M 101 0 R
-50 0 R 0 58 R -51 0 R 101 0 R D 3601 8877 M 100 0 R -50 0 R 0 49 R -50 0 R
100 0 R D 3721 8889 M 101 0 R -51 0 R 0 38 R -50 0 R 101 0 R D 3841 8920 M
101 0 R -51 0 R 0 30 R -50 0 R 101 0 R D 3961 8893 M 101 0 R -50 0 R 0 24 R
-51 0 R 101 0 R D 4082 8906 M 100 0 R -50 0 R 0 15 R -50 0 R 100 0 R D
4202 8911 M 101 0 R -51 0 R 0 16 R -50 0 R 101 0 R D 4322 8898 M 101 0 R
-51 0 R 0 12 R -50 0 R 101 0 R D 4442 8909 M 101 0 R -50 0 R 0 19 R -51 0 R
101 0 R D 4562 8907 M 101 0 R -50 0 R 0 15 R -51 0 R 101 0 R D 4683 8915 M
100 0 R -50 0 R 0 15 R -50 0 R 100 0 R D 4803 8922 M 101 0 R -51 0 R 0 16 R
-50 0 R 101 0 R D 4923 8922 M 101 0 R -50 0 R 0 14 R -51 0 R 101 0 R D
5043 8903 M 101 0 R -50 0 R 0 14 R -51 0 R 101 0 R D 5164 8871 M 100 0 R
-50 0 R 0 13 R -50 0 R 100 0 R D 5284 8825 M 101 0 R -51 0 R 0 13 R -50 0 R
101 0 R D 5404 8775 M 101 0 R -50 0 R 0 12 R -51 0 R 101 0 R D 5524 8714 M
101 0 R -50 0 R 0 12 R -51 0 R 101 0 R D 5645 8635 M 100 0 R -50 0 R 0 12 R
-50 0 R 100 0 R D 5765 8544 M 101 0 R -51 0 R 0 13 R -50 0 R 101 0 R D
5885 8436 M 101 0 R -51 0 R 0 12 R -50 0 R 101 0 R D 6005 8314 M 101 0 R
-50 0 R 0 14 R -51 0 R 101 0 R D 6126 8179 M 100 0 R -50 0 R 0 14 R -50 0 R
100 0 R D 6246 8012 M 101 0 R -51 0 R 0 17 R -50 0 R 101 0 R D 6366 7794 M
101 0 R -51 0 R 0 28 R -50 0 R 101 0 R D 6486 7501 M 101 0 R -50 0 R 0 38 R
-51 0 R 101 0 R D L1 0.000 0.000 1.000 setrgbcolor 2449 9049 M 120 61 R
120 74 R 120 -74 R 120 -8 R 121 6 R 120 -33 R 120 -27 R 120 7 R 121 8 R
120 -22 R 120 6 R 120 -16 R 121 -35 R 120 -20 R 120 -33 R 120 -23 R
121 -25 R 120 -22 R 120 -21 R 120 -27 R 121 -24 R 120 -47 R 120 -55 R
120 -59 R 121 -77 R 120 -101 R 120 -121 R 120 -154 R 120 -146 R 121 -186 R
120 -181 R 120 -173 R 120 -249 R 121 -228 R D L0 2398 8726 M 101 0 R -50 0 R
0 444 R -51 0 R 101 0 R D 2518 9010 M 101 0 R -50 0 R 0 167 R -51 0 R
101 0 R D 2639 9144 M 100 0 R -50 0 R 0 74 R -50 0 R 100 0 R D 2759 9070 M
101 0 R -51 0 R 0 74 R -50 0 R 101 0 R D 2879 9070 M 101 0 R -51 0 R 0 59 R
-50 0 R 101 0 R D 2999 9087 M 101 0 R -50 0 R 0 41 R -51 0 R 101 0 R D
3120 9050 M 100 0 R -50 0 R 0 48 R -50 0 R 100 0 R D 3240 9026 M 101 0 R
-51 0 R 0 42 R -50 0 R 101 0 R D 3360 9036 M 101 0 R -51 0 R 0 36 R -50 0 R
101 0 R D 3480 9042 M 101 0 R -50 0 R 0 40 R -51 0 R 101 0 R D 3601 9021 M
100 0 R -50 0 R 0 38 R -50 0 R 100 0 R D 3721 9032 M 101 0 R -51 0 R 0 29 R
-50 0 R 101 0 R D 3841 9015 M 101 0 R -51 0 R 0 32 R -50 0 R 101 0 R D
3961 8979 M 101 0 R -50 0 R 0 33 R -51 0 R 101 0 R D 4082 8961 M 100 0 R
-50 0 R 0 28 R -50 0 R 100 0 R D 4202 8927 M 101 0 R -51 0 R 0 30 R -50 0 R
101 0 R D 4322 8906 M 101 0 R -51 0 R 0 27 R -50 0 R 101 0 R D 4442 8881 M
101 0 R -50 0 R 0 27 R -51 0 R 101 0 R D 4562 8860 M 101 0 R -50 0 R 0 24 R
-51 0 R 101 0 R D 4683 8839 M 100 0 R -50 0 R 0 25 R -50 0 R 100 0 R D
4803 8813 M 101 0 R -51 0 R 0 24 R -50 0 R 101 0 R D 4923 8789 M 101 0 R
-50 0 R 0 24 R -51 0 R 101 0 R D 5043 8743 M 101 0 R -50 0 R 0 22 R -51 0 R
101 0 R D 5164 8689 M 100 0 R -50 0 R 0 20 R -50 0 R 100 0 R D 5284 8630 M
101 0 R -51 0 R 0 19 R -50 0 R 101 0 R D 5404 8553 M 101 0 R -50 0 R 0 19 R
-51 0 R 101 0 R D 5524 8454 M 101 0 R -50 0 R 0 16 R -51 0 R 101 0 R D
5645 8336 M 100 0 R -50 0 R 0 10 R -50 0 R 100 0 R D 5765 8179 M 101 0 R
-51 0 R 0 17 R -50 0 R 101 0 R D 5885 8022 M 101 0 R -51 0 R 0 37 R -50 0 R
101 0 R D 6005 7818 M 101 0 R -50 0 R 0 68 R -51 0 R 101 0 R D 6126 7634 M
100 0 R -50 0 R 0 73 R -50 0 R 100 0 R D 6246 7455 M 101 0 R -51 0 R 0 84 R
-50 0 R 101 0 R D 6366 7167 M 101 0 R -51 0 R 0 144 R -50 0 R 101 0 R D
6486 7024 M 101 0 R -50 0 R -51 0 R 101 0 R D 0.000 0.000 0.000 setrgbcolor
7258 6402 M 5038 0 R D 8448 6402 M 0 134 R D gsave 8448 5874 translate 0 0 M
-117.687 0 N
(9) show grestore 9651 6402 M 0 134 R D gsave 9651 5874 translate 0 0 M
-235.373 0 N
(10) show grestore 10853 6402 M 0 134 R D gsave 10853 5874 translate 0 0 M
-235.373 0 N
(11) show grestore 12056 6402 M 0 134 R D gsave 12056 5874 translate 0 0 M
-235.373 0 N
(12) show grestore 7366 6402 M 0 67 R D 7487 6402 M 0 67 R D 7607 6402 M
0 67 R D 7727 6402 M 0 67 R D 7847 6402 M 0 67 R D 7967 6402 M 0 67 R D
8088 6402 M 0 67 R D 8208 6402 M 0 67 R D 8328 6402 M 0 67 R D 8569 6402 M
0 67 R D 8689 6402 M 0 67 R D 8809 6402 M 0 67 R D 8929 6402 M 0 67 R D
9050 6402 M 0 67 R D 9170 6402 M 0 67 R D 9290 6402 M 0 67 R D 9410 6402 M
0 67 R D 9531 6402 M 0 67 R D 9771 6402 M 0 67 R D 9891 6402 M 0 67 R D
10012 6402 M 0 67 R D 10132 6402 M 0 67 R D 10252 6402 M 0 67 R D
10372 6402 M 0 67 R D 10493 6402 M 0 67 R D 10613 6402 M 0 67 R D
10733 6402 M 0 67 R D 10973 6402 M 0 67 R D 11094 6402 M 0 67 R D
11214 6402 M 0 67 R D 11334 6402 M 0 67 R D 11454 6402 M 0 67 R D
11575 6402 M 0 67 R D 11695 6402 M 0 67 R D 11815 6402 M 0 67 R D
11935 6402 M 0 67 R D 12176 6402 M 0 67 R D 12296 6402 M 0 67 R D
7258 9746 M 5038 0 R D 8448 9746 M 0 -134 R D 9651 9746 M 0 -134 R D
10853 9746 M 0 -134 R D 12056 9746 M 0 -134 R D 7366 9746 M 0 -67 R D
7487 9746 M 0 -67 R D 7607 9746 M 0 -67 R D 7727 9746 M 0 -67 R D
7847 9746 M 0 -67 R D 7967 9746 M 0 -67 R D 8088 9746 M 0 -67 R D
8208 9746 M 0 -67 R D 8328 9746 M 0 -67 R D 8569 9746 M 0 -67 R D
8689 9746 M 0 -67 R D 8809 9746 M 0 -67 R D 8929 9746 M 0 -67 R D
9050 9746 M 0 -67 R D 9170 9746 M 0 -67 R D 9290 9746 M 0 -67 R D
9410 9746 M 0 -67 R D 9531 9746 M 0 -67 R D 9771 9746 M 0 -67 R D
9891 9746 M 0 -67 R D 10012 9746 M 0 -67 R D 10132 9746 M 0 -67 R D
10252 9746 M 0 -67 R D 10372 9746 M 0 -67 R D 10493 9746 M 0 -67 R D
10613 9746 M 0 -67 R D 10733 9746 M 0 -67 R D 10973 9746 M 0 -67 R D
11094 9746 M 0 -67 R D 11214 9746 M 0 -67 R D 11334 9746 M 0 -67 R D
11454 9746 M 0 -67 R D 11575 9746 M 0 -67 R D 11695 9746 M 0 -67 R D
11815 9746 M 0 -67 R D 11935 9746 M 0 -67 R D 12176 9746 M 0 -67 R D
12296 9746 M 0 -67 R D 7258 6402 M 0 3344 R D 7258 6546 M 202 0 R D
gsave 7147 6405 translate 0 0 M -117.687 0 N
( ) show grestore 7258 7024 M 202 0 R D gsave 7147 6883 translate 0 0 M
-117.687 0 N
( ) show grestore 7258 7501 M 202 0 R D gsave 7147 7360 translate 0 0 M
-117.687 0 N
( ) show grestore 7258 7979 M 202 0 R D gsave 7147 7838 translate 0 0 M
-117.687 0 N
( ) show grestore 7258 8457 M 202 0 R D gsave 7147 8316 translate 0 0 M
-117.687 0 N
( ) show grestore 7258 8934 M 202 0 R D gsave 7147 8794 translate 0 0 M
-117.687 0 N
( ) show grestore 7258 9412 M 202 0 R D gsave 7147 9271 translate 0 0 M
-117.687 0 N
( ) show grestore 12296 6402 M 0 3344 R D 12296 6546 M -201 0 R D
12296 7024 M -201 0 R D 12296 7501 M -201 0 R D 12296 7979 M -201 0 R D
12296 8457 M -201 0 R D 12296 8934 M -201 0 R D 12296 9412 M -201 0 R D L1
7487 9285 M 120 -161 R 120 87 R 120 -62 R 120 -32 R 121 -31 R 120 -7 R
120 -21 R 120 -12 R 121 12 R 120 -19 R 120 7 R 120 -8 R 121 -34 R 120 10 R
120 -19 R 120 -20 R 121 -4 R 120 -10 R 120 1 R 120 -6 R 121 -3 R 120 -26 R
120 -33 R 120 -46 R 121 -50 R 120 -64 R 120 -81 R 120 -95 R 120 -109 R
121 -124 R 120 -132 R 120 -164 R 120 -207 R 121 -283 R D L0 7436 9054 M
101 0 R -50 0 R 0 337 R -51 0 R 101 0 R D 7556 9051 M 101 0 R -50 0 R
0 127 R -51 0 R 101 0 R D 7677 9158 M 100 0 R -50 0 R 0 95 R -50 0 R 100 0 R
D 7797 9106 M 101 0 R -51 0 R 0 78 R -50 0 R 101 0 R D 7917 9079 M 101 0 R
-51 0 R 0 70 R -50 0 R 101 0 R D 8037 9052 M 101 0 R -50 0 R 0 62 R -51 0 R
101 0 R D 8158 9049 M 100 0 R -50 0 R 0 56 R -50 0 R 100 0 R D 8278 9029 M
101 0 R -51 0 R 0 54 R -50 0 R 101 0 R D 8398 9025 M 101 0 R -51 0 R 0 40 R
-50 0 R 101 0 R D 8518 9033 M 101 0 R -50 0 R 0 47 R -51 0 R 101 0 R D
8639 9017 M 100 0 R -50 0 R 0 42 R -50 0 R 100 0 R D 8759 9025 M 101 0 R
-51 0 R 0 40 R -50 0 R 101 0 R D 8879 9016 M 101 0 R -51 0 R 0 41 R -50 0 R
101 0 R D 8999 8986 M 101 0 R -50 0 R 0 35 R -51 0 R 101 0 R D 9120 8996 M
100 0 R -50 0 R 0 34 R -50 0 R 100 0 R D 9240 8977 M 101 0 R -51 0 R 0 35 R
-50 0 R 101 0 R D 9360 8959 M 101 0 R -51 0 R 0 31 R -50 0 R 101 0 R D
9480 8955 M 101 0 R -50 0 R 0 32 R -51 0 R 101 0 R D 9600 8945 M 101 0 R
-50 0 R 0 31 R -51 0 R 101 0 R D 9721 8946 M 100 0 R -50 0 R 0 31 R -50 0 R
100 0 R D 9841 8941 M 101 0 R -51 0 R 0 30 R -50 0 R 101 0 R D 9961 8938 M
101 0 R -50 0 R 0 29 R -51 0 R 101 0 R D 10081 8912 M 101 0 R -50 0 R 0 29 R
-51 0 R 101 0 R D 10202 8880 M 100 0 R -50 0 R 0 27 R -50 0 R 100 0 R D
10322 8835 M 101 0 R -51 0 R 0 26 R -50 0 R 101 0 R D 10442 8785 M 101 0 R
-50 0 R 0 25 R -51 0 R 101 0 R D 10562 8722 M 101 0 R -50 0 R 0 23 R -51 0 R
101 0 R D 10683 8643 M 100 0 R -50 0 R 0 19 R -50 0 R 100 0 R D 10803 8548 M
101 0 R -51 0 R 0 19 R -50 0 R 101 0 R D 10923 8441 M 101 0 R -51 0 R 0 16 R
-50 0 R 101 0 R D 11043 8318 M 101 0 R -50 0 R 0 14 R -51 0 R 101 0 R D
11164 8187 M 100 0 R -50 0 R 0 13 R -50 0 R 100 0 R D 11284 8020 M 101 0 R
-51 0 R 0 17 R -50 0 R 101 0 R D 11404 7809 M 101 0 R -51 0 R 0 26 R -50 0 R
101 0 R D 11524 7521 M 101 0 R -50 0 R 0 35 R -51 0 R 101 0 R D L1
1.000 0.000 0.000 setrgbcolor 7487 9204 M 120 -211 R 120 -77 R 120 -13 R
120 -98 R 121 -22 R 120 -62 R 120 69 R 120 -77 R 121 20 R 120 -3 R 120 25 R
120 12 R 121 -21 R 120 33 R 120 13 R 120 -15 R 121 30 R 120 0 R 120 19 R
120 16 R 121 7 R 120 -15 R 120 -23 R 120 -40 R 121 -40 R 120 -53 R 120 -71 R
120 -84 R 120 -103 R 121 -116 R 120 -128 R 120 -164 R 120 -203 R 121 -288 R
D L0 7436 8796 M 101 0 R -50 0 R 0 537 R -51 0 R 101 0 R D 7556 8863 M
101 0 R -50 0 R 0 210 R -51 0 R 101 0 R D 7677 8803 M 100 0 R -50 0 R
0 186 R -50 0 R 100 0 R D 7797 8836 M 101 0 R -51 0 R 0 118 R -50 0 R
101 0 R D 7917 8740 M 101 0 R -51 0 R 0 115 R -50 0 R 101 0 R D 8037 8721 M
101 0 R -50 0 R 0 110 R -51 0 R 101 0 R D 8158 8667 M 100 0 R -50 0 R 0 97 R
-50 0 R 100 0 R D 8278 8755 M 101 0 R -51 0 R 0 65 R -50 0 R 101 0 R D
8398 8670 M 101 0 R -51 0 R 0 78 R -50 0 R 101 0 R D 8518 8688 M 101 0 R
-50 0 R 0 82 R -51 0 R 101 0 R D 8639 8697 M 100 0 R -50 0 R 0 61 R -50 0 R
100 0 R D 8759 8726 M 101 0 R -51 0 R 0 54 R -50 0 R 101 0 R D 8879 8739 M
101 0 R -51 0 R 0 52 R -50 0 R 101 0 R D 8999 8724 M 101 0 R -50 0 R 0 42 R
-51 0 R 101 0 R D 9120 8759 M 100 0 R -50 0 R 0 39 R -50 0 R 100 0 R D
9240 8770 M 101 0 R -51 0 R 0 42 R -50 0 R 101 0 R D 9360 8758 M 101 0 R
-51 0 R 0 36 R -50 0 R 101 0 R D 9480 8787 M 101 0 R -50 0 R 0 38 R -51 0 R
101 0 R D 9600 8788 M 101 0 R -50 0 R 0 36 R -51 0 R 101 0 R D 9721 8809 M
100 0 R -50 0 R 0 34 R -50 0 R 100 0 R D 9841 8824 M 101 0 R -51 0 R 0 34 R
-50 0 R 101 0 R D 9961 8833 M 101 0 R -50 0 R 0 31 R -51 0 R 101 0 R D
10081 8818 M 101 0 R -50 0 R 0 32 R -51 0 R 101 0 R D 10202 8796 M 100 0 R
-50 0 R 0 29 R -50 0 R 100 0 R D 10322 8756 M 101 0 R -51 0 R 0 29 R -50 0 R
101 0 R D 10442 8717 M 101 0 R -50 0 R 0 27 R -51 0 R 101 0 R D 10562 8666 M
101 0 R -50 0 R 0 24 R -51 0 R 101 0 R D 10683 8595 M 100 0 R -50 0 R 0 23 R
-50 0 R 100 0 R D 10803 8512 M 101 0 R -51 0 R 0 22 R -50 0 R 101 0 R D
10923 8410 M 101 0 R -51 0 R 0 20 R -50 0 R 101 0 R D 11043 8294 M 101 0 R
-50 0 R 0 20 R -51 0 R 101 0 R D 11164 8167 M 100 0 R -50 0 R 0 17 R -50 0 R
100 0 R D 11284 8003 M 101 0 R -51 0 R 0 17 R -50 0 R 101 0 R D 11404 7794 M
101 0 R -51 0 R 0 28 R -50 0 R 101 0 R D 11524 7501 M 101 0 R -50 0 R 0 38 R
-51 0 R 101 0 R D L1 0.000 0.000 1.000 setrgbcolor 7487 9049 M 120 -83 R
120 188 R 120 -81 R 120 -9 R 121 -33 R 120 7 R 120 -47 R 120 9 R 121 9 R
120 -23 R 120 1 R 120 -15 R 121 -38 R 120 -1 R 120 -35 R 120 -24 R 121 -28 R
120 -19 R 120 -17 R 120 -31 R 121 -20 R 120 -43 R 120 -54 R 120 -56 R
121 -75 R 120 -96 R 120 -119 R 120 -149 R 120 -142 R 121 -182 R 120 -178 R
120 -186 R 120 -227 R 121 -228 R D L0 7436 8726 M 101 0 R -50 0 R 0 444 R
-51 0 R 101 0 R D 7556 8813 M 101 0 R -50 0 R 0 240 R -51 0 R 101 0 R D
7677 9099 M 100 0 R -50 0 R 0 98 R -50 0 R 100 0 R D 7797 9020 M 101 0 R
-51 0 R 0 95 R -50 0 R 101 0 R D 7917 9020 M 101 0 R -51 0 R 0 81 R -50 0 R
101 0 R D 8037 8992 M 101 0 R -50 0 R 0 71 R -51 0 R 101 0 R D 8158 9005 M
100 0 R -50 0 R 0 62 R -50 0 R 100 0 R D 8278 8954 M 101 0 R -51 0 R 0 68 R
-50 0 R 101 0 R D 8398 8973 M 101 0 R -51 0 R 0 51 R -50 0 R 101 0 R D
8518 8983 M 101 0 R -50 0 R 0 49 R -51 0 R 101 0 R D 8639 8961 M 100 0 R
-50 0 R 0 47 R -50 0 R 100 0 R D 8759 8964 M 101 0 R -51 0 R 0 45 R -50 0 R
101 0 R D 8879 8949 M 101 0 R -51 0 R 0 44 R -50 0 R 101 0 R D 8999 8914 M
101 0 R -50 0 R 0 38 R -51 0 R 101 0 R D 9120 8912 M 100 0 R -50 0 R 0 40 R
-50 0 R 100 0 R D 9240 8878 M 101 0 R -51 0 R 0 38 R -50 0 R 101 0 R D
9360 8856 M 101 0 R -51 0 R 0 35 R -50 0 R 101 0 R D 9480 8828 M 101 0 R
-50 0 R 0 35 R -51 0 R 101 0 R D 9600 8811 M 101 0 R -50 0 R 0 31 R -51 0 R
101 0 R D 9721 8793 M 100 0 R -50 0 R 0 33 R -50 0 R 100 0 R D 9841 8763 M
101 0 R -51 0 R 0 30 R -50 0 R 101 0 R D 9961 8742 M 101 0 R -50 0 R 0 32 R
-51 0 R 101 0 R D 10081 8700 M 101 0 R -50 0 R 0 30 R -51 0 R 101 0 R D
10202 8647 M 100 0 R -50 0 R 0 29 R -50 0 R 100 0 R D 10322 8592 M 101 0 R
-51 0 R 0 28 R -50 0 R 101 0 R D 10442 8517 M 101 0 R -50 0 R 0 27 R -51 0 R
101 0 R D 10562 8423 M 101 0 R -50 0 R 0 24 R -51 0 R 101 0 R D 10683 8308 M
100 0 R -50 0 R 0 16 R -50 0 R 100 0 R D 10803 8161 M 101 0 R -51 0 R 0 13 R
-50 0 R 101 0 R D 10923 8012 M 101 0 R -51 0 R 0 26 R -50 0 R 101 0 R D
11043 7813 M 101 0 R -50 0 R 0 57 R -51 0 R 101 0 R D 11164 7623 M 100 0 R
-50 0 R 0 77 R -50 0 R 100 0 R D 11284 7427 M 101 0 R -51 0 R 0 94 R -50 0 R
101 0 R D 11404 7167 M 101 0 R -51 0 R 0 144 R -50 0 R 101 0 R D
11524 7024 M 101 0 R -50 0 R -51 0 R 101 0 R D 0.000 0.000 0.000 setrgbcolor
12296 6402 M 5038 0 R D 13486 6402 M 0 134 R D
gsave 13486 5874 translate 0 0 M -117.687 0 N
(9) show grestore 14689 6402 M 0 134 R D gsave 14689 5874 translate 0 0 M
-235.373 0 N
(10) show grestore 15891 6402 M 0 134 R D gsave 15891 5874 translate 0 0 M
-235.373 0 N
(11) show grestore 17094 6402 M 0 134 R D gsave 17094 5874 translate 0 0 M
-235.373 0 N
(12) show grestore 12404 6402 M 0 67 R D 12525 6402 M 0 67 R D 12645 6402 M
0 67 R D 12765 6402 M 0 67 R D 12885 6402 M 0 67 R D 13005 6402 M 0 67 R D
13126 6402 M 0 67 R D 13246 6402 M 0 67 R D 13366 6402 M 0 67 R D
13607 6402 M 0 67 R D 13727 6402 M 0 67 R D 13847 6402 M 0 67 R D
13967 6402 M 0 67 R D 14088 6402 M 0 67 R D 14208 6402 M 0 67 R D
14328 6402 M 0 67 R D 14448 6402 M 0 67 R D 14569 6402 M 0 67 R D
14809 6402 M 0 67 R D 14929 6402 M 0 67 R D 15050 6402 M 0 67 R D
15170 6402 M 0 67 R D 15290 6402 M 0 67 R D 15410 6402 M 0 67 R D
15531 6402 M 0 67 R D 15651 6402 M 0 67 R D 15771 6402 M 0 67 R D
16011 6402 M 0 67 R D 16132 6402 M 0 67 R D 16252 6402 M 0 67 R D
16372 6402 M 0 67 R D 16492 6402 M 0 67 R D 16613 6402 M 0 67 R D
16733 6402 M 0 67 R D 16853 6402 M 0 67 R D 16973 6402 M 0 67 R D
17214 6402 M 0 67 R D 17334 6402 M 0 67 R D 12296 9746 M 5038 0 R D
13486 9746 M 0 -134 R D 14689 9746 M 0 -134 R D 15891 9746 M 0 -134 R D
17094 9746 M 0 -134 R D 12404 9746 M 0 -67 R D 12525 9746 M 0 -67 R D
12645 9746 M 0 -67 R D 12765 9746 M 0 -67 R D 12885 9746 M 0 -67 R D
13005 9746 M 0 -67 R D 13126 9746 M 0 -67 R D 13246 9746 M 0 -67 R D
13366 9746 M 0 -67 R D 13607 9746 M 0 -67 R D 13727 9746 M 0 -67 R D
13847 9746 M 0 -67 R D 13967 9746 M 0 -67 R D 14088 9746 M 0 -67 R D
14208 9746 M 0 -67 R D 14328 9746 M 0 -67 R D 14448 9746 M 0 -67 R D
14569 9746 M 0 -67 R D 14809 9746 M 0 -67 R D 14929 9746 M 0 -67 R D
15050 9746 M 0 -67 R D 15170 9746 M 0 -67 R D 15290 9746 M 0 -67 R D
15410 9746 M 0 -67 R D 15531 9746 M 0 -67 R D 15651 9746 M 0 -67 R D
15771 9746 M 0 -67 R D 16011 9746 M 0 -67 R D 16132 9746 M 0 -67 R D
16252 9746 M 0 -67 R D 16372 9746 M 0 -67 R D 16492 9746 M 0 -67 R D
16613 9746 M 0 -67 R D 16733 9746 M 0 -67 R D 16853 9746 M 0 -67 R D
16973 9746 M 0 -67 R D 17214 9746 M 0 -67 R D 17334 9746 M 0 -67 R D
12296 6402 M 0 3344 R D 12296 6546 M 202 0 R D
gsave 12185 6405 translate 0 0 M -117.687 0 N
( ) show grestore 12296 7024 M 202 0 R D gsave 12185 6883 translate 0 0 M
-117.687 0 N
( ) show grestore 12296 7501 M 202 0 R D gsave 12185 7360 translate 0 0 M
-117.687 0 N
( ) show grestore 12296 7979 M 202 0 R D gsave 12185 7838 translate 0 0 M
-117.687 0 N
( ) show grestore 12296 8457 M 202 0 R D gsave 12185 8316 translate 0 0 M
-117.687 0 N
( ) show grestore 12296 8934 M 202 0 R D gsave 12185 8794 translate 0 0 M
-117.687 0 N
( ) show grestore 12296 9412 M 202 0 R D gsave 12185 9271 translate 0 0 M
-117.687 0 N
( ) show grestore 17334 6402 M 0 3344 R D 17334 6546 M -201 0 R D
17334 7024 M -201 0 R D 17334 7501 M -201 0 R D 17334 7979 M -201 0 R D
17334 8457 M -201 0 R D 17334 8934 M -201 0 R D 17334 9412 M -201 0 R D L1
12525 8996 M 120 130 R 120 -121 R 120 -97 R 120 -15 R 121 65 R 120 -72 R
120 28 R 120 -20 R 121 38 R 120 -25 R 120 4 R 120 14 R 121 -34 R 120 -43 R
120 -10 R 120 -16 R 121 -8 R 120 -17 R 120 -18 R 120 -7 R 121 -22 R
120 -37 R 120 -57 R 120 -67 R 121 -85 R 120 -101 R 120 -118 R 120 -143 R
120 -159 R 121 -174 R 120 -238 R 120 -260 R D L0 12474 6402 M 101 0 R
-50 0 R 0 2746 R -51 0 R 101 0 R D 12594 9046 M 101 0 R -50 0 R 0 137 R
-51 0 R 101 0 R D 12715 8839 M 100 0 R -50 0 R 0 257 R -50 0 R 100 0 R D
12835 8719 M 101 0 R -51 0 R 0 287 R -50 0 R 101 0 R D 12955 8780 M 101 0 R
-51 0 R 0 186 R -50 0 R 101 0 R D 13075 8883 M 101 0 R -50 0 R 0 131 R
-51 0 R 101 0 R D 13196 8837 M 100 0 R -50 0 R 0 88 R -50 0 R 100 0 R D
13316 8866 M 101 0 R -51 0 R 0 87 R -50 0 R 101 0 R D 13436 8861 M 101 0 R
-51 0 R 0 62 R -50 0 R 101 0 R D 13556 8893 M 101 0 R -50 0 R 0 71 R -51 0 R
101 0 R D 13677 8879 M 100 0 R -50 0 R 0 52 R -50 0 R 100 0 R D 13797 8879 M
101 0 R -51 0 R 0 60 R -50 0 R 101 0 R D 13917 8900 M 101 0 R -51 0 R 0 48 R
-50 0 R 101 0 R D 14037 8876 M 101 0 R -50 0 R 0 29 R -51 0 R 101 0 R D
14158 8829 M 100 0 R -50 0 R 0 36 R -50 0 R 100 0 R D 14278 8820 M 101 0 R
-51 0 R 0 35 R -50 0 R 101 0 R D 14398 8805 M 101 0 R -51 0 R 0 32 R -50 0 R
101 0 R D 14518 8801 M 101 0 R -50 0 R 0 25 R -51 0 R 101 0 R D 14638 8783 M
101 0 R -50 0 R 0 27 R -51 0 R 101 0 R D 14759 8765 M 100 0 R -50 0 R 0 28 R
-50 0 R 100 0 R D 14879 8758 M 101 0 R -51 0 R 0 28 R -50 0 R 101 0 R D
14999 8734 M 101 0 R -50 0 R 0 31 R -51 0 R 101 0 R D 15119 8695 M 101 0 R
-50 0 R 0 35 R -51 0 R 101 0 R D 15240 8636 M 100 0 R -50 0 R 0 38 R -50 0 R
100 0 R D 15360 8567 M 101 0 R -51 0 R 0 43 R -50 0 R 101 0 R D 15480 8478 M
101 0 R -50 0 R 0 50 R -51 0 R 101 0 R D 15600 8374 M 101 0 R -50 0 R 0 54 R
-51 0 R 101 0 R D 15721 8250 M 100 0 R -50 0 R 0 65 R -50 0 R 100 0 R D
15841 8106 M 101 0 R -51 0 R 0 66 R -50 0 R 101 0 R D 15961 7938 M 101 0 R
-51 0 R 0 82 R -50 0 R 101 0 R D 16081 7755 M 101 0 R -50 0 R 0 96 R -51 0 R
101 0 R D 16202 7501 M 100 0 R -50 0 R 0 122 R -50 0 R 100 0 R D
16322 7252 M 101 0 R -51 0 R 0 105 R -50 0 R 101 0 R D 16442 6402 M 101 0 R
-51 0 R -50 0 R 101 0 R D 16562 6402 M 101 0 R -50 0 R -51 0 R 101 0 R D L1
1.000 0.000 0.000 setrgbcolor 12525 8996 M 120 0 R 120 -72 R 120 -134 R
120 -21 R 121 -25 R 120 33 R 120 11 R 120 -40 R 121 67 R 120 -31 R 120 -9 R
120 39 R 121 -38 R 120 -16 R 120 -3 R 120 -15 R 121 -5 R 120 -9 R 120 -11 R
120 -7 R 121 -16 R 120 -29 R 120 -56 R 120 -64 R 121 -84 R 120 -95 R
120 -114 R 120 -136 R 120 -154 R 121 -173 R 120 -233 R 120 -245 R D L0
12474 6402 M 101 0 R -50 0 R 0 2746 R -51 0 R 101 0 R D 12594 8875 M 101 0 R
-50 0 R 0 197 R -51 0 R 101 0 R D 12715 8734 M 100 0 R -50 0 R 0 288 R
-50 0 R 100 0 R D 12835 8557 M 101 0 R -51 0 R 0 340 R -50 0 R 101 0 R D
12955 8624 M 101 0 R -51 0 R 0 229 R -50 0 R 101 0 R D 13075 8602 M 101 0 R
-50 0 R 0 226 R -51 0 R 101 0 R D 13196 8720 M 100 0 R -50 0 R 0 102 R
-50 0 R 100 0 R D 13316 8734 M 101 0 R -51 0 R 0 98 R -50 0 R 101 0 R D
13436 8704 M 101 0 R -51 0 R 0 81 R -50 0 R 101 0 R D 13556 8756 M 101 0 R
-50 0 R 0 105 R -51 0 R 101 0 R D 13677 8738 M 100 0 R -50 0 R 0 84 R
-50 0 R 100 0 R D 13797 8731 M 101 0 R -51 0 R 0 80 R -50 0 R 101 0 R D
13917 8782 M 101 0 R -51 0 R 0 61 R -50 0 R 101 0 R D 14037 8750 M 101 0 R
-50 0 R 0 48 R -51 0 R 101 0 R D 14158 8739 M 100 0 R -50 0 R 0 40 R -50 0 R
100 0 R D 14278 8735 M 101 0 R -51 0 R 0 42 R -50 0 R 101 0 R D 14398 8720 M
101 0 R -51 0 R 0 42 R -50 0 R 101 0 R D 14518 8722 M 101 0 R -50 0 R 0 29 R
-51 0 R 101 0 R D 14638 8711 M 101 0 R -50 0 R 0 32 R -51 0 R 101 0 R D
14759 8701 M 100 0 R -50 0 R 0 31 R -50 0 R 100 0 R D 14879 8692 M 101 0 R
-51 0 R 0 34 R -50 0 R 101 0 R D 14999 8675 M 101 0 R -50 0 R 0 36 R -51 0 R
101 0 R D 15119 8646 M 101 0 R -50 0 R 0 37 R -51 0 R 101 0 R D 15240 8589 M
100 0 R -50 0 R 0 39 R -50 0 R 100 0 R D 15360 8522 M 101 0 R -51 0 R 0 44 R
-50 0 R 101 0 R D 15480 8433 M 101 0 R -50 0 R 0 52 R -51 0 R 101 0 R D
15600 8336 M 101 0 R -50 0 R 0 56 R -51 0 R 101 0 R D 15721 8216 M 100 0 R
-50 0 R 0 67 R -50 0 R 100 0 R D 15841 8080 M 101 0 R -51 0 R 0 67 R -50 0 R
101 0 R D 15961 7922 M 101 0 R -51 0 R 0 73 R -50 0 R 101 0 R D 16081 7743 M
101 0 R -50 0 R 0 84 R -51 0 R 101 0 R D 16202 7501 M 100 0 R -50 0 R 0 98 R
-50 0 R 100 0 R D 16322 7252 M 101 0 R -51 0 R 0 105 R -50 0 R 101 0 R D
16442 6402 M 101 0 R -51 0 R -50 0 R 101 0 R D 16562 6402 M 101 0 R -50 0 R
-51 0 R 101 0 R D L1 0.000 0.000 1.000 setrgbcolor 12645 8966 M 120 -196 R
120 -35 R 120 -8 R 121 140 R 120 -168 R 120 52 R 120 1 R 121 4 R 120 -17 R
120 20 R 120 -16 R 121 -28 R 120 -88 R 120 -23 R 120 -19 R 121 -15 R
120 -34 R 120 -37 R 120 -6 R 121 -42 R 120 -64 R 120 -63 R 120 -77 R
121 -88 R 120 -134 R 120 -139 R 120 -195 R 120 -190 R 121 -249 R 120 -228 R
D L0 12474 6402 M 101 0 R -50 0 R -51 0 R 101 0 R D 12594 8821 M 101 0 R
-50 0 R 0 229 R -51 0 R 101 0 R D 12715 8489 M 100 0 R -50 0 R 0 396 R
-50 0 R 100 0 R D 12835 8446 M 101 0 R -51 0 R 0 406 R -50 0 R 101 0 R D
12955 8582 M 101 0 R -51 0 R 0 230 R -50 0 R 101 0 R D 13075 8796 M 101 0 R
-50 0 R 0 124 R -51 0 R 101 0 R D 13196 8623 M 100 0 R -50 0 R 0 132 R
-50 0 R 100 0 R D 13316 8678 M 101 0 R -51 0 R 0 126 R -50 0 R 101 0 R D
13436 8709 M 101 0 R -51 0 R 0 78 R -50 0 R 101 0 R D 13556 8723 M 101 0 R
-50 0 R 0 62 R -51 0 R 101 0 R D 13677 8715 M 100 0 R -50 0 R 0 46 R -50 0 R
100 0 R D 13797 8727 M 101 0 R -51 0 R 0 60 R -50 0 R 101 0 R D 13917 8716 M
101 0 R -51 0 R 0 50 R -50 0 R 101 0 R D 14037 8695 M 101 0 R -50 0 R 0 38 R
-51 0 R 101 0 R D 14158 8599 M 100 0 R -50 0 R 0 53 R -50 0 R 100 0 R D
14278 8583 M 101 0 R -51 0 R 0 40 R -50 0 R 101 0 R D 14398 8568 M 101 0 R
-51 0 R 0 32 R -50 0 R 101 0 R D 14518 8554 M 101 0 R -50 0 R 0 32 R -51 0 R
101 0 R D 14638 8519 M 101 0 R -50 0 R 0 32 R -51 0 R 101 0 R D 14759 8482 M
100 0 R -50 0 R 0 34 R -50 0 R 100 0 R D 14879 8479 M 101 0 R -51 0 R 0 27 R
-50 0 R 101 0 R D 14999 8437 M 101 0 R -50 0 R 0 28 R -51 0 R 101 0 R D
15119 8369 M 101 0 R -50 0 R 0 33 R -51 0 R 101 0 R D 15240 8300 M 100 0 R
-50 0 R 0 45 R -50 0 R 100 0 R D 15360 8219 M 101 0 R -51 0 R 0 53 R -50 0 R
101 0 R D 15480 8129 M 101 0 R -50 0 R 0 56 R -51 0 R 101 0 R D 15600 7989 M
101 0 R -50 0 R 0 67 R -51 0 R 101 0 R D 15721 7843 M 100 0 R -50 0 R 0 79 R
-50 0 R 100 0 R D 15841 7634 M 101 0 R -51 0 R 0 102 R -50 0 R 101 0 R D
15961 7357 M 101 0 R -51 0 R 0 228 R -50 0 R 101 0 R D 16081 7024 M 101 0 R
-50 0 R 0 333 R -51 0 R 101 0 R D 16202 6402 M 100 0 R -50 0 R 0 765 R
-50 0 R 100 0 R D 16322 6402 M 101 0 R -51 0 R -50 0 R 101 0 R D
16442 6402 M 101 0 R -51 0 R -50 0 R 101 0 R D 16562 6402 M 101 0 R -50 0 R
-51 0 R 101 0 R D 0.000 0.000 0.000 setrgbcolor 2220 1958 M 5038 0 R D
3410 1958 M 0 134 R D gsave 3410 1430 translate 0 0 M -117.687 0 N
(9) show grestore 4613 1958 M 0 134 R D gsave 4613 1430 translate 0 0 M
-235.373 0 N
(10) show grestore 5815 1958 M 0 134 R D gsave 5815 1430 translate 0 0 M
-235.373 0 N
(11) show grestore 7018 1958 M 0 134 R D gsave 7018 1430 translate 0 0 M
-235.373 0 N
(12) show grestore 2328 1958 M 0 67 R D 2449 1958 M 0 67 R D 2569 1958 M
0 67 R D 2689 1958 M 0 67 R D 2809 1958 M 0 67 R D 2929 1958 M 0 67 R D
3050 1958 M 0 67 R D 3170 1958 M 0 67 R D 3290 1958 M 0 67 R D 3531 1958 M
0 67 R D 3651 1958 M 0 67 R D 3771 1958 M 0 67 R D 3891 1958 M 0 67 R D
4012 1958 M 0 67 R D 4132 1958 M 0 67 R D 4252 1958 M 0 67 R D 4372 1958 M
0 67 R D 4493 1958 M 0 67 R D 4733 1958 M 0 67 R D 4853 1958 M 0 67 R D
4974 1958 M 0 67 R D 5094 1958 M 0 67 R D 5214 1958 M 0 67 R D 5334 1958 M
0 67 R D 5455 1958 M 0 67 R D 5575 1958 M 0 67 R D 5695 1958 M 0 67 R D
5935 1958 M 0 67 R D 6056 1958 M 0 67 R D 6176 1958 M 0 67 R D 6296 1958 M
0 67 R D 6416 1958 M 0 67 R D 6537 1958 M 0 67 R D 6657 1958 M 0 67 R D
6777 1958 M 0 67 R D 6897 1958 M 0 67 R D 7138 1958 M 0 67 R D 7258 1958 M
0 67 R D 2220 5302 M 5038 0 R D 3410 5302 M 0 -134 R D 4613 5302 M 0 -134 R
D 5815 5302 M 0 -134 R D 7018 5302 M 0 -134 R D 2328 5302 M 0 -67 R D
2449 5302 M 0 -67 R D 2569 5302 M 0 -67 R D 2689 5302 M 0 -67 R D
2809 5302 M 0 -67 R D 2929 5302 M 0 -67 R D 3050 5302 M 0 -67 R D
3170 5302 M 0 -67 R D 3290 5302 M 0 -67 R D 3531 5302 M 0 -67 R D
3651 5302 M 0 -67 R D 3771 5302 M 0 -67 R D 3891 5302 M 0 -67 R D
4012 5302 M 0 -67 R D 4132 5302 M 0 -67 R D 4252 5302 M 0 -67 R D
4372 5302 M 0 -67 R D 4493 5302 M 0 -67 R D 4733 5302 M 0 -67 R D
4853 5302 M 0 -67 R D 4974 5302 M 0 -67 R D 5094 5302 M 0 -67 R D
5214 5302 M 0 -67 R D 5334 5302 M 0 -67 R D 5455 5302 M 0 -67 R D
5575 5302 M 0 -67 R D 5695 5302 M 0 -67 R D 5935 5302 M 0 -67 R D
6056 5302 M 0 -67 R D 6176 5302 M 0 -67 R D 6296 5302 M 0 -67 R D
6416 5302 M 0 -67 R D 6537 5302 M 0 -67 R D 6657 5302 M 0 -67 R D
6777 5302 M 0 -67 R D 6897 5302 M 0 -67 R D 7138 5302 M 0 -67 R D
7258 5302 M 0 -67 R D 2220 1958 M 0 3344 R D 2220 2102 M 202 0 R D
gsave 2109 1961 translate 0 0 M -704.08 0 N
(10) show X 192.937 M
%%IncludeResource: font Helvetica
262.467 /Helvetica STDFONT
(-7) show grestore
%%IncludeResource: font Helvetica
423.333 /Helvetica STDFONT 2220 2580 M 202 0 R D
gsave 2109 2439 translate 0 0 M -704.08 0 N
(10) show X 192.937 M
%%IncludeResource: font Helvetica
262.467 /Helvetica STDFONT
(-6) show grestore
%%IncludeResource: font Helvetica
423.333 /Helvetica STDFONT 2220 3057 M 202 0 R D
gsave 2109 2916 translate 0 0 M -704.08 0 N
(10) show X 192.937 M
%%IncludeResource: font Helvetica
262.467 /Helvetica STDFONT
(-5) show grestore
%%IncludeResource: font Helvetica
423.333 /Helvetica STDFONT 2220 3535 M 202 0 R D
gsave 2109 3394 translate 0 0 M -704.08 0 N
(10) show X 192.937 M
%%IncludeResource: font Helvetica
262.467 /Helvetica STDFONT
(-4) show grestore
%%IncludeResource: font Helvetica
423.333 /Helvetica STDFONT 2220 4013 M 202 0 R D
gsave 2109 3872 translate 0 0 M -704.08 0 N
(10) show X 192.937 M
%%IncludeResource: font Helvetica
262.467 /Helvetica STDFONT
(-3) show grestore
%%IncludeResource: font Helvetica
423.333 /Helvetica STDFONT 2220 4490 M 202 0 R D
gsave 2109 4350 translate 0 0 M -704.08 0 N
(10) show X 192.937 M
%%IncludeResource: font Helvetica
262.467 /Helvetica STDFONT
(-2) show grestore
%%IncludeResource: font Helvetica
423.333 /Helvetica STDFONT 2220 4968 M 202 0 R D
gsave 2109 4827 translate 0 0 M -704.08 0 N
(10) show X 192.937 M
%%IncludeResource: font Helvetica
262.467 /Helvetica STDFONT
(-1) show grestore
%%IncludeResource: font Helvetica
423.333 /Helvetica STDFONT 7258 1958 M 0 3344 R D 7258 2102 M -201 0 R D
7258 2580 M -201 0 R D 7258 3057 M -201 0 R D 7258 3535 M -201 0 R D
7258 4013 M -201 0 R D 7258 4490 M -201 0 R D 7258 4968 M -201 0 R D L1
2220 4873 M 108 -8 R 121 -73 R 120 32 R 120 -20 R 120 10 R 120 13 R 121 -4 R
120 -9 R 120 -23 R 120 -28 R 121 -16 R 120 -14 R 120 -23 R 120 -10 R
121 -11 R 120 6 R 120 -16 R 120 -26 R 121 -37 R 120 -36 R 120 -44 R
120 -58 R 121 -79 R 120 -101 R 120 -119 R 120 -151 R 121 -170 R 120 -198 R
120 -231 R 120 -317 R D L0 2220 4846 M 38 0 R -38 0 R D 2220 4899 M 38 0 R D
2278 4842 M 101 0 R -51 0 R 0 44 R -50 0 R 101 0 R D 2398 4770 M 101 0 R
-50 0 R 0 42 R -51 0 R 101 0 R D 2518 4804 M 101 0 R -50 0 R 0 37 R -51 0 R
101 0 R D 2639 4789 M 100 0 R -50 0 R 0 29 R -50 0 R 100 0 R D 2759 4802 M
101 0 R -51 0 R 0 24 R -50 0 R 101 0 R D 2879 4819 M 101 0 R -51 0 R 0 15 R
-50 0 R 101 0 R D 2999 4816 M 101 0 R -50 0 R 0 14 R -51 0 R 101 0 R D
3120 4808 M 100 0 R -50 0 R 0 13 R -50 0 R 100 0 R D 3240 4784 M 101 0 R
-51 0 R 0 13 R -50 0 R 101 0 R D 3360 4754 M 101 0 R -51 0 R 0 17 R -50 0 R
101 0 R D 3480 4739 M 101 0 R -50 0 R 0 16 R -51 0 R 101 0 R D 3601 4724 M
100 0 R -50 0 R 0 17 R -50 0 R 100 0 R D 3721 4703 M 101 0 R -51 0 R 0 14 R
-50 0 R 101 0 R D 3841 4692 M 101 0 R -51 0 R 0 15 R -50 0 R 101 0 R D
3961 4682 M 101 0 R -50 0 R 0 15 R -51 0 R 101 0 R D 4082 4688 M 100 0 R
-50 0 R 0 15 R -50 0 R 100 0 R D 4202 4672 M 101 0 R -51 0 R 0 15 R -50 0 R
101 0 R D 4322 4646 M 101 0 R -51 0 R 0 14 R -50 0 R 101 0 R D 4442 4609 M
101 0 R -50 0 R 0 15 R -51 0 R 101 0 R D 4562 4572 M 101 0 R -50 0 R 0 15 R
-51 0 R 101 0 R D 4683 4529 M 100 0 R -50 0 R 0 14 R -50 0 R 100 0 R D
4803 4471 M 101 0 R -51 0 R 0 14 R -50 0 R 101 0 R D 4923 4391 M 101 0 R
-50 0 R 0 15 R -51 0 R 101 0 R D 5043 4291 M 101 0 R -50 0 R 0 14 R -51 0 R
101 0 R D 5164 4172 M 100 0 R -50 0 R 0 14 R -50 0 R 100 0 R D 5284 4023 M
101 0 R -51 0 R 0 11 R -50 0 R 101 0 R D 5404 3854 M 101 0 R -50 0 R 0 9 R
-51 0 R 101 0 R D 5524 3648 M 101 0 R -50 0 R 0 24 R -51 0 R 101 0 R D
5645 3407 M 100 0 R -50 0 R 0 42 R -50 0 R 100 0 R D 5765 3077 M 101 0 R
-51 0 R 0 64 R -50 0 R 101 0 R D L1 1.000 0.000 0.000 setrgbcolor
2220 4707 M 108 -22 R 121 -68 R 120 1 R 120 -47 R 120 0 R 120 -12 R 121 20 R
120 -33 R 120 -7 R 120 -32 R 121 1 R 120 -5 R 120 -10 R 120 8 R 121 4 R
120 27 R 120 -2 R 120 -17 R 121 -34 R 120 -29 R 120 -42 R 120 -57 R
121 -73 R 120 -92 R 120 -105 R 120 -133 R 121 -156 R 120 -187 R 120 -227 R
120 -301 R D L0 2220 4670 M 38 0 R -38 0 R D 2220 4744 M 38 0 R D
2278 4655 M 101 0 R -51 0 R 0 56 R -50 0 R 101 0 R D 2398 4582 M 101 0 R
-50 0 R 0 65 R -51 0 R 101 0 R D 2518 4584 M 101 0 R -50 0 R 0 64 R -51 0 R
101 0 R D 2639 4545 M 100 0 R -50 0 R 0 49 R -50 0 R 100 0 R D 2759 4543 M
101 0 R -51 0 R 0 52 R -50 0 R 101 0 R D 2879 4533 M 101 0 R -51 0 R 0 49 R
-50 0 R 101 0 R D 2999 4563 M 101 0 R -50 0 R 0 31 R -51 0 R 101 0 R D
3120 4526 M 100 0 R -50 0 R 0 38 R -50 0 R 100 0 R D 3240 4526 M 101 0 R
-51 0 R 0 26 R -50 0 R 101 0 R D 3360 4495 M 101 0 R -51 0 R 0 24 R -50 0 R
101 0 R D 3480 4500 M 101 0 R -50 0 R 0 16 R -51 0 R 101 0 R D 3601 4497 M
100 0 R -50 0 R 0 11 R -50 0 R 100 0 R D 3721 4486 M 101 0 R -51 0 R 0 13 R
-50 0 R 101 0 R D 3841 4495 M 101 0 R -51 0 R 0 11 R -50 0 R 101 0 R D
3961 4499 M 101 0 R -50 0 R 0 12 R -51 0 R 101 0 R D 4082 4526 M 100 0 R
-50 0 R 0 11 R -50 0 R 100 0 R D 4202 4524 M 101 0 R -51 0 R 0 11 R -50 0 R
101 0 R D 4322 4506 M 101 0 R -51 0 R 0 13 R -50 0 R 101 0 R D 4442 4473 M
101 0 R -50 0 R 0 12 R -51 0 R 101 0 R D 4562 4444 M 101 0 R -50 0 R 0 13 R
-51 0 R 101 0 R D 4683 4401 M 100 0 R -50 0 R 0 13 R -50 0 R 100 0 R D
4803 4345 M 101 0 R -51 0 R 0 13 R -50 0 R 101 0 R D 4923 4271 M 101 0 R
-50 0 R 0 14 R -51 0 R 101 0 R D 5043 4178 M 101 0 R -50 0 R 0 15 R -51 0 R
101 0 R D 5164 4073 M 100 0 R -50 0 R 0 16 R -50 0 R 100 0 R D 5284 3940 M
101 0 R -51 0 R 0 17 R -50 0 R 101 0 R D 5404 3785 M 101 0 R -50 0 R 0 14 R
-51 0 R 101 0 R D 5524 3596 M 101 0 R -50 0 R 0 18 R -51 0 R 101 0 R D
5645 3365 M 100 0 R -50 0 R 0 26 R -50 0 R 100 0 R D 5765 3035 M 101 0 R
-51 0 R 0 77 R -50 0 R 101 0 R D L1 0.000 0.000 1.000 setrgbcolor
2220 4749 M 108 3 R 121 -77 R 120 52 R 120 -4 R 120 15 R 120 22 R 121 -14 R
120 2 R 120 -31 R 120 -26 R 121 -23 R 120 -19 R 120 -29 R 120 -20 R
121 -20 R 120 -10 R 120 -29 R 120 -35 R 121 -41 R 120 -45 R 120 -44 R
120 -61 R 121 -86 R 120 -111 R 120 -143 R 120 -183 R 121 -203 R 120 -229 R
120 -248 R 120 -389 R D L0 2220 4708 M 38 0 R -38 0 R D 2220 4784 M 38 0 R D
2278 4720 M 101 0 R -51 0 R 0 60 R -50 0 R 101 0 R D 2398 4652 M 101 0 R
-50 0 R 0 44 R -51 0 R 101 0 R D 2518 4708 M 101 0 R -50 0 R 0 37 R -51 0 R
101 0 R D 2639 4706 M 100 0 R -50 0 R 0 32 R -50 0 R 100 0 R D 2759 4726 M
101 0 R -51 0 R 0 23 R -50 0 R 101 0 R D 2879 4749 M 101 0 R -51 0 R 0 22 R
-50 0 R 101 0 R D 2999 4736 M 101 0 R -50 0 R 0 21 R -51 0 R 101 0 R D
3120 4736 M 100 0 R -50 0 R 0 23 R -50 0 R 100 0 R D 3240 4706 M 101 0 R
-51 0 R 0 22 R -50 0 R 101 0 R D 3360 4678 M 101 0 R -51 0 R 0 25 R -50 0 R
101 0 R D 3480 4657 M 101 0 R -50 0 R 0 22 R -51 0 R 101 0 R D 3601 4637 M
100 0 R -50 0 R 0 24 R -50 0 R 100 0 R D 3721 4609 M 101 0 R -51 0 R 0 22 R
-50 0 R 101 0 R D 3841 4589 M 101 0 R -51 0 R 0 22 R -50 0 R 101 0 R D
3961 4569 M 101 0 R -50 0 R 0 21 R -51 0 R 101 0 R D 4082 4559 M 100 0 R
-50 0 R 0 21 R -50 0 R 100 0 R D 4202 4531 M 101 0 R -51 0 R 0 20 R -50 0 R
101 0 R D 4322 4497 M 101 0 R -51 0 R 0 19 R -50 0 R 101 0 R D 4442 4455 M
101 0 R -50 0 R 0 20 R -51 0 R 101 0 R D 4562 4410 M 101 0 R -50 0 R 0 20 R
-51 0 R 101 0 R D 4683 4366 M 100 0 R -50 0 R 0 19 R -50 0 R 100 0 R D
4803 4306 M 101 0 R -51 0 R 0 18 R -50 0 R 101 0 R D 4923 4220 M 101 0 R
-50 0 R 0 18 R -51 0 R 101 0 R D 5043 4109 M 101 0 R -50 0 R 0 17 R -51 0 R
101 0 R D 5164 3967 M 100 0 R -50 0 R 0 15 R -50 0 R 100 0 R D 5284 3786 M
101 0 R -51 0 R 0 12 R -50 0 R 101 0 R D 5404 3571 M 101 0 R -50 0 R 0 35 R
-51 0 R 101 0 R D 5524 3305 M 101 0 R -50 0 R 0 98 R -51 0 R 101 0 R D
5645 3035 M 100 0 R -50 0 R 0 132 R -50 0 R 100 0 R D 5765 2580 M 101 0 R
-51 0 R 0 228 R -50 0 R 101 0 R D 0.000 0.000 0.000 setrgbcolor 7258 1958 M
5038 0 R D 8448 1958 M 0 134 R D gsave 8448 1430 translate 0 0 M
-117.687 0 N
(9) show grestore 9651 1958 M 0 134 R D gsave 9651 1430 translate 0 0 M
-235.373 0 N
(10) show grestore 10853 1958 M 0 134 R D gsave 10853 1430 translate 0 0 M
-235.373 0 N
(11) show grestore 12056 1958 M 0 134 R D gsave 12056 1430 translate 0 0 M
-235.373 0 N
(12) show grestore 7366 1958 M 0 67 R D 7487 1958 M 0 67 R D 7607 1958 M
0 67 R D 7727 1958 M 0 67 R D 7847 1958 M 0 67 R D 7967 1958 M 0 67 R D
8088 1958 M 0 67 R D 8208 1958 M 0 67 R D 8328 1958 M 0 67 R D 8569 1958 M
0 67 R D 8689 1958 M 0 67 R D 8809 1958 M 0 67 R D 8929 1958 M 0 67 R D
9050 1958 M 0 67 R D 9170 1958 M 0 67 R D 9290 1958 M 0 67 R D 9410 1958 M
0 67 R D 9531 1958 M 0 67 R D 9771 1958 M 0 67 R D 9891 1958 M 0 67 R D
10012 1958 M 0 67 R D 10132 1958 M 0 67 R D 10252 1958 M 0 67 R D
10372 1958 M 0 67 R D 10493 1958 M 0 67 R D 10613 1958 M 0 67 R D
10733 1958 M 0 67 R D 10973 1958 M 0 67 R D 11094 1958 M 0 67 R D
11214 1958 M 0 67 R D 11334 1958 M 0 67 R D 11454 1958 M 0 67 R D
11575 1958 M 0 67 R D 11695 1958 M 0 67 R D 11815 1958 M 0 67 R D
11935 1958 M 0 67 R D 12176 1958 M 0 67 R D 12296 1958 M 0 67 R D
7258 5302 M 5038 0 R D 8448 5302 M 0 -134 R D 9651 5302 M 0 -134 R D
10853 5302 M 0 -134 R D 12056 5302 M 0 -134 R D 7366 5302 M 0 -67 R D
7487 5302 M 0 -67 R D 7607 5302 M 0 -67 R D 7727 5302 M 0 -67 R D
7847 5302 M 0 -67 R D 7967 5302 M 0 -67 R D 8088 5302 M 0 -67 R D
8208 5302 M 0 -67 R D 8328 5302 M 0 -67 R D 8569 5302 M 0 -67 R D
8689 5302 M 0 -67 R D 8809 5302 M 0 -67 R D 8929 5302 M 0 -67 R D
9050 5302 M 0 -67 R D 9170 5302 M 0 -67 R D 9290 5302 M 0 -67 R D
9410 5302 M 0 -67 R D 9531 5302 M 0 -67 R D 9771 5302 M 0 -67 R D
9891 5302 M 0 -67 R D 10012 5302 M 0 -67 R D 10132 5302 M 0 -67 R D
10252 5302 M 0 -67 R D 10372 5302 M 0 -67 R D 10493 5302 M 0 -67 R D
10613 5302 M 0 -67 R D 10733 5302 M 0 -67 R D 10973 5302 M 0 -67 R D
11094 5302 M 0 -67 R D 11214 5302 M 0 -67 R D 11334 5302 M 0 -67 R D
11454 5302 M 0 -67 R D 11575 5302 M 0 -67 R D 11695 5302 M 0 -67 R D
11815 5302 M 0 -67 R D 11935 5302 M 0 -67 R D 12176 5302 M 0 -67 R D
12296 5302 M 0 -67 R D 7258 1958 M 0 3344 R D 7258 2102 M 202 0 R D
gsave 7147 1961 translate 0 0 M -117.687 0 N
( ) show grestore 7258 2580 M 202 0 R D gsave 7147 2439 translate 0 0 M
-117.687 0 N
( ) show grestore 7258 3057 M 202 0 R D gsave 7147 2916 translate 0 0 M
-117.687 0 N
( ) show grestore 7258 3535 M 202 0 R D gsave 7147 3394 translate 0 0 M
-117.687 0 N
( ) show grestore 7258 4013 M 202 0 R D gsave 7147 3872 translate 0 0 M
-117.687 0 N
( ) show grestore 7258 4490 M 202 0 R D gsave 7147 4350 translate 0 0 M
-117.687 0 N
( ) show grestore 7258 4968 M 202 0 R D gsave 7147 4827 translate 0 0 M
-117.687 0 N
( ) show grestore 12296 1958 M 0 3344 R D 12296 2102 M -201 0 R D
12296 2580 M -201 0 R D 12296 3057 M -201 0 R D 12296 3535 M -201 0 R D
12296 4013 M -201 0 R D 12296 4490 M -201 0 R D 12296 4968 M -201 0 R D L1
7258 4805 M 108 -6 R 121 -97 R 120 45 R 120 -23 R 120 12 R 120 14 R
121 -19 R 120 -10 R 120 -19 R 120 -28 R 121 -13 R 120 -13 R 120 -20 R
120 -8 R 121 -6 R 120 9 R 120 -12 R 120 -20 R 121 -30 R 120 -33 R 120 -38 R
120 -52 R 121 -74 R 120 -95 R 120 -114 R 120 -145 R 121 -164 R 120 -195 R
120 -225 R 120 -314 R D L0 7258 4761 M 38 0 R -38 0 R D 7258 4842 M 38 0 R D
7316 4759 M 101 0 R -51 0 R 0 74 R -50 0 R 101 0 R D 7436 4657 M 101 0 R
-50 0 R 0 83 R -51 0 R 101 0 R D 7556 4712 M 101 0 R -50 0 R 0 65 R -51 0 R
101 0 R D 7677 4692 M 100 0 R -50 0 R 0 60 R -50 0 R 100 0 R D 7797 4712 M
101 0 R -51 0 R 0 46 R -50 0 R 101 0 R D 7917 4728 M 101 0 R -51 0 R 0 41 R
-50 0 R 101 0 R D 8037 4709 M 101 0 R -50 0 R 0 42 R -51 0 R 101 0 R D
8158 4698 M 100 0 R -50 0 R 0 43 R -50 0 R 100 0 R D 8278 4682 M 101 0 R
-51 0 R 0 39 R -50 0 R 101 0 R D 8398 4652 M 101 0 R -51 0 R 0 41 R -50 0 R
101 0 R D 8518 4641 M 101 0 R -50 0 R 0 39 R -51 0 R 101 0 R D 8639 4630 M
100 0 R -50 0 R 0 35 R -50 0 R 100 0 R D 8759 4610 M 101 0 R -51 0 R 0 35 R
-50 0 R 101 0 R D 8879 4603 M 101 0 R -51 0 R 0 34 R -50 0 R 101 0 R D
8999 4596 M 101 0 R -50 0 R 0 35 R -51 0 R 101 0 R D 9120 4605 M 100 0 R
-50 0 R 0 34 R -50 0 R 100 0 R D 9240 4593 M 101 0 R -51 0 R 0 34 R -50 0 R
101 0 R D 9360 4575 M 101 0 R -51 0 R 0 31 R -50 0 R 101 0 R D 9480 4545 M
101 0 R -50 0 R 0 31 R -51 0 R 101 0 R D 9600 4512 M 101 0 R -50 0 R 0 31 R
-51 0 R 101 0 R D 9721 4475 M 100 0 R -50 0 R 0 29 R -50 0 R 100 0 R D
9841 4424 M 101 0 R -51 0 R 0 28 R -50 0 R 101 0 R D 9961 4351 M 101 0 R
-50 0 R 0 26 R -51 0 R 101 0 R D 10081 4256 M 101 0 R -50 0 R 0 25 R -51 0 R
101 0 R D 10202 4143 M 100 0 R -50 0 R 0 22 R -50 0 R 100 0 R D 10322 4001 M
101 0 R -51 0 R 0 18 R -50 0 R 101 0 R D 10442 3840 M 101 0 R -50 0 R 0 11 R
-51 0 R 101 0 R D 10562 3639 M 101 0 R -50 0 R 0 24 R -51 0 R 101 0 R D
10683 3407 M 100 0 R -50 0 R 0 35 R -50 0 R 100 0 R D 10803 3077 M 101 0 R
-51 0 R 0 64 R -50 0 R 101 0 R D L1 1.000 0.000 0.000 setrgbcolor
7258 4636 M 108 -29 R 121 -114 R 120 5 R 120 -57 R 120 10 R 120 -39 R
121 -24 R 120 -32 R 120 16 R 120 -32 R 121 15 R 120 3 R 120 0 R 120 21 R
121 14 R 120 36 R 120 7 R 120 -5 R 121 -23 R 120 -21 R 120 -34 R 120 -47 R
121 -65 R 120 -85 R 120 -98 R 120 -127 R 121 -150 R 120 -184 R 120 -223 R
120 -297 R D L0 7258 4574 M 38 0 R -38 0 R D 7258 4689 M 38 0 R D
7316 4561 M 101 0 R -51 0 R 0 84 R -50 0 R 101 0 R D 7436 4431 M 101 0 R
-50 0 R 0 110 R -51 0 R 101 0 R D 7556 4454 M 101 0 R -50 0 R 0 81 R -51 0 R
101 0 R D 7677 4399 M 100 0 R -50 0 R 0 76 R -50 0 R 100 0 R D 7797 4429 M
101 0 R -51 0 R 0 42 R -50 0 R 101 0 R D 7917 4388 M 101 0 R -51 0 R 0 45 R
-50 0 R 101 0 R D 8037 4358 M 101 0 R -50 0 R 0 56 R -51 0 R 101 0 R D
8158 4325 M 100 0 R -50 0 R 0 58 R -50 0 R 100 0 R D 8278 4350 M 101 0 R
-51 0 R 0 42 R -50 0 R 101 0 R D 8398 4314 M 101 0 R -51 0 R 0 48 R -50 0 R
101 0 R D 8518 4331 M 101 0 R -50 0 R 0 46 R -51 0 R 101 0 R D 8639 4340 M
100 0 R -50 0 R 0 34 R -50 0 R 100 0 R D 8759 4340 M 101 0 R -51 0 R 0 34 R
-50 0 R 101 0 R D 8879 4360 M 101 0 R -51 0 R 0 36 R -50 0 R 101 0 R D
8999 4375 M 101 0 R -50 0 R 0 35 R -51 0 R 101 0 R D 9120 4410 M 100 0 R
-50 0 R 0 36 R -50 0 R 100 0 R D 9240 4417 M 101 0 R -51 0 R 0 36 R -50 0 R
101 0 R D 9360 4415 M 101 0 R -51 0 R 0 32 R -50 0 R 101 0 R D 9480 4392 M
101 0 R -50 0 R 0 31 R -51 0 R 101 0 R D 9600 4371 M 101 0 R -50 0 R 0 31 R
-51 0 R 101 0 R D 9721 4338 M 100 0 R -50 0 R 0 29 R -50 0 R 100 0 R D
9841 4292 M 101 0 R -51 0 R 0 27 R -50 0 R 101 0 R D 9961 4227 M 101 0 R
-50 0 R 0 26 R -51 0 R 101 0 R D 10081 4143 M 101 0 R -50 0 R 0 25 R -51 0 R
101 0 R D 10202 4046 M 100 0 R -50 0 R 0 22 R -50 0 R 100 0 R D 10322 3919 M
101 0 R -51 0 R 0 23 R -50 0 R 101 0 R D 10442 3773 M 101 0 R -50 0 R 0 17 R
-51 0 R 101 0 R D 10562 3588 M 101 0 R -50 0 R 0 18 R -51 0 R 101 0 R D
10683 3360 M 100 0 R -50 0 R 0 27 R -50 0 R 100 0 R D 10803 3035 M 101 0 R
-51 0 R 0 77 R -50 0 R 101 0 R D L1 0.000 0.000 1.000 setrgbcolor
7258 4683 M 108 11 R 121 -86 R 120 65 R 120 -10 R 120 13 R 120 29 R
121 -18 R 120 -6 R 120 -26 R 120 -28 R 121 -20 R 120 -18 R 120 -27 R
120 -19 R 121 -17 R 120 -7 R 120 -25 R 120 -32 R 121 -37 R 120 -44 R
120 -41 R 120 -58 R 121 -84 R 120 -109 R 120 -139 R 120 -178 R 121 -201 R
120 -226 R 120 -233 R 120 -389 R D L0 7258 4622 M 38 0 R -38 0 R D
7258 4728 M 38 0 R D 7316 4642 M 101 0 R -51 0 R 0 94 R -50 0 R 101 0 R D
7436 4556 M 101 0 R -50 0 R 0 94 R -51 0 R 101 0 R D 7556 4633 M 101 0 R
-50 0 R 0 74 R -51 0 R 101 0 R D 7677 4625 M 100 0 R -50 0 R 0 71 R -50 0 R
100 0 R D 7797 4645 M 101 0 R -51 0 R 0 58 R -50 0 R 101 0 R D 7917 4679 M
101 0 R -51 0 R 0 48 R -50 0 R 101 0 R D 8037 4664 M 101 0 R -50 0 R 0 44 R
-51 0 R 101 0 R D 8158 4657 M 100 0 R -50 0 R 0 46 R -50 0 R 100 0 R D
8278 4632 M 101 0 R -51 0 R 0 44 R -50 0 R 101 0 R D 8398 4605 M 101 0 R
-51 0 R 0 43 R -50 0 R 101 0 R D 8518 4586 M 101 0 R -50 0 R 0 41 R -51 0 R
101 0 R D 8639 4569 M 100 0 R -50 0 R 0 39 R -50 0 R 100 0 R D 8759 4542 M
101 0 R -51 0 R 0 39 R -50 0 R 101 0 R D 8879 4524 M 101 0 R -51 0 R 0 36 R
-50 0 R 101 0 R D 8999 4506 M 101 0 R -50 0 R 0 39 R -51 0 R 101 0 R D
9120 4501 M 100 0 R -50 0 R 0 35 R -50 0 R 100 0 R D 9240 4476 M 101 0 R
-51 0 R 0 35 R -50 0 R 101 0 R D 9360 4444 M 101 0 R -51 0 R 0 34 R -50 0 R
101 0 R D 9480 4408 M 101 0 R -50 0 R 0 34 R -51 0 R 101 0 R D 9600 4364 M
101 0 R -50 0 R 0 33 R -51 0 R 101 0 R D 9721 4324 M 100 0 R -50 0 R 0 31 R
-50 0 R 100 0 R D 9841 4266 M 101 0 R -51 0 R 0 31 R -50 0 R 101 0 R D
9961 4183 M 101 0 R -50 0 R 0 30 R -51 0 R 101 0 R D 10081 4075 M 101 0 R
-50 0 R 0 28 R -51 0 R 101 0 R D 10202 3938 M 100 0 R -50 0 R 0 24 R -50 0 R
100 0 R D 10322 3764 M 101 0 R -51 0 R 0 15 R -50 0 R 101 0 R D 10442 3560 M
101 0 R -50 0 R 0 21 R -51 0 R 101 0 R D 10562 3292 M 101 0 R -50 0 R 0 95 R
-51 0 R 101 0 R D 10683 3035 M 100 0 R -50 0 R 0 132 R -50 0 R 100 0 R D
10803 2580 M 101 0 R -51 0 R 0 228 R -50 0 R 101 0 R D
0.000 0.000 0.000 setrgbcolor 12296 1958 M 5038 0 R D 13486 1958 M 0 134 R D
gsave 13486 1430 translate 0 0 M -117.687 0 N
(9) show grestore 14689 1958 M 0 134 R D gsave 14689 1430 translate 0 0 M
-235.373 0 N
(10) show grestore 15891 1958 M 0 134 R D gsave 15891 1430 translate 0 0 M
-235.373 0 N
(11) show grestore 17094 1958 M 0 134 R D gsave 17094 1430 translate 0 0 M
-235.373 0 N
(12) show grestore 12404 1958 M 0 67 R D 12525 1958 M 0 67 R D 12645 1958 M
0 67 R D 12765 1958 M 0 67 R D 12885 1958 M 0 67 R D 13005 1958 M 0 67 R D
13126 1958 M 0 67 R D 13246 1958 M 0 67 R D 13366 1958 M 0 67 R D
13607 1958 M 0 67 R D 13727 1958 M 0 67 R D 13847 1958 M 0 67 R D
13967 1958 M 0 67 R D 14088 1958 M 0 67 R D 14208 1958 M 0 67 R D
14328 1958 M 0 67 R D 14448 1958 M 0 67 R D 14569 1958 M 0 67 R D
14809 1958 M 0 67 R D 14929 1958 M 0 67 R D 15050 1958 M 0 67 R D
15170 1958 M 0 67 R D 15290 1958 M 0 67 R D 15410 1958 M 0 67 R D
15531 1958 M 0 67 R D 15651 1958 M 0 67 R D 15771 1958 M 0 67 R D
16011 1958 M 0 67 R D 16132 1958 M 0 67 R D 16252 1958 M 0 67 R D
16372 1958 M 0 67 R D 16492 1958 M 0 67 R D 16613 1958 M 0 67 R D
16733 1958 M 0 67 R D 16853 1958 M 0 67 R D 16973 1958 M 0 67 R D
17214 1958 M 0 67 R D 17334 1958 M 0 67 R D 12296 5302 M 5038 0 R D
13486 5302 M 0 -134 R D 14689 5302 M 0 -134 R D 15891 5302 M 0 -134 R D
17094 5302 M 0 -134 R D 12404 5302 M 0 -67 R D 12525 5302 M 0 -67 R D
12645 5302 M 0 -67 R D 12765 5302 M 0 -67 R D 12885 5302 M 0 -67 R D
13005 5302 M 0 -67 R D 13126 5302 M 0 -67 R D 13246 5302 M 0 -67 R D
13366 5302 M 0 -67 R D 13607 5302 M 0 -67 R D 13727 5302 M 0 -67 R D
13847 5302 M 0 -67 R D 13967 5302 M 0 -67 R D 14088 5302 M 0 -67 R D
14208 5302 M 0 -67 R D 14328 5302 M 0 -67 R D 14448 5302 M 0 -67 R D
14569 5302 M 0 -67 R D 14809 5302 M 0 -67 R D 14929 5302 M 0 -67 R D
15050 5302 M 0 -67 R D 15170 5302 M 0 -67 R D 15290 5302 M 0 -67 R D
15410 5302 M 0 -67 R D 15531 5302 M 0 -67 R D 15651 5302 M 0 -67 R D
15771 5302 M 0 -67 R D 16011 5302 M 0 -67 R D 16132 5302 M 0 -67 R D
16252 5302 M 0 -67 R D 16372 5302 M 0 -67 R D 16492 5302 M 0 -67 R D
16613 5302 M 0 -67 R D 16733 5302 M 0 -67 R D 16853 5302 M 0 -67 R D
16973 5302 M 0 -67 R D 17214 5302 M 0 -67 R D 17334 5302 M 0 -67 R D
12296 1958 M 0 3344 R D 12296 2102 M 202 0 R D
gsave 12185 1961 translate 0 0 M -117.687 0 N
( ) show grestore 12296 2580 M 202 0 R D gsave 12185 2439 translate 0 0 M
-117.687 0 N
( ) show grestore 12296 3057 M 202 0 R D gsave 12185 2916 translate 0 0 M
-117.687 0 N
( ) show grestore 12296 3535 M 202 0 R D gsave 12185 3394 translate 0 0 M
-117.687 0 N
( ) show grestore 12296 4013 M 202 0 R D gsave 12185 3872 translate 0 0 M
-117.687 0 N
( ) show grestore 12296 4490 M 202 0 R D gsave 12185 4350 translate 0 0 M
-117.687 0 N
( ) show grestore 12296 4968 M 202 0 R D gsave 12185 4827 translate 0 0 M
-117.687 0 N
( ) show grestore 17334 1958 M 0 3344 R D 17334 2102 M -201 0 R D
17334 2580 M -201 0 R D 17334 3057 M -201 0 R D 17334 3535 M -201 0 R D
17334 4013 M -201 0 R D 17334 4490 M -201 0 R D 17334 4968 M -201 0 R D L1
12296 4610 M 108 -15 R 121 -20 R 120 4 R 120 -12 R 120 7 R 120 10 R 121 26 R
120 -6 R 120 -34 R 120 -26 R 121 -21 R 120 -18 R 120 -28 R 120 -14 R
121 -20 R 120 0 R 120 -27 R 120 -42 R 121 -58 R 120 -49 R 120 -67 R
120 -85 R 121 -106 R 120 -132 R 120 -155 R 120 -207 R 121 -252 R 120 -252 R
120 -431 R D L0 12296 4471 M 38 0 R -38 0 R D 12296 4695 M 38 0 R D
12354 4475 M 101 0 R -51 0 R 0 195 R -50 0 R 101 0 R D 12474 4480 M 101 0 R
-50 0 R 0 159 R -51 0 R 101 0 R D 12594 4491 M 101 0 R -50 0 R 0 149 R
-51 0 R 101 0 R D 12715 4491 M 100 0 R -50 0 R 0 132 R -50 0 R 100 0 R D
12835 4517 M 101 0 R -51 0 R 0 101 R -50 0 R 101 0 R D 12955 4539 M 101 0 R
-51 0 R 0 82 R -50 0 R 101 0 R D 13075 4576 M 101 0 R -50 0 R 0 63 R -51 0 R
101 0 R D 13196 4570 M 100 0 R -50 0 R 0 64 R -50 0 R 100 0 R D 13316 4540 M
101 0 R -51 0 R 0 57 R -50 0 R 101 0 R D 13436 4520 M 101 0 R -51 0 R 0 47 R
-50 0 R 101 0 R D 13556 4499 M 101 0 R -50 0 R 0 45 R -51 0 R 101 0 R D
13677 4490 M 100 0 R -50 0 R 0 30 R -50 0 R 100 0 R D 13797 4455 M 101 0 R
-51 0 R 0 41 R -50 0 R 101 0 R D 13917 4445 M 101 0 R -51 0 R 0 35 R -50 0 R
101 0 R D 14037 4423 M 101 0 R -50 0 R 0 38 R -51 0 R 101 0 R D 14158 4422 M
100 0 R -50 0 R 0 39 R -50 0 R 100 0 R D 14278 4394 M 101 0 R -51 0 R 0 42 R
-50 0 R 101 0 R D 14398 4352 M 101 0 R -51 0 R 0 41 R -50 0 R 101 0 R D
14518 4293 M 101 0 R -50 0 R 0 44 R -51 0 R 101 0 R D 14638 4242 M 101 0 R
-50 0 R 0 47 R -51 0 R 101 0 R D 14759 4174 M 100 0 R -50 0 R 0 50 R -50 0 R
100 0 R D 14879 4084 M 101 0 R -51 0 R 0 58 R -50 0 R 101 0 R D 14999 3976 M
101 0 R -50 0 R 0 60 R -51 0 R 101 0 R D 15119 3842 M 101 0 R -50 0 R 0 65 R
-51 0 R 101 0 R D 15240 3690 M 100 0 R -50 0 R 0 59 R -50 0 R 100 0 R D
15360 3470 M 101 0 R -51 0 R 0 83 R -50 0 R 101 0 R D 15480 3190 M 101 0 R
-50 0 R 0 127 R -51 0 R 101 0 R D 15600 2913 M 101 0 R -50 0 R 0 164 R
-51 0 R 101 0 R D 15721 1958 M 100 0 R -50 0 R 0 765 R -50 0 R 100 0 R D
15841 1958 M 101 0 R -51 0 R -50 0 R 101 0 R D L1
1.000 0.000 0.000 setrgbcolor 12296 4451 M 108 -7 R 121 7 R 120 -4 R
120 -34 R 120 -13 R 120 18 R 121 56 R 120 -34 R 120 -24 R 120 -31 R
121 -12 R 120 -13 R 120 -20 R 120 -8 R 121 -9 R 120 14 R 120 -18 R 120 -40 R
121 -56 R 120 -50 R 120 -68 R 120 -91 R 121 -110 R 120 -136 R 120 -145 R
120 -197 R 121 -259 R 120 -254 R D L0 12296 4255 M 38 0 R -38 0 R D
12296 4551 M 38 0 R D 12354 4355 M 101 0 R -51 0 R 0 152 R -50 0 R 101 0 R D
12474 4346 M 101 0 R -50 0 R 0 175 R -51 0 R 101 0 R D 12594 4358 M 101 0 R
-50 0 R 0 152 R -51 0 R 101 0 R D 12715 4352 M 100 0 R -50 0 R 0 108 R
-50 0 R 100 0 R D 12835 4346 M 101 0 R -51 0 R 0 96 R -50 0 R 101 0 R D
12955 4371 M 101 0 R -51 0 R 0 85 R -50 0 R 101 0 R D 13075 4444 M 101 0 R
-50 0 R 0 57 R -51 0 R 101 0 R D 13196 4400 M 100 0 R -50 0 R 0 72 R -50 0 R
100 0 R D 13316 4388 M 101 0 R -51 0 R 0 53 R -50 0 R 101 0 R D 13436 4355 M
101 0 R -51 0 R 0 57 R -50 0 R 101 0 R D 13556 4346 M 101 0 R -50 0 R 0 51 R
-51 0 R 101 0 R D 13677 4342 M 100 0 R -50 0 R 0 35 R -50 0 R 100 0 R D
13797 4317 M 101 0 R -51 0 R 0 43 R -50 0 R 101 0 R D 13917 4312 M 101 0 R
-51 0 R 0 39 R -50 0 R 101 0 R D 14037 4306 M 101 0 R -50 0 R 0 34 R -51 0 R
101 0 R D 14158 4317 M 100 0 R -50 0 R 0 38 R -50 0 R 100 0 R D 14278 4299 M
101 0 R -51 0 R 0 39 R -50 0 R 101 0 R D 14398 4260 M 101 0 R -51 0 R 0 37 R
-50 0 R 101 0 R D 14518 4202 M 101 0 R -50 0 R 0 41 R -51 0 R 101 0 R D
14638 4148 M 101 0 R -50 0 R 0 47 R -51 0 R 101 0 R D 14759 4078 M 100 0 R
-50 0 R 0 50 R -50 0 R 100 0 R D 14879 3984 M 101 0 R -51 0 R 0 55 R -50 0 R
101 0 R D 14999 3873 M 101 0 R -50 0 R 0 57 R -51 0 R 101 0 R D 15119 3734 M
101 0 R -50 0 R 0 63 R -51 0 R 101 0 R D 15240 3594 M 100 0 R -50 0 R 0 55 R
-50 0 R 100 0 R D 15360 3391 M 101 0 R -51 0 R 0 64 R -50 0 R 101 0 R D
15480 3127 M 101 0 R -50 0 R 0 74 R -51 0 R 101 0 R D 15600 2867 M 101 0 R
-50 0 R 0 84 R -51 0 R 101 0 R D 15721 1958 M 100 0 R -50 0 R -50 0 R
100 0 R D 15841 1958 M 101 0 R -51 0 R -50 0 R 101 0 R D L1
0.000 0.000 1.000 setrgbcolor 12296 4480 M 108 -23 R 121 -49 R 120 14 R
120 12 R 120 22 R 120 4 R 121 -2 R 120 22 R 120 -43 R 120 -22 R 121 -30 R
120 -22 R 120 -37 R 120 -21 R 121 -34 R 120 -19 R 120 -41 R 120 -46 R
121 -61 R 120 -47 R 120 -64 R 120 -74 R 121 -102 R 120 -126 R 120 -169 R
120 -223 R 121 -222 R 120 -269 R D L0 12296 4322 M 38 0 R -38 0 R D
12296 4572 M 38 0 R D 12354 4241 M 101 0 R -51 0 R 0 320 R -50 0 R 101 0 R D
12474 4275 M 101 0 R -50 0 R 0 214 R -51 0 R 101 0 R D 12594 4300 M 101 0 R
-50 0 R 0 199 R -51 0 R 101 0 R D 12715 4314 M 100 0 R -50 0 R 0 195 R
-50 0 R 100 0 R D 12835 4380 M 101 0 R -51 0 R 0 131 R -50 0 R 101 0 R D
12955 4404 M 101 0 R -51 0 R 0 100 R -50 0 R 101 0 R D 13075 4408 M 101 0 R
-50 0 R 0 90 R -51 0 R 101 0 R D 13196 4442 M 100 0 R -50 0 R 0 69 R -50 0 R
100 0 R D 13316 4397 M 101 0 R -51 0 R 0 73 R -50 0 R 101 0 R D 13436 4390 M
101 0 R -51 0 R 0 47 R -50 0 R 101 0 R D 13556 4358 M 101 0 R -50 0 R 0 50 R
-51 0 R 101 0 R D 13677 4344 M 100 0 R -50 0 R 0 36 R -50 0 R 100 0 R D
13797 4302 M 101 0 R -51 0 R 0 46 R -50 0 R 101 0 R D 13917 4285 M 101 0 R
-51 0 R 0 39 R -50 0 R 101 0 R D 14037 4243 M 101 0 R -50 0 R 0 52 R -51 0 R
101 0 R D 14158 4226 M 100 0 R -50 0 R 0 49 R -50 0 R 100 0 R D 14278 4185 M
101 0 R -51 0 R 0 50 R -50 0 R 101 0 R D 14398 4135 M 101 0 R -51 0 R 0 56 R
-50 0 R 101 0 R D 14518 4075 M 101 0 R -50 0 R 0 55 R -51 0 R 101 0 R D
14638 4028 M 101 0 R -50 0 R 0 54 R -51 0 R 101 0 R D 14759 3963 M 100 0 R
-50 0 R 0 57 R -50 0 R 100 0 R D 14879 3881 M 101 0 R -51 0 R 0 69 R -50 0 R
101 0 R D 14999 3778 M 101 0 R -50 0 R 0 72 R -51 0 R 101 0 R D 15119 3649 M
101 0 R -50 0 R 0 77 R -51 0 R 101 0 R D 15240 3478 M 100 0 R -50 0 R 0 81 R
-50 0 R 100 0 R D 15360 3211 M 101 0 R -51 0 R 0 149 R -50 0 R 101 0 R D
15480 2913 M 101 0 R -50 0 R 0 254 R -51 0 R 101 0 R D 15600 2580 M 101 0 R
-50 0 R 0 333 R -51 0 R 101 0 R D 15721 1958 M 100 0 R -50 0 R 0 622 R
-50 0 R 100 0 R D 15841 1958 M 101 0 R -51 0 R -50 0 R 101 0 R D
%%PageTrailer
end
%%PageResources: font Helvetica
%%Trailer
%%Pages: 1
%%DocumentNeededResources: font Helvetica
%%EOF
