%!PS-Adobe-3.0 EPSF-3.0
%%BoundingBox: 0 0 481 425
%%Title: Graphics produced by IDL
%%For: jlgan@Hserver, /home/jlgan/work/phoenix
%%Creator: IDL Version 7.1.1 (linux x86_64 m64)
%%CreationDate: Wed Nov 12 16:00:06 2014
%%DocumentData: Clean7bit
%%Requirements: color
%%LanguageLevel: 1
%%PageOrder: Ascend
%%Pages: (atend)
%%DocumentNeededResources: (atend)
%%EndComments
%%BeginProlog
%+ prolog.ps -- Prolog for IDL generated PostScript files
%+ Copyright (c) 1988-2009 ITT Visual Information Solutions. All Rights Reserved.
%v 5
/$IDL_DICT 40 dict def $IDL_DICT begin /bdef { bind def } bind def /C
{currentpoint newpath moveto} bdef /CP {currentpoint} bdef /D {currentpoint
stroke moveto} bdef /F {closepath fill} bdef /K { setgray } bdef /M {moveto}
bdef /N {rmoveto} bdef /P {lineto} bdef /R {rlineto} bdef /S {gsave show
grestore} bdef /X {currentpoint pop} bdef /Z {gsave currentpoint lineto 20
setlinewidth 1 setlinecap stroke grestore} bdef /L0 {[] 0 setdash} bdef /L1
{[40 100] 0 setdash} bdef /L2 {[200 200] 0 setdash} bdef /L3 {[200 100 50
100] 0 setdash} bdef /L4 {[300 100 50 100 50 100 50 100] 0 setdash} bdef /L5
{[400 200] 0 setdash} bdef /STDFONT { findfont exch scalefont setfont } bdef
/ISOFONT { findfont dup length dict begin { 1 index /FID ne {def} {pop pop}
ifelse } forall /Encoding ISOLatin1Encoding def currentdict end /idltmpfont
exch definefont exch scalefont setfont } bdef /ISOBULLET { gsave /Helvetica
findfont exch scalefont setfont (\267) show currentpoint grestore moveto}
bdef /MITERLIMIT { 2.5 setmiterlimit } bdef end
%%EndProlog
%%Page: 0 1
%%PageRequirements: color
%%PageResources: (atend)
%%PageOrientation: Portrait
%%PageBoundingBox: 0 0 481 425
%%BeginPageSetup
$IDL_DICT begin 0.0283465 dup scale MITERLIMIT
%%IncludeResource: font Helvetica
423.333 /Helvetica STDFONT
%%EndPageSetup
0.000 0.000 0.000 setrgbcolor gsave 9277 352 translate 0 0 M -1472.54 0 N
(log[M) show X -101.051 M
%%IncludeResource: font Helvetica-Bold
262.467 /Helvetica-Bold STDFONT
(*) show X 0 M
%%IncludeResource: font Helvetica
423.333 /Helvetica STDFONT
( / \(h) show X 192.937 M
%%IncludeResource: font Helvetica
262.467 /Helvetica STDFONT
(-2) show X 0 M
%%IncludeResource: font Helvetica
423.333 /Helvetica STDFONT
(M) show CP X -101.051 M
%%IncludeResource: font AvantGarde-Book
262.467 /AvantGarde-Book STDFONT
(O) show M X -58.3193 M
%%IncludeResource: font AvantGarde-Book
186.267 /AvantGarde-Book STDFONT
( \267) show X 0 M
%%IncludeResource: font Helvetica
423.333 /Helvetica STDFONT
(\)]) show grestore gsave 888 7852 translate 0 0 M 90 rotate -2211.8 0 N
%%IncludeResource: font Symbol
423.333 /Symbol STDFONT
(f) show
%%IncludeResource: font Helvetica
423.333 /Helvetica STDFONT
(\(M) show X -101.051 M
%%IncludeResource: font Helvetica-Bold
262.467 /Helvetica-Bold STDFONT
(*) show X 0 M
%%IncludeResource: font Helvetica
423.333 /Helvetica STDFONT
(\) / \(h) show X 192.937 M
%%IncludeResource: font Helvetica
262.467 /Helvetica STDFONT
(3) show X 0 M
%%IncludeResource: font Helvetica
423.333 /Helvetica STDFONT
(Mpc) show X 192.937 M
%%IncludeResource: font Helvetica
262.467 /Helvetica STDFONT
(-3) show X 0 M
%%IncludeResource: font Helvetica
423.333 /Helvetica STDFONT
(log) show X 192.937 M
%%IncludeResource: font Helvetica
262.467 /Helvetica STDFONT
(-1) show X 0 M
%%IncludeResource: font Helvetica
423.333 /Helvetica STDFONT
(M) show X -101.051 M
%%IncludeResource: font Helvetica-Bold
262.467 /Helvetica-Bold STDFONT
(*) show X 0 M
%%IncludeResource: font Helvetica
423.333 /Helvetica STDFONT
(\)) show grestore 30 setlinewidth L0 2220 7852 M 7057 0 R D 3887 7852 M
0 193 R D gsave 3887 7324 translate 0 0 M -58.8433 0 N
( ) show grestore 5572 7852 M 0 193 R D gsave 5572 7324 translate 0 0 M
-58.8433 0 N
( ) show grestore 7256 7852 M 0 193 R D gsave 7256 7324 translate 0 0 M
-58.8433 0 N
( ) show grestore 8940 7852 M 0 193 R D gsave 8940 7324 translate 0 0 M
-58.8433 0 N
( ) show grestore 2372 7852 M 0 97 R D 2540 7852 M 0 97 R D 2709 7852 M
0 97 R D 2877 7852 M 0 97 R D 3045 7852 M 0 97 R D 3214 7852 M 0 97 R D
3382 7852 M 0 97 R D 3551 7852 M 0 97 R D 3719 7852 M 0 97 R D 4056 7852 M
0 97 R D 4224 7852 M 0 97 R D 4393 7852 M 0 97 R D 4561 7852 M 0 97 R D
4730 7852 M 0 97 R D 4898 7852 M 0 97 R D 5066 7852 M 0 97 R D 5235 7852 M
0 97 R D 5403 7852 M 0 97 R D 5740 7852 M 0 97 R D 5909 7852 M 0 97 R D
6077 7852 M 0 97 R D 6245 7852 M 0 97 R D 6414 7852 M 0 97 R D 6582 7852 M
0 97 R D 6751 7852 M 0 97 R D 6919 7852 M 0 97 R D 7088 7852 M 0 97 R D
7424 7852 M 0 97 R D 7593 7852 M 0 97 R D 7761 7852 M 0 97 R D 7930 7852 M
0 97 R D 8098 7852 M 0 97 R D 8267 7852 M 0 97 R D 8435 7852 M 0 97 R D
8603 7852 M 0 97 R D 8772 7852 M 0 97 R D 9109 7852 M 0 97 R D 9277 7852 M
0 97 R D 2220 14296 M 7057 0 R D 3887 14296 M 0 -193 R D 5572 14296 M
0 -193 R D 7256 14296 M 0 -193 R D 8940 14296 M 0 -193 R D 2372 14296 M
0 -97 R D 2540 14296 M 0 -97 R D 2709 14296 M 0 -97 R D 2877 14296 M 0 -97 R
D 3045 14296 M 0 -97 R D 3214 14296 M 0 -97 R D 3382 14296 M 0 -97 R D
3551 14296 M 0 -97 R D 3719 14296 M 0 -97 R D 4056 14296 M 0 -97 R D
4224 14296 M 0 -97 R D 4393 14296 M 0 -97 R D 4561 14296 M 0 -97 R D
4730 14296 M 0 -97 R D 4898 14296 M 0 -97 R D 5066 14296 M 0 -97 R D
5235 14296 M 0 -97 R D 5403 14296 M 0 -97 R D 5740 14296 M 0 -97 R D
5909 14296 M 0 -97 R D 6077 14296 M 0 -97 R D 6245 14296 M 0 -97 R D
6414 14296 M 0 -97 R D 6582 14296 M 0 -97 R D 6751 14296 M 0 -97 R D
6919 14296 M 0 -97 R D 7088 14296 M 0 -97 R D 7424 14296 M 0 -97 R D
7593 14296 M 0 -97 R D 7761 14296 M 0 -97 R D 7930 14296 M 0 -97 R D
8098 14296 M 0 -97 R D 8267 14296 M 0 -97 R D 8435 14296 M 0 -97 R D
8603 14296 M 0 -97 R D 8772 14296 M 0 -97 R D 9109 14296 M 0 -97 R D
9277 14296 M 0 -97 R D 2220 7852 M 0 6444 R D 2220 8569 M 212 0 R D
gsave 2109 8428 translate 0 0 M -704.08 0 N
(10) show X 192.937 M
%%IncludeResource: font Helvetica
262.467 /Helvetica STDFONT
(-8) show grestore
%%IncludeResource: font Helvetica
423.333 /Helvetica STDFONT 2220 10009 M 212 0 R D
gsave 2109 9868 translate 0 0 M -704.08 0 N
(10) show X 192.937 M
%%IncludeResource: font Helvetica
262.467 /Helvetica STDFONT
(-6) show grestore
%%IncludeResource: font Helvetica
423.333 /Helvetica STDFONT 2220 11449 M 212 0 R D
gsave 2109 11308 translate 0 0 M -704.08 0 N
(10) show X 192.937 M
%%IncludeResource: font Helvetica
262.467 /Helvetica STDFONT
(-4) show grestore
%%IncludeResource: font Helvetica
423.333 /Helvetica STDFONT 2220 12889 M 212 0 R D
gsave 2109 12748 translate 0 0 M -704.08 0 N
(10) show X 192.937 M
%%IncludeResource: font Helvetica
262.467 /Helvetica STDFONT
(-2) show grestore
%%IncludeResource: font Helvetica
423.333 /Helvetica STDFONT 2220 9289 M 106 0 R D 2220 10729 M 106 0 R D
2220 12169 M 106 0 R D 2220 13609 M 106 0 R D 9277 7852 M 0 6444 R D
9277 8569 M -212 0 R D 9277 10009 M -212 0 R D 9277 11449 M -212 0 R D
9277 12889 M -212 0 R D 9277 9289 M -106 0 R D 9277 10729 M -106 0 R D
9277 12169 M -106 0 R D 9277 13609 M -106 0 R D
0.000 0.000 1.000 setrgbcolor 2540 13061 M 169 92 R 168 113 R 168 -112 R
169 -13 R 168 10 R 169 -50 R 168 -41 R 168 10 R 169 13 R 168 -33 R 169 9 R
168 -24 R 169 -53 R 168 -31 R 168 -50 R 169 -34 R 168 -37 R 169 -34 R
168 -31 R 169 -41 R 168 -36 R 168 -70 R 169 -84 R 168 -89 R 169 -116 R
168 -152 R 169 -182 R 168 -232 R 168 -220 R 169 -281 R 168 -273 R 169 -260 R
168 -376 R 169 -344 R D 2470 12574 M 141 0 R -71 0 R 0 669 R -70 0 R 141 0 R
D 2638 13002 M 141 0 R -70 0 R 0 253 R -71 0 R 141 0 R D 2806 13205 M
142 0 R -71 0 R 0 111 R -71 0 R 142 0 R D 2975 13093 M 141 0 R -71 0 R
0 112 R -70 0 R 141 0 R D 3143 13094 M 141 0 R -70 0 R 0 88 R -71 0 R
141 0 R D 3312 13119 M 141 0 R -71 0 R 0 61 R -70 0 R 141 0 R D 3480 13063 M
141 0 R -70 0 R 0 72 R -71 0 R 141 0 R D 3648 13027 M 142 0 R -71 0 R 0 63 R
-71 0 R 142 0 R D 3817 13041 M 141 0 R -71 0 R 0 56 R -70 0 R 141 0 R D
3985 13052 M 141 0 R -70 0 R 0 59 R -71 0 R 141 0 R D 4154 13019 M 141 0 R
-71 0 R 0 58 R -70 0 R 141 0 R D 4322 13035 M 141 0 R -70 0 R 0 45 R -71 0 R
141 0 R D 4491 13011 M 141 0 R -71 0 R 0 47 R -70 0 R 141 0 R D 4659 12956 M
141 0 R -70 0 R 0 49 R -71 0 R 141 0 R D 4827 12929 M 142 0 R -71 0 R 0 43 R
-71 0 R 142 0 R D 4996 12878 M 141 0 R -71 0 R 0 46 R -70 0 R 141 0 R D
5164 12846 M 141 0 R -70 0 R 0 41 R -71 0 R 141 0 R D 5333 12808 M 141 0 R
-71 0 R 0 41 R -70 0 R 141 0 R D 5501 12777 M 141 0 R -70 0 R 0 36 R -71 0 R
141 0 R D 5670 12745 M 141 0 R -71 0 R 0 38 R -70 0 R 141 0 R D 5838 12706 M
141 0 R -70 0 R 0 36 R -71 0 R 141 0 R D 6006 12670 M 142 0 R -71 0 R 0 35 R
-71 0 R 142 0 R D 6175 12600 M 141 0 R -71 0 R 0 34 R -70 0 R 141 0 R D
6343 12519 M 141 0 R -70 0 R 0 30 R -71 0 R 141 0 R D 6512 12431 M 141 0 R
-71 0 R 0 28 R -70 0 R 141 0 R D 6680 12315 M 141 0 R -70 0 R 0 27 R -71 0 R
141 0 R D 6849 12165 M 141 0 R -71 0 R 0 24 R -70 0 R 141 0 R D 7017 11987 M
141 0 R -70 0 R 0 15 R -71 0 R 141 0 R D 7185 11750 M 142 0 R -71 0 R 0 25 R
-71 0 R 142 0 R D 7354 11514 M 141 0 R -71 0 R 0 55 R -70 0 R 141 0 R D
7522 11206 M 141 0 R -70 0 R 0 103 R -71 0 R 141 0 R D 7691 10930 M 141 0 R
-71 0 R 0 110 R -70 0 R 141 0 R D 7859 10659 M 141 0 R -70 0 R 0 127 R
-71 0 R 141 0 R D 8028 10226 M 141 0 R -71 0 R 0 216 R -70 0 R 141 0 R D
8196 10009 M 141 0 R -70 0 R -71 0 R 141 0 R D L1 3366 13205 M 168 -26 R
169 -48 R 168 -52 R 168 -7 R 169 -44 R 168 -30 R 169 -35 R 168 -7 R
169 -29 R 168 -24 R 168 -18 R 169 -39 R 168 -12 R 169 -49 R 168 -37 R
169 -55 R 168 -53 R 168 -89 R 169 -103 R 168 -124 R 169 -160 R 168 -214 R
168 -240 R 169 -277 R 168 -319 R 169 -365 R 168 -391 R 169 -230 R 168 -339 R
168 -230 R D L0 3295 13193 M 141 0 R -70 0 R 0 25 R -71 0 R 141 0 R D
3464 13167 M 141 0 R -71 0 R 0 24 R -70 0 R 141 0 R D 3632 13120 M 141 0 R
-70 0 R 0 22 R -71 0 R 141 0 R D 3800 13069 M 142 0 R -71 0 R 0 20 R -71 0 R
142 0 R D 3969 13062 M 141 0 R -71 0 R 0 20 R -70 0 R 141 0 R D 4137 13019 M
141 0 R -70 0 R 0 17 R -71 0 R 141 0 R D 4306 12990 M 141 0 R -71 0 R 0 17 R
-70 0 R 141 0 R D 4474 12955 M 141 0 R -70 0 R 0 16 R -71 0 R 141 0 R D
4643 12949 M 141 0 R -71 0 R 0 15 R -70 0 R 141 0 R D 4811 12920 M 141 0 R
-70 0 R 0 14 R -71 0 R 141 0 R D 4979 12897 M 142 0 R -71 0 R 0 13 R -71 0 R
142 0 R D 5148 12880 M 141 0 R -71 0 R 0 11 R -70 0 R 141 0 R D 5316 12841 M
141 0 R -70 0 R 0 11 R -71 0 R 141 0 R D 5485 12829 M 141 0 R -71 0 R 0 10 R
-70 0 R 141 0 R D 5653 12780 M 141 0 R -70 0 R 0 10 R -71 0 R 141 0 R D
5822 12744 M 141 0 R -71 0 R 0 9 R -70 0 R 141 0 R D 5990 12689 M 141 0 R
-70 0 R 0 8 R -71 0 R 141 0 R D 6158 12635 M 141 0 R -70 0 R 0 9 R -71 0 R
141 0 R D 6327 12547 M 141 0 R -71 0 R 0 9 R -70 0 R 141 0 R D 6495 12444 M
141 0 R -70 0 R 0 9 R -71 0 R 141 0 R D 6664 12319 M 141 0 R -71 0 R 0 10 R
-70 0 R 141 0 R D 6832 12158 M 141 0 R -70 0 R 0 12 R -71 0 R 141 0 R D
7000 11943 M 142 0 R -71 0 R 0 15 R -71 0 R 142 0 R D 7169 11699 M 141 0 R
-71 0 R 0 23 R -70 0 R 141 0 R D 7337 11416 M 141 0 R -70 0 R 0 34 R -71 0 R
141 0 R D 7506 11087 M 141 0 R -71 0 R 0 57 R -70 0 R 141 0 R D 7674 10701 M
141 0 R -70 0 R 0 105 R -71 0 R 141 0 R D 7843 10286 M 141 0 R -71 0 R
0 216 R -70 0 R 141 0 R D 8011 9984 M 141 0 R -70 0 R 0 360 R -71 0 R
141 0 R D 8179 9573 M 142 0 R -71 0 R 0 648 R -71 0 R 142 0 R D 8348 9271 M
141 0 R -71 0 R 0 1008 R -70 0 R 141 0 R D 0.761 0.000 0.000 setrgbcolor
2540 13394 M 169 -197 R 168 -112 R 168 -100 R 169 -100 R 168 -35 R 169 -21 R
168 58 R 168 -87 R 169 70 R 168 -29 R 169 9 R 168 41 R 169 -46 R 168 13 R
168 8 R 169 -23 R 168 22 R 169 -5 R 168 11 R 169 11 R 168 0 R 168 -29 R
169 -49 R 168 -71 R 169 -75 R 168 -92 R 169 -119 R 168 -136 R 168 -164 R
169 -182 R 168 -204 R 169 -250 R 168 -319 R 169 -433 R D 2470 13039 M
141 0 R -71 0 R 0 517 R -70 0 R 141 0 R D 2638 13061 M 141 0 R -70 0 R
0 230 R -71 0 R 141 0 R D 2806 12974 M 142 0 R -71 0 R 0 192 R -71 0 R
142 0 R D 2975 12878 M 141 0 R -71 0 R 0 187 R -70 0 R 141 0 R D
3143 12785 M 141 0 R -70 0 R 0 175 R -71 0 R 141 0 R D 3312 12753 M 141 0 R
-71 0 R 0 170 R -70 0 R 141 0 R D 3480 12772 M 141 0 R -70 0 R 0 106 R
-71 0 R 141 0 R D 3648 12838 M 142 0 R -71 0 R 0 91 R -71 0 R 142 0 R D
3817 12750 M 141 0 R -71 0 R 0 93 R -70 0 R 141 0 R D 3985 12823 M 141 0 R
-70 0 R 0 89 R -71 0 R 141 0 R D 4154 12802 M 141 0 R -71 0 R 0 74 R -70 0 R
141 0 R D 4322 12820 M 141 0 R -70 0 R 0 58 R -71 0 R 141 0 R D 4491 12867 M
141 0 R -71 0 R 0 46 R -70 0 R 141 0 R D 4659 12827 M 141 0 R -70 0 R 0 35 R
-71 0 R 141 0 R D 4827 12845 M 142 0 R -71 0 R 0 24 R -71 0 R 142 0 R D
4996 12854 M 141 0 R -71 0 R 0 24 R -70 0 R 141 0 R D 5164 12834 M 141 0 R
-70 0 R 0 18 R -71 0 R 141 0 R D 5333 12851 M 141 0 R -71 0 R 0 28 R -70 0 R
141 0 R D 5501 12848 M 141 0 R -70 0 R 0 23 R -71 0 R 141 0 R D 5670 12859 M
141 0 R -71 0 R 0 24 R -70 0 R 141 0 R D 5838 12870 M 141 0 R -70 0 R 0 25 R
-71 0 R 141 0 R D 6006 12871 M 142 0 R -71 0 R 0 21 R -71 0 R 142 0 R D
6175 12842 M 141 0 R -71 0 R 0 21 R -70 0 R 141 0 R D 6343 12793 M 141 0 R
-70 0 R 0 20 R -71 0 R 141 0 R D 6512 12724 M 141 0 R -71 0 R 0 19 R -70 0 R
141 0 R D 6680 12648 M 141 0 R -70 0 R 0 19 R -71 0 R 141 0 R D 6849 12556 M
141 0 R -71 0 R 0 19 R -70 0 R 141 0 R D 7017 12438 M 141 0 R -70 0 R 0 18 R
-71 0 R 141 0 R D 7185 12301 M 142 0 R -71 0 R 0 19 R -71 0 R 142 0 R D
7354 12137 M 141 0 R -71 0 R 0 19 R -70 0 R 141 0 R D 7522 11954 M 141 0 R
-70 0 R 0 21 R -71 0 R 141 0 R D 7691 11750 M 141 0 R -71 0 R 0 21 R -70 0 R
141 0 R D 7859 11498 M 141 0 R -70 0 R 0 26 R -71 0 R 141 0 R D 8028 11170 M
141 0 R -71 0 R 0 43 R -70 0 R 141 0 R D 8196 10729 M 141 0 R -70 0 R 0 57 R
-71 0 R 141 0 R D L1 3366 12867 M 168 7 R 169 0 R 168 -27 R 168 -38 R
169 -20 R 168 -22 R 169 -6 R 168 -7 R 169 -2 R 168 4 R 168 26 R 169 5 R
168 31 R 169 0 R 168 -12 R 169 -18 R 168 -29 R 168 -43 R 169 -58 R 168 -71 R
169 -97 R 168 -137 R 168 -147 R 169 -183 R 168 -241 R 169 -287 R 168 -292 R
169 -353 R 168 -456 R 168 -490 R D L0 3295 12836 M 141 0 R -70 0 R 0 66 R
-71 0 R 141 0 R D 3464 12844 M 141 0 R -71 0 R 0 61 R -70 0 R 141 0 R D
3632 12849 M 141 0 R -70 0 R 0 53 R -71 0 R 141 0 R D 3800 12823 M 142 0 R
-71 0 R 0 51 R -71 0 R 142 0 R D 3969 12787 M 141 0 R -71 0 R 0 46 R -70 0 R
141 0 R D 4137 12769 M 141 0 R -70 0 R 0 42 R -71 0 R 141 0 R D 4306 12749 M
141 0 R -71 0 R 0 37 R -70 0 R 141 0 R D 4474 12743 M 141 0 R -70 0 R 0 39 R
-71 0 R 141 0 R D 4643 12740 M 141 0 R -71 0 R 0 29 R -70 0 R 141 0 R D
4811 12740 M 141 0 R -70 0 R 0 25 R -71 0 R 141 0 R D 4979 12746 M 142 0 R
-71 0 R 0 21 R -71 0 R 142 0 R D 5148 12773 M 141 0 R -71 0 R 0 18 R -70 0 R
141 0 R D 5316 12779 M 141 0 R -70 0 R 0 15 R -71 0 R 141 0 R D 5485 12811 M
141 0 R -71 0 R 0 13 R -70 0 R 141 0 R D 5653 12812 M 141 0 R -70 0 R 0 11 R
-71 0 R 141 0 R D 5822 12801 M 141 0 R -71 0 R 0 10 R -70 0 R 141 0 R D
5990 12784 M 141 0 R -70 0 R 0 8 R -71 0 R 141 0 R D 6158 12755 M 141 0 R
-70 0 R 0 8 R -71 0 R 141 0 R D 6327 12712 M 141 0 R -71 0 R 0 8 R -70 0 R
141 0 R D 6495 12654 M 141 0 R -70 0 R 0 7 R -71 0 R 141 0 R D 6664 12584 M
141 0 R -71 0 R 0 7 R -70 0 R 141 0 R D 6832 12486 M 141 0 R -70 0 R 0 8 R
-71 0 R 141 0 R D 7000 12349 M 142 0 R -71 0 R 0 8 R -71 0 R 142 0 R D
7169 12202 M 141 0 R -71 0 R 0 9 R -70 0 R 141 0 R D 7337 12017 M 141 0 R
-70 0 R 0 12 R -71 0 R 141 0 R D 7506 11774 M 141 0 R -71 0 R 0 18 R -70 0 R
141 0 R D 7674 11480 M 141 0 R -70 0 R 0 30 R -71 0 R 141 0 R D 7843 11180 M
141 0 R -71 0 R 0 48 R -70 0 R 141 0 R D 8011 10810 M 141 0 R -70 0 R 0 86 R
-71 0 R 141 0 R D 8179 10322 M 142 0 R -71 0 R 0 144 R -71 0 R 142 0 R D
8348 9760 M 141 0 R -71 0 R 0 432 R -70 0 R 141 0 R D
0.000 0.000 0.000 setrgbcolor 2644 10623 M 84 0 R 85 0 R 85 0 R 84 0 R
85 0 R 85 0 R 84 0 R 85 0 R 85 0 R D L1 2644 10043 M 84 0 R 85 0 R 85 0 R
84 0 R 85 0 R 85 0 R 84 0 R 85 0 R 85 0 R D gsave 3490 10532 translate 0 0 M
(Yang2009) show grestore gsave 3490 9952 translate 0 0 M
(Moustakas2013) show grestore gsave 7866 13652 translate 0 0 M
(Field) show grestore L0 9277 7852 M 7057 0 R D 10944 7852 M 0 193 R D
gsave 10944 7324 translate 0 0 M -58.8433 0 N
( ) show grestore 12629 7852 M 0 193 R D gsave 12629 7324 translate 0 0 M
-58.8433 0 N
( ) show grestore 14313 7852 M 0 193 R D gsave 14313 7324 translate 0 0 M
-58.8433 0 N
( ) show grestore 15997 7852 M 0 193 R D gsave 15997 7324 translate 0 0 M
-58.8433 0 N
( ) show grestore 9429 7852 M 0 97 R D 9597 7852 M 0 97 R D 9766 7852 M
0 97 R D 9934 7852 M 0 97 R D 10102 7852 M 0 97 R D 10271 7852 M 0 97 R D
10439 7852 M 0 97 R D 10608 7852 M 0 97 R D 10776 7852 M 0 97 R D
11113 7852 M 0 97 R D 11281 7852 M 0 97 R D 11450 7852 M 0 97 R D
11618 7852 M 0 97 R D 11787 7852 M 0 97 R D 11955 7852 M 0 97 R D
12123 7852 M 0 97 R D 12292 7852 M 0 97 R D 12460 7852 M 0 97 R D
12797 7852 M 0 97 R D 12966 7852 M 0 97 R D 13134 7852 M 0 97 R D
13302 7852 M 0 97 R D 13471 7852 M 0 97 R D 13639 7852 M 0 97 R D
13808 7852 M 0 97 R D 13976 7852 M 0 97 R D 14145 7852 M 0 97 R D
14481 7852 M 0 97 R D 14650 7852 M 0 97 R D 14818 7852 M 0 97 R D
14987 7852 M 0 97 R D 15155 7852 M 0 97 R D 15324 7852 M 0 97 R D
15492 7852 M 0 97 R D 15660 7852 M 0 97 R D 15829 7852 M 0 97 R D
16166 7852 M 0 97 R D 16334 7852 M 0 97 R D 9277 14296 M 7057 0 R D
10944 14296 M 0 -193 R D 12629 14296 M 0 -193 R D 14313 14296 M 0 -193 R D
15997 14296 M 0 -193 R D 9429 14296 M 0 -97 R D 9597 14296 M 0 -97 R D
9766 14296 M 0 -97 R D 9934 14296 M 0 -97 R D 10102 14296 M 0 -97 R D
10271 14296 M 0 -97 R D 10439 14296 M 0 -97 R D 10608 14296 M 0 -97 R D
10776 14296 M 0 -97 R D 11113 14296 M 0 -97 R D 11281 14296 M 0 -97 R D
11450 14296 M 0 -97 R D 11618 14296 M 0 -97 R D 11787 14296 M 0 -97 R D
11955 14296 M 0 -97 R D 12123 14296 M 0 -97 R D 12292 14296 M 0 -97 R D
12460 14296 M 0 -97 R D 12797 14296 M 0 -97 R D 12966 14296 M 0 -97 R D
13134 14296 M 0 -97 R D 13302 14296 M 0 -97 R D 13471 14296 M 0 -97 R D
13639 14296 M 0 -97 R D 13808 14296 M 0 -97 R D 13976 14296 M 0 -97 R D
14145 14296 M 0 -97 R D 14481 14296 M 0 -97 R D 14650 14296 M 0 -97 R D
14818 14296 M 0 -97 R D 14987 14296 M 0 -97 R D 15155 14296 M 0 -97 R D
15324 14296 M 0 -97 R D 15492 14296 M 0 -97 R D 15660 14296 M 0 -97 R D
15829 14296 M 0 -97 R D 16166 14296 M 0 -97 R D 16334 14296 M 0 -97 R D
9277 7852 M 0 6444 R D 9277 8569 M 212 0 R D gsave 9166 8428 translate 0 0 M
-117.687 0 N
( ) show grestore 9277 10009 M 212 0 R D gsave 9166 9868 translate 0 0 M
-117.687 0 N
( ) show grestore 9277 11449 M 212 0 R D gsave 9166 11308 translate 0 0 M
-117.687 0 N
( ) show grestore 9277 12889 M 212 0 R D gsave 9166 12748 translate 0 0 M
-117.687 0 N
( ) show grestore 9277 9289 M 106 0 R D 9277 10729 M 106 0 R D 9277 12169 M
106 0 R D 9277 13609 M 106 0 R D 16334 7852 M 0 6444 R D 16334 8569 M
-212 0 R D 16334 10009 M -212 0 R D 16334 11449 M -212 0 R D 16334 12889 M
-212 0 R D 16334 9289 M -106 0 R D 16334 10729 M -106 0 R D 16334 12169 M
-106 0 R D 16334 13609 M -106 0 R D L0 0.000 0.000 1.000 setrgbcolor
10507 13172 M 168 20 R D L0 10675 13192 M 169 -6 R D L0 10844 13186 M
168 8 R D L0 11012 13194 M 169 -28 R D L0 11181 13166 M 168 -28 R D L0
11349 13138 M 168 -14 R D L0 11517 13124 M 169 -18 R D L0 11686 13106 M
168 -27 R D L0 11854 13079 M 169 -15 R D L0 12023 13064 M 168 -31 R D L0
12191 13033 M 169 -17 R D L0 12360 13016 M 168 -10 R D L0 12528 13006 M
168 -25 R D L0 12696 12981 M 169 -17 R D L0 12865 12964 M 168 -34 R D L0
13033 12930 M 169 -57 R D L0 13202 12873 M 168 -56 R D L0 13370 12817 M
169 -71 R D L0 13539 12746 M 168 -98 R D L0 13707 12648 M 168 -107 R D L0
13875 12541 M 169 -136 R D L0 14044 12405 M 168 -171 R D L0 14212 12234 M
169 -207 R D L0 14381 12027 M 168 -230 R D L0 14549 11797 M 169 -251 R D L0
14718 11546 M 168 -232 R D L0 14886 11314 M 168 -204 R D L0 15054 11110 M
169 -278 R D L0 15223 10832 M 168 -263 R D L0 15391 10569 M 169 -136 R D L0
15560 10433 M 168 -342 R D L0 15728 10091 M 169 -286 R D L0 15897 9805 M
168 156 R D 0.761 0.000 0.000 setrgbcolor 10507 12595 M 168 -18 R 169 16 R
168 30 R 169 -14 R 168 -2 R 168 -51 R 169 -20 R 168 -4 R 169 46 R 168 -17 R
169 15 R 168 19 R 168 30 R 169 20 R 168 26 R 169 -1 R 168 -11 R 169 -18 R
168 -36 R 168 -43 R 169 -62 R 168 -81 R 169 -109 R 168 -112 R 169 -157 R
168 -165 R 168 -195 R 169 -257 R 168 -255 R 169 -310 R 168 -397 R 169 -370 R
168 -383 R D L1 10507 12563 M 168 -21 R 169 6 R 168 20 R 169 -8 R 168 -21 R
168 -37 R 169 -24 R 168 -14 R 169 38 R 168 -21 R 169 15 R 168 10 R 168 24 R
169 10 R 168 11 R 169 -11 R 168 -16 R 169 -27 R 168 -52 R 168 -62 R
169 -91 R 168 -108 R 169 -139 R 168 -151 R 169 -184 R 168 -180 R 168 -192 R
169 -264 R 168 -225 R 169 -249 R 168 -323 R 169 -364 R 168 -343 R D L2
10507 11869 M 168 11 R 169 82 R 168 91 R 169 -48 R 168 93 R 168 -118 R
169 4 R 168 38 R 169 77 R 168 -5 R 169 15 R 168 49 R 168 50 R 169 46 R
168 60 R 169 17 R 168 0 R 169 -3 R 168 -9 R 168 -16 R 169 -28 R 168 -55 R
169 -85 R 168 -86 R 169 -142 R 168 -157 R 168 -196 R 169 -254 R 168 -271 R
169 -350 R 168 -470 R 169 -377 R 168 -442 R D L0
0.000 0.000 0.000 setrgbcolor 9701 10623 M 84 0 R 85 0 R 85 0 R 84 0 R
85 0 R 85 0 R 84 0 R 85 0 R 85 0 R D gsave 10547 10532 translate 0 0 M
(Bernardi2013) show grestore gsave 14923 13652 translate 0 0 M
(Field) show grestore 2220 1408 M 7057 0 R D 3887 1408 M 0 193 R D
gsave 3887 880 translate 0 0 M -117.687 0 N
(9) show grestore 5572 1408 M 0 193 R D gsave 5572 880 translate 0 0 M
-235.373 0 N
(10) show grestore 7256 1408 M 0 193 R D gsave 7256 880 translate 0 0 M
-235.373 0 N
(11) show grestore 8940 1408 M 0 193 R D gsave 8940 880 translate 0 0 M
-235.373 0 N
(12) show grestore 2372 1408 M 0 97 R D 2540 1408 M 0 97 R D 2709 1408 M
0 97 R D 2877 1408 M 0 97 R D 3045 1408 M 0 97 R D 3214 1408 M 0 97 R D
3382 1408 M 0 97 R D 3551 1408 M 0 97 R D 3719 1408 M 0 97 R D 4056 1408 M
0 97 R D 4224 1408 M 0 97 R D 4393 1408 M 0 97 R D 4561 1408 M 0 97 R D
4730 1408 M 0 97 R D 4898 1408 M 0 97 R D 5066 1408 M 0 97 R D 5235 1408 M
0 97 R D 5403 1408 M 0 97 R D 5740 1408 M 0 97 R D 5909 1408 M 0 97 R D
6077 1408 M 0 97 R D 6245 1408 M 0 97 R D 6414 1408 M 0 97 R D 6582 1408 M
0 97 R D 6751 1408 M 0 97 R D 6919 1408 M 0 97 R D 7088 1408 M 0 97 R D
7424 1408 M 0 97 R D 7593 1408 M 0 97 R D 7761 1408 M 0 97 R D 7930 1408 M
0 97 R D 8098 1408 M 0 97 R D 8267 1408 M 0 97 R D 8435 1408 M 0 97 R D
8603 1408 M 0 97 R D 8772 1408 M 0 97 R D 9109 1408 M 0 97 R D 9277 1408 M
0 97 R D 2220 7852 M 7057 0 R D 3887 7852 M 0 -193 R D 5572 7852 M 0 -193 R
D 7256 7852 M 0 -193 R D 8940 7852 M 0 -193 R D 2372 7852 M 0 -97 R D
2540 7852 M 0 -97 R D 2709 7852 M 0 -97 R D 2877 7852 M 0 -97 R D
3045 7852 M 0 -97 R D 3214 7852 M 0 -97 R D 3382 7852 M 0 -97 R D
3551 7852 M 0 -97 R D 3719 7852 M 0 -97 R D 4056 7852 M 0 -97 R D
4224 7852 M 0 -97 R D 4393 7852 M 0 -97 R D 4561 7852 M 0 -97 R D
4730 7852 M 0 -97 R D 4898 7852 M 0 -97 R D 5066 7852 M 0 -97 R D
5235 7852 M 0 -97 R D 5403 7852 M 0 -97 R D 5740 7852 M 0 -97 R D
5909 7852 M 0 -97 R D 6077 7852 M 0 -97 R D 6245 7852 M 0 -97 R D
6414 7852 M 0 -97 R D 6582 7852 M 0 -97 R D 6751 7852 M 0 -97 R D
6919 7852 M 0 -97 R D 7088 7852 M 0 -97 R D 7424 7852 M 0 -97 R D
7593 7852 M 0 -97 R D 7761 7852 M 0 -97 R D 7930 7852 M 0 -97 R D
8098 7852 M 0 -97 R D 8267 7852 M 0 -97 R D 8435 7852 M 0 -97 R D
8603 7852 M 0 -97 R D 8772 7852 M 0 -97 R D 9109 7852 M 0 -97 R D
9277 7852 M 0 -97 R D 2220 1408 M 0 6444 R D 2220 2050 M 212 0 R D
gsave 2109 1909 translate 0 0 M -704.08 0 N
(10) show X 192.937 M
%%IncludeResource: font Helvetica
262.467 /Helvetica STDFONT
(-6) show grestore
%%IncludeResource: font Helvetica
423.333 /Helvetica STDFONT 2220 3340 M 212 0 R D
gsave 2109 3199 translate 0 0 M -704.08 0 N
(10) show X 192.937 M
%%IncludeResource: font Helvetica
262.467 /Helvetica STDFONT
(-4) show grestore
%%IncludeResource: font Helvetica
423.333 /Helvetica STDFONT 2220 4630 M 212 0 R D
gsave 2109 4489 translate 0 0 M -704.08 0 N
(10) show X 192.937 M
%%IncludeResource: font Helvetica
262.467 /Helvetica STDFONT
(-2) show grestore
%%IncludeResource: font Helvetica
423.333 /Helvetica STDFONT 2220 5920 M 212 0 R D
gsave 2109 5779 translate 0 0 M -616.678 0 N
(10) show X 192.937 M
%%IncludeResource: font Helvetica
262.467 /Helvetica STDFONT
(0) show grestore
%%IncludeResource: font Helvetica
423.333 /Helvetica STDFONT 2220 7210 M 212 0 R D
gsave 2109 7069 translate 0 0 M -616.678 0 N
(10) show X 192.937 M
%%IncludeResource: font Helvetica
262.467 /Helvetica STDFONT
(2) show grestore
%%IncludeResource: font Helvetica
423.333 /Helvetica STDFONT 2220 2695 M 106 0 R D 2220 3985 M 106 0 R D
2220 5275 M 106 0 R D 2220 6565 M 106 0 R D 9277 1408 M 0 6444 R D
9277 2050 M -212 0 R D 9277 3340 M -212 0 R D 9277 4630 M -212 0 R D
9277 5920 M -212 0 R D 9277 7210 M -212 0 R D 9277 2695 M -106 0 R D
9277 3985 M -106 0 R D 9277 5275 M -106 0 R D 9277 6565 M -106 0 R D L1
0.000 0.000 1.000 setrgbcolor 5892 6401 M 253 -55 R 252 -68 R 253 -87 R
253 -111 R 252 -148 R 253 -200 R 253 -271 R 252 -373 R 253 -517 R 252 -721 R
D L0 5822 6360 M 141 0 R -71 0 R 0 80 R -70 0 R 141 0 R D 6074 6302 M
141 0 R -70 0 R 0 85 R -71 0 R 141 0 R D 6327 6229 M 141 0 R -71 0 R 0 94 R
-70 0 R 141 0 R D 6579 6137 M 142 0 R -71 0 R 0 106 R -71 0 R 142 0 R D
6832 6015 M 141 0 R -70 0 R 0 124 R -71 0 R 141 0 R D 7085 5853 M 141 0 R
-71 0 R 0 151 R -70 0 R 141 0 R D 7337 5633 M 141 0 R -70 0 R 0 190 R
-71 0 R 141 0 R D 7590 5333 M 141 0 R -70 0 R 0 244 R -71 0 R 141 0 R D
7843 4918 M 141 0 R -71 0 R 0 323 R -70 0 R 141 0 R D 8095 4342 M 141 0 R
-70 0 R 0 435 R -71 0 R 141 0 R D 8348 3537 M 141 0 R -71 0 R 0 594 R
-70 0 R 141 0 R D L2 5218 6554 M 337 -268 R 337 -49 R 337 42 R 337 -245 R
337 -87 R 336 -672 R D L0 5148 6481 M 141 0 R -71 0 R 0 142 R -70 0 R
141 0 R D 5485 6177 M 141 0 R -71 0 R 0 188 R -70 0 R 141 0 R D 5822 6153 M
141 0 R -71 0 R 0 148 R -70 0 R 141 0 R D 6158 6218 M 141 0 R -70 0 R
0 117 R -71 0 R 141 0 R D 6495 5920 M 141 0 R -70 0 R 0 208 R -71 0 R
141 0 R D 6832 5820 M 141 0 R -70 0 R 0 265 R -71 0 R 141 0 R D 7169 1408 M
141 0 R -71 0 R 0 4061 R -70 0 R 141 0 R D 7506 1408 M 141 0 R -71 0 R
-70 0 R 141 0 R D L1 0.761 0.000 0.000 setrgbcolor 5892 6393 M 253 -3 R
252 -16 R 253 -34 R 253 -61 R 252 -97 R 253 -150 R 253 -224 R 252 -328 R
253 -476 R 252 -683 R D L0 5822 6380 M 141 0 R -71 0 R 0 26 R -70 0 R
141 0 R D 6074 6376 M 141 0 R -70 0 R 0 28 R -71 0 R 141 0 R D 6327 6358 M
141 0 R -71 0 R 0 32 R -70 0 R 141 0 R D 6579 6320 M 142 0 R -71 0 R 0 39 R
-71 0 R 142 0 R D 6832 6254 M 141 0 R -70 0 R 0 50 R -71 0 R 141 0 R D
7085 6148 M 141 0 R -71 0 R 0 65 R -70 0 R 141 0 R D 7337 5986 M 141 0 R
-70 0 R 0 88 R -71 0 R 141 0 R D 7590 5745 M 141 0 R -70 0 R 0 122 R -71 0 R
141 0 R D 7843 5392 M 141 0 R -71 0 R 0 169 R -70 0 R 141 0 R D 8095 4882 M
141 0 R -70 0 R 0 237 R -71 0 R 141 0 R D 8348 4148 M 141 0 R -71 0 R
0 334 R -70 0 R 141 0 R D L2 5218 6502 M 337 24 R 337 -17 R 337 64 R
337 -89 R 337 -176 R 336 -418 R 337 -227 R D L0 5148 6417 M 141 0 R -71 0 R
0 159 R -70 0 R 141 0 R D 5485 6477 M 141 0 R -71 0 R 0 94 R -70 0 R 141 0 R
D 5822 6469 M 141 0 R -71 0 R 0 76 R -70 0 R 141 0 R D 6158 6545 M 141 0 R
-70 0 R 0 57 R -71 0 R 141 0 R D 6495 6453 M 141 0 R -70 0 R 0 63 R -71 0 R
141 0 R D 6832 6263 M 141 0 R -70 0 R 0 84 R -71 0 R 141 0 R D 7169 5777 M
141 0 R -71 0 R 0 194 R -70 0 R 141 0 R D 7506 5469 M 141 0 R -71 0 R
0 308 R -70 0 R 141 0 R D 0.000 0.000 0.000 setrgbcolor 2644 4179 M 84 0 R
85 0 R 85 0 R 84 0 R 85 0 R 85 0 R 84 0 R 85 0 R 85 0 R D L1 2644 3599 M
84 0 R 85 0 R 85 0 R 84 0 R 85 0 R 85 0 R 84 0 R 85 0 R 85 0 R D L2
2644 3019 M 84 0 R 85 0 R 85 0 R 84 0 R 85 0 R 85 0 R 84 0 R 85 0 R 85 0 R D
gsave 3490 4088 translate 0 0 M
(ICBS) show grestore gsave 3490 3508 translate 0 0 M
(EDisCs) show grestore gsave 3490 2928 translate 0 0 M
(GCLASS) show grestore gsave 7866 7208 translate 0 0 M
(cluster) show grestore L0 9277 1408 M 7057 0 R D 10944 1408 M 0 193 R D
gsave 10944 880 translate 0 0 M -117.687 0 N
(9) show grestore 12629 1408 M 0 193 R D gsave 12629 880 translate 0 0 M
-235.373 0 N
(10) show grestore 14313 1408 M 0 193 R D gsave 14313 880 translate 0 0 M
-235.373 0 N
(11) show grestore 15997 1408 M 0 193 R D gsave 15997 880 translate 0 0 M
-235.373 0 N
(12) show grestore 9429 1408 M 0 97 R D 9597 1408 M 0 97 R D 9766 1408 M
0 97 R D 9934 1408 M 0 97 R D 10102 1408 M 0 97 R D 10271 1408 M 0 97 R D
10439 1408 M 0 97 R D 10608 1408 M 0 97 R D 10776 1408 M 0 97 R D
11113 1408 M 0 97 R D 11281 1408 M 0 97 R D 11450 1408 M 0 97 R D
11618 1408 M 0 97 R D 11787 1408 M 0 97 R D 11955 1408 M 0 97 R D
12123 1408 M 0 97 R D 12292 1408 M 0 97 R D 12460 1408 M 0 97 R D
12797 1408 M 0 97 R D 12966 1408 M 0 97 R D 13134 1408 M 0 97 R D
13302 1408 M 0 97 R D 13471 1408 M 0 97 R D 13639 1408 M 0 97 R D
13808 1408 M 0 97 R D 13976 1408 M 0 97 R D 14145 1408 M 0 97 R D
14481 1408 M 0 97 R D 14650 1408 M 0 97 R D 14818 1408 M 0 97 R D
14987 1408 M 0 97 R D 15155 1408 M 0 97 R D 15324 1408 M 0 97 R D
15492 1408 M 0 97 R D 15660 1408 M 0 97 R D 15829 1408 M 0 97 R D
16166 1408 M 0 97 R D 16334 1408 M 0 97 R D 9277 7852 M 7057 0 R D
10944 7852 M 0 -193 R D 12629 7852 M 0 -193 R D 14313 7852 M 0 -193 R D
15997 7852 M 0 -193 R D 9429 7852 M 0 -97 R D 9597 7852 M 0 -97 R D
9766 7852 M 0 -97 R D 9934 7852 M 0 -97 R D 10102 7852 M 0 -97 R D
10271 7852 M 0 -97 R D 10439 7852 M 0 -97 R D 10608 7852 M 0 -97 R D
10776 7852 M 0 -97 R D 11113 7852 M 0 -97 R D 11281 7852 M 0 -97 R D
11450 7852 M 0 -97 R D 11618 7852 M 0 -97 R D 11787 7852 M 0 -97 R D
11955 7852 M 0 -97 R D 12123 7852 M 0 -97 R D 12292 7852 M 0 -97 R D
12460 7852 M 0 -97 R D 12797 7852 M 0 -97 R D 12966 7852 M 0 -97 R D
13134 7852 M 0 -97 R D 13302 7852 M 0 -97 R D 13471 7852 M 0 -97 R D
13639 7852 M 0 -97 R D 13808 7852 M 0 -97 R D 13976 7852 M 0 -97 R D
14145 7852 M 0 -97 R D 14481 7852 M 0 -97 R D 14650 7852 M 0 -97 R D
14818 7852 M 0 -97 R D 14987 7852 M 0 -97 R D 15155 7852 M 0 -97 R D
15324 7852 M 0 -97 R D 15492 7852 M 0 -97 R D 15660 7852 M 0 -97 R D
15829 7852 M 0 -97 R D 16166 7852 M 0 -97 R D 16334 7852 M 0 -97 R D
9277 1408 M 0 6444 R D 9277 2050 M 212 0 R D gsave 9166 1909 translate 0 0 M
-117.687 0 N
( ) show grestore 9277 3340 M 212 0 R D gsave 9166 3199 translate 0 0 M
-117.687 0 N
( ) show grestore 9277 4630 M 212 0 R D gsave 9166 4489 translate 0 0 M
-117.687 0 N
( ) show grestore 9277 5920 M 212 0 R D gsave 9166 5779 translate 0 0 M
-117.687 0 N
( ) show grestore 9277 7210 M 212 0 R D gsave 9166 7069 translate 0 0 M
-117.687 0 N
( ) show grestore 9277 2695 M 106 0 R D 9277 3985 M 106 0 R D 9277 5275 M
106 0 R D 9277 6565 M 106 0 R D 16334 1408 M 0 6444 R D 16334 2050 M
-212 0 R D 16334 3340 M -212 0 R D 16334 4630 M -212 0 R D 16334 5920 M
-212 0 R D 16334 7210 M -212 0 R D 16334 2695 M -106 0 R D 16334 3985 M
-106 0 R D 16334 5275 M -106 0 R D 16334 6565 M -106 0 R D L0
0.000 0.000 1.000 setrgbcolor 12528 6138 M 368 1 R D L0 12896 6139 M
369 -35 R D L0 13265 6104 M 368 -95 R D L0 13633 6009 M 369 -195 R D L0
14002 5814 M 368 -359 R D L0 14370 5455 M 369 -631 R D L0 14739 4824 M
368 -1081 R D L0 15107 3743 M 368 -1826 R D 0.761 0.000 0.000 setrgbcolor
12528 6685 M 368 -54 R 369 -81 R 368 -124 R 369 -196 R 368 -315 R 369 -512 R
368 -838 R 368 -1378 R D L1 12528 6538 M 368 -24 R 369 -76 R 368 -163 R
369 -306 R 368 -544 R 369 -937 R 368 -1588 R 206 -1492 R D L2 12528 6407 M
368 -79 R 369 -83 R 368 -92 R 369 -106 R 368 -129 R 369 -168 R 368 -231 R
368 -337 R D L0 0.000 0.000 0.000 setrgbcolor 9701 4179 M 84 0 R 85 0 R
85 0 R 84 0 R 85 0 R 85 0 R 84 0 R 85 0 R 85 0 R D
gsave 10547 4088 translate 0 0 M
(Calvi2013) show grestore gsave 14923 7208 translate 0 0 M
(cluster) show grestore
%%PageTrailer
end
%%PageResources: font Helvetica
%%+ font Symbol
%%+ font AvantGarde-Book
%%+ font Helvetica-Bold
%%Trailer
%%Pages: 1
%%DocumentNeededResources: font Helvetica
%%+ font Symbol
%%+ font AvantGarde-Book
%%+ font Helvetica-Bold
%%EOF
