%!PS-Adobe-3.0 EPSF-3.0
%%BoundingBox: 0 0 510 425
%%Title: Graphics produced by IDL
%%For: jlgan@Hserver, /home/jlgan/work/phoenix
%%Creator: IDL Version 7.1.1 (linux x86_64 m64)
%%CreationDate: Wed Nov 19 16:23:25 2014
%%DocumentData: Clean7bit
%%Requirements: color
%%LanguageLevel: 1
%%PageOrder: Ascend
%%Pages: (atend)
%%DocumentNeededResources: (atend)
%%EndComments
%%BeginProlog
%+ prolog.ps -- Prolog for IDL generated PostScript files
%+ Copyright (c) 1988-2009 ITT Visual Information Solutions. All Rights Reserved.
%v 5
/$IDL_DICT 40 dict def $IDL_DICT begin /bdef { bind def } bind def /C
{currentpoint newpath moveto} bdef /CP {currentpoint} bdef /D {currentpoint
stroke moveto} bdef /F {closepath fill} bdef /K { setgray } bdef /M {moveto}
bdef /N {rmoveto} bdef /P {lineto} bdef /R {rlineto} bdef /S {gsave show
grestore} bdef /X {currentpoint pop} bdef /Z {gsave currentpoint lineto 20
setlinewidth 1 setlinecap stroke grestore} bdef /L0 {[] 0 setdash} bdef /L1
{[40 100] 0 setdash} bdef /L2 {[200 200] 0 setdash} bdef /L3 {[200 100 50
100] 0 setdash} bdef /L4 {[300 100 50 100 50 100 50 100] 0 setdash} bdef /L5
{[400 200] 0 setdash} bdef /STDFONT { findfont exch scalefont setfont } bdef
/ISOFONT { findfont dup length dict begin { 1 index /FID ne {def} {pop pop}
ifelse } forall /Encoding ISOLatin1Encoding def currentdict end /idltmpfont
exch definefont exch scalefont setfont } bdef /ISOBULLET { gsave /Helvetica
findfont exch scalefont setfont (\267) show currentpoint grestore moveto}
bdef /MITERLIMIT { 2.5 setmiterlimit } bdef end
%%EndProlog
%%Page: 0 1
%%PageRequirements: color
%%PageResources: (atend)
%%PageOrientation: Portrait
%%PageBoundingBox: 0 0 510 425
%%BeginPageSetup
$IDL_DICT begin 0.0283465 dup scale MITERLIMIT
%%IncludeResource: font Helvetica
423.333 /Helvetica STDFONT
%%EndPageSetup
0.000 0.000 0.000 setrgbcolor gsave 9930 352 translate 0 0 M -1472.54 0 N
(log[M) show X -101.051 M
%%IncludeResource: font Helvetica-Bold
262.467 /Helvetica-Bold STDFONT
(*) show X 0 M
%%IncludeResource: font Helvetica
423.333 /Helvetica STDFONT
( / \(h) show X 192.937 M
%%IncludeResource: font Helvetica
262.467 /Helvetica STDFONT
(-2) show X 0 M
%%IncludeResource: font Helvetica
423.333 /Helvetica STDFONT
(M) show CP X -101.051 M
%%IncludeResource: font AvantGarde-Book
262.467 /AvantGarde-Book STDFONT
(O) show M X -58.3193 M
%%IncludeResource: font AvantGarde-Book
186.267 /AvantGarde-Book STDFONT
( \267) show X 0 M
%%IncludeResource: font Helvetica
423.333 /Helvetica STDFONT
(\)]) show grestore gsave 888 7852 translate 0 0 M 90 rotate -2211.8 0 N
%%IncludeResource: font Symbol
423.333 /Symbol STDFONT
(f) show
%%IncludeResource: font Helvetica
423.333 /Helvetica STDFONT
(\(M) show X -101.051 M
%%IncludeResource: font Helvetica-Bold
262.467 /Helvetica-Bold STDFONT
(*) show X 0 M
%%IncludeResource: font Helvetica
423.333 /Helvetica STDFONT
(\) / \(h) show X 192.937 M
%%IncludeResource: font Helvetica
262.467 /Helvetica STDFONT
(3) show X 0 M
%%IncludeResource: font Helvetica
423.333 /Helvetica STDFONT
(Mpc) show X 192.937 M
%%IncludeResource: font Helvetica
262.467 /Helvetica STDFONT
(-3) show X 0 M
%%IncludeResource: font Helvetica
423.333 /Helvetica STDFONT
(log) show X 192.937 M
%%IncludeResource: font Helvetica
262.467 /Helvetica STDFONT
(-1) show X 0 M
%%IncludeResource: font Helvetica
423.333 /Helvetica STDFONT
(M) show X -101.051 M
%%IncludeResource: font Helvetica-Bold
262.467 /Helvetica-Bold STDFONT
(*) show X 0 M
%%IncludeResource: font Helvetica
423.333 /Helvetica STDFONT
(\)) show grestore gsave 4790 14400 translate 0 0 M -523.663 0 N
(z~0.0) show grestore 30 setlinewidth L0 2220 10000 M 5140 0 R D
3434 10000 M 0 129 R D gsave 3434 9472 translate 0 0 M -58.8433 0 N
( ) show grestore 4661 10000 M 0 129 R D gsave 4661 9472 translate 0 0 M
-58.8433 0 N
( ) show grestore 5888 10000 M 0 129 R D gsave 5888 9472 translate 0 0 M
-58.8433 0 N
( ) show grestore 7115 10000 M 0 129 R D gsave 7115 9472 translate 0 0 M
-58.8433 0 N
( ) show grestore 2330 10000 M 0 64 R D 2453 10000 M 0 64 R D 2576 10000 M
0 64 R D 2698 10000 M 0 64 R D 2821 10000 M 0 64 R D 2944 10000 M 0 64 R D
3066 10000 M 0 64 R D 3189 10000 M 0 64 R D 3312 10000 M 0 64 R D
3557 10000 M 0 64 R D 3680 10000 M 0 64 R D 3803 10000 M 0 64 R D
3925 10000 M 0 64 R D 4048 10000 M 0 64 R D 4171 10000 M 0 64 R D
4293 10000 M 0 64 R D 4416 10000 M 0 64 R D 4539 10000 M 0 64 R D
4784 10000 M 0 64 R D 4907 10000 M 0 64 R D 5029 10000 M 0 64 R D
5152 10000 M 0 64 R D 5275 10000 M 0 64 R D 5397 10000 M 0 64 R D
5520 10000 M 0 64 R D 5643 10000 M 0 64 R D 5765 10000 M 0 64 R D
6011 10000 M 0 64 R D 6133 10000 M 0 64 R D 6256 10000 M 0 64 R D
6379 10000 M 0 64 R D 6501 10000 M 0 64 R D 6624 10000 M 0 64 R D
6747 10000 M 0 64 R D 6869 10000 M 0 64 R D 6992 10000 M 0 64 R D
7237 10000 M 0 64 R D 7360 10000 M 0 64 R D 2220 14296 M 5140 0 R D
3434 14296 M 0 -129 R D 4661 14296 M 0 -129 R D 5888 14296 M 0 -129 R D
7115 14296 M 0 -129 R D 2330 14296 M 0 -64 R D 2453 14296 M 0 -64 R D
2576 14296 M 0 -64 R D 2698 14296 M 0 -64 R D 2821 14296 M 0 -64 R D
2944 14296 M 0 -64 R D 3066 14296 M 0 -64 R D 3189 14296 M 0 -64 R D
3312 14296 M 0 -64 R D 3557 14296 M 0 -64 R D 3680 14296 M 0 -64 R D
3803 14296 M 0 -64 R D 3925 14296 M 0 -64 R D 4048 14296 M 0 -64 R D
4171 14296 M 0 -64 R D 4293 14296 M 0 -64 R D 4416 14296 M 0 -64 R D
4539 14296 M 0 -64 R D 4784 14296 M 0 -64 R D 4907 14296 M 0 -64 R D
5029 14296 M 0 -64 R D 5152 14296 M 0 -64 R D 5275 14296 M 0 -64 R D
5397 14296 M 0 -64 R D 5520 14296 M 0 -64 R D 5643 14296 M 0 -64 R D
5765 14296 M 0 -64 R D 6011 14296 M 0 -64 R D 6133 14296 M 0 -64 R D
6256 14296 M 0 -64 R D 6379 14296 M 0 -64 R D 6501 14296 M 0 -64 R D
6624 14296 M 0 -64 R D 6747 14296 M 0 -64 R D 6869 14296 M 0 -64 R D
6992 14296 M 0 -64 R D 7237 14296 M 0 -64 R D 7360 14296 M 0 -64 R D
2220 10000 M 0 4296 R D 2220 10428 M 154 0 R D
gsave 2109 10287 translate 0 0 M -704.08 0 N
(10) show X 192.937 M
%%IncludeResource: font Helvetica
262.467 /Helvetica STDFONT
(-6) show grestore
%%IncludeResource: font Helvetica
423.333 /Helvetica STDFONT 2220 11288 M 154 0 R D
gsave 2109 11147 translate 0 0 M -704.08 0 N
(10) show X 192.937 M
%%IncludeResource: font Helvetica
262.467 /Helvetica STDFONT
(-4) show grestore
%%IncludeResource: font Helvetica
423.333 /Helvetica STDFONT 2220 12148 M 154 0 R D
gsave 2109 12007 translate 0 0 M -704.08 0 N
(10) show X 192.937 M
%%IncludeResource: font Helvetica
262.467 /Helvetica STDFONT
(-2) show grestore
%%IncludeResource: font Helvetica
423.333 /Helvetica STDFONT 2220 13008 M 154 0 R D
gsave 2109 12867 translate 0 0 M -616.678 0 N
(10) show X 192.937 M
%%IncludeResource: font Helvetica
262.467 /Helvetica STDFONT
(0) show grestore
%%IncludeResource: font Helvetica
423.333 /Helvetica STDFONT 2220 13868 M 154 0 R D
gsave 2109 13727 translate 0 0 M -616.678 0 N
(10) show X 192.937 M
%%IncludeResource: font Helvetica
262.467 /Helvetica STDFONT
(2) show grestore
%%IncludeResource: font Helvetica
423.333 /Helvetica STDFONT 2220 10858 M 77 0 R D 2220 11718 M 77 0 R D
2220 12578 M 77 0 R D 2220 13438 M 77 0 R D 7360 10000 M 0 4296 R D
7360 10428 M -154 0 R D 7360 11288 M -154 0 R D 7360 12148 M -154 0 R D
7360 13008 M -154 0 R D 7360 13868 M -154 0 R D 7360 10858 M -77 0 R D
7360 11718 M -77 0 R D 7360 12578 M -77 0 R D 7360 13438 M -77 0 R D
0.000 0.000 1.000 setrgbcolor 2220 13410 M 233 -47 R 245 -24 R 246 -33 R
245 -7 R 245 -72 R 246 -17 R 245 33 R 246 -23 R 245 -39 R 245 -94 R 246 -6 R
245 -157 R 245 -196 R 246 -576 R 245 80 R 245 -441 R 246 -487 R 245 -782 R
130 -522 R D 2220 13375 M 39 0 R -39 0 R D 2220 13451 M 39 0 R D
2402 13307 M 102 0 R -51 0 R 0 112 R -51 0 R 102 0 R D 2647 13274 M 103 0 R
-52 0 R 0 131 R -51 0 R 103 0 R D 2892 13268 M 103 0 R -51 0 R 0 77 R
-52 0 R 103 0 R D 3138 13216 M 103 0 R -52 0 R 0 165 R -51 0 R 103 0 R D
3383 13175 M 103 0 R -52 0 R 0 105 R -51 0 R 103 0 R D 3628 13131 M 103 0 R
-51 0 R 0 158 R -52 0 R 103 0 R D 3874 13198 M 103 0 R -52 0 R 0 90 R
-51 0 R 103 0 R D 4119 13167 M 103 0 R -51 0 R 0 106 R -52 0 R 103 0 R D
4364 13113 M 103 0 R -51 0 R 0 137 R -52 0 R 103 0 R D 4610 12756 M 103 0 R
-52 0 R 0 662 R -51 0 R 103 0 R D 4855 13002 M 103 0 R -51 0 R 0 157 R
-52 0 R 103 0 R D 5101 12604 M 102 0 R -51 0 R 0 639 R -51 0 R 102 0 R D
5346 12343 M 103 0 R -52 0 R 0 769 R -51 0 R 103 0 R D 5591 11763 M 103 0 R
-51 0 R 0 779 R -52 0 R 103 0 R D 5837 11711 M 102 0 R -51 0 R 0 1041 R
-51 0 R 102 0 R D 6082 11293 M 103 0 R -52 0 R 0 996 R -51 0 R 103 0 R D
6327 10826 M 103 0 R -51 0 R 0 956 R -52 0 R 103 0 R D 6573 10522 M 102 0 R
-51 0 R -51 0 R 102 0 R D 0.761 0.000 0.000 setrgbcolor 2220 13878 M
233 -51 R 245 -45 R 246 -44 R 245 -39 R 245 -45 R 246 -22 R 245 -17 R
246 -7 R 245 -10 R 245 -38 R 246 -93 R 245 -143 R 245 -233 R 246 -142 R
245 -560 R 245 -567 R 246 -503 R 245 -535 R 218 -784 R D 6899 10000 M
216 680 R D 2220 13854 M 39 0 R -39 0 R D 2220 13908 M 39 0 R D 2402 13806 M
102 0 R -51 0 R 0 41 R -51 0 R 102 0 R D 2647 13761 M 103 0 R -52 0 R 0 41 R
-51 0 R 103 0 R D 2892 13719 M 103 0 R -51 0 R 0 37 R -52 0 R 103 0 R D
3138 13683 M 103 0 R -52 0 R 0 33 R -51 0 R 103 0 R D 3383 13639 M 103 0 R
-52 0 R 0 29 R -51 0 R 103 0 R D 3628 13610 M 103 0 R -51 0 R 0 43 R -52 0 R
103 0 R D 3874 13591 M 103 0 R -52 0 R 0 48 R -51 0 R 103 0 R D 4119 13588 M
103 0 R -51 0 R 0 39 R -52 0 R 103 0 R D 4364 13575 M 103 0 R -51 0 R 0 47 R
-52 0 R 103 0 R D 4610 13527 M 103 0 R -52 0 R 0 66 R -51 0 R 103 0 R D
4855 13425 M 103 0 R -51 0 R 0 83 R -52 0 R 103 0 R D 5101 13293 M 102 0 R
-51 0 R 0 62 R -51 0 R 102 0 R D 5346 12970 M 103 0 R -52 0 R 0 241 R
-51 0 R 103 0 R D 5591 12853 M 103 0 R -51 0 R 0 192 R -52 0 R 103 0 R D
5837 11817 M 102 0 R -51 0 R 0 1144 R -51 0 R 102 0 R D 6082 11264 M 103 0 R
-52 0 R 0 1116 R -51 0 R 103 0 R D 6327 10797 M 103 0 R -51 0 R 0 1043 R
-52 0 R 103 0 R D 6624 10000 M 0 1571 R -51 0 R 102 0 R D 6869 10000 M
0 991 R -51 0 R 103 0 R D 7115 10000 M 0 3233 R -52 0 R 103 0 R D
40 setlinewidth 0.000 0.000 1.000 setrgbcolor 2477 10816 M 62 0 R 61 0 R
62 0 R 62 0 R 61 0 R 62 0 R 62 0 R 61 0 R 62 0 R D
0.761 0.000 0.000 setrgbcolor 2477 10387 M 62 0 R 61 0 R 62 0 R 62 0 R
61 0 R 62 0 R 62 0 R 61 0 R 62 0 R D 0.000 0.000 1.000 setrgbcolor
gsave 3094 10756 translate 0 0 M
(Star-forming) show grestore 0.761 0.000 0.000 setrgbcolor
gsave 3094 10326 translate 0 0 M
(Quiescent) show grestore 0.000 0.000 0.000 setrgbcolor
gsave 2477 11289 translate 0 0 M
(<R) show X -101.051 M
%%IncludeResource: font Helvetica
262.467 /Helvetica STDFONT
(200) show grestore
%%IncludeResource: font Helvetica
423.333 /Helvetica STDFONT gsave 9930 14400 translate 0 0 M -523.663 0 N
(z~0.3) show grestore 30 setlinewidth 7360 10000 M 5140 0 R D 8575 10000 M
0 129 R D gsave 8575 9472 translate 0 0 M -58.8433 0 N
( ) show grestore 9801 10000 M 0 129 R D gsave 9801 9472 translate 0 0 M
-58.8433 0 N
( ) show grestore 11028 10000 M 0 129 R D gsave 11028 9472 translate 0 0 M
-58.8433 0 N
( ) show grestore 12255 10000 M 0 129 R D gsave 12255 9472 translate 0 0 M
-58.8433 0 N
( ) show grestore 7470 10000 M 0 64 R D 7593 10000 M 0 64 R D 7716 10000 M
0 64 R D 7838 10000 M 0 64 R D 7961 10000 M 0 64 R D 8084 10000 M 0 64 R D
8207 10000 M 0 64 R D 8329 10000 M 0 64 R D 8452 10000 M 0 64 R D
8697 10000 M 0 64 R D 8820 10000 M 0 64 R D 8943 10000 M 0 64 R D
9065 10000 M 0 64 R D 9188 10000 M 0 64 R D 9311 10000 M 0 64 R D
9433 10000 M 0 64 R D 9556 10000 M 0 64 R D 9679 10000 M 0 64 R D
9924 10000 M 0 64 R D 10047 10000 M 0 64 R D 10169 10000 M 0 64 R D
10292 10000 M 0 64 R D 10415 10000 M 0 64 R D 10537 10000 M 0 64 R D
10660 10000 M 0 64 R D 10783 10000 M 0 64 R D 10905 10000 M 0 64 R D
11151 10000 M 0 64 R D 11273 10000 M 0 64 R D 11396 10000 M 0 64 R D
11519 10000 M 0 64 R D 11641 10000 M 0 64 R D 11764 10000 M 0 64 R D
11887 10000 M 0 64 R D 12009 10000 M 0 64 R D 12132 10000 M 0 64 R D
12377 10000 M 0 64 R D 12500 10000 M 0 64 R D 7360 14296 M 5140 0 R D
8575 14296 M 0 -129 R D 9801 14296 M 0 -129 R D 11028 14296 M 0 -129 R D
12255 14296 M 0 -129 R D 7470 14296 M 0 -64 R D 7593 14296 M 0 -64 R D
7716 14296 M 0 -64 R D 7838 14296 M 0 -64 R D 7961 14296 M 0 -64 R D
8084 14296 M 0 -64 R D 8207 14296 M 0 -64 R D 8329 14296 M 0 -64 R D
8452 14296 M 0 -64 R D 8697 14296 M 0 -64 R D 8820 14296 M 0 -64 R D
8943 14296 M 0 -64 R D 9065 14296 M 0 -64 R D 9188 14296 M 0 -64 R D
9311 14296 M 0 -64 R D 9433 14296 M 0 -64 R D 9556 14296 M 0 -64 R D
9679 14296 M 0 -64 R D 9924 14296 M 0 -64 R D 10047 14296 M 0 -64 R D
10169 14296 M 0 -64 R D 10292 14296 M 0 -64 R D 10415 14296 M 0 -64 R D
10537 14296 M 0 -64 R D 10660 14296 M 0 -64 R D 10783 14296 M 0 -64 R D
10905 14296 M 0 -64 R D 11151 14296 M 0 -64 R D 11273 14296 M 0 -64 R D
11396 14296 M 0 -64 R D 11519 14296 M 0 -64 R D 11641 14296 M 0 -64 R D
11764 14296 M 0 -64 R D 11887 14296 M 0 -64 R D 12009 14296 M 0 -64 R D
12132 14296 M 0 -64 R D 12377 14296 M 0 -64 R D 12500 14296 M 0 -64 R D
7360 10000 M 0 4296 R D 7360 10428 M 154 0 R D
gsave 7249 10287 translate 0 0 M -117.687 0 N
( ) show grestore 7360 11288 M 154 0 R D gsave 7249 11147 translate 0 0 M
-117.687 0 N
( ) show grestore 7360 12148 M 154 0 R D gsave 7249 12007 translate 0 0 M
-117.687 0 N
( ) show grestore 7360 13008 M 154 0 R D gsave 7249 12867 translate 0 0 M
-117.687 0 N
( ) show grestore 7360 13868 M 154 0 R D gsave 7249 13727 translate 0 0 M
-117.687 0 N
( ) show grestore 7360 10858 M 77 0 R D 7360 11718 M 77 0 R D 7360 12578 M
77 0 R D 7360 13438 M 77 0 R D 12500 10000 M 0 4296 R D 12500 10428 M
-154 0 R D 12500 11288 M -154 0 R D 12500 12148 M -154 0 R D 12500 13008 M
-154 0 R D 12500 13868 M -154 0 R D 12500 10858 M -77 0 R D 12500 11718 M
-77 0 R D 12500 12578 M -77 0 R D 12500 13438 M -77 0 R D
0.000 0.000 1.000 setrgbcolor 7360 13538 M 114 -9 R 246 -57 R 245 -25 R
245 5 R 246 -67 R 245 -49 R 245 14 R 246 14 R 245 -9 R 245 13 R 246 -70 R
245 -184 R 245 -301 R 246 -259 R 245 -413 R 245 -42 R 246 -570 R 245 -670 R
246 -787 R 14 -72 R D 7423 13485 M 103 0 R -52 0 R 0 87 R -51 0 R 103 0 R D
7668 13393 M 103 0 R -51 0 R 0 157 R -52 0 R 103 0 R D 7914 13403 M 102 0 R
-51 0 R 0 88 R -51 0 R 102 0 R D 8159 13391 M 103 0 R -52 0 R 0 122 R
-51 0 R 103 0 R D 8404 13349 M 103 0 R -51 0 R 0 71 R -52 0 R 103 0 R D
8650 13266 M 102 0 R -51 0 R 0 141 R -51 0 R 102 0 R D 8895 13283 M 103 0 R
-52 0 R 0 133 R -51 0 R 103 0 R D 9140 13306 M 103 0 R -51 0 R 0 116 R
-52 0 R 103 0 R D 9386 13315 M 102 0 R -51 0 R 0 80 R -51 0 R 102 0 R D
9631 13295 M 103 0 R -52 0 R 0 145 R -51 0 R 103 0 R D 9876 13250 M 103 0 R
-51 0 R 0 96 R -52 0 R 103 0 R D 10122 12750 M 102 0 R -51 0 R 0 727 R
-51 0 R 102 0 R D 10367 12402 M 103 0 R -52 0 R 0 822 R -51 0 R 103 0 R D
10612 12038 M 103 0 R -51 0 R 0 1033 R -52 0 R 103 0 R D 10858 11623 M
103 0 R -52 0 R 0 1037 R -51 0 R 103 0 R D 11103 11466 M 103 0 R -52 0 R
0 1267 R -51 0 R 103 0 R D 11348 11019 M 103 0 R -51 0 R 0 1020 R -52 0 R
103 0 R D 11594 10859 M 103 0 R -52 0 R -51 0 R 103 0 R D 11839 10072 M
103 0 R -51 0 R -52 0 R 103 0 R D 0.761 0.000 0.000 setrgbcolor 7360 13909 M
114 -21 R 246 -41 R 245 -47 R 245 -41 R 246 -51 R 245 -10 R 245 -25 R
246 -19 R 245 -3 R 245 -18 R 246 -80 R 245 -170 R 245 -232 R 246 -317 R
245 -577 R 245 -468 R 246 -103 R 245 -624 R 246 622 R 245 -1483 R D
7423 13847 M 103 0 R -52 0 R 0 83 R -51 0 R 103 0 R D 7668 13812 M 103 0 R
-51 0 R 0 71 R -52 0 R 103 0 R D 7914 13768 M 102 0 R -51 0 R 0 65 R -51 0 R
102 0 R D 8159 13728 M 103 0 R -52 0 R 0 62 R -51 0 R 103 0 R D 8404 13669 M
103 0 R -51 0 R 0 77 R -52 0 R 103 0 R D 8650 13652 M 102 0 R -51 0 R 0 92 R
-51 0 R 102 0 R D 8895 13643 M 103 0 R -52 0 R 0 61 R -51 0 R 103 0 R D
9140 13617 M 103 0 R -51 0 R 0 74 R -52 0 R 103 0 R D 9386 13567 M 102 0 R
-51 0 R 0 167 R -51 0 R 102 0 R D 9631 13600 M 103 0 R -52 0 R 0 67 R
-51 0 R 103 0 R D 9876 13489 M 103 0 R -51 0 R 0 128 R -52 0 R 103 0 R D
10122 13267 M 102 0 R -51 0 R 0 231 R -51 0 R 102 0 R D 10367 12754 M
103 0 R -52 0 R 0 794 R -51 0 R 103 0 R D 10612 12358 M 103 0 R -51 0 R
0 951 R -52 0 R 103 0 R D 10858 11692 M 103 0 R -52 0 R 0 1130 R -51 0 R
103 0 R D 11103 11454 M 103 0 R -52 0 R 0 671 R -51 0 R 103 0 R D
11348 11033 M 103 0 R -51 0 R 0 1306 R -52 0 R 103 0 R D 11594 10454 M
103 0 R -52 0 R 0 1216 R -51 0 R 103 0 R D 11839 10155 M 103 0 R -51 0 R
0 3058 R -52 0 R 103 0 R D 12136 10000 M 0 2257 R -52 0 R 103 0 R D
0.000 0.000 0.000 setrgbcolor gsave 15070 14400 translate 0 0 M -523.663 0 N
(z~1.0) show grestore 12500 10000 M 5140 0 R D 13715 10000 M 0 129 R D
gsave 13715 9472 translate 0 0 M -58.8433 0 N
( ) show grestore 14941 10000 M 0 129 R D gsave 14941 9472 translate 0 0 M
-58.8433 0 N
( ) show grestore 16168 10000 M 0 129 R D gsave 16168 9472 translate 0 0 M
-58.8433 0 N
( ) show grestore 17395 10000 M 0 129 R D gsave 17395 9472 translate 0 0 M
-58.8433 0 N
( ) show grestore 12611 10000 M 0 64 R D 12733 10000 M 0 64 R D
12856 10000 M 0 64 R D 12979 10000 M 0 64 R D 13101 10000 M 0 64 R D
13224 10000 M 0 64 R D 13347 10000 M 0 64 R D 13469 10000 M 0 64 R D
13592 10000 M 0 64 R D 13837 10000 M 0 64 R D 13960 10000 M 0 64 R D
14083 10000 M 0 64 R D 14205 10000 M 0 64 R D 14328 10000 M 0 64 R D
14451 10000 M 0 64 R D 14573 10000 M 0 64 R D 14696 10000 M 0 64 R D
14819 10000 M 0 64 R D 15064 10000 M 0 64 R D 15187 10000 M 0 64 R D
15309 10000 M 0 64 R D 15432 10000 M 0 64 R D 15555 10000 M 0 64 R D
15677 10000 M 0 64 R D 15800 10000 M 0 64 R D 15923 10000 M 0 64 R D
16045 10000 M 0 64 R D 16291 10000 M 0 64 R D 16413 10000 M 0 64 R D
16536 10000 M 0 64 R D 16659 10000 M 0 64 R D 16781 10000 M 0 64 R D
16904 10000 M 0 64 R D 17027 10000 M 0 64 R D 17149 10000 M 0 64 R D
17272 10000 M 0 64 R D 17518 10000 M 0 64 R D 17640 10000 M 0 64 R D
12500 14296 M 5140 0 R D 13715 14296 M 0 -129 R D 14941 14296 M 0 -129 R D
16168 14296 M 0 -129 R D 17395 14296 M 0 -129 R D 12611 14296 M 0 -64 R D
12733 14296 M 0 -64 R D 12856 14296 M 0 -64 R D 12979 14296 M 0 -64 R D
13101 14296 M 0 -64 R D 13224 14296 M 0 -64 R D 13347 14296 M 0 -64 R D
13469 14296 M 0 -64 R D 13592 14296 M 0 -64 R D 13837 14296 M 0 -64 R D
13960 14296 M 0 -64 R D 14083 14296 M 0 -64 R D 14205 14296 M 0 -64 R D
14328 14296 M 0 -64 R D 14451 14296 M 0 -64 R D 14573 14296 M 0 -64 R D
14696 14296 M 0 -64 R D 14819 14296 M 0 -64 R D 15064 14296 M 0 -64 R D
15187 14296 M 0 -64 R D 15309 14296 M 0 -64 R D 15432 14296 M 0 -64 R D
15555 14296 M 0 -64 R D 15677 14296 M 0 -64 R D 15800 14296 M 0 -64 R D
15923 14296 M 0 -64 R D 16045 14296 M 0 -64 R D 16291 14296 M 0 -64 R D
16413 14296 M 0 -64 R D 16536 14296 M 0 -64 R D 16659 14296 M 0 -64 R D
16781 14296 M 0 -64 R D 16904 14296 M 0 -64 R D 17027 14296 M 0 -64 R D
17149 14296 M 0 -64 R D 17272 14296 M 0 -64 R D 17518 14296 M 0 -64 R D
17640 14296 M 0 -64 R D 12500 10000 M 0 4296 R D 12500 10428 M 154 0 R D
gsave 12389 10287 translate 0 0 M -117.687 0 N
( ) show grestore 12500 11288 M 154 0 R D gsave 12389 11147 translate 0 0 M
-117.687 0 N
( ) show grestore 12500 12148 M 154 0 R D gsave 12389 12007 translate 0 0 M
-117.687 0 N
( ) show grestore 12500 13008 M 154 0 R D gsave 12389 12867 translate 0 0 M
-117.687 0 N
( ) show grestore 12500 13868 M 154 0 R D gsave 12389 13727 translate 0 0 M
-117.687 0 N
( ) show grestore 12500 10858 M 77 0 R D 12500 11718 M 77 0 R D
12500 12578 M 77 0 R D 12500 13438 M 77 0 R D 17640 10000 M 0 4296 R D
17640 10428 M -154 0 R D 17640 11288 M -154 0 R D 17640 12148 M -154 0 R D
17640 13008 M -154 0 R D 17640 13868 M -154 0 R D 17640 10858 M -77 0 R D
17640 11718 M -77 0 R D 17640 12578 M -77 0 R D 17640 13438 M -77 0 R D
0.000 0.000 1.000 setrgbcolor 12500 13837 M 206 -51 R 246 -6 R 245 -19 R
245 -66 R 246 -26 R 245 -9 R 245 -4 R 246 14 R 245 57 R 246 12 R 245 -124 R
245 -476 R 246 -366 R 245 -385 R 245 -439 R 246 204 R 245 -956 R 245 -592 R
159 -605 R D 12500 13787 M 12 0 R -12 0 R D 12500 13906 M 12 0 R D
12655 13733 M 103 0 R -52 0 R 0 106 R -51 0 R 103 0 R D 12900 13717 M
103 0 R -51 0 R 0 127 R -52 0 R 103 0 R D 13146 13690 M 102 0 R -51 0 R
0 142 R -51 0 R 102 0 R D 13391 13633 M 103 0 R -52 0 R 0 123 R -51 0 R
103 0 R D 13636 13606 M 103 0 R -51 0 R 0 126 R -52 0 R 103 0 R D
13882 13551 M 103 0 R -52 0 R 0 218 R -51 0 R 103 0 R D 14127 13585 M
103 0 R -52 0 R 0 142 R -51 0 R 103 0 R D 14372 13572 M 103 0 R -51 0 R
0 197 R -52 0 R 103 0 R D 14618 13657 M 103 0 R -52 0 R 0 140 R -51 0 R
103 0 R D 14863 13677 M 103 0 R -51 0 R 0 124 R -52 0 R 103 0 R D
15108 13541 M 103 0 R -51 0 R 0 149 R -52 0 R 103 0 R D 15354 12570 M
103 0 R -52 0 R 0 1138 R -51 0 R 103 0 R D 15599 12103 M 103 0 R -51 0 R
0 1340 R -52 0 R 103 0 R D 15845 11761 M 102 0 R -51 0 R 0 1253 R -51 0 R
102 0 R D 16090 11548 M 103 0 R -52 0 R 0 802 R -51 0 R 103 0 R D
16335 11282 M 103 0 R -51 0 R 0 1742 R -52 0 R 103 0 R D 16581 11197 M
102 0 R -51 0 R -51 0 R 102 0 R D 16826 10605 M 103 0 R -52 0 R -51 0 R
103 0 R D 0.761 0.000 0.000 setrgbcolor 12500 14079 M 206 -55 R 246 -37 R
245 -58 R 245 -32 R 246 -67 R 245 -13 R 245 -4 R 246 3 R 245 -36 R 246 -98 R
245 -249 R 245 -24 R 246 -353 R 245 -945 R 245 -296 R 246 -241 R 245 107 R
245 -203 R 246 -1420 R D 12500 14066 M 12 0 R -12 0 R D 12500 14113 M 12 0 R
D 12655 13995 M 103 0 R -52 0 R 0 57 R -51 0 R 103 0 R D 12900 13956 M
103 0 R -51 0 R 0 62 R -52 0 R 103 0 R D 13146 13893 M 102 0 R -51 0 R
0 72 R -51 0 R 102 0 R D 13391 13847 M 103 0 R -52 0 R 0 101 R -51 0 R
103 0 R D 13636 13733 M 103 0 R -51 0 R 0 194 R -52 0 R 103 0 R D
13882 13738 M 103 0 R -52 0 R 0 159 R -51 0 R 103 0 R D 14127 13735 M
103 0 R -52 0 R 0 156 R -51 0 R 103 0 R D 14372 13744 M 103 0 R -51 0 R
0 144 R -52 0 R 103 0 R D 14618 13740 M 103 0 R -52 0 R 0 81 R -51 0 R
103 0 R D 14863 13613 M 103 0 R -51 0 R 0 139 R -52 0 R 103 0 R D
15108 12960 M 103 0 R -51 0 R 0 947 R -52 0 R 103 0 R D 15354 13328 M
103 0 R -52 0 R 0 162 R -51 0 R 103 0 R D 15599 12494 M 103 0 R -51 0 R
0 1125 R -52 0 R 103 0 R D 15845 11690 M 102 0 R -51 0 R 0 842 R -51 0 R
102 0 R D 16090 11815 M 103 0 R -52 0 R -51 0 R 103 0 R D 16335 11574 M
103 0 R -51 0 R -52 0 R 103 0 R D 16581 10721 M 102 0 R -51 0 R 0 1921 R
-51 0 R 102 0 R D 16826 10168 M 103 0 R -52 0 R 0 2620 R -51 0 R 103 0 R D
17123 10000 M 0 1219 R -52 0 R 103 0 R D 0.000 0.000 0.000 setrgbcolor
2220 5704 M 5140 0 R D 3434 5704 M 0 129 R D gsave 3434 5176 translate 0 0 M
-58.8433 0 N
( ) show grestore 4661 5704 M 0 129 R D gsave 4661 5176 translate 0 0 M
-58.8433 0 N
( ) show grestore 5888 5704 M 0 129 R D gsave 5888 5176 translate 0 0 M
-58.8433 0 N
( ) show grestore 7115 5704 M 0 129 R D gsave 7115 5176 translate 0 0 M
-58.8433 0 N
( ) show grestore 2330 5704 M 0 64 R D 2453 5704 M 0 64 R D 2576 5704 M
0 64 R D 2698 5704 M 0 64 R D 2821 5704 M 0 64 R D 2944 5704 M 0 64 R D
3066 5704 M 0 64 R D 3189 5704 M 0 64 R D 3312 5704 M 0 64 R D 3557 5704 M
0 64 R D 3680 5704 M 0 64 R D 3803 5704 M 0 64 R D 3925 5704 M 0 64 R D
4048 5704 M 0 64 R D 4171 5704 M 0 64 R D 4293 5704 M 0 64 R D 4416 5704 M
0 64 R D 4539 5704 M 0 64 R D 4784 5704 M 0 64 R D 4907 5704 M 0 64 R D
5029 5704 M 0 64 R D 5152 5704 M 0 64 R D 5275 5704 M 0 64 R D 5397 5704 M
0 64 R D 5520 5704 M 0 64 R D 5643 5704 M 0 64 R D 5765 5704 M 0 64 R D
6011 5704 M 0 64 R D 6133 5704 M 0 64 R D 6256 5704 M 0 64 R D 6379 5704 M
0 64 R D 6501 5704 M 0 64 R D 6624 5704 M 0 64 R D 6747 5704 M 0 64 R D
6869 5704 M 0 64 R D 6992 5704 M 0 64 R D 7237 5704 M 0 64 R D 7360 5704 M
0 64 R D 2220 10000 M 5140 0 R D 3434 10000 M 0 -129 R D 4661 10000 M
0 -129 R D 5888 10000 M 0 -129 R D 7115 10000 M 0 -129 R D 2330 10000 M
0 -64 R D 2453 10000 M 0 -64 R D 2576 10000 M 0 -64 R D 2698 10000 M 0 -64 R
D 2821 10000 M 0 -64 R D 2944 10000 M 0 -64 R D 3066 10000 M 0 -64 R D
3189 10000 M 0 -64 R D 3312 10000 M 0 -64 R D 3557 10000 M 0 -64 R D
3680 10000 M 0 -64 R D 3803 10000 M 0 -64 R D 3925 10000 M 0 -64 R D
4048 10000 M 0 -64 R D 4171 10000 M 0 -64 R D 4293 10000 M 0 -64 R D
4416 10000 M 0 -64 R D 4539 10000 M 0 -64 R D 4784 10000 M 0 -64 R D
4907 10000 M 0 -64 R D 5029 10000 M 0 -64 R D 5152 10000 M 0 -64 R D
5275 10000 M 0 -64 R D 5397 10000 M 0 -64 R D 5520 10000 M 0 -64 R D
5643 10000 M 0 -64 R D 5765 10000 M 0 -64 R D 6011 10000 M 0 -64 R D
6133 10000 M 0 -64 R D 6256 10000 M 0 -64 R D 6379 10000 M 0 -64 R D
6501 10000 M 0 -64 R D 6624 10000 M 0 -64 R D 6747 10000 M 0 -64 R D
6869 10000 M 0 -64 R D 6992 10000 M 0 -64 R D 7237 10000 M 0 -64 R D
7360 10000 M 0 -64 R D 2220 5704 M 0 4296 R D 2220 6562 M 154 0 R D
gsave 2109 6421 translate 0 0 M -704.08 0 N
(10) show X 192.937 M
%%IncludeResource: font Helvetica
262.467 /Helvetica STDFONT
(-6) show grestore
%%IncludeResource: font Helvetica
423.333 /Helvetica STDFONT 2220 7422 M 154 0 R D
gsave 2109 7281 translate 0 0 M -704.08 0 N
(10) show X 192.937 M
%%IncludeResource: font Helvetica
262.467 /Helvetica STDFONT
(-4) show grestore
%%IncludeResource: font Helvetica
423.333 /Helvetica STDFONT 2220 8282 M 154 0 R D
gsave 2109 8141 translate 0 0 M -704.08 0 N
(10) show X 192.937 M
%%IncludeResource: font Helvetica
262.467 /Helvetica STDFONT
(-2) show grestore
%%IncludeResource: font Helvetica
423.333 /Helvetica STDFONT 2220 9142 M 154 0 R D
gsave 2109 9001 translate 0 0 M -616.678 0 N
(10) show X 192.937 M
%%IncludeResource: font Helvetica
262.467 /Helvetica STDFONT
(0) show grestore
%%IncludeResource: font Helvetica
423.333 /Helvetica STDFONT 2220 6132 M 77 0 R D 2220 6992 M 77 0 R D
2220 7852 M 77 0 R D 2220 8712 M 77 0 R D 2220 9572 M 77 0 R D 7360 5704 M
0 4296 R D 7360 6562 M -154 0 R D 7360 7422 M -154 0 R D 7360 8282 M
-154 0 R D 7360 9142 M -154 0 R D 7360 6132 M -77 0 R D 7360 6992 M -77 0 R
D 7360 7852 M -77 0 R D 7360 8712 M -77 0 R D 7360 9572 M -77 0 R D
0.000 0.000 1.000 setrgbcolor 2220 9106 M 43 -7 R 245 -29 R 246 -27 R
245 -32 R 245 -45 R 246 -38 R 245 -41 R 245 -32 R 246 -35 R 245 -113 R
246 -38 R 245 -57 R 245 32 R 246 -711 R 245 -633 R 245 131 R 246 -525 R
245 -604 R 212 -599 R D 2220 9037 M 94 0 R -51 0 R 0 123 R -43 0 R 94 0 R D
2457 9027 M 103 0 R -52 0 R 0 85 R -51 0 R 103 0 R D 2702 9030 M 103 0 R
-51 0 R 0 27 R -52 0 R 103 0 R D 2948 8969 M 103 0 R -52 0 R 0 83 R -51 0 R
103 0 R D 3193 8891 M 103 0 R -52 0 R 0 150 R -51 0 R 103 0 R D 3438 8851 M
103 0 R -51 0 R 0 155 R -52 0 R 103 0 R D 3684 8833 M 103 0 R -52 0 R
0 107 R -51 0 R 103 0 R D 3929 8807 M 103 0 R -52 0 R 0 96 R -51 0 R 103 0 R
D 4174 8766 M 103 0 R -51 0 R 0 109 R -52 0 R 103 0 R D 4420 8623 M 103 0 R
-52 0 R 0 169 R -51 0 R 103 0 R D 4665 8574 M 103 0 R -51 0 R 0 190 R
-52 0 R 103 0 R D 4910 8497 M 103 0 R -51 0 R 0 229 R -52 0 R 103 0 R D
5156 8567 M 103 0 R -52 0 R 0 155 R -51 0 R 103 0 R D 5401 7346 M 103 0 R
-51 0 R 0 1174 R -52 0 R 103 0 R D 5647 6999 M 102 0 R -51 0 R 0 603 R
-51 0 R 102 0 R D 5892 6811 M 103 0 R -52 0 R 0 1241 R -51 0 R 103 0 R D
6137 6408 M 103 0 R -51 0 R 0 996 R -52 0 R 103 0 R D 6383 6302 M 102 0 R
-51 0 R -51 0 R 102 0 R D 0.761 0.000 0.000 setrgbcolor 2220 9291 M 43 -6 R
245 -41 R 246 -53 R 245 -60 R 245 -29 R 246 -54 R 245 -39 R 245 -6 R
246 -11 R 245 3 R 246 -31 R 245 -82 R 245 -176 R 246 -368 R 245 -430 R
245 -450 R 246 -566 R 245 -590 R 212 -599 R D 2220 9251 M 94 0 R -51 0 R
0 69 R -43 0 R 94 0 R D 2457 9208 M 103 0 R -52 0 R 0 73 R -51 0 R 103 0 R D
2702 9153 M 103 0 R -51 0 R 0 75 R -52 0 R 103 0 R D 2948 9090 M 103 0 R
-52 0 R 0 81 R -51 0 R 103 0 R D 3193 9061 M 103 0 R -52 0 R 0 82 R -51 0 R
103 0 R D 3438 9026 M 103 0 R -51 0 R 0 44 R -52 0 R 103 0 R D 3684 8963 M
103 0 R -52 0 R 0 91 R -51 0 R 103 0 R D 3929 8964 M 103 0 R -52 0 R 0 78 R
-51 0 R 103 0 R D 4174 8959 M 103 0 R -51 0 R 0 67 R -52 0 R 103 0 R D
4420 8952 M 103 0 R -52 0 R 0 85 R -51 0 R 103 0 R D 4665 8910 M 103 0 R
-51 0 R 0 108 R -52 0 R 103 0 R D 4910 8804 M 103 0 R -51 0 R 0 157 R
-52 0 R 103 0 R D 5156 8623 M 103 0 R -52 0 R 0 165 R -51 0 R 103 0 R D
5401 7942 M 103 0 R -51 0 R 0 791 R -52 0 R 103 0 R D 5647 7233 M 102 0 R
-51 0 R 0 1350 R -51 0 R 102 0 R D 5892 6800 M 103 0 R -52 0 R 0 1315 R
-51 0 R 103 0 R D 6137 6437 M 103 0 R -51 0 R 0 910 R -52 0 R 103 0 R D
6383 6302 M 102 0 R -51 0 R -51 0 R 102 0 R D 40 setlinewidth
0.000 0.000 1.000 setrgbcolor 2477 6520 M 62 0 R 61 0 R 62 0 R 62 0 R 61 0 R
62 0 R 62 0 R 61 0 R 62 0 R D 0.761 0.000 0.000 setrgbcolor 2477 6091 M
62 0 R 61 0 R 62 0 R 62 0 R 61 0 R 62 0 R 62 0 R 61 0 R 62 0 R D
0.000 0.000 1.000 setrgbcolor gsave 3094 6460 translate 0 0 M
(Star-forming) show grestore 0.761 0.000 0.000 setrgbcolor
gsave 3094 6030 translate 0 0 M
(Quiescent) show grestore 0.000 0.000 0.000 setrgbcolor
gsave 2477 6993 translate 0 0 M
([R) show X -101.051 M
%%IncludeResource: font Helvetica
262.467 /Helvetica STDFONT
(200) show X 0 M
%%IncludeResource: font Helvetica
423.333 /Helvetica STDFONT
(,3R) show X -101.051 M
%%IncludeResource: font Helvetica
262.467 /Helvetica STDFONT
(200) show X 0 M
%%IncludeResource: font Helvetica
423.333 /Helvetica STDFONT
(]) show grestore 30 setlinewidth 7360 5704 M 5140 0 R D 8575 5704 M 0 129 R
D gsave 8575 5176 translate 0 0 M -58.8433 0 N
( ) show grestore 9801 5704 M 0 129 R D gsave 9801 5176 translate 0 0 M
-58.8433 0 N
( ) show grestore 11028 5704 M 0 129 R D gsave 11028 5176 translate 0 0 M
-58.8433 0 N
( ) show grestore 12255 5704 M 0 129 R D gsave 12255 5176 translate 0 0 M
-58.8433 0 N
( ) show grestore 7470 5704 M 0 64 R D 7593 5704 M 0 64 R D 7716 5704 M
0 64 R D 7838 5704 M 0 64 R D 7961 5704 M 0 64 R D 8084 5704 M 0 64 R D
8207 5704 M 0 64 R D 8329 5704 M 0 64 R D 8452 5704 M 0 64 R D 8697 5704 M
0 64 R D 8820 5704 M 0 64 R D 8943 5704 M 0 64 R D 9065 5704 M 0 64 R D
9188 5704 M 0 64 R D 9311 5704 M 0 64 R D 9433 5704 M 0 64 R D 9556 5704 M
0 64 R D 9679 5704 M 0 64 R D 9924 5704 M 0 64 R D 10047 5704 M 0 64 R D
10169 5704 M 0 64 R D 10292 5704 M 0 64 R D 10415 5704 M 0 64 R D
10537 5704 M 0 64 R D 10660 5704 M 0 64 R D 10783 5704 M 0 64 R D
10905 5704 M 0 64 R D 11151 5704 M 0 64 R D 11273 5704 M 0 64 R D
11396 5704 M 0 64 R D 11519 5704 M 0 64 R D 11641 5704 M 0 64 R D
11764 5704 M 0 64 R D 11887 5704 M 0 64 R D 12009 5704 M 0 64 R D
12132 5704 M 0 64 R D 12377 5704 M 0 64 R D 12500 5704 M 0 64 R D
7360 10000 M 5140 0 R D 8575 10000 M 0 -129 R D 9801 10000 M 0 -129 R D
11028 10000 M 0 -129 R D 12255 10000 M 0 -129 R D 7470 10000 M 0 -64 R D
7593 10000 M 0 -64 R D 7716 10000 M 0 -64 R D 7838 10000 M 0 -64 R D
7961 10000 M 0 -64 R D 8084 10000 M 0 -64 R D 8207 10000 M 0 -64 R D
8329 10000 M 0 -64 R D 8452 10000 M 0 -64 R D 8697 10000 M 0 -64 R D
8820 10000 M 0 -64 R D 8943 10000 M 0 -64 R D 9065 10000 M 0 -64 R D
9188 10000 M 0 -64 R D 9311 10000 M 0 -64 R D 9433 10000 M 0 -64 R D
9556 10000 M 0 -64 R D 9679 10000 M 0 -64 R D 9924 10000 M 0 -64 R D
10047 10000 M 0 -64 R D 10169 10000 M 0 -64 R D 10292 10000 M 0 -64 R D
10415 10000 M 0 -64 R D 10537 10000 M 0 -64 R D 10660 10000 M 0 -64 R D
10783 10000 M 0 -64 R D 10905 10000 M 0 -64 R D 11151 10000 M 0 -64 R D
11273 10000 M 0 -64 R D 11396 10000 M 0 -64 R D 11519 10000 M 0 -64 R D
11641 10000 M 0 -64 R D 11764 10000 M 0 -64 R D 11887 10000 M 0 -64 R D
12009 10000 M 0 -64 R D 12132 10000 M 0 -64 R D 12377 10000 M 0 -64 R D
12500 10000 M 0 -64 R D 7360 5704 M 0 4296 R D 7360 6562 M 154 0 R D
gsave 7249 6421 translate 0 0 M -117.687 0 N
( ) show grestore 7360 7422 M 154 0 R D gsave 7249 7281 translate 0 0 M
-117.687 0 N
( ) show grestore 7360 8282 M 154 0 R D gsave 7249 8141 translate 0 0 M
-117.687 0 N
( ) show grestore 7360 9142 M 154 0 R D gsave 7249 9001 translate 0 0 M
-117.687 0 N
( ) show grestore 7360 6132 M 77 0 R D 7360 6992 M 77 0 R D 7360 7852 M
77 0 R D 7360 8712 M 77 0 R D 7360 9572 M 77 0 R D 12500 5704 M 0 4296 R D
12500 6562 M -154 0 R D 12500 7422 M -154 0 R D 12500 8282 M -154 0 R D
12500 9142 M -154 0 R D 12500 6132 M -77 0 R D 12500 6992 M -77 0 R D
12500 7852 M -77 0 R D 12500 8712 M -77 0 R D 12500 9572 M -77 0 R D
0.000 0.000 1.000 setrgbcolor 7360 9288 M 177 -18 R 245 -44 R 246 -33 R
245 -33 R 245 -33 R 246 -34 R 245 -38 R 245 -52 R 246 -38 R 245 -23 R
245 -46 R 246 -54 R 245 -413 R 246 -319 R 245 -58 R 245 -813 R 246 -493 R
245 -781 R 72 -262 R D 7486 9215 M 102 0 R -51 0 R 0 110 R -51 0 R 102 0 R D
7731 9171 M 103 0 R -52 0 R 0 110 R -51 0 R 103 0 R D 7976 9131 M 103 0 R
-51 0 R 0 125 R -52 0 R 103 0 R D 8222 9107 M 102 0 R -51 0 R 0 105 R
-51 0 R 102 0 R D 8467 9070 M 103 0 R -52 0 R 0 114 R -51 0 R 103 0 R D
8712 9032 M 103 0 R -51 0 R 0 122 R -52 0 R 103 0 R D 8958 9001 M 103 0 R
-52 0 R 0 108 R -51 0 R 103 0 R D 9203 8940 M 103 0 R -52 0 R 0 126 R
-51 0 R 103 0 R D 9448 8866 M 103 0 R -51 0 R 0 199 R -52 0 R 103 0 R D
9694 8857 M 103 0 R -52 0 R 0 171 R -51 0 R 103 0 R D 9939 8816 M 103 0 R
-52 0 R 0 160 R -51 0 R 103 0 R D 10184 8767 M 103 0 R -51 0 R 0 151 R
-52 0 R 103 0 R D 10430 8011 M 103 0 R -52 0 R 0 835 R -51 0 R 103 0 R D
10675 7464 M 103 0 R -51 0 R 0 1292 R -52 0 R 103 0 R D 10920 7339 M 103 0 R
-51 0 R 0 1427 R -52 0 R 103 0 R D 11166 6532 M 103 0 R -52 0 R 0 1414 R
-51 0 R 103 0 R D 11411 6086 M 103 0 R -51 0 R 0 1319 R -52 0 R 103 0 R D
11657 5965 M 102 0 R -51 0 R -51 0 R 102 0 R D 0.761 0.000 0.000 setrgbcolor
7360 9415 M 177 -39 R 245 -46 R 246 -62 R 245 -35 R 245 -51 R 246 -66 R
245 17 R 245 -17 R 246 25 R 245 -25 R 245 -87 R 246 -157 R 245 -369 R
246 -557 R 245 -418 R 245 29 R 246 -818 R 245 -492 R 168 -544 R D
7486 9295 M 102 0 R -51 0 R 0 163 R -51 0 R 102 0 R D 7731 9246 M 103 0 R
-52 0 R 0 168 R -51 0 R 103 0 R D 7976 9184 M 103 0 R -51 0 R 0 168 R
-52 0 R 103 0 R D 8222 9159 M 102 0 R -51 0 R 0 147 R -51 0 R 102 0 R D
8467 9096 M 103 0 R -52 0 R 0 171 R -51 0 R 103 0 R D 8712 9029 M 103 0 R
-51 0 R 0 173 R -52 0 R 103 0 R D 8958 9031 M 103 0 R -52 0 R 0 205 R
-51 0 R 103 0 R D 9203 9040 M 103 0 R -52 0 R 0 153 R -51 0 R 103 0 R D
9448 9048 M 103 0 R -51 0 R 0 186 R -52 0 R 103 0 R D 9694 9047 M 103 0 R
-52 0 R 0 139 R -51 0 R 103 0 R D 9939 8959 M 103 0 R -52 0 R 0 141 R
-51 0 R 103 0 R D 10184 8797 M 103 0 R -51 0 R 0 151 R -52 0 R 103 0 R D
10430 8058 M 103 0 R -52 0 R 0 891 R -51 0 R 103 0 R D 10675 7289 M 103 0 R
-51 0 R 0 1313 R -52 0 R 103 0 R D 10920 6900 M 103 0 R -51 0 R 0 1257 R
-52 0 R 103 0 R D 11166 6754 M 103 0 R -52 0 R 0 1606 R -51 0 R 103 0 R D
11411 6100 M 103 0 R -51 0 R 0 1277 R -52 0 R 103 0 R D 11708 5703 M
0 1390 R -51 0 R 102 0 R D 11953 5703 M 0 871 R -51 0 R 103 0 R D
0.000 0.000 0.000 setrgbcolor 12500 5704 M 5140 0 R D 13715 5704 M 0 129 R D
gsave 13715 5176 translate 0 0 M -58.8433 0 N
( ) show grestore 14941 5704 M 0 129 R D gsave 14941 5176 translate 0 0 M
-58.8433 0 N
( ) show grestore 16168 5704 M 0 129 R D gsave 16168 5176 translate 0 0 M
-58.8433 0 N
( ) show grestore 17395 5704 M 0 129 R D gsave 17395 5176 translate 0 0 M
-58.8433 0 N
( ) show grestore 12611 5704 M 0 64 R D 12733 5704 M 0 64 R D 12856 5704 M
0 64 R D 12979 5704 M 0 64 R D 13101 5704 M 0 64 R D 13224 5704 M 0 64 R D
13347 5704 M 0 64 R D 13469 5704 M 0 64 R D 13592 5704 M 0 64 R D
13837 5704 M 0 64 R D 13960 5704 M 0 64 R D 14083 5704 M 0 64 R D
14205 5704 M 0 64 R D 14328 5704 M 0 64 R D 14451 5704 M 0 64 R D
14573 5704 M 0 64 R D 14696 5704 M 0 64 R D 14819 5704 M 0 64 R D
15064 5704 M 0 64 R D 15187 5704 M 0 64 R D 15309 5704 M 0 64 R D
15432 5704 M 0 64 R D 15555 5704 M 0 64 R D 15677 5704 M 0 64 R D
15800 5704 M 0 64 R D 15923 5704 M 0 64 R D 16045 5704 M 0 64 R D
16291 5704 M 0 64 R D 16413 5704 M 0 64 R D 16536 5704 M 0 64 R D
16659 5704 M 0 64 R D 16781 5704 M 0 64 R D 16904 5704 M 0 64 R D
17027 5704 M 0 64 R D 17149 5704 M 0 64 R D 17272 5704 M 0 64 R D
17518 5704 M 0 64 R D 17640 5704 M 0 64 R D 12500 10000 M 5140 0 R D
13715 10000 M 0 -129 R D 14941 10000 M 0 -129 R D 16168 10000 M 0 -129 R D
17395 10000 M 0 -129 R D 12611 10000 M 0 -64 R D 12733 10000 M 0 -64 R D
12856 10000 M 0 -64 R D 12979 10000 M 0 -64 R D 13101 10000 M 0 -64 R D
13224 10000 M 0 -64 R D 13347 10000 M 0 -64 R D 13469 10000 M 0 -64 R D
13592 10000 M 0 -64 R D 13837 10000 M 0 -64 R D 13960 10000 M 0 -64 R D
14083 10000 M 0 -64 R D 14205 10000 M 0 -64 R D 14328 10000 M 0 -64 R D
14451 10000 M 0 -64 R D 14573 10000 M 0 -64 R D 14696 10000 M 0 -64 R D
14819 10000 M 0 -64 R D 15064 10000 M 0 -64 R D 15187 10000 M 0 -64 R D
15309 10000 M 0 -64 R D 15432 10000 M 0 -64 R D 15555 10000 M 0 -64 R D
15677 10000 M 0 -64 R D 15800 10000 M 0 -64 R D 15923 10000 M 0 -64 R D
16045 10000 M 0 -64 R D 16291 10000 M 0 -64 R D 16413 10000 M 0 -64 R D
16536 10000 M 0 -64 R D 16659 10000 M 0 -64 R D 16781 10000 M 0 -64 R D
16904 10000 M 0 -64 R D 17027 10000 M 0 -64 R D 17149 10000 M 0 -64 R D
17272 10000 M 0 -64 R D 17518 10000 M 0 -64 R D 17640 10000 M 0 -64 R D
12500 5704 M 0 4296 R D 12500 6562 M 154 0 R D
gsave 12389 6421 translate 0 0 M -117.687 0 N
( ) show grestore 12500 7422 M 154 0 R D gsave 12389 7281 translate 0 0 M
-117.687 0 N
( ) show grestore 12500 8282 M 154 0 R D gsave 12389 8141 translate 0 0 M
-117.687 0 N
( ) show grestore 12500 9142 M 154 0 R D gsave 12389 9001 translate 0 0 M
-117.687 0 N
( ) show grestore 12500 6132 M 77 0 R D 12500 6992 M 77 0 R D 12500 7852 M
77 0 R D 12500 8712 M 77 0 R D 12500 9572 M 77 0 R D 17640 5704 M 0 4296 R D
17640 6562 M -154 0 R D 17640 7422 M -154 0 R D 17640 8282 M -154 0 R D
17640 9142 M -154 0 R D 17640 6132 M -77 0 R D 17640 6992 M -77 0 R D
17640 7852 M -77 0 R D 17640 8712 M -77 0 R D 17640 9572 M -77 0 R D
0.000 0.000 1.000 setrgbcolor 12500 9529 M 43 -5 R 246 -37 R 245 -54 R
245 -33 R 246 -31 R 245 -27 R 245 -31 R 246 -59 R 245 3 R 245 10 R 246 -4 R
245 -148 R 245 -715 R 246 -743 R 245 -110 R 245 -123 R 246 -682 R 245 -438 R
212 -599 R D 12500 9461 M 95 0 R -52 0 R 0 126 R -43 0 R 95 0 R D
12737 9446 M 103 0 R -51 0 R 0 81 R -52 0 R 103 0 R D 12982 9358 M 103 0 R
-51 0 R 0 150 R -52 0 R 103 0 R D 13228 9361 M 103 0 R -52 0 R 0 77 R
-51 0 R 103 0 R D 13473 9311 M 103 0 R -51 0 R 0 116 R -52 0 R 103 0 R D
13719 9265 M 102 0 R -51 0 R 0 155 R -51 0 R 102 0 R D 13964 9262 M 103 0 R
-52 0 R 0 97 R -51 0 R 103 0 R D 14209 9177 M 103 0 R -51 0 R 0 149 R
-52 0 R 103 0 R D 14455 9190 M 102 0 R -51 0 R 0 130 R -51 0 R 102 0 R D
14700 9155 M 103 0 R -52 0 R 0 220 R -51 0 R 103 0 R D 14945 9169 M 103 0 R
-51 0 R 0 184 R -52 0 R 103 0 R D 15191 8993 M 102 0 R -51 0 R 0 240 R
-51 0 R 102 0 R D 15436 7641 M 103 0 R -52 0 R 0 1513 R -51 0 R 103 0 R D
15681 6982 M 103 0 R -51 0 R 0 1347 R -52 0 R 103 0 R D 15927 6851 M 102 0 R
-51 0 R 0 1388 R -51 0 R 102 0 R D 16172 6621 M 103 0 R -52 0 R 0 1601 R
-51 0 R 103 0 R D 16417 6740 M 103 0 R -51 0 R -52 0 R 103 0 R D
16663 6302 M 103 0 R -52 0 R -51 0 R 103 0 R D 0.761 0.000 0.000 setrgbcolor
12500 9536 M 43 -6 R 246 -70 R 245 -90 R 245 -22 R 246 -96 R 245 -10 R
245 -30 R 246 39 R 245 3 R 245 2 R 246 -137 R 245 -492 R 245 -115 R
246 -862 R 245 -450 R 245 -11 R 246 -449 R 245 -438 R 212 -599 R D
12500 9457 M 95 0 R -52 0 R 0 146 R -43 0 R 95 0 R D 12737 9377 M 103 0 R
-51 0 R 0 166 R -52 0 R 103 0 R D 12982 9296 M 103 0 R -51 0 R 0 148 R
-52 0 R 103 0 R D 13228 9261 M 103 0 R -52 0 R 0 173 R -51 0 R 103 0 R D
13473 9159 M 103 0 R -51 0 R 0 186 R -52 0 R 103 0 R D 13719 9147 M 102 0 R
-51 0 R 0 191 R -51 0 R 102 0 R D 13964 9109 M 103 0 R -52 0 R 0 205 R
-51 0 R 103 0 R D 14209 9175 M 103 0 R -51 0 R 0 152 R -52 0 R 103 0 R D
14455 9140 M 102 0 R -51 0 R 0 229 R -51 0 R 102 0 R D 14700 9179 M 103 0 R
-52 0 R 0 153 R -51 0 R 103 0 R D 14945 9073 M 103 0 R -51 0 R 0 92 R
-52 0 R 103 0 R D 15191 7949 M 102 0 R -51 0 R 0 1355 R -51 0 R 102 0 R D
15436 7876 M 103 0 R -52 0 R 0 1272 R -51 0 R 103 0 R D 15681 6987 M 103 0 R
-51 0 R 0 1326 R -52 0 R 103 0 R D 15927 7200 M 102 0 R -51 0 R -51 0 R
102 0 R D 16172 6682 M 103 0 R -52 0 R 0 1015 R -51 0 R 103 0 R D
16417 6740 M 103 0 R -51 0 R -52 0 R 103 0 R D 16663 6302 M 103 0 R -52 0 R
-51 0 R 103 0 R D 0.000 0.000 0.000 setrgbcolor 2220 1408 M 5140 0 R D
3434 1408 M 0 129 R D gsave 3434 880 translate 0 0 M -117.687 0 N
(9) show grestore 4661 1408 M 0 129 R D gsave 4661 880 translate 0 0 M
-235.373 0 N
(10) show grestore 5888 1408 M 0 129 R D gsave 5888 880 translate 0 0 M
-235.373 0 N
(11) show grestore 7115 1408 M 0 129 R D gsave 7115 880 translate 0 0 M
-235.373 0 N
(12) show grestore 2330 1408 M 0 64 R D 2453 1408 M 0 64 R D 2576 1408 M
0 64 R D 2698 1408 M 0 64 R D 2821 1408 M 0 64 R D 2944 1408 M 0 64 R D
3066 1408 M 0 64 R D 3189 1408 M 0 64 R D 3312 1408 M 0 64 R D 3557 1408 M
0 64 R D 3680 1408 M 0 64 R D 3803 1408 M 0 64 R D 3925 1408 M 0 64 R D
4048 1408 M 0 64 R D 4171 1408 M 0 64 R D 4293 1408 M 0 64 R D 4416 1408 M
0 64 R D 4539 1408 M 0 64 R D 4784 1408 M 0 64 R D 4907 1408 M 0 64 R D
5029 1408 M 0 64 R D 5152 1408 M 0 64 R D 5275 1408 M 0 64 R D 5397 1408 M
0 64 R D 5520 1408 M 0 64 R D 5643 1408 M 0 64 R D 5765 1408 M 0 64 R D
6011 1408 M 0 64 R D 6133 1408 M 0 64 R D 6256 1408 M 0 64 R D 6379 1408 M
0 64 R D 6501 1408 M 0 64 R D 6624 1408 M 0 64 R D 6747 1408 M 0 64 R D
6869 1408 M 0 64 R D 6992 1408 M 0 64 R D 7237 1408 M 0 64 R D 7360 1408 M
0 64 R D 2220 5704 M 5140 0 R D 3434 5704 M 0 -129 R D 4661 5704 M 0 -129 R
D 5888 5704 M 0 -129 R D 7115 5704 M 0 -129 R D 2330 5704 M 0 -64 R D
2453 5704 M 0 -64 R D 2576 5704 M 0 -64 R D 2698 5704 M 0 -64 R D
2821 5704 M 0 -64 R D 2944 5704 M 0 -64 R D 3066 5704 M 0 -64 R D
3189 5704 M 0 -64 R D 3312 5704 M 0 -64 R D 3557 5704 M 0 -64 R D
3680 5704 M 0 -64 R D 3803 5704 M 0 -64 R D 3925 5704 M 0 -64 R D
4048 5704 M 0 -64 R D 4171 5704 M 0 -64 R D 4293 5704 M 0 -64 R D
4416 5704 M 0 -64 R D 4539 5704 M 0 -64 R D 4784 5704 M 0 -64 R D
4907 5704 M 0 -64 R D 5029 5704 M 0 -64 R D 5152 5704 M 0 -64 R D
5275 5704 M 0 -64 R D 5397 5704 M 0 -64 R D 5520 5704 M 0 -64 R D
5643 5704 M 0 -64 R D 5765 5704 M 0 -64 R D 6011 5704 M 0 -64 R D
6133 5704 M 0 -64 R D 6256 5704 M 0 -64 R D 6379 5704 M 0 -64 R D
6501 5704 M 0 -64 R D 6624 5704 M 0 -64 R D 6747 5704 M 0 -64 R D
6869 5704 M 0 -64 R D 6992 5704 M 0 -64 R D 7237 5704 M 0 -64 R D
7360 5704 M 0 -64 R D 2220 1408 M 0 4296 R D 2220 1884 M 154 0 R D
gsave 2109 1743 translate 0 0 M -704.08 0 N
(10) show X 192.937 M
%%IncludeResource: font Helvetica
262.467 /Helvetica STDFONT
(-8) show grestore
%%IncludeResource: font Helvetica
423.333 /Helvetica STDFONT 2220 2839 M 154 0 R D
gsave 2109 2699 translate 0 0 M -704.08 0 N
(10) show X 192.937 M
%%IncludeResource: font Helvetica
262.467 /Helvetica STDFONT
(-6) show grestore
%%IncludeResource: font Helvetica
423.333 /Helvetica STDFONT 2220 3795 M 154 0 R D
gsave 2109 3654 translate 0 0 M -704.08 0 N
(10) show X 192.937 M
%%IncludeResource: font Helvetica
262.467 /Helvetica STDFONT
(-4) show grestore
%%IncludeResource: font Helvetica
423.333 /Helvetica STDFONT 2220 4750 M 154 0 R D
gsave 2109 4610 translate 0 0 M -704.08 0 N
(10) show X 192.937 M
%%IncludeResource: font Helvetica
262.467 /Helvetica STDFONT
(-2) show grestore
%%IncludeResource: font Helvetica
423.333 /Helvetica STDFONT 2220 2362 M 77 0 R D 2220 3317 M 77 0 R D
2220 4273 M 77 0 R D 2220 5228 M 77 0 R D 7360 1408 M 0 4296 R D 7360 1884 M
-154 0 R D 7360 2839 M -154 0 R D 7360 3795 M -154 0 R D 7360 4750 M
-154 0 R D 7360 2362 M -77 0 R D 7360 3317 M -77 0 R D 7360 4273 M -77 0 R D
7360 5228 M -77 0 R D 0.000 0.000 1.000 setrgbcolor 2220 4806 M 114 -10 R
246 -36 R 245 -40 R 245 -46 R 246 -55 R 245 -25 R 245 -59 R 246 -38 R
245 -58 R 245 -46 R 246 -19 R 245 -57 R 245 -62 R 246 -517 R 245 -680 R
245 -211 R 246 -431 R 245 -978 R 10 -30 R D 2283 4738 M 103 0 R -52 0 R
0 116 R -51 0 R 103 0 R D 2528 4713 M 103 0 R -51 0 R 0 94 R -52 0 R 103 0 R
D 2773 4663 M 103 0 R -51 0 R 0 114 R -52 0 R 103 0 R D 3019 4627 M 103 0 R
-52 0 R 0 94 R -51 0 R 103 0 R D 3264 4573 M 103 0 R -51 0 R 0 92 R -52 0 R
103 0 R D 3510 4532 M 102 0 R -51 0 R 0 123 R -51 0 R 102 0 R D 3755 4473 M
103 0 R -52 0 R 0 125 R -51 0 R 103 0 R D 4000 4416 M 103 0 R -51 0 R
0 163 R -52 0 R 103 0 R D 4246 4388 M 102 0 R -51 0 R 0 101 R -51 0 R
102 0 R D 4491 4331 M 103 0 R -52 0 R 0 123 R -51 0 R 103 0 R D 4736 4289 M
103 0 R -51 0 R 0 170 R -52 0 R 103 0 R D 4982 4233 M 102 0 R -51 0 R
0 169 R -51 0 R 102 0 R D 5227 4166 M 103 0 R -52 0 R 0 177 R -51 0 R
103 0 R D 5472 3312 M 103 0 R -51 0 R 0 852 R -52 0 R 103 0 R D 5718 2305 M
102 0 R -51 0 R 0 1507 R -51 0 R 102 0 R D 5963 2008 M 103 0 R -52 0 R
0 1678 R -51 0 R 103 0 R D 6208 1414 M 103 0 R -51 0 R 0 2003 R -52 0 R
103 0 R D 6505 1408 M 0 810 R -51 0 R 103 0 R D 6750 1408 M 0 477 R -51 0 R
103 0 R D 0.761 0.000 0.000 setrgbcolor 2220 4880 M 114 -21 R 246 -66 R
245 -51 R 245 -57 R 246 -73 R 245 -39 R 245 -45 R 246 31 R 245 -7 R
245 -34 R 246 9 R 245 -132 R 245 -153 R 246 -348 R 245 -255 R 245 -942 R
246 -35 R 245 -366 R 177 -888 R D 2283 4790 M 103 0 R -52 0 R 0 137 R
-51 0 R 103 0 R D 2528 4715 M 103 0 R -51 0 R 0 155 R -52 0 R 103 0 R D
2773 4665 M 103 0 R -51 0 R 0 153 R -52 0 R 103 0 R D 3019 4609 M 103 0 R
-52 0 R 0 153 R -51 0 R 103 0 R D 3264 4524 M 103 0 R -51 0 R 0 177 R
-52 0 R 103 0 R D 3510 4494 M 102 0 R -51 0 R 0 158 R -51 0 R 102 0 R D
3755 4418 M 103 0 R -52 0 R 0 220 R -51 0 R 103 0 R D 4000 4493 M 103 0 R
-51 0 R 0 133 R -52 0 R 103 0 R D 4246 4477 M 102 0 R -51 0 R 0 150 R
-51 0 R 102 0 R D 4491 4444 M 103 0 R -52 0 R 0 149 R -51 0 R 103 0 R D
4736 4451 M 103 0 R -51 0 R 0 151 R -52 0 R 103 0 R D 4982 4313 M 102 0 R
-51 0 R 0 165 R -51 0 R 102 0 R D 5227 4189 M 103 0 R -52 0 R 0 106 R
-51 0 R 103 0 R D 5472 3419 M 103 0 R -51 0 R 0 951 R -52 0 R 103 0 R D
5718 2947 M 102 0 R -51 0 R 0 1385 R -51 0 R 102 0 R D 5963 1862 M 103 0 R
-52 0 R 0 1671 R -51 0 R 103 0 R D 6208 1576 M 103 0 R -51 0 R 0 2173 R
-52 0 R 103 0 R D 6505 1408 M 0 2216 R -51 0 R 103 0 R D 6750 1408 M
0 1125 R -51 0 R 103 0 R D 6996 1408 M 0 690 R -52 0 R 103 0 R D
40 setlinewidth 0.000 0.000 1.000 setrgbcolor 2477 2224 M 62 0 R 61 0 R
62 0 R 62 0 R 61 0 R 62 0 R 62 0 R 61 0 R 62 0 R D
0.761 0.000 0.000 setrgbcolor 2477 1795 M 62 0 R 61 0 R 62 0 R 62 0 R 61 0 R
62 0 R 62 0 R 61 0 R 62 0 R D 0.000 0.000 1.000 setrgbcolor
gsave 3094 2164 translate 0 0 M
(Star-forming) show grestore 0.761 0.000 0.000 setrgbcolor
gsave 3094 1734 translate 0 0 M
(Quiescent) show grestore 0.000 0.000 0.000 setrgbcolor
gsave 2477 2697 translate 0 0 M
(>3R) show X -101.051 M
%%IncludeResource: font Helvetica
262.467 /Helvetica STDFONT
(200) show grestore
%%IncludeResource: font Helvetica
423.333 /Helvetica STDFONT 30 setlinewidth 7360 1408 M 5140 0 R D
8575 1408 M 0 129 R D gsave 8575 880 translate 0 0 M -117.687 0 N
(9) show grestore 9801 1408 M 0 129 R D gsave 9801 880 translate 0 0 M
-235.373 0 N
(10) show grestore 11028 1408 M 0 129 R D gsave 11028 880 translate 0 0 M
-235.373 0 N
(11) show grestore 12255 1408 M 0 129 R D gsave 12255 880 translate 0 0 M
-235.373 0 N
(12) show grestore 7470 1408 M 0 64 R D 7593 1408 M 0 64 R D 7716 1408 M
0 64 R D 7838 1408 M 0 64 R D 7961 1408 M 0 64 R D 8084 1408 M 0 64 R D
8207 1408 M 0 64 R D 8329 1408 M 0 64 R D 8452 1408 M 0 64 R D 8697 1408 M
0 64 R D 8820 1408 M 0 64 R D 8943 1408 M 0 64 R D 9065 1408 M 0 64 R D
9188 1408 M 0 64 R D 9311 1408 M 0 64 R D 9433 1408 M 0 64 R D 9556 1408 M
0 64 R D 9679 1408 M 0 64 R D 9924 1408 M 0 64 R D 10047 1408 M 0 64 R D
10169 1408 M 0 64 R D 10292 1408 M 0 64 R D 10415 1408 M 0 64 R D
10537 1408 M 0 64 R D 10660 1408 M 0 64 R D 10783 1408 M 0 64 R D
10905 1408 M 0 64 R D 11151 1408 M 0 64 R D 11273 1408 M 0 64 R D
11396 1408 M 0 64 R D 11519 1408 M 0 64 R D 11641 1408 M 0 64 R D
11764 1408 M 0 64 R D 11887 1408 M 0 64 R D 12009 1408 M 0 64 R D
12132 1408 M 0 64 R D 12377 1408 M 0 64 R D 12500 1408 M 0 64 R D
7360 5704 M 5140 0 R D 8575 5704 M 0 -129 R D 9801 5704 M 0 -129 R D
11028 5704 M 0 -129 R D 12255 5704 M 0 -129 R D 7470 5704 M 0 -64 R D
7593 5704 M 0 -64 R D 7716 5704 M 0 -64 R D 7838 5704 M 0 -64 R D
7961 5704 M 0 -64 R D 8084 5704 M 0 -64 R D 8207 5704 M 0 -64 R D
8329 5704 M 0 -64 R D 8452 5704 M 0 -64 R D 8697 5704 M 0 -64 R D
8820 5704 M 0 -64 R D 8943 5704 M 0 -64 R D 9065 5704 M 0 -64 R D
9188 5704 M 0 -64 R D 9311 5704 M 0 -64 R D 9433 5704 M 0 -64 R D
9556 5704 M 0 -64 R D 9679 5704 M 0 -64 R D 9924 5704 M 0 -64 R D
10047 5704 M 0 -64 R D 10169 5704 M 0 -64 R D 10292 5704 M 0 -64 R D
10415 5704 M 0 -64 R D 10537 5704 M 0 -64 R D 10660 5704 M 0 -64 R D
10783 5704 M 0 -64 R D 10905 5704 M 0 -64 R D 11151 5704 M 0 -64 R D
11273 5704 M 0 -64 R D 11396 5704 M 0 -64 R D 11519 5704 M 0 -64 R D
11641 5704 M 0 -64 R D 11764 5704 M 0 -64 R D 11887 5704 M 0 -64 R D
12009 5704 M 0 -64 R D 12132 5704 M 0 -64 R D 12377 5704 M 0 -64 R D
12500 5704 M 0 -64 R D 7360 1408 M 0 4296 R D 7360 1884 M 154 0 R D
gsave 7249 1743 translate 0 0 M -117.687 0 N
( ) show grestore 7360 2839 M 154 0 R D gsave 7249 2699 translate 0 0 M
-117.687 0 N
( ) show grestore 7360 3795 M 154 0 R D gsave 7249 3654 translate 0 0 M
-117.687 0 N
( ) show grestore 7360 4750 M 154 0 R D gsave 7249 4610 translate 0 0 M
-117.687 0 N
( ) show grestore 7360 2362 M 77 0 R D 7360 3317 M 77 0 R D 7360 4273 M
77 0 R D 7360 5228 M 77 0 R D 12500 1408 M 0 4296 R D 12500 1884 M -154 0 R
D 12500 2839 M -154 0 R D 12500 3795 M -154 0 R D 12500 4750 M -154 0 R D
12500 2362 M -77 0 R D 12500 3317 M -77 0 R D 12500 4273 M -77 0 R D
12500 5228 M -77 0 R D 0.000 0.000 1.000 setrgbcolor 7360 4921 M 177 -26 R
245 -37 R 246 -52 R 245 -51 R 245 -44 R 246 -45 R 245 -40 R 245 -43 R
246 -67 R 245 -41 R 245 21 R 246 -74 R 245 -283 R 246 -775 R 245 200 R
245 -320 R 246 -1171 R 207 -665 R D 7486 4852 M 102 0 R -51 0 R 0 85 R
-51 0 R 102 0 R D 7731 4820 M 103 0 R -52 0 R 0 76 R -51 0 R 103 0 R D
7976 4759 M 103 0 R -51 0 R 0 94 R -52 0 R 103 0 R D 8222 4703 M 102 0 R
-51 0 R 0 104 R -51 0 R 102 0 R D 8467 4658 M 103 0 R -52 0 R 0 106 R
-51 0 R 103 0 R D 8712 4620 M 103 0 R -51 0 R 0 92 R -52 0 R 103 0 R D
8958 4545 M 103 0 R -52 0 R 0 161 R -51 0 R 103 0 R D 9203 4550 M 103 0 R
-52 0 R 0 67 R -51 0 R 103 0 R D 9448 4467 M 103 0 R -51 0 R 0 97 R -52 0 R
103 0 R D 9694 4406 M 103 0 R -52 0 R 0 137 R -51 0 R 103 0 R D 9939 4445 M
103 0 R -52 0 R 0 101 R -51 0 R 103 0 R D 10184 4368 M 103 0 R -51 0 R
0 108 R -52 0 R 103 0 R D 10430 4009 M 103 0 R -52 0 R 0 261 R -51 0 R
103 0 R D 10675 2626 M 103 0 R -51 0 R 0 1476 R -52 0 R 103 0 R D
10920 2875 M 103 0 R -51 0 R 0 1378 R -52 0 R 103 0 R D 11166 2351 M 103 0 R
-52 0 R 0 1786 R -51 0 R 103 0 R D 11463 1408 M 0 1560 R -52 0 R 103 0 R D
11708 1408 M 0 761 R -51 0 R 102 0 R D 0.761 0.000 0.000 setrgbcolor
7360 4915 M 177 -39 R 245 -54 R 246 -69 R 245 -55 R 245 -74 R 246 -19 R
245 -17 R 245 16 R 246 -8 R 245 12 R 245 -81 R 246 -170 R 245 -204 R
246 -313 R 245 -467 R 245 -934 R 246 -576 R 245 -259 R 135 -196 R D
7486 4809 M 102 0 R -51 0 R 0 134 R -51 0 R 102 0 R D 7731 4752 M 103 0 R
-52 0 R 0 140 R -51 0 R 103 0 R D 7976 4685 M 103 0 R -51 0 R 0 137 R
-52 0 R 103 0 R D 8222 4620 M 102 0 R -51 0 R 0 156 R -51 0 R 102 0 R D
8467 4521 M 103 0 R -52 0 R 0 207 R -51 0 R 103 0 R D 8712 4550 M 103 0 R
-51 0 R 0 111 R -52 0 R 103 0 R D 8958 4513 M 103 0 R -52 0 R 0 151 R
-51 0 R 103 0 R D 9203 4536 M 103 0 R -52 0 R 0 136 R -51 0 R 103 0 R D
9448 4514 M 103 0 R -51 0 R 0 163 R -52 0 R 103 0 R D 9694 4542 M 103 0 R
-52 0 R 0 132 R -51 0 R 103 0 R D 9939 4446 M 103 0 R -52 0 R 0 162 R
-51 0 R 103 0 R D 10184 4277 M 103 0 R -51 0 R 0 160 R -52 0 R 103 0 R D
10430 4051 M 103 0 R -52 0 R 0 205 R -51 0 R 103 0 R D 10675 3369 M 103 0 R
-51 0 R 0 942 R -52 0 R 103 0 R D 10920 2614 M 103 0 R -51 0 R 0 1519 R
-52 0 R 103 0 R D 11166 1676 M 103 0 R -52 0 R 0 1527 R -51 0 R 103 0 R D
11463 1408 M 0 1176 R -52 0 R 103 0 R D 11708 1408 M 0 1410 R -51 0 R
102 0 R D 11953 1408 M 0 1640 R -51 0 R 103 0 R D
0.000 0.000 0.000 setrgbcolor 12500 1408 M 5140 0 R D 13715 1408 M 0 129 R D
gsave 13715 880 translate 0 0 M -117.687 0 N
(9) show grestore 14941 1408 M 0 129 R D gsave 14941 880 translate 0 0 M
-235.373 0 N
(10) show grestore 16168 1408 M 0 129 R D gsave 16168 880 translate 0 0 M
-235.373 0 N
(11) show grestore 17395 1408 M 0 129 R D gsave 17395 880 translate 0 0 M
-235.373 0 N
(12) show grestore 12611 1408 M 0 64 R D 12733 1408 M 0 64 R D 12856 1408 M
0 64 R D 12979 1408 M 0 64 R D 13101 1408 M 0 64 R D 13224 1408 M 0 64 R D
13347 1408 M 0 64 R D 13469 1408 M 0 64 R D 13592 1408 M 0 64 R D
13837 1408 M 0 64 R D 13960 1408 M 0 64 R D 14083 1408 M 0 64 R D
14205 1408 M 0 64 R D 14328 1408 M 0 64 R D 14451 1408 M 0 64 R D
14573 1408 M 0 64 R D 14696 1408 M 0 64 R D 14819 1408 M 0 64 R D
15064 1408 M 0 64 R D 15187 1408 M 0 64 R D 15309 1408 M 0 64 R D
15432 1408 M 0 64 R D 15555 1408 M 0 64 R D 15677 1408 M 0 64 R D
15800 1408 M 0 64 R D 15923 1408 M 0 64 R D 16045 1408 M 0 64 R D
16291 1408 M 0 64 R D 16413 1408 M 0 64 R D 16536 1408 M 0 64 R D
16659 1408 M 0 64 R D 16781 1408 M 0 64 R D 16904 1408 M 0 64 R D
17027 1408 M 0 64 R D 17149 1408 M 0 64 R D 17272 1408 M 0 64 R D
17518 1408 M 0 64 R D 17640 1408 M 0 64 R D 12500 5704 M 5140 0 R D
13715 5704 M 0 -129 R D 14941 5704 M 0 -129 R D 16168 5704 M 0 -129 R D
17395 5704 M 0 -129 R D 12611 5704 M 0 -64 R D 12733 5704 M 0 -64 R D
12856 5704 M 0 -64 R D 12979 5704 M 0 -64 R D 13101 5704 M 0 -64 R D
13224 5704 M 0 -64 R D 13347 5704 M 0 -64 R D 13469 5704 M 0 -64 R D
13592 5704 M 0 -64 R D 13837 5704 M 0 -64 R D 13960 5704 M 0 -64 R D
14083 5704 M 0 -64 R D 14205 5704 M 0 -64 R D 14328 5704 M 0 -64 R D
14451 5704 M 0 -64 R D 14573 5704 M 0 -64 R D 14696 5704 M 0 -64 R D
14819 5704 M 0 -64 R D 15064 5704 M 0 -64 R D 15187 5704 M 0 -64 R D
15309 5704 M 0 -64 R D 15432 5704 M 0 -64 R D 15555 5704 M 0 -64 R D
15677 5704 M 0 -64 R D 15800 5704 M 0 -64 R D 15923 5704 M 0 -64 R D
16045 5704 M 0 -64 R D 16291 5704 M 0 -64 R D 16413 5704 M 0 -64 R D
16536 5704 M 0 -64 R D 16659 5704 M 0 -64 R D 16781 5704 M 0 -64 R D
16904 5704 M 0 -64 R D 17027 5704 M 0 -64 R D 17149 5704 M 0 -64 R D
17272 5704 M 0 -64 R D 17518 5704 M 0 -64 R D 17640 5704 M 0 -64 R D
12500 1408 M 0 4296 R D 12500 1884 M 154 0 R D
gsave 12389 1743 translate 0 0 M -117.687 0 N
( ) show grestore 12500 2839 M 154 0 R D gsave 12389 2699 translate 0 0 M
-117.687 0 N
( ) show grestore 12500 3795 M 154 0 R D gsave 12389 3654 translate 0 0 M
-117.687 0 N
( ) show grestore 12500 4750 M 154 0 R D gsave 12389 4610 translate 0 0 M
-117.687 0 N
( ) show grestore 12500 2362 M 77 0 R D 12500 3317 M 77 0 R D 12500 4273 M
77 0 R D 12500 5228 M 77 0 R D 17640 1408 M 0 4296 R D 17640 1884 M -154 0 R
D 17640 2839 M -154 0 R D 17640 3795 M -154 0 R D 17640 4750 M -154 0 R D
17640 2362 M -77 0 R D 17640 3317 M -77 0 R D 17640 4273 M -77 0 R D
17640 5228 M -77 0 R D 0.000 0.000 1.000 setrgbcolor 12500 5062 M 233 -49 R
246 -47 R 245 -37 R 245 -61 R 246 -36 R 245 -53 R 245 -32 R 246 -30 R
245 11 R 245 -1 R 246 -121 R 245 -314 R 245 -163 R 246 -94 R 245 -94 R
245 -1178 R 246 -527 R 142 -828 R D 12500 5026 M 39 0 R -39 0 R D
12500 5103 M 39 0 R D 12682 4967 M 103 0 R -52 0 R 0 92 R -51 0 R 103 0 R D
12927 4918 M 103 0 R -51 0 R 0 96 R -52 0 R 103 0 R D 13172 4886 M 103 0 R
-51 0 R 0 87 R -52 0 R 103 0 R D 13418 4821 M 103 0 R -52 0 R 0 93 R -51 0 R
103 0 R D 13663 4788 M 103 0 R -51 0 R 0 88 R -52 0 R 103 0 R D 13909 4726 M
102 0 R -51 0 R 0 106 R -51 0 R 102 0 R D 14154 4708 M 103 0 R -52 0 R
0 77 R -51 0 R 103 0 R D 14399 4656 M 103 0 R -51 0 R 0 121 R -52 0 R
103 0 R D 14645 4673 M 102 0 R -51 0 R 0 109 R -51 0 R 102 0 R D
14890 4666 M 103 0 R -52 0 R 0 122 R -51 0 R 103 0 R D 15135 4538 M 103 0 R
-51 0 R 0 135 R -52 0 R 103 0 R D 15381 4202 M 102 0 R -51 0 R 0 180 R
-51 0 R 102 0 R D 15626 3970 M 103 0 R -52 0 R 0 318 R -51 0 R 103 0 R D
15871 3928 M 103 0 R -51 0 R 0 214 R -52 0 R 103 0 R D 16117 3842 M 102 0 R
-51 0 R 0 198 R -51 0 R 102 0 R D 16362 1819 M 103 0 R -52 0 R 0 1888 R
-51 0 R 103 0 R D 16659 1408 M 0 1934 R -52 0 R 103 0 R D
0.761 0.000 0.000 setrgbcolor 12500 4941 M 233 -59 R 246 -54 R 245 -70 R
245 -65 R 246 -38 R 245 -32 R 245 7 R 246 29 R 245 -7 R 245 -81 R 246 -225 R
245 -209 R 245 -396 R 246 -1197 R 245 -244 R 245 -145 R 246 -656 R 62 -91 R
D 12500 4890 M 39 0 R -39 0 R D 12500 5001 M 39 0 R D 12682 4821 M 103 0 R
-52 0 R 0 123 R -51 0 R 103 0 R D 12927 4773 M 103 0 R -51 0 R 0 110 R
-52 0 R 103 0 R D 13172 4703 M 103 0 R -51 0 R 0 110 R -52 0 R 103 0 R D
13418 4634 M 103 0 R -52 0 R 0 118 R -51 0 R 103 0 R D 13663 4597 M 103 0 R
-51 0 R 0 115 R -52 0 R 103 0 R D 13909 4580 M 102 0 R -51 0 R 0 85 R
-51 0 R 102 0 R D 14154 4588 M 103 0 R -52 0 R 0 83 R -51 0 R 103 0 R D
14399 4609 M 103 0 R -51 0 R 0 100 R -52 0 R 103 0 R D 14645 4583 M 102 0 R
-51 0 R 0 138 R -51 0 R 102 0 R D 14890 4523 M 103 0 R -52 0 R 0 95 R
-51 0 R 103 0 R D 15135 4281 M 103 0 R -51 0 R 0 129 R -52 0 R 103 0 R D
15381 3975 M 102 0 R -51 0 R 0 324 R -51 0 R 102 0 R D 15626 3353 M 103 0 R
-52 0 R 0 775 R -51 0 R 103 0 R D 15871 2544 M 103 0 R -51 0 R -52 0 R
103 0 R D 16117 2300 M 102 0 R -51 0 R -51 0 R 102 0 R D 16362 1598 M
103 0 R -52 0 R 0 1113 R -51 0 R 103 0 R D 16607 1499 M 103 0 R -51 0 R
-52 0 R 103 0 R D 16904 1408 M 0 722 R -51 0 R 103 0 R D
%%PageTrailer
end
%%PageResources: font Helvetica
%%+ font Symbol
%%+ font AvantGarde-Book
%%+ font Helvetica-Bold
%%Trailer
%%Pages: 1
%%DocumentNeededResources: font Helvetica
%%+ font Symbol
%%+ font AvantGarde-Book
%%+ font Helvetica-Bold
%%EOF
