%!PS-Adobe-3.0 EPSF-3.0
%%BoundingBox: 0 0 368 510
%%Title: Graphics produced by IDL
%%For: jlgan@aida119, /home/jlgan/work/subhalo_model
%%Creator: IDL Version 7.0 (linux x86_64 m64)
%%CreationDate: Fri May  1 16:48:46 2009
%%DocumentData: Clean7bit
%%Requirements: color
%%LanguageLevel: 1
%%PageOrder: Ascend
%%Pages: (atend)
%%DocumentNeededResources: (atend)
%%EndComments
%%BeginProlog
%+ prolog.ps -- Prolog for IDL generated PostScript files
%+ Copyright (c) 1988-2007 ITT Visual Information Solutions. All Rights Reserved.
%v 5
/$IDL_DICT 40 dict def $IDL_DICT begin /bdef { bind def } bind def /C
{currentpoint newpath moveto} bdef /CP {currentpoint} bdef /D {currentpoint
stroke moveto} bdef /F {closepath fill} bdef /K { setgray } bdef /M {moveto}
bdef /N {rmoveto} bdef /P {lineto} bdef /R {rlineto} bdef /S {gsave show
grestore} bdef /X {currentpoint pop} bdef /Z {gsave currentpoint lineto 20
setlinewidth 1 setlinecap stroke grestore} bdef /L0 {[] 0 setdash} bdef /L1
{[40 100] 0 setdash} bdef /L2 {[200 200] 0 setdash} bdef /L3 {[200 100 50
100] 0 setdash} bdef /L4 {[300 100 50 100 50 100 50 100] 0 setdash} bdef /L5
{[400 200] 0 setdash} bdef /STDFONT { findfont exch scalefont setfont } bdef
/ISOFONT { findfont dup length dict begin { 1 index /FID ne {def} {pop pop}
ifelse } forall /Encoding ISOLatin1Encoding def currentdict end /idltmpfont
exch definefont exch scalefont setfont } bdef /ISOBULLET { gsave /Helvetica
findfont exch scalefont setfont (\267) show currentpoint grestore moveto}
bdef /MITERLIMIT { 2.5 setmiterlimit } bdef end
%%EndProlog
%%Page: 0 1
%%PageRequirements: color
%%PageResources: (atend)
%%PageOrientation: Portrait
%%PageBoundingBox: 0 0 368 510
%%BeginPageSetup
$IDL_DICT begin 0.0283465 dup scale MITERLIMIT
%%IncludeResource: font Helvetica
423.333 /Helvetica STDFONT
%%EndPageSetup
20 setlinewidth L0 0.000 0.000 0.000 setrgbcolor 2220 9352 M 10114 0 R D
2220 9352 M 0 318 R D 4337 9352 M 0 318 R D 6455 9352 M 0 318 R D
8572 9352 M 0 318 R D 10689 9352 M 0 318 R D 2644 9352 M 0 159 R D
3067 9352 M 0 159 R D 3490 9352 M 0 159 R D 3914 9352 M 0 159 R D
4761 9352 M 0 159 R D 5184 9352 M 0 159 R D 5608 9352 M 0 159 R D
6031 9352 M 0 159 R D 6878 9352 M 0 159 R D 7301 9352 M 0 159 R D
7725 9352 M 0 159 R D 8148 9352 M 0 159 R D 8995 9352 M 0 159 R D
9419 9352 M 0 159 R D 9842 9352 M 0 159 R D 10266 9352 M 0 159 R D
11113 9352 M 0 159 R D 11536 9352 M 0 159 R D 11959 9352 M 0 159 R D
2220 17296 M 10114 0 R D 2220 17296 M 0 -318 R D 4337 17296 M 0 -318 R D
6455 17296 M 0 -318 R D 8572 17296 M 0 -318 R D 10689 17296 M 0 -318 R D
2644 17296 M 0 -159 R D 3067 17296 M 0 -159 R D 3490 17296 M 0 -159 R D
3914 17296 M 0 -159 R D 4761 17296 M 0 -159 R D 5184 17296 M 0 -159 R D
5608 17296 M 0 -159 R D 6031 17296 M 0 -159 R D 6878 17296 M 0 -159 R D
7301 17296 M 0 -159 R D 7725 17296 M 0 -159 R D 8148 17296 M 0 -159 R D
8995 17296 M 0 -159 R D 9419 17296 M 0 -159 R D 9842 17296 M 0 -159 R D
10266 17296 M 0 -159 R D 11113 17296 M 0 -159 R D 11536 17296 M 0 -159 R D
11959 17296 M 0 -159 R D 2220 9352 M 0 7944 R D 2220 10395 M 405 0 R D
30 setlinewidth 691 10441 M 0 12 R 12 24 R 11 11 R 24 12 R 46 0 R 24 -12 R
11 -11 R 12 -24 R 0 -23 R -12 -24 R -23 -35 R -117 -116 R 164 0 R D
936 10278 M -11 -12 R 11 -11 R 12 11 R -12 12 R D 1100 10500 M -35 -12 R
-24 -35 R -11 -58 R 0 -35 R 11 -59 R 24 -35 R 35 -11 R 23 0 R 35 11 R
24 35 R 11 59 R 0 35 R -11 58 R -24 35 R -35 12 R -23 0 R D 1287 10453 M
163 -163 R D 1450 10453 M -163 -163 R D 1555 10453 M 24 12 R 35 35 R
0 -245 R D 1824 10500 M -35 -12 R -23 -35 R -12 -58 R 0 -35 R 12 -59 R
23 -35 R 35 -11 R 24 0 R 35 11 R 23 35 R 12 59 R 0 35 R -12 58 R -23 35 R
-35 12 R -24 0 R D 1993 10584 M 80 0 R -43 -58 R 21 0 R 15 -7 R 7 -7 R
7 -22 R 0 -14 R -7 -22 R -15 -15 R -21 -7 R -22 0 R -22 7 R -7 8 R -7 14 R D
20 setlinewidth 2220 11455 M 405 0 R D 30 setlinewidth 796 11560 M
-117 -164 R 175 0 R D 796 11560 M 0 -245 R D 936 11338 M -11 -12 R 11 -11 R
12 11 R -12 12 R D 1100 11560 M -35 -12 R -24 -35 R -11 -58 R 0 -35 R
11 -59 R 24 -35 R 35 -11 R 23 0 R 35 11 R 24 35 R 11 59 R 0 35 R -11 58 R
-24 35 R -35 12 R -23 0 R D 1287 11513 M 163 -163 R D 1450 11513 M
-163 -163 R D 1555 11513 M 24 12 R 35 35 R 0 -245 R D 1824 11560 M -35 -12 R
-23 -35 R -12 -58 R 0 -35 R 12 -59 R 23 -35 R 35 -11 R 24 0 R 35 11 R
23 35 R 12 59 R 0 35 R -12 58 R -23 35 R -35 12 R -24 0 R D 1993 11644 M
80 0 R -43 -58 R 21 0 R 15 -7 R 7 -7 R 7 -22 R 0 -14 R -7 -22 R -15 -15 R
-21 -7 R -22 0 R -22 7 R -7 8 R -7 14 R D 20 setlinewidth 2220 12516 M
405 0 R D 30 setlinewidth 831 12585 M -12 23 R -35 12 R -23 0 R -35 -12 R
-23 -35 R -12 -58 R 0 -58 R 12 -47 R 23 -24 R 35 -11 R 12 0 R 35 11 R
23 24 R 12 35 R 0 12 R -12 35 R -23 23 R -35 12 R -12 0 R -35 -12 R
-23 -23 R -12 -35 R D 936 12398 M -11 -12 R 11 -11 R 12 11 R -12 12 R D
1100 12620 M -35 -12 R -24 -35 R -11 -58 R 0 -35 R 11 -58 R 24 -36 R
35 -11 R 23 0 R 35 11 R 24 36 R 11 58 R 0 35 R -11 58 R -24 35 R -35 12 R
-23 0 R D 1287 12573 M 163 -163 R D 1450 12573 M -163 -163 R D 1555 12573 M
24 12 R 35 35 R 0 -245 R D 1824 12620 M -35 -12 R -23 -35 R -12 -58 R
0 -35 R 12 -58 R 23 -36 R 35 -11 R 24 0 R 35 11 R 23 36 R 12 58 R 0 35 R
-12 58 R -23 35 R -35 12 R -24 0 R D 1993 12704 M 80 0 R -43 -58 R 21 0 R
15 -7 R 7 -7 R 7 -22 R 0 -14 R -7 -22 R -15 -14 R -21 -8 R -22 0 R -22 8 R
-7 7 R -7 14 R D 20 setlinewidth 2220 13576 M 405 0 R D 30 setlinewidth
738 13680 M -35 -11 R -12 -24 R 0 -23 R 12 -23 R 23 -12 R 47 -12 R 35 -12 R
23 -23 R 12 -23 R 0 -35 R -12 -24 R -12 -11 R -35 -12 R -46 0 R -35 12 R
-12 11 R -12 24 R 0 35 R 12 23 R 23 23 R 35 12 R 47 12 R 23 12 R 12 23 R
0 23 R -12 24 R -35 11 R -46 0 R D 936 13458 M -11 -11 R 11 -12 R 12 12 R
-12 11 R D 1100 13680 M -35 -11 R -24 -35 R -11 -59 R 0 -35 R 11 -58 R
24 -35 R 35 -12 R 23 0 R 35 12 R 24 35 R 11 58 R 0 35 R -11 59 R -24 35 R
-35 11 R -23 0 R D 1287 13634 M 163 -164 R D 1450 13634 M -163 -164 R D
1555 13634 M 24 11 R 35 35 R 0 -245 R D 1824 13680 M -35 -11 R -23 -35 R
-12 -59 R 0 -35 R 12 -58 R 23 -35 R 35 -12 R 24 0 R 35 12 R 23 35 R 12 58 R
0 35 R -12 59 R -23 35 R -35 11 R -24 0 R D 1993 13764 M 80 0 R -43 -57 R
21 0 R 15 -8 R 7 -7 R 7 -22 R 0 -14 R -7 -22 R -15 -14 R -21 -7 R -22 0 R
-22 7 R -7 7 R -7 14 R D 20 setlinewidth 2220 14636 M 405 0 R D
30 setlinewidth 714 14694 M 24 11 R 35 35 R 0 -245 R D 936 14518 M -11 -11 R
11 -12 R 12 12 R -12 11 R D 1100 14740 M -35 -11 R -24 -35 R -11 -59 R
0 -35 R 11 -58 R 24 -35 R 35 -12 R 23 0 R 35 12 R 24 35 R 11 58 R 0 35 R
-11 59 R -24 35 R -35 11 R -23 0 R D 1287 14694 M 163 -164 R D 1450 14694 M
-163 -164 R D 1555 14694 M 24 11 R 35 35 R 0 -245 R D 1824 14740 M -35 -11 R
-23 -35 R -12 -59 R 0 -35 R 12 -58 R 23 -35 R 35 -12 R 24 0 R 35 12 R
23 35 R 12 58 R 0 35 R -12 59 R -23 35 R -35 11 R -24 0 R D 2051 14825 M
-72 -102 R 108 0 R D 2051 14825 M 0 -152 R D 20 setlinewidth 2220 15696 M
405 0 R D 30 setlinewidth 714 15754 M 24 12 R 35 35 R 0 -246 R D 936 15579 M
-11 -12 R 11 -12 R 12 12 R -12 12 R D 1041 15742 M 0 12 R 12 23 R 12 12 R
23 12 R 47 0 R 23 -12 R 12 -12 R 12 -23 R 0 -24 R -12 -23 R -23 -35 R
-117 -117 R 163 0 R D 1287 15754 M 163 -164 R D 1450 15754 M -163 -164 R D
1555 15754 M 24 12 R 35 35 R 0 -246 R D 1824 15801 M -35 -12 R -23 -35 R
-12 -59 R 0 -35 R 12 -58 R 23 -35 R 35 -12 R 24 0 R 35 12 R 23 35 R 12 58 R
0 35 R -12 59 R -23 35 R -35 12 R -24 0 R D 2051 15885 M -72 -102 R 108 0 R
D 2051 15885 M 0 -152 R D 20 setlinewidth 2220 16756 M 405 0 R D
30 setlinewidth 714 16814 M 24 12 R 35 35 R 0 -246 R D 936 16639 M -11 -12 R
11 -12 R 12 12 R -12 12 R D 1147 16861 M -117 -164 R 175 0 R D 1147 16861 M
0 -246 R D 1287 16814 M 163 -164 R D 1450 16814 M -163 -164 R D 1555 16814 M
24 12 R 35 35 R 0 -246 R D 1824 16861 M -35 -12 R -23 -35 R -12 -58 R
0 -35 R 12 -59 R 23 -35 R 35 -12 R 24 0 R 35 12 R 23 35 R 12 59 R 0 35 R
-12 58 R -23 35 R -35 12 R -24 0 R D 2051 16945 M -72 -101 R 108 0 R D
2051 16945 M 0 -152 R D 20 setlinewidth 2220 9600 M 202 0 R D 2220 9865 M
202 0 R D 2220 10130 M 202 0 R D 2220 10660 M 202 0 R D 2220 10925 M 202 0 R
D 2220 11190 M 202 0 R D 2220 11721 M 202 0 R D 2220 11986 M 202 0 R D
2220 12251 M 202 0 R D 2220 12781 M 202 0 R D 2220 13046 M 202 0 R D
2220 13311 M 202 0 R D 2220 13841 M 202 0 R D 2220 14106 M 202 0 R D
2220 14371 M 202 0 R D 2220 14901 M 202 0 R D 2220 15166 M 202 0 R D
2220 15431 M 202 0 R D 2220 15961 M 202 0 R D 2220 16226 M 202 0 R D
2220 16491 M 202 0 R D 2220 17021 M 202 0 R D 2220 17286 M 202 0 R D
12334 9352 M 0 7944 R D 12334 10395 M -404 0 R D 12334 11455 M -404 0 R D
12334 12516 M -404 0 R D 12334 13576 M -404 0 R D 12334 14636 M -404 0 R D
12334 15696 M -404 0 R D 12334 16756 M -404 0 R D 12334 9600 M -202 0 R D
12334 9865 M -202 0 R D 12334 10130 M -202 0 R D 12334 10660 M -202 0 R D
12334 10925 M -202 0 R D 12334 11190 M -202 0 R D 12334 11721 M -202 0 R D
12334 11986 M -202 0 R D 12334 12251 M -202 0 R D 12334 12781 M -202 0 R D
12334 13046 M -202 0 R D 12334 13311 M -202 0 R D 12334 13841 M -202 0 R D
12334 14106 M -202 0 R D 12334 14371 M -202 0 R D 12334 14901 M -202 0 R D
12334 15166 M -202 0 R D 12334 15431 M -202 0 R D 12334 15961 M -202 0 R D
12334 16226 M -202 0 R D 12334 16491 M -202 0 R D 12334 17021 M -202 0 R D
12334 17286 M -202 0 R D 40 setlinewidth 2220 17296 M 477 -97 R 1386 -333 R
758 -251 R 514 -240 R 392 -260 R 366 -359 R 337 -475 R 325 -526 R 294 -430 R
320 -388 R 413 -416 R 577 -487 R 889 -636 R 1532 -914 R 159 -91 R 353 -214 R
74 -49 R 288 -225 R 81 -83 R 96 -118 R 76 -124 R 69 -153 R 67 -219 R
57 -267 R 57 -310 R 48 -164 R 48 -77 R 61 -38 R D 20 setlinewidth
2220 1408 M 10114 0 R D 2220 1408 M 0 318 R D 30 setlinewidth 2021 1125 M
-35 -11 R -23 -35 R -12 -59 R 0 -35 R 12 -58 R 23 -35 R 35 -12 R 24 0 R
35 12 R 23 35 R 12 58 R 0 35 R -12 59 R -23 35 R -35 11 R -24 0 R D
2208 903 M -11 -11 R 11 -12 R 12 12 R -12 11 R D 2372 1125 M -35 -11 R
-23 -35 R -12 -59 R 0 -35 R 12 -58 R 23 -35 R 35 -12 R 23 0 R 35 12 R
24 35 R 11 58 R 0 35 R -11 59 R -24 35 R -35 11 R -23 0 R D 20 setlinewidth
4337 1408 M 0 318 R D 30 setlinewidth 4139 1125 M -35 -11 R -24 -35 R
-11 -59 R 0 -35 R 11 -58 R 24 -35 R 35 -12 R 23 0 R 35 12 R 23 35 R 12 58 R
0 35 R -12 59 R -23 35 R -35 11 R -23 0 R D 4326 903 M -12 -11 R 12 -12 R
11 12 R -11 11 R D 4559 1125 M -117 0 R -11 -105 R 11 12 R 36 12 R 35 0 R
35 -12 R 23 -23 R 12 -35 R 0 -24 R -12 -35 R -23 -23 R -35 -12 R -35 0 R
-36 12 R -11 11 R -12 24 R D 20 setlinewidth 6455 1408 M 0 318 R D
30 setlinewidth 6221 1079 M 23 11 R 35 35 R 0 -245 R D 6443 903 M -12 -11 R
12 -12 R 12 12 R -12 11 R D 6606 1125 M -35 -11 R -23 -35 R -12 -59 R
0 -35 R 12 -58 R 23 -35 R 35 -12 R 24 0 R 35 12 R 23 35 R 12 58 R 0 35 R
-12 59 R -23 35 R -35 11 R -24 0 R D 20 setlinewidth 8572 1408 M 0 318 R D
30 setlinewidth 8338 1079 M 23 11 R 36 35 R 0 -245 R D 8560 903 M -12 -11 R
12 -12 R 12 12 R -12 11 R D 8794 1125 M -117 0 R -12 -105 R 12 12 R 35 12 R
35 0 R 35 -12 R 23 -23 R 12 -35 R 0 -24 R -12 -35 R -23 -23 R -35 -12 R
-35 0 R -35 12 R -12 11 R -11 24 R D 20 setlinewidth 10689 1408 M 0 318 R D
30 setlinewidth 10432 1067 M 0 12 R 12 23 R 11 12 R 24 11 R 46 0 R 24 -11 R
12 -12 R 11 -23 R 0 -24 R -11 -23 R -24 -35 R -117 -117 R 164 0 R D
10677 903 M -11 -11 R 11 -12 R 12 12 R -12 11 R D 10841 1125 M -35 -11 R
-23 -35 R -12 -59 R 0 -35 R 12 -58 R 23 -35 R 35 -12 R 23 0 R 35 12 R
24 35 R 11 58 R 0 35 R -11 59 R -24 35 R -35 11 R -23 0 R D 20 setlinewidth
2644 1408 M 0 159 R D 3067 1408 M 0 159 R D 3490 1408 M 0 159 R D
3914 1408 M 0 159 R D 4761 1408 M 0 159 R D 5184 1408 M 0 159 R D
5608 1408 M 0 159 R D 6031 1408 M 0 159 R D 6878 1408 M 0 159 R D
7301 1408 M 0 159 R D 7725 1408 M 0 159 R D 8148 1408 M 0 159 R D
8995 1408 M 0 159 R D 9419 1408 M 0 159 R D 9842 1408 M 0 159 R D
10266 1408 M 0 159 R D 11113 1408 M 0 159 R D 11536 1408 M 0 159 R D
11959 1408 M 0 159 R D 2220 9352 M 10114 0 R D 2220 9352 M 0 -318 R D
4337 9352 M 0 -318 R D 6455 9352 M 0 -318 R D 8572 9352 M 0 -318 R D
10689 9352 M 0 -318 R D 2644 9352 M 0 -159 R D 3067 9352 M 0 -159 R D
3490 9352 M 0 -159 R D 3914 9352 M 0 -159 R D 4761 9352 M 0 -159 R D
5184 9352 M 0 -159 R D 5608 9352 M 0 -159 R D 6031 9352 M 0 -159 R D
6878 9352 M 0 -159 R D 7301 9352 M 0 -159 R D 7725 9352 M 0 -159 R D
8148 9352 M 0 -159 R D 8995 9352 M 0 -159 R D 9419 9352 M 0 -159 R D
9842 9352 M 0 -159 R D 10266 9352 M 0 -159 R D 11113 9352 M 0 -159 R D
11536 9352 M 0 -159 R D 11959 9352 M 0 -159 R D 2220 1408 M 0 7944 R D
2220 1930 M 405 0 R D 30 setlinewidth 1233 1988 M 23 11 R 35 35 R 0 -245 R D
1501 2034 M -35 -11 R -23 -35 R -12 -59 R 0 -35 R 12 -58 R 23 -35 R 35 -12 R
24 0 R 35 12 R 23 35 R 12 58 R 0 35 R -12 59 R -23 35 R -35 11 R -24 0 R D
1735 2034 M -35 -11 R -23 -35 R -12 -59 R 0 -35 R 12 -58 R 23 -35 R 35 -12 R
24 0 R 35 12 R 23 35 R 12 58 R 0 35 R -12 59 R -23 35 R -35 11 R -24 0 R D
1969 2034 M -35 -11 R -24 -35 R -11 -59 R 0 -35 R 11 -58 R 24 -35 R 35 -12 R
23 0 R 35 12 R 24 35 R 11 58 R 0 35 R -11 59 R -24 35 R -35 11 R -23 0 R D
20 setlinewidth 2220 6549 M 405 0 R D 30 setlinewidth 999 6607 M 23 11 R
35 35 R 0 -245 R D 1268 6653 M -35 -11 R -24 -35 R -11 -59 R 0 -35 R
11 -58 R 24 -35 R 35 -12 R 23 0 R 35 12 R 24 35 R 11 58 R 0 35 R -11 59 R
-24 35 R -35 11 R -23 0 R D 1501 6653 M -35 -11 R -23 -35 R -12 -59 R
0 -35 R 12 -58 R 23 -35 R 35 -12 R 24 0 R 35 12 R 23 35 R 12 58 R 0 35 R
-12 59 R -23 35 R -35 11 R -24 0 R D 1735 6653 M -35 -11 R -23 -35 R
-12 -59 R 0 -35 R 12 -58 R 23 -35 R 35 -12 R 24 0 R 35 12 R 23 35 R 12 58 R
0 35 R -12 59 R -23 35 R -35 11 R -24 0 R D 1969 6653 M -35 -11 R -24 -35 R
-11 -59 R 0 -35 R 11 -58 R 24 -35 R 35 -12 R 23 0 R 35 12 R 24 35 R 11 58 R
0 35 R -11 59 R -24 35 R -35 11 R -23 0 R D 20 setlinewidth 2220 1482 M
202 0 R D 2220 1718 M 202 0 R D 2220 3320 M 202 0 R D 2220 4134 M 202 0 R D
2220 4711 M 202 0 R D 2220 5158 M 202 0 R D 2220 5524 M 202 0 R D
2220 5833 M 202 0 R D 2220 6101 M 202 0 R D 2220 6338 M 202 0 R D
2220 7939 M 202 0 R D 2220 8753 M 202 0 R D 2220 9330 M 202 0 R D
12334 1408 M 0 7944 R D 12334 1930 M -404 0 R D 12334 6549 M -404 0 R D
12334 1482 M -202 0 R D 12334 1718 M -202 0 R D 12334 3320 M -202 0 R D
12334 4134 M -202 0 R D 12334 4711 M -202 0 R D 12334 5158 M -202 0 R D
12334 5524 M -202 0 R D 12334 5833 M -202 0 R D 12334 6101 M -202 0 R D
12334 6338 M -202 0 R D 12334 7939 M -202 0 R D 12334 8753 M -202 0 R D
12334 9330 M -202 0 R D 30 setlinewidth 2220 2807 M 477 187 R 1386 685 R
758 636 R 514 685 R 392 723 R 366 748 R 337 462 R 325 27 R 294 -270 R
320 -358 R 413 -361 R 577 -336 R 889 -335 R 1532 -315 R 159 28 R 353 231 R
74 103 R 288 670 R 81 305 R 96 533 R 76 575 R 69 692 R 67 787 R 57 443 R
57 -322 R 48 -1092 R 48 -1539 R 61 -4991 R D
%%PageTrailer
end
%%PageResources: font Helvetica
%%Trailer
%%Pages: 1
%%DocumentNeededResources: font Helvetica
%%EOF
