%!PS-Adobe-3.0 EPSF-3.0
%%BoundingBox: 0 0 527 198
%%Title: Graphics produced by IDL
%%For: jlgan@aida119, /home/jlgan/work/subhalo_model
%%Creator: IDL Version 7.1 (linux x86_64 m64)
%%CreationDate: Fri Aug 21 11:13:09 2009
%%DocumentData: Clean7bit
%%Requirements: color
%%LanguageLevel: 1
%%PageOrder: Ascend
%%Pages: (atend)
%%DocumentNeededResources: (atend)
%%EndComments
%%BeginProlog
%+ prolog.ps -- Prolog for IDL generated PostScript files
%+ Copyright (c) 1988-2009 ITT Visual Information Solutions. All Rights Reserved.
%v 5
/$IDL_DICT 40 dict def $IDL_DICT begin /bdef { bind def } bind def /C
{currentpoint newpath moveto} bdef /CP {currentpoint} bdef /D {currentpoint
stroke moveto} bdef /F {closepath fill} bdef /K { setgray } bdef /M {moveto}
bdef /N {rmoveto} bdef /P {lineto} bdef /R {rlineto} bdef /S {gsave show
grestore} bdef /X {currentpoint pop} bdef /Z {gsave currentpoint lineto 20
setlinewidth 1 setlinecap stroke grestore} bdef /L0 {[] 0 setdash} bdef /L1
{[40 100] 0 setdash} bdef /L2 {[200 200] 0 setdash} bdef /L3 {[200 100 50
100] 0 setdash} bdef /L4 {[300 100 50 100 50 100 50 100] 0 setdash} bdef /L5
{[400 200] 0 setdash} bdef /STDFONT { findfont exch scalefont setfont } bdef
/ISOFONT { findfont dup length dict begin { 1 index /FID ne {def} {pop pop}
ifelse } forall /Encoding ISOLatin1Encoding def currentdict end /idltmpfont
exch definefont exch scalefont setfont } bdef /ISOBULLET { gsave /Helvetica
findfont exch scalefont setfont (\267) show currentpoint grestore moveto}
bdef /MITERLIMIT { 2.5 setmiterlimit } bdef end
%%EndProlog
%%Page: 0 1
%%PageRequirements: color
%%PageResources: (atend)
%%PageOrientation: Portrait
%%PageBoundingBox: 0 0 527 198
%%BeginPageSetup
$IDL_DICT begin 0.0283465 dup scale MITERLIMIT
%%IncludeResource: font Helvetica
423.333 /Helvetica STDFONT
%%EndPageSetup
0.000 0.000 0.000 setrgbcolor gsave 9858 203 translate 0 0 M 1.2 dup scale
-928.793 0 N
(m\(0\)/M\(0\)) show grestore gsave 744 4025 translate 0 0 M 90 rotate
1.2 dup scale -756.302 0 N
(T) show X -101.051 M
%%IncludeResource: font Helvetica
262.467 /Helvetica STDFONT
(df) show X 0 M
%%IncludeResource: font Helvetica
423.333 /Helvetica STDFONT
( [Gyr]) show grestore 40 setlinewidth L0 1581 1400 M 1984 0 R D 1581 1400 M
0 210 R D gsave 1581 766 translate 0 0 M 1.2 dup scale -58.8433 0 N
( ) show grestore 1978 1400 M 0 210 R D gsave 1978 766 translate 0 0 M
1.2 dup scale -294.217 0 N
(0.1) show grestore 2375 1400 M 0 210 R D gsave 2375 766 translate 0 0 M
1.2 dup scale -58.8433 0 N
( ) show grestore 2771 1400 M 0 210 R D gsave 2771 766 translate 0 0 M
1.2 dup scale -294.217 0 N
(0.2) show grestore 3168 1400 M 0 210 R D gsave 3168 766 translate 0 0 M
1.2 dup scale -58.8433 0 N
( ) show grestore 3565 1400 M 0 210 R D gsave 3565 766 translate 0 0 M
1.2 dup scale -294.217 0 N
(0.3) show grestore 1660 1400 M 0 105 R D 1740 1400 M 0 105 R D 1819 1400 M
0 105 R D 1898 1400 M 0 105 R D 2057 1400 M 0 105 R D 2137 1400 M 0 105 R D
2216 1400 M 0 105 R D 2295 1400 M 0 105 R D 2454 1400 M 0 105 R D
2533 1400 M 0 105 R D 2613 1400 M 0 105 R D 2692 1400 M 0 105 R D
2851 1400 M 0 105 R D 2930 1400 M 0 105 R D 3010 1400 M 0 105 R D
3089 1400 M 0 105 R D 3248 1400 M 0 105 R D 3327 1400 M 0 105 R D
3406 1400 M 0 105 R D 3486 1400 M 0 105 R D 1581 6650 M 1984 0 R D
1581 6650 M 0 -210 R D 1978 6650 M 0 -210 R D 2375 6650 M 0 -210 R D
2771 6650 M 0 -210 R D 3168 6650 M 0 -210 R D 3565 6650 M 0 -210 R D
1660 6650 M 0 -105 R D 1740 6650 M 0 -105 R D 1819 6650 M 0 -105 R D
1898 6650 M 0 -105 R D 2057 6650 M 0 -105 R D 2137 6650 M 0 -105 R D
2216 6650 M 0 -105 R D 2295 6650 M 0 -105 R D 2454 6650 M 0 -105 R D
2533 6650 M 0 -105 R D 2613 6650 M 0 -105 R D 2692 6650 M 0 -105 R D
2851 6650 M 0 -105 R D 2930 6650 M 0 -105 R D 3010 6650 M 0 -105 R D
3089 6650 M 0 -105 R D 3248 6650 M 0 -105 R D 3327 6650 M 0 -105 R D
3406 6650 M 0 -105 R D 3486 6650 M 0 -105 R D 1581 1400 M 0 5250 R D
1581 2241 M 79 0 R D gsave 1448 2072 translate 0 0 M 1.2 dup scale
-235.373 0 N
(1) show grestore 1581 3190 M 79 0 R D gsave 1448 3021 translate 0 0 M
1.2 dup scale -235.373 0 N
(2) show grestore 1581 4138 M 79 0 R D gsave 1448 3969 translate 0 0 M
1.2 dup scale -235.373 0 N
(3) show grestore 1581 5087 M 79 0 R D gsave 1448 4918 translate 0 0 M
1.2 dup scale -235.373 0 N
(4) show grestore 1581 6036 M 79 0 R D gsave 1448 5867 translate 0 0 M
1.2 dup scale -235.373 0 N
(5) show grestore 1581 1481 M 40 0 R D 1581 1576 M 40 0 R D 1581 1671 M
40 0 R D 1581 1766 M 40 0 R D 1581 1861 M 40 0 R D 1581 1956 M 40 0 R D
1581 2051 M 40 0 R D 1581 2146 M 40 0 R D 1581 2335 M 40 0 R D 1581 2430 M
40 0 R D 1581 2525 M 40 0 R D 1581 2620 M 40 0 R D 1581 2715 M 40 0 R D
1581 2810 M 40 0 R D 1581 2905 M 40 0 R D 1581 3000 M 40 0 R D 1581 3095 M
40 0 R D 1581 3284 M 40 0 R D 1581 3379 M 40 0 R D 1581 3474 M 40 0 R D
1581 3569 M 40 0 R D 1581 3664 M 40 0 R D 1581 3759 M 40 0 R D 1581 3854 M
40 0 R D 1581 3949 M 40 0 R D 1581 4044 M 40 0 R D 1581 4233 M 40 0 R D
1581 4328 M 40 0 R D 1581 4423 M 40 0 R D 1581 4518 M 40 0 R D 1581 4613 M
40 0 R D 1581 4708 M 40 0 R D 1581 4803 M 40 0 R D 1581 4898 M 40 0 R D
1581 4992 M 40 0 R D 1581 5182 M 40 0 R D 1581 5277 M 40 0 R D 1581 5372 M
40 0 R D 1581 5467 M 40 0 R D 1581 5562 M 40 0 R D 1581 5657 M 40 0 R D
1581 5752 M 40 0 R D 1581 5846 M 40 0 R D 1581 5941 M 40 0 R D 1581 6131 M
40 0 R D 1581 6226 M 40 0 R D 1581 6321 M 40 0 R D 1581 6416 M 40 0 R D
1581 6511 M 40 0 R D 1581 6606 M 40 0 R D 3565 1400 M 0 5250 R D 3565 2241 M
-79 0 R D 3565 3190 M -79 0 R D 3565 4138 M -79 0 R D 3565 5087 M -79 0 R D
3565 6036 M -79 0 R D 3565 1481 M -40 0 R D 3565 1576 M -40 0 R D
3565 1671 M -40 0 R D 3565 1766 M -40 0 R D 3565 1861 M -40 0 R D
3565 1956 M -40 0 R D 3565 2051 M -40 0 R D 3565 2146 M -40 0 R D
3565 2335 M -40 0 R D 3565 2430 M -40 0 R D 3565 2525 M -40 0 R D
3565 2620 M -40 0 R D 3565 2715 M -40 0 R D 3565 2810 M -40 0 R D
3565 2905 M -40 0 R D 3565 3000 M -40 0 R D 3565 3095 M -40 0 R D
3565 3284 M -40 0 R D 3565 3379 M -40 0 R D 3565 3474 M -40 0 R D
3565 3569 M -40 0 R D 3565 3664 M -40 0 R D 3565 3759 M -40 0 R D
3565 3854 M -40 0 R D 3565 3949 M -40 0 R D 3565 4044 M -40 0 R D
3565 4233 M -40 0 R D 3565 4328 M -40 0 R D 3565 4423 M -40 0 R D
3565 4518 M -40 0 R D 3565 4613 M -40 0 R D 3565 4708 M -40 0 R D
3565 4803 M -40 0 R D 3565 4898 M -40 0 R D 3565 4992 M -40 0 R D
3565 5182 M -40 0 R D 3565 5277 M -40 0 R D 3565 5372 M -40 0 R D
3565 5467 M -40 0 R D 3565 5562 M -40 0 R D 3565 5657 M -40 0 R D
3565 5752 M -40 0 R D 3565 5846 M -40 0 R D 3565 5941 M -40 0 R D
3565 6131 M -40 0 R D 3565 6226 M -40 0 R D 3565 6321 M -40 0 R D
3565 6416 M -40 0 R D 3565 6511 M -40 0 R D 3565 6606 M -40 0 R D L1
1581 6650 M 198 -1741 R 199 -854 R 238 -585 R 159 -258 R 396 -419 R
397 -250 R 397 -168 R D L3 1581 5798 M 198 -841 R 199 -2916 R 238 -101 R
159 -42 R 396 -49 R 397 22 R 397 104 R D gsave 3486 6007 translate 0 0 M
1.2 dup scale -947.42 0 N
%%IncludeResource: font Symbol
423.333 /Symbol STDFONT
(e) show
%%IncludeResource: font Helvetica
423.333 /Helvetica STDFONT
(=0.1) show grestore L0 4495 1400 M 1984 0 R D 4495 1400 M 0 210 R D
gsave 4495 766 translate 0 0 M 1.2 dup scale -58.8433 0 N
( ) show grestore 4892 1400 M 0 210 R D gsave 4892 766 translate 0 0 M
1.2 dup scale -294.217 0 N
(0.1) show grestore 5289 1400 M 0 210 R D gsave 5289 766 translate 0 0 M
1.2 dup scale -58.8433 0 N
( ) show grestore 5685 1400 M 0 210 R D gsave 5685 766 translate 0 0 M
1.2 dup scale -294.217 0 N
(0.2) show grestore 6082 1400 M 0 210 R D gsave 6082 766 translate 0 0 M
1.2 dup scale -58.8433 0 N
( ) show grestore 6479 1400 M 0 210 R D gsave 6479 766 translate 0 0 M
1.2 dup scale -294.217 0 N
(0.3) show grestore 4574 1400 M 0 105 R D 4654 1400 M 0 105 R D 4733 1400 M
0 105 R D 4812 1400 M 0 105 R D 4971 1400 M 0 105 R D 5051 1400 M 0 105 R D
5130 1400 M 0 105 R D 5209 1400 M 0 105 R D 5368 1400 M 0 105 R D
5447 1400 M 0 105 R D 5527 1400 M 0 105 R D 5606 1400 M 0 105 R D
5765 1400 M 0 105 R D 5844 1400 M 0 105 R D 5924 1400 M 0 105 R D
6003 1400 M 0 105 R D 6162 1400 M 0 105 R D 6241 1400 M 0 105 R D
6320 1400 M 0 105 R D 6400 1400 M 0 105 R D 4495 6650 M 1984 0 R D
4495 6650 M 0 -210 R D 4892 6650 M 0 -210 R D 5289 6650 M 0 -210 R D
5685 6650 M 0 -210 R D 6082 6650 M 0 -210 R D 6479 6650 M 0 -210 R D
4574 6650 M 0 -105 R D 4654 6650 M 0 -105 R D 4733 6650 M 0 -105 R D
4812 6650 M 0 -105 R D 4971 6650 M 0 -105 R D 5051 6650 M 0 -105 R D
5130 6650 M 0 -105 R D 5209 6650 M 0 -105 R D 5368 6650 M 0 -105 R D
5447 6650 M 0 -105 R D 5527 6650 M 0 -105 R D 5606 6650 M 0 -105 R D
5765 6650 M 0 -105 R D 5844 6650 M 0 -105 R D 5924 6650 M 0 -105 R D
6003 6650 M 0 -105 R D 6162 6650 M 0 -105 R D 6241 6650 M 0 -105 R D
6320 6650 M 0 -105 R D 6400 6650 M 0 -105 R D 4495 1400 M 0 5250 R D
4495 2590 M 79 0 R D gsave 4362 2421 translate 0 0 M 1.2 dup scale
-235.373 0 N
(2) show grestore 4495 3887 M 79 0 R D gsave 4362 3718 translate 0 0 M
1.2 dup scale -235.373 0 N
(4) show grestore 4495 5185 M 79 0 R D gsave 4362 5016 translate 0 0 M
1.2 dup scale -235.373 0 N
(6) show grestore 4495 6483 M 79 0 R D gsave 4362 6314 translate 0 0 M
1.2 dup scale -235.373 0 N
(8) show grestore 4495 1616 M 40 0 R D 4495 1941 M 40 0 R D 4495 2265 M
40 0 R D 4495 2914 M 40 0 R D 4495 3238 M 40 0 R D 4495 3563 M 40 0 R D
4495 4212 M 40 0 R D 4495 4536 M 40 0 R D 4495 4861 M 40 0 R D 4495 5510 M
40 0 R D 4495 5834 M 40 0 R D 4495 6159 M 40 0 R D 6479 1400 M 0 5250 R D
6479 2590 M -79 0 R D 6479 3887 M -79 0 R D 6479 5185 M -79 0 R D
6479 6483 M -79 0 R D 6479 1616 M -40 0 R D 6479 1941 M -40 0 R D
6479 2265 M -40 0 R D 6479 2914 M -40 0 R D 6479 3238 M -40 0 R D
6479 3563 M -40 0 R D 6479 4212 M -40 0 R D 6479 4536 M -40 0 R D
6479 4861 M -40 0 R D 6479 5510 M -40 0 R D 6479 5834 M -40 0 R D
6479 6159 M -40 0 R D L1 4495 6650 M 198 -1741 R 199 -854 R 238 -585 R
159 -258 R 396 -419 R 397 -250 R 397 -168 R D L3 4496 6650 M 197 -1394 R
199 -2516 R 238 -203 R 159 -90 R 396 -131 R 397 -36 R 397 45 R D
80 setlinewidth L0 0.000 0.000 1.000 setrgbcolor 4895 1400 M 175 5250 R D
5169 6650 M 117 -5250 R D 0.000 0.000 0.000 setrgbcolor
gsave 6400 6007 translate 0 0 M 1.2 dup scale -947.42 0 N
%%IncludeResource: font Symbol
423.333 /Symbol STDFONT
(e) show
%%IncludeResource: font Helvetica
423.333 /Helvetica STDFONT
(=0.3) show grestore 40 setlinewidth 7409 1400 M 1984 0 R D 7409 1400 M
0 210 R D gsave 7409 766 translate 0 0 M 1.2 dup scale -58.8433 0 N
( ) show grestore 7806 1400 M 0 210 R D gsave 7806 766 translate 0 0 M
1.2 dup scale -294.217 0 N
(0.1) show grestore 8203 1400 M 0 210 R D gsave 8203 766 translate 0 0 M
1.2 dup scale -58.8433 0 N
( ) show grestore 8599 1400 M 0 210 R D gsave 8599 766 translate 0 0 M
1.2 dup scale -294.217 0 N
(0.2) show grestore 8996 1400 M 0 210 R D gsave 8996 766 translate 0 0 M
1.2 dup scale -58.8433 0 N
( ) show grestore 9393 1400 M 0 210 R D gsave 9393 766 translate 0 0 M
1.2 dup scale -294.217 0 N
(0.3) show grestore 7488 1400 M 0 105 R D 7568 1400 M 0 105 R D 7647 1400 M
0 105 R D 7727 1400 M 0 105 R D 7885 1400 M 0 105 R D 7965 1400 M 0 105 R D
8044 1400 M 0 105 R D 8123 1400 M 0 105 R D 8282 1400 M 0 105 R D
8361 1400 M 0 105 R D 8441 1400 M 0 105 R D 8520 1400 M 0 105 R D
8679 1400 M 0 105 R D 8758 1400 M 0 105 R D 8838 1400 M 0 105 R D
8917 1400 M 0 105 R D 9076 1400 M 0 105 R D 9155 1400 M 0 105 R D
9234 1400 M 0 105 R D 9314 1400 M 0 105 R D 7409 6650 M 1984 0 R D
7409 6650 M 0 -210 R D 7806 6650 M 0 -210 R D 8203 6650 M 0 -210 R D
8599 6650 M 0 -210 R D 8996 6650 M 0 -210 R D 9393 6650 M 0 -210 R D
7488 6650 M 0 -105 R D 7568 6650 M 0 -105 R D 7647 6650 M 0 -105 R D
7727 6650 M 0 -105 R D 7885 6650 M 0 -105 R D 7965 6650 M 0 -105 R D
8044 6650 M 0 -105 R D 8123 6650 M 0 -105 R D 8282 6650 M 0 -105 R D
8361 6650 M 0 -105 R D 8441 6650 M 0 -105 R D 8520 6650 M 0 -105 R D
8679 6650 M 0 -105 R D 8758 6650 M 0 -105 R D 8838 6650 M 0 -105 R D
8917 6650 M 0 -105 R D 9076 6650 M 0 -105 R D 9155 6650 M 0 -105 R D
9234 6650 M 0 -105 R D 9314 6650 M 0 -105 R D 7409 1400 M 0 5250 R D
7409 2179 M 79 0 R D gsave 7276 2010 translate 0 0 M 1.2 dup scale
-235.373 0 N
(2) show grestore 7409 3067 M 79 0 R D gsave 7276 2898 translate 0 0 M
1.2 dup scale -235.373 0 N
(4) show grestore 7409 3954 M 79 0 R D gsave 7276 3785 translate 0 0 M
1.2 dup scale -235.373 0 N
(6) show grestore 7409 4842 M 79 0 R D gsave 7276 4673 translate 0 0 M
1.2 dup scale -235.373 0 N
(8) show grestore 7409 5729 M 79 0 R D gsave 7276 5560 translate 0 0 M
1.2 dup scale -470.747 0 N
(10) show grestore 7409 6617 M 79 0 R D gsave 7276 6354 translate 0 0 M
1.2 dup scale -470.747 0 N
(12) show grestore 7409 1514 M 40 0 R D 7409 1735 M 40 0 R D 7409 1957 M
40 0 R D 7409 2401 M 40 0 R D 7409 2623 M 40 0 R D 7409 2845 M 40 0 R D
7409 3289 M 40 0 R D 7409 3511 M 40 0 R D 7409 3732 M 40 0 R D 7409 4176 M
40 0 R D 7409 4398 M 40 0 R D 7409 4620 M 40 0 R D 7409 5064 M 40 0 R D
7409 5286 M 40 0 R D 7409 5508 M 40 0 R D 7409 5951 M 40 0 R D 7409 6173 M
40 0 R D 7409 6395 M 40 0 R D 9393 1400 M 0 5250 R D 9393 2179 M -79 0 R D
9393 3067 M -79 0 R D 9393 3954 M -79 0 R D 9393 4842 M -79 0 R D
9393 5729 M -79 0 R D 9393 6617 M -79 0 R D 9393 1514 M -40 0 R D
9393 1735 M -40 0 R D 9393 1957 M -40 0 R D 9393 2401 M -40 0 R D
9393 2623 M -40 0 R D 9393 2845 M -40 0 R D 9393 3289 M -40 0 R D
9393 3511 M -40 0 R D 9393 3732 M -40 0 R D 9393 4176 M -40 0 R D
9393 4398 M -40 0 R D 9393 4620 M -40 0 R D 9393 5064 M -40 0 R D
9393 5286 M -40 0 R D 9393 5508 M -40 0 R D 9393 5951 M -40 0 R D
9393 6173 M -40 0 R D 9393 6395 M -40 0 R D L1 7409 6650 M 198 -1741 R
199 -854 R 238 -585 R 159 -258 R 396 -419 R 397 -250 R 397 -168 R D L3
7409 6527 M 198 -1528 R 199 -2101 R 238 -231 R 159 -104 R 396 -162 R
397 -75 R 397 -12 R D gsave 9314 6007 translate 0 0 M 1.2 dup scale
-947.42 0 N
%%IncludeResource: font Symbol
423.333 /Symbol STDFONT
(e) show
%%IncludeResource: font Helvetica
423.333 /Helvetica STDFONT
(=0.5) show grestore L0 10323 1400 M 1984 0 R D 10323 1400 M 0 210 R D
gsave 10323 766 translate 0 0 M 1.2 dup scale -58.8433 0 N
( ) show grestore 10720 1400 M 0 210 R D gsave 10720 766 translate 0 0 M
1.2 dup scale -294.217 0 N
(0.1) show grestore 11117 1400 M 0 210 R D gsave 11117 766 translate 0 0 M
1.2 dup scale -58.8433 0 N
( ) show grestore 11514 1400 M 0 210 R D gsave 11514 766 translate 0 0 M
1.2 dup scale -294.217 0 N
(0.2) show grestore 11910 1400 M 0 210 R D gsave 11910 766 translate 0 0 M
1.2 dup scale -58.8433 0 N
( ) show grestore 12307 1400 M 0 210 R D gsave 12307 766 translate 0 0 M
1.2 dup scale -294.217 0 N
(0.3) show grestore 10402 1400 M 0 105 R D 10482 1400 M 0 105 R D
10561 1400 M 0 105 R D 10641 1400 M 0 105 R D 10799 1400 M 0 105 R D
10879 1400 M 0 105 R D 10958 1400 M 0 105 R D 11037 1400 M 0 105 R D
11196 1400 M 0 105 R D 11275 1400 M 0 105 R D 11355 1400 M 0 105 R D
11434 1400 M 0 105 R D 11593 1400 M 0 105 R D 11672 1400 M 0 105 R D
11752 1400 M 0 105 R D 11831 1400 M 0 105 R D 11990 1400 M 0 105 R D
12069 1400 M 0 105 R D 12148 1400 M 0 105 R D 12228 1400 M 0 105 R D
10323 6650 M 1984 0 R D 10323 6650 M 0 -210 R D 10720 6650 M 0 -210 R D
11117 6650 M 0 -210 R D 11514 6650 M 0 -210 R D 11910 6650 M 0 -210 R D
12307 6650 M 0 -210 R D 10402 6650 M 0 -105 R D 10482 6650 M 0 -105 R D
10561 6650 M 0 -105 R D 10641 6650 M 0 -105 R D 10799 6650 M 0 -105 R D
10879 6650 M 0 -105 R D 10958 6650 M 0 -105 R D 11037 6650 M 0 -105 R D
11196 6650 M 0 -105 R D 11275 6650 M 0 -105 R D 11355 6650 M 0 -105 R D
11434 6650 M 0 -105 R D 11593 6650 M 0 -105 R D 11672 6650 M 0 -105 R D
11752 6650 M 0 -105 R D 11831 6650 M 0 -105 R D 11990 6650 M 0 -105 R D
12069 6650 M 0 -105 R D 12148 6650 M 0 -105 R D 12228 6650 M 0 -105 R D
10323 1400 M 0 5250 R D 10323 2809 M 79 0 R D
gsave 10190 2640 translate 0 0 M 1.2 dup scale -235.373 0 N
(5) show grestore 10323 4327 M 79 0 R D gsave 10190 4158 translate 0 0 M
1.2 dup scale -470.747 0 N
(10) show grestore 10323 5844 M 79 0 R D gsave 10190 5675 translate 0 0 M
1.2 dup scale -470.747 0 N
(15) show grestore 10323 1595 M 40 0 R D 10323 1899 M 40 0 R D 10323 2202 M
40 0 R D 10323 2506 M 40 0 R D 10323 3113 M 40 0 R D 10323 3416 M 40 0 R D
10323 3720 M 40 0 R D 10323 4023 M 40 0 R D 10323 4630 M 40 0 R D
10323 4933 M 40 0 R D 10323 5237 M 40 0 R D 10323 5540 M 40 0 R D
10323 6147 M 40 0 R D 10323 6451 M 40 0 R D 12307 1400 M 0 5250 R D
12307 2809 M -79 0 R D 12307 4327 M -79 0 R D 12307 5844 M -79 0 R D
12307 1595 M -40 0 R D 12307 1899 M -40 0 R D 12307 2202 M -40 0 R D
12307 2506 M -40 0 R D 12307 3113 M -40 0 R D 12307 3416 M -40 0 R D
12307 3720 M -40 0 R D 12307 4023 M -40 0 R D 12307 4630 M -40 0 R D
12307 4933 M -40 0 R D 12307 5237 M -40 0 R D 12307 5540 M -40 0 R D
12307 6147 M -40 0 R D 12307 6451 M -40 0 R D L1 10323 6650 M 198 -1741 R
199 -854 R 238 -585 R 159 -258 R 397 -419 R 396 -250 R 397 -168 R D L3
10323 5941 M 198 -1432 R 199 -1708 R 238 -219 R 159 -100 R 397 -164 R
396 -90 R 397 -45 R D gsave 12228 6007 translate 0 0 M 1.2 dup scale
-947.42 0 N
%%IncludeResource: font Symbol
423.333 /Symbol STDFONT
(e) show
%%IncludeResource: font Helvetica
423.333 /Helvetica STDFONT
(=0.7) show grestore L0 13237 1400 M 1984 0 R D 13237 1400 M 0 210 R D
gsave 13237 766 translate 0 0 M 1.2 dup scale -58.8433 0 N
( ) show grestore 13634 1400 M 0 210 R D gsave 13634 766 translate 0 0 M
1.2 dup scale -294.217 0 N
(0.1) show grestore 14031 1400 M 0 210 R D gsave 14031 766 translate 0 0 M
1.2 dup scale -58.8433 0 N
( ) show grestore 14428 1400 M 0 210 R D gsave 14428 766 translate 0 0 M
1.2 dup scale -294.217 0 N
(0.2) show grestore 14824 1400 M 0 210 R D gsave 14824 766 translate 0 0 M
1.2 dup scale -58.8433 0 N
( ) show grestore 15221 1400 M 0 210 R D gsave 15221 766 translate 0 0 M
1.2 dup scale -294.217 0 N
(0.3) show grestore 13316 1400 M 0 105 R D 13396 1400 M 0 105 R D
13475 1400 M 0 105 R D 13555 1400 M 0 105 R D 13713 1400 M 0 105 R D
13793 1400 M 0 105 R D 13872 1400 M 0 105 R D 13951 1400 M 0 105 R D
14110 1400 M 0 105 R D 14189 1400 M 0 105 R D 14269 1400 M 0 105 R D
14348 1400 M 0 105 R D 14507 1400 M 0 105 R D 14586 1400 M 0 105 R D
14666 1400 M 0 105 R D 14745 1400 M 0 105 R D 14904 1400 M 0 105 R D
14983 1400 M 0 105 R D 15062 1400 M 0 105 R D 15142 1400 M 0 105 R D
13237 6650 M 1984 0 R D 13237 6650 M 0 -210 R D 13634 6650 M 0 -210 R D
14031 6650 M 0 -210 R D 14428 6650 M 0 -210 R D 14824 6650 M 0 -210 R D
15221 6650 M 0 -210 R D 13316 6650 M 0 -105 R D 13396 6650 M 0 -105 R D
13475 6650 M 0 -105 R D 13555 6650 M 0 -105 R D 13713 6650 M 0 -105 R D
13793 6650 M 0 -105 R D 13872 6650 M 0 -105 R D 13951 6650 M 0 -105 R D
14110 6650 M 0 -105 R D 14189 6650 M 0 -105 R D 14269 6650 M 0 -105 R D
14348 6650 M 0 -105 R D 14507 6650 M 0 -105 R D 14586 6650 M 0 -105 R D
14666 6650 M 0 -105 R D 14745 6650 M 0 -105 R D 14904 6650 M 0 -105 R D
14983 6650 M 0 -105 R D 15062 6650 M 0 -105 R D 15142 6650 M 0 -105 R D
13237 1400 M 0 5250 R D 13237 2329 M 79 0 R D
gsave 13104 2160 translate 0 0 M 1.2 dup scale -235.373 0 N
(5) show grestore 13237 3367 M 79 0 R D gsave 13104 3198 translate 0 0 M
1.2 dup scale -470.747 0 N
(10) show grestore 13237 4405 M 79 0 R D gsave 13104 4236 translate 0 0 M
1.2 dup scale -470.747 0 N
(15) show grestore 13237 5442 M 79 0 R D gsave 13104 5274 translate 0 0 M
1.2 dup scale -470.747 0 N
(20) show grestore 13237 6480 M 79 0 R D gsave 13104 6311 translate 0 0 M
1.2 dup scale -470.747 0 N
(25) show grestore 13237 1499 M 40 0 R D 13237 1707 M 40 0 R D 13237 1914 M
40 0 R D 13237 2122 M 40 0 R D 13237 2537 M 40 0 R D 13237 2744 M 40 0 R D
13237 2952 M 40 0 R D 13237 3160 M 40 0 R D 13237 3575 M 40 0 R D
13237 3782 M 40 0 R D 13237 3990 M 40 0 R D 13237 4197 M 40 0 R D
13237 4612 M 40 0 R D 13237 4820 M 40 0 R D 13237 5027 M 40 0 R D
13237 5235 M 40 0 R D 13237 5650 M 40 0 R D 13237 5858 M 40 0 R D
13237 6065 M 40 0 R D 13237 6273 M 40 0 R D 15221 1400 M 0 5250 R D
15221 2329 M -79 0 R D 15221 3367 M -79 0 R D 15221 4405 M -79 0 R D
15221 5442 M -79 0 R D 15221 6480 M -79 0 R D 15221 1499 M -40 0 R D
15221 1707 M -40 0 R D 15221 1914 M -40 0 R D 15221 2122 M -40 0 R D
15221 2537 M -40 0 R D 15221 2744 M -40 0 R D 15221 2952 M -40 0 R D
15221 3160 M -40 0 R D 15221 3575 M -40 0 R D 15221 3782 M -40 0 R D
15221 3990 M -40 0 R D 15221 4197 M -40 0 R D 15221 4612 M -40 0 R D
15221 4820 M -40 0 R D 15221 5027 M -40 0 R D 15221 5235 M -40 0 R D
15221 5650 M -40 0 R D 15221 5858 M -40 0 R D 15221 6065 M -40 0 R D
15221 6273 M -40 0 R D L1 13237 6650 M 199 -1741 R 198 -854 R 238 -585 R
159 -258 R 397 -419 R 396 -250 R 397 -168 R D L3 13237 5202 M 199 -1244 R
198 -1357 R 238 -192 R 159 -88 R 397 -149 R 396 -91 R 397 -59 R D
gsave 15142 6007 translate 0 0 M 1.2 dup scale -947.42 0 N
%%IncludeResource: font Symbol
423.333 /Symbol STDFONT
(e) show
%%IncludeResource: font Helvetica
423.333 /Helvetica STDFONT
(=0.9) show grestore L0 16151 1400 M 1984 0 R D 16151 1400 M 0 210 R D
gsave 16151 766 translate 0 0 M 1.2 dup scale -58.8433 0 N
( ) show grestore 16548 1400 M 0 210 R D gsave 16548 766 translate 0 0 M
1.2 dup scale -294.217 0 N
(0.1) show grestore 16945 1400 M 0 210 R D gsave 16945 766 translate 0 0 M
1.2 dup scale -58.8433 0 N
( ) show grestore 17342 1400 M 0 210 R D gsave 17342 766 translate 0 0 M
1.2 dup scale -294.217 0 N
(0.2) show grestore 17738 1400 M 0 210 R D gsave 17738 766 translate 0 0 M
1.2 dup scale -58.8433 0 N
( ) show grestore 18135 1400 M 0 210 R D gsave 18135 766 translate 0 0 M
1.2 dup scale -294.217 0 N
(0.3) show grestore 16231 1400 M 0 105 R D 16310 1400 M 0 105 R D
16389 1400 M 0 105 R D 16469 1400 M 0 105 R D 16627 1400 M 0 105 R D
16707 1400 M 0 105 R D 16786 1400 M 0 105 R D 16865 1400 M 0 105 R D
17024 1400 M 0 105 R D 17103 1400 M 0 105 R D 17183 1400 M 0 105 R D
17262 1400 M 0 105 R D 17421 1400 M 0 105 R D 17500 1400 M 0 105 R D
17580 1400 M 0 105 R D 17659 1400 M 0 105 R D 17818 1400 M 0 105 R D
17897 1400 M 0 105 R D 17976 1400 M 0 105 R D 18056 1400 M 0 105 R D
16151 6650 M 1984 0 R D 16151 6650 M 0 -210 R D 16548 6650 M 0 -210 R D
16945 6650 M 0 -210 R D 17342 6650 M 0 -210 R D 17738 6650 M 0 -210 R D
18135 6650 M 0 -210 R D 16231 6650 M 0 -105 R D 16310 6650 M 0 -105 R D
16389 6650 M 0 -105 R D 16469 6650 M 0 -105 R D 16627 6650 M 0 -105 R D
16707 6650 M 0 -105 R D 16786 6650 M 0 -105 R D 16865 6650 M 0 -105 R D
17024 6650 M 0 -105 R D 17103 6650 M 0 -105 R D 17183 6650 M 0 -105 R D
17262 6650 M 0 -105 R D 17421 6650 M 0 -105 R D 17500 6650 M 0 -105 R D
17580 6650 M 0 -105 R D 17659 6650 M 0 -105 R D 17818 6650 M 0 -105 R D
17897 6650 M 0 -105 R D 17976 6650 M 0 -105 R D 18056 6650 M 0 -105 R D
16151 1400 M 0 5250 R D 16151 2150 M 80 0 R D
gsave 16018 1981 translate 0 0 M 1.2 dup scale -235.373 0 N
(5) show grestore 16151 3008 M 80 0 R D gsave 16018 2839 translate 0 0 M
1.2 dup scale -470.747 0 N
(10) show grestore 16151 3866 M 80 0 R D gsave 16018 3697 translate 0 0 M
1.2 dup scale -470.747 0 N
(15) show grestore 16151 4724 M 80 0 R D gsave 16018 4555 translate 0 0 M
1.2 dup scale -470.747 0 N
(20) show grestore 16151 5582 M 80 0 R D gsave 16018 5413 translate 0 0 M
1.2 dup scale -470.747 0 N
(25) show grestore 16151 6440 M 80 0 R D gsave 16018 6272 translate 0 0 M
1.2 dup scale -470.747 0 N
(30) show grestore 16151 1463 M 40 0 R D 16151 1635 M 40 0 R D 16151 1807 M
40 0 R D 16151 1978 M 40 0 R D 16151 2321 M 40 0 R D 16151 2493 M 40 0 R D
16151 2665 M 40 0 R D 16151 2836 M 40 0 R D 16151 3180 M 40 0 R D
16151 3351 M 40 0 R D 16151 3523 M 40 0 R D 16151 3694 M 40 0 R D
16151 4038 M 40 0 R D 16151 4209 M 40 0 R D 16151 4381 M 40 0 R D
16151 4553 M 40 0 R D 16151 4896 M 40 0 R D 16151 5067 M 40 0 R D
16151 5239 M 40 0 R D 16151 5411 M 40 0 R D 16151 5754 M 40 0 R D
16151 5926 M 40 0 R D 16151 6097 M 40 0 R D 16151 6269 M 40 0 R D
16151 6612 M 40 0 R D 18135 1400 M 0 5250 R D 18135 2150 M -79 0 R D
18135 3008 M -79 0 R D 18135 3866 M -79 0 R D 18135 4724 M -79 0 R D
18135 5582 M -79 0 R D 18135 6440 M -79 0 R D 18135 1463 M -39 0 R D
18135 1635 M -39 0 R D 18135 1807 M -39 0 R D 18135 1978 M -39 0 R D
18135 2321 M -39 0 R D 18135 2493 M -39 0 R D 18135 2665 M -39 0 R D
18135 2836 M -39 0 R D 18135 3180 M -39 0 R D 18135 3351 M -39 0 R D
18135 3523 M -39 0 R D 18135 3694 M -39 0 R D 18135 4038 M -39 0 R D
18135 4209 M -39 0 R D 18135 4381 M -39 0 R D 18135 4553 M -39 0 R D
18135 4896 M -39 0 R D 18135 5067 M -39 0 R D 18135 5239 M -39 0 R D
18135 5411 M -39 0 R D 18135 5754 M -39 0 R D 18135 5926 M -39 0 R D
18135 6097 M -39 0 R D 18135 6269 M -39 0 R D 18135 6612 M -39 0 R D L1
16151 6650 M 199 -1741 R 198 -854 R 238 -585 R 159 -258 R 397 -419 R
396 -250 R 397 -168 R D L3 16151 4085 M 199 -654 R 198 -943 R 238 -176 R
159 -82 R 397 -138 R 396 -87 R 397 -61 R D gsave 18056 6007 translate 0 0 M
1.2 dup scale -947.42 0 N
%%IncludeResource: font Symbol
423.333 /Symbol STDFONT
(e) show
%%IncludeResource: font Helvetica
423.333 /Helvetica STDFONT
(=1.0) show grestore 0.000 0.000 1.000 setrgbcolor
gsave 15624 5460 translate 0 0 M 1.2 dup scale
(mrs0) show grestore L0 15682 5173 M 75 0 R 76 0 R 76 0 R 75 0 R 76 0 R
76 0 R 76 0 R 75 0 R 76 0 R D 80 setlinewidth 15682 4726 M 75 0 R 76 0 R
76 0 R 75 0 R 76 0 R 76 0 R 76 0 R 75 0 R 76 0 R D 40 setlinewidth L1
0.000 0.000 0.000 setrgbcolor 15682 4280 M 75 0 R 76 0 R 76 0 R 75 0 R
76 0 R 76 0 R 76 0 R 75 0 R 76 0 R D L3 15682 3833 M 75 0 R 76 0 R 76 0 R
75 0 R 76 0 R 76 0 R 76 0 R 75 0 R 76 0 R D 0.000 0.000 1.000 setrgbcolor
gsave 16439 5038 translate 0 0 M 1.2 dup scale
(A=1.) show grestore gsave 16439 4592 translate 0 0 M 1.2 dup scale
(A=2.5) show grestore 0.000 0.000 0.000 setrgbcolor
gsave 16439 4145 translate 0 0 M 1.2 dup scale
(BK08) show grestore gsave 16439 3698 translate 0 0 M 1.2 dup scale
(T03) show grestore
%%PageTrailer
end
%%PageResources: font Helvetica
%%+ font Symbol
%%Trailer
%%Pages: 1
%%DocumentNeededResources: font Helvetica
%%+ font Symbol
%%EOF
