%!PS-Adobe-3.0 EPSF-3.0
%%BoundingBox: 0 0 510 184
%%Title: Graphics produced by IDL
%%For: jlgan@aida119, /home/jlgan/work/subhalo_model
%%Creator: IDL Version 7.0 (linux x86_64 m64)
%%CreationDate: Fri Jun  5 15:20:52 2009
%%DocumentData: Clean7bit
%%Requirements: color
%%LanguageLevel: 1
%%PageOrder: Ascend
%%Pages: (atend)
%%DocumentNeededResources: (atend)
%%EndComments
%%BeginProlog
%+ prolog.ps -- Prolog for IDL generated PostScript files
%+ Copyright (c) 1988-2007 ITT Visual Information Solutions. All Rights Reserved.
%v 5
/$IDL_DICT 40 dict def $IDL_DICT begin /bdef { bind def } bind def /C
{currentpoint newpath moveto} bdef /CP {currentpoint} bdef /D {currentpoint
stroke moveto} bdef /F {closepath fill} bdef /K { setgray } bdef /M {moveto}
bdef /N {rmoveto} bdef /P {lineto} bdef /R {rlineto} bdef /S {gsave show
grestore} bdef /X {currentpoint pop} bdef /Z {gsave currentpoint lineto 20
setlinewidth 1 setlinecap stroke grestore} bdef /L0 {[] 0 setdash} bdef /L1
{[40 100] 0 setdash} bdef /L2 {[200 200] 0 setdash} bdef /L3 {[200 100 50
100] 0 setdash} bdef /L4 {[300 100 50 100 50 100 50 100] 0 setdash} bdef /L5
{[400 200] 0 setdash} bdef /STDFONT { findfont exch scalefont setfont } bdef
/ISOFONT { findfont dup length dict begin { 1 index /FID ne {def} {pop pop}
ifelse } forall /Encoding ISOLatin1Encoding def currentdict end /idltmpfont
exch definefont exch scalefont setfont } bdef /ISOBULLET { gsave /Helvetica
findfont exch scalefont setfont (\267) show currentpoint grestore moveto}
bdef /MITERLIMIT { 2.5 setmiterlimit } bdef end
%%EndProlog
%%Page: 0 1
%%PageRequirements: color
%%PageResources: (atend)
%%PageOrientation: Portrait
%%PageBoundingBox: 0 0 510 184
%%BeginPageSetup
$IDL_DICT begin 0.0283465 dup scale MITERLIMIT
%%IncludeResource: font Helvetica
423.333 /Helvetica STDFONT
%%EndPageSetup
0.000 0.000 0.000 setrgbcolor gsave 9777 352 translate 0 0 M 1.2 dup scale
-928.793 0 N
(m\(0\)/M\(0\)) show grestore gsave 1248 3602 translate 0 0 M 90 rotate
1.2 dup scale -1528.87 0 N
(merger time/Gyr) show grestore 40 setlinewidth L0 2580 1408 M 4318 0 R D
2580 1408 M 0 176 R D gsave 2580 986 translate 0 0 M 0.8 dup scale
-411.903 0 N
(0.05) show grestore 3444 1408 M 0 176 R D gsave 3444 986 translate 0 0 M
0.8 dup scale -411.903 0 N
(0.10) show grestore 4307 1408 M 0 176 R D gsave 4307 986 translate 0 0 M
0.8 dup scale -411.903 0 N
(0.15) show grestore 5171 1408 M 0 176 R D gsave 5171 986 translate 0 0 M
0.8 dup scale -411.903 0 N
(0.20) show grestore 6034 1408 M 0 176 R D gsave 6034 986 translate 0 0 M
0.8 dup scale -411.903 0 N
(0.25) show grestore 6898 1408 M 0 176 R D gsave 6898 986 translate 0 0 M
0.8 dup scale -411.903 0 N
(0.30) show grestore 2753 1408 M 0 88 R D 2926 1408 M 0 88 R D 3098 1408 M
0 88 R D 3271 1408 M 0 88 R D 3616 1408 M 0 88 R D 3789 1408 M 0 88 R D
3962 1408 M 0 88 R D 4135 1408 M 0 88 R D 4480 1408 M 0 88 R D 4653 1408 M
0 88 R D 4825 1408 M 0 88 R D 4998 1408 M 0 88 R D 5344 1408 M 0 88 R D
5516 1408 M 0 88 R D 5689 1408 M 0 88 R D 5862 1408 M 0 88 R D 6207 1408 M
0 88 R D 6380 1408 M 0 88 R D 6553 1408 M 0 88 R D 6725 1408 M 0 88 R D
2580 5796 M 4318 0 R D 2580 5796 M 0 -175 R D 3444 5796 M 0 -175 R D
4307 5796 M 0 -175 R D 5171 5796 M 0 -175 R D 6034 5796 M 0 -175 R D
6898 5796 M 0 -175 R D 2753 5796 M 0 -88 R D 2926 5796 M 0 -88 R D
3098 5796 M 0 -88 R D 3271 5796 M 0 -88 R D 3616 5796 M 0 -88 R D
3789 5796 M 0 -88 R D 3962 5796 M 0 -88 R D 4135 5796 M 0 -88 R D
4480 5796 M 0 -88 R D 4653 5796 M 0 -88 R D 4825 5796 M 0 -88 R D
4998 5796 M 0 -88 R D 5344 5796 M 0 -88 R D 5516 5796 M 0 -88 R D
5689 5796 M 0 -88 R D 5862 5796 M 0 -88 R D 6207 5796 M 0 -88 R D
6380 5796 M 0 -88 R D 6553 5796 M 0 -88 R D 6725 5796 M 0 -88 R D
2580 1408 M 0 4388 R D 2580 2402 M 173 0 R D gsave 2469 2261 translate 0 0 M
-235.373 0 N
(2) show grestore 2580 3487 M 173 0 R D gsave 2469 3346 translate 0 0 M
-235.373 0 N
(4) show grestore 2580 4572 M 173 0 R D gsave 2469 4431 translate 0 0 M
-235.373 0 N
(6) show grestore 2580 5656 M 173 0 R D gsave 2469 5516 translate 0 0 M
-235.373 0 N
(8) show grestore 2580 1589 M 86 0 R D 2580 1860 M 86 0 R D 2580 2131 M
86 0 R D 2580 2673 M 86 0 R D 2580 2945 M 86 0 R D 2580 3216 M 86 0 R D
2580 3758 M 86 0 R D 2580 4029 M 86 0 R D 2580 4301 M 86 0 R D 2580 4843 M
86 0 R D 2580 5114 M 86 0 R D 2580 5385 M 86 0 R D 6898 1408 M 0 4388 R D
6898 2402 M -173 0 R D 6898 3487 M -173 0 R D 6898 4572 M -173 0 R D
6898 5656 M -173 0 R D 6898 1589 M -86 0 R D 6898 1860 M -86 0 R D
6898 2131 M -86 0 R D 6898 2673 M -86 0 R D 6898 2945 M -86 0 R D
6898 3216 M -86 0 R D 6898 3758 M -86 0 R D 6898 4029 M -86 0 R D
6898 4301 M -86 0 R D 6898 4843 M -86 0 R D 6898 5114 M -86 0 R D
6898 5385 M -86 0 R D L1 2580 5796 M 432 -1456 R 432 -713 R 518 -489 R
345 -216 R 864 -349 R 863 -210 R 864 -140 R D L2 3009 5796 M 3 -9 R
432 -747 R 518 -547 R 345 -254 R 864 -431 R 863 -272 R 864 -189 R D L3
2582 5796 M 430 -1165 R 432 -2103 R 518 -170 R 345 -75 R 864 -109 R
863 -30 R 864 37 R D L0 1.000 0.000 0.706 setrgbcolor 2934 5796 M 78 -646 R
432 -1111 R 518 -736 R 345 -292 R 864 -457 R 863 -228 R 864 -89 R D
0.506 0.000 0.000 setrgbcolor 2580 5782 M 432 -1136 R 432 -731 R 518 -779 R
345 -217 R 864 -413 R 863 -180 R 864 -89 R D 1.000 0.349 0.000 setrgbcolor
3331 5796 M 113 -723 R 518 -1674 R 345 -455 R 864 -438 R 863 -180 R
864 -89 R D 0.000 0.514 1.000 setrgbcolor 3117 5796 M 327 -1413 R
518 -1058 R 345 -381 R 864 -438 R 863 -180 R 864 -89 R D
0.588 0.000 0.588 setrgbcolor 3424 5796 M 20 -211 R 518 -2186 R 345 -455 R
864 -438 R 863 -180 R 864 -89 R D 0.000 0.000 0.000 setrgbcolor
gsave 5689 5259 translate 0 0 M
%%IncludeResource: font Symbol
423.333 /Symbol STDFONT
(e) show
%%IncludeResource: font Helvetica
423.333 /Helvetica STDFONT
(=0.3) show grestore 7618 1408 M 4318 0 R D 7618 1408 M 0 176 R D
gsave 7618 986 translate 0 0 M 0.8 dup scale -411.903 0 N
(0.05) show grestore 8482 1408 M 0 176 R D gsave 8482 986 translate 0 0 M
0.8 dup scale -411.903 0 N
(0.10) show grestore 9345 1408 M 0 176 R D gsave 9345 986 translate 0 0 M
0.8 dup scale -411.903 0 N
(0.15) show grestore 10209 1408 M 0 176 R D gsave 10209 986 translate 0 0 M
0.8 dup scale -411.903 0 N
(0.20) show grestore 11072 1408 M 0 176 R D gsave 11072 986 translate 0 0 M
0.8 dup scale -411.903 0 N
(0.25) show grestore 11936 1408 M 0 176 R D gsave 11936 986 translate 0 0 M
0.8 dup scale -411.903 0 N
(0.30) show grestore 7791 1408 M 0 88 R D 7964 1408 M 0 88 R D 8136 1408 M
0 88 R D 8309 1408 M 0 88 R D 8654 1408 M 0 88 R D 8827 1408 M 0 88 R D
9000 1408 M 0 88 R D 9173 1408 M 0 88 R D 9518 1408 M 0 88 R D 9691 1408 M
0 88 R D 9863 1408 M 0 88 R D 10036 1408 M 0 88 R D 10382 1408 M 0 88 R D
10554 1408 M 0 88 R D 10727 1408 M 0 88 R D 10900 1408 M 0 88 R D
11245 1408 M 0 88 R D 11418 1408 M 0 88 R D 11591 1408 M 0 88 R D
11763 1408 M 0 88 R D 7618 5796 M 4318 0 R D 7618 5796 M 0 -175 R D
8482 5796 M 0 -175 R D 9345 5796 M 0 -175 R D 10209 5796 M 0 -175 R D
11072 5796 M 0 -175 R D 11936 5796 M 0 -175 R D 7791 5796 M 0 -88 R D
7964 5796 M 0 -88 R D 8136 5796 M 0 -88 R D 8309 5796 M 0 -88 R D
8654 5796 M 0 -88 R D 8827 5796 M 0 -88 R D 9000 5796 M 0 -88 R D
9173 5796 M 0 -88 R D 9518 5796 M 0 -88 R D 9691 5796 M 0 -88 R D
9863 5796 M 0 -88 R D 10036 5796 M 0 -88 R D 10382 5796 M 0 -88 R D
10554 5796 M 0 -88 R D 10727 5796 M 0 -88 R D 10900 5796 M 0 -88 R D
11245 5796 M 0 -88 R D 11418 5796 M 0 -88 R D 11591 5796 M 0 -88 R D
11763 5796 M 0 -88 R D 7618 1408 M 0 4388 R D 7618 2059 M 173 0 R D
gsave 7507 1919 translate 0 0 M -235.373 0 N
(2) show grestore 7618 2801 M 173 0 R D gsave 7507 2660 translate 0 0 M
-235.373 0 N
(4) show grestore 7618 3543 M 173 0 R D gsave 7507 3402 translate 0 0 M
-235.373 0 N
(6) show grestore 7618 4285 M 173 0 R D gsave 7507 4144 translate 0 0 M
-235.373 0 N
(8) show grestore 7618 5027 M 173 0 R D gsave 7507 4886 translate 0 0 M
-470.747 0 N
(10) show grestore 7618 5768 M 173 0 R D gsave 7507 5550 translate 0 0 M
-470.747 0 N
(12) show grestore 7618 1503 M 86 0 R D 7618 1688 M 86 0 R D 7618 1874 M
86 0 R D 7618 2245 M 86 0 R D 7618 2430 M 86 0 R D 7618 2616 M 86 0 R D
7618 2987 M 86 0 R D 7618 3172 M 86 0 R D 7618 3357 M 86 0 R D 7618 3728 M
86 0 R D 7618 3914 M 86 0 R D 7618 4099 M 86 0 R D 7618 4470 M 86 0 R D
7618 4656 M 86 0 R D 7618 4841 M 86 0 R D 7618 5212 M 86 0 R D 7618 5397 M
86 0 R D 7618 5583 M 86 0 R D 11936 1408 M 0 4388 R D 11936 2059 M -173 0 R
D 11936 2801 M -173 0 R D 11936 3543 M -173 0 R D 11936 4285 M -173 0 R D
11936 5027 M -173 0 R D 11936 5768 M -173 0 R D 11936 1503 M -86 0 R D
11936 1688 M -86 0 R D 11936 1874 M -86 0 R D 11936 2245 M -86 0 R D
11936 2430 M -86 0 R D 11936 2616 M -86 0 R D 11936 2987 M -86 0 R D
11936 3172 M -86 0 R D 11936 3357 M -86 0 R D 11936 3728 M -86 0 R D
11936 3914 M -86 0 R D 11936 4099 M -86 0 R D 11936 4470 M -86 0 R D
11936 4656 M -86 0 R D 11936 4841 M -86 0 R D 11936 5212 M -86 0 R D
11936 5397 M -86 0 R D 11936 5583 M -86 0 R D L1 7618 5796 M 432 -1456 R
432 -713 R 518 -489 R 345 -216 R 864 -349 R 863 -210 R 864 -140 R D L2
7678 5796 M 372 -948 R 432 -590 R 518 -433 R 345 -200 R 864 -340 R
863 -215 R 864 -150 R D L3 7618 5693 M 432 -1277 R 432 -1756 R 518 -193 R
345 -87 R 864 -135 R 863 -63 R 864 -10 R D L0 1.000 0.000 0.706 setrgbcolor
7939 5796 M 111 -778 R 432 -1113 R 518 -699 R 345 -304 R 864 -423 R
863 -200 R 864 -98 R D 0.506 0.000 0.000 setrgbcolor 7684 5796 M 366 -1371 R
432 -888 R 518 -450 R 345 -234 R 864 -376 R 863 -198 R 864 -98 R D
1.000 0.349 0.000 setrgbcolor 8271 5796 M 211 -1302 R 518 -1332 R 345 -309 R
864 -376 R 863 -198 R 864 -98 R D 0.000 0.514 1.000 setrgbcolor 7995 5796 M
55 -400 R 432 -1462 R 518 -787 R 345 -294 R 864 -376 R 863 -198 R 864 -98 R
D 0.588 0.000 0.588 setrgbcolor 8265 5796 M 217 -1396 R 518 -1238 R
345 -309 R 864 -376 R 863 -198 R 864 -98 R D 0.000 0.000 0.000 setrgbcolor
gsave 10727 5259 translate 0 0 M
%%IncludeResource: font Symbol
423.333 /Symbol STDFONT
(e) show
%%IncludeResource: font Helvetica
423.333 /Helvetica STDFONT
(=0.5) show grestore 12656 1408 M 4318 0 R D 12656 1408 M 0 176 R D
gsave 12656 986 translate 0 0 M 0.8 dup scale -411.903 0 N
(0.05) show grestore 13520 1408 M 0 176 R D gsave 13520 986 translate 0 0 M
0.8 dup scale -411.903 0 N
(0.10) show grestore 14383 1408 M 0 176 R D gsave 14383 986 translate 0 0 M
0.8 dup scale -411.903 0 N
(0.15) show grestore 15247 1408 M 0 176 R D gsave 15247 986 translate 0 0 M
0.8 dup scale -411.903 0 N
(0.20) show grestore 16110 1408 M 0 176 R D gsave 16110 986 translate 0 0 M
0.8 dup scale -411.903 0 N
(0.25) show grestore 16974 1408 M 0 176 R D gsave 16974 986 translate 0 0 M
0.8 dup scale -411.903 0 N
(0.30) show grestore 12829 1408 M 0 88 R D 13002 1408 M 0 88 R D
13174 1408 M 0 88 R D 13347 1408 M 0 88 R D 13692 1408 M 0 88 R D
13865 1408 M 0 88 R D 14038 1408 M 0 88 R D 14211 1408 M 0 88 R D
14556 1408 M 0 88 R D 14729 1408 M 0 88 R D 14901 1408 M 0 88 R D
15074 1408 M 0 88 R D 15420 1408 M 0 88 R D 15592 1408 M 0 88 R D
15765 1408 M 0 88 R D 15938 1408 M 0 88 R D 16283 1408 M 0 88 R D
16456 1408 M 0 88 R D 16629 1408 M 0 88 R D 16801 1408 M 0 88 R D
12656 5796 M 4318 0 R D 12656 5796 M 0 -175 R D 13520 5796 M 0 -175 R D
14383 5796 M 0 -175 R D 15247 5796 M 0 -175 R D 16110 5796 M 0 -175 R D
16974 5796 M 0 -175 R D 12829 5796 M 0 -88 R D 13002 5796 M 0 -88 R D
13174 5796 M 0 -88 R D 13347 5796 M 0 -88 R D 13692 5796 M 0 -88 R D
13865 5796 M 0 -88 R D 14038 5796 M 0 -88 R D 14211 5796 M 0 -88 R D
14556 5796 M 0 -88 R D 14729 5796 M 0 -88 R D 14901 5796 M 0 -88 R D
15074 5796 M 0 -88 R D 15420 5796 M 0 -88 R D 15592 5796 M 0 -88 R D
15765 5796 M 0 -88 R D 15938 5796 M 0 -88 R D 16283 5796 M 0 -88 R D
16456 5796 M 0 -88 R D 16629 5796 M 0 -88 R D 16801 5796 M 0 -88 R D
12656 1408 M 0 4388 R D 12656 2035 M 173 0 R D
gsave 12545 1894 translate 0 0 M -235.373 0 N
(5) show grestore 12656 2752 M 173 0 R D gsave 12545 2611 translate 0 0 M
-470.747 0 N
(10) show grestore 12656 3469 M 173 0 R D gsave 12545 3328 translate 0 0 M
-470.747 0 N
(15) show grestore 12656 4186 M 173 0 R D gsave 12545 4046 translate 0 0 M
-470.747 0 N
(20) show grestore 12656 4904 M 173 0 R D gsave 12545 4763 translate 0 0 M
-470.747 0 N
(25) show grestore 12656 5621 M 173 0 R D gsave 12545 5480 translate 0 0 M
-470.747 0 N
(30) show grestore 12656 1461 M 86 0 R D 12656 1604 M 86 0 R D 12656 1748 M
86 0 R D 12656 1891 M 86 0 R D 12656 2178 M 86 0 R D 12656 2322 M 86 0 R D
12656 2465 M 86 0 R D 12656 2609 M 86 0 R D 12656 2895 M 86 0 R D
12656 3039 M 86 0 R D 12656 3182 M 86 0 R D 12656 3326 M 86 0 R D
12656 3613 M 86 0 R D 12656 3756 M 86 0 R D 12656 3900 M 86 0 R D
12656 4043 M 86 0 R D 12656 4330 M 86 0 R D 12656 4473 M 86 0 R D
12656 4617 M 86 0 R D 12656 4760 M 86 0 R D 12656 5047 M 86 0 R D
12656 5191 M 86 0 R D 12656 5334 M 86 0 R D 12656 5477 M 86 0 R D
12656 5764 M 86 0 R D 16974 1408 M 0 4388 R D 16974 2035 M -173 0 R D
16974 2752 M -173 0 R D 16974 3469 M -173 0 R D 16974 4186 M -173 0 R D
16974 4904 M -173 0 R D 16974 5621 M -173 0 R D 16974 1461 M -86 0 R D
16974 1604 M -86 0 R D 16974 1748 M -86 0 R D 16974 1891 M -86 0 R D
16974 2178 M -86 0 R D 16974 2322 M -86 0 R D 16974 2465 M -86 0 R D
16974 2609 M -86 0 R D 16974 2895 M -86 0 R D 16974 3039 M -86 0 R D
16974 3182 M -86 0 R D 16974 3326 M -86 0 R D 16974 3613 M -86 0 R D
16974 3756 M -86 0 R D 16974 3900 M -86 0 R D 16974 4043 M -86 0 R D
16974 4330 M -86 0 R D 16974 4473 M -86 0 R D 16974 4617 M -86 0 R D
16974 4760 M -86 0 R D 16974 5047 M -86 0 R D 16974 5191 M -86 0 R D
16974 5334 M -86 0 R D 16974 5477 M -86 0 R D 16974 5764 M -86 0 R D L1
12656 5796 M 432 -1456 R 432 -713 R 518 -489 R 345 -216 R 864 -349 R
863 -210 R 864 -140 R D L2 12656 3578 M 432 -537 R 432 -288 R 518 -211 R
345 -98 R 864 -166 R 863 -105 R 864 -73 R D L3 12656 3652 M 432 -547 R
432 -788 R 518 -147 R 345 -68 R 864 -116 R 863 -73 R 864 -51 R D L0
1.000 0.000 0.706 setrgbcolor 12656 3493 M 432 -616 R 432 -314 R 518 -228 R
345 -97 R 864 -130 R 863 -68 R 864 -38 R D 0.506 0.000 0.000 setrgbcolor
12656 3313 M 432 -541 R 432 -263 R 518 -194 R 345 -80 R 864 -127 R 863 -68 R
864 -38 R D 1.000 0.349 0.000 setrgbcolor 12656 3397 M 432 -596 R 432 -292 R
518 -194 R 345 -80 R 864 -127 R 863 -68 R 864 -38 R D
0.000 0.514 1.000 setrgbcolor 12656 3369 M 432 -570 R 432 -290 R 518 -194 R
345 -80 R 864 -127 R 863 -68 R 864 -38 R D 0.588 0.000 0.588 setrgbcolor
12656 3397 M 432 -596 R 432 -292 R 518 -194 R 345 -80 R 864 -127 R 863 -68 R
864 -38 R D 0.000 0.000 0.000 setrgbcolor gsave 15765 5259 translate 0 0 M
%%IncludeResource: font Symbol
423.333 /Symbol STDFONT
(e) show
%%IncludeResource: font Helvetica
423.333 /Helvetica STDFONT
(=1.0) show grestore
%%PageTrailer
end
%%PageResources: font Helvetica
%%+ font Symbol
%%Trailer
%%Pages: 1
%%DocumentNeededResources: font Helvetica
%%+ font Symbol
%%EOF
