%!PS-Adobe-3.0 EPSF-3.0
%%BoundingBox: 0 0 527 198
%%Title: Graphics produced by IDL
%%For: dacia@linux-4r0t, /home/dacia/work/subhalo_model
%%Creator: IDL Version 7.0 (linux x86_64 m64)
%%CreationDate: Mon Jul 13 23:58:33 2009
%%DocumentData: Clean7bit
%%Requirements: color
%%LanguageLevel: 1
%%PageOrder: Ascend
%%Pages: (atend)
%%DocumentNeededResources: (atend)
%%EndComments
%%BeginProlog
%+ prolog.ps -- Prolog for IDL generated PostScript files
%+ Copyright (c) 1988-2007 ITT Visual Information Solutions. All Rights Reserved.
%v 5
/$IDL_DICT 40 dict def $IDL_DICT begin /bdef { bind def } bind def /C
{currentpoint newpath moveto} bdef /CP {currentpoint} bdef /D {currentpoint
stroke moveto} bdef /F {closepath fill} bdef /K { setgray } bdef /M {moveto}
bdef /N {rmoveto} bdef /P {lineto} bdef /R {rlineto} bdef /S {gsave show
grestore} bdef /X {currentpoint pop} bdef /Z {gsave currentpoint lineto 20
setlinewidth 1 setlinecap stroke grestore} bdef /L0 {[] 0 setdash} bdef /L1
{[40 100] 0 setdash} bdef /L2 {[200 200] 0 setdash} bdef /L3 {[200 100 50
100] 0 setdash} bdef /L4 {[300 100 50 100 50 100 50 100] 0 setdash} bdef /L5
{[400 200] 0 setdash} bdef /STDFONT { findfont exch scalefont setfont } bdef
/ISOFONT { findfont dup length dict begin { 1 index /FID ne {def} {pop pop}
ifelse } forall /Encoding ISOLatin1Encoding def currentdict end /idltmpfont
exch definefont exch scalefont setfont } bdef /ISOBULLET { gsave /Helvetica
findfont exch scalefont setfont (\267) show currentpoint grestore moveto}
bdef /MITERLIMIT { 2.5 setmiterlimit } bdef end
%%EndProlog
%%Page: 0 1
%%PageRequirements: color
%%PageResources: (atend)
%%PageOrientation: Portrait
%%PageBoundingBox: 0 0 527 198
%%BeginPageSetup
$IDL_DICT begin 0.0283465 dup scale MITERLIMIT
%%IncludeResource: font Helvetica
423.333 /Helvetica STDFONT
%%EndPageSetup
0.000 0.000 0.000 setrgbcolor gsave 9858 203 translate 0 0 M 1.2 dup scale
-928.793 0 N
(m\(0\)/M\(0\)) show grestore gsave 744 4025 translate 0 0 M 90 rotate
1.2 dup scale -756.302 0 N
(T) show X -101.051 M
%%IncludeResource: font Helvetica
262.467 /Helvetica STDFONT
(df) show X 0 M
%%IncludeResource: font Helvetica
423.333 /Helvetica STDFONT
( [Gyr]) show grestore 40 setlinewidth L0 1581 1400 M 4898 0 R D 1581 1400 M
0 210 R D gsave 1581 766 translate 0 0 M 1.2 dup scale -58.8433 0 N
( ) show grestore 2561 1400 M 0 210 R D gsave 2561 766 translate 0 0 M
1.2 dup scale -294.217 0 N
(0.1) show grestore 3540 1400 M 0 210 R D gsave 3540 766 translate 0 0 M
1.2 dup scale -58.8433 0 N
( ) show grestore 4520 1400 M 0 210 R D gsave 4520 766 translate 0 0 M
1.2 dup scale -294.217 0 N
(0.2) show grestore 5499 1400 M 0 210 R D gsave 5499 766 translate 0 0 M
1.2 dup scale -58.8433 0 N
( ) show grestore 6479 1400 M 0 210 R D gsave 6479 766 translate 0 0 M
1.2 dup scale -294.217 0 N
(0.3) show grestore 1777 1400 M 0 105 R D 1973 1400 M 0 105 R D 2169 1400 M
0 105 R D 2365 1400 M 0 105 R D 2757 1400 M 0 105 R D 2952 1400 M 0 105 R D
3148 1400 M 0 105 R D 3344 1400 M 0 105 R D 3736 1400 M 0 105 R D
3932 1400 M 0 105 R D 4128 1400 M 0 105 R D 4324 1400 M 0 105 R D
4716 1400 M 0 105 R D 4912 1400 M 0 105 R D 5108 1400 M 0 105 R D
5304 1400 M 0 105 R D 5695 1400 M 0 105 R D 5891 1400 M 0 105 R D
6087 1400 M 0 105 R D 6283 1400 M 0 105 R D 1581 6650 M 4898 0 R D
1581 6650 M 0 -210 R D 2561 6650 M 0 -210 R D 3540 6650 M 0 -210 R D
4520 6650 M 0 -210 R D 5499 6650 M 0 -210 R D 6479 6650 M 0 -210 R D
1777 6650 M 0 -105 R D 1973 6650 M 0 -105 R D 2169 6650 M 0 -105 R D
2365 6650 M 0 -105 R D 2757 6650 M 0 -105 R D 2952 6650 M 0 -105 R D
3148 6650 M 0 -105 R D 3344 6650 M 0 -105 R D 3736 6650 M 0 -105 R D
3932 6650 M 0 -105 R D 4128 6650 M 0 -105 R D 4324 6650 M 0 -105 R D
4716 6650 M 0 -105 R D 4912 6650 M 0 -105 R D 5108 6650 M 0 -105 R D
5304 6650 M 0 -105 R D 5695 6650 M 0 -105 R D 5891 6650 M 0 -105 R D
6087 6650 M 0 -105 R D 6283 6650 M 0 -105 R D 1581 1400 M 0 5250 R D
1581 2590 M 196 0 R D gsave 1448 2421 translate 0 0 M 1.2 dup scale
-235.373 0 N
(2) show grestore 1581 3887 M 196 0 R D gsave 1448 3718 translate 0 0 M
1.2 dup scale -235.373 0 N
(4) show grestore 1581 5185 M 196 0 R D gsave 1448 5016 translate 0 0 M
1.2 dup scale -235.373 0 N
(6) show grestore 1581 6483 M 196 0 R D gsave 1448 6314 translate 0 0 M
1.2 dup scale -235.373 0 N
(8) show grestore 1581 1616 M 98 0 R D 1581 1941 M 98 0 R D 1581 2265 M
98 0 R D 1581 2914 M 98 0 R D 1581 3238 M 98 0 R D 1581 3563 M 98 0 R D
1581 4212 M 98 0 R D 1581 4536 M 98 0 R D 1581 4861 M 98 0 R D 1581 5510 M
98 0 R D 1581 5834 M 98 0 R D 1581 6159 M 98 0 R D 6479 1400 M 0 5250 R D
6479 2590 M -196 0 R D 6479 3887 M -196 0 R D 6479 5185 M -196 0 R D
6479 6483 M -196 0 R D 6479 1616 M -98 0 R D 6479 1941 M -98 0 R D
6479 2265 M -98 0 R D 6479 2914 M -98 0 R D 6479 3238 M -98 0 R D
6479 3563 M -98 0 R D 6479 4212 M -98 0 R D 6479 4536 M -98 0 R D
6479 4861 M -98 0 R D 6479 5510 M -98 0 R D 6479 5834 M -98 0 R D
6479 6159 M -98 0 R D L1 1581 6650 M 490 -1741 R 490 -854 R 587 -585 R
392 -258 R 980 -419 R 979 -250 R 980 -168 R D 80 setlinewidth L0
0.000 0.000 1.000 setrgbcolor 2304 6650 M 257 -1307 R 587 -1479 R 392 -540 R
980 -625 R 979 -195 R 980 -113 R D 40 setlinewidth 2800 6650 M 348 -2343 R
392 -955 R 980 -653 R 979 -195 R 980 -113 R D 0.000 0.000 0.000 setrgbcolor
gsave 6283 6007 translate 0 0 M 1.2 dup scale -947.42 0 N
%%IncludeResource: font Symbol
423.333 /Symbol STDFONT
(e) show
%%IncludeResource: font Helvetica
423.333 /Helvetica STDFONT
(=0.3) show grestore 7409 1400 M 4898 0 R D 7409 1400 M 0 210 R D
gsave 7409 766 translate 0 0 M 1.2 dup scale -58.8433 0 N
( ) show grestore 8389 1400 M 0 210 R D gsave 8389 766 translate 0 0 M
1.2 dup scale -294.217 0 N
(0.1) show grestore 9368 1400 M 0 210 R D gsave 9368 766 translate 0 0 M
1.2 dup scale -58.8433 0 N
( ) show grestore 10348 1400 M 0 210 R D gsave 10348 766 translate 0 0 M
1.2 dup scale -294.217 0 N
(0.2) show grestore 11328 1400 M 0 210 R D gsave 11328 766 translate 0 0 M
1.2 dup scale -58.8433 0 N
( ) show grestore 12307 1400 M 0 210 R D gsave 12307 766 translate 0 0 M
1.2 dup scale -294.217 0 N
(0.3) show grestore 7605 1400 M 0 105 R D 7801 1400 M 0 105 R D 7997 1400 M
0 105 R D 8193 1400 M 0 105 R D 8585 1400 M 0 105 R D 8781 1400 M 0 105 R D
8976 1400 M 0 105 R D 9172 1400 M 0 105 R D 9564 1400 M 0 105 R D
9760 1400 M 0 105 R D 9956 1400 M 0 105 R D 10152 1400 M 0 105 R D
10544 1400 M 0 105 R D 10740 1400 M 0 105 R D 10936 1400 M 0 105 R D
11132 1400 M 0 105 R D 11523 1400 M 0 105 R D 11719 1400 M 0 105 R D
11915 1400 M 0 105 R D 12111 1400 M 0 105 R D 7409 6650 M 4898 0 R D
7409 6650 M 0 -210 R D 8389 6650 M 0 -210 R D 9368 6650 M 0 -210 R D
10348 6650 M 0 -210 R D 11328 6650 M 0 -210 R D 12307 6650 M 0 -210 R D
7605 6650 M 0 -105 R D 7801 6650 M 0 -105 R D 7997 6650 M 0 -105 R D
8193 6650 M 0 -105 R D 8585 6650 M 0 -105 R D 8781 6650 M 0 -105 R D
8976 6650 M 0 -105 R D 9172 6650 M 0 -105 R D 9564 6650 M 0 -105 R D
9760 6650 M 0 -105 R D 9956 6650 M 0 -105 R D 10152 6650 M 0 -105 R D
10544 6650 M 0 -105 R D 10740 6650 M 0 -105 R D 10936 6650 M 0 -105 R D
11132 6650 M 0 -105 R D 11523 6650 M 0 -105 R D 11719 6650 M 0 -105 R D
11915 6650 M 0 -105 R D 12111 6650 M 0 -105 R D 7409 1400 M 0 5250 R D
7409 2179 M 196 0 R D gsave 7276 2010 translate 0 0 M 1.2 dup scale
-235.373 0 N
(2) show grestore 7409 3067 M 196 0 R D gsave 7276 2898 translate 0 0 M
1.2 dup scale -235.373 0 N
(4) show grestore 7409 3954 M 196 0 R D gsave 7276 3785 translate 0 0 M
1.2 dup scale -235.373 0 N
(6) show grestore 7409 4842 M 196 0 R D gsave 7276 4673 translate 0 0 M
1.2 dup scale -235.373 0 N
(8) show grestore 7409 5729 M 196 0 R D gsave 7276 5560 translate 0 0 M
1.2 dup scale -470.747 0 N
(10) show grestore 7409 6617 M 196 0 R D gsave 7276 6354 translate 0 0 M
1.2 dup scale -470.747 0 N
(12) show grestore 7409 1514 M 98 0 R D 7409 1735 M 98 0 R D 7409 1957 M
98 0 R D 7409 2401 M 98 0 R D 7409 2623 M 98 0 R D 7409 2845 M 98 0 R D
7409 3289 M 98 0 R D 7409 3511 M 98 0 R D 7409 3732 M 98 0 R D 7409 4176 M
98 0 R D 7409 4398 M 98 0 R D 7409 4620 M 98 0 R D 7409 5064 M 98 0 R D
7409 5286 M 98 0 R D 7409 5508 M 98 0 R D 7409 5951 M 98 0 R D 7409 6173 M
98 0 R D 7409 6395 M 98 0 R D 12307 1400 M 0 5250 R D 12307 2179 M -196 0 R
D 12307 3067 M -196 0 R D 12307 3954 M -196 0 R D 12307 4842 M -196 0 R D
12307 5729 M -196 0 R D 12307 6617 M -196 0 R D 12307 1514 M -98 0 R D
12307 1735 M -98 0 R D 12307 1957 M -98 0 R D 12307 2401 M -98 0 R D
12307 2623 M -98 0 R D 12307 2845 M -98 0 R D 12307 3289 M -98 0 R D
12307 3511 M -98 0 R D 12307 3732 M -98 0 R D 12307 4176 M -98 0 R D
12307 4398 M -98 0 R D 12307 4620 M -98 0 R D 12307 5064 M -98 0 R D
12307 5286 M -98 0 R D 12307 5508 M -98 0 R D 12307 5951 M -98 0 R D
12307 6173 M -98 0 R D 12307 6395 M -98 0 R D L1 7409 6650 M 490 -1741 R
490 -854 R 587 -585 R 392 -258 R 980 -419 R 980 -250 R 979 -168 R D
80 setlinewidth L0 0.000 0.000 1.000 setrgbcolor 8050 6650 M 339 -1578 R
587 -1274 R 392 -474 R 980 -584 R 980 -285 R 979 -120 R D 40 setlinewidth
8557 6650 M 419 -2200 R 392 -1007 R 980 -703 R 980 -285 R 979 -120 R D
0.000 0.000 0.000 setrgbcolor gsave 12111 6007 translate 0 0 M 1.2 dup scale
-947.42 0 N
%%IncludeResource: font Symbol
423.333 /Symbol STDFONT
(e) show
%%IncludeResource: font Helvetica
423.333 /Helvetica STDFONT
(=0.5) show grestore 13237 1400 M 4898 0 R D 13237 1400 M 0 210 R D
gsave 13237 766 translate 0 0 M 1.2 dup scale -58.8433 0 N
( ) show grestore 14217 1400 M 0 210 R D gsave 14217 766 translate 0 0 M
1.2 dup scale -294.217 0 N
(0.1) show grestore 15196 1400 M 0 210 R D gsave 15196 766 translate 0 0 M
1.2 dup scale -58.8433 0 N
( ) show grestore 16176 1400 M 0 210 R D gsave 16176 766 translate 0 0 M
1.2 dup scale -294.217 0 N
(0.2) show grestore 17156 1400 M 0 210 R D gsave 17156 766 translate 0 0 M
1.2 dup scale -58.8433 0 N
( ) show grestore 18135 1400 M 0 210 R D gsave 18135 766 translate 0 0 M
1.2 dup scale -294.217 0 N
(0.3) show grestore 13433 1400 M 0 105 R D 13629 1400 M 0 105 R D
13825 1400 M 0 105 R D 14021 1400 M 0 105 R D 14413 1400 M 0 105 R D
14609 1400 M 0 105 R D 14805 1400 M 0 105 R D 15000 1400 M 0 105 R D
15392 1400 M 0 105 R D 15588 1400 M 0 105 R D 15784 1400 M 0 105 R D
15980 1400 M 0 105 R D 16372 1400 M 0 105 R D 16568 1400 M 0 105 R D
16764 1400 M 0 105 R D 16960 1400 M 0 105 R D 17351 1400 M 0 105 R D
17547 1400 M 0 105 R D 17743 1400 M 0 105 R D 17939 1400 M 0 105 R D
13237 6650 M 4898 0 R D 13237 6650 M 0 -210 R D 14217 6650 M 0 -210 R D
15196 6650 M 0 -210 R D 16176 6650 M 0 -210 R D 17156 6650 M 0 -210 R D
18135 6650 M 0 -210 R D 13433 6650 M 0 -105 R D 13629 6650 M 0 -105 R D
13825 6650 M 0 -105 R D 14021 6650 M 0 -105 R D 14413 6650 M 0 -105 R D
14609 6650 M 0 -105 R D 14805 6650 M 0 -105 R D 15000 6650 M 0 -105 R D
15392 6650 M 0 -105 R D 15588 6650 M 0 -105 R D 15784 6650 M 0 -105 R D
15980 6650 M 0 -105 R D 16372 6650 M 0 -105 R D 16568 6650 M 0 -105 R D
16764 6650 M 0 -105 R D 16960 6650 M 0 -105 R D 17351 6650 M 0 -105 R D
17547 6650 M 0 -105 R D 17743 6650 M 0 -105 R D 17939 6650 M 0 -105 R D
13237 1400 M 0 5250 R D 13237 2809 M 196 0 R D
gsave 13104 2640 translate 0 0 M 1.2 dup scale -235.373 0 N
(5) show grestore 13237 4327 M 196 0 R D gsave 13104 4158 translate 0 0 M
1.2 dup scale -470.747 0 N
(10) show grestore 13237 5844 M 196 0 R D gsave 13104 5675 translate 0 0 M
1.2 dup scale -470.747 0 N
(15) show grestore 13237 1595 M 98 0 R D 13237 1899 M 98 0 R D 13237 2202 M
98 0 R D 13237 2506 M 98 0 R D 13237 3113 M 98 0 R D 13237 3416 M 98 0 R D
13237 3720 M 98 0 R D 13237 4023 M 98 0 R D 13237 4630 M 98 0 R D
13237 4933 M 98 0 R D 13237 5237 M 98 0 R D 13237 5540 M 98 0 R D
13237 6147 M 98 0 R D 13237 6451 M 98 0 R D 18135 1400 M 0 5250 R D
18135 2809 M -196 0 R D 18135 4327 M -196 0 R D 18135 5844 M -196 0 R D
18135 1595 M -98 0 R D 18135 1899 M -98 0 R D 18135 2202 M -98 0 R D
18135 2506 M -98 0 R D 18135 3113 M -98 0 R D 18135 3416 M -98 0 R D
18135 3720 M -98 0 R D 18135 4023 M -98 0 R D 18135 4630 M -98 0 R D
18135 4933 M -98 0 R D 18135 5237 M -98 0 R D 18135 5540 M -98 0 R D
18135 6147 M -98 0 R D 18135 6451 M -98 0 R D L1 13237 6650 M 490 -1741 R
490 -854 R 588 -585 R 391 -258 R 980 -419 R 980 -250 R 979 -168 R D
80 setlinewidth L0 0.000 0.000 1.000 setrgbcolor 13560 6650 M 167 -1185 R
490 -1387 R 588 -817 R 391 -332 R 980 -411 R 980 -190 R 979 -112 R D
40 setlinewidth 14049 6650 M 168 -1288 R 588 -1867 R 391 -541 R 980 -436 R
980 -190 R 979 -112 R D 0.000 0.000 0.000 setrgbcolor
gsave 17939 6007 translate 0 0 M 1.2 dup scale -947.42 0 N
%%IncludeResource: font Symbol
423.333 /Symbol STDFONT
(e) show
%%IncludeResource: font Helvetica
423.333 /Helvetica STDFONT
(=0.7) show grestore 0.000 0.000 1.000 setrgbcolor
gsave 15624 5530 translate 0 0 M 1.2 dup scale
(Baryon) show grestore 15682 5173 M 75 0 R 76 0 R 76 0 R 75 0 R 76 0 R
76 0 R 76 0 R 75 0 R 76 0 R D 80 setlinewidth 15682 4726 M 75 0 R 76 0 R
76 0 R 75 0 R 76 0 R 76 0 R 76 0 R 75 0 R 76 0 R D 40 setlinewidth L1
0.000 0.000 0.000 setrgbcolor 15682 4280 M 75 0 R 76 0 R 76 0 R 75 0 R
76 0 R 76 0 R 76 0 R 75 0 R 76 0 R D 0.000 0.000 1.000 setrgbcolor
gsave 16439 5038 translate 0 0 M 1.2 dup scale
(5%) show grestore gsave 16439 4592 translate 0 0 M 1.2 dup scale
(30%) show grestore 0.000 0.000 0.000 setrgbcolor
gsave 16439 4145 translate 0 0 M 1.2 dup scale
(BK08) show grestore
%%PageTrailer
end
%%PageResources: font Helvetica
%%+ font Symbol
%%Trailer
%%Pages: 1
%%DocumentNeededResources: font Helvetica
%%+ font Symbol
%%EOF
