%!PS-Adobe-3.0 EPSF-3.0
%%BoundingBox: 0 0 510 765
%%Title: Graphics produced by IDL
%%For: dacia@Lserver, /home/dacia/work/subhalo_model
%%Creator: IDL Version 7.0 (linux x86_64 m64)
%%CreationDate: Sun Apr  4 10:54:32 2010
%%DocumentData: Clean7bit
%%Requirements: color
%%LanguageLevel: 1
%%PageOrder: Ascend
%%Pages: (atend)
%%DocumentNeededResources: (atend)
%%EndComments
%%BeginProlog
%+ prolog.ps -- Prolog for IDL generated PostScript files
%+ Copyright (c) 1988-2007 ITT Visual Information Solutions. All Rights Reserved.
%v 5
/$IDL_DICT 40 dict def $IDL_DICT begin /bdef { bind def } bind def /C
{currentpoint newpath moveto} bdef /CP {currentpoint} bdef /D {currentpoint
stroke moveto} bdef /F {closepath fill} bdef /K { setgray } bdef /M {moveto}
bdef /N {rmoveto} bdef /P {lineto} bdef /R {rlineto} bdef /S {gsave show
grestore} bdef /X {currentpoint pop} bdef /Z {gsave currentpoint lineto 20
setlinewidth 1 setlinecap stroke grestore} bdef /L0 {[] 0 setdash} bdef /L1
{[40 100] 0 setdash} bdef /L2 {[200 200] 0 setdash} bdef /L3 {[200 100 50
100] 0 setdash} bdef /L4 {[300 100 50 100 50 100 50 100] 0 setdash} bdef /L5
{[400 200] 0 setdash} bdef /STDFONT { findfont exch scalefont setfont } bdef
/ISOFONT { findfont dup length dict begin { 1 index /FID ne {def} {pop pop}
ifelse } forall /Encoding ISOLatin1Encoding def currentdict end /idltmpfont
exch definefont exch scalefont setfont } bdef /ISOBULLET { gsave /Helvetica
findfont exch scalefont setfont (\267) show currentpoint grestore moveto}
bdef /MITERLIMIT { 2.5 setmiterlimit } bdef end
%%EndProlog
%%Page: 0 1
%%PageRequirements: color
%%PageResources: (atend)
%%PageOrientation: Portrait
%%PageBoundingBox: 0 0 510 765
%%BeginPageSetup
$IDL_DICT begin 0.0283465 dup scale MITERLIMIT
%%IncludeResource: font Helvetica
423.333 /Helvetica STDFONT
%%EndPageSetup
0.000 0.000 0.000 setrgbcolor gsave 9360 246 translate 0 0 M 1.2 dup scale
-928.793 0 N
(m\(0\)/M\(0\)) show grestore gsave 573 13852 translate 0 0 M 90 rotate
1.2 dup scale -697.459 0 N
(T) show X -101.051 M
%%IncludeResource: font Helvetica
262.467 /Helvetica STDFONT
(df) show X 0 M
%%IncludeResource: font Helvetica
423.333 /Helvetica STDFONT
( /Gyr) show grestore 40 setlinewidth L0 1350 22148 M 4740 0 R D
1350 22148 M 0 166 R D gsave 1350 21509 translate 0 0 M 1.21 dup scale
-58.8433 0 N
( ) show grestore 2298 22148 M 0 166 R D gsave 2298 21509 translate 0 0 M
1.21 dup scale -294.217 0 N
(0.1) show grestore 3246 22148 M 0 166 R D gsave 3246 21509 translate 0 0 M
1.21 dup scale -58.8433 0 N
( ) show grestore 4194 22148 M 0 166 R D gsave 4194 21509 translate 0 0 M
1.21 dup scale -294.217 0 N
(0.2) show grestore 5142 22148 M 0 166 R D gsave 5142 21509 translate 0 0 M
1.21 dup scale -58.8433 0 N
( ) show grestore 6090 22148 M 0 166 R D gsave 6090 21509 translate 0 0 M
1.21 dup scale -294.217 0 N
(0.3) show grestore 1540 22148 M 0 83 R D 1729 22148 M 0 83 R D 1919 22148 M
0 83 R D 2108 22148 M 0 83 R D 2488 22148 M 0 83 R D 2677 22148 M 0 83 R D
2867 22148 M 0 83 R D 3056 22148 M 0 83 R D 3436 22148 M 0 83 R D
3625 22148 M 0 83 R D 3815 22148 M 0 83 R D 4004 22148 M 0 83 R D
4384 22148 M 0 83 R D 4573 22148 M 0 83 R D 4763 22148 M 0 83 R D
4952 22148 M 0 83 R D 5332 22148 M 0 83 R D 5521 22148 M 0 83 R D
5711 22148 M 0 83 R D 5900 22148 M 0 83 R D 1350 26296 M 4740 0 R D
1350 26296 M 0 -166 R D 2298 26296 M 0 -166 R D 3246 26296 M 0 -166 R D
4194 26296 M 0 -166 R D 5142 26296 M 0 -166 R D 6090 26296 M 0 -166 R D
1540 26296 M 0 -83 R D 1729 26296 M 0 -83 R D 1919 26296 M 0 -83 R D
2108 26296 M 0 -83 R D 2488 26296 M 0 -83 R D 2677 26296 M 0 -83 R D
2867 26296 M 0 -83 R D 3056 26296 M 0 -83 R D 3436 26296 M 0 -83 R D
3625 26296 M 0 -83 R D 3815 26296 M 0 -83 R D 4004 26296 M 0 -83 R D
4384 26296 M 0 -83 R D 4573 26296 M 0 -83 R D 4763 26296 M 0 -83 R D
4952 26296 M 0 -83 R D 5332 26296 M 0 -83 R D 5521 26296 M 0 -83 R D
5711 26296 M 0 -83 R D 5900 26296 M 0 -83 R D 1350 22148 M 0 4148 R D
1350 23088 M 190 0 R D gsave 1216 22917 translate 0 0 M 1.21 dup scale
-235.373 0 N
(2) show grestore 1350 24113 M 190 0 R D gsave 1216 23943 translate 0 0 M
1.21 dup scale -235.373 0 N
(4) show grestore 1350 25139 M 190 0 R D gsave 1216 24968 translate 0 0 M
1.21 dup scale -235.373 0 N
(6) show grestore 1350 26164 M 190 0 R D gsave 1216 25994 translate 0 0 M
1.21 dup scale -235.373 0 N
(8) show grestore 1350 22319 M 95 0 R D 1350 22575 M 95 0 R D 1350 22831 M
95 0 R D 1350 23344 M 95 0 R D 1350 23601 M 95 0 R D 1350 23857 M 95 0 R D
1350 24370 M 95 0 R D 1350 24626 M 95 0 R D 1350 24882 M 95 0 R D
1350 25395 M 95 0 R D 1350 25651 M 95 0 R D 1350 25908 M 95 0 R D
6090 22148 M 0 4148 R D 6090 23088 M -190 0 R D 6090 24113 M -190 0 R D
6090 25139 M -190 0 R D 6090 26164 M -190 0 R D 6090 22319 M -95 0 R D
6090 22575 M -95 0 R D 6090 22831 M -95 0 R D 6090 23344 M -95 0 R D
6090 23601 M -95 0 R D 6090 23857 M -95 0 R D 6090 24370 M -95 0 R D
6090 24626 M -95 0 R D 6090 24882 M -95 0 R D 6090 25395 M -95 0 R D
6090 25651 M -95 0 R D 6090 25908 M -95 0 R D L2 1350 26296 M 474 -1376 R
474 -675 R 569 -461 R 379 -205 R 948 -330 R 948 -198 R 948 -133 R D L1
1821 26296 M 3 -8 R 474 -707 R 569 -517 R 379 -240 R 948 -407 R 948 -257 R
948 -179 R D L3 1350 25460 M 474 -854 R 474 -1399 R 569 -161 R 379 -71 R
948 -103 R 948 -28 R 948 35 R D L0 0.761 0.000 0.000 setrgbcolor
1350 25875 M 474 -924 R 474 -488 R 569 -326 R 379 -97 R 948 -210 R
948 -154 R 948 -24 R D 0.000 0.549 0.000 setrgbcolor 1350 24415 M 474 -317 R
474 -203 R 569 -179 R 379 -99 R 948 -150 R 948 -109 R 948 -53 R D
0.000 0.000 1.000 setrgbcolor 1350 22535 M 474 10 R 474 -2 R 569 -13 R
379 1 R 948 7 R 948 -6 R 948 -2 R D 0.000 0.000 0.000 setrgbcolor
6990 22148 M 4740 0 R D 6990 22148 M 0 166 R D
gsave 6990 21509 translate 0 0 M 1.21 dup scale -58.8433 0 N
( ) show grestore 7938 22148 M 0 166 R D gsave 7938 21509 translate 0 0 M
1.21 dup scale -294.217 0 N
(0.1) show grestore 8886 22148 M 0 166 R D gsave 8886 21509 translate 0 0 M
1.21 dup scale -58.8433 0 N
( ) show grestore 9834 22148 M 0 166 R D gsave 9834 21509 translate 0 0 M
1.21 dup scale -294.217 0 N
(0.2) show grestore 10782 22148 M 0 166 R D
gsave 10782 21509 translate 0 0 M 1.21 dup scale -58.8433 0 N
( ) show grestore 11730 22148 M 0 166 R D gsave 11730 21509 translate 0 0 M
1.21 dup scale -294.217 0 N
(0.3) show grestore 7180 22148 M 0 83 R D 7369 22148 M 0 83 R D 7559 22148 M
0 83 R D 7748 22148 M 0 83 R D 8128 22148 M 0 83 R D 8317 22148 M 0 83 R D
8507 22148 M 0 83 R D 8696 22148 M 0 83 R D 9076 22148 M 0 83 R D
9265 22148 M 0 83 R D 9455 22148 M 0 83 R D 9644 22148 M 0 83 R D
10024 22148 M 0 83 R D 10213 22148 M 0 83 R D 10403 22148 M 0 83 R D
10593 22148 M 0 83 R D 10972 22148 M 0 83 R D 11161 22148 M 0 83 R D
11351 22148 M 0 83 R D 11541 22148 M 0 83 R D 6990 26296 M 4740 0 R D
6990 26296 M 0 -166 R D 7938 26296 M 0 -166 R D 8886 26296 M 0 -166 R D
9834 26296 M 0 -166 R D 10782 26296 M 0 -166 R D 11730 26296 M 0 -166 R D
7180 26296 M 0 -83 R D 7369 26296 M 0 -83 R D 7559 26296 M 0 -83 R D
7748 26296 M 0 -83 R D 8128 26296 M 0 -83 R D 8317 26296 M 0 -83 R D
8507 26296 M 0 -83 R D 8696 26296 M 0 -83 R D 9076 26296 M 0 -83 R D
9265 26296 M 0 -83 R D 9455 26296 M 0 -83 R D 9644 26296 M 0 -83 R D
10024 26296 M 0 -83 R D 10213 26296 M 0 -83 R D 10403 26296 M 0 -83 R D
10593 26296 M 0 -83 R D 10972 26296 M 0 -83 R D 11161 26296 M 0 -83 R D
11351 26296 M 0 -83 R D 11541 26296 M 0 -83 R D 6990 22148 M 0 4148 R D
6990 22764 M 190 0 R D gsave 6856 22593 translate 0 0 M 1.21 dup scale
-235.373 0 N
(2) show grestore 6990 23465 M 190 0 R D gsave 6856 23295 translate 0 0 M
1.21 dup scale -235.373 0 N
(4) show grestore 6990 24166 M 190 0 R D gsave 6856 23996 translate 0 0 M
1.21 dup scale -235.373 0 N
(6) show grestore 6990 24867 M 190 0 R D gsave 6856 24697 translate 0 0 M
1.21 dup scale -235.373 0 N
(8) show grestore 6990 25569 M 190 0 R D gsave 6856 25398 translate 0 0 M
1.21 dup scale -470.747 0 N
(10) show grestore 6990 26270 M 190 0 R D gsave 6856 25998 translate 0 0 M
1.21 dup scale -470.747 0 N
(12) show grestore 6990 22238 M 95 0 R D 6990 22413 M 95 0 R D 6990 22588 M
95 0 R D 6990 22939 M 95 0 R D 6990 23114 M 95 0 R D 6990 23290 M 95 0 R D
6990 23640 M 95 0 R D 6990 23816 M 95 0 R D 6990 23991 M 95 0 R D
6990 24341 M 95 0 R D 6990 24517 M 95 0 R D 6990 24692 M 95 0 R D
6990 25043 M 95 0 R D 6990 25218 M 95 0 R D 6990 25393 M 95 0 R D
6990 25744 M 95 0 R D 6990 25919 M 95 0 R D 6990 26095 M 95 0 R D
11730 22148 M 0 4148 R D 11730 22764 M -189 0 R D 11730 23465 M -189 0 R D
11730 24166 M -189 0 R D 11730 24867 M -189 0 R D 11730 25569 M -189 0 R D
11730 26270 M -189 0 R D 11730 22238 M -95 0 R D 11730 22413 M -95 0 R D
11730 22588 M -95 0 R D 11730 22939 M -95 0 R D 11730 23114 M -95 0 R D
11730 23290 M -95 0 R D 11730 23640 M -95 0 R D 11730 23816 M -95 0 R D
11730 23991 M -95 0 R D 11730 24341 M -95 0 R D 11730 24517 M -95 0 R D
11730 24692 M -95 0 R D 11730 25043 M -95 0 R D 11730 25218 M -95 0 R D
11730 25393 M -95 0 R D 11730 25744 M -95 0 R D 11730 25919 M -95 0 R D
11730 26095 M -95 0 R D L2 6990 26296 M 474 -1376 R 474 -675 R 569 -461 R
379 -205 R 948 -330 R 948 -198 R 948 -133 R D L1 7056 26296 M 408 -896 R
474 -558 R 569 -409 R 379 -189 R 948 -322 R 948 -203 R 948 -142 R D L3
6990 25376 M 474 -935 R 474 -1110 R 569 -182 R 379 -82 R 948 -128 R
948 -59 R 948 -10 R D L0 0.761 0.000 0.000 setrgbcolor 6990 25362 M
474 -973 R 474 -433 R 569 -271 R 379 -113 R 948 -155 R 948 -82 R 948 -39 R D
0.000 0.549 0.000 setrgbcolor 6990 24919 M 474 -498 R 474 -496 R 569 -531 R
379 -91 R 948 -146 R 948 -81 R 948 -60 R D 0.000 0.000 1.000 setrgbcolor
6990 22485 M 474 -7 R 474 -16 R 569 -6 R 379 -9 R 948 13 R 948 -16 R
948 -5 R D 0.000 0.000 0.000 setrgbcolor 12630 22148 M 4740 0 R D
12630 22148 M 0 166 R D gsave 12630 21509 translate 0 0 M 1.21 dup scale
-58.8433 0 N
( ) show grestore 13578 22148 M 0 166 R D gsave 13578 21509 translate 0 0 M
1.21 dup scale -294.217 0 N
(0.1) show grestore 14526 22148 M 0 166 R D
gsave 14526 21509 translate 0 0 M 1.21 dup scale -58.8433 0 N
( ) show grestore 15474 22148 M 0 166 R D gsave 15474 21509 translate 0 0 M
1.21 dup scale -294.217 0 N
(0.2) show grestore 16422 22148 M 0 166 R D
gsave 16422 21509 translate 0 0 M 1.21 dup scale -58.8433 0 N
( ) show grestore 17370 22148 M 0 166 R D gsave 17370 21509 translate 0 0 M
1.21 dup scale -294.217 0 N
(0.3) show grestore 12820 22148 M 0 83 R D 13009 22148 M 0 83 R D
13199 22148 M 0 83 R D 13389 22148 M 0 83 R D 13768 22148 M 0 83 R D
13957 22148 M 0 83 R D 14147 22148 M 0 83 R D 14337 22148 M 0 83 R D
14716 22148 M 0 83 R D 14905 22148 M 0 83 R D 15095 22148 M 0 83 R D
15285 22148 M 0 83 R D 15664 22148 M 0 83 R D 15853 22148 M 0 83 R D
16043 22148 M 0 83 R D 16233 22148 M 0 83 R D 16612 22148 M 0 83 R D
16801 22148 M 0 83 R D 16991 22148 M 0 83 R D 17181 22148 M 0 83 R D
12630 26296 M 4740 0 R D 12630 26296 M 0 -166 R D 13578 26296 M 0 -166 R D
14526 26296 M 0 -166 R D 15474 26296 M 0 -166 R D 16422 26296 M 0 -166 R D
17370 26296 M 0 -166 R D 12820 26296 M 0 -83 R D 13009 26296 M 0 -83 R D
13199 26296 M 0 -83 R D 13389 26296 M 0 -83 R D 13768 26296 M 0 -83 R D
13957 26296 M 0 -83 R D 14147 26296 M 0 -83 R D 14337 26296 M 0 -83 R D
14716 26296 M 0 -83 R D 14905 26296 M 0 -83 R D 15095 26296 M 0 -83 R D
15285 26296 M 0 -83 R D 15664 26296 M 0 -83 R D 15853 26296 M 0 -83 R D
16043 26296 M 0 -83 R D 16233 26296 M 0 -83 R D 16612 26296 M 0 -83 R D
16801 26296 M 0 -83 R D 16991 26296 M 0 -83 R D 17181 26296 M 0 -83 R D
12630 22148 M 0 4148 R D 12630 23261 M 190 0 R D
gsave 12496 23091 translate 0 0 M 1.21 dup scale -235.373 0 N
(5) show grestore 12630 24460 M 190 0 R D gsave 12496 24290 translate 0 0 M
1.21 dup scale -470.747 0 N
(10) show grestore 12630 25659 M 190 0 R D gsave 12496 25489 translate 0 0 M
1.21 dup scale -470.747 0 N
(15) show grestore 12630 22302 M 95 0 R D 12630 22542 M 95 0 R D
12630 22782 M 95 0 R D 12630 23022 M 95 0 R D 12630 23501 M 95 0 R D
12630 23741 M 95 0 R D 12630 23981 M 95 0 R D 12630 24220 M 95 0 R D
12630 24700 M 95 0 R D 12630 24940 M 95 0 R D 12630 25180 M 95 0 R D
12630 25419 M 95 0 R D 12630 25899 M 95 0 R D 12630 26139 M 95 0 R D
17370 22148 M 0 4148 R D 17370 23261 M -189 0 R D 17370 24460 M -189 0 R D
17370 25659 M -189 0 R D 17370 22302 M -95 0 R D 17370 22542 M -95 0 R D
17370 22782 M -95 0 R D 17370 23022 M -95 0 R D 17370 23501 M -95 0 R D
17370 23741 M -95 0 R D 17370 23981 M -95 0 R D 17370 24220 M -95 0 R D
17370 24700 M -95 0 R D 17370 24940 M -95 0 R D 17370 25180 M -95 0 R D
17370 25419 M -95 0 R D 17370 25899 M -95 0 R D 17370 26139 M -95 0 R D L2
12630 26296 M 474 -1376 R 474 -675 R 569 -461 R 379 -205 R 948 -330 R
948 -198 R 948 -133 R D L1 12630 25397 M 474 -793 R 474 -425 R 569 -311 R
379 -144 R 948 -245 R 948 -155 R 948 -108 R D L3 12630 25005 M 474 -878 R
474 -872 R 569 -173 R 379 -79 R 948 -129 R 948 -72 R 948 -36 R D L0
0.761 0.000 0.000 setrgbcolor 12630 24690 M 474 -735 R 474 -354 R 569 -240 R
379 -66 R 948 -133 R 948 -62 R 948 -31 R D 0.000 0.549 0.000 setrgbcolor
12630 24801 M 474 -925 R 474 -251 R 569 -212 R 379 -114 R 948 -163 R
948 -140 R 948 -122 R D 0.000 0.000 1.000 setrgbcolor 12630 23538 M
474 -155 R 474 -90 R 569 -108 R 379 -45 R 948 -98 R 948 -79 R 948 -62 R D
0.000 0.000 0.000 setrgbcolor 1350 18000 M 4740 0 R D 1350 18000 M 0 166 R D
gsave 1350 17361 translate 0 0 M 1.21 dup scale -58.8433 0 N
( ) show grestore 2298 18000 M 0 166 R D gsave 2298 17361 translate 0 0 M
1.21 dup scale -294.217 0 N
(0.1) show grestore 3246 18000 M 0 166 R D gsave 3246 17361 translate 0 0 M
1.21 dup scale -58.8433 0 N
( ) show grestore 4194 18000 M 0 166 R D gsave 4194 17361 translate 0 0 M
1.21 dup scale -294.217 0 N
(0.2) show grestore 5142 18000 M 0 166 R D gsave 5142 17361 translate 0 0 M
1.21 dup scale -58.8433 0 N
( ) show grestore 6090 18000 M 0 166 R D gsave 6090 17361 translate 0 0 M
1.21 dup scale -294.217 0 N
(0.3) show grestore 1540 18000 M 0 83 R D 1729 18000 M 0 83 R D 1919 18000 M
0 83 R D 2108 18000 M 0 83 R D 2488 18000 M 0 83 R D 2677 18000 M 0 83 R D
2867 18000 M 0 83 R D 3056 18000 M 0 83 R D 3436 18000 M 0 83 R D
3625 18000 M 0 83 R D 3815 18000 M 0 83 R D 4004 18000 M 0 83 R D
4384 18000 M 0 83 R D 4573 18000 M 0 83 R D 4763 18000 M 0 83 R D
4952 18000 M 0 83 R D 5332 18000 M 0 83 R D 5521 18000 M 0 83 R D
5711 18000 M 0 83 R D 5900 18000 M 0 83 R D 1350 22148 M 4740 0 R D
1350 22148 M 0 -166 R D 2298 22148 M 0 -166 R D 3246 22148 M 0 -166 R D
4194 22148 M 0 -166 R D 5142 22148 M 0 -166 R D 6090 22148 M 0 -166 R D
1540 22148 M 0 -83 R D 1729 22148 M 0 -83 R D 1919 22148 M 0 -83 R D
2108 22148 M 0 -83 R D 2488 22148 M 0 -83 R D 2677 22148 M 0 -83 R D
2867 22148 M 0 -83 R D 3056 22148 M 0 -83 R D 3436 22148 M 0 -83 R D
3625 22148 M 0 -83 R D 3815 22148 M 0 -83 R D 4004 22148 M 0 -83 R D
4384 22148 M 0 -83 R D 4573 22148 M 0 -83 R D 4763 22148 M 0 -83 R D
4952 22148 M 0 -83 R D 5332 22148 M 0 -83 R D 5521 22148 M 0 -83 R D
5711 22148 M 0 -83 R D 5900 22148 M 0 -83 R D 1350 18000 M 0 4148 R D
1350 18940 M 190 0 R D gsave 1216 18769 translate 0 0 M 1.21 dup scale
-235.373 0 N
(2) show grestore 1350 19965 M 190 0 R D gsave 1216 19795 translate 0 0 M
1.21 dup scale -235.373 0 N
(4) show grestore 1350 20991 M 190 0 R D gsave 1216 20820 translate 0 0 M
1.21 dup scale -235.373 0 N
(6) show grestore 1350 22016 M 190 0 R D gsave 1216 21846 translate 0 0 M
1.21 dup scale -235.373 0 N
(8) show grestore 1350 18171 M 95 0 R D 1350 18427 M 95 0 R D 1350 18683 M
95 0 R D 1350 19196 M 95 0 R D 1350 19453 M 95 0 R D 1350 19709 M 95 0 R D
1350 20222 M 95 0 R D 1350 20478 M 95 0 R D 1350 20734 M 95 0 R D
1350 21247 M 95 0 R D 1350 21503 M 95 0 R D 1350 21760 M 95 0 R D
6090 18000 M 0 4148 R D 6090 18940 M -190 0 R D 6090 19965 M -190 0 R D
6090 20991 M -190 0 R D 6090 22016 M -190 0 R D 6090 18171 M -95 0 R D
6090 18427 M -95 0 R D 6090 18683 M -95 0 R D 6090 19196 M -95 0 R D
6090 19453 M -95 0 R D 6090 19709 M -95 0 R D 6090 20222 M -95 0 R D
6090 20478 M -95 0 R D 6090 20734 M -95 0 R D 6090 21247 M -95 0 R D
6090 21503 M -95 0 R D 6090 21760 M -95 0 R D L2 1350 22147 M 474 -1375 R
474 -675 R 569 -461 R 379 -205 R 948 -330 R 948 -198 R 948 -133 R D L1
1821 22147 M 3 -7 R 474 -707 R 569 -517 R 379 -240 R 948 -407 R 948 -257 R
948 -179 R D L3 1350 21312 M 474 -854 R 474 -1399 R 569 -161 R 379 -71 R
948 -103 R 948 -28 R 948 35 R D L0 0.761 0.000 0.000 setrgbcolor
1462 22147 M 362 -1081 R 474 -673 R 569 -404 R 379 -80 R 948 -227 R
948 -154 R 948 -24 R D 0.000 0.549 0.000 setrgbcolor 1350 21744 M 474 -645 R
474 -400 R 569 -372 R 379 -180 R 948 -298 R 948 -199 R 948 -177 R D
0.000 0.000 1.000 setrgbcolor 1350 18439 M 474 -9 R 474 -20 R 569 0 R
379 2 R 948 -8 R 948 8 R 948 -3 R D 0.000 0.000 0.000 setrgbcolor
6990 18000 M 4740 0 R D 6990 18000 M 0 166 R D
gsave 6990 17361 translate 0 0 M 1.21 dup scale -58.8433 0 N
( ) show grestore 7938 18000 M 0 166 R D gsave 7938 17361 translate 0 0 M
1.21 dup scale -294.217 0 N
(0.1) show grestore 8886 18000 M 0 166 R D gsave 8886 17361 translate 0 0 M
1.21 dup scale -58.8433 0 N
( ) show grestore 9834 18000 M 0 166 R D gsave 9834 17361 translate 0 0 M
1.21 dup scale -294.217 0 N
(0.2) show grestore 10782 18000 M 0 166 R D
gsave 10782 17361 translate 0 0 M 1.21 dup scale -58.8433 0 N
( ) show grestore 11730 18000 M 0 166 R D gsave 11730 17361 translate 0 0 M
1.21 dup scale -294.217 0 N
(0.3) show grestore 7180 18000 M 0 83 R D 7369 18000 M 0 83 R D 7559 18000 M
0 83 R D 7748 18000 M 0 83 R D 8128 18000 M 0 83 R D 8317 18000 M 0 83 R D
8507 18000 M 0 83 R D 8696 18000 M 0 83 R D 9076 18000 M 0 83 R D
9265 18000 M 0 83 R D 9455 18000 M 0 83 R D 9644 18000 M 0 83 R D
10024 18000 M 0 83 R D 10213 18000 M 0 83 R D 10403 18000 M 0 83 R D
10593 18000 M 0 83 R D 10972 18000 M 0 83 R D 11161 18000 M 0 83 R D
11351 18000 M 0 83 R D 11541 18000 M 0 83 R D 6990 22148 M 4740 0 R D
6990 22148 M 0 -166 R D 7938 22148 M 0 -166 R D 8886 22148 M 0 -166 R D
9834 22148 M 0 -166 R D 10782 22148 M 0 -166 R D 11730 22148 M 0 -166 R D
7180 22148 M 0 -83 R D 7369 22148 M 0 -83 R D 7559 22148 M 0 -83 R D
7748 22148 M 0 -83 R D 8128 22148 M 0 -83 R D 8317 22148 M 0 -83 R D
8507 22148 M 0 -83 R D 8696 22148 M 0 -83 R D 9076 22148 M 0 -83 R D
9265 22148 M 0 -83 R D 9455 22148 M 0 -83 R D 9644 22148 M 0 -83 R D
10024 22148 M 0 -83 R D 10213 22148 M 0 -83 R D 10403 22148 M 0 -83 R D
10593 22148 M 0 -83 R D 10972 22148 M 0 -83 R D 11161 22148 M 0 -83 R D
11351 22148 M 0 -83 R D 11541 22148 M 0 -83 R D 6990 18000 M 0 4148 R D
6990 18616 M 190 0 R D gsave 6856 18445 translate 0 0 M 1.21 dup scale
-235.373 0 N
(2) show grestore 6990 19317 M 190 0 R D gsave 6856 19147 translate 0 0 M
1.21 dup scale -235.373 0 N
(4) show grestore 6990 20018 M 190 0 R D gsave 6856 19848 translate 0 0 M
1.21 dup scale -235.373 0 N
(6) show grestore 6990 20719 M 190 0 R D gsave 6856 20549 translate 0 0 M
1.21 dup scale -235.373 0 N
(8) show grestore 6990 21421 M 190 0 R D gsave 6856 21250 translate 0 0 M
1.21 dup scale -470.747 0 N
(10) show grestore 6990 22122 M 190 0 R D gsave 6856 21850 translate 0 0 M
1.21 dup scale -470.747 0 N
(12) show grestore 6990 18090 M 95 0 R D 6990 18265 M 95 0 R D 6990 18440 M
95 0 R D 6990 18791 M 95 0 R D 6990 18966 M 95 0 R D 6990 19142 M 95 0 R D
6990 19492 M 95 0 R D 6990 19668 M 95 0 R D 6990 19843 M 95 0 R D
6990 20193 M 95 0 R D 6990 20369 M 95 0 R D 6990 20544 M 95 0 R D
6990 20895 M 95 0 R D 6990 21070 M 95 0 R D 6990 21245 M 95 0 R D
6990 21596 M 95 0 R D 6990 21771 M 95 0 R D 6990 21947 M 95 0 R D
11730 18000 M 0 4148 R D 11730 18616 M -189 0 R D 11730 19317 M -189 0 R D
11730 20018 M -189 0 R D 11730 20719 M -189 0 R D 11730 21421 M -189 0 R D
11730 22122 M -189 0 R D 11730 18090 M -95 0 R D 11730 18265 M -95 0 R D
11730 18440 M -95 0 R D 11730 18791 M -95 0 R D 11730 18966 M -95 0 R D
11730 19142 M -95 0 R D 11730 19492 M -95 0 R D 11730 19668 M -95 0 R D
11730 19843 M -95 0 R D 11730 20193 M -95 0 R D 11730 20369 M -95 0 R D
11730 20544 M -95 0 R D 11730 20895 M -95 0 R D 11730 21070 M -95 0 R D
11730 21245 M -95 0 R D 11730 21596 M -95 0 R D 11730 21771 M -95 0 R D
11730 21947 M -95 0 R D L2 6990 22147 M 474 -1375 R 474 -675 R 569 -461 R
379 -205 R 948 -330 R 948 -198 R 948 -133 R D L1 7056 22147 M 408 -895 R
474 -558 R 569 -409 R 379 -189 R 948 -322 R 948 -203 R 948 -142 R D L3
6990 21228 M 474 -935 R 474 -1110 R 569 -182 R 379 -82 R 948 -128 R
948 -59 R 948 -10 R D L0 0.761 0.000 0.000 setrgbcolor 6990 21559 M
474 -1167 R 474 -466 R 569 -330 R 379 -111 R 948 -192 R 948 -64 R 948 -35 R
D 0.000 0.549 0.000 setrgbcolor 6990 21773 M 474 -762 R 474 -479 R
569 -804 R 379 -108 R 948 -257 R 948 -140 R 948 -99 R D
0.000 0.000 1.000 setrgbcolor 6990 20114 M 474 -239 R 474 -181 R 569 -141 R
379 -77 R 948 -153 R 948 -102 R 948 -97 R D 0.000 0.000 0.000 setrgbcolor
12630 18000 M 4740 0 R D 12630 18000 M 0 166 R D
gsave 12630 17361 translate 0 0 M 1.21 dup scale -58.8433 0 N
( ) show grestore 13578 18000 M 0 166 R D gsave 13578 17361 translate 0 0 M
1.21 dup scale -294.217 0 N
(0.1) show grestore 14526 18000 M 0 166 R D
gsave 14526 17361 translate 0 0 M 1.21 dup scale -58.8433 0 N
( ) show grestore 15474 18000 M 0 166 R D gsave 15474 17361 translate 0 0 M
1.21 dup scale -294.217 0 N
(0.2) show grestore 16422 18000 M 0 166 R D
gsave 16422 17361 translate 0 0 M 1.21 dup scale -58.8433 0 N
( ) show grestore 17370 18000 M 0 166 R D gsave 17370 17361 translate 0 0 M
1.21 dup scale -294.217 0 N
(0.3) show grestore 12820 18000 M 0 83 R D 13009 18000 M 0 83 R D
13199 18000 M 0 83 R D 13389 18000 M 0 83 R D 13768 18000 M 0 83 R D
13957 18000 M 0 83 R D 14147 18000 M 0 83 R D 14337 18000 M 0 83 R D
14716 18000 M 0 83 R D 14905 18000 M 0 83 R D 15095 18000 M 0 83 R D
15285 18000 M 0 83 R D 15664 18000 M 0 83 R D 15853 18000 M 0 83 R D
16043 18000 M 0 83 R D 16233 18000 M 0 83 R D 16612 18000 M 0 83 R D
16801 18000 M 0 83 R D 16991 18000 M 0 83 R D 17181 18000 M 0 83 R D
12630 22148 M 4740 0 R D 12630 22148 M 0 -166 R D 13578 22148 M 0 -166 R D
14526 22148 M 0 -166 R D 15474 22148 M 0 -166 R D 16422 22148 M 0 -166 R D
17370 22148 M 0 -166 R D 12820 22148 M 0 -83 R D 13009 22148 M 0 -83 R D
13199 22148 M 0 -83 R D 13389 22148 M 0 -83 R D 13768 22148 M 0 -83 R D
13957 22148 M 0 -83 R D 14147 22148 M 0 -83 R D 14337 22148 M 0 -83 R D
14716 22148 M 0 -83 R D 14905 22148 M 0 -83 R D 15095 22148 M 0 -83 R D
15285 22148 M 0 -83 R D 15664 22148 M 0 -83 R D 15853 22148 M 0 -83 R D
16043 22148 M 0 -83 R D 16233 22148 M 0 -83 R D 16612 22148 M 0 -83 R D
16801 22148 M 0 -83 R D 16991 22148 M 0 -83 R D 17181 22148 M 0 -83 R D
12630 18000 M 0 4148 R D 12630 19113 M 190 0 R D
gsave 12496 18943 translate 0 0 M 1.21 dup scale -235.373 0 N
(5) show grestore 12630 20312 M 190 0 R D gsave 12496 20142 translate 0 0 M
1.21 dup scale -470.747 0 N
(10) show grestore 12630 21511 M 190 0 R D gsave 12496 21341 translate 0 0 M
1.21 dup scale -470.747 0 N
(15) show grestore 12630 18154 M 95 0 R D 12630 18394 M 95 0 R D
12630 18634 M 95 0 R D 12630 18874 M 95 0 R D 12630 19353 M 95 0 R D
12630 19593 M 95 0 R D 12630 19833 M 95 0 R D 12630 20072 M 95 0 R D
12630 20552 M 95 0 R D 12630 20792 M 95 0 R D 12630 21032 M 95 0 R D
12630 21271 M 95 0 R D 12630 21751 M 95 0 R D 12630 21991 M 95 0 R D
17370 18000 M 0 4148 R D 17370 19113 M -189 0 R D 17370 20312 M -189 0 R D
17370 21511 M -189 0 R D 17370 18154 M -95 0 R D 17370 18394 M -95 0 R D
17370 18634 M -95 0 R D 17370 18874 M -95 0 R D 17370 19353 M -95 0 R D
17370 19593 M -95 0 R D 17370 19833 M -95 0 R D 17370 20072 M -95 0 R D
17370 20552 M -95 0 R D 17370 20792 M -95 0 R D 17370 21032 M -95 0 R D
17370 21271 M -95 0 R D 17370 21751 M -95 0 R D 17370 21991 M -95 0 R D L2
12630 22147 M 474 -1375 R 474 -675 R 569 -461 R 379 -205 R 948 -330 R
948 -198 R 948 -133 R D L1 12630 21249 M 474 -793 R 474 -425 R 569 -311 R
379 -144 R 948 -245 R 948 -155 R 948 -108 R D L3 12630 20857 M 474 -878 R
474 -872 R 569 -173 R 379 -79 R 948 -129 R 948 -72 R 948 -36 R D L0
0.761 0.000 0.000 setrgbcolor 12630 20720 M 474 -821 R 474 -372 R 569 -254 R
379 -61 R 948 -155 R 948 -57 R 948 -1 R D 0.000 0.549 0.000 setrgbcolor
12630 21708 M 474 -1233 R 474 -582 R 569 -378 R 379 -140 R 948 -269 R
948 -187 R 948 -55 R D 0.000 0.000 1.000 setrgbcolor 12630 20459 M
474 -335 R 474 -216 R 569 -284 R 379 -69 R 948 -523 R 948 -126 R 948 -88 R D
0.000 0.000 0.000 setrgbcolor 1350 13852 M 4740 0 R D 1350 13852 M 0 166 R D
gsave 1350 13213 translate 0 0 M 1.21 dup scale -58.8433 0 N
( ) show grestore 2298 13852 M 0 166 R D gsave 2298 13213 translate 0 0 M
1.21 dup scale -294.217 0 N
(0.1) show grestore 3246 13852 M 0 166 R D gsave 3246 13213 translate 0 0 M
1.21 dup scale -58.8433 0 N
( ) show grestore 4194 13852 M 0 166 R D gsave 4194 13213 translate 0 0 M
1.21 dup scale -294.217 0 N
(0.2) show grestore 5142 13852 M 0 166 R D gsave 5142 13213 translate 0 0 M
1.21 dup scale -58.8433 0 N
( ) show grestore 6090 13852 M 0 166 R D gsave 6090 13213 translate 0 0 M
1.21 dup scale -294.217 0 N
(0.3) show grestore 1540 13852 M 0 83 R D 1729 13852 M 0 83 R D 1919 13852 M
0 83 R D 2108 13852 M 0 83 R D 2488 13852 M 0 83 R D 2677 13852 M 0 83 R D
2867 13852 M 0 83 R D 3056 13852 M 0 83 R D 3436 13852 M 0 83 R D
3625 13852 M 0 83 R D 3815 13852 M 0 83 R D 4004 13852 M 0 83 R D
4384 13852 M 0 83 R D 4573 13852 M 0 83 R D 4763 13852 M 0 83 R D
4952 13852 M 0 83 R D 5332 13852 M 0 83 R D 5521 13852 M 0 83 R D
5711 13852 M 0 83 R D 5900 13852 M 0 83 R D 1350 18000 M 4740 0 R D
1350 18000 M 0 -166 R D 2298 18000 M 0 -166 R D 3246 18000 M 0 -166 R D
4194 18000 M 0 -166 R D 5142 18000 M 0 -166 R D 6090 18000 M 0 -166 R D
1540 18000 M 0 -83 R D 1729 18000 M 0 -83 R D 1919 18000 M 0 -83 R D
2108 18000 M 0 -83 R D 2488 18000 M 0 -83 R D 2677 18000 M 0 -83 R D
2867 18000 M 0 -83 R D 3056 18000 M 0 -83 R D 3436 18000 M 0 -83 R D
3625 18000 M 0 -83 R D 3815 18000 M 0 -83 R D 4004 18000 M 0 -83 R D
4384 18000 M 0 -83 R D 4573 18000 M 0 -83 R D 4763 18000 M 0 -83 R D
4952 18000 M 0 -83 R D 5332 18000 M 0 -83 R D 5521 18000 M 0 -83 R D
5711 18000 M 0 -83 R D 5900 18000 M 0 -83 R D 1350 13852 M 0 4148 R D
1350 14792 M 190 0 R D gsave 1216 14621 translate 0 0 M 1.21 dup scale
-235.373 0 N
(2) show grestore 1350 15817 M 190 0 R D gsave 1216 15647 translate 0 0 M
1.21 dup scale -235.373 0 N
(4) show grestore 1350 16843 M 190 0 R D gsave 1216 16672 translate 0 0 M
1.21 dup scale -235.373 0 N
(6) show grestore 1350 17868 M 190 0 R D gsave 1216 17698 translate 0 0 M
1.21 dup scale -235.373 0 N
(8) show grestore 1350 14023 M 95 0 R D 1350 14279 M 95 0 R D 1350 14535 M
95 0 R D 1350 15048 M 95 0 R D 1350 15305 M 95 0 R D 1350 15561 M 95 0 R D
1350 16074 M 95 0 R D 1350 16330 M 95 0 R D 1350 16586 M 95 0 R D
1350 17099 M 95 0 R D 1350 17355 M 95 0 R D 1350 17612 M 95 0 R D
6090 13852 M 0 4148 R D 6090 14792 M -190 0 R D 6090 15817 M -190 0 R D
6090 16843 M -190 0 R D 6090 17868 M -190 0 R D 6090 14023 M -95 0 R D
6090 14279 M -95 0 R D 6090 14535 M -95 0 R D 6090 15048 M -95 0 R D
6090 15305 M -95 0 R D 6090 15561 M -95 0 R D 6090 16074 M -95 0 R D
6090 16330 M -95 0 R D 6090 16586 M -95 0 R D 6090 17099 M -95 0 R D
6090 17355 M -95 0 R D 6090 17612 M -95 0 R D L2 1350 18000 M 474 -1376 R
474 -675 R 569 -461 R 379 -205 R 948 -330 R 948 -198 R 948 -133 R D L1
1821 18000 M 3 -8 R 474 -707 R 569 -517 R 379 -240 R 948 -407 R 948 -257 R
948 -179 R D L3 1350 17164 M 474 -854 R 474 -1399 R 569 -161 R 379 -71 R
948 -103 R 948 -28 R 948 35 R D L0 0.761 0.000 0.000 setrgbcolor
1553 18000 M 271 -1082 R 474 -673 R 569 -404 R 379 -80 R 948 -227 R
948 -154 R 948 -24 R D 0.000 0.549 0.000 setrgbcolor 2508 18000 M 359 -691 R
379 -398 R 948 -594 R 948 -204 R 948 -193 R D 0.000 0.000 1.000 setrgbcolor
1719 18000 M 105 -279 R 474 -642 R 569 -512 R 379 -187 R 948 -341 R
948 -325 R 948 -111 R D 0.000 0.000 0.000 setrgbcolor 6990 13852 M 4740 0 R
D 6990 13852 M 0 166 R D gsave 6990 13213 translate 0 0 M 1.21 dup scale
-58.8433 0 N
( ) show grestore 7938 13852 M 0 166 R D gsave 7938 13213 translate 0 0 M
1.21 dup scale -294.217 0 N
(0.1) show grestore 8886 13852 M 0 166 R D gsave 8886 13213 translate 0 0 M
1.21 dup scale -58.8433 0 N
( ) show grestore 9834 13852 M 0 166 R D gsave 9834 13213 translate 0 0 M
1.21 dup scale -294.217 0 N
(0.2) show grestore 10782 13852 M 0 166 R D
gsave 10782 13213 translate 0 0 M 1.21 dup scale -58.8433 0 N
( ) show grestore 11730 13852 M 0 166 R D gsave 11730 13213 translate 0 0 M
1.21 dup scale -294.217 0 N
(0.3) show grestore 7180 13852 M 0 83 R D 7369 13852 M 0 83 R D 7559 13852 M
0 83 R D 7748 13852 M 0 83 R D 8128 13852 M 0 83 R D 8317 13852 M 0 83 R D
8507 13852 M 0 83 R D 8696 13852 M 0 83 R D 9076 13852 M 0 83 R D
9265 13852 M 0 83 R D 9455 13852 M 0 83 R D 9644 13852 M 0 83 R D
10024 13852 M 0 83 R D 10213 13852 M 0 83 R D 10403 13852 M 0 83 R D
10593 13852 M 0 83 R D 10972 13852 M 0 83 R D 11161 13852 M 0 83 R D
11351 13852 M 0 83 R D 11541 13852 M 0 83 R D 6990 18000 M 4740 0 R D
6990 18000 M 0 -166 R D 7938 18000 M 0 -166 R D 8886 18000 M 0 -166 R D
9834 18000 M 0 -166 R D 10782 18000 M 0 -166 R D 11730 18000 M 0 -166 R D
7180 18000 M 0 -83 R D 7369 18000 M 0 -83 R D 7559 18000 M 0 -83 R D
7748 18000 M 0 -83 R D 8128 18000 M 0 -83 R D 8317 18000 M 0 -83 R D
8507 18000 M 0 -83 R D 8696 18000 M 0 -83 R D 9076 18000 M 0 -83 R D
9265 18000 M 0 -83 R D 9455 18000 M 0 -83 R D 9644 18000 M 0 -83 R D
10024 18000 M 0 -83 R D 10213 18000 M 0 -83 R D 10403 18000 M 0 -83 R D
10593 18000 M 0 -83 R D 10972 18000 M 0 -83 R D 11161 18000 M 0 -83 R D
11351 18000 M 0 -83 R D 11541 18000 M 0 -83 R D 6990 13852 M 0 4148 R D
6990 14468 M 190 0 R D gsave 6856 14297 translate 0 0 M 1.21 dup scale
-235.373 0 N
(2) show grestore 6990 15169 M 190 0 R D gsave 6856 14999 translate 0 0 M
1.21 dup scale -235.373 0 N
(4) show grestore 6990 15870 M 190 0 R D gsave 6856 15700 translate 0 0 M
1.21 dup scale -235.373 0 N
(6) show grestore 6990 16571 M 190 0 R D gsave 6856 16401 translate 0 0 M
1.21 dup scale -235.373 0 N
(8) show grestore 6990 17273 M 190 0 R D gsave 6856 17102 translate 0 0 M
1.21 dup scale -470.747 0 N
(10) show grestore 6990 17974 M 190 0 R D gsave 6856 17702 translate 0 0 M
1.21 dup scale -470.747 0 N
(12) show grestore 6990 13942 M 95 0 R D 6990 14117 M 95 0 R D 6990 14292 M
95 0 R D 6990 14643 M 95 0 R D 6990 14818 M 95 0 R D 6990 14994 M 95 0 R D
6990 15344 M 95 0 R D 6990 15520 M 95 0 R D 6990 15695 M 95 0 R D
6990 16045 M 95 0 R D 6990 16221 M 95 0 R D 6990 16396 M 95 0 R D
6990 16747 M 95 0 R D 6990 16922 M 95 0 R D 6990 17097 M 95 0 R D
6990 17448 M 95 0 R D 6990 17623 M 95 0 R D 6990 17799 M 95 0 R D
11730 13852 M 0 4148 R D 11730 14468 M -189 0 R D 11730 15169 M -189 0 R D
11730 15870 M -189 0 R D 11730 16571 M -189 0 R D 11730 17273 M -189 0 R D
11730 17974 M -189 0 R D 11730 13942 M -95 0 R D 11730 14117 M -95 0 R D
11730 14292 M -95 0 R D 11730 14643 M -95 0 R D 11730 14818 M -95 0 R D
11730 14994 M -95 0 R D 11730 15344 M -95 0 R D 11730 15520 M -95 0 R D
11730 15695 M -95 0 R D 11730 16045 M -95 0 R D 11730 16221 M -95 0 R D
11730 16396 M -95 0 R D 11730 16747 M -95 0 R D 11730 16922 M -95 0 R D
11730 17097 M -95 0 R D 11730 17448 M -95 0 R D 11730 17623 M -95 0 R D
11730 17799 M -95 0 R D L2 6990 18000 M 474 -1376 R 474 -675 R 569 -461 R
379 -205 R 948 -330 R 948 -198 R 948 -133 R D L1 7056 18000 M 408 -896 R
474 -558 R 569 -409 R 379 -189 R 948 -322 R 948 -203 R 948 -142 R D L3
6990 17080 M 474 -935 R 474 -1110 R 569 -182 R 379 -82 R 948 -128 R
948 -59 R 948 -10 R D L0 0.761 0.000 0.000 setrgbcolor 6990 17815 M
474 -1530 R 474 -507 R 569 -330 R 379 -111 R 948 -192 R 948 -64 R 948 -35 R
D 0.000 0.549 0.000 setrgbcolor 7667 18000 M 271 -586 R 569 -753 R
379 -225 R 948 -654 R 948 -301 R 948 -177 R D 0.000 0.000 1.000 setrgbcolor
7422 18000 M 42 -116 R 474 -581 R 569 -366 R 379 -491 R 948 -126 R 948 297 R
948 -103 R D 0.000 0.000 0.000 setrgbcolor 12630 13852 M 4740 0 R D
12630 13852 M 0 166 R D gsave 12630 13213 translate 0 0 M 1.21 dup scale
-58.8433 0 N
( ) show grestore 13578 13852 M 0 166 R D gsave 13578 13213 translate 0 0 M
1.21 dup scale -294.217 0 N
(0.1) show grestore 14526 13852 M 0 166 R D
gsave 14526 13213 translate 0 0 M 1.21 dup scale -58.8433 0 N
( ) show grestore 15474 13852 M 0 166 R D gsave 15474 13213 translate 0 0 M
1.21 dup scale -294.217 0 N
(0.2) show grestore 16422 13852 M 0 166 R D
gsave 16422 13213 translate 0 0 M 1.21 dup scale -58.8433 0 N
( ) show grestore 17370 13852 M 0 166 R D gsave 17370 13213 translate 0 0 M
1.21 dup scale -294.217 0 N
(0.3) show grestore 12820 13852 M 0 83 R D 13009 13852 M 0 83 R D
13199 13852 M 0 83 R D 13389 13852 M 0 83 R D 13768 13852 M 0 83 R D
13957 13852 M 0 83 R D 14147 13852 M 0 83 R D 14337 13852 M 0 83 R D
14716 13852 M 0 83 R D 14905 13852 M 0 83 R D 15095 13852 M 0 83 R D
15285 13852 M 0 83 R D 15664 13852 M 0 83 R D 15853 13852 M 0 83 R D
16043 13852 M 0 83 R D 16233 13852 M 0 83 R D 16612 13852 M 0 83 R D
16801 13852 M 0 83 R D 16991 13852 M 0 83 R D 17181 13852 M 0 83 R D
12630 18000 M 4740 0 R D 12630 18000 M 0 -166 R D 13578 18000 M 0 -166 R D
14526 18000 M 0 -166 R D 15474 18000 M 0 -166 R D 16422 18000 M 0 -166 R D
17370 18000 M 0 -166 R D 12820 18000 M 0 -83 R D 13009 18000 M 0 -83 R D
13199 18000 M 0 -83 R D 13389 18000 M 0 -83 R D 13768 18000 M 0 -83 R D
13957 18000 M 0 -83 R D 14147 18000 M 0 -83 R D 14337 18000 M 0 -83 R D
14716 18000 M 0 -83 R D 14905 18000 M 0 -83 R D 15095 18000 M 0 -83 R D
15285 18000 M 0 -83 R D 15664 18000 M 0 -83 R D 15853 18000 M 0 -83 R D
16043 18000 M 0 -83 R D 16233 18000 M 0 -83 R D 16612 18000 M 0 -83 R D
16801 18000 M 0 -83 R D 16991 18000 M 0 -83 R D 17181 18000 M 0 -83 R D
12630 13852 M 0 4148 R D 12630 14965 M 190 0 R D
gsave 12496 14795 translate 0 0 M 1.21 dup scale -235.373 0 N
(5) show grestore 12630 16164 M 190 0 R D gsave 12496 15994 translate 0 0 M
1.21 dup scale -470.747 0 N
(10) show grestore 12630 17363 M 190 0 R D gsave 12496 17193 translate 0 0 M
1.21 dup scale -470.747 0 N
(15) show grestore 12630 14006 M 95 0 R D 12630 14246 M 95 0 R D
12630 14486 M 95 0 R D 12630 14726 M 95 0 R D 12630 15205 M 95 0 R D
12630 15445 M 95 0 R D 12630 15685 M 95 0 R D 12630 15924 M 95 0 R D
12630 16404 M 95 0 R D 12630 16644 M 95 0 R D 12630 16884 M 95 0 R D
12630 17123 M 95 0 R D 12630 17603 M 95 0 R D 12630 17843 M 95 0 R D
17370 13852 M 0 4148 R D 17370 14965 M -189 0 R D 17370 16164 M -189 0 R D
17370 17363 M -189 0 R D 17370 14006 M -95 0 R D 17370 14246 M -95 0 R D
17370 14486 M -95 0 R D 17370 14726 M -95 0 R D 17370 15205 M -95 0 R D
17370 15445 M -95 0 R D 17370 15685 M -95 0 R D 17370 15924 M -95 0 R D
17370 16404 M -95 0 R D 17370 16644 M -95 0 R D 17370 16884 M -95 0 R D
17370 17123 M -95 0 R D 17370 17603 M -95 0 R D 17370 17843 M -95 0 R D L2
12630 18000 M 474 -1376 R 474 -675 R 569 -461 R 379 -205 R 948 -330 R
948 -198 R 948 -133 R D L1 12630 17101 M 474 -793 R 474 -425 R 569 -311 R
379 -144 R 948 -245 R 948 -155 R 948 -108 R D L3 12630 16709 M 474 -878 R
474 -872 R 569 -173 R 379 -79 R 948 -129 R 948 -72 R 948 -36 R D L0
0.761 0.000 0.000 setrgbcolor 12630 16770 M 474 -996 R 474 -388 R 569 -261 R
379 -61 R 948 -155 R 948 -57 R 948 7 R D 0.000 0.549 0.000 setrgbcolor
13087 18000 M 17 -105 R 474 -1134 R 569 -706 R 379 -301 R 948 -455 R
948 -260 R 948 -83 R D 0.000 0.000 1.000 setrgbcolor 12979 18000 M
125 -303 R 168 303 R D 14023 18000 M 124 -153 R 379 -356 R 948 -224 R
948 -232 R 948 -468 R D 0.000 0.000 0.000 setrgbcolor 1350 9704 M 4740 0 R D
1350 9704 M 0 166 R D gsave 1350 9065 translate 0 0 M 1.21 dup scale
-58.8433 0 N
( ) show grestore 2298 9704 M 0 166 R D gsave 2298 9065 translate 0 0 M
1.21 dup scale -294.217 0 N
(0.1) show grestore 3246 9704 M 0 166 R D gsave 3246 9065 translate 0 0 M
1.21 dup scale -58.8433 0 N
( ) show grestore 4194 9704 M 0 166 R D gsave 4194 9065 translate 0 0 M
1.21 dup scale -294.217 0 N
(0.2) show grestore 5142 9704 M 0 166 R D gsave 5142 9065 translate 0 0 M
1.21 dup scale -58.8433 0 N
( ) show grestore 6090 9704 M 0 166 R D gsave 6090 9065 translate 0 0 M
1.21 dup scale -294.217 0 N
(0.3) show grestore 1540 9704 M 0 83 R D 1729 9704 M 0 83 R D 1919 9704 M
0 83 R D 2108 9704 M 0 83 R D 2488 9704 M 0 83 R D 2677 9704 M 0 83 R D
2867 9704 M 0 83 R D 3056 9704 M 0 83 R D 3436 9704 M 0 83 R D 3625 9704 M
0 83 R D 3815 9704 M 0 83 R D 4004 9704 M 0 83 R D 4384 9704 M 0 83 R D
4573 9704 M 0 83 R D 4763 9704 M 0 83 R D 4952 9704 M 0 83 R D 5332 9704 M
0 83 R D 5521 9704 M 0 83 R D 5711 9704 M 0 83 R D 5900 9704 M 0 83 R D
1350 13852 M 4740 0 R D 1350 13852 M 0 -166 R D 2298 13852 M 0 -166 R D
3246 13852 M 0 -166 R D 4194 13852 M 0 -166 R D 5142 13852 M 0 -166 R D
6090 13852 M 0 -166 R D 1540 13852 M 0 -83 R D 1729 13852 M 0 -83 R D
1919 13852 M 0 -83 R D 2108 13852 M 0 -83 R D 2488 13852 M 0 -83 R D
2677 13852 M 0 -83 R D 2867 13852 M 0 -83 R D 3056 13852 M 0 -83 R D
3436 13852 M 0 -83 R D 3625 13852 M 0 -83 R D 3815 13852 M 0 -83 R D
4004 13852 M 0 -83 R D 4384 13852 M 0 -83 R D 4573 13852 M 0 -83 R D
4763 13852 M 0 -83 R D 4952 13852 M 0 -83 R D 5332 13852 M 0 -83 R D
5521 13852 M 0 -83 R D 5711 13852 M 0 -83 R D 5900 13852 M 0 -83 R D
1350 9704 M 0 4148 R D 1350 10644 M 190 0 R D
gsave 1216 10473 translate 0 0 M 1.21 dup scale -235.373 0 N
(2) show grestore 1350 11669 M 190 0 R D gsave 1216 11499 translate 0 0 M
1.21 dup scale -235.373 0 N
(4) show grestore 1350 12695 M 190 0 R D gsave 1216 12524 translate 0 0 M
1.21 dup scale -235.373 0 N
(6) show grestore 1350 13720 M 190 0 R D gsave 1216 13550 translate 0 0 M
1.21 dup scale -235.373 0 N
(8) show grestore 1350 9875 M 95 0 R D 1350 10131 M 95 0 R D 1350 10387 M
95 0 R D 1350 10900 M 95 0 R D 1350 11157 M 95 0 R D 1350 11413 M 95 0 R D
1350 11926 M 95 0 R D 1350 12182 M 95 0 R D 1350 12438 M 95 0 R D
1350 12951 M 95 0 R D 1350 13207 M 95 0 R D 1350 13464 M 95 0 R D
6090 9704 M 0 4148 R D 6090 10644 M -190 0 R D 6090 11669 M -190 0 R D
6090 12695 M -190 0 R D 6090 13720 M -190 0 R D 6090 9875 M -95 0 R D
6090 10131 M -95 0 R D 6090 10387 M -95 0 R D 6090 10900 M -95 0 R D
6090 11157 M -95 0 R D 6090 11413 M -95 0 R D 6090 11926 M -95 0 R D
6090 12182 M -95 0 R D 6090 12438 M -95 0 R D 6090 12951 M -95 0 R D
6090 13207 M -95 0 R D 6090 13464 M -95 0 R D L2 1350 13851 M 474 -1375 R
474 -675 R 569 -461 R 379 -205 R 948 -330 R 948 -198 R 948 -133 R D L1
1821 13851 M 3 -7 R 474 -707 R 569 -517 R 379 -240 R 948 -407 R 948 -257 R
948 -179 R D L3 1350 13016 M 474 -854 R 474 -1399 R 569 -161 R 379 -71 R
948 -103 R 948 -28 R 948 35 R D L0 0.761 0.000 0.000 setrgbcolor
1350 13473 M 474 -1021 R 474 -471 R 569 -353 R 379 -136 R 948 -144 R
948 -34 R 948 -122 R D 0.000 0.549 0.000 setrgbcolor 2414 13851 M 453 -779 R
379 -474 R 948 -591 R 948 -332 R 948 -190 R D 0.000 0.000 1.000 setrgbcolor
5538 13851 M 552 -380 R D 0.000 0.000 0.000 setrgbcolor 6990 9704 M 4740 0 R
D 6990 9704 M 0 166 R D gsave 6990 9065 translate 0 0 M 1.21 dup scale
-58.8433 0 N
( ) show grestore 7938 9704 M 0 166 R D gsave 7938 9065 translate 0 0 M
1.21 dup scale -294.217 0 N
(0.1) show grestore 8886 9704 M 0 166 R D gsave 8886 9065 translate 0 0 M
1.21 dup scale -58.8433 0 N
( ) show grestore 9834 9704 M 0 166 R D gsave 9834 9065 translate 0 0 M
1.21 dup scale -294.217 0 N
(0.2) show grestore 10782 9704 M 0 166 R D gsave 10782 9065 translate 0 0 M
1.21 dup scale -58.8433 0 N
( ) show grestore 11730 9704 M 0 166 R D gsave 11730 9065 translate 0 0 M
1.21 dup scale -294.217 0 N
(0.3) show grestore 7180 9704 M 0 83 R D 7369 9704 M 0 83 R D 7559 9704 M
0 83 R D 7748 9704 M 0 83 R D 8128 9704 M 0 83 R D 8317 9704 M 0 83 R D
8507 9704 M 0 83 R D 8696 9704 M 0 83 R D 9076 9704 M 0 83 R D 9265 9704 M
0 83 R D 9455 9704 M 0 83 R D 9644 9704 M 0 83 R D 10024 9704 M 0 83 R D
10213 9704 M 0 83 R D 10403 9704 M 0 83 R D 10593 9704 M 0 83 R D
10972 9704 M 0 83 R D 11161 9704 M 0 83 R D 11351 9704 M 0 83 R D
11541 9704 M 0 83 R D 6990 13852 M 4740 0 R D 6990 13852 M 0 -166 R D
7938 13852 M 0 -166 R D 8886 13852 M 0 -166 R D 9834 13852 M 0 -166 R D
10782 13852 M 0 -166 R D 11730 13852 M 0 -166 R D 7180 13852 M 0 -83 R D
7369 13852 M 0 -83 R D 7559 13852 M 0 -83 R D 7748 13852 M 0 -83 R D
8128 13852 M 0 -83 R D 8317 13852 M 0 -83 R D 8507 13852 M 0 -83 R D
8696 13852 M 0 -83 R D 9076 13852 M 0 -83 R D 9265 13852 M 0 -83 R D
9455 13852 M 0 -83 R D 9644 13852 M 0 -83 R D 10024 13852 M 0 -83 R D
10213 13852 M 0 -83 R D 10403 13852 M 0 -83 R D 10593 13852 M 0 -83 R D
10972 13852 M 0 -83 R D 11161 13852 M 0 -83 R D 11351 13852 M 0 -83 R D
11541 13852 M 0 -83 R D 6990 9704 M 0 4148 R D 6990 10320 M 190 0 R D
gsave 6856 10149 translate 0 0 M 1.21 dup scale -235.373 0 N
(2) show grestore 6990 11021 M 190 0 R D gsave 6856 10851 translate 0 0 M
1.21 dup scale -235.373 0 N
(4) show grestore 6990 11722 M 190 0 R D gsave 6856 11552 translate 0 0 M
1.21 dup scale -235.373 0 N
(6) show grestore 6990 12423 M 190 0 R D gsave 6856 12253 translate 0 0 M
1.21 dup scale -235.373 0 N
(8) show grestore 6990 13125 M 190 0 R D gsave 6856 12954 translate 0 0 M
1.21 dup scale -470.747 0 N
(10) show grestore 6990 13826 M 190 0 R D gsave 6856 13554 translate 0 0 M
1.21 dup scale -470.747 0 N
(12) show grestore 6990 9794 M 95 0 R D 6990 9969 M 95 0 R D 6990 10144 M
95 0 R D 6990 10495 M 95 0 R D 6990 10670 M 95 0 R D 6990 10846 M 95 0 R D
6990 11196 M 95 0 R D 6990 11372 M 95 0 R D 6990 11547 M 95 0 R D
6990 11897 M 95 0 R D 6990 12073 M 95 0 R D 6990 12248 M 95 0 R D
6990 12599 M 95 0 R D 6990 12774 M 95 0 R D 6990 12949 M 95 0 R D
6990 13300 M 95 0 R D 6990 13475 M 95 0 R D 6990 13651 M 95 0 R D
11730 9704 M 0 4148 R D 11730 10320 M -189 0 R D 11730 11021 M -189 0 R D
11730 11722 M -189 0 R D 11730 12423 M -189 0 R D 11730 13125 M -189 0 R D
11730 13826 M -189 0 R D 11730 9794 M -95 0 R D 11730 9969 M -95 0 R D
11730 10144 M -95 0 R D 11730 10495 M -95 0 R D 11730 10670 M -95 0 R D
11730 10846 M -95 0 R D 11730 11196 M -95 0 R D 11730 11372 M -95 0 R D
11730 11547 M -95 0 R D 11730 11897 M -95 0 R D 11730 12073 M -95 0 R D
11730 12248 M -95 0 R D 11730 12599 M -95 0 R D 11730 12774 M -95 0 R D
11730 12949 M -95 0 R D 11730 13300 M -95 0 R D 11730 13475 M -95 0 R D
11730 13651 M -95 0 R D L2 6990 13851 M 474 -1375 R 474 -675 R 569 -461 R
379 -205 R 948 -330 R 948 -198 R 948 -133 R D L1 7056 13851 M 408 -895 R
474 -558 R 569 -409 R 379 -189 R 948 -322 R 948 -203 R 948 -142 R D L3
6990 12932 M 474 -935 R 474 -1110 R 569 -182 R 379 -82 R 948 -128 R
948 -59 R 948 -10 R D L0 0.761 0.000 0.000 setrgbcolor 6990 12713 M
474 -842 R 474 -357 R 569 -278 R 379 -101 R 948 -133 R 948 -111 R 948 -21 R
D 0.000 0.549 0.000 setrgbcolor 7387 13851 M 77 -310 R 474 -881 R 569 -680 R
379 -211 R 948 -433 R 948 -232 R 948 -125 R D 0.000 0.000 1.000 setrgbcolor
9352 13851 M 482 -581 R 948 -761 R 948 -453 R D
0.000 0.000 0.000 setrgbcolor 12630 9704 M 4740 0 R D 12630 9704 M 0 166 R D
gsave 12630 9065 translate 0 0 M 1.21 dup scale -58.8433 0 N
( ) show grestore 13578 9704 M 0 166 R D gsave 13578 9065 translate 0 0 M
1.21 dup scale -294.217 0 N
(0.1) show grestore 14526 9704 M 0 166 R D gsave 14526 9065 translate 0 0 M
1.21 dup scale -58.8433 0 N
( ) show grestore 15474 9704 M 0 166 R D gsave 15474 9065 translate 0 0 M
1.21 dup scale -294.217 0 N
(0.2) show grestore 16422 9704 M 0 166 R D gsave 16422 9065 translate 0 0 M
1.21 dup scale -58.8433 0 N
( ) show grestore 17370 9704 M 0 166 R D gsave 17370 9065 translate 0 0 M
1.21 dup scale -294.217 0 N
(0.3) show grestore 12820 9704 M 0 83 R D 13009 9704 M 0 83 R D 13199 9704 M
0 83 R D 13389 9704 M 0 83 R D 13768 9704 M 0 83 R D 13957 9704 M 0 83 R D
14147 9704 M 0 83 R D 14337 9704 M 0 83 R D 14716 9704 M 0 83 R D
14905 9704 M 0 83 R D 15095 9704 M 0 83 R D 15285 9704 M 0 83 R D
15664 9704 M 0 83 R D 15853 9704 M 0 83 R D 16043 9704 M 0 83 R D
16233 9704 M 0 83 R D 16612 9704 M 0 83 R D 16801 9704 M 0 83 R D
16991 9704 M 0 83 R D 17181 9704 M 0 83 R D 12630 13852 M 4740 0 R D
12630 13852 M 0 -166 R D 13578 13852 M 0 -166 R D 14526 13852 M 0 -166 R D
15474 13852 M 0 -166 R D 16422 13852 M 0 -166 R D 17370 13852 M 0 -166 R D
12820 13852 M 0 -83 R D 13009 13852 M 0 -83 R D 13199 13852 M 0 -83 R D
13389 13852 M 0 -83 R D 13768 13852 M 0 -83 R D 13957 13852 M 0 -83 R D
14147 13852 M 0 -83 R D 14337 13852 M 0 -83 R D 14716 13852 M 0 -83 R D
14905 13852 M 0 -83 R D 15095 13852 M 0 -83 R D 15285 13852 M 0 -83 R D
15664 13852 M 0 -83 R D 15853 13852 M 0 -83 R D 16043 13852 M 0 -83 R D
16233 13852 M 0 -83 R D 16612 13852 M 0 -83 R D 16801 13852 M 0 -83 R D
16991 13852 M 0 -83 R D 17181 13852 M 0 -83 R D 12630 9704 M 0 4148 R D
12630 10817 M 190 0 R D gsave 12496 10647 translate 0 0 M 1.21 dup scale
-235.373 0 N
(5) show grestore 12630 12016 M 190 0 R D gsave 12496 11846 translate 0 0 M
1.21 dup scale -470.747 0 N
(10) show grestore 12630 13215 M 190 0 R D gsave 12496 13045 translate 0 0 M
1.21 dup scale -470.747 0 N
(15) show grestore 12630 9858 M 95 0 R D 12630 10098 M 95 0 R D
12630 10338 M 95 0 R D 12630 10578 M 95 0 R D 12630 11057 M 95 0 R D
12630 11297 M 95 0 R D 12630 11537 M 95 0 R D 12630 11776 M 95 0 R D
12630 12256 M 95 0 R D 12630 12496 M 95 0 R D 12630 12736 M 95 0 R D
12630 12975 M 95 0 R D 12630 13455 M 95 0 R D 12630 13695 M 95 0 R D
17370 9704 M 0 4148 R D 17370 10817 M -189 0 R D 17370 12016 M -189 0 R D
17370 13215 M -189 0 R D 17370 9858 M -95 0 R D 17370 10098 M -95 0 R D
17370 10338 M -95 0 R D 17370 10578 M -95 0 R D 17370 11057 M -95 0 R D
17370 11297 M -95 0 R D 17370 11537 M -95 0 R D 17370 11776 M -95 0 R D
17370 12256 M -95 0 R D 17370 12496 M -95 0 R D 17370 12736 M -95 0 R D
17370 12975 M -95 0 R D 17370 13455 M -95 0 R D 17370 13695 M -95 0 R D L2
12630 13851 M 474 -1375 R 474 -675 R 569 -461 R 379 -205 R 948 -330 R
948 -198 R 948 -133 R D L1 12630 12953 M 474 -793 R 474 -425 R 569 -311 R
379 -144 R 948 -245 R 948 -155 R 948 -108 R D L3 12630 12561 M 474 -878 R
474 -872 R 569 -173 R 379 -79 R 948 -129 R 948 -72 R 948 -36 R D L0
0.761 0.000 0.000 setrgbcolor 12630 12024 M 474 -579 R 474 -295 R 569 -214 R
379 -47 R 948 -154 R 948 -50 R 948 -15 R D 0.000 0.549 0.000 setrgbcolor
12630 13369 M 474 -1185 R 474 -460 R 569 -424 R 379 -149 R 948 -263 R
948 -105 R 948 -58 R D 0.000 0.000 1.000 setrgbcolor 13453 13851 M
125 -313 R 569 -908 R 379 -409 R 948 -529 R 948 -294 R 948 -221 R D
0.000 0.000 0.000 setrgbcolor 1350 5556 M 4740 0 R D 1350 5556 M 0 166 R D
gsave 1350 4917 translate 0 0 M 1.21 dup scale -58.8433 0 N
( ) show grestore 2298 5556 M 0 166 R D gsave 2298 4917 translate 0 0 M
1.21 dup scale -294.217 0 N
(0.1) show grestore 3246 5556 M 0 166 R D gsave 3246 4917 translate 0 0 M
1.21 dup scale -58.8433 0 N
( ) show grestore 4194 5556 M 0 166 R D gsave 4194 4917 translate 0 0 M
1.21 dup scale -294.217 0 N
(0.2) show grestore 5142 5556 M 0 166 R D gsave 5142 4917 translate 0 0 M
1.21 dup scale -58.8433 0 N
( ) show grestore 6090 5556 M 0 166 R D gsave 6090 4917 translate 0 0 M
1.21 dup scale -294.217 0 N
(0.3) show grestore 1540 5556 M 0 83 R D 1729 5556 M 0 83 R D 1919 5556 M
0 83 R D 2108 5556 M 0 83 R D 2488 5556 M 0 83 R D 2677 5556 M 0 83 R D
2867 5556 M 0 83 R D 3056 5556 M 0 83 R D 3436 5556 M 0 83 R D 3625 5556 M
0 83 R D 3815 5556 M 0 83 R D 4004 5556 M 0 83 R D 4384 5556 M 0 83 R D
4573 5556 M 0 83 R D 4763 5556 M 0 83 R D 4952 5556 M 0 83 R D 5332 5556 M
0 83 R D 5521 5556 M 0 83 R D 5711 5556 M 0 83 R D 5900 5556 M 0 83 R D
1350 9704 M 4740 0 R D 1350 9704 M 0 -166 R D 2298 9704 M 0 -166 R D
3246 9704 M 0 -166 R D 4194 9704 M 0 -166 R D 5142 9704 M 0 -166 R D
6090 9704 M 0 -166 R D 1540 9704 M 0 -83 R D 1729 9704 M 0 -83 R D
1919 9704 M 0 -83 R D 2108 9704 M 0 -83 R D 2488 9704 M 0 -83 R D
2677 9704 M 0 -83 R D 2867 9704 M 0 -83 R D 3056 9704 M 0 -83 R D
3436 9704 M 0 -83 R D 3625 9704 M 0 -83 R D 3815 9704 M 0 -83 R D
4004 9704 M 0 -83 R D 4384 9704 M 0 -83 R D 4573 9704 M 0 -83 R D
4763 9704 M 0 -83 R D 4952 9704 M 0 -83 R D 5332 9704 M 0 -83 R D
5521 9704 M 0 -83 R D 5711 9704 M 0 -83 R D 5900 9704 M 0 -83 R D
1350 5556 M 0 4148 R D 1350 6496 M 190 0 R D gsave 1216 6325 translate 0 0 M
1.21 dup scale -235.373 0 N
(2) show grestore 1350 7521 M 190 0 R D gsave 1216 7351 translate 0 0 M
1.21 dup scale -235.373 0 N
(4) show grestore 1350 8547 M 190 0 R D gsave 1216 8376 translate 0 0 M
1.21 dup scale -235.373 0 N
(6) show grestore 1350 9572 M 190 0 R D gsave 1216 9402 translate 0 0 M
1.21 dup scale -235.373 0 N
(8) show grestore 1350 5727 M 95 0 R D 1350 5983 M 95 0 R D 1350 6239 M
95 0 R D 1350 6752 M 95 0 R D 1350 7009 M 95 0 R D 1350 7265 M 95 0 R D
1350 7778 M 95 0 R D 1350 8034 M 95 0 R D 1350 8290 M 95 0 R D 1350 8803 M
95 0 R D 1350 9059 M 95 0 R D 1350 9316 M 95 0 R D 6090 5556 M 0 4148 R D
6090 6496 M -190 0 R D 6090 7521 M -190 0 R D 6090 8547 M -190 0 R D
6090 9572 M -190 0 R D 6090 5727 M -95 0 R D 6090 5983 M -95 0 R D
6090 6239 M -95 0 R D 6090 6752 M -95 0 R D 6090 7009 M -95 0 R D
6090 7265 M -95 0 R D 6090 7778 M -95 0 R D 6090 8034 M -95 0 R D
6090 8290 M -95 0 R D 6090 8803 M -95 0 R D 6090 9059 M -95 0 R D
6090 9316 M -95 0 R D L2 1350 9703 M 474 -1375 R 474 -675 R 569 -461 R
379 -205 R 948 -330 R 948 -198 R 948 -133 R D L1 1821 9703 M 3 -7 R
474 -707 R 569 -517 R 379 -240 R 948 -407 R 948 -257 R 948 -179 R D L3
1350 8868 M 474 -854 R 474 -1399 R 569 -161 R 379 -71 R 948 -103 R 948 -28 R
948 35 R D L0 0.761 0.000 0.000 setrgbcolor 1350 9520 M 474 -1095 R
474 -540 R 569 -318 R 379 -183 R 948 -227 R 948 18 R 948 -161 R D
0.000 0.549 0.000 setrgbcolor 1350 6935 M 216 2768 R D 2890 9703 M
356 -557 R 948 -866 R 948 -470 R 948 -244 R D 0.000 0.000 1.000 setrgbcolor
1716 9703 M 108 -353 R 474 -534 R 360 887 R D 0.000 0.000 0.000 setrgbcolor
6990 5556 M 4740 0 R D 6990 5556 M 0 166 R D gsave 6990 4917 translate 0 0 M
1.21 dup scale -58.8433 0 N
( ) show grestore 7938 5556 M 0 166 R D gsave 7938 4917 translate 0 0 M
1.21 dup scale -294.217 0 N
(0.1) show grestore 8886 5556 M 0 166 R D gsave 8886 4917 translate 0 0 M
1.21 dup scale -58.8433 0 N
( ) show grestore 9834 5556 M 0 166 R D gsave 9834 4917 translate 0 0 M
1.21 dup scale -294.217 0 N
(0.2) show grestore 10782 5556 M 0 166 R D gsave 10782 4917 translate 0 0 M
1.21 dup scale -58.8433 0 N
( ) show grestore 11730 5556 M 0 166 R D gsave 11730 4917 translate 0 0 M
1.21 dup scale -294.217 0 N
(0.3) show grestore 7180 5556 M 0 83 R D 7369 5556 M 0 83 R D 7559 5556 M
0 83 R D 7748 5556 M 0 83 R D 8128 5556 M 0 83 R D 8317 5556 M 0 83 R D
8507 5556 M 0 83 R D 8696 5556 M 0 83 R D 9076 5556 M 0 83 R D 9265 5556 M
0 83 R D 9455 5556 M 0 83 R D 9644 5556 M 0 83 R D 10024 5556 M 0 83 R D
10213 5556 M 0 83 R D 10403 5556 M 0 83 R D 10593 5556 M 0 83 R D
10972 5556 M 0 83 R D 11161 5556 M 0 83 R D 11351 5556 M 0 83 R D
11541 5556 M 0 83 R D 6990 9704 M 4740 0 R D 6990 9704 M 0 -166 R D
7938 9704 M 0 -166 R D 8886 9704 M 0 -166 R D 9834 9704 M 0 -166 R D
10782 9704 M 0 -166 R D 11730 9704 M 0 -166 R D 7180 9704 M 0 -83 R D
7369 9704 M 0 -83 R D 7559 9704 M 0 -83 R D 7748 9704 M 0 -83 R D
8128 9704 M 0 -83 R D 8317 9704 M 0 -83 R D 8507 9704 M 0 -83 R D
8696 9704 M 0 -83 R D 9076 9704 M 0 -83 R D 9265 9704 M 0 -83 R D
9455 9704 M 0 -83 R D 9644 9704 M 0 -83 R D 10024 9704 M 0 -83 R D
10213 9704 M 0 -83 R D 10403 9704 M 0 -83 R D 10593 9704 M 0 -83 R D
10972 9704 M 0 -83 R D 11161 9704 M 0 -83 R D 11351 9704 M 0 -83 R D
11541 9704 M 0 -83 R D 6990 5556 M 0 4148 R D 6990 6172 M 190 0 R D
gsave 6856 6001 translate 0 0 M 1.21 dup scale -235.373 0 N
(2) show grestore 6990 6873 M 190 0 R D gsave 6856 6703 translate 0 0 M
1.21 dup scale -235.373 0 N
(4) show grestore 6990 7574 M 190 0 R D gsave 6856 7404 translate 0 0 M
1.21 dup scale -235.373 0 N
(6) show grestore 6990 8275 M 190 0 R D gsave 6856 8105 translate 0 0 M
1.21 dup scale -235.373 0 N
(8) show grestore 6990 8977 M 190 0 R D gsave 6856 8806 translate 0 0 M
1.21 dup scale -470.747 0 N
(10) show grestore 6990 9678 M 190 0 R D gsave 6856 9406 translate 0 0 M
1.21 dup scale -470.747 0 N
(12) show grestore 6990 5646 M 95 0 R D 6990 5821 M 95 0 R D 6990 5996 M
95 0 R D 6990 6347 M 95 0 R D 6990 6522 M 95 0 R D 6990 6698 M 95 0 R D
6990 7048 M 95 0 R D 6990 7224 M 95 0 R D 6990 7399 M 95 0 R D 6990 7749 M
95 0 R D 6990 7925 M 95 0 R D 6990 8100 M 95 0 R D 6990 8451 M 95 0 R D
6990 8626 M 95 0 R D 6990 8801 M 95 0 R D 6990 9152 M 95 0 R D 6990 9327 M
95 0 R D 6990 9503 M 95 0 R D 11730 5556 M 0 4148 R D 11730 6172 M -189 0 R
D 11730 6873 M -189 0 R D 11730 7574 M -189 0 R D 11730 8275 M -189 0 R D
11730 8977 M -189 0 R D 11730 9678 M -189 0 R D 11730 5646 M -95 0 R D
11730 5821 M -95 0 R D 11730 5996 M -95 0 R D 11730 6347 M -95 0 R D
11730 6522 M -95 0 R D 11730 6698 M -95 0 R D 11730 7048 M -95 0 R D
11730 7224 M -95 0 R D 11730 7399 M -95 0 R D 11730 7749 M -95 0 R D
11730 7925 M -95 0 R D 11730 8100 M -95 0 R D 11730 8451 M -95 0 R D
11730 8626 M -95 0 R D 11730 8801 M -95 0 R D 11730 9152 M -95 0 R D
11730 9327 M -95 0 R D 11730 9503 M -95 0 R D L2 6990 9703 M 474 -1375 R
474 -675 R 569 -461 R 379 -205 R 948 -330 R 948 -198 R 948 -133 R D L1
7056 9703 M 408 -895 R 474 -558 R 569 -409 R 379 -189 R 948 -322 R
948 -203 R 948 -142 R D L3 6990 8784 M 474 -935 R 474 -1110 R 569 -182 R
379 -82 R 948 -128 R 948 -59 R 948 -10 R D L0 0.761 0.000 0.000 setrgbcolor
6990 8727 M 474 -909 R 474 -393 R 569 -302 R 379 -117 R 948 -142 R
948 -114 R 948 -32 R D 0.000 0.549 0.000 setrgbcolor 7600 9703 M 338 -721 R
569 -799 R 379 -322 R 948 -507 R 948 -249 R 948 -183 R D
0.000 0.000 0.000 setrgbcolor 12630 5556 M 4740 0 R D 12630 5556 M 0 166 R D
gsave 12630 4917 translate 0 0 M 1.21 dup scale -58.8433 0 N
( ) show grestore 13578 5556 M 0 166 R D gsave 13578 4917 translate 0 0 M
1.21 dup scale -294.217 0 N
(0.1) show grestore 14526 5556 M 0 166 R D gsave 14526 4917 translate 0 0 M
1.21 dup scale -58.8433 0 N
( ) show grestore 15474 5556 M 0 166 R D gsave 15474 4917 translate 0 0 M
1.21 dup scale -294.217 0 N
(0.2) show grestore 16422 5556 M 0 166 R D gsave 16422 4917 translate 0 0 M
1.21 dup scale -58.8433 0 N
( ) show grestore 17370 5556 M 0 166 R D gsave 17370 4917 translate 0 0 M
1.21 dup scale -294.217 0 N
(0.3) show grestore 12820 5556 M 0 83 R D 13009 5556 M 0 83 R D 13199 5556 M
0 83 R D 13389 5556 M 0 83 R D 13768 5556 M 0 83 R D 13957 5556 M 0 83 R D
14147 5556 M 0 83 R D 14337 5556 M 0 83 R D 14716 5556 M 0 83 R D
14905 5556 M 0 83 R D 15095 5556 M 0 83 R D 15285 5556 M 0 83 R D
15664 5556 M 0 83 R D 15853 5556 M 0 83 R D 16043 5556 M 0 83 R D
16233 5556 M 0 83 R D 16612 5556 M 0 83 R D 16801 5556 M 0 83 R D
16991 5556 M 0 83 R D 17181 5556 M 0 83 R D 12630 9704 M 4740 0 R D
12630 9704 M 0 -166 R D 13578 9704 M 0 -166 R D 14526 9704 M 0 -166 R D
15474 9704 M 0 -166 R D 16422 9704 M 0 -166 R D 17370 9704 M 0 -166 R D
12820 9704 M 0 -83 R D 13009 9704 M 0 -83 R D 13199 9704 M 0 -83 R D
13389 9704 M 0 -83 R D 13768 9704 M 0 -83 R D 13957 9704 M 0 -83 R D
14147 9704 M 0 -83 R D 14337 9704 M 0 -83 R D 14716 9704 M 0 -83 R D
14905 9704 M 0 -83 R D 15095 9704 M 0 -83 R D 15285 9704 M 0 -83 R D
15664 9704 M 0 -83 R D 15853 9704 M 0 -83 R D 16043 9704 M 0 -83 R D
16233 9704 M 0 -83 R D 16612 9704 M 0 -83 R D 16801 9704 M 0 -83 R D
16991 9704 M 0 -83 R D 17181 9704 M 0 -83 R D 12630 5556 M 0 4148 R D
12630 6669 M 190 0 R D gsave 12496 6499 translate 0 0 M 1.21 dup scale
-235.373 0 N
(5) show grestore 12630 7868 M 190 0 R D gsave 12496 7698 translate 0 0 M
1.21 dup scale -470.747 0 N
(10) show grestore 12630 9067 M 190 0 R D gsave 12496 8897 translate 0 0 M
1.21 dup scale -470.747 0 N
(15) show grestore 12630 5710 M 95 0 R D 12630 5950 M 95 0 R D 12630 6190 M
95 0 R D 12630 6430 M 95 0 R D 12630 6909 M 95 0 R D 12630 7149 M 95 0 R D
12630 7389 M 95 0 R D 12630 7628 M 95 0 R D 12630 8108 M 95 0 R D
12630 8348 M 95 0 R D 12630 8588 M 95 0 R D 12630 8827 M 95 0 R D
12630 9307 M 95 0 R D 12630 9547 M 95 0 R D 17370 5556 M 0 4148 R D
17370 6669 M -189 0 R D 17370 7868 M -189 0 R D 17370 9067 M -189 0 R D
17370 5710 M -95 0 R D 17370 5950 M -95 0 R D 17370 6190 M -95 0 R D
17370 6430 M -95 0 R D 17370 6909 M -95 0 R D 17370 7149 M -95 0 R D
17370 7389 M -95 0 R D 17370 7628 M -95 0 R D 17370 8108 M -95 0 R D
17370 8348 M -95 0 R D 17370 8588 M -95 0 R D 17370 8827 M -95 0 R D
17370 9307 M -95 0 R D 17370 9547 M -95 0 R D L2 12630 9703 M 474 -1375 R
474 -675 R 569 -461 R 379 -205 R 948 -330 R 948 -198 R 948 -133 R D L1
12630 8805 M 474 -793 R 474 -425 R 569 -311 R 379 -144 R 948 -245 R
948 -155 R 948 -108 R D L3 12630 8413 M 474 -878 R 474 -872 R 569 -173 R
379 -79 R 948 -129 R 948 -72 R 948 -36 R D L0 0.761 0.000 0.000 setrgbcolor
12630 7990 M 474 -638 R 474 -311 R 569 -222 R 379 -59 R 948 -157 R 948 -54 R
948 -24 R D 0.000 0.549 0.000 setrgbcolor 12630 6375 M 474 1936 R 474 -605 R
569 -400 R 379 -197 R 948 -242 R 948 -198 R 948 -64 R D
0.000 0.000 1.000 setrgbcolor 13994 9703 M 153 -385 R 379 -425 R 948 -687 R
948 -419 R 948 -256 R D 0.000 0.000 0.000 setrgbcolor 1350 1408 M 4740 0 R D
1350 1408 M 0 166 R D gsave 1350 769 translate 0 0 M 1.21 dup scale
-58.8433 0 N
( ) show grestore 2298 1408 M 0 166 R D gsave 2298 769 translate 0 0 M
1.21 dup scale -294.217 0 N
(0.1) show grestore 3246 1408 M 0 166 R D gsave 3246 769 translate 0 0 M
1.21 dup scale -58.8433 0 N
( ) show grestore 4194 1408 M 0 166 R D gsave 4194 769 translate 0 0 M
1.21 dup scale -294.217 0 N
(0.2) show grestore 5142 1408 M 0 166 R D gsave 5142 769 translate 0 0 M
1.21 dup scale -58.8433 0 N
( ) show grestore 6090 1408 M 0 166 R D gsave 6090 769 translate 0 0 M
1.21 dup scale -294.217 0 N
(0.3) show grestore 1540 1408 M 0 83 R D 1729 1408 M 0 83 R D 1919 1408 M
0 83 R D 2108 1408 M 0 83 R D 2488 1408 M 0 83 R D 2677 1408 M 0 83 R D
2867 1408 M 0 83 R D 3056 1408 M 0 83 R D 3436 1408 M 0 83 R D 3625 1408 M
0 83 R D 3815 1408 M 0 83 R D 4004 1408 M 0 83 R D 4384 1408 M 0 83 R D
4573 1408 M 0 83 R D 4763 1408 M 0 83 R D 4952 1408 M 0 83 R D 5332 1408 M
0 83 R D 5521 1408 M 0 83 R D 5711 1408 M 0 83 R D 5900 1408 M 0 83 R D
1350 5556 M 4740 0 R D 1350 5556 M 0 -166 R D 2298 5556 M 0 -166 R D
3246 5556 M 0 -166 R D 4194 5556 M 0 -166 R D 5142 5556 M 0 -166 R D
6090 5556 M 0 -166 R D 1540 5556 M 0 -83 R D 1729 5556 M 0 -83 R D
1919 5556 M 0 -83 R D 2108 5556 M 0 -83 R D 2488 5556 M 0 -83 R D
2677 5556 M 0 -83 R D 2867 5556 M 0 -83 R D 3056 5556 M 0 -83 R D
3436 5556 M 0 -83 R D 3625 5556 M 0 -83 R D 3815 5556 M 0 -83 R D
4004 5556 M 0 -83 R D 4384 5556 M 0 -83 R D 4573 5556 M 0 -83 R D
4763 5556 M 0 -83 R D 4952 5556 M 0 -83 R D 5332 5556 M 0 -83 R D
5521 5556 M 0 -83 R D 5711 5556 M 0 -83 R D 5900 5556 M 0 -83 R D
1350 1408 M 0 4148 R D 1350 2348 M 190 0 R D gsave 1216 2177 translate 0 0 M
1.21 dup scale -235.373 0 N
(2) show grestore 1350 3373 M 190 0 R D gsave 1216 3203 translate 0 0 M
1.21 dup scale -235.373 0 N
(4) show grestore 1350 4399 M 190 0 R D gsave 1216 4228 translate 0 0 M
1.21 dup scale -235.373 0 N
(6) show grestore 1350 5424 M 190 0 R D gsave 1216 5254 translate 0 0 M
1.21 dup scale -235.373 0 N
(8) show grestore 1350 1579 M 95 0 R D 1350 1835 M 95 0 R D 1350 2091 M
95 0 R D 1350 2604 M 95 0 R D 1350 2861 M 95 0 R D 1350 3117 M 95 0 R D
1350 3630 M 95 0 R D 1350 3886 M 95 0 R D 1350 4142 M 95 0 R D 1350 4655 M
95 0 R D 1350 4911 M 95 0 R D 1350 5168 M 95 0 R D 6090 1408 M 0 4148 R D
6090 2348 M -190 0 R D 6090 3373 M -190 0 R D 6090 4399 M -190 0 R D
6090 5424 M -190 0 R D 6090 1579 M -95 0 R D 6090 1835 M -95 0 R D
6090 2091 M -95 0 R D 6090 2604 M -95 0 R D 6090 2861 M -95 0 R D
6090 3117 M -95 0 R D 6090 3630 M -95 0 R D 6090 3886 M -95 0 R D
6090 4142 M -95 0 R D 6090 4655 M -95 0 R D 6090 4911 M -95 0 R D
6090 5168 M -95 0 R D L2 1350 5556 M 474 -1376 R 474 -675 R 569 -461 R
379 -205 R 948 -330 R 948 -198 R 948 -133 R D L1 1821 5556 M 3 -8 R
474 -707 R 569 -517 R 379 -240 R 948 -407 R 948 -257 R 948 -179 R D L3
1350 4720 M 474 -854 R 474 -1399 R 569 -161 R 379 -71 R 948 -103 R 948 -28 R
948 35 R D L0 6990 1408 M 4740 0 R D 6990 1408 M 0 166 R D
gsave 6990 769 translate 0 0 M 1.21 dup scale -58.8433 0 N
( ) show grestore 7938 1408 M 0 166 R D gsave 7938 769 translate 0 0 M
1.21 dup scale -294.217 0 N
(0.1) show grestore 8886 1408 M 0 166 R D gsave 8886 769 translate 0 0 M
1.21 dup scale -58.8433 0 N
( ) show grestore 9834 1408 M 0 166 R D gsave 9834 769 translate 0 0 M
1.21 dup scale -294.217 0 N
(0.2) show grestore 10782 1408 M 0 166 R D gsave 10782 769 translate 0 0 M
1.21 dup scale -58.8433 0 N
( ) show grestore 11730 1408 M 0 166 R D gsave 11730 769 translate 0 0 M
1.21 dup scale -294.217 0 N
(0.3) show grestore 7180 1408 M 0 83 R D 7369 1408 M 0 83 R D 7559 1408 M
0 83 R D 7748 1408 M 0 83 R D 8128 1408 M 0 83 R D 8317 1408 M 0 83 R D
8507 1408 M 0 83 R D 8696 1408 M 0 83 R D 9076 1408 M 0 83 R D 9265 1408 M
0 83 R D 9455 1408 M 0 83 R D 9644 1408 M 0 83 R D 10024 1408 M 0 83 R D
10213 1408 M 0 83 R D 10403 1408 M 0 83 R D 10593 1408 M 0 83 R D
10972 1408 M 0 83 R D 11161 1408 M 0 83 R D 11351 1408 M 0 83 R D
11541 1408 M 0 83 R D 6990 5556 M 4740 0 R D 6990 5556 M 0 -166 R D
7938 5556 M 0 -166 R D 8886 5556 M 0 -166 R D 9834 5556 M 0 -166 R D
10782 5556 M 0 -166 R D 11730 5556 M 0 -166 R D 7180 5556 M 0 -83 R D
7369 5556 M 0 -83 R D 7559 5556 M 0 -83 R D 7748 5556 M 0 -83 R D
8128 5556 M 0 -83 R D 8317 5556 M 0 -83 R D 8507 5556 M 0 -83 R D
8696 5556 M 0 -83 R D 9076 5556 M 0 -83 R D 9265 5556 M 0 -83 R D
9455 5556 M 0 -83 R D 9644 5556 M 0 -83 R D 10024 5556 M 0 -83 R D
10213 5556 M 0 -83 R D 10403 5556 M 0 -83 R D 10593 5556 M 0 -83 R D
10972 5556 M 0 -83 R D 11161 5556 M 0 -83 R D 11351 5556 M 0 -83 R D
11541 5556 M 0 -83 R D 6990 1408 M 0 4148 R D 6990 2024 M 190 0 R D
gsave 6856 1853 translate 0 0 M 1.21 dup scale -235.373 0 N
(2) show grestore 6990 2725 M 190 0 R D gsave 6856 2555 translate 0 0 M
1.21 dup scale -235.373 0 N
(4) show grestore 6990 3426 M 190 0 R D gsave 6856 3256 translate 0 0 M
1.21 dup scale -235.373 0 N
(6) show grestore 6990 4127 M 190 0 R D gsave 6856 3957 translate 0 0 M
1.21 dup scale -235.373 0 N
(8) show grestore 6990 4829 M 190 0 R D gsave 6856 4658 translate 0 0 M
1.21 dup scale -470.747 0 N
(10) show grestore 6990 5530 M 190 0 R D gsave 6856 5258 translate 0 0 M
1.21 dup scale -470.747 0 N
(12) show grestore 6990 1498 M 95 0 R D 6990 1673 M 95 0 R D 6990 1848 M
95 0 R D 6990 2199 M 95 0 R D 6990 2374 M 95 0 R D 6990 2550 M 95 0 R D
6990 2900 M 95 0 R D 6990 3076 M 95 0 R D 6990 3251 M 95 0 R D 6990 3601 M
95 0 R D 6990 3777 M 95 0 R D 6990 3952 M 95 0 R D 6990 4303 M 95 0 R D
6990 4478 M 95 0 R D 6990 4653 M 95 0 R D 6990 5004 M 95 0 R D 6990 5179 M
95 0 R D 6990 5355 M 95 0 R D 11730 1408 M 0 4148 R D 11730 2024 M -189 0 R
D 11730 2725 M -189 0 R D 11730 3426 M -189 0 R D 11730 4127 M -189 0 R D
11730 4829 M -189 0 R D 11730 5530 M -189 0 R D 11730 1498 M -95 0 R D
11730 1673 M -95 0 R D 11730 1848 M -95 0 R D 11730 2199 M -95 0 R D
11730 2374 M -95 0 R D 11730 2550 M -95 0 R D 11730 2900 M -95 0 R D
11730 3076 M -95 0 R D 11730 3251 M -95 0 R D 11730 3601 M -95 0 R D
11730 3777 M -95 0 R D 11730 3952 M -95 0 R D 11730 4303 M -95 0 R D
11730 4478 M -95 0 R D 11730 4653 M -95 0 R D 11730 5004 M -95 0 R D
11730 5179 M -95 0 R D 11730 5355 M -95 0 R D L2 6990 5556 M 474 -1376 R
474 -675 R 569 -461 R 379 -205 R 948 -330 R 948 -198 R 948 -133 R D L1
7056 5556 M 408 -896 R 474 -558 R 569 -409 R 379 -189 R 948 -322 R
948 -203 R 948 -142 R D L3 6990 4636 M 474 -935 R 474 -1110 R 569 -182 R
379 -82 R 948 -128 R 948 -59 R 948 -10 R D L0 12630 1408 M 4740 0 R D
12630 1408 M 0 166 R D gsave 12630 769 translate 0 0 M 1.21 dup scale
-58.8433 0 N
( ) show grestore 13578 1408 M 0 166 R D gsave 13578 769 translate 0 0 M
1.21 dup scale -294.217 0 N
(0.1) show grestore 14526 1408 M 0 166 R D gsave 14526 769 translate 0 0 M
1.21 dup scale -58.8433 0 N
( ) show grestore 15474 1408 M 0 166 R D gsave 15474 769 translate 0 0 M
1.21 dup scale -294.217 0 N
(0.2) show grestore 16422 1408 M 0 166 R D gsave 16422 769 translate 0 0 M
1.21 dup scale -58.8433 0 N
( ) show grestore 17370 1408 M 0 166 R D gsave 17370 769 translate 0 0 M
1.21 dup scale -294.217 0 N
(0.3) show grestore 12820 1408 M 0 83 R D 13009 1408 M 0 83 R D 13199 1408 M
0 83 R D 13389 1408 M 0 83 R D 13768 1408 M 0 83 R D 13957 1408 M 0 83 R D
14147 1408 M 0 83 R D 14337 1408 M 0 83 R D 14716 1408 M 0 83 R D
14905 1408 M 0 83 R D 15095 1408 M 0 83 R D 15285 1408 M 0 83 R D
15664 1408 M 0 83 R D 15853 1408 M 0 83 R D 16043 1408 M 0 83 R D
16233 1408 M 0 83 R D 16612 1408 M 0 83 R D 16801 1408 M 0 83 R D
16991 1408 M 0 83 R D 17181 1408 M 0 83 R D 12630 5556 M 4740 0 R D
12630 5556 M 0 -166 R D 13578 5556 M 0 -166 R D 14526 5556 M 0 -166 R D
15474 5556 M 0 -166 R D 16422 5556 M 0 -166 R D 17370 5556 M 0 -166 R D
12820 5556 M 0 -83 R D 13009 5556 M 0 -83 R D 13199 5556 M 0 -83 R D
13389 5556 M 0 -83 R D 13768 5556 M 0 -83 R D 13957 5556 M 0 -83 R D
14147 5556 M 0 -83 R D 14337 5556 M 0 -83 R D 14716 5556 M 0 -83 R D
14905 5556 M 0 -83 R D 15095 5556 M 0 -83 R D 15285 5556 M 0 -83 R D
15664 5556 M 0 -83 R D 15853 5556 M 0 -83 R D 16043 5556 M 0 -83 R D
16233 5556 M 0 -83 R D 16612 5556 M 0 -83 R D 16801 5556 M 0 -83 R D
16991 5556 M 0 -83 R D 17181 5556 M 0 -83 R D 12630 1408 M 0 4148 R D
12630 2521 M 190 0 R D gsave 12496 2351 translate 0 0 M 1.21 dup scale
-235.373 0 N
(5) show grestore 12630 3720 M 190 0 R D gsave 12496 3550 translate 0 0 M
1.21 dup scale -470.747 0 N
(10) show grestore 12630 4919 M 190 0 R D gsave 12496 4749 translate 0 0 M
1.21 dup scale -470.747 0 N
(15) show grestore 12630 1562 M 95 0 R D 12630 1802 M 95 0 R D 12630 2042 M
95 0 R D 12630 2282 M 95 0 R D 12630 2761 M 95 0 R D 12630 3001 M 95 0 R D
12630 3241 M 95 0 R D 12630 3480 M 95 0 R D 12630 3960 M 95 0 R D
12630 4200 M 95 0 R D 12630 4440 M 95 0 R D 12630 4679 M 95 0 R D
12630 5159 M 95 0 R D 12630 5399 M 95 0 R D 17370 1408 M 0 4148 R D
17370 2521 M -189 0 R D 17370 3720 M -189 0 R D 17370 4919 M -189 0 R D
17370 1562 M -95 0 R D 17370 1802 M -95 0 R D 17370 2042 M -95 0 R D
17370 2282 M -95 0 R D 17370 2761 M -95 0 R D 17370 3001 M -95 0 R D
17370 3241 M -95 0 R D 17370 3480 M -95 0 R D 17370 3960 M -95 0 R D
17370 4200 M -95 0 R D 17370 4440 M -95 0 R D 17370 4679 M -95 0 R D
17370 5159 M -95 0 R D 17370 5399 M -95 0 R D L2 12630 5556 M 474 -1376 R
474 -675 R 569 -461 R 379 -205 R 948 -330 R 948 -198 R 948 -133 R D L1
12630 4657 M 474 -793 R 474 -425 R 569 -311 R 379 -144 R 948 -245 R
948 -155 R 948 -108 R D L3 12630 4265 M 474 -878 R 474 -872 R 569 -173 R
379 -79 R 948 -129 R 948 -72 R 948 -36 R D
%%PageTrailer
end
%%PageResources: font Helvetica
%%Trailer
%%Pages: 1
%%DocumentNeededResources: font Helvetica
%%EOF
