%!PS-Adobe-3.0 EPSF-3.0
%%BoundingBox: 0 0 510 651
%%Title: Graphics produced by IDL
%%For: jlgan@aida119, /home/jlgan/work/subhalo_model
%%Creator: IDL Version 7.0 (linux x86_64 m64)
%%CreationDate: Fri May  1 21:34:01 2009
%%DocumentData: Clean7bit
%%Requirements: color
%%LanguageLevel: 1
%%PageOrder: Ascend
%%Pages: (atend)
%%DocumentNeededResources: (atend)
%%EndComments
%%BeginProlog
%+ prolog.ps -- Prolog for IDL generated PostScript files
%+ Copyright (c) 1988-2007 ITT Visual Information Solutions. All Rights Reserved.
%v 5
/$IDL_DICT 40 dict def $IDL_DICT begin /bdef { bind def } bind def /C
{currentpoint newpath moveto} bdef /CP {currentpoint} bdef /D {currentpoint
stroke moveto} bdef /F {closepath fill} bdef /K { setgray } bdef /M {moveto}
bdef /N {rmoveto} bdef /P {lineto} bdef /R {rlineto} bdef /S {gsave show
grestore} bdef /X {currentpoint pop} bdef /Z {gsave currentpoint lineto 20
setlinewidth 1 setlinecap stroke grestore} bdef /L0 {[] 0 setdash} bdef /L1
{[40 100] 0 setdash} bdef /L2 {[200 200] 0 setdash} bdef /L3 {[200 100 50
100] 0 setdash} bdef /L4 {[300 100 50 100 50 100 50 100] 0 setdash} bdef /L5
{[400 200] 0 setdash} bdef /STDFONT { findfont exch scalefont setfont } bdef
/ISOFONT { findfont dup length dict begin { 1 index /FID ne {def} {pop pop}
ifelse } forall /Encoding ISOLatin1Encoding def currentdict end /idltmpfont
exch definefont exch scalefont setfont } bdef /ISOBULLET { gsave /Helvetica
findfont exch scalefont setfont (\267) show currentpoint grestore moveto}
bdef /MITERLIMIT { 2.5 setmiterlimit } bdef end
%%EndProlog
%%Page: 0 1
%%PageRequirements: color
%%PageResources: (atend)
%%PageOrientation: Portrait
%%PageBoundingBox: 0 0 510 651
%%BeginPageSetup
$IDL_DICT begin 0.0283465 dup scale MITERLIMIT
%%IncludeResource: font Helvetica
423.333 /Helvetica STDFONT
%%EndPageSetup
30 setlinewidth L0 0.000 0.000 0.000 setrgbcolor 8516 565 M 0 -213 R D
8516 504 M 46 46 R 30 15 R 46 0 R 30 -15 R 15 -46 R 0 -152 R D 8683 504 M
46 46 R 30 15 R 46 0 R 30 -15 R 16 -46 R 0 -152 R D 9078 732 M -30 -31 R
-30 -45 R -31 -61 R -15 -76 R 0 -61 R 15 -76 R 31 -75 R 30 -46 R 30 -30 R D
9261 671 M -46 -15 R -30 -46 R -15 -76 R 0 -45 R 15 -76 R 30 -46 R 46 -15 R
30 0 R 46 15 R 30 46 R 15 76 R 0 45 R -15 76 R -30 46 R -46 15 R -30 0 R D
9473 732 M 31 -31 R 30 -45 R 30 -61 R 16 -76 R 0 -61 R -16 -76 R -30 -75 R
-30 -46 R -31 -30 R D 9944 732 M -273 -501 R D 10035 671 M 0 -319 R D
10035 671 M 122 -319 R 121 319 R 0 -319 R D 10506 732 M -30 -31 R -31 -45 R
-30 -61 R -15 -76 R 0 -61 R 15 -76 R 30 -75 R 31 -46 R 30 -30 R D
10688 671 M -45 -15 R -30 -46 R -16 -76 R 0 -45 R 16 -76 R 30 -46 R 45 -15 R
31 0 R 45 15 R 31 46 R 15 76 R 0 45 R -15 76 R -31 46 R -45 15 R -31 0 R D
10901 732 M 30 -31 R 31 -45 R 30 -61 R 15 -76 R 0 -61 R -15 -76 R -30 -75 R
-31 -46 R -30 -30 R D 1035 9870 M 213 0 R D 1096 9870 M -45 45 R -16 31 R
0 45 R 16 31 R 45 15 R 152 0 R D 1096 10037 M -45 46 R -16 30 R 0 45 R
16 31 R 45 15 R 152 0 R D 1127 10310 M 0 183 R -31 0 R -30 -16 R -15 -15 R
-16 -30 R 0 -46 R 16 -30 R 30 -30 R 46 -16 R 30 0 R 46 16 R 30 30 R 15 30 R
0 46 R -15 30 R -30 31 R D 1035 10599 M 213 0 R D 1127 10599 M -46 15 R
-30 31 R -16 30 R 0 45 R D 1035 10964 M 259 0 R 45 -16 R 15 -15 R 16 -30 R
0 -46 R -16 -30 R D 1081 10964 M -30 -31 R -16 -30 R 0 -46 R 16 -30 R
30 -31 R 46 -15 R 30 0 R 46 15 R 30 31 R 15 30 R 0 46 R -15 30 R -30 31 R D
1127 11070 M 0 182 R -31 0 R -30 -15 R -15 -15 R -16 -31 R 0 -45 R 16 -31 R
30 -30 R 46 -15 R 30 0 R 46 15 R 30 30 R 15 31 R 0 45 R -15 31 R -30 30 R D
1035 11358 M 213 0 R D 1127 11358 M -46 16 R -30 30 R -16 30 R 0 46 R D
929 11814 M 258 0 R 46 15 R 15 31 R 0 30 R D 1035 11769 M 0 106 R D
929 11966 M 15 15 R -15 15 R -15 -15 R 15 -15 R D 1035 11981 M 213 0 R D
1035 12103 M 213 0 R D 1096 12103 M -45 45 R -16 31 R 0 45 R 16 31 R 45 15 R
152 0 R D 1096 12270 M -45 45 R -16 31 R 0 45 R 16 31 R 45 15 R 152 0 R D
1127 12543 M 0 183 R -31 0 R -30 -16 R -15 -15 R -16 -30 R 0 -46 R 16 -30 R
30 -31 R 46 -15 R 30 0 R 46 15 R 30 31 R 15 30 R 0 46 R -15 30 R -30 31 R D
868 13075 M 502 -274 R D 1005 13379 M -30 -16 R -31 -30 R -15 -30 R 0 -61 R
15 -30 R 31 -31 R 30 -15 R 46 -15 R 76 0 R 45 15 R 31 15 R 30 31 R 15 30 R
0 61 R -15 30 R -30 30 R -31 16 R -45 0 R 0 -76 R D 1035 13455 M 213 91 R
-213 91 R D 1248 13546 M 76 -31 R 30 -30 R 16 -30 R 0 -16 R D 1035 13728 M
213 0 R D 1127 13728 M -46 15 R -30 31 R -16 30 R 0 46 R D 20 setlinewidth
2580 18119 M 4318 0 R D 2580 18119 M 0 167 R D 3444 18119 M 0 167 R D
4307 18119 M 0 167 R D 5171 18119 M 0 167 R D 6034 18119 M 0 167 R D
6898 18119 M 0 167 R D 2753 18119 M 0 83 R D 2926 18119 M 0 83 R D
3098 18119 M 0 83 R D 3271 18119 M 0 83 R D 3616 18119 M 0 83 R D
3789 18119 M 0 83 R D 3962 18119 M 0 83 R D 4135 18119 M 0 83 R D
4480 18119 M 0 83 R D 4653 18119 M 0 83 R D 4825 18119 M 0 83 R D
4998 18119 M 0 83 R D 5344 18119 M 0 83 R D 5516 18119 M 0 83 R D
5689 18119 M 0 83 R D 5862 18119 M 0 83 R D 6207 18119 M 0 83 R D
6380 18119 M 0 83 R D 6553 18119 M 0 83 R D 6725 18119 M 0 83 R D
2580 22296 M 4318 0 R D 2580 22296 M 0 -167 R D 3444 22296 M 0 -167 R D
4307 22296 M 0 -167 R D 5171 22296 M 0 -167 R D 6034 22296 M 0 -167 R D
6898 22296 M 0 -167 R D 2753 22296 M 0 -83 R D 2926 22296 M 0 -83 R D
3098 22296 M 0 -83 R D 3271 22296 M 0 -83 R D 3616 22296 M 0 -83 R D
3789 22296 M 0 -83 R D 3962 22296 M 0 -83 R D 4135 22296 M 0 -83 R D
4480 22296 M 0 -83 R D 4653 22296 M 0 -83 R D 4825 22296 M 0 -83 R D
4998 22296 M 0 -83 R D 5344 22296 M 0 -83 R D 5516 22296 M 0 -83 R D
5689 22296 M 0 -83 R D 5862 22296 M 0 -83 R D 6207 22296 M 0 -83 R D
6380 22296 M 0 -83 R D 6553 22296 M 0 -83 R D 6725 22296 M 0 -83 R D
2580 18119 M 0 4177 R D 2580 19065 M 173 0 R D 30 setlinewidth 2270 19111 M
0 12 R 12 23 R 12 12 R 23 12 R 47 0 R 23 -12 R 12 -12 R 12 -23 R 0 -23 R
-12 -24 R -23 -35 R -117 -117 R 163 0 R D 20 setlinewidth 2580 20098 M
173 0 R D 30 setlinewidth 2376 20202 M -117 -163 R 175 0 R D 2376 20202 M
0 -245 R D 20 setlinewidth 2580 21131 M 173 0 R D 30 setlinewidth
2411 21200 M -12 23 R -35 12 R -23 0 R -35 -12 R -24 -35 R -12 -58 R 0 -58 R
12 -47 R 24 -24 R 35 -11 R 11 0 R 35 11 R 24 24 R 11 35 R 0 12 R -11 35 R
-24 23 R -35 12 R -11 0 R -35 -12 R -24 -23 R -12 -35 R D 20 setlinewidth
2580 22163 M 173 0 R D 30 setlinewidth 2317 22268 M -35 -12 R -12 -23 R
0 -24 R 12 -23 R 24 -12 R 46 -11 R 35 -12 R 24 -23 R 11 -24 R 0 -35 R
-11 -23 R -12 -12 R -35 -12 R -47 0 R -35 12 R -12 12 R -11 23 R 0 35 R
11 24 R 24 23 R 35 12 R 47 11 R 23 12 R 12 23 R 0 24 R -12 23 R -35 12 R
-47 0 R D 20 setlinewidth 2580 18291 M 86 0 R D 2580 18549 M 86 0 R D
2580 18807 M 86 0 R D 2580 19323 M 86 0 R D 2580 19581 M 86 0 R D
2580 19840 M 86 0 R D 2580 20356 M 86 0 R D 2580 20614 M 86 0 R D
2580 20872 M 86 0 R D 2580 21389 M 86 0 R D 2580 21647 M 86 0 R D
2580 21905 M 86 0 R D 6898 18119 M 0 4177 R D 6898 19065 M -173 0 R D
6898 20098 M -173 0 R D 6898 21131 M -173 0 R D 6898 22163 M -173 0 R D
6898 18291 M -86 0 R D 6898 18549 M -86 0 R D 6898 18807 M -86 0 R D
6898 19323 M -86 0 R D 6898 19581 M -86 0 R D 6898 19840 M -86 0 R D
6898 20356 M -86 0 R D 6898 20614 M -86 0 R D 6898 20872 M -86 0 R D
6898 21389 M -86 0 R D 6898 21647 M -86 0 R D 6898 21905 M -86 0 R D
30 setlinewidth L1 2580 22296 M 432 -1386 R 432 -679 R 518 -465 R 345 -206 R
864 -333 R 863 -199 R 864 -134 R D L2 3009 22296 M 3 -8 R 432 -712 R
518 -521 R 345 -241 R 864 -410 R 863 -260 R 864 -180 R D L3 2580 22285 M
432 -1112 R 432 -2006 R 518 -160 R 345 -70 R 864 -103 R 863 -27 R 864 34 R D
80 setlinewidth L0 0.761 0.000 0.000 setrgbcolor 3825 22296 M 137 -567 R
345 -1146 R 864 -1591 R 863 -289 R 864 -142 R D
0.000 0.549 0.000 setrgbcolor 3352 22296 M 92 -731 R 518 -2018 R 345 -438 R
864 -358 R 863 -172 R 864 -46 R D 0.000 0.000 1.000 setrgbcolor 3417 22296 M
27 -156 R 518 -1540 R 345 -824 R 864 -556 R 863 -220 R 864 -88 R D
30 setlinewidth 0.000 0.000 0.000 setrgbcolor 5829 21936 M -23 12 R -35 0 R
-24 -12 R -23 -23 R -12 -35 R 0 -35 R 12 -35 R 12 -12 R 23 -12 R 35 0 R
24 12 R D 5712 21866 M 94 0 R D 5911 21925 M 210 0 R D 5911 21855 M 210 0 R
D 6273 22030 M -35 -12 R -23 -35 R -12 -58 R 0 -35 R 12 -59 R 23 -35 R
35 -12 R 24 0 R 35 12 R 23 35 R 12 59 R 0 35 R -12 58 R -23 35 R -35 12 R
-24 0 R D 6460 21808 M -11 -12 R 11 -12 R 12 12 R -12 12 R D 6577 22030 M
129 0 R -71 -94 R 36 0 R 23 -11 R 12 -12 R 11 -35 R 0 -23 R -11 -35 R
-24 -24 R -35 -12 R -35 0 R -35 12 R -12 12 R -11 23 R D 20 setlinewidth
7618 18119 M 4318 0 R D 7618 18119 M 0 167 R D 8482 18119 M 0 167 R D
9345 18119 M 0 167 R D 10209 18119 M 0 167 R D 11072 18119 M 0 167 R D
11936 18119 M 0 167 R D 7791 18119 M 0 83 R D 7964 18119 M 0 83 R D
8136 18119 M 0 83 R D 8309 18119 M 0 83 R D 8654 18119 M 0 83 R D
8827 18119 M 0 83 R D 9000 18119 M 0 83 R D 9173 18119 M 0 83 R D
9518 18119 M 0 83 R D 9691 18119 M 0 83 R D 9863 18119 M 0 83 R D
10036 18119 M 0 83 R D 10382 18119 M 0 83 R D 10554 18119 M 0 83 R D
10727 18119 M 0 83 R D 10900 18119 M 0 83 R D 11245 18119 M 0 83 R D
11418 18119 M 0 83 R D 11591 18119 M 0 83 R D 11763 18119 M 0 83 R D
7618 22296 M 4318 0 R D 7618 22296 M 0 -167 R D 8482 22296 M 0 -167 R D
9345 22296 M 0 -167 R D 10209 22296 M 0 -167 R D 11072 22296 M 0 -167 R D
11936 22296 M 0 -167 R D 7791 22296 M 0 -83 R D 7964 22296 M 0 -83 R D
8136 22296 M 0 -83 R D 8309 22296 M 0 -83 R D 8654 22296 M 0 -83 R D
8827 22296 M 0 -83 R D 9000 22296 M 0 -83 R D 9173 22296 M 0 -83 R D
9518 22296 M 0 -83 R D 9691 22296 M 0 -83 R D 9863 22296 M 0 -83 R D
10036 22296 M 0 -83 R D 10382 22296 M 0 -83 R D 10554 22296 M 0 -83 R D
10727 22296 M 0 -83 R D 10900 22296 M 0 -83 R D 11245 22296 M 0 -83 R D
11418 22296 M 0 -83 R D 11591 22296 M 0 -83 R D 11763 22296 M 0 -83 R D
7618 18119 M 0 4177 R D 7618 18739 M 173 0 R D 30 setlinewidth 7308 18785 M
0 11 R 12 24 R 12 11 R 23 12 R 47 0 R 23 -12 R 12 -11 R 12 -24 R 0 -23 R
-12 -23 R -23 -35 R -117 -117 R 163 0 R D 20 setlinewidth 7618 19445 M
173 0 R D 30 setlinewidth 7414 19549 M -117 -163 R 175 0 R D 7414 19549 M
0 -245 R D 20 setlinewidth 7618 20151 M 173 0 R D 30 setlinewidth
7449 20221 M -12 23 R -35 12 R -23 0 R -35 -12 R -24 -35 R -12 -59 R 0 -58 R
12 -47 R 24 -23 R 35 -12 R 11 0 R 35 12 R 24 23 R 11 35 R 0 12 R -11 35 R
-24 23 R -35 12 R -11 0 R -35 -12 R -24 -23 R -12 -35 R D 20 setlinewidth
7618 20857 M 173 0 R D 30 setlinewidth 7355 20962 M -35 -12 R -12 -23 R
0 -24 R 12 -23 R 24 -12 R 46 -11 R 35 -12 R 24 -23 R 11 -24 R 0 -35 R
-11 -23 R -12 -12 R -35 -11 R -47 0 R -35 11 R -12 12 R -11 23 R 0 35 R
11 24 R 24 23 R 35 12 R 47 11 R 23 12 R 12 23 R 0 24 R -12 23 R -35 12 R
-47 0 R D 20 setlinewidth 7618 21564 M 173 0 R D 30 setlinewidth
7098 21621 M 24 12 R 35 35 R 0 -245 R D 7367 21668 M -35 -12 R -24 -35 R
-11 -58 R 0 -35 R 11 -59 R 24 -35 R 35 -11 R 23 0 R 35 11 R 24 35 R 11 59 R
0 35 R -11 58 R -24 35 R -35 12 R -23 0 R D 20 setlinewidth 7618 22270 M
173 0 R D 30 setlinewidth 7098 22248 M 24 12 R 35 35 R 0 -245 R D
7308 22237 M 0 11 R 12 24 R 12 11 R 23 12 R 47 0 R 23 -12 R 12 -11 R
12 -24 R 0 -23 R -12 -23 R -23 -35 R -117 -117 R 163 0 R D 20 setlinewidth
7618 18209 M 86 0 R D 7618 18385 M 86 0 R D 7618 18562 M 86 0 R D
7618 18915 M 86 0 R D 7618 19092 M 86 0 R D 7618 19268 M 86 0 R D
7618 19621 M 86 0 R D 7618 19798 M 86 0 R D 7618 19975 M 86 0 R D
7618 20328 M 86 0 R D 7618 20504 M 86 0 R D 7618 20681 M 86 0 R D
7618 21034 M 86 0 R D 7618 21210 M 86 0 R D 7618 21387 M 86 0 R D
7618 21740 M 86 0 R D 7618 21917 M 86 0 R D 7618 22093 M 86 0 R D
11936 18119 M 0 4177 R D 11936 18739 M -173 0 R D 11936 19445 M -173 0 R D
11936 20151 M -173 0 R D 11936 20857 M -173 0 R D 11936 21564 M -173 0 R D
11936 22270 M -173 0 R D 11936 18209 M -86 0 R D 11936 18385 M -86 0 R D
11936 18562 M -86 0 R D 11936 18915 M -86 0 R D 11936 19092 M -86 0 R D
11936 19268 M -86 0 R D 11936 19621 M -86 0 R D 11936 19798 M -86 0 R D
11936 19975 M -86 0 R D 11936 20328 M -86 0 R D 11936 20504 M -86 0 R D
11936 20681 M -86 0 R D 11936 21034 M -86 0 R D 11936 21210 M -86 0 R D
11936 21387 M -86 0 R D 11936 21740 M -86 0 R D 11936 21917 M -86 0 R D
11936 22093 M -86 0 R D 30 setlinewidth L1 7618 22296 M 432 -1386 R
432 -679 R 518 -465 R 345 -206 R 864 -333 R 863 -199 R 864 -134 R D L2
7678 22296 M 372 -902 R 432 -562 R 518 -412 R 345 -191 R 864 -324 R
863 -204 R 864 -143 R D L3 7618 22179 M 432 -1210 R 432 -1679 R 518 -180 R
345 -82 R 864 -127 R 863 -58 R 864 -10 R D 80 setlinewidth L0
0.761 0.000 0.000 setrgbcolor 8914 22296 M 86 -560 R 345 -1069 R 864 -1630 R
863 -388 R 864 -120 R D 0.000 0.549 0.000 setrgbcolor 8418 22296 M 64 -621 R
518 -1949 R 345 -625 R 864 -398 R 863 -151 R 864 -85 R D
0.000 0.000 1.000 setrgbcolor 8528 22296 M 472 -1594 R 345 -700 R 864 -803 R
863 -204 R 864 -124 R D 30 setlinewidth 0.000 0.000 0.000 setrgbcolor
10867 21936 M -23 12 R -35 0 R -24 -12 R -23 -23 R -12 -35 R 0 -35 R
12 -35 R 12 -12 R 23 -12 R 35 0 R 24 12 R D 10750 21866 M 94 0 R D
10949 21925 M 210 0 R D 10949 21855 M 210 0 R D 11311 22030 M -35 -12 R
-23 -35 R -12 -58 R 0 -35 R 12 -59 R 23 -35 R 35 -12 R 24 0 R 35 12 R
23 35 R 12 59 R 0 35 R -12 58 R -23 35 R -35 12 R -24 0 R D 11498 21808 M
-11 -12 R 11 -12 R 12 12 R -12 12 R D 11732 22030 M -117 0 R -12 -105 R
12 11 R 35 12 R 35 0 R 35 -12 R 24 -23 R 11 -35 R 0 -23 R -11 -35 R
-24 -24 R -35 -12 R -35 0 R -35 12 R -12 12 R -11 23 R D 20 setlinewidth
12656 18119 M 4318 0 R D 12656 18119 M 0 167 R D 13520 18119 M 0 167 R D
14383 18119 M 0 167 R D 15247 18119 M 0 167 R D 16110 18119 M 0 167 R D
16974 18119 M 0 167 R D 12829 18119 M 0 83 R D 13002 18119 M 0 83 R D
13174 18119 M 0 83 R D 13347 18119 M 0 83 R D 13692 18119 M 0 83 R D
13865 18119 M 0 83 R D 14038 18119 M 0 83 R D 14211 18119 M 0 83 R D
14556 18119 M 0 83 R D 14729 18119 M 0 83 R D 14901 18119 M 0 83 R D
15074 18119 M 0 83 R D 15420 18119 M 0 83 R D 15592 18119 M 0 83 R D
15765 18119 M 0 83 R D 15938 18119 M 0 83 R D 16283 18119 M 0 83 R D
16456 18119 M 0 83 R D 16629 18119 M 0 83 R D 16801 18119 M 0 83 R D
12656 22296 M 4318 0 R D 12656 22296 M 0 -167 R D 13520 22296 M 0 -167 R D
14383 22296 M 0 -167 R D 15247 22296 M 0 -167 R D 16110 22296 M 0 -167 R D
16974 22296 M 0 -167 R D 12829 22296 M 0 -83 R D 13002 22296 M 0 -83 R D
13174 22296 M 0 -83 R D 13347 22296 M 0 -83 R D 13692 22296 M 0 -83 R D
13865 22296 M 0 -83 R D 14038 22296 M 0 -83 R D 14211 22296 M 0 -83 R D
14556 22296 M 0 -83 R D 14729 22296 M 0 -83 R D 14901 22296 M 0 -83 R D
15074 22296 M 0 -83 R D 15420 22296 M 0 -83 R D 15592 22296 M 0 -83 R D
15765 22296 M 0 -83 R D 15938 22296 M 0 -83 R D 16283 22296 M 0 -83 R D
16456 22296 M 0 -83 R D 16629 22296 M 0 -83 R D 16801 22296 M 0 -83 R D
12656 18119 M 0 4177 R D 12656 18715 M 173 0 R D 30 setlinewidth
12475 18820 M -117 0 R -12 -105 R 12 11 R 35 12 R 35 0 R 35 -12 R 24 -23 R
11 -35 R 0 -24 R -11 -35 R -24 -23 R -35 -12 R -35 0 R -35 12 R -12 12 R
-11 23 R D 20 setlinewidth 12656 19398 M 173 0 R D 30 setlinewidth
12136 19456 M 24 12 R 35 35 R 0 -246 R D 12405 19503 M -35 -12 R -24 -35 R
-11 -59 R 0 -35 R 11 -58 R 24 -35 R 35 -12 R 23 0 R 35 12 R 24 35 R 11 58 R
0 35 R -11 59 R -24 35 R -35 12 R -23 0 R D 20 setlinewidth 12656 20081 M
173 0 R D 30 setlinewidth 12136 20139 M 24 11 R 35 35 R 0 -245 R D
12475 20185 M -117 0 R -12 -105 R 12 12 R 35 12 R 35 0 R 35 -12 R 24 -23 R
11 -35 R 0 -24 R -11 -35 R -24 -23 R -35 -12 R -35 0 R -35 12 R -12 11 R
-11 24 R D 20 setlinewidth 12656 20764 M 173 0 R D 30 setlinewidth
12113 20810 M 0 12 R 11 23 R 12 12 R 24 11 R 46 0 R 24 -11 R 11 -12 R
12 -23 R 0 -24 R -12 -23 R -23 -35 R -117 -117 R 164 0 R D 12405 20868 M
-35 -11 R -24 -35 R -11 -59 R 0 -35 R 11 -58 R 24 -35 R 35 -12 R 23 0 R
35 12 R 24 35 R 11 58 R 0 35 R -11 59 R -24 35 R -35 11 R -23 0 R D
20 setlinewidth 12656 21447 M 173 0 R D 30 setlinewidth 12113 21493 M 0 11 R
11 24 R 12 11 R 24 12 R 46 0 R 24 -12 R 11 -11 R 12 -24 R 0 -23 R -12 -23 R
-23 -35 R -117 -117 R 164 0 R D 12475 21551 M -117 0 R -12 -105 R 12 12 R
35 11 R 35 0 R 35 -11 R 24 -24 R 11 -35 R 0 -23 R -11 -35 R -24 -24 R
-35 -11 R -35 0 R -35 11 R -12 12 R -11 23 R D 20 setlinewidth 12656 22129 M
173 0 R D 30 setlinewidth 12124 22234 M 129 0 R -70 -94 R 35 0 R 23 -11 R
12 -12 R 12 -35 R 0 -23 R -12 -35 R -23 -24 R -35 -11 R -35 0 R -36 11 R
-11 12 R -12 23 R D 12405 22234 M -35 -12 R -24 -35 R -11 -58 R 0 -35 R
11 -59 R 24 -35 R 35 -11 R 23 0 R 35 11 R 24 35 R 11 59 R 0 35 R -11 58 R
-24 35 R -35 12 R -23 0 R D 20 setlinewidth 12656 18169 M 86 0 R D
12656 18305 M 86 0 R D 12656 18442 M 86 0 R D 12656 18579 M 86 0 R D
12656 18852 M 86 0 R D 12656 18988 M 86 0 R D 12656 19125 M 86 0 R D
12656 19261 M 86 0 R D 12656 19535 M 86 0 R D 12656 19671 M 86 0 R D
12656 19808 M 86 0 R D 12656 19944 M 86 0 R D 12656 20217 M 86 0 R D
12656 20354 M 86 0 R D 12656 20491 M 86 0 R D 12656 20627 M 86 0 R D
12656 20900 M 86 0 R D 12656 21037 M 86 0 R D 12656 21173 M 86 0 R D
12656 21310 M 86 0 R D 12656 21583 M 86 0 R D 12656 21720 M 86 0 R D
12656 21856 M 86 0 R D 12656 21993 M 86 0 R D 12656 22266 M 86 0 R D
16974 18119 M 0 4177 R D 16974 18715 M -173 0 R D 16974 19398 M -173 0 R D
16974 20081 M -173 0 R D 16974 20764 M -173 0 R D 16974 21447 M -173 0 R D
16974 22129 M -173 0 R D 16974 18169 M -86 0 R D 16974 18305 M -86 0 R D
16974 18442 M -86 0 R D 16974 18579 M -86 0 R D 16974 18852 M -86 0 R D
16974 18988 M -86 0 R D 16974 19125 M -86 0 R D 16974 19261 M -86 0 R D
16974 19535 M -86 0 R D 16974 19671 M -86 0 R D 16974 19808 M -86 0 R D
16974 19944 M -86 0 R D 16974 20217 M -86 0 R D 16974 20354 M -86 0 R D
16974 20491 M -86 0 R D 16974 20627 M -86 0 R D 16974 20900 M -86 0 R D
16974 21037 M -86 0 R D 16974 21173 M -86 0 R D 16974 21310 M -86 0 R D
16974 21583 M -86 0 R D 16974 21720 M -86 0 R D 16974 21856 M -86 0 R D
16974 21993 M -86 0 R D 16974 22266 M -86 0 R D 30 setlinewidth L1
12656 22296 M 432 -1386 R 432 -679 R 518 -465 R 345 -206 R 864 -333 R
863 -199 R 864 -134 R D L2 12656 20185 M 432 -512 R 432 -274 R 518 -201 R
345 -93 R 864 -158 R 863 -100 R 864 -70 R D L3 12656 20245 M 432 -518 R
432 -758 R 518 -138 R 345 -64 R 864 -108 R 863 -68 R 864 -48 R D
80 setlinewidth L0 0.761 0.000 0.000 setrgbcolor 13814 22296 M 224 -933 R
345 -1168 R 864 -1545 R 863 -128 R 864 -65 R D 0.000 0.549 0.000 setrgbcolor
12802 22296 M 286 -1511 R 432 -1118 R 518 -781 R 345 -136 R 864 -174 R
863 -85 R 864 -48 R D 0.000 0.000 1.000 setrgbcolor 12673 22296 M
415 -1601 R 432 -843 R 518 -725 R 345 -150 R 864 -160 R 863 -79 R 864 -43 R
D 30 setlinewidth 0.000 0.000 0.000 setrgbcolor 15905 21936 M -23 12 R
-35 0 R -24 -12 R -23 -23 R -12 -35 R 0 -35 R 12 -35 R 12 -12 R 23 -12 R
35 0 R 24 12 R D 15788 21866 M 94 0 R D 15987 21925 M 210 0 R D
15987 21855 M 210 0 R D 16314 21983 M 24 12 R 35 35 R 0 -246 R D
16536 21808 M -11 -12 R 11 -12 R 12 12 R -12 12 R D 16700 22030 M -35 -12 R
-24 -35 R -11 -58 R 0 -35 R 11 -59 R 24 -35 R 35 -12 R 23 0 R 35 12 R
24 35 R 11 59 R 0 35 R -11 58 R -24 35 R -35 12 R -23 0 R D 17321 20286 M
319 0 R D 17473 20286 M -30 30 R -16 30 R 0 46 R 16 30 R 30 31 R 45 15 R
31 0 R 45 -15 R 31 -31 R 15 -30 R 0 -46 R -15 -30 R -31 -30 R D
17473 20726 M -30 -15 R -16 -46 R 0 -45 R 16 -46 R 30 -15 R 30 15 R 15 31 R
16 75 R 15 31 R 30 15 R 15 0 R 31 -15 R 15 -46 R 0 -45 R -15 -46 R -31 -15 R
D 17321 20908 M 15 -45 R 46 -31 R 76 -15 R 45 0 R 76 15 R 46 31 R 15 45 R
0 31 R -15 45 R -46 31 R -76 15 R -45 0 R -76 -15 R -46 -31 R -15 -45 R
0 -31 R D 17321 21212 M 15 -45 R 46 -31 R 76 -15 R 45 0 R 76 15 R 46 31 R
15 45 R 0 31 R -15 45 R -46 30 R -76 16 R -45 0 R -76 -16 R -46 -30 R
-15 -45 R 0 -31 R D 20 setlinewidth 2580 13941 M 4318 0 R D 2580 13941 M
0 167 R D 3444 13941 M 0 167 R D 4307 13941 M 0 167 R D 5171 13941 M 0 167 R
D 6034 13941 M 0 167 R D 6898 13941 M 0 167 R D 2753 13941 M 0 83 R D
2926 13941 M 0 83 R D 3098 13941 M 0 83 R D 3271 13941 M 0 83 R D
3616 13941 M 0 83 R D 3789 13941 M 0 83 R D 3962 13941 M 0 83 R D
4135 13941 M 0 83 R D 4480 13941 M 0 83 R D 4653 13941 M 0 83 R D
4825 13941 M 0 83 R D 4998 13941 M 0 83 R D 5344 13941 M 0 83 R D
5516 13941 M 0 83 R D 5689 13941 M 0 83 R D 5862 13941 M 0 83 R D
6207 13941 M 0 83 R D 6380 13941 M 0 83 R D 6553 13941 M 0 83 R D
6725 13941 M 0 83 R D 2580 18119 M 4318 0 R D 2580 18119 M 0 -168 R D
3444 18119 M 0 -168 R D 4307 18119 M 0 -168 R D 5171 18119 M 0 -168 R D
6034 18119 M 0 -168 R D 6898 18119 M 0 -168 R D 2753 18119 M 0 -84 R D
2926 18119 M 0 -84 R D 3098 18119 M 0 -84 R D 3271 18119 M 0 -84 R D
3616 18119 M 0 -84 R D 3789 18119 M 0 -84 R D 3962 18119 M 0 -84 R D
4135 18119 M 0 -84 R D 4480 18119 M 0 -84 R D 4653 18119 M 0 -84 R D
4825 18119 M 0 -84 R D 4998 18119 M 0 -84 R D 5344 18119 M 0 -84 R D
5516 18119 M 0 -84 R D 5689 18119 M 0 -84 R D 5862 18119 M 0 -84 R D
6207 18119 M 0 -84 R D 6380 18119 M 0 -84 R D 6553 18119 M 0 -84 R D
6725 18119 M 0 -84 R D 2580 13941 M 0 4178 R D 2580 14887 M 173 0 R D
30 setlinewidth 2270 14934 M 0 11 R 12 24 R 12 11 R 23 12 R 47 0 R 23 -12 R
12 -11 R 12 -24 R 0 -23 R -12 -23 R -23 -36 R -117 -116 R 163 0 R D
20 setlinewidth 2580 15920 M 173 0 R D 30 setlinewidth 2376 16025 M
-117 -164 R 175 0 R D 2376 16025 M 0 -246 R D 20 setlinewidth 2580 16953 M
173 0 R D 30 setlinewidth 2411 17022 M -12 24 R -35 11 R -23 0 R -35 -11 R
-24 -35 R -12 -59 R 0 -58 R 12 -47 R 24 -23 R 35 -12 R 11 0 R 35 12 R
24 23 R 11 35 R 0 12 R -11 35 R -24 23 R -35 12 R -11 0 R -35 -12 R
-24 -23 R -12 -35 R D 20 setlinewidth 2580 17986 M 173 0 R D 30 setlinewidth
2317 18090 M -35 -11 R -12 -24 R 0 -23 R 12 -24 R 24 -11 R 46 -12 R 35 -12 R
24 -23 R 11 -23 R 0 -35 R -11 -24 R -12 -11 R -35 -12 R -47 0 R -35 12 R
-12 11 R -11 24 R 0 35 R 11 23 R 24 23 R 35 12 R 47 12 R 23 11 R 12 24 R
0 23 R -12 24 R -35 11 R -47 0 R D 20 setlinewidth 2580 14113 M 86 0 R D
2580 14371 M 86 0 R D 2580 14629 M 86 0 R D 2580 15146 M 86 0 R D
2580 15404 M 86 0 R D 2580 15662 M 86 0 R D 2580 16178 M 86 0 R D
2580 16437 M 86 0 R D 2580 16695 M 86 0 R D 2580 17211 M 86 0 R D
2580 17469 M 86 0 R D 2580 17727 M 86 0 R D 6898 13941 M 0 4178 R D
6898 14887 M -173 0 R D 6898 15920 M -173 0 R D 6898 16953 M -173 0 R D
6898 17986 M -173 0 R D 6898 14113 M -86 0 R D 6898 14371 M -86 0 R D
6898 14629 M -86 0 R D 6898 15146 M -86 0 R D 6898 15404 M -86 0 R D
6898 15662 M -86 0 R D 6898 16178 M -86 0 R D 6898 16437 M -86 0 R D
6898 16695 M -86 0 R D 6898 17211 M -86 0 R D 6898 17469 M -86 0 R D
6898 17727 M -86 0 R D 30 setlinewidth L1 2580 18118 M 432 -1385 R
432 -680 R 518 -465 R 345 -205 R 864 -333 R 863 -200 R 864 -133 R D L2
3009 18118 M 3 -8 R 432 -711 R 518 -521 R 345 -242 R 864 -410 R 863 -259 R
864 -180 R D L3 2580 18107 M 432 -1112 R 432 -2006 R 518 -159 R 345 -71 R
864 -102 R 863 -28 R 864 35 R D 80 setlinewidth L0
0.761 0.000 0.000 setrgbcolor 2580 16478 M 432 -505 R 432 -368 R 518 -331 R
345 -189 R 864 -340 R 863 -220 R 864 -142 R D 0.000 0.549 0.000 setrgbcolor
2580 16241 M 432 -494 R 432 -374 R 518 -333 R 345 -172 R 864 -295 R
863 -171 R 864 -46 R D 0.000 0.000 1.000 setrgbcolor 2580 16045 M 432 -335 R
432 -247 R 518 -210 R 345 -109 R 864 -196 R 863 -129 R 864 -84 R D
20 setlinewidth 0.000 0.000 0.000 setrgbcolor 7618 13941 M 4318 0 R D
7618 13941 M 0 167 R D 8482 13941 M 0 167 R D 9345 13941 M 0 167 R D
10209 13941 M 0 167 R D 11072 13941 M 0 167 R D 11936 13941 M 0 167 R D
7791 13941 M 0 83 R D 7964 13941 M 0 83 R D 8136 13941 M 0 83 R D
8309 13941 M 0 83 R D 8654 13941 M 0 83 R D 8827 13941 M 0 83 R D
9000 13941 M 0 83 R D 9173 13941 M 0 83 R D 9518 13941 M 0 83 R D
9691 13941 M 0 83 R D 9863 13941 M 0 83 R D 10036 13941 M 0 83 R D
10382 13941 M 0 83 R D 10554 13941 M 0 83 R D 10727 13941 M 0 83 R D
10900 13941 M 0 83 R D 11245 13941 M 0 83 R D 11418 13941 M 0 83 R D
11591 13941 M 0 83 R D 11763 13941 M 0 83 R D 7618 18119 M 4318 0 R D
7618 18119 M 0 -168 R D 8482 18119 M 0 -168 R D 9345 18119 M 0 -168 R D
10209 18119 M 0 -168 R D 11072 18119 M 0 -168 R D 11936 18119 M 0 -168 R D
7791 18119 M 0 -84 R D 7964 18119 M 0 -84 R D 8136 18119 M 0 -84 R D
8309 18119 M 0 -84 R D 8654 18119 M 0 -84 R D 8827 18119 M 0 -84 R D
9000 18119 M 0 -84 R D 9173 18119 M 0 -84 R D 9518 18119 M 0 -84 R D
9691 18119 M 0 -84 R D 9863 18119 M 0 -84 R D 10036 18119 M 0 -84 R D
10382 18119 M 0 -84 R D 10554 18119 M 0 -84 R D 10727 18119 M 0 -84 R D
10900 18119 M 0 -84 R D 11245 18119 M 0 -84 R D 11418 18119 M 0 -84 R D
11591 18119 M 0 -84 R D 11763 18119 M 0 -84 R D 7618 13941 M 0 4178 R D
7618 14561 M 173 0 R D 30 setlinewidth 7308 14607 M 0 12 R 12 23 R 12 12 R
23 12 R 47 0 R 23 -12 R 12 -12 R 12 -23 R 0 -24 R -12 -23 R -23 -35 R
-117 -117 R 163 0 R D 20 setlinewidth 7618 15267 M 173 0 R D 30 setlinewidth
7414 15372 M -117 -164 R 175 0 R D 7414 15372 M 0 -246 R D 20 setlinewidth
7618 15973 M 173 0 R D 30 setlinewidth 7449 16043 M -12 23 R -35 12 R
-23 0 R -35 -12 R -24 -35 R -12 -58 R 0 -59 R 12 -46 R 24 -24 R 35 -11 R
11 0 R 35 11 R 24 24 R 11 35 R 0 11 R -11 36 R -24 23 R -35 12 R -11 0 R
-35 -12 R -24 -23 R -12 -36 R D 20 setlinewidth 7618 16680 M 173 0 R D
30 setlinewidth 7355 16784 M -35 -11 R -12 -24 R 0 -23 R 12 -24 R 24 -11 R
46 -12 R 35 -12 R 24 -23 R 11 -23 R 0 -35 R -11 -24 R -12 -11 R -35 -12 R
-47 0 R -35 12 R -12 11 R -11 24 R 0 35 R 11 23 R 24 23 R 35 12 R 47 12 R
23 11 R 12 24 R 0 23 R -12 24 R -35 11 R -47 0 R D 20 setlinewidth
7618 17386 M 173 0 R D 30 setlinewidth 7098 17444 M 24 11 R 35 36 R 0 -246 R
D 7367 17491 M -35 -12 R -24 -35 R -11 -59 R 0 -35 R 11 -58 R 24 -35 R
35 -12 R 23 0 R 35 12 R 24 35 R 11 58 R 0 35 R -11 59 R -24 35 R -35 12 R
-23 0 R D 20 setlinewidth 7618 18092 M 173 0 R D 30 setlinewidth
7098 18071 M 24 11 R 35 35 R 0 -245 R D 7308 18059 M 0 12 R 12 23 R 12 12 R
23 11 R 47 0 R 23 -11 R 12 -12 R 12 -23 R 0 -24 R -12 -23 R -23 -35 R
-117 -117 R 163 0 R D 20 setlinewidth 7618 14031 M 86 0 R D 7618 14208 M
86 0 R D 7618 14384 M 86 0 R D 7618 14738 M 86 0 R D 7618 14914 M 86 0 R D
7618 15091 M 86 0 R D 7618 15444 M 86 0 R D 7618 15620 M 86 0 R D
7618 15797 M 86 0 R D 7618 16150 M 86 0 R D 7618 16327 M 86 0 R D
7618 16503 M 86 0 R D 7618 16856 M 86 0 R D 7618 17033 M 86 0 R D
7618 17209 M 86 0 R D 7618 17563 M 86 0 R D 7618 17739 M 86 0 R D
7618 17916 M 86 0 R D 11936 13941 M 0 4178 R D 11936 14561 M -173 0 R D
11936 15267 M -173 0 R D 11936 15973 M -173 0 R D 11936 16680 M -173 0 R D
11936 17386 M -173 0 R D 11936 18092 M -173 0 R D 11936 14031 M -86 0 R D
11936 14208 M -86 0 R D 11936 14384 M -86 0 R D 11936 14738 M -86 0 R D
11936 14914 M -86 0 R D 11936 15091 M -86 0 R D 11936 15444 M -86 0 R D
11936 15620 M -86 0 R D 11936 15797 M -86 0 R D 11936 16150 M -86 0 R D
11936 16327 M -86 0 R D 11936 16503 M -86 0 R D 11936 16856 M -86 0 R D
11936 17033 M -86 0 R D 11936 17209 M -86 0 R D 11936 17563 M -86 0 R D
11936 17739 M -86 0 R D 11936 17916 M -86 0 R D 30 setlinewidth L1
7618 18118 M 432 -1385 R 432 -680 R 518 -465 R 345 -205 R 864 -333 R
863 -200 R 864 -133 R D L2 7678 18118 M 372 -902 R 432 -562 R 518 -412 R
345 -190 R 864 -324 R 863 -205 R 864 -142 R D L3 7618 18002 M 432 -1210 R
432 -1680 R 518 -180 R 345 -81 R 864 -128 R 863 -58 R 864 -10 R D
80 setlinewidth L0 0.761 0.000 0.000 setrgbcolor 7618 17259 M 432 -743 R
432 -522 R 518 -821 R 345 -212 R 864 -295 R 863 -195 R 864 -120 R D
0.000 0.549 0.000 setrgbcolor 7618 16897 M 432 -760 R 432 -553 R 518 -654 R
345 -140 R 864 -264 R 863 -151 R 864 -86 R D 0.000 0.000 1.000 setrgbcolor
7618 16636 M 432 -541 R 432 -364 R 518 -573 R 345 -118 R 864 -178 R
863 -102 R 864 -71 R D 20 setlinewidth 0.000 0.000 0.000 setrgbcolor
12656 13941 M 4318 0 R D 12656 13941 M 0 167 R D 13520 13941 M 0 167 R D
14383 13941 M 0 167 R D 15247 13941 M 0 167 R D 16110 13941 M 0 167 R D
16974 13941 M 0 167 R D 12829 13941 M 0 83 R D 13002 13941 M 0 83 R D
13174 13941 M 0 83 R D 13347 13941 M 0 83 R D 13692 13941 M 0 83 R D
13865 13941 M 0 83 R D 14038 13941 M 0 83 R D 14211 13941 M 0 83 R D
14556 13941 M 0 83 R D 14729 13941 M 0 83 R D 14901 13941 M 0 83 R D
15074 13941 M 0 83 R D 15420 13941 M 0 83 R D 15592 13941 M 0 83 R D
15765 13941 M 0 83 R D 15938 13941 M 0 83 R D 16283 13941 M 0 83 R D
16456 13941 M 0 83 R D 16629 13941 M 0 83 R D 16801 13941 M 0 83 R D
12656 18119 M 4318 0 R D 12656 18119 M 0 -168 R D 13520 18119 M 0 -168 R D
14383 18119 M 0 -168 R D 15247 18119 M 0 -168 R D 16110 18119 M 0 -168 R D
16974 18119 M 0 -168 R D 12829 18119 M 0 -84 R D 13002 18119 M 0 -84 R D
13174 18119 M 0 -84 R D 13347 18119 M 0 -84 R D 13692 18119 M 0 -84 R D
13865 18119 M 0 -84 R D 14038 18119 M 0 -84 R D 14211 18119 M 0 -84 R D
14556 18119 M 0 -84 R D 14729 18119 M 0 -84 R D 14901 18119 M 0 -84 R D
15074 18119 M 0 -84 R D 15420 18119 M 0 -84 R D 15592 18119 M 0 -84 R D
15765 18119 M 0 -84 R D 15938 18119 M 0 -84 R D 16283 18119 M 0 -84 R D
16456 18119 M 0 -84 R D 16629 18119 M 0 -84 R D 16801 18119 M 0 -84 R D
12656 13941 M 0 4178 R D 12656 14538 M 173 0 R D 30 setlinewidth
12475 14642 M -117 0 R -12 -105 R 12 12 R 35 11 R 35 0 R 35 -11 R 24 -24 R
11 -35 R 0 -23 R -11 -35 R -24 -24 R -35 -11 R -35 0 R -35 11 R -12 12 R
-11 23 R D 20 setlinewidth 12656 15220 M 173 0 R D 30 setlinewidth
12136 15278 M 24 12 R 35 35 R 0 -245 R D 12405 15325 M -35 -12 R -24 -35 R
-11 -58 R 0 -35 R 11 -59 R 24 -35 R 35 -11 R 23 0 R 35 11 R 24 35 R 11 59 R
0 35 R -11 58 R -24 35 R -35 12 R -23 0 R D 20 setlinewidth 12656 15903 M
173 0 R D 30 setlinewidth 12136 15961 M 24 12 R 35 35 R 0 -246 R D
12475 16008 M -117 0 R -12 -105 R 12 11 R 35 12 R 35 0 R 35 -12 R 24 -23 R
11 -35 R 0 -23 R -11 -36 R -24 -23 R -35 -12 R -35 0 R -35 12 R -12 12 R
-11 23 R D 20 setlinewidth 12656 16586 M 173 0 R D 30 setlinewidth
12113 16632 M 0 12 R 11 23 R 12 12 R 24 12 R 46 0 R 24 -12 R 11 -12 R
12 -23 R 0 -23 R -12 -24 R -23 -35 R -117 -117 R 164 0 R D 12405 16691 M
-35 -12 R -24 -35 R -11 -59 R 0 -35 R 11 -58 R 24 -35 R 35 -12 R 23 0 R
35 12 R 24 35 R 11 58 R 0 35 R -11 59 R -24 35 R -35 12 R -23 0 R D
20 setlinewidth 12656 17269 M 173 0 R D 30 setlinewidth 12113 17315 M 0 12 R
11 23 R 12 12 R 24 11 R 46 0 R 24 -11 R 11 -12 R 12 -23 R 0 -24 R -12 -23 R
-23 -35 R -117 -117 R 164 0 R D 12475 17373 M -117 0 R -12 -105 R 12 12 R
35 12 R 35 0 R 35 -12 R 24 -23 R 11 -35 R 0 -24 R -11 -35 R -24 -23 R
-35 -12 R -35 0 R -35 12 R -12 11 R -11 24 R D 20 setlinewidth 12656 17952 M
173 0 R D 30 setlinewidth 12124 18056 M 129 0 R -70 -93 R 35 0 R 23 -12 R
12 -12 R 12 -35 R 0 -23 R -12 -35 R -23 -23 R -35 -12 R -35 0 R -36 12 R
-11 11 R -12 24 R D 12405 18056 M -35 -11 R -24 -35 R -11 -59 R 0 -35 R
11 -58 R 24 -35 R 35 -12 R 23 0 R 35 12 R 24 35 R 11 58 R 0 35 R -11 59 R
-24 35 R -35 11 R -23 0 R D 20 setlinewidth 12656 13991 M 86 0 R D
12656 14128 M 86 0 R D 12656 14264 M 86 0 R D 12656 14401 M 86 0 R D
12656 14674 M 86 0 R D 12656 14811 M 86 0 R D 12656 14947 M 86 0 R D
12656 15084 M 86 0 R D 12656 15357 M 86 0 R D 12656 15494 M 86 0 R D
12656 15630 M 86 0 R D 12656 15767 M 86 0 R D 12656 16040 M 86 0 R D
12656 16176 M 86 0 R D 12656 16313 M 86 0 R D 12656 16450 M 86 0 R D
12656 16723 M 86 0 R D 12656 16859 M 86 0 R D 12656 16996 M 86 0 R D
12656 17132 M 86 0 R D 12656 17405 M 86 0 R D 12656 17542 M 86 0 R D
12656 17679 M 86 0 R D 12656 17815 M 86 0 R D 12656 18088 M 86 0 R D
16974 13941 M 0 4178 R D 16974 14538 M -173 0 R D 16974 15220 M -173 0 R D
16974 15903 M -173 0 R D 16974 16586 M -173 0 R D 16974 17269 M -173 0 R D
16974 17952 M -173 0 R D 16974 13991 M -86 0 R D 16974 14128 M -86 0 R D
16974 14264 M -86 0 R D 16974 14401 M -86 0 R D 16974 14674 M -86 0 R D
16974 14811 M -86 0 R D 16974 14947 M -86 0 R D 16974 15084 M -86 0 R D
16974 15357 M -86 0 R D 16974 15494 M -86 0 R D 16974 15630 M -86 0 R D
16974 15767 M -86 0 R D 16974 16040 M -86 0 R D 16974 16176 M -86 0 R D
16974 16313 M -86 0 R D 16974 16450 M -86 0 R D 16974 16723 M -86 0 R D
16974 16859 M -86 0 R D 16974 16996 M -86 0 R D 16974 17132 M -86 0 R D
16974 17405 M -86 0 R D 16974 17542 M -86 0 R D 16974 17679 M -86 0 R D
16974 17815 M -86 0 R D 16974 18088 M -86 0 R D 30 setlinewidth L1
12656 18118 M 432 -1385 R 432 -680 R 518 -465 R 345 -205 R 864 -333 R
863 -200 R 864 -133 R D L2 12656 16007 M 432 -512 R 432 -274 R 518 -201 R
345 -93 R 864 -158 R 863 -100 R 864 -69 R D L3 12656 16068 M 432 -519 R
432 -758 R 518 -137 R 345 -64 R 864 -108 R 863 -69 R 864 -48 R D
80 setlinewidth L0 0.761 0.000 0.000 setrgbcolor 12656 16643 M 432 -1026 R
432 -489 R 518 -327 R 345 -124 R 864 -225 R 863 -107 R 864 -66 R D
0.000 0.549 0.000 setrgbcolor 12656 16057 M 432 -746 R 432 -393 R 518 -246 R
345 -109 R 864 -164 R 863 -86 R 864 -48 R D 0.000 0.000 1.000 setrgbcolor
12656 15739 M 432 -498 R 432 -246 R 518 -170 R 345 -70 R 864 -129 R
863 -68 R 864 -41 R D 30 setlinewidth 0.000 0.000 0.000 setrgbcolor
17321 15916 M 319 0 R D 17473 15916 M -30 30 R -16 30 R 0 46 R 16 30 R
30 31 R 45 15 R 31 0 R 45 -15 R 31 -31 R 15 -30 R 0 -46 R -15 -30 R
-31 -30 R D 17473 16356 M -30 -15 R -16 -46 R 0 -45 R 16 -46 R 30 -15 R
30 15 R 15 31 R 16 75 R 15 31 R 30 15 R 15 0 R 31 -15 R 15 -46 R 0 -45 R
-15 -46 R -31 -15 R D 17321 16538 M 15 -45 R 46 -31 R 76 -15 R 45 0 R
76 15 R 46 31 R 15 45 R 0 31 R -15 45 R -46 31 R -76 15 R -45 0 R -76 -15 R
-46 -31 R -15 -45 R 0 -31 R D 17427 16766 M 213 0 R D 17518 16766 M -45 15 R
-30 31 R -16 30 R 0 46 R D 17473 17116 M -30 -16 R -16 -45 R 0 -46 R
16 -45 R 30 -16 R 30 16 R 15 30 R 16 76 R 15 30 R 30 16 R 15 0 R 31 -16 R
15 -45 R 0 -46 R -15 -45 R -31 -16 R D 20 setlinewidth 2580 9763 M 4318 0 R
D 2580 9763 M 0 167 R D 3444 9763 M 0 167 R D 4307 9763 M 0 167 R D
5171 9763 M 0 167 R D 6034 9763 M 0 167 R D 6898 9763 M 0 167 R D
2753 9763 M 0 84 R D 2926 9763 M 0 84 R D 3098 9763 M 0 84 R D 3271 9763 M
0 84 R D 3616 9763 M 0 84 R D 3789 9763 M 0 84 R D 3962 9763 M 0 84 R D
4135 9763 M 0 84 R D 4480 9763 M 0 84 R D 4653 9763 M 0 84 R D 4825 9763 M
0 84 R D 4998 9763 M 0 84 R D 5344 9763 M 0 84 R D 5516 9763 M 0 84 R D
5689 9763 M 0 84 R D 5862 9763 M 0 84 R D 6207 9763 M 0 84 R D 6380 9763 M
0 84 R D 6553 9763 M 0 84 R D 6725 9763 M 0 84 R D 2580 13941 M 4318 0 R D
2580 13941 M 0 -167 R D 3444 13941 M 0 -167 R D 4307 13941 M 0 -167 R D
5171 13941 M 0 -167 R D 6034 13941 M 0 -167 R D 6898 13941 M 0 -167 R D
2753 13941 M 0 -84 R D 2926 13941 M 0 -84 R D 3098 13941 M 0 -84 R D
3271 13941 M 0 -84 R D 3616 13941 M 0 -84 R D 3789 13941 M 0 -84 R D
3962 13941 M 0 -84 R D 4135 13941 M 0 -84 R D 4480 13941 M 0 -84 R D
4653 13941 M 0 -84 R D 4825 13941 M 0 -84 R D 4998 13941 M 0 -84 R D
5344 13941 M 0 -84 R D 5516 13941 M 0 -84 R D 5689 13941 M 0 -84 R D
5862 13941 M 0 -84 R D 6207 13941 M 0 -84 R D 6380 13941 M 0 -84 R D
6553 13941 M 0 -84 R D 6725 13941 M 0 -84 R D 2580 9763 M 0 4178 R D
2580 10710 M 173 0 R D 30 setlinewidth 2270 10756 M 0 12 R 12 23 R 12 12 R
23 11 R 47 0 R 23 -11 R 12 -12 R 12 -23 R 0 -24 R -12 -23 R -23 -35 R
-117 -117 R 163 0 R D 20 setlinewidth 2580 11743 M 173 0 R D 30 setlinewidth
2376 11847 M -117 -163 R 175 0 R D 2376 11847 M 0 -245 R D 20 setlinewidth
2580 12775 M 173 0 R D 30 setlinewidth 2411 12845 M -12 23 R -35 12 R
-23 0 R -35 -12 R -24 -35 R -12 -58 R 0 -59 R 12 -46 R 24 -24 R 35 -11 R
11 0 R 35 11 R 24 24 R 11 35 R 0 11 R -11 35 R -24 24 R -35 11 R -11 0 R
-35 -11 R -24 -24 R -12 -35 R D 20 setlinewidth 2580 13808 M 173 0 R D
30 setlinewidth 2317 13913 M -35 -12 R -12 -23 R 0 -24 R 12 -23 R 24 -12 R
46 -12 R 35 -11 R 24 -24 R 11 -23 R 0 -35 R -11 -23 R -12 -12 R -35 -12 R
-47 0 R -35 12 R -12 12 R -11 23 R 0 35 R 11 23 R 24 24 R 35 11 R 47 12 R
23 12 R 12 23 R 0 24 R -12 23 R -35 12 R -47 0 R D 20 setlinewidth
2580 9935 M 86 0 R D 2580 10193 M 86 0 R D 2580 10452 M 86 0 R D
2580 10968 M 86 0 R D 2580 11226 M 86 0 R D 2580 11484 M 86 0 R D
2580 12001 M 86 0 R D 2580 12259 M 86 0 R D 2580 12517 M 86 0 R D
2580 13034 M 86 0 R D 2580 13292 M 86 0 R D 2580 13550 M 86 0 R D
6898 9763 M 0 4178 R D 6898 10710 M -173 0 R D 6898 11743 M -173 0 R D
6898 12775 M -173 0 R D 6898 13808 M -173 0 R D 6898 9935 M -86 0 R D
6898 10193 M -86 0 R D 6898 10452 M -86 0 R D 6898 10968 M -86 0 R D
6898 11226 M -86 0 R D 6898 11484 M -86 0 R D 6898 12001 M -86 0 R D
6898 12259 M -86 0 R D 6898 12517 M -86 0 R D 6898 13034 M -86 0 R D
6898 13292 M -86 0 R D 6898 13550 M -86 0 R D 30 setlinewidth L1
2580 13940 M 432 -1385 R 432 -679 R 518 -465 R 345 -206 R 864 -333 R
863 -200 R 864 -133 R D L2 3009 13940 M 3 -7 R 432 -712 R 518 -521 R
345 -241 R 864 -410 R 863 -260 R 864 -180 R D L3 2580 13930 M 432 -1113 R
432 -2005 R 518 -160 R 345 -71 R 864 -102 R 863 -28 R 864 35 R D
80 setlinewidth L0 0.761 0.000 0.000 setrgbcolor 2855 13940 M 157 -913 R
432 -727 R 518 -659 R 345 -341 R 864 -663 R 863 -289 R 864 -142 R D
0.000 0.549 0.000 setrgbcolor 2580 13474 M 432 -1035 R 432 -723 R 518 -619 R
345 -343 R 864 -359 R 863 -171 R 864 -46 R D 0.000 0.000 1.000 setrgbcolor
2580 13088 M 432 -720 R 432 -488 R 518 -414 R 345 -209 R 864 -392 R
863 -220 R 864 -88 R D 20 setlinewidth 0.000 0.000 0.000 setrgbcolor
7618 9763 M 4318 0 R D 7618 9763 M 0 167 R D 8482 9763 M 0 167 R D
9345 9763 M 0 167 R D 10209 9763 M 0 167 R D 11072 9763 M 0 167 R D
11936 9763 M 0 167 R D 7791 9763 M 0 84 R D 7964 9763 M 0 84 R D 8136 9763 M
0 84 R D 8309 9763 M 0 84 R D 8654 9763 M 0 84 R D 8827 9763 M 0 84 R D
9000 9763 M 0 84 R D 9173 9763 M 0 84 R D 9518 9763 M 0 84 R D 9691 9763 M
0 84 R D 9863 9763 M 0 84 R D 10036 9763 M 0 84 R D 10382 9763 M 0 84 R D
10554 9763 M 0 84 R D 10727 9763 M 0 84 R D 10900 9763 M 0 84 R D
11245 9763 M 0 84 R D 11418 9763 M 0 84 R D 11591 9763 M 0 84 R D
11763 9763 M 0 84 R D 7618 13941 M 4318 0 R D 7618 13941 M 0 -167 R D
8482 13941 M 0 -167 R D 9345 13941 M 0 -167 R D 10209 13941 M 0 -167 R D
11072 13941 M 0 -167 R D 11936 13941 M 0 -167 R D 7791 13941 M 0 -84 R D
7964 13941 M 0 -84 R D 8136 13941 M 0 -84 R D 8309 13941 M 0 -84 R D
8654 13941 M 0 -84 R D 8827 13941 M 0 -84 R D 9000 13941 M 0 -84 R D
9173 13941 M 0 -84 R D 9518 13941 M 0 -84 R D 9691 13941 M 0 -84 R D
9863 13941 M 0 -84 R D 10036 13941 M 0 -84 R D 10382 13941 M 0 -84 R D
10554 13941 M 0 -84 R D 10727 13941 M 0 -84 R D 10900 13941 M 0 -84 R D
11245 13941 M 0 -84 R D 11418 13941 M 0 -84 R D 11591 13941 M 0 -84 R D
11763 13941 M 0 -84 R D 7618 9763 M 0 4178 R D 7618 10383 M 173 0 R D
30 setlinewidth 7308 10430 M 0 11 R 12 24 R 12 11 R 23 12 R 47 0 R 23 -12 R
12 -11 R 12 -24 R 0 -23 R -12 -24 R -23 -35 R -117 -116 R 163 0 R D
20 setlinewidth 7618 11090 M 173 0 R D 30 setlinewidth 7414 11194 M
-117 -163 R 175 0 R D 7414 11194 M 0 -245 R D 20 setlinewidth 7618 11796 M
173 0 R D 30 setlinewidth 7449 11865 M -12 24 R -35 11 R -23 0 R -35 -11 R
-24 -35 R -12 -59 R 0 -58 R 12 -47 R 24 -23 R 35 -12 R 11 0 R 35 12 R
24 23 R 11 35 R 0 12 R -11 35 R -24 23 R -35 12 R -11 0 R -35 -12 R
-24 -23 R -12 -35 R D 20 setlinewidth 7618 12502 M 173 0 R D 30 setlinewidth
7355 12607 M -35 -12 R -12 -23 R 0 -24 R 12 -23 R 24 -12 R 46 -11 R 35 -12 R
24 -24 R 11 -23 R 0 -35 R -11 -23 R -12 -12 R -35 -12 R -47 0 R -35 12 R
-12 12 R -11 23 R 0 35 R 11 23 R 24 24 R 35 12 R 47 11 R 23 12 R 12 23 R
0 24 R -12 23 R -35 12 R -47 0 R D 20 setlinewidth 7618 13208 M 173 0 R D
30 setlinewidth 7098 13266 M 24 12 R 35 35 R 0 -245 R D 7367 13313 M
-35 -12 R -24 -35 R -11 -58 R 0 -35 R 11 -59 R 24 -35 R 35 -11 R 23 0 R
35 11 R 24 35 R 11 59 R 0 35 R -11 58 R -24 35 R -35 12 R -23 0 R D
20 setlinewidth 7618 13915 M 173 0 R D 30 setlinewidth 7098 13893 M 24 12 R
35 35 R 0 -245 R D 7308 13881 M 0 12 R 12 24 R 12 11 R 23 12 R 47 0 R
23 -12 R 12 -11 R 12 -24 R 0 -23 R -12 -24 R -23 -35 R -117 -116 R 163 0 R D
20 setlinewidth 7618 9854 M 86 0 R D 7618 10030 M 86 0 R D 7618 10207 M
86 0 R D 7618 10560 M 86 0 R D 7618 10736 M 86 0 R D 7618 10913 M 86 0 R D
7618 11266 M 86 0 R D 7618 11443 M 86 0 R D 7618 11619 M 86 0 R D
7618 11972 M 86 0 R D 7618 12149 M 86 0 R D 7618 12326 M 86 0 R D
7618 12679 M 86 0 R D 7618 12855 M 86 0 R D 7618 13032 M 86 0 R D
7618 13385 M 86 0 R D 7618 13561 M 86 0 R D 7618 13738 M 86 0 R D
11936 9763 M 0 4178 R D 11936 10383 M -173 0 R D 11936 11090 M -173 0 R D
11936 11796 M -173 0 R D 11936 12502 M -173 0 R D 11936 13208 M -173 0 R D
11936 13915 M -173 0 R D 11936 9854 M -86 0 R D 11936 10030 M -86 0 R D
11936 10207 M -86 0 R D 11936 10560 M -86 0 R D 11936 10736 M -86 0 R D
11936 10913 M -86 0 R D 11936 11266 M -86 0 R D 11936 11443 M -86 0 R D
11936 11619 M -86 0 R D 11936 11972 M -86 0 R D 11936 12149 M -86 0 R D
11936 12326 M -86 0 R D 11936 12679 M -86 0 R D 11936 12855 M -86 0 R D
11936 13032 M -86 0 R D 11936 13385 M -86 0 R D 11936 13561 M -86 0 R D
11936 13738 M -86 0 R D 30 setlinewidth L1 7618 13940 M 432 -1385 R
432 -679 R 518 -465 R 345 -206 R 864 -333 R 863 -200 R 864 -133 R D L2
7678 13940 M 372 -902 R 432 -562 R 518 -411 R 345 -191 R 864 -324 R
863 -205 R 864 -142 R D L3 7618 13824 M 432 -1210 R 432 -1679 R 518 -181 R
345 -81 R 864 -127 R 863 -59 R 864 -10 R D 80 setlinewidth L0
0.761 0.000 0.000 setrgbcolor 7911 13940 M 139 -700 R 432 -788 R 518 -744 R
345 -575 R 864 -515 R 863 -325 R 864 -120 R D 0.000 0.549 0.000 setrgbcolor
7742 13940 M 308 -1383 R 432 -815 R 518 -745 R 345 -252 R 864 -397 R
863 -151 R 864 -85 R D 0.000 0.000 1.000 setrgbcolor 7618 13327 M 432 -846 R
432 -537 R 518 -644 R 345 -167 R 864 -294 R 863 -199 R 864 -125 R D
20 setlinewidth 0.000 0.000 0.000 setrgbcolor 12656 9763 M 4318 0 R D
12656 9763 M 0 167 R D 13520 9763 M 0 167 R D 14383 9763 M 0 167 R D
15247 9763 M 0 167 R D 16110 9763 M 0 167 R D 16974 9763 M 0 167 R D
12829 9763 M 0 84 R D 13002 9763 M 0 84 R D 13174 9763 M 0 84 R D
13347 9763 M 0 84 R D 13692 9763 M 0 84 R D 13865 9763 M 0 84 R D
14038 9763 M 0 84 R D 14211 9763 M 0 84 R D 14556 9763 M 0 84 R D
14729 9763 M 0 84 R D 14901 9763 M 0 84 R D 15074 9763 M 0 84 R D
15420 9763 M 0 84 R D 15592 9763 M 0 84 R D 15765 9763 M 0 84 R D
15938 9763 M 0 84 R D 16283 9763 M 0 84 R D 16456 9763 M 0 84 R D
16629 9763 M 0 84 R D 16801 9763 M 0 84 R D 12656 13941 M 4318 0 R D
12656 13941 M 0 -167 R D 13520 13941 M 0 -167 R D 14383 13941 M 0 -167 R D
15247 13941 M 0 -167 R D 16110 13941 M 0 -167 R D 16974 13941 M 0 -167 R D
12829 13941 M 0 -84 R D 13002 13941 M 0 -84 R D 13174 13941 M 0 -84 R D
13347 13941 M 0 -84 R D 13692 13941 M 0 -84 R D 13865 13941 M 0 -84 R D
14038 13941 M 0 -84 R D 14211 13941 M 0 -84 R D 14556 13941 M 0 -84 R D
14729 13941 M 0 -84 R D 14901 13941 M 0 -84 R D 15074 13941 M 0 -84 R D
15420 13941 M 0 -84 R D 15592 13941 M 0 -84 R D 15765 13941 M 0 -84 R D
15938 13941 M 0 -84 R D 16283 13941 M 0 -84 R D 16456 13941 M 0 -84 R D
16629 13941 M 0 -84 R D 16801 13941 M 0 -84 R D 12656 9763 M 0 4178 R D
12656 10360 M 173 0 R D 30 setlinewidth 12475 10465 M -117 0 R -12 -106 R
12 12 R 35 12 R 35 0 R 35 -12 R 24 -23 R 11 -35 R 0 -24 R -11 -35 R
-24 -23 R -35 -12 R -35 0 R -35 12 R -12 12 R -11 23 R D 20 setlinewidth
12656 11043 M 173 0 R D 30 setlinewidth 12136 11101 M 24 11 R 35 35 R
0 -245 R D 12405 11147 M -35 -11 R -24 -35 R -11 -59 R 0 -35 R 11 -58 R
24 -35 R 35 -12 R 23 0 R 35 12 R 24 35 R 11 58 R 0 35 R -11 59 R -24 35 R
-35 11 R -23 0 R D 20 setlinewidth 12656 11726 M 173 0 R D 30 setlinewidth
12136 11783 M 24 12 R 35 35 R 0 -245 R D 12475 11830 M -117 0 R -12 -105 R
12 12 R 35 11 R 35 0 R 35 -11 R 24 -24 R 11 -35 R 0 -23 R -11 -35 R
-24 -23 R -35 -12 R -35 0 R -35 12 R -12 11 R -11 24 R D 20 setlinewidth
12656 12408 M 173 0 R D 30 setlinewidth 12113 12455 M 0 11 R 11 24 R 12 11 R
24 12 R 46 0 R 24 -12 R 11 -11 R 12 -24 R 0 -23 R -12 -23 R -23 -35 R
-117 -117 R 164 0 R D 12405 12513 M -35 -12 R -24 -35 R -11 -58 R 0 -35 R
11 -59 R 24 -35 R 35 -11 R 23 0 R 35 11 R 24 35 R 11 59 R 0 35 R -11 58 R
-24 35 R -35 12 R -23 0 R D 20 setlinewidth 12656 13091 M 173 0 R D
30 setlinewidth 12113 13137 M 0 12 R 11 24 R 12 11 R 24 12 R 46 0 R 24 -12 R
11 -11 R 12 -24 R 0 -23 R -12 -24 R -23 -35 R -117 -116 R 164 0 R D
12475 13196 M -117 0 R -12 -105 R 12 11 R 35 12 R 35 0 R 35 -12 R 24 -23 R
11 -35 R 0 -23 R -11 -35 R -24 -24 R -35 -11 R -35 0 R -35 11 R -12 12 R
-11 23 R D 20 setlinewidth 12656 13774 M 173 0 R D 30 setlinewidth
12124 13879 M 129 0 R -70 -94 R 35 0 R 23 -11 R 12 -12 R 12 -35 R 0 -24 R
-12 -35 R -23 -23 R -35 -12 R -35 0 R -36 12 R -11 12 R -12 23 R D
12405 13879 M -35 -12 R -24 -35 R -11 -58 R 0 -35 R 11 -59 R 24 -35 R
35 -12 R 23 0 R 35 12 R 24 35 R 11 59 R 0 35 R -11 58 R -24 35 R -35 12 R
-23 0 R D 20 setlinewidth 12656 9814 M 86 0 R D 12656 9950 M 86 0 R D
12656 10087 M 86 0 R D 12656 10223 M 86 0 R D 12656 10497 M 86 0 R D
12656 10633 M 86 0 R D 12656 10770 M 86 0 R D 12656 10906 M 86 0 R D
12656 11179 M 86 0 R D 12656 11316 M 86 0 R D 12656 11452 M 86 0 R D
12656 11589 M 86 0 R D 12656 11862 M 86 0 R D 12656 11999 M 86 0 R D
12656 12135 M 86 0 R D 12656 12272 M 86 0 R D 12656 12545 M 86 0 R D
12656 12682 M 86 0 R D 12656 12818 M 86 0 R D 12656 12955 M 86 0 R D
12656 13228 M 86 0 R D 12656 13364 M 86 0 R D 12656 13501 M 86 0 R D
12656 13638 M 86 0 R D 12656 13911 M 86 0 R D 16974 9763 M 0 4178 R D
16974 10360 M -173 0 R D 16974 11043 M -173 0 R D 16974 11726 M -173 0 R D
16974 12408 M -173 0 R D 16974 13091 M -173 0 R D 16974 13774 M -173 0 R D
16974 9814 M -86 0 R D 16974 9950 M -86 0 R D 16974 10087 M -86 0 R D
16974 10223 M -86 0 R D 16974 10497 M -86 0 R D 16974 10633 M -86 0 R D
16974 10770 M -86 0 R D 16974 10906 M -86 0 R D 16974 11179 M -86 0 R D
16974 11316 M -86 0 R D 16974 11452 M -86 0 R D 16974 11589 M -86 0 R D
16974 11862 M -86 0 R D 16974 11999 M -86 0 R D 16974 12135 M -86 0 R D
16974 12272 M -86 0 R D 16974 12545 M -86 0 R D 16974 12682 M -86 0 R D
16974 12818 M -86 0 R D 16974 12955 M -86 0 R D 16974 13228 M -86 0 R D
16974 13364 M -86 0 R D 16974 13501 M -86 0 R D 16974 13638 M -86 0 R D
16974 13911 M -86 0 R D 30 setlinewidth L1 12656 13940 M 432 -1385 R
432 -679 R 518 -465 R 345 -206 R 864 -333 R 863 -200 R 864 -133 R D L2
12656 11829 M 432 -511 R 432 -275 R 518 -200 R 345 -94 R 864 -158 R
863 -100 R 864 -69 R D L3 12656 11890 M 432 -518 R 432 -758 R 518 -138 R
345 -64 R 864 -108 R 863 -69 R 864 -47 R D 80 setlinewidth L0
0.761 0.000 0.000 setrgbcolor 12656 13456 M 432 -1563 R 432 -718 R
518 -432 R 345 -183 R 864 -265 R 863 -128 R 864 -65 R D
0.000 0.549 0.000 setrgbcolor 12656 12305 M 432 -1017 R 432 -469 R
518 -296 R 345 -129 R 864 -173 R 863 -85 R 864 -48 R D
0.000 0.000 1.000 setrgbcolor 12656 11891 M 432 -648 R 432 -327 R 518 -212 R
345 -97 R 864 -145 R 863 -79 R 864 -43 R D 30 setlinewidth
0.000 0.000 0.000 setrgbcolor 17321 11546 M 319 0 R D 17473 11546 M -30 30 R
-16 30 R 0 46 R 16 30 R 30 31 R 45 15 R 31 0 R 45 -15 R 31 -31 R 15 -30 R
0 -46 R -15 -30 R -31 -30 R D 17473 11986 M -30 -15 R -16 -46 R 0 -45 R
16 -46 R 30 -15 R 30 15 R 15 31 R 16 75 R 15 31 R 30 15 R 15 0 R 31 -15 R
15 -46 R 0 -45 R -15 -46 R -31 -15 R D 17321 12168 M 15 -45 R 46 -31 R
76 -15 R 45 0 R 76 15 R 46 31 R 15 45 R 0 31 R -15 45 R -46 31 R -76 15 R
-45 0 R -76 -15 R -46 -31 R -15 -45 R 0 -31 R D 17427 12396 M 213 0 R D
17518 12396 M -45 15 R -30 31 R -16 30 R 0 46 R D 17473 12746 M -30 -16 R
-16 -45 R 0 -46 R 16 -45 R 30 -16 R 30 16 R 15 30 R 16 76 R 15 30 R 30 16 R
15 0 R 31 -16 R 15 -45 R 0 -46 R -15 -45 R -31 -16 R D 17321 12852 M 319 0 R
D 17488 12852 M -45 45 R -16 31 R 0 45 R 16 31 R 45 15 R 152 0 R D
20 setlinewidth 2580 5586 M 4318 0 R D 2580 5586 M 0 167 R D 3444 5586 M
0 167 R D 4307 5586 M 0 167 R D 5171 5586 M 0 167 R D 6034 5586 M 0 167 R D
6898 5586 M 0 167 R D 2753 5586 M 0 83 R D 2926 5586 M 0 83 R D 3098 5586 M
0 83 R D 3271 5586 M 0 83 R D 3616 5586 M 0 83 R D 3789 5586 M 0 83 R D
3962 5586 M 0 83 R D 4135 5586 M 0 83 R D 4480 5586 M 0 83 R D 4653 5586 M
0 83 R D 4825 5586 M 0 83 R D 4998 5586 M 0 83 R D 5344 5586 M 0 83 R D
5516 5586 M 0 83 R D 5689 5586 M 0 83 R D 5862 5586 M 0 83 R D 6207 5586 M
0 83 R D 6380 5586 M 0 83 R D 6553 5586 M 0 83 R D 6725 5586 M 0 83 R D
2580 9763 M 4318 0 R D 2580 9763 M 0 -167 R D 3444 9763 M 0 -167 R D
4307 9763 M 0 -167 R D 5171 9763 M 0 -167 R D 6034 9763 M 0 -167 R D
6898 9763 M 0 -167 R D 2753 9763 M 0 -83 R D 2926 9763 M 0 -83 R D
3098 9763 M 0 -83 R D 3271 9763 M 0 -83 R D 3616 9763 M 0 -83 R D
3789 9763 M 0 -83 R D 3962 9763 M 0 -83 R D 4135 9763 M 0 -83 R D
4480 9763 M 0 -83 R D 4653 9763 M 0 -83 R D 4825 9763 M 0 -83 R D
4998 9763 M 0 -83 R D 5344 9763 M 0 -83 R D 5516 9763 M 0 -83 R D
5689 9763 M 0 -83 R D 5862 9763 M 0 -83 R D 6207 9763 M 0 -83 R D
6380 9763 M 0 -83 R D 6553 9763 M 0 -83 R D 6725 9763 M 0 -83 R D
2580 5586 M 0 4177 R D 2580 6532 M 173 0 R D 30 setlinewidth 2270 6578 M
0 12 R 12 23 R 12 12 R 23 12 R 47 0 R 23 -12 R 12 -12 R 12 -23 R 0 -23 R
-12 -24 R -23 -35 R -117 -117 R 163 0 R D 20 setlinewidth 2580 7565 M
173 0 R D 30 setlinewidth 2376 7670 M -117 -164 R 175 0 R D 2376 7670 M
0 -246 R D 20 setlinewidth 2580 8598 M 173 0 R D 30 setlinewidth 2411 8667 M
-12 24 R -35 11 R -23 0 R -35 -11 R -24 -35 R -12 -59 R 0 -58 R 12 -47 R
24 -23 R 35 -12 R 11 0 R 35 12 R 24 23 R 11 35 R 0 12 R -11 35 R -24 23 R
-35 12 R -11 0 R -35 -12 R -24 -23 R -12 -35 R D 20 setlinewidth 2580 9630 M
173 0 R D 30 setlinewidth 2317 9735 M -35 -12 R -12 -23 R 0 -23 R 12 -24 R
24 -11 R 46 -12 R 35 -12 R 24 -23 R 11 -24 R 0 -35 R -11 -23 R -12 -12 R
-35 -11 R -47 0 R -35 11 R -12 12 R -11 23 R 0 35 R 11 24 R 24 23 R 35 12 R
47 12 R 23 11 R 12 24 R 0 23 R -12 23 R -35 12 R -47 0 R D 20 setlinewidth
2580 5758 M 86 0 R D 2580 6016 M 86 0 R D 2580 6274 M 86 0 R D 2580 6790 M
86 0 R D 2580 7049 M 86 0 R D 2580 7307 M 86 0 R D 2580 7823 M 86 0 R D
2580 8081 M 86 0 R D 2580 8340 M 86 0 R D 2580 8856 M 86 0 R D 2580 9114 M
86 0 R D 2580 9372 M 86 0 R D 6898 5586 M 0 4177 R D 6898 6532 M -173 0 R D
6898 7565 M -173 0 R D 6898 8598 M -173 0 R D 6898 9630 M -173 0 R D
6898 5758 M -86 0 R D 6898 6016 M -86 0 R D 6898 6274 M -86 0 R D
6898 6790 M -86 0 R D 6898 7049 M -86 0 R D 6898 7307 M -86 0 R D
6898 7823 M -86 0 R D 6898 8081 M -86 0 R D 6898 8340 M -86 0 R D
6898 8856 M -86 0 R D 6898 9114 M -86 0 R D 6898 9372 M -86 0 R D
30 setlinewidth L1 2580 9763 M 432 -1385 R 432 -680 R 518 -465 R 345 -206 R
864 -333 R 863 -199 R 864 -134 R D L2 3009 9763 M 3 -8 R 432 -711 R
518 -521 R 345 -242 R 864 -410 R 863 -259 R 864 -181 R D L3 2580 9752 M
432 -1112 R 432 -2006 R 518 -160 R 345 -70 R 864 -102 R 863 -28 R 864 35 R D
80 setlinewidth L0 0.761 0.000 0.000 setrgbcolor 3432 9763 M 12 -79 R
518 -1666 R 345 -724 R 864 -863 R 863 -261 R 864 -142 R D
0.000 0.549 0.000 setrgbcolor 2973 9763 M 39 -326 R 432 -1641 R 518 -880 R
345 -341 R 864 -357 R 863 -172 R 864 -46 R D 0.000 0.000 1.000 setrgbcolor
2920 9763 M 92 -481 R 432 -1162 R 518 -707 R 345 -331 R 864 -404 R
863 -211 R 864 -87 R D 20 setlinewidth 0.000 0.000 0.000 setrgbcolor
7618 5586 M 4318 0 R D 7618 5586 M 0 167 R D 8482 5586 M 0 167 R D
9345 5586 M 0 167 R D 10209 5586 M 0 167 R D 11072 5586 M 0 167 R D
11936 5586 M 0 167 R D 7791 5586 M 0 83 R D 7964 5586 M 0 83 R D 8136 5586 M
0 83 R D 8309 5586 M 0 83 R D 8654 5586 M 0 83 R D 8827 5586 M 0 83 R D
9000 5586 M 0 83 R D 9173 5586 M 0 83 R D 9518 5586 M 0 83 R D 9691 5586 M
0 83 R D 9863 5586 M 0 83 R D 10036 5586 M 0 83 R D 10382 5586 M 0 83 R D
10554 5586 M 0 83 R D 10727 5586 M 0 83 R D 10900 5586 M 0 83 R D
11245 5586 M 0 83 R D 11418 5586 M 0 83 R D 11591 5586 M 0 83 R D
11763 5586 M 0 83 R D 7618 9763 M 4318 0 R D 7618 9763 M 0 -167 R D
8482 9763 M 0 -167 R D 9345 9763 M 0 -167 R D 10209 9763 M 0 -167 R D
11072 9763 M 0 -167 R D 11936 9763 M 0 -167 R D 7791 9763 M 0 -83 R D
7964 9763 M 0 -83 R D 8136 9763 M 0 -83 R D 8309 9763 M 0 -83 R D
8654 9763 M 0 -83 R D 8827 9763 M 0 -83 R D 9000 9763 M 0 -83 R D
9173 9763 M 0 -83 R D 9518 9763 M 0 -83 R D 9691 9763 M 0 -83 R D
9863 9763 M 0 -83 R D 10036 9763 M 0 -83 R D 10382 9763 M 0 -83 R D
10554 9763 M 0 -83 R D 10727 9763 M 0 -83 R D 10900 9763 M 0 -83 R D
11245 9763 M 0 -83 R D 11418 9763 M 0 -83 R D 11591 9763 M 0 -83 R D
11763 9763 M 0 -83 R D 7618 5586 M 0 4177 R D 7618 6206 M 173 0 R D
30 setlinewidth 7308 6252 M 0 12 R 12 23 R 12 12 R 23 11 R 47 0 R 23 -11 R
12 -12 R 12 -23 R 0 -24 R -12 -23 R -23 -35 R -117 -117 R 163 0 R D
20 setlinewidth 7618 6912 M 173 0 R D 30 setlinewidth 7414 7017 M
-117 -164 R 175 0 R D 7414 7017 M 0 -246 R D 20 setlinewidth 7618 7618 M
173 0 R D 30 setlinewidth 7449 7688 M -12 23 R -35 12 R -23 0 R -35 -12 R
-24 -35 R -12 -58 R 0 -59 R 12 -46 R 24 -24 R 35 -12 R 11 0 R 35 12 R
24 24 R 11 35 R 0 11 R -11 35 R -24 24 R -35 11 R -11 0 R -35 -11 R
-24 -24 R -12 -35 R D 20 setlinewidth 7618 8325 M 173 0 R D 30 setlinewidth
7355 8429 M -35 -12 R -12 -23 R 0 -23 R 12 -24 R 24 -11 R 46 -12 R 35 -12 R
24 -23 R 11 -23 R 0 -36 R -11 -23 R -12 -12 R -35 -11 R -47 0 R -35 11 R
-12 12 R -11 23 R 0 36 R 11 23 R 24 23 R 35 12 R 47 12 R 23 11 R 12 24 R
0 23 R -12 23 R -35 12 R -47 0 R D 20 setlinewidth 7618 9031 M 173 0 R D
30 setlinewidth 7098 9089 M 24 11 R 35 35 R 0 -245 R D 7367 9135 M -35 -11 R
-24 -35 R -11 -59 R 0 -35 R 11 -58 R 24 -35 R 35 -12 R 23 0 R 35 12 R
24 35 R 11 58 R 0 35 R -11 59 R -24 35 R -35 11 R -23 0 R D 20 setlinewidth
7618 9737 M 173 0 R D 30 setlinewidth 7098 9716 M 24 11 R 35 35 R 0 -245 R D
7308 9704 M 0 12 R 12 23 R 12 12 R 23 11 R 47 0 R 23 -11 R 12 -12 R 12 -23 R
0 -24 R -12 -23 R -23 -35 R -117 -117 R 163 0 R D 20 setlinewidth
7618 5676 M 86 0 R D 7618 5853 M 86 0 R D 7618 6029 M 86 0 R D 7618 6382 M
86 0 R D 7618 6559 M 86 0 R D 7618 6735 M 86 0 R D 7618 7089 M 86 0 R D
7618 7265 M 86 0 R D 7618 7442 M 86 0 R D 7618 7795 M 86 0 R D 7618 7971 M
86 0 R D 7618 8148 M 86 0 R D 7618 8501 M 86 0 R D 7618 8678 M 86 0 R D
7618 8854 M 86 0 R D 7618 9207 M 86 0 R D 7618 9384 M 86 0 R D 7618 9560 M
86 0 R D 11936 5586 M 0 4177 R D 11936 6206 M -173 0 R D 11936 6912 M
-173 0 R D 11936 7618 M -173 0 R D 11936 8325 M -173 0 R D 11936 9031 M
-173 0 R D 11936 9737 M -173 0 R D 11936 5676 M -86 0 R D 11936 5853 M
-86 0 R D 11936 6029 M -86 0 R D 11936 6382 M -86 0 R D 11936 6559 M -86 0 R
D 11936 6735 M -86 0 R D 11936 7089 M -86 0 R D 11936 7265 M -86 0 R D
11936 7442 M -86 0 R D 11936 7795 M -86 0 R D 11936 7971 M -86 0 R D
11936 8148 M -86 0 R D 11936 8501 M -86 0 R D 11936 8678 M -86 0 R D
11936 8854 M -86 0 R D 11936 9207 M -86 0 R D 11936 9384 M -86 0 R D
11936 9560 M -86 0 R D 30 setlinewidth L1 7618 9763 M 432 -1385 R 432 -680 R
518 -465 R 345 -206 R 864 -333 R 863 -199 R 864 -134 R D L2 7678 9763 M
372 -902 R 432 -562 R 518 -412 R 345 -191 R 864 -323 R 863 -205 R 864 -143 R
D L3 7618 9646 M 432 -1209 R 432 -1680 R 518 -180 R 345 -82 R 864 -127 R
863 -58 R 864 -10 R D 80 setlinewidth L0 0.761 0.000 0.000 setrgbcolor
8313 9763 M 169 -434 R 518 -1541 R 345 -571 R 864 -779 R 863 -322 R
864 -120 R D 0.000 0.549 0.000 setrgbcolor 7944 9763 M 106 -711 R
432 -1382 R 518 -822 R 345 -283 R 864 -394 R 863 -152 R 864 -85 R D
0.000 0.000 1.000 setrgbcolor 7918 9763 M 132 -756 R 432 -1094 R 518 -632 R
345 -237 R 864 -385 R 863 -200 R 864 -121 R D 20 setlinewidth
0.000 0.000 0.000 setrgbcolor 12656 5586 M 4318 0 R D 12656 5586 M 0 167 R D
13520 5586 M 0 167 R D 14383 5586 M 0 167 R D 15247 5586 M 0 167 R D
16110 5586 M 0 167 R D 16974 5586 M 0 167 R D 12829 5586 M 0 83 R D
13002 5586 M 0 83 R D 13174 5586 M 0 83 R D 13347 5586 M 0 83 R D
13692 5586 M 0 83 R D 13865 5586 M 0 83 R D 14038 5586 M 0 83 R D
14211 5586 M 0 83 R D 14556 5586 M 0 83 R D 14729 5586 M 0 83 R D
14901 5586 M 0 83 R D 15074 5586 M 0 83 R D 15420 5586 M 0 83 R D
15592 5586 M 0 83 R D 15765 5586 M 0 83 R D 15938 5586 M 0 83 R D
16283 5586 M 0 83 R D 16456 5586 M 0 83 R D 16629 5586 M 0 83 R D
16801 5586 M 0 83 R D 12656 9763 M 4318 0 R D 12656 9763 M 0 -167 R D
13520 9763 M 0 -167 R D 14383 9763 M 0 -167 R D 15247 9763 M 0 -167 R D
16110 9763 M 0 -167 R D 16974 9763 M 0 -167 R D 12829 9763 M 0 -83 R D
13002 9763 M 0 -83 R D 13174 9763 M 0 -83 R D 13347 9763 M 0 -83 R D
13692 9763 M 0 -83 R D 13865 9763 M 0 -83 R D 14038 9763 M 0 -83 R D
14211 9763 M 0 -83 R D 14556 9763 M 0 -83 R D 14729 9763 M 0 -83 R D
14901 9763 M 0 -83 R D 15074 9763 M 0 -83 R D 15420 9763 M 0 -83 R D
15592 9763 M 0 -83 R D 15765 9763 M 0 -83 R D 15938 9763 M 0 -83 R D
16283 9763 M 0 -83 R D 16456 9763 M 0 -83 R D 16629 9763 M 0 -83 R D
16801 9763 M 0 -83 R D 12656 5586 M 0 4177 R D 12656 6182 M 173 0 R D
30 setlinewidth 12475 6287 M -117 0 R -12 -105 R 12 11 R 35 12 R 35 0 R
35 -12 R 24 -23 R 11 -35 R 0 -23 R -11 -35 R -24 -24 R -35 -11 R -35 0 R
-35 11 R -12 12 R -11 23 R D 20 setlinewidth 12656 6865 M 173 0 R D
30 setlinewidth 12136 6923 M 24 12 R 35 35 R 0 -246 R D 12405 6970 M
-35 -12 R -24 -35 R -11 -58 R 0 -35 R 11 -59 R 24 -35 R 35 -12 R 23 0 R
35 12 R 24 35 R 11 59 R 0 35 R -11 58 R -24 35 R -35 12 R -23 0 R D
20 setlinewidth 12656 7548 M 173 0 R D 30 setlinewidth 12136 7606 M 24 12 R
35 35 R 0 -246 R D 12475 7653 M -117 0 R -12 -106 R 12 12 R 35 12 R 35 0 R
35 -12 R 24 -23 R 11 -35 R 0 -24 R -11 -35 R -24 -23 R -35 -12 R -35 0 R
-35 12 R -12 12 R -11 23 R D 20 setlinewidth 12656 8231 M 173 0 R D
30 setlinewidth 12113 8277 M 0 12 R 11 23 R 12 12 R 24 11 R 46 0 R 24 -11 R
11 -12 R 12 -23 R 0 -24 R -12 -23 R -23 -35 R -117 -117 R 164 0 R D
12405 8335 M -35 -11 R -24 -35 R -11 -59 R 0 -35 R 11 -58 R 24 -35 R
35 -12 R 23 0 R 35 12 R 24 35 R 11 58 R 0 35 R -11 59 R -24 35 R -35 11 R
-23 0 R D 20 setlinewidth 12656 8914 M 173 0 R D 30 setlinewidth
12113 8960 M 0 12 R 11 23 R 12 12 R 24 11 R 46 0 R 24 -11 R 11 -12 R
12 -23 R 0 -24 R -12 -23 R -23 -35 R -117 -117 R 164 0 R D 12475 9018 M
-117 0 R -12 -105 R 12 12 R 35 11 R 35 0 R 35 -11 R 24 -24 R 11 -35 R
0 -23 R -11 -35 R -24 -23 R -35 -12 R -35 0 R -35 12 R -12 11 R -11 24 R D
20 setlinewidth 12656 9597 M 173 0 R D 30 setlinewidth 12124 9701 M 129 0 R
-70 -93 R 35 0 R 23 -12 R 12 -12 R 12 -35 R 0 -23 R -12 -35 R -23 -24 R
-35 -11 R -35 0 R -36 11 R -11 12 R -12 23 R D 12405 9701 M -35 -12 R
-24 -35 R -11 -58 R 0 -35 R 11 -59 R 24 -35 R 35 -11 R 23 0 R 35 11 R
24 35 R 11 59 R 0 35 R -11 58 R -24 35 R -35 12 R -23 0 R D 20 setlinewidth
12656 5636 M 86 0 R D 12656 5773 M 86 0 R D 12656 5909 M 86 0 R D
12656 6046 M 86 0 R D 12656 6319 M 86 0 R D 12656 6455 M 86 0 R D
12656 6592 M 86 0 R D 12656 6729 M 86 0 R D 12656 7002 M 86 0 R D
12656 7138 M 86 0 R D 12656 7275 M 86 0 R D 12656 7411 M 86 0 R D
12656 7685 M 86 0 R D 12656 7821 M 86 0 R D 12656 7958 M 86 0 R D
12656 8094 M 86 0 R D 12656 8367 M 86 0 R D 12656 8504 M 86 0 R D
12656 8641 M 86 0 R D 12656 8777 M 86 0 R D 12656 9050 M 86 0 R D
12656 9187 M 86 0 R D 12656 9323 M 86 0 R D 12656 9460 M 86 0 R D
12656 9733 M 86 0 R D 16974 5586 M 0 4177 R D 16974 6182 M -173 0 R D
16974 6865 M -173 0 R D 16974 7548 M -173 0 R D 16974 8231 M -173 0 R D
16974 8914 M -173 0 R D 16974 9597 M -173 0 R D 16974 5636 M -86 0 R D
16974 5773 M -86 0 R D 16974 5909 M -86 0 R D 16974 6046 M -86 0 R D
16974 6319 M -86 0 R D 16974 6455 M -86 0 R D 16974 6592 M -86 0 R D
16974 6729 M -86 0 R D 16974 7002 M -86 0 R D 16974 7138 M -86 0 R D
16974 7275 M -86 0 R D 16974 7411 M -86 0 R D 16974 7685 M -86 0 R D
16974 7821 M -86 0 R D 16974 7958 M -86 0 R D 16974 8094 M -86 0 R D
16974 8367 M -86 0 R D 16974 8504 M -86 0 R D 16974 8641 M -86 0 R D
16974 8777 M -86 0 R D 16974 9050 M -86 0 R D 16974 9187 M -86 0 R D
16974 9323 M -86 0 R D 16974 9460 M -86 0 R D 16974 9733 M -86 0 R D
30 setlinewidth L1 12656 9763 M 432 -1385 R 432 -680 R 518 -465 R 345 -206 R
864 -333 R 863 -199 R 864 -134 R D L2 12656 7652 M 432 -512 R 432 -274 R
518 -201 R 345 -93 R 864 -158 R 863 -100 R 864 -70 R D L3 12656 7713 M
432 -519 R 432 -758 R 518 -137 R 345 -64 R 864 -109 R 863 -68 R 864 -48 R D
80 setlinewidth L0 0.761 0.000 0.000 setrgbcolor 12694 9763 M 394 -1773 R
432 -861 R 518 -532 R 345 -193 R 864 -291 R 863 -124 R 864 -65 R D
0.000 0.549 0.000 setrgbcolor 12656 8336 M 432 -1150 R 432 -523 R 518 -320 R
345 -126 R 864 -174 R 863 -85 R 864 -48 R D 0.000 0.000 1.000 setrgbcolor
12656 7870 M 432 -760 R 432 -345 R 518 -238 R 345 -96 R 864 -148 R 863 -79 R
864 -42 R D 30 setlinewidth 0.000 0.000 0.000 setrgbcolor 17321 7176 M
319 0 R D 17473 7176 M -30 30 R -16 30 R 0 46 R 16 30 R 30 31 R 45 15 R
31 0 R 45 -15 R 31 -31 R 15 -30 R 0 -46 R -15 -30 R -31 -30 R D 17473 7616 M
-30 -15 R -16 -46 R 0 -45 R 16 -46 R 30 -15 R 30 15 R 15 31 R 16 75 R
15 31 R 30 15 R 15 0 R 31 -15 R 15 -46 R 0 -45 R -15 -46 R -31 -15 R D
17382 7753 M -15 30 R -46 46 R 319 0 R D 17427 8026 M 213 0 R D 17518 8026 M
-45 15 R -30 31 R -16 30 R 0 46 R D 17473 8376 M -30 -16 R -16 -45 R 0 -46 R
16 -45 R 30 -16 R 30 16 R 15 30 R 16 76 R 15 30 R 30 16 R 15 0 R 31 -16 R
15 -45 R 0 -46 R -15 -45 R -31 -16 R D 20 setlinewidth 2580 1408 M 4318 0 R
D 2580 1408 M 0 167 R D 30 setlinewidth 2328 1182 M -28 -9 R -19 -28 R
-9 -47 R 0 -28 R 9 -47 R 19 -28 R 28 -9 R 18 0 R 28 9 R 19 28 R 9 47 R
0 28 R -9 47 R -19 28 R -28 9 R -18 0 R D 2477 1004 M -9 -9 R 9 -9 R 10 9 R
-10 9 R D 2608 1182 M -28 -9 R -19 -28 R -9 -47 R 0 -28 R 9 -47 R 19 -28 R
28 -9 R 19 0 R 28 9 R 19 28 R 9 47 R 0 28 R -9 47 R -19 28 R -28 9 R -19 0 R
D 2851 1182 M -93 0 R -10 -84 R 10 9 R 28 10 R 28 0 R 28 -10 R 19 -18 R
9 -29 R 0 -18 R -9 -28 R -19 -19 R -28 -9 R -28 0 R -28 9 R -10 9 R -9 19 R
D 20 setlinewidth 3444 1408 M 0 167 R D 30 setlinewidth 3191 1182 M -28 -9 R
-18 -28 R -10 -47 R 0 -28 R 10 -47 R 18 -28 R 28 -9 R 19 0 R 28 9 R 19 28 R
9 47 R 0 28 R -9 47 R -19 28 R -28 9 R -19 0 R D 3341 1004 M -9 -9 R 9 -9 R
9 9 R -9 9 R D 3444 1145 M 18 9 R 28 28 R 0 -196 R D 3659 1182 M -28 -9 R
-19 -28 R -9 -47 R 0 -28 R 9 -47 R 19 -28 R 28 -9 R 18 0 R 28 9 R 19 28 R
9 47 R 0 28 R -9 47 R -19 28 R -28 9 R -18 0 R D 20 setlinewidth 4307 1408 M
0 167 R D 30 setlinewidth 4055 1182 M -28 -9 R -19 -28 R -9 -47 R 0 -28 R
9 -47 R 19 -28 R 28 -9 R 19 0 R 28 9 R 18 28 R 10 47 R 0 28 R -10 47 R
-18 28 R -28 9 R -19 0 R D 4204 1004 M -9 -9 R 9 -9 R 10 9 R -10 9 R D
4307 1145 M 19 9 R 28 28 R 0 -196 R D 4578 1182 M -93 0 R -9 -84 R 9 9 R
28 10 R 28 0 R 28 -10 R 19 -18 R 9 -29 R 0 -18 R -9 -28 R -19 -19 R -28 -9 R
-28 0 R -28 9 R -9 9 R -10 19 R D 20 setlinewidth 5171 1408 M 0 167 R D
30 setlinewidth 4919 1182 M -29 -9 R -18 -28 R -10 -47 R 0 -28 R 10 -47 R
18 -28 R 29 -9 R 18 0 R 28 9 R 19 28 R 9 47 R 0 28 R -9 47 R -19 28 R
-28 9 R -18 0 R D 5068 1004 M -9 -9 R 9 -9 R 9 9 R -9 9 R D 5152 1135 M
0 10 R 10 18 R 9 10 R 19 9 R 37 0 R 19 -9 R 9 -10 R 9 -18 R 0 -19 R -9 -19 R
-19 -28 R -93 -93 R 131 0 R D 5386 1182 M -28 -9 R -19 -28 R -9 -47 R
0 -28 R 9 -47 R 19 -28 R 28 -9 R 19 0 R 28 9 R 18 28 R 10 47 R 0 28 R
-10 47 R -18 28 R -28 9 R -19 0 R D 20 setlinewidth 6034 1408 M 0 167 R D
30 setlinewidth 5782 1182 M -28 -9 R -19 -28 R -9 -47 R 0 -28 R 9 -47 R
19 -28 R 28 -9 R 19 0 R 28 9 R 19 28 R 9 47 R 0 28 R -9 47 R -19 28 R
-28 9 R -19 0 R D 5932 1004 M -10 -9 R 10 -9 R 9 9 R -9 9 R D 6016 1135 M
0 10 R 9 18 R 9 10 R 19 9 R 38 0 R 18 -9 R 10 -10 R 9 -18 R 0 -19 R -9 -19 R
-19 -28 R -94 -93 R 131 0 R D 6306 1182 M -94 0 R -9 -84 R 9 9 R 28 10 R
28 0 R 28 -10 R 19 -18 R 9 -29 R 0 -18 R -9 -28 R -19 -19 R -28 -9 R -28 0 R
-28 9 R -9 9 R -10 19 R D 20 setlinewidth 6898 1408 M 0 167 R D
30 setlinewidth 6646 1182 M -28 -9 R -19 -28 R -9 -47 R 0 -28 R 9 -47 R
19 -28 R 28 -9 R 18 0 R 28 9 R 19 28 R 9 47 R 0 28 R -9 47 R -19 28 R
-28 9 R -18 0 R D 6795 1004 M -9 -9 R 9 -9 R 10 9 R -10 9 R D 6889 1182 M
103 0 R -57 -75 R 29 0 R 18 -9 R 10 -9 R 9 -29 R 0 -18 R -9 -28 R -19 -19 R
-28 -9 R -28 0 R -28 9 R -10 9 R -9 19 R D 7113 1182 M -28 -9 R -19 -28 R
-9 -47 R 0 -28 R 9 -47 R 19 -28 R 28 -9 R 19 0 R 28 9 R 19 28 R 9 47 R
0 28 R -9 47 R -19 28 R -28 9 R -19 0 R D 20 setlinewidth 2753 1408 M 0 84 R
D 2926 1408 M 0 84 R D 3098 1408 M 0 84 R D 3271 1408 M 0 84 R D 3616 1408 M
0 84 R D 3789 1408 M 0 84 R D 3962 1408 M 0 84 R D 4135 1408 M 0 84 R D
4480 1408 M 0 84 R D 4653 1408 M 0 84 R D 4825 1408 M 0 84 R D 4998 1408 M
0 84 R D 5344 1408 M 0 84 R D 5516 1408 M 0 84 R D 5689 1408 M 0 84 R D
5862 1408 M 0 84 R D 6207 1408 M 0 84 R D 6380 1408 M 0 84 R D 6553 1408 M
0 84 R D 6725 1408 M 0 84 R D 2580 5586 M 4318 0 R D 2580 5586 M 0 -167 R D
3444 5586 M 0 -167 R D 4307 5586 M 0 -167 R D 5171 5586 M 0 -167 R D
6034 5586 M 0 -167 R D 6898 5586 M 0 -167 R D 2753 5586 M 0 -84 R D
2926 5586 M 0 -84 R D 3098 5586 M 0 -84 R D 3271 5586 M 0 -84 R D
3616 5586 M 0 -84 R D 3789 5586 M 0 -84 R D 3962 5586 M 0 -84 R D
4135 5586 M 0 -84 R D 4480 5586 M 0 -84 R D 4653 5586 M 0 -84 R D
4825 5586 M 0 -84 R D 4998 5586 M 0 -84 R D 5344 5586 M 0 -84 R D
5516 5586 M 0 -84 R D 5689 5586 M 0 -84 R D 5862 5586 M 0 -84 R D
6207 5586 M 0 -84 R D 6380 5586 M 0 -84 R D 6553 5586 M 0 -84 R D
6725 5586 M 0 -84 R D 2580 1408 M 0 4178 R D 2580 2355 M 173 0 R D
30 setlinewidth 2270 2401 M 0 11 R 12 24 R 12 12 R 23 11 R 47 0 R 23 -11 R
12 -12 R 12 -24 R 0 -23 R -12 -23 R -23 -35 R -117 -117 R 163 0 R D
20 setlinewidth 2580 3387 M 173 0 R D 30 setlinewidth 2376 3492 M
-117 -164 R 175 0 R D 2376 3492 M 0 -245 R D 20 setlinewidth 2580 4420 M
173 0 R D 30 setlinewidth 2411 4490 M -12 23 R -35 12 R -23 0 R -35 -12 R
-24 -35 R -12 -58 R 0 -59 R 12 -47 R 24 -23 R 35 -12 R 11 0 R 35 12 R
24 23 R 11 35 R 0 12 R -11 35 R -24 24 R -35 11 R -11 0 R -35 -11 R
-24 -24 R -12 -35 R D 20 setlinewidth 2580 5453 M 173 0 R D 30 setlinewidth
2317 5557 M -35 -11 R -12 -24 R 0 -23 R 12 -23 R 24 -12 R 46 -12 R 35 -11 R
24 -24 R 11 -23 R 0 -35 R -11 -24 R -12 -11 R -35 -12 R -47 0 R -35 12 R
-12 11 R -11 24 R 0 35 R 11 23 R 24 24 R 35 11 R 47 12 R 23 12 R 12 23 R
0 23 R -12 24 R -35 11 R -47 0 R D 20 setlinewidth 2580 1580 M 86 0 R D
2580 1838 M 86 0 R D 2580 2096 M 86 0 R D 2580 2613 M 86 0 R D 2580 2871 M
86 0 R D 2580 3129 M 86 0 R D 2580 3646 M 86 0 R D 2580 3904 M 86 0 R D
2580 4162 M 86 0 R D 2580 4678 M 86 0 R D 2580 4936 M 86 0 R D 2580 5195 M
86 0 R D 6898 1408 M 0 4178 R D 6898 2355 M -173 0 R D 6898 3387 M -173 0 R
D 6898 4420 M -173 0 R D 6898 5453 M -173 0 R D 6898 1580 M -86 0 R D
6898 1838 M -86 0 R D 6898 2096 M -86 0 R D 6898 2613 M -86 0 R D
6898 2871 M -86 0 R D 6898 3129 M -86 0 R D 6898 3646 M -86 0 R D
6898 3904 M -86 0 R D 6898 4162 M -86 0 R D 6898 4678 M -86 0 R D
6898 4936 M -86 0 R D 6898 5195 M -86 0 R D 30 setlinewidth L1 2580 5585 M
432 -1385 R 432 -679 R 518 -466 R 345 -205 R 864 -333 R 863 -200 R
864 -133 R D L2 3009 5585 M 3 -7 R 432 -712 R 518 -521 R 345 -242 R
864 -410 R 863 -259 R 864 -180 R D L3 2580 5575 M 432 -1113 R 432 -2006 R
518 -159 R 345 -71 R 864 -102 R 863 -28 R 864 35 R D 80 setlinewidth L0
0.761 0.000 0.000 setrgbcolor 3757 5585 M 205 -583 R 345 -1236 R 864 -1484 R
863 -290 R 864 -141 R D 0.000 0.549 0.000 setrgbcolor 3211 5585 M
233 -1452 R 518 -1343 R 345 -392 R 864 -358 R 863 -171 R 864 -46 R D
0.000 0.000 1.000 setrgbcolor 3232 5585 M 212 -945 R 518 -1160 R 345 -438 R
864 -532 R 863 -220 R 864 -88 R D 20 setlinewidth
0.000 0.000 0.000 setrgbcolor 7618 1408 M 4318 0 R D 7618 1408 M 0 167 R D
30 setlinewidth 7366 1182 M -28 -9 R -19 -28 R -9 -47 R 0 -28 R 9 -47 R
19 -28 R 28 -9 R 18 0 R 28 9 R 19 28 R 9 47 R 0 28 R -9 47 R -19 28 R
-28 9 R -18 0 R D 7515 1004 M -9 -9 R 9 -9 R 10 9 R -10 9 R D 7646 1182 M
-28 -9 R -19 -28 R -9 -47 R 0 -28 R 9 -47 R 19 -28 R 28 -9 R 19 0 R 28 9 R
19 28 R 9 47 R 0 28 R -9 47 R -19 28 R -28 9 R -19 0 R D 7889 1182 M -93 0 R
-10 -84 R 10 9 R 28 10 R 28 0 R 28 -10 R 19 -18 R 9 -29 R 0 -18 R -9 -28 R
-19 -19 R -28 -9 R -28 0 R -28 9 R -10 9 R -9 19 R D 20 setlinewidth
8482 1408 M 0 167 R D 30 setlinewidth 8229 1182 M -28 -9 R -18 -28 R
-10 -47 R 0 -28 R 10 -47 R 18 -28 R 28 -9 R 19 0 R 28 9 R 19 28 R 9 47 R
0 28 R -9 47 R -19 28 R -28 9 R -19 0 R D 8379 1004 M -9 -9 R 9 -9 R 9 9 R
-9 9 R D 8482 1145 M 18 9 R 28 28 R 0 -196 R D 8697 1182 M -28 -9 R
-19 -28 R -9 -47 R 0 -28 R 9 -47 R 19 -28 R 28 -9 R 18 0 R 28 9 R 19 28 R
9 47 R 0 28 R -9 47 R -19 28 R -28 9 R -18 0 R D 20 setlinewidth 9345 1408 M
0 167 R D 30 setlinewidth 9093 1182 M -28 -9 R -19 -28 R -9 -47 R 0 -28 R
9 -47 R 19 -28 R 28 -9 R 19 0 R 28 9 R 18 28 R 10 47 R 0 28 R -10 47 R
-18 28 R -28 9 R -19 0 R D 9242 1004 M -9 -9 R 9 -9 R 10 9 R -10 9 R D
9345 1145 M 19 9 R 28 28 R 0 -196 R D 9616 1182 M -93 0 R -9 -84 R 9 9 R
28 10 R 28 0 R 28 -10 R 19 -18 R 9 -29 R 0 -18 R -9 -28 R -19 -19 R -28 -9 R
-28 0 R -28 9 R -9 9 R -10 19 R D 20 setlinewidth 10209 1408 M 0 167 R D
30 setlinewidth 9957 1182 M -29 -9 R -18 -28 R -10 -47 R 0 -28 R 10 -47 R
18 -28 R 29 -9 R 18 0 R 28 9 R 19 28 R 9 47 R 0 28 R -9 47 R -19 28 R
-28 9 R -18 0 R D 10106 1004 M -9 -9 R 9 -9 R 9 9 R -9 9 R D 10190 1135 M
0 10 R 10 18 R 9 10 R 19 9 R 37 0 R 19 -9 R 9 -10 R 9 -18 R 0 -19 R -9 -19 R
-19 -28 R -93 -93 R 131 0 R D 10424 1182 M -28 -9 R -19 -28 R -9 -47 R
0 -28 R 9 -47 R 19 -28 R 28 -9 R 19 0 R 28 9 R 18 28 R 10 47 R 0 28 R
-10 47 R -18 28 R -28 9 R -19 0 R D 20 setlinewidth 11072 1408 M 0 167 R D
30 setlinewidth 10820 1182 M -28 -9 R -19 -28 R -9 -47 R 0 -28 R 9 -47 R
19 -28 R 28 -9 R 19 0 R 28 9 R 19 28 R 9 47 R 0 28 R -9 47 R -19 28 R
-28 9 R -19 0 R D 10970 1004 M -10 -9 R 10 -9 R 9 9 R -9 9 R D 11054 1135 M
0 10 R 9 18 R 9 10 R 19 9 R 38 0 R 18 -9 R 10 -10 R 9 -18 R 0 -19 R -9 -19 R
-19 -28 R -94 -93 R 131 0 R D 11344 1182 M -94 0 R -9 -84 R 9 9 R 28 10 R
28 0 R 28 -10 R 19 -18 R 9 -29 R 0 -18 R -9 -28 R -19 -19 R -28 -9 R -28 0 R
-28 9 R -9 9 R -10 19 R D 20 setlinewidth 11936 1408 M 0 167 R D
30 setlinewidth 11684 1182 M -28 -9 R -19 -28 R -9 -47 R 0 -28 R 9 -47 R
19 -28 R 28 -9 R 18 0 R 28 9 R 19 28 R 9 47 R 0 28 R -9 47 R -19 28 R
-28 9 R -18 0 R D 11833 1004 M -9 -9 R 9 -9 R 10 9 R -10 9 R D 11927 1182 M
103 0 R -57 -75 R 29 0 R 18 -9 R 10 -9 R 9 -29 R 0 -18 R -9 -28 R -19 -19 R
-28 -9 R -28 0 R -28 9 R -10 9 R -9 19 R D 12151 1182 M -28 -9 R -19 -28 R
-9 -47 R 0 -28 R 9 -47 R 19 -28 R 28 -9 R 19 0 R 28 9 R 19 28 R 9 47 R
0 28 R -9 47 R -19 28 R -28 9 R -19 0 R D 20 setlinewidth 7791 1408 M 0 84 R
D 7964 1408 M 0 84 R D 8136 1408 M 0 84 R D 8309 1408 M 0 84 R D 8654 1408 M
0 84 R D 8827 1408 M 0 84 R D 9000 1408 M 0 84 R D 9173 1408 M 0 84 R D
9518 1408 M 0 84 R D 9691 1408 M 0 84 R D 9863 1408 M 0 84 R D 10036 1408 M
0 84 R D 10382 1408 M 0 84 R D 10554 1408 M 0 84 R D 10727 1408 M 0 84 R D
10900 1408 M 0 84 R D 11245 1408 M 0 84 R D 11418 1408 M 0 84 R D
11591 1408 M 0 84 R D 11763 1408 M 0 84 R D 7618 5586 M 4318 0 R D
7618 5586 M 0 -167 R D 8482 5586 M 0 -167 R D 9345 5586 M 0 -167 R D
10209 5586 M 0 -167 R D 11072 5586 M 0 -167 R D 11936 5586 M 0 -167 R D
7791 5586 M 0 -84 R D 7964 5586 M 0 -84 R D 8136 5586 M 0 -84 R D
8309 5586 M 0 -84 R D 8654 5586 M 0 -84 R D 8827 5586 M 0 -84 R D
9000 5586 M 0 -84 R D 9173 5586 M 0 -84 R D 9518 5586 M 0 -84 R D
9691 5586 M 0 -84 R D 9863 5586 M 0 -84 R D 10036 5586 M 0 -84 R D
10382 5586 M 0 -84 R D 10554 5586 M 0 -84 R D 10727 5586 M 0 -84 R D
10900 5586 M 0 -84 R D 11245 5586 M 0 -84 R D 11418 5586 M 0 -84 R D
11591 5586 M 0 -84 R D 11763 5586 M 0 -84 R D 7618 1408 M 0 4178 R D
7618 2028 M 173 0 R D 30 setlinewidth 7308 2074 M 0 12 R 12 23 R 12 12 R
23 12 R 47 0 R 23 -12 R 12 -12 R 12 -23 R 0 -23 R -12 -24 R -23 -35 R
-117 -117 R 163 0 R D 20 setlinewidth 7618 2734 M 173 0 R D 30 setlinewidth
7414 2839 M -117 -164 R 175 0 R D 7414 2839 M 0 -245 R D 20 setlinewidth
7618 3441 M 173 0 R D 30 setlinewidth 7449 3510 M -12 24 R -35 11 R -23 0 R
-35 -11 R -24 -36 R -12 -58 R 0 -58 R 12 -47 R 24 -23 R 35 -12 R 11 0 R
35 12 R 24 23 R 11 35 R 0 12 R -11 35 R -24 23 R -35 12 R -11 0 R -35 -12 R
-24 -23 R -12 -35 R D 20 setlinewidth 7618 4147 M 173 0 R D 30 setlinewidth
7355 4251 M -35 -11 R -12 -24 R 0 -23 R 12 -23 R 24 -12 R 46 -12 R 35 -11 R
24 -24 R 11 -23 R 0 -35 R -11 -24 R -12 -11 R -35 -12 R -47 0 R -35 12 R
-12 11 R -11 24 R 0 35 R 11 23 R 24 24 R 35 11 R 47 12 R 23 12 R 12 23 R
0 23 R -12 24 R -35 11 R -47 0 R D 20 setlinewidth 7618 4853 M 173 0 R D
30 setlinewidth 7098 4911 M 24 12 R 35 35 R 0 -246 R D 7367 4958 M -35 -12 R
-24 -35 R -11 -58 R 0 -35 R 11 -59 R 24 -35 R 35 -12 R 23 0 R 35 12 R
24 35 R 11 59 R 0 35 R -11 58 R -24 35 R -35 12 R -23 0 R D 20 setlinewidth
7618 5559 M 173 0 R D 30 setlinewidth 7098 5538 M 24 12 R 35 35 R 0 -246 R D
7308 5526 M 0 12 R 12 23 R 12 12 R 23 12 R 47 0 R 23 -12 R 12 -12 R 12 -23 R
0 -23 R -12 -24 R -23 -35 R -117 -117 R 163 0 R D 20 setlinewidth
7618 1498 M 86 0 R D 7618 1675 M 86 0 R D 7618 1852 M 86 0 R D 7618 2205 M
86 0 R D 7618 2381 M 86 0 R D 7618 2558 M 86 0 R D 7618 2911 M 86 0 R D
7618 3088 M 86 0 R D 7618 3264 M 86 0 R D 7618 3617 M 86 0 R D 7618 3794 M
86 0 R D 7618 3970 M 86 0 R D 7618 4323 M 86 0 R D 7618 4500 M 86 0 R D
7618 4677 M 86 0 R D 7618 5030 M 86 0 R D 7618 5206 M 86 0 R D 7618 5383 M
86 0 R D 11936 1408 M 0 4178 R D 11936 2028 M -173 0 R D 11936 2734 M
-173 0 R D 11936 3441 M -173 0 R D 11936 4147 M -173 0 R D 11936 4853 M
-173 0 R D 11936 5559 M -173 0 R D 11936 1498 M -86 0 R D 11936 1675 M
-86 0 R D 11936 1852 M -86 0 R D 11936 2205 M -86 0 R D 11936 2381 M -86 0 R
D 11936 2558 M -86 0 R D 11936 2911 M -86 0 R D 11936 3088 M -86 0 R D
11936 3264 M -86 0 R D 11936 3617 M -86 0 R D 11936 3794 M -86 0 R D
11936 3970 M -86 0 R D 11936 4323 M -86 0 R D 11936 4500 M -86 0 R D
11936 4677 M -86 0 R D 11936 5030 M -86 0 R D 11936 5206 M -86 0 R D
11936 5383 M -86 0 R D 30 setlinewidth L1 7618 5585 M 432 -1385 R 432 -679 R
518 -466 R 345 -205 R 864 -333 R 863 -200 R 864 -133 R D L2 7678 5585 M
372 -902 R 432 -562 R 518 -411 R 345 -191 R 864 -324 R 863 -205 R 864 -142 R
D L3 7618 5469 M 432 -1210 R 432 -1679 R 518 -181 R 345 -81 R 864 -127 R
863 -59 R 864 -10 R D 80 setlinewidth L0 0.761 0.000 0.000 setrgbcolor
8705 5585 M 295 -952 R 345 -1020 R 864 -1309 R 863 -366 R 864 -120 R D
0.000 0.549 0.000 setrgbcolor 8174 5585 M 308 -1644 R 518 -1162 R 345 -388 R
864 -398 R 863 -151 R 864 -86 R D 0.000 0.000 1.000 setrgbcolor 8158 5585 M
324 -1262 R 518 -982 R 345 -349 R 864 -504 R 863 -203 R 864 -125 R D
20 setlinewidth 0.000 0.000 0.000 setrgbcolor 12656 1408 M 4318 0 R D
12656 1408 M 0 167 R D 30 setlinewidth 12404 1182 M -28 -9 R -19 -28 R
-9 -47 R 0 -28 R 9 -47 R 19 -28 R 28 -9 R 18 0 R 28 9 R 19 28 R 9 47 R
0 28 R -9 47 R -19 28 R -28 9 R -18 0 R D 12553 1004 M -9 -9 R 9 -9 R 10 9 R
-10 9 R D 12684 1182 M -28 -9 R -19 -28 R -9 -47 R 0 -28 R 9 -47 R 19 -28 R
28 -9 R 19 0 R 28 9 R 19 28 R 9 47 R 0 28 R -9 47 R -19 28 R -28 9 R -19 0 R
D 12927 1182 M -93 0 R -10 -84 R 10 9 R 28 10 R 28 0 R 28 -10 R 19 -18 R
9 -29 R 0 -18 R -9 -28 R -19 -19 R -28 -9 R -28 0 R -28 9 R -10 9 R -9 19 R
D 20 setlinewidth 13520 1408 M 0 167 R D 30 setlinewidth 13267 1182 M
-28 -9 R -18 -28 R -10 -47 R 0 -28 R 10 -47 R 18 -28 R 28 -9 R 19 0 R 28 9 R
19 28 R 9 47 R 0 28 R -9 47 R -19 28 R -28 9 R -19 0 R D 13417 1004 M
-9 -9 R 9 -9 R 9 9 R -9 9 R D 13520 1145 M 18 9 R 28 28 R 0 -196 R D
13735 1182 M -28 -9 R -19 -28 R -9 -47 R 0 -28 R 9 -47 R 19 -28 R 28 -9 R
18 0 R 28 9 R 19 28 R 9 47 R 0 28 R -9 47 R -19 28 R -28 9 R -18 0 R D
20 setlinewidth 14383 1408 M 0 167 R D 30 setlinewidth 14131 1182 M -28 -9 R
-19 -28 R -9 -47 R 0 -28 R 9 -47 R 19 -28 R 28 -9 R 19 0 R 28 9 R 18 28 R
10 47 R 0 28 R -10 47 R -18 28 R -28 9 R -19 0 R D 14280 1004 M -9 -9 R
9 -9 R 10 9 R -10 9 R D 14383 1145 M 19 9 R 28 28 R 0 -196 R D 14654 1182 M
-93 0 R -9 -84 R 9 9 R 28 10 R 28 0 R 28 -10 R 19 -18 R 9 -29 R 0 -18 R
-9 -28 R -19 -19 R -28 -9 R -28 0 R -28 9 R -9 9 R -10 19 R D
20 setlinewidth 15247 1408 M 0 167 R D 30 setlinewidth 14995 1182 M -29 -9 R
-18 -28 R -10 -47 R 0 -28 R 10 -47 R 18 -28 R 29 -9 R 18 0 R 28 9 R 19 28 R
9 47 R 0 28 R -9 47 R -19 28 R -28 9 R -18 0 R D 15144 1004 M -9 -9 R 9 -9 R
9 9 R -9 9 R D 15228 1135 M 0 10 R 10 18 R 9 10 R 19 9 R 37 0 R 19 -9 R
9 -10 R 9 -18 R 0 -19 R -9 -19 R -19 -28 R -93 -93 R 131 0 R D 15462 1182 M
-28 -9 R -19 -28 R -9 -47 R 0 -28 R 9 -47 R 19 -28 R 28 -9 R 19 0 R 28 9 R
18 28 R 10 47 R 0 28 R -10 47 R -18 28 R -28 9 R -19 0 R D 20 setlinewidth
16110 1408 M 0 167 R D 30 setlinewidth 15858 1182 M -28 -9 R -19 -28 R
-9 -47 R 0 -28 R 9 -47 R 19 -28 R 28 -9 R 19 0 R 28 9 R 19 28 R 9 47 R
0 28 R -9 47 R -19 28 R -28 9 R -19 0 R D 16008 1004 M -10 -9 R 10 -9 R
9 9 R -9 9 R D 16092 1135 M 0 10 R 9 18 R 9 10 R 19 9 R 38 0 R 18 -9 R
10 -10 R 9 -18 R 0 -19 R -9 -19 R -19 -28 R -94 -93 R 131 0 R D 16382 1182 M
-94 0 R -9 -84 R 9 9 R 28 10 R 28 0 R 28 -10 R 19 -18 R 9 -29 R 0 -18 R
-9 -28 R -19 -19 R -28 -9 R -28 0 R -28 9 R -9 9 R -10 19 R D
20 setlinewidth 16974 1408 M 0 167 R D 30 setlinewidth 16722 1182 M -28 -9 R
-19 -28 R -9 -47 R 0 -28 R 9 -47 R 19 -28 R 28 -9 R 18 0 R 28 9 R 19 28 R
9 47 R 0 28 R -9 47 R -19 28 R -28 9 R -18 0 R D 16871 1004 M -9 -9 R 9 -9 R
10 9 R -10 9 R D 16965 1182 M 103 0 R -57 -75 R 29 0 R 18 -9 R 10 -9 R
9 -29 R 0 -18 R -9 -28 R -19 -19 R -28 -9 R -28 0 R -28 9 R -10 9 R -9 19 R
D 17189 1182 M -28 -9 R -19 -28 R -9 -47 R 0 -28 R 9 -47 R 19 -28 R 28 -9 R
19 0 R 28 9 R 19 28 R 9 47 R 0 28 R -9 47 R -19 28 R -28 9 R -19 0 R D
20 setlinewidth 12829 1408 M 0 84 R D 13002 1408 M 0 84 R D 13174 1408 M
0 84 R D 13347 1408 M 0 84 R D 13692 1408 M 0 84 R D 13865 1408 M 0 84 R D
14038 1408 M 0 84 R D 14211 1408 M 0 84 R D 14556 1408 M 0 84 R D
14729 1408 M 0 84 R D 14901 1408 M 0 84 R D 15074 1408 M 0 84 R D
15420 1408 M 0 84 R D 15592 1408 M 0 84 R D 15765 1408 M 0 84 R D
15938 1408 M 0 84 R D 16283 1408 M 0 84 R D 16456 1408 M 0 84 R D
16629 1408 M 0 84 R D 16801 1408 M 0 84 R D 12656 5586 M 4318 0 R D
12656 5586 M 0 -167 R D 13520 5586 M 0 -167 R D 14383 5586 M 0 -167 R D
15247 5586 M 0 -167 R D 16110 5586 M 0 -167 R D 16974 5586 M 0 -167 R D
12829 5586 M 0 -84 R D 13002 5586 M 0 -84 R D 13174 5586 M 0 -84 R D
13347 5586 M 0 -84 R D 13692 5586 M 0 -84 R D 13865 5586 M 0 -84 R D
14038 5586 M 0 -84 R D 14211 5586 M 0 -84 R D 14556 5586 M 0 -84 R D
14729 5586 M 0 -84 R D 14901 5586 M 0 -84 R D 15074 5586 M 0 -84 R D
15420 5586 M 0 -84 R D 15592 5586 M 0 -84 R D 15765 5586 M 0 -84 R D
15938 5586 M 0 -84 R D 16283 5586 M 0 -84 R D 16456 5586 M 0 -84 R D
16629 5586 M 0 -84 R D 16801 5586 M 0 -84 R D 12656 1408 M 0 4178 R D
12656 2005 M 173 0 R D 30 setlinewidth 12475 2109 M -117 0 R -12 -105 R
12 12 R 35 12 R 35 0 R 35 -12 R 24 -24 R 11 -35 R 0 -23 R -11 -35 R
-24 -23 R -35 -12 R -35 0 R -35 12 R -12 11 R -11 24 R D 20 setlinewidth
12656 2688 M 173 0 R D 30 setlinewidth 12136 2745 M 24 12 R 35 35 R 0 -245 R
D 12405 2792 M -35 -12 R -24 -35 R -11 -58 R 0 -35 R 11 -58 R 24 -36 R
35 -11 R 23 0 R 35 11 R 24 36 R 11 58 R 0 35 R -11 58 R -24 35 R -35 12 R
-23 0 R D 20 setlinewidth 12656 3370 M 173 0 R D 30 setlinewidth
12136 3428 M 24 12 R 35 35 R 0 -245 R D 12475 3475 M -117 0 R -12 -105 R
12 12 R 35 11 R 35 0 R 35 -11 R 24 -24 R 11 -35 R 0 -23 R -11 -35 R
-24 -24 R -35 -11 R -35 0 R -35 11 R -12 12 R -11 23 R D 20 setlinewidth
12656 4053 M 173 0 R D 30 setlinewidth 12113 4099 M 0 12 R 11 23 R 12 12 R
24 12 R 46 0 R 24 -12 R 11 -12 R 12 -23 R 0 -23 R -12 -24 R -23 -35 R
-117 -117 R 164 0 R D 12405 4158 M -35 -12 R -24 -35 R -11 -58 R 0 -35 R
11 -59 R 24 -35 R 35 -12 R 23 0 R 35 12 R 24 35 R 11 59 R 0 35 R -11 58 R
-24 35 R -35 12 R -23 0 R D 20 setlinewidth 12656 4736 M 173 0 R D
30 setlinewidth 12113 4782 M 0 12 R 11 23 R 12 12 R 24 12 R 46 0 R 24 -12 R
11 -12 R 12 -23 R 0 -23 R -12 -24 R -23 -35 R -117 -117 R 164 0 R D
12475 4841 M -117 0 R -12 -105 R 12 11 R 35 12 R 35 0 R 35 -12 R 24 -23 R
11 -35 R 0 -24 R -11 -35 R -24 -23 R -35 -12 R -35 0 R -35 12 R -12 12 R
-11 23 R D 20 setlinewidth 12656 5419 M 173 0 R D 30 setlinewidth
12124 5524 M 129 0 R -70 -94 R 35 0 R 23 -12 R 12 -11 R 12 -35 R 0 -24 R
-12 -35 R -23 -23 R -35 -12 R -35 0 R -36 12 R -11 12 R -12 23 R D
12405 5524 M -35 -12 R -24 -35 R -11 -59 R 0 -35 R 11 -58 R 24 -35 R
35 -12 R 23 0 R 35 12 R 24 35 R 11 58 R 0 35 R -11 59 R -24 35 R -35 12 R
-23 0 R D 20 setlinewidth 12656 1458 M 86 0 R D 12656 1595 M 86 0 R D
12656 1732 M 86 0 R D 12656 1868 M 86 0 R D 12656 2141 M 86 0 R D
12656 2278 M 86 0 R D 12656 2414 M 86 0 R D 12656 2551 M 86 0 R D
12656 2824 M 86 0 R D 12656 2961 M 86 0 R D 12656 3097 M 86 0 R D
12656 3234 M 86 0 R D 12656 3507 M 86 0 R D 12656 3644 M 86 0 R D
12656 3780 M 86 0 R D 12656 3917 M 86 0 R D 12656 4190 M 86 0 R D
12656 4326 M 86 0 R D 12656 4463 M 86 0 R D 12656 4600 M 86 0 R D
12656 4873 M 86 0 R D 12656 5009 M 86 0 R D 12656 5146 M 86 0 R D
12656 5282 M 86 0 R D 12656 5556 M 86 0 R D 16974 1408 M 0 4178 R D
16974 2005 M -173 0 R D 16974 2688 M -173 0 R D 16974 3370 M -173 0 R D
16974 4053 M -173 0 R D 16974 4736 M -173 0 R D 16974 5419 M -173 0 R D
16974 1458 M -86 0 R D 16974 1595 M -86 0 R D 16974 1732 M -86 0 R D
16974 1868 M -86 0 R D 16974 2141 M -86 0 R D 16974 2278 M -86 0 R D
16974 2414 M -86 0 R D 16974 2551 M -86 0 R D 16974 2824 M -86 0 R D
16974 2961 M -86 0 R D 16974 3097 M -86 0 R D 16974 3234 M -86 0 R D
16974 3507 M -86 0 R D 16974 3644 M -86 0 R D 16974 3780 M -86 0 R D
16974 3917 M -86 0 R D 16974 4190 M -86 0 R D 16974 4326 M -86 0 R D
16974 4463 M -86 0 R D 16974 4600 M -86 0 R D 16974 4873 M -86 0 R D
16974 5009 M -86 0 R D 16974 5146 M -86 0 R D 16974 5282 M -86 0 R D
16974 5556 M -86 0 R D 30 setlinewidth L1 12656 5585 M 432 -1385 R
432 -679 R 518 -466 R 345 -205 R 864 -333 R 863 -200 R 864 -133 R D L2
12656 3474 M 432 -511 R 432 -275 R 518 -201 R 345 -93 R 864 -158 R
863 -100 R 864 -69 R D L3 12656 3535 M 432 -518 R 432 -758 R 518 -138 R
345 -64 R 864 -108 R 863 -69 R 864 -47 R D 80 setlinewidth L0
0.761 0.000 0.000 setrgbcolor 12922 5585 M 166 -921 R 432 -1301 R 518 -745 R
345 -304 R 864 -375 R 863 -127 R 864 -66 R D 0.000 0.549 0.000 setrgbcolor
12656 4659 M 432 -1487 R 432 -632 R 518 -366 R 345 -135 R 864 -173 R
863 -86 R 864 -47 R D 0.000 0.000 1.000 setrgbcolor 12656 4084 M 432 -970 R
432 -453 R 518 -282 R 345 -113 R 864 -160 R 863 -79 R 864 -43 R D
30 setlinewidth 0.000 0.000 0.000 setrgbcolor 17321 2806 M 319 0 R D
17473 2806 M -30 30 R -16 30 R 0 46 R 16 30 R 30 31 R 45 15 R 31 0 R
45 -15 R 31 -31 R 15 -30 R 0 -46 R -15 -30 R -31 -30 R D 17473 3246 M
-30 -15 R -16 -46 R 0 -45 R 16 -46 R 30 -15 R 30 15 R 15 31 R 16 75 R
15 31 R 30 15 R 15 0 R 31 -15 R 15 -46 R 0 -45 R -15 -46 R -31 -15 R D
17382 3383 M -15 30 R -46 46 R 319 0 R D 17427 3656 M 213 0 R D 17518 3656 M
-45 15 R -30 31 R -16 30 R 0 46 R D 17473 4006 M -30 -16 R -16 -45 R 0 -46 R
16 -45 R 30 -16 R 30 16 R 15 30 R 16 76 R 15 30 R 30 16 R 15 0 R 31 -16 R
15 -45 R 0 -46 R -15 -45 R -31 -16 R D 17321 4112 M 319 0 R D 17488 4112 M
-45 45 R -16 31 R 0 45 R 16 31 R 45 15 R 152 0 R D
%%PageTrailer
end
%%PageResources: font Helvetica
%%Trailer
%%Pages: 1
%%DocumentNeededResources: font Helvetica
%%EOF
