%!PS-Adobe-3.0 EPSF-3.0
%%BoundingBox: 0 0 510 651
%%Title: Graphics produced by IDL
%%For: jlgan@aida119, /home/jlgan/work/subhalo_model
%%Creator: IDL Version 7.0 (linux x86_64 m64)
%%CreationDate: Fri Jun  5 13:25:16 2009
%%DocumentData: Clean7bit
%%Requirements: color
%%LanguageLevel: 1
%%PageOrder: Ascend
%%Pages: (atend)
%%DocumentNeededResources: (atend)
%%EndComments
%%BeginProlog
%+ prolog.ps -- Prolog for IDL generated PostScript files
%+ Copyright (c) 1988-2007 ITT Visual Information Solutions. All Rights Reserved.
%v 5
/$IDL_DICT 40 dict def $IDL_DICT begin /bdef { bind def } bind def /C
{currentpoint newpath moveto} bdef /CP {currentpoint} bdef /D {currentpoint
stroke moveto} bdef /F {closepath fill} bdef /K { setgray } bdef /M {moveto}
bdef /N {rmoveto} bdef /P {lineto} bdef /R {rlineto} bdef /S {gsave show
grestore} bdef /X {currentpoint pop} bdef /Z {gsave currentpoint lineto 20
setlinewidth 1 setlinecap stroke grestore} bdef /L0 {[] 0 setdash} bdef /L1
{[40 100] 0 setdash} bdef /L2 {[200 200] 0 setdash} bdef /L3 {[200 100 50
100] 0 setdash} bdef /L4 {[300 100 50 100 50 100 50 100] 0 setdash} bdef /L5
{[400 200] 0 setdash} bdef /STDFONT { findfont exch scalefont setfont } bdef
/ISOFONT { findfont dup length dict begin { 1 index /FID ne {def} {pop pop}
ifelse } forall /Encoding ISOLatin1Encoding def currentdict end /idltmpfont
exch definefont exch scalefont setfont } bdef /ISOBULLET { gsave /Helvetica
findfont exch scalefont setfont (\267) show currentpoint grestore moveto}
bdef /MITERLIMIT { 2.5 setmiterlimit } bdef end
%%EndProlog
%%Page: 0 1
%%PageRequirements: color
%%PageResources: (atend)
%%PageOrientation: Portrait
%%PageBoundingBox: 0 0 510 651
%%BeginPageSetup
$IDL_DICT begin 0.0283465 dup scale MITERLIMIT
%%IncludeResource: font Helvetica
423.333 /Helvetica STDFONT
%%EndPageSetup
0.000 0.000 0.000 setrgbcolor gsave 9777 352 translate 0 0 M -928.793 0 N
(m\(0\)/M\(0\)) show grestore gsave 1248 11852 translate 0 0 M 90 rotate
-1528.87 0 N
(merger time/Gyr) show grestore 40 setlinewidth L0 2580 18119 M 4318 0 R D
2580 18119 M 0 167 R D gsave 2580 17696 translate 0 0 M 0.8 dup scale
-58.8433 0 N
( ) show grestore 3444 18119 M 0 167 R D gsave 3444 17696 translate 0 0 M
0.8 dup scale -58.8433 0 N
( ) show grestore 4307 18119 M 0 167 R D gsave 4307 17696 translate 0 0 M
0.8 dup scale -58.8433 0 N
( ) show grestore 5171 18119 M 0 167 R D gsave 5171 17696 translate 0 0 M
0.8 dup scale -58.8433 0 N
( ) show grestore 6034 18119 M 0 167 R D gsave 6034 17696 translate 0 0 M
0.8 dup scale -58.8433 0 N
( ) show grestore 6898 18119 M 0 167 R D gsave 6898 17696 translate 0 0 M
0.8 dup scale -58.8433 0 N
( ) show grestore 2753 18119 M 0 83 R D 2926 18119 M 0 83 R D 3098 18119 M
0 83 R D 3271 18119 M 0 83 R D 3616 18119 M 0 83 R D 3789 18119 M 0 83 R D
3962 18119 M 0 83 R D 4135 18119 M 0 83 R D 4480 18119 M 0 83 R D
4653 18119 M 0 83 R D 4825 18119 M 0 83 R D 4998 18119 M 0 83 R D
5344 18119 M 0 83 R D 5516 18119 M 0 83 R D 5689 18119 M 0 83 R D
5862 18119 M 0 83 R D 6207 18119 M 0 83 R D 6380 18119 M 0 83 R D
6553 18119 M 0 83 R D 6725 18119 M 0 83 R D 2580 22296 M 4318 0 R D
2580 22296 M 0 -167 R D 3444 22296 M 0 -167 R D 4307 22296 M 0 -167 R D
5171 22296 M 0 -167 R D 6034 22296 M 0 -167 R D 6898 22296 M 0 -167 R D
2753 22296 M 0 -83 R D 2926 22296 M 0 -83 R D 3098 22296 M 0 -83 R D
3271 22296 M 0 -83 R D 3616 22296 M 0 -83 R D 3789 22296 M 0 -83 R D
3962 22296 M 0 -83 R D 4135 22296 M 0 -83 R D 4480 22296 M 0 -83 R D
4653 22296 M 0 -83 R D 4825 22296 M 0 -83 R D 4998 22296 M 0 -83 R D
5344 22296 M 0 -83 R D 5516 22296 M 0 -83 R D 5689 22296 M 0 -83 R D
5862 22296 M 0 -83 R D 6207 22296 M 0 -83 R D 6380 22296 M 0 -83 R D
6553 22296 M 0 -83 R D 6725 22296 M 0 -83 R D 2580 18119 M 0 4177 R D
2580 19065 M 173 0 R D gsave 2469 18924 translate 0 0 M -235.373 0 N
(2) show grestore 2580 20098 M 173 0 R D gsave 2469 19957 translate 0 0 M
-235.373 0 N
(4) show grestore 2580 21131 M 173 0 R D gsave 2469 20990 translate 0 0 M
-235.373 0 N
(6) show grestore 2580 22163 M 173 0 R D gsave 2469 22022 translate 0 0 M
-235.373 0 N
(8) show grestore 2580 18291 M 86 0 R D 2580 18549 M 86 0 R D 2580 18807 M
86 0 R D 2580 19323 M 86 0 R D 2580 19581 M 86 0 R D 2580 19840 M 86 0 R D
2580 20356 M 86 0 R D 2580 20614 M 86 0 R D 2580 20872 M 86 0 R D
2580 21389 M 86 0 R D 2580 21647 M 86 0 R D 2580 21905 M 86 0 R D
6898 18119 M 0 4177 R D 6898 19065 M -173 0 R D 6898 20098 M -173 0 R D
6898 21131 M -173 0 R D 6898 22163 M -173 0 R D 6898 18291 M -86 0 R D
6898 18549 M -86 0 R D 6898 18807 M -86 0 R D 6898 19323 M -86 0 R D
6898 19581 M -86 0 R D 6898 19840 M -86 0 R D 6898 20356 M -86 0 R D
6898 20614 M -86 0 R D 6898 20872 M -86 0 R D 6898 21389 M -86 0 R D
6898 21647 M -86 0 R D 6898 21905 M -86 0 R D 30 setlinewidth L1
2580 22296 M 432 -1386 R 432 -679 R 518 -465 R 345 -206 R 864 -333 R
863 -199 R 864 -134 R D L2 3009 22296 M 3 -8 R 432 -712 R 518 -521 R
345 -241 R 864 -410 R 863 -260 R 864 -180 R D L3 2583 22296 M 429 -1109 R
432 -2002 R 518 -162 R 345 -72 R 864 -104 R 863 -28 R 864 36 R D
20 setlinewidth L0 0.000 0.000 1.000 setrgbcolor 2580 20114 M 432 -613 R
432 -273 R 518 -168 R 345 -77 R 864 -122 R 863 -71 R 864 -41 R D
50 setlinewidth 2580 21132 M 432 -1184 R 432 -432 R 518 -325 R 345 -97 R
864 -154 R 863 -89 R 864 -56 R D 80 setlinewidth 2917 22296 M 95 -615 R
432 -1057 R 518 -702 R 345 -277 R 864 -436 R 863 -216 R 864 -85 R D
110 setlinewidth 2894 22296 M 118 -338 R 432 -657 R 518 -473 R 345 -215 R
864 -441 R 863 -221 R 864 -146 R D 0.000 0.000 0.000 setrgbcolor
gsave 5689 21784 translate 0 0 M
%%IncludeResource: font Helvetica-Bold
423.333 /Helvetica-Bold STDFONT
(e) show
%%IncludeResource: font Helvetica
423.333 /Helvetica STDFONT
(=0.3) show grestore 40 setlinewidth 7618 18119 M 4318 0 R D 7618 18119 M
0 167 R D gsave 7618 17696 translate 0 0 M 0.8 dup scale -58.8433 0 N
( ) show grestore 8482 18119 M 0 167 R D gsave 8482 17696 translate 0 0 M
0.8 dup scale -58.8433 0 N
( ) show grestore 9345 18119 M 0 167 R D gsave 9345 17696 translate 0 0 M
0.8 dup scale -58.8433 0 N
( ) show grestore 10209 18119 M 0 167 R D gsave 10209 17696 translate 0 0 M
0.8 dup scale -58.8433 0 N
( ) show grestore 11072 18119 M 0 167 R D gsave 11072 17696 translate 0 0 M
0.8 dup scale -58.8433 0 N
( ) show grestore 11936 18119 M 0 167 R D gsave 11936 17696 translate 0 0 M
0.8 dup scale -58.8433 0 N
( ) show grestore 7791 18119 M 0 83 R D 7964 18119 M 0 83 R D 8136 18119 M
0 83 R D 8309 18119 M 0 83 R D 8654 18119 M 0 83 R D 8827 18119 M 0 83 R D
9000 18119 M 0 83 R D 9173 18119 M 0 83 R D 9518 18119 M 0 83 R D
9691 18119 M 0 83 R D 9863 18119 M 0 83 R D 10036 18119 M 0 83 R D
10382 18119 M 0 83 R D 10554 18119 M 0 83 R D 10727 18119 M 0 83 R D
10900 18119 M 0 83 R D 11245 18119 M 0 83 R D 11418 18119 M 0 83 R D
11591 18119 M 0 83 R D 11763 18119 M 0 83 R D 7618 22296 M 4318 0 R D
7618 22296 M 0 -167 R D 8482 22296 M 0 -167 R D 9345 22296 M 0 -167 R D
10209 22296 M 0 -167 R D 11072 22296 M 0 -167 R D 11936 22296 M 0 -167 R D
7791 22296 M 0 -83 R D 7964 22296 M 0 -83 R D 8136 22296 M 0 -83 R D
8309 22296 M 0 -83 R D 8654 22296 M 0 -83 R D 8827 22296 M 0 -83 R D
9000 22296 M 0 -83 R D 9173 22296 M 0 -83 R D 9518 22296 M 0 -83 R D
9691 22296 M 0 -83 R D 9863 22296 M 0 -83 R D 10036 22296 M 0 -83 R D
10382 22296 M 0 -83 R D 10554 22296 M 0 -83 R D 10727 22296 M 0 -83 R D
10900 22296 M 0 -83 R D 11245 22296 M 0 -83 R D 11418 22296 M 0 -83 R D
11591 22296 M 0 -83 R D 11763 22296 M 0 -83 R D 7618 18119 M 0 4177 R D
7618 18739 M 173 0 R D gsave 7507 18598 translate 0 0 M -235.373 0 N
(2) show grestore 7618 19445 M 173 0 R D gsave 7507 19304 translate 0 0 M
-235.373 0 N
(4) show grestore 7618 20151 M 173 0 R D gsave 7507 20010 translate 0 0 M
-235.373 0 N
(6) show grestore 7618 20857 M 173 0 R D gsave 7507 20717 translate 0 0 M
-235.373 0 N
(8) show grestore 7618 21564 M 173 0 R D gsave 7507 21423 translate 0 0 M
-470.747 0 N
(10) show grestore 7618 22270 M 173 0 R D gsave 7507 22050 translate 0 0 M
-470.747 0 N
(12) show grestore 7618 18209 M 86 0 R D 7618 18385 M 86 0 R D 7618 18562 M
86 0 R D 7618 18915 M 86 0 R D 7618 19092 M 86 0 R D 7618 19268 M 86 0 R D
7618 19621 M 86 0 R D 7618 19798 M 86 0 R D 7618 19975 M 86 0 R D
7618 20328 M 86 0 R D 7618 20504 M 86 0 R D 7618 20681 M 86 0 R D
7618 21034 M 86 0 R D 7618 21210 M 86 0 R D 7618 21387 M 86 0 R D
7618 21740 M 86 0 R D 7618 21917 M 86 0 R D 7618 22093 M 86 0 R D
11936 18119 M 0 4177 R D 11936 18739 M -173 0 R D 11936 19445 M -173 0 R D
11936 20151 M -173 0 R D 11936 20857 M -173 0 R D 11936 21564 M -173 0 R D
11936 22270 M -173 0 R D 11936 18209 M -86 0 R D 11936 18385 M -86 0 R D
11936 18562 M -86 0 R D 11936 18915 M -86 0 R D 11936 19092 M -86 0 R D
11936 19268 M -86 0 R D 11936 19621 M -86 0 R D 11936 19798 M -86 0 R D
11936 19975 M -86 0 R D 11936 20328 M -86 0 R D 11936 20504 M -86 0 R D
11936 20681 M -86 0 R D 11936 21034 M -86 0 R D 11936 21210 M -86 0 R D
11936 21387 M -86 0 R D 11936 21740 M -86 0 R D 11936 21917 M -86 0 R D
11936 22093 M -86 0 R D 30 setlinewidth L1 7618 22296 M 432 -1386 R
432 -679 R 518 -465 R 345 -206 R 864 -333 R 863 -199 R 864 -134 R D L2
7678 22296 M 372 -902 R 432 -562 R 518 -412 R 345 -191 R 864 -324 R
863 -204 R 864 -143 R D L3 7618 22198 M 432 -1215 R 432 -1673 R 518 -183 R
345 -83 R 864 -129 R 863 -59 R 864 -10 R D 20 setlinewidth L0
0.000 0.000 1.000 setrgbcolor 7618 20011 M 432 -515 R 432 -294 R 518 -181 R
345 -75 R 864 -112 R 863 -62 R 864 -33 R D 50 setlinewidth 7618 21005 M
432 -1091 R 432 -448 R 518 -271 R 345 -127 R 864 -169 R 863 -81 R 864 -48 R
D 80 setlinewidth 7907 22296 M 143 -741 R 432 -1059 R 518 -665 R 345 -290 R
864 -403 R 863 -190 R 864 -93 R D 110 setlinewidth 9304 22296 M 41 -103 R
864 -1017 R 863 -1503 R 864 -120 R D 0.000 0.000 0.000 setrgbcolor
gsave 10727 21784 translate 0 0 M
%%IncludeResource: font Helvetica-Bold
423.333 /Helvetica-Bold STDFONT
(e) show
%%IncludeResource: font Helvetica
423.333 /Helvetica STDFONT
(=0.5) show grestore 40 setlinewidth 12656 18119 M 4318 0 R D 12656 18119 M
0 167 R D gsave 12656 17696 translate 0 0 M 0.8 dup scale -58.8433 0 N
( ) show grestore 13520 18119 M 0 167 R D gsave 13520 17696 translate 0 0 M
0.8 dup scale -58.8433 0 N
( ) show grestore 14383 18119 M 0 167 R D gsave 14383 17696 translate 0 0 M
0.8 dup scale -58.8433 0 N
( ) show grestore 15247 18119 M 0 167 R D gsave 15247 17696 translate 0 0 M
0.8 dup scale -58.8433 0 N
( ) show grestore 16110 18119 M 0 167 R D gsave 16110 17696 translate 0 0 M
0.8 dup scale -58.8433 0 N
( ) show grestore 16974 18119 M 0 167 R D gsave 16974 17696 translate 0 0 M
0.8 dup scale -58.8433 0 N
( ) show grestore 12829 18119 M 0 83 R D 13002 18119 M 0 83 R D
13174 18119 M 0 83 R D 13347 18119 M 0 83 R D 13692 18119 M 0 83 R D
13865 18119 M 0 83 R D 14038 18119 M 0 83 R D 14211 18119 M 0 83 R D
14556 18119 M 0 83 R D 14729 18119 M 0 83 R D 14901 18119 M 0 83 R D
15074 18119 M 0 83 R D 15420 18119 M 0 83 R D 15592 18119 M 0 83 R D
15765 18119 M 0 83 R D 15938 18119 M 0 83 R D 16283 18119 M 0 83 R D
16456 18119 M 0 83 R D 16629 18119 M 0 83 R D 16801 18119 M 0 83 R D
12656 22296 M 4318 0 R D 12656 22296 M 0 -167 R D 13520 22296 M 0 -167 R D
14383 22296 M 0 -167 R D 15247 22296 M 0 -167 R D 16110 22296 M 0 -167 R D
16974 22296 M 0 -167 R D 12829 22296 M 0 -83 R D 13002 22296 M 0 -83 R D
13174 22296 M 0 -83 R D 13347 22296 M 0 -83 R D 13692 22296 M 0 -83 R D
13865 22296 M 0 -83 R D 14038 22296 M 0 -83 R D 14211 22296 M 0 -83 R D
14556 22296 M 0 -83 R D 14729 22296 M 0 -83 R D 14901 22296 M 0 -83 R D
15074 22296 M 0 -83 R D 15420 22296 M 0 -83 R D 15592 22296 M 0 -83 R D
15765 22296 M 0 -83 R D 15938 22296 M 0 -83 R D 16283 22296 M 0 -83 R D
16456 22296 M 0 -83 R D 16629 22296 M 0 -83 R D 16801 22296 M 0 -83 R D
12656 18119 M 0 4177 R D 12656 18715 M 173 0 R D
gsave 12545 18574 translate 0 0 M -235.373 0 N
(5) show grestore 12656 19398 M 173 0 R D gsave 12545 19257 translate 0 0 M
-470.747 0 N
(10) show grestore 12656 20081 M 173 0 R D gsave 12545 19940 translate 0 0 M
-470.747 0 N
(15) show grestore 12656 20764 M 173 0 R D gsave 12545 20623 translate 0 0 M
-470.747 0 N
(20) show grestore 12656 21447 M 173 0 R D gsave 12545 21306 translate 0 0 M
-470.747 0 N
(25) show grestore 12656 22129 M 173 0 R D gsave 12545 21989 translate 0 0 M
-470.747 0 N
(30) show grestore 12656 18169 M 86 0 R D 12656 18305 M 86 0 R D
12656 18442 M 86 0 R D 12656 18579 M 86 0 R D 12656 18852 M 86 0 R D
12656 18988 M 86 0 R D 12656 19125 M 86 0 R D 12656 19261 M 86 0 R D
12656 19535 M 86 0 R D 12656 19671 M 86 0 R D 12656 19808 M 86 0 R D
12656 19944 M 86 0 R D 12656 20217 M 86 0 R D 12656 20354 M 86 0 R D
12656 20491 M 86 0 R D 12656 20627 M 86 0 R D 12656 20900 M 86 0 R D
12656 21037 M 86 0 R D 12656 21173 M 86 0 R D 12656 21310 M 86 0 R D
12656 21583 M 86 0 R D 12656 21720 M 86 0 R D 12656 21856 M 86 0 R D
12656 21993 M 86 0 R D 12656 22266 M 86 0 R D 16974 18119 M 0 4177 R D
16974 18715 M -173 0 R D 16974 19398 M -173 0 R D 16974 20081 M -173 0 R D
16974 20764 M -173 0 R D 16974 21447 M -173 0 R D 16974 22129 M -173 0 R D
16974 18169 M -86 0 R D 16974 18305 M -86 0 R D 16974 18442 M -86 0 R D
16974 18579 M -86 0 R D 16974 18852 M -86 0 R D 16974 18988 M -86 0 R D
16974 19125 M -86 0 R D 16974 19261 M -86 0 R D 16974 19535 M -86 0 R D
16974 19671 M -86 0 R D 16974 19808 M -86 0 R D 16974 19944 M -86 0 R D
16974 20217 M -86 0 R D 16974 20354 M -86 0 R D 16974 20491 M -86 0 R D
16974 20627 M -86 0 R D 16974 20900 M -86 0 R D 16974 21037 M -86 0 R D
16974 21173 M -86 0 R D 16974 21310 M -86 0 R D 16974 21583 M -86 0 R D
16974 21720 M -86 0 R D 16974 21856 M -86 0 R D 16974 21993 M -86 0 R D
16974 22266 M -86 0 R D 30 setlinewidth L1 12656 22296 M 432 -1386 R
432 -679 R 518 -465 R 345 -206 R 864 -333 R 863 -199 R 864 -134 R D L2
12656 20185 M 432 -512 R 432 -274 R 518 -201 R 345 -93 R 864 -158 R
863 -100 R 864 -70 R D L3 12656 20255 M 432 -520 R 432 -751 R 518 -140 R
345 -65 R 864 -110 R 863 -69 R 864 -49 R D 20 setlinewidth L0
0.000 0.000 1.000 setrgbcolor 12656 19374 M 432 -293 R 432 -149 R 518 -106 R
345 -46 R 864 -71 R 863 -38 R 864 -20 R D 50 setlinewidth 12656 19641 M
432 -423 R 432 -201 R 518 -134 R 345 -59 R 864 -89 R 863 -47 R 864 -26 R D
80 setlinewidth 12656 20104 M 432 -587 R 432 -299 R 518 -217 R 345 -92 R
864 -124 R 863 -65 R 864 -36 R D 110 setlinewidth 12656 20424 M 432 -625 R
432 -299 R 518 -258 R 345 -108 R 864 -130 R 863 -106 R 864 -75 R D
0.000 0.000 0.000 setrgbcolor gsave 15765 21784 translate 0 0 M
%%IncludeResource: font Helvetica-Bold
423.333 /Helvetica-Bold STDFONT
(e) show
%%IncludeResource: font Helvetica
423.333 /Helvetica STDFONT
(=1.0) show grestore gsave 17640 20240 translate 0 0 M 90 rotate
(bs0rs1) show grestore 40 setlinewidth 2580 13941 M 4318 0 R D 2580 13941 M
0 167 R D gsave 2580 13519 translate 0 0 M 0.8 dup scale -58.8433 0 N
( ) show grestore 3444 13941 M 0 167 R D gsave 3444 13519 translate 0 0 M
0.8 dup scale -58.8433 0 N
( ) show grestore 4307 13941 M 0 167 R D gsave 4307 13519 translate 0 0 M
0.8 dup scale -58.8433 0 N
( ) show grestore 5171 13941 M 0 167 R D gsave 5171 13519 translate 0 0 M
0.8 dup scale -58.8433 0 N
( ) show grestore 6034 13941 M 0 167 R D gsave 6034 13519 translate 0 0 M
0.8 dup scale -58.8433 0 N
( ) show grestore 6898 13941 M 0 167 R D gsave 6898 13519 translate 0 0 M
0.8 dup scale -58.8433 0 N
( ) show grestore 2753 13941 M 0 83 R D 2926 13941 M 0 83 R D 3098 13941 M
0 83 R D 3271 13941 M 0 83 R D 3616 13941 M 0 83 R D 3789 13941 M 0 83 R D
3962 13941 M 0 83 R D 4135 13941 M 0 83 R D 4480 13941 M 0 83 R D
4653 13941 M 0 83 R D 4825 13941 M 0 83 R D 4998 13941 M 0 83 R D
5344 13941 M 0 83 R D 5516 13941 M 0 83 R D 5689 13941 M 0 83 R D
5862 13941 M 0 83 R D 6207 13941 M 0 83 R D 6380 13941 M 0 83 R D
6553 13941 M 0 83 R D 6725 13941 M 0 83 R D 2580 18119 M 4318 0 R D
2580 18119 M 0 -168 R D 3444 18119 M 0 -168 R D 4307 18119 M 0 -168 R D
5171 18119 M 0 -168 R D 6034 18119 M 0 -168 R D 6898 18119 M 0 -168 R D
2753 18119 M 0 -84 R D 2926 18119 M 0 -84 R D 3098 18119 M 0 -84 R D
3271 18119 M 0 -84 R D 3616 18119 M 0 -84 R D 3789 18119 M 0 -84 R D
3962 18119 M 0 -84 R D 4135 18119 M 0 -84 R D 4480 18119 M 0 -84 R D
4653 18119 M 0 -84 R D 4825 18119 M 0 -84 R D 4998 18119 M 0 -84 R D
5344 18119 M 0 -84 R D 5516 18119 M 0 -84 R D 5689 18119 M 0 -84 R D
5862 18119 M 0 -84 R D 6207 18119 M 0 -84 R D 6380 18119 M 0 -84 R D
6553 18119 M 0 -84 R D 6725 18119 M 0 -84 R D 2580 13941 M 0 4178 R D
2580 14887 M 173 0 R D gsave 2469 14747 translate 0 0 M -235.373 0 N
(2) show grestore 2580 15920 M 173 0 R D gsave 2469 15779 translate 0 0 M
-235.373 0 N
(4) show grestore 2580 16953 M 173 0 R D gsave 2469 16812 translate 0 0 M
-235.373 0 N
(6) show grestore 2580 17986 M 173 0 R D gsave 2469 17845 translate 0 0 M
-235.373 0 N
(8) show grestore 2580 14113 M 86 0 R D 2580 14371 M 86 0 R D 2580 14629 M
86 0 R D 2580 15146 M 86 0 R D 2580 15404 M 86 0 R D 2580 15662 M 86 0 R D
2580 16178 M 86 0 R D 2580 16437 M 86 0 R D 2580 16695 M 86 0 R D
2580 17211 M 86 0 R D 2580 17469 M 86 0 R D 2580 17727 M 86 0 R D
6898 13941 M 0 4178 R D 6898 14887 M -173 0 R D 6898 15920 M -173 0 R D
6898 16953 M -173 0 R D 6898 17986 M -173 0 R D 6898 14113 M -86 0 R D
6898 14371 M -86 0 R D 6898 14629 M -86 0 R D 6898 15146 M -86 0 R D
6898 15404 M -86 0 R D 6898 15662 M -86 0 R D 6898 16178 M -86 0 R D
6898 16437 M -86 0 R D 6898 16695 M -86 0 R D 6898 17211 M -86 0 R D
6898 17469 M -86 0 R D 6898 17727 M -86 0 R D 30 setlinewidth L1
2580 18118 M 432 -1385 R 432 -680 R 518 -465 R 345 -205 R 864 -333 R
863 -200 R 864 -133 R D L2 3009 18118 M 3 -8 R 432 -711 R 518 -521 R
345 -242 R 864 -410 R 863 -259 R 864 -180 R D L3 2583 18118 M 429 -1109 R
432 -2001 R 518 -163 R 345 -71 R 864 -104 R 863 -29 R 864 36 R D
20 setlinewidth L0 0.000 0.000 1.000 setrgbcolor 2580 15937 M 432 -614 R
432 -273 R 518 -168 R 345 -76 R 864 -123 R 863 -71 R 864 -40 R D
50 setlinewidth 2580 16941 M 432 -1170 R 432 -432 R 518 -326 R 345 -96 R
864 -155 R 863 -89 R 864 -56 R D 80 setlinewidth 2580 18105 M 432 -1082 R
432 -696 R 518 -741 R 345 -206 R 864 -393 R 863 -172 R 864 -85 R D
110 setlinewidth 2580 17023 M 432 -351 R 432 -264 R 518 -237 R 345 -1819 R
864 -2 R 863 -1 R 864 -1 R D 40 setlinewidth 0.000 0.000 0.000 setrgbcolor
7618 13941 M 4318 0 R D 7618 13941 M 0 167 R D
gsave 7618 13519 translate 0 0 M 0.8 dup scale -58.8433 0 N
( ) show grestore 8482 13941 M 0 167 R D gsave 8482 13519 translate 0 0 M
0.8 dup scale -58.8433 0 N
( ) show grestore 9345 13941 M 0 167 R D gsave 9345 13519 translate 0 0 M
0.8 dup scale -58.8433 0 N
( ) show grestore 10209 13941 M 0 167 R D gsave 10209 13519 translate 0 0 M
0.8 dup scale -58.8433 0 N
( ) show grestore 11072 13941 M 0 167 R D gsave 11072 13519 translate 0 0 M
0.8 dup scale -58.8433 0 N
( ) show grestore 11936 13941 M 0 167 R D gsave 11936 13519 translate 0 0 M
0.8 dup scale -58.8433 0 N
( ) show grestore 7791 13941 M 0 83 R D 7964 13941 M 0 83 R D 8136 13941 M
0 83 R D 8309 13941 M 0 83 R D 8654 13941 M 0 83 R D 8827 13941 M 0 83 R D
9000 13941 M 0 83 R D 9173 13941 M 0 83 R D 9518 13941 M 0 83 R D
9691 13941 M 0 83 R D 9863 13941 M 0 83 R D 10036 13941 M 0 83 R D
10382 13941 M 0 83 R D 10554 13941 M 0 83 R D 10727 13941 M 0 83 R D
10900 13941 M 0 83 R D 11245 13941 M 0 83 R D 11418 13941 M 0 83 R D
11591 13941 M 0 83 R D 11763 13941 M 0 83 R D 7618 18119 M 4318 0 R D
7618 18119 M 0 -168 R D 8482 18119 M 0 -168 R D 9345 18119 M 0 -168 R D
10209 18119 M 0 -168 R D 11072 18119 M 0 -168 R D 11936 18119 M 0 -168 R D
7791 18119 M 0 -84 R D 7964 18119 M 0 -84 R D 8136 18119 M 0 -84 R D
8309 18119 M 0 -84 R D 8654 18119 M 0 -84 R D 8827 18119 M 0 -84 R D
9000 18119 M 0 -84 R D 9173 18119 M 0 -84 R D 9518 18119 M 0 -84 R D
9691 18119 M 0 -84 R D 9863 18119 M 0 -84 R D 10036 18119 M 0 -84 R D
10382 18119 M 0 -84 R D 10554 18119 M 0 -84 R D 10727 18119 M 0 -84 R D
10900 18119 M 0 -84 R D 11245 18119 M 0 -84 R D 11418 18119 M 0 -84 R D
11591 18119 M 0 -84 R D 11763 18119 M 0 -84 R D 7618 13941 M 0 4178 R D
7618 14561 M 173 0 R D gsave 7507 14420 translate 0 0 M -235.373 0 N
(2) show grestore 7618 15267 M 173 0 R D gsave 7507 15126 translate 0 0 M
-235.373 0 N
(4) show grestore 7618 15973 M 173 0 R D gsave 7507 15833 translate 0 0 M
-235.373 0 N
(6) show grestore 7618 16680 M 173 0 R D gsave 7507 16539 translate 0 0 M
-235.373 0 N
(8) show grestore 7618 17386 M 173 0 R D gsave 7507 17245 translate 0 0 M
-470.747 0 N
(10) show grestore 7618 18092 M 173 0 R D gsave 7507 17872 translate 0 0 M
-470.747 0 N
(12) show grestore 7618 14031 M 86 0 R D 7618 14208 M 86 0 R D 7618 14384 M
86 0 R D 7618 14738 M 86 0 R D 7618 14914 M 86 0 R D 7618 15091 M 86 0 R D
7618 15444 M 86 0 R D 7618 15620 M 86 0 R D 7618 15797 M 86 0 R D
7618 16150 M 86 0 R D 7618 16327 M 86 0 R D 7618 16503 M 86 0 R D
7618 16856 M 86 0 R D 7618 17033 M 86 0 R D 7618 17209 M 86 0 R D
7618 17563 M 86 0 R D 7618 17739 M 86 0 R D 7618 17916 M 86 0 R D
11936 13941 M 0 4178 R D 11936 14561 M -173 0 R D 11936 15267 M -173 0 R D
11936 15973 M -173 0 R D 11936 16680 M -173 0 R D 11936 17386 M -173 0 R D
11936 18092 M -173 0 R D 11936 14031 M -86 0 R D 11936 14208 M -86 0 R D
11936 14384 M -86 0 R D 11936 14738 M -86 0 R D 11936 14914 M -86 0 R D
11936 15091 M -86 0 R D 11936 15444 M -86 0 R D 11936 15620 M -86 0 R D
11936 15797 M -86 0 R D 11936 16150 M -86 0 R D 11936 16327 M -86 0 R D
11936 16503 M -86 0 R D 11936 16856 M -86 0 R D 11936 17033 M -86 0 R D
11936 17209 M -86 0 R D 11936 17563 M -86 0 R D 11936 17739 M -86 0 R D
11936 17916 M -86 0 R D 30 setlinewidth L1 7618 18118 M 432 -1385 R
432 -680 R 518 -465 R 345 -205 R 864 -333 R 863 -200 R 864 -133 R D L2
7678 18118 M 372 -902 R 432 -562 R 518 -412 R 345 -190 R 864 -324 R
863 -205 R 864 -142 R D L3 7618 18020 M 432 -1215 R 432 -1672 R 518 -184 R
345 -82 R 864 -130 R 863 -59 R 864 -10 R D 20 setlinewidth L0
0.000 0.000 1.000 setrgbcolor 7618 15833 M 432 -514 R 432 -294 R 518 -182 R
345 -74 R 864 -112 R 863 -63 R 864 -33 R D 50 setlinewidth 7618 16771 M
432 -1034 R 432 -449 R 518 -271 R 345 -126 R 864 -169 R 863 -82 R 864 -48 R
D 80 setlinewidth 7684 18118 M 366 -1305 R 432 -845 R 518 -429 R 345 -222 R
864 -359 R 863 -188 R 864 -93 R D 110 setlinewidth 8312 18118 M 170 -542 R
518 -1143 R 345 -193 R 864 -327 R 863 -750 R 864 -101 R D 40 setlinewidth
0.000 0.000 0.000 setrgbcolor 12656 13941 M 4318 0 R D 12656 13941 M 0 167 R
D gsave 12656 13519 translate 0 0 M 0.8 dup scale -58.8433 0 N
( ) show grestore 13520 13941 M 0 167 R D gsave 13520 13519 translate 0 0 M
0.8 dup scale -58.8433 0 N
( ) show grestore 14383 13941 M 0 167 R D gsave 14383 13519 translate 0 0 M
0.8 dup scale -58.8433 0 N
( ) show grestore 15247 13941 M 0 167 R D gsave 15247 13519 translate 0 0 M
0.8 dup scale -58.8433 0 N
( ) show grestore 16110 13941 M 0 167 R D gsave 16110 13519 translate 0 0 M
0.8 dup scale -58.8433 0 N
( ) show grestore 16974 13941 M 0 167 R D gsave 16974 13519 translate 0 0 M
0.8 dup scale -58.8433 0 N
( ) show grestore 12829 13941 M 0 83 R D 13002 13941 M 0 83 R D
13174 13941 M 0 83 R D 13347 13941 M 0 83 R D 13692 13941 M 0 83 R D
13865 13941 M 0 83 R D 14038 13941 M 0 83 R D 14211 13941 M 0 83 R D
14556 13941 M 0 83 R D 14729 13941 M 0 83 R D 14901 13941 M 0 83 R D
15074 13941 M 0 83 R D 15420 13941 M 0 83 R D 15592 13941 M 0 83 R D
15765 13941 M 0 83 R D 15938 13941 M 0 83 R D 16283 13941 M 0 83 R D
16456 13941 M 0 83 R D 16629 13941 M 0 83 R D 16801 13941 M 0 83 R D
12656 18119 M 4318 0 R D 12656 18119 M 0 -168 R D 13520 18119 M 0 -168 R D
14383 18119 M 0 -168 R D 15247 18119 M 0 -168 R D 16110 18119 M 0 -168 R D
16974 18119 M 0 -168 R D 12829 18119 M 0 -84 R D 13002 18119 M 0 -84 R D
13174 18119 M 0 -84 R D 13347 18119 M 0 -84 R D 13692 18119 M 0 -84 R D
13865 18119 M 0 -84 R D 14038 18119 M 0 -84 R D 14211 18119 M 0 -84 R D
14556 18119 M 0 -84 R D 14729 18119 M 0 -84 R D 14901 18119 M 0 -84 R D
15074 18119 M 0 -84 R D 15420 18119 M 0 -84 R D 15592 18119 M 0 -84 R D
15765 18119 M 0 -84 R D 15938 18119 M 0 -84 R D 16283 18119 M 0 -84 R D
16456 18119 M 0 -84 R D 16629 18119 M 0 -84 R D 16801 18119 M 0 -84 R D
12656 13941 M 0 4178 R D 12656 14538 M 173 0 R D
gsave 12545 14397 translate 0 0 M -235.373 0 N
(5) show grestore 12656 15220 M 173 0 R D gsave 12545 15080 translate 0 0 M
-470.747 0 N
(10) show grestore 12656 15903 M 173 0 R D gsave 12545 15762 translate 0 0 M
-470.747 0 N
(15) show grestore 12656 16586 M 173 0 R D gsave 12545 16445 translate 0 0 M
-470.747 0 N
(20) show grestore 12656 17269 M 173 0 R D gsave 12545 17128 translate 0 0 M
-470.747 0 N
(25) show grestore 12656 17952 M 173 0 R D gsave 12545 17811 translate 0 0 M
-470.747 0 N
(30) show grestore 12656 13991 M 86 0 R D 12656 14128 M 86 0 R D
12656 14264 M 86 0 R D 12656 14401 M 86 0 R D 12656 14674 M 86 0 R D
12656 14811 M 86 0 R D 12656 14947 M 86 0 R D 12656 15084 M 86 0 R D
12656 15357 M 86 0 R D 12656 15494 M 86 0 R D 12656 15630 M 86 0 R D
12656 15767 M 86 0 R D 12656 16040 M 86 0 R D 12656 16176 M 86 0 R D
12656 16313 M 86 0 R D 12656 16450 M 86 0 R D 12656 16723 M 86 0 R D
12656 16859 M 86 0 R D 12656 16996 M 86 0 R D 12656 17132 M 86 0 R D
12656 17405 M 86 0 R D 12656 17542 M 86 0 R D 12656 17679 M 86 0 R D
12656 17815 M 86 0 R D 12656 18088 M 86 0 R D 16974 13941 M 0 4178 R D
16974 14538 M -173 0 R D 16974 15220 M -173 0 R D 16974 15903 M -173 0 R D
16974 16586 M -173 0 R D 16974 17269 M -173 0 R D 16974 17952 M -173 0 R D
16974 13991 M -86 0 R D 16974 14128 M -86 0 R D 16974 14264 M -86 0 R D
16974 14401 M -86 0 R D 16974 14674 M -86 0 R D 16974 14811 M -86 0 R D
16974 14947 M -86 0 R D 16974 15084 M -86 0 R D 16974 15357 M -86 0 R D
16974 15494 M -86 0 R D 16974 15630 M -86 0 R D 16974 15767 M -86 0 R D
16974 16040 M -86 0 R D 16974 16176 M -86 0 R D 16974 16313 M -86 0 R D
16974 16450 M -86 0 R D 16974 16723 M -86 0 R D 16974 16859 M -86 0 R D
16974 16996 M -86 0 R D 16974 17132 M -86 0 R D 16974 17405 M -86 0 R D
16974 17542 M -86 0 R D 16974 17679 M -86 0 R D 16974 17815 M -86 0 R D
16974 18088 M -86 0 R D 30 setlinewidth L1 12656 18118 M 432 -1385 R
432 -680 R 518 -465 R 345 -205 R 864 -333 R 863 -200 R 864 -133 R D L2
12656 16007 M 432 -512 R 432 -274 R 518 -201 R 345 -93 R 864 -158 R
863 -100 R 864 -69 R D L3 12656 16078 M 432 -521 R 432 -750 R 518 -140 R
345 -65 R 864 -110 R 863 -70 R 864 -48 R D 20 setlinewidth L0
0.000 0.000 1.000 setrgbcolor 12656 15196 M 432 -292 R 432 -150 R 518 -106 R
345 -45 R 864 -72 R 863 -38 R 864 -20 R D 50 setlinewidth 12656 15464 M
432 -423 R 432 -202 R 518 -134 R 345 -59 R 864 -88 R 863 -47 R 864 -27 R D
80 setlinewidth 12656 15755 M 432 -515 R 432 -251 R 518 -185 R 345 -75 R
864 -121 R 863 -65 R 864 -36 R D 110 setlinewidth 12656 15954 M 432 -542 R
432 -282 R 518 -191 R 345 -99 R 864 -145 R 863 -60 R 864 -76 R D
0.000 0.000 0.000 setrgbcolor gsave 17640 15870 translate 0 0 M 90 rotate
(bs0rs0.5) show grestore 40 setlinewidth 2580 9763 M 4318 0 R D 2580 9763 M
0 167 R D gsave 2580 9341 translate 0 0 M 0.8 dup scale -58.8433 0 N
( ) show grestore 3444 9763 M 0 167 R D gsave 3444 9341 translate 0 0 M
0.8 dup scale -58.8433 0 N
( ) show grestore 4307 9763 M 0 167 R D gsave 4307 9341 translate 0 0 M
0.8 dup scale -58.8433 0 N
( ) show grestore 5171 9763 M 0 167 R D gsave 5171 9341 translate 0 0 M
0.8 dup scale -58.8433 0 N
( ) show grestore 6034 9763 M 0 167 R D gsave 6034 9341 translate 0 0 M
0.8 dup scale -58.8433 0 N
( ) show grestore 6898 9763 M 0 167 R D gsave 6898 9341 translate 0 0 M
0.8 dup scale -58.8433 0 N
( ) show grestore 2753 9763 M 0 84 R D 2926 9763 M 0 84 R D 3098 9763 M
0 84 R D 3271 9763 M 0 84 R D 3616 9763 M 0 84 R D 3789 9763 M 0 84 R D
3962 9763 M 0 84 R D 4135 9763 M 0 84 R D 4480 9763 M 0 84 R D 4653 9763 M
0 84 R D 4825 9763 M 0 84 R D 4998 9763 M 0 84 R D 5344 9763 M 0 84 R D
5516 9763 M 0 84 R D 5689 9763 M 0 84 R D 5862 9763 M 0 84 R D 6207 9763 M
0 84 R D 6380 9763 M 0 84 R D 6553 9763 M 0 84 R D 6725 9763 M 0 84 R D
2580 13941 M 4318 0 R D 2580 13941 M 0 -167 R D 3444 13941 M 0 -167 R D
4307 13941 M 0 -167 R D 5171 13941 M 0 -167 R D 6034 13941 M 0 -167 R D
6898 13941 M 0 -167 R D 2753 13941 M 0 -84 R D 2926 13941 M 0 -84 R D
3098 13941 M 0 -84 R D 3271 13941 M 0 -84 R D 3616 13941 M 0 -84 R D
3789 13941 M 0 -84 R D 3962 13941 M 0 -84 R D 4135 13941 M 0 -84 R D
4480 13941 M 0 -84 R D 4653 13941 M 0 -84 R D 4825 13941 M 0 -84 R D
4998 13941 M 0 -84 R D 5344 13941 M 0 -84 R D 5516 13941 M 0 -84 R D
5689 13941 M 0 -84 R D 5862 13941 M 0 -84 R D 6207 13941 M 0 -84 R D
6380 13941 M 0 -84 R D 6553 13941 M 0 -84 R D 6725 13941 M 0 -84 R D
2580 9763 M 0 4178 R D 2580 10710 M 173 0 R D
gsave 2469 10569 translate 0 0 M -235.373 0 N
(2) show grestore 2580 11743 M 173 0 R D gsave 2469 11602 translate 0 0 M
-235.373 0 N
(4) show grestore 2580 12775 M 173 0 R D gsave 2469 12635 translate 0 0 M
-235.373 0 N
(6) show grestore 2580 13808 M 173 0 R D gsave 2469 13667 translate 0 0 M
-235.373 0 N
(8) show grestore 2580 9935 M 86 0 R D 2580 10193 M 86 0 R D 2580 10452 M
86 0 R D 2580 10968 M 86 0 R D 2580 11226 M 86 0 R D 2580 11484 M 86 0 R D
2580 12001 M 86 0 R D 2580 12259 M 86 0 R D 2580 12517 M 86 0 R D
2580 13034 M 86 0 R D 2580 13292 M 86 0 R D 2580 13550 M 86 0 R D
6898 9763 M 0 4178 R D 6898 10710 M -173 0 R D 6898 11743 M -173 0 R D
6898 12775 M -173 0 R D 6898 13808 M -173 0 R D 6898 9935 M -86 0 R D
6898 10193 M -86 0 R D 6898 10452 M -86 0 R D 6898 10968 M -86 0 R D
6898 11226 M -86 0 R D 6898 11484 M -86 0 R D 6898 12001 M -86 0 R D
6898 12259 M -86 0 R D 6898 12517 M -86 0 R D 6898 13034 M -86 0 R D
6898 13292 M -86 0 R D 6898 13550 M -86 0 R D 30 setlinewidth L1
2580 13940 M 432 -1385 R 432 -679 R 518 -465 R 345 -206 R 864 -333 R
863 -200 R 864 -133 R D L2 3009 13940 M 3 -7 R 432 -712 R 518 -521 R
345 -241 R 864 -410 R 863 -260 R 864 -180 R D L3 2583 13940 M 429 -1109 R
432 -2001 R 518 -162 R 345 -72 R 864 -104 R 863 -28 R 864 35 R D
20 setlinewidth L0 0.000 0.000 1.000 setrgbcolor 2580 11759 M 432 -614 R
432 -273 R 518 -167 R 345 -77 R 864 -122 R 863 -71 R 864 -41 R D
50 setlinewidth 2580 12763 M 432 -1170 R 432 -432 R 518 -326 R 345 -96 R
864 -155 R 863 -89 R 864 -55 R D 80 setlinewidth 3331 13940 M 113 -687 R
518 -1594 R 345 -433 R 864 -417 R 863 -172 R 864 -84 R D 40 setlinewidth
0.000 0.000 0.000 setrgbcolor 7618 9763 M 4318 0 R D 7618 9763 M 0 167 R D
gsave 7618 9341 translate 0 0 M 0.8 dup scale -58.8433 0 N
( ) show grestore 8482 9763 M 0 167 R D gsave 8482 9341 translate 0 0 M
0.8 dup scale -58.8433 0 N
( ) show grestore 9345 9763 M 0 167 R D gsave 9345 9341 translate 0 0 M
0.8 dup scale -58.8433 0 N
( ) show grestore 10209 9763 M 0 167 R D gsave 10209 9341 translate 0 0 M
0.8 dup scale -58.8433 0 N
( ) show grestore 11072 9763 M 0 167 R D gsave 11072 9341 translate 0 0 M
0.8 dup scale -58.8433 0 N
( ) show grestore 11936 9763 M 0 167 R D gsave 11936 9341 translate 0 0 M
0.8 dup scale -58.8433 0 N
( ) show grestore 7791 9763 M 0 84 R D 7964 9763 M 0 84 R D 8136 9763 M
0 84 R D 8309 9763 M 0 84 R D 8654 9763 M 0 84 R D 8827 9763 M 0 84 R D
9000 9763 M 0 84 R D 9173 9763 M 0 84 R D 9518 9763 M 0 84 R D 9691 9763 M
0 84 R D 9863 9763 M 0 84 R D 10036 9763 M 0 84 R D 10382 9763 M 0 84 R D
10554 9763 M 0 84 R D 10727 9763 M 0 84 R D 10900 9763 M 0 84 R D
11245 9763 M 0 84 R D 11418 9763 M 0 84 R D 11591 9763 M 0 84 R D
11763 9763 M 0 84 R D 7618 13941 M 4318 0 R D 7618 13941 M 0 -167 R D
8482 13941 M 0 -167 R D 9345 13941 M 0 -167 R D 10209 13941 M 0 -167 R D
11072 13941 M 0 -167 R D 11936 13941 M 0 -167 R D 7791 13941 M 0 -84 R D
7964 13941 M 0 -84 R D 8136 13941 M 0 -84 R D 8309 13941 M 0 -84 R D
8654 13941 M 0 -84 R D 8827 13941 M 0 -84 R D 9000 13941 M 0 -84 R D
9173 13941 M 0 -84 R D 9518 13941 M 0 -84 R D 9691 13941 M 0 -84 R D
9863 13941 M 0 -84 R D 10036 13941 M 0 -84 R D 10382 13941 M 0 -84 R D
10554 13941 M 0 -84 R D 10727 13941 M 0 -84 R D 10900 13941 M 0 -84 R D
11245 13941 M 0 -84 R D 11418 13941 M 0 -84 R D 11591 13941 M 0 -84 R D
11763 13941 M 0 -84 R D 7618 9763 M 0 4178 R D 7618 10383 M 173 0 R D
gsave 7507 10243 translate 0 0 M -235.373 0 N
(2) show grestore 7618 11090 M 173 0 R D gsave 7507 10949 translate 0 0 M
-235.373 0 N
(4) show grestore 7618 11796 M 173 0 R D gsave 7507 11655 translate 0 0 M
-235.373 0 N
(6) show grestore 7618 12502 M 173 0 R D gsave 7507 12361 translate 0 0 M
-235.373 0 N
(8) show grestore 7618 13208 M 173 0 R D gsave 7507 13068 translate 0 0 M
-470.747 0 N
(10) show grestore 7618 13915 M 173 0 R D gsave 7507 13695 translate 0 0 M
-470.747 0 N
(12) show grestore 7618 9854 M 86 0 R D 7618 10030 M 86 0 R D 7618 10207 M
86 0 R D 7618 10560 M 86 0 R D 7618 10736 M 86 0 R D 7618 10913 M 86 0 R D
7618 11266 M 86 0 R D 7618 11443 M 86 0 R D 7618 11619 M 86 0 R D
7618 11972 M 86 0 R D 7618 12149 M 86 0 R D 7618 12326 M 86 0 R D
7618 12679 M 86 0 R D 7618 12855 M 86 0 R D 7618 13032 M 86 0 R D
7618 13385 M 86 0 R D 7618 13561 M 86 0 R D 7618 13738 M 86 0 R D
11936 9763 M 0 4178 R D 11936 10383 M -173 0 R D 11936 11090 M -173 0 R D
11936 11796 M -173 0 R D 11936 12502 M -173 0 R D 11936 13208 M -173 0 R D
11936 13915 M -173 0 R D 11936 9854 M -86 0 R D 11936 10030 M -86 0 R D
11936 10207 M -86 0 R D 11936 10560 M -86 0 R D 11936 10736 M -86 0 R D
11936 10913 M -86 0 R D 11936 11266 M -86 0 R D 11936 11443 M -86 0 R D
11936 11619 M -86 0 R D 11936 11972 M -86 0 R D 11936 12149 M -86 0 R D
11936 12326 M -86 0 R D 11936 12679 M -86 0 R D 11936 12855 M -86 0 R D
11936 13032 M -86 0 R D 11936 13385 M -86 0 R D 11936 13561 M -86 0 R D
11936 13738 M -86 0 R D 30 setlinewidth L1 7618 13940 M 432 -1385 R
432 -679 R 518 -465 R 345 -206 R 864 -333 R 863 -200 R 864 -133 R D L2
7678 13940 M 372 -902 R 432 -562 R 518 -411 R 345 -191 R 864 -324 R
863 -205 R 864 -142 R D L3 7618 13843 M 432 -1216 R 432 -1672 R 518 -183 R
345 -83 R 864 -129 R 863 -59 R 864 -11 R D 20 setlinewidth L0
0.000 0.000 1.000 setrgbcolor 7618 11656 M 432 -515 R 432 -294 R 518 -182 R
345 -74 R 864 -112 R 863 -62 R 864 -34 R D 50 setlinewidth 7618 12593 M
432 -1034 R 432 -448 R 518 -271 R 345 -127 R 864 -169 R 863 -81 R 864 -48 R
D 80 setlinewidth 8271 13940 M 211 -1238 R 518 -1269 R 345 -294 R 864 -358 R
863 -189 R 864 -92 R D 40 setlinewidth 0.000 0.000 0.000 setrgbcolor
12656 9763 M 4318 0 R D 12656 9763 M 0 167 R D
gsave 12656 9341 translate 0 0 M 0.8 dup scale -58.8433 0 N
( ) show grestore 13520 9763 M 0 167 R D gsave 13520 9341 translate 0 0 M
0.8 dup scale -58.8433 0 N
( ) show grestore 14383 9763 M 0 167 R D gsave 14383 9341 translate 0 0 M
0.8 dup scale -58.8433 0 N
( ) show grestore 15247 9763 M 0 167 R D gsave 15247 9341 translate 0 0 M
0.8 dup scale -58.8433 0 N
( ) show grestore 16110 9763 M 0 167 R D gsave 16110 9341 translate 0 0 M
0.8 dup scale -58.8433 0 N
( ) show grestore 16974 9763 M 0 167 R D gsave 16974 9341 translate 0 0 M
0.8 dup scale -58.8433 0 N
( ) show grestore 12829 9763 M 0 84 R D 13002 9763 M 0 84 R D 13174 9763 M
0 84 R D 13347 9763 M 0 84 R D 13692 9763 M 0 84 R D 13865 9763 M 0 84 R D
14038 9763 M 0 84 R D 14211 9763 M 0 84 R D 14556 9763 M 0 84 R D
14729 9763 M 0 84 R D 14901 9763 M 0 84 R D 15074 9763 M 0 84 R D
15420 9763 M 0 84 R D 15592 9763 M 0 84 R D 15765 9763 M 0 84 R D
15938 9763 M 0 84 R D 16283 9763 M 0 84 R D 16456 9763 M 0 84 R D
16629 9763 M 0 84 R D 16801 9763 M 0 84 R D 12656 13941 M 4318 0 R D
12656 13941 M 0 -167 R D 13520 13941 M 0 -167 R D 14383 13941 M 0 -167 R D
15247 13941 M 0 -167 R D 16110 13941 M 0 -167 R D 16974 13941 M 0 -167 R D
12829 13941 M 0 -84 R D 13002 13941 M 0 -84 R D 13174 13941 M 0 -84 R D
13347 13941 M 0 -84 R D 13692 13941 M 0 -84 R D 13865 13941 M 0 -84 R D
14038 13941 M 0 -84 R D 14211 13941 M 0 -84 R D 14556 13941 M 0 -84 R D
14729 13941 M 0 -84 R D 14901 13941 M 0 -84 R D 15074 13941 M 0 -84 R D
15420 13941 M 0 -84 R D 15592 13941 M 0 -84 R D 15765 13941 M 0 -84 R D
15938 13941 M 0 -84 R D 16283 13941 M 0 -84 R D 16456 13941 M 0 -84 R D
16629 13941 M 0 -84 R D 16801 13941 M 0 -84 R D 12656 9763 M 0 4178 R D
12656 10360 M 173 0 R D gsave 12545 10219 translate 0 0 M -235.373 0 N
(5) show grestore 12656 11043 M 173 0 R D gsave 12545 10902 translate 0 0 M
-470.747 0 N
(10) show grestore 12656 11726 M 173 0 R D gsave 12545 11585 translate 0 0 M
-470.747 0 N
(15) show grestore 12656 12408 M 173 0 R D gsave 12545 12268 translate 0 0 M
-470.747 0 N
(20) show grestore 12656 13091 M 173 0 R D gsave 12545 12951 translate 0 0 M
-470.747 0 N
(25) show grestore 12656 13774 M 173 0 R D gsave 12545 13633 translate 0 0 M
-470.747 0 N
(30) show grestore 12656 9814 M 86 0 R D 12656 9950 M 86 0 R D 12656 10087 M
86 0 R D 12656 10223 M 86 0 R D 12656 10497 M 86 0 R D 12656 10633 M 86 0 R
D 12656 10770 M 86 0 R D 12656 10906 M 86 0 R D 12656 11179 M 86 0 R D
12656 11316 M 86 0 R D 12656 11452 M 86 0 R D 12656 11589 M 86 0 R D
12656 11862 M 86 0 R D 12656 11999 M 86 0 R D 12656 12135 M 86 0 R D
12656 12272 M 86 0 R D 12656 12545 M 86 0 R D 12656 12682 M 86 0 R D
12656 12818 M 86 0 R D 12656 12955 M 86 0 R D 12656 13228 M 86 0 R D
12656 13364 M 86 0 R D 12656 13501 M 86 0 R D 12656 13638 M 86 0 R D
12656 13911 M 86 0 R D 16974 9763 M 0 4178 R D 16974 10360 M -173 0 R D
16974 11043 M -173 0 R D 16974 11726 M -173 0 R D 16974 12408 M -173 0 R D
16974 13091 M -173 0 R D 16974 13774 M -173 0 R D 16974 9814 M -86 0 R D
16974 9950 M -86 0 R D 16974 10087 M -86 0 R D 16974 10223 M -86 0 R D
16974 10497 M -86 0 R D 16974 10633 M -86 0 R D 16974 10770 M -86 0 R D
16974 10906 M -86 0 R D 16974 11179 M -86 0 R D 16974 11316 M -86 0 R D
16974 11452 M -86 0 R D 16974 11589 M -86 0 R D 16974 11862 M -86 0 R D
16974 11999 M -86 0 R D 16974 12135 M -86 0 R D 16974 12272 M -86 0 R D
16974 12545 M -86 0 R D 16974 12682 M -86 0 R D 16974 12818 M -86 0 R D
16974 12955 M -86 0 R D 16974 13228 M -86 0 R D 16974 13364 M -86 0 R D
16974 13501 M -86 0 R D 16974 13638 M -86 0 R D 16974 13911 M -86 0 R D
30 setlinewidth L1 12656 13940 M 432 -1385 R 432 -679 R 518 -465 R
345 -206 R 864 -333 R 863 -200 R 864 -133 R D L2 12656 11829 M 432 -511 R
432 -275 R 518 -200 R 345 -94 R 864 -158 R 863 -100 R 864 -69 R D L3
12656 11900 M 432 -521 R 432 -750 R 518 -140 R 345 -65 R 864 -110 R
863 -70 R 864 -48 R D 20 setlinewidth L0 0.000 0.000 1.000 setrgbcolor
12656 11018 M 432 -292 R 432 -150 R 518 -105 R 345 -46 R 864 -71 R 863 -38 R
864 -20 R D 50 setlinewidth 12656 11286 M 432 -423 R 432 -201 R 518 -134 R
345 -59 R 864 -89 R 863 -47 R 864 -26 R D 80 setlinewidth 12656 11656 M
432 -567 R 432 -278 R 518 -185 R 345 -75 R 864 -121 R 863 -65 R 864 -36 R D
110 setlinewidth 12656 12029 M 432 -597 R 432 -314 R 518 -223 R 345 -105 R
864 -172 R 863 -123 R 864 -76 R D 0.000 0.000 0.000 setrgbcolor
gsave 17640 11500 translate 0 0 M 90 rotate
(bs0rs0) show grestore 40 setlinewidth 2580 5586 M 4318 0 R D 2580 5586 M
0 167 R D gsave 2580 5163 translate 0 0 M 0.8 dup scale -58.8433 0 N
( ) show grestore 3444 5586 M 0 167 R D gsave 3444 5163 translate 0 0 M
0.8 dup scale -58.8433 0 N
( ) show grestore 4307 5586 M 0 167 R D gsave 4307 5163 translate 0 0 M
0.8 dup scale -58.8433 0 N
( ) show grestore 5171 5586 M 0 167 R D gsave 5171 5163 translate 0 0 M
0.8 dup scale -58.8433 0 N
( ) show grestore 6034 5586 M 0 167 R D gsave 6034 5163 translate 0 0 M
0.8 dup scale -58.8433 0 N
( ) show grestore 6898 5586 M 0 167 R D gsave 6898 5163 translate 0 0 M
0.8 dup scale -58.8433 0 N
( ) show grestore 2753 5586 M 0 83 R D 2926 5586 M 0 83 R D 3098 5586 M
0 83 R D 3271 5586 M 0 83 R D 3616 5586 M 0 83 R D 3789 5586 M 0 83 R D
3962 5586 M 0 83 R D 4135 5586 M 0 83 R D 4480 5586 M 0 83 R D 4653 5586 M
0 83 R D 4825 5586 M 0 83 R D 4998 5586 M 0 83 R D 5344 5586 M 0 83 R D
5516 5586 M 0 83 R D 5689 5586 M 0 83 R D 5862 5586 M 0 83 R D 6207 5586 M
0 83 R D 6380 5586 M 0 83 R D 6553 5586 M 0 83 R D 6725 5586 M 0 83 R D
2580 9763 M 4318 0 R D 2580 9763 M 0 -167 R D 3444 9763 M 0 -167 R D
4307 9763 M 0 -167 R D 5171 9763 M 0 -167 R D 6034 9763 M 0 -167 R D
6898 9763 M 0 -167 R D 2753 9763 M 0 -83 R D 2926 9763 M 0 -83 R D
3098 9763 M 0 -83 R D 3271 9763 M 0 -83 R D 3616 9763 M 0 -83 R D
3789 9763 M 0 -83 R D 3962 9763 M 0 -83 R D 4135 9763 M 0 -83 R D
4480 9763 M 0 -83 R D 4653 9763 M 0 -83 R D 4825 9763 M 0 -83 R D
4998 9763 M 0 -83 R D 5344 9763 M 0 -83 R D 5516 9763 M 0 -83 R D
5689 9763 M 0 -83 R D 5862 9763 M 0 -83 R D 6207 9763 M 0 -83 R D
6380 9763 M 0 -83 R D 6553 9763 M 0 -83 R D 6725 9763 M 0 -83 R D
2580 5586 M 0 4177 R D 2580 6532 M 173 0 R D gsave 2469 6391 translate 0 0 M
-235.373 0 N
(2) show grestore 2580 7565 M 173 0 R D gsave 2469 7424 translate 0 0 M
-235.373 0 N
(4) show grestore 2580 8598 M 173 0 R D gsave 2469 8457 translate 0 0 M
-235.373 0 N
(6) show grestore 2580 9630 M 173 0 R D gsave 2469 9490 translate 0 0 M
-235.373 0 N
(8) show grestore 2580 5758 M 86 0 R D 2580 6016 M 86 0 R D 2580 6274 M
86 0 R D 2580 6790 M 86 0 R D 2580 7049 M 86 0 R D 2580 7307 M 86 0 R D
2580 7823 M 86 0 R D 2580 8081 M 86 0 R D 2580 8340 M 86 0 R D 2580 8856 M
86 0 R D 2580 9114 M 86 0 R D 2580 9372 M 86 0 R D 6898 5586 M 0 4177 R D
6898 6532 M -173 0 R D 6898 7565 M -173 0 R D 6898 8598 M -173 0 R D
6898 9630 M -173 0 R D 6898 5758 M -86 0 R D 6898 6016 M -86 0 R D
6898 6274 M -86 0 R D 6898 6790 M -86 0 R D 6898 7049 M -86 0 R D
6898 7307 M -86 0 R D 6898 7823 M -86 0 R D 6898 8081 M -86 0 R D
6898 8340 M -86 0 R D 6898 8856 M -86 0 R D 6898 9114 M -86 0 R D
6898 9372 M -86 0 R D 30 setlinewidth L1 2580 9763 M 432 -1385 R 432 -680 R
518 -465 R 345 -206 R 864 -333 R 863 -199 R 864 -134 R D L2 3009 9763 M
3 -8 R 432 -711 R 518 -521 R 345 -242 R 864 -410 R 863 -259 R 864 -181 R D
L3 2583 9763 M 429 -1109 R 432 -2002 R 518 -162 R 345 -72 R 864 -103 R
863 -29 R 864 36 R D 20 setlinewidth L0 0.000 0.000 1.000 setrgbcolor
2580 7582 M 432 -614 R 432 -273 R 518 -168 R 345 -77 R 864 -122 R 863 -71 R
864 -40 R D 50 setlinewidth 2580 8586 M 432 -1171 R 432 -431 R 518 -326 R
345 -97 R 864 -154 R 863 -89 R 864 -56 R D 80 setlinewidth 3117 9763 M
327 -1345 R 518 -1007 R 345 -363 R 864 -417 R 863 -171 R 864 -85 R D
110 setlinewidth 5787 9763 M 247 -305 R 864 -837 R D 40 setlinewidth
0.000 0.000 0.000 setrgbcolor 7618 5586 M 4318 0 R D 7618 5586 M 0 167 R D
gsave 7618 5163 translate 0 0 M 0.8 dup scale -58.8433 0 N
( ) show grestore 8482 5586 M 0 167 R D gsave 8482 5163 translate 0 0 M
0.8 dup scale -58.8433 0 N
( ) show grestore 9345 5586 M 0 167 R D gsave 9345 5163 translate 0 0 M
0.8 dup scale -58.8433 0 N
( ) show grestore 10209 5586 M 0 167 R D gsave 10209 5163 translate 0 0 M
0.8 dup scale -58.8433 0 N
( ) show grestore 11072 5586 M 0 167 R D gsave 11072 5163 translate 0 0 M
0.8 dup scale -58.8433 0 N
( ) show grestore 11936 5586 M 0 167 R D gsave 11936 5163 translate 0 0 M
0.8 dup scale -58.8433 0 N
( ) show grestore 7791 5586 M 0 83 R D 7964 5586 M 0 83 R D 8136 5586 M
0 83 R D 8309 5586 M 0 83 R D 8654 5586 M 0 83 R D 8827 5586 M 0 83 R D
9000 5586 M 0 83 R D 9173 5586 M 0 83 R D 9518 5586 M 0 83 R D 9691 5586 M
0 83 R D 9863 5586 M 0 83 R D 10036 5586 M 0 83 R D 10382 5586 M 0 83 R D
10554 5586 M 0 83 R D 10727 5586 M 0 83 R D 10900 5586 M 0 83 R D
11245 5586 M 0 83 R D 11418 5586 M 0 83 R D 11591 5586 M 0 83 R D
11763 5586 M 0 83 R D 7618 9763 M 4318 0 R D 7618 9763 M 0 -167 R D
8482 9763 M 0 -167 R D 9345 9763 M 0 -167 R D 10209 9763 M 0 -167 R D
11072 9763 M 0 -167 R D 11936 9763 M 0 -167 R D 7791 9763 M 0 -83 R D
7964 9763 M 0 -83 R D 8136 9763 M 0 -83 R D 8309 9763 M 0 -83 R D
8654 9763 M 0 -83 R D 8827 9763 M 0 -83 R D 9000 9763 M 0 -83 R D
9173 9763 M 0 -83 R D 9518 9763 M 0 -83 R D 9691 9763 M 0 -83 R D
9863 9763 M 0 -83 R D 10036 9763 M 0 -83 R D 10382 9763 M 0 -83 R D
10554 9763 M 0 -83 R D 10727 9763 M 0 -83 R D 10900 9763 M 0 -83 R D
11245 9763 M 0 -83 R D 11418 9763 M 0 -83 R D 11591 9763 M 0 -83 R D
11763 9763 M 0 -83 R D 7618 5586 M 0 4177 R D 7618 6206 M 173 0 R D
gsave 7507 6065 translate 0 0 M -235.373 0 N
(2) show grestore 7618 6912 M 173 0 R D gsave 7507 6771 translate 0 0 M
-235.373 0 N
(4) show grestore 7618 7618 M 173 0 R D gsave 7507 7477 translate 0 0 M
-235.373 0 N
(6) show grestore 7618 8325 M 173 0 R D gsave 7507 8184 translate 0 0 M
-235.373 0 N
(8) show grestore 7618 9031 M 173 0 R D gsave 7507 8890 translate 0 0 M
-470.747 0 N
(10) show grestore 7618 9737 M 173 0 R D gsave 7507 9517 translate 0 0 M
-470.747 0 N
(12) show grestore 7618 5676 M 86 0 R D 7618 5853 M 86 0 R D 7618 6029 M
86 0 R D 7618 6382 M 86 0 R D 7618 6559 M 86 0 R D 7618 6735 M 86 0 R D
7618 7089 M 86 0 R D 7618 7265 M 86 0 R D 7618 7442 M 86 0 R D 7618 7795 M
86 0 R D 7618 7971 M 86 0 R D 7618 8148 M 86 0 R D 7618 8501 M 86 0 R D
7618 8678 M 86 0 R D 7618 8854 M 86 0 R D 7618 9207 M 86 0 R D 7618 9384 M
86 0 R D 7618 9560 M 86 0 R D 11936 5586 M 0 4177 R D 11936 6206 M -173 0 R
D 11936 6912 M -173 0 R D 11936 7618 M -173 0 R D 11936 8325 M -173 0 R D
11936 9031 M -173 0 R D 11936 9737 M -173 0 R D 11936 5676 M -86 0 R D
11936 5853 M -86 0 R D 11936 6029 M -86 0 R D 11936 6382 M -86 0 R D
11936 6559 M -86 0 R D 11936 6735 M -86 0 R D 11936 7089 M -86 0 R D
11936 7265 M -86 0 R D 11936 7442 M -86 0 R D 11936 7795 M -86 0 R D
11936 7971 M -86 0 R D 11936 8148 M -86 0 R D 11936 8501 M -86 0 R D
11936 8678 M -86 0 R D 11936 8854 M -86 0 R D 11936 9207 M -86 0 R D
11936 9384 M -86 0 R D 11936 9560 M -86 0 R D 30 setlinewidth L1 7618 9763 M
432 -1385 R 432 -680 R 518 -465 R 345 -206 R 864 -333 R 863 -199 R
864 -134 R D L2 7678 9763 M 372 -902 R 432 -562 R 518 -412 R 345 -191 R
864 -323 R 863 -205 R 864 -143 R D L3 7618 9665 M 432 -1215 R 432 -1673 R
518 -183 R 345 -83 R 864 -129 R 863 -59 R 864 -10 R D 20 setlinewidth L0
0.000 0.000 1.000 setrgbcolor 7618 7478 M 432 -515 R 432 -293 R 518 -182 R
345 -74 R 864 -113 R 863 -62 R 864 -33 R D 50 setlinewidth 7618 8415 M
432 -1033 R 432 -449 R 518 -271 R 345 -126 R 864 -169 R 863 -82 R 864 -48 R
D 80 setlinewidth 7962 9763 M 88 -381 R 432 -1392 R 518 -749 R 345 -280 R
864 -358 R 863 -188 R 864 -93 R D 110 setlinewidth 9483 9763 M 726 -993 R
863 -589 R 864 -583 R D 40 setlinewidth 0.000 0.000 0.000 setrgbcolor
12656 5586 M 4318 0 R D 12656 5586 M 0 167 R D
gsave 12656 5163 translate 0 0 M 0.8 dup scale -58.8433 0 N
( ) show grestore 13520 5586 M 0 167 R D gsave 13520 5163 translate 0 0 M
0.8 dup scale -58.8433 0 N
( ) show grestore 14383 5586 M 0 167 R D gsave 14383 5163 translate 0 0 M
0.8 dup scale -58.8433 0 N
( ) show grestore 15247 5586 M 0 167 R D gsave 15247 5163 translate 0 0 M
0.8 dup scale -58.8433 0 N
( ) show grestore 16110 5586 M 0 167 R D gsave 16110 5163 translate 0 0 M
0.8 dup scale -58.8433 0 N
( ) show grestore 16974 5586 M 0 167 R D gsave 16974 5163 translate 0 0 M
0.8 dup scale -58.8433 0 N
( ) show grestore 12829 5586 M 0 83 R D 13002 5586 M 0 83 R D 13174 5586 M
0 83 R D 13347 5586 M 0 83 R D 13692 5586 M 0 83 R D 13865 5586 M 0 83 R D
14038 5586 M 0 83 R D 14211 5586 M 0 83 R D 14556 5586 M 0 83 R D
14729 5586 M 0 83 R D 14901 5586 M 0 83 R D 15074 5586 M 0 83 R D
15420 5586 M 0 83 R D 15592 5586 M 0 83 R D 15765 5586 M 0 83 R D
15938 5586 M 0 83 R D 16283 5586 M 0 83 R D 16456 5586 M 0 83 R D
16629 5586 M 0 83 R D 16801 5586 M 0 83 R D 12656 9763 M 4318 0 R D
12656 9763 M 0 -167 R D 13520 9763 M 0 -167 R D 14383 9763 M 0 -167 R D
15247 9763 M 0 -167 R D 16110 9763 M 0 -167 R D 16974 9763 M 0 -167 R D
12829 9763 M 0 -83 R D 13002 9763 M 0 -83 R D 13174 9763 M 0 -83 R D
13347 9763 M 0 -83 R D 13692 9763 M 0 -83 R D 13865 9763 M 0 -83 R D
14038 9763 M 0 -83 R D 14211 9763 M 0 -83 R D 14556 9763 M 0 -83 R D
14729 9763 M 0 -83 R D 14901 9763 M 0 -83 R D 15074 9763 M 0 -83 R D
15420 9763 M 0 -83 R D 15592 9763 M 0 -83 R D 15765 9763 M 0 -83 R D
15938 9763 M 0 -83 R D 16283 9763 M 0 -83 R D 16456 9763 M 0 -83 R D
16629 9763 M 0 -83 R D 16801 9763 M 0 -83 R D 12656 5586 M 0 4177 R D
12656 6182 M 173 0 R D gsave 12545 6042 translate 0 0 M -235.373 0 N
(5) show grestore 12656 6865 M 173 0 R D gsave 12545 6724 translate 0 0 M
-470.747 0 N
(10) show grestore 12656 7548 M 173 0 R D gsave 12545 7407 translate 0 0 M
-470.747 0 N
(15) show grestore 12656 8231 M 173 0 R D gsave 12545 8090 translate 0 0 M
-470.747 0 N
(20) show grestore 12656 8914 M 173 0 R D gsave 12545 8773 translate 0 0 M
-470.747 0 N
(25) show grestore 12656 9597 M 173 0 R D gsave 12545 9456 translate 0 0 M
-470.747 0 N
(30) show grestore 12656 5636 M 86 0 R D 12656 5773 M 86 0 R D 12656 5909 M
86 0 R D 12656 6046 M 86 0 R D 12656 6319 M 86 0 R D 12656 6455 M 86 0 R D
12656 6592 M 86 0 R D 12656 6729 M 86 0 R D 12656 7002 M 86 0 R D
12656 7138 M 86 0 R D 12656 7275 M 86 0 R D 12656 7411 M 86 0 R D
12656 7685 M 86 0 R D 12656 7821 M 86 0 R D 12656 7958 M 86 0 R D
12656 8094 M 86 0 R D 12656 8367 M 86 0 R D 12656 8504 M 86 0 R D
12656 8641 M 86 0 R D 12656 8777 M 86 0 R D 12656 9050 M 86 0 R D
12656 9187 M 86 0 R D 12656 9323 M 86 0 R D 12656 9460 M 86 0 R D
12656 9733 M 86 0 R D 16974 5586 M 0 4177 R D 16974 6182 M -173 0 R D
16974 6865 M -173 0 R D 16974 7548 M -173 0 R D 16974 8231 M -173 0 R D
16974 8914 M -173 0 R D 16974 9597 M -173 0 R D 16974 5636 M -86 0 R D
16974 5773 M -86 0 R D 16974 5909 M -86 0 R D 16974 6046 M -86 0 R D
16974 6319 M -86 0 R D 16974 6455 M -86 0 R D 16974 6592 M -86 0 R D
16974 6729 M -86 0 R D 16974 7002 M -86 0 R D 16974 7138 M -86 0 R D
16974 7275 M -86 0 R D 16974 7411 M -86 0 R D 16974 7685 M -86 0 R D
16974 7821 M -86 0 R D 16974 7958 M -86 0 R D 16974 8094 M -86 0 R D
16974 8367 M -86 0 R D 16974 8504 M -86 0 R D 16974 8641 M -86 0 R D
16974 8777 M -86 0 R D 16974 9050 M -86 0 R D 16974 9187 M -86 0 R D
16974 9323 M -86 0 R D 16974 9460 M -86 0 R D 16974 9733 M -86 0 R D
30 setlinewidth L1 12656 9763 M 432 -1385 R 432 -680 R 518 -465 R 345 -206 R
864 -333 R 863 -199 R 864 -134 R D L2 12656 7652 M 432 -512 R 432 -274 R
518 -201 R 345 -93 R 864 -158 R 863 -100 R 864 -70 R D L3 12656 7722 M
432 -520 R 432 -751 R 518 -140 R 345 -64 R 864 -111 R 863 -69 R 864 -49 R D
20 setlinewidth L0 0.000 0.000 1.000 setrgbcolor 12656 6841 M 432 -293 R
432 -149 R 518 -106 R 345 -46 R 864 -71 R 863 -38 R 864 -20 R D
50 setlinewidth 12656 7109 M 432 -424 R 432 -201 R 518 -134 R 345 -59 R
864 -88 R 863 -47 R 864 -27 R D 80 setlinewidth 12656 7453 M 432 -543 R
432 -276 R 518 -185 R 345 -76 R 864 -121 R 863 -64 R 864 -36 R D
110 setlinewidth 12656 7724 M 432 -570 R 432 -296 R 518 -206 R 345 -105 R
864 -150 R 863 -103 R 864 -54 R D 0.000 0.000 0.000 setrgbcolor
gsave 17640 7130 translate 0 0 M 90 rotate
(bs1gs0.3) show grestore 40 setlinewidth 2580 1408 M 4318 0 R D 2580 1408 M
0 167 R D gsave 2580 986 translate 0 0 M 0.8 dup scale -411.903 0 N
(0.05) show grestore 3444 1408 M 0 167 R D gsave 3444 986 translate 0 0 M
0.8 dup scale -411.903 0 N
(0.10) show grestore 4307 1408 M 0 167 R D gsave 4307 986 translate 0 0 M
0.8 dup scale -411.903 0 N
(0.15) show grestore 5171 1408 M 0 167 R D gsave 5171 986 translate 0 0 M
0.8 dup scale -411.903 0 N
(0.20) show grestore 6034 1408 M 0 167 R D gsave 6034 986 translate 0 0 M
0.8 dup scale -411.903 0 N
(0.25) show grestore 6898 1408 M 0 167 R D gsave 6898 986 translate 0 0 M
0.8 dup scale -411.903 0 N
(0.30) show grestore 2753 1408 M 0 84 R D 2926 1408 M 0 84 R D 3098 1408 M
0 84 R D 3271 1408 M 0 84 R D 3616 1408 M 0 84 R D 3789 1408 M 0 84 R D
3962 1408 M 0 84 R D 4135 1408 M 0 84 R D 4480 1408 M 0 84 R D 4653 1408 M
0 84 R D 4825 1408 M 0 84 R D 4998 1408 M 0 84 R D 5344 1408 M 0 84 R D
5516 1408 M 0 84 R D 5689 1408 M 0 84 R D 5862 1408 M 0 84 R D 6207 1408 M
0 84 R D 6380 1408 M 0 84 R D 6553 1408 M 0 84 R D 6725 1408 M 0 84 R D
2580 5586 M 4318 0 R D 2580 5586 M 0 -167 R D 3444 5586 M 0 -167 R D
4307 5586 M 0 -167 R D 5171 5586 M 0 -167 R D 6034 5586 M 0 -167 R D
6898 5586 M 0 -167 R D 2753 5586 M 0 -84 R D 2926 5586 M 0 -84 R D
3098 5586 M 0 -84 R D 3271 5586 M 0 -84 R D 3616 5586 M 0 -84 R D
3789 5586 M 0 -84 R D 3962 5586 M 0 -84 R D 4135 5586 M 0 -84 R D
4480 5586 M 0 -84 R D 4653 5586 M 0 -84 R D 4825 5586 M 0 -84 R D
4998 5586 M 0 -84 R D 5344 5586 M 0 -84 R D 5516 5586 M 0 -84 R D
5689 5586 M 0 -84 R D 5862 5586 M 0 -84 R D 6207 5586 M 0 -84 R D
6380 5586 M 0 -84 R D 6553 5586 M 0 -84 R D 6725 5586 M 0 -84 R D
2580 1408 M 0 4178 R D 2580 2355 M 173 0 R D gsave 2469 2214 translate 0 0 M
-235.373 0 N
(2) show grestore 2580 3387 M 173 0 R D gsave 2469 3247 translate 0 0 M
-235.373 0 N
(4) show grestore 2580 4420 M 173 0 R D gsave 2469 4279 translate 0 0 M
-235.373 0 N
(6) show grestore 2580 5453 M 173 0 R D gsave 2469 5312 translate 0 0 M
-235.373 0 N
(8) show grestore 2580 1580 M 86 0 R D 2580 1838 M 86 0 R D 2580 2096 M
86 0 R D 2580 2613 M 86 0 R D 2580 2871 M 86 0 R D 2580 3129 M 86 0 R D
2580 3646 M 86 0 R D 2580 3904 M 86 0 R D 2580 4162 M 86 0 R D 2580 4678 M
86 0 R D 2580 4936 M 86 0 R D 2580 5195 M 86 0 R D 6898 1408 M 0 4178 R D
6898 2355 M -173 0 R D 6898 3387 M -173 0 R D 6898 4420 M -173 0 R D
6898 5453 M -173 0 R D 6898 1580 M -86 0 R D 6898 1838 M -86 0 R D
6898 2096 M -86 0 R D 6898 2613 M -86 0 R D 6898 2871 M -86 0 R D
6898 3129 M -86 0 R D 6898 3646 M -86 0 R D 6898 3904 M -86 0 R D
6898 4162 M -86 0 R D 6898 4678 M -86 0 R D 6898 4936 M -86 0 R D
6898 5195 M -86 0 R D 30 setlinewidth L1 2580 5585 M 432 -1385 R 432 -679 R
518 -466 R 345 -205 R 864 -333 R 863 -200 R 864 -133 R D L2 3009 5585 M
3 -7 R 432 -712 R 518 -521 R 345 -242 R 864 -410 R 863 -259 R 864 -180 R D
L3 2583 5585 M 429 -1109 R 432 -2001 R 518 -163 R 345 -71 R 864 -104 R
863 -28 R 864 35 R D 20 setlinewidth L0 0.000 0.000 1.000 setrgbcolor
2580 3404 M 432 -614 R 432 -273 R 518 -167 R 345 -77 R 864 -122 R 863 -72 R
864 -40 R D 50 setlinewidth 2580 4408 M 432 -1170 R 432 -432 R 518 -326 R
345 -96 R 864 -155 R 863 -89 R 864 -56 R D 80 setlinewidth 3377 5585 M
67 -200 R 518 -2081 R 345 -434 R 864 -416 R 863 -172 R 864 -84 R D
40 setlinewidth 0.000 0.000 0.000 setrgbcolor 7618 1408 M 4318 0 R D
7618 1408 M 0 167 R D gsave 7618 986 translate 0 0 M 0.8 dup scale
-411.903 0 N
(0.05) show grestore 8482 1408 M 0 167 R D gsave 8482 986 translate 0 0 M
0.8 dup scale -411.903 0 N
(0.10) show grestore 9345 1408 M 0 167 R D gsave 9345 986 translate 0 0 M
0.8 dup scale -411.903 0 N
(0.15) show grestore 10209 1408 M 0 167 R D gsave 10209 986 translate 0 0 M
0.8 dup scale -411.903 0 N
(0.20) show grestore 11072 1408 M 0 167 R D gsave 11072 986 translate 0 0 M
0.8 dup scale -411.903 0 N
(0.25) show grestore 11936 1408 M 0 167 R D gsave 11936 986 translate 0 0 M
0.8 dup scale -411.903 0 N
(0.30) show grestore 7791 1408 M 0 84 R D 7964 1408 M 0 84 R D 8136 1408 M
0 84 R D 8309 1408 M 0 84 R D 8654 1408 M 0 84 R D 8827 1408 M 0 84 R D
9000 1408 M 0 84 R D 9173 1408 M 0 84 R D 9518 1408 M 0 84 R D 9691 1408 M
0 84 R D 9863 1408 M 0 84 R D 10036 1408 M 0 84 R D 10382 1408 M 0 84 R D
10554 1408 M 0 84 R D 10727 1408 M 0 84 R D 10900 1408 M 0 84 R D
11245 1408 M 0 84 R D 11418 1408 M 0 84 R D 11591 1408 M 0 84 R D
11763 1408 M 0 84 R D 7618 5586 M 4318 0 R D 7618 5586 M 0 -167 R D
8482 5586 M 0 -167 R D 9345 5586 M 0 -167 R D 10209 5586 M 0 -167 R D
11072 5586 M 0 -167 R D 11936 5586 M 0 -167 R D 7791 5586 M 0 -84 R D
7964 5586 M 0 -84 R D 8136 5586 M 0 -84 R D 8309 5586 M 0 -84 R D
8654 5586 M 0 -84 R D 8827 5586 M 0 -84 R D 9000 5586 M 0 -84 R D
9173 5586 M 0 -84 R D 9518 5586 M 0 -84 R D 9691 5586 M 0 -84 R D
9863 5586 M 0 -84 R D 10036 5586 M 0 -84 R D 10382 5586 M 0 -84 R D
10554 5586 M 0 -84 R D 10727 5586 M 0 -84 R D 10900 5586 M 0 -84 R D
11245 5586 M 0 -84 R D 11418 5586 M 0 -84 R D 11591 5586 M 0 -84 R D
11763 5586 M 0 -84 R D 7618 1408 M 0 4178 R D 7618 2028 M 173 0 R D
gsave 7507 1887 translate 0 0 M -235.373 0 N
(2) show grestore 7618 2734 M 173 0 R D gsave 7507 2594 translate 0 0 M
-235.373 0 N
(4) show grestore 7618 3441 M 173 0 R D gsave 7507 3300 translate 0 0 M
-235.373 0 N
(6) show grestore 7618 4147 M 173 0 R D gsave 7507 4006 translate 0 0 M
-235.373 0 N
(8) show grestore 7618 4853 M 173 0 R D gsave 7507 4712 translate 0 0 M
-470.747 0 N
(10) show grestore 7618 5559 M 173 0 R D gsave 7507 5339 translate 0 0 M
-470.747 0 N
(12) show grestore 7618 1498 M 86 0 R D 7618 1675 M 86 0 R D 7618 1852 M
86 0 R D 7618 2205 M 86 0 R D 7618 2381 M 86 0 R D 7618 2558 M 86 0 R D
7618 2911 M 86 0 R D 7618 3088 M 86 0 R D 7618 3264 M 86 0 R D 7618 3617 M
86 0 R D 7618 3794 M 86 0 R D 7618 3970 M 86 0 R D 7618 4323 M 86 0 R D
7618 4500 M 86 0 R D 7618 4677 M 86 0 R D 7618 5030 M 86 0 R D 7618 5206 M
86 0 R D 7618 5383 M 86 0 R D 11936 1408 M 0 4178 R D 11936 2028 M -173 0 R
D 11936 2734 M -173 0 R D 11936 3441 M -173 0 R D 11936 4147 M -173 0 R D
11936 4853 M -173 0 R D 11936 5559 M -173 0 R D 11936 1498 M -86 0 R D
11936 1675 M -86 0 R D 11936 1852 M -86 0 R D 11936 2205 M -86 0 R D
11936 2381 M -86 0 R D 11936 2558 M -86 0 R D 11936 2911 M -86 0 R D
11936 3088 M -86 0 R D 11936 3264 M -86 0 R D 11936 3617 M -86 0 R D
11936 3794 M -86 0 R D 11936 3970 M -86 0 R D 11936 4323 M -86 0 R D
11936 4500 M -86 0 R D 11936 4677 M -86 0 R D 11936 5030 M -86 0 R D
11936 5206 M -86 0 R D 11936 5383 M -86 0 R D 30 setlinewidth L1 7618 5585 M
432 -1385 R 432 -679 R 518 -466 R 345 -205 R 864 -333 R 863 -200 R
864 -133 R D L2 7678 5585 M 372 -902 R 432 -562 R 518 -411 R 345 -191 R
864 -324 R 863 -205 R 864 -142 R D L3 7618 5487 M 432 -1215 R 432 -1672 R
518 -183 R 345 -83 R 864 -129 R 863 -60 R 864 -10 R D 20 setlinewidth L0
0.000 0.000 1.000 setrgbcolor 7618 3301 M 432 -515 R 432 -294 R 518 -182 R
345 -74 R 864 -112 R 863 -63 R 864 -33 R D 50 setlinewidth 7618 4238 M
432 -1034 R 432 -449 R 518 -270 R 345 -127 R 864 -169 R 863 -82 R 864 -47 R
D 80 setlinewidth 8266 5585 M 216 -1328 R 518 -1179 R 345 -294 R 864 -359 R
863 -188 R 864 -93 R D 110 setlinewidth 10778 5585 M 294 -418 R 864 -756 R D
40 setlinewidth 0.000 0.000 0.000 setrgbcolor 12656 1408 M 4318 0 R D
12656 1408 M 0 167 R D gsave 12656 986 translate 0 0 M 0.8 dup scale
-411.903 0 N
(0.05) show grestore 13520 1408 M 0 167 R D gsave 13520 986 translate 0 0 M
0.8 dup scale -411.903 0 N
(0.10) show grestore 14383 1408 M 0 167 R D gsave 14383 986 translate 0 0 M
0.8 dup scale -411.903 0 N
(0.15) show grestore 15247 1408 M 0 167 R D gsave 15247 986 translate 0 0 M
0.8 dup scale -411.903 0 N
(0.20) show grestore 16110 1408 M 0 167 R D gsave 16110 986 translate 0 0 M
0.8 dup scale -411.903 0 N
(0.25) show grestore 16974 1408 M 0 167 R D gsave 16974 986 translate 0 0 M
0.8 dup scale -411.903 0 N
(0.30) show grestore 12829 1408 M 0 84 R D 13002 1408 M 0 84 R D
13174 1408 M 0 84 R D 13347 1408 M 0 84 R D 13692 1408 M 0 84 R D
13865 1408 M 0 84 R D 14038 1408 M 0 84 R D 14211 1408 M 0 84 R D
14556 1408 M 0 84 R D 14729 1408 M 0 84 R D 14901 1408 M 0 84 R D
15074 1408 M 0 84 R D 15420 1408 M 0 84 R D 15592 1408 M 0 84 R D
15765 1408 M 0 84 R D 15938 1408 M 0 84 R D 16283 1408 M 0 84 R D
16456 1408 M 0 84 R D 16629 1408 M 0 84 R D 16801 1408 M 0 84 R D
12656 5586 M 4318 0 R D 12656 5586 M 0 -167 R D 13520 5586 M 0 -167 R D
14383 5586 M 0 -167 R D 15247 5586 M 0 -167 R D 16110 5586 M 0 -167 R D
16974 5586 M 0 -167 R D 12829 5586 M 0 -84 R D 13002 5586 M 0 -84 R D
13174 5586 M 0 -84 R D 13347 5586 M 0 -84 R D 13692 5586 M 0 -84 R D
13865 5586 M 0 -84 R D 14038 5586 M 0 -84 R D 14211 5586 M 0 -84 R D
14556 5586 M 0 -84 R D 14729 5586 M 0 -84 R D 14901 5586 M 0 -84 R D
15074 5586 M 0 -84 R D 15420 5586 M 0 -84 R D 15592 5586 M 0 -84 R D
15765 5586 M 0 -84 R D 15938 5586 M 0 -84 R D 16283 5586 M 0 -84 R D
16456 5586 M 0 -84 R D 16629 5586 M 0 -84 R D 16801 5586 M 0 -84 R D
12656 1408 M 0 4178 R D 12656 2005 M 173 0 R D
gsave 12545 1864 translate 0 0 M -235.373 0 N
(5) show grestore 12656 2688 M 173 0 R D gsave 12545 2547 translate 0 0 M
-470.747 0 N
(10) show grestore 12656 3370 M 173 0 R D gsave 12545 3230 translate 0 0 M
-470.747 0 N
(15) show grestore 12656 4053 M 173 0 R D gsave 12545 3912 translate 0 0 M
-470.747 0 N
(20) show grestore 12656 4736 M 173 0 R D gsave 12545 4595 translate 0 0 M
-470.747 0 N
(25) show grestore 12656 5419 M 173 0 R D gsave 12545 5278 translate 0 0 M
-470.747 0 N
(30) show grestore 12656 1458 M 86 0 R D 12656 1595 M 86 0 R D 12656 1732 M
86 0 R D 12656 1868 M 86 0 R D 12656 2141 M 86 0 R D 12656 2278 M 86 0 R D
12656 2414 M 86 0 R D 12656 2551 M 86 0 R D 12656 2824 M 86 0 R D
12656 2961 M 86 0 R D 12656 3097 M 86 0 R D 12656 3234 M 86 0 R D
12656 3507 M 86 0 R D 12656 3644 M 86 0 R D 12656 3780 M 86 0 R D
12656 3917 M 86 0 R D 12656 4190 M 86 0 R D 12656 4326 M 86 0 R D
12656 4463 M 86 0 R D 12656 4600 M 86 0 R D 12656 4873 M 86 0 R D
12656 5009 M 86 0 R D 12656 5146 M 86 0 R D 12656 5282 M 86 0 R D
12656 5556 M 86 0 R D 16974 1408 M 0 4178 R D 16974 2005 M -173 0 R D
16974 2688 M -173 0 R D 16974 3370 M -173 0 R D 16974 4053 M -173 0 R D
16974 4736 M -173 0 R D 16974 5419 M -173 0 R D 16974 1458 M -86 0 R D
16974 1595 M -86 0 R D 16974 1732 M -86 0 R D 16974 1868 M -86 0 R D
16974 2141 M -86 0 R D 16974 2278 M -86 0 R D 16974 2414 M -86 0 R D
16974 2551 M -86 0 R D 16974 2824 M -86 0 R D 16974 2961 M -86 0 R D
16974 3097 M -86 0 R D 16974 3234 M -86 0 R D 16974 3507 M -86 0 R D
16974 3644 M -86 0 R D 16974 3780 M -86 0 R D 16974 3917 M -86 0 R D
16974 4190 M -86 0 R D 16974 4326 M -86 0 R D 16974 4463 M -86 0 R D
16974 4600 M -86 0 R D 16974 4873 M -86 0 R D 16974 5009 M -86 0 R D
16974 5146 M -86 0 R D 16974 5282 M -86 0 R D 16974 5556 M -86 0 R D
30 setlinewidth L1 12656 5585 M 432 -1385 R 432 -679 R 518 -466 R 345 -205 R
864 -333 R 863 -200 R 864 -133 R D L2 12656 3474 M 432 -511 R 432 -275 R
518 -201 R 345 -93 R 864 -158 R 863 -100 R 864 -69 R D L3 12656 3545 M
432 -521 R 432 -750 R 518 -140 R 345 -65 R 864 -110 R 863 -70 R 864 -48 R D
20 setlinewidth L0 0.000 0.000 1.000 setrgbcolor 12656 2663 M 432 -292 R
432 -150 R 518 -105 R 345 -46 R 864 -72 R 863 -38 R 864 -20 R D
50 setlinewidth 12656 2931 M 432 -423 R 432 -201 R 518 -135 R 345 -59 R
864 -88 R 863 -47 R 864 -26 R D 80 setlinewidth 12656 3301 M 432 -567 R
432 -278 R 518 -185 R 345 -75 R 864 -121 R 863 -65 R 864 -36 R D
110 setlinewidth 12656 3650 M 432 -594 R 432 -318 R 518 -226 R 345 -97 R
864 -168 R 863 -112 R 864 -71 R D 0.000 0.000 0.000 setrgbcolor
gsave 17640 2760 translate 0 0 M 90 rotate
(bs1gs0.05) show grestore
%%PageTrailer
end
%%PageResources: font Helvetica
%%+ font Helvetica-Bold
%%Trailer
%%Pages: 1
%%DocumentNeededResources: font Helvetica
%%+ font Helvetica-Bold
%%EOF
