%!PS-Adobe-3.0 EPSF-3.0
%%BoundingBox: 0 0 510 184
%%Title: Graphics produced by IDL
%%For: jlgan@aida119, /home/jlgan/work/subhalo_model
%%Creator: IDL Version 7.0 (linux x86_64 m64)
%%CreationDate: Tue May 12 17:46:11 2009
%%DocumentData: Clean7bit
%%Requirements: color
%%LanguageLevel: 1
%%PageOrder: Ascend
%%Pages: (atend)
%%DocumentNeededResources: (atend)
%%EndComments
%%BeginProlog
%+ prolog.ps -- Prolog for IDL generated PostScript files
%+ Copyright (c) 1988-2007 ITT Visual Information Solutions. All Rights Reserved.
%v 5
/$IDL_DICT 40 dict def $IDL_DICT begin /bdef { bind def } bind def /C
{currentpoint newpath moveto} bdef /CP {currentpoint} bdef /D {currentpoint
stroke moveto} bdef /F {closepath fill} bdef /K { setgray } bdef /M {moveto}
bdef /N {rmoveto} bdef /P {lineto} bdef /R {rlineto} bdef /S {gsave show
grestore} bdef /X {currentpoint pop} bdef /Z {gsave currentpoint lineto 20
setlinewidth 1 setlinecap stroke grestore} bdef /L0 {[] 0 setdash} bdef /L1
{[40 100] 0 setdash} bdef /L2 {[200 200] 0 setdash} bdef /L3 {[200 100 50
100] 0 setdash} bdef /L4 {[300 100 50 100 50 100 50 100] 0 setdash} bdef /L5
{[400 200] 0 setdash} bdef /STDFONT { findfont exch scalefont setfont } bdef
/ISOFONT { findfont dup length dict begin { 1 index /FID ne {def} {pop pop}
ifelse } forall /Encoding ISOLatin1Encoding def currentdict end /idltmpfont
exch definefont exch scalefont setfont } bdef /ISOBULLET { gsave /Helvetica
findfont exch scalefont setfont (\267) show currentpoint grestore moveto}
bdef /MITERLIMIT { 2.5 setmiterlimit } bdef end
%%EndProlog
%%Page: 0 1
%%PageRequirements: color
%%PageResources: (atend)
%%PageOrientation: Portrait
%%PageBoundingBox: 0 0 510 184
%%BeginPageSetup
$IDL_DICT begin 0.0283465 dup scale MITERLIMIT
%%IncludeResource: font Helvetica
423.333 /Helvetica STDFONT
%%EndPageSetup
30 setlinewidth L0 0.000 0.000 0.000 setrgbcolor 8516 565 M 0 -213 R D
8516 504 M 46 45 R 30 16 R 46 0 R 30 -16 R 15 -45 R 0 -152 R D 8683 504 M
46 45 R 30 16 R 46 0 R 30 -16 R 16 -45 R 0 -152 R D 9078 732 M -30 -31 R
-30 -45 R -31 -61 R -15 -76 R 0 -61 R 15 -76 R 31 -76 R 30 -45 R 30 -30 R D
9261 671 M -46 -15 R -30 -46 R -15 -76 R 0 -45 R 15 -76 R 30 -46 R 46 -15 R
30 0 R 46 15 R 30 46 R 15 76 R 0 45 R -15 76 R -30 46 R -46 15 R -30 0 R D
9473 732 M 31 -31 R 30 -45 R 30 -61 R 16 -76 R 0 -61 R -16 -76 R -30 -76 R
-30 -45 R -31 -30 R D 9944 732 M -273 -501 R D 10035 671 M 0 -319 R D
10035 671 M 122 -319 R 121 319 R 0 -319 R D 10506 732 M -30 -31 R -31 -45 R
-30 -61 R -15 -76 R 0 -61 R 15 -76 R 30 -76 R 31 -45 R 30 -30 R D
10688 671 M -45 -15 R -30 -46 R -16 -76 R 0 -45 R 16 -76 R 30 -46 R 45 -15 R
31 0 R 45 15 R 31 46 R 15 76 R 0 45 R -15 76 R -31 46 R -45 15 R -31 0 R D
10901 732 M 30 -31 R 31 -45 R 30 -61 R 15 -76 R 0 -61 R -15 -76 R -30 -76 R
-31 -45 R -30 -30 R D 1035 1620 M 213 0 R D 1096 1620 M -45 45 R -16 31 R
0 45 R 16 31 R 45 15 R 152 0 R D 1096 1787 M -45 45 R -16 31 R 0 45 R
16 31 R 45 15 R 152 0 R D 1127 2060 M 0 183 R -31 0 R -30 -16 R -15 -15 R
-16 -30 R 0 -46 R 16 -30 R 30 -31 R 46 -15 R 30 0 R 46 15 R 30 31 R 15 30 R
0 46 R -15 30 R -30 31 R D 1035 2349 M 213 0 R D 1127 2349 M -46 15 R
-30 30 R -16 31 R 0 45 R D 1035 2713 M 259 0 R 45 -15 R 15 -15 R 16 -30 R
0 -46 R -16 -30 R D 1081 2713 M -30 -30 R -16 -30 R 0 -46 R 16 -30 R
30 -31 R 46 -15 R 30 0 R 46 15 R 30 31 R 15 30 R 0 46 R -15 30 R -30 30 R D
1127 2820 M 0 182 R -31 0 R -30 -15 R -15 -15 R -16 -31 R 0 -45 R 16 -31 R
30 -30 R 46 -15 R 30 0 R 46 15 R 30 30 R 15 31 R 0 45 R -15 31 R -30 30 R D
1035 3108 M 213 0 R D 1127 3108 M -46 16 R -30 30 R -16 30 R 0 46 R D
929 3564 M 258 0 R 46 15 R 15 31 R 0 30 R D 1035 3518 M 0 107 R D 929 3716 M
15 15 R -15 15 R -15 -15 R 15 -15 R D 1035 3731 M 213 0 R D 1035 3853 M
213 0 R D 1096 3853 M -45 45 R -16 31 R 0 45 R 16 31 R 45 15 R 152 0 R D
1096 4020 M -45 45 R -16 31 R 0 45 R 16 31 R 45 15 R 152 0 R D 1127 4293 M
0 182 R -31 0 R -30 -15 R -15 -15 R -16 -30 R 0 -46 R 16 -30 R 30 -31 R
46 -15 R 30 0 R 46 15 R 30 31 R 15 30 R 0 46 R -15 30 R -30 30 R D
868 4825 M 502 -274 R D 1005 5129 M -30 -16 R -31 -30 R -15 -30 R 0 -61 R
15 -31 R 31 -30 R 30 -15 R 46 -15 R 76 0 R 45 15 R 31 15 R 30 30 R 15 31 R
0 61 R -15 30 R -30 30 R -31 16 R -45 0 R 0 -76 R D 1035 5205 M 213 91 R
-213 91 R D 1248 5296 M 76 -31 R 30 -30 R 16 -30 R 0 -16 R D 1035 5478 M
213 0 R D 1127 5478 M -46 15 R -30 31 R -16 30 R 0 45 R D 20 setlinewidth
2580 1408 M 4318 0 R D 2580 1408 M 0 176 R D 30 setlinewidth 2328 1182 M
-28 -9 R -19 -28 R -9 -47 R 0 -28 R 9 -47 R 19 -28 R 28 -9 R 18 0 R 28 9 R
19 28 R 9 47 R 0 28 R -9 47 R -19 28 R -28 9 R -18 0 R D 2477 1004 M -9 -9 R
9 -9 R 10 9 R -10 9 R D 2608 1182 M -28 -9 R -19 -28 R -9 -47 R 0 -28 R
9 -47 R 19 -28 R 28 -9 R 19 0 R 28 9 R 19 28 R 9 47 R 0 28 R -9 47 R
-19 28 R -28 9 R -19 0 R D 2851 1182 M -93 0 R -10 -84 R 10 9 R 28 9 R
28 0 R 28 -9 R 19 -19 R 9 -28 R 0 -18 R -9 -28 R -19 -19 R -28 -9 R -28 0 R
-28 9 R -10 9 R -9 19 R D 20 setlinewidth 3444 1408 M 0 176 R D
30 setlinewidth 3191 1182 M -28 -9 R -18 -28 R -10 -47 R 0 -28 R 10 -47 R
18 -28 R 28 -9 R 19 0 R 28 9 R 19 28 R 9 47 R 0 28 R -9 47 R -19 28 R
-28 9 R -19 0 R D 3341 1004 M -9 -9 R 9 -9 R 9 9 R -9 9 R D 3444 1145 M
18 9 R 28 28 R 0 -196 R D 3659 1182 M -28 -9 R -19 -28 R -9 -47 R 0 -28 R
9 -47 R 19 -28 R 28 -9 R 18 0 R 28 9 R 19 28 R 9 47 R 0 28 R -9 47 R
-19 28 R -28 9 R -18 0 R D 20 setlinewidth 4307 1408 M 0 176 R D
30 setlinewidth 4055 1182 M -28 -9 R -19 -28 R -9 -47 R 0 -28 R 9 -47 R
19 -28 R 28 -9 R 19 0 R 28 9 R 18 28 R 10 47 R 0 28 R -10 47 R -18 28 R
-28 9 R -19 0 R D 4204 1004 M -9 -9 R 9 -9 R 10 9 R -10 9 R D 4307 1145 M
19 9 R 28 28 R 0 -196 R D 4578 1182 M -93 0 R -9 -84 R 9 9 R 28 9 R 28 0 R
28 -9 R 19 -19 R 9 -28 R 0 -18 R -9 -28 R -19 -19 R -28 -9 R -28 0 R -28 9 R
-9 9 R -10 19 R D 20 setlinewidth 5171 1408 M 0 176 R D 30 setlinewidth
4919 1182 M -29 -9 R -18 -28 R -10 -47 R 0 -28 R 10 -47 R 18 -28 R 29 -9 R
18 0 R 28 9 R 19 28 R 9 47 R 0 28 R -9 47 R -19 28 R -28 9 R -18 0 R D
5068 1004 M -9 -9 R 9 -9 R 9 9 R -9 9 R D 5152 1135 M 0 10 R 10 18 R 9 10 R
19 9 R 37 0 R 19 -9 R 9 -10 R 9 -18 R 0 -19 R -9 -19 R -19 -28 R -93 -93 R
131 0 R D 5386 1182 M -28 -9 R -19 -28 R -9 -47 R 0 -28 R 9 -47 R 19 -28 R
28 -9 R 19 0 R 28 9 R 18 28 R 10 47 R 0 28 R -10 47 R -18 28 R -28 9 R
-19 0 R D 20 setlinewidth 6034 1408 M 0 176 R D 30 setlinewidth 5782 1182 M
-28 -9 R -19 -28 R -9 -47 R 0 -28 R 9 -47 R 19 -28 R 28 -9 R 19 0 R 28 9 R
19 28 R 9 47 R 0 28 R -9 47 R -19 28 R -28 9 R -19 0 R D 5932 1004 M
-10 -9 R 10 -9 R 9 9 R -9 9 R D 6016 1135 M 0 10 R 9 18 R 9 10 R 19 9 R
38 0 R 18 -9 R 10 -10 R 9 -18 R 0 -19 R -9 -19 R -19 -28 R -94 -93 R 131 0 R
D 6306 1182 M -94 0 R -9 -84 R 9 9 R 28 9 R 28 0 R 28 -9 R 19 -19 R 9 -28 R
0 -18 R -9 -28 R -19 -19 R -28 -9 R -28 0 R -28 9 R -9 9 R -10 19 R D
20 setlinewidth 6898 1408 M 0 176 R D 30 setlinewidth 6646 1182 M -28 -9 R
-19 -28 R -9 -47 R 0 -28 R 9 -47 R 19 -28 R 28 -9 R 18 0 R 28 9 R 19 28 R
9 47 R 0 28 R -9 47 R -19 28 R -28 9 R -18 0 R D 6795 1004 M -9 -9 R 9 -9 R
10 9 R -10 9 R D 6889 1182 M 103 0 R -57 -75 R 29 0 R 18 -9 R 10 -10 R
9 -28 R 0 -18 R -9 -28 R -19 -19 R -28 -9 R -28 0 R -28 9 R -10 9 R -9 19 R
D 7113 1182 M -28 -9 R -19 -28 R -9 -47 R 0 -28 R 9 -47 R 19 -28 R 28 -9 R
19 0 R 28 9 R 19 28 R 9 47 R 0 28 R -9 47 R -19 28 R -28 9 R -19 0 R D
20 setlinewidth 2753 1408 M 0 88 R D 2926 1408 M 0 88 R D 3098 1408 M 0 88 R
D 3271 1408 M 0 88 R D 3616 1408 M 0 88 R D 3789 1408 M 0 88 R D 3962 1408 M
0 88 R D 4135 1408 M 0 88 R D 4480 1408 M 0 88 R D 4653 1408 M 0 88 R D
4825 1408 M 0 88 R D 4998 1408 M 0 88 R D 5344 1408 M 0 88 R D 5516 1408 M
0 88 R D 5689 1408 M 0 88 R D 5862 1408 M 0 88 R D 6207 1408 M 0 88 R D
6380 1408 M 0 88 R D 6553 1408 M 0 88 R D 6725 1408 M 0 88 R D 2580 5796 M
4318 0 R D 2580 5796 M 0 -175 R D 3444 5796 M 0 -175 R D 4307 5796 M
0 -175 R D 5171 5796 M 0 -175 R D 6034 5796 M 0 -175 R D 6898 5796 M
0 -175 R D 2753 5796 M 0 -88 R D 2926 5796 M 0 -88 R D 3098 5796 M 0 -88 R D
3271 5796 M 0 -88 R D 3616 5796 M 0 -88 R D 3789 5796 M 0 -88 R D
3962 5796 M 0 -88 R D 4135 5796 M 0 -88 R D 4480 5796 M 0 -88 R D
4653 5796 M 0 -88 R D 4825 5796 M 0 -88 R D 4998 5796 M 0 -88 R D
5344 5796 M 0 -88 R D 5516 5796 M 0 -88 R D 5689 5796 M 0 -88 R D
5862 5796 M 0 -88 R D 6207 5796 M 0 -88 R D 6380 5796 M 0 -88 R D
6553 5796 M 0 -88 R D 6725 5796 M 0 -88 R D 2580 1408 M 0 4388 R D
2580 2402 M 173 0 R D 30 setlinewidth 2270 2448 M 0 12 R 12 23 R 12 12 R
23 12 R 47 0 R 23 -12 R 12 -12 R 12 -23 R 0 -23 R -12 -24 R -23 -35 R
-117 -117 R 163 0 R D 20 setlinewidth 2580 3487 M 173 0 R D 30 setlinewidth
2376 3592 M -117 -164 R 175 0 R D 2376 3592 M 0 -246 R D 20 setlinewidth
2580 4572 M 173 0 R D 30 setlinewidth 2411 4641 M -12 24 R -35 11 R -23 0 R
-35 -11 R -24 -35 R -12 -59 R 0 -58 R 12 -47 R 24 -23 R 35 -12 R 11 0 R
35 12 R 24 23 R 11 35 R 0 12 R -11 35 R -24 23 R -35 12 R -11 0 R -35 -12 R
-24 -23 R -12 -35 R D 20 setlinewidth 2580 5656 M 173 0 R D 30 setlinewidth
2317 5761 M -35 -12 R -12 -23 R 0 -23 R 12 -24 R 24 -11 R 46 -12 R 35 -12 R
24 -23 R 11 -24 R 0 -35 R -11 -23 R -12 -12 R -35 -11 R -47 0 R -35 11 R
-12 12 R -11 23 R 0 35 R 11 24 R 24 23 R 35 12 R 47 12 R 23 11 R 12 24 R
0 23 R -12 23 R -35 12 R -47 0 R D 20 setlinewidth 2580 1589 M 86 0 R D
2580 1860 M 86 0 R D 2580 2131 M 86 0 R D 2580 2673 M 86 0 R D 2580 2945 M
86 0 R D 2580 3216 M 86 0 R D 2580 3758 M 86 0 R D 2580 4029 M 86 0 R D
2580 4301 M 86 0 R D 2580 4843 M 86 0 R D 2580 5114 M 86 0 R D 2580 5385 M
86 0 R D 6898 1408 M 0 4388 R D 6898 2402 M -173 0 R D 6898 3487 M -173 0 R
D 6898 4572 M -173 0 R D 6898 5656 M -173 0 R D 6898 1589 M -86 0 R D
6898 1860 M -86 0 R D 6898 2131 M -86 0 R D 6898 2673 M -86 0 R D
6898 2945 M -86 0 R D 6898 3216 M -86 0 R D 6898 3758 M -86 0 R D
6898 4029 M -86 0 R D 6898 4301 M -86 0 R D 6898 4843 M -86 0 R D
6898 5114 M -86 0 R D 6898 5385 M -86 0 R D 30 setlinewidth L1 2580 5796 M
432 -1456 R 432 -713 R 518 -489 R 345 -216 R 864 -349 R 863 -210 R
864 -140 R D L2 3009 5796 M 3 -9 R 432 -747 R 518 -547 R 345 -254 R
864 -431 R 863 -272 R 864 -189 R D L3 2582 5796 M 430 -1165 R 432 -2385 R
518 -131 R 345 -58 R 864 -83 R 863 -23 R 864 29 R D L0
1.000 0.000 0.706 setrgbcolor 2580 4712 M 432 -1361 R 432 -466 R 518 -345 R
345 -106 R 864 -162 R 863 -95 R 864 -58 R D 0.506 0.000 0.000 setrgbcolor
2580 5102 M 432 -1625 R 432 -538 R 518 -377 R 345 -112 R 864 -168 R
863 -96 R 864 -59 R D 1.000 0.349 0.000 setrgbcolor 2790 5796 M 222 -1897 R
432 -812 R 518 -421 R 345 -161 R 864 -189 R 863 -104 R 864 -65 R D
0.000 0.549 0.000 setrgbcolor 2998 5796 M 14 -147 R 432 -2134 R 518 -635 R
345 -225 R 864 -287 R 863 -117 R 864 -73 R D 0.000 0.514 1.000 setrgbcolor
3283 5796 M 161 -892 R 518 -1684 R 345 -367 R 864 -416 R 863 -142 R
864 -83 R D 0.000 0.000 1.000 setrgbcolor 3416 5796 M 28 -164 R 518 -1618 R
345 -865 R 864 -584 R 863 -231 R 864 -92 R D 0.000 0.000 0.000 setrgbcolor
5829 5411 M -23 11 R -35 0 R -24 -11 R -23 -24 R -12 -35 R 0 -35 R 12 -35 R
12 -12 R 23 -11 R 35 0 R 24 11 R D 5712 5340 M 94 0 R D 5911 5399 M 210 0 R
D 5911 5329 M 210 0 R D 6273 5504 M -35 -12 R -23 -35 R -12 -58 R 0 -35 R
12 -59 R 23 -35 R 35 -11 R 24 0 R 35 11 R 23 35 R 12 59 R 0 35 R -12 58 R
-23 35 R -35 12 R -24 0 R D 6460 5282 M -11 -12 R 11 -11 R 12 11 R -12 12 R
D 6577 5504 M 129 0 R -71 -93 R 36 0 R 23 -12 R 12 -12 R 11 -35 R 0 -23 R
-11 -35 R -24 -24 R -35 -11 R -35 0 R -35 11 R -12 12 R -11 23 R D
20 setlinewidth 7618 1408 M 4318 0 R D 7618 1408 M 0 176 R D 30 setlinewidth
7366 1182 M -28 -9 R -19 -28 R -9 -47 R 0 -28 R 9 -47 R 19 -28 R 28 -9 R
18 0 R 28 9 R 19 28 R 9 47 R 0 28 R -9 47 R -19 28 R -28 9 R -18 0 R D
7515 1004 M -9 -9 R 9 -9 R 10 9 R -10 9 R D 7646 1182 M -28 -9 R -19 -28 R
-9 -47 R 0 -28 R 9 -47 R 19 -28 R 28 -9 R 19 0 R 28 9 R 19 28 R 9 47 R
0 28 R -9 47 R -19 28 R -28 9 R -19 0 R D 7889 1182 M -93 0 R -10 -84 R
10 9 R 28 9 R 28 0 R 28 -9 R 19 -19 R 9 -28 R 0 -18 R -9 -28 R -19 -19 R
-28 -9 R -28 0 R -28 9 R -10 9 R -9 19 R D 20 setlinewidth 8482 1408 M
0 176 R D 30 setlinewidth 8229 1182 M -28 -9 R -18 -28 R -10 -47 R 0 -28 R
10 -47 R 18 -28 R 28 -9 R 19 0 R 28 9 R 19 28 R 9 47 R 0 28 R -9 47 R
-19 28 R -28 9 R -19 0 R D 8379 1004 M -9 -9 R 9 -9 R 9 9 R -9 9 R D
8482 1145 M 18 9 R 28 28 R 0 -196 R D 8697 1182 M -28 -9 R -19 -28 R
-9 -47 R 0 -28 R 9 -47 R 19 -28 R 28 -9 R 18 0 R 28 9 R 19 28 R 9 47 R
0 28 R -9 47 R -19 28 R -28 9 R -18 0 R D 20 setlinewidth 9345 1408 M
0 176 R D 30 setlinewidth 9093 1182 M -28 -9 R -19 -28 R -9 -47 R 0 -28 R
9 -47 R 19 -28 R 28 -9 R 19 0 R 28 9 R 18 28 R 10 47 R 0 28 R -10 47 R
-18 28 R -28 9 R -19 0 R D 9242 1004 M -9 -9 R 9 -9 R 10 9 R -10 9 R D
9345 1145 M 19 9 R 28 28 R 0 -196 R D 9616 1182 M -93 0 R -9 -84 R 9 9 R
28 9 R 28 0 R 28 -9 R 19 -19 R 9 -28 R 0 -18 R -9 -28 R -19 -19 R -28 -9 R
-28 0 R -28 9 R -9 9 R -10 19 R D 20 setlinewidth 10209 1408 M 0 176 R D
30 setlinewidth 9957 1182 M -29 -9 R -18 -28 R -10 -47 R 0 -28 R 10 -47 R
18 -28 R 29 -9 R 18 0 R 28 9 R 19 28 R 9 47 R 0 28 R -9 47 R -19 28 R
-28 9 R -18 0 R D 10106 1004 M -9 -9 R 9 -9 R 9 9 R -9 9 R D 10190 1135 M
0 10 R 10 18 R 9 10 R 19 9 R 37 0 R 19 -9 R 9 -10 R 9 -18 R 0 -19 R -9 -19 R
-19 -28 R -93 -93 R 131 0 R D 10424 1182 M -28 -9 R -19 -28 R -9 -47 R
0 -28 R 9 -47 R 19 -28 R 28 -9 R 19 0 R 28 9 R 18 28 R 10 47 R 0 28 R
-10 47 R -18 28 R -28 9 R -19 0 R D 20 setlinewidth 11072 1408 M 0 176 R D
30 setlinewidth 10820 1182 M -28 -9 R -19 -28 R -9 -47 R 0 -28 R 9 -47 R
19 -28 R 28 -9 R 19 0 R 28 9 R 19 28 R 9 47 R 0 28 R -9 47 R -19 28 R
-28 9 R -19 0 R D 10970 1004 M -10 -9 R 10 -9 R 9 9 R -9 9 R D 11054 1135 M
0 10 R 9 18 R 9 10 R 19 9 R 38 0 R 18 -9 R 10 -10 R 9 -18 R 0 -19 R -9 -19 R
-19 -28 R -94 -93 R 131 0 R D 11344 1182 M -94 0 R -9 -84 R 9 9 R 28 9 R
28 0 R 28 -9 R 19 -19 R 9 -28 R 0 -18 R -9 -28 R -19 -19 R -28 -9 R -28 0 R
-28 9 R -9 9 R -10 19 R D 20 setlinewidth 11936 1408 M 0 176 R D
30 setlinewidth 11684 1182 M -28 -9 R -19 -28 R -9 -47 R 0 -28 R 9 -47 R
19 -28 R 28 -9 R 18 0 R 28 9 R 19 28 R 9 47 R 0 28 R -9 47 R -19 28 R
-28 9 R -18 0 R D 11833 1004 M -9 -9 R 9 -9 R 10 9 R -10 9 R D 11927 1182 M
103 0 R -57 -75 R 29 0 R 18 -9 R 10 -10 R 9 -28 R 0 -18 R -9 -28 R -19 -19 R
-28 -9 R -28 0 R -28 9 R -10 9 R -9 19 R D 12151 1182 M -28 -9 R -19 -28 R
-9 -47 R 0 -28 R 9 -47 R 19 -28 R 28 -9 R 19 0 R 28 9 R 19 28 R 9 47 R
0 28 R -9 47 R -19 28 R -28 9 R -19 0 R D 20 setlinewidth 7791 1408 M 0 88 R
D 7964 1408 M 0 88 R D 8136 1408 M 0 88 R D 8309 1408 M 0 88 R D 8654 1408 M
0 88 R D 8827 1408 M 0 88 R D 9000 1408 M 0 88 R D 9173 1408 M 0 88 R D
9518 1408 M 0 88 R D 9691 1408 M 0 88 R D 9863 1408 M 0 88 R D 10036 1408 M
0 88 R D 10382 1408 M 0 88 R D 10554 1408 M 0 88 R D 10727 1408 M 0 88 R D
10900 1408 M 0 88 R D 11245 1408 M 0 88 R D 11418 1408 M 0 88 R D
11591 1408 M 0 88 R D 11763 1408 M 0 88 R D 7618 5796 M 4318 0 R D
7618 5796 M 0 -175 R D 8482 5796 M 0 -175 R D 9345 5796 M 0 -175 R D
10209 5796 M 0 -175 R D 11072 5796 M 0 -175 R D 11936 5796 M 0 -175 R D
7791 5796 M 0 -88 R D 7964 5796 M 0 -88 R D 8136 5796 M 0 -88 R D
8309 5796 M 0 -88 R D 8654 5796 M 0 -88 R D 8827 5796 M 0 -88 R D
9000 5796 M 0 -88 R D 9173 5796 M 0 -88 R D 9518 5796 M 0 -88 R D
9691 5796 M 0 -88 R D 9863 5796 M 0 -88 R D 10036 5796 M 0 -88 R D
10382 5796 M 0 -88 R D 10554 5796 M 0 -88 R D 10727 5796 M 0 -88 R D
10900 5796 M 0 -88 R D 11245 5796 M 0 -88 R D 11418 5796 M 0 -88 R D
11591 5796 M 0 -88 R D 11763 5796 M 0 -88 R D 7618 1408 M 0 4388 R D
7618 2059 M 173 0 R D 30 setlinewidth 7308 2105 M 0 12 R 12 24 R 12 11 R
23 12 R 47 0 R 23 -12 R 12 -11 R 12 -24 R 0 -23 R -12 -24 R -23 -35 R
-117 -116 R 163 0 R D 20 setlinewidth 7618 2801 M 173 0 R D 30 setlinewidth
7414 2906 M -117 -164 R 175 0 R D 7414 2906 M 0 -246 R D 20 setlinewidth
7618 3543 M 173 0 R D 30 setlinewidth 7449 3612 M -12 24 R -35 12 R -23 0 R
-35 -12 R -24 -35 R -12 -59 R 0 -58 R 12 -47 R 24 -23 R 35 -12 R 11 0 R
35 12 R 24 23 R 11 35 R 0 12 R -11 35 R -24 23 R -35 12 R -11 0 R -35 -12 R
-24 -23 R -12 -35 R D 20 setlinewidth 7618 4285 M 173 0 R D 30 setlinewidth
7355 4389 M -35 -11 R -12 -24 R 0 -23 R 12 -23 R 24 -12 R 46 -12 R 35 -12 R
24 -23 R 11 -23 R 0 -35 R -11 -24 R -12 -11 R -35 -12 R -47 0 R -35 12 R
-12 11 R -11 24 R 0 35 R 11 23 R 24 23 R 35 12 R 47 12 R 23 12 R 12 23 R
0 23 R -12 24 R -35 11 R -47 0 R D 20 setlinewidth 7618 5027 M 173 0 R D
30 setlinewidth 7098 5084 M 24 12 R 35 35 R 0 -245 R D 7367 5131 M -35 -12 R
-24 -35 R -11 -58 R 0 -35 R 11 -58 R 24 -36 R 35 -11 R 23 0 R 35 11 R
24 36 R 11 58 R 0 35 R -11 58 R -24 35 R -35 12 R -23 0 R D 20 setlinewidth
7618 5768 M 173 0 R D 30 setlinewidth 7098 5748 M 24 12 R 35 35 R 0 -245 R D
7308 5737 M 0 11 R 12 24 R 12 11 R 23 12 R 47 0 R 23 -12 R 12 -11 R 12 -24 R
0 -23 R -12 -23 R -23 -36 R -117 -116 R 163 0 R D 20 setlinewidth
7618 1503 M 86 0 R D 7618 1688 M 86 0 R D 7618 1874 M 86 0 R D 7618 2245 M
86 0 R D 7618 2430 M 86 0 R D 7618 2616 M 86 0 R D 7618 2987 M 86 0 R D
7618 3172 M 86 0 R D 7618 3357 M 86 0 R D 7618 3728 M 86 0 R D 7618 3914 M
86 0 R D 7618 4099 M 86 0 R D 7618 4470 M 86 0 R D 7618 4656 M 86 0 R D
7618 4841 M 86 0 R D 7618 5212 M 86 0 R D 7618 5397 M 86 0 R D 7618 5583 M
86 0 R D 11936 1408 M 0 4388 R D 11936 2059 M -173 0 R D 11936 2801 M
-173 0 R D 11936 3543 M -173 0 R D 11936 4285 M -173 0 R D 11936 5027 M
-173 0 R D 11936 5768 M -173 0 R D 11936 1503 M -86 0 R D 11936 1688 M
-86 0 R D 11936 1874 M -86 0 R D 11936 2245 M -86 0 R D 11936 2430 M -86 0 R
D 11936 2616 M -86 0 R D 11936 2987 M -86 0 R D 11936 3172 M -86 0 R D
11936 3357 M -86 0 R D 11936 3728 M -86 0 R D 11936 3914 M -86 0 R D
11936 4099 M -86 0 R D 11936 4470 M -86 0 R D 11936 4656 M -86 0 R D
11936 4841 M -86 0 R D 11936 5212 M -86 0 R D 11936 5397 M -86 0 R D
11936 5583 M -86 0 R D 30 setlinewidth L1 7618 5796 M 432 -1456 R 432 -713 R
518 -489 R 345 -216 R 864 -349 R 863 -210 R 864 -140 R D L2 7678 5796 M
372 -948 R 432 -590 R 518 -433 R 345 -200 R 864 -340 R 863 -215 R 864 -150 R
D L3 7618 5693 M 432 -1277 R 432 -2069 R 518 -148 R 345 -67 R 864 -104 R
863 -47 R 864 -9 R D L0 1.000 0.000 0.706 setrgbcolor 7618 4661 M
432 -1318 R 432 -502 R 518 -290 R 345 -143 R 864 -177 R 863 -87 R 864 -51 R
D 0.506 0.000 0.000 setrgbcolor 7618 5375 M 432 -1951 R 432 -542 R
518 -299 R 345 -145 R 864 -198 R 863 -89 R 864 -53 R D
1.000 0.349 0.000 setrgbcolor 7841 5796 M 209 -1892 R 432 -818 R 518 -412 R
345 -149 R 864 -248 R 863 -104 R 864 -58 R D 0.000 0.549 0.000 setrgbcolor
8043 5796 M 7 -87 R 432 -2080 R 518 -760 R 345 -228 R 864 -286 R 863 -146 R
864 -70 R D 0.000 0.514 1.000 setrgbcolor 8347 5796 M 135 -818 R 518 -1536 R
345 -580 R 864 -401 R 863 -198 R 864 -94 R D 0.000 0.000 1.000 setrgbcolor
8528 5796 M 472 -1674 R 345 -736 R 864 -843 R 863 -214 R 864 -131 R D
0.000 0.000 0.000 setrgbcolor 10867 5411 M -23 11 R -35 0 R -24 -11 R
-23 -24 R -12 -35 R 0 -35 R 12 -35 R 12 -12 R 23 -11 R 35 0 R 24 11 R D
10750 5340 M 94 0 R D 10949 5399 M 210 0 R D 10949 5329 M 210 0 R D
11311 5504 M -35 -12 R -23 -35 R -12 -58 R 0 -35 R 12 -59 R 23 -35 R
35 -11 R 24 0 R 35 11 R 23 35 R 12 59 R 0 35 R -12 58 R -23 35 R -35 12 R
-24 0 R D 11498 5282 M -11 -12 R 11 -11 R 12 11 R -12 12 R D 11732 5504 M
-117 0 R -12 -105 R 12 12 R 35 11 R 35 0 R 35 -11 R 24 -24 R 11 -35 R
0 -23 R -11 -35 R -24 -24 R -35 -11 R -35 0 R -35 11 R -12 12 R -11 23 R D
20 setlinewidth 12656 1408 M 4318 0 R D 12656 1408 M 0 176 R D
30 setlinewidth 12404 1182 M -28 -9 R -19 -28 R -9 -47 R 0 -28 R 9 -47 R
19 -28 R 28 -9 R 18 0 R 28 9 R 19 28 R 9 47 R 0 28 R -9 47 R -19 28 R
-28 9 R -18 0 R D 12553 1004 M -9 -9 R 9 -9 R 10 9 R -10 9 R D 12684 1182 M
-28 -9 R -19 -28 R -9 -47 R 0 -28 R 9 -47 R 19 -28 R 28 -9 R 19 0 R 28 9 R
19 28 R 9 47 R 0 28 R -9 47 R -19 28 R -28 9 R -19 0 R D 12927 1182 M
-93 0 R -10 -84 R 10 9 R 28 9 R 28 0 R 28 -9 R 19 -19 R 9 -28 R 0 -18 R
-9 -28 R -19 -19 R -28 -9 R -28 0 R -28 9 R -10 9 R -9 19 R D
20 setlinewidth 13520 1408 M 0 176 R D 30 setlinewidth 13267 1182 M -28 -9 R
-18 -28 R -10 -47 R 0 -28 R 10 -47 R 18 -28 R 28 -9 R 19 0 R 28 9 R 19 28 R
9 47 R 0 28 R -9 47 R -19 28 R -28 9 R -19 0 R D 13417 1004 M -9 -9 R 9 -9 R
9 9 R -9 9 R D 13520 1145 M 18 9 R 28 28 R 0 -196 R D 13735 1182 M -28 -9 R
-19 -28 R -9 -47 R 0 -28 R 9 -47 R 19 -28 R 28 -9 R 18 0 R 28 9 R 19 28 R
9 47 R 0 28 R -9 47 R -19 28 R -28 9 R -18 0 R D 20 setlinewidth
14383 1408 M 0 176 R D 30 setlinewidth 14131 1182 M -28 -9 R -19 -28 R
-9 -47 R 0 -28 R 9 -47 R 19 -28 R 28 -9 R 19 0 R 28 9 R 18 28 R 10 47 R
0 28 R -10 47 R -18 28 R -28 9 R -19 0 R D 14280 1004 M -9 -9 R 9 -9 R
10 9 R -10 9 R D 14383 1145 M 19 9 R 28 28 R 0 -196 R D 14654 1182 M -93 0 R
-9 -84 R 9 9 R 28 9 R 28 0 R 28 -9 R 19 -19 R 9 -28 R 0 -18 R -9 -28 R
-19 -19 R -28 -9 R -28 0 R -28 9 R -9 9 R -10 19 R D 20 setlinewidth
15247 1408 M 0 176 R D 30 setlinewidth 14995 1182 M -29 -9 R -18 -28 R
-10 -47 R 0 -28 R 10 -47 R 18 -28 R 29 -9 R 18 0 R 28 9 R 19 28 R 9 47 R
0 28 R -9 47 R -19 28 R -28 9 R -18 0 R D 15144 1004 M -9 -9 R 9 -9 R 9 9 R
-9 9 R D 15228 1135 M 0 10 R 10 18 R 9 10 R 19 9 R 37 0 R 19 -9 R 9 -10 R
9 -18 R 0 -19 R -9 -19 R -19 -28 R -93 -93 R 131 0 R D 15462 1182 M -28 -9 R
-19 -28 R -9 -47 R 0 -28 R 9 -47 R 19 -28 R 28 -9 R 19 0 R 28 9 R 18 28 R
10 47 R 0 28 R -10 47 R -18 28 R -28 9 R -19 0 R D 20 setlinewidth
16110 1408 M 0 176 R D 30 setlinewidth 15858 1182 M -28 -9 R -19 -28 R
-9 -47 R 0 -28 R 9 -47 R 19 -28 R 28 -9 R 19 0 R 28 9 R 19 28 R 9 47 R
0 28 R -9 47 R -19 28 R -28 9 R -19 0 R D 16008 1004 M -10 -9 R 10 -9 R
9 9 R -9 9 R D 16092 1135 M 0 10 R 9 18 R 9 10 R 19 9 R 38 0 R 18 -9 R
10 -10 R 9 -18 R 0 -19 R -9 -19 R -19 -28 R -94 -93 R 131 0 R D 16382 1182 M
-94 0 R -9 -84 R 9 9 R 28 9 R 28 0 R 28 -9 R 19 -19 R 9 -28 R 0 -18 R
-9 -28 R -19 -19 R -28 -9 R -28 0 R -28 9 R -9 9 R -10 19 R D
20 setlinewidth 16974 1408 M 0 176 R D 30 setlinewidth 16722 1182 M -28 -9 R
-19 -28 R -9 -47 R 0 -28 R 9 -47 R 19 -28 R 28 -9 R 18 0 R 28 9 R 19 28 R
9 47 R 0 28 R -9 47 R -19 28 R -28 9 R -18 0 R D 16871 1004 M -9 -9 R 9 -9 R
10 9 R -10 9 R D 16965 1182 M 103 0 R -57 -75 R 29 0 R 18 -9 R 10 -10 R
9 -28 R 0 -18 R -9 -28 R -19 -19 R -28 -9 R -28 0 R -28 9 R -10 9 R -9 19 R
D 17189 1182 M -28 -9 R -19 -28 R -9 -47 R 0 -28 R 9 -47 R 19 -28 R 28 -9 R
19 0 R 28 9 R 19 28 R 9 47 R 0 28 R -9 47 R -19 28 R -28 9 R -19 0 R D
20 setlinewidth 12829 1408 M 0 88 R D 13002 1408 M 0 88 R D 13174 1408 M
0 88 R D 13347 1408 M 0 88 R D 13692 1408 M 0 88 R D 13865 1408 M 0 88 R D
14038 1408 M 0 88 R D 14211 1408 M 0 88 R D 14556 1408 M 0 88 R D
14729 1408 M 0 88 R D 14901 1408 M 0 88 R D 15074 1408 M 0 88 R D
15420 1408 M 0 88 R D 15592 1408 M 0 88 R D 15765 1408 M 0 88 R D
15938 1408 M 0 88 R D 16283 1408 M 0 88 R D 16456 1408 M 0 88 R D
16629 1408 M 0 88 R D 16801 1408 M 0 88 R D 12656 5796 M 4318 0 R D
12656 5796 M 0 -175 R D 13520 5796 M 0 -175 R D 14383 5796 M 0 -175 R D
15247 5796 M 0 -175 R D 16110 5796 M 0 -175 R D 16974 5796 M 0 -175 R D
12829 5796 M 0 -88 R D 13002 5796 M 0 -88 R D 13174 5796 M 0 -88 R D
13347 5796 M 0 -88 R D 13692 5796 M 0 -88 R D 13865 5796 M 0 -88 R D
14038 5796 M 0 -88 R D 14211 5796 M 0 -88 R D 14556 5796 M 0 -88 R D
14729 5796 M 0 -88 R D 14901 5796 M 0 -88 R D 15074 5796 M 0 -88 R D
15420 5796 M 0 -88 R D 15592 5796 M 0 -88 R D 15765 5796 M 0 -88 R D
15938 5796 M 0 -88 R D 16283 5796 M 0 -88 R D 16456 5796 M 0 -88 R D
16629 5796 M 0 -88 R D 16801 5796 M 0 -88 R D 12656 1408 M 0 4388 R D
12656 2035 M 173 0 R D 30 setlinewidth 12475 2139 M -117 0 R -12 -105 R
12 12 R 35 12 R 35 0 R 35 -12 R 24 -24 R 11 -35 R 0 -23 R -11 -35 R
-24 -23 R -35 -12 R -35 0 R -35 12 R -12 11 R -11 24 R D 20 setlinewidth
12656 2752 M 173 0 R D 30 setlinewidth 12136 2810 M 24 11 R 35 36 R 0 -246 R
D 12405 2857 M -35 -12 R -24 -35 R -11 -59 R 0 -35 R 11 -58 R 24 -35 R
35 -12 R 23 0 R 35 12 R 24 35 R 11 58 R 0 35 R -11 59 R -24 35 R -35 12 R
-23 0 R D 20 setlinewidth 12656 3469 M 173 0 R D 30 setlinewidth
12136 3527 M 24 12 R 35 35 R 0 -246 R D 12475 3574 M -117 0 R -12 -105 R
12 11 R 35 12 R 35 0 R 35 -12 R 24 -23 R 11 -35 R 0 -24 R -11 -35 R
-24 -23 R -35 -12 R -35 0 R -35 12 R -12 12 R -11 23 R D 20 setlinewidth
12656 4186 M 173 0 R D 30 setlinewidth 12113 4233 M 0 11 R 11 24 R 12 11 R
24 12 R 46 0 R 24 -12 R 11 -11 R 12 -24 R 0 -23 R -12 -23 R -23 -36 R
-117 -116 R 164 0 R D 12405 4291 M -35 -12 R -24 -35 R -11 -58 R 0 -35 R
11 -59 R 24 -35 R 35 -11 R 23 0 R 35 11 R 24 35 R 11 59 R 0 35 R -11 58 R
-24 35 R -35 12 R -23 0 R D 20 setlinewidth 12656 4904 M 173 0 R D
30 setlinewidth 12113 4950 M 0 11 R 11 24 R 12 12 R 24 11 R 46 0 R 24 -11 R
11 -12 R 12 -24 R 0 -23 R -12 -23 R -23 -35 R -117 -117 R 164 0 R D
12475 5008 M -117 0 R -12 -105 R 12 12 R 35 11 R 35 0 R 35 -11 R 24 -24 R
11 -35 R 0 -23 R -11 -35 R -24 -23 R -35 -12 R -35 0 R -35 12 R -12 11 R
-11 24 R D 20 setlinewidth 12656 5621 M 173 0 R D 30 setlinewidth
12124 5725 M 129 0 R -70 -93 R 35 0 R 23 -12 R 12 -11 R 12 -35 R 0 -24 R
-12 -35 R -23 -23 R -35 -12 R -35 0 R -36 12 R -11 11 R -12 24 R D
12405 5725 M -35 -11 R -24 -35 R -11 -59 R 0 -35 R 11 -58 R 24 -35 R
35 -12 R 23 0 R 35 12 R 24 35 R 11 58 R 0 35 R -11 59 R -24 35 R -35 11 R
-23 0 R D 20 setlinewidth 12656 1461 M 86 0 R D 12656 1604 M 86 0 R D
12656 1748 M 86 0 R D 12656 1891 M 86 0 R D 12656 2178 M 86 0 R D
12656 2322 M 86 0 R D 12656 2465 M 86 0 R D 12656 2609 M 86 0 R D
12656 2895 M 86 0 R D 12656 3039 M 86 0 R D 12656 3182 M 86 0 R D
12656 3326 M 86 0 R D 12656 3613 M 86 0 R D 12656 3756 M 86 0 R D
12656 3900 M 86 0 R D 12656 4043 M 86 0 R D 12656 4330 M 86 0 R D
12656 4473 M 86 0 R D 12656 4617 M 86 0 R D 12656 4760 M 86 0 R D
12656 5047 M 86 0 R D 12656 5191 M 86 0 R D 12656 5334 M 86 0 R D
12656 5477 M 86 0 R D 12656 5764 M 86 0 R D 16974 1408 M 0 4388 R D
16974 2035 M -173 0 R D 16974 2752 M -173 0 R D 16974 3469 M -173 0 R D
16974 4186 M -173 0 R D 16974 4904 M -173 0 R D 16974 5621 M -173 0 R D
16974 1461 M -86 0 R D 16974 1604 M -86 0 R D 16974 1748 M -86 0 R D
16974 1891 M -86 0 R D 16974 2178 M -86 0 R D 16974 2322 M -86 0 R D
16974 2465 M -86 0 R D 16974 2609 M -86 0 R D 16974 2895 M -86 0 R D
16974 3039 M -86 0 R D 16974 3182 M -86 0 R D 16974 3326 M -86 0 R D
16974 3613 M -86 0 R D 16974 3756 M -86 0 R D 16974 3900 M -86 0 R D
16974 4043 M -86 0 R D 16974 4330 M -86 0 R D 16974 4473 M -86 0 R D
16974 4617 M -86 0 R D 16974 4760 M -86 0 R D 16974 5047 M -86 0 R D
16974 5191 M -86 0 R D 16974 5334 M -86 0 R D 16974 5477 M -86 0 R D
16974 5764 M -86 0 R D 30 setlinewidth L1 12656 5796 M 432 -1456 R
432 -713 R 518 -489 R 345 -216 R 864 -349 R 863 -210 R 864 -140 R D L2
12656 3578 M 432 -537 R 432 -288 R 518 -211 R 345 -98 R 864 -166 R
863 -105 R 864 -73 R D L3 12656 3652 M 432 -547 R 432 -1021 R 518 -113 R
345 -52 R 864 -89 R 863 -56 R 864 -39 R D L0 1.000 0.000 0.706 setrgbcolor
12656 3117 M 432 -522 R 432 -229 R 518 -148 R 345 -63 R 864 -97 R 863 -50 R
864 -29 R D 0.506 0.000 0.000 setrgbcolor 12656 3193 M 432 -571 R 432 -240 R
518 -155 R 345 -65 R 864 -100 R 863 -51 R 864 -30 R D
1.000 0.349 0.000 setrgbcolor 12656 4121 M 432 -1399 R 432 -290 R 518 -175 R
345 -72 R 864 -110 R 863 -57 R 864 -31 R D 0.000 0.549 0.000 setrgbcolor
12656 4968 M 432 -1741 R 432 -703 R 518 -219 R 345 -84 R 864 -125 R
863 -65 R 864 -35 R D 0.000 0.514 1.000 setrgbcolor 12656 5529 M 432 -1700 R
432 -963 R 518 -494 R 345 -106 R 864 -146 R 863 -75 R 864 -40 R D
0.000 0.000 1.000 setrgbcolor 12673 5796 M 415 -1682 R 432 -885 R 518 -762 R
345 -157 R 864 -169 R 863 -83 R 864 -45 R D 0.000 0.000 0.000 setrgbcolor
15905 5411 M -23 11 R -35 0 R -24 -11 R -23 -24 R -12 -35 R 0 -35 R 12 -35 R
12 -12 R 23 -11 R 35 0 R 24 11 R D 15788 5340 M 94 0 R D 15987 5399 M
210 0 R D 15987 5329 M 210 0 R D 16314 5457 M 24 12 R 35 35 R 0 -245 R D
16536 5282 M -11 -12 R 11 -11 R 12 11 R -12 12 R D 16700 5504 M -35 -12 R
-24 -35 R -11 -58 R 0 -35 R 11 -59 R 24 -35 R 35 -11 R 23 0 R 35 11 R
24 35 R 11 59 R 0 35 R -11 58 R -24 35 R -35 12 R -23 0 R D 946 6364 M
0 -319 R D 946 6212 M 30 30 R 30 16 R 46 0 R 30 -16 R 31 -30 R 15 -45 R
0 -31 R -15 -45 R -31 -31 R -30 -15 R -46 0 R -30 15 R -30 31 R D
1386 6212 M -15 30 R -46 16 R -45 0 R -46 -16 R -15 -30 R 15 -30 R 31 -15 R
75 -16 R 31 -15 R 15 -30 R 0 -15 R -15 -31 R -46 -15 R -45 0 R -46 15 R
-15 31 R D 1568 6364 M -45 -15 R -31 -46 R -15 -76 R 0 -45 R 15 -76 R
31 -46 R 45 -15 R 31 0 R 45 15 R 31 46 R 15 76 R 0 45 R -15 76 R -31 46 R
-45 15 R -31 0 R D 1872 6364 M -45 -15 R -31 -46 R -15 -76 R 0 -45 R
15 -76 R 31 -46 R 45 -15 R 31 0 R 45 15 R 30 46 R 16 76 R 0 45 R -16 76 R
-30 46 R -45 15 R -31 0 R D
%%PageTrailer
end
%%PageResources: font Helvetica
%%Trailer
%%Pages: 1
%%DocumentNeededResources: font Helvetica
%%EOF
