%!PS-Adobe-3.0 EPSF-3.0
%%BoundingBox: 0 0 538 212
%%Title: Graphics produced by IDL
%%For: jlgan@aida119, /home/jlgan/work/subhalo_model
%%Creator: IDL Version 7.0 (linux x86_64 m64)
%%CreationDate: Thu Dec 11 15:02:17 2008
%%DocumentData: Clean7bit
%%Requirements: color
%%LanguageLevel: 1
%%PageOrder: Ascend
%%Pages: (atend)
%%DocumentNeededResources: (atend)
%%EndComments
%%BeginProlog
%+ prolog.ps -- Prolog for IDL generated PostScript files
%+ Copyright (c) 1988-2007 ITT Visual Information Solutions. All Rights Reserved.
%v 5
/$IDL_DICT 40 dict def $IDL_DICT begin /bdef { bind def } bind def /C
{currentpoint newpath moveto} bdef /CP {currentpoint} bdef /D {currentpoint
stroke moveto} bdef /F {closepath fill} bdef /K { setgray } bdef /M {moveto}
bdef /N {rmoveto} bdef /P {lineto} bdef /R {rlineto} bdef /S {gsave show
grestore} bdef /X {currentpoint pop} bdef /Z {gsave currentpoint lineto 20
setlinewidth 1 setlinecap stroke grestore} bdef /L0 {[] 0 setdash} bdef /L1
{[40 100] 0 setdash} bdef /L2 {[200 200] 0 setdash} bdef /L3 {[200 100 50
100] 0 setdash} bdef /L4 {[300 100 50 100 50 100 50 100] 0 setdash} bdef /L5
{[400 200] 0 setdash} bdef /STDFONT { findfont exch scalefont setfont } bdef
/ISOFONT { findfont dup length dict begin { 1 index /FID ne {def} {pop pop}
ifelse } forall /Encoding ISOLatin1Encoding def currentdict end /idltmpfont
exch definefont exch scalefont setfont } bdef /ISOBULLET { gsave /Helvetica
findfont exch scalefont setfont (\267) show currentpoint grestore moveto}
bdef /MITERLIMIT { 2.5 setmiterlimit } bdef end
%%EndProlog
%%Page: 0 1
%%PageRequirements: color
%%PageResources: (atend)
%%PageOrientation: Portrait
%%PageBoundingBox: 0 0 538 212
%%BeginPageSetup
$IDL_DICT begin 0.0283465 dup scale MITERLIMIT
%%IncludeResource: font Helvetica
423.333 /Helvetica STDFONT
%%EndPageSetup
20 setlinewidth L0 0.000 0.000 0.000 setrgbcolor 1544 1276 M 5267 0 R D
1544 1276 M 0 238 R D 1307 1064 M -26 -9 R -17 -26 R -9 -44 R 0 -26 R
9 -44 R 17 -26 R 26 -9 R 18 0 R 26 9 R 18 26 R 9 44 R 0 26 R -9 44 R
-18 26 R -26 9 R -18 0 R D 1448 898 M -9 -9 R 9 -9 R 8 9 R -8 9 R D
1570 1064 M -26 -9 R -18 -26 R -8 -44 R 0 -26 R 8 -44 R 18 -26 R 26 -9 R
18 0 R 26 9 R 18 26 R 8 44 R 0 26 R -8 44 R -18 26 R -26 9 R -18 0 R D
1798 1064 M -88 0 R -8 -79 R 8 9 R 27 9 R 26 0 R 26 -9 R 18 -18 R 9 -26 R
0 -17 R -9 -27 R -18 -17 R -26 -9 R -26 0 R -27 9 R -8 9 R -9 17 R D
2597 1276 M 0 238 R D 2361 1064 M -26 -9 R -18 -26 R -9 -44 R 0 -26 R
9 -44 R 18 -26 R 26 -9 R 17 0 R 27 9 R 17 26 R 9 44 R 0 26 R -9 44 R
-17 26 R -27 9 R -17 0 R D 2501 898 M -9 -9 R 9 -9 R 9 9 R -9 9 R D
2597 1029 M 18 9 R 26 26 R 0 -184 R D 2799 1064 M -26 -9 R -18 -26 R
-9 -44 R 0 -26 R 9 -44 R 18 -26 R 26 -9 R 18 0 R 26 9 R 17 26 R 9 44 R
0 26 R -9 44 R -17 26 R -26 9 R -18 0 R D 3651 1276 M 0 238 R D 3414 1064 M
-26 -9 R -17 -26 R -9 -44 R 0 -26 R 9 -44 R 17 -26 R 26 -9 R 18 0 R 26 9 R
18 26 R 8 44 R 0 26 R -8 44 R -18 26 R -26 9 R -18 0 R D 3555 898 M -9 -9 R
9 -9 R 8 9 R -8 9 R D 3651 1029 M 17 9 R 27 26 R 0 -184 R D 3905 1064 M
-88 0 R -8 -79 R 8 9 R 27 9 R 26 0 R 26 -9 R 18 -18 R 9 -26 R 0 -17 R
-9 -27 R -18 -17 R -26 -9 R -26 0 R -27 9 R -8 9 R -9 17 R D 4704 1276 M
0 238 R D 4468 1064 M -26 -9 R -18 -26 R -9 -44 R 0 -26 R 9 -44 R 18 -26 R
26 -9 R 17 0 R 27 9 R 17 26 R 9 44 R 0 26 R -9 44 R -17 26 R -27 9 R -17 0 R
D 4608 898 M -9 -9 R 9 -9 R 9 9 R -9 9 R D 4687 1020 M 0 9 R 9 18 R 8 8 R
18 9 R 35 0 R 18 -9 R 8 -8 R 9 -18 R 0 -18 R -9 -17 R -17 -26 R -88 -88 R
123 0 R D 4906 1064 M -26 -9 R -18 -26 R -9 -44 R 0 -26 R 9 -44 R 18 -26 R
26 -9 R 17 0 R 27 9 R 17 26 R 9 44 R 0 26 R -9 44 R -17 26 R -27 9 R -17 0 R
D 5758 1276 M 0 238 R D 5521 1064 M -26 -9 R -18 -26 R -8 -44 R 0 -26 R
8 -44 R 18 -26 R 26 -9 R 18 0 R 26 9 R 18 26 R 8 44 R 0 26 R -8 44 R
-18 26 R -26 9 R -18 0 R D 5661 898 M -8 -9 R 8 -9 R 9 9 R -9 9 R D
5740 1020 M 0 9 R 9 18 R 9 8 R 17 9 R 35 0 R 18 -9 R 9 -8 R 8 -18 R 0 -18 R
-8 -17 R -18 -26 R -87 -88 R 122 0 R D 6012 1064 M -88 0 R -8 -79 R 8 9 R
27 9 R 26 0 R 26 -9 R 18 -18 R 9 -26 R 0 -17 R -9 -27 R -18 -17 R -26 -9 R
-26 0 R -27 9 R -8 9 R -9 17 R D 6811 1276 M 0 238 R D 6575 1064 M -27 -9 R
-17 -26 R -9 -44 R 0 -26 R 9 -44 R 17 -26 R 27 -9 R 17 0 R 27 9 R 17 26 R
9 44 R 0 26 R -9 44 R -17 26 R -27 9 R -17 0 R D 6715 898 M -9 -9 R 9 -9 R
9 9 R -9 9 R D 6803 1064 M 96 0 R -53 -70 R 27 0 R 17 -9 R 9 -9 R 9 -26 R
0 -17 R -9 -27 R -18 -17 R -26 -9 R -26 0 R -26 9 R -9 9 R -9 17 R D
7013 1064 M -26 -9 R -18 -26 R -9 -44 R 0 -26 R 9 -44 R 18 -26 R 26 -9 R
17 0 R 27 9 R 17 26 R 9 44 R 0 26 R -9 44 R -17 26 R -27 9 R -17 0 R D
1755 1276 M 0 119 R D 1965 1276 M 0 119 R D 2176 1276 M 0 119 R D
2387 1276 M 0 119 R D 2808 1276 M 0 119 R D 3019 1276 M 0 119 R D
3230 1276 M 0 119 R D 3440 1276 M 0 119 R D 3862 1276 M 0 119 R D
4072 1276 M 0 119 R D 4283 1276 M 0 119 R D 4494 1276 M 0 119 R D
4915 1276 M 0 119 R D 5126 1276 M 0 119 R D 5336 1276 M 0 119 R D
5547 1276 M 0 119 R D 5969 1276 M 0 119 R D 6179 1276 M 0 119 R D
6390 1276 M 0 119 R D 6601 1276 M 0 119 R D 1544 7224 M 5267 0 R D
1544 7224 M 0 -238 R D 2597 7224 M 0 -238 R D 3651 7224 M 0 -238 R D
4704 7224 M 0 -238 R D 5758 7224 M 0 -238 R D 6811 7224 M 0 -238 R D
1755 7224 M 0 -119 R D 1965 7224 M 0 -119 R D 2176 7224 M 0 -119 R D
2387 7224 M 0 -119 R D 2808 7224 M 0 -119 R D 3019 7224 M 0 -119 R D
3230 7224 M 0 -119 R D 3440 7224 M 0 -119 R D 3862 7224 M 0 -119 R D
4072 7224 M 0 -119 R D 4283 7224 M 0 -119 R D 4494 7224 M 0 -119 R D
4915 7224 M 0 -119 R D 5126 7224 M 0 -119 R D 5336 7224 M 0 -119 R D
5547 7224 M 0 -119 R D 5969 7224 M 0 -119 R D 6179 7224 M 0 -119 R D
6390 7224 M 0 -119 R D 6601 7224 M 0 -119 R D 1544 1276 M 0 5948 R D
1544 2624 M 211 0 R D 1312 2658 M 0 9 R 9 18 R 8 8 R 18 9 R 35 0 R 17 -9 R
9 -8 R 9 -18 R 0 -17 R -9 -18 R -17 -26 R -88 -88 R 123 0 R D 1544 4094 M
211 0 R D 1391 4172 M -88 -122 R 131 0 R D 1391 4172 M 0 -184 R D
1544 5564 M 211 0 R D 1417 5617 M -9 17 R -26 9 R -18 0 R -26 -9 R -17 -26 R
-9 -44 R 0 -44 R 9 -35 R 17 -17 R 26 -9 R 9 0 R 26 9 R 18 17 R 9 26 R 0 9 R
-9 26 R -18 18 R -26 9 R -9 0 R -26 -9 R -17 -18 R -9 -26 R D 1544 7035 M
211 0 R D 1347 7113 M -26 -8 R -9 -18 R 0 -18 R 9 -17 R 17 -9 R 35 -9 R
26 -8 R 18 -18 R 9 -17 R 0 -27 R -9 -17 R -9 -9 R -26 -9 R -35 0 R -26 9 R
-9 9 R -9 17 R 0 27 R 9 17 R 17 18 R 27 8 R 35 9 R 17 9 R 9 17 R 0 18 R
-9 18 R -26 8 R -35 0 R D 1544 1521 M 105 0 R D 1544 1888 M 105 0 R D
1544 2256 M 105 0 R D 1544 2991 M 105 0 R D 1544 3359 M 105 0 R D
1544 3726 M 105 0 R D 1544 4462 M 105 0 R D 1544 4829 M 105 0 R D
1544 5197 M 105 0 R D 1544 5932 M 105 0 R D 1544 6300 M 105 0 R D
1544 6667 M 105 0 R D 6811 1276 M 0 5948 R D 6811 2624 M -210 0 R D
6811 4094 M -210 0 R D 6811 5564 M -210 0 R D 6811 7035 M -210 0 R D
6811 1521 M -105 0 R D 6811 1888 M -105 0 R D 6811 2256 M -105 0 R D
6811 2991 M -105 0 R D 6811 3359 M -105 0 R D 6811 3726 M -105 0 R D
6811 4462 M -105 0 R D 6811 4829 M -105 0 R D 6811 5197 M -105 0 R D
6811 5932 M -105 0 R D 6811 6300 M -105 0 R D 6811 6667 M -105 0 R D L1
1544 7224 M 527 -1973 R 526 -967 R 633 -663 R 421 -292 R 1053 -474 R
1054 -285 R 1053 -189 R D L2 2067 7224 M 4 -12 R 526 -1013 R 633 -742 R
421 -344 R 1053 -583 R 1054 -370 R 1053 -256 R D L0
0.000 0.098 0.890 setrgbcolor 1544 5798 M 527 -1830 R 526 -665 R 633 -460 R
421 -172 R 1053 -224 R 1054 -121 R 1053 -64 R D 50 setlinewidth 3159 7224 M
71 -3398 R 421 -573 R 1053 -475 R 1054 -298 R 1053 -112 R D 80 setlinewidth
6660 7224 M 151 -4503 R D 20 setlinewidth 0.000 0.000 0.000 setrgbcolor
5336 6845 M -35 17 R -53 0 R -35 -17 R -35 -35 R -17 -53 R 0 -52 R 17 -53 R
18 -18 R 35 -17 R 53 0 R 35 17 R D 5161 6740 M 140 0 R D 5459 6827 M 315 0 R
D 5459 6722 M 315 0 R D 6002 6985 M -52 -18 R -36 -52 R -17 -88 R 0 -52 R
17 -88 R 36 -53 R 52 -17 R 35 0 R 53 17 R 35 53 R 17 88 R 0 52 R -17 88 R
-35 52 R -53 18 R -35 0 R D 6283 6652 M -18 -18 R 18 -17 R 17 17 R -17 18 R
D 6458 6985 M 193 0 R -106 -140 R 53 0 R 35 -18 R 18 -17 R 17 -53 R 0 -35 R
-17 -52 R -35 -36 R -53 -17 R -53 0 R -52 17 R -18 18 R -17 35 R D
7477 1276 M 5268 0 R D 7477 1276 M 0 238 R D 7241 1064 M -27 -9 R -17 -26 R
-9 -44 R 0 -26 R 9 -44 R 17 -26 R 27 -9 R 17 0 R 27 9 R 17 26 R 9 44 R
0 26 R -9 44 R -17 26 R -27 9 R -17 0 R D 7381 898 M -9 -9 R 9 -9 R 9 9 R
-9 9 R D 7504 1064 M -27 -9 R -17 -26 R -9 -44 R 0 -26 R 9 -44 R 17 -26 R
27 -9 R 17 0 R 26 9 R 18 26 R 9 44 R 0 26 R -9 44 R -18 26 R -26 9 R -17 0 R
D 7731 1064 M -87 0 R -9 -79 R 9 9 R 26 9 R 26 0 R 27 -9 R 17 -18 R 9 -26 R
0 -17 R -9 -27 R -17 -17 R -27 -9 R -26 0 R -26 9 R -9 9 R -9 17 R D
8531 1276 M 0 238 R D 8294 1064 M -26 -9 R -18 -26 R -8 -44 R 0 -26 R
8 -44 R 18 -26 R 26 -9 R 18 0 R 26 9 R 18 26 R 8 44 R 0 26 R -8 44 R
-18 26 R -26 9 R -18 0 R D 8434 898 M -8 -9 R 8 -9 R 9 9 R -9 9 R D
8531 1029 M 17 9 R 27 26 R 0 -184 R D 8732 1064 M -26 -9 R -17 -26 R
-9 -44 R 0 -26 R 9 -44 R 17 -26 R 26 -9 R 18 0 R 26 9 R 18 26 R 8 44 R
0 26 R -8 44 R -18 26 R -26 9 R -18 0 R D 9584 1276 M 0 238 R D 9348 1064 M
-27 -9 R -17 -26 R -9 -44 R 0 -26 R 9 -44 R 17 -26 R 27 -9 R 17 0 R 26 9 R
18 26 R 9 44 R 0 26 R -9 44 R -18 26 R -26 9 R -17 0 R D 9488 898 M -9 -9 R
9 -9 R 9 9 R -9 9 R D 9584 1029 M 18 9 R 26 26 R 0 -184 R D 9838 1064 M
-87 0 R -9 -79 R 9 9 R 26 9 R 26 0 R 27 -9 R 17 -18 R 9 -26 R 0 -17 R
-9 -27 R -17 -17 R -27 -9 R -26 0 R -26 9 R -9 9 R -9 17 R D 10638 1276 M
0 238 R D 10401 1064 M -26 -9 R -18 -26 R -8 -44 R 0 -26 R 8 -44 R 18 -26 R
26 -9 R 18 0 R 26 9 R 17 26 R 9 44 R 0 26 R -9 44 R -17 26 R -26 9 R -18 0 R
D 10541 898 M -8 -9 R 8 -9 R 9 9 R -9 9 R D 10620 1020 M 0 9 R 9 18 R 9 8 R
17 9 R 35 0 R 18 -9 R 9 -8 R 8 -18 R 0 -18 R -8 -17 R -18 -26 R -88 -88 R
123 0 R D 10839 1064 M -26 -9 R -18 -26 R -8 -44 R 0 -26 R 8 -44 R 18 -26 R
26 -9 R 18 0 R 26 9 R 18 26 R 8 44 R 0 26 R -8 44 R -18 26 R -26 9 R -18 0 R
D 11691 1276 M 0 238 R D 11455 1064 M -27 -9 R -17 -26 R -9 -44 R 0 -26 R
9 -44 R 17 -26 R 27 -9 R 17 0 R 26 9 R 18 26 R 9 44 R 0 26 R -9 44 R
-18 26 R -26 9 R -17 0 R D 11595 898 M -9 -9 R 9 -9 R 9 9 R -9 9 R D
11674 1020 M 0 9 R 8 18 R 9 8 R 18 9 R 35 0 R 17 -9 R 9 -8 R 9 -18 R 0 -18 R
-9 -17 R -17 -26 R -88 -88 R 123 0 R D 11945 1064 M -87 0 R -9 -79 R 9 9 R
26 9 R 26 0 R 27 -9 R 17 -18 R 9 -26 R 0 -17 R -9 -27 R -17 -17 R -27 -9 R
-26 0 R -26 9 R -9 9 R -9 17 R D 12745 1276 M 0 238 R D 12508 1064 M
-26 -9 R -18 -26 R -9 -44 R 0 -26 R 9 -44 R 18 -26 R 26 -9 R 18 0 R 26 9 R
17 26 R 9 44 R 0 26 R -9 44 R -17 26 R -26 9 R -18 0 R D 12648 898 M -8 -9 R
8 -9 R 9 9 R -9 9 R D 12736 1064 M 96 0 R -52 -70 R 26 0 R 18 -9 R 8 -9 R
9 -26 R 0 -17 R -9 -27 R -17 -17 R -27 -9 R -26 0 R -26 9 R -9 9 R -9 17 R D
12946 1064 M -26 -9 R -18 -26 R -8 -44 R 0 -26 R 8 -44 R 18 -26 R 26 -9 R
18 0 R 26 9 R 18 26 R 8 44 R 0 26 R -8 44 R -18 26 R -26 9 R -18 0 R D
7688 1276 M 0 119 R D 7899 1276 M 0 119 R D 8109 1276 M 0 119 R D
8320 1276 M 0 119 R D 8741 1276 M 0 119 R D 8952 1276 M 0 119 R D
9163 1276 M 0 119 R D 9374 1276 M 0 119 R D 9795 1276 M 0 119 R D
10006 1276 M 0 119 R D 10216 1276 M 0 119 R D 10427 1276 M 0 119 R D
10848 1276 M 0 119 R D 11059 1276 M 0 119 R D 11270 1276 M 0 119 R D
11481 1276 M 0 119 R D 11902 1276 M 0 119 R D 12113 1276 M 0 119 R D
12323 1276 M 0 119 R D 12534 1276 M 0 119 R D 7477 7224 M 5268 0 R D
7477 7224 M 0 -238 R D 8531 7224 M 0 -238 R D 9584 7224 M 0 -238 R D
10638 7224 M 0 -238 R D 11691 7224 M 0 -238 R D 12745 7224 M 0 -238 R D
7688 7224 M 0 -119 R D 7899 7224 M 0 -119 R D 8109 7224 M 0 -119 R D
8320 7224 M 0 -119 R D 8741 7224 M 0 -119 R D 8952 7224 M 0 -119 R D
9163 7224 M 0 -119 R D 9374 7224 M 0 -119 R D 9795 7224 M 0 -119 R D
10006 7224 M 0 -119 R D 10216 7224 M 0 -119 R D 10427 7224 M 0 -119 R D
10848 7224 M 0 -119 R D 11059 7224 M 0 -119 R D 11270 7224 M 0 -119 R D
11481 7224 M 0 -119 R D 11902 7224 M 0 -119 R D 12113 7224 M 0 -119 R D
12323 7224 M 0 -119 R D 12534 7224 M 0 -119 R D 7477 1276 M 0 5948 R D
7477 2159 M 211 0 R D 7245 2193 M 0 9 R 9 18 R 9 8 R 17 9 R 35 0 R 18 -9 R
9 -8 R 8 -18 R 0 -17 R -8 -18 R -18 -26 R -88 -88 R 123 0 R D 7477 3164 M
211 0 R D 7324 3243 M -88 -123 R 132 0 R D 7324 3243 M 0 -184 R D
7477 4170 M 211 0 R D 7350 4222 M -8 18 R -27 8 R -17 0 R -27 -8 R -17 -27 R
-9 -44 R 0 -43 R 9 -35 R 17 -18 R 27 -9 R 8 0 R 27 9 R 17 18 R 9 26 R 0 9 R
-9 26 R -17 17 R -27 9 R -8 0 R -27 -9 R -17 -17 R -9 -26 R D 7477 5175 M
211 0 R D 7280 5254 M -26 -9 R -9 -17 R 0 -18 R 9 -17 R 17 -9 R 35 -9 R
27 -9 R 17 -17 R 9 -18 R 0 -26 R -9 -18 R -8 -8 R -27 -9 R -35 0 R -26 9 R
-9 8 R -9 18 R 0 26 R 9 18 R 18 17 R 26 9 R 35 9 R 18 9 R 8 17 R 0 18 R
-8 17 R -27 9 R -35 0 R D 7477 6181 M 211 0 R D 7087 6224 M 18 9 R 26 26 R
0 -184 R D 7289 6259 M -26 -8 R -18 -27 R -9 -43 R 0 -27 R 9 -44 R 18 -26 R
26 -9 R 17 0 R 27 9 R 17 26 R 9 44 R 0 27 R -9 43 R -17 27 R -27 8 R -17 0 R
D 7477 7187 M 211 0 R D 7087 7188 M 18 9 R 26 26 R 0 -184 R D 7245 7179 M
0 9 R 9 18 R 9 8 R 17 9 R 35 0 R 18 -9 R 9 -8 R 8 -18 R 0 -17 R -8 -18 R
-18 -26 R -88 -88 R 123 0 R D 7477 1405 M 106 0 R D 7477 1656 M 106 0 R D
7477 1907 M 106 0 R D 7477 2410 M 106 0 R D 7477 2662 M 106 0 R D
7477 2913 M 106 0 R D 7477 3416 M 106 0 R D 7477 3667 M 106 0 R D
7477 3919 M 106 0 R D 7477 4421 M 106 0 R D 7477 4673 M 106 0 R D
7477 4924 M 106 0 R D 7477 5427 M 106 0 R D 7477 5678 M 106 0 R D
7477 5930 M 106 0 R D 7477 6432 M 106 0 R D 7477 6684 M 106 0 R D
7477 6935 M 106 0 R D 12745 1276 M 0 5948 R D 12745 2159 M -211 0 R D
12745 3164 M -211 0 R D 12745 4170 M -211 0 R D 12745 5175 M -211 0 R D
12745 6181 M -211 0 R D 12745 7187 M -211 0 R D 12745 1405 M -106 0 R D
12745 1656 M -106 0 R D 12745 1907 M -106 0 R D 12745 2410 M -106 0 R D
12745 2662 M -106 0 R D 12745 2913 M -106 0 R D 12745 3416 M -106 0 R D
12745 3667 M -106 0 R D 12745 3919 M -106 0 R D 12745 4421 M -106 0 R D
12745 4673 M -106 0 R D 12745 4924 M -106 0 R D 12745 5427 M -106 0 R D
12745 5678 M -106 0 R D 12745 5930 M -106 0 R D 12745 6432 M -106 0 R D
12745 6684 M -106 0 R D 12745 6935 M -106 0 R D L1 7477 7224 M 527 -1973 R
527 -967 R 632 -663 R 421 -292 R 1054 -474 R 1053 -285 R 1053 -189 R D L2
7550 7224 M 454 -1285 R 527 -800 R 632 -586 R 421 -272 R 1054 -461 R
1053 -292 R 1053 -202 R D L0 0.000 0.098 0.890 setrgbcolor 7477 5746 M
527 -1843 R 527 -648 R 632 -416 R 421 -61 R 1054 -65 R 1053 -436 R
1053 -54 R D 50 setlinewidth 9503 7224 M 81 -3931 R 1054 -588 R 1053 -212 R
1053 -174 R D 80 setlinewidth 12518 7224 M 226 -4511 R D 20 setlinewidth
0.000 0.000 0.000 setrgbcolor 11269 6845 M -35 17 R -52 0 R -35 -17 R
-35 -35 R -18 -53 R 0 -52 R 18 -53 R 17 -18 R 35 -17 R 53 0 R 35 17 R D
11094 6740 M 140 0 R D 11392 6827 M 316 0 R D 11392 6722 M 316 0 R D
11935 6985 M -52 -18 R -35 -52 R -18 -88 R 0 -52 R 18 -88 R 35 -53 R
52 -17 R 35 0 R 53 17 R 35 53 R 18 88 R 0 52 R -18 88 R -35 52 R -53 18 R
-35 0 R D 12216 6652 M -18 -18 R 18 -17 R 17 17 R -17 18 R D 12566 6985 M
-175 0 R -17 -158 R 17 18 R 53 17 R 52 0 R 53 -17 R 35 -35 R 17 -53 R
0 -35 R -17 -52 R -35 -36 R -53 -17 R -52 0 R -53 17 R -17 18 R -18 35 R D
13411 1276 M 5267 0 R D 13411 1276 M 0 238 R D 13174 1064 M -26 -9 R
-18 -26 R -9 -44 R 0 -26 R 9 -44 R 18 -26 R 26 -9 R 18 0 R 26 9 R 17 26 R
9 44 R 0 26 R -9 44 R -17 26 R -26 9 R -18 0 R D 13314 898 M -8 -9 R 8 -9 R
9 9 R -9 9 R D 13437 1064 M -26 -9 R -18 -26 R -9 -44 R 0 -26 R 9 -44 R
18 -26 R 26 -9 R 17 0 R 27 9 R 17 26 R 9 44 R 0 26 R -9 44 R -17 26 R
-27 9 R -17 0 R D 13665 1064 M -88 0 R -9 -79 R 9 9 R 26 9 R 27 0 R 26 -9 R
18 -18 R 8 -26 R 0 -17 R -8 -27 R -18 -17 R -26 -9 R -27 0 R -26 9 R -9 9 R
-8 17 R D 14464 1276 M 0 238 R D 14228 1064 M -27 -9 R -17 -26 R -9 -44 R
0 -26 R 9 -44 R 17 -26 R 27 -9 R 17 0 R 26 9 R 18 26 R 9 44 R 0 26 R -9 44 R
-18 26 R -26 9 R -17 0 R D 14368 898 M -9 -9 R 9 -9 R 9 9 R -9 9 R D
14464 1029 M 18 9 R 26 26 R 0 -184 R D 14666 1064 M -27 -9 R -17 -26 R
-9 -44 R 0 -26 R 9 -44 R 17 -26 R 27 -9 R 17 0 R 27 9 R 17 26 R 9 44 R
0 26 R -9 44 R -17 26 R -27 9 R -17 0 R D 15518 1276 M 0 238 R D
15281 1064 M -26 -9 R -18 -26 R -9 -44 R 0 -26 R 9 -44 R 18 -26 R 26 -9 R
18 0 R 26 9 R 17 26 R 9 44 R 0 26 R -9 44 R -17 26 R -26 9 R -18 0 R D
15421 898 M -9 -9 R 9 -9 R 9 9 R -9 9 R D 15518 1029 M 17 9 R 26 26 R
0 -184 R D 15772 1064 M -88 0 R -9 -79 R 9 9 R 26 9 R 27 0 R 26 -9 R
17 -18 R 9 -26 R 0 -17 R -9 -27 R -17 -17 R -26 -9 R -27 0 R -26 9 R -9 9 R
-8 17 R D 16571 1276 M 0 238 R D 16334 1064 M -26 -9 R -17 -26 R -9 -44 R
0 -26 R 9 -44 R 17 -26 R 26 -9 R 18 0 R 26 9 R 18 26 R 9 44 R 0 26 R -9 44 R
-18 26 R -26 9 R -18 0 R D 16475 898 M -9 -9 R 9 -9 R 8 9 R -8 9 R D
16554 1020 M 0 9 R 8 18 R 9 8 R 18 9 R 35 0 R 17 -9 R 9 -8 R 9 -18 R 0 -18 R
-9 -17 R -18 -26 R -87 -88 R 122 0 R D 16773 1064 M -27 -9 R -17 -26 R
-9 -44 R 0 -26 R 9 -44 R 17 -26 R 27 -9 R 17 0 R 26 9 R 18 26 R 9 44 R
0 26 R -9 44 R -18 26 R -26 9 R -17 0 R D 17625 1276 M 0 238 R D
17388 1064 M -26 -9 R -18 -26 R -9 -44 R 0 -26 R 9 -44 R 18 -26 R 26 -9 R
17 0 R 27 9 R 17 26 R 9 44 R 0 26 R -9 44 R -17 26 R -27 9 R -17 0 R D
17528 898 M -9 -9 R 9 -9 R 9 9 R -9 9 R D 17607 1020 M 0 9 R 9 18 R 9 8 R
17 9 R 35 0 R 18 -9 R 8 -8 R 9 -18 R 0 -18 R -9 -17 R -17 -26 R -88 -88 R
123 0 R D 17879 1064 M -88 0 R -9 -79 R 9 9 R 26 9 R 27 0 R 26 -9 R 17 -18 R
9 -26 R 0 -17 R -9 -27 R -17 -17 R -26 -9 R -27 0 R -26 9 R -9 9 R -8 17 R D
18678 1276 M 0 238 R D 18441 1064 M -26 -9 R -17 -26 R -9 -44 R 0 -26 R
9 -44 R 17 -26 R 26 -9 R 18 0 R 26 9 R 18 26 R 9 44 R 0 26 R -9 44 R
-18 26 R -26 9 R -18 0 R D 18582 898 M -9 -9 R 9 -9 R 8 9 R -8 9 R D
18669 1064 M 97 0 R -53 -70 R 26 0 R 18 -9 R 9 -9 R 8 -26 R 0 -17 R -8 -27 R
-18 -17 R -26 -9 R -26 0 R -27 9 R -9 9 R -8 17 R D 18880 1064 M -27 -9 R
-17 -26 R -9 -44 R 0 -26 R 9 -44 R 17 -26 R 27 -9 R 17 0 R 26 9 R 18 26 R
9 44 R 0 26 R -9 44 R -18 26 R -26 9 R -17 0 R D 13621 1276 M 0 119 R D
13832 1276 M 0 119 R D 14043 1276 M 0 119 R D 14253 1276 M 0 119 R D
14675 1276 M 0 119 R D 14886 1276 M 0 119 R D 15096 1276 M 0 119 R D
15307 1276 M 0 119 R D 15728 1276 M 0 119 R D 15939 1276 M 0 119 R D
16150 1276 M 0 119 R D 16360 1276 M 0 119 R D 16782 1276 M 0 119 R D
16992 1276 M 0 119 R D 17203 1276 M 0 119 R D 17414 1276 M 0 119 R D
17835 1276 M 0 119 R D 18046 1276 M 0 119 R D 18257 1276 M 0 119 R D
18467 1276 M 0 119 R D 13411 7224 M 5267 0 R D 13411 7224 M 0 -238 R D
14464 7224 M 0 -238 R D 15518 7224 M 0 -238 R D 16571 7224 M 0 -238 R D
17625 7224 M 0 -238 R D 18678 7224 M 0 -238 R D 13621 7224 M 0 -119 R D
13832 7224 M 0 -119 R D 14043 7224 M 0 -119 R D 14253 7224 M 0 -119 R D
14675 7224 M 0 -119 R D 14886 7224 M 0 -119 R D 15096 7224 M 0 -119 R D
15307 7224 M 0 -119 R D 15728 7224 M 0 -119 R D 15939 7224 M 0 -119 R D
16150 7224 M 0 -119 R D 16360 7224 M 0 -119 R D 16782 7224 M 0 -119 R D
16992 7224 M 0 -119 R D 17203 7224 M 0 -119 R D 17414 7224 M 0 -119 R D
17835 7224 M 0 -119 R D 18046 7224 M 0 -119 R D 18257 7224 M 0 -119 R D
18467 7224 M 0 -119 R D 13411 1276 M 0 5948 R D 13411 2125 M 210 0 R D
13275 2204 M -88 0 R -9 -79 R 9 9 R 26 9 R 27 0 R 26 -9 R 18 -18 R 8 -26 R
0 -18 R -8 -26 R -18 -17 R -26 -9 R -27 0 R -26 9 R -9 8 R -8 18 R D
13411 3098 M 210 0 R D 13021 3141 M 17 9 R 27 26 R 0 -184 R D 13222 3176 M
-26 -9 R -18 -26 R -8 -44 R 0 -26 R 8 -44 R 18 -26 R 26 -9 R 18 0 R 26 9 R
18 26 R 8 44 R 0 26 R -8 44 R -18 26 R -26 9 R -18 0 R D 13411 4070 M
210 0 R D 13021 4113 M 17 9 R 27 26 R 0 -184 R D 13275 4148 M -88 0 R
-9 -79 R 9 9 R 26 9 R 27 0 R 26 -9 R 18 -17 R 8 -27 R 0 -17 R -8 -26 R
-18 -18 R -26 -9 R -27 0 R -26 9 R -9 9 R -8 17 R D 13411 5042 M 210 0 R D
13003 5077 M 0 9 R 9 17 R 9 9 R 17 9 R 35 0 R 18 -9 R 9 -9 R 8 -17 R 0 -18 R
-8 -18 R -18 -26 R -88 -87 R 123 0 R D 13222 5121 M -26 -9 R -18 -26 R
-8 -44 R 0 -27 R 8 -43 R 18 -27 R 26 -8 R 18 0 R 26 8 R 18 27 R 8 43 R
0 27 R -8 44 R -18 26 R -26 9 R -18 0 R D 13411 6014 M 210 0 R D
13003 6049 M 0 9 R 9 17 R 9 9 R 17 9 R 35 0 R 18 -9 R 9 -9 R 8 -17 R 0 -18 R
-8 -17 R -18 -27 R -88 -87 R 123 0 R D 13275 6093 M -88 0 R -9 -79 R 9 9 R
26 8 R 27 0 R 26 -8 R 18 -18 R 8 -26 R 0 -18 R -8 -26 R -18 -17 R -26 -9 R
-27 0 R -26 9 R -9 8 R -8 18 R D 13411 6987 M 210 0 R D 13012 7065 M 96 0 R
-52 -70 R 26 0 R 18 -9 R 8 -9 R 9 -26 R 0 -17 R -9 -27 R -17 -17 R -26 -9 R
-27 0 R -26 9 R -9 8 R -9 18 R D 13222 7065 M -26 -9 R -18 -26 R -8 -44 R
0 -26 R 8 -44 R 18 -26 R 26 -9 R 18 0 R 26 9 R 18 26 R 8 44 R 0 26 R -8 44 R
-18 26 R -26 9 R -18 0 R D 13411 1348 M 105 0 R D 13411 1542 M 105 0 R D
13411 1737 M 105 0 R D 13411 1931 M 105 0 R D 13411 2320 M 105 0 R D
13411 2514 M 105 0 R D 13411 2709 M 105 0 R D 13411 2903 M 105 0 R D
13411 3292 M 105 0 R D 13411 3487 M 105 0 R D 13411 3681 M 105 0 R D
13411 3875 M 105 0 R D 13411 4264 M 105 0 R D 13411 4459 M 105 0 R D
13411 4653 M 105 0 R D 13411 4848 M 105 0 R D 13411 5237 M 105 0 R D
13411 5431 M 105 0 R D 13411 5625 M 105 0 R D 13411 5820 M 105 0 R D
13411 6209 M 105 0 R D 13411 6403 M 105 0 R D 13411 6598 M 105 0 R D
13411 6792 M 105 0 R D 13411 7181 M 105 0 R D 18678 1276 M 0 5948 R D
18678 2125 M -211 0 R D 18678 3098 M -211 0 R D 18678 4070 M -211 0 R D
18678 5042 M -211 0 R D 18678 6014 M -211 0 R D 18678 6987 M -211 0 R D
18678 1348 M -105 0 R D 18678 1542 M -105 0 R D 18678 1737 M -105 0 R D
18678 1931 M -105 0 R D 18678 2320 M -105 0 R D 18678 2514 M -105 0 R D
18678 2709 M -105 0 R D 18678 2903 M -105 0 R D 18678 3292 M -105 0 R D
18678 3487 M -105 0 R D 18678 3681 M -105 0 R D 18678 3875 M -105 0 R D
18678 4264 M -105 0 R D 18678 4459 M -105 0 R D 18678 4653 M -105 0 R D
18678 4848 M -105 0 R D 18678 5237 M -105 0 R D 18678 5431 M -105 0 R D
18678 5625 M -105 0 R D 18678 5820 M -105 0 R D 18678 6209 M -105 0 R D
18678 6403 M -105 0 R D 18678 6598 M -105 0 R D 18678 6792 M -105 0 R D
18678 7181 M -105 0 R D L1 13411 7224 M 526 -1973 R 527 -967 R 632 -663 R
422 -292 R 1053 -474 R 1054 -285 R 1053 -189 R D L2 13411 4218 M 526 -729 R
527 -390 R 632 -286 R 422 -133 R 1053 -225 R 1054 -142 R 1053 -99 R D L0
0.000 0.098 0.890 setrgbcolor 13411 3599 M 526 -708 R 527 -308 R 632 -204 R
422 -81 R 1053 -134 R 1054 -71 R 1053 -38 R D 14078 5952 M 0 -246 R D
14171 5870 M 0 -164 R D 14171 5823 M 35 35 R 24 12 R 35 0 R 23 -12 R
12 -35 R 0 -117 R D 14452 5952 M -94 -246 R D 14452 5952 M 93 -246 R D
14604 5847 M 210 0 R D 14604 5776 M 210 0 R D 14907 5952 M 0 -246 R D
15001 5870 M 0 -164 R D 15001 5823 M 35 35 R 23 12 R 35 0 R 24 -12 R
11 -35 R 0 -117 R D 15223 5998 M 0 -385 R D 15235 5998 M 0 -385 R D
15223 5998 M 82 0 R D 15223 5613 M 82 0 R D 15386 5952 M 0 -246 R D
15386 5952 M 94 -246 R 93 246 R 0 -246 R D 15749 5998 M -24 -23 R -23 -35 R
-23 -47 R -12 -58 R 0 -47 R 12 -58 R 23 -59 R 23 -35 R 24 -23 R D
15889 5952 M -35 -12 R -24 -35 R -11 -58 R 0 -36 R 11 -58 R 24 -35 R
35 -12 R 23 0 R 35 12 R 24 35 R 11 58 R 0 36 R -11 58 R -24 35 R -35 12 R
-23 0 R D 16052 5998 M 24 -23 R 23 -35 R 24 -47 R 11 -58 R 0 -47 R -11 -58 R
-24 -59 R -23 -35 R -24 -23 R D 16415 5998 M -211 -385 R D 16485 5870 M
0 -164 R D 16485 5823 M 35 35 R 23 12 R 35 0 R 24 -12 R 11 -35 R 0 -117 R D
16613 5823 M 35 35 R 24 12 R 35 0 R 23 -12 R 12 -35 R 0 -117 R D
16917 5998 M -23 -23 R -24 -35 R -23 -47 R -12 -58 R 0 -47 R 12 -58 R
23 -59 R 24 -35 R 23 -23 R D 17011 5952 M 0 -199 R 11 -35 R 24 -12 R 23 0 R
D 16975 5870 M 82 0 R D 17127 5998 M 24 -23 R 23 -35 R 23 -47 R 12 -58 R
0 -47 R -12 -58 R -23 -59 R -23 -35 R -24 -23 R D 17361 5998 M 0 -385 R D
17373 5998 M 0 -385 R D 17291 5998 M 82 0 R D 17291 5613 M 82 0 R D
50 setlinewidth 13820 7224 M 117 -646 R 527 -1640 R 632 -2348 R 422 -143 R
1053 -200 R 1054 -102 R 1053 -56 R D 20 setlinewidth 14078 5952 M 0 -246 R D
14171 5870 M 0 -164 R D 14171 5823 M 35 35 R 24 12 R 35 0 R 23 -12 R
12 -35 R 0 -117 R D 14452 5952 M -94 -246 R D 14452 5952 M 93 -246 R D
14604 5847 M 210 0 R D 14604 5776 M 210 0 R D 14907 5952 M 0 -246 R D
15001 5870 M 0 -164 R D 15001 5823 M 35 35 R 23 12 R 35 0 R 24 -12 R
11 -35 R 0 -117 R D 15223 5998 M 0 -385 R D 15235 5998 M 0 -385 R D
15223 5998 M 82 0 R D 15223 5613 M 82 0 R D 15386 5952 M 0 -246 R D
15386 5952 M 94 -246 R 93 246 R 0 -246 R D 15749 5998 M -24 -23 R -23 -35 R
-23 -47 R -12 -58 R 0 -47 R 12 -58 R 23 -59 R 23 -35 R 24 -23 R D
15889 5952 M -35 -12 R -24 -35 R -11 -58 R 0 -36 R 11 -58 R 24 -35 R
35 -12 R 23 0 R 35 12 R 24 35 R 11 58 R 0 36 R -11 58 R -24 35 R -35 12 R
-23 0 R D 16052 5998 M 24 -23 R 23 -35 R 24 -47 R 11 -58 R 0 -47 R -11 -58 R
-24 -59 R -23 -35 R -24 -23 R D 16415 5998 M -211 -385 R D 16485 5870 M
0 -164 R D 16485 5823 M 35 35 R 23 12 R 35 0 R 24 -12 R 11 -35 R 0 -117 R D
16613 5823 M 35 35 R 24 12 R 35 0 R 23 -12 R 12 -35 R 0 -117 R D
16917 5998 M -23 -23 R -24 -35 R -23 -47 R -12 -58 R 0 -47 R 12 -58 R
23 -59 R 24 -35 R 23 -23 R D 17011 5952 M 0 -199 R 11 -35 R 24 -12 R 23 0 R
D 16975 5870 M 82 0 R D 17127 5998 M 24 -23 R 23 -35 R 23 -47 R 12 -58 R
0 -47 R -12 -58 R -23 -59 R -23 -35 R -24 -23 R D 17361 5998 M 0 -385 R D
17373 5998 M 0 -385 R D 17291 5998 M 82 0 R D 17291 5613 M 82 0 R D
80 setlinewidth 14209 7224 M 255 -763 R 632 -1060 R 422 -568 R 1053 -1005 R
1054 -1579 R 1053 -96 R D 20 setlinewidth 14078 5952 M 0 -246 R D
14171 5870 M 0 -164 R D 14171 5823 M 35 35 R 24 12 R 35 0 R 23 -12 R
12 -35 R 0 -117 R D 14452 5952 M -94 -246 R D 14452 5952 M 93 -246 R D
14604 5847 M 210 0 R D 14604 5776 M 210 0 R D 14907 5952 M 0 -246 R D
15001 5870 M 0 -164 R D 15001 5823 M 35 35 R 23 12 R 35 0 R 24 -12 R
11 -35 R 0 -117 R D 15223 5998 M 0 -385 R D 15235 5998 M 0 -385 R D
15223 5998 M 82 0 R D 15223 5613 M 82 0 R D 15386 5952 M 0 -246 R D
15386 5952 M 94 -246 R 93 246 R 0 -246 R D 15749 5998 M -24 -23 R -23 -35 R
-23 -47 R -12 -58 R 0 -47 R 12 -58 R 23 -59 R 23 -35 R 24 -23 R D
15889 5952 M -35 -12 R -24 -35 R -11 -58 R 0 -36 R 11 -58 R 24 -35 R
35 -12 R 23 0 R 35 12 R 24 35 R 11 58 R 0 36 R -11 58 R -24 35 R -35 12 R
-23 0 R D 16052 5998 M 24 -23 R 23 -35 R 24 -47 R 11 -58 R 0 -47 R -11 -58 R
-24 -59 R -23 -35 R -24 -23 R D 16415 5998 M -211 -385 R D 16485 5870 M
0 -164 R D 16485 5823 M 35 35 R 23 12 R 35 0 R 24 -12 R 11 -35 R 0 -117 R D
16613 5823 M 35 35 R 24 12 R 35 0 R 23 -12 R 12 -35 R 0 -117 R D
16917 5998 M -23 -23 R -24 -35 R -23 -47 R -12 -58 R 0 -47 R 12 -58 R
23 -59 R 24 -35 R 23 -23 R D 17011 5952 M 0 -199 R 11 -35 R 24 -12 R 23 0 R
D 16975 5870 M 82 0 R D 17127 5998 M 24 -23 R 23 -35 R 23 -47 R 12 -58 R
0 -47 R -12 -58 R -23 -59 R -23 -35 R -24 -23 R D 17361 5998 M 0 -385 R D
17373 5998 M 0 -385 R D 17291 5998 M 82 0 R D 17291 5613 M 82 0 R D
0.000 0.000 0.000 setrgbcolor 17203 6845 M -35 17 R -53 0 R -35 -17 R
-35 -35 R -17 -53 R 0 -52 R 17 -53 R 18 -18 R 35 -17 R 52 0 R 35 17 R D
17028 6740 M 140 0 R D 17325 6827 M 316 0 R D 17325 6722 M 316 0 R D
17816 6915 M 35 17 R 53 53 R 0 -368 R D 18149 6652 M -17 -18 R 17 -17 R
18 17 R -18 18 R D 18395 6985 M -53 -18 R -35 -52 R -18 -88 R 0 -52 R
18 -88 R 35 -53 R 53 -17 R 35 0 R 52 17 R 35 53 R 18 88 R 0 52 R -18 88 R
-35 52 R -52 18 R -35 0 R D 8603 395 M 0 -245 R D 8603 325 M 52 53 R 35 17 R
53 0 R 35 -17 R 17 -53 R 0 -175 R D 8795 325 M 53 53 R 35 17 R 53 0 R
35 -17 R 17 -53 R 0 -175 R D 9251 588 M -35 -35 R -35 -52 R -35 -71 R
-18 -87 R 0 -70 R 18 -88 R 35 -88 R 35 -52 R 35 -35 R D 9461 518 M -52 -17 R
-35 -53 R -18 -88 R 0 -52 R 18 -88 R 35 -52 R 52 -18 R 35 0 R 53 18 R
35 52 R 18 88 R 0 52 R -18 88 R -35 53 R -53 17 R -35 0 R D 9707 588 M
35 -35 R 35 -52 R 35 -71 R 17 -87 R 0 -70 R -17 -88 R -35 -88 R -35 -52 R
-35 -35 R D 10250 588 M -315 -578 R D 10355 518 M 0 -368 R D 10355 518 M
140 -368 R 141 368 R 0 -368 R D 10899 588 M -36 -35 R -35 -52 R -35 -71 R
-17 -87 R 0 -70 R 17 -88 R 35 -88 R 35 -52 R 36 -35 R D 11109 518 M
-53 -17 R -35 -53 R -17 -88 R 0 -52 R 17 -88 R 35 -52 R 53 -18 R 35 0 R
52 18 R 36 52 R 17 88 R 0 52 R -17 88 R -36 53 R -52 17 R -35 0 R D
11354 588 M 35 -35 R 35 -52 R 35 -71 R 18 -87 R 0 -70 R -18 -88 R -35 -88 R
-35 -52 R -35 -35 R D 515 1928 M 245 0 R D 585 1928 M -53 52 R -17 35 R
0 53 R 17 35 R 53 17 R 175 0 R D 585 2120 M -53 53 R -17 35 R 0 53 R 17 35 R
53 17 R 175 0 R D 620 2436 M 0 210 R -35 0 R -35 -17 R -18 -18 R -17 -35 R
0 -53 R 17 -35 R 35 -35 R 53 -17 R 35 0 R 52 17 R 35 35 R 18 35 R 0 53 R
-18 35 R -35 35 R D 515 2769 M 245 0 R D 620 2769 M -53 17 R -35 35 R
-17 35 R 0 53 R D 515 3189 M 298 0 R 52 -17 R 18 -18 R 17 -35 R 0 -52 R
-17 -35 R D 567 3189 M -35 -35 R -17 -35 R 0 -52 R 17 -35 R 35 -35 R
53 -18 R 35 0 R 52 18 R 35 35 R 18 35 R 0 52 R -18 35 R -35 35 R D
620 3312 M 0 210 R -35 0 R -35 -17 R -18 -18 R -17 -35 R 0 -52 R 17 -35 R
35 -35 R 53 -18 R 35 0 R 52 18 R 35 35 R 18 35 R 0 52 R -18 35 R -35 35 R D
515 3645 M 245 0 R D 620 3645 M -53 18 R -35 35 R -17 35 R 0 52 R D
392 4171 M 298 0 R 52 17 R 18 36 R 0 35 R D 515 4118 M 0 123 R D 392 4346 M
17 18 R -17 17 R -18 -17 R 18 -18 R D 515 4364 M 245 0 R D 515 4504 M
245 0 R D 585 4504 M -53 53 R -17 35 R 0 52 R 17 35 R 53 18 R 175 0 R D
585 4697 M -53 52 R -17 35 R 0 53 R 17 35 R 53 18 R 175 0 R D 620 5012 M
0 211 R -35 0 R -35 -18 R -18 -18 R -17 -35 R 0 -52 R 17 -35 R 35 -35 R
53 -18 R 35 0 R 52 18 R 35 35 R 18 35 R 0 52 R -18 35 R -35 36 R D
322 5626 M 578 -316 R D 480 5976 M -35 -17 R -36 -35 R -17 -35 R 0 -71 R
17 -35 R 36 -35 R 35 -17 R 52 -18 R 88 0 R 52 18 R 35 17 R 35 35 R 18 35 R
0 71 R -18 35 R -35 35 R -35 17 R -52 0 R 0 -87 R D 515 6064 M 245 105 R
-245 105 R D 760 6169 M 88 -35 R 35 -35 R 17 -35 R 0 -18 R D 515 6379 M
245 0 R D 620 6379 M -53 18 R -35 35 R -17 35 R 0 52 R D
%%PageTrailer
end
%%PageResources: font Helvetica
%%Trailer
%%Pages: 1
%%DocumentNeededResources: font Helvetica
%%EOF
