%!PS-Adobe-3.0 EPSF-3.0
%%BoundingBox: 0 0 538 396
%%Title: Graphics produced by IDL
%%For: jlgan@aida119, /home/jlgan/work/subhalo_model
%%Creator: IDL Version 7.0 (linux x86_64 m64)
%%CreationDate: Tue Jan 27 16:06:41 2009
%%DocumentData: Clean7bit
%%Requirements: color
%%LanguageLevel: 1
%%PageOrder: Ascend
%%Pages: (atend)
%%DocumentNeededResources: (atend)
%%EndComments
%%BeginProlog
%+ prolog.ps -- Prolog for IDL generated PostScript files
%+ Copyright (c) 1988-2007 ITT Visual Information Solutions. All Rights Reserved.
%v 5
/$IDL_DICT 40 dict def $IDL_DICT begin /bdef { bind def } bind def /C
{currentpoint newpath moveto} bdef /CP {currentpoint} bdef /D {currentpoint
stroke moveto} bdef /F {closepath fill} bdef /K { setgray } bdef /M {moveto}
bdef /N {rmoveto} bdef /P {lineto} bdef /R {rlineto} bdef /S {gsave show
grestore} bdef /X {currentpoint pop} bdef /Z {gsave currentpoint lineto 20
setlinewidth 1 setlinecap stroke grestore} bdef /L0 {[] 0 setdash} bdef /L1
{[40 100] 0 setdash} bdef /L2 {[200 200] 0 setdash} bdef /L3 {[200 100 50
100] 0 setdash} bdef /L4 {[300 100 50 100 50 100 50 100] 0 setdash} bdef /L5
{[400 200] 0 setdash} bdef /STDFONT { findfont exch scalefont setfont } bdef
/ISOFONT { findfont dup length dict begin { 1 index /FID ne {def} {pop pop}
ifelse } forall /Encoding ISOLatin1Encoding def currentdict end /idltmpfont
exch definefont exch scalefont setfont } bdef /ISOBULLET { gsave /Helvetica
findfont exch scalefont setfont (\267) show currentpoint grestore moveto}
bdef /MITERLIMIT { 2.5 setmiterlimit } bdef end
%%EndProlog
%%Page: 0 1
%%PageRequirements: color
%%PageResources: (atend)
%%PageOrientation: Portrait
%%PageBoundingBox: 0 0 538 396
%%BeginPageSetup
$IDL_DICT begin 0.0283465 dup scale MITERLIMIT
%%IncludeResource: font Helvetica
423.333 /Helvetica STDFONT
%%EndPageSetup
20 setlinewidth L0 0.000 0.000 0.000 setrgbcolor 2144 8052 M 5001 0 R D
2144 8052 M 0 212 R D 1907 7840 M -26 -9 R -17 -26 R -9 -44 R 0 -26 R
9 -44 R 17 -26 R 26 -9 R 18 0 R 26 9 R 18 26 R 9 44 R 0 26 R -9 44 R
-18 26 R -26 9 R -18 0 R D 2048 7674 M -9 -9 R 9 -9 R 8 9 R -8 9 R D
2170 7840 M -26 -9 R -18 -26 R -8 -44 R 0 -26 R 8 -44 R 18 -26 R 26 -9 R
18 0 R 26 9 R 18 26 R 8 44 R 0 26 R -8 44 R -18 26 R -26 9 R -18 0 R D
2398 7840 M -87 0 R -9 -79 R 9 9 R 26 9 R 26 0 R 26 -9 R 18 -18 R 9 -26 R
0 -17 R -9 -27 R -18 -17 R -26 -9 R -26 0 R -26 9 R -9 9 R -9 17 R D
3144 8052 M 0 212 R D 2908 7840 M -27 -9 R -17 -26 R -9 -44 R 0 -26 R
9 -44 R 17 -26 R 27 -9 R 17 0 R 26 9 R 18 26 R 9 44 R 0 26 R -9 44 R
-18 26 R -26 9 R -17 0 R D 3048 7674 M -9 -9 R 9 -9 R 9 9 R -9 9 R D
3144 7805 M 18 9 R 26 26 R 0 -184 R D 3346 7840 M -27 -9 R -17 -26 R
-9 -44 R 0 -26 R 9 -44 R 17 -26 R 27 -9 R 17 0 R 27 9 R 17 26 R 9 44 R
0 26 R -9 44 R -17 26 R -27 9 R -17 0 R D 4144 8052 M 0 212 R D 3908 7840 M
-27 -9 R -17 -26 R -9 -44 R 0 -26 R 9 -44 R 17 -26 R 27 -9 R 17 0 R 26 9 R
18 26 R 9 44 R 0 26 R -9 44 R -18 26 R -26 9 R -17 0 R D 4048 7674 M -9 -9 R
9 -9 R 9 9 R -9 9 R D 4144 7805 M 18 9 R 26 26 R 0 -184 R D 4398 7840 M
-87 0 R -9 -79 R 9 9 R 26 9 R 26 0 R 27 -9 R 17 -18 R 9 -26 R 0 -17 R
-9 -27 R -17 -17 R -27 -9 R -26 0 R -26 9 R -9 9 R -9 17 R D 5144 8052 M
0 212 R D 4908 7840 M -26 -9 R -18 -26 R -9 -44 R 0 -26 R 9 -44 R 18 -26 R
26 -9 R 17 0 R 27 9 R 17 26 R 9 44 R 0 26 R -9 44 R -17 26 R -27 9 R -17 0 R
D 5048 7674 M -9 -9 R 9 -9 R 9 9 R -9 9 R D 5127 7796 M 0 9 R 9 17 R 8 9 R
18 9 R 35 0 R 18 -9 R 8 -9 R 9 -17 R 0 -18 R -9 -17 R -17 -26 R -88 -88 R
123 0 R D 5346 7840 M -26 -9 R -18 -26 R -9 -44 R 0 -26 R 9 -44 R 18 -26 R
26 -9 R 17 0 R 27 9 R 17 26 R 9 44 R 0 26 R -9 44 R -17 26 R -27 9 R -17 0 R
D 6145 8052 M 0 212 R D 5908 7840 M -26 -9 R -18 -26 R -9 -44 R 0 -26 R
9 -44 R 18 -26 R 26 -9 R 17 0 R 27 9 R 17 26 R 9 44 R 0 26 R -9 44 R
-17 26 R -27 9 R -17 0 R D 6048 7674 M -9 -9 R 9 -9 R 9 9 R -9 9 R D
6127 7796 M 0 9 R 9 17 R 9 9 R 17 9 R 35 0 R 18 -9 R 8 -9 R 9 -17 R 0 -18 R
-9 -17 R -17 -26 R -88 -88 R 123 0 R D 6399 7840 M -88 0 R -9 -79 R 9 9 R
26 9 R 27 0 R 26 -9 R 17 -18 R 9 -26 R 0 -17 R -9 -27 R -17 -17 R -26 -9 R
-27 0 R -26 9 R -9 9 R -8 17 R D 7145 8052 M 0 212 R D 6908 7840 M -26 -9 R
-18 -26 R -9 -44 R 0 -26 R 9 -44 R 18 -26 R 26 -9 R 18 0 R 26 9 R 17 26 R
9 44 R 0 26 R -9 44 R -17 26 R -26 9 R -18 0 R D 7048 7674 M -8 -9 R 8 -9 R
9 9 R -9 9 R D 7136 7840 M 96 0 R -52 -70 R 26 0 R 18 -9 R 8 -9 R 9 -26 R
0 -17 R -9 -27 R -17 -17 R -27 -9 R -26 0 R -26 9 R -9 9 R -9 17 R D
7346 7840 M -26 -9 R -18 -26 R -8 -44 R 0 -26 R 8 -44 R 18 -26 R 26 -9 R
18 0 R 26 9 R 18 26 R 8 44 R 0 26 R -8 44 R -18 26 R -26 9 R -18 0 R D
2344 8052 M 0 106 R D 2544 8052 M 0 106 R D 2744 8052 M 0 106 R D
2944 8052 M 0 106 R D 3344 8052 M 0 106 R D 3544 8052 M 0 106 R D
3744 8052 M 0 106 R D 3944 8052 M 0 106 R D 4344 8052 M 0 106 R D
4544 8052 M 0 106 R D 4744 8052 M 0 106 R D 4944 8052 M 0 106 R D
5344 8052 M 0 106 R D 5544 8052 M 0 106 R D 5744 8052 M 0 106 R D
5945 8052 M 0 106 R D 6345 8052 M 0 106 R D 6545 8052 M 0 106 R D
6745 8052 M 0 106 R D 6945 8052 M 0 106 R D 2144 13348 M 5001 0 R D
2144 13348 M 0 -212 R D 3144 13348 M 0 -212 R D 4144 13348 M 0 -212 R D
5144 13348 M 0 -212 R D 6145 13348 M 0 -212 R D 7145 13348 M 0 -212 R D
2344 13348 M 0 -106 R D 2544 13348 M 0 -106 R D 2744 13348 M 0 -106 R D
2944 13348 M 0 -106 R D 3344 13348 M 0 -106 R D 3544 13348 M 0 -106 R D
3744 13348 M 0 -106 R D 3944 13348 M 0 -106 R D 4344 13348 M 0 -106 R D
4544 13348 M 0 -106 R D 4744 13348 M 0 -106 R D 4944 13348 M 0 -106 R D
5344 13348 M 0 -106 R D 5544 13348 M 0 -106 R D 5744 13348 M 0 -106 R D
5945 13348 M 0 -106 R D 6345 13348 M 0 -106 R D 6545 13348 M 0 -106 R D
6745 13348 M 0 -106 R D 6945 13348 M 0 -106 R D 2144 8052 M 0 5296 R D
2144 9252 M 200 0 R D 1912 9287 M 0 8 R 9 18 R 8 9 R 18 8 R 35 0 R 17 -8 R
9 -9 R 9 -18 R 0 -17 R -9 -18 R -17 -26 R -88 -88 R 123 0 R D 2144 10561 M
200 0 R D 1991 10640 M -88 -123 R 131 0 R D 1991 10640 M 0 -184 R D
2144 11870 M 200 0 R D 2017 11923 M -9 17 R -26 9 R -18 0 R -26 -9 R
-17 -26 R -9 -44 R 0 -44 R 9 -35 R 17 -17 R 26 -9 R 9 0 R 26 9 R 18 17 R
9 26 R 0 9 R -9 26 R -18 18 R -26 9 R -9 0 R -26 -9 R -17 -18 R -9 -26 R D
2144 13180 M 200 0 R D 1947 13258 M -26 -9 R -9 -17 R 0 -18 R 9 -17 R
17 -9 R 35 -9 R 26 -9 R 18 -17 R 9 -18 R 0 -26 R -9 -17 R -9 -9 R -26 -9 R
-35 0 R -26 9 R -9 9 R -9 17 R 0 26 R 9 18 R 17 17 R 27 9 R 35 9 R 17 9 R
9 17 R 0 18 R -9 17 R -26 9 R -35 0 R D 2144 8270 M 100 0 R D 2144 8597 M
100 0 R D 2144 8925 M 100 0 R D 2144 9579 M 100 0 R D 2144 9907 M 100 0 R D
2144 10234 M 100 0 R D 2144 10888 M 100 0 R D 2144 11216 M 100 0 R D
2144 11543 M 100 0 R D 2144 12198 M 100 0 R D 2144 12525 M 100 0 R D
2144 12852 M 100 0 R D 7145 8052 M 0 5296 R D 7145 9252 M -200 0 R D
7145 10561 M -200 0 R D 7145 11870 M -200 0 R D 7145 13180 M -200 0 R D
7145 8270 M -100 0 R D 7145 8597 M -100 0 R D 7145 8925 M -100 0 R D
7145 9579 M -100 0 R D 7145 9907 M -100 0 R D 7145 10234 M -100 0 R D
7145 10888 M -100 0 R D 7145 11216 M -100 0 R D 7145 11543 M -100 0 R D
7145 12198 M -100 0 R D 7145 12525 M -100 0 R D 7145 12852 M -100 0 R D L1
2144 13347 M 500 -1756 R 500 -861 R 600 -590 R 400 -260 R 1000 -422 R
1001 -253 R 999 -170 R D L2 2641 13347 M 3 -9 R 500 -902 R 600 -661 R
400 -306 R 1000 -520 R 1001 -329 R 999 -228 R D L0
0.000 0.098 0.890 setrgbcolor 2144 11988 M 500 -1580 R 500 -547 R 600 -444 R
400 -126 R 1000 -195 R 1001 -111 R 999 -67 R D 50 setlinewidth 2443 13347 M
201 -1153 R 500 -1319 R 600 -808 R 400 -275 R 1000 -492 R 1001 -177 R
999 -99 R D 80 setlinewidth 3218 13347 M 526 -1171 R 400 -646 R 1000 -918 R
1001 -500 R 999 -305 R D 20 setlinewidth 0.000 0.000 0.000 setrgbcolor
5755 13035 M -35 18 R -53 0 R -35 -18 R -35 -35 R -17 -52 R 0 -53 R 17 -52 R
18 -18 R 35 -18 R 52 0 R 35 18 R D 5580 12930 M 140 0 R D 5877 13018 M
316 0 R D 5877 12913 M 316 0 R D 6421 13176 M -53 -18 R -35 -53 R -17 -87 R
0 -53 R 17 -87 R 35 -53 R 53 -18 R 35 0 R 52 18 R 35 53 R 18 87 R 0 53 R
-18 87 R -35 53 R -52 18 R -35 0 R D 6701 12843 M -17 -18 R 17 -18 R 18 18 R
-18 18 R D 6876 13176 M 193 0 R -105 -141 R 53 0 R 35 -17 R 17 -18 R
18 -52 R 0 -35 R -18 -53 R -35 -35 R -52 -18 R -53 0 R -53 18 R -17 18 R
-18 35 R D 7811 8052 M 5000 0 R D 7811 8052 M 0 212 R D 7574 7840 M -26 -9 R
-18 -26 R -9 -44 R 0 -26 R 9 -44 R 18 -26 R 26 -9 R 18 0 R 26 9 R 17 26 R
9 44 R 0 26 R -9 44 R -17 26 R -26 9 R -18 0 R D 7714 7674 M -8 -9 R 8 -9 R
9 9 R -9 9 R D 7837 7840 M -26 -9 R -18 -26 R -9 -44 R 0 -26 R 9 -44 R
18 -26 R 26 -9 R 17 0 R 27 9 R 17 26 R 9 44 R 0 26 R -9 44 R -17 26 R
-27 9 R -17 0 R D 8065 7840 M -88 0 R -9 -79 R 9 9 R 26 9 R 27 0 R 26 -9 R
18 -18 R 8 -26 R 0 -17 R -8 -27 R -18 -17 R -26 -9 R -27 0 R -26 9 R -9 9 R
-8 17 R D 8811 8052 M 0 212 R D 8574 7840 M -26 -9 R -18 -26 R -8 -44 R
0 -26 R 8 -44 R 18 -26 R 26 -9 R 18 0 R 26 9 R 18 26 R 8 44 R 0 26 R -8 44 R
-18 26 R -26 9 R -18 0 R D 8714 7674 M -8 -9 R 8 -9 R 9 9 R -9 9 R D
8811 7805 M 17 9 R 27 26 R 0 -184 R D 9012 7840 M -26 -9 R -17 -26 R
-9 -44 R 0 -26 R 9 -44 R 17 -26 R 26 -9 R 18 0 R 26 9 R 18 26 R 8 44 R
0 26 R -8 44 R -18 26 R -26 9 R -18 0 R D 9811 8052 M 0 212 R D 9574 7840 M
-26 -9 R -17 -26 R -9 -44 R 0 -26 R 9 -44 R 17 -26 R 26 -9 R 18 0 R 26 9 R
18 26 R 8 44 R 0 26 R -8 44 R -18 26 R -26 9 R -18 0 R D 9715 7674 M -9 -9 R
9 -9 R 8 9 R -8 9 R D 9811 7805 M 17 9 R 27 26 R 0 -184 R D 10065 7840 M
-88 0 R -8 -79 R 8 9 R 27 9 R 26 0 R 26 -9 R 18 -18 R 9 -26 R 0 -17 R
-9 -27 R -18 -17 R -26 -9 R -26 0 R -27 9 R -8 9 R -9 17 R D 10811 8052 M
0 212 R D 10574 7840 M -26 -9 R -17 -26 R -9 -44 R 0 -26 R 9 -44 R 17 -26 R
26 -9 R 18 0 R 26 9 R 18 26 R 9 44 R 0 26 R -9 44 R -18 26 R -26 9 R -18 0 R
D 10715 7674 M -9 -9 R 9 -9 R 8 9 R -8 9 R D 10794 7796 M 0 9 R 8 17 R 9 9 R
18 9 R 35 0 R 17 -9 R 9 -9 R 9 -17 R 0 -18 R -9 -17 R -18 -26 R -87 -88 R
122 0 R D 11013 7840 M -27 -9 R -17 -26 R -9 -44 R 0 -26 R 9 -44 R 17 -26 R
27 -9 R 17 0 R 26 9 R 18 26 R 9 44 R 0 26 R -9 44 R -18 26 R -26 9 R -17 0 R
D 11811 8052 M 0 212 R D 11575 7840 M -27 -9 R -17 -26 R -9 -44 R 0 -26 R
9 -44 R 17 -26 R 27 -9 R 17 0 R 26 9 R 18 26 R 9 44 R 0 26 R -9 44 R
-18 26 R -26 9 R -17 0 R D 11715 7674 M -9 -9 R 9 -9 R 9 9 R -9 9 R D
11794 7796 M 0 9 R 8 17 R 9 9 R 18 9 R 35 0 R 17 -9 R 9 -9 R 9 -17 R 0 -18 R
-9 -17 R -17 -26 R -88 -88 R 123 0 R D 12065 7840 M -87 0 R -9 -79 R 9 9 R
26 9 R 26 0 R 27 -9 R 17 -18 R 9 -26 R 0 -17 R -9 -27 R -17 -17 R -27 -9 R
-26 0 R -26 9 R -9 9 R -9 17 R D 12811 8052 M 0 212 R D 12575 7840 M
-27 -9 R -17 -26 R -9 -44 R 0 -26 R 9 -44 R 17 -26 R 27 -9 R 17 0 R 27 9 R
17 26 R 9 44 R 0 26 R -9 44 R -17 26 R -27 9 R -17 0 R D 12715 7674 M
-9 -9 R 9 -9 R 9 9 R -9 9 R D 12803 7840 M 96 0 R -53 -70 R 27 0 R 17 -9 R
9 -9 R 9 -26 R 0 -17 R -9 -27 R -18 -17 R -26 -9 R -26 0 R -26 9 R -9 9 R
-9 17 R D 13013 7840 M -26 -9 R -18 -26 R -9 -44 R 0 -26 R 9 -44 R 18 -26 R
26 -9 R 17 0 R 27 9 R 17 26 R 9 44 R 0 26 R -9 44 R -17 26 R -27 9 R -17 0 R
D 8011 8052 M 0 106 R D 8211 8052 M 0 106 R D 8411 8052 M 0 106 R D
8611 8052 M 0 106 R D 9011 8052 M 0 106 R D 9211 8052 M 0 106 R D
9411 8052 M 0 106 R D 9611 8052 M 0 106 R D 10011 8052 M 0 106 R D
10211 8052 M 0 106 R D 10411 8052 M 0 106 R D 10611 8052 M 0 106 R D
11011 8052 M 0 106 R D 11211 8052 M 0 106 R D 11411 8052 M 0 106 R D
11611 8052 M 0 106 R D 12011 8052 M 0 106 R D 12211 8052 M 0 106 R D
12411 8052 M 0 106 R D 12611 8052 M 0 106 R D 7811 13348 M 5000 0 R D
7811 13348 M 0 -212 R D 8811 13348 M 0 -212 R D 9811 13348 M 0 -212 R D
10811 13348 M 0 -212 R D 11811 13348 M 0 -212 R D 12811 13348 M 0 -212 R D
8011 13348 M 0 -106 R D 8211 13348 M 0 -106 R D 8411 13348 M 0 -106 R D
8611 13348 M 0 -106 R D 9011 13348 M 0 -106 R D 9211 13348 M 0 -106 R D
9411 13348 M 0 -106 R D 9611 13348 M 0 -106 R D 10011 13348 M 0 -106 R D
10211 13348 M 0 -106 R D 10411 13348 M 0 -106 R D 10611 13348 M 0 -106 R D
11011 13348 M 0 -106 R D 11211 13348 M 0 -106 R D 11411 13348 M 0 -106 R D
11611 13348 M 0 -106 R D 12011 13348 M 0 -106 R D 12211 13348 M 0 -106 R D
12411 13348 M 0 -106 R D 12611 13348 M 0 -106 R D 7811 8052 M 0 5296 R D
7811 8838 M 200 0 R D 7578 8873 M 0 8 R 9 18 R 9 9 R 17 8 R 36 0 R 17 -8 R
9 -9 R 9 -18 R 0 -17 R -9 -18 R -18 -26 R -87 -88 R 122 0 R D 7811 9733 M
200 0 R D 7657 9812 M -87 -123 R 131 0 R D 7657 9812 M 0 -184 R D
7811 10629 M 200 0 R D 7684 10681 M -9 17 R -26 9 R -18 0 R -26 -9 R
-18 -26 R -9 -44 R 0 -44 R 9 -35 R 18 -17 R 26 -9 R 9 0 R 26 9 R 18 17 R
8 27 R 0 8 R -8 27 R -18 17 R -26 9 R -9 0 R -26 -9 R -18 -17 R -9 -27 R D
7811 11524 M 200 0 R D 7613 11602 M -26 -8 R -9 -18 R 0 -17 R 9 -18 R
18 -9 R 35 -8 R 26 -9 R 18 -18 R 8 -17 R 0 -27 R -8 -17 R -9 -9 R -26 -9 R
-36 0 R -26 9 R -9 9 R -8 17 R 0 27 R 8 17 R 18 18 R 26 9 R 35 8 R 18 9 R
9 18 R 0 17 R -9 18 R -26 8 R -36 0 R D 7811 12419 M 200 0 R D 7421 12463 M
17 8 R 27 27 R 0 -184 R D 7622 12498 M -26 -9 R -18 -26 R -8 -44 R 0 -26 R
8 -44 R 18 -27 R 26 -8 R 18 0 R 26 8 R 18 27 R 8 44 R 0 26 R -8 44 R
-18 26 R -26 9 R -18 0 R D 7811 13315 M 200 0 R D 7421 13312 M 17 9 R
27 26 R 0 -184 R D 7578 13303 M 0 9 R 9 18 R 9 8 R 17 9 R 36 0 R 17 -9 R
9 -8 R 9 -18 R 0 -17 R -9 -18 R -18 -26 R -87 -88 R 122 0 R D 7811 8167 M
100 0 R D 7811 8390 M 100 0 R D 7811 8614 M 100 0 R D 7811 9062 M 100 0 R D
7811 9286 M 100 0 R D 7811 9510 M 100 0 R D 7811 9957 M 100 0 R D
7811 10181 M 100 0 R D 7811 10405 M 100 0 R D 7811 10853 M 100 0 R D
7811 11076 M 100 0 R D 7811 11300 M 100 0 R D 7811 11748 M 100 0 R D
7811 11972 M 100 0 R D 7811 12195 M 100 0 R D 7811 12643 M 100 0 R D
7811 12867 M 100 0 R D 7811 13091 M 100 0 R D 12811 8052 M 0 5296 R D
12811 8838 M -200 0 R D 12811 9733 M -200 0 R D 12811 10629 M -200 0 R D
12811 11524 M -200 0 R D 12811 12419 M -200 0 R D 12811 13315 M -200 0 R D
12811 8167 M -100 0 R D 12811 8390 M -100 0 R D 12811 8614 M -100 0 R D
12811 9062 M -100 0 R D 12811 9286 M -100 0 R D 12811 9510 M -100 0 R D
12811 9957 M -100 0 R D 12811 10181 M -100 0 R D 12811 10405 M -100 0 R D
12811 10853 M -100 0 R D 12811 11076 M -100 0 R D 12811 11300 M -100 0 R D
12811 11748 M -100 0 R D 12811 11972 M -100 0 R D 12811 12195 M -100 0 R D
12811 12643 M -100 0 R D 12811 12867 M -100 0 R D 12811 13091 M -100 0 R D
L1 7811 13347 M 500 -1756 R 500 -861 R 600 -590 R 400 -260 R 1000 -422 R
1000 -253 R 1000 -170 R D L2 7880 13347 M 431 -1143 R 500 -713 R 600 -521 R
400 -242 R 1000 -411 R 1000 -259 R 1000 -181 R D L0
0.000 0.098 0.890 setrgbcolor 7811 11899 M 500 -1511 R 500 -604 R 600 -333 R
400 -163 R 1000 -239 R 1000 -107 R 1000 -62 R D 50 setlinewidth 8022 13347 M
289 -1449 R 500 -1122 R 600 -737 R 400 -296 R 1000 -418 R 1000 -231 R
1000 -121 R D 80 setlinewidth 8665 13347 M 146 -502 R 600 -1169 R 400 -487 R
1000 -810 R 1000 -470 R 1000 -283 R D 20 setlinewidth
0.000 0.000 0.000 setrgbcolor 11421 13035 M -35 18 R -52 0 R -35 -18 R
-35 -35 R -18 -52 R 0 -53 R 18 -52 R 17 -18 R 35 -18 R 53 0 R 35 18 R D
11246 12930 M 140 0 R D 11544 13018 M 316 0 R D 11544 12913 M 316 0 R D
12087 13176 M -52 -18 R -35 -53 R -18 -87 R 0 -53 R 18 -87 R 35 -53 R
52 -18 R 35 0 R 53 18 R 35 53 R 18 87 R 0 53 R -18 87 R -35 53 R -53 18 R
-35 0 R D 12368 12843 M -18 -18 R 18 -18 R 17 18 R -17 18 R D 12718 13176 M
-175 0 R -17 -158 R 17 17 R 53 18 R 52 0 R 53 -18 R 35 -35 R 17 -52 R
0 -35 R -17 -53 R -35 -35 R -53 -18 R -52 0 R -53 18 R -17 18 R -18 35 R D
13477 8052 M 5001 0 R D 13477 8052 M 0 212 R D 13241 7840 M -27 -9 R
-17 -26 R -9 -44 R 0 -26 R 9 -44 R 17 -26 R 27 -9 R 17 0 R 27 9 R 17 26 R
9 44 R 0 26 R -9 44 R -17 26 R -27 9 R -17 0 R D 13381 7674 M -9 -9 R 9 -9 R
9 9 R -9 9 R D 13504 7840 M -27 -9 R -17 -26 R -9 -44 R 0 -26 R 9 -44 R
17 -26 R 27 -9 R 17 0 R 26 9 R 18 26 R 9 44 R 0 26 R -9 44 R -18 26 R
-26 9 R -17 0 R D 13731 7840 M -87 0 R -9 -79 R 9 9 R 26 9 R 26 0 R 27 -9 R
17 -18 R 9 -26 R 0 -17 R -9 -27 R -17 -17 R -27 -9 R -26 0 R -26 9 R -9 9 R
-9 17 R D 14477 8052 M 0 212 R D 14241 7840 M -26 -9 R -18 -26 R -9 -44 R
0 -26 R 9 -44 R 18 -26 R 26 -9 R 17 0 R 27 9 R 17 26 R 9 44 R 0 26 R -9 44 R
-17 26 R -27 9 R -17 0 R D 14381 7674 M -9 -9 R 9 -9 R 9 9 R -9 9 R D
14477 7805 M 18 9 R 26 26 R 0 -184 R D 14679 7840 M -26 -9 R -18 -26 R
-9 -44 R 0 -26 R 9 -44 R 18 -26 R 26 -9 R 18 0 R 26 9 R 17 26 R 9 44 R
0 26 R -9 44 R -17 26 R -26 9 R -18 0 R D 15478 8052 M 0 212 R D
15241 7840 M -26 -9 R -18 -26 R -9 -44 R 0 -26 R 9 -44 R 18 -26 R 26 -9 R
18 0 R 26 9 R 17 26 R 9 44 R 0 26 R -9 44 R -17 26 R -26 9 R -18 0 R D
15381 7674 M -9 -9 R 9 -9 R 9 9 R -9 9 R D 15478 7805 M 17 9 R 26 26 R
0 -184 R D 15732 7840 M -88 0 R -9 -79 R 9 9 R 26 9 R 27 0 R 26 -9 R
17 -18 R 9 -26 R 0 -17 R -9 -27 R -17 -17 R -26 -9 R -27 0 R -26 9 R -9 9 R
-8 17 R D 16478 8052 M 0 212 R D 16241 7840 M -26 -9 R -18 -26 R -8 -44 R
0 -26 R 8 -44 R 18 -26 R 26 -9 R 18 0 R 26 9 R 17 26 R 9 44 R 0 26 R -9 44 R
-17 26 R -26 9 R -18 0 R D 16381 7674 M -8 -9 R 8 -9 R 9 9 R -9 9 R D
16460 7796 M 0 9 R 9 17 R 9 9 R 17 9 R 35 0 R 18 -9 R 9 -9 R 8 -17 R 0 -18 R
-8 -17 R -18 -26 R -88 -88 R 123 0 R D 16679 7840 M -26 -9 R -18 -26 R
-8 -44 R 0 -26 R 8 -44 R 18 -26 R 26 -9 R 18 0 R 26 9 R 18 26 R 8 44 R
0 26 R -8 44 R -18 26 R -26 9 R -18 0 R D 17478 8052 M 0 212 R D
17241 7840 M -26 -9 R -18 -26 R -8 -44 R 0 -26 R 8 -44 R 18 -26 R 26 -9 R
18 0 R 26 9 R 18 26 R 8 44 R 0 26 R -8 44 R -18 26 R -26 9 R -18 0 R D
17381 7674 M -8 -9 R 8 -9 R 9 9 R -9 9 R D 17460 7796 M 0 9 R 9 17 R 9 9 R
17 9 R 35 0 R 18 -9 R 9 -9 R 8 -17 R 0 -18 R -8 -17 R -18 -26 R -87 -88 R
122 0 R D 17732 7840 M -88 0 R -8 -79 R 8 9 R 27 9 R 26 0 R 26 -9 R 18 -18 R
9 -26 R 0 -17 R -9 -27 R -18 -17 R -26 -9 R -26 0 R -27 9 R -8 9 R -9 17 R D
18478 8052 M 0 212 R D 18241 7840 M -26 -9 R -17 -26 R -9 -44 R 0 -26 R
9 -44 R 17 -26 R 26 -9 R 18 0 R 26 9 R 18 26 R 9 44 R 0 26 R -9 44 R
-18 26 R -26 9 R -18 0 R D 18382 7674 M -9 -9 R 9 -9 R 8 9 R -8 9 R D
18469 7840 M 97 0 R -53 -70 R 26 0 R 18 -9 R 9 -9 R 8 -26 R 0 -17 R -8 -27 R
-18 -17 R -26 -9 R -26 0 R -27 9 R -9 9 R -8 17 R D 18680 7840 M -27 -9 R
-17 -26 R -9 -44 R 0 -26 R 9 -44 R 17 -26 R 27 -9 R 17 0 R 26 9 R 18 26 R
9 44 R 0 26 R -9 44 R -18 26 R -26 9 R -17 0 R D 13677 8052 M 0 106 R D
13877 8052 M 0 106 R D 14077 8052 M 0 106 R D 14277 8052 M 0 106 R D
14677 8052 M 0 106 R D 14878 8052 M 0 106 R D 15078 8052 M 0 106 R D
15278 8052 M 0 106 R D 15678 8052 M 0 106 R D 15878 8052 M 0 106 R D
16078 8052 M 0 106 R D 16278 8052 M 0 106 R D 16678 8052 M 0 106 R D
16878 8052 M 0 106 R D 17078 8052 M 0 106 R D 17278 8052 M 0 106 R D
17678 8052 M 0 106 R D 17878 8052 M 0 106 R D 18078 8052 M 0 106 R D
18278 8052 M 0 106 R D 13477 13348 M 5001 0 R D 13477 13348 M 0 -212 R D
14477 13348 M 0 -212 R D 15478 13348 M 0 -212 R D 16478 13348 M 0 -212 R D
17478 13348 M 0 -212 R D 18478 13348 M 0 -212 R D 13677 13348 M 0 -106 R D
13877 13348 M 0 -106 R D 14077 13348 M 0 -106 R D 14277 13348 M 0 -106 R D
14677 13348 M 0 -106 R D 14878 13348 M 0 -106 R D 15078 13348 M 0 -106 R D
15278 13348 M 0 -106 R D 15678 13348 M 0 -106 R D 15878 13348 M 0 -106 R D
16078 13348 M 0 -106 R D 16278 13348 M 0 -106 R D 16678 13348 M 0 -106 R D
16878 13348 M 0 -106 R D 17078 13348 M 0 -106 R D 17278 13348 M 0 -106 R D
17678 13348 M 0 -106 R D 17878 13348 M 0 -106 R D 18078 13348 M 0 -106 R D
18278 13348 M 0 -106 R D 13477 8052 M 0 5296 R D 13477 8808 M 200 0 R D
13342 8887 M -88 0 R -9 -79 R 9 9 R 26 8 R 26 0 R 27 -8 R 17 -18 R 9 -26 R
0 -18 R -9 -26 R -17 -17 R -27 -9 R -26 0 R -26 9 R -9 8 R -9 18 R D
13477 9674 M 200 0 R D 13087 9717 M 18 9 R 26 26 R 0 -184 R D 13289 9752 M
-26 -8 R -18 -27 R -9 -43 R 0 -27 R 9 -44 R 18 -26 R 26 -9 R 17 0 R 27 9 R
17 26 R 9 44 R 0 27 R -9 43 R -17 27 R -27 8 R -17 0 R D 13477 10540 M
200 0 R D 13087 10583 M 18 9 R 26 26 R 0 -184 R D 13342 10618 M -88 0 R
-9 -79 R 9 9 R 26 9 R 26 0 R 27 -9 R 17 -18 R 9 -26 R 0 -17 R -9 -27 R
-17 -17 R -27 -9 R -26 0 R -26 9 R -9 9 R -9 17 R D 13477 11405 M 200 0 R D
13070 11440 M 0 9 R 9 17 R 8 9 R 18 9 R 35 0 R 17 -9 R 9 -9 R 9 -17 R
0 -18 R -9 -17 R -17 -27 R -88 -87 R 123 0 R D 13289 11484 M -26 -9 R
-18 -26 R -9 -44 R 0 -26 R 9 -44 R 18 -27 R 26 -8 R 17 0 R 27 8 R 17 27 R
9 44 R 0 26 R -9 44 R -17 26 R -27 9 R -17 0 R D 13477 12271 M 200 0 R D
13070 12306 M 0 8 R 9 18 R 8 9 R 18 8 R 35 0 R 17 -8 R 9 -9 R 9 -18 R
0 -17 R -9 -18 R -17 -26 R -88 -88 R 123 0 R D 13342 12349 M -88 0 R
-9 -79 R 9 9 R 26 9 R 26 0 R 27 -9 R 17 -17 R 9 -27 R 0 -17 R -9 -26 R
-17 -18 R -27 -9 R -26 0 R -26 9 R -9 9 R -9 17 R D 13477 13137 M 200 0 R D
13079 13215 M 96 0 R -53 -70 R 27 0 R 17 -9 R 9 -9 R 9 -26 R 0 -17 R
-9 -27 R -18 -17 R -26 -9 R -26 0 R -26 9 R -9 9 R -9 17 R D 13289 13215 M
-26 -9 R -18 -26 R -9 -44 R 0 -26 R 9 -44 R 18 -26 R 26 -9 R 17 0 R 27 9 R
17 26 R 9 44 R 0 26 R -9 44 R -17 26 R -27 9 R -17 0 R D 13477 8116 M
100 0 R D 13477 8289 M 100 0 R D 13477 8462 M 100 0 R D 13477 8635 M 100 0 R
D 13477 8981 M 100 0 R D 13477 9155 M 100 0 R D 13477 9328 M 100 0 R D
13477 9501 M 100 0 R D 13477 9847 M 100 0 R D 13477 10020 M 100 0 R D
13477 10193 M 100 0 R D 13477 10367 M 100 0 R D 13477 10713 M 100 0 R D
13477 10886 M 100 0 R D 13477 11059 M 100 0 R D 13477 11232 M 100 0 R D
13477 11578 M 100 0 R D 13477 11752 M 100 0 R D 13477 11925 M 100 0 R D
13477 12098 M 100 0 R D 13477 12444 M 100 0 R D 13477 12617 M 100 0 R D
13477 12790 M 100 0 R D 13477 12963 M 100 0 R D 13477 13310 M 100 0 R D
18478 8052 M 0 5296 R D 18478 8808 M -200 0 R D 18478 9674 M -200 0 R D
18478 10540 M -200 0 R D 18478 11405 M -200 0 R D 18478 12271 M -200 0 R D
18478 13137 M -200 0 R D 18478 8116 M -100 0 R D 18478 8289 M -100 0 R D
18478 8462 M -100 0 R D 18478 8635 M -100 0 R D 18478 8981 M -100 0 R D
18478 9155 M -100 0 R D 18478 9328 M -100 0 R D 18478 9501 M -100 0 R D
18478 9847 M -100 0 R D 18478 10020 M -100 0 R D 18478 10193 M -100 0 R D
18478 10367 M -100 0 R D 18478 10713 M -100 0 R D 18478 10886 M -100 0 R D
18478 11059 M -100 0 R D 18478 11232 M -100 0 R D 18478 11578 M -100 0 R D
18478 11752 M -100 0 R D 18478 11925 M -100 0 R D 18478 12098 M -100 0 R D
18478 12444 M -100 0 R D 18478 12617 M -100 0 R D 18478 12790 M -100 0 R D
18478 12963 M -100 0 R D 18478 13310 M -100 0 R D L1 13477 13347 M
500 -1756 R 500 -861 R 601 -590 R 400 -260 R 1000 -422 R 1000 -253 R
999 -170 R D L2 13477 10671 M 500 -648 R 500 -348 R 601 -255 R 400 -118 R
1000 -200 R 1000 -127 R 999 -88 R D L0 0.000 0.098 0.890 setrgbcolor
13477 10112 M 500 -623 R 500 -277 R 601 -179 R 400 -71 R 1000 -109 R
1000 -71 R 999 -36 R D 14112 12242 M 0 -245 R D 14206 12160 M 0 -163 R D
14206 12114 M 35 35 R 23 11 R 35 0 R 24 -11 R 11 -35 R 0 -117 R D
14486 12242 M -93 -245 R D 14486 12242 M 94 -245 R D 14638 12137 M 211 0 R D
14638 12067 M 211 0 R D 14942 12242 M 0 -245 R D 15036 12160 M 0 -163 R D
15036 12114 M 35 35 R 23 11 R 35 0 R 23 -11 R 12 -35 R 0 -117 R D
15258 12289 M 0 -386 R D 15269 12289 M 0 -386 R D 15258 12289 M 81 0 R D
15258 11903 M 81 0 R D 15421 12242 M 0 -245 R D 15421 12242 M 94 -245 R
93 245 R 0 -245 R D 15783 12289 M -23 -24 R -23 -35 R -24 -46 R -11 -59 R
0 -47 R 11 -58 R 24 -58 R 23 -35 R 23 -24 R D 15924 12242 M -36 -12 R
-23 -35 R -12 -58 R 0 -35 R 12 -59 R 23 -35 R 36 -11 R 23 0 R 35 11 R
23 35 R 12 59 R 0 35 R -12 58 R -23 35 R -35 12 R -23 0 R D 16087 12289 M
23 -24 R 24 -35 R 23 -46 R 12 -59 R 0 -47 R -12 -58 R -23 -58 R -24 -35 R
-23 -24 R D 16449 12289 M -210 -386 R D 16519 12160 M 0 -163 R D
16519 12114 M 35 35 R 24 11 R 35 0 R 23 -11 R 12 -35 R 0 -117 R D
16648 12114 M 35 35 R 23 11 R 35 0 R 24 -11 R 11 -35 R 0 -117 R D
16952 12289 M -24 -24 R -23 -35 R -23 -46 R -12 -59 R 0 -47 R 12 -58 R
23 -58 R 23 -35 R 24 -24 R D 17045 12242 M 0 -199 R 12 -35 R 23 -11 R 24 0 R
D 17010 12160 M 82 0 R D 17162 12289 M 23 -24 R 24 -35 R 23 -46 R 12 -59 R
0 -47 R -12 -58 R -23 -58 R -24 -35 R -23 -24 R D 17396 12289 M 0 -386 R D
17407 12289 M 0 -386 R D 17326 12289 M 81 0 R D 17326 11903 M 81 0 R D
50 setlinewidth 13477 10808 M 500 -903 R 500 -422 R 601 -279 R 400 -115 R
1000 -174 R 1000 -91 R 999 -46 R D 20 setlinewidth 14112 12242 M 0 -245 R D
14206 12160 M 0 -163 R D 14206 12114 M 35 35 R 23 11 R 35 0 R 24 -11 R
11 -35 R 0 -117 R D 14486 12242 M -93 -245 R D 14486 12242 M 94 -245 R D
14638 12137 M 211 0 R D 14638 12067 M 211 0 R D 14942 12242 M 0 -245 R D
15036 12160 M 0 -163 R D 15036 12114 M 35 35 R 23 11 R 35 0 R 23 -11 R
12 -35 R 0 -117 R D 15258 12289 M 0 -386 R D 15269 12289 M 0 -386 R D
15258 12289 M 81 0 R D 15258 11903 M 81 0 R D 15421 12242 M 0 -245 R D
15421 12242 M 94 -245 R 93 245 R 0 -245 R D 15783 12289 M -23 -24 R
-23 -35 R -24 -46 R -11 -59 R 0 -47 R 11 -58 R 24 -58 R 23 -35 R 23 -24 R D
15924 12242 M -36 -12 R -23 -35 R -12 -58 R 0 -35 R 12 -59 R 23 -35 R
36 -11 R 23 0 R 35 11 R 23 35 R 12 59 R 0 35 R -12 58 R -23 35 R -35 12 R
-23 0 R D 16087 12289 M 23 -24 R 24 -35 R 23 -46 R 12 -59 R 0 -47 R
-12 -58 R -23 -58 R -24 -35 R -23 -24 R D 16449 12289 M -210 -386 R D
16519 12160 M 0 -163 R D 16519 12114 M 35 35 R 24 11 R 35 0 R 23 -11 R
12 -35 R 0 -117 R D 16648 12114 M 35 35 R 23 11 R 35 0 R 24 -11 R 11 -35 R
0 -117 R D 16952 12289 M -24 -24 R -23 -35 R -23 -46 R -12 -59 R 0 -47 R
12 -58 R 23 -58 R 23 -35 R 24 -24 R D 17045 12242 M 0 -199 R 12 -35 R
23 -11 R 24 0 R D 17010 12160 M 82 0 R D 17162 12289 M 23 -24 R 24 -35 R
23 -46 R 12 -59 R 0 -47 R -12 -58 R -23 -58 R -24 -35 R -23 -24 R D
17396 12289 M 0 -386 R D 17407 12289 M 0 -386 R D 17326 12289 M 81 0 R D
17326 11903 M 81 0 R D 80 setlinewidth 13477 11820 M 500 -1208 R 500 -587 R
601 -405 R 400 -176 R 1000 -272 R 1000 -157 R 999 -89 R D 20 setlinewidth
14112 12242 M 0 -245 R D 14206 12160 M 0 -163 R D 14206 12114 M 35 35 R
23 11 R 35 0 R 24 -11 R 11 -35 R 0 -117 R D 14486 12242 M -93 -245 R D
14486 12242 M 94 -245 R D 14638 12137 M 211 0 R D 14638 12067 M 211 0 R D
14942 12242 M 0 -245 R D 15036 12160 M 0 -163 R D 15036 12114 M 35 35 R
23 11 R 35 0 R 23 -11 R 12 -35 R 0 -117 R D 15258 12289 M 0 -386 R D
15269 12289 M 0 -386 R D 15258 12289 M 81 0 R D 15258 11903 M 81 0 R D
15421 12242 M 0 -245 R D 15421 12242 M 94 -245 R 93 245 R 0 -245 R D
15783 12289 M -23 -24 R -23 -35 R -24 -46 R -11 -59 R 0 -47 R 11 -58 R
24 -58 R 23 -35 R 23 -24 R D 15924 12242 M -36 -12 R -23 -35 R -12 -58 R
0 -35 R 12 -59 R 23 -35 R 36 -11 R 23 0 R 35 11 R 23 35 R 12 59 R 0 35 R
-12 58 R -23 35 R -35 12 R -23 0 R D 16087 12289 M 23 -24 R 24 -35 R
23 -46 R 12 -59 R 0 -47 R -12 -58 R -23 -58 R -24 -35 R -23 -24 R D
16449 12289 M -210 -386 R D 16519 12160 M 0 -163 R D 16519 12114 M 35 35 R
24 11 R 35 0 R 23 -11 R 12 -35 R 0 -117 R D 16648 12114 M 35 35 R 23 11 R
35 0 R 24 -11 R 11 -35 R 0 -117 R D 16952 12289 M -24 -24 R -23 -35 R
-23 -46 R -12 -59 R 0 -47 R 12 -58 R 23 -58 R 23 -35 R 24 -24 R D
17045 12242 M 0 -199 R 12 -35 R 23 -11 R 24 0 R D 17010 12160 M 82 0 R D
17162 12289 M 23 -24 R 24 -35 R 23 -46 R 12 -59 R 0 -47 R -12 -58 R
-23 -58 R -24 -35 R -23 -24 R D 17396 12289 M 0 -386 R D 17407 12289 M
0 -386 R D 17326 12289 M 81 0 R D 17326 11903 M 81 0 R D
0.000 0.000 0.000 setrgbcolor 17088 13035 M -35 18 R -53 0 R -35 -18 R
-35 -35 R -17 -52 R 0 -53 R 17 -52 R 18 -18 R 35 -18 R 53 0 R 35 18 R D
16913 12930 M 140 0 R D 17211 13018 M 315 0 R D 17211 12913 M 315 0 R D
17702 13105 M 35 18 R 52 53 R 0 -369 R D 18035 12843 M -18 -18 R 18 -18 R
17 18 R -17 18 R D 18280 13176 M -53 -18 R -35 -53 R -17 -87 R 0 -53 R
17 -87 R 35 -53 R 53 -18 R 35 0 R 53 18 R 35 53 R 17 87 R 0 53 R -17 87 R
-35 53 R -53 18 R -35 0 R D 14112 11972 M 0 -246 R D 14112 11855 M 24 23 R
23 12 R 35 0 R 24 -12 R 23 -23 R 12 -35 R 0 -23 R -12 -36 R -23 -23 R
-24 -12 R -35 0 R -23 12 R -24 23 R D 14451 11855 M -11 23 R -35 12 R
-35 0 R -36 -12 R -11 -23 R 11 -23 R 24 -12 R 58 -12 R 24 -11 R 11 -24 R
0 -12 R -11 -23 R -35 -12 R -35 0 R -36 12 R -11 23 R D 14556 11925 M
24 12 R 35 35 R 0 -246 R D 14767 11890 M 0 -164 R D 14767 11820 M 11 35 R
24 23 R 23 12 R 35 0 R D 15036 11855 M -12 23 R -35 12 R -35 0 R -35 -12 R
-12 -23 R 12 -23 R 23 -12 R 58 -12 R 24 -11 R 12 -24 R 0 -12 R -12 -23 R
-35 -12 R -35 0 R -35 12 R -12 23 R D 8615 525 M 0 -245 R D 8615 455 M
53 53 R 35 17 R 53 0 R 35 -17 R 17 -53 R 0 -175 R D 8808 455 M 53 53 R
35 17 R 52 0 R 35 -17 R 18 -53 R 0 -175 R D 9264 718 M -35 -35 R -35 -52 R
-35 -71 R -18 -87 R 0 -70 R 18 -88 R 35 -88 R 35 -52 R 35 -35 R D 9474 648 M
-52 -17 R -36 -53 R -17 -88 R 0 -52 R 17 -88 R 36 -52 R 52 -18 R 35 0 R
53 18 R 35 52 R 17 88 R 0 52 R -17 88 R -35 53 R -53 17 R -35 0 R D
9719 718 M 36 -35 R 35 -52 R 35 -71 R 17 -87 R 0 -70 R -17 -88 R -35 -88 R
-35 -52 R -36 -35 R D 10263 718 M -316 -578 R D 10368 648 M 0 -368 R D
10368 648 M 140 -368 R 140 368 R 0 -368 R D 10911 718 M -35 -35 R -35 -52 R
-35 -71 R -17 -87 R 0 -70 R 17 -88 R 35 -88 R 35 -52 R 35 -35 R D
11122 648 M -53 -17 R -35 -53 R -18 -88 R 0 -52 R 18 -88 R 35 -52 R 53 -18 R
35 0 R 52 18 R 35 52 R 18 88 R 0 52 R -18 88 R -35 53 R -52 17 R -35 0 R D
11367 718 M 35 -35 R 35 -52 R 35 -71 R 18 -87 R 0 -70 R -18 -88 R -35 -88 R
-35 -52 R -35 -35 R D 515 5133 M 245 0 R D 585 5133 M -53 52 R -17 35 R
0 53 R 17 35 R 53 18 R 175 0 R D 585 5326 M -53 52 R -17 35 R 0 53 R 17 35 R
53 17 R 175 0 R D 620 5641 M 0 210 R -35 0 R -35 -17 R -18 -18 R -17 -35 R
0 -52 R 17 -35 R 35 -35 R 53 -18 R 35 0 R 52 18 R 35 35 R 18 35 R 0 52 R
-18 35 R -35 35 R D 515 5974 M 245 0 R D 620 5974 M -53 18 R -35 35 R
-17 35 R 0 52 R D 515 6395 M 298 0 R 52 -18 R 18 -17 R 17 -35 R 0 -53 R
-17 -35 R D 567 6395 M -35 -35 R -17 -35 R 0 -53 R 17 -35 R 35 -35 R
53 -18 R 35 0 R 52 18 R 35 35 R 18 35 R 0 53 R -18 35 R -35 35 R D
620 6517 M 0 211 R -35 0 R -35 -18 R -18 -17 R -17 -35 R 0 -53 R 17 -35 R
35 -35 R 53 -18 R 35 0 R 52 18 R 35 35 R 18 35 R 0 53 R -18 35 R -35 35 R D
515 6850 M 245 0 R D 620 6850 M -53 18 R -35 35 R -17 35 R 0 53 R D
392 7376 M 298 0 R 52 18 R 18 35 R 0 35 R D 515 7324 M 0 122 R D 392 7551 M
17 18 R -17 17 R -18 -17 R 18 -18 R D 515 7569 M 245 0 R D 515 7709 M
245 0 R D 585 7709 M -53 53 R -17 35 R 0 52 R 17 35 R 53 18 R 175 0 R D
585 7902 M -53 53 R -17 35 R 0 52 R 17 35 R 53 18 R 175 0 R D 620 8217 M
0 211 R -35 0 R -35 -18 R -18 -17 R -17 -35 R 0 -53 R 17 -35 R 35 -35 R
53 -18 R 35 0 R 52 18 R 35 35 R 18 35 R 0 53 R -18 35 R -35 35 R D
322 8831 M 578 -316 R D 480 9181 M -35 -17 R -36 -35 R -17 -35 R 0 -70 R
17 -35 R 36 -35 R 35 -18 R 52 -17 R 88 0 R 52 17 R 35 18 R 35 35 R 18 35 R
0 70 R -18 35 R -35 35 R -35 17 R -52 0 R 0 -87 R D 515 9269 M 245 105 R
-245 105 R D 760 9374 M 88 -35 R 35 -35 R 17 -35 R 0 -18 R D 515 9585 M
245 0 R D 620 9585 M -53 17 R -35 35 R -17 35 R 0 53 R D 2144 2052 M
5001 0 R D 2144 2052 M 0 212 R D 1907 1840 M -26 -9 R -17 -26 R -9 -44 R
0 -26 R 9 -44 R 17 -26 R 26 -9 R 18 0 R 26 9 R 18 26 R 9 44 R 0 26 R -9 44 R
-18 26 R -26 9 R -18 0 R D 2048 1674 M -9 -9 R 9 -9 R 8 9 R -8 9 R D
2170 1840 M -26 -9 R -18 -26 R -8 -44 R 0 -26 R 8 -44 R 18 -26 R 26 -9 R
18 0 R 26 9 R 18 26 R 8 44 R 0 26 R -8 44 R -18 26 R -26 9 R -18 0 R D
2398 1840 M -87 0 R -9 -79 R 9 9 R 26 9 R 26 0 R 26 -9 R 18 -18 R 9 -26 R
0 -17 R -9 -27 R -18 -17 R -26 -9 R -26 0 R -26 9 R -9 9 R -9 17 R D
3144 2052 M 0 212 R D 2908 1840 M -27 -9 R -17 -26 R -9 -44 R 0 -26 R
9 -44 R 17 -26 R 27 -9 R 17 0 R 26 9 R 18 26 R 9 44 R 0 26 R -9 44 R
-18 26 R -26 9 R -17 0 R D 3048 1674 M -9 -9 R 9 -9 R 9 9 R -9 9 R D
3144 1805 M 18 9 R 26 26 R 0 -184 R D 3346 1840 M -27 -9 R -17 -26 R
-9 -44 R 0 -26 R 9 -44 R 17 -26 R 27 -9 R 17 0 R 27 9 R 17 26 R 9 44 R
0 26 R -9 44 R -17 26 R -27 9 R -17 0 R D 4144 2052 M 0 212 R D 3908 1840 M
-27 -9 R -17 -26 R -9 -44 R 0 -26 R 9 -44 R 17 -26 R 27 -9 R 17 0 R 26 9 R
18 26 R 9 44 R 0 26 R -9 44 R -18 26 R -26 9 R -17 0 R D 4048 1674 M -9 -9 R
9 -9 R 9 9 R -9 9 R D 4144 1805 M 18 9 R 26 26 R 0 -184 R D 4398 1840 M
-87 0 R -9 -79 R 9 9 R 26 9 R 26 0 R 27 -9 R 17 -18 R 9 -26 R 0 -17 R
-9 -27 R -17 -17 R -27 -9 R -26 0 R -26 9 R -9 9 R -9 17 R D 5144 2052 M
0 212 R D 4908 1840 M -26 -9 R -18 -26 R -9 -44 R 0 -26 R 9 -44 R 18 -26 R
26 -9 R 17 0 R 27 9 R 17 26 R 9 44 R 0 26 R -9 44 R -17 26 R -27 9 R -17 0 R
D 5048 1674 M -9 -9 R 9 -9 R 9 9 R -9 9 R D 5127 1796 M 0 9 R 9 18 R 8 8 R
18 9 R 35 0 R 18 -9 R 8 -8 R 9 -18 R 0 -18 R -9 -17 R -17 -26 R -88 -88 R
123 0 R D 5346 1840 M -26 -9 R -18 -26 R -9 -44 R 0 -26 R 9 -44 R 18 -26 R
26 -9 R 17 0 R 27 9 R 17 26 R 9 44 R 0 26 R -9 44 R -17 26 R -27 9 R -17 0 R
D 6145 2052 M 0 212 R D 5908 1840 M -26 -9 R -18 -26 R -9 -44 R 0 -26 R
9 -44 R 18 -26 R 26 -9 R 17 0 R 27 9 R 17 26 R 9 44 R 0 26 R -9 44 R
-17 26 R -27 9 R -17 0 R D 6048 1674 M -9 -9 R 9 -9 R 9 9 R -9 9 R D
6127 1796 M 0 9 R 9 18 R 9 8 R 17 9 R 35 0 R 18 -9 R 8 -8 R 9 -18 R 0 -18 R
-9 -17 R -17 -26 R -88 -88 R 123 0 R D 6399 1840 M -88 0 R -9 -79 R 9 9 R
26 9 R 27 0 R 26 -9 R 17 -18 R 9 -26 R 0 -17 R -9 -27 R -17 -17 R -26 -9 R
-27 0 R -26 9 R -9 9 R -8 17 R D 7145 2052 M 0 212 R D 6908 1840 M -26 -9 R
-18 -26 R -9 -44 R 0 -26 R 9 -44 R 18 -26 R 26 -9 R 18 0 R 26 9 R 17 26 R
9 44 R 0 26 R -9 44 R -17 26 R -26 9 R -18 0 R D 7048 1674 M -8 -9 R 8 -9 R
9 9 R -9 9 R D 7136 1840 M 96 0 R -52 -70 R 26 0 R 18 -9 R 8 -9 R 9 -26 R
0 -17 R -9 -27 R -17 -17 R -27 -9 R -26 0 R -26 9 R -9 9 R -9 17 R D
7346 1840 M -26 -9 R -18 -26 R -8 -44 R 0 -26 R 8 -44 R 18 -26 R 26 -9 R
18 0 R 26 9 R 18 26 R 8 44 R 0 26 R -8 44 R -18 26 R -26 9 R -18 0 R D
2344 2052 M 0 106 R D 2544 2052 M 0 106 R D 2744 2052 M 0 106 R D
2944 2052 M 0 106 R D 3344 2052 M 0 106 R D 3544 2052 M 0 106 R D
3744 2052 M 0 106 R D 3944 2052 M 0 106 R D 4344 2052 M 0 106 R D
4544 2052 M 0 106 R D 4744 2052 M 0 106 R D 4944 2052 M 0 106 R D
5344 2052 M 0 106 R D 5544 2052 M 0 106 R D 5744 2052 M 0 106 R D
5945 2052 M 0 106 R D 6345 2052 M 0 106 R D 6545 2052 M 0 106 R D
6745 2052 M 0 106 R D 6945 2052 M 0 106 R D 2144 7348 M 5001 0 R D
2144 7348 M 0 -212 R D 3144 7348 M 0 -212 R D 4144 7348 M 0 -212 R D
5144 7348 M 0 -212 R D 6145 7348 M 0 -212 R D 7145 7348 M 0 -212 R D
2344 7348 M 0 -106 R D 2544 7348 M 0 -106 R D 2744 7348 M 0 -106 R D
2944 7348 M 0 -106 R D 3344 7348 M 0 -106 R D 3544 7348 M 0 -106 R D
3744 7348 M 0 -106 R D 3944 7348 M 0 -106 R D 4344 7348 M 0 -106 R D
4544 7348 M 0 -106 R D 4744 7348 M 0 -106 R D 4944 7348 M 0 -106 R D
5344 7348 M 0 -106 R D 5544 7348 M 0 -106 R D 5744 7348 M 0 -106 R D
5945 7348 M 0 -106 R D 6345 7348 M 0 -106 R D 6545 7348 M 0 -106 R D
6745 7348 M 0 -106 R D 6945 7348 M 0 -106 R D 2144 2052 M 0 5296 R D
2144 3252 M 200 0 R D 1912 3287 M 0 8 R 9 18 R 8 9 R 18 8 R 35 0 R 17 -8 R
9 -9 R 9 -18 R 0 -17 R -9 -18 R -17 -26 R -88 -88 R 123 0 R D 2144 4561 M
200 0 R D 1991 4640 M -88 -123 R 131 0 R D 1991 4640 M 0 -184 R D
2144 5870 M 200 0 R D 2017 5923 M -9 17 R -26 9 R -18 0 R -26 -9 R -17 -26 R
-9 -44 R 0 -44 R 9 -35 R 17 -17 R 26 -9 R 9 0 R 26 9 R 18 17 R 9 26 R 0 9 R
-9 26 R -18 18 R -26 9 R -9 0 R -26 -9 R -17 -18 R -9 -26 R D 2144 7180 M
200 0 R D 1947 7258 M -26 -9 R -9 -17 R 0 -18 R 9 -17 R 17 -9 R 35 -9 R
26 -9 R 18 -17 R 9 -18 R 0 -26 R -9 -17 R -9 -9 R -26 -9 R -35 0 R -26 9 R
-9 9 R -9 17 R 0 26 R 9 18 R 17 17 R 27 9 R 35 9 R 17 9 R 9 17 R 0 18 R
-9 17 R -26 9 R -35 0 R D 2144 2270 M 100 0 R D 2144 2597 M 100 0 R D
2144 2925 M 100 0 R D 2144 3579 M 100 0 R D 2144 3907 M 100 0 R D
2144 4234 M 100 0 R D 2144 4888 M 100 0 R D 2144 5216 M 100 0 R D
2144 5543 M 100 0 R D 2144 6198 M 100 0 R D 2144 6525 M 100 0 R D
2144 6852 M 100 0 R D 7145 2052 M 0 5296 R D 7145 3252 M -200 0 R D
7145 4561 M -200 0 R D 7145 5870 M -200 0 R D 7145 7180 M -200 0 R D
7145 2270 M -100 0 R D 7145 2597 M -100 0 R D 7145 2925 M -100 0 R D
7145 3579 M -100 0 R D 7145 3907 M -100 0 R D 7145 4234 M -100 0 R D
7145 4888 M -100 0 R D 7145 5216 M -100 0 R D 7145 5543 M -100 0 R D
7145 6198 M -100 0 R D 7145 6525 M -100 0 R D 7145 6852 M -100 0 R D L1
2144 7348 M 500 -1757 R 500 -861 R 600 -590 R 400 -260 R 1000 -422 R
1001 -253 R 999 -170 R D L2 2641 7348 M 3 -10 R 500 -902 R 600 -661 R
400 -306 R 1000 -520 R 1001 -329 R 999 -228 R D L0
0.000 0.098 0.890 setrgbcolor 2144 6073 M 500 -1665 R 500 -547 R 600 -444 R
400 -126 R 1000 -195 R 1001 -111 R 999 -67 R D 50 setlinewidth 2680 7348 M
464 -1948 R 600 -1168 R 400 -434 R 1000 -498 R 1001 -177 R 999 -99 R D
80 setlinewidth 4446 7348 M 698 -1183 R 1001 -1087 R 999 -656 R D
20 setlinewidth 0.000 0.000 0.000 setrgbcolor 5755 7035 M -35 18 R -53 0 R
-35 -18 R -35 -35 R -17 -52 R 0 -53 R 17 -52 R 18 -18 R 35 -18 R 52 0 R
35 18 R D 5580 6930 M 140 0 R D 5877 7018 M 316 0 R D 5877 6913 M 316 0 R D
6421 7176 M -53 -18 R -35 -53 R -17 -87 R 0 -53 R 17 -87 R 35 -53 R 53 -18 R
35 0 R 52 18 R 35 53 R 18 87 R 0 53 R -18 87 R -35 53 R -52 18 R -35 0 R D
6701 6843 M -17 -18 R 17 -18 R 18 18 R -18 18 R D 6876 7176 M 193 0 R
-105 -141 R 53 0 R 35 -17 R 17 -18 R 18 -52 R 0 -35 R -18 -53 R -35 -35 R
-52 -18 R -53 0 R -53 18 R -17 18 R -18 35 R D 7811 2052 M 5000 0 R D
7811 2052 M 0 212 R D 7574 1840 M -26 -9 R -18 -26 R -9 -44 R 0 -26 R
9 -44 R 18 -26 R 26 -9 R 18 0 R 26 9 R 17 26 R 9 44 R 0 26 R -9 44 R
-17 26 R -26 9 R -18 0 R D 7714 1674 M -8 -9 R 8 -9 R 9 9 R -9 9 R D
7837 1840 M -26 -9 R -18 -26 R -9 -44 R 0 -26 R 9 -44 R 18 -26 R 26 -9 R
17 0 R 27 9 R 17 26 R 9 44 R 0 26 R -9 44 R -17 26 R -27 9 R -17 0 R D
8065 1840 M -88 0 R -9 -79 R 9 9 R 26 9 R 27 0 R 26 -9 R 18 -18 R 8 -26 R
0 -17 R -8 -27 R -18 -17 R -26 -9 R -27 0 R -26 9 R -9 9 R -8 17 R D
8811 2052 M 0 212 R D 8574 1840 M -26 -9 R -18 -26 R -8 -44 R 0 -26 R
8 -44 R 18 -26 R 26 -9 R 18 0 R 26 9 R 18 26 R 8 44 R 0 26 R -8 44 R
-18 26 R -26 9 R -18 0 R D 8714 1674 M -8 -9 R 8 -9 R 9 9 R -9 9 R D
8811 1805 M 17 9 R 27 26 R 0 -184 R D 9012 1840 M -26 -9 R -17 -26 R
-9 -44 R 0 -26 R 9 -44 R 17 -26 R 26 -9 R 18 0 R 26 9 R 18 26 R 8 44 R
0 26 R -8 44 R -18 26 R -26 9 R -18 0 R D 9811 2052 M 0 212 R D 9574 1840 M
-26 -9 R -17 -26 R -9 -44 R 0 -26 R 9 -44 R 17 -26 R 26 -9 R 18 0 R 26 9 R
18 26 R 8 44 R 0 26 R -8 44 R -18 26 R -26 9 R -18 0 R D 9715 1674 M -9 -9 R
9 -9 R 8 9 R -8 9 R D 9811 1805 M 17 9 R 27 26 R 0 -184 R D 10065 1840 M
-88 0 R -8 -79 R 8 9 R 27 9 R 26 0 R 26 -9 R 18 -18 R 9 -26 R 0 -17 R
-9 -27 R -18 -17 R -26 -9 R -26 0 R -27 9 R -8 9 R -9 17 R D 10811 2052 M
0 212 R D 10574 1840 M -26 -9 R -17 -26 R -9 -44 R 0 -26 R 9 -44 R 17 -26 R
26 -9 R 18 0 R 26 9 R 18 26 R 9 44 R 0 26 R -9 44 R -18 26 R -26 9 R -18 0 R
D 10715 1674 M -9 -9 R 9 -9 R 8 9 R -8 9 R D 10794 1796 M 0 9 R 8 18 R 9 8 R
18 9 R 35 0 R 17 -9 R 9 -8 R 9 -18 R 0 -18 R -9 -17 R -18 -26 R -87 -88 R
122 0 R D 11013 1840 M -27 -9 R -17 -26 R -9 -44 R 0 -26 R 9 -44 R 17 -26 R
27 -9 R 17 0 R 26 9 R 18 26 R 9 44 R 0 26 R -9 44 R -18 26 R -26 9 R -17 0 R
D 11811 2052 M 0 212 R D 11575 1840 M -27 -9 R -17 -26 R -9 -44 R 0 -26 R
9 -44 R 17 -26 R 27 -9 R 17 0 R 26 9 R 18 26 R 9 44 R 0 26 R -9 44 R
-18 26 R -26 9 R -17 0 R D 11715 1674 M -9 -9 R 9 -9 R 9 9 R -9 9 R D
11794 1796 M 0 9 R 8 18 R 9 8 R 18 9 R 35 0 R 17 -9 R 9 -8 R 9 -18 R 0 -18 R
-9 -17 R -17 -26 R -88 -88 R 123 0 R D 12065 1840 M -87 0 R -9 -79 R 9 9 R
26 9 R 26 0 R 27 -9 R 17 -18 R 9 -26 R 0 -17 R -9 -27 R -17 -17 R -27 -9 R
-26 0 R -26 9 R -9 9 R -9 17 R D 12811 2052 M 0 212 R D 12575 1840 M
-27 -9 R -17 -26 R -9 -44 R 0 -26 R 9 -44 R 17 -26 R 27 -9 R 17 0 R 27 9 R
17 26 R 9 44 R 0 26 R -9 44 R -17 26 R -27 9 R -17 0 R D 12715 1674 M
-9 -9 R 9 -9 R 9 9 R -9 9 R D 12803 1840 M 96 0 R -53 -70 R 27 0 R 17 -9 R
9 -9 R 9 -26 R 0 -17 R -9 -27 R -18 -17 R -26 -9 R -26 0 R -26 9 R -9 9 R
-9 17 R D 13013 1840 M -26 -9 R -18 -26 R -9 -44 R 0 -26 R 9 -44 R 18 -26 R
26 -9 R 17 0 R 27 9 R 17 26 R 9 44 R 0 26 R -9 44 R -17 26 R -27 9 R -17 0 R
D 8011 2052 M 0 106 R D 8211 2052 M 0 106 R D 8411 2052 M 0 106 R D
8611 2052 M 0 106 R D 9011 2052 M 0 106 R D 9211 2052 M 0 106 R D
9411 2052 M 0 106 R D 9611 2052 M 0 106 R D 10011 2052 M 0 106 R D
10211 2052 M 0 106 R D 10411 2052 M 0 106 R D 10611 2052 M 0 106 R D
11011 2052 M 0 106 R D 11211 2052 M 0 106 R D 11411 2052 M 0 106 R D
11611 2052 M 0 106 R D 12011 2052 M 0 106 R D 12211 2052 M 0 106 R D
12411 2052 M 0 106 R D 12611 2052 M 0 106 R D 7811 7348 M 5000 0 R D
7811 7348 M 0 -212 R D 8811 7348 M 0 -212 R D 9811 7348 M 0 -212 R D
10811 7348 M 0 -212 R D 11811 7348 M 0 -212 R D 12811 7348 M 0 -212 R D
8011 7348 M 0 -106 R D 8211 7348 M 0 -106 R D 8411 7348 M 0 -106 R D
8611 7348 M 0 -106 R D 9011 7348 M 0 -106 R D 9211 7348 M 0 -106 R D
9411 7348 M 0 -106 R D 9611 7348 M 0 -106 R D 10011 7348 M 0 -106 R D
10211 7348 M 0 -106 R D 10411 7348 M 0 -106 R D 10611 7348 M 0 -106 R D
11011 7348 M 0 -106 R D 11211 7348 M 0 -106 R D 11411 7348 M 0 -106 R D
11611 7348 M 0 -106 R D 12011 7348 M 0 -106 R D 12211 7348 M 0 -106 R D
12411 7348 M 0 -106 R D 12611 7348 M 0 -106 R D 7811 2052 M 0 5296 R D
7811 2838 M 200 0 R D 7578 2873 M 0 8 R 9 18 R 9 9 R 17 8 R 36 0 R 17 -8 R
9 -9 R 9 -18 R 0 -17 R -9 -18 R -18 -26 R -87 -88 R 122 0 R D 7811 3733 M
200 0 R D 7657 3812 M -87 -123 R 131 0 R D 7657 3812 M 0 -184 R D
7811 4629 M 200 0 R D 7684 4681 M -9 17 R -26 9 R -18 0 R -26 -9 R -18 -26 R
-9 -44 R 0 -44 R 9 -35 R 18 -17 R 26 -9 R 9 0 R 26 9 R 18 17 R 8 27 R 0 8 R
-8 27 R -18 17 R -26 9 R -9 0 R -26 -9 R -18 -17 R -9 -27 R D 7811 5524 M
200 0 R D 7613 5602 M -26 -8 R -9 -18 R 0 -17 R 9 -18 R 18 -9 R 35 -8 R
26 -9 R 18 -18 R 8 -17 R 0 -27 R -8 -17 R -9 -9 R -26 -9 R -36 0 R -26 9 R
-9 9 R -8 17 R 0 27 R 8 17 R 18 18 R 26 9 R 35 8 R 18 9 R 9 18 R 0 17 R
-9 18 R -26 8 R -36 0 R D 7811 6419 M 200 0 R D 7421 6463 M 17 8 R 27 27 R
0 -184 R D 7622 6498 M -26 -9 R -18 -26 R -8 -44 R 0 -26 R 8 -44 R 18 -27 R
26 -8 R 18 0 R 26 8 R 18 27 R 8 44 R 0 26 R -8 44 R -18 26 R -26 9 R -18 0 R
D 7811 7315 M 200 0 R D 7421 7312 M 17 9 R 27 26 R 0 -184 R D 7578 7303 M
0 9 R 9 18 R 9 8 R 17 9 R 36 0 R 17 -9 R 9 -8 R 9 -18 R 0 -17 R -9 -18 R
-18 -26 R -87 -88 R 122 0 R D 7811 2167 M 100 0 R D 7811 2390 M 100 0 R D
7811 2614 M 100 0 R D 7811 3062 M 100 0 R D 7811 3286 M 100 0 R D
7811 3510 M 100 0 R D 7811 3957 M 100 0 R D 7811 4181 M 100 0 R D
7811 4405 M 100 0 R D 7811 4853 M 100 0 R D 7811 5076 M 100 0 R D
7811 5300 M 100 0 R D 7811 5748 M 100 0 R D 7811 5972 M 100 0 R D
7811 6195 M 100 0 R D 7811 6643 M 100 0 R D 7811 6867 M 100 0 R D
7811 7091 M 100 0 R D 12811 2052 M 0 5296 R D 12811 2838 M -200 0 R D
12811 3733 M -200 0 R D 12811 4629 M -200 0 R D 12811 5524 M -200 0 R D
12811 6419 M -200 0 R D 12811 7315 M -200 0 R D 12811 2167 M -100 0 R D
12811 2390 M -100 0 R D 12811 2614 M -100 0 R D 12811 3062 M -100 0 R D
12811 3286 M -100 0 R D 12811 3510 M -100 0 R D 12811 3957 M -100 0 R D
12811 4181 M -100 0 R D 12811 4405 M -100 0 R D 12811 4853 M -100 0 R D
12811 5076 M -100 0 R D 12811 5300 M -100 0 R D 12811 5748 M -100 0 R D
12811 5972 M -100 0 R D 12811 6195 M -100 0 R D 12811 6643 M -100 0 R D
12811 6867 M -100 0 R D 12811 7091 M -100 0 R D L1 7811 7348 M 500 -1757 R
500 -861 R 600 -590 R 400 -260 R 1000 -422 R 1000 -253 R 1000 -170 R D L2
7880 7348 M 431 -1144 R 500 -713 R 600 -521 R 400 -242 R 1000 -411 R
1000 -259 R 1000 -181 R D L0 0.000 0.098 0.890 setrgbcolor 7811 6020 M
500 -1632 R 500 -604 R 600 -333 R 400 -163 R 1000 -239 R 1000 -107 R
1000 -62 R D 50 setlinewidth 8278 7348 M 33 -283 R 500 -1827 R 600 -1041 R
400 -391 R 1000 -481 R 1000 -231 R 1000 -121 R D 80 setlinewidth 9695 7348 M
116 -316 R 1000 -1574 R 1000 -862 R 1000 -437 R D 20 setlinewidth
0.000 0.000 0.000 setrgbcolor 11421 7035 M -35 18 R -52 0 R -35 -18 R
-35 -35 R -18 -52 R 0 -53 R 18 -52 R 17 -18 R 35 -18 R 53 0 R 35 18 R D
11246 6930 M 140 0 R D 11544 7018 M 316 0 R D 11544 6913 M 316 0 R D
12087 7176 M -52 -18 R -35 -53 R -18 -87 R 0 -53 R 18 -87 R 35 -53 R
52 -18 R 35 0 R 53 18 R 35 53 R 18 87 R 0 53 R -18 87 R -35 53 R -53 18 R
-35 0 R D 12368 6843 M -18 -18 R 18 -18 R 17 18 R -17 18 R D 12718 7176 M
-175 0 R -17 -158 R 17 17 R 53 18 R 52 0 R 53 -18 R 35 -35 R 17 -52 R
0 -35 R -17 -53 R -35 -35 R -53 -18 R -52 0 R -53 18 R -17 18 R -18 35 R D
13477 2052 M 5001 0 R D 13477 2052 M 0 212 R D 13241 1840 M -27 -9 R
-17 -26 R -9 -44 R 0 -26 R 9 -44 R 17 -26 R 27 -9 R 17 0 R 27 9 R 17 26 R
9 44 R 0 26 R -9 44 R -17 26 R -27 9 R -17 0 R D 13381 1674 M -9 -9 R 9 -9 R
9 9 R -9 9 R D 13504 1840 M -27 -9 R -17 -26 R -9 -44 R 0 -26 R 9 -44 R
17 -26 R 27 -9 R 17 0 R 26 9 R 18 26 R 9 44 R 0 26 R -9 44 R -18 26 R
-26 9 R -17 0 R D 13731 1840 M -87 0 R -9 -79 R 9 9 R 26 9 R 26 0 R 27 -9 R
17 -18 R 9 -26 R 0 -17 R -9 -27 R -17 -17 R -27 -9 R -26 0 R -26 9 R -9 9 R
-9 17 R D 14477 2052 M 0 212 R D 14241 1840 M -26 -9 R -18 -26 R -9 -44 R
0 -26 R 9 -44 R 18 -26 R 26 -9 R 17 0 R 27 9 R 17 26 R 9 44 R 0 26 R -9 44 R
-17 26 R -27 9 R -17 0 R D 14381 1674 M -9 -9 R 9 -9 R 9 9 R -9 9 R D
14477 1805 M 18 9 R 26 26 R 0 -184 R D 14679 1840 M -26 -9 R -18 -26 R
-9 -44 R 0 -26 R 9 -44 R 18 -26 R 26 -9 R 18 0 R 26 9 R 17 26 R 9 44 R
0 26 R -9 44 R -17 26 R -26 9 R -18 0 R D 15478 2052 M 0 212 R D
15241 1840 M -26 -9 R -18 -26 R -9 -44 R 0 -26 R 9 -44 R 18 -26 R 26 -9 R
18 0 R 26 9 R 17 26 R 9 44 R 0 26 R -9 44 R -17 26 R -26 9 R -18 0 R D
15381 1674 M -9 -9 R 9 -9 R 9 9 R -9 9 R D 15478 1805 M 17 9 R 26 26 R
0 -184 R D 15732 1840 M -88 0 R -9 -79 R 9 9 R 26 9 R 27 0 R 26 -9 R
17 -18 R 9 -26 R 0 -17 R -9 -27 R -17 -17 R -26 -9 R -27 0 R -26 9 R -9 9 R
-8 17 R D 16478 2052 M 0 212 R D 16241 1840 M -26 -9 R -18 -26 R -8 -44 R
0 -26 R 8 -44 R 18 -26 R 26 -9 R 18 0 R 26 9 R 17 26 R 9 44 R 0 26 R -9 44 R
-17 26 R -26 9 R -18 0 R D 16381 1674 M -8 -9 R 8 -9 R 9 9 R -9 9 R D
16460 1796 M 0 9 R 9 18 R 9 8 R 17 9 R 35 0 R 18 -9 R 9 -8 R 8 -18 R 0 -18 R
-8 -17 R -18 -26 R -88 -88 R 123 0 R D 16679 1840 M -26 -9 R -18 -26 R
-8 -44 R 0 -26 R 8 -44 R 18 -26 R 26 -9 R 18 0 R 26 9 R 18 26 R 8 44 R
0 26 R -8 44 R -18 26 R -26 9 R -18 0 R D 17478 2052 M 0 212 R D
17241 1840 M -26 -9 R -18 -26 R -8 -44 R 0 -26 R 8 -44 R 18 -26 R 26 -9 R
18 0 R 26 9 R 18 26 R 8 44 R 0 26 R -8 44 R -18 26 R -26 9 R -18 0 R D
17381 1674 M -8 -9 R 8 -9 R 9 9 R -9 9 R D 17460 1796 M 0 9 R 9 18 R 9 8 R
17 9 R 35 0 R 18 -9 R 9 -8 R 8 -18 R 0 -18 R -8 -17 R -18 -26 R -87 -88 R
122 0 R D 17732 1840 M -88 0 R -8 -79 R 8 9 R 27 9 R 26 0 R 26 -9 R 18 -18 R
9 -26 R 0 -17 R -9 -27 R -18 -17 R -26 -9 R -26 0 R -27 9 R -8 9 R -9 17 R D
18478 2052 M 0 212 R D 18241 1840 M -26 -9 R -17 -26 R -9 -44 R 0 -26 R
9 -44 R 17 -26 R 26 -9 R 18 0 R 26 9 R 18 26 R 9 44 R 0 26 R -9 44 R
-18 26 R -26 9 R -18 0 R D 18382 1674 M -9 -9 R 9 -9 R 8 9 R -8 9 R D
18469 1840 M 97 0 R -53 -70 R 26 0 R 18 -9 R 9 -9 R 8 -26 R 0 -17 R -8 -27 R
-18 -17 R -26 -9 R -26 0 R -27 9 R -9 9 R -8 17 R D 18680 1840 M -27 -9 R
-17 -26 R -9 -44 R 0 -26 R 9 -44 R 17 -26 R 27 -9 R 17 0 R 26 9 R 18 26 R
9 44 R 0 26 R -9 44 R -18 26 R -26 9 R -17 0 R D 13677 2052 M 0 106 R D
13877 2052 M 0 106 R D 14077 2052 M 0 106 R D 14277 2052 M 0 106 R D
14677 2052 M 0 106 R D 14878 2052 M 0 106 R D 15078 2052 M 0 106 R D
15278 2052 M 0 106 R D 15678 2052 M 0 106 R D 15878 2052 M 0 106 R D
16078 2052 M 0 106 R D 16278 2052 M 0 106 R D 16678 2052 M 0 106 R D
16878 2052 M 0 106 R D 17078 2052 M 0 106 R D 17278 2052 M 0 106 R D
17678 2052 M 0 106 R D 17878 2052 M 0 106 R D 18078 2052 M 0 106 R D
18278 2052 M 0 106 R D 13477 7348 M 5001 0 R D 13477 7348 M 0 -212 R D
14477 7348 M 0 -212 R D 15478 7348 M 0 -212 R D 16478 7348 M 0 -212 R D
17478 7348 M 0 -212 R D 18478 7348 M 0 -212 R D 13677 7348 M 0 -106 R D
13877 7348 M 0 -106 R D 14077 7348 M 0 -106 R D 14277 7348 M 0 -106 R D
14677 7348 M 0 -106 R D 14878 7348 M 0 -106 R D 15078 7348 M 0 -106 R D
15278 7348 M 0 -106 R D 15678 7348 M 0 -106 R D 15878 7348 M 0 -106 R D
16078 7348 M 0 -106 R D 16278 7348 M 0 -106 R D 16678 7348 M 0 -106 R D
16878 7348 M 0 -106 R D 17078 7348 M 0 -106 R D 17278 7348 M 0 -106 R D
17678 7348 M 0 -106 R D 17878 7348 M 0 -106 R D 18078 7348 M 0 -106 R D
18278 7348 M 0 -106 R D 13477 2052 M 0 5296 R D 13477 2808 M 200 0 R D
13342 2887 M -88 0 R -9 -79 R 9 9 R 26 8 R 26 0 R 27 -8 R 17 -18 R 9 -26 R
0 -18 R -9 -26 R -17 -17 R -27 -9 R -26 0 R -26 9 R -9 8 R -9 18 R D
13477 3674 M 200 0 R D 13087 3717 M 18 9 R 26 26 R 0 -184 R D 13289 3752 M
-26 -8 R -18 -27 R -9 -43 R 0 -27 R 9 -44 R 18 -26 R 26 -9 R 17 0 R 27 9 R
17 26 R 9 44 R 0 27 R -9 43 R -17 27 R -27 8 R -17 0 R D 13477 4540 M
200 0 R D 13087 4583 M 18 9 R 26 26 R 0 -184 R D 13342 4618 M -88 0 R
-9 -79 R 9 9 R 26 9 R 26 0 R 27 -9 R 17 -18 R 9 -26 R 0 -17 R -9 -27 R
-17 -17 R -27 -9 R -26 0 R -26 9 R -9 9 R -9 17 R D 13477 5405 M 200 0 R D
13070 5440 M 0 9 R 9 17 R 8 9 R 18 9 R 35 0 R 17 -9 R 9 -9 R 9 -17 R 0 -18 R
-9 -17 R -17 -27 R -88 -87 R 123 0 R D 13289 5484 M -26 -9 R -18 -26 R
-9 -44 R 0 -26 R 9 -44 R 18 -27 R 26 -8 R 17 0 R 27 8 R 17 27 R 9 44 R
0 26 R -9 44 R -17 26 R -27 9 R -17 0 R D 13477 6271 M 200 0 R D
13070 6306 M 0 8 R 9 18 R 8 9 R 18 8 R 35 0 R 17 -8 R 9 -9 R 9 -18 R 0 -17 R
-9 -18 R -17 -26 R -88 -88 R 123 0 R D 13342 6349 M -88 0 R -9 -79 R 9 9 R
26 9 R 26 0 R 27 -9 R 17 -17 R 9 -27 R 0 -17 R -9 -26 R -17 -18 R -27 -9 R
-26 0 R -26 9 R -9 9 R -9 17 R D 13477 7137 M 200 0 R D 13079 7215 M 96 0 R
-53 -70 R 27 0 R 17 -9 R 9 -9 R 9 -26 R 0 -17 R -9 -27 R -18 -17 R -26 -9 R
-26 0 R -26 9 R -9 9 R -9 17 R D 13289 7215 M -26 -9 R -18 -26 R -9 -44 R
0 -26 R 9 -44 R 18 -26 R 26 -9 R 17 0 R 27 9 R 17 26 R 9 44 R 0 26 R -9 44 R
-17 26 R -27 9 R -17 0 R D 13477 2116 M 100 0 R D 13477 2289 M 100 0 R D
13477 2462 M 100 0 R D 13477 2635 M 100 0 R D 13477 2981 M 100 0 R D
13477 3155 M 100 0 R D 13477 3328 M 100 0 R D 13477 3501 M 100 0 R D
13477 3847 M 100 0 R D 13477 4020 M 100 0 R D 13477 4193 M 100 0 R D
13477 4367 M 100 0 R D 13477 4713 M 100 0 R D 13477 4886 M 100 0 R D
13477 5059 M 100 0 R D 13477 5232 M 100 0 R D 13477 5578 M 100 0 R D
13477 5752 M 100 0 R D 13477 5925 M 100 0 R D 13477 6098 M 100 0 R D
13477 6444 M 100 0 R D 13477 6617 M 100 0 R D 13477 6790 M 100 0 R D
13477 6963 M 100 0 R D 13477 7310 M 100 0 R D 18478 2052 M 0 5296 R D
18478 2808 M -200 0 R D 18478 3674 M -200 0 R D 18478 4540 M -200 0 R D
18478 5405 M -200 0 R D 18478 6271 M -200 0 R D 18478 7137 M -200 0 R D
18478 2116 M -100 0 R D 18478 2289 M -100 0 R D 18478 2462 M -100 0 R D
18478 2635 M -100 0 R D 18478 2981 M -100 0 R D 18478 3155 M -100 0 R D
18478 3328 M -100 0 R D 18478 3501 M -100 0 R D 18478 3847 M -100 0 R D
18478 4020 M -100 0 R D 18478 4193 M -100 0 R D 18478 4367 M -100 0 R D
18478 4713 M -100 0 R D 18478 4886 M -100 0 R D 18478 5059 M -100 0 R D
18478 5232 M -100 0 R D 18478 5578 M -100 0 R D 18478 5752 M -100 0 R D
18478 5925 M -100 0 R D 18478 6098 M -100 0 R D 18478 6444 M -100 0 R D
18478 6617 M -100 0 R D 18478 6790 M -100 0 R D 18478 6963 M -100 0 R D
18478 7310 M -100 0 R D L1 13477 7348 M 500 -1757 R 500 -861 R 601 -590 R
400 -260 R 1000 -422 R 1000 -253 R 999 -170 R D L2 13477 4671 M 500 -648 R
500 -348 R 601 -255 R 400 -118 R 1000 -200 R 1000 -127 R 999 -88 R D L0
0.000 0.098 0.890 setrgbcolor 13477 4119 M 500 -630 R 500 -277 R 601 -179 R
400 -71 R 1000 -109 R 1000 -71 R 999 -36 R D 14112 6242 M 0 -245 R D
14206 6160 M 0 -163 R D 14206 6114 M 35 35 R 23 11 R 35 0 R 24 -11 R
11 -35 R 0 -117 R D 14486 6242 M -93 -245 R D 14486 6242 M 94 -245 R D
14638 6137 M 211 0 R D 14638 6067 M 211 0 R D 14942 6242 M 0 -245 R D
15036 6160 M 0 -163 R D 15036 6114 M 35 35 R 23 11 R 35 0 R 23 -11 R
12 -35 R 0 -117 R D 15258 6289 M 0 -386 R D 15269 6289 M 0 -386 R D
15258 6289 M 81 0 R D 15258 5903 M 81 0 R D 15421 6242 M 0 -245 R D
15421 6242 M 94 -245 R 93 245 R 0 -245 R D 15783 6289 M -23 -24 R -23 -35 R
-24 -46 R -11 -59 R 0 -47 R 11 -58 R 24 -58 R 23 -35 R 23 -24 R D
15924 6242 M -36 -12 R -23 -35 R -12 -58 R 0 -35 R 12 -59 R 23 -35 R
36 -11 R 23 0 R 35 11 R 23 35 R 12 59 R 0 35 R -12 58 R -23 35 R -35 12 R
-23 0 R D 16087 6289 M 23 -24 R 24 -35 R 23 -46 R 12 -59 R 0 -47 R -12 -58 R
-23 -58 R -24 -35 R -23 -24 R D 16449 6289 M -210 -386 R D 16519 6160 M
0 -163 R D 16519 6114 M 35 35 R 24 11 R 35 0 R 23 -11 R 12 -35 R 0 -117 R D
16648 6114 M 35 35 R 23 11 R 35 0 R 24 -11 R 11 -35 R 0 -117 R D
16952 6289 M -24 -24 R -23 -35 R -23 -46 R -12 -59 R 0 -47 R 12 -58 R
23 -58 R 23 -35 R 24 -24 R D 17045 6242 M 0 -199 R 12 -35 R 23 -11 R 24 0 R
D 17010 6160 M 82 0 R D 17162 6289 M 23 -24 R 24 -35 R 23 -46 R 12 -59 R
0 -47 R -12 -58 R -23 -58 R -24 -35 R -23 -24 R D 17396 6289 M 0 -386 R D
17407 6289 M 0 -386 R D 17326 6289 M 81 0 R D 17326 5903 M 81 0 R D
50 setlinewidth 13477 5215 M 500 -1158 R 500 -516 R 601 -323 R 400 -125 R
1000 -178 R 1000 -91 R 999 -46 R D 20 setlinewidth 14112 6242 M 0 -245 R D
14206 6160 M 0 -163 R D 14206 6114 M 35 35 R 23 11 R 35 0 R 24 -11 R
11 -35 R 0 -117 R D 14486 6242 M -93 -245 R D 14486 6242 M 94 -245 R D
14638 6137 M 211 0 R D 14638 6067 M 211 0 R D 14942 6242 M 0 -245 R D
15036 6160 M 0 -163 R D 15036 6114 M 35 35 R 23 11 R 35 0 R 23 -11 R
12 -35 R 0 -117 R D 15258 6289 M 0 -386 R D 15269 6289 M 0 -386 R D
15258 6289 M 81 0 R D 15258 5903 M 81 0 R D 15421 6242 M 0 -245 R D
15421 6242 M 94 -245 R 93 245 R 0 -245 R D 15783 6289 M -23 -24 R -23 -35 R
-24 -46 R -11 -59 R 0 -47 R 11 -58 R 24 -58 R 23 -35 R 23 -24 R D
15924 6242 M -36 -12 R -23 -35 R -12 -58 R 0 -35 R 12 -59 R 23 -35 R
36 -11 R 23 0 R 35 11 R 23 35 R 12 59 R 0 35 R -12 58 R -23 35 R -35 12 R
-23 0 R D 16087 6289 M 23 -24 R 24 -35 R 23 -46 R 12 -59 R 0 -47 R -12 -58 R
-23 -58 R -24 -35 R -23 -24 R D 16449 6289 M -210 -386 R D 16519 6160 M
0 -163 R D 16519 6114 M 35 35 R 24 11 R 35 0 R 23 -11 R 12 -35 R 0 -117 R D
16648 6114 M 35 35 R 23 11 R 35 0 R 24 -11 R 11 -35 R 0 -117 R D
16952 6289 M -24 -24 R -23 -35 R -23 -46 R -12 -59 R 0 -47 R 12 -58 R
23 -58 R 23 -35 R 24 -24 R D 17045 6242 M 0 -199 R 12 -35 R 23 -11 R 24 0 R
D 17010 6160 M 82 0 R D 17162 6289 M 23 -24 R 24 -35 R 23 -46 R 12 -59 R
0 -47 R -12 -58 R -23 -58 R -24 -35 R -23 -24 R D 17396 6289 M 0 -386 R D
17407 6289 M 0 -386 R D 17326 6289 M 81 0 R D 17326 5903 M 81 0 R D
80 setlinewidth 13477 6964 M 500 -1683 R 500 -819 R 601 -561 R 400 -239 R
1000 -357 R 1000 -203 R 999 -120 R D 20 setlinewidth 14112 6242 M 0 -245 R D
14206 6160 M 0 -163 R D 14206 6114 M 35 35 R 23 11 R 35 0 R 24 -11 R
11 -35 R 0 -117 R D 14486 6242 M -93 -245 R D 14486 6242 M 94 -245 R D
14638 6137 M 211 0 R D 14638 6067 M 211 0 R D 14942 6242 M 0 -245 R D
15036 6160 M 0 -163 R D 15036 6114 M 35 35 R 23 11 R 35 0 R 23 -11 R
12 -35 R 0 -117 R D 15258 6289 M 0 -386 R D 15269 6289 M 0 -386 R D
15258 6289 M 81 0 R D 15258 5903 M 81 0 R D 15421 6242 M 0 -245 R D
15421 6242 M 94 -245 R 93 245 R 0 -245 R D 15783 6289 M -23 -24 R -23 -35 R
-24 -46 R -11 -59 R 0 -47 R 11 -58 R 24 -58 R 23 -35 R 23 -24 R D
15924 6242 M -36 -12 R -23 -35 R -12 -58 R 0 -35 R 12 -59 R 23 -35 R
36 -11 R 23 0 R 35 11 R 23 35 R 12 59 R 0 35 R -12 58 R -23 35 R -35 12 R
-23 0 R D 16087 6289 M 23 -24 R 24 -35 R 23 -46 R 12 -59 R 0 -47 R -12 -58 R
-23 -58 R -24 -35 R -23 -24 R D 16449 6289 M -210 -386 R D 16519 6160 M
0 -163 R D 16519 6114 M 35 35 R 24 11 R 35 0 R 23 -11 R 12 -35 R 0 -117 R D
16648 6114 M 35 35 R 23 11 R 35 0 R 24 -11 R 11 -35 R 0 -117 R D
16952 6289 M -24 -24 R -23 -35 R -23 -46 R -12 -59 R 0 -47 R 12 -58 R
23 -58 R 23 -35 R 24 -24 R D 17045 6242 M 0 -199 R 12 -35 R 23 -11 R 24 0 R
D 17010 6160 M 82 0 R D 17162 6289 M 23 -24 R 24 -35 R 23 -46 R 12 -59 R
0 -47 R -12 -58 R -23 -58 R -24 -35 R -23 -24 R D 17396 6289 M 0 -386 R D
17407 6289 M 0 -386 R D 17326 6289 M 81 0 R D 17326 5903 M 81 0 R D
0.000 0.000 0.000 setrgbcolor 17088 7035 M -35 18 R -53 0 R -35 -18 R
-35 -35 R -17 -52 R 0 -53 R 17 -52 R 18 -18 R 35 -18 R 53 0 R 35 18 R D
16913 6930 M 140 0 R D 17211 7018 M 315 0 R D 17211 6913 M 315 0 R D
17702 7105 M 35 18 R 52 53 R 0 -369 R D 18035 6843 M -18 -18 R 18 -18 R
17 18 R -17 18 R D 18280 7176 M -53 -18 R -35 -53 R -17 -87 R 0 -53 R
17 -87 R 35 -53 R 53 -18 R 35 0 R 53 18 R 35 53 R 17 87 R 0 53 R -17 87 R
-35 53 R -53 18 R -35 0 R D 14112 5972 M 0 -246 R D 14112 5855 M 24 23 R
23 12 R 35 0 R 24 -12 R 23 -23 R 12 -35 R 0 -23 R -12 -36 R -23 -23 R
-24 -12 R -35 0 R -23 12 R -24 23 R D 14451 5855 M -11 23 R -35 12 R -35 0 R
-36 -12 R -11 -23 R 11 -23 R 24 -12 R 58 -12 R 24 -11 R 11 -24 R 0 -12 R
-11 -23 R -35 -12 R -35 0 R -36 12 R -11 23 R D 14556 5925 M 24 12 R 35 35 R
0 -246 R D 14767 5890 M 0 -164 R D 14767 5820 M 11 35 R 24 23 R 23 12 R
35 0 R D 15036 5855 M -12 23 R -35 12 R -35 0 R -35 -12 R -12 -23 R 12 -23 R
23 -12 R 58 -12 R 24 -11 R 12 -24 R 0 -12 R -12 -23 R -35 -12 R -35 0 R
-35 12 R -12 23 R D 15117 5972 M 0 -246 R D 15117 5843 M 35 35 R 24 12 R
35 0 R 23 -12 R 12 -35 R 0 -117 R D 8615 525 M 0 -245 R D 8615 455 M 53 53 R
35 17 R 53 0 R 35 -17 R 17 -53 R 0 -175 R D 8808 455 M 53 53 R 35 17 R
52 0 R 35 -17 R 18 -53 R 0 -175 R D 9264 718 M -35 -35 R -35 -52 R -35 -71 R
-18 -87 R 0 -70 R 18 -88 R 35 -88 R 35 -52 R 35 -35 R D 9474 648 M -52 -17 R
-36 -53 R -17 -88 R 0 -52 R 17 -88 R 36 -52 R 52 -18 R 35 0 R 53 18 R
35 52 R 17 88 R 0 52 R -17 88 R -35 53 R -53 17 R -35 0 R D 9719 718 M
36 -35 R 35 -52 R 35 -71 R 17 -87 R 0 -70 R -17 -88 R -35 -88 R -35 -52 R
-36 -35 R D 10263 718 M -316 -578 R D 10368 648 M 0 -368 R D 10368 648 M
140 -368 R 140 368 R 0 -368 R D 10911 718 M -35 -35 R -35 -52 R -35 -71 R
-17 -87 R 0 -70 R 17 -88 R 35 -88 R 35 -52 R 35 -35 R D 11122 648 M
-53 -17 R -35 -53 R -18 -88 R 0 -52 R 18 -88 R 35 -52 R 53 -18 R 35 0 R
52 18 R 35 52 R 18 88 R 0 52 R -18 88 R -35 53 R -52 17 R -35 0 R D
11367 718 M 35 -35 R 35 -52 R 35 -71 R 18 -87 R 0 -70 R -18 -88 R -35 -88 R
-35 -52 R -35 -35 R D 515 5133 M 245 0 R D 585 5133 M -53 52 R -17 35 R
0 53 R 17 35 R 53 18 R 175 0 R D 585 5326 M -53 52 R -17 35 R 0 53 R 17 35 R
53 17 R 175 0 R D 620 5641 M 0 210 R -35 0 R -35 -17 R -18 -18 R -17 -35 R
0 -52 R 17 -35 R 35 -35 R 53 -18 R 35 0 R 52 18 R 35 35 R 18 35 R 0 52 R
-18 35 R -35 35 R D 515 5974 M 245 0 R D 620 5974 M -53 18 R -35 35 R
-17 35 R 0 52 R D 515 6395 M 298 0 R 52 -18 R 18 -17 R 17 -35 R 0 -53 R
-17 -35 R D 567 6395 M -35 -35 R -17 -35 R 0 -53 R 17 -35 R 35 -35 R
53 -18 R 35 0 R 52 18 R 35 35 R 18 35 R 0 53 R -18 35 R -35 35 R D
620 6517 M 0 211 R -35 0 R -35 -18 R -18 -17 R -17 -35 R 0 -53 R 17 -35 R
35 -35 R 53 -18 R 35 0 R 52 18 R 35 35 R 18 35 R 0 53 R -18 35 R -35 35 R D
515 6850 M 245 0 R D 620 6850 M -53 18 R -35 35 R -17 35 R 0 53 R D
392 7376 M 298 0 R 52 18 R 18 35 R 0 35 R D 515 7324 M 0 122 R D 392 7551 M
17 18 R -17 17 R -18 -17 R 18 -18 R D 515 7569 M 245 0 R D 515 7709 M
245 0 R D 585 7709 M -53 53 R -17 35 R 0 52 R 17 35 R 53 18 R 175 0 R D
585 7902 M -53 53 R -17 35 R 0 52 R 17 35 R 53 18 R 175 0 R D 620 8217 M
0 211 R -35 0 R -35 -18 R -18 -17 R -17 -35 R 0 -53 R 17 -35 R 35 -35 R
53 -18 R 35 0 R 52 18 R 35 35 R 18 35 R 0 53 R -18 35 R -35 35 R D
322 8831 M 578 -316 R D 480 9181 M -35 -17 R -36 -35 R -17 -35 R 0 -70 R
17 -35 R 36 -35 R 35 -18 R 52 -17 R 88 0 R 52 17 R 35 18 R 35 35 R 18 35 R
0 70 R -18 35 R -35 35 R -35 17 R -52 0 R 0 -87 R D 515 9269 M 245 105 R
-245 105 R D 760 9374 M 88 -35 R 35 -35 R 17 -35 R 0 -18 R D 515 9585 M
245 0 R D 620 9585 M -53 17 R -35 35 R -17 35 R 0 53 R D
%%PageTrailer
end
%%PageResources: font Helvetica
%%Trailer
%%Pages: 1
%%DocumentNeededResources: font Helvetica
%%EOF
