%!PS-Adobe-3.0 EPSF-3.0
%%BoundingBox: 0 0 340 425
%%Title: Graphics produced by IDL
%%For: jlgan@aida119, /home/jlgan/work/subhalo_model
%%Creator: IDL Version 7.1 (linux x86_64 m64)
%%CreationDate: Tue Aug 25 01:28:01 2009
%%DocumentData: Clean7bit
%%Requirements: color
%%LanguageLevel: 1
%%PageOrder: Ascend
%%Pages: (atend)
%%DocumentNeededResources: (atend)
%%EndComments
%%BeginProlog
%+ prolog.ps -- Prolog for IDL generated PostScript files
%+ Copyright (c) 1988-2009 ITT Visual Information Solutions. All Rights Reserved.
%v 5
/$IDL_DICT 40 dict def $IDL_DICT begin /bdef { bind def } bind def /C
{currentpoint newpath moveto} bdef /CP {currentpoint} bdef /D {currentpoint
stroke moveto} bdef /F {closepath fill} bdef /K { setgray } bdef /M {moveto}
bdef /N {rmoveto} bdef /P {lineto} bdef /R {rlineto} bdef /S {gsave show
grestore} bdef /X {currentpoint pop} bdef /Z {gsave currentpoint lineto 20
setlinewidth 1 setlinecap stroke grestore} bdef /L0 {[] 0 setdash} bdef /L1
{[40 100] 0 setdash} bdef /L2 {[200 200] 0 setdash} bdef /L3 {[200 100 50
100] 0 setdash} bdef /L4 {[300 100 50 100 50 100 50 100] 0 setdash} bdef /L5
{[400 200] 0 setdash} bdef /STDFONT { findfont exch scalefont setfont } bdef
/ISOFONT { findfont dup length dict begin { 1 index /FID ne {def} {pop pop}
ifelse } forall /Encoding ISOLatin1Encoding def currentdict end /idltmpfont
exch definefont exch scalefont setfont } bdef /ISOBULLET { gsave /Helvetica
findfont exch scalefont setfont (\267) show currentpoint grestore moveto}
bdef /MITERLIMIT { 2.5 setmiterlimit } bdef end
%%EndProlog
%%Page: 0 1
%%PageRequirements: color
%%PageResources: (atend)
%%PageOrientation: Portrait
%%PageBoundingBox: 0 0 340 425
%%BeginPageSetup
$IDL_DICT begin 0.0283465 dup scale MITERLIMIT
%%IncludeResource: font Helvetica
423.333 /Helvetica STDFONT
%%EndPageSetup
0.000 0.000 0.000 setrgbcolor gsave 6480 211 translate 0 0 M 1.2 dup scale
-928.793 0 N
(m\(0\)/M\(0\)) show grestore gsave 600 7500 translate 0 0 M 90 rotate
1.2 dup scale -756.302 0 N
(T) show X -101.051 M
%%IncludeResource: font Helvetica
262.467 /Helvetica STDFONT
(df) show X 0 M
%%IncludeResource: font Helvetica
423.333 /Helvetica STDFONT
( [Gyr]) show grestore 40 setlinewidth L0 1560 10000 M 4440 0 R D
1560 10000 M 0 172 R D gsave 1560 9366 translate 0 0 M 1.2 dup scale
-58.8433 0 N
( ) show grestore 2448 10000 M 0 172 R D gsave 2448 9366 translate 0 0 M
1.2 dup scale -58.8433 0 N
( ) show grestore 3336 10000 M 0 172 R D gsave 3336 9366 translate 0 0 M
1.2 dup scale -58.8433 0 N
( ) show grestore 4224 10000 M 0 172 R D gsave 4224 9366 translate 0 0 M
1.2 dup scale -58.8433 0 N
( ) show grestore 5112 10000 M 0 172 R D gsave 5112 9366 translate 0 0 M
1.2 dup scale -58.8433 0 N
( ) show grestore 6000 10000 M 0 172 R D gsave 6000 9366 translate 0 0 M
1.2 dup scale -58.8433 0 N
( ) show grestore 1738 10000 M 0 86 R D 1915 10000 M 0 86 R D 2093 10000 M
0 86 R D 2270 10000 M 0 86 R D 2626 10000 M 0 86 R D 2803 10000 M 0 86 R D
2981 10000 M 0 86 R D 3158 10000 M 0 86 R D 3514 10000 M 0 86 R D
3691 10000 M 0 86 R D 3869 10000 M 0 86 R D 4046 10000 M 0 86 R D
4402 10000 M 0 86 R D 4579 10000 M 0 86 R D 4757 10000 M 0 86 R D
4934 10000 M 0 86 R D 5290 10000 M 0 86 R D 5467 10000 M 0 86 R D
5645 10000 M 0 86 R D 5822 10000 M 0 86 R D 1560 14296 M 4440 0 R D
1560 14296 M 0 -172 R D 2448 14296 M 0 -172 R D 3336 14296 M 0 -172 R D
4224 14296 M 0 -172 R D 5112 14296 M 0 -172 R D 6000 14296 M 0 -172 R D
1738 14296 M 0 -86 R D 1915 14296 M 0 -86 R D 2093 14296 M 0 -86 R D
2270 14296 M 0 -86 R D 2626 14296 M 0 -86 R D 2803 14296 M 0 -86 R D
2981 14296 M 0 -86 R D 3158 14296 M 0 -86 R D 3514 14296 M 0 -86 R D
3691 14296 M 0 -86 R D 3869 14296 M 0 -86 R D 4046 14296 M 0 -86 R D
4402 14296 M 0 -86 R D 4579 14296 M 0 -86 R D 4757 14296 M 0 -86 R D
4934 14296 M 0 -86 R D 5290 14296 M 0 -86 R D 5467 14296 M 0 -86 R D
5645 14296 M 0 -86 R D 5822 14296 M 0 -86 R D 1560 10000 M 0 4296 R D
1560 10688 M 178 0 R D gsave 1427 10519 translate 0 0 M 1.2 dup scale
-235.373 0 N
(1) show grestore 1560 11464 M 178 0 R D gsave 1427 11295 translate 0 0 M
1.2 dup scale -235.373 0 N
(2) show grestore 1560 12241 M 178 0 R D gsave 1427 12072 translate 0 0 M
1.2 dup scale -235.373 0 N
(3) show grestore 1560 13017 M 178 0 R D gsave 1427 12848 translate 0 0 M
1.2 dup scale -235.373 0 N
(4) show grestore 1560 13794 M 178 0 R D gsave 1427 13625 translate 0 0 M
1.2 dup scale -235.373 0 N
(5) show grestore 1560 10067 M 89 0 R D 1560 10144 M 89 0 R D 1560 10222 M
89 0 R D 1560 10300 M 89 0 R D 1560 10377 M 89 0 R D 1560 10455 M 89 0 R D
1560 10533 M 89 0 R D 1560 10610 M 89 0 R D 1560 10765 M 89 0 R D
1560 10843 M 89 0 R D 1560 10921 M 89 0 R D 1560 10998 M 89 0 R D
1560 11076 M 89 0 R D 1560 11154 M 89 0 R D 1560 11231 M 89 0 R D
1560 11309 M 89 0 R D 1560 11387 M 89 0 R D 1560 11542 M 89 0 R D
1560 11620 M 89 0 R D 1560 11697 M 89 0 R D 1560 11775 M 89 0 R D
1560 11853 M 89 0 R D 1560 11930 M 89 0 R D 1560 12008 M 89 0 R D
1560 12085 M 89 0 R D 1560 12163 M 89 0 R D 1560 12318 M 89 0 R D
1560 12396 M 89 0 R D 1560 12474 M 89 0 R D 1560 12551 M 89 0 R D
1560 12629 M 89 0 R D 1560 12707 M 89 0 R D 1560 12784 M 89 0 R D
1560 12862 M 89 0 R D 1560 12940 M 89 0 R D 1560 13095 M 89 0 R D
1560 13173 M 89 0 R D 1560 13250 M 89 0 R D 1560 13328 M 89 0 R D
1560 13406 M 89 0 R D 1560 13483 M 89 0 R D 1560 13561 M 89 0 R D
1560 13638 M 89 0 R D 1560 13716 M 89 0 R D 1560 13871 M 89 0 R D
1560 13949 M 89 0 R D 1560 14027 M 89 0 R D 1560 14104 M 89 0 R D
1560 14182 M 89 0 R D 1560 14260 M 89 0 R D 6000 10000 M 0 4296 R D
6000 10688 M -178 0 R D 6000 11464 M -178 0 R D 6000 12241 M -178 0 R D
6000 13017 M -178 0 R D 6000 13794 M -178 0 R D 6000 10067 M -89 0 R D
6000 10144 M -89 0 R D 6000 10222 M -89 0 R D 6000 10300 M -89 0 R D
6000 10377 M -89 0 R D 6000 10455 M -89 0 R D 6000 10533 M -89 0 R D
6000 10610 M -89 0 R D 6000 10765 M -89 0 R D 6000 10843 M -89 0 R D
6000 10921 M -89 0 R D 6000 10998 M -89 0 R D 6000 11076 M -89 0 R D
6000 11154 M -89 0 R D 6000 11231 M -89 0 R D 6000 11309 M -89 0 R D
6000 11387 M -89 0 R D 6000 11542 M -89 0 R D 6000 11620 M -89 0 R D
6000 11697 M -89 0 R D 6000 11775 M -89 0 R D 6000 11853 M -89 0 R D
6000 11930 M -89 0 R D 6000 12008 M -89 0 R D 6000 12085 M -89 0 R D
6000 12163 M -89 0 R D 6000 12318 M -89 0 R D 6000 12396 M -89 0 R D
6000 12474 M -89 0 R D 6000 12551 M -89 0 R D 6000 12629 M -89 0 R D
6000 12707 M -89 0 R D 6000 12784 M -89 0 R D 6000 12862 M -89 0 R D
6000 12940 M -89 0 R D 6000 13095 M -89 0 R D 6000 13173 M -89 0 R D
6000 13250 M -89 0 R D 6000 13328 M -89 0 R D 6000 13406 M -89 0 R D
6000 13483 M -89 0 R D 6000 13561 M -89 0 R D 6000 13638 M -89 0 R D
6000 13716 M -89 0 R D 6000 13871 M -89 0 R D 6000 13949 M -89 0 R D
6000 14027 M -89 0 R D 6000 14104 M -89 0 R D 6000 14182 M -89 0 R D
6000 14260 M -89 0 R D L1 1560 14295 M 444 -1424 R 444 -699 R 533 -478 R
355 -211 R 888 -343 R 888 -205 R 888 -137 R D L2
0.761 0.000 0.000 setrgbcolor 1560 12598 M 444 -1391 R 444 -351 R 533 -171 R
355 -74 R 888 -23 R 888 -3 R 888 -2 R D L0 0.000 0.000 1.000 setrgbcolor
1560 11425 M 444 -494 R 444 -167 R 533 -139 R 355 -13 R 888 -21 R 888 -4 R
888 -1 R D 0.000 0.000 0.000 setrgbcolor gsave 5645 13770 translate 0 0 M
1.2 dup scale -947.42 0 N
%%IncludeResource: font Symbol
423.333 /Symbol STDFONT
(e) show
%%IncludeResource: font Helvetica
423.333 /Helvetica STDFONT
(=0.1) show grestore 6960 10000 M 4440 0 R D 6960 10000 M 0 172 R D
gsave 6960 9366 translate 0 0 M 1.2 dup scale -58.8433 0 N
( ) show grestore 7848 10000 M 0 172 R D gsave 7848 9366 translate 0 0 M
1.2 dup scale -58.8433 0 N
( ) show grestore 8736 10000 M 0 172 R D gsave 8736 9366 translate 0 0 M
1.2 dup scale -58.8433 0 N
( ) show grestore 9624 10000 M 0 172 R D gsave 9624 9366 translate 0 0 M
1.2 dup scale -58.8433 0 N
( ) show grestore 10512 10000 M 0 172 R D gsave 10512 9366 translate 0 0 M
1.2 dup scale -58.8433 0 N
( ) show grestore 11400 10000 M 0 172 R D gsave 11400 9366 translate 0 0 M
1.2 dup scale -58.8433 0 N
( ) show grestore 7138 10000 M 0 86 R D 7315 10000 M 0 86 R D 7493 10000 M
0 86 R D 7670 10000 M 0 86 R D 8026 10000 M 0 86 R D 8203 10000 M 0 86 R D
8381 10000 M 0 86 R D 8558 10000 M 0 86 R D 8914 10000 M 0 86 R D
9091 10000 M 0 86 R D 9269 10000 M 0 86 R D 9446 10000 M 0 86 R D
9802 10000 M 0 86 R D 9979 10000 M 0 86 R D 10157 10000 M 0 86 R D
10335 10000 M 0 86 R D 10690 10000 M 0 86 R D 10867 10000 M 0 86 R D
11045 10000 M 0 86 R D 11223 10000 M 0 86 R D 6960 14296 M 4440 0 R D
6960 14296 M 0 -172 R D 7848 14296 M 0 -172 R D 8736 14296 M 0 -172 R D
9624 14296 M 0 -172 R D 10512 14296 M 0 -172 R D 11400 14296 M 0 -172 R D
7138 14296 M 0 -86 R D 7315 14296 M 0 -86 R D 7493 14296 M 0 -86 R D
7670 14296 M 0 -86 R D 8026 14296 M 0 -86 R D 8203 14296 M 0 -86 R D
8381 14296 M 0 -86 R D 8558 14296 M 0 -86 R D 8914 14296 M 0 -86 R D
9091 14296 M 0 -86 R D 9269 14296 M 0 -86 R D 9446 14296 M 0 -86 R D
9802 14296 M 0 -86 R D 9979 14296 M 0 -86 R D 10157 14296 M 0 -86 R D
10335 14296 M 0 -86 R D 10690 14296 M 0 -86 R D 10867 14296 M 0 -86 R D
11045 14296 M 0 -86 R D 11223 14296 M 0 -86 R D 6960 10000 M 0 4296 R D
6960 10973 M 178 0 R D gsave 6827 10804 translate 0 0 M 1.2 dup scale
-235.373 0 N
(2) show grestore 6960 12035 M 178 0 R D gsave 6827 11866 translate 0 0 M
1.2 dup scale -235.373 0 N
(4) show grestore 6960 13097 M 178 0 R D gsave 6827 12928 translate 0 0 M
1.2 dup scale -235.373 0 N
(6) show grestore 6960 14159 M 178 0 R D gsave 6827 13990 translate 0 0 M
1.2 dup scale -235.373 0 N
(8) show grestore 6960 10177 M 89 0 R D 6960 10442 M 89 0 R D 6960 10708 M
89 0 R D 6960 11239 M 89 0 R D 6960 11504 M 89 0 R D 6960 11770 M 89 0 R D
6960 12301 M 89 0 R D 6960 12566 M 89 0 R D 6960 12832 M 89 0 R D
6960 13363 M 89 0 R D 6960 13628 M 89 0 R D 6960 13894 M 89 0 R D
11400 10000 M 0 4296 R D 11400 10973 M -177 0 R D 11400 12035 M -177 0 R D
11400 13097 M -177 0 R D 11400 14159 M -177 0 R D 11400 10177 M -89 0 R D
11400 10442 M -89 0 R D 11400 10708 M -89 0 R D 11400 11239 M -89 0 R D
11400 11504 M -89 0 R D 11400 11770 M -89 0 R D 11400 12301 M -89 0 R D
11400 12566 M -89 0 R D 11400 12832 M -89 0 R D 11400 13363 M -89 0 R D
11400 13628 M -89 0 R D 11400 13894 M -89 0 R D L1 6960 14295 M 444 -1424 R
444 -699 R 533 -478 R 355 -211 R 888 -343 R 888 -205 R 888 -137 R D L2
0.761 0.000 0.000 setrgbcolor 7090 14295 M 314 -1156 R 444 -1062 R
533 -515 R 355 -146 R 888 -577 R 888 -175 R 888 -26 R D L0
0.000 0.000 1.000 setrgbcolor 6960 14241 M 444 -1305 R 444 -904 R 533 -524 R
355 -179 R 888 -402 R 888 -101 R 888 -51 R D 0.000 0.000 0.000 setrgbcolor
gsave 11045 13770 translate 0 0 M 1.2 dup scale -947.42 0 N
%%IncludeResource: font Symbol
423.333 /Symbol STDFONT
(e) show
%%IncludeResource: font Helvetica
423.333 /Helvetica STDFONT
(=0.3) show grestore 1560 5704 M 4440 0 R D 1560 5704 M 0 172 R D
gsave 1560 5070 translate 0 0 M 1.2 dup scale -58.8433 0 N
( ) show grestore 2448 5704 M 0 172 R D gsave 2448 5070 translate 0 0 M
1.2 dup scale -58.8433 0 N
( ) show grestore 3336 5704 M 0 172 R D gsave 3336 5070 translate 0 0 M
1.2 dup scale -58.8433 0 N
( ) show grestore 4224 5704 M 0 172 R D gsave 4224 5070 translate 0 0 M
1.2 dup scale -58.8433 0 N
( ) show grestore 5112 5704 M 0 172 R D gsave 5112 5070 translate 0 0 M
1.2 dup scale -58.8433 0 N
( ) show grestore 6000 5704 M 0 172 R D gsave 6000 5070 translate 0 0 M
1.2 dup scale -58.8433 0 N
( ) show grestore 1738 5704 M 0 86 R D 1915 5704 M 0 86 R D 2093 5704 M
0 86 R D 2270 5704 M 0 86 R D 2626 5704 M 0 86 R D 2803 5704 M 0 86 R D
2981 5704 M 0 86 R D 3158 5704 M 0 86 R D 3514 5704 M 0 86 R D 3691 5704 M
0 86 R D 3869 5704 M 0 86 R D 4046 5704 M 0 86 R D 4402 5704 M 0 86 R D
4579 5704 M 0 86 R D 4757 5704 M 0 86 R D 4934 5704 M 0 86 R D 5290 5704 M
0 86 R D 5467 5704 M 0 86 R D 5645 5704 M 0 86 R D 5822 5704 M 0 86 R D
1560 10000 M 4440 0 R D 1560 10000 M 0 -172 R D 2448 10000 M 0 -172 R D
3336 10000 M 0 -172 R D 4224 10000 M 0 -172 R D 5112 10000 M 0 -172 R D
6000 10000 M 0 -172 R D 1738 10000 M 0 -86 R D 1915 10000 M 0 -86 R D
2093 10000 M 0 -86 R D 2270 10000 M 0 -86 R D 2626 10000 M 0 -86 R D
2803 10000 M 0 -86 R D 2981 10000 M 0 -86 R D 3158 10000 M 0 -86 R D
3514 10000 M 0 -86 R D 3691 10000 M 0 -86 R D 3869 10000 M 0 -86 R D
4046 10000 M 0 -86 R D 4402 10000 M 0 -86 R D 4579 10000 M 0 -86 R D
4757 10000 M 0 -86 R D 4934 10000 M 0 -86 R D 5290 10000 M 0 -86 R D
5467 10000 M 0 -86 R D 5645 10000 M 0 -86 R D 5822 10000 M 0 -86 R D
1560 5704 M 0 4296 R D 1560 6342 M 178 0 R D gsave 1427 6173 translate 0 0 M
1.2 dup scale -235.373 0 N
(2) show grestore 1560 7068 M 178 0 R D gsave 1427 6899 translate 0 0 M
1.2 dup scale -235.373 0 N
(4) show grestore 1560 7794 M 178 0 R D gsave 1427 7625 translate 0 0 M
1.2 dup scale -235.373 0 N
(6) show grestore 1560 8520 M 178 0 R D gsave 1427 8351 translate 0 0 M
1.2 dup scale -235.373 0 N
(8) show grestore 1560 9247 M 178 0 R D gsave 1427 9078 translate 0 0 M
1.2 dup scale -470.747 0 N
(10) show grestore 1560 9973 M 178 0 R D gsave 1427 9704 translate 0 0 M
1.2 dup scale -470.747 0 N
(12) show grestore 1560 5797 M 89 0 R D 1560 5978 M 89 0 R D 1560 6160 M
89 0 R D 1560 6523 M 89 0 R D 1560 6705 M 89 0 R D 1560 6886 M 89 0 R D
1560 7249 M 89 0 R D 1560 7431 M 89 0 R D 1560 7613 M 89 0 R D 1560 7976 M
89 0 R D 1560 8157 M 89 0 R D 1560 8339 M 89 0 R D 1560 8702 M 89 0 R D
1560 8884 M 89 0 R D 1560 9065 M 89 0 R D 1560 9428 M 89 0 R D 1560 9610 M
89 0 R D 1560 9791 M 89 0 R D 6000 5704 M 0 4296 R D 6000 6342 M -178 0 R D
6000 7068 M -178 0 R D 6000 7794 M -178 0 R D 6000 8520 M -178 0 R D
6000 9247 M -178 0 R D 6000 9973 M -178 0 R D 6000 5797 M -89 0 R D
6000 5978 M -89 0 R D 6000 6160 M -89 0 R D 6000 6523 M -89 0 R D
6000 6705 M -89 0 R D 6000 6886 M -89 0 R D 6000 7249 M -89 0 R D
6000 7431 M -89 0 R D 6000 7613 M -89 0 R D 6000 7976 M -89 0 R D
6000 8157 M -89 0 R D 6000 8339 M -89 0 R D 6000 8702 M -89 0 R D
6000 8884 M -89 0 R D 6000 9065 M -89 0 R D 6000 9428 M -89 0 R D
6000 9610 M -89 0 R D 6000 9791 M -89 0 R D L1 1560 10000 M 444 -1425 R
444 -699 R 533 -478 R 355 -211 R 888 -343 R 888 -205 R 888 -137 R D L2
0.761 0.000 0.000 setrgbcolor 1560 9917 M 444 -972 R 444 -891 R 533 -355 R
355 -336 R 888 -355 R 888 -142 R 888 -262 R D L0
0.000 0.000 1.000 setrgbcolor 1560 9993 M 444 -886 R 444 -996 R 533 -423 R
355 -291 R 888 -282 R 888 -223 R 888 -78 R D 0.000 0.000 0.000 setrgbcolor
gsave 5645 9474 translate 0 0 M 1.2 dup scale -947.42 0 N
%%IncludeResource: font Symbol
423.333 /Symbol STDFONT
(e) show
%%IncludeResource: font Helvetica
423.333 /Helvetica STDFONT
(=0.5) show grestore 6960 5704 M 4440 0 R D 6960 5704 M 0 172 R D
gsave 6960 5070 translate 0 0 M 1.2 dup scale -58.8433 0 N
( ) show grestore 7848 5704 M 0 172 R D gsave 7848 5070 translate 0 0 M
1.2 dup scale -58.8433 0 N
( ) show grestore 8736 5704 M 0 172 R D gsave 8736 5070 translate 0 0 M
1.2 dup scale -58.8433 0 N
( ) show grestore 9624 5704 M 0 172 R D gsave 9624 5070 translate 0 0 M
1.2 dup scale -58.8433 0 N
( ) show grestore 10512 5704 M 0 172 R D gsave 10512 5070 translate 0 0 M
1.2 dup scale -58.8433 0 N
( ) show grestore 11400 5704 M 0 172 R D gsave 11400 5070 translate 0 0 M
1.2 dup scale -58.8433 0 N
( ) show grestore 7138 5704 M 0 86 R D 7315 5704 M 0 86 R D 7493 5704 M
0 86 R D 7670 5704 M 0 86 R D 8026 5704 M 0 86 R D 8203 5704 M 0 86 R D
8381 5704 M 0 86 R D 8558 5704 M 0 86 R D 8914 5704 M 0 86 R D 9091 5704 M
0 86 R D 9269 5704 M 0 86 R D 9446 5704 M 0 86 R D 9802 5704 M 0 86 R D
9979 5704 M 0 86 R D 10157 5704 M 0 86 R D 10335 5704 M 0 86 R D
10690 5704 M 0 86 R D 10867 5704 M 0 86 R D 11045 5704 M 0 86 R D
11223 5704 M 0 86 R D 6960 10000 M 4440 0 R D 6960 10000 M 0 -172 R D
7848 10000 M 0 -172 R D 8736 10000 M 0 -172 R D 9624 10000 M 0 -172 R D
10512 10000 M 0 -172 R D 11400 10000 M 0 -172 R D 7138 10000 M 0 -86 R D
7315 10000 M 0 -86 R D 7493 10000 M 0 -86 R D 7670 10000 M 0 -86 R D
8026 10000 M 0 -86 R D 8203 10000 M 0 -86 R D 8381 10000 M 0 -86 R D
8558 10000 M 0 -86 R D 8914 10000 M 0 -86 R D 9091 10000 M 0 -86 R D
9269 10000 M 0 -86 R D 9446 10000 M 0 -86 R D 9802 10000 M 0 -86 R D
9979 10000 M 0 -86 R D 10157 10000 M 0 -86 R D 10335 10000 M 0 -86 R D
10690 10000 M 0 -86 R D 10867 10000 M 0 -86 R D 11045 10000 M 0 -86 R D
11223 10000 M 0 -86 R D 6960 5704 M 0 4296 R D 6960 6857 M 178 0 R D
gsave 6827 6688 translate 0 0 M 1.2 dup scale -235.373 0 N
(5) show grestore 6960 8099 M 178 0 R D gsave 6827 7930 translate 0 0 M
1.2 dup scale -470.747 0 N
(10) show grestore 6960 9340 M 178 0 R D gsave 6827 9171 translate 0 0 M
1.2 dup scale -470.747 0 N
(15) show grestore 6960 5864 M 89 0 R D 6960 6112 M 89 0 R D 6960 6360 M
89 0 R D 6960 6609 M 89 0 R D 6960 7105 M 89 0 R D 6960 7354 M 89 0 R D
6960 7602 M 89 0 R D 6960 7850 M 89 0 R D 6960 8347 M 89 0 R D 6960 8595 M
89 0 R D 6960 8844 M 89 0 R D 6960 9092 M 89 0 R D 6960 9589 M 89 0 R D
6960 9837 M 89 0 R D 11400 5704 M 0 4296 R D 11400 6857 M -177 0 R D
11400 8099 M -177 0 R D 11400 9340 M -177 0 R D 11400 5864 M -89 0 R D
11400 6112 M -89 0 R D 11400 6360 M -89 0 R D 11400 6609 M -89 0 R D
11400 7105 M -89 0 R D 11400 7354 M -89 0 R D 11400 7602 M -89 0 R D
11400 7850 M -89 0 R D 11400 8347 M -89 0 R D 11400 8595 M -89 0 R D
11400 8844 M -89 0 R D 11400 9092 M -89 0 R D 11400 9589 M -89 0 R D
11400 9837 M -89 0 R D L1 6960 10000 M 444 -1425 R 444 -699 R 533 -478 R
355 -211 R 888 -343 R 888 -205 R 888 -137 R D L2
0.761 0.000 0.000 setrgbcolor 6960 8653 M 444 -754 R 444 -326 R 533 -323 R
355 -24 R 888 -338 R 888 -95 R 888 -94 R D L0 0.000 0.000 1.000 setrgbcolor
6960 9107 M 444 -887 R 444 -509 R 533 -328 R 355 -231 R 888 -162 R
888 -145 R 888 -45 R D 0.000 0.000 0.000 setrgbcolor
gsave 11045 9474 translate 0 0 M 1.2 dup scale -947.42 0 N
%%IncludeResource: font Symbol
423.333 /Symbol STDFONT
(e) show
%%IncludeResource: font Helvetica
423.333 /Helvetica STDFONT
(=0.7) show grestore 1560 1408 M 4440 0 R D 1560 1408 M 0 172 R D
gsave 1560 774 translate 0 0 M 1.2 dup scale -58.8433 0 N
( ) show grestore 2448 1408 M 0 172 R D gsave 2448 774 translate 0 0 M
1.2 dup scale -294.217 0 N
(0.1) show grestore 3336 1408 M 0 172 R D gsave 3336 774 translate 0 0 M
1.2 dup scale -58.8433 0 N
( ) show grestore 4224 1408 M 0 172 R D gsave 4224 774 translate 0 0 M
1.2 dup scale -294.217 0 N
(0.2) show grestore 5112 1408 M 0 172 R D gsave 5112 774 translate 0 0 M
1.2 dup scale -58.8433 0 N
( ) show grestore 6000 1408 M 0 172 R D gsave 6000 774 translate 0 0 M
1.2 dup scale -294.217 0 N
(0.3) show grestore 1738 1408 M 0 86 R D 1915 1408 M 0 86 R D 2093 1408 M
0 86 R D 2270 1408 M 0 86 R D 2626 1408 M 0 86 R D 2803 1408 M 0 86 R D
2981 1408 M 0 86 R D 3158 1408 M 0 86 R D 3514 1408 M 0 86 R D 3691 1408 M
0 86 R D 3869 1408 M 0 86 R D 4046 1408 M 0 86 R D 4402 1408 M 0 86 R D
4579 1408 M 0 86 R D 4757 1408 M 0 86 R D 4934 1408 M 0 86 R D 5290 1408 M
0 86 R D 5467 1408 M 0 86 R D 5645 1408 M 0 86 R D 5822 1408 M 0 86 R D
1560 5704 M 4440 0 R D 1560 5704 M 0 -172 R D 2448 5704 M 0 -172 R D
3336 5704 M 0 -172 R D 4224 5704 M 0 -172 R D 5112 5704 M 0 -172 R D
6000 5704 M 0 -172 R D 1738 5704 M 0 -86 R D 1915 5704 M 0 -86 R D
2093 5704 M 0 -86 R D 2270 5704 M 0 -86 R D 2626 5704 M 0 -86 R D
2803 5704 M 0 -86 R D 2981 5704 M 0 -86 R D 3158 5704 M 0 -86 R D
3514 5704 M 0 -86 R D 3691 5704 M 0 -86 R D 3869 5704 M 0 -86 R D
4046 5704 M 0 -86 R D 4402 5704 M 0 -86 R D 4579 5704 M 0 -86 R D
4757 5704 M 0 -86 R D 4934 5704 M 0 -86 R D 5290 5704 M 0 -86 R D
5467 5704 M 0 -86 R D 5645 5704 M 0 -86 R D 5822 5704 M 0 -86 R D
1560 1408 M 0 4296 R D 1560 2168 M 178 0 R D gsave 1427 2000 translate 0 0 M
1.2 dup scale -235.373 0 N
(5) show grestore 1560 3018 M 178 0 R D gsave 1427 2849 translate 0 0 M
1.2 dup scale -470.747 0 N
(10) show grestore 1560 3867 M 178 0 R D gsave 1427 3698 translate 0 0 M
1.2 dup scale -470.747 0 N
(15) show grestore 1560 4716 M 178 0 R D gsave 1427 4547 translate 0 0 M
1.2 dup scale -470.747 0 N
(20) show grestore 1560 5565 M 178 0 R D gsave 1427 5396 translate 0 0 M
1.2 dup scale -470.747 0 N
(25) show grestore 1560 1489 M 89 0 R D 1560 1659 M 89 0 R D 1560 1829 M
89 0 R D 1560 1999 M 89 0 R D 1560 2338 M 89 0 R D 1560 2508 M 89 0 R D
1560 2678 M 89 0 R D 1560 2848 M 89 0 R D 1560 3187 M 89 0 R D 1560 3357 M
89 0 R D 1560 3527 M 89 0 R D 1560 3697 M 89 0 R D 1560 4037 M 89 0 R D
1560 4206 M 89 0 R D 1560 4376 M 89 0 R D 1560 4546 M 89 0 R D 1560 4886 M
89 0 R D 1560 5056 M 89 0 R D 1560 5225 M 89 0 R D 1560 5395 M 89 0 R D
6000 1408 M 0 4296 R D 6000 2168 M -178 0 R D 6000 3018 M -178 0 R D
6000 3867 M -178 0 R D 6000 4716 M -178 0 R D 6000 5565 M -178 0 R D
6000 1489 M -89 0 R D 6000 1659 M -89 0 R D 6000 1829 M -89 0 R D
6000 1999 M -89 0 R D 6000 2338 M -89 0 R D 6000 2508 M -89 0 R D
6000 2678 M -89 0 R D 6000 2848 M -89 0 R D 6000 3187 M -89 0 R D
6000 3357 M -89 0 R D 6000 3527 M -89 0 R D 6000 3697 M -89 0 R D
6000 4037 M -89 0 R D 6000 4206 M -89 0 R D 6000 4376 M -89 0 R D
6000 4546 M -89 0 R D 6000 4886 M -89 0 R D 6000 5056 M -89 0 R D
6000 5225 M -89 0 R D 6000 5395 M -89 0 R D L1 1560 5703 M 444 -1424 R
444 -699 R 533 -478 R 355 -211 R 888 -343 R 888 -205 R 888 -137 R D L2
0.761 0.000 0.000 setrgbcolor 1560 3227 M 444 -414 R 444 -171 R 533 -244 R
355 1 R 888 -184 R 888 -78 R 888 178 R D L0 0.000 0.000 1.000 setrgbcolor
1560 3560 M 444 -457 R 444 -367 R 533 -159 R 355 -87 R 888 -120 R 888 -30 R
888 29 R D 0.000 0.000 0.000 setrgbcolor gsave 5645 5178 translate 0 0 M
1.2 dup scale -947.42 0 N
%%IncludeResource: font Symbol
423.333 /Symbol STDFONT
(e) show
%%IncludeResource: font Helvetica
423.333 /Helvetica STDFONT
(=0.9) show grestore 6960 1408 M 4440 0 R D 6960 1408 M 0 172 R D
gsave 6960 774 translate 0 0 M 1.2 dup scale -58.8433 0 N
( ) show grestore 7848 1408 M 0 172 R D gsave 7848 774 translate 0 0 M
1.2 dup scale -294.217 0 N
(0.1) show grestore 8736 1408 M 0 172 R D gsave 8736 774 translate 0 0 M
1.2 dup scale -58.8433 0 N
( ) show grestore 9624 1408 M 0 172 R D gsave 9624 774 translate 0 0 M
1.2 dup scale -294.217 0 N
(0.2) show grestore 10512 1408 M 0 172 R D gsave 10512 774 translate 0 0 M
1.2 dup scale -58.8433 0 N
( ) show grestore 11400 1408 M 0 172 R D gsave 11400 774 translate 0 0 M
1.2 dup scale -294.217 0 N
(0.3) show grestore 7138 1408 M 0 86 R D 7315 1408 M 0 86 R D 7493 1408 M
0 86 R D 7670 1408 M 0 86 R D 8026 1408 M 0 86 R D 8203 1408 M 0 86 R D
8381 1408 M 0 86 R D 8558 1408 M 0 86 R D 8914 1408 M 0 86 R D 9091 1408 M
0 86 R D 9269 1408 M 0 86 R D 9446 1408 M 0 86 R D 9802 1408 M 0 86 R D
9979 1408 M 0 86 R D 10157 1408 M 0 86 R D 10335 1408 M 0 86 R D
10690 1408 M 0 86 R D 10867 1408 M 0 86 R D 11045 1408 M 0 86 R D
11223 1408 M 0 86 R D 6960 5704 M 4440 0 R D 6960 5704 M 0 -172 R D
7848 5704 M 0 -172 R D 8736 5704 M 0 -172 R D 9624 5704 M 0 -172 R D
10512 5704 M 0 -172 R D 11400 5704 M 0 -172 R D 7138 5704 M 0 -86 R D
7315 5704 M 0 -86 R D 7493 5704 M 0 -86 R D 7670 5704 M 0 -86 R D
8026 5704 M 0 -86 R D 8203 5704 M 0 -86 R D 8381 5704 M 0 -86 R D
8558 5704 M 0 -86 R D 8914 5704 M 0 -86 R D 9091 5704 M 0 -86 R D
9269 5704 M 0 -86 R D 9446 5704 M 0 -86 R D 9802 5704 M 0 -86 R D
9979 5704 M 0 -86 R D 10157 5704 M 0 -86 R D 10335 5704 M 0 -86 R D
10690 5704 M 0 -86 R D 10867 5704 M 0 -86 R D 11045 5704 M 0 -86 R D
11223 5704 M 0 -86 R D 6960 1408 M 0 4296 R D 6960 2022 M 178 0 R D
gsave 6827 1853 translate 0 0 M 1.2 dup scale -235.373 0 N
(5) show grestore 6960 2724 M 178 0 R D gsave 6827 2555 translate 0 0 M
1.2 dup scale -470.747 0 N
(10) show grestore 6960 3426 M 178 0 R D gsave 6827 3257 translate 0 0 M
1.2 dup scale -470.747 0 N
(15) show grestore 6960 4128 M 178 0 R D gsave 6827 3959 translate 0 0 M
1.2 dup scale -470.747 0 N
(20) show grestore 6960 4830 M 178 0 R D gsave 6827 4661 translate 0 0 M
1.2 dup scale -470.747 0 N
(25) show grestore 6960 5533 M 178 0 R D gsave 6827 5364 translate 0 0 M
1.2 dup scale -470.747 0 N
(30) show grestore 6960 1460 M 89 0 R D 6960 1600 M 89 0 R D 6960 1741 M
89 0 R D 6960 1881 M 89 0 R D 6960 2162 M 89 0 R D 6960 2302 M 89 0 R D
6960 2443 M 89 0 R D 6960 2583 M 89 0 R D 6960 2864 M 89 0 R D 6960 3005 M
89 0 R D 6960 3145 M 89 0 R D 6960 3285 M 89 0 R D 6960 3566 M 89 0 R D
6960 3707 M 89 0 R D 6960 3847 M 89 0 R D 6960 3988 M 89 0 R D 6960 4269 M
89 0 R D 6960 4409 M 89 0 R D 6960 4549 M 89 0 R D 6960 4690 M 89 0 R D
6960 4971 M 89 0 R D 6960 5111 M 89 0 R D 6960 5252 M 89 0 R D 6960 5392 M
89 0 R D 6960 5673 M 89 0 R D 11400 1408 M 0 4296 R D 11400 2022 M -177 0 R
D 11400 2724 M -177 0 R D 11400 3426 M -177 0 R D 11400 4128 M -177 0 R D
11400 4830 M -177 0 R D 11400 5533 M -177 0 R D 11400 1460 M -89 0 R D
11400 1600 M -89 0 R D 11400 1741 M -89 0 R D 11400 1881 M -89 0 R D
11400 2162 M -89 0 R D 11400 2302 M -89 0 R D 11400 2443 M -89 0 R D
11400 2583 M -89 0 R D 11400 2864 M -89 0 R D 11400 3005 M -89 0 R D
11400 3145 M -89 0 R D 11400 3285 M -89 0 R D 11400 3566 M -89 0 R D
11400 3707 M -89 0 R D 11400 3847 M -89 0 R D 11400 3988 M -89 0 R D
11400 4269 M -89 0 R D 11400 4409 M -89 0 R D 11400 4549 M -89 0 R D
11400 4690 M -89 0 R D 11400 4971 M -89 0 R D 11400 5111 M -89 0 R D
11400 5252 M -89 0 R D 11400 5392 M -89 0 R D 11400 5673 M -89 0 R D L1
6960 5703 M 444 -1424 R 444 -699 R 533 -478 R 355 -211 R 888 -343 R
888 -205 R 888 -137 R D L2 0.761 0.000 0.000 setrgbcolor 6960 3337 M
444 -302 R 444 -65 R 533 -192 R 355 -131 R 888 -96 R 888 -48 R 888 -146 R D
L0 0.000 0.000 1.000 setrgbcolor 6960 3452 M 444 -333 R 444 -185 R 533 368 R
355 -215 R 888 -605 R 888 -92 R 888 40 R D 0.000 0.000 0.000 setrgbcolor
gsave 11045 5178 translate 0 0 M 1.2 dup scale -947.42 0 N
%%IncludeResource: font Symbol
423.333 /Symbol STDFONT
(e) show
%%IncludeResource: font Helvetica
423.333 /Helvetica STDFONT
(=1.0) show grestore L1 2749 13407 M 86 0 R 85 0 R 86 0 R 85 0 R 85 0 R
86 0 R 85 0 R 85 0 R 86 0 R D L2 0.761 0.000 0.000 setrgbcolor 2749 12909 M
86 0 R 85 0 R 86 0 R 85 0 R 85 0 R 86 0 R 85 0 R 85 0 R 86 0 R D L0
0.000 0.000 1.000 setrgbcolor 2749 12410 M 86 0 R 85 0 R 86 0 R 85 0 R
85 0 R 86 0 R 85 0 R 85 0 R 86 0 R D 0.000 0.000 0.000 setrgbcolor
gsave 3603 13232 translate 0 0 M
(BK08) show grestore 0.761 0.000 0.000 setrgbcolor
gsave 3603 12733 translate 0 0 M
(ln) show
%%IncludeResource: font Symbol
423.333 /Symbol STDFONT
(L) show
%%IncludeResource: font Helvetica
423.333 /Helvetica STDFONT
(=C) show grestore 0.000 0.000 1.000 setrgbcolor
gsave 3603 12235 translate 0 0 M
(ln[M/m\(t\)]+C) show grestore
%%PageTrailer
end
%%PageResources: font Helvetica
%%+ font Symbol
%%Trailer
%%Pages: 1
%%DocumentNeededResources: font Helvetica
%%+ font Symbol
%%EOF
