%!PS-Adobe-3.0 EPSF-3.0
%%BoundingBox: 0 0 538 453
%%Title: Graphics produced by IDL
%%For: jlgan@aida119, /home/jlgan/work/subhalo_model
%%Creator: IDL Version 7.0 (linux x86_64 m64)
%%CreationDate: Fri Mar 13 16:05:21 2009
%%DocumentData: Clean7bit
%%Requirements: color
%%LanguageLevel: 1
%%PageOrder: Ascend
%%Pages: (atend)
%%DocumentNeededResources: (atend)
%%EndComments
%%BeginProlog
%+ prolog.ps -- Prolog for IDL generated PostScript files
%+ Copyright (c) 1988-2007 ITT Visual Information Solutions. All Rights Reserved.
%v 5
/$IDL_DICT 40 dict def $IDL_DICT begin /bdef { bind def } bind def /C
{currentpoint newpath moveto} bdef /CP {currentpoint} bdef /D {currentpoint
stroke moveto} bdef /F {closepath fill} bdef /K { setgray } bdef /M {moveto}
bdef /N {rmoveto} bdef /P {lineto} bdef /R {rlineto} bdef /S {gsave show
grestore} bdef /X {currentpoint pop} bdef /Z {gsave currentpoint lineto 20
setlinewidth 1 setlinecap stroke grestore} bdef /L0 {[] 0 setdash} bdef /L1
{[40 100] 0 setdash} bdef /L2 {[200 200] 0 setdash} bdef /L3 {[200 100 50
100] 0 setdash} bdef /L4 {[300 100 50 100 50 100 50 100] 0 setdash} bdef /L5
{[400 200] 0 setdash} bdef /STDFONT { findfont exch scalefont setfont } bdef
/ISOFONT { findfont dup length dict begin { 1 index /FID ne {def} {pop pop}
ifelse } forall /Encoding ISOLatin1Encoding def currentdict end /idltmpfont
exch definefont exch scalefont setfont } bdef /ISOBULLET { gsave /Helvetica
findfont exch scalefont setfont (\267) show currentpoint grestore moveto}
bdef /MITERLIMIT { 2.5 setmiterlimit } bdef end
%%EndProlog
%%Page: 0 1
%%PageRequirements: color
%%PageResources: (atend)
%%PageOrientation: Portrait
%%PageBoundingBox: 0 0 538 453
%%BeginPageSetup
$IDL_DICT begin 0.0283465 dup scale MITERLIMIT
%%IncludeResource: font Helvetica
423.333 /Helvetica STDFONT
%%EndPageSetup
20 setlinewidth L0 0.000 0.000 0.000 setrgbcolor 8822 597 M 0 -245 R D
8822 527 M 53 53 R 35 17 R 53 0 R 35 -17 R 17 -53 R 0 -175 R D 9015 527 M
53 53 R 35 17 R 52 0 R 35 -17 R 18 -53 R 0 -175 R D 9471 790 M -35 -35 R
-35 -52 R -35 -70 R -18 -88 R 0 -70 R 18 -88 R 35 -87 R 35 -53 R 35 -35 R D
9681 720 M -52 -17 R -35 -53 R -18 -88 R 0 -52 R 18 -88 R 35 -52 R 52 -18 R
35 0 R 53 18 R 35 52 R 17 88 R 0 52 R -17 88 R -35 53 R -53 17 R -35 0 R D
9927 790 M 35 -35 R 35 -52 R 35 -70 R 17 -88 R 0 -70 R -17 -88 R -35 -87 R
-35 -53 R -35 -35 R D 10470 790 M -316 -578 R D 10575 720 M 0 -368 R D
10575 720 M 140 -368 R 140 368 R 0 -368 R D 11118 790 M -35 -35 R -35 -52 R
-35 -70 R -17 -88 R 0 -70 R 17 -88 R 35 -87 R 35 -53 R 35 -35 R D
11329 720 M -53 -17 R -35 -53 R -17 -88 R 0 -52 R 17 -88 R 35 -52 R 53 -18 R
35 0 R 52 18 R 35 52 R 18 88 R 0 52 R -18 88 R -35 53 R -52 17 R -35 0 R D
11574 790 M 35 -35 R 35 -52 R 35 -70 R 18 -88 R 0 -70 R -18 -88 R -35 -87 R
-35 -53 R -35 -35 R D 900 6635 M 368 0 R D 900 6757 M 18 18 R -18 17 R
-17 -17 R 17 -18 R D 1023 6775 M 245 0 R D 900 7020 M 0 -35 R 18 -35 R
52 -18 R 298 0 R D 1023 6880 M 0 123 R D 1128 7108 M 0 210 R -35 0 R
-35 -17 R -18 -18 R -17 -35 R 0 -53 R 17 -35 R 35 -35 R 53 -17 R 35 0 R
53 17 R 35 35 R 17 35 R 0 53 R -17 35 R -35 35 R D 900 7739 M 298 0 R
53 17 R 17 35 R 0 35 R D 1023 7686 M 0 123 R D 900 7914 M 18 17 R -18 18 R
-17 -18 R 17 -17 R D 1023 7931 M 245 0 R D 1023 8072 M 245 0 R D 1093 8072 M
-53 52 R -17 35 R 0 53 R 17 35 R 53 17 R 175 0 R D 1093 8264 M -53 53 R
-17 35 R 0 53 R 17 35 R 53 17 R 175 0 R D 1128 8580 M 0 210 R -35 0 R
-35 -17 R -18 -18 R -17 -35 R 0 -52 R 17 -35 R 35 -36 R 53 -17 R 35 0 R
53 17 R 35 36 R 17 35 R 0 52 R -17 35 R -35 35 R D 830 9193 M 578 -315 R D
988 9544 M -35 -18 R -35 -35 R -18 -35 R 0 -70 R 18 -35 R 35 -35 R 35 -17 R
52 -18 R 88 0 R 52 18 R 36 17 R 35 35 R 17 35 R 0 70 R -17 35 R -35 35 R
-36 18 R -52 0 R 0 -88 R D 1023 9632 M 245 105 R -245 105 R D 1268 9737 M
88 -35 R 35 -35 R 17 -35 R 0 -18 R D 1023 9947 M 245 0 R D 1128 9947 M
-53 18 R -35 35 R -17 35 R 0 52 R D 2600 10667 M 4611 0 R D 2600 10667 M
0 185 R D 3522 10667 M 0 185 R D 4445 10667 M 0 185 R D 5367 10667 M 0 185 R
D 6289 10667 M 0 185 R D 7211 10667 M 0 185 R D 2785 10667 M 0 92 R D
2969 10667 M 0 92 R D 3153 10667 M 0 92 R D 3338 10667 M 0 92 R D
3707 10667 M 0 92 R D 3891 10667 M 0 92 R D 4076 10667 M 0 92 R D
4260 10667 M 0 92 R D 4629 10667 M 0 92 R D 4814 10667 M 0 92 R D
4998 10667 M 0 92 R D 5182 10667 M 0 92 R D 5551 10667 M 0 92 R D
5736 10667 M 0 92 R D 5920 10667 M 0 92 R D 6105 10667 M 0 92 R D
6474 10667 M 0 92 R D 6658 10667 M 0 92 R D 6843 10667 M 0 92 R D
7027 10667 M 0 92 R D 2600 15296 M 4611 0 R D 2600 15296 M 0 -185 R D
3522 15296 M 0 -185 R D 4445 15296 M 0 -185 R D 5367 15296 M 0 -185 R D
6289 15296 M 0 -185 R D 7211 15296 M 0 -185 R D 2785 15296 M 0 -93 R D
2969 15296 M 0 -93 R D 3153 15296 M 0 -93 R D 3338 15296 M 0 -93 R D
3707 15296 M 0 -93 R D 3891 15296 M 0 -93 R D 4076 15296 M 0 -93 R D
4260 15296 M 0 -93 R D 4629 15296 M 0 -93 R D 4814 15296 M 0 -93 R D
4998 15296 M 0 -93 R D 5182 15296 M 0 -93 R D 5551 15296 M 0 -93 R D
5736 15296 M 0 -93 R D 5920 15296 M 0 -93 R D 6105 15296 M 0 -93 R D
6474 15296 M 0 -93 R D 6658 15296 M 0 -93 R D 6843 15296 M 0 -93 R D
7027 15296 M 0 -93 R D 2600 10667 M 0 4629 R D 2600 11716 M 185 0 R D
2290 11762 M 0 11 R 12 24 R 12 12 R 23 11 R 47 0 R 23 -11 R 12 -12 R
12 -24 R 0 -23 R -12 -23 R -23 -35 R -117 -117 R 163 0 R D 2600 12860 M
185 0 R D 2396 12965 M -117 -164 R 175 0 R D 2396 12965 M 0 -246 R D
2600 14004 M 185 0 R D 2431 14074 M -12 23 R -35 12 R -23 0 R -35 -12 R
-24 -35 R -12 -58 R 0 -59 R 12 -46 R 24 -24 R 35 -11 R 11 0 R 35 11 R
24 24 R 11 35 R 0 11 R -11 35 R -24 24 R -35 12 R -11 0 R -35 -12 R
-24 -24 R -12 -35 R D 2600 15149 M 185 0 R D 2337 15253 M -35 -11 R
-12 -24 R 0 -23 R 12 -23 R 24 -12 R 46 -12 R 35 -11 R 24 -24 R 11 -23 R
0 -35 R -11 -24 R -12 -11 R -35 -12 R -47 0 R -35 12 R -12 11 R -11 24 R
0 35 R 11 23 R 24 24 R 35 11 R 47 12 R 23 12 R 12 23 R 0 23 R -12 24 R
-35 11 R -47 0 R D 2600 10857 M 92 0 R D 2600 11143 M 92 0 R D 2600 11430 M
92 0 R D 2600 12002 M 92 0 R D 2600 12288 M 92 0 R D 2600 12574 M 92 0 R D
2600 13146 M 92 0 R D 2600 13432 M 92 0 R D 2600 13718 M 92 0 R D
2600 14291 M 92 0 R D 2600 14577 M 92 0 R D 2600 14863 M 92 0 R D
7211 10667 M 0 4629 R D 7211 11716 M -184 0 R D 7211 12860 M -184 0 R D
7211 14004 M -184 0 R D 7211 15149 M -184 0 R D 7211 10857 M -92 0 R D
7211 11143 M -92 0 R D 7211 11430 M -92 0 R D 7211 12002 M -92 0 R D
7211 12288 M -92 0 R D 7211 12574 M -92 0 R D 7211 13146 M -92 0 R D
7211 13432 M -92 0 R D 7211 13718 M -92 0 R D 7211 14291 M -92 0 R D
7211 14577 M -92 0 R D 7211 14863 M -92 0 R D L1 2600 15296 M 461 -1536 R
461 -752 R 554 -516 R 369 -228 R 922 -369 R 922 -221 R 922 -148 R D L2
3058 15296 M 3 -9 R 461 -789 R 554 -577 R 369 -268 R 922 -454 R 922 -287 R
922 -200 R D L0 0.761 0.000 0.000 setrgbcolor 2600 13393 M 461 -1200 R
461 -409 R 554 -326 R 369 -131 R 922 -173 R 922 -53 R 922 -12 R D
50 setlinewidth 2986 15296 M 75 -1850 R 461 -1284 R 554 -459 R 369 -181 R
922 -297 R 922 -114 R 922 -17 R D 80 setlinewidth 4373 15296 M 72 -2300 R
922 -1451 R 922 -281 R 922 -155 R D 20 setlinewidth
0.000 0.000 0.000 setrgbcolor 5507 14881 M -23 12 R -35 0 R -24 -12 R
-23 -23 R -12 -35 R 0 -35 R 12 -36 R 12 -11 R 23 -12 R 35 0 R 23 12 R D
5390 14811 M 94 0 R D 5589 14869 M 210 0 R D 5589 14799 M 210 0 R D
5951 14974 M -35 -11 R -23 -35 R -12 -59 R 0 -35 R 12 -58 R 23 -35 R
35 -12 R 23 0 R 36 12 R 23 35 R 12 58 R 0 35 R -12 59 R -23 35 R -36 11 R
-23 0 R D 6138 14752 M -12 -11 R 12 -12 R 12 12 R -12 11 R D 6255 14974 M
128 0 R -70 -93 R 35 0 R 24 -12 R 11 -11 R 12 -35 R 0 -24 R -12 -35 R
-23 -23 R -35 -12 R -35 0 R -35 12 R -12 11 R -11 24 R D 7971 10667 M
4612 0 R D 7971 10667 M 0 185 R D 8894 10667 M 0 185 R D 9816 10667 M
0 185 R D 10738 10667 M 0 185 R D 11660 10667 M 0 185 R D 12583 10667 M
0 185 R D 8156 10667 M 0 92 R D 8340 10667 M 0 92 R D 8525 10667 M 0 92 R D
8709 10667 M 0 92 R D 9078 10667 M 0 92 R D 9263 10667 M 0 92 R D
9447 10667 M 0 92 R D 9632 10667 M 0 92 R D 10000 10667 M 0 92 R D
10185 10667 M 0 92 R D 10369 10667 M 0 92 R D 10554 10667 M 0 92 R D
10923 10667 M 0 92 R D 11107 10667 M 0 92 R D 11292 10667 M 0 92 R D
11476 10667 M 0 92 R D 11845 10667 M 0 92 R D 12029 10667 M 0 92 R D
12214 10667 M 0 92 R D 12398 10667 M 0 92 R D 7971 15296 M 4612 0 R D
7971 15296 M 0 -185 R D 8894 15296 M 0 -185 R D 9816 15296 M 0 -185 R D
10738 15296 M 0 -185 R D 11660 15296 M 0 -185 R D 12583 15296 M 0 -185 R D
8156 15296 M 0 -93 R D 8340 15296 M 0 -93 R D 8525 15296 M 0 -93 R D
8709 15296 M 0 -93 R D 9078 15296 M 0 -93 R D 9263 15296 M 0 -93 R D
9447 15296 M 0 -93 R D 9632 15296 M 0 -93 R D 10000 15296 M 0 -93 R D
10185 15296 M 0 -93 R D 10369 15296 M 0 -93 R D 10554 15296 M 0 -93 R D
10923 15296 M 0 -93 R D 11107 15296 M 0 -93 R D 11292 15296 M 0 -93 R D
11476 15296 M 0 -93 R D 11845 15296 M 0 -93 R D 12029 15296 M 0 -93 R D
12214 15296 M 0 -93 R D 12398 15296 M 0 -93 R D 7971 10667 M 0 4629 R D
7971 11354 M 185 0 R D 7662 11400 M 0 12 R 11 23 R 12 12 R 24 11 R 46 0 R
24 -11 R 11 -12 R 12 -23 R 0 -24 R -12 -23 R -23 -35 R -117 -117 R 164 0 R D
7971 12136 M 185 0 R D 7767 12241 M -117 -164 R 175 0 R D 7767 12241 M
0 -245 R D 7971 12919 M 185 0 R D 7802 12989 M -12 23 R -35 12 R -23 0 R
-35 -12 R -24 -35 R -11 -59 R 0 -58 R 11 -47 R 24 -23 R 35 -12 R 12 0 R
35 12 R 23 23 R 12 35 R 0 12 R -12 35 R -23 23 R -35 12 R -12 0 R -35 -12 R
-24 -23 R -11 -35 R D 7971 13702 M 185 0 R D 7709 13806 M -36 -11 R
-11 -24 R 0 -23 R 11 -24 R 24 -11 R 47 -12 R 35 -12 R 23 -23 R 12 -23 R
0 -35 R -12 -24 R -12 -11 R -35 -12 R -46 0 R -36 12 R -11 11 R -12 24 R
0 35 R 12 23 R 23 23 R 35 12 R 47 12 R 23 11 R 12 24 R 0 23 R -12 24 R
-35 11 R -46 0 R D 7971 14484 M 185 0 R D 7451 14542 M 24 12 R 35 35 R
0 -245 R D 7720 14589 M -35 -12 R -23 -35 R -12 -58 R 0 -35 R 12 -59 R
23 -35 R 35 -11 R 24 0 R 35 11 R 23 35 R 12 59 R 0 35 R -12 58 R -23 35 R
-35 12 R -24 0 R D 7971 15267 M 185 0 R D 7451 15248 M 24 12 R 35 35 R
0 -245 R D 7662 15237 M 0 11 R 11 24 R 12 11 R 24 12 R 46 0 R 24 -12 R
11 -11 R 12 -24 R 0 -23 R -12 -23 R -23 -35 R -117 -117 R 164 0 R D
7971 10767 M 93 0 R D 7971 10963 M 93 0 R D 7971 11158 M 93 0 R D
7971 11550 M 93 0 R D 7971 11745 M 93 0 R D 7971 11941 M 93 0 R D
7971 12332 M 93 0 R D 7971 12528 M 93 0 R D 7971 12723 M 93 0 R D
7971 13115 M 93 0 R D 7971 13310 M 93 0 R D 7971 13506 M 93 0 R D
7971 13897 M 93 0 R D 7971 14093 M 93 0 R D 7971 14289 M 93 0 R D
7971 14680 M 93 0 R D 7971 14876 M 93 0 R D 7971 15071 M 93 0 R D
12583 10667 M 0 4629 R D 12583 11354 M -185 0 R D 12583 12136 M -185 0 R D
12583 12919 M -185 0 R D 12583 13702 M -185 0 R D 12583 14484 M -185 0 R D
12583 15267 M -185 0 R D 12583 10767 M -92 0 R D 12583 10963 M -92 0 R D
12583 11158 M -92 0 R D 12583 11550 M -92 0 R D 12583 11745 M -92 0 R D
12583 11941 M -92 0 R D 12583 12332 M -92 0 R D 12583 12528 M -92 0 R D
12583 12723 M -92 0 R D 12583 13115 M -92 0 R D 12583 13310 M -92 0 R D
12583 13506 M -92 0 R D 12583 13897 M -92 0 R D 12583 14093 M -92 0 R D
12583 14289 M -92 0 R D 12583 14680 M -92 0 R D 12583 14876 M -92 0 R D
12583 15071 M -92 0 R D L1 7971 15296 M 462 -1536 R 461 -752 R 553 -516 R
369 -228 R 922 -369 R 922 -221 R 922 -148 R D L2 8035 15296 M 398 -1000 R
461 -623 R 553 -456 R 369 -211 R 922 -359 R 922 -227 R 922 -158 R D L0
0.761 0.000 0.000 setrgbcolor 7971 13351 M 462 -1079 R 461 -543 R 553 -281 R
369 -124 R 922 -209 R 922 -74 R 922 -45 R D 50 setlinewidth 8344 15296 M
89 -1654 R 461 -1391 R 553 -566 R 369 -205 R 922 -258 R 922 -144 R 922 -59 R
D 80 setlinewidth 10419 15296 M 319 -3699 R 922 -356 R 922 -137 R D
20 setlinewidth 0.000 0.000 0.000 setrgbcolor 10878 14881 M -23 12 R -35 0 R
-23 -12 R -24 -23 R -11 -35 R 0 -35 R 11 -36 R 12 -11 R 23 -12 R 35 0 R
24 12 R D 10762 14811 M 93 0 R D 10960 14869 M 211 0 R D 10960 14799 M
211 0 R D 11322 14974 M -35 -11 R -23 -35 R -12 -59 R 0 -35 R 12 -58 R
23 -35 R 35 -12 R 24 0 R 35 12 R 23 35 R 12 58 R 0 35 R -12 59 R -23 35 R
-35 11 R -24 0 R D 11509 14752 M -11 -11 R 11 -12 R 12 12 R -12 11 R D
11743 14974 M -117 0 R -11 -105 R 11 12 R 35 12 R 35 0 R 35 -12 R 24 -23 R
11 -35 R 0 -24 R -11 -35 R -24 -23 R -35 -12 R -35 0 R -35 12 R -11 11 R
-12 24 R D 13343 10667 M 4611 0 R D 13343 10667 M 0 185 R D 14265 10667 M
0 185 R D 15187 10667 M 0 185 R D 16110 10667 M 0 185 R D 17032 10667 M
0 185 R D 17954 10667 M 0 185 R D 13527 10667 M 0 92 R D 13712 10667 M
0 92 R D 13896 10667 M 0 92 R D 14081 10667 M 0 92 R D 14449 10667 M 0 92 R
D 14634 10667 M 0 92 R D 14818 10667 M 0 92 R D 15003 10667 M 0 92 R D
15372 10667 M 0 92 R D 15556 10667 M 0 92 R D 15741 10667 M 0 92 R D
15925 10667 M 0 92 R D 16294 10667 M 0 92 R D 16478 10667 M 0 92 R D
16663 10667 M 0 92 R D 16847 10667 M 0 92 R D 17216 10667 M 0 92 R D
17401 10667 M 0 92 R D 17585 10667 M 0 92 R D 17770 10667 M 0 92 R D
13343 15296 M 4611 0 R D 13343 15296 M 0 -185 R D 14265 15296 M 0 -185 R D
15187 15296 M 0 -185 R D 16110 15296 M 0 -185 R D 17032 15296 M 0 -185 R D
17954 15296 M 0 -185 R D 13527 15296 M 0 -93 R D 13712 15296 M 0 -93 R D
13896 15296 M 0 -93 R D 14081 15296 M 0 -93 R D 14449 15296 M 0 -93 R D
14634 15296 M 0 -93 R D 14818 15296 M 0 -93 R D 15003 15296 M 0 -93 R D
15372 15296 M 0 -93 R D 15556 15296 M 0 -93 R D 15741 15296 M 0 -93 R D
15925 15296 M 0 -93 R D 16294 15296 M 0 -93 R D 16478 15296 M 0 -93 R D
16663 15296 M 0 -93 R D 16847 15296 M 0 -93 R D 17216 15296 M 0 -93 R D
17401 15296 M 0 -93 R D 17585 15296 M 0 -93 R D 17770 15296 M 0 -93 R D
13343 10667 M 0 4629 R D 13343 11328 M 184 0 R D 13162 11432 M -117 0 R
-12 -105 R 12 12 R 35 12 R 35 0 R 35 -12 R 23 -23 R 12 -35 R 0 -24 R
-12 -35 R -23 -23 R -35 -12 R -35 0 R -35 12 R -12 11 R -12 24 R D
13343 12085 M 184 0 R D 12823 12142 M 23 12 R 35 35 R 0 -245 R D
13092 12189 M -36 -12 R -23 -35 R -12 -58 R 0 -35 R 12 -58 R 23 -36 R
36 -11 R 23 0 R 35 11 R 23 36 R 12 58 R 0 35 R -12 58 R -23 35 R -35 12 R
-23 0 R D 13343 12841 M 184 0 R D 12823 12899 M 23 12 R 35 35 R 0 -246 R D
13162 12946 M -117 0 R -12 -105 R 12 11 R 35 12 R 35 0 R 35 -12 R 23 -23 R
12 -35 R 0 -23 R -12 -35 R -23 -24 R -35 -12 R -35 0 R -35 12 R -12 12 R
-12 23 R D 13343 13598 M 184 0 R D 12799 13644 M 0 12 R 12 23 R 12 12 R
23 11 R 47 0 R 23 -11 R 12 -12 R 12 -23 R 0 -24 R -12 -23 R -23 -35 R
-117 -117 R 163 0 R D 13092 13702 M -36 -11 R -23 -35 R -12 -59 R 0 -35 R
12 -58 R 23 -35 R 36 -12 R 23 0 R 35 12 R 23 35 R 12 58 R 0 35 R -12 59 R
-23 35 R -35 11 R -23 0 R D 13343 14355 M 184 0 R D 12799 14401 M 0 11 R
12 24 R 12 11 R 23 12 R 47 0 R 23 -12 R 12 -11 R 12 -24 R 0 -23 R -12 -23 R
-23 -35 R -117 -117 R 163 0 R D 13162 14459 M -117 0 R -12 -105 R 12 12 R
35 11 R 35 0 R 35 -11 R 23 -24 R 12 -35 R 0 -23 R -12 -35 R -23 -24 R
-35 -11 R -35 0 R -35 11 R -12 12 R -12 24 R D 13343 15111 M 184 0 R D
12811 15216 M 129 0 R -70 -94 R 35 0 R 23 -11 R 12 -12 R 11 -35 R 0 -23 R
-11 -35 R -24 -24 R -35 -12 R -35 0 R -35 12 R -12 12 R -11 23 R D
13092 15216 M -36 -12 R -23 -35 R -12 -58 R 0 -35 R 12 -59 R 23 -35 R
36 -12 R 23 0 R 35 12 R 23 35 R 12 59 R 0 35 R -12 58 R -23 35 R -35 12 R
-23 0 R D 13343 10723 M 92 0 R D 13343 10874 M 92 0 R D 13343 11025 M 92 0 R
D 13343 11177 M 92 0 R D 13343 11479 M 92 0 R D 13343 11631 M 92 0 R D
13343 11782 M 92 0 R D 13343 11933 M 92 0 R D 13343 12236 M 92 0 R D
13343 12387 M 92 0 R D 13343 12539 M 92 0 R D 13343 12690 M 92 0 R D
13343 12993 M 92 0 R D 13343 13144 M 92 0 R D 13343 13295 M 92 0 R D
13343 13447 M 92 0 R D 13343 13749 M 92 0 R D 13343 13901 M 92 0 R D
13343 14052 M 92 0 R D 13343 14203 M 92 0 R D 13343 14506 M 92 0 R D
13343 14657 M 92 0 R D 13343 14809 M 92 0 R D 13343 14960 M 92 0 R D
13343 15263 M 92 0 R D 17954 10667 M 0 4629 R D 17954 11328 M -184 0 R D
17954 12085 M -184 0 R D 17954 12841 M -184 0 R D 17954 13598 M -184 0 R D
17954 14355 M -184 0 R D 17954 15111 M -184 0 R D 17954 10723 M -92 0 R D
17954 10874 M -92 0 R D 17954 11025 M -92 0 R D 17954 11177 M -92 0 R D
17954 11479 M -92 0 R D 17954 11631 M -92 0 R D 17954 11782 M -92 0 R D
17954 11933 M -92 0 R D 17954 12236 M -92 0 R D 17954 12387 M -92 0 R D
17954 12539 M -92 0 R D 17954 12690 M -92 0 R D 17954 12993 M -92 0 R D
17954 13144 M -92 0 R D 17954 13295 M -92 0 R D 17954 13447 M -92 0 R D
17954 13749 M -92 0 R D 17954 13901 M -92 0 R D 17954 14052 M -92 0 R D
17954 14203 M -92 0 R D 17954 14506 M -92 0 R D 17954 14657 M -92 0 R D
17954 14809 M -92 0 R D 17954 14960 M -92 0 R D 17954 15263 M -92 0 R D L1
13343 15296 M 461 -1536 R 461 -752 R 553 -516 R 369 -228 R 923 -369 R
922 -221 R 922 -148 R D L2 13343 12956 M 461 -567 R 461 -304 R 553 -222 R
369 -103 R 923 -176 R 922 -110 R 922 -77 R D L0
0.761 0.000 0.000 setrgbcolor 13343 12362 M 461 -585 R 461 -278 R 553 -184 R
369 -81 R 923 -121 R 922 -69 R 922 -41 R D 50 setlinewidth 13531 15296 M
273 -3015 R 461 -581 R 553 -287 R 369 -114 R 923 -154 R 922 -85 R 922 -47 R
D 80 setlinewidth 15426 15296 M 684 -4043 R 922 -144 R 922 -74 R D
20 setlinewidth 13931 14927 M 0 -245 R D 14025 14845 M 0 -163 R D
14025 14799 M 35 35 R 23 11 R 35 0 R 23 -11 R 12 -35 R 0 -117 R D
14305 14927 M -93 -245 R D 14305 14927 M 94 -245 R D 14457 14822 M 210 0 R D
14457 14752 M 210 0 R D 14761 14869 M 0 11 R 11 24 R 12 12 R 23 11 R 47 0 R
24 -11 R 11 -12 R 12 -24 R 0 -23 R -12 -23 R -23 -35 R -117 -117 R 164 0 R D
15006 14705 M -12 -11 R 12 -12 R 12 12 R -12 11 R D 15240 14927 M -117 0 R
-12 -105 R 12 12 R 35 11 R 35 0 R 35 -11 R 23 -24 R 12 -35 R 0 -23 R
-12 -35 R -23 -23 R -35 -12 R -35 0 R -35 12 R -12 11 R -11 24 R D
0.000 0.000 0.000 setrgbcolor 16250 14881 M -24 12 R -35 0 R -23 -12 R
-23 -23 R -12 -35 R 0 -35 R 12 -36 R 11 -11 R 24 -12 R 35 0 R 23 12 R D
16133 14811 M 93 0 R D 16332 14869 M 210 0 R D 16332 14799 M 210 0 R D
16659 14928 M 23 11 R 35 35 R 0 -245 R D 16881 14752 M -12 -11 R 12 -12 R
11 12 R -11 11 R D 17044 14974 M -35 -11 R -23 -35 R -12 -59 R 0 -35 R
12 -58 R 23 -35 R 35 -12 R 24 0 R 35 12 R 23 35 R 12 58 R 0 35 R -12 59 R
-23 35 R -35 11 R -24 0 R D 2600 6037 M 4611 0 R D 2600 6037 M 0 186 R D
3522 6037 M 0 186 R D 4445 6037 M 0 186 R D 5367 6037 M 0 186 R D
6289 6037 M 0 186 R D 7211 6037 M 0 186 R D 2785 6037 M 0 93 R D 2969 6037 M
0 93 R D 3153 6037 M 0 93 R D 3338 6037 M 0 93 R D 3707 6037 M 0 93 R D
3891 6037 M 0 93 R D 4076 6037 M 0 93 R D 4260 6037 M 0 93 R D 4629 6037 M
0 93 R D 4814 6037 M 0 93 R D 4998 6037 M 0 93 R D 5182 6037 M 0 93 R D
5551 6037 M 0 93 R D 5736 6037 M 0 93 R D 5920 6037 M 0 93 R D 6105 6037 M
0 93 R D 6474 6037 M 0 93 R D 6658 6037 M 0 93 R D 6843 6037 M 0 93 R D
7027 6037 M 0 93 R D 2600 10667 M 4611 0 R D 2600 10667 M 0 -185 R D
3522 10667 M 0 -185 R D 4445 10667 M 0 -185 R D 5367 10667 M 0 -185 R D
6289 10667 M 0 -185 R D 7211 10667 M 0 -185 R D 2785 10667 M 0 -93 R D
2969 10667 M 0 -93 R D 3153 10667 M 0 -93 R D 3338 10667 M 0 -93 R D
3707 10667 M 0 -93 R D 3891 10667 M 0 -93 R D 4076 10667 M 0 -93 R D
4260 10667 M 0 -93 R D 4629 10667 M 0 -93 R D 4814 10667 M 0 -93 R D
4998 10667 M 0 -93 R D 5182 10667 M 0 -93 R D 5551 10667 M 0 -93 R D
5736 10667 M 0 -93 R D 5920 10667 M 0 -93 R D 6105 10667 M 0 -93 R D
6474 10667 M 0 -93 R D 6658 10667 M 0 -93 R D 6843 10667 M 0 -93 R D
7027 10667 M 0 -93 R D 2600 6037 M 0 4630 R D 2600 7086 M 185 0 R D
2290 7132 M 0 12 R 12 24 R 12 11 R 23 12 R 47 0 R 23 -12 R 12 -11 R 12 -24 R
0 -23 R -12 -24 R -23 -35 R -117 -116 R 163 0 R D 2600 8231 M 185 0 R D
2396 8335 M -117 -163 R 175 0 R D 2396 8335 M 0 -245 R D 2600 9375 M 185 0 R
D 2431 9445 M -12 23 R -35 12 R -23 0 R -35 -12 R -24 -35 R -12 -58 R
0 -59 R 12 -47 R 24 -23 R 35 -12 R 11 0 R 35 12 R 24 23 R 11 35 R 0 12 R
-11 35 R -24 24 R -35 11 R -11 0 R -35 -11 R -24 -24 R -12 -35 R D
2600 10520 M 185 0 R D 2337 10624 M -35 -12 R -12 -23 R 0 -23 R 12 -24 R
24 -11 R 46 -12 R 35 -12 R 24 -23 R 11 -23 R 0 -36 R -11 -23 R -12 -12 R
-35 -11 R -47 0 R -35 11 R -12 12 R -11 23 R 0 36 R 11 23 R 24 23 R 35 12 R
47 12 R 23 11 R 12 24 R 0 23 R -12 23 R -35 12 R -47 0 R D 2600 6228 M
92 0 R D 2600 6514 M 92 0 R D 2600 6800 M 92 0 R D 2600 7372 M 92 0 R D
2600 7659 M 92 0 R D 2600 7945 M 92 0 R D 2600 8517 M 92 0 R D 2600 8803 M
92 0 R D 2600 9089 M 92 0 R D 2600 9661 M 92 0 R D 2600 9947 M 92 0 R D
2600 10233 M 92 0 R D 7211 6037 M 0 4630 R D 7211 7086 M -184 0 R D
7211 8231 M -184 0 R D 7211 9375 M -184 0 R D 7211 10520 M -184 0 R D
7211 6228 M -92 0 R D 7211 6514 M -92 0 R D 7211 6800 M -92 0 R D
7211 7372 M -92 0 R D 7211 7659 M -92 0 R D 7211 7945 M -92 0 R D
7211 8517 M -92 0 R D 7211 8803 M -92 0 R D 7211 9089 M -92 0 R D
7211 9661 M -92 0 R D 7211 9947 M -92 0 R D 7211 10233 M -92 0 R D L1
2600 10666 M 461 -1535 R 461 -753 R 554 -515 R 369 -228 R 922 -369 R
922 -221 R 922 -148 R D L2 3058 10666 M 3 -8 R 461 -789 R 554 -577 R
369 -268 R 922 -454 R 922 -288 R 922 -199 R D L0
0.000 0.549 0.000 setrgbcolor 2600 8723 M 461 -1173 R 461 -410 R 554 -315 R
369 -151 R 922 -150 R 922 -52 R 922 -12 R D 50 setlinewidth 2600 10269 M
461 -2122 R 461 -828 R 554 -354 R 369 -182 R 922 -224 R 922 -82 R 922 -15 R
D 80 setlinewidth 3489 10666 M 33 -716 R 554 -2671 R 369 -224 R 922 -352 R
922 -208 R 922 -26 R D 20 setlinewidth 0.000 0.000 0.000 setrgbcolor
5507 10252 M -23 11 R -35 0 R -24 -11 R -23 -24 R -12 -35 R 0 -35 R 12 -35 R
12 -12 R 23 -11 R 35 0 R 23 11 R D 5390 10182 M 94 0 R D 5589 10240 M
210 0 R D 5589 10170 M 210 0 R D 5951 10345 M -35 -12 R -23 -35 R -12 -58 R
0 -35 R 12 -58 R 23 -36 R 35 -11 R 23 0 R 36 11 R 23 36 R 12 58 R 0 35 R
-12 58 R -23 35 R -36 12 R -23 0 R D 6138 10123 M -12 -12 R 12 -11 R 12 11 R
-12 12 R D 6255 10345 M 128 0 R -70 -93 R 35 0 R 24 -12 R 11 -12 R 12 -35 R
0 -23 R -12 -35 R -23 -24 R -35 -11 R -35 0 R -35 11 R -12 12 R -11 24 R D
7971 6037 M 4612 0 R D 7971 6037 M 0 186 R D 8894 6037 M 0 186 R D
9816 6037 M 0 186 R D 10738 6037 M 0 186 R D 11660 6037 M 0 186 R D
12583 6037 M 0 186 R D 8156 6037 M 0 93 R D 8340 6037 M 0 93 R D 8525 6037 M
0 93 R D 8709 6037 M 0 93 R D 9078 6037 M 0 93 R D 9263 6037 M 0 93 R D
9447 6037 M 0 93 R D 9632 6037 M 0 93 R D 10000 6037 M 0 93 R D 10185 6037 M
0 93 R D 10369 6037 M 0 93 R D 10554 6037 M 0 93 R D 10923 6037 M 0 93 R D
11107 6037 M 0 93 R D 11292 6037 M 0 93 R D 11476 6037 M 0 93 R D
11845 6037 M 0 93 R D 12029 6037 M 0 93 R D 12214 6037 M 0 93 R D
12398 6037 M 0 93 R D 7971 10667 M 4612 0 R D 7971 10667 M 0 -185 R D
8894 10667 M 0 -185 R D 9816 10667 M 0 -185 R D 10738 10667 M 0 -185 R D
11660 10667 M 0 -185 R D 12583 10667 M 0 -185 R D 8156 10667 M 0 -93 R D
8340 10667 M 0 -93 R D 8525 10667 M 0 -93 R D 8709 10667 M 0 -93 R D
9078 10667 M 0 -93 R D 9263 10667 M 0 -93 R D 9447 10667 M 0 -93 R D
9632 10667 M 0 -93 R D 10000 10667 M 0 -93 R D 10185 10667 M 0 -93 R D
10369 10667 M 0 -93 R D 10554 10667 M 0 -93 R D 10923 10667 M 0 -93 R D
11107 10667 M 0 -93 R D 11292 10667 M 0 -93 R D 11476 10667 M 0 -93 R D
11845 10667 M 0 -93 R D 12029 10667 M 0 -93 R D 12214 10667 M 0 -93 R D
12398 10667 M 0 -93 R D 7971 6037 M 0 4630 R D 7971 6725 M 185 0 R D
7662 6771 M 0 11 R 11 24 R 12 11 R 24 12 R 46 0 R 24 -12 R 11 -11 R 12 -24 R
0 -23 R -12 -23 R -23 -35 R -117 -117 R 164 0 R D 7971 7507 M 185 0 R D
7767 7612 M -117 -164 R 175 0 R D 7767 7612 M 0 -246 R D 7971 8290 M 185 0 R
D 7802 8359 M -12 24 R -35 11 R -23 0 R -35 -11 R -24 -35 R -11 -59 R
0 -58 R 11 -47 R 24 -23 R 35 -12 R 12 0 R 35 12 R 23 23 R 12 35 R 0 12 R
-12 35 R -23 23 R -35 12 R -12 0 R -35 -12 R -24 -23 R -11 -35 R D
7971 9072 M 185 0 R D 7709 9177 M -36 -12 R -11 -23 R 0 -23 R 11 -24 R
24 -12 R 47 -11 R 35 -12 R 23 -23 R 12 -24 R 0 -35 R -12 -23 R -12 -12 R
-35 -11 R -46 0 R -36 11 R -11 12 R -12 23 R 0 35 R 12 24 R 23 23 R 35 12 R
47 11 R 23 12 R 12 24 R 0 23 R -12 23 R -35 12 R -46 0 R D 7971 9855 M
185 0 R D 7451 9913 M 24 11 R 35 36 R 0 -246 R D 7720 9960 M -35 -12 R
-23 -35 R -12 -59 R 0 -35 R 12 -58 R 23 -35 R 35 -12 R 24 0 R 35 12 R
23 35 R 12 58 R 0 35 R -12 59 R -23 35 R -35 12 R -24 0 R D 7971 10638 M
185 0 R D 7451 10619 M 24 12 R 35 35 R 0 -246 R D 7662 10607 M 0 12 R
11 23 R 12 12 R 24 12 R 46 0 R 24 -12 R 11 -12 R 12 -23 R 0 -23 R -12 -24 R
-23 -35 R -117 -117 R 164 0 R D 7971 6138 M 93 0 R D 7971 6333 M 93 0 R D
7971 6529 M 93 0 R D 7971 6920 M 93 0 R D 7971 7116 M 93 0 R D 7971 7311 M
93 0 R D 7971 7703 M 93 0 R D 7971 7898 M 93 0 R D 7971 8094 M 93 0 R D
7971 8485 M 93 0 R D 7971 8681 M 93 0 R D 7971 8877 M 93 0 R D 7971 9268 M
93 0 R D 7971 9464 M 93 0 R D 7971 9659 M 93 0 R D 7971 10051 M 93 0 R D
7971 10246 M 93 0 R D 7971 10442 M 93 0 R D 12583 6037 M 0 4630 R D
12583 6725 M -185 0 R D 12583 7507 M -185 0 R D 12583 8290 M -185 0 R D
12583 9072 M -185 0 R D 12583 9855 M -185 0 R D 12583 10638 M -185 0 R D
12583 6138 M -92 0 R D 12583 6333 M -92 0 R D 12583 6529 M -92 0 R D
12583 6920 M -92 0 R D 12583 7116 M -92 0 R D 12583 7311 M -92 0 R D
12583 7703 M -92 0 R D 12583 7898 M -92 0 R D 12583 8094 M -92 0 R D
12583 8485 M -92 0 R D 12583 8681 M -92 0 R D 12583 8877 M -92 0 R D
12583 9268 M -92 0 R D 12583 9464 M -92 0 R D 12583 9659 M -92 0 R D
12583 10051 M -92 0 R D 12583 10246 M -92 0 R D 12583 10442 M -92 0 R D L1
7971 10666 M 462 -1535 R 461 -753 R 553 -515 R 369 -228 R 922 -369 R
922 -221 R 922 -148 R D L2 8035 10666 M 398 -999 R 461 -623 R 553 -456 R
369 -212 R 922 -358 R 922 -228 R 922 -157 R D L0
0.000 0.549 0.000 setrgbcolor 7971 8663 M 462 -1044 R 461 -529 R 553 -275 R
369 -134 R 922 -201 R 922 -74 R 922 -39 R D 50 setlinewidth 7971 10511 M
462 -2353 R 461 -772 R 553 -462 R 369 -145 R 922 -232 R 922 -115 R 922 -53 R
D 80 setlinewidth 9275 10666 M 172 -3152 R 369 -411 R 922 -429 R 922 -177 R
922 -86 R D 20 setlinewidth 0.000 0.000 0.000 setrgbcolor 10878 10252 M
-23 11 R -35 0 R -23 -11 R -24 -24 R -11 -35 R 0 -35 R 11 -35 R 12 -12 R
23 -11 R 35 0 R 24 11 R D 10762 10182 M 93 0 R D 10960 10240 M 211 0 R D
10960 10170 M 211 0 R D 11322 10345 M -35 -12 R -23 -35 R -12 -58 R 0 -35 R
12 -58 R 23 -36 R 35 -11 R 24 0 R 35 11 R 23 36 R 12 58 R 0 35 R -12 58 R
-23 35 R -35 12 R -24 0 R D 11509 10123 M -11 -12 R 11 -11 R 12 11 R
-12 12 R D 11743 10345 M -117 0 R -11 -105 R 11 12 R 35 11 R 35 0 R 35 -11 R
24 -24 R 11 -35 R 0 -23 R -11 -35 R -24 -24 R -35 -11 R -35 0 R -35 11 R
-11 12 R -12 24 R D 13343 6037 M 4611 0 R D 13343 6037 M 0 186 R D
14265 6037 M 0 186 R D 15187 6037 M 0 186 R D 16110 6037 M 0 186 R D
17032 6037 M 0 186 R D 17954 6037 M 0 186 R D 13527 6037 M 0 93 R D
13712 6037 M 0 93 R D 13896 6037 M 0 93 R D 14081 6037 M 0 93 R D
14449 6037 M 0 93 R D 14634 6037 M 0 93 R D 14818 6037 M 0 93 R D
15003 6037 M 0 93 R D 15372 6037 M 0 93 R D 15556 6037 M 0 93 R D
15741 6037 M 0 93 R D 15925 6037 M 0 93 R D 16294 6037 M 0 93 R D
16478 6037 M 0 93 R D 16663 6037 M 0 93 R D 16847 6037 M 0 93 R D
17216 6037 M 0 93 R D 17401 6037 M 0 93 R D 17585 6037 M 0 93 R D
17770 6037 M 0 93 R D 13343 10667 M 4611 0 R D 13343 10667 M 0 -185 R D
14265 10667 M 0 -185 R D 15187 10667 M 0 -185 R D 16110 10667 M 0 -185 R D
17032 10667 M 0 -185 R D 17954 10667 M 0 -185 R D 13527 10667 M 0 -93 R D
13712 10667 M 0 -93 R D 13896 10667 M 0 -93 R D 14081 10667 M 0 -93 R D
14449 10667 M 0 -93 R D 14634 10667 M 0 -93 R D 14818 10667 M 0 -93 R D
15003 10667 M 0 -93 R D 15372 10667 M 0 -93 R D 15556 10667 M 0 -93 R D
15741 10667 M 0 -93 R D 15925 10667 M 0 -93 R D 16294 10667 M 0 -93 R D
16478 10667 M 0 -93 R D 16663 10667 M 0 -93 R D 16847 10667 M 0 -93 R D
17216 10667 M 0 -93 R D 17401 10667 M 0 -93 R D 17585 10667 M 0 -93 R D
17770 10667 M 0 -93 R D 13343 6037 M 0 4630 R D 13343 6699 M 184 0 R D
13162 6803 M -117 0 R -12 -105 R 12 12 R 35 11 R 35 0 R 35 -11 R 23 -24 R
12 -35 R 0 -23 R -12 -35 R -23 -24 R -35 -11 R -35 0 R -35 11 R -12 12 R
-12 24 R D 13343 7455 M 184 0 R D 12823 7513 M 23 12 R 35 35 R 0 -246 R D
13092 7560 M -36 -12 R -23 -35 R -12 -58 R 0 -35 R 12 -59 R 23 -35 R
36 -12 R 23 0 R 35 12 R 23 35 R 12 59 R 0 35 R -12 58 R -23 35 R -35 12 R
-23 0 R D 13343 8212 M 184 0 R D 12823 8270 M 23 11 R 35 35 R 0 -245 R D
13162 8316 M -117 0 R -12 -105 R 12 12 R 35 12 R 35 0 R 35 -12 R 23 -23 R
12 -35 R 0 -24 R -12 -35 R -23 -23 R -35 -12 R -35 0 R -35 12 R -12 11 R
-12 24 R D 13343 8969 M 184 0 R D 12799 9015 M 0 11 R 12 24 R 12 11 R
23 12 R 47 0 R 23 -12 R 12 -11 R 12 -24 R 0 -23 R -12 -23 R -23 -35 R
-117 -117 R 163 0 R D 13092 9073 M -36 -12 R -23 -35 R -12 -58 R 0 -35 R
12 -58 R 23 -36 R 36 -11 R 23 0 R 35 11 R 23 36 R 12 58 R 0 35 R -12 58 R
-23 35 R -35 12 R -23 0 R D 13343 9725 M 184 0 R D 12799 9771 M 0 12 R
12 23 R 12 12 R 23 12 R 47 0 R 23 -12 R 12 -12 R 12 -23 R 0 -23 R -12 -24 R
-23 -35 R -117 -117 R 163 0 R D 13162 9830 M -117 0 R -12 -105 R 12 11 R
35 12 R 35 0 R 35 -12 R 23 -23 R 12 -35 R 0 -23 R -12 -35 R -23 -24 R
-35 -12 R -35 0 R -35 12 R -12 12 R -12 23 R D 13343 10482 M 184 0 R D
12811 10587 M 129 0 R -70 -94 R 35 0 R 23 -12 R 12 -11 R 11 -35 R 0 -24 R
-11 -35 R -24 -23 R -35 -12 R -35 0 R -35 12 R -12 12 R -11 23 R D
13092 10587 M -36 -12 R -23 -35 R -12 -59 R 0 -35 R 12 -58 R 23 -35 R
36 -12 R 23 0 R 35 12 R 23 35 R 12 58 R 0 35 R -12 59 R -23 35 R -35 12 R
-23 0 R D 13343 6093 M 92 0 R D 13343 6245 M 92 0 R D 13343 6396 M 92 0 R D
13343 6547 M 92 0 R D 13343 6850 M 92 0 R D 13343 7001 M 92 0 R D
13343 7153 M 92 0 R D 13343 7304 M 92 0 R D 13343 7607 M 92 0 R D
13343 7758 M 92 0 R D 13343 7909 M 92 0 R D 13343 8061 M 92 0 R D
13343 8363 M 92 0 R D 13343 8515 M 92 0 R D 13343 8666 M 92 0 R D
13343 8817 M 92 0 R D 13343 9120 M 92 0 R D 13343 9271 M 92 0 R D
13343 9423 M 92 0 R D 13343 9574 M 92 0 R D 13343 9877 M 92 0 R D
13343 10028 M 92 0 R D 13343 10179 M 92 0 R D 13343 10331 M 92 0 R D
13343 10633 M 92 0 R D 17954 6037 M 0 4630 R D 17954 6699 M -184 0 R D
17954 7455 M -184 0 R D 17954 8212 M -184 0 R D 17954 8969 M -184 0 R D
17954 9725 M -184 0 R D 17954 10482 M -184 0 R D 17954 6093 M -92 0 R D
17954 6245 M -92 0 R D 17954 6396 M -92 0 R D 17954 6547 M -92 0 R D
17954 6850 M -92 0 R D 17954 7001 M -92 0 R D 17954 7153 M -92 0 R D
17954 7304 M -92 0 R D 17954 7607 M -92 0 R D 17954 7758 M -92 0 R D
17954 7909 M -92 0 R D 17954 8061 M -92 0 R D 17954 8363 M -92 0 R D
17954 8515 M -92 0 R D 17954 8666 M -92 0 R D 17954 8817 M -92 0 R D
17954 9120 M -92 0 R D 17954 9271 M -92 0 R D 17954 9423 M -92 0 R D
17954 9574 M -92 0 R D 17954 9877 M -92 0 R D 17954 10028 M -92 0 R D
17954 10179 M -92 0 R D 17954 10331 M -92 0 R D 17954 10633 M -92 0 R D L1
13343 10666 M 461 -1535 R 461 -753 R 553 -515 R 369 -228 R 923 -369 R
922 -221 R 922 -148 R D L2 13343 8327 M 461 -567 R 461 -304 R 553 -223 R
369 -103 R 923 -175 R 922 -111 R 922 -77 R D L0
0.000 0.549 0.000 setrgbcolor 13343 7708 M 461 -571 R 461 -273 R 553 -183 R
369 -76 R 923 -126 R 922 -64 R 922 -41 R D 50 setlinewidth 13343 8313 M
461 -975 R 461 -377 R 553 -229 R 369 -93 R 923 -142 R 922 -74 R 922 -44 R D
80 setlinewidth 13614 10666 M 190 -1115 R 461 -1307 R 553 -1358 R 369 -152 R
923 -197 R 922 -92 R 922 -57 R D 110 setlinewidth 14272 10666 M 546 -906 R
369 -323 R 923 -708 R 922 -321 R 922 -472 R D 20 setlinewidth 13931 10014 M
0 -245 R D 14025 9933 M 0 -164 R D 14025 9886 M 35 35 R 23 12 R 35 0 R
23 -12 R 12 -35 R 0 -117 R D 14305 10014 M -93 -245 R D 14305 10014 M
94 -245 R D 14457 9909 M 210 0 R D 14457 9839 M 210 0 R D 14761 9956 M
0 12 R 11 23 R 12 12 R 23 11 R 47 0 R 24 -11 R 11 -12 R 12 -23 R 0 -24 R
-12 -23 R -23 -35 R -117 -117 R 164 0 R D 15006 9792 M -12 -11 R 12 -12 R
12 12 R -12 11 R D 15240 10014 M -117 0 R -12 -105 R 12 12 R 35 12 R 35 0 R
35 -12 R 23 -23 R 12 -36 R 0 -23 R -12 -35 R -23 -23 R -35 -12 R -35 0 R
-35 12 R -12 11 R -11 24 R D 15450 9979 M 0 -210 R D 15345 9874 M 210 0 R D
15649 10014 M 0 -245 R D 15742 9933 M 0 -164 R D 15742 9886 M 35 35 R
24 12 R 35 0 R 23 -12 R 12 -35 R 0 -117 R D 15964 10061 M 0 -385 R D
15976 10061 M 0 -385 R D 15964 10061 M 82 0 R D 15964 9676 M 82 0 R D
16128 9933 M 0 -164 R D 16128 9886 M 35 35 R 23 12 R 35 0 R 24 -12 R
11 -35 R 0 -117 R D 16256 9886 M 35 35 R 24 12 R 35 0 R 23 -12 R 12 -35 R
0 -117 R D 16560 10061 M -23 -23 R -24 -35 R -23 -47 R -12 -58 R 0 -47 R
12 -59 R 23 -58 R 24 -35 R 23 -23 R D 16700 10014 M -35 -11 R -23 -35 R
-12 -59 R 0 -35 R 12 -58 R 23 -35 R 35 -12 R 24 0 R 35 12 R 23 35 R 12 58 R
0 35 R -12 59 R -23 35 R -35 11 R -24 0 R D 16864 10061 M 23 -23 R 24 -35 R
23 -47 R 12 -58 R 0 -47 R -12 -59 R -23 -58 R -24 -35 R -23 -23 R D
17226 10061 M -210 -385 R D 17296 9933 M 0 -164 R D 17296 9886 M 35 35 R
24 12 R 35 0 R 23 -12 R 12 -35 R 0 -117 R D 17425 9886 M 35 35 R 23 12 R
35 0 R 24 -12 R 11 -35 R 0 -117 R D 17729 10061 M -24 -23 R -23 -35 R
-24 -47 R -11 -58 R 0 -47 R 11 -59 R 24 -58 R 23 -35 R 24 -23 R D
17822 10014 M 0 -198 R 12 -35 R 23 -12 R 23 0 R D 17787 9933 M 82 0 R D
17939 10061 M 23 -23 R 24 -35 R 23 -47 R 12 -58 R 0 -47 R -12 -59 R
-23 -58 R -24 -35 R -23 -23 R D 18173 10061 M 0 -385 R D 18184 10061 M
0 -385 R D 18102 10061 M 82 0 R D 18102 9676 M 82 0 R D
0.000 0.000 0.000 setrgbcolor 16250 10252 M -24 11 R -35 0 R -23 -11 R
-23 -24 R -12 -35 R 0 -35 R 12 -35 R 11 -12 R 24 -11 R 35 0 R 23 11 R D
16133 10182 M 93 0 R D 16332 10240 M 210 0 R D 16332 10170 M 210 0 R D
16659 10298 M 23 12 R 35 35 R 0 -245 R D 16881 10123 M -12 -12 R 12 -11 R
11 11 R -11 12 R D 17044 10345 M -35 -12 R -23 -35 R -12 -58 R 0 -35 R
12 -58 R 23 -36 R 35 -11 R 24 0 R 35 11 R 23 36 R 12 58 R 0 35 R -12 58 R
-23 35 R -35 12 R -24 0 R D 2600 1408 M 4611 0 R D 2600 1408 M 0 185 R D
2348 1182 M -28 -9 R -19 -28 R -9 -47 R 0 -28 R 9 -47 R 19 -28 R 28 -9 R
18 0 R 28 9 R 19 28 R 9 47 R 0 28 R -9 47 R -19 28 R -28 9 R -18 0 R D
2497 1004 M -9 -9 R 9 -9 R 10 9 R -10 9 R D 2628 1182 M -28 -9 R -19 -28 R
-9 -47 R 0 -28 R 9 -47 R 19 -28 R 28 -9 R 19 0 R 28 9 R 19 28 R 9 47 R
0 28 R -9 47 R -19 28 R -28 9 R -19 0 R D 2871 1182 M -93 0 R -10 -84 R
10 9 R 28 10 R 28 0 R 28 -10 R 19 -18 R 9 -29 R 0 -18 R -9 -28 R -19 -19 R
-28 -9 R -28 0 R -28 9 R -10 9 R -9 19 R D 3522 1408 M 0 185 R D 3270 1182 M
-28 -9 R -19 -28 R -9 -47 R 0 -28 R 9 -47 R 19 -28 R 28 -9 R 19 0 R 28 9 R
18 28 R 10 47 R 0 28 R -10 47 R -18 28 R -28 9 R -19 0 R D 3420 1004 M
-10 -9 R 10 -9 R 9 9 R -9 9 R D 3522 1145 M 19 9 R 28 28 R 0 -196 R D
3737 1182 M -28 -9 R -18 -28 R -10 -47 R 0 -28 R 10 -47 R 18 -28 R 28 -9 R
19 0 R 28 9 R 19 28 R 9 47 R 0 28 R -9 47 R -19 28 R -28 9 R -19 0 R D
4445 1408 M 0 185 R D 4192 1182 M -28 -9 R -18 -28 R -10 -47 R 0 -28 R
10 -47 R 18 -28 R 28 -9 R 19 0 R 28 9 R 19 28 R 9 47 R 0 28 R -9 47 R
-19 28 R -28 9 R -19 0 R D 4342 1004 M -10 -9 R 10 -9 R 9 9 R -9 9 R D
4445 1145 M 18 9 R 28 28 R 0 -196 R D 4716 1182 M -94 0 R -9 -84 R 9 9 R
28 10 R 28 0 R 28 -10 R 19 -18 R 9 -29 R 0 -18 R -9 -28 R -19 -19 R -28 -9 R
-28 0 R -28 9 R -9 9 R -9 19 R D 5367 1408 M 0 185 R D 5115 1182 M -29 -9 R
-18 -28 R -10 -47 R 0 -28 R 10 -47 R 18 -28 R 29 -9 R 18 0 R 28 9 R 19 28 R
9 47 R 0 28 R -9 47 R -19 28 R -28 9 R -18 0 R D 5264 1004 M -9 -9 R 9 -9 R
9 9 R -9 9 R D 5348 1135 M 0 10 R 10 18 R 9 10 R 19 9 R 37 0 R 19 -9 R
9 -10 R 9 -18 R 0 -19 R -9 -19 R -19 -28 R -93 -93 R 131 0 R D 5582 1182 M
-28 -9 R -19 -28 R -9 -47 R 0 -28 R 9 -47 R 19 -28 R 28 -9 R 19 0 R 28 9 R
18 28 R 10 47 R 0 28 R -10 47 R -18 28 R -28 9 R -19 0 R D 6289 1408 M
0 185 R D 6037 1182 M -28 -9 R -19 -28 R -9 -47 R 0 -28 R 9 -47 R 19 -28 R
28 -9 R 18 0 R 29 9 R 18 28 R 10 47 R 0 28 R -10 47 R -18 28 R -29 9 R
-18 0 R D 6186 1004 M -9 -9 R 9 -9 R 10 9 R -10 9 R D 6270 1135 M 0 10 R
10 18 R 9 10 R 19 9 R 37 0 R 19 -9 R 9 -10 R 10 -18 R 0 -19 R -10 -19 R
-18 -28 R -94 -93 R 131 0 R D 6560 1182 M -93 0 R -10 -84 R 10 9 R 28 10 R
28 0 R 28 -10 R 19 -18 R 9 -29 R 0 -18 R -9 -28 R -19 -19 R -28 -9 R -28 0 R
-28 9 R -10 9 R -9 19 R D 7211 1408 M 0 185 R D 6959 1182 M -28 -9 R
-19 -28 R -9 -47 R 0 -28 R 9 -47 R 19 -28 R 28 -9 R 19 0 R 28 9 R 18 28 R
10 47 R 0 28 R -10 47 R -18 28 R -28 9 R -19 0 R D 7109 1004 M -10 -9 R
10 -9 R 9 9 R -9 9 R D 7202 1182 M 103 0 R -56 -75 R 28 0 R 19 -9 R 9 -9 R
9 -29 R 0 -18 R -9 -28 R -19 -19 R -28 -9 R -28 0 R -28 9 R -9 9 R -10 19 R
D 7426 1182 M -28 -9 R -18 -28 R -10 -47 R 0 -28 R 10 -47 R 18 -28 R 28 -9 R
19 0 R 28 9 R 19 28 R 9 47 R 0 28 R -9 47 R -19 28 R -28 9 R -19 0 R D
2785 1408 M 0 93 R D 2969 1408 M 0 93 R D 3153 1408 M 0 93 R D 3338 1408 M
0 93 R D 3707 1408 M 0 93 R D 3891 1408 M 0 93 R D 4076 1408 M 0 93 R D
4260 1408 M 0 93 R D 4629 1408 M 0 93 R D 4814 1408 M 0 93 R D 4998 1408 M
0 93 R D 5182 1408 M 0 93 R D 5551 1408 M 0 93 R D 5736 1408 M 0 93 R D
5920 1408 M 0 93 R D 6105 1408 M 0 93 R D 6474 1408 M 0 93 R D 6658 1408 M
0 93 R D 6843 1408 M 0 93 R D 7027 1408 M 0 93 R D 2600 6037 M 4611 0 R D
2600 6037 M 0 -185 R D 3522 6037 M 0 -185 R D 4445 6037 M 0 -185 R D
5367 6037 M 0 -185 R D 6289 6037 M 0 -185 R D 7211 6037 M 0 -185 R D
2785 6037 M 0 -92 R D 2969 6037 M 0 -92 R D 3153 6037 M 0 -92 R D
3338 6037 M 0 -92 R D 3707 6037 M 0 -92 R D 3891 6037 M 0 -92 R D
4076 6037 M 0 -92 R D 4260 6037 M 0 -92 R D 4629 6037 M 0 -92 R D
4814 6037 M 0 -92 R D 4998 6037 M 0 -92 R D 5182 6037 M 0 -92 R D
5551 6037 M 0 -92 R D 5736 6037 M 0 -92 R D 5920 6037 M 0 -92 R D
6105 6037 M 0 -92 R D 6474 6037 M 0 -92 R D 6658 6037 M 0 -92 R D
6843 6037 M 0 -92 R D 7027 6037 M 0 -92 R D 2600 1408 M 0 4629 R D
2600 2457 M 185 0 R D 2290 2503 M 0 12 R 12 23 R 12 12 R 23 12 R 47 0 R
23 -12 R 12 -12 R 12 -23 R 0 -24 R -12 -23 R -23 -35 R -117 -117 R 163 0 R D
2600 3601 M 185 0 R D 2396 3706 M -117 -164 R 175 0 R D 2396 3706 M 0 -245 R
D 2600 4746 M 185 0 R D 2431 4815 M -12 24 R -35 11 R -23 0 R -35 -11 R
-24 -35 R -12 -59 R 0 -58 R 12 -47 R 24 -23 R 35 -12 R 11 0 R 35 12 R
24 23 R 11 35 R 0 12 R -11 35 R -24 23 R -35 12 R -11 0 R -35 -12 R
-24 -23 R -12 -35 R D 2600 5890 M 185 0 R D 2337 5995 M -35 -12 R -12 -23 R
0 -24 R 12 -23 R 24 -12 R 46 -11 R 35 -12 R 24 -23 R 11 -24 R 0 -35 R
-11 -23 R -12 -12 R -35 -12 R -47 0 R -35 12 R -12 12 R -11 23 R 0 35 R
11 24 R 24 23 R 35 12 R 47 11 R 23 12 R 12 23 R 0 24 R -12 23 R -35 12 R
-47 0 R D 2600 1599 M 92 0 R D 2600 1885 M 92 0 R D 2600 2171 M 92 0 R D
2600 2743 M 92 0 R D 2600 3029 M 92 0 R D 2600 3315 M 92 0 R D 2600 3887 M
92 0 R D 2600 4174 M 92 0 R D 2600 4460 M 92 0 R D 2600 5032 M 92 0 R D
2600 5318 M 92 0 R D 2600 5604 M 92 0 R D 7211 1408 M 0 4629 R D 7211 2457 M
-184 0 R D 7211 3601 M -184 0 R D 7211 4746 M -184 0 R D 7211 5890 M
-184 0 R D 7211 1599 M -92 0 R D 7211 1885 M -92 0 R D 7211 2171 M -92 0 R D
7211 2743 M -92 0 R D 7211 3029 M -92 0 R D 7211 3315 M -92 0 R D
7211 3887 M -92 0 R D 7211 4174 M -92 0 R D 7211 4460 M -92 0 R D
7211 5032 M -92 0 R D 7211 5318 M -92 0 R D 7211 5604 M -92 0 R D L1
2600 6037 M 461 -1535 R 461 -753 R 554 -516 R 369 -227 R 922 -369 R
922 -221 R 922 -148 R D L2 3058 6037 M 3 -9 R 461 -788 R 554 -578 R
369 -267 R 922 -455 R 922 -287 R 922 -200 R D L0
0.000 0.000 1.000 setrgbcolor 2600 3589 M 461 -723 R 461 -241 R 554 -195 R
369 -83 R 922 -163 R 922 -66 R 922 -46 R D 50 setlinewidth 2600 4596 M
461 -1167 R 461 -626 R 554 -222 R 369 -103 R 922 -181 R 922 -110 R 922 -75 R
D 80 setlinewidth 3952 6037 M 124 -2738 R 369 -260 R 922 -524 R 922 -151 R
922 -103 R D 20 setlinewidth 0.000 0.000 0.000 setrgbcolor 5507 5622 M
-23 12 R -35 0 R -24 -12 R -23 -23 R -12 -35 R 0 -35 R 12 -35 R 12 -12 R
23 -12 R 35 0 R 23 12 R D 5390 5552 M 94 0 R D 5589 5611 M 210 0 R D
5589 5541 M 210 0 R D 5951 5716 M -35 -12 R -23 -35 R -12 -58 R 0 -35 R
12 -59 R 23 -35 R 35 -12 R 23 0 R 36 12 R 23 35 R 12 59 R 0 35 R -12 58 R
-23 35 R -36 12 R -23 0 R D 6138 5494 M -12 -12 R 12 -12 R 12 12 R -12 12 R
D 6255 5716 M 128 0 R -70 -94 R 35 0 R 24 -11 R 11 -12 R 12 -35 R 0 -23 R
-12 -36 R -23 -23 R -35 -12 R -35 0 R -35 12 R -12 12 R -11 23 R D
7971 1408 M 4612 0 R D 7971 1408 M 0 185 R D 7719 1182 M -28 -9 R -19 -28 R
-9 -47 R 0 -28 R 9 -47 R 19 -28 R 28 -9 R 19 0 R 28 9 R 18 28 R 10 47 R
0 28 R -10 47 R -18 28 R -28 9 R -19 0 R D 7869 1004 M -10 -9 R 10 -9 R
9 9 R -9 9 R D 7999 1182 M -28 -9 R -18 -28 R -10 -47 R 0 -28 R 10 -47 R
18 -28 R 28 -9 R 19 0 R 28 9 R 19 28 R 9 47 R 0 28 R -9 47 R -19 28 R
-28 9 R -19 0 R D 8243 1182 M -94 0 R -9 -84 R 9 9 R 28 10 R 28 0 R 28 -10 R
19 -18 R 9 -29 R 0 -18 R -9 -28 R -19 -19 R -28 -9 R -28 0 R -28 9 R -9 9 R
-10 19 R D 8894 1408 M 0 185 R D 8641 1182 M -28 -9 R -18 -28 R -10 -47 R
0 -28 R 10 -47 R 18 -28 R 28 -9 R 19 0 R 28 9 R 19 28 R 9 47 R 0 28 R
-9 47 R -19 28 R -28 9 R -19 0 R D 8791 1004 M -9 -9 R 9 -9 R 9 9 R -9 9 R D
8894 1145 M 18 9 R 28 28 R 0 -196 R D 9109 1182 M -28 -9 R -19 -28 R
-9 -47 R 0 -28 R 9 -47 R 19 -28 R 28 -9 R 18 0 R 28 9 R 19 28 R 9 47 R
0 28 R -9 47 R -19 28 R -28 9 R -18 0 R D 9816 1408 M 0 185 R D 9564 1182 M
-28 -9 R -19 -28 R -10 -47 R 0 -28 R 10 -47 R 19 -28 R 28 -9 R 18 0 R 28 9 R
19 28 R 9 47 R 0 28 R -9 47 R -19 28 R -28 9 R -18 0 R D 9713 1004 M -9 -9 R
9 -9 R 9 9 R -9 9 R D 9816 1145 M 19 9 R 28 28 R 0 -196 R D 10087 1182 M
-93 0 R -10 -84 R 10 9 R 28 10 R 28 0 R 28 -10 R 18 -18 R 10 -29 R 0 -18 R
-10 -28 R -18 -19 R -28 -9 R -28 0 R -28 9 R -10 9 R -9 19 R D 10738 1408 M
0 185 R D 10486 1182 M -28 -9 R -19 -28 R -9 -47 R 0 -28 R 9 -47 R 19 -28 R
28 -9 R 19 0 R 28 9 R 18 28 R 10 47 R 0 28 R -10 47 R -18 28 R -28 9 R
-19 0 R D 10635 1004 M -9 -9 R 9 -9 R 10 9 R -10 9 R D 10720 1135 M 0 10 R
9 18 R 9 10 R 19 9 R 37 0 R 19 -9 R 9 -10 R 10 -18 R 0 -19 R -10 -19 R
-18 -28 R -94 -93 R 131 0 R D 10953 1182 M -28 -9 R -19 -28 R -9 -47 R
0 -28 R 9 -47 R 19 -28 R 28 -9 R 19 0 R 28 9 R 19 28 R 9 47 R 0 28 R -9 47 R
-19 28 R -28 9 R -19 0 R D 11660 1408 M 0 185 R D 11408 1182 M -28 -9 R
-19 -28 R -9 -47 R 0 -28 R 9 -47 R 19 -28 R 28 -9 R 19 0 R 28 9 R 19 28 R
9 47 R 0 28 R -9 47 R -19 28 R -28 9 R -19 0 R D 11558 1004 M -10 -9 R
10 -9 R 9 9 R -9 9 R D 11642 1135 M 0 10 R 9 18 R 9 10 R 19 9 R 38 0 R
18 -9 R 10 -10 R 9 -18 R 0 -19 R -9 -19 R -19 -28 R -94 -93 R 131 0 R D
11932 1182 M -94 0 R -9 -84 R 9 9 R 28 10 R 28 0 R 28 -10 R 19 -18 R 9 -29 R
0 -18 R -9 -28 R -19 -19 R -28 -9 R -28 0 R -28 9 R -9 9 R -10 19 R D
12583 1408 M 0 185 R D 12330 1182 M -28 -9 R -18 -28 R -10 -47 R 0 -28 R
10 -47 R 18 -28 R 28 -9 R 19 0 R 28 9 R 19 28 R 9 47 R 0 28 R -9 47 R
-19 28 R -28 9 R -19 0 R D 12480 1004 M -9 -9 R 9 -9 R 9 9 R -9 9 R D
12573 1182 M 103 0 R -56 -75 R 28 0 R 19 -9 R 9 -9 R 10 -29 R 0 -18 R
-10 -28 R -18 -19 R -29 -9 R -28 0 R -28 9 R -9 9 R -9 19 R D 12798 1182 M
-28 -9 R -19 -28 R -9 -47 R 0 -28 R 9 -47 R 19 -28 R 28 -9 R 18 0 R 28 9 R
19 28 R 10 47 R 0 28 R -10 47 R -19 28 R -28 9 R -18 0 R D 8156 1408 M
0 93 R D 8340 1408 M 0 93 R D 8525 1408 M 0 93 R D 8709 1408 M 0 93 R D
9078 1408 M 0 93 R D 9263 1408 M 0 93 R D 9447 1408 M 0 93 R D 9632 1408 M
0 93 R D 10000 1408 M 0 93 R D 10185 1408 M 0 93 R D 10369 1408 M 0 93 R D
10554 1408 M 0 93 R D 10923 1408 M 0 93 R D 11107 1408 M 0 93 R D
11292 1408 M 0 93 R D 11476 1408 M 0 93 R D 11845 1408 M 0 93 R D
12029 1408 M 0 93 R D 12214 1408 M 0 93 R D 12398 1408 M 0 93 R D
7971 6037 M 4612 0 R D 7971 6037 M 0 -185 R D 8894 6037 M 0 -185 R D
9816 6037 M 0 -185 R D 10738 6037 M 0 -185 R D 11660 6037 M 0 -185 R D
12583 6037 M 0 -185 R D 8156 6037 M 0 -92 R D 8340 6037 M 0 -92 R D
8525 6037 M 0 -92 R D 8709 6037 M 0 -92 R D 9078 6037 M 0 -92 R D
9263 6037 M 0 -92 R D 9447 6037 M 0 -92 R D 9632 6037 M 0 -92 R D
10000 6037 M 0 -92 R D 10185 6037 M 0 -92 R D 10369 6037 M 0 -92 R D
10554 6037 M 0 -92 R D 10923 6037 M 0 -92 R D 11107 6037 M 0 -92 R D
11292 6037 M 0 -92 R D 11476 6037 M 0 -92 R D 11845 6037 M 0 -92 R D
12029 6037 M 0 -92 R D 12214 6037 M 0 -92 R D 12398 6037 M 0 -92 R D
7971 1408 M 0 4629 R D 7971 2095 M 185 0 R D 7662 2141 M 0 12 R 11 23 R
12 12 R 24 12 R 46 0 R 24 -12 R 11 -12 R 12 -23 R 0 -23 R -12 -24 R
-23 -35 R -117 -117 R 164 0 R D 7971 2878 M 185 0 R D 7767 2982 M
-117 -163 R 175 0 R D 7767 2982 M 0 -245 R D 7971 3660 M 185 0 R D
7802 3730 M -12 23 R -35 12 R -23 0 R -35 -12 R -24 -35 R -11 -58 R 0 -59 R
11 -46 R 24 -24 R 35 -11 R 12 0 R 35 11 R 23 24 R 12 35 R 0 11 R -12 35 R
-23 24 R -35 12 R -12 0 R -35 -12 R -24 -24 R -11 -35 R D 7971 4443 M
185 0 R D 7709 4548 M -36 -12 R -11 -23 R 0 -24 R 11 -23 R 24 -12 R 47 -12 R
35 -11 R 23 -24 R 12 -23 R 0 -35 R -12 -23 R -12 -12 R -35 -12 R -46 0 R
-36 12 R -11 12 R -12 23 R 0 35 R 12 23 R 23 24 R 35 11 R 47 12 R 23 12 R
12 23 R 0 24 R -12 23 R -35 12 R -46 0 R D 7971 5226 M 185 0 R D 7451 5283 M
24 12 R 35 35 R 0 -245 R D 7720 5330 M -35 -11 R -23 -36 R -12 -58 R 0 -35 R
12 -58 R 23 -35 R 35 -12 R 24 0 R 35 12 R 23 35 R 12 58 R 0 35 R -12 58 R
-23 36 R -35 11 R -24 0 R D 7971 6008 M 185 0 R D 7451 5990 M 24 11 R
35 35 R 0 -245 R D 7662 5978 M 0 12 R 11 23 R 12 12 R 24 11 R 46 0 R
24 -11 R 11 -12 R 12 -23 R 0 -24 R -12 -23 R -23 -35 R -117 -117 R 164 0 R D
7971 1508 M 93 0 R D 7971 1704 M 93 0 R D 7971 1900 M 93 0 R D 7971 2291 M
93 0 R D 7971 2486 M 93 0 R D 7971 2682 M 93 0 R D 7971 3073 M 93 0 R D
7971 3269 M 93 0 R D 7971 3465 M 93 0 R D 7971 3856 M 93 0 R D 7971 4052 M
93 0 R D 7971 4247 M 93 0 R D 7971 4639 M 93 0 R D 7971 4834 M 93 0 R D
7971 5030 M 93 0 R D 7971 5421 M 93 0 R D 7971 5617 M 93 0 R D 7971 5813 M
93 0 R D 12583 1408 M 0 4629 R D 12583 2095 M -185 0 R D 12583 2878 M
-185 0 R D 12583 3660 M -185 0 R D 12583 4443 M -185 0 R D 12583 5226 M
-185 0 R D 12583 6008 M -185 0 R D 12583 1508 M -92 0 R D 12583 1704 M
-92 0 R D 12583 1900 M -92 0 R D 12583 2291 M -92 0 R D 12583 2486 M -92 0 R
D 12583 2682 M -92 0 R D 12583 3073 M -92 0 R D 12583 3269 M -92 0 R D
12583 3465 M -92 0 R D 12583 3856 M -92 0 R D 12583 4052 M -92 0 R D
12583 4247 M -92 0 R D 12583 4639 M -92 0 R D 12583 4834 M -92 0 R D
12583 5030 M -92 0 R D 12583 5421 M -92 0 R D 12583 5617 M -92 0 R D
12583 5813 M -92 0 R D L1 7971 6037 M 462 -1535 R 461 -753 R 553 -516 R
369 -227 R 922 -369 R 922 -221 R 922 -148 R D L2 8035 6037 M 398 -1000 R
461 -623 R 553 -456 R 369 -211 R 922 -359 R 922 -227 R 922 -158 R D L0
0.000 0.000 1.000 setrgbcolor 7971 3462 M 462 -549 R 461 -316 R 553 -206 R
369 -78 R 922 -126 R 922 -73 R 922 -34 R D 50 setlinewidth 7971 4706 M
462 -1278 R 461 -520 R 553 -314 R 369 -170 R 922 -160 R 922 -94 R 922 -52 R
D 80 setlinewidth 9407 6037 M 40 -534 R 369 -2404 R 922 -514 R 922 -272 R
922 -90 R D 20 setlinewidth 0.000 0.000 0.000 setrgbcolor 10878 5622 M
-23 12 R -35 0 R -23 -12 R -24 -23 R -11 -35 R 0 -35 R 11 -35 R 12 -12 R
23 -12 R 35 0 R 24 12 R D 10762 5552 M 93 0 R D 10960 5611 M 211 0 R D
10960 5541 M 211 0 R D 11322 5716 M -35 -12 R -23 -35 R -12 -58 R 0 -35 R
12 -59 R 23 -35 R 35 -12 R 24 0 R 35 12 R 23 35 R 12 59 R 0 35 R -12 58 R
-23 35 R -35 12 R -24 0 R D 11509 5494 M -11 -12 R 11 -12 R 12 12 R -12 12 R
D 11743 5716 M -117 0 R -11 -105 R 11 11 R 35 12 R 35 0 R 35 -12 R 24 -23 R
11 -35 R 0 -23 R -11 -36 R -24 -23 R -35 -12 R -35 0 R -35 12 R -11 12 R
-12 23 R D 13343 1408 M 4611 0 R D 13343 1408 M 0 185 R D 13090 1182 M
-28 -9 R -18 -28 R -10 -47 R 0 -28 R 10 -47 R 18 -28 R 28 -9 R 19 0 R 28 9 R
19 28 R 9 47 R 0 28 R -9 47 R -19 28 R -28 9 R -19 0 R D 13240 1004 M
-9 -9 R 9 -9 R 9 9 R -9 9 R D 13371 1182 M -28 -9 R -19 -28 R -9 -47 R
0 -28 R 9 -47 R 19 -28 R 28 -9 R 18 0 R 29 9 R 18 28 R 10 47 R 0 28 R
-10 47 R -18 28 R -29 9 R -18 0 R D 13614 1182 M -94 0 R -9 -84 R 9 9 R
28 10 R 28 0 R 28 -10 R 19 -18 R 10 -29 R 0 -18 R -10 -28 R -19 -19 R
-28 -9 R -28 0 R -28 9 R -9 9 R -9 19 R D 14265 1408 M 0 185 R D
14013 1182 M -28 -9 R -19 -28 R -9 -47 R 0 -28 R 9 -47 R 19 -28 R 28 -9 R
18 0 R 28 9 R 19 28 R 9 47 R 0 28 R -9 47 R -19 28 R -28 9 R -18 0 R D
14162 1004 M -9 -9 R 9 -9 R 10 9 R -10 9 R D 14265 1145 M 19 9 R 28 28 R
0 -196 R D 14480 1182 M -28 -9 R -19 -28 R -9 -47 R 0 -28 R 9 -47 R 19 -28 R
28 -9 R 19 0 R 28 9 R 18 28 R 10 47 R 0 28 R -10 47 R -18 28 R -28 9 R
-19 0 R D 15187 1408 M 0 185 R D 14935 1182 M -28 -9 R -19 -28 R -9 -47 R
0 -28 R 9 -47 R 19 -28 R 28 -9 R 19 0 R 28 9 R 18 28 R 10 47 R 0 28 R
-10 47 R -18 28 R -28 9 R -19 0 R D 15084 1004 M -9 -9 R 9 -9 R 10 9 R
-10 9 R D 15187 1145 M 19 9 R 28 28 R 0 -196 R D 15458 1182 M -93 0 R
-9 -84 R 9 9 R 28 10 R 28 0 R 28 -10 R 19 -18 R 9 -29 R 0 -18 R -9 -28 R
-19 -19 R -28 -9 R -28 0 R -28 9 R -9 9 R -10 19 R D 16110 1408 M 0 185 R D
15857 1182 M -28 -9 R -19 -28 R -9 -47 R 0 -28 R 9 -47 R 19 -28 R 28 -9 R
19 0 R 28 9 R 19 28 R 9 47 R 0 28 R -9 47 R -19 28 R -28 9 R -19 0 R D
16007 1004 M -10 -9 R 10 -9 R 9 9 R -9 9 R D 16091 1135 M 0 10 R 9 18 R
10 10 R 18 9 R 38 0 R 18 -9 R 10 -10 R 9 -18 R 0 -19 R -9 -19 R -19 -28 R
-93 -93 R 130 0 R D 16325 1182 M -28 -9 R -19 -28 R -10 -47 R 0 -28 R
10 -47 R 19 -28 R 28 -9 R 18 0 R 28 9 R 19 28 R 9 47 R 0 28 R -9 47 R
-19 28 R -28 9 R -18 0 R D 17032 1408 M 0 185 R D 16779 1182 M -28 -9 R
-18 -28 R -10 -47 R 0 -28 R 10 -47 R 18 -28 R 28 -9 R 19 0 R 28 9 R 19 28 R
9 47 R 0 28 R -9 47 R -19 28 R -28 9 R -19 0 R D 16929 1004 M -9 -9 R 9 -9 R
9 9 R -9 9 R D 17013 1135 M 0 10 R 9 18 R 10 10 R 19 9 R 37 0 R 19 -9 R
9 -10 R 9 -18 R 0 -19 R -9 -19 R -19 -28 R -93 -93 R 131 0 R D 17303 1182 M
-94 0 R -9 -84 R 9 9 R 28 10 R 29 0 R 28 -10 R 18 -18 R 10 -29 R 0 -18 R
-10 -28 R -18 -19 R -28 -9 R -29 0 R -28 9 R -9 9 R -9 19 R D 17954 1408 M
0 185 R D 17702 1182 M -28 -9 R -19 -28 R -9 -47 R 0 -28 R 9 -47 R 19 -28 R
28 -9 R 18 0 R 28 9 R 19 28 R 9 47 R 0 28 R -9 47 R -19 28 R -28 9 R -18 0 R
D 17851 1004 M -9 -9 R 9 -9 R 10 9 R -10 9 R D 17945 1182 M 103 0 R
-57 -75 R 29 0 R 18 -9 R 10 -9 R 9 -29 R 0 -18 R -9 -28 R -19 -19 R -28 -9 R
-28 0 R -28 9 R -10 9 R -9 19 R D 18169 1182 M -28 -9 R -19 -28 R -9 -47 R
0 -28 R 9 -47 R 19 -28 R 28 -9 R 19 0 R 28 9 R 19 28 R 9 47 R 0 28 R -9 47 R
-19 28 R -28 9 R -19 0 R D 13527 1408 M 0 93 R D 13712 1408 M 0 93 R D
13896 1408 M 0 93 R D 14081 1408 M 0 93 R D 14449 1408 M 0 93 R D
14634 1408 M 0 93 R D 14818 1408 M 0 93 R D 15003 1408 M 0 93 R D
15372 1408 M 0 93 R D 15556 1408 M 0 93 R D 15741 1408 M 0 93 R D
15925 1408 M 0 93 R D 16294 1408 M 0 93 R D 16478 1408 M 0 93 R D
16663 1408 M 0 93 R D 16847 1408 M 0 93 R D 17216 1408 M 0 93 R D
17401 1408 M 0 93 R D 17585 1408 M 0 93 R D 17770 1408 M 0 93 R D
13343 6037 M 4611 0 R D 13343 6037 M 0 -185 R D 14265 6037 M 0 -185 R D
15187 6037 M 0 -185 R D 16110 6037 M 0 -185 R D 17032 6037 M 0 -185 R D
17954 6037 M 0 -185 R D 13527 6037 M 0 -92 R D 13712 6037 M 0 -92 R D
13896 6037 M 0 -92 R D 14081 6037 M 0 -92 R D 14449 6037 M 0 -92 R D
14634 6037 M 0 -92 R D 14818 6037 M 0 -92 R D 15003 6037 M 0 -92 R D
15372 6037 M 0 -92 R D 15556 6037 M 0 -92 R D 15741 6037 M 0 -92 R D
15925 6037 M 0 -92 R D 16294 6037 M 0 -92 R D 16478 6037 M 0 -92 R D
16663 6037 M 0 -92 R D 16847 6037 M 0 -92 R D 17216 6037 M 0 -92 R D
17401 6037 M 0 -92 R D 17585 6037 M 0 -92 R D 17770 6037 M 0 -92 R D
13343 1408 M 0 4629 R D 13343 2069 M 184 0 R D 13162 2174 M -117 0 R
-12 -105 R 12 11 R 35 12 R 35 0 R 35 -12 R 23 -23 R 12 -35 R 0 -23 R
-12 -36 R -23 -23 R -35 -12 R -35 0 R -35 12 R -12 12 R -12 23 R D
13343 2826 M 184 0 R D 12823 2884 M 23 11 R 35 35 R 0 -245 R D 13092 2930 M
-36 -11 R -23 -35 R -12 -59 R 0 -35 R 12 -58 R 23 -35 R 36 -12 R 23 0 R
35 12 R 23 35 R 12 58 R 0 35 R -12 59 R -23 35 R -35 11 R -23 0 R D
13343 3583 M 184 0 R D 12823 3640 M 23 12 R 35 35 R 0 -245 R D 13162 3687 M
-117 0 R -12 -105 R 12 12 R 35 11 R 35 0 R 35 -11 R 23 -24 R 12 -35 R
0 -23 R -12 -35 R -23 -24 R -35 -11 R -35 0 R -35 11 R -12 12 R -12 24 R D
13343 4339 M 184 0 R D 12799 4385 M 0 12 R 12 23 R 12 12 R 23 12 R 47 0 R
23 -12 R 12 -12 R 12 -23 R 0 -23 R -12 -24 R -23 -35 R -117 -117 R 163 0 R D
13092 4444 M -36 -12 R -23 -35 R -12 -58 R 0 -35 R 12 -59 R 23 -35 R
36 -12 R 23 0 R 35 12 R 23 35 R 12 59 R 0 35 R -12 58 R -23 35 R -35 12 R
-23 0 R D 13343 5096 M 184 0 R D 12799 5142 M 0 12 R 12 23 R 12 12 R 23 12 R
47 0 R 23 -12 R 12 -12 R 12 -23 R 0 -24 R -12 -23 R -23 -35 R -117 -117 R
163 0 R D 13162 5201 M -117 0 R -12 -106 R 12 12 R 35 12 R 35 0 R 35 -12 R
23 -23 R 12 -35 R 0 -24 R -12 -35 R -23 -23 R -35 -12 R -35 0 R -35 12 R
-12 12 R -12 23 R D 13343 5853 M 184 0 R D 12811 5957 M 129 0 R -70 -93 R
35 0 R 23 -12 R 12 -12 R 11 -35 R 0 -23 R -11 -35 R -24 -24 R -35 -11 R
-35 0 R -35 11 R -12 12 R -11 24 R D 13092 5957 M -36 -12 R -23 -35 R
-12 -58 R 0 -35 R 12 -58 R 23 -36 R 36 -11 R 23 0 R 35 11 R 23 36 R 12 58 R
0 35 R -12 58 R -23 35 R -35 12 R -23 0 R D 13343 1464 M 92 0 R D
13343 1615 M 92 0 R D 13343 1767 M 92 0 R D 13343 1918 M 92 0 R D
13343 2221 M 92 0 R D 13343 2372 M 92 0 R D 13343 2523 M 92 0 R D
13343 2675 M 92 0 R D 13343 2977 M 92 0 R D 13343 3129 M 92 0 R D
13343 3280 M 92 0 R D 13343 3431 M 92 0 R D 13343 3734 M 92 0 R D
13343 3885 M 92 0 R D 13343 4037 M 92 0 R D 13343 4188 M 92 0 R D
13343 4491 M 92 0 R D 13343 4642 M 92 0 R D 13343 4793 M 92 0 R D
13343 4945 M 92 0 R D 13343 5247 M 92 0 R D 13343 5399 M 92 0 R D
13343 5550 M 92 0 R D 13343 5701 M 92 0 R D 13343 6004 M 92 0 R D
17954 1408 M 0 4629 R D 17954 2069 M -184 0 R D 17954 2826 M -184 0 R D
17954 3583 M -184 0 R D 17954 4339 M -184 0 R D 17954 5096 M -184 0 R D
17954 5853 M -184 0 R D 17954 1464 M -92 0 R D 17954 1615 M -92 0 R D
17954 1767 M -92 0 R D 17954 1918 M -92 0 R D 17954 2221 M -92 0 R D
17954 2372 M -92 0 R D 17954 2523 M -92 0 R D 17954 2675 M -92 0 R D
17954 2977 M -92 0 R D 17954 3129 M -92 0 R D 17954 3280 M -92 0 R D
17954 3431 M -92 0 R D 17954 3734 M -92 0 R D 17954 3885 M -92 0 R D
17954 4037 M -92 0 R D 17954 4188 M -92 0 R D 17954 4491 M -92 0 R D
17954 4642 M -92 0 R D 17954 4793 M -92 0 R D 17954 4945 M -92 0 R D
17954 5247 M -92 0 R D 17954 5399 M -92 0 R D 17954 5550 M -92 0 R D
17954 5701 M -92 0 R D 17954 6004 M -92 0 R D L1 13343 6037 M 461 -1535 R
461 -753 R 553 -516 R 369 -227 R 923 -369 R 922 -221 R 922 -148 R D L2
13343 3698 M 461 -567 R 461 -304 R 553 -223 R 369 -103 R 923 -175 R
922 -111 R 922 -77 R D L0 0.000 0.000 1.000 setrgbcolor 13343 2796 M
461 -325 R 461 -168 R 553 -116 R 369 -52 R 923 -77 R 922 -47 R 922 -22 R D
50 setlinewidth 13343 3211 M 461 -552 R 461 -244 R 553 -156 R 369 -66 R
923 -103 R 922 -56 R 922 -29 R D 80 setlinewidth 13531 6037 M 273 -1206 R
461 -1037 R 553 -1090 R 369 -344 R 923 -182 R 922 -87 R 922 -50 R D
110 setlinewidth 14329 6037 M 489 -827 R 369 -405 R 923 -628 R 922 -508 R
922 -311 R D 20 setlinewidth 13931 5102 M 0 -246 R D 14025 5020 M 0 -164 R D
14025 4973 M 35 35 R 23 12 R 35 0 R 23 -12 R 12 -35 R 0 -117 R D
14305 5102 M -93 -246 R D 14305 5102 M 94 -246 R D 14457 4996 M 210 0 R D
14457 4926 M 210 0 R D 14761 5102 M 0 -246 R D 14854 5020 M 0 -164 R D
14854 4973 M 35 35 R 24 12 R 35 0 R 23 -12 R 12 -35 R 0 -117 R D
15076 5148 M 0 -385 R D 15088 5148 M 0 -385 R D 15076 5148 M 82 0 R D
15076 4763 M 82 0 R D 15240 5102 M 0 -246 R D 15240 5102 M 93 -246 R
94 246 R 0 -246 R D 15602 5148 M -23 -23 R -24 -35 R -23 -47 R -12 -58 R
0 -47 R 12 -58 R 23 -59 R 24 -35 R 23 -23 R D 15742 5102 M -35 -12 R
-23 -35 R -12 -59 R 0 -35 R 12 -58 R 23 -35 R 35 -12 R 24 0 R 35 12 R
23 35 R 12 58 R 0 35 R -12 59 R -23 35 R -35 12 R -24 0 R D 15906 5148 M
23 -23 R 24 -35 R 23 -47 R 12 -58 R 0 -47 R -12 -58 R -23 -59 R -24 -35 R
-23 -23 R D 16268 5148 M -210 -385 R D 16338 5020 M 0 -164 R D 16338 4973 M
35 35 R 24 12 R 35 0 R 23 -12 R 12 -35 R 0 -117 R D 16467 4973 M 35 35 R
23 12 R 35 0 R 23 -12 R 12 -35 R 0 -117 R D 16770 5148 M -23 -23 R -23 -35 R
-24 -47 R -11 -58 R 0 -47 R 11 -58 R 24 -59 R 23 -35 R 23 -23 R D
16864 5102 M 0 -199 R 12 -35 R 23 -12 R 23 0 R D 16829 5020 M 82 0 R D
16981 5148 M 23 -23 R 23 -35 R 24 -47 R 12 -58 R 0 -47 R -12 -58 R -24 -59 R
-23 -35 R -23 -23 R D 17214 5148 M 0 -385 R D 17226 5148 M 0 -385 R D
17144 5148 M 82 0 R D 17144 4763 M 82 0 R D 0.000 0.000 0.000 setrgbcolor
16250 5622 M -24 12 R -35 0 R -23 -12 R -23 -23 R -12 -35 R 0 -35 R 12 -35 R
11 -12 R 24 -12 R 35 0 R 23 12 R D 16133 5552 M 93 0 R D 16332 5611 M
210 0 R D 16332 5541 M 210 0 R D 16659 5669 M 23 12 R 35 35 R 0 -246 R D
16881 5494 M -12 -12 R 12 -12 R 11 12 R -11 12 R D 17044 5716 M -35 -12 R
-23 -35 R -12 -58 R 0 -35 R 12 -59 R 23 -35 R 35 -12 R 24 0 R 35 12 R
23 35 R 12 59 R 0 35 R -12 58 R -23 35 R -35 12 R -24 0 R D 2903 15728 M
0 -368 R D 2903 15553 M 35 35 R 35 17 R 52 0 R 35 -17 R 35 -35 R 18 -53 R
0 -35 R -18 -52 R -35 -35 R -35 -18 R -52 0 R -35 18 R -35 35 R D
3411 15553 M -18 35 R -52 17 R -53 0 R -52 -17 R -18 -35 R 18 -35 R 35 -18 R
87 -17 R 35 -18 R 18 -35 R 0 -17 R -18 -35 R -52 -18 R -53 0 R -52 18 R
-18 35 R D 3621 15728 M -52 -17 R -35 -53 R -18 -88 R 0 -52 R 18 -88 R
35 -52 R 52 -18 R 35 0 R 53 18 R 35 52 R 17 88 R 0 52 R -17 88 R -35 53 R
-53 17 R -35 0 R D 3972 15728 M -53 -17 R -35 -53 R -17 -88 R 0 -52 R
17 -88 R 35 -52 R 53 -18 R 35 0 R 52 18 R 35 52 R 18 88 R 0 52 R -18 88 R
-35 53 R -52 17 R -35 0 R D
%%PageTrailer
end
%%PageResources: font Helvetica
%%Trailer
%%Pages: 1
%%DocumentNeededResources: font Helvetica
%%EOF
