%!PS-Adobe-3.0 EPSF-3.0
%%BoundingBox: 0 0 538 396
%%Title: Graphics produced by IDL
%%For: jlgan@aida119, /home/jlgan/work/subhalo_model
%%Creator: IDL Version 7.0 (linux x86_64 m64)
%%CreationDate: Mon Dec 15 15:42:41 2008
%%DocumentData: Clean7bit
%%Requirements: color
%%LanguageLevel: 1
%%PageOrder: Ascend
%%Pages: (atend)
%%DocumentNeededResources: (atend)
%%EndComments
%%BeginProlog
%+ prolog.ps -- Prolog for IDL generated PostScript files
%+ Copyright (c) 1988-2007 ITT Visual Information Solutions. All Rights Reserved.
%v 5
/$IDL_DICT 40 dict def $IDL_DICT begin /bdef { bind def } bind def /C
{currentpoint newpath moveto} bdef /CP {currentpoint} bdef /D {currentpoint
stroke moveto} bdef /F {closepath fill} bdef /K { setgray } bdef /M {moveto}
bdef /N {rmoveto} bdef /P {lineto} bdef /R {rlineto} bdef /S {gsave show
grestore} bdef /X {currentpoint pop} bdef /Z {gsave currentpoint lineto 20
setlinewidth 1 setlinecap stroke grestore} bdef /L0 {[] 0 setdash} bdef /L1
{[40 100] 0 setdash} bdef /L2 {[200 200] 0 setdash} bdef /L3 {[200 100 50
100] 0 setdash} bdef /L4 {[300 100 50 100 50 100 50 100] 0 setdash} bdef /L5
{[400 200] 0 setdash} bdef /STDFONT { findfont exch scalefont setfont } bdef
/ISOFONT { findfont dup length dict begin { 1 index /FID ne {def} {pop pop}
ifelse } forall /Encoding ISOLatin1Encoding def currentdict end /idltmpfont
exch definefont exch scalefont setfont } bdef /ISOBULLET { gsave /Helvetica
findfont exch scalefont setfont (\267) show currentpoint grestore moveto}
bdef /MITERLIMIT { 2.5 setmiterlimit } bdef end
%%EndProlog
%%Page: 0 1
%%PageRequirements: color
%%PageResources: (atend)
%%PageOrientation: Portrait
%%PageBoundingBox: 0 0 538 396
%%BeginPageSetup
$IDL_DICT begin 0.0283465 dup scale MITERLIMIT
%%IncludeResource: font Helvetica
423.333 /Helvetica STDFONT
%%EndPageSetup
20 setlinewidth L0 0.000 0.000 0.000 setrgbcolor 1544 7852 M 5267 0 R D
1544 7852 M 0 228 R D 1307 7640 M -26 -9 R -17 -26 R -9 -44 R 0 -26 R
9 -44 R 17 -26 R 26 -9 R 18 0 R 26 9 R 18 26 R 9 44 R 0 26 R -9 44 R
-18 26 R -26 9 R -18 0 R D 1448 7474 M -9 -9 R 9 -9 R 8 9 R -8 9 R D
1570 7640 M -26 -9 R -18 -26 R -8 -44 R 0 -26 R 8 -44 R 18 -26 R 26 -9 R
18 0 R 26 9 R 18 26 R 8 44 R 0 26 R -8 44 R -18 26 R -26 9 R -18 0 R D
1798 7640 M -88 0 R -8 -79 R 8 9 R 27 9 R 26 0 R 26 -9 R 18 -18 R 9 -26 R
0 -17 R -9 -27 R -18 -17 R -26 -9 R -26 0 R -27 9 R -8 9 R -9 17 R D
2597 7852 M 0 228 R D 2361 7640 M -26 -9 R -18 -26 R -9 -44 R 0 -26 R
9 -44 R 18 -26 R 26 -9 R 17 0 R 27 9 R 17 26 R 9 44 R 0 26 R -9 44 R
-17 26 R -27 9 R -17 0 R D 2501 7474 M -9 -9 R 9 -9 R 9 9 R -9 9 R D
2597 7605 M 18 9 R 26 26 R 0 -184 R D 2799 7640 M -26 -9 R -18 -26 R
-9 -44 R 0 -26 R 9 -44 R 18 -26 R 26 -9 R 18 0 R 26 9 R 17 26 R 9 44 R
0 26 R -9 44 R -17 26 R -26 9 R -18 0 R D 3651 7852 M 0 228 R D 3414 7640 M
-26 -9 R -17 -26 R -9 -44 R 0 -26 R 9 -44 R 17 -26 R 26 -9 R 18 0 R 26 9 R
18 26 R 8 44 R 0 26 R -8 44 R -18 26 R -26 9 R -18 0 R D 3555 7474 M -9 -9 R
9 -9 R 8 9 R -8 9 R D 3651 7605 M 17 9 R 27 26 R 0 -184 R D 3905 7640 M
-88 0 R -8 -79 R 8 9 R 27 9 R 26 0 R 26 -9 R 18 -18 R 9 -26 R 0 -17 R
-9 -27 R -18 -17 R -26 -9 R -26 0 R -27 9 R -8 9 R -9 17 R D 4704 7852 M
0 228 R D 4468 7640 M -26 -9 R -18 -26 R -9 -44 R 0 -26 R 9 -44 R 18 -26 R
26 -9 R 17 0 R 27 9 R 17 26 R 9 44 R 0 26 R -9 44 R -17 26 R -27 9 R -17 0 R
D 4608 7474 M -9 -9 R 9 -9 R 9 9 R -9 9 R D 4687 7596 M 0 9 R 9 18 R 8 8 R
18 9 R 35 0 R 18 -9 R 8 -8 R 9 -18 R 0 -18 R -9 -17 R -17 -26 R -88 -88 R
123 0 R D 4906 7640 M -26 -9 R -18 -26 R -9 -44 R 0 -26 R 9 -44 R 18 -26 R
26 -9 R 17 0 R 27 9 R 17 26 R 9 44 R 0 26 R -9 44 R -17 26 R -27 9 R -17 0 R
D 5758 7852 M 0 228 R D 5521 7640 M -26 -9 R -18 -26 R -8 -44 R 0 -26 R
8 -44 R 18 -26 R 26 -9 R 18 0 R 26 9 R 18 26 R 8 44 R 0 26 R -8 44 R
-18 26 R -26 9 R -18 0 R D 5661 7474 M -8 -9 R 8 -9 R 9 9 R -9 9 R D
5740 7596 M 0 9 R 9 18 R 9 8 R 17 9 R 35 0 R 18 -9 R 9 -8 R 8 -18 R 0 -18 R
-8 -17 R -18 -26 R -87 -88 R 122 0 R D 6012 7640 M -88 0 R -8 -79 R 8 9 R
27 9 R 26 0 R 26 -9 R 18 -18 R 9 -26 R 0 -17 R -9 -27 R -18 -17 R -26 -9 R
-26 0 R -27 9 R -8 9 R -9 17 R D 6811 7852 M 0 228 R D 6575 7640 M -27 -9 R
-17 -26 R -9 -44 R 0 -26 R 9 -44 R 17 -26 R 27 -9 R 17 0 R 27 9 R 17 26 R
9 44 R 0 26 R -9 44 R -17 26 R -27 9 R -17 0 R D 6715 7474 M -9 -9 R 9 -9 R
9 9 R -9 9 R D 6803 7640 M 96 0 R -53 -70 R 27 0 R 17 -9 R 9 -9 R 9 -26 R
0 -17 R -9 -27 R -18 -17 R -26 -9 R -26 0 R -26 9 R -9 9 R -9 17 R D
7013 7640 M -26 -9 R -18 -26 R -9 -44 R 0 -26 R 9 -44 R 18 -26 R 26 -9 R
17 0 R 27 9 R 17 26 R 9 44 R 0 26 R -9 44 R -17 26 R -27 9 R -17 0 R D
1755 7852 M 0 114 R D 1965 7852 M 0 114 R D 2176 7852 M 0 114 R D
2387 7852 M 0 114 R D 2808 7852 M 0 114 R D 3019 7852 M 0 114 R D
3230 7852 M 0 114 R D 3440 7852 M 0 114 R D 3862 7852 M 0 114 R D
4072 7852 M 0 114 R D 4283 7852 M 0 114 R D 4494 7852 M 0 114 R D
4915 7852 M 0 114 R D 5126 7852 M 0 114 R D 5336 7852 M 0 114 R D
5547 7852 M 0 114 R D 5969 7852 M 0 114 R D 6179 7852 M 0 114 R D
6390 7852 M 0 114 R D 6601 7852 M 0 114 R D 1544 13548 M 5267 0 R D
1544 13548 M 0 -228 R D 2597 13548 M 0 -228 R D 3651 13548 M 0 -228 R D
4704 13548 M 0 -228 R D 5758 13548 M 0 -228 R D 6811 13548 M 0 -228 R D
1755 13548 M 0 -114 R D 1965 13548 M 0 -114 R D 2176 13548 M 0 -114 R D
2387 13548 M 0 -114 R D 2808 13548 M 0 -114 R D 3019 13548 M 0 -114 R D
3230 13548 M 0 -114 R D 3440 13548 M 0 -114 R D 3862 13548 M 0 -114 R D
4072 13548 M 0 -114 R D 4283 13548 M 0 -114 R D 4494 13548 M 0 -114 R D
4915 13548 M 0 -114 R D 5126 13548 M 0 -114 R D 5336 13548 M 0 -114 R D
5547 13548 M 0 -114 R D 5969 13548 M 0 -114 R D 6179 13548 M 0 -114 R D
6390 13548 M 0 -114 R D 6601 13548 M 0 -114 R D 1544 7852 M 0 5696 R D
1544 9143 M 211 0 R D 1312 9177 M 0 9 R 9 17 R 8 9 R 18 9 R 35 0 R 17 -9 R
9 -9 R 9 -17 R 0 -18 R -9 -17 R -17 -26 R -88 -88 R 123 0 R D 1544 10551 M
211 0 R D 1391 10629 M -88 -123 R 131 0 R D 1391 10629 M 0 -184 R D
1544 11959 M 211 0 R D 1417 12011 M -9 17 R -26 9 R -18 0 R -26 -9 R
-17 -26 R -9 -44 R 0 -43 R 9 -36 R 17 -17 R 26 -9 R 9 0 R 26 9 R 18 17 R
9 27 R 0 9 R -9 26 R -18 17 R -26 9 R -9 0 R -26 -9 R -17 -17 R -9 -26 R D
1544 13367 M 211 0 R D 1347 13445 M -26 -8 R -9 -18 R 0 -18 R 9 -17 R
17 -9 R 35 -9 R 26 -8 R 18 -18 R 9 -17 R 0 -27 R -9 -17 R -9 -9 R -26 -9 R
-35 0 R -26 9 R -9 9 R -9 17 R 0 27 R 9 17 R 17 18 R 27 8 R 35 9 R 17 9 R
9 17 R 0 18 R -9 18 R -26 8 R -35 0 R D 1544 8086 M 105 0 R D 1544 8439 M
105 0 R D 1544 8791 M 105 0 R D 1544 9495 M 105 0 R D 1544 9847 M 105 0 R D
1544 10199 M 105 0 R D 1544 10903 M 105 0 R D 1544 11255 M 105 0 R D
1544 11607 M 105 0 R D 1544 12311 M 105 0 R D 1544 12663 M 105 0 R D
1544 13015 M 105 0 R D 6811 7852 M 0 5696 R D 6811 9143 M -210 0 R D
6811 10551 M -210 0 R D 6811 11959 M -210 0 R D 6811 13367 M -210 0 R D
6811 8086 M -105 0 R D 6811 8439 M -105 0 R D 6811 8791 M -105 0 R D
6811 9495 M -105 0 R D 6811 9847 M -105 0 R D 6811 10199 M -105 0 R D
6811 10903 M -105 0 R D 6811 11255 M -105 0 R D 6811 11607 M -105 0 R D
6811 12311 M -105 0 R D 6811 12663 M -105 0 R D 6811 13015 M -105 0 R D L1
1544 13548 M 527 -1889 R 526 -927 R 633 -634 R 421 -280 R 1053 -454 R
1054 -272 R 1053 -182 R D L2 2067 13548 M 4 -11 R 526 -970 R 633 -711 R
421 -329 R 1053 -559 R 1054 -354 R 1053 -246 R D L0
0.000 0.098 0.890 setrgbcolor 1544 12174 M 527 -1744 R 526 -637 R 633 -440 R
421 -165 R 1053 -214 R 1054 -117 R 1053 -61 R D 50 setlinewidth 1864 13548 M
207 -1192 R 526 -1454 R 633 -734 R 421 -444 R 1053 -470 R 1054 -249 R
1053 -107 R D 80 setlinewidth 2227 13548 M 370 -1427 R 633 -1163 R
421 -439 R 1053 -753 R 1054 -370 R 1053 -253 R D 20 setlinewidth
0.000 0.000 0.000 setrgbcolor 5336 13194 M -35 18 R -53 0 R -35 -18 R
-35 -35 R -17 -52 R 0 -53 R 17 -52 R 18 -18 R 35 -17 R 53 0 R 35 17 R D
5161 13089 M 140 0 R D 5459 13177 M 315 0 R D 5459 13072 M 315 0 R D
6002 13335 M -52 -18 R -36 -52 R -17 -88 R 0 -53 R 17 -87 R 36 -53 R
52 -17 R 35 0 R 53 17 R 35 53 R 17 87 R 0 53 R -17 88 R -35 52 R -53 18 R
-35 0 R D 6283 13002 M -18 -18 R 18 -17 R 17 17 R -17 18 R D 6458 13335 M
193 0 R -106 -141 R 53 0 R 35 -17 R 18 -18 R 17 -52 R 0 -35 R -17 -53 R
-35 -35 R -53 -17 R -53 0 R -52 17 R -18 18 R -17 35 R D 7477 7852 M
5268 0 R D 7477 7852 M 0 228 R D 7241 7640 M -27 -9 R -17 -26 R -9 -44 R
0 -26 R 9 -44 R 17 -26 R 27 -9 R 17 0 R 27 9 R 17 26 R 9 44 R 0 26 R -9 44 R
-17 26 R -27 9 R -17 0 R D 7381 7474 M -9 -9 R 9 -9 R 9 9 R -9 9 R D
7504 7640 M -27 -9 R -17 -26 R -9 -44 R 0 -26 R 9 -44 R 17 -26 R 27 -9 R
17 0 R 26 9 R 18 26 R 9 44 R 0 26 R -9 44 R -18 26 R -26 9 R -17 0 R D
7731 7640 M -87 0 R -9 -79 R 9 9 R 26 9 R 26 0 R 27 -9 R 17 -18 R 9 -26 R
0 -17 R -9 -27 R -17 -17 R -27 -9 R -26 0 R -26 9 R -9 9 R -9 17 R D
8531 7852 M 0 228 R D 8294 7640 M -26 -9 R -18 -26 R -8 -44 R 0 -26 R
8 -44 R 18 -26 R 26 -9 R 18 0 R 26 9 R 18 26 R 8 44 R 0 26 R -8 44 R
-18 26 R -26 9 R -18 0 R D 8434 7474 M -8 -9 R 8 -9 R 9 9 R -9 9 R D
8531 7605 M 17 9 R 27 26 R 0 -184 R D 8732 7640 M -26 -9 R -17 -26 R
-9 -44 R 0 -26 R 9 -44 R 17 -26 R 26 -9 R 18 0 R 26 9 R 18 26 R 8 44 R
0 26 R -8 44 R -18 26 R -26 9 R -18 0 R D 9584 7852 M 0 228 R D 9348 7640 M
-27 -9 R -17 -26 R -9 -44 R 0 -26 R 9 -44 R 17 -26 R 27 -9 R 17 0 R 26 9 R
18 26 R 9 44 R 0 26 R -9 44 R -18 26 R -26 9 R -17 0 R D 9488 7474 M -9 -9 R
9 -9 R 9 9 R -9 9 R D 9584 7605 M 18 9 R 26 26 R 0 -184 R D 9838 7640 M
-87 0 R -9 -79 R 9 9 R 26 9 R 26 0 R 27 -9 R 17 -18 R 9 -26 R 0 -17 R
-9 -27 R -17 -17 R -27 -9 R -26 0 R -26 9 R -9 9 R -9 17 R D 10638 7852 M
0 228 R D 10401 7640 M -26 -9 R -18 -26 R -8 -44 R 0 -26 R 8 -44 R 18 -26 R
26 -9 R 18 0 R 26 9 R 17 26 R 9 44 R 0 26 R -9 44 R -17 26 R -26 9 R -18 0 R
D 10541 7474 M -8 -9 R 8 -9 R 9 9 R -9 9 R D 10620 7596 M 0 9 R 9 18 R 9 8 R
17 9 R 35 0 R 18 -9 R 9 -8 R 8 -18 R 0 -18 R -8 -17 R -18 -26 R -88 -88 R
123 0 R D 10839 7640 M -26 -9 R -18 -26 R -8 -44 R 0 -26 R 8 -44 R 18 -26 R
26 -9 R 18 0 R 26 9 R 18 26 R 8 44 R 0 26 R -8 44 R -18 26 R -26 9 R -18 0 R
D 11691 7852 M 0 228 R D 11455 7640 M -27 -9 R -17 -26 R -9 -44 R 0 -26 R
9 -44 R 17 -26 R 27 -9 R 17 0 R 26 9 R 18 26 R 9 44 R 0 26 R -9 44 R
-18 26 R -26 9 R -17 0 R D 11595 7474 M -9 -9 R 9 -9 R 9 9 R -9 9 R D
11674 7596 M 0 9 R 8 18 R 9 8 R 18 9 R 35 0 R 17 -9 R 9 -8 R 9 -18 R 0 -18 R
-9 -17 R -17 -26 R -88 -88 R 123 0 R D 11945 7640 M -87 0 R -9 -79 R 9 9 R
26 9 R 26 0 R 27 -9 R 17 -18 R 9 -26 R 0 -17 R -9 -27 R -17 -17 R -27 -9 R
-26 0 R -26 9 R -9 9 R -9 17 R D 12745 7852 M 0 228 R D 12508 7640 M
-26 -9 R -18 -26 R -9 -44 R 0 -26 R 9 -44 R 18 -26 R 26 -9 R 18 0 R 26 9 R
17 26 R 9 44 R 0 26 R -9 44 R -17 26 R -26 9 R -18 0 R D 12648 7474 M
-8 -9 R 8 -9 R 9 9 R -9 9 R D 12736 7640 M 96 0 R -52 -70 R 26 0 R 18 -9 R
8 -9 R 9 -26 R 0 -17 R -9 -27 R -17 -17 R -27 -9 R -26 0 R -26 9 R -9 9 R
-9 17 R D 12946 7640 M -26 -9 R -18 -26 R -8 -44 R 0 -26 R 8 -44 R 18 -26 R
26 -9 R 18 0 R 26 9 R 18 26 R 8 44 R 0 26 R -8 44 R -18 26 R -26 9 R -18 0 R
D 7688 7852 M 0 114 R D 7899 7852 M 0 114 R D 8109 7852 M 0 114 R D
8320 7852 M 0 114 R D 8741 7852 M 0 114 R D 8952 7852 M 0 114 R D
9163 7852 M 0 114 R D 9374 7852 M 0 114 R D 9795 7852 M 0 114 R D
10006 7852 M 0 114 R D 10216 7852 M 0 114 R D 10427 7852 M 0 114 R D
10848 7852 M 0 114 R D 11059 7852 M 0 114 R D 11270 7852 M 0 114 R D
11481 7852 M 0 114 R D 11902 7852 M 0 114 R D 12113 7852 M 0 114 R D
12323 7852 M 0 114 R D 12534 7852 M 0 114 R D 7477 13548 M 5268 0 R D
7477 13548 M 0 -228 R D 8531 13548 M 0 -228 R D 9584 13548 M 0 -228 R D
10638 13548 M 0 -228 R D 11691 13548 M 0 -228 R D 12745 13548 M 0 -228 R D
7688 13548 M 0 -114 R D 7899 13548 M 0 -114 R D 8109 13548 M 0 -114 R D
8320 13548 M 0 -114 R D 8741 13548 M 0 -114 R D 8952 13548 M 0 -114 R D
9163 13548 M 0 -114 R D 9374 13548 M 0 -114 R D 9795 13548 M 0 -114 R D
10006 13548 M 0 -114 R D 10216 13548 M 0 -114 R D 10427 13548 M 0 -114 R D
10848 13548 M 0 -114 R D 11059 13548 M 0 -114 R D 11270 13548 M 0 -114 R D
11481 13548 M 0 -114 R D 11902 13548 M 0 -114 R D 12113 13548 M 0 -114 R D
12323 13548 M 0 -114 R D 12534 13548 M 0 -114 R D 7477 7852 M 0 5696 R D
7477 8697 M 211 0 R D 7245 8732 M 0 9 R 9 17 R 9 9 R 17 9 R 35 0 R 18 -9 R
9 -9 R 8 -17 R 0 -18 R -8 -17 R -18 -27 R -88 -87 R 123 0 R D 7477 9660 M
211 0 R D 7324 9739 M -88 -123 R 132 0 R D 7324 9739 M 0 -184 R D
7477 10623 M 211 0 R D 7350 10675 M -8 18 R -27 9 R -17 0 R -27 -9 R
-17 -26 R -9 -44 R 0 -44 R 9 -35 R 17 -18 R 27 -8 R 8 0 R 27 8 R 17 18 R
9 26 R 0 9 R -9 26 R -17 18 R -27 9 R -8 0 R -27 -9 R -17 -18 R -9 -26 R D
7477 11586 M 211 0 R D 7280 11665 M -26 -9 R -9 -18 R 0 -17 R 9 -18 R
17 -8 R 35 -9 R 27 -9 R 17 -17 R 9 -18 R 0 -26 R -9 -18 R -8 -9 R -27 -8 R
-35 0 R -26 8 R -9 9 R -9 18 R 0 26 R 9 18 R 18 17 R 26 9 R 35 9 R 18 8 R
8 18 R 0 17 R -8 18 R -27 9 R -35 0 R D 7477 12549 M 211 0 R D 7087 12593 M
18 8 R 26 27 R 0 -184 R D 7289 12628 M -26 -9 R -18 -26 R -9 -44 R 0 -27 R
9 -43 R 18 -27 R 26 -8 R 17 0 R 27 8 R 17 27 R 9 43 R 0 27 R -9 44 R
-17 26 R -27 9 R -17 0 R D 7477 13512 M 211 0 R D 7087 13512 M 18 9 R
26 26 R 0 -184 R D 7245 13503 M 0 9 R 9 18 R 9 8 R 17 9 R 35 0 R 18 -9 R
9 -8 R 8 -18 R 0 -17 R -8 -18 R -18 -26 R -88 -88 R 123 0 R D 7477 7975 M
106 0 R D 7477 8216 M 106 0 R D 7477 8457 M 106 0 R D 7477 8938 M 106 0 R D
7477 9179 M 106 0 R D 7477 9420 M 106 0 R D 7477 9901 M 106 0 R D
7477 10142 M 106 0 R D 7477 10383 M 106 0 R D 7477 10864 M 106 0 R D
7477 11105 M 106 0 R D 7477 11346 M 106 0 R D 7477 11827 M 106 0 R D
7477 12068 M 106 0 R D 7477 12308 M 106 0 R D 7477 12790 M 106 0 R D
7477 13031 M 106 0 R D 7477 13271 M 106 0 R D 12745 7852 M 0 5696 R D
12745 8697 M -211 0 R D 12745 9660 M -211 0 R D 12745 10623 M -211 0 R D
12745 11586 M -211 0 R D 12745 12549 M -211 0 R D 12745 13512 M -211 0 R D
12745 7975 M -106 0 R D 12745 8216 M -106 0 R D 12745 8457 M -106 0 R D
12745 8938 M -106 0 R D 12745 9179 M -106 0 R D 12745 9420 M -106 0 R D
12745 9901 M -106 0 R D 12745 10142 M -106 0 R D 12745 10383 M -106 0 R D
12745 10864 M -106 0 R D 12745 11105 M -106 0 R D 12745 11346 M -106 0 R D
12745 11827 M -106 0 R D 12745 12068 M -106 0 R D 12745 12308 M -106 0 R D
12745 12790 M -106 0 R D 12745 13031 M -106 0 R D 12745 13271 M -106 0 R D
L1 7477 13548 M 527 -1889 R 527 -927 R 632 -634 R 421 -280 R 1054 -454 R
1053 -272 R 1053 -182 R D L2 7550 13548 M 454 -1231 R 527 -766 R 632 -561 R
421 -260 R 1054 -442 R 1053 -279 R 1053 -194 R D L0
0.000 0.098 0.890 setrgbcolor 7477 11999 M 527 -1632 R 527 -619 R 632 -399 R
421 -59 R 1054 -62 R 1053 -417 R 1053 -52 R D 50 setlinewidth 7712 13548 M
292 -1493 R 527 -1276 R 632 -787 R 421 -287 R 1054 -484 R 1053 -204 R
1053 -167 R D 80 setlinewidth 7987 13548 M 17 -96 R 527 -1670 R 632 -1026 R
421 -431 R 1054 -616 R 1053 -411 R 1053 -193 R D 20 setlinewidth
0.000 0.000 0.000 setrgbcolor 11269 13194 M -35 18 R -52 0 R -35 -18 R
-35 -35 R -18 -52 R 0 -53 R 18 -52 R 17 -18 R 35 -17 R 53 0 R 35 17 R D
11094 13089 M 140 0 R D 11392 13177 M 316 0 R D 11392 13072 M 316 0 R D
11935 13335 M -52 -18 R -35 -52 R -18 -88 R 0 -53 R 18 -87 R 35 -53 R
52 -17 R 35 0 R 53 17 R 35 53 R 18 87 R 0 53 R -18 88 R -35 52 R -53 18 R
-35 0 R D 12216 13002 M -18 -18 R 18 -17 R 17 17 R -17 18 R D 12566 13335 M
-175 0 R -17 -158 R 17 17 R 53 18 R 52 0 R 53 -18 R 35 -35 R 17 -52 R
0 -35 R -17 -53 R -35 -35 R -53 -17 R -52 0 R -53 17 R -17 18 R -18 35 R D
13411 7852 M 5267 0 R D 13411 7852 M 0 228 R D 13174 7640 M -26 -9 R
-18 -26 R -9 -44 R 0 -26 R 9 -44 R 18 -26 R 26 -9 R 18 0 R 26 9 R 17 26 R
9 44 R 0 26 R -9 44 R -17 26 R -26 9 R -18 0 R D 13314 7474 M -8 -9 R 8 -9 R
9 9 R -9 9 R D 13437 7640 M -26 -9 R -18 -26 R -9 -44 R 0 -26 R 9 -44 R
18 -26 R 26 -9 R 17 0 R 27 9 R 17 26 R 9 44 R 0 26 R -9 44 R -17 26 R
-27 9 R -17 0 R D 13665 7640 M -88 0 R -9 -79 R 9 9 R 26 9 R 27 0 R 26 -9 R
18 -18 R 8 -26 R 0 -17 R -8 -27 R -18 -17 R -26 -9 R -27 0 R -26 9 R -9 9 R
-8 17 R D 14464 7852 M 0 228 R D 14228 7640 M -27 -9 R -17 -26 R -9 -44 R
0 -26 R 9 -44 R 17 -26 R 27 -9 R 17 0 R 26 9 R 18 26 R 9 44 R 0 26 R -9 44 R
-18 26 R -26 9 R -17 0 R D 14368 7474 M -9 -9 R 9 -9 R 9 9 R -9 9 R D
14464 7605 M 18 9 R 26 26 R 0 -184 R D 14666 7640 M -27 -9 R -17 -26 R
-9 -44 R 0 -26 R 9 -44 R 17 -26 R 27 -9 R 17 0 R 27 9 R 17 26 R 9 44 R
0 26 R -9 44 R -17 26 R -27 9 R -17 0 R D 15518 7852 M 0 228 R D
15281 7640 M -26 -9 R -18 -26 R -9 -44 R 0 -26 R 9 -44 R 18 -26 R 26 -9 R
18 0 R 26 9 R 17 26 R 9 44 R 0 26 R -9 44 R -17 26 R -26 9 R -18 0 R D
15421 7474 M -9 -9 R 9 -9 R 9 9 R -9 9 R D 15518 7605 M 17 9 R 26 26 R
0 -184 R D 15772 7640 M -88 0 R -9 -79 R 9 9 R 26 9 R 27 0 R 26 -9 R
17 -18 R 9 -26 R 0 -17 R -9 -27 R -17 -17 R -26 -9 R -27 0 R -26 9 R -9 9 R
-8 17 R D 16571 7852 M 0 228 R D 16334 7640 M -26 -9 R -17 -26 R -9 -44 R
0 -26 R 9 -44 R 17 -26 R 26 -9 R 18 0 R 26 9 R 18 26 R 9 44 R 0 26 R -9 44 R
-18 26 R -26 9 R -18 0 R D 16475 7474 M -9 -9 R 9 -9 R 8 9 R -8 9 R D
16554 7596 M 0 9 R 8 18 R 9 8 R 18 9 R 35 0 R 17 -9 R 9 -8 R 9 -18 R 0 -18 R
-9 -17 R -18 -26 R -87 -88 R 122 0 R D 16773 7640 M -27 -9 R -17 -26 R
-9 -44 R 0 -26 R 9 -44 R 17 -26 R 27 -9 R 17 0 R 26 9 R 18 26 R 9 44 R
0 26 R -9 44 R -18 26 R -26 9 R -17 0 R D 17625 7852 M 0 228 R D
17388 7640 M -26 -9 R -18 -26 R -9 -44 R 0 -26 R 9 -44 R 18 -26 R 26 -9 R
17 0 R 27 9 R 17 26 R 9 44 R 0 26 R -9 44 R -17 26 R -27 9 R -17 0 R D
17528 7474 M -9 -9 R 9 -9 R 9 9 R -9 9 R D 17607 7596 M 0 9 R 9 18 R 9 8 R
17 9 R 35 0 R 18 -9 R 8 -8 R 9 -18 R 0 -18 R -9 -17 R -17 -26 R -88 -88 R
123 0 R D 17879 7640 M -88 0 R -9 -79 R 9 9 R 26 9 R 27 0 R 26 -9 R 17 -18 R
9 -26 R 0 -17 R -9 -27 R -17 -17 R -26 -9 R -27 0 R -26 9 R -9 9 R -8 17 R D
18678 7852 M 0 228 R D 18441 7640 M -26 -9 R -17 -26 R -9 -44 R 0 -26 R
9 -44 R 17 -26 R 26 -9 R 18 0 R 26 9 R 18 26 R 9 44 R 0 26 R -9 44 R
-18 26 R -26 9 R -18 0 R D 18582 7474 M -9 -9 R 9 -9 R 8 9 R -8 9 R D
18669 7640 M 97 0 R -53 -70 R 26 0 R 18 -9 R 9 -9 R 8 -26 R 0 -17 R -8 -27 R
-18 -17 R -26 -9 R -26 0 R -27 9 R -9 9 R -8 17 R D 18880 7640 M -27 -9 R
-17 -26 R -9 -44 R 0 -26 R 9 -44 R 17 -26 R 27 -9 R 17 0 R 26 9 R 18 26 R
9 44 R 0 26 R -9 44 R -18 26 R -26 9 R -17 0 R D 13621 7852 M 0 114 R D
13832 7852 M 0 114 R D 14043 7852 M 0 114 R D 14253 7852 M 0 114 R D
14675 7852 M 0 114 R D 14886 7852 M 0 114 R D 15096 7852 M 0 114 R D
15307 7852 M 0 114 R D 15728 7852 M 0 114 R D 15939 7852 M 0 114 R D
16150 7852 M 0 114 R D 16360 7852 M 0 114 R D 16782 7852 M 0 114 R D
16992 7852 M 0 114 R D 17203 7852 M 0 114 R D 17414 7852 M 0 114 R D
17835 7852 M 0 114 R D 18046 7852 M 0 114 R D 18257 7852 M 0 114 R D
18467 7852 M 0 114 R D 13411 13548 M 5267 0 R D 13411 13548 M 0 -228 R D
14464 13548 M 0 -228 R D 15518 13548 M 0 -228 R D 16571 13548 M 0 -228 R D
17625 13548 M 0 -228 R D 18678 13548 M 0 -228 R D 13621 13548 M 0 -114 R D
13832 13548 M 0 -114 R D 14043 13548 M 0 -114 R D 14253 13548 M 0 -114 R D
14675 13548 M 0 -114 R D 14886 13548 M 0 -114 R D 15096 13548 M 0 -114 R D
15307 13548 M 0 -114 R D 15728 13548 M 0 -114 R D 15939 13548 M 0 -114 R D
16150 13548 M 0 -114 R D 16360 13548 M 0 -114 R D 16782 13548 M 0 -114 R D
16992 13548 M 0 -114 R D 17203 13548 M 0 -114 R D 17414 13548 M 0 -114 R D
17835 13548 M 0 -114 R D 18046 13548 M 0 -114 R D 18257 13548 M 0 -114 R D
18467 13548 M 0 -114 R D 13411 7852 M 0 5696 R D 13411 8665 M 210 0 R D
13275 8744 M -88 0 R -9 -79 R 9 9 R 26 9 R 27 0 R 26 -9 R 18 -18 R 8 -26 R
0 -18 R -8 -26 R -18 -17 R -26 -9 R -27 0 R -26 9 R -9 8 R -8 18 R D
13411 9597 M 210 0 R D 13021 9640 M 17 9 R 27 26 R 0 -184 R D 13222 9675 M
-26 -9 R -18 -26 R -8 -44 R 0 -26 R 8 -44 R 18 -26 R 26 -9 R 18 0 R 26 9 R
18 26 R 8 44 R 0 26 R -8 44 R -18 26 R -26 9 R -18 0 R D 13411 10528 M
210 0 R D 13021 10571 M 17 9 R 27 26 R 0 -184 R D 13275 10606 M -88 0 R
-9 -79 R 9 9 R 26 9 R 27 0 R 26 -9 R 18 -18 R 8 -26 R 0 -17 R -8 -27 R
-18 -17 R -26 -9 R -27 0 R -26 9 R -9 8 R -8 18 R D 13411 11459 M 210 0 R D
13003 11493 M 0 9 R 9 17 R 9 9 R 17 9 R 35 0 R 18 -9 R 9 -9 R 8 -17 R
0 -18 R -8 -17 R -18 -26 R -88 -88 R 123 0 R D 13222 11537 M -26 -9 R
-18 -26 R -8 -44 R 0 -26 R 8 -44 R 18 -26 R 26 -9 R 18 0 R 26 9 R 18 26 R
8 44 R 0 26 R -8 44 R -18 26 R -26 9 R -18 0 R D 13411 12390 M 210 0 R D
13003 12424 M 0 9 R 9 17 R 9 9 R 17 9 R 35 0 R 18 -9 R 9 -9 R 8 -17 R
0 -18 R -8 -17 R -18 -26 R -88 -88 R 123 0 R D 13275 12468 M -88 0 R
-9 -79 R 9 9 R 26 9 R 27 0 R 26 -9 R 18 -18 R 8 -26 R 0 -17 R -8 -27 R
-18 -17 R -26 -9 R -27 0 R -26 9 R -9 9 R -8 17 R D 13411 13321 M 210 0 R D
13012 13399 M 96 0 R -52 -70 R 26 0 R 18 -9 R 8 -9 R 9 -26 R 0 -17 R
-9 -27 R -17 -17 R -26 -9 R -27 0 R -26 9 R -9 9 R -9 17 R D 13222 13399 M
-26 -9 R -18 -26 R -8 -44 R 0 -26 R 8 -44 R 18 -26 R 26 -9 R 18 0 R 26 9 R
18 26 R 8 44 R 0 26 R -8 44 R -18 26 R -26 9 R -18 0 R D 13411 7921 M
105 0 R D 13411 8107 M 105 0 R D 13411 8293 M 105 0 R D 13411 8479 M 105 0 R
D 13411 8852 M 105 0 R D 13411 9038 M 105 0 R D 13411 9224 M 105 0 R D
13411 9410 M 105 0 R D 13411 9783 M 105 0 R D 13411 9969 M 105 0 R D
13411 10155 M 105 0 R D 13411 10341 M 105 0 R D 13411 10714 M 105 0 R D
13411 10900 M 105 0 R D 13411 11086 M 105 0 R D 13411 11272 M 105 0 R D
13411 11645 M 105 0 R D 13411 11831 M 105 0 R D 13411 12017 M 105 0 R D
13411 12203 M 105 0 R D 13411 12576 M 105 0 R D 13411 12762 M 105 0 R D
13411 12948 M 105 0 R D 13411 13134 M 105 0 R D 13411 13507 M 105 0 R D
18678 7852 M 0 5696 R D 18678 8665 M -211 0 R D 18678 9597 M -211 0 R D
18678 10528 M -211 0 R D 18678 11459 M -211 0 R D 18678 12390 M -211 0 R D
18678 13321 M -211 0 R D 18678 7921 M -105 0 R D 18678 8107 M -105 0 R D
18678 8293 M -105 0 R D 18678 8479 M -105 0 R D 18678 8852 M -105 0 R D
18678 9038 M -105 0 R D 18678 9224 M -105 0 R D 18678 9410 M -105 0 R D
18678 9783 M -105 0 R D 18678 9969 M -105 0 R D 18678 10155 M -105 0 R D
18678 10341 M -105 0 R D 18678 10714 M -105 0 R D 18678 10900 M -105 0 R D
18678 11086 M -105 0 R D 18678 11272 M -105 0 R D 18678 11645 M -105 0 R D
18678 11831 M -105 0 R D 18678 12017 M -105 0 R D 18678 12203 M -105 0 R D
18678 12576 M -105 0 R D 18678 12762 M -105 0 R D 18678 12948 M -105 0 R D
18678 13134 M -105 0 R D 18678 13507 M -105 0 R D L1 13411 13548 M
526 -1889 R 527 -927 R 632 -634 R 422 -280 R 1053 -454 R 1054 -272 R
1053 -182 R D L2 13411 10669 M 526 -698 R 527 -374 R 632 -273 R 422 -127 R
1053 -216 R 1054 -136 R 1053 -95 R D L0 0.000 0.098 0.890 setrgbcolor
13411 10067 M 526 -668 R 527 -295 R 632 -195 R 422 -78 R 1053 -129 R
1054 -67 R 1053 -37 R D 14078 12340 M 0 -245 R D 14171 12258 M 0 -163 R D
14171 12211 M 35 36 R 24 11 R 35 0 R 23 -11 R 12 -36 R 0 -116 R D
14452 12340 M -94 -245 R D 14452 12340 M 93 -245 R D 14604 12235 M 210 0 R D
14604 12165 M 210 0 R D 14907 12340 M 0 -245 R D 15001 12258 M 0 -163 R D
15001 12211 M 35 36 R 23 11 R 35 0 R 24 -11 R 11 -36 R 0 -116 R D
15223 12387 M 0 -386 R D 15235 12387 M 0 -386 R D 15223 12387 M 82 0 R D
15223 12001 M 82 0 R D 15386 12340 M 0 -245 R D 15386 12340 M 94 -245 R
93 245 R 0 -245 R D 15749 12387 M -24 -24 R -23 -35 R -23 -46 R -12 -59 R
0 -47 R 12 -58 R 23 -58 R 23 -35 R 24 -24 R D 15889 12340 M -35 -12 R
-24 -35 R -11 -58 R 0 -35 R 11 -59 R 24 -35 R 35 -11 R 23 0 R 35 11 R
24 35 R 11 59 R 0 35 R -11 58 R -24 35 R -35 12 R -23 0 R D 16052 12387 M
24 -24 R 23 -35 R 24 -46 R 11 -59 R 0 -47 R -11 -58 R -24 -58 R -23 -35 R
-24 -24 R D 16415 12387 M -211 -386 R D 16485 12258 M 0 -163 R D
16485 12211 M 35 36 R 23 11 R 35 0 R 24 -11 R 11 -36 R 0 -116 R D
16613 12211 M 35 36 R 24 11 R 35 0 R 23 -11 R 12 -36 R 0 -116 R D
16917 12387 M -23 -24 R -24 -35 R -23 -46 R -12 -59 R 0 -47 R 12 -58 R
23 -58 R 24 -35 R 23 -24 R D 17011 12340 M 0 -199 R 11 -35 R 24 -11 R 23 0 R
D 16975 12258 M 82 0 R D 17127 12387 M 24 -24 R 23 -35 R 23 -46 R 12 -59 R
0 -47 R -12 -58 R -23 -58 R -23 -35 R -24 -24 R D 17361 12387 M 0 -386 R D
17373 12387 M 0 -386 R D 17291 12387 M 82 0 R D 17291 12001 M 82 0 R D
50 setlinewidth 13411 10819 M 526 -943 R 527 -483 R 632 -302 R 422 -126 R
1053 -183 R 1054 -98 R 1053 -53 R D 20 setlinewidth 14078 12340 M 0 -245 R D
14171 12258 M 0 -163 R D 14171 12211 M 35 36 R 24 11 R 35 0 R 23 -11 R
12 -36 R 0 -116 R D 14452 12340 M -94 -245 R D 14452 12340 M 93 -245 R D
14604 12235 M 210 0 R D 14604 12165 M 210 0 R D 14907 12340 M 0 -245 R D
15001 12258 M 0 -163 R D 15001 12211 M 35 36 R 23 11 R 35 0 R 24 -11 R
11 -36 R 0 -116 R D 15223 12387 M 0 -386 R D 15235 12387 M 0 -386 R D
15223 12387 M 82 0 R D 15223 12001 M 82 0 R D 15386 12340 M 0 -245 R D
15386 12340 M 94 -245 R 93 245 R 0 -245 R D 15749 12387 M -24 -24 R
-23 -35 R -23 -46 R -12 -59 R 0 -47 R 12 -58 R 23 -58 R 23 -35 R 24 -24 R D
15889 12340 M -35 -12 R -24 -35 R -11 -58 R 0 -35 R 11 -59 R 24 -35 R
35 -11 R 23 0 R 35 11 R 24 35 R 11 59 R 0 35 R -11 58 R -24 35 R -35 12 R
-23 0 R D 16052 12387 M 24 -24 R 23 -35 R 24 -46 R 11 -59 R 0 -47 R
-11 -58 R -24 -58 R -23 -35 R -24 -24 R D 16415 12387 M -211 -386 R D
16485 12258 M 0 -163 R D 16485 12211 M 35 36 R 23 11 R 35 0 R 24 -11 R
11 -36 R 0 -116 R D 16613 12211 M 35 36 R 24 11 R 35 0 R 23 -11 R 12 -36 R
0 -116 R D 16917 12387 M -23 -24 R -24 -35 R -23 -46 R -12 -59 R 0 -47 R
12 -58 R 23 -58 R 24 -35 R 23 -24 R D 17011 12340 M 0 -199 R 11 -35 R
24 -11 R 23 0 R D 16975 12258 M 82 0 R D 17127 12387 M 24 -24 R 23 -35 R
23 -46 R 12 -59 R 0 -47 R -12 -58 R -23 -58 R -23 -35 R -24 -24 R D
17361 12387 M 0 -386 R D 17373 12387 M 0 -386 R D 17291 12387 M 82 0 R D
17291 12001 M 82 0 R D 80 setlinewidth 13411 11326 M 526 -1133 R 527 -541 R
632 -357 R 422 -166 R 1053 -227 R 1054 -136 R 1053 -80 R D 20 setlinewidth
14078 12340 M 0 -245 R D 14171 12258 M 0 -163 R D 14171 12211 M 35 36 R
24 11 R 35 0 R 23 -11 R 12 -36 R 0 -116 R D 14452 12340 M -94 -245 R D
14452 12340 M 93 -245 R D 14604 12235 M 210 0 R D 14604 12165 M 210 0 R D
14907 12340 M 0 -245 R D 15001 12258 M 0 -163 R D 15001 12211 M 35 36 R
23 11 R 35 0 R 24 -11 R 11 -36 R 0 -116 R D 15223 12387 M 0 -386 R D
15235 12387 M 0 -386 R D 15223 12387 M 82 0 R D 15223 12001 M 82 0 R D
15386 12340 M 0 -245 R D 15386 12340 M 94 -245 R 93 245 R 0 -245 R D
15749 12387 M -24 -24 R -23 -35 R -23 -46 R -12 -59 R 0 -47 R 12 -58 R
23 -58 R 23 -35 R 24 -24 R D 15889 12340 M -35 -12 R -24 -35 R -11 -58 R
0 -35 R 11 -59 R 24 -35 R 35 -11 R 23 0 R 35 11 R 24 35 R 11 59 R 0 35 R
-11 58 R -24 35 R -35 12 R -23 0 R D 16052 12387 M 24 -24 R 23 -35 R
24 -46 R 11 -59 R 0 -47 R -11 -58 R -24 -58 R -23 -35 R -24 -24 R D
16415 12387 M -211 -386 R D 16485 12258 M 0 -163 R D 16485 12211 M 35 36 R
23 11 R 35 0 R 24 -11 R 11 -36 R 0 -116 R D 16613 12211 M 35 36 R 24 11 R
35 0 R 23 -11 R 12 -36 R 0 -116 R D 16917 12387 M -23 -24 R -24 -35 R
-23 -46 R -12 -59 R 0 -47 R 12 -58 R 23 -58 R 24 -35 R 23 -24 R D
17011 12340 M 0 -199 R 11 -35 R 24 -11 R 23 0 R D 16975 12258 M 82 0 R D
17127 12387 M 24 -24 R 23 -35 R 23 -46 R 12 -59 R 0 -47 R -12 -58 R
-23 -58 R -23 -35 R -24 -24 R D 17361 12387 M 0 -386 R D 17373 12387 M
0 -386 R D 17291 12387 M 82 0 R D 17291 12001 M 82 0 R D
0.000 0.000 0.000 setrgbcolor 17203 13194 M -35 18 R -53 0 R -35 -18 R
-35 -35 R -17 -52 R 0 -53 R 17 -52 R 18 -18 R 35 -17 R 52 0 R 35 17 R D
17028 13089 M 140 0 R D 17325 13177 M 316 0 R D 17325 13072 M 316 0 R D
17816 13265 M 35 17 R 53 53 R 0 -368 R D 18149 13002 M -17 -18 R 17 -17 R
18 17 R -18 18 R D 18395 13335 M -53 -18 R -35 -52 R -18 -88 R 0 -53 R
18 -87 R 35 -53 R 53 -17 R 35 0 R 52 17 R 35 53 R 18 87 R 0 53 R -18 88 R
-35 52 R -52 18 R -35 0 R D 14078 12049 M 0 -245 R D 14078 11932 M 23 24 R
24 12 R 35 0 R 23 -12 R 23 -24 R 12 -35 R 0 -23 R -12 -35 R -23 -23 R
-23 -12 R -35 0 R -24 12 R -23 23 R D 14417 11932 M -12 24 R -35 12 R
-35 0 R -35 -12 R -12 -24 R 12 -23 R 23 -12 R 59 -11 R 23 -12 R 12 -23 R
0 -12 R -12 -23 R -35 -12 R -35 0 R -35 12 R -12 23 R D 14522 12003 M
23 11 R 35 35 R 0 -245 R D 14732 11968 M 0 -164 R D 14732 11897 M 12 35 R
23 24 R 24 12 R 35 0 R D 15001 11932 M -12 24 R -35 12 R -35 0 R -35 -12 R
-12 -24 R 12 -23 R 23 -12 R 59 -11 R 23 -12 R 12 -23 R 0 -12 R -12 -23 R
-35 -12 R -35 0 R -35 12 R -12 23 R D 8615 525 M 0 -245 R D 8615 455 M
53 53 R 35 17 R 53 0 R 35 -17 R 17 -53 R 0 -175 R D 8808 455 M 53 53 R
35 17 R 52 0 R 35 -17 R 18 -53 R 0 -175 R D 9264 718 M -35 -35 R -35 -52 R
-35 -71 R -18 -87 R 0 -70 R 18 -88 R 35 -88 R 35 -52 R 35 -35 R D 9474 648 M
-52 -17 R -36 -53 R -17 -88 R 0 -52 R 17 -88 R 36 -52 R 52 -18 R 35 0 R
53 18 R 35 52 R 17 88 R 0 52 R -17 88 R -35 53 R -53 17 R -35 0 R D
9719 718 M 36 -35 R 35 -52 R 35 -71 R 17 -87 R 0 -70 R -17 -88 R -35 -88 R
-35 -52 R -36 -35 R D 10263 718 M -316 -578 R D 10368 648 M 0 -368 R D
10368 648 M 140 -368 R 140 368 R 0 -368 R D 10911 718 M -35 -35 R -35 -52 R
-35 -71 R -17 -87 R 0 -70 R 17 -88 R 35 -88 R 35 -52 R 35 -35 R D
11122 648 M -53 -17 R -35 -53 R -18 -88 R 0 -52 R 18 -88 R 35 -52 R 53 -18 R
35 0 R 52 18 R 35 52 R 18 88 R 0 52 R -18 88 R -35 53 R -52 17 R -35 0 R D
11367 718 M 35 -35 R 35 -52 R 35 -71 R 18 -87 R 0 -70 R -18 -88 R -35 -88 R
-35 -52 R -35 -35 R D 515 5133 M 245 0 R D 585 5133 M -53 52 R -17 35 R
0 53 R 17 35 R 53 18 R 175 0 R D 585 5326 M -53 52 R -17 35 R 0 53 R 17 35 R
53 17 R 175 0 R D 620 5641 M 0 210 R -35 0 R -35 -17 R -18 -18 R -17 -35 R
0 -52 R 17 -35 R 35 -35 R 53 -18 R 35 0 R 52 18 R 35 35 R 18 35 R 0 52 R
-18 35 R -35 35 R D 515 5974 M 245 0 R D 620 5974 M -53 18 R -35 35 R
-17 35 R 0 52 R D 515 6395 M 298 0 R 52 -18 R 18 -17 R 17 -35 R 0 -53 R
-17 -35 R D 567 6395 M -35 -35 R -17 -35 R 0 -53 R 17 -35 R 35 -35 R
53 -18 R 35 0 R 52 18 R 35 35 R 18 35 R 0 53 R -18 35 R -35 35 R D
620 6517 M 0 211 R -35 0 R -35 -18 R -18 -17 R -17 -35 R 0 -53 R 17 -35 R
35 -35 R 53 -18 R 35 0 R 52 18 R 35 35 R 18 35 R 0 53 R -18 35 R -35 35 R D
515 6850 M 245 0 R D 620 6850 M -53 18 R -35 35 R -17 35 R 0 53 R D
392 7376 M 298 0 R 52 18 R 18 35 R 0 35 R D 515 7324 M 0 122 R D 392 7551 M
17 18 R -17 17 R -18 -17 R 18 -18 R D 515 7569 M 245 0 R D 515 7709 M
245 0 R D 585 7709 M -53 53 R -17 35 R 0 52 R 17 35 R 53 18 R 175 0 R D
585 7902 M -53 53 R -17 35 R 0 52 R 17 35 R 53 18 R 175 0 R D 620 8217 M
0 211 R -35 0 R -35 -18 R -18 -17 R -17 -35 R 0 -53 R 17 -35 R 35 -35 R
53 -18 R 35 0 R 52 18 R 35 35 R 18 35 R 0 53 R -18 35 R -35 35 R D
322 8831 M 578 -316 R D 480 9181 M -35 -17 R -36 -35 R -17 -35 R 0 -70 R
17 -35 R 36 -35 R 35 -18 R 52 -17 R 88 0 R 52 17 R 35 18 R 35 35 R 18 35 R
0 70 R -18 35 R -35 35 R -35 17 R -52 0 R 0 -87 R D 515 9269 M 245 105 R
-245 105 R D 760 9374 M 88 -35 R 35 -35 R 17 -35 R 0 -18 R D 515 9585 M
245 0 R D 620 9585 M -53 17 R -35 35 R -17 35 R 0 53 R D 1544 1452 M
5267 0 R D 1544 1452 M 0 228 R D 1307 1240 M -26 -9 R -17 -26 R -9 -44 R
0 -26 R 9 -44 R 17 -26 R 26 -9 R 18 0 R 26 9 R 18 26 R 9 44 R 0 26 R -9 44 R
-18 26 R -26 9 R -18 0 R D 1448 1074 M -9 -9 R 9 -9 R 8 9 R -8 9 R D
1570 1240 M -26 -9 R -18 -26 R -8 -44 R 0 -26 R 8 -44 R 18 -26 R 26 -9 R
18 0 R 26 9 R 18 26 R 8 44 R 0 26 R -8 44 R -18 26 R -26 9 R -18 0 R D
1798 1240 M -88 0 R -8 -79 R 8 9 R 27 9 R 26 0 R 26 -9 R 18 -18 R 9 -26 R
0 -17 R -9 -27 R -18 -17 R -26 -9 R -26 0 R -27 9 R -8 9 R -9 17 R D
2597 1452 M 0 228 R D 2361 1240 M -26 -9 R -18 -26 R -9 -44 R 0 -26 R
9 -44 R 18 -26 R 26 -9 R 17 0 R 27 9 R 17 26 R 9 44 R 0 26 R -9 44 R
-17 26 R -27 9 R -17 0 R D 2501 1074 M -9 -9 R 9 -9 R 9 9 R -9 9 R D
2597 1205 M 18 9 R 26 26 R 0 -184 R D 2799 1240 M -26 -9 R -18 -26 R
-9 -44 R 0 -26 R 9 -44 R 18 -26 R 26 -9 R 18 0 R 26 9 R 17 26 R 9 44 R
0 26 R -9 44 R -17 26 R -26 9 R -18 0 R D 3651 1452 M 0 228 R D 3414 1240 M
-26 -9 R -17 -26 R -9 -44 R 0 -26 R 9 -44 R 17 -26 R 26 -9 R 18 0 R 26 9 R
18 26 R 8 44 R 0 26 R -8 44 R -18 26 R -26 9 R -18 0 R D 3555 1074 M -9 -9 R
9 -9 R 8 9 R -8 9 R D 3651 1205 M 17 9 R 27 26 R 0 -184 R D 3905 1240 M
-88 0 R -8 -79 R 8 9 R 27 9 R 26 0 R 26 -9 R 18 -18 R 9 -26 R 0 -17 R
-9 -27 R -18 -17 R -26 -9 R -26 0 R -27 9 R -8 9 R -9 17 R D 4704 1452 M
0 228 R D 4468 1240 M -26 -9 R -18 -26 R -9 -44 R 0 -26 R 9 -44 R 18 -26 R
26 -9 R 17 0 R 27 9 R 17 26 R 9 44 R 0 26 R -9 44 R -17 26 R -27 9 R -17 0 R
D 4608 1074 M -9 -9 R 9 -9 R 9 9 R -9 9 R D 4687 1196 M 0 9 R 9 18 R 8 8 R
18 9 R 35 0 R 18 -9 R 8 -8 R 9 -18 R 0 -18 R -9 -17 R -17 -26 R -88 -88 R
123 0 R D 4906 1240 M -26 -9 R -18 -26 R -9 -44 R 0 -26 R 9 -44 R 18 -26 R
26 -9 R 17 0 R 27 9 R 17 26 R 9 44 R 0 26 R -9 44 R -17 26 R -27 9 R -17 0 R
D 5758 1452 M 0 228 R D 5521 1240 M -26 -9 R -18 -26 R -8 -44 R 0 -26 R
8 -44 R 18 -26 R 26 -9 R 18 0 R 26 9 R 18 26 R 8 44 R 0 26 R -8 44 R
-18 26 R -26 9 R -18 0 R D 5661 1074 M -8 -9 R 8 -9 R 9 9 R -9 9 R D
5740 1196 M 0 9 R 9 18 R 9 8 R 17 9 R 35 0 R 18 -9 R 9 -8 R 8 -18 R 0 -18 R
-8 -17 R -18 -26 R -87 -88 R 122 0 R D 6012 1240 M -88 0 R -8 -79 R 8 9 R
27 9 R 26 0 R 26 -9 R 18 -18 R 9 -26 R 0 -17 R -9 -27 R -18 -17 R -26 -9 R
-26 0 R -27 9 R -8 9 R -9 17 R D 6811 1452 M 0 228 R D 6575 1240 M -27 -9 R
-17 -26 R -9 -44 R 0 -26 R 9 -44 R 17 -26 R 27 -9 R 17 0 R 27 9 R 17 26 R
9 44 R 0 26 R -9 44 R -17 26 R -27 9 R -17 0 R D 6715 1074 M -9 -9 R 9 -9 R
9 9 R -9 9 R D 6803 1240 M 96 0 R -53 -70 R 27 0 R 17 -9 R 9 -9 R 9 -26 R
0 -17 R -9 -27 R -18 -17 R -26 -9 R -26 0 R -26 9 R -9 9 R -9 17 R D
7013 1240 M -26 -9 R -18 -26 R -9 -44 R 0 -26 R 9 -44 R 18 -26 R 26 -9 R
17 0 R 27 9 R 17 26 R 9 44 R 0 26 R -9 44 R -17 26 R -27 9 R -17 0 R D
1755 1452 M 0 114 R D 1965 1452 M 0 114 R D 2176 1452 M 0 114 R D
2387 1452 M 0 114 R D 2808 1452 M 0 114 R D 3019 1452 M 0 114 R D
3230 1452 M 0 114 R D 3440 1452 M 0 114 R D 3862 1452 M 0 114 R D
4072 1452 M 0 114 R D 4283 1452 M 0 114 R D 4494 1452 M 0 114 R D
4915 1452 M 0 114 R D 5126 1452 M 0 114 R D 5336 1452 M 0 114 R D
5547 1452 M 0 114 R D 5969 1452 M 0 114 R D 6179 1452 M 0 114 R D
6390 1452 M 0 114 R D 6601 1452 M 0 114 R D 1544 7148 M 5267 0 R D
1544 7148 M 0 -228 R D 2597 7148 M 0 -228 R D 3651 7148 M 0 -228 R D
4704 7148 M 0 -228 R D 5758 7148 M 0 -228 R D 6811 7148 M 0 -228 R D
1755 7148 M 0 -114 R D 1965 7148 M 0 -114 R D 2176 7148 M 0 -114 R D
2387 7148 M 0 -114 R D 2808 7148 M 0 -114 R D 3019 7148 M 0 -114 R D
3230 7148 M 0 -114 R D 3440 7148 M 0 -114 R D 3862 7148 M 0 -114 R D
4072 7148 M 0 -114 R D 4283 7148 M 0 -114 R D 4494 7148 M 0 -114 R D
4915 7148 M 0 -114 R D 5126 7148 M 0 -114 R D 5336 7148 M 0 -114 R D
5547 7148 M 0 -114 R D 5969 7148 M 0 -114 R D 6179 7148 M 0 -114 R D
6390 7148 M 0 -114 R D 6601 7148 M 0 -114 R D 1544 1452 M 0 5696 R D
1544 2743 M 211 0 R D 1312 2777 M 0 9 R 9 17 R 8 9 R 18 9 R 35 0 R 17 -9 R
9 -9 R 9 -17 R 0 -18 R -9 -17 R -17 -26 R -88 -88 R 123 0 R D 1544 4151 M
211 0 R D 1391 4229 M -88 -123 R 131 0 R D 1391 4229 M 0 -184 R D
1544 5559 M 211 0 R D 1417 5611 M -9 17 R -26 9 R -18 0 R -26 -9 R -17 -26 R
-9 -44 R 0 -43 R 9 -36 R 17 -17 R 26 -9 R 9 0 R 26 9 R 18 17 R 9 27 R 0 9 R
-9 26 R -18 17 R -26 9 R -9 0 R -26 -9 R -17 -17 R -9 -26 R D 1544 6967 M
211 0 R D 1347 7045 M -26 -8 R -9 -18 R 0 -18 R 9 -17 R 17 -9 R 35 -9 R
26 -8 R 18 -18 R 9 -17 R 0 -27 R -9 -17 R -9 -9 R -26 -9 R -35 0 R -26 9 R
-9 9 R -9 17 R 0 27 R 9 17 R 17 18 R 27 8 R 35 9 R 17 9 R 9 17 R 0 18 R
-9 18 R -26 8 R -35 0 R D 1544 1686 M 105 0 R D 1544 2039 M 105 0 R D
1544 2391 M 105 0 R D 1544 3095 M 105 0 R D 1544 3447 M 105 0 R D
1544 3799 M 105 0 R D 1544 4503 M 105 0 R D 1544 4855 M 105 0 R D
1544 5207 M 105 0 R D 1544 5911 M 105 0 R D 1544 6263 M 105 0 R D
1544 6615 M 105 0 R D 6811 1452 M 0 5696 R D 6811 2743 M -210 0 R D
6811 4151 M -210 0 R D 6811 5559 M -210 0 R D 6811 6967 M -210 0 R D
6811 1686 M -105 0 R D 6811 2039 M -105 0 R D 6811 2391 M -105 0 R D
6811 3095 M -105 0 R D 6811 3447 M -105 0 R D 6811 3799 M -105 0 R D
6811 4503 M -105 0 R D 6811 4855 M -105 0 R D 6811 5207 M -105 0 R D
6811 5911 M -105 0 R D 6811 6263 M -105 0 R D 6811 6615 M -105 0 R D L1
1544 7147 M 527 -1888 R 526 -927 R 633 -634 R 421 -280 R 1053 -454 R
1054 -272 R 1053 -182 R D L2 2068 7147 M 3 -10 R 526 -970 R 633 -711 R
421 -329 R 1053 -559 R 1054 -354 R 1053 -246 R D L0
0.000 0.098 0.890 setrgbcolor 1544 5782 M 527 -1752 R 526 -637 R 633 -440 R
421 -165 R 1053 -214 R 1054 -117 R 1053 -61 R D 50 setlinewidth 2113 7147 M
484 -2088 R 633 -1259 R 421 -455 R 1053 -454 R 1054 -286 R 1053 -107 R D
80 setlinewidth 2848 7147 M 382 -1168 R 421 -987 R 1053 -1282 R 1054 -601 R
1053 -267 R D 20 setlinewidth 0.000 0.000 0.000 setrgbcolor 5336 6794 M
-35 18 R -53 0 R -35 -18 R -35 -35 R -17 -52 R 0 -53 R 17 -52 R 18 -18 R
35 -17 R 53 0 R 35 17 R D 5161 6689 M 140 0 R D 5459 6777 M 315 0 R D
5459 6672 M 315 0 R D 6002 6935 M -52 -18 R -36 -52 R -17 -88 R 0 -53 R
17 -87 R 36 -53 R 52 -17 R 35 0 R 53 17 R 35 53 R 17 87 R 0 53 R -17 88 R
-35 52 R -53 18 R -35 0 R D 6283 6602 M -18 -18 R 18 -17 R 17 17 R -17 18 R
D 6458 6935 M 193 0 R -106 -141 R 53 0 R 35 -17 R 18 -18 R 17 -52 R 0 -35 R
-17 -53 R -35 -35 R -53 -17 R -53 0 R -52 17 R -18 18 R -17 35 R D
7477 1452 M 5268 0 R D 7477 1452 M 0 228 R D 7241 1240 M -27 -9 R -17 -26 R
-9 -44 R 0 -26 R 9 -44 R 17 -26 R 27 -9 R 17 0 R 27 9 R 17 26 R 9 44 R
0 26 R -9 44 R -17 26 R -27 9 R -17 0 R D 7381 1074 M -9 -9 R 9 -9 R 9 9 R
-9 9 R D 7504 1240 M -27 -9 R -17 -26 R -9 -44 R 0 -26 R 9 -44 R 17 -26 R
27 -9 R 17 0 R 26 9 R 18 26 R 9 44 R 0 26 R -9 44 R -18 26 R -26 9 R -17 0 R
D 7731 1240 M -87 0 R -9 -79 R 9 9 R 26 9 R 26 0 R 27 -9 R 17 -18 R 9 -26 R
0 -17 R -9 -27 R -17 -17 R -27 -9 R -26 0 R -26 9 R -9 9 R -9 17 R D
8531 1452 M 0 228 R D 8294 1240 M -26 -9 R -18 -26 R -8 -44 R 0 -26 R
8 -44 R 18 -26 R 26 -9 R 18 0 R 26 9 R 18 26 R 8 44 R 0 26 R -8 44 R
-18 26 R -26 9 R -18 0 R D 8434 1074 M -8 -9 R 8 -9 R 9 9 R -9 9 R D
8531 1205 M 17 9 R 27 26 R 0 -184 R D 8732 1240 M -26 -9 R -17 -26 R
-9 -44 R 0 -26 R 9 -44 R 17 -26 R 26 -9 R 18 0 R 26 9 R 18 26 R 8 44 R
0 26 R -8 44 R -18 26 R -26 9 R -18 0 R D 9584 1452 M 0 228 R D 9348 1240 M
-27 -9 R -17 -26 R -9 -44 R 0 -26 R 9 -44 R 17 -26 R 27 -9 R 17 0 R 26 9 R
18 26 R 9 44 R 0 26 R -9 44 R -18 26 R -26 9 R -17 0 R D 9488 1074 M -9 -9 R
9 -9 R 9 9 R -9 9 R D 9584 1205 M 18 9 R 26 26 R 0 -184 R D 9838 1240 M
-87 0 R -9 -79 R 9 9 R 26 9 R 26 0 R 27 -9 R 17 -18 R 9 -26 R 0 -17 R
-9 -27 R -17 -17 R -27 -9 R -26 0 R -26 9 R -9 9 R -9 17 R D 10638 1452 M
0 228 R D 10401 1240 M -26 -9 R -18 -26 R -8 -44 R 0 -26 R 8 -44 R 18 -26 R
26 -9 R 18 0 R 26 9 R 17 26 R 9 44 R 0 26 R -9 44 R -17 26 R -26 9 R -18 0 R
D 10541 1074 M -8 -9 R 8 -9 R 9 9 R -9 9 R D 10620 1196 M 0 9 R 9 18 R 9 8 R
17 9 R 35 0 R 18 -9 R 9 -8 R 8 -18 R 0 -18 R -8 -17 R -18 -26 R -88 -88 R
123 0 R D 10839 1240 M -26 -9 R -18 -26 R -8 -44 R 0 -26 R 8 -44 R 18 -26 R
26 -9 R 18 0 R 26 9 R 18 26 R 8 44 R 0 26 R -8 44 R -18 26 R -26 9 R -18 0 R
D 11691 1452 M 0 228 R D 11455 1240 M -27 -9 R -17 -26 R -9 -44 R 0 -26 R
9 -44 R 17 -26 R 27 -9 R 17 0 R 26 9 R 18 26 R 9 44 R 0 26 R -9 44 R
-18 26 R -26 9 R -17 0 R D 11595 1074 M -9 -9 R 9 -9 R 9 9 R -9 9 R D
11674 1196 M 0 9 R 8 18 R 9 8 R 18 9 R 35 0 R 17 -9 R 9 -8 R 9 -18 R 0 -18 R
-9 -17 R -17 -26 R -88 -88 R 123 0 R D 11945 1240 M -87 0 R -9 -79 R 9 9 R
26 9 R 26 0 R 27 -9 R 17 -18 R 9 -26 R 0 -17 R -9 -27 R -17 -17 R -27 -9 R
-26 0 R -26 9 R -9 9 R -9 17 R D 12745 1452 M 0 228 R D 12508 1240 M
-26 -9 R -18 -26 R -9 -44 R 0 -26 R 9 -44 R 18 -26 R 26 -9 R 18 0 R 26 9 R
17 26 R 9 44 R 0 26 R -9 44 R -17 26 R -26 9 R -18 0 R D 12648 1074 M
-8 -9 R 8 -9 R 9 9 R -9 9 R D 12736 1240 M 96 0 R -52 -70 R 26 0 R 18 -9 R
8 -9 R 9 -26 R 0 -17 R -9 -27 R -17 -17 R -27 -9 R -26 0 R -26 9 R -9 9 R
-9 17 R D 12946 1240 M -26 -9 R -18 -26 R -8 -44 R 0 -26 R 8 -44 R 18 -26 R
26 -9 R 18 0 R 26 9 R 18 26 R 8 44 R 0 26 R -8 44 R -18 26 R -26 9 R -18 0 R
D 7688 1452 M 0 114 R D 7899 1452 M 0 114 R D 8109 1452 M 0 114 R D
8320 1452 M 0 114 R D 8741 1452 M 0 114 R D 8952 1452 M 0 114 R D
9163 1452 M 0 114 R D 9374 1452 M 0 114 R D 9795 1452 M 0 114 R D
10006 1452 M 0 114 R D 10216 1452 M 0 114 R D 10427 1452 M 0 114 R D
10848 1452 M 0 114 R D 11059 1452 M 0 114 R D 11270 1452 M 0 114 R D
11481 1452 M 0 114 R D 11902 1452 M 0 114 R D 12113 1452 M 0 114 R D
12323 1452 M 0 114 R D 12534 1452 M 0 114 R D 7477 7148 M 5268 0 R D
7477 7148 M 0 -228 R D 8531 7148 M 0 -228 R D 9584 7148 M 0 -228 R D
10638 7148 M 0 -228 R D 11691 7148 M 0 -228 R D 12745 7148 M 0 -228 R D
7688 7148 M 0 -114 R D 7899 7148 M 0 -114 R D 8109 7148 M 0 -114 R D
8320 7148 M 0 -114 R D 8741 7148 M 0 -114 R D 8952 7148 M 0 -114 R D
9163 7148 M 0 -114 R D 9374 7148 M 0 -114 R D 9795 7148 M 0 -114 R D
10006 7148 M 0 -114 R D 10216 7148 M 0 -114 R D 10427 7148 M 0 -114 R D
10848 7148 M 0 -114 R D 11059 7148 M 0 -114 R D 11270 7148 M 0 -114 R D
11481 7148 M 0 -114 R D 11902 7148 M 0 -114 R D 12113 7148 M 0 -114 R D
12323 7148 M 0 -114 R D 12534 7148 M 0 -114 R D 7477 1452 M 0 5696 R D
7477 2297 M 211 0 R D 7245 2332 M 0 9 R 9 17 R 9 9 R 17 9 R 35 0 R 18 -9 R
9 -9 R 8 -17 R 0 -18 R -8 -17 R -18 -27 R -88 -87 R 123 0 R D 7477 3260 M
211 0 R D 7324 3339 M -88 -123 R 132 0 R D 7324 3339 M 0 -184 R D
7477 4223 M 211 0 R D 7350 4275 M -8 18 R -27 9 R -17 0 R -27 -9 R -17 -26 R
-9 -44 R 0 -44 R 9 -35 R 17 -18 R 27 -8 R 8 0 R 27 8 R 17 18 R 9 26 R 0 9 R
-9 26 R -17 18 R -27 9 R -8 0 R -27 -9 R -17 -18 R -9 -26 R D 7477 5186 M
211 0 R D 7280 5265 M -26 -9 R -9 -18 R 0 -17 R 9 -18 R 17 -8 R 35 -9 R
27 -9 R 17 -17 R 9 -18 R 0 -26 R -9 -18 R -8 -9 R -27 -8 R -35 0 R -26 8 R
-9 9 R -9 18 R 0 26 R 9 18 R 18 17 R 26 9 R 35 9 R 18 8 R 8 18 R 0 17 R
-8 18 R -27 9 R -35 0 R D 7477 6149 M 211 0 R D 7087 6193 M 18 8 R 26 27 R
0 -184 R D 7289 6228 M -26 -9 R -18 -26 R -9 -44 R 0 -27 R 9 -43 R 18 -27 R
26 -8 R 17 0 R 27 8 R 17 27 R 9 43 R 0 27 R -9 44 R -17 26 R -27 9 R -17 0 R
D 7477 7112 M 211 0 R D 7087 7112 M 18 9 R 26 26 R 0 -184 R D 7245 7103 M
0 9 R 9 18 R 9 8 R 17 9 R 35 0 R 18 -9 R 9 -8 R 8 -18 R 0 -17 R -8 -18 R
-18 -26 R -88 -88 R 123 0 R D 7477 1575 M 106 0 R D 7477 1816 M 106 0 R D
7477 2057 M 106 0 R D 7477 2538 M 106 0 R D 7477 2779 M 106 0 R D
7477 3020 M 106 0 R D 7477 3501 M 106 0 R D 7477 3742 M 106 0 R D
7477 3983 M 106 0 R D 7477 4464 M 106 0 R D 7477 4705 M 106 0 R D
7477 4946 M 106 0 R D 7477 5427 M 106 0 R D 7477 5668 M 106 0 R D
7477 5908 M 106 0 R D 7477 6390 M 106 0 R D 7477 6631 M 106 0 R D
7477 6871 M 106 0 R D 12745 1452 M 0 5696 R D 12745 2297 M -211 0 R D
12745 3260 M -211 0 R D 12745 4223 M -211 0 R D 12745 5186 M -211 0 R D
12745 6149 M -211 0 R D 12745 7112 M -211 0 R D 12745 1575 M -106 0 R D
12745 1816 M -106 0 R D 12745 2057 M -106 0 R D 12745 2538 M -106 0 R D
12745 2779 M -106 0 R D 12745 3020 M -106 0 R D 12745 3501 M -106 0 R D
12745 3742 M -106 0 R D 12745 3983 M -106 0 R D 12745 4464 M -106 0 R D
12745 4705 M -106 0 R D 12745 4946 M -106 0 R D 12745 5427 M -106 0 R D
12745 5668 M -106 0 R D 12745 5908 M -106 0 R D 12745 6390 M -106 0 R D
12745 6631 M -106 0 R D 12745 6871 M -106 0 R D L1 7477 7147 M 527 -1888 R
527 -927 R 632 -634 R 421 -280 R 1054 -454 R 1053 -272 R 1053 -182 R D L2
7550 7147 M 454 -1230 R 527 -766 R 632 -561 R 421 -260 R 1054 -442 R
1053 -279 R 1053 -194 R D L0 0.000 0.098 0.890 setrgbcolor 7477 5722 M
527 -1755 R 527 -619 R 632 -399 R 421 -59 R 1054 -62 R 1053 -417 R
1053 -52 R D 50 setlinewidth 7968 7147 M 36 -320 R 527 -1949 R 632 -1119 R
421 -419 R 1054 -519 R 1053 -204 R 1053 -167 R D 80 setlinewidth 8524 7147 M
7 -36 R 632 -1833 R 421 -717 R 1054 -988 R 1053 -520 R 1053 -300 R D
20 setlinewidth 0.000 0.000 0.000 setrgbcolor 11269 6794 M -35 18 R -52 0 R
-35 -18 R -35 -35 R -18 -52 R 0 -53 R 18 -52 R 17 -18 R 35 -17 R 53 0 R
35 17 R D 11094 6689 M 140 0 R D 11392 6777 M 316 0 R D 11392 6672 M 316 0 R
D 11935 6935 M -52 -18 R -35 -52 R -18 -88 R 0 -53 R 18 -87 R 35 -53 R
52 -17 R 35 0 R 53 17 R 35 53 R 18 87 R 0 53 R -18 88 R -35 52 R -53 18 R
-35 0 R D 12216 6602 M -18 -18 R 18 -17 R 17 17 R -17 18 R D 12566 6935 M
-175 0 R -17 -158 R 17 17 R 53 18 R 52 0 R 53 -18 R 35 -35 R 17 -52 R
0 -35 R -17 -53 R -35 -35 R -53 -17 R -52 0 R -53 17 R -17 18 R -18 35 R D
13411 1452 M 5267 0 R D 13411 1452 M 0 228 R D 13174 1240 M -26 -9 R
-18 -26 R -9 -44 R 0 -26 R 9 -44 R 18 -26 R 26 -9 R 18 0 R 26 9 R 17 26 R
9 44 R 0 26 R -9 44 R -17 26 R -26 9 R -18 0 R D 13314 1074 M -8 -9 R 8 -9 R
9 9 R -9 9 R D 13437 1240 M -26 -9 R -18 -26 R -9 -44 R 0 -26 R 9 -44 R
18 -26 R 26 -9 R 17 0 R 27 9 R 17 26 R 9 44 R 0 26 R -9 44 R -17 26 R
-27 9 R -17 0 R D 13665 1240 M -88 0 R -9 -79 R 9 9 R 26 9 R 27 0 R 26 -9 R
18 -18 R 8 -26 R 0 -17 R -8 -27 R -18 -17 R -26 -9 R -27 0 R -26 9 R -9 9 R
-8 17 R D 14464 1452 M 0 228 R D 14228 1240 M -27 -9 R -17 -26 R -9 -44 R
0 -26 R 9 -44 R 17 -26 R 27 -9 R 17 0 R 26 9 R 18 26 R 9 44 R 0 26 R -9 44 R
-18 26 R -26 9 R -17 0 R D 14368 1074 M -9 -9 R 9 -9 R 9 9 R -9 9 R D
14464 1205 M 18 9 R 26 26 R 0 -184 R D 14666 1240 M -27 -9 R -17 -26 R
-9 -44 R 0 -26 R 9 -44 R 17 -26 R 27 -9 R 17 0 R 27 9 R 17 26 R 9 44 R
0 26 R -9 44 R -17 26 R -27 9 R -17 0 R D 15518 1452 M 0 228 R D
15281 1240 M -26 -9 R -18 -26 R -9 -44 R 0 -26 R 9 -44 R 18 -26 R 26 -9 R
18 0 R 26 9 R 17 26 R 9 44 R 0 26 R -9 44 R -17 26 R -26 9 R -18 0 R D
15421 1074 M -9 -9 R 9 -9 R 9 9 R -9 9 R D 15518 1205 M 17 9 R 26 26 R
0 -184 R D 15772 1240 M -88 0 R -9 -79 R 9 9 R 26 9 R 27 0 R 26 -9 R
17 -18 R 9 -26 R 0 -17 R -9 -27 R -17 -17 R -26 -9 R -27 0 R -26 9 R -9 9 R
-8 17 R D 16571 1452 M 0 228 R D 16334 1240 M -26 -9 R -17 -26 R -9 -44 R
0 -26 R 9 -44 R 17 -26 R 26 -9 R 18 0 R 26 9 R 18 26 R 9 44 R 0 26 R -9 44 R
-18 26 R -26 9 R -18 0 R D 16475 1074 M -9 -9 R 9 -9 R 8 9 R -8 9 R D
16554 1196 M 0 9 R 8 18 R 9 8 R 18 9 R 35 0 R 17 -9 R 9 -8 R 9 -18 R 0 -18 R
-9 -17 R -18 -26 R -87 -88 R 122 0 R D 16773 1240 M -27 -9 R -17 -26 R
-9 -44 R 0 -26 R 9 -44 R 17 -26 R 27 -9 R 17 0 R 26 9 R 18 26 R 9 44 R
0 26 R -9 44 R -18 26 R -26 9 R -17 0 R D 17625 1452 M 0 228 R D
17388 1240 M -26 -9 R -18 -26 R -9 -44 R 0 -26 R 9 -44 R 18 -26 R 26 -9 R
17 0 R 27 9 R 17 26 R 9 44 R 0 26 R -9 44 R -17 26 R -27 9 R -17 0 R D
17528 1074 M -9 -9 R 9 -9 R 9 9 R -9 9 R D 17607 1196 M 0 9 R 9 18 R 9 8 R
17 9 R 35 0 R 18 -9 R 8 -8 R 9 -18 R 0 -18 R -9 -17 R -17 -26 R -88 -88 R
123 0 R D 17879 1240 M -88 0 R -9 -79 R 9 9 R 26 9 R 27 0 R 26 -9 R 17 -18 R
9 -26 R 0 -17 R -9 -27 R -17 -17 R -26 -9 R -27 0 R -26 9 R -9 9 R -8 17 R D
18678 1452 M 0 228 R D 18441 1240 M -26 -9 R -17 -26 R -9 -44 R 0 -26 R
9 -44 R 17 -26 R 26 -9 R 18 0 R 26 9 R 18 26 R 9 44 R 0 26 R -9 44 R
-18 26 R -26 9 R -18 0 R D 18582 1074 M -9 -9 R 9 -9 R 8 9 R -8 9 R D
18669 1240 M 97 0 R -53 -70 R 26 0 R 18 -9 R 9 -9 R 8 -26 R 0 -17 R -8 -27 R
-18 -17 R -26 -9 R -26 0 R -27 9 R -9 9 R -8 17 R D 18880 1240 M -27 -9 R
-17 -26 R -9 -44 R 0 -26 R 9 -44 R 17 -26 R 27 -9 R 17 0 R 26 9 R 18 26 R
9 44 R 0 26 R -9 44 R -18 26 R -26 9 R -17 0 R D 13621 1452 M 0 114 R D
13832 1452 M 0 114 R D 14043 1452 M 0 114 R D 14253 1452 M 0 114 R D
14675 1452 M 0 114 R D 14886 1452 M 0 114 R D 15096 1452 M 0 114 R D
15307 1452 M 0 114 R D 15728 1452 M 0 114 R D 15939 1452 M 0 114 R D
16150 1452 M 0 114 R D 16360 1452 M 0 114 R D 16782 1452 M 0 114 R D
16992 1452 M 0 114 R D 17203 1452 M 0 114 R D 17414 1452 M 0 114 R D
17835 1452 M 0 114 R D 18046 1452 M 0 114 R D 18257 1452 M 0 114 R D
18467 1452 M 0 114 R D 13411 7148 M 5267 0 R D 13411 7148 M 0 -228 R D
14464 7148 M 0 -228 R D 15518 7148 M 0 -228 R D 16571 7148 M 0 -228 R D
17625 7148 M 0 -228 R D 18678 7148 M 0 -228 R D 13621 7148 M 0 -114 R D
13832 7148 M 0 -114 R D 14043 7148 M 0 -114 R D 14253 7148 M 0 -114 R D
14675 7148 M 0 -114 R D 14886 7148 M 0 -114 R D 15096 7148 M 0 -114 R D
15307 7148 M 0 -114 R D 15728 7148 M 0 -114 R D 15939 7148 M 0 -114 R D
16150 7148 M 0 -114 R D 16360 7148 M 0 -114 R D 16782 7148 M 0 -114 R D
16992 7148 M 0 -114 R D 17203 7148 M 0 -114 R D 17414 7148 M 0 -114 R D
17835 7148 M 0 -114 R D 18046 7148 M 0 -114 R D 18257 7148 M 0 -114 R D
18467 7148 M 0 -114 R D 13411 1452 M 0 5696 R D 13411 2265 M 210 0 R D
13275 2344 M -88 0 R -9 -79 R 9 9 R 26 9 R 27 0 R 26 -9 R 18 -18 R 8 -26 R
0 -18 R -8 -26 R -18 -17 R -26 -9 R -27 0 R -26 9 R -9 8 R -8 18 R D
13411 3197 M 210 0 R D 13021 3240 M 17 9 R 27 26 R 0 -184 R D 13222 3275 M
-26 -9 R -18 -26 R -8 -44 R 0 -26 R 8 -44 R 18 -26 R 26 -9 R 18 0 R 26 9 R
18 26 R 8 44 R 0 26 R -8 44 R -18 26 R -26 9 R -18 0 R D 13411 4128 M
210 0 R D 13021 4171 M 17 9 R 27 26 R 0 -184 R D 13275 4206 M -88 0 R
-9 -79 R 9 9 R 26 9 R 27 0 R 26 -9 R 18 -18 R 8 -26 R 0 -17 R -8 -27 R
-18 -17 R -26 -9 R -27 0 R -26 9 R -9 8 R -8 18 R D 13411 5059 M 210 0 R D
13003 5093 M 0 9 R 9 17 R 9 9 R 17 9 R 35 0 R 18 -9 R 9 -9 R 8 -17 R 0 -18 R
-8 -17 R -18 -26 R -88 -88 R 123 0 R D 13222 5137 M -26 -9 R -18 -26 R
-8 -44 R 0 -26 R 8 -44 R 18 -26 R 26 -9 R 18 0 R 26 9 R 18 26 R 8 44 R
0 26 R -8 44 R -18 26 R -26 9 R -18 0 R D 13411 5990 M 210 0 R D
13003 6024 M 0 9 R 9 17 R 9 9 R 17 9 R 35 0 R 18 -9 R 9 -9 R 8 -17 R 0 -18 R
-8 -17 R -18 -26 R -88 -88 R 123 0 R D 13275 6068 M -88 0 R -9 -79 R 9 9 R
26 9 R 27 0 R 26 -9 R 18 -18 R 8 -26 R 0 -17 R -8 -27 R -18 -17 R -26 -9 R
-27 0 R -26 9 R -9 9 R -8 17 R D 13411 6921 M 210 0 R D 13012 6999 M 96 0 R
-52 -70 R 26 0 R 18 -9 R 8 -9 R 9 -26 R 0 -17 R -9 -27 R -17 -17 R -26 -9 R
-27 0 R -26 9 R -9 9 R -9 17 R D 13222 6999 M -26 -9 R -18 -26 R -8 -44 R
0 -26 R 8 -44 R 18 -26 R 26 -9 R 18 0 R 26 9 R 18 26 R 8 44 R 0 26 R -8 44 R
-18 26 R -26 9 R -18 0 R D 13411 1521 M 105 0 R D 13411 1707 M 105 0 R D
13411 1893 M 105 0 R D 13411 2079 M 105 0 R D 13411 2452 M 105 0 R D
13411 2638 M 105 0 R D 13411 2824 M 105 0 R D 13411 3010 M 105 0 R D
13411 3383 M 105 0 R D 13411 3569 M 105 0 R D 13411 3755 M 105 0 R D
13411 3941 M 105 0 R D 13411 4314 M 105 0 R D 13411 4500 M 105 0 R D
13411 4686 M 105 0 R D 13411 4872 M 105 0 R D 13411 5245 M 105 0 R D
13411 5431 M 105 0 R D 13411 5617 M 105 0 R D 13411 5803 M 105 0 R D
13411 6176 M 105 0 R D 13411 6362 M 105 0 R D 13411 6548 M 105 0 R D
13411 6734 M 105 0 R D 13411 7107 M 105 0 R D 18678 1452 M 0 5696 R D
18678 2265 M -211 0 R D 18678 3197 M -211 0 R D 18678 4128 M -211 0 R D
18678 5059 M -211 0 R D 18678 5990 M -211 0 R D 18678 6921 M -211 0 R D
18678 1521 M -105 0 R D 18678 1707 M -105 0 R D 18678 1893 M -105 0 R D
18678 2079 M -105 0 R D 18678 2452 M -105 0 R D 18678 2638 M -105 0 R D
18678 2824 M -105 0 R D 18678 3010 M -105 0 R D 18678 3383 M -105 0 R D
18678 3569 M -105 0 R D 18678 3755 M -105 0 R D 18678 3941 M -105 0 R D
18678 4314 M -105 0 R D 18678 4500 M -105 0 R D 18678 4686 M -105 0 R D
18678 4872 M -105 0 R D 18678 5245 M -105 0 R D 18678 5431 M -105 0 R D
18678 5617 M -105 0 R D 18678 5803 M -105 0 R D 18678 6176 M -105 0 R D
18678 6362 M -105 0 R D 18678 6548 M -105 0 R D 18678 6734 M -105 0 R D
18678 7107 M -105 0 R D L1 13411 7147 M 526 -1888 R 527 -927 R 632 -634 R
422 -280 R 1053 -454 R 1054 -272 R 1053 -182 R D L2 13411 4269 M 526 -698 R
527 -374 R 632 -273 R 422 -127 R 1053 -216 R 1054 -136 R 1053 -95 R D L0
0.000 0.098 0.890 setrgbcolor 13411 3677 M 526 -678 R 527 -295 R 632 -195 R
422 -78 R 1053 -129 R 1054 -67 R 1053 -37 R D 14078 5940 M 0 -245 R D
14171 5858 M 0 -163 R D 14171 5811 M 35 36 R 24 11 R 35 0 R 23 -11 R
12 -36 R 0 -116 R D 14452 5940 M -94 -245 R D 14452 5940 M 93 -245 R D
14604 5835 M 210 0 R D 14604 5765 M 210 0 R D 14907 5940 M 0 -245 R D
15001 5858 M 0 -163 R D 15001 5811 M 35 36 R 23 11 R 35 0 R 24 -11 R
11 -36 R 0 -116 R D 15223 5987 M 0 -386 R D 15235 5987 M 0 -386 R D
15223 5987 M 82 0 R D 15223 5601 M 82 0 R D 15386 5940 M 0 -245 R D
15386 5940 M 94 -245 R 93 245 R 0 -245 R D 15749 5987 M -24 -24 R -23 -35 R
-23 -46 R -12 -59 R 0 -47 R 12 -58 R 23 -58 R 23 -35 R 24 -24 R D
15889 5940 M -35 -12 R -24 -35 R -11 -58 R 0 -35 R 11 -59 R 24 -35 R
35 -11 R 23 0 R 35 11 R 24 35 R 11 59 R 0 35 R -11 58 R -24 35 R -35 12 R
-23 0 R D 16052 5987 M 24 -24 R 23 -35 R 24 -46 R 11 -59 R 0 -47 R -11 -58 R
-24 -58 R -23 -35 R -24 -24 R D 16415 5987 M -211 -386 R D 16485 5858 M
0 -163 R D 16485 5811 M 35 36 R 23 11 R 35 0 R 24 -11 R 11 -36 R 0 -116 R D
16613 5811 M 35 36 R 24 11 R 35 0 R 23 -11 R 12 -36 R 0 -116 R D
16917 5987 M -23 -24 R -24 -35 R -23 -46 R -12 -59 R 0 -47 R 12 -58 R
23 -58 R 24 -35 R 23 -24 R D 17011 5940 M 0 -199 R 11 -35 R 24 -11 R 23 0 R
D 16975 5858 M 82 0 R D 17127 5987 M 24 -24 R 23 -35 R 23 -46 R 12 -59 R
0 -47 R -12 -58 R -23 -58 R -23 -35 R -24 -24 R D 17361 5987 M 0 -386 R D
17373 5987 M 0 -386 R D 17291 5987 M 82 0 R D 17291 5601 M 82 0 R D
50 setlinewidth 13411 4857 M 526 -1210 R 527 -595 R 632 -346 R 422 -133 R
1053 -191 R 1054 -98 R 1053 -53 R D 20 setlinewidth 14078 5940 M 0 -245 R D
14171 5858 M 0 -163 R D 14171 5811 M 35 36 R 24 11 R 35 0 R 23 -11 R
12 -36 R 0 -116 R D 14452 5940 M -94 -245 R D 14452 5940 M 93 -245 R D
14604 5835 M 210 0 R D 14604 5765 M 210 0 R D 14907 5940 M 0 -245 R D
15001 5858 M 0 -163 R D 15001 5811 M 35 36 R 23 11 R 35 0 R 24 -11 R
11 -36 R 0 -116 R D 15223 5987 M 0 -386 R D 15235 5987 M 0 -386 R D
15223 5987 M 82 0 R D 15223 5601 M 82 0 R D 15386 5940 M 0 -245 R D
15386 5940 M 94 -245 R 93 245 R 0 -245 R D 15749 5987 M -24 -24 R -23 -35 R
-23 -46 R -12 -59 R 0 -47 R 12 -58 R 23 -58 R 23 -35 R 24 -24 R D
15889 5940 M -35 -12 R -24 -35 R -11 -58 R 0 -35 R 11 -59 R 24 -35 R
35 -11 R 23 0 R 35 11 R 24 35 R 11 59 R 0 35 R -11 58 R -24 35 R -35 12 R
-23 0 R D 16052 5987 M 24 -24 R 23 -35 R 24 -46 R 11 -59 R 0 -47 R -11 -58 R
-24 -58 R -23 -35 R -24 -24 R D 16415 5987 M -211 -386 R D 16485 5858 M
0 -163 R D 16485 5811 M 35 36 R 23 11 R 35 0 R 24 -11 R 11 -36 R 0 -116 R D
16613 5811 M 35 36 R 24 11 R 35 0 R 23 -11 R 12 -36 R 0 -116 R D
16917 5987 M -23 -24 R -24 -35 R -23 -46 R -12 -59 R 0 -47 R 12 -58 R
23 -58 R 24 -35 R 23 -24 R D 17011 5940 M 0 -199 R 11 -35 R 24 -11 R 23 0 R
D 16975 5858 M 82 0 R D 17127 5987 M 24 -24 R 23 -35 R 23 -46 R 12 -59 R
0 -47 R -12 -58 R -23 -58 R -23 -35 R -24 -24 R D 17361 5987 M 0 -386 R D
17373 5987 M 0 -386 R D 17291 5987 M 82 0 R D 17291 5601 M 82 0 R D
80 setlinewidth 13411 5728 M 526 -1529 R 527 -721 R 632 -467 R 422 -196 R
1053 -287 R 1054 -152 R 1053 -84 R D 20 setlinewidth 14078 5940 M 0 -245 R D
14171 5858 M 0 -163 R D 14171 5811 M 35 36 R 24 11 R 35 0 R 23 -11 R
12 -36 R 0 -116 R D 14452 5940 M -94 -245 R D 14452 5940 M 93 -245 R D
14604 5835 M 210 0 R D 14604 5765 M 210 0 R D 14907 5940 M 0 -245 R D
15001 5858 M 0 -163 R D 15001 5811 M 35 36 R 23 11 R 35 0 R 24 -11 R
11 -36 R 0 -116 R D 15223 5987 M 0 -386 R D 15235 5987 M 0 -386 R D
15223 5987 M 82 0 R D 15223 5601 M 82 0 R D 15386 5940 M 0 -245 R D
15386 5940 M 94 -245 R 93 245 R 0 -245 R D 15749 5987 M -24 -24 R -23 -35 R
-23 -46 R -12 -59 R 0 -47 R 12 -58 R 23 -58 R 23 -35 R 24 -24 R D
15889 5940 M -35 -12 R -24 -35 R -11 -58 R 0 -35 R 11 -59 R 24 -35 R
35 -11 R 23 0 R 35 11 R 24 35 R 11 59 R 0 35 R -11 58 R -24 35 R -35 12 R
-23 0 R D 16052 5987 M 24 -24 R 23 -35 R 24 -46 R 11 -59 R 0 -47 R -11 -58 R
-24 -58 R -23 -35 R -24 -24 R D 16415 5987 M -211 -386 R D 16485 5858 M
0 -163 R D 16485 5811 M 35 36 R 23 11 R 35 0 R 24 -11 R 11 -36 R 0 -116 R D
16613 5811 M 35 36 R 24 11 R 35 0 R 23 -11 R 12 -36 R 0 -116 R D
16917 5987 M -23 -24 R -24 -35 R -23 -46 R -12 -59 R 0 -47 R 12 -58 R
23 -58 R 24 -35 R 23 -24 R D 17011 5940 M 0 -199 R 11 -35 R 24 -11 R 23 0 R
D 16975 5858 M 82 0 R D 17127 5987 M 24 -24 R 23 -35 R 23 -46 R 12 -59 R
0 -47 R -12 -58 R -23 -58 R -23 -35 R -24 -24 R D 17361 5987 M 0 -386 R D
17373 5987 M 0 -386 R D 17291 5987 M 82 0 R D 17291 5601 M 82 0 R D
0.000 0.000 0.000 setrgbcolor 17203 6794 M -35 18 R -53 0 R -35 -18 R
-35 -35 R -17 -52 R 0 -53 R 17 -52 R 18 -18 R 35 -17 R 52 0 R 35 17 R D
17028 6689 M 140 0 R D 17325 6777 M 316 0 R D 17325 6672 M 316 0 R D
17816 6865 M 35 17 R 53 53 R 0 -368 R D 18149 6602 M -17 -18 R 17 -17 R
18 17 R -18 18 R D 18395 6935 M -53 -18 R -35 -52 R -18 -88 R 0 -53 R
18 -87 R 35 -53 R 53 -17 R 35 0 R 52 17 R 35 53 R 18 87 R 0 53 R -18 88 R
-35 52 R -52 18 R -35 0 R D 14078 5649 M 0 -245 R D 14078 5532 M 23 24 R
24 12 R 35 0 R 23 -12 R 23 -24 R 12 -35 R 0 -23 R -12 -35 R -23 -23 R
-23 -12 R -35 0 R -24 12 R -23 23 R D 14417 5532 M -12 24 R -35 12 R -35 0 R
-35 -12 R -12 -24 R 12 -23 R 23 -12 R 59 -11 R 23 -12 R 12 -23 R 0 -12 R
-12 -23 R -35 -12 R -35 0 R -35 12 R -12 23 R D 14522 5603 M 23 11 R 35 35 R
0 -245 R D 14732 5568 M 0 -164 R D 14732 5497 M 12 35 R 23 24 R 24 12 R
35 0 R D 15001 5532 M -12 24 R -35 12 R -35 0 R -35 -12 R -12 -24 R 12 -23 R
23 -12 R 59 -11 R 23 -12 R 12 -23 R 0 -12 R -12 -23 R -35 -12 R -35 0 R
-35 12 R -12 23 R D 15083 5649 M 0 -245 R D 15083 5521 M 35 35 R 23 12 R
35 0 R 23 -12 R 12 -35 R 0 -117 R D 8615 525 M 0 -245 R D 8615 455 M 53 53 R
35 17 R 53 0 R 35 -17 R 17 -53 R 0 -175 R D 8808 455 M 53 53 R 35 17 R
52 0 R 35 -17 R 18 -53 R 0 -175 R D 9264 718 M -35 -35 R -35 -52 R -35 -71 R
-18 -87 R 0 -70 R 18 -88 R 35 -88 R 35 -52 R 35 -35 R D 9474 648 M -52 -17 R
-36 -53 R -17 -88 R 0 -52 R 17 -88 R 36 -52 R 52 -18 R 35 0 R 53 18 R
35 52 R 17 88 R 0 52 R -17 88 R -35 53 R -53 17 R -35 0 R D 9719 718 M
36 -35 R 35 -52 R 35 -71 R 17 -87 R 0 -70 R -17 -88 R -35 -88 R -35 -52 R
-36 -35 R D 10263 718 M -316 -578 R D 10368 648 M 0 -368 R D 10368 648 M
140 -368 R 140 368 R 0 -368 R D 10911 718 M -35 -35 R -35 -52 R -35 -71 R
-17 -87 R 0 -70 R 17 -88 R 35 -88 R 35 -52 R 35 -35 R D 11122 648 M
-53 -17 R -35 -53 R -18 -88 R 0 -52 R 18 -88 R 35 -52 R 53 -18 R 35 0 R
52 18 R 35 52 R 18 88 R 0 52 R -18 88 R -35 53 R -52 17 R -35 0 R D
11367 718 M 35 -35 R 35 -52 R 35 -71 R 18 -87 R 0 -70 R -18 -88 R -35 -88 R
-35 -52 R -35 -35 R D 515 5133 M 245 0 R D 585 5133 M -53 52 R -17 35 R
0 53 R 17 35 R 53 18 R 175 0 R D 585 5326 M -53 52 R -17 35 R 0 53 R 17 35 R
53 17 R 175 0 R D 620 5641 M 0 210 R -35 0 R -35 -17 R -18 -18 R -17 -35 R
0 -52 R 17 -35 R 35 -35 R 53 -18 R 35 0 R 52 18 R 35 35 R 18 35 R 0 52 R
-18 35 R -35 35 R D 515 5974 M 245 0 R D 620 5974 M -53 18 R -35 35 R
-17 35 R 0 52 R D 515 6395 M 298 0 R 52 -18 R 18 -17 R 17 -35 R 0 -53 R
-17 -35 R D 567 6395 M -35 -35 R -17 -35 R 0 -53 R 17 -35 R 35 -35 R
53 -18 R 35 0 R 52 18 R 35 35 R 18 35 R 0 53 R -18 35 R -35 35 R D
620 6517 M 0 211 R -35 0 R -35 -18 R -18 -17 R -17 -35 R 0 -53 R 17 -35 R
35 -35 R 53 -18 R 35 0 R 52 18 R 35 35 R 18 35 R 0 53 R -18 35 R -35 35 R D
515 6850 M 245 0 R D 620 6850 M -53 18 R -35 35 R -17 35 R 0 53 R D
392 7376 M 298 0 R 52 18 R 18 35 R 0 35 R D 515 7324 M 0 122 R D 392 7551 M
17 18 R -17 17 R -18 -17 R 18 -18 R D 515 7569 M 245 0 R D 515 7709 M
245 0 R D 585 7709 M -53 53 R -17 35 R 0 52 R 17 35 R 53 18 R 175 0 R D
585 7902 M -53 53 R -17 35 R 0 52 R 17 35 R 53 18 R 175 0 R D 620 8217 M
0 211 R -35 0 R -35 -18 R -18 -17 R -17 -35 R 0 -53 R 17 -35 R 35 -35 R
53 -18 R 35 0 R 52 18 R 35 35 R 18 35 R 0 53 R -18 35 R -35 35 R D
322 8831 M 578 -316 R D 480 9181 M -35 -17 R -36 -35 R -17 -35 R 0 -70 R
17 -35 R 36 -35 R 35 -18 R 52 -17 R 88 0 R 52 17 R 35 18 R 35 35 R 18 35 R
0 70 R -18 35 R -35 35 R -35 17 R -52 0 R 0 -87 R D 515 9269 M 245 105 R
-245 105 R D 760 9374 M 88 -35 R 35 -35 R 17 -35 R 0 -18 R D 515 9585 M
245 0 R D 620 9585 M -53 17 R -35 35 R -17 35 R 0 53 R D
%%PageTrailer
end
%%PageResources: font Helvetica
%%Trailer
%%Pages: 1
%%DocumentNeededResources: font Helvetica
%%EOF
