%!PS-Adobe-3.0 EPSF-3.0
%%BoundingBox: 0 0 527 198
%%Title: Graphics produced by IDL
%%For: jlgan@aida119, /home/jlgan/work/subhalo_model
%%Creator: IDL Version 7.1 (linux x86_64 m64)
%%CreationDate: Thu Aug 27 15:16:33 2009
%%DocumentData: Clean7bit
%%Requirements: color
%%LanguageLevel: 1
%%PageOrder: Ascend
%%Pages: (atend)
%%DocumentNeededResources: (atend)
%%EndComments
%%BeginProlog
%+ prolog.ps -- Prolog for IDL generated PostScript files
%+ Copyright (c) 1988-2009 ITT Visual Information Solutions. All Rights Reserved.
%v 5
/$IDL_DICT 40 dict def $IDL_DICT begin /bdef { bind def } bind def /C
{currentpoint newpath moveto} bdef /CP {currentpoint} bdef /D {currentpoint
stroke moveto} bdef /F {closepath fill} bdef /K { setgray } bdef /M {moveto}
bdef /N {rmoveto} bdef /P {lineto} bdef /R {rlineto} bdef /S {gsave show
grestore} bdef /X {currentpoint pop} bdef /Z {gsave currentpoint lineto 20
setlinewidth 1 setlinecap stroke grestore} bdef /L0 {[] 0 setdash} bdef /L1
{[40 100] 0 setdash} bdef /L2 {[200 200] 0 setdash} bdef /L3 {[200 100 50
100] 0 setdash} bdef /L4 {[300 100 50 100 50 100 50 100] 0 setdash} bdef /L5
{[400 200] 0 setdash} bdef /STDFONT { findfont exch scalefont setfont } bdef
/ISOFONT { findfont dup length dict begin { 1 index /FID ne {def} {pop pop}
ifelse } forall /Encoding ISOLatin1Encoding def currentdict end /idltmpfont
exch definefont exch scalefont setfont } bdef /ISOBULLET { gsave /Helvetica
findfont exch scalefont setfont (\267) show currentpoint grestore moveto}
bdef /MITERLIMIT { 2.5 setmiterlimit } bdef end
%%EndProlog
%%Page: 0 1
%%PageRequirements: color
%%PageResources: (atend)
%%PageOrientation: Portrait
%%PageBoundingBox: 0 0 527 198
%%BeginPageSetup
$IDL_DICT begin 0.0283465 dup scale MITERLIMIT
%%IncludeResource: font Helvetica
423.333 /Helvetica STDFONT
%%EndPageSetup
0.000 0.000 0.000 setrgbcolor gsave 9765 203 translate 0 0 M 1.2 dup scale
-928.793 0 N
(m\(0\)/M\(0\)) show grestore gsave 744 4025 translate 0 0 M 90 rotate
1.2 dup scale -756.302 0 N
(T) show X -101.051 M
%%IncludeResource: font Helvetica
262.467 /Helvetica STDFONT
(df) show X 0 M
%%IncludeResource: font Helvetica
423.333 /Helvetica STDFONT
( [Gyr]) show grestore 40 setlinewidth L0 1581 1400 M 4836 0 R D 1581 1400 M
0 210 R D gsave 1581 766 translate 0 0 M 1.2 dup scale -58.8433 0 N
( ) show grestore 2548 1400 M 0 210 R D gsave 2548 766 translate 0 0 M
1.2 dup scale -294.217 0 N
(0.1) show grestore 3515 1400 M 0 210 R D gsave 3515 766 translate 0 0 M
1.2 dup scale -58.8433 0 N
( ) show grestore 4483 1400 M 0 210 R D gsave 4483 766 translate 0 0 M
1.2 dup scale -294.217 0 N
(0.2) show grestore 5450 1400 M 0 210 R D gsave 5450 766 translate 0 0 M
1.2 dup scale -58.8433 0 N
( ) show grestore 6417 1400 M 0 210 R D gsave 6417 766 translate 0 0 M
1.2 dup scale -294.217 0 N
(0.3) show grestore 1774 1400 M 0 105 R D 1968 1400 M 0 105 R D 2161 1400 M
0 105 R D 2355 1400 M 0 105 R D 2742 1400 M 0 105 R D 2935 1400 M 0 105 R D
3129 1400 M 0 105 R D 3322 1400 M 0 105 R D 3709 1400 M 0 105 R D
3902 1400 M 0 105 R D 4096 1400 M 0 105 R D 4289 1400 M 0 105 R D
4676 1400 M 0 105 R D 4870 1400 M 0 105 R D 5063 1400 M 0 105 R D
5256 1400 M 0 105 R D 5643 1400 M 0 105 R D 5837 1400 M 0 105 R D
6030 1400 M 0 105 R D 6224 1400 M 0 105 R D 1581 6650 M 4836 0 R D
1581 6650 M 0 -210 R D 2548 6650 M 0 -210 R D 3515 6650 M 0 -210 R D
4483 6650 M 0 -210 R D 5450 6650 M 0 -210 R D 6417 6650 M 0 -210 R D
1774 6650 M 0 -105 R D 1968 6650 M 0 -105 R D 2161 6650 M 0 -105 R D
2355 6650 M 0 -105 R D 2742 6650 M 0 -105 R D 2935 6650 M 0 -105 R D
3129 6650 M 0 -105 R D 3322 6650 M 0 -105 R D 3709 6650 M 0 -105 R D
3902 6650 M 0 -105 R D 4096 6650 M 0 -105 R D 4289 6650 M 0 -105 R D
4676 6650 M 0 -105 R D 4870 6650 M 0 -105 R D 5063 6650 M 0 -105 R D
5256 6650 M 0 -105 R D 5643 6650 M 0 -105 R D 5837 6650 M 0 -105 R D
6030 6650 M 0 -105 R D 6224 6650 M 0 -105 R D 1581 1400 M 0 5250 R D
1581 2590 M 193 0 R D gsave 1448 2421 translate 0 0 M 1.2 dup scale
-235.373 0 N
(2) show grestore 1581 3887 M 193 0 R D gsave 1448 3718 translate 0 0 M
1.2 dup scale -235.373 0 N
(4) show grestore 1581 5185 M 193 0 R D gsave 1448 5016 translate 0 0 M
1.2 dup scale -235.373 0 N
(6) show grestore 1581 6483 M 193 0 R D gsave 1448 6314 translate 0 0 M
1.2 dup scale -235.373 0 N
(8) show grestore 1581 1616 M 97 0 R D 1581 1941 M 97 0 R D 1581 2265 M
97 0 R D 1581 2914 M 97 0 R D 1581 3238 M 97 0 R D 1581 3563 M 97 0 R D
1581 4212 M 97 0 R D 1581 4536 M 97 0 R D 1581 4861 M 97 0 R D 1581 5510 M
97 0 R D 1581 5834 M 97 0 R D 1581 6159 M 97 0 R D 6417 1400 M 0 5250 R D
6417 2590 M -193 0 R D 6417 3887 M -193 0 R D 6417 5185 M -193 0 R D
6417 6483 M -193 0 R D 6417 1616 M -97 0 R D 6417 1941 M -97 0 R D
6417 2265 M -97 0 R D 6417 2914 M -97 0 R D 6417 3238 M -97 0 R D
6417 3563 M -97 0 R D 6417 4212 M -97 0 R D 6417 4536 M -97 0 R D
6417 4861 M -97 0 R D 6417 5510 M -97 0 R D 6417 5834 M -97 0 R D
6417 6159 M -97 0 R D L1 1581 6650 M 484 -1741 R 483 -854 R 581 -585 R
386 -258 R 968 -419 R 967 -250 R 967 -168 R D L0
1.000 0.000 0.706 setrgbcolor 1581 1893 M 484 -12 R 483 -7 R 581 -5 R
386 -4 R 968 -7 R 967 -9 R 967 -5 R D 0.506 0.000 0.000 setrgbcolor
1581 1895 M 484 -13 R 483 -7 R 581 -6 R 386 -3 R 968 -6 R 967 -8 R 967 -10 R
D 1.000 0.349 0.000 setrgbcolor 1581 2237 M 484 -333 R 483 -23 R 581 -11 R
386 -4 R 968 -7 R 967 -8 R 967 -10 R D 0.000 0.514 1.000 setrgbcolor
1581 1880 M 484 -7 R 483 1 R 581 -4 R 386 -1 R 968 -6 R 967 -12 R 967 -9 R D
0.000 0.000 0.000 setrgbcolor gsave 6030 6007 translate 0 0 M 1.2 dup scale
-947.42 0 N
%%IncludeResource: font Symbol
423.333 /Symbol STDFONT
(e) show
%%IncludeResource: font Helvetica
423.333 /Helvetica STDFONT
(=0.3) show grestore 7347 1400 M 4836 0 R D 7347 1400 M 0 210 R D
gsave 7347 766 translate 0 0 M 1.2 dup scale -58.8433 0 N
( ) show grestore 8314 1400 M 0 210 R D gsave 8314 766 translate 0 0 M
1.2 dup scale -294.217 0 N
(0.1) show grestore 9281 1400 M 0 210 R D gsave 9281 766 translate 0 0 M
1.2 dup scale -58.8433 0 N
( ) show grestore 10249 1400 M 0 210 R D gsave 10249 766 translate 0 0 M
1.2 dup scale -294.217 0 N
(0.2) show grestore 11216 1400 M 0 210 R D gsave 11216 766 translate 0 0 M
1.2 dup scale -58.8433 0 N
( ) show grestore 12183 1400 M 0 210 R D gsave 12183 766 translate 0 0 M
1.2 dup scale -294.217 0 N
(0.3) show grestore 7541 1400 M 0 105 R D 7734 1400 M 0 105 R D 7927 1400 M
0 105 R D 8121 1400 M 0 105 R D 8508 1400 M 0 105 R D 8701 1400 M 0 105 R D
8895 1400 M 0 105 R D 9088 1400 M 0 105 R D 9475 1400 M 0 105 R D
9668 1400 M 0 105 R D 9862 1400 M 0 105 R D 10055 1400 M 0 105 R D
10442 1400 M 0 105 R D 10636 1400 M 0 105 R D 10829 1400 M 0 105 R D
11022 1400 M 0 105 R D 11409 1400 M 0 105 R D 11603 1400 M 0 105 R D
11796 1400 M 0 105 R D 11990 1400 M 0 105 R D 7347 6650 M 4836 0 R D
7347 6650 M 0 -210 R D 8314 6650 M 0 -210 R D 9281 6650 M 0 -210 R D
10249 6650 M 0 -210 R D 11216 6650 M 0 -210 R D 12183 6650 M 0 -210 R D
7541 6650 M 0 -105 R D 7734 6650 M 0 -105 R D 7927 6650 M 0 -105 R D
8121 6650 M 0 -105 R D 8508 6650 M 0 -105 R D 8701 6650 M 0 -105 R D
8895 6650 M 0 -105 R D 9088 6650 M 0 -105 R D 9475 6650 M 0 -105 R D
9668 6650 M 0 -105 R D 9862 6650 M 0 -105 R D 10055 6650 M 0 -105 R D
10442 6650 M 0 -105 R D 10636 6650 M 0 -105 R D 10829 6650 M 0 -105 R D
11022 6650 M 0 -105 R D 11409 6650 M 0 -105 R D 11603 6650 M 0 -105 R D
11796 6650 M 0 -105 R D 11990 6650 M 0 -105 R D 7347 1400 M 0 5250 R D
7347 2179 M 194 0 R D gsave 7214 2010 translate 0 0 M 1.2 dup scale
-235.373 0 N
(2) show grestore 7347 3067 M 194 0 R D gsave 7214 2898 translate 0 0 M
1.2 dup scale -235.373 0 N
(4) show grestore 7347 3954 M 194 0 R D gsave 7214 3785 translate 0 0 M
1.2 dup scale -235.373 0 N
(6) show grestore 7347 4842 M 194 0 R D gsave 7214 4673 translate 0 0 M
1.2 dup scale -235.373 0 N
(8) show grestore 7347 5729 M 194 0 R D gsave 7214 5560 translate 0 0 M
1.2 dup scale -470.747 0 N
(10) show grestore 7347 6617 M 194 0 R D gsave 7214 6354 translate 0 0 M
1.2 dup scale -470.747 0 N
(12) show grestore 7347 1514 M 97 0 R D 7347 1735 M 97 0 R D 7347 1957 M
97 0 R D 7347 2401 M 97 0 R D 7347 2623 M 97 0 R D 7347 2845 M 97 0 R D
7347 3289 M 97 0 R D 7347 3511 M 97 0 R D 7347 3732 M 97 0 R D 7347 4176 M
97 0 R D 7347 4398 M 97 0 R D 7347 4620 M 97 0 R D 7347 5064 M 97 0 R D
7347 5286 M 97 0 R D 7347 5508 M 97 0 R D 7347 5951 M 97 0 R D 7347 6173 M
97 0 R D 7347 6395 M 97 0 R D 12183 1400 M 0 5250 R D 12183 2179 M -193 0 R
D 12183 3067 M -193 0 R D 12183 3954 M -193 0 R D 12183 4842 M -193 0 R D
12183 5729 M -193 0 R D 12183 6617 M -193 0 R D 12183 1514 M -97 0 R D
12183 1735 M -97 0 R D 12183 1957 M -97 0 R D 12183 2401 M -97 0 R D
12183 2623 M -97 0 R D 12183 2845 M -97 0 R D 12183 3289 M -97 0 R D
12183 3511 M -97 0 R D 12183 3732 M -97 0 R D 12183 4176 M -97 0 R D
12183 4398 M -97 0 R D 12183 4620 M -97 0 R D 12183 5064 M -97 0 R D
12183 5286 M -97 0 R D 12183 5508 M -97 0 R D 12183 5951 M -97 0 R D
12183 6173 M -97 0 R D 12183 6395 M -97 0 R D L1 7347 6650 M 484 -1741 R
483 -854 R 581 -585 R 386 -258 R 968 -419 R 967 -250 R 967 -168 R D L0
1.000 0.000 0.706 setrgbcolor 7347 1767 M 484 -26 R 483 -13 R 581 -9 R
386 -4 R 968 -10 R 967 -9 R 967 -5 R D 0.506 0.000 0.000 setrgbcolor
7347 1771 M 484 -28 R 483 -13 R 581 -10 R 386 -5 R 968 -9 R 967 -9 R
967 -6 R D 1.000 0.349 0.000 setrgbcolor 7347 2075 M 484 -311 R 483 -30 R
581 -12 R 386 -6 R 968 -9 R 967 -10 R 967 -7 R D
0.000 0.514 1.000 setrgbcolor 7347 1735 M 484 -8 R 483 3 R 581 -9 R 386 -3 R
968 -8 R 967 -11 R 967 -10 R D 0.000 0.000 0.000 setrgbcolor
gsave 11796 6007 translate 0 0 M 1.2 dup scale -947.42 0 N
%%IncludeResource: font Symbol
423.333 /Symbol STDFONT
(e) show
%%IncludeResource: font Helvetica
423.333 /Helvetica STDFONT
(=0.5) show grestore 13113 1400 M 4836 0 R D 13113 1400 M 0 210 R D
gsave 13113 766 translate 0 0 M 1.2 dup scale -58.8433 0 N
( ) show grestore 14080 1400 M 0 210 R D gsave 14080 766 translate 0 0 M
1.2 dup scale -294.217 0 N
(0.1) show grestore 15048 1400 M 0 210 R D gsave 15048 766 translate 0 0 M
1.2 dup scale -58.8433 0 N
( ) show grestore 16015 1400 M 0 210 R D gsave 16015 766 translate 0 0 M
1.2 dup scale -294.217 0 N
(0.2) show grestore 16982 1400 M 0 210 R D gsave 16982 766 translate 0 0 M
1.2 dup scale -58.8433 0 N
( ) show grestore 17949 1400 M 0 210 R D gsave 17949 766 translate 0 0 M
1.2 dup scale -294.217 0 N
(0.3) show grestore 13307 1400 M 0 105 R D 13500 1400 M 0 105 R D
13693 1400 M 0 105 R D 13887 1400 M 0 105 R D 14274 1400 M 0 105 R D
14467 1400 M 0 105 R D 14661 1400 M 0 105 R D 14854 1400 M 0 105 R D
15241 1400 M 0 105 R D 15434 1400 M 0 105 R D 15628 1400 M 0 105 R D
15821 1400 M 0 105 R D 16208 1400 M 0 105 R D 16402 1400 M 0 105 R D
16595 1400 M 0 105 R D 16789 1400 M 0 105 R D 17175 1400 M 0 105 R D
17369 1400 M 0 105 R D 17562 1400 M 0 105 R D 17756 1400 M 0 105 R D
13113 6650 M 4836 0 R D 13113 6650 M 0 -210 R D 14080 6650 M 0 -210 R D
15048 6650 M 0 -210 R D 16015 6650 M 0 -210 R D 16982 6650 M 0 -210 R D
17949 6650 M 0 -210 R D 13307 6650 M 0 -105 R D 13500 6650 M 0 -105 R D
13693 6650 M 0 -105 R D 13887 6650 M 0 -105 R D 14274 6650 M 0 -105 R D
14467 6650 M 0 -105 R D 14661 6650 M 0 -105 R D 14854 6650 M 0 -105 R D
15241 6650 M 0 -105 R D 15434 6650 M 0 -105 R D 15628 6650 M 0 -105 R D
15821 6650 M 0 -105 R D 16208 6650 M 0 -105 R D 16402 6650 M 0 -105 R D
16595 6650 M 0 -105 R D 16789 6650 M 0 -105 R D 17175 6650 M 0 -105 R D
17369 6650 M 0 -105 R D 17562 6650 M 0 -105 R D 17756 6650 M 0 -105 R D
13113 1400 M 0 5250 R D 13113 2809 M 194 0 R D
gsave 12980 2640 translate 0 0 M 1.2 dup scale -235.373 0 N
(5) show grestore 13113 4327 M 194 0 R D gsave 12980 4158 translate 0 0 M
1.2 dup scale -470.747 0 N
(10) show grestore 13113 5844 M 194 0 R D gsave 12980 5675 translate 0 0 M
1.2 dup scale -470.747 0 N
(15) show grestore 13113 1595 M 97 0 R D 13113 1899 M 97 0 R D 13113 2202 M
97 0 R D 13113 2506 M 97 0 R D 13113 3113 M 97 0 R D 13113 3416 M 97 0 R D
13113 3720 M 97 0 R D 13113 4023 M 97 0 R D 13113 4630 M 97 0 R D
13113 4933 M 97 0 R D 13113 5237 M 97 0 R D 13113 5540 M 97 0 R D
13113 6147 M 97 0 R D 13113 6451 M 97 0 R D 17949 1400 M 0 5250 R D
17949 2809 M -193 0 R D 17949 4327 M -193 0 R D 17949 5844 M -193 0 R D
17949 1595 M -97 0 R D 17949 1899 M -97 0 R D 17949 2202 M -97 0 R D
17949 2506 M -97 0 R D 17949 3113 M -97 0 R D 17949 3416 M -97 0 R D
17949 3720 M -97 0 R D 17949 4023 M -97 0 R D 17949 4630 M -97 0 R D
17949 4933 M -97 0 R D 17949 5237 M -97 0 R D 17949 5540 M -97 0 R D
17949 6147 M -97 0 R D 17949 6451 M -97 0 R D L1 13113 6650 M 484 -1741 R
483 -854 R 581 -585 R 387 -258 R 967 -419 R 967 -250 R 967 -168 R D L0
1.000 0.000 0.706 setrgbcolor 13113 1691 M 484 -37 R 483 -17 R 581 -12 R
387 -6 R 967 -11 R 967 -13 R 967 -4 R D 0.506 0.000 0.000 setrgbcolor
13113 1698 M 484 -42 R 483 -19 R 581 -12 R 387 -6 R 967 -10 R 967 -11 R
967 -10 R D 1.000 0.349 0.000 setrgbcolor 13113 1826 M 484 -153 R 483 -32 R
581 -15 R 387 -5 R 967 -10 R 967 -16 R 967 -6 R D
0.000 0.514 1.000 setrgbcolor 13113 1686 M 484 -31 R 483 -15 R 581 -11 R
387 -5 R 967 -15 R 967 -9 R 967 -4 R D 0.000 0.000 0.000 setrgbcolor
gsave 17562 6007 translate 0 0 M 1.2 dup scale -947.42 0 N
%%IncludeResource: font Symbol
423.333 /Symbol STDFONT
(e) show
%%IncludeResource: font Helvetica
423.333 /Helvetica STDFONT
(=0.7) show grestore
%%PageTrailer
end
%%PageResources: font Helvetica
%%+ font Symbol
%%Trailer
%%Pages: 1
%%DocumentNeededResources: font Helvetica
%%+ font Symbol
%%EOF
