\relax 
\providecommand\HyperFirstAtBeginDocument{\AtBeginDocument}
\HyperFirstAtBeginDocument{\ifx\hyper@anchor\@undefined
\global\let\oldcontentsline\contentsline
\gdef\contentsline#1#2#3#4{\oldcontentsline{#1}{#2}{#3}}
\global\let\oldnewlabel\newlabel
\gdef\newlabel#1#2{\newlabelxx{#1}#2}
\gdef\newlabelxx#1#2#3#4#5#6{\oldnewlabel{#1}{{#2}{#3}}}
\AtEndDocument{\ifx\hyper@anchor\@undefined
\let\contentsline\oldcontentsline
\let\newlabel\oldnewlabel
\fi}
\fi}
\global\let\hyper@last\relax 
\gdef\HyperFirstAtBeginDocument#1{#1}
\providecommand*\HyPL@Entry[1]{}
\citation{patton2010}
\citation{ellison2011}
\citation{alonso2012}
\citation{park2009}
\citation{park2009,mo2010}
\citation{binney2008}
\citation{mo2010}
\citation{taylor2001,gan2010}
\citation{font2008,book2010,tonnesen2012}
\HyPL@Entry{0<</P(1)>>}
\newlabel{firstpage}{{}{1}{\relax }{Doc-Start}{}}
\@writefile{toc}{\contentsline {section}{\numberline {1}Introduction}{1}{section.1}}
\newlabel{sec:intro}{{1}{1}{Introduction\relax }{section.1}{}}
\citation{benson2012}
\citation{gao2012}
\citation{gao2012}
\citation{benson2012}
\citation{gao2012}
\citation{springel2008}
\citation{springel2005}
\citation{springel2005}
\citation{springel2008}
\citation{komatsu2011,hinshaw2012}
\citation{guo2013}
\citation{benson2012}
\citation{gunn1972,roediger2009}
\citation{mccarthy2008}
\citation{mccarthy2008}
\citation{taylor2001,gan2010}
\HyPL@Entry{1<</P(2)>>}
\@writefile{toc}{\contentsline {section}{\numberline {2}Model}{2}{section.2}}
\newlabel{sec:model}{{2}{2}{Model\relax }{section.2}{}}
\@writefile{toc}{\contentsline {subsection}{\numberline {2.1}Simulation}{2}{subsection.2.1}}
\newlabel{subsec:sim}{{2.1}{2}{Simulation\relax }{subsection.2.1}{}}
\@writefile{toc}{\contentsline {subsection}{\numberline {2.2}Semi-Analytical Model}{2}{subsection.2.2}}
\newlabel{subsec:sam}{{2.2}{2}{Semi-Analytical Model\relax }{subsection.2.2}{}}
\@writefile{toc}{\contentsline {subsubsection}{\numberline {2.2.1}Ram Pressure Stripping and Tidal Stripping}{2}{subsubsection.2.2.1}}
\newlabel{subsubsec:stripping}{{2.2.1}{2}{Ram Pressure Stripping and Tidal Stripping\relax }{subsubsection.2.2.1}{}}
\newlabel{eq:RamPressure}{{1}{2}{Ram Pressure Stripping and Tidal Stripping\relax }{equation.2.1}{}}
\newlabel{eq:TidalForce}{{2}{2}{Ram Pressure Stripping and Tidal Stripping\relax }{equation.2.2}{}}
\citation{e.g.,}
\citation{font2008}
\citation{benson2010}
\citation{benson2014}
\citation{parkinson2008}
\citation{gao2012}
\citation{navarro1996,navarro1997}
\citation{einasto1965}
\citation{bernardi2013}
\citation{li2009}
\citation{giodini2012,moustakas2013,vanderburg2013,calvi2013,vulcani2013}
\citation{bernardi2013}
\citation{li2009}
\citation{giodini2012,moustakas2013,vanderburg2013,calvi2013,vulcani2013}
\citation{bernardi2013,li2009,moustakas2013}
\citation{giodini2012,moustakas2013}
\citation{moustakas2013}
\citation{vanderburg2013}
\citation{calvi2013,vulcani2013}
\citation{vulcani2013}
\citation{calvi2013,vanderburg2013,vulcani2013}
\citation{bernardi2013}
\citation{li2009}
\citation{bell2003,bernardi2010}
\citation{li2009,baldry2012,bernardi2010,moustakas2013}
\citation{bernardi2013}
\citation{mcgee2010,gonzalez2013}
\citation{bernardi2013}
\citation{kravtsov2014}
\citation{giodini2012,moustakas2013}
\HyPL@Entry{2<</P(3)>>}
\newlabel{eq:strip}{{4}{3}{Ram Pressure Stripping and Tidal Stripping\relax }{equation.2.4}{}}
\@writefile{toc}{\contentsline {subsubsection}{\numberline {2.2.2}Galaxy Merger and Transformation}{3}{subsubsection.2.2.2}}
\newlabel{subsubsec:merger}{{2.2.2}{3}{Galaxy Merger and Transformation\relax }{subsubsection.2.2.2}{}}
\@writefile{toc}{\contentsline {subsubsection}{\numberline {2.2.3}Model Settings}{3}{subsubsection.2.2.3}}
\newlabel{subsubsec:modification}{{2.2.3}{3}{Model Settings\relax }{subsubsection.2.2.3}{}}
\@writefile{toc}{\contentsline {section}{\numberline {3}Galaxy Stellar Mass Function in Clusters}{3}{section.3}}
\@writefile{toc}{\contentsline {subsection}{\numberline {3.1}Comparision of GSMF to Observation}{3}{subsection.3.1}}
\newlabel{sec:SMFcompare}{{3.1}{3}{Comparision of GSMF to Observation\relax }{subsection.3.1}{}}
\citation{vulcani2013}
\HyPL@Entry{3<</P(4)>>}
\@writefile{lof}{\contentsline {figure}{\numberline {1}{\ignorespaces Comparision of GSMFs to observation. In general, the model predictions (color lines) agree well with observations (black lines) at redshift from $1.0$ to $0.0$. In model, the GSMFs of whole sky are counted on whole cluster up to $20R_{200} - 30R_{200}$, while the cluster GSMFs are within $R_{200}$. The lines are the results averaged on 9 Phoenix clusters and the error bars indicate the scatters due to cosmic variance and cluster-to-cluster variations. In observations, the shaded area in the upper-left panel shows the field GSMFs at $z \simeq 0.0$ determined by various measurements, with a upper limit by \citet  {bernardi2013} and lower limit by \citet  {li2009}. The other results are given by \citet  {giodini2012,moustakas2013,vanderburg2013,calvi2013,vulcani2013}, respectively (see text for more details). For the GSMFs in observed cluster, they are normalized arbitrarily so that there are comparable.}}{4}{figure.1}}
\newlabel{fig:SMFcompare}{{1}{4}{Comparision of GSMFs to observation. In general, the model predictions (color lines) agree well with observations (black lines) at redshift from $1.0$ to $0.0$. In model, the GSMFs of whole sky are counted on whole cluster up to $20R_{200} - 30R_{200}$, while the cluster GSMFs are within $R_{200}$. The lines are the results averaged on 9 Phoenix clusters and the error bars indicate the scatters due to cosmic variance and cluster-to-cluster variations. In observations, the shaded area in the upper-left panel shows the field GSMFs at $z \simeq 0.0$ determined by various measurements, with a upper limit by \citet {bernardi2013} and lower limit by \citet {li2009}. The other results are given by \citet {giodini2012,moustakas2013,vanderburg2013,calvi2013,vulcani2013}, respectively (see text for more details). For the GSMFs in observed cluster, they are normalized arbitrarily so that there are comparable}{figure.1}{}}
\@writefile{toc}{\contentsline {subsection}{\numberline {3.2}Evolution of Galaxy Stellar Function}{4}{subsection.3.2}}
\newlabel{sec:result}{{3.2}{4}{Evolution of Galaxy Stellar Function\relax }{subsection.3.2}{}}
\HyPL@Entry{4<</P(5)>>}
\@writefile{lof}{\contentsline {figure}{\numberline {2}{\ignorespaces Evolution of halo mass functions (HMFs) and GSMFs in different environment. The lines with error bars indicate the average value on 9 clusters and their scatters due to cosmic variance and cluster-to-cluster variations. Kinds of lines show the halo mass functions or GSMFs in different environment: high density region ($< R_{200}$, dotted-dashed, red),intermediate density region ($within [R_{200},3R_{200}]$, dashed, green) and low density region ($> 3R_{200}$, dotted, blue). The HMFs and GSMFs have almost the same shape in the above environments. }}{5}{figure.2}}
\newlabel{fig:SMFev}{{2}{5}{Evolution of halo mass functions (HMFs) and GSMFs in different environment. The lines with error bars indicate the average value on 9 clusters and their scatters due to cosmic variance and cluster-to-cluster variations. Kinds of lines show the halo mass functions or GSMFs in different environment: high density region ($< R_{200}$, dotted-dashed, red),intermediate density region ($within [R_{200},3R_{200}]$, dashed, green) and low density region ($> 3R_{200}$, dotted, blue). The HMFs and GSMFs have almost the same shape in the above environments}{figure.2}{}}
\@writefile{toc}{\contentsline {subsection}{\numberline {3.3}Star-forming and Quiescent Galaxies}{5}{subsection.3.3}}
\@writefile{lof}{\contentsline {figure}{\numberline {3}{\ignorespaces Average distribution of specific star formation rate of galaxies in 9 Phoenix clusters.}}{5}{figure.3}}
\newlabel{fig:sSFR}{{3}{5}{Average distribution of specific star formation rate of galaxies in 9 Phoenix clusters}{figure.3}{}}
\@writefile{toc}{\contentsline {subsection}{\numberline {3.4}Dependence on Morphologies}{5}{subsection.3.4}}
\HyPL@Entry{5<</P(6)>>}
\@writefile{lof}{\contentsline {figure}{\numberline {4}{\ignorespaces Evolution of GSMFs of star-forming and quiescent galaxies in different environments.}}{6}{figure.4}}
\newlabel{fig:SMFsq}{{4}{6}{Evolution of GSMFs of star-forming and quiescent galaxies in different environments}{figure.4}{}}
\HyPL@Entry{6<</P(7)>>}
\@writefile{lof}{\contentsline {figure}{\numberline {5}{\ignorespaces Evolution of GSMFs of star-forming and quiescent galaxies in different environments.}}{7}{figure.5}}
\newlabel{fig:SMFtype}{{5}{7}{Evolution of GSMFs of star-forming and quiescent galaxies in different environments}{figure.5}{}}
\bibstyle{mnras}
\bibdata{pair}
\bibcite{alonso2012}{{1}{2012}{{Alonso et al.}}{{}}}
\bibcite{bekki2003}{{2}{2003}{{Bekki \& Couch}}{{}}}
\bibcite{benson2002}{{3}{2002}{{Benson et al.}}{{}}}
\bibcite{benson2005}{{4}{2005}{{Benson}}{{}}}
\bibcite{benson2012}{{5}{2012}{{Benson}}{{}}}
\bibcite{binney1987}{{6}{1987}{{Binney \& Tremaine}}{{}}}
\bibcite{bond1991}{{7}{1991}{{Bond et al.}}{{}}}
\bibcite{book2010}{{8}{2010}{{Book \& Benson}}{{}}}
\bibcite{boylankolchin2008}{{9}{2008}{{Boylan-Kolchin et al.}}{{}}}
\bibcite{boylankolchin2010}{{10}{2010}{{Boylan-Kolchin et al.}}{{}}}
\bibcite{bryan1998}{{11}{1998}{{Bryan \& Norman}}{{}}}
\bibcite{bullock2001}{{12}{2001}{{Bullock et al.}}{{}}}
\bibcite{bullock2005}{{13}{2005}{{Bullock \& Johnston}}{{}}}
\bibcite{chandrasekhar1943}{{14}{1943}{{Chandrasekhar }}{{}}}
\bibcite{cole1996}{{15}{1996}{{Cole \& Lacey}}{{}}}
\bibcite{colpi1999}{{16}{1999}{{Colpi et al.}}{{}}}
\bibcite{delucia2004}{{17}{2004}{{De Lucia et al.}}{{}}}
\bibcite{diemand2004}{{18}{2004}{{Diemand et al.}}{{}}}
\bibcite{diemand2007a}{{19}{2007a}{{Diemand et al.}}{{}}}
\bibcite{diemand2007b}{{20}{2007b}{{Diemand et al.}}{{}}}
\bibcite{ellison2008}{{21}{2008}{{Ellison et al.}}{{}}}
\bibcite{ellison2010}{{22}{2010}{{Ellison et al.}}{{}}}
\bibcite{ellison2011}{{23}{2011}{{Ellison et al.}}{{}}}
\bibcite{fellhauer2007}{{24}{2007}{{Fellhauer \& Lin}}{{}}}
\bibcite{font2008}{{25}{2008}{{Font et al.}}{{}}}
\bibcite{gan2010}{{26}{2010}{{Gan et al.}}{{}}}
\bibcite{gao2004a}{{27}{2004a}{{Gao et al.}}{{}}}
\bibcite{gao2004b}{{28}{2004b}{{Gao et al.}}{{}}}
\bibcite{giocoli2008}{{29}{2008}{{Giocoli et al.}}{{}}}
\bibcite{giocoli2010}{{30}{2010}{{Giocoli et al.}}{{}}}
\bibcite{gnedin2004}{{31}{2004}{{Gnedin et al.}}{{}}}
\bibcite{hashimoto2003}{{32}{2003}{{Hashimoto et al.}}{{}}}
\bibcite{hayashi2003}{{33}{2003}{{Hayashi et al.}}{{}}}
\bibcite{jardel2009}{{34}{2009}{{Jardel \& Sellwood}}{{}}}
\bibcite{jiang2008}{{35}{2008}{{Jiang et al.}}{{}}}
\bibcite{kang2005a}{{36}{2005a}{{Kang et al.}}{{}}}
\bibcite{kang2005b}{{37}{2005b}{{Kang et al.}}{{}}}
\bibcite{kang2008}{{38}{2008}{{Kang }}{{}}}
\bibcite{katz1993}{{39}{1993}{{Katz \& White}}{{}}}
\bibcite{kazantzidis2004a}{{40}{2004a}{{Kazantzidis et al.}}{{}}}
\bibcite{kazantzidis2004b}{{41}{2004b}{{Kazantzidis et al.}}{{}}}
\bibcite{khochfar2006}{{42}{2006}{{Khochfar \& Burkert}}{{}}}
\bibcite{kim2009}{{43}{2009}{{Kim et al.}}{{}}}
\bibcite{king1962}{{44}{1962}{{King}}{{}}}
\bibcite{klypin1999}{{45}{1999}{{Klypin et al.}}{{}}}
\bibcite{kravtsov2004a}{{46}{2004a}{{Kravtsov et al.}}{{}}}
\bibcite{kravtsov2004b}{{47}{2004b}{{Kravtsov et al.}}{{}}}
\bibcite{kravtsov2010}{{48}{2010}{{Kravtsov}}{{}}}
\bibcite{kroupa2005}{{49}{2005}{{Kroupa et al.}}{{}}}
\bibcite{lacey1993}{{50}{1993}{{Lacey \& Cole}}{{}}}
\bibcite{lambas2012}{{51}{2012}{{Lambas et al.}}{{}}}
\bibcite{ludlow2009}{{52}{2009}{{Ludlow et al.}}{{}}}
\bibcite{maccio2006}{{53}{2006}{{Macci{\`o} et al.}}{{}}}
\bibcite{maccio2009}{{54}{2009}{{Macci{\`o} et al.}}{{}}}
\bibcite{madau2008}{{55}{2008}{{Madau et al.}}{{}}}
\bibcite{martin2008}{{56}{2008}{{Martin et al.}}{{}}}
\bibcite{mateo1998}{{57}{1998}{{Mateo}}{{}}}
\bibcite{mccarthy2008}{{58}{2008}{{McCarthy et al.}}{{}}}
\bibcite{metz2007}{{59}{2007}{{Metz et al.}}{{}}}
\bibcite{metz2009}{{60}{2009}{{Metz et al.}}{{}}}
\bibcite{moore1999}{{61}{1999}{{Moore et al.}}{{}}}
\bibcite{nagai2005}{{62}{2005}{{Nagai \& Kravtsov}}{{}}}
\bibcite{navarro1995}{{63}{1995}{{Navarro et al.}}{{}}}
\bibcite{navarro1997}{{64}{1997}{{Navarro et al.}}{{}}}
\bibcite{neto2007}{{65}{2007}{{Neto et al.}}{{}}}
\bibcite{park2009}{{66}{2009}{{Park \& Hwang}}{{}}}
\bibcite{parkinson2008}{{67}{2008}{{Parkinson et al.}}{{}}}
\bibcite{patton2011}{{68}{2011}{{Patton et al.}}{{}}}
\HyPL@Entry{7<</P(8)>>}
\@writefile{toc}{\contentsline {section}{\numberline {4}Conclusions and Discussions}{8}{section.4}}
\newlabel{sec:conc}{{4}{8}{Conclusions and Discussions\relax }{section.4}{}}
\bibcite{penarrubia2008}{{69}{2008}{{Pe{\~n}arrubia et al.}}{{}}}
\bibcite{perez2009}{{70}{2009}{{Perez et al.}}{{}}}
\bibcite{springel2001}{{71}{2001}{{Springel et al.}}{{}}}
\bibcite{springel2005}{{72}{2005}{{Springel et al.}}{{}}}
\bibcite{springel2008}{{73}{2008}{{Springel et al.}}{{}}}
\bibcite{taylor2001}{{74}{2001}{{Taylor \& Babul}}{{}}}
\bibcite{tecce2011}{{75}{2011}{{Tecce et al.}}{{}}}
\bibcite{tonnesen2011}{{76}{2011}{{Tonnesen \& Cen}}{{}}}
\bibcite{toomre1972}{{77}{1972}{{Toomre \& Toomre}}{{}}}
\bibcite{tonnesen2011}{{78}{2011}{{Tonnesen \& Cen}}{{}}}
\bibcite{torrey2012}{{79}{2012}{{Torrey et al.}}{{}}}
\bibcite{vandenbosch2005}{{80}{2005}{{van den Bosch et al.}}{{}}}
\bibcite{velazquez1999}{{81}{1999}{{Velazquez \& White}}{{}}}
\bibcite{vonhoerner1957}{{82}{1957}{{von Hoerner}}{{}}}
\bibcite{weinberg2008}{{83}{2008}{{Weinberg et al.}}{{}}}
\bibcite{wetzel2010}{{84}{2010}{{Wetzel \& White}}{{}}}
\bibcite{white1976}{{85}{1976}{{White}}{{}}}
\bibcite{willman2004}{{86}{2004}{{Willman et al.}}{{}}}
\bibcite{yang2009}{{87}{2009}{{Yang et al.}}{{}}}
\bibcite{zentner2003}{{88}{2003}{{Zentner \& Bullock}}{{}}}
\bibcite{zentner2005}{{89}{2005}{{Zentner et al.}}{{}}}
\bibcite{zheng2005}{{90}{2005}{{Zheng et al.}}{{}}}
\HyPL@Entry{8<</P(9)>>}
\@writefile{toc}{\contentsline {section}{\numberline {A}}{9}{appendix.A}}
\@writefile{toc}{\contentsline {section}{\numberline {B}}{9}{appendix.B}}
\newlabel{lastpage}{{B}{9}{\relax }{appendix.B}{}}
