%!PS-Adobe-3.0 EPSF-3.0
%%BoundingBox: 0 0 510 311
%%Title: Graphics produced by IDL
%%For: jlgan@Hserver, /home/jlgan/work/phoenix
%%Creator: IDL Version 7.1.1 (linux x86_64 m64)
%%CreationDate: Tue Dec  2 10:54:50 2014
%%DocumentData: Clean7bit
%%Requirements: color
%%LanguageLevel: 1
%%PageOrder: Ascend
%%Pages: (atend)
%%DocumentNeededResources: (atend)
%%EndComments
%%BeginProlog
%+ prolog.ps -- Prolog for IDL generated PostScript files
%+ Copyright (c) 1988-2009 ITT Visual Information Solutions. All Rights Reserved.
%v 5
/$IDL_DICT 40 dict def $IDL_DICT begin /bdef { bind def } bind def /C
{currentpoint newpath moveto} bdef /CP {currentpoint} bdef /D {currentpoint
stroke moveto} bdef /F {closepath fill} bdef /K { setgray } bdef /M {moveto}
bdef /N {rmoveto} bdef /P {lineto} bdef /R {rlineto} bdef /S {gsave show
grestore} bdef /X {currentpoint pop} bdef /Z {gsave currentpoint lineto 20
setlinewidth 1 setlinecap stroke grestore} bdef /L0 {[] 0 setdash} bdef /L1
{[40 100] 0 setdash} bdef /L2 {[200 200] 0 setdash} bdef /L3 {[200 100 50
100] 0 setdash} bdef /L4 {[300 100 50 100 50 100 50 100] 0 setdash} bdef /L5
{[400 200] 0 setdash} bdef /STDFONT { findfont exch scalefont setfont } bdef
/ISOFONT { findfont dup length dict begin { 1 index /FID ne {def} {pop pop}
ifelse } forall /Encoding ISOLatin1Encoding def currentdict end /idltmpfont
exch definefont exch scalefont setfont } bdef /ISOBULLET { gsave /Helvetica
findfont exch scalefont setfont (\267) show currentpoint grestore moveto}
bdef /MITERLIMIT { 2.5 setmiterlimit } bdef end
%%EndProlog
%%Page: 0 1
%%PageRequirements: color
%%PageResources: (atend)
%%PageOrientation: Portrait
%%PageBoundingBox: 0 0 510 311
%%BeginPageSetup
$IDL_DICT begin 0.0283465 dup scale MITERLIMIT
%%IncludeResource: font Helvetica
423.333 /Helvetica STDFONT
%%EndPageSetup
0.000 0.000 0.000 setrgbcolor gsave 9930 352 translate 0 0 M -1506.41 0 N
(log[M) show X -101.051 M
%%IncludeResource: font Symbol
262.467 /Symbol STDFONT
(*) show X 0 M
%%IncludeResource: font Helvetica
423.333 /Helvetica STDFONT
( / \(h) show X 192.937 M
%%IncludeResource: font Helvetica
262.467 /Helvetica STDFONT
(-2) show X 0 M
%%IncludeResource: font Helvetica
423.333 /Helvetica STDFONT
(M) show CP X -101.051 M
%%IncludeResource: font AvantGarde-Book
262.467 /AvantGarde-Book STDFONT
(O) show M X -58.3193 M
%%IncludeResource: font AvantGarde-Book
186.267 /AvantGarde-Book STDFONT
( \267) show X 0 M
%%IncludeResource: font Helvetica
423.333 /Helvetica STDFONT
(\)]) show grestore gsave 888 5852 translate 0 0 M 90 rotate -2273.04 0 N
%%IncludeResource: font Symbol
423.333 /Symbol STDFONT
(f) show
%%IncludeResource: font Helvetica
423.333 /Helvetica STDFONT
(\(M) show X -101.051 M
%%IncludeResource: font Symbol
262.467 /Symbol STDFONT
(*) show X 0 M
%%IncludeResource: font Helvetica
423.333 /Helvetica STDFONT
(\) / \(h) show X 192.937 M
%%IncludeResource: font Helvetica
262.467 /Helvetica STDFONT
(3) show X 0 M
%%IncludeResource: font Helvetica
423.333 /Helvetica STDFONT
(Mpc) show X 192.937 M
%%IncludeResource: font Helvetica
262.467 /Helvetica STDFONT
(-3) show X 0 M
%%IncludeResource: font Helvetica
423.333 /Helvetica STDFONT
(log) show X 192.937 M
%%IncludeResource: font Helvetica
262.467 /Helvetica STDFONT
(-1) show X 0 M
%%IncludeResource: font Helvetica
423.333 /Helvetica STDFONT
(M) show X -101.051 M
%%IncludeResource: font Symbol
262.467 /Symbol STDFONT
(*) show X 0 M
%%IncludeResource: font Helvetica
423.333 /Helvetica STDFONT
(\)) show grestore 30 setlinewidth L0 2220 5852 M 5140 0 R D 3434 5852 M
0 133 R D gsave 3434 5324 translate 0 0 M -58.8433 0 N
( ) show grestore 4661 5852 M 0 133 R D gsave 4661 5324 translate 0 0 M
-58.8433 0 N
( ) show grestore 5888 5852 M 0 133 R D gsave 5888 5324 translate 0 0 M
-58.8433 0 N
( ) show grestore 7115 5852 M 0 133 R D gsave 7115 5324 translate 0 0 M
-58.8433 0 N
( ) show grestore 2330 5852 M 0 67 R D 2453 5852 M 0 67 R D 2576 5852 M
0 67 R D 2698 5852 M 0 67 R D 2821 5852 M 0 67 R D 2944 5852 M 0 67 R D
3066 5852 M 0 67 R D 3189 5852 M 0 67 R D 3312 5852 M 0 67 R D 3557 5852 M
0 67 R D 3680 5852 M 0 67 R D 3803 5852 M 0 67 R D 3925 5852 M 0 67 R D
4048 5852 M 0 67 R D 4171 5852 M 0 67 R D 4293 5852 M 0 67 R D 4416 5852 M
0 67 R D 4539 5852 M 0 67 R D 4784 5852 M 0 67 R D 4907 5852 M 0 67 R D
5029 5852 M 0 67 R D 5152 5852 M 0 67 R D 5275 5852 M 0 67 R D 5397 5852 M
0 67 R D 5520 5852 M 0 67 R D 5643 5852 M 0 67 R D 5765 5852 M 0 67 R D
6011 5852 M 0 67 R D 6133 5852 M 0 67 R D 6256 5852 M 0 67 R D 6379 5852 M
0 67 R D 6501 5852 M 0 67 R D 6624 5852 M 0 67 R D 6747 5852 M 0 67 R D
6869 5852 M 0 67 R D 6992 5852 M 0 67 R D 7237 5852 M 0 67 R D 7360 5852 M
0 67 R D 2220 10296 M 5140 0 R D 3434 10296 M 0 -133 R D 4661 10296 M
0 -133 R D 5888 10296 M 0 -133 R D 7115 10296 M 0 -133 R D 2330 10296 M
0 -67 R D 2453 10296 M 0 -67 R D 2576 10296 M 0 -67 R D 2698 10296 M 0 -67 R
D 2821 10296 M 0 -67 R D 2944 10296 M 0 -67 R D 3066 10296 M 0 -67 R D
3189 10296 M 0 -67 R D 3312 10296 M 0 -67 R D 3557 10296 M 0 -67 R D
3680 10296 M 0 -67 R D 3803 10296 M 0 -67 R D 3925 10296 M 0 -67 R D
4048 10296 M 0 -67 R D 4171 10296 M 0 -67 R D 4293 10296 M 0 -67 R D
4416 10296 M 0 -67 R D 4539 10296 M 0 -67 R D 4784 10296 M 0 -67 R D
4907 10296 M 0 -67 R D 5029 10296 M 0 -67 R D 5152 10296 M 0 -67 R D
5275 10296 M 0 -67 R D 5397 10296 M 0 -67 R D 5520 10296 M 0 -67 R D
5643 10296 M 0 -67 R D 5765 10296 M 0 -67 R D 6011 10296 M 0 -67 R D
6133 10296 M 0 -67 R D 6256 10296 M 0 -67 R D 6379 10296 M 0 -67 R D
6501 10296 M 0 -67 R D 6624 10296 M 0 -67 R D 6747 10296 M 0 -67 R D
6869 10296 M 0 -67 R D 6992 10296 M 0 -67 R D 7237 10296 M 0 -67 R D
7360 10296 M 0 -67 R D 2220 5852 M 0 4444 R D 2220 6346 M 154 0 R D
gsave 2109 6206 translate 0 0 M -704.08 0 N
(10) show X 192.937 M
%%IncludeResource: font Helvetica
262.467 /Helvetica STDFONT
(-8) show grestore
%%IncludeResource: font Helvetica
423.333 /Helvetica STDFONT 2220 7339 M 154 0 R D
gsave 2109 7199 translate 0 0 M -704.08 0 N
(10) show X 192.937 M
%%IncludeResource: font Helvetica
262.467 /Helvetica STDFONT
(-6) show grestore
%%IncludeResource: font Helvetica
423.333 /Helvetica STDFONT 2220 8333 M 154 0 R D
gsave 2109 8192 translate 0 0 M -704.08 0 N
(10) show X 192.937 M
%%IncludeResource: font Helvetica
262.467 /Helvetica STDFONT
(-4) show grestore
%%IncludeResource: font Helvetica
423.333 /Helvetica STDFONT 2220 9326 M 154 0 R D
gsave 2109 9185 translate 0 0 M -704.08 0 N
(10) show X 192.937 M
%%IncludeResource: font Helvetica
262.467 /Helvetica STDFONT
(-2) show grestore
%%IncludeResource: font Helvetica
423.333 /Helvetica STDFONT 2220 6843 M 77 0 R D 2220 7836 M 77 0 R D
2220 8829 M 77 0 R D 2220 9822 M 77 0 R D 7360 5852 M 0 4444 R D 7360 6346 M
-154 0 R D 7360 7339 M -154 0 R D 7360 8333 M -154 0 R D 7360 9326 M
-154 0 R D 7360 6843 M -77 0 R D 7360 7836 M -77 0 R D 7360 8829 M -77 0 R D
7360 9822 M -77 0 R D 1.000 0.000 0.000 setrgbcolor 2220 9785 M 233 -51 R
245 -50 R 246 -51 R 245 -52 R 245 -49 R 246 -40 R 245 -19 R 246 -14 R
245 -27 R 245 -23 R 246 -79 R 245 6 R 245 -125 R 246 -192 R 245 -254 R
245 -344 R 246 -260 R 245 -322 R 245 -966 R 246 -249 R D 2220 9757 M 39 0 R
-39 0 R D 2220 9819 M 39 0 R D 2402 9700 M 102 0 R -51 0 R 0 68 R -51 0 R
102 0 R D 2647 9649 M 103 0 R -52 0 R 0 71 R -51 0 R 103 0 R D 2892 9603 M
103 0 R -51 0 R 0 61 R -52 0 R 103 0 R D 3138 9544 M 103 0 R -52 0 R 0 73 R
-51 0 R 103 0 R D 3383 9500 M 103 0 R -52 0 R 0 64 R -51 0 R 103 0 R D
3628 9452 M 103 0 R -51 0 R 0 81 R -52 0 R 103 0 R D 3874 9435 M 103 0 R
-52 0 R 0 76 R -51 0 R 103 0 R D 4119 9422 M 103 0 R -51 0 R 0 75 R -52 0 R
103 0 R D 4364 9403 M 103 0 R -51 0 R 0 59 R -52 0 R 103 0 R D 4610 9371 M
103 0 R -52 0 R 0 76 R -51 0 R 103 0 R D 4855 9285 M 103 0 R -51 0 R 0 91 R
-52 0 R 103 0 R D 5101 9286 M 102 0 R -51 0 R 0 99 R -51 0 R 102 0 R D
5346 9146 M 103 0 R -52 0 R 0 129 R -51 0 R 103 0 R D 5591 8856 M 103 0 R
-51 0 R 0 326 R -52 0 R 103 0 R D 5837 8648 M 102 0 R -51 0 R 0 235 R
-51 0 R 102 0 R D 6082 8389 M 103 0 R -52 0 R 0 64 R -51 0 R 103 0 R D
6327 7944 M 103 0 R -51 0 R 0 433 R -52 0 R 103 0 R D 6573 7248 M 102 0 R
-51 0 R 0 1182 R -51 0 R 102 0 R D 6869 5852 M 0 2124 R -51 0 R 103 0 R D
7115 5852 M 0 2798 R -52 0 R 103 0 R D 0.000 0.000 0.000 setrgbcolor
gsave 4790 10560 translate 0 0 M -523.663 0 N
(z~0.0) show grestore 2220 9685 M 184 -12 R 196 -14 R 197 -15 R 196 -17 R
196 -21 R 196 -25 R 197 -32 R 196 -41 R 196 -14 R 197 -3 R 196 -9 R
196 -15 R 196 -27 R 197 -41 R 196 -63 R 196 -95 R 196 -138 R 197 -177 R
196 -221 R 196 -284 R 197 -375 R 196 -508 R 196 -699 R 196 -975 R 1 -12 R D
3116 9544 M 122 11 R 123 -3 R 123 8 R 122 -18 R 123 -16 R 123 -14 R
122 -13 R 123 -16 R 123 -3 R 123 -19 R 122 -8 R 123 -4 R 123 -7 R 122 -6 R
123 -11 R 123 -28 R 122 -27 R 123 -35 R 123 -49 R 122 -51 R 123 -66 R
123 -80 R 122 -98 R 123 -97 R 123 -121 R 122 -119 R 123 -131 R 123 -163 R
122 -154 R 123 -176 R 123 -243 R 122 -195 R 123 -168 R D
1.000 0.000 0.000 setrgbcolor 2220 9785 M 233 -51 R 245 -50 R 246 -51 R
245 -52 R 245 -49 R 246 -40 R 245 -19 R 246 -14 R 245 -27 R 245 -23 R
246 -79 R 245 6 R 245 -125 R 246 -192 R 245 -254 R 245 -344 R 246 -260 R
245 -322 R 245 -966 R 246 -249 R D 10 setlinewidth
0.000 0.000 0.000 setrgbcolor 7164 7424 M -82 -1572 R D 7041 7592 M
-122 -1729 R D 6919 7787 M -123 -1277 R D 6796 8030 M -123 -995 R D
6673 8206 M -122 -744 R D 6551 8360 M -123 -549 R D 6428 8523 M -123 -425 R
D 6305 8654 M -122 -317 R D 6183 8773 M -123 -237 R D 6060 8894 M
-123 -189 R D 5937 8991 M -122 -142 R D 5815 9089 M -123 -116 R D
5692 9169 M -123 -87 R D 5569 9235 M -122 -58 R D 40 setlinewidth
1.000 0.000 0.000 setrgbcolor 2528 7185 M 62 0 R 62 0 R 61 0 R 62 0 R 62 0 R
61 0 R 62 0 R 62 0 R 62 0 R D gsave 3145 7100 translate 0 0 M
(Whole Sky) show grestore 20 setlinewidth 0.000 0.000 0.000 setrgbcolor
2528 6741 M 103 0 R 103 0 R 103 0 R 103 0 R 102 0 R 103 0 R D 2528 6163 M
103 0 R 103 0 R 103 0 R 103 0 R 102 0 R 103 0 R D 2528 6741 M 0 -578 R D
2631 6741 M 0 -578 R D 2734 6741 M 0 -578 R D 2837 6741 M 0 -578 R D
2940 6741 M 0 -578 R D 3042 6741 M 0 -578 R D 3145 6741 M 0 -578 R D
gsave 3248 6563 translate 0 0 M
(Bernardi2013) show grestore gsave 3248 6074 translate 0 0 M
(Li2009) show grestore 30 setlinewidth 7360 5852 M 5140 0 R D 8575 5852 M
0 133 R D gsave 8575 5324 translate 0 0 M -58.8433 0 N
( ) show grestore 9801 5852 M 0 133 R D gsave 9801 5324 translate 0 0 M
-58.8433 0 N
( ) show grestore 11028 5852 M 0 133 R D gsave 11028 5324 translate 0 0 M
-58.8433 0 N
( ) show grestore 12255 5852 M 0 133 R D gsave 12255 5324 translate 0 0 M
-58.8433 0 N
( ) show grestore 7470 5852 M 0 67 R D 7593 5852 M 0 67 R D 7716 5852 M
0 67 R D 7838 5852 M 0 67 R D 7961 5852 M 0 67 R D 8084 5852 M 0 67 R D
8207 5852 M 0 67 R D 8329 5852 M 0 67 R D 8452 5852 M 0 67 R D 8697 5852 M
0 67 R D 8820 5852 M 0 67 R D 8943 5852 M 0 67 R D 9065 5852 M 0 67 R D
9188 5852 M 0 67 R D 9311 5852 M 0 67 R D 9433 5852 M 0 67 R D 9556 5852 M
0 67 R D 9679 5852 M 0 67 R D 9924 5852 M 0 67 R D 10047 5852 M 0 67 R D
10169 5852 M 0 67 R D 10292 5852 M 0 67 R D 10415 5852 M 0 67 R D
10537 5852 M 0 67 R D 10660 5852 M 0 67 R D 10783 5852 M 0 67 R D
10905 5852 M 0 67 R D 11151 5852 M 0 67 R D 11273 5852 M 0 67 R D
11396 5852 M 0 67 R D 11519 5852 M 0 67 R D 11641 5852 M 0 67 R D
11764 5852 M 0 67 R D 11887 5852 M 0 67 R D 12009 5852 M 0 67 R D
12132 5852 M 0 67 R D 12377 5852 M 0 67 R D 12500 5852 M 0 67 R D
7360 10296 M 5140 0 R D 8575 10296 M 0 -133 R D 9801 10296 M 0 -133 R D
11028 10296 M 0 -133 R D 12255 10296 M 0 -133 R D 7470 10296 M 0 -67 R D
7593 10296 M 0 -67 R D 7716 10296 M 0 -67 R D 7838 10296 M 0 -67 R D
7961 10296 M 0 -67 R D 8084 10296 M 0 -67 R D 8207 10296 M 0 -67 R D
8329 10296 M 0 -67 R D 8452 10296 M 0 -67 R D 8697 10296 M 0 -67 R D
8820 10296 M 0 -67 R D 8943 10296 M 0 -67 R D 9065 10296 M 0 -67 R D
9188 10296 M 0 -67 R D 9311 10296 M 0 -67 R D 9433 10296 M 0 -67 R D
9556 10296 M 0 -67 R D 9679 10296 M 0 -67 R D 9924 10296 M 0 -67 R D
10047 10296 M 0 -67 R D 10169 10296 M 0 -67 R D 10292 10296 M 0 -67 R D
10415 10296 M 0 -67 R D 10537 10296 M 0 -67 R D 10660 10296 M 0 -67 R D
10783 10296 M 0 -67 R D 10905 10296 M 0 -67 R D 11151 10296 M 0 -67 R D
11273 10296 M 0 -67 R D 11396 10296 M 0 -67 R D 11519 10296 M 0 -67 R D
11641 10296 M 0 -67 R D 11764 10296 M 0 -67 R D 11887 10296 M 0 -67 R D
12009 10296 M 0 -67 R D 12132 10296 M 0 -67 R D 12377 10296 M 0 -67 R D
12500 10296 M 0 -67 R D 7360 5852 M 0 4444 R D 7360 6346 M 154 0 R D
gsave 7249 6206 translate 0 0 M -117.687 0 N
( ) show grestore 7360 7339 M 154 0 R D gsave 7249 7199 translate 0 0 M
-117.687 0 N
( ) show grestore 7360 8333 M 154 0 R D gsave 7249 8192 translate 0 0 M
-117.687 0 N
( ) show grestore 7360 9326 M 154 0 R D gsave 7249 9185 translate 0 0 M
-117.687 0 N
( ) show grestore 7360 6843 M 77 0 R D 7360 7836 M 77 0 R D 7360 8829 M
77 0 R D 7360 9822 M 77 0 R D 12500 5852 M 0 4444 R D 12500 6346 M -154 0 R
D 12500 7339 M -154 0 R D 12500 8333 M -154 0 R D 12500 9326 M -154 0 R D
12500 6843 M -77 0 R D 12500 7836 M -77 0 R D 12500 8829 M -77 0 R D
12500 9822 M -77 0 R D 1.000 0.000 0.000 setrgbcolor 7360 9788 M 177 -36 R
245 -50 R 246 -56 R 245 -49 R 245 -53 R 246 -37 R 245 -23 R 245 -18 R
246 -15 R 245 -27 R 245 -63 R 246 -4 R 245 -112 R 246 -177 R 245 -238 R
245 -320 R 246 -328 R 245 -394 R 245 -101 R 246 -1616 R D 7486 9716 M
102 0 R -51 0 R 0 72 R -51 0 R 102 0 R D 7731 9665 M 103 0 R -52 0 R 0 73 R
-51 0 R 103 0 R D 7976 9617 M 103 0 R -51 0 R 0 58 R -52 0 R 103 0 R D
8222 9560 M 102 0 R -51 0 R 0 74 R -51 0 R 102 0 R D 8467 9511 M 103 0 R
-52 0 R 0 66 R -51 0 R 103 0 R D 8712 9466 M 103 0 R -51 0 R 0 81 R -52 0 R
103 0 R D 8958 9449 M 103 0 R -52 0 R 0 70 R -51 0 R 103 0 R D 9203 9433 M
103 0 R -52 0 R 0 67 R -51 0 R 103 0 R D 9448 9411 M 103 0 R -51 0 R 0 80 R
-52 0 R 103 0 R D 9694 9388 M 103 0 R -52 0 R 0 73 R -51 0 R 103 0 R D
9939 9318 M 103 0 R -52 0 R 0 87 R -51 0 R 103 0 R D 10184 9303 M 103 0 R
-51 0 R 0 107 R -52 0 R 103 0 R D 10430 9195 M 103 0 R -52 0 R 0 100 R
-51 0 R 103 0 R D 10675 8945 M 103 0 R -51 0 R 0 246 R -52 0 R 103 0 R D
10920 8721 M 103 0 R -51 0 R 0 218 R -52 0 R 103 0 R D 11166 8411 M 103 0 R
-52 0 R 0 199 R -51 0 R 103 0 R D 11411 8057 M 103 0 R -51 0 R 0 250 R
-52 0 R 103 0 R D 11657 7333 M 102 0 R -51 0 R 0 910 R -51 0 R 102 0 R D
11902 6735 M 103 0 R -52 0 R 0 1904 R -51 0 R 103 0 R D 12199 5852 M
0 1926 R -52 0 R 103 0 R D 0.000 0.000 0.000 setrgbcolor
gsave 9930 10560 translate 0 0 M -523.663 0 N
(z~0.3) show grestore L1 8084 9556 M 245 -37 R 246 -35 R 245 -35 R 245 -34 R
246 -32 R 245 -32 R 245 -32 R 246 -38 R 245 -51 R 245 -81 R 246 -132 R
245 -218 R 245 -349 R 246 -528 R 245 -759 R D L0 8032 9512 M 103 0 R -51 0 R
0 87 R -52 0 R 103 0 R D 8278 9478 M 103 0 R -52 0 R 0 82 R -51 0 R 103 0 R
D 8523 9445 M 103 0 R -51 0 R 0 77 R -52 0 R 103 0 R D 8768 9413 M 103 0 R
-51 0 R 0 72 R -52 0 R 103 0 R D 9014 9382 M 103 0 R -52 0 R 0 67 R -51 0 R
103 0 R D 9259 9352 M 103 0 R -51 0 R 0 62 R -52 0 R 103 0 R D 9505 9323 M
102 0 R -51 0 R 0 57 R -51 0 R 102 0 R D 9750 9293 M 103 0 R -52 0 R 0 52 R
-51 0 R 103 0 R D 9995 9256 M 103 0 R -51 0 R 0 50 R -52 0 R 103 0 R D
10241 9204 M 102 0 R -51 0 R 0 51 R -51 0 R 102 0 R D 10486 9120 M 103 0 R
-52 0 R 0 58 R -51 0 R 103 0 R D 10731 8980 M 103 0 R -51 0 R 0 73 R -52 0 R
103 0 R D 10977 8747 M 102 0 R -51 0 R 0 101 R -51 0 R 102 0 R D
11222 8373 M 103 0 R -52 0 R 0 149 R -51 0 R 103 0 R D 11467 7801 M 103 0 R
-51 0 R 0 233 R -52 0 R 103 0 R D 11713 6974 M 102 0 R -51 0 R 0 363 R
-51 0 R 102 0 R D L2 8440 9491 M 123 -39 R 122 10 R 123 4 R 123 -50 R
122 12 R 123 12 R 123 -3 R 122 16 R 123 -40 R 123 24 R 122 4 R 123 -29 R
123 4 R 122 -24 R 123 -38 R 123 -32 R 122 -53 R 123 -65 R 123 -54 R
122 -144 R 123 -115 R 123 -119 R 122 -378 R D L0 8388 9471 M 103 0 R -51 0 R
0 41 R -52 0 R 103 0 R D 8511 9433 M 103 0 R -51 0 R 0 40 R -52 0 R 103 0 R
D 8634 9428 M 103 0 R -52 0 R 0 73 R -51 0 R 103 0 R D 8756 9441 M 103 0 R
-51 0 R 0 52 R -52 0 R 103 0 R D 8879 9401 M 103 0 R -51 0 R 0 31 R -52 0 R
103 0 R D 9002 9414 M 103 0 R -52 0 R 0 29 R -51 0 R 103 0 R D 9124 9422 M
103 0 R -51 0 R 0 37 R -52 0 R 103 0 R D 9247 9423 M 103 0 R -51 0 R 0 28 R
-52 0 R 103 0 R D 9370 9439 M 103 0 R -52 0 R 0 29 R -51 0 R 103 0 R D
9493 9398 M 102 0 R -51 0 R 0 32 R -51 0 R 102 0 R D 9615 9425 M 103 0 R
-51 0 R 0 25 R -52 0 R 103 0 R D 9738 9428 M 103 0 R -52 0 R 0 26 R -51 0 R
103 0 R D 9861 9400 M 102 0 R -51 0 R 0 26 R -51 0 R 102 0 R D 9983 9403 M
103 0 R -51 0 R 0 26 R -52 0 R 103 0 R D 10106 9378 M 103 0 R -52 0 R 0 27 R
-51 0 R 103 0 R D 10229 9340 M 102 0 R -51 0 R 0 30 R -51 0 R 102 0 R D
10351 9306 M 103 0 R -51 0 R 0 33 R -52 0 R 103 0 R D 10474 9250 M 103 0 R
-52 0 R 0 40 R -51 0 R 103 0 R D 10597 9183 M 102 0 R -51 0 R 0 44 R -51 0 R
102 0 R D 10719 9126 M 103 0 R -51 0 R 0 50 R -52 0 R 103 0 R D 10842 8973 M
103 0 R -52 0 R 0 70 R -51 0 R 103 0 R D 10965 8848 M 102 0 R -51 0 R 0 93 R
-51 0 R 102 0 R D 11087 8722 M 103 0 R -51 0 R 0 149 R -52 0 R 103 0 R D
11210 8295 M 103 0 R -52 0 R 0 298 R -51 0 R 103 0 R D 40 setlinewidth
1.000 0.000 0.000 setrgbcolor 7668 7096 M 62 0 R 62 0 R 62 0 R 61 0 R 62 0 R
62 0 R 61 0 R 62 0 R 62 0 R D L1 0.000 0.000 0.000 setrgbcolor 7668 6652 M
62 0 R 62 0 R 62 0 R 61 0 R 62 0 R 62 0 R 61 0 R 62 0 R 62 0 R D L2
7668 6208 M 62 0 R 62 0 R 62 0 R 61 0 R 62 0 R 62 0 R 61 0 R 62 0 R 62 0 R D
1.000 0.000 0.000 setrgbcolor gsave 8285 7011 translate 0 0 M
(Whole Sky) show grestore 0.000 0.000 0.000 setrgbcolor
gsave 8285 6567 translate 0 0 M
(Giodini2012) show grestore gsave 8285 6122 translate 0 0 M
(Moustakas2013) show grestore 30 setlinewidth L0 12500 5852 M 5140 0 R D
13715 5852 M 0 133 R D gsave 13715 5324 translate 0 0 M -58.8433 0 N
( ) show grestore 14941 5852 M 0 133 R D gsave 14941 5324 translate 0 0 M
-58.8433 0 N
( ) show grestore 16168 5852 M 0 133 R D gsave 16168 5324 translate 0 0 M
-58.8433 0 N
( ) show grestore 17395 5852 M 0 133 R D gsave 17395 5324 translate 0 0 M
-58.8433 0 N
( ) show grestore 12611 5852 M 0 67 R D 12733 5852 M 0 67 R D 12856 5852 M
0 67 R D 12979 5852 M 0 67 R D 13101 5852 M 0 67 R D 13224 5852 M 0 67 R D
13347 5852 M 0 67 R D 13469 5852 M 0 67 R D 13592 5852 M 0 67 R D
13837 5852 M 0 67 R D 13960 5852 M 0 67 R D 14083 5852 M 0 67 R D
14205 5852 M 0 67 R D 14328 5852 M 0 67 R D 14451 5852 M 0 67 R D
14573 5852 M 0 67 R D 14696 5852 M 0 67 R D 14819 5852 M 0 67 R D
15064 5852 M 0 67 R D 15187 5852 M 0 67 R D 15309 5852 M 0 67 R D
15432 5852 M 0 67 R D 15555 5852 M 0 67 R D 15677 5852 M 0 67 R D
15800 5852 M 0 67 R D 15923 5852 M 0 67 R D 16045 5852 M 0 67 R D
16291 5852 M 0 67 R D 16413 5852 M 0 67 R D 16536 5852 M 0 67 R D
16659 5852 M 0 67 R D 16781 5852 M 0 67 R D 16904 5852 M 0 67 R D
17027 5852 M 0 67 R D 17149 5852 M 0 67 R D 17272 5852 M 0 67 R D
17518 5852 M 0 67 R D 17640 5852 M 0 67 R D 12500 10296 M 5140 0 R D
13715 10296 M 0 -133 R D 14941 10296 M 0 -133 R D 16168 10296 M 0 -133 R D
17395 10296 M 0 -133 R D 12611 10296 M 0 -67 R D 12733 10296 M 0 -67 R D
12856 10296 M 0 -67 R D 12979 10296 M 0 -67 R D 13101 10296 M 0 -67 R D
13224 10296 M 0 -67 R D 13347 10296 M 0 -67 R D 13469 10296 M 0 -67 R D
13592 10296 M 0 -67 R D 13837 10296 M 0 -67 R D 13960 10296 M 0 -67 R D
14083 10296 M 0 -67 R D 14205 10296 M 0 -67 R D 14328 10296 M 0 -67 R D
14451 10296 M 0 -67 R D 14573 10296 M 0 -67 R D 14696 10296 M 0 -67 R D
14819 10296 M 0 -67 R D 15064 10296 M 0 -67 R D 15187 10296 M 0 -67 R D
15309 10296 M 0 -67 R D 15432 10296 M 0 -67 R D 15555 10296 M 0 -67 R D
15677 10296 M 0 -67 R D 15800 10296 M 0 -67 R D 15923 10296 M 0 -67 R D
16045 10296 M 0 -67 R D 16291 10296 M 0 -67 R D 16413 10296 M 0 -67 R D
16536 10296 M 0 -67 R D 16659 10296 M 0 -67 R D 16781 10296 M 0 -67 R D
16904 10296 M 0 -67 R D 17027 10296 M 0 -67 R D 17149 10296 M 0 -67 R D
17272 10296 M 0 -67 R D 17518 10296 M 0 -67 R D 17640 10296 M 0 -67 R D
12500 5852 M 0 4444 R D 12500 6346 M 154 0 R D
gsave 12389 6206 translate 0 0 M -117.687 0 N
( ) show grestore 12500 7339 M 154 0 R D gsave 12389 7199 translate 0 0 M
-117.687 0 N
( ) show grestore 12500 8333 M 154 0 R D gsave 12389 8192 translate 0 0 M
-117.687 0 N
( ) show grestore 12500 9326 M 154 0 R D gsave 12389 9185 translate 0 0 M
-117.687 0 N
( ) show grestore 12500 6843 M 77 0 R D 12500 7836 M 77 0 R D 12500 8829 M
77 0 R D 12500 9822 M 77 0 R D 17640 5852 M 0 4444 R D 17640 6346 M -154 0 R
D 17640 7339 M -154 0 R D 17640 8333 M -154 0 R D 17640 9326 M -154 0 R D
17640 6843 M -77 0 R D 17640 7836 M -77 0 R D 17640 8829 M -77 0 R D
17640 9822 M -77 0 R D 1.000 0.000 0.000 setrgbcolor 12500 9797 M 114 -24 R
246 -55 R 245 -53 R 245 -54 R 246 -51 R 245 -41 R 245 -26 R 246 -16 R
245 2 R 245 -9 R 246 -85 R 245 -157 R 246 -98 R 245 -160 R 245 -222 R
246 -295 R 245 -152 R 245 -440 R 246 -1143 R 210 -866 R D 12563 9738 M
103 0 R -52 0 R 0 71 R -51 0 R 103 0 R D 12808 9680 M 103 0 R -51 0 R 0 75 R
-52 0 R 103 0 R D 13054 9634 M 102 0 R -51 0 R 0 63 R -51 0 R 102 0 R D
13299 9577 M 103 0 R -52 0 R 0 69 R -51 0 R 103 0 R D 13544 9525 M 103 0 R
-51 0 R 0 70 R -52 0 R 103 0 R D 13790 9480 M 102 0 R -51 0 R 0 78 R -51 0 R
102 0 R D 14035 9466 M 103 0 R -52 0 R 0 54 R -51 0 R 103 0 R D 14280 9441 M
103 0 R -51 0 R 0 72 R -52 0 R 103 0 R D 14526 9432 M 103 0 R -52 0 R 0 94 R
-51 0 R 103 0 R D 14771 9436 M 103 0 R -52 0 R 0 69 R -51 0 R 103 0 R D
15016 9333 M 103 0 R -51 0 R 0 103 R -52 0 R 103 0 R D 15262 9167 M 103 0 R
-52 0 R 0 121 R -51 0 R 103 0 R D 15507 9078 M 103 0 R -51 0 R 0 103 R
-52 0 R 103 0 R D 15752 8856 M 103 0 R -51 0 R 0 228 R -52 0 R 103 0 R D
15998 8639 M 103 0 R -52 0 R 0 217 R -51 0 R 103 0 R D 16243 8326 M 103 0 R
-51 0 R 0 253 R -52 0 R 103 0 R D 16488 8191 M 103 0 R -51 0 R 0 221 R
-52 0 R 103 0 R D 16734 7458 M 103 0 R -52 0 R 0 806 R -51 0 R 103 0 R D
16979 6718 M 103 0 R -51 0 R -52 0 R 103 0 R D 17276 5852 M 0 849 R -51 0 R
102 0 R D 0.000 0.000 0.000 setrgbcolor gsave 15070 10560 translate 0 0 M
-523.663 0 N
(z~1.0) show grestore L1 14819 9299 M 260 -28 R 261 -45 R 261 -73 R
260 -121 R 261 -203 R 261 -341 R 260 -567 R 261 -941 R D L0 14767 9273 M
103 0 R -51 0 R 0 54 R -52 0 R 103 0 R D 15028 9246 M 103 0 R -52 0 R 0 50 R
-51 0 R 103 0 R D 15289 9202 M 102 0 R -51 0 R 0 48 R -51 0 R 102 0 R D
15549 9127 M 103 0 R -51 0 R 0 52 R -52 0 R 103 0 R D 15810 9000 M 103 0 R
-52 0 R 0 63 R -51 0 R 103 0 R D 16071 8785 M 102 0 R -51 0 R 0 86 R -51 0 R
102 0 R D 16331 8426 M 103 0 R -51 0 R 0 123 R -52 0 R 103 0 R D
16592 7829 M 103 0 R -52 0 R 0 184 R -51 0 R 103 0 R D 16853 6841 M 103 0 R
-52 0 R 0 280 R -51 0 R 103 0 R D L2 14684 9303 M 245 -36 R 246 -40 R
245 -37 R 245 -104 R 246 -167 R 245 -234 R 245 -330 R D L0 14633 9299 M
102 0 R -51 0 R 0 7 R -51 0 R 102 0 R D 14878 9263 M 103 0 R -52 0 R 0 7 R
-51 0 R 103 0 R D 15123 9223 M 103 0 R -51 0 R 0 9 R -52 0 R 103 0 R D
15369 9186 M 102 0 R -51 0 R 0 9 R -51 0 R 102 0 R D 15614 9080 M 103 0 R
-52 0 R 0 12 R -51 0 R 103 0 R D 15859 8910 M 103 0 R -51 0 R 0 18 R -52 0 R
103 0 R D 16105 8670 M 102 0 R -51 0 R 0 29 R -51 0 R 102 0 R D 16350 8318 M
103 0 R -52 0 R 0 68 R -51 0 R 103 0 R D 40 setlinewidth
1.000 0.000 0.000 setrgbcolor 12809 7096 M 61 0 R 62 0 R 62 0 R 61 0 R
62 0 R 62 0 R 61 0 R 62 0 R 62 0 R D L1 0.000 0.000 0.000 setrgbcolor
12809 6652 M 61 0 R 62 0 R 62 0 R 61 0 R 62 0 R 62 0 R 61 0 R 62 0 R 62 0 R
D L2 12809 6208 M 61 0 R 62 0 R 62 0 R 61 0 R 62 0 R 62 0 R 61 0 R 62 0 R
62 0 R D 1.000 0.000 0.000 setrgbcolor gsave 13425 7011 translate 0 0 M
(Whole Sky) show grestore 0.000 0.000 0.000 setrgbcolor
gsave 13425 6567 translate 0 0 M
(Giodini2012) show grestore gsave 13425 6122 translate 0 0 M
(vanderBurg2013) show grestore 30 setlinewidth L0 2220 1408 M 5140 0 R D
3434 1408 M 0 133 R D gsave 3434 880 translate 0 0 M -117.687 0 N
(9) show grestore 4661 1408 M 0 133 R D gsave 4661 880 translate 0 0 M
-235.373 0 N
(10) show grestore 5888 1408 M 0 133 R D gsave 5888 880 translate 0 0 M
-235.373 0 N
(11) show grestore 7115 1408 M 0 133 R D gsave 7115 880 translate 0 0 M
-235.373 0 N
(12) show grestore 2330 1408 M 0 67 R D 2453 1408 M 0 67 R D 2576 1408 M
0 67 R D 2698 1408 M 0 67 R D 2821 1408 M 0 67 R D 2944 1408 M 0 67 R D
3066 1408 M 0 67 R D 3189 1408 M 0 67 R D 3312 1408 M 0 67 R D 3557 1408 M
0 67 R D 3680 1408 M 0 67 R D 3803 1408 M 0 67 R D 3925 1408 M 0 67 R D
4048 1408 M 0 67 R D 4171 1408 M 0 67 R D 4293 1408 M 0 67 R D 4416 1408 M
0 67 R D 4539 1408 M 0 67 R D 4784 1408 M 0 67 R D 4907 1408 M 0 67 R D
5029 1408 M 0 67 R D 5152 1408 M 0 67 R D 5275 1408 M 0 67 R D 5397 1408 M
0 67 R D 5520 1408 M 0 67 R D 5643 1408 M 0 67 R D 5765 1408 M 0 67 R D
6011 1408 M 0 67 R D 6133 1408 M 0 67 R D 6256 1408 M 0 67 R D 6379 1408 M
0 67 R D 6501 1408 M 0 67 R D 6624 1408 M 0 67 R D 6747 1408 M 0 67 R D
6869 1408 M 0 67 R D 6992 1408 M 0 67 R D 7237 1408 M 0 67 R D 7360 1408 M
0 67 R D 2220 5852 M 5140 0 R D 3434 5852 M 0 -133 R D 4661 5852 M 0 -133 R
D 5888 5852 M 0 -133 R D 7115 5852 M 0 -133 R D 2330 5852 M 0 -67 R D
2453 5852 M 0 -67 R D 2576 5852 M 0 -67 R D 2698 5852 M 0 -67 R D
2821 5852 M 0 -67 R D 2944 5852 M 0 -67 R D 3066 5852 M 0 -67 R D
3189 5852 M 0 -67 R D 3312 5852 M 0 -67 R D 3557 5852 M 0 -67 R D
3680 5852 M 0 -67 R D 3803 5852 M 0 -67 R D 3925 5852 M 0 -67 R D
4048 5852 M 0 -67 R D 4171 5852 M 0 -67 R D 4293 5852 M 0 -67 R D
4416 5852 M 0 -67 R D 4539 5852 M 0 -67 R D 4784 5852 M 0 -67 R D
4907 5852 M 0 -67 R D 5029 5852 M 0 -67 R D 5152 5852 M 0 -67 R D
5275 5852 M 0 -67 R D 5397 5852 M 0 -67 R D 5520 5852 M 0 -67 R D
5643 5852 M 0 -67 R D 5765 5852 M 0 -67 R D 6011 5852 M 0 -67 R D
6133 5852 M 0 -67 R D 6256 5852 M 0 -67 R D 6379 5852 M 0 -67 R D
6501 5852 M 0 -67 R D 6624 5852 M 0 -67 R D 6747 5852 M 0 -67 R D
6869 5852 M 0 -67 R D 6992 5852 M 0 -67 R D 7237 5852 M 0 -67 R D
7360 5852 M 0 -67 R D 2220 1408 M 0 4444 R D 2220 1851 M 154 0 R D
gsave 2109 1710 translate 0 0 M -704.08 0 N
(10) show X 192.937 M
%%IncludeResource: font Helvetica
262.467 /Helvetica STDFONT
(-6) show grestore
%%IncludeResource: font Helvetica
423.333 /Helvetica STDFONT 2220 2740 M 154 0 R D
gsave 2109 2600 translate 0 0 M -704.08 0 N
(10) show X 192.937 M
%%IncludeResource: font Helvetica
262.467 /Helvetica STDFONT
(-4) show grestore
%%IncludeResource: font Helvetica
423.333 /Helvetica STDFONT 2220 3630 M 154 0 R D
gsave 2109 3489 translate 0 0 M -704.08 0 N
(10) show X 192.937 M
%%IncludeResource: font Helvetica
262.467 /Helvetica STDFONT
(-2) show grestore
%%IncludeResource: font Helvetica
423.333 /Helvetica STDFONT 2220 4520 M 154 0 R D
gsave 2109 4379 translate 0 0 M -616.678 0 N
(10) show X 192.937 M
%%IncludeResource: font Helvetica
262.467 /Helvetica STDFONT
(0) show grestore
%%IncludeResource: font Helvetica
423.333 /Helvetica STDFONT 2220 5409 M 154 0 R D
gsave 2109 5268 translate 0 0 M -616.678 0 N
(10) show X 192.937 M
%%IncludeResource: font Helvetica
262.467 /Helvetica STDFONT
(2) show grestore
%%IncludeResource: font Helvetica
423.333 /Helvetica STDFONT 2220 2296 M 77 0 R D 2220 3185 M 77 0 R D
2220 4075 M 77 0 R D 2220 4964 M 77 0 R D 7360 1408 M 0 4444 R D 7360 1851 M
-154 0 R D 7360 2740 M -154 0 R D 7360 3630 M -154 0 R D 7360 4520 M
-154 0 R D 7360 5409 M -154 0 R D 7360 2296 M -77 0 R D 7360 3185 M -77 0 R
D 7360 4075 M -77 0 R D 7360 4964 M -77 0 R D 0.000 0.000 1.000 setrgbcolor
2220 5435 M 233 -52 R 245 -45 R 246 -45 R 245 -36 R 245 -50 R 246 -22 R
245 -12 R 246 -9 R 245 -13 R 245 -37 R 246 -95 R 245 -136 R 245 -219 R
246 -185 R 245 0 R 245 -186 R 246 -326 R 245 -561 R 245 -912 R 246 211 R D
2220 5411 M 39 0 R -39 0 R D 2220 5465 M 39 0 R D 2402 5363 M 102 0 R
-51 0 R 0 39 R -51 0 R 102 0 R D 2647 5314 M 103 0 R -52 0 R 0 48 R -51 0 R
103 0 R D 2892 5277 M 103 0 R -51 0 R 0 33 R -52 0 R 103 0 R D 3138 5233 M
103 0 R -52 0 R 0 48 R -51 0 R 103 0 R D 3383 5191 M 103 0 R -52 0 R 0 32 R
-51 0 R 103 0 R D 3628 5163 M 103 0 R -51 0 R 0 44 R -52 0 R 103 0 R D
3874 5150 M 103 0 R -52 0 R 0 46 R -51 0 R 103 0 R D 4119 5146 M 103 0 R
-51 0 R 0 35 R -52 0 R 103 0 R D 4364 5129 M 103 0 R -51 0 R 0 44 R -52 0 R
103 0 R D 4610 5080 M 103 0 R -52 0 R 0 68 R -51 0 R 103 0 R D 4855 4981 M
103 0 R -51 0 R 0 76 R -52 0 R 103 0 R D 5101 4850 M 102 0 R -51 0 R 0 66 R
-51 0 R 102 0 R D 5346 4571 M 103 0 R -52 0 R 0 186 R -51 0 R 103 0 R D
5591 4375 M 103 0 R -51 0 R 0 208 R -52 0 R 103 0 R D 5837 4359 M 102 0 R
-51 0 R 0 240 R -51 0 R 102 0 R D 6082 4207 M 103 0 R -52 0 R 0 171 R
-51 0 R 103 0 R D 6327 3846 M 103 0 R -51 0 R 0 241 R -52 0 R 103 0 R D
6573 3037 M 102 0 R -51 0 R 0 737 R -51 0 R 102 0 R D 6818 1814 M 103 0 R
-52 0 R 0 1360 R -51 0 R 103 0 R D 7115 1408 M 0 3234 R -52 0 R 103 0 R D L1
0.000 0.000 0.000 setrgbcolor 4588 5040 M 268 -35 R 269 -50 R 268 -78 R
268 -121 R 269 -195 R 268 -316 R 268 -516 R 269 -848 R D L0 4536 4923 M
103 0 R -51 0 R 0 267 R -52 0 R 103 0 R D 4805 4908 M 103 0 R -52 0 R
0 226 R -51 0 R 103 0 R D 5073 4869 M 103 0 R -51 0 R 0 197 R -52 0 R
103 0 R D 5342 4793 M 102 0 R -51 0 R 0 186 R -51 0 R 102 0 R D 5610 4655 M
103 0 R -52 0 R 0 206 R -51 0 R 103 0 R D 5878 4413 M 103 0 R -51 0 R
0 278 R -52 0 R 103 0 R D 6147 4000 M 102 0 R -51 0 R 0 436 R -51 0 R
102 0 R D 6415 3304 M 103 0 R -52 0 R 0 734 R -51 0 R 103 0 R D 6683 2140 M
103 0 R -51 0 R 0 1266 R -52 0 R 103 0 R D 40 setlinewidth
0.000 0.000 1.000 setrgbcolor 2528 2652 M 62 0 R 62 0 R 61 0 R 62 0 R 62 0 R
61 0 R 62 0 R 62 0 R 62 0 R D L1 0.000 0.000 0.000 setrgbcolor 2528 2163 M
62 0 R 62 0 R 61 0 R 62 0 R 62 0 R 61 0 R 62 0 R 62 0 R 62 0 R D
0.000 0.000 1.000 setrgbcolor gsave 3145 2567 translate 0 0 M
(Cluster) show grestore 0.000 0.000 0.000 setrgbcolor
gsave 3145 2078 translate 0 0 M
(Calvi2013) show grestore 30 setlinewidth L0 7360 1408 M 5140 0 R D
8575 1408 M 0 133 R D gsave 8575 880 translate 0 0 M -117.687 0 N
(9) show grestore 9801 1408 M 0 133 R D gsave 9801 880 translate 0 0 M
-235.373 0 N
(10) show grestore 11028 1408 M 0 133 R D gsave 11028 880 translate 0 0 M
-235.373 0 N
(11) show grestore 12255 1408 M 0 133 R D gsave 12255 880 translate 0 0 M
-235.373 0 N
(12) show grestore 7470 1408 M 0 67 R D 7593 1408 M 0 67 R D 7716 1408 M
0 67 R D 7838 1408 M 0 67 R D 7961 1408 M 0 67 R D 8084 1408 M 0 67 R D
8207 1408 M 0 67 R D 8329 1408 M 0 67 R D 8452 1408 M 0 67 R D 8697 1408 M
0 67 R D 8820 1408 M 0 67 R D 8943 1408 M 0 67 R D 9065 1408 M 0 67 R D
9188 1408 M 0 67 R D 9311 1408 M 0 67 R D 9433 1408 M 0 67 R D 9556 1408 M
0 67 R D 9679 1408 M 0 67 R D 9924 1408 M 0 67 R D 10047 1408 M 0 67 R D
10169 1408 M 0 67 R D 10292 1408 M 0 67 R D 10415 1408 M 0 67 R D
10537 1408 M 0 67 R D 10660 1408 M 0 67 R D 10783 1408 M 0 67 R D
10905 1408 M 0 67 R D 11151 1408 M 0 67 R D 11273 1408 M 0 67 R D
11396 1408 M 0 67 R D 11519 1408 M 0 67 R D 11641 1408 M 0 67 R D
11764 1408 M 0 67 R D 11887 1408 M 0 67 R D 12009 1408 M 0 67 R D
12132 1408 M 0 67 R D 12377 1408 M 0 67 R D 12500 1408 M 0 67 R D
7360 5852 M 5140 0 R D 8575 5852 M 0 -133 R D 9801 5852 M 0 -133 R D
11028 5852 M 0 -133 R D 12255 5852 M 0 -133 R D 7470 5852 M 0 -67 R D
7593 5852 M 0 -67 R D 7716 5852 M 0 -67 R D 7838 5852 M 0 -67 R D
7961 5852 M 0 -67 R D 8084 5852 M 0 -67 R D 8207 5852 M 0 -67 R D
8329 5852 M 0 -67 R D 8452 5852 M 0 -67 R D 8697 5852 M 0 -67 R D
8820 5852 M 0 -67 R D 8943 5852 M 0 -67 R D 9065 5852 M 0 -67 R D
9188 5852 M 0 -67 R D 9311 5852 M 0 -67 R D 9433 5852 M 0 -67 R D
9556 5852 M 0 -67 R D 9679 5852 M 0 -67 R D 9924 5852 M 0 -67 R D
10047 5852 M 0 -67 R D 10169 5852 M 0 -67 R D 10292 5852 M 0 -67 R D
10415 5852 M 0 -67 R D 10537 5852 M 0 -67 R D 10660 5852 M 0 -67 R D
10783 5852 M 0 -67 R D 10905 5852 M 0 -67 R D 11151 5852 M 0 -67 R D
11273 5852 M 0 -67 R D 11396 5852 M 0 -67 R D 11519 5852 M 0 -67 R D
11641 5852 M 0 -67 R D 11764 5852 M 0 -67 R D 11887 5852 M 0 -67 R D
12009 5852 M 0 -67 R D 12132 5852 M 0 -67 R D 12377 5852 M 0 -67 R D
12500 5852 M 0 -67 R D 7360 1408 M 0 4444 R D 7360 1851 M 154 0 R D
gsave 7249 1710 translate 0 0 M -117.687 0 N
( ) show grestore 7360 2740 M 154 0 R D gsave 7249 2600 translate 0 0 M
-117.687 0 N
( ) show grestore 7360 3630 M 154 0 R D gsave 7249 3489 translate 0 0 M
-117.687 0 N
( ) show grestore 7360 4520 M 154 0 R D gsave 7249 4379 translate 0 0 M
-117.687 0 N
( ) show grestore 7360 5409 M 154 0 R D gsave 7249 5268 translate 0 0 M
-117.687 0 N
( ) show grestore 7360 2296 M 77 0 R D 7360 3185 M 77 0 R D 7360 4075 M
77 0 R D 7360 4964 M 77 0 R D 12500 1408 M 0 4444 R D 12500 1851 M -154 0 R
D 12500 2740 M -154 0 R D 12500 3630 M -154 0 R D 12500 4520 M -154 0 R D
12500 5409 M -154 0 R D 12500 2296 M -77 0 R D 12500 3185 M -77 0 R D
12500 4075 M -77 0 R D 12500 4964 M -77 0 R D 0.000 0.000 1.000 setrgbcolor
7360 5477 M 114 -20 R 246 -44 R 245 -46 R 245 -35 R 246 -56 R 245 -15 R
245 -20 R 246 -14 R 245 -5 R 245 -12 R 246 -80 R 245 -160 R 245 -168 R
246 -156 R 245 -6 R 245 -165 R 246 -255 R 245 -527 R 246 50 R 245 -1238 R D
7423 5420 M 103 0 R -52 0 R 0 75 R -51 0 R 103 0 R D 7668 5375 M 103 0 R
-51 0 R 0 76 R -52 0 R 103 0 R D 7914 5338 M 102 0 R -51 0 R 0 59 R -51 0 R
102 0 R D 8159 5300 M 103 0 R -52 0 R 0 64 R -51 0 R 103 0 R D 8404 5246 M
103 0 R -51 0 R 0 60 R -52 0 R 103 0 R D 8650 5217 M 102 0 R -51 0 R 0 87 R
-51 0 R 102 0 R D 8895 5216 M 103 0 R -52 0 R 0 50 R -51 0 R 103 0 R D
9140 5195 M 103 0 R -51 0 R 0 64 R -52 0 R 103 0 R D 9386 5148 M 102 0 R
-51 0 R 0 148 R -51 0 R 102 0 R D 9631 5172 M 103 0 R -52 0 R 0 75 R -51 0 R
103 0 R D 9876 5080 M 103 0 R -51 0 R 0 100 R -52 0 R 103 0 R D 10122 4857 M
102 0 R -51 0 R 0 225 R -51 0 R 102 0 R D 10367 4689 M 103 0 R -52 0 R
0 226 R -51 0 R 103 0 R D 10612 4512 M 103 0 R -51 0 R 0 267 R -52 0 R
103 0 R D 10858 4548 M 103 0 R -52 0 R 0 184 R -51 0 R 103 0 R D
11103 4464 M 103 0 R -52 0 R 0 23 R -51 0 R 103 0 R D 11348 4077 M 103 0 R
-51 0 R 0 285 R -52 0 R 103 0 R D 11594 3508 M 103 0 R -52 0 R 0 369 R
-51 0 R 103 0 R D 11839 2864 M 103 0 R -51 0 R 0 1758 R -52 0 R 103 0 R D
12136 1408 M 0 2558 R -52 0 R 103 0 R D L1 0.000 0.000 0.000 setrgbcolor
8084 5266 M 245 -17 R 246 -17 R 245 -18 R 245 -17 R 246 -19 R 245 -22 R
245 -26 R 246 -35 R 245 -49 R 245 -71 R 246 -106 R 245 -162 R 245 -251 R
246 -391 R 245 -613 R D L0 8032 5129 M 103 0 R -51 0 R 0 274 R -52 0 R
103 0 R D 8278 5120 M 103 0 R -52 0 R 0 256 R -51 0 R 103 0 R D 8523 5110 M
103 0 R -51 0 R 0 240 R -52 0 R 103 0 R D 8768 5099 M 103 0 R -51 0 R
0 226 R -52 0 R 103 0 R D 9014 5088 M 103 0 R -52 0 R 0 212 R -51 0 R
103 0 R D 9259 5073 M 103 0 R -51 0 R 0 202 R -52 0 R 103 0 R D 9505 5054 M
102 0 R -51 0 R 0 195 R -51 0 R 102 0 R D 9750 5027 M 103 0 R -52 0 R
0 193 R -51 0 R 103 0 R D 9995 4989 M 103 0 R -51 0 R 0 197 R -52 0 R
103 0 R D 10241 4931 M 102 0 R -51 0 R 0 211 R -51 0 R 102 0 R D
10486 4844 M 103 0 R -52 0 R 0 239 R -51 0 R 103 0 R D 10731 4710 M 103 0 R
-51 0 R 0 289 R -52 0 R 103 0 R D 10977 4502 M 102 0 R -51 0 R 0 371 R
-51 0 R 102 0 R D 11222 4178 M 103 0 R -52 0 R 0 502 R -51 0 R 103 0 R D
11467 3670 M 103 0 R -51 0 R 0 711 R -52 0 R 103 0 R D 11713 2869 M 102 0 R
-51 0 R 0 1043 R -51 0 R 102 0 R D L3 10280 4767 M 199 -39 R 200 -49 R
199 -60 R 199 -79 R 200 -104 R 199 -143 R 199 -198 R 200 -278 R D L0
10229 4172 M 102 0 R -51 0 R 0 949 R -51 0 R 102 0 R D 10428 4145 M 103 0 R
-52 0 R 0 915 R -51 0 R 103 0 R D 10627 4101 M 103 0 R -51 0 R 0 894 R
-52 0 R 103 0 R D 10827 4035 M 102 0 R -51 0 R 0 889 R -51 0 R 102 0 R D
11026 3933 M 103 0 R -52 0 R 0 910 R -51 0 R 103 0 R D 11225 3783 M 103 0 R
-51 0 R 0 966 R -52 0 R 103 0 R D 11425 3559 M 102 0 R -51 0 R 0 1075 R
-51 0 R 102 0 R D 11624 3231 M 103 0 R -52 0 R 0 1260 R -51 0 R 103 0 R D
11823 2750 M 103 0 R -51 0 R 0 1555 R -52 0 R 103 0 R D 40 setlinewidth
0.000 0.000 1.000 setrgbcolor 7668 2652 M 62 0 R 62 0 R 62 0 R 61 0 R 62 0 R
62 0 R 61 0 R 62 0 R 62 0 R D L1 0.000 0.000 0.000 setrgbcolor 7668 2163 M
62 0 R 62 0 R 62 0 R 61 0 R 62 0 R 62 0 R 61 0 R 62 0 R 62 0 R D L2
7668 1675 M 62 0 R 62 0 R 62 0 R 61 0 R 62 0 R 62 0 R 61 0 R 62 0 R 62 0 R D
0.000 0.000 1.000 setrgbcolor gsave 8285 2567 translate 0 0 M
(Cluster) show grestore 0.000 0.000 0.000 setrgbcolor
gsave 8285 2078 translate 0 0 M
(Giodini2012) show grestore gsave 8285 1589 translate 0 0 M
(Vulcani2013) show grestore 30 setlinewidth L0 12500 1408 M 5140 0 R D
13715 1408 M 0 133 R D gsave 13715 880 translate 0 0 M -117.687 0 N
(9) show grestore 14941 1408 M 0 133 R D gsave 14941 880 translate 0 0 M
-235.373 0 N
(10) show grestore 16168 1408 M 0 133 R D gsave 16168 880 translate 0 0 M
-235.373 0 N
(11) show grestore 17395 1408 M 0 133 R D gsave 17395 880 translate 0 0 M
-235.373 0 N
(12) show grestore 12611 1408 M 0 67 R D 12733 1408 M 0 67 R D 12856 1408 M
0 67 R D 12979 1408 M 0 67 R D 13101 1408 M 0 67 R D 13224 1408 M 0 67 R D
13347 1408 M 0 67 R D 13469 1408 M 0 67 R D 13592 1408 M 0 67 R D
13837 1408 M 0 67 R D 13960 1408 M 0 67 R D 14083 1408 M 0 67 R D
14205 1408 M 0 67 R D 14328 1408 M 0 67 R D 14451 1408 M 0 67 R D
14573 1408 M 0 67 R D 14696 1408 M 0 67 R D 14819 1408 M 0 67 R D
15064 1408 M 0 67 R D 15187 1408 M 0 67 R D 15309 1408 M 0 67 R D
15432 1408 M 0 67 R D 15555 1408 M 0 67 R D 15677 1408 M 0 67 R D
15800 1408 M 0 67 R D 15923 1408 M 0 67 R D 16045 1408 M 0 67 R D
16291 1408 M 0 67 R D 16413 1408 M 0 67 R D 16536 1408 M 0 67 R D
16659 1408 M 0 67 R D 16781 1408 M 0 67 R D 16904 1408 M 0 67 R D
17027 1408 M 0 67 R D 17149 1408 M 0 67 R D 17272 1408 M 0 67 R D
17518 1408 M 0 67 R D 17640 1408 M 0 67 R D 12500 5852 M 5140 0 R D
13715 5852 M 0 -133 R D 14941 5852 M 0 -133 R D 16168 5852 M 0 -133 R D
17395 5852 M 0 -133 R D 12611 5852 M 0 -67 R D 12733 5852 M 0 -67 R D
12856 5852 M 0 -67 R D 12979 5852 M 0 -67 R D 13101 5852 M 0 -67 R D
13224 5852 M 0 -67 R D 13347 5852 M 0 -67 R D 13469 5852 M 0 -67 R D
13592 5852 M 0 -67 R D 13837 5852 M 0 -67 R D 13960 5852 M 0 -67 R D
14083 5852 M 0 -67 R D 14205 5852 M 0 -67 R D 14328 5852 M 0 -67 R D
14451 5852 M 0 -67 R D 14573 5852 M 0 -67 R D 14696 5852 M 0 -67 R D
14819 5852 M 0 -67 R D 15064 5852 M 0 -67 R D 15187 5852 M 0 -67 R D
15309 5852 M 0 -67 R D 15432 5852 M 0 -67 R D 15555 5852 M 0 -67 R D
15677 5852 M 0 -67 R D 15800 5852 M 0 -67 R D 15923 5852 M 0 -67 R D
16045 5852 M 0 -67 R D 16291 5852 M 0 -67 R D 16413 5852 M 0 -67 R D
16536 5852 M 0 -67 R D 16659 5852 M 0 -67 R D 16781 5852 M 0 -67 R D
16904 5852 M 0 -67 R D 17027 5852 M 0 -67 R D 17149 5852 M 0 -67 R D
17272 5852 M 0 -67 R D 17518 5852 M 0 -67 R D 17640 5852 M 0 -67 R D
12500 1408 M 0 4444 R D 12500 1851 M 154 0 R D
gsave 12389 1710 translate 0 0 M -117.687 0 N
( ) show grestore 12500 2740 M 154 0 R D gsave 12389 2600 translate 0 0 M
-117.687 0 N
( ) show grestore 12500 3630 M 154 0 R D gsave 12389 3489 translate 0 0 M
-117.687 0 N
( ) show grestore 12500 4520 M 154 0 R D gsave 12389 4379 translate 0 0 M
-117.687 0 N
( ) show grestore 12500 5409 M 154 0 R D gsave 12389 5268 translate 0 0 M
-117.687 0 N
( ) show grestore 12500 2296 M 77 0 R D 12500 3185 M 77 0 R D 12500 4075 M
77 0 R D 12500 4964 M 77 0 R D 17640 1408 M 0 4444 R D 17640 1851 M -154 0 R
D 17640 2740 M -154 0 R D 17640 3630 M -154 0 R D 17640 4520 M -154 0 R D
17640 5409 M -154 0 R D 17640 2296 M -77 0 R D 17640 3185 M -77 0 R D
17640 4075 M -77 0 R D 17640 4964 M -77 0 R D 0.000 0.000 1.000 setrgbcolor
12500 5676 M 206 -56 R 246 -31 R 245 -47 R 245 -44 R 246 -51 R 245 -15 R
245 -6 R 246 9 R 245 -4 R 246 -44 R 245 -137 R 245 -194 R 246 -140 R
245 -134 R 245 -172 R 246 -85 R 245 -340 R 245 -359 R 246 -1172 R D
12500 5661 M 12 0 R -12 0 R D 12500 5712 M 12 0 R D 12655 5595 M 103 0 R
-52 0 R 0 49 R -51 0 R 103 0 R D 12900 5551 M 103 0 R -51 0 R 0 75 R -52 0 R
103 0 R D 13146 5511 M 102 0 R -51 0 R 0 62 R -51 0 R 102 0 R D 13391 5451 M
103 0 R -52 0 R 0 94 R -51 0 R 103 0 R D 13636 5396 M 103 0 R -51 0 R
0 103 R -52 0 R 103 0 R D 13882 5355 M 103 0 R -52 0 R 0 153 R -51 0 R
103 0 R D 14127 5362 M 103 0 R -52 0 R 0 128 R -51 0 R 103 0 R D
14372 5367 M 103 0 R -51 0 R 0 136 R -52 0 R 103 0 R D 14618 5393 M 103 0 R
-52 0 R 0 76 R -51 0 R 103 0 R D 14863 5336 M 103 0 R -51 0 R 0 102 R
-52 0 R 103 0 R D 15108 5140 M 103 0 R -51 0 R 0 220 R -52 0 R 103 0 R D
15354 4998 M 103 0 R -52 0 R 0 116 R -51 0 R 103 0 R D 15599 4832 M 103 0 R
-51 0 R 0 168 R -52 0 R 103 0 R D 15845 4728 M 102 0 R -51 0 R 0 109 R
-51 0 R 102 0 R D 16090 4580 M 103 0 R -52 0 R 0 60 R -51 0 R 103 0 R D
16335 4282 M 103 0 R -51 0 R 0 486 R -52 0 R 103 0 R D 16581 3780 M 102 0 R
-51 0 R 0 810 R -51 0 R 102 0 R D 16826 3138 M 103 0 R -52 0 R 0 1376 R
-51 0 R 103 0 R D 17071 1898 M 103 0 R -51 0 R 0 1512 R -52 0 R 103 0 R D L1
0.000 0.000 0.000 setrgbcolor 14819 5180 M 260 -16 R 261 -24 R 261 -41 R
260 -71 R 261 -124 R 261 -212 R 260 -357 R 261 -578 R D L0 14767 5090 M
103 0 R -51 0 R 0 171 R -52 0 R 103 0 R D 15028 5077 M 103 0 R -52 0 R
0 163 R -51 0 R 103 0 R D 15289 5049 M 102 0 R -51 0 R 0 166 R -51 0 R
102 0 R D 15549 4995 M 103 0 R -51 0 R 0 185 R -52 0 R 103 0 R D
15810 4898 M 103 0 R -52 0 R 0 228 R -51 0 R 103 0 R D 16071 4726 M 102 0 R
-51 0 R 0 309 R -51 0 R 102 0 R D 16331 4437 M 103 0 R -51 0 R 0 444 R
-52 0 R 103 0 R D 16592 3966 M 103 0 R -52 0 R 0 653 R -51 0 R 103 0 R D
16853 3232 M 103 0 R -52 0 R 0 951 R -51 0 R 103 0 R D L2 14684 5074 M
245 -68 R 246 -16 R 245 39 R 245 -85 R 246 -110 R 245 -314 R 245 -177 R D L0
14633 5039 M 102 0 R -51 0 R 0 73 R -51 0 R 102 0 R D 14878 4976 M 103 0 R
-52 0 R 0 59 R -51 0 R 103 0 R D 15123 4966 M 103 0 R -51 0 R 0 46 R -52 0 R
103 0 R D 15369 5011 M 102 0 R -51 0 R 0 37 R -51 0 R 102 0 R D 15614 4921 M
103 0 R -52 0 R 0 45 R -51 0 R 103 0 R D 15859 4806 M 103 0 R -51 0 R 0 63 R
-52 0 R 103 0 R D 16105 4451 M 102 0 R -51 0 R 0 119 R -51 0 R 102 0 R D
16350 4209 M 103 0 R -52 0 R 0 212 R -51 0 R 103 0 R D 40 setlinewidth
0.000 0.000 1.000 setrgbcolor 12809 2652 M 61 0 R 62 0 R 62 0 R 61 0 R
62 0 R 62 0 R 61 0 R 62 0 R 62 0 R D L1 0.000 0.000 0.000 setrgbcolor
12809 2208 M 61 0 R 62 0 R 62 0 R 61 0 R 62 0 R 62 0 R 61 0 R 62 0 R 62 0 R
D L2 12809 1764 M 61 0 R 62 0 R 62 0 R 61 0 R 62 0 R 62 0 R 61 0 R 62 0 R
62 0 R D 0.000 0.000 1.000 setrgbcolor gsave 13425 2567 translate 0 0 M
(Cluster) show grestore 0.000 0.000 0.000 setrgbcolor
gsave 13425 2123 translate 0 0 M
(Giodini2012) show grestore gsave 13425 1678 translate 0 0 M
(vanderBurg2013) show grestore
%%PageTrailer
end
%%PageResources: font Helvetica
%%+ font Symbol
%%+ font AvantGarde-Book
%%Trailer
%%Pages: 1
%%DocumentNeededResources: font Helvetica
%%+ font Symbol
%%+ font AvantGarde-Book
%%EOF
