%!PS-Adobe-3.0 EPSF-3.0
%%BoundingBox: 0 0 510 368
%%Title: Graphics produced by IDL
%%For: jlgan@Hserver, /home/jlgan/work/phoenix
%%Creator: IDL Version 7.1.1 (linux x86_64 m64)
%%CreationDate: Thu Nov 20 10:19:30 2014
%%DocumentData: Clean7bit
%%Requirements: color
%%LanguageLevel: 1
%%PageOrder: Ascend
%%Pages: (atend)
%%DocumentNeededResources: (atend)
%%EndComments
%%BeginProlog
%+ prolog.ps -- Prolog for IDL generated PostScript files
%+ Copyright (c) 1988-2009 ITT Visual Information Solutions. All Rights Reserved.
%v 5
/$IDL_DICT 40 dict def $IDL_DICT begin /bdef { bind def } bind def /C
{currentpoint newpath moveto} bdef /CP {currentpoint} bdef /D {currentpoint
stroke moveto} bdef /F {closepath fill} bdef /K { setgray } bdef /M {moveto}
bdef /N {rmoveto} bdef /P {lineto} bdef /R {rlineto} bdef /S {gsave show
grestore} bdef /X {currentpoint pop} bdef /Z {gsave currentpoint lineto 20
setlinewidth 1 setlinecap stroke grestore} bdef /L0 {[] 0 setdash} bdef /L1
{[40 100] 0 setdash} bdef /L2 {[200 200] 0 setdash} bdef /L3 {[200 100 50
100] 0 setdash} bdef /L4 {[300 100 50 100 50 100 50 100] 0 setdash} bdef /L5
{[400 200] 0 setdash} bdef /STDFONT { findfont exch scalefont setfont } bdef
/ISOFONT { findfont dup length dict begin { 1 index /FID ne {def} {pop pop}
ifelse } forall /Encoding ISOLatin1Encoding def currentdict end /idltmpfont
exch definefont exch scalefont setfont } bdef /ISOBULLET { gsave /Helvetica
findfont exch scalefont setfont (\267) show currentpoint grestore moveto}
bdef /MITERLIMIT { 2.5 setmiterlimit } bdef end
%%EndProlog
%%Page: 0 1
%%PageRequirements: color
%%PageResources: (atend)
%%PageOrientation: Portrait
%%PageBoundingBox: 0 0 510 368
%%BeginPageSetup
$IDL_DICT begin 0.0283465 dup scale MITERLIMIT
%%IncludeResource: font Helvetica
423.333 /Helvetica STDFONT
%%EndPageSetup
30 setlinewidth L0 0.000 0.000 0.000 setrgbcolor 1800 7475 M 5280 0 R D
2607 7475 M 0 146 R D gsave 2607 6947 translate 0 0 M -117.687 0 N
(9) show grestore 3503 7475 M 0 146 R D gsave 3503 6947 translate 0 0 M
-235.373 0 N
(10) show grestore 4400 7475 M 0 146 R D gsave 4400 6947 translate 0 0 M
-235.373 0 N
(11) show grestore 5296 7475 M 0 146 R D gsave 5296 6947 translate 0 0 M
-235.373 0 N
(12) show grestore 6193 7475 M 0 146 R D gsave 6193 6947 translate 0 0 M
-235.373 0 N
(13) show grestore 1800 7475 M 0 73 R D 1890 7475 M 0 73 R D 1979 7475 M
0 73 R D 2069 7475 M 0 73 R D 2159 7475 M 0 73 R D 2248 7475 M 0 73 R D
2338 7475 M 0 73 R D 2428 7475 M 0 73 R D 2517 7475 M 0 73 R D 2696 7475 M
0 73 R D 2786 7475 M 0 73 R D 2876 7475 M 0 73 R D 2965 7475 M 0 73 R D
3055 7475 M 0 73 R D 3145 7475 M 0 73 R D 3234 7475 M 0 73 R D 3324 7475 M
0 73 R D 3414 7475 M 0 73 R D 3593 7475 M 0 73 R D 3683 7475 M 0 73 R D
3772 7475 M 0 73 R D 3862 7475 M 0 73 R D 3951 7475 M 0 73 R D 4041 7475 M
0 73 R D 4131 7475 M 0 73 R D 4220 7475 M 0 73 R D 4310 7475 M 0 73 R D
4489 7475 M 0 73 R D 4579 7475 M 0 73 R D 4669 7475 M 0 73 R D 4758 7475 M
0 73 R D 4848 7475 M 0 73 R D 4938 7475 M 0 73 R D 5027 7475 M 0 73 R D
5117 7475 M 0 73 R D 5206 7475 M 0 73 R D 5386 7475 M 0 73 R D 5475 7475 M
0 73 R D 5565 7475 M 0 73 R D 5655 7475 M 0 73 R D 5744 7475 M 0 73 R D
5834 7475 M 0 73 R D 5924 7475 M 0 73 R D 6013 7475 M 0 73 R D 6103 7475 M
0 73 R D 6282 7475 M 0 73 R D 6372 7475 M 0 73 R D 6462 7475 M 0 73 R D
6551 7475 M 0 73 R D 6641 7475 M 0 73 R D 6730 7475 M 0 73 R D 6820 7475 M
0 73 R D 6910 7475 M 0 73 R D 6999 7475 M 0 73 R D 1800 12350 M 5280 0 R D
2607 12350 M 0 -146 R D 3503 12350 M 0 -146 R D 4400 12350 M 0 -146 R D
5296 12350 M 0 -146 R D 6193 12350 M 0 -146 R D 1800 12350 M 0 -73 R D
1890 12350 M 0 -73 R D 1979 12350 M 0 -73 R D 2069 12350 M 0 -73 R D
2159 12350 M 0 -73 R D 2248 12350 M 0 -73 R D 2338 12350 M 0 -73 R D
2428 12350 M 0 -73 R D 2517 12350 M 0 -73 R D 2696 12350 M 0 -73 R D
2786 12350 M 0 -73 R D 2876 12350 M 0 -73 R D 2965 12350 M 0 -73 R D
3055 12350 M 0 -73 R D 3145 12350 M 0 -73 R D 3234 12350 M 0 -73 R D
3324 12350 M 0 -73 R D 3414 12350 M 0 -73 R D 3593 12350 M 0 -73 R D
3683 12350 M 0 -73 R D 3772 12350 M 0 -73 R D 3862 12350 M 0 -73 R D
3951 12350 M 0 -73 R D 4041 12350 M 0 -73 R D 4131 12350 M 0 -73 R D
4220 12350 M 0 -73 R D 4310 12350 M 0 -73 R D 4489 12350 M 0 -73 R D
4579 12350 M 0 -73 R D 4669 12350 M 0 -73 R D 4758 12350 M 0 -73 R D
4848 12350 M 0 -73 R D 4938 12350 M 0 -73 R D 5027 12350 M 0 -73 R D
5117 12350 M 0 -73 R D 5206 12350 M 0 -73 R D 5386 12350 M 0 -73 R D
5475 12350 M 0 -73 R D 5565 12350 M 0 -73 R D 5655 12350 M 0 -73 R D
5744 12350 M 0 -73 R D 5834 12350 M 0 -73 R D 5924 12350 M 0 -73 R D
6013 12350 M 0 -73 R D 6103 12350 M 0 -73 R D 6282 12350 M 0 -73 R D
6372 12350 M 0 -73 R D 6462 12350 M 0 -73 R D 6551 12350 M 0 -73 R D
6641 12350 M 0 -73 R D 6730 12350 M 0 -73 R D 6820 12350 M 0 -73 R D
6910 12350 M 0 -73 R D 6999 12350 M 0 -73 R D 1800 7475 M 0 4875 R D
1800 8155 M 158 0 R D gsave 1689 8014 translate 0 0 M -704.08 0 N
(10) show X 192.937 M
%%IncludeResource: font Helvetica
262.467 /Helvetica STDFONT
(-6) show grestore
%%IncludeResource: font Helvetica
423.333 /Helvetica STDFONT 1800 8956 M 158 0 R D
gsave 1689 8815 translate 0 0 M -704.08 0 N
(10) show X 192.937 M
%%IncludeResource: font Helvetica
262.467 /Helvetica STDFONT
(-4) show grestore
%%IncludeResource: font Helvetica
423.333 /Helvetica STDFONT 1800 9757 M 158 0 R D
gsave 1689 9616 translate 0 0 M -704.08 0 N
(10) show X 192.937 M
%%IncludeResource: font Helvetica
262.467 /Helvetica STDFONT
(-2) show grestore
%%IncludeResource: font Helvetica
423.333 /Helvetica STDFONT 1800 10558 M 158 0 R D
gsave 1689 10417 translate 0 0 M -616.678 0 N
(10) show X 192.937 M
%%IncludeResource: font Helvetica
262.467 /Helvetica STDFONT
(0) show grestore
%%IncludeResource: font Helvetica
423.333 /Helvetica STDFONT 1800 11358 M 158 0 R D
gsave 1689 11218 translate 0 0 M -616.678 0 N
(10) show X 192.937 M
%%IncludeResource: font Helvetica
262.467 /Helvetica STDFONT
(2) show grestore
%%IncludeResource: font Helvetica
423.333 /Helvetica STDFONT 1800 12159 M 158 0 R D
gsave 1689 12018 translate 0 0 M -616.678 0 N
(10) show X 192.937 M
%%IncludeResource: font Helvetica
262.467 /Helvetica STDFONT
(4) show grestore
%%IncludeResource: font Helvetica
423.333 /Helvetica STDFONT 1800 7755 M 79 0 R D 1800 8556 M 79 0 R D
1800 9356 M 79 0 R D 1800 10157 M 79 0 R D 1800 10958 M 79 0 R D
1800 11759 M 79 0 R D 7080 7475 M 0 4875 R D 7080 8155 M -158 0 R D
7080 8956 M -158 0 R D 7080 9757 M -158 0 R D 7080 10558 M -158 0 R D
7080 11358 M -158 0 R D 7080 12159 M -158 0 R D 7080 7755 M -79 0 R D
7080 8556 M -79 0 R D 7080 9356 M -79 0 R D 7080 10157 M -79 0 R D
7080 10958 M -79 0 R D 7080 11759 M -79 0 R D 0.000 0.000 1.000 setrgbcolor
1868 11921 M 240 -37 R 241 -63 R 240 -80 R 240 -85 R 240 -96 R 241 -98 R
240 -108 R 240 -105 R 240 -98 R 241 -109 R 240 -105 R 240 -123 R 240 -88 R
241 -133 R 240 -102 R 240 -148 R 240 -5 R 241 33 R D 1815 11751 M 106 0 R
-53 0 R 0 254 R -53 0 R 106 0 R D 2056 11795 M 105 0 R -53 0 R 0 148 R
-52 0 R 105 0 R D 2296 11782 M 105 0 R -52 0 R 0 72 R -53 0 R 105 0 R D
2536 11702 M 106 0 R -53 0 R 0 70 R -53 0 R 106 0 R D 2776 11623 M 106 0 R
-53 0 R 0 61 R -53 0 R 106 0 R D 3017 11524 M 105 0 R -53 0 R 0 66 R -52 0 R
105 0 R D 3257 11428 M 105 0 R -52 0 R 0 62 R -53 0 R 105 0 R D 3497 11321 M
106 0 R -53 0 R 0 61 R -53 0 R 106 0 R D 3737 11217 M 106 0 R -53 0 R 0 59 R
-53 0 R 106 0 R D 3978 11107 M 105 0 R -53 0 R 0 79 R -52 0 R 105 0 R D
4218 10996 M 105 0 R -52 0 R 0 83 R -53 0 R 105 0 R D 4458 10898 M 106 0 R
-53 0 R 0 72 R -53 0 R 106 0 R D 4698 10722 M 106 0 R -53 0 R 0 151 R
-53 0 R 106 0 R D 4939 10663 M 105 0 R -53 0 R 0 109 R -52 0 R 105 0 R D
5179 10498 M 105 0 R -52 0 R 0 156 R -53 0 R 105 0 R D 5419 10035 M 106 0 R
-53 0 R 0 570 R -53 0 R 106 0 R D 5659 7475 M 106 0 R -53 0 R 0 3001 R
-53 0 R 106 0 R D 5900 7475 M 105 0 R -53 0 R 0 3019 R -52 0 R 105 0 R D
6140 10202 M 105 0 R -52 0 R 0 253 R -53 0 R 105 0 R D L2
0.000 0.549 0.000 setrgbcolor 1868 11401 M 240 -26 R 241 -64 R 240 -82 R
240 -89 R 240 -90 R 241 -96 R 240 -97 R 240 -93 R 240 -88 R 241 -93 R
240 -114 R 240 -100 R 240 -85 R 241 -127 R 240 -85 R 240 -83 R 240 -166 R
241 -68 R D L0 1815 11191 M 106 0 R -53 0 R 0 303 R -53 0 R 106 0 R D
2056 11281 M 105 0 R -53 0 R 0 154 R -52 0 R 105 0 R D 2296 11271 M 105 0 R
-52 0 R 0 72 R -53 0 R 105 0 R D 2536 11196 M 106 0 R -53 0 R 0 60 R -53 0 R
106 0 R D 2776 11108 M 106 0 R -53 0 R 0 58 R -53 0 R 106 0 R D 3017 11021 M
105 0 R -53 0 R 0 53 R -52 0 R 105 0 R D 3257 10928 M 105 0 R -52 0 R 0 48 R
-53 0 R 105 0 R D 3497 10829 M 106 0 R -53 0 R 0 53 R -53 0 R 106 0 R D
3737 10734 M 106 0 R -53 0 R 0 55 R -53 0 R 106 0 R D 3978 10644 M 105 0 R
-53 0 R 0 59 R -52 0 R 105 0 R D 4218 10544 M 105 0 R -52 0 R 0 70 R -53 0 R
105 0 R D 4458 10424 M 106 0 R -53 0 R 0 80 R -53 0 R 106 0 R D 4698 10329 M
106 0 R -53 0 R 0 72 R -53 0 R 106 0 R D 4939 10242 M 105 0 R -53 0 R 0 75 R
-52 0 R 105 0 R D 5179 10067 M 105 0 R -52 0 R 0 149 R -53 0 R 105 0 R D
5419 9894 M 106 0 R -53 0 R 0 264 R -53 0 R 106 0 R D 5659 9884 M 106 0 R
-53 0 R 0 171 R -53 0 R 106 0 R D 5900 9580 M 105 0 R -53 0 R 0 341 R
-52 0 R 105 0 R D 6140 7475 M 105 0 R -52 0 R 0 2419 R -53 0 R 105 0 R D L1
0.588 0.000 0.588 setrgbcolor 1868 10547 M 264 -3 R 264 -71 R 264 -88 R
264 -94 R 264 -99 R 264 -95 R 264 -103 R 264 -92 R 264 -114 R 264 -101 R
264 -117 R 264 -80 R 264 -57 R 264 -119 R 264 -123 R 264 -81 R 264 -50 R
264 -201 R D L0 1815 10250 M 106 0 R -53 0 R 0 401 R -53 0 R 106 0 R D
2079 10420 M 106 0 R -53 0 R 0 196 R -53 0 R 106 0 R D 2343 10394 M 106 0 R
-53 0 R 0 134 R -53 0 R 106 0 R D 2607 10314 M 106 0 R -53 0 R 0 121 R
-53 0 R 106 0 R D 2871 10224 M 106 0 R -53 0 R 0 115 R -53 0 R 106 0 R D
3135 10126 M 106 0 R -53 0 R 0 113 R -53 0 R 106 0 R D 3399 10033 M 106 0 R
-53 0 R 0 111 R -53 0 R 106 0 R D 3663 9935 M 106 0 R -53 0 R 0 103 R
-53 0 R 106 0 R D 3927 9846 M 106 0 R -53 0 R 0 98 R -53 0 R 106 0 R D
4191 9735 M 106 0 R -53 0 R 0 93 R -53 0 R 106 0 R D 4455 9596 M 106 0 R
-53 0 R 0 150 R -53 0 R 106 0 R D 4719 9511 M 106 0 R -53 0 R 0 102 R
-53 0 R 106 0 R D 4983 9400 M 106 0 R -53 0 R 0 149 R -53 0 R 106 0 R D
5247 9376 M 106 0 R -53 0 R 0 100 R -53 0 R 106 0 R D 5511 9218 M 106 0 R
-53 0 R 0 158 R -53 0 R 106 0 R D 5775 9111 M 106 0 R -53 0 R 0 134 R
-53 0 R 106 0 R D 6039 8960 M 106 0 R -53 0 R 0 229 R -53 0 R 106 0 R D
6303 8934 M 106 0 R -53 0 R 0 198 R -53 0 R 106 0 R D 6567 7475 M 106 0 R
-53 0 R 0 1529 R -53 0 R 106 0 R D 0.000 0.000 0.000 setrgbcolor
gsave 4440 12480 translate 0 0 M -523.663 0 N
(z~0.0) show grestore gsave 720 9913 translate 0 0 M 90 rotate -2070.06 0 N
%%IncludeResource: font Symbol
423.333 /Symbol STDFONT
(f) show
%%IncludeResource: font Helvetica
423.333 /Helvetica STDFONT
(\(M) show X -101.051 M
%%IncludeResource: font Helvetica
262.467 /Helvetica STDFONT
(h) show X 0 M
%%IncludeResource: font Helvetica
423.333 /Helvetica STDFONT
(\) / \(h) show X 192.937 M
%%IncludeResource: font Helvetica
262.467 /Helvetica STDFONT
(3) show X 0 M
%%IncludeResource: font Helvetica
423.333 /Helvetica STDFONT
(Mpc) show X 192.937 M
%%IncludeResource: font Helvetica
262.467 /Helvetica STDFONT
(-3) show X 0 M
%%IncludeResource: font Helvetica
423.333 /Helvetica STDFONT
(log) show X 192.937 M
%%IncludeResource: font Helvetica
262.467 /Helvetica STDFONT
(-1) show X 0 M
%%IncludeResource: font Helvetica
423.333 /Helvetica STDFONT
(M) show X -101.051 M
%%IncludeResource: font Helvetica
262.467 /Helvetica STDFONT
(h) show X 0 M
%%IncludeResource: font Helvetica
423.333 /Helvetica STDFONT
(\)) show grestore 7080 7475 M 5280 0 R D 7887 7475 M 0 146 R D
gsave 7887 6947 translate 0 0 M -117.687 0 N
(9) show grestore 8783 7475 M 0 146 R D gsave 8783 6947 translate 0 0 M
-235.373 0 N
(10) show grestore 9680 7475 M 0 146 R D gsave 9680 6947 translate 0 0 M
-235.373 0 N
(11) show grestore 10576 7475 M 0 146 R D gsave 10576 6947 translate 0 0 M
-235.373 0 N
(12) show grestore 11473 7475 M 0 146 R D gsave 11473 6947 translate 0 0 M
-235.373 0 N
(13) show grestore 7080 7475 M 0 73 R D 7170 7475 M 0 73 R D 7259 7475 M
0 73 R D 7349 7475 M 0 73 R D 7439 7475 M 0 73 R D 7528 7475 M 0 73 R D
7618 7475 M 0 73 R D 7708 7475 M 0 73 R D 7797 7475 M 0 73 R D 7977 7475 M
0 73 R D 8066 7475 M 0 73 R D 8156 7475 M 0 73 R D 8245 7475 M 0 73 R D
8335 7475 M 0 73 R D 8425 7475 M 0 73 R D 8514 7475 M 0 73 R D 8604 7475 M
0 73 R D 8694 7475 M 0 73 R D 8873 7475 M 0 73 R D 8963 7475 M 0 73 R D
9052 7475 M 0 73 R D 9142 7475 M 0 73 R D 9232 7475 M 0 73 R D 9321 7475 M
0 73 R D 9411 7475 M 0 73 R D 9500 7475 M 0 73 R D 9590 7475 M 0 73 R D
9769 7475 M 0 73 R D 9859 7475 M 0 73 R D 9949 7475 M 0 73 R D 10038 7475 M
0 73 R D 10128 7475 M 0 73 R D 10218 7475 M 0 73 R D 10307 7475 M 0 73 R D
10397 7475 M 0 73 R D 10487 7475 M 0 73 R D 10666 7475 M 0 73 R D
10755 7475 M 0 73 R D 10845 7475 M 0 73 R D 10935 7475 M 0 73 R D
11024 7475 M 0 73 R D 11114 7475 M 0 73 R D 11204 7475 M 0 73 R D
11293 7475 M 0 73 R D 11383 7475 M 0 73 R D 11562 7475 M 0 73 R D
11652 7475 M 0 73 R D 11742 7475 M 0 73 R D 11831 7475 M 0 73 R D
11921 7475 M 0 73 R D 12011 7475 M 0 73 R D 12100 7475 M 0 73 R D
12190 7475 M 0 73 R D 12279 7475 M 0 73 R D 7080 12350 M 5280 0 R D
7887 12350 M 0 -146 R D 8783 12350 M 0 -146 R D 9680 12350 M 0 -146 R D
10576 12350 M 0 -146 R D 11473 12350 M 0 -146 R D 7080 12350 M 0 -73 R D
7170 12350 M 0 -73 R D 7259 12350 M 0 -73 R D 7349 12350 M 0 -73 R D
7439 12350 M 0 -73 R D 7528 12350 M 0 -73 R D 7618 12350 M 0 -73 R D
7708 12350 M 0 -73 R D 7797 12350 M 0 -73 R D 7977 12350 M 0 -73 R D
8066 12350 M 0 -73 R D 8156 12350 M 0 -73 R D 8245 12350 M 0 -73 R D
8335 12350 M 0 -73 R D 8425 12350 M 0 -73 R D 8514 12350 M 0 -73 R D
8604 12350 M 0 -73 R D 8694 12350 M 0 -73 R D 8873 12350 M 0 -73 R D
8963 12350 M 0 -73 R D 9052 12350 M 0 -73 R D 9142 12350 M 0 -73 R D
9232 12350 M 0 -73 R D 9321 12350 M 0 -73 R D 9411 12350 M 0 -73 R D
9500 12350 M 0 -73 R D 9590 12350 M 0 -73 R D 9769 12350 M 0 -73 R D
9859 12350 M 0 -73 R D 9949 12350 M 0 -73 R D 10038 12350 M 0 -73 R D
10128 12350 M 0 -73 R D 10218 12350 M 0 -73 R D 10307 12350 M 0 -73 R D
10397 12350 M 0 -73 R D 10487 12350 M 0 -73 R D 10666 12350 M 0 -73 R D
10755 12350 M 0 -73 R D 10845 12350 M 0 -73 R D 10935 12350 M 0 -73 R D
11024 12350 M 0 -73 R D 11114 12350 M 0 -73 R D 11204 12350 M 0 -73 R D
11293 12350 M 0 -73 R D 11383 12350 M 0 -73 R D 11562 12350 M 0 -73 R D
11652 12350 M 0 -73 R D 11742 12350 M 0 -73 R D 11831 12350 M 0 -73 R D
11921 12350 M 0 -73 R D 12011 12350 M 0 -73 R D 12100 12350 M 0 -73 R D
12190 12350 M 0 -73 R D 12279 12350 M 0 -73 R D 7080 7475 M 0 4875 R D
7080 8155 M 158 0 R D gsave 6969 8014 translate 0 0 M -117.687 0 N
( ) show grestore 7080 8956 M 158 0 R D gsave 6969 8815 translate 0 0 M
-117.687 0 N
( ) show grestore 7080 9757 M 158 0 R D gsave 6969 9616 translate 0 0 M
-117.687 0 N
( ) show grestore 7080 10558 M 158 0 R D gsave 6969 10417 translate 0 0 M
-117.687 0 N
( ) show grestore 7080 11358 M 158 0 R D gsave 6969 11218 translate 0 0 M
-117.687 0 N
( ) show grestore 7080 12159 M 158 0 R D gsave 6969 12018 translate 0 0 M
-117.687 0 N
( ) show grestore 7080 7755 M 79 0 R D 7080 8556 M 79 0 R D 7080 9356 M
79 0 R D 7080 10157 M 79 0 R D 7080 10958 M 79 0 R D 7080 11759 M 79 0 R D
12360 7475 M 0 4875 R D 12360 8155 M -158 0 R D 12360 8956 M -158 0 R D
12360 9757 M -158 0 R D 12360 10558 M -158 0 R D 12360 11358 M -158 0 R D
12360 12159 M -158 0 R D 12360 7755 M -79 0 R D 12360 8556 M -79 0 R D
12360 9356 M -79 0 R D 12360 10157 M -79 0 R D 12360 10958 M -79 0 R D
12360 11759 M -79 0 R D 0.000 0.000 1.000 setrgbcolor 7148 11976 M 238 -37 R
238 -56 R 238 -80 R 238 -88 R 238 -94 R 238 -101 R 238 -94 R 238 -103 R
238 -104 R 238 -85 R 238 -107 R 238 -127 R 238 -86 R 238 -109 R 238 -166 R
238 -82 R 238 -38 R 238 -126 R D 7095 11794 M 106 0 R -53 0 R 0 269 R
-53 0 R 106 0 R D 7333 11848 M 106 0 R -53 0 R 0 150 R -53 0 R 106 0 R D
7571 11847 M 106 0 R -53 0 R 0 66 R -53 0 R 106 0 R D 7809 11771 M 106 0 R
-53 0 R 0 59 R -53 0 R 106 0 R D 8047 11680 M 106 0 R -53 0 R 0 65 R -53 0 R
106 0 R D 8285 11589 M 106 0 R -53 0 R 0 59 R -53 0 R 106 0 R D 8523 11483 M
106 0 R -53 0 R 0 68 R -53 0 R 106 0 R D 8761 11382 M 106 0 R -53 0 R 0 79 R
-53 0 R 106 0 R D 8999 11283 M 106 0 R -53 0 R 0 72 R -53 0 R 106 0 R D
9237 11172 M 106 0 R -53 0 R 0 84 R -53 0 R 106 0 R D 9475 11075 M 106 0 R
-53 0 R 0 102 R -53 0 R 106 0 R D 9713 10980 M 106 0 R -53 0 R 0 84 R
-53 0 R 106 0 R D 9951 10821 M 106 0 R -53 0 R 0 134 R -53 0 R 106 0 R D
10189 10721 M 106 0 R -53 0 R 0 154 R -53 0 R 106 0 R D 10427 10580 M
106 0 R -53 0 R 0 196 R -53 0 R 106 0 R D 10665 7475 M 106 0 R -53 0 R
0 3195 R -53 0 R 106 0 R D 10903 10071 M 105 0 R -52 0 R 0 497 R -53 0 R
105 0 R D 11141 10120 M 105 0 R -52 0 R 0 403 R -53 0 R 105 0 R D
11379 7475 M 105 0 R -52 0 R 0 2962 R -53 0 R 105 0 R D L2
0.000 0.549 0.000 setrgbcolor 7148 11541 M 256 -14 R 255 -75 R 255 -91 R
255 -97 R 255 -102 R 256 -105 R 255 -108 R 255 -107 R 255 -100 R 256 -95 R
255 -102 R 255 -148 R 255 -92 R 256 -123 R 255 -121 R 255 -147 R 255 12 R
255 -71 R D L0 7095 11391 M 106 0 R -53 0 R 0 230 R -53 0 R 106 0 R D
7351 11434 M 105 0 R -52 0 R 0 153 R -53 0 R 105 0 R D 7606 11393 M 106 0 R
-53 0 R 0 102 R -53 0 R 106 0 R D 7861 11309 M 106 0 R -53 0 R 0 93 R
-53 0 R 106 0 R D 8116 11209 M 106 0 R -53 0 R 0 96 R -53 0 R 106 0 R D
8372 11108 M 105 0 R -53 0 R 0 95 R -52 0 R 105 0 R D 8627 10997 M 105 0 R
-52 0 R 0 104 R -53 0 R 105 0 R D 8882 10883 M 106 0 R -53 0 R 0 113 R
-53 0 R 106 0 R D 9137 10777 M 106 0 R -53 0 R 0 113 R -53 0 R 106 0 R D
9393 10681 M 105 0 R -53 0 R 0 106 R -52 0 R 105 0 R D 9648 10569 M 105 0 R
-52 0 R 0 132 R -53 0 R 105 0 R D 9903 10479 M 106 0 R -53 0 R 0 113 R
-53 0 R 106 0 R D 10158 10337 M 106 0 R -53 0 R 0 105 R -53 0 R 106 0 R D
10414 10221 M 105 0 R -53 0 R 0 140 R -52 0 R 105 0 R D 10669 10069 M
105 0 R -52 0 R 0 181 R -53 0 R 105 0 R D 10924 9852 M 106 0 R -53 0 R
0 301 R -53 0 R 106 0 R D 11179 9672 M 106 0 R -53 0 R 0 339 R -53 0 R
106 0 R D 11434 9690 M 106 0 R -53 0 R 0 332 R -53 0 R 106 0 R D
11690 9491 M 105 0 R -53 0 R 0 474 R -52 0 R 105 0 R D L1
0.588 0.000 0.588 setrgbcolor 7148 10630 M 270 5 R 271 -77 R 270 -93 R
270 -98 R 270 -103 R 271 -101 R 270 -103 R 270 -102 R 270 -111 R 271 -115 R
270 -98 R 270 -95 R 270 -97 R 270 -114 R 271 -109 R 270 -113 R 270 -101 R
270 -162 R D L0 7095 10406 M 106 0 R -53 0 R 0 318 R -53 0 R 106 0 R D
7366 10531 M 105 0 R -53 0 R 0 168 R -52 0 R 105 0 R D 7636 10490 M 106 0 R
-53 0 R 0 117 R -53 0 R 106 0 R D 7906 10406 M 106 0 R -53 0 R 0 103 R
-53 0 R 106 0 R D 8176 10311 M 106 0 R -53 0 R 0 99 R -53 0 R 106 0 R D
8447 10210 M 105 0 R -53 0 R 0 95 R -52 0 R 105 0 R D 8717 10107 M 105 0 R
-52 0 R 0 98 R -53 0 R 105 0 R D 8987 10013 M 106 0 R -53 0 R 0 84 R -53 0 R
106 0 R D 9257 9903 M 106 0 R -53 0 R 0 97 R -53 0 R 106 0 R D 9528 9792 M
105 0 R -53 0 R 0 96 R -52 0 R 105 0 R D 9798 9678 M 105 0 R -52 0 R 0 96 R
-53 0 R 105 0 R D 10068 9575 M 106 0 R -53 0 R 0 104 R -53 0 R 106 0 R D
10338 9476 M 106 0 R -53 0 R 0 110 R -53 0 R 106 0 R D 10608 9380 M 106 0 R
-53 0 R 0 107 R -53 0 R 106 0 R D 10879 9258 M 105 0 R -53 0 R 0 121 R
-52 0 R 105 0 R D 11149 9133 M 105 0 R -52 0 R 0 144 R -53 0 R 105 0 R D
11419 9012 M 106 0 R -53 0 R 0 155 R -53 0 R 106 0 R D 11689 8734 M 106 0 R
-53 0 R 0 372 R -53 0 R 106 0 R D 11960 8641 M 105 0 R -53 0 R 0 293 R
-52 0 R 105 0 R D 0.000 0.000 0.000 setrgbcolor
gsave 9720 12480 translate 0 0 M -523.663 0 N
(z~0.3) show grestore gsave 9720 6500 translate 0 0 M -1631.1 0 N
(log[M) show X -101.051 M
%%IncludeResource: font Helvetica
262.467 /Helvetica STDFONT
(h) show X 0 M
%%IncludeResource: font Helvetica
423.333 /Helvetica STDFONT
( / \(h) show X 192.937 M
%%IncludeResource: font Helvetica
262.467 /Helvetica STDFONT
(-1) show X 0 M
%%IncludeResource: font Helvetica
423.333 /Helvetica STDFONT
(M) show CP X -101.051 M
%%IncludeResource: font AvantGarde-Book
262.467 /AvantGarde-Book STDFONT
(O) show M X -58.3193 M
%%IncludeResource: font AvantGarde-Book
186.267 /AvantGarde-Book STDFONT
( \267) show X 0 M
%%IncludeResource: font Helvetica
423.333 /Helvetica STDFONT
(\)]) show grestore 12360 7475 M 5280 0 R D 13167 7475 M 0 146 R D
gsave 13167 6947 translate 0 0 M -117.687 0 N
(9) show grestore 14063 7475 M 0 146 R D gsave 14063 6947 translate 0 0 M
-235.373 0 N
(10) show grestore 14960 7475 M 0 146 R D gsave 14960 6947 translate 0 0 M
-235.373 0 N
(11) show grestore 15856 7475 M 0 146 R D gsave 15856 6947 translate 0 0 M
-235.373 0 N
(12) show grestore 16753 7475 M 0 146 R D gsave 16753 6947 translate 0 0 M
-235.373 0 N
(13) show grestore 12360 7475 M 0 73 R D 12450 7475 M 0 73 R D 12539 7475 M
0 73 R D 12629 7475 M 0 73 R D 12719 7475 M 0 73 R D 12808 7475 M 0 73 R D
12898 7475 M 0 73 R D 12988 7475 M 0 73 R D 13077 7475 M 0 73 R D
13257 7475 M 0 73 R D 13346 7475 M 0 73 R D 13436 7475 M 0 73 R D
13525 7475 M 0 73 R D 13615 7475 M 0 73 R D 13705 7475 M 0 73 R D
13794 7475 M 0 73 R D 13884 7475 M 0 73 R D 13974 7475 M 0 73 R D
14153 7475 M 0 73 R D 14243 7475 M 0 73 R D 14332 7475 M 0 73 R D
14422 7475 M 0 73 R D 14512 7475 M 0 73 R D 14601 7475 M 0 73 R D
14691 7475 M 0 73 R D 14781 7475 M 0 73 R D 14870 7475 M 0 73 R D
15049 7475 M 0 73 R D 15139 7475 M 0 73 R D 15229 7475 M 0 73 R D
15318 7475 M 0 73 R D 15408 7475 M 0 73 R D 15498 7475 M 0 73 R D
15587 7475 M 0 73 R D 15677 7475 M 0 73 R D 15767 7475 M 0 73 R D
15946 7475 M 0 73 R D 16036 7475 M 0 73 R D 16125 7475 M 0 73 R D
16215 7475 M 0 73 R D 16304 7475 M 0 73 R D 16394 7475 M 0 73 R D
16484 7475 M 0 73 R D 16573 7475 M 0 73 R D 16663 7475 M 0 73 R D
16842 7475 M 0 73 R D 16932 7475 M 0 73 R D 17022 7475 M 0 73 R D
17111 7475 M 0 73 R D 17201 7475 M 0 73 R D 17291 7475 M 0 73 R D
17380 7475 M 0 73 R D 17470 7475 M 0 73 R D 17560 7475 M 0 73 R D
12360 12350 M 5280 0 R D 13167 12350 M 0 -146 R D 14063 12350 M 0 -146 R D
14960 12350 M 0 -146 R D 15856 12350 M 0 -146 R D 16753 12350 M 0 -146 R D
12360 12350 M 0 -73 R D 12450 12350 M 0 -73 R D 12539 12350 M 0 -73 R D
12629 12350 M 0 -73 R D 12719 12350 M 0 -73 R D 12808 12350 M 0 -73 R D
12898 12350 M 0 -73 R D 12988 12350 M 0 -73 R D 13077 12350 M 0 -73 R D
13257 12350 M 0 -73 R D 13346 12350 M 0 -73 R D 13436 12350 M 0 -73 R D
13525 12350 M 0 -73 R D 13615 12350 M 0 -73 R D 13705 12350 M 0 -73 R D
13794 12350 M 0 -73 R D 13884 12350 M 0 -73 R D 13974 12350 M 0 -73 R D
14153 12350 M 0 -73 R D 14243 12350 M 0 -73 R D 14332 12350 M 0 -73 R D
14422 12350 M 0 -73 R D 14512 12350 M 0 -73 R D 14601 12350 M 0 -73 R D
14691 12350 M 0 -73 R D 14781 12350 M 0 -73 R D 14870 12350 M 0 -73 R D
15049 12350 M 0 -73 R D 15139 12350 M 0 -73 R D 15229 12350 M 0 -73 R D
15318 12350 M 0 -73 R D 15408 12350 M 0 -73 R D 15498 12350 M 0 -73 R D
15587 12350 M 0 -73 R D 15677 12350 M 0 -73 R D 15767 12350 M 0 -73 R D
15946 12350 M 0 -73 R D 16036 12350 M 0 -73 R D 16125 12350 M 0 -73 R D
16215 12350 M 0 -73 R D 16304 12350 M 0 -73 R D 16394 12350 M 0 -73 R D
16484 12350 M 0 -73 R D 16573 12350 M 0 -73 R D 16663 12350 M 0 -73 R D
16842 12350 M 0 -73 R D 16932 12350 M 0 -73 R D 17022 12350 M 0 -73 R D
17111 12350 M 0 -73 R D 17201 12350 M 0 -73 R D 17291 12350 M 0 -73 R D
17380 12350 M 0 -73 R D 17470 12350 M 0 -73 R D 17560 12350 M 0 -73 R D
12360 7475 M 0 4875 R D 12360 8155 M 159 0 R D
gsave 12249 8014 translate 0 0 M -117.687 0 N
( ) show grestore 12360 8956 M 159 0 R D gsave 12249 8815 translate 0 0 M
-117.687 0 N
( ) show grestore 12360 9757 M 159 0 R D gsave 12249 9616 translate 0 0 M
-117.687 0 N
( ) show grestore 12360 10558 M 159 0 R D gsave 12249 10417 translate 0 0 M
-117.687 0 N
( ) show grestore 12360 11358 M 159 0 R D gsave 12249 11218 translate 0 0 M
-117.687 0 N
( ) show grestore 12360 12159 M 159 0 R D gsave 12249 12018 translate 0 0 M
-117.687 0 N
( ) show grestore 12360 7755 M 79 0 R D 12360 8556 M 79 0 R D 12360 9356 M
79 0 R D 12360 10157 M 79 0 R D 12360 10958 M 79 0 R D 12360 11759 M 79 0 R
D 17640 7475 M 0 4875 R D 17640 8155 M -158 0 R D 17640 8956 M -158 0 R D
17640 9757 M -158 0 R D 17640 10558 M -158 0 R D 17640 11358 M -158 0 R D
17640 12159 M -158 0 R D 17640 7755 M -79 0 R D 17640 8556 M -79 0 R D
17640 9356 M -79 0 R D 17640 10157 M -79 0 R D 17640 10958 M -79 0 R D
17640 11759 M -79 0 R D 0.000 0.000 1.000 setrgbcolor 12428 12164 M
233 -33 R 232 -61 R 233 -80 R 232 -84 R 233 -95 R 233 -101 R 232 -96 R
233 -104 R 232 -90 R 233 -113 R 232 -96 R 233 -56 R 232 -166 R 233 -115 R
232 -43 R 233 -138 R 232 -147 R 233 -1590 R D 12376 11969 M 105 0 R -53 0 R
0 284 R -52 0 R 105 0 R D 12608 12025 M 106 0 R -53 0 R 0 172 R -53 0 R
106 0 R D 12841 12023 M 105 0 R -53 0 R 0 85 R -52 0 R 105 0 R D
13073 11951 M 106 0 R -53 0 R 0 72 R -53 0 R 106 0 R D 13306 11872 M 105 0 R
-53 0 R 0 63 R -52 0 R 105 0 R D 13538 11768 M 106 0 R -53 0 R 0 78 R
-53 0 R 106 0 R D 13771 11679 M 105 0 R -52 0 R 0 57 R -53 0 R 105 0 R D
14003 11567 M 106 0 R -53 0 R 0 85 R -53 0 R 106 0 R D 14236 11486 M 105 0 R
-52 0 R 0 45 R -53 0 R 105 0 R D 14468 11367 M 106 0 R -53 0 R 0 93 R
-53 0 R 106 0 R D 14701 11223 M 105 0 R -52 0 R 0 140 R -53 0 R 105 0 R D
14933 11149 M 106 0 R -53 0 R 0 107 R -53 0 R 106 0 R D 15166 11074 M
105 0 R -52 0 R 0 137 R -53 0 R 105 0 R D 15398 10844 M 106 0 R -53 0 R
0 222 R -53 0 R 106 0 R D 15631 10624 M 106 0 R -53 0 R 0 348 R -53 0 R
106 0 R D 15863 10595 M 106 0 R -53 0 R 0 333 R -53 0 R 106 0 R D
16096 7475 M 106 0 R -53 0 R 0 3346 R -53 0 R 106 0 R D 16329 7475 M 105 0 R
-53 0 R 0 3254 R -52 0 R 105 0 R D 16561 8956 M 106 0 R -53 0 R -53 0 R
106 0 R D L2 0.000 0.549 0.000 setrgbcolor 12428 11718 M 238 -13 R 238 -64 R
238 -84 R 238 -94 R 238 -96 R 238 -99 R 238 -102 R 238 -90 R 238 -104 R
238 -85 R 238 -82 R 238 -116 R 238 -57 R 238 -162 R 238 -100 R 238 -87 R
238 -177 R 238 -134 R D L0 12376 11490 M 105 0 R -53 0 R 0 323 R -52 0 R
105 0 R D 12613 11609 M 106 0 R -53 0 R 0 158 R -53 0 R 106 0 R D
12851 11583 M 106 0 R -53 0 R 0 101 R -53 0 R 106 0 R D 13089 11511 M
106 0 R -53 0 R 0 83 R -53 0 R 106 0 R D 13327 11419 M 106 0 R -53 0 R
0 80 R -53 0 R 106 0 R D 13565 11321 M 106 0 R -53 0 R 0 83 R -53 0 R
106 0 R D 13803 11219 M 106 0 R -53 0 R 0 87 R -53 0 R 106 0 R D
14041 11116 M 106 0 R -53 0 R 0 89 R -53 0 R 106 0 R D 14279 11018 M 106 0 R
-53 0 R 0 101 R -53 0 R 106 0 R D 14517 10909 M 106 0 R -53 0 R 0 110 R
-53 0 R 106 0 R D 14755 10839 M 106 0 R -53 0 R 0 85 R -53 0 R 106 0 R D
14993 10709 M 106 0 R -53 0 R 0 157 R -53 0 R 106 0 R D 15231 10606 M
106 0 R -53 0 R 0 139 R -53 0 R 106 0 R D 15469 10487 M 106 0 R -53 0 R
0 223 R -53 0 R 106 0 R D 15707 10237 M 106 0 R -53 0 R 0 329 R -53 0 R
106 0 R D 15945 10148 M 106 0 R -53 0 R 0 316 R -53 0 R 106 0 R D
16183 10057 M 106 0 R -53 0 R 0 321 R -53 0 R 106 0 R D 16421 7475 M 106 0 R
-53 0 R 0 2778 R -53 0 R 106 0 R D 16659 7475 M 105 0 R -52 0 R 0 2690 R
-53 0 R 105 0 R D L1 0.588 0.000 0.588 setrgbcolor 12428 10742 M 264 24 R
264 -70 R 264 -95 R 264 -101 R 264 -106 R 264 -105 R 264 -105 R 264 -110 R
264 -107 R 264 -107 R 264 -100 R 264 -114 R 264 -105 R 264 -112 R 264 -128 R
264 -78 R 264 -175 R 264 -46 R D L0 12376 10496 M 105 0 R -53 0 R 0 344 R
-52 0 R 105 0 R D 12640 10661 M 105 0 R -53 0 R 0 171 R -52 0 R 105 0 R D
12904 10635 M 105 0 R -53 0 R 0 106 R -52 0 R 105 0 R D 13168 10553 M
105 0 R -53 0 R 0 85 R -52 0 R 105 0 R D 13432 10451 M 105 0 R -53 0 R
0 86 R -52 0 R 105 0 R D 13696 10346 M 105 0 R -53 0 R 0 86 R -52 0 R
105 0 R D 13960 10242 M 105 0 R -53 0 R 0 83 R -52 0 R 105 0 R D
14224 10139 M 105 0 R -53 0 R 0 82 R -52 0 R 105 0 R D 14488 10022 M 105 0 R
-53 0 R 0 92 R -52 0 R 105 0 R D 14752 9910 M 105 0 R -53 0 R 0 101 R
-52 0 R 105 0 R D 15016 9803 M 105 0 R -53 0 R 0 100 R -52 0 R 105 0 R D
15280 9708 M 105 0 R -53 0 R 0 91 R -52 0 R 105 0 R D 15544 9579 M 105 0 R
-53 0 R 0 115 R -52 0 R 105 0 R D 15808 9490 M 105 0 R -53 0 R 0 90 R
-52 0 R 105 0 R D 16072 9308 M 105 0 R -53 0 R 0 192 R -52 0 R 105 0 R D
16336 9223 M 105 0 R -53 0 R 0 131 R -52 0 R 105 0 R D 16600 9134 M 105 0 R
-53 0 R 0 148 R -52 0 R 105 0 R D 16864 8916 M 105 0 R -53 0 R 0 206 R
-52 0 R 105 0 R D 17128 7475 M 105 0 R -53 0 R 0 1648 R -52 0 R 105 0 R D
0.000 0.000 0.000 setrgbcolor gsave 15000 12480 translate 0 0 M -523.663 0 N
(z~1.0) show grestore 1800 1300 M 5280 0 R D 3048 1300 M 0 146 R D
gsave 3048 772 translate 0 0 M -117.687 0 N
(9) show grestore 4308 1300 M 0 146 R D gsave 4308 772 translate 0 0 M
-235.373 0 N
(10) show grestore 5568 1300 M 0 146 R D gsave 5568 772 translate 0 0 M
-235.373 0 N
(11) show grestore 6828 1300 M 0 146 R D gsave 6828 772 translate 0 0 M
-235.373 0 N
(12) show grestore 1913 1300 M 0 73 R D 2039 1300 M 0 73 R D 2165 1300 M
0 73 R D 2291 1300 M 0 73 R D 2417 1300 M 0 73 R D 2543 1300 M 0 73 R D
2670 1300 M 0 73 R D 2796 1300 M 0 73 R D 2922 1300 M 0 73 R D 3174 1300 M
0 73 R D 3300 1300 M 0 73 R D 3426 1300 M 0 73 R D 3552 1300 M 0 73 R D
3678 1300 M 0 73 R D 3804 1300 M 0 73 R D 3930 1300 M 0 73 R D 4056 1300 M
0 73 R D 4182 1300 M 0 73 R D 4434 1300 M 0 73 R D 4560 1300 M 0 73 R D
4686 1300 M 0 73 R D 4812 1300 M 0 73 R D 4938 1300 M 0 73 R D 5064 1300 M
0 73 R D 5190 1300 M 0 73 R D 5316 1300 M 0 73 R D 5442 1300 M 0 73 R D
5694 1300 M 0 73 R D 5820 1300 M 0 73 R D 5946 1300 M 0 73 R D 6072 1300 M
0 73 R D 6198 1300 M 0 73 R D 6324 1300 M 0 73 R D 6450 1300 M 0 73 R D
6576 1300 M 0 73 R D 6702 1300 M 0 73 R D 6954 1300 M 0 73 R D 7080 1300 M
0 73 R D 1800 6175 M 5280 0 R D 3048 6175 M 0 -146 R D 4308 6175 M 0 -146 R
D 5568 6175 M 0 -146 R D 6828 6175 M 0 -146 R D 1913 6175 M 0 -73 R D
2039 6175 M 0 -73 R D 2165 6175 M 0 -73 R D 2291 6175 M 0 -73 R D
2417 6175 M 0 -73 R D 2543 6175 M 0 -73 R D 2670 6175 M 0 -73 R D
2796 6175 M 0 -73 R D 2922 6175 M 0 -73 R D 3174 6175 M 0 -73 R D
3300 6175 M 0 -73 R D 3426 6175 M 0 -73 R D 3552 6175 M 0 -73 R D
3678 6175 M 0 -73 R D 3804 6175 M 0 -73 R D 3930 6175 M 0 -73 R D
4056 6175 M 0 -73 R D 4182 6175 M 0 -73 R D 4434 6175 M 0 -73 R D
4560 6175 M 0 -73 R D 4686 6175 M 0 -73 R D 4812 6175 M 0 -73 R D
4938 6175 M 0 -73 R D 5064 6175 M 0 -73 R D 5190 6175 M 0 -73 R D
5316 6175 M 0 -73 R D 5442 6175 M 0 -73 R D 5694 6175 M 0 -73 R D
5820 6175 M 0 -73 R D 5946 6175 M 0 -73 R D 6072 6175 M 0 -73 R D
6198 6175 M 0 -73 R D 6324 6175 M 0 -73 R D 6450 6175 M 0 -73 R D
6576 6175 M 0 -73 R D 6702 6175 M 0 -73 R D 6954 6175 M 0 -73 R D
7080 6175 M 0 -73 R D 1800 1300 M 0 4875 R D 1800 1705 M 158 0 R D
gsave 1689 1564 translate 0 0 M -704.08 0 N
(10) show X 192.937 M
%%IncludeResource: font Helvetica
262.467 /Helvetica STDFONT
(-8) show grestore
%%IncludeResource: font Helvetica
423.333 /Helvetica STDFONT 1800 2518 M 158 0 R D
gsave 1689 2377 translate 0 0 M -704.08 0 N
(10) show X 192.937 M
%%IncludeResource: font Helvetica
262.467 /Helvetica STDFONT
(-6) show grestore
%%IncludeResource: font Helvetica
423.333 /Helvetica STDFONT 1800 3331 M 158 0 R D
gsave 1689 3190 translate 0 0 M -704.08 0 N
(10) show X 192.937 M
%%IncludeResource: font Helvetica
262.467 /Helvetica STDFONT
(-4) show grestore
%%IncludeResource: font Helvetica
423.333 /Helvetica STDFONT 1800 4144 M 158 0 R D
gsave 1689 4003 translate 0 0 M -704.08 0 N
(10) show X 192.937 M
%%IncludeResource: font Helvetica
262.467 /Helvetica STDFONT
(-2) show grestore
%%IncludeResource: font Helvetica
423.333 /Helvetica STDFONT 1800 4957 M 158 0 R D
gsave 1689 4816 translate 0 0 M -616.678 0 N
(10) show X 192.937 M
%%IncludeResource: font Helvetica
262.467 /Helvetica STDFONT
(0) show grestore
%%IncludeResource: font Helvetica
423.333 /Helvetica STDFONT 1800 5770 M 158 0 R D
gsave 1689 5629 translate 0 0 M -616.678 0 N
(10) show X 192.937 M
%%IncludeResource: font Helvetica
262.467 /Helvetica STDFONT
(2) show grestore
%%IncludeResource: font Helvetica
423.333 /Helvetica STDFONT 1800 2111 M 79 0 R D 1800 2924 M 79 0 R D
1800 3738 M 79 0 R D 1800 4551 M 79 0 R D 1800 5364 M 79 0 R D 7080 1300 M
0 4875 R D 7080 1705 M -158 0 R D 7080 2518 M -158 0 R D 7080 3331 M
-158 0 R D 7080 4144 M -158 0 R D 7080 4957 M -158 0 R D 7080 5770 M
-158 0 R D 7080 2111 M -79 0 R D 7080 2924 M -79 0 R D 7080 3738 M -79 0 R D
7080 4551 M -79 0 R D 7080 5364 M -79 0 R D 0.000 0.000 1.000 setrgbcolor
1800 5794 M 239 -48 R 252 -41 R 252 -41 R 253 -33 R 252 -46 R 252 -19 R
252 -11 R 252 -9 R 252 -12 R 252 -33 R 252 -87 R 252 -125 R 252 -199 R
252 -170 R 252 0 R 252 -170 R 252 -298 R 252 -513 R 252 -833 R 252 192 R D
1800 5772 M 40 0 R -40 0 R D 1800 5821 M 40 0 R D 1987 5728 M 105 0 R
-53 0 R 0 36 R -52 0 R 105 0 R D 2239 5684 M 105 0 R -53 0 R 0 43 R -52 0 R
105 0 R D 2491 5649 M 105 0 R -53 0 R 0 30 R -52 0 R 105 0 R D 2743 5610 M
105 0 R -52 0 R 0 43 R -53 0 R 105 0 R D 2995 5571 M 105 0 R -52 0 R 0 29 R
-53 0 R 105 0 R D 3247 5546 M 105 0 R -52 0 R 0 40 R -53 0 R 105 0 R D
3499 5534 M 105 0 R -52 0 R 0 41 R -53 0 R 105 0 R D 3751 5530 M 105 0 R
-52 0 R 0 32 R -53 0 R 105 0 R D 4003 5515 M 105 0 R -52 0 R 0 39 R -53 0 R
105 0 R D 4255 5469 M 106 0 R -53 0 R 0 63 R -53 0 R 106 0 R D 4507 5379 M
106 0 R -53 0 R 0 70 R -53 0 R 106 0 R D 4759 5259 M 106 0 R -53 0 R 0 60 R
-53 0 R 106 0 R D 5011 5005 M 106 0 R -53 0 R 0 170 R -53 0 R 106 0 R D
5263 4825 M 106 0 R -53 0 R 0 190 R -53 0 R 106 0 R D 5515 4810 M 106 0 R
-53 0 R 0 220 R -53 0 R 106 0 R D 5767 4672 M 106 0 R -53 0 R 0 156 R
-53 0 R 106 0 R D 6019 4342 M 106 0 R -53 0 R 0 220 R -53 0 R 106 0 R D
6271 3602 M 106 0 R -53 0 R 0 674 R -53 0 R 106 0 R D 6523 2484 M 106 0 R
-53 0 R 0 1243 R -53 0 R 106 0 R D 6775 1528 M 106 0 R -53 0 R 0 3541 R
-53 0 R 106 0 R D L2 0.000 0.549 0.000 setrgbcolor 1800 5155 M 44 -5 R
252 -37 R 252 -43 R 252 -47 R 252 -32 R 252 -45 R 252 -39 R 252 -14 R
252 -16 R 253 -23 R 252 -27 R 252 -71 R 252 -107 R 252 -259 R 252 -56 R
252 -134 R 252 -264 R 252 -444 R 252 -652 R 252 -1029 R D L0 1800 5119 M
97 0 R -53 0 R 0 62 R -44 0 R 97 0 R D 2043 5079 M 106 0 R -53 0 R 0 67 R
-53 0 R 106 0 R D 2295 5045 M 106 0 R -53 0 R 0 50 R -53 0 R 106 0 R D
2548 4990 M 105 0 R -53 0 R 0 65 R -52 0 R 105 0 R D 2800 4948 M 105 0 R
-53 0 R 0 86 R -52 0 R 105 0 R D 3052 4913 M 105 0 R -53 0 R 0 66 R -52 0 R
105 0 R D 3304 4869 M 105 0 R -53 0 R 0 76 R -52 0 R 105 0 R D 3556 4862 M
105 0 R -53 0 R 0 62 R -52 0 R 105 0 R D 3808 4847 M 105 0 R -53 0 R 0 60 R
-52 0 R 105 0 R D 4060 4814 M 105 0 R -52 0 R 0 81 R -53 0 R 105 0 R D
4312 4788 M 105 0 R -52 0 R 0 78 R -53 0 R 105 0 R D 4564 4698 M 105 0 R
-52 0 R 0 116 R -53 0 R 105 0 R D 4816 4607 M 105 0 R -52 0 R 0 84 R -53 0 R
105 0 R D 5068 4283 M 105 0 R -52 0 R 0 213 R -53 0 R 105 0 R D 5320 4272 M
105 0 R -52 0 R 0 125 R -53 0 R 105 0 R D 5572 4145 M 106 0 R -53 0 R
0 111 R -53 0 R 106 0 R D 5824 3847 M 106 0 R -53 0 R 0 177 R -53 0 R
106 0 R D 6076 3492 M 106 0 R -53 0 R -53 0 R 106 0 R D 6328 2840 M 106 0 R
-53 0 R -53 0 R 106 0 R D 6580 1811 M 106 0 R -53 0 R -53 0 R 106 0 R D L1
0.588 0.000 0.588 setrgbcolor 1800 4349 M 117 -14 R 252 -45 R 252 -39 R
252 -44 R 252 -53 R 252 -29 R 252 -42 R 253 -2 R 252 -24 R 252 -31 R
252 -1 R 252 -86 R 252 -97 R 252 -273 R 252 -152 R 252 -323 R 252 -59 R
252 -514 R 252 -637 R 134 -584 R D L0 1865 4284 M 105 0 R -53 0 R 0 101 R
-52 0 R 105 0 R D 2117 4239 M 105 0 R -53 0 R 0 102 R -52 0 R 105 0 R D
2369 4201 M 105 0 R -53 0 R 0 101 R -52 0 R 105 0 R D 2621 4158 M 105 0 R
-53 0 R 0 98 R -52 0 R 105 0 R D 2873 4101 M 105 0 R -53 0 R 0 105 R -52 0 R
105 0 R D 3125 4070 M 105 0 R -53 0 R 0 111 R -52 0 R 105 0 R D 3377 4020 M
105 0 R -53 0 R 0 126 R -52 0 R 105 0 R D 3629 4021 M 105 0 R -52 0 R
0 119 R -53 0 R 105 0 R D 3881 4004 M 105 0 R -52 0 R 0 106 R -53 0 R
105 0 R D 4133 3975 M 105 0 R -52 0 R 0 101 R -53 0 R 105 0 R D 4385 3969 M
105 0 R -52 0 R 0 112 R -53 0 R 105 0 R D 4637 3883 M 105 0 R -52 0 R
0 112 R -53 0 R 105 0 R D 4889 3790 M 105 0 R -52 0 R 0 104 R -53 0 R
105 0 R D 5141 3407 M 106 0 R -53 0 R 0 324 R -53 0 R 106 0 R D 5393 3161 M
106 0 R -53 0 R 0 512 R -53 0 R 106 0 R D 5645 2752 M 106 0 R -53 0 R
0 684 R -53 0 R 106 0 R D 5897 2557 M 106 0 R -53 0 R 0 957 R -53 0 R
106 0 R D 6149 1804 M 106 0 R -53 0 R 0 1434 R -53 0 R 106 0 R D 6454 1300 M
0 1616 R -53 0 R 106 0 R D 6706 1300 M 0 861 R -53 0 R 106 0 R D
0.000 0.000 0.000 setrgbcolor gsave 720 3738 translate 0 0 M 90 rotate
-1990.62 0 N
%%IncludeResource: font Symbol
423.333 /Symbol STDFONT
(f) show
%%IncludeResource: font Helvetica
423.333 /Helvetica STDFONT
(\(M) show X -101.051 M
%%IncludeResource: font Helvetica-Bold
262.467 /Helvetica-Bold STDFONT
(*) show X 0 M
%%IncludeResource: font Helvetica
423.333 /Helvetica STDFONT
(\) / \(h) show X 192.937 M
%%IncludeResource: font Helvetica
262.467 /Helvetica STDFONT
(3) show X 0 M
%%IncludeResource: font Helvetica
423.333 /Helvetica STDFONT
(Mpc) show X 192.937 M
%%IncludeResource: font Helvetica
262.467 /Helvetica STDFONT
(-3) show X 0 M
%%IncludeResource: font Helvetica
423.333 /Helvetica STDFONT
(log) show X 192.937 M
%%IncludeResource: font Helvetica
262.467 /Helvetica STDFONT
(-1) show X 0 M
%%IncludeResource: font Helvetica
423.333 /Helvetica STDFONT
(M) show X -101.051 M
%%IncludeResource: font Helvetica-Bold
262.467 /Helvetica-Bold STDFONT
(*) show X 0 M
%%IncludeResource: font Helvetica
423.333 /Helvetica STDFONT
(\)) show grestore 7080 1300 M 5280 0 R D 8328 1300 M 0 146 R D
gsave 8328 772 translate 0 0 M -117.687 0 N
(9) show grestore 9588 1300 M 0 146 R D gsave 9588 772 translate 0 0 M
-235.373 0 N
(10) show grestore 10848 1300 M 0 146 R D gsave 10848 772 translate 0 0 M
-235.373 0 N
(11) show grestore 12108 1300 M 0 146 R D gsave 12108 772 translate 0 0 M
-235.373 0 N
(12) show grestore 7193 1300 M 0 73 R D 7319 1300 M 0 73 R D 7446 1300 M
0 73 R D 7572 1300 M 0 73 R D 7698 1300 M 0 73 R D 7824 1300 M 0 73 R D
7950 1300 M 0 73 R D 8076 1300 M 0 73 R D 8202 1300 M 0 73 R D 8454 1300 M
0 73 R D 8580 1300 M 0 73 R D 8706 1300 M 0 73 R D 8832 1300 M 0 73 R D
8958 1300 M 0 73 R D 9084 1300 M 0 73 R D 9210 1300 M 0 73 R D 9336 1300 M
0 73 R D 9462 1300 M 0 73 R D 9714 1300 M 0 73 R D 9840 1300 M 0 73 R D
9966 1300 M 0 73 R D 10092 1300 M 0 73 R D 10218 1300 M 0 73 R D
10344 1300 M 0 73 R D 10470 1300 M 0 73 R D 10596 1300 M 0 73 R D
10722 1300 M 0 73 R D 10974 1300 M 0 73 R D 11100 1300 M 0 73 R D
11226 1300 M 0 73 R D 11352 1300 M 0 73 R D 11478 1300 M 0 73 R D
11604 1300 M 0 73 R D 11730 1300 M 0 73 R D 11856 1300 M 0 73 R D
11982 1300 M 0 73 R D 12234 1300 M 0 73 R D 12360 1300 M 0 73 R D
7080 6175 M 5280 0 R D 8328 6175 M 0 -146 R D 9588 6175 M 0 -146 R D
10848 6175 M 0 -146 R D 12108 6175 M 0 -146 R D 7193 6175 M 0 -73 R D
7319 6175 M 0 -73 R D 7446 6175 M 0 -73 R D 7572 6175 M 0 -73 R D
7698 6175 M 0 -73 R D 7824 6175 M 0 -73 R D 7950 6175 M 0 -73 R D
8076 6175 M 0 -73 R D 8202 6175 M 0 -73 R D 8454 6175 M 0 -73 R D
8580 6175 M 0 -73 R D 8706 6175 M 0 -73 R D 8832 6175 M 0 -73 R D
8958 6175 M 0 -73 R D 9084 6175 M 0 -73 R D 9210 6175 M 0 -73 R D
9336 6175 M 0 -73 R D 9462 6175 M 0 -73 R D 9714 6175 M 0 -73 R D
9840 6175 M 0 -73 R D 9966 6175 M 0 -73 R D 10092 6175 M 0 -73 R D
10218 6175 M 0 -73 R D 10344 6175 M 0 -73 R D 10470 6175 M 0 -73 R D
10596 6175 M 0 -73 R D 10722 6175 M 0 -73 R D 10974 6175 M 0 -73 R D
11100 6175 M 0 -73 R D 11226 6175 M 0 -73 R D 11352 6175 M 0 -73 R D
11478 6175 M 0 -73 R D 11604 6175 M 0 -73 R D 11730 6175 M 0 -73 R D
11856 6175 M 0 -73 R D 11982 6175 M 0 -73 R D 12234 6175 M 0 -73 R D
12360 6175 M 0 -73 R D 7080 1300 M 0 4875 R D 7080 1705 M 158 0 R D
gsave 6969 1564 translate 0 0 M -117.687 0 N
( ) show grestore 7080 2518 M 158 0 R D gsave 6969 2377 translate 0 0 M
-117.687 0 N
( ) show grestore 7080 3331 M 158 0 R D gsave 6969 3190 translate 0 0 M
-117.687 0 N
( ) show grestore 7080 4144 M 158 0 R D gsave 6969 4003 translate 0 0 M
-117.687 0 N
( ) show grestore 7080 4957 M 158 0 R D gsave 6969 4816 translate 0 0 M
-117.687 0 N
( ) show grestore 7080 5770 M 158 0 R D gsave 6969 5629 translate 0 0 M
-117.687 0 N
( ) show grestore 7080 2111 M 79 0 R D 7080 2924 M 79 0 R D 7080 3738 M
79 0 R D 7080 4551 M 79 0 R D 7080 5364 M 79 0 R D 12360 1300 M 0 4875 R D
12360 1705 M -158 0 R D 12360 2518 M -158 0 R D 12360 3331 M -158 0 R D
12360 4144 M -158 0 R D 12360 4957 M -158 0 R D 12360 5770 M -158 0 R D
12360 2111 M -79 0 R D 12360 2924 M -79 0 R D 12360 3738 M -79 0 R D
12360 4551 M -79 0 R D 12360 5364 M -79 0 R D 0.000 0.000 1.000 setrgbcolor
7080 5833 M 117 -19 R 252 -40 R 252 -42 R 252 -32 R 252 -51 R 253 -14 R
252 -18 R 252 -13 R 252 -5 R 252 -11 R 252 -72 R 252 -147 R 252 -154 R
252 -142 R 252 -6 R 252 -150 R 252 -234 R 252 -482 R 252 46 R 252 -1131 R D
7145 5780 M 105 0 R -53 0 R 0 69 R -52 0 R 105 0 R D 7397 5739 M 105 0 R
-53 0 R 0 70 R -52 0 R 105 0 R D 7649 5705 M 105 0 R -53 0 R 0 54 R -52 0 R
105 0 R D 7901 5670 M 105 0 R -53 0 R 0 59 R -52 0 R 105 0 R D 8153 5621 M
105 0 R -53 0 R 0 55 R -52 0 R 105 0 R D 8405 5595 M 105 0 R -52 0 R 0 79 R
-53 0 R 105 0 R D 8657 5594 M 105 0 R -52 0 R 0 46 R -53 0 R 105 0 R D
8909 5575 M 105 0 R -52 0 R 0 58 R -53 0 R 105 0 R D 9161 5531 M 105 0 R
-52 0 R 0 136 R -53 0 R 105 0 R D 9413 5554 M 105 0 R -52 0 R 0 68 R -53 0 R
105 0 R D 9665 5470 M 105 0 R -52 0 R 0 91 R -53 0 R 105 0 R D 9917 5266 M
106 0 R -53 0 R 0 206 R -53 0 R 106 0 R D 10169 5112 M 106 0 R -53 0 R
0 207 R -53 0 R 106 0 R D 10421 4951 M 106 0 R -53 0 R 0 244 R -53 0 R
106 0 R D 10673 4983 M 106 0 R -53 0 R 0 168 R -53 0 R 106 0 R D
10925 4906 M 106 0 R -53 0 R 0 22 R -53 0 R 106 0 R D 11177 4553 M 106 0 R
-53 0 R 0 260 R -53 0 R 106 0 R D 11429 4033 M 106 0 R -53 0 R 0 337 R
-53 0 R 106 0 R D 11681 3444 M 106 0 R -53 0 R 0 1607 R -53 0 R 106 0 R D
11933 1781 M 106 0 R -53 0 R 0 2670 R -53 0 R 106 0 R D
0.000 0.000 0.000 setrgbcolor 10079 5184 M 205 -37 R 205 -44 R 205 -55 R
205 -72 R 204 -96 R 205 -130 R 205 -181 R 205 -254 R D 10027 4639 M 105 0 R
-53 0 R 0 868 R -52 0 R 105 0 R D 10231 4614 M 106 0 R -53 0 R 0 837 R
-53 0 R 106 0 R D 10436 4575 M 106 0 R -53 0 R 0 817 R -53 0 R 106 0 R D
10641 4514 M 106 0 R -53 0 R 0 813 R -53 0 R 106 0 R D 10846 4421 M 105 0 R
-52 0 R 0 832 R -53 0 R 105 0 R D 11051 4284 M 105 0 R -53 0 R 0 883 R
-52 0 R 105 0 R D 11255 4080 M 106 0 R -53 0 R 0 982 R -53 0 R 106 0 R D
11460 3779 M 106 0 R -53 0 R 0 1152 R -53 0 R 106 0 R D 11665 3339 M 105 0 R
-52 0 R 0 1422 R -53 0 R 105 0 R D L2 0.000 0.549 0.000 setrgbcolor
7080 5290 M 182 -31 R 252 -42 R 252 -49 R 252 -32 R 252 -42 R 252 -46 R
252 -7 R 252 -28 R 252 3 R 252 -22 R 252 -70 R 252 -111 R 252 -251 R
252 -141 R 252 -62 R 252 -157 R 252 -361 R 252 -537 R 252 -750 R 205 -1254 R
D L0 7209 5195 M 106 0 R -53 0 R 0 129 R -53 0 R 106 0 R D 7461 5151 M
106 0 R -53 0 R 0 131 R -53 0 R 106 0 R D 7713 5098 M 106 0 R -53 0 R
0 140 R -53 0 R 106 0 R D 7965 5078 M 106 0 R -53 0 R 0 115 R -53 0 R
106 0 R D 8217 5028 M 106 0 R -53 0 R 0 133 R -53 0 R 106 0 R D 8469 4984 M
106 0 R -53 0 R 0 127 R -53 0 R 106 0 R D 8721 4969 M 106 0 R -53 0 R
0 145 R -53 0 R 106 0 R D 8973 4955 M 106 0 R -53 0 R 0 115 R -53 0 R
106 0 R D 9225 4933 M 106 0 R -53 0 R 0 167 R -53 0 R 106 0 R D 9477 4934 M
106 0 R -53 0 R 0 121 R -53 0 R 106 0 R D 9729 4866 M 106 0 R -53 0 R
0 117 R -53 0 R 106 0 R D 9981 4748 M 106 0 R -53 0 R 0 130 R -53 0 R
106 0 R D 10233 4466 M 106 0 R -53 0 R 0 191 R -53 0 R 106 0 R D
10485 4300 M 106 0 R -53 0 R 0 243 R -53 0 R 106 0 R D 10737 4256 M 106 0 R
-53 0 R 0 205 R -53 0 R 106 0 R D 10990 4047 M 105 0 R -53 0 R 0 311 R
-52 0 R 105 0 R D 11242 3567 M 105 0 R -53 0 R 0 548 R -52 0 R 105 0 R D
11494 2910 M 105 0 R -53 0 R 0 788 R -52 0 R 105 0 R D 11746 1902 M 105 0 R
-53 0 R 0 1304 R -52 0 R 105 0 R D 0.000 0.000 0.000 setrgbcolor
10079 4672 M 205 -35 R 205 -43 R 205 -53 R 205 -68 R 204 -90 R 205 -123 R
205 -171 R 205 -238 R D 10027 4583 M 105 0 R -53 0 R 0 177 R -52 0 R 105 0 R
D 10231 4549 M 106 0 R -53 0 R 0 172 R -53 0 R 106 0 R D 10436 4507 M
106 0 R -53 0 R 0 171 R -53 0 R 106 0 R D 10641 4451 M 106 0 R -53 0 R
0 175 R -53 0 R 106 0 R D 10846 4375 M 105 0 R -52 0 R 0 187 R -53 0 R
105 0 R D 11051 4271 M 105 0 R -53 0 R 0 210 R -52 0 R 105 0 R D
11255 4124 M 106 0 R -53 0 R 0 250 R -53 0 R 106 0 R D 11460 3917 M 106 0 R
-53 0 R 0 314 R -53 0 R 106 0 R D 11665 3622 M 105 0 R -52 0 R 0 413 R
-53 0 R 105 0 R D L1 0.588 0.000 0.588 setrgbcolor 7080 4410 M 182 -28 R
252 -38 R 252 -51 R 252 -45 R 252 -47 R 252 -30 R 252 -26 R 252 -11 R
252 -29 R 252 -7 R 252 -34 R 252 -101 R 252 -207 R 252 -229 R 252 -93 R
252 -212 R 252 -610 R 252 -353 R 252 -552 R 52 -407 R D L0 7209 4338 M
106 0 R -53 0 R 0 88 R -53 0 R 106 0 R D 7461 4302 M 106 0 R -53 0 R 0 84 R
-53 0 R 106 0 R D 7713 4249 M 106 0 R -53 0 R 0 89 R -53 0 R 106 0 R D
7965 4197 M 106 0 R -53 0 R 0 102 R -53 0 R 106 0 R D 8217 4144 M 106 0 R
-53 0 R 0 115 R -53 0 R 106 0 R D 8469 4132 M 106 0 R -53 0 R 0 79 R -53 0 R
106 0 R D 8721 4080 M 106 0 R -53 0 R 0 131 R -53 0 R 106 0 R D 8973 4094 M
106 0 R -53 0 R 0 81 R -53 0 R 106 0 R D 9225 4051 M 106 0 R -53 0 R 0 108 R
-53 0 R 106 0 R D 9477 4041 M 106 0 R -53 0 R 0 113 R -53 0 R 106 0 R D
9729 4010 M 106 0 R -53 0 R 0 109 R -53 0 R 106 0 R D 9981 3910 M 106 0 R
-53 0 R 0 105 R -53 0 R 106 0 R D 10233 3666 M 106 0 R -53 0 R 0 180 R
-53 0 R 106 0 R D 10485 3355 M 106 0 R -53 0 R 0 344 R -53 0 R 106 0 R D
10737 3224 M 106 0 R -53 0 R 0 421 R -53 0 R 106 0 R D 10990 2902 M 105 0 R
-53 0 R 0 639 R -52 0 R 105 0 R D 11242 2133 M 105 0 R -53 0 R 0 958 R
-52 0 R 105 0 R D 11494 1509 M 105 0 R -53 0 R 0 1501 R -52 0 R 105 0 R D
11798 1300 M 0 1531 R -52 0 R 105 0 R D 0.000 0.000 0.000 setrgbcolor
10079 3550 M 205 -32 R 205 -52 R 205 -77 R 205 -116 R 204 -172 R 205 -254 R
205 -372 R 205 -544 R D 10027 3444 M 105 0 R -53 0 R 0 218 R -52 0 R 105 0 R
D 10231 3417 M 106 0 R -53 0 R 0 203 R -53 0 R 106 0 R D 10436 3367 M
106 0 R -53 0 R 0 197 R -53 0 R 106 0 R D 10641 3281 M 106 0 R -53 0 R
0 206 R -53 0 R 106 0 R D 10846 3145 M 105 0 R -52 0 R 0 237 R -53 0 R
105 0 R D 11051 2935 M 105 0 R -53 0 R 0 299 R -52 0 R 105 0 R D
11255 2618 M 106 0 R -53 0 R 0 406 R -53 0 R 106 0 R D 11460 2144 M 106 0 R
-53 0 R 0 581 R -53 0 R 106 0 R D 11665 1444 M 105 0 R -52 0 R 0 851 R
-53 0 R 105 0 R D gsave 9720 260 translate 0 0 M -1619.79 0 N
(log[M) show X -101.051 M
%%IncludeResource: font Helvetica-Bold
262.467 /Helvetica-Bold STDFONT
(*) show X 0 M
%%IncludeResource: font Helvetica
423.333 /Helvetica STDFONT
( / \(h) show X 192.937 M
%%IncludeResource: font Helvetica
262.467 /Helvetica STDFONT
(-2) show X 0 M
%%IncludeResource: font Helvetica
423.333 /Helvetica STDFONT
(M) show CP X -101.051 M
%%IncludeResource: font AvantGarde-Book
262.467 /AvantGarde-Book STDFONT
(O) show M X -58.3193 M
%%IncludeResource: font AvantGarde-Book
186.267 /AvantGarde-Book STDFONT
( \267) show X 0 M
%%IncludeResource: font Helvetica
423.333 /Helvetica STDFONT
(\)]) show grestore 12360 1300 M 5280 0 R D 13608 1300 M 0 146 R D
gsave 13608 772 translate 0 0 M -117.687 0 N
(9) show grestore 14868 1300 M 0 146 R D gsave 14868 772 translate 0 0 M
-235.373 0 N
(10) show grestore 16128 1300 M 0 146 R D gsave 16128 772 translate 0 0 M
-235.373 0 N
(11) show grestore 17388 1300 M 0 146 R D gsave 17388 772 translate 0 0 M
-235.373 0 N
(12) show grestore 12474 1300 M 0 73 R D 12600 1300 M 0 73 R D 12726 1300 M
0 73 R D 12852 1300 M 0 73 R D 12978 1300 M 0 73 R D 13104 1300 M 0 73 R D
13230 1300 M 0 73 R D 13356 1300 M 0 73 R D 13482 1300 M 0 73 R D
13734 1300 M 0 73 R D 13860 1300 M 0 73 R D 13986 1300 M 0 73 R D
14112 1300 M 0 73 R D 14238 1300 M 0 73 R D 14364 1300 M 0 73 R D
14490 1300 M 0 73 R D 14616 1300 M 0 73 R D 14742 1300 M 0 73 R D
14994 1300 M 0 73 R D 15120 1300 M 0 73 R D 15246 1300 M 0 73 R D
15372 1300 M 0 73 R D 15498 1300 M 0 73 R D 15624 1300 M 0 73 R D
15750 1300 M 0 73 R D 15876 1300 M 0 73 R D 16002 1300 M 0 73 R D
16254 1300 M 0 73 R D 16380 1300 M 0 73 R D 16506 1300 M 0 73 R D
16632 1300 M 0 73 R D 16758 1300 M 0 73 R D 16884 1300 M 0 73 R D
17010 1300 M 0 73 R D 17136 1300 M 0 73 R D 17262 1300 M 0 73 R D
17514 1300 M 0 73 R D 17640 1300 M 0 73 R D 12360 6175 M 5280 0 R D
13608 6175 M 0 -146 R D 14868 6175 M 0 -146 R D 16128 6175 M 0 -146 R D
17388 6175 M 0 -146 R D 12474 6175 M 0 -73 R D 12600 6175 M 0 -73 R D
12726 6175 M 0 -73 R D 12852 6175 M 0 -73 R D 12978 6175 M 0 -73 R D
13104 6175 M 0 -73 R D 13230 6175 M 0 -73 R D 13356 6175 M 0 -73 R D
13482 6175 M 0 -73 R D 13734 6175 M 0 -73 R D 13860 6175 M 0 -73 R D
13986 6175 M 0 -73 R D 14112 6175 M 0 -73 R D 14238 6175 M 0 -73 R D
14364 6175 M 0 -73 R D 14490 6175 M 0 -73 R D 14616 6175 M 0 -73 R D
14742 6175 M 0 -73 R D 14994 6175 M 0 -73 R D 15120 6175 M 0 -73 R D
15246 6175 M 0 -73 R D 15372 6175 M 0 -73 R D 15498 6175 M 0 -73 R D
15624 6175 M 0 -73 R D 15750 6175 M 0 -73 R D 15876 6175 M 0 -73 R D
16002 6175 M 0 -73 R D 16254 6175 M 0 -73 R D 16380 6175 M 0 -73 R D
16506 6175 M 0 -73 R D 16632 6175 M 0 -73 R D 16758 6175 M 0 -73 R D
16884 6175 M 0 -73 R D 17010 6175 M 0 -73 R D 17136 6175 M 0 -73 R D
17262 6175 M 0 -73 R D 17514 6175 M 0 -73 R D 17640 6175 M 0 -73 R D
12360 1300 M 0 4875 R D 12360 1705 M 159 0 R D
gsave 12249 1564 translate 0 0 M -117.687 0 N
( ) show grestore 12360 2518 M 159 0 R D gsave 12249 2377 translate 0 0 M
-117.687 0 N
( ) show grestore 12360 3331 M 159 0 R D gsave 12249 3190 translate 0 0 M
-117.687 0 N
( ) show grestore 12360 4144 M 159 0 R D gsave 12249 4003 translate 0 0 M
-117.687 0 N
( ) show grestore 12360 4957 M 159 0 R D gsave 12249 4816 translate 0 0 M
-117.687 0 N
( ) show grestore 12360 5770 M 159 0 R D gsave 12249 5629 translate 0 0 M
-117.687 0 N
( ) show grestore 12360 2111 M 79 0 R D 12360 2924 M 79 0 R D 12360 3738 M
79 0 R D 12360 4551 M 79 0 R D 12360 5364 M 79 0 R D 17640 1300 M 0 4875 R D
17640 1705 M -158 0 R D 17640 2518 M -158 0 R D 17640 3331 M -158 0 R D
17640 4144 M -158 0 R D 17640 4957 M -158 0 R D 17640 5770 M -158 0 R D
17640 2111 M -79 0 R D 17640 2924 M -79 0 R D 17640 3738 M -79 0 R D
17640 4551 M -79 0 R D 17640 5364 M -79 0 R D 0.000 0.000 1.000 setrgbcolor
12360 6014 M 212 -51 R 252 -29 R 252 -42 R 252 -41 R 252 -46 R 252 -14 R
252 -5 R 252 8 R 252 -4 R 252 -40 R 252 -126 R 252 -176 R 252 -128 R
252 -123 R 252 -157 R 252 -78 R 253 -311 R 252 -327 R 252 -1072 R D
12360 6001 M 13 0 R -13 0 R D 12360 6047 M 13 0 R D 12519 5940 M 106 0 R
-53 0 R 0 45 R -53 0 R 106 0 R D 12771 5900 M 106 0 R -53 0 R 0 69 R -53 0 R
106 0 R D 13023 5863 M 106 0 R -53 0 R 0 57 R -53 0 R 106 0 R D 13275 5808 M
106 0 R -53 0 R 0 86 R -53 0 R 106 0 R D 13527 5758 M 106 0 R -53 0 R 0 94 R
-53 0 R 106 0 R D 13779 5721 M 106 0 R -53 0 R 0 140 R -53 0 R 106 0 R D
14031 5727 M 106 0 R -53 0 R 0 117 R -53 0 R 106 0 R D 14283 5731 M 106 0 R
-53 0 R 0 125 R -53 0 R 106 0 R D 14535 5756 M 106 0 R -53 0 R 0 69 R
-53 0 R 106 0 R D 14787 5704 M 106 0 R -53 0 R 0 93 R -53 0 R 106 0 R D
15040 5524 M 105 0 R -53 0 R 0 201 R -52 0 R 105 0 R D 15292 5395 M 105 0 R
-53 0 R 0 106 R -52 0 R 105 0 R D 15544 5242 M 105 0 R -53 0 R 0 155 R
-52 0 R 105 0 R D 15796 5147 M 105 0 R -53 0 R 0 100 R -52 0 R 105 0 R D
16048 5012 M 105 0 R -53 0 R 0 55 R -52 0 R 105 0 R D 16300 4740 M 105 0 R
-53 0 R 0 444 R -52 0 R 105 0 R D 16552 4281 M 105 0 R -52 0 R 0 741 R
-53 0 R 105 0 R D 16804 3695 M 105 0 R -52 0 R 0 1257 R -53 0 R 105 0 R D
17056 2561 M 105 0 R -52 0 R 0 1382 R -53 0 R 105 0 R D
0.000 0.000 0.000 setrgbcolor 15108 5381 M 189 -18 R 189 -25 R 189 -35 R
189 -47 R 189 -67 R 189 -94 R 189 -131 R 189 -185 R 189 -260 R 189 -367 R D
15055 5322 M 105 0 R -52 0 R 0 116 R -53 0 R 105 0 R D 15244 5306 M 105 0 R
-52 0 R 0 112 R -53 0 R 105 0 R D 15433 5282 M 105 0 R -52 0 R 0 109 R
-53 0 R 105 0 R D 15622 5246 M 105 0 R -52 0 R 0 111 R -53 0 R 105 0 R D
15811 5195 M 105 0 R -52 0 R 0 116 R -53 0 R 105 0 R D 16000 5122 M 105 0 R
-52 0 R 0 127 R -53 0 R 105 0 R D 16189 5018 M 105 0 R -52 0 R 0 146 R
-53 0 R 105 0 R D 16378 4868 M 105 0 R -52 0 R 0 180 R -53 0 R 105 0 R D
16567 4656 M 106 0 R -53 0 R 0 229 R -53 0 R 106 0 R D 16756 4356 M 106 0 R
-53 0 R 0 302 R -53 0 R 106 0 R D 16945 3930 M 106 0 R -53 0 R 0 411 R
-53 0 R 106 0 R D L2 0.000 0.549 0.000 setrgbcolor 12360 5450 M 44 -5 R
252 -50 R 252 -66 R 252 -26 R 252 -53 R 253 -20 R 252 -28 R 252 -14 R
252 4 R 252 4 R 252 -54 R 252 -154 R 252 -226 R 252 -224 R 252 -142 R
252 -109 R 252 -381 R 252 -414 R 252 -652 R 252 -1029 R D L0 12360 5383 M
97 0 R -53 0 R 0 123 R -44 0 R 97 0 R D 12604 5338 M 105 0 R -53 0 R 0 113 R
-52 0 R 105 0 R D 12856 5264 M 105 0 R -53 0 R 0 130 R -52 0 R 105 0 R D
13108 5252 M 105 0 R -53 0 R 0 102 R -52 0 R 105 0 R D 13360 5190 M 105 0 R
-53 0 R 0 120 R -52 0 R 105 0 R D 13612 5158 M 105 0 R -52 0 R 0 145 R
-53 0 R 105 0 R D 13864 5144 M 105 0 R -52 0 R 0 116 R -53 0 R 105 0 R D
14116 5135 M 105 0 R -52 0 R 0 107 R -53 0 R 105 0 R D 14368 5120 M 105 0 R
-52 0 R 0 145 R -53 0 R 105 0 R D 14620 5117 M 105 0 R -52 0 R 0 158 R
-53 0 R 105 0 R D 14872 5076 M 105 0 R -52 0 R 0 131 R -53 0 R 105 0 R D
15124 4888 M 105 0 R -52 0 R 0 200 R -53 0 R 105 0 R D 15376 4701 M 106 0 R
-53 0 R 0 123 R -53 0 R 106 0 R D 15628 4405 M 106 0 R -53 0 R 0 266 R
-53 0 R 106 0 R D 15880 4247 M 106 0 R -53 0 R 0 299 R -53 0 R 106 0 R D
16132 4049 M 106 0 R -53 0 R 0 476 R -53 0 R 106 0 R D 16384 3906 M 106 0 R
-53 0 R -53 0 R 106 0 R D 16636 3492 M 106 0 R -53 0 R -53 0 R 106 0 R D
16888 2840 M 106 0 R -53 0 R -53 0 R 106 0 R D 17140 1811 M 106 0 R -53 0 R
-53 0 R 106 0 R D 0.000 0.000 0.000 setrgbcolor 15108 4745 M 189 -15 R
189 -20 R 189 -28 R 189 -38 R 189 -53 R 189 -75 R 189 -105 R 189 -147 R
189 -207 R 189 -292 R D 15055 4699 M 105 0 R -52 0 R 0 95 R -53 0 R 105 0 R
D 15244 4688 M 105 0 R -52 0 R 0 87 R -53 0 R 105 0 R D 15433 4672 M 105 0 R
-52 0 R 0 79 R -53 0 R 105 0 R D 15622 4646 M 105 0 R -52 0 R 0 75 R -53 0 R
105 0 R D 15811 4609 M 105 0 R -52 0 R 0 72 R -53 0 R 105 0 R D 16000 4554 M
105 0 R -52 0 R 0 74 R -53 0 R 105 0 R D 16189 4474 M 105 0 R -52 0 R 0 83 R
-53 0 R 105 0 R D 16378 4361 M 105 0 R -52 0 R 0 98 R -53 0 R 105 0 R D
16567 4198 M 106 0 R -53 0 R 0 127 R -53 0 R 106 0 R D 16756 3967 M 106 0 R
-53 0 R 0 171 R -53 0 R 106 0 R D 16945 3638 M 106 0 R -53 0 R 0 239 R
-53 0 R 106 0 R D L1 0.588 0.000 0.588 setrgbcolor 12360 4488 M 240 -45 R
252 -42 R 252 -40 R 252 -53 R 252 -31 R 252 -40 R 252 -16 R 252 -5 R 252 2 R
252 -25 R 252 -127 R 252 -235 R 252 -166 R 252 -130 R 252 -80 R 252 -537 R
252 -372 R 252 -751 R 116 -495 R D L0 12360 4456 M 40 0 R -40 0 R D
12360 4526 M 40 0 R D 12547 4401 M 105 0 R -52 0 R 0 85 R -53 0 R 105 0 R D
12799 4359 M 105 0 R -52 0 R 0 83 R -53 0 R 105 0 R D 13051 4322 M 105 0 R
-52 0 R 0 77 R -53 0 R 105 0 R D 13303 4268 M 105 0 R -52 0 R 0 79 R -53 0 R
105 0 R D 13555 4239 M 105 0 R -52 0 R 0 76 R -53 0 R 105 0 R D 13807 4196 M
106 0 R -53 0 R 0 81 R -53 0 R 106 0 R D 14059 4190 M 106 0 R -53 0 R 0 62 R
-53 0 R 106 0 R D 14311 4173 M 106 0 R -53 0 R 0 85 R -53 0 R 106 0 R D
14563 4168 M 106 0 R -53 0 R 0 100 R -53 0 R 106 0 R D 14815 4147 M 106 0 R
-53 0 R 0 92 R -53 0 R 106 0 R D 15067 4011 M 106 0 R -53 0 R 0 110 R
-53 0 R 106 0 R D 15319 3754 M 106 0 R -53 0 R 0 153 R -53 0 R 106 0 R D
15571 3566 M 106 0 R -53 0 R 0 198 R -53 0 R 106 0 R D 15823 3444 M 106 0 R
-53 0 R 0 182 R -53 0 R 106 0 R D 16075 3371 M 106 0 R -53 0 R 0 168 R
-53 0 R 106 0 R D 16327 2528 M 106 0 R -53 0 R 0 781 R -53 0 R 106 0 R D
16579 2011 M 106 0 R -53 0 R 0 1071 R -53 0 R 106 0 R D 16884 1300 M
0 1066 R -53 0 R 106 0 R D 0.000 0.000 0.000 setrgbcolor 15108 3495 M
189 -13 R 189 -20 R 189 -29 R 189 -41 R 189 -58 R 189 -84 R 189 -119 R
189 -169 R 189 -240 R 189 -338 R D 15055 3443 M 105 0 R -52 0 R 0 103 R
-53 0 R 105 0 R D 15244 3433 M 105 0 R -52 0 R 0 97 R -53 0 R 105 0 R D
15433 3415 M 105 0 R -52 0 R 0 93 R -53 0 R 105 0 R D 15622 3386 M 105 0 R
-52 0 R 0 93 R -53 0 R 105 0 R D 15811 3344 M 105 0 R -52 0 R 0 94 R -53 0 R
105 0 R D 16000 3281 M 105 0 R -52 0 R 0 102 R -53 0 R 105 0 R D
16189 3189 M 105 0 R -52 0 R 0 116 R -53 0 R 105 0 R D 16378 3057 M 105 0 R
-52 0 R 0 140 R -53 0 R 105 0 R D 16567 2868 M 106 0 R -53 0 R 0 177 R
-53 0 R 106 0 R D 16756 2598 M 106 0 R -53 0 R 0 234 R -53 0 R 106 0 R D
16945 2213 M 106 0 R -53 0 R 0 319 R -53 0 R 106 0 R D 40 setlinewidth
0.000 0.000 1.000 setrgbcolor 2250 8921 M 76 0 R 75 0 R 76 0 R 76 0 R 75 0 R
76 0 R 75 0 R 76 0 R 75 0 R D L2 0.000 0.549 0.000 setrgbcolor 2250 8376 M
76 0 R 75 0 R 76 0 R 76 0 R 75 0 R 76 0 R 75 0 R 76 0 R 75 0 R D L1
0.588 0.000 0.588 setrgbcolor 2250 7832 M 76 0 R 75 0 R 76 0 R 76 0 R 75 0 R
76 0 R 75 0 R 76 0 R 75 0 R D 0.000 0.000 1.000 setrgbcolor
gsave 3006 8812 translate 0 0 M
(<R) show X -101.051 M
%%IncludeResource: font Helvetica
262.467 /Helvetica STDFONT
(200) show grestore
%%IncludeResource: font Helvetica
423.333 /Helvetica STDFONT 0.000 0.549 0.000 setrgbcolor
gsave 3006 8268 translate 0 0 M
([R) show X -101.051 M
%%IncludeResource: font Helvetica
262.467 /Helvetica STDFONT
(200) show X 0 M
%%IncludeResource: font Helvetica
423.333 /Helvetica STDFONT
(,3R) show X -101.051 M
%%IncludeResource: font Helvetica
262.467 /Helvetica STDFONT
(200) show X 0 M
%%IncludeResource: font Helvetica
423.333 /Helvetica STDFONT
(]) show grestore 0.588 0.000 0.588 setrgbcolor
gsave 3006 7723 translate 0 0 M
(>3R) show X -101.051 M
%%IncludeResource: font Helvetica
262.467 /Helvetica STDFONT
(200) show grestore
%%IncludeResource: font Helvetica
423.333 /Helvetica STDFONT L0 0.000 0.000 1.000 setrgbcolor 2250 2824 M
76 0 R 75 0 R 76 0 R 76 0 R 75 0 R 76 0 R 75 0 R 76 0 R 75 0 R D L2
0.000 0.549 0.000 setrgbcolor 2250 2279 M 76 0 R 75 0 R 76 0 R 76 0 R 75 0 R
76 0 R 75 0 R 76 0 R 75 0 R D L1 0.588 0.000 0.588 setrgbcolor 2250 1735 M
76 0 R 75 0 R 76 0 R 76 0 R 75 0 R 76 0 R 75 0 R 76 0 R 75 0 R D
0.000 0.000 1.000 setrgbcolor gsave 3006 2715 translate 0 0 M
(<R) show X -101.051 M
%%IncludeResource: font Helvetica
262.467 /Helvetica STDFONT
(200) show grestore
%%IncludeResource: font Helvetica
423.333 /Helvetica STDFONT 0.000 0.549 0.000 setrgbcolor
gsave 3006 2170 translate 0 0 M
([R) show X -101.051 M
%%IncludeResource: font Helvetica
262.467 /Helvetica STDFONT
(200) show X 0 M
%%IncludeResource: font Helvetica
423.333 /Helvetica STDFONT
(,3R) show X -101.051 M
%%IncludeResource: font Helvetica
262.467 /Helvetica STDFONT
(200) show X 0 M
%%IncludeResource: font Helvetica
423.333 /Helvetica STDFONT
(]) show grestore 0.588 0.000 0.588 setrgbcolor
gsave 3006 1626 translate 0 0 M
(>3R) show X -101.051 M
%%IncludeResource: font Helvetica
262.467 /Helvetica STDFONT
(200) show grestore
%%IncludeResource: font Helvetica
423.333 /Helvetica STDFONT 30 setlinewidth L0 0.000 0.000 0.000 setrgbcolor
7208 1844 M 75 0 R 76 0 R 75 0 R 76 0 R 76 0 R 75 0 R 76 0 R 75 0 R 76 0 R D
gsave 7963 1735 translate 0 0 M
(Vulcani2013) show grestore 12649 1844 M 75 0 R 76 0 R 75 0 R 76 0 R 76 0 R
75 0 R 76 0 R 75 0 R 76 0 R D gsave 13404 1735 translate 0 0 M
(Vulcani2013) show grestore
%%PageTrailer
end
%%PageResources: font Helvetica
%%+ font Symbol
%%+ font AvantGarde-Book
%%+ font Helvetica-Bold
%%Trailer
%%Pages: 1
%%DocumentNeededResources: font Helvetica
%%+ font Symbol
%%+ font AvantGarde-Book
%%+ font Helvetica-Bold
%%EOF
