%!PS-Adobe-3.0 EPSF-3.0
%%BoundingBox: 0 0 283 226
%%Title: Graphics produced by IDL
%%For: jlgan@Hserver, /home/jlgan/work/phoenix
%%Creator: IDL Version 7.1.1 (linux x86_64 m64)
%%CreationDate: Thu Nov 13 23:16:01 2014
%%DocumentData: Clean7bit
%%Requirements: color
%%LanguageLevel: 1
%%PageOrder: Ascend
%%Pages: (atend)
%%DocumentNeededResources: (atend)
%%EndComments
%%BeginProlog
%+ prolog.ps -- Prolog for IDL generated PostScript files
%+ Copyright (c) 1988-2009 ITT Visual Information Solutions. All Rights Reserved.
%v 5
/$IDL_DICT 40 dict def $IDL_DICT begin /bdef { bind def } bind def /C
{currentpoint newpath moveto} bdef /CP {currentpoint} bdef /D {currentpoint
stroke moveto} bdef /F {closepath fill} bdef /K { setgray } bdef /M {moveto}
bdef /N {rmoveto} bdef /P {lineto} bdef /R {rlineto} bdef /S {gsave show
grestore} bdef /X {currentpoint pop} bdef /Z {gsave currentpoint lineto 20
setlinewidth 1 setlinecap stroke grestore} bdef /L0 {[] 0 setdash} bdef /L1
{[40 100] 0 setdash} bdef /L2 {[200 200] 0 setdash} bdef /L3 {[200 100 50
100] 0 setdash} bdef /L4 {[300 100 50 100 50 100 50 100] 0 setdash} bdef /L5
{[400 200] 0 setdash} bdef /STDFONT { findfont exch scalefont setfont } bdef
/ISOFONT { findfont dup length dict begin { 1 index /FID ne {def} {pop pop}
ifelse } forall /Encoding ISOLatin1Encoding def currentdict end /idltmpfont
exch definefont exch scalefont setfont } bdef /ISOBULLET { gsave /Helvetica
findfont exch scalefont setfont (\267) show currentpoint grestore moveto}
bdef /MITERLIMIT { 2.5 setmiterlimit } bdef end
%%EndProlog
%%Page: 0 1
%%PageRequirements: color
%%PageResources: (atend)
%%PageOrientation: Portrait
%%PageBoundingBox: 0 0 283 226
%%BeginPageSetup
$IDL_DICT begin 0.0283465 dup scale MITERLIMIT
%%IncludeResource: font Helvetica
423.333 /Helvetica STDFONT
%%EndPageSetup
30 setlinewidth L0 0.000 0.000 0.000 setrgbcolor 1800 1200 M 8000 0 R D
1800 1200 M 0 199 R D gsave 1800 672 translate 0 0 M -305.858 0 N
(-15) show grestore 2944 1200 M 0 199 R D gsave 2944 672 translate 0 0 M
-305.858 0 N
(-14) show grestore 4089 1200 M 0 199 R D gsave 4089 672 translate 0 0 M
-305.858 0 N
(-13) show grestore 5233 1200 M 0 199 R D gsave 5233 672 translate 0 0 M
-305.858 0 N
(-12) show grestore 6378 1200 M 0 199 R D gsave 6378 672 translate 0 0 M
-305.858 0 N
(-11) show grestore 7522 1200 M 0 199 R D gsave 7522 672 translate 0 0 M
-305.858 0 N
(-10) show grestore 8667 1200 M 0 199 R D gsave 8667 672 translate 0 0 M
-188.172 0 N
(-9) show grestore 1914 1200 M 0 100 R D 2029 1200 M 0 100 R D 2143 1200 M
0 100 R D 2258 1200 M 0 100 R D 2372 1200 M 0 100 R D 2487 1200 M 0 100 R D
2601 1200 M 0 100 R D 2716 1200 M 0 100 R D 2830 1200 M 0 100 R D
3059 1200 M 0 100 R D 3173 1200 M 0 100 R D 3288 1200 M 0 100 R D
3402 1200 M 0 100 R D 3517 1200 M 0 100 R D 3631 1200 M 0 100 R D
3746 1200 M 0 100 R D 3860 1200 M 0 100 R D 3975 1200 M 0 100 R D
4203 1200 M 0 100 R D 4318 1200 M 0 100 R D 4432 1200 M 0 100 R D
4547 1200 M 0 100 R D 4661 1200 M 0 100 R D 4776 1200 M 0 100 R D
4890 1200 M 0 100 R D 5005 1200 M 0 100 R D 5119 1200 M 0 100 R D
5348 1200 M 0 100 R D 5462 1200 M 0 100 R D 5577 1200 M 0 100 R D
5691 1200 M 0 100 R D 5806 1200 M 0 100 R D 5920 1200 M 0 100 R D
6035 1200 M 0 100 R D 6149 1200 M 0 100 R D 6264 1200 M 0 100 R D
6492 1200 M 0 100 R D 6607 1200 M 0 100 R D 6721 1200 M 0 100 R D
6836 1200 M 0 100 R D 6950 1200 M 0 100 R D 7065 1200 M 0 100 R D
7179 1200 M 0 100 R D 7294 1200 M 0 100 R D 7408 1200 M 0 100 R D
7637 1200 M 0 100 R D 7751 1200 M 0 100 R D 7866 1200 M 0 100 R D
7980 1200 M 0 100 R D 8095 1200 M 0 100 R D 8209 1200 M 0 100 R D
8324 1200 M 0 100 R D 8438 1200 M 0 100 R D 8553 1200 M 0 100 R D
8781 1200 M 0 100 R D 8896 1200 M 0 100 R D 9010 1200 M 0 100 R D
9125 1200 M 0 100 R D 9239 1200 M 0 100 R D 9354 1200 M 0 100 R D
9468 1200 M 0 100 R D 9583 1200 M 0 100 R D 9697 1200 M 0 100 R D
gsave 5800 214 translate 0 0 M -1398.73 0 N
(log[sSFR / yr) show X 192.937 M
%%IncludeResource: font Helvetica
262.467 /Helvetica STDFONT
(-1) show X 0 M
%%IncludeResource: font Helvetica
423.333 /Helvetica STDFONT
(]) show grestore 1800 7840 M 8000 0 R D 1800 7840 M 0 -199 R D 2944 7840 M
0 -199 R D 4089 7840 M 0 -199 R D 5233 7840 M 0 -199 R D 6378 7840 M
0 -199 R D 7522 7840 M 0 -199 R D 8667 7840 M 0 -199 R D 1914 7840 M
0 -100 R D 2029 7840 M 0 -100 R D 2143 7840 M 0 -100 R D 2258 7840 M
0 -100 R D 2372 7840 M 0 -100 R D 2487 7840 M 0 -100 R D 2601 7840 M
0 -100 R D 2716 7840 M 0 -100 R D 2830 7840 M 0 -100 R D 3059 7840 M
0 -100 R D 3173 7840 M 0 -100 R D 3288 7840 M 0 -100 R D 3402 7840 M
0 -100 R D 3517 7840 M 0 -100 R D 3631 7840 M 0 -100 R D 3746 7840 M
0 -100 R D 3860 7840 M 0 -100 R D 3975 7840 M 0 -100 R D 4203 7840 M
0 -100 R D 4318 7840 M 0 -100 R D 4432 7840 M 0 -100 R D 4547 7840 M
0 -100 R D 4661 7840 M 0 -100 R D 4776 7840 M 0 -100 R D 4890 7840 M
0 -100 R D 5005 7840 M 0 -100 R D 5119 7840 M 0 -100 R D 5348 7840 M
0 -100 R D 5462 7840 M 0 -100 R D 5577 7840 M 0 -100 R D 5691 7840 M
0 -100 R D 5806 7840 M 0 -100 R D 5920 7840 M 0 -100 R D 6035 7840 M
0 -100 R D 6149 7840 M 0 -100 R D 6264 7840 M 0 -100 R D 6492 7840 M
0 -100 R D 6607 7840 M 0 -100 R D 6721 7840 M 0 -100 R D 6836 7840 M
0 -100 R D 6950 7840 M 0 -100 R D 7065 7840 M 0 -100 R D 7179 7840 M
0 -100 R D 7294 7840 M 0 -100 R D 7408 7840 M 0 -100 R D 7637 7840 M
0 -100 R D 7751 7840 M 0 -100 R D 7866 7840 M 0 -100 R D 7980 7840 M
0 -100 R D 8095 7840 M 0 -100 R D 8209 7840 M 0 -100 R D 8324 7840 M
0 -100 R D 8438 7840 M 0 -100 R D 8553 7840 M 0 -100 R D 8781 7840 M
0 -100 R D 8896 7840 M 0 -100 R D 9010 7840 M 0 -100 R D 9125 7840 M
0 -100 R D 9239 7840 M 0 -100 R D 9354 7840 M 0 -100 R D 9468 7840 M
0 -100 R D 9583 7840 M 0 -100 R D 9697 7840 M 0 -100 R D 1800 1200 M
0 6640 R D 1800 2661 M 240 0 R D gsave 1689 2520 translate 0 0 M
-470.747 0 N
(10) show grestore 1800 4752 M 240 0 R D gsave 1689 4611 translate 0 0 M
-706.12 0 N
(100) show grestore 1800 6843 M 240 0 R D gsave 1689 6702 translate 0 0 M
-941.493 0 N
(1000) show grestore 1800 1200 M 120 0 R D 1800 1568 M 120 0 R D 1800 1829 M
120 0 R D 1800 2032 M 120 0 R D 1800 2197 M 120 0 R D 1800 2337 M 120 0 R D
1800 2459 M 120 0 R D 1800 2566 M 120 0 R D 1800 3291 M 120 0 R D
1800 3659 M 120 0 R D 1800 3920 M 120 0 R D 1800 4123 M 120 0 R D
1800 4288 M 120 0 R D 1800 4428 M 120 0 R D 1800 4549 M 120 0 R D
1800 4656 M 120 0 R D 1800 5381 M 120 0 R D 1800 5749 M 120 0 R D
1800 6011 M 120 0 R D 1800 6213 M 120 0 R D 1800 6379 M 120 0 R D
1800 6519 M 120 0 R D 1800 6640 M 120 0 R D 1800 6747 M 120 0 R D
1800 7472 M 120 0 R D 1800 7840 M 120 0 R D gsave 415 4520 translate 0 0 M
90 rotate -752.687 0 N
(Number) show grestore 9800 1200 M 0 6640 R D 9800 2661 M -240 0 R D
9800 4752 M -240 0 R D 9800 6843 M -240 0 R D 9800 1200 M -120 0 R D
9800 1568 M -120 0 R D 9800 1829 M -120 0 R D 9800 2032 M -120 0 R D
9800 2197 M -120 0 R D 9800 2337 M -120 0 R D 9800 2459 M -120 0 R D
9800 2566 M -120 0 R D 9800 3291 M -120 0 R D 9800 3659 M -120 0 R D
9800 3920 M -120 0 R D 9800 4123 M -120 0 R D 9800 4288 M -120 0 R D
9800 4428 M -120 0 R D 9800 4549 M -120 0 R D 9800 4656 M -120 0 R D
9800 5381 M -120 0 R D 9800 5749 M -120 0 R D 9800 6011 M -120 0 R D
9800 6213 M -120 0 R D 9800 6379 M -120 0 R D 9800 6519 M -120 0 R D
9800 6640 M -120 0 R D 9800 6747 M -120 0 R D 9800 7472 M -120 0 R D
9800 7840 M -120 0 R D 1800 3131 M 275 321 R 274 305 R 275 163 R 275 12 R
274 226 R 275 158 R 275 152 R 274 321 R 275 263 R 275 477 R 274 548 R
275 420 R 275 99 R 274 -291 R 275 -540 R 275 -290 R 275 -35 R 274 -48 R
275 64 R 275 233 R 274 384 R 275 -752 R 275 -2020 R 274 -1607 R 188 -494 R D
L2 2372 3559 M 275 79 R 275 343 R 274 77 R 275 192 R 275 112 R 274 275 R
275 268 R 275 459 R 274 498 R 275 422 R 275 129 R 274 -260 R 275 -389 R
275 -227 R 274 -54 R 275 3 R 275 99 R 274 232 R 275 543 R 275 -77 R
274 -1526 R 275 -2096 R 275 -1321 R 155 -140 R D 9109 1200 M 130 96 R D L1
2944 3400 M 275 140 R 275 250 R 275 281 R 274 260 R 275 188 R 275 298 R
274 470 R 275 384 R 275 224 R 274 -47 R 275 -103 R 275 -60 R 274 -63 R
275 26 R 275 40 R 274 68 R 275 187 R 275 554 R 274 306 R 275 -921 R
275 -1592 R 274 -1609 R 275 -484 R 275 -475 R 263 126 R D 40 setlinewidth L0
2362 2703 M 86 0 R 85 0 R 85 0 R 86 0 R 85 0 R 86 0 R 85 0 R 85 0 R 86 0 R D
L2 2362 2291 M 86 0 R 85 0 R 85 0 R 86 0 R 85 0 R 86 0 R 85 0 R 85 0 R
86 0 R D L1 2362 1879 M 86 0 R 85 0 R 85 0 R 86 0 R 85 0 R 86 0 R 85 0 R
85 0 R 86 0 R D gsave 3216 2548 translate 0 0 M
(z) show
%%IncludeResource: font Symbol
423.333 /Symbol STDFONT
(\273) show
%%IncludeResource: font Helvetica
423.333 /Helvetica STDFONT
(0.0) show grestore gsave 3216 2136 translate 0 0 M
(z) show
%%IncludeResource: font Symbol
423.333 /Symbol STDFONT
(\273) show
%%IncludeResource: font Helvetica
423.333 /Helvetica STDFONT
(0.3) show grestore gsave 3216 1724 translate 0 0 M
(z) show
%%IncludeResource: font Symbol
423.333 /Symbol STDFONT
(\273) show
%%IncludeResource: font Helvetica
423.333 /Helvetica STDFONT
(1.0) show grestore
%%PageTrailer
end
%%PageResources: font Helvetica
%%+ font Symbol
%%Trailer
%%Pages: 1
%%DocumentNeededResources: font Helvetica
%%+ font Symbol
%%EOF
