%!PS-Adobe-3.0 EPSF-3.0
%%BoundingBox: 0 0 453 283
%%Title: Graphics produced by IDL
%%For: daxia@Lserver, /home/daxia/work/subhalo_model
%%Creator: IDL Version 7.0 (linux x86_64 m64)
%%CreationDate: Mon Jun 13 10:52:40 2011
%%DocumentData: Clean7bit
%%Requirements: color
%%LanguageLevel: 1
%%PageOrder: Ascend
%%Pages: (atend)
%%DocumentNeededResources: (atend)
%%EndComments
%%BeginProlog
%+ prolog.ps -- Prolog for IDL generated PostScript files
%+ Copyright (c) 1988-2007 ITT Visual Information Solutions. All Rights Reserved.
%v 5
/$IDL_DICT 40 dict def $IDL_DICT begin /bdef { bind def } bind def /C
{currentpoint newpath moveto} bdef /CP {currentpoint} bdef /D {currentpoint
stroke moveto} bdef /F {closepath fill} bdef /K { setgray } bdef /M {moveto}
bdef /N {rmoveto} bdef /P {lineto} bdef /R {rlineto} bdef /S {gsave show
grestore} bdef /X {currentpoint pop} bdef /Z {gsave currentpoint lineto 20
setlinewidth 1 setlinecap stroke grestore} bdef /L0 {[] 0 setdash} bdef /L1
{[40 100] 0 setdash} bdef /L2 {[200 200] 0 setdash} bdef /L3 {[200 100 50
100] 0 setdash} bdef /L4 {[300 100 50 100 50 100 50 100] 0 setdash} bdef /L5
{[400 200] 0 setdash} bdef /STDFONT { findfont exch scalefont setfont } bdef
/ISOFONT { findfont dup length dict begin { 1 index /FID ne {def} {pop pop}
ifelse } forall /Encoding ISOLatin1Encoding def currentdict end /idltmpfont
exch definefont exch scalefont setfont } bdef /ISOBULLET { gsave /Helvetica
findfont exch scalefont setfont (\267) show currentpoint grestore moveto}
bdef /MITERLIMIT { 2.5 setmiterlimit } bdef end
%%EndProlog
%%Page: 0 1
%%PageRequirements: color
%%PageResources: (atend)
%%PageOrientation: Portrait
%%PageBoundingBox: 0 0 453 283
%%BeginPageSetup
$IDL_DICT begin 0.0283465 dup scale MITERLIMIT
%%IncludeResource: font Helvetica
423.333 /Helvetica STDFONT
%%EndPageSetup
0.000 0.000 0.000 setrgbcolor gsave 8950 176 translate 0 0 M 1.2 dup scale
-411.48 0 N
(m/M) show grestore gsave 866 5604 translate 0 0 M 90 rotate 1.2 dup scale
-1164.17 0 N
(dN/dln\(m/M\)) show grestore 40 setlinewidth L0 2220 5604 M 4487 0 R D
2595 5604 M 0 168 R D gsave 2595 4965 translate 0 0 M 1.21 dup scale
-58.8433 0 N
( ) show grestore 3841 5604 M 0 168 R D gsave 3841 4965 translate 0 0 M
1.21 dup scale -58.8433 0 N
( ) show grestore 5086 5604 M 0 168 R D gsave 5086 4965 translate 0 0 M
1.21 dup scale -58.8433 0 N
( ) show grestore 6332 5604 M 0 168 R D gsave 6332 4965 translate 0 0 M
1.21 dup scale -58.8433 0 N
( ) show grestore 2220 5604 M 0 84 R D 2319 5604 M 0 84 R D 2402 5604 M
0 84 R D 2474 5604 M 0 84 R D 2538 5604 M 0 84 R D 2970 5604 M 0 84 R D
3189 5604 M 0 84 R D 3345 5604 M 0 84 R D 3466 5604 M 0 84 R D 3564 5604 M
0 84 R D 3648 5604 M 0 84 R D 3720 5604 M 0 84 R D 3784 5604 M 0 84 R D
4216 5604 M 0 84 R D 4435 5604 M 0 84 R D 4590 5604 M 0 84 R D 4711 5604 M
0 84 R D 4810 5604 M 0 84 R D 4893 5604 M 0 84 R D 4965 5604 M 0 84 R D
5029 5604 M 0 84 R D 5461 5604 M 0 84 R D 5680 5604 M 0 84 R D 5836 5604 M
0 84 R D 5957 5604 M 0 84 R D 6055 5604 M 0 84 R D 6139 5604 M 0 84 R D
6211 5604 M 0 84 R D 6275 5604 M 0 84 R D 6707 5604 M 0 84 R D 2220 9800 M
4487 0 R D 2595 9800 M 0 -168 R D 3841 9800 M 0 -168 R D 5086 9800 M
0 -168 R D 6332 9800 M 0 -168 R D 2220 9800 M 0 -84 R D 2319 9800 M 0 -84 R
D 2402 9800 M 0 -84 R D 2474 9800 M 0 -84 R D 2538 9800 M 0 -84 R D
2970 9800 M 0 -84 R D 3189 9800 M 0 -84 R D 3345 9800 M 0 -84 R D
3466 9800 M 0 -84 R D 3564 9800 M 0 -84 R D 3648 9800 M 0 -84 R D
3720 9800 M 0 -84 R D 3784 9800 M 0 -84 R D 4216 9800 M 0 -84 R D
4435 9800 M 0 -84 R D 4590 9800 M 0 -84 R D 4711 9800 M 0 -84 R D
4810 9800 M 0 -84 R D 4893 9800 M 0 -84 R D 4965 9800 M 0 -84 R D
5029 9800 M 0 -84 R D 5461 9800 M 0 -84 R D 5680 9800 M 0 -84 R D
5836 9800 M 0 -84 R D 5957 9800 M 0 -84 R D 6055 9800 M 0 -84 R D
6139 9800 M 0 -84 R D 6211 9800 M 0 -84 R D 6275 9800 M 0 -84 R D
6707 9800 M 0 -84 R D 2220 5604 M 0 4196 R D 2220 6176 M 179 0 R D
gsave 2086 6006 translate 0 0 M 1.21 dup scale -704.08 0 N
(10) show X 192.937 M
%%IncludeResource: font Helvetica
262.467 /Helvetica STDFONT
(-1) show grestore
%%IncludeResource: font Helvetica
423.333 /Helvetica STDFONT 2220 7274 M 179 0 R D
gsave 2086 7104 translate 0 0 M 1.21 dup scale -235.373 0 N
(1) show grestore 2220 8372 M 179 0 R D gsave 2086 8202 translate 0 0 M
1.21 dup scale -470.747 0 N
(10) show grestore 2220 9470 M 179 0 R D gsave 2086 9299 translate 0 0 M
1.21 dup scale -616.678 0 N
(10) show X 192.937 M
%%IncludeResource: font Helvetica
262.467 /Helvetica STDFONT
(2) show grestore
%%IncludeResource: font Helvetica
423.333 /Helvetica STDFONT 2220 5740 M 90 0 R D 2220 5846 M 90 0 R D
2220 5933 M 90 0 R D 2220 6006 M 90 0 R D 2220 6070 M 90 0 R D 2220 6126 M
90 0 R D 2220 6507 M 90 0 R D 2220 6700 M 90 0 R D 2220 6837 M 90 0 R D
2220 6944 M 90 0 R D 2220 7031 M 90 0 R D 2220 7104 M 90 0 R D 2220 7168 M
90 0 R D 2220 7224 M 90 0 R D 2220 7605 M 90 0 R D 2220 7798 M 90 0 R D
2220 7935 M 90 0 R D 2220 8041 M 90 0 R D 2220 8128 M 90 0 R D 2220 8202 M
90 0 R D 2220 8266 M 90 0 R D 2220 8322 M 90 0 R D 2220 8702 M 90 0 R D
2220 8896 M 90 0 R D 2220 9033 M 90 0 R D 2220 9139 M 90 0 R D 2220 9226 M
90 0 R D 2220 9300 M 90 0 R D 2220 9363 M 90 0 R D 2220 9419 M 90 0 R D
2220 9800 M 90 0 R D 6707 5604 M 0 4196 R D 6707 6176 M -180 0 R D
6707 7274 M -180 0 R D 6707 8372 M -180 0 R D 6707 9470 M -180 0 R D
6707 5740 M -90 0 R D 6707 5846 M -90 0 R D 6707 5933 M -90 0 R D
6707 6006 M -90 0 R D 6707 6070 M -90 0 R D 6707 6126 M -90 0 R D
6707 6507 M -90 0 R D 6707 6700 M -90 0 R D 6707 6837 M -90 0 R D
6707 6944 M -90 0 R D 6707 7031 M -90 0 R D 6707 7104 M -90 0 R D
6707 7168 M -90 0 R D 6707 7224 M -90 0 R D 6707 7605 M -90 0 R D
6707 7798 M -90 0 R D 6707 7935 M -90 0 R D 6707 8041 M -90 0 R D
6707 8128 M -90 0 R D 6707 8202 M -90 0 R D 6707 8266 M -90 0 R D
6707 8322 M -90 0 R D 6707 8702 M -90 0 R D 6707 8896 M -90 0 R D
6707 9033 M -90 0 R D 6707 9139 M -90 0 R D 6707 9226 M -90 0 R D
6707 9300 M -90 0 R D 6707 9363 M -90 0 R D 6707 9419 M -90 0 R D
6707 9800 M -90 0 R D 2595 8834 M 374 -230 R 373 -236 R 374 -299 R
374 -268 R 373 -284 R 374 -286 R 374 -294 R 373 -262 R 374 -272 R 374 -400 R
D L1 2595 9238 M 374 -266 R 373 -278 R 374 -324 R 374 -269 R 373 -325 R
374 -204 R 374 -398 R 373 -384 R 374 -277 R 374 -73 R D L2 2595 8849 M
374 -257 R 373 -302 R 374 -278 R 374 -268 R 373 -207 R 374 -299 R 374 -302 R
373 -390 R 374 -33 R 374 -210 R D L3 2595 8452 M 374 -251 R 373 -263 R
374 -257 R 374 -198 R 373 -344 R 374 -262 R 374 -194 R 373 -205 R 374 -295 R
374 63 R D gsave 2595 6006 translate 0 0 M 1.1 dup scale
(10) show X 192.937 M
%%IncludeResource: font Helvetica
262.467 /Helvetica STDFONT
(11) show X 0 M
%%IncludeResource: font Helvetica
423.333 /Helvetica STDFONT
(h) show X 192.937 M
%%IncludeResource: font Helvetica
262.467 /Helvetica STDFONT
(-1) show X 0 M
%%IncludeResource: font Helvetica
423.333 /Helvetica STDFONT
(M) show CP X -101.051 M
%%IncludeResource: font AvantGarde-Book
262.467 /AvantGarde-Book STDFONT
(O) show M X -58.3193 M
%%IncludeResource: font AvantGarde-Book
186.267 /AvantGarde-Book STDFONT
( \267) show
%%IncludeResource: font Helvetica
186.267 /Helvetica STDFONT grestore
%%IncludeResource: font Helvetica
423.333 /Helvetica STDFONT L0 6707 5604 M 4486 0 R D 7082 5604 M 0 168 R D
gsave 7082 4965 translate 0 0 M 1.21 dup scale -58.8433 0 N
( ) show grestore 8327 5604 M 0 168 R D gsave 8327 4965 translate 0 0 M
1.21 dup scale -58.8433 0 N
( ) show grestore 9573 5604 M 0 168 R D gsave 9573 4965 translate 0 0 M
1.21 dup scale -58.8433 0 N
( ) show grestore 10818 5604 M 0 168 R D gsave 10818 4965 translate 0 0 M
1.21 dup scale -58.8433 0 N
( ) show grestore 6707 5604 M 0 84 R D 6805 5604 M 0 84 R D 6889 5604 M
0 84 R D 6961 5604 M 0 84 R D 7025 5604 M 0 84 R D 7457 5604 M 0 84 R D
7676 5604 M 0 84 R D 7832 5604 M 0 84 R D 7952 5604 M 0 84 R D 8051 5604 M
0 84 R D 8134 5604 M 0 84 R D 8207 5604 M 0 84 R D 8270 5604 M 0 84 R D
8702 5604 M 0 84 R D 8922 5604 M 0 84 R D 9077 5604 M 0 84 R D 9198 5604 M
0 84 R D 9297 5604 M 0 84 R D 9380 5604 M 0 84 R D 9452 5604 M 0 84 R D
9516 5604 M 0 84 R D 9948 5604 M 0 84 R D 10167 5604 M 0 84 R D 10323 5604 M
0 84 R D 10444 5604 M 0 84 R D 10542 5604 M 0 84 R D 10626 5604 M 0 84 R D
10698 5604 M 0 84 R D 10761 5604 M 0 84 R D 11193 5604 M 0 84 R D
6707 9800 M 4486 0 R D 7082 9800 M 0 -168 R D 8327 9800 M 0 -168 R D
9573 9800 M 0 -168 R D 10818 9800 M 0 -168 R D 6707 9800 M 0 -84 R D
6805 9800 M 0 -84 R D 6889 9800 M 0 -84 R D 6961 9800 M 0 -84 R D
7025 9800 M 0 -84 R D 7457 9800 M 0 -84 R D 7676 9800 M 0 -84 R D
7832 9800 M 0 -84 R D 7952 9800 M 0 -84 R D 8051 9800 M 0 -84 R D
8134 9800 M 0 -84 R D 8207 9800 M 0 -84 R D 8270 9800 M 0 -84 R D
8702 9800 M 0 -84 R D 8922 9800 M 0 -84 R D 9077 9800 M 0 -84 R D
9198 9800 M 0 -84 R D 9297 9800 M 0 -84 R D 9380 9800 M 0 -84 R D
9452 9800 M 0 -84 R D 9516 9800 M 0 -84 R D 9948 9800 M 0 -84 R D
10167 9800 M 0 -84 R D 10323 9800 M 0 -84 R D 10444 9800 M 0 -84 R D
10542 9800 M 0 -84 R D 10626 9800 M 0 -84 R D 10698 9800 M 0 -84 R D
10761 9800 M 0 -84 R D 11193 9800 M 0 -84 R D 6707 5604 M 0 4196 R D
6707 6176 M 179 0 R D gsave 6572 6006 translate 0 0 M 1.21 dup scale
-117.687 0 N
( ) show grestore 6707 7274 M 179 0 R D gsave 6572 7104 translate 0 0 M
1.21 dup scale -117.687 0 N
( ) show grestore 6707 8372 M 179 0 R D gsave 6572 8202 translate 0 0 M
1.21 dup scale -117.687 0 N
( ) show grestore 6707 9470 M 179 0 R D gsave 6572 9299 translate 0 0 M
1.21 dup scale -117.687 0 N
( ) show grestore 6707 5740 M 89 0 R D 6707 5846 M 89 0 R D 6707 5933 M
89 0 R D 6707 6006 M 89 0 R D 6707 6070 M 89 0 R D 6707 6126 M 89 0 R D
6707 6507 M 89 0 R D 6707 6700 M 89 0 R D 6707 6837 M 89 0 R D 6707 6944 M
89 0 R D 6707 7031 M 89 0 R D 6707 7104 M 89 0 R D 6707 7168 M 89 0 R D
6707 7224 M 89 0 R D 6707 7605 M 89 0 R D 6707 7798 M 89 0 R D 6707 7935 M
89 0 R D 6707 8041 M 89 0 R D 6707 8128 M 89 0 R D 6707 8202 M 89 0 R D
6707 8266 M 89 0 R D 6707 8322 M 89 0 R D 6707 8702 M 89 0 R D 6707 8896 M
89 0 R D 6707 9033 M 89 0 R D 6707 9139 M 89 0 R D 6707 9226 M 89 0 R D
6707 9300 M 89 0 R D 6707 9363 M 89 0 R D 6707 9419 M 89 0 R D 6707 9800 M
89 0 R D 11193 5604 M 0 4196 R D 11193 6176 M -179 0 R D 11193 7274 M
-179 0 R D 11193 8372 M -179 0 R D 11193 9470 M -179 0 R D 11193 5740 M
-89 0 R D 11193 5846 M -89 0 R D 11193 5933 M -89 0 R D 11193 6006 M -89 0 R
D 11193 6070 M -89 0 R D 11193 6126 M -89 0 R D 11193 6507 M -89 0 R D
11193 6700 M -89 0 R D 11193 6837 M -89 0 R D 11193 6944 M -89 0 R D
11193 7031 M -89 0 R D 11193 7104 M -89 0 R D 11193 7168 M -89 0 R D
11193 7224 M -89 0 R D 11193 7605 M -89 0 R D 11193 7798 M -89 0 R D
11193 7935 M -89 0 R D 11193 8041 M -89 0 R D 11193 8128 M -89 0 R D
11193 8202 M -89 0 R D 11193 8266 M -89 0 R D 11193 8322 M -89 0 R D
11193 8702 M -89 0 R D 11193 8896 M -89 0 R D 11193 9033 M -89 0 R D
11193 9139 M -89 0 R D 11193 9226 M -89 0 R D 11193 9300 M -89 0 R D
11193 9363 M -89 0 R D 11193 9419 M -89 0 R D 11193 9800 M -89 0 R D
7082 8924 M 373 -229 R 374 -251 R 374 -275 R 373 -287 R 374 -268 R
374 -284 R 373 -285 R 374 -243 R 374 -285 R 373 -283 R D L1 7082 9309 M
373 -266 R 374 -278 R 374 -294 R 373 -304 R 374 -248 R 374 -311 R 373 -370 R
374 -302 R 374 -229 R 373 -194 R D L2 7082 8955 M 373 -283 R 374 -267 R
374 -297 R 373 -230 R 374 -270 R 374 -321 R 373 -239 R 374 -204 R 374 -366 R
373 0 R D L3 7082 8601 M 373 -250 R 374 -250 R 374 -283 R 373 -190 R
374 -398 R 374 -139 R 373 -301 R 374 -184 R 374 -253 R 373 -50 R D
gsave 7082 6006 translate 0 0 M 1.1 dup scale
(10) show X 192.937 M
%%IncludeResource: font Helvetica
262.467 /Helvetica STDFONT
(12) show X 0 M
%%IncludeResource: font Helvetica
423.333 /Helvetica STDFONT
(h) show X 192.937 M
%%IncludeResource: font Helvetica
262.467 /Helvetica STDFONT
(-1) show X 0 M
%%IncludeResource: font Helvetica
423.333 /Helvetica STDFONT
(M) show CP X -101.051 M
%%IncludeResource: font AvantGarde-Book
262.467 /AvantGarde-Book STDFONT
(O) show M X -58.3193 M
%%IncludeResource: font AvantGarde-Book
186.267 /AvantGarde-Book STDFONT
( \267) show
%%IncludeResource: font Helvetica
186.267 /Helvetica STDFONT grestore
%%IncludeResource: font Helvetica
423.333 /Helvetica STDFONT L0 11193 5604 M 4487 0 R D 11568 5604 M 0 168 R D
gsave 11568 4965 translate 0 0 M 1.21 dup scale -352.04 0 N
(10) show X 192.937 M
%%IncludeResource: font Helvetica
262.467 /Helvetica STDFONT
(-4) show grestore
%%IncludeResource: font Helvetica
423.333 /Helvetica STDFONT 12814 5604 M 0 168 R D
gsave 12814 4965 translate 0 0 M 1.21 dup scale -352.04 0 N
(10) show X 192.937 M
%%IncludeResource: font Helvetica
262.467 /Helvetica STDFONT
(-3) show grestore
%%IncludeResource: font Helvetica
423.333 /Helvetica STDFONT 14060 5604 M 0 168 R D
gsave 14060 4965 translate 0 0 M 1.21 dup scale -352.04 0 N
(10) show X 192.937 M
%%IncludeResource: font Helvetica
262.467 /Helvetica STDFONT
(-2) show grestore
%%IncludeResource: font Helvetica
423.333 /Helvetica STDFONT 15305 5604 M 0 168 R D
gsave 15305 4965 translate 0 0 M 1.21 dup scale -352.04 0 N
(10) show X 192.937 M
%%IncludeResource: font Helvetica
262.467 /Helvetica STDFONT
(-1) show grestore
%%IncludeResource: font Helvetica
423.333 /Helvetica STDFONT 11193 5604 M 0 84 R D 11292 5604 M 0 84 R D
11375 5604 M 0 84 R D 11448 5604 M 0 84 R D 11511 5604 M 0 84 R D
11943 5604 M 0 84 R D 12163 5604 M 0 84 R D 12318 5604 M 0 84 R D
12439 5604 M 0 84 R D 12538 5604 M 0 84 R D 12621 5604 M 0 84 R D
12693 5604 M 0 84 R D 12757 5604 M 0 84 R D 13189 5604 M 0 84 R D
13408 5604 M 0 84 R D 13564 5604 M 0 84 R D 13685 5604 M 0 84 R D
13783 5604 M 0 84 R D 13867 5604 M 0 84 R D 13939 5604 M 0 84 R D
14003 5604 M 0 84 R D 14435 5604 M 0 84 R D 14654 5604 M 0 84 R D
14810 5604 M 0 84 R D 14930 5604 M 0 84 R D 15029 5604 M 0 84 R D
15112 5604 M 0 84 R D 15184 5604 M 0 84 R D 15248 5604 M 0 84 R D
15680 5604 M 0 84 R D 11193 9800 M 4487 0 R D 11568 9800 M 0 -168 R D
12814 9800 M 0 -168 R D 14060 9800 M 0 -168 R D 15305 9800 M 0 -168 R D
11193 9800 M 0 -84 R D 11292 9800 M 0 -84 R D 11375 9800 M 0 -84 R D
11448 9800 M 0 -84 R D 11511 9800 M 0 -84 R D 11943 9800 M 0 -84 R D
12163 9800 M 0 -84 R D 12318 9800 M 0 -84 R D 12439 9800 M 0 -84 R D
12538 9800 M 0 -84 R D 12621 9800 M 0 -84 R D 12693 9800 M 0 -84 R D
12757 9800 M 0 -84 R D 13189 9800 M 0 -84 R D 13408 9800 M 0 -84 R D
13564 9800 M 0 -84 R D 13685 9800 M 0 -84 R D 13783 9800 M 0 -84 R D
13867 9800 M 0 -84 R D 13939 9800 M 0 -84 R D 14003 9800 M 0 -84 R D
14435 9800 M 0 -84 R D 14654 9800 M 0 -84 R D 14810 9800 M 0 -84 R D
14930 9800 M 0 -84 R D 15029 9800 M 0 -84 R D 15112 9800 M 0 -84 R D
15184 9800 M 0 -84 R D 15248 9800 M 0 -84 R D 15680 9800 M 0 -84 R D
11193 5604 M 0 4196 R D 11193 6176 M 180 0 R D
gsave 11059 6006 translate 0 0 M 1.21 dup scale -117.687 0 N
( ) show grestore 11193 7274 M 180 0 R D gsave 11059 7104 translate 0 0 M
1.21 dup scale -117.687 0 N
( ) show grestore 11193 8372 M 180 0 R D gsave 11059 8202 translate 0 0 M
1.21 dup scale -117.687 0 N
( ) show grestore 11193 9470 M 180 0 R D gsave 11059 9299 translate 0 0 M
1.21 dup scale -117.687 0 N
( ) show grestore 11193 5740 M 90 0 R D 11193 5846 M 90 0 R D 11193 5933 M
90 0 R D 11193 6006 M 90 0 R D 11193 6070 M 90 0 R D 11193 6126 M 90 0 R D
11193 6507 M 90 0 R D 11193 6700 M 90 0 R D 11193 6837 M 90 0 R D
11193 6944 M 90 0 R D 11193 7031 M 90 0 R D 11193 7104 M 90 0 R D
11193 7168 M 90 0 R D 11193 7224 M 90 0 R D 11193 7605 M 90 0 R D
11193 7798 M 90 0 R D 11193 7935 M 90 0 R D 11193 8041 M 90 0 R D
11193 8128 M 90 0 R D 11193 8202 M 90 0 R D 11193 8266 M 90 0 R D
11193 8322 M 90 0 R D 11193 8702 M 90 0 R D 11193 8896 M 90 0 R D
11193 9033 M 90 0 R D 11193 9139 M 90 0 R D 11193 9226 M 90 0 R D
11193 9300 M 90 0 R D 11193 9363 M 90 0 R D 11193 9419 M 90 0 R D
11193 9800 M 90 0 R D 15680 5604 M 0 4196 R D 15680 6176 M -179 0 R D
15680 7274 M -179 0 R D 15680 8372 M -179 0 R D 15680 9470 M -179 0 R D
15680 5740 M -90 0 R D 15680 5846 M -90 0 R D 15680 5933 M -90 0 R D
15680 6006 M -90 0 R D 15680 6070 M -90 0 R D 15680 6126 M -90 0 R D
15680 6507 M -90 0 R D 15680 6700 M -90 0 R D 15680 6837 M -90 0 R D
15680 6944 M -90 0 R D 15680 7031 M -90 0 R D 15680 7104 M -90 0 R D
15680 7168 M -90 0 R D 15680 7224 M -90 0 R D 15680 7605 M -90 0 R D
15680 7798 M -90 0 R D 15680 7935 M -90 0 R D 15680 8041 M -90 0 R D
15680 8128 M -90 0 R D 15680 8202 M -90 0 R D 15680 8266 M -90 0 R D
15680 8322 M -90 0 R D 15680 8702 M -90 0 R D 15680 8896 M -90 0 R D
15680 9033 M -90 0 R D 15680 9139 M -90 0 R D 15680 9226 M -90 0 R D
15680 9300 M -90 0 R D 15680 9363 M -90 0 R D 15680 9419 M -90 0 R D
15680 9800 M -90 0 R D 11568 9035 M 374 -233 R 374 -260 R 373 -264 R
374 -297 R 374 -250 R 373 -291 R 374 -295 R 374 -283 R 374 -311 R 373 -189 R
D L1 11568 9403 M 374 -280 R 374 -264 R 373 -306 R 374 -298 R 374 -222 R
373 -321 R 374 -399 R 374 -243 R 374 -244 R 373 -167 R D L2 11568 9055 M
374 -250 R 374 -301 R 373 -290 R 374 -229 R 374 -270 R 373 -264 R 374 -341 R
374 -233 R 374 -107 R 373 -164 R D L3 11568 8762 M 374 -267 R 374 -248 R
373 -309 R 374 -229 R 374 -240 R 373 -295 R 374 -224 R 374 -200 R 374 -117 R
373 -120 R D gsave 11568 6006 translate 0 0 M 1.1 dup scale
(10) show X 192.937 M
%%IncludeResource: font Helvetica
262.467 /Helvetica STDFONT
(13) show X 0 M
%%IncludeResource: font Helvetica
423.333 /Helvetica STDFONT
(h) show X 192.937 M
%%IncludeResource: font Helvetica
262.467 /Helvetica STDFONT
(-1) show X 0 M
%%IncludeResource: font Helvetica
423.333 /Helvetica STDFONT
(M) show CP X -101.051 M
%%IncludeResource: font AvantGarde-Book
262.467 /AvantGarde-Book STDFONT
(O) show M X -58.3193 M
%%IncludeResource: font AvantGarde-Book
186.267 /AvantGarde-Book STDFONT
( \267) show
%%IncludeResource: font Helvetica
186.267 /Helvetica STDFONT grestore
%%IncludeResource: font Helvetica
423.333 /Helvetica STDFONT L0 2220 1408 M 4487 0 R D 2595 1408 M 0 168 R D
gsave 2595 769 translate 0 0 M 1.21 dup scale -352.04 0 N
(10) show X 192.937 M
%%IncludeResource: font Helvetica
262.467 /Helvetica STDFONT
(-4) show grestore
%%IncludeResource: font Helvetica
423.333 /Helvetica STDFONT 3841 1408 M 0 168 R D
gsave 3841 769 translate 0 0 M 1.21 dup scale -352.04 0 N
(10) show X 192.937 M
%%IncludeResource: font Helvetica
262.467 /Helvetica STDFONT
(-3) show grestore
%%IncludeResource: font Helvetica
423.333 /Helvetica STDFONT 5086 1408 M 0 168 R D
gsave 5086 769 translate 0 0 M 1.21 dup scale -352.04 0 N
(10) show X 192.937 M
%%IncludeResource: font Helvetica
262.467 /Helvetica STDFONT
(-2) show grestore
%%IncludeResource: font Helvetica
423.333 /Helvetica STDFONT 6332 1408 M 0 168 R D
gsave 6332 769 translate 0 0 M 1.21 dup scale -352.04 0 N
(10) show X 192.937 M
%%IncludeResource: font Helvetica
262.467 /Helvetica STDFONT
(-1) show grestore
%%IncludeResource: font Helvetica
423.333 /Helvetica STDFONT 2220 1408 M 0 84 R D 2319 1408 M 0 84 R D
2402 1408 M 0 84 R D 2474 1408 M 0 84 R D 2538 1408 M 0 84 R D 2970 1408 M
0 84 R D 3189 1408 M 0 84 R D 3345 1408 M 0 84 R D 3466 1408 M 0 84 R D
3564 1408 M 0 84 R D 3648 1408 M 0 84 R D 3720 1408 M 0 84 R D 3784 1408 M
0 84 R D 4216 1408 M 0 84 R D 4435 1408 M 0 84 R D 4590 1408 M 0 84 R D
4711 1408 M 0 84 R D 4810 1408 M 0 84 R D 4893 1408 M 0 84 R D 4965 1408 M
0 84 R D 5029 1408 M 0 84 R D 5461 1408 M 0 84 R D 5680 1408 M 0 84 R D
5836 1408 M 0 84 R D 5957 1408 M 0 84 R D 6055 1408 M 0 84 R D 6139 1408 M
0 84 R D 6211 1408 M 0 84 R D 6275 1408 M 0 84 R D 6707 1408 M 0 84 R D
2220 5604 M 4487 0 R D 2595 5604 M 0 -168 R D 3841 5604 M 0 -168 R D
5086 5604 M 0 -168 R D 6332 5604 M 0 -168 R D 2220 5604 M 0 -84 R D
2319 5604 M 0 -84 R D 2402 5604 M 0 -84 R D 2474 5604 M 0 -84 R D
2538 5604 M 0 -84 R D 2970 5604 M 0 -84 R D 3189 5604 M 0 -84 R D
3345 5604 M 0 -84 R D 3466 5604 M 0 -84 R D 3564 5604 M 0 -84 R D
3648 5604 M 0 -84 R D 3720 5604 M 0 -84 R D 3784 5604 M 0 -84 R D
4216 5604 M 0 -84 R D 4435 5604 M 0 -84 R D 4590 5604 M 0 -84 R D
4711 5604 M 0 -84 R D 4810 5604 M 0 -84 R D 4893 5604 M 0 -84 R D
4965 5604 M 0 -84 R D 5029 5604 M 0 -84 R D 5461 5604 M 0 -84 R D
5680 5604 M 0 -84 R D 5836 5604 M 0 -84 R D 5957 5604 M 0 -84 R D
6055 5604 M 0 -84 R D 6139 5604 M 0 -84 R D 6211 5604 M 0 -84 R D
6275 5604 M 0 -84 R D 6707 5604 M 0 -84 R D 2220 1408 M 0 4196 R D
2220 1980 M 179 0 R D gsave 2086 1810 translate 0 0 M 1.21 dup scale
-704.08 0 N
(10) show X 192.937 M
%%IncludeResource: font Helvetica
262.467 /Helvetica STDFONT
(-1) show grestore
%%IncludeResource: font Helvetica
423.333 /Helvetica STDFONT 2220 3078 M 179 0 R D
gsave 2086 2908 translate 0 0 M 1.21 dup scale -235.373 0 N
(1) show grestore 2220 4176 M 179 0 R D gsave 2086 4005 translate 0 0 M
1.21 dup scale -470.747 0 N
(10) show grestore 2220 5274 M 179 0 R D gsave 2086 5103 translate 0 0 M
1.21 dup scale -616.678 0 N
(10) show X 192.937 M
%%IncludeResource: font Helvetica
262.467 /Helvetica STDFONT
(2) show grestore
%%IncludeResource: font Helvetica
423.333 /Helvetica STDFONT 2220 1544 M 90 0 R D 2220 1650 M 90 0 R D
2220 1737 M 90 0 R D 2220 1810 M 90 0 R D 2220 1874 M 90 0 R D 2220 1930 M
90 0 R D 2220 2311 M 90 0 R D 2220 2504 M 90 0 R D 2220 2641 M 90 0 R D
2220 2748 M 90 0 R D 2220 2835 M 90 0 R D 2220 2908 M 90 0 R D 2220 2972 M
90 0 R D 2220 3028 M 90 0 R D 2220 3409 M 90 0 R D 2220 3602 M 90 0 R D
2220 3739 M 90 0 R D 2220 3845 M 90 0 R D 2220 3932 M 90 0 R D 2220 4006 M
90 0 R D 2220 4069 M 90 0 R D 2220 4126 M 90 0 R D 2220 4506 M 90 0 R D
2220 4700 M 90 0 R D 2220 4837 M 90 0 R D 2220 4943 M 90 0 R D 2220 5030 M
90 0 R D 2220 5104 M 90 0 R D 2220 5167 M 90 0 R D 2220 5223 M 90 0 R D
2220 5604 M 90 0 R D 6707 1408 M 0 4196 R D 6707 1980 M -180 0 R D
6707 3078 M -180 0 R D 6707 4176 M -180 0 R D 6707 5274 M -180 0 R D
6707 1544 M -90 0 R D 6707 1650 M -90 0 R D 6707 1737 M -90 0 R D
6707 1810 M -90 0 R D 6707 1874 M -90 0 R D 6707 1930 M -90 0 R D
6707 2311 M -90 0 R D 6707 2504 M -90 0 R D 6707 2641 M -90 0 R D
6707 2748 M -90 0 R D 6707 2835 M -90 0 R D 6707 2908 M -90 0 R D
6707 2972 M -90 0 R D 6707 3028 M -90 0 R D 6707 3409 M -90 0 R D
6707 3602 M -90 0 R D 6707 3739 M -90 0 R D 6707 3845 M -90 0 R D
6707 3932 M -90 0 R D 6707 4006 M -90 0 R D 6707 4069 M -90 0 R D
6707 4126 M -90 0 R D 6707 4506 M -90 0 R D 6707 4700 M -90 0 R D
6707 4837 M -90 0 R D 6707 4943 M -90 0 R D 6707 5030 M -90 0 R D
6707 5104 M -90 0 R D 6707 5167 M -90 0 R D 6707 5223 M -90 0 R D
6707 5604 M -90 0 R D 2595 4957 M 374 -220 R 373 -256 R 374 -262 R
374 -287 R 373 -287 R 374 -262 R 374 -319 R 373 -198 R 374 -304 R 374 -257 R
D L1 2595 5301 M 374 -274 R 373 -252 R 374 -283 R 374 -298 R 373 -262 R
374 -254 R 374 -325 R 373 -297 R 374 -375 R 374 -107 R D L2 2595 5006 M
374 -260 R 373 -262 R 374 -291 R 374 -269 R 373 -238 R 374 -213 R 374 -389 R
373 -179 R 374 -209 R 374 -122 R D L3 2595 4745 M 374 -242 R 373 -261 R
374 -282 R 374 -296 R 373 -188 R 374 -277 R 374 -285 R 373 -96 R 374 -308 R
374 -160 R D gsave 2595 1810 translate 0 0 M 1.1 dup scale
(10) show X 192.937 M
%%IncludeResource: font Helvetica
262.467 /Helvetica STDFONT
(14) show X 0 M
%%IncludeResource: font Helvetica
423.333 /Helvetica STDFONT
(h) show X 192.937 M
%%IncludeResource: font Helvetica
262.467 /Helvetica STDFONT
(-1) show X 0 M
%%IncludeResource: font Helvetica
423.333 /Helvetica STDFONT
(M) show CP X -101.051 M
%%IncludeResource: font AvantGarde-Book
262.467 /AvantGarde-Book STDFONT
(O) show M X -58.3193 M
%%IncludeResource: font AvantGarde-Book
186.267 /AvantGarde-Book STDFONT
( \267) show
%%IncludeResource: font Helvetica
186.267 /Helvetica STDFONT grestore
%%IncludeResource: font Helvetica
423.333 /Helvetica STDFONT L0 6707 1408 M 4486 0 R D 7082 1408 M 0 168 R D
gsave 7082 769 translate 0 0 M 1.21 dup scale -352.04 0 N
(10) show X 192.937 M
%%IncludeResource: font Helvetica
262.467 /Helvetica STDFONT
(-4) show grestore
%%IncludeResource: font Helvetica
423.333 /Helvetica STDFONT 8327 1408 M 0 168 R D
gsave 8327 769 translate 0 0 M 1.21 dup scale -352.04 0 N
(10) show X 192.937 M
%%IncludeResource: font Helvetica
262.467 /Helvetica STDFONT
(-3) show grestore
%%IncludeResource: font Helvetica
423.333 /Helvetica STDFONT 9573 1408 M 0 168 R D
gsave 9573 769 translate 0 0 M 1.21 dup scale -352.04 0 N
(10) show X 192.937 M
%%IncludeResource: font Helvetica
262.467 /Helvetica STDFONT
(-2) show grestore
%%IncludeResource: font Helvetica
423.333 /Helvetica STDFONT 10818 1408 M 0 168 R D
gsave 10818 769 translate 0 0 M 1.21 dup scale -352.04 0 N
(10) show X 192.937 M
%%IncludeResource: font Helvetica
262.467 /Helvetica STDFONT
(-1) show grestore
%%IncludeResource: font Helvetica
423.333 /Helvetica STDFONT 6707 1408 M 0 84 R D 6805 1408 M 0 84 R D
6889 1408 M 0 84 R D 6961 1408 M 0 84 R D 7025 1408 M 0 84 R D 7457 1408 M
0 84 R D 7676 1408 M 0 84 R D 7832 1408 M 0 84 R D 7952 1408 M 0 84 R D
8051 1408 M 0 84 R D 8134 1408 M 0 84 R D 8207 1408 M 0 84 R D 8270 1408 M
0 84 R D 8702 1408 M 0 84 R D 8922 1408 M 0 84 R D 9077 1408 M 0 84 R D
9198 1408 M 0 84 R D 9297 1408 M 0 84 R D 9380 1408 M 0 84 R D 9452 1408 M
0 84 R D 9516 1408 M 0 84 R D 9948 1408 M 0 84 R D 10167 1408 M 0 84 R D
10323 1408 M 0 84 R D 10444 1408 M 0 84 R D 10542 1408 M 0 84 R D
10626 1408 M 0 84 R D 10698 1408 M 0 84 R D 10761 1408 M 0 84 R D
11193 1408 M 0 84 R D 6707 5604 M 4486 0 R D 7082 5604 M 0 -168 R D
8327 5604 M 0 -168 R D 9573 5604 M 0 -168 R D 10818 5604 M 0 -168 R D
6707 5604 M 0 -84 R D 6805 5604 M 0 -84 R D 6889 5604 M 0 -84 R D
6961 5604 M 0 -84 R D 7025 5604 M 0 -84 R D 7457 5604 M 0 -84 R D
7676 5604 M 0 -84 R D 7832 5604 M 0 -84 R D 7952 5604 M 0 -84 R D
8051 5604 M 0 -84 R D 8134 5604 M 0 -84 R D 8207 5604 M 0 -84 R D
8270 5604 M 0 -84 R D 8702 5604 M 0 -84 R D 8922 5604 M 0 -84 R D
9077 5604 M 0 -84 R D 9198 5604 M 0 -84 R D 9297 5604 M 0 -84 R D
9380 5604 M 0 -84 R D 9452 5604 M 0 -84 R D 9516 5604 M 0 -84 R D
9948 5604 M 0 -84 R D 10167 5604 M 0 -84 R D 10323 5604 M 0 -84 R D
10444 5604 M 0 -84 R D 10542 5604 M 0 -84 R D 10626 5604 M 0 -84 R D
10698 5604 M 0 -84 R D 10761 5604 M 0 -84 R D 11193 5604 M 0 -84 R D
6707 1408 M 0 4196 R D 6707 1980 M 179 0 R D gsave 6572 1810 translate 0 0 M
1.21 dup scale -117.687 0 N
( ) show grestore 6707 3078 M 179 0 R D gsave 6572 2908 translate 0 0 M
1.21 dup scale -117.687 0 N
( ) show grestore 6707 4176 M 179 0 R D gsave 6572 4005 translate 0 0 M
1.21 dup scale -117.687 0 N
( ) show grestore 6707 5274 M 179 0 R D gsave 6572 5103 translate 0 0 M
1.21 dup scale -117.687 0 N
( ) show grestore 6707 1544 M 89 0 R D 6707 1650 M 89 0 R D 6707 1737 M
89 0 R D 6707 1810 M 89 0 R D 6707 1874 M 89 0 R D 6707 1930 M 89 0 R D
6707 2311 M 89 0 R D 6707 2504 M 89 0 R D 6707 2641 M 89 0 R D 6707 2748 M
89 0 R D 6707 2835 M 89 0 R D 6707 2908 M 89 0 R D 6707 2972 M 89 0 R D
6707 3028 M 89 0 R D 6707 3409 M 89 0 R D 6707 3602 M 89 0 R D 6707 3739 M
89 0 R D 6707 3845 M 89 0 R D 6707 3932 M 89 0 R D 6707 4006 M 89 0 R D
6707 4069 M 89 0 R D 6707 4126 M 89 0 R D 6707 4506 M 89 0 R D 6707 4700 M
89 0 R D 6707 4837 M 89 0 R D 6707 4943 M 89 0 R D 6707 5030 M 89 0 R D
6707 5104 M 89 0 R D 6707 5167 M 89 0 R D 6707 5223 M 89 0 R D 6707 5604 M
89 0 R D 11193 1408 M 0 4196 R D 11193 1980 M -179 0 R D 11193 3078 M
-179 0 R D 11193 4176 M -179 0 R D 11193 5274 M -179 0 R D 11193 1544 M
-89 0 R D 11193 1650 M -89 0 R D 11193 1737 M -89 0 R D 11193 1810 M -89 0 R
D 11193 1874 M -89 0 R D 11193 1930 M -89 0 R D 11193 2311 M -89 0 R D
11193 2504 M -89 0 R D 11193 2641 M -89 0 R D 11193 2748 M -89 0 R D
11193 2835 M -89 0 R D 11193 2908 M -89 0 R D 11193 2972 M -89 0 R D
11193 3028 M -89 0 R D 11193 3409 M -89 0 R D 11193 3602 M -89 0 R D
11193 3739 M -89 0 R D 11193 3845 M -89 0 R D 11193 3932 M -89 0 R D
11193 4006 M -89 0 R D 11193 4069 M -89 0 R D 11193 4126 M -89 0 R D
11193 4506 M -89 0 R D 11193 4700 M -89 0 R D 11193 4837 M -89 0 R D
11193 4943 M -89 0 R D 11193 5030 M -89 0 R D 11193 5104 M -89 0 R D
11193 5167 M -89 0 R D 11193 5223 M -89 0 R D 11193 5604 M -89 0 R D
7082 5092 M 373 -209 R 374 -246 R 374 -264 R 373 -275 R 374 -272 R
374 -273 R 373 -246 R 374 -298 R 374 -287 R 373 -254 R D L1 7082 5422 M
373 -262 R 374 -274 R 374 -256 R 373 -288 R 374 -246 R 374 -318 R 373 -294 R
374 -249 R 374 -266 R 373 -215 R D L2 7082 5181 M 373 -259 R 374 -252 R
374 -286 R 373 -253 R 374 -289 R 374 -272 R 373 -274 R 374 -254 R 374 -331 R
373 -63 R D L3 7082 4965 M 373 -243 R 374 -270 R 374 -277 R 373 -274 R
374 -266 R 374 -237 R 373 -307 R 374 -207 R 374 -220 R 373 -154 R D
gsave 7082 1810 translate 0 0 M 1.1 dup scale
(10) show X 192.937 M
%%IncludeResource: font Helvetica
262.467 /Helvetica STDFONT
(15) show X 0 M
%%IncludeResource: font Helvetica
423.333 /Helvetica STDFONT
(h) show X 192.937 M
%%IncludeResource: font Helvetica
262.467 /Helvetica STDFONT
(-1) show X 0 M
%%IncludeResource: font Helvetica
423.333 /Helvetica STDFONT
(M) show CP X -101.051 M
%%IncludeResource: font AvantGarde-Book
262.467 /AvantGarde-Book STDFONT
(O) show M X -58.3193 M
%%IncludeResource: font AvantGarde-Book
186.267 /AvantGarde-Book STDFONT
( \267) show
%%IncludeResource: font Helvetica
186.267 /Helvetica STDFONT grestore
%%IncludeResource: font Helvetica
423.333 /Helvetica STDFONT 30 setlinewidth L1 12061 3852 M 90 0 R 90 0 R
89 0 R 90 0 R 90 0 R 90 0 R 90 0 R 89 0 R 90 0 R D L2 12061 3468 M 90 0 R
90 0 R 89 0 R 90 0 R 90 0 R 90 0 R 90 0 R 89 0 R 90 0 R D L3 12061 3084 M
90 0 R 90 0 R 89 0 R 90 0 R 90 0 R 90 0 R 90 0 R 89 0 R 90 0 R D L0
12061 2700 M 90 0 R 90 0 R 89 0 R 90 0 R 90 0 R 90 0 R 90 0 R 89 0 R 90 0 R
D gsave 12959 3690 translate 0 0 M 1.1 dup scale
(A=1.) show grestore gsave 12959 3306 translate 0 0 M 1.1 dup scale
(A=3.5) show grestore gsave 12959 2922 translate 0 0 M 1.1 dup scale
(A=10.) show grestore gsave 12959 2538 translate 0 0 M 1.1 dup scale
(SIM) show grestore
%%PageTrailer
end
%%PageResources: font Helvetica
%%+ font AvantGarde-Book
%%Trailer
%%Pages: 1
%%DocumentNeededResources: font Helvetica
%%+ font AvantGarde-Book
%%EOF
