\relax 
\newlabel{firstpage}{{}{1}}
\@writefile{toc}{\contentsline {section}{\numberline {1}Results}{1}}
\newlabel{lastpage}{{1}{1}}
\@writefile{lof}{\contentsline {figure}{\numberline {1}{\ignorespaces Subhalo mass function in different host halo. As indicated, the host halo mass at $z=0$ are $M(z=0)=10^{11}, 10^{12}, 10^{13}, 10^{14}, 10^{15}h^{-1}M_{\odot }$, respectively. In each panel, the solid line shows the evolved subhalo mass function from Giocoli et al. (2008); the other lines are the model results with tidal stripping efficiency $A=1, 3.5, 10$. In all haloes, when $A=3.5$, the model results agree well the simulation. }}{2}}
\newlabel{fig:mfunc}{{1}{2}}
\@writefile{lof}{\contentsline {figure}{\numberline {2}{\ignorespaces Mass evolution of subhalo in different host halo. The subhalo mass is normalized with the present-day host halo mass. There is no remarkable difference. }}{3}}
\newlabel{fig:mr1}{{2}{3}}
\@writefile{lof}{\contentsline {figure}{\numberline {3}{\ignorespaces Mass evolution of subhalo in different host halo. The subhalo mass is normalized with its initial mass when it was accreted by the host halo. There is clear difference that the subhalo mass decrease more rapidly in smaller host halo.}}{3}}
\newlabel{fig:mr2}{{3}{3}}
