%!PS-Adobe-3.0 EPSF-3.0
%%BoundingBox: 0 0 510 425
%%Title: Graphics produced by IDL
%%For: jlgan@Hserver, /home/jlgan/work/phoenix
%%Creator: IDL Version 7.1.1 (linux x86_64 m64)
%%CreationDate: Thu Jul 24 11:00:09 2014
%%DocumentData: Clean7bit
%%Requirements: color
%%LanguageLevel: 1
%%PageOrder: Ascend
%%Pages: (atend)
%%DocumentNeededResources: (atend)
%%EndComments
%%BeginProlog
%+ prolog.ps -- Prolog for IDL generated PostScript files
%+ Copyright (c) 1988-2009 ITT Visual Information Solutions. All Rights Reserved.
%v 5
/$IDL_DICT 40 dict def $IDL_DICT begin /bdef { bind def } bind def /C
{currentpoint newpath moveto} bdef /CP {currentpoint} bdef /D {currentpoint
stroke moveto} bdef /F {closepath fill} bdef /K { setgray } bdef /M {moveto}
bdef /N {rmoveto} bdef /P {lineto} bdef /R {rlineto} bdef /S {gsave show
grestore} bdef /X {currentpoint pop} bdef /Z {gsave currentpoint lineto 20
setlinewidth 1 setlinecap stroke grestore} bdef /L0 {[] 0 setdash} bdef /L1
{[40 100] 0 setdash} bdef /L2 {[200 200] 0 setdash} bdef /L3 {[200 100 50
100] 0 setdash} bdef /L4 {[300 100 50 100 50 100 50 100] 0 setdash} bdef /L5
{[400 200] 0 setdash} bdef /STDFONT { findfont exch scalefont setfont } bdef
/ISOFONT { findfont dup length dict begin { 1 index /FID ne {def} {pop pop}
ifelse } forall /Encoding ISOLatin1Encoding def currentdict end /idltmpfont
exch definefont exch scalefont setfont } bdef /ISOBULLET { gsave /Helvetica
findfont exch scalefont setfont (\267) show currentpoint grestore moveto}
bdef /MITERLIMIT { 2.5 setmiterlimit } bdef end
%%EndProlog
%%Page: 0 1
%%PageRequirements: color
%%PageResources: (atend)
%%PageOrientation: Portrait
%%PageBoundingBox: 0 0 510 425
%%BeginPageSetup
$IDL_DICT begin 0.0283465 dup scale MITERLIMIT
%%IncludeResource: font Helvetica
423.333 /Helvetica STDFONT
%%EndPageSetup
0.000 0.000 0.000 setrgbcolor gsave 9777 352 translate 0 0 M -1242.38 0 N
(M) show X -101.051 M
%%IncludeResource: font Helvetica
262.467 /Helvetica STDFONT
(halo) show X 0 M
%%IncludeResource: font Helvetica
423.333 /Helvetica STDFONT
( / \(h) show X 192.937 M
%%IncludeResource: font Helvetica
262.467 /Helvetica STDFONT
(-1) show X 0 M
%%IncludeResource: font Helvetica
423.333 /Helvetica STDFONT
(M) show CP X -101.051 M
%%IncludeResource: font AvantGarde-Book
262.467 /AvantGarde-Book STDFONT
(O) show M X -58.3193 M
%%IncludeResource: font AvantGarde-Book
186.267 /AvantGarde-Book STDFONT
( \267) show X 0 M
%%IncludeResource: font Helvetica
423.333 /Helvetica STDFONT
(\)) show grestore gsave 888 7852 translate 0 0 M 90 rotate -1777.56 0 N
(dn/dlnM / \(h) show X 192.937 M
%%IncludeResource: font Helvetica
262.467 /Helvetica STDFONT
(3) show X 0 M
%%IncludeResource: font Helvetica
423.333 /Helvetica STDFONT
(Mpc) show X 192.937 M
%%IncludeResource: font Helvetica
262.467 /Helvetica STDFONT
(-3) show X 0 M
%%IncludeResource: font Helvetica
423.333 /Helvetica STDFONT
(\)) show grestore 30 setlinewidth L0 2220 7852 M 7557 0 R D 3471 7852 M
0 193 R D gsave 3471 7324 translate 0 0 M -58.8433 0 N
( ) show grestore 4735 7852 M 0 193 R D gsave 4735 7324 translate 0 0 M
-58.8433 0 N
( ) show grestore 5999 7852 M 0 193 R D gsave 5999 7324 translate 0 0 M
-58.8433 0 N
( ) show grestore 7262 7852 M 0 193 R D gsave 7262 7324 translate 0 0 M
-58.8433 0 N
( ) show grestore 8526 7852 M 0 193 R D gsave 8526 7324 translate 0 0 M
-58.8433 0 N
( ) show grestore 2334 7852 M 0 97 R D 2460 7852 M 0 97 R D 2587 7852 M
0 97 R D 2713 7852 M 0 97 R D 2839 7852 M 0 97 R D 2966 7852 M 0 97 R D
3092 7852 M 0 97 R D 3218 7852 M 0 97 R D 3345 7852 M 0 97 R D 3598 7852 M
0 97 R D 3724 7852 M 0 97 R D 3850 7852 M 0 97 R D 3977 7852 M 0 97 R D
4103 7852 M 0 97 R D 4229 7852 M 0 97 R D 4356 7852 M 0 97 R D 4482 7852 M
0 97 R D 4609 7852 M 0 97 R D 4861 7852 M 0 97 R D 4988 7852 M 0 97 R D
5114 7852 M 0 97 R D 5240 7852 M 0 97 R D 5367 7852 M 0 97 R D 5493 7852 M
0 97 R D 5619 7852 M 0 97 R D 5746 7852 M 0 97 R D 5872 7852 M 0 97 R D
6125 7852 M 0 97 R D 6251 7852 M 0 97 R D 6378 7852 M 0 97 R D 6504 7852 M
0 97 R D 6630 7852 M 0 97 R D 6757 7852 M 0 97 R D 6883 7852 M 0 97 R D
7010 7852 M 0 97 R D 7136 7852 M 0 97 R D 7389 7852 M 0 97 R D 7515 7852 M
0 97 R D 7641 7852 M 0 97 R D 7768 7852 M 0 97 R D 7894 7852 M 0 97 R D
8021 7852 M 0 97 R D 8147 7852 M 0 97 R D 8273 7852 M 0 97 R D 8400 7852 M
0 97 R D 8652 7852 M 0 97 R D 8779 7852 M 0 97 R D 8905 7852 M 0 97 R D
9032 7852 M 0 97 R D 9158 7852 M 0 97 R D 9284 7852 M 0 97 R D 9411 7852 M
0 97 R D 9537 7852 M 0 97 R D 9663 7852 M 0 97 R D 2220 14296 M 7557 0 R D
3471 14296 M 0 -193 R D 4735 14296 M 0 -193 R D 5999 14296 M 0 -193 R D
7262 14296 M 0 -193 R D 8526 14296 M 0 -193 R D 2334 14296 M 0 -97 R D
2460 14296 M 0 -97 R D 2587 14296 M 0 -97 R D 2713 14296 M 0 -97 R D
2839 14296 M 0 -97 R D 2966 14296 M 0 -97 R D 3092 14296 M 0 -97 R D
3218 14296 M 0 -97 R D 3345 14296 M 0 -97 R D 3598 14296 M 0 -97 R D
3724 14296 M 0 -97 R D 3850 14296 M 0 -97 R D 3977 14296 M 0 -97 R D
4103 14296 M 0 -97 R D 4229 14296 M 0 -97 R D 4356 14296 M 0 -97 R D
4482 14296 M 0 -97 R D 4609 14296 M 0 -97 R D 4861 14296 M 0 -97 R D
4988 14296 M 0 -97 R D 5114 14296 M 0 -97 R D 5240 14296 M 0 -97 R D
5367 14296 M 0 -97 R D 5493 14296 M 0 -97 R D 5619 14296 M 0 -97 R D
5746 14296 M 0 -97 R D 5872 14296 M 0 -97 R D 6125 14296 M 0 -97 R D
6251 14296 M 0 -97 R D 6378 14296 M 0 -97 R D 6504 14296 M 0 -97 R D
6630 14296 M 0 -97 R D 6757 14296 M 0 -97 R D 6883 14296 M 0 -97 R D
7010 14296 M 0 -97 R D 7136 14296 M 0 -97 R D 7389 14296 M 0 -97 R D
7515 14296 M 0 -97 R D 7641 14296 M 0 -97 R D 7768 14296 M 0 -97 R D
7894 14296 M 0 -97 R D 8021 14296 M 0 -97 R D 8147 14296 M 0 -97 R D
8273 14296 M 0 -97 R D 8400 14296 M 0 -97 R D 8652 14296 M 0 -97 R D
8779 14296 M 0 -97 R D 8905 14296 M 0 -97 R D 9032 14296 M 0 -97 R D
9158 14296 M 0 -97 R D 9284 14296 M 0 -97 R D 9411 14296 M 0 -97 R D
9537 14296 M 0 -97 R D 9663 14296 M 0 -97 R D 2220 7852 M 0 6444 R D
2220 8986 M 227 0 R D gsave 2109 8845 translate 0 0 M -704.08 0 N
(10) show X 192.937 M
%%IncludeResource: font Helvetica
262.467 /Helvetica STDFONT
(-4) show grestore
%%IncludeResource: font Helvetica
423.333 /Helvetica STDFONT 2220 10321 M 227 0 R D
gsave 2109 10181 translate 0 0 M -704.08 0 N
(10) show X 192.937 M
%%IncludeResource: font Helvetica
262.467 /Helvetica STDFONT
(-2) show grestore
%%IncludeResource: font Helvetica
423.333 /Helvetica STDFONT 2220 11656 M 227 0 R D
gsave 2109 11516 translate 0 0 M -616.678 0 N
(10) show X 192.937 M
%%IncludeResource: font Helvetica
262.467 /Helvetica STDFONT
(0) show grestore
%%IncludeResource: font Helvetica
423.333 /Helvetica STDFONT 2220 12992 M 227 0 R D
gsave 2109 12851 translate 0 0 M -616.678 0 N
(10) show X 192.937 M
%%IncludeResource: font Helvetica
262.467 /Helvetica STDFONT
(2) show grestore
%%IncludeResource: font Helvetica
423.333 /Helvetica STDFONT 2220 8319 M 113 0 R D 2220 9654 M 113 0 R D
2220 10989 M 113 0 R D 2220 12324 M 113 0 R D 2220 13659 M 113 0 R D
9777 7852 M 0 6444 R D 9777 8986 M -227 0 R D 9777 10321 M -227 0 R D
9777 11656 M -227 0 R D 9777 12992 M -227 0 R D 9777 8319 M -113 0 R D
9777 9654 M -113 0 R D 9777 10989 M -113 0 R D 9777 12324 M -113 0 R D
9777 13659 M -113 0 R D 0.255 0.255 0.255 setrgbcolor 3852 12275 M 421 510 R
421 -179 R 421 -153 R 422 -136 R 421 -315 R 421 -291 R 421 -92 R 421 -402 R
422 -201 R D 1.000 0.000 0.706 setrgbcolor 4273 12845 M 421 -125 R
421 -134 R 422 -203 R 421 -258 R 421 -239 R 421 -190 R 421 -141 R 422 -602 R
421 0 R 421 200 R D 0.506 0.000 0.000 setrgbcolor 3852 12598 M 421 316 R
421 -173 R 421 -201 R 422 -216 R 421 -226 R 421 -118 R 421 -341 R D
7643 11036 M 421 201 R 421 0 R D 1.000 0.349 0.000 setrgbcolor 3852 12333 M
421 563 R 421 -150 R 421 -181 R 422 -99 R 421 -297 R 421 -349 R 421 -117 R
421 -104 R 422 -564 R 421 0 R 421 201 R D 0.000 0.549 0.000 setrgbcolor
3852 12755 M 421 126 R 421 -171 R 421 -198 R 422 -202 R 421 -217 R
421 -150 R 421 -259 R 421 -118 R 422 -318 R 421 0 R D
0.000 0.514 1.000 setrgbcolor 4273 12745 M 421 -83 R 421 -152 R 422 -194 R
421 -207 R 421 -175 R 421 -211 R 421 -245 R 422 -201 R D
0.000 0.000 1.000 setrgbcolor 4273 12201 M 421 533 R 421 -150 R 422 -169 R
421 -208 R 421 -156 R 421 -252 R 421 -201 R 422 -140 R 421 -603 R 421 402 R
421 -201 R D 0.588 0.000 0.588 setrgbcolor 4273 12435 M 421 237 R 421 -139 R
422 -114 R 421 -241 R 421 -268 R 421 -178 R 421 -201 R 422 -266 R 421 -401 R
421 0 R D 0.000 1.000 1.000 setrgbcolor 4694 12382 M 421 101 R 422 -200 R
421 -125 R 421 -175 R 421 -240 R 421 -250 R 422 -451 R 421 -402 R 421 402 R
421 -402 R D 0.000 0.000 0.000 setrgbcolor 9777 7852 M 7557 0 R D
11028 7852 M 0 193 R D gsave 11028 7324 translate 0 0 M -58.8433 0 N
( ) show grestore 12292 7852 M 0 193 R D gsave 12292 7324 translate 0 0 M
-58.8433 0 N
( ) show grestore 13556 7852 M 0 193 R D gsave 13556 7324 translate 0 0 M
-58.8433 0 N
( ) show grestore 14819 7852 M 0 193 R D gsave 14819 7324 translate 0 0 M
-58.8433 0 N
( ) show grestore 16083 7852 M 0 193 R D gsave 16083 7324 translate 0 0 M
-58.8433 0 N
( ) show grestore 9891 7852 M 0 97 R D 10017 7852 M 0 97 R D 10144 7852 M
0 97 R D 10270 7852 M 0 97 R D 10396 7852 M 0 97 R D 10523 7852 M 0 97 R D
10649 7852 M 0 97 R D 10775 7852 M 0 97 R D 10902 7852 M 0 97 R D
11155 7852 M 0 97 R D 11281 7852 M 0 97 R D 11407 7852 M 0 97 R D
11534 7852 M 0 97 R D 11660 7852 M 0 97 R D 11786 7852 M 0 97 R D
11913 7852 M 0 97 R D 12039 7852 M 0 97 R D 12166 7852 M 0 97 R D
12418 7852 M 0 97 R D 12545 7852 M 0 97 R D 12671 7852 M 0 97 R D
12797 7852 M 0 97 R D 12924 7852 M 0 97 R D 13050 7852 M 0 97 R D
13176 7852 M 0 97 R D 13303 7852 M 0 97 R D 13429 7852 M 0 97 R D
13682 7852 M 0 97 R D 13808 7852 M 0 97 R D 13935 7852 M 0 97 R D
14061 7852 M 0 97 R D 14187 7852 M 0 97 R D 14314 7852 M 0 97 R D
14440 7852 M 0 97 R D 14567 7852 M 0 97 R D 14693 7852 M 0 97 R D
14946 7852 M 0 97 R D 15072 7852 M 0 97 R D 15198 7852 M 0 97 R D
15325 7852 M 0 97 R D 15451 7852 M 0 97 R D 15578 7852 M 0 97 R D
15704 7852 M 0 97 R D 15830 7852 M 0 97 R D 15957 7852 M 0 97 R D
16209 7852 M 0 97 R D 16336 7852 M 0 97 R D 16462 7852 M 0 97 R D
16589 7852 M 0 97 R D 16715 7852 M 0 97 R D 16841 7852 M 0 97 R D
16968 7852 M 0 97 R D 17094 7852 M 0 97 R D 17220 7852 M 0 97 R D
9777 14296 M 7557 0 R D 11028 14296 M 0 -193 R D 12292 14296 M 0 -193 R D
13556 14296 M 0 -193 R D 14819 14296 M 0 -193 R D 16083 14296 M 0 -193 R D
9891 14296 M 0 -97 R D 10017 14296 M 0 -97 R D 10144 14296 M 0 -97 R D
10270 14296 M 0 -97 R D 10396 14296 M 0 -97 R D 10523 14296 M 0 -97 R D
10649 14296 M 0 -97 R D 10775 14296 M 0 -97 R D 10902 14296 M 0 -97 R D
11155 14296 M 0 -97 R D 11281 14296 M 0 -97 R D 11407 14296 M 0 -97 R D
11534 14296 M 0 -97 R D 11660 14296 M 0 -97 R D 11786 14296 M 0 -97 R D
11913 14296 M 0 -97 R D 12039 14296 M 0 -97 R D 12166 14296 M 0 -97 R D
12418 14296 M 0 -97 R D 12545 14296 M 0 -97 R D 12671 14296 M 0 -97 R D
12797 14296 M 0 -97 R D 12924 14296 M 0 -97 R D 13050 14296 M 0 -97 R D
13176 14296 M 0 -97 R D 13303 14296 M 0 -97 R D 13429 14296 M 0 -97 R D
13682 14296 M 0 -97 R D 13808 14296 M 0 -97 R D 13935 14296 M 0 -97 R D
14061 14296 M 0 -97 R D 14187 14296 M 0 -97 R D 14314 14296 M 0 -97 R D
14440 14296 M 0 -97 R D 14567 14296 M 0 -97 R D 14693 14296 M 0 -97 R D
14946 14296 M 0 -97 R D 15072 14296 M 0 -97 R D 15198 14296 M 0 -97 R D
15325 14296 M 0 -97 R D 15451 14296 M 0 -97 R D 15578 14296 M 0 -97 R D
15704 14296 M 0 -97 R D 15830 14296 M 0 -97 R D 15957 14296 M 0 -97 R D
16209 14296 M 0 -97 R D 16336 14296 M 0 -97 R D 16462 14296 M 0 -97 R D
16589 14296 M 0 -97 R D 16715 14296 M 0 -97 R D 16841 14296 M 0 -97 R D
16968 14296 M 0 -97 R D 17094 14296 M 0 -97 R D 17220 14296 M 0 -97 R D
9777 7852 M 0 6444 R D 9777 8986 M 227 0 R D gsave 9666 8845 translate 0 0 M
-117.687 0 N
( ) show grestore 9777 10321 M 227 0 R D gsave 9666 10181 translate 0 0 M
-117.687 0 N
( ) show grestore 9777 11656 M 227 0 R D gsave 9666 11516 translate 0 0 M
-117.687 0 N
( ) show grestore 9777 12992 M 227 0 R D gsave 9666 12851 translate 0 0 M
-117.687 0 N
( ) show grestore 9777 8319 M 113 0 R D 9777 9654 M 113 0 R D 9777 10989 M
113 0 R D 9777 12324 M 113 0 R D 9777 13659 M 113 0 R D 17334 7852 M
0 6444 R D 17334 8986 M -227 0 R D 17334 10321 M -227 0 R D 17334 11656 M
-227 0 R D 17334 12992 M -227 0 R D 17334 8319 M -113 0 R D 17334 9654 M
-113 0 R D 17334 10989 M -113 0 R D 17334 12324 M -113 0 R D 17334 13659 M
-113 0 R D 0.255 0.255 0.255 setrgbcolor 11453 11642 M 436 432 R 436 -166 R
436 -165 R 436 -176 R 436 -208 R 437 -251 R 436 -303 R 436 -224 R 436 44 R
436 -564 R 436 0 R D 1.000 0.000 0.706 setrgbcolor 11889 11920 M 436 -102 R
436 -173 R 436 -210 R 436 -136 R 437 -463 R 436 -201 R 436 30 R 436 -200 R
436 -467 R D 0.506 0.000 0.000 setrgbcolor 11453 11793 M 436 256 R
436 -161 R 436 -195 R 436 -175 R 436 -189 R 437 -282 R 436 -222 R 436 -543 R
436 -201 R 436 0 R 436 0 R D 1.000 0.349 0.000 setrgbcolor 11453 11621 M
436 409 R 436 -182 R 436 -165 R 436 -144 R 436 -219 R 437 -263 R 436 -123 R
436 -216 R 436 -171 R 436 -466 R D 0.000 0.549 0.000 setrgbcolor
11453 11995 M 436 114 R 436 -154 R 436 -189 R 436 -212 R 436 -188 R
437 -278 R 436 -51 R 436 -308 R 436 -118 R 436 -519 R D
0.000 0.514 1.000 setrgbcolor 11889 11901 M 436 -115 R 436 -201 R 436 -206 R
436 -247 R 437 -124 R 436 -219 R 436 -182 R 436 -603 R 436 402 R D
0.000 0.000 1.000 setrgbcolor 11889 11435 M 436 342 R 436 -154 R 436 -174 R
436 -189 R 437 -198 R 436 -418 R 436 -76 R 436 -148 R 436 0 R 436 -319 R D
0.588 0.000 0.588 setrgbcolor 11889 11725 M 436 169 R 436 -169 R 436 -174 R
436 -191 R 437 -184 R 436 -272 R 436 -141 R 436 -335 R 436 -117 R 436 -201 R
436 -201 R D 0.000 1.000 1.000 setrgbcolor 12325 11665 M 436 25 R 436 -188 R
436 -191 R 437 -206 R 436 -243 R 436 -232 R 436 -76 R 436 -174 R 436 -176 R
D 0.000 0.000 0.000 setrgbcolor 2220 1408 M 7557 0 R D 3471 1408 M 0 193 R D
gsave 3471 880 translate 0 0 M -117.687 0 N
(9) show grestore 4735 1408 M 0 193 R D gsave 4735 880 translate 0 0 M
-235.373 0 N
(10) show grestore 5999 1408 M 0 193 R D gsave 5999 880 translate 0 0 M
-235.373 0 N
(11) show grestore 7262 1408 M 0 193 R D gsave 7262 880 translate 0 0 M
-235.373 0 N
(12) show grestore 8526 1408 M 0 193 R D gsave 8526 880 translate 0 0 M
-235.373 0 N
(13) show grestore 2334 1408 M 0 97 R D 2460 1408 M 0 97 R D 2587 1408 M
0 97 R D 2713 1408 M 0 97 R D 2839 1408 M 0 97 R D 2966 1408 M 0 97 R D
3092 1408 M 0 97 R D 3218 1408 M 0 97 R D 3345 1408 M 0 97 R D 3598 1408 M
0 97 R D 3724 1408 M 0 97 R D 3850 1408 M 0 97 R D 3977 1408 M 0 97 R D
4103 1408 M 0 97 R D 4229 1408 M 0 97 R D 4356 1408 M 0 97 R D 4482 1408 M
0 97 R D 4609 1408 M 0 97 R D 4861 1408 M 0 97 R D 4988 1408 M 0 97 R D
5114 1408 M 0 97 R D 5240 1408 M 0 97 R D 5367 1408 M 0 97 R D 5493 1408 M
0 97 R D 5619 1408 M 0 97 R D 5746 1408 M 0 97 R D 5872 1408 M 0 97 R D
6125 1408 M 0 97 R D 6251 1408 M 0 97 R D 6378 1408 M 0 97 R D 6504 1408 M
0 97 R D 6630 1408 M 0 97 R D 6757 1408 M 0 97 R D 6883 1408 M 0 97 R D
7010 1408 M 0 97 R D 7136 1408 M 0 97 R D 7389 1408 M 0 97 R D 7515 1408 M
0 97 R D 7641 1408 M 0 97 R D 7768 1408 M 0 97 R D 7894 1408 M 0 97 R D
8021 1408 M 0 97 R D 8147 1408 M 0 97 R D 8273 1408 M 0 97 R D 8400 1408 M
0 97 R D 8652 1408 M 0 97 R D 8779 1408 M 0 97 R D 8905 1408 M 0 97 R D
9032 1408 M 0 97 R D 9158 1408 M 0 97 R D 9284 1408 M 0 97 R D 9411 1408 M
0 97 R D 9537 1408 M 0 97 R D 9663 1408 M 0 97 R D 2220 7852 M 7557 0 R D
3471 7852 M 0 -193 R D 4735 7852 M 0 -193 R D 5999 7852 M 0 -193 R D
7262 7852 M 0 -193 R D 8526 7852 M 0 -193 R D 2334 7852 M 0 -97 R D
2460 7852 M 0 -97 R D 2587 7852 M 0 -97 R D 2713 7852 M 0 -97 R D
2839 7852 M 0 -97 R D 2966 7852 M 0 -97 R D 3092 7852 M 0 -97 R D
3218 7852 M 0 -97 R D 3345 7852 M 0 -97 R D 3598 7852 M 0 -97 R D
3724 7852 M 0 -97 R D 3850 7852 M 0 -97 R D 3977 7852 M 0 -97 R D
4103 7852 M 0 -97 R D 4229 7852 M 0 -97 R D 4356 7852 M 0 -97 R D
4482 7852 M 0 -97 R D 4609 7852 M 0 -97 R D 4861 7852 M 0 -97 R D
4988 7852 M 0 -97 R D 5114 7852 M 0 -97 R D 5240 7852 M 0 -97 R D
5367 7852 M 0 -97 R D 5493 7852 M 0 -97 R D 5619 7852 M 0 -97 R D
5746 7852 M 0 -97 R D 5872 7852 M 0 -97 R D 6125 7852 M 0 -97 R D
6251 7852 M 0 -97 R D 6378 7852 M 0 -97 R D 6504 7852 M 0 -97 R D
6630 7852 M 0 -97 R D 6757 7852 M 0 -97 R D 6883 7852 M 0 -97 R D
7010 7852 M 0 -97 R D 7136 7852 M 0 -97 R D 7389 7852 M 0 -97 R D
7515 7852 M 0 -97 R D 7641 7852 M 0 -97 R D 7768 7852 M 0 -97 R D
7894 7852 M 0 -97 R D 8021 7852 M 0 -97 R D 8147 7852 M 0 -97 R D
8273 7852 M 0 -97 R D 8400 7852 M 0 -97 R D 8652 7852 M 0 -97 R D
8779 7852 M 0 -97 R D 8905 7852 M 0 -97 R D 9032 7852 M 0 -97 R D
9158 7852 M 0 -97 R D 9284 7852 M 0 -97 R D 9411 7852 M 0 -97 R D
9537 7852 M 0 -97 R D 9663 7852 M 0 -97 R D 2220 1408 M 0 6444 R D
2220 2542 M 227 0 R D gsave 2109 2401 translate 0 0 M -704.08 0 N
(10) show X 192.937 M
%%IncludeResource: font Helvetica
262.467 /Helvetica STDFONT
(-4) show grestore
%%IncludeResource: font Helvetica
423.333 /Helvetica STDFONT 2220 3877 M 227 0 R D
gsave 2109 3737 translate 0 0 M -704.08 0 N
(10) show X 192.937 M
%%IncludeResource: font Helvetica
262.467 /Helvetica STDFONT
(-2) show grestore
%%IncludeResource: font Helvetica
423.333 /Helvetica STDFONT 2220 5212 M 227 0 R D
gsave 2109 5072 translate 0 0 M -616.678 0 N
(10) show X 192.937 M
%%IncludeResource: font Helvetica
262.467 /Helvetica STDFONT
(0) show grestore
%%IncludeResource: font Helvetica
423.333 /Helvetica STDFONT 2220 6548 M 227 0 R D
gsave 2109 6407 translate 0 0 M -616.678 0 N
(10) show X 192.937 M
%%IncludeResource: font Helvetica
262.467 /Helvetica STDFONT
(2) show grestore
%%IncludeResource: font Helvetica
423.333 /Helvetica STDFONT 2220 1875 M 113 0 R D 2220 3210 M 113 0 R D
2220 4545 M 113 0 R D 2220 5880 M 113 0 R D 2220 7215 M 113 0 R D
9777 1408 M 0 6444 R D 9777 2542 M -227 0 R D 9777 3877 M -227 0 R D
9777 5212 M -227 0 R D 9777 6548 M -227 0 R D 9777 1875 M -113 0 R D
9777 3210 M -113 0 R D 9777 4545 M -113 0 R D 9777 5880 M -113 0 R D
9777 7215 M -113 0 R D 0.255 0.255 0.255 setrgbcolor 3928 3247 M 446 492 R
447 -58 R 446 -416 R 447 65 R 447 -266 R 446 -284 R 447 -318 R 446 0 R D
1.000 0.000 0.706 setrgbcolor 3928 3262 M 446 810 R 447 -103 R 446 -138 R
447 -256 R 447 -261 R 446 -105 R 447 -148 R 446 -318 R 447 -118 R 447 -201 R
446 0 R D 0.506 0.000 0.000 setrgbcolor 3928 3981 M 446 200 R 447 -172 R
446 -152 R 447 -297 R 447 -166 R 446 -201 R 447 -152 R 446 -225 R 447 -200 R
D 1.000 0.349 0.000 setrgbcolor 3928 3932 M 446 308 R 447 -119 R 446 -169 R
447 -175 R 447 -267 R 446 -177 R 447 -175 R 446 -17 R 447 -176 R 447 -371 R
446 -148 R 447 -319 R D 0.000 0.549 0.000 setrgbcolor 3928 4087 M 446 75 R
447 -154 R 446 -150 R 447 -203 R 447 -378 R 446 -186 R 447 -201 R 446 -466 R
447 318 R 447 -117 R 446 -201 R D 0.000 0.514 1.000 setrgbcolor 3928 2938 M
446 640 R 447 -110 R 446 -172 R 447 -174 R 447 -420 R 446 0 R 447 -200 R
446 0 R 447 -201 R D 0.000 0.000 1.000 setrgbcolor 4374 3627 M 447 262 R
446 -103 R 447 -127 R 447 -260 R 446 -174 R 447 -175 R 446 -157 R 447 -564 R
447 0 R 446 201 R 447 0 R D 0.588 0.000 0.588 setrgbcolor 4374 3880 M
447 127 R 446 -145 R 447 -190 R 447 -193 R 446 -204 R 447 -207 R 446 -201 R
447 -156 R 447 -246 R 446 84 R 447 -201 R D 0.000 1.000 1.000 setrgbcolor
4821 3786 M 446 5 R 447 -181 R 447 -194 R 446 -274 R 447 -76 R 446 -373 R
447 -48 R 447 -131 R 446 -246 R D 0.000 0.000 0.000 setrgbcolor 9777 1408 M
7557 0 R D 11028 1408 M 0 193 R D gsave 11028 880 translate 0 0 M
-117.687 0 N
(9) show grestore 12292 1408 M 0 193 R D gsave 12292 880 translate 0 0 M
-235.373 0 N
(10) show grestore 13556 1408 M 0 193 R D gsave 13556 880 translate 0 0 M
-235.373 0 N
(11) show grestore 14819 1408 M 0 193 R D gsave 14819 880 translate 0 0 M
-235.373 0 N
(12) show grestore 16083 1408 M 0 193 R D gsave 16083 880 translate 0 0 M
-235.373 0 N
(13) show grestore 9891 1408 M 0 97 R D 10017 1408 M 0 97 R D 10144 1408 M
0 97 R D 10270 1408 M 0 97 R D 10396 1408 M 0 97 R D 10523 1408 M 0 97 R D
10649 1408 M 0 97 R D 10775 1408 M 0 97 R D 10902 1408 M 0 97 R D
11155 1408 M 0 97 R D 11281 1408 M 0 97 R D 11407 1408 M 0 97 R D
11534 1408 M 0 97 R D 11660 1408 M 0 97 R D 11786 1408 M 0 97 R D
11913 1408 M 0 97 R D 12039 1408 M 0 97 R D 12166 1408 M 0 97 R D
12418 1408 M 0 97 R D 12545 1408 M 0 97 R D 12671 1408 M 0 97 R D
12797 1408 M 0 97 R D 12924 1408 M 0 97 R D 13050 1408 M 0 97 R D
13176 1408 M 0 97 R D 13303 1408 M 0 97 R D 13429 1408 M 0 97 R D
13682 1408 M 0 97 R D 13808 1408 M 0 97 R D 13935 1408 M 0 97 R D
14061 1408 M 0 97 R D 14187 1408 M 0 97 R D 14314 1408 M 0 97 R D
14440 1408 M 0 97 R D 14567 1408 M 0 97 R D 14693 1408 M 0 97 R D
14946 1408 M 0 97 R D 15072 1408 M 0 97 R D 15198 1408 M 0 97 R D
15325 1408 M 0 97 R D 15451 1408 M 0 97 R D 15578 1408 M 0 97 R D
15704 1408 M 0 97 R D 15830 1408 M 0 97 R D 15957 1408 M 0 97 R D
16209 1408 M 0 97 R D 16336 1408 M 0 97 R D 16462 1408 M 0 97 R D
16589 1408 M 0 97 R D 16715 1408 M 0 97 R D 16841 1408 M 0 97 R D
16968 1408 M 0 97 R D 17094 1408 M 0 97 R D 17220 1408 M 0 97 R D
9777 7852 M 7557 0 R D 11028 7852 M 0 -193 R D 12292 7852 M 0 -193 R D
13556 7852 M 0 -193 R D 14819 7852 M 0 -193 R D 16083 7852 M 0 -193 R D
9891 7852 M 0 -97 R D 10017 7852 M 0 -97 R D 10144 7852 M 0 -97 R D
10270 7852 M 0 -97 R D 10396 7852 M 0 -97 R D 10523 7852 M 0 -97 R D
10649 7852 M 0 -97 R D 10775 7852 M 0 -97 R D 10902 7852 M 0 -97 R D
11155 7852 M 0 -97 R D 11281 7852 M 0 -97 R D 11407 7852 M 0 -97 R D
11534 7852 M 0 -97 R D 11660 7852 M 0 -97 R D 11786 7852 M 0 -97 R D
11913 7852 M 0 -97 R D 12039 7852 M 0 -97 R D 12166 7852 M 0 -97 R D
12418 7852 M 0 -97 R D 12545 7852 M 0 -97 R D 12671 7852 M 0 -97 R D
12797 7852 M 0 -97 R D 12924 7852 M 0 -97 R D 13050 7852 M 0 -97 R D
13176 7852 M 0 -97 R D 13303 7852 M 0 -97 R D 13429 7852 M 0 -97 R D
13682 7852 M 0 -97 R D 13808 7852 M 0 -97 R D 13935 7852 M 0 -97 R D
14061 7852 M 0 -97 R D 14187 7852 M 0 -97 R D 14314 7852 M 0 -97 R D
14440 7852 M 0 -97 R D 14567 7852 M 0 -97 R D 14693 7852 M 0 -97 R D
14946 7852 M 0 -97 R D 15072 7852 M 0 -97 R D 15198 7852 M 0 -97 R D
15325 7852 M 0 -97 R D 15451 7852 M 0 -97 R D 15578 7852 M 0 -97 R D
15704 7852 M 0 -97 R D 15830 7852 M 0 -97 R D 15957 7852 M 0 -97 R D
16209 7852 M 0 -97 R D 16336 7852 M 0 -97 R D 16462 7852 M 0 -97 R D
16589 7852 M 0 -97 R D 16715 7852 M 0 -97 R D 16841 7852 M 0 -97 R D
16968 7852 M 0 -97 R D 17094 7852 M 0 -97 R D 17220 7852 M 0 -97 R D
9777 1408 M 0 6444 R D 9777 2542 M 227 0 R D gsave 9666 2401 translate 0 0 M
-117.687 0 N
( ) show grestore 9777 3877 M 227 0 R D gsave 9666 3737 translate 0 0 M
-117.687 0 N
( ) show grestore 9777 5212 M 227 0 R D gsave 9666 5072 translate 0 0 M
-117.687 0 N
( ) show grestore 9777 6548 M 227 0 R D gsave 9666 6407 translate 0 0 M
-117.687 0 N
( ) show grestore 9777 1875 M 113 0 R D 9777 3210 M 113 0 R D 9777 4545 M
113 0 R D 9777 5880 M 113 0 R D 9777 7215 M 113 0 R D 17334 1408 M 0 6444 R
D 17334 2542 M -227 0 R D 17334 3877 M -227 0 R D 17334 5212 M -227 0 R D
17334 6548 M -227 0 R D 17334 1875 M -113 0 R D 17334 3210 M -113 0 R D
17334 4545 M -113 0 R D 17334 5880 M -113 0 R D 17334 7215 M -113 0 R D
0.255 0.255 0.255 setrgbcolor 11509 4316 M 455 252 R 455 -166 R 454 -185 R
455 -187 R 455 -278 R 455 -218 R 454 -318 R 455 -128 R 455 -319 R 455 -117 R
455 -201 R D 1.000 0.000 0.706 setrgbcolor 11509 3813 M 455 628 R 455 -145 R
454 -176 R 455 -225 R 455 -262 R 455 -246 R 454 -186 R 455 -133 R 455 -334 R
455 -117 R 455 -402 R D 0.506 0.000 0.000 setrgbcolor 11509 4362 M 455 152 R
455 -197 R 454 -178 R 455 -226 R 455 -213 R 455 -277 R 454 -313 R 455 -218 R
455 -84 R 455 -201 R D 1.000 0.349 0.000 setrgbcolor 11509 4171 M 455 258 R
455 -158 R 454 -163 R 455 -201 R 455 -257 R 455 -201 R 454 -183 R 455 -30 R
455 -312 R 455 -240 R 455 -245 R D 0.000 0.549 0.000 setrgbcolor
11509 4591 M 455 6 R 455 -160 R 454 -202 R 455 -216 R 455 -264 R 455 -201 R
454 -135 R 455 -285 R 455 -83 R 455 -637 R 455 201 R D
0.000 0.514 1.000 setrgbcolor 11509 3798 M 455 579 R 455 -141 R 454 -209 R
455 -210 R 455 -274 R 455 -142 R 454 -144 R 455 -363 R 455 -136 R D
0.000 0.000 1.000 setrgbcolor 11964 4260 M 455 162 R 454 -162 R 455 -183 R
455 -198 R 455 -263 R 454 -222 R 455 -223 R 455 -186 R 455 -64 R 455 -201 R
454 -201 R D 0.588 0.000 0.588 setrgbcolor 11964 4280 M 455 57 R 454 -166 R
455 -198 R 455 -201 R 455 -239 R 454 -213 R 455 -168 R 455 -411 R 455 34 R
455 -117 R 454 -319 R D 0.000 1.000 1.000 setrgbcolor 12419 4210 M 454 -72 R
455 -200 R 455 -190 R 455 -234 R 454 -232 R 455 -286 R 455 -69 R 455 -165 R
455 -302 R D
%%PageTrailer
end
%%PageResources: font Helvetica
%%+ font AvantGarde-Book
%%Trailer
%%Pages: 1
%%DocumentNeededResources: font Helvetica
%%+ font AvantGarde-Book
%%EOF
