%!PS-Adobe-3.0 EPSF-3.0
%%BoundingBox: 0 0 226 425
%%Title: Graphics produced by IDL
%%For: jlgan@Hserver, /home/jlgan/work/phoenix
%%Creator: IDL Version 7.1.1 (linux x86_64 m64)
%%CreationDate: Tue Jul 22 15:31:43 2014
%%DocumentData: Clean7bit
%%Requirements: color
%%LanguageLevel: 1
%%PageOrder: Ascend
%%Pages: (atend)
%%DocumentNeededResources: (atend)
%%EndComments
%%BeginProlog
%+ prolog.ps -- Prolog for IDL generated PostScript files
%+ Copyright (c) 1988-2009 ITT Visual Information Solutions. All Rights Reserved.
%v 5
/$IDL_DICT 40 dict def $IDL_DICT begin /bdef { bind def } bind def /C
{currentpoint newpath moveto} bdef /CP {currentpoint} bdef /D {currentpoint
stroke moveto} bdef /F {closepath fill} bdef /K { setgray } bdef /M {moveto}
bdef /N {rmoveto} bdef /P {lineto} bdef /R {rlineto} bdef /S {gsave show
grestore} bdef /X {currentpoint pop} bdef /Z {gsave currentpoint lineto 20
setlinewidth 1 setlinecap stroke grestore} bdef /L0 {[] 0 setdash} bdef /L1
{[40 100] 0 setdash} bdef /L2 {[200 200] 0 setdash} bdef /L3 {[200 100 50
100] 0 setdash} bdef /L4 {[300 100 50 100 50 100 50 100] 0 setdash} bdef /L5
{[400 200] 0 setdash} bdef /STDFONT { findfont exch scalefont setfont } bdef
/ISOFONT { findfont dup length dict begin { 1 index /FID ne {def} {pop pop}
ifelse } forall /Encoding ISOLatin1Encoding def currentdict end /idltmpfont
exch definefont exch scalefont setfont } bdef /ISOBULLET { gsave /Helvetica
findfont exch scalefont setfont (\267) show currentpoint grestore moveto}
bdef /MITERLIMIT { 2.5 setmiterlimit } bdef end
%%EndProlog
%%Page: 0 1
%%PageRequirements: color
%%PageResources: (atend)
%%PageOrientation: Portrait
%%PageBoundingBox: 0 0 226 425
%%BeginPageSetup
$IDL_DICT begin 0.0283465 dup scale MITERLIMIT
%%IncludeResource: font Helvetica
423.333 /Helvetica STDFONT
%%EndPageSetup
0.000 0.000 0.000 setrgbcolor gsave 4777 352 translate 0 0 M -731.554 0 N
(d) show X -101.051 M
%%IncludeResource: font Helvetica
262.467 /Helvetica STDFONT
(c) show X 0 M
%%IncludeResource: font Helvetica
423.333 /Helvetica STDFONT
( / R) show X -101.051 M
%%IncludeResource: font Helvetica
262.467 /Helvetica STDFONT
(200) show grestore
%%IncludeResource: font Helvetica
423.333 /Helvetica STDFONT 30 setlinewidth L0 2220 10000 M 5114 0 R D
2828 10000 M 0 172 R D gsave 2828 9472 translate 0 0 M -58.8433 0 N
( ) show grestore 4848 10000 M 0 172 R D gsave 4848 9472 translate 0 0 M
-58.8433 0 N
( ) show grestore 6868 10000 M 0 172 R D gsave 6868 9472 translate 0 0 M
-58.8433 0 N
( ) show grestore 2220 10000 M 0 86 R D 2380 10000 M 0 86 R D 2515 10000 M
0 86 R D 2632 10000 M 0 86 R D 2736 10000 M 0 86 R D 3436 10000 M 0 86 R D
3792 10000 M 0 86 R D 4044 10000 M 0 86 R D 4240 10000 M 0 86 R D
4400 10000 M 0 86 R D 4535 10000 M 0 86 R D 4653 10000 M 0 86 R D
4756 10000 M 0 86 R D 5456 10000 M 0 86 R D 5812 10000 M 0 86 R D
6065 10000 M 0 86 R D 6260 10000 M 0 86 R D 6420 10000 M 0 86 R D
6556 10000 M 0 86 R D 6673 10000 M 0 86 R D 6776 10000 M 0 86 R D
2220 14296 M 5114 0 R D 2828 14296 M 0 -172 R D 4848 14296 M 0 -172 R D
6868 14296 M 0 -172 R D 2220 14296 M 0 -86 R D 2380 14296 M 0 -86 R D
2515 14296 M 0 -86 R D 2632 14296 M 0 -86 R D 2736 14296 M 0 -86 R D
3436 14296 M 0 -86 R D 3792 14296 M 0 -86 R D 4044 14296 M 0 -86 R D
4240 14296 M 0 -86 R D 4400 14296 M 0 -86 R D 4535 14296 M 0 -86 R D
4653 14296 M 0 -86 R D 4756 14296 M 0 -86 R D 5456 14296 M 0 -86 R D
5812 14296 M 0 -86 R D 6065 14296 M 0 -86 R D 6260 14296 M 0 -86 R D
6420 14296 M 0 -86 R D 6556 14296 M 0 -86 R D 6673 14296 M 0 -86 R D
6776 14296 M 0 -86 R D 2220 10000 M 0 4296 R D 2220 10000 M 205 0 R D
gsave 2109 10000 translate 0 0 M -588.433 0 N
(0.0) show grestore 2220 11102 M 205 0 R D gsave 2109 10961 translate 0 0 M
-588.433 0 N
(0.1) show grestore 2220 12203 M 205 0 R D gsave 2109 12062 translate 0 0 M
-588.433 0 N
(0.2) show grestore 2220 13305 M 205 0 R D gsave 2109 13164 translate 0 0 M
-588.433 0 N
(0.3) show grestore 2220 10110 M 102 0 R D 2220 10220 M 102 0 R D
2220 10331 M 102 0 R D 2220 10441 M 102 0 R D 2220 10551 M 102 0 R D
2220 10661 M 102 0 R D 2220 10771 M 102 0 R D 2220 10881 M 102 0 R D
2220 10991 M 102 0 R D 2220 11212 M 102 0 R D 2220 11322 M 102 0 R D
2220 11432 M 102 0 R D 2220 11542 M 102 0 R D 2220 11652 M 102 0 R D
2220 11763 M 102 0 R D 2220 11873 M 102 0 R D 2220 11983 M 102 0 R D
2220 12093 M 102 0 R D 2220 12313 M 102 0 R D 2220 12423 M 102 0 R D
2220 12534 M 102 0 R D 2220 12644 M 102 0 R D 2220 12754 M 102 0 R D
2220 12864 M 102 0 R D 2220 12974 M 102 0 R D 2220 13084 M 102 0 R D
2220 13195 M 102 0 R D 2220 13415 M 102 0 R D 2220 13525 M 102 0 R D
2220 13635 M 102 0 R D 2220 13745 M 102 0 R D 2220 13855 M 102 0 R D
2220 13966 M 102 0 R D 2220 14076 M 102 0 R D 2220 14186 M 102 0 R D
2220 14296 M 102 0 R D gsave 1188 12148 translate 0 0 M 90 rotate
-1576.07 0 N
(Number Fraction) show grestore 7334 10000 M 0 4296 R D 7334 10000 M
-205 0 R D 7334 11102 M -205 0 R D 7334 12203 M -205 0 R D 7334 13305 M
-205 0 R D 7334 10110 M -102 0 R D 7334 10220 M -102 0 R D 7334 10331 M
-102 0 R D 7334 10441 M -102 0 R D 7334 10551 M -102 0 R D 7334 10661 M
-102 0 R D 7334 10771 M -102 0 R D 7334 10881 M -102 0 R D 7334 10991 M
-102 0 R D 7334 11212 M -102 0 R D 7334 11322 M -102 0 R D 7334 11432 M
-102 0 R D 7334 11542 M -102 0 R D 7334 11652 M -102 0 R D 7334 11763 M
-102 0 R D 7334 11873 M -102 0 R D 7334 11983 M -102 0 R D 7334 12093 M
-102 0 R D 7334 12313 M -102 0 R D 7334 12423 M -102 0 R D 7334 12534 M
-102 0 R D 7334 12644 M -102 0 R D 7334 12754 M -102 0 R D 7334 12864 M
-102 0 R D 7334 12974 M -102 0 R D 7334 13084 M -102 0 R D 7334 13195 M
-102 0 R D 7334 13415 M -102 0 R D 7334 13525 M -102 0 R D 7334 13635 M
-102 0 R D 7334 13745 M -102 0 R D 7334 13855 M -102 0 R D 7334 13966 M
-102 0 R D 7334 14076 M -102 0 R D 7334 14186 M -102 0 R D 7334 14296 M
-102 0 R D 2268 10004 M 157 0 R 0 -4 R 133 0 R 157 0 R 0 7 R 133 0 R 157 0 R
0 52 R 133 0 R 156 0 R 0 47 R 133 0 R 157 0 R 0 98 R 133 0 R 157 0 R 0 203 R
133 0 R 157 0 R 0 378 R 133 0 R 156 0 R 0 679 R 133 0 R 157 0 R 0 254 R
133 0 R 157 0 R 0 -114 R 133 0 R 157 0 R 0 -661 R 133 0 R 156 0 R 0 -383 R
133 0 R 157 0 R 0 262 R 133 0 R 157 0 R 0 1143 R 133 0 R 157 0 R 0 -1596 R
133 0 R D 2220 5704 M 5114 0 R D 2828 5704 M 0 172 R D
gsave 2828 5176 translate 0 0 M -58.8433 0 N
( ) show grestore 4848 5704 M 0 172 R D gsave 4848 5176 translate 0 0 M
-58.8433 0 N
( ) show grestore 6868 5704 M 0 172 R D gsave 6868 5176 translate 0 0 M
-58.8433 0 N
( ) show grestore 2220 5704 M 0 86 R D 2380 5704 M 0 86 R D 2515 5704 M
0 86 R D 2632 5704 M 0 86 R D 2736 5704 M 0 86 R D 3436 5704 M 0 86 R D
3792 5704 M 0 86 R D 4044 5704 M 0 86 R D 4240 5704 M 0 86 R D 4400 5704 M
0 86 R D 4535 5704 M 0 86 R D 4653 5704 M 0 86 R D 4756 5704 M 0 86 R D
5456 5704 M 0 86 R D 5812 5704 M 0 86 R D 6065 5704 M 0 86 R D 6260 5704 M
0 86 R D 6420 5704 M 0 86 R D 6556 5704 M 0 86 R D 6673 5704 M 0 86 R D
6776 5704 M 0 86 R D 2220 10000 M 5114 0 R D 2828 10000 M 0 -172 R D
4848 10000 M 0 -172 R D 6868 10000 M 0 -172 R D 2220 10000 M 0 -86 R D
2380 10000 M 0 -86 R D 2515 10000 M 0 -86 R D 2632 10000 M 0 -86 R D
2736 10000 M 0 -86 R D 3436 10000 M 0 -86 R D 3792 10000 M 0 -86 R D
4044 10000 M 0 -86 R D 4240 10000 M 0 -86 R D 4400 10000 M 0 -86 R D
4535 10000 M 0 -86 R D 4653 10000 M 0 -86 R D 4756 10000 M 0 -86 R D
5456 10000 M 0 -86 R D 5812 10000 M 0 -86 R D 6065 10000 M 0 -86 R D
6260 10000 M 0 -86 R D 6420 10000 M 0 -86 R D 6556 10000 M 0 -86 R D
6673 10000 M 0 -86 R D 6776 10000 M 0 -86 R D 2220 5704 M 0 4296 R D
2220 6757 M 205 0 R D gsave 2109 6616 translate 0 0 M -588.433 0 N
(0.1) show grestore 2220 7854 M 205 0 R D gsave 2109 7714 translate 0 0 M
-588.433 0 N
(1.0) show grestore 2220 8952 M 205 0 R D gsave 2109 8812 translate 0 0 M
-823.807 0 N
(10.0) show grestore 2220 5989 M 102 0 R D 2220 6182 M 102 0 R D 2220 6320 M
102 0 R D 2220 6426 M 102 0 R D 2220 6513 M 102 0 R D 2220 6586 M 102 0 R D
2220 6650 M 102 0 R D 2220 6706 M 102 0 R D 2220 7087 M 102 0 R D
2220 7280 M 102 0 R D 2220 7418 M 102 0 R D 2220 7524 M 102 0 R D
2220 7611 M 102 0 R D 2220 7684 M 102 0 R D 2220 7748 M 102 0 R D
2220 7804 M 102 0 R D 2220 8185 M 102 0 R D 2220 8378 M 102 0 R D
2220 8515 M 102 0 R D 2220 8622 M 102 0 R D 2220 8709 M 102 0 R D
2220 8782 M 102 0 R D 2220 8846 M 102 0 R D 2220 8902 M 102 0 R D
2220 9283 M 102 0 R D 2220 9476 M 102 0 R D 2220 9613 M 102 0 R D
2220 9720 M 102 0 R D 2220 9807 M 102 0 R D 2220 9880 M 102 0 R D
2220 9944 M 102 0 R D 2220 10000 M 102 0 R D gsave 953 7852 translate 0 0 M
90 rotate -1517.23 0 N
(Number Density) show grestore 7334 5704 M 0 4296 R D 7334 6757 M -205 0 R D
7334 7854 M -205 0 R D 7334 8952 M -205 0 R D 7334 5989 M -102 0 R D
7334 6182 M -102 0 R D 7334 6320 M -102 0 R D 7334 6426 M -102 0 R D
7334 6513 M -102 0 R D 7334 6586 M -102 0 R D 7334 6650 M -102 0 R D
7334 6706 M -102 0 R D 7334 7087 M -102 0 R D 7334 7280 M -102 0 R D
7334 7418 M -102 0 R D 7334 7524 M -102 0 R D 7334 7611 M -102 0 R D
7334 7684 M -102 0 R D 7334 7748 M -102 0 R D 7334 7804 M -102 0 R D
7334 8185 M -102 0 R D 7334 8378 M -102 0 R D 7334 8515 M -102 0 R D
7334 8622 M -102 0 R D 7334 8709 M -102 0 R D 7334 8782 M -102 0 R D
7334 8846 M -102 0 R D 7334 8902 M -102 0 R D 7334 9283 M -102 0 R D
7334 9476 M -102 0 R D 7334 9613 M -102 0 R D 7334 9720 M -102 0 R D
7334 9807 M -102 0 R D 7334 9880 M -102 0 R D 7334 9944 M -102 0 R D
7334 10000 M -102 0 R D 2268 7082 M 157 0 R 0 -1378 R 133 0 R 157 0 R
0 1549 R 133 0 R 157 0 R 0 1021 R 133 0 R 156 0 R 0 227 R 133 0 R 157 0 R
0 236 R 133 0 R 157 0 R 0 203 R 133 0 R 157 0 R 0 137 R 133 0 R 156 0 R
0 74 R 133 0 R 157 0 R 0 -183 R 133 0 R 157 0 R 0 -316 R 133 0 R 157 0 R
0 -551 R 133 0 R 156 0 R 0 -554 R 133 0 R 157 0 R 0 -128 R 133 0 R 157 0 R
0 103 R 133 0 R 157 0 R 0 -1111 R 133 0 R D 2220 1408 M 5114 0 R D
2828 1408 M 0 172 R D gsave 2828 880 translate 0 0 M -294.217 0 N
(0.1) show grestore 4848 1408 M 0 172 R D gsave 4848 880 translate 0 0 M
-294.217 0 N
(1.0) show grestore 6868 1408 M 0 172 R D gsave 6868 880 translate 0 0 M
-411.903 0 N
(10.0) show grestore 2220 1408 M 0 86 R D 2380 1408 M 0 86 R D 2515 1408 M
0 86 R D 2632 1408 M 0 86 R D 2736 1408 M 0 86 R D 3436 1408 M 0 86 R D
3792 1408 M 0 86 R D 4044 1408 M 0 86 R D 4240 1408 M 0 86 R D 4400 1408 M
0 86 R D 4535 1408 M 0 86 R D 4653 1408 M 0 86 R D 4756 1408 M 0 86 R D
5456 1408 M 0 86 R D 5812 1408 M 0 86 R D 6065 1408 M 0 86 R D 6260 1408 M
0 86 R D 6420 1408 M 0 86 R D 6556 1408 M 0 86 R D 6673 1408 M 0 86 R D
6776 1408 M 0 86 R D 2220 5704 M 5114 0 R D 2828 5704 M 0 -172 R D
4848 5704 M 0 -172 R D 6868 5704 M 0 -172 R D 2220 5704 M 0 -86 R D
2380 5704 M 0 -86 R D 2515 5704 M 0 -86 R D 2632 5704 M 0 -86 R D
2736 5704 M 0 -86 R D 3436 5704 M 0 -86 R D 3792 5704 M 0 -86 R D
4044 5704 M 0 -86 R D 4240 5704 M 0 -86 R D 4400 5704 M 0 -86 R D
4535 5704 M 0 -86 R D 4653 5704 M 0 -86 R D 4756 5704 M 0 -86 R D
5456 5704 M 0 -86 R D 5812 5704 M 0 -86 R D 6065 5704 M 0 -86 R D
6260 5704 M 0 -86 R D 6420 5704 M 0 -86 R D 6556 5704 M 0 -86 R D
6673 5704 M 0 -86 R D 6776 5704 M 0 -86 R D 2220 1408 M 0 4296 R D
2220 1543 M 205 0 R D gsave 2109 1408 translate 0 0 M -616.678 0 N
(10) show X 192.937 M
%%IncludeResource: font Helvetica
262.467 /Helvetica STDFONT
(9) show grestore
%%IncludeResource: font Helvetica
423.333 /Helvetica STDFONT 2220 2932 M 205 0 R D
gsave 2109 2791 translate 0 0 M -762.61 0 N
(10) show X 192.937 M
%%IncludeResource: font Helvetica
262.467 /Helvetica STDFONT
(10) show grestore
%%IncludeResource: font Helvetica
423.333 /Helvetica STDFONT 2220 4321 M 205 0 R D
gsave 2109 4180 translate 0 0 M -762.61 0 N
(10) show X 192.937 M
%%IncludeResource: font Helvetica
262.467 /Helvetica STDFONT
(11) show grestore
%%IncludeResource: font Helvetica
423.333 /Helvetica STDFONT 2220 1408 M 102 0 R D 2220 1479 M 102 0 R D
2220 1961 M 102 0 R D 2220 2205 M 102 0 R D 2220 2379 M 102 0 R D
2220 2514 M 102 0 R D 2220 2624 M 102 0 R D 2220 2717 M 102 0 R D
2220 2797 M 102 0 R D 2220 2868 M 102 0 R D 2220 3350 M 102 0 R D
2220 3595 M 102 0 R D 2220 3768 M 102 0 R D 2220 3903 M 102 0 R D
2220 4013 M 102 0 R D 2220 4106 M 102 0 R D 2220 4186 M 102 0 R D
2220 4257 M 102 0 R D 2220 4739 M 102 0 R D 2220 4984 M 102 0 R D
2220 5157 M 102 0 R D 2220 5292 M 102 0 R D 2220 5402 M 102 0 R D
2220 5495 M 102 0 R D 2220 5576 M 102 0 R D 2220 5647 M 102 0 R D
gsave 1014 3556 translate 0 0 M 90 rotate -1270.21 0 N
(Mass Density) show grestore 7334 1408 M 0 4296 R D 7334 1543 M -205 0 R D
7334 2932 M -205 0 R D 7334 4321 M -205 0 R D 7334 1408 M -102 0 R D
7334 1479 M -102 0 R D 7334 1961 M -102 0 R D 7334 2205 M -102 0 R D
7334 2379 M -102 0 R D 7334 2514 M -102 0 R D 7334 2624 M -102 0 R D
7334 2717 M -102 0 R D 7334 2797 M -102 0 R D 7334 2868 M -102 0 R D
7334 3350 M -102 0 R D 7334 3595 M -102 0 R D 7334 3768 M -102 0 R D
7334 3903 M -102 0 R D 7334 4013 M -102 0 R D 7334 4106 M -102 0 R D
7334 4186 M -102 0 R D 7334 4257 M -102 0 R D 7334 4739 M -102 0 R D
7334 4984 M -102 0 R D 7334 5157 M -102 0 R D 7334 5292 M -102 0 R D
7334 5402 M -102 0 R D 7334 5495 M -102 0 R D 7334 5576 M -102 0 R D
7334 5647 M -102 0 R D 2268 2587 M 157 0 R 0 -1179 R 133 0 R 157 0 R
0 1232 R 133 0 R 157 0 R 0 3049 R 133 0 R 156 0 R 0 -1348 R 133 0 R 157 0 R
0 928 R 133 0 R 157 0 R 0 -422 R 133 0 R 157 0 R 0 46 R 133 0 R 156 0 R
0 501 R 133 0 R 157 0 R 0 -205 R 133 0 R 157 0 R 0 -680 R 133 0 R 157 0 R
0 -319 R 133 0 R 156 0 R 0 -738 R 133 0 R 157 0 R 0 339 R 133 0 R 157 0 R
0 376 R 133 0 R 157 0 R 0 -1703 R 133 0 R D
%%PageTrailer
end
%%PageResources: font Helvetica
%%Trailer
%%Pages: 1
%%DocumentNeededResources: font Helvetica
%%EOF
