%!PS-Adobe-3.0 EPSF-3.0
%%BoundingBox: 0 0 481 226
%%Title: Graphics produced by IDL
%%For: jlgan@Hserver, /home/jlgan/work/phoenix
%%Creator: IDL Version 7.1.1 (linux x86_64 m64)
%%CreationDate: Mon Apr 14 11:22:56 2014
%%DocumentData: Clean7bit
%%Requirements: color
%%LanguageLevel: 1
%%PageOrder: Ascend
%%Pages: (atend)
%%DocumentNeededResources: (atend)
%%EndComments
%%BeginProlog
%+ prolog.ps -- Prolog for IDL generated PostScript files
%+ Copyright (c) 1988-2009 ITT Visual Information Solutions. All Rights Reserved.
%v 5
/$IDL_DICT 40 dict def $IDL_DICT begin /bdef { bind def } bind def /C
{currentpoint newpath moveto} bdef /CP {currentpoint} bdef /D {currentpoint
stroke moveto} bdef /F {closepath fill} bdef /K { setgray } bdef /M {moveto}
bdef /N {rmoveto} bdef /P {lineto} bdef /R {rlineto} bdef /S {gsave show
grestore} bdef /X {currentpoint pop} bdef /Z {gsave currentpoint lineto 20
setlinewidth 1 setlinecap stroke grestore} bdef /L0 {[] 0 setdash} bdef /L1
{[40 100] 0 setdash} bdef /L2 {[200 200] 0 setdash} bdef /L3 {[200 100 50
100] 0 setdash} bdef /L4 {[300 100 50 100 50 100 50 100] 0 setdash} bdef /L5
{[400 200] 0 setdash} bdef /STDFONT { findfont exch scalefont setfont } bdef
/ISOFONT { findfont dup length dict begin { 1 index /FID ne {def} {pop pop}
ifelse } forall /Encoding ISOLatin1Encoding def currentdict end /idltmpfont
exch definefont exch scalefont setfont } bdef /ISOBULLET { gsave /Helvetica
findfont exch scalefont setfont (\267) show currentpoint grestore moveto}
bdef /MITERLIMIT { 2.5 setmiterlimit } bdef end
%%EndProlog
%%Page: 0 1
%%PageRequirements: color
%%PageResources: (atend)
%%PageOrientation: Portrait
%%PageBoundingBox: 0 0 481 226
%%BeginPageSetup
$IDL_DICT begin 0.0283465 dup scale MITERLIMIT
%%IncludeResource: font Helvetica
423.333 /Helvetica STDFONT
%%EndPageSetup
0.000 0.000 0.000 setrgbcolor gsave 9277 352 translate 0 0 M -116.205 0 N
%%IncludeResource: font Symbol
423.333 /Symbol STDFONT
(l) show
%%IncludeResource: font Helvetica
423.333 /Helvetica STDFONT grestore gsave 888 4352 translate 0 0 M 90 rotate
-694.055 0 N
(fraction) show grestore 40 setlinewidth L0 2220 1408 M 4705 0 R D
2367 1408 M 0 236 R D gsave 2367 880 translate 0 0 M -364.702 0 N
(-0.3) show grestore 3102 1408 M 0 236 R D gsave 3102 880 translate 0 0 M
-364.702 0 N
(-0.2) show grestore 3837 1408 M 0 236 R D gsave 3837 880 translate 0 0 M
-364.702 0 N
(-0.1) show grestore 4572 1408 M 0 236 R D gsave 4572 880 translate 0 0 M
-294.217 0 N
(0.0) show grestore 5308 1408 M 0 236 R D gsave 5308 880 translate 0 0 M
-294.217 0 N
(0.1) show grestore 6043 1408 M 0 236 R D gsave 6043 880 translate 0 0 M
-294.217 0 N
(0.2) show grestore 6778 1408 M 0 236 R D gsave 6778 880 translate 0 0 M
-294.217 0 N
(0.3) show grestore 2220 1408 M 0 118 R D 2294 1408 M 0 118 R D 2441 1408 M
0 118 R D 2514 1408 M 0 118 R D 2588 1408 M 0 118 R D 2661 1408 M 0 118 R D
2735 1408 M 0 118 R D 2808 1408 M 0 118 R D 2882 1408 M 0 118 R D
2955 1408 M 0 118 R D 3029 1408 M 0 118 R D 3176 1408 M 0 118 R D
3249 1408 M 0 118 R D 3323 1408 M 0 118 R D 3396 1408 M 0 118 R D
3470 1408 M 0 118 R D 3543 1408 M 0 118 R D 3617 1408 M 0 118 R D
3690 1408 M 0 118 R D 3764 1408 M 0 118 R D 3911 1408 M 0 118 R D
3984 1408 M 0 118 R D 4058 1408 M 0 118 R D 4131 1408 M 0 118 R D
4205 1408 M 0 118 R D 4278 1408 M 0 118 R D 4352 1408 M 0 118 R D
4425 1408 M 0 118 R D 4499 1408 M 0 118 R D 4646 1408 M 0 118 R D
4719 1408 M 0 118 R D 4793 1408 M 0 118 R D 4866 1408 M 0 118 R D
4940 1408 M 0 118 R D 5013 1408 M 0 118 R D 5087 1408 M 0 118 R D
5161 1408 M 0 118 R D 5234 1408 M 0 118 R D 5381 1408 M 0 118 R D
5455 1408 M 0 118 R D 5528 1408 M 0 118 R D 5602 1408 M 0 118 R D
5675 1408 M 0 118 R D 5749 1408 M 0 118 R D 5822 1408 M 0 118 R D
5896 1408 M 0 118 R D 5969 1408 M 0 118 R D 6116 1408 M 0 118 R D
6190 1408 M 0 118 R D 6263 1408 M 0 118 R D 6337 1408 M 0 118 R D
6410 1408 M 0 118 R D 6484 1408 M 0 118 R D 6557 1408 M 0 118 R D
6631 1408 M 0 118 R D 6704 1408 M 0 118 R D 6851 1408 M 0 118 R D
6925 1408 M 0 118 R D 2220 7296 M 4705 0 R D 2367 7296 M 0 -235 R D
3102 7296 M 0 -235 R D 3837 7296 M 0 -235 R D 4572 7296 M 0 -235 R D
5308 7296 M 0 -235 R D 6043 7296 M 0 -235 R D 6778 7296 M 0 -235 R D
2220 7296 M 0 -118 R D 2294 7296 M 0 -118 R D 2441 7296 M 0 -118 R D
2514 7296 M 0 -118 R D 2588 7296 M 0 -118 R D 2661 7296 M 0 -118 R D
2735 7296 M 0 -118 R D 2808 7296 M 0 -118 R D 2882 7296 M 0 -118 R D
2955 7296 M 0 -118 R D 3029 7296 M 0 -118 R D 3176 7296 M 0 -118 R D
3249 7296 M 0 -118 R D 3323 7296 M 0 -118 R D 3396 7296 M 0 -118 R D
3470 7296 M 0 -118 R D 3543 7296 M 0 -118 R D 3617 7296 M 0 -118 R D
3690 7296 M 0 -118 R D 3764 7296 M 0 -118 R D 3911 7296 M 0 -118 R D
3984 7296 M 0 -118 R D 4058 7296 M 0 -118 R D 4131 7296 M 0 -118 R D
4205 7296 M 0 -118 R D 4278 7296 M 0 -118 R D 4352 7296 M 0 -118 R D
4425 7296 M 0 -118 R D 4499 7296 M 0 -118 R D 4646 7296 M 0 -118 R D
4719 7296 M 0 -118 R D 4793 7296 M 0 -118 R D 4866 7296 M 0 -118 R D
4940 7296 M 0 -118 R D 5013 7296 M 0 -118 R D 5087 7296 M 0 -118 R D
5161 7296 M 0 -118 R D 5234 7296 M 0 -118 R D 5381 7296 M 0 -118 R D
5455 7296 M 0 -118 R D 5528 7296 M 0 -118 R D 5602 7296 M 0 -118 R D
5675 7296 M 0 -118 R D 5749 7296 M 0 -118 R D 5822 7296 M 0 -118 R D
5896 7296 M 0 -118 R D 5969 7296 M 0 -118 R D 6116 7296 M 0 -118 R D
6190 7296 M 0 -118 R D 6263 7296 M 0 -118 R D 6337 7296 M 0 -118 R D
6410 7296 M 0 -118 R D 6484 7296 M 0 -118 R D 6557 7296 M 0 -118 R D
6631 7296 M 0 -118 R D 6704 7296 M 0 -118 R D 6851 7296 M 0 -118 R D
6925 7296 M 0 -118 R D 2220 1408 M 0 5888 R D 2220 1408 M 188 0 R D
gsave 2109 1408 translate 0 0 M -588.433 0 N
(0.0) show grestore 2220 2389 M 188 0 R D gsave 2109 2249 translate 0 0 M
-588.433 0 N
(0.1) show grestore 2220 3371 M 188 0 R D gsave 2109 3230 translate 0 0 M
-588.433 0 N
(0.2) show grestore 2220 4352 M 188 0 R D gsave 2109 4211 translate 0 0 M
-588.433 0 N
(0.3) show grestore 2220 5333 M 188 0 R D gsave 2109 5193 translate 0 0 M
-588.433 0 N
(0.4) show grestore 2220 6315 M 188 0 R D gsave 2109 6174 translate 0 0 M
-588.433 0 N
(0.5) show grestore 2220 7296 M 188 0 R D gsave 2109 7050 translate 0 0 M
-588.433 0 N
(0.6) show grestore 2220 1506 M 94 0 R D 2220 1604 M 94 0 R D 2220 1702 M
94 0 R D 2220 1801 M 94 0 R D 2220 1899 M 94 0 R D 2220 1997 M 94 0 R D
2220 2095 M 94 0 R D 2220 2193 M 94 0 R D 2220 2291 M 94 0 R D 2220 2488 M
94 0 R D 2220 2586 M 94 0 R D 2220 2684 M 94 0 R D 2220 2782 M 94 0 R D
2220 2880 M 94 0 R D 2220 2978 M 94 0 R D 2220 3076 M 94 0 R D 2220 3174 M
94 0 R D 2220 3273 M 94 0 R D 2220 3469 M 94 0 R D 2220 3567 M 94 0 R D
2220 3665 M 94 0 R D 2220 3763 M 94 0 R D 2220 3861 M 94 0 R D 2220 3960 M
94 0 R D 2220 4058 M 94 0 R D 2220 4156 M 94 0 R D 2220 4254 M 94 0 R D
2220 4450 M 94 0 R D 2220 4548 M 94 0 R D 2220 4646 M 94 0 R D 2220 4745 M
94 0 R D 2220 4843 M 94 0 R D 2220 4941 M 94 0 R D 2220 5039 M 94 0 R D
2220 5137 M 94 0 R D 2220 5235 M 94 0 R D 2220 5432 M 94 0 R D 2220 5530 M
94 0 R D 2220 5628 M 94 0 R D 2220 5726 M 94 0 R D 2220 5824 M 94 0 R D
2220 5922 M 94 0 R D 2220 6020 M 94 0 R D 2220 6118 M 94 0 R D 2220 6217 M
94 0 R D 2220 6413 M 94 0 R D 2220 6511 M 94 0 R D 2220 6609 M 94 0 R D
2220 6707 M 94 0 R D 2220 6805 M 94 0 R D 2220 6904 M 94 0 R D 2220 7002 M
94 0 R D 2220 7100 M 94 0 R D 2220 7198 M 94 0 R D 6925 1408 M 0 5888 R D
6925 1408 M -188 0 R D 6925 2389 M -188 0 R D 6925 3371 M -188 0 R D
6925 4352 M -188 0 R D 6925 5333 M -188 0 R D 6925 6315 M -188 0 R D
6925 7296 M -188 0 R D 6925 1506 M -94 0 R D 6925 1604 M -94 0 R D
6925 1702 M -94 0 R D 6925 1801 M -94 0 R D 6925 1899 M -94 0 R D
6925 1997 M -94 0 R D 6925 2095 M -94 0 R D 6925 2193 M -94 0 R D
6925 2291 M -94 0 R D 6925 2488 M -94 0 R D 6925 2586 M -94 0 R D
6925 2684 M -94 0 R D 6925 2782 M -94 0 R D 6925 2880 M -94 0 R D
6925 2978 M -94 0 R D 6925 3076 M -94 0 R D 6925 3174 M -94 0 R D
6925 3273 M -94 0 R D 6925 3469 M -94 0 R D 6925 3567 M -94 0 R D
6925 3665 M -94 0 R D 6925 3763 M -94 0 R D 6925 3861 M -94 0 R D
6925 3960 M -94 0 R D 6925 4058 M -94 0 R D 6925 4156 M -94 0 R D
6925 4254 M -94 0 R D 6925 4450 M -94 0 R D 6925 4548 M -94 0 R D
6925 4646 M -94 0 R D 6925 4745 M -94 0 R D 6925 4843 M -94 0 R D
6925 4941 M -94 0 R D 6925 5039 M -94 0 R D 6925 5137 M -94 0 R D
6925 5235 M -94 0 R D 6925 5432 M -94 0 R D 6925 5530 M -94 0 R D
6925 5628 M -94 0 R D 6925 5726 M -94 0 R D 6925 5824 M -94 0 R D
6925 5922 M -94 0 R D 6925 6020 M -94 0 R D 6925 6118 M -94 0 R D
6925 6217 M -94 0 R D 6925 6413 M -94 0 R D 6925 6511 M -94 0 R D
6925 6609 M -94 0 R D 6925 6707 M -94 0 R D 6925 6805 M -94 0 R D
6925 6904 M -94 0 R D 6925 7002 M -94 0 R D 6925 7100 M -94 0 R D
6925 7198 M -94 0 R D 0.761 0.000 0.000 setrgbcolor 2367 1408 M 221 1 R
220 0 R 221 0 R 220 0 R 221 1 R 220 2 R 221 3 R 220 13 R 221 159 R
136 5709 R D 4655 7296 M 138 -5711 R 220 -157 R 221 -13 R 221 -4 R 220 -1 R
221 -1 R 220 0 R 221 0 R 220 0 R 221 -1 R D 0.000 0.549 0.000 setrgbcolor
2367 1408 M 221 1 R 220 0 R 221 0 R 220 0 R 221 1 R 220 1 R 221 4 R 220 14 R
221 156 R 136 5711 R D 4655 7296 M 138 -5710 R 220 -158 R 221 -13 R 221 -3 R
220 -2 R 221 -1 R 220 0 R 221 0 R 220 0 R 221 -1 R D
0.000 0.000 1.000 setrgbcolor 2367 1408 M 221 1 R 220 0 R 221 0 R 220 0 R
221 1 R 220 2 R 221 3 R 220 14 R 221 156 R 136 5711 R D 4655 7296 M
138 -5713 R 220 -155 R 221 -13 R 221 -4 R 220 -1 R 221 -1 R 220 0 R 221 0 R
220 0 R 221 -1 R D 0.000 0.000 0.000 setrgbcolor 6925 1408 M 4704 0 R D
7072 1408 M 0 236 R D gsave 7072 880 translate 0 0 M -364.702 0 N
(-0.3) show grestore 7807 1408 M 0 236 R D gsave 7807 880 translate 0 0 M
-364.702 0 N
(-0.2) show grestore 8542 1408 M 0 236 R D gsave 8542 880 translate 0 0 M
-364.702 0 N
(-0.1) show grestore 9277 1408 M 0 236 R D gsave 9277 880 translate 0 0 M
-294.217 0 N
(0.0) show grestore 10012 1408 M 0 236 R D gsave 10012 880 translate 0 0 M
-294.217 0 N
(0.1) show grestore 10747 1408 M 0 236 R D gsave 10747 880 translate 0 0 M
-294.217 0 N
(0.2) show grestore 11482 1408 M 0 236 R D gsave 11482 880 translate 0 0 M
-294.217 0 N
(0.3) show grestore 6925 1408 M 0 118 R D 6998 1408 M 0 118 R D 7145 1408 M
0 118 R D 7219 1408 M 0 118 R D 7292 1408 M 0 118 R D 7366 1408 M 0 118 R D
7439 1408 M 0 118 R D 7513 1408 M 0 118 R D 7586 1408 M 0 118 R D
7660 1408 M 0 118 R D 7733 1408 M 0 118 R D 7880 1408 M 0 118 R D
7954 1408 M 0 118 R D 8027 1408 M 0 118 R D 8101 1408 M 0 118 R D
8174 1408 M 0 118 R D 8248 1408 M 0 118 R D 8321 1408 M 0 118 R D
8395 1408 M 0 118 R D 8468 1408 M 0 118 R D 8615 1408 M 0 118 R D
8689 1408 M 0 118 R D 8763 1408 M 0 118 R D 8836 1408 M 0 118 R D
8910 1408 M 0 118 R D 8983 1408 M 0 118 R D 9057 1408 M 0 118 R D
9130 1408 M 0 118 R D 9204 1408 M 0 118 R D 9351 1408 M 0 118 R D
9424 1408 M 0 118 R D 9498 1408 M 0 118 R D 9571 1408 M 0 118 R D
9645 1408 M 0 118 R D 9718 1408 M 0 118 R D 9792 1408 M 0 118 R D
9865 1408 M 0 118 R D 9939 1408 M 0 118 R D 10086 1408 M 0 118 R D
10159 1408 M 0 118 R D 10233 1408 M 0 118 R D 10306 1408 M 0 118 R D
10380 1408 M 0 118 R D 10453 1408 M 0 118 R D 10527 1408 M 0 118 R D
10600 1408 M 0 118 R D 10674 1408 M 0 118 R D 10821 1408 M 0 118 R D
10894 1408 M 0 118 R D 10968 1408 M 0 118 R D 11041 1408 M 0 118 R D
11115 1408 M 0 118 R D 11188 1408 M 0 118 R D 11262 1408 M 0 118 R D
11335 1408 M 0 118 R D 11409 1408 M 0 118 R D 11556 1408 M 0 118 R D
11629 1408 M 0 118 R D 6925 7296 M 4704 0 R D 7072 7296 M 0 -235 R D
7807 7296 M 0 -235 R D 8542 7296 M 0 -235 R D 9277 7296 M 0 -235 R D
10012 7296 M 0 -235 R D 10747 7296 M 0 -235 R D 11482 7296 M 0 -235 R D
6925 7296 M 0 -118 R D 6998 7296 M 0 -118 R D 7145 7296 M 0 -118 R D
7219 7296 M 0 -118 R D 7292 7296 M 0 -118 R D 7366 7296 M 0 -118 R D
7439 7296 M 0 -118 R D 7513 7296 M 0 -118 R D 7586 7296 M 0 -118 R D
7660 7296 M 0 -118 R D 7733 7296 M 0 -118 R D 7880 7296 M 0 -118 R D
7954 7296 M 0 -118 R D 8027 7296 M 0 -118 R D 8101 7296 M 0 -118 R D
8174 7296 M 0 -118 R D 8248 7296 M 0 -118 R D 8321 7296 M 0 -118 R D
8395 7296 M 0 -118 R D 8468 7296 M 0 -118 R D 8615 7296 M 0 -118 R D
8689 7296 M 0 -118 R D 8763 7296 M 0 -118 R D 8836 7296 M 0 -118 R D
8910 7296 M 0 -118 R D 8983 7296 M 0 -118 R D 9057 7296 M 0 -118 R D
9130 7296 M 0 -118 R D 9204 7296 M 0 -118 R D 9351 7296 M 0 -118 R D
9424 7296 M 0 -118 R D 9498 7296 M 0 -118 R D 9571 7296 M 0 -118 R D
9645 7296 M 0 -118 R D 9718 7296 M 0 -118 R D 9792 7296 M 0 -118 R D
9865 7296 M 0 -118 R D 9939 7296 M 0 -118 R D 10086 7296 M 0 -118 R D
10159 7296 M 0 -118 R D 10233 7296 M 0 -118 R D 10306 7296 M 0 -118 R D
10380 7296 M 0 -118 R D 10453 7296 M 0 -118 R D 10527 7296 M 0 -118 R D
10600 7296 M 0 -118 R D 10674 7296 M 0 -118 R D 10821 7296 M 0 -118 R D
10894 7296 M 0 -118 R D 10968 7296 M 0 -118 R D 11041 7296 M 0 -118 R D
11115 7296 M 0 -118 R D 11188 7296 M 0 -118 R D 11262 7296 M 0 -118 R D
11335 7296 M 0 -118 R D 11409 7296 M 0 -118 R D 11556 7296 M 0 -118 R D
11629 7296 M 0 -118 R D 6925 1408 M 0 5888 R D 6925 1408 M 188 0 R D
gsave 6814 1408 translate 0 0 M -117.687 0 N
( ) show grestore 6925 2389 M 188 0 R D gsave 6814 2249 translate 0 0 M
-117.687 0 N
( ) show grestore 6925 3371 M 188 0 R D gsave 6814 3230 translate 0 0 M
-117.687 0 N
( ) show grestore 6925 4352 M 188 0 R D gsave 6814 4211 translate 0 0 M
-117.687 0 N
( ) show grestore 6925 5333 M 188 0 R D gsave 6814 5193 translate 0 0 M
-117.687 0 N
( ) show grestore 6925 6315 M 188 0 R D gsave 6814 6174 translate 0 0 M
-117.687 0 N
( ) show grestore 6925 7296 M 188 0 R D gsave 6814 7050 translate 0 0 M
-117.687 0 N
( ) show grestore 6925 1506 M 94 0 R D 6925 1604 M 94 0 R D 6925 1702 M
94 0 R D 6925 1801 M 94 0 R D 6925 1899 M 94 0 R D 6925 1997 M 94 0 R D
6925 2095 M 94 0 R D 6925 2193 M 94 0 R D 6925 2291 M 94 0 R D 6925 2488 M
94 0 R D 6925 2586 M 94 0 R D 6925 2684 M 94 0 R D 6925 2782 M 94 0 R D
6925 2880 M 94 0 R D 6925 2978 M 94 0 R D 6925 3076 M 94 0 R D 6925 3174 M
94 0 R D 6925 3273 M 94 0 R D 6925 3469 M 94 0 R D 6925 3567 M 94 0 R D
6925 3665 M 94 0 R D 6925 3763 M 94 0 R D 6925 3861 M 94 0 R D 6925 3960 M
94 0 R D 6925 4058 M 94 0 R D 6925 4156 M 94 0 R D 6925 4254 M 94 0 R D
6925 4450 M 94 0 R D 6925 4548 M 94 0 R D 6925 4646 M 94 0 R D 6925 4745 M
94 0 R D 6925 4843 M 94 0 R D 6925 4941 M 94 0 R D 6925 5039 M 94 0 R D
6925 5137 M 94 0 R D 6925 5235 M 94 0 R D 6925 5432 M 94 0 R D 6925 5530 M
94 0 R D 6925 5628 M 94 0 R D 6925 5726 M 94 0 R D 6925 5824 M 94 0 R D
6925 5922 M 94 0 R D 6925 6020 M 94 0 R D 6925 6118 M 94 0 R D 6925 6217 M
94 0 R D 6925 6413 M 94 0 R D 6925 6511 M 94 0 R D 6925 6609 M 94 0 R D
6925 6707 M 94 0 R D 6925 6805 M 94 0 R D 6925 6904 M 94 0 R D 6925 7002 M
94 0 R D 6925 7100 M 94 0 R D 6925 7198 M 94 0 R D 11629 1408 M 0 5888 R D
11629 1408 M -188 0 R D 11629 2389 M -188 0 R D 11629 3371 M -188 0 R D
11629 4352 M -188 0 R D 11629 5333 M -188 0 R D 11629 6315 M -188 0 R D
11629 7296 M -188 0 R D 11629 1506 M -94 0 R D 11629 1604 M -94 0 R D
11629 1702 M -94 0 R D 11629 1801 M -94 0 R D 11629 1899 M -94 0 R D
11629 1997 M -94 0 R D 11629 2095 M -94 0 R D 11629 2193 M -94 0 R D
11629 2291 M -94 0 R D 11629 2488 M -94 0 R D 11629 2586 M -94 0 R D
11629 2684 M -94 0 R D 11629 2782 M -94 0 R D 11629 2880 M -94 0 R D
11629 2978 M -94 0 R D 11629 3076 M -94 0 R D 11629 3174 M -94 0 R D
11629 3273 M -94 0 R D 11629 3469 M -94 0 R D 11629 3567 M -94 0 R D
11629 3665 M -94 0 R D 11629 3763 M -94 0 R D 11629 3861 M -94 0 R D
11629 3960 M -94 0 R D 11629 4058 M -94 0 R D 11629 4156 M -94 0 R D
11629 4254 M -94 0 R D 11629 4450 M -94 0 R D 11629 4548 M -94 0 R D
11629 4646 M -94 0 R D 11629 4745 M -94 0 R D 11629 4843 M -94 0 R D
11629 4941 M -94 0 R D 11629 5039 M -94 0 R D 11629 5137 M -94 0 R D
11629 5235 M -94 0 R D 11629 5432 M -94 0 R D 11629 5530 M -94 0 R D
11629 5628 M -94 0 R D 11629 5726 M -94 0 R D 11629 5824 M -94 0 R D
11629 5922 M -94 0 R D 11629 6020 M -94 0 R D 11629 6118 M -94 0 R D
11629 6217 M -94 0 R D 11629 6413 M -94 0 R D 11629 6511 M -94 0 R D
11629 6609 M -94 0 R D 11629 6707 M -94 0 R D 11629 6805 M -94 0 R D
11629 6904 M -94 0 R D 11629 7002 M -94 0 R D 11629 7100 M -94 0 R D
11629 7198 M -94 0 R D 0.761 0.000 0.000 setrgbcolor 7072 1409 M 220 1 R
221 0 R 220 1 R 221 2 R 220 2 R 221 5 R 220 13 R 221 55 R 221 609 R
152 5199 R D 9344 7296 M 154 -5206 R 220 -599 R 221 -56 R 220 -15 R 221 -5 R
220 -3 R 221 -1 R 220 -1 R 221 0 R 220 -1 R D 0.000 0.549 0.000 setrgbcolor
7072 1409 M 220 1 R 221 0 R 220 1 R 221 1 R 220 3 R 221 5 R 220 13 R
221 56 R 221 601 R 152 5206 R D 9344 7296 M 154 -5201 R 220 -607 R 221 -55 R
220 -14 R 221 -4 R 220 -3 R 221 -1 R 220 -1 R 221 -1 R 220 0 R D
0.000 0.000 1.000 setrgbcolor 7072 1409 M 220 1 R 221 0 R 220 1 R 221 1 R
220 3 R 221 5 R 220 15 R 221 54 R 221 599 R 152 5208 R D 9344 7296 M
154 -5208 R 220 -601 R 221 -55 R 220 -12 R 221 -6 R 220 -2 R 221 -1 R
220 -1 R 221 0 R 220 -1 R D 0.000 0.000 0.000 setrgbcolor 11629 1408 M
4705 0 R D 11776 1408 M 0 236 R D gsave 11776 880 translate 0 0 M
-364.702 0 N
(-0.3) show grestore 12512 1408 M 0 236 R D gsave 12512 880 translate 0 0 M
-364.702 0 N
(-0.2) show grestore 13247 1408 M 0 236 R D gsave 13247 880 translate 0 0 M
-364.702 0 N
(-0.1) show grestore 13982 1408 M 0 236 R D gsave 13982 880 translate 0 0 M
-294.217 0 N
(0.0) show grestore 14717 1408 M 0 236 R D gsave 14717 880 translate 0 0 M
-294.217 0 N
(0.1) show grestore 15452 1408 M 0 236 R D gsave 15452 880 translate 0 0 M
-294.217 0 N
(0.2) show grestore 16187 1408 M 0 236 R D gsave 16187 880 translate 0 0 M
-294.217 0 N
(0.3) show grestore 11629 1408 M 0 118 R D 11703 1408 M 0 118 R D
11850 1408 M 0 118 R D 11923 1408 M 0 118 R D 11997 1408 M 0 118 R D
12070 1408 M 0 118 R D 12144 1408 M 0 118 R D 12218 1408 M 0 118 R D
12291 1408 M 0 118 R D 12365 1408 M 0 118 R D 12438 1408 M 0 118 R D
12585 1408 M 0 118 R D 12659 1408 M 0 118 R D 12732 1408 M 0 118 R D
12806 1408 M 0 118 R D 12879 1408 M 0 118 R D 12953 1408 M 0 118 R D
13026 1408 M 0 118 R D 13100 1408 M 0 118 R D 13173 1408 M 0 118 R D
13320 1408 M 0 118 R D 13394 1408 M 0 118 R D 13467 1408 M 0 118 R D
13541 1408 M 0 118 R D 13614 1408 M 0 118 R D 13688 1408 M 0 118 R D
13761 1408 M 0 118 R D 13835 1408 M 0 118 R D 13908 1408 M 0 118 R D
14055 1408 M 0 118 R D 14129 1408 M 0 118 R D 14202 1408 M 0 118 R D
14276 1408 M 0 118 R D 14349 1408 M 0 118 R D 14423 1408 M 0 118 R D
14496 1408 M 0 118 R D 14570 1408 M 0 118 R D 14643 1408 M 0 118 R D
14790 1408 M 0 118 R D 14864 1408 M 0 118 R D 14937 1408 M 0 118 R D
15011 1408 M 0 118 R D 15084 1408 M 0 118 R D 15158 1408 M 0 118 R D
15231 1408 M 0 118 R D 15305 1408 M 0 118 R D 15378 1408 M 0 118 R D
15525 1408 M 0 118 R D 15599 1408 M 0 118 R D 15672 1408 M 0 118 R D
15746 1408 M 0 118 R D 15820 1408 M 0 118 R D 15893 1408 M 0 118 R D
15967 1408 M 0 118 R D 16040 1408 M 0 118 R D 16114 1408 M 0 118 R D
16261 1408 M 0 118 R D 16334 1408 M 0 118 R D 11629 7296 M 4705 0 R D
11776 7296 M 0 -235 R D 12512 7296 M 0 -235 R D 13247 7296 M 0 -235 R D
13982 7296 M 0 -235 R D 14717 7296 M 0 -235 R D 15452 7296 M 0 -235 R D
16187 7296 M 0 -235 R D 11629 7296 M 0 -118 R D 11703 7296 M 0 -118 R D
11850 7296 M 0 -118 R D 11923 7296 M 0 -118 R D 11997 7296 M 0 -118 R D
12070 7296 M 0 -118 R D 12144 7296 M 0 -118 R D 12218 7296 M 0 -118 R D
12291 7296 M 0 -118 R D 12365 7296 M 0 -118 R D 12438 7296 M 0 -118 R D
12585 7296 M 0 -118 R D 12659 7296 M 0 -118 R D 12732 7296 M 0 -118 R D
12806 7296 M 0 -118 R D 12879 7296 M 0 -118 R D 12953 7296 M 0 -118 R D
13026 7296 M 0 -118 R D 13100 7296 M 0 -118 R D 13173 7296 M 0 -118 R D
13320 7296 M 0 -118 R D 13394 7296 M 0 -118 R D 13467 7296 M 0 -118 R D
13541 7296 M 0 -118 R D 13614 7296 M 0 -118 R D 13688 7296 M 0 -118 R D
13761 7296 M 0 -118 R D 13835 7296 M 0 -118 R D 13908 7296 M 0 -118 R D
14055 7296 M 0 -118 R D 14129 7296 M 0 -118 R D 14202 7296 M 0 -118 R D
14276 7296 M 0 -118 R D 14349 7296 M 0 -118 R D 14423 7296 M 0 -118 R D
14496 7296 M 0 -118 R D 14570 7296 M 0 -118 R D 14643 7296 M 0 -118 R D
14790 7296 M 0 -118 R D 14864 7296 M 0 -118 R D 14937 7296 M 0 -118 R D
15011 7296 M 0 -118 R D 15084 7296 M 0 -118 R D 15158 7296 M 0 -118 R D
15231 7296 M 0 -118 R D 15305 7296 M 0 -118 R D 15378 7296 M 0 -118 R D
15525 7296 M 0 -118 R D 15599 7296 M 0 -118 R D 15672 7296 M 0 -118 R D
15746 7296 M 0 -118 R D 15820 7296 M 0 -118 R D 15893 7296 M 0 -118 R D
15967 7296 M 0 -118 R D 16040 7296 M 0 -118 R D 16114 7296 M 0 -118 R D
16261 7296 M 0 -118 R D 16334 7296 M 0 -118 R D 11629 1408 M 0 5888 R D
11629 1408 M 189 0 R D gsave 11518 1408 translate 0 0 M -117.687 0 N
( ) show grestore 11629 2389 M 189 0 R D gsave 11518 2249 translate 0 0 M
-117.687 0 N
( ) show grestore 11629 3371 M 189 0 R D gsave 11518 3230 translate 0 0 M
-117.687 0 N
( ) show grestore 11629 4352 M 189 0 R D gsave 11518 4211 translate 0 0 M
-117.687 0 N
( ) show grestore 11629 5333 M 189 0 R D gsave 11518 5193 translate 0 0 M
-117.687 0 N
( ) show grestore 11629 6315 M 189 0 R D gsave 11518 6174 translate 0 0 M
-117.687 0 N
( ) show grestore 11629 7296 M 189 0 R D gsave 11518 7050 translate 0 0 M
-117.687 0 N
( ) show grestore 11629 1506 M 95 0 R D 11629 1604 M 95 0 R D 11629 1702 M
95 0 R D 11629 1801 M 95 0 R D 11629 1899 M 95 0 R D 11629 1997 M 95 0 R D
11629 2095 M 95 0 R D 11629 2193 M 95 0 R D 11629 2291 M 95 0 R D
11629 2488 M 95 0 R D 11629 2586 M 95 0 R D 11629 2684 M 95 0 R D
11629 2782 M 95 0 R D 11629 2880 M 95 0 R D 11629 2978 M 95 0 R D
11629 3076 M 95 0 R D 11629 3174 M 95 0 R D 11629 3273 M 95 0 R D
11629 3469 M 95 0 R D 11629 3567 M 95 0 R D 11629 3665 M 95 0 R D
11629 3763 M 95 0 R D 11629 3861 M 95 0 R D 11629 3960 M 95 0 R D
11629 4058 M 95 0 R D 11629 4156 M 95 0 R D 11629 4254 M 95 0 R D
11629 4450 M 95 0 R D 11629 4548 M 95 0 R D 11629 4646 M 95 0 R D
11629 4745 M 95 0 R D 11629 4843 M 95 0 R D 11629 4941 M 95 0 R D
11629 5039 M 95 0 R D 11629 5137 M 95 0 R D 11629 5235 M 95 0 R D
11629 5432 M 95 0 R D 11629 5530 M 95 0 R D 11629 5628 M 95 0 R D
11629 5726 M 95 0 R D 11629 5824 M 95 0 R D 11629 5922 M 95 0 R D
11629 6020 M 95 0 R D 11629 6118 M 95 0 R D 11629 6217 M 95 0 R D
11629 6413 M 95 0 R D 11629 6511 M 95 0 R D 11629 6609 M 95 0 R D
11629 6707 M 95 0 R D 11629 6805 M 95 0 R D 11629 6904 M 95 0 R D
11629 7002 M 95 0 R D 11629 7100 M 95 0 R D 11629 7198 M 95 0 R D
16334 1408 M 0 5888 R D 16334 1408 M -188 0 R D 16334 2389 M -188 0 R D
16334 3371 M -188 0 R D 16334 4352 M -188 0 R D 16334 5333 M -188 0 R D
16334 6315 M -188 0 R D 16334 7296 M -188 0 R D 16334 1506 M -94 0 R D
16334 1604 M -94 0 R D 16334 1702 M -94 0 R D 16334 1801 M -94 0 R D
16334 1899 M -94 0 R D 16334 1997 M -94 0 R D 16334 2095 M -94 0 R D
16334 2193 M -94 0 R D 16334 2291 M -94 0 R D 16334 2488 M -94 0 R D
16334 2586 M -94 0 R D 16334 2684 M -94 0 R D 16334 2782 M -94 0 R D
16334 2880 M -94 0 R D 16334 2978 M -94 0 R D 16334 3076 M -94 0 R D
16334 3174 M -94 0 R D 16334 3273 M -94 0 R D 16334 3469 M -94 0 R D
16334 3567 M -94 0 R D 16334 3665 M -94 0 R D 16334 3763 M -94 0 R D
16334 3861 M -94 0 R D 16334 3960 M -94 0 R D 16334 4058 M -94 0 R D
16334 4156 M -94 0 R D 16334 4254 M -94 0 R D 16334 4450 M -94 0 R D
16334 4548 M -94 0 R D 16334 4646 M -94 0 R D 16334 4745 M -94 0 R D
16334 4843 M -94 0 R D 16334 4941 M -94 0 R D 16334 5039 M -94 0 R D
16334 5137 M -94 0 R D 16334 5235 M -94 0 R D 16334 5432 M -94 0 R D
16334 5530 M -94 0 R D 16334 5628 M -94 0 R D 16334 5726 M -94 0 R D
16334 5824 M -94 0 R D 16334 5922 M -94 0 R D 16334 6020 M -94 0 R D
16334 6118 M -94 0 R D 16334 6217 M -94 0 R D 16334 6413 M -94 0 R D
16334 6511 M -94 0 R D 16334 6609 M -94 0 R D 16334 6707 M -94 0 R D
16334 6805 M -94 0 R D 16334 6904 M -94 0 R D 16334 7002 M -94 0 R D
16334 7100 M -94 0 R D 16334 7198 M -94 0 R D 0.761 0.000 0.000 setrgbcolor
11776 1419 M 221 5 R 221 5 R 220 9 R 221 15 R 220 27 R 221 61 R 220 143 R
221 424 R 220 1259 R 221 1333 R 220 -1345 R 221 -1237 R 220 -436 R
221 -140 R 220 -59 R 221 -29 R 220 -17 R 221 -8 R 221 -6 R 220 -5 R D
0.000 0.549 0.000 setrgbcolor 11776 1419 M 221 4 R 221 6 R 220 10 R 221 14 R
220 29 R 221 59 R 220 147 R 221 425 R 220 1235 R 221 1349 R 220 -1327 R
221 -1255 R 220 -430 R 221 -143 R 220 -59 R 221 -34 R 220 -11 R 221 -9 R
221 -8 R 220 -2 R D 0.000 0.000 1.000 setrgbcolor 11776 1418 M 221 5 R
221 4 R 220 12 R 221 15 R 220 30 R 221 55 R 220 148 R 221 426 R 220 1244 R
221 1359 R 220 -1346 R 221 -1264 R 220 -428 R 221 -144 R 220 -55 R 221 -28 R
220 -13 R 221 -10 R 221 -5 R 220 -5 R D
%%PageTrailer
end
%%PageResources: font Helvetica
%%+ font Symbol
%%Trailer
%%Pages: 1
%%DocumentNeededResources: font Helvetica
%%+ font Symbol
%%EOF
